facetNormals:0,facetNormals:1,facetNormals:2,FacetCenters:0,FacetCenters:1,FacetCenters:2,FacetIds,relFacetSize,absFacetSize,cellPairingIds,interplanarAngles,angleWeights
-0.700817,0.151609,-0.637803,3.97648,6.45124,11.7143,1,0.00943219,0.00101984,8,57.3871,0.00424239
-0.256299,-0.67387,-0.685048,4.03272,6.3922,11.6819,2,0.00273664,0.000295894,13,134.542,0.0149987
0.955625,-0.0550641,-0.0514517,4.08875,6.36037,11.6628,3,0.0365963,0.0039569,19,93.1681,0.0169422
0.467064,0.811057,-0.240072,4.02284,6.4474,11.7274,4,0.083134,0.00898871,26,86.8226,0.0113317
0.092866,1.00122,0.0519861,3.95416,6.47737,11.7624,5,0.0141893,0.00153419,34,98.6328,0.00973044
-0.172459,-0.958747,0.185558,4.00358,6.39552,11.6973,6,0.0100482,0.00108644,43,137.667,0.0157187
0.756795,0.474071,0.346598,4.04508,6.42376,11.7397,7,0.047132,0.00509606,53,89.5564,0.0171934
-0.25193,0.802016,0.456323,3.89036,6.47137,11.8068,8,0.0970523,0.0104936,64,113.733,0.010969
-0.130642,-0.816751,0.551391,3.94354,6.3564,11.7572,9,0.0131041,0.00141685,76,90.3184,0.0178129
-0.612681,-0.495588,0.563511,3.86378,6.37358,11.7819,10,0.159797,0.0172777,89,146.046,0.0178924
0.394559,-0.629516,0.643599,3.99142,6.32555,11.7511,11,0.173625,0.0187728,103,164.261,0.0178541
0.509272,-0.180915,0.821613,3.98819,6.41656,11.795,12,0.166688,0.0180228,18,100.429,0.00509246
,,,,,,,,,25,121.479,0.00529884
,,,,,,,,,33,137.148,0.00458834
,,,,,,,,,42,55.1783,0.0043017
,,,,,,,,,52,142.014,0.00517292
,,,,,,,,,63,145.983,0.00532317
,,,,,,,,,75,77.965,0.00452771
,,,,,,,,,88,83.7459,0.00538112
,,,,,,,,,102,96.9217,0.00538834
,,,,,,,,,117,125.752,0.00538487
,,,,,,,,,32,63.4479,0.0508208
,,,,,,,,,41,88.163,0.0204497
,,,,,,,,,51,97.3471,0.0157672
,,,,,,,,,62,42.2903,0.0412013
,,,,,,,,,74,109.654,0.0531506
,,,,,,,,,87,96.5223,0.0192981
,,,,,,,,,101,129.22,0.0595537
,,,,,,,,,116,66.3089,0.0604509
,,,,,,,,,132,61.1856,0.0600161
,,,,,,,,,50,29.9503,0.0242412
,,,,,,,,,61,160.41,0.0179293
,,,,,,,,,73,44.975,0.0601581
,,,,,,,,,86,62.7438,0.0895556
,,,,,,,,,100,153.001,0.0226396
,,,,,,,,,115,151.599,0.109369
,,,,,,,,,131,120.414,0.112433
,,,,,,,,,148,96.4119,0.110939
,,,,,,,,,72,165.417,0.011765
,,,,,,,,,85,54.2907,0.021812
,,,,,,,,,99,33.4762,0.0247588
,,,,,,,,,114,143.178,0.0136251
,,,,,,,,,130,122.479,0.0260642
,,,,,,,,,147,124.473,0.0262346
,,,,,,,,,165,95.2806,0.0261524
,,,,,,,,,98,123.241,0.0165648
,,,,,,,,,113,132.499,0.0182109
,,,,,,,,,129,22.9263,0.0113744
,,,,,,,,,146,44.4866,0.0189074
,,,,,,,,,164,47.7862,0.0189969
,,,,,,,,,183,75.8696,0.0189538
,,,,,,,,,128,67.698,0.0634503
,,,,,,,,,145,108.044,0.0205067
,,,,,,,,,163,122.844,0.0727936
,,,,,,,,,182,76.2855,0.0741385
,,,,,,,,,202,51.657,0.0734856
,,,,,,,,,162,112.934,0.0230905
,,,,,,,,,181,89.1327,0.120761
,,,,,,,,,201,109.29,0.124508
,,,,,,,,,222,83.8042,0.122677
,,,,,,,,,200,34.3036,0.0242219
,,,,,,,,,221,33.2144,0.0243689
,,,,,,,,,243,56.8727,0.024298
,,,,,,,,,242,62.9594,0.166424
,,,,,,,,,265,75.3706,0.16317
,,,,,,,,,288,29.2248,0.170086
