"cellPairingIds","interplanarAngles","angleWeights"
25,53.5795,0.0220006
88,111.985,0.0177666
102,76.3502,0.0162285
32,34.8035,0.0777238
101,151.021,0.0421972
116,57.0061,0.0344437
167,76.4068,0.0531812
115,163.058,0.0503782
131,45.3091,0.039707
242,146.92,0.027765
314,96.834,0.0387786
339,68.8749,0.0321316
