"cellPairingIds","interplanarAngles","angleWeights"
8,71.0787,0.0590787
13,71.2779,0.0263016
19,48.7137,0.0471196
53,103.478,0.0259977
89,92.8535,0.0387426
18,76.106,0.0369928
25,78.1185,0.0977107
33,78.5458,0.0959723
42,49.2155,0.0736975
52,70.3377,0.0871773
62,83.5319,0.030708
74,59.063,0.0205886
50,31.1126,0.0679548
100,40.3487,0.077019
131,86.9573,0.0523037
72,82.3842,0.0554006
114,36.0308,0.0759348
204,71.3946,0.0422586
98,30.3799,0.0523518
224,61.9164,0.0372951
128,90.9079,0.0302945
245,60.7206,0.0404612
201,54.767,0.0275016
222,41.0495,0.0251848
267,98.9596,0.0245574
221,56.9846,0.0569067
290,71.9441,0.0455955
288,29.4743,0.0369645
339,83.6654,0.0356287
365,67.6607,0.0318346
