facetNormals:0,facetNormals:1,facetNormals:2,FacetCenters:0,FacetCenters:1,FacetCenters:2,FacetIds,relFacetSize,absFacetSize,cellPairingIds,interplanarAngles,angleWeights
0.591702,-0.00860168,-0.740434,3.83506,6.23411,10.682,1,0.132386,0.0486219,8,88.3539,0.0538248
-0.544022,0.652892,-0.478188,3.76607,6.39709,10.7537,2,0.0337793,0.0124062,13,47.703,0.106746
0.634761,0.608793,-0.30053,3.88042,6.37621,10.7891,3,0.0894268,0.032844,19,90.8668,0.0736799
0.206044,-0.842027,0.19163,3.81341,6.11763,10.7637,4,0.0510443,0.0187472,26,131.457,0.167278
-0.867203,-0.168383,0.0593431,3.73372,6.23005,10.7623,5,0.227143,0.0834233,34,97.1461,0.116251
-0.0540857,0.929121,0.0949653,3.84177,6.41118,10.8794,6,0.103622,0.0380575,43,131.626,0.11226
-0.817873,0.490485,0.163494,3.74077,6.33236,10.8203,7,0.0974451,0.0357889,18,77.5198,0.0490361
,,,,,,,,,25,150.499,0.0406548
,,,,,,,,,33,67.2797,0.0588124
,,,,,,,,,42,49.6519,0.0509497
,,,,,,,,,52,43.2717,0.0501679
,,,,,,,,,32,122.177,0.0649917
,,,,,,,,,41,144.603,0.12833
,,,,,,,,,51,54.6748,0.0960025
,,,,,,,,,62,107.45,0.0932639
,,,,,,,,,50,91.861,0.0833565
,,,,,,,,,61,158.98,0.0683965
,,,,,,,,,73,129.828,0.0669949
,,,,,,,,,72,97.2066,0.142319
,,,,,,,,,85,42.027,0.136382
,,,,,,,,,98,55.287,0.100439
