Q	U	V
{$V$}	{[mm$^3$]}	0.0145569
{$d_v$}	{[mm]}	0.302940
{$S_c$}	{[mm$^2$]}	0.478166
{$S_o$}	{[mm$^2$]}	0.336834
{$S_l/S_o$}	[]	0.419589
{$\Psi$}	[]	0.602955
{$\eta$}	[]	0.638548
{med($\theta_e$)}	{[$^\circ$]}	62.6422
{$\Upsilon$}	[]	12
{$\Xi$}	[]	9
