Q	U	V
{$V$}	{[mm$^3$]}	0.00465004
{$d_v$}	{[mm]}	0.207087
{$S_c$}	{[mm$^2$]}	0.291751
{$S_o$}	{[mm$^2$]}	0.157143
{$S_l/S_o$}	[]	0.856596
{$\Psi$}	[]	0.461788
{$\eta$}	[]	0.495080
{med($\theta_e$)}	{[$^\circ$]}	103.69585
{$\Upsilon$}	[]	13
{$\Xi$}	[]	8
