Q	U	V
{$V$}	{[mm$^3$]}	0.00810788
{$d_v$}	{[mm]}	0.249251
{$S_c$}	{[mm$^2$]}	0.388022
{$S_o$}	{[mm$^2$]}	0.24245
{$S_l/S_o$}	[]	0.600421
{$\Psi$}	[]	0.502998
{$\eta$}	[]	0.527625
{med($\theta_e$)}	{[$^\circ$]}	59.51355
{$\Upsilon$}	[]	12
{$\Xi$}	[]	9
