Q	U	V
{$V$}	{[mm$^3$]}	0.00379033
{$d_v$}	{[mm]}	0.193446
{$S_c$}	{[mm$^2$]}	0.257177
{$S_o$}	{[mm$^2$]}	0.134744
{$S_l/S_o$}	[]	0.908634
{$\Psi$}	[]	0.457127
{$\eta$}	[]	0.515711
{med($\theta_e$)}	{[$^\circ$]}	
{$\Upsilon$}	[]	12
{$\Xi$}	[]	11
