"cellPairingIds","interplanarAngles","angleWeights"
8,64.4963,0.0317357
13,76.5791,0.0383933
26,87.6093,0.0123787
34,46.4622,0.0252627
43,71.1228,0.0122349
18,27.9541,0.0484273
52,83.5616,0.0130999
117,97.2745,0.0584962
41,45.7613,0.0143014
116,70.4409,0.0841957
132,93.064,0.0859768
72,94.2346,0.0119816
114,77.0221,0.0153044
130,55.1277,0.0115349
147,53.003,0.0150116
98,82.8632,0.0118469
113,20.8145,0.0198082
129,37.9429,0.0414243
128,74.8421,0.0107953
202,95.3301,0.0148549
223,60.1321,0.0139022
162,38.669,0.030899
244,78.785,0.0263123
200,50.8435,0.0365327
266,95.0448,0.085753
242,45.3839,0.0349074
265,79.4711,0.0352098
289,94.0067,0.0302899
288,47.9126,0.120153
338,56.8041,0.0788034
