facetNormals:0,facetNormals:1,facetNormals:2,FacetCenters:0,FacetCenters:1,FacetCenters:2,FacetIds,relFacetSize,absFacetSize,cellPairingIds,interplanarAngles,angleWeights
0.450119,-0.0359811,-0.793044,4.85752,4.32869,9.52327,1,0.113678,0.0441745,8,78.6371,0.0548599
-0.408782,-0.768698,-0.415898,4.70299,4.20377,9.53415,2,0.0361536,0.0140491,13,50.5948,0.125648
0.49422,-0.712725,-0.378387,4.82026,4.24284,9.5722,3,0.140435,0.054572,19,86.0181,0.128693
-0.376936,0.797946,-0.325304,4.80056,4.38351,9.57189,4,0.148277,0.0576195,26,109.123,0.0594822
-0.811184,-0.512431,-0.0743716,4.6564,4.2022,9.58368,5,0.0402792,0.0156522,34,115.624,0.0759813
-0.636532,0.737435,0.0922128,4.7375,4.30294,9.57465,6,0.0570597,0.022173,43,125.497,0.0519776
-0.334133,0.820666,0.43173,4.81786,4.38487,9.65637,7,0.0336912,0.0130922,53,111.808,0.0698561
0.283335,0.739429,0.536052,4.67321,4.24093,9.54354,8,0.0504197,0.0195927,64,164.057,0.0748124
-0.331334,0.261218,0.861516,4.836,4.29575,9.60119,9,0.0557514,0.0216646,18,56.5538,0.0575035
,,,,,,,,,25,110.918,0.058133
,,,,,,,,,33,35.4484,0.0381051
,,,,,,,,,42,111.434,0.0442623
,,,,,,,,,52,135.113,0.034879
,,,,,,,,,63,169.49,0.0421112
,,,,,,,,,75,117.24,0.043863
,,,,,,,,,32,135.236,0.144249
,,,,,,,,,41,90.4744,0.0626028
,,,,,,,,,51,160.922,0.0811483
,,,,,,,,,62,168.328,0.0543447
,,,,,,,,,74,130.68,0.0741997
,,,,,,,,,87,138.126,0.0798164
,,,,,,,,,50,95.0029,0.0633496
,,,,,,,,,61,29.8332,0.0824076
,,,,,,,,,73,46.3117,0.0549066
,,,,,,,,,86,69.916,0.0752512
,,,,,,,,,100,86.6276,0.0810344
,,,,,,,,,72,81.9665,0.047223
,,,,,,,,,85,101.037,0.0366918
,,,,,,,,,99,134.815,0.0447826
,,,,,,,,,114,85.5988,0.0467689
,,,,,,,,,98,27.2183,0.0423667
,,,,,,,,,113,63.7148,0.0535346
,,,,,,,,,129,59.0337,0.056398
,,,,,,,,,128,37.9147,0.0403919
,,,,,,,,,145,42.5083,0.0420008
,,,,,,,,,162,52.2892,0.0529517
