Q	U	V
{$V$}	{[mm$^3$]}	0.00503002
{$d_v$}	{[mm]}	0.212581
{$S_c$}	{[mm$^2$]}	0.327634
{$S_o$}	{[mm$^2$]}	0.181849
{$S_l/S_o$}	[]	0.801682
{$\Psi$}	[]	0.43332
{$\eta$}	[]	0.467427
{med($\theta_e$)}	{[$^\circ$]}	
{$\Upsilon$}	[]	11
{$\Xi$}	[]	8
