facetNormals:0,facetNormals:1,facetNormals:2,FacetCenters:0,FacetCenters:1,FacetCenters:2,FacetIds,relFacetSize,absFacetSize,cellPairingIds,interplanarAngles,angleWeights
-0.0587359,0.389368,-0.879921,6.23291,4.22304,11.6662,1,0.0697512,0.0189204,8,50.9923,0.0723829
0.234752,-0.382979,-0.845126,6.34912,4.15913,11.6696,2,0.075221,0.0204041,13,81.4387,0.051395
0.174416,-0.80872,-0.529723,6.32417,4.11681,11.6905,3,0.0406874,0.0110367,19,79.5856,0.0390063
-0.57547,-0.657074,-0.446625,6.15725,4.14284,11.6843,4,0.0270731,0.00734372,26,79.0084,0.0454593
0.842425,-0.276244,-0.379953,6.46898,4.1984,11.7289,5,0.0337169,0.00914588,34,80.1289,0.0362026
0.776624,0.58554,0.0245309,6.41723,4.26404,11.7804,6,0.0244451,0.00663087,43,73.4956,0.0600522
-0.835633,0.446862,-0.0417019,6.15772,4.23943,11.7316,7,0.0527213,0.0143009,53,79.2403,0.0315874
0.21174,0.939021,0.200288,6.40704,4.26945,11.8265,8,0.0204166,0.00553812,64,134.046,0.0578752
0.52834,-0.734984,0.390312,6.42372,4.14681,11.8017,9,0.0494549,0.0134149,76,90.3034,0.0259945
-0.166176,0.88251,0.407327,6.31172,4.27557,11.8181,10,0.0159738,0.00433297,89,110.106,0.0544929
-0.877971,0.00662234,0.429665,6.17473,4.2309,11.7828,11,0.044712,0.0121284,103,143.918,0.0914687
-0.0293989,-0.837818,0.491781,6.28221,4.13714,11.775,12,0.132825,0.0360294,118,113.052,0.0328467
0.223072,0.654277,0.695204,6.31437,4.27632,11.8359,13,0.0214812,0.0058269,134,132.782,0.0777287
-0.551582,0.0564049,0.764547,6.21191,4.22254,11.8296,14,0.0877668,0.0238072,151,150.459,0.0574659
0.517019,-0.238979,0.781357,6.37218,4.22266,11.8286,15,0.0488602,0.0132536,18,31.8848,0.0528097
,,,,,,,,,25,58.2545,0.0398159
,,,,,,,,,33,47.4169,0.0465626
,,,,,,,,,42,93.8588,0.0368989
,,,,,,,,,52,111.455,0.0619928
,,,,,,,,,63,120.612,0.0321162
,,,,,,,,,75,85.4008,0.0596755
,,,,,,,,,88,139.837,0.0263516
,,,,,,,,,102,127.673,0.056086
,,,,,,,,,117,96.2736,0.0960482
,,,,,,,,,133,146.867,0.0334189
,,,,,,,,,150,151.882,0.081011
,,,,,,,,,168,118.915,0.0592404
,,,,,,,,,32,46.1527,0.0325125
,,,,,,,,,41,52.8971,0.0368756
,,,,,,,,,51,111.55,0.030541
,,,,,,,,,62,121.368,0.0459292
,,,,,,,,,74,149.075,0.0271897
,,,,,,,,,87,60.2997,0.0446448
,,,,,,,,,101,171.662,0.022941
,,,,,,,,,116,113.708,0.0426049
,,,,,,,,,132,64.4419,0.062293
,,,,,,,,,149,153.047,0.0281176
,,,,,,,,,167,126.113,0.0555996
,,,,,,,,,186,97.8941,0.0444008
,,,,,,,,,50,98.1156,0.0300319
,,,,,,,,,61,151.985,0.0256921
,,,,,,,,,73,77.217,0.0357751
,,,,,,,,,86,149.177,0.0232783
,,,,,,,,,100,89.7291,0.034991
,,,,,,,,,115,133.523,0.0200925
,,,,,,,,,131,71.2022,0.0337254
,,,,,,,,,148,68.6075,0.0449784
,,,,,,,,,166,154.597,0.0239551
,,,,,,,,,185,93.7818,0.0413814
,,,,,,,,,205,121.065,0.034841
,,,,,,,,,72,59.0113,0.028342
,,,,,,,,,85,152.504,0.0411299
,,,,,,,,,99,99.5367,0.0254329
,,,,,,,,,114,58.2855,0.0400969
,,,,,,,,,130,124.487,0.0216775
,,,,,,,,,147,163.649,0.0384437
,,,,,,,,,165,88.7884,0.0537815
,,,,,,,,,184,105.768,0.0262429
,,,,,,,,,204,147.788,0.048718
,,,,,,,,,225,77.322,0.0399
,,,,,,,,,98,114.885,0.0334025
,,,,,,,,,113,41.2521,0.02225
,,,,,,,,,129,90.6252,0.032718
,,,,,,,,,146,65.5114,0.0193217
,,,,,,,,,164,134.572,0.0316089
,,,,,,,,,183,122.017,0.041291
,,,,,,,,,203,53.048,0.0228675
,,,,,,,,,224,114.195,0.0382396
,,,,,,,,,246,72.6356,0.0325868
,,,,,,,,,128,75.4481,0.0294346
,,,,,,,,,145,147.231,0.0510359
,,,,,,,,,163,56.5004,0.0245187
,,,,,,,,,182,39.1813,0.0483875
,,,,,,,,,202,113.685,0.075482
,,,,,,,,,223,85.2519,0.0305251
,,,,,,,,,245,59.5313,0.0658729
,,,,,,,,,268,128.538,0.0507173
,,,,,,,,,162,121.065,0.0289017
,,,,,,,,,181,25.4985,0.017924
,,,,,,,,,201,95.5905,0.0280328
,,,,,,,,,222,136.611,0.035393
,,,,,,,,,244,33.8163,0.0209354
,,,,,,,,,267,84.4812,0.0331271
,,,,,,,,,291,87.4943,0.0287992
,,,,,,,,,200,126.446,0.0241479
,,,,,,,,,221,108.205,0.046964
,,,,,,,,,243,34.222,0.0720742
,,,,,,,,,266,95.4436,0.0299523
,,,,,,,,,290,92.1218,0.0632625
,,,,,,,,,315,37.7356,0.0491557
,,,,,,,,,242,70.1841,0.0235383
,,,,,,,,,265,123.874,0.0285179
,,,,,,,,,289,31.5866,0.0183226
,,,,,,,,,314,60.9042,0.0270283
,,,,,,,,,340,88.7109,0.0240763
,,,,,,,,,288,75.8928,0.0669029
,,,,,,,,,313,83.5781,0.0290202
,,,,,,,,,339,28.2594,0.0592431
,,,,,,,,,366,97.2812,0.0466942
,,,,,,,,,338,102.907,0.0369816
,,,,,,,,,365,67.9268,0.105694
,,,,,,,,,393,52.7168,0.0714406
,,,,,,,,,392,61.2481,0.0345148
,,,,,,,,,421,58.0116,0.0298424
,,,,,,,,,450,70.9058,0.0627738
