facetNormals:0,facetNormals:1,facetNormals:2,FacetCenters:0,FacetCenters:1,FacetCenters:2,FacetIds,relFacetSize,absFacetSize,cellPairingIds,interplanarAngles,angleWeights
-0.790215,0.00832739,-0.582116,5.82716,4.71642,10.2656,1,0.0129532,0.00227626,8,93.4931,0.0176308
0.338403,0.837912,-0.347912,5.98683,4.93764,10.2739,2,0.0275962,0.00484946,13,50.4622,0.023444
-0.598132,0.739472,-0.227004,5.9167,4.89866,10.2558,3,0.123319,0.0216708,19,132.2,0.0224708
0.889235,0.269917,-0.139037,6.00482,4.90027,10.2564,4,0.08472,0.0148878,26,48.748,0.0225667
-0.896042,0.36892,0.134055,5.84143,4.80197,10.2891,5,0.0875229,0.0153803,34,116.888,0.0203758
0.210537,-0.84071,0.445109,5.88115,4.75171,10.3021,6,0.0477215,0.00838607,43,159.172,0.0236739
0.684237,-0.340139,0.549897,5.96051,4.85021,10.3309,7,0.137352,0.0241367,53,95.4028,0.0195956
-0.455401,-0.394374,0.767453,5.87223,4.73251,10.3455,8,0.0402201,0.00706786,64,97.2596,0.0237171
-0.45608,0.110855,0.822479,5.88772,4.79325,10.3578,9,0.140319,0.0246582,76,131.335,0.0196313
0.165197,0.41351,0.872714,5.97444,4.90307,10.3765,10,0.0405226,0.007121,18,58.3964,0.0451
,,,,,,,,,25,50.7684,0.0416316
,,,,,,,,,33,92.465,0.0419618
,,,,,,,,,42,146.648,0.0349701
,,,,,,,,,52,105.576,0.0459586
,,,,,,,,,63,142.704,0.0327332
,,,,,,,,,75,112.276,0.0461218
,,,,,,,,,88,84.0248,0.0328329
,,,,,,,,,32,109.105,0.100439
,,,,,,,,,41,35.5419,0.102382
,,,,,,,,,51,152.976,0.0688138
,,,,,,,,,62,148.588,0.129958
,,,,,,,,,74,101.7,0.0606571
,,,,,,,,,87,79.5428,0.131271
,,,,,,,,,101,89.4701,0.0610004
,,,,,,,,,50,141.149,0.0860987
,,,,,,,,,61,96.3713,0.0610529
,,,,,,,,,73,60.1579,0.104799
,,,,,,,,,86,132.394,0.0545453
,,,,,,,,,100,123.413,0.105651
,,,,,,,,,115,81.4309,0.0548228
,,,,,,,,,72,117.435,0.0617656
,,,,,,,,,85,136.216,0.106917
,,,,,,,,,99,67.4869,0.0551135
,,,,,,,,,114,52.8207,0.107804
,,,,,,,,,130,82.7159,0.0553968
,,,,,,,,,98,42.6348,0.0708329
,,,,,,,,,113,52.606,0.0436509
,,,,,,,,,129,78.9476,0.0712212
,,,,,,,,,146,85.458,0.0438284
,,,,,,,,,128,74.5581,0.0622205
,,,,,,,,,145,83.3975,0.13882
,,,,,,,,,163,60.6356,0.0625818
,,,,,,,,,162,30.6082,0.06252
,,,,,,,,,181,63.1688,0.0403708
,,,,,,,,,200,42.1112,0.0628847
