Q	U	V
{$V$}	{[mm$^3$]}	0.00428074
{$d_v$}	{[mm]}	0.201453
{$S_c$}	{[mm$^2$]}	0.271704
{$S_o$}	{[mm$^2$]}	0.149219
{$S_l/S_o$}	[]	0.820841
{$\Psi$}	[]	0.469246
{$\eta$}	[]	0.485841
{med($\theta_e$)}	{[$^\circ$]}	
{$\Upsilon$}	[]	14
{$\Xi$}	[]	9
