Q	U	V
{$V$}	{[mm$^3$]}	0.00670789
{$d_v$}	{[mm]}	0.233989
{$S_c$}	{[mm$^2$]}	0.301862
{$S_o$}	{[mm$^2$]}	0.190821
{$S_l/S_o$}	[]	0.581912
{$\Psi$}	[]	0.569814
{$\eta$}	[]	0.625653
{med($\theta_e$)}	{[$^\circ$]}	66.6577
{$\Upsilon$}	[]	12
{$\Xi$}	[]	6
