Q	U	V
{$V$}	{[mm$^3$]}	0.00429262
{$d_v$}	{[mm]}	0.201639
{$S_c$}	{[mm$^2$]}	0.249069
{$S_o$}	{[mm$^2$]}	0.13751
{$S_l/S_o$}	[]	0.811279
{$\Psi$}	[]	0.512837
{$\eta$}	[]	0.539854
{med($\theta_e$)}	{[$^\circ$]}	
{$\Upsilon$}	[]	15
{$\Xi$}	[]	10
