facetNormals:0,facetNormals:1,facetNormals:2,FacetCenters:0,FacetCenters:1,FacetCenters:2,FacetIds,relFacetSize,absFacetSize,cellPairingIds,interplanarAngles,angleWeights
0.175251,-0.195155,-0.942144,6.15432,5.71657,10.9644,1,0.168921,0.0109355,8,47.7726,0.0308898
-0.580595,-0.334312,-0.729979,6.11021,5.71542,10.9885,2,0.0169992,0.00110048,13,37.7509,0.0402423
0.0611208,-0.74016,-0.639942,6.1621,5.66567,10.9841,3,0.022842,0.00147872,19,63.0136,0.0610918
-0.752178,0.102096,-0.623886,6.20481,5.74858,10.9976,4,0.0372888,0.00241397,26,64.6587,0.0421057
-0.522775,-0.745124,-0.381357,6.09477,5.66269,11.0039,5,0.0240503,0.00155695,34,57.0734,0.00976224
0.706392,-0.620119,-0.296228,6.21997,5.65875,11.0057,6,0.00502636,0.000325392,43,64.1176,0.0671211
0.0333001,-0.944651,-0.240039,6.14866,5.65651,11.0046,7,0.0418813,0.00271128,53,88.0147,0.119991
-0.955777,-0.14566,-0.182999,6.07976,5.71146,11.0134,8,0.0930405,0.00602318,64,95.9987,0.124336
-0.395081,0.866526,-0.148424,6.11606,5.78651,11.0046,9,0.0983719,0.00636831,76,75.6039,0.113873
0.925629,0.240088,-0.126493,6.20989,5.7468,11.0051,10,0.0858853,0.00555997,89,101.476,0.040475
-0.915371,0.37071,-0.0429096,6.07007,5.75296,11.0212,11,0.022992,0.00148844,103,112.639,0.108455
0.0910873,0.944224,0.209522,6.15554,5.79285,11.0476,12,0.0798665,0.00517033,118,112.608,0.0191367
-0.74879,-0.542468,0.370587,6.06756,5.70081,11.069,13,0.0101429,0.000656621,134,140.641,0.126601
-0.54648,0.589774,0.564803,6.10463,5.75759,11.0796,14,0.101238,0.00655386,151,147.965,0.0232175
-0.526175,-0.193192,0.806139,6.10358,5.72613,11.0941,15,0.0124654,0.000806976,18,45.6429,0.0194921
,,,,,,,,,25,28.198,0.0233525
,,,,,,,,,33,31.8041,0.0199191
,,,,,,,,,42,89.2122,0.00775863
,,,,,,,,,52,60.7806,0.0241828
,,,,,,,,,63,40.8745,0.0287462
,,,,,,,,,75,87.1167,0.0289889
,,,,,,,,,88,123.345,0.0283809
,,,,,,,,,102,63.3807,0.0195466
,,,,,,,,,117,122.805,0.0280319
,,,,,,,,,133,69.5047,0.0127051
,,,,,,,,,150,107.464,0.0291104
,,,,,,,,,168,102.972,0.0143835
,,,,,,,,,32,73.2437,0.0283299
,,,,,,,,,41,37.8837,0.0234305
,,,,,,,,,51,44.2793,0.0082396
,,,,,,,,,62,26.6062,0.0295613
,,,,,,,,,74,80.0607,0.036679
,,,,,,,,,87,127.142,0.0370751
,,,,,,,,,101,92.4352,0.0360864
,,,,,,,,,116,108.212,0.0229167
,,,,,,,,,132,150.314,0.035524
,,,,,,,,,149,83.0249,0.0140479
,,,,,,,,,167,149.662,0.0372739
,,,,,,,,,186,114.885,0.0161289
,,,,,,,,,50,55.0802,0.0292409
,,,,,,,,,61,115.038,0.00885862
,,,,,,,,,73,88.3098,0.0394519
,,,,,,,,,86,32.1893,0.05324
,,,,,,,,,100,59.6695,0.0540786
,,,,,,,,,115,128.717,0.0520005
,,,,,,,,,131,39.1579,0.028445
,,,,,,,,,148,96.1844,0.0508406
,,,,,,,,,166,73.5824,0.0159478
,,,,,,,,,185,82.9263,0.0545027
,,,,,,,,,205,97.5577,0.0186847
,,,,,,,,,72,77.7872,0.00831495
,,,,,,,,,85,36.0629,0.0305546
,,,,,,,,,99,45.7191,0.0382208
,,,,,,,,,114,113.713,0.038651
,,,,,,,,,130,130.209,0.0375777
,,,,,,,,,147,77.047,0.0235092
,,,,,,,,,165,150.096,0.0369682
,,,,,,,,,184,48.2719,0.0142683
,,,,,,,,,204,112.377,0.0388672
,,,,,,,,,225,83.3866,0.0164202
,,,,,,,,,98,44.9327,0.00897553
,,,,,,,,,113,123.173,0.00953748
,,,,,,,,,129,144.41,0.00956404
,,,,,,,,,146,55.2072,0.00949692
,,,,,,,,,164,152.454,0.00824931
,,,,,,,,,183,127.531,0.00945752
,,,,,,,,,203,107.936,0.00672173
,,,,,,,,,224,161.637,0.00957722
,,,,,,,,,246,120.47,0.00716402
,,,,,,,,,128,81.0254,0.0577617
,,,,,,,,,145,147.879,0.0587501
,,,,,,,,,163,100.14,0.0563056
,,,,,,,,,182,112.593,0.0296867
,,,,,,,,,202,172.459,0.0549483
,,,,,,,,,223,65.7791,0.0163308
,,,,,,,,,245,137.891,0.059251
,,,,,,,,,268,91.7072,0.0192125
,,,,,,,,,162,72.9199,0.0956319
,,,,,,,,,181,160.833,0.0893198
,,,,,,,,,201,31.5679,0.0368722
,,,,,,,,,222,105.966,0.0859516
,,,,,,,,,244,42.1344,0.0182917
,,,,,,,,,267,69.8506,0.0969663
,,,,,,,,,291,66.6111,0.0219853
,,,,,,,,,200,98.5911,0.0917055
,,,,,,,,,221,43.6634,0.0372725
,,,,,,,,,243,36.6617,0.0881585
,,,,,,,,,266,103.813,0.0183897
,,,,,,,,,290,47.2281,0.0997844
,,,,,,,,,315,94.7992,0.022127
,,,,,,,,,242,142.145,0.0362734
,,,,,,,,,265,72.3253,0.0827666
,,,,,,,,,289,154.913,0.0181431
,,,,,,,,,314,117.367,0.0929318
,,,,,,,,,340,132.136,0.021771
,,,,,,,,,288,74.4362,0.0357052
,,,,,,,,,313,61.5952,0.0140761
,,,,,,,,,339,44.3443,0.0374735
,,,,,,,,,366,67.2436,0.0161662
,,,,,,,,,338,121.301,0.0179998
,,,,,,,,,365,49.0639,0.0892913
,,,,,,,,,393,93.6932,0.021565
,,,,,,,,,392,72.2392,0.0184384
,,,,,,,,,421,35.3706,0.0111849
,,,,,,,,,450,49.316,0.0221977
