"cellPairingIds","interplanarAngles","angleWeights"
8,54.065,0.0468146
13,54.1296,0.0548588
19,76.923,0.072162
34,89.3558,0.0524875
43,100.181,0.061466
25,81.6485,0.0359809
42,72.0281,0.030315
75,69.1504,0.0381292
32,29.4206,0.040551
62,137.743,0.0369389
101,75.9243,0.0471161
50,39.9583,0.055138
86,44.9474,0.0269356
100,71.7975,0.053409
115,56.3851,0.0593358
99,20.9968,0.0285939
114,33.7801,0.0603486
147,66.3036,0.0795367
98,40.4445,0.0358484
129,95.8456,0.0418097
164,72.0389,0.0502
163,119.369,0.0519085
182,85.719,0.0583522
181,24.6179,0.0296829
201,66.1786,0.0316836
221,38.2712,0.0759882
242,72.9785,0.0885762
