facetNormals:0,facetNormals:1,facetNormals:2,FacetCenters:0,FacetCenters:1,FacetCenters:2,FacetIds,relFacetSize,absFacetSize,cellPairingIds,interplanarAngles,angleWeights
-0.0187197,0.516545,-0.825377,3.68282,7.18852,11.309,1,0.0118676,0.00244059,8,49.4587,0.0129884
-0.717052,0.121179,-0.662226,3.67043,7.14485,11.2931,2,0.0143428,0.00294961,13,86.3411,0.0182169
-0.689269,-0.55331,-0.403816,3.64854,7.10638,11.3172,3,0.0391766,0.00805669,19,120.21,0.0210979
0.64059,-0.708915,0.113017,3.85428,7.08948,11.469,4,0.0949368,0.0195238,26,117.645,0.0205333
-0.716614,-0.64005,0.147907,3.72908,7.09526,11.4881,5,0.0761041,0.0156508,34,76.2698,0.0204583
-0.589309,0.738544,0.204816,3.71396,7.20355,11.4176,6,0.0740914,0.0152369,43,89.0972,0.0164549
-0.946936,0.206076,0.132263,3.64883,7.15918,11.3731,7,0.0268231,0.00551619,53,79.1799,0.0226065
-0.00830184,0.854469,0.331892,3.7889,7.20715,11.4585,8,0.237679,0.0488788,64,118.213,0.0200206
0.776774,0.0300377,0.524162,3.86703,7.15997,11.5035,9,0.0639612,0.0131536,76,150.338,0.0161655
-0.176423,-0.830224,0.488481,3.75384,7.06505,11.4812,10,0.0253437,0.00521195,89,125.453,0.0205993
-0.765298,-0.280886,0.49389,3.67846,7.1252,11.4544,11,0.0779543,0.0160313,18,43.3858,0.0209981
,,,,,,,,,25,130.94,0.0249207
,,,,,,,,,33,69.2769,0.0241368
,,,,,,,,,42,66.6801,0.0240332
,,,,,,,,,52,50.1536,0.0186912
,,,,,,,,,63,97.0263,0.0270531
,,,,,,,,,75,167.549,0.0234313
,,,,,,,,,88,107.996,0.0183186
,,,,,,,,,102,78.4533,0.0242279
,,,,,,,,,32,95.8274,0.055465
,,,,,,,,,41,33.4348,0.0517259
,,,,,,,,,51,95.2007,0.0512528
,,,,,,,,,62,59.2993,0.0318437
,,,,,,,,,74,132.436,0.0672658
,,,,,,,,,87,146.953,0.048591
,,,,,,,,,101,66.2203,0.0307773
,,,,,,,,,116,58.5351,0.0521465
,,,,,,,,,50,89.3016,0.0844836
,,,,,,,,,61,160.704,0.0832287
,,,,,,,,,73,141.625,0.0418283
,,,,,,,,,86,130.564,0.135679
,,,,,,,,,100,53.5809,0.0764298
,,,,,,,,,115,55.7152,0.0400073
,,,,,,,,,131,104.867,0.0856115
,,,,,,,,,72,91.2257,0.0750843
,,,,,,,,,85,53.45,0.0396659
,,,,,,,,,99,123.5,0.115292
,,,,,,,,,114,123.145,0.0695063
,,,,,,,,,130,39.9275,0.0380247
,,,,,,,,,147,30.1498,0.0770181
,,,,,,,,,98,38.7632,0.0393871
,,,,,,,,,113,37.413,0.112968
,,,,,,,,,129,111.229,0.0686546
,,,,,,,,,146,115.604,0.0377684
,,,,,,,,,164,68.033,0.0759738
,,,,,,,,,128,75.2787,0.048206
,,,,,,,,,145,136.035,0.0377959
,,,,,,,,,163,86.3738,0.0260625
,,,,,,,,,182,38.2497,0.0399128
,,,,,,,,,162,77.0106,0.100797
,,,,,,,,,181,127.445,0.0458034
,,,,,,,,,201,94.5778,0.117403
,,,,,,,,,200,84.1197,0.0363029
,,,,,,,,,221,112.642,0.0702679
,,,,,,,,,242,49.2359,0.0382515
