facetNormals:0,facetNormals:1,facetNormals:2,FacetCenters:0,FacetCenters:1,FacetCenters:2,FacetIds,relFacetSize,absFacetSize,cellPairingIds,interplanarAngles,angleWeights
-0.122095,0.43823,-0.82787,4.69288,4.83824,11.8152,1,0.0404535,0.0157331,8,86.1388,0.0583012
0.582082,-0.600833,-0.477923,4.7698,4.75126,11.8427,2,0.104331,0.0405763,13,93.3258,0.0538434
0.0683294,-0.879453,-0.411188,4.70428,4.71523,11.8733,3,0.080483,0.0313013,19,94.7344,0.0363398
-0.473521,-0.81703,-0.270153,4.64296,4.69371,11.9522,4,0.0329855,0.0128286,26,40.2572,0.0505815
-0.404657,0.795503,-0.355925,4.67924,4.78624,11.8444,5,0.0674746,0.0262421,34,56.529,0.0223769
-0.797814,0.547092,-0.216574,4.63539,4.89804,11.9117,6,0.015466,0.00601501,43,81.8593,0.0614053
-0.893146,-0.213114,-0.130953,4.5936,4.759,11.9455,7,0.127377,0.0495392,53,130.791,0.045942
0.417555,-0.8654,0.214166,4.7259,4.67582,12.0245,8,0.0531537,0.0206724,64,129.817,0.0298359
0.0427269,-0.964597,0.204164,4.69479,4.66297,12.0036,9,0.023633,0.00919131,76,82.2529,0.0594392
-0.585676,0.702108,0.30956,4.63184,4.8536,11.9971,10,0.112006,0.0435613,89,130.463,0.0365985
0.801671,-0.319215,0.425055,4.79358,4.72621,12.0115,11,0.0334144,0.0129954,103,143.73,0.0324486
0.267872,0.127675,0.899022,4.67757,4.73852,12.0804,12,0.0270884,0.0105352,18,35.3596,0.0908685
,,,,,,,,,25,68.6587,0.0501237
,,,,,,,,,33,125.944,0.0819496
,,,,,,,,,42,136.222,0.0269386
,,,,,,,,,52,111.62,0.114708
,,,,,,,,,63,45.8486,0.0704269
,,,,,,,,,75,57.7865,0.0385367
,,,,,,,,,88,168.305,0.108033
,,,,,,,,,102,60.5751,0.0506174
,,,,,,,,,117,112.595,0.0430099
,,,,,,,,,32,33.485,0.0467931
,,,,,,,,,41,128.403,0.073407
,,,,,,,,,51,117.575,0.0259461
,,,,,,,,,62,78.4821,0.0986403
,,,,,,,,,74,42.9263,0.0640239
,,,,,,,,,87,36.9785,0.0365373
,,,,,,,,,101,146.652,0.0936635
,,,,,,,,,116,80.1135,0.047223
,,,,,,,,,132,120.212,0.0405342
,,,,,,,,,50,112.567,0.0443098
,,,,,,,,,61,90.6297,0.0210583
,,,,,,,,,73,46.0369,0.0524012
,,,,,,,,,86,62.1657,0.0407085
,,,,,,,,,100,42.6707,0.0275368
,,,,,,,,,115,113.624,0.0509626
,,,,,,,,,131,104.317,0.0331985
,,,,,,,,,148,120.649,0.0297475
,,,,,,,,,72,28.7456,0.0251641
,,,,,,,,,85,74.478,0.0882181
,,,,,,,,,99,170.752,0.0594641
,,,,,,,,,114,154.698,0.0350054
,,,,,,,,,130,42.3618,0.084216
,,,,,,,,,147,142.132,0.0446951
,,,,,,,,,165,111.055,0.0386574
,,,,,,,,,98,47.233,0.0275829
,,,,,,,,,113,150.93,0.0239603
,,,,,,,,,129,128.276,0.0186965
,,,,,,,,,146,34.9507,0.0271791
,,,,,,,,,164,161.884,0.021145
,,,,,,,,,183,111.146,0.0196901
,,,,,,,,,128,103.719,0.0750073
,,,,,,,,,145,81.1597,0.0398689
,,,,,,,,,163,68.1702,0.119198
,,,,,,,,,182,142.063,0.0529409
,,,,,,,,,202,115.946,0.044676
,,,,,,,,,162,22.6935,0.0327187
,,,,,,,,,181,145.789,0.0720943
,,,,,,,,,201,42.1525,0.0410335
,,,,,,,,,222,77.9921,0.0358876
,,,,,,,,,200,132.132,0.0390307
,,,,,,,,,221,63.1368,0.0276851
,,,,,,,,,243,85.5902,0.025243
,,,,,,,,,242,127.253,0.051473
,,,,,,,,,265,76.6472,0.0436261
,,,,,,,,,288,52.361,0.0299207
