facetNormals:0,facetNormals:1,facetNormals:2,FacetCenters:0,FacetCenters:1,FacetCenters:2,FacetIds,relFacetSize,absFacetSize,cellPairingIds,interplanarAngles,angleWeights
0.32817,-0.149742,-0.90804,5.15701,6.08564,8.47711,1,0.0551508,0.01259,8,25.5087,0.0444145
0.691966,-0.0515329,-0.695487,5.22381,6.07275,8.53247,2,0.0371772,0.00848695,13,70.351,0.0256477
-0.5666,0.48451,-0.640224,5.09287,6.11124,8.50001,3,0.0167091,0.00381443,19,36.2708,0.0669354
0.563237,-0.572018,-0.542773,5.22644,6.08234,8.52096,4,0.0851248,0.0194326,26,84.2902,0.0628276
0.599752,0.707242,0.000854013,5.15157,6.06042,8.57786,5,0.0729873,0.0166618,34,76.1406,0.0319589
0.52022,-0.828969,0.0717814,5.2531,6.03321,8.59378,6,0.0224981,0.00513595,43,104.902,0.0258794
-0.841669,0.50313,-0.113981,5.2065,6.08692,8.55108,7,0.0169063,0.00385944,53,105.317,0.0672935
-0.457384,-0.82701,0.248854,5.10122,6.03747,8.56596,8,0.086293,0.0196993,64,132.09,0.0540599
-0.884696,0.235969,0.347779,5.10021,6.12614,8.57056,9,0.0530113,0.0121016,76,134.014,0.0541514
-0.665084,-0.427585,0.550437,5.15994,6.0375,8.59165,10,0.0531876,0.0121419,89,143.759,0.0544901
-0.553947,0.572041,0.540868,5.22919,6.13539,8.51521,11,0.0538451,0.012292,103,174.633,0.0505543
-0.340569,0.238881,0.889615,5.19402,6.11197,8.64537,12,0.046665,0.0106529,118,141.292,0.0640661
0.123799,-0.30925,0.907223,5.19986,6.09705,8.6496,13,0.0764196,0.0174454,18,88.3243,0.0230559
,,,,,,,,,25,33.1896,0.0517522
,,,,,,,,,33,65.4879,0.049262
,,,,,,,,,42,68.536,0.0280322
,,,,,,,,,52,123.06,0.0232429
,,,,,,,,,63,117.744,0.051966
,,,,,,,,,75,154.185,0.0437043
,,,,,,,,,88,150.161,0.043764
,,,,,,,,,102,146.538,0.043985
,,,,,,,,,117,153.934,0.0413842
,,,,,,,,,133,123.885,0.0500202
,,,,,,,,,32,105.144,0.0279349
,,,,,,,,,41,89.8554,0.0271929
,,,,,,,,,51,140.338,0.0191762
,,,,,,,,,62,35.105,0.0168071
,,,,,,,,,74,108.257,0.0279971
,,,,,,,,,87,65.9047,0.0254093
,,,,,,,,,101,101.129,0.0254295
,,,,,,,,,116,75.005,0.0255039
,,,,,,,,,132,105.681,0.0246072
,,,,,,,,,149,147.48,0.0274224
,,,,,,,,,50,94.2898,0.0785902
,,,,,,,,,61,40.021,0.0355899
,,,,,,,,,73,137.032,0.02821
,,,,,,,,,86,85.1312,0.0857049
,,,,,,,,,100,150.008,0.0653352
,,,,,,,,,115,117.341,0.0654689
,,,,,,,,,131,179.586,0.0659647
,,,,,,,,,148,148.488,0.0602831
,,,,,,,,,166,105.215,0.0805377
,,,,,,,,,72,107.539,0.0343943
,,,,,,,,,85,99.371,0.0274535
,,,,,,,,,99,161.42,0.0790844
,,,,,,,,,114,113.586,0.0614158
,,,,,,,,,130,141.672,0.0615339
,,,,,,,,,147,85.3218,0.0619717
,,,,,,,,,165,92.1743,0.0569308
,,,,,,,,,184,99.2264,0.0746641
,,,,,,,,,98,152.995,0.0193054
,,,,,,,,,113,60.9625,0.0356909
,,,,,,,,,129,131.025,0.0315895
,,,,,,,,,146,87.0912,0.0316207
,,,,,,,,,164,139.993,0.0317359
,,,,,,,,,183,108.848,0.0303593
,,,,,,,,,203,65.9907,0.0347621
,,,,,,,,,128,93.5354,0.0282734
,,,,,,,,,145,31.5807,0.0256366
,,,,,,,,,163,72.7574,0.0256572
,,,,,,,,,182,43.2284,0.025733
,,,,,,,,,202,71.6363,0.0248204
,,,,,,,,,223,112.376,0.0276874
,,,,,,,,,162,71.984,0.0656764
,,,,,,,,,181,32.4173,0.0658115
,,,,,,,,,201,95.1914,0.0663125
,,,,,,,,,222,79.2148,0.0605734
,,,,,,,,,244,63.2647,0.0810568
,,,,,,,,,200,43.9861,0.0530993
,,,,,,,,,221,30.4052,0.0534249
,,,,,,,,,243,46.0932,0.0496361
,,,,,,,,,266,81.922,0.0625987
,,,,,,,,,242,62.9643,0.0535143
,,,,,,,,,265,49.5336,0.0497132
,,,,,,,,,289,53.8485,0.0627214
,,,,,,,,,288,31.4511,0.0499986
,,,,,,,,,313,74.7178,0.0631763
,,,,,,,,,338,43.2735,0.0579459
