Q	U	V
{$V$}	{[mm$^3$]}	0.0126855
{$d_v$}	{[mm]}	0.289359
{$S_c$}	{[mm$^2$]}	0.471828
{$S_o$}	{[mm$^2$]}	0.290354
{$S_l/S_o$}	[]	0.625009
{$\Psi$}	[]	0.557492
{$\eta$}	[]	0.581964
{med($\theta_e$)}	{[$^\circ$]}	54.4943
{$\Upsilon$}	[]	13
{$\Xi$}	[]	9
