"cellPairingIds","interplanarAngles","angleWeights"
8,29.5073,0.0425516
26,63.6316,0.0349714
34,54.0072,0.0414903
53,101.298,0.0502547
103,107.712,0.00661881
25,27.7097,0.0635004
42,33.9411,0.0710329
63,94.8492,0.10127
61,35.8515,0.0611655
86,82.3641,0.0823338
100,34.3125,0.0713394
115,95.5276,0.0814114
99,42.044,0.0668072
165,106.411,0.00684208
129,36.0505,0.0809877
164,74.7605,0.0594614
183,127.627,0.00705907
181,25.5277,0.156008
222,113.302,0.00727493
200,95.2663,0.120747
221,41.0267,0.0690319
242,69.154,0.0784201
265,103.035,0.00726766
289,39.1787,0.0593157
288,119.474,0.00695409
313,53.1848,0.043359
338,82.418,0.00676099
