"cellPairingIds","interplanarAngles","angleWeights"
13,119.094,0.0353307
19,87.3765,0.0404051
26,125.592,0.0407155
43,61.4384,0.0396456
32,123.432,0.0693657
41,50.5654,0.0702856
74,77.1616,0.0419619
73,46.5447,0.0882163
86,95.1848,0.0493183
85,138.973,0.0897094
99,51.7853,0.0497815
128,105.455,0.0481915
