"cellPairingIds","interplanarAngles","angleWeights"
8,28.1241,0.0205414
13,52.1481,0.0419989
19,47.2653,0.0309374
26,115.065,0.0307841
53,150.202,0.0195147
25,44.3354,0.0236983
52,63.7622,0.0309398
63,169.55,0.016362
32,50.2163,0.0577198
41,78.4374,0.0571883
51,41.8912,0.152016
61,58.3915,0.0662628
73,58.4505,0.0626487
72,73.7594,0.0655633
99,36.4202,0.0222621
114,63.285,0.049094
98,91.4238,0.191748
129,71.732,0.105695
128,120.623,0.0286679
145,88.3428,0.0967884
162,36.3215,0.025557
