"cellPairingIds","interplanarAngles","angleWeights"
8,26.3697,0.0273811
13,47.8236,0.0586839
19,50.3311,0.0416304
26,132.713,0.047217
43,145.52,0.0662275
25,51.5967,0.027845
33,116.699,0.030238
42,69.1718,0.0287258
88,107.07,0.0358628
32,56.7606,0.0608569
62,111.161,0.133146
74,67.7822,0.0623747
61,49.0578,0.0448204
86,63.4068,0.0434545
100,121.96,0.0495717
115,87.3184,0.0650049
85,49.1091,0.0858447
114,50.2456,0.057701
130,71.4239,0.079736
146,42.0472,0.0700168
128,86.3446,0.0709664
145,44.0871,0.088878
162,73.8693,0.0505742
200,41.6984,0.0823464
