Q	U	V
{$V$}	{[mm$^3$]}	0.00395063
{$d_v$}	{[mm]}	0.196135
{$S_c$}	{[mm$^2$]}	0.234397
{$S_o$}	{[mm$^2$]}	0.136482
{$S_l/S_o$}	[]	0.717421
{$\Psi$}	[]	0.515596
{$\eta$}	[]	0.600925
{med($\theta_e$)}	{[$^\circ$]}	85.0067
{$\Upsilon$}	[]	8
{$\Xi$}	[]	6
