"cellPairingIds","interplanarAngles","angleWeights"
18,37.0675,0.0128132
33,106.969,0.0147539
42,106.924,0.0162893
63,95.4665,0.0173117
51,130.622,0.0318455
74,80.0381,0.0360026
87,140.328,0.014457
132,92.6055,0.0176751
72,112.67,0.0473126
99,37.9939,0.0571097
113,148.752,0.0899157
129,29.5719,0.0190416
162,131.032,0.0204538
222,73.5929,0.0275507
243,77.5175,0.0128714
