"cellPairingIds","interplanarAngles","angleWeights"
73,143.756,0.0351469
86,49.6458,0.0366623
100,101.837,0.0450279
131,58.0987,0.0456139
148,54.4445,0.0314989
128,116.897,0.0514449
145,94.7889,0.0695857
182,157.081,0.0709952
202,143.618,0.0418244
222,41.6249,0.043988
221,68.3157,0.12752
288,45.5363,0.0575353
