facetNormals:0,facetNormals:1,facetNormals:2,FacetCenters:0,FacetCenters:1,FacetCenters:2,FacetIds,relFacetSize,absFacetSize,cellPairingIds,interplanarAngles,angleWeights
0.518124,-0.220354,-0.791392,6.99896,5.98655,8.41709,1,0.121851,0.0185306,8,30.0775,0.0791263
0.778005,0.159154,-0.578133,6.99554,6.04915,8.41411,2,0.0585848,0.00890937,13,54.8739,0.0687659
0.721312,0.559707,-0.38263,7.03355,6.08677,8.47937,3,0.0478987,0.00728425,19,89.8968,0.0584526
0.455538,0.860792,0.0564061,6.99239,6.1151,8.5037,4,0.0384483,0.00584707,26,101.212,0.116665
-0.662802,-0.714258,-0.0025413,6.91552,5.93506,8.50834,5,0.111903,0.0170177,34,70.2012,0.0613998
0.600723,-0.752032,0.194493,7.02444,5.91873,8.53095,6,0.0410397,0.00624117,43,79.2789,0.101662
0.888909,-0.0405675,0.372985,7.04321,6.00007,8.54478,7,0.0872121,0.0132629,53,161.173,0.034318
-0.761215,0.10816,0.615669,7.00874,6.03828,8.39879,8,0.0199714,0.00303718,64,119.269,0.0955321
0.466242,0.294886,0.812343,6.96859,6.05291,8.58695,9,0.0785633,0.0119476,76,147.456,0.0873918
-0.263323,-0.246262,0.88039,6.97752,5.98619,8.52482,10,0.0681261,0.0103604,89,143.317,0.10054
0.0608923,0.395005,0.890845,6.95104,6.05773,8.58923,11,0.0855742,0.0130138,18,26.3339,0.0527055
,,,,,,,,,25,61.3933,0.0464271
,,,,,,,,,33,130.995,0.0769065
,,,,,,,,,42,75.8844,0.0482673
,,,,,,,,,52,60.3057,0.070088
,,,,,,,,,63,164.197,0.0297881
,,,,,,,,,75,93.5647,0.0671189
,,,,,,,,,88,143.691,0.0629962
,,,,,,,,,102,114.964,0.0695531
,,,,,,,,,32,35.2341,0.0426563
,,,,,,,,,41,155.377,0.0670831
,,,,,,,,,51,93.6585,0.0442047
,,,,,,,,,62,60.125,0.0618358
,,,,,,,,,74,137.955,0.0281892
,,,,,,,,,87,78.6967,0.0595132
,,,,,,,,,101,134.888,0.0562492
,,,,,,,,,116,94.5011,0.0614191
,,,,,,,,,50,164.706,0.0572323
,,,,,,,,,61,112.25,0.0397017
,,,,,,,,,73,65.4514,0.0533685
,,,,,,,,,86,103.17,0.0262879
,,,,,,,,,100,57.6875,0.0516295
,,,,,,,,,115,107.707,0.049155
,,,,,,,,,131,63.9694,0.0530578
,,,,,,,,,72,81.6779,0.0600547
,,,,,,,,,85,126.646,0.0980265
,,,,,,,,,99,63.669,0.0338937
,,,,,,,,,114,123.042,0.0923151
,,,,,,,,,130,67.9384,0.0846919
,,,,,,,,,147,109.959,0.0969833
,,,,,,,,,98,47.749,0.0558146
,,,,,,,,,113,115.663,0.0268679
,,,,,,,,,129,77.0363,0.0539153
,,,,,,,,,146,77.7483,0.0512225
,,,,,,,,,164,95.2191,0.0554748
,,,,,,,,,128,118.358,0.0325003
,,,,,,,,,145,41.8738,0.0826621
,,,,,,,,,163,83.4759,0.0764966
,,,,,,,,,182,66.8492,0.0863854
,,,,,,,,,162,79.4483,0.031847
,,,,,,,,,181,40.1895,0.0308879
,,,,,,,,,201,55.4923,0.0323848
,,,,,,,,,200,56.1924,0.0729734
,,,,,,,,,221,25.0568,0.081919
,,,,,,,,,242,43.7515,0.0758598
