facetNormals:0,facetNormals:1,facetNormals:2,FacetCenters:0,FacetCenters:1,FacetCenters:2,FacetIds,relFacetSize,absFacetSize,cellPairingIds,interplanarAngles,angleWeights
0.060032,0.511824,-0.731782,3.8184,6.79499,11.6403,1,0.0462951,0.00952782,8,57.3042,0.0521716
0.847137,0.286055,-0.369661,3.93816,6.62873,11.802,2,0.059757,0.0122984,13,101.379,0.0528471
0.226863,-0.862857,-0.353324,3.86979,6.54584,11.7889,3,0.0615594,0.0126693,19,75.5535,0.0314538
0.772148,0.584667,0.172116,3.91256,6.70637,11.7861,4,0.0238182,0.00490193,26,105.04,0.0413576
0.896674,-0.0510605,0.342963,3.92754,6.64643,11.7857,5,0.0373717,0.00769134,34,103.492,0.0635369
-0.928344,0.109744,0.278987,3.76999,6.64913,11.7767,6,0.101243,0.0208364,43,98.0185,0.0428397
0.588717,0.513668,0.572857,3.89367,6.74038,11.757,7,0.0398642,0.00820431,53,132.393,0.0400706
-0.75959,-0.248987,0.576017,3.78063,6.6214,11.7818,8,0.0353215,0.00726938,64,105.1,0.0752208
-0.445864,0.548413,0.65375,3.80144,6.7404,11.762,9,0.200488,0.0412618,76,153.007,0.0582167
0.255941,-0.253755,0.89135,3.90496,6.56551,11.8758,10,0.0784079,0.0161368,18,85.3065,0.0606448
,,,,,,,,,25,37.2369,0.0340604
,,,,,,,,,33,48.3459,0.0459848
,,,,,,,,,42,155.395,0.075155
,,,,,,,,,52,62.426,0.0478245
,,,,,,,,,63,166.678,0.0443992
,,,,,,,,,75,119.769,0.0920714
,,,,,,,,,88,101.488,0.0678236
,,,,,,,,,32,114.411,0.034347
,,,,,,,,,41,82.131,0.0465088
,,,,,,,,,51,115.558,0.0765647
,,,,,,,,,62,123.422,0.0483914
,,,,,,,,,74,99.8047,0.0448875
,,,,,,,,,87,150.656,0.0941961
,,,,,,,,,101,92.3554,0.0689696
,,,,,,,,,50,40.2742,0.0290939
,,,,,,,,,61,129.054,0.0385639
,,,,,,,,,73,26.4189,0.0298196
,,,,,,,,,86,130.772,0.0284511
,,,,,,,,,100,84.6147,0.0425781
,,,,,,,,,115,77.6259,0.0365373
,,,,,,,,,72,142.327,0.054592
,,,,,,,,,85,41.4491,0.0385778
,,,,,,,,,99,119.806,0.0363177
,,,,,,,,,114,102.706,0.0630001
,,,,,,,,,130,53.6279,0.0506175
,,,,,,,,,98,110.458,0.0572044
,,,,,,,,,113,29.2614,0.0523716
,,,,,,,,,129,45.6566,0.134544
,,,,,,,,,146,91.0247,0.0883742
,,,,,,,,,128,104.879,0.0374556
,,,,,,,,,145,65.0325,0.0665049
,,,,,,,,,163,55.2494,0.0528556
,,,,,,,,,162,52.4067,0.0600615
,,,,,,,,,181,66.2049,0.048703
,,,,,,,,,200,69.1516,0.112729
