facetNormals:0,facetNormals:1,facetNormals:2,FacetCenters:0,FacetCenters:1,FacetCenters:2,FacetIds,relFacetSize,absFacetSize,cellPairingIds,interplanarAngles,angleWeights
-0.296532,0.205578,-0.861315,5.29212,5.5009,10.4268,1,0.0392052,0.00974262,8,71.3522,0.0549857
0.470962,-0.528283,-0.612771,5.30662,5.37125,10.4162,2,0.0920275,0.0228691,13,71.0514,0.0164207
-0.36503,-0.817316,-0.417074,5.21827,5.34516,10.4422,3,0.0103852,0.00258076,19,63.314,0.0302364
0.549039,0.618526,-0.516066,5.28496,5.54217,10.3909,4,0.0246071,0.00611495,26,94.5496,0.0367255
0.917284,0.271501,-0.167478,5.35794,5.51679,10.4215,5,0.0345409,0.00858352,34,69.0275,0.0564335
-0.0615098,0.944347,-0.123794,5.23803,5.59402,10.4389,6,0.100673,0.0250177,43,94.3378,0.0220874
-0.576956,-0.795641,0.0896616,5.20076,5.34814,10.5007,7,0.0153746,0.00382064,53,106.283,0.0215668
0.543584,0.767331,0.295654,5.30532,5.58125,10.4941,8,0.0148747,0.00369641,64,133.829,0.0635736
0.851477,-0.229927,0.370122,5.33061,5.40929,10.4908,9,0.167988,0.0417457,76,84.7495,0.0378612
-0.765327,0.529942,0.293141,5.16945,5.54003,10.5326,10,0.0366064,0.0090968,89,114.08,0.0231707
-0.621812,-0.561792,0.515127,5.20438,5.35496,10.5457,11,0.0164449,0.0040866,103,139.43,0.0333365
0.301108,-0.770898,0.515224,5.24249,5.34216,10.5181,12,0.028996,0.00720561,118,122.023,0.02068
-0.62212,-0.226569,0.724258,5.18552,5.38223,10.5848,13,0.0140439,0.00348996,134,146.461,0.0573836
0.342381,0.333553,0.817636,5.25014,5.5109,10.5652,14,0.106994,0.0265883,151,166.684,0.0529451
0.0922648,-0.17903,0.947358,5.22062,5.40743,10.5844,15,0.0815117,0.0202559,18,56.1141,0.0186642
,,,,,,,,,25,74.2284,0.0388312
,,,,,,,,,33,64.5141,0.0502291
,,,,,,,,,42,120.39,0.0961565
,,,,,,,,,52,84.1817,0.0263474
,,,,,,,,,63,110.988,0.02561
,,,,,,,,,75,70.7182,0.118912
,,,,,,,,,88,153.836,0.052378
,,,,,,,,,102,109.786,0.0279035
,,,,,,,,,117,75.1858,0.0440977
,,,,,,,,,133,132.204,0.024369
,,,,,,,,,150,125.589,0.0989478
,,,,,,,,,168,119.21,0.086451
,,,,,,,,,32,120.646,0.0146061
,,,,,,,,,41,120.509,0.0159691
,,,,,,,,,51,137.758,0.0188281
,,,,,,,,,62,32.3304,0.0123967
,,,,,,,,,74,167.102,0.012231
,,,,,,,,,87,107.07,0.0195611
,,,,,,,,,101,106.642,0.0161801
,,,,,,,,,116,60.9763,0.0127307
,,,,,,,,,132,71.5131,0.0152931
,,,,,,,,,149,83.47,0.0119406
,,,,,,,,,167,142.159,0.0189327
,,,,,,,,,186,107.178,0.0184232
,,,,,,,,,50,36.8109,0.0287398
,,,,,,,,,61,48.6882,0.0395478
,,,,,,,,,73,152.732,0.0189249
,,,,,,,,,86,49.7821,0.0185414
,,,,,,,,,100,81.7206,0.0429264
,,,,,,,,,115,104.841,0.0294307
,,,,,,,,,131,174.624,0.0197146
,,,,,,,,,148,127.412,0.0266219
,,,,,,,,,166,153.416,0.0178821
,,,,,,,,,185,91.7169,0.040012
,,,,,,,,,205,125.551,0.0378023
,,,,,,,,,72,76.225,0.0514346
,,,,,,,,,85,142.488,0.021278
,,,,,,,,,99,46.6271,0.0207945
,,,,,,,,,114,45.0181,0.0573
,,,,,,,,,130,129.841,0.0355436
,,,,,,,,,147,147.89,0.0222815
,,,,,,,,,165,91.1733,0.0315265
,,,,,,,,,184,142.245,0.0199688
,,,,,,,,,204,73.0807,0.0522226
,,,,,,,,,225,97.4915,0.0485209
,,,,,,,,,98,140.517,0.0266754
,,,,,,,,,113,45.9108,0.0259197
,,,,,,,,,129,110.207,0.125898
,,,,,,,,,146,56.7118,0.0536902
,,,,,,,,,164,126.319,0.0282716
,,,,,,,,,183,150.56,0.0450242
,,,,,,,,,203,106.459,0.0246493
,,,,,,,,,224,77.6905,0.103737
,,,,,,,,,246,108.416,0.0900849
,,,,,,,,,128,157.325,0.0151205
,,,,,,,,,145,106.946,0.0281709
,,,,,,,,,163,87.2507,0.0216544
,,,,,,,,,182,28.6495,0.0158917
,,,,,,,,,202,59.6713,0.0200945
,,,,,,,,,223,51.4029,0.0146792
,,,,,,,,,245,114.635,0.0268858
,,,,,,,,,268,79.5022,0.0258697
,,,,,,,,,162,65.1755,0.0273295
,,,,,,,,,181,85.3919,0.0211537
,,,,,,,,,201,129.501,0.0156204
,,,,,,,,,222,106.661,0.0196626
,,,,,,,,,244,107.937,0.0144474
,,,,,,,,,267,42.9099,0.0261183
,,,,,,,,,291,78.3452,0.0251584
,,,,,,,,,200,135.429,0.0601134
,,,,,,,,,221,102.874,0.0299571
,,,,,,,,,243,47.9678,0.0494556
,,,,,,,,,266,102.901,0.0259208
,,,,,,,,,290,55.165,0.130726
,,,,,,,,,315,59.4867,0.109764
,,,,,,,,,242,69.9474,0.0226945
,,,,,,,,,265,120.853,0.0323598
,,,,,,,,,289,53.596,0.0202999
,,,,,,,,,314,80.3835,0.0545494
,,,,,,,,,340,83.1817,0.0505231
,,,,,,,,,288,57.7828,0.0209871
,,,,,,,,,313,23.1995,0.0151499
,,,,,,,,,339,88.7144,0.028508
,,,,,,,,,366,56.1115,0.0273682
,,,,,,,,,338,67.8625,0.0189228
,,,,,,,,,365,73.177,0.0456268
,,,,,,,,,393,46.1689,0.0427756
,,,,,,,,,392,70.933,0.0248288
,,,,,,,,,421,45.2333,0.0239597
,,,,,,,,,450,35.5346,0.0925304
