Q	U	V
{$V$}	{[mm$^3$]}	0.00314673
{$d_v$}	{[mm]}	0.181811
{$S_c$}	{[mm$^2$]}	0.24337
{$S_o$}	{[mm$^2$]}	0.125527
{$S_l/S_o$}	[]	0.938786
{$\Psi$}	[]	0.426701
{$\eta$}	[]	0.468870
{med($\theta_e$)}	{[$^\circ$]}	
{$\Upsilon$}	[]	16
{$\Xi$}	[]	7
