facetNormals:0,facetNormals:1,facetNormals:2,FacetCenters:0,FacetCenters:1,FacetCenters:2,FacetIds,relFacetSize,absFacetSize,cellPairingIds,interplanarAngles,angleWeights
0.0914314,-0.3504,-0.904324,7.04781,6.8324,8.56692,1,0.0374127,0.00717844,8,53.5179,0.0624968
0.561148,0.358397,-0.701659,7.07407,6.9091,8.6166,2,0.189656,0.0363898,13,43.2769,0.0360768
-0.294965,-0.788964,-0.487269,7.0332,6.79727,8.59468,3,0.0348331,0.00668349,19,57.7487,0.0469696
-0.702149,0.0157957,-0.612965,6.99289,6.88066,8.58932,4,0.0630842,0.0121041,26,83.8495,0.0222374
0.204044,0.8674,-0.429634,7.10092,6.99126,8.7359,5,0.0158203,0.00303548,34,75.8104,0.0340322
-0.628723,-0.739708,-0.0334493,7.02543,6.78571,8.64506,6,0.031212,0.00598871,43,71.813,0.0497812
0.908538,-0.278971,-0.12222,7.13914,6.83489,8.68891,7,0.0743665,0.0142689,53,90.6367,0.0489465
0.717706,0.641857,-0.164445,7.12548,6.96405,8.677,8,0.0707614,0.0135771,64,105.126,0.0286557
-0.282606,0.922379,-0.112949,7.06175,6.99257,8.70463,9,0.0232206,0.00445538,76,120.995,0.0415095
-0.686398,0.64134,0.216912,7.0133,6.97733,8.63845,10,0.0466139,0.00894391,89,102.517,0.0384294
0.677147,-0.500246,0.489679,7.14112,6.84365,8.69854,11,0.0395029,0.0075795,103,115.44,0.0451173
-0.84496,-0.194611,0.439866,6.98653,6.86557,8.62446,12,0.0568183,0.0109018,118,114.843,0.0369831
-0.0515749,-0.641553,0.660859,7.08285,6.78711,8.68804,13,0.0365633,0.00701547,134,142.804,0.0346745
-0.666912,0.239594,0.6861,7.01275,6.96732,8.63805,14,0.0323098,0.00619935,151,153.589,0.0173595
0.345533,0.318567,0.840765,7.10883,6.97264,8.77147,15,0.0113017,0.00216849,18,96.4896,0.0588564
,,,,,,,,,25,87.3466,0.0946767
,,,,,,,,,33,40.5734,0.0292045
,,,,,,,,,42,129.246,0.0536025
,,,,,,,,,52,57.6772,0.10684
,,,,,,,,,63,37.6427,0.103068
,,,,,,,,,75,74.4893,0.0413753
,,,,,,,,,88,109.253,0.0748348
,,,,,,,,,102,98.7242,0.0653866
,,,,,,,,,117,155.025,0.0874406
,,,,,,,,,133,144.073,0.0613073
,,,,,,,,,150,143.785,0.0552134
,,,,,,,,,168,107.609,0.0213323
,,,,,,,,,32,57.0542,0.0448831
,,,,,,,,,41,123.777,0.0217585
,,,,,,,,,51,33.8136,0.0329233
,,,,,,,,,62,89.2832,0.0474437
,,,,,,,,,74,132.159,0.046685
,,,,,,,,,87,128.574,0.0278654
,,,,,,,,,101,115.862,0.0398715
,,,,,,,,,116,92.6407,0.0370213
,,,,,,,,,132,78.5112,0.0431888
,,,,,,,,,149,77.1684,0.0356772
,,,,,,,,,167,109.895,0.033524
,,,,,,,,,186,144.487,0.0170663
,,,,,,,,,50,81.6585,0.0252967
,,,,,,,,,61,60.1811,0.0417617
,,,,,,,,,73,129.437,0.0682623
,,,,,,,,,86,115.569,0.0667026
,,,,,,,,,100,71.8375,0.033946
,,,,,,,,,115,66.4476,0.0536126
,,,,,,,,,131,149.655,0.0485833
,,,,,,,,,148,69.2851,0.0597875
,,,,,,,,,166,116.151,0.0462945
,,,,,,,,,185,86.7891,0.042733
,,,,,,,,,205,146.989,0.0191693
,,,,,,,,,72,141.837,0.0209976
,,,,,,,,,85,90.2471,0.0260903
,,,,,,,,,99,36.7895,0.0258592
,,,,,,,,,114,34.5969,0.0188191
,,,,,,,,,130,70.2011,0.0236232
,,,,,,,,,147,121.69,0.0225926
,,,,,,,,,165,123.453,0.0247495
,,,,,,,,,184,158.822,0.0220849
,,,,,,,,,204,103.213,0.0212404
,,,,,,,,,225,90.8655,0.0131846
,,,,,,,,,98,112.805,0.0439697
,,,,,,,,,113,165.968,0.0433172
,,,,,,,,,129,122.061,0.0266296
,,,,,,,,,146,93.0669,0.0373889
,,,,,,,,,164,94.3697,0.0348714
,,,,,,,,,183,45.626,0.0402909
,,,,,,,,,203,57.2407,0.0336764
,,,,,,,,,224,76.7795,0.0317514
,,,,,,,,,246,120.938,0.0165946
,,,,,,,,,128,58.2089,0.0725192
,,,,,,,,,145,122.514,0.0353906
,,,,,,,,,163,153.817,0.057307
,,,,,,,,,182,41.8739,0.0515976
,,,,,,,,,202,145.429,0.0644187
,,,,,,,,,223,86.67,0.0490235
,,,,,,,,,245,143.179,0.0450478
,,,,,,,,,268,82.3855,0.0196215
,,,,,,,,,162,64.5445,0.0349667
,,,,,,,,,181,97.1155,0.0562037
,,,,,,,,,201,84.9114,0.0507014
,,,,,,,,,222,147.805,0.0630279
,,,,,,,,,244,128.219,0.0482139
,,,,,,,,,267,117.019,0.0443632
,,,,,,,,,291,70.4908,0.0194905
,,,,,,,,,200,35.6394,0.0309991
,,,,,,,,,221,138.463,0.0292484
,,,,,,,,,243,89.4174,0.0329678
,,,,,,,,,266,136.675,0.028403
,,,,,,,,,290,69.7258,0.0270213
,,,,,,,,,315,83.7885,0.0152037
,,,,,,,,,242,136.348,0.0427648
,,,,,,,,,265,54.0301,0.0512127
,,,,,,,,,289,105.168,0.0409814
,,,,,,,,,314,36.9219,0.0381656
,,,,,,,,,340,80.7352,0.0181926
,,,,,,,,,288,105.9,0.0466042
,,,,,,,,,313,47.2716,0.0379763
,,,,,,,,,339,104.189,0.0355461
,,,,,,,,,366,58.7745,0.0175752
,,,,,,,,,338,59.21,0.0444941
,,,,,,,,,365,31.3871,0.0411944
,,,,,,,,,393,89.0293,0.0188534
,,,,,,,,,392,68.4583,0.0343052
,,,,,,,,,421,67.9601,0.0172664
,,,,,,,,,450,63.5797,0.0167459
