"cellPairingIds","interplanarAngles","angleWeights"
43,80.9428,0.0108471
64,69.0416,0.0129597
76,73.4976,0.015403
89,91.7773,0.0107607
163,45.3609,0.0188754
182,148.505,0.0123477
223,32.6447,0.0186353
268,54.3212,0.0202454
200,54.368,0.0263502
221,106.789,0.0151611
266,86.0956,0.0258844
341,50.1266,0.0351748
289,37.8266,0.0378877
366,130.172,0.0199465
394,81.5438,0.0226255
421,32.5287,0.0438426
451,98.8409,0.059267
512,93.0761,0.0793333
