facetNormals:0,facetNormals:1,facetNormals:2,FacetCenters:0,FacetCenters:1,FacetCenters:2,FacetIds,relFacetSize,absFacetSize,cellPairingIds,interplanarAngles,angleWeights
0.00946247,0.0313956,-0.981808,5.88475,3.68742,9.96826,1,0.0200552,0.00214803,8,32.5014,0.0207832
0.539115,-0.0297236,-0.834465,5.92786,3.68289,9.99523,2,0.0215661,0.00230986,13,39.1136,0.0277032
-0.599672,-0.0097474,-0.754097,5.82967,3.66349,9.9925,3,0.0447799,0.00479619,19,44.6357,0.0244313
0.555108,-0.403308,-0.711107,5.9403,3.67656,9.99574,4,0.0312502,0.00334707,26,62.2416,0.0257904
0.849566,-0.201588,-0.457657,5.97361,3.73244,9.9972,5,0.0361195,0.00386861,34,56.5497,0.0282874
0.641374,0.523646,-0.514793,5.94785,3.74191,10.0071,6,0.0479839,0.00513935,43,65.4659,0.0213988
-0.755718,0.497601,-0.402877,5.85859,3.69247,9.97705,7,0.0229355,0.00245652,53,72.9301,0.036329
0.126936,-0.877253,-0.301843,5.88572,3.64706,10.0212,8,0.19268,0.0206372,64,61.918,0.0227747
-0.362329,0.795145,-0.438552,5.90407,3.7301,9.97108,9,0.0263474,0.00282195,76,80.888,0.0279425
-0.955184,-0.0981133,-0.166769,5.95623,3.74372,9.97731,10,0.0460552,0.00493278,89,86.1661,0.0106008
-0.878293,0.462209,-0.0602051,5.91524,3.71358,9.9865,11,0.00720445,0.000771638,103,96.5281,0.0279836
0.972092,-0.0103532,0.12047,5.97177,3.73286,10.0303,12,0.0462792,0.00495676,118,104.476,0.0332957
0.781856,-0.523789,0.233297,5.94056,3.66547,10.0587,13,0.0979872,0.010495,134,104.109,0.0151959
-0.955497,0.15952,0.239273,6.00223,3.78701,10.0127,14,0.0122321,0.00131013,151,119.273,0.0261277
-0.539777,-0.662482,0.444984,5.92309,3.6375,9.99398,15,0.0374746,0.00401375,169,122.997,0.0182148
-0.828805,0.114624,0.537588,5.9658,3.73149,9.98649,16,0.0166838,0.00178694,188,122.776,0.0314265
-0.638237,0.487366,0.530857,5.95019,3.6948,9.98361,17,0.0725786,0.00777359,208,133.729,0.020569
-0.0726682,0.687101,0.703029,5.97147,3.70483,9.99491,18,0.0211099,0.002261,229,168.494,0.0184035
-0.0160513,-0.224444,0.947089,5.97349,3.66431,10.022,19,0.0170033,0.00182115,18,71.3486,0.0291119
,,,,,,,,,25,22.9142,0.0255204
,,,,,,,,,33,30.3081,0.027007
,,,,,,,,,42,38.3661,0.0297578
,,,,,,,,,52,95.013,0.0222297
,,,,,,,,,63,68.1493,0.0387906
,,,,,,,,,75,81.3,0.0237182
,,,,,,,,,88,112.64,0.0293763
,,,,,,,,,102,116.244,0.0108008
,,,,,,,,,117,64.1935,0.0294217
,,,,,,,,,133,75.4314,0.0353517
,,,,,,,,,150,136.511,0.0156102
,,,,,,,,,168,132.152,0.0273771
,,,,,,,,,187,155.412,0.0188134
,,,,,,,,,207,146.904,0.0332518
,,,,,,,,,228,131.272,0.0213356
,,,,,,,,,250,144.974,0.0190148
,,,,,,,,,32,77.425,0.0368112
,,,,,,,,,41,99.8431,0.0399862
,,,,,,,,,51,90.0924,0.0463266
,,,,,,,,,62,37.9886,0.0303343
,,,,,,,,,74,79.7818,0.0726708
,,,,,,,,,87,55.0058,0.0331753
,,,,,,,,,101,41.8466,0.0454086
,,,,,,,,,116,53.6694,0.012412
,,,,,,,,,132,135.542,0.0455172
,,,,,,,,,149,133.215,0.0614688
,,,,,,,,,167,66.0035,0.0192153
,,,,,,,,,186,90.3342,0.0408029
,,,,,,,,,206,84.5806,0.0243103
,,,,,,,,,227,91.3798,0.0553869
,,,,,,,,,249,121.29,0.0286934
,,,,,,,,,272,138.492,0.0246476
,,,,,,,,,50,25.625,0.0335089
,,,,,,,,,61,57.9741,0.03785
,,,,,,,,,73,109.935,0.0264549
,,,,,,,,,86,46.3308,0.0537782
,,,,,,,,,100,102.552,0.0285901
,,,,,,,,,115,112.727,0.037235
,,,,,,,,,131,129.968,0.0117094
,,,,,,,,,148,61.7531,0.037308
,,,,,,,,,166,59.9785,0.0473875
,,,,,,,,,185,140.871,0.0175821
,,,,,,,,,205,111.497,0.0340805
,,,,,,,,,226,154.714,0.0217538
,,,,,,,,,248,167.4,0.0436891
,,,,,,,,,271,147.051,0.0251982
,,,,,,,,,295,127.973,0.0220235
,,,,,,,,,72,45.3959,0.0412149
,,,,,,,,,85,124.85,0.0280558
,,,,,,,,,99,62.7387,0.060835
,,,,,,,,,114,106.108,0.0304691
,,,,,,,,,130,138.125,0.0404867
,,,,,,,,,147,145.911,0.0120128
,,,,,,,,,165,36.845,0.040573
,,,,,,,,,184,46.0766,0.0527826
,,,,,,,,,204,165.75,0.0182752
,,,,,,,,,225,123.822,0.0367846
,,,,,,,,,247,173.074,0.0228248
,,,,,,,,,270,158.576,0.0482346
,,,,,,,,,294,122.491,0.0266465
,,,,,,,,,319,114.754,0.0231219
,,,,,,,,,98,90.9928,0.0310362
,,,,,,,,,113,104.111,0.0768336
,,,,,,,,,129,64.5413,0.0340166
,,,,,,,,,146,127.478,0.0469997
,,,,,,,,,164,107.424,0.0125279
,,,,,,,,,183,54.395,0.0471161
,,,,,,,,,203,83.4958,0.064421
,,,,,,,,,224,132.119,0.0194946
,,,,,,,,,246,169.029,0.0420831
,,,,,,,,,269,140.51,0.024759
,,,,,,,,,293,117.091,0.0577726
,,,,,,,,,318,92.9061,0.0293206
,,,,,,,,,344,130.42,0.025109
,,,,,,,,,128,116.294,0.0409915
,,,,,,,,,145,29.0956,0.0245233
,,,,,,,,,163,39.93,0.0306214
,,,,,,,,,182,21.2311,0.0109647
,,,,,,,,,202,144.34,0.0306708
,,,,,,,,,223,169.913,0.0371705
,,,,,,,,,245,44.488,0.015955
,,,,,,,,,268,96.0759,0.0284554
,,,,,,,,,292,61.7129,0.0193164
,,,,,,,,,317,57.5944,0.0348561
,,,,,,,,,343,83.3191,0.0219849
,,,,,,,,,370,119.933,0.0195288
,,,,,,,,,162,131.881,0.0463559
,,,,,,,,,181,89.0481,0.0743411
,,,,,,,,,201,122.393,0.0138896
,,,,,,,,,222,83.9853,0.0746326
,,,,,,,,,244,57.4615,0.129909
,,,,,,,,,267,110.909,0.0230038
,,,,,,,,,291,65.2056,0.0627458
,,,,,,,,,316,113.279,0.0307087
,,,,,,,,,342,137.898,0.10544
,,,,,,,,,369,153.246,0.038051
,,,,,,,,,397,95.7306,0.0312489
,,,,,,,,,200,69.0163,0.0335191
,,,,,,,,,221,42.897,0.0113149
,,,,,,,,,243,115.564,0.0335782
,,,,,,,,,266,147.794,0.0415283
,,,,,,,,,290,67.8315,0.0167075
,,,,,,,,,315,123.971,0.030941
,,,,,,,,,341,80.7865,0.0204305
,,,,,,,,,368,65.7889,0.0386603
,,,,,,,,,396,74.079,0.0234397
,,,,,,,,,425,128.157,0.0206683
,,,,,,,,,242,33.9736,0.0124598
,,,,,,,,,265,173.015,0.0461669
,,,,,,,,,289,140.998,0.0626596
,,,,,,,,,314,28.1904,0.0193301
,,,,,,,,,340,57.3649,0.0413242
,,,,,,,,,367,44.5461,0.0244944
,,,,,,,,,395,59.7035,0.0563519
,,,,,,,,,424,96.89,0.0289502
,,,,,,,,,454,97.3027,0.0248369
,,,,,,,,,288,152.738,0.012468
,,,,,,,,,313,167.956,0.0134221
,,,,,,,,,339,25.0914,0.00906802
,,,,,,,,,366,81.531,0.0120855
,,,,,,,,,394,40.8012,0.0100633
,,,,,,,,,423,38.0385,0.0131078
,,,,,,,,,453,69.7594,0.0107426
,,,,,,,,,484,98.7152,0.0101207
,,,,,,,,,338,33.3297,0.0628666
,,,,,,,,,365,157.287,0.0193498
,,,,,,,,,393,119.465,0.0414141
,,,,,,,,,422,139.618,0.024526
,,,,,,,,,452,126.546,0.0565193
,,,,,,,,,483,89.5882,0.0289943
,,,,,,,,,515,83.9311,0.0248693
,,,,,,,,,392,143.21,0.0217491
,,,,,,,,,421,88.2341,0.054215
,,,,,,,,,451,127.173,0.0285129
,,,,,,,,,482,132.489,0.0833904
,,,,,,,,,514,105.331,0.0347364
,,,,,,,,,547,69.7962,0.0289781
,,,,,,,,,450,57.4997,0.0184439
,,,,,,,,,481,18.9037,0.0141153
,,,,,,,,,513,32.0001,0.0209357
,,,,,,,,,546,69.3258,0.0154891
,,,,,,,,,580,77.7471,0.0142283
,,,,,,,,,512,50.4086,0.0230886
,,,,,,,,,545,73.8577,0.049428
,,,,,,,,,579,96.2342,0.0270067
,,,,,,,,,614,51.8932,0.0233926
,,,,,,,,,578,24.6355,0.027131
,,,,,,,,,613,58.1762,0.0186377
,,,,,,,,,649,59.1307,0.016842
,,,,,,,,,648,37.3361,0.0327069
,,,,,,,,,685,64.4864,0.0275518
,,,,,,,,,722,57.6969,0.0188354
