Q	U	V
{$V$}	{[mm$^3$]}	0.005505
{$d_v$}	{[mm]}	0.219072
{$S_c$}	{[mm$^2$]}	0.323576
{$S_o$}	{[mm$^2$]}	0.168065
{$S_l/S_o$}	[]	0.925303
{$\Psi$}	[]	0.465957
{$\eta$}	[]	0.515029
{med($\theta_e$)}	{[$^\circ$]}	138.852
{$\Upsilon$}	[]	9
{$\Xi$}	[]	8
