facetNormals:0,facetNormals:1,facetNormals:2,FacetCenters:0,FacetCenters:1,FacetCenters:2,FacetIds,relFacetSize,absFacetSize,cellPairingIds,interplanarAngles,angleWeights
-0.19247,-0.38904,-0.79509,3.36425,4.79508,11.614,1,0.0777579,0.0157518,8,38.621,0.0400537
0.25308,-0.752262,-0.555535,3.40154,4.77181,11.6187,2,0.0269742,0.0054643,13,55.2469,0.0587269
-0.900494,-0.180177,-0.326941,3.28893,4.83633,11.6399,3,0.0471798,0.00955746,19,98.6097,0.0506578
0.752468,0.490125,-0.262404,3.30854,4.87087,11.6574,4,0.0375655,0.00760984,26,53.5738,0.0550759
-0.592703,-0.772607,-0.144448,3.30981,4.79631,11.6446,5,0.0426383,0.00863747,34,110.103,0.0571623
-0.634961,0.688672,0.191094,3.31403,4.90613,11.7126,6,0.0451922,0.00915483,43,93.9428,0.0953183
0.669144,-0.658873,0.236265,3.44401,4.78526,11.7071,7,0.123124,0.0249419,53,76.4661,0.0515264
-0.908785,-0.367267,0.13586,3.31222,4.79778,11.6839,8,0.0385288,0.00780498,64,78.3014,0.0318763
-0.609892,-0.731158,0.276366,3.33046,4.76735,11.7148,9,0.0200473,0.00406108,76,138.019,0.0315954
0.291692,0.878634,0.332605,3.40295,4.97046,11.7901,10,0.0198256,0.00401617,89,99.1165,0.0701595
-0.748872,-0.349143,0.529244,3.30077,4.84895,11.7239,11,0.063914,0.0129474,103,135.249,0.0620403
0.789521,0.0904222,0.543692,3.43772,4.89557,11.7772,12,0.0516085,0.0104546,118,124.476,0.0889326
-0.633153,0.0992012,0.73234,3.33512,4.90563,11.7844,13,0.103858,0.0210391,134,123.865,0.029564
-0.127708,-0.442335,0.875136,3.37222,4.84832,11.8014,14,0.0182517,0.00369735,151,142.147,0.0504264
0.354601,-0.192731,0.87662,3.41546,4.87057,11.8113,15,0.0373116,0.00755841,18,84.5759,0.0343241
,,,,,,,,,25,92.0544,0.0314008
,,,,,,,,,33,57.5696,0.0330439
,,,,,,,,,42,147.938,0.0337837
,,,,,,,,,52,55.3236,0.0442532
,,,,,,,,,63,91.7448,0.0317324
,,,,,,,,,75,75.3983,0.0230005
,,,,,,,,,88,144.092,0.0228539
,,,,,,,,,102,103.437,0.0379373
,,,,,,,,,117,100.516,0.0354301
,,,,,,,,,133,132.894,0.0428256
,,,,,,,,,150,101.179,0.0217718
,,,,,,,,,168,105.653,0.0313117
,,,,,,,,,32,138.223,0.0418273
,,,,,,,,,41,41.3695,0.0447942
,,,,,,,,,51,65.584,0.0461646
,,,,,,,,,62,126.471,0.0682188
,,,,,,,,,74,29.4349,0.0424177
,,,,,,,,,87,52.3319,0.0281383
,,,,,,,,,101,123.532,0.0279191
,,,,,,,,,116,53.851,0.0542865
,,,,,,,,,132,164.622,0.0492948
,,,,,,,,,149,70.7445,0.0648844
,,,,,,,,,167,95.4421,0.026321
,,,,,,,,,186,127.385,0.0416694
,,,,,,,,,50,148.677,0.0399415
,,,,,,,,,61,102.291,0.0410274
,,,,,,,,,73,82.4788,0.0575671
,,,,,,,,,86,166.307,0.038041
,,,,,,,,,100,163.598,0.026143
,,,,,,,,,115,52.2968,0.0259538
,,,,,,,,,131,162.086,0.0473191
,,,,,,,,,148,56.6114,0.0434812
,,,,,,,,,166,132.918,0.0551744
,,,,,,,,,185,125.904,0.0245671
,,,,,,,,,205,93.6618,0.0374381
,,,,,,,,,72,101.233,0.0438781
,,,,,,,,,85,85.2874,0.0633413
,,,,,,,,,99,34.5052,0.0404795
,,,,,,,,,114,24.7323,0.027272
,,,,,,,,,130,158.3,0.0270662
,,,,,,,,,147,48.7286,0.051152
,,,,,,,,,165,130.56,0.0466965
,,,,,,,,,184,78.3872,0.0604566
,,,,,,,,,204,72.6042,0.0255616
,,,,,,,,,225,101.407,0.0397975
,,,,,,,,,98,154.201,0.0661166
,,,,,,,,,113,68.2814,0.0415953
,,,,,,,,,129,93.8389,0.027774
,,,,,,,,,146,59.0662,0.0275605
,,,,,,,,,164,68.9986,0.0529469
,,,,,,,,,183,111.351,0.0481877
,,,,,,,,,203,49.0064,0.0629798
,,,,,,,,,224,93.4143,0.026002
,,,,,,,,,246,101.908,0.0408755
,,,,,,,,,128,110.401,0.0586914
,,,,,,,,,145,81.6794,0.0344804
,,,,,,,,,163,108.683,0.0341519
,,,,,,,,,182,98.8402,0.084147
,,,,,,,,,202,50.172,0.072731
,,,,,,,,,223,109.593,0.112673
,,,,,,,,,245,64.4658,0.0317908
,,,,,,,,,268,52.3078,0.0572685
,,,,,,,,,162,28.7263,0.0263725
,,,,,,,,,181,123.875,0.0261799
,,,,,,,,,201,24.9045,0.0480762
,,,,,,,,,222,135.264,0.0441196
,,,,,,,,,244,48.4717,0.0562064
,,,,,,,,,267,66.0381,0.0247696
,,,,,,,,,291,97.9677,0.0379104
,,,,,,,,,200,138.318,0.0199358
,,,,,,,,,221,28.0847,0.0305212
,,,,,,,,,243,114.599,0.0288772
,,,,,,,,,266,57.6676,0.0336075
,,,,,,,,,290,49.002,0.0191074
,,,,,,,,,315,79.9532,0.0260813
,,,,,,,,,242,111.208,0.0302636
,,,,,,,,,265,58.8066,0.0286465
,,,,,,,,,289,81.2242,0.0332954
,,,,,,,,,314,97.967,0.0190061
,,,,,,,,,340,76.2491,0.0258929
,,,,,,,,,288,110.772,0.0571058
,,,,,,,,,313,29.9833,0.079131
,,,,,,,,,339,42.6866,0.0283948
,,,,,,,,,366,73.7058,0.0471172
,,,,,,,,,338,95.6806,0.0689532
,,,,,,,,,365,69.4015,0.0269665
,,,,,,,,,393,37.3031,0.0433107
,,,,,,,,,392,45.2172,0.0310473
,,,,,,,,,421,64.9031,0.0549001
,,,,,,,,,450,32.2452,0.0245126
