"cellPairingIds","interplanarAngles","angleWeights"
8,50.7356,0.0735642
13,29.1242,0.0489445
19,34.6414,0.0456451
26,82.3748,0.0633218
34,55.1792,0.0920675
18,42.0989,0.0406203
33,111.655,0.0500518
75,58.5167,0.0611683
88,86.0318,0.0358686
32,41.1908,0.0303648
87,51.711,0.0431294
61,34.4558,0.0428025
73,36.195,0.0348489
100,80.3064,0.0405467
72,53.5671,0.0579801
99,53.9212,0.0621972
130,141.887,0.0332465
98,29.4589,0.0566613
113,74.9136,0.0897091
128,73.818,0.0606821
145,93.9674,0.0527746
182,88.7452,0.0700631
181,100.324,0.0417046
201,68.9546,0.128679
200,54.7107,0.0378109
221,71.0387,0.0976517
242,42.9227,0.0459312
