facetNormals:0,facetNormals:1,facetNormals:2,FacetCenters:0,FacetCenters:1,FacetCenters:2,FacetIds,relFacetSize,absFacetSize,cellPairingIds,interplanarAngles,angleWeights
-0.280231,-0.564574,-0.753119,3.50464,3.55307,9.57313,1,0.0558229,0.00674155,8,78.3006,0.0267988
0.329247,0.512231,-0.765055,3.48736,3.55373,9.60563,2,0.0176316,0.00212931,13,88.5907,0.0569945
0.839077,0.174071,-0.474116,3.59047,3.58624,9.59999,3,0.0582162,0.00703058,19,70.349,0.0314528
-0.928599,0.192184,-0.226036,3.47052,3.58729,9.61526,4,0.0218945,0.00264412,26,61.3559,0.0367179
0.616029,-0.713014,-0.315955,3.52518,3.52641,9.6625,5,0.0273557,0.00330365,34,91.0274,0.0402659
0.900815,-0.349697,-0.0504133,3.56347,3.54987,9.67734,6,0.03149,0.00380294,43,126.609,0.0881473
0.685648,0.631619,-0.00366157,3.58319,3.63047,9.72494,7,0.209401,0.0252887,53,64.5109,0.0785469
0.195274,-0.917508,0.0865091,3.57239,3.54776,9.6804,8,0.132473,0.0159984,64,115.784,0.0805594
0.0764153,0.926637,-0.185333,3.52671,3.64751,9.65129,9,0.144663,0.0174704,76,47.149,0.05146
-0.573458,-0.772113,-0.0625548,3.50305,3.55418,9.62854,10,0.0477297,0.00576416,89,105.501,0.0206146
-0.743374,0.634347,0.145396,3.48889,3.61708,9.60833,11,0.0126415,0.00152667,103,165.061,0.027554
0.250164,0.754162,0.583919,3.52431,3.63036,9.80336,12,0.0182912,0.00220897,118,160.165,0.0272209
0.502881,0.313065,0.765475,3.54545,3.58736,9.79502,13,0.0179988,0.00217366,18,40.502,0.0270659
,,,,,,,,,25,92.0661,0.0195331
,,,,,,,,,33,85.318,0.0214427
,,,,,,,,,42,80.5076,0.0226059
,,,,,,,,,52,52.7238,0.0325246
,,,,,,,,,63,120.815,0.0311211
,,,,,,,,,75,46.2029,0.0314322
,,,,,,,,,88,124.697,0.0257507
,,,,,,,,,102,91.8423,0.0147252
,,,,,,,,,117,88.6961,0.0179553
,,,,,,,,,133,105.926,0.0178133
,,,,,,,,,32,131.977,0.0318213
,,,,,,,,,41,56.1201,0.0372212
,,,,,,,,,51,40.6594,0.0408718
,,,,,,,,,62,41.1957,0.0911043
,,,,,,,,,74,92.2908,0.0808864
,,,,,,,,,87,70.2806,0.0830221
,,,,,,,,,101,128.37,0.052454
,,,,,,,,,116,126.996,0.0207723
,,,,,,,,,132,86.1799,0.0278364
,,,,,,,,,149,83.1215,0.0274965
,,,,,,,,,50,131.16,0.0243223
,,,,,,,,,61,161.077,0.0258299
,,,,,,,,,73,124.48,0.0396439
,,,,,,,,,86,114.252,0.0375782
,,,,,,,,,100,80.7214,0.0380328
,,,,,,,,,115,64.92,0.0300188
,,,,,,,,,131,35.9857,0.0160284
,,,,,,,,,148,103.191,0.0199313
,,,,,,,,,166,127.917,0.0197565
,,,,,,,,,72,31.472,0.0292776
,,,,,,,,,85,91.6587,0.0483898
,,,,,,,,,99,37.0558,0.0453472
,,,,,,,,,114,126.094,0.0460107
,,,,,,,,,130,76.9047,0.0347785
,,,,,,,,,147,166.854,0.017292
,,,,,,,,,165,125.431,0.0219235
,,,,,,,,,184,99.2899,0.0217121
,,,,,,,,,98,63.8928,0.0547471
,,,,,,,,,113,57.3042,0.0508844
,,,,,,,,,129,105.546,0.0517214
,,,,,,,,,146,105.13,0.0379453
,,,,,,,,,164,160.078,0.0180406
,,,,,,,,,183,94.0757,0.0231409
,,,,,,,,,203,70.9989,0.0229055
,,,,,,,,,128,120.517,0.162282
,,,,,,,,,145,43.7588,0.171114
,,,,,,,,,163,168.558,0.0777398
,,,,,,,,,182,96.8316,0.0238435
,,,,,,,,,202,45.3752,0.0336437
,,,,,,,,,223,53.2617,0.0331485
,,,,,,,,,162,162.398,0.1383
,,,,,,,,,181,49.3867,0.0701754
,,,,,,,,,201,140.155,0.0230804
,,,,,,,,,222,129.638,0.0321442
,,,,,,,,,244,97.7412,0.0316918
,,,,,,,,,200,144.911,0.0717774
,,,,,,,,,221,57.444,0.0232511
,,,,,,,,,243,49.2907,0.0324762
,,,,,,,,,266,78.2636,0.0320145
,,,,,,,,,242,94.3719,0.0199888
,,,,,,,,,265,143.331,0.0264472
,,,,,,,,,289,128.285,0.0261402
,,,,,,,,,288,67.2122,0.0149504
,,,,,,,,,313,93.8338,0.0148518
,,,,,,,,,338,32.0575,0.0181439
