facetNormals:0,facetNormals:1,facetNormals:2,FacetCenters:0,FacetCenters:1,FacetCenters:2,FacetIds,relFacetSize,absFacetSize,cellPairingIds,interplanarAngles,angleWeights
-0.110559,-0.111352,-0.974009,3.46398,5.69165,8.57321,1,0.0124413,0.0020607,8,26.0691,0.0162689
-0.513887,-0.0174615,-0.821276,3.45336,5.69228,8.55028,2,0.0234979,0.00389204,13,59.8083,0.021893
0.723245,0.230527,-0.601929,3.53485,5.67264,8.5716,3,0.0911063,0.0150902,19,67.3318,0.0161427
-0.912093,0.173181,-0.296738,3.42422,5.71691,8.60371,4,0.0229793,0.00380615,26,95.234,0.0226542
0.830135,0.496267,-0.0614166,3.55053,5.70438,8.67004,5,0.126477,0.0209488,34,99.5974,0.0135808
-0.871419,-0.275517,0.292462,3.52827,5.76258,8.60618,6,0.0149499,0.00247621,43,87.8855,0.0218916
-0.306524,0.92358,-0.107383,3.43715,5.72931,8.6654,7,0.0910583,0.0150823,53,95.9252,0.0198311
-0.761155,0.59595,0.120124,3.41621,5.7177,8.68311,8,0.0488419,0.00808986,64,87.0238,0.0212387
0.273225,-0.897942,0.0222669,3.43926,5.7223,8.70758,9,0.0725146,0.0120108,76,110.966,0.0192295
-0.352175,0.873899,0.298249,3.45283,5.73726,8.68206,10,0.0423196,0.00700954,89,108.123,0.0227741
0.821648,-0.440519,0.262224,3.54857,5.62808,8.69744,11,0.134377,0.0222573,103,141.019,0.0145227
-0.527271,0.138197,0.818053,3.43178,5.68911,8.7655,12,0.0174403,0.0028887,118,179.009,0.0213646
0.122742,0.0998442,0.963307,3.49146,5.65826,8.78301,13,0.0755554,0.0125145,18,82.7381,0.03736
,,,,,,,,,25,41.3095,0.0232357
,,,,,,,,,33,114.193,0.0396326
,,,,,,,,,42,76.7931,0.0182737
,,,,,,,,,52,75.9946,0.037356
,,,,,,,,,63,72.6113,0.0317303
,,,,,,,,,75,99.045,0.0354942
,,,,,,,,,88,94.7458,0.0302176
,,,,,,,,,102,132.164,0.040001
,,,,,,,,,117,115.05,0.0200209
,,,,,,,,,133,154.811,0.0358473
,,,,,,,,,32,117.851,0.0367016
,,,,,,,,,41,36.8013,0.105917
,,,,,,,,,51,159.332,0.0256851
,,,,,,,,,62,86.6239,0.0910823
,,,,,,,,,74,120.955,0.0635922
,,,,,,,,,87,91.436,0.0807542
,,,,,,,,,101,104.071,0.0577936
,,,,,,,,,116,69.0897,0.10859
,,,,,,,,,132,152.133,0.0292763
,,,,,,,,,149,119.664,0.0826053
,,,,,,,,,50,133.735,0.0388924
,,,,,,,,,61,45.0885,0.0181147
,,,,,,,,,73,60.3957,0.0366977
,,,,,,,,,86,36.6435,0.0312541
,,,,,,,,,100,116.712,0.0348993
,,,,,,,,,115,66.5019,0.0297854
,,,,,,,,,131,163.176,0.0392471
,,,,,,,,,148,74.1234,0.0198303
,,,,,,,,,166,113.573,0.0352406
,,,,,,,,,72,160.775,0.0267392
,,,,,,,,,85,77.1827,0.105884
,,,,,,,,,99,111.337,0.0704702
,,,,,,,,,114,104.004,0.0921791
,,,,,,,,,130,82.6203,0.063419
,,,,,,,,,147,61.5333,0.130307
,,,,,,,,,165,116.117,0.0306537
,,,,,,,,,184,84.4025,0.0945989
,,,,,,,,,98,91.144,0.0256832
,,,,,,,,,113,55.1452,0.0228927
,,,,,,,,,129,88.994,0.0247892
,,,,,,,,,146,80.6945,0.0220946
,,,,,,,,,164,123.871,0.0269064
,,,,,,,,,183,45.544,0.0160994
,,,,,,,,,203,80.9554,0.0249609
,,,,,,,,,128,36.0758,0.0635805
,,,,,,,,,145,174.858,0.0807353
,,,,,,,,,163,24.124,0.057784
,,,,,,,,,182,136.421,0.108556
,,,,,,,,,202,77.9198,0.0292738
,,,,,,,,,223,92.9299,0.0825856
,,,,,,,,,162,144.055,0.0583694
,,,,,,,,,181,31.0598,0.0453474
,,,,,,,,,201,155.202,0.0716436
,,,,,,,,,222,52.5743,0.0257027
,,,,,,,,,244,85.0659,0.0593304
,,,,,,,,,200,160.439,0.0534473
,,,,,,,,,221,46.4991,0.094197
,,,,,,,,,243,105.713,0.028118
,,,,,,,,,266,92.1678,0.0740038
,,,,,,,,,242,128.524,0.0643677
,,,,,,,,,265,55.4865,0.0247011
,,,,,,,,,289,69.9138,0.054252
,,,,,,,,,288,107.079,0.0308736
,,,,,,,,,313,70.893,0.0967254
,,,,,,,,,338,39.8146,0.0283391
