"cellPairingIds","interplanarAngles","angleWeights"
8,59.8142,0.0720891
26,100.193,0.104039
34,57.3661,0.0514811
43,122.681,0.0339125
53,96.1589,0.176093
76,115.34,0.0380598
18,26.061,0.0381521
25,38.8008,0.0639312
33,63.8198,0.059704
63,66.8718,0.0780253
32,48.8684,0.0479767
74,40.8283,0.0555001
50,31.8114,0.0878593
73,77.3279,0.031992
86,78.4803,0.134248
100,100.984,0.0334146
85,47.7281,0.0308973
113,79.5605,0.0544388
146,63.4477,0.0256642
145,40.3997,0.0196423
163,86.9777,0.0203965
162,110.277,0.0368982
181,96.7357,0.0396526
200,53.5599,0.0209656
