facetNormals:0,facetNormals:1,facetNormals:2,FacetCenters:0,FacetCenters:1,FacetCenters:2,FacetIds,relFacetSize,absFacetSize,cellPairingIds,interplanarAngles,angleWeights
0.21962,-0.227584,-0.923717,6.95125,3.67627,10.8587,1,0.0546002,0.00655008,8,60.4429,0.0281486
-0.631238,0.229574,-0.720085,6.87349,3.70287,10.8671,2,0.0189621,0.00227478,13,38.8701,0.0875425
-0.257668,-0.60751,-0.708167,6.91379,3.61009,10.9157,3,0.220697,0.0264758,19,26.0866,0.0260829
0.418463,-0.562125,-0.707063,6.98972,3.6208,10.9058,4,0.017134,0.00205547,26,38.7467,0.0516616
0.653219,0.157682,-0.66002,6.99375,3.71866,10.8584,5,0.0490232,0.00588104,34,86.9707,0.0219883
-0.943565,0.0115253,-0.282195,6.83642,3.68524,10.9147,6,0.013766,0.00165143,43,92.7296,0.0694877
-0.254473,0.889771,-0.231702,6.91125,3.71457,10.873,7,0.0955372,0.0114611,53,92.6994,0.0408692
-0.654792,-0.705299,0.06611,6.89605,3.58554,10.9802,8,0.0326566,0.00391763,64,103.565,0.021784
0.561121,-0.58673,0.516513,6.94913,3.60927,10.9114,9,0.0136062,0.00163227,76,124.484,0.061167
-0.904548,-0.0391056,0.382847,6.84262,3.65004,10.9637,10,0.0695294,0.00834105,89,135.772,0.0327523
-0.783557,0.377911,0.469217,6.83624,3.69603,10.9329,11,0.0233921,0.00280622,103,152.129,0.037456
-0.210691,-0.229028,0.867395,6.92082,3.57412,10.9511,12,0.0285054,0.00341964,118,147.277,0.060177
0.0725873,0.649317,0.725434,6.92807,3.59444,10.9067,13,0.0670225,0.00804032,18,55.9922,0.0349237
,,,,,,,,,25,83.2074,0.0180018
,,,,,,,,,33,83.8645,0.0273466
,,,,,,,,,42,34.2744,0.0159516
,,,,,,,,,52,55.5265,0.0316437
,,,,,,,,,63,77.6109,0.0239928
,,,,,,,,,75,155.298,0.0158438
,,,,,,,,,88,72.795,0.0297978
,,,,,,,,,102,75.5124,0.0209454
,,,,,,,,,117,126.847,0.0227745
,,,,,,,,,133,115.847,0.0295609
,,,,,,,,,32,40.3488,0.0317992
,,,,,,,,,41,77.1159,0.0802259
,,,,,,,,,51,62.7879,0.0259156
,,,,,,,,,62,109.674,0.133349
,,,,,,,,,74,53.8841,0.0568946
,,,,,,,,,87,99.5118,0.0256322
,,,,,,,,,101,90.8605,0.105745
,,,,,,,,,116,112.101,0.0423006
,,,,,,,,,132,118.15,0.0504896
,,,,,,,,,149,168.763,0.10282
,,,,,,,,,50,45.9979,0.0253929
,,,,,,,,,61,101.877,0.0152665
,,,,,,,,,73,117.792,0.0290568
,,,,,,,,,86,85.4779,0.0224756
,,,,,,,,,100,77.9843,0.0151677
,,,,,,,,,115,129.863,0.0274929
,,,,,,,,,131,152.412,0.0197798
,,,,,,,,,148,128.631,0.021403
,,,,,,,,,166,150.698,0.0272911
,,,,,,,,,72,117.494,0.0214959
,,,,,,,,,85,81.8749,0.064797
,,,,,,,,,99,129.878,0.0392002
,,,,,,,,,114,94.2325,0.0213006
,,,,,,,,,130,156.595,0.0575028
,,,,,,,,,147,144.927,0.0316716
,,,,,,,,,165,149.286,0.0360493
,,,,,,,,,184,110.964,0.0566269
,,,,,,,,,98,70.3643,0.0240646
,,,,,,,,,113,51.5316,0.0193678
,,,,,,,,,129,136.02,0.0136857
,,,,,,,,,146,39.6922,0.0229819
,,,,,,,,,164,51.1033,0.0173322
,,,,,,,,,183,93.0702,0.018566
,,,,,,,,,203,106.042,0.0228407
,,,,,,,,,128,121.164,0.0486751
,,,,,,,,,145,148.718,0.0238201
,,,,,,,,,163,83.4681,0.0804844
,,,,,,,,,182,63.0791,0.0375822
,,,,,,,,,202,113.542,0.0439096
,,,,,,,,,223,65.165,0.078779
,,,,,,,,,162,85.0217,0.0192091
,,,,,,,,,181,47.1268,0.0444404
,,,,,,,,,201,73.0768,0.0272587
,,,,,,,,,222,66.3339,0.0304402
,,,,,,,,,244,119.066,0.0439155
,,,,,,,,,200,107.655,0.0227588
,,,,,,,,,221,116.142,0.017205
,,,,,,,,,243,58.4347,0.0184202
,,,,,,,,,266,87.8983,0.0226203
,,,,,,,,,242,25.9533,0.0350067
,,,,,,,,,265,54.0659,0.0404339
,,,,,,,,,289,78.7834,0.0682529
,,,,,,,,,288,57.7877,0.0256968
,,,,,,,,,313,56.7635,0.0346801
,,,,,,,,,338,58.8614,0.0399989
