"cellPairingIds","interplanarAngles","angleWeights"
8,93.7662,0.010298
13,95.2398,0.0216514
34,130.602,0.0148466
43,63.1912,0.0209093
53,111.485,0.0160223
76,111.348,0.017888
18,81.8095,0.0177899
75,70.0056,0.017917
88,77.9317,0.0151679
51,53.4437,0.0377919
87,84.8336,0.204379
113,36.7667,0.0234261
129,61.6505,0.0383702
128,83.078,0.0431825
145,123.578,0.153094
163,66.564,0.0600684
162,84.7222,0.0473493
200,64.261,0.0684473
