"cellPairingIds","interplanarAngles","angleWeights"
8,67.1194,0.0619107
13,97.1266,0.069777
26,56.0819,0.0588936
34,72.0982,0.0348445
18,108.59,0.136397
25,86.9171,0.0572401
42,73.2487,0.0460848
63,82.6294,0.0453835
32,36.8753,0.0639005
41,89.7661,0.122563
74,152.403,0.0494719
101,78.0907,0.124385
86,122.914,0.0329465
72,79.3116,0.0443919
99,105.816,0.0437409
130,72.6484,0.0935632
113,38.9293,0.0289175
181,84.9085,0.0439707
