Q	U	V
{$V$}	{[mm$^3$]}	0.00306361
{$d_v$}	{[mm]}	0.180196
{$S_c$}	{[mm$^2$]}	0.190813
{$S_o$}	{[mm$^2$]}	0.109707
{$S_l/S_o$}	[]	0.739296
{$\Psi$}	[]	0.534604
{$\eta$}	[]	0.544439
{med($\theta_e$)}	{[$^\circ$]}	
{$\Upsilon$}	[]	17
{$\Xi$}	[]	6
