facetNormals:0,facetNormals:1,facetNormals:2,FacetCenters:0,FacetCenters:1,FacetCenters:2,FacetIds,relFacetSize,absFacetSize,cellPairingIds,interplanarAngles,angleWeights
0.32391,-0.664231,-0.603372,3.26316,6.75315,12.4409,1,0.0779049,0.0223618,8,69.7269,0.0288966
0.673524,0.382351,-0.594133,3.25933,6.84164,12.3755,2,0.017738,0.0050915,13,46.7464,0.0599986
-0.4193,-0.761961,-0.444529,3.23831,6.75809,12.5551,3,0.0487854,0.0140033,19,121.608,0.0826536
-0.0971657,0.91763,-0.266425,3.16193,6.897,12.4257,4,0.0880188,0.0252648,26,65.678,0.0501419
0.959359,0.00591308,-0.121233,3.32332,6.74973,12.5482,5,0.0369677,0.0106112,34,47.1319,0.0467948
0.861429,-0.41852,-0.114341,3.32221,6.71759,12.5578,6,0.0334407,0.0095988,43,114.791,0.120869
0.588551,0.712939,0.152302,3.26317,6.84026,12.585,7,0.269495,0.0773556,53,93.1928,0.0839322
-0.607331,-0.581959,0.396515,3.19275,6.72529,12.6842,8,0.0909702,0.026112,64,130.636,0.0367418
-0.859618,0.0729168,0.469806,3.12878,6.81329,12.6762,9,0.0240398,0.00690035,76,87.4352,0.0634252
0.397724,-0.513911,0.711098,3.29015,6.70467,12.702,10,0.0534845,0.0153521,18,108.951,0.0260166
,,,,,,,,,25,61.7529,0.0295258
,,,,,,,,,33,40.249,0.0239731
,,,,,,,,,42,58.7724,0.0231804
,,,,,,,,,52,50.7621,0.0332852
,,,,,,,,,63,162.805,0.0296874
,,,,,,,,,75,149.977,0.0204136
,,,,,,,,,88,111.925,0.0266407
,,,,,,,,,32,125.145,0.0627763
,,,,,,,,,41,111.938,0.0420623
,,,,,,,,,51,89.4814,0.0396813
,,,,,,,,,62,159.594,0.0826153
,,,,,,,,,74,54.9343,0.0635111
,,,,,,,,,87,84.2555,0.0322084
,,,,,,,,,101,95.5679,0.051027
,,,,,,,,,50,93.4253,0.0520673
,,,,,,,,,61,118.167,0.0484674
,,,,,,,,,73,51.8041,0.132698
,,,,,,,,,86,130.551,0.0894702
,,,,,,,,,100,88.4653,0.0377651
,,,,,,,,,115,139.134,0.0665375
,,,,,,,,,72,26.0691,0.0351159
,,,,,,,,,85,52.5936,0.0650168
,,,,,,,,,99,134.847,0.0525718
,,,,,,,,,114,158.073,0.029134
,,,,,,,,,130,71.7115,0.0437181
,,,,,,,,,98,77.7853,0.0594985
,,,,,,,,,113,111.241,0.0489042
,,,,,,,,,129,150.512,0.0279715
,,,,,,,,,146,59.1544,0.0411517
,,,,,,,,,128,144.799,0.136024
,,,,,,,,,145,114.549,0.0441419
,,,,,,,,,163,91.524,0.0892552
,,,,,,,,,162,43.1984,0.0380298
,,,,,,,,,181,67.7296,0.0673636
,,,,,,,,,200,92.743,0.0331704
