facetNormals:0,facetNormals:1,facetNormals:2,FacetCenters:0,FacetCenters:1,FacetCenters:2,FacetIds,relFacetSize,absFacetSize,cellPairingIds,interplanarAngles,angleWeights
-0.0813143,0.65001,-0.707368,6.78531,5.80622,11.2618,1,0.0327211,0.00758569,8,52.1799,0.0536595
0.693287,0.52208,-0.397843,6.85993,5.84217,11.3643,2,0.149015,0.0345459,13,42.416,0.043231
-0.558332,0.773052,-0.207407,6.77351,5.84457,11.3365,3,0.0636869,0.0147645,19,77.0514,0.0567632
-0.942928,0.183822,-0.0161263,6.74318,5.78909,11.3687,4,0.214004,0.0496123,26,76.2513,0.0374894
-0.451287,0.741537,0.420802,6.82359,5.87599,11.4184,5,0.0438845,0.0101737,34,130.412,0.046959
-0.670695,-0.374961,0.586823,6.85476,5.83302,11.3748,6,0.0831324,0.0192725,43,173.157,0.0196357
0.120382,-0.563995,0.773128,6.79919,5.80421,11.4592,7,0.0140264,0.00325173,53,123.666,0.0411124
0.568609,0.103337,0.737545,6.85043,5.84262,11.4822,8,0.0552919,0.0128182,64,133.772,0.0246504
-0.215524,0.00727722,0.949687,6.84388,5.83645,11.4569,9,0.0197733,0.00458403,18,83.8988,0.0892357
,,,,,,,,,25,126.944,0.175692
,,,,,,,,,33,95.8044,0.0678016
,,,,,,,,,42,165.635,0.106725
,,,,,,,,,52,124.274,0.0256394
,,,,,,,,,63,80.0396,0.0806562
,,,,,,,,,75,124.263,0.0349138
,,,,,,,,,32,44.2258,0.0981614
,,,,,,,,,41,38.3854,0.0519631
,,,,,,,,,51,92.2538,0.072122
,,,,,,,,,62,134.827,0.0229896
,,,,,,,,,74,115.285,0.0591932
,,,,,,,,,87,94.2851,0.0301773
,,,,,,,,,50,53.2129,0.0728335
,,,,,,,,,61,53.3877,0.119748
,,,,,,,,,73,104.348,0.0263273
,,,,,,,,,86,125.991,0.0878787
,,,,,,,,,100,78.3314,0.0362017
,,,,,,,,,72,73.0725,0.0574447
,,,,,,,,,85,99.1035,0.0212583
,,,,,,,,,99,81.7065,0.0489322
,,,,,,,,,114,57.6796,0.0272627
,,,,,,,,,98,51.193,0.024003
,,,,,,,,,113,89.1969,0.0664124
,,,,,,,,,129,42.055,0.0319478
,,,,,,,,,128,50.0446,0.0223764
,,,,,,,,,145,41.4379,0.0164113
,,,,,,,,,162,50.6452,0.0291295
