"cellPairingIds","interplanarAngles","angleWeights"
8,29.6306,0.0209038
13,101.491,0.0396463
19,64.9786,0.0320376
34,104.611,0.038584
43,70.1437,0.0239967
18,112.931,0.0347959
42,75.4637,0.0339749
32,56.1037,0.0825476
41,48.0148,0.070516
51,121.483,0.146662
87,38.1729,0.0423907
73,62.8417,0.0350095
86,47.9179,0.0654418
100,78.5801,0.0338062
72,80.7263,0.0672239
114,29.5447,0.0315982
130,42.0513,0.0395319
98,123.382,0.0429778
146,44.0865,0.0557624
164,64.6679,0.112894
128,50.1976,0.0388502
145,111.256,0.0249753
182,95.1233,0.0406292
162,61.4671,0.037374
200,64.177,0.0288144
221,66.7161,0.0390175
242,38.7578,0.051872
