"cellPairingIds","interplanarAngles","angleWeights"
8,59.5281,0.0189224
13,33.6735,0.0650823
19,98.8383,0.121889
26,89.2969,0.0933016
43,103.612,0.0305067
18,83.6837,0.0157466
25,59.0811,0.0177479
63,104.959,0.0181071
75,140.614,0.0184783
88,147.133,0.0146551
41,93.3408,0.0467813
51,26.7102,0.0481457
101,83.322,0.0325169
73,42.3099,0.0275659
86,46.9015,0.0944861
72,85.3932,0.0620229
85,45.1652,0.0257795
99,64.862,0.0763515
114,61.5113,0.083417
129,110.171,0.0878563
146,57.3534,0.0392153
128,32.5819,0.0284422
162,38.1035,0.119668
200,60.4483,0.0468052
