facetNormals:0,facetNormals:1,facetNormals:2,FacetCenters:0,FacetCenters:1,FacetCenters:2,FacetIds,relFacetSize,absFacetSize,cellPairingIds,interplanarAngles,angleWeights
-0.0648411,0.829874,-0.505375,5.43258,3.66456,11.8676,1,0.00687517,0.000706912,8,33.2196,0.00646498
0.456825,0.643621,-0.596663,5.38105,3.68486,11.8668,2,0.00610099,0.00062731,13,106.961,0.0129665
-0.0940151,-0.713563,-0.624162,5.4297,3.59556,11.8363,3,0.113728,0.0116937,19,119.798,0.0103501
0.629308,-0.70197,-0.289184,5.5233,3.6102,11.8365,4,0.0209276,0.00215179,26,122.255,0.0132005
-0.756625,-0.567817,0.149568,5.34161,3.62944,11.8896,5,0.165068,0.0169725,34,163.167,0.0128858
0.235196,-0.91081,0.28936,5.4592,3.61237,11.924,6,0.102479,0.010537,43,150.628,0.0132625
0.500245,-0.608278,0.549972,5.49419,3.63497,11.9382,7,0.186921,0.0192194,53,101.361,0.0100923
0.650797,0.24119,0.681856,5.51495,3.71541,11.9872,8,0.018968,0.00195031,64,82.9759,0.0127968
-0.481961,0.51048,0.671222,5.40615,3.70124,11.9819,9,0.0922662,0.00948691,76,129.842,0.0109421
0.525017,-0.208048,0.809439,5.49361,3.66982,11.9541,10,0.0267887,0.00275445,89,115.28,0.0121743
-0.564853,-0.0490216,0.796429,5.36355,3.69042,11.9581,11,0.0531101,0.00546083,18,97.915,0.0115807
,,,,,,,,,25,89.5169,0.0094477
,,,,,,,,,33,147.629,0.0117671
,,,,,,,,,42,131.988,0.0115164
,,,,,,,,,52,121.114,0.0118163
,,,,,,,,,63,87.2792,0.00923241
,,,,,,,,,75,107.696,0.0114452
,,,,,,,,,88,112.711,0.00993853
,,,,,,,,,102,142.247,0.0109447
,,,,,,,,,32,48.5213,0.0353502
,,,,,,,,,41,65.1836,0.134671
,,,,,,,,,51,61.513,0.107811
,,,,,,,,,62,87.2602,0.141415
,,,,,,,,,74,135.303,0.0325133
,,,,,,,,,87,142.887,0.101879
,,,,,,,,,101,115.59,0.0433632
,,,,,,,,,116,116.05,0.0724068
,,,,,,,,,50,97.3494,0.0371458
,,,,,,,,,61,43.5253,0.0347573
,,,,,,,,,73,52.0324,0.0376409
,,,,,,,,,86,87.4276,0.0198997
,,,,,,,,,100,153.31,0.0341169
,,,,,,,,,115,75.5804,0.0234982
,,,,,,,,,131,124.885,0.0300243
,,,,,,,,,72,66.0593,0.126453
,,,,,,,,,85,86.9375,0.175316
,,,,,,,,,99,124.469,0.0340261
,,,,,,,,,114,79.1444,0.118369
,,,,,,,,,130,99.6246,0.0460965
,,,,,,,,,147,52.1641,0.0803635
,,,,,,,,,98,28.5005,0.132381
,,,,,,,,,113,82.1558,0.0320111
,,,,,,,,,129,113.69,0.097105
,,,,,,,,,146,55.714,0.0424744
,,,,,,,,,164,81.4979,0.0699622
,,,,,,,,,128,53.6579,0.0344411
,,,,,,,,,145,101.277,0.123548
,,,,,,,,,163,28.3505,0.0468615
,,,,,,,,,182,78.6219,0.0827175
,,,,,,,,,162,73.5797,0.0314671
,,,,,,,,,181,28.5611,0.02221
,,,,,,,,,201,80.0949,0.0279528
,,,,,,,,,200,78.9298,0.0415219
,,,,,,,,,221,34.582,0.0674149
,,,,,,,,,242,68.2019,0.0356138
