"cellPairingIds","interplanarAngles","angleWeights"
8,116.646,0.0185314
19,59.9591,0.017615
26,113.632,0.0191193
53,67.5354,0.0152638
64,82.9849,0.0139586
76,103.349,0.0166269
18,85.1814,0.0480859
25,115.835,0.093566
33,56.7033,0.160745
52,67.0093,0.109458
32,41.3887,0.0423665
51,34.275,0.0337168
62,86.2577,0.0453477
61,41.807,0.0511501
100,55.354,0.0352537
85,64.5046,0.133748
130,72.9171,0.0806301
147,95.7816,0.085172
98,83.1164,0.0555599
129,39.4776,0.029052
164,61.0179,0.044918
182,56.0311,0.0682321
162,30.9752,0.0269466
181,47.8019,0.0390418
200,63.1391,0.0315063
221,44.1004,0.0321768
242,36.7578,0.0510688
