Q	U	V
{$V$}	{[mm$^3$]}	0.00405394
{$d_v$}	{[mm]}	0.197830
{$S_c$}	{[mm$^2$]}	0.223558
{$S_o$}	{[mm$^2$]}	0.136696
{$S_l/S_o$}	[]	0.635439
{$\Psi$}	[]	0.549978
{$\eta$}	[]	0.583777
{med($\theta_e$)}	{[$^\circ$]}	81.32275
{$\Upsilon$}	[]	10
{$\Xi$}	[]	4
