"cellPairingIds","interplanarAngles","angleWeights"
8,34.392,0.0271978
13,55.6423,0.0509243
19,44.6995,0.0538869
34,93.6305,0.0554101
43,74.2571,0.0366297
53,61.9939,0.0463135
18,25.9376,0.0297491
63,50.3924,0.028114
41,38.6749,0.0122769
51,68.7349,0.0671407
74,68.1194,0.0542334
149,102.904,0.0200955
73,37.887,0.0433511
86,87.9199,0.0576063
115,69.5285,0.0784745
131,59.1978,0.0686446
72,36.145,0.0125213
165,68.9262,0.0121688
184,106.695,0.00871597
98,72.3772,0.0443314
129,45.8828,0.104499
183,63.8715,0.0640286
145,34.7757,0.0531279
182,68.0081,0.0428988
181,36.3764,0.063381
244,62.4785,0.0193359
221,90.1001,0.096873
243,74.243,0.0841527
242,47.27,0.077005
289,64.8527,0.021231
288,110.67,0.0610824
313,80.2067,0.0204391
339,59.3839,0.0380687
338,69.3456,0.0198074
365,65.6196,0.0359342
392,28.4214,0.0165609
