"cellPairingIds","interplanarAngles","angleWeights"
19,59.8105,0.109262
34,60.7356,0.130329
43,61.8797,0.0887859
76,121.643,0.0562346
61,46.2154,0.119145
115,136.468,0.0540457
98,25.5626,0.095203
146,176.771,0.0587424
163,152.368,0.0485116
