facetNormals:0,facetNormals:1,facetNormals:2,FacetCenters:0,FacetCenters:1,FacetCenters:2,FacetIds,relFacetSize,absFacetSize,cellPairingIds,interplanarAngles,angleWeights
0.0978852,0.0665304,-0.972426,3.49603,6.19985,11.8905,1,0.0567808,0.00556547,8,33.6142,0.0339479
-0.447529,0.178988,-0.859513,3.41783,6.21301,11.9138,2,0.0242118,0.00237316,13,41.911,0.0346978
-0.522592,-0.206635,-0.799127,3.45561,6.21103,11.9112,3,0.0249819,0.00244864,19,37.3969,0.0482547
0.616857,0.297101,-0.702862,3.56232,6.19883,11.9025,4,0.0419548,0.00411228,26,45.1911,0.0718476
0.234716,0.697066,-0.604664,3.48528,6.24766,11.9225,5,0.0977984,0.00958588,34,65.2162,0.0789509
-0.177591,0.884859,-0.369095,3.43972,6.2543,11.9376,6,0.129524,0.0126955,43,89.5908,0.0578855
-0.814606,-0.387903,-0.115081,3.36258,6.20868,11.9833,7,0.0590341,0.00578633,53,105.406,0.0350118
0.154055,-0.906416,0.205625,3.47409,6.21031,11.9658,8,0.0253088,0.00248069,64,110.753,0.056347
0.854317,0.0617736,0.432789,3.49633,6.22832,11.9851,9,0.0559198,0.00548108,76,103.053,0.0922119
-0.105207,0.908356,0.268377,3.44898,6.25867,12.0249,10,0.245244,0.024038,89,140.755,0.0268593
-0.368297,0.497871,0.764651,3.37593,6.22915,12.0531,11,0.01759,0.00172412,18,23.3668,0.0245908
,,,,,,,,,25,66.7793,0.0307044
,,,,,,,,,33,54.9061,0.0388144
,,,,,,,,,42,54.7104,0.0407974
,,,,,,,,,52,63.9198,0.0343397
,,,,,,,,,63,116.064,0.0247481
,,,,,,,,,75,141.808,0.0337924
,,,,,,,,,88,91.2817,0.0440725
,,,,,,,,,102,114.577,0.0203764
,,,,,,,,,32,79.3035,0.0313165
,,,,,,,,,41,76.5409,0.0397977
,,,,,,,,,51,77.5773,0.0418852
,,,,,,,,,62,47.7174,0.0351072
,,,,,,,,,74,93.5837,0.0251443
,,,,,,,,,87,149.172,0.0345353
,,,,,,,,,101,111.895,0.0453447
,,,,,,,,,116,122.852,0.0206442
,,,,,,,,,50,33.7441,0.0587194
,,,,,,,,,61,64.442,0.0633799
,,,,,,,,,73,126.98,0.0490502
,,,,,,,,,86,110.173,0.0315721
,,,,,,,,,100,75.1615,0.047941
,,,,,,,,,115,88.9985,0.0716519
,,,,,,,,,131,129.699,0.0247876
,,,,,,,,,72,30.7001,0.111447
,,,,,,,,,85,116.913,0.0736255
,,,,,,,,,99,143.382,0.0402114
,,,,,,,,,114,91.1356,0.0711544
,,,,,,,,,130,60.5447,0.139834
,,,,,,,,,147,102.436,0.0298171
,,,,,,,,,98,100.137,0.0811031
,,,,,,,,,113,170.228,0.0423437
,,,,,,,,,129,105.928,0.0781148
,,,,,,,,,146,38.8778,0.169518
,,,,,,,,,164,76.5155,0.0309736
,,,,,,,,,128,76.3349,0.0354287
,,,,,,,,,145,151.859,0.0574347
,,,,,,,,,163,110.075,0.0951613
,,,,,,,,,182,88.7903,0.027104
,,,,,,,,,162,79.5099,0.0348464
,,,,,,,,,181,150.881,0.0458826
,,,,,,,,,201,112.234,0.020755
,,,,,,,,,200,84.8319,0.0910733
,,,,,,,,,221,87.1444,0.0267619
,,,,,,,,,242,42.0604,0.0328256
