"cellPairingIds","interplanarAngles","angleWeights"
26,81.0092,0.0203621
53,124.36,0.0224164
89,105.318,0.0213713
99,143.395,0.0365937
147,144.646,0.0338882
204,104.626,0.0537375
201,60.4712,0.0399872
267,51.8692,0.0708808
339,68.8483,0.0613878
