Q	U	V
{$V$}	{[mm$^3$]}	0.00218965
{$d_v$}	{[mm]}	0.161111
{$S_c$}	{[mm$^2$]}	0.115247
{$S_o$}	{[mm$^2$]}	0.0735882
{$S_l/S_o$}	[]	0.566107
{$\Psi$}	[]	0.707573
{$\eta$}	[]	0.719287
{med($\theta_e$)}	{[$^\circ$]}	51.4907
{$\Upsilon$}	[]	15
{$\Xi$}	[]	6
