"cellPairingIds","interplanarAngles","angleWeights"
8,62.713,0.0506111
13,69.3152,0.0513738
26,83.9946,0.137237
34,68.4374,0.129303
43,65.4539,0.0392061
103,137.901,0.0200603
18,42.1103,0.0315861
25,44.4822,0.0358893
33,32.6845,0.0513321
63,64.2208,0.0301122
88,65.0603,0.045505
32,23.8941,0.0362711
74,44.0033,0.0303805
132,139.991,0.0161942
86,22.6901,0.0343409
72,64.596,0.134116
114,55.6013,0.0362156
130,56.334,0.105221
147,54.1501,0.127035
98,58.3219,0.0389472
129,44.9218,0.0356386
183,99.2462,0.0199923
202,73.8219,0.0147511
181,27.5042,0.0430442
222,103.405,0.0157977
221,31.9997,0.0351184
243,77.9785,0.01425
242,47.1734,0.0964648
265,95.4757,0.0192061
288,74.7782,0.0198275
