"cellPairingIds","interplanarAngles","angleWeights"
8,35.1897,0.0773176
13,71.8957,0.062109
19,81.8445,0.0621226
34,65.4648,0.0963912
53,131.069,0.0305123
89,141.291,0.0151778
18,45.272,0.0791034
102,134.453,0.0160188
32,31.435,0.0632702
74,107.723,0.0307865
87,90.7675,0.0484183
116,131.403,0.0152454
86,78.8084,0.0307899
113,81.4565,0.0373757
164,100.217,0.0167036
162,73.8542,0.0267908
201,76.8261,0.0121556
221,42.7185,0.0141968
