Q	U	V
{$V$}	{[mm$^3$]}	0.00668414
{$d_v$}	{[mm]}	0.233713
{$S_c$}	{[mm$^2$]}	0.361527
{$S_o$}	{[mm$^2$]}	0.198457
{$S_l/S_o$}	[]	0.821689
{$\Psi$}	[]	0.47465
{$\eta$}	[]	0.533576
{med($\theta_e$)}	{[$^\circ$]}	79.9937
{$\Upsilon$}	[]	12
{$\Xi$}	[]	11
