"cellPairingIds","interplanarAngles","angleWeights"
8,33.4579,0.0886278
13,59.8369,0.0735457
19,36.2447,0.0452146
34,89.6133,0.0798819
18,55.8805,0.0715594
25,60.6352,0.044456
33,37.854,0.0741673
52,89.8241,0.0366195
63,69.5765,0.0352757
51,51.3765,0.0657473
74,58.6865,0.0326137
61,106.409,0.0421417
73,47.1023,0.0262182
85,89.1671,0.0343285
99,48.1891,0.0331448
114,26.0543,0.0907262
98,138.002,0.0350346
113,89.4572,0.0338026
146,47.3211,0.0426159
164,36.977,0.0409827
145,84.989,0.0402463
182,144.385,0.0257649
223,61.0267,0.00893214
162,47.3578,0.038629
181,53.2913,0.0256953
222,50.0842,0.038326
243,71.5611,0.144019
266,77.1445,0.0106556
242,20.0592,0.0296431
265,36.6555,0.0500654
288,46.2463,0.0478263
313,92.738,0.00927535
338,65.6748,0.0106324
