facetNormals:0,facetNormals:1,facetNormals:2,FacetCenters:0,FacetCenters:1,FacetCenters:2,FacetIds,relFacetSize,absFacetSize,cellPairingIds,interplanarAngles,angleWeights
-0.27385,-0.0330072,-0.935945,5.40991,4.49558,11.7817,1,0.0168564,0.00265907,8,93.8033,0.0223421
0.809367,-0.526832,-0.150645,5.29058,4.36898,11.8126,2,0.0331211,0.00522482,13,83.223,0.0240676
0.450007,-0.836271,-0.222161,5.24502,4.33996,11.793,3,0.0420619,0.00663522,19,82.5186,0.0298973
-0.880655,0.226135,0.125116,5.23637,4.39773,11.8041,4,0.132085,0.0208362,26,103.168,0.0301013
-0.00526704,0.930628,0.194516,5.3604,4.53878,11.753,5,0.140501,0.0221638,34,99.4199,0.0216868
-0.130432,-0.92165,0.234453,5.27876,4.37615,11.7998,6,0.0303977,0.0047952,43,109.24,0.0292444
-0.572529,0.602355,0.475142,5.26821,4.43398,11.8265,7,0.110323,0.0174034,53,135.489,0.0282667
0.632398,-0.482901,0.551922,5.35825,4.44107,11.801,8,0.0874897,0.0138014,64,144.112,0.0249103
0.767768,0.0116824,0.595847,5.32855,4.43711,11.8292,9,0.0477023,0.00752499,76,158.16,0.0290143
0.222829,0.389642,0.858706,5.32062,4.48326,11.8231,10,0.104095,0.0164209,18,28.4346,0.0370599
,,,,,,,,,25,161.511,0.0529617
,,,,,,,,,33,124.314,0.0536054
,,,,,,,,,42,68.4468,0.031701
,,,,,,,,,52,155.633,0.050947
,,,,,,,,,63,43.8029,0.0480513
,,,,,,,,,75,56.4154,0.0390964
,,,,,,,,,88,99.3759,0.0502527
,,,,,,,,,32,133.24,0.0638052
,,,,,,,,,41,152.68,0.0647419
,,,,,,,,,51,45.1749,0.035291
,,,,,,,,,62,158.211,0.0609037
,,,,,,,,,74,53.1958,0.0568111
,,,,,,,,,87,77.612,0.0447049
,,,,,,,,,101,116.14,0.0599141
,,,,,,,,,50,74.0749,0.136163
,,,,,,,,,61,94.1801,0.0494216
,,,,,,,,,73,37.1952,0.120227
,,,,,,,,,86,132.206,0.105259
,,,,,,,,,100,132.179,0.0700912
,,,,,,,,,115,90.0442,0.116431
,,,,,,,,,72,152.76,0.0499817
,,,,,,,,,85,43.8812,0.123597
,,,,,,,,,99,112.032,0.107832
,,,,,,,,,114,82.3677,0.0712231
,,,,,,,,,130,54.9942,0.119588
,,,,,,,,,98,113.682,0.0476627
,,,,,,,,,113,58.0438,0.0451191
,,,,,,,,,129,88.2316,0.0371329
,,,,,,,,,146,101.589,0.0470545
,,,,,,,,,128,114.927,0.0975887
,,,,,,,,,145,99.2416,0.0666054
,,,,,,,,,163,56.2637,0.107119
,,,,,,,,,162,30.7623,0.0617412
,,,,,,,,,181,62.9506,0.0950727
,,,,,,,,,200,43.1295,0.0654237
