"cellPairingIds","interplanarAngles","angleWeights"
8,47.1927,0.0186785
13,28.9291,0.0262117
19,28.0536,0.0310469
26,74.029,0.0265514
53,77.9153,0.0338699
18,46.5479,0.0231867
33,47.5952,0.0234521
63,100.193,0.0289838
75,70.8882,0.0243075
74,57.5298,0.0523133
50,72.5364,0.0469219
61,34.8707,0.0551381
73,46.8825,0.0452443
86,90.3682,0.0759073
115,60.4559,0.036856
72,74.6328,0.0423913
114,92.8943,0.0395804
147,65.324,0.0534245
184,100.808,0.0496055
146,44.8239,0.0340016
203,49.359,0.0588813
128,50.6025,0.0514995
163,34.1244,0.0299613
162,79.0344,0.0583875
181,71.4114,0.0409031
222,44.5833,0.0527258
267,34.7035,0.0711381
291,55.8372,0.0601792
221,53.9576,0.0580804
243,36.5843,0.039057
315,69.0592,0.0430022
289,40.7192,0.0384916
314,51.1513,0.0356941
367,72.4296,0.0368972
313,101.466,0.0825657
366,84.1972,0.059853
394,77.8476,0.0755617
393,44.6975,0.0398506
451,55.2008,0.0681418
450,38.3558,0.0495422
481,51.1067,0.0598393
512,31.2169,0.0518906
