Q	U	V
{$V$}	{[mm$^3$]}	0.00357896
{$d_v$}	{[mm]}	0.189781
{$S_c$}	{[mm$^2$]}	0.183095
{$S_o$}	{[mm$^2$]}	0.114301
{$S_l/S_o$}	[]	0.601867
{$\Psi$}	[]	0.617986
{$\eta$}	[]	0.746973
{med($\theta_e$)}	{[$^\circ$]}	67.6126
{$\Upsilon$}	[]	12
{$\Xi$}	[]	8
