Q	U	V
{$V$}	{[mm$^3$]}	0.00247701
{$d_v$}	{[mm]}	0.167871
{$S_c$}	{[mm$^2$]}	0.132485
{$S_o$}	{[mm$^2$]}	0.0791038
{$S_l/S_o$}	[]	0.674825
{$\Psi$}	[]	0.668245
{$\eta$}	[]	0.675569
{med($\theta_e$)}	{[$^\circ$]}	56.50745
{$\Upsilon$}	[]	19
{$\Xi$}	[]	3
