"cellPairingIds","interplanarAngles","angleWeights"
8,39.5099,0.0330252
13,45.8372,0.0365385
19,54.0267,0.0598601
34,70.1769,0.0844732
25,39.8061,0.031913
42,105.731,0.0377819
75,71.6002,0.0267461
102,88.6818,0.0239915
32,36.4907,0.0351819
41,33.5154,0.0341434
51,88.1975,0.0424517
62,39.1543,0.0355436
50,28.3851,0.0536898
86,37.3121,0.0433537
100,57.059,0.0419915
85,48.0888,0.0545367
99,39.1143,0.0417874
114,57.5384,0.0405204
130,54.3664,0.0430398
225,63.7973,0.04918
98,77.9997,0.0793387
164,162.004,0.0430298
203,47.8179,0.0333399
224,62.6995,0.101501
245,44.047,0.0692979
268,50.4348,0.0521385
162,20.3658,0.0343413
200,27.6621,0.0351826
221,21.5987,0.0292735
242,28.0451,0.0305661
340,47.8797,0.0415322
367,68.572,0.0280566
313,119.825,0.02212
394,84.3635,0.0241664
392,23.8917,0.0314264
451,38.5324,0.0207753
450,42.6135,0.0608729
481,28.4605,0.0357242
512,26.5789,0.0305423
