Q	U	V
{$V$}	{[mm$^3$]}	0.00538982
{$d_v$}	{[mm]}	0.217533
{$S_c$}	{[mm$^2$]}	0.342911
{$S_o$}	{[mm$^2$]}	0.184294
{$S_l/S_o$}	[]	0.860674
{$\Psi$}	[]	0.43353
{$\eta$}	[]	0.446404
{med($\theta_e$)}	{[$^\circ$]}	
{$\Upsilon$}	[]	13
{$\Xi$}	[]	9
