facetNormals:0,facetNormals:1,facetNormals:2,FacetCenters:0,FacetCenters:1,FacetCenters:2,FacetIds,relFacetSize,absFacetSize,cellPairingIds,interplanarAngles,angleWeights
0.15632,-0.000672444,-0.965534,6.4894,4.8398,9.53766,1,0.0763899,0.0134797,8,37.0735,0.0767494
0.0911265,-0.579249,-0.761932,6.44198,4.80893,9.54354,2,0.0771123,0.0136072,13,31.5373,0.0342116
-0.234756,-0.360111,-0.895041,6.43679,4.8492,9.52291,3,0.0220415,0.00388944,19,51.1885,0.0583022
-0.646403,0.0033803,-0.718114,6.40545,4.94266,9.51543,4,0.0471402,0.00831835,26,55.6718,0.0244639
-0.283232,0.715409,-0.605804,6.41791,5.03795,9.52199,5,0.014564,0.00256996,34,42.7953,0.0865945
0.610519,0.417749,-0.617961,6.51186,4.95954,9.54822,6,0.0999459,0.0176364,43,58.6548,0.031808
0.427853,-0.772579,-0.453303,6.47711,4.86562,9.52584,7,0.0200858,0.00354433,53,67.9741,0.0643414
0.953737,-0.0261854,-0.217327,6.54537,4.90176,9.57611,8,0.0555758,0.00980689,64,101.599,0.0307728
-0.503755,-0.823666,0.117107,6.42386,4.76134,9.64158,9,0.0192672,0.00339988,76,83.3647,0.0811607
0.721761,-0.624928,0.00553407,6.53501,4.77881,9.62411,10,0.0865671,0.0152756,89,97.8389,0.0509172
0.434867,0.846868,0.204342,6.53541,4.94482,9.66813,11,0.0381844,0.006738,103,111.709,0.0387608
-0.879201,-0.35343,0.222635,6.41217,4.74608,9.63604,12,0.0259688,0.00458245,118,137.712,0.0785202
0.119054,-0.61222,0.751661,6.47538,4.79311,9.70712,13,0.0807727,0.0142531,134,129.07,0.0680105
0.519772,-0.430369,0.709743,6.52691,4.83463,9.71508,14,0.0612877,0.0108148,18,24.4304,0.0342835
,,,,,,,,,25,58.4334,0.0585113
,,,,,,,,,33,88.6993,0.0245006
,,,,,,,,,42,72.1223,0.0870568
,,,,,,,,,52,29.3516,0.0318702
,,,,,,,,,63,73.4706,0.0645963
,,,,,,,,,75,68.5483,0.030831
,,,,,,,,,88,62.5213,0.0815666
,,,,,,,,,102,130.391,0.0510767
,,,,,,,,,117,92.7577,0.0388532
,,,,,,,,,133,102.749,0.0789001
,,,,,,,,,150,105.026,0.0682953
,,,,,,,,,32,34.2205,0.030038
,,,,,,,,,41,68.8346,0.017539
,,,,,,,,,51,74.278,0.0361178
,,,,,,,,,62,53.7017,0.0210182
,,,,,,,,,74,91.1765,0.0315645
,,,,,,,,,87,71.2723,0.0205612
,,,,,,,,,101,86.9371,0.0351366
,,,,,,,,,116,127.605,0.0279495
,,,,,,,,,132,82.0062,0.0238445
,,,,,,,,,149,119.683,0.0346324
,,,,,,,,,167,128.271,0.0324226
,,,,,,,,,50,49.018,0.0222529
,,,,,,,,,61,86.8894,0.0640641
,,,,,,,,,73,87.2303,0.0281691
,,,,,,,,,86,119.149,0.0510116
,,,,,,,,,100,75.2816,0.0273542
,,,,,,,,,115,120.822,0.0610407
,,,,,,,,,131,116.855,0.0421923
,,,,,,,,,148,64.3406,0.033489
,,,,,,,,,166,130.974,0.0595349
,,,,,,,,,185,153.54,0.053291
,,,,,,,,,72,57.9939,0.0254233
,,,,,,,,,85,114.25,0.0168849
,,,,,,,,,99,99.442,0.0230798
,,,,,,,,,114,122.913,0.0165887
,,,,,,,,,130,134.46,0.0249332
,,,,,,,,,147,67.8897,0.0210857
,,,,,,,,,165,98.3666,0.0186619
,,,,,,,,,184,165.749,0.0246783
,,,,,,,,,204,157.345,0.0235352
,,,,,,,,,98,76.7943,0.0334493
,,,,,,,,,113,41.5728,0.0714315
,,,,,,,,,129,140.56,0.0323065
,,,,,,,,,146,78.9639,0.0927767
,,,,,,,,,164,58.3128,0.0552576
,,,,,,,,,183,151.174,0.0412259
,,,,,,,,,203,133.458,0.0893422
,,,,,,,,,224,108.597,0.0759823
,,,,,,,,,128,57.1577,0.0295072
,,,,,,,,,145,67.6116,0.019668
,,,,,,,,,163,33.6315,0.0326061
,,,,,,,,,182,125.468,0.0263244
,,,,,,,,,202,102.19,0.0226515
,,,,,,,,,223,79.1088,0.0321714
,,,,,,,,,245,76.1239,0.0302558
,,,,,,,,,162,120.591,0.0286143
,,,,,,,,,181,41.1441,0.0676929
,,,,,,,,,201,68.5666,0.0452671
,,,,,,,,,222,157.137,0.0353975
,,,,,,,,,244,92.0254,0.0658461
,,,,,,,,,267,68.4021,0.0582921
,,,,,,,,,200,80.5916,0.0315192
,,,,,,,,,221,160.502,0.0256113
,,,,,,,,,243,36.5936,0.0221216
,,,,,,,,,266,55.9186,0.0311128
,,,,,,,,,290,79.3665,0.0293177
,,,,,,,,,242,103.324,0.0529935
,,,,,,,,,265,116.349,0.0399525
,,,,,,,,,289,59.5426,0.0835696
,,,,,,,,,314,46.1261,0.0717663
,,,,,,,,,288,132.161,0.0309136
,,,,,,,,,313,109.222,0.0518549
,,,,,,,,,339,89.6037,0.0470531
,,,,,,,,,338,72.9316,0.0393019
,,,,,,,,,365,98.8625,0.0364802
,,,,,,,,,392,26.1212,0.0696939
