Q	U	V
{$V$}	{[mm$^3$]}	0.0018346
{$d_v$}	{[mm]}	0.151885
{$S_c$}	{[mm$^2$]}	0.120446
{$S_o$}	{[mm$^2$]}	0.0710105
{$S_l/S_o$}	[]	0.696172
{$\Psi$}	[]	0.601708
{$\eta$}	[]	0.666265
{med($\theta_e$)}	{[$^\circ$]}	55.5758
{$\Upsilon$}	[]	14
{$\Xi$}	[]	7
