Q	U	V
{$V$}	{[mm$^3$]}	0.00303749
{$d_v$}	{[mm]}	0.179682
{$S_c$}	{[mm$^2$]}	0.196305
{$S_o$}	{[mm$^2$]}	0.10652
{$S_l/S_o$}	[]	0.842893
{$\Psi$}	[]	0.516689
{$\eta$}	[]	0.583286
{med($\theta_e$)}	{[$^\circ$]}	96.2896
{$\Upsilon$}	[]	13
{$\Xi$}	[]	11
