facetNormals:0,facetNormals:1,facetNormals:2,FacetCenters:0,FacetCenters:1,FacetCenters:2,FacetIds,relFacetSize,absFacetSize,cellPairingIds,interplanarAngles,angleWeights
0.350119,-0.290384,-0.874258,4.65368,7.18404,10.7363,1,0.0450259,0.0173354,8,32.488,0.0493346
-0.0449802,-0.64258,-0.731014,4.63763,7.2075,10.7421,2,0.0545553,0.0210043,13,18.5751,0.0364435
0.627137,-0.201776,-0.742441,4.68672,7.32104,10.7016,3,0.0306091,0.0117848,19,65.5239,0.031906
-0.614261,-0.564608,-0.516829,4.61787,7.19136,10.7864,4,0.0247068,0.00951234,26,40.3214,0.0687087
0.827877,-0.242575,-0.408089,4.71834,7.22634,10.7966,5,0.144949,0.0558067,34,109.936,0.0712089
-0.922393,0.0424962,-0.0284297,4.57408,7.25714,10.7535,6,0.170157,0.0655119,43,79.8432,0.0350703
-0.386267,-0.897724,-0.0510464,4.63778,7.10066,10.8774,7,0.02872,0.0110575,53,84.0936,0.0396978
0.939608,0.0221838,0.255928,4.64857,7.16981,10.858,8,0.0354972,0.0136667,64,108.112,0.0408408
0.637801,0.576869,0.395533,4.69992,7.20958,10.908,9,0.0373675,0.0143868,76,137.146,0.0255497
-0.00362991,0.805513,0.52603,4.71997,7.26584,10.9661,10,0.0178351,0.00686667,89,134.827,0.0407964
-0.778958,-0.236315,0.545022,4.60781,7.19468,10.9102,11,0.0372933,0.0143583,103,109.608,0.0652949
0.0280393,-0.699002,0.589466,4.72188,7.14831,10.9802,12,0.118753,0.045721,118,165.881,0.0321861
-0.560044,0.22266,0.775141,4.68582,7.23909,10.9735,13,0.0250444,0.00964231,18,48.2337,0.0392157
,,,,,,,,,25,36.5436,0.0340109
,,,,,,,,,33,63.3578,0.0792739
,,,,,,,,,42,87.7737,0.0826209
,,,,,,,,,52,48.5211,0.0376301
,,,,,,,,,63,104.873,0.0430096
,,,,,,,,,75,138.291,0.0443545
,,,,,,,,,88,164.206,0.026882
,,,,,,,,,102,102.804,0.0443022
,,,,,,,,,117,88.9074,0.074764
,,,,,,,,,133,135.687,0.0343294
,,,,,,,,,32,83.3736,0.0273431
,,,,,,,,,41,23.13,0.0505447
,,,,,,,,,51,128.111,0.0518848
,,,,,,,,,62,91.3688,0.0296345
,,,,,,,,,74,65.9018,0.0328725
,,,,,,,,,87,90.6141,0.0336524
,,,,,,,,,101,125.561,0.022538
,,,,,,,,,116,150.401,0.0336223
,,,,,,,,,132,107.895,0.0486727
,,,,,,,,,149,175.544,0.0275486
,,,,,,,,,50,99.8769,0.0422175
,,,,,,,,,61,52.0725,0.0431484
,,,,,,,,,73,36.6561,0.0265627
,,,,,,,,,86,139.041,0.029135
,,,,,,,,,100,172.911,0.029746
,,,,,,,,,115,140.107,0.020716
,,,,,,,,,131,69.9116,0.0297225
,,,,,,,,,148,85.35,0.0409035
,,,,,,,,,166,100.906,0.0248744
,,,,,,,,,72,149.848,0.156545
,,,,,,,,,85,94.9868,0.0479411
,,,,,,,,,99,44.0576,0.0570285
,,,,,,,,,114,75.4678,0.0594174
,,,,,,,,,130,116.737,0.0317621
,,,,,,,,,147,150.041,0.0593236
,,,,,,,,,165,93.1374,0.13055
,,,,,,,,,184,152.876,0.0427094
,,,,,,,,,98,69.2982,0.0491451
,,,,,,,,,113,165.968,0.0587403
,,,,,,,,,129,131.116,0.061278
,,,,,,,,,146,88.5413,0.0322861
,,,,,,,,,164,40.0289,0.0611782
,,,,,,,,,183,94.9096,0.139882
,,,,,,,,,203,56.2447,0.0436624
,,,,,,,,,128,114.54,0.031751
,,,,,,,,,145,147.864,0.032478
,,,,,,,,,163,142.663,0.0220051
,,,,,,,,,182,59.5945,0.03245
,,,,,,,,,202,49.0634,0.0462538
,,,,,,,,,223,91.3792,0.0267566
,,,,,,,,,162,39.3212,0.0364084
,,,,,,,,,181,80.8463,0.0237416
,,,,,,,,,201,128.78,0.0363731
,,,,,,,,,222,79.5451,0.0546566
,,,,,,,,,244,109.731,0.0293684
,,,,,,,,,200,42.5927,0.0241457
,,,,,,,,,221,116.763,0.0373304
,,,,,,,,,243,100.123,0.0568472
,,,,,,,,,266,85.1956,0.0299894
,,,,,,,,,242,83.9599,0.0241302
,,,,,,,,,265,106.712,0.0310125
,,,,,,,,,289,51.4152,0.0208337
,,,,,,,,,288,58.7717,0.0567613
,,,,,,,,,313,33.0642,0.0299654
,,,,,,,,,338,71.4618,0.0413651
