"cellPairingIds","interplanarAngles","angleWeights"
8,101.31,0.0555046
13,27.8332,0.0298218
19,85.8968,0.0759308
53,93.4764,0.0293163
18,121.779,0.0318349
25,42.6812,0.0905023
42,121.073,0.0844576
52,63.9726,0.0298629
51,100.04,0.0365547
74,71.2049,0.0210498
73,70.0252,0.0349165
86,143.326,0.036841
98,75.9823,0.0339783
113,44.8131,0.035798
128,103.143,0.0201692
