Q	U	V
{$V$}	{[mm$^3$]}	0.00129313
{$d_v$}	{[mm]}	0.135170
{$S_c$}	{[mm$^2$]}	0.101449
{$S_o$}	{[mm$^2$]}	0.0578494
{$S_l/S_o$}	[]	0.753674
{$\Psi$}	[]	0.565802
{$\eta$}	[]	0.668586
{med($\theta_e$)}	{[$^\circ$]}	56.5567
{$\Upsilon$}	[]	19
{$\Xi$}	[]	5
