facetNormals:0,facetNormals:1,facetNormals:2,FacetCenters:0,FacetCenters:1,FacetCenters:2,FacetIds,relFacetSize,absFacetSize,cellPairingIds,interplanarAngles,angleWeights
0.288827,0.388129,-0.842073,3.84875,3.65329,8.52834,1,0.0471006,0.00600075,8,78.3543,0.0520225
-0.157184,-0.703887,-0.596193,3.78725,3.55091,8.53034,2,0.0580929,0.00740119,13,41.1595,0.0264958
-0.0274488,0.858126,-0.459375,3.82552,3.69679,8.5788,3,0.0184323,0.00234832,19,74.8698,0.0232232
0.481878,-0.722629,-0.464259,3.78416,3.55231,8.52428,4,0.0154107,0.00196337,26,118.691,0.0342876
-0.832002,-0.516836,0.018811,3.6783,3.55969,8.57499,5,0.0269549,0.00343412,34,82.5049,0.0251475
-0.506446,0.838441,0.0650649,3.77325,3.68459,8.6498,6,0.0171527,0.0021853,43,75.4636,0.0396893
0.0242728,0.947481,0.166479,3.8058,3.70722,8.63133,7,0.0342932,0.00436905,53,124.382,0.0431195
-0.431113,-0.878826,0.0871039,3.74953,3.53484,8.58618,8,0.0397589,0.00506539,64,122.844,0.0426213
0.0756621,-0.952579,0.197188,3.7619,3.53036,8.5802,9,0.0389199,0.00495849,76,100.641,0.0712256
0.849285,-0.337454,0.343692,3.84946,3.60271,8.60984,10,0.146014,0.0186026,89,138.775,0.0364059
-0.829629,-0.198942,0.467703,3.67887,3.6142,8.64148,11,0.0296692,0.00377993,103,87.5757,0.0347129
0.689062,0.536764,0.436123,3.85756,3.70459,8.64699,12,0.0274843,0.00350157,118,106.353,0.0489343
-0.194436,0.750928,0.597335,3.74582,3.68487,8.67447,13,0.0509166,0.00648691,134,157.44,0.0454104
-0.361391,-0.687116,0.612619,3.74102,3.57879,8.65671,14,0.0438373,0.00558498,151,152.005,0.0626019
0.0767707,-0.657007,0.716706,3.73135,3.57086,8.64715,15,0.0933114,0.0118881,169,127.31,0.0430962
0.517288,-0.0730286,0.828361,3.82179,3.6533,8.68646,16,0.0397194,0.00506035,18,110.953,0.0279852
,,,,,,,,,25,39.6375,0.0243595
,,,,,,,,,33,58.1779,0.0368237
,,,,,,,,,42,126.729,0.0264853
,,,,,,,,,52,148.771,0.0431275
,,,,,,,,,63,46.3777,0.0472084
,,,,,,,,,75,53.6582,0.0466118
,,,,,,,,,88,96.3388,0.0831171
,,,,,,,,,102,90.5289,0.0392782
,,,,,,,,,117,144.761,0.0373147
,,,,,,,,,133,158.802,0.0542685
,,,,,,,,,150,79.0856,0.0499682
,,,,,,,,,168,88.5498,0.071606
,,,,,,,,,187,124.858,0.0471805
,,,,,,,,,32,115.978,0.0167866
,,,,,,,,,41,116.747,0.0218934
,,,,,,,,,51,42.612,0.0177695
,,,,,,,,,62,38.2448,0.0239771
,,,,,,,,,74,144.839,0.0251876
,,,,,,,,,87,163.317,0.0250168
,,,,,,,,,101,119.681,0.0327326
,,,,,,,,,116,112.516,0.0227382
,,,,,,,,,132,75.2925,0.022066
,,,,,,,,,149,66.8147,0.0270663
,,,,,,,,,167,153.411,0.0259524
,,,,,,,,,186,160.486,0.0307837
,,,,,,,,,206,118.662,0.0251796
,,,,,,,,,50,92.1488,0.01961
,,,,,,,,,61,155.553,0.0162351
,,,,,,,,,73,142.34,0.0212653
,,,,,,,,,86,66.4386,0.022212
,,,,,,,,,100,48.7748,0.022079
,,,,,,,,,115,59.1184,0.027879
,,,,,,,,,131,119.59,0.020285
,,,,,,,,,148,105.584,0.0197484
,,,,,,,,,166,161.365,0.0236603
,,,,,,,,,185,87.7658,0.0228046
,,,,,,,,,205,79.2581,0.0264527
,,,,,,,,,226,94.9087,0.0222058
,,,,,,,,,72,90.6404,0.0209646
,,,,,,,,,85,122.517,0.0301844
,,,,,,,,,99,32.2141,0.0321282
,,,,,,,,,114,63.0579,0.0318508
,,,,,,,,,130,123.343,0.0455087
,,,,,,,,,147,32.7222,0.028247
,,,,,,,,,165,151.753,0.027217
,,,,,,,,,184,102.96,0.0352491
,,,,,,,,,204,46.4646,0.033383
,,,,,,,,,225,72.3828,0.0418271
,,,,,,,,,247,113.142,0.0321153
,,,,,,,,,98,32.9249,0.0228676
,,,,,,,,,113,122.113,0.0239661
,,,,,,,,,129,149.367,0.0238114
,,,,,,,,,146,136.105,0.0306992
,,,,,,,,,164,72.7148,0.021738
,,,,,,,,,183,82.2375,0.0211229
,,,,,,,,,203,37.0618,0.0256609
,,,,,,,,,224,111.336,0.0246575
,,,,,,,,,246,124.559,0.0289786
,,,,,,,,,269,106.268,0.0239589
,,,,,,,,,128,151.189,0.0368244
,,,,,,,,,145,157.568,0.0364604
,,,,,,,,,163,104.919,0.0555418
,,,,,,,,,182,98.0288,0.0318141
,,,,,,,,,202,50.4744,0.0305135
,,,,,,,,,223,31.1585,0.0409834
,,,,,,,,,245,125.883,0.0384823
,,,,,,,,,268,122.286,0.0501541
,,,,,,,,,292,85.053,0.0368074
,,,,,,,,,162,31.0239,0.0393349
,,,,,,,,,181,92.3676,0.0624996
,,,,,,,,,201,53.1638,0.0339809
,,,,,,,,,222,139.614,0.0325013
,,,,,,,,,244,123.005,0.0446513
,,,,,,,,,267,33.2241,0.0416986
,,,,,,,,,291,50.7272,0.0557594
,,,,,,,,,316,95.1671,0.0397391
,,,,,,,,,200,61.5741,0.0614582
,,,,,,,,,221,76.6644,0.0336707
,,,,,,,,,243,113.064,0.0322174
,,,,,,,,,266,129.86,0.0441172
,,,,,,,,,290,39.1795,0.0412325
,,,,,,,,,315,35.6801,0.054929
,,,,,,,,,341,73.459,0.0393156
,,,,,,,,,242,120.121,0.0493174
,,,,,,,,,265,54.4675,0.0462609
,,,,,,,,,289,102.89,0.0755041
,,,,,,,,,314,81.9331,0.0674302
,,,,,,,,,340,55.946,0.11386
,,,,,,,,,367,38.4664,0.0624507
,,,,,,,,,288,119.968,0.028535
,,,,,,,,,313,72.1932,0.0374918
,,,,,,,,,339,41.2838,0.0353878
,,,,,,,,,366,64.9205,0.045023
,,,,,,,,,394,91.636,0.0339665
,,,,,,,,,338,56.3521,0.0356988
,,,,,,,,,365,111.296,0.0337861
,,,,,,,,,393,89.2289,0.0424618
,,,,,,,,,422,44.7928,0.0324881
,,,,,,,,,392,94.7258,0.0471125
,,,,,,,,,421,94.8167,0.0658832
,,,,,,,,,451,69.2696,0.0446263
,,,,,,,,,450,26.5573,0.0596509
,,,,,,,,,481,67.4957,0.0416768
,,,,,,,,,512,44.4896,0.0557205
