facetNormals:0,facetNormals:1,facetNormals:2,FacetCenters:0,FacetCenters:1,FacetCenters:2,FacetIds,relFacetSize,absFacetSize,cellPairingIds,interplanarAngles,angleWeights
0.024088,0.204876,-0.962139,6.33849,5.92554,8.78131,1,0.0412041,0.011325,8,29.599,0.0643949
0.369734,-0.148233,-0.886868,6.38764,5.89156,8.79327,2,0.147299,0.0404854,13,60.5272,0.0532935
-0.448319,-0.571176,-0.610063,6.29249,5.8532,8.83003,3,0.0754231,0.0207302,19,72.7256,0.0374199
0.810597,-0.413183,-0.365458,6.24715,5.88502,8.84469,4,0.0342724,0.00941983,26,95.4271,0.0350829
-0.367896,-0.904089,-0.106748,6.26276,5.80133,8.86695,5,0.0305451,0.00839539,34,81.4101,0.0359683
0.730458,0.613163,0.0031707,6.40052,5.95891,8.87183,6,0.0319131,0.00877138,43,97.6664,0.0461991
0.915982,-0.302153,0.090772,6.23795,5.88968,8.91175,7,0.0525724,0.0144496,53,84.8174,0.0477414
-0.953218,0.171613,-0.0770822,6.19532,5.879,8.89759,8,0.0567443,0.0155963,64,73.661,0.0614067
-0.241163,0.905247,-0.0838895,6.30579,5.97919,8.84201,9,0.120478,0.0331135,76,108.869,0.0401882
-0.756567,0.462304,0.401421,6.22016,5.9118,8.84848,10,0.0392212,0.01078,89,121.426,0.0614259
0.194644,0.674674,0.663805,6.37679,5.95473,8.92762,11,0.120625,0.0331541,103,162.795,0.0306985
-0.221434,0.00852598,0.935734,6.28557,5.88302,8.89484,12,0.0244617,0.00672334,18,60.076,0.0997633
,,,,,,,,,25,44.0555,0.0556067
,,,,,,,,,33,84.4296,0.0505979
,,,,,,,,,42,79.0345,0.0524604
,,,,,,,,,52,71.2373,0.0774884
,,,,,,,,,63,109.127,0.0819276
,,,,,,,,,75,99.3748,0.132545
,,,,,,,,,88,138.097,0.0619477
,,,,,,,,,102,131.034,0.132634
,,,,,,,,,117,167.576,0.0419559
,,,,,,,,,32,84.1023,0.0471292
,,,,,,,,,41,36.7168,0.0434811
,,,,,,,,,51,138.714,0.0448495
,,,,,,,,,62,108.626,0.061958
,,,,,,,,,74,65.8934,0.0647638
,,,,,,,,,87,113.645,0.0927694
,,,,,,,,,101,100.598,0.0516063
,,,,,,,,,116,163.264,0.0928131
,,,,,,,,,132,121.496,0.0369421
,,,,,,,,,50,83.1785,0.0323016
,,,,,,,,,61,68.8362,0.0330507
,,,,,,,,,73,28.5772,0.0414943
,,,,,,,,,86,148.865,0.0427342
,,,,,,,,,100,125.754,0.0533642
,,,,,,,,,115,175.243,0.0365802
,,,,,,,,,131,112.566,0.0533787
,,,,,,,,,148,123.835,0.0285477
,,,,,,,,,72,151.56,0.0312142
,,,,,,,,,85,94.4316,0.03864
,,,,,,,,,99,77.6677,0.039713
,,,,,,,,,114,141.299,0.0487345
,,,,,,,,,130,101.008,0.0343437
,,,,,,,,,147,142.471,0.0487465
,,,,,,,,,165,91.5859,0.027167
,,,,,,,,,98,58.4019,0.0397169
,,,,,,,,,113,129.652,0.0408514
,,,,,,,,,129,65.0324,0.05046
,,,,,,,,,146,106.775,0.0351918
,,,,,,,,,164,52.7374,0.0504729
,,,,,,,,,183,99.6387,0.027695
,,,,,,,,,128,171.938,0.0545787
,,,,,,,,,145,123.433,0.0732019
,,,,,,,,,163,147.615,0.0449258
,,,,,,,,,182,87.8763,0.0732291
,,,,,,,,,202,97.4298,0.0333881
,,,,,,,,,162,64.62,0.077151
,,,,,,,,,181,35.5301,0.0463829
,,,,,,,,,201,97.4002,0.0771812
,,,,,,,,,222,81.3568,0.0341862
,,,,,,,,,200,51.7067,0.0591774
,,,,,,,,,221,56.0082,0.120551
,,,,,,,,,243,91.101,0.0406665
,,,,,,,,,242,62.716,0.0591952
,,,,,,,,,265,54.2283,0.0301311
,,,,,,,,,288,51.0765,0.0406749
