Q	U	V
{$V$}	{[mm$^3$]}	0.00424037
{$d_v$}	{[mm]}	0.200818
{$S_c$}	{[mm$^2$]}	0.258338
{$S_o$}	{[mm$^2$]}	0.141178
{$S_l/S_o$}	[]	0.829874
{$\Psi$}	[]	0.490416
{$\eta$}	[]	0.513718
{med($\theta_e$)}	{[$^\circ$]}	51.6162
{$\Upsilon$}	[]	10
{$\Xi$}	[]	8
