"cellPairingIds","interplanarAngles","angleWeights"
8,60.1339,0.037987
13,81.8751,0.0481536
19,124.488,0.0429318
43,127.243,0.0340695
53,67.4135,0.0304573
76,86.344,0.042421
18,23.5625,0.0714553
33,29.9641,0.0760914
63,94.267,0.0383719
32,60.152,0.0912181
41,16.9973,0.131853
50,65.9645,0.0989114
61,45.0967,0.037324
73,90.1491,0.0511572
72,102.55,0.0427096
99,102.665,0.0508901
147,72.9445,0.0371104
184,78.4907,0.0484462
98,45.8589,0.0304401
203,77.0286,0.0267925
163,63.8861,0.0504336
223,75.9074,0.0332458
181,28.0084,0.0429015
201,45.2837,0.0250845
242,54.33,0.0326738
289,63.4212,0.0411515
313,29.0302,0.0244759
