Q	U	V
{$V$}	{[mm$^3$]}	0.0022799
{$d_v$}	{[mm]}	0.163295
{$S_c$}	{[mm$^2$]}	0.138834
{$S_o$}	{[mm$^2$]}	0.081401
{$S_l/S_o$}	[]	0.705556
{$\Psi$}	[]	0.603391
{$\eta$}	[]	0.675444
{med($\theta_e$)}	{[$^\circ$]}	62.6433
{$\Upsilon$}	[]	12
{$\Xi$}	[]	6
