Q	U	V
{$V$}	{[mm$^3$]}	0.00795233
{$d_v$}	{[mm]}	0.247646
{$S_c$}	{[mm$^2$]}	0.314394
{$S_o$}	{[mm$^2$]}	0.206278
{$S_l/S_o$}	[]	0.524128
{$\Psi$}	[]	0.612829
{$\eta$}	[]	0.646975
{med($\theta_e$)}	{[$^\circ$]}	64.5828
{$\Upsilon$}	[]	11
{$\Xi$}	[]	7
