facetNormals:0,facetNormals:1,facetNormals:2,FacetCenters:0,FacetCenters:1,FacetCenters:2,FacetIds,relFacetSize,absFacetSize,cellPairingIds,interplanarAngles,angleWeights
-0.411414,-0.0876542,-0.876383,6.83476,3.67162,12.0632,1,0.0261012,0.00296136,8,67.8616,0.0428992
0.621829,-0.317588,-0.662485,6.89779,3.67657,12.0736,2,0.120358,0.0136555,13,60.8365,0.0333533
-0.451332,-0.833802,-0.232383,6.82915,3.62566,12.1105,3,0.0461859,0.00524009,19,102.168,0.037641
0.921173,0.255315,-0.228204,6.93096,3.72336,12.1289,4,0.0674711,0.00765504,26,54.213,0.0230574
-0.952558,-0.173585,-0.173517,6.79761,3.66636,12.1244,5,0.0206494,0.00234281,34,104.95,0.0243833
0.926144,-0.31832,-0.120583,6.9172,3.72156,12.0937,6,0.0228776,0.00259562,43,92.9002,0.0383079
0.427223,-0.86862,-0.0592521,6.8837,3.65939,12.1175,7,0.0719623,0.0081646,53,128.015,0.0297975
0.870601,0.393176,0.221937,6.92131,3.74306,12.1656,8,0.0347134,0.00393847,64,78.9712,0.0384786
-0.920737,-0.19856,0.245546,6.80179,3.67118,12.1741,9,0.0731818,0.00830296,76,103.236,0.0424194
0.0159101,-0.914183,0.330923,6.85932,3.63275,12.1751,10,0.113175,0.0128404,89,171.421,0.0449543
0.336881,0.209684,0.823191,6.88793,3.70711,12.2183,11,0.161884,0.0183668,103,124.497,0.0305934
-0.482222,0.054028,0.819039,6.86443,3.69358,12.1256,12,0.0369534,0.0041926,18,81.5478,0.0667553
,,,,,,,,,25,47.1823,0.086469
,,,,,,,,,33,116.486,0.0352509
,,,,,,,,,42,37.16,0.0384472
,,,,,,,,,52,51.5242,0.0900711
,,,,,,,,,63,73.413,0.0538854
,,,,,,,,,75,135.843,0.0910203
,,,,,,,,,88,85.0353,0.116656
,,,,,,,,,102,117.23,0.138067
,,,,,,,,,117,159.743,0.0565456
,,,,,,,,,32,126.869,0.0548354
,,,,,,,,,41,50.1752,0.0285391
,,,,,,,,,51,97.4302,0.0305986
,,,,,,,,,62,54.8376,0.0562623
,,,,,,,,,74,143.779,0.0396362
,,,,,,,,,87,56.5283,0.0566312
,,,,,,,,,101,44.4012,0.0656006
,,,,,,,,,116,125.512,0.0718678
,,,,,,,,,132,91.0936,0.041057
,,,,,,,,,50,155.863,0.0316212
,,,,,,,,,61,34.4768,0.0341693
,,,,,,,,,73,78.7894,0.0696444
,,,,,,,,,86,27.9084,0.0458416
,,,,,,,,,100,176.567,0.0702105
,,,,,,,,,115,107.935,0.0845414
,,,,,,,,,131,78.6981,0.0952453
,,,,,,,,,148,131.287,0.0477529
,,,,,,,,,72,146.144,0.0217065
,,,,,,,,,85,104.937,0.0320905
,,,,,,,,,99,166.005,0.025895
,,,,,,,,,114,24.8385,0.0322102
,,,,,,,,,130,84.8347,0.0349263
,,,,,,,,,147,123.806,0.0366268
,,,,,,,,,165,70.8075,0.026494
,,,,,,,,,98,44.774,0.034718
,,,,,,,,,113,47.4496,0.0275793
,,,,,,,,,129,148.525,0.0348581
,,,,,,,,,146,73.9146,0.0380614
,,,,,,,,,164,80.6824,0.0400897
,,,,,,,,,183,126.791,0.0282598
,,,,,,,,,128,88.9596,0.0468346
,,,,,,,,,145,104.442,0.0725669
,,,,,,,,,163,34.0568,0.0879815
,,,,,,,,,182,95.6328,0.0996343
,,,,,,,,,202,109.059,0.0488313
,,,,,,,,,162,149.815,0.0470899
,,,,,,,,,181,106.582,0.0531304
,,,,,,,,,201,51.4571,0.0571681
,,,,,,,,,222,103.428,0.0357984
,,,,,,,,,200,74.8019,0.088887
,,,,,,,,,221,99.6875,0.100797
,,,,,,,,,243,46.7959,0.049109
,,,,,,,,,242,84.4406,0.133217
,,,,,,,,,265,76.6349,0.0557149
,,,,,,,,,288,53.0374,0.0601714
