facetNormals:0,facetNormals:1,facetNormals:2,FacetCenters:0,FacetCenters:1,FacetCenters:2,FacetIds,relFacetSize,absFacetSize,cellPairingIds,interplanarAngles,angleWeights
0.269388,-0.588766,-0.729782,4.89966,7.24361,10.1612,1,0.0541343,0.0215047,8,67.6818,0.0659086
0.547464,0.455451,-0.657368,4.96568,7.31843,10.3044,2,0.0842283,0.0334594,13,35.0243,0.069367
0.760066,-0.378686,-0.483902,4.99234,7.27109,10.2471,3,0.0965292,0.0383459,19,104.388,0.0426776
-0.825676,0.422117,-0.319515,4.83135,7.35002,10.1705,4,0.0352232,0.0139923,26,115.542,0.0678966
-0.122206,0.895845,-0.23009,4.89313,7.38268,10.2309,5,0.0910419,0.0361661,34,80.3799,0.0474836
0.864163,0.410616,-0.23223,4.94617,7.37174,10.2434,6,0.0422883,0.0167989,43,102.49,0.0699388
-0.882956,-0.253922,0.147975,4.83308,7.26589,10.2422,7,0.0987767,0.0392388,53,146.396,0.0675052
-0.725547,0.457233,0.432948,4.88062,7.37429,10.2959,8,0.0896477,0.0356123,64,97.731,0.0624769
-0.465276,-0.664722,0.539781,4.91065,7.20645,10.326,9,0.0738594,0.0293404,18,53.6281,0.0899602
,,,,,,,,,25,92.9991,0.0496735
,,,,,,,,,33,57.0072,0.0875027
,,,,,,,,,42,31.5917,0.0563068
,,,,,,,,,52,140.539,0.0909243
,,,,,,,,,63,120.573,0.0868536
,,,,,,,,,75,165.002,0.0787038
,,,,,,,,,32,131.308,0.051613
,,,,,,,,,41,110.597,0.0937053
,,,,,,,,,51,50.3743,0.0588118
,,,,,,,,,62,135.305,0.09764
,,,,,,,,,74,174.18,0.0929613
,,,,,,,,,87,112.41,0.0836862
,,,,,,,,,50,52.8533,0.0507945
,,,,,,,,,61,118.853,0.0384337
,,,,,,,,,73,50.9865,0.0519289
,,,,,,,,,86,46.0688,0.0505751
,,,,,,,,,100,94.1331,0.047699
,,,,,,,,,72,69.8991,0.0577514
,,,,,,,,,85,100.192,0.0947517
,,,,,,,,,99,63.5901,0.0903394
,,,,,,,,,114,136.805,0.0815554
,,,,,,,,,98,169.776,0.0592223
,,,,,,,,,113,124.799,0.057468
,,,,,,,,,129,146.532,0.053783
,,,,,,,,,128,48.8238,0.0939911
,,,,,,,,,145,43.3479,0.0845198
,,,,,,,,,162,73.4078,0.0809913
