Q	U	V
{$V$}	{[mm$^3$]}	0.00371196
{$d_v$}	{[mm]}	0.192103
{$S_c$}	{[mm$^2$]}	0.261067
{$S_o$}	{[mm$^2$]}	0.133142
{$S_l/S_o$}	[]	0.960816
{$\Psi$}	[]	0.444087
{$\eta$}	[]	0.489246
{med($\theta_e$)}	{[$^\circ$]}	
{$\Upsilon$}	[]	12
{$\Xi$}	[]	8
