facetNormals:0,facetNormals:1,facetNormals:2,FacetCenters:0,FacetCenters:1,FacetCenters:2,FacetIds,relFacetSize,absFacetSize,cellPairingIds,interplanarAngles,angleWeights
0.00171058,0.0638183,-0.949077,5.02424,5.33666,10.7077,1,0.0857053,0.0123507,8,35.3432,0.026834
-0.376592,-0.376399,-0.836983,4.99384,5.27459,10.7323,2,0.0159072,0.00229234,13,55.3452,0.0312613
0.424511,-0.653632,-0.605755,5.09457,5.20187,10.7569,3,0.0191172,0.00275491,19,56.6647,0.0766201
-0.140462,-0.769522,-0.592468,5.04316,5.19123,10.7503,4,0.0692765,0.00998319,26,67.4926,0.112514
-0.832095,-0.267944,-0.386177,4.96106,5.28592,10.7685,5,0.16373,0.0235945,34,60.9794,0.1034
0.8379,0.234924,-0.461663,5.0894,5.31251,10.7466,6,0.130301,0.0187773,43,76.2231,0.0128903
-0.170324,0.964964,-0.172912,4.98651,5.45403,10.7472,7,0.00696924,0.00100431,53,77.9631,0.0308206
-0.864682,0.442207,-0.178205,4.95758,5.41049,10.7718,8,0.0187886,0.00270756,64,82.2523,0.0582838
0.455917,0.864947,-0.0734989,5.05872,5.40111,10.8122,9,0.0441561,0.00636317,76,103.649,0.0676118
-0.876706,0.348498,0.25285,4.94996,5.36783,10.8463,10,0.0558262,0.00804492,89,119.119,0.0325513
-0.855576,-0.130563,0.470026,4.9457,5.34362,10.8516,11,0.020091,0.00289524,103,113.559,0.101326
0.205201,0.824677,0.438991,5.01255,5.41382,10.8253,12,0.123911,0.0178563,118,146.328,0.0244396
-0.28631,0.409362,0.847794,4.98251,5.37402,10.8899,13,0.0142518,0.00205378,18,52.716,0.0173651
,,,,,,,,,25,30.5342,0.0258734
,,,,,,,,,33,38.9334,0.0289972
,,,,,,,,,42,91.0301,0.0283531
,,,,,,,,,52,98.9963,0.00969217
,,,,,,,,,63,71.6516,0.0172283
,,,,,,,,,75,116.615,0.0233887
,,,,,,,,,88,90.7477,0.0247595
,,,,,,,,,102,91.2937,0.017756
,,,,,,,,,117,142.733,0.0281949
,,,,,,,,,133,140.744,0.0150341
,,,,,,,,,32,34.0829,0.0299653
,,,,,,,,,41,86.6069,0.0342369
,,,,,,,,,51,60.2986,0.0333426
,,,,,,,,,62,127.527,0.0102147
,,,,,,,,,74,124.222,0.0189515
,,,,,,,,,87,109.765,0.0266824
,,,,,,,,,101,141.365,0.0284813
,,,,,,,,,116,125.358,0.019592
,,,,,,,,,132,139.489,0.033124
,,,,,,,,,149,158.327,0.0163298
,,,,,,,,,50,53.9509,0.097359
,,,,,,,,,61,91.4791,0.0904591
,,,,,,,,,73,129.131,0.0126644
,,,,,,,,,86,96.7123,0.0295602
,,,,,,,,,100,135.486,0.0539347
,,,,,,,,,115,107.916,0.0618283
,,,,,,,,,131,93.4304,0.0311485
,,,,,,,,,148,169.713,0.0888682
,,,,,,,,,166,143.588,0.0236402
,,,,,,,,,72,128.176,0.145115
,,,,,,,,,85,93.0175,0.0133694
,,,,,,,,,99,44.7784,0.033709
,,,,,,,,,114,128.454,0.0695542
,,,,,,,,,130,54.7684,0.0832627
,,,,,,,,,147,53.0799,0.0357902
,,,,,,,,,165,127.878,0.141064
,,,,,,,,,184,102.207,0.0262212
,,,,,,,,,98,80.3798,0.0132308
,,,,,,,,,113,123.606,0.0328417
,,,,,,,,,129,50.133,0.0659599
,,,,,,,,,146,143.103,0.0781639
,,,,,,,,,164,173.821,0.034814
,,,,,,,,,183,80.0378,0.127026
,,,,,,,,,203,123.507,0.0256934
,,,,,,,,,128,52.0059,0.0101672
,,,,,,,,,145,37.9145,0.0120384
,,,,,,,,,163,62.9554,0.0123915
,,,,,,,,,182,93.6002,0.0103487
,,,,,,,,,202,43.9743,0.0131963
,,,,,,,,,223,72.3304,0.00936092
,,,,,,,,,162,89.9195,0.0263606
,,,,,,,,,181,25.9598,0.028115
,,,,,,,,,201,52.0308,0.019418
,,,,,,,,,222,83.372,0.0326296
,,,,,,,,,244,73.4047,0.0162087
,,,,,,,,,200,97.0087,0.0493101
,,,,,,,,,221,123.825,0.0276165
,,,,,,,,,243,34.3194,0.0651099
,,,,,,,,,266,80.3804,0.0215486
,,,,,,,,,242,31.1297,0.029548
,,,,,,,,,265,76.4748,0.0769732
,,,,,,,,,289,50.7556,0.0227068
,,,,,,,,,288,94.6823,0.0345758
,,,,,,,,,313,52.4984,0.016675
,,,,,,,,,338,46.2381,0.0255634
