facetNormals:0,facetNormals:1,facetNormals:2,FacetCenters:0,FacetCenters:1,FacetCenters:2,FacetIds,relFacetSize,absFacetSize,cellPairingIds,interplanarAngles,angleWeights
-0.177383,0.340174,-0.882095,5.10147,3.67079,10.2025,1,0.0211842,0.00504083,8,38.9234,0.0195224
0.455259,0.20929,-0.842342,5.16982,3.65795,10.2262,2,0.0181022,0.00430746,13,51.9231,0.0179827
-0.679083,-0.308539,-0.646062,5.07565,3.6225,10.2702,3,0.0156218,0.00371723,19,73.0853,0.0294451
0.778554,-0.184978,-0.53294,5.16808,3.58915,10.2866,4,0.048267,0.0114852,26,53.5746,0.0233089
-0.856576,0.311909,-0.336702,5.06877,3.63322,10.2744,5,0.0259073,0.00616467,34,71.0145,0.0239137
-0.866288,-0.346222,-0.307831,5.0751,3.62122,10.274,6,0.0274507,0.00653193,43,68.1593,0.0272533
0.788348,0.444039,-0.386436,5.12153,3.61008,10.3259,7,0.0381962,0.00908884,53,112.01,0.0329019
0.120774,-0.924945,0.00022153,5.1248,3.65836,10.3088,8,0.0736278,0.0175199,64,71.3964,0.0325395
-0.125492,0.942754,0.0573375,5.10453,3.70558,10.2946,9,0.0701314,0.0166879,76,108.765,0.0307759
-0.826427,-0.256714,0.401908,5.09567,3.55073,10.3691,10,0.0562398,0.0133824,89,111.474,0.0280381
0.924709,0.19879,0.285075,5.27316,3.54297,10.3305,11,0.0414481,0.00986264,103,129.726,0.0264427
0.784378,-0.436739,0.343864,5.26288,3.47747,10.3561,12,0.0351738,0.00836965,118,106.101,0.0344745
0.483087,0.701677,0.467298,5.20231,3.63221,10.3525,13,0.092516,0.0220143,134,147.496,0.0328294
0.525856,0.0616124,0.80119,5.19471,3.55549,10.3905,14,0.0729073,0.0173484,151,148.486,0.0307535
-0.26363,-0.583993,0.73262,5.17975,3.47608,10.388,15,0.0560902,0.0133468,169,137.933,0.0316443
-0.144307,0.27331,0.920408,5.13848,3.59309,10.4075,16,0.0625096,0.0148743,18,79.8478,0.0167708
,,,,,,,,,25,35.7621,0.0263297
,,,,,,,,,33,92.4711,0.0213126
,,,,,,,,,42,102.448,0.0218172
,,,,,,,,,52,36.2803,0.0245633
,,,,,,,,,63,98.7315,0.0290598
,,,,,,,,,75,84.3536,0.0287767
,,,,,,,,,88,145.264,0.0273887
,,,,,,,,,102,76.717,0.025199
,,,,,,,,,117,91.4572,0.0239028
,,,,,,,,,133,91.6151,0.0302798
,,,,,,,,,150,116.678,0.0290032
,,,,,,,,,168,154.273,0.0273709
,,,,,,,,,187,145.453,0.0280744
,,,,,,,,,32,97.7121,0.023604
,,,,,,,,,41,42.8553,0.0194908
,,,,,,,,,51,22.7507,0.019912
,,,,,,,,,62,115.809,0.0221745
,,,,,,,,,74,77.2451,0.0257749
,,,,,,,,,87,104.959,0.0255519
,,,,,,,,,101,66.1465,0.0244516
,,,,,,,,,116,153.642,0.0226912
,,,,,,,,,132,130.815,0.0216348
,,,,,,,,,149,151.985,0.0267301
,,,,,,,,,167,160.581,0.0257303
,,,,,,,,,186,96.8234,0.0244374
,,,,,,,,,206,127.329,0.0249966
,,,,,,,,,50,125.694,0.033717
,,,,,,,,,61,118.201,0.0349974
,,,,,,,,,73,38.7638,0.0426451
,,,,,,,,,86,72.8132,0.0583092
,,,,,,,,,100,109.292,0.0571804
,,,,,,,,,115,152.017,0.0519493
,,,,,,,,,131,55.9909,0.0445984
,,,,,,,,,148,56.645,0.0406931
,,,,,,,,,166,90.1673,0.0634376
,,,,,,,,,185,91.7984,0.0580819
,,,,,,,,,205,121.409,0.0518854
,,,,,,,,,226,134.426,0.0544727
,,,,,,,,,72,39.401,0.0266566
,,,,,,,,,85,115.172,0.0308738
,,,,,,,,,99,115.624,0.0383281
,,,,,,,,,114,65.6177,0.0378371
,,,,,,,,,130,57.9169,0.0354734
,,,,,,,,,147,149.371,0.0318848
,,,,,,,,,165,171.456,0.0298376
,,,,,,,,,184,111.906,0.0404791
,,,,,,,,,204,138.688,0.0382297
,,,,,,,,,225,102.394,0.0354436
,,,,,,,,,247,96.1478,0.0366322
,,,,,,,,,98,137.95,0.031944
,,,,,,,,,113,76.3957,0.0399913
,,,,,,,,,129,104.562,0.0394571
,,,,,,,,,146,43.3975,0.0368936
,,,,,,,,,164,170.677,0.0330275
,,,,,,,,,183,132.179,0.030836
,,,,,,,,,203,147.526,0.0423388
,,,,,,,,,224,140.077,0.0398843
,,,,,,,,,246,77.6166,0.0368613
,,,,,,,,,269,105.378,0.0381486
,,,,,,,,,128,110.113,0.0502987
,,,,,,,,,145,71.4948,0.0494565
,,,,,,,,,163,168.778,0.0454942
,,,,,,,,,182,43.3208,0.0397557
,,,,,,,,,202,72.0468,0.0366227
,,,,,,,,,223,57.6285,0.0540693
,,,,,,,,,245,81.9503,0.0501295
,,,,,,,,,268,141.581,0.0454452
,,,,,,,,,292,111.37,0.0474179
,,,,,,,,,162,176.533,0.0718371
,,,,,,,,,181,81.0982,0.0637698
,,,,,,,,,201,94.4893,0.0530386
,,,,,,,,,222,56.2075,0.0476053
,,,,,,,,,244,130.662,0.0819983
,,,,,,,,,267,89.5715,0.0732658
,,,,,,,,,291,55.9386,0.0636735
,,,,,,,,,316,107.346,0.0676147
,,,,,,,,,200,97.284,0.0624221
,,,,,,,,,221,84.6529,0.052103
,,,,,,,,,243,122.374,0.0468502
,,,,,,,,,266,47.3123,0.0797834
,,,,,,,,,290,87.6178,0.0714924
,,,,,,,,,315,120.846,0.0623298
,,,,,,,,,341,69.1971,0.0661015
,,,,,,,,,242,138.018,0.0477241
,,,,,,,,,265,115.708,0.0432795
,,,,,,,,,289,114.983,0.0699547
,,,,,,,,,314,98.0549,0.063498
,,,,,,,,,340,44.5118,0.0561649
,,,,,,,,,367,63.1084,0.0592092
,,,,,,,,,288,39.1462,0.038054
,,,,,,,,,313,41.4521,0.0572483
,,,,,,,,,339,39.9823,0.0528504
,,,,,,,,,366,99.037,0.0476701
,,,,,,,,,394,78.9839,0.0498453
,,,,,,,,,338,75.5457,0.0509694
,,,,,,,,,365,44.2721,0.0474537
,,,,,,,,,393,71.2873,0.0432351
,,,,,,,,,422,84.8406,0.0450168
,,,,,,,,,392,43.9603,0.0815495
,,,,,,,,,421,101.886,0.0698388
,,,,,,,,,451,54.1754,0.0746088
,,,,,,,,,450,63.821,0.0634025
,,,,,,,,,481,43.3175,0.0673092
,,,,,,,,,512,54.2021,0.0591261
