facetNormals:0,facetNormals:1,facetNormals:2,FacetCenters:0,FacetCenters:1,FacetCenters:2,FacetIds,relFacetSize,absFacetSize,cellPairingIds,interplanarAngles,angleWeights
0.0277945,0.347644,-0.904488,5.00855,6.54135,9.09791,1,0.143195,0.0106289,8,47.4467,0.0859519
0.696398,0.00708834,-0.682778,5.02984,6.4574,9.07666,2,0.061405,0.00455789,13,100.249,0.0333195
-0.8269,-0.456899,-0.0208168,5.00594,6.59046,9.18938,3,0.0188532,0.00139941,19,95.3135,0.0431388
0.600607,-0.733407,-0.167883,5.04309,6.46051,9.12201,4,0.0253946,0.00188496,26,70.1129,0.086548
0.916546,0.248623,-0.232751,5.05826,6.51877,9.12787,5,0.0620153,0.00460318,34,88.7482,0.0478279
0.975224,-0.171348,-0.0591147,5.04723,6.43939,9.15693,6,0.0287084,0.00213092,43,75.4951,0.0870609
-0.387661,0.868499,0.0659784,4.95161,6.61291,9.18439,7,0.0625433,0.00464238,53,107.642,0.0254043
-0.866431,0.178119,0.350936,4.9805,6.52984,9.16243,8,0.0139386,0.00103462,64,97.0221,0.149299
0.852804,0.386371,0.303673,5.03909,6.54637,9.18322,9,0.155947,0.0115755,76,120.105,0.0392799
0.716591,-0.595822,0.323289,5.05271,6.45746,9.14717,10,0.0227619,0.00168954,89,90.9374,0.0222435
0.0139718,0.924128,0.373098,4.96426,6.61474,9.19711,11,0.0120583,0.000895049,103,119.15,0.0859729
0.847389,-0.142797,0.486732,5.05054,6.48945,9.18557,12,0.0614265,0.00455948,118,121.378,0.125439
0.464472,0.445902,0.728019,4.99015,6.58015,9.2334,13,0.1116,0.00828371,18,127.801,0.0288489
,,,,,,,,,25,55.8047,0.03593
,,,,,,,,,33,33.0897,0.0617086
,,,,,,,,,42,42.0569,0.0391249
,,,,,,,,,52,109.4,0.0619689
,,,,,,,,,63,155.084,0.0227199
,,,,,,,,,75,66.0757,0.0881145
,,,,,,,,,88,73.448,0.0332124
,,,,,,,,,102,104.2,0.0201581
,,,,,,,,,117,74.5388,0.0614157
,,,,,,,,,133,100.36,0.0792209
,,,,,,,,,32,100.005,0.0216404
,,,,,,,,,41,159.713,0.0289157
,,,,,,,,,51,140.85,0.0227597
,,,,,,,,,62,94.9434,0.0289728
,,,,,,,,,74,45.7253,0.0160276
,,,,,,,,,87,162.705,0.0336395
,,,,,,,,,101,110.54,0.020624
,,,,,,,,,116,117.958,0.0147089
,,,,,,,,,132,133.77,0.0288513
,,,,,,,,,149,131.036,0.032257
,,,,,,,,,50,64.3668,0.0360338
,,,,,,,,,61,40.943,0.02695
,,,,,,,,,73,163.688,0.0361224
,,,,,,,,,86,140.798,0.0179983
,,,,,,,,,100,79.1817,0.0436768
,,,,,,,,,115,31.1049,0.0240063
,,,,,,,,,131,139.719,0.0163521
,,,,,,,,,148,55.9784,0.0359337
,,,,,,,,,166,100.486,0.0413745
,,,,,,,,,72,26.8923,0.0392479
,,,,,,,,,85,99.555,0.0622781
,,,,,,,,,99,153.336,0.0227613
,,,,,,,,,114,33.0122,0.0887411
,,,,,,,,,130,63.2972,0.033301
,,,,,,,,,147,80.8051,0.0201907
,,,,,,,,,165,49.4425,0.0617194
,,,,,,,,,184,67.2738,0.079727
,,,,,,,,,98,124.143,0.039353
,,,,,,,,,113,161.706,0.0187659
,,,,,,,,,129,40.0349,0.0484902
,,,,,,,,,146,36.962,0.0253916
,,,,,,,,,164,99.7118,0.0169832
,,,,,,,,,183,32.9463,0.0391292
,,,,,,,,,203,69.7595,0.0456688
,,,,,,,,,128,55.5108,0.0227967
,,,,,,,,,145,88.4734,0.0892804
,,,,,,,,,163,145.382,0.0333767
,,,,,,,,,182,30.1346,0.0202185
,,,,,,,,,202,116.519,0.0619798
,,,,,,,,,223,74.0102,0.080162
,,,,,,,,,162,126.986,0.02559
,,,,,,,,,181,130.815,0.0172896
,,,,,,,,,201,72.6128,0.0129305
,,,,,,,,,222,128.794,0.0227214
,,,,,,,,,244,94.1867,0.024782
,,,,,,,,,200,60.4331,0.0397255
,,,,,,,,,221,60.5539,0.0223857
,,,,,,,,,243,32.9947,0.0881366
,,,,,,,,,266,34.3825,0.130099
,,,,,,,,,242,115.289,0.015765
,,,,,,,,,265,29.2875,0.0332156
,,,,,,,,,289,71.6058,0.0378117
,,,,,,,,,288,86.4194,0.0201593
,,,,,,,,,313,44.5617,0.021765
,,,,,,,,,338,44.5295,0.0792387
