facetNormals:0,facetNormals:1,facetNormals:2,FacetCenters:0,FacetCenters:1,FacetCenters:2,FacetIds,relFacetSize,absFacetSize,cellPairingIds,interplanarAngles,angleWeights
0.48181,0.444159,-0.727474,7.33939,4.44939,12.6354,1,0.0502565,0.00611011,8,58.4918,0.0434301
0.751184,-0.436572,-0.460796,7.37319,4.41331,12.6778,2,0.0382365,0.00464873,13,97.5909,0.0835774
-0.868512,0.0605415,-0.370065,7.27946,4.35805,12.6429,3,0.248016,0.0301534,19,37.0858,0.0692835
0.897505,0.169574,-0.353652,7.35975,4.38323,12.6372,4,0.111496,0.0135555,26,72.3806,0.0505129
-0.226866,0.945681,0.0307401,7.29136,4.50696,12.6915,5,0.050772,0.00617278,34,61.118,0.0511856
0.640098,0.698037,0.218303,7.35743,4.47099,12.7061,6,0.0521498,0.00634029,43,148.865,0.0666939
-0.838627,-0.302165,0.373486,7.2731,4.40848,12.7194,7,0.0991099,0.0120496,53,96.6115,0.0558124
0.542655,0.356247,0.728063,7.3572,4.41681,12.7508,8,0.0627495,0.00762899,64,140.021,0.058567
-0.33928,0.184301,0.86084,7.2938,4.38696,12.7486,9,0.0701704,0.00853122,18,123.118,0.066258
,,,,,,,,,25,37.6062,0.0569444
,,,,,,,,,33,128.634,0.0436215
,,,,,,,,,42,85.4699,0.0441223
,,,,,,,,,52,134.833,0.0551833
,,,,,,,,,63,94.9864,0.0475179
,,,,,,,,,75,142.083,0.0495
,,,,,,,,,32,133.546,0.153835
,,,,,,,,,41,74.6982,0.084289
,,,,,,,,,51,130.281,0.0861789
,,,,,,,,,62,51.2846,0.141625
,,,,,,,,,74,141.202,0.100158
,,,,,,,,,87,90.8179,0.109391
,,,,,,,,,50,93.2556,0.0697718
,,,,,,,,,61,49.7048,0.0710618
,,,,,,,,,73,171.403,0.104939
,,,,,,,,,86,72.3319,0.080304
,,,,,,,,,100,128.693,0.0861327
,,,,,,,,,72,56.5248,0.0514517
,,,,,,,,,85,95.1257,0.0671463
,,,,,,,,,99,75.5914,0.0561289
,,,,,,,,,114,72.3901,0.0589155
,,,,,,,,,98,135.17,0.0683402
,,,,,,,,,113,37.218,0.0569607
,,,,,,,,,129,83.7769,0.0598327
,,,,,,,,,128,107.967,0.0768456
,,,,,,,,,145,52.8747,0.0821665
,,,,,,,,,162,56.4737,0.0662528
