"cellPairingIds","interplanarAngles","angleWeights"
13,48.5042,0.0201309
19,67.9064,0.0752679
26,94.2166,0.0385322
53,68.4803,0.0444546
64,64.0616,0.0577039
25,74.5246,0.0298672
33,76.0065,0.0216694
42,43.1217,0.0188942
52,57.0747,0.0223631
41,52.9425,0.0181492
87,71.9893,0.0215163
116,57.6614,0.0224295
50,141.226,0.0534481
73,43.7569,0.0578759
86,47.6776,0.065564
148,86.0243,0.162881
72,40.4164,0.0262092
130,62.3642,0.0285607
147,58.8654,0.0479351
98,89.6344,0.0272308
146,35.0591,0.0239284
163,79.2504,0.0297781
202,54.5812,0.0575556
162,42.3698,0.0518235
201,107.079,0.0574578
222,73.9597,0.0651532
221,66.8714,0.0817055
242,80.1938,0.0408189
265,63.8343,0.0445577
288,92.7641,0.120609
