Q	U	V
{$V$}	{[mm$^3$]}	0.0128244
{$d_v$}	{[mm]}	0.290411
{$S_c$}	{[mm$^2$]}	0.465171
{$S_o$}	{[mm$^2$]}	0.329565
{$S_l/S_o$}	[]	0.411470
{$\Psi$}	[]	0.569591
{$\eta$}	[]	0.601811
{med($\theta_e$)}	{[$^\circ$]}	56.8185
{$\Upsilon$}	[]	17
{$\Xi$}	[]	12
