facetNormals:0,facetNormals:1,facetNormals:2,FacetCenters:0,FacetCenters:1,FacetCenters:2,FacetIds,relFacetSize,absFacetSize,cellPairingIds,interplanarAngles,angleWeights
0.489022,-0.668587,-0.492012,3.28043,4.67045,10.2412,1,0.096844,0.0176312,8,46.2451,0.134278
-0.0789773,-0.933671,-0.0837167,3.24632,4.64298,10.2953,2,0.218886,0.03985,13,147.439,0.0845671
-0.663985,0.694152,-0.0176102,3.13091,4.84765,10.2461,3,0.0750527,0.013664,19,96.8209,0.115052
-0.824443,-0.480066,0.0551653,3.13131,4.70466,10.282,4,0.141691,0.025796,26,101.741,0.0568629
-0.587371,-0.550591,0.553722,3.15812,4.69602,10.359,5,0.0402473,0.00732734,34,130.716,0.0511158
0.301764,0.682841,0.578151,3.19499,4.85503,10.2691,6,0.0347211,0.00632126,43,85.6007,0.0295745
0.0781593,-0.60665,0.755985,3.22389,4.6764,10.392,7,0.017452,0.00317728,53,151.436,0.0594438
-0.334566,0.36512,0.822537,3.15528,4.79789,10.3296,8,0.0428828,0.00780717,18,131.104,0.111778
,,,,,,,,,25,55.5368,0.172025
,,,,,,,,,33,55.9935,0.0679925
,,,,,,,,,42,143.039,0.0599349
,,,,,,,,,52,57.0965,0.0323266
,,,,,,,,,63,115.114,0.0717156
,,,,,,,,,32,76.5719,0.0981278
,,,,,,,,,41,90.1184,0.0523966
,,,,,,,,,51,73.1179,0.0474779
,,,,,,,,,62,121.368,0.028319
,,,,,,,,,74,60.0073,0.0545802
,,,,,,,,,50,33.4474,0.062688
,,,,,,,,,61,127.132,0.0557747
,,,,,,,,,73,73.2061,0.0310764
,,,,,,,,,86,80.8485,0.0658393
,,,,,,,,,72,104.633,0.0372805
,,,,,,,,,85,41.9476,0.0243468
,,,,,,,,,99,61.2707,0.0415233
,,,,,,,,,98,87.1026,0.0232286
,,,,,,,,,113,46.5119,0.0383728
,,,,,,,,,128,66.374,0.0248079
