facetNormals:0,facetNormals:1,facetNormals:2,FacetCenters:0,FacetCenters:1,FacetCenters:2,FacetIds,relFacetSize,absFacetSize,cellPairingIds,interplanarAngles,angleWeights
-0.243253,-0.429631,-0.814916,5.88646,4.42461,9.65301,1,0.013895,0.00149321,8,81.9784,0.0227962
0.841716,0.132376,-0.480659,6.02761,4.49336,9.59539,2,0.063429,0.00681633,13,106.319,0.0145371
0.666207,0.694498,-0.239227,6.02127,4.54253,9.62266,3,0.0152414,0.0016379,19,110.005,0.025886
0.0433738,0.95113,-0.130013,5.946,4.55649,9.62124,4,0.18891,0.0203011,26,93.1054,0.0238926
0.832632,-0.515038,0.0852377,6.02793,4.44583,9.64449,5,0.085182,0.00915399,34,96.7467,0.024769
-0.903639,0.216533,0.289258,5.8642,4.48581,9.68825,6,0.113924,0.0122427,43,80.5057,0.0196698
-0.0194286,-0.92516,0.305606,5.91173,4.3949,9.70658,7,0.0336582,0.00361704,53,80.8345,0.00647347
-0.584863,-0.718148,0.367614,5.8688,4.4067,9.69027,8,0.00421968,0.000453463,64,95.4764,0.0210456
0.545023,-0.746435,0.340754,5.98147,4.40859,9.69009,9,0.0433591,0.00465954,76,110.192,0.0205309
-0.680362,0.668321,0.248491,5.87664,4.5442,9.64971,10,0.0392996,0.00422328,89,158.822,0.0234152
0.574815,0.335158,0.722898,6.00289,4.50754,9.7029,11,0.0743703,0.00799212,103,169.622,0.0213902
0.0754855,0.453847,0.866162,5.9231,4.50951,9.7344,12,0.0464414,0.00499077,118,135.066,0.0243597
0.182528,-0.289942,0.880058,5.94149,4.44289,9.73977,13,0.0986738,0.0106039,18,37.6911,0.0245772
,,,,,,,,,25,76.1583,0.0949705
,,,,,,,,,33,52.0162,0.0727135
,,,,,,,,,42,156.181,0.0814882
,,,,,,,,,52,107.439,0.0439791
,,,,,,,,,63,141.608,0.00791294
,,,,,,,,,75,78.2551,0.0515081
,,,,,,,,,88,128.762,0.0485305
,,,,,,,,,102,79.1621,0.0684653
,,,,,,,,,117,107.763,0.0536219
,,,,,,,,,133,109.457,0.0772199
,,,,,,,,,32,40.8748,0.0282071
,,,,,,,,,41,79.5584,0.0258564
,,,,,,,,,51,122.661,0.0268859
,,,,,,,,,62,138.93,0.0209817
,,,,,,,,,74,171.13,0.00660948
,,,,,,,,,87,104.03,0.0225546
,,,,,,,,,101,92.848,0.0219645
,,,,,,,,,116,62.9705,0.0252982
,,,,,,,,,132,80.6342,0.0229507
,,,,,,,,,149,108.058,0.0264044
,,,,,,,,,50,119.486,0.117419
,,,,,,,,,61,82.0622,0.142133
,,,,,,,,,73,169.411,0.0571363
,,,,,,,,,86,142.161,0.00825497
,,,,,,,,,100,140.52,0.0705301
,,,,,,,,,115,52.7049,0.0650637
,,,,,,,,,131,74.6629,0.106725
,,,,,,,,,148,70.0011,0.0745544
,,,,,,,,,166,114.912,0.129635
,,,,,,,,,72,151.343,0.0974785
,,,,,,,,,85,59.4801,0.0482509
,,,,,,,,,99,95.0246,0.00804103
,,,,,,,,,114,26.3755,0.0574667
,,,,,,,,,130,156.695,0.0537849
,,,,,,,,,147,67.6218,0.0794098
,,,,,,,,,165,95.7799,0.0601104
,,,,,,,,,184,66.0792,0.0914329
,,,,,,,,,98,95.7108,0.0519639
,,,,,,,,,113,60.3774,0.00813793
,,,,,,,,,129,125.417,0.0628122
,,,,,,,,,146,29.9088,0.0584396
,,,,,,,,,164,104.397,0.0899928
,,,,,,,,,183,72.9033,0.0659842
,,,,,,,,,203,88.3264,0.105752
,,,,,,,,,128,35.7491,0.00749919
,,,,,,,,,145,35.2314,0.0378977
,,,,,,,,,163,123.432,0.0362607
,,,,,,,,,182,96.0143,0.0463427
,,,,,,,,,202,99.4328,0.0390297
,,,,,,,,,223,54.5607,0.0501947
,,,,,,,,,162,69.5748,0.00769089
,,,,,,,,,181,89.4566,0.00762107
,,,,,,,,,201,108.53,0.00798623
,,,,,,,,,222,93.0303,0.00773642
,,,,,,,,,244,63.1531,0.00809326
,,,,,,,,,200,143.959,0.0412297
,,,,,,,,,221,71.3533,0.0547804
,,,,,,,,,243,90.147,0.0448474
,,,,,,,,,266,48.5521,0.0602453
,,,,,,,,,242,89.2577,0.0514247
,,,,,,,,,265,61.0963,0.042573
,,,,,,,,,289,96.1228,0.0562114
,,,,,,,,,288,31.4967,0.0571776
,,,,,,,,,313,46.0535,0.0848154
,,,,,,,,,338,45.9102,0.0631574
