"cellPairingIds","interplanarAngles","angleWeights"
8,46.0505,0.034821
13,31.2904,0.0358507
19,79.4881,0.092243
26,66.3614,0.108526
34,82.0237,0.100335
43,65.2264,0.122936
25,81.0559,0.0308479
42,52.619,0.0317029
63,98.8659,0.0323355
41,37.8163,0.0333715
62,66.9795,0.0346192
50,45.4632,0.0774405
86,88.8181,0.0766379
85,93.4376,0.0979763
99,125.688,0.0875519
98,74.3721,0.0912507
113,79.2009,0.0821419
128,135.878,0.0966952
