Q	U	V
{$V$}	{[mm$^3$]}	0.00674707
{$d_v$}	{[mm]}	0.234444
{$S_c$}	{[mm$^2$]}	0.385887
{$S_o$}	{[mm$^2$]}	0.199523
{$S_l/S_o$}	[]	0.934048
{$\Psi$}	[]	0.447474
{$\eta$}	[]	0.481978
{med($\theta_e$)}	{[$^\circ$]}	64.8823
{$\Upsilon$}	[]	11
{$\Xi$}	[]	10
