Q	U	V
{$V$}	{[mm$^3$]}	0.00595504
{$d_v$}	{[mm]}	0.224886
{$S_c$}	{[mm$^2$]}	0.293229
{$S_o$}	{[mm$^2$]}	0.175103
{$S_l/S_o$}	[]	0.674609
{$\Psi$}	[]	0.541835
{$\eta$}	[]	0.611331
{med($\theta_e$)}	{[$^\circ$]}	59.8722
{$\Upsilon$}	[]	11
{$\Xi$}	[]	11
