"cellPairingIds","interplanarAngles","angleWeights"
8,53.6775,0.00625268
13,81.5401,0.0108368
19,60.4043,0.00895793
26,104.09,0.0123388
53,100.102,0.0118187
64,109.089,0.0130535
18,96.4839,0.00952387
25,40.9918,0.00804154
42,99.1032,0.0102192
52,75.2052,0.0108413
102,63.1699,0.0109817
41,24.9302,0.0382948
51,28.0152,0.0331111
86,91.9059,0.0203939
115,55.7109,0.0110082
131,54.5201,0.0233854
72,24.4803,0.052718
114,74.1152,0.0957573
165,68.116,0.0989958
98,41.7155,0.057332
183,75.8486,0.0704742
182,67.6494,0.0939187
202,80.7778,0.11662
162,32.029,0.0713816
181,46.2038,0.0156691
222,65.1233,0.0731658
243,50.1723,0.17656
242,58.3662,0.017377
265,79.9709,0.0180263
288,87.843,0.13523
