"cellPairingIds","interplanarAngles","angleWeights"
8,90.7826,0.0553265
13,57.8852,0.0305542
19,97.8935,0.043751
26,71.8585,0.0933459
34,87.9771,0.0635039
25,40.9596,0.0422653
42,59.1444,0.0604211
52,49.9878,0.0419098
75,56.447,0.0723029
32,122.438,0.0260999
41,38.3953,0.0382109
74,60.5291,0.0298499
116,102.628,0.0256359
86,106.476,0.0423212
100,53.4164,0.0537265
72,96.0915,0.108828
130,65.8238,0.0762103
147,84.1168,0.0588518
98,40.4383,0.0464397
146,58.1032,0.0550788
145,41.3512,0.0531534
163,58.1459,0.039268
162,89.9567,0.0724666
201,48.8621,0.0411146
200,80.3167,0.0647837
221,57.3275,0.0517967
242,45.5071,0.0385226
