facetNormals:0,facetNormals:1,facetNormals:2,FacetCenters:0,FacetCenters:1,FacetCenters:2,FacetIds,relFacetSize,absFacetSize,cellPairingIds,interplanarAngles,angleWeights
-0.257196,-0.27046,-0.910891,5.26055,7.49094,11.2411,1,0.0145637,0.00066205,8,40.4481,0.0115054
0.373433,-0.00881004,-0.917548,5.26087,7.5211,11.192,2,0.00950861,0.000432252,13,37.2927,0.0216747
0.00420385,0.294534,-0.915343,5.26565,7.52344,11.2251,3,0.0423557,0.00192545,19,90.9994,0.0122472
0.746249,0.518832,-0.346426,5.28227,7.5277,11.2243,4,0.0105666,0.000480346,26,50.9424,0.023456
-0.743589,0.309707,-0.543798,5.19435,7.55579,11.168,5,0.0602342,0.00273819,34,81.8005,0.00523322
0.296441,0.825695,-0.483238,5.25003,7.55612,11.1695,6,0.00318969,0.000145,43,54.427,0.0269413
0.492303,-0.619051,-0.567022,5.25179,7.51364,11.1816,7,0.179486,0.00815926,53,40.0852,0.0224038
-0.801485,-0.238604,-0.514782,5.18821,7.52923,11.1671,8,0.0485284,0.00220605,64,45.2492,0.0175473
-0.422948,-0.789262,-0.389033,5.20883,7.54848,11.1683,9,0.0220685,0.00100321,76,74.8343,0.0220004
-0.875708,0.433942,-0.161647,5.17144,7.57172,11.2329,10,0.0449575,0.00204372,89,79.7228,0.0242504
0.470558,-0.852225,-0.0679786,5.272,7.49779,11.2361,11,0.0724172,0.00329202,103,72.6806,0.0143666
-1.00213,0.0486321,-0.0547446,5.18501,7.55106,11.2219,12,0.0141747,0.000644369,118,112.518,0.0114004
0.435524,0.86836,0.0213546,5.27549,7.54193,11.2123,13,0.00936604,0.000425771,134,69.4937,0.0112363
-0.457457,-0.878969,0.0149798,5.21632,7.50794,11.2344,14,0.00914654,0.000415793,151,70.7284,0.0219542
-0.918113,-0.342559,0.0114021,5.17717,7.52634,11.2106,15,0.0445738,0.00202628,169,99.8387,0.0254265
-0.255758,-0.807041,0.492725,5.22289,7.51369,11.2649,16,0.100059,0.0045486,188,102.441,0.0131513
-0.85367,-0.105651,0.504592,5.17803,7.56442,11.2793,17,0.0119886,0.00054499,208,101.209,0.0260342
-0.628306,-0.524083,0.53882,5.2016,7.52129,11.2554,18,0.122579,0.00557234,229,145.338,0.00474342
-0.279927,0.0323657,0.95163,5.24478,7.54913,11.1985,19,0.00283308,0.000128789,18,28.2868,0.0155307
,,,,,,,,,25,52.0966,0.0100097
,,,,,,,,,33,76.88,0.0164244
,,,,,,,,,42,56.5576,0.00477694
,,,,,,,,,52,42.6099,0.0180604
,,,,,,,,,63,79.6285,0.0159015
,,,,,,,,,75,77.7045,0.0132907
,,,,,,,,,88,100.719,0.0156972
,,,,,,,,,102,75.2829,0.01681
,,,,,,,,,117,109.021,0.011382
,,,,,,,,,133,81.9144,0.00943678
,,,,,,,,,150,100.377,0.00932406
,,,,,,,,,168,111.15,0.0156737
,,,,,,,,,187,123.847,0.0173668
,,,,,,,,,207,142.22,0.0106056
,,,,,,,,,228,138.28,0.0176482
,,,,,,,,,250,174.089,0.00436548
,,,,,,,,,32,59.617,0.0169136
,,,,,,,,,41,51.1787,0.0497371
,,,,,,,,,51,44.5133,0.00593261
,,,,,,,,,62,68.7769,0.0685377
,,,,,,,,,74,65.1007,0.0452324
,,,,,,,,,87,82.5419,0.0290179
,,,,,,,,,101,73.4024,0.0436178
,,,,,,,,,116,101.483,0.0534496
,,,,,,,,,132,86.4265,0.0212409
,,,,,,,,,149,75.24,0.01534
,,,,,,,,,167,106.743,0.0150443
,,,,,,,,,186,97.0214,0.0434364
,,,,,,,,,206,137.083,0.0595173
,,,,,,,,,227,121.188,0.0186877
,,,,,,,,,249,133.648,0.0629573
,,,,,,,,,272,154.688,0.00531093
,,,,,,,,,50,102.576,0.0179791
,,,,,,,,,61,33.002,0.00490018
,,,,,,,,,73,75.1483,0.0199581
,,,,,,,,,86,124.687,0.0173544
,,,,,,,,,100,128.438,0.0142907
,,,,,,,,,115,112.734,0.0171114
,,,,,,,,,131,94.0753,0.0184422
,,,,,,,,,148,136.051,0.0121075
,,,,,,,,,166,35.636,0.00993014
,,,,,,,,,185,146.372,0.0098054
,,,,,,,,,205,155.417,0.0170834
,,,,,,,,,226,144.98,0.0191146
,,,,,,,,,248,153.313,0.0112327
,,,,,,,,,271,166.728,0.019456
,,,,,,,,,295,122.718,0.00446817
,,,,,,,,,72,72.1687,0.00605855
,,,,,,,,,85,105.292,0.0901985
,,,,,,,,,99,32.823,0.0537514
,,,,,,,,,114,72.7348,0.0323022
,,,,,,,,,130,24.8711,0.0514865
,,,,,,,,,147,127.462,0.0657662
,,,,,,,,,165,36.0041,0.0229489
,,,,,,,,,184,94.0395,0.0162113
,,,,,,,,,204,86.4408,0.0158815
,,,,,,,,,225,53.2101,0.051234
,,,,,,,,,247,110.135,0.0751994
,,,,,,,,,270,70.2408,0.0199971
,,,,,,,,,294,89.285,0.080776
,,,,,,,,,319,108.078,0.00541163
,,,,,,,,,98,95.3688,0.00626799
,,,,,,,,,113,100.892,0.00598593
,,,,,,,,,129,127.043,0.00557377
,,,,,,,,,146,79.7341,0.00595675
,,,,,,,,,164,122.93,0.00611025
,,,,,,,,,183,103.238,0.00520754
,,,,,,,,,203,30.8204,0.00475875
,,,,,,,,,224,151.058,0.00472991
,,,,,,,,,246,124.824,0.00595336
,,,,,,,,,269,177.681,0.0061823
,,,,,,,,,293,125.79,0.00503876
,,,,,,,,,318,153.662,0.00621759
,,,,,,,,,344,121.279,0.00300083
,,,,,,,,,128,87.2995,0.0764001
,,,,,,,,,145,58.1795,0.0393044
,,,,,,,,,163,129.107,0.0719044
,,,,,,,,,182,32.8583,0.103197
,,,,,,,,,202,120.236,0.0262744
,,,,,,,,,223,110.765,0.0178031
,,,,,,,,,245,71.2237,0.0174061
,,,,,,,,,268,104.972,0.0714128
,,,,,,,,,292,84.3228,0.128489
,,,,,,,,,317,131.334,0.0224759
,,,,,,,,,343,107.734,0.145672
,,,,,,,,,370,136.227,0.00557812
,,,,,,,,,162,40.6327,0.0303399
,,,,,,,,,181,45.5233,0.0466747
,,,,,,,,,201,98.3284,0.0581135
,,,,,,,,,222,33.8177,0.0219407
,,,,,,,,,244,126.476,0.0157016
,,,,,,,,,267,54.2432,0.015392
,,,,,,,,,291,32.4916,0.0464671
,,,,,,,,,316,81.3962,0.0653582
,,,,,,,,,342,62.667,0.0192272
,,,,,,,,,369,68.5854,0.0695302
,,,,,,,,,397,106.282,0.00535362
,,,,,,,,,200,84.6146,0.0296048
,,,,,,,,,221,58.3417,0.0338282
,,,,,,,,,243,65.5031,0.017262
,,,,,,,,,266,157.726,0.0131508
,,,,,,,,,290,24.3583,0.0129329
,,,,,,,,,315,46.8587,0.0295211
,,,,,,,,,341,54.6391,0.0361615
,,,,,,,,,368,75.2345,0.0155369
,,,,,,,,,396,60.584,0.0374032
,,,,,,,,,425,106.634,0.00502152
,,,,,,,,,242,142.887,0.0554752
,,,,,,,,,265,24.2511,0.0215537
,,,,,,,,,289,90.4777,0.0155024
,,,,,,,,,314,89.022,0.0152005
,,,,,,,,,340,47.6884,0.0447648
,,,,,,,,,367,102.25,0.0620399
,,,,,,,,,395,51.1153,0.0189294
,,,,,,,,,424,75.9443,0.0657868
,,,,,,,,,454,83.8485,0.00533027
,,,,,,,,,288,121.291,0.0237087
,,,,,,,,,313,124.46,0.0165868
,,,,,,,,,339,56.5691,0.0162417
,,,,,,,,,366,98.47,0.0551821
,,,,,,,,,394,56.0436,0.0840232
,,,,,,,,,423,110.824,0.0205716
,,,,,,,,,453,83.1303,0.0910463
,,,,,,,,,484,103.372,0.00545284
,,,,,,,,,338,113.889,0.0112792
,,,,,,,,,365,65.3778,0.0111186
,,,,,,,,,393,23.5369,0.0215093
,,,,,,,,,422,78.8649,0.0248317
,,,,,,,,,452,34.8105,0.0129903
,,,,,,,,,483,54.2832,0.025411
,,,,,,,,,515,76.6654,0.00472232
,,,,,,,,,392,177.708,0.00925499
,,,,,,,,,421,137.057,0.0154795
,,,,,,,,,451,147.379,0.0171287
,,,,,,,,,482,117.855,0.0105163
,,,,,,,,,514,138.889,0.0174024
,,,,,,,,,547,94.3703,0.00435027
,,,,,,,,,450,42.0408,0.0151785
,,,,,,,,,481,30.8083,0.0167609
,,,,,,,,,513,60.2141,0.0103765
,,,,,,,,,546,38.8448,0.0170229
,,,,,,,,,580,83.3521,0.00432616
,,,,,,,,,512,57.4216,0.0616736
,,,,,,,,,545,32.3416,0.0188951
,,,,,,,,,579,37.4172,0.0653751
,,,,,,,,,614,74.6928,0.00532755
,,,,,,,,,578,55.5766,0.0214117
,,,,,,,,,613,27.7656,0.11018
,,,,,,,,,649,58.0561,0.00551015
,,,,,,,,,648,27.876,0.0218411
,,,,,,,,,685,43.6858,0.00458311
,,,,,,,,,722,46.3058,0.00553817
