facetNormals:0,facetNormals:1,facetNormals:2,FacetCenters:0,FacetCenters:1,FacetCenters:2,FacetIds,relFacetSize,absFacetSize,cellPairingIds,interplanarAngles,angleWeights
0.92169,-0.262714,-0.118783,6.16621,7.75984,12.29,1,0.132797,0.041763,8,41.2882,0.0142484
0.897962,0.419442,-0.0153776,6.17097,7.70722,12.3057,2,0.00752808,0.00236749,13,166.288,0.136756
-0.915162,0.0823977,-0.0233885,6.08237,7.74256,12.3421,3,0.140959,0.0443298,19,51.1689,0.0577498
0.435146,-0.841549,0.246828,6.09005,7.85738,12.2957,4,0.0368978,0.0116039,26,131.078,0.153626
-0.383103,0.832559,0.134008,6.07097,7.86429,12.3482,5,0.182205,0.0573013,34,77.8458,0.0565814
0.0228538,-0.874065,0.437157,6.05797,7.71447,12.3933,6,0.0359492,0.0113056,43,49.0107,0.117997
0.777187,0.191564,0.519129,6.15641,7.81179,12.3929,7,0.106166,0.0333877,53,137.912,0.0280078
-0.648413,0.0728201,0.73426,6.02909,7.70867,12.3868,8,0.0156547,0.00492322,64,82.1202,0.0878799
0.157848,-0.335901,0.891438,6.0636,7.75346,12.4503,9,0.0656683,0.0206519,18,149.729,0.0142928
,,,,,,,,,25,87.9941,0.0125049
,,,,,,,,,33,89.8042,0.0144588
,,,,,,,,,42,111.353,0.0124492
,,,,,,,,,52,35.4615,0.0140592
,,,,,,,,,63,125.326,0.010167
,,,,,,,,,75,90.7697,0.0135077
,,,,,,,,,32,121.736,0.0584861
,,,,,,,,,41,60.7436,0.15895
,,,,,,,,,51,96.5926,0.0572881
,,,,,,,,,62,143.796,0.121113
,,,,,,,,,74,49.8447,0.0281798
,,,,,,,,,87,102.558,0.0895964
,,,,,,,,,50,156.93,0.0613681
,,,,,,,,,61,26.9102,0.0364173
,,,,,,,,,73,70.9336,0.0547628
,,,,,,,,,86,99.7101,0.0219828
,,,,,,,,,100,52.8125,0.0472479
,,,,,,,,,72,138.477,0.0600504
,,,,,,,,,85,94.4581,0.13416
,,,,,,,,,99,63.396,0.0288322
,,,,,,,,,114,104.284,0.096542
,,,,,,,,,98,85.248,0.0537111
,,,,,,,,,113,75.3709,0.0218113
,,,,,,,,,129,43.3062,0.0464629
,,,,,,,,,128,96.6677,0.027286
,,,,,,,,,145,55.5524,0.0811448
,,,,,,,,,162,56.1937,0.0252824
