facetNormals:0,facetNormals:1,facetNormals:2,FacetCenters:0,FacetCenters:1,FacetCenters:2,FacetIds,relFacetSize,absFacetSize,cellPairingIds,interplanarAngles,angleWeights
0.338375,-0.307059,-0.868099,7.00379,5.82252,8.66286,1,0.138569,0.0185597,8,56.0929,0.153335
-0.555728,-0.135371,-0.776927,6.90443,5.82922,8.67101,2,0.171623,0.0229869,13,54.9101,0.106232
0.636863,0.477949,-0.549195,7.03291,5.91426,8.68243,3,0.0861322,0.0115364,19,45.7883,0.0378932
0.149994,-0.886704,-0.405146,6.97743,5.76627,8.71746,4,0.0219475,0.00293961,26,39.8124,0.0586025
0.60731,-0.680323,-0.380362,7.05346,5.77078,8.72238,5,0.0371587,0.00497696,34,59.4952,0.0727557
0.920731,0.21609,-0.283987,7.09396,5.85359,8.73339,6,0.0493276,0.00660685,43,119.369,0.0631623
-0.954618,0.120046,0.123009,6.86325,5.83346,8.75659,7,0.0409034,0.00547853,53,81.0048,0.0677591
-0.00320496,-0.974673,0.168731,6.97411,5.74606,8.7605,8,0.0448436,0.00600628,64,75.237,0.0834741
0.391212,-0.873761,0.180987,7.01129,5.74571,8.76038,9,0.0597268,0.0079997,76,132.116,0.0712172
-0.712515,0.630567,0.243564,6.89278,5.90014,8.72915,10,0.0479237,0.00641882,89,147.214,0.0237884
-0.755936,0.0255826,0.633816,6.86927,5.8029,8.76575,11,0.013011,0.00174267,103,149.137,0.0429965
-0.33845,0.733952,0.565146,6.9369,5.92436,8.71546,12,0.0254461,0.0034082,118,127.184,0.0698878
-0.352939,-0.547633,0.71863,6.89926,5.75839,8.76911,13,0.0467275,0.00625859,18,89.505,0.1147
,,,,,,,,,25,68.3261,0.0389181
,,,,,,,,,33,86.9868,0.0610904
,,,,,,,,,42,109.646,0.0766303
,,,,,,,,,52,63.422,0.066062
,,,,,,,,,63,89.842,0.0711075
,,,,,,,,,75,104.776,0.0886147
,,,,,,,,,88,82.6407,0.0749254
,,,,,,,,,102,94.5664,0.0241883
,,,,,,,,,117,111.606,0.0443208
,,,,,,,,,133,107.927,0.0734554
,,,,,,,,,32,96.3649,0.0349813
,,,,,,,,,41,73.5593,0.0519188
,,,,,,,,,51,27.7092,0.06273
,,,,,,,,,62,131.211,0.0554663
,,,,,,,,,74,125.863,0.05898
,,,,,,,,,87,106.513,0.0705393
,,,,,,,,,101,107.531,0.0615829
,,,,,,,,,116,148.894,0.0226071
,,,,,,,,,132,100.579,0.0392859
,,,,,,,,,149,159.911,0.0605863
,,,,,,,,,50,29.4783,0.0275957
,,,,,,,,,61,86.3767,0.0303785
,,,,,,,,,73,108.241,0.0285669
,,,,,,,,,86,35.3891,0.0294711
,,,,,,,,,100,37.724,0.0320995
,,,,,,,,,115,142.125,0.030107
,,,,,,,,,131,113.804,0.016337
,,,,,,,,,148,163.057,0.0235676
,,,,,,,,,166,81.4951,0.0298668
,,,,,,,,,72,57.7833,0.042387
,,,,,,,,,85,137.64,0.0389412
,,,,,,,,,99,52.3549,0.040641
,,,,,,,,,114,37.5567,0.0458143
,,,,,,,,,130,169.545,0.0418602
,,,,,,,,,147,137.384,0.0192735
,,,,,,,,,165,160.72,0.0302067
,,,,,,,,,184,96.8982,0.0413973
,,,,,,,,,98,157.98,0.0447222
,,,,,,,,,113,105.528,0.0469789
,,,,,,,,,129,82.8354,0.0540314
,,,,,,,,,146,127.392,0.0486155
,,,,,,,,,164,153.291,0.0205909
,,,,,,,,,183,108.78,0.0335731
,,,,,,,,,203,132.522,0.0479923
,,,,,,,,,128,95.5738,0.042783
,,,,,,,,,145,118.856,0.0485546
,,,,,,,,,163,34.4223,0.0441361
,,,,,,,,,182,33.0106,0.0197422
,,,,,,,,,202,59.8327,0.0313742
,,,,,,,,,223,67.5313,0.0436219
,,,,,,,,,162,23.9294,0.0512261
,,,,,,,,,181,126.013,0.0463325
,,,,,,,,,201,85.0379,0.0201699
,,,,,,,,,222,129.378,0.0324683
,,,,,,,,,244,46.8551,0.0457662
,,,,,,,,,200,145.186,0.0531782
,,,,,,,,,221,102.212,0.0213673
,,,,,,,,,243,134.328,0.0356877
,,,,,,,,,266,60.1431,0.0524334
,,,,,,,,,242,42.9748,0.0204657
,,,,,,,,,265,29.6714,0.0332418
,,,,,,,,,289,85.1113,0.047318
,,,,,,,,,288,49.4407,0.0172181
,,,,,,,,,313,42.2748,0.0203545
,,,,,,,,,338,82.5736,0.0329492
