"cellPairingIds","interplanarAngles","angleWeights"
8,141.441,0.00713426
13,136.481,0.00934241
19,134.581,0.00938362
34,71.4958,0.00934734
43,91.3186,0.00928589
18,42.9202,0.0254987
25,55.269,0.0258081
32,86.2315,0.178015
41,38.547,0.0388591
51,80.2521,0.165805
50,60.6646,0.0395821
73,80.5822,0.159514
72,90.3694,0.0389445
85,80.414,0.0378995
98,76.2326,0.14964
