"cellPairingIds","interplanarAngles","angleWeights"
8,107.593,0.0144913
13,77.5033,0.0338033
19,41.1438,0.0378811
18,165.623,0.0179006
25,137.285,0.0189826
33,54.9008,0.0198214
63,136.004,0.0194011
75,81.7447,0.0136851
32,54.8238,0.0754387
41,114.941,0.0906887
51,32.2742,0.0562522
61,26.2078,0.0685279
86,36.7845,0.11192
72,139.761,0.0808831
99,129.767,0.149122
114,89.6621,0.0354172
113,30.4485,0.0743148
162,56.6013,0.0340976
