Q	U	V
{$V$}	{[mm$^3$]}	0.00170042
{$d_v$}	{[mm]}	0.148088
{$S_c$}	{[mm$^2$]}	0.124704
{$S_o$}	{[mm$^2$]}	0.073818
{$S_l/S_o$}	[]	0.689344
{$\Psi$}	[]	0.552469
{$\eta$}	[]	0.604775
{med($\theta_e$)}	{[$^\circ$]}	62.54265
{$\Upsilon$}	[]	13
{$\Xi$}	[]	5
