facetNormals:0,facetNormals:1,facetNormals:2,FacetCenters:0,FacetCenters:1,FacetCenters:2,FacetIds,relFacetSize,absFacetSize,cellPairingIds,interplanarAngles,angleWeights
0.0848265,-0.193955,-0.906111,5.55487,4.01318,10.0117,1,0.0623716,0.0238556,8,51.2172,0.0523514
0.520416,0.441192,-0.653344,5.59332,4.11345,10.019,2,0.0451051,0.0172516,13,48.0264,0.06421
-0.440165,-0.642165,-0.564017,5.54578,3.90216,10.1051,3,0.0661599,0.0253046,19,90.1467,0.0870959
-0.939425,0.148234,-0.117155,5.48118,4.01226,10.097,4,0.144295,0.0551892,26,97.2263,0.0301088
-0.960768,-0.225941,0.0864004,5.46418,3.90486,10.1508,5,0.0198441,0.00758987,34,115.424,0.0490652
-0.426571,0.843653,0.206059,5.55363,4.13006,10.0962,6,0.0404381,0.0154666,43,127.17,0.0766931
-0.821426,0.129036,0.4963,5.49216,3.97886,10.2182,7,0.0995515,0.038076,53,131.795,0.0612534
0.144345,0.817685,0.50287,5.58232,4.11938,10.1581,8,0.0601746,0.0230153,64,113.659,0.0699333
0.401259,-0.656309,0.57345,5.56562,3.87717,10.2237,9,0.0795813,0.0304379,76,129.728,0.0504093
0.62786,0.454956,0.608197,5.63489,4.0329,10.2394,10,0.0422971,0.0161776,89,152.73,0.0415699
0.281368,0.4565,0.832629,5.57313,3.99859,10.1845,11,0.0311732,0.011923,18,99.1165,0.0536404
,,,,,,,,,25,112.538,0.0687268
,,,,,,,,,33,134.513,0.0275621
,,,,,,,,,42,89.0226,0.0426443
,,,,,,,,,52,139.426,0.0620819
,,,,,,,,,63,83.2785,0.0515613
,,,,,,,,,75,120.162,0.0575768
,,,,,,,,,88,81.9655,0.043656
,,,,,,,,,102,102.103,0.0368669
,,,,,,,,,32,65.3383,0.0907229
,,,,,,,,,41,56.9643,0.0305307
,,,,,,,,,51,120.366,0.0501957
,,,,,,,,,62,90.0752,0.0794915
,,,,,,,,,74,159.172,0.0630255
,,,,,,,,,87,94.888,0.0722526
,,,,,,,,,101,164.193,0.0516034
,,,,,,,,,116,158.624,0.0423786
,,,,,,,,,50,25.2092,0.0348899
,,,,,,,,,61,57.2439,0.0631723
,,,,,,,,,73,37.8545,0.117818
,,,,,,,,,86,94.52,0.0849309
,,,,,,,,,100,126.078,0.102585
,,,,,,,,,115,128.952,0.0654182
,,,,,,,,,131,108.06,0.0512702
,,,,,,,,,72,75.6847,0.0266233
,,,,,,,,,85,33.185,0.0330918
,,,,,,,,,99,106.925,0.0298458
,,,,,,,,,114,101.387,0.0317669
,,,,,,,,,130,132.014,0.0270142
,,,,,,,,,147,107.897,0.0242508
,,,,,,,,,98,53.1788,0.0575139
,,,,,,,,,113,38.8095,0.0483705
,,,,,,,,,129,130.808,0.0536266
,,,,,,,,,146,75.3391,0.0413467
,,,,,,,,,164,62.8897,0.0352063
,,,,,,,,,128,75.4272,0.0750093
,,,,,,,,,145,98.0238,0.0884533
,,,,,,,,,163,99.3594,0.0593695
,,,,,,,,,182,75.4448,0.0474791
,,,,,,,,,162,101.794,0.0685306
,,,,,,,,,181,36.5491,0.0496764
,,,,,,,,,201,29.999,0.0410702
,,,,,,,,,200,71.3658,0.0552364
,,,,,,,,,221,72.182,0.0447983
,,,,,,,,,242,24.1191,0.0358931
