facetNormals:0,facetNormals:1,facetNormals:2,FacetCenters:0,FacetCenters:1,FacetCenters:2,FacetIds,relFacetSize,absFacetSize,cellPairingIds,interplanarAngles,angleWeights
0.0937824,-0.788541,-0.567805,5.50979,7.46036,9.82436,1,0.0239872,0.00430497,8,46.1324,0.0379342
0.651325,-0.276707,-0.665816,5.53306,7.46717,9.82966,2,0.0906293,0.0162652,13,109.097,0.038846
-0.153507,0.77318,-0.556393,5.43375,7.5705,9.78239,3,0.102077,0.0183198,19,100.295,0.0421046
0.752978,0.505513,-0.285524,5.54826,7.55427,9.85643,4,0.172062,0.0308799,26,70.4225,0.0397519
-0.867064,-0.301589,-0.276755,5.42528,7.50854,9.79201,5,0.115967,0.0208125,34,40.9954,0.0387081
0.601948,-0.744471,-0.118517,5.52522,7.46971,9.80129,6,0.100201,0.0179831,43,126.912,0.0296255
-0.67088,0.684275,-0.0690346,5.44696,7.56187,9.81925,7,0.0387288,0.00695065,53,143.381,0.0320517
0.167856,0.941718,0.0411184,5.50287,7.57844,9.85151,8,0.0482851,0.00866571,64,75.534,0.0140314
-0.0523027,-0.740339,0.607567,5.51371,7.43613,9.90642,9,0.00991588,0.0017796,76,124.709,0.0255834
0.71378,0.368261,0.57151,5.57892,7.52227,9.97101,10,0.0274071,0.00491874,18,86.5432,0.0960133
,,,,,,,,,25,54.1813,0.118724
,,,,,,,,,33,108.591,0.101744
,,,,,,,,,42,43.7611,0.0951752
,,,,,,,,,52,128.438,0.0542674
,,,,,,,,,63,101.07,0.0630035
,,,,,,,,,75,104.525,0.0178759
,,,,,,,,,88,91.048,0.0420868
,,,,,,,,,32,61.7566,0.128137
,,,,,,,,,41,86.6598,0.10858
,,,,,,,,,51,130.304,0.101131
,,,,,,,,,62,43.6758,0.0561529
,,,,,,,,,74,42.6485,0.0655592
,,,,,,,,,87,167.196,0.0180759
,,,,,,,,,101,98.6364,0.0432121
,,,,,,,,,50,142.816,0.138552
,,,,,,,,,61,83.0648,0.126648
,,,,,,,,,73,98.7862,0.0632263
,,,,,,,,,86,49.5432,0.0754086
,,,,,,,,,100,130.074,0.0187511
,,,,,,,,,115,53.2768,0.0472828
,,,,,,,,,72,106.623,0.107509
,,,,,,,,,85,64.6487,0.0580658
,,,,,,,,,99,118.705,0.0681815
,,,,,,,,,114,83.7274,0.0182696
,,,,,,,,,130,159.992,0.0443361
,,,,,,,,,98,167.558,0.0558652
,,,,,,,,,113,130.914,0.0651673
,,,,,,,,,129,61.0649,0.0180459
,,,,,,,,,146,84.7045,0.0430415
,,,,,,,,,128,54.8995,0.0429822
,,,,,,,,,145,123.861,0.0157892
,,,,,,,,,163,106.332,0.0320989
,,,,,,,,,162,137.863,0.016453
,,,,,,,,,181,58.7154,0.0349668
,,,,,,,,,200,87.7415,0.0145629
