"cellPairingIds","interplanarAngles","angleWeights"
25,42.6731,0.0438408
63,102.851,0.040743
102,79.8662,0.0643235
50,76.6047,0.0244862
86,132.434,0.0450374
100,117.812,0.0259269
131,61.472,0.0757226
114,44.6363,0.0169664
147,118.841,0.0297832
162,38.6396,0.0248113
201,160.978,0.0669327
221,155.047,0.0319421
