Q	U	V
{$V$}	{[mm$^3$]}	0.00301374
{$d_v$}	{[mm]}	0.179213
{$S_c$}	{[mm$^2$]}	0.162009
{$S_o$}	{[mm$^2$]}	0.0975766
{$S_l/S_o$}	[]	0.660326
{$\Psi$}	[]	0.6228
{$\eta$}	[]	0.688807
{med($\theta_e$)}	{[$^\circ$]}	55.62335
{$\Upsilon$}	[]	9
{$\Xi$}	[]	10
