facetNormals:0,facetNormals:1,facetNormals:2,FacetCenters:0,FacetCenters:1,FacetCenters:2,FacetIds,relFacetSize,absFacetSize,cellPairingIds,interplanarAngles,angleWeights
-0.102461,0.464866,-0.841364,7.01104,4.75537,11.3115,1,0.0182199,0.00405858,8,39.3135,0.0286819
-0.675366,0.297436,-0.597462,6.98616,4.72837,11.3309,2,0.0673611,0.015005,13,92.9436,0.0338837
0.351815,-0.7801,-0.417676,7.05759,4.65429,11.3843,3,0.241523,0.0538005,19,74.5398,0.0251604
-0.59885,-0.557896,-0.534753,6.93891,4.64121,11.3863,4,0.0406421,0.00905325,26,68.8616,0.0340358
0.324751,0.882109,0.0576252,7.04968,4.78952,11.4261,5,0.257963,0.0574626,34,129.4,0.0217062
-0.452152,-0.738122,0.320338,6.93439,4.62072,11.4924,6,0.0268424,0.0059793,43,130.433,0.0279305
0.61958,0.144083,0.720175,7.11558,4.71233,11.4716,7,0.0598044,0.0133218,18,104.088,0.105342
,,,,,,,,,25,53.0511,0.0506966
,,,,,,,,,33,89.4479,0.106827
,,,,,,,,,42,96.9186,0.0383879
,,,,,,,,,52,152.041,0.0633582
,,,,,,,,,32,61.2436,0.0695763
,,,,,,,,,41,131.818,0.249472
,,,,,,,,,51,71.2208,0.0483152
,,,,,,,,,62,102.319,0.09587
,,,,,,,,,50,141.187,0.0702209
,,,,,,,,,61,55.4875,0.0323314
,,,,,,,,,73,152.934,0.0483955
,,,,,,,,,72,153.736,0.0486252
,,,,,,,,,85,65.879,0.0970982
,,,,,,,,,98,100.118,0.0370538
