facetNormals:0,facetNormals:1,facetNormals:2,FacetCenters:0,FacetCenters:1,FacetCenters:2,FacetIds,relFacetSize,absFacetSize,cellPairingIds,interplanarAngles,angleWeights
0.231185,0.0753951,-0.952166,5.54792,5.186,10.4034,1,0.0235923,0.00476263,8,52.0761,0.0367934
-0.524227,0.379404,-0.703655,5.47417,5.23337,10.4079,2,0.0835358,0.0168636,13,48.6665,0.0412546
0.301339,-0.636882,-0.614549,5.55103,5.13257,10.4414,3,0.16413,0.0331334,19,62.6084,0.0358445
-0.484242,-0.575331,-0.628494,5.45341,5.10586,10.4518,4,0.0745719,0.015054,26,51.4815,0.0266194
0.85385,0.234987,-0.398193,5.62579,5.21789,10.4922,5,0.0305376,0.00616469,34,84.8041,0.0135273
-0.92909,0.172944,-0.304697,5.40773,5.17379,10.4389,6,0.009482,0.00191415,43,63.5137,0.0315265
0.29802,0.865576,-0.302954,5.59062,5.27232,10.4439,7,0.0475015,0.00958924,53,103.324,0.0191391
-0.944037,-0.263273,-0.0169078,5.40369,5.15008,10.4864,8,0.0161001,0.00325016,64,85.1494,0.0388095
0.88588,-0.369868,0.101555,5.62013,5.18014,10.4935,9,0.109325,0.0220697,76,103.865,0.0424978
-0.219206,0.89315,0.253441,5.52334,5.25452,10.5223,10,0.213927,0.0431859,18,87.8953,0.11072
,,,,,,,,,25,59.3368,0.0787998
,,,,,,,,,33,94.8366,0.0447253
,,,,,,,,,42,36.0904,0.0170309
,,,,,,,,,52,65.2898,0.0605641
,,,,,,,,,63,64.2635,0.026997
,,,,,,,,,75,137.115,0.0947062
,,,,,,,,,88,72.4198,0.120153
,,,,,,,,,32,48.5341,0.10255
,,,,,,,,,41,67.1619,0.0514943
,,,,,,,,,51,102.622,0.0179283
,,,,,,,,,62,107.779,0.0736793
,,,,,,,,,74,96.6679,0.0293237
,,,,,,,,,87,60.8151,0.131236
,,,,,,,,,101,152.436,0.185749
,,,,,,,,,50,108.275,0.0433309
,,,,,,,,,61,56.1612,0.0168247
,,,,,,,,,73,118.567,0.0580352
,,,,,,,,,86,49.8642,0.0264826
,,,,,,,,,100,107.215,0.0886646
,,,,,,,,,115,127.335,0.110593
,,,,,,,,,72,130.905,0.0144708
,,,,,,,,,85,51.8405,0.0371758
,,,,,,,,,99,154.801,0.0210841
,,,,,,,,,114,47.8481,0.04774
,,,,,,,,,130,94.8435,0.0534459
,,,,,,,,,98,92.0878,0.0158084
,,,,,,,,,113,30.7206,0.011935
,,,,,,,,,129,163.27,0.0174505
,,,,,,,,,146,72.749,0.0181591
,,,,,,,,,128,122.231,0.024049
,,,,,,,,,145,95.3569,0.0662274
,,,,,,,,,163,46.6892,0.077741
,,,,,,,,,162,141.511,0.0280668
,,,,,,,,,181,91.9912,0.0299464
,,,,,,,,,200,122.796,0.144702
