"cellPairingIds","interplanarAngles","angleWeights"
13,38.1491,0.0479485
19,47.9173,0.0708661
43,98.8148,0.0232955
53,83.5521,0.0473417
51,35.7236,0.0331092
62,108.462,0.0201588
74,77.5517,0.0359681
116,92.1846,0.0535473
132,127.481,0.0298033
73,126.144,0.023331
86,51.1891,0.0474883
115,72.8286,0.0951371
148,98.0173,0.0373013
98,84.8998,0.0191299
164,84.2278,0.0468536
163,94.1341,0.025428
182,125.135,0.0245422
202,117.39,0.0179777
222,59.1691,0.0295677
265,55.7268,0.0429664
288,40.5929,0.0404967
