facetNormals:0,facetNormals:1,facetNormals:2,FacetCenters:0,FacetCenters:1,FacetCenters:2,FacetIds,relFacetSize,absFacetSize,cellPairingIds,interplanarAngles,angleWeights
0.540556,0.477961,-0.651176,5.50106,7.60194,10.9974,1,0.00942757,0.000636904,8,80.7306,0.0167433
-0.257266,-0.476087,-0.794031,5.43052,7.5633,10.9722,2,0.0747464,0.00504969,13,67.2701,0.0147977
0.315177,-0.57922,-0.731486,5.46698,7.55535,10.9728,3,0.0343828,0.00232282,19,36.9597,0.0135818
0.698593,-0.121972,-0.688223,5.4972,7.60727,10.9711,4,0.0242815,0.0016404,26,92.6503,0.0169561
-0.740356,-0.0784049,-0.605886,5.4573,7.59502,10.9893,5,0.0841743,0.00568661,34,56.2396,0.011699
-0.286543,0.80698,-0.446681,5.49006,7.54598,11.0362,6,0.0154122,0.00104121,43,81.1631,0.0126135
0.557554,-0.749808,-0.313508,5.51901,7.59725,11.0438,7,0.019052,0.0012871,53,72.7223,0.0178458
0.866955,-0.434347,-0.0291876,5.50315,7.57376,11.0142,8,0.166688,0.0112611,64,55.1845,0.00585861
0.947977,0.24618,0.126102,5.54881,7.62801,11.0624,9,0.00424978,0.000287105,76,103.833,0.016579
-0.887543,0.411473,-0.0843338,5.48937,7.5413,11.0042,10,0.068669,0.00463912,89,94.5029,0.0147212
-0.551212,0.778177,0.228518,5.53716,7.61726,11.0534,11,0.0335725,0.00226807,103,118.771,0.0136986
0.324094,-0.848759,0.343956,5.45881,7.53159,11.0314,12,0.0250446,0.00169195,118,120.835,0.0144608
-0.718219,0.460828,0.497891,5.51209,7.58865,11.0743,13,0.0310245,0.00209594,134,147.752,0.0144287
-0.683196,0.0426181,0.700777,5.43218,7.56502,11.0515,14,0.0307308,0.0020761,151,102.001,0.0109949
-0.154592,0.690549,0.683983,5.47289,7.59902,11.0544,15,0.0131874,0.000890906,169,135.69,0.0169911
0.0400267,-0.151484,0.942358,5.4564,7.56204,11.0548,16,0.0859345,0.00580553,18,34.9674,0.0470999
,,,,,,,,,25,63.4246,0.0366554
,,,,,,,,,33,39.7746,0.0791807
,,,,,,,,,42,87.27,0.0255551
,,,,,,,,,52,60.7692,0.0303644
,,,,,,,,,63,89.5744,0.103211
,,,,,,,,,75,119.082,0.00804231
,,,,,,,,,88,83.9526,0.0715789
,,,,,,,,,102,115.801,0.0463339
,,,,,,,,,117,87.0775,0.0375182
,,,,,,,,,133,116.93,0.0438489
,,,,,,,,,150,115.211,0.0435548
,,,,,,,,,168,151.628,0.0224193
,,,,,,,,,187,138.4,0.0799509
,,,,,,,,,32,35.3033,0.0284625
,,,,,,,,,41,74.3339,0.0488228
,,,,,,,,,51,104.054,0.0212839
,,,,,,,,,62,30.1456,0.0245181
,,,,,,,,,74,55.1332,0.0570068
,,,,,,,,,87,86.2299,0.00756456
,,,,,,,,,101,118.16,0.0458222
,,,,,,,,,116,145.054,0.0339728
,,,,,,,,,132,69.0446,0.02898
,,,,,,,,,149,151.798,0.0326174
,,,,,,,,,167,141.27,0.0324544
,,,,,,,,,186,168.277,0.0190631
,,,,,,,,,206,128.757,0.0491146
,,,,,,,,,50,95.4844,0.0376905
,,,,,,,,,61,89.4711,0.018856
,,,,,,,,,73,44.3281,0.0213512
,,,,,,,,,86,44.93,0.0423883
,,,,,,,,,100,56.0184,0.00723354
,,,,,,,,,115,129.116,0.0358769
,,,,,,,,,131,131.118,0.0281809
,,,,,,,,,148,84.4278,0.0246571
,,,,,,,,,166,157.286,0.0272419
,,,,,,,,,185,175.261,0.0271281
,,,,,,,,,205,132.973,0.017092
,,,,,,,,,226,129.629,0.0378642
,,,,,,,,,72,63.0957,0.026054
,,,,,,,,,85,99.986,0.0310713
,,,,,,,,,99,129.325,0.111861
,,,,,,,,,114,147.287,0.00809106
,,,,,,,,,130,44.1799,0.0756352
,,,,,,,,,147,77.1947,0.0480003
,,,,,,,,,165,114.17,0.0386034
,,,,,,,,,184,78.1994,0.0453384
,,,,,,,,,204,85.2494,0.045024
,,,,,,,,,225,112.014,0.0228023
,,,,,,,,,247,129.943,0.0850453
,,,,,,,,,98,131.024,0.0170399
,,,,,,,,,113,128.704,0.0282156
,,,,,,,,,129,97.7915,0.00666245
,,,,,,,,,146,48.8516,0.0251743
,,,,,,,,,164,43.7782,0.021126
,,,,,,,,,183,173.078,0.0190817
,,,,,,,,,203,68.141,0.0205939
,,,,,,,,,224,95.0245,0.0205288
,,,,,,,,,246,71.8543,0.0142132
,,,,,,,,,269,126.951,0.0261368
,,,,,,,,,128,31.1575,0.0341955
,,,,,,,,,145,71.7726,0.00694941
,,,,,,,,,163,143.401,0.0298282
,,,,,,,,,182,174.771,0.0243089
,,,,,,,,,202,42.2009,0.0216411
,,,,,,,,,223,157.882,0.023607
,,,,,,,,,245,130.933,0.0235215
,,,,,,,,,268,147.537,0.0155862
,,,,,,,,,292,99.7556,0.0311892
,,,,,,,,,162,42.0609,0.00828825
,,,,,,,,,181,173.126,0.0972676
,,,,,,,,,201,149.842,0.0558885
,,,,,,,,,222,47.2606,0.0435464
,,,,,,,,,244,150.886,0.0523124
,,,,,,,,,267,131.625,0.0518944
,,,,,,,,,291,118.388,0.0244411
,,,,,,,,,316,85.4826,0.113405
,,,,,,,,,200,140.733,0.0080042
,,,,,,,,,221,108.181,0.00754453
,,,,,,,,,243,81.5083,0.00726651
,,,,,,,,,266,121.146,0.00747555
,,,,,,,,,290,124.562,0.00746695
,,,,,,,,,315,83.5189,0.00642805
,,,,,,,,,341,82.7234,0.00809903
,,,,,,,,,242,34.8542,0.0450969
,,,,,,,,,265,134.274,0.036703
,,,,,,,,,289,35.9753,0.0427394
,,,,,,,,,314,54.0435,0.0424599
,,,,,,,,,340,67.8939,0.0221257
,,,,,,,,,367,100.897,0.0763377
,,,,,,,,,288,142.972,0.0286882
,,,,,,,,,313,26.3358,0.0322482
,,,,,,,,,339,53.6126,0.0320888
,,,,,,,,,366,36.1909,0.0189364
,,,,,,,,,394,85.3833,0.0482822
,,,,,,,,,338,118.139,0.0277156
,,,,,,,,,365,90.9968,0.0275978
,,,,,,,,,393,114.795,0.0172773
,,,,,,,,,422,59.8816,0.0387855
,,,,,,,,,392,27.4041,0.0308769
,,,,,,,,,421,37.6547,0.0185077
,,,,,,,,,451,66.8772,0.0455899
,,,,,,,,,450,50.4142,0.0184551
,,,,,,,,,481,47.9679,0.045272
,,,,,,,,,512,55.408,0.0228658
