facetNormals:0,facetNormals:1,facetNormals:2,FacetCenters:0,FacetCenters:1,FacetCenters:2,FacetIds,relFacetSize,absFacetSize,cellPairingIds,interplanarAngles,angleWeights
-0.362685,0.3738,-0.800209,5.5338,4.34304,9.53207,1,0.0358232,0.0103044,8,71.0787,0.0590787
0.0363915,-0.645338,-0.681303,5.55089,4.22627,9.58434,2,0.168398,0.0484392,13,71.2779,0.0263016
0.724378,0.294815,-0.558693,5.68584,4.24794,9.66939,3,0.0207787,0.00597692,19,48.7137,0.0471196
-0.917965,0.0205967,-0.347127,5.4592,4.292,9.62392,4,0.0688218,0.0197964,26,78.7931,0.0467116
-0.906161,-0.35339,0.0200334,5.46753,4.2632,9.63712,5,0.0671094,0.0193038,34,119.801,0.0407212
0.231189,-0.94681,0.0311654,5.61636,4.15948,9.69229,6,0.0471706,0.0135685,43,137.832,0.0445253
0.624163,-0.704297,0.248966,5.62362,4.19322,9.74061,7,0.0588116,0.016917,53,103.478,0.0259977
0.621488,0.680233,0.306071,5.59263,4.31047,9.74937,8,0.0204019,0.00586854,64,80.9331,0.0508231
-0.878511,0.169132,0.299772,5.46801,4.27782,9.73137,9,0.087433,0.0251498,76,150.838,0.0301016
0.22008,-0.781609,0.567083,5.56193,4.17337,9.76636,10,0.025956,0.00746617,89,92.8535,0.0387426
-0.232929,0.762874,0.518439,5.5034,4.34526,9.743,11,0.04218,0.0121329,103,119.42,0.0342977
0.138996,0.573898,0.777094,5.60344,4.30493,9.79054,12,0.0328969,0.00946268,118,176.108,0.0331152
0.433331,-0.390013,0.794589,5.65461,4.23281,9.78456,13,0.0307878,0.00885602,134,149.718,0.0331447
-0.12785,-0.470644,0.830008,5.60929,4.21956,9.76851,14,0.0308388,0.0088707,18,76.106,0.0369928
,,,,,,,,,25,78.1185,0.0977107
,,,,,,,,,33,78.5458,0.0959723
,,,,,,,,,42,49.2155,0.0736975
,,,,,,,,,52,70.3377,0.0871773
,,,,,,,,,63,133.262,0.0363945
,,,,,,,,,75,112.939,0.115104
,,,,,,,,,88,82.211,0.0449792
,,,,,,,,,102,162.919,0.0674622
,,,,,,,,,117,167.467,0.0550413
,,,,,,,,,133,107.214,0.052058
,,,,,,,,,150,107.138,0.0521309
,,,,,,,,,32,119.525,0.03192
,,,,,,,,,41,145.63,0.0317323
,,,,,,,,,51,97.9161,0.0288492
,,,,,,,,,62,83.5319,0.030708
,,,,,,,,,74,59.063,0.0205886
,,,,,,,,,87,146.246,0.0335776
,,,,,,,,,101,114.043,0.0230806
,,,,,,,,,116,104.794,0.0278419
,,,,,,,,,132,100.086,0.0254698
,,,,,,,,,149,104.991,0.0248118
,,,,,,,,,167,138.697,0.0248284
,,,,,,,,,50,31.1126,0.0679548
,,,,,,,,,61,104.678,0.0559755
,,,,,,,,,73,134.848,0.0634242
,,,,,,,,,86,134.058,0.0314736
,,,,,,,,,100,40.3487,0.077019
,,,,,,,,,115,115.267,0.0376953
,,,,,,,,,131,86.9573,0.0523037
,,,,,,,,,148,113.729,0.0445154
,,,,,,,,,166,134.797,0.0425435
,,,,,,,,,185,101.008,0.0425922
,,,,,,,,,72,82.3842,0.0554006
,,,,,,,,,85,109.218,0.0626871
,,,,,,,,,99,147.592,0.031291
,,,,,,,,,114,36.0308,0.0759348
,,,,,,,,,130,84.7511,0.0374337
,,,,,,,,,147,92.9813,0.0518014
,,,,,,,,,165,109.26,0.044151
,,,,,,,,,184,104.43,0.0422106
,,,,,,,,,204,71.3946,0.0422586
,,,,,,,,,98,30.3799,0.0523518
,,,,,,,,,113,121.228,0.028484
,,,,,,,,,129,112.622,0.0612802
,,,,,,,,,146,33.1506,0.033486
,,,,,,,,,164,145.011,0.0445359
,,,,,,,,,183,120.779,0.0387614
,,,,,,,,,203,59.0517,0.0372578
,,,,,,,,,224,61.9164,0.0372951
,,,,,,,,,128,90.9079,0.0302945
,,,,,,,,,145,130.199,0.0703216
,,,,,,,,,163,30.696,0.0360165
,,,,,,,,,182,126.713,0.0491263
,,,,,,,,,202,97.4975,0.0421928
,,,,,,,,,223,39.2441,0.0404172
,,,,,,,,,245,60.7206,0.0404612
,,,,,,,,,162,111.732,0.0330839
,,,,,,,,,181,103.307,0.0228462
,,,,,,,,,201,54.767,0.0275016
,,,,,,,,,222,41.0495,0.0251848
,,,,,,,,,244,75.0271,0.0245412
,,,,,,,,,267,98.9596,0.0245574
,,,,,,,,,200,99.5813,0.0400288
,,,,,,,,,221,56.9846,0.0569067
,,,,,,,,,243,76.9518,0.0478064
,,,,,,,,,266,102.954,0.0455397
,,,,,,,,,290,71.9441,0.0455955
,,,,,,,,,242,112.038,0.0321364
,,,,,,,,,265,88.6542,0.0290171
,,,,,,,,,289,29.3489,0.0281662
,,,,,,,,,314,31.7927,0.0281875
,,,,,,,,,288,29.4743,0.0369645
,,,,,,,,,313,89.1762,0.0355946
,,,,,,,,,339,83.6654,0.0356287
,,,,,,,,,338,61.8442,0.0318074
,,,,,,,,,365,67.6607,0.0318346
,,,,,,,,,392,33.8787,0.0308133
