facetNormals:0,facetNormals:1,facetNormals:2,FacetCenters:0,FacetCenters:1,FacetCenters:2,FacetIds,relFacetSize,absFacetSize,cellPairingIds,interplanarAngles,angleWeights
0.206891,-0.35191,-0.862437,4.7265,7.87103,10.2448,1,0.0106369,0.00112976,8,91.1281,0.0159871
0.34153,0.869509,-0.251792,4.71661,7.86576,10.2463,2,0.0321663,0.00341643,13,87.0754,0.0170624
-0.872389,-0.451593,-0.0806488,4.60968,7.72427,10.2118,3,0.0430952,0.00457721,19,108.588,0.0196562
-0.590724,0.715807,-0.104413,4.63403,7.82073,10.2142,4,0.129253,0.0137281,26,88.8309,0.0156237
0.914472,0.253009,0.0946105,4.75735,7.82213,10.2893,5,0.0294131,0.00312401,34,100.413,0.0184228
-0.956989,0.147475,-0.0951919,4.60847,7.76438,10.2265,6,0.0687334,0.00730027,43,83.3157,0.0183485
-0.469202,-0.838798,0.105197,4.6361,7.6903,10.244,7,0.0667192,0.00708635,53,112.154,0.0119861
0.575074,0.75708,0.23792,4.7573,7.85842,10.2858,8,0.0137274,0.001458,64,76.9947,0.0175323
0.586199,-0.728279,0.19977,4.72745,7.74595,10.3122,9,0.0498431,0.00529391,76,118.438,0.0178195
-0.931486,-0.0353424,0.308236,4.60305,7.75471,10.2313,10,0.0548728,0.00582812,89,110.666,0.0159297
0.366501,-0.574591,0.705332,4.70948,7.72231,10.311,11,0.0317065,0.0033676,103,167.328,0.0199539
-0.260746,0.527684,0.758251,4.69359,7.82741,10.3064,12,0.160809,0.0170797,118,144.771,0.0180713
0.0874171,-0.141162,0.95129,4.70027,7.78885,10.302,13,0.0600235,0.00637518,134,161.887,0.0165246
-0.336525,0.080367,0.92306,4.69314,7.78058,10.324,14,0.0370112,0.00393101,18,134.66,0.0368373
,,,,,,,,,25,60.3551,0.0515129
,,,,,,,,,33,56.5523,0.0307282
,,,,,,,,,42,100.692,0.0438237
,,,,,,,,,52,168.321,0.043406
,,,,,,,,,63,33.0497,0.0192427
,,,,,,,,,75,121.504,0.0390996
,,,,,,,,,88,116.677,0.0405578
,,,,,,,,,102,125.573,0.0319348
,,,,,,,,,117,78.8965,0.0536093
,,,,,,,,,133,110.842,0.0418861
,,,,,,,,,150,106.914,0.0344191
,,,,,,,,,32,77.4191,0.0646388
,,,,,,,,,41,168.104,0.0349633
,,,,,,,,,51,35.9892,0.0529754
,,,,,,,,,62,35.104,0.0523662
,,,,,,,,,74,153.272,0.0208221
,,,,,,,,,87,102.168,0.0462242
,,,,,,,,,101,33.8456,0.0482761
,,,,,,,,,116,96.9594,0.0365339
,,,,,,,,,132,94.3632,0.0679741
,,,,,,,,,149,95.3795,0.0501699
,,,,,,,,,167,79.1532,0.0398222
,,,,,,,,,50,114.477,0.0479212
,,,,,,,,,61,41.4752,0.0897435
,,,,,,,,,73,111.725,0.088009
,,,,,,,,,86,78.8262,0.0248188
,,,,,,,,,100,174.315,0.0719431
,,,,,,,,,115,57.4926,0.0770395
,,,,,,,,,131,139.975,0.0509217
,,,,,,,,,148,59.6791,0.143314
,,,,,,,,,166,106.226,0.0819776
,,,,,,,,,185,79.9954,0.0575446
,,,,,,,,,72,155.894,0.0411969
,,,,,,,,,85,133.221,0.0408275
,,,,,,,,,99,37.6453,0.0187186
,,,,,,,,,114,66.0047,0.036995
,,,,,,,,,130,152.66,0.0382978
,,,,,,,,,147,74.0811,0.0305168
,,,,,,,,,165,92.0786,0.0497302
,,,,,,,,,184,81.618,0.03948
,,,,,,,,,204,102.29,0.0327776
,,,,,,,,,98,70.4164,0.0677113
,,,,,,,,,113,118.935,0.0228843
,,,,,,,,,129,137.649,0.0577835
,,,,,,,,,146,26.2314,0.061026
,,,,,,,,,164,121.783,0.043395
,,,,,,,,,183,74.1437,0.0963041
,,,,,,,,,203,101.98,0.0640838
,,,,,,,,,224,75.1361,0.0481141
,,,,,,,,,128,158.207,0.0227699
,,,,,,,,,145,67.2897,0.0570595
,,,,,,,,,163,58.2772,0.060219
,,,,,,,,,182,66.0993,0.0429854
,,,,,,,,,202,105.02,0.0943096
,,,,,,,,,223,79.043,0.0631945
,,,,,,,,,245,78.6488,0.047611
,,,,,,,,,162,100.251,0.0215262
,,,,,,,,,181,120.551,0.0219609
,,,,,,,,,201,93.3657,0.0191596
,,,,,,,,,222,62.8036,0.0252954
,,,,,,,,,244,79.6684,0.0223445
,,,,,,,,,267,84.8374,0.0200268
,,,,,,,,,200,119.257,0.0522372
,,,,,,,,,221,34.3407,0.038758
,,,,,,,,,243,114.853,0.0760991
,,,,,,,,,266,68.1164,0.0544616
,,,,,,,,,290,94.3452,0.0424792
,,,,,,,,,242,96.1807,0.0401904
,,,,,,,,,265,60.9263,0.0818246
,,,,,,,,,289,76.7823,0.0573327
,,,,,,,,,314,52.053,0.0442059
,,,,,,,,,288,81.6909,0.0529692
,,,,,,,,,313,34.117,0.0414943
,,,,,,,,,339,60.1282,0.0341541
,,,,,,,,,338,47.6837,0.0874175
,,,,,,,,,365,28.6893,0.0601731
,,,,,,,,,392,28.4039,0.0457886
