facetNormals:0,facetNormals:1,facetNormals:2,FacetCenters:0,FacetCenters:1,FacetCenters:2,FacetIds,relFacetSize,absFacetSize,cellPairingIds,interplanarAngles,angleWeights
-0.0144849,-0.151023,-0.951805,4.58962,6.25511,10.6343,1,0.0160928,0.00327155,8,33.124,0.0147621
-0.528749,-0.250965,-0.777328,4.49625,6.23972,10.6581,2,0.0136346,0.00277182,13,35.4388,0.0177716
0.0950682,-0.665074,-0.691111,4.61549,6.14399,10.6792,3,0.0198416,0.00403366,19,51.625,0.0294165
0.731517,-0.0785311,-0.592519,4.67967,6.24034,10.6905,4,0.170959,0.0347549,26,58.6201,0.0258169
-0.222239,0.710785,-0.620525,4.56559,6.32437,10.668,5,0.0652368,0.0132622,34,93.0665,0.026961
-0.462365,0.833108,-0.0733854,4.5449,6.32762,10.6926,6,0.0830453,0.0168825,43,70.7873,0.0234573
0.146883,-0.954366,-0.177995,4.60571,6.10899,10.7355,7,0.0432494,0.0087923,53,76.4894,0.0108669
-0.831895,-0.527611,-0.138982,4.47894,6.22921,10.7079,8,0.00820304,0.00166762,64,98.7146,0.0106473
0.59006,0.796209,0.0167545,4.70542,6.28774,10.7471,9,0.00795539,0.00161727,76,129.756,0.0255977
-0.737612,-0.00507751,0.647762,4.50175,6.2144,10.7653,10,0.0625299,0.0127119,89,136.716,0.0175327
0.546237,-0.295366,0.764708,4.69754,6.22211,10.8151,11,0.0192556,0.00391453,103,137.281,0.0265242
0.149627,0.735989,0.59276,4.64425,6.3297,10.7743,12,0.0753969,0.0153277,118,144.314,0.0224592
-0.497212,0.388569,0.755597,4.54778,6.30238,10.7847,13,0.0371602,0.00755441,134,146.575,0.0261061
0.0614973,-0.39652,0.877297,4.6334,6.16811,10.8096,14,0.0691056,0.0140487,151,156.58,0.0258849
-0.324703,-0.0528628,0.92968,4.58441,6.21188,10.8117,15,0.0661138,0.0134405,18,45.798,0.0161627
,,,,,,,,,25,84.1616,0.025255
,,,,,,,,,33,63.4582,0.0225551
,,,,,,,,,42,84.2947,0.0234235
,,,,,,,,,52,71.686,0.020733
,,,,,,,,,63,45.3497,0.0102433
,,,,,,,,,75,122.969,0.010048
,,,,,,,,,88,96.7479,0.0223876
,,,,,,,,,102,147.58,0.0159648
,,,,,,,,,117,141.106,0.0230931
,,,,,,,,,133,116.136,0.0199495
,,,,,,,,,150,130.928,0.0227756
,,,,,,,,,168,124.081,0.022607
,,,,,,,,,32,54.3033,0.0355565
,,,,,,,,,41,93.9893,0.0304285
,,,,,,,,,51,126.456,0.0320304
,,,,,,,,,62,35.3698,0.0272032
,,,,,,,,,74,67.4408,0.0116073
,,,,,,,,,87,120.511,0.0113572
,,,,,,,,,101,122.935,0.0301244
,,,,,,,,,116,107.16,0.0195442
,,,,,,,,,132,163.657,0.0314158
,,,,,,,,,149,150.753,0.02587
,,,,,,,,,167,111.233,0.030831
,,,,,,,,,186,132.179,0.0305229
,,,,,,,,,50,80.6175,0.0944371
,,,,,,,,,61,113.514,0.111788
,,,,,,,,,73,71.9195,0.0690345
,,,,,,,,,86,121.052,0.0156549
,,,,,,,,,100,67.4418,0.0152033
,,,,,,,,,115,174.446,0.091568
,,,,,,,,,131,91.8676,0.0346127
,,,,,,,,,148,109.356,0.104644
,,,,,,,,,166,154.871,0.0610504
,,,,,,,,,185,119.135,0.0984254
,,,,,,,,,205,147.333,0.0953526
,,,,,,,,,72,36.9346,0.0730717
,,,,,,,,,85,129.121,0.052015
,,,,,,,,,99,96.1848,0.0145736
,,,,,,,,,114,63.7862,0.0141814
,,,,,,,,,130,104.71,0.0638547
,,,,,,,,,147,147.556,0.0297346
,,,,,,,,,165,82.4379,0.0699498
,,,,,,,,,184,94.9402,0.0473493
,,,,,,,,,204,153.915,0.0671155
,,,,,,,,,225,124.561,0.0656724
,,,,,,,,,98,154.934,0.0568774
,,,,,,,,,113,92.696,0.0149312
,,,,,,,,,129,65.7335,0.0145198
,,,,,,,,,146,72.0396,0.071342
,,,,,,,,,164,126.107,0.0312624
,,,,,,,,,183,56.8134,0.0790365
,,,,,,,,,203,58.0265,0.0513451
,,,,,,,,,224,117.323,0.0754369
,,,,,,,,,246,87.6973,0.0736186
,,,,,,,,,128,65.4355,0.0137905
,,,,,,,,,145,134.012,0.0134388
,,,,,,,,,163,103.12,0.0511325
,,,,,,,,,182,76.4871,0.0266472
,,,,,,,,,202,146.783,0.0549679
,,,,,,,,,223,126.752,0.0399743
,,,,,,,,,245,75.8658,0.0532024
,,,,,,,,,268,99.6744,0.0522915
,,,,,,,,,162,157.849,0.00807732
,,,,,,,,,181,57.3939,0.0145034
,,,,,,,,,201,114.4,0.0115049
,,,,,,,,,222,128.702,0.0147963
,,,,,,,,,244,83.9278,0.0134394
,,,,,,,,,267,87.8431,0.0146653
,,,,,,,,,291,80.0928,0.0145952
,,,,,,,,,200,116.124,0.014115
,,,,,,,,,221,84.1244,0.0112591
,,,,,,,,,243,43.8211,0.0143922
,,,,,,,,,266,88.317,0.0131052
,,,,,,,,,290,106.073,0.0142682
,,,,,,,,,315,102.893,0.0142019
,,,,,,,,,242,84.4255,0.0294441
,,,,,,,,,265,73.3026,0.0683632
,,,,,,,,,289,27.8816,0.0466169
,,,,,,,,,314,56.3381,0.0656535
,,,,,,,,,340,29.5731,0.0642719
,,,,,,,,,288,70.3053,0.0306767
,,,,,,,,,313,78.6142,0.0253667
,,,,,,,,,339,30.1701,0.0301189
,,,,,,,,,366,55.5758,0.0298247
,,,,,,,,,338,45.5607,0.0497839
,,,,,,,,,365,75.0964,0.0721143
,,,,,,,,,393,60.5725,0.0704509
,,,,,,,,,392,59.7643,0.0483312
,,,,,,,,,421,29.6911,0.0475783
,,,,,,,,,450,30.8689,0.0675766
