Q	U	V
{$V$}	{[mm$^3$]}	0.00285581
{$d_v$}	{[mm]}	0.176026
{$S_c$}	{[mm$^2$]}	0.135452
{$S_o$}	{[mm$^2$]}	0.0780772
{$S_l/S_o$}	[]	0.734847
{$\Psi$}	[]	0.718651
{$\eta$}	[]	0.741237
{med($\theta_e$)}	{[$^\circ$]}	57.05
{$\Upsilon$}	[]	13
{$\Xi$}	[]	7
