facetNormals:0,facetNormals:1,facetNormals:2,FacetCenters:0,FacetCenters:1,FacetCenters:2,FacetIds,relFacetSize,absFacetSize,cellPairingIds,interplanarAngles,angleWeights
-0.517243,0.478858,-0.650146,3.98601,6.65437,9.95162,1,0.188765,0.0128105,8,67.1526,0.156809
-0.490089,-0.587476,-0.599382,3.98471,6.54906,9.94061,2,0.134107,0.00910118,13,69.016,0.0960539
-0.86734,-0.369446,-0.0818929,3.93473,6.57694,9.98038,3,0.0644162,0.00437161,19,46.1769,0.0660939
-0.231863,0.933388,-0.117612,4.00128,6.69222,9.97979,4,0.0400603,0.0027187,26,109.109,0.0166054
-0.42969,-0.878392,0.174506,3.9787,6.53117,9.98762,5,0.0086847,0.000589388,34,56.6556,0.0265777
-0.967645,0.165879,0.0925465,3.92173,6.62393,9.99191,6,0.0142952,0.000970146,43,138.185,0.0414192
0.243961,-0.907411,0.191771,4.00455,6.52633,9.98467,7,0.0232616,0.00157865,53,77.2486,0.0222556
-0.0308367,0.912919,0.375426,3.99306,6.68561,9.99685,8,0.0118249,0.000802498,64,83.8885,0.0580117
-0.776422,0.157845,0.579796,3.92941,6.62916,10.0196,9,0.0342722,0.00232588,76,123.323,0.0189005
0.582658,0.445427,0.668722,4.03936,6.68773,9.99269,10,0.00994829,0.000675142,89,101.848,0.0509595
0.205312,0.709198,0.65862,4.01035,6.65725,10.0215,11,0.0294558,0.00199902,103,109.114,0.0711688
-0.577736,-0.249913,0.747553,4.00067,6.58613,10.0392,12,0.0438508,0.00297594,118,101.079,0.0289972
-0.467356,0.246723,0.833192,3.95064,6.64182,10.031,13,0.0157049,0.00106581,134,154.678,0.0899514
0.136544,-0.458225,0.824003,3.98617,6.56085,10.0252,14,0.0590437,0.004007,151,128.716,0.139032
0.0682097,0.154252,0.943895,3.97755,6.63674,10.0296,15,0.11004,0.0074679,18,41.2751,0.0870293
,,,,,,,,,25,112.754,0.061692
,,,,,,,,,33,49.8848,0.016313
,,,,,,,,,42,70.4117,0.0258364
,,,,,,,,,52,71.3163,0.0396464
,,,,,,,,,63,141.029,0.0217334
,,,,,,,,,75,93.5891,0.0545927
,,,,,,,,,88,169.366,0.0185226
,,,,,,,,,102,161.525,0.0483022
,,,,,,,,,117,91.0925,0.0660909
,,,,,,,,,133,115.663,0.028117
,,,,,,,,,150,108.358,0.0819896
,,,,,,,,,168,137.75,0.120888
,,,,,,,,,32,98.4101,0.0493993
,,,,,,,,,41,43.4034,0.0153058
,,,,,,,,,51,34.3503,0.023398
,,,,,,,,,62,83.1691,0.0341803
,,,,,,,,,74,111.418,0.0199817
,,,,,,,,,87,52.3406,0.0447405
,,,,,,,,,101,140.497,0.0172349
,,,,,,,,,116,121.847,0.0404259
,,,,,,,,,132,54.8665,0.0521803
,,,,,,,,,149,74.7253,0.025253
,,,,,,,,,167,91.0564,0.0616131
,,,,,,,,,186,102.31,0.0812625
,,,,,,,,,50,140.326,0.0142748
,,,,,,,,,61,67.3269,0.0210713
,,,,,,,,,73,175.31,0.0294327
,,,,,,,,,86,31.589,0.0182599
,,,,,,,,,100,74.1906,0.0369409
,,,,,,,,,115,77.874,0.0159385
,,,,,,,,,131,55.9404,0.0339492
,,,,,,,,,148,101.404,0.0418699
,,,,,,,,,166,75.4198,0.022564
,,,,,,,,,185,127.059,0.0477338
,,,,,,,,,205,88.9423,0.0587372
,,,,,,,,,72,73.0093,0.0108051
,,,,,,,,,85,40.3749,0.0126475
,,,,,,,,,99,137.49,0.0100144
,,,,,,,,,114,72.3216,0.0138578
,,,,,,,,,130,122.171,0.00927365
,,,,,,,,,147,127.351,0.0134143
,,,,,,,,,165,51.9568,0.014498
,,,,,,,,,184,82.4073,0.0111845
,,,,,,,,,204,58.9829,0.0151421
,,,,,,,,,225,90.0053,0.0160988
,,,,,,,,,98,112.956,0.0177081
,,,,,,,,,113,77.1844,0.0129432
,,,,,,,,,129,30.8535,0.0201752
,,,,,,,,,146,115.934,0.011732
,,,,,,,,,164,91.179,0.0192488
,,,,,,,,,183,52.4921,0.0215615
,,,,,,,,,203,54.1179,0.0149669
,,,,,,,,,224,98.0697,0.0230176
,,,,,,,,,246,87.1545,0.0253033
,,,,,,,,,128,143.764,0.0156793
,,,,,,,,,145,103.604,0.0277133
,,,,,,,,,163,98.0808,0.0139364
,,,,,,,,,182,119.494,0.0259948
,,,,,,,,,202,75.8452,0.030398
,,,,,,,,,223,100.85,0.0187505
,,,,,,,,,245,48.3536,0.0333746
,,,,,,,,,268,86.4035,0.0384048
,,,,,,,,,162,66.5588,0.0175831
,,,,,,,,,181,49.2578,0.0108057
,,,,,,,,,201,24.6065,0.0168753
,,,,,,,,,222,85.8219,0.0186268
,,,,,,,,,244,55.4615,0.0134915
,,,,,,,,,267,96.9092,0.0197037
,,,,,,,,,291,58.6201,0.021355
,,,,,,,,,200,89.6683,0.0154204
,,,,,,,,,221,69.8637,0.031682
,,,,,,,,,243,28.5824,0.0384743
,,,,,,,,,266,24.008,0.0215395
,,,,,,,,,290,71.3303,0.04337
,,,,,,,,,315,56.5678,0.052266
,,,,,,,,,242,26.871,0.0148733
,,,,,,,,,265,86.929,0.0162174
,,,,,,,,,289,66.2269,0.0121807
,,,,,,,,,314,63.1895,0.0170276
,,,,,,,,,340,38.9933,0.018247
,,,,,,,,,288,78.2744,0.0352399
,,,,,,,,,313,49.9776,0.0204868
,,,,,,,,,339,74.886,0.0393037
,,,,,,,,,366,38.2442,0.0464719
,,,,,,,,,338,30.4549,0.023127
,,,,,,,,,365,45.5821,0.0503256
,,,,,,,,,393,47.9473,0.0627113
,,,,,,,,,392,57.1642,0.0248105
,,,,,,,,,421,33.0894,0.0274868
,,,,,,,,,450,38.3472,0.0768516
