"cellPairingIds","interplanarAngles","angleWeights"
25,89.4122,0.0783268
33,41.5023,0.0390759
42,90.7758,0.0264313
52,56.4226,0.0664651
63,121.105,0.0232027
75,91.4075,0.0661331
61,55.7777,0.031034
86,103.522,0.0266757
131,88.6878,0.098271
85,37.4267,0.0449266
114,57.0146,0.0447746
130,79.6063,0.0446486
129,57.0946,0.0289211
164,69.3084,0.0283746
128,88.0107,0.0251473
163,82.0841,0.0843782
181,94.1175,0.0250599
201,81.6152,0.0246869
200,37.4135,0.0838437
221,68.3082,0.0798088
242,47.268,0.0794092
