facetNormals:0,facetNormals:1,facetNormals:2,FacetCenters:0,FacetCenters:1,FacetCenters:2,FacetIds,relFacetSize,absFacetSize,cellPairingIds,interplanarAngles,angleWeights
-0.286693,-0.412485,-0.825994,3.57702,3.32504,11.3447,1,0.0284565,0.0052786,8,62.5077,0.0331866
0.678321,-0.333368,-0.585526,3.57393,3.42702,11.462,2,0.0398025,0.00738324,13,48.519,0.0293983
-0.719479,-0.64775,-0.191929,3.53734,3.31201,11.38,3,0.0304046,0.00563996,19,58.0754,0.0298841
-0.948676,-0.0636577,-0.246926,3.5365,3.38752,11.4022,4,0.0314625,0.0058362,26,75.0686,0.0485966
0.585478,-0.726916,-0.124164,3.64379,3.30785,11.4392,5,0.166283,0.0308451,34,95.1175,0.0364914
-0.601317,0.74242,-0.0620876,3.65779,3.38334,11.459,6,0.0508488,0.00943229,43,69.8101,0.0389463
-0.6015,-0.756091,0.188699,3.55157,3.28298,11.4512,7,0.0616848,0.0114423,53,88.8888,0.041703
-0.939305,0.0796853,0.264009,3.53281,3.38327,11.456,8,0.0780218,0.0144728,64,85.3676,0.0362515
-0.844599,-0.344941,0.372266,3.51943,3.39211,11.4711,9,0.0499281,0.00926153,76,102.668,0.0198571
0.242286,-0.771972,0.552943,3.69204,3.36373,11.4859,10,0.0152489,0.00282863,89,121.899,0.0403368
-0.591113,0.0974881,0.750295,3.56893,3.36818,11.5138,11,0.0692465,0.012845,103,174.127,0.0469976
0.253378,0.310972,0.829239,3.62755,3.39778,11.5109,12,0.13488,0.0250198,118,132.675,0.020724
0.232649,-0.366648,0.88299,3.62194,3.41615,11.4948,13,0.0162959,0.00302283,18,99.7451,0.0344745
,,,,,,,,,25,120.572,0.0351445
,,,,,,,,,33,37.7127,0.0642304
,,,,,,,,,42,132.553,0.0446526
,,,,,,,,,52,106.445,0.0483846
,,,,,,,,,63,150.961,0.0527134
,,,,,,,,,75,135.844,0.044294
,,,,,,,,,88,84.0002,0.0220501
,,,,,,,,,102,161.948,0.0505494
,,,,,,,,,117,118.285,0.0614665
,,,,,,,,,133,104.59,0.0231242
,,,,,,,,,32,37.3054,0.0309245
,,,,,,,,,41,85.4667,0.0514091
,,,,,,,,,51,92.2047,0.0380547
,,,,,,,,,62,24.1831,0.0407322
,,,,,,,,,74,53.5869,0.0437572
,,,,,,,,,87,38.6342,0.0377939
,,,,,,,,,101,76.8768,0.0203111
,,,,,,,,,116,76.6909,0.0422556
,,,,,,,,,132,126.666,0.0496231
,,,,,,,,,149,95.8724,0.021219
,,,,,,,,,50,121.152,0.0529133
,,,,,,,,,61,55.0689,0.0388727
,,,,,,,,,73,53.7249,0.0416707
,,,,,,,,,86,31.4004,0.0448422
,,,,,,,,,100,40.9314,0.0386006
,,,,,,,,,115,109.241,0.0205418
,,,,,,,,,131,66.9493,0.0432666
,,,,,,,,,148,120.917,0.0510231
,,,,,,,,,166,115.452,0.0214709
,,,,,,,,,72,168.703,0.0778816
,,,,,,,,,85,79.1792,0.0899876
,,,,,,,,,99,134.028,0.106209
,,,,,,,,,114,108.212,0.0767972
,,,,,,,,,130,46.5711,0.027936
,,,,,,,,,147,124.35,0.0977756
,,,,,,,,,165,102.022,0.148944
,,,,,,,,,184,71.5581,0.0296828
,,,,,,,,,98,102.959,0.0557451
,,,,,,,,,113,49.589,0.0615705
,,,,,,,,,129,75.9722,0.0503842
,,,,,,,,,146,143.39,0.0234619
,,,,,,,,,164,65.4974,0.0586384
,,,,,,,,,183,88.244,0.0738547
,,,,,,,,,203,119.712,0.0246818
,,,,,,,,,128,54.8688,0.0688981
,,,,,,,,,145,30.1137,0.0551873
,,,,,,,,,163,55.7979,0.0244529
,,,,,,,,,182,63.3856,0.0652473
,,,,,,,,,202,104.762,0.0846544
,,,,,,,,,223,71.7156,0.0257809
,,,,,,,,,162,26.384,0.0608908
,,,,,,,,,181,98.5791,0.0255117
,,,,,,,,,201,35.9302,0.0733727
,,,,,,,,,222,89.6374,0.0988585
,,,,,,,,,244,90.8701,0.0269606
,,,,,,,,,200,73.9181,0.0233625
,,,,,,,,,221,38.0568,0.0580216
,,,,,,,,,243,90.7936,0.0728789
,,,,,,,,,266,74.5259,0.0245718
,,,,,,,,,242,77.9524,0.0249939
,,,,,,,,,265,71.9406,0.0274001
,,,,,,,,,289,30.8745,0.015755
,,,,,,,,,288,55.3615,0.0915115
,,,,,,,,,313,58.8123,0.026383
,,,,,,,,,338,41.6639,0.0290785
