Q	U	V
{$V$}	{[mm$^3$]}	0.00430212
{$d_v$}	{[mm]}	0.201788
{$S_c$}	{[mm$^2$]}	0.239455
{$S_o$}	{[mm$^2$]}	0.135284
{$S_l/S_o$}	[]	0.770017
{$\Psi$}	[]	0.534214
{$\eta$}	[]	0.582247
{med($\theta_e$)}	{[$^\circ$]}	68.7983
{$\Upsilon$}	[]	12
{$\Xi$}	[]	15
