facetNormals:0,facetNormals:1,facetNormals:2,FacetCenters:0,FacetCenters:1,FacetCenters:2,FacetIds,relFacetSize,absFacetSize,cellPairingIds,interplanarAngles,angleWeights
0.233149,-0.0826036,-0.930894,4.85345,6.67457,9.18996,1,0.0416874,0.0041447,8,34.7027,0.0421869
0.234854,0.47968,-0.806782,4.83937,6.67262,9.19104,2,0.0426986,0.00424524,13,38.8357,0.0649275
0.215368,-0.6662,-0.665481,4.8155,6.65831,9.26729,3,0.146724,0.0145878,19,59.7637,0.0317802
-0.591672,0.356323,-0.687617,4.80438,6.68595,9.16928,4,0.0256778,0.00255298,26,53.316,0.0286696
0.522945,0.636146,-0.531228,4.88083,6.6912,9.17257,5,0.0218473,0.00217213,34,53.884,0.0119638
0.78412,-0.485621,-0.365598,4.87943,6.67502,9.25739,6,0.00698409,0.000694382,43,77.953,0.0395298
-0.41947,0.791225,-0.385855,4.79032,6.63148,9.24885,7,0.0375845,0.00373678,53,60.6171,0.0301821
0.944513,-0.1178,-0.252976,4.91484,6.65685,9.18527,8,0.0236539,0.00235175,64,82.5621,0.030021
0.236464,0.940591,-0.155813,4.8461,6.70709,9.18171,9,0.0234565,0.00233213,76,108.939,0.0304776
-0.664993,0.710789,0.0989423,4.77713,6.67184,9.21254,10,0.0240189,0.00238804,89,94.2453,0.0545861
0.907555,-0.0889339,0.308941,4.9016,6.64236,9.23674,11,0.0790435,0.00785877,103,113.372,0.046997
0.610536,0.562052,0.500903,4.89677,6.67846,9.22128,12,0.0538566,0.00535461,118,131.102,0.028573
0.278462,0.662063,0.687116,4.86684,6.67618,9.23794,13,0.0217353,0.002161,134,140.622,0.0692651
-0.221913,0.677311,0.662714,4.80677,6.66505,9.23973,14,0.204645,0.0203465,18,73.3419,0.0661475
,,,,,,,,,25,51.523,0.0320697
,,,,,,,,,33,25.396,0.028905
,,,,,,,,,42,75.1409,0.0120046
,,,,,,,,,52,51.1118,0.0399787
,,,,,,,,,63,67.1905,0.0304431
,,,,,,,,,75,48.2856,0.0302792
,,,,,,,,,88,83.6347,0.0307438
,,,,,,,,,102,94.8502,0.0554459
,,,,,,,,,117,89.458,0.0476329
,,,,,,,,,133,100.265,0.0288068
,,,,,,,,,150,106.148,0.0706552
,,,,,,,,,32,84.3438,0.0437066
,,,,,,,,,41,87.436,0.0380317
,,,,,,,,,51,39.8559,0.0133335
,,,,,,,,,62,112.514,0.0598404
,,,,,,,,,74,61.753,0.04074
,,,,,,,,,87,119.831,0.0404469
,,,,,,,,,101,136.242,0.0412802
,,,,,,,,,116,86.973,0.102739
,,,,,,,,,132,127.988,0.0787919
,,,,,,,,,149,150.828,0.0378618
,,,,,,,,,167,179.35,0.170911
,,,,,,,,,50,72.7929,0.0236082
,,,,,,,,,61,113.501,0.0109814
,,,,,,,,,73,33.1772,0.0305107
,,,,,,,,,86,116.405,0.0246244
,,,,,,,,,100,71.5876,0.024517
,,,,,,,,,115,52.6348,0.0248207
,,,,,,,,,131,146.346,0.0387632
,,,,,,,,,148,122.343,0.0347754
,,,,,,,,,166,114.474,0.0235426
,,,,,,,,,185,95.0232,0.0456302
,,,,,,,,,72,72.3161,0.0105845
,,,,,,,,,85,59.225,0.0276323
,,,,,,,,,99,55.0154,0.0227147
,,,,,,,,,114,33.277,0.0226233
,,,,,,,,,130,86.9,0.0228817
,,,,,,,,,147,74.3891,0.0342328
,,,,,,,,,165,64.3805,0.0310848
,,,,,,,,,184,78.045,0.0217911
,,,,,,,,,204,92.2372,0.0394798
,,,,,,,,,98,126.251,0.0117793
,,,,,,,,,113,24.3362,0.0107841
,,,,,,,,,129,102.708,0.0107634
,,,,,,,,,146,158.442,0.0108215
,,,,,,,,,164,47.7825,0.0128342
,,,,,,,,,183,88.6498,0.0123647
,,,,,,,,,203,111.06,0.0105713
,,,,,,,,,224,140.513,0.0135072
,,,,,,,,,128,114.076,0.0290347
,,,,,,,,,145,42.5939,0.0288855
,,,,,,,,,163,32.6643,0.0293081
,,,,,,,,,182,127.402,0.0509451
,,,,,,,,,202,90.283,0.0442727
,,,,,,,,,223,81.5812,0.0275426
,,,,,,,,,245,66.8382,0.0635057
,,,,,,,,,162,80.9629,0.0235548
,,,,,,,,,181,139.881,0.023835
,,,,,,,,,201,33.6327,0.0364116
,,,,,,,,,222,66.2991,0.0328709
,,,,,,,,,244,89.3447,0.022654
,,,,,,,,,267,118.478,0.0424063
,,,,,,,,,200,58.9362,0.0237344
,,,,,,,,,221,84.9764,0.0361773
,,,,,,,,,243,51.3262,0.0326798
,,,,,,,,,266,53.4459,0.0225631
,,,,,,,,,290,59.7688,0.0420888
,,,,,,,,,242,132.48,0.0368425
,,,,,,,,,265,87.3977,0.0332217
,,,,,,,,,289,68.6913,0.0228201
,,,,,,,,,314,43.1606,0.0429919
,,,,,,,,,288,45.0918,0.0640634
,,,,,,,,,313,64.89,0.0340951
,,,,,,,,,339,93.481,0.11404
,,,,,,,,,338,23.088,0.0309713
,,,,,,,,,365,52.28,0.0852721
,,,,,,,,,392,29.4966,0.0392968
