"cellPairingIds","interplanarAngles","angleWeights"
8,43.6359,0.0112081
13,60.1486,0.0105676
53,79.9205,0.00838361
134,101.83,0.0169021
151,107.142,0.0206027
208,133.914,0.0159782
18,51.9469,0.0104934
25,35.7992,0.00851921
33,77.2506,0.0203466
42,30.4179,0.00380364
52,48.5982,0.0149096
63,108.12,0.00833688
32,41.8121,0.00814399
101,53.2389,0.00663447
167,67.3292,0.0153278
374,96.9248,0.0168071
61,21.5723,0.00344355
115,29.9042,0.00578664
85,66.3743,0.0379805
99,32.8662,0.0126251
294,81.7433,0.0444202
98,33.1289,0.00416516
146,42.9018,0.00314134
318,138.518,0.00423245
343,110.045,0.0247311
369,55.5349,0.0107166
424,123.186,0.00842575
584,64.4059,0.0091307
450,35.9158,0.0522215
546,86.0622,0.0301232
726,58.2257,0.0416082
579,56.1868,0.0443064
884,63.6208,0.0364237
