Q	U	V
{$V$}	{[mm$^3$]}	0.00563681
{$d_v$}	{[mm]}	0.220806
{$S_c$}	{[mm$^2$]}	0.27844
{$S_o$}	{[mm$^2$]}	0.171158
{$S_l/S_o$}	[]	0.626801
{$\Psi$}	[]	0.5501
{$\eta$}	[]	0.564456
{med($\theta_e$)}	{[$^\circ$]}	77.0712
{$\Upsilon$}	[]	14
{$\Xi$}	[]	10
