Q	U	V
{$V$}	{[mm$^3$]}	0.00362646
{$d_v$}	{[mm]}	0.190617
{$S_c$}	{[mm$^2$]}	0.251007
{$S_o$}	{[mm$^2$]}	0.127568
{$S_l/S_o$}	[]	0.967633
{$\Psi$}	[]	0.454765
{$\eta$}	[]	0.513010
{med($\theta_e$)}	{[$^\circ$]}	88.2093
{$\Upsilon$}	[]	11
{$\Xi$}	[]	7
