Q	U	V
{$V$}	{[mm$^3$]}	0.00592892
{$d_v$}	{[mm]}	0.224557
{$S_c$}	{[mm$^2$]}	0.253051
{$S_o$}	{[mm$^2$]}	0.162853
{$S_l/S_o$}	[]	0.553861
{$\Psi$}	[]	0.626027
{$\eta$}	[]	0.694737
{med($\theta_e$)}	{[$^\circ$]}	69.1066
{$\Upsilon$}	[]	12
{$\Xi$}	[]	9
