Q	U	V
{$V$}	{[mm$^3$]}	0.00154249
{$d_v$}	{[mm]}	0.143353
{$S_c$}	{[mm$^2$]}	0.0982655
{$S_o$}	{[mm$^2$]}	0.0570816
{$S_l/S_o$}	[]	0.721492
{$\Psi$}	[]	0.656999
{$\eta$}	[]	0.701940
{med($\theta_e$)}	{[$^\circ$]}	63.2327
{$\Upsilon$}	[]	14
{$\Xi$}	[]	3
