"cellPairingIds","interplanarAngles","angleWeights"
8,88.5639,0.0124105
13,66.7218,0.0259664
26,72.9027,0.0324355
34,52.1087,0.0259505
53,123.337,0.0149583
18,40.9814,0.0154449
25,41.4228,0.016677
52,60.7329,0.017703
63,135.98,0.0107426
32,34.2672,0.0558747
41,40.1907,0.0666691
50,47.1108,0.0978836
73,50.7431,0.103748
131,52.1179,0.0711835
72,73.3062,0.0665648
147,53.9155,0.0896824
113,86.2207,0.0195905
146,37.7815,0.0682426
164,97.6052,0.0530365
128,87.5582,0.0233846
145,17.9784,0.0555084
182,52.8243,0.0945808
162,74.2017,0.01831
181,60.3577,0.0232713
222,41.0832,0.0143321
221,43.8226,0.0445935
243,35.3026,0.0222097
266,32.8233,0.0300268
242,72.4941,0.092755
265,70.4495,0.0299566
289,67.3051,0.0461682
313,22.833,0.0386678
338,32.988,0.0206348
