facetNormals:0,facetNormals:1,facetNormals:2,FacetCenters:0,FacetCenters:1,FacetCenters:2,FacetIds,relFacetSize,absFacetSize,cellPairingIds,interplanarAngles,angleWeights
-0.486016,-0.412436,-0.581345,5.85563,7.55843,12.4929,1,0.0264658,0.00280649,8,101.692,0.0181651
0.245441,0.813655,-0.487761,5.87114,7.52742,12.5423,2,0.0138281,0.00146636,13,109.6,0.0443312
0.876778,0.0352055,-0.296851,5.94119,7.58218,12.4642,3,0.136418,0.0144661,19,92.1454,0.0153933
0.550795,-0.791249,0.155125,5.88685,7.48667,12.5321,4,0.0108528,0.00115085,26,76.5729,0.0179544
-0.129612,-0.871843,0.394166,5.83108,7.46632,12.5977,5,0.0135853,0.00144062,34,110.085,0.0467456
-0.54477,0.635112,0.502184,5.83409,7.57731,12.5289,6,0.199992,0.0212076,43,159.14,0.0474733
0.707492,0.152418,0.641545,5.91931,7.53254,12.5463,7,0.230186,0.0244094,53,119.454,0.0314003
0.346842,-0.483901,0.754923,5.89208,7.44198,12.5751,8,0.0385964,0.00409285,64,132.573,0.0298221
-0.010122,0.01768,0.974595,5.84737,7.49873,12.5941,9,0.0341533,0.00362168,18,64.6498,0.0251108
,,,,,,,,,25,127.635,0.0121611
,,,,,,,,,33,170.61,0.0137056
,,,,,,,,,42,81.696,0.0258676
,,,,,,,,,52,90.9225,0.0260889
,,,,,,,,,63,135.924,0.0203613
,,,,,,,,,75,119.026,0.0196857
,,,,,,,,,32,63.1163,0.020106
,,,,,,,,,41,106.989,0.0247099
,,,,,,,,,51,131.955,0.162198
,,,,,,,,,62,60.9344,0.171311
,,,,,,,,,74,85.9457,0.0601694
,,,,,,,,,87,109.24,0.0546296
,,,,,,,,,50,43.879,0.0120663
,,,,,,,,,61,139.507,0.0205883
,,,,,,,,,73,67.0264,0.0207283
,,,,,,,,,86,42.6032,0.0169418
,,,,,,,,,100,82.052,0.0164715
,,,,,,,,,72,107.616,0.0254424
,,,,,,,,,85,88.2638,0.0256565
,,,,,,,,,99,43.3994,0.0200969
,,,,,,,,,114,66.8487,0.0194385
,,,,,,,,,98,87.9625,0.214029
,,,,,,,,,113,97.174,0.0647054
,,,,,,,,,129,57.8534,0.0583431
,,,,,,,,,128,45.1349,0.0661082
,,,,,,,,,145,48.8174,0.0594812
,,,,,,,,,162,39.4523,0.0362392
