"cellPairingIds","interplanarAngles","angleWeights"
8,79.0785,0.00392467
13,71.0831,0.00398284
26,116.965,0.00334736
43,46.8898,0.00388634
53,66.5115,0.00389062
64,81.777,0.00364
18,38.1558,0.0820815
25,25.5749,0.0689705
33,63.2358,0.0167087
32,45.3228,0.0927852
51,72.1758,0.0344687
62,76.0723,0.0680461
116,96.0981,0.0876132
149,115.548,0.0933981
50,56.397,0.0171105
61,32.9476,0.0319205
72,48.8255,0.0130415
114,94.7946,0.0125351
130,64.5497,0.0181936
146,93.263,0.0359085
164,49.4191,0.0312852
183,63.6183,0.0227092
128,27.6947,0.0484321
223,75.2799,0.0590279
162,64.5476,0.0262732
244,53.2634,0.0600297
200,40.0582,0.0323136
266,75.9819,0.0291076
265,40.365,0.0448
289,73.0644,0.104783
288,39.4681,0.0378259
313,47.0847,0.0732116
338,54.5964,0.0388652
