"cellPairingIds","interplanarAngles","angleWeights"
8,67.6998,0.0548083
13,148.728,0.0507042
26,43.1016,0.0445725
34,66.0628,0.111676
43,79.5297,0.112423
18,100.173,0.0343819
52,39.8391,0.0547711
75,92.5324,0.0456863
41,161.102,0.0300526
51,121.723,0.05052
87,32.6717,0.0427986
72,41.1824,0.0444301
85,84.3252,0.0445479
114,145.79,0.038346
145,83.9766,0.0797576
