"cellPairingIds","interplanarAngles","angleWeights"
8,124.202,0.0354243
13,86.7171,0.0186887
19,134.637,0.0348476
26,63.9773,0.0320623
34,123.218,0.0331395
43,65.8942,0.034361
25,75.6521,0.124193
42,30.8437,0.10492
63,47.3029,0.0741229
75,69.7143,0.133203
32,56.6341,0.0300021
41,33.7496,0.0279143
87,79.3536,0.0305005
101,55.7417,0.015216
100,38.1201,0.125399
85,57.1512,0.0875773
130,57.562,0.0230406
98,106.655,0.0961107
113,35.8908,0.0647777
164,64.1375,0.0315833
163,65.1297,0.0242042
182,73.9253,0.0326909
162,36.34,0.0745509
201,36.0565,0.0280723
200,49.8728,0.0247745
221,39.2161,0.0337399
242,42.7402,0.0159814
