Q	U	V
{$V$}	{[mm$^3$]}	0.00562493
{$d_v$}	{[mm]}	0.220651
{$S_c$}	{[mm$^2$]}	0.281448
{$S_o$}	{[mm$^2$]}	0.165312
{$S_l/S_o$}	[]	0.702526
{$\Psi$}	[]	0.543456
{$\eta$}	[]	0.584556
{med($\theta_e$)}	{[$^\circ$]}	67.9602
{$\Upsilon$}	[]	13
{$\Xi$}	[]	5
