facetNormals:0,facetNormals:1,facetNormals:2,FacetCenters:0,FacetCenters:1,FacetCenters:2,FacetIds,relFacetSize,absFacetSize,cellPairingIds,interplanarAngles,angleWeights
0.243975,-0.249742,-0.906841,4.3726,6.67769,11.2844,1,0.0330135,0.0102996,8,42.1606,0.0455961
-0.0252411,0.385499,-0.866609,4.35318,6.74209,11.306,2,0.0736767,0.0229857,13,69.9927,0.0453203
-0.627041,0.393174,-0.634346,4.3407,6.74197,11.3033,3,0.0722556,0.0225423,19,38.5916,0.0247001
0.786475,-0.266224,-0.548584,4.38977,6.67355,11.3345,4,0.0197313,0.00615579,26,43.1983,0.049715
0.267302,-0.805617,-0.460592,4.36871,6.56446,11.34,5,0.100616,0.0313903,34,62.8071,0.0482268
0.896758,0.120548,-0.251862,4.42456,6.71815,11.3412,6,0.0894447,0.027905,43,108.124,0.0481246
-0.928887,0.0935704,0.0357555,4.28211,6.62455,11.3677,7,0.0887451,0.0276867,53,75.5244,0.0521197
0.698958,-0.607962,0.105735,4.39885,6.61076,11.3847,8,0.123723,0.038599,64,102.065,0.0263774
0.813874,-0.229232,0.502374,4.34724,6.66613,11.3083,9,0.0219626,0.00685191,76,109.506,0.0150353
0.819882,0.0574307,0.56075,4.47872,6.7276,11.3611,10,0.00973425,0.00303689,89,120.104,0.0368494
0.582523,0.550221,0.518017,4.45128,6.77066,11.3719,11,0.0416938,0.0130076,103,151.386,0.03097
0.0294757,0.613318,0.753004,4.40318,6.7867,11.3888,12,0.0291647,0.00909881,18,39.1608,0.0729592
,,,,,,,,,25,68.0517,0.0311267
,,,,,,,,,33,84.8756,0.0850646
,,,,,,,,,42,74.2362,0.0807986
,,,,,,,,,52,88.1556,0.0805119
,,,,,,,,,63,112.858,0.0923556
,,,,,,,,,75,125.679,0.0338383
,,,,,,,,,88,120.879,0.0171965
,,,,,,,,,102,106.13,0.0532521
,,,,,,,,,117,116.884,0.0417878
,,,,,,,,,32,104.924,0.0309979
,,,,,,,,,41,101.78,0.0841096
,,,,,,,,,51,112.825,0.0799365
,,,,,,,,,62,49.0758,0.0796559
,,,,,,,,,74,144.988,0.0912311
,,,,,,,,,87,163.483,0.0336861
,,,,,,,,,101,150.876,0.0171571
,,,,,,,,,116,120.893,0.0528763
,,,,,,,,,132,105.62,0.041556
,,,,,,,,,50,45.1846,0.0329927
,,,,,,,,,61,29.7675,0.0323306
,,,,,,,,,73,146.473,0.0322846
,,,,,,,,,86,45.2221,0.0340348
,,,,,,,,,100,64.2304,0.0207873
,,,,,,,,,115,71.0278,0.0130369
,,,,,,,,,131,88.3415,0.0267863
,,,,,,,,,148,124.897,0.023538
,,,,,,,,,72,73.435,0.0947022
,,,,,,,,,85,112.148,0.0943086
,,,,,,,,,99,45.7845,0.11098
,,,,,,,,,114,79.6383,0.0360551
,,,,,,,,,130,95.0984,0.0177511
,,,,,,,,,147,124.82,0.0589569
,,,,,,,,,165,152.6,0.0452215
,,,,,,,,,98,161.207,0.0890935
,,,,,,,,,113,53.0117,0.103828
,,,,,,,,,129,51.4494,0.0352659
,,,,,,,,,146,49.9801,0.0175577
,,,,,,,,,164,59.2472,0.0568756
,,,,,,,,,183,95.6148,0.0439869
,,,,,,,,,128,143.735,0.103355
,,,,,,,,,145,145.744,0.0352112
,,,,,,,,,163,142.367,0.0175441
,,,,,,,,,182,121.901,0.0567334
,,,,,,,,,202,86.4042,0.0439018
,,,,,,,,,162,33.8767,0.0373034
,,,,,,,,,181,49.9085,0.0180485
,,,,,,,,,201,81.7656,0.0623695
,,,,,,,,,222,107.516,0.0472025
,,,,,,,,,200,16.9971,0.0134896
,,,,,,,,,221,49.6008,0.0287703
,,,,,,,,,243,74.107,0.0250564
,,,,,,,,,242,32.6116,0.0157835
,,,,,,,,,265,60.1179,0.0145966
,,,,,,,,,288,36.5559,0.0343216
