facetNormals:0,facetNormals:1,facetNormals:2,FacetCenters:0,FacetCenters:1,FacetCenters:2,FacetIds,relFacetSize,absFacetSize,cellPairingIds,interplanarAngles,angleWeights
-0.492866,-0.373892,-0.742254,4.76383,5.87485,10.4425,1,0.0487128,0.0145199,8,101.459,0.0245555
0.74502,0.430026,-0.459145,4.99533,5.98834,10.473,2,0.016415,0.00489286,13,48.5042,0.0201309
-0.849028,0.272187,-0.425407,4.74286,5.9239,10.4792,3,0.0126869,0.00378161,19,67.9064,0.0752679
0.479761,-0.710377,-0.430377,4.91003,5.86357,10.4851,4,0.165473,0.0493228,26,94.2166,0.0385322
-0.305043,0.885824,-0.152801,4.8882,5.98213,10.4963,5,0.0318713,0.00949992,34,118.47,0.0305524
0.350002,0.886646,-0.0851385,4.95874,6.00666,10.5289,6,0.0222555,0.00663373,43,110.774,0.0407815
0.911852,-0.351047,0.0226247,5.01463,5.93544,10.5451,7,0.0350712,0.0104537,53,68.4803,0.0444546
-0.0651612,-0.973038,0.0666373,4.84428,5.84565,10.5289,8,0.040881,0.0121855,64,64.0616,0.0577039
-0.670709,-0.655725,0.226248,4.76897,5.8421,10.5745,9,0.0707651,0.0210931,76,153.265,0.0337961
0.457608,0.716644,0.458001,4.94855,6.00539,10.5906,10,0.0258732,0.00771206,89,99.2542,0.0647765
-0.724982,0.363319,0.497558,4.78215,5.93961,10.5981,11,0.0966473,0.0288078,103,142.416,0.074727
0.474589,-0.240448,0.780027,4.89841,5.89897,10.6386,12,0.16037,0.0478016,18,109.413,0.0143122
,,,,,,,,,25,74.5246,0.0298672
,,,,,,,,,33,76.0065,0.0216694
,,,,,,,,,42,43.1217,0.0188942
,,,,,,,,,52,57.0747,0.0223631
,,,,,,,,,63,121.469,0.0234244
,,,,,,,,,75,160.258,0.0266486
,,,,,,,,,88,62.2272,0.0200864
,,,,,,,,,102,131.305,0.0280636
,,,,,,,,,117,96.7346,0.0297817
,,,,,,,,,32,116.149,0.0235669
,,,,,,,,,41,52.9425,0.0181492
,,,,,,,,,51,91.1885,0.0161611
,,,,,,,,,62,155.613,0.0186333
,,,,,,,,,74,104.261,0.0193643
,,,,,,,,,87,71.9893,0.0215163
,,,,,,,,,101,114.016,0.0170254
,,,,,,,,,116,57.6614,0.0224295
,,,,,,,,,132,149.083,0.0235137
,,,,,,,,,50,141.226,0.0534481
,,,,,,,,,61,117.601,0.0392341
,,,,,,,,,73,43.7569,0.0578759
,,,,,,,,,86,47.6776,0.065564
,,,,,,,,,100,87.1102,0.0991349
,,,,,,,,,115,121.691,0.0447494
,,,,,,,,,131,153.977,0.122024
,,,,,,,,,148,86.0243,0.162881
,,,,,,,,,72,40.4164,0.0262092
,,,,,,,,,85,129.696,0.0333948
,,,,,,,,,99,156.705,0.0358182
,,,,,,,,,114,116.65,0.0439488
,,,,,,,,,130,62.3642,0.0285607
,,,,,,,,,147,58.8654,0.0479351
,,,,,,,,,165,122.151,0.0531748
,,,,,,,,,98,89.6344,0.0272308
,,,,,,,,,113,162.305,0.0288209
,,,,,,,,,129,154.781,0.0338616
,,,,,,,,,146,35.0591,0.0239284
,,,,,,,,,164,88.3619,0.0361797
,,,,,,,,,183,97.2156,0.0390867
,,,,,,,,,128,72.7268,0.0377539
,,,,,,,,,145,113.516,0.0468992
,,,,,,,,,163,79.2504,0.0297781
,,,,,,,,,182,146.72,0.0514664
,,,,,,,,,202,54.5812,0.0575556
,,,,,,,,,162,42.3698,0.0518235
,,,,,,,,,181,137.553,0.03169
,,,,,,,,,201,107.079,0.0574578
,,,,,,,,,222,73.9597,0.0651532
,,,,,,,,,200,136.256,0.0378922
,,,,,,,,,221,66.8714,0.0817055
,,,,,,,,,243,89.004,0.0981988
,,,,,,,,,242,80.1938,0.0408189
,,,,,,,,,265,63.8343,0.0445577
,,,,,,,,,288,92.7641,0.120609
