Q	U	V
{$V$}	{[mm$^3$]}	0.00480797
{$d_v$}	{[mm]}	0.209405
{$S_c$}	{[mm$^2$]}	0.223969
{$S_o$}	{[mm$^2$]}	0.150923
{$S_l/S_o$}	[]	0.483995
{$\Psi$}	[]	0.615088
{$\eta$}	[]	0.637588
{med($\theta_e$)}	{[$^\circ$]}	61.9493
{$\Upsilon$}	[]	16
{$\Xi$}	[]	8
