"cellPairingIds","interplanarAngles","angleWeights"
42,75.9244,0.0196666
63,117.54,0.0333366
75,59.2528,0.140942
117,93.0709,0.0807344
113,67.9602,0.013896
146,54.5905,0.010761
183,52.7214,0.0183984
162,165.522,0.0354471
181,51.5827,0.0138739
244,149.967,0.0237995
243,91.9363,0.0943378
266,39.9822,0.0523131
265,54.4851,0.0183597
289,103.865,0.0158774
338,65.096,0.0409721
