"cellPairingIds","interplanarAngles","angleWeights"
8,37.5208,0.0232758
13,23.6276,0.0164681
19,80.8796,0.0203539
26,33.3898,0.0382316
53,96.2666,0.0217866
25,50.4361,0.0195528
63,88.6451,0.0208714
32,83.7208,0.014513
41,44.234,0.0217725
62,72.7403,0.0238991
73,125.749,0.033058
86,111.937,0.0184911
115,81.1736,0.0285747
131,129.483,0.0283582
166,98.542,0.0180103
85,82.8353,0.137447
99,75.2611,0.0321483
165,90.0239,0.0352449
182,45.2575,0.121923
202,80.2165,0.0411761
181,46.1665,0.0314813
222,47.8329,0.020783
242,93.0767,0.0772321
265,65.4847,0.0344447
289,35.0445,0.0301127
288,50.8468,0.0341305
313,58.6913,0.0298722
