facetNormals:0,facetNormals:1,facetNormals:2,FacetCenters:0,FacetCenters:1,FacetCenters:2,FacetIds,relFacetSize,absFacetSize,cellPairingIds,interplanarAngles,angleWeights
-0.194624,-0.226605,-0.932068,6.24785,6.60522,8.88292,1,0.0389077,0.00240119,8,35.7453,0.0337407
-0.239797,0.376568,-0.890391,6.23175,6.66396,8.88963,2,0.0297851,0.00183819,13,44.9778,0.0474939
0.15168,0.437408,-0.87021,6.27739,6.66975,8.89618,3,0.0609428,0.00376108,19,37.6928,0.0462903
-0.61433,0.204254,-0.735689,6.19588,6.63423,8.89845,4,0.0571307,0.00352582,26,46.1647,0.0091069
0.195228,-0.789615,-0.571986,6.26992,6.59286,8.88688,5,0.00515698,0.000318263,34,66.3694,0.06077
0.723287,0.215365,-0.6125,6.31516,6.64191,8.91429,6,0.138713,0.00856065,43,69.9377,0.051043
-0.437327,0.757174,-0.446426,6.23095,6.71341,8.93213,7,0.0741794,0.00457798,53,107.536,0.0552339
0.886206,0.418507,0.0233754,6.31704,6.69487,8.96952,8,0.0951673,0.00587325,64,86.0915,0.0565355
-0.872951,0.405419,0.0148119,6.21087,6.66796,8.96079,9,0.103368,0.00637934,76,111.339,0.0462133
-0.419796,0.839329,0.255218,6.22451,6.70384,8.99641,10,0.0568965,0.00351136,89,93.3207,0.0197395
-0.697674,-0.580556,0.345907,6.32259,6.60707,8.8845,11,0.0132243,0.00081614,103,140.219,0.0451145
-0.356689,0.541814,0.732116,6.25532,6.68725,8.9925,12,0.0536773,0.00331269,118,148.071,0.0516366
0.264223,0.67232,0.643664,6.27499,6.70188,9.02221,13,0.0767435,0.00473622,18,23.0864,0.0400139
,,,,,,,,,25,25.7355,0.0391562
,,,,,,,,,33,80.4024,0.00879176
,,,,,,,,,42,62.0988,0.0490401
,,,,,,,,,52,36.3605,0.0425038
,,,,,,,,,63,94.4479,0.0453704
,,,,,,,,,75,68.6665,0.0462449
,,,,,,,,,88,78.7196,0.039101
,,,,,,,,,102,111.802,0.0183164
,,,,,,,,,117,111.831,0.0383115
,,,,,,,,,133,113.436,0.0429146
,,,,,,,,,32,48.7925,0.0589752
,,,,,,,,,41,79.3003,0.00950928
,,,,,,,,,51,39.7193,0.0846812
,,,,,,,,,62,47.5353,0.0669128
,,,,,,,,,74,72.0916,0.0743035
,,,,,,,,,87,88.0652,0.0766782
,,,,,,,,,101,85.1313,0.0588501
,,,,,,,,,116,133.643,0.0217328
,,,,,,,,,132,118.105,0.0570798
,,,,,,,,,149,103.706,0.0679365
,,,,,,,,,50,81.7643,0.00946003
,,,,,,,,,61,86.9752,0.0809295
,,,,,,,,,73,38.6152,0.0645483
,,,,,,,,,86,119.71,0.0713991
,,,,,,,,,100,49.8553,0.0735891
,,,,,,,,,115,75.3174,0.0570133
,,,,,,,,,131,86.6549,0.0214772
,,,,,,,,,148,102.582,0.0553502
,,,,,,,,,166,121.721,0.0655004
,,,,,,,,,72,70.5708,0.00994426
,,,,,,,,,85,115.997,0.00964354
,,,,,,,,,99,100.092,0.00978379
,,,,,,,,,114,121.422,0.00982385
,,,,,,,,,130,157.075,0.00945681
,,,,,,,,,147,82.6024,0.00742032
,,,,,,,,,165,160.388,0.00940991
,,,,,,,,,184,151.745,0.00966452
,,,,,,,,,98,82.7639,0.0966652
,,,,,,,,,113,41.2119,0.112886
,,,,,,,,,129,126.244,0.11846
,,,,,,,,,146,107.179,0.0806942
,,,,,,,,,164,153.047,0.0241466
,,,,,,,,,183,128.338,0.0774024
,,,,,,,,,203,93.5568,0.0988163
,,,,,,,,,128,94.8345,0.0833728
,,,,,,,,,145,43.7985,0.0863743
,,,,,,,,,163,42.3922,0.0643985
,,,,,,,,,182,107.635,0.022447
,,,,,,,,,202,75.5642,0.0622846
,,,,,,,,,223,83.583,0.0754397
,,,,,,,,,162,129.763,0.0990982
,,,,,,,,,181,90.8892,0.071216
,,,,,,,,,201,153.635,0.0232218
,,,,,,,,,222,94.3201,0.0686397
,,,,,,,,,244,55.9875,0.0849681
,,,,,,,,,200,40.6278,0.0733946
,,,,,,,,,221,66.1011,0.0234488
,,,,,,,,,243,54.8656,0.0706613
,,,,,,,,,266,86.8332,0.0880878
,,,,,,,,,242,96.4498,0.0214606
,,,,,,,,,265,33.7095,0.05524
,,,,,,,,,289,48.9742,0.0653462
,,,,,,,,,288,78.6153,0.0212206
,,,,,,,,,313,111.998,0.022561
,,,,,,,,,338,38.4414,0.0631706
