Q	U	V
{$V$}	{[mm$^3$]}	0.00905784
{$d_v$}	{[mm]}	0.258628
{$S_c$}	{[mm$^2$]}	0.522053
{$S_o$}	{[mm$^2$]}	0.262389
{$S_l/S_o$}	[]	0.989615
{$\Psi$}	[]	0.402519
{$\eta$}	[]	0.434808
{med($\theta_e$)}	{[$^\circ$]}	
{$\Upsilon$}	[]	8
{$\Xi$}	[]	11
