facetNormals:0,facetNormals:1,facetNormals:2,FacetCenters:0,FacetCenters:1,FacetCenters:2,FacetIds,relFacetSize,absFacetSize,cellPairingIds,interplanarAngles,angleWeights
0.0203928,-0.263059,-0.901391,5.4891,6.99884,9.03724,1,0.0675927,0.0228269,8,68.251,0.0177723
-0.137715,0.765504,-0.607577,5.47244,7.06404,9.05688,2,0.0102312,0.00345521,13,63.4938,0.0333563
0.618487,0.481057,-0.579621,5.52314,7.07574,9.13253,3,0.0221415,0.00747747,19,52.1067,0.054399
-0.332089,-0.811991,-0.38319,5.47921,6.93784,9.15537,4,0.0455148,0.015371,26,79.517,0.099228
0.85909,-0.387207,-0.0464221,5.54914,6.97857,9.17914,5,0.186529,0.0629932,34,94.4397,0.04094
0.74502,0.609778,-0.0831578,5.52388,7.06573,9.19688,6,0.0293622,0.00991599,43,87.1825,0.0675678
-0.945848,-0.1981,-0.0130861,5.41302,6.99411,9.17168,7,0.0675429,0.0228101,53,96.7072,0.0766871
-0.848759,0.428312,-0.0284495,5.54691,6.99387,9.14919,8,0.0886093,0.0299245,64,111.727,0.0462119
-0.246137,0.919473,0.0950689,5.55858,7.0397,9.157,9,0.035107,0.0118561,76,89.5398,0.085431
-0.653441,-0.675716,0.174414,5.41729,6.97788,9.22297,10,0.11606,0.0391952,89,128.586,0.0461412
0.569896,0.634825,0.456365,5.52109,7.06537,9.27522,11,0.0350254,0.0118285,103,127.712,0.0502682
-0.627338,-0.286266,0.692,5.43133,6.99849,9.31268,12,0.0400126,0.0135128,118,129.045,0.0433219
0.574153,-0.279478,0.73226,5.51073,7.01238,9.33507,13,0.031876,0.010765,134,175.45,0.0421734
0.0109862,0.2012,0.935729,5.47946,7.06093,9.34592,14,0.0306478,0.0103502,18,48.6711,0.0139954
,,,,,,,,,25,111.288,0.0167069
,,,,,,,,,33,114.525,0.0193984
,,,,,,,,,42,64.2258,0.0151748
,,,,,,,,,52,90.8072,0.0177706
,,,,,,,,,63,60.5148,0.0183443
,,,,,,,,,75,43.9255,0.0158448
,,,,,,,,,88,124.411,0.0188047
,,,,,,,,,102,82.1633,0.0158364
,,,,,,,,,117,125.011,0.0162956
,,,,,,,,,133,140.312,0.0154905
,,,,,,,,,150,116.127,0.0153411
,,,,,,,,,32,113.625,0.0297907
,,,,,,,,,41,66.1384,0.0395842
,,,,,,,,,51,31.5823,0.0252457
,,,,,,,,,62,135.575,0.0333503
,,,,,,,,,74,109.04,0.0354298
,,,,,,,,,87,75.4016,0.027156
,,,,,,,,,101,153.01,0.0371883
,,,,,,,,,116,65.346,0.0271316
,,,,,,,,,132,166.756,0.0285078
,,,,,,,,,149,102.427,0.0261316
,,,,,,,,,167,118.057,0.0257093
,,,,,,,,,50,87.0233,0.0731744
,,,,,,,,,61,140.196,0.0356963
,,,,,,,,,73,58.7497,0.0543829
,,,,,,,,,86,93.4643,0.0601389
,,,,,,,,,100,139.98,0.0396391
,,,,,,,,,115,40.2194,0.0653871
,,,,,,,,,131,161.749,0.039587
,,,,,,,,,148,79.177,0.0425867
,,,,,,,,,166,105.23,0.0374936
,,,,,,,,,185,125,0.0366303
,,,,,,,,,72,63.4303,0.0507376
,,,,,,,,,85,143.742,0.0991744
,,,,,,,,,99,174.815,0.120145
,,,,,,,,,114,129.322,0.0590921
,,,,,,,,,130,109.954,0.143089
,,,,,,,,,147,75.8853,0.0589765
,,,,,,,,,165,119.955,0.0658909
,,,,,,,,,184,51.7515,0.0544475
,,,,,,,,,204,97.1183,0.0526456
,,,,,,,,,98,151.971,0.0409309
,,,,,,,,,113,113.657,0.0441083
,,,,,,,,,129,66.4461,0.0319786
,,,,,,,,,146,171.362,0.0468674
,,,,,,,,,164,34.148,0.0319447
,,,,,,,,,183,137.813,0.0338699
,,,,,,,,,203,77.9225,0.0305675
,,,,,,,,,224,86.7115,0.0299912
,,,,,,,,,128,38.6076,0.0766551
,,,,,,,,,145,86.936,0.0462003
,,,,,,,,,163,35.7748,0.0853913
,,,,,,,,,182,135.837,0.0461296
,,,,,,,,,202,47.2392,0.0502544
,,,,,,,,,223,121.978,0.0433117
,,,,,,,,,245,93.8736,0.0421637
,,,,,,,,,162,48.7391,0.0502893
,,,,,,,,,181,73.3701,0.100494
,,,,,,,,,201,104.139,0.0502056
,,,,,,,,,222,65.1718,0.0551304
,,,,,,,,,244,132.799,0.0468856
,,,,,,,,,267,86.8371,0.0455433
,,,,,,,,,200,119.037,0.0539075
,,,,,,,,,221,58.2638,0.0350661
,,,,,,,,,243,92.6383,0.0373996
,,,,,,,,,266,110.711,0.0334136
,,,,,,,,,290,72.7675,0.0327262
,,,,,,,,,242,141.289,0.0538113
,,,,,,,,,265,39.172,0.0595091
,,,,,,,,,289,93.6178,0.0500153
,,,,,,,,,314,88.7432,0.0484907
,,,,,,,,,288,103.674,0.0373533
,,,,,,,,,313,59.0121,0.0333766
,,,,,,,,,339,52.7128,0.0326907
,,,,,,,,,338,76.1915,0.0354839
,,,,,,,,,365,51.427,0.0347096
,,,,,,,,,392,46.9129,0.0312498
