Q	U	V
{$V$}	{[mm$^3$]}	0.00155318
{$d_v$}	{[mm]}	0.143684
{$S_c$}	{[mm$^2$]}	0.134267
{$S_o$}	{[mm$^2$]}	0.0709983
{$S_l/S_o$}	[]	0.891130
{$\Psi$}	[]	0.483054
{$\eta$}	[]	0.536410
{med($\theta_e$)}	{[$^\circ$]}	87.0998
{$\Upsilon$}	[]	13
{$\Xi$}	[]	8
