facetNormals:0,facetNormals:1,facetNormals:2,FacetCenters:0,FacetCenters:1,FacetCenters:2,FacetIds,relFacetSize,absFacetSize,cellPairingIds,interplanarAngles,angleWeights
-0.00883968,-0.177376,-0.963822,6.97555,5.19418,9.50117,1,0.0219908,0.00319565,8,37.0195,0.0260245
-0.112359,-0.706365,-0.658027,6.94383,5.13171,9.54861,2,0.0318702,0.0046313,13,63.4391,0.0387371
-0.752936,0.349975,-0.49763,6.91697,5.21335,9.55204,3,0.162428,0.0236037,19,62.8674,0.0321309
0.644172,-0.64166,-0.337576,6.98961,5.19046,9.51278,4,0.0596238,0.00866438,26,89.2213,0.0343078
0.493258,0.823389,-0.169524,7.01485,5.2784,9.55146,5,0.0779897,0.0113333,34,99.2833,0.00516947
-0.710897,-0.628574,0.28471,6.8824,5.14489,9.57517,6,0.002929,0.000425634,43,113.582,0.0336348
-0.512278,0.762944,0.251909,6.95072,5.24527,9.58072,7,0.071486,0.0103882,53,120.097,0.0290032
0.0839598,0.921761,0.330796,6.9908,5.28427,9.60266,8,0.0425814,0.00618783,64,120.881,0.0381007
0.755504,-0.164835,0.505586,6.90945,5.21284,9.53005,9,0.142471,0.0207036,76,118.583,0.0173753
-0.327713,-0.688574,0.602541,6.89624,5.17753,9.58449,10,0.0143612,0.00208693,89,164.608,0.0217028
-0.235763,0.249504,0.906847,6.92664,5.22128,9.53902,11,0.0214221,0.00311301,18,79.9088,0.0532853
,,,,,,,,,25,50.2292,0.0415377
,,,,,,,,,33,123.692,0.0452494
,,,,,,,,,42,69.5429,0.00536494
,,,,,,,,,52,134.328,0.0440859
,,,,,,,,,63,156.826,0.0364553
,,,,,,,,,75,109.595,0.0520885
,,,,,,,,,88,82.2904,0.0198001
,,,,,,,,,102,142.384,0.025622
,,,,,,,,,32,125.232,0.0872281
,,,,,,,,,41,89.9311,0.105381
,,,,,,,,,51,79.5713,0.00575423
,,,,,,,,,62,55.1282,0.0992787
,,,,,,,,,74,84.284,0.0674742
,,,,,,,,,87,169.078,0.151797
,,,,,,,,,101,108.215,0.0263892
,,,,,,,,,116,101.457,0.0378521
,,,,,,,,,50,99.3368,0.0675812
,,,,,,,,,61,99.0245,0.0055837
,,,,,,,,,73,168.185,0.0650183
,,,,,,,,,86,132.909,0.0496817
,,,,,,,,,100,61.9204,0.0840662
,,,,,,,,,115,88.3389,0.0231471
,,,,,,,,,131,131.091,0.0315196
,,,,,,,,,72,161.638,0.00564596
,,,,,,,,,85,69.0017,0.0745963
,,,,,,,,,99,39.0215,0.0550864
,,,,,,,,,114,80.3322,0.1008
,,,,,,,,,130,151.28,0.0242558
,,,,,,,,,147,93.9185,0.0336118
,,,,,,,,,98,92.6513,0.00562742
,,,,,,,,,113,124.026,0.00548098
,,,,,,,,,129,108.44,0.00573999
,,,,,,,,,146,29.5861,0.00486564
,,,,,,,,,164,73.7412,0.00515339
,,,,,,,,,128,37.4475,0.0533715
,,,,,,,,,145,115.964,0.0952031
,,,,,,,,,163,102.832,0.0239175
,,,,,,,,,182,54.2683,0.0329655
,,,,,,,,,162,85.0258,0.0655665
,,,,,,,,,181,118.984,0.0214785
,,,,,,,,,201,57.6366,0.0285042
,,,,,,,,,200,79.0509,0.0260923
,,,,,,,,,221,74.5108,0.0372442
,,,,,,,,,242,61.3476,0.017195
