Q	U	V
{$V$}	{[mm$^3$]}	0.0028
{$d_v$}	{[mm]}	0.174872
{$S_c$}	{[mm$^2$]}	0.17399
{$S_o$}	{[mm$^2$]}	0.0988555
{$S_l/S_o$}	[]	0.760044
{$\Psi$}	[]	0.55216
{$\eta$}	[]	0.573628
{med($\theta_e$)}	{[$^\circ$]}	69.2033
{$\Upsilon$}	[]	13
{$\Xi$}	[]	8
