"cellPairingIds","interplanarAngles","angleWeights"
18,37.8224,0.0761629
25,78.7262,0.0446451
33,90.8769,0.0319147
32,95.345,0.0395147
41,105.511,0.0292042
51,65.9524,0.0758327
87,84.7725,0.0619426
50,130.342,0.0229828
61,50.8431,0.0445314
115,78.3647,0.0383533
131,112.225,0.0190635
148,102.276,0.034224
114,81.9115,0.029114
147,69.4477,0.0162891
165,116.064,0.0262097
129,99.4887,0.0752275
146,40.9666,0.0716678
200,67.2191,0.0591354
243,44.8646,0.0498599
265,29.002,0.0482708
288,57.294,0.0212317
