Q	U	V
{$V$}	{[mm$^3$]}	0.00259101
{$d_v$}	{[mm]}	0.170408
{$S_c$}	{[mm$^2$]}	0.152922
{$S_o$}	{[mm$^2$]}	0.0843408
{$S_l/S_o$}	[]	0.813144
{$\Psi$}	[]	0.596568
{$\eta$}	[]	0.659133
{med($\theta_e$)}	{[$^\circ$]}	34.2501
{$\Upsilon$}	[]	8
{$\Xi$}	[]	10
