Q	U	V
{$V$}	{[mm$^3$]}	0.00487091
{$d_v$}	{[mm]}	0.210315
{$S_c$}	{[mm$^2$]}	0.312477
{$S_o$}	{[mm$^2$]}	0.167083
{$S_l/S_o$}	[]	0.870190
{$\Psi$}	[]	0.444706
{$\eta$}	[]	0.489188
{med($\theta_e$)}	{[$^\circ$]}	92.80275
{$\Upsilon$}	[]	12
{$\Xi$}	[]	10
