"cellPairingIds","interplanarAngles","angleWeights"
8,35.066,0.044509
13,50.3616,0.00824856
19,40.3229,0.0419324
26,51.0314,0.0338792
34,156.974,0.0338824
33,45.4681,0.0610427
42,125.677,0.0610534
52,57.7919,0.116704
32,49.9658,0.00913415
51,142.743,0.00868469
74,68.9221,0.00910223
87,105.438,0.00941839
50,35.5161,0.0562982
86,83.0638,0.0801425
85,29.3083,0.0640285
99,105.975,0.055107
114,134.686,0.0691632
98,102.243,0.0640403
129,44.3037,0.0691769
145,116.68,0.150483
162,44.1028,0.109006
