Q	U	V
{$V$}	{[mm$^3$]}	0.00245208
{$d_v$}	{[mm]}	0.167306
{$S_c$}	{[mm$^2$]}	0.156812
{$S_o$}	{[mm$^2$]}	0.0857871
{$S_l/S_o$}	[]	0.827921
{$\Psi$}	[]	0.560783
{$\eta$}	[]	0.594939
{med($\theta_e$)}	{[$^\circ$]}	98.4408
{$\Upsilon$}	[]	10
{$\Xi$}	[]	1
