Q	U	V
{$V$}	{[mm$^3$]}	0.012841
{$d_v$}	{[mm]}	0.290536
{$S_c$}	{[mm$^2$]}	0.561013
{$S_o$}	{[mm$^2$]}	0.294625
{$S_l/S_o$}	[]	0.904160
{$\Psi$}	[]	0.472691
{$\eta$}	[]	0.481959
{med($\theta_e$)}	{[$^\circ$]}	55.3962
{$\Upsilon$}	[]	15
{$\Xi$}	[]	9
