"cellPairingIds","interplanarAngles","angleWeights"
13,36.3061,0.0997998
19,73.4845,0.0609355
26,95.781,0.0330205
43,103.211,0.0255091
32,105.122,0.072269
62,101.989,0.0273015
74,61.3689,0.0995918
101,74.1069,0.0535353
132,106.553,0.0989735
149,122.345,0.0353081
50,84.0343,0.0293243
61,38.761,0.0706019
148,115.586,0.0606265
166,128.332,0.0288078
72,50.5528,0.0356667
85,36.215,0.0175771
184,91.4734,0.0205819
203,103.796,0.0349054
128,60.7944,0.0254955
223,71.1623,0.0173902
244,66.6489,0.032345
265,41.1887,0.046868
289,49.142,0.0252813
338,35.7517,0.0322796
