"cellPairingIds","interplanarAngles","angleWeights"
8,60.6633,0.0584424
13,60.8123,0.0467328
19,48.4857,0.0267016
53,80.8822,0.0602393
18,38.3243,0.0506233
33,34.2208,0.0754973
42,116.763,0.102683
52,81.4596,0.0767819
63,139.322,0.066863
32,34.2257,0.0249415
41,47.8838,0.0570357
116,69.0213,0.0383216
86,98.4635,0.0283318
131,88.1436,0.0237261
85,70.3873,0.0925665
130,43.6693,0.0317762
147,49.7059,0.0510551
98,65.9208,0.137057
113,43.3774,0.108362
128,106.878,0.0799137
145,27.3748,0.0408991
163,48.759,0.0320016
162,81.0242,0.0379039
181,139.707,0.0301382
201,137.767,0.0469547
200,66.5102,0.0221644
242,37.2694,0.02498
