facetNormals:0,facetNormals:1,facetNormals:2,FacetCenters:0,FacetCenters:1,FacetCenters:2,FacetIds,relFacetSize,absFacetSize,cellPairingIds,interplanarAngles,angleWeights
0.245846,0.382819,-0.831786,5.66694,5.11411,11.0796,1,0.0336882,0.00384807,8,38.6557,0.0244986
-0.356857,0.561593,-0.718949,5.66022,5.15212,11.0816,2,0.0192481,0.00219864,13,88.031,0.035263
-0.080585,-0.839261,-0.447459,5.65749,5.14477,11.1229,3,0.0369922,0.00422548,19,94.6201,0.0318386
-0.787074,0.565402,0.117211,5.59479,5.12408,11.1392,4,0.0301816,0.00344752,26,97.6211,0.0576691
0.745582,-0.551341,0.107737,5.73095,5.10615,11.1153,5,0.200136,0.0228607,34,94.7872,0.0525943
-0.166754,0.829033,0.422173,5.63586,5.14779,11.1527,6,0.119862,0.0136914,43,134.634,0.0443131
-0.816589,-0.0717137,0.49072,5.5728,5.10265,11.1375,7,0.0647276,0.00739359,53,128.726,0.029963
-0.561497,0.380035,0.707918,5.57912,5.09845,11.1547,8,0.0269797,0.00308178,64,132.545,0.0442608
0.513332,-0.474447,0.690774,5.69621,5.10461,11.1791,9,0.0645047,0.00736813,76,174.497,0.0453975
-0.269251,-0.461806,0.79165,5.60231,5.06657,11.1695,10,0.0695833,0.00794823,89,130.89,0.0496858
0.291863,0.194588,0.88868,5.67538,5.10076,11.1495,11,0.0946169,0.0108077,18,97.427,0.025321
,,,,,,,,,25,57.4763,0.0235056
,,,,,,,,,33,135.58,0.0351187
,,,,,,,,,42,76.1547,0.0331696
,,,,,,,,,52,96.2366,0.0296725
,,,,,,,,,63,95.6873,0.0224673
,,,,,,,,,75,169.399,0.029649
,,,,,,,,,88,141.509,0.0301548
,,,,,,,,,102,132.624,0.0319887
,,,,,,,,,32,119.834,0.0332416
,,,,,,,,,41,66.5616,0.0624428
,,,,,,,,,51,164.957,0.0565361
,,,,,,,,,62,95.8903,0.0470787
,,,,,,,,,74,129.13,0.0312024
,,,,,,,,,87,87.0836,0.0470196
,,,,,,,,,101,86.539,0.0483045
,,,,,,,,,116,129.86,0.0531892
,,,,,,,,,50,166.454,0.0524529
,,,,,,,,,61,45.2572,0.0482209
,,,,,,,,,73,44.9804,0.0411674
,,,,,,,,,86,39.3639,0.0284909
,,,,,,,,,100,128.053,0.0411222
,,,,,,,,,115,87.3197,0.0421016
,,,,,,,,,131,90.9544,0.0457648
,,,,,,,,,72,127.401,0.14993
,,,,,,,,,85,125.382,0.0978188
,,,,,,,,,99,127.094,0.0475494
,,,,,,,,,114,38.424,0.0975641
,,,,,,,,,130,81.0225,0.103264
,,,,,,,,,147,76.6415,0.128489
,,,,,,,,,98,71.6766,0.0840608
,,,,,,,,,113,40.208,0.0440452
,,,,,,,,,129,101.634,0.0838727
,,,,,,,,,146,90.2374,0.0880506
,,,,,,,,,164,57.3013,0.105754
,,,,,,,,,128,33.7527,0.0380849
,,,,,,,,,145,92.8193,0.064616
,,,,,,,,,163,45.3413,0.0670677
,,,,,,,,,182,78.383,0.076869
,,,,,,,,,162,88.7824,0.0380462
,,,,,,,,,181,55.0719,0.0388831
,,,,,,,,,201,54.8492,0.0419869
,,,,,,,,,200,48.0333,0.0669478
,,,,,,,,,221,44.3522,0.0767116
,,,,,,,,,242,54.1052,0.0801918
