Q	U	V
{$V$}	{[mm$^3$]}	0.00487922
{$d_v$}	{[mm]}	0.210435
{$S_c$}	{[mm$^2$]}	0.314029
{$S_o$}	{[mm$^2$]}	0.159261
{$S_l/S_o$}	[]	0.971788
{$\Psi$}	[]	0.443011
{$\eta$}	[]	0.486751
{med($\theta_e$)}	{[$^\circ$]}	
{$\Upsilon$}	[]	12
{$\Xi$}	[]	9
