facetNormals:0,facetNormals:1,facetNormals:2,FacetCenters:0,FacetCenters:1,FacetCenters:2,FacetIds,relFacetSize,absFacetSize,cellPairingIds,interplanarAngles,angleWeights
0.338638,0.266864,-0.877964,4.47153,5.20387,10.0116,1,0.05789,0.0103244,8,47.8588,0.0334496
-0.456126,0.274204,-0.828917,4.33051,5.17182,10.0127,2,0.0235198,0.00419465,13,36.7643,0.0606535
0.0459952,0.747182,-0.626185,4.42474,5.23911,10.0176,3,0.0636941,0.0113596,19,75.7562,0.0687359
-0.336597,-0.679063,-0.601458,4.33321,5.08821,10.0516,4,0.084583,0.015085,26,76.8428,0.0679197
-0.771187,-0.087099,-0.567782,4.28155,5.14116,10.0602,5,0.0821532,0.0146517,34,62.9984,0.0668329
0.547753,-0.626048,-0.459761,4.47015,5.14263,10.0267,6,0.0790437,0.0140971,43,45.3754,0.0301965
0.695399,0.605047,-0.308591,4.52948,5.25096,10.0683,7,0.0204254,0.00364278,53,95.7235,0.0365527
0.820242,-0.400463,0.301453,4.51007,5.20477,10.1117,8,0.0267084,0.00476333,64,117.975,0.0509267
-0.912614,-0.33676,0.0548137,4.26077,5.09852,10.1287,9,0.0454587,0.00810736,76,93.0869,0.0908528
-0.356566,0.873454,0.185647,4.36138,5.22851,10.1066,10,0.210994,0.0376298,18,43.0135,0.034354
,,,,,,,,,25,60.7376,0.0368053
,,,,,,,,,33,32.5423,0.0365699
,,,,,,,,,42,92.4735,0.0362525
,,,,,,,,,52,83.7338,0.0218637
,,,,,,,,,63,140.802,0.0250129
,,,,,,,,,75,73.1319,0.0310004
,,,,,,,,,88,74.8048,0.0423219
,,,,,,,,,32,98.909,0.0726671
,,,,,,,,,41,74.2347,0.0717555
,,,,,,,,,51,99.5992,0.0705436
,,,,,,,,,62,44.4442,0.0309316
,,,,,,,,,74,118.681,0.0376354
,,,,,,,,,87,110.173,0.0530532
,,,,,,,,,101,56.3508,0.0978496
,,,,,,,,,50,44.7977,0.0833504
,,,,,,,,,61,55.7714,0.0817196
,,,,,,,,,73,119.234,0.0329048
,,,,,,,,,86,101.502,0.0405975
,,,,,,,,,100,57.7603,0.0591354
,,,,,,,,,115,128.944,0.120757
,,,,,,,,,72,96.7137,0.0805685
,,,,,,,,,85,116.274,0.0327166
,,,,,,,,,99,146.279,0.0403114
,,,,,,,,,114,41.4717,0.0585302
,,,,,,,,,130,84.1964,0.11826
,,,,,,,,,98,81.0333,0.0324623
,,,,,,,,,113,52.0865,0.0399261
,,,,,,,,,129,109.838,0.0577214
,,,,,,,,,146,154.887,0.115004
,,,,,,,,,128,75.4294,0.0231481
,,,,,,,,,145,154.568,0.0281862
,,,,,,,,,163,76.1816,0.0372452
,,,,,,,,,162,129.615,0.0336477
,,,,,,,,,181,129.37,0.0474149
,,,,,,,,,200,87.4648,0.0748014
