Q	U	V
{$V$}	{[mm$^3$]}	0.00863511
{$d_v$}	{[mm]}	0.254540
{$S_c$}	{[mm$^2$]}	0.343981
{$S_o$}	{[mm$^2$]}	0.221704
{$S_l/S_o$}	[]	0.551533
{$\Psi$}	[]	0.591736
{$\eta$}	[]	0.658667
{med($\theta_e$)}	{[$^\circ$]}	63.69035
{$\Upsilon$}	[]	12
{$\Xi$}	[]	8
