facetNormals:0,facetNormals:1,facetNormals:2,FacetCenters:0,FacetCenters:1,FacetCenters:2,FacetIds,relFacetSize,absFacetSize,cellPairingIds,interplanarAngles,angleWeights
0.524675,0.386359,-0.716514,4.25401,7.50482,10.7708,1,0.0305326,0.00793652,8,83.5832,0.0474117
0.0198522,-0.778026,-0.548853,4.14603,7.40357,10.7697,2,0.106025,0.0275597,13,108.282,0.0274624
-0.35771,-0.870044,-0.31099,4.0993,7.40326,10.7926,3,0.0249532,0.00648625,19,70.4002,0.0439267
0.862043,-0.420205,-0.0303831,4.26779,7.47406,10.8427,4,0.0782566,0.0203417,26,92.3215,0.0206748
-0.749596,0.56096,-0.194067,4.10509,7.48884,10.806,5,0.0156288,0.00406249,34,100.565,0.0223072
0.549693,-0.790994,0.220916,4.21073,7.47766,10.9004,6,0.0175731,0.00456788,43,72.8189,0.034186
0.736655,0.475338,0.40941,4.24824,7.5997,10.9011,7,0.0388324,0.010094,53,129.423,0.036549
0.14081,-0.826489,0.491738,4.16633,7.41061,10.8873,8,0.0455183,0.0118318,64,146.227,0.0436891
-0.845546,0.00139469,0.466748,4.06957,7.48211,10.8963,9,0.0767691,0.0199551,76,164.526,0.0351665
-0.362657,-0.590563,0.689128,4.10591,7.46379,10.9014,10,0.0414587,0.0107766,89,97.157,0.0248192
0.306357,0.603925,0.715936,4.19879,7.51738,10.8574,11,0.0209069,0.00543447,103,115.819,0.0457567
0.502584,-0.345653,0.751362,4.20656,7.52253,10.9248,12,0.0912613,0.0237221,118,137.755,0.0501933
-0.0542975,0.0654675,0.923888,4.15756,7.54979,10.9409,13,0.140963,0.0366415,18,27.0292,0.0403986
,,,,,,,,,25,66.7487,0.0900486
,,,,,,,,,33,112.251,0.027242
,,,,,,,,,42,57.5437,0.0301491
,,,,,,,,,52,129,0.056845
,,,,,,,,,63,66.038,0.0636924
,,,,,,,,,75,107.334,0.0890558
,,,,,,,,,88,85.4372,0.0596087
,,,,,,,,,102,155.905,0.0349267
,,,,,,,,,117,98.3273,0.0980907
,,,,,,,,,133,129.254,0.121023
,,,,,,,,,32,85.9776,0.0378405
,,,,,,,,,41,99.697,0.0192198
,,,,,,,,,51,64.4134,0.0206228
,,,,,,,,,62,147.043,0.0303828
,,,,,,,,,74,57.6153,0.0322351
,,,,,,,,,87,80.6119,0.0376641
,,,,,,,,,101,63.6872,0.0311549
,,,,,,,,,116,151.453,0.0227516
,,,,,,,,,132,96.7506,0.0391907
,,,,,,,,,149,110.695,0.0424007
,,,,,,,,,50,162.719,0.0260543
,,,,,,,,,61,32.521,0.0287011
,,,,,,,,,73,62.905,0.0519074
,,,,,,,,,86,60.8868,0.0575578
,,,,,,,,,100,143.369,0.0775057
,,,,,,,,,115,95.2255,0.0542022
,,,,,,,,,131,90.6927,0.0329982
,,,,,,,,,148,53.2443,0.0842601
,,,,,,,,,166,96.6045,0.100642
,,,,,,,,,72,161.993,0.016544
,,,,,,,,,85,113.236,0.0222876
,,,,,,,,,99,135.654,0.0232684
,,,,,,,,,114,53.9066,0.0259705
,,,,,,,,,130,101.93,0.0227002
,,,,,,,,,147,91.8127,0.0178866
,,,,,,,,,165,140.736,0.0266873
,,,,,,,,,184,96.594,0.0281379
,,,,,,,,,98,82.8275,0.0241964
,,,,,,,,,113,29.0405,0.0253568
,,,,,,,,,129,112.339,0.0285995
,,,,,,,,,146,64.2229,0.0246836
,,,,,,,,,164,98.9278,0.0190956
,,,,,,,,,183,41.5586,0.0294713
,,,,,,,,,203,82.324,0.0312504
,,,,,,,,,128,95.3575,0.0419104
,,,,,,,,,145,117.473,0.051576
,,,,,,,,,163,106.32,0.0401026
,,,,,,,,,182,32.3133,0.0271803
,,,,,,,,,202,56.7418,0.0544822
,,,,,,,,,223,65.7039,0.0608908
,,,,,,,,,162,83.3135,0.0571506
,,,,,,,,,181,35.2352,0.0433938
,,,,,,,,,201,96.2301,0.0286532
,,,,,,,,,222,39.4916,0.0607409
,,,,,,,,,244,64.1949,0.0688155
,,,,,,,,,200,48.3374,0.0538409
,,,,,,,,,221,85.4221,0.0328639
,,,,,,,,,243,94.5865,0.0833902
,,,,,,,,,266,57.8207,0.099403
,,,,,,,,,242,88.4761,0.0277966
,,,,,,,,,265,55.2119,0.0570159
,,,,,,,,,289,47.061,0.0640729
,,,,,,,,,288,59.5628,0.0340202
,,,,,,,,,313,41.5407,0.0364133
,,,,,,,,,338,44.1508,0.110794
