facetNormals:0,facetNormals:1,facetNormals:2,FacetCenters:0,FacetCenters:1,FacetCenters:2,FacetIds,relFacetSize,absFacetSize,cellPairingIds,interplanarAngles,angleWeights
0.410975,0.105657,-0.860721,5.92765,6.19756,10.7107,1,0.0732002,0.0122219,8,48.5292,0.0605461
0.249781,-0.650875,-0.679355,5.9066,6.1422,10.6905,2,0.0516222,0.00861909,13,37.6806,0.0861518
0.566573,0.587772,-0.503822,5.92087,6.18608,10.7481,3,0.104672,0.0174765,19,69.5355,0.0815338
-0.16477,0.864578,-0.340393,5.87796,6.24131,10.7168,4,0.0920087,0.0153622,26,84.4857,0.0339599
-0.752843,0.456379,-0.407373,5.84142,6.23354,10.7502,5,0.0221083,0.00369132,34,82.6308,0.0548142
-0.678204,-0.452741,-0.517513,5.83437,6.16859,10.6994,6,0.0438102,0.00731477,43,59.3412,0.0928066
0.70108,-0.605217,-0.291576,5.98974,6.15177,10.776,7,0.126758,0.0211642,53,135.979,0.0806493
-0.746527,-0.49931,0.357147,5.86568,6.1706,10.7853,8,0.0897863,0.0149912,64,138.9,0.0637896
-0.253063,0.525776,0.726774,5.91659,6.13667,10.7243,9,0.056523,0.00943735,18,83.777,0.0691439
,,,,,,,,,25,113.933,0.0661374
,,,,,,,,,33,102.746,0.0309582
,,,,,,,,,42,59.5211,0.0473964
,,,,,,,,,52,35.7463,0.0733661
,,,,,,,,,63,96.3532,0.0655543
,,,,,,,,,75,172.339,0.0539615
,,,,,,,,,32,49.6348,0.0979326
,,,,,,,,,41,87.1081,0.036506
,,,,,,,,,51,114.868,0.0617677
,,,,,,,,,62,78.3321,0.114661
,,,,,,,,,74,165.182,0.0966593
,,,,,,,,,87,102.959,0.0734064
,,,,,,,,,50,44.1083,0.0356504
,,,,,,,,,61,96.5223,0.0593573
,,,,,,,,,73,126.073,0.106624
,,,,,,,,,86,118.147,0.090884
,,,,,,,,,100,73.5623,0.0700269
,,,,,,,,,72,56.6696,0.0293869
,,,,,,,,,85,136.676,0.03765
,,,,,,,,,99,78.3922,0.0354803
,,,,,,,,,114,81.451,0.0317845
,,,,,,,,,98,93.0915,0.0651153
,,,,,,,,,113,54.087,0.0588871
,,,,,,,,,129,119.447,0.0493612
,,,,,,,,,128,110.282,0.105116
,,,,,,,,,145,141.427,0.0781832
,,,,,,,,,162,78.0867,0.0693735
