Q	U	V
{$V$}	{[mm$^3$]}	0.00117795
{$d_v$}	{[mm]}	0.131032
{$S_c$}	{[mm$^2$]}	0.0924029
{$S_o$}	{[mm$^2$]}	0.0546821
{$S_l/S_o$}	[]	0.689820
{$\Psi$}	[]	0.583736
{$\eta$}	[]	0.629393
{med($\theta_e$)}	{[$^\circ$]}	71.8663
{$\Upsilon$}	[]	13
{$\Xi$}	[]	3
