Q	U	V
{$V$}	{[mm$^3$]}	0.0174899
{$d_v$}	{[mm]}	0.322055
{$S_c$}	{[mm$^2$]}	0.562441
{$S_o$}	{[mm$^2$]}	0.38255
{$S_l/S_o$}	[]	0.470242
{$\Psi$}	[]	0.579338
{$\eta$}	[]	0.599899
{med($\theta_e$)}	{[$^\circ$]}	56.23865
{$\Upsilon$}	[]	14
{$\Xi$}	[]	7
