Q	U	V
{$V$}	{[mm$^3$]}	0.00706056
{$d_v$}	{[mm]}	0.238020
{$S_c$}	{[mm$^2$]}	0.366464
{$S_o$}	{[mm$^2$]}	0.178707
{$S_l/S_o$}	[]	1.050642
{$\Psi$}	[]	0.485675
{$\eta$}	[]	0.583618
{med($\theta_e$)}	{[$^\circ$]}	
{$\Upsilon$}	[]	8
{$\Xi$}	[]	10
