Q	U	V
{$V$}	{[mm$^3$]}	0.011498
{$d_v$}	{[mm]}	0.280032
{$S_c$}	{[mm$^2$]}	0.484925
{$S_o$}	{[mm$^2$]}	0.287165
{$S_l/S_o$}	[]	0.688663
{$\Psi$}	[]	0.508032
{$\eta$}	[]	0.529544
{med($\theta_e$)}	{[$^\circ$]}	49.6251
{$\Upsilon$}	[]	12
{$\Xi$}	[]	7
