facetNormals:0,facetNormals:1,facetNormals:2,FacetCenters:0,FacetCenters:1,FacetCenters:2,FacetIds,relFacetSize,absFacetSize,cellPairingIds,interplanarAngles,angleWeights
-0.793367,-0.15746,-0.508714,5.14795,4.04963,11.0812,1,0.0814429,0.0233029,8,56.8246,0.0611631
-0.364773,0.649736,-0.645468,5.23916,4.11337,11.0205,2,0.0489694,0.0140114,13,74.9239,0.103267
0.0761201,-0.889727,-0.304203,5.25596,4.04272,11.083,3,0.14107,0.0403637,19,120.983,0.0852057
0.846718,-0.140071,-0.372521,5.37031,4.12422,11.081,4,0.0893331,0.0255605,26,84.8623,0.121453
-0.207571,0.914367,-0.118263,5.27339,4.18154,11.1415,5,0.238733,0.0683076,34,149.065,0.040259
0.943645,-0.187753,0.157104,5.36463,4.1364,11.1419,6,0.0267381,0.00765047,43,72.0696,0.0502496
-0.760882,0.305887,0.527968,5.15507,4.11139,11.2125,7,0.0363335,0.010396,53,143.871,0.0504121
0.495271,-0.282159,0.777515,5.32532,4.06698,11.1342,8,0.0365037,0.0104447,18,116.125,0.0727019
,,,,,,,,,25,99.9532,0.0632611
,,,,,,,,,33,36.7859,0.0812687
,,,,,,,,,42,126.2,0.0345897
,,,,,,,,,52,81.8981,0.0417156
,,,,,,,,,63,155.649,0.0418276
,,,,,,,,,32,69.9634,0.109393
,,,,,,,,,41,152.858,0.177345
,,,,,,,,,51,78.0079,0.0449555
,,,,,,,,,62,122.229,0.0577843
,,,,,,,,,74,86.7082,0.0579994
,,,,,,,,,50,107.086,0.130015
,,,,,,,,,61,32.788,0.0411575
,,,,,,,,,73,165.586,0.0516571
,,,,,,,,,86,79.1855,0.0518289
,,,,,,,,,72,114.778,0.0480902
,,,,,,,,,85,65.9806,0.0630685
,,,,,,,,,99,119.797,0.0633247
,,,,,,,,,98,136.744,0.0308059
,,,,,,,,,113,46.8745,0.030867
,,,,,,,,,128,93.2098,0.0364184
