Q	U	V
{$V$}	{[mm$^3$]}	0.00230721
{$d_v$}	{[mm]}	0.163944
{$S_c$}	{[mm$^2$]}	0.142964
{$S_o$}	{[mm$^2$]}	0.0850571
{$S_l/S_o$}	[]	0.680800
{$\Psi$}	[]	0.59063
{$\eta$}	[]	0.624121
{med($\theta_e$)}	{[$^\circ$]}	55.6056
{$\Upsilon$}	[]	17
{$\Xi$}	[]	7
