facetNormals:0,facetNormals:1,facetNormals:2,FacetCenters:0,FacetCenters:1,FacetCenters:2,FacetIds,relFacetSize,absFacetSize,cellPairingIds,interplanarAngles,angleWeights
-0.155606,-0.512082,-0.807065,6.34869,3.41705,10.7168,1,0.0512148,0.0038538,8,51.0538,0.0377759
0.428563,0.0849914,-0.872604,6.39608,3.43621,10.7247,2,0.0299238,0.0022517,13,18.4725,0.0454797
0.118378,-0.650111,-0.736141,6.37236,3.43839,10.7105,3,0.0408998,0.00307762,19,37.9307,0.0558428
0.465401,-0.517202,-0.686914,6.40598,3.45583,10.7181,4,0.0613902,0.00461948,26,83.422,0.0305768
-0.163923,0.716021,-0.548739,6.40198,3.4887,10.7427,5,0.0217944,0.00163998,34,70.2005,0.0486883
0.85782,-0.219586,-0.425326,6.43139,3.42245,10.7633,6,0.0463994,0.00349146,43,70.7271,0.074685
0.608658,-0.737941,-0.0281407,6.45023,3.43718,10.7844,7,0.137864,0.010374,53,104.89,0.0441585
0.871034,-0.299021,0.322664,6.4781,3.47607,10.7937,8,0.0388112,0.00292046,64,96.5766,0.0470736
-0.887155,-0.149432,0.401238,6.31737,3.41543,10.7868,9,0.043552,0.0032772,76,129.945,0.0120705
0.838148,0.151786,0.504934,6.49807,3.5214,10.8037,10,0.00684149,0.000514807,89,116.74,0.0324416
0.516307,-0.444906,0.71671,6.44213,3.44549,10.8276,11,0.0237396,0.00178635,103,145.444,0.00715222
0.624141,0.167416,0.757005,6.47527,3.52043,10.8367,12,0.00384456,0.000289295,118,113.868,0.0344705
-0.0521828,-0.53681,0.832122,6.38212,3.42687,10.828,13,0.0259773,0.00195474,134,135.736,0.0795124
-0.102306,-0.152822,0.938264,6.3876,3.45875,10.8354,14,0.177692,0.0133709,18,48.6445,0.0345613
,,,,,,,,,25,37.7034,0.0402354
,,,,,,,,,33,58.3553,0.0252202
,,,,,,,,,42,41.3069,0.0363834
,,,,,,,,,52,76.205,0.0491742
,,,,,,,,,63,86.0064,0.033793
,,,,,,,,,75,140.618,0.0354741
,,,,,,,,,88,94.0655,0.0111368
,,,,,,,,,102,117.251,0.0264754
,,,,,,,,,117,112.958,0.0068137
,,,,,,,,,133,145.146,0.0278113
,,,,,,,,,150,159.783,0.0512218
,,,,,,,,,32,21.9625,0.0490927
,,,,,,,,,41,95.1204,0.028436
,,,,,,,,,51,54.9977,0.0434764
,,,,,,,,,62,52.7881,0.0630844
,,,,,,,,,74,86.4375,0.0398281
,,,,,,,,,87,108.131,0.0421843
,,,,,,,,,101,112.267,0.0117222
,,,,,,,,,116,100.437,0.0300419
,,,,,,,,,132,126.977,0.00702845
,,,,,,,,,149,105.962,0.0317737
,,,,,,,,,167,129.645,0.0664944
,,,,,,,,,50,94.458,0.0321685
,,,,,,,,,61,33.059,0.0528524
,,,,,,,,,73,43.0034,0.0849518
,,,,,,,,,86,69.2264,0.0475568
,,,,,,,,,100,129.391,0.0509551
,,,,,,,,,115,92.0881,0.012311
,,,,,,,,,131,91.2991,0.034239
,,,,,,,,,148,108.956,0.00723596
,,,,,,,,,166,109.162,0.0365068
,,,,,,,,,185,130.982,0.0912535
,,,,,,,,,72,94.1035,0.029658
,,,,,,,,,85,134.291,0.0376386
,,,,,,,,,99,126.64,0.0279138
,,,,,,,,,114,101.609,0.029051
,,,,,,,,,130,109.683,0.0104139
,,,,,,,,,147,151.44,0.0227254
,,,,,,,,,165,115.846,0.00653613
,,,,,,,,,184,156.286,0.0237027
,,,,,,,,,204,133.868,0.0388266
,,,,,,,,,98,42.2255,0.0694312
,,,,,,,,,113,45.186,0.0422674
,,,,,,,,,129,158.264,0.0449307
,,,,,,,,,146,61.0462,0.0119247
,,,,,,,,,164,75.9565,0.0314092
,,,,,,,,,183,79.59,0.00710076
,,,,,,,,,203,106.755,0.0333072
,,,,,,,,,224,118.855,0.0735843
,,,,,,,,,128,37.4118,0.0605707
,,,,,,,,,145,117.892,0.0661933
,,,,,,,,,163,66.099,0.0130361
,,,,,,,,,182,48.8837,0.0405045
,,,,,,,,,202,75.7138,0.00748051
,,,,,,,,,223,68.9432,0.0437172
,,,,,,,,,245,88.4907,0.155264
,,,,,,,,,162,128.515,0.0410452
,,,,,,,,,181,28.6943,0.0116325
,,,,,,,,,201,32.4956,0.0294597
,,,,,,,,,222,40.5628,0.0069961
,,,,,,,,,244,66.6476,0.0311231
,,,,,,,,,267,73.862,0.0637075
,,,,,,,,,200,125.3,0.0118254
,,,,,,,,,221,96.1272,0.0307292
,,,,,,,,,243,106.288,0.00706542
,,,,,,,,,266,61.8803,0.0325435
,,,,,,,,,290,58.6459,0.0699576
,,,,,,,,,242,42.0601,0.0106219
,,,,,,,,,265,19.1927,0.00492278
,,,,,,,,,289,72.5192,0.0108306
,,,,,,,,,314,67.3352,0.0131757
,,,,,,,,,288,36.5971,0.00661744
,,,,,,,,,313,34.4981,0.0248081
,,,,,,,,,339,43.3505,0.0418836
,,,,,,,,,338,59.0573,0.00669786
,,,,,,,,,365,49.2781,0.00752628
,,,,,,,,,392,23.7032,0.045328
