"cellPairingIds","interplanarAngles","angleWeights"
8,63.3738,0.0699109
13,75.1045,0.119371
19,86.4066,0.104734
43,101.024,0.0311555
18,58.9704,0.0843456
25,46.6296,0.0767654
33,42.6914,0.0386352
63,61.6114,0.0319832
51,57.0588,0.151733
62,143.219,0.0337278
74,54.0284,0.0394637
50,41.9408,0.0473324
73,113.013,0.0324466
100,52.3306,0.0228538
131,75.081,0.0571384
99,33.5719,0.0254021
114,38.1549,0.0176638
98,92.8765,0.0329921
113,70.1849,0.0384601
146,57.9773,0.100555
163,40.6647,0.0302999
182,70.7968,0.0249685
162,49.1594,0.01613
181,103.594,0.0348504
200,89.7123,0.0217675
221,34.078,0.0188725
242,58.7086,0.0508001
