facetNormals:0,facetNormals:1,facetNormals:2,FacetCenters:0,FacetCenters:1,FacetCenters:2,FacetIds,relFacetSize,absFacetSize,cellPairingIds,interplanarAngles,angleWeights
-0.408502,-0.260491,-0.823074,7.11104,3.8061,10.5387,1,0.0181909,0.000997838,8,55.8294,0.0125575
0.471667,-0.380508,-0.734053,7.10195,3.81414,10.5399,2,0.00958818,0.000525946,13,79.4252,0.00789512
0.51725,0.517236,-0.625353,7.13205,3.82002,10.5493,3,0.00504163,0.000276552,19,106.58,0.0298311
0.824692,-0.499724,0.068967,7.1475,3.77922,10.5883,4,0.0828394,0.00454404,26,106.281,0.0123156
0.208748,-0.830661,0.478446,7.11191,3.74673,10.6067,5,0.00930893,0.000510628,34,147.51,0.0315873
0.807306,0.235299,0.46567,7.15944,3.83094,10.5802,6,0.119844,0.0065739,43,130.601,0.0236749
0.144312,0.894293,0.390177,7.14916,3.88121,10.5462,7,0.0338924,0.00185912,53,145.939,0.022533
0.469481,0.711445,0.484233,7.1616,3.86022,10.5576,8,0.029598,0.00162356,64,104.327,0.0257954
-0.214295,-0.721828,0.613748,7.10397,3.74541,10.5916,9,0.0443248,0.00243137,76,134.589,0.0321954
-0.180173,0.694805,0.668602,7.11088,3.859,10.5779,10,0.139893,0.00767366,89,106.881,0.0266272
-0.567184,-0.349218,0.723345,7.07409,3.75443,10.5848,11,0.0496559,0.00272381,103,127.763,0.0320123
-0.440606,0.292622,0.818686,7.0977,3.82202,10.5877,12,0.133272,0.00731043,118,160.426,0.0302631
0.202485,0.0342829,0.930855,7.13499,3.77555,10.5887,13,0.089971,0.00493523,18,56.4557,0.00660843
,,,,,,,,,25,54.9483,0.0171871
,,,,,,,,,33,86.1116,0.00944649
,,,,,,,,,42,93.1689,0.0177558
,,,,,,,,,52,126.513,0.0149477
,,,,,,,,,63,115.703,0.0144842
,,,,,,,,,75,107.427,0.0157659
,,,,,,,,,88,154.127,0.0179463
,,,,,,,,,102,135.327,0.0160728
,,,,,,,,,117,172.63,0.0178893
,,,,,,,,,133,131.465,0.0173295
,,,,,,,,,32,82.2806,0.00950479
,,,,,,,,,41,131.117,0.00654081
,,,,,,,,,51,74.4443,0.0096762
,,,,,,,,,62,72.007,0.00877756
,,,,,,,,,74,70.9451,0.00861569
,,,,,,,,,87,158.201,0.00905349
,,,,,,,,,101,99.2613,0.00973251
,,,,,,,,,116,168.216,0.00915386
,,,,,,,,,132,128.86,0.00971572
,,,,,,,,,149,120.069,0.00954821
,,,,,,,,,50,49.1584,0.0167371
,,,,,,,,,61,51.3556,0.0979638
,,,,,,,,,73,108.4,0.0481039
,,,,,,,,,86,86.0644,0.0436133
,,,,,,,,,100,76.0551,0.0577496
,,,,,,,,,115,118.307,0.104059
,,,,,,,,,131,104.833,0.0620922
,,,,,,,,,148,118.744,0.102171
,,,,,,,,,166,76.5688,0.086258
,,,,,,,,,72,78.0123,0.0172759
,,,,,,,,,85,122.932,0.0146061
,,,,,,,,,99,105.764,0.0141633
,,,,,,,,,114,27.0845,0.0153864
,,,,,,,,,130,107.842,0.0174563
,,,,,,,,,147,57.5392,0.0156786
,,,,,,,,,165,86.6035,0.0174023
,,,,,,,,,184,60.5953,0.0168722
,,,,,,,,,98,57.5557,0.0528411
,,,,,,,,,113,34.9993,0.0474719
,,,,,,,,,129,93.5024,0.0647147
,,,,,,,,,146,69.554,0.129095
,,,,,,,,,164,102.416,0.0702179
,,,,,,,,,183,84.2179,0.126202
,,,,,,,,,203,48.6784,0.102781
,,,,,,,,,128,22.5599,0.0316
,,,,,,,,,145,117.134,0.0384129
,,,,,,,,,163,27.7516,0.0545651
,,,,,,,,,182,96.6268,0.0402871
,,,,,,,,,202,57.4289,0.0540415
,,,,,,,,,223,63.2571,0.049237
,,,,,,,,,162,109.44,0.0354945
,,,,,,,,,181,40.2936,0.0488587
,,,,,,,,,201,99.8235,0.0370888
,,,,,,,,,222,65.3999,0.0484384
,,,,,,,,,244,52.3977,0.0445427
,,,,,,,,,200,93.1623,0.0673196
,,,,,,,,,221,31.138,0.0468391
,,,,,,,,,243,65.9631,0.0665243
,,,,,,,,,266,57.0854,0.0593905
,,,,,,,,,242,69.158,0.0732952
,,,,,,,,,265,29.7518,0.136502
,,,,,,,,,289,49.304,0.109511
,,,,,,,,,288,39.4645,0.0723535
,,,,,,,,,313,54.3342,0.0639933
,,,,,,,,,338,42.6928,0.107422
