facetNormals:0,facetNormals:1,facetNormals:2,FacetCenters:0,FacetCenters:1,FacetCenters:2,FacetIds,relFacetSize,absFacetSize,cellPairingIds,interplanarAngles,angleWeights
0.227293,-0.537921,-0.759062,3.43548,6.69851,11.1087,1,0.0363554,0.0102042,8,38.3657,0.0263376
-0.292535,-0.800637,-0.495645,3.39174,6.69786,11.1057,2,0.020648,0.00579544,13,65.9111,0.0510746
-0.7537,-0.311982,-0.496304,3.33028,6.72204,11.1554,3,0.0858212,0.0240882,19,105.284,0.0503526
-0.817698,0.441704,-0.238734,3.31354,6.82815,11.1882,4,0.0818755,0.0229807,26,46.4812,0.0259807
0.0211114,-0.961376,-0.159193,3.39769,6.71505,11.0909,5,0.0202127,0.00567327,34,65.2192,0.0238289
-0.652078,-0.71735,-0.211641,3.34157,6.67417,11.1705,6,0.0177225,0.00497432,43,67.3674,0.0577264
0.942157,-0.0451578,-0.149567,3.50253,6.78726,11.1899,7,0.140057,0.0393111,53,103.242,0.0220203
0.679888,0.705538,-0.0132001,3.47022,6.89036,11.2222,8,0.015793,0.00443276,64,94.8121,0.0382702
-0.861746,-0.441555,0.158727,3.30505,6.72354,11.2244,9,0.040398,0.0113388,76,149.062,0.0383134
-0.365229,0.814243,0.351621,3.37514,6.90107,11.2385,10,0.0404943,0.0113659,89,82.9207,0.0571688
0.555754,-0.647023,0.473262,3.43856,6.68945,11.2612,11,0.133728,0.0375345,103,104.473,0.0231001
-0.374254,-0.634082,0.646184,3.34335,6.69452,11.283,12,0.016928,0.00475134,118,119.966,0.0396532
0.563253,-0.00546519,0.777671,3.46941,6.83748,11.3154,13,0.043609,0.0122401,134,157.384,0.052748
-0.472322,0.253463,0.81713,3.35109,6.81277,11.3218,14,0.0960624,0.0269627,151,141.423,0.0210109
-0.00420571,-0.0205348,0.990246,3.39036,6.8037,11.2832,15,0.0147749,0.004147,18,40.4685,0.0332873
,,,,,,,,,25,89.7646,0.0329791
,,,,,,,,,33,28.7705,0.020428
,,,,,,,,,42,27.2279,0.0190737
,,,,,,,,,52,100.112,0.0359901
,,,,,,,,,63,141.601,0.0178971
,,,,,,,,,75,56.9998,0.0273282
,,,,,,,,,88,139.516,0.0273502
,,,,,,,,,102,82.7798,0.0357726
,,,,,,,,,117,72.101,0.0186039
,,,,,,,,,133,125.205,0.0280261
,,,,,,,,,150,119.177,0.03399
,,,,,,,,,168,118.977,0.0172246
,,,,,,,,,32,49.3395,0.0838019
,,,,,,,,,41,67.0411,0.0327193
,,,,,,,,,51,30.025,0.0293782
,,,,,,,,,62,132.989,0.106428
,,,,,,,,,74,140.889,0.0266769
,,,,,,,,,87,40.8698,0.0549362
,,,,,,,,,101,99.6337,0.0550252
,,,,,,,,,116,119.025,0.104548
,,,,,,,,,132,80.2011,0.0282783
,,,,,,,,,149,151.898,0.0578315
,,,,,,,,,167,97.9235,0.0906535
,,,,,,,,,186,120.633,0.0252097
,,,,,,,,,50,115.586,0.0324215
,,,,,,,,,61,73.7223,0.0291379
,,,,,,,,,73,145.436,0.10334
,,,,,,,,,86,104.861,0.0264785
,,,,,,,,,100,59.9324,0.0541018
,,,,,,,,,115,51.3876,0.054188
,,,,,,,,,131,155.724,0.101566
,,,,,,,,,148,97.8457,0.0280555
,,,,,,,,,166,134.747,0.0569075
,,,,,,,,,185,71.1419,0.0884034
,,,,,,,,,205,104.754,0.0250325
,,,,,,,,,72,42.8055,0.0188859
,,,,,,,,,85,84.6301,0.0353271
,,,,,,,,,99,133.863,0.0177316
,,,,,,,,,114,66.5207,0.0269442
,,,,,,,,,130,154.879,0.0269655
,,,,,,,,,147,54.0308,0.0351174
,,,,,,,,,165,58.5058,0.0184251
,,,,,,,,,184,96.5433,0.0276224
,,,,,,,,,204,113.756,0.033398
,,,,,,,,,225,98.2175,0.0170712
,,,,,,,,,98,125.501,0.0314637
,,,,,,,,,113,166.809,0.0167022
,,,,,,,,,129,29.7752,0.0246369
,,,,,,,,,146,116.21,0.0246547
,,,,,,,,,164,89.9061,0.0312973
,,,,,,,,,183,54.6687,0.0173162
,,,,,,,,,203,123.649,0.0252027
,,,,,,,,,224,92.7645,0.0299243
,,,,,,,,,246,101.272,0.016115
,,,,,,,,,128,49.2658,0.0283853
,,,,,,,,,145,150.514,0.0627084
,,,,,,,,,163,118.242,0.0628244
,,,,,,,,,182,58.8385,0.136819
,,,,,,,,,202,116.717,0.0302053
,,,,,,,,,223,63.121,0.0665093
,,,,,,,,,245,128.317,0.113961
,,,,,,,,,268,99.1944,0.02673
,,,,,,,,,162,159.317,0.0227085
,,,,,,,,,181,69.9962,0.0227236
,,,,,,,,,201,95.0957,0.0282498
,,,,,,,,,222,137.731,0.0163408
,,,,,,,,,244,66.9223,0.0231883
,,,,,,,,,267,99.1988,0.0271263
,,,,,,,,,291,91.796,0.015267
,,,,,,,,,200,89.3295,0.0404461
,,,,,,,,,221,97.0881,0.0620509
,,,,,,,,,243,42.8191,0.0238586
,,,,,,,,,266,112.432,0.0419421
,,,,,,,,,290,63.7036,0.056877
,,,,,,,,,315,79.9336,0.0216366
,,,,,,,,,242,127.026,0.0621645
,,,,,,,,,265,99.3338,0.0238753
,,,,,,,,,289,86.0604,0.0419939
,,,,,,,,,314,44.7062,0.0569724
,,,,,,,,,340,69.4808,0.0216504
,,,,,,,,,288,57.8789,0.0300519
,,,,,,,,,313,43.0373,0.0657701
,,,,,,,,,339,92.3914,0.111808
,,,,,,,,,366,60.2377,0.0266098
,,,,,,,,,338,71.7117,0.0243889
,,,,,,,,,365,55.3679,0.0287838
,,,,,,,,,393,47.5837,0.0157784
,,,,,,,,,392,66.9088,0.0599863
,,,,,,,,,421,36.1651,0.0220718
,,,,,,,,,450,33.6298,0.0256107
