facetNormals:0,facetNormals:1,facetNormals:2,FacetCenters:0,FacetCenters:1,FacetCenters:2,FacetIds,relFacetSize,absFacetSize,cellPairingIds,interplanarAngles,angleWeights
0.391321,-0.448481,-0.761582,3.84812,6.70486,11.8749,1,0.12904,0.0216028,8,43.2457,0.0232997
-0.249944,-0.735613,-0.606351,3.80542,6.67334,11.9061,2,0.012806,0.00214388,13,109.188,0.08352
-0.425859,0.760407,-0.28422,3.86219,6.72544,12.0781,3,0.0617406,0.0103361,19,36.8863,0.0491909
0.857467,-0.314602,-0.377315,3.89029,6.74317,11.9504,4,0.0303874,0.00508721,26,59.8461,0.0540993
0.845019,0.31677,-0.375504,3.87309,6.75698,12.0043,5,0.0342237,0.00572947,34,54.5787,0.0514579
0.807231,-0.563881,0.0223308,3.88895,6.73083,12.002,6,0.0321366,0.00538005,43,106.988,0.119493
-0.880875,-0.324381,0.088018,3.78527,6.70736,11.9482,7,0.111262,0.0186266,53,88.2209,0.100265
0.885179,0.311163,0.23349,3.87658,6.76816,12.0179,8,0.0819838,0.0137251,64,85.2352,0.130284
0.415825,-0.704001,0.525754,3.87113,6.70245,12.0203,9,0.131553,0.0220236,76,114.557,0.075403
-0.508979,-0.583951,0.598775,3.81467,6.73465,12.063,10,0.0532635,0.00891696,89,90.5446,0.0691304
0.804239,-0.175338,0.528291,3.89539,6.76864,12.0199,11,0.0472115,0.00790377,103,130.835,0.0713063
0.373381,0.255583,0.814812,3.85486,6.81105,12.0979,12,0.0492648,0.00824753,18,108.094,0.0212122
,,,,,,,,,25,75.3759,0.0180185
,,,,,,,,,33,102.991,0.018638
,,,,,,,,,42,78.1399,0.0183141
,,,,,,,,,52,64.1306,0.0229684
,,,,,,,,,63,128.387,0.0221518
,,,,,,,,,75,84.3001,0.02334
,,,,,,,,,88,78.4188,0.0206477
,,,,,,,,,102,114.02,0.0201471
,,,,,,,,,117,147.584,0.0203279
,,,,,,,,,32,123.283,0.0407289
,,,,,,,,,41,90.7839,0.0440371
,,,,,,,,,51,149.617,0.0422708
,,,,,,,,,62,83.1255,0.0794136
,,,,,,,,,74,103.486,0.0704366
,,,,,,,,,87,165.272,0.0840397
,,,,,,,,,101,116.286,0.0571896
,,,,,,,,,116,134.279,0.0535073
,,,,,,,,,132,103.279,0.0548016
,,,,,,,,,50,37.4735,0.0321917
,,,,,,,,,61,27.7803,0.0312375
,,,,,,,,,73,137.459,0.047737
,,,,,,,,,86,53.1515,0.0443401
,,,,,,,,,100,66.7204,0.0493706
,,,,,,,,,115,119.65,0.0386975
,,,,,,,,,131,55.6458,0.0369756
,,,,,,,,,148,94.2144,0.0375891
,,,,,,,,,72,59.0497,0.0331473
,,,,,,,,,85,162.762,0.052346
,,,,,,,,,99,36.5847,0.0482893
,,,,,,,,,114,94.1674,0.0543169
,,,,,,,,,130,151.361,0.0416718
,,,,,,,,,147,63.5599,0.0396819
,,,,,,,,,165,84.2981,0.0403894
,,,,,,,,,98,124.517,0.0498691
,,,,,,,,,113,55.1416,0.0461737
,,,,,,,,,129,38.9699,0.0516547
,,,,,,,,,146,94.0564,0.0400868
,,,,,,,,,164,37.927,0.038242
,,,,,,,,,183,78.9793,0.0388987
,,,,,,,,,128,160.651,0.0944049
,,,,,,,,,145,95.7392,0.12056
,,,,,,,,,163,41.5827,0.0720399
,,,,,,,,,182,131.006,0.066293
,,,,,,,,,202,112.77,0.0682914
,,,,,,,,,162,73.1925,0.101015
,,,,,,,,,181,121.344,0.0645742
,,,,,,,,,201,34.3591,0.0599182
,,,,,,,,,222,48.2311,0.061546
,,,,,,,,,200,57.2933,0.0758263
,,,,,,,,,221,39.3127,0.069486
,,,,,,,,,243,63.5377,0.0716847
,,,,,,,,,242,89.439,0.0500552
,,,,,,,,,265,80.628,0.0511862
,,,,,,,,,288,41.196,0.0482163
