facetNormals:0,facetNormals:1,facetNormals:2,FacetCenters:0,FacetCenters:1,FacetCenters:2,FacetIds,relFacetSize,absFacetSize,cellPairingIds,interplanarAngles,angleWeights
0.110825,-0.065215,-0.962418,4.8611,4.57405,8.82146,1,0.0115486,0.00132289,8,24.8718,0.0142712
-0.146746,0.259208,-0.916808,4.87293,4.61387,8.84505,2,0.0186736,0.00213906,13,42.3918,0.0136922
0.498347,-0.565359,-0.641971,4.87772,4.54805,8.86908,3,0.016813,0.00192592,19,64.5669,0.0217605
-0.80379,0.0915208,-0.514047,4.785,4.59161,8.83391,4,0.188,0.0215353,26,58.963,0.0131769
0.31715,-0.825256,-0.415755,4.86178,4.54014,8.8699,5,0.0153398,0.00175717,34,51.9813,0.0207638
0.804934,-0.140294,-0.489741,4.88565,4.58804,8.84065,6,0.102763,0.0117715,43,74.3585,0.0152414
0.728797,-0.647344,-0.14009,4.86261,4.54005,8.8366,7,0.022406,0.0025666,53,70.9416,0.019822
0.459212,0.791195,-0.320007,4.86176,4.64733,8.84637,8,0.069893,0.00800623,64,76.0343,0.0172169
0.0742841,-0.965706,-0.165246,4.82743,4.53225,8.89347,9,0.0338132,0.0038733,76,93.007,0.0130303
-0.908672,-0.369009,-0.0277064,4.75749,4.55423,8.89604,10,0.0149481,0.00171231,89,103.723,0.0204537
-0.0363998,0.963302,0.164595,4.82542,4.65656,8.90171,11,0.089354,0.0102355,103,110.824,0.0120641
-0.770005,-0.541512,0.302666,4.75366,4.55192,8.93635,12,0.0126278,0.00144651,118,105.496,0.0205544
0.172749,-0.885933,0.339894,4.82151,4.53051,8.87651,13,0.0933503,0.0106933,134,125.686,0.0180953
-0.848102,0.0585229,0.470086,4.79371,4.58484,8.914,14,0.0417794,0.00478582,151,130.94,0.0199811
-0.448419,0.669533,0.546785,4.79621,4.62542,8.94965,15,0.0740509,0.00848251,169,149.242,0.0120108
-0.404936,-0.336539,0.823813,4.91347,4.56926,8.82535,16,0.0125115,0.00143319,188,134.407,0.00944249
0.571611,-0.185995,0.765622,4.92663,4.58963,8.83976,17,0.00798607,0.000914802,18,67.2609,0.0176945
,,,,,,,,,25,48.4403,0.0339728
,,,,,,,,,33,82.6358,0.0168433
,,,,,,,,,42,71.2936,0.0316043
,,,,,,,,,52,98.8657,0.0203702
,,,,,,,,,63,62.5213,0.0294729
,,,,,,,,,75,96.6522,0.02406
,,,,,,,,,88,86.1749,0.0166045
,,,,,,,,,102,83.658,0.0308914
,,,,,,,,,117,108.652,0.0150668
,,,,,,,,,133,127.547,0.0311217
,,,,,,,,,150,108.127,0.0258109
,,,,,,,,,168,106.203,0.029826
,,,,,,,,,187,146.189,0.0149838
,,,,,,,,,207,152.726,0.0111876
,,,,,,,,,32,97.4055,0.0308656
,,,,,,,,,41,22.8178,0.0160427
,,,,,,,,,51,32.56,0.028898
,,,,,,,,,62,32.8437,0.0192107
,,,,,,,,,74,90.778,0.0271056
,,,,,,,,,87,44.896,0.0224588
,,,,,,,,,101,103.48,0.0158258
,,,,,,,,,116,133.661,0.0283008
,,,,,,,,,132,106.125,0.0144229
,,,,,,,,,149,67.2822,0.028494
,,,,,,,,,167,141.968,0.023977
,,,,,,,,,186,171.308,0.027404
,,,,,,,,,206,123.939,0.0143468
,,,,,,,,,227,96.0456,0.0108286
,,,,,,,,,50,97.161,0.0283652
,,,,,,,,,61,116.548,0.132888
,,,,,,,,,73,127.379,0.0400399
,,,,,,,,,86,98.1818,0.101902
,,,,,,,,,100,93.8446,0.0573175
,,,,,,,,,115,40.8958,0.0276942
,,,,,,,,,131,87.994,0.121134
,,,,,,,,,148,64.1139,0.023666
,,,,,,,,,166,115.271,0.124754
,,,,,,,,,185,61.4215,0.0683658
,,,,,,,,,205,81.3341,0.106251
,,,,,,,,,226,97.8996,0.0234617
,,,,,,,,,248,158.833,0.0153213
,,,,,,,,,72,51.8671,0.0266948
,,,,,,,,,85,31.1264,0.0182115
,,,,,,,,,99,113.282,0.0251581
,,,,,,,,,114,22.13,0.0211051
,,,,,,,,,130,88.3344,0.0151414
,,,,,,,,,147,156.315,0.0261844
,,,,,,,,,165,85.4376,0.0138523
,,,,,,,,,184,46.837,0.0263497
,,,,,,,,,204,122.699,0.0224404
,,,,,,,,,225,165.739,0.0254149
,,,,,,,,,247,101.669,0.0137821
,,,,,,,,,270,89.0078,0.0105038
,,,,,,,,,98,37.3189,0.0367903
,,,,,,,,,113,63.2628,0.083199
,,,,,,,,,129,72.8367,0.0508836
,,,,,,,,,146,135.453,0.0260997
,,,,,,,,,164,105.251,0.0955905
,,,,,,,,,183,137.283,0.0224917
,,,,,,,,,203,83.947,0.0978307
,,,,,,,,,224,174.48,0.0594064
,,,,,,,,,246,141.17,0.0860756
,,,,,,,,,269,137.093,0.0223071
,,,,,,,,,293,83.1095,0.0148204
,,,,,,,,,128,97.9905,0.0339336
,,,,,,,,,145,43.4529,0.0269523
,,,,,,,,,163,115.731,0.0179326
,,,,,,,,,182,134.346,0.0358279
,,,,,,,,,202,105.061,0.0161523
,,,,,,,,,223,46.6688,0.0361381
,,,,,,,,,245,138.984,0.0291689
,,,,,,,,,268,150.761,0.0344026
,,,,,,,,,292,101.543,0.0160569
,,,,,,,,,317,63.3658,0.0117752
,,,,,,,,,162,135.318,0.045577
,,,,,,,,,181,137.438,0.0246288
,,,,,,,,,201,43.0345,0.0784343
,,,,,,,,,222,156.509,0.0213908
,,,,,,,,,244,141.386,0.0799363
,,,,,,,,,267,121.619,0.0522974
,,,,,,,,,291,80.9265,0.0719119
,,,,,,,,,316,139.067,0.0212238
,,,,,,,,,342,97.9006,0.0143343
,,,,,,,,,200,72.2788,0.0207314
,,,,,,,,,221,177.797,0.0490609
,,,,,,,,,243,64.6659,0.0183883
,,,,,,,,,266,31.0108,0.0496444
,,,,,,,,,290,101.923,0.0373766
,,,,,,,,,315,143.609,0.0464269
,,,,,,,,,341,80.4859,0.0182648
,,,,,,,,,368,84.2657,0.0129205
,,,,,,,,,242,109.923,0.0256117
,,,,,,,,,265,23.2876,0.0136903
,,,,,,,,,289,80.2332,0.0257698
,,,,,,,,,314,39.4444,0.0220184
,,,,,,,,,340,81.2557,0.0248749
,,,,,,,,,367,60.7087,0.0136217
,,,,,,,,,395,119.618,0.0104104
,,,,,,,,,288,117.319,0.0221283
,,,,,,,,,313,148.447,0.0913084
,,,,,,,,,339,80.0212,0.0569368
,,,,,,,,,366,37.9189,0.0809858
,,,,,,,,,394,100.476,0.0219496
,,,,,,,,,423,94.456,0.0146617
,,,,,,,,,338,61.8731,0.0222463
,,,,,,,,,365,37.3465,0.0193938
,,,,,,,,,393,81.1456,0.0215762
,,,,,,,,,422,39.7412,0.0125694
,,,,,,,,,452,96.4244,0.00978433
,,,,,,,,,392,92.3597,0.0577241
,,,,,,,,,421,121.073,0.0825881
,,,,,,,,,451,57.3889,0.0220657
,,,,,,,,,482,56.0911,0.0147134
,,,,,,,,,450,44.3454,0.0534196
,,,,,,,,,481,41.5311,0.0192564
,,,,,,,,,513,98.2546,0.013409
,,,,,,,,,512,64.7123,0.0214063
,,,,,,,,,545,87.7158,0.0144173
,,,,,,,,,578,60.9679,0.00974923
