Q	U	V
{$V$}	{[mm$^3$]}	0.0038687
{$d_v$}	{[mm]}	0.194770
{$S_c$}	{[mm$^2$]}	0.209605
{$S_o$}	{[mm$^2$]}	0.126551
{$S_l/S_o$}	[]	0.656289
{$\Psi$}	[]	0.568581
{$\eta$}	[]	0.625634
{med($\theta_e$)}	{[$^\circ$]}	63.42195
{$\Upsilon$}	[]	10
{$\Xi$}	[]	4
