"cellPairingIds","interplanarAngles","angleWeights"
8,98.1113,0.0191753
19,126.962,0.0150924
26,91.7933,0.0164426
34,61.1471,0.0183605
43,107.456,0.0187706
64,105.227,0.0168792
76,136.077,0.0185438
25,33.9545,0.0488434
33,42.8138,0.0665231
88,85.7128,0.122831
73,100.217,0.0463009
86,72.3316,0.0355266
115,76.952,0.0449449
130,61.9065,0.0594945
98,67.7561,0.102001
129,55.616,0.0633967
128,64.633,0.0659457
145,82.0709,0.0685694
162,57.338,0.0473174
181,39.8652,0.0632286
200,47.713,0.0656365
