Q	U	V
{$V$}	{[mm$^3$]}	0.0028285
{$d_v$}	{[mm]}	0.175463
{$S_c$}	{[mm$^2$]}	0.157835
{$S_o$}	{[mm$^2$]}	0.10708
{$S_l/S_o$}	[]	0.473991
{$\Psi$}	[]	0.612799
{$\eta$}	[]	0.639028
{med($\theta_e$)}	{[$^\circ$]}	60.1567
{$\Upsilon$}	[]	14
{$\Xi$}	[]	8
