facetNormals:0,facetNormals:1,facetNormals:2,FacetCenters:0,FacetCenters:1,FacetCenters:2,FacetIds,relFacetSize,absFacetSize,cellPairingIds,interplanarAngles,angleWeights
0.456365,0.391762,-0.774827,6.12309,7.81781,12.0267,1,0.0513819,0.00288685,8,65.3238,0.0086698
0.785732,-0.509377,-0.31729,6.17034,7.75602,12.1053,2,0.00473432,0.000265994,13,97.1476,0.0340313
-0.905978,-0.065755,-0.409886,6.19166,7.81357,12.0712,3,0.0254405,0.00142936,19,59.2994,0.0260792
-0.330021,0.832451,-0.410038,6.07077,7.80535,12.0302,4,0.0174742,0.000981772,26,104.799,0.0225664
0.00046522,-0.961647,-0.170159,6.09684,7.72169,12.1007,5,0.0144581,0.00081232,34,78.911,0.0528857
-0.668214,0.596716,-0.323799,6.07239,7.80897,12.0319,6,0.0544802,0.00306093,43,46.9036,0.0574198
0.553249,0.780721,-0.112737,6.13108,7.80996,12.0816,7,0.0650656,0.00365566,53,57.1825,0.0707306
0.956321,0.184742,-0.0116237,6.15833,7.78842,12.0972,8,0.113453,0.00637427,64,92.1302,0.0481288
-0.523207,0.813349,0.14912,6.09474,7.83021,12.0778,9,0.045263,0.00254307,76,115.264,0.0453481
-0.777504,0.51582,0.339258,6.07819,7.8078,12.085,10,0.0405825,0.0022801,89,96.3698,0.0598767
0.75598,0.0319087,0.59674,6.16083,7.78736,12.1275,11,0.0717365,0.00403046,103,137.668,0.073105
-0.891644,0.0384156,0.41556,6.08208,7.7787,12.0941,12,0.126649,0.0071157,118,135.933,0.00366955
0.20979,-0.711541,0.677822,6.08945,7.73907,12.1018,13,0.00190272,0.000106903,134,156.05,0.0676565
-0.64443,-0.0329687,0.737348,6.10502,7.75723,12.1278,14,0.09902,0.00556336,151,114.772,0.0338269
-0.312696,0.652869,0.668622,6.07655,7.78725,12.0801,15,0.0252128,0.00141656,169,115.893,0.0226917
0.243105,0.372512,0.873342,6.12932,7.79098,12.1368,16,0.0145612,0.000818109,18,123.814,0.00798304
,,,,,,,,,25,124.621,0.00745015
,,,,,,,,,33,55.6937,0.00713295
,,,,,,,,,42,140.454,0.0087116
,,,,,,,,,52,85.6174,0.0088264
,,,,,,,,,63,46.6579,0.00908934
,,,,,,,,,75,154.431,0.00857204
,,,,,,,,,88,178.613,0.00847943
,,,,,,,,,102,65.9418,0.00888243
,,,,,,,,,117,151.086,0.00912744
,,,,,,,,,133,71.6839,0.00271448
,,,,,,,,,150,138.318,0.00903658
,,,,,,,,,168,144.219,0.00797174
,,,,,,,,,187,106.538,0.00714542
,,,,,,,,,32,65.1596,0.0207179
,,,,,,,,,41,82.1717,0.0184378
,,,,,,,,,51,42.5922,0.0346845
,,,,,,,,,62,121.827,0.0365788
,,,,,,,,,74,154.177,0.0415614
,,,,,,,,,87,68.3729,0.032573
,,,,,,,,,101,57.5121,0.0312751
,,,,,,,,,116,165.948,0.0375606
,,,,,,,,,132,49.6698,0.04237
,,,,,,,,,149,114.867,0.00354063
,,,,,,,,,167,73.1048,0.0404806
,,,,,,,,,186,91.9662,0.0253261
,,,,,,,,,206,128.103,0.0185214
,,,,,,,,,50,139.456,0.0158237
,,,,,,,,,61,25.0386,0.0264611
,,,,,,,,,73,57.2355,0.0275495
,,,,,,,,,86,99.422,0.030284
,,,,,,,,,100,35.089,0.0252142
,,,,,,,,,115,55.9936,0.0244294
,,,,,,,,,131,119.518,0.0281028
,,,,,,,,,148,80.7507,0.030711
,,,,,,,,,166,161.674,0.00343176
,,,,,,,,,185,96.9703,0.0297061
,,,,,,,,,205,67.4294,0.020642
,,,,,,,,,226,97.6341,0.0158852
,,,,,,,,,72,123.914,0.0228518
,,,,,,,,,85,141.009,0.023659
,,,,,,,,,99,100.615,0.0256478
,,,,,,,,,114,147.703,0.0219158
,,,,,,,,,130,124.856,0.0213205
,,,,,,,,,147,98.0553,0.0240659
,,,,,,,,,165,96.4539,0.0259535
,,,,,,,,,184,54.561,0.00336287
,,,,,,,,,204,95.6413,0.0252321
,,,,,,,,,225,140.422,0.0183777
,,,,,,,,,247,121.965,0.0145095
,,,,,,,,,98,81.6879,0.0593042
,,,,,,,,,113,124.46,0.0736119
,,,,,,,,,129,32.4414,0.0494457
,,,,,,,,,146,40.6549,0.0465155
,,,,,,,,,164,137.736,0.0619287
,,,,,,,,,183,58.9165,0.0761872
,,,,,,,,,203,145.015,0.00367701
,,,,,,,,,224,79.369,0.0702882
,,,,,,,,,246,65.9854,0.0344722
,,,,,,,,,269,103.816,0.0229803
,,,,,,,,,128,44.0424,0.0827016
,,,,,,,,,145,69.5943,0.0533871
,,,,,,,,,163,93.9377,0.0499872
,,,,,,,,,182,66.1189,0.0682384
,,,,,,,,,202,122.536,0.0859663
,,,,,,,,,223,122.196,0.00369731
,,,,,,,,,245,119.536,0.0785297
,,,,,,,,,268,74.0234,0.0363428
,,,,,,,,,292,69.7485,0.0237968
,,,,,,,,,162,111.661,0.0647096
,,,,,,,,,181,132.408,0.0597811
,,,,,,,,,201,39.7277,0.0878962
,,,,,,,,,222,152.478,0.119689
,,,,,,,,,244,86.4096,0.00374267
,,,,,,,,,267,131.382,0.105746
,,,,,,,,,291,101.185,0.0412569
,,,,,,,,,316,72.2434,0.0258098
,,,,,,,,,200,25.4906,0.0427952
,,,,,,,,,221,107.312,0.0555047
,,,,,,,,,243,54.4771,0.0666913
,,,,,,,,,266,126.684,0.00365192
,,,,,,,,,290,63.9998,0.0621271
,,,,,,,,,315,34.5379,0.0323857
,,,,,,,,,341,71.3923,0.022034
,,,,,,,,,242,112.678,0.0518389
,,,,,,,,,265,29.0967,0.0614686
,,,,,,,,,289,107.511,0.00363501
,,,,,,,,,314,40.998,0.0575703
,,,,,,,,,340,34.4547,0.0311025
,,,,,,,,,367,72.0785,0.0214324
,,,,,,,,,288,116.605,0.0915931
,,,,,,,,,313,56.0792,0.00370711
,,,,,,,,,339,92.9275,0.0831986
,,,,,,,,,366,78.8623,0.0373118
,,,,,,,,,394,40.6264,0.0242085
,,,,,,,,,338,86.1001,0.00374911
,,,,,,,,,365,24.2142,0.111143
,,,,,,,,,393,53.1547,0.0420537
,,,,,,,,,422,80.4265,0.0261194
,,,,,,,,,392,66.7884,0.00373369
,,,,,,,,,421,94.4562,0.0035384
,,,,,,,,,451,67.4356,0.00336564
,,,,,,,,,450,45.8128,0.0401918
,,,,,,,,,481,60.3543,0.0253889
,,,,,,,,,512,38.9493,0.0184607
