facetNormals:0,facetNormals:1,facetNormals:2,FacetCenters:0,FacetCenters:1,FacetCenters:2,FacetIds,relFacetSize,absFacetSize,cellPairingIds,interplanarAngles,angleWeights
0.457459,-0.567652,-0.654906,3.75347,7.41207,10.1122,1,0.0685419,0.0255335,8,103.996,0.0349976
-0.61963,0.49832,-0.520747,3.606,7.38067,10.1811,2,0.0234978,0.00875349,13,25.5214,0.0370406
0.745846,-0.247203,-0.598823,3.74229,7.4056,10.1214,3,0.0253773,0.00945365,19,48.4299,0.0331121
0.783322,0.161261,-0.564702,3.79315,7.4776,10.1282,4,0.0218287,0.0081317,26,59.2143,0.0862454
-0.407812,-0.768578,-0.331907,3.64557,7.32907,10.1914,5,0.116279,0.0433165,34,105.571,0.0468824
-0.92707,-0.0233178,-0.24234,3.61573,7.35148,10.2047,6,0.0356248,0.0132711,43,50.5086,0.0349904
0.955944,-0.041244,-0.233898,3.84212,7.49137,10.1624,7,0.0234913,0.00875105,53,109.839,0.0444812
0.218405,0.92431,-0.159515,3.76122,7.42592,10.2544,8,0.0329238,0.0122649,64,47.8272,0.0582149
0.867219,-0.441291,0.0106513,3.79963,7.36702,10.233,9,0.0505924,0.0188468,76,140.361,0.0389149
-0.775708,0.575223,0.0758429,3.60809,7.40954,10.2491,10,0.0271705,0.0101216,89,84.5054,0.0760804
0.885503,0.159257,0.342554,3.79829,7.43135,10.2702,11,0.085482,0.031844,103,86.6127,0.078417
-0.206673,-0.762964,0.43709,3.63956,7.3301,10.2785,12,0.0916165,0.0341293,118,128.507,0.057688
0.373309,0.706292,0.554678,3.78497,7.52495,10.277,13,0.0498017,0.0185523,134,167.586,0.0542196
-0.33606,0.448528,0.779251,3.6697,7.44563,10.3328,14,0.0448482,0.016707,151,126.07,0.0628828
0.0442618,-0.0884905,0.943038,3.69901,7.38153,10.3489,15,0.0580869,0.0216387,18,106.934,0.0244014
,,,,,,,,,25,96.8472,0.0226325
,,,,,,,,,33,87.2456,0.0390952
,,,,,,,,,42,40.862,0.0283176
,,,,,,,,,52,121.636,0.0234946
,,,,,,,,,63,63.5074,0.0274235
,,,,,,,,,75,145.56,0.0320909
,,,,,,,,,88,37.7716,0.0252011
,,,,,,,,,102,135.059,0.0368626
,,,,,,,,,117,123.973,0.0374026
,,,,,,,,,133,100.484,0.0319301
,,,,,,,,,150,88.3701,0.0308383
,,,,,,,,,168,128.626,0.0334601
,,,,,,,,,32,24.1521,0.0234696
,,,,,,,,,41,84.7247,0.0416621
,,,,,,,,,51,124.811,0.0296404
,,,,,,,,,62,27.4886,0.0243979
,,,,,,,,,74,88.1976,0.0286622
,,,,,,,,,87,38.7704,0.0338003
,,,,,,,,,101,143.188,0.0262433
,,,,,,,,,116,64.0655,0.0391362
,,,,,,,,,132,104.756,0.0397454
,,,,,,,,,149,103.747,0.033622
,,,,,,,,,167,150.849,0.0324135
,,,,,,,,,186,122.973,0.0353227
,,,,,,,,,50,106.305,0.0367571
,,,,,,,,,61,129.201,0.0270703
,,,,,,,,,73,24.9648,0.0226295
,,,,,,,,,86,64.21,0.0262521
,,,,,,,,,100,50.7993,0.0304985
,,,,,,,,,115,126.019,0.0242084
,,,,,,,,,131,56.0862,0.0347768
,,,,,,,,,148,126.964,0.035257
,,,,,,,,,166,84.3893,0.0303532
,,,,,,,,,185,132.177,0.0293648
,,,,,,,,,205,123.482,0.0317325
,,,,,,,,,72,57.7402,0.05454
,,,,,,,,,85,107.807,0.0390862
,,,,,,,,,99,146.347,0.0513173
,,,,,,,,,114,91.1401,0.0705073
,,,,,,,,,130,99.632,0.0440484
,,,,,,,,,147,131.771,0.09853
,,,,,,,,,165,51.3269,0.102485
,,,,,,,,,184,166.107,0.0697358
,,,,,,,,,204,121.446,0.0647303
,,,,,,,,,225,107.331,0.0774725
,,,,,,,,,98,151.356,0.0283129
,,,,,,,,,113,101.585,0.0342211
,,,,,,,,,129,148.617,0.0418094
,,,,,,,,,146,42.2448,0.0308285
,,,,,,,,,164,169.615,0.0502908
,,,,,,,,,183,83.1363,0.0513013
,,,,,,,,,203,122.216,0.0415369
,,,,,,,,,224,82.9922,0.039708
,,,,,,,,,246,107.117,0.0441638
,,,,,,,,,128,77.336,0.027419
,,,,,,,,,145,28.2018,0.0320848
,,,,,,,,,163,145.146,0.0251973
,,,,,,,,,182,36.7514,0.0368546
,,,,,,,,,202,107.553,0.0373943
,,,,,,,,,223,78.0722,0.0319241
,,,,,,,,,245,123.513,0.0308326
,,,,,,,,,268,100.775,0.0334535
,,,,,,,,,162,103.589,0.0398891
,,,,,,,,,181,67.9541,0.0297717
,,,,,,,,,201,72.0357,0.0475381
,,,,,,,,,222,160.515,0.0484399
,,,,,,,,,244,46.4033,0.039641
,,,,,,,,,267,76.4312,0.0379719
,,,,,,,,,291,104.106,0.0420267
,,,,,,,,,200,169.138,0.0353542
,,,,,,,,,221,41.5313,0.0635643
,,,,,,,,,243,79.3716,0.0651871
,,,,,,,,,266,88.9121,0.0501939
,,,,,,,,,290,121,0.0475475
,,,,,,,,,315,84.5598,0.0540812
,,,,,,,,,242,127.623,0.0412346
,,,,,,,,,265,106.288,0.0419114
,,,,,,,,,289,80.2982,0.0351591
,,,,,,,,,314,51.5813,0.0338398
,,,,,,,,,340,90.8554,0.0370232
,,,,,,,,,288,100.254,0.088443
,,,,,,,,,313,47.4585,0.0629366
,,,,,,,,,339,87.4704,0.0588308
,,,,,,,,,366,67.5811,0.0691708
,,,,,,,,,338,115.167,0.0645271
,,,,,,,,,365,85.5119,0.0602183
,,,,,,,,,393,56.6735,0.0710968
,,,,,,,,,392,48.0893,0.0471953
,,,,,,,,,421,58.8448,0.0536262
,,,,,,,,,450,41.6301,0.0506163
