facetNormals:0,facetNormals:1,facetNormals:2,FacetCenters:0,FacetCenters:1,FacetCenters:2,FacetIds,relFacetSize,absFacetSize,cellPairingIds,interplanarAngles,angleWeights
-0.342731,0.280561,-0.847545,4.04424,5.95981,10.4404,1,0.0440672,0.0081462,8,79.3488,0.0722505
0.730173,-0.25552,-0.581703,4.14174,5.93392,10.5026,2,0.200447,0.0370543,13,115.072,0.0220201
0.841784,0.42938,0.271894,4.16549,6.00557,10.5559,3,0.0146771,0.00271319,19,117.986,0.0616077
-0.534465,-0.622272,0.526106,4.01471,5.92589,10.6,4,0.102345,0.0189194,26,131.74,0.0530333
-0.178008,-0.795786,0.545542,3.94042,5.98705,10.6013,5,0.0665798,0.0123079,34,152.146,0.0485894
0.552525,0.129377,0.788655,4.14212,5.96437,10.6103,6,0.0541457,0.0100093,43,130.654,0.0373732
0.202742,0.515197,0.809464,4.11109,5.96679,10.6202,7,0.0324448,0.00599769,53,139.968,0.0462269
-0.105022,0.18979,0.931994,3.96734,6.03281,10.6348,8,0.0486092,0.00898582,18,68.6321,0.0273515
,,,,,,,,,25,124.724,0.135504
,,,,,,,,,33,104.888,0.099958
,,,,,,,,,42,95.3928,0.0852605
,,,,,,,,,52,118.607,0.0558496
,,,,,,,,,63,136.097,0.0782439
,,,,,,,,,32,126.803,0.0256725
,,,,,,,,,41,110.84,0.0240521
,,,,,,,,,51,39.6979,0.0230941
,,,,,,,,,62,50.6091,0.0202112
,,,,,,,,,74,74.8134,0.0225465
,,,,,,,,,50,23.4176,0.0806763
,,,,,,,,,61,87.6331,0.0708227
,,,,,,,,,73,90.1851,0.0492702
,,,,,,,,,86,62.6542,0.0659128
,,,,,,,,,72,76.1038,0.0597225
,,,,,,,,,85,90.2668,0.0436289
,,,,,,,,,99,66.3836,0.0561927
,,,,,,,,,98,30.9628,0.0405759
,,,,,,,,,113,41.0115,0.0512283
,,,,,,,,,128,27.6971,0.0389152
