facetNormals:0,facetNormals:1,facetNormals:2,FacetCenters:0,FacetCenters:1,FacetCenters:2,FacetIds,relFacetSize,absFacetSize,cellPairingIds,interplanarAngles,angleWeights
0.843936,0.0647278,-0.457667,3.34747,4.57722,12.1928,1,0.106655,0.0220629,8,118.54,0.101268
-0.771508,-0.101105,-0.505105,3.24372,4.56965,12.2515,2,0.0963986,0.0199411,13,122.275,0.0416096
-0.570805,-0.763875,-0.0857222,3.29729,4.55483,12.3109,3,0.0258466,0.00534666,19,85.112,0.133638
-0.132239,0.864674,-0.286451,3.24049,4.62869,12.2176,4,0.178898,0.037007,26,166.006,0.0964358
-0.917647,-0.0136952,0.242384,3.15536,4.57098,12.3629,5,0.0880033,0.0182045,34,42.2735,0.0218749
0.940137,0.208564,0.224728,3.38034,4.52784,12.3104,6,0.0121872,0.00252107,43,70.3876,0.110956
0.436988,0.834469,0.23816,3.27171,4.6177,12.3316,7,0.115618,0.0239168,53,117.155,0.0498655
-0.339098,0.810218,0.425971,3.23286,4.6356,12.3081,8,0.0325395,0.00673116,64,77.3598,0.0875108
0.547168,0.492372,0.632196,3.33982,4.57825,12.3359,9,0.0741931,0.0153477,18,50.8371,0.0407636
,,,,,,,,,25,79.2485,0.125287
,,,,,,,,,33,48.1997,0.0920099
,,,,,,,,,42,159.62,0.0216388
,,,,,,,,,52,126.95,0.105137
,,,,,,,,,63,92.2442,0.0486553
,,,,,,,,,75,151.527,0.0838506
,,,,,,,,,32,129.493,0.0451675
,,,,,,,,,41,55.5974,0.0399576
,,,,,,,,,51,139.063,0.0165641
,,,,,,,,,62,167.243,0.0422485
,,,,,,,,,74,119.616,0.0288094
,,,,,,,,,87,143.072,0.0383376
,,,,,,,,,50,87.3709,0.117973
,,,,,,,,,61,90.5261,0.0228199
,,,,,,,,,73,48.2468,0.14046
,,,,,,,,,86,46.0664,0.0550636
,,,,,,,,,100,78.8772,0.104887
,,,,,,,,,72,149.782,0.0214095
,,,,,,,,,85,112.619,0.099938
,,,,,,,,,99,64.197,0.0475115
,,,,,,,,,114,112.712,0.0805103
,,,,,,,,,98,48.3604,0.0220502
,,,,,,,,,113,93.2122,0.0177329
,,,,,,,,,129,37.7006,0.0209355
,,,,,,,,,128,48.4264,0.0507858
,,,,,,,,,145,31.8809,0.0903851
,,,,,,,,,162,59.3627,0.0452384
