facetNormals:0,facetNormals:1,facetNormals:2,FacetCenters:0,FacetCenters:1,FacetCenters:2,FacetIds,relFacetSize,absFacetSize,cellPairingIds,interplanarAngles,angleWeights
0.375992,0.259166,-0.86997,6.67451,5.14209,12.035,1,0.00957525,0.000662627,8,33.7643,0.0136979
0.570707,-0.268812,-0.762838,6.66039,5.08741,12.019,2,0.0240545,0.00166462,13,84.8605,0.0118934
-0.627679,0.738281,-0.150557,6.65887,5.11808,12.074,3,0.0156927,0.00108596,19,54.5166,0.0179778
0.939861,0.224031,-0.170233,6.69244,5.14912,12.0822,4,0.146788,0.0101581,26,83.4428,0.0180725
0.387947,-0.852835,-0.210237,6.64835,5.05492,12.068,5,0.160519,0.0111082,34,119.537,0.0177624
-0.946508,-0.196788,0.0720632,6.71376,5.12618,12.0603,6,0.122526,0.00847902,43,91.8115,0.0176878
0.848973,0.140118,0.443214,6.67795,5.1503,12.1589,7,0.11579,0.00801289,53,80.9806,0.0151156
0.688203,0.641532,0.312992,6.66418,5.19569,12.1513,8,0.0358711,0.00248235,64,136.414,0.010685
-0.528051,-0.755021,0.354428,6.66687,5.08314,12.1099,9,0.0120857,0.000836355,76,136.089,0.0179436
0.12598,-0.711803,0.614173,6.64361,5.07785,12.1506,10,0.142358,0.00985147,89,148.475,0.00542573
-0.331014,0.273688,0.888812,6.71477,5.14317,12.1063,11,0.00378533,0.000261952,103,138.793,0.0142783
0.25247,0.0213017,0.95488,6.66913,5.1509,12.1742,12,0.0280607,0.00194186,18,117.074,0.018994
,,,,,,,,,25,51.3896,0.0413354
,,,,,,,,,33,49.996,0.0418393
,,,,,,,,,42,124.407,0.0402141
,,,,,,,,,52,83.4827,0.0398339
,,,,,,,,,63,91.0772,0.0287978
,,,,,,,,,75,112.171,0.0160882
,,,,,,,,,88,102.628,0.041155
,,,,,,,,,102,164.254,0.00654129
,,,,,,,,,117,127.112,0.0259036
,,,,,,,,,32,114.495,0.0283541
,,,,,,,,,41,153.332,0.0285903
,,,,,,,,,51,62.5686,0.027822
,,,,,,,,,62,121.515,0.0276394
,,,,,,,,,74,90.3219,0.0218337
,,,,,,,,,87,106.771,0.013655
,,,,,,,,,101,138.534,0.0282691
,,,,,,,,,116,73.4341,0.00609938
,,,,,,,,,132,107.201,0.0201286
,,,,,,,,,50,77.1605,0.153347
,,,,,,,,,61,174.038,0.133564
,,,,,,,,,73,37.45,0.129459
,,,,,,,,,86,40.7214,0.0576533
,,,,,,,,,100,138.538,0.0223327
,,,,,,,,,115,99.0023,0.144539
,,,,,,,,,131,114.466,0.00738034
,,,,,,,,,148,85.2947,0.0471147
,,,,,,,,,72,103.323,0.138972
,,,,,,,,,85,82.7879,0.134534
,,,,,,,,,99,111.306,0.0586383
,,,,,,,,,114,67.3828,0.0224789
,,,,,,,,,130,54.6631,0.150894
,,,,,,,,,147,125.37,0.00739624
,,,,,,,,,165,97.3266,0.0477705
,,,,,,,,,98,148.401,0.119063
,,,,,,,,,113,141.77,0.0554952
,,,,,,,,,129,45.2344,0.0220012
,,,,,,,,,146,85.9408,0.131699
,,,,,,,,,164,70.2422,0.00734378
,,,,,,,,,183,100.489,0.0456636
,,,,,,,,,128,32.1126,0.0547736
,,,,,,,,,145,114.551,0.0218869
,,,,,,,,,163,72.2806,0.127707
,,,,,,,,,182,80.8911,0.007331
,,,,,,,,,202,47.9425,0.0451739
,,,,,,,,,162,138.832,0.0180799
,,,,,,,,,181,100.892,0.0573031
,,,,,,,,,201,76.6522,0.00684802
,,,,,,,,,222,60.2358,0.0314888
,,,,,,,,,200,42.6619,0.0222799
,,,,,,,,,221,73.107,0.00576501
,,,,,,,,,243,78.8234,0.0168948
,,,,,,,,,242,70.7071,0.00737457
,,,,,,,,,265,49.9398,0.0468806
,,,,,,,,,288,37.7628,0.00667078
