facetNormals:0,facetNormals:1,facetNormals:2,FacetCenters:0,FacetCenters:1,FacetCenters:2,FacetIds,relFacetSize,absFacetSize,cellPairingIds,interplanarAngles,angleWeights
-0.122305,-0.23423,-0.932771,7.25334,4.87073,10.7278,1,0.0429356,0.00287526,8,41.773,0.0545351
-0.729903,-0.158749,-0.613874,7.21421,4.88262,10.7472,2,0.074722,0.00500389,13,75.0557,0.0191798
0.864045,0.160352,-0.413923,7.29467,4.89018,10.8725,3,0.0123479,0.000826898,19,66.9203,0.0699609
-0.645423,-0.724044,-0.132417,7.23935,4.82527,10.7814,4,0.188796,0.012643,26,91.339,0.0191314
0.795437,-0.525026,0.0507227,7.30081,4.80043,10.8548,5,0.0123077,0.00082421,34,102.912,0.0634023
-0.151483,0.974628,0.00420226,7.24051,4.94025,10.7735,6,0.121154,0.00811331,43,110.986,0.0053093
0.956804,0.120525,0.211796,7.29801,4.86401,10.8824,7,0.0028296,0.000189489,53,91.9232,0.0247605
-0.0405883,-0.937803,0.274933,7.28652,4.78169,10.8598,8,0.0173964,0.00116499,64,91.1324,0.0597758
-0.794622,-0.522279,0.255566,7.23053,4.83551,10.8598,9,0.0983509,0.00658625,76,112.463,0.0103233
0.529177,-0.682803,0.498075,7.30221,4.80518,10.8955,10,0.00586696,0.000392892,89,114.47,0.0545197
-0.820148,0.102318,0.497059,7.22405,4.8925,10.8575,11,0.0746642,0.00500003,103,121.457,0.0151196
-0.628154,0.614631,0.46809,7.21451,4.92078,10.8416,12,0.00917531,0.000614441,118,133.064,0.0465944
-0.181721,0.815664,0.516018,7.24192,4.9181,10.8636,13,0.0509347,0.00341094,134,113.632,0.0171557
0.224725,-0.770548,0.575518,7.29375,4.801,10.8861,14,0.0107194,0.000717847,151,139.558,0.0262515
0.000583614,-0.424051,0.876887,7.28689,4.82507,10.9081,15,0.0189052,0.00126602,169,138.452,0.0275733
-0.483825,-0.0901158,0.850228,7.26573,4.86515,10.9078,16,0.0203074,0.00135992,188,162.793,0.0374036
-0.01085,0.487651,0.864249,7.27579,4.89073,10.9014,17,0.0331344,0.0022189,208,170.545,0.0331893
-0.00761617,0.147349,0.976616,7.29123,4.863,10.9144,18,0.0270492,0.0018114,18,115.344,0.0211935
,,,,,,,,,25,45.1669,0.107068
,,,,,,,,,33,124.931,0.0211344
,,,,,,,,,42,92.8089,0.0924347
,,,,,,,,,52,152.6,0.00545271
,,,,,,,,,63,89.4107,0.0282223
,,,,,,,,,75,57.8906,0.0849235
,,,,,,,,,88,127.253,0.0108797
,,,,,,,,,102,72.7028,0.0746931
,,,,,,,,,117,85.6172,0.0163437
,,,,,,,,,133,109.285,0.0605769
,,,,,,,,,150,114.434,0.0187492
,,,,,,,,,168,120.037,0.0301757
,,,,,,,,,187,99.3603,0.0319355
,,,,,,,,,207,128.709,0.0459104
,,,,,,,,,228,130.276,0.0397199
,,,,,,,,,32,130.609,0.0231797
,,,,,,,,,41,51.1079,0.0123278
,,,,,,,,,51,88.5852,0.0224116
,,,,,,,,,62,37.7478,0.00460413
,,,,,,,,,74,108.358,0.0144437
,,,,,,,,,87,156.346,0.0219411
,,,,,,,,,101,81.5953,0.00795445
,,,,,,,,,116,163.433,0.0211912
,,,,,,,,,132,131.266,0.0105278
,,,,,,,,,149,104.558,0.0198771
,,,,,,,,,167,100.061,0.0114762
,,,,,,,,,186,117.061,0.0149386
,,,,,,,,,206,145.285,0.0153576
,,,,,,,,,227,107.439,0.0179912
,,,,,,,,,249,113.801,0.0169556
,,,,,,,,,50,98.6155,0.023109
,,,,,,,,,61,129.061,0.147594
,,,,,,,,,73,139.306,0.00557563
,,,,,,,,,86,45.6958,0.0318574
,,,,,,,,,100,27.2183,0.129329
,,,,,,,,,115,84.8937,0.0113803
,,,,,,,,,131,65.6396,0.107009
,,,,,,,,,148,95.9816,0.0175001
,,,,,,,,,166,124.286,0.0802256
,,,,,,,,,185,69.623,0.020287
,,,,,,,,,205,78.4733,0.0343688
,,,,,,,,,226,74.0093,0.0366704
,,,,,,,,,248,118.296,0.0563747
,,,,,,,,,271,103.828,0.0473189
,,,,,,,,,72,132.17,0.0223455
,,,,,,,,,85,41.2465,0.00460133
,,,,,,,,,99,59.4843,0.0144162
,,,,,,,,,114,111.531,0.0218777
,,,,,,,,,130,32.2747,0.0079461
,,,,,,,,,147,137.704,0.021132
,,,,,,,,,165,147.175,0.0105132
,,,,,,,,,184,125.671,0.019825
,,,,,,,,,204,49.476,0.0114588
,,,,,,,,,225,73.2721,0.0149092
,,,,,,,,,247,108.3,0.0153265
,,,,,,,,,270,103.482,0.0179485
,,,,,,,,,294,92.0598,0.0169177
,,,,,,,,,98,91.5641,0.00553004
,,,,,,,,,113,160.023,0.0304243
,,,,,,,,,129,113.521,0.108568
,,,,,,,,,146,139.112,0.0111919
,,,,,,,,,164,76.2536,0.0923905
,,,,,,,,,183,44.8598,0.0170587
,,,,,,,,,203,31.6479,0.0717182
,,,,,,,,,224,143.454,0.0196962
,,,,,,,,,246,115.242,0.0327067
,,,,,,,,,269,90.6484,0.0347843
,,,,,,,,,293,60.5974,0.0520371
,,,,,,,,,318,81.2102,0.0442247
,,,,,,,,,128,95.5639,0.00486748
,,,,,,,,,145,142.291,0.00550093
,,,,,,,,,163,57.4642,0.00381786
,,,,,,,,,182,134.472,0.00545256
,,,,,,,,,202,115.795,0.0043253
,,,,,,,,,223,88.0068,0.00536135
,,,,,,,,,245,75.5074,0.00447732
,,,,,,,,,268,81.9202,0.00492244
,,,,,,,,,292,107.626,0.00496709
,,,,,,,,,317,76.3377,0.00521394
,,,,,,,,,343,77.1241,0.00512326
,,,,,,,,,162,52.0473,0.0295636
,,,,,,,,,181,39.2036,0.00877466
,,,,,,,,,201,85.5013,0.0282182
,,,,,,,,,222,115.691,0.0120141
,,,,,,,,,244,129.859,0.025935
,,,,,,,,,267,25.5284,0.0132651
,,,,,,,,,291,47.8994,0.0181195
,,,,,,,,,316,69.4113,0.0187395
,,,,,,,,,342,103.055,0.0228146
,,,,,,,,,369,82.2289,0.0211746
,,,,,,,,,200,86.2972,0.0110734
,,,,,,,,,221,40.2031,0.0848862
,,,,,,,,,243,72.3195,0.0167847
,,,,,,,,,266,98.9069,0.0671127
,,,,,,,,,290,67.5766,0.0193319
,,,,,,,,,315,62.3477,0.0317142
,,,,,,,,,341,47.8754,0.0336639
,,,,,,,,,368,91.4775,0.049569
,,,,,,,,,396,79.4128,0.0424292
,,,,,,,,,242,105.456,0.0108791
,,,,,,,,,265,121.51,0.00715732
,,,,,,,,,289,113.856,0.0105219
,,,,,,,,,314,18.9091,0.00758339
,,,,,,,,,340,41.574,0.0089549
,,,,,,,,,367,76.4822,0.00910377
,,,,,,,,,395,84.6801,0.00996879
,,,,,,,,,424,67.192,0.00964247
,,,,,,,,,288,32.4109,0.0163423
,,,,,,,,,313,58.9207,0.0605579
,,,,,,,,,339,88.6214,0.0187473
,,,,,,,,,366,65.3372,0.030171
,,,,,,,,,394,31.2276,0.0319303
,,,,,,,,,423,59.3192,0.0458995
,,,,,,,,,453,57.8608,0.0397117
,,,,,,,,,338,28.7939,0.0155495
,,,,,,,,,365,110.56,0.00988745
,,,,,,,,,393,81.1352,0.0123545
,,,,,,,,,422,48.6293,0.0126397
,,,,,,,,,452,43.9771,0.0143711
,,,,,,,,,483,55.8211,0.0137026
,,,,,,,,,392,112.574,0.0177114
,,,,,,,,,421,83.6082,0.0275754
,,,,,,,,,451,61.9879,0.0290376
,,,,,,,,,482,29.8105,0.0401501
,,,,,,,,,514,49.8473,0.0353341
,,,,,,,,,450,30.188,0.0136814
,,,,,,,,,481,62.3659,0.014032
,,,,,,,,,513,83.0151,0.0161985
,,,,,,,,,546,62.7401,0.0153541
,,,,,,,,,512,35.0367,0.0195812
,,,,,,,,,545,55.2445,0.0240744
,,,,,,,,,579,34.3907,0.0222556
,,,,,,,,,578,44.4371,0.0251815
,,,,,,,,,613,32.2349,0.0231984
,,,,,,,,,648,20.8538,0.0297842
