"cellPairingIds","interplanarAngles","angleWeights"
8,37.787,0.0430677
13,71.2984,0.0630994
34,50.0804,0.0483178
43,76.5044,0.0230294
53,76.081,0.00994179
18,67.9291,0.07747
33,21.9765,0.0442406
42,30.3423,0.0563173
102,51.0511,0.0184913
41,70.3202,0.0656494
74,72.4372,0.0110773
87,74.0305,0.0208354
149,58.2201,0.12821
114,37.3561,0.0173338
147,34.8059,0.0177293
98,103.8,0.0263435
164,36.293,0.0193961
183,34.7459,0.0458463
128,42.8436,0.00848542
202,86.7333,0.0224525
223,118.64,0.028269
268,110.273,0.0258162
317,121.14,0.025962
244,85.4587,0.0108065
221,35.7454,0.0112149
266,73.9355,0.0198973
290,28.6742,0.0184401
341,48.8637,0.0169283
368,60.6999,0.0187261
288,45.3608,0.0172013
366,34.4128,0.0191088
394,40.0253,0.0173054
393,35.957,0.0442726
392,50.1949,0.071255
482,67.8071,0.0757242
513,42.5412,0.0582156
512,23.8877,0.0449684
545,47.2826,0.0603618
578,26.4773,0.0454126
