Q	U	V
{$V$}	{[mm$^3$]}	0.00162799
{$d_v$}	{[mm]}	0.145955
{$S_c$}	{[mm$^2$]}	0.0914701
{$S_o$}	{[mm$^2$]}	0.0554249
{$S_l/S_o$}	[]	0.650343
{$\Psi$}	[]	0.731655
{$\eta$}	[]	0.753581
{med($\theta_e$)}	{[$^\circ$]}	48.5937
{$\Upsilon$}	[]	16
{$\Xi$}	[]	4
