Q	U	V
{$V$}	{[mm$^3$]}	0.00834419
{$d_v$}	{[mm]}	0.251649
{$S_c$}	{[mm$^2$]}	0.44098
{$S_o$}	{[mm$^2$]}	0.244976
{$S_l/S_o$}	[]	0.800095
{$\Psi$}	[]	0.45115
{$\eta$}	[]	0.489845
{med($\theta_e$)}	{[$^\circ$]}	93.694
{$\Upsilon$}	[]	11
{$\Xi$}	[]	7
