"cellPairingIds","interplanarAngles","angleWeights"
43,64.2731,0.010028
53,66.1818,0.0472148
64,99.4581,0.0938845
103,136.26,0.0700184
118,151.802,0.0851003
134,161.997,0.0654001
151,141.831,0.0404729
245,105.384,0.00966154
268,89.1588,0.00885578
292,96.3162,0.00672189
162,59.9802,0.0492042
291,84.2775,0.0290867
243,48.2203,0.0744843
266,76.7426,0.0917893
290,97.2837,0.06928
315,84.7498,0.041926
341,93.6461,0.0167508
338,28.8569,0.0688463
392,29.8963,0.0643765
481,21.8485,0.0155429
512,24.8896,0.0135584
