Q	U	V
{$V$}	{[mm$^3$]}	0.00715912
{$d_v$}	{[mm]}	0.239122
{$S_c$}	{[mm$^2$]}	0.36683
{$S_o$}	{[mm$^2$]}	0.20288
{$S_l/S_o$}	[]	0.808113
{$\Psi$}	[]	0.489695
{$\eta$}	[]	0.524077
{med($\theta_e$)}	{[$^\circ$]}	84.40245
{$\Upsilon$}	[]	17
{$\Xi$}	[]	10
