facetNormals:0,facetNormals:1,facetNormals:2,FacetCenters:0,FacetCenters:1,FacetCenters:2,FacetIds,relFacetSize,absFacetSize,cellPairingIds,interplanarAngles,angleWeights
0.354605,0.212639,-0.855687,3.07656,3.68407,11.0128,1,0.0220394,0.00930496,8,58.388,0.0259876
0.335191,0.853989,-0.194865,3.06978,3.69056,11.1068,2,0.031659,0.0133663,13,75.7326,0.035268
0.279718,-0.844705,-0.356348,3.07163,3.61348,11.1073,3,0.0882203,0.0372463,19,86.0072,0.0317459
-0.839199,0.263761,-0.355603,2.96803,3.65781,11.0752,4,0.0567316,0.0239519,26,69.9366,0.0270408
0.843757,-0.435737,-0.123483,3.15147,3.64248,11.126,5,0.0349783,0.0147677,34,72.091,0.0125407
0.940234,0.257303,0.118222,3.18089,3.69813,11.1813,6,0.00876365,0.00369998,43,101.941,0.0392717
-0.586334,0.722757,0.153371,2.9921,3.68013,11.1634,7,0.180052,0.0760172,53,115.307,0.0391233
0.101559,-0.904124,0.267652,3.12931,3.63167,11.2249,8,0.174001,0.0734626,64,136.315,0.0302203
-0.85971,-0.138121,0.368909,3.02264,3.63948,11.1952,9,0.0480599,0.0202907,76,117.689,0.0150748
0.62187,-0.364796,0.677702,3.177,3.67648,11.2994,10,0.0114549,0.00483624,89,115.688,0.025681
0.619191,0.0328352,0.723475,3.17456,3.68311,11.2918,11,0.0307643,0.0129886,103,156.573,0.0245786
-0.517576,-0.512764,0.659684,2.97689,3.61214,11.2448,12,0.0277792,0.0117283,18,128.382,0.0465963
,,,,,,,,,25,89.1468,0.0406393
,,,,,,,,,33,94.1651,0.033236
,,,,,,,,,42,56.2349,0.0137274
,,,,,,,,,52,63.7833,0.0538495
,,,,,,,,,63,152.678,0.0535709
,,,,,,,,,75,122.612,0.0381723
,,,,,,,,,88,104.678,0.016823
,,,,,,,,,102,83.9228,0.0312052
,,,,,,,,,117,143.389,0.0295925
,,,,,,,,,32,111.331,0.0690557
,,,,,,,,,41,45.0851,0.0500947
,,,,,,,,,51,89.7853,0.0159435
,,,,,,,,,62,156.51,0.118419
,,,,,,,,,74,39.9609,0.11708
,,,,,,,,,87,106.357,0.0622227
,,,,,,,,,101,75.3049,0.020277
,,,,,,,,,116,97.0659,0.0456199
,,,,,,,,,132,86.7577,0.0422534
,,,,,,,,,50,149.032,0.043275
,,,,,,,,,61,145.001,0.015182
,,,,,,,,,73,45.4231,0.0862782
,,,,,,,,,86,117.743,0.0855653
,,,,,,,,,100,51.8835,0.0520369
,,,,,,,,,115,156.211,0.0190611
,,,,,,,,,131,148.184,0.0398946
,,,,,,,,,148,86.033,0.037296
,,,,,,,,,72,44.8536,0.0140157
,,,,,,,,,85,156.54,0.058577
,,,,,,,,,99,60.5439,0.0582475
,,,,,,,,,114,141.708,0.0404887
,,,,,,,,,130,50.7144,0.0172581
,,,,,,,,,147,62.6785,0.0327362
,,,,,,,,,165,108.249,0.0309658
,,,,,,,,,98,112.015,0.0167138
,,,,,,,,,113,96.5051,0.0166869
,,,,,,,,,129,149.519,0.0148241
,,,,,,,,,146,54.0106,0.00993018
,,,,,,,,,164,43.7237,0.0136414
,,,,,,,,,183,124.065,0.0133239
,,,,,,,,,128,138.694,0.176975
,,,,,,,,,145,58.8929,0.0758687
,,,,,,,,,163,124.181,0.0215395
,,,,,,,,,182,104.72,0.0525497
,,,,,,,,,202,87.8954,0.0481323
,,,,,,,,,162,81.2579,0.0753169
,,,,,,,,,181,52.2603,0.0214948
,,,,,,,,,201,75.4617,0.0522844
,,,,,,,,,222,50.9197,0.0479096
,,,,,,,,,200,104.497,0.0185004
,,,,,,,,,221,107.434,0.0375146
,,,,,,,,,243,35.236,0.0352078
,,,,,,,,,242,23.6879,0.016694
,,,,,,,,,265,71.2716,0.016221
,,,,,,,,,288,81.4055,0.0291956
