"cellPairingIds","interplanarAngles","angleWeights"
8,64.9164,0.0229632
13,90.8281,0.0446138
19,44.4612,0.0662265
26,103.492,0.159689
18,102.803,0.0166742
33,58.7594,0.0228204
32,123.453,0.0317212
41,146.32,0.0440778
51,50.6069,0.0296522
74,99.9187,0.0396475
50,86.314,0.0650521
61,124.811,0.0378652
73,27.4474,0.0621645
100,71.9114,0.0469158
85,77.6784,0.137953
99,70.6113,0.110256
114,78.3129,0.080146
113,57.4135,0.0497339
129,74.8639,0.0425271
145,44.8817,0.0758075
162,53.4379,0.066612
