facetNormals:0,facetNormals:1,facetNormals:2,FacetCenters:0,FacetCenters:1,FacetCenters:2,FacetIds,relFacetSize,absFacetSize,cellPairingIds,interplanarAngles,angleWeights
-0.252745,0.231971,-0.898177,3.20879,5.39526,9.49794,1,0.0644946,0.00718082,8,48.2584,0.0515898
0.25581,-0.379749,-0.871959,3.21725,5.32731,9.50439,2,0.0429883,0.00478631,13,48.4662,0.086781
0.494824,-0.0411978,-0.846368,3.28444,5.42202,9.52076,3,0.132602,0.0147639,19,67.2566,0.0428471
0.165272,-0.730115,-0.643641,3.16861,5.30023,9.5279,4,0.0320796,0.00357174,26,78.5948,0.0536885
0.767453,-0.352051,-0.516392,3.28019,5.37144,9.53217,5,0.0459838,0.00511983,34,92.4689,0.0373426
0.0312906,-0.959861,-0.211361,3.18816,5.29085,9.54665,6,0.0262792,0.00292592,43,107.622,0.0966339
0.770505,-0.578243,-0.0534973,3.28672,5.369,9.58385,7,0.192623,0.0214466,53,87.2841,0.0760624
0.0270713,0.892089,0.176633,3.30721,5.46657,9.60038,8,0.0926867,0.0103197,64,110.826,0.0153775
0.825138,0.469463,0.26408,3.35222,5.46545,9.61704,9,0.00872941,0.000971932,76,122.799,0.0768932
0.0295775,-0.893768,0.309589,3.21344,5.29257,9.59089,10,0.0951933,0.0105988,18,24.3823,0.0649277
,,,,,,,,,25,25.0614,0.0367414
,,,,,,,,,33,36.8231,0.0444356
,,,,,,,,,42,54.9048,0.0326184
,,,,,,,,,52,60.8167,0.0702898
,,,,,,,,,63,122.836,0.0587351
,,,,,,,,,75,101.74,0.014512
,,,,,,,,,88,85.2594,0.0592293
,,,,,,,,,32,47.3284,0.0516612
,,,,,,,,,41,31.1333,0.0682871
,,,,,,,,,51,75.9707,0.0438652
,,,,,,,,,62,61.5957,0.157074
,,,,,,,,,74,101.164,0.109108
,,,,,,,,,87,80.1478,0.0163805
,,,,,,,,,101,103.106,0.110826
,,,,,,,,,50,42.8598,0.0377935
,,,,,,,,,61,29.8495,0.0288912
,,,,,,,,,73,52.1888,0.0549996
,,,,,,,,,86,147.858,0.0476628
,,,,,,,,,100,112.76,0.0137242
,,,,,,,,,115,60.632,0.0479877
,,,,,,,,,72,61.0517,0.033445
,,,,,,,,,85,30.5327,0.0742438
,,,,,,,,,99,115.277,0.0614707
,,,,,,,,,114,70.122,0.0146733
,,,,,,,,,130,79.0769,0.0620122
,,,,,,,,,98,51.5136,0.0462487
,,,,,,,,,113,176.267,0.0409484
,,,,,,,,,129,119.736,0.0131055
,,,,,,,,,146,31.5077,0.041188
,,,,,,,,,128,125.075,0.125152
,,,,,,,,,145,68.3875,0.0167019
,,,,,,,,,163,55.0508,0.127417
,,,,,,,,,162,57.0375,0.0159561
,,,,,,,,,181,149.499,0.0939233
,,,,,,,,,200,109.64,0.0159923
