facetNormals:0,facetNormals:1,facetNormals:2,FacetCenters:0,FacetCenters:1,FacetCenters:2,FacetIds,relFacetSize,absFacetSize,cellPairingIds,interplanarAngles,angleWeights
-0.0162245,-0.183561,-0.96462,3.16511,5.84475,9.4331,1,0.0298757,0.00259075,8,41.9135,0.0458102
0.597496,0.0609793,-0.74902,3.21599,5.85879,9.45558,2,0.0981711,0.00851317,13,38.9848,0.0367856
-0.619086,-0.260422,-0.71818,3.12242,5.82744,9.47469,3,0.0478536,0.00414975,19,72.2302,0.0366783
0.00967549,0.834422,-0.454142,3.15784,5.90017,9.46996,4,0.0474921,0.0041184,26,49.095,0.0461591
-0.526823,-0.622646,-0.516092,3.12339,5.78713,9.50677,5,0.101458,0.00879817,34,88.2062,0.0236492
-0.530551,0.810736,-0.176742,3.15115,5.89121,9.45657,6,0.0195705,0.00169711,43,80.9464,0.0533625
0.511487,-0.792574,-0.00890685,3.18099,5.76538,9.55642,7,0.249536,0.0216391,53,97.8337,0.0366624
0.794274,0.551985,0.0158367,3.20685,5.86597,9.54484,8,0.0474388,0.00411378,64,100.915,0.00808882
-0.967257,0.0761792,0.192459,3.13667,5.82375,9.54039,9,0.00467764,0.000405634,76,118.78,0.0103941
-0.804549,0.392709,0.424443,3.11336,5.83534,9.53864,10,0.00629146,0.00054558,89,125.848,0.0374682
0.769114,0.2699,0.508501,3.22309,5.84043,9.55933,11,0.0502349,0.00435625,103,137.509,0.0396116
0.0863358,0.767815,0.575864,3.21023,5.8883,9.5065,12,0.0587607,0.00509559,118,145.516,0.0169923
0.468614,0.470059,0.731708,3.22551,5.85731,9.53922,13,0.0118725,0.00102955,18,80.7253,0.0643431
,,,,,,,,,25,64.2112,0.0640155
,,,,,,,,,33,87.9084,0.0997874
,,,,,,,,,42,98.2192,0.0326351
,,,,,,,,,52,73.0556,0.140907
,,,,,,,,,63,57.6933,0.063967
,,,,,,,,,75,139.066,0.0089298
,,,,,,,,,88,144.528,0.0118251
,,,,,,,,,102,84.0805,0.0664611
,,,,,,,,,117,111.091,0.0735173
,,,,,,,,,133,104.62,0.0211832
,,,,,,,,,32,83.6783,0.0476722
,,,,,,,,,41,25.1702,0.0650335
,,,,,,,,,51,75.3914,0.0277799
,,,,,,,,,62,96.4285,0.0803068
,,,,,,,,,74,132.845,0.0476453
,,,,,,,,,87,63.0535,0.00852225
,,,,,,,,,101,84.6411,0.0111208
,,,,,,,,,116,164.805,0.0490153
,,,,,,,,,132,134.741,0.0527492
,,,,,,,,,149,164.937,0.0190249
,,,,,,,,,50,108.454,0.0646988
,,,,,,,,,61,36.5555,0.0277187
,,,,,,,,,73,136.71,0.079797
,,,,,,,,,86,59.888,0.0474654
,,,,,,,,,100,92.0244,0.00851647
,,,,,,,,,115,82.2373,0.011111
,,,,,,,,,131,89.892,0.048825
,,,,,,,,,148,65.4769,0.0525288
,,,,,,,,,166,86.0617,0.0189961
,,,,,,,,,72,98.1084,0.0328118
,,,,,,,,,85,75.4572,0.144261
,,,,,,,,,99,145.59,0.0646493
,,,,,,,,,114,67.6649,0.00894298
,,,,,,,,,130,92.3802,0.0118482
,,,,,,,,,147,154.32,0.0671979
,,,,,,,,,165,151.939,0.07442
,,,,,,,,,184,164.135,0.0212574
,,,,,,,,,98,169.115,0.0362945
,,,,,,,,,113,88.5979,0.0277096
,,,,,,,,,129,56.2726,0.00755058
,,,,,,,,,146,46.6208,0.00952186
,,,,,,,,,164,107.156,0.0281675
,,,,,,,,,183,59.9745,0.0293619
,,,,,,,,,203,89.8147,0.0147792
,,,,,,,,,128,91.9699,0.0797218
,,,,,,,,,145,126.638,0.00918315
,,,,,,,,,163,141.019,0.0122735
,,,,,,,,,182,78.8696,0.0836332
,,,,,,,,,202,128.793,0.0951221
,,,,,,,,,223,98.6018,0.0226665
,,,,,,,,,162,139.091,0.00851562
,,,,,,,,,181,115.693,0.0111095
,,,,,,,,,201,34.2805,0.0487968
,,,,,,,,,222,57.4531,0.0524962
,,,,,,,,,244,47.6932,0.0189919
,,,,,,,,,200,24.78,0.00536584
,,,,,,,,,221,131.165,0.00855837
,,,,,,,,,243,84.8349,0.00866547
,,,,,,,,,266,106.445,0.00671116
,,,,,,,,,242,108.179,0.0111824
,,,,,,,,,265,60.0623,0.011366
,,,,,,,,,289,83.0675,0.00822456
,,,,,,,,,288,52.2747,0.0541643
,,,,,,,,,313,25.1142,0.0192059
,,,,,,,,,338,30.2046,0.0197538
