"cellPairingIds","interplanarAngles","angleWeights"
18,75.447,0.0186684
42,84.9461,0.0452164
52,67.601,0.0870897
63,79.66,0.107303
75,74.8521,0.0813514
32,47.3535,0.0158379
41,68.7933,0.0115957
51,90.0161,0.0159227
74,51.9962,0.0199972
101,52.507,0.0170362
50,22.1318,0.0181407
115,73.4593,0.0362526
72,24.9731,0.0182521
130,91.3157,0.0197304
129,44.0013,0.0464485
146,115.368,0.0367003
183,112.468,0.0469473
128,40.3443,0.126218
145,119.53,0.091779
182,36.4316,0.071319
223,70.2644,0.0675796
181,49.8567,0.069198
244,89.9446,0.0791493
221,87.0022,0.0674244
243,135.991,0.0871311
266,98.232,0.0640726
265,27.3122,0.0581547
289,86.1105,0.0468915
313,55.7854,0.0533816
338,65.5709,0.0650255
