"cellPairingIds","interplanarAngles","angleWeights"
8,49.1881,0.0340889
43,58.7865,0.0280022
53,113.838,0.0233969
18,44.5761,0.0305249
25,25.4843,0.133446
52,101.044,0.0865232
63,155.483,0.0538017
32,62.5101,0.0285122
41,51.8908,0.0141907
74,130.308,0.0216611
101,57.3225,0.0294611
50,24.2869,0.0221229
61,63.8009,0.0907851
73,88.0553,0.0720975
131,57.2163,0.0381899
130,34.4165,0.0226899
147,54.6461,0.0162388
165,57.418,0.0171412
98,25.3995,0.0663177
129,29.1908,0.0379743
164,50.8149,0.0365046
128,76.9116,0.040059
145,40.2004,0.0342599
223,72.0745,0.0466938
181,133.552,0.0505823
222,110.773,0.0293804
244,79.1507,0.0351552
221,30.078,0.0240944
266,42.476,0.0306084
265,36.0743,0.0458428
288,31.4785,0.0254311
313,42.237,0.0296463
338,35.9039,0.0327984
