Q	U	V
{$V$}	{[mm$^3$]}	0.0024592
{$d_v$}	{[mm]}	0.167468
{$S_c$}	{[mm$^2$]}	0.143824
{$S_o$}	{[mm$^2$]}	0.0853566
{$S_l/S_o$}	[]	0.684978
{$\Psi$}	[]	0.612607
{$\eta$}	[]	0.655950
{med($\theta_e$)}	{[$^\circ$]}	82.96745
{$\Upsilon$}	[]	8
{$\Xi$}	[]	7
