"cellPairingIds","interplanarAngles","angleWeights"
8,22.3079,0.0227298
13,46.3748,0.0465889
19,42.5937,0.0777877
26,98.3567,0.0684509
34,126.827,0.118238
53,66.583,0.0676964
18,26.9279,0.017872
52,48.97,0.022467
63,77.0184,0.0203001
51,86.7512,0.0489814
62,56.6682,0.0454979
87,61.8807,0.0221129
50,65.1486,0.0556837
86,37.46,0.0551834
72,102.801,0.0737431
99,79.1233,0.0503147
147,113.486,0.0287735
129,66.6027,0.0310407
146,60.5026,0.0208257
164,54.0085,0.0349617
128,61.3257,0.0654171
145,51.1051,0.0296043
162,107.122,0.0259538
181,108.726,0.0184054
201,111.598,0.0286393
200,20.4327,0.0137317
242,27.2971,0.0144485
