Q	U	V
{$V$}	{[mm$^3$]}	0.00520933
{$d_v$}	{[mm]}	0.215077
{$S_c$}	{[mm$^2$]}	0.258782
{$S_o$}	{[mm$^2$]}	0.150502
{$S_l/S_o$}	[]	0.719459
{$\Psi$}	[]	0.561571
{$\eta$}	[]	0.599141
{med($\theta_e$)}	{[$^\circ$]}	58.7369
{$\Upsilon$}	[]	15
{$\Xi$}	[]	8
