facetNormals:0,facetNormals:1,facetNormals:2,FacetCenters:0,FacetCenters:1,FacetCenters:2,FacetIds,relFacetSize,absFacetSize,cellPairingIds,interplanarAngles,angleWeights
-0.00358628,-0.321371,-0.928775,7.32863,5.45775,10.3951,1,0.0191594,0.0057023,8,30.153,0.0258057
-0.289645,-0.655437,-0.669236,7.27918,5.42293,10.4423,2,0.039512,0.0117597,13,37.6538,0.0290233
0.192679,-0.772703,-0.539002,7.34578,5.40736,10.4495,3,0.059821,0.0178041,19,64.5633,0.0338125
-0.749981,0.280855,-0.531015,7.228,5.55814,10.4588,4,0.143757,0.0427855,26,73.7953,0.0289583
-0.385943,-0.884334,0.0224707,7.28432,5.38635,10.5439,5,0.0592726,0.0176409,34,113.55,0.0210368
-0.370933,0.894431,0.103677,7.29982,5.66879,10.4759,6,0.0233221,0.00694121,43,82.0442,0.0277532
0.785516,-0.575841,0.0533529,7.37884,5.40179,10.5662,7,0.0503266,0.0149784,53,107.521,0.0279778
0.782295,-0.393126,0.446021,7.41345,5.4375,10.5382,8,0.0518358,0.0154275,64,105.829,0.0250046
-0.837406,-0.316294,0.395098,7.23848,5.45549,10.5623,9,0.0359818,0.010709,76,128.618,0.0221456
-0.656227,-0.182198,0.720228,7.24692,5.42358,10.6059,10,0.0262345,0.00780799,89,160.962,0.0343752
-0.24811,0.474426,0.798274,7.30086,5.54432,10.5644,11,0.167005,0.0497045,18,30.6232,0.0475904
,,,,,,,,,25,65.646,0.0619868
,,,,,,,,,33,44.3779,0.0474159
,,,,,,,,,42,125.038,0.0293313
,,,,,,,,,52,83.1422,0.0442684
,,,,,,,,,63,106.115,0.0448426
,,,,,,,,,75,78.8546,0.0376644
,,,,,,,,,88,100.224,0.0315325
,,,,,,,,,102,145.141,0.0639047
,,,,,,,,,32,94.6746,0.0844854
,,,,,,,,,41,49.9776,0.0595455
,,,,,,,,,51,150.929,0.0335603
,,,,,,,,,62,52.7667,0.0546646
,,,,,,,,,74,76.9038,0.0555428
,,,,,,,,,87,97.9359,0.0449354
,,,,,,,,,101,113.092,0.0364735
,,,,,,,,,116,156.042,0.0880887
,,,,,,,,,50,88.1989,0.0839371
,,,,,,,,,61,59.5417,0.0401333
,,,,,,,,,73,146.233,0.0745535
,,,,,,,,,86,171.57,0.0761966
,,,,,,,,,100,69.4912,0.0575573
,,,,,,,,,115,86.4767,0.0443715
,,,,,,,,,131,96.5011,0.154511
,,,,,,,,,72,133.375,0.0334734
,,,,,,,,,85,77.2814,0.0544345
,,,,,,,,,99,86.6295,0.0553053
,,,,,,,,,114,49.6222,0.0447798
,,,,,,,,,130,63.252,0.0363709
,,,,,,,,,147,109.251,0.0874927
,,,,,,,,,98,147.472,0.0318735
,,,,,,,,,113,128.492,0.0321701
,,,,,,,,,129,85.8667,0.0283007
,,,,,,,,,146,80.7525,0.0246927
,,,,,,,,,164,50.2022,0.0409286
,,,,,,,,,128,25.5554,0.05107
,,,,,,,,,145,118.443,0.0419622
,,,,,,,,,163,112.636,0.0344899
,,,,,,,,,182,116.99,0.0773453
,,,,,,,,,162,111.639,0.0424777
,,,,,,,,,181,97.1068,0.0348375
,,,,,,,,,201,91.49,0.0791153
,,,,,,,,,200,23.162,0.0303446
,,,,,,,,,221,66.6269,0.0592072
,,,,,,,,,242,46.8741,0.0453457
