Q	U	V
{$V$}	{[mm$^3$]}	0.0134063
{$d_v$}	{[mm]}	0.294738
{$S_c$}	{[mm$^2$]}	0.531226
{$S_o$}	{[mm$^2$]}	0.348596
{$S_l/S_o$}	[]	0.523902
{$\Psi$}	[]	0.513741
{$\eta$}	[]	0.580009
{med($\theta_e$)}	{[$^\circ$]}	66.49465
{$\Upsilon$}	[]	12
{$\Xi$}	[]	10
