"cellPairingIds","interplanarAngles","angleWeights"
8,64.3548,0.0260615
13,53.6275,0.0207751
19,51.5587,0.0198358
43,83.9084,0.0162941
64,77.3079,0.0248907
18,36.6176,0.0543831
42,67.4814,0.0324962
52,113.872,0.0316201
63,66.494,0.0557967
168,115.606,0.135366
51,53.9086,0.024669
87,57.4849,0.0495221
73,84.918,0.0228997
100,52.2389,0.0444988
131,59.9143,0.0420411
113,44.3817,0.0249558
129,53.3493,0.0306957
146,45.9954,0.0243831
183,29.5591,0.0244067
246,83.6364,0.033857
182,117.165,0.0287818
245,62.3654,0.0156655
268,85.9411,0.0329071
291,53.6034,0.059933
200,29.2668,0.0483832
221,36.2828,0.0738122
242,19.9461,0.0454916
265,45.7742,0.0344082
340,84.5993,0.0567327
339,61.2583,0.0227521
366,84.0266,0.095183
393,55.08,0.0568608
450,55.3226,0.0252548
