Q	U	V
{$V$}	{[mm$^3$]}	0.00761984
{$d_v$}	{[mm]}	0.244146
{$S_c$}	{[mm$^2$]}	0.390369
{$S_o$}	{[mm$^2$]}	0.222775
{$S_l/S_o$}	[]	0.752302
{$\Psi$}	[]	0.479703
{$\eta$}	[]	0.496499
{med($\theta_e$)}	{[$^\circ$]}	
{$\Upsilon$}	[]	14
{$\Xi$}	[]	13
