facetNormals:0,facetNormals:1,facetNormals:2,FacetCenters:0,FacetCenters:1,FacetCenters:2,FacetIds,relFacetSize,absFacetSize,cellPairingIds,interplanarAngles,angleWeights
-0.668343,-0.0114677,-0.667264,3.61866,7.22292,12.0533,1,0.046745,0.00632159,8,56.306,0.0496801
0.0889674,0.439137,-0.853816,3.69434,7.22759,12.0298,2,0.0530085,0.00716864,13,84.5391,0.0251016
0.495401,0.580016,-0.640324,3.75594,7.32646,12.1075,3,0.0171575,0.0023203,19,42.5579,0.0163757
-0.608138,-0.660784,-0.407886,3.62075,7.1715,12.0694,4,0.00992662,0.00134243,26,101.592,0.0606116
0.811674,0.0426198,-0.536687,3.76717,7.27568,12.1107,5,0.0861748,0.0116539,34,102.046,0.0336336
0.737757,-0.481623,-0.43978,3.72359,7.19442,12.074,6,0.0262662,0.00355213,43,93.0509,0.0431577
0.273583,0.862564,-0.218715,3.74569,7.24978,12.0846,7,0.0400818,0.00542048,53,117.469,0.03069
0.901354,0.329012,-0.259485,3.7661,7.26312,12.0994,8,0.022844,0.00308933,64,97.8889,0.0794468
0.254829,-0.916301,-0.0544198,3.69465,7.17172,12.1144,9,0.264451,0.0357633,76,83.7681,0.0237145
-0.606289,0.567509,0.452223,3.72592,7.23721,12.1313,10,0.0158871,0.00214851,89,157.914,0.0738594
0.83657,-0.052469,0.358933,3.76566,7.26427,12.1954,11,0.175877,0.0237848,103,136.201,0.0445304
0.481752,0.679941,0.497098,3.75879,7.32224,12.1921,12,0.0425162,0.00574971,118,113.289,0.0318597
-0.199883,-0.588713,0.759697,3.69271,7.18547,12.2246,13,0.0241647,0.00326793,18,28.3034,0.025924
,,,,,,,,,25,89.7602,0.0167218
,,,,,,,,,33,54.2158,0.06564
,,,,,,,,,42,76.0047,0.0351268
,,,,,,,,,52,48.9207,0.0456476
,,,,,,,,,63,62.2528,0.0319285
,,,,,,,,,75,111.272,0.0883146
,,,,,,,,,88,102.082,0.0244472
,,,,,,,,,102,106.865,0.0814641
,,,,,,,,,117,95.0884,0.0471861
,,,,,,,,,133,167.732,0.0331964
,,,,,,,,,32,115.53,0.0125768
,,,,,,,,,41,37.4117,0.0286172
,,,,,,,,,51,67.977,0.0207565
,,,,,,,,,62,33.1931,0.024029
,,,,,,,,,74,35.7389,0.0195966
,,,,,,,,,87,112.979,0.0322243
,,,,,,,,,101,106.075,0.0164979
,,,,,,,,,116,80.2255,0.0312649
,,,,,,,,,132,70.9926,0.0244487
,,,,,,,,,149,161.462,0.020067
,,,,,,,,,50,108.377,0.0178025
,,,,,,,,,61,87.1099,0.0144081
,,,,,,,,,73,134.81,0.0159124
,,,,,,,,,86,132.291,0.0138395
,,,,,,,,,100,59.7956,0.019135
,,,,,,,,,115,101.801,0.0122187
,,,,,,,,,131,133.623,0.0187926
,,,,,,,,,148,170.909,0.0160953
,,,,,,,,,166,78.0369,0.0140724
,,,,,,,,,72,31.8925,0.0402609
,,,,,,,,,85,65.4877,0.0547146
,,,,,,,,,99,23.9347,0.0361145
,,,,,,,,,114,77.7423,0.129991
,,,,,,,,,130,140.495,0.0268282
,,,,,,,,,147,56.9655,0.115673
,,,,,,,,,165,80.6699,0.0569399
,,,,,,,,,184,128.488,0.0377451
,,,,,,,,,98,97.3581,0.0317356
,,,,,,,,,113,50.6479,0.0244359
,,,,,,,,,129,45.863,0.0477861
,,,,,,,,,146,170.93,0.0197989
,,,,,,,,,164,57.3357,0.0457064
,,,,,,,,,183,101.511,0.0324717
,,,,,,,,,203,101.821,0.0251717
,,,,,,,,,128,50.6177,0.0291019
,,,,,,,,,145,143.05,0.0696126
,,,,,,,,,163,75.2094,0.0227549
,,,,,,,,,182,82.8873,0.0652852
,,,,,,,,,202,47.5613,0.0412631
,,,,,,,,,223,142.872,0.0301515
,,,,,,,,,162,93.4911,0.0420552
,,,,,,,,,181,120.505,0.0187408
,,,,,,,,,201,44.753,0.0404359
,,,,,,,,,222,56.741,0.0297196
,,,,,,,,,244,125.815,0.0234858
,,,,,,,,,200,140.905,0.0299736
,,,,,,,,,221,73.8423,0.211255
,,,,,,,,,243,124.783,0.0732551
,,,,,,,,,266,61.4348,0.044283
,,,,,,,,,242,115.755,0.0291418
,,,,,,,,,265,69.6822,0.0231309
,,,,,,,,,289,81.9096,0.0191705
,,,,,,,,,288,51.9133,0.0684785
,,,,,,,,,313,81.238,0.0424913
,,,,,,,,,338,97.1731,0.0308152
