"cellPairingIds","interplanarAngles","angleWeights"
8,31.4875,0.0148304
13,57.3292,0.0203047
19,70.1456,0.0144569
26,69.6564,0.0151635
34,98.2664,0.0211687
43,98.9677,0.0202377
64,80.233,0.0207358
18,33.8429,0.033137
25,39.6638,0.0199603
32,41.8571,0.0313285
51,47.4433,0.10012
61,74.3694,0.033434
86,51.2931,0.0306241
100,57.656,0.0323667
148,52.4373,0.0229619
85,85.2765,0.0346506
114,88.7859,0.0361369
147,55.3876,0.0227799
98,56.4282,0.0985103
113,35.0302,0.0932644
164,129.417,0.0396982
182,87.7897,0.0365452
201,127.965,0.0357982
222,47.1715,0.0410459
221,87.6706,0.0382024
243,58.4367,0.0442381
288,96.9938,0.0257527
