facetNormals:0,facetNormals:1,facetNormals:2,FacetCenters:0,FacetCenters:1,FacetCenters:2,FacetIds,relFacetSize,absFacetSize,cellPairingIds,interplanarAngles,angleWeights
0.102321,-0.589676,-0.757508,5.63314,5.36799,11.5174,1,0.134579,0.0363352,8,32.5172,0.064279
-0.416333,-0.428652,-0.769892,5.54513,5.40921,11.5203,2,0.042223,0.0113999,13,97.1884,0.101673
0.153001,0.831089,-0.471932,5.57312,5.49172,11.5096,3,0.0816971,0.0220576,19,72.6737,0.0836992
0.807385,0.267368,-0.467415,5.6668,5.42749,11.578,4,0.0607368,0.0163985,26,56.519,0.0380096
-0.740506,-0.534938,-0.378923,5.48151,5.39737,11.5258,5,0.0221299,0.00597492,34,56.3961,0.130856
-0.259167,-0.913717,0.00634836,5.5942,5.34729,11.5954,6,0.127334,0.0343793,43,84.069,0.0796834
-0.91303,-0.330256,0.00589459,5.46718,5.41528,11.5857,7,0.0565972,0.0152808,53,64.7026,0.0631688
0.734358,-0.605351,0.0513804,5.74918,5.35244,11.6267,8,0.0412701,0.0111426,64,127.698,0.0866272
-0.581941,0.712744,0.0868405,5.62779,5.42179,11.5898,9,0.0638699,0.0172444,76,123.118,0.0976264
-0.694424,-0.0755454,0.611401,5.52823,5.40385,11.6228,10,0.0765951,0.0206801,89,116.437,0.0778439
0.138088,-0.387788,0.863097,5.64623,5.34506,11.6479,11,0.0547589,0.0147845,103,160.747,0.0632352
0.183355,0.455308,0.814254,5.66702,5.41513,11.6037,12,0.0413269,0.0111579,18,93.4405,0.0556729
,,,,,,,,,25,95.5144,0.0498154
,,,,,,,,,33,30.6343,0.0290396
,,,,,,,,,42,57.6956,0.0634174
,,,,,,,,,52,56.8714,0.0483647
,,,,,,,,,63,95.3007,0.0417411
,,,,,,,,,75,98.3044,0.0508381
,,,,,,,,,88,99.4935,0.0544374
,,,,,,,,,102,126.609,0.0476808
,,,,,,,,,117,165.829,0.0417701
,,,,,,,,,32,52.922,0.0696747
,,,,,,,,,41,113.327,0.0348262
,,,,,,,,,51,150.743,0.0995339
,,,,,,,,,62,116.338,0.0668694
,,,,,,,,,74,116.735,0.0548382
,,,,,,,,,87,58.8805,0.0716919
,,,,,,,,,101,120.614,0.0790639
,,,,,,,,,116,139.949,0.0655691
,,,,,,,,,132,88.6187,0.0548883
,,,,,,,,,50,125.973,0.0324401
,,,,,,,,,61,119.688,0.0822442
,,,,,,,,,73,151.517,0.058594
,,,,,,,,,86,63.8917,0.049146
,,,,,,,,,100,110.893,0.0622639
,,,,,,,,,115,164.149,0.0677503
,,,,,,,,,131,115.233,0.0575932
,,,,,,,,,148,96.8983,0.0491862
,,,,,,,,,72,43.7711,0.0377067
,,,,,,,,,85,27.6562,0.0318186
,,,,,,,,,99,104.716,0.0288109
,,,,,,,,,114,88.9499,0.0328707
,,,,,,,,,130,69.4036,0.0343387
,,,,,,,,,147,103.568,0.0315211
,,,,,,,,,165,137.018,0.0288247
,,,,,,,,,98,54.2775,0.0783636
,,,,,,,,,113,66.3503,0.0623365
,,,,,,,,,129,124.712,0.0850696
,,,,,,,,,146,73.3326,0.0956526
,,,,,,,,,164,69.0983,0.0765838
,,,,,,,,,183,120.504,0.0624012
,,,,,,,,,128,120.543,0.0477335
,,,,,,,,,145,70.7096,0.060014
,,,,,,,,,163,42.6826,0.0650949
,,,,,,,,,182,89.5632,0.0556629
,,,,,,,,,202,109.818,0.0477714
,,,,,,,,,162,165.905,0.0501411
,,,,,,,,,181,119.287,0.053639
,,,,,,,,,201,65.323,0.0470672
,,,,,,,,,222,96.2809,0.0412985
,,,,,,,,,200,61.9566,0.0696561
,,,,,,,,,221,108.594,0.0589645
,,,,,,,,,243,70.8313,0.050183
,,,,,,,,,242,58.7046,0.063862
,,,,,,,,,265,67.6151,0.053687
,,,,,,,,,288,52.652,0.0471041
