"cellPairingIds","interplanarAngles","angleWeights"
8,94.3253,0.0111087
19,81.5731,0.00256827
26,116.734,0.0148724
34,115.112,0.0144462
18,20.0346,0.0333829
25,114.139,0.00286186
33,56.1631,0.0366386
32,105.076,0.00303671
41,58.8544,0.13938
62,29.5159,0.0371567
61,143.968,0.00304297
73,91.1072,0.002887
115,110.407,0.00299411
72,40.9243,0.153928
85,67.8407,0.0412351
130,54.6375,0.0843212
146,48.5559,0.0722373
163,57.5044,0.0316477
