facetNormals:0,facetNormals:1,facetNormals:2,FacetCenters:0,FacetCenters:1,FacetCenters:2,FacetIds,relFacetSize,absFacetSize,cellPairingIds,interplanarAngles,angleWeights
0.11114,-0.266026,-0.907234,4.1518,7.56817,11.0608,1,0.0484774,0.0161008,8,41.1145,0.056334
-0.413428,0.156138,-0.862668,4.10841,7.66316,11.0844,2,0.0672297,0.0223289,13,73.8945,0.0704027
-0.833541,0.0695518,-0.391301,4.03505,7.61611,11.223,3,0.128538,0.0426911,19,64.7493,0.0495062
0.751055,0.390145,-0.451821,4.20672,7.68959,11.1096,4,0.0505795,0.0167989,26,51.1078,0.0376257
0.319542,-0.852725,-0.354616,4.16873,7.50842,11.129,5,0.0307437,0.0102109,34,100.258,0.0515078
-0.96913,0.0638468,0.0442181,4.02015,7.61982,11.2377,6,0.0549424,0.018248,43,86.7629,0.0341562
0.477596,-0.814466,0.239616,4.17434,7.51586,11.135,7,0.0263669,0.00875721,53,97.8581,0.0417326
-0.766553,-0.551509,0.206483,4.03381,7.5584,11.2204,8,0.0366355,0.0121677,64,76.0739,0.0408354
0.876058,-0.398225,-0.0189703,4.21847,7.57479,11.136,9,0.0352747,0.0117157,76,95.173,0.0578676
0.941621,0.174519,0.155973,4.21835,7.6619,11.1547,10,0.0717695,0.0238367,89,117.101,0.0552576
-0.112074,0.949121,0.172156,4.08881,7.69305,11.3153,11,0.0642427,0.0213369,103,92.4545,0.0338337
0.0891237,-0.909011,0.320969,4.11757,7.50513,11.1866,12,0.0259844,0.00863018,118,112.038,0.0400593
0.443532,0.856672,0.190255,4.16839,7.72369,11.2593,13,0.0341322,0.0113363,134,128.85,0.0216835
-0.550388,0.738802,0.369204,4.07746,7.72262,11.2773,14,0.0139649,0.00463816,151,163.038,0.0428537
-0.249736,0.482372,0.790982,4.09389,7.72198,11.2511,15,0.0383992,0.0127535,18,39.2606,0.0882839
,,,,,,,,,25,81.3299,0.057728
,,,,,,,,,33,87.5394,0.0421929
,,,,,,,,,42,66.7172,0.0604682
,,,,,,,,,52,124.246,0.0378783
,,,,,,,,,63,86.777,0.0474267
,,,,,,,,,75,115.934,0.0462713
,,,,,,,,,88,121.873,0.0694255
,,,,,,,,,102,87.1979,0.0657023
,,,,,,,,,117,119.051,0.037482
,,,,,,,,,133,102.96,0.0452773
,,,,,,,,,150,88.5466,0.0231261
,,,,,,,,,168,122.798,0.0488799
,,,,,,,,,32,118.453,0.0725935
,,,,,,,,,41,101.953,0.0496194
,,,,,,,,,51,27.6948,0.0769802
,,,,,,,,,62,127.573,0.0437578
,,,,,,,,,74,54.3864,0.0570194
,,,,,,,,,87,147.606,0.0553575
,,,,,,,,,101,158.522,0.0921094
,,,,,,,,,116,84.1072,0.0856685
,,,,,,,,,132,107.116,0.0432298
,,,,,,,,,149,115.058,0.0539408
,,,,,,,,,167,66.4847,0.0251928
,,,,,,,,,186,94.3882,0.059133
,,,,,,,,,50,85.8695,0.0382425
,,,,,,,,,61,140.81,0.0526708
,,,,,,,,,73,94.131,0.0346637
,,,,,,,,,86,162.441,0.0424928
,,,,,,,,,100,56.3882,0.0415629
,,,,,,,,,115,40.7854,0.0593396
,,,,,,,,,131,77.0784,0.0565982
,,,,,,,,,148,117.768,0.0343316
,,,,,,,,,166,51.9533,0.0407592
,,,,,,,,,185,107.854,0.0218869
,,,,,,,,,205,112.801,0.0436556
,,,,,,,,,72,113.562,0.0394261
,,,,,,,,,85,36.8084,0.0283876
,,,,,,,,,99,80.7333,0.033432
,,,,,,,,,114,48.2572,0.0328537
,,,,,,,,,130,84.1429,0.0430474
,,,,,,,,,147,162.728,0.0415861
,,,,,,,,,165,43.189,0.0281644
,,,,,,,,,184,133.075,0.0323495
,,,,,,,,,204,164.983,0.0192058
,,,,,,,,,225,145.376,0.0341476
,,,,,,,,,98,122.171,0.0356333
,,,,,,,,,113,40.2956,0.0439591
,,,,,,,,,129,159.283,0.0429647
,,,,,,,,,146,161.486,0.0622387
,,,,,,,,,164,79.2055,0.0592297
,,,,,,,,,183,97.9521,0.0352824
,,,,,,,,,203,112.558,0.0421064
,,,,,,,,,224,51.7879,0.0222695
,,,,,,,,,246,70.7348,0.0452048
,,,,,,,,,128,81.9071,0.0306644
,,,,,,,,,145,38.0619,0.0301772
,,,,,,,,,163,68.5943,0.0385655
,,,,,,,,,182,146.117,0.0373885
,,,,,,,,,202,24.2505,0.0261743
,,,,,,,,,223,117.369,0.0297512
,,,,,,,,,245,143.396,0.0182591
,,,,,,,,,268,110.192,0.0312653
,,,,,,,,,162,119.336,0.0359422
,,,,,,,,,181,146.916,0.048509
,,,,,,,,,201,115.356,0.0466615
,,,,,,,,,222,57.7565,0.0304041
,,,,,,,,,244,144.436,0.0353396
,,,,,,,,,267,84.5765,0.0202216
,,,,,,,,,291,84.5107,0.0374966
,,,,,,,,,200,36.3204,0.047301
,,,,,,,,,221,120.858,0.0455426
,,,,,,,,,243,62.2425,0.0299251
,,,,,,,,,266,87.3473,0.034694
,,,,,,,,,290,145.089,0.0200086
,,,,,,,,,315,117.46,0.0367707
,,,,,,,,,242,84.7046,0.0677978
,,,,,,,,,265,91.5041,0.0381548
,,,,,,,,,289,51.2757,0.0462627
,,,,,,,,,314,110.15,0.0233805
,,,,,,,,,340,91.6989,0.0500304
,,,,,,,,,288,150.405,0.0370024
,,,,,,,,,313,33.5108,0.0445793
,,,,,,,,,339,30.9649,0.0229426
,,,,,,,,,366,48.1244,0.0480674
,,,,,,,,,338,135.429,0.0295062
,,,,,,,,,365,128.803,0.0181665
,,,,,,,,,393,102.867,0.0309949
,,,,,,,,,392,61.9411,0.0198205
,,,,,,,,,421,61.3083,0.0361402
,,,,,,,,,450,34.3922,0.0204813
