facetNormals:0,facetNormals:1,facetNormals:2,FacetCenters:0,FacetCenters:1,FacetCenters:2,FacetIds,relFacetSize,absFacetSize,cellPairingIds,interplanarAngles,angleWeights
0.736198,0.103569,-0.655638,7.17554,6.78527,12.664,1,0.00394911,0.000340609,8,45.8562,0.00493886
0.228032,0.686913,-0.684121,7.07762,6.95211,12.6788,2,0.00659063,0.000568439,13,126.121,0.00745476
-0.693904,-0.692308,-0.0148347,7.07462,6.74382,12.7128,3,0.0663864,0.00572579,19,68.2132,0.00588147
0.252124,0.943959,-0.120178,7.08183,6.94331,12.6974,4,0.0115168,0.000993319,26,125.113,0.00749925
-0.676286,0.582184,0.115008,7.01589,6.92711,12.7016,5,0.0742302,0.00640232,34,101.46,0.00473225
-0.174234,-0.95942,-0.0538324,7.11017,6.71011,12.6683,6,0.00590282,0.000509115,43,156.943,0.00769492
-0.860703,-0.273312,0.32594,7.02732,6.82765,12.7392,7,0.149475,0.0128922,53,90.3588,0.00523123
0.0893397,0.949613,0.259683,7.07599,6.95979,12.7031,8,0.00774607,0.000668095,64,63.8624,0.00768874
0.904262,-0.0263081,0.362199,7.16226,6.80175,12.7048,9,0.14495,0.0125019,76,152.627,0.00525998
-0.740926,0.356788,0.560749,7.00907,6.90185,12.7476,10,0.00787352,0.000679087,89,102.697,0.00767228
0.392124,-0.569215,0.670377,7.11548,6.74893,12.7366,11,0.134102,0.0115662,103,114.186,0.00746504
-0.0329019,0.703553,0.681089,7.06086,6.93187,12.7405,12,0.0680546,0.00586967,118,148.301,0.00477181
-0.294387,-0.298462,0.90337,7.05523,6.7973,12.7885,13,0.00602749,0.000519868,134,93.8884,0.00773183
0.522333,0.322057,0.735603,7.11251,6.87153,12.7514,14,0.183511,0.0158277,18,129.7,0.0119909
,,,,,,,,,25,36.4977,0.00838363
,,,,,,,,,33,79.258,0.0121064
,,,,,,,,,42,132.889,0.00622779
,,,,,,,,,52,129.407,0.0126246
,,,,,,,,,63,59.8136,0.00712179
,,,,,,,,,75,93.5244,0.012608
,,,,,,,,,88,108.071,0.00717518
,,,,,,,,,102,142.441,0.0125638
,,,,,,,,,117,89.4228,0.0120175
,,,,,,,,,133,153.829,0.00629649
,,,,,,,,,150,99.8317,0.0127243
,,,,,,,,,32,148.94,0.0196284
,,,,,,,,,41,85.805,0.0700895
,,,,,,,,,51,34.8241,0.0108416
,,,,,,,,,62,33.852,0.0919396
,,,,,,,,,74,138.276,0.0138734
,,,,,,,,,87,130.046,0.0910654
,,,,,,,,,101,74.6189,0.0140774
,,,,,,,,,116,83.1839,0.0888085
,,,,,,,,,132,119.595,0.0672101
,,,,,,,,,149,65.9738,0.0110516
,,,,,,,,,167,129.42,0.097501
,,,,,,,,,50,65.6471,0.0199399
,,,,,,,,,61,168.814,0.00780517
,,,,,,,,,73,122.958,0.0213859
,,,,,,,,,86,24.1837,0.00926237
,,,,,,,,,100,80.4213,0.0213382
,,,,,,,,,115,85.1643,0.00935289
,,,,,,,,,131,123.199,0.0212119
,,,,,,,,,148,53.4799,0.0196998
,,,,,,,,,166,118.283,0.00791339
,,,,,,,,,185,68.3901,0.0216734
,,,,,,,,,72,120.572,0.010936
,,,,,,,,,85,57.7889,0.099198
,,,,,,,,,99,54.0389,0.0140283
,,,,,,,,,114,131.871,0.0981811
,,,,,,,,,130,30.2908,0.0142369
,,,,,,,,,147,126.842,0.0955628
,,,,,,,,,165,54.6382,0.0710083
,,,,,,,,,184,81.7081,0.0111496
,,,,,,,,,204,95.4025,0.105703
,,,,,,,,,98,65.1086,0.0113571
,,,,,,,,,113,166.993,0.00669998
,,,,,,,,,129,99.1792,0.0113437
,,,,,,,,,146,104.501,0.00674721
,,,,,,,,,164,61.9839,0.0113079
,,,,,,,,,183,137.542,0.0108634
,,,,,,,,,203,72.7132,0.0059645
,,,,,,,,,224,118.027,0.0114377
,,,,,,,,,128,105.385,0.0147289
,,,,,,,,,145,134.27,0.147178
,,,,,,,,,163,40.8381,0.0149591
,,,,,,,,,182,87.7327,0.141372
,,,,,,,,,202,86.4635,0.0935271
,,,,,,,,,223,48.8321,0.0115877
,,,,,,,,,245,108.895,0.164754
,,,,,,,,,162,81.0499,0.0147062
,,,,,,,,,181,64.8451,0.00780927
,,,,,,,,,201,110.376,0.0146461
,,,,,,,,,222,29.612,0.013909
,,,,,,,,,244,94.377,0.00677956
,,,,,,,,,267,54.9729,0.0148647
,,,,,,,,,200,119.409,0.0149357
,,,,,,,,,221,49.2596,0.139315
,,,,,,,,,243,78.0046,0.0926226
,,,,,,,,,266,85.9318,0.0115737
,,,,,,,,,290,38.5258,0.161967
,,,,,,,,,242,97.0548,0.0148738
,,,,,,,,,265,47.6214,0.0141141
,,,,,,,,,289,51.4173,0.00682793
,,,,,,,,,314,81.5334,0.0150992
,,,,,,,,,288,87.3747,0.0902889
,,,,,,,,,313,46.5039,0.0115364
,,,,,,,,,339,56.0877,0.154963
,,,,,,,,,338,64.8311,0.0110742
,,,,,,,,,365,40.8078,0.0992883
,,,,,,,,,392,64.2392,0.0116716
