"cellPairingIds","interplanarAngles","angleWeights"
8,51.5304,0.121713
13,41.1948,0.113541
43,117.258,0.0943867
53,132.511,0.0653797
89,132.261,0.0667125
18,42.2316,0.0758613
63,95.7387,0.0508392
117,131.335,0.0573999
116,123.706,0.0501112
132,132.071,0.0555156
128,38.637,0.0453545
182,82.642,0.0459919
202,71.5432,0.0505043
222,57.3708,0.0408149
288,40.8475,0.0413303
