facetNormals:0,facetNormals:1,facetNormals:2,FacetCenters:0,FacetCenters:1,FacetCenters:2,FacetIds,relFacetSize,absFacetSize,cellPairingIds,interplanarAngles,angleWeights
0.653236,0.631715,-0.356739,5.95692,7.05183,9.60909,1,0.111972,0.0144325,8,84.3849,0.13581
-0.602025,0.765446,-0.00769219,5.83898,7.04086,9.62961,2,0.172544,0.0222398,13,51.5456,0.0896278
0.965483,0.0370559,0.165331,5.99411,6.98222,9.65307,3,0.0747178,0.00963067,19,144.651,0.108727
-0.853008,-0.0838158,0.429732,5.77552,6.90411,9.68035,4,0.105665,0.0136196,26,123.483,0.0369294
0.240728,-0.768263,0.567022,5.90234,6.8831,9.69575,5,0.0221109,0.00284996,34,105.295,0.0307474
0.48667,-0.516576,0.69192,5.90171,6.89046,9.70124,6,0.0178205,0.00229695,43,109.592,0.151093
-0.0852917,0.124814,0.92402,5.87982,6.97468,9.7097,7,0.232232,0.0299333,18,125.486,0.104279
,,,,,,,,,25,61.4633,0.131066
,,,,,,,,,33,140.254,0.0391985
,,,,,,,,,42,135.945,0.0323045
,,,,,,,,,52,81.1821,0.197987
,,,,,,,,,32,143.511,0.0875367
,,,,,,,,,41,72.0367,0.0341237
,,,,,,,,,51,54.4337,0.0287774
,,,,,,,,,62,85.3098,0.11306
,,,,,,,,,50,83.7544,0.0365694
,,,,,,,,,61,94.4959,0.0304975
,,,,,,,,,73,59.2228,0.145244
,,,,,,,,,72,21.7833,0.0197352
,,,,,,,,,85,63.7691,0.0403774
,,,,,,,,,98,54.9205,0.0331009
