Q	U	V
{$V$}	{[mm$^3$]}	0.00187379
{$d_v$}	{[mm]}	0.152959
{$S_c$}	{[mm$^2$]}	0.112205
{$S_o$}	{[mm$^2$]}	0.0635466
{$S_l/S_o$}	[]	0.765712
{$\Psi$}	[]	0.655067
{$\eta$}	[]	0.704663
{med($\theta_e$)}	{[$^\circ$]}	58.1419
{$\Upsilon$}	[]	15
{$\Xi$}	[]	4
