"cellPairingIds","interplanarAngles","angleWeights"
8,130.24,0.147223
13,100.049,0.0848829
26,64.3262,0.0827533
18,113.346,0.114274
25,55.768,0.0563246
33,159.689,0.110448
32,66.7576,0.0439701
41,72.0424,0.071212
50,114.23,0.0433917
