facetNormals:0,facetNormals:1,facetNormals:2,FacetCenters:0,FacetCenters:1,FacetCenters:2,FacetIds,relFacetSize,absFacetSize,cellPairingIds,interplanarAngles,angleWeights
0.52899,0.271777,-0.78958,4.17508,6.53657,10.128,1,0.00499588,0.000420689,8,88.4661,0.00924651
-0.754934,-0.200246,-0.607873,4.11068,6.53185,10.1064,2,0.0619845,0.00521953,13,82.9515,0.0094556
-0.708018,0.503162,-0.451546,4.11976,6.64571,10.1364,3,0.0881057,0.00741912,19,38.4678,0.00870695
0.913407,0.118078,-0.295521,4.16912,6.52424,10.1781,4,0.0338561,0.00285093,26,110.667,0.00912203
-0.733228,-0.586976,-0.262376,4.11048,6.48551,10.1559,5,0.0523981,0.00441229,34,61.0189,0.00807353
0.732422,-0.581609,-0.306501,4.1543,6.47833,10.1817,6,0.0210268,0.00177061,43,111.695,0.00909816
-0.963166,0.133908,-0.14424,4.086,6.58437,10.1538,7,0.0508648,0.00428318,53,115.865,0.00760592
-0.304259,-0.925354,0.00968492,4.13628,6.47172,10.1438,8,0.0159265,0.00134113,64,78.6418,0.00908548
0.814432,-0.534072,0.119869,4.17209,6.52515,10.1878,9,0.0500838,0.00421741,76,68.4897,0.00921411
0.470434,0.798121,0.158437,4.17941,6.68007,10.1874,10,0.0591939,0.00498454,89,99.0486,0.00722737
-0.427479,0.867534,0.206947,4.15891,6.68307,10.1434,11,0.0130615,0.00109987,103,151.898,0.00973615
-0.739527,0.102996,0.592948,4.11374,6.58128,10.2114,12,0.190288,0.0160236,118,105.049,0.00963773
0.642498,-0.140891,0.692402,4.18303,6.58352,10.212,13,0.135999,0.0114521,18,43.0317,0.072772
,,,,,,,,,25,123.874,0.0437926
,,,,,,,,,33,30.6218,0.0567896
,,,,,,,,,42,104.881,0.0314014
,,,,,,,,,52,35.9145,0.0558768
,,,,,,,,,63,64.8916,0.0253417
,,,,,,,,,75,126.726,0.0554023
,,,,,,,,,88,131.081,0.060557
,,,,,,,,,102,88.6419,0.0215764
,,,,,,,,,117,79.1747,0.0935092
,,,,,,,,,133,158.219,0.0851568
,,,,,,,,,32,118.64,0.0489156
,,,,,,,,,41,68.9907,0.0657145
,,,,,,,,,51,134.291,0.033951
,,,,,,,,,62,32.1904,0.0644954
,,,,,,,,,74,105.482,0.0269766
,,,,,,,,,87,159.448,0.063864
,,,,,,,,,101,90.1889,0.0708124
,,,,,,,,,116,48.1699,0.0227503
,,,,,,,,,132,70.7535,0.120444
,,,,,,,,,149,153.74,0.106935
,,,,,,,,,50,134.531,0.0411342
,,,,,,,,,61,43.4684,0.025942
,,,,,,,,,73,149.74,0.0406531
,,,,,,,,,86,114.453,0.0216626
,,,,,,,,,100,47.1562,0.0404014
,,,,,,,,,115,58.3445,0.0430752
,,,,,,,,,131,111.408,0.0188506
,,,,,,,,,148,155.402,0.0574846
,,,,,,,,,166,66.6852,0.0542156
,,,,,,,,,72,96.895,0.0300107
,,,,,,,,,85,46.041,0.0516201
,,,,,,,,,99,36.4933,0.0244281
,,,,,,,,,114,109.227,0.0512148
,,,,,,,,,130,158.875,0.0555891
,,,,,,,,,147,105.028,0.0209106
,,,,,,,,,165,69.4617,0.0821698
,,,,,,,,,184,127.741,0.0756497
,,,,,,,,,98,139.81,0.0297538
,,,,,,,,,113,70.9847,0.0181247
,,,,,,,,,129,25.679,0.0296187
,,,,,,,,,146,100.476,0.0310309
,,,,,,,,,164,154.845,0.0161135
,,,,,,,,,183,146.585,0.0378691
,,,,,,,,,203,68.774,0.0364223
,,,,,,,,,128,79.912,0.0242576
,,,,,,,,,145,154.854,0.0504713
,,,,,,,,,163,113.544,0.0547142
,,,,,,,,,182,59.1862,0.0207855
,,,,,,,,,202,46.8912,0.0802725
,,,,,,,,,223,141.777,0.0740385
,,,,,,,,,162,74.9898,0.0241678
,,,,,,,,,181,164.005,0.0250998
,,,,,,,,,201,134.119,0.0143524
,,,,,,,,,222,81.615,0.029393
,,,,,,,,,244,93.5994,0.0285139
,,,,,,,,,200,91.4989,0.0542591
,,,,,,,,,221,144.152,0.0207195
,,,,,,,,,243,128.797,0.0792967
,,,,,,,,,266,43.3457,0.0732077
,,,,,,,,,242,55.6822,0.0214008
,,,,,,,,,265,101.049,0.0902982
,,,,,,,,,289,70.5086,0.0824856
,,,,,,,,,288,55.9361,0.0244451
,,,,,,,,,313,105.574,0.023834
,,,,,,,,,338,94.9833,0.158627
