facetNormals:0,facetNormals:1,facetNormals:2,FacetCenters:0,FacetCenters:1,FacetCenters:2,FacetIds,relFacetSize,absFacetSize,cellPairingIds,interplanarAngles,angleWeights
0.179751,0.203189,-0.912331,4.8174,5.55456,12.5973,1,0.0568165,0.0081175,8,53.4139,0.0817383
-0.592021,-0.147171,-0.75112,4.74568,5.51351,12.6054,2,0.145607,0.0208032,13,26.1497,0.0185271
0.588661,0.264635,-0.755925,4.81848,5.60826,12.5877,3,0.0110682,0.00158133,19,42.1675,0.0281076
-0.201926,0.722461,-0.642746,4.81548,5.61565,12.6156,4,0.0186725,0.00266778,26,68.6364,0.0335393
-0.399343,-0.669406,-0.602089,4.76474,5.44153,12.6299,5,0.023792,0.00339922,34,44.0873,0.0302549
0.276783,0.798004,-0.5053,4.8213,5.62646,12.6441,6,0.0206167,0.00294556,43,98.0756,0.0618187
0.0937856,-0.926568,-0.051186,4.80108,5.44393,12.679,7,0.0677868,0.00968486,53,63.7425,0.0354003
0.79194,0.492494,-0.171978,4.75918,5.46923,12.7257,8,0.0257095,0.00367317,64,68.3764,0.0530042
-0.0757628,0.964664,-0.178361,4.82026,5.66356,12.6796,9,0.0496714,0.00709667,76,76.1952,0.0745725
-0.674994,0.651211,-0.228256,4.74957,5.6084,12.6616,10,0.108471,0.0154976,89,136.123,0.0454875
-0.553172,-0.651139,0.484701,4.73323,5.46076,12.6972,11,0.0379253,0.00541848,103,126.973,0.0642903
-0.631345,0.454712,0.589317,4.7506,5.59691,12.7127,12,0.0740283,0.0105766,118,153.316,0.0365392
0.0391049,-0.578898,0.799958,4.7921,5.47594,12.7208,13,0.0269286,0.00384735,134,164.65,0.0769646
-0.317871,0.0123484,0.909231,4.77948,5.55695,12.7317,14,0.119254,0.0170381,18,79.1928,0.0205725
,,,,,,,,,25,58.7422,0.0331003
,,,,,,,,,33,34.3153,0.0409009
,,,,,,,,,42,84.0796,0.0361192
,,,,,,,,,52,82.4049,0.0925072
,,,,,,,,,63,116.689,0.0437025
,,,,,,,,,75,87.7817,0.0740738
,,,,,,,,,88,59.4182,0.124325
,,,,,,,,,102,86.4262,0.0601768
,,,,,,,,,117,98.2669,0.098154
,,,,,,,,,133,124.296,0.0454514
,,,,,,,,,150,122.191,0.13112
,,,,,,,,,32,55.3554,0.0138982
,,,,,,,,,41,87.488,0.015108
,,,,,,,,,51,39.3904,0.0144037
,,,,,,,,,62,99.3928,0.0190293
,,,,,,,,,74,39.5774,0.0154744
,,,,,,,,,87,69.3117,0.0181026
,,,,,,,,,101,93.1345,0.0200867
,,,,,,,,,116,152.283,0.0171355
,,,,,,,,,132,135.909,0.0192571
,,,,,,,,,149,138.431,0.0156882
,,,,,,,,,167,155.486,0.0202563
,,,,,,,,,50,90.9418,0.0209237
,,,,,,,,,61,29.5982,0.0195965
,,,,,,,,,73,135.347,0.0292797
,,,,,,,,,86,70.9066,0.0216331
,,,,,,,,,100,31.7112,0.0271418
,,,,,,,,,115,37.7981,0.0318605
,,,,,,,,,131,133.688,0.0250243
,,,,,,,,,148,85.4066,0.0298227
,,,,,,,,,166,164.409,0.0220532
,,,,,,,,,185,122.501,0.0322892
,,,,,,,,,72,110.562,0.0220908
,,,,,,,,,85,48.0908,0.0352218
,,,,,,,,,99,125.5,0.0247136
,,,,,,,,,114,121.621,0.0321734
,,,,,,,,,130,91.7443,0.0390244
,,,,,,,,,147,67.8391,0.0292404
,,,,,,,,,165,115.053,0.0360106
,,,,,,,,,184,96.4739,0.0252633
,,,,,,,,,204,116.867,0.0396697
,,,,,,,,,98,138.503,0.0316173
,,,,,,,,,113,41.4953,0.0228832
,,,,,,,,,129,29.9681,0.0291389
,,,,,,,,,146,61.8538,0.034648
,,,,,,,,,164,161.645,0.0267123
,,,,,,,,,183,96.5549,0.0322515
,,,,,,,,,203,151.57,0.0233537
,,,,,,,,,224,124.54,0.0351557
,,,,,,,,,128,114.961,0.0372798
,,,,,,,,,145,166.35,0.0573322
,,,,,,,,,163,136.679,0.0834336
,,,,,,,,,182,54.9141,0.0486384
,,,,,,,,,202,124.124,0.0707702
,,,,,,,,,223,57.2145,0.038545
,,,,,,,,,245,95.6077,0.0864395
,,,,,,,,,162,61.4623,0.033882
,,,,,,,,,181,100.995,0.0415669
,,,,,,,,,201,154.691,0.0306449
,,,,,,,,,222,114.063,0.0381647
,,,,,,,,,244,114.707,0.0263049
,,,,,,,,,267,116.11,0.0422997
,,,,,,,,,200,40.7014,0.0681401
,,,,,,,,,221,134.105,0.0430108
,,,,,,,,,243,66.6025,0.0594519
,,,,,,,,,266,136.395,0.0349238
,,,,,,,,,290,97.6503,0.0701318
,,,,,,,,,242,99.7928,0.0562009
,,,,,,,,,265,51.4036,0.0879997
,,,,,,,,,289,127.899,0.043146
,,,,,,,,,314,89.0717,0.113608
,,,,,,,,,288,69.3061,0.0501555
,,,,,,,,,313,40.0526,0.0314947
,,,,,,,,,339,49.9779,0.0575489
,,,,,,,,,338,79.0324,0.0394917
,,,,,,,,,365,37.8767,0.0913501
,,,,,,,,,392,41.9688,0.0439361
