"cellPairingIds","interplanarAngles","angleWeights"
8,50.8893,0.030898
13,58.0596,0.0401393
19,54.0607,0.0360556
26,100.135,0.163761
25,52.2561,0.0184682
33,63.9695,0.0307515
42,55.793,0.0312256
32,82.3575,0.0214152
41,140.038,0.0398925
62,163.845,0.0318078
74,111.663,0.0236742
61,54.0554,0.0365025
86,88.5746,0.0221918
72,76.0257,0.173404
85,34.2191,0.0791637
98,61.011,0.0823835
113,61.9094,0.0435928
128,71.3958,0.0335517
