facetNormals:0,facetNormals:1,facetNormals:2,FacetCenters:0,FacetCenters:1,FacetCenters:2,FacetIds,relFacetSize,absFacetSize,cellPairingIds,interplanarAngles,angleWeights
-0.12648,0.600057,-0.75024,3.40886,6.0368,10.4929,1,0.142869,0.0125188,8,65.5379,0.100504
0.790111,0.138368,-0.539557,3.35029,5.9899,10.5862,2,0.0775177,0.00679241,13,46.9233,0.095998
-0.57713,0.735917,-0.149556,3.37434,6.04816,10.5269,3,0.0722837,0.00633378,19,122.746,0.0479976
-0.0405515,-0.884357,-0.0795119,3.41415,5.98815,10.5808,4,0.0288439,0.00252742,26,53.9328,0.0721926
0.381329,0.901716,-0.0907059,3.50118,6.04851,10.5255,5,0.0482992,0.00423216,34,56.1886,0.022899
-0.354078,0.928705,0.085521,3.38913,6.07144,10.5451,6,0.012447,0.00109066,43,138.851,0.02049
0.591432,-0.718709,0.267247,3.41765,5.98096,10.5873,7,0.0110364,0.000967053,53,109.612,0.116889
-0.843378,-0.15174,0.438022,3.35246,5.99083,10.5729,8,0.098903,0.00866627,64,88.5235,0.181755
0.188699,0.745294,0.533152,3.45273,6.04063,10.5906,9,0.249723,0.0218817,18,107.379,0.0748093
,,,,,,,,,25,97.4562,0.0420436
,,,,,,,,,33,60.0173,0.0595157
,,,,,,,,,42,101.811,0.0214498
,,,,,,,,,52,76.1778,0.0193219
,,,,,,,,,63,173.144,0.0869142
,,,,,,,,,75,92.2461,0.11831
,,,,,,,,,32,136.984,0.0412339
,,,,,,,,,41,60.6045,0.0579061
,,,,,,,,,51,22.1642,0.0212371
,,,,,,,,,62,172.942,0.0191491
,,,,,,,,,74,70.1459,0.0835237
,,,,,,,,,87,66.0408,0.112115
,,,,,,,,,50,157.206,0.0361183
,,,,,,,,,61,156.595,0.0173898
,,,,,,,,,73,46.6955,0.0159644
,,,,,,,,,86,81.017,0.0446625
,,,,,,,,,100,148.513,0.0517146
,,,,,,,,,72,44.9104,0.0197932
,,,,,,,,,85,117.985,0.0179673
,,,,,,,,,99,121.767,0.064903
,,,,,,,,,114,40.868,0.0809431
,,,,,,,,,98,152.135,0.0116993
,,,,,,,,,113,78.2712,0.0221113
,,,,,,,,,129,44.0389,0.0237121
,,,,,,,,,128,107.013,0.019857
,,,,,,,,,145,108.106,0.0211386
,,,,,,,,,162,92.4636,0.14169
