Q	U	V
{$V$}	{[mm$^3$]}	0.00791671
{$d_v$}	{[mm]}	0.247276
{$S_c$}	{[mm$^2$]}	0.389255
{$S_o$}	{[mm$^2$]}	0.223183
{$S_l/S_o$}	[]	0.744107
{$\Psi$}	[]	0.493492
{$\eta$}	[]	0.523593
{med($\theta_e$)}	{[$^\circ$]}	127.807
{$\Upsilon$}	[]	14
{$\Xi$}	[]	11
