facetNormals:0,facetNormals:1,facetNormals:2,FacetCenters:0,FacetCenters:1,FacetCenters:2,FacetIds,relFacetSize,absFacetSize,cellPairingIds,interplanarAngles,angleWeights
-0.0442503,0.0614006,-0.975842,2.90054,7.65408,10.7349,1,0.0111022,0.00295502,8,54.8271,0.0205015
0.734669,-0.168636,-0.600883,3.00034,7.59609,10.8011,2,0.133664,0.0355766,13,50.0403,0.0159507
0.488126,0.59056,-0.619804,2.94663,7.7113,10.755,3,0.0283173,0.00753707,19,74.091,0.0158899
0.0702465,-0.910068,-0.327019,2.99731,7.53892,10.8739,4,0.0279377,0.00743603,26,73.5146,0.0159508
0.637865,0.704389,-0.265428,2.96981,7.70883,10.8092,5,0.0283182,0.00753729,34,82.9595,0.0141816
0.616831,-0.748006,-0.196656,2.96153,7.59133,10.9238,6,0.019625,0.00522349,43,78.3365,0.0158381
-0.804814,-0.520218,-0.194516,3.04782,7.63973,10.9073,7,0.0276199,0.00735143,53,89.5435,0.0206625
0.922447,0.322904,-0.0293246,3.01664,7.6736,10.9204,8,0.148777,0.0395993,64,91.8837,0.01638
-0.98267,-0.00927429,0.0764733,2.98462,7.69509,10.9313,9,0.0312226,0.00831035,76,82.5849,0.0183728
-0.783573,0.568483,-0.0542059,2.90459,7.70998,10.8589,10,0.0532358,0.0141695,89,102.634,0.0136216
-0.852289,-0.446567,0.227445,2.95248,7.63805,10.9671,11,0.01762,0.00468983,103,92.6376,0.0191344
-0.431574,0.867862,0.119251,2.89082,7.71532,10.8394,12,0.0691971,0.0184178,118,123.825,0.0162626
-0.4188,0.646418,0.607309,2.9209,7.67359,10.8617,13,0.0303862,0.00808773,134,135.909,0.0176117
-0.632302,-0.0927378,0.71213,2.94685,7.61335,10.9786,14,0.0425739,0.0113317,151,147.915,0.0183241
0.295034,-0.486405,0.768687,2.99833,7.55145,10.9773,15,0.0524283,0.0139546,169,165.323,0.0175703
0.0749162,0.183447,0.944906,2.96457,7.62278,10.9546,16,0.0420943,0.011204,18,48.3407,0.0467339
,,,,,,,,,25,64.5543,0.0462156
,,,,,,,,,33,57.6215,0.046735
,,,,,,,,,42,42.9971,0.034225
,,,,,,,,,52,114.218,0.0457799
,,,,,,,,,63,47.1619,0.140816
,,,,,,,,,75,143.757,0.0506206
,,,,,,,,,88,133.128,0.0761446
,,,,,,,,,102,136.166,0.0311357
,,,,,,,,,117,124.639,0.0911871
,,,,,,,,,133,145.756,0.0495158
,,,,,,,,,150,161.916,0.0645785
,,,,,,,,,168,100.192,0.0753151
,,,,,,,,,187,125.745,0.0640253
,,,,,,,,,32,108.328,0.0281262
,,,,,,,,,41,23.4755,0.0283177
,,,,,,,,,51,91.1027,0.0231832
,,,,,,,,,62,126.968,0.0279642
,,,,,,,,,74,46.8388,0.0475788
,,,,,,,,,87,123.246,0.0296991
,,,,,,,,,101,90.7893,0.0369697
,,,,,,,,,116,147.385,0.0217232
,,,,,,,,,132,76.2987,0.0401885
,,,,,,,,,149,101.886,0.0293153
,,,,,,,,,167,148.593,0.0340121
,,,,,,,,,186,131.112,0.036773
,,,,,,,,,206,117.597,0.033858
,,,,,,,,,50,122.176,0.0281266
,,,,,,,,,61,34.7226,0.023055
,,,,,,,,,73,59.5486,0.0277779
,,,,,,,,,86,103.386,0.0470418
,,,,,,,,,100,95.1385,0.0294889
,,,,,,,,,115,126.158,0.0366446
,,,,,,,,,131,73.507,0.0216105
,,,,,,,,,148,155.141,0.0398046
,,,,,,,,,166,149.131,0.0291106
,,,,,,,,,185,102.001,0.0337368
,,,,,,,,,205,76.7823,0.0364514
,,,,,,,,,226,120.187,0.0335852
,,,,,,,,,72,94.774,0.0231835
,,,,,,,,,85,149.136,0.0279646
,,,,,,,,,99,31.3782,0.04758
,,,,,,,,,114,132.23,0.0296995
,,,,,,,,,130,95.0972,0.0369704
,,,,,,,,,147,160.327,0.0217234
,,,,,,,,,165,71.585,0.0401893
,,,,,,,,,184,88.4016,0.0293158
,,,,,,,,,204,134.157,0.0340127
,,,,,,,,,225,112.328,0.0367737
,,,,,,,,,247,94.4434,0.0338586
,,,,,,,,,98,94.0936,0.022946
,,,,,,,,,113,69.8489,0.034676
,,,,,,,,,129,129.044,0.0241012
,,,,,,,,,146,159.407,0.0286781
,,,,,,,,,164,103.987,0.0185686
,,,,,,,,,183,166.357,0.0305779
,,,,,,,,,203,152.575,0.0238479
,,,,,,,,,224,119.124,0.0268659
,,,,,,,,,246,65.3446,0.0285596
,,,,,,,,,269,106.849,0.0267697
,,,,,,,,,128,161.121,0.0465904
,,,,,,,,,145,35.8943,0.0293109
,,,,,,,,,163,68.6327,0.0363701
,,,,,,,,,182,25.31,0.0215148
,,,,,,,,,202,97.6631,0.039481
,,,,,,,,,223,97.028,0.0289371
,,,,,,,,,245,63.4228,0.033504
,,,,,,,,,268,98.2346,0.0361798
,,,,,,,,,292,111.078,0.0333545
,,,,,,,,,162,161.079,0.0516135
,,,,,,,,,181,124.55,0.0784135
,,,,,,,,,201,165.767,0.0315085
,,,,,,,,,222,97.3022,0.0944603
,,,,,,,,,244,101.756,0.0504654
,,,,,,,,,267,132.669,0.0662032
,,,,,,,,,291,84.3197,0.0775341
,,,,,,,,,316,83.8805,0.0656219
,,,,,,,,,200,37.2667,0.0393604
,,,,,,,,,221,28.1785,0.0225272
,,,,,,,,,243,63.7879,0.0430296
,,,,,,,,,266,62.1275,0.0307987
,,,,,,,,,290,44.1549,0.0360252
,,,,,,,,,315,103.912,0.0391376
,,,,,,,,,341,90.1842,0.0358524
,,,,,,,,,242,65.2308,0.0264768
,,,,,,,,,265,29.3807,0.060176
,,,,,,,,,289,45.8253,0.0386892
,,,,,,,,,314,64.1757,0.0473116
,,,,,,,,,340,126.333,0.052829
,,,,,,,,,367,90.3449,0.047014
,,,,,,,,,288,89.5615,0.0280879
,,,,,,,,,313,77.7117,0.0223057
,,,,,,,,,339,38.3134,0.0249246
,,,,,,,,,366,81.4487,0.0263758
,,,,,,,,,394,85.8462,0.0248417
,,,,,,,,,338,31.7898,0.0422287
,,,,,,,,,365,72.735,0.0527147
,,,,,,,,,393,119.354,0.0596567
,,,,,,,,,422,75.2807,0.0523455
,,,,,,,,,392,47.2268,0.0354621
,,,,,,,,,421,88.2375,0.0384739
,,,,,,,,,451,45.7273,0.0352946
,,,,,,,,,450,63.6621,0.04699
,,,,,,,,,481,48.7979,0.0423327
,,,,,,,,,512,44.4392,0.0466964
