Q	U	V
{$V$}	{[mm$^3$]}	0.00603817
{$d_v$}	{[mm]}	0.225927
{$S_c$}	{[mm$^2$]}	0.276944
{$S_o$}	{[mm$^2$]}	0.171786
{$S_l/S_o$}	[]	0.612145
{$\Psi$}	[]	0.579023
{$\eta$}	[]	0.632698
{med($\theta_e$)}	{[$^\circ$]}	59.66795
{$\Upsilon$}	[]	12
{$\Xi$}	[]	10
