facetNormals:0,facetNormals:1,facetNormals:2,FacetCenters:0,FacetCenters:1,FacetCenters:2,FacetIds,relFacetSize,absFacetSize,cellPairingIds,interplanarAngles,angleWeights
-0.528499,-0.318616,-0.719971,5.34581,5.56872,11.5273,1,0.0533649,0.00531863,8,75.7237,0.0725767
0.480706,0.284855,-0.794358,5.37551,5.5901,11.5557,2,0.113403,0.0113023,13,63.4635,0.0236146
-0.103468,0.605448,-0.772904,5.34611,5.62894,11.5437,3,0.015162,0.00151113,19,104.097,0.0333401
0.481145,0.770844,-0.378534,5.36281,5.60545,11.5976,4,0.0242431,0.00241619,26,81.6259,0.065771
0.685388,-0.484023,-0.47374,5.4128,5.55096,11.5637,5,0.0856925,0.00854057,34,111.449,0.0585259
0.851093,0.348998,-0.311455,5.41465,5.64144,11.5904,6,0.0647921,0.00645753,43,82.7285,0.0691582
-0.467756,0.813543,-0.175827,5.36087,5.65389,11.5962,7,0.098229,0.00979003,53,46.0048,0.0657558
-0.670036,-0.618133,-0.071117,5.38971,5.5993,11.5953,8,0.0856411,0.00853545,64,75.2832,0.0572155
-0.909925,-0.000318107,0.342743,5.36398,5.63837,11.6243,9,0.061665,0.00614586,76,79.4529,0.0667933
-0.622382,-0.57457,0.476796,5.35712,5.55783,11.5937,10,0.0892522,0.00889535,89,94.2031,0.0587447
-0.749015,0.422216,0.456965,5.35331,5.64206,11.6058,11,0.0653309,0.00651123,103,162.384,0.0117808
0.29643,0.488917,0.773816,5.40156,5.61653,11.6203,12,0.00662127,0.000659911,18,39.7952,0.0267478
,,,,,,,,,25,38.1743,0.0399465
,,,,,,,,,33,52.6369,0.0976193
,,,,,,,,,42,36.7288,0.0824671
,,,,,,,,,52,80.9059,0.105272
,,,,,,,,,63,119.825,0.0975859
,,,,,,,,,75,138.729,0.0798889
,,,,,,,,,88,153.062,0.0998885
,,,,,,,,,102,129.599,0.0829022
,,,,,,,,,117,110.872,0.012512
,,,,,,,,,32,43.1078,0.0186562
,,,,,,,,,41,89.8681,0.0257652
,,,,,,,,,51,67.6903,0.0245735
,,,,,,,,,62,44.1034,0.0262692
,,,,,,,,,74,106.075,0.0257629
,,,,,,,,,87,100.258,0.0243395
,,,,,,,,,101,132.799,0.0259207
,,,,,,,,,116,91.1958,0.024612
,,,,,,,,,132,110.506,0.00921732
,,,,,,,,,50,81.7568,0.037794
,,,,,,,,,61,33.5832,0.035284
,,,,,,,,,73,60.0919,0.0388884
,,,,,,,,,86,149.052,0.037789
,,,,,,,,,100,126.386,0.0348035
,,,,,,,,,115,164.683,0.0381293
,,,,,,,,,131,102.527,0.0353634
,,,,,,,,,148,76.158,0.0104016
,,,,,,,,,72,53.0931,0.0737909
,,,,,,,,,85,133.312,0.0915335
,,,,,,,,,99,98.2452,0.0856668
,,,,,,,,,114,147.012,0.0717199
,,,,,,,,,130,113.558,0.0874362
,,,,,,,,,147,174.692,0.0741391
,,,,,,,,,165,115.565,0.0122927
,,,,,,,,,98,93.674,0.0780815
,,,,,,,,,113,149.335,0.0737718
,,,,,,,,,129,158.951,0.0631899
,,,,,,,,,146,158.57,0.0750802
,,,,,,,,,164,131.976,0.0650604
,,,,,,,,,183,78.7737,0.0120147
,,,,,,,,,128,101.695,0.0915042
,,,,,,,,,145,66.8412,0.0757664
,,,,,,,,,163,106.279,0.0935257
,,,,,,,,,182,48.706,0.0784715
,,,,,,,,,202,82.3025,0.0124063
,,,,,,,,,162,48.8109,0.0717018
,,,,,,,,,181,33.8355,0.0874094
,,,,,,,,,201,76.4644,0.0741199
,,,,,,,,,222,129.186,0.0122922
,,,,,,,,,200,39.4393,0.0729372
,,,,,,,,,221,27.7299,0.0634451
,,,,,,,,,243,90.2857,0.0119585
,,,,,,,,,242,62.1972,0.0754407
,,,,,,,,,265,95.92,0.012328
,,,,,,,,,288,68.8511,0.0120239
