"cellPairingIds","interplanarAngles","angleWeights"
8,81.9784,0.0227962
13,106.319,0.0145371
19,110.005,0.025886
26,93.1054,0.0238926
34,96.7467,0.024769
43,80.5057,0.0196698
53,80.8345,0.00647347
64,95.4764,0.0210456
76,110.192,0.0205309
18,37.6911,0.0245772
33,52.0162,0.0727135
102,79.1621,0.0684653
32,40.8748,0.0282071
116,62.9705,0.0252982
115,52.7049,0.0650637
131,74.6629,0.106725
148,70.0011,0.0745544
114,26.3755,0.0574667
147,67.6218,0.0794098
113,60.3774,0.00813793
146,29.9088,0.0584396
183,72.9033,0.0659842
203,88.3264,0.105752
128,35.7491,0.00749919
145,35.2314,0.0378977
223,54.5607,0.0501947
244,63.1531,0.00809326
221,71.3533,0.0547804
266,48.5521,0.0602453
265,61.0963,0.042573
288,31.4967,0.0571776
313,46.0535,0.0848154
338,45.9102,0.0631574
