facetNormals:0,facetNormals:1,facetNormals:2,FacetCenters:0,FacetCenters:1,FacetCenters:2,FacetIds,relFacetSize,absFacetSize,cellPairingIds,interplanarAngles,angleWeights
-0.306069,0.420524,-0.759987,5.89341,3.5975,10.6266,1,0.0228714,0.00226546,8,77.1362,0.030419
0.616359,-0.324435,-0.692776,5.97513,3.5757,10.5845,2,0.0454018,0.00449715,13,71.8657,0.025625
-0.609971,-0.605896,-0.456795,5.83374,3.51716,10.67,3,0.0291324,0.00288563,19,54.5408,0.0239983
0.306216,0.868355,-0.330552,5.94773,3.64233,10.6209,4,0.0252421,0.00250029,26,121.986,0.0406609
0.337426,-0.855282,-0.0188518,5.91919,3.53273,10.641,5,0.182999,0.0181264,34,107.4,0.0345764
-0.607543,-0.705026,0.199462,5.83956,3.52708,10.6733,6,0.0708211,0.00701498,43,51.209,0.0157998
-0.188853,0.952549,-0.141896,5.93737,3.6386,10.6355,7,0.0120683,0.0011954,53,83.7588,0.0262648
0.443019,0.84765,0.162804,5.93388,3.63803,10.65,8,0.0308405,0.00305482,64,114.592,0.0215268
0.9612,-0.109588,0.0405399,5.97233,3.58087,10.6482,9,0.0203315,0.00201388,76,87.742,0.0250689
-0.413222,0.70631,0.511175,5.8373,3.57331,10.7171,10,0.0277337,0.00274708,89,101.608,0.0157441
0.250962,0.775912,0.570991,5.88346,3.61403,10.704,11,0.0120035,0.00118897,103,141.251,0.0402067
0.552254,0.152542,0.765993,5.9299,3.58121,10.6933,12,0.166107,0.0164533,118,119.511,0.0276144
-0.537098,0.0108143,0.795027,5.843,3.55295,10.729,13,0.0348393,0.00345091,134,121.02,0.0340873
-0.0735472,0.421493,0.866072,5.86537,3.59353,10.7139,14,0.0668892,0.00662552,18,81.7603,0.0354915
,,,,,,,,,25,81.8641,0.0324455
,,,,,,,,,33,56.5093,0.0727535
,,,,,,,,,42,107.676,0.0553317
,,,,,,,,,52,109.835,0.0190681
,,,,,,,,,63,96.914,0.0367306
,,,,,,,,,75,50.9002,0.0280858
,,,,,,,,,88,152.138,0.0344336
,,,,,,,,,102,120.246,0.0189871
,,,,,,,,,117,104.782,0.071312
,,,,,,,,,133,159.922,0.0394254
,,,,,,,,,150,145.499,0.0540896
,,,,,,,,,32,126.155,0.0270481
,,,,,,,,,41,68.9898,0.0502632
,,,,,,,,,51,40.3087,0.041283
,,,,,,,,,62,114.56,0.0170667
,,,,,,,,,74,155.307,0.0299621
,,,,,,,,,87,124.831,0.023949
,,,,,,,,,101,115.838,0.0284159
,,,,,,,,,116,155.8,0.0170017
,,,,,,,,,132,146.792,0.0495709
,,,,,,,,,149,92.5832,0.0317313
,,,,,,,,,167,130.129,0.0405876
,,,,,,,,,50,134.727,0.0443647
,,,,,,,,,61,158.136,0.0372187
,,,,,,,,,73,31.7731,0.0163295
,,,,,,,,,86,30.4887,0.0277619
,,,,,,,,,100,78.6901,0.0225222
,,,,,,,,,115,70.3236,0.0264293
,,,,,,,,,131,54.7656,0.01627
,,,,,,,,,148,87.0372,0.0438245
,,,,,,,,,166,116.434,0.0292742
,,,,,,,,,185,86.5298,0.0366526
,,,,,,,,,72,63.2312,0.102121
,,,,,,,,,85,166.008,0.0226434
,,,,,,,,,99,130.425,0.0527852
,,,,,,,,,114,62.0543,0.036597
,,,,,,,,,130,148.084,0.0481675
,,,,,,,,,147,130.101,0.0225292
,,,,,,,,,165,87.3,0.174144
,,,,,,,,,184,103.465,0.0585348
,,,,,,,,,204,116.879,0.097969
,,,,,,,,,98,128.786,0.0206225
,,,,,,,,,113,154.616,0.0429692
,,,,,,,,,129,122.754,0.0315931
,,,,,,,,,146,99.0817,0.0398586
,,,,,,,,,164,128.173,0.0205277
,,,,,,,,,183,108.592,0.0993034
,,,,,,,,,203,58.4943,0.0467036
,,,,,,,,,224,94.9748,0.068799
,,,,,,,,,128,42.6191,0.0173481
,,,,,,,,,145,107.874,0.0151462
,,,,,,,,,163,44.2472,0.0168182
,,,,,,,,,182,51.3139,0.0120358
,,,,,,,,,202,94.1345,0.0225018
,,,,,,,,,223,90.0655,0.0179268
,,,,,,,,,245,72.0297,0.0204475
,,,,,,,,,162,68.8117,0.0245069
,,,,,,,,,181,57.7971,0.0292047
,,,,,,,,,201,26.834,0.017281
,,,,,,,,,222,57.4979,0.0520222
,,,,,,,,,244,96.1261,0.0327182
,,,,,,,,,267,60.205,0.0422164
,,,,,,,,,200,119.066,0.0234626
,,,,,,,,,221,79.2775,0.015095
,,,,,,,,,243,53.9426,0.0362286
,,,,,,,,,266,121.484,0.0256779
,,,,,,,,,290,95.0155,0.0311843
,,,,,,,,,242,39.9622,0.0167551
,,,,,,,,,265,72.9184,0.0475314
,,,,,,,,,289,46.6097,0.0308831
,,,,,,,,,314,34.2063,0.03921
,,,,,,,,,288,43.1862,0.0223891
,,,,,,,,,313,69.9455,0.0178552
,,,,,,,,,339,33.3718,0.0203543
,,,,,,,,,338,69.993,0.0575981
,,,,,,,,,365,41.9632,0.0953729
,,,,,,,,,392,37.7768,0.0458156
