Q	U	V
{$V$}	{[mm$^3$]}	0.0129099
{$d_v$}	{[mm]}	0.291055
{$S_c$}	{[mm$^2$]}	0.560491
{$S_o$}	{[mm$^2$]}	0.338098
{$S_l/S_o$}	[]	0.657777
{$\Psi$}	[]	0.474822
{$\eta$}	[]	0.501207
{med($\theta_e$)}	{[$^\circ$]}	56.3678
{$\Upsilon$}	[]	16
{$\Xi$}	[]	16
