facetNormals:0,facetNormals:1,facetNormals:2,FacetCenters:0,FacetCenters:1,FacetCenters:2,FacetIds,relFacetSize,absFacetSize,cellPairingIds,interplanarAngles,angleWeights
0.371416,-0.53945,-0.719442,4.61781,4.28719,8.39426,1,0.0260262,0.00675355,8,48.1334,0.033881
-0.412773,-0.468732,-0.725927,4.55391,4.20068,8.25339,2,0.0485267,0.0125922,13,84.7535,0.0280053
-0.698019,0.191988,-0.622365,4.51724,4.31666,8.17397,3,0.0303101,0.00786519,19,49.2153,0.0388748
0.8047,-0.549616,-0.0337898,4.69409,4.26379,8.40071,4,0.0767793,0.0199235,26,140.952,0.0361206
-0.498879,0.83359,0.149728,4.60823,4.36614,8.31491,5,0.0590067,0.0153117,34,112.874,0.0440583
-0.902696,-0.24489,0.22303,4.5312,4.22379,8.28689,6,0.14344,0.0372213,43,80.3284,0.0295096
-0.159396,-0.894314,0.3658,4.60572,4.18753,8.39541,7,0.0340696,0.00884073,53,157.605,0.0317956
-0.399914,0.784204,0.431033,4.62023,4.35583,8.34721,8,0.0408515,0.0106006,64,70.8988,0.0337643
0.28257,-0.864925,0.36119,4.61733,4.14377,8.30047,9,0.048051,0.0124688,76,88.8369,0.0374046
0.537253,-0.502472,0.627581,4.68857,4.24463,8.35808,10,0.0664603,0.0172458,89,172.305,0.0419949
-0.245334,0.562974,0.742258,4.657,4.33202,8.39772,11,0.108672,0.0281995,103,148.502,0.0196847
-0.646151,0.0834358,0.745256,4.55902,4.2312,8.33428,12,0.015828,0.00410722,18,44.6927,0.0373138
,,,,,,,,,25,93.0699,0.059468
,,,,,,,,,33,108.168,0.053256
,,,,,,,,,42,69.2994,0.0725196
,,,,,,,,,52,76.4674,0.0400329
,,,,,,,,,63,123.306,0.0443596
,,,,,,,,,75,88.3751,0.0482877
,,,,,,,,,88,118.499,0.0560951
,,,,,,,,,102,139.493,0.0670935
,,,,,,,,,117,109.305,0.0238703
,,,,,,,,,32,133.96,0.0434626
,,,,,,,,,41,63.7475,0.0400485
,,,,,,,,,51,61.0547,0.0500453
,,,,,,,,,62,107.948,0.0320801
,,,,,,,,,74,80.0649,0.0348001
,,,,,,,,,87,128.993,0.0371723
,,,,,,,,,101,159.044,0.041633
,,,,,,,,,116,101.453,0.0473998
,,,,,,,,,132,89.8046,0.0207962
,,,,,,,,,50,154.443,0.0667299
,,,,,,,,,61,129.735,0.10002
,,,,,,,,,73,68.4394,0.0471965
,,,,,,,,,86,143.412,0.0533287
,,,,,,,,,100,43.6625,0.0591094
,,,,,,,,,115,43.2009,0.0712481
,,,,,,,,,131,124.49,0.0899834
,,,,,,,,,148,127.756,0.0262455
,,,,,,,,,72,72.7933,0.0836163
,,,,,,,,,85,129.417,0.0431975
,,,,,,,,,99,17.714,0.0482787
,,,,,,,,,114,147.093,0.0529683
,,,,,,,,,130,128.596,0.0625121
,,,,,,,,,147,42.0803,0.0764842
,,,,,,,,,165,58.8381,0.0249606
,,,,,,,,,98,61.834,0.0550611
,,,,,,,,,113,73.6637,0.0635921
,,,,,,,,,129,87.7295,0.071987
,,,,,,,,,146,103.811,0.0908343
,,,,,,,,,164,74.3978,0.123659
,,,,,,,,,183,40.0075,0.0285101
,,,,,,,,,128,119.999,0.0371536
,,,,,,,,,145,26.1472,0.0398701
,,,,,,,,,163,51.2033,0.0450468
,,,,,,,,,182,101.795,0.0518757
,,,,,,,,,202,71.911,0.0216144
,,,,,,,,,162,131.483,0.0441598
,,,,,,,,,181,110.919,0.0506003
,,,,,,,,,201,24.4546,0.0593809
,,,,,,,,,222,48.3291,0.022816
,,,,,,,,,200,30.802,0.0557759
,,,,,,,,,221,107.791,0.0666374
,,,,,,,,,243,89.1468,0.0238123
,,,,,,,,,242,86.8528,0.0824792
,,,,,,,,,265,85.2874,0.0255671
,,,,,,,,,288,37.2917,0.0276315
