Q	U	V
{$V$}	{[mm$^3$]}	0.000756403
{$d_v$}	{[mm]}	0.113045
{$S_c$}	{[mm$^2$]}	0.06923
{$S_o$}	{[mm$^2$]}	0.0381753
{$S_l/S_o$}	[]	0.813476
{$\Psi$}	[]	0.579907
{$\eta$}	[]	0.625228
{med($\theta_e$)}	{[$^\circ$]}	53.66385
{$\Upsilon$}	[]	19
{$\Xi$}	[]	3
