facetNormals:0,facetNormals:1,facetNormals:2,FacetCenters:0,FacetCenters:1,FacetCenters:2,FacetIds,relFacetSize,absFacetSize,cellPairingIds,interplanarAngles,angleWeights
0.21874,0.552133,-0.75986,6.25922,5.10005,10.7542,1,0.0226498,0.002226,8,66.2641,0.0177347
-0.786873,0.257289,-0.546285,6.1894,5.09758,10.7752,2,0.0145725,0.00143217,13,96.2212,0.0314966
-0.643216,-0.549858,-0.452707,6.21048,5.06789,10.7615,3,0.0516842,0.00507948,19,32.6171,0.0344511
-0.129492,0.847119,-0.463031,6.2335,5.13689,10.7928,4,0.071928,0.00706903,26,103.998,0.0144042
0.325938,-0.887582,-0.250788,6.2585,5.04185,10.8332,5,0.01056,0.00103782,34,65.2615,0.036717
-0.328088,0.910867,0.0524439,6.24288,5.15391,10.8734,6,0.0968983,0.00952308,43,71.2991,0.0391978
0.0346948,0.930218,0.289237,6.32872,5.16114,10.9189,7,0.145504,0.0143,53,150.578,0.0401723
-0.463972,-0.766567,0.389577,6.25918,5.07711,10.9125,8,0.177464,0.017441,64,93.7002,0.0362294
0.612623,0.43751,0.571686,6.36895,5.12167,10.9672,9,0.0904711,0.00889142,76,126.779,0.0356856
-0.831508,-0.00961866,0.485288,6.22108,5.11454,10.9087,10,0.0840731,0.00826264,89,150.677,0.0277293
0.272441,-0.548732,0.759423,6.36829,5.07495,10.972,11,0.0357459,0.00351307,18,49.9919,0.0227348
,,,,,,,,,25,53.6385,0.024235
,,,,,,,,,33,111.008,0.0122459
,,,,,,,,,42,61.1609,0.0253348
,,,,,,,,,52,86.7965,0.0264917
,,,,,,,,,63,92.6591,0.0269333
,,,,,,,,,75,136.651,0.0251017
,,,,,,,,,88,66.1124,0.0248395
,,,,,,,,,102,142.755,0.0207044
,,,,,,,,,32,100.658,0.0601485
,,,,,,,,,41,65.3245,0.0175368
,,,,,,,,,51,109.693,0.0674119
,,,,,,,,,62,135.283,0.076275
,,,,,,,,,74,54.5709,0.0800538
,,,,,,,,,87,170.011,0.0657862
,,,,,,,,,101,69.7089,0.064015
,,,,,,,,,116,103.419,0.0422623
,,,,,,,,,50,135.359,0.0184162
,,,,,,,,,61,33.2484,0.0825665
,,,,,,,,,73,46.8307,0.0962676
,,,,,,,,,86,143.972,0.102366
,,,,,,,,,100,88.3455,0.0801409
,,,,,,,,,115,97.6705,0.0775278
,,,,,,,,,131,153.662,0.0477577
,,,,,,,,,72,168.241,0.0190444
,,,,,,,,,85,158.448,0.0196908
,,,,,,,,,99,63.1653,0.0199337
,,,,,,,,,114,111.042,0.0189124
,,,,,,,,,130,114.073,0.0187632
,,,,,,,,,147,66.1863,0.0163036
,,,,,,,,,98,25.7729,0.116328
,,,,,,,,,113,123.697,0.125352
,,,,,,,,,129,75.6276,0.0935745
,,,,,,,,,146,71.9338,0.0900313
,,,,,,,,,164,125.501,0.0522257
,,,,,,,,,128,130.338,0.159903
,,,,,,,,,145,49.8937,0.11157
,,,,,,,,,163,83.7258,0.10657
,,,,,,,,,182,107.205,0.0573923
,,,,,,,,,162,115.451,0.119845
,,,,,,,,,181,51.7636,0.114094
,,,,,,,,,201,51.76,0.0595057
,,,,,,,,,200,105.04,0.0871549
,,,,,,,,,221,66.9599,0.0512446
,,,,,,,,,242,80.9803,0.0501635
