"cellPairingIds","interplanarAngles","angleWeights"
13,39.3676,0.0455012
19,39.3013,0.0349335
34,71.4792,0.0266215
43,69.9523,0.0515442
53,93.5122,0.0144958
18,41.8975,0.0595798
25,32.0594,0.0426756
75,83.8123,0.0743078
88,79.82,0.0685769
32,69.94,0.0488399
74,60.8174,0.0164379
101,102.566,0.0860242
73,44.521,0.0558707
100,65.6474,0.0583145
98,88.3804,0.037263
113,64.7083,0.0130854
183,80.8651,0.0362789
145,56.3731,0.126208
202,41.0666,0.106366
181,111.99,0.0170553
201,90.1709,0.0146113
222,132.743,0.0169531
244,104.877,0.0148311
200,40.8427,0.120512
243,63.157,0.115588
266,54.405,0.0585113
242,27.5397,0.0520022
289,52.1388,0.0548988
313,39.847,0.0356853
338,68.9147,0.0538539
