Q	U	V
{$V$}	{[mm$^3$]}	0.00267888
{$d_v$}	{[mm]}	0.172313
{$S_c$}	{[mm$^2$]}	0.147776
{$S_o$}	{[mm$^2$]}	0.0883376
{$S_l/S_o$}	[]	0.672855
{$\Psi$}	[]	0.631222
{$\eta$}	[]	0.689713
{med($\theta_e$)}	{[$^\circ$]}	68.3451
{$\Upsilon$}	[]	12
{$\Xi$}	[]	5
