Q	U	V
{$V$}	{[mm$^3$]}	0.00874317
{$d_v$}	{[mm]}	0.255598
{$S_c$}	{[mm$^2$]}	0.3976
{$S_o$}	{[mm$^2$]}	0.243415
{$S_l/S_o$}	[]	0.633424
{$\Psi$}	[]	0.516199
{$\eta$}	[]	0.551014
{med($\theta_e$)}	{[$^\circ$]}	57.06885
{$\Upsilon$}	[]	14
{$\Xi$}	[]	11
