facetNormals:0,facetNormals:1,facetNormals:2,FacetCenters:0,FacetCenters:1,FacetCenters:2,FacetIds,relFacetSize,absFacetSize,cellPairingIds,interplanarAngles,angleWeights
0.734936,0.405156,-0.488763,5.23713,7.81503,10.1096,1,0.047885,0.0095306,8,61.1919,0.061537
0.0217432,0.969633,-0.0967941,5.1403,7.89203,10.2257,2,0.086078,0.0171322,13,84.8839,0.0559498
0.569764,-0.791629,0.0276289,5.17419,7.68962,10.1257,3,0.0672814,0.0133911,19,42.7702,0.0363112
0.650959,0.712902,0.145696,5.21691,7.87246,10.2043,4,0.0292432,0.00582031,26,105.96,0.0476526
-0.49441,0.731379,0.390178,5.04819,7.86456,10.2736,5,0.0474224,0.00943853,34,178.052,0.0701103
-0.735261,-0.373574,0.461437,5.01002,7.70288,10.2253,6,0.130837,0.0260407,43,141.356,0.0282601
-0.195676,-0.737023,0.622958,5.04998,7.69116,10.2301,7,0.020045,0.00398957,53,107.484,0.0658756
0.357993,-0.778613,0.478922,5.08635,7.65354,10.1865,8,0.10552,0.0210017,64,88.3523,0.0749526
0.650704,-0.360745,0.623927,5.16105,7.77806,10.252,9,0.17241,0.0343149,18,142.833,0.0755278
,,,,,,,,,25,43.4101,0.0436554
,,,,,,,,,33,45.3923,0.0611537
,,,,,,,,,42,117.329,0.10384
,,,,,,,,,52,144.279,0.0325176
,,,,,,,,,63,146.028,0.0948125
,,,,,,,,,75,114.737,0.114827
,,,,,,,,,32,101.47,0.0407673
,,,,,,,,,41,154.481,0.0556327
,,,,,,,,,51,96.879,0.088865
,,,,,,,,,62,59.3935,0.0308876
,,,,,,,,,74,29.5166,0.0821698
,,,,,,,,,87,44.6897,0.0967909
,,,,,,,,,50,74.2108,0.0361774
,,,,,,,,,61,137.267,0.0478022
,,,,,,,,,73,125.777,0.0237858
,,,,,,,,,86,105.259,0.045795
,,,,,,,,,100,74.2511,0.0500048
,,,,,,,,,72,72.7598,0.0696132
,,,,,,,,,85,102.101,0.028179
,,,,,,,,,99,126.198,0.0654365
,,,,,,,,,114,111.41,0.0743847
,,,,,,,,,98,40.588,0.0347639
,,,,,,,,,113,74.4543,0.116823
,,,,,,,,,129,93.4843,0.148774
,,,,,,,,,128,33.9199,0.03369
,,,,,,,,,145,56.5346,0.0359144
,,,,,,,,,162,31.5153,0.130915
