"cellPairingIds","interplanarAngles","angleWeights"
8,88.4661,0.00924651
13,82.9515,0.0094556
19,38.4678,0.00870695
34,61.0189,0.00807353
89,99.0486,0.00722737
18,43.0317,0.072772
33,30.6218,0.0567896
42,104.881,0.0314014
52,35.9145,0.0558768
62,32.1904,0.0644954
116,48.1699,0.0227503
132,70.7535,0.120444
61,43.4684,0.025942
100,47.1562,0.0404014
131,111.408,0.0188506
166,66.6852,0.0542156
72,96.895,0.0300107
85,46.041,0.0516201
99,36.4933,0.0244281
165,69.4617,0.0821698
113,70.9847,0.0181247
129,25.679,0.0296187
202,46.8912,0.0802725
162,74.9898,0.0241678
222,81.615,0.029393
244,93.5994,0.0285139
266,43.3457,0.0732077
288,55.9361,0.0244451
313,105.574,0.023834
338,94.9833,0.158627
