facetNormals:0,facetNormals:1,facetNormals:2,FacetCenters:0,FacetCenters:1,FacetCenters:2,FacetIds,relFacetSize,absFacetSize,cellPairingIds,interplanarAngles,angleWeights
0.110103,-0.245584,-0.955009,3.76845,6.33895,11.9666,1,0.0047403,0.000629502,8,29.0963,0.0077283
0.0448533,0.245988,-0.949232,3.75316,6.34573,11.9746,2,0.0209065,0.00277635,13,32.3661,0.00848945
-0.429507,-0.170513,-0.870678,3.72652,6.2991,11.9681,3,0.0406018,0.00539184,19,47.8932,0.0088251
-0.430939,0.325804,-0.814113,3.71415,6.35465,11.9909,4,0.0638199,0.00847516,26,48.9823,0.00822653
0.439428,0.465846,-0.732615,3.76227,6.3525,11.988,5,0.0310957,0.00412945,34,55.4944,0.00840363
-0.494756,-0.70794,-0.447496,3.66261,6.28527,12.0313,6,0.0369888,0.00491204,43,82.0667,0.00899351
-0.619966,0.660102,-0.382172,3.6888,6.37767,12.0394,7,0.0875243,0.0116231,53,99.6948,0.00892632
-0.894147,0.383345,-0.0313653,3.63586,6.33319,12.117,8,0.0763395,0.0101377,64,75.62,0.00812154
-0.431924,-0.881604,-0.077181,3.65722,6.28692,12.0807,9,0.0283275,0.00376183,76,106.178,0.00924908
0.0733182,0.928717,0.0395513,3.70677,6.35709,12.0732,10,0.189376,0.0251487,89,113.7,0.00897789
-0.631045,0.730559,0.147176,3.66286,6.35734,12.1372,11,0.0846568,0.0112423,103,83.1885,0.00861054
0.712577,-0.57563,0.116395,3.69071,6.34966,12.1115,12,0.0469125,0.00622988,118,98.744,0.00840525
-0.859438,-0.43881,0.168472,3.63644,6.27443,12.1714,13,0.0370518,0.0049204,134,150.621,0.00795243
-0.286317,0.635798,0.694442,3.67437,6.35365,12.18,14,0.0246681,0.00327587,18,37.7302,0.0276009
,,,,,,,,,25,29.6395,0.0314956
,,,,,,,,,33,29.6952,0.0250029
,,,,,,,,,42,76.1581,0.026714
,,,,,,,,,52,58.9721,0.0337511
,,,,,,,,,63,84.9584,0.0328239
,,,,,,,,,75,99.7063,0.0240577
,,,,,,,,,88,77.7505,0.037656
,,,,,,,,,102,89.3007,0.0335321
,,,,,,,,,117,104.055,0.0289234
,,,,,,,,,133,108.582,0.0267304
,,,,,,,,,150,122.261,0.0226321
,,,,,,,,,32,29.4841,0.0496296
,,,,,,,,,41,67.3286,0.0352186
,,,,,,,,,51,41.0733,0.0387112
,,,,,,,,,62,59.8613,0.0554711
,,,,,,,,,74,68.8626,0.0530099
,,,,,,,,,87,65.4674,0.0333718
,,,,,,,,,101,104.124,0.0668674
,,,,,,,,,116,88.9091,0.054882
,,,,,,,,,132,109.862,0.0435296
,,,,,,,,,149,72.0692,0.0387456
,,,,,,,,,167,127.466,0.0306901
,,,,,,,,,50,53.9988,0.0418166
,,,,,,,,,61,68.5943,0.0468337
,,,,,,,,,73,34.3002,0.0738158
,,,,,,,,,86,55.7129,0.0695206
,,,,,,,,,100,92.2791,0.0392384
,,,,,,,,,115,74.8054,0.0954673
,,,,,,,,,131,65.864,0.0727763
,,,,,,,,,148,130.788,0.0540754
,,,,,,,,,166,84.5896,0.0468841
,,,,,,,,,185,104.136,0.0355826
,,,,,,,,,72,103.4,0.0337872
,,,,,,,,,85,70.7671,0.0458882
,,,,,,,,,99,101.656,0.0441909
,,,,,,,,,114,124.588,0.0296471
,,,,,,,,,130,61.2881,0.0534199
,,,,,,,,,147,92.702,0.0454844
,,,,,,,,,165,92.5708,0.0374006
,,,,,,,,,184,137.745,0.0338135
,,,,,,,,,204,110.694,0.0275115
,,,,,,,,,98,89.3744,0.0520013
,,,,,,,,,113,78.7304,0.0498323
,,,,,,,,,129,24.3988,0.0320838
,,,,,,,,,146,141.663,0.0618894
,,,,,,,,,164,106.566,0.0514832
,,,,,,,,,183,89.8167,0.0413637
,,,,,,,,,203,46.1208,0.0370203
,,,,,,,,,224,130.304,0.0295974
,,,,,,,,,128,31.0833,0.0815502
,,,,,,,,,145,107.104,0.042802
,,,,,,,,,163,52.9297,0.119718
,,,,,,,,,182,31.635,0.0860667
,,,,,,,,,202,162.627,0.0610842
,,,,,,,,,223,79.2995,0.0520635
,,,,,,,,,245,69.9392,0.0384885
,,,,,,,,,162,86.97,0.0413216
,,,,,,,,,181,71.4179,0.108815
,,,,,,,,,201,27.944,0.0802833
,,,,,,,,,222,163.427,0.0581131
,,,,,,,,,244,51.3919,0.0498895
,,,,,,,,,267,60.0683,0.0372873
,,,,,,,,,200,158.355,0.049283
,,,,,,,,,221,113.462,0.0424504
,,,,,,,,,243,77.8933,0.0353246
,,,,,,,,,266,39.4324,0.0321075
,,,,,,,,,290,120.404,0.0263714
,,,,,,,,,242,45.5158,0.117008
,,,,,,,,,265,123.701,0.075197
,,,,,,,,,289,120.521,0.0619775
,,,,,,,,,314,49.4179,0.0436503
,,,,,,,,,288,161.093,0.0603706
,,,,,,,,,313,75.0631,0.0515442
,,,,,,,,,339,38.9495,0.0382039
,,,,,,,,,338,112.094,0.0414031
,,,,,,,,,365,122.569,0.0323339
,,,,,,,,,392,84.9969,0.0296176
