Q	U	V
{$V$}	{[mm$^3$]}	0.0117462
{$d_v$}	{[mm]}	0.282033
{$S_c$}	{[mm$^2$]}	0.412266
{$S_o$}	{[mm$^2$]}	0.289126
{$S_l/S_o$}	[]	0.425904
{$\Psi$}	[]	0.606138
{$\eta$}	[]	0.620842
{med($\theta_e$)}	{[$^\circ$]}	58.3928
{$\Upsilon$}	[]	10
{$\Xi$}	[]	12
