"cellPairingIds","interplanarAngles","angleWeights"
41,129.269,0.0485705
51,40.2033,0.0511361
74,41.4366,0.0627299
72,155.587,0.0495422
85,40.144,0.0302753
99,137.355,0.0603481
147,89.0298,0.0340172
98,129.844,0.0312527
113,55.4,0.0643602
146,30.4492,0.0523583
164,112.043,0.0352561
163,121.109,0.0313042
182,114.435,0.0242663
201,59.1749,0.0404046
242,100.303,0.0353216
