"cellPairingIds","interplanarAngles","angleWeights"
8,55.6073,0.0134003
13,71.9561,0.0385057
19,82.5947,0.029785
34,86.3698,0.0326267
43,61.1528,0.044772
64,63.7524,0.0425023
76,88.5889,0.0261998
25,36.9535,0.0143971
42,31.1977,0.0150299
32,45.5516,0.0480697
41,32.1528,0.0375817
62,75.837,0.104553
50,75.8766,0.0292291
61,33.0658,0.0392423
86,95.9007,0.0551891
85,53.822,0.0435277
99,26.3997,0.0417971
147,61.5184,0.0316221
113,127.325,0.0658099
146,57.0638,0.033248
145,75.7515,0.140402
182,41.0128,0.0685907
202,59.8202,0.11956
181,168.087,0.0440261
201,40.1174,0.0643897
222,81.5823,0.107351
200,56.8675,0.0435629
243,51.2827,0.104638
265,92.4792,0.0413275
288,41.5581,0.0587766
