facetNormals:0,facetNormals:1,facetNormals:2,FacetCenters:0,FacetCenters:1,FacetCenters:2,FacetIds,relFacetSize,absFacetSize,cellPairingIds,interplanarAngles,angleWeights
-0.210784,0.553372,-0.779721,4.69626,5.62248,12.023,1,0.0191028,0.00374858,8,77.1979,0.0300368
0.170492,-0.599212,-0.740639,4.64192,5.56478,11.8554,2,0.0702405,0.0137834,13,99.3306,0.0245822
0.646468,-0.581087,-0.392953,4.65239,5.59088,11.9196,3,0.034469,0.00676391,19,101.144,0.0322813
-0.597016,-0.747596,-0.134702,4.55586,5.53438,11.8701,4,0.104089,0.0204255,26,74.2918,0.0264579
-0.935664,0.224582,0.0839581,4.5426,5.61642,11.9345,5,0.0430229,0.00844246,34,159.186,0.0329825
0.266679,-0.786951,0.519776,4.64542,5.57835,11.9779,6,0.120629,0.0236711,43,77.6069,0.0276668
-0.431675,0.774392,0.403748,4.60245,5.66636,12.0155,7,0.0501491,0.00984084,53,142.976,0.0211231
-0.409408,-0.546893,0.71119,4.60039,5.58727,11.9879,8,0.0236211,0.00463521,64,103.421,0.0253367
-0.381914,0.50441,0.746393,4.62996,5.68626,12.0371,9,0.03761,0.00738028,76,117.122,0.0257467
0.54077,0.367656,0.637544,4.72207,5.69212,12.0221,10,0.0394766,0.00774655,18,35.7315,0.0462445
,,,,,,,,,25,61.5159,0.0838786
,,,,,,,,,33,112.403,0.0533615
,,,,,,,,,42,81.9977,0.0887835
,,,,,,,,,52,152.546,0.0585183
,,,,,,,,,63,106.36,0.0353533
,,,,,,,,,75,166.336,0.0489891
,,,,,,,,,88,132.778,0.0505456
,,,,,,,,,32,83.6837,0.0517883
,,,,,,,,,41,146.503,0.0382739
,,,,,,,,,51,62.9323,0.0536172
,,,,,,,,,62,162.791,0.0408563
,,,,,,,,,74,103.922,0.0280322
,,,,,,,,,87,153.223,0.0359711
,,,,,,,,,101,97.557,0.0368032
,,,,,,,,,50,66.0115,0.0608817
,,,,,,,,,61,67.7146,0.11175
,,,,,,,,,73,113.519,0.0676871
,,,,,,,,,86,54.1896,0.0385043
,,,,,,,,,100,105.311,0.055255
,,,,,,,,,115,140.779,0.0572432
,,,,,,,,,72,113.839,0.0634249
,,,,,,,,,85,49.4512,0.0463135
,,,,,,,,,99,70.3724,0.0304978
,,,,,,,,,114,55.6482,0.0401348
,,,,,,,,,130,114.791,0.0411735
,,,,,,,,,98,122.618,0.0708455
,,,,,,,,,113,44.3741,0.0395062
,,,,,,,,,129,96.637,0.0573418
,,,,,,,,,146,77.9892,0.059486
,,,,,,,,,128,87.592,0.0321153
,,,,,,,,,145,25.9872,0.0429838
,,,,,,,,,163,69.6991,0.0441774
,,,,,,,,,162,64.768,0.0290176
,,,,,,,,,181,88.0306,0.0295567
,,,,,,,,,200,59.4075,0.0385207
