facetNormals:0,facetNormals:1,facetNormals:2,FacetCenters:0,FacetCenters:1,FacetCenters:2,FacetIds,relFacetSize,absFacetSize,cellPairingIds,interplanarAngles,angleWeights
0.605465,0.138797,-0.760786,3.53159,6.19374,9.7722,1,0.0950267,0.0149109,8,25.6036,0.119993
0.392058,0.514809,-0.728307,3.50858,6.26404,9.78796,2,0.162754,0.0255381,13,94.9987,0.0839843
-0.711083,-0.402773,-0.529833,3.41182,6.11101,9.74546,3,0.075241,0.0118063,19,61.2314,0.0516322
0.593827,-0.732732,-0.270747,3.5074,6.09326,9.7594,4,0.0354457,0.00556188,26,106.98,0.121499
-0.860892,0.367489,-0.252572,3.40934,6.23447,9.8034,5,0.168416,0.0264267,34,83.3106,0.0431688
0.303699,-0.924681,-0.0737851,3.46553,6.06474,9.77265,6,0.0279279,0.00438225,43,139.521,0.00906015
-0.514227,0.530544,0.661181,3.44344,6.2237,9.81703,7,0.00475684,0.000746409,53,164.195,0.108719
-0.640605,-0.338164,0.585396,3.4719,6.20231,9.73892,8,0.127021,0.0199313,64,111.418,0.02375
0.478302,-0.271642,0.781695,3.51321,6.21104,9.74901,9,0.0135709,0.00212945,18,96.065,0.102908
,,,,,,,,,25,86.8348,0.0582132
,,,,,,,,,33,87.839,0.165537
,,,,,,,,,42,108.595,0.047675
,,,,,,,,,52,115.117,0.00924352
,,,,,,,,,63,159.805,0.142684
,,,,,,,,,75,124.067,0.0250528
,,,,,,,,,32,89.0218,0.0481895
,,,,,,,,,41,50.7088,0.104013
,,,,,,,,,51,78.1279,0.0407356
,,,,,,,,,62,101.853,0.00894798
,,,,,,,,,74,71.9166,0.0945032
,,,,,,,,,87,133.845,0.0229944
,,,,,,,,,50,138.464,0.0585654
,,,,,,,,,61,23.5684,0.0312409
,,,,,,,,,73,153.824,0.008388
,,,,,,,,,86,108.575,0.0554249
,,,,,,,,,100,73.1779,0.0196272
,,,,,,,,,72,128.001,0.047911
,,,,,,,,,85,60.684,0.00925235
,,,,,,,,,99,71.9778,0.144819
,,,,,,,,,114,139.917,0.0251178
,,,,,,,,,98,135.948,0.00812909
,,,,,,,,,113,85.2708,0.0457885
,,,,,,,,,129,68.7087,0.0182659
,,,,,,,,,128,54.4377,0.00917026
,,,,,,,,,145,82.3129,0.00704447
,,,,,,,,,162,74.1552,0.0245219
