"cellPairingIds","interplanarAngles","angleWeights"
8,62.111,0.0359129
13,67.1871,0.0523101
19,55.1902,0.0437146
34,89.6583,0.0454343
18,43.7056,0.0427901
33,40.9046,0.0539491
42,145.824,0.0380765
52,111.05,0.0415527
32,103.011,0.0543467
41,60.1037,0.101962
74,114.412,0.0735295
101,71.1128,0.0695891
61,41.934,0.0469629
86,52.5413,0.0576075
72,155.605,0.0787363
85,98.1633,0.0952061
114,112.077,0.0337611
130,67.7389,0.104864
147,66.3749,0.100427
98,57.7162,0.0548532
113,43.8168,0.0606318
129,46.4228,0.0267761
146,116.903,0.057927
164,100.031,0.0565468
181,77.8343,0.075027
221,56.8569,0.0288986
242,42.7494,0.0688706
