"cellPairingIds","interplanarAngles","angleWeights"
8,110.913,0.0862837
13,80.6213,0.0845487
26,80.9802,0.0382721
64,74.6176,0.125981
18,64.3095,0.0633646
33,111.871,0.0332415
42,76.4665,0.0871502
52,64.0777,0.0431232
51,40.3419,0.0853805
87,115.8,0.0824422
85,99.0348,0.0265052
114,70.3538,0.0378345
130,94.1387,0.0238743
147,68.4692,0.0278861
98,69.1142,0.0523013
129,99.8401,0.127837
146,68.9667,0.0429597
164,93.099,0.057965
163,25.6443,0.0285775
221,58.322,0.0565956
242,32.6182,0.0301893
