"cellPairingIds","interplanarAngles","angleWeights"
25,32.2381,0.0365854
33,59.278,0.027601
75,89.1855,0.0843417
117,82.1859,0.0331927
50,38.6525,0.0211583
61,40.4257,0.0374156
100,99.9281,0.0436896
72,45.293,0.0280709
165,108.001,0.0199774
184,42.9191,0.0267954
204,55.0077,0.0311274
113,65.3685,0.0366721
129,101.841,0.0888882
164,54.4245,0.0407402
203,66.3677,0.0595808
162,39.8978,0.0426793
201,52.3462,0.0272285
221,86.3325,0.0482913
243,92.7722,0.0389369
288,153.719,0.0256553
313,74.8114,0.0381076
339,106.962,0.0475112
365,70.4473,0.0384282
392,34.3227,0.0752683
