"cellPairingIds","interplanarAngles","angleWeights"
8,64.4634,0.0273953
13,81.8288,0.0912328
19,41.8768,0.0669229
26,54.4344,0.0522514
34,75.6286,0.0830331
18,83.5476,0.028718
42,28.1486,0.0278522
75,105.372,0.0173275
102,103.944,0.0271266
41,97.2213,0.0572834
62,67.397,0.120202
87,36.9971,0.0310846
50,29.5286,0.0466447
61,88.5591,0.0697165
86,50.1661,0.0445276
115,68.3848,0.0822132
85,59.0137,0.0606186
99,22.8138,0.0375183
146,48.7711,0.107941
164,99.8003,0.0806128
128,39.387,0.0570909
145,56.6779,0.0320412
182,84.287,0.0965056
181,101.28,0.0575424
201,115.397,0.0487349
221,51.2506,0.0292286
242,99.4145,0.0978027
