facetNormals:0,facetNormals:1,facetNormals:2,FacetCenters:0,FacetCenters:1,FacetCenters:2,FacetIds,relFacetSize,absFacetSize,cellPairingIds,interplanarAngles,angleWeights
0.304564,0.423609,-0.832451,4.57476,6.01957,9.55645,1,0.0165793,0.00317526,8,50.083,0.0254992
0.399664,-0.402552,-0.803405,4.53432,5.96068,9.55514,2,0.0551955,0.010571,13,35.0459,0.0217249
-0.252303,0.566276,-0.728082,4.5278,6.04123,9.54266,3,0.031502,0.00603326,19,89.7027,0.0179396
-0.836164,-0.254109,-0.441227,4.53649,6.01297,9.53001,4,0.0195431,0.00374289,26,83.066,0.0219684
0.317992,-0.822912,-0.44307,4.56916,5.9839,9.56856,5,0.0325482,0.00623362,34,62.0967,0.02576
-0.355347,0.886286,-0.220221,4.50997,6.0587,9.59559,6,0.0577253,0.0110555,43,104.198,0.0209755
-0.923067,0.290832,0.0916862,4.57749,5.96473,9.56783,7,0.0285445,0.00546684,53,89.9369,0.0305502
0.793342,-0.508301,0.0303721,4.59032,5.9544,9.66161,8,0.194184,0.0371901,64,79.0464,0.0148428
0.840213,0.416738,0.298739,4.59545,6.01835,9.6853,9,0.0134356,0.00257318,76,88.8078,0.0299684
-0.259176,0.844041,0.311692,4.57683,6.06433,9.61377,10,0.155745,0.0298283,89,128.129,0.0148621
-0.768864,0.253534,0.568608,4.58428,5.97782,9.57573,11,0.0134673,0.00257926,103,106.249,0.0238146
0.463777,0.451644,0.718994,4.58498,5.99791,9.71462,12,0.0422548,0.00809262,118,149.369,0.0190556
-0.334005,0.0852546,0.897569,4.60156,6.01345,9.59371,13,0.0224016,0.00429035,18,74.1947,0.0401112
,,,,,,,,,25,82.6849,0.0288657
,,,,,,,,,33,32.9959,0.0409491
,,,,,,,,,42,109.51,0.0564321
,,,,,,,,,52,125.829,0.0376291
,,,,,,,,,63,57.563,0.0859581
,,,,,,,,,75,94.2632,0.0216107
,,,,,,,,,88,138.884,0.0815057
,,,,,,,,,102,152.902,0.0216518
,,,,,,,,,117,127.111,0.0478659
,,,,,,,,,133,160.061,0.0318689
,,,,,,,,,32,65.4934,0.0241217
,,,,,,,,,41,103.703,0.0320166
,,,,,,,,,51,36.643,0.0407602
,,,,,,,,,62,69.1527,0.0299504
,,,,,,,,,74,124.463,0.0542097
,,,,,,,,,87,101.864,0.0188371
,,,,,,,,,101,69.3055,0.0524044
,,,,,,,,,116,94.6343,0.0188683
,,,,,,,,,132,114.574,0.0360946
,,,,,,,,,149,124.514,0.0261836
,,,,,,,,,50,81.7483,0.0244222
,,,,,,,,,61,79.8488,0.0292003
,,,,,,,,,73,46.3035,0.0232013
,,,,,,,,,86,126.395,0.0355122
,,,,,,,,,100,167.356,0.0159238
,,,,,,,,,115,98.4874,0.0347285
,,,,,,,,,131,70.2309,0.0159461
,,,,,,,,,148,149.944,0.0267255
,,,,,,,,,166,98.4558,0.020875
,,,,,,,,,72,140.34,0.0416258
,,,,,,,,,85,126.695,0.0304152
,,,,,,,,,99,45.0843,0.0557516
,,,,,,,,,114,102.367,0.0190199
,,,,,,,,,130,171.871,0.0538439
,,,,,,,,,147,136.211,0.0190517
,,,,,,,,,165,124.628,0.0367717
,,,,,,,,,184,127.213,0.0265381
,,,,,,,,,98,53.5797,0.0381997
,,,,,,,,,113,143.138,0.088995
,,,,,,,,,129,89.7033,0.0217977
,,,,,,,,,146,32.7705,0.0842312
,,,,,,,,,164,67.3912,0.0218395
,,,,,,,,,183,85.3325,0.0487931
,,,,,,,,,203,90.2077,0.0322773
,,,,,,,,,128,163.208,0.0497726
,,,,,,,,,145,130.937,0.0182711
,,,,,,,,,163,55.6739,0.0482465
,,,,,,,,,182,29.6785,0.0183005
,,,,,,,,,202,104.207,0.0340721
,,,,,,,,,223,63.6136,0.0251027
,,,,,,,,,162,60.0097,0.0251323
,,,,,,,,,181,135.094,0.172854
,,,,,,,,,201,140.687,0.0251878
,,,,,,,,,222,79.8836,0.0694066
,,,,,,,,,244,108.064,0.0401692
,,,,,,,,,200,75.7353,0.0247372
,,,,,,,,,221,112.362,0.0134514
,,,,,,,,,243,33.6561,0.0203884
,,,,,,,,,266,88.6055,0.016797
,,,,,,,,,242,50.3979,0.024791
,,,,,,,,,265,57.6217,0.0664745
,,,,,,,,,289,60.867,0.0391693
,,,,,,,,,288,79.9669,0.0204249
,,,,,,,,,313,33.9794,0.0168218
,,,,,,,,,338,55.3456,0.0292802
