Q	U	V
{$V$}	{[mm$^3$]}	0.00278812
{$d_v$}	{[mm]}	0.174624
{$S_c$}	{[mm$^2$]}	0.152277
{$S_o$}	{[mm$^2$]}	0.0891308
{$S_l/S_o$}	[]	0.708467
{$\Psi$}	[]	0.629106
{$\eta$}	[]	0.656895
{med($\theta_e$)}	{[$^\circ$]}	58.0724
{$\Upsilon$}	[]	12
{$\Xi$}	[]	6
