Q	U	V
{$V$}	{[mm$^3$]}	0.0137613
{$d_v$}	{[mm]}	0.297317
{$S_c$}	{[mm$^2$]}	0.563894
{$S_o$}	{[mm$^2$]}	0.341646
{$S_l/S_o$}	[]	0.650521
{$\Psi$}	[]	0.492485
{$\eta$}	[]	0.509259
{med($\theta_e$)}	{[$^\circ$]}	81.1371
{$\Upsilon$}	[]	10
{$\Xi$}	[]	6
