"cellPairingIds","interplanarAngles","angleWeights"
8,44.8741,0.0954261
13,44.4298,0.0628087
19,79.5477,0.074823
26,56.8886,0.0287142
34,84.707,0.0540414
43,72.7431,0.0654363
18,43.8642,0.0493673
25,49.9359,0.0564977
42,81.5892,0.0437842
63,74.5863,0.0960235
51,43.5958,0.035359
50,128.774,0.0237832
86,73.0196,0.0751898
115,130.255,0.0567432
85,40.3509,0.0227461
130,92.8652,0.0255857
98,42.2448,0.0361768
113,66.5877,0.0542325
129,50.2109,0.042547
145,52.852,0.0493069
163,79.4981,0.051176
162,77.1906,0.0902667
181,84.8143,0.0967348
200,34.0738,0.0649273
