facetNormals:0,facetNormals:1,facetNormals:2,FacetCenters:0,FacetCenters:1,FacetCenters:2,FacetIds,relFacetSize,absFacetSize,cellPairingIds,interplanarAngles,angleWeights
0.180685,0.508331,-0.819882,6.09081,3.91136,11.5242,1,0.0207578,0.00183719,8,35.0172,0.0311162
-0.385339,0.347628,-0.824524,6.03547,3.86626,11.4992,2,0.0621093,0.00549704,13,48.0633,0.0112623
0.811835,0.430856,-0.337142,6.02117,3.89046,11.6022,3,0.00772746,0.000683926,19,87.8246,0.0367331
-0.089844,-0.775933,-0.54414,6.01567,3.78967,11.54,4,0.159434,0.0141109,26,72.6845,0.0370163
-0.861418,0.221306,-0.400093,5.94124,3.83002,11.5984,5,0.170777,0.0151148,34,49.9843,0.0161128
0.207028,0.940438,-0.118046,6.04745,3.90138,11.6075,6,0.0131665,0.00116532,43,124.337,0.00953901
-0.69869,-0.703416,0.081605,5.96844,3.83828,11.6282,7,0.00619231,0.000548056,53,120.439,0.0362635
0.220372,-0.954007,0.0517011,6.00626,3.78458,11.6298,8,0.143323,0.012685,64,79.4529,0.0302603
-0.479773,0.817866,0.189476,6.00536,3.92766,11.6485,9,0.055808,0.00493934,76,138.184,0.0129713
0.489886,-0.566676,0.629649,6.02592,3.79662,11.6764,10,0.00943285,0.000834863,89,148.816,0.034508
-0.393632,-0.034343,0.877712,5.96117,3.81898,11.6856,11,0.102219,0.00904701,18,83.0791,0.0137448
,,,,,,,,,25,76.6886,0.0893942
,,,,,,,,,33,38.9649,0.0910903
,,,,,,,,,42,68.6259,0.0217271
,,,,,,,,,52,92.518,0.0112618
,,,,,,,,,63,118.731,0.0866631
,,,,,,,,,75,70.597,0.0587903
,,,,,,,,,88,161.658,0.0163783
,,,,,,,,,102,128.514,0.0772692
,,,,,,,,,32,103.895,0.0147405
,,,,,,,,,41,119.428,0.0147859
,,,,,,,,,51,49.7973,0.00973905
,,,,,,,,,62,157.204,0.00687523
,,,,,,,,,74,105.07,0.0146643
,,,,,,,,,87,96.1246,0.0135752
,,,,,,,,,101,93.5148,0.00849541
,,,,,,,,,116,131.979,0.0143687
,,,,,,,,,50,82.363,0.164911
,,,,,,,,,61,137.791,0.0243243
,,,,,,,,,73,53.4345,0.0119216
,,,,,,,,,86,42.122,0.15095
,,,,,,,,,100,138.99,0.0826762
,,,,,,,,,115,86.7339,0.0178119
,,,,,,,,,131,116.971,0.124571
,,,,,,,,,72,85.3309,0.0244482
,,,,,,,,,85,64.7695,0.0119513
,,,,,,,,,99,116.165,0.15585
,,,,,,,,,114,56.6459,0.0841249
,,,,,,,,,130,146.886,0.0178782
,,,,,,,,,147,91.2016,0.12789
,,,,,,,,,98,147.703,0.00842315
,,,,,,,,,113,154.373,0.0241175
,,,,,,,,,129,46.3555,0.0213063
,,,,,,,,,146,122.196,0.0109913
,,,,,,,,,164,103.462,0.0233282
,,,,,,,,,128,57.6925,0.0118717
,,,,,,,,,145,103.504,0.0111477
,,,,,,,,,163,83.6472,0.00747655
,,,,,,,,,182,67.2164,0.0116772
,,,,,,,,,162,157.542,0.0803348
,,,,,,,,,181,44.7732,0.0177007
,,,,,,,,,201,90.5223,0.119331
,,,,,,,,,200,127.743,0.016138
,,,,,,,,,221,69.4263,0.0721983
,,,,,,,,,242,66.2549,0.0172718
