facetNormals:0,facetNormals:1,facetNormals:2,FacetCenters:0,FacetCenters:1,FacetCenters:2,FacetIds,relFacetSize,absFacetSize,cellPairingIds,interplanarAngles,angleWeights
-0.467299,0.244207,-0.844922,6.6155,5.64068,11.9857,1,0.0125985,0.0012168,8,68.9274,0.0214042
0.633383,0.0830532,-0.740904,6.70422,5.66566,12.0401,2,0.0710991,0.00686697,13,65.1115,0.0213297
0.00596052,-0.671335,-0.666696,6.65733,5.54648,12.032,3,0.0694853,0.0067111,19,38.5098,0.0215962
-0.0652035,0.71748,-0.654087,6.65395,5.68878,12.0234,4,0.0755622,0.00729803,26,81.0979,0.0158823
0.659683,-0.35572,-0.648437,6.6876,5.58087,12.0374,5,0.0214815,0.00207475,34,38.2704,0.0234157
-0.803445,-0.183467,-0.501389,6.58228,5.59421,12.0416,6,0.165615,0.0159956,43,93.0212,0.0151493
0.837865,-0.24521,-0.472594,6.69146,5.59349,12.0346,7,0.0189954,0.00183463,53,56.521,0.0183038
-0.350429,0.903695,-0.186838,6.642,5.70857,12.0549,8,0.0334532,0.00323101,64,106.063,0.0202855
0.938521,-0.052373,-0.219395,6.68586,5.59459,12.0221,9,0.0520338,0.00502558,76,94.6919,0.0210789
-0.128884,-0.967655,-0.11364,6.63314,5.51587,12.085,10,0.0644866,0.00622831,89,102.23,0.0213841
-0.54421,-0.742049,0.330669,6.59111,5.53843,12.1542,11,0.0706579,0.00682436,103,83.8859,0.0227961
-0.521799,0.736914,0.378653,6.60157,5.66581,12.1101,12,0.119622,0.0115534,118,102.863,0.0139684
-0.69871,0.146349,0.689102,6.57664,5.59176,12.1767,13,0.0156725,0.0015137,18,61.4774,0.070283
,,,,,,,,,25,58.1089,0.0732628
,,,,,,,,,33,26.3589,0.0329943
,,,,,,,,,42,99.3085,0.0994878
,,,,,,,,,52,27.6207,0.0299808
,,,,,,,,,63,90.5027,0.0454986
,,,,,,,,,75,37.1493,0.0600905
,,,,,,,,,88,94.6417,0.0676316
,,,,,,,,,102,132.913,0.0708779
,,,,,,,,,117,125.032,0.0891879
,,,,,,,,,133,165.792,0.0256836
,,,,,,,,,32,92.8627,0.0723964
,,,,,,,,,41,43.9533,0.0328175
,,,,,,,,,51,60.2684,0.097897
,,,,,,,,,62,58.9337,0.0298347
,,,,,,,,,74,121.228,0.045163
,,,,,,,,,87,78.1831,0.0595064
,,,,,,,,,101,38.8069,0.0668927
,,,,,,,,,116,72.7428,0.0700667
,,,,,,,,,132,144.083,0.0879073
,,,,,,,,,149,126.761,0.0255763
,,,,,,,,,50,82.4986,0.0334528
,,,,,,,,,61,74.6359,0.103776
,,,,,,,,,73,85.3356,0.0303589
,,,,,,,,,86,34.3044,0.0463751
,,,,,,,,,100,87.2702,0.0616287
,,,,,,,,,115,129.752,0.0695864
,,,,,,,,,131,138.553,0.0730278
,,,,,,,,,148,70.689,0.0926191
,,,,,,,,,166,108.114,0.0259605
,,,,,,,,,72,98.3986,0.0380302
,,,,,,,,,85,15.8572,0.0201621
,,,,,,,,,99,116.172,0.0261629
,,,,,,,,,114,35.3731,0.030409
,,,,,,,,,130,70.0155,0.0322275
,,,,,,,,,147,108.623,0.0329466
,,,,,,,,,165,151.39,0.0364223
,,,,,,,,,184,167.447,0.0181229
,,,,,,,,,98,114.113,0.0340817
,,,,,,,,,113,77.2945,0.0556629
,,,,,,,,,129,132.95,0.0791879
,,,,,,,,,146,69.1096,0.0928281
,,,,,,,,,164,64.3989,0.099055
,,,,,,,,,183,84.2772,0.13891
,,,,,,,,,203,78.6104,0.0286352
,,,,,,,,,128,115.827,0.0242316
,,,,,,,,,145,19.567,0.0278309
,,,,,,,,,163,79.1892,0.0293464
,,,,,,,,,182,116.313,0.0299414
,,,,,,,,,202,145.065,0.0327847
,,,,,,,,,223,164.032,0.0171747
,,,,,,,,,162,110.599,0.0407243
,,,,,,,,,181,146.404,0.0440533
,,,,,,,,,201,124.137,0.0454079
,,,,,,,,,222,36.3879,0.0522846
,,,,,,,,,244,75.3109,0.0213451
,,,,,,,,,200,92.7401,0.0575948
,,,,,,,,,221,125.228,0.0599323
,,,,,,,,,243,130.308,0.0725216
,,,,,,,,,266,148.273,0.0240894
,,,,,,,,,242,38.6412,0.0674313
,,,,,,,,,265,135.714,0.0837984
,,,,,,,,,289,97.6536,0.0252165
,,,,,,,,,288,98.2661,0.08884
,,,,,,,,,313,59.0125,0.0256546
,,,,,,,,,338,40.9853,0.027714
