Q	U	V
{$V$}	{[mm$^3$]}	0.0040575
{$d_v$}	{[mm]}	0.197888
{$S_c$}	{[mm$^2$]}	0.256739
{$S_o$}	{[mm$^2$]}	0.136437
{$S_l/S_o$}	[]	0.881740
{$\Psi$}	[]	0.479179
{$\eta$}	[]	0.504855
{med($\theta_e$)}	{[$^\circ$]}	
{$\Upsilon$}	[]	12
{$\Xi$}	[]	3
