"cellPairingIds","interplanarAngles","angleWeights"
8,33.4985,0.0232243
13,48.1547,0.0213808
19,45.684,0.0217576
53,84.5055,0.0204214
64,90.9336,0.0152449
63,63.4793,0.052793
75,61.1668,0.0281139
102,78.64,0.0677786
32,81.4991,0.0508976
41,22.9439,0.0603686
51,67.737,0.0575643
87,112.178,0.0254569
132,98.1345,0.0741477
61,67.1249,0.0603792
86,52.0523,0.045778
115,61.0806,0.0245487
72,63.4203,0.0741862
165,81.7959,0.104229
184,134.802,0.0590901
146,61.7976,0.0260011
203,81.6836,0.0564006
181,48.3549,0.0228611
201,49.7949,0.048394
244,58.1708,0.043454
221,37.3897,0.0268159
243,65.4042,0.0309488
289,31.9428,0.0238643
288,76.4601,0.0869879
313,62.0176,0.0531212
338,92.9373,0.0722283
