Q	U	V
{$V$}	{[mm$^3$]}	0.00741917
{$d_v$}	{[mm]}	0.241983
{$S_c$}	{[mm$^2$]}	0.29894
{$S_o$}	{[mm$^2$]}	0.196303
{$S_l/S_o$}	[]	0.522850
{$\Psi$}	[]	0.615371
{$\eta$}	[]	0.635084
{med($\theta_e$)}	{[$^\circ$]}	76.1516
{$\Upsilon$}	[]	11
{$\Xi$}	[]	6
