facetNormals:0,facetNormals:1,facetNormals:2,FacetCenters:0,FacetCenters:1,FacetCenters:2,FacetIds,relFacetSize,absFacetSize,cellPairingIds,interplanarAngles,angleWeights
-0.492416,0.339655,-0.76836,4.61823,7.41131,12.1296,1,0.0374084,0.00698821,8,39.9446,0.0385386
0.0931943,0.652002,-0.718632,4.69457,7.40986,12.099,2,0.0397392,0.00742364,13,32.1534,0.0438843
-0.845238,0.322775,-0.360716,4.56107,7.43969,12.2086,3,0.0530717,0.00991425,19,73.0193,0.0519197
-0.634794,-0.668003,-0.241021,4.62934,7.35247,12.1573,4,0.0848245,0.015846,26,96.2866,0.0555584
-0.208463,-0.904233,-0.135969,4.64866,7.33999,12.1622,5,0.107919,0.0201603,34,118.835,0.0395405
0.772265,-0.568595,-0.152714,4.74734,7.34678,12.1285,6,0.0419305,0.00783298,43,86.9414,0.0397779
0.488228,0.812874,-0.0176879,4.58403,7.35995,12.1528,7,0.042468,0.0079334,53,101.865,0.0468407
0.896454,0.100268,-0.283787,4.7557,7.40026,12.134,8,0.0626335,0.0117005,64,122.848,0.0288644
0.254605,-0.949624,0.0961027,4.70872,7.32323,12.1999,9,0.0234977,0.00438957,76,138.146,0.0277325
0.147732,-0.864118,0.456224,4.67251,7.35085,12.2174,10,0.0220335,0.00411605,89,151.889,0.0360444
0.797317,-0.394609,0.40919,4.72173,7.38486,12.219,11,0.0347764,0.00649653,103,97.8547,0.0372275
-0.764399,-0.352042,0.504166,4.56121,7.40888,12.2681,12,0.0370483,0.00692095,118,156.601,0.0172331
0.421605,-0.686945,0.583454,4.70473,7.35332,12.1967,13,0.0111953,0.00209137,134,144.096,0.0457441
0.750201,0.171872,0.591856,4.72706,7.39653,12.2354,14,0.0588599,0.0109955,151,165.399,0.039437
0.267213,-0.400529,0.853552,4.64613,7.39517,12.226,15,0.0416982,0.0077896,169,142.673,0.0213755
0.239165,0.209584,0.927242,4.67093,7.45374,12.2455,16,0.0149627,0.00279516,188,127.055,0.0517947
-0.341842,-0.180193,0.858107,4.61149,7.43228,12.2968,17,0.084161,0.015722,18,65.6882,0.0454478
,,,,,,,,,25,110.258,0.0541227
,,,,,,,,,33,124.004,0.0580885
,,,,,,,,,42,101.518,0.0408055
,,,,,,,,,52,50.487,0.0410583
,,,,,,,,,63,67.4932,0.0486264
,,,,,,,,,75,133.635,0.0295327
,,,,,,,,,88,155.627,0.0283489
,,,,,,,,,102,119.984,0.0370925
,,,,,,,,,117,133.898,0.0383466
,,,,,,,,,133,148.599,0.0174692
,,,,,,,,,150,104.9,0.0474456
,,,,,,,,,168,152.798,0.0406952
,,,,,,,,,187,122.074,0.0217398
,,,,,,,,,207,146.615,0.0539869
,,,,,,,,,32,63.9197,0.0652923
,,,,,,,,,41,94.182,0.0711525
,,,,,,,,,51,145.68,0.0468478
,,,,,,,,,62,98.9627,0.0471814
,,,,,,,,,74,132.561,0.0574575
,,,,,,,,,87,125.327,0.0325734
,,,,,,,,,101,126.188,0.0311391
,,,,,,,,,116,174.196,0.0420189
,,,,,,,,,132,68.4744,0.0436355
,,,,,,,,,149,144.452,0.0184901
,,,,,,,,,167,146.889,0.0558161
,,,,,,,,,186,133.996,0.0467025
,,,,,,,,,206,119.418,0.0233439
,,,,,,,,,227,94.9288,0.0650948
,,,,,,,,,50,30.5735,0.0949883
,,,,,,,,,61,94.5638,0.0561198
,,,,,,,,,73,159.961,0.0565992
,,,,,,,,,86,129.065,0.0720592
,,,,,,,,,100,61.4592,0.0368009
,,,,,,,,,115,66.6235,0.0349806
,,,,,,,,,131,111.455,0.0493289
,,,,,,,,,148,50.141,0.0515719
,,,,,,,,,166,86.9382,0.0197799
,,,,,,,,,185,142.5,0.0694962
,,,,,,,,,205,96.6313,0.0559114
,,,,,,,,,226,123.497,0.0254382
,,,,,,,,,248,81.6261,0.0844914
,,,,,,,,,72,65.7599,0.0603952
,,,,,,,,,85,159.735,0.0609509
,,,,,,,,,99,105.631,0.0792642
,,,,,,,,,114,31.1911,0.0385924
,,,,,,,,,130,42.0232,0.0365954
,,,,,,,,,147,81.5488,0.052602
,,,,,,,,,165,63.5979,0.0551603
,,,,,,,,,184,60.8934,0.0202861
,,,,,,,,,204,115.519,0.076174
,,,,,,,,,225,78.0433,0.060154
,,,,,,,,,247,113.423,0.0262815
,,,,,,,,,270,82.3483,0.0945708
,,,,,,,,,98,95.1365,0.0421975
,,,,,,,,,113,42.3529,0.0502325
,,,,,,,,,129,41.1897,0.0301176
,,,,,,,,,146,56.065,0.0288874
,,,,,,,,,164,35.1378,0.0380198
,,,,,,,,,183,119.364,0.0393385
,,,,,,,,,203,49.5349,0.0176721
,,,,,,,,,224,65.4826,0.0489734
,,,,,,,,,246,71.3867,0.041814
,,,,,,,,,269,94.5837,0.0220551
,,,,,,,,,293,108.672,0.0559738
,,,,,,,,,128,54.2321,0.0506162
,,,,,,,,,145,133.874,0.0302551
,,,,,,,,,163,132.929,0.0290139
,,,,,,,,,182,86.2173,0.0382392
,,,,,,,,,202,135.912,0.0395735
,,,,,,,,,223,112.615,0.0177194
,,,,,,,,,245,57.443,0.0493381
,,,,,,,,,268,103.072,0.0420796
,,,,,,,,,292,73.0693,0.0221288
,,,,,,,,,317,111.599,0.0564507
,,,,,,,,,162,83.4997,0.0341744
,,,,,,,,,181,95.1372,0.0325991
,,,,,,,,,201,52.8604,0.0447217
,,,,,,,,,222,158.581,0.0465575
,,,,,,,,,244,81.2279,0.0189953
,,,,,,,,,267,55.3658,0.0606881
,,,,,,,,,291,92.6498,0.0500654
,,,,,,,,,316,91.7139,0.0241549
,,,,,,,,,342,129.664,0.0718187
,,,,,,,,,200,22.4842,0.022742
,,,,,,,,,221,50.3644,0.0280455
,,,,,,,,,243,78.8057,0.0287566
,,,,,,,,,266,33.9093,0.0151652
,,,,,,,,,290,84.9352,0.033587
,,,,,,,,,315,56.7767,0.0300574
,,,,,,,,,341,92.9019,0.0182831
,,,,,,,,,368,79.6799,0.0367381
,,,,,,,,,242,48.165,0.0269758
,,,,,,,,,265,64.2441,0.027633
,,,,,,,,,289,20.3324,0.0148468
,,,,,,,,,314,75.9873,0.0320642
,,,,,,,,,340,36.85,0.028832
,,,,,,,,,367,73.3694,0.0178224
,,,,,,,,,395,57.7206,0.0349239
,,,,,,,,,288,105.967,0.0358764
,,,,,,,,,313,29.744,0.0169379
,,,,,,,,,339,35.6539,0.0437209
,,,,,,,,,366,41.3506,0.037924
,,,,,,,,,394,59.4843,0.0209231
,,,,,,,,,423,80.6525,0.049216
,,,,,,,,,338,77.3533,0.0171947
,,,,,,,,,365,110.629,0.0454739
,,,,,,,,,393,67.5538,0.039236
,,,,,,,,,422,77.3326,0.0213163
,,,,,,,,,452,34.8825,0.0514486
,,,,,,,,,392,55.7614,0.0188124
,,,,,,,,,421,24.7119,0.0176514
,,,,,,,,,451,59.3073,0.0128077
,,,,,,,,,482,59.14,0.0197618
,,,,,,,,,450,47.9879,0.0488146
,,,,,,,,,481,36.5823,0.02386
,,,,,,,,,513,76.0382,0.0692725
,,,,,,,,,512,36.5806,0.0220228
,,,,,,,,,545,39.3413,0.0557665
,,,,,,,,,578,42.8668,0.0254081
