facetNormals:0,facetNormals:1,facetNormals:2,FacetCenters:0,FacetCenters:1,FacetCenters:2,FacetIds,relFacetSize,absFacetSize,cellPairingIds,interplanarAngles,angleWeights
-0.203122,-0.441799,-0.843966,3.29269,3.66814,9.43043,1,0.0320385,0.00468967,8,45.5858,0.0195619
0.527786,-0.249678,-0.78929,3.34278,3.69543,9.41793,2,0.0140792,0.00206085,13,60.3359,0.0227654
-0.392255,0.515139,-0.734551,3.32056,3.75249,9.41351,3,0.0176553,0.00258432,19,32.3352,0.0323936
-0.642029,-0.157735,-0.706298,3.29743,3.70417,9.41733,4,0.0327566,0.00479478,26,52.3783,0.018083
0.585594,-0.609846,-0.521574,3.3171,3.6788,9.3998,5,0.0125962,0.00184379,34,91.1098,0.0419938
0.510347,0.688132,-0.461302,3.30079,3.83095,9.46595,6,0.0609248,0.00891794,43,95.029,0.0368097
0.0131188,0.887851,-0.370588,3.31349,3.81808,9.46712,7,0.0432506,0.00633085,53,83.0985,0.043592
0.82319,0.227648,-0.451253,3.33708,3.77576,9.44319,8,0.0681778,0.00997961,64,50.2241,0.0412739
-0.195485,-0.940803,-0.182675,3.24487,3.64569,9.47822,9,0.0579901,0.00848836,76,84.5868,0.0284545
0.838971,-0.502858,-0.045292,3.33054,3.73403,9.45293,10,0.0255917,0.00374601,89,75.501,0.042347
0.182796,-0.949394,0.169378,3.28157,3.64955,9.48969,11,0.0624361,0.00913916,103,143.589,0.0298695
0.200751,0.857498,0.40195,3.27828,3.85972,9.53343,12,0.0279756,0.00409496,118,142.382,0.0185876
-0.333904,0.669049,0.615448,3.3236,3.77966,9.50443,13,0.0130914,0.00191626,134,100.627,0.0327476
0.119478,-0.783266,0.591732,3.23514,3.65251,9.56021,14,0.0334889,0.00490197,151,126.955,0.0539555
0.596216,-0.310459,0.684843,3.3194,3.69831,9.5296,15,0.170791,0.0249997,169,150.45,0.0469741
0.632163,0.212176,0.727809,3.29258,3.80499,9.54883,16,0.0879958,0.0128805,18,75.2888,0.0156657
,,,,,,,,,25,74.2383,0.0196937
,,,,,,,,,33,26.4774,0.0132965
,,,,,,,,,42,61.1021,0.0228726
,,,,,,,,,52,85.2789,0.0212431
,,,,,,,,,63,39.3077,0.0233387
,,,,,,,,,75,73.3024,0.0226574
,,,,,,,,,88,51.0679,0.0181649
,,,,,,,,,102,78.0319,0.022977
,,,,,,,,,117,116.589,0.0187314
,,,,,,,,,133,150.686,0.0135673
,,,,,,,,,150,102.397,0.019824
,,,,,,,,,168,99.0597,0.0260138
,,,,,,,,,187,107.647,0.0242744
,,,,,,,,,32,43.302,0.0229441
,,,,,,,,,41,99.5112,0.0147027
,,,,,,,,,51,58.829,0.027377
,,,,,,,,,62,39.743,0.0250748
,,,,,,,,,74,82.3546,0.0280474
,,,,,,,,,87,106.61,0.0270693
,,,,,,,,,101,125.36,0.0208953
,,,,,,,,,116,135.472,0.0275268
,,,,,,,,,132,85.9025,0.0216484
,,,,,,,,,149,88.5769,0.0150346
,,,,,,,,,167,156.06,0.0231211
,,,,,,,,,186,162.642,0.0320024
,,,,,,,,,206,134.154,0.0294099
,,,,,,,,,50,84.7097,0.0181956
,,,,,,,,,61,96.7341,0.0426059
,,,,,,,,,73,83.0102,0.0372791
,,,,,,,,,86,105.243,0.0442519
,,,,,,,,,100,64.798,0.041865
,,,,,,,,,115,116.815,0.0287342
,,,,,,,,,131,95.2712,0.0429695
,,,,,,,,,148,125.815,0.0301779
,,,,,,,,,166,110.352,0.0187065
,,,,,,,,,185,112.824,0.0331187
,,,,,,,,,205,151.714,0.0549702
,,,,,,,,,226,176.715,0.0477414
,,,,,,,,,72,82.8803,0.0208763
,,,,,,,,,85,110.868,0.0195103
,,,,,,,,,99,52.9191,0.0212639
,,,,,,,,,114,55.1996,0.0206968
,,,,,,,,,130,32.3689,0.0168828
,,,,,,,,,147,52.1967,0.0209632
,,,,,,,,,165,129.756,0.017371
,,,,,,,,,184,163.946,0.012839
,,,,,,,,,204,75.9192,0.0183067
,,,,,,,,,225,79.0381,0.0234621
,,,,,,,,,247,98.138,0.0220379
,,,,,,,,,98,32.6134,0.0505884
,,,,,,,,,113,33.3729,0.0643476
,,,,,,,,,129,134.148,0.0594212
,,,,,,,,,146,83.7922,0.0360433
,,,,,,,,,164,131.926,0.0616712
,,,,,,,,,183,57.4287,0.0383442
,,,,,,,,,203,89.6303,0.0215517
,,,,,,,,,224,141.303,0.0432205
,,,,,,,,,246,103.961,0.0898118
,,,,,,,,,269,82.0472,0.0719998
,,,,,,,,,128,65.8575,0.052926
,,,,,,,,,145,144.92,0.0495474
,,,,,,,,,163,116.384,0.0321563
,,,,,,,,,182,163.026,0.0511019
,,,,,,,,,202,48.6803,0.0339751
,,,,,,,,,223,67.1691,0.020099
,,,,,,,,,245,163.676,0.0377488
,,,,,,,,,268,124.397,0.0690222
,,,,,,,,,292,94.4108,0.0579958
,,,,,,,,,162,108.044,0.0626726
,,,,,,,,,181,50.8947,0.0372143
,,,,,,,,,201,98.6184,0.0651808
,,,,,,,,,222,78.9593,0.0396723
,,,,,,,,,244,115.333,0.021965
,,,,,,,,,267,111.299,0.0449153
,,,,,,,,,291,83.1172,0.0974533
,,,,,,,,,316,75.4052,0.0768294
,,,,,,,,,200,70.6486,0.0355117
,,,,,,,,,221,30.5827,0.060131
,,,,,,,,,243,166.164,0.0377431
,,,,,,,,,266,135.584,0.0213605
,,,,,,,,,290,51.2483,0.0424583
,,,,,,,,,315,86.9204,0.0865822
,,,,,,,,,341,118.194,0.0699093
,,,,,,,,,242,49.5859,0.0363032
,,,,,,,,,265,107.243,0.0267306
,,,,,,,,,289,132.812,0.0173218
,,,,,,,,,314,61.1445,0.0290125
,,,,,,,,,340,48.2811,0.0445134
,,,,,,,,,367,66.1569,0.0396516
,,,,,,,,,288,138.287,0.0386385
,,,,,,,,,313,128.518,0.0216444
,,,,,,,,,339,26.8922,0.0435948
,,,,,,,,,366,56.5109,0.0914433
,,,,,,,,,394,87.7882,0.0730446
,,,,,,,,,338,36.4573,0.0178362
,,,,,,,,,365,115.346,0.0304849
,,,,,,,,,393,82.0338,0.0480762
,,,,,,,,,422,50.9981,0.0424541
,,,,,,,,,392,102.039,0.0188241
,,,,,,,,,421,89.094,0.0243186
,,,,,,,,,451,66.6556,0.0227919
,,,,,,,,,450,40.6811,0.0559976
,,,,,,,,,481,69.6155,0.0485144
,,,,,,,,,512,31.2888,0.116149
