facetNormals:0,facetNormals:1,facetNormals:2,FacetCenters:0,FacetCenters:1,FacetCenters:2,FacetIds,relFacetSize,absFacetSize,cellPairingIds,interplanarAngles,angleWeights
0.227047,0.00795619,-0.945945,5.65084,6.44905,10.837,1,0.0371494,0.00580528,8,27.1726,0.0282897
0.618181,-0.138331,-0.753323,5.65359,6.40901,10.848,2,0.0228422,0.00356952,13,37.6505,0.035555
-0.0244229,0.563619,-0.794672,5.62037,6.48743,10.8795,3,0.0340918,0.00532748,19,48.6609,0.0269001
0.336409,0.724655,-0.586349,5.6059,6.47072,10.9304,4,0.0210834,0.00329467,26,73.2646,0.0615445
-0.787431,0.287095,-0.47135,5.60017,6.50431,10.8853,5,0.179262,0.028013,34,64.7269,0.0379461
0.5557,0.756583,-0.291896,5.60062,6.49892,10.9979,6,0.0387777,0.00605975,43,94.382,0.0587387
-0.590185,0.761629,-0.059394,5.60938,6.58551,10.9973,7,0.140238,0.0219149,53,113.785,0.0355376
-0.847586,-0.436704,0.196691,5.59029,6.49333,11.0046,8,0.03406,0.00532251,64,106.307,0.0297773
-0.428909,-0.870074,0.174333,5.59115,6.46832,10.9803,9,0.0248466,0.00388275,76,123.211,0.0446041
-0.718288,0.551539,0.386986,5.61377,6.57656,11.0835,10,0.0558017,0.00872006,89,124.645,0.0539497
-0.156173,-0.799342,0.521093,5.61841,6.43111,10.9275,11,0.0984912,0.0153911,18,58.1922,0.0273556
,,,,,,,,,25,55.7173,0.0219276
,,,,,,,,,33,100.434,0.040521
,,,,,,,,,42,61.6981,0.0287494
,,,,,,,,,52,116.6,0.0392855
,,,,,,,,,63,129.672,0.0273453
,,,,,,,,,75,106.537,0.0238023
,,,,,,,,,88,146.881,0.0324153
,,,,,,,,,102,113.437,0.0370838
,,,,,,,,,32,26.254,0.0260541
,,,,,,,,,41,53.6374,0.0572886
,,,,,,,,,51,47.6976,0.0362841
,,,,,,,,,62,58.549,0.0548497
,,,,,,,,,74,113.725,0.0340759
,,,,,,,,,87,130.082,0.0287441
,,,,,,,,,101,88.7538,0.0423252
,,,,,,,,,116,155.997,0.0506512
,,,,,,,,,50,76.6816,0.0377293
,,,,,,,,,61,21.5135,0.0273154
,,,,,,,,,73,66.0601,0.0366559
,,,,,,,,,86,137.995,0.0260448
,,,,,,,,,100,153.885,0.0228108
,,,,,,,,,115,94.0466,0.0306038
,,,,,,,,,131,168.02,0.0347319
,,,,,,,,,72,95.0238,0.0637625
,,,,,,,,,85,39.9727,0.157367
,,,,,,,,,99,61.3161,0.0572436
,,,,,,,,,114,89.6511,0.043644
,,,,,,,,,130,55.1206,0.0851099
,,,,,,,,,147,112.255,0.127132
,,,,,,,,,98,73.7472,0.0607557
,,,,,,,,,113,153.811,0.0362661
,,,,,,,,,129,167.94,0.030287
,,,,,,,,,146,95.6209,0.0457576
,,,,,,,,,164,152.57,0.0556465
,,,,,,,,,128,80.4489,0.0548085
,,,,,,,,,145,116.188,0.042214
,,,,,,,,,163,30.2809,0.0798362
,,,,,,,,,182,125.92,0.115715
,,,,,,,,,162,35.8449,0.0287328
,,,,,,,,,181,62.4089,0.0423007
,,,,,,,,,201,51.6587,0.050616
,,,,,,,,,200,96.1708,0.0343835
,,,,,,,,,221,26.4349,0.0396825
,,,,,,,,,242,97.6666,0.0712408
