"cellPairingIds","interplanarAngles","angleWeights"
8,48.8857,0.0212207
13,56.0439,0.0259143
19,56.715,0.0321147
26,36.3189,0.0301795
34,50.259,0.0261978
43,61.9127,0.0348775
18,42.4894,0.0283048
25,35.664,0.035869
88,51.7959,0.0369225
102,56.434,0.0197603
62,38.2409,0.0592495
87,54.4715,0.0620409
101,61.4166,0.0539117
61,27.9403,0.0528354
131,51.5541,0.028884
72,45.7606,0.0477932
85,81.9499,0.0875342
99,32.0474,0.0319148
113,74.9548,0.0274956
164,75.5937,0.0240073
128,76.4701,0.0372162
145,46.1906,0.161254
202,45.3131,0.0752584
201,150.137,0.0192071
222,59.1346,0.0301234
244,159.701,0.0210335
200,69.4386,0.127025
243,55.4568,0.0798201
266,53.3951,0.0372098
242,27.3416,0.0295633
289,35.8259,0.0341238
313,49.4582,0.0189294
338,102.306,0.0294457
