facetNormals:0,facetNormals:1,facetNormals:2,FacetCenters:0,FacetCenters:1,FacetCenters:2,FacetIds,relFacetSize,absFacetSize,cellPairingIds,interplanarAngles,angleWeights
0.193579,-0.191383,-0.949564,4.02709,7.03946,9.8795,1,0.0159937,0.0014199,8,47.446,0.0169058
0.0850886,0.572366,-0.78295,4.08229,7.15967,9.8752,2,0.0179282,0.00159165,13,51.5308,0.0285645
-0.619101,-0.0525379,-0.741854,4.06654,7.09805,9.85228,3,0.133471,0.0118494,19,44.8944,0.0194455
0.303511,-0.772475,-0.494343,4.03834,6.99851,9.9155,4,0.0247974,0.00220149,26,39.9878,0.0204659
0.67406,-0.435739,-0.550517,4.04061,7.01297,9.90376,5,0.0284099,0.0025222,34,68.6209,0.020653
-0.534505,-0.74416,-0.328029,4.05801,7.00928,9.91932,6,0.029143,0.00258729,43,83.2832,0.0117146
-0.34598,0.86489,-0.366654,4.11076,7.20061,9.87498,7,0.00924188,0.000820485,53,89.4197,0.0191539
0.0613419,0.955897,-0.190443,4.12173,7.19851,9.89936,8,0.0238704,0.00211919,64,93.1212,0.0282284
-0.88307,0.376258,-0.200317,4.03628,7.12594,9.89791,9,0.120107,0.010663,76,92.944,0.0252052
-0.149709,-0.919182,0.205697,4.05605,6.99222,9.97101,10,0.0594387,0.00527691,89,101.311,0.0247829
-0.56377,0.81112,-0.076257,4.0761,7.19289,9.91455,11,0.0550173,0.00488438,103,134.638,0.0246842
-0.248543,0.791045,0.496188,4.0799,7.18059,9.97618,12,0.0540575,0.00479917,118,117.99,0.0292038
-0.922127,0.134611,0.256809,4.01225,7.06109,9.96589,13,0.167796,0.0148967,134,94.6709,0.0129046
0.868991,-0.277051,0.314728,4.12695,7.15508,9.89415,14,0.0108157,0.000960205,151,135.751,0.0155487
0.439476,-0.166223,0.840877,4.05469,7.06928,10.0046,15,0.0151278,0.00134303,169,158.276,0.0267427
-0.451935,-0.040134,0.830559,4.05602,7.06842,10.0188,16,0.0815527,0.00724016,18,58.0828,0.0316104
,,,,,,,,,25,91.7832,0.0208106
,,,,,,,,,33,75.3922,0.0219836
,,,,,,,,,42,103.09,0.0221996
,,,,,,,,,52,39.4432,0.0121965
,,,,,,,,,63,42.4606,0.0204769
,,,,,,,,,75,71.8705,0.0311993
,,,,,,,,,88,138.917,0.0275474
,,,,,,,,,102,60.4304,0.0270438
,,,,,,,,,117,87.3724,0.0269263
,,,,,,,,,133,102.425,0.0323952
,,,,,,,,,150,110.635,0.013492
,,,,,,,,,168,139.784,0.0164094
,,,,,,,,,187,140.572,0.0293945
,,,,,,,,,32,76.4252,0.0418243
,,,,,,,,,41,89.1492,0.0468479
,,,,,,,,,51,49.3589,0.0478402
,,,,,,,,,62,62.9356,0.0172868
,,,,,,,,,74,86.78,0.040498
,,,,,,,,,87,44.6061,0.126437
,,,,,,,,,101,90.7214,0.0822493
,,,,,,,,,116,67.7518,0.077917
,,,,,,,,,132,105.876,0.0769495
,,,,,,,,,149,66.4789,0.148678
,,,,,,,,,167,144.164,0.0200099
,,,,,,,,,186,162.133,0.0271755
,,,,,,,,,206,111.406,0.101244
,,,,,,,,,50,30.1136,0.026481
,,,,,,,,,61,52.3101,0.0267951
,,,,,,,,,73,127.735,0.0134653
,,,,,,,,,86,131.541,0.024325
,,,,,,,,,100,119.028,0.0411076
,,,,,,,,,115,52.3395,0.0349951
,,,,,,,,,131,142.567,0.0341863
,,,,,,,,,148,176.557,0.0339988
,,,,,,,,,166,123.163,0.0432092
,,,,,,,,,185,69.7782,0.0150619
,,,,,,,,,205,99.5195,0.0187916
,,,,,,,,,226,124.417,0.0380309
,,,,,,,,,72,81.2213,0.0287718
,,,,,,,,,85,114.77,0.0139468
,,,,,,,,,99,106.523,0.025943
,,,,,,,,,114,132.839,0.0459506
,,,,,,,,,130,78.4178,0.0384444
,,,,,,,,,147,135.814,0.0374706
,,,,,,,,,165,146.624,0.0372454
,,,,,,,,,184,150.842,0.0485924
,,,,,,,,,204,55.4034,0.0156669
,,,,,,,,,225,95.77,0.0197429
,,,,,,,,,247,143.912,0.0421398
,,,,,,,,,98,110.326,0.0140335
,,,,,,,,,113,135.825,0.0262445
,,,,,,,,,129,74.3315,0.0469049
,,,,,,,,,146,41.3679,0.0391102
,,,,,,,,,164,106.712,0.0381028
,,,,,,,,,183,131.132,0.0378699
,,,,,,,,,203,70.858,0.0496609
,,,,,,,,,224,112.647,0.0157764
,,,,,,,,,246,114.386,0.019917
,,,,,,,,,269,90.0635,0.042941
,,,,,,,,,128,26.4478,0.0133248
,,,,,,,,,145,44.1453,0.0171631
,,,,,,,,,163,149.025,0.0159965
,,,,,,,,,182,21.2241,0.0158254
,,,,,,,,,202,52.5488,0.0157851
,,,,,,,,,223,69.3476,0.0175189
,,,,,,,,,245,132.751,0.00996704
,,,,,,,,,268,128.792,0.011474
,,,,,,,,,292,101.129,0.0166023
,,,,,,,,,162,68.9706,0.0398257
,,,,,,,,,181,174.408,0.0340617
,,,,,,,,,201,38.6842,0.033295
,,,,,,,,,222,46.7657,0.0331171
,,,,,,,,,244,88.5917,0.041795
,,,,,,,,,267,106.744,0.0148863
,,,,,,,,,291,108.088,0.0185191
,,,,,,,,,316,104.042,0.0369311
,,,,,,,,,200,105.814,0.0795229
,,,,,,,,,221,32.6128,0.075466
,,,,,,,,,243,63.8412,0.074558
,,,,,,,,,266,30.8778,0.140002
,,,,,,,,,290,171.08,0.0198444
,,,,,,,,,315,130.952,0.0268711
,,,,,,,,,341,76.4382,0.0971443
,,,,,,,,,242,135.751,0.0571426
,,,,,,,,,265,129.632,0.0566205
,,,,,,,,,289,85.8234,0.0877821
,,,,,,,,,314,78.1287,0.0183012
,,,,,,,,,340,73.5624,0.0241175
,,,,,,,,,367,72.2357,0.0687614
,,,,,,,,,288,39.008,0.0545332
,,,,,,,,,313,50.4763,0.0828647
,,,,,,,,,339,140.596,0.0180776
,,,,,,,,,366,117.911,0.0237306
,,,,,,,,,394,80.2433,0.0657071
,,,,,,,,,338,60.2781,0.0817713
,,,,,,,,,365,107.411,0.018025
,,,,,,,,,393,79.0681,0.02364
,,,,,,,,,422,57.4014,0.0650177
,,,,,,,,,392,144.34,0.0203215
,,,,,,,,,421,103.141,0.0277535
,,,,,,,,,451,46.9383,0.10976
,,,,,,,,,450,41.8226,0.0126134
,,,,,,,,,481,97.5644,0.0190985
,,,,,,,,,512,56.2511,0.0255215
