Q	U	V
{$V$}	{[mm$^3$]}	0.0171159
{$d_v$}	{[mm]}	0.319743
{$S_c$}	{[mm$^2$]}	0.578833
{$S_o$}	{[mm$^2$]}	0.385196
{$S_l/S_o$}	[]	0.502697
{$\Psi$}	[]	0.554878
{$\eta$}	[]	0.568672
{med($\theta_e$)}	{[$^\circ$]}	69.83925
{$\Upsilon$}	[]	11
{$\Xi$}	[]	12
