Q	U	V
{$V$}	{[mm$^3$]}	0.00258388
{$d_v$}	{[mm]}	0.170252
{$S_c$}	{[mm$^2$]}	0.138996
{$S_o$}	{[mm$^2$]}	0.0766269
{$S_l/S_o$}	[]	0.813932
{$\Psi$}	[]	0.655134
{$\eta$}	[]	0.685766
{med($\theta_e$)}	{[$^\circ$]}	51.01345
{$\Upsilon$}	[]	12
{$\Xi$}	[]	6
