Q	U	V
{$V$}	{[mm$^3$]}	0.0114577
{$d_v$}	{[mm]}	0.279705
{$S_c$}	{[mm$^2$]}	0.555605
{$S_o$}	{[mm$^2$]}	0.307571
{$S_l/S_o$}	[]	0.806428
{$\Psi$}	[]	0.442367
{$\eta$}	[]	0.454548
{med($\theta_e$)}	{[$^\circ$]}	77.619
{$\Upsilon$}	[]	9
{$\Xi$}	[]	9
