facetNormals:0,facetNormals:1,facetNormals:2,FacetCenters:0,FacetCenters:1,FacetCenters:2,FacetIds,relFacetSize,absFacetSize,cellPairingIds,interplanarAngles,angleWeights
-0.471194,0.440918,-0.746982,4.19366,4.79947,11.6774,1,0.00737292,0.000822054,8,23.6148,0.0078393
-0.109688,0.620783,-0.759626,4.16112,4.80124,11.652,2,0.00836866,0.000933076,13,79.6066,0.0106888
0.650026,-0.127789,-0.718446,4.22245,4.84461,11.5591,3,0.0194246,0.00216577,19,74.5596,0.00896485
-0.197911,-0.719586,-0.647531,4.15602,4.8579,11.5849,4,0.0114335,0.0012748,26,114.502,0.0113193
0.867538,-0.402136,-0.243794,4.23382,4.82979,11.5899,5,0.0243555,0.00271555,34,105.731,0.0128356
-0.0887391,-0.957281,-0.159886,4.14799,4.88519,11.6024,6,0.0495417,0.00552373,43,124.084,0.0124142
0.977551,-0.0510706,0.0806049,4.24239,4.82272,11.5922,7,0.0392552,0.00437682,53,94.0698,0.0113221
-0.687571,-0.690386,0.118262,4.16781,4.87031,11.6055,8,0.0243818,0.00271849,64,73.5605,0.0135596
0.260035,0.929427,0.0235324,4.18471,4.91796,11.6129,9,0.0842815,0.00939709,76,137.333,0.0122403
0.67682,-0.701091,0.112402,4.23863,4.81445,11.6059,10,0.0360197,0.00401607,89,59.3764,0.0122271
-0.942229,0.0254502,-0.0253531,4.16247,4.87301,11.6001,11,0.0357908,0.00399055,103,101.106,0.0125333
0.739357,0.629309,0.155373,4.2417,4.89932,11.6132,12,0.0417643,0.00465657,118,86.6557,0.0127824
0.136927,0.906211,0.372272,4.18038,4.92334,11.6286,13,0.047999,0.00535171,134,148.648,0.0103491
0.774925,-0.0287159,0.602368,4.24351,4.85175,11.6637,14,0.0173543,0.00193495,151,127.005,0.00969706
-0.38302,-0.605545,0.657854,4.16429,4.84281,11.645,15,0.014161,0.0015789,169,85.3524,0.0138042
-0.43523,0.654905,0.557874,4.10878,4.88438,11.67,16,0.108083,0.0120509,188,169.986,0.014113
0.360164,-0.561845,0.696256,4.17407,4.81073,11.6737,17,0.164424,0.0183327,18,65.8212,0.0116977
,,,,,,,,,25,86.068,0.00966392
,,,,,,,,,33,99.4304,0.012457
,,,,,,,,,42,118.773,0.0143186
,,,,,,,,,52,101.914,0.0137962
,,,,,,,,,63,117.208,0.0124605
,,,,,,,,,75,56.1687,0.0152255
,,,,,,,,,88,127.902,0.0135818
,,,,,,,,,102,81.4483,0.0135654
,,,,,,,,,117,78.6187,0.0139434
,,,,,,,,,133,74.2687,0.0142524
,,,,,,,,,150,125.321,0.011292
,,,,,,,,,168,150.248,0.0105202
,,,,,,,,,187,88.1624,0.0155345
,,,,,,,,,207,164.448,0.0159267
,,,,,,,,,32,63.6537,0.0143944
,,,,,,,,,41,34.947,0.0216124
,,,,,,,,,51,79.1357,0.0279072
,,,,,,,,,62,52.5207,0.0259891
,,,,,,,,,74,117.552,0.0216227
,,,,,,,,,87,87.9741,0.0315726
,,,,,,,,,101,62.0854,0.0252386
,,,,,,,,,116,130.424,0.0251822
,,,,,,,,,132,72.5247,0.0265164
,,,,,,,,,149,107.721,0.0276568
,,,,,,,,,167,85.54,0.0183312
,,,,,,,,,186,132.665,0.0163803
,,,,,,,,,206,144.536,0.0329309
,,,,,,,,,227,101.897,0.0347446
,,,,,,,,,50,73.5846,0.0155617
,,,,,,,,,61,32.7439,0.0185793
,,,,,,,,,73,102.431,0.0177091
,,,,,,,,,86,54.9973,0.0155671
,,,,,,,,,100,140.45,0.0201355
,,,,,,,,,115,72.1087,0.0173574
,,,,,,,,,131,78.5729,0.0173307
,,,,,,,,,148,136.078,0.0179524
,,,,,,,,,166,160.309,0.0184679
,,,,,,,,,185,122.603,0.0137851
,,,,,,,,,205,84.8923,0.0126519
,,,,,,,,,226,141.581,0.0206795
,,,,,,,,,248,97.1029,0.0213804
,,,,,,,,,72,68.8531,0.0326566
,,,,,,,,,85,28.8483,0.0300604
,,,,,,,,,99,111.038,0.0243687
,,,,,,,,,114,99.2969,0.0377904
,,,,,,,,,130,29.596,0.0290609
,,,,,,,,,147,151.99,0.0289861
,,,,,,,,,165,68.8257,0.0307681
,,,,,,,,,184,110.158,0.0323142
,,,,,,,,,204,56.3464,0.0202673
,,,,,,,,,225,105.045,0.0179091
,,,,,,,,,247,144.749,0.0397531
,,,,,,,,,270,67.2101,0.0424266
,,,,,,,,,98,93.0388,0.0438027
,,,,,,,,,113,42.7002,0.0326802
,,,,,,,,,129,166.946,0.0624025
,,,,,,,,,146,51.6549,0.0417122
,,,,,,,,,164,86.05,0.0415583
,,,,,,,,,183,136.306,0.0453218
,,,,,,,,,203,166.947,0.0487581
,,,,,,,,,224,98.2662,0.0257045
,,,,,,,,,246,57.5624,0.022026
,,,,,,,,,269,136.14,0.0679415
,,,,,,,,,293,65.1798,0.0761416
,,,,,,,,,128,130.598,0.0300804
,,,,,,,,,145,77.2897,0.0535629
,,,,,,,,,163,42.8386,0.0375679
,,,,,,,,,182,176.521,0.0374431
,,,,,,,,,202,43.2752,0.0404709
,,,,,,,,,223,83.0493,0.043189
,,,,,,,,,245,33.1419,0.0240683
,,,,,,,,,268,107.7,0.0208136
,,,,,,,,,292,115.92,0.0575931
,,,,,,,,,317,62.5348,0.0633791
,,,,,,,,,162,149.647,0.0378221
,,,,,,,,,181,88.0981,0.0290796
,,,,,,,,,201,47.3291,0.0290047
,,,,,,,,,222,163.313,0.0307891
,,,,,,,,,244,134.106,0.0323374
,,,,,,,,,267,117.281,0.0202764
,,,,,,,,,291,37.3246,0.0179162
,,,,,,,,,316,95.2695,0.0397881
,,,,,,,,,342,76.3999,0.0424664
,,,,,,,,,200,119.963,0.0504699
,,,,,,,,,221,104.113,0.0502448
,,,,,,,,,243,34.6587,0.0558521
,,,,,,,,,266,21.8126,0.0611644
,,,,,,,,,290,78.4999,0.0287821
,,,,,,,,,315,133.544,0.0242478
,,,,,,,,,341,56.875,0.0947099
,,,,,,,,,368,116.274,0.11144
,,,,,,,,,242,135.385,0.0359049
,,,,,,,,,265,85.4406,0.0386799
,,,,,,,,,289,121.072,0.0411553
,,,,,,,,,314,50.5273,0.0234233
,,,,,,,,,340,75.4786,0.0203295
,,,,,,,,,367,136.941,0.0540326
,,,,,,,,,395,40.822,0.0590939
,,,,,,,,,288,137.592,0.0385475
,,,,,,,,,313,97.1064,0.0410055
,,,,,,,,,339,143.697,0.0233747
,,,,,,,,,366,68.9923,0.0202929
,,,,,,,,,394,63.0078,0.0537747
,,,,,,,,,423,114.098,0.0587856
,,,,,,,,,338,41.4217,0.0446651
,,,,,,,,,365,47.8063,0.0245199
,,,,,,,,,393,125.991,0.0211505
,,,,,,,,,422,79.2376,0.0602482
,,,,,,,,,452,88.7375,0.0666095
,,,,,,,,,392,71.7412,0.0254919
,,,,,,,,,421,111.733,0.0218698
,,,,,,,,,451,38.9641,0.0664763
,,,,,,,,,482,102.14,0.0743063
,,,,,,,,,450,82.973,0.0155959
,,,,,,,,,481,91.2124,0.0299067
,,,,,,,,,513,41.008,0.031395
,,,,,,,,,512,81.5921,0.0250411
,,,,,,,,,545,45.2627,0.0260761
,,,,,,,,,578,98.428,0.130429
