"cellPairingIds","interplanarAngles","angleWeights"
19,47.5321,0.0247668
43,61.4501,0.0289622
76,109.547,0.0159595
73,43.4003,0.0528545
115,150.419,0.0212537
131,47.5368,0.0540442
163,151.882,0.0242709
182,61.24,0.0790234
223,58.8091,0.0391034
242,145.904,0.0245187
289,124.026,0.0186206
313,53.8485,0.0397508
