Q	U	V
{$V$}	{[mm$^3$]}	0.00291874
{$d_v$}	{[mm]}	0.177310
{$S_c$}	{[mm$^2$]}	0.178051
{$S_o$}	{[mm$^2$]}	0.101894
{$S_l/S_o$}	[]	0.747414
{$\Psi$}	[]	0.554715
{$\eta$}	[]	0.656306
{med($\theta_e$)}	{[$^\circ$]}	73.3819
{$\Upsilon$}	[]	10
{$\Xi$}	[]	9
