facetNormals:0,facetNormals:1,facetNormals:2,FacetCenters:0,FacetCenters:1,FacetCenters:2,FacetIds,relFacetSize,absFacetSize,cellPairingIds,interplanarAngles,angleWeights
0.141141,-0.142425,-0.966536,3.79383,5.19147,12.4963,1,0.0195636,0.00331406,8,22.4893,0.0155328
-0.0938976,-0.437003,-0.884314,3.79311,5.17662,12.5228,2,0.0128792,0.00218173,13,48.6338,0.0335869
-0.129107,0.562508,-0.72964,3.76946,5.22192,12.5084,3,0.118602,0.020091,19,52.1769,0.0275393
0.783919,0.190178,-0.511876,3.88014,5.21941,12.551,4,0.0464939,0.00787604,26,58.4071,0.0306747
0.289267,-0.871409,-0.356292,3.80938,5.12597,12.5729,5,0.0709982,0.012027,34,76.3508,0.0344242
0.639065,-0.716643,-0.0326185,3.86049,5.14295,12.6282,6,0.143198,0.0242577,43,109.178,0.0155933
0.872895,0.0370099,0.452044,3.87345,5.17045,12.6726,7,0.0129626,0.00219586,53,127.276,0.0343541
0.353318,0.705497,0.53853,3.84963,5.21753,12.6419,8,0.14081,0.0238531,64,139.413,0.0306511
0.044953,-0.47376,0.794998,3.74369,5.18799,12.5548,9,0.0707456,0.0119843,18,63.4838,0.0232352
,,,,,,,,,25,71.7823,0.0201709
,,,,,,,,,33,46.7442,0.0218032
,,,,,,,,,42,72.768,0.0236329
,,,,,,,,,52,120.718,0.0129208
,,,,,,,,,63,149.755,0.0235998
,,,,,,,,,75,123.014,0.0217913
,,,,,,,,,32,64.7407,0.0668008
,,,,,,,,,41,106.979,0.088824
,,,,,,,,,51,121.112,0.129745
,,,,,,,,,62,117.44,0.0233709
,,,,,,,,,74,92.6895,0.128755
,,,,,,,,,87,171.437,0.088626
,,,,,,,,,50,75.0069,0.0561908
,,,,,,,,,61,65.4486,0.0701964
,,,,,,,,,73,60.6991,0.0202731
,,,,,,,,,86,81.4628,0.0699058
,,,,,,,,,100,121.446,0.0561115
,,,,,,,,,72,29.8151,0.0949299
,,,,,,,,,85,86.4974,0.0219227
,,,,,,,,,99,138.482,0.0943992
,,,,,,,,,114,81.0102,0.0708717
,,,,,,,,,98,56.8672,0.0237732
,,,,,,,,,113,108.905,0.141994
,,,,,,,,,129,67.3847,0.0947038
,,,,,,,,,128,52.0453,0.0237398
,,,,,,,,,145,65.2849,0.0219106
,,,,,,,,,162,82.8756,0.0941756
