facetNormals:0,facetNormals:1,facetNormals:2,FacetCenters:0,FacetCenters:1,FacetCenters:2,FacetIds,relFacetSize,absFacetSize,cellPairingIds,interplanarAngles,angleWeights
0.35072,0.0341551,-0.907853,3.47411,6.39348,10.2345,1,0.0183678,0.00330644,8,47.0062,0.0276964
-0.326031,-0.338895,-0.847992,3.38969,6.38424,10.247,2,0.0562792,0.010131,13,68.0935,0.0304034
-0.391921,-0.691785,-0.568643,3.37199,6.34781,10.3041,3,0.0881905,0.0158754,19,76.3201,0.0255677
-0.757416,0.235747,-0.525063,3.34107,6.43134,10.3052,4,0.0420511,0.00756974,26,45.4387,0.0240875
0.87995,-0.0941691,-0.392174,3.51643,6.39609,10.2797,5,0.0349803,0.00629691,34,65.6226,0.0293804
-0.0687142,0.866235,-0.421569,3.39389,6.43887,10.2743,6,0.0733707,0.0132077,43,97.2559,0.0201608
-0.812892,-0.518362,-0.200135,3.32605,6.35675,10.3558,7,0.0223418,0.00402182,53,88.9222,0.0335563
0.317747,-0.895746,0.0698223,3.45876,6.32656,10.3595,8,0.193868,0.0348987,64,122.717,0.0272882
-0.956646,0.0545309,0.199988,3.30054,6.38728,10.3661,9,0.0530542,0.00955043,76,128.075,0.0232474
-0.468373,-0.73332,0.434993,3.33686,6.3168,10.4235,10,0.0316576,0.00569877,89,104.773,0.0178033
0.704771,-0.448528,0.525323,3.41997,6.34042,10.3764,11,0.0172725,0.00310927,103,139.679,0.0298999
-0.328822,0.556958,0.635522,3.34158,6.39901,10.3539,12,0.0803423,0.0144626,118,142.174,0.0209323
0.221198,-0.303624,0.90163,3.38299,6.35505,10.4004,13,0.0243292,0.00437956,18,27.0152,0.0687104
,,,,,,,,,25,48.4102,0.0481358
,,,,,,,,,33,85.2587,0.0431443
,,,,,,,,,42,84.711,0.0636983
,,,,,,,,,52,50.2588,0.0319858
,,,,,,,,,63,81.2384,0.0872344
,,,,,,,,,75,82.5037,0.0546191
,,,,,,,,,88,88.0345,0.0405214
,,,,,,,,,102,123.149,0.0264326
,,,,,,,,,117,134.884,0.0661916
,,,,,,,,,133,140.784,0.0339723
,,,,,,,,,32,62.2943,0.0569481
,,,,,,,,,41,93.4366,0.0500919
,,,,,,,,,51,110.627,0.0801009
,,,,,,,,,62,34.7346,0.0356518
,,,,,,,,,74,60.7326,0.121232
,,,,,,,,,87,76.4928,0.066252
,,,,,,,,,101,62.1993,0.0465906
,,,,,,,,,116,105.923,0.0288873
,,,,,,,,,132,134.188,0.0840836
,,,,,,,,,149,114.066,0.0381373
,,,,,,,,,50,121.62,0.0381912
,,,,,,,,,61,58.6789,0.0534616
,,,,,,,,,73,50.28,0.0291802
,,,,,,,,,86,122.605,0.0691115
,,,,,,,,,100,47.2204,0.0469161
,,,,,,,,,115,92.8816,0.0361216
,,,,,,,,,131,167.183,0.024487
,,,,,,,,,148,86.8987,0.0552069
,,,,,,,,,166,140.071,0.0308245
,,,,,,,,,72,88.5725,0.0473743
,,,,,,,,,85,128.092,0.0272678
,,,,,,,,,99,68.6013,0.0592669
,,,,,,,,,114,167.591,0.0421619
,,,,,,,,,130,123.06,0.0332361
,,,,,,,,,147,61.4601,0.0231259
,,,,,,,,,165,132.327,0.0487398
,,,,,,,,,184,97.9251,0.0286983
,,,,,,,,,98,108.948,0.0342533
,,,,,,,,,113,153.99,0.106453
,,,,,,,,,129,88.2626,0.06158
,,,,,,,,,146,146.827,0.0442307
,,,,,,,,,164,133.695,0.0279623
,,,,,,,,,183,74.2896,0.0766984
,,,,,,,,,203,134.253,0.0365414
,,,,,,,,,128,78.1901,0.0400663
,,,,,,,,,145,42.6098,0.0314427
,,,,,,,,,163,45.2968,0.0261961
,,,,,,,,,182,117.291,0.0194828
,,,,,,,,,202,99.5805,0.0349615
,,,,,,,,,223,102.177,0.0232932
,,,,,,,,,162,111.3,0.0833096
,,,,,,,,,181,54.4955,0.0544274
,,,,,,,,,201,45.2246,0.031719
,,,,,,,,,222,130.307,0.113605
,,,,,,,,,244,64.1947,0.0432329
,,,,,,,,,200,58.6738,0.0396537
,,,,,,,,,221,127.918,0.0260606
,,,,,,,,,243,57.8714,0.0639071
,,,,,,,,,266,92.8687,0.0333602
,,,,,,,,,242,76.3021,0.0223505
,,,,,,,,,265,88.5689,0.0454187
,,,,,,,,,289,57.4489,0.0275137
,,,,,,,,,288,99.5008,0.0284324
,,,,,,,,,313,37.4009,0.0202023
,,,,,,,,,338,68.0431,0.0373485
