facetNormals:0,facetNormals:1,facetNormals:2,FacetCenters:0,FacetCenters:1,FacetCenters:2,FacetIds,relFacetSize,absFacetSize,cellPairingIds,interplanarAngles,angleWeights
-0.0827538,0.161455,-0.916112,5.56016,4.62883,10.9296,1,0.0592919,0.0121074,8,30.0419,0.0352884
-0.308576,0.569834,-0.739183,5.53058,4.65623,10.9557,2,0.0251192,0.00512934,13,70.2111,0.0367018
0.128861,-0.818544,-0.48775,5.5035,4.54534,10.9666,3,0.0265763,0.00542688,19,61.4085,0.0622397
0.789859,0.151,-0.50905,5.65288,4.68738,10.9998,4,0.065496,0.0133743,26,76.6106,0.0528072
-0.547445,-0.726277,-0.304996,5.51408,4.51485,10.9688,5,0.047601,0.00972013,34,69.9526,0.0740462
-0.640776,0.698201,-0.154615,5.54426,4.69852,10.9922,6,0.098576,0.0201292,43,83.7523,0.0503339
0.663998,0.684622,-0.0452487,5.67094,4.72011,11.0607,7,0.0437275,0.00892914,53,84.0345,0.0564329
-0.917754,0.344943,0.0397335,5.48286,4.60283,10.9858,8,0.053837,0.0109935,64,84.2589,0.0439889
0.0314858,0.969294,0.068838,5.63293,4.74387,11.0168,9,0.0349647,0.00713979,76,113.89,0.0646531
-0.528174,0.602715,0.55681,5.55993,4.68909,11.0769,10,0.0710802,0.0145146,89,131.594,0.0819965
-0.627983,-0.0452974,0.671862,5.54419,4.61559,11.0754,11,0.13288,0.0271341,103,136.894,0.0809244
0.440975,-0.65032,0.566496,5.60343,4.58657,11.089,12,0.127409,0.026017,18,98.8651,0.0258272
,,,,,,,,,25,76.4882,0.036312
,,,,,,,,,33,91.1837,0.032885
,,,,,,,,,42,41.2298,0.0400364
,,,,,,,,,52,76.5273,0.0319086
,,,,,,,,,63,62.165,0.0342555
,,,,,,,,,75,59.0351,0.0292353
,,,,,,,,,88,84.3258,0.0371204
,,,,,,,,,102,111.291,0.0422514
,,,,,,,,,117,166.371,0.0419649
,,,,,,,,,32,75.6717,0.0378103
,,,,,,,,,41,43.1692,0.0341091
,,,,,,,,,51,128.812,0.0418655
,,,,,,,,,62,119.549,0.0330598
,,,,,,,,,74,116.433,0.0355859
,,,,,,,,,87,151.678,0.0301988
,,,,,,,,,101,152.595,0.0386876
,,,,,,,,,116,114.813,0.0442937
,,,,,,,,,132,70.3739,0.043979
,,,,,,,,,50,115.067,0.0551328
,,,,,,,,,61,110.63,0.0787012
,,,,,,,,,73,44.2541,0.0524424
,,,,,,,,,86,137.91,0.0590969
,,,,,,,,,100,81.5364,0.0455909
,,,,,,,,,115,131.025,0.0681739
,,,,,,,,,131,164.6,0.0877435
,,,,,,,,,148,92.3788,0.086517
,,,,,,,,,72,96.805,0.0642005
,,,,,,,,,85,157.62,0.0455821
,,,,,,,,,99,75.242,0.0505273
,,,,,,,,,114,142.732,0.0403159
,,,,,,,,,130,109.886,0.0570181
,,,,,,,,,147,78.7862,0.070093
,,,,,,,,,165,86.4137,0.0693081
,,,,,,,,,98,86.2773,0.0605815
,,,,,,,,,113,29.1609,0.0696402
,,,,,,,,,129,46.2176,0.0516199
,,,,,,,,,146,44.0755,0.0826
,,,,,,,,,164,72.43,0.113186
,,,,,,,,,183,152.393,0.111153
,,,,,,,,,128,113.596,0.0482585
,,,,,,,,,145,42.7756,0.0388582
,,,,,,,,,163,87.7407,0.0541454
,,,,,,,,,182,122.967,0.0658013
,,,,,,,,,202,101.1,0.0651092
,,,,,,,,,162,71.1527,0.0423955
,,,,,,,,,181,41.7158,0.0612685
,,,,,,,,,201,49.4474,0.0766278
,,,,,,,,,222,129.652,0.0756908
,,,,,,,,,200,50.3101,0.0468726
,,,,,,,,,221,91.1156,0.055362
,,,,,,,,,243,127.819,0.0548712
,,,,,,,,,242,40.9653,0.0926174
,,,,,,,,,265,109.109,0.091252
,,,,,,,,,288,81.415,0.130087
