facetNormals:0,facetNormals:1,facetNormals:2,FacetCenters:0,FacetCenters:1,FacetCenters:2,FacetIds,relFacetSize,absFacetSize,cellPairingIds,interplanarAngles,angleWeights
0.101681,-0.153649,-0.970576,5.44903,3.98745,12.5091,1,0.0192531,0.0030792,8,43.1735,0.0237973
-0.0551649,0.519312,-0.792537,5.43313,4.04613,12.5011,2,0.031149,0.00498173,13,27.9199,0.0320385
-0.281674,-0.387831,-0.830631,5.39053,3.93637,12.4868,3,0.0953711,0.0152529,19,44.1784,0.0286825
0.543362,0.360849,-0.697088,5.47201,4.05094,12.4869,4,0.0562131,0.00899027,26,72.8172,0.0339859
-0.869918,0.0795729,-0.391592,5.33236,3.98379,12.5299,5,0.144751,0.0231504,34,67.6307,0.0181014
0.231141,-0.931919,-0.208893,5.42476,3.94327,12.5937,6,0.0170796,0.00273158,43,97.5274,0.0331899
-0.0517764,0.958439,-0.0291088,5.42498,4.08301,12.5489,7,0.120197,0.0192233,53,112.194,0.0269464
-0.654757,-0.585049,0.394069,5.34831,3.91627,12.625,8,0.0448795,0.00717767,64,116.316,0.0257847
-0.196062,-0.783824,0.542755,5.35964,3.9131,12.6079,9,0.0390231,0.00624104,76,136.823,0.0291878
-0.716356,0.289107,0.609619,5.33426,4.00335,12.639,10,0.0603053,0.00964475,89,137.298,0.0337127
-0.127804,0.758123,0.592767,5.43749,4.06115,12.6348,11,0.135405,0.0216556,103,162.876,0.0176356
-0.0179559,-0.12609,0.96254,5.41101,3.9861,12.6738,12,0.0162688,0.00260191,18,58.7324,0.0469604
,,,,,,,,,25,38.4221,0.0400856
,,,,,,,,,33,63.9047,0.0512661
,,,,,,,,,42,110.798,0.0220621
,,,,,,,,,52,54.9322,0.0494763
,,,,,,,,,63,129.417,0.0367744
,,,,,,,,,75,153.447,0.0346443
,,,,,,,,,88,108.314,0.0410796
,,,,,,,,,102,94.2969,0.050647
,,,,,,,,,117,153.868,0.0213741
,,,,,,,,,32,71.7954,0.0707343
,,,,,,,,,41,54.0142,0.114984
,,,,,,,,,51,60.0938,0.0289709
,,,,,,,,,62,111.195,0.106354
,,,,,,,,,74,84.7782,0.0610366
,,,,,,,,,87,95.6323,0.0553844
,,,,,,,,,101,116.204,0.0738889
,,,,,,,,,116,143.707,0.111916
,,,,,,,,,132,143.197,0.0277961
,,,,,,,,,50,100.784,0.0809786
,,,,,,,,,61,93.9777,0.026199
,,,,,,,,,73,68.3641,0.0766015
,,,,,,,,,86,156.342,0.049911
,,,,,,,,,100,145.71,0.0460667
,,,,,,,,,115,139.08,0.0581873
,,,,,,,,,131,103.038,0.0794448
,,,,,,,,,148,141.582,0.0252344
,,,,,,,,,72,101.866,0.0305541
,,,,,,,,,85,81.6999,0.131336
,,,,,,,,,99,66.4097,0.0685159
,,,,,,,,,114,96.4301,0.0614736
,,,,,,,,,130,64.3726,0.0851401
,,,,,,,,,147,93.7399,0.139922
,,,,,,,,,165,113.548,0.0292502
,,,,,,,,,98,162.331,0.0299092
,,,,,,,,,113,70.7648,0.0247429
,,,,,,,,,129,53.2866,0.02376
,,,,,,,,,146,125.561,0.0266199
,,,,,,,,,164,154.343,0.0303331
,,,,,,,,,183,95.2751,0.0166644
,,,,,,,,,128,125.623,0.0653561
,,,,,,,,,145,144.075,0.0589179
,,,,,,,,,163,71.7178,0.0803149
,,,,,,,,,182,39.8237,0.127349
,,,,,,,,,202,99.1297,0.0286586
,,,,,,,,,162,31.2541,0.0417469
,,,,,,,,,181,55.2289,0.0514613
,,,,,,,,,201,97.7668,0.0674147
,,,,,,,,,222,60.1694,0.0238808
,,,,,,,,,200,75.1975,0.0473842
,,,,,,,,,221,105.181,0.0605856
,,,,,,,,,243,48.6159,0.0229639
,,,,,,,,,242,45.2901,0.0834462
,,,,,,,,,265,53.8822,0.0256247
,,,,,,,,,288,59.5797,0.0290476
