facetNormals:0,facetNormals:1,facetNormals:2,FacetCenters:0,FacetCenters:1,FacetCenters:2,FacetIds,relFacetSize,absFacetSize,cellPairingIds,interplanarAngles,angleWeights
-0.527864,-0.439779,-0.707421,3.72238,5.35478,9.07656,1,0.0204982,0.00714823,8,31.7696,0.0316294
-0.54502,0.0872436,-0.780246,3.75463,5.4134,9.21092,2,0.0692166,0.0241376,13,80.8031,0.0272151
0.68683,-0.582786,-0.366901,3.85737,5.33998,9.10389,3,0.0404797,0.0141163,19,34.7024,0.0299002
-0.791427,-0.531703,-0.19399,3.65206,5.35081,9.17456,4,0.0552355,0.019262,26,45.4107,0.0343885
-0.232468,-0.913487,-0.202059,3.73965,5.31765,9.11452,5,0.106677,0.0372011,34,106.419,0.0340654
0.0677128,0.922618,-0.246814,3.76894,5.45889,9.11603,6,0.100749,0.0351337,43,117.717,0.0349962
0.909328,-0.0736552,-0.0406488,3.87026,5.38996,9.15228,7,0.119557,0.0416926,53,62.7226,0.0350316
-0.910113,0.219129,-0.0562571,3.63151,5.42474,9.25173,8,0.120389,0.0419828,64,148.678,0.0325665
0.716318,-0.0467688,0.639134,3.81299,5.41296,9.32835,9,0.0791896,0.0276154,76,128.416,0.022068
-0.179398,0.0326104,0.959973,3.67921,5.44421,9.395,10,0.0238982,0.00833392,18,98.5939,0.0510841
,,,,,,,,,25,54.7789,0.0614407
,,,,,,,,,33,77.1658,0.0839578
,,,,,,,,,42,75.0439,0.0820578
,,,,,,,,,52,122.606,0.0876746
,,,,,,,,,63,51.4118,0.0878974
,,,,,,,,,75,166.486,0.073868
,,,,,,,,,88,133.971,0.0355293
,,,,,,,,,32,99.8894,0.0467202
,,,,,,,,,41,61.5388,0.0586892
,,,,,,,,,51,115.481,0.0577544
,,,,,,,,,62,39.8003,0.0604815
,,,,,,,,,74,143.387,0.0605874
,,,,,,,,,87,72.2661,0.0535738
,,,,,,,,,101,121.349,0.0300536
,,,,,,,,,50,40.9081,0.0727845
,,,,,,,,,61,122.189,0.0713522
,,,,,,,,,73,139.2,0.0755615
,,,,,,,,,86,47.6504,0.0757269
,,,,,,,,,100,135.414,0.0650783
,,,,,,,,,115,93.7139,0.033362
,,,,,,,,,72,151.179,0.103628
,,,,,,,,,85,98.8798,0.11275
,,,,,,,,,99,88.5569,0.113119
,,,,,,,,,114,105.842,0.0909008
,,,,,,,,,130,101.144,0.0390486
,,,,,,,,,98,89.7608,0.10935
,,,,,,,,,113,80.0965,0.109697
,,,,,,,,,129,99.5321,0.0886777
,,,,,,,,,146,103.537,0.0386326
,,,,,,,,,128,169.27,0.119972
,,,,,,,,,145,44.2391,0.0952737
,,,,,,,,,163,103.252,0.039834
,,,,,,,,,162,140.762,0.0955369
,,,,,,,,,181,82.7016,0.03988
,,,,,,,,,200,59.0132,0.0367161
