Q	U	V
{$V$}	{[mm$^3$]}	0.0127449
{$d_v$}	{[mm]}	0.289809
{$S_c$}	{[mm$^2$]}	0.360252
{$S_o$}	{[mm$^2$]}	0.288317
{$S_l/S_o$}	[]	0.249500
{$\Psi$}	[]	0.732434
{$\eta$}	[]	0.743918
{med($\theta_e$)}	{[$^\circ$]}	59.9683
{$\Upsilon$}	[]	16
{$\Xi$}	[]	5
