Q	U	V
{$V$}	{[mm$^3$]}	0.00245326
{$d_v$}	{[mm]}	0.167333
{$S_c$}	{[mm$^2$]}	0.192824
{$S_o$}	{[mm$^2$]}	0.0994234
{$S_l/S_o$}	[]	0.939423
{$\Psi$}	[]	0.456197
{$\eta$}	[]	0.495621
{med($\theta_e$)}	{[$^\circ$]}	179.35
{$\Upsilon$}	[]	14
{$\Xi$}	[]	7
