"cellPairingIds","interplanarAngles","angleWeights"
8,78.6371,0.0548599
13,50.5948,0.125648
19,86.0181,0.128693
53,111.808,0.0698561
18,56.5538,0.0575035
25,110.918,0.058133
42,111.434,0.0442623
75,117.24,0.043863
74,130.68,0.0741997
87,138.126,0.0798164
61,29.8332,0.0824076
86,69.916,0.0752512
113,63.7148,0.0535346
129,59.0337,0.056398
162,52.2892,0.0529517
