facetNormals:0,facetNormals:1,facetNormals:2,FacetCenters:0,FacetCenters:1,FacetCenters:2,FacetIds,relFacetSize,absFacetSize,cellPairingIds,interplanarAngles,angleWeights
-0.15719,-0.148199,-0.944572,4.40577,5.85355,9.40423,1,0.0792481,0.0236622,8,25.0161,0.0384646
-0.139897,-0.551045,-0.810794,4.40584,5.81669,9.4172,2,0.0253954,0.00758266,13,50.7164,0.0380769
0.644529,-0.0843292,-0.72786,4.49613,5.85299,9.43756,3,0.0250585,0.00748207,19,44.0384,0.0754303
-0.195909,0.551974,-0.763796,4.43836,5.95385,9.41608,4,0.0719635,0.0214871,26,51.1314,0.0980059
0.0566734,-0.800149,-0.488481,4.37917,5.75079,9.46958,5,0.128397,0.0383374,34,85.1196,0.0186524
0.494939,-0.852415,-0.034702,4.47874,5.7612,9.52723,6,0.0105701,0.00315607,43,80.822,0.0565427
-0.946112,-0.196894,0.0301415,4.46223,5.86523,9.47371,7,0.0439504,0.0131229,53,92.5429,0.0843729
0.960229,-0.0881127,-0.101841,4.54414,5.8936,9.46651,8,0.0902064,0.0269342,64,108.461,0.0477421
-0.855956,0.152597,0.434196,4.47275,5.91653,9.47538,9,0.034161,0.0101999,76,144.496,0.0713707
0.63337,0.0325004,0.644757,4.52107,5.87622,9.52711,10,0.0649177,0.0193834,89,139.926,0.104442
-0.388094,0.428671,0.725742,4.39703,5.898,9.50544,11,0.153122,0.0457197,18,55.565,0.0252258
,,,,,,,,,25,68.9388,0.0375423
,,,,,,,,,33,26.9481,0.0424038
,,,,,,,,,42,63.9697,0.0149272
,,,,,,,,,52,76.936,0.0321905
,,,,,,,,,63,90.1914,0.0396331
,,,,,,,,,75,109.193,0.0291331
,,,,,,,,,88,134.64,0.0365088
,,,,,,,,,102,146.965,0.0435654
,,,,,,,,,32,65.928,0.0371729
,,,,,,,,,41,59.9067,0.0419331
,,,,,,,,,51,64.3824,0.0148685
,,,,,,,,,62,130.689,0.0319185
,,,,,,,,,74,42.2464,0.0392216
,,,,,,,,,87,158.205,0.0289102
,,,,,,,,,101,94.146,0.0361593
,,,,,,,,,116,154.091,0.0430687
,,,,,,,,,50,95.0558,0.0922328
,,,,,,,,,61,124.739,0.0184328
,,,,,,,,,73,86.6951,0.054572
,,,,,,,,,86,99.8072,0.0800589
,,,,,,,,,100,94.8888,0.0463295
,,,,,,,,,115,133.445,0.0682593
,,,,,,,,,131,105.699,0.0979111
,,,,,,,,,72,38.2888,0.0195323
,,,,,,,,,85,84.3625,0.0654852
,,,,,,,,,99,78.9418,0.105966
,,,,,,,,,114,114.79,0.0539644
,,,,,,,,,130,111.048,0.086235
,,,,,,,,,147,145.648,0.139674
,,,,,,,,,98,108.43,0.0170417
,,,,,,,,,113,54.6067,0.0189229
,,,,,,,,,129,126.399,0.0161447
,,,,,,,,,146,72.8249,0.0181801
,,,,,,,,,164,129.542,0.0197752
,,,,,,,,,128,162.522,0.0591041
,,,,,,,,,145,32.4546,0.0384423
,,,,,,,,,163,132.098,0.052415
,,,,,,,,,182,70.1496,0.0682975
,,,,,,,,,162,158.974,0.0495555
,,,,,,,,,181,52.0193,0.0755007
,,,,,,,,,201,122.568,0.11353
,,,,,,,,,200,107.017,0.0447655
,,,,,,,,,221,37.7846,0.0558599
,,,,,,,,,242,73.6637,0.091179
