Q	U	V
{$V$}	{[mm$^3$]}	0.00496234
{$d_v$}	{[mm]}	0.211623
{$S_c$}	{[mm$^2$]}	0.205679
{$S_o$}	{[mm$^2$]}	0.138431
{$S_l/S_o$}	[]	0.485787
{$\Psi$}	[]	0.684046
{$\eta$}	[]	0.707695
{med($\theta_e$)}	{[$^\circ$]}	64.4217
{$\Upsilon$}	[]	17
{$\Xi$}	[]	12
