facetNormals:0,facetNormals:1,facetNormals:2,FacetCenters:0,FacetCenters:1,FacetCenters:2,FacetIds,relFacetSize,absFacetSize,cellPairingIds,interplanarAngles,angleWeights
0.0689531,0.469762,-0.826835,4.79761,6.44257,8.47451,1,0.0799145,0.0130911,8,100.698,0.10153
-0.35658,-0.835366,-0.299606,4.75954,6.34272,8.52484,2,0.139175,0.0227988,13,70.8285,0.0811353
-0.871658,0.326288,-0.252509,4.72582,6.41504,8.52853,3,0.082394,0.0134973,19,77.4068,0.105231
0.92708,-0.0920924,-0.215421,4.86475,6.42297,8.53592,4,0.154028,0.0252318,26,101.837,0.0316713
0.951997,-0.113919,0.24899,4.86591,6.38782,8.5935,5,0.0197491,0.00323517,34,103.456,0.0895035
-0.945556,0.0855753,0.232023,4.87047,6.44624,8.54341,6,0.101708,0.0166611,43,123.044,0.0457528
0.772715,-0.187865,0.574616,4.8529,6.41713,8.64026,7,0.0320515,0.00525047,53,152.84,0.0868597
0.342728,-0.568238,0.682162,4.80745,6.38656,8.65899,8,0.0951271,0.0155831,64,142.423,0.0705742
-0.594111,-0.171957,0.72073,4.75961,6.39757,8.63584,9,0.0631889,0.0103512,18,82.9065,0.103509
,,,,,,,,,25,101.933,0.146225
,,,,,,,,,33,109.67,0.0345899
,,,,,,,,,42,77.8863,0.117527
,,,,,,,,,52,108.051,0.0521037
,,,,,,,,,63,80.636,0.113011
,,,,,,,,,75,81.1619,0.0869158
,,,,,,,,,32,148.202,0.107359
,,,,,,,,,41,166.748,0.0318613
,,,,,,,,,51,32.6573,0.0910377
,,,,,,,,,62,158.438,0.0461504
,,,,,,,,,74,135.66,0.0883039
,,,,,,,,,87,72.2145,0.0715247
,,,,,,,,,50,27.6008,0.0350094
,,,,,,,,,61,179.136,0.122516
,,,,,,,,,73,49.4516,0.0530614
,,,,,,,,,86,75.8078,0.117615
,,,,,,,,,100,139.466,0.0896141
,,,,,,,,,72,151.662,0.0330757
,,,,,,,,,85,22.1581,0.0244394
,,,,,,,,,99,53.4922,0.0327078
,,,,,,,,,114,112.931,0.0300929
,,,,,,,,,98,129.769,0.0487425
,,,,,,,,,113,103.328,0.0983073
,,,,,,,,,129,39.6907,0.0779493
,,,,,,,,,128,35.1366,0.0479478
,,,,,,,,,145,90.7767,0.0425302
,,,,,,,,,162,64.7362,0.0759364
