facetNormals:0,facetNormals:1,facetNormals:2,FacetCenters:0,FacetCenters:1,FacetCenters:2,FacetIds,relFacetSize,absFacetSize,cellPairingIds,interplanarAngles,angleWeights
0.305965,0.126998,-0.88918,7.00451,5.64468,10.3943,1,0.0499317,0.00607232,8,26.2593,0.0275998
0.0147572,0.456952,-0.871495,7.00671,5.66026,10.348,2,0.0190706,0.00231922,13,62.0446,0.0744238
-0.649631,0.100315,-0.683659,6.92959,5.62128,10.3854,3,0.146075,0.0177646,19,53.9807,0.0406487
-0.376034,0.629232,-0.657442,6.97278,5.67907,10.3689,4,0.0342762,0.00416841,26,54.8704,0.0222871
0.6401,0.69604,-0.287194,7.06053,5.71521,10.464,5,0.014345,0.00174453,34,84.5048,0.0537592
-0.616621,0.730272,-0.207833,6.95073,5.68855,10.411,6,0.0582222,0.00708055,43,77.374,0.0673942
0.707432,-0.667216,-0.0794599,7.01971,5.58296,10.4138,7,0.10364,0.0126039,53,64.5717,0.0689271
0.896637,-0.255551,-0.161546,7.05553,5.64282,10.4298,8,0.111249,0.0135293,64,76.4915,0.0225464
-0.154501,0.96655,-0.162449,6.99282,5.71799,10.4267,9,0.0145605,0.00177074,76,105.058,0.0633641
-0.226795,-0.86113,0.046175,6.94288,5.57184,10.4309,10,0.0866832,0.0105418,89,125.776,0.0222979
-0.881083,0.229269,0.334722,7.00539,5.62389,10.3514,11,0.014354,0.00174562,103,89.5722,0.0489492
0.454441,0.825964,0.266536,7.05312,5.72193,10.435,12,0.0480046,0.00583796,118,134.616,0.0257081
-0.328333,-0.775715,0.517013,6.95962,5.57655,10.4554,13,0.0173103,0.00210515,134,154.622,0.0431032
-0.133329,-0.503139,0.813107,6.97539,5.57502,10.4414,14,0.0379177,0.00461126,151,128.555,0.0374842
0.487216,-0.360124,0.765562,7.04035,5.61634,10.4415,15,0.0300044,0.0036489,18,47.376,0.0337367
,,,,,,,,,25,28.0854,0.0245063
,,,,,,,,,33,53.5535,0.0163736
,,,,,,,,,42,58.3066,0.0287305
,,,,,,,,,52,103.564,0.0322136
,,,,,,,,,63,87.7079,0.0325597
,,,,,,,,,75,53.4903,0.0165132
,,,,,,,,,88,119.873,0.0312631
,,,,,,,,,102,102.09,0.0163795
,,,,,,,,,117,80.9384,0.027297
,,,,,,,,,133,146.371,0.0181479
,,,,,,,,,150,171.837,0.0253776
,,,,,,,,,168,149.113,0.0233194
,,,,,,,,,32,35.8577,0.0555238
,,,,,,,,,41,99.1882,0.0261245
,,,,,,,,,51,48.3977,0.0832592
,,,,,,,,,62,120.682,0.121252
,,,,,,,,,74,123.681,0.126306
,,,,,,,,,87,70.8697,0.0264815
,,,,,,,,,101,88.009,0.108802
,,,,,,,,,116,66.5198,0.0261394
,,,,,,,,,132,115.13,0.0722618
,,,,,,,,,149,103.447,0.0309527
,,,,,,,,,167,124.586,0.0602071
,,,,,,,,,186,161.103,0.0497831
,,,,,,,,,50,66.6248,0.0202254
,,,,,,,,,61,30.7139,0.0431496
,,,,,,,,,73,131.263,0.0515151
,,,,,,,,,86,114.864,0.052406
,,,,,,,,,100,37.694,0.0204387
,,,,,,,,,115,123.681,0.0491267
,,,,,,,,,131,74.483,0.0202343
,,,,,,,,,148,79.6322,0.0399951
,,,,,,,,,166,136.382,0.0230034
,,,,,,,,,185,147.418,0.0360051
,,,,,,,,,205,161.78,0.0319983
,,,,,,,,,72,79.673,0.0230186
,,,,,,,,,85,89.3322,0.0252018
,,,,,,,,,99,61.7611,0.0254131
,,,,,,,,,114,50.7423,0.014452
,,,,,,,,,130,149.311,0.0246163
,,,,,,,,,147,121.475,0.0143495
,,,,,,,,,165,35.3954,0.0220892
,,,,,,,,,184,156.92,0.0156888
,,,,,,,,,204,134.527,0.0208152
,,,,,,,,,225,99.4647,0.0194101
,,,,,,,,,98,161.871,0.0745591
,,,,,,,,,113,139.706,0.0764398
,,,,,,,,,129,30.6547,0.0232953
,,,,,,,,,146,124.868,0.0696577
,,,,,,,,,164,47.486,0.0230301
,,,,,,,,,183,73.786,0.052622
,,,,,,,,,203,119.19,0.0266864
,,,,,,,,,224,118.75,0.0459258
,,,,,,,,,246,139.168,0.0396008
,,,,,,,,,128,27.6682,0.10731
,,,,,,,,,145,139.972,0.0255338
,,,,,,,,,163,61.8503,0.0944062
,,,,,,,,,182,148.031,0.0252156
,,,,,,,,,202,105.211,0.0656166
,,,,,,,,,223,75.33,0.0296658
,,,,,,,,,245,79.1835,0.0555221
,,,,,,,,,268,56.6173,0.0465362
,,,,,,,,,162,112.5,0.0257508
,,,,,,,,,181,89.3718,0.0974417
,,,,,,,,,201,169.566,0.0254272
,,,,,,,,,222,80.479,0.0670687
,,,,,,,,,244,101.077,0.029959
,,,,,,,,,267,97.6952,0.0565583
,,,,,,,,,291,63.9833,0.047262
,,,,,,,,,200,155.454,0.024933
,,,,,,,,,221,71.6278,0.0144565
,,,,,,,,,243,45.2094,0.0223439
,,,,,,,,,266,142.985,0.0158168
,,,,,,,,,290,128.613,0.0210412
,,,,,,,,,315,124.432,0.0196065
,,,,,,,,,242,88.8174,0.0246295
,,,,,,,,,265,156.649,0.0617902
,,,,,,,,,289,29.5948,0.0288578
,,,,,,,,,314,54.4067,0.0527577
,,,,,,,,,340,74.3415,0.0445784
,,,,,,,,,288,97.365,0.0220998
,,,,,,,,,313,72.7374,0.0156941
,,,,,,,,,339,72.969,0.0208246
,,,,,,,,,366,105.658,0.0194183
,,,,,,,,,338,132.337,0.0254452
,,,,,,,,,365,105.921,0.0423691
,,,,,,,,,393,82.3085,0.0369277
,,,,,,,,,392,26.4303,0.0237694
,,,,,,,,,421,57.7294,0.0219545
,,,,,,,,,450,38.3956,0.0335
