"cellPairingIds","interplanarAngles","angleWeights"
8,85.7526,0.0586081
13,46.2232,0.0153837
26,61.5413,0.0261341
43,42.5193,0.0548103
18,58.23,0.0143743
33,145.702,0.0233488
42,46.7905,0.0523208
63,80.8255,0.0581257
102,69.7564,0.0372019
51,34.1709,0.0149133
62,29.9908,0.0141341
101,58.7616,0.0150175
132,65.5713,0.0128673
85,74.9806,0.0227216
99,130.111,0.0260378
114,33.927,0.0291533
130,74.7478,0.0250946
164,58.6404,0.0410405
183,37.088,0.0366831
163,35.3895,0.0504291
162,110.566,0.115249
201,39.8625,0.0445287
200,53.611,0.0988111
221,108.633,0.0544866
242,82.0081,0.0418394
265,50.8143,0.0373201
288,34.1418,0.0285486
