facetNormals:0,facetNormals:1,facetNormals:2,FacetCenters:0,FacetCenters:1,FacetCenters:2,FacetIds,relFacetSize,absFacetSize,cellPairingIds,interplanarAngles,angleWeights
0.19723,0.301328,-0.905686,4.30347,6.89083,8.78318,1,0.0258492,0.0028472,8,28.9354,0.0264249
0.599222,0.0531562,-0.778212,4.28436,6.88346,8.80386,2,0.0270267,0.0029769,13,59.2031,0.0311088
-0.717092,0.277261,-0.601908,4.31639,6.90732,8.71832,3,0.0390555,0.00430183,19,63.1971,0.0343685
0.69263,-0.434898,-0.445882,4.36052,6.86934,8.79654,4,0.0512638,0.00564652,26,44.9737,0.0254807
0.294034,0.844857,-0.401303,4.42533,6.96469,8.75591,5,0.0251225,0.00276716,34,69.0727,0.0424013
-0.437777,0.837104,-0.186983,4.38081,6.97038,8.73002,6,0.11789,0.0129851,43,76.1617,0.0359586
-0.0910976,0.991206,0.0533655,4.4496,6.99882,8.74612,7,0.0590539,0.00650458,53,89.9388,0.0189535
0.962054,-0.00829032,0.205615,4.41343,6.91034,8.82151,8,0.0149621,0.00164803,64,76.9369,0.0211116
0.761803,0.606025,0.128685,4.46189,6.95937,8.78163,9,0.0178417,0.00196519,76,120.222,0.013357
0.719657,-0.319921,0.580133,4.45355,6.89439,8.83358,10,0.00900505,0.000991874,89,135.515,0.03902
-0.806343,-0.211043,0.500715,4.32476,6.85058,8.78706,11,0.0795549,0.00876269,103,109.83,0.0387344
0.203292,0.702836,0.630771,4.44489,6.96524,8.81351,12,0.0772329,0.00850693,118,126.924,0.0400284
-0.681684,0.350956,0.596251,4.35475,6.92547,8.79614,13,0.0886627,0.00976588,134,152.571,0.0253904
-0.527278,0.023452,0.842985,4.34098,6.88058,8.81862,14,0.0249475,0.00274788,151,154.902,0.0400904
-0.13588,0.114265,0.956676,4.40503,6.89785,8.84469,15,0.0892747,0.00983329,18,86.8095,0.0319463
,,,,,,,,,25,36.2481,0.0353936
,,,,,,,,,33,56.4203,0.0260399
,,,,,,,,,42,94.3785,0.0439726
,,,,,,,,,52,92.5386,0.0370823
,,,,,,,,,63,64.5377,0.0192612
,,,,,,,,,75,66.2778,0.021494
,,,,,,,,,88,92.2181,0.013509
,,,,,,,,,102,157.571,0.0403467
,,,,,,,,,117,110.431,0.0400414
,,,,,,,,,133,153.345,0.0414258
,,,,,,,,,150,172.872,0.0259455
,,,,,,,,,168,148.939,0.0414922
,,,,,,,,,32,112.556,0.0443346
,,,,,,,,,41,73.9334,0.0305766
,,,,,,,,,51,45.5412,0.0586733
,,,,,,,,,62,71.55,0.0470165
,,,,,,,,,74,148.146,0.0216357
,,,,,,,,,87,118.38,0.0244938
,,,,,,,,,101,177.19,0.0146356
,,,,,,,,,116,76.7054,0.052391
,,,,,,,,,132,110.516,0.0518774
,,,,,,,,,149,76.1359,0.0542251
,,,,,,,,,167,97.2639,0.0304466
,,,,,,,,,186,118.047,0.054339
,,,,,,,,,50,89.0486,0.0337201
,,,,,,,,,61,130.612,0.0714555
,,,,,,,,,73,123.906,0.0548838
,,,,,,,,,86,50.8751,0.0231636
,,,,,,,,,100,76.9384,0.0264706
,,,,,,,,,115,65.4262,0.0153191
,,,,,,,,,131,139.622,0.0623502
,,,,,,,,,148,119.72,0.0616242
,,,,,,,,,166,169.872,0.0649653
,,,,,,,,,185,144.186,0.0335621
,,,,,,,,,205,128.999,0.0651289
,,,,,,,,,72,46.1958,0.0414187
,,,,,,,,,85,36.1441,0.0352494
,,,,,,,,,99,78.4362,0.0187547
,,,,,,,,,114,44.6955,0.0208652
,,,,,,,,,130,107.694,0.0132579
,,,,,,,,,147,130.279,0.0381863
,,,,,,,,,165,64.9888,0.0379127
,,,,,,,,,184,98.6491,0.0391515
,,,,,,,,,204,119.051,0.0250347
,,,,,,,,,225,110.067,0.0392109
,,,,,,,,,98,26.4228,0.07869
,,,,,,,,,113,119.502,0.0265541
,,,,,,,,,129,80.8882,0.0309928
,,,,,,,,,146,137.216,0.016732
,,,,,,,,,164,84.9325,0.0950009
,,,,,,,,,183,65.7952,0.0933256
,,,,,,,,,203,59.072,0.101208
,,,,,,,,,224,84.4375,0.0411805
,,,,,,,,,246,91.4521,0.101606
,,,,,,,,,128,94.9656,0.0238752
,,,,,,,,,145,56.645,0.0274039
,,,,,,,,,163,111.144,0.0156271
,,,,,,,,,182,96.4577,0.0677883
,,,,,,,,,202,42.3369,0.066931
,,,,,,,,,223,62.8509,0.0708908
,,,,,,,,,245,83.2653,0.0350768
,,,,,,,,,268,79.5036,0.0710857
,,,,,,,,,162,38.6609,0.0162755
,,,,,,,,,181,32.2041,0.0112433
,,,,,,,,,201,134.546,0.0251873
,,,,,,,,,222,70.3589,0.0250679
,,,,,,,,,244,124.129,0.0256036
,,,,,,,,,267,109.967,0.0187057
,,,,,,,,,291,86.1044,0.025629
,,,,,,,,,200,63.4702,0.0119691
,,,,,,,,,221,135.223,0.0291466
,,,,,,,,,243,45.7425,0.028987
,,,,,,,,,266,103.948,0.0297056
,,,,,,,,,290,106.599,0.0208046
,,,,,,,,,315,84.6644,0.0297398
,,,,,,,,,242,103.516,0.0161788
,,,,,,,,,265,72.2941,0.0161295
,,,,,,,,,289,105.691,0.0163495
,,,,,,,,,314,83.977,0.0132334
,,,,,,,,,340,63.7701,0.0163599
,,,,,,,,,288,89.7814,0.0783767
,,,,,,,,,313,34.9428,0.0838622
,,,,,,,,,339,29.4258,0.0379838
,,,,,,,,,366,53.3708,0.084135
,,,,,,,,,338,58.9331,0.0825541
,,,,,,,,,365,62.6758,0.0377131
,,,,,,,,,393,45.7288,0.0828184
,,,,,,,,,392,25.7213,0.0389387
,,,,,,,,,421,41.9247,0.0889676
,,,,,,,,,450,24.4737,0.0389974
