Q	U	V
{$V$}	{[mm$^3$]}	0.00847718
{$d_v$}	{[mm]}	0.252979
{$S_c$}	{[mm$^2$]}	0.437715
{$S_o$}	{[mm$^2$]}	0.252436
{$S_l/S_o$}	[]	0.733964
{$\Psi$}	[]	0.459332
{$\eta$}	[]	0.518175
{med($\theta_e$)}	{[$^\circ$]}	62.21645
{$\Upsilon$}	[]	14
{$\Xi$}	[]	11
