facetNormals:0,facetNormals:1,facetNormals:2,FacetCenters:0,FacetCenters:1,FacetCenters:2,FacetIds,relFacetSize,absFacetSize,cellPairingIds,interplanarAngles,angleWeights
-0.261413,0.265088,-0.909082,6.01725,6.65399,9.80811,1,0.0377147,0.0103161,8,34.2204,0.0375937
0.278647,0.452924,-0.82536,6.06429,6.70469,9.82122,2,0.0374735,0.0102501,13,48.1436,0.0308823
-0.453856,-0.482175,-0.710294,6.09047,6.51839,9.87404,3,0.0261457,0.00715165,19,75.7391,0.0252029
0.0470444,-0.841876,-0.523166,6.15916,6.5747,10.006,4,0.0189247,0.00517648,26,68.399,0.0470479
0.748507,0.423037,-0.48448,6.15265,6.61848,9.90496,5,0.0625198,0.0171011,34,72.2651,0.0601212
0.746617,-0.111618,-0.555827,6.14555,6.55223,9.87899,6,0.148121,0.0405155,43,94.3215,0.0500827
0.787452,0.570154,0.0189977,6.16882,6.60914,9.99424,7,0.0745208,0.0203837,53,83.8645,0.0524852
-0.656268,-0.681469,-0.120148,6.0928,6.54647,9.91685,8,0.0862731,0.0235983,64,114.986,0.0547771
0.684336,-0.6581,0.0451645,6.20412,6.47322,10.046,9,0.100033,0.027362,76,117.678,0.0489237
-0.55402,-0.650679,0.455715,6.14139,6.46897,10.0466,10,0.0696132,0.0190413,89,94.783,0.0504771
-0.179043,0.82187,0.374091,6.16198,6.57801,10.0756,11,0.0762949,0.020869,18,75.3341,0.0308011
,,,,,,,,,25,86.2569,0.0251488
,,,,,,,,,33,34.3434,0.0468598
,,,,,,,,,42,47.9704,0.0598144
,,,,,,,,,52,61.0602,0.0498696
,,,,,,,,,63,114.773,0.0522512
,,,,,,,,,75,98.9172,0.0545223
,,,,,,,,,88,150.205,0.0487203
,,,,,,,,,102,89.1382,0.0502607
,,,,,,,,,32,38.3034,0.0219567
,,,,,,,,,41,102.019,0.0368717
,,,,,,,,,51,83.0749,0.044446
,,,,,,,,,62,133.151,0.03871
,,,,,,,,,74,39.7744,0.0401298
,,,,,,,,,87,91.5738,0.041456
,,,,,,,,,101,75.1213,0.0380139
,,,,,,,,,116,130.514,0.0389452
,,,,,,,,,50,93.9505,0.0290546
,,,,,,,,,61,63.1688,0.0335614
,,,,,,,,,73,117.993,0.0301841
,,,,,,,,,86,50.2058,0.0310404
,,,,,,,,,100,53.3809,0.031828
,,,,,,,,,115,72.8548,0.0297592
,,,,,,,,,131,168.783,0.0303269
,,,,,,,,,72,32.4266,0.0879268
,,,,,,,,,85,31.1335,0.0679948
,,,,,,,,,99,140.029,0.0725005
,,,,,,,,,114,76.9413,0.0769477
,,,,,,,,,130,162.335,0.0658761
,,,,,,,,,147,87.9546,0.0687239
,,,,,,,,,98,55.6974,0.0991556
,,,,,,,,,113,112.847,0.109037
,,,,,,,,,129,51.1218,0.119417
,,,,,,,,,146,130.887,0.0947134
,,,,,,,,,164,120.141,0.100714
,,,,,,,,,128,168.157,0.0799675
,,,,,,,,,145,79.7463,0.0854124
,,,,,,,,,163,147.994,0.0719835
,,,,,,,,,182,68.0427,0.0753974
,,,,,,,,,162,90.383,0.0926448
,,,,,,,,,181,35.4689,0.077053
,,,,,,,,,201,123.731,0.0809778
,,,,,,,,,200,85.6603,0.0820957
,,,,,,,,,221,137.633,0.086566
,,,,,,,,,242,107.298,0.0728011
