"cellPairingIds","interplanarAngles","angleWeights"
52,60.3734,0.0571066
63,128.582,0.0687945
75,104.855,0.0562606
102,124.749,0.0340499
207,138.986,0.0197929
128,138.333,0.0889889
202,149.284,0.0309212
317,116.484,0.0211754
162,39.6451,0.0869514
201,42.9739,0.0432996
222,34.2305,0.0340539
221,25.6482,0.0379748
288,26.2866,0.0226256
423,57.3514,0.0169256
452,49.0359,0.0153017
