"cellPairingIds","interplanarAngles","angleWeights"
19,39.0966,0.0247057
26,49.63,0.0264308
34,49.1346,0.0329173
43,71.1351,0.00972462
64,55.3339,0.0166223
76,101.59,0.0161123
50,50.6013,0.0439048
100,27.0313,0.0221719
131,45.3335,0.0537324
148,92.6121,0.0343442
166,50.7661,0.0426904
130,83.7714,0.0225405
165,47.9671,0.0377714
98,75.9965,0.0128739
113,36.6986,0.0922897
129,33.3477,0.0285675
164,62.4819,0.117463
224,65.6957,0.141591
246,131.949,0.00843678
128,45.5666,0.0120065
163,62.3458,0.00914397
268,73.4079,0.00523611
291,97.1964,0.00805539
221,32.1133,0.0261134
265,58.3607,0.019722
340,48.7295,0.00665717
313,23.5669,0.0601803
339,52.8774,0.0965973
394,35.7229,0.0735958
338,76.4358,0.0368691
393,86.6626,0.00755717
421,127.935,0.00789689
451,45.3226,0.0543435
450,90.0638,0.00830788
481,26.7447,0.0823928
512,98.6846,0.00809041
