facetNormals:0,facetNormals:1,facetNormals:2,FacetCenters:0,FacetCenters:1,FacetCenters:2,FacetIds,relFacetSize,absFacetSize,cellPairingIds,interplanarAngles,angleWeights
-0.55612,-0.596762,-0.534809,4.91222,5.97213,9.67995,1,0.0817323,0.0114741,8,75.1241,0.076398
-0.58144,0.588361,-0.505919,4.89771,6.11399,9.70837,2,0.0717173,0.0100681,13,120.22,0.094856
0.595139,0.62849,-0.432082,4.99846,6.06762,9.66771,3,0.113,0.0158637,19,110.735,0.0524311
0.0596359,0.875211,-0.412623,4.96897,6.1067,9.71573,4,0.0385948,0.00541818,26,86.2107,0.0331077
0.752136,-0.490467,-0.351029,4.98561,6.0024,9.64234,5,0.0207582,0.00291416,34,33.2725,0.0918915
-0.838773,-0.119962,-0.475561,4.87712,6.03164,9.68748,6,0.104935,0.0147314,43,61.5329,0.0430918
-0.973623,0.163743,-0.0289573,4.84189,6.07535,9.76731,7,0.029259,0.00410757,53,155.557,0.0596736
0.666413,0.716204,0.151578,4.94348,6.09501,9.69926,8,0.0469911,0.00659691,64,151.999,0.0783835
0.312092,0.884992,0.253122,4.9383,6.08299,9.74725,9,0.0752983,0.0105708,76,56.2648,0.0772801
-0.640621,-0.603598,0.371852,4.87545,5.98089,9.79507,10,0.0732879,0.0102886,89,100.208,0.0607557
-0.679537,0.399007,0.57708,4.87348,6.07537,9.83132,11,0.0483474,0.00678731,103,121.806,0.0213667
0.60704,-0.331628,0.653576,4.9313,5.99291,9.71482,12,0.0122898,0.00172531,18,75.028,0.0877457
,,,,,,,,,25,42.8617,0.0501834
,,,,,,,,,33,125.911,0.0321971
,,,,,,,,,42,45.725,0.085203
,,,,,,,,,52,45.0105,0.0415618
,,,,,,,,,63,92.5543,0.0567791
,,,,,,,,,75,77.0517,0.0734642
,,,,,,,,,88,100.622,0.0724941
,,,,,,,,,102,69.0962,0.057758
,,,,,,,,,117,162.23,0.0209837
,,,,,,,,,32,35.4657,0.0575378
,,,,,,,,,41,71.8171,0.0350734
,,,,,,,,,51,113.121,0.108818
,,,,,,,,,62,119.053,0.0464824
,,,,,,,,,74,35.3389,0.0663787
,,,,,,,,,87,47.7196,0.0903749
,,,,,,,,,101,175.316,0.0889112
,,,,,,,,,116,115.245,0.0677205
,,,,,,,,,132,98.0894,0.0221685
,,,,,,,,,50,104.852,0.0269964
,,,,,,,,,61,87.4923,0.0564335
,,,,,,,,,73,84.1741,0.0332847
,,,,,,,,,86,50.9952,0.0423811
,,,,,,,,,100,43.0348,0.0510325
,,,,,,,,,115,141.004,0.0505624
,,,,,,,,,131,85.7256,0.0429241
,,,,,,,,,148,124.589,0.018643
,,,,,,,,,72,115.623,0.0346599
,,,,,,,,,85,147.423,0.0242862
,,,,,,,,,99,84.1819,0.0287959
,,,,,,,,,114,107.911,0.0325445
,,,,,,,,,130,110.083,0.0323527
,,,,,,,,,147,164.953,0.0290455
,,,,,,,,,165,64.858,0.015439
,,,,,,,,,98,32.3481,0.045759
,,,,,,,,,113,138.191,0.0649133
,,,,,,,,,129,121.136,0.0876799
,,,,,,,,,146,62.2066,0.0863015
,,,,,,,,,164,74.872,0.0661959
,,,,,,,,,183,147.54,0.0220026
,,,,,,,,,128,123.238,0.0360633
,,,,,,,,,145,99.9742,0.0421425
,,,,,,,,,163,56.9926,0.0418215
,,,,,,,,,182,42.5914,0.0364557
,,,,,,,,,202,134.966,0.0173091
,,,,,,,,,162,23.8272,0.0578685
,,,,,,,,,181,148.076,0.0572649
,,,,,,,,,201,94.7226,0.0476596
,,,,,,,,,222,73.5937,0.0194838
,,,,,,,,,200,133.56,0.0742795
,,,,,,,,,221,72.396,0.0588856
,,,,,,,,,243,86.1939,0.0211307
,,,,,,,,,242,64.0031,0.0582607
,,,,,,,,,265,86.5752,0.0210497
,,,,,,,,,288,100.392,0.0195978
