"cellPairingIds","interplanarAngles","angleWeights"
8,32.4888,0.0352998
19,99.0666,0.0553335
34,73.8128,0.04275
43,65.0557,0.0493277
53,61.9428,0.0538074
25,80.2669,0.0430749
52,78.9753,0.0393457
117,102.791,0.0380341
61,103.528,0.0547093
100,90.2441,0.082001
148,118.495,0.062361
185,100.718,0.0332491
113,49.8845,0.053217
129,43.382,0.0570954
146,64.5237,0.044896
128,36.368,0.0638089
163,43.455,0.0522071
202,62.1478,0.0548365
181,34.5535,0.0572518
200,68.051,0.0617656
290,63.418,0.0341155
265,68.8645,0.0499227
314,65.7131,0.0293502
365,53.3561,0.0301633
