Q	U	V
{$V$}	{[mm$^3$]}	0.0116762
{$d_v$}	{[mm]}	0.281471
{$S_c$}	{[mm$^2$]}	0.52061
{$S_o$}	{[mm$^2$]}	0.329014
{$S_l/S_o$}	[]	0.582334
{$\Psi$}	[]	0.478086
{$\eta$}	[]	0.535011
{med($\theta_e$)}	{[$^\circ$]}	79.30035
{$\Upsilon$}	[]	14
{$\Xi$}	[]	12
