"cellPairingIds","interplanarAngles","angleWeights"
8,50.4299,0.0432381
13,62.353,0.0437655
19,58.1611,0.0310214
43,77.3497,0.0368555
64,99.4207,0.0542568
118,92.4219,0.0405187
18,38.0212,0.0599124
133,76.7068,0.0539901
74,38.8398,0.0392774
87,66.0554,0.0833739
149,112.655,0.0548148
61,31.2765,0.0241389
73,47.7773,0.0332413
100,68.5534,0.0467706
115,56.2633,0.0397574
98,59.9923,0.02753
146,25.9871,0.0318537
163,81.7118,0.0498761
223,84.557,0.0443909
268,48.4065,0.0542777
162,41.5315,0.0475246
222,49.7854,0.0375651
244,127.859,0.0366424
200,28.2901,0.0881246
243,49.6102,0.0760186
341,68.5332,0.0285807
340,70.3715,0.0741109
367,52.104,0.0257996
338,116.37,0.0515364
422,38.2758,0.0246504
421,83.1899,0.0626144
451,103.736,0.0242497
512,40.0349,0.0269292
