facetNormals:0,facetNormals:1,facetNormals:2,FacetCenters:0,FacetCenters:1,FacetCenters:2,FacetIds,relFacetSize,absFacetSize,cellPairingIds,interplanarAngles,angleWeights
-0.593818,0.752849,-0.153104,6.18151,4.14031,10.3254,1,0.0739687,0.0178719,8,61.7366,0.0436038
0.365902,0.906929,0.0908258,6.1929,4.23985,10.3217,2,0.0309135,0.00746913,13,166.056,0.104673
0.746449,-0.582416,0.103013,6.234,4.1327,10.3284,3,0.178958,0.0432387,19,35.9314,0.0633974
-0.1301,0.950589,0.172644,6.15073,4.24457,10.2966,4,0.0554699,0.0134023,26,77.7615,0.0888665
-0.860169,-0.371281,0.217478,6.06876,4.15009,10.3117,5,0.111279,0.0268865,34,30.6259,0.0375524
-0.525811,0.760504,0.361379,6.08445,4.23223,10.2642,6,0.0251638,0.00607992,43,56.5587,0.0673632
-0.41199,0.51484,0.719233,6.13419,4.19102,10.3853,7,0.0618407,0.0149416,53,80.6203,0.0622906
0.212255,0.529861,0.781736,6.19236,4.1878,10.3652,8,0.0537972,0.0129982,64,85.6994,0.0515923
-0.458861,-0.09179,0.861912,6.13131,4.15115,10.3867,9,0.0396098,0.0095703,18,105.23,0.05272
,,,,,,,,,25,29.8807,0.0397013
,,,,,,,,,33,131.969,0.0483854
,,,,,,,,,42,57.0608,0.0277439
,,,,,,,,,52,66.5418,0.041221
,,,,,,,,,63,48.5587,0.0392644
,,,,,,,,,75,100.338,0.0347255
,,,,,,,,,32,132.982,0.0846894
,,,,,,,,,41,116.132,0.137227
,,,,,,,,,51,147.595,0.0441232
,,,,,,,,,62,125.021,0.0919181
,,,,,,,,,74,94.332,0.0827259
,,,,,,,,,87,102.381,0.0648631
,,,,,,,,,50,102.534,0.074035
,,,,,,,,,61,28.0926,0.0346216
,,,,,,,,,73,45.4617,0.0584823
,,,,,,,,,86,49.6434,0.0546207
,,,,,,,,,100,82.7144,0.0462171
,,,,,,,,,72,74.9125,0.0410457
,,,,,,,,,85,70.0862,0.0795006
,,,,,,,,,99,102.992,0.07253
,,,,,,,,,114,49.2104,0.0584237
,,,,,,,,,98,26.3365,0.0357716
,,,,,,,,,113,53.3284,0.0342888
,,,,,,,,,129,60.2611,0.0307759
,,,,,,,,,128,37.6695,0.0575392
,,,,,,,,,145,37.2545,0.0482895
,,,,,,,,,162,56.2248,0.0456261
