"cellPairingIds","interplanarAngles","angleWeights"
8,122.568,0.0238789
13,100.269,0.0305715
19,137.476,0.0281813
26,108.004,0.0271385
34,50.6684,0.0281077
64,125.785,0.0178149
89,91.2906,0.0261737
25,33.6477,0.0578762
33,39.0109,0.0536429
63,35.1305,0.0308406
75,50.5975,0.0263667
32,69.1534,0.123298
51,78.3908,0.121901
62,61.7101,0.0431412
101,69.399,0.066062
149,108.988,0.0484809
73,32.2128,0.0385298
86,45.8661,0.0384153
114,26.1765,0.0303982
164,76.7306,0.0729959
203,86.0473,0.0425643
128,47.1854,0.0243306
163,28.9141,0.0303207
162,26.6841,0.0214226
181,55.2596,0.0302498
244,66.2176,0.025942
221,57.9129,0.0291929
243,29.4438,0.0333137
266,56.0152,0.0227018
289,49.2719,0.0328647
288,34.3392,0.0827055
313,33.8727,0.0382809
338,27.5635,0.0456922
