facetNormals:0,facetNormals:1,facetNormals:2,FacetCenters:0,FacetCenters:1,FacetCenters:2,FacetIds,relFacetSize,absFacetSize,cellPairingIds,interplanarAngles,angleWeights
0.159134,-0.252153,-0.93413,6.00131,6.30596,9.02578,1,0.0409543,0.00909818,8,31.3133,0.043615
-0.322547,-0.43248,-0.813965,5.95263,6.29447,9.05254,2,0.0466455,0.0103625,13,27.5662,0.051727
0.206764,-0.649621,-0.696022,6.00118,6.2376,9.06738,3,0.0701898,0.015593,19,49.2834,0.0613437
-0.562941,0.084598,-0.779891,5.88584,6.36797,9.05427,4,0.122164,0.0271394,26,47.0947,0.0506462
0.62715,0.295227,-0.65378,6.05483,6.38224,9.03111,5,0.0663473,0.0147393,34,55.3683,0.027092
0.695465,-0.635994,-0.299811,6.09321,6.24238,9.09672,6,0.0202408,0.00449659,43,85.4035,0.0323723
-0.860065,-0.441684,-0.109141,5.96442,6.29095,9.06971,7,0.0267639,0.00594572,53,80.8697,0.0313034
-0.577699,-0.791871,-0.0481288,5.96209,6.24786,9.09211,8,0.0253336,0.00562796,64,110.252,0.0471893
-0.404433,0.846957,0.0438886,5.90282,6.44669,9.08792,9,0.0556638,0.012366,76,95.7865,0.0554599
0.0244089,-0.89552,0.347587,6.01019,6.21366,9.16643,10,0.0858763,0.0190778,89,141.222,0.038446
-0.5692,0.580629,0.549284,5.85129,6.38788,9.13952,11,0.0362272,0.00804802,103,122.226,0.0238249
-0.414871,-0.620972,0.651818,5.87996,6.26021,9.18174,12,0.0167987,0.00373191,118,123.152,0.0419871
-0.71269,-0.394621,0.549045,5.86014,6.27261,9.16049,13,0.0430734,0.00956894,134,161.699,0.0565096
-0.0477502,0.50315,0.794456,5.92639,6.38042,9.16351,14,0.0911182,0.0202423,151,156.894,0.0219138
0.129522,-0.0125029,0.978498,5.92664,6.33483,9.18282,15,0.014959,0.00332322,18,34.8478,0.0560453
,,,,,,,,,25,34.206,0.0675128
,,,,,,,,,33,77.4497,0.0547787
,,,,,,,,,42,72.2284,0.0282313
,,,,,,,,,52,54.0909,0.0340124
,,,,,,,,,63,53.6539,0.0328344
,,,,,,,,,75,107.216,0.0507572
,,,,,,,,,88,84.0975,0.0604541
,,,,,,,,,102,122.484,0.0407814
,,,,,,,,,117,97.6096,0.0247015
,,,,,,,,,133,92.77,0.0447883
,,,,,,,,,150,157.395,0.0617035
,,,,,,,,,168,149.767,0.0226533
,,,,,,,,,32,66.7414,0.0891552
,,,,,,,,,41,64.9588,0.0682145
,,,,,,,,,51,37.3809,0.0314207
,,,,,,,,,62,78.7424,0.0387515
,,,,,,,,,74,63.3766,0.0372298
,,,,,,,,,87,136.532,0.0620885
,,,,,,,,,101,68.3848,0.0772447
,,,,,,,,,116,156.574,0.0477889
,,,,,,,,,132,98.0993,0.0271093
,,,,,,,,,149,106.582,0.0533856
,,,,,,,,,167,165.889,0.0792964
,,,,,,,,,186,132.212,0.024662
,,,,,,,,,50,78.6028,0.0859923
,,,,,,,,,61,102.796,0.0347277
,,,,,,,,,73,55.5151,0.0439083
,,,,,,,,,86,71.8131,0.0419648
,,,,,,,,,100,73.01,0.0764798
,,,,,,,,,115,112.869,0.100856
,,,,,,,,,131,93.5604,0.0558826
,,,,,,,,,148,109.999,0.029536
,,,,,,,,,166,93.6494,0.0636904
,,,,,,,,,185,127.237,0.104382
,,,,,,,,,205,151.435,0.0266543
,,,,,,,,,72,61.8612,0.0310186
,,,,,,,,,85,130.202,0.0381417
,,,,,,,,,99,127.143,0.0366666
,,,,,,,,,114,92.0669,0.0605378
,,,,,,,,,130,121.347,0.0748591
,,,,,,,,,147,125.63,0.046865
,,,,,,,,,165,157.036,0.0268095
,,,,,,,,,184,170.205,0.0522351
,,,,,,,,,204,116.534,0.0767844
,,,,,,,,,225,126.706,0.0244136
,,,,,,,,,98,107.198,0.0230497
,,,,,,,,,113,83.1186,0.0225026
,,,,,,,,,129,153.708,0.0296867
,,,,,,,,,146,59.5007,0.0327601
,,,,,,,,,164,163.369,0.0259711
,,,,,,,,,183,95.2098,0.0183598
,,,,,,,,,203,114.915,0.0275401
,,,,,,,,,224,129.427,0.0331236
,,,,,,,,,246,101.542,0.0172037
,,,,,,,,,128,26.8585,0.0260291
,,,,,,,,,145,91.9457,0.0361475
,,,,,,,,,163,68.8985,0.0408093
,,,,,,,,,182,79.5514,0.0307847
,,,,,,,,,202,54.5094,0.0206415
,,,,,,,,,223,40.4546,0.0330142
,,,,,,,,,245,107.001,0.0413749
,,,,,,,,,268,102.793,0.0191915
,,,,,,,,,162,118.441,0.0348199
,,,,,,,,,181,44.0047,0.0391252
,,,,,,,,,201,99.407,0.0298165
,,,,,,,,,222,43.9785,0.0202017
,,,,,,,,,244,43.634,0.0319032
,,,,,,,,,267,116.276,0.0396447
,,,,,,,,,291,96.6401,0.0188107
,,,,,,,,,200,146.522,0.0675455
,,,,,,,,,221,35.9794,0.0438899
,,,,,,,,,243,110.721,0.0258087
,,,,,,,,,266,91.3592,0.0485658
,,,,,,,,,290,57.1175,0.0691091
,,,,,,,,,315,91.2373,0.023581
,,,,,,,,,242,111.328,0.0509577
,,,,,,,,,265,35.8025,0.0281006
,,,,,,,,,289,56.0765,0.0573709
,,,,,,,,,314,101.191,0.0884196
,,,,,,,,,340,68.0558,0.0254797
,,,,,,,,,288,76.1022,0.0229537
,,,,,,,,,313,60.265,0.0393547
,,,,,,,,,339,35.1224,0.0518425
,,,,,,,,,366,61.8818,0.0211746
,,,,,,,,,338,22.6656,0.0241708
,,,,,,,,,365,76.0374,0.0283676
,,,,,,,,,393,52.7821,0.0158256
,,,,,,,,,392,72.9209,0.058495
,,,,,,,,,421,62.3607,0.0222061
,,,,,,,,,450,34.6189,0.025699
