facetNormals:0,facetNormals:1,facetNormals:2,FacetCenters:0,FacetCenters:1,FacetCenters:2,FacetIds,relFacetSize,absFacetSize,cellPairingIds,interplanarAngles,angleWeights
0.708136,-0.0110105,-0.692549,7.17801,6.87458,8.82612,1,0.0206862,0.00528681,8,101.284,0.0179332
-0.772881,0.266371,-0.52291,7.0698,6.98541,8.88958,2,0.0158269,0.00404492,13,31.4927,0.0277036
0.634377,-0.516051,-0.534981,7.13975,6.74143,8.83884,3,0.0419266,0.0107152,19,41.769,0.0330814
0.854384,-0.44043,-0.158668,7.1836,6.77352,8.90478,4,0.0825387,0.0210946,26,33.3109,0.0362054
0.92856,0.192555,-0.216224,7.18709,6.93744,8.91974,5,0.14495,0.037045,34,113.754,0.03074
-0.776554,-0.526646,-0.229168,7.03077,6.72433,8.91522,6,0.059807,0.015285,43,49.7387,0.0197253
0.63778,0.698138,-0.267301,7.17468,6.97851,8.87987,7,0.0188497,0.00481744,53,96.8102,0.018533
-0.15554,0.957801,-0.00968397,7.11854,7.07082,8.91888,8,0.0167858,0.00428999,64,95.6478,0.0324418
0.0494755,-0.923675,0.198439,7.09427,6.70158,8.91238,9,0.075146,0.0192052,76,160.558,0.032904
-0.781988,0.27765,0.50896,7.06417,6.93215,8.99288,10,0.0803766,0.020542,89,150.181,0.0265804
-0.34427,0.323767,0.853582,7.08807,6.90964,9.03433,11,0.0371719,0.00950008,103,126.994,0.0353471
0.102445,-0.18843,0.924804,7.11708,6.80933,9.02927,12,0.121354,0.0310148,18,111.529,0.0229793
,,,,,,,,,25,137.289,0.0265608
,,,,,,,,,33,125.888,0.0285378
,,,,,,,,,42,51.7927,0.0250301
,,,,,,,,,52,100.098,0.0172065
,,,,,,,,,63,66.1741,0.0162923
,,,,,,,,,75,115.004,0.0261469
,,,,,,,,,88,64.1294,0.0264463
,,,,,,,,,102,95.6991,0.0222011
,,,,,,,,,117,131.708,0.0280019
,,,,,,,,,32,26.2066,0.0556069
,,,,,,,,,41,50.4391,0.0650403
,,,,,,,,,51,95.975,0.0492955
,,,,,,,,,62,78.7511,0.0260069
,,,,,,,,,74,128.303,0.0239735
,,,,,,,,,87,64.2329,0.0538233
,,,,,,,,,101,163.401,0.0551076
,,,,,,,,,116,152.036,0.0394063
,,,,,,,,,132,111.004,0.0623217
,,,,,,,,,50,38.3778,0.105183
,,,,,,,,,61,114.831,0.0693578
,,,,,,,,,73,73.0036,0.0306904
,,,,,,,,,86,125.814,0.0278981
,,,,,,,,,100,63.0578,0.078669
,,,,,,,,,115,156.719,0.0814433
,,,,,,,,,131,127.009,0.0512589
,,,,,,,,,148,88.5267,0.0982518
,,,,,,,,,72,145.36,0.0846761
,,,,,,,,,85,34.8415,0.033361
,,,,,,,,,99,87.4438,0.0300874
,,,,,,,,,114,100.952,0.0989786
,,,,,,,,,130,145.756,0.103411
,,,,,,,,,147,117.752,0.0591698
,,,,,,,,,165,98.791,0.132107
,,,,,,,,,98,147.636,0.0286649
,,,,,,,,,113,114.013,0.0262142
,,,,,,,,,129,63.8613,0.0666047
,,,,,,,,,146,68.5135,0.0685827
,,,,,,,,,164,96.0168,0.0458479
,,,,,,,,,183,102.103,0.0801257
,,,,,,,,,128,53.1356,0.017758
,,,,,,,,,145,135.789,0.0301392
,,,,,,,,,163,117.449,0.0305377
,,,,,,,,,182,103.37,0.0250146
,,,,,,,,,202,109.631,0.0326309
,,,,,,,,,162,166.946,0.0274418
,,,,,,,,,181,66.1053,0.0277718
,,,,,,,,,201,67.9536,0.0231278
,,,,,,,,,222,102.881,0.0294923
,,,,,,,,,200,102.17,0.0776734
,,,,,,,,,221,99.1452,0.0497395
,,,,,,,,,243,66.1861,0.0928171
,,,,,,,,,242,33.3322,0.0508343
,,,,,,,,,265,68.5297,0.0967036
,,,,,,,,,288,41.5567,0.0569113
