"cellPairingIds","interplanarAngles","angleWeights"
8,64.0495,0.0683318
13,110.837,0.035112
19,97.4187,0.0909061
53,81.9413,0.0312046
89,116.438,0.110306
103,111.63,0.0512186
18,169.691,0.0295885
42,99.2462,0.0634446
75,70.1641,0.0519523
88,75.9934,0.038612
102,86.182,0.0695298
32,30.9136,0.0331534
41,32.4241,0.0298181
51,86.8308,0.0337751
62,61.3897,0.0278264
50,37.7241,0.0622789
148,50.6155,0.0471548
85,33.515,0.0458062
165,49.0556,0.0406825
184,40.385,0.0503371
98,26.1813,0.0558597
129,32.8707,0.0664051
145,56.5382,0.0467539
163,58.9655,0.0356648
182,59.3784,0.0605235
223,34.9347,0.0449106
201,41.6633,0.0314521
222,33.2988,0.023667
200,20.9338,0.0396889
242,16.8477,0.0491887
288,36.2,0.0518887
313,32.9116,0.0686932
338,23.6916,0.0399744
