"cellPairingIds","interplanarAngles","angleWeights"
72,78.0528,0.0520781
85,110.075,0.0484294
99,66.3958,0.0100427
165,88.8796,0.0297065
98,35.7797,0.11342
183,109.936,0.0458068
128,139.578,0.0112121
163,72.9583,0.106938
202,124.764,0.0429599
223,106.84,0.044195
181,83.446,0.011328
222,95.6584,0.00978441
244,85.8523,0.00984709
289,57.1924,0.0460517
338,69.3349,0.0280576
