"cellPairingIds","interplanarAngles","angleWeights"
8,76.8289,0.0510648
13,77.5599,0.115794
19,55.928,0.0554161
26,42.4619,0.124084
89,105.719,0.0433866
18,68.7983,0.0578521
25,78.1221,0.0374606
42,68.3862,0.0275606
52,43.0948,0.0385025
117,134.988,0.0310272
51,32.8001,0.0394683
116,95.2689,0.0481902
132,103.059,0.046986
50,47.2599,0.065916
73,43.4488,0.0409254
86,40.2863,0.0157823
115,57.4396,0.0256689
148,128.525,0.0325816
130,40.5602,0.0345168
147,77.9531,0.0495684
183,81.7561,0.0248255
128,28.6993,0.0159643
202,128.703,0.0333669
222,105.348,0.0145144
242,61.2608,0.0227475
265,77.9646,0.0224756
288,41.1693,0.0280147
