"cellPairingIds","interplanarAngles","angleWeights"
8,37.7596,0.0214017
13,49.2224,0.0411196
19,53.9718,0.0372073
26,71.4037,0.0367858
43,92.9368,0.0217494
33,37.1431,0.0317106
52,56.5609,0.0198692
32,51.5418,0.113362
51,33.4073,0.0300105
62,123.585,0.0358126
87,55.095,0.0906889
206,123.971,0.0552935
50,104.368,0.0855695
61,32.167,0.0278716
86,42.2179,0.0429038
131,71.3933,0.0360433
148,47.2552,0.0531137
85,40.4504,0.0324799
130,47.1704,0.0397926
147,82.4471,0.0356476
129,27.6421,0.0262576
183,50.9398,0.0230798
163,68.2269,0.0227665
223,23.3825,0.0185074
292,87.5552,0.0251609
201,29.7331,0.0252055
222,25.2383,0.0325128
243,39.1375,0.0475445
290,48.918,0.0650181
341,82.5835,0.0437678
242,40.0778,0.0242787
289,50.9035,0.0206721
340,46.1699,0.0377299
288,43.14,0.0284143
339,50.6157,0.0338513
366,44.2067,0.0339832
365,35.1578,0.0484871
421,63.0264,0.0273132
451,71.4862,0.0226272
450,44.6133,0.0673092
481,47.3541,0.0445654
512,39.597,0.0447942
