facetNormals:0,facetNormals:1,facetNormals:2,FacetCenters:0,FacetCenters:1,FacetCenters:2,FacetIds,relFacetSize,absFacetSize,cellPairingIds,interplanarAngles,angleWeights
0.241168,-0.164262,-0.919526,6.57251,6.40316,11.6057,1,0.0400596,0.00607337,8,38.0383,0.0495938
-0.183369,-0.59839,-0.745509,6.52431,6.33148,11.6235,2,0.0650837,0.00986723,13,59.7481,0.0265528
-0.483707,0.456911,-0.730932,6.56465,6.44684,11.6015,3,0.0198575,0.00301056,19,74.1231,0.0413342
-0.795565,0.182728,-0.518917,6.55641,6.40478,11.6277,4,0.0426926,0.00647256,26,72.1242,0.0434926
0.228615,0.862346,-0.410321,6.63431,6.49808,11.642,5,0.0475691,0.00721187,34,50.7005,0.0650153
0.73727,-0.535189,-0.362601,6.62399,6.37675,11.6624,6,0.172438,0.0261431,43,70.6257,0.0651036
0.945328,-0.119531,-0.0630704,6.68713,6.43958,11.7813,7,0.173688,0.0263325,53,119.598,0.0601054
-0.761571,-0.0100208,0.211672,6.62743,6.38661,11.7368,8,0.120307,0.0182395,64,112.1,0.0354622
-0.191244,-0.804649,0.468834,6.62275,6.34104,11.7909,9,0.0318114,0.00482287,18,68.0139,0.0304304
,,,,,,,,,25,63.2757,0.0515622
,,,,,,,,,33,105.289,0.0549649
,,,,,,,,,42,61.5029,0.0945
,,,,,,,,,52,93.3797,0.0946867
,,,,,,,,,63,90.9054,0.0844705
,,,,,,,,,75,79.6007,0.0427349
,,,,,,,,,32,27.5572,0.0271068
,,,,,,,,,41,53.0577,0.0280187
,,,,,,,,,51,110.292,0.0356138
,,,,,,,,,62,119.568,0.0356402
,,,,,,,,,74,74.4794,0.0340884
,,,,,,,,,87,131.107,0.0244516
,,,,,,,,,50,78.5459,0.0449991
,,,,,,,,,61,121.544,0.0684406
,,,,,,,,,73,143.363,0.0685384
,,,,,,,,,86,49.7335,0.0630212
,,,,,,,,,100,105.011,0.0364574
,,,,,,,,,72,98.6121,0.0745678
,,,,,,,,,85,81.4806,0.0746839
,,,,,,,,,99,110.323,0.06818
,,,,,,,,,114,174.977,0.0381262
,,,,,,,,,98,33.1679,0.173061
,,,,,,,,,113,144.734,0.141731
,,,,,,,,,129,82.6262,0.0537137
,,,,,,,,,128,165.883,0.142151
,,,,,,,,,145,97.2249,0.0537739
,,,,,,,,,162,70.3317,0.0503178
