"cellPairingIds","interplanarAngles","angleWeights"
72,126.149,0.0446266
85,69.2243,0.0851951
99,57.4494,0.0940499
98,70.2394,0.0583419
113,175.199,0.0623627
164,77.5799,0.0368185
128,114.561,0.186399
182,89.4965,0.0606433
201,101.992,0.0649993
