"cellPairingIds","interplanarAngles","angleWeights"
8,66.6427,0.0290787
13,55.1132,0.0531116
19,60.8418,0.0570334
64,100.236,0.0338925
18,67.7838,0.0380732
25,116.989,0.0400473
33,37.3844,0.0383195
42,142.917,0.0356291
52,82.4132,0.0328468
102,119.117,0.0324617
41,44.3645,0.0949193
62,77.1332,0.0671896
74,63.8013,0.0718337
87,99.7727,0.0467708
61,39.1317,0.0891973
100,57.15,0.0497855
85,54.0047,0.0679604
129,42.3126,0.0431358
164,69.8662,0.0586645
128,54.0621,0.055248
145,102.815,0.0391236
182,61.1278,0.0514839
202,48.4881,0.0350581
162,56.61,0.040654
221,74.9257,0.0385785
243,54.5521,0.0285538
288,48.9999,0.0346198
