facetNormals:0,facetNormals:1,facetNormals:2,FacetCenters:0,FacetCenters:1,FacetCenters:2,FacetIds,relFacetSize,absFacetSize,cellPairingIds,interplanarAngles,angleWeights
0.210946,-0.80127,-0.5406,4.03156,7.72533,9.51165,1,0.0153215,0.00234904,8,116.316,0.0137059
-0.302816,0.790865,-0.494682,4.0923,7.78046,9.65854,2,0.0123986,0.00190091,13,58.3802,0.0226553
-0.70684,-0.563737,-0.381952,3.96114,7.73291,9.48803,3,0.0434561,0.00666253,19,34.3768,0.016033
0.714553,-0.522986,-0.438503,4.03635,7.70983,9.53624,4,0.0168138,0.00257783,26,131.996,0.0213632
0.27839,0.890967,-0.0661176,4.07201,7.8042,9.63695,5,0.0352719,0.00540777,34,41.4671,0.0185662
-0.308697,-0.927666,-0.0921489,4.02753,7.69668,9.54211,6,0.0235545,0.00361128,43,126.343,0.0276623
-0.779845,0.51498,-0.0524678,4.05741,7.759,9.62819,7,0.142191,0.0218002,53,43.8126,0.0263595
0.665195,-0.706606,0.0248955,4.06415,7.73754,9.59925,8,0.0942857,0.0144555,64,90.1942,0.0224982
-0.908306,-0.338717,0.153703,3.95833,7.74619,9.55936,9,0.0423222,0.00648869,76,80.5907,0.0252341
-0.555478,-0.63969,0.445065,4.00084,7.72022,9.60444,10,0.0714793,0.010959,89,65.9802,0.0258856
0.651782,-0.61133,0.423713,4.08338,7.77183,9.64411,11,0.0833668,0.0127815,103,129.431,0.0270736
-0.759771,0.173269,0.566702,4.00368,7.77234,9.6202,12,0.116213,0.0178174,18,92.5515,0.0192927
,,,,,,,,,25,115.229,0.0142725
,,,,,,,,,33,44.6389,0.0183477
,,,,,,,,,42,128.124,0.0162457
,,,,,,,,,52,43.1822,0.0228084
,,,,,,,,,63,144.239,0.0219153
,,,,,,,,,75,94.1023,0.0191787
,,,,,,,,,88,126.468,0.0211317
,,,,,,,,,102,156.642,0.0215867
,,,,,,,,,117,84.7319,0.0224067
,,,,,,,,,32,92.5271,0.0242463
,,,,,,,,,41,137.19,0.0389386
,,,,,,,,,51,36.3423,0.0305499
,,,,,,,,,62,72.1923,0.0665679
,,,,,,,,,74,94.8982,0.0594923
,,,,,,,,,87,36.5121,0.0428817
,,,,,,,,,101,51.6134,0.0540514
,,,,,,,,,116,106.637,0.0571316
,,,,,,,,,132,76.367,0.0632579
,,,,,,,,,50,104.918,0.0227723
,,,,,,,,,61,71.6813,0.0196213
,,,,,,,,,73,150.321,0.0300717
,,,,,,,,,86,29.6132,0.0285384
,,,,,,,,,100,123.783,0.0240664
,,,,,,,,,115,105.804,0.0272238
,,,,,,,,,131,52.1481,0.0279837
,,,,,,,,,148,157.878,0.0293773
,,,,,,,,,72,170.506,0.0282462
,,,,,,,,,85,73.7436,0.0565228
,,,,,,,,,99,119.405,0.0513384
,,,,,,,,,114,127.947,0.0384768
,,,,,,,,,130,147.347,0.0472353
,,,,,,,,,147,115.008,0.0495708
,,,,,,,,,165,96.0226,0.0541184
,,,,,,,,,98,104.63,0.0404142
,,,,,,,,,113,61.9793,0.0376925
,,,,,,,,,129,52.9718,0.0302649
,,,,,,,,,146,39.6224,0.0354328
,,,,,,,,,164,70.3327,0.0367309
,,,,,,,,,183,88.693,0.0391698
,,,,,,,,,128,166.608,0.113386
,,,,,,,,,145,55.0844,0.0652293
,,,,,,,,,163,84.8499,0.0951346
,,,,,,,,,182,155.951,0.105108
,,,,,,,,,202,43.7034,0.127896
,,,,,,,,,162,112.266,0.0584209
,,,,,,,,,181,84.2184,0.0813136
,,,,,,,,,201,24.1446,0.0884907
,,,,,,,,,222,131.004,0.104107
,,,,,,,,,200,32.7915,0.0531656
,,,,,,,,,221,109.237,0.0561428
,,,,,,,,,243,40.5584,0.062048
,,,,,,,,,242,76.7087,0.0769668
,,,,,,,,,265,52.3377,0.0885154
,,,,,,,,,288,112.262,0.0970872
