Q	U	V
{$V$}	{[mm$^3$]}	0.00328566
{$d_v$}	{[mm]}	0.184448
{$S_c$}	{[mm$^2$]}	0.209562
{$S_o$}	{[mm$^2$]}	0.113292
{$S_l/S_o$}	[]	0.849751
{$\Psi$}	[]	0.510019
{$\eta$}	[]	0.625194
{med($\theta_e$)}	{[$^\circ$]}	58.2023
{$\Upsilon$}	[]	15
{$\Xi$}	[]	9
