facetNormals:0,facetNormals:1,facetNormals:2,FacetCenters:0,FacetCenters:1,FacetCenters:2,FacetIds,relFacetSize,absFacetSize,cellPairingIds,interplanarAngles,angleWeights
0.391788,-0.362014,-0.80687,5.09899,4.5428,10.9595,1,0.101125,0.0238073,8,35.9123,0.121975
0.161264,-0.79846,-0.482841,5.04447,4.4904,10.9933,2,0.153657,0.0361745,13,97.1455,0.131986
-0.425549,0.749303,-0.401085,4.97937,4.63665,11.0028,3,0.189956,0.0447202,19,96.4378,0.0962162
-0.818236,-0.445764,-0.0716957,4.9229,4.5449,11.0395,4,0.091762,0.021603,26,79.0545,0.110897
0.897586,0.0614305,0.198562,5.1354,4.55026,11.0635,5,0.122759,0.0289005,34,136.505,0.0795285
0.169875,0.743317,0.584443,5.08047,4.64553,11.054,6,0.0655332,0.0154281,43,113.791,0.0304684
0.637298,0.07975,0.751848,5.10911,4.56252,11.078,7,0.0179363,0.00422263,18,121.723,0.169889
,,,,,,,,,25,73.0096,0.114904
,,,,,,,,,33,90.0115,0.136481
,,,,,,,,,42,158.827,0.0918803
,,,,,,,,,52,110.24,0.0321229
,,,,,,,,,32,87.2289,0.123746
,,,,,,,,,41,118.331,0.149138
,,,,,,,,,51,74.093,0.0974477
,,,,,,,,,62,123.081,0.0327776
,,,,,,,,,50,154.332,0.105021
,,,,,,,,,61,124.788,0.0764607
,,,,,,,,,73,131.383,0.0300072
,,,,,,,,,72,69.2089,0.0854501
,,,,,,,,,85,37.1435,0.0312994
,,,,,,,,,98,50.289,0.0281641
