"cellPairingIds","interplanarAngles","angleWeights"
8,70.2616,0.0162923
13,96.7309,0.0186209
19,98.5136,0.0181214
26,108.415,0.0219893
34,106.993,0.0195738
89,113.239,0.021824
103,120.772,0.01459
134,162.017,0.0175447
151,122.04,0.0196706
18,53.3369,0.0286172
42,43.1352,0.0309315
150,126.205,0.026152
32,38.946,0.0347844
167,89.8904,0.0327199
50,36.8086,0.0487285
185,76.3001,0.0312085
204,57.3136,0.0447711
146,28.6927,0.0589035
183,55.7375,0.0253224
224,90.9877,0.0357808
265,30.6051,0.029046
314,69.7618,0.0436959
339,56.0525,0.0440909
366,33.1683,0.0605314
365,69.0655,0.0220268
393,28.1605,0.0254847
450,58.5038,0.0361057
