facetNormals:0,facetNormals:1,facetNormals:2,FacetCenters:0,FacetCenters:1,FacetCenters:2,FacetIds,relFacetSize,absFacetSize,cellPairingIds,interplanarAngles,angleWeights
-0.161836,-0.00745057,-0.935424,3.72045,6.55239,9.58976,1,0.10618,0.0268037,8,69.4679,0.0348492
0.752027,-0.407588,-0.475158,3.87625,6.45767,9.65302,2,0.0208454,0.00526213,13,62.6944,0.0612997
0.263954,-0.772658,-0.480611,3.81581,6.45206,9.64763,3,0.0430874,0.0108768,19,81.2422,0.114106
0.63199,0.658913,-0.261335,3.84543,6.58155,9.65151,4,0.123309,0.0311277,26,71.8256,0.0403946
-0.867963,-0.396638,-0.1526,3.54763,6.42985,9.71477,5,0.0249416,0.00629616,34,93.0168,0.0562847
-0.387775,0.899176,0.112574,3.6829,6.62856,9.66459,6,0.0382911,0.00966604,43,99.3113,0.0622885
0.147304,0.952933,0.126622,3.71523,6.614,9.6931,7,0.0440709,0.0111251,53,81.936,0.123308
-0.743855,0.588214,-0.0110114,3.57102,6.55574,9.69485,8,0.147025,0.0371142,64,137.863,0.0708486
0.75211,-0.0880486,0.595654,3.8373,6.47004,9.78067,9,0.0531596,0.0134194,76,120.679,0.0440442
-0.479539,-0.606116,0.591877,3.56086,6.38635,9.79322,10,0.0277847,0.00701386,89,118.209,0.083964
-0.751627,0.0885501,0.589563,3.53388,6.43346,9.79459,11,0.0694357,0.017528,103,129.923,0.0513343
-0.220699,0.673931,0.666797,3.69148,6.59472,9.76187,12,0.0338497,0.00854487,118,132.194,0.0280982
0.203058,0.735448,0.636132,3.64927,6.55564,9.79754,13,0.0161914,0.00408729,134,147.167,0.0534329
0.45573,0.424348,0.747265,3.73488,6.54505,9.79231,14,0.0356987,0.00901164,18,36.856,0.0280975
,,,,,,,,,25,69.1405,0.0356622
,,,,,,,,,33,116.271,0.0227103
,,,,,,,,,42,137.545,0.026995
,,,,,,,,,52,110.792,0.0283034
,,,,,,,,,63,148.818,0.0365139
,,,,,,,,,75,70.2563,0.0299475
,,,,,,,,,88,114.487,0.02382
,,,,,,,,,102,159.886,0.0320647
,,,,,,,,,117,142.683,0.0258016
,,,,,,,,,133,117.533,0.018226
,,,,,,,,,150,101.227,0.0263212
,,,,,,,,,32,103.936,0.0638604
,,,,,,,,,41,80.5266,0.0315945
,,,,,,,,,51,155.711,0.0405479
,,,,,,,,,62,145.379,0.0435736
,,,,,,,,,74,135.925,0.0666439
,,,,,,,,,87,91.2382,0.0475965
,,,,,,,,,101,86.4393,0.033784
,,,,,,,,,116,127.249,0.0531767
,,,,,,,,,132,167.232,0.037914
,,,,,,,,,149,150.653,0.0235378
,,,,,,,,,167,127.948,0.0390466
,,,,,,,,,50,147.034,0.041491
,,,,,,,,,61,70.141,0.0584361
,,,,,,,,,73,41.8562,0.0649342
,,,,,,,,,86,95.0735,0.134127
,,,,,,,,,100,73.3835,0.0742915
,,,,,,,,,115,157.993,0.0453508
,,,,,,,,,131,128.789,0.0888435
,,,,,,,,,148,81.8953,0.0531179
,,,,,,,,,166,61.7385,0.0286243
,,,,,,,,,185,66.2297,0.0553681
,,,,,,,,,72,92.2412,0.0302072
,,,,,,,,,85,123.969,0.0318551
,,,,,,,,,99,63.1465,0.0426483
,,,,,,,,,114,139.573,0.033953
,,,,,,,,,130,52.99,0.0262865
,,,,,,,,,147,55.3382,0.0367003
,,,,,,,,,165,100.876,0.0287208
,,,,,,,,,184,126.055,0.0196358
,,,,,,,,,204,136.148,0.0293661
,,,,,,,,,98,31.8815,0.0409782
,,,,,,,,,113,29.1866,0.0607583
,,,,,,,,,129,108.655,0.0445166
,,,,,,,,,146,107.743,0.0322026
,,,,,,,,,164,62.4442,0.0493613
,,,,,,,,,183,36.9633,0.0359337
,,,,,,,,,203,48.0791,0.0227591
,,,,,,,,,224,72.459,0.0369495
,,,,,,,,,128,60.829,0.0678143
,,,,,,,,,145,83.7315,0.0481904
,,,,,,,,,163,127.268,0.0340822
,,,,,,,,,182,87.0316,0.0539192
,,,,,,,,,202,42.8411,0.0382899
,,,,,,,,,223,32.8834,0.0236821
,,,,,,,,,245,53.2412,0.0394455
,,,,,,,,,162,132.544,0.0780857
,,,,,,,,,181,90.3932,0.0467371
,,,,,,,,,201,48.3471,0.0943245
,,,,,,,,,222,53.1809,0.0550298
,,,,,,,,,244,73.0567,0.0291704
,,,,,,,,,267,96.0743,0.0574485
,,,,,,,,,200,87.2342,0.0364948
,,,,,,,,,221,103.893,0.0602172
,,,,,,,,,243,79.4411,0.0413619
,,,,,,,,,266,60.8018,0.0248224
,,,,,,,,,290,36.7898,0.0427136
,,,,,,,,,242,45.4032,0.0396882
,,,,,,,,,265,84.4275,0.0305188
,,,,,,,,,289,99.9223,0.0204599
,,,,,,,,,314,92.0247,0.0312484
,,,,,,,,,288,48.5084,0.0455123
,,,,,,,,,313,72.439,0.0262595
,,,,,,,,,339,81.645,0.0471542
,,,,,,,,,338,25.189,0.021905
,,,,,,,,,365,43.775,0.0347496
,,,,,,,,,392,24.396,0.0222783
