facetNormals:0,facetNormals:1,facetNormals:2,FacetCenters:0,FacetCenters:1,FacetCenters:2,FacetIds,relFacetSize,absFacetSize,cellPairingIds,interplanarAngles,angleWeights
0.409843,-0.558414,-0.693768,7.28837,5.42961,11.6727,1,0.0164053,0.00257168,8,77.0529,0.0284126
-0.701682,-0.0657609,-0.669309,7.21145,5.44727,11.6929,2,0.105981,0.0166135,13,76.4337,0.0209571
0.455244,0.638011,-0.564834,7.25727,5.43635,11.7231,3,0.0290048,0.00454676,19,43.8056,0.0211522
-0.216091,-0.829579,-0.444909,7.26787,5.37509,11.6923,4,0.0297646,0.00466587,26,109.438,0.0181842
-0.752846,0.49794,-0.384217,7.27069,5.42734,11.7639,5,0.0203959,0.00319723,34,141.631,0.0203629
-0.756571,0.588176,0.155187,7.27691,5.42038,11.8106,6,0.0268369,0.00420692,43,60.3834,0.0248097
0.942719,0.0619242,-0.162368,7.28766,5.43958,11.7276,7,0.0508702,0.00797435,53,86.3884,0.0294205
-0.5473,-0.763584,0.205685,7.21901,5.4021,11.7863,8,0.142368,0.0223174,64,61.4544,0.0277477
0.803469,-0.503929,0.222448,7.29575,5.40897,11.7749,9,0.0899107,0.0140943,76,118.725,0.0280456
-0.966778,-0.010325,0.0971212,7.18245,5.4652,11.7756,10,0.0965566,0.0151361,89,139.781,0.0266136
0.145415,0.796012,0.438057,7.2476,5.46607,11.8405,11,0.0704527,0.0110441,103,138.323,0.0150172
-0.289539,-0.0857359,0.935594,7.23052,5.46584,11.8571,12,0.0138456,0.00217042,18,88.9836,0.0455449
,,,,,,,,,25,57.5301,0.0464764
,,,,,,,,,33,37.8693,0.0342084
,,,,,,,,,42,65.6971,0.0428286
,,,,,,,,,52,126.706,0.0687438
,,,,,,,,,63,71.501,0.121509
,,,,,,,,,75,135.864,0.0972867
,,,,,,,,,88,49.445,0.10105
,,,,,,,,,102,120.031,0.0846397
,,,,,,,,,117,115.902,0.0244915
,,,,,,,,,32,113.787,0.0293798
,,,,,,,,,41,78.3128,0.0239502
,,,,,,,,,51,93.4732,0.0278788
,,,,,,,,,62,52.7638,0.0369447
,,,,,,,,,74,156.57,0.0481914
,,,,,,,,,87,94.9608,0.0438604
,,,,,,,,,101,122.296,0.0446093
,,,,,,,,,116,68.4424,0.0410922
,,,,,,,,,132,138.831,0.0187437
,,,,,,,,,50,94.8105,0.0242053
,,,,,,,,,61,114.814,0.028225
,,,,,,,,,73,101.39,0.0375553
,,,,,,,,,86,44.7024,0.0492356
,,,,,,,,,100,81.1066,0.0447236
,,,,,,,,,115,79.2988,0.0455026
,,,,,,,,,131,176.116,0.041849
,,,,,,,,,148,107.312,0.0188996
,,,,,,,,,72,32.5403,0.0231772
,,,,,,,,,85,130.964,0.0291174
,,,,,,,,,99,92.8685,0.0356801
,,,,,,,,,114,170.055,0.0332493
,,,,,,,,,130,44.0274,0.0336779
,,,,,,,,,147,82.4512,0.0316338
,,,,,,,,,165,101.01,0.0164942
,,,,,,,,,98,138.97,0.035137
,,,,,,,,,113,90.1921,0.0451608
,,,,,,,,,129,156.881,0.0413357
,,,,,,,,,146,38.2859,0.0420003
,,,,,,,,,164,61.5054,0.0388681
,,,,,,,,,183,70.8031,0.0182669
,,,,,,,,,128,130.329,0.0749571
,,,,,,,,,145,42.3519,0.0649772
,,,,,,,,,163,174.917,0.0666345
,,,,,,,,,182,82.4921,0.0590811
,,,,,,,,,202,117.159,0.0217668
,,,,,,,,,162,90.5622,0.110216
,,,,,,,,,181,53.4149,0.11507
,,,,,,,,,201,132.453,0.0942597
,,,,,,,,,222,63.8721,0.0252368
,,,,,,,,,200,142.399,0.0931152
,,,,,,,,,221,102.032,0.0790012
,,,,,,,,,243,88.8817,0.023996
,,,,,,,,,242,96.8253,0.0814646
,,,,,,,,,265,67.1037,0.0242184
,,,,,,,,,288,70.6661,0.023143
