facetNormals:0,facetNormals:1,facetNormals:2,FacetCenters:0,FacetCenters:1,FacetCenters:2,FacetIds,relFacetSize,absFacetSize,cellPairingIds,interplanarAngles,angleWeights
-0.518019,-0.265535,-0.769366,3.5117,4.39471,10.8452,1,0.0808549,0.0150803,8,85.98,0.0764881
0.777529,-0.208686,-0.53654,3.62658,4.42768,10.8633,2,0.0725688,0.0135349,13,85.8676,0.0857799
-0.0327345,0.88802,-0.371479,3.58542,4.50772,10.8842,3,0.0913438,0.0170366,19,38.5896,0.0962833
-0.717889,-0.5808,-0.2552,3.46643,4.35939,10.934,4,0.118988,0.0221926,26,110.188,0.058885
0.937592,0.120816,-0.249849,3.65122,4.47921,10.9156,5,0.0463035,0.00863609,34,112.015,0.0440144
0.636048,0.705301,-0.214056,3.64583,4.51751,10.954,6,0.0302372,0.00563956,43,69.821,0.0717695
-0.171741,-0.952602,0.0255586,3.51209,4.31026,10.9954,7,0.0645197,0.0120336,53,109.195,0.11483
0.753908,-0.595477,0.0959652,3.61806,4.39002,10.9848,8,0.198053,0.0369389,64,87.282,0.0346447
-0.490895,-0.671662,0.504483,3.47563,4.34912,11.0781,9,0.0220454,0.0041117,18,90.7044,0.080881
,,,,,,,,,25,108.889,0.0901542
,,,,,,,,,33,27.6638,0.0565344
,,,,,,,,,42,60.6115,0.0426877
,,,,,,,,,52,86.8456,0.0683079
,,,,,,,,,63,45.1323,0.106218
,,,,,,,,,75,122.966,0.0338175
,,,,,,,,,32,115.515,0.103349
,,,,,,,,,41,79.6369,0.0614547
,,,,,,,,,51,43.068,0.0454344
,,,,,,,,,62,155.673,0.0756235
,,,,,,,,,74,129.311,0.125025
,,,,,,,,,87,145.018,0.0355185
,,,,,,,,,50,136.499,0.0666648
,,,,,,,,,61,150.48,0.0482206
,,,,,,,,,73,43.7559,0.0836703
,,,,,,,,,86,103.75,0.148662
,,,,,,,,,100,48.8165,0.0371988
,,,,,,,,,72,39.4531,0.0365841
,,,,,,,,,85,107.36,0.0539145
,,,,,,,,,99,49.674,0.0750587
,,,,,,,,,114,134.555,0.0298696
,,,,,,,,,98,146.552,0.0411768
,,,,,,,,,113,87.6227,0.0524645
,,,,,,,,,129,160.692,0.0254995
,,,,,,,,,128,61.9079,0.0973316
,,,,,,,,,145,38.5257,0.0328622
,,,,,,,,,162,85.2197,0.0396745
