Q	U	V
{$V$}	{[mm$^3$]}	0.00460492
{$d_v$}	{[mm]}	0.206415
{$S_c$}	{[mm$^2$]}	0.257265
{$S_o$}	{[mm$^2$]}	0.160498
{$S_l/S_o$}	[]	0.602917
{$\Psi$}	[]	0.520297
{$\eta$}	[]	0.538262
{med($\theta_e$)}	{[$^\circ$]}	67.5664
{$\Upsilon$}	[]	14
{$\Xi$}	[]	6
