"cellPairingIds","interplanarAngles","angleWeights"
13,63.9475,0.023523
19,36.2808,0.026297
76,90.2998,0.0312268
32,96.6946,0.0464401
41,32.2316,0.0363617
51,43.3816,0.0533809
87,129.548,0.0358356
101,153.409,0.0643928
100,41.0294,0.0426972
115,61.1235,0.0905365
72,61.2117,0.0494628
85,66.443,0.0505552
114,141.676,0.0340262
147,114.158,0.0324012
146,120.685,0.121279
164,105.119,0.0452594
145,88.7175,0.0495441
163,110.759,0.128064
182,90.5771,0.0461724
200,41.6369,0.0574141
242,59.7724,0.0529346
