Q	U	V
{$V$}	{[mm$^3$]}	0.00326667
{$d_v$}	{[mm]}	0.184092
{$S_c$}	{[mm$^2$]}	0.212474
{$S_o$}	{[mm$^2$]}	0.123458
{$S_l/S_o$}	[]	0.721023
{$\Psi$}	[]	0.501089
{$\eta$}	[]	0.617068
{med($\theta_e$)}	{[$^\circ$]}	72.01195
{$\Upsilon$}	[]	8
{$\Xi$}	[]	4
