Q	U	V
{$V$}	{[mm$^3$]}	0.0036704
{$d_v$}	{[mm]}	0.191384
{$S_c$}	{[mm$^2$]}	0.245908
{$S_o$}	{[mm$^2$]}	0.129552
{$S_l/S_o$}	[]	0.898141
{$\Psi$}	[]	0.467937
{$\eta$}	[]	0.548201
{med($\theta_e$)}	{[$^\circ$]}	76.0933
{$\Upsilon$}	[]	10
{$\Xi$}	[]	6
