facetNormals:0,facetNormals:1,facetNormals:2,FacetCenters:0,FacetCenters:1,FacetCenters:2,FacetIds,relFacetSize,absFacetSize,cellPairingIds,interplanarAngles,angleWeights
-0.487457,0.0737433,-0.819965,6.48235,4.78261,8.56325,1,0.0366123,0.00316358,8,52.7461,0.0501682
0.00867423,0.727242,-0.610437,6.45891,4.75315,8.51787,2,0.0796647,0.00688365,13,77.0835,0.0457494
0.616985,-0.344043,-0.647707,6.52064,4.64532,8.49338,3,0.0609639,0.00526775,19,91.644,0.0358218
0.801428,0.366316,-0.410945,6.4955,4.69075,8.45788,4,0.0350648,0.00302987,26,89.8121,0.0283147
0.520215,0.797744,-0.241274,6.49251,4.74332,8.51082,5,0.0230833,0.00199457,34,66.839,0.0321955
-0.263411,-0.849611,-0.36025,6.50623,4.72644,8.56829,6,0.0287296,0.00248246,43,97.1159,0.0469634
0.616074,-0.713857,-0.287938,6.47957,4.61367,8.48036,7,0.0654746,0.00565751,53,63.1733,0.00947427
-0.940251,0.273794,0.0667083,6.45505,4.79523,8.59358,8,0.00544115,0.000470157,64,96.1492,0.0135442
-0.0425775,-0.992964,0.0604629,6.51253,4.73931,8.58492,9,0.00830903,0.000717964,76,91.0043,0.0257351
-0.580713,-0.724387,0.300033,6.45331,4.68425,8.58402,10,0.0198407,0.00171438,89,119.712,0.0244384
0.521981,-0.813795,0.185885,6.47713,4.58945,8.53425,11,0.0183402,0.00158473,103,105.362,0.0253019
0.253932,0.914081,0.233243,6.44427,4.77662,8.56494,12,0.0193303,0.00167028,118,97.0808,0.0295754
-0.350471,0.795407,0.418652,6.38218,4.76978,8.58344,13,0.0248075,0.00214356,134,138.213,0.0402369
0.245592,-0.700957,0.649204,6.44061,4.60621,8.5667,14,0.0446581,0.0038588,151,153.378,0.057977
0.706564,0.252237,0.613755,6.50465,4.70266,8.55796,15,0.139214,0.0120291,169,158.286,0.0619337
0.150178,-0.1087,0.946738,6.43239,4.6842,8.59517,16,0.20083,0.0173532,18,80.4787,0.0690709
,,,,,,,,,25,55.4024,0.0486959
,,,,,,,,,33,38.3144,0.0357948
,,,,,,,,,42,116.055,0.0422298
,,,,,,,,,52,111.167,0.071876
,,,,,,,,,63,80.7237,0.0101865
,,,,,,,,,75,143.439,0.0150485
,,,,,,,,,88,140.512,0.0317691
,,,,,,,,,102,138.558,0.0298162
,,,,,,,,,117,55.5626,0.0311115
,,,,,,,,,133,69.5641,0.0378336
,,,,,,,,,150,164.807,0.0572329
,,,,,,,,,168,101.602,0.101339
,,,,,,,,,187,135.707,0.114077
,,,,,,,,,32,47.0768,0.0445218
,,,,,,,,,41,77.5636,0.0334871
,,,,,,,,,51,66.7472,0.0390545
,,,,,,,,,62,30.7345,0.0631388
,,,,,,,,,74,139.704,0.00999061
,,,,,,,,,87,73.1771,0.0146248
,,,,,,,,,101,108.932,0.029938
,,,,,,,,,116,59.3072,0.0281975
,,,,,,,,,132,109.262,0.0293533
,,,,,,,,,149,145.394,0.0352649
,,,,,,,,,167,91.6855,0.0515524
,,,,,,,,,186,92.9849,0.0847948
,,,,,,,,,206,121.504,0.0935345
,,,,,,,,,50,32.2029,0.0278396
,,,,,,,,,61,113.648,0.0315826
,,,,,,,,,73,68.5489,0.0456707
,,,,,,,,,86,135.496,0.00942048
,,,,,,,,,100,115.889,0.0134346
,,,,,,,,,115,154.194,0.0253421
,,,,,,,,,131,87.3753,0.0240837
,,,,,,,,,148,62.2348,0.0249218
,,,,,,,,,166,99.9171,0.0290575
,,,,,,,,,185,109.917,0.0392843
,,,,,,,,,205,64.4525,0.0560196
,,,,,,,,,226,109.203,0.0597051
,,,,,,,,,72,140.533,0.0255988
,,,,,,,,,85,100.68,0.0341329
,,,,,,,,,99,107.302,0.00880645
,,,,,,,,,114,147.919,0.0122195
,,,,,,,,,130,173.467,0.0213395
,,,,,,,,,147,115.901,0.0204402
,,,,,,,,,165,32.9936,0.0210407
,,,,,,,,,184,68.2519,0.0239143
,,,,,,,,,204,127.356,0.030435
,,,,,,,,,225,63.7829,0.0396003
,,,,,,,,,247,104.481,0.0414072
,,,,,,,,,98,54.6115,0.0399358
,,,,,,,,,113,90.5461,0.00914946
,,,,,,,,,129,29.3321,0.0128901
,,,,,,,,,146,45.1542,0.0234717
,,,,,,,,,164,58.9771,0.0223883
,,,,,,,,,183,171.608,0.0231108
,,,,,,,,,203,142.474,0.0266249
,,,,,,,,,224,71.7182,0.0349652
,,,,,,,,,246,131.924,0.0476298
,,,,,,,,,269,108.141,0.0502681
,,,,,,,,,128,145.122,0.0100473
,,,,,,,,,145,47.344,0.0147466
,,,,,,,,,163,85.6505,0.0304531
,,,,,,,,,182,28.9965,0.0286541
,,,,,,,,,202,125.786,0.0298483
,,,,,,,,,223,161.929,0.0359819
,,,,,,,,,245,61.4545,0.0530991
,,,,,,,,,268,85.2877,0.0890619
,,,,,,,,,292,96.1856,0.0987535
,,,,,,,,,162,103.478,0.00657601
,,,,,,,,,181,67.4226,0.00854021
,,,,,,,,,201,136.519,0.00839244
,,,,,,,,,222,88.3824,0.00849195
,,,,,,,,,244,52.5955,0.00892478
,,,,,,,,,267,113.076,0.0097004
,,,,,,,,,291,125.636,0.010473
,,,,,,,,,316,96.5374,0.0105952
,,,,,,,,,200,38.3253,0.0117129
,,,,,,,,,221,35.5999,0.0114367
,,,,,,,,,243,158.385,0.0116223
,,,,,,,,,266,141.288,0.0124485
,,,,,,,,,290,42.445,0.0140112
,,,,,,,,,315,104.609,0.0156821
,,,,,,,,,341,80.4854,0.0159578
,,,,,,,,,242,69.1336,0.0190609
,,,,,,,,,265,140.89,0.0195821
,,,,,,,,,289,105.216,0.0220478
,,,,,,,,,314,54.4265,0.0274748
,,,,,,,,,340,115.616,0.0347314
,,,,,,,,,367,72.9757,0.0361135
,,,,,,,,,288,126.193,0.0188222
,,,,,,,,,313,142.388,0.0210892
,,,,,,,,,339,32.4774,0.0260019
,,,,,,,,,366,73.0866,0.0324106
,,,,,,,,,394,68.8409,0.033611
,,,,,,,,,338,38.6861,0.021729
,,,,,,,,,365,116.296,0.0269816
,,,,,,,,,393,54.2592,0.0339469
,,,,,,,,,422,80.2509,0.0352661
,,,,,,,,,392,112.998,0.0318965
,,,,,,,,,421,77.0259,0.0421109
,,,,,,,,,451,73.9541,0.0441601
,,,,,,,,,450,65.5891,0.0676235
,,,,,,,,,481,40.123,0.0730682
,,,,,,,,,512,45.1266,0.164439
