facetNormals:0,facetNormals:1,facetNormals:2,FacetCenters:0,FacetCenters:1,FacetCenters:2,FacetIds,relFacetSize,absFacetSize,cellPairingIds,interplanarAngles,angleWeights
-0.143548,0.0763117,-0.973116,6.82239,6.10789,12.0479,1,0.00594051,0.00221252,8,68.8186,0.0106459
0.744685,-0.385245,-0.497137,6.74248,6.19487,12.1465,2,0.0512052,0.0190711,13,68.6862,0.0106189
-0.490987,-0.762601,-0.344973,6.77989,6.03048,12.11,3,0.0499814,0.0186153,19,93.0608,0.0113676
0.725325,0.600375,-0.00893853,6.8549,6.22093,12.1394,4,0.131517,0.0489828,26,106.798,0.01075
-0.612478,-0.658254,0.318194,6.7765,6.02977,12.1934,5,0.056464,0.0210298,34,107.532,0.011257
-0.813428,0.3262,0.445884,6.74638,6.20283,12.1346,6,0.107169,0.0399147,43,107.052,0.010798
-0.551998,0.685573,0.425888,6.78426,6.23956,12.1649,7,0.0592255,0.0220583,53,125.348,0.0113516
0.799348,-0.360028,0.425438,6.88509,6.05918,12.2339,8,0.127365,0.0474366,18,83.9521,0.0505859
,,,,,,,,,25,70.0414,0.0737113
,,,,,,,,,33,112.829,0.0537062
,,,,,,,,,42,173.925,0.0692993
,,,,,,,,,52,158.52,0.0549241
,,,,,,,,,63,56.6297,0.0730441
,,,,,,,,,32,152.556,0.0724348
,,,,,,,,,41,41.522,0.0530253
,,,,,,,,,51,90.1919,0.0681699
,,,,,,,,,62,114.848,0.0542122
,,,,,,,,,74,106.255,0.0717904
,,,,,,,,,50,159.699,0.0790077
,,,,,,,,,61,115.468,0.118101
,,,,,,,,,73,89.5384,0.0816719
,,,,,,,,,86,66.9109,0.129408
,,,,,,,,,72,63.0281,0.0739606
,,,,,,,,,85,88.6286,0.0578118
,,,,,,,,,99,97.2457,0.0782417
,,,,,,,,,98,26.2201,0.0762903
,,,,,,,,,113,127.098,0.116398
,,,,,,,,,128,122.139,0.0808536
