"cellPairingIds","interplanarAngles","angleWeights"
8,27.693,0.0521198
19,40.7613,0.0330915
26,54.0618,0.0589516
64,128.009,0.0284216
33,56.9103,0.166324
75,125.297,0.0412648
88,130.314,0.00396048
50,47.2162,0.058668
100,133.308,0.0283556
131,128.466,0.0235689
130,108.401,0.00399567
147,127.578,0.0342788
200,69.9445,0.0037245
221,50.1871,0.0210997
242,36.7494,0.00362772
