"cellPairingIds","interplanarAngles","angleWeights"
19,68.9192,0.0401286
26,93.7147,0.0197485
89,67.4473,0.103687
134,91.836,0.0353576
50,90.3943,0.0161953
100,31.7561,0.0288934
131,84.0532,0.0481838
114,107.418,0.0165764
204,127.84,0.0153589
225,126.538,0.0129204
247,109.22,0.0191322
221,76.6584,0.051721
315,57.5496,0.0198962
339,55.0145,0.0414655
366,71.5662,0.0274689
450,79.334,0.0181677
481,75.018,0.0334295
512,25.1755,0.0236955
