facetNormals:0,facetNormals:1,facetNormals:2,FacetCenters:0,FacetCenters:1,FacetCenters:2,FacetIds,relFacetSize,absFacetSize,cellPairingIds,interplanarAngles,angleWeights
0.132706,-0.103148,-0.933219,3.10793,4.40039,8.78267,1,0.124407,0.0168289,8,36.2546,0.0445467
-0.177026,0.410882,-0.878041,3.08123,4.47018,8.78189,2,0.0271307,0.00367006,13,40.9887,0.0677937
-0.523284,-0.215214,-0.805814,3.02436,4.43771,8.77987,3,0.0465916,0.00630258,19,48.0467,0.0951397
0.767157,0.144131,-0.559024,3.16491,4.43487,8.81978,4,0.0770204,0.0104188,26,63.6077,0.136308
0.010978,0.807511,-0.522021,3.04914,4.52561,8.82417,5,0.150727,0.0203893,34,67.3692,0.0962375
-0.825647,-0.235481,-0.475022,2.94377,4.46292,8.8433,6,0.0784696,0.0106148,43,77.6388,0.0808885
0.735505,0.577273,-0.165763,3.18387,4.45729,8.84738,7,0.059926,0.00810637,53,77.6617,0.133648
-0.474653,-0.816582,-0.186264,3.04455,4.37131,8.83003,8,0.144373,0.0195297,64,93.8599,0.0300064
-0.962119,0.206961,-0.0920835,2.92508,4.47934,8.90284,9,0.0170607,0.00230785,76,73.4274,0.0665562
0.55778,-0.779803,-0.114326,3.18995,4.34088,8.85576,10,0.0454304,0.00614552,89,81.3231,0.0392681
0.861282,-0.470629,0.0240002,3.20907,4.35885,8.84601,11,0.0233134,0.00315367,103,117.65,0.0361144
-0.68292,0.631816,0.292994,2.94466,4.52121,8.89466,12,0.0211232,0.0028574,18,42.8167,0.0342926
,,,,,,,,,25,64.0339,0.0401267
,,,,,,,,,33,33.7192,0.0459843
,,,,,,,,,42,61.155,0.0403207
,,,,,,,,,52,74.3434,0.0373512
,,,,,,,,,63,95.319,0.0456777
,,,,,,,,,75,69.8079,0.0209484
,,,,,,,,,88,109.573,0.033973
,,,,,,,,,102,112.287,0.0250776
,,,,,,,,,117,82.6339,0.023753
,,,,,,,,,32,88.9085,0.0580607
,,,,,,,,,41,75.2465,0.0711803
,,,,,,,,,51,26.3823,0.0584677
,,,,,,,,,62,113.682,0.0524241
,,,,,,,,,74,52.7154,0.0704482
,,,,,,,,,87,56.7845,0.0249758
,,,,,,,,,101,91.9246,0.0460037
,,,,,,,,,116,112.424,0.0310767
,,,,,,,,,132,90.8777,0.0290679
,,,,,,,,,50,63.1752,0.101947
,,,,,,,,,61,115.245,0.0777382
,,,,,,,,,73,35.7275,0.0674063
,,,,,,,,,86,114.119,0.100452
,,,,,,,,,100,133.796,0.0279338
,,,,,,,,,115,65.84,0.0571506
,,,,,,,,,131,52.0646,0.0357927
,,,,,,,,,148,129.575,0.0331538
,,,,,,,,,72,87.0382,0.103208
,,,,,,,,,85,52.1125,0.0857567
,,,,,,,,,99,127.798,0.147481
,,,,,,,,,114,77.5674,0.0306519
,,,,,,,,,130,127.397,0.0698173
,,,,,,,,,147,113.941,0.0403809
,,,,,,,,,165,68.1064,0.0370536
,,,,,,,,,98,135.491,0.0679555
,,,,,,,,,113,44.594,0.101676
,,,,,,,,,129,35.5206,0.0280277
,,,,,,,,,146,103.589,0.0575449
,,,,,,,,,164,129.418,0.0359469
,,,,,,,,,183,73.2461,0.0332861
,,,,,,,,,128,149.743,0.0846963
,,,,,,,,,145,127.618,0.0265599
,,,,,,,,,163,91.3098,0.051681
,,,,,,,,,182,67.4297,0.0335677
,,,,,,,,,202,101.593,0.031236
,,,,,,,,,162,71.3165,0.0305153
,,,,,,,,,181,64.9675,0.0691128
,,,,,,,,,201,91.7566,0.0401443
,,,,,,,,,222,105.21,0.0368542
,,,,,,,,,200,136.086,0.0248059
,,,,,,,,,221,163.053,0.0197029
,,,,,,,,,243,37.8939,0.0188758
,,,,,,,,,242,26.9955,0.030814
,,,,,,,,,265,164.4,0.0288379
,,,,,,,,,288,156.546,0.0221643
