facetNormals:0,facetNormals:1,facetNormals:2,FacetCenters:0,FacetCenters:1,FacetCenters:2,FacetIds,relFacetSize,absFacetSize,cellPairingIds,interplanarAngles,angleWeights
-0.240718,0.111954,-0.964189,6.73917,4.77194,9.06019,1,0.00305492,0.000165496,8,44.5541,0.00543584
-0.453119,0.674325,-0.522514,6.72169,4.76447,9.05927,2,0.0246377,0.00133471,13,52.3206,0.00507031
0.157496,0.789626,-0.57486,6.72461,4.75239,9.0523,3,0.0149004,0.000807206,19,70.7833,0.00564331
0.364179,-0.755366,-0.514496,6.73188,4.6811,9.02014,4,0.0369529,0.00200187,26,71.6498,0.00590763
0.755893,0.337139,-0.458542,6.7478,4.73506,9.04115,5,0.0892483,0.00483489,34,85.3476,0.00546771
0.683246,-0.63412,-0.327325,6.72558,4.67688,9.01031,6,0.0260122,0.00140917,43,84.0973,0.00520553
-0.0882695,-0.961197,-0.194601,6.72279,4.67669,9.04513,7,0.0175852,0.000952652,53,86.0351,0.00551247
-0.704827,-0.670397,0.0283324,6.7175,4.69972,9.04835,8,0.0281903,0.00152717,64,100.002,0.0051984
-0.217378,-0.952549,0.121016,6.72524,4.67945,9.04121,9,0.0174236,0.000943896,76,111.816,0.00593301
0.8906,-0.366886,0.108684,6.76147,4.70517,9.08084,10,0.102496,0.00555254,89,103.515,0.00597572
0.379483,0.843562,0.23452,6.71545,4.78432,9.13085,11,0.136106,0.00737332,103,99.6609,0.0058541
-0.84576,0.0166622,0.374085,6.72517,4.73768,9.05476,12,0.0699295,0.00378832,118,121.141,0.00471982
0.853349,0.358957,0.361783,6.75072,4.76296,9.10765,13,0.010373,0.000561939,134,125.87,0.00591755
0.0971449,-0.829677,0.45855,6.71878,4.6882,9.10514,14,0.0940124,0.00509297,151,139.218,0.00502649
0.677345,-0.469052,0.557888,6.76739,4.72119,9.06333,15,0.0141741,0.000767862,169,138.112,0.00485374
0.820766,-0.00803951,0.562489,6.74957,4.75026,9.13981,16,0.0118046,0.000639494,188,124.391,0.00371297
-0.60627,-0.393426,0.691821,6.70475,4.73101,9.10852,17,0.00473235,0.000256368,208,156.865,0.00588154
0.373995,-0.436825,0.780882,6.734,4.73923,9.12051,18,0.0786992,0.00426341,229,153.384,0.00558914
0.218911,0.336513,0.88864,6.69904,4.769,9.16491,19,0.0327909,0.0017764,251,160.588,0.00555475
-0.0769285,-0.204829,0.930771,6.71809,4.74933,9.11162,20,0.03057,0.00165608,18,37.1727,0.01857
,,,,,,,,,25,115.261,0.0295641
,,,,,,,,,33,82.1756,0.0386154
,,,,,,,,,42,126.389,0.0253063
,,,,,,,,,52,122.175,0.0205225
,,,,,,,,,63,99.0277,0.0262946
,,,,,,,,,75,129.669,0.020412
,,,,,,,,,88,139.102,0.0397262
,,,,,,,,,102,72.6846,0.0417229
,,,,,,,,,117,77.1303,0.0364377
,,,,,,,,,133,110.335,0.0145993
,,,,,,,,,150,156.338,0.0390434
,,,,,,,,,168,162.122,0.0179955
,,,,,,,,,187,134.295,0.0159615
,,,,,,,,,207,111.365,0.00793967
,,,,,,,,,228,158.58,0.0375272
,,,,,,,,,250,110.938,0.0281356
,,,,,,,,,273,129.672,0.0272851
,,,,,,,,,32,104.478,0.0212373
,,,,,,,,,41,46.1202,0.0255372
,,,,,,,,,51,102.103,0.0189473
,,,,,,,,,62,132.731,0.0161319
,,,,,,,,,74,133.004,0.0194959
,,,,,,,,,87,151.499,0.0160635
,,,,,,,,,101,102.767,0.0260184
,,,,,,,,,116,51.2399,0.0268602
,,,,,,,,,132,111.481,0.0245663
,,,,,,,,,149,77.6772,0.0122312
,,,,,,,,,167,163.393,0.0257237
,,,,,,,,,186,126.418,0.0145282
,,,,,,,,,206,101.748,0.013173
,,,,,,,,,227,144.304,0.00718329
,,,,,,,,,249,139.996,0.0250567
,,,,,,,,,272,102.612,0.02049
,,,,,,,,,296,138.541,0.0200352
,,,,,,,,,50,74.0034,0.0522655
,,,,,,,,,61,22.7714,0.0305321
,,,,,,,,,73,34.9495,0.0238301
,,,,,,,,,86,75.783,0.0319823
,,,,,,,,,100,53.3554,0.0236813
,,,,,,,,,115,55.1051,0.0543213
,,,,,,,,,131,131.303,0.0581248
,,,,,,,,,148,124.32,0.048354
,,,,,,,,,166,98.6167,0.0161988
,,,,,,,,,185,62.9627,0.0530527
,,,,,,,,,205,71.294,0.0204892
,,,,,,,,,226,89.0881,0.0178932
,,,,,,,,,248,106.5,0.00839021
,,,,,,,,,271,86.1295,0.0502916
,,,,,,,,,295,131.181,0.0347477
,,,,,,,,,320,111.986,0.0334597
,,,,,,,,,72,61.0308,0.0402835
,,,,,,,,,85,108.884,0.0293812
,,,,,,,,,99,146.947,0.0428468
,,,,,,,,,114,125.5,0.0291553
,,,,,,,,,130,56.9895,0.0954143
,,,,,,,,,147,59.0983,0.107806
,,,,,,,,,165,156.934,0.0784166
,,,,,,,,,184,50.3461,0.0185858
,,,,,,,,,204,117.515,0.0915684
,,,,,,,,,225,84.0221,0.0244631
,,,,,,,,,247,67.5346,0.0208512
,,,,,,,,,270,163.6,0.00898811
,,,,,,,,,294,104.042,0.0836424
,,,,,,,,,319,98.0091,0.0479606
,,,,,,,,,345,127.76,0.0455409
,,,,,,,,,98,50.9476,0.0209843
,,,,,,,,,113,93.9203,0.0270575
,,,,,,,,,129,64.6854,0.0208688
,,,,,,,,,146,32.7337,0.0414938
,,,,,,,,,164,111.95,0.043677
,,,,,,,,,183,141.071,0.0379193
,,,,,,,,,203,76.0337,0.0148315
,,,,,,,,,224,61.972,0.0407495
,,,,,,,,,246,54.0141,0.0183496
,,,,,,,,,269,67.1487,0.0162395
,,,,,,,,,293,113.314,0.00800785
,,,,,,,,,318,73.1997,0.0391006
,,,,,,,,,344,111.603,0.0290109
,,,,,,,,,371,103.926,0.0281075
,,,,,,,,,128,42.975,0.0216593
,,,,,,,,,145,19.951,0.017504
,,,,,,,,,163,74.6358,0.0300199
,,,,,,,,,182,161.29,0.0311463
,,,,,,,,,202,90.8907,0.0281033
,,,,,,,,,223,120.095,0.0130488
,,,,,,,,,245,41.783,0.0296284
,,,,,,,,,268,73.2416,0.0156965
,,,,,,,,,292,100.24,0.0141264
,,,,,,,,,317,72.4506,0.00745775
,,,,,,,,,343,75.7593,0.028747
,,,,,,,,,370,122.487,0.0228932
,,,,,,,,,398,88.628,0.022327
,,,,,,,,,162,33.8978,0.0215363
,,,,,,,,,181,113.669,0.0442187
,,,,,,,,,201,152.855,0.0467067
,,,,,,,,,222,48.5754,0.0401822
,,,,,,,,,244,149.318,0.0151656
,,,,,,,,,267,57.3185,0.0433745
,,,,,,,,,291,98.7413,0.0188636
,,,,,,,,,316,125.127,0.0166408
,,,,,,,,,342,43.1198,0.00810423
,,,,,,,,,369,86.8798,0.0415112
,,,,,,,,,397,111.95,0.0303171
,,,,,,,,,426,76.4559,0.0293319
,,,,,,,,,200,79.7975,0.0297841
,,,,,,,,,221,155.91,0.0308925
,,,,,,,,,243,76.4567,0.0278965
,,,,,,,,,266,119.62,0.0130041
,,,,,,,,,290,28.4729,0.0293987
,,,,,,,,,315,67.9932,0.0156318
,,,,,,,,,341,96.017,0.014074
,,,,,,,,,368,53.1823,0.00744311
,,,,,,,,,396,63.2791,0.0285307
,,,,,,,,,425,105.751,0.0227558
,,,,,,,,,455,69.8368,0.0221963
,,,,,,,,,242,86.6554,0.116933
,,,,,,,,,265,143.283,0.0831371
,,,,,,,,,289,46.1371,0.0188393
,,,,,,,,,314,61.4998,0.0980709
,,,,,,,,,340,29.9171,0.0249043
,,,,,,,,,367,34.482,0.0211709
,,,,,,,,,395,109.293,0.00904699
,,,,,,,,,424,52.0404,0.0890348
,,,,,,,,,454,79.7568,0.049686
,,,,,,,,,485,83.3208,0.0470939
,,,,,,,,,288,104.377,0.0923901
,,,,,,,,,313,41.399,0.0192768
,,,,,,,,,339,127.652,0.111209
,,,,,,,,,366,90.4706,0.0256745
,,,,,,,,,394,62.6253,0.0217249
,,,,,,,,,423,114.75,0.00914667
,,,,,,,,,453,92.69,0.0997315
,,,,,,,,,484,51.8068,0.0528493
,,,,,,,,,516,88.976,0.0499263
,,,,,,,,,338,129.148,0.0180661
,,,,,,,,,365,85.0828,0.0802021
,,,,,,,,,393,113.84,0.0235707
,,,,,,,,,422,121.719,0.0201993
,,,,,,,,,452,34.2409,0.00886479
,,,,,,,,,483,92.0107,0.0740556
,,,,,,,,,515,80.2406,0.0446465
,,,,,,,,,548,62.3922,0.0425424
,,,,,,,,,392,92.9669,0.0186844
,,,,,,,,,421,51.8092,0.0119792
,,,,,,,,,451,24.3549,0.0110426
,,,,,,,,,482,114.241,0.0064995
,,,,,,,,,514,62.5153,0.01833
,,,,,,,,,547,49.5279,0.0157604
,,,,,,,,,581,78.0016,0.0154899
,,,,,,,,,450,41.4413,0.0246342
,,,,,,,,,481,68.7067,0.0209754
,,,,,,,,,513,52.1682,0.0090111
,,,,,,,,,546,35.0184,0.0856769
,,,,,,,,,580,80.738,0.0486226
,,,,,,,,,615,49.7031,0.0461374
,,,,,,,,,512,28.0825,0.0128813
,,,,,,,,,545,80.7602,0.00709566
,,,,,,,,,579,22.1283,0.0240218
,,,,,,,,,614,59.9267,0.0197927
,,,,,,,,,650,53.6993,0.019368
,,,,,,,,,578,96.0718,0.0067562
,,,,,,,,,613,39.0199,0.0205297
,,,,,,,,,649,45.7692,0.0173597
,,,,,,,,,686,60.9446,0.0170322
,,,,,,,,,648,59.9846,0.00892785
,,,,,,,,,685,68.9968,0.00827103
,,,,,,,,,723,36.2799,0.00819593
,,,,,,,,,722,48.322,0.0462932
,,,,,,,,,761,31.8622,0.044035
,,,,,,,,,800,37.3308,0.0316415
