facetNormals:0,facetNormals:1,facetNormals:2,FacetCenters:0,FacetCenters:1,FacetCenters:2,FacetIds,relFacetSize,absFacetSize,cellPairingIds,interplanarAngles,angleWeights
-0.188741,0.805895,-0.525011,5.4089,6.80463,12.1974,1,0.0234061,0.00228165,8,67.3401,0.0294329
-0.889802,-0.00754939,-0.390705,5.34703,6.67948,12.2423,2,0.0396395,0.0038641,13,31.7594,0.0409053
0.34012,0.758487,-0.48854,5.50589,6.78429,12.2068,3,0.162086,0.0158003,19,116.26,0.0182475
-0.285328,-0.852335,-0.394848,5.45749,6.74266,12.2877,4,0.0149521,0.00145755,26,107.725,0.0130509
0.971978,-0.0735283,0.0943259,5.54431,6.76141,12.243,5,0.00904792,0.000882,34,83.0373,0.0300304
-0.967228,-0.0464254,0.0569249,5.3316,6.65838,12.2794,6,0.0418842,0.00408292,43,67.554,0.0396757
-0.788778,0.47223,0.315585,5.35694,6.74898,12.2529,7,0.130128,0.012685,53,67.0993,0.0383517
0.15717,0.821505,0.497502,5.4685,6.79776,12.2705,8,0.106101,0.0103428,64,78.8926,0.0402781
-0.357166,0.596474,0.691352,5.41108,6.76084,12.3016,9,0.144283,0.0140648,18,97.2031,0.0637005
,,,,,,,,,25,64.2436,0.0217138
,,,,,,,,,33,161.241,0.014733
,,,,,,,,,42,27.159,0.0407309
,,,,,,,,,52,52.504,0.0607678
,,,,,,,,,63,111.097,0.0577161
,,,,,,,,,75,87.4021,0.0621925
,,,,,,,,,32,125.571,0.0273786
,,,,,,,,,41,75.9809,0.0171391
,,,,,,,,,51,114.779,0.066567
,,,,,,,,,62,93.9326,0.144359
,,,,,,,,,74,62.4837,0.12825
,,,,,,,,,87,90.413,0.152667
,,,,,,,,,50,105.19,0.0112738
,,,,,,,,,61,72.0761,0.0220372
,,,,,,,,,73,108.453,0.0268223
,,,,,,,,,86,170.208,0.0262106
,,,,,,,,,100,134.902,0.0270963
,,,,,,,,,72,168.643,0.0148812
,,,,,,,,,85,144.158,0.0169194
,,,,,,,,,99,81.596,0.0166739
,,,,,,,,,114,109.835,0.017028
,,,,,,,,,98,36.3918,0.0633711
,,,,,,,,,113,99.8715,0.0600594
,,,,,,,,,129,67.9448,0.0649221
,,,,,,,,,128,63.5742,0.116892
,,,,,,,,,145,34.9032,0.13684
,,,,,,,,,162,35.3951,0.12228
