Q	U	V
{$V$}	{[mm$^3$]}	0.00179186
{$d_v$}	{[mm]}	0.150696
{$S_c$}	{[mm$^2$]}	0.105707
{$S_o$}	{[mm$^2$]}	0.0686168
{$S_l/S_o$}	[]	0.540541
{$\Psi$}	[]	0.674916
{$\eta$}	[]	0.715501
{med($\theta_e$)}	{[$^\circ$]}	64.05725
{$\Upsilon$}	[]	15
{$\Xi$}	[]	5
