Q	U	V
{$V$}	{[mm$^3$]}	0.00378795
{$d_v$}	{[mm]}	0.193405
{$S_c$}	{[mm$^2$]}	0.219376
{$S_o$}	{[mm$^2$]}	0.126926
{$S_l/S_o$}	[]	0.728377
{$\Psi$}	[]	0.535671
{$\eta$}	[]	0.609638
{med($\theta_e$)}	{[$^\circ$]}	64.3765
{$\Upsilon$}	[]	18
{$\Xi$}	[]	9
