facetNormals:0,facetNormals:1,facetNormals:2,FacetCenters:0,FacetCenters:1,FacetCenters:2,FacetIds,relFacetSize,absFacetSize,cellPairingIds,interplanarAngles,angleWeights
0.345945,-0.424164,-0.820881,6.57202,5.5837,8.50628,1,0.0278993,0.00960732,8,69.413,0.0119999
-0.5922,0.195783,-0.7693,6.46923,5.52553,8.64511,2,0.00764378,0.00263219,13,23.9378,0.0229296
0.648705,-0.161727,-0.732497,6.63921,5.60578,8.55952,3,0.0194627,0.00670212,19,28.4233,0.0398092
0.218247,-0.785231,-0.529759,6.54027,5.50489,8.57915,4,0.0694615,0.0239196,26,75.622,0.0195634
0.0643334,0.736171,-0.64628,6.58187,5.68204,8.54049,5,0.0150628,0.00518699,34,48.9208,0.0345569
0.799501,0.191312,-0.537746,6.69403,5.63736,8.69883,6,0.0453877,0.0156296,43,81.2467,0.0265612
0.559819,0.735635,-0.323319,6.64955,5.70815,8.64253,7,0.0253455,0.0087279,53,40.4258,0.0355188
0.654552,-0.668473,-0.26957,6.60682,5.52083,8.62194,8,0.048864,0.0168267,64,76.5369,0.0332204
0.884566,0.406366,-0.111367,6.66089,5.69565,8.63755,9,0.0410496,0.0141357,76,53.1118,0.0336688
0.921654,-0.329644,-0.156396,6.66854,5.61364,8.63287,10,0.0424466,0.0146168,89,126.911,0.0445534
-0.271586,0.907293,0.104521,6.55024,5.70857,8.68462,11,0.110537,0.0380643,103,92.018,0.0408063
0.302,-0.739048,0.550188,6.60566,5.52795,8.74022,12,0.0759366,0.0261493,118,167.183,0.0449776
-0.415593,0.2155,0.813985,6.53569,5.61919,8.7763,13,0.115964,0.0399329,18,81.3521,0.0109766
,,,,,,,,,25,82.5656,0.013772
,,,,,,,,,33,51.6534,0.0101413
,,,,,,,,,42,91.3146,0.0130841
,,,,,,,,,52,86.3806,0.0117454
,,,,,,,,,63,108.823,0.0132196
,,,,,,,,,75,111.688,0.0128878
,,,,,,,,,88,119.944,0.0129547
,,,,,,,,,102,74.1294,0.0142988
,,,,,,,,,117,141.051,0.0138894
,,,,,,,,,133,111.305,0.0143422
,,,,,,,,,32,47.0674,0.0304059
,,,,,,,,,41,65.9951,0.0169824
,,,,,,,,,51,25.1848,0.0272432
,,,,,,,,,62,60.3129,0.0220179
,,,,,,,,,74,40.8689,0.0278376
,,,,,,,,,87,52.6372,0.0264057
,,,,,,,,,101,38.8347,0.0266883
,,,,,,,,,116,115.008,0.0330978
,,,,,,,,,132,95.2256,0.0309841
,,,,,,,,,149,165.284,0.0333313
,,,,,,,,,50,103.431,0.024757
,,,,,,,,,61,71.11,0.0549015
,,,,,,,,,73,107.369,0.0371394
,,,,,,,,,86,31.0783,0.05737
,,,,,,,,,100,94.0364,0.0516033
,,,,,,,,,115,55.7093,0.0526933
,,,,,,,,,131,153.253,0.0853127
,,,,,,,,,148,67.888,0.0725549
,,,,,,,,,166,139.218,0.0868815
,,,,,,,,,72,55.9613,0.022619
,,,,,,,,,85,35.1069,0.0188958
,,,,,,,,,99,106.77,0.0230273
,,,,,,,,,114,63.5766,0.0220387
,,,,,,,,,130,94.8518,0.0222352
,,,,,,,,,147,51.4528,0.0265128
,,,,,,,,,165,157.627,0.025139
,,,,,,,,,184,115.314,0.0266624
,,,,,,,,,98,37.6029,0.0325271
,,,,,,,,,113,55.5973,0.0470617
,,,,,,,,,129,28.6248,0.0431098
,,,,,,,,,146,38.8907,0.0438679
,,,,,,,,,164,96.1186,0.0643519
,,,,,,,,,183,101.863,0.0568161
,,,,,,,,,203,142.191,0.0652405
,,,,,,,,,128,92.2939,0.033378
,,,,,,,,,145,30.101,0.0313403
,,,,,,,,,163,70.5012,0.0317391
,,,,,,,,,182,58.9277,0.0412359
,,,,,,,,,202,125.58,0.0380057
,,,,,,,,,223,111.518,0.0415989
,,,,,,,,,162,69.289,0.0446172
,,,,,,,,,181,26.2223,0.0454298
,,,,,,,,,201,151.136,0.0677698
,,,,,,,,,222,54.8573,0.0594639
,,,,,,,,,244,134.037,0.068756
,,,,,,,,,200,43.9923,0.0417364
,,,,,,,,,221,82.8117,0.0598668
,,,,,,,,,243,95.7063,0.0532912
,,,,,,,,,266,113.761,0.0606351
,,,,,,,,,242,126.798,0.0613389
,,,,,,,,,265,63.0278,0.0544545
,,,,,,,,,289,128.653,0.0621458
,,,,,,,,,288,138.794,0.0900268
,,,,,,,,,313,63.9103,0.113185
,,,,,,,,,338,79.6821,0.0917756
