facetNormals:0,facetNormals:1,facetNormals:2,FacetCenters:0,FacetCenters:1,FacetCenters:2,FacetIds,relFacetSize,absFacetSize,cellPairingIds,interplanarAngles,angleWeights
-0.605659,0.167628,-0.687121,4.27466,7.20673,11.8012,1,0.150754,0.0349952,8,88.2459,0.137297
0.54393,-0.505388,-0.643495,4.416,7.12466,11.8173,2,0.126046,0.0292596,13,72.9008,0.0776995
0.106147,-0.714597,-0.656981,4.33989,7.09112,11.8055,3,0.0523373,0.0121493,19,68.2288,0.118294
0.184891,0.840783,-0.444932,4.39506,7.27921,11.82,4,0.0973357,0.022595,26,50.2594,0.0534491
-0.437781,0.838392,-0.25923,4.29865,7.2704,11.8546,5,0.0324829,0.00754041,34,84.1509,0.0630647
-0.159311,0.935328,0.233657,4.33508,7.22718,11.8526,6,0.0398722,0.00925574,43,75.5436,0.118572
-0.810383,-0.463556,0.272226,4.25689,7.11899,11.881,7,0.0977133,0.0226827,53,116.03,0.0678256
-0.0519446,-0.864176,0.402816,4.3715,7.10776,11.9124,8,0.0437559,0.0101573,64,97.5469,0.0736928
-0.450099,0.49647,0.68891,4.37144,7.12918,11.8392,9,0.0487654,0.0113202,18,28.6892,0.0739632
,,,,,,,,,25,92.2899,0.109846
,,,,,,,,,33,120.914,0.0516541
,,,,,,,,,42,137.666,0.0605808
,,,,,,,,,52,113.545,0.110086
,,,,,,,,,63,80.8444,0.064961
,,,,,,,,,75,173.959,0.0703235
,,,,,,,,,32,107.775,0.0680722
,,,,,,,,,41,119.755,0.0400863
,,,,,,,,,51,151.532,0.0452622
,,,,,,,,,62,85.9911,0.0681643
,,,,,,,,,74,68.1264,0.0476634
,,,,,,,,,87,155.673,0.0504882
,,,,,,,,,50,38.9281,0.0487102
,,,,,,,,,61,46.4012,0.056571
,,,,,,,,,73,134.515,0.0975241
,,,,,,,,,86,171.612,0.0603723
,,,,,,,,,100,88.2965,0.0649771
,,,,,,,,,72,34.1179,0.0358002
,,,,,,,,,85,96.2871,0.0487573
,,,,,,,,,99,149.422,0.0372859
,,,,,,,,,114,62.5351,0.0389926
,,,,,,,,,98,104.683,0.0566346
,,,,,,,,,113,139.161,0.0417239
,,,,,,,,,129,42.0783,0.0438727
,,,,,,,,,128,53.4996,0.0604447
,,,,,,,,,145,69.8375,0.065061
,,,,,,,,,162,98.0274,0.046125
