facetNormals:0,facetNormals:1,facetNormals:2,FacetCenters:0,FacetCenters:1,FacetCenters:2,FacetIds,relFacetSize,absFacetSize,cellPairingIds,interplanarAngles,angleWeights
-0.166603,-0.073217,-0.938767,6.53727,6.77137,10.3403,1,0.0891985,0.0155363,8,28.4536,0.0256412
-0.398376,0.335552,-0.842668,6.5039,6.77168,10.3501,2,0.0149727,0.00260789,13,43.4653,0.0672795
0.497015,-0.27374,-0.779876,6.57714,6.7963,10.3371,3,0.054008,0.00940695,19,42.4257,0.0496799
-0.619797,-0.476654,-0.588757,6.55828,6.77533,10.3528,4,0.0344272,0.00599643,26,46.7881,0.0511314
-0.687317,0.352682,-0.578748,6.53328,6.80593,10.3467,5,0.0358372,0.00624202,34,70.4777,0.0698672
0.732776,0.406271,-0.492571,6.64205,6.86358,10.3559,6,0.0574225,0.0100017,43,63.1786,0.0322235
0.263363,-0.828763,-0.427455,6.54518,6.69841,10.3721,7,0.0196635,0.00342493,53,73.2451,0.0649237
0.800202,-0.407037,-0.398724,6.64086,6.79583,10.3631,8,0.0510349,0.00888912,64,68.6826,0.0452132
-0.924312,-0.26658,-0.177403,6.55512,6.75474,10.3687,9,0.0302811,0.00527427,76,101.08,0.0768311
0.951528,-0.164418,0.0330998,6.64319,6.80457,10.4029,10,0.0674756,0.0117527,89,95.6125,0.0840293
0.0126425,-0.936816,0.165603,6.52598,6.70331,10.4312,11,0.0794264,0.0138343,103,100.232,0.0765721
-0.480738,-0.778372,0.321476,6.49287,6.70344,10.4309,12,0.067077,0.0116833,118,134.984,0.0548212
0.692953,0.396569,0.540246,6.61091,6.82668,10.4294,13,0.0395706,0.00689229,134,111.658,0.0606229
-0.679616,0.483942,0.436916,6.612,6.80947,10.388,14,0.0459139,0.00799715,151,124.554,0.0948677
0.636896,-0.528497,0.481313,6.5804,6.73307,10.4563,15,0.101306,0.0176453,18,67.3899,0.0234455
,,,,,,,,,25,53.0319,0.0208692
,,,,,,,,,33,23.058,0.021121
,,,,,,,,,42,74.3659,0.0237521
,,,,,,,,,52,91.3615,0.0170004
,,,,,,,,,63,97.0459,0.0231527
,,,,,,,,,75,63.7724,0.0200376
,,,,,,,,,88,118.869,0.0245072
,,,,,,,,,102,119.138,0.0251957
,,,,,,,,,117,110.764,0.0244808
,,,,,,,,,133,128.787,0.021725
,,,,,,,,,150,86.0078,0.0225814
,,,,,,,,,168,151.9,0.0260894
,,,,,,,,,32,72.6444,0.0420499
,,,,,,,,,41,89.1875,0.0430851
,,,,,,,,,51,47.18,0.0556629
,,,,,,,,,62,42.308,0.0288303
,,,,,,,,,74,30.0477,0.0524794
,,,,,,,,,87,105.245,0.038805
,,,,,,,,,101,58.1222,0.0599953
,,,,,,,,,116,81.6295,0.0642962
,,,,,,,,,132,107.201,0.0598372
,,,,,,,,,149,101.507,0.0456756
,,,,,,,,,167,153.235,0.0496331
,,,,,,,,,186,84.665,0.0704552
,,,,,,,,,50,50.6817,0.0351181
,,,,,,,,,61,112.095,0.0430463
,,,,,,,,,73,59.3515,0.0250305
,,,,,,,,,86,94.0076,0.0411174
,,,,,,,,,100,32.8429,0.0322213
,,,,,,,,,115,124.15,0.0455924
,,,,,,,,,131,68.5061,0.0480341
,,,,,,,,,148,59.6405,0.0455011
,,,,,,,,,166,173.041,0.0368202
,,,,,,,,,185,94.1486,0.0393494
,,,,,,,,,205,117.054,0.0513903
,,,,,,,,,72,94.6031,0.0441319
,,,,,,,,,85,103.977,0.0253937
,,,,,,,,,99,119.213,0.0421067
,,,,,,,,,114,47.0012,0.0328257
,,,,,,,,,130,141.624,0.046812
,,,,,,,,,147,118.267,0.0493898
,,,,,,,,,165,97.9928,0.0467157
,,,,,,,,,184,134.23,0.0376115
,,,,,,,,,204,64.9491,0.0402545
,,,,,,,,,225,167.633,0.0529451
,,,,,,,,,98,85.9304,0.0292953
,,,,,,,,,113,49.71,0.0540406
,,,,,,,,,129,137.257,0.0396521
,,,,,,,,,146,49.156,0.0620444
,,,,,,,,,164,119.326,0.0666555
,,,,,,,,,183,151.32,0.0618754
,,,,,,,,,203,64.5394,0.0468537
,,,,,,,,,224,124.359,0.0510273
,,,,,,,,,246,89.082,0.0732981
,,,,,,,,,128,40.9875,0.0283889
,,,,,,,,,145,86.7744,0.0238437
,,,,,,,,,163,66.5405,0.0304526
,,,,,,,,,182,39.7369,0.0315229
,,,,,,,,,202,66.0746,0.0304118
,,,,,,,,,223,113.809,0.0262719
,,,,,,,,,245,147.169,0.0275347
,,,,,,,,,268,64.4584,0.0329344
,,,,,,,,,162,125.674,0.0380096
,,,,,,,,,181,30.8144,0.0581149
,,,,,,,,,201,69.6246,0.0621414
,,,,,,,,,222,101.876,0.0579666
,,,,,,,,,244,79.186,0.0445775
,,,,,,,,,267,171.511,0.0483392
,,,,,,,,,291,55.4885,0.0678761
,,,,,,,,,200,152.923,0.0418024
,,,,,,,,,221,77.0434,0.043846
,,,,,,,,,243,51.1657,0.0417256
,,,,,,,,,266,153.248,0.0343081
,,,,,,,,,290,62.7617,0.0364938
,,,,,,,,,315,124.703,0.0466255
,,,,,,,,,242,79.2452,0.0729649
,,,,,,,,,265,109.894,0.0672757
,,,,,,,,,289,48.9205,0.0498859
,,,,,,,,,314,141.464,0.0546447
,,,,,,,,,340,39.9774,0.0810004
,,,,,,,,,288,32.7027,0.0727312
,,,,,,,,,313,107.335,0.052824
,,,,,,,,,339,115.773,0.05819
,,,,,,,,,366,50.2169,0.089042
,,,,,,,,,338,120.052,0.0497766
,,,,,,,,,365,84.3136,0.0545136
,,,,,,,,,393,73.7418,0.0807126
,,,,,,,,,392,92.7136,0.0425069
,,,,,,,,,421,57.8023,0.0569114
,,,,,,,,,450,122.038,0.0631893
