"cellPairingIds","interplanarAngles","angleWeights"
8,123.102,0.0298791
13,120.833,0.022059
19,110.676,0.022817
26,127.228,0.0296454
34,114.601,0.0250296
43,101.675,0.022077
18,48.2137,0.063314
33,77.1877,0.238473
63,87.9214,0.0184306
75,104.15,0.19826
32,25.7655,0.0382364
51,47.5972,0.0448857
87,74.4433,0.0591412
61,25.5634,0.0481398
85,103.568,0.0624176
99,41.0235,0.0183414
98,32.9799,0.0449605
129,36.5044,0.0867423
128,64.937,0.0151319
145,27.2674,0.059271
162,39.6406,0.0180597
