Q	U	V
{$V$}	{[mm$^3$]}	0.0104258
{$d_v$}	{[mm]}	0.271042
{$S_c$}	{[mm$^2$]}	0.40477
{$S_o$}	{[mm$^2$]}	0.264769
{$S_l/S_o$}	[]	0.528767
{$\Psi$}	[]	0.570184
{$\eta$}	[]	0.628157
{med($\theta_e$)}	{[$^\circ$]}	71.91055
{$\Upsilon$}	[]	10
{$\Xi$}	[]	10
