"cellPairingIds","interplanarAngles","angleWeights"
8,21.5492,0.0280423
13,46.6891,0.036
19,83.9764,0.0248626
76,96.5771,0.0491619
18,44.9836,0.024253
25,98.6637,0.0186305
52,58.225,0.0346621
41,35.3977,0.03121
62,58.8648,0.0476931
101,107.174,0.0385912
73,145.618,0.0299305
86,105.7,0.0238186
115,46.4221,0.0260716
185,116.474,0.0263905
85,70.753,0.0508674
130,93.94,0.0406435
225,64.785,0.0406897
128,57.2464,0.05828
245,65.1563,0.0765288
268,71.7664,0.0740599
267,29.75,0.0462103
314,122.794,0.0555179
340,104.517,0.0542069
450,42.9707,0.0556042
