"cellPairingIds","interplanarAngles","angleWeights"
8,89.2837,0.0350233
13,118.697,0.015888
19,31.6601,0.0373875
26,65.84,0.0378957
18,126.875,0.0216684
33,43.2466,0.104191
42,33.0471,0.0909617
52,47.7949,0.0455065
32,111.173,0.0225507
62,85.9382,0.0177421
74,65.8078,0.0199079
101,64.3742,0.0205738
116,106.045,0.0211426
50,77.3813,0.128334
100,61.2927,0.0582196
115,65.387,0.0805691
72,34.9684,0.113258
114,35.7934,0.0594612
98,54.065,0.0471552
113,72.6498,0.0663358
129,53.3376,0.0549041
164,59.139,0.0823624
128,31.273,0.0383788
201,65.4963,0.0588548
200,89.7614,0.0466478
221,54.3425,0.0496778
242,72.8902,0.0650826
