Q	U	V
{$V$}	{[mm$^3$]}	0.00798083
{$d_v$}	{[mm]}	0.247942
{$S_c$}	{[mm$^2$]}	0.418437
{$S_o$}	{[mm$^2$]}	0.25949
{$S_l/S_o$}	[]	0.612536
{$\Psi$}	[]	0.461551
{$\eta$}	[]	0.490227
{med($\theta_e$)}	{[$^\circ$]}	86.8528
{$\Upsilon$}	[]	12
{$\Xi$}	[]	5
