facetNormals:0,facetNormals:1,facetNormals:2,FacetCenters:0,FacetCenters:1,FacetCenters:2,FacetIds,relFacetSize,absFacetSize,cellPairingIds,interplanarAngles,angleWeights
0.550667,-0.627334,-0.483081,3.45799,4.04089,9.30685,1,0.107575,0.019154,8,71.0668,0.111263
0.623349,0.489695,-0.55055,3.45877,4.1689,9.29486,2,0.115214,0.0205143,13,109.213,0.0725141
0.201242,0.89725,-0.300265,3.41095,4.22214,9.3287,3,0.0546898,0.0097377,19,107.414,0.10994
-0.815971,-0.418332,0.170359,3.37953,4.06291,9.4082,4,0.112412,0.0200153,26,65.1711,0.0190792
-0.154342,-0.950873,0.228832,3.37363,4.03865,9.38589,5,0.0104679,0.00186384,34,153.048,0.0761393
-0.224521,0.886015,0.312532,3.3628,4.22902,9.37667,6,0.0589213,0.0104911,43,119.709,0.0438077
0.398292,0.83039,0.350732,3.43272,4.21033,9.40293,7,0.0275041,0.0048972,53,62.6424,0.0814537
0.75402,-0.39646,0.47811,3.46312,4.05429,9.40912,8,0.0655396,0.0116695,64,78.9984,0.0553984
0.101005,-0.699104,0.655782,3.37771,4.02816,9.40285,9,0.0373048,0.00664224,76,82.2896,0.0941289
0.746104,-0.00482448,0.600256,3.48253,4.10923,9.42818,10,0.0836709,0.0148979,89,151.156,0.0472278
-0.133971,0.642924,0.731499,3.36952,4.19737,9.42661,11,0.0302553,0.00538705,103,154.755,0.0394865
-0.408798,0.38196,0.798296,3.39619,4.14731,9.46103,12,0.0241813,0.00430555,118,134.564,0.0267408
-0.492253,-0.024985,0.860169,3.35416,4.12169,9.44801,13,0.0152681,0.00271853,134,125.936,0.0269865
-0.105935,0.0430083,0.983567,3.38612,4.13774,9.46248,14,0.0154285,0.00274709,18,38.5494,0.0741718
,,,,,,,,,25,153.748,0.113796
,,,,,,,,,33,136.037,0.0191921
,,,,,,,,,42,82.4895,0.0779688
,,,,,,,,,52,60.9516,0.0444072
,,,,,,,,,63,89.2312,0.0835511
,,,,,,,,,75,133.508,0.0563607
,,,,,,,,,88,81.773,0.0969411
,,,,,,,,,102,100.408,0.0479253
,,,,,,,,,117,122.628,0.0399729
,,,,,,,,,133,145.938,0.026963
,,,,,,,,,150,127.857,0.0272129
,,,,,,,,,32,130.902,0.0735813
,,,,,,,,,41,174.244,0.0175723
,,,,,,,,,51,45.4127,0.0567267
,,,,,,,,,62,40.9587,0.0366011
,,,,,,,,,74,111.579,0.0596251
,,,,,,,,,87,149.562,0.0443546
,,,,,,,,,101,92.1293,0.0661451
,,,,,,,,,116,69.6776,0.0389582
,,,,,,,,,132,88.7393,0.0335349
,,,,,,,,,149,113.328,0.0238717
,,,,,,,,,167,106.876,0.0240674
,,,,,,,,,50,52.457,0.0191523
,,,,,,,,,61,98.5668,0.0773166
,,,,,,,,,73,131.8,0.0441949
,,,,,,,,,86,113.82,0.0828026
,,,,,,,,,100,69.0265,0.0560191
,,,,,,,,,115,124.396,0.095935
,,,,,,,,,131,92.1891,0.0476781
,,,,,,,,,148,70.0788,0.0398008
,,,,,,,,,166,52.8282,0.0268846
,,,,,,,,,185,75.1933,0.027133
,,,,,,,,,72,140.341,0.0177775
,,,,,,,,,85,142.182,0.0151643
,,,,,,,,,99,67.5087,0.0180525
,,,,,,,,,114,33.1245,0.0163483
,,,,,,,,,130,88.3809,0.0186078
,,,,,,,,,147,115.777,0.0155542
,,,,,,,,,165,96.9878,0.0146108
,,,,,,,,,184,72.4144,0.0124203
,,,,,,,,,204,78.1978,0.0124731
,,,,,,,,,98,37.4322,0.0375023
,,,,,,,,,113,113.16,0.0620545
,,,,,,,,,129,118.003,0.045685
,,,,,,,,,146,89.0207,0.0691482
,,,,,,,,,164,29.2733,0.0399809
,,,,,,,,,183,43.7958,0.0342899
,,,,,,,,,203,68.0984,0.0242518
,,,,,,,,,224,67.2891,0.0244538
,,,,,,,,,128,81.7109,0.0387475
,,,,,,,,,145,109.067,0.0316634
,,,,,,,,,163,57.7419,0.0413995
,,,,,,,,,182,40.4632,0.0288142
,,,,,,,,,202,63.1204,0.0257359
,,,,,,,,,223,85.0159,0.0196359
,,,,,,,,,245,69.7037,0.019768
,,,,,,,,,162,44.9078,0.0475464
,,,,,,,,,181,24.4653,0.0735036
,,,,,,,,,201,90.3683,0.0413993
,,,,,,,,,222,94.6982,0.035328
,,,,,,,,,244,87.041,0.0247665
,,,,,,,,,267,67.2977,0.0249772
,,,,,,,,,200,59.217,0.0516025
,,,,,,,,,221,88.99,0.0334122
,,,,,,,,,243,76.7603,0.0293425
,,,,,,,,,266,56.1804,0.0216679
,,,,,,,,,290,50.7197,0.021829
,,,,,,,,,242,69.0866,0.0444408
,,,,,,,,,265,79.3615,0.0375193
,,,,,,,,,289,80.9596,0.0258238
,,,,,,,,,314,57.38,0.0260529
,,,,,,,,,288,22.6661,0.0268794
,,,,,,,,,313,45.8281,0.0202946
,,,,,,,,,339,38.5449,0.0204358
,,,,,,,,,338,24.6492,0.0187177
,,,,,,,,,365,28.9175,0.0188378
,,,,,,,,,392,23.9536,0.0153479
