"cellPairingIds","interplanarAngles","angleWeights"
13,70.031,0.0460124
26,75.3019,0.0712307
43,95.5817,0.0642253
64,121.119,0.0701681
89,145.492,0.0788425
103,135.479,0.0296536
41,34.5268,0.0518711
62,98.9083,0.0480541
101,103.95,0.0395347
130,107.703,0.0568187
147,82.8285,0.097763
145,57.1805,0.0750295
163,71.7043,0.0522708
200,58.5462,0.0561405
243,43.2302,0.0317656
242,48.2783,0.0615594
265,56.0241,0.0268214
288,41.6897,0.0334307
