facetNormals:0,facetNormals:1,facetNormals:2,FacetCenters:0,FacetCenters:1,FacetCenters:2,FacetIds,relFacetSize,absFacetSize,cellPairingIds,interplanarAngles,angleWeights
-0.0682823,-0.295319,-0.936944,6.47882,4.58843,10.6721,1,0.0147118,0.00140729,8,47.9336,0.0256729
-0.694314,0.085301,-0.647528,6.452,4.59461,10.6917,2,0.100698,0.00963244,13,56.5372,0.0275845
0.668397,-0.567954,-0.437818,6.53779,4.58304,10.734,3,0.220661,0.0211077,19,106.379,0.0167228
-0.542094,0.800827,0.0745501,6.50279,4.64263,10.7633,4,0.0193707,0.00185294,26,89.4412,0.0192627
-0.91772,-0.317262,0.156799,6.4346,4.56098,10.7535,5,0.0278902,0.00266789,34,107.031,0.0248848
-0.609703,-0.542603,0.512059,6.44859,4.5491,10.7903,6,0.0806592,0.00771561,43,119.897,0.0155358
0.846825,-0.0864532,0.476611,6.59717,4.64365,10.7887,7,0.0164575,0.00157427,53,127.511,0.0177215
-0.682052,0.473276,0.531324,6.58174,4.58169,10.7476,8,0.0222793,0.00213117,64,121.187,0.0268767
0.182948,-0.613719,0.6941,6.51842,4.58211,10.8294,9,0.155246,0.0148504,76,158.329,0.0164089
0.351644,0.060597,0.909961,6.56194,4.64794,10.8463,10,0.0185486,0.00177431,18,104.187,0.138288
,,,,,,,,,25,64.6104,0.0324913
,,,,,,,,,33,57.1495,0.0436819
,,,,,,,,,42,87.1624,0.0895714
,,,,,,,,,52,166.423,0.0282912
,,,,,,,,,63,79.5828,0.036486
,,,,,,,,,75,134.308,0.122159
,,,,,,,,,88,152.737,0.0313269
,,,,,,,,,32,153.349,0.035615
,,,,,,,,,41,121.364,0.0495213
,,,,,,,,,51,110.031,0.118136
,,,,,,,,,62,64.8498,0.0306305
,,,,,,,,,74,172.203,0.0404722
,,,,,,,,,87,79.6106,0.182262
,,,,,,,,,101,101.912,0.0342207
,,,,,,,,,50,74.4899,0.0228626
,,,,,,,,,61,94.04,0.0312392
,,,,,,,,,73,121.383,0.0177957
,,,,,,,,,86,34.4472,0.0207234
,,,,,,,,,100,126.039,0.0344438
,,,,,,,,,115,94.4926,0.0189508
,,,,,,,,,72,31.043,0.0414485
,,,,,,,,,85,134.703,0.0207002
,,,,,,,,,99,54.7813,0.024771
,,,,,,,,,114,81.603,0.0472856
,,,,,,,,,130,101.962,0.0222799
,,,,,,,,,98,103.871,0.0273372
,,,,,,,,,113,63.0019,0.0349146
,,,,,,,,,129,50.6561,0.106161
,,,,,,,,,146,76.5735,0.0301613
,,,,,,,,,128,112.325,0.0189309
,,,,,,,,,145,54.211,0.0297602
,,,,,,,,,163,40.3929,0.0174406
,,,,,,,,,162,92.8601,0.0389665
,,,,,,,,,181,73.5802,0.0202435
,,,,,,,,,200,44.4682,0.033138
