"cellPairingIds","interplanarAngles","angleWeights"
8,52.8221,0.0392684
13,34.9934,0.0319668
26,77.5601,0.0348986
34,47.4626,0.0426934
43,67.404,0.0212423
53,114.641,0.0317918
18,38.8767,0.0558174
63,71.2677,0.0552862
75,41.5843,0.0971775
102,114.04,0.0561606
51,60.4005,0.0630016
87,62.899,0.0620842
116,143.343,0.042332
85,58.4887,0.027102
99,96.6292,0.0470005
147,100.051,0.047631
98,25.998,0.0315795
164,149.207,0.0634393
182,126.423,0.0253702
201,48.0004,0.0420258
221,80.8526,0.0625091
