Q	U	V
{$V$}	{[mm$^3$]}	0.0053162
{$d_v$}	{[mm]}	0.216538
{$S_c$}	{[mm$^2$]}	0.314226
{$S_o$}	{[mm$^2$]}	0.173932
{$S_l/S_o$}	[]	0.806603
{$\Psi$}	[]	0.468788
{$\eta$}	[]	0.496022
{med($\theta_e$)}	{[$^\circ$]}	96.9132
{$\Upsilon$}	[]	12
{$\Xi$}	[]	11
