"cellPairingIds","interplanarAngles","angleWeights"
19,106.195,0.0217946
26,97.3858,0.0196859
34,120.457,0.0238521
43,135.94,0.016418
53,113.208,0.0159299
64,112.086,0.023539
118,147.173,0.0191383
50,35.55,0.0562657
61,68.3433,0.112357
115,78.497,0.0661221
148,58.7273,0.058271
114,70.3068,0.0695768
165,53.0325,0.0452982
98,32.24,0.0417953
146,50.7149,0.0895604
128,55.4457,0.0223333
163,32.4061,0.0331681
182,43.6187,0.0321667
223,65.1756,0.0291951
201,38.1552,0.0303451
244,52.2195,0.0276866
243,50.8146,0.0726693
266,38.9711,0.0631867
265,43.6664,0.0514756
289,39.4295,0.0465294
313,23.3866,0.0445824
338,37.6485,0.0424999
