facetNormals:0,facetNormals:1,facetNormals:2,FacetCenters:0,FacetCenters:1,FacetCenters:2,FacetIds,relFacetSize,absFacetSize,cellPairingIds,interplanarAngles,angleWeights
-0.0388139,0.421284,-0.862436,2.98831,6.45912,10.2404,1,0.0163304,0.00300355,8,83.4644,0.0150361
-0.0726434,-0.811106,-0.515102,2.99071,6.44925,10.2732,2,0.013932,0.00256243,13,84.6207,0.0240079
0.88943,-0.168401,-0.219556,3.07375,6.38232,10.2711,3,0.0453095,0.00833352,19,79.3173,0.0287286
-0.950739,0.174562,-0.0720787,2.92225,6.46814,10.2657,4,0.119312,0.0219445,26,104.452,0.0223014
-0.751096,-0.622198,0.000994675,2.94172,6.37604,10.3216,5,0.0351555,0.00646595,34,123.228,0.0209249
0.245882,-0.907495,0.124519,3.00469,6.31277,10.335,6,0.029117,0.00535533,43,70.9413,0.0272524
0.508807,0.830001,0.0283038,3.00363,6.5215,10.2466,7,0.0822872,0.0151346,53,130.576,0.0236972
-0.689969,-0.461892,0.512254,2.93032,6.36247,10.3464,8,0.0431728,0.00794053,64,117.472,0.0208508
-0.834916,-0.0456006,0.52171,2.9604,6.38594,10.3285,9,0.0288319,0.00530288,76,103.696,0.0256937
-0.210764,0.72042,0.617785,2.95127,6.45582,10.3205,10,0.0602245,0.0110768,89,115.774,0.0299347
0.592726,0.410487,0.641108,3.02447,6.42572,10.3268,11,0.179321,0.0329815,103,133.07,0.02168
-0.446015,0.172684,0.839003,2.93936,6.38222,10.3178,12,0.0322422,0.00593013,118,133.399,0.0231352
0.107371,0.343899,0.917508,2.99865,6.4123,10.3426,13,0.0396624,0.00729488,18,78.1004,0.0213111
,,,,,,,,,25,92.1718,0.0249505
,,,,,,,,,33,53.5233,0.0199556
,,,,,,,,,42,44.2993,0.0188463
,,,,,,,,,52,140.557,0.0238294
,,,,,,,,,63,80.1449,0.0210659
,,,,,,,,,75,100.379,0.0187862
,,,,,,,,,88,161.289,0.0226291
,,,,,,,,,102,139.435,0.0258552
,,,,,,,,,117,125.458,0.0194567
,,,,,,,,,133,143.08,0.0206207
,,,,,,,,,32,162.099,0.0656776
,,,,,,,,,41,128.334,0.0395918
,,,,,,,,,51,67.0709,0.0354518
,,,,,,,,,62,70.2502,0.0584403
,,,,,,,,,74,135.518,0.0442154
,,,,,,,,,87,157.715,0.0352396
,,,,,,,,,101,119.392,0.0517131
,,,,,,,,,116,69.3247,0.0723405
,,,,,,,,,132,132.694,0.037675
,,,,,,,,,149,100.28,0.0422983
,,,,,,,,,50,50.1804,0.0543089
,,,,,,,,,61,115.872,0.0468104
,,,,,,,,,73,111.167,0.0973999
,,,,,,,,,86,55.2942,0.0634033
,,,,,,,,,100,38.4444,0.0464412
,,,,,,,,,115,72.6116,0.0800452
,,,,,,,,,131,125.125,0.143288
,,,,,,,,,148,65.1287,0.0507658
,,,,,,,,,166,96.5013,0.0595342
,,,,,,,,,72,65.7394,0.0318526
,,,,,,,,,85,161.071,0.049264
,,,,,,,,,99,32.0933,0.0387539
,,,,,,,,,114,46.966,0.0316812
,,,,,,,,,130,107.767,0.0443955
,,,,,,,,,147,138.06,0.0587861
,,,,,,,,,165,75.9676,0.0336359
,,,,,,,,,184,107.788,0.0372732
,,,,,,,,,98,132.545,0.0430138
,,,,,,,,,113,70.2086,0.0347784
,,,,,,,,,129,96.0764,0.0289737
,,,,,,,,,146,132.988,0.0392552
,,,,,,,,,164,99.241,0.0500992
,,,,,,,,,183,100.181,0.0306
,,,,,,,,,203,100.567,0.0335813
,,,,,,,,,128,139.259,0.0566327
,,,,,,,,,145,117.814,0.0427018
,,,,,,,,,163,57.5385,0.0695481
,,,,,,,,,182,45.3453,0.112809
,,,,,,,,,202,93.6488,0.0463309
,,,,,,,,,223,67.5873,0.0535255
,,,,,,,,,162,25.9778,0.0345742
,,,,,,,,,181,82.175,0.0502926
,,,,,,,,,201,106.679,0.0695911
,,,,,,,,,222,45.7241,0.0369154
,,,,,,,,,244,75.7282,0.0413432
,,,,,,,,,200,60.9374,0.0389952
,,,,,,,,,221,100.858,0.0496766
,,,,,,,,,243,32.5588,0.0304418
,,,,,,,,,266,67.3994,0.0333909
,,,,,,,,,242,52.8162,0.0901668
,,,,,,,,,265,38.3061,0.0419994
,,,,,,,,,289,34.2651,0.0478271
,,,,,,,,,288,68.3068,0.054657
,,,,,,,,,313,33.5006,0.0649575
,,,,,,,,,338,34.8423,0.0355695
