Q	U	V
{$V$}	{[mm$^3$]}	0.00361221
{$d_v$}	{[mm]}	0.190367
{$S_c$}	{[mm$^2$]}	0.193701
{$S_o$}	{[mm$^2$]}	0.105397
{$S_l/S_o$}	[]	0.837823
{$\Psi$}	[]	0.587761
{$\eta$}	[]	0.635061
{med($\theta_e$)}	{[$^\circ$]}	60.4997
{$\Upsilon$}	[]	9
{$\Xi$}	[]	6
