facetNormals:0,facetNormals:1,facetNormals:2,FacetCenters:0,FacetCenters:1,FacetCenters:2,FacetIds,relFacetSize,absFacetSize,cellPairingIds,interplanarAngles,angleWeights
-0.38683,0.40293,-0.799262,7.15227,5.09649,11.1165,1,0.0596827,0.00854172,8,80.3516,0.0559471
-0.0499487,-0.7899,-0.573944,7.1584,4.9913,11.1673,2,0.0526516,0.00753544,13,90.4951,0.0726035
0.504856,-0.629353,-0.551315,7.21609,5.00071,11.1742,3,0.0926645,0.013262,19,59.0619,0.0572861
-0.636499,-0.49332,-0.553552,7.10199,5.02782,11.1567,4,0.0550746,0.00788221,26,85.3595,0.0530097
0.78768,-0.186417,-0.573094,7.22983,5.05774,11.1455,5,0.0476788,0.00682373,34,97.1097,0.092172
0.93274,0.0363716,-0.285693,7.27362,5.09416,11.2302,6,0.202295,0.0289522,43,42.6521,0.0672987
-0.508606,0.801872,-0.225277,7.17086,5.15303,11.1756,7,0.0771427,0.0110406,53,121.713,0.0460328
0.304104,-0.911927,0.00960839,7.18396,5.02155,11.2252,8,0.0374644,0.00536186,64,95.1215,0.0662883
-0.490067,-0.845278,-0.082158,7.11874,4.97976,11.2302,9,0.074538,0.0106678,76,76.8529,0.0463984
0.230174,0.943936,0.0936073,7.23461,5.18482,11.2561,10,0.0379511,0.00543152,89,68.7425,0.0333875
-0.888226,0.369224,0.182924,7.11383,5.09684,11.1747,11,0.0231764,0.00331698,103,139.883,0.0187338
0.865961,-0.100917,0.441931,7.27461,5.08178,11.309,12,0.0111107,0.00159015,118,141.173,0.00582442
-0.246563,-0.570237,0.778448,7.22425,5.01636,11.2968,13,0.0030616,0.000438173,18,34.3962,0.0671493
,,,,,,,,,25,39.3132,0.0538359
,,,,,,,,,33,63.2237,0.050042
,,,,,,,,,42,84.6702,0.083556
,,,,,,,,,52,120.113,0.0625865
,,,,,,,,,63,41.8944,0.0437783
,,,,,,,,,75,39.5358,0.0617118
,,,,,,,,,88,148.175,0.0441088
,,,,,,,,,102,111.592,0.0321854
,,,,,,,,,117,103.136,0.0183493
,,,,,,,,,133,89.0608,0.00578671
,,,,,,,,,32,72.0486,0.0690874
,,,,,,,,,41,30.9763,0.0629618
,,,,,,,,,51,50.5979,0.127106
,,,,,,,,,62,131.928,0.0841942
,,,,,,,,,74,39.7607,0.0533566
,,,,,,,,,87,69.863,0.0826187
,,,,,,,,,101,123.717,0.0538484
,,,,,,,,,116,144.778,0.037079
,,,,,,,,,132,74.3877,0.0198422
,,,,,,,,,149,101.544,0.00592736
,,,,,,,,,50,95.4565,0.0511105
,,,,,,,,,61,118.384,0.0865782
,,,,,,,,,73,86.8232,0.0642669
,,,,,,,,,86,74.5037,0.0445939
,,,,,,,,,100,36.078,0.0633449
,,,,,,,,,115,134.117,0.0449369
,,,,,,,,,131,72.862,0.032624
,,,,,,,,,148,141.358,0.018491
,,,,,,,,,166,89.5681,0.00580074
,,,,,,,,,72,22.9321,0.0771695
,,,,,,,,,85,115.783,0.0589333
,,,,,,,,,99,64.9279,0.0419589
,,,,,,,,,114,100.748,0.058157
,,,,,,,,,130,92.8603,0.0422624
,,,,,,,,,147,154.065,0.031191
,,,,,,,,,165,62.4982,0.0180217
,,,,,,,,,184,122.727,0.00575374
,,,,,,,,,98,113.565,0.111693
,,,,,,,,,113,74.6934,0.0632205
,,,,,,,,,129,119.023,0.108937
,,,,,,,,,146,76.5097,0.0639121
,,,,,,,,,164,155.147,0.0415882
,,,,,,,,,183,44.7365,0.0210644
,,,,,,,,,203,119.119,0.00603191
,,,,,,,,,128,161.188,0.050435
,,,,,,,,,145,115.373,0.075818
,,,,,,,,,163,49.492,0.0508742
,,,,,,,,,182,42.3137,0.0356441
,,,,,,,,,202,130.611,0.0194238
,,,,,,,,,223,121.456,0.00588946
,,,,,,,,,162,48.7901,0.0498654
,,,,,,,,,181,147.33,0.0377062
,,,,,,,,,201,130,0.0286372
,,,,,,,,,222,67.498,0.0171386
,,,,,,,,,244,61.7957,0.00566061
,,,,,,,,,200,163.652,0.0502947
,,,,,,,,,221,83.5312,0.0353586
,,,,,,,,,243,113.059,0.0193387
,,,,,,,,,266,56.5079,0.00588162
,,,,,,,,,242,80.2898,0.0287782
,,,,,,,,,265,81.2321,0.017189
,,,,,,,,,289,122.487,0.0056661
,,,,,,,,,288,139.301,0.0150206
,,,,,,,,,313,81.1011,0.00540871
,,,,,,,,,338,78.8619,0.00480042
