"cellPairingIds","interplanarAngles","angleWeights"
18,107.988,0.0186086
25,71.1006,0.0171458
52,138.362,0.0266478
63,88.4714,0.0234516
88,81.9682,0.00750834
32,61.9066,0.0250585
41,37.4043,0.0297418
62,56.8914,0.0523286
87,80.819,0.0432378
101,143.348,0.00871317
50,30.4403,0.026173
115,90.3036,0.00837848
130,107.33,0.00884412
128,79.5,0.124807
145,102.899,0.144597
163,134.953,0.0101464
181,83.7999,0.00964588
200,63.1529,0.00974901
