Q	U	V
{$V$}	{[mm$^3$]}	0.0139074
{$d_v$}	{[mm]}	0.298366
{$S_c$}	{[mm$^2$]}	0.452212
{$S_o$}	{[mm$^2$]}	0.333094
{$S_l/S_o$}	[]	0.357611
{$\Psi$}	[]	0.618452
{$\eta$}	[]	0.666212
{med($\theta_e$)}	{[$^\circ$]}	74.22535
{$\Upsilon$}	[]	10
{$\Xi$}	[]	14
