Q	U	V
{$V$}	{[mm$^3$]}	0.0105279
{$d_v$}	{[mm]}	0.271924
{$S_c$}	{[mm$^2$]}	0.520859
{$S_o$}	{[mm$^2$]}	0.279896
{$S_l/S_o$}	[]	0.860902
{$\Psi$}	[]	0.44599
{$\eta$}	[]	0.480706
{med($\theta_e$)}	{[$^\circ$]}	69.75305
{$\Upsilon$}	[]	10
{$\Xi$}	[]	18
