facetNormals:0,facetNormals:1,facetNormals:2,FacetCenters:0,FacetCenters:1,FacetCenters:2,FacetIds,relFacetSize,absFacetSize,cellPairingIds,interplanarAngles,angleWeights
0.452637,-0.267801,-0.783079,4.41434,5.61684,8.61093,1,0.204697,0.0361033,8,83.4525,0.164329
-0.597906,-0.722905,-0.23109,4.3197,5.59697,8.63244,2,0.13726,0.024209,13,97.7941,0.164174
-0.414347,0.751554,-0.345397,4.30557,5.70771,8.6217,3,0.137044,0.0241711,19,51.9315,0.111741
0.85438,-0.431691,-0.0715035,4.4855,5.58593,8.69574,4,0.0768443,0.0135533,26,91.1007,0.0567648
0.0199845,-0.900324,0.341737,4.43194,5.56825,8.71455,5,0.0329513,0.00581176,34,133.792,0.136745
-0.550752,-0.454988,0.63287,4.32736,5.61717,8.70782,6,0.102664,0.0181072,18,103.968,0.137152
,,,,,,,,,25,101.332,0.098528
,,,,,,,,,33,53.0104,0.0531444
,,,,,,,,,42,56.275,0.117467
,,,,,,,,,32,137.408,0.0984725
,,,,,,,,,41,154.306,0.0531283
,,,,,,,,,51,112.111,0.117389
,,,,,,,,,50,65.6445,0.0461242
,,,,,,,,,61,110.403,0.0878971
,,,,,,,,,72,48.0178,0.0498898
