Q	U	V
{$V$}	{[mm$^3$]}	0.00454911
{$d_v$}	{[mm]}	0.205578
{$S_c$}	{[mm$^2$]}	0.218238
{$S_o$}	{[mm$^2$]}	0.141024
{$S_l/S_o$}	[]	0.547524
{$\Psi$}	[]	0.608375
{$\eta$}	[]	0.766562
{med($\theta_e$)}	{[$^\circ$]}	71.15515
{$\Upsilon$}	[]	10
{$\Xi$}	[]	3
