facetNormals:0,facetNormals:1,facetNormals:2,FacetCenters:0,FacetCenters:1,FacetCenters:2,FacetIds,relFacetSize,absFacetSize,cellPairingIds,interplanarAngles,angleWeights
0.152825,0.119637,-0.964609,6.43976,6.67371,12.4423,1,0.0268809,0.00806623,8,24.59,0.0266001
-0.261786,0.0676879,-0.942903,6.44554,6.67342,12.4324,2,0.0263251,0.00789944,13,41.029,0.0376654
-0.133509,-0.48499,-0.824531,6.43479,6.56952,12.457,3,0.062901,0.0188749,19,56.6781,0.0427494
0.784586,-0.293345,-0.443064,6.42759,6.67291,12.5397,4,0.104351,0.0313128,26,85.8533,0.0446963
-0.941285,-0.0839525,-0.231304,6.37161,6.58405,12.5344,5,0.132533,0.0397694,34,69.4911,0.0408248
0.875855,0.362242,-0.159813,6.51185,6.70453,12.5088,6,0.0848269,0.0254543,43,89.3306,0.0431645
-0.729511,0.63021,-0.0489177,6.42467,6.76222,12.5246,7,0.10949,0.0328551,53,130.994,0.0442142
-0.708977,0.288584,0.556841,6.38608,6.62482,12.5806,8,0.124483,0.0373541,64,129.746,0.0385625
0.379083,0.477063,0.74893,6.48786,6.70421,12.5833,9,0.0682005,0.0204651,18,34.63,0.0371163
,,,,,,,,,25,78.0464,0.0420436
,,,,,,,,,33,61.2635,0.0439252
,,,,,,,,,42,93.2881,0.0401805
,,,,,,,,,52,72.8146,0.042445
,,,,,,,,,63,110.154,0.0434595
,,,,,,,,,75,144.719,0.0379872
,,,,,,,,,32,63.8869,0.0784896
,,,,,,,,,41,67.6653,0.0853122
,,,,,,,,,51,99.9772,0.0722368
,,,,,,,,,62,100.376,0.0799002
,,,,,,,,,74,123.487,0.0835729
,,,,,,,,,87,164.702,0.0654437
,,,,,,,,,50,131.543,0.116765
,,,,,,,,,61,44.3121,0.0935813
,,,,,,,,,73,143.53,0.106859
,,,,,,,,,86,171.724,0.113531
,,,,,,,,,100,100.986,0.0824888
,,,,,,,,,72,150.996,0.103445
,,,,,,,,,85,46.6149,0.119915
,,,,,,,,,99,56.0494,0.128382
,,,,,,,,,114,127.367,0.0900578
,,,,,,,,,98,115.734,0.0955934
,,,,,,,,,113,131.714,0.100898
,,,,,,,,,129,65.4797,0.0756105
,,,,,,,,,128,42.668,0.116506
,,,,,,,,,145,90.7704,0.0840482
,,,,,,,,,162,71.7671,0.0881218
