"cellPairingIds","interplanarAngles","angleWeights"
8,86.5963,0.0810561
13,125.016,0.0768127
26,59.0578,0.0868265
34,118.868,0.0960237
53,69.942,0.0791107
64,89.9899,0.0537838
18,110.46,0.068515
25,68.3961,0.077932
33,44.4197,0.0763716
32,50.0247,0.0740014
51,37.3267,0.0789122
62,110.429,0.0568381
101,99.5457,0.0748685
50,110.03,0.0832515
73,64.8828,0.0631704
85,62.9733,0.0621412
99,35.4994,0.0746421
130,91.2972,0.0843506
129,105.607,0.0548048
146,81.7795,0.0930045
163,43.683,0.0638012
162,28.717,0.0488448
181,64.1479,0.07705
200,40.0012,0.0528234
