facetNormals:0,facetNormals:1,facetNormals:2,FacetCenters:0,FacetCenters:1,FacetCenters:2,FacetIds,relFacetSize,absFacetSize,cellPairingIds,interplanarAngles,angleWeights
0.101679,-0.377898,-0.885446,5.99668,3.98604,9.79456,1,0.0311235,0.00535518,8,39.8946,0.0446184
-0.0573997,0.251657,-0.896732,6.00103,4.00033,9.70992,2,0.0787743,0.0135541,13,57.7509,0.021797
0.688827,0.314911,-0.630062,6.03399,4.01742,9.72521,3,0.0167712,0.0028857,19,35.6976,0.0355289
0.572335,-0.547392,-0.563835,6.01385,3.97082,9.7387,4,0.041387,0.00712114,26,82.4733,0.0339849
-0.226703,0.785502,-0.498402,6.01821,3.97361,9.68153,5,0.0374257,0.00643955,34,53.9021,0.0280153
0.836687,-0.072935,-0.50358,5.98857,3.97696,9.81132,6,0.0254715,0.00438269,43,78.8512,0.0494684
-0.913572,-0.108075,-0.260931,5.95744,3.90547,9.76622,7,0.120485,0.0207309,53,97.6633,0.0286853
0.664945,0.703428,-0.0822247,6.05988,4.02762,9.73868,8,0.0266014,0.0045771,64,104.901,0.0479757
-0.848354,0.475309,-0.0267767,5.94777,3.99879,9.73605,9,0.104627,0.0180024,76,101.539,0.0275346
0.938611,0.063379,0.29645,6.05485,3.95855,9.81371,10,0.0246877,0.00424783,89,135.841,0.0512581
0.558065,0.393155,0.619168,6.04549,3.98207,9.7955,11,0.145177,0.0249794,103,131.635,0.0417608
-0.713433,-0.0397114,0.624201,5.94608,3.89813,9.82104,12,0.0634449,0.0109165,118,162.822,0.0360445
-0.337223,0.207607,0.894091,5.98151,3.93829,9.84896,13,0.0428139,0.00736665,18,48.8703,0.0276547
,,,,,,,,,25,68.3287,0.0542643
,,,,,,,,,33,42.6066,0.0507433
,,,,,,,,,42,65.0684,0.0384956
,,,,,,,,,52,73.1112,0.0952641
,,,,,,,,,63,76.437,0.0397721
,,,,,,,,,75,77.7684,0.0898786
,,,,,,,,,88,109.271,0.0375937
,,,,,,,,,102,124.598,0.102131
,,,,,,,,,117,126.674,0.0702834
,,,,,,,,,133,143.148,0.0554763
,,,,,,,,,32,52.9476,0.0238698
,,,,,,,,,41,64.5598,0.0231628
,,,,,,,,,51,25.5195,0.0202254
,,,,,,,,,62,121.978,0.029444
,,,,,,,,,74,40.1684,0.0205724
,,,,,,,,,87,115.846,0.0289086
,,,,,,,,,101,60.4187,0.0199737
,,,,,,,,,116,82.5261,0.0300689
,,,,,,,,,132,163.71,0.0265296
,,,,,,,,,149,139.287,0.0241014
,,,,,,,,,50,107.422,0.0393068
,,,,,,,,,61,32.5216,0.031535
,,,,,,,,,73,109.911,0.0616106
,,,,,,,,,86,87.4583,0.0323865
,,,,,,,,,100,140.584,0.0593121
,,,,,,,,,115,69.5292,0.0309271
,,,,,,,,,131,105.864,0.0644116
,,,,,,,,,148,143.195,0.0500953
,,,,,,,,,166,148.523,0.0420884
,,,,,,,,,72,89.7546,0.0303126
,,,,,,,,,85,74.007,0.0571112
,,,,,,,,,99,61.5742,0.0310986
,,,,,,,,,114,51.5645,0.0551308
,,,,,,,,,130,109.21,0.0297506
,,,,,,,,,147,98.2277,0.05951
,,,,,,,,,165,101.464,0.0470795
,,,,,,,,,184,102.716,0.0399389
,,,,,,,,,98,131.878,0.0420528
,,,,,,,,,113,54.9409,0.0260242
,,,,,,,,,129,140.116,0.0409691
,,,,,,,,,146,49.1783,0.0250735
,,,,,,,,,164,81.9458,0.0433391
,,,,,,,,,183,167.868,0.0363496
,,,,,,,,,203,141.32,0.0319405
,,,,,,,,,128,135.454,0.0435808
,,,,,,,,,145,38.2369,0.111998
,,,,,,,,,163,176.78,0.0409788
,,,,,,,,,182,144.101,0.131683
,,,,,,,,,202,57.0705,0.0831203
,,,,,,,,,223,86.791,0.0631778
,,,,,,,,,162,103.934,0.042418
,,,,,,,,,181,47.7441,0.0256089
,,,,,,,,,201,48.202,0.0449639
,,,,,,,,,222,126.919,0.0374857
,,,,,,,,,244,99.1899,0.0328144
,,,,,,,,,200,143.779,0.0399491
,,,,,,,,,221,109.763,0.121611
,,,,,,,,,243,51.8886,0.0789906
,,,,,,,,,266,67.7093,0.0607632
,,,,,,,,,242,36.3365,0.0421993
,,,,,,,,,265,121.366,0.0355444
,,,,,,,,,289,92.2763,0.0313171
,,,,,,,,,288,91.7871,0.0883007
,,,,,,,,,313,60.2629,0.0661265
,,,,,,,,,338,31.5744,0.0511265
