"cellPairingIds","interplanarAngles","angleWeights"
41,105.565,0.0758051
62,54.6504,0.0621626
87,97.0451,0.0677719
116,84.6949,0.103521
85,145.914,0.0506171
114,81.9437,0.0542749
147,168.99,0.0750229
165,135.217,0.0726972
182,39.0074,0.0616357
221,101.045,0.067146
243,97.9601,0.0652769
288,34.1477,0.0978102
