"cellPairingIds","interplanarAngles","angleWeights"
13,112.281,0.0610984
19,65.3946,0.0696623
26,98.5905,0.0593961
34,63.6602,0.0632313
43,101.136,0.0755007
64,104.611,0.0612598
89,74.3962,0.0691083
41,108.343,0.0631051
62,61.291,0.081597
101,50.4052,0.0637716
149,72.3945,0.0359443
61,27.8317,0.0780437
100,40.2932,0.0750622
99,38.3162,0.0489966
114,31.6639,0.0632774
130,73.3672,0.0619193
129,56.6846,0.0676486
164,56.936,0.0773492
203,110.293,0.0366721
182,56.4289,0.0965405
223,69.4831,0.040488
162,31.5331,0.0502579
181,50.8032,0.0493974
244,54.0854,0.0308796
266,79.5185,0.0360002
289,39.0416,0.0355565
313,92.2103,0.0385746
