"cellPairingIds","interplanarAngles","angleWeights"
8,45.3293,0.0234278
13,89.8545,0.0219223
19,96.0671,0.0275757
26,116.312,0.0780798
53,110.823,0.060094
103,132.189,0.0895164
25,56.3154,0.0141837
102,88.8878,0.0228398
117,118.891,0.0220213
41,41.6728,0.0200087
62,32.6184,0.0181139
74,52.0224,0.0185834
132,81.3597,0.020686
50,121.741,0.0246145
131,32.6597,0.0267646
85,27.314,0.0446468
147,93.9904,0.0719095
184,52.3715,0.0748812
202,62.728,0.0481654
223,46.8554,0.0538139
222,32.6487,0.0516345
288,89.1041,0.0814989
313,60.9336,0.0990994
338,50.9003,0.0853373
