Q	U	V
{$V$}	{[mm$^3$]}	0.00131094
{$d_v$}	{[mm]}	0.135788
{$S_c$}	{[mm$^2$]}	0.103619
{$S_o$}	{[mm$^2$]}	0.0519294
{$S_l/S_o$}	[]	0.995382
{$\Psi$}	[]	0.559028
{$\eta$}	[]	0.614553
{med($\theta_e$)}	{[$^\circ$]}	
{$\Upsilon$}	[]	11
{$\Xi$}	[]	6
