facetNormals:0,facetNormals:1,facetNormals:2,FacetCenters:0,FacetCenters:1,FacetCenters:2,FacetIds,relFacetSize,absFacetSize,cellPairingIds,interplanarAngles,angleWeights
0.192531,-0.0131239,-0.961927,5.30007,7.63166,10.9272,1,0.0336145,0.00270296,8,31.2147,0.0332526
0.658936,0.0358497,-0.721466,5.37773,7.6721,10.9231,2,0.0328983,0.00264537,13,40.8056,0.0542182
-0.369258,0.345417,-0.826861,5.28749,7.67528,10.9326,3,0.140077,0.0112637,19,46.2705,0.0290809
-0.411109,-0.457621,-0.771977,5.28485,7.62488,10.9295,4,0.0256248,0.0020605,26,40.0349,0.0145654
0.250711,0.612613,-0.724556,5.30199,7.69921,10.9381,5,0.00929693,0.000747571,34,43.1297,0.0518661
0.245078,-0.663694,-0.664249,5.32185,7.58565,10.9473,6,0.113485,0.00912535,43,68.8394,0.0355779
-0.332493,-0.832814,-0.419716,5.26823,7.54928,10.9898,7,0.0377849,0.0030383,53,82.678,0.032485
-0.851551,0.397114,-0.304232,5.24139,7.68273,10.9692,8,0.0314289,0.00252722,64,93.3679,0.0518665
-0.757581,-0.600606,-0.0852852,5.2306,7.582,11.0039,9,0.113489,0.00912569,76,76.1626,0.0512521
0.739903,-0.635542,-0.0820027,5.35386,7.58395,10.9952,10,0.107832,0.00867079,89,100.67,0.0319447
-0.969975,0.172475,-0.0104323,5.23704,7.66772,10.9999,11,0.0304329,0.00244712,103,99.0918,0.0264157
0.271921,-0.912714,0.224575,5.31609,7.55529,11.0524,12,0.0217564,0.00174944,118,114.665,0.039056
-0.736187,0.594856,0.262606,5.22529,7.64079,11.0037,13,0.0465996,0.0037471,134,126.599,0.027282
-0.355417,-0.73178,0.528909,5.27657,7.57458,11.0602,14,0.0229572,0.001846,151,120.261,0.0179682
0.175911,0.774992,0.509974,5.27369,7.61635,11.0609,15,0.0122611,0.000985921,169,133.088,0.0350547
0.30245,-0.543258,0.742941,5.28346,7.55482,11.0487,16,0.0366238,0.00294494,188,152.656,0.0375809
-0.548753,0.216234,0.755683,5.24524,7.61728,11.0463,17,0.0426085,0.00342617,208,146.348,0.0163052
0.237163,0.369098,0.868626,5.25801,7.62181,11.0473,18,0.010763,0.000865458,18,67.3055,0.0532827
,,,,,,,,,25,73.7759,0.0288096
,,,,,,,,,33,42.2833,0.0144971
,,,,,,,,,42,49.4448,0.0510094
,,,,,,,,,52,86.8104,0.0351727
,,,,,,,,,63,109.818,0.0321468
,,,,,,,,,75,118.941,0.0510098
,,,,,,,,,88,56.8083,0.0504154
,,,,,,,,,102,130.485,0.0316176
,,,,,,,,,117,90.9322,0.0261917
,,,,,,,,,133,132.858,0.0385683
,,,,,,,,,150,132.586,0.0270431
,,,,,,,,,168,104.056,0.0178642
,,,,,,,,,187,112.088,0.0346613
,,,,,,,,,207,163.576,0.037129
,,,,,,,,,228,118.717,0.0162196
,,,,,,,,,32,48.6503,0.0433242
,,,,,,,,,41,40.9745,0.0174366
,,,,,,,,,51,75.8777,0.125386
,,,,,,,,,62,79.0576,0.0595158
,,,,,,,,,74,42.7263,0.051339
,,,,,,,,,87,81.268,0.125389
,,,,,,,,,101,116.611,0.121857
,,,,,,,,,116,63.4802,0.0500024
,,,,,,,,,132,129.355,0.0376631
,,,,,,,,,149,74.1393,0.0699341
,,,,,,,,,167,126.459,0.0394491
,,,,,,,,,186,103.841,0.0225485
,,,,,,,,,206,166.663,0.058066
,,,,,,,,,227,111.965,0.0653415
,,,,,,,,,249,135.987,0.01999
,,,,,,,,,50,79.5368,0.0136438
,,,,,,,,,61,41.6535,0.0418091
,,,,,,,,,73,30.5324,0.0305389
,,,,,,,,,86,65.5689,0.0282316
,,,,,,,,,100,47.1004,0.0418094
,,,,,,,,,115,87.036,0.0414092
,,,,,,,,,131,70.2968,0.0278226
,,,,,,,,,148,82.1138,0.0235327
,,,,,,,,,166,100.236,0.0330665
,,,,,,,,,185,85.6478,0.0242178
,,,,,,,,,205,151.697,0.016586
,,,,,,,,,226,118.021,0.0301526
,,,,,,,,,248,118.86,0.032003
,,,,,,,,,271,167.268,0.0151589
,,,,,,,,,72,81.7816,0.0171859
,,,,,,,,,85,107.33,0.0149223
,,,,,,,,,99,75.0392,0.0143492
,,,,,,,,,114,121.388,0.017186
,,,,,,,,,130,98.647,0.017118
,,,,,,,,,147,97.7246,0.0142428
,,,,,,,,,165,132.9,0.0130271
,,,,,,,,,184,90.6197,0.0155013
,,,,,,,,,204,165.184,0.0132344
,,,,,,,,,225,80.7244,0.0105752
,,,,,,,,,247,146.768,0.0148294
,,,,,,,,,270,125.975,0.0152635
,,,,,,,,,294,111.099,0.00997639
,,,,,,,,,98,38.6836,0.0566935
,,,,,,,,,113,106.373,0.0492252
,,,,,,,,,129,73.3666,0.113487
,,,,,,,,,146,46.1882,0.110586
,,,,,,,,,164,111.168,0.0479951
,,,,,,,,,183,56.563,0.0365128
,,,,,,,,,203,141.856,0.0660694
,,,,,,,,,224,87.1241,0.038189
,,,,,,,,,246,152.12,0.0221311
,,,,,,,,,269,93.5867,0.0553765
,,,,,,,,,293,146.972,0.0619554
,,,,,,,,,318,143.98,0.0196613
,,,,,,,,,128,85.3011,0.0343151
,,,,,,,,,145,34.923,0.056694
,,,,,,,,,163,70.8639,0.0559607
,,,,,,,,,182,79.1724,0.0337127
,,,,,,,,,202,53.5593,0.0276132
,,,,,,,,,223,111.78,0.0417318
,,,,,,,,,245,58.2453,0.0285613
,,,,,,,,,268,169.072,0.0185143
,,,,,,,,,292,87.6072,0.0371953
,,,,,,,,,317,109.37,0.040052
,,,,,,,,,343,141.193,0.0167537
,,,,,,,,,162,63.1744,0.0492256
,,,,,,,,,181,152.503,0.0486718
,,,,,,,,,201,22.7039,0.0309229
,,,,,,,,,222,133.266,0.0257131
,,,,,,,,,244,36.158,0.0375395
,,,,,,,,,267,98.9358,0.0265333
,,,,,,,,,291,89.8272,0.0176403
,,,,,,,,,316,136.961,0.0338281
,,,,,,,,,342,70.0354,0.0361747
,,,,,,,,,369,109.426,0.0160348
,,,,,,,,,200,100.421,0.110588
,,,,,,,,,221,48.6175,0.0479954
,,,,,,,,,243,70.1137,0.0365131
,,,,,,,,,266,79.2353,0.0660701
,,,,,,,,,290,45.1938,0.0381893
,,,,,,,,,315,134.49,0.0221312
,,,,,,,,,341,87.9404,0.055377
,,,,,,,,,368,76.2329,0.061956
,,,,,,,,,396,120.225,0.0196614
,,,,,,,,,242,148.978,0.0474688
,,,,,,,,,265,37.2035,0.0362075
,,,,,,,,,289,169.166,0.0650763
,,,,,,,,,314,80.3795,0.0378551
,,,,,,,,,340,115.933,0.0220185
,,,,,,,,,367,57.5993,0.0546772
,,,,,,,,,395,130.182,0.0610813
,,,,,,,,,424,97.8642,0.0195724
,,,,,,,,,288,116.06,0.0253734
,,,,,,,,,313,32.7465,0.0368198
,,,,,,,,,339,77.1258,0.0261717
,,,,,,,,,366,92.6049,0.0174798
,,,,,,,,,394,114.434,0.0332426
,,,,,,,,,423,53.5079,0.0355059
,,,,,,,,,453,100.544,0.015902
,,,,,,,,,338,135.385,0.0296635
,,,,,,,,,365,43.3837,0.0223407
,,,,,,,,,393,126.146,0.0156835
,,,,,,,,,422,38.2023,0.027297
,,,,,,,,,452,100.869,0.0288048
,,,,,,,,,483,94.6577,0.0144015
,,,,,,,,,392,92.0898,0.0307604
,,,,,,,,,421,59.8798,0.019414
,,,,,,,,,451,111.627,0.0410138
,,,,,,,,,482,39.0667,0.0445147
,,,,,,,,,514,73.4003,0.0174871
,,,,,,,,,450,113.129,0.0159849
,,,,,,,,,481,43.4027,0.0282231
,,,,,,,,,513,62.0146,0.0298379
,,,,,,,,,546,83.6137,0.0146552
,,,,,,,,,512,89.307,0.0183716
,,,,,,,,,545,59.7193,0.0190425
,,,,,,,,,579,32.9891,0.0114633
,,,,,,,,,578,72.5828,0.0393901
,,,,,,,,,613,56.7763,0.0166368
,,,,,,,,,648,49.4816,0.017185
