Q	U	V
{$V$}	{[mm$^3$]}	0.00237964
{$d_v$}	{[mm]}	0.165642
{$S_c$}	{[mm$^2$]}	0.142826
{$S_o$}	{[mm$^2$]}	0.0833575
{$S_l/S_o$}	[]	0.713415
{$\Psi$}	[]	0.60351
{$\eta$}	[]	0.652927
{med($\theta_e$)}	{[$^\circ$]}	52.59095
{$\Upsilon$}	[]	17
{$\Xi$}	[]	9
