Q	U	V
{$V$}	{[mm$^3$]}	0.0063564
{$d_v$}	{[mm]}	0.229829
{$S_c$}	{[mm$^2$]}	0.392905
{$S_o$}	{[mm$^2$]}	0.202122
{$S_l/S_o$}	[]	0.943900
{$\Psi$}	[]	0.422348
{$\eta$}	[]	0.478355
{med($\theta_e$)}	{[$^\circ$]}	74.6879
{$\Upsilon$}	[]	12
{$\Xi$}	[]	6
