facetNormals:0,facetNormals:1,facetNormals:2,FacetCenters:0,FacetCenters:1,FacetCenters:2,FacetIds,relFacetSize,absFacetSize,cellPairingIds,interplanarAngles,angleWeights
-0.227656,-0.301488,-0.904116,5.32136,4.50517,11.8619,1,0.0753902,0.0143752,8,51.592,0.0701342
-0.257288,0.546522,-0.783674,5.39774,4.6598,11.9299,2,0.0655633,0.0125015,13,36.7166,0.0411536
-0.719107,-0.374927,-0.54069,5.26165,4.45311,11.9018,3,0.0283013,0.00539642,19,77.5234,0.0842052
-0.133301,0.835392,-0.471804,5.40272,4.64244,11.9106,4,0.0953544,0.0181819,26,73.2421,0.041723
-0.769105,-0.579898,0.0848721,5.27391,4.44531,11.9749,5,0.0288427,0.00549966,34,79.9281,0.0647541
-0.914775,0.315886,-0.0587643,5.2935,4.58541,11.9518,6,0.056748,0.0108206,43,95.598,0.0668757
-0.721684,0.662062,0.0647132,5.29927,4.59578,11.9554,7,0.0600893,0.0114577,53,112.816,0.0578747
0.897269,0.0181514,0.150447,5.49192,4.63886,12.0008,8,0.0469635,0.00895489,64,122.486,0.0467018
0.287605,0.908582,0.190294,5.47408,4.71685,12.0099,9,0.0338288,0.0064504,76,144.087,0.0332232
0.739236,0.290813,0.580512,5.48776,4.65134,12.0738,10,0.0213063,0.00406263,89,116.635,0.082029
-0.746875,0.292734,0.568022,5.3278,4.6016,12.0343,11,0.0899498,0.0171514,103,111.744,0.0426463
-0.614246,-0.362852,0.668083,5.31058,4.48151,12.0338,12,0.0297326,0.00566935,118,159.902,0.040341
0.244491,0.602884,0.74105,5.46124,4.68588,12.0806,13,0.0275384,0.00525095,134,141.96,0.0760412
-0.405016,0.267488,0.843372,5.38265,4.60842,12.0789,14,0.0767035,0.0146256,18,65.2453,0.0395362
,,,,,,,,,25,26.1124,0.0777012
,,,,,,,,,33,101.183,0.0400615
,,,,,,,,,42,61.7516,0.060838
,,,,,,,,,52,59.2325,0.062707
,,,,,,,,,63,112.106,0.0547262
,,,,,,,,,75,73.4795,0.0446299
,,,,,,,,,88,119.962,0.0321611
,,,,,,,,,102,95.487,0.0758445
,,,,,,,,,117,125.663,0.0409119
,,,,,,,,,133,108.783,0.0387857
,,,,,,,,,150,115.239,0.0706973
,,,,,,,,,32,87.7087,0.0436479
,,,,,,,,,41,39.7525,0.0285694
,,,,,,,,,51,52.8154,0.0377673
,,,,,,,,,62,75.7335,0.0384793
,,,,,,,,,74,145.778,0.0353187
,,,,,,,,,87,133.361,0.0308192
,,,,,,,,,101,174.453,0.0243106
,,,,,,,,,116,82.7923,0.0430558
,,,,,,,,,132,76.8626,0.0289993
,,,,,,,,,149,146.613,0.0279146
,,,,,,,,,167,106.227,0.0413469
,,,,,,,,,50,116.777,0.0442889
,,,,,,,,,61,63.8738,0.0711517
,,,,,,,,,73,49.3959,0.0737216
,,,,,,,,,86,101.48,0.062932
,,,,,,,,,100,47.9163,0.0499404
,,,,,,,,,115,97.8088,0.03483
,,,,,,,,,131,85.4148,0.0925733
,,,,,,,,,148,124.516,0.0453306
,,,,,,,,,166,82.6967,0.0427349
,,,,,,,,,185,97.3426,0.0850181
,,,,,,,,,72,56.6513,0.0382464
,,,,,,,,,85,79.2752,0.0389767
,,,,,,,,,99,141.419,0.0357373
,,,,,,,,,114,141.159,0.0311374
,,,,,,,,,130,136.309,0.0245082
,,,,,,,,,147,61.5439,0.0436794
,,,,,,,,,165,38.5099,0.0292809
,,,,,,,,,184,119.861,0.0281754
,,,,,,,,,204,75.979,0.0419217
,,,,,,,,,98,24.5624,0.0583709
,,,,,,,,,113,159.042,0.0513942
,,,,,,,,,129,89.2258,0.0423888
,,,,,,,,,146,130.417,0.0309807
,,,,,,,,,164,38.8393,0.0695917
,,,,,,,,,183,64.4968,0.0390207
,,,,,,,,,203,94.6049,0.0370818
,,,,,,,,,224,64.5493,0.0652338
,,,,,,,,,128,134.48,0.0527217
,,,,,,,,,145,64.7892,0.0432877
,,,,,,,,,163,108.311,0.0314582
,,,,,,,,,182,37.0898,0.0720481
,,,,,,,,,202,75.1232,0.0397812
,,,,,,,,,223,73.761,0.037768
,,,,,,,,,245,56.7279,0.0673874
,,,,,,,,,162,69.9505,0.0393285
,,,,,,,,,181,32.4036,0.0293136
,,,,,,,,,201,130.372,0.0617085
,,,,,,,,,222,120.936,0.0364125
,,,,,,,,,244,67.6097,0.0347185
,,,,,,,,,267,105.167,0.0582575
,,,,,,,,,200,52.1044,0.0261455
,,,,,,,,,221,80.4028,0.0491668
,,,,,,,,,243,113.53,0.0316488
,,,,,,,,,266,37.6163,0.0303612
,,,,,,,,,290,72.33,0.0469508
,,,,,,,,,242,98.1585,0.034452
,,,,,,,,,265,100.289,0.0248239
,,,,,,,,,289,35.8661,0.0240247
,,,,,,,,,314,73.7457,0.033349
,,,,,,,,,288,40.3621,0.0446923
,,,,,,,,,313,64.6617,0.0421671
,,,,,,,,,339,25.9744,0.0828002
,,,,,,,,,338,82.4793,0.0285935
,,,,,,,,,365,41.2399,0.0428538
,,,,,,,,,392,44.2588,0.0405267
