"cellPairingIds","interplanarAngles","angleWeights"
8,40.7088,0.0278481
26,70.9075,0.0256358
43,111.644,0.0282056
76,74.695,0.0292121
52,101.149,0.103064
75,67.409,0.090113
88,71.3851,0.117908
85,64.3941,0.078115
99,31.4935,0.0543244
130,133.43,0.086355
128,39.9127,0.0673226
145,113.472,0.0939672
182,119.295,0.0887765
181,159.048,0.073355
201,137.368,0.059275
200,47.4549,0.106152
221,34.7802,0.0789971
242,47.9636,0.0995747
