"cellPairingIds","interplanarAngles","angleWeights"
8,49.2378,0.0304894
19,87.1611,0.0499726
43,91.1652,0.0323069
76,102.822,0.0153791
25,80.3671,0.0599466
33,31.4812,0.0150717
88,104.894,0.016209
50,64.75,0.0186698
61,52.1842,0.0226281
73,76.8168,0.067402
115,169.9,0.0204471
72,22.0734,0.0106541
130,115.439,0.0101446
146,124.12,0.0112101
163,104.161,0.0167088
