"cellPairingIds","interplanarAngles","angleWeights"
8,45.9307,0.00944312
13,51.7631,0.146074
19,66.8084,0.11261
26,83.5872,0.181841
34,51.9907,0.181527
53,70.7799,0.0148761
89,127.99,0.0198235
103,144.719,0.0248967
33,57.7052,0.00933939
42,46.4309,0.00933856
102,120.844,0.00657812
32,47.0412,0.087697
101,89.3905,0.0160105
132,122.188,0.0234254
50,36.5658,0.0994395
115,98.8777,0.0155054
130,108.21,0.0163632
147,137.64,0.0193719
165,131.694,0.0241884
164,82.9287,0.0193683
201,58.47,0.00882271
222,75.5922,0.00970264
265,41.7821,0.0104407
288,26.9104,0.0115891
