facetNormals:0,facetNormals:1,facetNormals:2,FacetCenters:0,FacetCenters:1,FacetCenters:2,FacetIds,relFacetSize,absFacetSize,cellPairingIds,interplanarAngles,angleWeights
-0.199666,-0.14504,-0.912717,3.24778,7.39531,9.13662,1,0.0526945,0.00411862,8,48.1186,0.0795668
0.0250992,0.575556,-0.752174,3.26739,7.47613,9.17309,2,0.162369,0.0126908,13,57.1447,0.0698907
0.288131,-0.795972,-0.484775,3.27791,7.33873,9.18166,3,0.103747,0.00810891,19,77.4436,0.0603414
0.828986,0.290632,-0.449794,3.31927,7.44196,9.18872,4,0.0705843,0.00551689,26,59.9736,0.0223087
-0.706775,-0.626334,-0.252591,3.23695,7.37576,9.20098,5,0.0141495,0.00110593,34,85.9163,0.0739386
0.803897,-0.532182,-0.163428,3.32282,7.35696,9.2291,6,0.123882,0.00968268,43,103.353,0.0821116
0.927277,0.172153,-0.00456469,3.32535,7.45257,9.26422,7,0.185881,0.0145285,53,92.7588,0.00586078
-0.693066,-0.650093,0.304676,3.28913,7.43141,9.29935,8,0.00310295,0.000242527,64,98.7497,0.016099
-0.913619,0.169808,0.328177,3.26481,7.4627,9.26534,9,0.00950085,0.000742589,76,128.64,0.0418065
0.829377,0.35405,0.400592,3.33536,7.42514,9.27891,10,0.0346475,0.00270806,89,128.195,0.0584125
-0.0540076,0.796215,0.48271,3.28142,7.511,9.28011,11,0.0655225,0.00512126,103,125.358,0.00800341
-0.492807,-0.388168,0.760446,3.24547,7.48982,9.25388,12,0.00433057,0.000338479,118,152.483,0.0236255
0.588488,0.307114,0.726717,3.32052,7.44984,9.33098,13,0.015226,0.00119007,18,95.3552,0.126601
,,,,,,,,,25,55.7386,0.0983949
,,,,,,,,,33,101.726,0.0260306
,,,,,,,,,42,100.146,0.140539
,,,,,,,,,52,81.9074,0.173331
,,,,,,,,,63,131.037,0.00608953
,,,,,,,,,75,100.618,0.0179513
,,,,,,,,,88,94.7072,0.0571087
,,,,,,,,,102,83.9048,0.0933675
,,,,,,,,,117,149.865,0.00843615
,,,,,,,,,133,112.382,0.0278412
,,,,,,,,,32,76.4495,0.0840114
,,,,,,,,,41,64.0458,0.0249027
,,,,,,,,,51,39.6494,0.112924
,,,,,,,,,62,81.7283,0.133168
,,,,,,,,,74,79.9387,0.00602568
,,,,,,,,,87,125.444,0.0174076
,,,,,,,,,101,104.256,0.0519468
,,,,,,,,,116,166.14,0.0803189
,,,,,,,,,132,102.105,0.0083141
,,,,,,,,,149,116.418,0.0265548
,,,,,,,,,50,132.705,0.0235734
,,,,,,,,,61,52.6663,0.0899295
,,,,,,,,,73,28.1379,0.102316
,,,,,,,,,86,156.119,0.00594457
,,,,,,,,,100,151.61,0.0167474
,,,,,,,,,115,51.1969,0.0464797
,,,,,,,,,131,91.898,0.0679593
,,,,,,,,,148,152.552,0.00816048
,,,,,,,,,166,75.0719,0.0250487
,,,,,,,,,72,101.683,0.0253981
,,,,,,,,,85,145.745,0.0262973
,,,,,,,,,99,32.7908,0.00508974
,,,,,,,,,114,61.7179,0.0113683
,,,,,,,,,130,160.471,0.0200933
,,,,,,,,,147,129.705,0.0232732
,,,,,,,,,165,65.5189,0.00663152
,,,,,,,,,184,145.384,0.014668
,,,,,,,,,98,44.7848,0.148677
,,,,,,,,,113,105.513,0.00605426
,,,,,,,,,129,155.723,0.0176482
,,,,,,,,,146,64.6677,0.0541502
,,,,,,,,,164,126.778,0.0857115
,,,,,,,,,183,109.002,0.0083686
,,,,,,,,,203,78.561,0.0271189
,,,,,,,,,128,143.441,0.006104
,,,,,,,,,145,151.839,0.0180777
,,,,,,,,,163,27.1387,0.058408
,,,,,,,,,182,84.4687,0.0968912
,,,,,,,,,202,124.549,0.00846396
,,,,,,,,,223,50.1162,0.0281464
,,,,,,,,,162,50.7071,0.00467806
,,,,,,,,,181,133.912,0.0056958
,,,,,,,,,201,110.972,0.0059253
,,,,,,,,,222,32.9401,0.00361539
,,,,,,,,,244,113.148,0.00515529
,,,,,,,,,200,125.604,0.0149125
,,,,,,,,,221,68.0917,0.0165953
,,,,,,,,,243,49.2723,0.00594937
,,,,,,,,,266,104.753,0.0117006
,,,,,,,,,242,62.112,0.0453268
,,,,,,,,,265,104.376,0.00769887
,,,,,,,,,289,23.9019,0.0211552
,,,,,,,,,288,84.719,0.0081242
,,,,,,,,,313,52.1291,0.0247099
,,,,,,,,,338,81.5007,0.00674324
