Q	U	V
{$V$}	{[mm$^3$]}	0.00243545
{$d_v$}	{[mm]}	0.166927
{$S_c$}	{[mm$^2$]}	0.147645
{$S_o$}	{[mm$^2$]}	0.0922281
{$S_l/S_o$}	[]	0.600868
{$\Psi$}	[]	0.592905
{$\eta$}	[]	0.624963
{med($\theta_e$)}	{[$^\circ$]}	64.543
{$\Upsilon$}	[]	15
{$\Xi$}	[]	7
