Q	U	V
{$V$}	{[mm$^3$]}	0.005505
{$d_v$}	{[mm]}	0.219072
{$S_c$}	{[mm$^2$]}	0.338295
{$S_o$}	{[mm$^2$]}	0.197842
{$S_l/S_o$}	[]	0.709925
{$\Psi$}	[]	0.445684
{$\eta$}	[]	0.547501
{med($\theta_e$)}	{[$^\circ$]}	74.62565
{$\Upsilon$}	[]	9
{$\Xi$}	[]	6
