facetNormals:0,facetNormals:1,facetNormals:2,FacetCenters:0,FacetCenters:1,FacetCenters:2,FacetIds,relFacetSize,absFacetSize,cellPairingIds,interplanarAngles,angleWeights
0.250993,-0.303094,-0.8622,5.08285,4.9207,10.4434,1,0.176398,0.0340311,8,38.2157,0.0514526
-0.33559,-0.527326,-0.766553,5.00879,4.9563,10.4217,2,0.0301189,0.00581062,13,63.4094,0.0734205
-0.666398,0.054033,-0.683397,4.98439,4.9511,10.4509,3,0.0463578,0.00894346,19,81.6874,0.117597
-0.790583,-0.504788,-0.205289,4.97625,4.892,10.4865,4,0.0881968,0.0170152,26,93.1606,0.133639
0.708285,0.616867,0.0463307,5.0675,4.94931,10.4846,5,0.107566,0.0207519,34,82.7724,0.0120315
0.482474,-0.803086,0.287247,5.12154,4.85748,10.515,6,0.00622813,0.00120155,43,132.467,0.11656
-0.831723,0.163884,0.394071,4.97628,4.9735,10.508,7,0.0870353,0.0167911,53,137.191,0.16858
-0.00411751,0.82408,0.476958,5.07298,5.04119,10.5161,8,0.161425,0.0311425,18,40.5049,0.0365143
,,,,,,,,,25,43.5033,0.0449035
,,,,,,,,,33,130.05,0.0470606
,,,,,,,,,42,87.5528,0.0103219
,,,,,,,,,52,96.7936,0.0447514
,,,,,,,,,63,148.014,0.0507659
,,,,,,,,,32,45.8118,0.0607725
,,,,,,,,,41,121.543,0.0647921
,,,,,,,,,51,126.801,0.010981
,,,,,,,,,62,70.808,0.0604944
,,,,,,,,,74,107.826,0.0720301
,,,,,,,,,50,167.296,0.0969231
,,,,,,,,,61,92.1327,0.0116347
,,,,,,,,,73,56.6155,0.0876122
,,,,,,,,,86,123.954,0.11407
,,,,,,,,,72,98.7611,0.0117745
,,,,,,,,,85,122.299,0.0962176
,,,,,,,,,99,53.9033,0.129103
,,,,,,,,,98,117.268,0.0116244
,,,,,,,,,113,124.374,0.0119935
,,,,,,,,,128,68.4858,0.113094
