facetNormals:0,facetNormals:1,facetNormals:2,FacetCenters:0,FacetCenters:1,FacetCenters:2,FacetIds,relFacetSize,absFacetSize,cellPairingIds,interplanarAngles,angleWeights
-0.0399827,0.647841,-0.72507,4.85574,5.13616,11.1989,1,0.0259707,0.00809675,8,46.9184,0.0377322
0.598062,0.21048,-0.734251,4.89773,5.06167,11.179,2,0.0689643,0.0215007,13,59.761,0.0287188
-0.847648,0.312017,-0.322816,4.81302,5.1236,11.2453,3,0.0321173,0.010013,19,100.258,0.0327957
-0.239703,-0.799997,-0.472262,4.85202,4.9324,11.4068,4,0.0444864,0.0138693,26,94.9863,0.0360809
0.777118,-0.469463,-0.348849,4.94179,4.96456,11.3116,5,0.0590804,0.0184192,34,83.8757,0.0415858
0.949275,0.1258,-0.0775079,4.95074,5.06476,11.2986,6,0.104292,0.0325146,43,134.604,0.0194325
-0.0302558,-0.989744,0.0518578,4.86571,4.92465,11.3579,7,0.0155242,0.00483989,53,119.299,0.0250032
0.866926,-0.380027,0.256834,4.93896,4.97749,11.4364,8,0.0241052,0.00751517,64,135.911,0.0191346
-0.39491,-0.882502,0.181608,4.87529,4.92301,11.3914,9,0.0151475,0.00472246,76,119.508,0.0231449
0.828195,-0.0884078,0.526864,4.93401,4.96038,11.48,10,0.0208737,0.0065077,89,164.985,0.0273183
0.081109,-0.80433,0.529894,4.86125,4.93247,11.4077,11,0.0288133,0.00898299,103,87.5813,0.0469115
-0.25963,0.695437,0.582245,4.84241,5.07313,11.403,12,0.242215,0.0755141,118,142.05,0.0304328
-0.495962,-0.321245,0.75506,4.86606,5.01366,11.2757,13,0.0367463,0.0114562,134,126.386,0.031689
0.306811,0.160263,0.876808,4.91354,4.99073,11.422,14,0.0406364,0.012669,18,102.679,0.0438249
,,,,,,,,,25,87.8438,0.0540847
,,,,,,,,,33,48.7525,0.0636409
,,,,,,,,,42,45.6828,0.0830264
,,,,,,,,,52,105.96,0.0253434
,,,,,,,,,63,74.7724,0.0357239
,,,,,,,,,75,125.581,0.0248392
,,,,,,,,,88,84.6073,0.0320475
,,,,,,,,,102,122.938,0.0406451
,,,,,,,,,117,118.479,0.107361
,,,,,,,,,133,170.981,0.0479457
,,,,,,,,,150,117.805,0.0511395
,,,,,,,,,32,83.3843,0.0373032
,,,,,,,,,41,137.933,0.0416129
,,,,,,,,,51,143.46,0.0491107
,,,,,,,,,62,108.381,0.0209311
,,,,,,,,,74,174.43,0.0275404
,,,,,,,,,87,89.9537,0.020586
,,,,,,,,,101,162.12,0.0253027
,,,,,,,,,116,121.96,0.0303757
,,,,,,,,,132,74.0217,0.0567143
,,,,,,,,,149,85.2335,0.0342762
,,,,,,,,,167,123.049,0.0358781
,,,,,,,,,50,67.7035,0.0507552
,,,,,,,,,61,108.442,0.062369
,,,,,,,,,73,35.4932,0.0230164
,,,,,,,,,86,91.5271,0.0312678
,,,,,,,,,100,40.7603,0.0225998
,,,,,,,,,115,113.472,0.0284148
,,,,,,,,,131,66.2315,0.0349743
,,,,,,,,,148,148.178,0.0751672
,,,,,,,,,166,88.7983,0.0402476
,,,,,,,,,185,132.916,0.0424743
,,,,,,,,,72,40.9559,0.0754303
,,,,,,,,,85,63.9821,0.0245876
,,,,,,,,,99,36.9336,0.0342402
,,,,,,,,,114,87.3609,0.0241128
,,,,,,,,,130,58.4677,0.0308484
,,,,,,,,,147,74.2127,0.0387355
,,,,,,,,,165,142.848,0.0949909
,,,,,,,,,184,122.278,0.0453107
,,,,,,,,,204,98.9528,0.0481527
,,,,,,,,,98,99.5016,0.0270255
,,,,,,,,,113,36.7239,0.0391595
,,,,,,,,,129,121.94,0.0264529
,,,,,,,,,146,39.1529,0.0347853
,,,,,,,,,164,94.0299,0.0451522
,,,,,,,,,183,103.014,0.145804
,,,,,,,,,203,128.209,0.0543447
,,,,,,,,,224,74.4059,0.0584848
,,,,,,,,,128,68.0693,0.0188857
,,,,,,,,,145,23.4588,0.0153335
,,,,,,,,,163,84.7296,0.0178058
,,,,,,,,,182,31.0511,0.0201772
,,,,,,,,,202,134.036,0.0291782
,,,,,,,,,223,66.9581,0.0218271
,,,,,,,,,245,97.5265,0.0224658
,,,,,,,,,162,87.6442,0.0186043
,,,,,,,,,181,23.4325,0.0223734
,,,,,,,,,201,57.3062,0.0262499
,,,,,,,,,222,111.547,0.0438469
,,,,,,,,,244,96.9602,0.0291128
,,,,,,,,,267,62.2648,0.0302603
,,,,,,,,,200,99.1013,0.0175555
,,,,,,,,,221,35.5107,0.0198563
,,,,,,,,,243,115.904,0.0285119
,,,,,,,,,266,49.1861,0.0214521
,,,,,,,,,290,96.3994,0.0220687
,,,,,,,,,242,64.0094,0.0242092
,,,,,,,,,265,88.1352,0.0384352
,,,,,,,,,289,89.0625,0.0266238
,,,,,,,,,314,40.9309,0.0275803
,,,,,,,,,288,107.347,0.0515003
,,,,,,,,,313,48.1554,0.0322999
,,,,,,,,,339,66.6873,0.0337185
,,,,,,,,,338,67.58,0.0638117
,,,,,,,,,365,52.425,0.0695966
,,,,,,,,,392,59.5243,0.0385936
