"cellPairingIds","interplanarAngles","angleWeights"
8,102.692,0.0769619
13,46.5321,0.0576805
19,58.3174,0.0410552
34,135.16,0.0773511
18,91.0701,0.0908634
42,88.6611,0.151591
32,94.6891,0.0447036
41,83.4378,0.0724664
51,178.293,0.0914065
50,28.1819,0.0480306
61,86.5399,0.0556771
72,97.147,0.106489
