"cellPairingIds","interplanarAngles","angleWeights"
8,63.8598,0.0152291
19,114.393,0.0170454
26,91.1576,0.0154459
34,100.812,0.0154714
43,61.1382,0.0162869
89,106.469,0.0143929
25,73.0287,0.0698044
33,31.2227,0.0490168
50,71.602,0.0746038
61,116.13,0.0752023
86,51.2501,0.0641491
100,57.0256,0.1173
85,49.562,0.0619711
114,67.0091,0.0684904
147,110.691,0.0412946
113,80.9883,0.0463877
164,51.0607,0.0414773
182,81.9485,0.0479082
162,28.407,0.0595766
201,88.1088,0.0378777
221,85.4061,0.0517136
