Q	U	V
{$V$}	{[mm$^3$]}	0.0036609
{$d_v$}	{[mm]}	0.191218
{$S_c$}	{[mm$^2$]}	0.217868
{$S_o$}	{[mm$^2$]}	0.116078
{$S_l/S_o$}	[]	0.876910
{$\Psi$}	[]	0.527249
{$\eta$}	[]	0.551265
{med($\theta_e$)}	{[$^\circ$]}	98.2571
{$\Upsilon$}	[]	13
{$\Xi$}	[]	6
