facetNormals:0,facetNormals:1,facetNormals:2,FacetCenters:0,FacetCenters:1,FacetCenters:2,FacetIds,relFacetSize,absFacetSize,cellPairingIds,interplanarAngles,angleWeights
0.237371,-0.442778,-0.838521,5.08361,5.97035,12.361,1,0.147545,0.0232334,8,34.9275,0.17677
0.638326,-0.0303612,-0.731975,5.11674,6.04386,12.3541,2,0.220434,0.0347109,13,51.4037,0.0631231
-0.574304,-0.501231,-0.606144,5.02933,5.98259,12.3479,3,0.0401501,0.0063223,19,68.2613,0.0620371
0.935432,-0.212742,-0.0373704,5.15881,5.99738,12.419,4,0.0392755,0.00618457,26,91.5269,0.0504183
-0.938707,0.103022,-0.289451,5.01963,6.1273,12.3239,5,0.0304039,0.00478759,34,89.7528,0.0719194
-0.921769,-0.314824,-0.099619,5.01404,5.99371,12.3608,6,0.0475482,0.00748724,43,75.5585,0.0543964
-0.14187,-0.907002,0.167477,5.08292,5.89045,12.4325,7,0.0333449,0.00525071,53,118.438,0.0367659
-0.835688,0.51058,0.0378809,5.0174,6.1114,12.3033,8,0.0209993,0.00330669,64,113.515,0.0453308
-0.983498,0.0680778,0.149408,5.01456,6.05267,12.3437,9,0.0267791,0.00421681,76,141.057,0.120442
-0.659286,-0.0136418,0.678297,5.07854,6.02147,12.3571,10,0.101751,0.0160224,89,146.905,0.0378147
-0.718527,0.397025,0.55436,5.05857,5.96844,12.3865,11,0.0216864,0.00341488,103,128.618,0.110864
0.325862,-0.163983,0.855495,5.13963,5.95335,12.4522,12,0.0887899,0.0139814,18,84.4023,0.0679278
,,,,,,,,,25,47.4423,0.0666718
,,,,,,,,,33,114.006,0.0534373
,,,,,,,,,42,122.124,0.0782234
,,,,,,,,,52,101.812,0.0579272
,,,,,,,,,63,127.269,0.0383457
,,,,,,,,,75,139.727,0.0477566
,,,,,,,,,88,175.947,0.139233
,,,,,,,,,102,155.591,0.0394879
,,,,,,,,,117,117.21,0.12659
,,,,,,,,,32,115.868,0.039708
,,,,,,,,,41,46.4367,0.0346038
,,,,,,,,,51,38.3755,0.0435371
,,,,,,,,,62,61.4334,0.0364325
,,,,,,,,,74,77.8395,0.0275759
,,,,,,,,,87,63.0476,0.032129
,,,,,,,,,101,91.5971,0.0575798
,,,,,,,,,116,97.2874,0.0281617
,,,,,,,,,132,133.503,0.0552959
,,,,,,,,,50,159.674,0.0342749
,,,,,,,,,61,147.359,0.0430177
,,,,,,,,,73,86.5451,0.0360681
,,,,,,,,,86,161.403,0.0273666
,,,,,,,,,100,169.12,0.0318453
,,,,,,,,,115,134.729,0.0566748
,,,,,,,,,131,144.823,0.0279435
,,,,,,,,,148,69.8388,0.0544607
,,,,,,,,,72,27.002,0.0370907
,,,,,,,,,85,90.5435,0.0318066
,,,,,,,,,99,31.4157,0.0248413
,,,,,,,,,114,25.7594,0.0284766
,,,,,,,,,130,63.2105,0.0468182
,,,,,,,,,147,55.4458,0.0253157
,,,,,,,,,165,128.386,0.045297
,,,,,,,,,98,64.0634,0.0391997
,,,,,,,,,113,50.8539,0.0291325
,,,,,,,,,129,26.9544,0.0342619
,,,,,,,,,146,54.0009,0.0648106
,,,,,,,,,164,60.1942,0.0297871
,,,,,,,,,183,111.515,0.0619313
,,,,,,,,,128,111.702,0.0257698
,,,,,,,,,145,83.6567,0.0297035
,,,,,,,,,163,75.6025,0.0502293
,,,,,,,,,182,100.303,0.0262807
,,,,,,,,,202,73.5491,0.0484824
,,,,,,,,,162,28.0644,0.0235396
,,,,,,,,,181,52.0875,0.0348138
,,,,,,,,,201,31.9012,0.0213373
,,,,,,,,,222,110.798,0.0339656
,,,,,,,,,200,37.4529,0.0423995
,,,,,,,,,221,34.2399,0.0239652
,,,,,,,,,243,102.697,0.041148
,,,,,,,,,242,25.7094,0.0357527
,,,,,,,,,265,65.2974,0.0948298
,,,,,,,,,288,79.0493,0.0348587
