Q	U	V
{$V$}	{[mm$^3$]}	0.00188092
{$d_v$}	{[mm]}	0.153152
{$S_c$}	{[mm$^2$]}	0.125302
{$S_o$}	{[mm$^2$]}	0.0710152
{$S_l/S_o$}	[]	0.764439
{$\Psi$}	[]	0.588084
{$\eta$}	[]	0.618202
{med($\theta_e$)}	{[$^\circ$]}	63.6029
{$\Upsilon$}	[]	16
{$\Xi$}	[]	4
