facetNormals:0,facetNormals:1,facetNormals:2,FacetCenters:0,FacetCenters:1,FacetCenters:2,FacetIds,relFacetSize,absFacetSize,cellPairingIds,interplanarAngles,angleWeights
0.152758,-0.704561,-0.648466,7.24776,4.09855,10.3443,1,0.0644536,0.0207464,8,55.4163,0.0333278
0.756059,-0.0428618,-0.590251,7.22607,4.15063,10.4012,2,0.0224745,0.00723414,13,91.8405,0.0503055
0.0922446,0.690605,-0.681799,7.26818,4.18438,10.3032,3,0.0412506,0.0132778,19,48.5483,0.0577779
-0.606763,-0.464119,-0.600552,7.18353,4.08078,10.3555,4,0.0523553,0.0168522,26,81.368,0.061999
-0.735964,0.188203,-0.594318,7.15906,4.15461,10.3467,5,0.0597245,0.0192242,34,31.4498,0.0452722
-0.333796,-0.801972,-0.462946,7.19128,4.05062,10.3787,6,0.0348892,0.0112302,43,44.0653,0.0514515
0.625129,-0.709709,-0.103942,7.23315,4.14914,10.427,7,0.0428147,0.0137813,53,84.2846,0.0518623
-0.834946,-0.447798,0.147071,7.14812,4.0651,10.4802,8,0.0433865,0.0139653,64,58.6794,0.0398389
-0.564406,-0.807027,-0.0218012,7.15544,4.07214,10.4259,9,0.0288291,0.00927956,76,127.97,0.0639595
0.0804041,0.953507,-0.128773,7.24552,4.18852,10.3863,10,0.063473,0.0204308,89,122.773,0.0845837
0.613203,0.726061,0.13225,7.30607,4.1779,10.4398,11,0.122998,0.039591,103,160.742,0.036279
-0.134898,0.893762,0.382859,7.20719,4.15881,10.4405,12,0.0252441,0.0081256,118,149.122,0.0801624
-0.61472,0.554791,0.482129,7.16799,4.17026,10.4993,13,0.105996,0.0341182,134,114.53,0.0418561
0.456618,-0.120797,0.833632,7.27946,4.10703,10.5655,14,0.0309908,0.00997537,18,61.7804,0.0290965
,,,,,,,,,25,95.189,0.031449
,,,,,,,,,33,103.342,0.0326593
,,,,,,,,,42,86.648,0.0273385
,,,,,,,,,52,51.8422,0.0294762
,,,,,,,,,63,139.392,0.0296106
,,,,,,,,,75,113.641,0.0252583
,,,,,,,,,88,84.0603,0.0331953
,,,,,,,,,102,67.3732,0.0380047
,,,,,,,,,117,112.869,0.0237789
,,,,,,,,,133,147.178,0.0370857
,,,,,,,,,150,98.8571,0.0260544
,,,,,,,,,32,88.0058,0.0461443
,,,,,,,,,41,60.1986,0.0487976
,,,,,,,,,51,106.28,0.0378041
,,,,,,,,,62,112.946,0.0420181
,,,,,,,,,74,121.37,0.0422916
,,,,,,,,,87,128.254,0.033939
,,,,,,,,,101,36.7949,0.050004
,,,,,,,,,116,59.9905,0.0617813
,,,,,,,,,132,68.9467,0.0313208
,,,,,,,,,149,90.1397,0.0593888
,,,,,,,,,167,130.748,0.0353921
,,,,,,,,,50,40.1739,0.0557977
,,,,,,,,,61,26.9294,0.0418739
,,,,,,,,,73,89.2249,0.0471068
,,,,,,,,,86,47.7754,0.0474508
,,,,,,,,,100,40.2914,0.0371834
,,,,,,,,,115,116.184,0.0573806
,,,,,,,,,131,147.742,0.0734472
,,,,,,,,,148,126.165,0.0340637
,,,,,,,,,166,100.773,0.0700904
,,,,,,,,,185,140.813,0.0389348
,,,,,,,,,72,67.0715,0.0440473
,,,,,,,,,85,125.42,0.0498753
,,,,,,,,,99,61.391,0.0502611
,,,,,,,,,114,73.0836,0.0388873
,,,,,,,,,130,77.7991,0.0615417
,,,,,,,,,147,115.146,0.0804061
,,,,,,,,,165,87.5817,0.0354882
,,,,,,,,,184,72.9946,0.0764005
,,,,,,,,,204,157.572,0.040807
,,,,,,,,,98,64.1316,0.0384477
,,,,,,,,,113,52.8658,0.0386766
,,,,,,,,,129,29.2836,0.031571
,,,,,,,,,146,140.365,0.0450279
,,,,,,,,,164,153.903,0.0543591
,,,,,,,,,183,151.48,0.0292931
,,,,,,,,,203,119.395,0.0524983
,,,,,,,,,224,117.911,0.0328246
,,,,,,,,,128,103.918,0.0430987
,,,,,,,,,145,76.2861,0.0344568
,,,,,,,,,163,131.863,0.0511362
,,,,,,,,,182,99.1838,0.063519
,,,,,,,,,202,144.296,0.0317613
,,,,,,,,,223,155.28,0.0609927
,,,,,,,,,245,71.8138,0.0359556
,,,,,,,,,162,28.5737,0.0346405
,,,,,,,,,181,123.656,0.0515419
,,,,,,,,,201,152.722,0.0641461
,,,,,,,,,222,104.226,0.0319173
,,,,,,,,,244,68.5654,0.0615707
,,,,,,,,,267,102.866,0.0361557
,,,,,,,,,200,148.633,0.0396496
,,,,,,,,,221,171.558,0.04671
,,,,,,,,,243,132.519,0.0269177
,,,,,,,,,266,96.7715,0.0453294
,,,,,,,,,290,100.896,0.0298709
,,,,,,,,,242,38.545,0.0837348
,,,,,,,,,265,33.3108,0.0361219
,,,,,,,,,289,63.1751,0.0793996
,,,,,,,,,314,101.587,0.0416472
,,,,,,,,,288,49.0881,0.0418905
,,,,,,,,,313,84.4057,0.113866
,,,,,,,,,339,70.7869,0.0495076
,,,,,,,,,338,35.7488,0.0407767
,,,,,,,,,365,80.8476,0.0278238
,,,,,,,,,392,86.6149,0.0479593
