facetNormals:0,facetNormals:1,facetNormals:2,FacetCenters:0,FacetCenters:1,FacetCenters:2,FacetIds,relFacetSize,absFacetSize,cellPairingIds,interplanarAngles,angleWeights
-0.338147,0.122746,-0.921466,4.77439,3.69057,10.0832,1,0.00789139,0.00102251,8,39.9932,0.0137849
0.122636,-0.36532,-0.895303,4.81343,3.65845,10.046,2,0.0544501,0.00705526,13,29.6514,0.0141323
-0.230544,0.567375,-0.725744,4.72995,3.76229,10.0928,3,0.0675686,0.00875506,19,78.7911,0.00981748
-0.707428,-0.587662,-0.0106033,4.73018,3.67768,10.16,4,0.0129874,0.00168281,26,39.4586,0.0125093
-0.829664,0.0640014,-0.485533,4.75366,3.7229,10.0734,5,0.0301559,0.0039074,34,58.481,0.0104907
-0.579387,0.758691,-0.238534,4.69974,3.77462,10.1284,6,0.0156432,0.00202694,43,97.9216,0.0150961
0.905007,-0.117504,-0.209237,4.87132,3.66906,10.126,7,0.173482,0.0224786,53,94.841,0.0153221
0.389599,0.851808,0.0555029,4.80306,3.76693,10.1646,8,0.26245,0.0340064,64,99.5669,0.0137193
-0.33501,0.819309,0.405806,4.70459,3.77308,10.2184,9,0.0524674,0.00679836,76,150.127,0.0150742
0.109708,0.32357,0.892004,4.75954,3.71899,10.262,10,0.167874,0.0217519,18,63.4161,0.0603041
,,,,,,,,,25,81.1824,0.0209724
,,,,,,,,,33,70.7518,0.038815
,,,,,,,,,42,98.0711,0.024304
,,,,,,,,,52,68.0423,0.0828853
,,,,,,,,,63,110.019,0.0901888
,,,,,,,,,75,137.854,0.0534404
,,,,,,,,,88,165.994,0.0822291
,,,,,,,,,32,100.732,0.021787
,,,,,,,,,41,50.6601,0.0417008
,,,,,,,,,51,37.9164,0.0254048
,,,,,,,,,62,97.9818,0.097257
,,,,,,,,,74,66.6478,0.107469
,,,,,,,,,87,74.4699,0.0590681
,,,,,,,,,101,122.628,0.0963547
,,,,,,,,,50,51.2634,0.0181556
,,,,,,,,,61,92.1182,0.0141921
,,,,,,,,,73,131.354,0.0241656
,,,,,,,,,86,154.169,0.02475
,,,,,,,,,100,106.128,0.0208209
,,,,,,,,,115,108.394,0.0241095
,,,,,,,,,72,47.1197,0.0206002
,,,,,,,,,85,136.728,0.0513805
,,,,,,,,,99,109.091,0.0540961
,,,,,,,,,114,81.828,0.0382992
,,,,,,,,,130,123.164,0.0511276
,,,,,,,,,98,127.716,0.0286986
,,,,,,,,,113,63.8237,0.0295265
,,,,,,,,,129,41.3823,0.0241007
,,,,,,,,,146,91.8808,0.0286195
,,,,,,,,,128,74.0862,0.208887
,,,,,,,,,145,122.092,0.080568
,,,,,,,,,163,98.0587,0.170632
,,,,,,,,,162,49.7874,0.0874519
,,,,,,,,,181,65.7675,0.204769
,,,,,,,,,200,50.6035,0.0799478
