Q	U	V
{$V$}	{[mm$^3$]}	0.00736929
{$d_v$}	{[mm]}	0.241440
{$S_c$}	{[mm$^2$]}	0.298842
{$S_o$}	{[mm$^2$]}	0.184579
{$S_l/S_o$}	[]	0.619047
{$\Psi$}	[]	0.612811
{$\eta$}	[]	0.662494
{med($\theta_e$)}	{[$^\circ$]}	61.3996
{$\Upsilon$}	[]	12
{$\Xi$}	[]	8
