"cellPairingIds","interplanarAngles","angleWeights"
72,163.621,0.064879
85,56.718,0.0782087
99,35.9258,0.0621546
130,59.0189,0.0390159
98,135.293,0.109219
113,150.848,0.0802662
146,137.36,0.0454542
163,32.4291,0.0516178
181,44.8771,0.0440999
