"cellPairingIds","interplanarAngles","angleWeights"
8,34.8724,0.00620048
13,60.7441,0.00673237
19,93.2758,0.00678799
26,114.003,0.0062752
43,64.5136,0.00660068
64,71.3033,0.00683663
76,55.8701,0.00618762
89,97.4339,0.0064498
103,133.301,0.00696468
18,26.9844,0.0342522
25,61.3889,0.0357423
32,45.7703,0.0656325
116,38.0029,0.0435524
50,106.874,0.0383766
86,69.1606,0.0693594
131,43.8751,0.0459903
166,63.2792,0.0840645
99,43.9157,0.0377986
165,44.2025,0.0448025
163,35.1298,0.030775
202,78.3516,0.0691446
222,63.5918,0.0936302
244,81.1806,0.0813399
200,38.0637,0.0366767
221,45.3797,0.0483194
266,59.7906,0.0921868
265,106.492,0.0406901
289,91.6803,0.0381829
313,32.4947,0.050968
338,92.7278,0.122575
