"cellPairingIds","interplanarAngles","angleWeights"
8,75.8413,0.0439158
13,102.976,0.0422948
19,68.4827,0.0441167
26,50.4048,0.0820697
53,89.9007,0.076836
18,73.2185,0.0329232
25,31.0551,0.0340167
42,34.281,0.0506543
52,66.414,0.0532324
51,67.6641,0.0485099
74,107.43,0.0485023
101,63.825,0.0390038
50,61.6932,0.0531598
73,38.1684,0.053528
85,48.0448,0.121959
99,83.23,0.109185
165,93.7596,0.107289
98,67.7698,0.110789
129,46.284,0.0352001
146,84.7249,0.066638
145,35.8917,0.036426
202,94.3799,0.108799
181,76.0095,0.0666236
222,44.405,0.0985163
200,85.0143,0.0299104
221,35.9958,0.0284109
243,84,0.0349967
242,55.4021,0.0458816
265,50.8926,0.0659129
288,50.4924,0.0590454
