Q	U	V
{$V$}	{[mm$^3$]}	0.0120312
{$d_v$}	{[mm]}	0.284296
{$S_c$}	{[mm$^2$]}	0.57257
{$S_o$}	{[mm$^2$]}	0.333466
{$S_l/S_o$}	[]	0.717027
{$\Psi$}	[]	0.443467
{$\eta$}	[]	0.463016
{med($\theta_e$)}	{[$^\circ$]}	91.6687
{$\Upsilon$}	[]	15
{$\Xi$}	[]	7
