Q	U	V
{$V$}	{[mm$^3$]}	0.00816369
{$d_v$}	{[mm]}	0.249821
{$S_c$}	{[mm$^2$]}	0.34193
{$S_o$}	{[mm$^2$]}	0.219867
{$S_l/S_o$}	[]	0.555167
{$\Psi$}	[]	0.573418
{$\eta$}	[]	0.592902
{med($\theta_e$)}	{[$^\circ$]}	66.8867
{$\Upsilon$}	[]	15
{$\Xi$}	[]	7
