"cellPairingIds","interplanarAngles","angleWeights"
8,65.7982,0.0904444
13,35.6029,0.0314759
26,57.2913,0.0679371
34,86.8849,0.0622734
43,90.7877,0.0645209
18,58.7648,0.0385494
25,46.3221,0.143648
42,118.722,0.0977644
32,96.0376,0.0361334
41,53.1779,0.0337795
50,142.421,0.0941226
61,123.388,0.0835899
86,107.073,0.102972
85,61.9856,0.075006
99,92.7051,0.0859119
98,40.6848,0.0681617
113,68.6549,0.0770502
128,50.5605,0.0805207
