Q	U	V
{$V$}	{[mm$^3$]}	0.00783715
{$d_v$}	{[mm]}	0.246445
{$S_c$}	{[mm$^2$]}	0.331976
{$S_o$}	{[mm$^2$]}	0.20819
{$S_l/S_o$}	[]	0.594582
{$\Psi$}	[]	0.574755
{$\eta$}	[]	0.631588
{med($\theta_e$)}	{[$^\circ$]}	53.782
{$\Upsilon$}	[]	13
{$\Xi$}	[]	10
