"cellPairingIds","interplanarAngles","angleWeights"
8,83.3619,0.0213179
13,113.971,0.0359775
19,135.764,0.0345125
26,53.6242,0.0176543
34,114.411,0.0316733
53,85.8223,0.0163128
64,49.2228,0.00902477
118,102.866,0.0262098
18,71.3735,0.038118
25,105.243,0.0364775
33,47.8167,0.0181546
52,33.1413,0.0257529
102,100.462,0.0224559
32,38.059,0.120475
61,35.6262,0.0827975
131,41.975,0.0375971
166,71.8594,0.0535937
85,42.0687,0.020591
114,26.6849,0.00840479
147,130.179,0.0184277
113,33.5588,0.0225203
203,40.8389,0.0470449
182,89.3398,0.0263059
244,28.88,0.0196134
221,133.054,0.00922262
266,108.058,0.00995123
341,108.168,0.00976137
313,73.3691,0.0279513
394,46.5347,0.0265034
451,35.1162,0.033566
