facetNormals:0,facetNormals:1,facetNormals:2,FacetCenters:0,FacetCenters:1,FacetCenters:2,FacetIds,relFacetSize,absFacetSize,cellPairingIds,interplanarAngles,angleWeights
0.575301,0.255173,-0.740264,3.6683,7.84279,11.5967,1,0.0368924,0.00547242,8,58.9675,0.0439915
0.317755,-0.653785,-0.628757,3.68895,7.78447,11.6579,2,0.0544736,0.00808033,13,78.5117,0.0336484
-0.465058,0.695821,-0.35971,3.61053,7.88031,11.6807,3,0.0309287,0.00458781,19,90.7856,0.0414505
-0.367475,-0.746963,-0.525352,3.65319,7.85415,11.7412,4,0.0472937,0.00701529,26,37.1708,0.0295343
0.580309,0.718151,-0.325333,3.66806,7.86956,11.6318,5,0.0246232,0.00365248,34,44.898,0.0455475
0.941671,0.250672,-0.0918019,3.7148,7.79471,11.6655,6,0.0595085,0.00882718,43,87.8083,0.0546536
0.486562,-0.835653,0.0414966,3.66644,7.73237,11.7392,7,0.105393,0.0156335,53,55.985,0.0315884
0.873617,0.459164,0.10821,3.70396,7.83712,11.6693,8,0.0276178,0.00409668,64,81.5458,0.0384176
0.822198,-0.464645,0.288267,3.69949,7.74374,11.7537,9,0.0400743,0.00594441,76,87.5413,0.0621978
0.295568,0.812336,0.454721,3.62547,7.85731,11.732,10,0.198035,0.0293755,89,98.2239,0.036867
0.703061,-0.244364,0.647361,3.6675,7.74074,11.8033,11,0.0368417,0.00546491,18,115.471,0.0394556
,,,,,,,,,25,42.1066,0.0506304
,,,,,,,,,33,94.9121,0.0339158
,,,,,,,,,42,78.1575,0.0568798
,,,,,,,,,52,43.4925,0.0718242
,,,,,,,,,63,95.4503,0.0366528
,,,,,,,,,75,66.1464,0.0461775
,,,,,,,,,88,140.377,0.0854441
,,,,,,,,,102,91.4427,0.0439554
,,,,,,,,,32,100.27,0.0373993
,,,,,,,,,41,67.1111,0.0274181
,,,,,,,,,51,104.981,0.0407028
,,,,,,,,,62,158.917,0.0478232
,,,,,,,,,74,97.9896,0.0291796
,,,,,,,,,87,154.133,0.0349125
,,,,,,,,,101,72.7255,0.0535017
,,,,,,,,,116,144.312,0.0336273
,,,,,,,,,50,126.913,0.0323852
,,,,,,,,,61,120.228,0.0527026
,,,,,,,,,73,63.6016,0.0652896
,,,,,,,,,86,137.526,0.0348717
,,,,,,,,,100,96.2909,0.0433857
,,,,,,,,,115,172.99,0.0763531
,,,,,,,,,131,115.361,0.0414185
,,,,,,,,,72,37.8741,0.0348332
,,,,,,,,,85,110.464,0.0399199
,,,,,,,,,99,34.4474,0.0260347
,,,,,,,,,114,87.0551,0.0305037
,,,,,,,,,130,50.5962,0.0438004
,,,,,,,,,147,88.7009,0.029518
,,,,,,,,,98,75.0182,0.076067
,,,,,,,,,113,17.2982,0.0377267
,,,,,,,,,129,49.2162,0.047895
,,,,,,,,,146,62.5827,0.0915167
,,,,,,,,,164,55.8956,0.0455089
,,,,,,,,,128,87.2647,0.0437667
,,,,,,,,,145,33.1344,0.0580688
,,,,,,,,,163,123.092,0.137572
,,,,,,,,,182,53.1081,0.0545979
,,,,,,,,,162,56.8473,0.0326999
,,,,,,,,,181,45.4417,0.0484752
,,,,,,,,,201,54.2614,0.0315698
,,,,,,,,,200,90.1991,0.0666594
,,,,,,,,,221,25.629,0.0383901
,,,,,,,,,242,71.6291,0.0621258
