Q	U	V
{$V$}	{[mm$^3$]}	0.00243308
{$d_v$}	{[mm]}	0.166873
{$S_c$}	{[mm$^2$]}	0.194548
{$S_o$}	{[mm$^2$]}	0.107942
{$S_l/S_o$}	[]	0.802338
{$\Psi$}	[]	0.449671
{$\eta$}	[]	0.499163
{med($\theta_e$)}	{[$^\circ$]}	90.19415
{$\Upsilon$}	[]	8
{$\Xi$}	[]	7
