facetNormals:0,facetNormals:1,facetNormals:2,FacetCenters:0,FacetCenters:1,FacetCenters:2,FacetIds,relFacetSize,absFacetSize,cellPairingIds,interplanarAngles,angleWeights
0.0690582,-0.458309,-0.825258,4.11675,4.43805,11.6046,1,0.173292,0.0295702,8,72.946,0.0594778
-0.0758751,0.664633,-0.701498,4.10671,4.57039,11.6274,2,0.0358997,0.00612586,13,47.9836,0.0454387
0.722579,-0.0495075,-0.668892,4.17852,4.46041,11.6493,3,0.0261474,0.00446175,19,68.5148,0.0732832
0.923157,-0.135517,-0.253665,4.19051,4.45319,11.685,4,0.0464667,0.00792899,26,96.1242,0.108899
-0.735353,0.585785,-0.26726,4.03993,4.55886,11.681,5,0.0793969,0.0135481,34,87.7858,0.158332
-0.952176,0.114345,-0.186472,4.00774,4.47474,11.6845,6,0.145749,0.0248704,43,66.48,0.0273468
0.297728,-0.922236,0.0915484,4.14169,4.38321,11.6658,7,0.0148447,0.00253307,53,101.878,0.139208
0.75177,0.607081,-0.0458617,4.20018,4.51821,11.6889,8,0.116328,0.0198499,64,100.242,0.0768371
0.916323,-0.0218009,0.284504,4.06659,4.46888,11.7096,9,0.049362,0.00842304,76,129.195,0.0842887
0.306262,0.902079,0.236015,4.13632,4.5653,11.6665,10,0.0556875,0.0095024,89,101.798,0.0259012
-0.818539,-0.372233,0.365867,4.02587,4.41736,11.7239,11,0.0139966,0.00238835,18,66.4719,0.0302572
,,,,,,,,,25,88.9099,0.0405054
,,,,,,,,,33,48.1089,0.0494434
,,,,,,,,,42,72.8624,0.0576095
,,,,,,,,,52,137.869,0.0210041
,,,,,,,,,63,66.1858,0.054867
,,,,,,,,,75,107.749,0.0415681
,,,,,,,,,88,64.4209,0.043656
,,,,,,,,,102,118.012,0.0201407
,,,,,,,,,32,27.7761,0.0334641
,,,,,,,,,41,113.328,0.0393394
,,,,,,,,,51,126.206,0.0443402
,,,,,,,,,62,77.9986,0.0189378
,,,,,,,,,74,55.2344,0.0426975
,,,,,,,,,87,60.0139,0.0341862
,,,,,,,,,101,88.8885,0.0355859
,,,,,,,,,116,148.696,0.0182331
,,,,,,,,,50,136.934,0.058624
,,,,,,,,,61,153.745,0.0704675
,,,,,,,,,73,66.4139,0.022501
,,,,,,,,,86,48.2072,0.0664073
,,,,,,,,,100,33.1772,0.0478706
,,,,,,,,,115,83.914,0.0506609
,,,,,,,,,131,148.227,0.0215131
,,,,,,,,,72,31.175,0.102796
,,,,,,,,,85,145.451,0.0250128
,,,,,,,,,99,101.28,0.0943781
,,,,,,,,,114,144.391,0.0608764
,,,,,,,,,130,75.5029,0.0654615
,,,,,,,,,147,72.4518,0.023798
,,,,,,,,,98,115.273,0.026945
,,,,,,,,,113,132.446,0.129387
,,,,,,,,,129,171.802,0.0737475
,,,,,,,,,146,104.031,0.0805852
,,,,,,,,,164,45.1739,0.0255405
,,,,,,,,,128,111.182,0.0263295
,,,,,,,,,145,70.036,0.0228252
,,,,,,,,,163,138.828,0.0234408
,,,,,,,,,182,81.9043,0.0144082
,,,,,,,,,162,44.4653,0.0693123
,,,,,,,,,181,36.1081,0.0753189
,,,,,,,,,201,156.028,0.0249868
,,,,,,,,,200,69.6137,0.0523343
,,,,,,,,,221,133.205,0.0218092
,,,,,,,,,242,121.662,0.0223706
