Q	U	V
{$V$}	{[mm$^3$]}	0.0170624
{$d_v$}	{[mm]}	0.319409
{$S_c$}	{[mm$^2$]}	0.521864
{$S_o$}	{[mm$^2$]}	0.342079
{$S_l/S_o$}	[]	0.525566
{$\Psi$}	[]	0.614168
{$\eta$}	[]	0.659003
{med($\theta_e$)}	{[$^\circ$]}	69.9405
{$\Upsilon$}	[]	11
{$\Xi$}	[]	16
