Q	U	V
{$V$}	{[mm$^3$]}	0.00269194
{$d_v$}	{[mm]}	0.172593
{$S_c$}	{[mm$^2$]}	0.191298
{$S_o$}	{[mm$^2$]}	0.10211
{$S_l/S_o$}	[]	0.873450
{$\Psi$}	[]	0.489197
{$\eta$}	[]	0.525902
{med($\theta_e$)}	{[$^\circ$]}	56.3501
{$\Upsilon$}	[]	17
{$\Xi$}	[]	17
