Q	U	V
{$V$}	{[mm$^3$]}	0.017731
{$d_v$}	{[mm]}	0.323528
{$S_c$}	{[mm$^2$]}	0.660112
{$S_o$}	{[mm$^2$]}	0.450271
{$S_l/S_o$}	[]	0.466033
{$\Psi$}	[]	0.498144
{$\eta$}	[]	0.518632
{med($\theta_e$)}	{[$^\circ$]}	58.85495
{$\Upsilon$}	[]	15
{$\Xi$}	[]	31
