Q	U	V
{$V$}	{[mm$^3$]}	0.00116132
{$d_v$}	{[mm]}	0.130412
{$S_c$}	{[mm$^2$]}	0.100571
{$S_o$}	{[mm$^2$]}	0.0515067
{$S_l/S_o$}	[]	0.952581
{$\Psi$}	[]	0.531267
{$\eta$}	[]	0.545136
{med($\theta_e$)}	{[$^\circ$]}	89.1527
{$\Upsilon$}	[]	21
{$\Xi$}	[]	6
