Q	U	V
{$V$}	{[mm$^3$]}	0.00685275
{$d_v$}	{[mm]}	0.235662
{$S_c$}	{[mm$^2$]}	0.28229
{$S_o$}	{[mm$^2$]}	0.166086
{$S_l/S_o$}	[]	0.699662
{$\Psi$}	[]	0.618062
{$\eta$}	[]	0.621343
{med($\theta_e$)}	{[$^\circ$]}	57.897
{$\Upsilon$}	[]	17
{$\Xi$}	[]	9
