Q	U	V
{$V$}	{[mm$^3$]}	0.00500509
{$d_v$}	{[mm]}	0.212229
{$S_c$}	{[mm$^2$]}	0.234821
{$S_o$}	{[mm$^2$]}	0.150535
{$S_l/S_o$}	[]	0.559910
{$\Psi$}	[]	0.60259
{$\eta$}	[]	0.659894
{med($\theta_e$)}	{[$^\circ$]}	55.5009
{$\Upsilon$}	[]	15
{$\Xi$}	[]	14
