Q	U	V
{$V$}	{[mm$^3$]}	0.0010592
{$d_v$}	{[mm]}	0.126472
{$S_c$}	{[mm$^2$]}	0.114186
{$S_o$}	{[mm$^2$]}	0.0429942
{$S_l/S_o$}	[]	1.655847
{$\Psi$}	[]	0.440072
{$\eta$}	[]	0.642567
{med($\theta_e$)}	{[$^\circ$]}	
{$\Upsilon$}	[]	22
{$\Xi$}	[]	4
