Q	U	V
{$V$}	{[mm$^3$]}	0.00984393
{$d_v$}	{[mm]}	0.265903
{$S_c$}	{[mm$^2$]}	0.336426
{$S_o$}	{[mm$^2$]}	0.246039
{$S_l/S_o$}	[]	0.367369
{$\Psi$}	[]	0.660248
{$\eta$}	[]	0.723779
{med($\theta_e$)}	{[$^\circ$]}	57.014
{$\Upsilon$}	[]	13
{$\Xi$}	[]	24
