Q	U	V
{$V$}	{[mm$^3$]}	0.00646921
{$d_v$}	{[mm]}	0.231180
{$S_c$}	{[mm$^2$]}	0.375309
{$S_o$}	{[mm$^2$]}	0.22023
{$S_l/S_o$}	[]	0.704168
{$\Psi$}	[]	0.447366
{$\eta$}	[]	0.520022
{med($\theta_e$)}	{[$^\circ$]}	
{$\Upsilon$}	[]	15
{$\Xi$}	[]	14
