Q	U	V
{$V$}	{[mm$^3$]}	0.00326429
{$d_v$}	{[mm]}	0.184048
{$S_c$}	{[mm$^2$]}	0.160498
{$S_o$}	{[mm$^2$]}	0.0926933
{$S_l/S_o$}	[]	0.731495
{$\Psi$}	[]	0.663041
{$\eta$}	[]	0.668382
{med($\theta_e$)}	{[$^\circ$]}	61.4919
{$\Upsilon$}	[]	13
{$\Xi$}	[]	10
