Q	U	V
{$V$}	{[mm$^3$]}	0.00204716
{$d_v$}	{[mm]}	0.157538
{$S_c$}	{[mm$^2$]}	0.184763
{$S_o$}	{[mm$^2$]}	0.0776054
{$S_l/S_o$}	[]	1.380801
{$\Psi$}	[]	0.421991
{$\eta$}	[]	0.570390
{med($\theta_e$)}	{[$^\circ$]}	
{$\Upsilon$}	[]	19
{$\Xi$}	[]	16
