Q	U	V
{$V$}	{[mm$^3$]}	0.0183104
{$d_v$}	{[mm]}	0.327014
{$S_c$}	{[mm$^2$]}	0.530668
{$S_o$}	{[mm$^2$]}	0.369902
{$S_l/S_o$}	[]	0.434618
{$\Psi$}	[]	0.633082
{$\eta$}	[]	0.697315
{med($\theta_e$)}	{[$^\circ$]}	68.0494
{$\Upsilon$}	[]	12
{$\Xi$}	[]	11
