Q	U	V
{$V$}	{[mm$^3$]}	0.0118911
{$d_v$}	{[mm]}	0.283188
{$S_c$}	{[mm$^2$]}	0.437987
{$S_o$}	{[mm$^2$]}	0.286942
{$S_l/S_o$}	[]	0.526396
{$\Psi$}	[]	0.575225
{$\eta$}	[]	0.597525
{med($\theta_e$)}	{[$^\circ$]}	64.20955
{$\Upsilon$}	[]	12
{$\Xi$}	[]	9
