Q	U	V
{$V$}	{[mm$^3$]}	0.00565581
{$d_v$}	{[mm]}	0.221054
{$S_c$}	{[mm$^2$]}	0.233067
{$S_o$}	{[mm$^2$]}	0.15438
{$S_l/S_o$}	[]	0.509697
{$\Psi$}	[]	0.658668
{$\eta$}	[]	0.699284
{med($\theta_e$)}	{[$^\circ$]}	53.2313
{$\Upsilon$}	[]	18
{$\Xi$}	[]	15
