Q	U	V
{$V$}	{[mm$^3$]}	0.00168261
{$d_v$}	{[mm]}	0.147569
{$S_c$}	{[mm$^2$]}	0.111011
{$S_o$}	{[mm$^2$]}	0.0575048
{$S_l/S_o$}	[]	0.930465
{$\Psi$}	[]	0.616274
{$\eta$}	[]	0.762117
{med($\theta_e$)}	{[$^\circ$]}	73.21175
{$\Upsilon$}	[]	17
{$\Xi$}	[]	6
