Q	U	V
{$V$}	{[mm$^3$]}	0.00741798
{$d_v$}	{[mm]}	0.241970
{$S_c$}	{[mm$^2$]}	0.27637
{$S_o$}	{[mm$^2$]}	0.196767
{$S_l/S_o$}	[]	0.404555
{$\Psi$}	[]	0.665555
{$\eta$}	[]	0.710736
{med($\theta_e$)}	{[$^\circ$]}	67.66405
{$\Upsilon$}	[]	13
{$\Xi$}	[]	10
