Q	U	V
{$V$}	{[mm$^3$]}	0.00234639
{$d_v$}	{[mm]}	0.164867
{$S_c$}	{[mm$^2$]}	0.132974
{$S_o$}	{[mm$^2$]}	0.0663463
{$S_l/S_o$}	[]	1.004241
{$\Psi$}	[]	0.642171
{$\eta$}	[]	0.677671
{med($\theta_e$)}	{[$^\circ$]}	52.0704
{$\Upsilon$}	[]	16
{$\Xi$}	[]	5
