Q	U	V
{$V$}	{[mm$^3$]}	0.00261594
{$d_v$}	{[mm]}	0.170953
{$S_c$}	{[mm$^2$]}	0.15162
{$S_o$}	{[mm$^2$]}	0.0912288
{$S_l/S_o$}	[]	0.661975
{$\Psi$}	[]	0.605545
{$\eta$}	[]	0.665855
{med($\theta_e$)}	{[$^\circ$]}	66.54445
{$\Upsilon$}	[]	10
{$\Xi$}	[]	7
