Q	U	V
{$V$}	{[mm$^3$]}	0.012144
{$d_v$}	{[mm]}	0.285181
{$S_c$}	{[mm$^2$]}	0.482091
{$S_o$}	{[mm$^2$]}	0.30943
{$S_l/S_o$}	[]	0.557997
{$\Psi$}	[]	0.529984
{$\eta$}	[]	0.540977
{med($\theta_e$)}	{[$^\circ$]}	61.51765
{$\Upsilon$}	[]	13
{$\Xi$}	[]	15
