Q	U	V
{$V$}	{[mm$^3$]}	0.0192319
{$d_v$}	{[mm]}	0.332410
{$S_c$}	{[mm$^2$]}	0.66081
{$S_o$}	{[mm$^2$]}	0.440235
{$S_l/S_o$}	[]	0.501039
{$\Psi$}	[]	0.525318
{$\eta$}	[]	0.551051
{med($\theta_e$)}	{[$^\circ$]}	83.49255
{$\Upsilon$}	[]	11
{$\Xi$}	[]	3
