Q	U	V
{$V$}	{[mm$^3$]}	0.0079832
{$d_v$}	{[mm]}	0.247966
{$S_c$}	{[mm$^2$]}	0.346649
{$S_o$}	{[mm$^2$]}	0.224471
{$S_l/S_o$}	[]	0.544293
{$\Psi$}	[]	0.557244
{$\eta$}	[]	0.593156
{med($\theta_e$)}	{[$^\circ$]}	68.3796
{$\Upsilon$}	[]	16
{$\Xi$}	[]	27
