Q	U	V
{$V$}	{[mm$^3$]}	0.00328566
{$d_v$}	{[mm]}	0.184448
{$S_c$}	{[mm$^2$]}	0.180113
{$S_o$}	{[mm$^2$]}	0.117164
{$S_l/S_o$}	[]	0.537273
{$\Psi$}	[]	0.593409
{$\eta$}	[]	0.786340
{med($\theta_e$)}	{[$^\circ$]}	75.035
{$\Upsilon$}	[]	16
{$\Xi$}	[]	13
