Q	U	V
{$V$}	{[mm$^3$]}	0.00157099
{$d_v$}	{[mm]}	0.144231
{$S_c$}	{[mm$^2$]}	0.133315
{$S_o$}	{[mm$^2$]}	0.0738249
{$S_l/S_o$}	[]	0.805827
{$\Psi$}	[]	0.490216
{$\eta$}	[]	0.497653
{med($\theta_e$)}	{[$^\circ$]}	102.00385
{$\Upsilon$}	[]	14
{$\Xi$}	[]	9
