Q	U	V
{$V$}	{[mm$^3$]}	0.0175457
{$d_v$}	{[mm]}	0.322397
{$S_c$}	{[mm$^2$]}	0.546036
{$S_o$}	{[mm$^2$]}	0.38972
{$S_l/S_o$}	[]	0.401098
{$\Psi$}	[]	0.598012
{$\eta$}	[]	0.662411
{med($\theta_e$)}	{[$^\circ$]}	63.7363
{$\Upsilon$}	[]	12
{$\Xi$}	[]	7
