Q	U	V
{$V$}	{[mm$^3$]}	0.00735386
{$d_v$}	{[mm]}	0.241271
{$S_c$}	{[mm$^2$]}	0.242118
{$S_o$}	{[mm$^2$]}	0.168279
{$S_l/S_o$}	[]	0.438789
{$\Psi$}	[]	0.755325
{$\eta$}	[]	0.759485
{med($\theta_e$)}	{[$^\circ$]}	57.3511
{$\Upsilon$}	[]	15
{$\Xi$}	[]	13
