Q	U	V
{$V$}	{[mm$^3$]}	0.00297099
{$d_v$}	{[mm]}	0.178361
{$S_c$}	{[mm$^2$]}	0.154037
{$S_o$}	{[mm$^2$]}	0.0981695
{$S_l/S_o$}	[]	0.569092
{$\Psi$}	[]	0.648823
{$\eta$}	[]	0.682317
{med($\theta_e$)}	{[$^\circ$]}	50.1143
{$\Upsilon$}	[]	17
{$\Xi$}	[]	7
