Q	U	V
{$V$}	{[mm$^3$]}	0.00330229
{$d_v$}	{[mm]}	0.184759
{$S_c$}	{[mm$^2$]}	0.163834
{$S_o$}	{[mm$^2$]}	0.0994598
{$S_l/S_o$}	[]	0.647238
{$\Psi$}	[]	0.654571
{$\eta$}	[]	0.672180
{med($\theta_e$)}	{[$^\circ$]}	60.13685
{$\Upsilon$}	[]	13
{$\Xi$}	[]	8
