Q	U	V
{$V$}	{[mm$^3$]}	0.00277744
{$d_v$}	{[mm]}	0.174401
{$S_c$}	{[mm$^2$]}	0.133832
{$S_o$}	{[mm$^2$]}	0.0832053
{$S_l/S_o$}	[]	0.608455
{$\Psi$}	[]	0.713982
{$\eta$}	[]	0.723580
{med($\theta_e$)}	{[$^\circ$]}	50.7089
{$\Upsilon$}	[]	17
{$\Xi$}	[]	5
