Q	U	V
{$V$}	{[mm$^3$]}	0.0036324
{$d_v$}	{[mm]}	0.190721
{$S_c$}	{[mm$^2$]}	0.195804
{$S_o$}	{[mm$^2$]}	0.110712
{$S_l/S_o$}	[]	0.768589
{$\Psi$}	[]	0.583613
{$\eta$}	[]	0.603573
{med($\theta_e$)}	{[$^\circ$]}	78.5735
{$\Upsilon$}	[]	13
{$\Xi$}	[]	4
