Q	U	V
{$V$}	{[mm$^3$]}	0.00302799
{$d_v$}	{[mm]}	0.179495
{$S_c$}	{[mm$^2$]}	0.224743
{$S_o$}	{[mm$^2$]}	0.120173
{$S_l/S_o$}	[]	0.870162
{$\Psi$}	[]	0.450368
{$\eta$}	[]	0.488385
{med($\theta_e$)}	{[$^\circ$]}	74.6667
{$\Upsilon$}	[]	13
{$\Xi$}	[]	11
