Q	U	V
{$V$}	{[mm$^3$]}	0.0055145
{$d_v$}	{[mm]}	0.219198
{$S_c$}	{[mm$^2$]}	0.260049
{$S_o$}	{[mm$^2$]}	0.167609
{$S_l/S_o$}	[]	0.551522
{$\Psi$}	[]	0.580452
{$\eta$}	[]	0.591696
{med($\theta_e$)}	{[$^\circ$]}	80.96355
{$\Upsilon$}	[]	8
{$\Xi$}	[]	10
