Q	U	V
{$V$}	{[mm$^3$]}	0.00749754
{$d_v$}	{[mm]}	0.242832
{$S_c$}	{[mm$^2$]}	0.341412
{$S_o$}	{[mm$^2$]}	0.21631
{$S_l/S_o$}	[]	0.578346
{$\Psi$}	[]	0.542606
{$\eta$}	[]	0.567730
{med($\theta_e$)}	{[$^\circ$]}	56.9722
{$\Upsilon$}	[]	13
{$\Xi$}	[]	9
