Q	U	V
{$V$}	{[mm$^3$]}	0.00633978
{$d_v$}	{[mm]}	0.229628
{$S_c$}	{[mm$^2$]}	0.357569
{$S_o$}	{[mm$^2$]}	0.231853
{$S_l/S_o$}	[]	0.542223
{$\Psi$}	[]	0.463277
{$\eta$}	[]	0.609874
{med($\theta_e$)}	{[$^\circ$]}	86.8576
{$\Upsilon$}	[]	6
{$\Xi$}	[]	16
