Q	U	V
{$V$}	{[mm$^3$]}	0.00799508
{$d_v$}	{[mm]}	0.248089
{$S_c$}	{[mm$^2$]}	0.402481
{$S_o$}	{[mm$^2$]}	0.228407
{$S_l/S_o$}	[]	0.762122
{$\Psi$}	[]	0.480419
{$\eta$}	[]	0.502394
{med($\theta_e$)}	{[$^\circ$]}	89.2114
{$\Upsilon$}	[]	9
{$\Xi$}	[]	8
