Q	U	V
{$V$}	{[mm$^3$]}	0.00846056
{$d_v$}	{[mm]}	0.252813
{$S_c$}	{[mm$^2$]}	0.315952
{$S_o$}	{[mm$^2$]}	0.213201
{$S_l/S_o$}	[]	0.481944
{$\Psi$}	[]	0.63552
{$\eta$}	[]	0.670222
{med($\theta_e$)}	{[$^\circ$]}	69.455
{$\Upsilon$}	[]	10
{$\Xi$}	[]	11
