Q	U	V
{$V$}	{[mm$^3$]}	0.0127793
{$d_v$}	{[mm]}	0.290070
{$S_c$}	{[mm$^2$]}	0.616768
{$S_o$}	{[mm$^2$]}	0.370851
{$S_l/S_o$}	[]	0.663115
{$\Psi$}	[]	0.428582
{$\eta$}	[]	0.455353
{med($\theta_e$)}	{[$^\circ$]}	75.5222
{$\Upsilon$}	[]	15
{$\Xi$}	[]	15
