Q	U	V
{$V$}	{[mm$^3$]}	0.00659745
{$d_v$}	{[mm]}	0.232698
{$S_c$}	{[mm$^2$]}	0.28795
{$S_o$}	{[mm$^2$]}	0.196823
{$S_l/S_o$}	[]	0.462990
{$\Psi$}	[]	0.590769
{$\eta$}	[]	0.672301
{med($\theta_e$)}	{[$^\circ$]}	57.608
{$\Upsilon$}	[]	15
{$\Xi$}	[]	9
