Q	U	V
{$V$}	{[mm$^3$]}	0.00177998
{$d_v$}	{[mm]}	0.150362
{$S_c$}	{[mm$^2$]}	0.131263
{$S_o$}	{[mm$^2$]}	0.0757387
{$S_l/S_o$}	[]	0.733103
{$\Psi$}	[]	0.54111
{$\eta$}	[]	0.604492
{med($\theta_e$)}	{[$^\circ$]}	69.5535
{$\Upsilon$}	[]	13
{$\Xi$}	[]	4
