Q	U	V
{$V$}	{[mm$^3$]}	0.00331179
{$d_v$}	{[mm]}	0.184936
{$S_c$}	{[mm$^2$]}	0.191773
{$S_o$}	{[mm$^2$]}	0.103546
{$S_l/S_o$}	[]	0.852056
{$\Psi$}	[]	0.56028
{$\eta$}	[]	0.582960
{med($\theta_e$)}	{[$^\circ$]}	69.4816
{$\Upsilon$}	[]	12
{$\Xi$}	[]	7
