Q	U	V
{$V$}	{[mm$^3$]}	0.0165471
{$d_v$}	{[mm]}	0.316161
{$S_c$}	{[mm$^2$]}	0.588661
{$S_o$}	{[mm$^2$]}	0.395446
{$S_l/S_o$}	[]	0.488600
{$\Psi$}	[]	0.533458
{$\eta$}	[]	0.591887
{med($\theta_e$)}	{[$^\circ$]}	61.11415
{$\Upsilon$}	[]	14
{$\Xi$}	[]	20
