Q	U	V
{$V$}	{[mm$^3$]}	0.00747973
{$d_v$}	{[mm]}	0.242640
{$S_c$}	{[mm$^2$]}	0.402367
{$S_o$}	{[mm$^2$]}	0.235649
{$S_l/S_o$}	[]	0.707484
{$\Psi$}	[]	0.459677
{$\eta$}	[]	0.529022
{med($\theta_e$)}	{[$^\circ$]}	68.7445
{$\Upsilon$}	[]	11
{$\Xi$}	[]	5
