Q	U	V
{$V$}	{[mm$^3$]}	0.00219915
{$d_v$}	{[mm]}	0.161344
{$S_c$}	{[mm$^2$]}	0.198258
{$S_o$}	{[mm$^2$]}	0.101783
{$S_l/S_o$}	[]	0.947850
{$\Psi$}	[]	0.412499
{$\eta$}	[]	0.444548
{med($\theta_e$)}	{[$^\circ$]}	
{$\Upsilon$}	[]	18
{$\Xi$}	[]	6
