Q	U	V
{$V$}	{[mm$^3$]}	0.00182154
{$d_v$}	{[mm]}	0.151524
{$S_c$}	{[mm$^2$]}	0.142953
{$S_o$}	{[mm$^2$]}	0.0808476
{$S_l/S_o$}	[]	0.768179
{$\Psi$}	[]	0.504564
{$\eta$}	[]	0.563694
{med($\theta_e$)}	{[$^\circ$]}	83.9114
{$\Upsilon$}	[]	13
{$\Xi$}	[]	14
