Q	U	V
{$V$}	{[mm$^3$]}	0.00615572
{$d_v$}	{[mm]}	0.227384
{$S_c$}	{[mm$^2$]}	0.349913
{$S_o$}	{[mm$^2$]}	0.203048
{$S_l/S_o$}	[]	0.723302
{$\Psi$}	[]	0.464205
{$\eta$}	[]	0.536485
{med($\theta_e$)}	{[$^\circ$]}	58.5935
{$\Upsilon$}	[]	13
{$\Xi$}	[]	9
