Q	U	V
{$V$}	{[mm$^3$]}	0.0185883
{$d_v$}	{[mm]}	0.328660
{$S_c$}	{[mm$^2$]}	0.532789
{$S_o$}	{[mm$^2$]}	0.386539
{$S_l/S_o$}	[]	0.378358
{$\Psi$}	[]	0.636926
{$\eta$}	[]	0.690423
{med($\theta_e$)}	{[$^\circ$]}	64.8819
{$\Upsilon$}	[]	10
{$\Xi$}	[]	8
