Q	U	V
{$V$}	{[mm$^3$]}	0.0103973
{$d_v$}	{[mm]}	0.270795
{$S_c$}	{[mm$^2$]}	0.440309
{$S_o$}	{[mm$^2$]}	0.274058
{$S_l/S_o$}	[]	0.606627
{$\Psi$}	[]	0.523207
{$\eta$}	[]	0.560906
{med($\theta_e$)}	{[$^\circ$]}	69.96315
{$\Upsilon$}	[]	13
{$\Xi$}	[]	6
