Q	U	V
{$V$}	{[mm$^3$]}	0.0033581
{$d_v$}	{[mm]}	0.185794
{$S_c$}	{[mm$^2$]}	0.23317
{$S_o$}	{[mm$^2$]}	0.129063
{$S_l/S_o$}	[]	0.806637
{$\Psi$}	[]	0.465094
{$\eta$}	[]	0.493841
{med($\theta_e$)}	{[$^\circ$]}	61.2714
{$\Upsilon$}	[]	13
{$\Xi$}	[]	14
