Q	U	V
{$V$}	{[mm$^3$]}	0.0114387
{$d_v$}	{[mm]}	0.279550
{$S_c$}	{[mm$^2$]}	0.364556
{$S_o$}	{[mm$^2$]}	0.263619
{$S_l/S_o$}	[]	0.382890
{$\Psi$}	[]	0.673448
{$\eta$}	[]	0.685881
{med($\theta_e$)}	{[$^\circ$]}	58.3011
{$\Upsilon$}	[]	15
{$\Xi$}	[]	9
