Q	U	V
{$V$}	{[mm$^3$]}	0.0081542
{$d_v$}	{[mm]}	0.249724
{$S_c$}	{[mm$^2$]}	0.367079
{$S_o$}	{[mm$^2$]}	0.223121
{$S_l/S_o$}	[]	0.645201
{$\Psi$}	[]	0.533718
{$\eta$}	[]	0.558531
{med($\theta_e$)}	{[$^\circ$]}	56.1412
{$\Upsilon$}	[]	15
{$\Xi$}	[]	23
