Q	U	V
{$V$}	{[mm$^3$]}	0.00358253
{$d_v$}	{[mm]}	0.189844
{$S_c$}	{[mm$^2$]}	0.170602
{$S_o$}	{[mm$^2$]}	0.0980267
{$S_l/S_o$}	[]	0.740363
{$\Psi$}	[]	0.663682
{$\eta$}	[]	0.692975
{med($\theta_e$)}	{[$^\circ$]}	50.68765
{$\Upsilon$}	[]	16
{$\Xi$}	[]	7
