Q	U	V
{$V$}	{[mm$^3$]}	0.00465954
{$d_v$}	{[mm]}	0.207228
{$S_c$}	{[mm$^2$]}	0.32651
{$S_o$}	{[mm$^2$]}	0.175962
{$S_l/S_o$}	[]	0.855571
{$\Psi$}	[]	0.41319
{$\eta$}	[]	0.470261
{med($\theta_e$)}	{[$^\circ$]}	70.6137
{$\Upsilon$}	[]	10
{$\Xi$}	[]	13
