Q	U	V
{$V$}	{[mm$^3$]}	0.00503952
{$d_v$}	{[mm]}	0.212714
{$S_c$}	{[mm$^2$]}	0.273995
{$S_o$}	{[mm$^2$]}	0.157949
{$S_l/S_o$}	[]	0.734706
{$\Psi$}	[]	0.518801
{$\eta$}	[]	0.554923
{med($\theta_e$)}	{[$^\circ$]}	66.51345
{$\Upsilon$}	[]	13
{$\Xi$}	[]	12
