Q	U	V
{$V$}	{[mm$^3$]}	0.00560831
{$d_v$}	{[mm]}	0.220434
{$S_c$}	{[mm$^2$]}	0.224423
{$S_o$}	{[mm$^2$]}	0.135192
{$S_l/S_o$}	[]	0.660032
{$\Psi$}	[]	0.680202
{$\eta$}	[]	0.698097
{med($\theta_e$)}	{[$^\circ$]}	47.9555
{$\Upsilon$}	[]	19
{$\Xi$}	[]	6
