Q	U	V
{$V$}	{[mm$^3$]}	0.00617947
{$d_v$}	{[mm]}	0.227676
{$S_c$}	{[mm$^2$]}	0.290799
{$S_o$}	{[mm$^2$]}	0.170254
{$S_l/S_o$}	[]	0.708030
{$\Psi$}	[]	0.560005
{$\eta$}	[]	0.619411
{med($\theta_e$)}	{[$^\circ$]}	54.976
{$\Upsilon$}	[]	13
{$\Xi$}	[]	21
