Q	U	V
{$V$}	{[mm$^3$]}	0.00432706
{$d_v$}	{[mm]}	0.202177
{$S_c$}	{[mm$^2$]}	0.262021
{$S_o$}	{[mm$^2$]}	0.152204
{$S_l/S_o$}	[]	0.721512
{$\Psi$}	[]	0.490091
{$\eta$}	[]	0.531354
{med($\theta_e$)}	{[$^\circ$]}	56.4949
{$\Upsilon$}	[]	11
{$\Xi$}	[]	10
