Q	U	V
{$V$}	{[mm$^3$]}	0.00253995
{$d_v$}	{[mm]}	0.169281
{$S_c$}	{[mm$^2$]}	0.143843
{$S_o$}	{[mm$^2$]}	0.0843195
{$S_l/S_o$}	[]	0.705928
{$\Psi$}	[]	0.625862
{$\eta$}	[]	0.689367
{med($\theta_e$)}	{[$^\circ$]}	67.3989
{$\Upsilon$}	[]	14
{$\Xi$}	[]	9
