Q	U	V
{$V$}	{[mm$^3$]}	0.00578643
{$d_v$}	{[mm]}	0.222743
{$S_c$}	{[mm$^2$]}	0.260385
{$S_o$}	{[mm$^2$]}	0.166984
{$S_l/S_o$}	[]	0.559341
{$\Psi$}	[]	0.598607
{$\eta$}	[]	0.678107
{med($\theta_e$)}	{[$^\circ$]}	62.2054
{$\Upsilon$}	[]	12
{$\Xi$}	[]	11
