Q	U	V
{$V$}	{[mm$^3$]}	0.0123198
{$d_v$}	{[mm]}	0.286551
{$S_c$}	{[mm$^2$]}	0.470895
{$S_o$}	{[mm$^2$]}	0.299054
{$S_l/S_o$}	[]	0.574615
{$\Psi$}	[]	0.547809
{$\eta$}	[]	0.575385
{med($\theta_e$)}	{[$^\circ$]}	62.46225
{$\Upsilon$}	[]	15
{$\Xi$}	[]	9
