Q	U	V
{$V$}	{[mm$^3$]}	0.00730636
{$d_v$}	{[mm]}	0.240751
{$S_c$}	{[mm$^2$]}	0.289241
{$S_o$}	{[mm$^2$]}	0.195341
{$S_l/S_o$}	[]	0.480698
{$\Psi$}	[]	0.629542
{$\eta$}	[]	0.657791
{med($\theta_e$)}	{[$^\circ$]}	60.5794
{$\Upsilon$}	[]	13
{$\Xi$}	[]	12
