Q	U	V
{$V$}	{[mm$^3$]}	0.000902459
{$d_v$}	{[mm]}	0.119897
{$S_c$}	{[mm$^2$]}	0.067207
{$S_o$}	{[mm$^2$]}	0.0384386
{$S_l/S_o$}	[]	0.748425
{$\Psi$}	[]	0.671977
{$\eta$}	[]	0.748182
{med($\theta_e$)}	{[$^\circ$]}	
{$\Upsilon$}	[]	18
{$\Xi$}	[]	12
