Q	U	V
{$V$}	{[mm$^3$]}	0.00384258
{$d_v$}	{[mm]}	0.194331
{$S_c$}	{[mm$^2$]}	0.195607
{$S_o$}	{[mm$^2$]}	0.124595
{$S_l/S_o$}	[]	0.569943
{$\Psi$}	[]	0.606524
{$\eta$}	[]	0.734708
{med($\theta_e$)}	{[$^\circ$]}	84.7872
{$\Upsilon$}	[]	15
{$\Xi$}	[]	20
