Q	U	V
{$V$}	{[mm$^3$]}	0.0125204
{$d_v$}	{[mm]}	0.288098
{$S_c$}	{[mm$^2$]}	0.539356
{$S_o$}	{[mm$^2$]}	0.322421
{$S_l/S_o$}	[]	0.672831
{$\Psi$}	[]	0.483453
{$\eta$}	[]	0.527957
{med($\theta_e$)}	{[$^\circ$]}	60.2675
{$\Upsilon$}	[]	14
{$\Xi$}	[]	8
