Q	U	V
{$V$}	{[mm$^3$]}	0.00128363
{$d_v$}	{[mm]}	0.134838
{$S_c$}	{[mm$^2$]}	0.0905308
{$S_o$}	{[mm$^2$]}	0.0478022
{$S_l/S_o$}	[]	0.893863
{$\Psi$}	[]	0.63093
{$\eta$}	[]	0.763263
{med($\theta_e$)}	{[$^\circ$]}	
{$\Upsilon$}	[]	19
{$\Xi$}	[]	12
