Q	U	V
{$V$}	{[mm$^3$]}	0.000769465
{$d_v$}	{[mm]}	0.113692
{$S_c$}	{[mm$^2$]}	0.0656353
{$S_o$}	{[mm$^2$]}	0.0359663
{$S_l/S_o$}	[]	0.824911
{$\Psi$}	[]	0.618689
{$\eta$}	[]	0.700975
{med($\theta_e$)}	{[$^\circ$]}	
{$\Upsilon$}	[]	24
{$\Xi$}	[]	10
