Q	U	V
{$V$}	{[mm$^3$]}	0.0112748
{$d_v$}	{[mm]}	0.278208
{$S_c$}	{[mm$^2$]}	0.353954
{$S_o$}	{[mm$^2$]}	0.244901
{$S_l/S_o$}	[]	0.445294
{$\Psi$}	[]	0.686979
{$\eta$}	[]	0.703789
{med($\theta_e$)}	{[$^\circ$]}	58.3016
{$\Upsilon$}	[]	15
{$\Xi$}	[]	23
