Q	U	V
{$V$}	{[mm$^3$]}	0.00536488
{$d_v$}	{[mm]}	0.217197
{$S_c$}	{[mm$^2$]}	0.290411
{$S_o$}	{[mm$^2$]}	0.166483
{$S_l/S_o$}	[]	0.744388
{$\Psi$}	[]	0.510322
{$\eta$}	[]	0.565554
{med($\theta_e$)}	{[$^\circ$]}	79.6708
{$\Upsilon$}	[]	15
{$\Xi$}	[]	10
