Q	U	V
{$V$}	{[mm$^3$]}	0.00163986
{$d_v$}	{[mm]}	0.146308
{$S_c$}	{[mm$^2$]}	0.117642
{$S_o$}	{[mm$^2$]}	0.0599252
{$S_l/S_o$}	[]	0.963147
{$\Psi$}	[]	0.571645
{$\eta$}	[]	0.639386
{med($\theta_e$)}	{[$^\circ$]}	73.4999
{$\Upsilon$}	[]	19
{$\Xi$}	[]	9
