Q	U	V
{$V$}	{[mm$^3$]}	0.00185717
{$d_v$}	{[mm]}	0.152505
{$S_c$}	{[mm$^2$]}	0.0978323
{$S_o$}	{[mm$^2$]}	0.0656804
{$S_l/S_o$}	[]	0.489520
{$\Psi$}	[]	0.746855
{$\eta$}	[]	0.774339
{med($\theta_e$)}	{[$^\circ$]}	56.0239
{$\Upsilon$}	[]	16
{$\Xi$}	[]	8
