Q	U	V
{$V$}	{[mm$^3$]}	0.00210059
{$d_v$}	{[mm]}	0.158896
{$S_c$}	{[mm$^2$]}	0.136922
{$S_o$}	{[mm$^2$]}	0.0786982
{$S_l/S_o$}	[]	0.739836
{$\Psi$}	[]	0.579302
{$\eta$}	[]	0.653592
{med($\theta_e$)}	{[$^\circ$]}	64.855
{$\Upsilon$}	[]	13
{$\Xi$}	[]	8
