Q	U	V
{$V$}	{[mm$^3$]}	0.00290093
{$d_v$}	{[mm]}	0.176948
{$S_c$}	{[mm$^2$]}	0.162661
{$S_o$}	{[mm$^2$]}	0.0937149
{$S_l/S_o$}	[]	0.735701
{$\Psi$}	[]	0.604726
{$\eta$}	[]	0.637780
{med($\theta_e$)}	{[$^\circ$]}	85.62945
{$\Upsilon$}	[]	15
{$\Xi$}	[]	11
