Q	U	V
{$V$}	{[mm$^3$]}	0.00984749
{$d_v$}	{[mm]}	0.265935
{$S_c$}	{[mm$^2$]}	0.364378
{$S_o$}	{[mm$^2$]}	0.230984
{$S_l/S_o$}	[]	0.577503
{$\Psi$}	[]	0.609746
{$\eta$}	[]	0.630804
{med($\theta_e$)}	{[$^\circ$]}	66.4956
{$\Upsilon$}	[]	16
{$\Xi$}	[]	14
