Q	U	V
{$V$}	{[mm$^3$]}	0.00452892
{$d_v$}	{[mm]}	0.205273
{$S_c$}	{[mm$^2$]}	0.201367
{$S_o$}	{[mm$^2$]}	0.123925
{$S_l/S_o$}	[]	0.624910
{$\Psi$}	[]	0.657394
{$\eta$}	[]	0.758168
{med($\theta_e$)}	{[$^\circ$]}	60.6175
{$\Upsilon$}	[]	12
{$\Xi$}	[]	10
