Q	U	V
{$V$}	{[mm$^3$]}	0.00772315
{$d_v$}	{[mm]}	0.245244
{$S_c$}	{[mm$^2$]}	0.338182
{$S_o$}	{[mm$^2$]}	0.215329
{$S_l/S_o$}	[]	0.570536
{$\Psi$}	[]	0.558723
{$\eta$}	[]	0.565920
{med($\theta_e$)}	{[$^\circ$]}	61.4243
{$\Upsilon$}	[]	17
{$\Xi$}	[]	20
