Q	U	V
{$V$}	{[mm$^3$]}	0.00804495
{$d_v$}	{[mm]}	0.248604
{$S_c$}	{[mm$^2$]}	0.325487
{$S_o$}	{[mm$^2$]}	0.212493
{$S_l/S_o$}	[]	0.531754
{$\Psi$}	[]	0.596531
{$\eta$}	[]	0.624759
{med($\theta_e$)}	{[$^\circ$]}	63.0365
{$\Upsilon$}	[]	18
{$\Xi$}	[]	9
