Q	U	V
{$V$}	{[mm$^3$]}	0.00556081
{$d_v$}	{[mm]}	0.219810
{$S_c$}	{[mm$^2$]}	0.254486
{$S_o$}	{[mm$^2$]}	0.155852
{$S_l/S_o$}	[]	0.632870
{$\Psi$}	[]	0.596457
{$\eta$}	[]	0.600226
{med($\theta_e$)}	{[$^\circ$]}	75.8628
{$\Upsilon$}	[]	13
{$\Xi$}	[]	12
