Q	U	V
{$V$}	{[mm$^3$]}	0.00471298
{$d_v$}	{[mm]}	0.208017
{$S_c$}	{[mm$^2$]}	0.265089
{$S_o$}	{[mm$^2$]}	0.150029
{$S_l/S_o$}	[]	0.766918
{$\Psi$}	[]	0.51281
{$\eta$}	[]	0.585735
{med($\theta_e$)}	{[$^\circ$]}	55.4933
{$\Upsilon$}	[]	9
{$\Xi$}	[]	13
