Q	U	V
{$V$}	{[mm$^3$]}	0.00281544
{$d_v$}	{[mm]}	0.175193
{$S_c$}	{[mm$^2$]}	0.188558
{$S_o$}	{[mm$^2$]}	0.106032
{$S_l/S_o$}	[]	0.778312
{$\Psi$}	[]	0.511372
{$\eta$}	[]	0.561217
{med($\theta_e$)}	{[$^\circ$]}	69.0355
{$\Upsilon$}	[]	11
{$\Xi$}	[]	14
