Q	U	V
{$V$}	{[mm$^3$]}	0.00699525
{$d_v$}	{[mm]}	0.237284
{$S_c$}	{[mm$^2$]}	0.280138
{$S_o$}	{[mm$^2$]}	0.184962
{$S_l/S_o$}	[]	0.514571
{$\Psi$}	[]	0.631414
{$\eta$}	[]	0.678462
{med($\theta_e$)}	{[$^\circ$]}	68.5825
{$\Upsilon$}	[]	14
{$\Xi$}	[]	12
