Q	U	V
{$V$}	{[mm$^3$]}	0.0121179
{$d_v$}	{[mm]}	0.284977
{$S_c$}	{[mm$^2$]}	0.482826
{$S_o$}	{[mm$^2$]}	0.307195
{$S_l/S_o$}	[]	0.571725
{$\Psi$}	[]	0.528419
{$\eta$}	[]	0.577744
{med($\theta_e$)}	{[$^\circ$]}	53.4941
{$\Upsilon$}	[]	10
{$\Xi$}	[]	7
