Q	U	V
{$V$}	{[mm$^3$]}	0.00278694
{$d_v$}	{[mm]}	0.174600
{$S_c$}	{[mm$^2$]}	0.194295
{$S_o$}	{[mm$^2$]}	0.108067
{$S_l/S_o$}	[]	0.797912
{$\Psi$}	[]	0.492918
{$\eta$}	[]	0.561383
{med($\theta_e$)}	{[$^\circ$]}	60.887
{$\Upsilon$}	[]	19
{$\Xi$}	[]	8
