Q	U	V
{$V$}	{[mm$^3$]}	0.00431518
{$d_v$}	{[mm]}	0.201992
{$S_c$}	{[mm$^2$]}	0.193819
{$S_o$}	{[mm$^2$]}	0.127521
{$S_l/S_o$}	[]	0.519899
{$\Psi$}	[]	0.661333
{$\eta$}	[]	0.684639
{med($\theta_e$)}	{[$^\circ$]}	53.6079
{$\Upsilon$}	[]	16
{$\Xi$}	[]	9
