Q	U	V
{$V$}	{[mm$^3$]}	0.00175861
{$d_v$}	{[mm]}	0.149758
{$S_c$}	{[mm$^2$]}	0.145976
{$S_o$}	{[mm$^2$]}	0.0743179
{$S_l/S_o$}	[]	0.964211
{$\Psi$}	[]	0.482669
{$\eta$}	[]	0.542082
{med($\theta_e$)}	{[$^\circ$]}	74.51085
{$\Upsilon$}	[]	14
{$\Xi$}	[]	9
