Q	U	V
{$V$}	{[mm$^3$]}	0.00388295
{$d_v$}	{[mm]}	0.195009
{$S_c$}	{[mm$^2$]}	0.207677
{$S_o$}	{[mm$^2$]}	0.120551
{$S_l/S_o$}	[]	0.722731
{$\Psi$}	[]	0.575268
{$\eta$}	[]	0.642108
{med($\theta_e$)}	{[$^\circ$]}	63.5393
{$\Upsilon$}	[]	10
{$\Xi$}	[]	7
