Q	U	V
{$V$}	{[mm$^3$]}	0.00115182
{$d_v$}	{[mm]}	0.130055
{$S_c$}	{[mm$^2$]}	0.0760051
{$S_o$}	{[mm$^2$]}	0.0486892
{$S_l/S_o$}	[]	0.561026
{$\Psi$}	[]	0.699141
{$\eta$}	[]	0.766996
{med($\theta_e$)}	{[$^\circ$]}	60.8933
{$\Upsilon$}	[]	18
{$\Xi$}	[]	8
