Q	U	V
{$V$}	{[mm$^3$]}	0.00706649
{$d_v$}	{[mm]}	0.238087
{$S_c$}	{[mm$^2$]}	0.317074
{$S_o$}	{[mm$^2$]}	0.174408
{$S_l/S_o$}	[]	0.818001
{$\Psi$}	[]	0.561642
{$\eta$}	[]	0.573563
{med($\theta_e$)}	{[$^\circ$]}	85.6488
{$\Upsilon$}	[]	13
{$\Xi$}	[]	10
