Q	U	V
{$V$}	{[mm$^3$]}	0.00508108
{$d_v$}	{[mm]}	0.213298
{$S_c$}	{[mm$^2$]}	0.299079
{$S_o$}	{[mm$^2$]}	0.169663
{$S_l/S_o$}	[]	0.762783
{$\Psi$}	[]	0.477898
{$\eta$}	[]	0.517201
{med($\theta_e$)}	{[$^\circ$]}	
{$\Upsilon$}	[]	17
{$\Xi$}	[]	11
