Q	U	V
{$V$}	{[mm$^3$]}	0.00490772
{$d_v$}	{[mm]}	0.210844
{$S_c$}	{[mm$^2$]}	0.268297
{$S_o$}	{[mm$^2$]}	0.162817
{$S_l/S_o$}	[]	0.647844
{$\Psi$}	[]	0.520541
{$\eta$}	[]	0.593055
{med($\theta_e$)}	{[$^\circ$]}	
{$\Upsilon$}	[]	12
{$\Xi$}	[]	11
