Q	U	V
{$V$}	{[mm$^3$]}	0.00821238
{$d_v$}	{[mm]}	0.250317
{$S_c$}	{[mm$^2$]}	0.298648
{$S_o$}	{[mm$^2$]}	0.194997
{$S_l/S_o$}	[]	0.531552
{$\Psi$}	[]	0.659129
{$\eta$}	[]	0.703808
{med($\theta_e$)}	{[$^\circ$]}	56.62655
{$\Upsilon$}	[]	16
{$\Xi$}	[]	20
