Q	U	V
{$V$}	{[mm$^3$]}	0.00300068
{$d_v$}	{[mm]}	0.178954
{$S_c$}	{[mm$^2$]}	0.209802
{$S_o$}	{[mm$^2$]}	0.112182
{$S_l/S_o$}	[]	0.870193
{$\Psi$}	[]	0.479536
{$\eta$}	[]	0.532083
{med($\theta_e$)}	{[$^\circ$]}	83.6001
{$\Upsilon$}	[]	16
{$\Xi$}	[]	10
