Q	U	V
{$V$}	{[mm$^3$]}	0.0036134
{$d_v$}	{[mm]}	0.190388
{$S_c$}	{[mm$^2$]}	0.173786
{$S_o$}	{[mm$^2$]}	0.113227
{$S_l/S_o$}	[]	0.534846
{$\Psi$}	[]	0.65526
{$\eta$}	[]	0.762967
{med($\theta_e$)}	{[$^\circ$]}	57.966
{$\Upsilon$}	[]	13
{$\Xi$}	[]	5
