Q	U	V
{$V$}	{[mm$^3$]}	0.00565462
{$d_v$}	{[mm]}	0.221039
{$S_c$}	{[mm$^2$]}	0.211586
{$S_o$}	{[mm$^2$]}	0.149748
{$S_l/S_o$}	[]	0.412947
{$\Psi$}	[]	0.725437
{$\eta$}	[]	0.802123
{med($\theta_e$)}	{[$^\circ$]}	59.1281
{$\Upsilon$}	[]	14
{$\Xi$}	[]	17
