Q	U	V
{$V$}	{[mm$^3$]}	0.00213028
{$d_v$}	{[mm]}	0.159642
{$S_c$}	{[mm$^2$]}	0.132029
{$S_o$}	{[mm$^2$]}	0.0776151
{$S_l/S_o$}	[]	0.701074
{$\Psi$}	[]	0.606419
{$\eta$}	[]	0.677527
{med($\theta_e$)}	{[$^\circ$]}	58.51655
{$\Upsilon$}	[]	12
{$\Xi$}	[]	10
