Q	U	V
{$V$}	{[mm$^3$]}	0.0100897
{$d_v$}	{[mm]}	0.268098
{$S_c$}	{[mm$^2$]}	0.434097
{$S_o$}	{[mm$^2$]}	0.273295
{$S_l/S_o$}	[]	0.588383
{$\Psi$}	[]	0.520175
{$\eta$}	[]	0.557861
{med($\theta_e$)}	{[$^\circ$]}	55.2546
{$\Upsilon$}	[]	15
{$\Xi$}	[]	18
