Q	U	V
{$V$}	{[mm$^3$]}	0.00200203
{$d_v$}	{[mm]}	0.156371
{$S_c$}	{[mm$^2$]}	0.115852
{$S_o$}	{[mm$^2$]}	0.0792677
{$S_l/S_o$}	[]	0.461528
{$\Psi$}	[]	0.663072
{$\eta$}	[]	0.681629
{med($\theta_e$)}	{[$^\circ$]}	61.8254
{$\Upsilon$}	[]	17
{$\Xi$}	[]	7
