Q	U	V
{$V$}	{[mm$^3$]}	0.00780746
{$d_v$}	{[mm]}	0.246133
{$S_c$}	{[mm$^2$]}	0.27271
{$S_o$}	{[mm$^2$]}	0.199579
{$S_l/S_o$}	[]	0.366426
{$\Psi$}	[]	0.697894
{$\eta$}	[]	0.747409
{med($\theta_e$)}	{[$^\circ$]}	58.4971
{$\Upsilon$}	[]	18
{$\Xi$}	[]	25
