Q	U	V
{$V$}	{[mm$^3$]}	0.00478422
{$d_v$}	{[mm]}	0.209060
{$S_c$}	{[mm$^2$]}	0.2086
{$S_o$}	{[mm$^2$]}	0.140105
{$S_l/S_o$}	[]	0.488883
{$\Psi$}	[]	0.658229
{$\eta$}	[]	0.684933
{med($\theta_e$)}	{[$^\circ$]}	62.2911
{$\Upsilon$}	[]	14
{$\Xi$}	[]	13
