Q	U	V
{$V$}	{[mm$^3$]}	0.0176633
{$d_v$}	{[mm]}	0.323115
{$S_c$}	{[mm$^2$]}	0.538343
{$S_o$}	{[mm$^2$]}	0.375758
{$S_l/S_o$}	[]	0.432685
{$\Psi$}	[]	0.609265
{$\eta$}	[]	0.627262
{med($\theta_e$)}	{[$^\circ$]}	56.38075
{$\Upsilon$}	[]	17
{$\Xi$}	[]	14
