Q	U	V
{$V$}	{[mm$^3$]}	0.00364784
{$d_v$}	{[mm]}	0.190991
{$S_c$}	{[mm$^2$]}	0.185407
{$S_o$}	{[mm$^2$]}	0.1131
{$S_l/S_o$}	[]	0.639319
{$\Psi$}	[]	0.618085
{$\eta$}	[]	0.655617
{med($\theta_e$)}	{[$^\circ$]}	56.6686
{$\Upsilon$}	[]	16
{$\Xi$}	[]	10
