Q	U	V
{$V$}	{[mm$^3$]}	0.00590873
{$d_v$}	{[mm]}	0.224301
{$S_c$}	{[mm$^2$]}	0.261896
{$S_o$}	{[mm$^2$]}	0.165035
{$S_l/S_o$}	[]	0.586912
{$\Psi$}	[]	0.60351
{$\eta$}	[]	0.632885
{med($\theta_e$)}	{[$^\circ$]}	73.1581
{$\Upsilon$}	[]	15
{$\Xi$}	[]	13
