Q	U	V
{$V$}	{[mm$^3$]}	0.00625428
{$d_v$}	{[mm]}	0.228591
{$S_c$}	{[mm$^2$]}	0.27938
{$S_o$}	{[mm$^2$]}	0.181451
{$S_l/S_o$}	[]	0.539699
{$\Psi$}	[]	0.587589
{$\eta$}	[]	0.612360
{med($\theta_e$)}	{[$^\circ$]}	59.8211
{$\Upsilon$}	[]	12
{$\Xi$}	[]	13
