Q	U	V
{$V$}	{[mm$^3$]}	0.0111359
{$d_v$}	{[mm]}	0.277061
{$S_c$}	{[mm$^2$]}	0.559166
{$S_o$}	{[mm$^2$]}	0.321767
{$S_l/S_o$}	[]	0.737798
{$\Psi$}	[]	0.431281
{$\eta$}	[]	0.455899
{med($\theta_e$)}	{[$^\circ$]}	87.9338
{$\Upsilon$}	[]	12
{$\Xi$}	[]	10
