Q	U	V
{$V$}	{[mm$^3$]}	0.00391145
{$d_v$}	{[mm]}	0.195485
{$S_c$}	{[mm$^2$]}	0.250243
{$S_o$}	{[mm$^2$]}	0.152032
{$S_l/S_o$}	[]	0.645989
{$\Psi$}	[]	0.479749
{$\eta$}	[]	0.809621
{med($\theta_e$)}	{[$^\circ$]}	
{$\Upsilon$}	[]	17
{$\Xi$}	[]	9
