Q	U	V
{$V$}	{[mm$^3$]}	0.00221578
{$d_v$}	{[mm]}	0.161749
{$S_c$}	{[mm$^2$]}	0.152605
{$S_o$}	{[mm$^2$]}	0.0804262
{$S_l/S_o$}	[]	0.897454
{$\Psi$}	[]	0.5386
{$\eta$}	[]	0.590189
{med($\theta_e$)}	{[$^\circ$]}	80.2134
{$\Upsilon$}	[]	12
{$\Xi$}	[]	7
