Q	U	V
{$V$}	{[mm$^3$]}	0.0073966
{$d_v$}	{[mm]}	0.241738
{$S_c$}	{[mm$^2$]}	0.309197
{$S_o$}	{[mm$^2$]}	0.210768
{$S_l/S_o$}	[]	0.467002
{$\Psi$}	[]	0.59375
{$\eta$}	[]	0.609922
{med($\theta_e$)}	{[$^\circ$]}	60.40805
{$\Upsilon$}	[]	15
{$\Xi$}	[]	18
