Q	U	V
{$V$}	{[mm$^3$]}	0.00757947
{$d_v$}	{[mm]}	0.243714
{$S_c$}	{[mm$^2$]}	0.273961
{$S_o$}	{[mm$^2$]}	0.17475
{$S_l/S_o$}	[]	0.567731
{$\Psi$}	[]	0.681116
{$\eta$}	[]	0.720197
{med($\theta_e$)}	{[$^\circ$]}	48.9999
{$\Upsilon$}	[]	17
{$\Xi$}	[]	9
