Q	U	V
{$V$}	{[mm$^3$]}	0.0113971
{$d_v$}	{[mm]}	0.279211
{$S_c$}	{[mm$^2$]}	0.416958
{$S_o$}	{[mm$^2$]}	0.27603
{$S_l/S_o$}	[]	0.510553
{$\Psi$}	[]	0.587383
{$\eta$}	[]	0.611887
{med($\theta_e$)}	{[$^\circ$]}	59.12875
{$\Upsilon$}	[]	14
{$\Xi$}	[]	27
