Q	U	V
{$V$}	{[mm$^3$]}	0.0109768
{$d_v$}	{[mm]}	0.275735
{$S_c$}	{[mm$^2$]}	0.444915
{$S_o$}	{[mm$^2$]}	0.292257
{$S_l/S_o$}	[]	0.522342
{$\Psi$}	[]	0.536856
{$\eta$}	[]	0.555347
{med($\theta_e$)}	{[$^\circ$]}	74.378
{$\Upsilon$}	[]	15
{$\Xi$}	[]	15
