Q	U	V
{$V$}	{[mm$^3$]}	0.006848
{$d_v$}	{[mm]}	0.235607
{$S_c$}	{[mm$^2$]}	0.341858
{$S_o$}	{[mm$^2$]}	0.196077
{$S_l/S_o$}	[]	0.743489
{$\Psi$}	[]	0.51013
{$\eta$}	[]	0.538917
{med($\theta_e$)}	{[$^\circ$]}	64.878
{$\Upsilon$}	[]	16
{$\Xi$}	[]	18
