Q	U	V
{$V$}	{[mm$^3$]}	0.00242595
{$d_v$}	{[mm]}	0.166710
{$S_c$}	{[mm$^2$]}	0.17893
{$S_o$}	{[mm$^2$]}	0.0974747
{$S_l/S_o$}	[]	0.835656
{$\Psi$}	[]	0.487965
{$\eta$}	[]	0.527732
{med($\theta_e$)}	{[$^\circ$]}	
{$\Upsilon$}	[]	16
{$\Xi$}	[]	11
