Q	U	V
{$V$}	{[mm$^3$]}	0.0138183
{$d_v$}	{[mm]}	0.297727
{$S_c$}	{[mm$^2$]}	0.479821
{$S_o$}	{[mm$^2$]}	0.31986
{$S_l/S_o$}	[]	0.500097
{$\Psi$}	[]	0.580374
{$\eta$}	[]	0.615848
{med($\theta_e$)}	{[$^\circ$]}	71.3967
{$\Upsilon$}	[]	12
{$\Xi$}	[]	14
