Q	U	V
{$V$}	{[mm$^3$]}	0.00289381
{$d_v$}	{[mm]}	0.176803
{$S_c$}	{[mm$^2$]}	0.156571
{$S_o$}	{[mm$^2$]}	0.0977759
{$S_l/S_o$}	[]	0.601325
{$\Psi$}	[]	0.627219
{$\eta$}	[]	0.644430
{med($\theta_e$)}	{[$^\circ$]}	73.32085
{$\Upsilon$}	[]	13
{$\Xi$}	[]	4
