Q	U	V
{$V$}	{[mm$^3$]}	0.00670314
{$d_v$}	{[mm]}	0.233934
{$S_c$}	{[mm$^2$]}	0.320609
{$S_o$}	{[mm$^2$]}	0.193469
{$S_l/S_o$}	[]	0.657160
{$\Psi$}	[]	0.536242
{$\eta$}	[]	0.549626
{med($\theta_e$)}	{[$^\circ$]}	62.2226
{$\Upsilon$}	[]	16
{$\Xi$}	[]	16
