Q	U	V
{$V$}	{[mm$^3$]}	0.00595861
{$d_v$}	{[mm]}	0.224931
{$S_c$}	{[mm$^2$]}	0.261302
{$S_o$}	{[mm$^2$]}	0.164359
{$S_l/S_o$}	[]	0.589825
{$\Psi$}	[]	0.608282
{$\eta$}	[]	0.623313
{med($\theta_e$)}	{[$^\circ$]}	67.0507
{$\Upsilon$}	[]	13
{$\Xi$}	[]	16
