Q	U	V
{$V$}	{[mm$^3$]}	0.00320254
{$d_v$}	{[mm]}	0.182880
{$S_c$}	{[mm$^2$]}	0.178309
{$S_o$}	{[mm$^2$]}	0.0934965
{$S_l/S_o$}	[]	0.907120
{$\Psi$}	[]	0.58926
{$\eta$}	[]	0.618881
{med($\theta_e$)}	{[$^\circ$]}	80.5564
{$\Upsilon$}	[]	15
{$\Xi$}	[]	15
