Q	U	V
{$V$}	{[mm$^3$]}	0.00183104
{$d_v$}	{[mm]}	0.151786
{$S_c$}	{[mm$^2$]}	0.128009
{$S_o$}	{[mm$^2$]}	0.0662514
{$S_l/S_o$}	[]	0.932170
{$\Psi$}	[]	0.565426
{$\eta$}	[]	0.582973
{med($\theta_e$)}	{[$^\circ$]}	
{$\Upsilon$}	[]	17
{$\Xi$}	[]	5
