Q	U	V
{$V$}	{[mm$^3$]}	0.00222409
{$d_v$}	{[mm]}	0.161951
{$S_c$}	{[mm$^2$]}	0.125857
{$S_o$}	{[mm$^2$]}	0.0763096
{$S_l/S_o$}	[]	0.649294
{$\Psi$}	[]	0.654699
{$\eta$}	[]	0.710508
{med($\theta_e$)}	{[$^\circ$]}	68.2995
{$\Upsilon$}	[]	9
{$\Xi$}	[]	5
