Q	U	V
{$V$}	{[mm$^3$]}	0.00648821
{$d_v$}	{[mm]}	0.231406
{$S_c$}	{[mm$^2$]}	0.241853
{$S_o$}	{[mm$^2$]}	0.169364
{$S_l/S_o$}	[]	0.428007
{$\Psi$}	[]	0.695583
{$\eta$}	[]	0.742629
{med($\theta_e$)}	{[$^\circ$]}	54.09445
{$\Upsilon$}	[]	16
{$\Xi$}	[]	21
