Q	U	V
{$V$}	{[mm$^3$]}	0.00389601
{$d_v$}	{[mm]}	0.195227
{$S_c$}	{[mm$^2$]}	0.294876
{$S_o$}	{[mm$^2$]}	0.154197
{$S_l/S_o$}	[]	0.912333
{$\Psi$}	[]	0.406061
{$\eta$}	[]	0.458922
{med($\theta_e$)}	{[$^\circ$]}	97.9182
{$\Upsilon$}	[]	15
{$\Xi$}	[]	4
