Q	U	V
{$V$}	{[mm$^3$]}	0.0146792
{$d_v$}	{[mm]}	0.303786
{$S_c$}	{[mm$^2$]}	0.484682
{$S_o$}	{[mm$^2$]}	0.333236
{$S_l/S_o$}	[]	0.454471
{$\Psi$}	[]	0.598176
{$\eta$}	[]	0.635274
{med($\theta_e$)}	{[$^\circ$]}	62.25205
{$\Upsilon$}	[]	12
{$\Xi$}	[]	31
