Q	U	V
{$V$}	{[mm$^3$]}	0.00538507
{$d_v$}	{[mm]}	0.217469
{$S_c$}	{[mm$^2$]}	0.36519
{$S_o$}	{[mm$^2$]}	0.20593
{$S_l/S_o$}	[]	0.773370
{$\Psi$}	[]	0.406842
{$\eta$}	[]	0.437112
{med($\theta_e$)}	{[$^\circ$]}	51.31295
{$\Upsilon$}	[]	19
{$\Xi$}	[]	19
