Q	U	V
{$V$}	{[mm$^3$]}	0.0017693
{$d_v$}	{[mm]}	0.150061
{$S_c$}	{[mm$^2$]}	0.135035
{$S_o$}	{[mm$^2$]}	0.0675099
{$S_l/S_o$}	[]	1.000225
{$\Psi$}	[]	0.523888
{$\eta$}	[]	0.588108
{med($\theta_e$)}	{[$^\circ$]}	
{$\Upsilon$}	[]	14
{$\Xi$}	[]	6
