Q	U	V
{$V$}	{[mm$^3$]}	0.0183686
{$d_v$}	{[mm]}	0.327360
{$S_c$}	{[mm$^2$]}	0.515845
{$S_o$}	{[mm$^2$]}	0.391311
{$S_l/S_o$}	[]	0.318248
{$\Psi$}	[]	0.652653
{$\eta$}	[]	0.668759
{med($\theta_e$)}	{[$^\circ$]}	64.6052
{$\Upsilon$}	[]	17
{$\Xi$}	[]	23
