Q	U	V
{$V$}	{[mm$^3$]}	0.00617472
{$d_v$}	{[mm]}	0.227618
{$S_c$}	{[mm$^2$]}	0.34159
{$S_o$}	{[mm$^2$]}	0.203504
{$S_l/S_o$}	[]	0.678542
{$\Psi$}	[]	0.476494
{$\eta$}	[]	0.605896
{med($\theta_e$)}	{[$^\circ$]}	56.33655
{$\Upsilon$}	[]	13
{$\Xi$}	[]	10
