Q	U	V
{$V$}	{[mm$^3$]}	0.00378558
{$d_v$}	{[mm]}	0.193365
{$S_c$}	{[mm$^2$]}	0.197012
{$S_o$}	{[mm$^2$]}	0.127455
{$S_l/S_o$}	[]	0.545738
{$\Psi$}	[]	0.596229
{$\eta$}	[]	0.620790
{med($\theta_e$)}	{[$^\circ$]}	55.5144
{$\Upsilon$}	[]	14
{$\Xi$}	[]	9
