Q	U	V
{$V$}	{[mm$^3$]}	0.00128244
{$d_v$}	{[mm]}	0.134797
{$S_c$}	{[mm$^2$]}	0.107564
{$S_o$}	{[mm$^2$]}	0.0592136
{$S_l/S_o$}	[]	0.816542
{$\Psi$}	[]	0.530691
{$\eta$}	[]	0.616445
{med($\theta_e$)}	{[$^\circ$]}	
{$\Upsilon$}	[]	17
{$\Xi$}	[]	7
