Q	U	V
{$V$}	{[mm$^3$]}	0.0104768
{$d_v$}	{[mm]}	0.271483
{$S_c$}	{[mm$^2$]}	0.509712
{$S_o$}	{[mm$^2$]}	0.272378
{$S_l/S_o$}	[]	0.871341
{$\Psi$}	[]	0.454268
{$\eta$}	[]	0.500567
{med($\theta_e$)}	{[$^\circ$]}	68.55415
{$\Upsilon$}	[]	13
{$\Xi$}	[]	15
