Q	U	V
{$V$}	{[mm$^3$]}	0.00358371
{$d_v$}	{[mm]}	0.189865
{$S_c$}	{[mm$^2$]}	0.247888
{$S_o$}	{[mm$^2$]}	0.135048
{$S_l/S_o$}	[]	0.835555
{$\Psi$}	[]	0.456861
{$\eta$}	[]	0.489427
{med($\theta_e$)}	{[$^\circ$]}	62.8659
{$\Upsilon$}	[]	15
{$\Xi$}	[]	18
