Q	U	V
{$V$}	{[mm$^3$]}	0.00454436
{$d_v$}	{[mm]}	0.205506
{$S_c$}	{[mm$^2$]}	0.195619
{$S_o$}	{[mm$^2$]}	0.132239
{$S_l/S_o$}	[]	0.479284
{$\Psi$}	[]	0.678248
{$\eta$}	[]	0.693230
{med($\theta_e$)}	{[$^\circ$]}	66.8481
{$\Upsilon$}	[]	10
{$\Xi$}	[]	8
