Q	U	V
{$V$}	{[mm$^3$]}	0.00213622
{$d_v$}	{[mm]}	0.159790
{$S_c$}	{[mm$^2$]}	0.1275
{$S_o$}	{[mm$^2$]}	0.073036
{$S_l/S_o$}	[]	0.745714
{$\Psi$}	[]	0.629126
{$\eta$}	[]	0.670566
{med($\theta_e$)}	{[$^\circ$]}	52.829
{$\Upsilon$}	[]	15
{$\Xi$}	[]	9
