Q	U	V
{$V$}	{[mm$^3$]}	0.00575318
{$d_v$}	{[mm]}	0.222316
{$S_c$}	{[mm$^2$]}	0.354509
{$S_o$}	{[mm$^2$]}	0.198457
{$S_l/S_o$}	[]	0.786327
{$\Psi$}	[]	0.437988
{$\eta$}	[]	0.456564
{med($\theta_e$)}	{[$^\circ$]}	67.03555
{$\Upsilon$}	[]	14
{$\Xi$}	[]	15
