Q	U	V
{$V$}	{[mm$^3$]}	0.00366683
{$d_v$}	{[mm]}	0.191322
{$S_c$}	{[mm$^2$]}	0.235393
{$S_o$}	{[mm$^2$]}	0.123657
{$S_l/S_o$}	[]	0.903596
{$\Psi$}	[]	0.488522
{$\eta$}	[]	0.618532
{med($\theta_e$)}	{[$^\circ$]}	82.8647
{$\Upsilon$}	[]	16
{$\Xi$}	[]	12
