Q	U	V
{$V$}	{[mm$^3$]}	0.00135606
{$d_v$}	{[mm]}	0.137328
{$S_c$}	{[mm$^2$]}	0.143257
{$S_o$}	{[mm$^2$]}	0.06302
{$S_l/S_o$}	[]	1.273199
{$\Psi$}	[]	0.413575
{$\eta$}	[]	0.441719
{med($\theta_e$)}	{[$^\circ$]}	
{$\Upsilon$}	[]	15
{$\Xi$}	[]	4
