Q	U	V
{$V$}	{[mm$^3$]}	0.0170387
{$d_v$}	{[mm]}	0.319261
{$S_c$}	{[mm$^2$]}	0.518922
{$S_o$}	{[mm$^2$]}	0.362425
{$S_l/S_o$}	[]	0.431805
{$\Psi$}	[]	0.617077
{$\eta$}	[]	0.629513
{med($\theta_e$)}	{[$^\circ$]}	73.4335
{$\Upsilon$}	[]	9
{$\Xi$}	[]	11
