Q	U	V
{$V$}	{[mm$^3$]}	0.00399932
{$d_v$}	{[mm]}	0.196938
{$S_c$}	{[mm$^2$]}	0.198678
{$S_o$}	{[mm$^2$]}	0.135408
{$S_l/S_o$}	[]	0.467255
{$\Psi$}	[]	0.61328
{$\eta$}	[]	0.841522
{med($\theta_e$)}	{[$^\circ$]}	64.2706
{$\Upsilon$}	[]	13
{$\Xi$}	[]	11
