Q	U	V
{$V$}	{[mm$^3$]}	0.0149571
{$d_v$}	{[mm]}	0.305691
{$S_c$}	{[mm$^2$]}	0.525096
{$S_o$}	{[mm$^2$]}	0.347764
{$S_l/S_o$}	[]	0.509921
{$\Psi$}	[]	0.559084
{$\eta$}	[]	0.591381
{med($\theta_e$)}	{[$^\circ$]}	96.177
{$\Upsilon$}	[]	16
{$\Xi$}	[]	9
