Q	U	V
{$V$}	{[mm$^3$]}	0.00891654
{$d_v$}	{[mm]}	0.257276
{$S_c$}	{[mm$^2$]}	0.38675
{$S_o$}	{[mm$^2$]}	0.238928
{$S_l/S_o$}	[]	0.618688
{$\Psi$}	[]	0.537673
{$\eta$}	[]	0.543007
{med($\theta_e$)}	{[$^\circ$]}	62.266
{$\Upsilon$}	[]	14
{$\Xi$}	[]	7
