Q	U	V
{$V$}	{[mm$^3$]}	0.00680763
{$d_v$}	{[mm]}	0.235143
{$S_c$}	{[mm$^2$]}	0.248637
{$S_o$}	{[mm$^2$]}	0.166768
{$S_l/S_o$}	[]	0.490916
{$\Psi$}	[]	0.698633
{$\eta$}	[]	0.718823
{med($\theta_e$)}	{[$^\circ$]}	53.0873
{$\Upsilon$}	[]	21
{$\Xi$}	[]	8
