Q	U	V
{$V$}	{[mm$^3$]}	0.00251026
{$d_v$}	{[mm]}	0.168619
{$S_c$}	{[mm$^2$]}	0.157518
{$S_o$}	{[mm$^2$]}	0.0854129
{$S_l/S_o$}	[]	0.844194
{$\Psi$}	[]	0.567065
{$\eta$}	[]	0.654224
{med($\theta_e$)}	{[$^\circ$]}	55.47865
{$\Upsilon$}	[]	16
{$\Xi$}	[]	8
