Q	U	V
{$V$}	{[mm$^3$]}	0.0123506
{$d_v$}	{[mm]}	0.286789
{$S_c$}	{[mm$^2$]}	0.466015
{$S_o$}	{[mm$^2$]}	0.302004
{$S_l/S_o$}	[]	0.543076
{$\Psi$}	[]	0.554468
{$\eta$}	[]	0.602564
{med($\theta_e$)}	{[$^\circ$]}	62.7492
{$\Upsilon$}	[]	12
{$\Xi$}	[]	6
