Q	U	V
{$V$}	{[mm$^3$]}	0.00972994
{$d_v$}	{[mm]}	0.264873
{$S_c$}	{[mm$^2$]}	0.406923
{$S_o$}	{[mm$^2$]}	0.262961
{$S_l/S_o$}	[]	0.547465
{$\Psi$}	[]	0.541642
{$\eta$}	[]	0.634862
{med($\theta_e$)}	{[$^\circ$]}	
{$\Upsilon$}	[]	9
{$\Xi$}	[]	11
