Q	U	V
{$V$}	{[mm$^3$]}	0.00414775
{$d_v$}	{[mm]}	0.199345
{$S_c$}	{[mm$^2$]}	0.223463
{$S_o$}	{[mm$^2$]}	0.141087
{$S_l/S_o$}	[]	0.583867
{$\Psi$}	[]	0.558668
{$\eta$}	[]	0.597137
{med($\theta_e$)}	{[$^\circ$]}	68.1449
{$\Upsilon$}	[]	10
{$\Xi$}	[]	14
