Q	U	V
{$V$}	{[mm$^3$]}	0.00234164
{$d_v$}	{[mm]}	0.164756
{$S_c$}	{[mm$^2$]}	0.133579
{$S_o$}	{[mm$^2$]}	0.0811548
{$S_l/S_o$}	[]	0.645978
{$\Psi$}	[]	0.6384
{$\eta$}	[]	0.672806
{med($\theta_e$)}	{[$^\circ$]}	55.7233
{$\Upsilon$}	[]	23
{$\Xi$}	[]	8
