Q	U	V
{$V$}	{[mm$^3$]}	0.00217421
{$d_v$}	{[mm]}	0.160731
{$S_c$}	{[mm$^2$]}	0.104473
{$S_o$}	{[mm$^2$]}	0.0774738
{$S_l/S_o$}	[]	0.348495
{$\Psi$}	[]	0.776869
{$\eta$}	[]	0.816487
{med($\theta_e$)}	{[$^\circ$]}	61.6407
{$\Upsilon$}	[]	13
{$\Xi$}	[]	8
