Q	U	V
{$V$}	{[mm$^3$]}	0.0109827
{$d_v$}	{[mm]}	0.275785
{$S_c$}	{[mm$^2$]}	0.604009
{$S_o$}	{[mm$^2$]}	0.307066
{$S_l/S_o$}	[]	0.967033
{$\Psi$}	[]	0.395591
{$\eta$}	[]	0.432048
{med($\theta_e$)}	{[$^\circ$]}	89.9477
{$\Upsilon$}	[]	12
{$\Xi$}	[]	7
