Q	U	V
{$V$}	{[mm$^3$]}	0.00967413
{$d_v$}	{[mm]}	0.264365
{$S_c$}	{[mm$^2$]}	0.366767
{$S_o$}	{[mm$^2$]}	0.243887
{$S_l/S_o$}	[]	0.503840
{$\Psi$}	[]	0.598644
{$\eta$}	[]	0.669657
{med($\theta_e$)}	{[$^\circ$]}	56.6672
{$\Upsilon$}	[]	18
{$\Xi$}	[]	8
