Q	U	V
{$V$}	{[mm$^3$]}	0.0108996
{$d_v$}	{[mm]}	0.275087
{$S_c$}	{[mm$^2$]}	0.571729
{$S_o$}	{[mm$^2$]}	0.320763
{$S_l/S_o$}	[]	0.782403
{$\Psi$}	[]	0.415816
{$\eta$}	[]	0.477242
{med($\theta_e$)}	{[$^\circ$]}	82.73145
{$\Upsilon$}	[]	12
{$\Xi$}	[]	13
