Q	U	V
{$V$}	{[mm$^3$]}	0.000887023
{$d_v$}	{[mm]}	0.119210
{$S_c$}	{[mm$^2$]}	0.07593
{$S_o$}	{[mm$^2$]}	0.0382667
{$S_l/S_o$}	[]	0.984232
{$\Psi$}	[]	0.587977
{$\eta$}	[]	0.635105
{med($\theta_e$)}	{[$^\circ$]}	50.814
{$\Upsilon$}	[]	26
{$\Xi$}	[]	2
