Q	U	V
{$V$}	{[mm$^3$]}	0.00726836
{$d_v$}	{[mm]}	0.240333
{$S_c$}	{[mm$^2$]}	0.294656
{$S_o$}	{[mm$^2$]}	0.21516
{$S_l/S_o$}	[]	0.369474
{$\Psi$}	[]	0.615829
{$\eta$}	[]	0.649412
{med($\theta_e$)}	{[$^\circ$]}	55.43555
{$\Upsilon$}	[]	16
{$\Xi$}	[]	12
