Q	U	V
{$V$}	{[mm$^3$]}	0.00169449
{$d_v$}	{[mm]}	0.147915
{$S_c$}	{[mm$^2$]}	0.109064
{$S_o$}	{[mm$^2$]}	0.0616989
{$S_l/S_o$}	[]	0.767681
{$\Psi$}	[]	0.630225
{$\eta$}	[]	0.666701
{med($\theta_e$)}	{[$^\circ$]}	104.585
{$\Upsilon$}	[]	20
{$\Xi$}	[]	7
