Q	U	V
{$V$}	{[mm$^3$]}	0.00665683
{$d_v$}	{[mm]}	0.233394
{$S_c$}	{[mm$^2$]}	0.265855
{$S_o$}	{[mm$^2$]}	0.181829
{$S_l/S_o$}	[]	0.462116
{$\Psi$}	[]	0.643701
{$\eta$}	[]	0.663448
{med($\theta_e$)}	{[$^\circ$]}	52.9265
{$\Upsilon$}	[]	19
{$\Xi$}	[]	11
