Q	U	V
{$V$}	{[mm$^3$]}	0.00410144
{$d_v$}	{[mm]}	0.198600
{$S_c$}	{[mm$^2$]}	0.165785
{$S_o$}	{[mm$^2$]}	0.101338
{$S_l/S_o$}	[]	0.635961
{$\Psi$}	[]	0.747417
{$\eta$}	[]	0.752342
{med($\theta_e$)}	{[$^\circ$]}	55.8962
{$\Upsilon$}	[]	16
{$\Xi$}	[]	10
