Q	U	V
{$V$}	{[mm$^3$]}	0.00300068
{$d_v$}	{[mm]}	0.178954
{$S_c$}	{[mm$^2$]}	0.154657
{$S_o$}	{[mm$^2$]}	0.0975852
{$S_l/S_o$}	[]	0.584841
{$\Psi$}	[]	0.650521
{$\eta$}	[]	0.671758
{med($\theta_e$)}	{[$^\circ$]}	71.2156
{$\Upsilon$}	[]	10
{$\Xi$}	[]	7
