Q	U	V
{$V$}	{[mm$^3$]}	0.00973825
{$d_v$}	{[mm]}	0.264948
{$S_c$}	{[mm$^2$]}	0.456296
{$S_o$}	{[mm$^2$]}	0.286387
{$S_l/S_o$}	[]	0.593285
{$\Psi$}	[]	0.483309
{$\eta$}	[]	0.504462
{med($\theta_e$)}	{[$^\circ$]}	80.3733
{$\Upsilon$}	[]	16
{$\Xi$}	[]	13
