Q	U	V
{$V$}	{[mm$^3$]}	0.017693
{$d_v$}	{[mm]}	0.323296
{$S_c$}	{[mm$^2$]}	0.540081
{$S_o$}	{[mm$^2$]}	0.422994
{$S_l/S_o$}	[]	0.276805
{$\Psi$}	[]	0.607985
{$\eta$}	[]	0.620874
{med($\theta_e$)}	{[$^\circ$]}	66.9567
{$\Upsilon$}	[]	10
{$\Xi$}	[]	19
