Q	U	V
{$V$}	{[mm$^3$]}	0.00730398
{$d_v$}	{[mm]}	0.240725
{$S_c$}	{[mm$^2$]}	0.32469
{$S_o$}	{[mm$^2$]}	0.201772
{$S_l/S_o$}	[]	0.609193
{$\Psi$}	[]	0.560688
{$\eta$}	[]	0.602433
{med($\theta_e$)}	{[$^\circ$]}	50.9201
{$\Upsilon$}	[]	18
{$\Xi$}	[]	12
