Q	U	V
{$V$}	{[mm$^3$]}	0.00415131
{$d_v$}	{[mm]}	0.199402
{$S_c$}	{[mm$^2$]}	0.23454
{$S_o$}	{[mm$^2$]}	0.135913
{$S_l/S_o$}	[]	0.725663
{$\Psi$}	[]	0.532587
{$\eta$}	[]	0.573574
{med($\theta_e$)}	{[$^\circ$]}	69.5977
{$\Upsilon$}	[]	11
{$\Xi$}	[]	9
