Q	U	V
{$V$}	{[mm$^3$]}	0.0024402
{$d_v$}	{[mm]}	0.167036
{$S_c$}	{[mm$^2$]}	0.151201
{$S_o$}	{[mm$^2$]}	0.0880082
{$S_l/S_o$}	[]	0.718033
{$\Psi$}	[]	0.579713
{$\eta$}	[]	0.628788
{med($\theta_e$)}	{[$^\circ$]}	53.99545
{$\Upsilon$}	[]	12
{$\Xi$}	[]	11
