Q	U	V
{$V$}	{[mm$^3$]}	0.00273588
{$d_v$}	{[mm]}	0.173527
{$S_c$}	{[mm$^2$]}	0.179431
{$S_o$}	{[mm$^2$]}	0.107538
{$S_l/S_o$}	[]	0.668536
{$\Psi$}	[]	0.527211
{$\eta$}	[]	0.557490
{med($\theta_e$)}	{[$^\circ$]}	77.2297
{$\Upsilon$}	[]	18
{$\Xi$}	[]	16
