Q	U	V
{$V$}	{[mm$^3$]}	0.00382952
{$d_v$}	{[mm]}	0.194110
{$S_c$}	{[mm$^2$]}	0.187702
{$S_o$}	{[mm$^2$]}	0.119359
{$S_l/S_o$}	[]	0.572584
{$\Psi$}	[]	0.630635
{$\eta$}	[]	0.659663
{med($\theta_e$)}	{[$^\circ$]}	60.4424
{$\Upsilon$}	[]	14
{$\Xi$}	[]	13
