Q	U	V
{$V$}	{[mm$^3$]}	0.00371671
{$d_v$}	{[mm]}	0.192185
{$S_c$}	{[mm$^2$]}	0.18133
{$S_o$}	{[mm$^2$]}	0.123105
{$S_l/S_o$}	[]	0.472970
{$\Psi$}	[]	0.639912
{$\eta$}	[]	0.694143
{med($\theta_e$)}	{[$^\circ$]}	51.5758
{$\Upsilon$}	[]	13
{$\Xi$}	[]	12
