Q	U	V
{$V$}	{[mm$^3$]}	0.00918252
{$d_v$}	{[mm]}	0.259809
{$S_c$}	{[mm$^2$]}	0.28969
{$S_o$}	{[mm$^2$]}	0.178561
{$S_l/S_o$}	[]	0.622359
{$\Psi$}	[]	0.732024
{$\eta$}	[]	0.817377
{med($\theta_e$)}	{[$^\circ$]}	75.5012
{$\Upsilon$}	[]	11
{$\Xi$}	[]	20
