Q	U	V
{$V$}	{[mm$^3$]}	0.012112
{$d_v$}	{[mm]}	0.284931
{$S_c$}	{[mm$^2$]}	0.393478
{$S_o$}	{[mm$^2$]}	0.29656
{$S_l/S_o$}	[]	0.326807
{$\Psi$}	[]	0.648198
{$\eta$}	[]	0.685777
{med($\theta_e$)}	{[$^\circ$]}	57.4094
{$\Upsilon$}	[]	14
{$\Xi$}	[]	17
