Q	U	V
{$V$}	{[mm$^3$]}	0.0117569
{$d_v$}	{[mm]}	0.282118
{$S_c$}	{[mm$^2$]}	0.449443
{$S_o$}	{[mm$^2$]}	0.291694
{$S_l/S_o$}	[]	0.540803
{$\Psi$}	[]	0.556337
{$\eta$}	[]	0.575675
{med($\theta_e$)}	{[$^\circ$]}	51.6622
{$\Upsilon$}	[]	15
{$\Xi$}	[]	31
