Q	U	V
{$V$}	{[mm$^3$]}	0.0122604
{$d_v$}	{[mm]}	0.286090
{$S_c$}	{[mm$^2$]}	0.371792
{$S_o$}	{[mm$^2$]}	0.265374
{$S_l/S_o$}	[]	0.401011
{$\Psi$}	[]	0.691598
{$\eta$}	[]	0.703598
{med($\theta_e$)}	{[$^\circ$]}	67.4236
{$\Upsilon$}	[]	12
{$\Xi$}	[]	10
