Q	U	V
{$V$}	{[mm$^3$]}	0.00642765
{$d_v$}	{[mm]}	0.230684
{$S_c$}	{[mm$^2$]}	0.283353
{$S_o$}	{[mm$^2$]}	0.177402
{$S_l/S_o$}	[]	0.597237
{$\Psi$}	[]	0.590008
{$\eta$}	[]	0.598861
{med($\theta_e$)}	{[$^\circ$]}	51.7464
{$\Upsilon$}	[]	18
{$\Xi$}	[]	7
