Q	U	V
{$V$}	{[mm$^3$]}	0.00189398
{$d_v$}	{[mm]}	0.153506
{$S_c$}	{[mm$^2$]}	0.116215
{$S_o$}	{[mm$^2$]}	0.0683377
{$S_l/S_o$}	[]	0.700599
{$\Psi$}	[]	0.636999
{$\eta$}	[]	0.673514
{med($\theta_e$)}	{[$^\circ$]}	53.1543
{$\Upsilon$}	[]	17
{$\Xi$}	[]	5
