Q	U	V
{$V$}	{[mm$^3$]}	0.0110634
{$d_v$}	{[mm]}	0.276459
{$S_c$}	{[mm$^2$]}	0.578473
{$S_o$}	{[mm$^2$]}	0.286639
{$S_l/S_o$}	[]	1.018124
{$\Psi$}	[]	0.415075
{$\eta$}	[]	0.438947
{med($\theta_e$)}	{[$^\circ$]}	54.3906
{$\Upsilon$}	[]	19
{$\Xi$}	[]	10
