Q	U	V
{$V$}	{[mm$^3$]}	0.0120027
{$d_v$}	{[mm]}	0.284071
{$S_c$}	{[mm$^2$]}	0.436935
{$S_o$}	{[mm$^2$]}	0.295334
{$S_l/S_o$}	[]	0.479461
{$\Psi$}	[]	0.580212
{$\eta$}	[]	0.640068
{med($\theta_e$)}	{[$^\circ$]}	51.6229
{$\Upsilon$}	[]	20
{$\Xi$}	[]	5
