Q	U	V
{$V$}	{[mm$^3$]}	0.0038592
{$d_v$}	{[mm]}	0.194610
{$S_c$}	{[mm$^2$]}	0.251403
{$S_o$}	{[mm$^2$]}	0.132724
{$S_l/S_o$}	[]	0.894179
{$\Psi$}	[]	0.473273
{$\eta$}	[]	0.530499
{med($\theta_e$)}	{[$^\circ$]}	72.26105
{$\Upsilon$}	[]	10
{$\Xi$}	[]	7
