Q	U	V
{$V$}	{[mm$^3$]}	0.00492315
{$d_v$}	{[mm]}	0.211064
{$S_c$}	{[mm$^2$]}	0.338984
{$S_o$}	{[mm$^2$]}	0.181278
{$S_l/S_o$}	[]	0.869968
{$\Psi$}	[]	0.412858
{$\eta$}	[]	0.424109
{med($\theta_e$)}	{[$^\circ$]}	82.2641
{$\Upsilon$}	[]	12
{$\Xi$}	[]	4
