Q	U	V
{$V$}	{[mm$^3$]}	0.00870755
{$d_v$}	{[mm]}	0.255250
{$S_c$}	{[mm$^2$]}	0.317439
{$S_o$}	{[mm$^2$]}	0.216806
{$S_l/S_o$}	[]	0.464162
{$\Psi$}	[]	0.644794
{$\eta$}	[]	0.824798
{med($\theta_e$)}	{[$^\circ$]}	67.4038
{$\Upsilon$}	[]	13
{$\Xi$}	[]	18
