Q	U	V
{$V$}	{[mm$^3$]}	0.00297099
{$d_v$}	{[mm]}	0.178361
{$S_c$}	{[mm$^2$]}	0.161266
{$S_o$}	{[mm$^2$]}	0.0981555
{$S_l/S_o$}	[]	0.642964
{$\Psi$}	[]	0.619739
{$\eta$}	[]	0.651582
{med($\theta_e$)}	{[$^\circ$]}	57.8446
{$\Upsilon$}	[]	15
{$\Xi$}	[]	15
