Q	U	V
{$V$}	{[mm$^3$]}	0.00856743
{$d_v$}	{[mm]}	0.253873
{$S_c$}	{[mm$^2$]}	0.351377
{$S_o$}	{[mm$^2$]}	0.238093
{$S_l/S_o$}	[]	0.475797
{$\Psi$}	[]	0.57625
{$\eta$}	[]	0.602404
{med($\theta_e$)}	{[$^\circ$]}	67.7658
{$\Upsilon$}	[]	13
{$\Xi$}	[]	12
