Q	U	V
{$V$}	{[mm$^3$]}	0.00614741
{$d_v$}	{[mm]}	0.227282
{$S_c$}	{[mm$^2$]}	0.383437
{$S_o$}	{[mm$^2$]}	0.204407
{$S_l/S_o$}	[]	0.875851
{$\Psi$}	[]	0.423238
{$\eta$}	[]	0.424842
{med($\theta_e$)}	{[$^\circ$]}	
{$\Upsilon$}	[]	18
{$\Xi$}	[]	12
