Q	U	V
{$V$}	{[mm$^3$]}	0.00359321
{$d_v$}	{[mm]}	0.190033
{$S_c$}	{[mm$^2$]}	0.156705
{$S_o$}	{[mm$^2$]}	0.116366
{$S_l/S_o$}	[]	0.346656
{$\Psi$}	[]	0.723974
{$\eta$}	[]	0.732280
{med($\theta_e$)}	{[$^\circ$]}	57.0606
{$\Upsilon$}	[]	14
{$\Xi$}	[]	13
