Q	U	V
{$V$}	{[mm$^3$]}	0.00873961
{$d_v$}	{[mm]}	0.255563
{$S_c$}	{[mm$^2$]}	0.317257
{$S_o$}	{[mm$^2$]}	0.20855
{$S_l/S_o$}	[]	0.521251
{$\Psi$}	[]	0.646747
{$\eta$}	[]	0.667995
{med($\theta_e$)}	{[$^\circ$]}	61.38415
{$\Upsilon$}	[]	12
{$\Xi$}	[]	12
