Q	U	V
{$V$}	{[mm$^3$]}	0.00374402
{$d_v$}	{[mm]}	0.192655
{$S_c$}	{[mm$^2$]}	0.212037
{$S_o$}	{[mm$^2$]}	0.125874
{$S_l/S_o$}	[]	0.684518
{$\Psi$}	[]	0.549918
{$\eta$}	[]	0.610172
{med($\theta_e$)}	{[$^\circ$]}	61.2622
{$\Upsilon$}	[]	19
{$\Xi$}	[]	9
