Q	U	V
{$V$}	{[mm$^3$]}	0.00516064
{$d_v$}	{[mm]}	0.214405
{$S_c$}	{[mm$^2$]}	0.218236
{$S_o$}	{[mm$^2$]}	0.146785
{$S_l/S_o$}	[]	0.486773
{$\Psi$}	[]	0.661749
{$\eta$}	[]	0.689652
{med($\theta_e$)}	{[$^\circ$]}	58.5922
{$\Upsilon$}	[]	15
{$\Xi$}	[]	8
