Q	U	V
{$V$}	{[mm$^3$]}	0.00376421
{$d_v$}	{[mm]}	0.193000
{$S_c$}	{[mm$^2$]}	0.158191
{$S_o$}	{[mm$^2$]}	0.11795
{$S_l/S_o$}	[]	0.341170
{$\Psi$}	[]	0.73975
{$\eta$}	[]	0.755435
{med($\theta_e$)}	{[$^\circ$]}	49.98285
{$\Upsilon$}	[]	14
{$\Xi$}	[]	10
