Q	U	V
{$V$}	{[mm$^3$]}	0.00109008
{$d_v$}	{[mm]}	0.127689
{$S_c$}	{[mm$^2$]}	0.0831295
{$S_o$}	{[mm$^2$]}	0.0466257
{$S_l/S_o$}	[]	0.782912
{$\Psi$}	[]	0.616171
{$\eta$}	[]	0.788134
{med($\theta_e$)}	{[$^\circ$]}	63.5404
{$\Upsilon$}	[]	18
{$\Xi$}	[]	7
