Q	U	V
{$V$}	{[mm$^3$]}	0.00408957
{$d_v$}	{[mm]}	0.198408
{$S_c$}	{[mm$^2$]}	0.23101
{$S_o$}	{[mm$^2$]}	0.141819
{$S_l/S_o$}	[]	0.628907
{$\Psi$}	[]	0.535351
{$\eta$}	[]	0.551491
{med($\theta_e$)}	{[$^\circ$]}	62.7071
{$\Upsilon$}	[]	17
{$\Xi$}	[]	10
