Q	U	V
{$V$}	{[mm$^3$]}	0.00168974
{$d_v$}	{[mm]}	0.147777
{$S_c$}	{[mm$^2$]}	0.105243
{$S_o$}	{[mm$^2$]}	0.0606375
{$S_l/S_o$}	[]	0.735609
{$\Psi$}	[]	0.651885
{$\eta$}	[]	0.673432
{med($\theta_e$)}	{[$^\circ$]}	52.96
{$\Upsilon$}	[]	15
{$\Xi$}	[]	1
