Q	U	V
{$V$}	{[mm$^3$]}	0.00162324
{$d_v$}	{[mm]}	0.145812
{$S_c$}	{[mm$^2$]}	0.114131
{$S_o$}	{[mm$^2$]}	0.0611123
{$S_l/S_o$}	[]	0.867562
{$\Psi$}	[]	0.585242
{$\eta$}	[]	0.602971
{med($\theta_e$)}	{[$^\circ$]}	61.77005
{$\Upsilon$}	[]	20
{$\Xi$}	[]	5
