Q	U	V
{$V$}	{[mm$^3$]}	0.00150687
{$d_v$}	{[mm]}	0.142241
{$S_c$}	{[mm$^2$]}	0.0871596
{$S_o$}	{[mm$^2$]}	0.0554578
{$S_l/S_o$}	[]	0.571638
{$\Psi$}	[]	0.729266
{$\eta$}	[]	0.833274
{med($\theta_e$)}	{[$^\circ$]}	60.5235
{$\Upsilon$}	[]	21
{$\Xi$}	[]	16
