Q	U	V
{$V$}	{[mm$^3$]}	0.00339372
{$d_v$}	{[mm]}	0.186449
{$S_c$}	{[mm$^2$]}	0.200704
{$S_o$}	{[mm$^2$]}	0.124748
{$S_l/S_o$}	[]	0.608875
{$\Psi$}	[]	0.544142
{$\eta$}	[]	0.579969
{med($\theta_e$)}	{[$^\circ$]}	54.1493
{$\Upsilon$}	[]	15
{$\Xi$}	[]	9
