Q	U	V
{$V$}	{[mm$^3$]}	0.000982018
{$d_v$}	{[mm]}	0.123322
{$S_c$}	{[mm$^2$]}	0.0838093
{$S_o$}	{[mm$^2$]}	0.0460809
{$S_l/S_o$}	[]	0.818743
{$\Psi$}	[]	0.570083
{$\eta$}	[]	0.642963
{med($\theta_e$)}	{[$^\circ$]}	44.51805
{$\Upsilon$}	[]	22
{$\Xi$}	[]	6
