Q	U	V
{$V$}	{[mm$^3$]}	0.00614979
{$d_v$}	{[mm]}	0.227311
{$S_c$}	{[mm$^2$]}	0.282043
{$S_o$}	{[mm$^2$]}	0.175776
{$S_l/S_o$}	[]	0.604559
{$\Psi$}	[]	0.57554
{$\eta$}	[]	0.584035
{med($\theta_e$)}	{[$^\circ$]}	56.0165
{$\Upsilon$}	[]	14
{$\Xi$}	[]	12
