Q	U	V
{$V$}	{[mm$^3$]}	0.0062056
{$d_v$}	{[mm]}	0.227997
{$S_c$}	{[mm$^2$]}	0.290207
{$S_o$}	{[mm$^2$]}	0.181884
{$S_l/S_o$}	[]	0.595561
{$\Psi$}	[]	0.562728
{$\eta$}	[]	0.608304
{med($\theta_e$)}	{[$^\circ$]}	79.8016
{$\Upsilon$}	[]	11
{$\Xi$}	[]	17
