Q	U	V
{$V$}	{[mm$^3$]}	0.00616166
{$d_v$}	{[mm]}	0.227457
{$S_c$}	{[mm$^2$]}	0.260009
{$S_o$}	{[mm$^2$]}	0.173809
{$S_l/S_o$}	[]	0.495947
{$\Psi$}	[]	0.625116
{$\eta$}	[]	0.659308
{med($\theta_e$)}	{[$^\circ$]}	71.77855
{$\Upsilon$}	[]	8
{$\Xi$}	[]	16
