Q	U	V
{$V$}	{[mm$^3$]}	0.00361934
{$d_v$}	{[mm]}	0.190492
{$S_c$}	{[mm$^2$]}	0.194513
{$S_o$}	{[mm$^2$]}	0.111079
{$S_l/S_o$}	[]	0.751123
{$\Psi$}	[]	0.586078
{$\eta$}	[]	0.607599
{med($\theta_e$)}	{[$^\circ$]}	51.7758
{$\Upsilon$}	[]	15
{$\Xi$}	[]	13
