Q	U	V
{$V$}	{[mm$^3$]}	0.00912671
{$d_v$}	{[mm]}	0.259282
{$S_c$}	{[mm$^2$]}	0.484022
{$S_o$}	{[mm$^2$]}	0.294904
{$S_l/S_o$}	[]	0.641287
{$\Psi$}	[]	0.436344
{$\eta$}	[]	0.478433
{med($\theta_e$)}	{[$^\circ$]}	77.8198
{$\Upsilon$}	[]	19
{$\Xi$}	[]	17
