Q	U	V
{$V$}	{[mm$^3$]}	0.017123
{$d_v$}	{[mm]}	0.319787
{$S_c$}	{[mm$^2$]}	0.614961
{$S_o$}	{[mm$^2$]}	0.420105
{$S_l/S_o$}	[]	0.463827
{$\Psi$}	[]	0.522424
{$\eta$}	[]	0.541106
{med($\theta_e$)}	{[$^\circ$]}	63.7349
{$\Upsilon$}	[]	11
{$\Xi$}	[]	11
