Q	U	V
{$V$}	{[mm$^3$]}	0.00766497
{$d_v$}	{[mm]}	0.244627
{$S_c$}	{[mm$^2$]}	0.343878
{$S_o$}	{[mm$^2$]}	0.203366
{$S_l/S_o$}	[]	0.690932
{$\Psi$}	[]	0.546705
{$\eta$}	[]	0.557087
{med($\theta_e$)}	{[$^\circ$]}	58.2039
{$\Upsilon$}	[]	16
{$\Xi$}	[]	11
