Q	U	V
{$V$}	{[mm$^3$]}	0.00313367
{$d_v$}	{[mm]}	0.181559
{$S_c$}	{[mm$^2$]}	0.134904
{$S_o$}	{[mm$^2$]}	0.094751
{$S_l/S_o$}	[]	0.423774
{$\Psi$}	[]	0.767647
{$\eta$}	[]	0.792623
{med($\theta_e$)}	{[$^\circ$]}	57.4348
{$\Upsilon$}	[]	14
{$\Xi$}	[]	14
