Q	U	V
{$V$}	{[mm$^3$]}	0.0116583
{$d_v$}	{[mm]}	0.281328
{$S_c$}	{[mm$^2$]}	0.420833
{$S_o$}	{[mm$^2$]}	0.275441
{$S_l/S_o$}	[]	0.527852
{$\Psi$}	[]	0.590833
{$\eta$}	[]	0.622501
{med($\theta_e$)}	{[$^\circ$]}	59.3262
{$\Upsilon$}	[]	18
{$\Xi$}	[]	15
