Q	U	V
{$V$}	{[mm$^3$]}	0.00453723
{$d_v$}	{[mm]}	0.205399
{$S_c$}	{[mm$^2$]}	0.242449
{$S_o$}	{[mm$^2$]}	0.141648
{$S_l/S_o$}	[]	0.711630
{$\Psi$}	[]	0.546669
{$\eta$}	[]	0.595181
{med($\theta_e$)}	{[$^\circ$]}	59.3818
{$\Upsilon$}	[]	14
{$\Xi$}	[]	9
