Q	U	V
{$V$}	{[mm$^3$]}	0.00535538
{$d_v$}	{[mm]}	0.217069
{$S_c$}	{[mm$^2$]}	0.356406
{$S_o$}	{[mm$^2$]}	0.225236
{$S_l/S_o$}	[]	0.582367
{$\Psi$}	[]	0.415336
{$\eta$}	[]	0.438643
{med($\theta_e$)}	{[$^\circ$]}	79.1146
{$\Upsilon$}	[]	9
{$\Xi$}	[]	13
