Q	U	V
{$V$}	{[mm$^3$]}	0.00247939
{$d_v$}	{[mm]}	0.167925
{$S_c$}	{[mm$^2$]}	0.157627
{$S_o$}	{[mm$^2$]}	0.0913729
{$S_l/S_o$}	[]	0.725096
{$\Psi$}	[]	0.562018
{$\eta$}	[]	1.008679
{med($\theta_e$)}	{[$^\circ$]}	
{$\Upsilon$}	[]	23
{$\Xi$}	[]	8
