Q	U	V
{$V$}	{[mm$^3$]}	0.00337116
{$d_v$}	{[mm]}	0.186035
{$S_c$}	{[mm$^2$]}	0.19442
{$S_o$}	{[mm$^2$]}	0.111318
{$S_l/S_o$}	[]	0.746528
{$\Psi$}	[]	0.559237
{$\eta$}	[]	0.641426
{med($\theta_e$)}	{[$^\circ$]}	53.1448
{$\Upsilon$}	[]	13
{$\Xi$}	[]	11
