Q	U	V
{$V$}	{[mm$^3$]}	0.0172845
{$d_v$}	{[mm]}	0.320789
{$S_c$}	{[mm$^2$]}	0.577992
{$S_o$}	{[mm$^2$]}	0.408708
{$S_l/S_o$}	[]	0.414193
{$\Psi$}	[]	0.559328
{$\eta$}	[]	0.599588
{med($\theta_e$)}	{[$^\circ$]}	60.8906
{$\Upsilon$}	[]	18
{$\Xi$}	[]	12
