Q	U	V
{$V$}	{[mm$^3$]}	0.00580424
{$d_v$}	{[mm]}	0.222971
{$S_c$}	{[mm$^2$]}	0.267762
{$S_o$}	{[mm$^2$]}	0.166762
{$S_l/S_o$}	[]	0.605654
{$\Psi$}	[]	0.583309
{$\eta$}	[]	0.619266
{med($\theta_e$)}	{[$^\circ$]}	53.9583
{$\Upsilon$}	[]	15
{$\Xi$}	[]	10
