Q	U	V
{$V$}	{[mm$^3$]}	0.00186904
{$d_v$}	{[mm]}	0.152829
{$S_c$}	{[mm$^2$]}	0.113602
{$S_o$}	{[mm$^2$]}	0.0621864
{$S_l/S_o$}	[]	0.826798
{$\Psi$}	[]	0.645918
{$\eta$}	[]	0.685012
{med($\theta_e$)}	{[$^\circ$]}	58.80415
{$\Upsilon$}	[]	18
{$\Xi$}	[]	8
