Q	U	V
{$V$}	{[mm$^3$]}	0.00364902
{$d_v$}	{[mm]}	0.191011
{$S_c$}	{[mm$^2$]}	0.180397
{$S_o$}	{[mm$^2$]}	0.115362
{$S_l/S_o$}	[]	0.563747
{$\Psi$}	[]	0.635388
{$\eta$}	[]	0.684097
{med($\theta_e$)}	{[$^\circ$]}	61.2325
{$\Upsilon$}	[]	14
{$\Xi$}	[]	9
