Q	U	V
{$V$}	{[mm$^3$]}	0.00545988
{$d_v$}	{[mm]}	0.218472
{$S_c$}	{[mm$^2$]}	0.288429
{$S_o$}	{[mm$^2$]}	0.156795
{$S_l/S_o$}	[]	0.839529
{$\Psi$}	[]	0.519877
{$\eta$}	[]	0.645518
{med($\theta_e$)}	{[$^\circ$]}	62.8781
{$\Upsilon$}	[]	14
{$\Xi$}	[]	13
