Q	U	V
{$V$}	{[mm$^3$]}	0.00622816
{$d_v$}	{[mm]}	0.228273
{$S_c$}	{[mm$^2$]}	0.31166
{$S_o$}	{[mm$^2$]}	0.178049
{$S_l/S_o$}	[]	0.750417
{$\Psi$}	[]	0.525262
{$\eta$}	[]	0.582571
{med($\theta_e$)}	{[$^\circ$]}	49.9222
{$\Upsilon$}	[]	15
{$\Xi$}	[]	8
