Q	U	V
{$V$}	{[mm$^3$]}	0.00497065
{$d_v$}	{[mm]}	0.211741
{$S_c$}	{[mm$^2$]}	0.206069
{$S_o$}	{[mm$^2$]}	0.131881
{$S_l/S_o$}	[]	0.562537
{$\Psi$}	[]	0.683513
{$\eta$}	[]	0.695495
{med($\theta_e$)}	{[$^\circ$]}	70.4267
{$\Upsilon$}	[]	14
{$\Xi$}	[]	11
