Q	U	V
{$V$}	{[mm$^3$]}	0.00320848
{$d_v$}	{[mm]}	0.182993
{$S_c$}	{[mm$^2$]}	0.196965
{$S_o$}	{[mm$^2$]}	0.129884
{$S_l/S_o$}	[]	0.516469
{$\Psi$}	[]	0.534107
{$\eta$}	[]	0.549590
{med($\theta_e$)}	{[$^\circ$]}	57.04765
{$\Upsilon$}	[]	14
{$\Xi$}	[]	7
