Q	U	V
{$V$}	{[mm$^3$]}	0.0111798
{$d_v$}	{[mm]}	0.277425
{$S_c$}	{[mm$^2$]}	0.333967
{$S_o$}	{[mm$^2$]}	0.204443
{$S_l/S_o$}	[]	0.633546
{$\Psi$}	[]	0.723997
{$\eta$}	[]	0.736612
{med($\theta_e$)}	{[$^\circ$]}	55.4132
{$\Upsilon$}	[]	13
{$\Xi$}	[]	8
