Q	U	V
{$V$}	{[mm$^3$]}	0.00702018
{$d_v$}	{[mm]}	0.237565
{$S_c$}	{[mm$^2$]}	0.266864
{$S_o$}	{[mm$^2$]}	0.157233
{$S_l/S_o$}	[]	0.697252
{$\Psi$}	[]	0.664395
{$\eta$}	[]	0.705685
{med($\theta_e$)}	{[$^\circ$]}	53.29925
{$\Upsilon$}	[]	18
{$\Xi$}	[]	23
