Q	U	V
{$V$}	{[mm$^3$]}	0.00201747
{$d_v$}	{[mm]}	0.156772
{$S_c$}	{[mm$^2$]}	0.154591
{$S_o$}	{[mm$^2$]}	0.0797892
{$S_l/S_o$}	[]	0.937493
{$\Psi$}	[]	0.499465
{$\eta$}	[]	0.516558
{med($\theta_e$)}	{[$^\circ$]}	
{$\Upsilon$}	[]	15
{$\Xi$}	[]	16
