Q	U	V
{$V$}	{[mm$^3$]}	0.00294012
{$d_v$}	{[mm]}	0.177741
{$S_c$}	{[mm$^2$]}	0.21905
{$S_o$}	{[mm$^2$]}	0.11445
{$S_l/S_o$}	[]	0.913936
{$\Psi$}	[]	0.45309
{$\eta$}	[]	0.518124
{med($\theta_e$)}	{[$^\circ$]}	72.5402
{$\Upsilon$}	[]	13
{$\Xi$}	[]	16
