Q	U	V
{$V$}	{[mm$^3$]}	0.00129669
{$d_v$}	{[mm]}	0.135294
{$S_c$}	{[mm$^2$]}	0.10186
{$S_o$}	{[mm$^2$]}	0.0533435
{$S_l/S_o$}	[]	0.909511
{$\Psi$}	[]	0.564553
{$\eta$}	[]	0.664105
{med($\theta_e$)}	{[$^\circ$]}	64.46375
{$\Upsilon$}	[]	11
{$\Xi$}	[]	5
