Q	U	V
{$V$}	{[mm$^3$]}	0.00748091
{$d_v$}	{[mm]}	0.242653
{$S_c$}	{[mm$^2$]}	0.281372
{$S_o$}	{[mm$^2$]}	0.197684
{$S_l/S_o$}	[]	0.423342
{$\Psi$}	[]	0.657415
{$\eta$}	[]	0.694145
{med($\theta_e$)}	{[$^\circ$]}	58.4083
{$\Upsilon$}	[]	16
{$\Xi$}	[]	10
