Q	U	V
{$V$}	{[mm$^3$]}	0.0025922
{$d_v$}	{[mm]}	0.170434
{$S_c$}	{[mm$^2$]}	0.138088
{$S_o$}	{[mm$^2$]}	0.073736
{$S_l/S_o$}	[]	0.872735
{$\Psi$}	[]	0.660857
{$\eta$}	[]	0.685159
{med($\theta_e$)}	{[$^\circ$]}	42.7284
{$\Upsilon$}	[]	24
{$\Xi$}	[]	8
