Q	U	V
{$V$}	{[mm$^3$]}	0.0137031
{$d_v$}	{[mm]}	0.296898
{$S_c$}	{[mm$^2$]}	0.621174
{$S_o$}	{[mm$^2$]}	0.443262
{$S_l/S_o$}	[]	0.401370
{$\Psi$}	[]	0.44581
{$\eta$}	[]	0.458871
{med($\theta_e$)}	{[$^\circ$]}	68.601
{$\Upsilon$}	[]	10
{$\Xi$}	[]	15
