Q	U	V
{$V$}	{[mm$^3$]}	0.0034994
{$d_v$}	{[mm]}	0.188364
{$S_c$}	{[mm$^2$]}	0.15494
{$S_o$}	{[mm$^2$]}	0.111333
{$S_l/S_o$}	[]	0.391681
{$\Psi$}	[]	0.719421
{$\eta$}	[]	0.777785
{med($\theta_e$)}	{[$^\circ$]}	52.5362
{$\Upsilon$}	[]	18
{$\Xi$}	[]	20
