Q	U	V
{$V$}	{[mm$^3$]}	0.0181109
{$d_v$}	{[mm]}	0.325822
{$S_c$}	{[mm$^2$]}	0.687322
{$S_o$}	{[mm$^2$]}	0.336533
{$S_l/S_o$}	[]	1.042361
{$\Psi$}	[]	0.485233
{$\eta$}	[]	0.534518
{med($\theta_e$)}	{[$^\circ$]}	88.458
{$\Upsilon$}	[]	15
{$\Xi$}	[]	15
