Q	U	V
{$V$}	{[mm$^3$]}	0.00174792
{$d_v$}	{[mm]}	0.149454
{$S_c$}	{[mm$^2$]}	0.117017
{$S_o$}	{[mm$^2$]}	0.0595016
{$S_l/S_o$}	[]	0.966619
{$\Psi$}	[]	0.599675
{$\eta$}	[]	0.674862
{med($\theta_e$)}	{[$^\circ$]}	76.1071
{$\Upsilon$}	[]	20
{$\Xi$}	[]	9
