Q	U	V
{$V$}	{[mm$^3$]}	0.00159355
{$d_v$}	{[mm]}	0.144918
{$S_c$}	{[mm$^2$]}	0.0904264
{$S_o$}	{[mm$^2$]}	0.0562776
{$S_l/S_o$}	[]	0.606792
{$\Psi$}	[]	0.729624
{$\eta$}	[]	0.752625
{med($\theta_e$)}	{[$^\circ$]}	55.0333
{$\Upsilon$}	[]	14
{$\Xi$}	[]	8
