Q	U	V
{$V$}	{[mm$^3$]}	0.00402782
{$d_v$}	{[mm]}	0.197405
{$S_c$}	{[mm$^2$]}	0.1896
{$S_o$}	{[mm$^2$]}	0.120106
{$S_l/S_o$}	[]	0.578606
{$\Psi$}	[]	0.645693
{$\eta$}	[]	0.684562
{med($\theta_e$)}	{[$^\circ$]}	55.6851
{$\Upsilon$}	[]	12
{$\Xi$}	[]	17
