Q	U	V
{$V$}	{[mm$^3$]}	0.00335335
{$d_v$}	{[mm]}	0.185706
{$S_c$}	{[mm$^2$]}	0.199948
{$S_o$}	{[mm$^2$]}	0.106508
{$S_l/S_o$}	[]	0.877305
{$\Psi$}	[]	0.541859
{$\eta$}	[]	0.585617
{med($\theta_e$)}	{[$^\circ$]}	63.4398
{$\Upsilon$}	[]	12
{$\Xi$}	[]	5
