Q	U	V
{$V$}	{[mm$^3$]}	0.00314436
{$d_v$}	{[mm]}	0.181765
{$S_c$}	{[mm$^2$]}	0.150764
{$S_o$}	{[mm$^2$]}	0.133268
{$S_l/S_o$}	[]	0.131284
{$\Psi$}	[]	0.688454
{$\eta$}	[]	0.810160
{med($\theta_e$)}	{[$^\circ$]}	77.35545
{$\Upsilon$}	[]	8
{$\Xi$}	[]	6
