Q	U	V
{$V$}	{[mm$^3$]}	0.00600135
{$d_v$}	{[mm]}	0.225467
{$S_c$}	{[mm$^2$]}	0.241846
{$S_o$}	{[mm$^2$]}	0.145126
{$S_l/S_o$}	[]	0.666455
{$\Psi$}	[]	0.660356
{$\eta$}	[]	0.719020
{med($\theta_e$)}	{[$^\circ$]}	57.3894
{$\Upsilon$}	[]	15
{$\Xi$}	[]	22
