Q	U	V
{$V$}	{[mm$^3$]}	0.00175267
{$d_v$}	{[mm]}	0.149589
{$S_c$}	{[mm$^2$]}	0.141334
{$S_o$}	{[mm$^2$]}	0.0747657
{$S_l/S_o$}	[]	0.890359
{$\Psi$}	[]	0.497398
{$\eta$}	[]	0.562014
{med($\theta_e$)}	{[$^\circ$]}	
{$\Upsilon$}	[]	17
{$\Xi$}	[]	5
