Q	U	V
{$V$}	{[mm$^3$]}	0.00494928
{$d_v$}	{[mm]}	0.211437
{$S_c$}	{[mm$^2$]}	0.216415
{$S_o$}	{[mm$^2$]}	0.139256
{$S_l/S_o$}	[]	0.554080
{$\Psi$}	[]	0.64897
{$\eta$}	[]	0.707516
{med($\theta_e$)}	{[$^\circ$]}	46.96585
{$\Upsilon$}	[]	16
{$\Xi$}	[]	8
