Q	U	V
{$V$}	{[mm$^3$]}	0.0164331
{$d_v$}	{[mm]}	0.315433
{$S_c$}	{[mm$^2$]}	0.485472
{$S_o$}	{[mm$^2$]}	0.316045
{$S_l/S_o$}	[]	0.536085
{$\Psi$}	[]	0.643872
{$\eta$}	[]	0.680297
{med($\theta_e$)}	{[$^\circ$]}	53.82815
{$\Upsilon$}	[]	16
{$\Xi$}	[]	9
