Q	U	V
{$V$}	{[mm$^3$]}	0.001343
{$d_v$}	{[mm]}	0.136886
{$S_c$}	{[mm$^2$]}	0.115858
{$S_o$}	{[mm$^2$]}	0.0655544
{$S_l/S_o$}	[]	0.767357
{$\Psi$}	[]	0.508092
{$\eta$}	[]	0.551005
{med($\theta_e$)}	{[$^\circ$]}	59.3957
{$\Upsilon$}	[]	15
{$\Xi$}	[]	8
