Q	U	V
{$V$}	{[mm$^3$]}	0.00437099
{$d_v$}	{[mm]}	0.202859
{$S_c$}	{[mm$^2$]}	0.224256
{$S_o$}	{[mm$^2$]}	0.126747
{$S_l/S_o$}	[]	0.769320
{$\Psi$}	[]	0.576492
{$\eta$}	[]	0.635546
{med($\theta_e$)}	{[$^\circ$]}	55.75775
{$\Upsilon$}	[]	14
{$\Xi$}	[]	9
