Q	U	V
{$V$}	{[mm$^3$]}	0.00180611
{$d_v$}	{[mm]}	0.151094
{$S_c$}	{[mm$^2$]}	0.116633
{$S_o$}	{[mm$^2$]}	0.0596268
{$S_l/S_o$}	[]	0.956050
{$\Psi$}	[]	0.61493
{$\eta$}	[]	0.666551
{med($\theta_e$)}	{[$^\circ$]}	51.0969
{$\Upsilon$}	[]	20
{$\Xi$}	[]	9
