Q	U	V
{$V$}	{[mm$^3$]}	0.00292112
{$d_v$}	{[mm]}	0.177358
{$S_c$}	{[mm$^2$]}	0.140713
{$S_o$}	{[mm$^2$]}	0.0850216
{$S_l/S_o$}	[]	0.655026
{$\Psi$}	[]	0.702289
{$\eta$}	[]	0.742689
{med($\theta_e$)}	{[$^\circ$]}	53.46305
{$\Upsilon$}	[]	16
{$\Xi$}	[]	11
