Q	U	V
{$V$}	{[mm$^3$]}	0.00375827
{$d_v$}	{[mm]}	0.192899
{$S_c$}	{[mm$^2$]}	0.179853
{$S_o$}	{[mm$^2$]}	0.100213
{$S_l/S_o$}	[]	0.794707
{$\Psi$}	[]	0.649968
{$\eta$}	[]	0.742256
{med($\theta_e$)}	{[$^\circ$]}	51.04055
{$\Upsilon$}	[]	14
{$\Xi$}	[]	9
