Q	U	V
{$V$}	{[mm$^3$]}	0.00640034
{$d_v$}	{[mm]}	0.230357
{$S_c$}	{[mm$^2$]}	0.371702
{$S_o$}	{[mm$^2$]}	0.200432
{$S_l/S_o$}	[]	0.854504
{$\Psi$}	[]	0.448495
{$\eta$}	[]	0.487148
{med($\theta_e$)}	{[$^\circ$]}	58.1189
{$\Upsilon$}	[]	14
{$\Xi$}	[]	12
