Q	U	V
{$V$}	{[mm$^3$]}	0.00530314
{$d_v$}	{[mm]}	0.216361
{$S_c$}	{[mm$^2$]}	0.237612
{$S_o$}	{[mm$^2$]}	0.147516
{$S_l/S_o$}	[]	0.610754
{$\Psi$}	[]	0.618925
{$\eta$}	[]	0.678009
{med($\theta_e$)}	{[$^\circ$]}	81.2339
{$\Upsilon$}	[]	9
{$\Xi$}	[]	11
