Q	U	V
{$V$}	{[mm$^3$]}	0.00424868
{$d_v$}	{[mm]}	0.200949
{$S_c$}	{[mm$^2$]}	0.292946
{$S_o$}	{[mm$^2$]}	0.172218
{$S_l/S_o$}	[]	0.701018
{$\Psi$}	[]	0.433045
{$\eta$}	[]	0.459211
{med($\theta_e$)}	{[$^\circ$]}	117.4645
{$\Upsilon$}	[]	14
{$\Xi$}	[]	15
