Q	U	V
{$V$}	{[mm$^3$]}	0.00502052
{$d_v$}	{[mm]}	0.212447
{$S_c$}	{[mm$^2$]}	0.197824
{$S_o$}	{[mm$^2$]}	0.126654
{$S_l/S_o$}	[]	0.561925
{$\Psi$}	[]	0.716755
{$\eta$}	[]	0.718017
{med($\theta_e$)}	{[$^\circ$]}	52.2748
{$\Upsilon$}	[]	21
{$\Xi$}	[]	6
