Q	U	V
{$V$}	{[mm$^3$]}	0.00639915
{$d_v$}	{[mm]}	0.230343
{$S_c$}	{[mm$^2$]}	0.270181
{$S_o$}	{[mm$^2$]}	0.170014
{$S_l/S_o$}	[]	0.589169
{$\Psi$}	[]	0.616942
{$\eta$}	[]	0.739575
{med($\theta_e$)}	{[$^\circ$]}	67.3151
{$\Upsilon$}	[]	14
{$\Xi$}	[]	17
