Q	U	V
{$V$}	{[mm$^3$]}	0.00622578
{$d_v$}	{[mm]}	0.228243
{$S_c$}	{[mm$^2$]}	0.361306
{$S_o$}	{[mm$^2$]}	0.187211
{$S_l/S_o$}	[]	0.929940
{$\Psi$}	[]	0.452972
{$\eta$}	[]	0.562650
{med($\theta_e$)}	{[$^\circ$]}	
{$\Upsilon$}	[]	15
{$\Xi$}	[]	9
