Q	U	V
{$V$}	{[mm$^3$]}	0.00227159
{$d_v$}	{[mm]}	0.163096
{$S_c$}	{[mm$^2$]}	0.12445
{$S_o$}	{[mm$^2$]}	0.073762
{$S_l/S_o$}	[]	0.687183
{$\Psi$}	[]	0.671495
{$\eta$}	[]	0.703646
{med($\theta_e$)}	{[$^\circ$]}	57.2645
{$\Upsilon$}	[]	18
{$\Xi$}	[]	7
