Q	U	V
{$V$}	{[mm$^3$]}	0.00548363
{$d_v$}	{[mm]}	0.218788
{$S_c$}	{[mm$^2$]}	0.213262
{$S_o$}	{[mm$^2$]}	0.159868
{$S_l/S_o$}	[]	0.333988
{$\Psi$}	[]	0.705152
{$\eta$}	[]	0.735734
{med($\theta_e$)}	{[$^\circ$]}	67.3636
{$\Upsilon$}	[]	15
{$\Xi$}	[]	8
