Q	U	V
{$V$}	{[mm$^3$]}	0.00112095
{$d_v$}	{[mm]}	0.128883
{$S_c$}	{[mm$^2$]}	0.0823071
{$S_o$}	{[mm$^2$]}	0.0441044
{$S_l/S_o$}	[]	0.866188
{$\Psi$}	[]	0.634022
{$\eta$}	[]	0.914930
{med($\theta_e$)}	{[$^\circ$]}	
{$\Upsilon$}	[]	18
{$\Xi$}	[]	9
