Q	U	V
{$V$}	{[mm$^3$]}	0.00103189
{$d_v$}	{[mm]}	0.125375
{$S_c$}	{[mm$^2$]}	0.0717316
{$S_o$}	{[mm$^2$]}	0.0459904
{$S_l/S_o$}	[]	0.559708
{$\Psi$}	[]	0.688434
{$\eta$}	[]	1.372026
{med($\theta_e$)}	{[$^\circ$]}	
{$\Upsilon$}	[]	22
{$\Xi$}	[]	8
