Q	U	V
{$V$}	{[mm$^3$]}	0.00317167
{$d_v$}	{[mm]}	0.182290
{$S_c$}	{[mm$^2$]}	0.154463
{$S_o$}	{[mm$^2$]}	0.0935322
{$S_l/S_o$}	[]	0.651442
{$\Psi$}	[]	0.675852
{$\eta$}	[]	0.743997
{med($\theta_e$)}	{[$^\circ$]}	61.19615
{$\Upsilon$}	[]	14
{$\Xi$}	[]	6
