Q	U	V
{$V$}	{[mm$^3$]}	0.00818626
{$d_v$}	{[mm]}	0.250051
{$S_c$}	{[mm$^2$]}	0.403441
{$S_o$}	{[mm$^2$]}	0.242513
{$S_l/S_o$}	[]	0.663585
{$\Psi$}	[]	0.486887
{$\eta$}	[]	0.532343
{med($\theta_e$)}	{[$^\circ$]}	76.3437
{$\Upsilon$}	[]	13
{$\Xi$}	[]	8
