Q	U	V
{$V$}	{[mm$^3$]}	0.0135464
{$d_v$}	{[mm]}	0.295762
{$S_c$}	{[mm$^2$]}	0.68069
{$S_o$}	{[mm$^2$]}	0.367551
{$S_l/S_o$}	[]	0.851961
{$\Psi$}	[]	0.403723
{$\eta$}	[]	0.427046
{med($\theta_e$)}	{[$^\circ$]}	68.0428
{$\Upsilon$}	[]	15
{$\Xi$}	[]	32
