Q	U	V
{$V$}	{[mm$^3$]}	0.00858524
{$d_v$}	{[mm]}	0.254049
{$S_c$}	{[mm$^2$]}	0.383637
{$S_o$}	{[mm$^2$]}	0.234512
{$S_l/S_o$}	[]	0.635895
{$\Psi$}	[]	0.528525
{$\eta$}	[]	0.564711
{med($\theta_e$)}	{[$^\circ$]}	64.12305
{$\Upsilon$}	[]	17
{$\Xi$}	[]	13
