Q	U	V
{$V$}	{[mm$^3$]}	0.0042
{$d_v$}	{[mm]}	0.200178
{$S_c$}	{[mm$^2$]}	0.225999
{$S_o$}	{[mm$^2$]}	0.13014
{$S_l/S_o$}	[]	0.736584
{$\Psi$}	[]	0.557028
{$\eta$}	[]	0.635122
{med($\theta_e$)}	{[$^\circ$]}	56.87985
{$\Upsilon$}	[]	12
{$\Xi$}	[]	10
