Q	U	V
{$V$}	{[mm$^3$]}	0.00247583
{$d_v$}	{[mm]}	0.167845
{$S_c$}	{[mm$^2$]}	0.125845
{$S_o$}	{[mm$^2$]}	0.0793072
{$S_l/S_o$}	[]	0.586804
{$\Psi$}	[]	0.703281
{$\eta$}	[]	0.719696
{med($\theta_e$)}	{[$^\circ$]}	52.76245
{$\Upsilon$}	[]	17
{$\Xi$}	[]	7
