Q	U	V
{$V$}	{[mm$^3$]}	0.00961713
{$d_v$}	{[mm]}	0.263845
{$S_c$}	{[mm$^2$]}	0.37844
{$S_o$}	{[mm$^2$]}	0.241124
{$S_l/S_o$}	[]	0.569483
{$\Psi$}	[]	0.577897
{$\eta$}	[]	0.602579
{med($\theta_e$)}	{[$^\circ$]}	60.9477
{$\Upsilon$}	[]	14
{$\Xi$}	[]	3
