Q	U	V
{$V$}	{[mm$^3$]}	0.00360628
{$d_v$}	{[mm]}	0.190263
{$S_c$}	{[mm$^2$]}	0.230872
{$S_o$}	{[mm$^2$]}	0.135857
{$S_l/S_o$}	[]	0.699375
{$\Psi$}	[]	0.49259
{$\eta$}	[]	0.610213
{med($\theta_e$)}	{[$^\circ$]}	67.75155
{$\Upsilon$}	[]	15
{$\Xi$}	[]	12
