Q	U	V
{$V$}	{[mm$^3$]}	0.00415131
{$d_v$}	{[mm]}	0.199402
{$S_c$}	{[mm$^2$]}	0.28645
{$S_o$}	{[mm$^2$]}	0.162516
{$S_l/S_o$}	[]	0.762596
{$\Psi$}	[]	0.436073
{$\eta$}	[]	0.498122
{med($\theta_e$)}	{[$^\circ$]}	81.4167
{$\Upsilon$}	[]	17
{$\Xi$}	[]	6
