Q	U	V
{$V$}	{[mm$^3$]}	0.0137756
{$d_v$}	{[mm]}	0.297420
{$S_c$}	{[mm$^2$]}	0.596626
{$S_o$}	{[mm$^2$]}	0.154819
{$S_l/S_o$}	[]	2.853700
{$\Psi$}	[]	0.465789
{$\eta$}	[]	0.479299
{med($\theta_e$)}	{[$^\circ$]}	
{$\Upsilon$}	[]	11
{$\Xi$}	[]	9
