Q	U	V
{$V$}	{[mm$^3$]}	0.00172655
{$d_v$}	{[mm]}	0.148842
{$S_c$}	{[mm$^2$]}	0.129471
{$S_o$}	{[mm$^2$]}	0.0754716
{$S_l/S_o$}	[]	0.715493
{$\Psi$}	[]	0.537565
{$\eta$}	[]	0.572353
{med($\theta_e$)}	{[$^\circ$]}	68.2246
{$\Upsilon$}	[]	18
{$\Xi$}	[]	6
