Q	U	V
{$V$}	{[mm$^3$]}	0.00309567
{$d_v$}	{[mm]}	0.180822
{$S_c$}	{[mm$^2$]}	0.160791
{$S_o$}	{[mm$^2$]}	0.0990256
{$S_l/S_o$}	[]	0.623732
{$\Psi$}	[]	0.63884
{$\eta$}	[]	0.671710
{med($\theta_e$)}	{[$^\circ$]}	55.6648
{$\Upsilon$}	[]	17
{$\Xi$}	[]	6
