Q	U	V
{$V$}	{[mm$^3$]}	0.00487566
{$d_v$}	{[mm]}	0.210383
{$S_c$}	{[mm$^2$]}	0.325211
{$S_o$}	{[mm$^2$]}	0.151581
{$S_l/S_o$}	[]	1.145460
{$\Psi$}	[]	0.427571
{$\eta$}	[]	0.511760
{med($\theta_e$)}	{[$^\circ$]}	80.4555
{$\Upsilon$}	[]	18
{$\Xi$}	[]	14
