Q	U	V
{$V$}	{[mm$^3$]}	0.00462154
{$d_v$}	{[mm]}	0.206663
{$S_c$}	{[mm$^2$]}	0.252826
{$S_o$}	{[mm$^2$]}	0.178767
{$S_l/S_o$}	[]	0.414277
{$\Psi$}	[]	0.530705
{$\eta$}	[]	0.557023
{med($\theta_e$)}	{[$^\circ$]}	
{$\Upsilon$}	[]	16
{$\Xi$}	[]	2
