Q	U	V
{$V$}	{[mm$^3$]}	0.0132899
{$d_v$}	{[mm]}	0.293883
{$S_c$}	{[mm$^2$]}	0.477012
{$S_o$}	{[mm$^2$]}	0.286214
{$S_l/S_o$}	[]	0.666627
{$\Psi$}	[]	0.568813
{$\eta$}	[]	0.586054
{med($\theta_e$)}	{[$^\circ$]}	55.3159
{$\Upsilon$}	[]	13
{$\Xi$}	[]	5
