Q	U	V
{$V$}	{[mm$^3$]}	0.00493028
{$d_v$}	{[mm]}	0.211166
{$S_c$}	{[mm$^2$]}	0.274808
{$S_o$}	{[mm$^2$]}	0.155184
{$S_l/S_o$}	[]	0.770853
{$\Psi$}	[]	0.509764
{$\eta$}	[]	0.557829
{med($\theta_e$)}	{[$^\circ$]}	75.4413
{$\Upsilon$}	[]	12
{$\Xi$}	[]	10
