Q	U	V
{$V$}	{[mm$^3$]}	0.00820882
{$d_v$}	{[mm]}	0.250281
{$S_c$}	{[mm$^2$]}	0.338514
{$S_o$}	{[mm$^2$]}	0.276919
{$S_l/S_o$}	[]	0.222430
{$\Psi$}	[]	0.581337
{$\eta$}	[]	0.762527
{med($\theta_e$)}	{[$^\circ$]}	97.1428
{$\Upsilon$}	[]	7
{$\Xi$}	[]	16
