Q	U	V
{$V$}	{[mm$^3$]}	0.0111822
{$d_v$}	{[mm]}	0.277445
{$S_c$}	{[mm$^2$]}	0.396867
{$S_o$}	{[mm$^2$]}	0.259958
{$S_l/S_o$}	[]	0.526658
{$\Psi$}	[]	0.609337
{$\eta$}	[]	0.647212
{med($\theta_e$)}	{[$^\circ$]}	55.86945
{$\Upsilon$}	[]	14
{$\Xi$}	[]	10
