Q	U	V
{$V$}	{[mm$^3$]}	0.00597286
{$d_v$}	{[mm]}	0.225110
{$S_c$}	{[mm$^2$]}	0.268232
{$S_o$}	{[mm$^2$]}	0.165903
{$S_l/S_o$}	[]	0.616800
{$\Psi$}	[]	0.593511
{$\eta$}	[]	0.649225
{med($\theta_e$)}	{[$^\circ$]}	56.6852
{$\Upsilon$}	[]	13
{$\Xi$}	[]	25
