Q	U	V
{$V$}	{[mm$^3$]}	0.0065642
{$d_v$}	{[mm]}	0.232306
{$S_c$}	{[mm$^2$]}	0.329984
{$S_o$}	{[mm$^2$]}	0.195317
{$S_l/S_o$}	[]	0.689479
{$\Psi$}	[]	0.513782
{$\eta$}	[]	0.532717
{med($\theta_e$)}	{[$^\circ$]}	60.37965
{$\Upsilon$}	[]	9
{$\Xi$}	[]	8
