Q	U	V
{$V$}	{[mm$^3$]}	0.00171942
{$d_v$}	{[mm]}	0.148637
{$S_c$}	{[mm$^2$]}	0.162647
{$S_o$}	{[mm$^2$]}	0.0802278
{$S_l/S_o$}	[]	1.027315
{$\Psi$}	[]	0.426736
{$\eta$}	[]	0.516541
{med($\theta_e$)}	{[$^\circ$]}	
{$\Upsilon$}	[]	22
{$\Xi$}	[]	17
