Q	U	V
{$V$}	{[mm$^3$]}	0.00347091
{$d_v$}	{[mm]}	0.187852
{$S_c$}	{[mm$^2$]}	0.254553
{$S_o$}	{[mm$^2$]}	0.121478
{$S_l/S_o$}	[]	1.095466
{$\Psi$}	[]	0.435513
{$\eta$}	[]	0.444658
{med($\theta_e$)}	{[$^\circ$]}	58.4218
{$\Upsilon$}	[]	8
{$\Xi$}	[]	4
