Q	U	V
{$V$}	{[mm$^3$]}	0.0110575
{$d_v$}	{[mm]}	0.276409
{$S_c$}	{[mm$^2$]}	0.477743
{$S_o$}	{[mm$^2$]}	0.262811
{$S_l/S_o$}	[]	0.817820
{$\Psi$}	[]	0.502413
{$\eta$}	[]	0.613736
{med($\theta_e$)}	{[$^\circ$]}	63.7064
{$\Upsilon$}	[]	10
{$\Xi$}	[]	11
