Q	U	V
{$V$}	{[mm$^3$]}	0.0131997
{$d_v$}	{[mm]}	0.293217
{$S_c$}	{[mm$^2$]}	0.480268
{$S_o$}	{[mm$^2$]}	0.31015
{$S_l/S_o$}	[]	0.548502
{$\Psi$}	[]	0.562397
{$\eta$}	[]	0.609354
{med($\theta_e$)}	{[$^\circ$]}	59.38625
{$\Upsilon$}	[]	15
{$\Xi$}	[]	6
