Q	U	V
{$V$}	{[mm$^3$]}	0.00986649
{$d_v$}	{[mm]}	0.266106
{$S_c$}	{[mm$^2$]}	0.321234
{$S_o$}	{[mm$^2$]}	0.269965
{$S_l/S_o$}	[]	0.189910
{$\Psi$}	[]	0.692529
{$\eta$}	[]	0.751468
{med($\theta_e$)}	{[$^\circ$]}	56.0843
{$\Upsilon$}	[]	14
{$\Xi$}	[]	10
