Q	U	V
{$V$}	{[mm$^3$]}	0.00190585
{$d_v$}	{[mm]}	0.153826
{$S_c$}	{[mm$^2$]}	0.104012
{$S_o$}	{[mm$^2$]}	0.0690529
{$S_l/S_o$}	[]	0.506265
{$\Psi$}	[]	0.714704
{$\eta$}	[]	0.732182
{med($\theta_e$)}	{[$^\circ$]}	56.9705
{$\Upsilon$}	[]	15
{$\Xi$}	[]	8
