Q	U	V
{$V$}	{[mm$^3$]}	0.00864342
{$d_v$}	{[mm]}	0.254622
{$S_c$}	{[mm$^2$]}	0.399535
{$S_o$}	{[mm$^2$]}	0.231603
{$S_l/S_o$}	[]	0.725086
{$\Psi$}	[]	0.509784
{$\eta$}	[]	0.576010
{med($\theta_e$)}	{[$^\circ$]}	60.9395
{$\Upsilon$}	[]	19
{$\Xi$}	[]	4
