Q	U	V
{$V$}	{[mm$^3$]}	0.00516183
{$d_v$}	{[mm]}	0.214422
{$S_c$}	{[mm$^2$]}	0.288051
{$S_o$}	{[mm$^2$]}	0.172627
{$S_l/S_o$}	[]	0.668632
{$\Psi$}	[]	0.501438
{$\eta$}	[]	0.570250
{med($\theta_e$)}	{[$^\circ$]}	59.4394
{$\Upsilon$}	[]	17
{$\Xi$}	[]	19
