Q	U	V
{$V$}	{[mm$^3$]}	0.00658083
{$d_v$}	{[mm]}	0.232502
{$S_c$}	{[mm$^2$]}	0.279268
{$S_o$}	{[mm$^2$]}	0.1718
{$S_l/S_o$}	[]	0.625541
{$\Psi$}	[]	0.608112
{$\eta$}	[]	0.655836
{med($\theta_e$)}	{[$^\circ$]}	49.9915
{$\Upsilon$}	[]	15
{$\Xi$}	[]	8
