Q	U	V
{$V$}	{[mm$^3$]}	0.00175742
{$d_v$}	{[mm]}	0.149724
{$S_c$}	{[mm$^2$]}	0.126487
{$S_o$}	{[mm$^2$]}	0.0756865
{$S_l/S_o$}	[]	0.671196
{$\Psi$}	[]	0.556786
{$\eta$}	[]	0.597531
{med($\theta_e$)}	{[$^\circ$]}	51.5072
{$\Upsilon$}	[]	18
{$\Xi$}	[]	12
