Q	U	V
{$V$}	{[mm$^3$]}	0.0170292
{$d_v$}	{[mm]}	0.319202
{$S_c$}	{[mm$^2$]}	0.543021
{$S_o$}	{[mm$^2$]}	0.394242
{$S_l/S_o$}	[]	0.377380
{$\Psi$}	[]	0.589473
{$\eta$}	[]	0.660532
{med($\theta_e$)}	{[$^\circ$]}	90.53985
{$\Upsilon$}	[]	17
{$\Xi$}	[]	8
