Q	U	V
{$V$}	{[mm$^3$]}	0.013265
{$d_v$}	{[mm]}	0.293699
{$S_c$}	{[mm$^2$]}	0.570357
{$S_o$}	{[mm$^2$]}	0.290892
{$S_l/S_o$}	[]	0.960717
{$\Psi$}	[]	0.475126
{$\eta$}	[]	0.539432
{med($\theta_e$)}	{[$^\circ$]}	78.6382
{$\Upsilon$}	[]	9
{$\Xi$}	[]	8
