Q	U	V
{$V$}	{[mm$^3$]}	0.00725767
{$d_v$}	{[mm]}	0.240215
{$S_c$}	{[mm$^2$]}	0.417591
{$S_o$}	{[mm$^2$]}	0.210181
{$S_l/S_o$}	[]	0.986816
{$\Psi$}	[]	0.434108
{$\eta$}	[]	0.468171
{med($\theta_e$)}	{[$^\circ$]}	87.2314
{$\Upsilon$}	[]	17
{$\Xi$}	[]	13
