Q	U	V
{$V$}	{[mm$^3$]}	0.00486259
{$d_v$}	{[mm]}	0.210195
{$S_c$}	{[mm$^2$]}	0.205793
{$S_o$}	{[mm$^2$]}	0.134421
{$S_l/S_o$}	[]	0.530959
{$\Psi$}	[]	0.674474
{$\eta$}	[]	0.702293
{med($\theta_e$)}	{[$^\circ$]}	61.02915
{$\Upsilon$}	[]	15
{$\Xi$}	[]	9
