Q	U	V
{$V$}	{[mm$^3$]}	0.00491484
{$d_v$}	{[mm]}	0.210945
{$S_c$}	{[mm$^2$]}	0.254211
{$S_o$}	{[mm$^2$]}	0.128044
{$S_l/S_o$}	[]	0.985341
{$\Psi$}	[]	0.549916
{$\eta$}	[]	0.616346
{med($\theta_e$)}	{[$^\circ$]}	68.4875
{$\Upsilon$}	[]	16
{$\Xi$}	[]	8
