Q	U	V
{$V$}	{[mm$^3$]}	0.0034246
{$d_v$}	{[mm]}	0.187012
{$S_c$}	{[mm$^2$]}	0.18091
{$S_o$}	{[mm$^2$]}	0.0925108
{$S_l/S_o$}	[]	0.955555
{$\Psi$}	[]	0.607335
{$\eta$}	[]	0.639843
{med($\theta_e$)}	{[$^\circ$]}	74.8099
{$\Upsilon$}	[]	13
{$\Xi$}	[]	6
