Q	U	V
{$V$}	{[mm$^3$]}	0.00655233
{$d_v$}	{[mm]}	0.232166
{$S_c$}	{[mm$^2$]}	0.237801
{$S_o$}	{[mm$^2$]}	0.154619
{$S_l/S_o$}	[]	0.537980
{$\Psi$}	[]	0.712089
{$\eta$}	[]	0.724917
{med($\theta_e$)}	{[$^\circ$]}	50.77375
{$\Upsilon$}	[]	21
{$\Xi$}	[]	8
