Q	U	V
{$V$}	{[mm$^3$]}	0.00296387
{$d_v$}	{[mm]}	0.178219
{$S_c$}	{[mm$^2$]}	0.228023
{$S_o$}	{[mm$^2$]}	0.117179
{$S_l/S_o$}	[]	0.945937
{$\Psi$}	[]	0.437601
{$\eta$}	[]	0.514031
{med($\theta_e$)}	{[$^\circ$]}	113.2805
{$\Upsilon$}	[]	13
{$\Xi$}	[]	5
