Q	U	V
{$V$}	{[mm$^3$]}	0.0105113
{$d_v$}	{[mm]}	0.271781
{$S_c$}	{[mm$^2$]}	0.482704
{$S_o$}	{[mm$^2$]}	0.32173
{$S_l/S_o$}	[]	0.500339
{$\Psi$}	[]	0.480737
{$\eta$}	[]	0.499853
{med($\theta_e$)}	{[$^\circ$]}	71.8495
{$\Upsilon$}	[]	11
{$\Xi$}	[]	16
