Q	U	V
{$V$}	{[mm$^3$]}	0.00326548
{$d_v$}	{[mm]}	0.184070
{$S_c$}	{[mm$^2$]}	0.190367
{$S_o$}	{[mm$^2$]}	0.123964
{$S_l/S_o$}	[]	0.535664
{$\Psi$}	[]	0.559144
{$\eta$}	[]	0.574532
{med($\theta_e$)}	{[$^\circ$]}	65.5804
{$\Upsilon$}	[]	15
{$\Xi$}	[]	7
