Q	U	V
{$V$}	{[mm$^3$]}	0.00217659
{$d_v$}	{[mm]}	0.160790
{$S_c$}	{[mm$^2$]}	0.114226
{$S_o$}	{[mm$^2$]}	0.0750422
{$S_l/S_o$}	[]	0.522157
{$\Psi$}	[]	0.711056
{$\eta$}	[]	0.755340
{med($\theta_e$)}	{[$^\circ$]}	51.5583
{$\Upsilon$}	[]	13
{$\Xi$}	[]	9
