Q	U	V
{$V$}	{[mm$^3$]}	0.00213978
{$d_v$}	{[mm]}	0.159879
{$S_c$}	{[mm$^2$]}	0.13163
{$S_o$}	{[mm$^2$]}	0.0754727
{$S_l/S_o$}	[]	0.744074
{$\Psi$}	[]	0.610064
{$\eta$}	[]	0.659188
{med($\theta_e$)}	{[$^\circ$]}	66.2009
{$\Upsilon$}	[]	13
{$\Xi$}	[]	7
