Q	U	V
{$V$}	{[mm$^3$]}	0.00422731
{$d_v$}	{[mm]}	0.200611
{$S_c$}	{[mm$^2$]}	0.264811
{$S_o$}	{[mm$^2$]}	0.140614
{$S_l/S_o$}	[]	0.883248
{$\Psi$}	[]	0.477446
{$\eta$}	[]	0.500546
{med($\theta_e$)}	{[$^\circ$]}	97.8965
{$\Upsilon$}	[]	14
{$\Xi$}	[]	7
