Q	U	V
{$V$}	{[mm$^3$]}	0.0105469
{$d_v$}	{[mm]}	0.272088
{$S_c$}	{[mm$^2$]}	0.509727
{$S_o$}	{[mm$^2$]}	0.283676
{$S_l/S_o$}	[]	0.796863
{$\Psi$}	[]	0.456278
{$\eta$}	[]	0.471841
{med($\theta_e$)}	{[$^\circ$]}	63.32995
{$\Upsilon$}	[]	14
{$\Xi$}	[]	7
