Q	U	V
{$V$}	{[mm$^3$]}	0.00363002
{$d_v$}	{[mm]}	0.190679
{$S_c$}	{[mm$^2$]}	0.220502
{$S_o$}	{[mm$^2$]}	0.140758
{$S_l/S_o$}	[]	0.566533
{$\Psi$}	[]	0.518017
{$\eta$}	[]	0.544176
{med($\theta_e$)}	{[$^\circ$]}	74.0501
{$\Upsilon$}	[]	16
{$\Xi$}	[]	8
