Q	U	V
{$V$}	{[mm$^3$]}	0.0025257
{$d_v$}	{[mm]}	0.168964
{$S_c$}	{[mm$^2$]}	0.148139
{$S_o$}	{[mm$^2$]}	0.106274
{$S_l/S_o$}	[]	0.393935
{$\Psi$}	[]	0.605437
{$\eta$}	[]	0.618674
{med($\theta_e$)}	{[$^\circ$]}	
{$\Upsilon$}	[]	13
{$\Xi$}	[]	7
