Q	U	V
{$V$}	{[mm$^3$]}	0.00708668
{$d_v$}	{[mm]}	0.238313
{$S_c$}	{[mm$^2$]}	0.399397
{$S_o$}	{[mm$^2$]}	0.187622
{$S_l/S_o$}	[]	1.128732
{$\Psi$}	[]	0.446726
{$\eta$}	[]	0.509924
{med($\theta_e$)}	{[$^\circ$]}	96.8371
{$\Upsilon$}	[]	16
{$\Xi$}	[]	12
