Q	U	V
{$V$}	{[mm$^3$]}	0.00355878
{$d_v$}	{[mm]}	0.189424
{$S_c$}	{[mm$^2$]}	0.173469
{$S_o$}	{[mm$^2$]}	0.102686
{$S_l/S_o$}	[]	0.689315
{$\Psi$}	[]	0.649825
{$\eta$}	[]	0.686664
{med($\theta_e$)}	{[$^\circ$]}	46.1533
{$\Upsilon$}	[]	17
{$\Xi$}	[]	3
