Q	U	V
{$V$}	{[mm$^3$]}	0.00688244
{$d_v$}	{[mm]}	0.236001
{$S_c$}	{[mm$^2$]}	0.387791
{$S_o$}	{[mm$^2$]}	0.19904
{$S_l/S_o$}	[]	0.948307
{$\Psi$}	[]	0.451213
{$\eta$}	[]	0.504499
{med($\theta_e$)}	{[$^\circ$]}	72.45465
{$\Upsilon$}	[]	16
{$\Xi$}	[]	17
