Q	U	V
{$V$}	{[mm$^3$]}	0.01196
{$d_v$}	{[mm]}	0.283734
{$S_c$}	{[mm$^2$]}	0.408487
{$S_o$}	{[mm$^2$]}	0.271856
{$S_l/S_o$}	[]	0.502586
{$\Psi$}	[]	0.619146
{$\eta$}	[]	0.642880
{med($\theta_e$)}	{[$^\circ$]}	48.5178
{$\Upsilon$}	[]	21
{$\Xi$}	[]	18
