Q	U	V
{$V$}	{[mm$^3$]}	0.00369177
{$d_v$}	{[mm]}	0.191754
{$S_c$}	{[mm$^2$]}	0.220306
{$S_o$}	{[mm$^2$]}	0.118569
{$S_l/S_o$}	[]	0.858040
{$\Psi$}	[]	0.524341
{$\eta$}	[]	0.609021
{med($\theta_e$)}	{[$^\circ$]}	60.58245
{$\Upsilon$}	[]	18
{$\Xi$}	[]	20
