Q	U	V
{$V$}	{[mm$^3$]}	0.00811857
{$d_v$}	{[mm]}	0.249360
{$S_c$}	{[mm$^2$]}	0.307094
{$S_o$}	{[mm$^2$]}	0.183069
{$S_l/S_o$}	[]	0.677477
{$\Psi$}	[]	0.63611
{$\eta$}	[]	0.660019
{med($\theta_e$)}	{[$^\circ$]}	49.409
{$\Upsilon$}	[]	17
{$\Xi$}	[]	6
