Q	U	V
{$V$}	{[mm$^3$]}	0.00213265
{$d_v$}	{[mm]}	0.159701
{$S_c$}	{[mm$^2$]}	0.185963
{$S_o$}	{[mm$^2$]}	0.0988014
{$S_l/S_o$}	[]	0.882190
{$\Psi$}	[]	0.430861
{$\eta$}	[]	0.434372
{med($\theta_e$)}	{[$^\circ$]}	
{$\Upsilon$}	[]	22
{$\Xi$}	[]	21
