Q	U	V
{$V$}	{[mm$^3$]}	0.00282137
{$d_v$}	{[mm]}	0.175316
{$S_c$}	{[mm$^2$]}	0.149952
{$S_o$}	{[mm$^2$]}	0.087133
{$S_l/S_o$}	[]	0.720955
{$\Psi$}	[]	0.64393
{$\eta$}	[]	0.702645
{med($\theta_e$)}	{[$^\circ$]}	53.3601
{$\Upsilon$}	[]	16
{$\Xi$}	[]	10
