Q	U	V
{$V$}	{[mm$^3$]}	0.00169924
{$d_v$}	{[mm]}	0.148054
{$S_c$}	{[mm$^2$]}	0.135692
{$S_o$}	{[mm$^2$]}	0.073561
{$S_l/S_o$}	[]	0.844619
{$\Psi$}	[]	0.507496
{$\eta$}	[]	0.621767
{med($\theta_e$)}	{[$^\circ$]}	56.5069
{$\Upsilon$}	[]	18
{$\Xi$}	[]	10
