Q	U	V
{$V$}	{[mm$^3$]}	0.00320967
{$d_v$}	{[mm]}	0.183015
{$S_c$}	{[mm$^2$]}	0.163094
{$S_o$}	{[mm$^2$]}	0.0955931
{$S_l/S_o$}	[]	0.706127
{$\Psi$}	[]	0.645188
{$\eta$}	[]	0.687898
{med($\theta_e$)}	{[$^\circ$]}	59.7363
{$\Upsilon$}	[]	13
{$\Xi$}	[]	11
