Q	U	V
{$V$}	{[mm$^3$]}	0.0019201
{$d_v$}	{[mm]}	0.154209
{$S_c$}	{[mm$^2$]}	0.138289
{$S_o$}	{[mm$^2$]}	0.0801543
{$S_l/S_o$}	[]	0.725285
{$\Psi$}	[]	0.54023
{$\eta$}	[]	0.556679
{med($\theta_e$)}	{[$^\circ$]}	100.7295
{$\Upsilon$}	[]	14
{$\Xi$}	[]	8
