Q	U	V
{$V$}	{[mm$^3$]}	0.00530551
{$d_v$}	{[mm]}	0.216393
{$S_c$}	{[mm$^2$]}	0.308687
{$S_o$}	{[mm$^2$]}	0.147493
{$S_l/S_o$}	[]	1.092893
{$\Psi$}	[]	0.47656
{$\eta$}	[]	0.501676
{med($\theta_e$)}	{[$^\circ$]}	64.9465
{$\Upsilon$}	[]	13
{$\Xi$}	[]	6
