Q	U	V
{$V$}	{[mm$^3$]}	0.0025827
{$d_v$}	{[mm]}	0.170226
{$S_c$}	{[mm$^2$]}	0.144759
{$S_o$}	{[mm$^2$]}	0.0930683
{$S_l/S_o$}	[]	0.555406
{$\Psi$}	[]	0.628861
{$\eta$}	[]	0.723347
{med($\theta_e$)}	{[$^\circ$]}	54.3044
{$\Upsilon$}	[]	14
{$\Xi$}	[]	8
