Q	U	V
{$V$}	{[mm$^3$]}	0.00754504
{$d_v$}	{[mm]}	0.243344
{$S_c$}	{[mm$^2$]}	0.414458
{$S_o$}	{[mm$^2$]}	0.235564
{$S_l/S_o$}	[]	0.759428
{$\Psi$}	[]	0.44886
{$\eta$}	[]	0.471080
{med($\theta_e$)}	{[$^\circ$]}	
{$\Upsilon$}	[]	13
{$\Xi$}	[]	13
