Q	U	V
{$V$}	{[mm$^3$]}	0.00235708
{$d_v$}	{[mm]}	0.165117
{$S_c$}	{[mm$^2$]}	0.150957
{$S_o$}	{[mm$^2$]}	0.0877753
{$S_l/S_o$}	[]	0.719812
{$\Psi$}	[]	0.567388
{$\eta$}	[]	0.602474
{med($\theta_e$)}	{[$^\circ$]}	57.6902
{$\Upsilon$}	[]	17
{$\Xi$}	[]	8
