Q	U	V
{$V$}	{[mm$^3$]}	0.0120027
{$d_v$}	{[mm]}	0.284071
{$S_c$}	{[mm$^2$]}	0.53805
{$S_o$}	{[mm$^2$]}	0.310511
{$S_l/S_o$}	[]	0.732789
{$\Psi$}	[]	0.471173
{$\eta$}	[]	0.541394
{med($\theta_e$)}	{[$^\circ$]}	68.0446
{$\Upsilon$}	[]	13
{$\Xi$}	[]	11
