Q	U	V
{$V$}	{[mm$^3$]}	0.0105695
{$d_v$}	{[mm]}	0.272282
{$S_c$}	{[mm$^2$]}	0.445604
{$S_o$}	{[mm$^2$]}	0.295225
{$S_l/S_o$}	[]	0.509371
{$\Psi$}	[]	0.522683
{$\eta$}	[]	0.567432
{med($\theta_e$)}	{[$^\circ$]}	50.3227
{$\Upsilon$}	[]	14
{$\Xi$}	[]	18
