Q	U	V
{$V$}	{[mm$^3$]}	0.00210772
{$d_v$}	{[mm]}	0.159076
{$S_c$}	{[mm$^2$]}	0.105763
{$S_o$}	{[mm$^2$]}	0.0720245
{$S_l/S_o$}	[]	0.468431
{$\Psi$}	[]	0.751667
{$\eta$}	[]	0.770609
{med($\theta_e$)}	{[$^\circ$]}	60.4046
{$\Upsilon$}	[]	11
{$\Xi$}	[]	6
