Q	U	V
{$V$}	{[mm$^3$]}	0.0202198
{$d_v$}	{[mm]}	0.338007
{$S_c$}	{[mm$^2$]}	0.778436
{$S_o$}	{[mm$^2$]}	0.439717
{$S_l/S_o$}	[]	0.770311
{$\Psi$}	[]	0.461083
{$\eta$}	[]	0.477546
{med($\theta_e$)}	{[$^\circ$]}	65.0063
{$\Upsilon$}	[]	17
{$\Xi$}	[]	15
