Q	U	V
{$V$}	{[mm$^3$]}	0.00837744
{$d_v$}	{[mm]}	0.251983
{$S_c$}	{[mm$^2$]}	0.333478
{$S_o$}	{[mm$^2$]}	0.205146
{$S_l/S_o$}	[]	0.625564
{$\Psi$}	[]	0.59817
{$\eta$}	[]	0.608100
{med($\theta_e$)}	{[$^\circ$]}	53.28525
{$\Upsilon$}	[]	14
{$\Xi$}	[]	9
