Q	U	V
{$V$}	{[mm$^3$]}	0.00555131
{$d_v$}	{[mm]}	0.219684
{$S_c$}	{[mm$^2$]}	0.267402
{$S_o$}	{[mm$^2$]}	0.169983
{$S_l/S_o$}	[]	0.573110
{$\Psi$}	[]	0.567
{$\eta$}	[]	0.584375
{med($\theta_e$)}	{[$^\circ$]}	58.6436
{$\Upsilon$}	[]	21
{$\Xi$}	[]	10
