Q	U	V
{$V$}	{[mm$^3$]}	0.00831688
{$d_v$}	{[mm]}	0.251374
{$S_c$}	{[mm$^2$]}	0.293459
{$S_o$}	{[mm$^2$]}	0.186951
{$S_l/S_o$}	[]	0.569711
{$\Psi$}	[]	0.676462
{$\eta$}	[]	0.731874
{med($\theta_e$)}	{[$^\circ$]}	52.8463
{$\Upsilon$}	[]	17
{$\Xi$}	[]	29
