Q	U	V
{$V$}	{[mm$^3$]}	0.00147481
{$d_v$}	{[mm]}	0.141225
{$S_c$}	{[mm$^2$]}	0.121919
{$S_o$}	{[mm$^2$]}	0.0624631
{$S_l/S_o$}	[]	0.951856
{$\Psi$}	[]	0.513929
{$\eta$}	[]	0.539758
{med($\theta_e$)}	{[$^\circ$]}	
{$\Upsilon$}	[]	22
{$\Xi$}	[]	4
