Q	U	V
{$V$}	{[mm$^3$]}	0.00870636
{$d_v$}	{[mm]}	0.255238
{$S_c$}	{[mm$^2$]}	0.376931
{$S_o$}	{[mm$^2$]}	0.249109
{$S_l/S_o$}	[]	0.513117
{$\Psi$}	[]	0.542975
{$\eta$}	[]	0.574190
{med($\theta_e$)}	{[$^\circ$]}	75.2742
{$\Upsilon$}	[]	16
{$\Xi$}	[]	18
