Q	U	V
{$V$}	{[mm$^3$]}	0.0041145
{$d_v$}	{[mm]}	0.198811
{$S_c$}	{[mm$^2$]}	0.1833
{$S_o$}	{[mm$^2$]}	0.11871
{$S_l/S_o$}	[]	0.544099
{$\Psi$}	[]	0.677433
{$\eta$}	[]	0.684468
{med($\theta_e$)}	{[$^\circ$]}	46.3272
{$\Upsilon$}	[]	21
{$\Xi$}	[]	7
