Q	U	V
{$V$}	{[mm$^3$]}	0.0173593
{$d_v$}	{[mm]}	0.321251
{$S_c$}	{[mm$^2$]}	0.735863
{$S_o$}	{[mm$^2$]}	0.413991
{$S_l/S_o$}	[]	0.777486
{$\Psi$}	[]	0.440597
{$\eta$}	[]	0.464555
{med($\theta_e$)}	{[$^\circ$]}	64.4382
{$\Upsilon$}	[]	11
{$\Xi$}	[]	20
