Q	U	V
{$V$}	{[mm$^3$]}	0.00394232
{$d_v$}	{[mm]}	0.195998
{$S_c$}	{[mm$^2$]}	0.1943
{$S_o$}	{[mm$^2$]}	0.126037
{$S_l/S_o$}	[]	0.541611
{$\Psi$}	[]	0.621125
{$\eta$}	[]	0.653942
{med($\theta_e$)}	{[$^\circ$]}	58.74535
{$\Upsilon$}	[]	15
{$\Xi$}	[]	10
