Q	U	V
{$V$}	{[mm$^3$]}	0.00739898
{$d_v$}	{[mm]}	0.241764
{$S_c$}	{[mm$^2$]}	0.377762
{$S_o$}	{[mm$^2$]}	0.229856
{$S_l/S_o$}	[]	0.643472
{$\Psi$}	[]	0.486087
{$\eta$}	[]	0.521696
{med($\theta_e$)}	{[$^\circ$]}	61.386
{$\Upsilon$}	[]	18
{$\Xi$}	[]	19
