Q	U	V
{$V$}	{[mm$^3$]}	0.00373927
{$d_v$}	{[mm]}	0.192573
{$S_c$}	{[mm$^2$]}	0.196004
{$S_o$}	{[mm$^2$]}	0.110614
{$S_l/S_o$}	[]	0.771964
{$\Psi$}	[]	0.594398
{$\eta$}	[]	0.656027
{med($\theta_e$)}	{[$^\circ$]}	68.7067
{$\Upsilon$}	[]	17
{$\Xi$}	[]	3
