Q	U	V
{$V$}	{[mm$^3$]}	0.00372858
{$d_v$}	{[mm]}	0.192390
{$S_c$}	{[mm$^2$]}	0.180274
{$S_o$}	{[mm$^2$]}	0.114507
{$S_l/S_o$}	[]	0.574349
{$\Psi$}	[]	0.64503
{$\eta$}	[]	0.677513
{med($\theta_e$)}	{[$^\circ$]}	79.0626
{$\Upsilon$}	[]	15
{$\Xi$}	[]	8
