Q	U	V
{$V$}	{[mm$^3$]}	0.00256726
{$d_v$}	{[mm]}	0.169886
{$S_c$}	{[mm$^2$]}	0.140942
{$S_o$}	{[mm$^2$]}	0.0891052
{$S_l/S_o$}	[]	0.581748
{$\Psi$}	[]	0.643315
{$\eta$}	[]	0.728860
{med($\theta_e$)}	{[$^\circ$]}	56.5712
{$\Upsilon$}	[]	21
{$\Xi$}	[]	7
