Q	U	V
{$V$}	{[mm$^3$]}	0.0135226
{$d_v$}	{[mm]}	0.295588
{$S_c$}	{[mm$^2$]}	0.509914
{$S_o$}	{[mm$^2$]}	0.347231
{$S_l/S_o$}	[]	0.468515
{$\Psi$}	[]	0.538304
{$\eta$}	[]	0.578733
{med($\theta_e$)}	{[$^\circ$]}	59.4541
{$\Upsilon$}	[]	14
{$\Xi$}	[]	5
