Q	U	V
{$V$}	{[mm$^3$]}	0.0043508
{$d_v$}	{[mm]}	0.202546
{$S_c$}	{[mm$^2$]}	0.234183
{$S_o$}	{[mm$^2$]}	0.123271
{$S_l/S_o$}	[]	0.899741
{$\Psi$}	[]	0.550353
{$\eta$}	[]	0.598758
{med($\theta_e$)}	{[$^\circ$]}	87.29505
{$\Upsilon$}	[]	19
{$\Xi$}	[]	6
