Q	U	V
{$V$}	{[mm$^3$]}	0.0050419
{$d_v$}	{[mm]}	0.212748
{$S_c$}	{[mm$^2$]}	0.304499
{$S_o$}	{[mm$^2$]}	0.126368
{$S_l/S_o$}	[]	1.409621
{$\Psi$}	[]	0.466976
{$\eta$}	[]	0.513749
{med($\theta_e$)}	{[$^\circ$]}	
{$\Upsilon$}	[]	10
{$\Xi$}	[]	6
