Q	U	V
{$V$}	{[mm$^3$]}	0.0158572
{$d_v$}	{[mm]}	0.311704
{$S_c$}	{[mm$^2$]}	0.691842
{$S_o$}	{[mm$^2$]}	0.401574
{$S_l/S_o$}	[]	0.722826
{$\Psi$}	[]	0.441193
{$\eta$}	[]	0.451654
{med($\theta_e$)}	{[$^\circ$]}	55.1004
{$\Upsilon$}	[]	13
{$\Xi$}	[]	14
