Q	U	V
{$V$}	{[mm$^3$]}	0.00943545
{$d_v$}	{[mm]}	0.262173
{$S_c$}	{[mm$^2$]}	0.502122
{$S_o$}	{[mm$^2$]}	0.227588
{$S_l/S_o$}	[]	1.206276
{$\Psi$}	[]	0.430048
{$\eta$}	[]	0.443681
{med($\theta_e$)}	{[$^\circ$]}	60.0077
{$\Upsilon$}	[]	15
{$\Xi$}	[]	14
