Q	U	V
{$V$}	{[mm$^3$]}	0.00557506
{$d_v$}	{[mm]}	0.219997
{$S_c$}	{[mm$^2$]}	0.233188
{$S_o$}	{[mm$^2$]}	0.144414
{$S_l/S_o$}	[]	0.614719
{$\Psi$}	[]	0.652045
{$\eta$}	[]	0.667234
{med($\theta_e$)}	{[$^\circ$]}	54.1744
{$\Upsilon$}	[]	18
{$\Xi$}	[]	7
