Q	U	V
{$V$}	{[mm$^3$]}	0.00248889
{$d_v$}	{[mm]}	0.168139
{$S_c$}	{[mm$^2$]}	0.205261
{$S_o$}	{[mm$^2$]}	0.0975049
{$S_l/S_o$}	[]	1.105135
{$\Psi$}	[]	0.432695
{$\eta$}	[]	0.476439
{med($\theta_e$)}	{[$^\circ$]}	83.2836
{$\Upsilon$}	[]	14
{$\Xi$}	[]	8
