Q	U	V
{$V$}	{[mm$^3$]}	0.00584105
{$d_v$}	{[mm]}	0.223442
{$S_c$}	{[mm$^2$]}	0.260546
{$S_o$}	{[mm$^2$]}	0.152233
{$S_l/S_o$}	[]	0.711495
{$\Psi$}	[]	0.601996
{$\eta$}	[]	0.629129
{med($\theta_e$)}	{[$^\circ$]}	45.4237
{$\Upsilon$}	[]	19
{$\Xi$}	[]	18
