Q	U	V
{$V$}	{[mm$^3$]}	0.00936539
{$d_v$}	{[mm]}	0.261523
{$S_c$}	{[mm$^2$]}	0.509043
{$S_o$}	{[mm$^2$]}	0.265755
{$S_l/S_o$}	[]	0.915460
{$\Psi$}	[]	0.422098
{$\eta$}	[]	0.473864
{med($\theta_e$)}	{[$^\circ$]}	72.2577
{$\Upsilon$}	[]	16
{$\Xi$}	[]	16
