Q	U	V
{$V$}	{[mm$^3$]}	0.00223121
{$d_v$}	{[mm]}	0.162124
{$S_c$}	{[mm$^2$]}	0.1381
{$S_o$}	{[mm$^2$]}	0.078337
{$S_l/S_o$}	[]	0.762896
{$\Psi$}	[]	0.597931
{$\eta$}	[]	0.697340
{med($\theta_e$)}	{[$^\circ$]}	49.4603
{$\Upsilon$}	[]	16
{$\Xi$}	[]	5
