Q	U	V
{$V$}	{[mm$^3$]}	0.00928821
{$d_v$}	{[mm]}	0.260802
{$S_c$}	{[mm$^2$]}	0.345278
{$S_o$}	{[mm$^2$]}	0.204214
{$S_l/S_o$}	[]	0.690766
{$\Psi$}	[]	0.618875
{$\eta$}	[]	0.641767
{med($\theta_e$)}	{[$^\circ$]}	50.7701
{$\Upsilon$}	[]	18
{$\Xi$}	[]	9
