Q	U	V
{$V$}	{[mm$^3$]}	0.00494096
{$d_v$}	{[mm]}	0.211319
{$S_c$}	{[mm$^2$]}	0.236068
{$S_o$}	{[mm$^2$]}	0.141996
{$S_l/S_o$}	[]	0.662498
{$\Psi$}	[]	0.594276
{$\eta$}	[]	0.614662
{med($\theta_e$)}	{[$^\circ$]}	57.7281
{$\Upsilon$}	[]	12
{$\Xi$}	[]	12
