Q	U	V
{$V$}	{[mm$^3$]}	0.0118115
{$d_v$}	{[mm]}	0.282554
{$S_c$}	{[mm$^2$]}	0.525472
{$S_o$}	{[mm$^2$]}	0.324117
{$S_l/S_o$}	[]	0.621242
{$\Psi$}	[]	0.477314
{$\eta$}	[]	0.498847
{med($\theta_e$)}	{[$^\circ$]}	70.6919
{$\Upsilon$}	[]	10
{$\Xi$}	[]	9
