Q	U	V
{$V$}	{[mm$^3$]}	0.013677
{$d_v$}	{[mm]}	0.296709
{$S_c$}	{[mm$^2$]}	0.480166
{$S_o$}	{[mm$^2$]}	0.275462
{$S_l/S_o$}	[]	0.743130
{$\Psi$}	[]	0.575997
{$\eta$}	[]	0.585866
{med($\theta_e$)}	{[$^\circ$]}	57.043
{$\Upsilon$}	[]	20
{$\Xi$}	[]	11
