Q	U	V
{$V$}	{[mm$^3$]}	0.0020151
{$d_v$}	{[mm]}	0.156711
{$S_c$}	{[mm$^2$]}	0.173925
{$S_o$}	{[mm$^2$]}	0.0883802
{$S_l/S_o$}	[]	0.967918
{$\Psi$}	[]	0.443595
{$\eta$}	[]	0.452909
{med($\theta_e$)}	{[$^\circ$]}	68.8245
{$\Upsilon$}	[]	16
{$\Xi$}	[]	0
