Q	U	V
{$V$}	{[mm$^3$]}	0.0203849
{$d_v$}	{[mm]}	0.338925
{$S_c$}	{[mm$^2$]}	0.789438
{$S_o$}	{[mm$^2$]}	0.470802
{$S_l/S_o$}	[]	0.676794
{$\Psi$}	[]	0.457129
{$\eta$}	[]	0.515078
{med($\theta_e$)}	{[$^\circ$]}	59.9526
{$\Upsilon$}	[]	11
{$\Xi$}	[]	26
