Q	U	V
{$V$}	{[mm$^3$]}	0.0134751
{$d_v$}	{[mm]}	0.295242
{$S_c$}	{[mm$^2$]}	0.430642
{$S_o$}	{[mm$^2$]}	0.29433
{$S_l/S_o$}	[]	0.463126
{$\Psi$}	[]	0.6359
{$\eta$}	[]	0.686113
{med($\theta_e$)}	{[$^\circ$]}	57.85915
{$\Upsilon$}	[]	17
{$\Xi$}	[]	8
