Q	U	V
{$V$}	{[mm$^3$]}	0.00407532
{$d_v$}	{[mm]}	0.198178
{$S_c$}	{[mm$^2$]}	0.194396
{$S_o$}	{[mm$^2$]}	0.128331
{$S_l/S_o$}	[]	0.514802
{$\Psi$}	[]	0.634704
{$\eta$}	[]	0.712319
{med($\theta_e$)}	{[$^\circ$]}	70.51495
{$\Upsilon$}	[]	16
{$\Xi$}	[]	14
