Q	U	V
{$V$}	{[mm$^3$]}	0.00342578
{$d_v$}	{[mm]}	0.187034
{$S_c$}	{[mm$^2$]}	0.204935
{$S_o$}	{[mm$^2$]}	0.10657
{$S_l/S_o$}	[]	0.923008
{$\Psi$}	[]	0.536259
{$\eta$}	[]	0.565594
{med($\theta_e$)}	{[$^\circ$]}	74.0358
{$\Upsilon$}	[]	12
{$\Xi$}	[]	5
