Q	U	V
{$V$}	{[mm$^3$]}	0.00566768
{$d_v$}	{[mm]}	0.221209
{$S_c$}	{[mm$^2$]}	0.336235
{$S_o$}	{[mm$^2$]}	0.181343
{$S_l/S_o$}	[]	0.854138
{$\Psi$}	[]	0.457205
{$\eta$}	[]	0.549749
{med($\theta_e$)}	{[$^\circ$]}	64.6354
{$\Upsilon$}	[]	15
{$\Xi$}	[]	8
