Q	U	V
{$V$}	{[mm$^3$]}	0.00767803
{$d_v$}	{[mm]}	0.244766
{$S_c$}	{[mm$^2$]}	0.306114
{$S_o$}	{[mm$^2$]}	0.211626
{$S_l/S_o$}	[]	0.446486
{$\Psi$}	[]	0.614848
{$\eta$}	[]	0.671684
{med($\theta_e$)}	{[$^\circ$]}	53.90125
{$\Upsilon$}	[]	14
{$\Xi$}	[]	10
