Q	U	V
{$V$}	{[mm$^3$]}	0.0028665
{$d_v$}	{[mm]}	0.176245
{$S_c$}	{[mm$^2$]}	0.159987
{$S_o$}	{[mm$^2$]}	0.0932997
{$S_l/S_o$}	[]	0.714764
{$\Psi$}	[]	0.609959
{$\eta$}	[]	0.624084
{med($\theta_e$)}	{[$^\circ$]}	82.27545
{$\Upsilon$}	[]	17
{$\Xi$}	[]	9
