Q	U	V
{$V$}	{[mm$^3$]}	0.00296149
{$d_v$}	{[mm]}	0.178171
{$S_c$}	{[mm$^2$]}	0.156589
{$S_o$}	{[mm$^2$]}	0.0947359
{$S_l/S_o$}	[]	0.652900
{$\Psi$}	[]	0.636888
{$\eta$}	[]	0.707802
{med($\theta_e$)}	{[$^\circ$]}	71.4272
{$\Upsilon$}	[]	17
{$\Xi$}	[]	20
