Q	U	V
{$V$}	{[mm$^3$]}	0.00212434
{$d_v$}	{[mm]}	0.159493
{$S_c$}	{[mm$^2$]}	0.119085
{$S_o$}	{[mm$^2$]}	0.0707386
{$S_l/S_o$}	[]	0.683451
{$\Psi$}	[]	0.671083
{$\eta$}	[]	0.741501
{med($\theta_e$)}	{[$^\circ$]}	56.7864
{$\Upsilon$}	[]	15
{$\Xi$}	[]	8
