Q	U	V
{$V$}	{[mm$^3$]}	0.00364902
{$d_v$}	{[mm]}	0.191011
{$S_c$}	{[mm$^2$]}	0.159922
{$S_o$}	{[mm$^2$]}	0.10503
{$S_l/S_o$}	[]	0.522632
{$\Psi$}	[]	0.716737
{$\eta$}	[]	0.743894
{med($\theta_e$)}	{[$^\circ$]}	53.6477
{$\Upsilon$}	[]	17
{$\Xi$}	[]	10
