Q	U	V
{$V$}	{[mm$^3$]}	0.0106977
{$d_v$}	{[mm]}	0.273378
{$S_c$}	{[mm$^2$]}	0.324418
{$S_o$}	{[mm$^2$]}	0.224957
{$S_l/S_o$}	[]	0.442133
{$\Psi$}	[]	0.723724
{$\eta$}	[]	0.760932
{med($\theta_e$)}	{[$^\circ$]}	51.7901
{$\Upsilon$}	[]	13
{$\Xi$}	[]	12
