Q	U	V
{$V$}	{[mm$^3$]}	0.00209822
{$d_v$}	{[mm]}	0.158837
{$S_c$}	{[mm$^2$]}	0.140079
{$S_o$}	{[mm$^2$]}	0.0859962
{$S_l/S_o$}	[]	0.628898
{$\Psi$}	[]	0.56582
{$\eta$}	[]	0.582600
{med($\theta_e$)}	{[$^\circ$]}	64.68035
{$\Upsilon$}	[]	15
{$\Xi$}	[]	4
