Q	U	V
{$V$}	{[mm$^3$]}	0.00214809
{$d_v$}	{[mm]}	0.160085
{$S_c$}	{[mm$^2$]}	0.129873
{$S_o$}	{[mm$^2$]}	0.0718547
{$S_l/S_o$}	[]	0.807439
{$\Psi$}	[]	0.619917
{$\eta$}	[]	0.669660
{med($\theta_e$)}	{[$^\circ$]}	55.9354
{$\Upsilon$}	[]	14
{$\Xi$}	[]	0
