Q	U	V
{$V$}	{[mm$^3$]}	0.00312417
{$d_v$}	{[mm]}	0.181376
{$S_c$}	{[mm$^2$]}	0.16731
{$S_o$}	{[mm$^2$]}	0.106874
{$S_l/S_o$}	[]	0.565488
{$\Psi$}	[]	0.617711
{$\eta$}	[]	0.666553
{med($\theta_e$)}	{[$^\circ$]}	68.3073
{$\Upsilon$}	[]	15
{$\Xi$}	[]	10
