Q	U	V
{$V$}	{[mm$^3$]}	0.00747854
{$d_v$}	{[mm]}	0.242627
{$S_c$}	{[mm$^2$]}	0.398873
{$S_o$}	{[mm$^2$]}	0.230116
{$S_l/S_o$}	[]	0.733356
{$\Psi$}	[]	0.463654
{$\eta$}	[]	0.509553
{med($\theta_e$)}	{[$^\circ$]}	66.6775
{$\Upsilon$}	[]	19
{$\Xi$}	[]	5
