Q	U	V
{$V$}	{[mm$^3$]}	0.00627209
{$d_v$}	{[mm]}	0.228808
{$S_c$}	{[mm$^2$]}	0.225381
{$S_o$}	{[mm$^2$]}	0.14652
{$S_l/S_o$}	[]	0.538227
{$\Psi$}	[]	0.729752
{$\eta$}	[]	0.738793
{med($\theta_e$)}	{[$^\circ$]}	43.5722
{$\Upsilon$}	[]	22
{$\Xi$}	[]	7
