Q	U	V
{$V$}	{[mm$^3$]}	0.0176811
{$d_v$}	{[mm]}	0.323224
{$S_c$}	{[mm$^2$]}	0.692691
{$S_o$}	{[mm$^2$]}	0.474068
{$S_l/S_o$}	[]	0.461164
{$\Psi$}	[]	0.473824
{$\eta$}	[]	0.491249
{med($\theta_e$)}	{[$^\circ$]}	70.5641
{$\Upsilon$}	[]	15
{$\Xi$}	[]	18
