Q	U	V
{$V$}	{[mm$^3$]}	0.00213147
{$d_v$}	{[mm]}	0.159671
{$S_c$}	{[mm$^2$]}	0.122162
{$S_o$}	{[mm$^2$]}	0.0796584
{$S_l/S_o$}	[]	0.533573
{$\Psi$}	[]	0.655643
{$\eta$}	[]	0.671324
{med($\theta_e$)}	{[$^\circ$]}	63.7787
{$\Upsilon$}	[]	16
{$\Xi$}	[]	6
