Q	U	V
{$V$}	{[mm$^3$]}	0.00277388
{$d_v$}	{[mm]}	0.174326
{$S_c$}	{[mm$^2$]}	0.163681
{$S_o$}	{[mm$^2$]}	0.0936899
{$S_l/S_o$}	[]	0.747051
{$\Psi$}	[]	0.583281
{$\eta$}	[]	0.659527
{med($\theta_e$)}	{[$^\circ$]}	49.5789
{$\Upsilon$}	[]	13
{$\Xi$}	[]	10
