Q	U	V
{$V$}	{[mm$^3$]}	0.00753316
{$d_v$}	{[mm]}	0.243216
{$S_c$}	{[mm$^2$]}	0.450524
{$S_o$}	{[mm$^2$]}	0.218855
{$S_l/S_o$}	[]	1.058550
{$\Psi$}	[]	0.412494
{$\eta$}	[]	0.462473
{med($\theta_e$)}	{[$^\circ$]}	73.1062
{$\Upsilon$}	[]	12
{$\Xi$}	[]	10
