Q	U	V
{$V$}	{[mm$^3$]}	0.00731586
{$d_v$}	{[mm]}	0.240855
{$S_c$}	{[mm$^2$]}	0.364965
{$S_o$}	{[mm$^2$]}	0.186404
{$S_l/S_o$}	[]	0.957925
{$\Psi$}	[]	0.499355
{$\eta$}	[]	0.518450
{med($\theta_e$)}	{[$^\circ$]}	65.5308
{$\Upsilon$}	[]	11
{$\Xi$}	[]	12
