Q	U	V
{$V$}	{[mm$^3$]}	0.00886548
{$d_v$}	{[mm]}	0.256784
{$S_c$}	{[mm$^2$]}	0.29859
{$S_o$}	{[mm$^2$]}	0.207457
{$S_l/S_o$}	[]	0.439286
{$\Psi$}	[]	0.693762
{$\eta$}	[]	0.761482
{med($\theta_e$)}	{[$^\circ$]}	59.334
{$\Upsilon$}	[]	13
{$\Xi$}	[]	14
