Q	U	V
{$V$}	{[mm$^3$]}	0.0113425
{$d_v$}	{[mm]}	0.278764
{$S_c$}	{[mm$^2$]}	0.582302
{$S_o$}	{[mm$^2$]}	0.303351
{$S_l/S_o$}	[]	0.919565
{$\Psi$}	[]	0.419252
{$\eta$}	[]	0.461771
{med($\theta_e$)}	{[$^\circ$]}	75.8375
{$\Upsilon$}	[]	11
{$\Xi$}	[]	14
