Q	U	V
{$V$}	{[mm$^3$]}	0.00734317
{$d_v$}	{[mm]}	0.241154
{$S_c$}	{[mm$^2$]}	0.327587
{$S_o$}	{[mm$^2$]}	0.209179
{$S_l/S_o$}	[]	0.566061
{$\Psi$}	[]	0.557716
{$\eta$}	[]	0.594175
{med($\theta_e$)}	{[$^\circ$]}	55.3931
{$\Upsilon$}	[]	15
{$\Xi$}	[]	13
