Q	U	V
{$V$}	{[mm$^3$]}	0.00355403
{$d_v$}	{[mm]}	0.189339
{$S_c$}	{[mm$^2$]}	0.164109
{$S_o$}	{[mm$^2$]}	0.121761
{$S_l/S_o$}	[]	0.347796
{$\Psi$}	[]	0.686276
{$\eta$}	[]	0.724518
{med($\theta_e$)}	{[$^\circ$]}	58.9359
{$\Upsilon$}	[]	19
{$\Xi$}	[]	13
