Q	U	V
{$V$}	{[mm$^3$]}	0.0092039
{$d_v$}	{[mm]}	0.260011
{$S_c$}	{[mm$^2$]}	0.314814
{$S_o$}	{[mm$^2$]}	0.199942
{$S_l/S_o$}	[]	0.574527
{$\Psi$}	[]	0.674649
{$\eta$}	[]	0.714431
{med($\theta_e$)}	{[$^\circ$]}	50.118
{$\Upsilon$}	[]	16
{$\Xi$}	[]	10
