Q	U	V
{$V$}	{[mm$^3$]}	0.00479135
{$d_v$}	{[mm]}	0.209164
{$S_c$}	{[mm$^2$]}	0.21651
{$S_o$}	{[mm$^2$]}	0.110064
{$S_l/S_o$}	[]	0.967128
{$\Psi$}	[]	0.634811
{$\eta$}	[]	0.695021
{med($\theta_e$)}	{[$^\circ$]}	52.4078
{$\Upsilon$}	[]	19
{$\Xi$}	[]	7
