Q	U	V
{$V$}	{[mm$^3$]}	0.0115788
{$d_v$}	{[mm]}	0.280687
{$S_c$}	{[mm$^2$]}	0.452559
{$S_o$}	{[mm$^2$]}	0.265286
{$S_l/S_o$}	[]	0.705929
{$\Psi$}	[]	0.546913
{$\eta$}	[]	0.571605
{med($\theta_e$)}	{[$^\circ$]}	68.1211
{$\Upsilon$}	[]	14
{$\Xi$}	[]	10
