Q	U	V
{$V$}	{[mm$^3$]}	0.0106811
{$d_v$}	{[mm]}	0.273237
{$S_c$}	{[mm$^2$]}	0.455588
{$S_o$}	{[mm$^2$]}	0.296201
{$S_l/S_o$}	[]	0.538104
{$\Psi$}	[]	0.514821
{$\eta$}	[]	0.532769
{med($\theta_e$)}	{[$^\circ$]}	52.9687
{$\Upsilon$}	[]	12
{$\Xi$}	[]	24
