Q	U	V
{$V$}	{[mm$^3$]}	0.00414063
{$d_v$}	{[mm]}	0.199231
{$S_c$}	{[mm$^2$]}	0.193907
{$S_o$}	{[mm$^2$]}	0.12399
{$S_l/S_o$}	[]	0.563892
{$\Psi$}	[]	0.643085
{$\eta$}	[]	0.688743
{med($\theta_e$)}	{[$^\circ$]}	47.24275
{$\Upsilon$}	[]	17
{$\Xi$}	[]	7
