Q	U	V
{$V$}	{[mm$^3$]}	0.0124468
{$d_v$}	{[mm]}	0.287532
{$S_c$}	{[mm$^2$]}	0.462713
{$S_o$}	{[mm$^2$]}	0.267756
{$S_l/S_o$}	[]	0.728114
{$\Psi$}	[]	0.56132
{$\eta$}	[]	0.574363
{med($\theta_e$)}	{[$^\circ$]}	58.6977
{$\Upsilon$}	[]	15
{$\Xi$}	[]	23
