Q	U	V
{$V$}	{[mm$^3$]}	0.011314
{$d_v$}	{[mm]}	0.278530
{$S_c$}	{[mm$^2$]}	0.460825
{$S_o$}	{[mm$^2$]}	0.298322
{$S_l/S_o$}	[]	0.544723
{$\Psi$}	[]	0.528882
{$\eta$}	[]	0.533313
{med($\theta_e$)}	{[$^\circ$]}	75.7326
{$\Upsilon$}	[]	13
{$\Xi$}	[]	9
