Q	U	V
{$V$}	{[mm$^3$]}	0.0011637
{$d_v$}	{[mm]}	0.130501
{$S_c$}	{[mm$^2$]}	0.0851599
{$S_o$}	{[mm$^2$]}	0.0452011
{$S_l/S_o$}	[]	0.884023
{$\Psi$}	[]	0.628265
{$\eta$}	[]	0.668362
{med($\theta_e$)}	{[$^\circ$]}	59.5602
{$\Upsilon$}	[]	18
{$\Xi$}	[]	4
