Q	U	V
{$V$}	{[mm$^3$]}	0.0122604
{$d_v$}	{[mm]}	0.286090
{$S_c$}	{[mm$^2$]}	0.468437
{$S_o$}	{[mm$^2$]}	0.301859
{$S_l/S_o$}	[]	0.551840
{$\Psi$}	[]	0.548912
{$\eta$}	[]	0.566270
{med($\theta_e$)}	{[$^\circ$]}	60.45525
{$\Upsilon$}	[]	15
{$\Xi$}	[]	11
