Q	U	V
{$V$}	{[mm$^3$]}	0.00845462
{$d_v$}	{[mm]}	0.252754
{$S_c$}	{[mm$^2$]}	0.312656
{$S_o$}	{[mm$^2$]}	0.249176
{$S_l/S_o$}	[]	0.254760
{$\Psi$}	[]	0.641919
{$\eta$}	[]	0.685101
{med($\theta_e$)}	{[$^\circ$]}	56.30855
{$\Upsilon$}	[]	20
{$\Xi$}	[]	8
