Q	U	V
{$V$}	{[mm$^3$]}	0.00479966
{$d_v$}	{[mm]}	0.209285
{$S_c$}	{[mm$^2$]}	0.207223
{$S_o$}	{[mm$^2$]}	0.130676
{$S_l/S_o$}	[]	0.585777
{$\Psi$}	[]	0.664028
{$\eta$}	[]	0.719278
{med($\theta_e$)}	{[$^\circ$]}	57.49615
{$\Upsilon$}	[]	14
{$\Xi$}	[]	7
