Q	U	V
{$V$}	{[mm$^3$]}	0.00815182
{$d_v$}	{[mm]}	0.249700
{$S_c$}	{[mm$^2$]}	0.30911
{$S_o$}	{[mm$^2$]}	0.173745
{$S_l/S_o$}	[]	0.779102
{$\Psi$}	[]	0.633686
{$\eta$}	[]	0.642823
{med($\theta_e$)}	{[$^\circ$]}	54.21195
{$\Upsilon$}	[]	18
{$\Xi$}	[]	9
