Q	U	V
{$V$}	{[mm$^3$]}	0.00577455
{$d_v$}	{[mm]}	0.222590
{$S_c$}	{[mm$^2$]}	0.264926
{$S_o$}	{[mm$^2$]}	0.174128
{$S_l/S_o$}	[]	0.521444
{$\Psi$}	[]	0.587541
{$\eta$}	[]	0.655070
{med($\theta_e$)}	{[$^\circ$]}	52.91695
{$\Upsilon$}	[]	17
{$\Xi$}	[]	6
