Q	U	V
{$V$}	{[mm$^3$]}	0.0142399
{$d_v$}	{[mm]}	0.300725
{$S_c$}	{[mm$^2$]}	0.573075
{$S_o$}	{[mm$^2$]}	0.318173
{$S_l/S_o$}	[]	0.801143
{$\Psi$}	[]	0.495767
{$\eta$}	[]	0.532051
{med($\theta_e$)}	{[$^\circ$]}	72.07935
{$\Upsilon$}	[]	14
{$\Xi$}	[]	10
