Q	U	V
{$V$}	{[mm$^3$]}	0.00401357
{$d_v$}	{[mm]}	0.197171
{$S_c$}	{[mm$^2$]}	0.2356
{$S_o$}	{[mm$^2$]}	0.142026
{$S_l/S_o$}	[]	0.658851
{$\Psi$}	[]	0.518397
{$\eta$}	[]	0.564660
{med($\theta_e$)}	{[$^\circ$]}	84.7254
{$\Upsilon$}	[]	14
{$\Xi$}	[]	7
