Q	U	V
{$V$}	{[mm$^3$]}	0.00740135
{$d_v$}	{[mm]}	0.241790
{$S_c$}	{[mm$^2$]}	0.412299
{$S_o$}	{[mm$^2$]}	0.251672
{$S_l/S_o$}	[]	0.638239
{$\Psi$}	[]	0.445464
{$\eta$}	[]	0.477843
{med($\theta_e$)}	{[$^\circ$]}	
{$\Upsilon$}	[]	13
{$\Xi$}	[]	8
