Q	U	V
{$V$}	{[mm$^3$]}	0.00141662
{$d_v$}	{[mm]}	0.139343
{$S_c$}	{[mm$^2$]}	0.136549
{$S_o$}	{[mm$^2$]}	0.0669228
{$S_l/S_o$}	[]	1.040396
{$\Psi$}	[]	0.446716
{$\eta$}	[]	0.482039
{med($\theta_e$)}	{[$^\circ$]}	84.30325
{$\Upsilon$}	[]	22
{$\Xi$}	[]	16
