Q	U	V
{$V$}	{[mm$^3$]}	0.0072458
{$d_v$}	{[mm]}	0.240084
{$S_c$}	{[mm$^2$]}	0.290542
{$S_o$}	{[mm$^2$]}	0.174509
{$S_l/S_o$}	[]	0.664911
{$\Psi$}	[]	0.623255
{$\eta$}	[]	0.699455
{med($\theta_e$)}	{[$^\circ$]}	54.9084
{$\Upsilon$}	[]	17
{$\Xi$}	[]	8
