Q	U	V
{$V$}	{[mm$^3$]}	0.00798202
{$d_v$}	{[mm]}	0.247954
{$S_c$}	{[mm$^2$]}	0.368227
{$S_o$}	{[mm$^2$]}	0.189921
{$S_l/S_o$}	[]	0.938843
{$\Psi$}	[]	0.524538
{$\eta$}	[]	0.533614
{med($\theta_e$)}	{[$^\circ$]}	58.3348
{$\Upsilon$}	[]	13
{$\Xi$}	[]	11
