"cellPairingIds","interplanarAngles","angleWeights"
19,44.7857,0.0180879
34,54.104,0.0261791
43,55.0121,0.0292136
18,36.7458,0.0170458
25,37.547,0.0137359
88,51.6036,0.0194508
32,70.3116,0.0247486
51,42.6967,0.0428834
101,65.4875,0.0525862
167,82.4033,0.0524927
186,78.5574,0.0445334
50,28.764,0.0168393
61,98.6752,0.0266986
73,52.7788,0.029862
86,30.1859,0.0215647
100,41.9985,0.0185845
115,73.0602,0.0301636
114,34.5085,0.0170501
130,52.1008,0.0263193
165,45.9621,0.0247133
98,87.7533,0.0609751
164,30.9422,0.0383974
203,47.3962,0.0456339
246,52.7046,0.0512716
128,31.7957,0.0394992
182,75.5368,0.0452989
223,97.7326,0.0557236
317,63.9891,0.0603322
162,28.8856,0.0219116
342,78.3375,0.0339449
243,52.6856,0.0286635
341,49.2063,0.027284
368,79.1119,0.0271033
265,43.6465,0.0702653
314,77.4712,0.0847709
313,28.2702,0.0362463
365,95.5005,0.0700986
422,55.2956,0.0541571
483,106.982,0.041853
421,30.9812,0.047507
482,72.6608,0.0452729
514,39.0989,0.0366673
450,25.6678,0.0656376
546,29.5156,0.0466029
579,26.5794,0.0402209
578,47.7981,0.0488446
613,93.8023,0.0389756
648,76.2647,0.0386079
