facetNormals:0,facetNormals:1,facetNormals:2,FacetCenters:0,FacetCenters:1,FacetCenters:2,FacetIds,relFacetSize,absFacetSize,cellPairingIds,interplanarAngles,angleWeights
0.22017,-0.179986,-0.918449,4.10911,3.32303,8.01282,1,0.0626064,0.0105973,8,41.9812,0.0475023
-0.46916,-0.114058,-0.852577,4.04667,3.31242,8.01647,2,0.0382695,0.0064778,13,49.0693,0.0728265
0.533744,0.498208,-0.631945,4.15228,3.40715,8.0513,3,0.0870341,0.0147321,19,57.6181,0.0447089
-0.368603,0.527608,-0.742772,4.0753,3.384,8.02607,4,0.0347692,0.00588531,26,90.1348,0.0152434
0.185248,0.957079,-0.140723,4.12253,3.44799,8.10126,5,0.00867819,0.00146894,34,67.3308,0.0807155
0.841955,-0.436887,-0.0972646,4.16449,3.30102,8.10523,6,0.113564,0.0192228,43,80.9451,0.0575204
-0.391168,-0.880997,-0.0804877,4.04417,3.24088,8.09667,7,0.0531987,0.00900482,53,62.2346,0.070646
0.344629,-0.863636,-0.213394,4.10011,3.24946,8.09812,8,0.0810545,0.0137199,64,84.4252,0.0653887
0.896655,0.393016,0.0382903,4.18597,3.39175,8.14359,9,0.0684297,0.0115829,76,117.664,0.0272318
-0.403459,0.866372,0.208975,4.1128,3.43721,8.11838,10,0.0174002,0.00294529,89,115.535,0.0402637
-0.859351,-0.34094,0.29932,4.03593,3.26145,8.19139,11,0.0296738,0.00502283,103,119.359,0.0432373
0.544127,0.634024,0.508069,4.1457,3.41456,8.17618,12,0.0330212,0.00558943,118,116.399,0.0453846
0.282736,-0.671584,0.655625,4.11106,3.27323,8.18891,13,0.0355935,0.00602484,134,136.962,0.0362329
0.00391297,0.771909,0.595711,4.12899,3.4207,8.16247,14,0.0254935,0.00431523,151,121.208,0.0621136
0.613741,-0.222504,0.716485,4.10381,3.31193,8.22451,15,0.0616284,0.0104317,169,150.842,0.0357353
-0.33142,-0.293829,0.873282,4.13431,3.32168,8.22095,16,0.0250035,0.0042323,188,152.108,0.0370623
0.192119,0.391886,0.868935,4.09733,3.36456,8.2248,17,0.0263225,0.00445555,18,75.8341,0.0531629
,,,,,,,,,25,39.2212,0.0364355
,,,,,,,,,33,94.5226,0.0141481
,,,,,,,,,42,106.302,0.0572475
,,,,,,,,,52,68.1568,0.0445157
,,,,,,,,,63,82.7013,0.0519915
,,,,,,,,,75,121.26,0.049087
,,,,,,,,,88,95.2494,0.0239231
,,,,,,,,,102,78.6815,0.0334279
,,,,,,,,,117,142.564,0.0354522
,,,,,,,,,133,129.82,0.0368831
,,,,,,,,,150,128.734,0.0306016
,,,,,,,,,168,156.877,0.047218
,,,,,,,,,187,125.383,0.0302458
,,,,,,,,,207,156.795,0.0311911
,,,,,,,,,32,55.6492,0.0496884
,,,,,,,,,41,45.669,0.0157827
,,,,,,,,,51,71.4323,0.0985448
,,,,,,,,,62,129.716,0.0660345
,,,,,,,,,74,96.95,0.0839379
,,,,,,,,,87,46.5876,0.0766187
,,,,,,,,,101,84.8846,0.0290021
,,,,,,,,,116,150.621,0.0442581
,,,,,,,,,132,72.418,0.0478774
,,,,,,,,,149,129.182,0.0505245
,,,,,,,,,167,89.3791,0.0394358
,,,,,,,,,186,104.608,0.0721604
,,,,,,,,,206,157.753,0.038847
,,,,,,,,,227,105.526,0.0404203
,,,,,,,,,50,56.008,0.0138896
,,,,,,,,,61,120.002,0.0532387
,,,,,,,,,73,105.925,0.0420534
,,,,,,,,,86,116.898,0.0486636
,,,,,,,,,100,99.0577,0.0461099
,,,,,,,,,115,62.0534,0.0231933
,,,,,,,,,131,95.1331,0.0320201
,,,,,,,,,148,104.672,0.0338727
,,,,,,,,,166,168.955,0.0351766
,,,,,,,,,185,92.192,0.0294175
,,,,,,,,,205,156.829,0.0444569
,,,,,,,,,226,135.086,0.0290886
,,,,,,,,,248,122.215,0.0299619
,,,,,,,,,72,105.341,0.0161242
,,,,,,,,,85,161.657,0.0149222
,,,,,,,,,99,141.237,0.0156778
,,,,,,,,,114,56.1975,0.015403
,,,,,,,,,130,41.1964,0.0115806
,,,,,,,,,147,123.453,0.013429
,,,,,,,,,165,48.6649,0.0137443
,,,,,,,,,184,134.997,0.0139542
,,,,,,,,,204,46.9431,0.0129486
,,,,,,,,,225,102.098,0.015214
,,,,,,,,,247,118.86,0.0128845
,,,,,,,,,270,72.4764,0.013053
,,,,,,,,,98,86.0598,0.0724558
,,,,,,,,,113,40.8391,0.0945941
,,,,,,,,,129,51.6607,0.0854003
,,,,,,,,,146,142.345,0.0301767
,,,,,,,,,164,130.656,0.047053
,,,,,,,,,183,81.879,0.0511651
,,,,,,,,,203,59.9745,0.0541997
,,,,,,,,,224,114.929,0.0416396
,,,,,,,,,246,53.9233,0.0798982
,,,,,,,,,269,104.616,0.0409837
,,,,,,,,,293,95.8169,0.0427388
,,,,,,,,,128,45.8113,0.0642367
,,,,,,,,,145,137.621,0.0598605
,,,,,,,,,163,131.116,0.0262232
,,,,,,,,,182,49.3424,0.0380973
,,,,,,,,,202,149.182,0.0407489
,,,,,,,,,223,63.1459,0.0426508
,,,,,,,,,245,140.669,0.034469
,,,,,,,,,268,96.2282,0.0571041
,,,,,,,,,292,70.3684,0.0340183
,,,,,,,,,317,121.421,0.0352188
,,,,,,,,,162,92.3655,0.074209
,,,,,,,,,181,176.806,0.02865
,,,,,,,,,201,94.0565,0.0434432
,,,,,,,,,222,120.143,0.0469253
,,,,,,,,,244,54.9134,0.0494653
,,,,,,,,,267,148.414,0.0387875
,,,,,,,,,291,74.2648,0.070019
,,,,,,,,,316,92.8722,0.0382177
,,,,,,,,,342,119.56,0.0397395
,,,,,,,,,200,90.7929,0.0277453
,,,,,,,,,221,159.722,0.0413965
,,,,,,,,,243,37.847,0.0445463
,,,,,,,,,266,89.1243,0.0468291
,,,,,,,,,290,69.8113,0.0371477
,,,,,,,,,315,58.9167,0.0648512
,,,,,,,,,341,113.283,0.0366248
,,,,,,,,,368,67.8269,0.03802
,,,,,,,,,242,83.1199,0.0219369
,,,,,,,,,265,62.8894,0.0227909
,,,,,,,,,289,125.651,0.0233738
,,,,,,,,,314,33.9071,0.0206833
,,,,,,,,,340,107.85,0.0271381
,,,,,,,,,367,86.3104,0.0205202
,,,,,,,,,395,62.2047,0.0209509
,,,,,,,,,288,124.023,0.0312582
,,,,,,,,,313,78.9699,0.0323652
,,,,,,,,,339,95.3429,0.0274253
,,,,,,,,,366,104.579,0.0400593
,,,,,,,,,394,47.211,0.0271392
,,,,,,,,,423,92.3423,0.0278979
,,,,,,,,,338,86.3424,0.0342592
,,,,,,,,,365,33.5952,0.0287732
,,,,,,,,,393,54.0161,0.0430016
,,,,,,,,,422,85.3839,0.0284584
,,,,,,,,,452,33.3269,0.0292938
,,,,,,,,,392,97.6198,0.0297086
,,,,,,,,,421,33.4545,0.0451251
,,,,,,,,,451,45.2116,0.0293732
,,,,,,,,,482,67.7549,0.0302639
,,,,,,,,,450,74.1918,0.0360673
,,,,,,,,,481,72.184,0.0252462
,,,,,,,,,513,30.0262,0.0259014
,,,,,,,,,512,59.0821,0.0355741
,,,,,,,,,545,46.1217,0.0368891
,,,,,,,,,578,52.4713,0.0256461
