facetNormals:0,facetNormals:1,facetNormals:2,FacetCenters:0,FacetCenters:1,FacetCenters:2,FacetIds,relFacetSize,absFacetSize,cellPairingIds,interplanarAngles,angleWeights
-0.285876,0.190671,-0.921763,4.57705,3.92647,8.19994,1,0.0128159,0.00135148,8,31.4348,0.0177268
0.225564,0.328694,-0.889876,4.52555,3.99946,8.27491,2,0.0287393,0.00303067,13,36.9212,0.0133265
-0.320916,-0.422444,-0.824036,4.54953,3.9262,8.21692,3,0.0138794,0.00146364,19,66.855,0.0136941
-0.1058,-0.803102,-0.54221,4.5485,3.92159,8.22504,4,0.0147015,0.00155033,26,72.8446,0.0199962
0.801021,0.168853,-0.51855,4.59274,3.98661,8.22195,5,0.0454736,0.00479536,34,71.3903,0.0228487
-0.91827,-0.256599,-0.0945989,4.52852,3.95997,8.23243,6,0.105217,0.0110956,43,104.529,0.0231184
0.930781,-0.163934,-0.0688812,4.61131,3.98831,8.21127,7,0.117884,0.0124313,53,84.611,0.0188271
-0.419349,-0.871077,-0.148161,4.54476,3.93855,8.19129,8,0.0354587,0.00373925,64,92.2265,0.0225585
0.509117,0.769873,0.0396575,4.5872,4.06715,8.23178,9,0.0940704,0.00992008,76,129.781,0.0195031
0.900641,-0.117027,0.364831,4.63321,4.00777,8.19199,10,0.0407832,0.00430074,89,88.8011,0.0213854
-0.819809,0.433116,0.321932,4.51637,4.0287,8.28204,11,0.0645419,0.00680619,103,125.545,0.0196894
-0.0454155,-0.854327,0.431981,4.55246,3.91824,8.25011,12,0.0424642,0.00447801,118,139.61,0.0221628
0.528897,-0.651826,0.492036,4.5908,3.93631,8.24861,13,0.0818801,0.00863456,134,160.055,0.0208459
0.558079,-0.0345165,0.794126,4.59324,3.998,8.28659,14,0.0558225,0.00588669,151,130.196,0.0167979
-0.0575265,0.549201,0.80231,4.57462,4.04956,8.27841,15,0.0243699,0.00256989,169,148.861,0.019704
-0.231619,-0.153722,0.903715,4.53392,3.97702,8.31849,16,0.0425998,0.00449231,18,56.8873,0.0187188
,,,,,,,,,25,78.1821,0.0194523
,,,,,,,,,33,42.4125,0.0352198
,,,,,,,,,42,102.819,0.0451471
,,,,,,,,,52,76.3943,0.0462124
,,,,,,,,,63,105.139,0.0317474
,,,,,,,,,75,68.3326,0.0440278
,,,,,,,,,88,99.6493,0.033718
,,,,,,,,,102,110.109,0.0397699
,,,,,,,,,117,136.285,0.034279
,,,,,,,,,133,124.165,0.0425455
,,,,,,,,,150,128.701,0.0379439
,,,,,,,,,168,125.124,0.0263749
,,,,,,,,,187,169.656,0.0343231
,,,,,,,,,32,30.8644,0.0142786
,,,,,,,,,41,84.0217,0.0212676
,,,,,,,,,51,59.1839,0.0245238
,,,,,,,,,62,100.716,0.0248348
,,,,,,,,,74,49.3322,0.0199499
,,,,,,,,,87,125.153,0.0241898
,,,,,,,,,101,124.277,0.0207106
,,,,,,,,,116,101.098,0.0228459
,,,,,,,,,132,88.8097,0.0209209
,,,,,,,,,149,108.326,0.0237355
,,,,,,,,,167,149.354,0.0222313
,,,,,,,,,186,156.396,0.0176861
,,,,,,,,,206,130.795,0.0209373
,,,,,,,,,50,86.309,0.0222195
,,,,,,,,,61,67.6915,0.0257983
,,,,,,,,,73,85.6211,0.0261427
,,,,,,,,,86,30.1645,0.0207852
,,,,,,,,,100,140.379,0.0254289
,,,,,,,,,115,102.047,0.0216122
,,,,,,,,,131,117.088,0.023948
,,,,,,,,,148,60.735,0.0218413
,,,,,,,,,166,77.7807,0.0249273
,,,,,,,,,185,119.203,0.0232736
,,,,,,,,,205,156.401,0.0183394
,,,,,,,,,226,111.785,0.0218592
,,,,,,,,,72,141.818,0.0635023
,,,,,,,,,85,34.8469,0.0656304
,,,,,,,,,99,115.375,0.0398465
,,,,,,,,,114,54.7059,0.06131
,,,,,,,,,130,57.2929,0.0430009
,,,,,,,,,147,142.099,0.0533553
,,,,,,,,,165,115.829,0.0439174
,,,,,,,,,184,86.4459,0.0584731
,,,,,,,,,204,88.2092,0.0501194
,,,,,,,,,225,113.04,0.0317334
,,,,,,,,,247,137.927,0.0439898
,,,,,,,,,98,152.606,0.111191
,,,,,,,,,113,48.3636,0.053042
,,,,,,,,,129,139.076,0.0993321
,,,,,,,,,146,152.461,0.058782
,,,,,,,,,164,49.4616,0.0800066
,,,,,,,,,183,76.1346,0.0605082
,,,,,,,,,203,113.047,0.0920932
,,,,,,,,,224,128.456,0.0729446
,,,,,,,,,246,100.122,0.0395738
,,,,,,,,,269,79.4001,0.0606457
,,,,,,,,,128,104.836,0.0545186
,,,,,,,,,145,66.7955,0.10464
,,,,,,,,,163,26.1765,0.0606009
,,,,,,,,,182,157.017,0.0834143
,,,,,,,,,202,85.7044,0.0624373
,,,,,,,,,223,52.189,0.0966376
,,,,,,,,,245,59.2616,0.0757667
,,,,,,,,,268,102.441,0.04039
,,,,,,,,,292,106.378,0.0625837
,,,,,,,,,162,170.059,0.0515037
,,,,,,,,,181,110.153,0.037935
,,,,,,,,,201,94.8517,0.0457712
,,,,,,,,,222,41.7596,0.0386465
,,,,,,,,,244,73.3229,0.0494868
,,,,,,,,,267,109.791,0.0433691
,,,,,,,,,291,126.989,0.0288867
,,,,,,,,,316,83.9704,0.0387026
,,,,,,,,,200,64.9462,0.0568986
,,,,,,,,,221,94.5016,0.0765575
,,,,,,,,,243,138.557,0.0585145
,,,,,,,,,266,103.71,0.0875529
,,,,,,,,,290,71.2073,0.0700666
,,,,,,,,,315,61.7896,0.0387112
,,,,,,,,,341,103.265,0.0586431
,,,,,,,,,242,134.356,0.0499829
,,,,,,,,,265,76.6448,0.0416067
,,,,,,,,,289,39.7538,0.0544471
,,,,,,,,,314,33.0928,0.0471322
,,,,,,,,,340,79.3224,0.0305091
,,,,,,,,,367,81.3558,0.0416717
,,,,,,,,,288,101.885,0.0512255
,,,,,,,,,313,125.718,0.0721845
,,,,,,,,,339,103.147,0.0598664
,,,,,,,,,366,55.3643,0.0353806
,,,,,,,,,394,63.4885,0.051324
,,,,,,,,,338,36.9327,0.055925
,,,,,,,,,365,68.0999,0.0482356
,,,,,,,,,393,97.3861,0.0309677
,,,,,,,,,422,54.0314,0.0425319
,,,,,,,,,392,41.4409,0.0663858
,,,,,,,,,421,89.6157,0.0375606
,,,,,,,,,451,62.6709,0.0560424
,,,,,,,,,450,51.716,0.0339281
,,,,,,,,,481,49.7195,0.0483229
,,,,,,,,,512,44.7544,0.0310036
