facetNormals:0,facetNormals:1,facetNormals:2,FacetCenters:0,FacetCenters:1,FacetCenters:2,FacetIds,relFacetSize,absFacetSize,cellPairingIds,interplanarAngles,angleWeights
-0.184407,0.209822,-0.947384,4.03457,4.65301,8.97303,1,0.0230272,0.0020396,8,31.0871,0.0369673
-0.500557,-0.182686,-0.804808,4.00323,4.62328,8.98883,2,0.0936766,0.00829726,13,49.8892,0.0335596
0.40308,0.659895,-0.582635,4.03134,4.70941,8.99765,3,0.0618485,0.00547813,19,77.0669,0.0282108
-0.815206,-0.51473,-0.184362,3.96928,4.61896,9.02604,4,0.0364061,0.00322461,26,90.2925,0.0333643
-0.284373,-0.906375,-0.140275,4.0129,4.6024,9.01989,5,0.0605422,0.00536243,34,96.7918,0.0305601
0.685701,-0.685153,-0.164002,4.05241,4.59668,9.01332,6,0.0454175,0.00402278,43,78.9473,0.0236642
-0.987825,-0.0869666,-0.0252484,3.95445,4.66285,9.02698,7,0.0243375,0.00215566,53,71.7587,0.0285584
-0.839836,0.463977,-0.0472674,3.97389,4.71016,9.03112,8,0.0375868,0.0033292,64,98.3351,0.0382566
0.959376,-0.0878459,-0.0603118,4.07993,4.6491,9.03543,9,0.112974,0.0100065,76,85.2678,0.0201736
-0.627094,0.732144,0.199543,3.99112,4.72395,9.08768,10,0.0179493,0.00158983,89,118.237,0.0360699
-0.670256,-0.463923,0.499209,3.9919,4.61996,9.07215,11,0.083188,0.00736825,103,150.848,0.0388346
0.622876,-0.183083,0.722858,4.05162,4.65229,9.1024,12,0.123861,0.0109708,118,132.609,0.0253116
-0.466654,0.211364,0.820158,3.99725,4.69312,9.09978,13,0.0280991,0.00248884,134,161.8,0.0134721
-0.00054066,0.0395246,1.00385,3.99685,4.66041,9.0625,14,0.0095213,0.000843334,18,80.9752,0.0745057
,,,,,,,,,25,46.6421,0.0524343
,,,,,,,,,33,62.9969,0.0735499
,,,,,,,,,42,95.2044,0.0611752
,,,,,,,,,52,56.3413,0.038637
,,,,,,,,,63,66.2347,0.0536479
,,,,,,,,,75,116.494,0.102424
,,,,,,,,,88,88.8211,0.0301261
,,,,,,,,,102,88.8519,0.0881213
,,,,,,,,,117,156.511,0.106675
,,,,,,,,,133,119.887,0.0432308
,,,,,,,,,150,147.175,0.0172857
,,,,,,,,,32,126.167,0.0458332
,,,,,,,,,41,132.744,0.0611884
,,,,,,,,,51,94.8323,0.0523745
,,,,,,,,,62,117.324,0.03493
,,,,,,,,,74,90.296,0.0467578
,,,,,,,,,87,67.0859,0.0799356
,,,,,,,,,101,83.124,0.0278237
,,,,,,,,,116,159.555,0.0709484
,,,,,,,,,132,108.014,0.0825011
,,,,,,,,,149,124.217,0.0386423
,,,,,,,,,167,125.08,0.0165022
,,,,,,,,,50,39.7928,0.0454697
,,,,,,,,,61,100.514,0.0404155
,,,,,,,,,73,28.623,0.0291729
,,,,,,,,,86,61.1818,0.036987
,,,,,,,,,100,139.993,0.0550668
,,,,,,,,,115,84.205,0.0240441
,,,,,,,,,131,42.3732,0.0506471
,,,,,,,,,148,124.984,0.0562722
,,,,,,,,,166,82.7116,0.0317177
,,,,,,,,,185,101.997,0.0150948
,,,,,,,,,72,61.5991,0.0519004
,,,,,,,,,85,67.5807,0.0347185
,,,,,,,,,99,100.941,0.0463795
,,,,,,,,,114,101.497,0.0788363
,,,,,,,,,130,122.886,0.0276893
,,,,,,,,,147,53.8796,0.0700811
,,,,,,,,,165,96.931,0.0813307
,,,,,,,,,184,100.795,0.0383835
,,,,,,,,,204,100.541,0.0164548
,,,,,,,,,98,128.993,0.0316923
,,,,,,,,,113,159.745,0.0411328
,,,,,,,,,129,39.9093,0.0647887
,,,,,,,,,146,175.159,0.0257299
,,,,,,,,,164,103.766,0.0587563
,,,,,,,,,183,62.9768,0.0664639
,,,,,,,,,203,129.08,0.0347185
,,,,,,,,,224,101.215,0.0157424
,,,,,,,,,128,33.9523,0.0295448
,,,,,,,,,145,168.57,0.0400477
,,,,,,,,,163,55.6678,0.0206609
,,,,,,,,,182,43.32,0.0376579
,,,,,,,,,202,129.853,0.0406815
,,,,,,,,,223,63.9082,0.0260834
,,,,,,,,,245,91.6243,0.0136877
,,,,,,,,,162,155.475,0.0564069
,,,,,,,,,181,25.0227,0.0242961
,,,,,,,,,201,69.3345,0.0517786
,,,,,,,,,222,133.478,0.0576724
,,,,,,,,,244,60.9399,0.0321578
,,,,,,,,,267,91.7016,0.0151938
,,,,,,,,,200,135.518,0.0309769
,,,,,,,,,221,133.266,0.0958195
,,,,,,,,,243,52.5677,0.118167
,,,,,,,,,266,123.539,0.0450046
,,,,,,,,,290,93.8158,0.0175624
,,,,,,,,,242,78.9553,0.0295275
,,,,,,,,,265,113.435,0.0313548
,,,,,,,,,289,50.0674,0.0219056
,,,,,,,,,314,76.5766,0.0124424
,,,,,,,,,288,88.2533,0.0995296
,,,,,,,,,313,47.5264,0.0420087
,,,,,,,,,339,59.7922,0.0170869
,,,,,,,,,338,73.7131,0.0458066
,,,,,,,,,365,42.638,0.0176833
,,,,,,,,,392,31.0914,0.0142231
