Q	U	V
{$V$}	{[mm$^3$]}	0.00932858
{$d_v$}	{[mm]}	0.261179
{$S_c$}	{[mm$^2$]}	0.344157
{$S_o$}	{[mm$^2$]}	0.222025
{$S_l/S_o$}	[]	0.550082
{$\Psi$}	[]	0.622689
{$\eta$}	[]	0.647957
{med($\theta_e$)}	{[$^\circ$]}	58.33155
{$\Upsilon$}	[]	14
{$\Xi$}	[]	12
