facetNormals:0,facetNormals:1,facetNormals:2,FacetCenters:0,FacetCenters:1,FacetCenters:2,FacetIds,relFacetSize,absFacetSize,cellPairingIds,interplanarAngles,angleWeights
0.286306,0.125507,-0.895045,7.49243,4.14383,6.32561,1,0.0838966,0.00800917,8,49.4871,0.0461372
-0.48459,-0.0777768,-0.828574,7.43317,4.14593,6.33616,2,0.0318172,0.00303742,13,43.038,0.052877
0.141913,-0.551282,-0.778669,7.49673,4.11994,6.37313,3,0.0386038,0.0036853,19,73.9556,0.0749788
-0.696661,0.482291,-0.433908,7.39216,4.18235,6.3649,4,0.0677747,0.00647009,26,45.0893,0.0599245
-0.0131941,0.750802,-0.633768,7.45022,4.21051,6.36398,5,0.0466072,0.00444935,34,75.468,0.0264948
-0.591764,-0.587734,-0.535079,7.41819,4.11478,6.32878,6,0.0157314,0.00150179,43,54.8903,0.0497813
0.719659,-0.480998,-0.42461,7.52206,4.11799,6.35196,7,0.0353904,0.00337853,53,76.7765,0.0328653
0.246618,-0.904525,-0.285409,7.47319,4.10462,6.37044,8,0.0204352,0.00195084,64,88.3297,0.0588767
-0.397943,-0.844403,-0.275751,7.42343,4.14075,6.3947,9,0.0453518,0.00432949,76,75.7606,0.0971981
-0.257111,0.899995,-0.205736,7.4357,4.20553,6.3806,10,0.115512,0.0110273,89,109.184,0.0535302
-0.939912,0.0733832,0.0380423,7.4025,4.16826,6.41003,11,0.0393041,0.00375215,103,64.602,0.0909263
0.699811,0.668168,-0.125723,7.51762,4.18591,6.37547,12,0.0992416,0.00947408,118,113.074,0.0391858
0.0476084,-0.937121,0.291747,7.49114,4.09724,6.34891,13,0.0255627,0.00244034,134,103.159,0.0476731
0.716967,-0.520862,0.389764,7.52956,4.12914,6.39791,14,0.0332968,0.00317867,151,102.362,0.0822295
0.49751,0.675826,0.472282,7.47973,4.20415,6.45325,15,0.0806273,0.00769706,169,122.906,0.0314487
-0.177326,0.751853,0.617954,7.42935,4.20902,6.49347,16,0.0193513,0.00184736,188,137.432,0.0349226
-0.0337457,-0.734136,0.653391,7.47385,4.09264,6.33996,17,0.0220507,0.00210506,18,48.1872,0.0348835
,,,,,,,,,25,43.9864,0.0433047
,,,,,,,,,33,60.0013,0.0378176
,,,,,,,,,42,35.6101,0.0210533
,,,,,,,,,52,87.5005,0.0335088
,,,,,,,,,63,78.5517,0.0248866
,,,,,,,,,75,58.6987,0.0373976
,,,,,,,,,88,75.8854,0.0498919
,,,,,,,,,102,62.5941,0.0351665
,,,,,,,,,117,107.78,0.0481858
,,,,,,,,,133,101.701,0.0283491
,,,,,,,,,150,132.501,0.0325402
,,,,,,,,,168,137.615,0.0456284
,,,,,,,,,187,120.574,0.0240657
,,,,,,,,,207,119.612,0.0260486
,,,,,,,,,32,91.6771,0.0491897
,,,,,,,,,41,85.2964,0.0422296
,,,,,,,,,51,46.6036,0.0223535
,,,,,,,,,62,41.3678,0.0369273
,,,,,,,,,74,36.9049,0.0267239
,,,,,,,,,87,48.3658,0.0417066
,,,,,,,,,101,113.76,0.0578682
,,,,,,,,,116,102.918,0.0389508
,,,,,,,,,132,100.477,0.0555855
,,,,,,,,,149,71.7895,0.030758
,,,,,,,,,167,84.7533,0.0357544
,,,,,,,,,186,136.139,0.0522099
,,,,,,,,,206,164.807,0.0257797
,,,,,,,,,227,96.5896,0.0280685
,,,,,,,,,50,46.2969,0.0552323
,,,,,,,,,61,67.501,0.0255356
,,,,,,,,,73,126.746,0.0464997
,,,,,,,,,86,121.266,0.0314022
,,,,,,,,,100,90.641,0.054341
,,,,,,,,,115,39.6483,0.0854268
,,,,,,,,,131,41.4067,0.0497544
,,,,,,,,,148,96.8467,0.0805439
,,,,,,,,,166,130.84,0.0371235
,,,,,,,,,185,176.425,0.0446551
,,,,,,,,,205,104.245,0.0736444
,,,,,,,,,226,76.6141,0.0301064
,,,,,,,,,248,130.993,0.0332752
,,,,,,,,,72,95.5605,0.023523
,,,,,,,,,85,96.1519,0.0402316
,,,,,,,,,99,121.384,0.0284127
,,,,,,,,,114,118.336,0.0459709
,,,,,,,,,130,30.7254,0.0664165
,,,,,,,,,147,87.3177,0.0426452
,,,,,,,,,165,53.3641,0.063427
,,,,,,,,,184,157.048,0.0330167
,,,,,,,,,204,132.898,0.0388434
,,,,,,,,,225,77.7029,0.0590691
,,,,,,,,,247,79.6168,0.0273478
,,,,,,,,,270,176.879,0.0299374
,,,,,,,,,98,84.9541,0.0217809
,,,,,,,,,113,56.3302,0.0177774
,,,,,,,,,129,24.2626,0.0233598
,,,,,,,,,146,106.312,0.0276915
,,,,,,,,,164,58.1978,0.0224694
,,,,,,,,,183,139.9,0.0271578
,,,,,,,,,203,67.8898,0.0194767
,,,,,,,,,224,109.911,0.0213675
,,,,,,,,,246,171.738,0.0263262
,,,,,,,,,269,132.926,0.0173546
,,,,,,,,,293,84.0016,0.0183626
,,,,,,,,,128,39.0544,0.0259096
,,,,,,,,,145,75.3807,0.0397566
,,,,,,,,,163,125.045,0.0541809
,,,,,,,,,182,143.141,0.0372447
,,,,,,,,,202,75.4945,0.0521748
,,,,,,,,,223,67.5928,0.0296842
,,,,,,,,,245,49.9175,0.0343117
,,,,,,,,,268,100.398,0.0491896
,,,,,,,,,292,142.007,0.0250211
,,,,,,,,,317,86.8925,0.0271716
,,,,,,,,,162,38.7107,0.028175
,,,,,,,,,181,150.664,0.0347269
,,,,,,,,,201,109.524,0.0268898
,,,,,,,,,222,114.459,0.0338917
,,,,,,,,,244,36.2992,0.0227132
,,,,,,,,,267,55.5503,0.0253267
,,,,,,,,,291,131.343,0.0326063
,,,,,,,,,316,158.204,0.0198785
,,,,,,,,,342,60.8629,0.0212122
,,,,,,,,,200,130.106,0.0651318
,,,,,,,,,221,70.83,0.0421119
,,,,,,,,,243,148.301,0.0622543
,,,,,,,,,266,43.6628,0.0326961
,,,,,,,,,290,87.1394,0.0384004
,,,,,,,,,315,163.538,0.0580508
,,,,,,,,,341,139.732,0.0271274
,,,,,,,,,368,61.742,0.0296736
,,,,,,,,,242,70.6317,0.0586514
,,,,,,,,,265,61.4223,0.106761
,,,,,,,,,289,166.495,0.0418615
,,,,,,,,,314,142.22,0.0516929
,,,,,,,,,340,65.4688,0.0949675
,,,,,,,,,367,51.1162,0.0331492
,,,,,,,,,395,146.567,0.0370321
,,,,,,,,,288,131.791,0.0563078
,,,,,,,,,313,96.3421,0.0309779
,,,,,,,,,339,139.76,0.0360519
,,,,,,,,,366,116.123,0.0528466
,,,,,,,,,394,74.76,0.025934
,,,,,,,,,423,89.8332,0.0282515
,,,,,,,,,338,131.041,0.0406538
,,,,,,,,,365,83.6352,0.0498637
,,,,,,,,,393,38.0037,0.0889713
,,,,,,,,,422,71.8555,0.0323873
,,,,,,,,,452,128.424,0.0360838
,,,,,,,,,392,48.0482,0.0289216
,,,,,,,,,421,119.911,0.0388182
,,,,,,,,,451,123.233,0.0220275
,,,,,,,,,482,24.8267,0.0236771
,,,,,,,,,450,78.318,0.0471301
,,,,,,,,,481,106.868,0.0244771
,,,,,,,,,513,49.9283,0.0265312
,,,,,,,,,512,41.6551,0.0312115
,,,,,,,,,545,102.462,0.0346303
,,,,,,,,,578,98.4063,0.020613
