"cellPairingIds","interplanarAngles","angleWeights"
33,57.4989,0.0253206
63,81.3455,0.0707174
75,99.6631,0.0469827
117,119.875,0.0387131
85,63.7635,0.0278402
99,127.338,0.0290368
147,58.1021,0.0271485
165,137.286,0.0216782
184,62.4798,0.0289964
128,67.4977,0.0946374
182,51.186,0.0771483
162,38.2062,0.0616144
201,103.811,0.0870946
291,56.8698,0.0875124
243,51.6543,0.0358163
290,73.874,0.0403076
315,62.1708,0.0538487
313,68.7999,0.0867319
339,95.8549,0.049848
366,73.3378,0.0723466
338,87.6654,0.04802
365,44.8811,0.0340648
392,66.5629,0.0564537
450,57.6657,0.0499846
