facetNormals:0,facetNormals:1,facetNormals:2,FacetCenters:0,FacetCenters:1,FacetCenters:2,FacetIds,relFacetSize,absFacetSize,cellPairingIds,interplanarAngles,angleWeights
-0.042447,0.200364,-0.920081,6.36632,5.17442,9.63461,1,0.0495896,0.0180996,8,48.6699,0.0238074
-0.074021,-0.580956,-0.78657,6.37363,5.08088,9.65001,2,0.0156637,0.00571706,13,40.1872,0.0441251
0.565466,-0.000512844,-0.780542,6.41631,5.12821,9.67779,3,0.0397453,0.0145066,19,51.5444,0.037784
-0.476735,0.724864,-0.439919,6.33472,5.2468,9.6757,4,0.0305186,0.0111389,26,75.4394,0.0475465
0.801657,-0.362654,-0.360897,6.45256,5.10419,9.71177,5,0.045665,0.0166672,34,100.388,0.03673
0.745947,-0.634026,0.00836244,6.4156,5.09329,9.74219,6,0.0291665,0.0106454,43,73.7727,0.0488059
-0.909875,0.139056,-0.197235,6.28002,5.15396,9.70176,7,0.0480466,0.0175364,53,90.8653,0.0748021
0.795795,0.464559,0.0787615,6.44809,5.21214,9.74382,8,0.152167,0.0555392,64,107.582,0.0322754
-0.922011,-0.118832,0.321021,6.27566,5.12129,9.76441,9,0.0239228,0.00873153,76,106.561,0.0722452
-0.526666,0.641196,0.437908,6.31643,5.22018,9.75558,10,0.133014,0.0485485,89,125.538,0.0249591
-0.668292,-0.525823,0.505351,6.3048,5.07969,9.78482,11,0.0166762,0.00608662,103,140.848,0.0741207
0.0278851,-0.72281,0.575839,6.34724,5.0707,9.78579,12,0.146681,0.0535369,18,52.7295,0.0224714
,,,,,,,,,25,92.3911,0.020702
,,,,,,,,,33,62.1819,0.0233262
,,,,,,,,,42,71.3799,0.0203816
,,,,,,,,,52,81.1699,0.0236253
,,,,,,,,,63,115.521,0.0284036
,,,,,,,,,75,96.8612,0.0189317
,,,,,,,,,88,137.465,0.0280269
,,,,,,,,,102,92.5138,0.0161541
,,,,,,,,,117,92.2174,0.0283048
,,,,,,,,,32,85.5083,0.0345261
,,,,,,,,,41,36.6725,0.0425
,,,,,,,,,51,63.8686,0.0336439
,,,,,,,,,62,113.42,0.0435035
,,,,,,,,,74,64.1773,0.063028
,,,,,,,,,87,144.514,0.0298679
,,,,,,,,,101,135.045,0.0612028
,,,,,,,,,116,144.076,0.0234946
,,,,,,,,,132,119.095,0.0625435
,,,,,,,,,50,121.713,0.0365861
,,,,,,,,,61,149.301,0.0298272
,,,,,,,,,73,47.2696,0.0373273
,,,,,,,,,86,94.9286,0.0508406
,,,,,,,,,100,77.1853,0.0268211
,,,,,,,,,115,55.0202,0.0496463
,,,,,,,,,131,107.22,0.0215674
,,,,,,,,,148,151.524,0.0505249
,,,,,,,,,72,27.6273,0.035597
,,,,,,,,,85,142.335,0.0468255
,,,,,,,,,99,59.9026,0.0702486
,,,,,,,,,114,150.232,0.0313973
,,,,,,,,,130,155.632,0.0679888
,,,,,,,,,147,124.102,0.0244307
,,,,,,,,,165,84.9979,0.0696473
,,,,,,,,,98,146.503,0.0362982
,,,,,,,,,113,70.668,0.0489504
,,,,,,,,,129,129.29,0.0262856
,,,,,,,,,146,150.031,0.0478424
,,,,,,,,,164,99.5636,0.0212198
,,,,,,,,,183,57.684,0.0486577
,,,,,,,,,128,140.838,0.073033
,,,,,,,,,145,34.9246,0.0319416
,,,,,,,,,163,56.9247,0.0705937
,,,,,,,,,182,62.1309,0.024759
,,,,,,,,,202,105.97,0.0723834
,,,,,,,,,162,147.095,0.0413454
,,,,,,,,,181,95.7381,0.141947
,,,,,,,,,201,143.596,0.0300583
,,,,,,,,,222,108.283,0.149374
,,,,,,,,,200,53.4149,0.0405521
,,,,,,,,,221,30.1927,0.0196528
,,,,,,,,,243,74.3669,0.0411364
,,,,,,,,,242,75.2617,0.0296368
,,,,,,,,,265,105.101,0.139514
,,,,,,,,,288,44.4891,0.0299476
