Q	U	V
{$V$}	{[mm$^3$]}	0.00439355
{$d_v$}	{[mm]}	0.203207
{$S_c$}	{[mm$^2$]}	0.205956
{$S_o$}	{[mm$^2$]}	0.119537
{$S_l/S_o$}	[]	0.722948
{$\Psi$}	[]	0.629874
{$\eta$}	[]	0.689259
{med($\theta_e$)}	{[$^\circ$]}	49.5293
{$\Upsilon$}	[]	15
{$\Xi$}	[]	8
