Q	U	V
{$V$}	{[mm$^3$]}	0.00319542
{$d_v$}	{[mm]}	0.182744
{$S_c$}	{[mm$^2$]}	0.147436
{$S_o$}	{[mm$^2$]}	0.0875356
{$S_l/S_o$}	[]	0.684298
{$\Psi$}	[]	0.711594
{$\eta$}	[]	0.732460
{med($\theta_e$)}	{[$^\circ$]}	58.1842
{$\Upsilon$}	[]	16
{$\Xi$}	[]	5
