"cellPairingIds","interplanarAngles","angleWeights"
26,77.4686,0.0312269
34,79.4045,0.0320121
53,101.966,0.0276481
64,79.3287,0.0443646
76,75.2595,0.0448837
89,106.344,0.0438718
103,114.455,0.0267931
99,68.8299,0.0302099
147,57.1316,0.0506929
113,38.3488,0.0309442
129,79.2921,0.0535106
203,112.095,0.0522747
201,109.507,0.0418905
244,111.541,0.0415621
267,76.0692,0.0351885
200,36.8496,0.10278
266,64.4382,0.0958586
265,59.3169,0.0407962
289,62.9408,0.0983152
288,47.2312,0.0399585
339,70.2894,0.066475
338,47.4855,0.0396596
365,66.339,0.0338151
392,46.621,0.0656519
