facetNormals:0,facetNormals:1,facetNormals:2,FacetCenters:0,FacetCenters:1,FacetCenters:2,FacetIds,relFacetSize,absFacetSize,cellPairingIds,interplanarAngles,angleWeights
-0.13765,-0.630796,-0.705686,4.11576,3.85088,6.71082,1,0.0457563,0.0192525,8,92.1614,0.0455715
0.205765,0.692326,-0.610644,4.15004,4.07566,6.76904,2,0.0453882,0.0190976,13,51.9641,0.052576
-0.752886,-0.0837701,-0.569968,4.05824,3.91909,6.72569,3,0.0617847,0.0259967,19,58.0305,0.0368251
0.746484,-0.454929,-0.441897,4.20442,3.8692,6.77584,4,0.030811,0.0129641,26,33.1844,0.0176013
-0.458723,-0.827655,-0.295074,4.07204,3.8062,6.73101,5,0.0108965,0.00458482,34,118.07,0.0512907
0.743386,0.536546,-0.0393567,4.20892,4.0208,6.83129,6,0.0583481,0.0245507,43,108.384,0.0540656
-0.5549,0.741508,-0.1533,4.09472,4.03617,6.78828,7,0.0660625,0.0277966,53,136.72,0.0204388
0.21587,0.960625,0.0734297,4.1557,4.03319,6.87065,8,0.0131582,0.00553646,64,91.4555,0.0644049
0.910596,-0.229201,0.0596506,4.21054,3.90899,6.81943,9,0.108712,0.0457418,76,107.705,0.0404471
-0.876569,0.33758,0.272357,4.09773,4.00845,6.81061,10,0.0362419,0.0152492,89,75.5472,0.0535265
0.00369271,-0.846381,0.434068,4.17939,3.85473,6.80298,11,0.0644754,0.0271288,103,94.7713,0.0640262
-0.726649,-0.30737,0.523222,4.09183,3.91969,6.83678,12,0.106583,0.0448463,118,121.14,0.0396386
0.52896,-0.227595,0.779612,4.22856,3.93439,6.85196,13,0.0349639,0.0147115,134,152.998,0.0654772
-0.00187163,0.244278,0.849701,4.16785,3.99544,6.87137,14,0.115074,0.0484188,18,81.3317,0.0523322
,,,,,,,,,25,83.2754,0.0367053
,,,,,,,,,33,121.312,0.0175739
,,,,,,,,,42,50.8066,0.0510586
,,,,,,,,,52,56.287,0.0538078
,,,,,,,,,63,44.6217,0.0204018
,,,,,,,,,75,90.4982,0.0640393
,,,,,,,,,88,97.0147,0.0403026
,,,,,,,,,102,160.929,0.0532737
,,,,,,,,,117,139.594,0.0636649
,,,,,,,,,133,124.924,0.0394999
,,,,,,,,,150,114.754,0.0650994
,,,,,,,,,32,107.035,0.0411174
,,,,,,,,,41,51.6621,0.0185257
,,,,,,,,,51,132.009,0.0600172
,,,,,,,,,62,60.1437,0.063852
,,,,,,,,,74,107.718,0.0216958
,,,,,,,,,87,141.739,0.0787901
,,,,,,,,,101,59.078,0.0456854
,,,,,,,,,116,101.468,0.0631014
,,,,,,,,,132,72.1829,0.0782241
,,,,,,,,,149,153.674,0.0446566
,,,,,,,,,167,126.91,0.080401
,,,,,,,,,50,80.2463,0.0160993
,,,,,,,,,61,68.5823,0.0403271
,,,,,,,,,73,138.044,0.0420229
,,,,,,,,,86,108.591,0.0184409
,,,,,,,,,100,34.706,0.0480139
,,,,,,,,,115,165.692,0.0333065
,,,,,,,,,131,77.8573,0.0416965
,,,,,,,,,148,133.116,0.0478032
,,,,,,,,,166,80.6714,0.0327564
,,,,,,,,,185,124.299,0.0486074
,,,,,,,,,72,148.251,0.0183635
,,,,,,,,,85,109.717,0.0187073
,,,,,,,,,99,159.348,0.011921
,,,,,,,,,114,105.269,0.0198076
,,,,,,,,,130,87.497,0.0167553
,,,,,,,,,147,52.7473,0.0186423
,,,,,,,,,165,62.4975,0.0197716
,,,,,,,,,184,107.214,0.0166149
,,,,,,,,,204,121.053,0.0199078
,,,,,,,,,98,90.5733,0.0619661
,,,,,,,,,113,42.0265,0.0214738
,,,,,,,,,129,50.2921,0.0759383
,,,,,,,,,146,122.426,0.0447118
,,,,,,,,,164,122.459,0.0612589
,,,,,,,,,183,146.652,0.0754124
,,,,,,,,,203,74.3165,0.0437259
,,,,,,,,,224,83.1877,0.0774336
,,,,,,,,,128,51.1599,0.0219453
,,,,,,,,,145,140.791,0.0821834
,,,,,,,,,163,40.8028,0.046806
,,,,,,,,,182,141.229,0.0652593
,,,,,,,,,202,83.8578,0.0815678
,,,,,,,,,223,129.75,0.0457267
,,,,,,,,,245,86.4139,0.0839375
,,,,,,,,,162,91.1858,0.023475
,,,,,,,,,181,80.7592,0.0193067
,,,,,,,,,201,146.197,0.021856
,,,,,,,,,222,116.271,0.0234245
,,,,,,,,,244,92.8272,0.0191206
,,,,,,,,,267,70.1328,0.023616
,,,,,,,,,200,159.042,0.0543611
,,,,,,,,,221,75.5555,0.080944
,,,,,,,,,243,128.955,0.107637
,,,,,,,,,266,50.4774,0.0529107
,,,,,,,,,290,90.4827,0.111802
,,,,,,,,,242,100.576,0.0464014
,,,,,,,,,265,43.1321,0.0540911
,,,,,,,,,289,110.255,0.0355914
,,,,,,,,,314,68.5983,0.0551231
,,,,,,,,,288,57.4443,0.0803468
,,,,,,,,,313,54.6812,0.0453405
,,,,,,,,,339,78.8887,0.0826451
,,,,,,,,,338,84.1516,0.0526548
,,,,,,,,,365,63.6995,0.110666
,,,,,,,,,392,45.0071,0.0536323
