"cellPairingIds","interplanarAngles","angleWeights"
8,39.9491,0.022348
13,44.6372,0.0328688
19,43.6302,0.0332215
34,45.0388,0.0296616
64,58.8452,0.0523112
18,26.8996,0.0217031
25,57.9768,0.0218563
52,52.0689,0.0215956
63,86.4806,0.0216291
41,26.5792,0.0207218
51,49.7044,0.0285362
62,53.2205,0.0312666
86,45.3795,0.0316574
100,77.4411,0.0496945
131,58.3719,0.0220097
148,80.6726,0.0502149
72,33.6175,0.0193994
85,66.7026,0.0206238
130,50.9546,0.0199757
184,79.3118,0.0266192
129,39.8306,0.0421307
146,30.0924,0.0271402
128,96.9531,0.0311133
223,52.5536,0.0469672
268,53.4658,0.0461722
201,31.7406,0.0217793
267,53.235,0.0383825
291,80.7095,0.0463258
200,36.0284,0.044947
243,33.2137,0.111984
265,58.86,0.0453722
289,92.4091,0.0437359
367,67.2434,0.0388134
288,60.6389,0.0292044
339,47.7618,0.0250627
365,90.4431,0.069542
422,33.8296,0.0803493
421,41.0327,0.093135
451,96.5675,0.0753564
450,47.2771,0.0642219
481,68.9353,0.0552359
512,101.243,0.0733306
