Q	U	V
{$V$}	{[mm$^3$]}	0.00508227
{$d_v$}	{[mm]}	0.213314
{$S_c$}	{[mm$^2$]}	0.287292
{$S_o$}	{[mm$^2$]}	0.147237
{$S_l/S_o$}	[]	0.951222
{$\Psi$}	[]	0.497583
{$\eta$}	[]	0.524832
{med($\theta_e$)}	{[$^\circ$]}	82.3719
{$\Upsilon$}	[]	19
{$\Xi$}	[]	8
