"cellPairingIds","interplanarAngles","angleWeights"
41,40.9854,0.0460574
51,54.1824,0.044972
74,111.907,0.0495083
87,71.6498,0.104784
101,46.9388,0.0821821
99,84.2464,0.0297205
130,63.3057,0.0390378
113,134.007,0.0292648
129,29.88,0.042525
203,69.775,0.0340473
181,146.74,0.0414889
244,99.8023,0.0365851
267,129.688,0.0312477
291,127.124,0.035292
200,51.6162,0.0743624
266,63.0147,0.0599581
315,54.1437,0.0565616
314,57.8506,0.0417157
340,79.2752,0.0492502
421,51.0429,0.0424896
450,36.1279,0.035456
