Q	U	V
{$V$}	{[mm$^3$]}	0.00709618
{$d_v$}	{[mm]}	0.238420
{$S_c$}	{[mm$^2$]}	0.349345
{$S_o$}	{[mm$^2$]}	0.214
{$S_l/S_o$}	[]	0.632453
{$\Psi$}	[]	0.511186
{$\eta$}	[]	0.586672
{med($\theta_e$)}	{[$^\circ$]}	61.4165
{$\Upsilon$}	[]	15
{$\Xi$}	[]	16
