"cellPairingIds","interplanarAngles","angleWeights"
8,35.16,0.051363
13,86.7493,0.034344
19,92.6925,0.0162805
26,27.9368,0.0448893
43,43.8829,0.0426783
64,45.1345,0.0418934
76,134.282,0.0449351
89,113.754,0.02841
25,67.1273,0.0179558
33,28.7114,0.0604364
117,83.4813,0.0353451
32,28.8437,0.0153045
101,76.4261,0.0382094
115,92.1705,0.0171006
148,41.714,0.0142356
114,23.6949,0.0477392
165,103.296,0.0321541
204,57.7315,0.0600402
145,38.0543,0.0452463
182,81.8492,0.0299132
221,115.106,0.0295255
290,37.386,0.0547988
315,114.629,0.0260652
368,74.0012,0.0419851
242,36.1274,0.0310046
265,94.2676,0.0321776
340,42.6937,0.0272112
366,33.3649,0.0201231
365,92.1683,0.0352092
393,101.251,0.0206108
452,83.4551,0.0294369
513,37.6394,0.0512129
545,54.1748,0.0252251
