facetNormals:0,facetNormals:1,facetNormals:2,FacetCenters:0,FacetCenters:1,FacetCenters:2,FacetIds,relFacetSize,absFacetSize,cellPairingIds,interplanarAngles,angleWeights
-0.132921,0.121475,-0.981465,5.05913,5.27945,7.05264,1,0.00334604,0.000250406,8,37.9962,0.00635559
0.374233,0.431683,-0.757306,5.03326,5.3562,6.97412,2,0.0632013,0.00472977,13,65.117,0.0059977
0.774457,-0.236407,-0.55381,5.04291,5.31576,6.94551,3,0.0289014,0.00216288,19,69.4088,0.0049441
-0.502949,-0.746695,-0.372711,4.98826,5.3383,7.02314,4,0.00946419,0.000708267,26,44.6897,0.00625427
-0.309309,0.703526,-0.557117,5.00969,5.35037,7.0005,5,0.0478002,0.0035772,34,68.043,0.00534478
-0.855188,-0.362237,-0.300045,4.99206,5.33859,7.00118,6,0.0132739,0.000993374,43,82.1947,0.00651058
0.910644,0.224215,-0.22887,5.0465,5.35161,6.97748,7,0.120031,0.00898268,53,88.6552,0.00525612
0.11521,-0.944119,-0.155452,4.97119,5.34524,7.02398,8,0.0122478,0.000916579,64,84.6544,0.00650295
-0.146933,0.954243,0.04645,4.95633,5.42065,7.01964,9,0.115054,0.00861021,76,88.0451,0.00653875
0.478238,0.856537,0.00722026,4.99496,5.42015,7.00373,10,0.142697,0.0106789,89,101.489,0.00428576
-0.742433,-0.611898,0.2249,4.99579,5.3307,7.03011,11,0.00595944,0.000445984,103,96.8855,0.00572857
-0.875255,0.317178,0.276151,4.95331,5.37155,7.06745,12,0.0198942,0.00148881,118,124.664,0.0062636
0.734387,0.394642,0.516496,5.02521,5.38159,7.0588,13,0.0489135,0.00366051,134,134.851,0.00579852
0.790998,-0.0744655,0.595681,5.04712,5.33367,7.04422,14,0.0217133,0.00162495,151,147.835,0.00636492
0.462351,-0.469877,0.718326,5.02456,5.3096,7.04798,15,0.0650992,0.0048718,169,175.567,0.00635424
0.200046,-0.129005,0.931313,4.98544,5.36011,7.08401,16,0.0629356,0.00470988,188,151.053,0.00593316
-0.168445,0.262625,0.917472,4.97304,5.38511,7.09068,17,0.0261591,0.00195766,18,49.2739,0.0396646
,,,,,,,,,25,104.299,0.0164631
,,,,,,,,,33,47.3691,0.0544323
,,,,,,,,,42,105.613,0.0219399
,,,,,,,,,52,48.1572,0.0828032
,,,,,,,,,63,105.656,0.0205191
,,,,,,,,,75,69.4573,0.0815859
,,,,,,,,,88,54.2857,0.0876028
,,,,,,,,,102,139.461,0.0108919
,,,,,,,,,117,115.72,0.0302625
,,,,,,,,,133,86.6697,0.055147
,,,,,,,,,150,101.465,0.0323221
,,,,,,,,,168,128.346,0.0641362
,,,,,,,,,187,138.8,0.0630682
,,,,,,,,,207,134.511,0.0370028
,,,,,,,,,32,90.3942,0.014259
,,,,,,,,,41,95.9996,0.0360225
,,,,,,,,,51,115.387,0.0181924
,,,,,,,,,62,34.657,0.0465857
,,,,,,,,,74,65.07,0.0172046
,,,,,,,,,87,112.646,0.0461979
,,,,,,,,,101,80.1955,0.0480674
,,,,,,,,,116,124.923,0.00988136
,,,,,,,,,132,161.958,0.0235665
,,,,,,,,,149,78.6457,0.0363341
,,,,,,,,,167,72.0448,0.024797
,,,,,,,,,186,85.7226,0.0400308
,,,,,,,,,206,110.507,0.0396121
,,,,,,,,,227,137.477,0.027462
,,,,,,,,,50,100.095,0.0158
,,,,,,,,,61,31.3195,0.0110499
,,,,,,,,,73,125.045,0.017545
,,,,,,,,,86,41.3477,0.0106775
,,,,,,,,,100,134.142,0.0174897
,,,,,,,,,115,157.446,0.0177511
,,,,,,,,,131,39.1597,0.00731362
,,,,,,,,,148,83.9058,0.0128265
,,,,,,,,,166,153.68,0.0158597
,,,,,,,,,185,125.673,0.0131825
,,,,,,,,,205,99.049,0.0165258
,,,,,,,,,226,112.035,0.016454
,,,,,,,,,248,118.692,0.0138996
,,,,,,,,,72,78.9961,0.0207779
,,,,,,,,,85,89.7762,0.0683723
,,,,,,,,,99,132.095,0.0194992
,,,,,,,,,114,41.1474,0.0675401
,,,,,,,,,130,61.0567,0.0716119
,,,,,,,,,147,110.35,0.0105976
,,,,,,,,,165,68.3526,0.0280952
,,,,,,,,,184,104.766,0.0483504
,,,,,,,,,204,131.854,0.0298618
,,,,,,,,,225,160.764,0.0551244
,,,,,,,,,247,137.386,0.0543335
,,,,,,,,,270,107.348,0.0338135
,,,,,,,,,98,147.126,0.0239043
,,,,,,,,,113,72.0356,0.0127402
,,,,,,,,,129,104.358,0.0238018
,,,,,,,,,146,138.89,0.0242885
,,,,,,,,,164,35.0866,0.00822583
,,,,,,,,,183,54.4706,0.0159234
,,,,,,,,,203,165.323,0.0208812
,,,,,,,,,224,148.71,0.0164758
,,,,,,,,,246,117.591,0.0220515
,,,,,,,,,269,115.492,0.0219238
,,,,,,,,,293,103.847,0.0176113
,,,,,,,,,128,94.3886,0.0222274
,,,,,,,,,145,85.7273,0.117489
,,,,,,,,,163,48.6318,0.130386
,,,,,,,,,182,155.045,0.0113551
,,,,,,,,,202,147.333,0.0341313
,,,,,,,,,223,47.5479,0.0695037
,,,,,,,,,245,53.7165,0.0367743
,,,,,,,,,268,80.7506,0.0844154
,,,,,,,,,292,93.7013,0.0825748
,,,,,,,,,317,108.995,0.0429565
,,,,,,,,,162,173.232,0.0221388
,,,,,,,,,181,142.962,0.0225592
,,,,,,,,,201,61.3044,0.00801768
,,,,,,,,,222,118.269,0.0151614
,,,,,,,,,244,112.932,0.0195902
,,,,,,,,,267,85.8752,0.0156614
,,,,,,,,,291,65.7963,0.0206167
,,,,,,,,,316,89.9957,0.0205051
,,,,,,,,,342,116.039,0.016684
,,,,,,,,,200,37.9838,0.127393
,,,,,,,,,221,119.093,0.0113319
,,,,,,,,,243,61.7618,0.0339227
,,,,,,,,,266,72.0173,0.0686439
,,,,,,,,,290,99.5722,0.0365322
,,,,,,,,,315,120.828,0.0831505
,,,,,,,,,341,96.7516,0.0813641
,,,,,,,,,368,70.1561,0.0426265
,,,,,,,,,242,154.871,0.0114411
,,,,,,,,,265,98.7497,0.0349199
,,,,,,,,,289,43.9254,0.0728541
,,,,,,,,,314,70.8976,0.0376914
,,,,,,,,,340,100.614,0.0894093
,,,,,,,,,367,90.4924,0.0873471
,,,,,,,,,395,80.86,0.0442131
,,,,,,,,,288,57.3338,0.00917149
,,,,,,,,,313,133.789,0.0106244
,,,,,,,,,339,114.556,0.0093521
,,,,,,,,,366,83.6942,0.0109193
,,,,,,,,,394,81.5312,0.0108879
,,,,,,,,,423,79.7304,0.00970739
,,,,,,,,,338,113.187,0.0282844
,,,,,,,,,365,124.882,0.020764
,,,,,,,,,393,112.045,0.0304752
,,,,,,,,,422,87.4718,0.0302319
,,,,,,,,,452,59.0402,0.0226005
,,,,,,,,,392,28.0875,0.0300757
,,,,,,,,,421,56.6883,0.0558575
,,,,,,,,,451,52.2604,0.0550456
,,,,,,,,,482,61.4782,0.0340879
,,,,,,,,,450,31.144,0.0325649
,,,,,,,,,481,40.7967,0.0322873
,,,,,,,,,513,65.8484,0.0237298
,,,,,,,,,512,28.6937,0.0639991
,,,,,,,,,545,61.02,0.0373213
,,,,,,,,,578,32.3579,0.0369571
