Q	U	V
{$V$}	{[mm$^3$]}	0.00448024
{$d_v$}	{[mm]}	0.204535
{$S_c$}	{[mm$^2$]}	0.283479
{$S_o$}	{[mm$^2$]}	0.152963
{$S_l/S_o$}	[]	0.853252
{$\Psi$}	[]	0.463622
{$\eta$}	[]	0.483644
{med($\theta_e$)}	{[$^\circ$]}	115.331
{$\Upsilon$}	[]	11
{$\Xi$}	[]	4
