Q	U	V
{$V$}	{[mm$^3$]}	0.00547413
{$d_v$}	{[mm]}	0.218661
{$S_c$}	{[mm$^2$]}	0.272646
{$S_o$}	{[mm$^2$]}	0.144574
{$S_l/S_o$}	[]	0.885858
{$\Psi$}	[]	0.550928
{$\eta$}	[]	0.610205
{med($\theta_e$)}	{[$^\circ$]}	66.0471
{$\Upsilon$}	[]	17
{$\Xi$}	[]	4
