facetNormals:0,facetNormals:1,facetNormals:2,FacetCenters:0,FacetCenters:1,FacetCenters:2,FacetIds,relFacetSize,absFacetSize,cellPairingIds,interplanarAngles,angleWeights
-0.171201,-0.236398,-0.946256,7.34839,6.86487,5.48191,1,0.0323002,0.00267174,8,24.7041,0.046542
-0.384737,0.116699,-0.875249,7.33876,6.93694,5.49368,2,0.0832481,0.00688595,13,40.9,0.0464307
0.444024,0.054252,-0.862224,7.42515,6.94868,5.49602,3,0.0825402,0.00682739,19,50.2707,0.0208998
0.184884,0.517706,-0.827018,7.37739,7.00503,5.51302,4,0.0154476,0.00127776,26,52.4385,0.0407262
-0.226141,0.603717,-0.732347,7.36422,6.99209,5.50426,5,0.0550999,0.00455765,34,53.5953,0.0367856
-0.819316,-0.388456,-0.360827,7.29875,6.91996,5.53997,6,0.0427178,0.00353344,43,69.8086,0.0412672
-0.85672,0.376043,-0.293085,7.31123,6.94234,5.55676,7,0.0571266,0.00472529,53,101.283,0.0452762
0.582812,0.770666,-0.0990948,7.42049,7.01196,5.56333,8,0.0756791,0.00625988,64,90.363,0.0263634
-0.731581,0.664361,-0.0270581,7.29356,6.96261,5.57916,9,0.0222702,0.0018421,76,101.52,0.0304227
0.161604,0.970869,-0.0656243,7.40389,7.02011,5.55107,10,0.0287516,0.00237822,89,102.229,0.0363009
-0.867739,-0.13502,0.405099,7.29695,6.95493,5.5841,11,0.0414328,0.00342716,103,121.837,0.0497171
-0.652071,0.46948,0.532944,7.32191,6.97974,5.61947,12,0.107898,0.0089249,118,142.114,0.0468941
0.432566,0.661625,0.553442,7.41496,6.99831,5.60776,13,0.0855457,0.007076,134,157.879,0.0421261
0.432842,-0.0226097,0.867301,7.38175,6.94743,5.64845,14,0.0605439,0.00500795,151,139.7,0.0232104
-0.442024,-0.0575559,0.885792,7.32532,6.91928,5.65387,15,0.0181131,0.00149824,18,50.8913,0.0828926
,,,,,,,,,25,41.7915,0.0260595
,,,,,,,,,33,31.8276,0.0663105
,,,,,,,,,42,51.456,0.0564625
,,,,,,,,,52,48.1524,0.0677569
,,,,,,,,,63,92.9141,0.0792834
,,,,,,,,,75,66.3033,0.0351399
,,,,,,,,,88,83.4387,0.0427415
,,,,,,,,,102,92.2437,0.0553285
,,,,,,,,,117,99.9708,0.0939836
,,,,,,,,,133,128.11,0.0843812
,,,,,,,,,150,173.725,0.0701035
,,,,,,,,,168,129.844,0.0297526
,,,,,,,,,32,31.4102,0.0260246
,,,,,,,,,41,53.4957,0.0660848
,,,,,,,,,51,94.4625,0.0562987
,,,,,,,,,62,96.469,0.0675213
,,,,,,,,,74,65.8477,0.0789609
,,,,,,,,,87,106.048,0.0350764
,,,,,,,,,101,79.1105,0.0426476
,,,,,,,,,116,142.163,0.0551712
,,,,,,,,,132,140.588,0.0935308
,,,,,,,,,149,105.42,0.084016
,,,,,,,,,167,126.246,0.0698513
,,,,,,,,,186,179.263,0.0297071
,,,,,,,,,50,25.2398,0.0241301
,,,,,,,,,61,93.2045,0.02269
,,,,,,,,,73,73.3684,0.024319
,,,,,,,,,86,52.3874,0.0256579
,,,,,,,,,100,76.3869,0.0182418
,,,,,,,,,115,53.2005,0.0200973
,,,,,,,,,131,126.063,0.0225046
,,,,,,,,,148,109.414,0.0270259
,,,,,,,,,166,92.1054,0.0261695
,,,,,,,,,185,132.376,0.0246148
,,,,,,,,,205,149,0.0166745
,,,,,,,,,72,76.949,0.0481251
,,,,,,,,,85,48.3766,0.056095
,,,,,,,,,99,64.6302,0.0637704
,,,,,,,,,114,52.5627,0.0317199
,,,,,,,,,130,51.6122,0.0377861
,,,,,,,,,147,101.118,0.0472989
,,,,,,,,,165,87.5268,0.0729478
,,,,,,,,,184,96.3235,0.0670275
,,,,,,,,,204,142.123,0.0576938
,,,,,,,,,225,127.092,0.0272638
,,,,,,,,,98,46.254,0.0488825
,,,,,,,,,113,141.432,0.0546103
,,,,,,,,,129,68.6597,0.0292772
,,,,,,,,,146,120.313,0.0343701
,,,,,,,,,164,49.1573,0.0420655
,,,,,,,,,183,80.2356,0.0612042
,,,,,,,,,203,149.466,0.0569815
,,,,,,,,,224,134.127,0.0500921
,,,,,,,,,246,86.1547,0.0254394
,,,,,,,,,128,100.924,0.065107
,,,,,,,,,145,24.1374,0.0320472
,,,,,,,,,163,75.272,0.0382514
,,,,,,,,,182,52.7525,0.0480302
,,,,,,,,,202,52.2312,0.0747022
,,,,,,,,,223,107.468,0.0685057
,,,,,,,,,245,131.792,0.0587856
,,,,,,,,,268,84.2483,0.0275052
,,,,,,,,,162,84.7233,0.0344135
,,,,,,,,,181,27.6215,0.0416716
,,,,,,,,,201,133.78,0.0535487
,,,,,,,,,222,94.3501,0.0889613
,,,,,,,,,244,41.0197,0.0803105
,,,,,,,,,267,80.903,0.0672707
,,,,,,,,,291,113.87,0.0292302
,,,,,,,,,200,57.1787,0.0250992
,,,,,,,,,221,56.0344,0.0289693
,,,,,,,,,243,35.6521,0.0369201
,,,,,,,,,266,83.4919,0.0353402
,,,,,,,,,290,111.748,0.0325627
,,,,,,,,,315,74.549,0.0199777
,,,,,,,,,242,108.196,0.0339465
,,,,,,,,,265,70.6292,0.0454043
,,,,,,,,,289,44.7549,0.0430382
,,,,,,,,,314,90.5343,0.0389881
,,,,,,,,,340,100.928,0.0222249
,,,,,,,,,288,39.614,0.059874
,,,,,,,,,313,104.933,0.0558267
,,,,,,,,,339,91.2954,0.0491976
,,,,,,,,,366,38.5352,0.0252067
,,,,,,,,,338,69.6526,0.0954304
,,,,,,,,,365,79.5622,0.0775646
,,,,,,,,,393,39.919,0.031019
,,,,,,,,,392,45.7998,0.0709054
,,,,,,,,,421,74.1746,0.0298961
,,,,,,,,,450,53.0296,0.0278841
