Q	U	V
{$V$}	{[mm$^3$]}	0.00497421
{$d_v$}	{[mm]}	0.211791
{$S_c$}	{[mm$^2$]}	0.223876
{$S_o$}	{[mm$^2$]}	0.148231
{$S_l/S_o$}	[]	0.510318
{$\Psi$}	[]	0.629447
{$\eta$}	[]	0.645447
{med($\theta_e$)}	{[$^\circ$]}	58.0369
{$\Upsilon$}	[]	16
{$\Xi$}	[]	7
