facetNormals:0,facetNormals:1,facetNormals:2,FacetCenters:0,FacetCenters:1,FacetCenters:2,FacetIds,relFacetSize,absFacetSize,cellPairingIds,interplanarAngles,angleWeights
0.232461,-0.35837,-0.879678,5.77274,5.50191,5.82065,1,0.0100895,0.00151035,8,71.8013,0.0180182
-0.27501,0.653597,-0.680048,5.71617,5.56898,5.87557,2,0.084131,0.012594,13,63.7187,0.0181669
0.152129,0.661904,-0.71477,5.77392,5.58014,5.86849,3,0.0910934,0.0136362,19,26.6404,0.0134659
0.344923,-0.686571,-0.594408,5.78484,5.49251,5.83405,4,0.0202387,0.00302962,26,54.2373,0.0163318
-0.118726,-0.915076,-0.286268,5.72649,5.47674,5.85416,5,0.042831,0.00641157,34,100.491,0.0186017
-0.872033,0.360386,-0.182713,5.67509,5.57649,5.93952,6,0.118987,0.0178117,43,97.3119,0.0177523
-0.772961,-0.553894,0.157768,5.69465,5.51613,5.91401,7,0.0738076,0.0110486,53,116.295,0.0147518
-0.947563,-0.0907778,0.274444,5.67898,5.55641,5.97051,8,0.0274246,0.00410532,64,130.512,0.0143152
-0.740855,0.592661,0.276388,5.72578,5.66043,5.97666,9,0.024631,0.00368713,76,149.19,0.0171808
-0.114188,0.744189,0.565946,5.74436,5.65036,6.02758,10,0.0578153,0.00865464,89,109.918,0.0160887
0.778194,0.427706,0.400283,5.80196,5.62944,5.99785,11,0.0396851,0.00594064,103,144.882,0.0137501
-0.736878,0.159685,0.638803,5.69496,5.59816,6.02926,12,0.0215794,0.00323033,118,122.545,0.0168677
-0.207772,-0.569074,0.75655,5.74432,5.56319,5.97702,13,0.0513942,0.00769344,134,103.712,0.0174944
0.499531,-0.526358,0.593462,5.76354,5.56767,6.00894,14,0.0657478,0.0098421,18,25.1527,0.0874739
,,,,,,,,,25,98.3968,0.0326283
,,,,,,,,,33,112.992,0.0567636
,,,,,,,,,42,50.5792,0.0985683
,,,,,,,,,52,105.729,0.0786319
,,,,,,,,,63,89.1392,0.0413652
,,,,,,,,,75,65.4656,0.0381058
,,,,,,,,,88,81.741,0.0685338
,,,,,,,,,102,102.472,0.0539307
,,,,,,,,,117,97.5399,0.0343485
,,,,,,,,,133,150.562,0.0638087
,,,,,,,,,150,163.92,0.073812
,,,,,,,,,32,88.6303,0.0331191
,,,,,,,,,41,116.104,0.058266
,,,,,,,,,51,75.5492,0.103188
,,,,,,,,,62,128.912,0.0815445
,,,,,,,,,74,114.2,0.0421574
,,,,,,,,,87,85.1707,0.038777
,,,,,,,,,101,85.6346,0.0707358
,,,,,,,,,116,83.1001,0.0552851
,,,,,,,,,132,118.372,0.0348929
,,,,,,,,,149,173.268,0.0657134
,,,,,,,,,167,138.908,0.0763727
,,,,,,,,,50,36.1877,0.0274884
,,,,,,,,,61,118.09,0.0345933
,,,,,,,,,73,88.7824,0.0317667
,,,,,,,,,86,116.383,0.02329
,,,,,,,,,100,149.454,0.0222199
,,,,,,,,,115,165.726,0.0299819
,,,,,,,,,131,106.148,0.0268065
,,,,,,,,,148,140.761,0.0208876
,,,,,,,,,166,97.9767,0.0290411
,,,,,,,,,185,78.5405,0.0309502
,,,,,,,,,72,100.797,0.0629884
,,,,,,,,,85,53.5371,0.0542059
,,,,,,,,,99,82.9782,0.0334386
,,,,,,,,,114,123.973,0.031276
,,,,,,,,,130,155.712,0.0492077
,,,,,,,,,147,129.483,0.041198
,,,,,,,,,165,104.652,0.0286993
,,,,,,,,,184,69.4407,0.0467234
,,,,,,,,,204,73.8142,0.0518709
,,,,,,,,,98,61.2497,0.0911036
,,,,,,,,,113,38.664,0.0445753
,,,,,,,,,129,31.5746,0.0408134
,,,,,,,,,146,73.02,0.0778187
,,,,,,,,,164,129.671,0.059519
,,,,,,,,,183,52.101,0.0365332
,,,,,,,,,203,100.024,0.071783
,,,,,,,,,224,144.527,0.0846958
,,,,,,,,,128,30.1189,0.0399902
,,,,,,,,,145,72.4021,0.0369358
,,,,,,,,,163,104.978,0.0648399
,,,,,,,,,182,145.661,0.0516167
,,,,,,,,,202,52.346,0.033395
,,,,,,,,,223,50.428,0.0605947
,,,,,,,,,245,90.0597,0.069545
,,,,,,,,,162,42.3013,0.0259529
,,,,,,,,,181,77.8768,0.0372024
,,,,,,,,,201,133.675,0.0324349
,,,,,,,,,222,28.6588,0.0241534
,,,,,,,,,244,61.6351,0.0357647
,,,,,,,,,267,106.431,0.0387048
,,,,,,,,,200,42.8773,0.0345449
,,,,,,,,,221,102.749,0.0303962
,,,,,,,,,243,33.2011,0.0230045
,,,,,,,,,266,88.4587,0.0333019
,,,,,,,,,290,124,0.0358366
,,,,,,,,,242,60.1976,0.0470645
,,,,,,,,,265,52.6641,0.0314283
,,,,,,,,,289,88.2177,0.0544159
,,,,,,,,,314,97.3452,0.0615269
,,,,,,,,,288,105.019,0.0279568
,,,,,,,,,313,96.2179,0.044787
,,,,,,,,,339,63.9383,0.0494951
,,,,,,,,,338,55.2806,0.0303961
,,,,,,,,,365,94.5221,0.0324939
,,,,,,,,,392,44.7971,0.0576916
