Q	U	V
{$V$}	{[mm$^3$]}	0.00351247
{$d_v$}	{[mm]}	0.188598
{$S_c$}	{[mm$^2$]}	0.195552
{$S_o$}	{[mm$^2$]}	0.117596
{$S_l/S_o$}	[]	0.662914
{$\Psi$}	[]	0.571431
{$\eta$}	[]	0.626059
{med($\theta_e$)}	{[$^\circ$]}	59.4131
{$\Upsilon$}	[]	14
{$\Xi$}	[]	8
