Q	U	V
{$V$}	{[mm$^3$]}	0.00708906
{$d_v$}	{[mm]}	0.238340
{$S_c$}	{[mm$^2$]}	0.322347
{$S_o$}	{[mm$^2$]}	0.185256
{$S_l/S_o$}	[]	0.740008
{$\Psi$}	[]	0.55363
{$\eta$}	[]	0.583266
{med($\theta_e$)}	{[$^\circ$]}	61.274
{$\Upsilon$}	[]	14
{$\Xi$}	[]	13
