facetNormals:0,facetNormals:1,facetNormals:2,FacetCenters:0,FacetCenters:1,FacetCenters:2,FacetIds,relFacetSize,absFacetSize,cellPairingIds,interplanarAngles,angleWeights
-0.399571,-0.238583,-0.870732,5.29874,3.61149,8.56965,1,0.0494503,0.0039294,8,23.6151,0.038889
-0.721406,-0.108064,-0.66446,5.28908,3.60182,8.57985,2,0.0320451,0.00254635,13,29.6502,0.0739018
-0.405727,-0.655441,-0.591954,5.29489,3.55246,8.61248,3,0.146186,0.0116162,19,57.4222,0.0601274
-0.206432,0.661135,-0.67828,5.35159,3.66804,8.56723,4,0.0766848,0.0060935,26,77.8583,0.0296353
0.431144,0.641311,-0.608079,5.4076,3.69006,8.58937,5,0.0211575,0.00168121,34,82.1575,0.0754398
0.811871,-0.232178,-0.457533,5.41485,3.61717,8.59358,6,0.159011,0.0126353,43,49.7591,0.0681513
-0.922207,-0.036237,-0.271556,5.23839,3.60636,8.64894,7,0.109599,0.00870894,53,81.9824,0.0468512
0.495984,-0.828131,-0.155317,5.37923,3.55339,8.60506,8,0.0445117,0.00353697,64,110.967,0.0395979
0.975909,-0.107227,-0.0200277,5.42329,3.61794,8.6437,9,0.0330193,0.00262376,76,91.3828,0.0393894
0.158572,-0.949377,0.214348,5.35227,3.53382,8.65749,10,0.0327303,0.00260081,89,91.7071,0.0518604
-0.306538,-0.840337,0.404077,5.26435,3.53574,8.69827,11,0.0545176,0.00433206,103,125.335,0.0432742
0.637797,-0.542246,0.493014,5.40343,3.58442,8.65714,12,0.0384696,0.00305686,118,159.712,0.0112428
0.589326,-0.0452168,0.7986,5.36098,3.53722,8.67961,13,0.00634237,0.000503975,18,37.8889,0.0525671
,,,,,,,,,25,56.4846,0.0452014
,,,,,,,,,33,88.5996,0.0254872
,,,,,,,,,42,105.71,0.0533406
,,,,,,,,,52,26.4848,0.0495906
,,,,,,,,,63,99.8547,0.0372634
,,,,,,,,,75,134.499,0.0325249
,,,,,,,,,88,99.1202,0.0323841
,,,,,,,,,102,87.4284,0.0403643
,,,,,,,,,117,139.514,0.0349647
,,,,,,,,,133,165.922,0.010589
,,,,,,,,,32,86.8405,0.100599
,,,,,,,,,41,104.254,0.036965
,,,,,,,,,51,84.2438,0.152329
,,,,,,,,,62,53.31,0.125276
,,,,,,,,,74,62.8586,0.068244
,,,,,,,,,87,109.196,0.0538707
,,,,,,,,,101,63.2729,0.0534855
,,,,,,,,,116,62.8062,0.0794177
,,,,,,,,,132,101.931,0.0609103
,,,,,,,,,149,134.949,0.0121573
,,,,,,,,,50,38.3633,0.0331647
,,,,,,,,,61,90.6623,0.10347
,,,,,,,,,73,67.9178,0.0902342
,,,,,,,,,86,125.066,0.0563279
,,,,,,,,,100,105.773,0.0461619
,,,,,,,,,115,147.449,0.0458788
,,,,,,,,,131,143.651,0.0637286
,,,,,,,,,148,151.103,0.0512361
,,,,,,,,,166,136.033,0.0117158
,,,,,,,,,72,59.4974,0.0373458
,,,,,,,,,85,105.683,0.035468
,,,,,,,,,99,103.4,0.0286818
,,,,,,,,,114,67.8434,0.0257898
,,,,,,,,,130,133.773,0.0257012
,,,,,,,,,147,161.783,0.0304844
,,,,,,,,,165,112.953,0.0273003
,,,,,,,,,184,105.466,0.00975922
,,,,,,,,,98,131.818,0.12976
,,,,,,,,,113,44.8239,0.0695535
,,,,,,,,,129,28.8098,0.0546833
,,,,,,,,,146,74.6254,0.0542865
,,,,,,,,,164,104.664,0.0811966
,,,,,,,,,183,63.3761,0.0619513
,,,,,,,,,203,82.5592,0.0121982
,,,,,,,,,128,114.176,0.0633109
,,,,,,,,,145,160.526,0.0507492
,,,,,,,,,163,100.326,0.0504072
,,,,,,,,,182,77.56,0.0728151
,,,,,,,,,202,138.722,0.0569497
,,,,,,,,,223,142.54,0.0119908
,,,,,,,,,162,53.1388,0.0379137
,,,,,,,,,181,30.4011,0.0377226
,,,,,,,,,201,59.9116,0.0490092
,,,,,,,,,222,43.518,0.0412707
,,,,,,,,,244,77.7743,0.0111027
,,,,,,,,,200,74.9,0.0328742
,,,,,,,,,221,103.019,0.0411285
,,,,,,,,,243,45.3305,0.0355367
,,,,,,,,,266,54.6854,0.0106408
,,,,,,,,,242,30.2856,0.0409037
,,,,,,,,,265,41.1302,0.0353687
,,,,,,,,,289,71.7044,0.0106257
,,,,,,,,,288,61.2014,0.0451088
,,,,,,,,,313,79.3608,0.0113628
,,,,,,,,,338,34.6444,0.0108894
