facetNormals:0,facetNormals:1,facetNormals:2,FacetCenters:0,FacetCenters:1,FacetCenters:2,FacetIds,relFacetSize,absFacetSize,cellPairingIds,interplanarAngles,angleWeights
0.328552,0.135877,-0.868611,5.12058,5.36881,5.76361,1,0.0425375,0.0115934,8,67.1314,0.028757
0.434233,-0.764815,-0.353403,5.12393,5.32139,5.82927,2,0.0217204,0.00591979,13,49.2437,0.0387913
0.286746,0.830723,-0.46195,5.12965,5.43543,5.85839,3,0.0356516,0.00971666,19,59.9927,0.0383028
0.887431,0.363371,-0.130457,5.29474,5.41965,5.85703,4,0.0348349,0.00949407,26,68.6901,0.0714919
-0.0385261,0.899076,-0.239612,5.17059,5.44252,5.8686,5,0.223889,0.0610199,34,91.3145,0.0213747
-0.778711,0.5774,-0.179785,5.10502,5.41726,5.84696,6,0.0142735,0.00389017,43,102.251,0.0601581
-0.697718,-0.627738,-0.144385,5.02802,5.32126,5.87939,7,0.102701,0.0279905,53,111.967,0.0425616
-0.469722,0.779799,0.336615,5.07978,5.43533,5.93328,8,0.0425857,0.0116065,64,126.17,0.0209111
-0.25669,-0.86207,0.394377,5.06512,5.28497,6.00502,9,0.013863,0.00377829,76,125.634,0.0395147
-0.862551,0.316852,0.340131,5.00775,5.38727,5.93375,10,0.036893,0.010055,89,106.602,0.0287158
0.688475,0.319042,0.611113,5.229,5.4178,5.99851,11,0.0216735,0.005907,103,152.849,0.0401994
-0.594258,0.211454,0.751926,5.07636,5.40345,6.03091,12,0.038105,0.0103853,118,134.884,0.0222855
-0.114322,0.569175,0.798651,5.09196,5.40898,6.02262,13,0.0150976,0.00411477,134,164.232,0.0555057
-0.0765458,-0.149968,0.913219,5.11962,5.36986,6.03578,14,0.0798489,0.0217624,18,111.676,0.0269946
,,,,,,,,,25,80.364,0.0267571
,,,,,,,,,33,134.591,0.0395991
,,,,,,,,,42,140.031,0.0172266
,,,,,,,,,52,75.3156,0.0358573
,,,,,,,,,63,177.889,0.028768
,,,,,,,,,75,63.9722,0.0169242
,,,,,,,,,88,142.528,0.0273429
,,,,,,,,,102,100.042,0.0216969
,,,,,,,,,117,137.468,0.027669
,,,,,,,,,133,145.064,0.0178133
,,,,,,,,,150,105.91,0.0341511
,,,,,,,,,32,50.0797,0.0352385
,,,,,,,,,41,23.7125,0.0615086
,,,,,,,,,51,69.712,0.0203855
,,,,,,,,,62,133.994,0.0529292
,,,,,,,,,74,68.2163,0.0388113
,,,,,,,,,87,175.38,0.0199633
,,,,,,,,,101,98.3481,0.0362616
,,,,,,,,,116,79.2667,0.0269583
,,,,,,,,,132,110.553,0.0368375
,,,,,,,,,149,85.8402,0.0212123
,,,,,,,,,167,128.061,0.049294
,,,,,,,,,50,68.9462,0.0602893
,,,,,,,,,61,118.67,0.0202497
,,,,,,,,,73,154.353,0.0520238
,,,,,,,,,86,100.887,0.0383223
,,,,,,,,,100,128.562,0.0198331
,,,,,,,,,115,137.104,0.0358344
,,,,,,,,,131,46.6562,0.0267215
,,,,,,,,,148,125.282,0.0363966
,,,,,,,,,166,89.9293,0.0210653
,,,,,,,,,185,105.592,0.0485077
,,,,,,,,,72,49.8357,0.0268361
,,,,,,,,,85,124.66,0.14081
,,,,,,,,,99,45.0528,0.07156
,,,,,,,,,114,160.04,0.0261093
,,,,,,,,,130,74.9715,0.0633474
,,,,,,,,,147,82.7891,0.0395212
,,,,,,,,,165,87.9411,0.0651258
,,,,,,,,,184,69.3163,0.0282876
,,,,,,,,,204,113.925,0.117715
,,,,,,,,,98,77.2377,0.0250636
,,,,,,,,,113,37.861,0.0213808
,,,,,,,,,129,112.385,0.0140653
,,,,,,,,,146,34.7805,0.0205835
,,,,,,,,,164,118.732,0.0172118
,,,,,,,,,183,62.3099,0.0207677
,,,,,,,,,203,73.6476,0.014674
,,,,,,,,,224,102.052,0.0242179
,,,,,,,,,128,103.195,0.0602063
,,,,,,,,,145,44.6648,0.0244285
,,,,,,,,,163,67.6503,0.0542852
,,,,,,,,,182,146.207,0.0357933
,,,,,,,,,202,79.2823,0.0555859
,,,,,,,,,223,114.771,0.0263252
,,,,,,,,,245,88.9803,0.0898444
,,,,,,,,,162,116.07,0.0209169
,,,,,,,,,181,36.271,0.0395355
,,,,,,,,,201,82.0306,0.0287268
,,,,,,,,,222,42.9592,0.0402209
,,,,,,,,,244,36.8969,0.0222921
,,,,,,,,,267,75.4509,0.0555467
,,,,,,,,,200,85.088,0.0201532
,,,,,,,,,221,102.724,0.0169099
,,,,,,,,,243,73.9318,0.0203298
,,,,,,,,,266,98.6805,0.014454
,,,,,,,,,290,56.0691,0.0236244
,,,,,,,,,242,107.363,0.0273057
,,,,,,,,,265,29.6999,0.0374892
,,,,,,,,,289,55.3107,0.0214267
,,,,,,,,,314,68.7943,0.050468
,,,,,,,,,288,82.921,0.0276309
,,,,,,,,,313,52.0983,0.0177975
,,,,,,,,,339,59.6216,0.0340931
,,,,,,,,,338,35.5097,0.0216265
,,,,,,,,,365,39.7758,0.0515903
,,,,,,,,,392,44.6088,0.0253938
