Q	U	V
{$V$}	{[mm$^3$]}	0.00156743
{$d_v$}	{[mm]}	0.144122
{$S_c$}	{[mm$^2$]}	0.0929861
{$S_o$}	{[mm$^2$]}	0.0510361
{$S_l/S_o$}	[]	0.821967
{$\Psi$}	[]	0.701765
{$\eta$}	[]	0.722295
{med($\theta_e$)}	{[$^\circ$]}	49.6484
{$\Upsilon$}	[]	18
{$\Xi$}	[]	8
