"cellPairingIds","interplanarAngles","angleWeights"
8,44.906,0.0297598
13,118.141,0.0421513
19,92.4747,0.0286291
26,117.924,0.0402914
34,83.8251,0.0242379
43,76.8512,0.0314725
64,61.1218,0.0402914
76,83.9095,0.0391453
18,83.5679,0.0541961
63,77.9284,0.0382782
75,66.8766,0.0511598
117,99.7326,0.0316983
41,77.0123,0.10343
74,49.4815,0.0615525
116,52.3731,0.051087
50,29.6899,0.0479069
61,22.4864,0.0268008
72,49.2291,0.0367619
85,68.4381,0.0564395
147,66.7777,0.0483803
184,61.9333,0.095394
98,20.6844,0.0292769
163,37.2882,0.0542161
223,76.3742,0.0573479
201,49.5295,0.0367006
222,51.5371,0.0340806
200,49.8378,0.0870315
243,58.7227,0.0439285
290,80.2601,0.0580069
289,67.2983,0.0892104
314,67.8604,0.0556608
288,62.3756,0.0306088
313,39.6961,0.0490463
339,43.2501,0.0368386
365,25.5047,0.0341996
392,30.8685,0.0589668
