"cellPairingIds","interplanarAngles","angleWeights"
8,60.9737,0.0201953
13,74.1282,0.0189484
19,45.5191,0.0106575
26,70.2327,0.0177648
34,91.9144,0.0163912
64,87.4349,0.0177656
76,103.908,0.0191581
18,32.9446,0.0720175
33,55.0229,0.0574665
52,59.8086,0.0276275
63,81.5593,0.12324
51,36.9803,0.0394054
74,61.4086,0.0879296
100,80.7459,0.0162041
115,97.5835,0.0173546
131,87.7697,0.0143529
148,70.4393,0.0063195
166,102.746,0.0185487
185,73.3779,0.0147374
85,46.6411,0.0232719
114,42.8977,0.0413677
113,50.4536,0.0510049
146,29.5894,0.0403232
128,63.3844,0.0296886
145,67.6202,0.0232733
223,67.7308,0.0284357
181,56.7844,0.0926347
201,67.723,0.043772
244,91.7563,0.141132
291,70.1705,0.108303
266,42.2985,0.0610862
242,22.3047,0.0356643
288,32.5101,0.00777254
366,53.9318,0.0377679
365,37.1678,0.00788391
393,39.648,0.00869219
392,48.2557,0.0444203
421,52.259,0.0933059
450,32.2881,0.0405514
