"cellPairingIds","interplanarAngles","angleWeights"
18,54.1647,0.0301356
25,76.0493,0.0496549
33,71.1634,0.0633683
63,70.8689,0.0641768
88,78.3754,0.0684536
117,106.391,0.0463917
32,65.8702,0.0280423
51,43.1014,0.0263857
62,51.7799,0.0343699
101,98.6219,0.0331896
50,42.8471,0.0547709
73,40.0983,0.0623018
100,34.8466,0.050977
99,37.3157,0.0729882
114,53.865,0.0655374
98,50.2641,0.0546755
146,94.4572,0.0517481
164,67.2307,0.0471952
203,98.595,0.0188657
145,44.0724,0.0766196
182,55.0562,0.0807454
162,85.3757,0.0664025
222,55.0364,0.0513461
267,80.1525,0.0708354
221,49.5812,0.0626944
290,68.6805,0.0637965
265,59.7661,0.0540478
289,56.4761,0.0221059
313,74.8641,0.0212309
339,51.9607,0.0666313
338,43.7756,0.019163
365,52.0297,0.0497739
392,47.6162,0.0213559
