"cellPairingIds","interplanarAngles","angleWeights"
18,104.155,0.0298203
25,33.1606,0.0202985
33,82.5681,0.0282885
63,100.355,0.0132911
117,85.9593,0.0286642
41,92.7274,0.0721377
74,41.0444,0.0186044
101,55.3496,0.0746069
61,51.1221,0.0238447
86,77.5291,0.0143924
148,100.45,0.0343294
185,77.3717,0.019701
248,109.219,0.0210637
130,70.3962,0.0657057
147,47.3226,0.050692
165,63.6791,0.0657251
113,28.7012,0.014725
224,38.733,0.0203296
181,82.5311,0.0181462
267,43.7417,0.0130323
291,84.9543,0.0187971
242,48.2089,0.0518991
340,38.9344,0.0778068
288,54.3643,0.0519112
366,51.8115,0.0576039
423,62.2001,0.0265892
452,44.8047,0.0302141
450,71.6223,0.0290047
513,77.2611,0.0182727
545,57.142,0.0320581
