Q	U	V
{$V$}	{[mm$^3$]}	0.0102061
{$d_v$}	{[mm]}	0.269125
{$S_c$}	{[mm$^2$]}	0.3706
{$S_o$}	{[mm$^2$]}	0.212075
{$S_l/S_o$}	[]	0.747495
{$\Psi$}	[]	0.613977
{$\eta$}	[]	0.635915
{med($\theta_e$)}	{[$^\circ$]}	53.6291
{$\Upsilon$}	[]	18
{$\Xi$}	[]	8
