"cellPairingIds","interplanarAngles","angleWeights"
8,91.7146,0.010171
13,69.7008,0.0170109
19,114.68,0.0202849
26,108.847,0.0203006
34,39.1741,0.0176172
43,57.1314,0.0124157
76,95.4028,0.0207042
118,91.1036,0.0173961
25,43.3012,0.0168481
52,85.6571,0.0110376
63,54.6521,0.0167208
41,48.8773,0.0505495
101,47.3813,0.0531286
50,41.3615,0.0971409
86,87.7556,0.0927284
148,63.9213,0.0676273
130,69.715,0.107574
165,53.7032,0.067802
98,40.1998,0.0203904
129,45.3396,0.0387833
203,60.173,0.0384856
128,51.6418,0.0237928
145,30.3905,0.0201756
162,56.4194,0.053273
222,102.185,0.0656224
267,31.2167,0.0549155
266,63.2347,0.0377274
290,46.7259,0.0388424
368,63.4352,0.0324711
265,65.8773,0.0725242
289,38.2473,0.0570761
395,61.3538,0.045848
365,82.868,0.0450196
452,55.8355,0.0366782
482,40.9937,0.0322622
513,56.5749,0.033074
