facetNormals:0,facetNormals:1,facetNormals:2,FacetCenters:0,FacetCenters:1,FacetCenters:2,FacetIds,relFacetSize,absFacetSize,cellPairingIds,interplanarAngles,angleWeights
-0.0778255,0.342455,-0.931255,4.85138,7.77709,7.32639,1,0.00683399,0.000449542,8,28.4898,0.0120578
-0.327401,-0.0757458,-0.92438,4.85304,7.79654,7.27227,2,0.0511767,0.00336642,13,29.7328,0.0121571
0.327549,0.036913,-0.925896,4.90421,7.79598,7.27573,3,0.0549895,0.00361722,19,57.5099,0.0117208
-0.194635,-0.585791,-0.762222,4.85554,7.77595,7.28343,4,0.0411374,0.00270603,26,34.2231,0.0078071
-0.559535,0.507145,-0.643511,4.81146,7.80187,7.32349,5,0.00910334,0.00059882,34,63.819,0.0111795
0.168254,-0.658911,-0.725138,4.86585,7.76474,7.32176,6,0.0307014,0.00201955,43,60.0891,0.0125263
0.557323,-0.384543,-0.711389,4.86868,7.76751,7.32316,7,0.074978,0.00493207,53,54.1719,0.0125166
-0.746628,-0.155365,-0.602918,4.81124,7.80179,7.28875,8,0.0742903,0.00488684,64,40.3734,0.0071045
0.496696,0.574783,-0.637715,4.83138,7.79204,7.33271,9,0.00739731,0.000486597,76,36.0043,0.0102033
0.0475846,0.810941,-0.557671,4.86362,7.80124,7.31819,10,0.0201254,0.00132385,89,85.8493,0.0112983
0.461512,-0.765201,-0.395555,4.89314,7.76269,7.3085,11,0.0325842,0.0021434,103,49.6676,0.0111213
-0.270453,0.870857,-0.327321,4.86658,7.77305,7.31711,12,0.0298442,0.00196316,118,61.7209,0.00921066
0.564745,0.740513,-0.26517,4.86525,7.7969,7.32639,13,0.0141218,0.000928939,134,67.4364,0.0100753
-0.905631,0.307996,-0.212933,4.78331,7.73296,7.37044,14,0.0191654,0.0012607,151,86.9368,0.00411044
0.761582,0.624853,0.109528,4.87125,7.80829,7.33022,15,0.00293912,0.000193336,169,112.845,0.0127755
0.143218,-0.933693,0.0369267,4.90223,7.7755,7.29444,16,0.0978245,0.00643492,188,93.6831,0.00630718
-0.612161,0.684365,0.370808,4.83295,7.79726,7.35484,17,0.00585577,0.000385194,208,144.997,0.0118252
-0.0937172,-0.788418,0.57726,4.87905,7.78644,7.32353,18,0.0438533,0.00288468,229,133.613,0.0110729
0.0188128,0.400531,0.815936,4.89719,7.7909,7.34423,19,0.0291591,0.00191809,251,132.704,0.0125461
-0.527174,-0.628947,0.515068,4.84318,7.78941,7.32434,20,0.0764239,0.00502718,274,151.644,0.0123011
0.337594,-0.64339,0.65562,4.89738,7.78142,7.32373,21,0.0615001,0.00404549,18,39.5059,0.0530146
,,,,,,,,,25,32.6047,0.0456112
,,,,,,,,,33,40.7184,0.0154572
,,,,,,,,,42,47.1384,0.0383789
,,,,,,,,,52,58.5327,0.0608321
,,,,,,,,,63,31.6996,0.0606045
,,,,,,,,,75,66.8623,0.0129262
,,,,,,,,,88,63.0987,0.0288897
,,,,,,,,,102,73.5301,0.039817
,,,,,,,,,117,70.0493,0.037702
,,,,,,,,,133,89.7516,0.0221355
,,,,,,,,,150,60.8158,0.0278872
,,,,,,,,,168,114.09,0.00555898
,,,,,,,,,187,90.6347,0.0671986
,,,,,,,,,207,101.5,0.0105091
,,,,,,,,,228,117.325,0.0472328
,,,,,,,,,250,152.165,0.0371507
,,,,,,,,,273,105.575,0.0613026
,,,,,,,,,297,133.932,0.0558655
,,,,,,,,,32,49.9432,0.0470654
,,,,,,,,,41,63.7508,0.0156207
,,,,,,,,,51,44.0541,0.0394034
,,,,,,,,,62,31.0401,0.0634467
,,,,,,,,,74,71.1978,0.0631991
,,,,,,,,,87,37.4033,0.0130404
,,,,,,,,,101,54.5357,0.0294664
,,,,,,,,,116,59.3821,0.0409207
,,,,,,,,,132,74.9891,0.0386902
,,,,,,,,,149,61.2435,0.0224725
,,,,,,,,,167,95.2492,0.0284241
,,,,,,,,,186,79.8836,0.00557999
,,,,,,,,,206,91.3411,0.0704035
,,,,,,,,,227,122.198,0.0105844
,,,,,,,,,249,128.023,0.048794
,,,,,,,,,272,145.292,0.0381098
,,,,,,,,,296,134.952,0.0639586
,,,,,,,,,321,122.741,0.0580629
,,,,,,,,,50,71.9005,0.0149077
,,,,,,,,,61,21.7025,0.0351614
,,,,,,,,,73,46.8319,0.0531265
,,,,,,,,,86,43.1296,0.0529528
,,,,,,,,,100,86.8945,0.0125397
,,,,,,,,,115,93.514,0.027028
,,,,,,,,,131,46.4887,0.0363646
,,,,,,,,,148,102.644,0.0345924
,,,,,,,,,166,111.08,0.0210258
,,,,,,,,,185,80.5298,0.0261485
,,,,,,,,,205,127.941,0.00548626
,,,,,,,,,226,58.0304,0.0579187
,,,,,,,,,248,125.527,0.0102522
,,,,,,,,,271,87.6137,0.0424519
,,,,,,,,,295,164.728,0.0341277
,,,,,,,,,320,85.2653,0.0534849
,,,,,,,,,346,101.328,0.0492988
,,,,,,,,,72,87.7731,0.0140428
,,,,,,,,,85,92.8868,0.0162355
,,,,,,,,,99,41.0898,0.0162192
,,,,,,,,,114,64.4805,0.00816213
,,,,,,,,,130,40.4887,0.0125362
,,,,,,,,,147,113.832,0.0142309
,,,,,,,,,165,33.2796,0.0139512
,,,,,,,,,184,76.1367,0.0110704
,,,,,,,,,204,34.6395,0.0123436
,,,,,,,,,225,100.53,0.00444358
,,,,,,,,,247,127.998,0.0166566
,,,,,,,,,270,62.6763,0.00712704
,,,,,,,,,294,137.571,0.0150769
,,,,,,,,,319,111.628,0.013875
,,,,,,,,,345,111.7,0.0162688
,,,,,,,,,372,164.817,0.0158592
,,,,,,,,,98,27.8828,0.0435644
,,,,,,,,,113,64.6394,0.0434476
,,,,,,,,,129,80.233,0.0119221
,,,,,,,,,146,97.1513,0.024313
,,,,,,,,,164,26.5986,0.0316148
,,,,,,,,,183,113.364,0.0302667
,,,,,,,,,203,102.03,0.0193453
,,,,,,,,,224,101.901,0.023599
,,,,,,,,,246,111.617,0.00536467
,,,,,,,,,269,49.3236,0.0467353
,,,,,,,,,293,146.702,0.00983558
,,,,,,,,,318,84.9951,0.0361173
,,,,,,,,,344,160.586,0.0299104
,,,,,,,,,371,92.8429,0.0438052
,,,,,,,,,399,89.6865,0.0409568
,,,,,,,,,128,85.6427,0.0746326
,,,,,,,,,145,58.4667,0.0134661
,,,,,,,,,163,83.3897,0.031733
,,,,,,,,,182,29.7988,0.0454267
,,,,,,,,,202,105.405,0.0426943
,,,,,,,,,223,76.7092,0.0237672
,,,,,,,,,245,119.346,0.0305275
,,,,,,,,,268,83.734,0.0056565
,,,,,,,,,292,63.6151,0.084891
,,,,,,,,,317,153.207,0.0108631
,,,,,,,,,343,99.5353,0.0553395
,,,,,,,,,370,144.178,0.0419887
,,,,,,,,,398,116.082,0.075694
,,,,,,,,,427,91.8388,0.0675735
,,,,,,,,,162,94.5003,0.0134549
,,,,,,,,,181,79.4912,0.031671
,,,,,,,,,201,89.2283,0.0452997
,,,,,,,,,222,73.7241,0.0425821
,,,,,,,,,244,113.597,0.0237324
,,,,,,,,,267,37.4142,0.0304701
,,,,,,,,,291,139.41,0.00565453
,,,,,,,,,316,89.0106,0.0844484
,,,,,,,,,342,82.4095,0.0108559
,,,,,,,,,369,99.3825,0.0551511
,,,,,,,,,397,130.009,0.0418802
,,,,,,,,,426,78.9352,0.075342
,,,,,,,,,456,125.123,0.0672928
,,,,,,,,,200,30.1152,0.0108182
,,,,,,,,,221,87.5367,0.0120573
,,,,,,,,,243,53.2503,0.011856
,,,,,,,,,266,24.3112,0.0097089
,,,,,,,,,290,98.1028,0.0106745
,,,,,,,,,315,47.2301,0.00420679
,,,,,,,,,341,121.441,0.0137545
,,,,,,,,,368,98.6175,0.00653689
,,,,,,,,,396,153.043,0.0126592
,,,,,,,,,425,108.142,0.0118009
,,,,,,,,,455,172.07,0.013489
,,,,,,,,,486,129.715,0.0132062
,,,,,,,,,242,113.113,0.0248823
,,,,,,,,,265,23.4375,0.0240396
,,,,,,,,,289,35.6536,0.0165974
,,,,,,,,,314,70.3054,0.0196336
,,,,,,,,,340,60.4357,0.00512917
,,,,,,,,,367,145.86,0.0333829
,,,,,,,,,395,70.9133,0.00907193
,,,,,,,,,424,176.806,0.0275893
,,,,,,,,,454,98.3004,0.0238143
,,,,,,,,,485,149.472,0.0318606
,,,,,,,,,517,154.631,0.0303266
,,,,,,,,,288,134.339,0.0311541
,,,,,,,,,313,102.271,0.019704
,,,,,,,,,339,126.482,0.024135
,,,,,,,,,366,100.107,0.00539189
,,,,,,,,,394,33.9916,0.0488853
,,,,,,,,,423,169.954,0.00992746
,,,,,,,,,453,69.7703,0.0373881
,,,,,,,,,484,134.305,0.0307767
,,,,,,,,,516,87.9279,0.0456886
,,,,,,,,,549,66.0131,0.0425987
,,,,,,,,,338,51.8945,0.0191718
,,,,,,,,,365,52.1299,0.0233413
,,,,,,,,,393,71.6495,0.00535124
,,,,,,,,,422,160.609,0.0457354
,,,,,,,,,452,48.1442,0.00979053
,,,,,,,,,483,153.374,0.0355172
,,,,,,,,,515,85.0081,0.0294977
,,,,,,,,,548,127.675,0.0429255
,,,,,,,,,582,156.001,0.0401868
,,,,,,,,,392,103.835,0.0162615
,,,,,,,,,421,25.8449,0.00486558
,,,,,,,,,451,132.662,0.0246808
,,,,,,,,,482,86.2484,0.0082787
,,,,,,,,,514,146.196,0.021364
,,,,,,,,,547,84.0758,0.0190282
,,,,,,,,,581,163.604,0.0238387
,,,,,,,,,616,119.015,0.0229694
,,,,,,,,,450,122.408,0.00509664
,,,,,,,,,481,117.317,0.0320514
,,,,,,,,,513,44.9985,0.00897066
,,,,,,,,,546,106.976,0.0266735
,,,,,,,,,580,94.3396,0.0231289
,,,,,,,,,615,79.4385,0.0306455
,,,,,,,,,651,132.142,0.0292237
,,,,,,,,,512,120.127,0.00570678
,,,,,,,,,545,89.8815,0.00391382
,,,,,,,,,579,120.977,0.00550901
,,,,,,,,,614,66.8707,0.00533999
,,,,,,,,,650,140.222,0.00566054
,,,,,,,,,687,94.3224,0.00561013
,,,,,,,,,578,139.607,0.0110501
,,,,,,,,,613,36.6995,0.0605589
,,,,,,,,,649,113.387,0.0449267
,,,,,,,,,686,54.5866,0.08581
,,,,,,,,,724,43.3011,0.0755215
,,,,,,,,,648,106.013,0.0103319
,,,,,,,,,685,51.1155,0.00975295
,,,,,,,,,723,85.0207,0.010878
,,,,,,,,,762,114.629,0.0106934
,,,,,,,,,722,80.0986,0.0350275
,,,,,,,,,761,27.636,0.0557286
,,,,,,,,,801,27.2471,0.0511987
,,,,,,,,,800,79.6385,0.0422123
,,,,,,,,,841,71.4129,0.0395611
,,,,,,,,,882,53.4735,0.0681546
