Q	U	V
{$V$}	{[mm$^3$]}	0.00798202
{$d_v$}	{[mm]}	0.247954
{$S_c$}	{[mm$^2$]}	0.335631
{$S_o$}	{[mm$^2$]}	0.177653
{$S_l/S_o$}	[]	0.889250
{$\Psi$}	[]	0.57548
{$\eta$}	[]	0.654683
{med($\theta_e$)}	{[$^\circ$]}	63.6735
{$\Upsilon$}	[]	19
{$\Xi$}	[]	5
