"cellPairingIds","interplanarAngles","angleWeights"
8,80.5921,0.0152412
13,31.0105,0.0177724
19,102.374,0.0186032
34,62.2388,0.0178231
43,44.3904,0.0154697
64,96.801,0.0177822
25,65.2561,0.042652
33,38.6481,0.0130141
42,56.5418,0.0387624
51,50.8551,0.0607779
62,44.628,0.0400174
74,70.9614,0.0582373
116,70.2495,0.0522014
167,89.7263,0.064901
50,93.8096,0.0153889
100,63.2955,0.0710748
115,43.7053,0.0956229
148,98.6013,0.0725859
72,43.071,0.0148512
147,47.6557,0.014278
165,49.8531,0.0148875
164,41.2568,0.0526412
128,29.7024,0.0391437
145,65.2471,0.0400671
162,43.7142,0.0583428
267,55.4849,0.0626339
200,31.1106,0.0772835
290,74.8718,0.065032
265,94.6809,0.0790735
289,77.7908,0.0433632
314,83.8539,0.0849972
288,50.6982,0.0530993
313,66.0131,0.0341913
339,74.4987,0.0557064
338,36.3722,0.0379074
392,40.8157,0.0392177
