Q	U	V
{$V$}	{[mm$^3$]}	0.0024877
{$d_v$}	{[mm]}	0.168112
{$S_c$}	{[mm$^2$]}	0.171374
{$S_o$}	{[mm$^2$]}	0.0998913
{$S_l/S_o$}	[]	0.715605
{$\Psi$}	[]	0.518089
{$\eta$}	[]	0.544678
{med($\theta_e$)}	{[$^\circ$]}	59.0385
{$\Upsilon$}	[]	21
{$\Xi$}	[]	2
