"cellPairingIds","interplanarAngles","angleWeights"
18,40.415,0.0292575
25,73.6064,0.0174802
75,102.236,0.0317028
102,44.2834,0.0307387
32,76.6318,0.0272782
41,32.7382,0.0295314
116,60.4613,0.0834442
50,81.8007,0.0175776
73,84.6276,0.0289726
86,59.9383,0.0234452
100,41.2504,0.0293919
115,73.8624,0.0239309
148,72.6182,0.0184095
166,104.434,0.0195338
85,29.6591,0.0315275
147,83.9761,0.0310412
184,55.6633,0.0206627
204,55.4767,0.0248621
223,29.1297,0.0384302
181,26.143,0.0404007
222,34.6084,0.0268205
221,135.214,0.106978
243,36.5962,0.0348975
368,69.1809,0.0230814
265,56.8048,0.027458
289,35.9384,0.0300366
339,80.541,0.0545149
366,41.0836,0.0826776
423,120.376,0.0225661
338,83.8641,0.0218218
452,37.7726,0.0157179
392,36.2929,0.0289648
482,83.3404,0.0165302
450,54.6258,0.0497468
513,93.7842,0.0191128
545,88.2497,0.021705
