facetNormals:0,facetNormals:1,facetNormals:2,FacetCenters:0,FacetCenters:1,FacetCenters:2,FacetIds,relFacetSize,absFacetSize,cellPairingIds,interplanarAngles,angleWeights
-0.524737,0.248042,-0.79483,3.43256,3.46783,5.97748,1,0.013652,0.00126283,8,78.9094,0.0211322
0.698669,0.32248,-0.591843,3.49567,3.5029,6.034,2,0.0467442,0.00432388,13,26.4836,0.0145018
-0.786536,-0.0467664,-0.579042,3.40434,3.43405,6.00134,3,0.0154644,0.00143047,19,54.024,0.0206628
0.161739,0.762741,-0.572273,3.46889,3.50779,6.03428,4,0.0424755,0.00392902,26,105.358,0.0141526
0.729883,-0.539914,-0.333195,3.46896,3.41615,6.11603,5,0.0146912,0.00135895,34,69.3736,0.02265
-0.819848,-0.529497,-0.0502678,3.39344,3.41037,6.05559,6,0.0664413,0.00614589,43,109.955,0.015086
0.855851,0.492053,0.00572203,3.50456,3.50223,6.10307,7,0.0168567,0.00155926,53,49.5176,0.0256567
-0.662161,0.686394,-0.121531,3.43736,3.48914,6.08694,8,0.21262,0.0196675,64,97.8644,0.0198232
0.442412,0.845297,0.134972,3.45737,3.47934,6.11219,9,0.0361758,0.0033463,76,141.406,0.0251512
0.879719,-0.10815,0.287152,3.50254,3.48563,6.13884,10,0.159495,0.0147535,89,83.6971,0.0216679
-0.769709,0.37969,0.492149,3.41394,3.46331,6.12922,11,0.0524844,0.00485486,103,90.4355,0.0230497
-0.82364,-0.0663997,0.532286,3.42996,3.46918,6.15793,12,0.0739647,0.0068418,118,132.04,0.0200941
-0.215298,-0.541616,0.781484,3.44946,3.42306,6.16192,13,0.0380481,0.00351948,18,103.519,0.0232402
,,,,,,,,,25,42.0075,0.0445077
,,,,,,,,,33,55.4054,0.0223561
,,,,,,,,,42,138.798,0.0548788
,,,,,,,,,52,38.1909,0.024778
,,,,,,,,,63,100.454,0.0766393
,,,,,,,,,75,57.5573,0.0407865
,,,,,,,,,88,63.0579,0.0722992
,,,,,,,,,102,137.367,0.0494483
,,,,,,,,,117,162.876,0.0572852
,,,,,,,,,133,146.325,0.0419502
,,,,,,,,,32,79.7375,0.0226738
,,,,,,,,,41,112.108,0.0150679
,,,,,,,,,51,43.0138,0.0250892
,,,,,,,,,62,136.436,0.0161305
,,,,,,,,,74,53.5085,0.0288318
,,,,,,,,,87,119.619,0.0216667
,,,,,,,,,101,159.467,0.028195
,,,,,,,,,116,71.7677,0.0238897
,,,,,,,,,132,69.1096,0.0255805
,,,,,,,,,149,105.693,0.0219908
,,,,,,,,,50,96.3275,0.0218314
,,,,,,,,,61,122.49,0.0518217
,,,,,,,,,73,57.6827,0.0241352
,,,,,,,,,86,58.4905,0.0708059
,,,,,,,,,100,46.7074,0.0390734
,,,,,,,,,115,96.6617,0.0670853
,,,,,,,,,131,96.9949,0.0469525
,,,,,,,,,148,120.919,0.0539622
,,,,,,,,,166,161.69,0.0401401
,,,,,,,,,72,108.237,0.0240619
,,,,,,,,,85,68.0358,0.0156996
,,,,,,,,,99,151.024,0.0274834
,,,,,,,,,114,101.04,0.0208963
,,,,,,,,,130,47.8373,0.0269042
,,,,,,,,,147,166.609,0.0229565
,,,,,,,,,165,141.379,0.0245134
,,,,,,,,,184,97.6252,0.0211975
,,,,,,,,,98,176.05,0.0268909
,,,,,,,,,113,78.6111,0.101245
,,,,,,,,,129,150.192,0.0468454
,,,,,,,,,146,138.166,0.0938057
,,,,,,,,,164,65.2191,0.0586439
,,,,,,,,,183,44.6244,0.0700014
,,,,,,,,,203,63.5735,0.048387
,,,,,,,,,128,104.003,0.0312369
,,,,,,,,,145,33.2712,0.0229974
,,,,,,,,,163,40.3162,0.0304909
,,,,,,,,,182,118.704,0.0255177
,,,,,,,,,202,139.198,0.0274561
,,,,,,,,,223,117.627,0.0233628
,,,,,,,,,162,73.0001,0.0618314
,,,,,,,,,181,140.545,0.182265
,,,,,,,,,201,41.6755,0.0841875
,,,,,,,,,222,62.5848,0.10975
,,,,,,,,,244,110.234,0.0645457
,,,,,,,,,200,67.9841,0.0589752
,,,,,,,,,221,87.1832,0.0428302
,,,,,,,,,243,111.601,0.0485876
,,,,,,,,,266,118.456,0.0370883
,,,,,,,,,242,128.742,0.0789794
,,,,,,,,,265,128.058,0.101062
,,,,,,,,,289,84.0866,0.0614395
,,,,,,,,,288,26.4426,0.0614001
,,,,,,,,,313,69.0621,0.0441152
,,,,,,,,,338,48.9521,0.0502481
