Q	U	V
{$V$}	{[mm$^3$]}	0.00427718
{$d_v$}	{[mm]}	0.201397
{$S_c$}	{[mm$^2$]}	0.269618
{$S_o$}	{[mm$^2$]}	0.163764
{$S_l/S_o$}	[]	0.646381
{$\Psi$}	[]	0.472614
{$\eta$}	[]	0.505322
{med($\theta_e$)}	{[$^\circ$]}	89.6473
{$\Upsilon$}	[]	10
{$\Xi$}	[]	9
