Q	U	V
{$V$}	{[mm$^3$]}	0.0032726
{$d_v$}	{[mm]}	0.184204
{$S_c$}	{[mm$^2$]}	0.167547
{$S_o$}	{[mm$^2$]}	0.109727
{$S_l/S_o$}	[]	0.526944
{$\Psi$}	[]	0.636223
{$\eta$}	[]	0.661080
{med($\theta_e$)}	{[$^\circ$]}	55.3985
{$\Upsilon$}	[]	16
{$\Xi$}	[]	7
