facetNormals:0,facetNormals:1,facetNormals:2,FacetCenters:0,FacetCenters:1,FacetCenters:2,FacetIds,relFacetSize,absFacetSize,cellPairingIds,interplanarAngles,angleWeights
0.175736,-0.274071,-0.851932,4.80085,5.39374,6.02667,1,0.110971,0.0322928,8,58.4537,0.0214409
0.385979,0.618142,-0.675961,4.82693,5.51802,6.11337,2,0.0118668,0.00345326,13,53.8411,0.0691471
0.84682,0.0793072,-0.46229,4.86208,5.45702,6.08184,3,0.0502196,0.014614,19,89.0761,0.138578
-0.243283,0.827178,-0.332242,4.75477,5.53664,6.10548,4,0.184468,0.0536805,26,77.6982,0.0610479
0.685396,0.638326,-0.287433,4.86876,5.53686,6.12482,5,0.0421056,0.0122528,34,88.9604,0.0616243
0.482021,-0.733268,0.317203,4.75489,5.49126,6.18056,6,0.042656,0.0124129,43,87.7583,0.0355199
-0.90275,-0.392763,-0.101308,4.7035,5.38678,6.11375,7,0.0211438,0.00615288,53,93.1468,0.0555407
0.920925,0.248134,0.167044,4.89133,5.514,6.23478,8,0.0370394,0.0107785,64,81.7355,0.125233
-0.48941,-0.799876,0.0120576,4.76778,5.34161,6.12501,9,0.1437,0.0418169,76,123.812,0.0307219
-0.911412,0.0877361,0.372684,4.68306,5.45256,6.15103,10,0.0178289,0.00518822,89,112.517,0.0488512
-0.828903,-0.395022,0.36051,4.68941,5.40685,6.12164,11,0.0313192,0.00911392,103,149.637,0.0235711
0.200017,0.583737,0.752034,4.84423,5.49356,6.28225,12,0.013186,0.00383713,118,138.718,0.0297006
-0.637203,-0.201293,0.72872,4.73555,5.48345,6.23863,13,0.0171446,0.0049891,134,144.053,0.0161573
0.354676,0.0334808,0.906565,4.87111,5.5179,6.27635,14,0.00871293,0.00253547,18,44.3242,0.0191974
,,,,,,,,,25,45.6535,0.0222992
,,,,,,,,,33,28.7937,0.0185154
,,,,,,,,,42,121.285,0.0185681
,,,,,,,,,52,122.099,0.0152018
,,,,,,,,,63,65.7092,0.0179748
,,,,,,,,,75,137.886,0.0219232
,,,,,,,,,88,124,0.0142494
,,,,,,,,,102,145.473,0.017212
,,,,,,,,,117,94.17,0.0124917
,,,,,,,,,133,151.412,0.0140256
,,,,,,,,,150,118.045,0.0100482
,,,,,,,,,32,89.156,0.0789468
,,,,,,,,,41,36.3449,0.0458061
,,,,,,,,,51,76.9869,0.0461298
,,,,,,,,,62,141.404,0.0297585
,,,,,,,,,74,39.5924,0.0426341
,,,,,,,,,87,122.177,0.0744284
,,,,,,,,,101,168.312,0.0263153
,,,,,,,,,116,160.458,0.0385789
,,,,,,,,,132,98.0569,0.0208876
,,,,,,,,,149,158.814,0.0255624
,,,,,,,,,167,97.0723,0.0148495
,,,,,,,,,50,59.6979,0.0685617
,,,,,,,,,61,164.102,0.0692896
,,,,,,,,,73,94.4907,0.0379391
,,,,,,,,,86,94.7632,0.0616917
,,,,,,,,,100,129.107,0.161552
,,,,,,,,,115,79.2434,0.0325152
,,,,,,,,,131,105.584,0.0535471
,,,,,,,,,148,78.166,0.0246126
,,,,,,,,,166,106.116,0.0313733
,,,,,,,,,185,113.563,0.0166399
,,,,,,,,,72,104.499,0.042379
,,,,,,,,,85,150.074,0.0281512
,,,,,,,,,99,38.5818,0.0394104
,,,,,,,,,114,157.606,0.065128
,,,,,,,,,130,134.248,0.0250505
,,,,,,,,,147,162.936,0.0359201
,,,,,,,,,165,72.0609,0.0200827
,,,,,,,,,184,143.105,0.0243673
,,,,,,,,,204,89.7665,0.0144382
,,,,,,,,,98,101.194,0.0282731
,,,,,,,,,113,69.5992,0.0396498
,,,,,,,,,129,66.1053,0.0657844
,,,,,,,,,146,114.699,0.0251471
,,,,,,,,,164,89.7221,0.0361189
,,,,,,,,,183,95.8856,0.0201447
,,,,,,,,,203,85.5483,0.0244586
,,,,,,,,,224,61.4785,0.0144702
,,,,,,,,,128,170.715,0.0269203
,,,,,,,,,145,35.5903,0.0368636
,,,,,,,,,163,39.901,0.0193454
,,,,,,,,,182,27.3794,0.0252447
,,,,,,,,,202,120.32,0.0162426
,,,,,,,,,223,53.6152,0.0189353
,,,,,,,,,245,116.171,0.0123406
,,,,,,,,,162,135.455,0.0588976
,,,,,,,,,181,142.099,0.0240711
,,,,,,,,,201,147.009,0.03394
,,,,,,,,,222,61.1383,0.0194484
,,,,,,,,,244,122.546,0.0234396
,,,,,,,,,267,58.9567,0.0141073
,,,,,,,,,200,65.777,0.031722
,,,,,,,,,221,38.3005,0.0514294
,,,,,,,,,243,127.53,0.0241554
,,,,,,,,,266,58.7045,0.0306343
,,,,,,,,,290,101.969,0.0164297
,,,,,,,,,242,28.7244,0.0227226
,,,,,,,,,265,81.0754,0.0151599
,,,,,,,,,289,31.3552,0.01748
,,,,,,,,,314,88.956,0.0117054
,,,,,,,,,288,97.5008,0.0185585
,,,,,,,,,313,26.8211,0.022159
,,,,,,,,,339,88.8307,0.0136332
,,,,,,,,,338,71.6332,0.0149069
,,,,,,,,,365,35.412,0.0104926
,,,,,,,,,392,63.6214,0.0115541
