"cellPairingIds","interplanarAngles","angleWeights"
8,64.931,0.0879421
13,85.8509,0.116402
19,35.8307,0.114122
26,48.0959,0.0406944
34,93.8523,0.0626111
53,28.0952,0.0777133
64,77.4916,0.0371651
76,128.319,0.0138524
25,34.7744,0.0793742
42,33.8379,0.0504856
133,72.0138,0.0332381
51,68.4941,0.0587287
62,53.6661,0.0379176
101,44.5136,0.0136527
86,47.3611,0.0709459
131,60.4347,0.0724538
166,54.0413,0.0363936
99,48.6019,0.033438
114,29.5933,0.0227556
98,22.423,0.0296264
183,58.1968,0.0340111
203,96.9058,0.0288297
269,112.569,0.0234198
163,59.2892,0.0111146
202,37.0197,0.025808
162,75.2459,0.0310177
201,29.2426,0.0558435
291,81.3111,0.0376462
200,71.4655,0.0109216
290,41.8202,0.0321849
315,41.3625,0.0246292
341,70.3735,0.0186448
265,28.0384,0.0116795
314,37.4838,0.013097
367,44.2646,0.0101095
313,33.4566,0.0319598
366,72.4146,0.0380666
394,115.992,0.0254441
422,56.4834,0.0209674
451,120.145,0.018876
481,32.2939,0.0260241
512,50.8757,0.0208517
