Q	U	V
{$V$}	{[mm$^3$]}	0.00133469
{$d_v$}	{[mm]}	0.136603
{$S_c$}	{[mm$^2$]}	0.0876386
{$S_o$}	{[mm$^2$]}	0.0504683
{$S_l/S_o$}	[]	0.736508
{$\Psi$}	[]	0.668922
{$\eta$}	[]	0.729642
{med($\theta_e$)}	{[$^\circ$]}	56.0427
{$\Upsilon$}	[]	15
{$\Xi$}	[]	5
