facetNormals:0,facetNormals:1,facetNormals:2,FacetCenters:0,FacetCenters:1,FacetCenters:2,FacetIds,relFacetSize,absFacetSize,cellPairingIds,interplanarAngles,angleWeights
0.11571,0.158972,-0.938725,4.1613,6.10957,9.57153,1,0.110253,0.011242,8,42.5164,0.0288006
-0.350161,-0.363264,-0.84738,4.08524,6.02392,9.57892,2,0.0165637,0.00168893,13,42.7993,0.0737239
0.185082,-0.528588,-0.796862,4.13016,6.02625,9.58379,3,0.0553766,0.00564653,19,52.5279,0.132034
-0.612029,0.427367,-0.597319,4.06373,6.12078,9.61371,4,0.164539,0.0167774,26,66.7119,0.0476824
0.476706,-0.728254,-0.462755,4.20868,6.05269,9.61471,5,0.0304191,0.0031017,34,72.6096,0.0546405
-0.845168,-0.236424,-0.444643,4.02244,6.02421,9.62161,6,0.0363203,0.00370343,43,81.0166,0.073112
-0.000191076,-0.916892,-0.309695,4.10686,5.99542,9.61837,7,0.054689,0.00557641,53,73.6032,0.0182293
0.836821,-0.461638,-0.260743,4.20113,6.04646,9.63222,8,0.00993606,0.00101314,64,71.3368,0.105449
0.423402,0.870878,-0.119324,4.1842,6.1797,9.65136,9,0.101047,0.0103033,76,82.5458,0.082756
-0.35302,0.900631,-0.01924,4.09706,6.18904,9.6816,10,0.0662368,0.0067539,89,73.3784,0.0654729
0.835451,0.453907,-0.0995469,4.23277,6.12601,9.63572,11,0.0465617,0.0047477,103,97.1408,0.0632496
0.94618,0.0149945,0.24326,4.22548,6.09864,9.67952,12,0.0443446,0.00452164,118,116.648,0.0705371
0.625488,-0.594465,0.415259,4.20943,6.06544,9.66558,13,0.051857,0.00528765,134,103.604,0.055261
0.279016,0.84799,0.414535,4.16041,6.17753,9.7237,14,0.0368707,0.00375955,151,165.117,0.0116597
-0.314913,-0.286977,0.862321,4.09091,6.10249,9.68139,15,0.00615533,0.000627633,18,33.3426,0.0255001
,,,,,,,,,25,53.1681,0.0300976
,,,,,,,,,33,59.7505,0.0214484
,,,,,,,,,42,38.569,0.0227516
,,,,,,,,,52,51.3914,0.0254265
,,,,,,,,,63,84.3832,0.0124211
,,,,,,,,,75,112.196,0.0284619
,,,,,,,,,88,101.317,0.0265005
,,,,,,,,,102,113.31,0.024435
,,,,,,,,,117,124.292,0.0241186
,,,,,,,,,133,112.076,0.0251077
,,,,,,,,,150,141.248,0.0228585
,,,,,,,,,168,122.968,0.0089753
,,,,,,,,,32,81.5518,0.0828647
,,,,,,,,,41,28.7303,0.0392678
,,,,,,,,,51,70.3096,0.0438683
,,,,,,,,,62,39.1096,0.0550307
,,,,,,,,,74,51.0411,0.016849
,,,,,,,,,87,107.571,0.0715446
,,,,,,,,,101,123.934,0.0603218
,,,,,,,,,116,90.3678,0.050588
,,,,,,,,,132,91.6047,0.0492504
,,,,,,,,,149,83.9015,0.0535591
,,,,,,,,,167,139.312,0.0442674
,,,,,,,,,186,129.33,0.0110792
,,,,,,,,,50,110.275,0.0513456
,,,,,,,,,61,43.5397,0.0595054
,,,,,,,,,73,102.912,0.0820924
,,,,,,,,,86,125.777,0.0187404
,,,,,,,,,100,78.603,0.125203
,,,,,,,,,115,48.5393,0.0944514
,,,,,,,,,131,106.388,0.0725835
,,,,,,,,,148,140.231,0.0698611
,,,,,,,,,166,165.139,0.0788601
,,,,,,,,,185,93.4101,0.0602421
,,,,,,,,,205,118.942,0.0118667
,,,,,,,,,72,91.4747,0.0331088
,,,,,,,,,85,31.7835,0.0390935
,,,,,,,,,99,28.7981,0.0149793
,,,,,,,,,114,113.088,0.0467611
,,,,,,,,,130,148.736,0.0416914
,,,,,,,,,147,83.066,0.0367978
,,,,,,,,,165,70.1178,0.0360849
,,,,,,,,,184,55.1871,0.0383451
,,,,,,,,,204,134.195,0.0333356
,,,,,,,,,225,111.025,0.0102388
,,,,,,,,,98,68.1319,0.0436509
,,,,,,,,,113,119.652,0.0156035
,,,,,,,,,129,122.142,0.0534341
,,,,,,,,,146,84.3336,0.0469151
,,,,,,,,,164,144.863,0.0408082
,,,,,,,,,183,161.463,0.0399333
,,,,,,,,,203,127.438,0.0427199
,,,,,,,,,224,129.86,0.0365934
,,,,,,,,,246,92.9938,0.0105267
,,,,,,,,,128,58.2943,0.0168168
,,,,,,,,,145,143.766,0.0709682
,,,,,,,,,163,151.1,0.0599115
,,,,,,,,,182,114.626,0.0502991
,,,,,,,,,202,95.4169,0.0489765
,,,,,,,,,223,63.3058,0.0532354
,,,,,,,,,245,162.003,0.0440461
,,,,,,,,,268,90.2382,0.0110652
,,,,,,,,,162,90.9844,0.018093
,,,,,,,,,181,137.456,0.01728
,,,,,,,,,201,57.0186,0.0163773
,,,,,,,,,222,41.8113,0.0162345
,,,,,,,,,244,43.3742,0.0166768
,,,,,,,,,267,105.835,0.0156537
,,,,,,,,,291,111.932,0.00760155
,,,,,,,,,200,47.5486,0.08002
,,,,,,,,,221,35.3352,0.0637484
,,,,,,,,,243,66.2034,0.0616388
,,,,,,,,,266,108.885,0.0685396
,,,,,,,,,290,32.8048,0.0540275
,,,,,,,,,315,121.201,0.0116038
,,,,,,,,,242,82.8088,0.0546833
,,,,,,,,,265,110.121,0.0531237
,,,,,,,,,289,145.566,0.0581715
,,,,,,,,,314,46.3569,0.0473719
,,,,,,,,,340,100.143,0.0112639
,,,,,,,,,288,34.1422,0.0454261
,,,,,,,,,313,76.6494,0.0490669
,,,,,,,,,339,52.1974,0.0411534
,,,,,,,,,366,121.409,0.0108732
,,,,,,,,,338,43.0341,0.0478075
,,,,,,,,,365,66.884,0.0402638
,,,,,,,,,393,95.6486,0.0108101
,,,,,,,,,392,99.6154,0.0430983
,,,,,,,,,421,68.8919,0.0110045
,,,,,,,,,450,88.4116,0.0105495
