Q	U	V
{$V$}	{[mm$^3$]}	0.0041525
{$d_v$}	{[mm]}	0.199421
{$S_c$}	{[mm$^2$]}	0.214272
{$S_o$}	{[mm$^2$]}	0.119996
{$S_l/S_o$}	[]	0.785660
{$\Psi$}	[]	0.583076
{$\eta$}	[]	0.646435
{med($\theta_e$)}	{[$^\circ$]}	66.2094
{$\Upsilon$}	[]	19
{$\Xi$}	[]	9
