facetNormals:0,facetNormals:1,facetNormals:2,FacetCenters:0,FacetCenters:1,FacetCenters:2,FacetIds,relFacetSize,absFacetSize,cellPairingIds,interplanarAngles,angleWeights
-0.427281,-0.330234,-0.787645,6.52581,3.94868,8.51329,1,0.0223959,0.00421188,8,80.6446,0.0319055
0.276571,0.682204,-0.626592,6.55224,4.05944,8.49566,2,0.0554506,0.0104283,13,65.2142,0.0337459
-0.254879,0.679831,-0.638074,6.52292,4.0523,8.47545,3,0.0684207,0.0128675,19,52.1184,0.0251026
-0.79683,-0.509245,-0.0596601,6.46979,4.00691,8.52932,4,0.0285536,0.00536992,26,71.9328,0.0299746
-0.795845,0.510026,-0.141504,6.47674,4.05355,8.53591,5,0.045306,0.00852047,34,113.955,0.0344333
0.792724,0.545273,-0.177053,6.62115,4.04975,8.55517,6,0.0744476,0.014001,43,132.702,0.0254608
0.938978,0.0889346,0.257204,6.65296,3.98582,8.63277,7,0.0294976,0.00554746,53,81.4729,0.0313812
-0.920509,0.139802,0.266627,6.47505,4.04979,8.55489,8,0.0524072,0.00985595,64,147.862,0.0341351
0.613837,0.647836,0.399116,6.64234,3.99605,8.65737,9,0.0717378,0.0134914,76,136.193,0.033273
0.0543984,0.832237,0.451321,6.55344,4.02696,8.65706,10,0.0646922,0.0121663,89,156.028,0.0204004
0.733937,0.0961613,0.660949,6.65116,3.96798,8.67103,11,0.0187315,0.00352273,103,103.596,0.0228333
-0.598249,-0.285198,0.723841,6.52103,4.00527,8.63355,12,0.0232882,0.00437968,118,115.809,0.0280237
-0.584268,0.176628,0.755685,6.55825,3.98867,8.67198,13,0.0374291,0.00703909,134,157.875,0.0390043
0.236398,0.0410582,0.891544,6.59982,3.93981,8.70129,14,0.150936,0.0283858,18,31.9196,0.0612566
,,,,,,,,,25,125.384,0.0376961
,,,,,,,,,33,76.4486,0.0498676
,,,,,,,,,42,42.0581,0.06356
,,,,,,,,,52,80.3018,0.0385096
,,,,,,,,,63,110.396,0.053886
,,,,,,,,,75,67.5016,0.0625514
,,,,,,,,,88,70.8974,0.059716
,,,,,,,,,102,98.7273,0.0280033
,,,,,,,,,117,149.041,0.0328007
,,,,,,,,,133,123.23,0.0446915
,,,,,,,,,150,121.417,0.081105
,,,,,,,,,32,96.5856,0.0402922
,,,,,,,,,41,46.1624,0.0545143
,,,,,,,,,51,72.6735,0.071307
,,,,,,,,,62,111.282,0.0412231
,,,,,,,,,74,80.1878,0.0593528
,,,,,,,,,87,88.2231,0.07004
,,,,,,,,,101,73.2645,0.0665043
,,,,,,,,,116,124.51,0.0294111
,,,,,,,,,132,122.041,0.0347489
,,,,,,,,,149,103.124,0.0483879
,,,,,,,,,167,132.353,0.0941585
,,,,,,,,,50,64.9911,0.0350299
,,,,,,,,,61,165.831,0.0412761
,,,,,,,,,73,150.828,0.0290179
,,,,,,,,,86,45.2211,0.0369664
,,,,,,,,,100,155.485,0.0408484
,,,,,,,,,115,123.358,0.0396199
,,,,,,,,,131,135.723,0.0226224
,,,,,,,,,148,51.5113,0.0256535
,,,,,,,,,166,68.955,0.0323944
,,,,,,,,,185,107.459,0.0480224
,,,,,,,,,72,110.518,0.056331
,,,,,,,,,85,142.2,0.0357314
,,,,,,,,,99,34.1386,0.0485986
,,,,,,,,,114,103.276,0.0555374
,,,,,,,,,130,69.5074,0.0532908
,,,,,,,,,147,131.509,0.0265048
,,,,,,,,,165,75.9182,0.0307634
,,,,,,,,,184,61.1398,0.0409926
,,,,,,,,,204,109.417,0.0696926
,,,,,,,,,98,38.6144,0.0422535
,,,,,,,,,113,137.691,0.0615127
,,,,,,,,,129,36.4645,0.0730676
,,,,,,,,,146,63.2885,0.0692279
,,,,,,,,,164,57.8076,0.0299319
,,,,,,,,,183,142.128,0.0354783
,,,,,,,,,203,121.791,0.0498138
,,,,,,,,,224,86.7037,0.0997128
,,,,,,,,,128,145.825,0.0377484
,,,,,,,,,145,39.5792,0.0418054
,,,,,,,,,163,74.9213,0.0405196
,,,,,,,,,182,26.568,0.0229129
,,,,,,,,,202,114.7,0.0260277
,,,,,,,,,223,110.884,0.0329934
,,,,,,,,,245,59.7335,0.0493506
,,,,,,,,,162,112.875,0.0605675
,,,,,,,,,181,78.2767,0.0579053
,,,,,,,,,201,120.371,0.0275986
,,,,,,,,,222,42.2281,0.0322468
,,,,,,,,,244,35.7001,0.0436695
,,,,,,,,,267,88.3438,0.0778008
,,,,,,,,,200,35.7215,0.0680331
,,,,,,,,,221,36.8228,0.0297063
,,,,,,,,,243,105.915,0.0351618
,,,,,,,,,266,86.5357,0.0491922
,,,,,,,,,290,54.2358,0.0972527
,,,,,,,,,242,63.6114,0.0290513
,,,,,,,,,265,86.5017,0.0342477
,,,,,,,,,289,60.3098,0.0474214
,,,,,,,,,314,59.1167,0.0905669
,,,,,,,,,288,89.2987,0.0207628
,,,,,,,,,313,84.7839,0.0249678
,,,,,,,,,339,33.1925,0.033327
,,,,,,,,,338,27.4319,0.0287119
,,,,,,,,,365,57.0981,0.0403506
,,,,,,,,,392,52.7507,0.0599834
