"cellPairingIds","interplanarAngles","angleWeights"
18,52.3343,0.0318282
25,44.4455,0.0217994
33,43.7698,0.0399302
52,31.2845,0.0394293
32,55.8264,0.0251496
41,48.5105,0.052818
87,53.3726,0.0222132
73,60.2672,0.029669
86,37.7715,0.0249582
100,81.5668,0.0168145
115,44.1747,0.0301119
166,65.4997,0.0322052
85,59.8364,0.0776633
114,93.872,0.0258777
165,83.7078,0.0313856
204,55.5647,0.0604294
163,58.6024,0.0787493
182,46.6156,0.0251797
245,98.2776,0.0592895
162,49.3496,0.0220637
244,36.0931,0.0591654
243,38.3164,0.0172571
266,57.815,0.0275428
341,55.797,0.0239685
368,35.6655,0.0227073
242,37.3177,0.025498
289,61.1672,0.0995601
485,77.0894,0.0178202
339,118.696,0.0230485
516,73.0407,0.0120291
365,58.1245,0.0278924
452,39.538,0.0268405
483,39.7461,0.0230546
451,31.4861,0.0751888
581,58.7683,0.0185331
546,46.7098,0.0356358
615,109.034,0.0165882
578,29.5093,0.0475479
613,69.3094,0.0368331
686,41.6986,0.016843
648,51.1881,0.0339365
761,70.5123,0.0147477
