Q	U	V
{$V$}	{[mm$^3$]}	0.00982256
{$d_v$}	{[mm]}	0.265710
{$S_c$}	{[mm$^2$]}	0.419033
{$S_o$}	{[mm$^2$]}	0.311121
{$S_l/S_o$}	[]	0.346849
{$\Psi$}	[]	0.529321
{$\eta$}	[]	0.574019
{med($\theta_e$)}	{[$^\circ$]}	77.4718
{$\Upsilon$}	[]	12
{$\Xi$}	[]	8
