facetNormals:0,facetNormals:1,facetNormals:2,FacetCenters:0,FacetCenters:1,FacetCenters:2,FacetIds,relFacetSize,absFacetSize,cellPairingIds,interplanarAngles,angleWeights
0.413601,0.0129429,-0.825067,4.37781,3.32145,7.4732,1,0.0430669,0.0124611,8,60.0302,0.0496594
-0.479013,0.287389,-0.764974,4.28921,3.3726,7.46146,2,0.058635,0.0169656,13,50.3774,0.0370026
0.190205,0.749891,-0.584766,4.35911,3.42398,7.47914,3,0.0324353,0.0093849,19,67.6584,0.0355308
-0.459571,-0.54993,-0.650643,4.28977,3.268,7.47286,4,0.0302393,0.00874951,26,42.6006,0.0184906
0.662331,-0.534833,-0.481952,4.42251,3.24944,7.52314,5,0.0117725,0.00340629,34,90.8127,0.0206951
-0.670542,0.661653,-0.310023,4.2755,3.42995,7.49302,6,0.01362,0.00394083,43,84.9245,0.0210968
-0.0621387,0.981948,-0.113775,4.39397,3.44033,7.51342,7,0.0139701,0.00404214,53,82.3156,0.0394171
0.311738,-0.925464,-0.00433137,4.37176,3.20085,7.55407,8,0.0363376,0.010514,64,107.136,0.0402351
-0.866422,-0.45124,-0.117102,4.25563,3.27098,7.50863,9,0.0377526,0.0109234,76,117.163,0.0460865
-0.834458,0.492222,0.0861681,4.25814,3.40244,7.53579,10,0.0495614,0.0143402,89,74.3702,0.0675958
0.715752,0.583328,0.0883775,4.39687,3.37238,7.52037,11,0.157036,0.0454372,103,129.667,0.0359716
-0.743966,-0.555638,0.319601,4.2741,3.26873,7.56374,12,0.0308835,0.00893589,118,90.0907,0.0433669
0.784765,-0.41439,0.388612,4.41938,3.27857,7.59144,13,0.043671,0.0126359,134,118.131,0.0445708
0.227022,0.703306,0.640776,4.39732,3.42665,7.6221,14,0.0461835,0.0133628,151,126.165,0.0508674
0.24514,-0.547784,0.746765,4.3769,3.28123,7.64583,15,0.0621185,0.0179735,169,171.976,0.048198
-0.385307,0.112403,0.871765,4.29977,3.32877,7.649,16,0.0547171,0.0158319,18,51.5086,0.0417665
,,,,,,,,,25,52.3692,0.0399009
,,,,,,,,,33,96.3377,0.0196082
,,,,,,,,,42,37.1739,0.0221052
,,,,,,,,,52,64.8312,0.0225642
,,,,,,,,,63,116.447,0.0448688
,,,,,,,,,75,66.2778,0.0459317
,,,,,,,,,88,58.9455,0.0537177
,,,,,,,,,102,106.043,0.0853875
,,,,,,,,,117,92.9456,0.0404576
,,,,,,,,,133,149.695,0.0500586
,,,,,,,,,150,115.358,0.0516696
,,,,,,,,,168,158.81,0.0603265
,,,,,,,,,187,119.671,0.0566083
,,,,,,,,,32,97.303,0.0312988
,,,,,,,,,41,89.5928,0.017275
,,,,,,,,,51,55.1251,0.0191842
,,,,,,,,,62,34.5562,0.019529
,,,,,,,,,74,131.876,0.0342757
,,,,,,,,,87,117.103,0.0348925
,,,,,,,,,101,80.2334,0.0392098
,,,,,,,,,116,54.5368,0.0537655
,,,,,,,,,132,141.476,0.0316404
,,,,,,,,,149,114.44,0.0372238
,,,,,,,,,167,78.0829,0.0381073
,,,,,,,,,186,149.539,0.0426177
,,,,,,,,,206,122.405,0.0407279
,,,,,,,,,50,71.3184,0.0169473
,,,,,,,,,61,81.2512,0.0187809
,,,,,,,,,73,117.145,0.0191112
,,,,,,,,,86,67.0566,0.0330092
,,,,,,,,,100,40.6535,0.0335809
,,,,,,,,,115,86.5449,0.0375612
,,,,,,,,,131,141.97,0.0507132
,,,,,,,,,148,62.4593,0.030558
,,,,,,,,,166,114.28,0.0357347
,,,,,,,,,185,163.541,0.0365482
,,,,,,,,,205,108.698,0.0406771
,,,,,,,,,226,119.11,0.0389519
,,,,,,,,,72,131.953,0.0126291
,,,,,,,,,85,121.863,0.0127775
,,,,,,,,,99,42.5731,0.0177836
,,,,,,,,,114,106.669,0.0179482
,,,,,,,,,130,154.313,0.0190258
,,,,,,,,,147,82.4333,0.0219031
,,,,,,,,,165,111.341,0.0170469
,,,,,,,,,184,54.2213,0.0185457
,,,,,,,,,204,123.966,0.0187624
,,,,,,,,,225,84.1557,0.0197938
,,,,,,,,,247,141.569,0.0193762
,,,,,,,,,98,42.289,0.0137928
,,,,,,,,,113,147.855,0.0198135
,,,,,,,,,129,70.9352,0.0200181
,,,,,,,,,146,27.1246,0.0213678
,,,,,,,,,164,97.5823,0.0250659
,,,,,,,,,183,88.109,0.0189034
,,,,,,,,,203,163.426,0.0207641
,,,,,,,,,224,83.2236,0.0210362
,,,,,,,,,246,142.955,0.0223414
,,,,,,,,,269,86.2368,0.0218109
,,,,,,,,,128,163.544,0.0201814
,,,,,,,,,145,112.692,0.0203937
,,,,,,,,,163,56.9506,0.0217964
,,,,,,,,,182,55.6592,0.0256577
,,,,,,,,,202,123.422,0.019238
,,,,,,,,,223,121.396,0.0211685
,,,,,,,,,245,51.4628,0.0214514
,,,,,,,,,268,132.257,0.0228103
,,,,,,,,,292,87.882,0.0222575
,,,,,,,,,162,81.1382,0.0370316
,,,,,,,,,181,138.925,0.0419316
,,,,,,,,,201,110.492,0.0590185
,,,,,,,,,222,72.9669,0.0333893
,,,,,,,,,244,48.5363,0.0396682
,,,,,,,,,267,127.605,0.0406732
,,,,,,,,,291,51.6776,0.0458527
,,,,,,,,,316,104.074,0.0436724
,,,,,,,,,200,59.1451,0.0428585
,,,,,,,,,221,168.319,0.0608713
,,,,,,,,,243,27.3882,0.0339743
,,,,,,,,,266,124.395,0.0404967
,,,,,,,,,290,127.743,0.0415446
,,,,,,,,,315,93.2027,0.0469633
,,,,,,,,,341,78.9468,0.0446787
,,,,,,,,,242,109.592,0.0753439
,,,,,,,,,265,66.8929,0.0380541
,,,,,,,,,289,151.149,0.0464301
,,,,,,,,,314,77.1272,0.0478128
,,,,,,,,,340,116.093,0.055134
,,,,,,,,,367,61.041,0.0520118
,,,,,,,,,288,155.423,0.0516159
,,,,,,,,,313,66.7789,0.0683376
,,,,,,,,,339,46.0775,0.0713757
,,,,,,,,,366,95.0409,0.0890225
,,,,,,,,,394,98.6036,0.0811563
,,,,,,,,,338,103.952,0.0361806
,,,,,,,,,365,111.682,0.0370147
,,,,,,,,,393,67.4584,0.0412558
,,,,,,,,,422,57.757,0.0394823
,,,,,,,,,392,81.7653,0.0448921
,,,,,,,,,421,40.1369,0.0512863
,,,,,,,,,451,90.6271,0.048574
,,,,,,,,,450,80.8571,0.0529787
,,,,,,,,,481,54.1205,0.0500894
,,,,,,,,,512,57.429,0.0581833
