"cellPairingIds","interplanarAngles","angleWeights"
13,38.0164,0.0290144
19,59.5227,0.018149
64,95.0019,0.024379
76,87.2652,0.045566
118,127.148,0.0348741
134,104.979,0.0252835
151,122.212,0.0334241
32,41.6798,0.0194174
116,52.2301,0.0335055
132,86.9694,0.0304304
186,115.159,0.0379949
100,52.7349,0.0172255
148,50.2469,0.0186931
243,34.3734,0.0253709
266,57.1805,0.0316168
368,59.8667,0.0376573
289,66.5479,0.0796434
314,50.6095,0.042675
340,74.6636,0.0724643
367,52.4494,0.0302912
288,77.9859,0.0314058
366,75.9117,0.0395277
423,83.7866,0.0526834
452,39.6338,0.04546
451,41.7914,0.0251628
482,57.1428,0.0703686
450,26.4423,0.0318418
512,54.2699,0.0243991
545,84.8355,0.0647048
578,67.4196,0.0288452
