"cellPairingIds","interplanarAngles","angleWeights"
8,113.601,0.053849
13,80.8703,0.0776221
34,112.907,0.0504132
43,54.0386,0.0639942
53,78.1628,0.0581749
18,50.826,0.0728032
25,26.8313,0.0541981
42,109.739,0.0483353
32,58.2374,0.0783496
41,54.8756,0.0221027
74,72.0434,0.0809405
50,31.6754,0.0200166
61,103.951,0.0507191
100,94.6846,0.0908785
99,70.8962,0.0201816
114,82.58,0.0229971
130,55.149,0.0186825
98,88.6169,0.0563546
129,47.775,0.0755191
128,51.6134,0.0662329
145,75.4969,0.110717
162,80.2963,0.0943828
181,53.1524,0.0484553
200,35.4277,0.0686278
