Q	U	V
{$V$}	{[mm$^3$]}	0.00872061
{$d_v$}	{[mm]}	0.255378
{$S_c$}	{[mm$^2$]}	0.393738
{$S_o$}	{[mm$^2$]}	0.241302
{$S_l/S_o$}	[]	0.631723
{$\Psi$}	[]	0.520365
{$\eta$}	[]	0.541030
{med($\theta_e$)}	{[$^\circ$]}	
{$\Upsilon$}	[]	18
{$\Xi$}	[]	5
