Q	U	V
{$V$}	{[mm$^3$]}	0.00312298
{$d_v$}	{[mm]}	0.181352
{$S_c$}	{[mm$^2$]}	0.136448
{$S_o$}	{[mm$^2$]}	0.0797933
{$S_l/S_o$}	[]	0.710018
{$\Psi$}	[]	0.757233
{$\eta$}	[]	0.782906
{med($\theta_e$)}	{[$^\circ$]}	58.1808
{$\Upsilon$}	[]	17
{$\Xi$}	[]	7
