"cellPairingIds","interplanarAngles","angleWeights"
8,41.8533,0.0770564
13,58.5767,0.0651895
19,40.4291,0.0588323
26,35.6506,0.0753953
34,66.9474,0.080336
53,141.899,0.0568418
18,29.9054,0.0641276
25,23.1354,0.0579661
52,83.273,0.018748
62,56.822,0.0179529
74,96.2877,0.0494827
50,29.0878,0.057021
61,58.0498,0.0598026
73,103.135,0.0174341
100,46.1462,0.0587152
115,60.8706,0.0424847
166,91.614,0.054873
72,34.6061,0.0769961
113,150.018,0.057747
129,36.4023,0.0801176
203,82.4941,0.0731306
128,42.0422,0.017255
163,53.6778,0.0167714
223,77.2808,0.0184124
244,78.8253,0.0531374
266,55.6224,0.071511
289,51.3562,0.0488034
