Q	U	V
{$V$}	{[mm$^3$]}	0.00562968
{$d_v$}	{[mm]}	0.220713
{$S_c$}	{[mm$^2$]}	0.23588
{$S_o$}	{[mm$^2$]}	0.14434
{$S_l/S_o$}	[]	0.634197
{$\Psi$}	[]	0.648807
{$\eta$}	[]	0.682936
{med($\theta_e$)}	{[$^\circ$]}	61.4196
{$\Upsilon$}	[]	12
{$\Xi$}	[]	2
