"cellPairingIds","interplanarAngles","angleWeights"
26,67.4952,0.0275566
43,67.022,0.0262243
53,70.5632,0.027211
151,98.7671,0.0217877
169,124.41,0.0228257
85,56.4265,0.0711288
247,81.6743,0.050667
128,69.3793,0.0688709
245,61.5541,0.0724499
292,129.691,0.0463384
370,68.0377,0.0322733
267,35.5123,0.0805161
291,99.4452,0.0448735
342,77.2814,0.0546139
513,87.6252,0.0568406
580,83.542,0.0346197
512,64.0387,0.034077
545,28.6893,0.0364192
578,81.9929,0.0394154
649,69.2373,0.0272754
685,125.63,0.0287557
