facetNormals:0,facetNormals:1,facetNormals:2,FacetCenters:0,FacetCenters:1,FacetCenters:2,FacetIds,relFacetSize,absFacetSize,cellPairingIds,interplanarAngles,angleWeights
-0.628664,-0.586826,-0.418601,5.43405,3.8154,6.24471,1,0.017817,0.00149482,8,123.148,0.0320329
0.834747,0.205528,-0.37164,5.48478,3.82931,6.23227,2,0.158488,0.0132969,13,110.821,0.0288829
-0.149455,0.908214,-0.269764,5.43778,3.88084,6.23598,3,0.076225,0.00639516,19,104.784,0.0119665
0.887019,-0.386123,-0.213248,5.43499,3.83739,6.21946,4,0.00900845,0.000755795,26,151.782,0.0273253
0.569398,0.777781,-0.00475418,5.4428,3.86121,6.24575,5,0.0585958,0.0049161,34,77.5218,0.024477
-0.778942,0.549684,-0.0727948,5.38667,3.84665,6.2189,6,0.039088,0.00327942,43,102.142,0.021489
0.685555,-0.624048,0.315952,5.48344,3.79788,6.25197,7,0.0270675,0.00227092,53,44.4175,0.0197101
-0.76802,-0.52459,0.295952,5.46264,3.80305,6.25753,8,0.0220532,0.00185023,64,131.965,0.024662
0.850404,-0.169787,0.462335,5.50015,3.83506,6.28045,9,0.0400479,0.00335996,76,69.5418,0.0257055
-0.881129,0.101494,0.402989,5.37902,3.80877,6.22949,10,0.0461293,0.00387017,89,111.104,0.0297182
-0.457852,0.703421,0.509078,5.40042,3.84514,6.28973,11,0.0895034,0.0075092,103,65.6928,0.0168721
-0.37155,-0.693714,0.599852,5.46477,3.8257,6.22184,12,0.0160224,0.00134425,118,138.457,0.0241918
-0.00757373,0.812506,0.558642,5.41513,3.85673,6.28507,13,0.0376699,0.00316045,134,95.4122,0.0245323
0.306553,-0.633986,0.632354,5.47334,3.81537,6.26991,14,0.0393716,0.00330322,151,72.7171,0.0125002
-0.605804,-0.343692,0.714358,5.41239,3.8612,6.2183,15,0.00962734,0.000807719,169,94.5931,0.0255135
-0.541013,0.133985,0.803616,5.40684,3.83763,6.27589,16,0.0449164,0.00376841,188,135.314,0.0218383
0.0670625,0.441701,0.872582,5.43954,3.85767,6.28794,17,0.0282039,0.00236627,208,110.209,0.0230678
-0.00382941,-0.135696,0.965789,5.43589,3.83531,6.27941,18,0.0327066,0.00274403,18,79.6,0.102941
,,,,,,,,,25,37.0664,0.0170479
,,,,,,,,,33,45.1297,0.085559
,,,,,,,,,42,124.732,0.0627098
,,,,,,,,,52,69.1432,0.0462381
,,,,,,,,,63,159.985,0.0387189
,,,,,,,,,75,56.8612,0.0639392
,,,,,,,,,88,161.335,0.0714596
,,,,,,,,,102,117.662,0.114401
,,,,,,,,,117,136.809,0.0291026
,,,,,,,,,133,92.9137,0.0608717
,,,,,,,,,150,97.0904,0.0630743
,,,,,,,,,168,154.275,0.018152
,,,,,,,,,187,142.097,0.0699956
,,,,,,,,,207,101.149,0.0478862
,,,,,,,,,228,115.276,0.0542233
,,,,,,,,,32,116.619,0.0161127
,,,,,,,,,41,47.6719,0.0662578
,,,,,,,,,51,46.1536,0.0516764
,,,,,,,,,62,143.43,0.039949
,,,,,,,,,74,118.138,0.0342092
,,,,,,,,,87,115.515,0.0525084
,,,,,,,,,101,82.921,0.0574758
,,,,,,,,,116,52.7458,0.0823322
,,,,,,,,,132,140.881,0.0264789
,,,,,,,,,149,51.5307,0.0504217
,,,,,,,,,167,150.77,0.0519236
,,,,,,,,,186,115.655,0.0170955
,,,,,,,,,206,90.87,0.0565248
,,,,,,,,,227,80.4656,0.0411734
,,,,,,,,,249,114.183,0.0457729
,,,,,,,,,50,77.5566,0.0156161
,,,,,,,,,61,159.578,0.0146423
,,,,,,,,,73,36.3264,0.0135179
,,,,,,,,,86,124.08,0.0127917
,,,,,,,,,100,42.192,0.0147084
,,,,,,,,,115,159.967,0.0150733
,,,,,,,,,131,143.957,0.0163693
,,,,,,,,,148,101.154,0.0115327
,,,,,,,,,166,116.744,0.0145398
,,,,,,,,,185,65.9659,0.0146621
,,,,,,,,,205,124.301,0.00930762
,,,,,,,,,226,136.52,0.0150071
,,,,,,,,,248,107.817,0.0136553
,,,,,,,,,271,99.3493,0.0141261
,,,,,,,,,72,90.9728,0.046894
,,,,,,,,,85,95.868,0.0370296
,,,,,,,,,99,154.155,0.0320457
,,,,,,,,,114,68.3194,0.0475781
,,,,,,,,,130,116.887,0.0516205
,,,,,,,,,147,72.5348,0.0708244
,,,,,,,,,165,142.23,0.0251639
,,,,,,,,,184,48.888,0.0458584
,,,,,,,,,204,110.638,0.0470975
,,,,,,,,,225,129.803,0.0165375
,,,,,,,,,247,102.725,0.0508522
,,,,,,,,,270,66.4482,0.0380792
,,,,,,,,,294,96.8614,0.0419807
,,,,,,,,,98,163.969,0.0319857
,,,,,,,,,113,72.0027,0.0281976
,,,,,,,,,129,147.152,0.0395621
,,,,,,,,,146,40.0721,0.0423177
,,,,,,,,,164,41.1957,0.0544128
,,,,,,,,,183,98.2387,0.0227283
,,,,,,,,,203,64.0976,0.0383658
,,,,,,,,,224,134.414,0.0392293
,,,,,,,,,246,75.9888,0.0154495
,,,,,,,,,269,62.1684,0.0418
,,,,,,,,,293,82.2104,0.0327658
,,,,,,,,,318,98.7534,0.0356137
,,,,,,,,,128,96.3449,0.0243044
,,,,,,,,,145,29.8235,0.0323024
,,,,,,,,,163,124.473,0.0341163
,,,,,,,,,182,128.008,0.0415649
,,,,,,,,,202,67.7015,0.0201293
,,,,,,,,,223,110.343,0.0315005
,,,,,,,,,245,29.651,0.0320802
,,,,,,,,,268,88.5415,0.014203
,,,,,,,,,292,102.089,0.033779
,,,,,,,,,317,87.2523,0.027624
,,,,,,,,,343,66.0865,0.029621
,,,,,,,,,162,116.45,0.0284435
,,,,,,,,,181,38.6358,0.0298405
,,,,,,,,,201,82.0029,0.0353872
,,,,,,,,,222,31.1192,0.0185602
,,,,,,,,,244,105.37,0.0278198
,,,,,,,,,267,72.0763,0.028271
,,,,,,,,,291,28.3527,0.0134034
,,,,,,,,,316,52.3511,0.0295821
,,,,,,,,,342,91.4957,0.0247522
,,,,,,,,,369,67.7815,0.0263436
,,,,,,,,,200,127.305,0.042874
,,,,,,,,,221,106.466,0.055336
,,,,,,,,,243,85.3313,0.0228878
,,,,,,,,,266,83.2507,0.0388225
,,,,,,,,,290,44.7378,0.0397069
,,,,,,,,,315,97.4158,0.015523
,,,,,,,,,341,96.6494,0.0423426
,,,,,,,,,368,66.4148,0.0330983
,,,,,,,,,396,60.888,0.0360068
,,,,,,,,,242,44.6807,0.060881
,,,,,,,,,265,58.8459,0.0237838
,,,,,,,,,289,70.9044,0.0414726
,,,,,,,,,314,94.9541,0.0424834
,,,,,,,,,340,35.9563,0.01593
,,,,,,,,,367,31.2937,0.0455147
,,,,,,,,,395,69.3126,0.0350053
,,,,,,,,,424,66.504,0.0382752
,,,,,,,,,288,90.7366,0.0271792
,,,,,,,,,313,27.3943,0.0530235
,,,,,,,,,339,106.534,0.054687
,,,,,,,,,366,65.9409,0.0173847
,,,,,,,,,394,38.5247,0.0598151
,,,,,,,,,423,41.185,0.0428919
,,,,,,,,,453,65.4374,0.0479069
,,,,,,,,,338,103.377,0.0224822
,,,,,,,,,365,41.1469,0.022776
,,,,,,,,,393,25.3711,0.0120276
,,,,,,,,,422,52.4245,0.0236193
,,,,,,,,,452,78.5784,0.0204355
,,,,,,,,,483,45.6264,0.0215082
,,,,,,,,,392,100.132,0.0385019
,,,,,,,,,421,82.7352,0.0153354
,,,,,,,,,451,54.3613,0.0409752
,,,,,,,,,482,28.951,0.0322568
,,,,,,,,,514,63.4863,0.0350132
,,,,,,,,,450,59.1722,0.0154715
,,,,,,,,,481,73.8556,0.0419616
,,,,,,,,,513,71.6363,0.032865
,,,,,,,,,546,41.1012,0.0357309
,,,,,,,,,512,28.7124,0.0158561
,,,,,,,,,545,63.86,0.0143547
,,,,,,,,,579,40.594,0.0148759
,,,,,,,,,578,40.9483,0.0346502
,,,,,,,,,613,37.1724,0.0378512
,,,,,,,,,648,35.0661,0.0302888
