"cellPairingIds","interplanarAngles","angleWeights"
13,48.8323,0.0251589
26,63.1757,0.0261492
43,109.922,0.0264936
53,115.085,0.0285543
64,97.7501,0.0263233
76,119.269,0.0161394
41,79.0183,0.0637974
62,63.8219,0.0658868
85,124.119,0.0731406
114,42.3076,0.0718576
128,65.8142,0.0956823
145,135.192,0.0745194
163,130.65,0.0267448
181,95.2748,0.0288463
200,36.7497,0.0265713
