facetNormals:0,facetNormals:1,facetNormals:2,FacetCenters:0,FacetCenters:1,FacetCenters:2,FacetIds,relFacetSize,absFacetSize,cellPairingIds,interplanarAngles,angleWeights
-0.230634,0.0726369,-0.888521,6.73225,7.63055,6.32133,1,0.05957,0.0162141,8,45.5762,0.0318133
-0.201975,-0.649816,-0.718635,6.721,7.54725,6.3647,2,0.0217014,0.00590681,13,54.7304,0.039191
-0.662489,-0.544454,-0.452868,6.70376,7.60868,6.34413,3,0.0292012,0.00794813,19,50.3925,0.0452098
-0.602384,0.625952,-0.434119,6.67792,7.64183,6.3619,4,0.0364283,0.00991524,26,70.0013,0.0344785
-0.184765,-0.892692,-0.374304,6.70687,7.5189,6.4012,5,0.02426,0.0066032,34,75.903,0.0659628
0.770825,-0.199231,-0.446825,6.84364,7.5969,6.35623,6,0.0738925,0.0201124,43,71.2317,0.0548698
0.562204,0.673489,-0.414397,6.79734,7.66226,6.34169,7,0.0508571,0.0138425,53,92.6684,0.0531805
0.120308,0.965122,0.0948191,6.76459,7.67007,6.40784,8,0.0480288,0.0130727,64,85.2563,0.0305959
-0.857164,0.462564,0.175486,6.67107,7.69413,6.40455,9,0.0205841,0.00560268,76,109.725,0.0681644
0.693544,0.651144,0.21429,6.83197,7.65334,6.42431,10,0.0796566,0.0216814,89,125.574,0.0427511
0.894914,0.115969,0.363806,6.87233,7.55621,6.46919,11,0.0333384,0.00907422,103,100.128,0.0233968
-0.670474,0.604587,0.403695,6.67938,7.68978,6.42509,12,0.0145571,0.00396223,118,106.096,0.0620559
-0.820782,-0.0922839,0.479996,6.68723,7.60463,6.42027,13,0.0647582,0.0176262,134,116.899,0.0530279
-0.462167,-0.67974,0.520587,6.72976,7.57737,6.45926,14,0.0477804,0.0130051,151,131.653,0.0338384
0.0897731,0.679557,0.714001,6.81254,7.56836,6.51004,15,0.0236309,0.00643199,169,153.042,0.0291687
0.479181,0.28903,0.804577,6.85568,7.57375,6.50932,16,0.0193126,0.00525661,188,158.289,0.0378088
0.0962731,-0.4065,0.877797,6.77974,7.5849,6.48158,17,0.0276925,0.0075375,208,137.554,0.0687156
-0.250441,0.404219,0.828763,6.75523,7.57573,6.50431,18,0.0811787,0.0220956,18,32.0977,0.0248988
,,,,,,,,,25,88.3971,0.0271994
,,,,,,,,,33,24.6554,0.0229095
,,,,,,,,,42,70.9524,0.0335497
,,,,,,,,,52,105.301,0.0304216
,,,,,,,,,63,138.077,0.029895
,,,,,,,,,75,105.003,0.021128
,,,,,,,,,88,137.999,0.03411
,,,,,,,,,102,122.512,0.0262897
,,,,,,,,,117,124.017,0.0174254
,,,,,,,,,133,97.2428,0.0325087
,,,,,,,,,150,80.3787,0.0298467
,,,,,,,,,168,173.271,0.0226251
,,,,,,,,,187,152.814,0.0204375
,,,,,,,,,207,113.66,0.0243336
,,,,,,,,,228,148.659,0.0342475
,,,,,,,,,32,74.2984,0.0324168
,,,,,,,,,41,35.5069,0.0265022
,,,,,,,,,51,103.045,0.04186
,,,,,,,,,62,125.881,0.0371002
,,,,,,,,,74,133.15,0.0363201
,,,,,,,,,87,75.7316,0.0241469
,,,,,,,,,101,164.449,0.0427359
,,,,,,,,,116,150.445,0.031133
,,,,,,,,,132,94.0545,0.0194288
,,,,,,,,,149,66.0117,0.0402518
,,,,,,,,,167,62.1683,0.0362488
,,,,,,,,,186,141.657,0.0261224
,,,,,,,,,206,152.004,0.0232491
,,,,,,,,,227,104.748,0.0284269
,,,,,,,,,249,117.614,0.0429519
,,,,,,,,,50,107.325,0.0291242
,,,,,,,,,61,116.46,0.0487991
,,,,,,,,,73,73.8048,0.0424501
,,,,,,,,,86,58.8797,0.0414319
,,,,,,,,,100,40.6061,0.0263045
,,,,,,,,,115,96.2575,0.0499936
,,,,,,,,,131,131.363,0.0348149
,,,,,,,,,148,50.7958,0.0208017
,,,,,,,,,166,75.7552,0.0466274
,,,,,,,,,185,113.256,0.0413392
,,,,,,,,,205,86.3418,0.0286662
,,,,,,,,,226,118.696,0.0252427
,,,,,,,,,248,137.272,0.0314653
,,,,,,,,,271,87.2759,0.0502895
,,,,,,,,,72,76.981,0.0365274
,,,,,,,,,85,125.114,0.0328498
,,,,,,,,,99,162.669,0.0322367
,,,,,,,,,114,109.168,0.0222714
,,,,,,,,,130,145.254,0.0371927
,,,,,,,,,147,114.989,0.0280837
,,,,,,,,,165,125.572,0.0181959
,,,,,,,,,184,86.6892,0.0352969
,,,,,,,,,204,58.7554,0.0321806
,,,,,,,,,225,155.915,0.0239413
,,,,,,,,,247,132.117,0.0215054
,,,,,,,,,270,89.0114,0.0258629
,,,,,,,,,294,131.569,0.0373562
,,,,,,,,,98,56.8536,0.060248
,,,,,,,,,113,99.1528,0.0582174
,,,,,,,,,129,156.929,0.0321986
,,,,,,,,,146,69.6827,0.0766664
,,,,,,,,,164,55.4199,0.0459468
,,,,,,,,,183,154.904,0.0243226
,,,,,,,,,203,161.85,0.0690245
,,,,,,,,,224,120.695,0.0580345
,,,,,,,,,246,115.233,0.0358098
,,,,,,,,,269,93.0575,0.0306219
,,,,,,,,,293,105.49,0.0402869
,,,,,,,,,318,137.572,0.0773644
,,,,,,,,,128,44.3196,0.0494025
,,,,,,,,,145,104.664,0.0293065
,,,,,,,,,163,38.5782,0.0620793
,,,,,,,,,182,62.8712,0.0402752
,,,,,,,,,202,98.2116,0.0226352
,,,,,,,,,223,141.215,0.0569719
,,,,,,,,,245,171.382,0.0492708
,,,,,,,,,268,77.2303,0.0322683
,,,,,,,,,292,82.1033,0.0279945
,,,,,,,,,317,128.209,0.0358592
,,,,,,,,,343,103.219,0.0625362
,,,,,,,,,162,68.1499,0.0288176
,,,,,,,,,181,39.7924,0.0599256
,,,,,,,,,201,74.5002,0.0393575
,,,,,,,,,222,55.9495,0.0223424
,,,,,,,,,244,98.7679,0.0551528
,,,,,,,,,267,134.151,0.0479043
,,,,,,,,,291,40.6017,0.0316765
,,,,,,,,,316,64.4613,0.027548
,,,,,,,,,342,108.251,0.0351299
,,,,,,,,,369,61.9844,0.0603513
,,,,,,,,,200,105.363,0.0327144
,,,,,,,,,221,132.423,0.0254528
,,,,,,,,,243,19.0408,0.0170538
,,,,,,,,,266,37.9937,0.0312386
,,,,,,,,,290,79.6449,0.0287727
,,,,,,,,,315,68.269,0.0220025
,,,,,,,,,341,98.0513,0.0199281
,,,,,,,,,368,96.9557,0.023615
,,,,,,,,,396,54.6527,0.0328408
,,,,,,,,,242,35.3218,0.0470043
,,,,,,,,,265,89.0982,0.0246158
,,,,,,,,,289,124.414,0.0714389
,,,,,,,,,314,133.374,0.0597319
,,,,,,,,,340,47.0401,0.0364489
,,,,,,,,,367,43.5251,0.031088
,,,,,,,,,395,90.5934,0.0410976
,,,,,,,,,424,73.341,0.0804105
,,,,,,,,,288,113.458,0.0202654
,,,,,,,,,313,127.872,0.0440165
,,,,,,,,,339,108.67,0.0392738
,,,,,,,,,366,64.2154,0.0276576
,,,,,,,,,394,37.6435,0.0244573
,,,,,,,,,423,67.7359,0.0302543
,,,,,,,,,453,82.3187,0.0472658
,,,,,,,,,338,43.2354,0.0237708
,,,,,,,,,365,83.4915,0.0223155
,,,,,,,,,393,49.2538,0.018016
,,,,,,,,,422,79.4012,0.016601
,,,,,,,,,452,87.3739,0.0190829
,,,,,,,,,483,37.7781,0.0246873
,,,,,,,,,392,41.8878,0.0549887
,,,,,,,,,421,77.3962,0.0346263
,,,,,,,,,451,92.0678,0.0297523
,,,,,,,,,482,65.8576,0.0387951
,,,,,,,,,514,51.673,0.0720447
,,,,,,,,,450,97.8611,0.0316223
,,,,,,,,,481,89.9444,0.027507
,,,,,,,,,513,43.2622,0.0350632
,,,,,,,,,546,72.96,0.0601548
,,,,,,,,,512,32.9604,0.0212547
,,,,,,,,,545,68.083,0.025501
,,,,,,,,,579,26.8258,0.0366059
,,,,,,,,,578,48.2107,0.0227556
,,,,,,,,,613,44.8723,0.0312022
,,,,,,,,,648,54.5252,0.0412973
