Q	U	V
{$V$}	{[mm$^3$]}	0.00522595
{$d_v$}	{[mm]}	0.215306
{$S_c$}	{[mm$^2$]}	0.226733
{$S_o$}	{[mm$^2$]}	0.150606
{$S_l/S_o$}	[]	0.505471
{$\Psi$}	[]	0.642312
{$\eta$}	[]	0.685061
{med($\theta_e$)}	{[$^\circ$]}	67.3971
{$\Upsilon$}	[]	13
{$\Xi$}	[]	5
