facetNormals:0,facetNormals:1,facetNormals:2,FacetCenters:0,FacetCenters:1,FacetCenters:2,FacetIds,relFacetSize,absFacetSize,cellPairingIds,interplanarAngles,angleWeights
0.255881,-0.188176,-0.877022,6.93275,4.31014,9.25881,1,0.102402,0.0238658,8,45.72,0.0449565
-0.440496,0.0749581,-0.872462,6.82619,4.36537,9.25353,2,0.0288002,0.00671215,13,31.6191,0.0255152
0.720891,-0.0573107,-0.670579,6.97601,4.31188,9.28427,3,0.0145732,0.00339642,19,49.5749,0.0153906
-0.184609,-0.787395,-0.56552,6.876,4.21997,9.27844,4,0.00832058,0.00193919,26,69.7553,0.0297664
-0.28619,0.73227,-0.605918,6.81257,4.38306,9.30705,5,0.0174142,0.00405855,34,77.1647,0.037749
-0.855446,0.0113118,-0.484284,6.72823,4.30906,9.30858,6,0.0231395,0.00539287,43,78.9591,0.0420983
-0.638477,0.556347,-0.506659,6.84614,4.39656,9.31108,7,0.0264953,0.00617499,53,76.9574,0.0882043
0.142562,0.869875,-0.374969,6.9238,4.40196,9.32671,8,0.077464,0.0180537,64,107.76,0.0425621
-0.783989,0.591545,-0.0368102,6.82458,4.39375,9.33346,9,0.0268638,0.00626087,76,92.7162,0.0698054
-0.638729,-0.669559,0.00394505,6.78295,4.24568,9.34453,10,0.0529502,0.0123405,89,105.21,0.0327024
0.224036,0.954515,0.136786,6.98546,4.4117,9.41694,11,0.0194582,0.00453492,103,84.066,0.0902357
0.777894,0.488567,0.0211009,6.99516,4.38581,9.3403,12,0.0806531,0.018797,118,133.346,0.0597942
-0.622953,0.643199,0.39457,6.89247,4.36997,9.41558,13,0.042225,0.00984093,134,100.189,0.0499018
0.327666,-0.781838,0.443333,6.98183,4.27321,9.42359,14,0.0329888,0.00768835,151,147.36,0.0918384
-0.271686,0.662865,0.637127,6.87599,4.36009,9.42436,15,0.0832503,0.0194023,169,149.246,0.0584833
-0.673568,-0.0296871,0.694605,6.81823,4.31397,9.41526,16,0.0409293,0.00953896,188,130.332,0.0477958
-0.247508,-0.597871,0.724975,6.83609,4.28405,9.40874,17,0.0311728,0.00726511,208,133.787,0.0791396
0.478997,0.227773,0.793019,6.9245,4.38622,9.42504,18,0.0644896,0.0150299,229,156.327,0.0352501
-0.168373,-0.191335,0.950207,6.84925,4.353,9.42278,19,0.0212893,0.00496166,18,74.2007,0.0193534
,,,,,,,,,25,57.7847,0.0129111
,,,,,,,,,33,43.1719,0.0217046
,,,,,,,,,42,33.8624,0.0256614
,,,,,,,,,52,37.738,0.0275997
,,,,,,,,,63,69.4534,0.0419893
,,,,,,,,,75,64.0342,0.0277983
,,,,,,,,,88,75.4599,0.0373081
,,,,,,,,,102,98.682,0.023225
,,,,,,,,,117,111.114,0.0424441
,,,,,,,,,133,91.292,0.0342438
,,,,,,,,,150,128.968,0.0307525
,,,,,,,,,168,114.285,0.0427954
,,,,,,,,,187,109.167,0.0338098
,,,,,,,,,207,126.628,0.0299395
,,,,,,,,,228,161.298,0.0398181
,,,,,,,,,250,142.905,0.0244816
,,,,,,,,,32,72.5862,0.010593
,,,,,,,,,41,80.7096,0.0158675
,,,,,,,,,51,107.564,0.0178834
,,,,,,,,,62,99.0089,0.0188038
,,,,,,,,,74,71.2056,0.0245313
,,,,,,,,,87,126.341,0.0188957
,,,,,,,,,101,117.736,0.0228559
,,,,,,,,,116,89.1152,0.0166651
,,,,,,,,,132,55.0878,0.0246859
,,,,,,,,,149,141.054,0.021668
,,,,,,,,,167,90.9881,0.0202158
,,,,,,,,,186,134.362,0.0248043
,,,,,,,,,206,174.118,0.0214935
,,,,,,,,,227,131.124,0.0198613
,,,,,,,,,249,102.243,0.023774
,,,,,,,,,272,140.401,0.0173024
,,,,,,,,,50,100.654,0.0112607
,,,,,,,,,61,64.1577,0.0122399
,,,,,,,,,73,91.9813,0.0126641
,,,,,,,,,86,121.875,0.0150271
,,,,,,,,,100,108.032,0.0127058
,,,,,,,,,115,45.2514,0.0143813
,,,,,,,,,131,152.979,0.0116566
,,,,,,,,,148,126.569,0.0150849
,,,,,,,,,166,129.528,0.0139018
,,,,,,,,,185,71.1892,0.0132893
,,,,,,,,,205,151.58,0.0151291
,,,,,,,,,226,104.866,0.0138297
,,,,,,,,,248,83.6259,0.0131351
,,,,,,,,,271,139.53,0.0147394
,,,,,,,,,295,111.487,0.0119649
,,,,,,,,,72,55.9381,0.0198727
,,,,,,,,,85,23.6744,0.0210157
,,,,,,,,,99,30.0074,0.0284359
,,,,,,,,,114,45.8221,0.0211307
,,,,,,,,,130,109.717,0.0262089
,,,,,,,,,147,55.825,0.0183796
,,,,,,,,,165,82.2904,0.0286438
,,,,,,,,,184,65.0177,0.0246588
,,,,,,,,,204,169.919,0.0227952
,,,,,,,,,225,79.2744,0.0288034
,,,,,,,,,247,105.071,0.0244329
,,,,,,,,,270,146.706,0.0223455
,,,,,,,,,294,118.427,0.0274233
,,,,,,,,,319,133.135,0.0191577
,,,,,,,,,98,34.6756,0.024704
,,,,,,,,,113,85.769,0.0356345
,,,,,,,,,129,43.986,0.0248629
,,,,,,,,,146,53.8284,0.0322051
,,,,,,,,,164,104.708,0.0211398
,,,,,,,,,183,137.892,0.0359615
,,,,,,,,,203,68.7213,0.0298959
,,,,,,,,,224,122.394,0.0272
,,,,,,,,,246,94.1764,0.0362134
,,,,,,,,,269,75.4248,0.0295646
,,,,,,,,,293,98.7987,0.026562
,,,,,,,,,318,147.524,0.0340585
,,,,,,,,,344,109.215,0.0221758
,,,,,,,,,128,51.9298,0.0394853
,,,,,,,,,145,28.9966,0.0266783
,,,,,,,,,163,87.9098,0.0353181
,,,,,,,,,182,70.9605,0.022438
,,,,,,,,,202,105.056,0.0398873
,,,,,,,,,223,54.8691,0.0325599
,,,,,,,,,245,156.965,0.0293876
,,,,,,,,,268,76.5886,0.0401974
,,,,,,,,,292,86.302,0.0321673
,,,,,,,,,317,124.409,0.0286444
,,,,,,,,,343,128.097,0.0375595
,,,,,,,,,370,119.656,0.0236087
,,,,,,,,,162,63.7356,0.0398931
,,,,,,,,,181,139.592,0.0629032
,,,,,,,,,201,31.2207,0.0311035
,,,,,,,,,222,53.1403,0.0790264
,,,,,,,,,244,69.8595,0.0546569
,,,,,,,,,267,150.76,0.0462722
,,,,,,,,,291,71.0011,0.080253
,,,,,,,,,316,114.349,0.0535596
,,,,,,,,,342,152.703,0.0444558
,,,,,,,,,369,91.94,0.0703839
,,,,,,,,,397,125.462,0.0333994
,,,,,,,,,200,83.3996,0.035644
,,,,,,,,,221,66.7563,0.022569
,,,,,,,,,243,110.865,0.0403034
,,,,,,,,,266,27.3287,0.0328367
,,,,,,,,,290,141.489,0.0296129
,,,,,,,,,315,51.8794,0.0406201
,,,,,,,,,341,59.3545,0.0324374
,,,,,,,,,368,101.249,0.0288583
,,,,,,,,,396,106.734,0.0379282
,,,,,,,,,425,90.9575,0.0237539
,,,,,,,,,242,148.571,0.0284585
,,,,,,,,,265,165.697,0.0639295
,,,,,,,,,289,91.9749,0.0469833
,,,,,,,,,314,69.0901,0.0406512
,,,,,,,,,340,107.568,0.0647298
,,,,,,,,,367,59.6328,0.0461701
,,,,,,,,,395,51.3794,0.0392426
,,,,,,,,,424,121.048,0.0581529
,,,,,,,,,454,74.7534,0.0303685
,,,,,,,,,288,44.9714,0.0313524
,,,,,,,,,313,56.9451,0.0266401
,,,,,,,,,339,130.276,0.0244782
,,,,,,,,,366,46.0242,0.0315437
,,,,,,,,,394,95.0425,0.0263767
,,,,,,,,,423,123.215,0.0239603
,,,,,,,,,453,62.6983,0.029896
,,,,,,,,,484,95.3247,0.0203326
,,,,,,,,,338,100.382,0.0554302
,,,,,,,,,365,97.6974,0.0468251
,,,,,,,,,393,81.7794,0.0819311
,,,,,,,,,422,126.08,0.0543018
,,,,,,,,,452,121.712,0.044966
,,,,,,,,,483,55.1737,0.0716713
,,,,,,,,,515,103.069,0.0336866
,,,,,,,,,392,124.639,0.0370398
,,,,,,,,,421,25.4608,0.0560308
,,,,,,,,,451,44.5875,0.041567
,,,,,,,,,482,86.6424,0.0358667
,,,,,,,,,514,80.0681,0.0510347
,,,,,,,,,547,68.248,0.0283067
,,,,,,,,,450,110.742,0.0472531
,,,,,,,,,481,83.1503,0.0365325
,,,,,,,,,513,40.4192,0.0320551
,,,,,,,,,546,68.7736,0.0436494
,,,,,,,,,580,56.775,0.0258781
,,,,,,,,,512,49.2436,0.0548782
,,,,,,,,,545,81.8025,0.0453605
,,,,,,,,,579,54.8871,0.0726788
,,,,,,,,,614,56.2269,0.0339075
,,,,,,,,,578,42.9936,0.0353909
,,,,,,,,,613,76.1269,0.0500767
,,,,,,,,,649,35.1039,0.0280095
,,,,,,,,,648,69.7959,0.0420295
,,,,,,,,,685,27.8922,0.0253
,,,,,,,,,722,47.8958,0.032011
