"cellPairingIds","interplanarAngles","angleWeights"
8,51.3902,0.0446613
19,108.367,0.0200064
34,123.471,0.0665836
43,104.237,0.0501665
53,99.1876,0.0269776
64,101.879,0.0462082
25,83.7022,0.0213064
63,52.3283,0.0293962
61,66.517,0.0252766
86,85.6794,0.0162308
131,75.5678,0.0192196
148,63.8475,0.0229514
98,51.6672,0.105132
164,38.5275,0.0586001
145,101.272,0.0619797
182,58.1489,0.0454965
223,58.2311,0.0578807
162,39.1948,0.0300585
222,69.5106,0.0326221
243,74.7768,0.0656706
266,62.74,0.0526746
288,33.3519,0.0474543
313,32.2955,0.0402741
338,40.3022,0.061087
