facetNormals:0,facetNormals:1,facetNormals:2,FacetCenters:0,FacetCenters:1,FacetCenters:2,FacetIds,relFacetSize,absFacetSize,cellPairingIds,interplanarAngles,angleWeights
0.558174,0.300359,-0.733113,3.83818,6.78388,5.99326,1,0.0272864,0.0085071,8,28.0563,0.0212938
0.53898,0.684802,-0.457068,3.84447,6.86485,5.98097,2,0.0174594,0.00544332,13,90.0964,0.017971
0.168088,-0.92273,-0.24791,3.8055,6.74249,6.0004,3,0.0133973,0.00417686,19,48.4923,0.0318897
0.089909,0.870374,-0.428518,3.81759,6.86362,5.9712,4,0.0383613,0.0119599,26,113.185,0.0445229
-0.885541,0.264768,-0.0827941,3.78242,6.80674,6.01926,5,0.120883,0.0376878,34,48.3332,0.0431234
0.908653,0.186329,-0.0480959,3.85705,6.83287,5.95698,6,0.102772,0.0320413,43,77.4424,0.035737
0.823636,-0.489034,0.148151,3.8505,6.78252,6.01841,7,0.0517703,0.0161404,53,81.3752,0.0391549
-0.116034,0.944298,0.108701,3.7913,6.84415,6.01149,8,0.0692954,0.0216042,64,117.517,0.0135411
-0.0982711,-0.973501,0.129108,3.80441,6.71094,6.02385,9,0.00900495,0.00280747,76,56.7715,0.0284582
0.618469,0.76692,0.0696188,3.83624,6.87595,6.02878,10,0.0297352,0.00927054,89,86.617,0.0376194
0.416663,0.680619,0.521714,3.83376,6.84677,6.05683,11,0.0605482,0.0188771,103,161.672,0.0229838
-0.724232,-0.42572,0.502748,3.78148,6.76156,6.08104,12,0.0198532,0.00618965,118,127.705,0.0226307
-0.110923,0.41791,0.878162,3.79255,6.81991,6.08126,13,0.0193321,0.00602718,134,142.475,0.0458774
0.027429,-0.462908,0.807526,3.81259,6.7204,6.10894,14,0.143964,0.0448836,18,116.635,0.015161
,,,,,,,,,25,28.7774,0.023997
,,,,,,,,,33,106.42,0.0305119
,,,,,,,,,42,45.6143,0.0298481
,,,,,,,,,52,87.5173,0.0261125
,,,,,,,,,63,55.4486,0.0278914
,,,,,,,,,75,143.295,0.0118817
,,,,,,,,,88,31.7249,0.0220008
,,,,,,,,,102,61.1855,0.0271034
,,,,,,,,,117,161.135,0.0185795
,,,,,,,,,133,100.466,0.0183481
,,,,,,,,,150,137.104,0.031142
,,,,,,,,,32,136.162,0.019859
,,,,,,,,,41,114.451,0.0241212
,,,,,,,,,51,90.4625,0.0237044
,,,,,,,,,62,53.9804,0.021286
,,,,,,,,,74,171.095,0.0224535
,,,,,,,,,87,27.4367,0.0107705
,,,,,,,,,101,130.396,0.0184719
,,,,,,,,,116,137.996,0.0219399
,,,,,,,,,132,81.1298,0.0159985
,,,,,,,,,149,130.918,0.0158266
,,,,,,,,,167,75.1481,0.0245133
,,,,,,,,,50,78.1082,0.0582405
,,,,,,,,,61,73.0064,0.0558687
,,,,,,,,,73,116.074,0.0440683
,,,,,,,,,86,34.9329,0.049384
,,,,,,,,,100,161.424,0.014586
,,,,,,,,,115,43.9091,0.0335019
,,,,,,,,,131,64.0635,0.0469663
,,,,,,,,,148,133.045,0.0261651
,,,,,,,,,166,91.3545,0.0257085
,,,,,,,,,185,145.363,0.0605801
,,,,,,,,,72,150.658,0.111095
,,,,,,,,,85,165.577,0.0724939
,,,,,,,,,99,67.2407,0.0880925
,,,,,,,,,114,101.425,0.0167613
,,,,,,,,,130,112.476,0.0477297
,,,,,,,,,147,105.199,0.0806835
,,,,,,,,,165,57.5861,0.0341052
,,,,,,,,,184,81.3783,0.0333334
,,,,,,,,,204,104.319,0.131418
,,,,,,,,,98,43.7651,0.0688555
,,,,,,,,,113,85.7904,0.0827772
,,,,,,,,,129,107.582,0.016559
,,,,,,,,,146,40.1183,0.046125
,,,,,,,,,164,57.1525,0.076202
,,,,,,,,,183,146.879,0.0332779
,,,,,,,,,203,94.1098,0.0325427
,,,,,,,,,224,96.6506,0.11993
,,,,,,,,,128,125.673,0.0592644
,,,,,,,,,145,64.3382,0.0153414
,,,,,,,,,163,81.309,0.0377741
,,,,,,,,,182,84.5591,0.0558162
,,,,,,,,,202,109.312,0.0287003
,,,,,,,,,223,100.054,0.0281518
,,,,,,,,,245,65.8963,0.0761548
,,,,,,,,,162,161.047,0.0159387
,,,,,,,,,181,45.7467,0.0416137
,,,,,,,,,201,44.5112,0.0646271
,,,,,,,,,222,106.312,0.0308639
,,,,,,,,,244,57.5481,0.0302305
,,,,,,,,,267,113.287,0.0935578
,,,,,,,,,200,144.99,0.0138236
,,,,,,,,,221,132.538,0.0156782
,,,,,,,,,243,55.2668,0.0123901
,,,,,,,,,266,107.007,0.0122867
,,,,,,,,,290,53.0688,0.0169497
,,,,,,,,,242,29.9431,0.0398836
,,,,,,,,,265,139.877,0.0238096
,,,,,,,,,289,71.1075,0.0234309
,,,,,,,,,314,107.844,0.0492898
,,,,,,,,,288,110.652,0.0299019
,,,,,,,,,313,41.7401,0.029307
,,,,,,,,,339,82.3844,0.0852444
,,,,,,,,,338,68.9688,0.0195892
,,,,,,,,,365,50.2316,0.0348944
,,,,,,,,,392,55.7767,0.0340869
