facetNormals:0,facetNormals:1,facetNormals:2,FacetCenters:0,FacetCenters:1,FacetCenters:2,FacetIds,relFacetSize,absFacetSize,cellPairingIds,interplanarAngles,angleWeights
-0.310599,-0.459226,-0.781464,5.6989,6.08204,7.16367,1,0.00875914,0.000825277,8,80.8892,0.00879389
0.86634,-0.146336,-0.449987,5.73376,6.07568,7.20842,2,0.00882891,0.000831851,13,81.0226,0.0160923
-0.3834,0.741259,-0.466098,5.74093,6.1985,7.20246,3,0.0988461,0.00931318,19,98.4354,0.0153478
0.720986,0.477405,-0.396043,5.76975,6.14713,7.19473,4,0.0619391,0.00583583,26,85.6117,0.01023
0.813549,-0.533965,-0.101356,5.68938,6.05753,7.22748,5,0.0122945,0.00115838,34,110.568,0.0119974
-0.397777,0.899971,0.0537037,5.71665,6.17588,7.20201,6,0.0190345,0.00179341,43,75.3171,0.015888
-0.955973,0.224562,-0.057712,5.70132,6.14254,7.19786,7,0.085366,0.00804309,53,94.4458,0.0149652
-0.757911,0.632577,0.0233562,5.70727,6.16531,7.20724,8,0.0513423,0.00483742,64,130.532,0.0075691
0.696365,0.70099,0.102852,5.77473,6.21159,7.25321,9,0.00666376,0.000627852,76,128.963,0.0109261
0.379135,0.898709,0.0754583,5.74669,6.19304,7.23302,10,0.0145177,0.00136784,89,106.108,0.01555
-0.786464,0.190796,0.529437,5.70817,6.14682,7.25663,11,0.0692006,0.00652001,103,100.788,0.0164056
0.188191,-0.73098,0.57212,5.74547,6.09678,7.2376,12,0.129154,0.0121687,118,133.973,0.016597
0.77638,-0.0753677,0.546528,5.79237,6.16779,7.2417,13,0.157804,0.0148681,134,135.938,0.0109911
0.0828254,-0.209817,0.954608,5.75166,6.14693,7.27248,14,0.0147497,0.0013897,151,135.672,0.0119791
-0.301357,0.0846581,0.934057,5.75982,6.16478,7.26726,15,0.0189428,0.00178477,18,104.164,0.01621
,,,,,,,,,25,38.6755,0.0154549
,,,,,,,,,33,30.9199,0.0102774
,,,,,,,,,42,120.964,0.0120627
,,,,,,,,,52,149.316,0.0160028
,,,,,,,,,63,141.2,0.0150669
,,,,,,,,,75,62.3937,0.00759504
,,,,,,,,,88,80.2836,0.0109802
,,,,,,,,,102,172.991,0.0156599
,,,,,,,,,117,89.2303,0.016528
,,,,,,,,,133,62.2541,0.0167222
,,,,,,,,,150,109.744,0.0110459
,,,,,,,,,168,135.515,0.0120442
,,,,,,,,,32,73.2474,0.0761567
,,,,,,,,,41,134.928,0.021869
,,,,,,,,,51,32.4821,0.0319219
,,,,,,,,,62,53.4566,0.0916128
,,,,,,,,,74,37.526,0.0675816
,,,,,,,,,87,77.5519,0.0124858
,,,,,,,,,101,58.7135,0.0253171
,,,,,,,,,116,77.7467,0.0814084
,,,,,,,,,132,166.589,0.111986
,,,,,,,,,149,131.922,0.121553
,,,,,,,,,167,132.399,0.0256691
,,,,,,,,,186,105.843,0.0317928
,,,,,,,,,50,66.4512,0.0205166
,,,,,,,,,61,82.5458,0.0291201
,,,,,,,,,73,126.704,0.0717896
,,,,,,,,,86,105.672,0.056145
,,,,,,,,,100,32.5992,0.0120329
,,,,,,,,,115,43.7171,0.0235221
,,,,,,,,,131,138.195,0.0653688
,,,,,,,,,148,119.229,0.0837254
,,,,,,,,,166,70.1677,0.0889605
,,,,,,,,,185,116.654,0.0238257
,,,,,,,,,205,125.703,0.0290127
,,,,,,,,,72,147.111,0.0149395
,,,,,,,,,85,157.911,0.0214935
,,,,,,,,,99,171.997,0.0198385
,,,,,,,,,114,79.2197,0.00864295
,,,,,,,,,130,100.783,0.013314
,,,,,,,,,147,147.205,0.0208795
,,,,,,,,,165,58.4095,0.0224518
,,,,,,,,,184,48.5817,0.0228118
,,,,,,,,,204,85.0588,0.0134107
,,,,,,,,,225,113.547,0.0149112
,,,,,,,,,98,53.3032,0.0311282
,,,,,,,,,113,26.3436,0.0277726
,,,,,,,,,129,68.4614,0.00987158
,,,,,,,,,146,46.6279,0.0164721
,,,,,,,,,164,57.4325,0.0298566
,,,,,,,,,183,138.776,0.0331791
,,,,,,,,,203,111.718,0.0339713
,,,,,,,,,224,100.16,0.0166204
,,,,,,,,,246,75.3068,0.0189885
,,,,,,,,,128,27.0334,0.0641202
,,,,,,,,,145,121.75,0.0123625
,,,,,,,,,163,99.8712,0.0248152
,,,,,,,,,182,36.5586,0.076438
,,,,,,,,,202,113.874,0.102791
,,,,,,,,,223,147.556,0.110796
,,,,,,,,,245,100.835,0.0251533
,,,,,,,,,268,74.8538,0.0310055
,,,,,,,,,162,94.792,0.0117964
,,,,,,,,,181,72.9714,0.0226351
,,,,,,,,,201,40.2256,0.0589486
,,,,,,,,,222,129.243,0.0734758
,,,,,,,,,244,131.511,0.077477
,,,,,,,,,267,100.301,0.022916
,,,,,,,,,291,71.804,0.0276749
,,,,,,,,,200,21.8984,0.00913463
,,,,,,,,,221,111.973,0.0121569
,,,,,,,,,243,110.046,0.0126736
,,,,,,,,,266,54.9024,0.0127875
,,,,,,,,,290,89.4838,0.00918006
,,,,,,,,,315,93.189,0.00985921
,,,,,,,,,242,95.2612,0.0240003
,,,,,,,,,265,125.83,0.0261014
,,,,,,,,,289,73.2936,0.0265892
,,,,,,,,,314,95.0894,0.0146328
,,,,,,,,,340,88.0788,0.0164376
,,,,,,,,,288,89.0349,0.0901167
,,,,,,,,,313,111.369,0.0962106
,,,,,,,,,339,65.0442,0.0243165
,,,,,,,,,366,38.2956,0.0297436
,,,,,,,,,338,55.2739,0.142049
,,,,,,,,,365,39.6707,0.0264758
,,,,,,,,,393,63.5358,0.0330397
,,,,,,,,,392,49.8945,0.0269778
,,,,,,,,,421,73.2667,0.0338252
,,,,,,,,,450,28.5323,0.0165853
