"cellPairingIds","interplanarAngles","angleWeights"
33,27.7099,0.0215828
75,81.5048,0.0279727
88,31.1811,0.0275256
50,61.4766,0.0227167
73,38.701,0.0393649
86,18.297,0.0283667
131,69.8636,0.0173658
166,56.0152,0.0248586
85,92.5475,0.0372073
114,100.831,0.0286454
130,34.5985,0.0281767
147,30.9695,0.0169327
204,44.9606,0.0354305
129,50.4508,0.0399176
146,65.6235,0.0390133
246,37.2257,0.0479882
145,26.1179,0.0613782
223,29.0063,0.0433212
201,57.2871,0.0198849
244,64.3063,0.030365
369,59.884,0.0317514
200,109.005,0.0401505
243,30.4519,0.0394932
266,41.9971,0.0321372
315,73.8372,0.0497205
314,30.9397,0.0548819
340,72.9777,0.0483252
395,48.0417,0.0296667
485,52.7839,0.057463
339,37.0151,0.0239303
453,46.7549,0.0185783
338,45.1338,0.0311412
393,62.3317,0.0473762
422,37.3106,0.0355741
451,78.1882,0.0294932
514,97.3552,0.0274201
616,120.992,0.0276944
546,68.3263,0.0434911
615,31.9664,0.0986537
512,38.8339,0.0436643
545,40.2998,0.0345854
614,22.9803,0.0361119
649,41.2172,0.0288231
724,46.4026,0.0311459
685,29.7172,0.0245662
723,38.1266,0.0390269
761,75.506,0.0450963
801,113.059,0.028843
800,59.9849,0.0409818
841,20.2033,0.0271027
882,51.6493,0.0458428
