"cellPairingIds","interplanarAngles","angleWeights"
8,44.2785,0.039827
19,66.2094,0.0468138
43,59.7992,0.029141
76,93.1364,0.0310054
25,42.1162,0.064797
33,33.171,0.0545505
88,107.647,0.0379881
50,31.6806,0.0685671
61,30.3471,0.0579462
73,106.063,0.0405841
248,105.221,0.0691319
295,102,0.0623462
130,124.643,0.0392534
247,134.941,0.059371
319,95.8963,0.0528031
98,81.955,0.0330993
129,75.7231,0.0368243
164,65.6411,0.0438629
293,90.0459,0.0499076
145,29.189,0.028953
163,79.1945,0.0281441
200,93.0823,0.0307926
221,29.0152,0.0368664
290,38.0751,0.0380469
341,86.9023,0.0419409
368,67.8396,0.0410446
367,35.8822,0.0402647
423,44.2818,0.0499849
481,57.1827,0.0536374
513,38.8329,0.0521802
578,68.7005,0.059794
649,64.6579,0.0546494
685,29.3422,0.0531374
