"cellPairingIds","interplanarAngles","angleWeights"
8,51.2336,0.0423824
26,50.6958,0.0335115
34,51.2875,0.0294335
89,76.5416,0.0594165
103,76.5277,0.0341003
33,80.7315,0.0388565
42,82.4502,0.0334782
88,58.6827,0.0767574
150,92.0634,0.0260723
114,51.5246,0.0423986
147,47.0078,0.0527111
204,107.999,0.0224212
146,79.1619,0.0427199
183,49.3648,0.0280893
221,59.0859,0.0945581
290,64.198,0.0276207
315,58.471,0.0730513
265,120.698,0.0533088
289,105.501,0.0500825
314,81.4259,0.0313549
288,37.6197,0.0541826
366,39.9784,0.110197
338,37.6418,0.031095
393,50.5261,0.0463615
392,110.569,0.0220781
421,40.2231,0.0439019
450,92.1202,0.0288152
