Q	U	V
{$V$}	{[mm$^3$]}	0.00561425
{$d_v$}	{[mm]}	0.220511
{$S_c$}	{[mm$^2$]}	0.325436
{$S_o$}	{[mm$^2$]}	0.205992
{$S_l/S_o$}	[]	0.579848
{$\Psi$}	[]	0.469404
{$\eta$}	[]	0.535402
{med($\theta_e$)}	{[$^\circ$]}	76.663
{$\Upsilon$}	[]	10
{$\Xi$}	[]	4
