"cellPairingIds","interplanarAngles","angleWeights"
8,64.1915,0.0294755
13,53.7008,0.0572787
19,42.4485,0.0505835
26,81.2631,0.0463632
34,123.787,0.0495742
53,46.7579,0.0577728
64,68.756,0.0190794
42,115.927,0.022866
52,28.3126,0.0144492
63,82.0316,0.0244675
88,96.1684,0.022671
117,94.0503,0.0277285
150,98.1148,0.0270716
32,27.2441,0.0372265
41,32.0095,0.0348892
87,40.7947,0.0168051
100,27.5172,0.0161769
72,58.8154,0.031872
114,60.5001,0.0157193
319,93.7545,0.0138849
146,33.5374,0.0329441
344,76.3213,0.0141596
202,84.2176,0.0209275
223,35.0113,0.0170893
245,76.046,0.0205511
317,63.7804,0.0209044
162,44.1611,0.0168474
222,33.3431,0.0514228
243,49.9526,0.0183318
396,54.0705,0.0125974
425,82.625,0.00972155
314,29.1295,0.0424441
454,68.2759,0.0140846
452,45.5962,0.0680602
483,32.3851,0.0253347
515,73.7585,0.0158845
392,46.1242,0.038099
451,34.0834,0.041253
482,40.9807,0.0393312
481,30.6049,0.0695237
580,46.8258,0.0156667
578,33.3224,0.0737393
649,35.1763,0.0161753
685,48.6472,0.0158712
722,42.0606,0.0113914
