"cellPairingIds","interplanarAngles","angleWeights"
8,50.2306,0.0566274
13,37.3776,0.049737
19,71.8593,0.0465499
53,61.4802,0.0191679
64,59.0676,0.0635307
18,47.5148,0.0501829
25,41.1471,0.0469403
33,37.4891,0.0460332
42,57.8778,0.0272498
117,101.447,0.0241906
51,26.4305,0.0255467
87,47.1479,0.0555301
50,56.0099,0.0391444
73,36.7036,0.0280063
86,121.066,0.0179164
166,115.102,0.00610205
226,84.0313,0.0449403
165,72.1217,0.0219389
247,75.2178,0.0441082
129,51.2511,0.0287533
164,44.5221,0.02568
183,54.8757,0.0165139
223,84.6348,0.005732
245,43.9605,0.0260102
292,59.2179,0.0304587
162,42.2608,0.0199709
244,59.5868,0.0051396
291,41.1608,0.0177776
221,44.6529,0.0561635
315,48.5388,0.0504531
288,27.8967,0.0229454
366,56.1871,0.0416968
453,53.5397,0.0743791
422,71.8424,0.0236482
483,40.1118,0.0285234
392,52.7703,0.00600169
421,51.3224,0.00608587
482,33.0126,0.00585166
514,70.8829,0.00650292
481,39.4819,0.0400128
513,29.3601,0.0286706
579,56.7512,0.0646835
578,51.3778,0.0341719
613,54.9808,0.0823089
648,51.9107,0.0453796
