"cellPairingIds","interplanarAngles","angleWeights"
8,65.5124,0.0704281
13,55.2764,0.0642146
19,56.4744,0.076511
26,88.5672,0.0370319
89,72.3976,0.0407439
25,47.1721,0.0808828
33,119.459,0.0380267
42,78.8963,0.0263297
52,39.0226,0.039275
63,45.5351,0.0553884
41,42.0808,0.0361386
116,72.3417,0.0396652
149,42.0614,0.0626662
73,33.0423,0.0410971
131,68.0882,0.0440369
148,54.3931,0.0489777
248,78.9988,0.086694
72,75.7594,0.0196909
114,24.5997,0.0206838
184,52.8287,0.0365116
113,62.6904,0.0235063
129,64.5874,0.0166584
146,51.1709,0.019054
224,41.242,0.0249603
128,29.8019,0.0333074
202,27.779,0.0298371
222,28.2401,0.0383022
267,55.3845,0.0496575
200,18.1567,0.0199821
266,52.846,0.0272975
341,43.1088,0.0278553
314,58.6496,0.0332462
367,44.4454,0.0352701
313,57.0813,0.0401151
423,42.3952,0.0434625
365,59.8457,0.0423192
452,61.4187,0.0482682
451,33.3521,0.0669288
482,72.3474,0.0727014
481,74.5622,0.0627601
513,78.3783,0.0678089
578,63.7815,0.0767972
