Q	U	V
{$V$}	{[mm$^3$]}	0.00263376
{$d_v$}	{[mm]}	0.171340
{$S_c$}	{[mm$^2$]}	0.159525
{$S_o$}	{[mm$^2$]}	0.09541
{$S_l/S_o$}	[]	0.671995
{$\Psi$}	[]	0.578149
{$\eta$}	[]	0.691716
{med($\theta_e$)}	{[$^\circ$]}	68.9995
{$\Upsilon$}	[]	15
{$\Xi$}	[]	8
