Q	U	V
{$V$}	{[mm$^3$]}	0.00522951
{$d_v$}	{[mm]}	0.215355
{$S_c$}	{[mm$^2$]}	0.278788
{$S_o$}	{[mm$^2$]}	0.160995
{$S_l/S_o$}	[]	0.731656
{$\Psi$}	[]	0.522618
{$\eta$}	[]	0.537308
{med($\theta_e$)}	{[$^\circ$]}	52.2682
{$\Upsilon$}	[]	15
{$\Xi$}	[]	8
