facetNormals:0,facetNormals:1,facetNormals:2,FacetCenters:0,FacetCenters:1,FacetCenters:2,FacetIds,relFacetSize,absFacetSize,cellPairingIds,interplanarAngles,angleWeights
-0.243065,-0.187049,-0.914209,6.77659,3.63248,8.43302,1,0.0386598,0.00419441,8,37.7949,0.0434653
0.378821,-0.251933,-0.860368,6.83266,3.62339,8.4291,2,0.049635,0.00538516,13,52.5506,0.0575062
0.265819,0.465598,-0.765169,6.83678,3.70516,8.44388,3,0.112206,0.0121738,19,32.3314,0.0449385
-0.662078,0.0625832,-0.692444,6.7884,3.62691,8.42732,4,0.0536519,0.00582097,26,99.517,0.0439237
0.930893,0.274069,-0.132765,6.8705,3.70614,8.48112,5,0.050847,0.00551665,34,84.398,0.0429402
0.617375,-0.730162,-0.113901,6.85529,3.56698,8.47315,6,0.0482865,0.00523885,43,94.8968,0.0308206
-0.850892,0.315421,0.246358,6.8049,3.63253,8.44597,7,0.0256246,0.00278015,53,115.149,0.0290759
0.38126,0.883708,0.154777,6.81888,3.76435,8.51491,8,0.0232998,0.00252791,64,115.841,0.0497547
0.882668,-0.281035,0.265908,6.86844,3.64686,8.5258,9,0.0697811,0.00757091,76,113.082,0.0363893
-0.0873939,0.933821,0.231667,6.83178,3.72357,8.50425,10,0.0343706,0.00372904,89,94.2297,0.0108838
0.0538472,-0.960925,0.259843,6.82008,3.5418,8.49,11,0.00633339,0.000687142,103,128.011,0.0505631
0.902239,0.125914,0.374,6.87302,3.65936,8.51165,12,0.0730573,0.00792637,118,118.545,0.0236169
0.374248,-0.730409,0.547064,6.84353,3.57195,8.53195,13,0.0170014,0.00184457,134,116.097,0.0572808
-0.310009,-0.619639,0.650016,6.80512,3.583,8.51335,14,0.110508,0.0119896,151,163.461,0.0284803
0.337534,0.434192,0.818508,6.82054,3.7097,8.53971,15,0.0225441,0.00244593,169,153.509,0.0266858
-0.132088,0.425573,0.875081,6.8244,3.67151,8.49946,16,0.0203751,0.0022106,188,144.07,0.0219945
-0.313997,-0.0430154,0.937567,6.81072,3.64715,8.56351,17,0.0153692,0.00166749,18,45.1115,0.0688248
,,,,,,,,,25,69.3723,0.0515653
,,,,,,,,,33,65.3333,0.0502337
,,,,,,,,,42,56.6057,0.0489515
,,,,,,,,,52,132.118,0.0337997
,,,,,,,,,63,102.873,0.0317128
,,,,,,,,,75,79.1601,0.0580087
,,,,,,,,,88,119.829,0.040616
,,,,,,,,,102,87.7006,0.0112334
,,,,,,,,,117,90.7002,0.0591105
,,,,,,,,,133,98.6812,0.0253275
,,,,,,,,,150,124.265,0.0685022
,,,,,,,,,168,135.604,0.0310056
,,,,,,,,,187,162.233,0.0288906
,,,,,,,,,207,161.751,0.0234708
,,,,,,,,,32,64.7253,0.0725929
,,,,,,,,,41,58.6095,0.0699813
,,,,,,,,,51,95.6579,0.0675175
,,,,,,,,,62,107.75,0.0417212
,,,,,,,,,74,64.3415,0.0385869
,,,,,,,,,87,96.3561,0.0860484
,,,,,,,,,101,74.9557,0.0526221
,,,,,,,,,116,132.723,0.01199
,,,,,,,,,132,89.235,0.0884952
,,,,,,,,,149,135.67,0.0295287
,,,,,,,,,167,168.015,0.111351
,,,,,,,,,186,111.283,0.0375448
,,,,,,,,,206,123.512,0.0344876
,,,,,,,,,227,152.594,0.0270353
,,,,,,,,,50,122.644,0.0522118
,,,,,,,,,61,113.969,0.050828
,,,,,,,,,73,62.8106,0.0346839
,,,,,,,,,86,108.974,0.0324899
,,,,,,,,,100,148.169,0.0606627
,,,,,,,,,115,92.726,0.0418995
,,,,,,,,,131,106.743,0.0113294
,,,,,,,,,148,153.818,0.0618686
,,,,,,,,,166,135.233,0.0258207
,,,,,,,,,185,108.117,0.0722341
,,,,,,,,,205,143.707,0.031748
,,,,,,,,,226,121.447,0.0295341
,,,,,,,,,248,117.859,0.0238938
,,,,,,,,,72,65.5934,0.0495337
,,,,,,,,,85,143.292,0.0340763
,,,,,,,,,99,52.8521,0.0319562
,,,,,,,,,114,41.2809,0.0588281
,,,,,,,,,130,81.2576,0.041016
,,,,,,,,,147,104.698,0.0112638
,,,,,,,,,165,31.2313,0.0599615
,,,,,,,,,184,85.5133,0.0254824
,,,,,,,,,204,125.83,0.0696477
,,,,,,,,,225,70.3656,0.0312381
,,,,,,,,,247,97.3175,0.0290924
,,,,,,,,,270,116.239,0.0236038
,,,,,,,,,98,149.94,0.0334814
,,,,,,,,,113,117.092,0.0314324
,,,,,,,,,129,39.1333,0.0570772
,,,,,,,,,146,145.014,0.0401571
,,,,,,,,,164,42.718,0.011198
,,,,,,,,,183,63.5429,0.0581436
,,,,,,,,,203,42.3383,0.0251483
,,,,,,,,,224,78.2047,0.067207
,,,,,,,,,246,102.275,0.0307375
,,,,,,,,,269,121.349,0.0286577
,,,,,,,,,293,106.41,0.0233169
,,,,,,,,,128,90.4713,0.0244069
,,,,,,,,,145,148.683,0.0374844
,,,,,,,,,163,62.0358,0.0293601
,,,,,,,,,182,107.694,0.0101565
,,,,,,,,,202,133.367,0.0379414
,,,,,,,,,223,116.516,0.0204408
,,,,,,,,,245,75.1819,0.0416024
,,,,,,,,,268,86.8227,0.0239859
,,,,,,,,,292,59.9632,0.0227003
,,,,,,,,,317,58.6198,0.0192141
,,,,,,,,,162,82.0873,0.0349348
,,,,,,,,,181,28.4831,0.0277726
,,,,,,,,,201,144.226,0.00995955
,,,,,,,,,222,57.6867,0.0353315
,,,,,,,,,244,115.776,0.0196584
,,,,,,,,,267,127.608,0.0384852
,,,,,,,,,291,48.3312,0.0229157
,,,,,,,,,316,61.2001,0.0217395
,,,,,,,,,342,90.7491,0.0185213
,,,,,,,,,200,107.371,0.0460562
,,,,,,,,,221,66.2669,0.0116128
,,,,,,,,,243,24.9566,0.0713817
,,,,,,,,,266,44.2337,0.0273414
,,,,,,,,,290,85.405,0.0855446
,,,,,,,,,315,65.5363,0.0340785
,,,,,,,,,341,90.2119,0.0315407
,,,,,,,,,368,90.9468,0.0251903
,,,,,,,,,242,150.939,0.0106959
,,,,,,,,,265,82.4274,0.0467481
,,,,,,,,,289,128.106,0.0227497
,,,,,,,,,314,115.903,0.0524333
,,,,,,,,,340,53.5814,0.0272286
,,,,,,,,,367,49.8527,0.0255839
,,,,,,,,,395,77.6514,0.0212405
,,,,,,,,,288,88.5541,0.0116563
,,,,,,,,,313,28.492,0.00922884
,,,,,,,,,339,37.8702,0.0119802
,,,,,,,,,366,100.928,0.00988871
,,,,,,,,,394,101.112,0.0096631
,,,,,,,,,423,74.2354,0.00897028
,,,,,,,,,338,62.3803,0.0275837
,,,,,,,,,365,97.037,0.0879625
,,,,,,,,,393,46.7534,0.0344558
,,,,,,,,,422,74.2994,0.0318636
,,,,,,,,,452,86.3566,0.0253959
,,,,,,,,,392,42.3818,0.0294691
,,,,,,,,,421,74.681,0.0193843
,,,,,,,,,451,82.9756,0.018536
,,,,,,,,,482,64.0719,0.0161442
,,,,,,,,,450,80.2681,0.0374486
,,,,,,,,,481,68.2266,0.0344064
,,,,,,,,,513,38.7355,0.0269854
,,,,,,,,,512,27.817,0.0214048
,,,,,,,,,545,48.8073,0.0182778
,,,,,,,,,578,29.7692,0.0175216
