Q	U	V
{$V$}	{[mm$^3$]}	0.00536607
{$d_v$}	{[mm]}	0.217213
{$S_c$}	{[mm$^2$]}	0.243195
{$S_o$}	{[mm$^2$]}	0.149166
{$S_l/S_o$}	[]	0.630365
{$\Psi$}	[]	0.609491
{$\eta$}	[]	0.659023
{med($\theta_e$)}	{[$^\circ$]}	74.9144
{$\Upsilon$}	[]	12
{$\Xi$}	[]	9
