facetNormals:0,facetNormals:1,facetNormals:2,FacetCenters:0,FacetCenters:1,FacetCenters:2,FacetIds,relFacetSize,absFacetSize,cellPairingIds,interplanarAngles,angleWeights
0.198702,0.0555532,-0.952344,4.50168,4.65246,6.62626,1,0.019496,0.00231059,8,37.2011,0.0217188
-0.116476,0.576804,-0.800108,4.44849,4.71747,6.68699,2,0.0245136,0.00290525,13,43.7455,0.0175999
0.453318,-0.562903,-0.663444,4.5201,4.61234,6.66691,3,0.0160399,0.00190098,19,46.4534,0.0132667
0.730423,0.374839,-0.505307,4.51352,4.73104,6.68907,4,0.0100542,0.00119159,26,53.8303,0.0320031
-0.528531,0.472446,-0.672984,4.45883,4.69359,6.66202,5,0.0892748,0.0105805,34,55.8783,0.021883
-0.0831293,-0.739139,-0.614068,4.52643,4.62739,6.69688,6,0.024936,0.00295531,43,83.9522,0.0184622
-0.928705,0.197236,-0.289259,4.45684,4.74103,6.74101,7,0.0175324,0.00207787,53,77.9228,0.0204107
0.373065,-0.877957,-0.181251,4.54347,4.6362,6.78518,8,0.0214154,0.00253806,64,83.9712,0.0240396
-0.881949,-0.29817,-0.306747,4.43749,4.66345,6.70814,9,0.0313444,0.0037148,76,79.9508,0.0287851
-0.518821,0.776103,-0.234848,4.45834,4.76783,6.73937,10,0.0549821,0.00651625,89,105.672,0.0338507
-0.468477,-0.833138,0.119916,4.47763,4.62157,6.75289,11,0.128363,0.015213,103,108.309,0.0305627
0.474674,-0.768991,0.367795,4.51296,4.6154,6.74822,12,0.0706881,0.00837766,118,109.826,0.0293168
-0.298424,0.849758,0.318859,4.46004,4.75891,6.79436,13,0.0590751,0.00700133,134,124.822,0.0330861
-0.797014,-0.405447,0.377079,4.43047,4.6815,6.78781,14,0.10922,0.0129443,151,103.045,0.0190866
0.583382,0.685957,0.388198,4.4992,4.75634,6.78441,15,0.018694,0.00221553,169,112.288,0.0155573
0.774046,-0.314954,0.526392,4.52948,4.6589,6.79153,16,0.0129426,0.0015339,188,137.746,0.0142705
-0.70442,0.312931,0.620866,4.47196,4.71985,6.86094,17,0.011254,0.00133378,208,134.555,0.0114832
-0.0244424,0.644353,0.733666,4.47142,4.74729,6.80769,18,0.00813832,0.00096452,229,149.821,0.0208564
-0.103743,-0.535611,0.813471,4.47593,4.67095,6.84767,19,0.0224208,0.00265722,251,133.619,0.015276
0.368288,0.441853,0.795618,4.48056,4.74317,6.79159,20,0.0125578,0.0014883,274,158.948,0.00885181
0.154583,-0.108169,0.962955,4.45769,4.70691,6.8175,21,0.00572574,0.000678591,18,80.9457,0.0193914
,,,,,,,,,25,55.9986,0.0142598
,,,,,,,,,33,26.0058,0.0384652
,,,,,,,,,42,85.5298,0.024723
,,,,,,,,,52,62.6175,0.0204434
,,,,,,,,,63,114.821,0.02286
,,,,,,,,,75,79.5745,0.0275113
,,,,,,,,,88,43.2843,0.033909
,,,,,,,,,102,123.061,0.0411657
,,,,,,,,,117,144.931,0.0364031
,,,,,,,,,133,73.4827,0.0346493
,,,,,,,,,150,117.344,0.0400404
,,,,,,,,,168,88.9933,0.0212119
,,,,,,,,,187,134.949,0.0169408
,,,,,,,,,207,103.784,0.015426
,,,,,,,,,228,102.653,0.0122198
,,,,,,,,,250,166.959,0.0234205
,,,,,,,,,273,115.815,0.0166078
,,,,,,,,,297,150.815,0.00928317
,,,,,,,,,32,61.2193,0.0123605
,,,,,,,,,41,93.5301,0.0271939
,,,,,,,,,51,33.8613,0.0195222
,,,,,,,,,62,110.444,0.016753
,,,,,,,,,74,34.6603,0.0183419
,,,,,,,,,87,91.6955,0.0212205
,,,,,,,,,101,123.136,0.0248347
,,,,,,,,,116,79.2026,0.0285164
,,,,,,,,,132,65.033,0.0261468
,,,,,,,,,149,151.681,0.0252295
,,,,,,,,,167,113.736,0.0279718
,,,,,,,,,186,113.215,0.0172655
,,,,,,,,,206,79.3575,0.0143257
,,,,,,,,,227,159.142,0.0132274
,,,,,,,,,249,153.897,0.010798
,,,,,,,,,272,107.267,0.018701
,,,,,,,,,296,129.265,0.0140869
,,,,,,,,,321,121.842,0.00843901
,,,,,,,,,50,82.0025,0.0180731
,,,,,,,,,61,91.6939,0.0143304
,,,,,,,,,73,118.616,0.0127797
,,,,,,,,,86,87.8578,0.013684
,,,,,,,,,100,129.491,0.0152249
,,,,,,,,,115,88.1088,0.0169998
,,,,,,,,,131,140.354,0.0186479
,,,,,,,,,148,97.7836,0.0176045
,,,,,,,,,166,93.7709,0.0171839
,,,,,,,,,185,171.251,0.0184134
,,,,,,,,,205,58.9858,0.0130759
,,,,,,,,,226,79.0207,0.011317
,,,,,,,,,248,138.169,0.0106204
,,,,,,,,,271,98.9845,0.0089954
,,,,,,,,,295,136.735,0.0138829
,,,,,,,,,320,88.0262,0.0111674
,,,,,,,,,346,115.969,0.00729633
,,,,,,,,,72,83.4228,0.0389833
,,,,,,,,,85,36.6151,0.0293089
,,,,,,,,,99,121.081,0.0345442
,,,,,,,,,114,56.2939,0.0463983
,,,,,,,,,130,31.8899,0.0680524
,,,,,,,,,147,103.932,0.105309
,,,,,,,,,165,154.628,0.0789016
,,,,,,,,,184,68.3462,0.071101
,,,,,,,,,204,91.4542,0.0982452
,,,,,,,,,225,104.841,0.0309145
,,,,,,,,,247,160.884,0.0226077
,,,,,,,,,270,83.929,0.0199883
,,,,,,,,,294,100.647,0.0149168
,,,,,,,,,319,141.154,0.0358405
,,,,,,,,,345,122.905,0.0220185
,,,,,,,,,372,144.499,0.0107613
,,,,,,,,,98,83.4594,0.0205889
,,,,,,,,,113,38.8657,0.023042
,,,,,,,,,129,59.3441,0.0277753
,,,,,,,,,146,114.586,0.034311
,,,,,,,,,164,51.2863,0.0417597
,,,,,,,,,183,71.2123,0.0368668
,,,,,,,,,203,150.127,0.0350691
,,,,,,,,,224,81.7457,0.0406021
,,,,,,,,,246,147.074,0.0213685
,,,,,,,,,269,99.3516,0.0170406
,,,,,,,,,293,125.473,0.0155087
,,,,,,,,,318,168.985,0.0122716
,,,,,,,,,344,95.772,0.0236116
,,,,,,,,,371,153.272,0.0167037
,,,,,,,,,399,123.633,0.00931304
,,,,,,,,,128,118.999,0.0192803
,,,,,,,,,145,29.2305,0.0224869
,,,,,,,,,163,42.6392,0.0265869
,,,,,,,,,182,75.7055,0.0308511
,,,,,,,,,202,136.197,0.0280963
,,,,,,,,,223,68.1761,0.0270399
,,,,,,,,,245,55.0956,0.0302147
,,,,,,,,,268,122.211,0.0180946
,,,,,,,,,292,162.187,0.0148919
,,,,,,,,,317,56.9087,0.0137085
,,,,,,,,,343,93.6923,0.0111165
,,,,,,,,,370,104.573,0.0196776
,,,,,,,,,398,119.852,0.0146339
,,,,,,,,,427,117.086,0.00863233
,,,,,,,,,162,90.7011,0.0254456
,,,,,,,,,181,152.937,0.0308246
,,,,,,,,,201,55.1163,0.0367068
,,,,,,,,,222,33.9835,0.032872
,,,,,,,,,244,170.573,0.0314351
,,,,,,,,,267,90.5909,0.0358094
,,,,,,,,,291,118.543,0.0199623
,,,,,,,,,316,60.6616,0.0161343
,,,,,,,,,342,132.564,0.0147544
,,,,,,,,,369,138.271,0.0117945
,,,,,,,,,397,72.6196,0.0219065
,,,,,,,,,426,114.461,0.0158319
,,,,,,,,,456,91.317,0.00903565
,,,,,,,,,200,71.5771,0.039927
,,,,,,,,,221,48.5712,0.0503854
,,,,,,,,,243,108.418,0.0434308
,,,,,,,,,266,95.3909,0.0409574
,,,,,,,,,290,41.8904,0.0487098
,,,,,,,,,315,150.687,0.0234201
,,,,,,,,,341,140.8,0.0183204
,,,,,,,,,368,69.6421,0.0165617
,,,,,,,,,396,114.406,0.0129216
,,,,,,,,,425,89.9004,0.026142
,,,,,,,,,455,136.721,0.0179316
,,,,,,,,,486,114.539,0.00968272
,,,,,,,,,242,117.745,0.0769878
,,,,,,,,,265,171.736,0.0618536
,,,,,,,,,289,36.4868,0.0569551
,,,,,,,,,314,89.3693,0.0731432
,,,,,,,,,340,81.5608,0.0279014
,,,,,,,,,367,144.05,0.0209529
,,,,,,,,,395,60.9577,0.0186837
,,,,,,,,,424,68.7709,0.014178
,,,,,,,,,454,125.902,0.0318526
,,,,,,,,,485,92.1224,0.0204459
,,,,,,,,,517,114.405,0.0103714
,,,,,,,,,288,60.5288,0.0911699
,,,,,,,,,313,125.154,0.0809126
,,,,,,,,,339,35.9923,0.11802
,,,,,,,,,366,147.677,0.0326352
,,,,,,,,,394,92.2348,0.0235143
,,,,,,,,,423,81.329,0.0206937
,,,,,,,,,453,117.702,0.0153062
,,,,,,,,,484,51.1096,0.0381739
,,,,,,,,,516,118.086,0.0228776
,,,,,,,,,549,81.9009,0.0109625
,,,,,,,,,338,136.649,0.0643619
,,,,,,,,,365,85.6298,0.0858276
,,,,,,,,,393,96.4696,0.0295684
,,,,,,,,,422,33.5347,0.0218792
,,,,,,,,,452,111.038,0.0194168
,,,,,,,,,483,104.416,0.0145962
,,,,,,,,,515,46.1684,0.0340436
,,,,,,,,,548,82.3413,0.0213269
,,,,,,,,,582,57.7607,0.0105934
,,,,,,,,,392,89.1625,0.0766769
,,,,,,,,,421,55.3566,0.0284007
,,,,,,,,,451,110.521,0.0212333
,,,,,,,,,482,44.5316,0.0189063
,,,,,,,,,514,32.3035,0.0143058
,,,,,,,,,547,100.143,0.032505
,,,,,,,,,581,56.3875,0.0207127
,,,,,,,,,616,79.6149,0.0104396
,,,,,,,,,450,128.831,0.0319239
,,,,,,,,,481,107.658,0.0231428
,,,,,,,,,513,45.8807,0.0204054
,,,,,,,,,546,87.8912,0.0151479
,,,,,,,,,580,50.3464,0.0372042
,,,,,,,,,615,100.441,0.0225257
,,,,,,,,,651,72.6636,0.0108811
,,,,,,,,,512,62.9877,0.0152955
,,,,,,,,,545,87.3584,0.0140498
,,,,,,,,,579,41.932,0.0113399
,,,,,,,,,614,96.7049,0.0203885
,,,,,,,,,650,30.8161,0.0150235
,,,,,,,,,687,66.1025,0.00876643
,,,,,,,,,578,108.922,0.0120394
,,,,,,,,,613,80.1918,0.00999302
,,,,,,,,,649,57.7225,0.0164115
,,,,,,,,,686,54.3806,0.0127473
,,,,,,,,,724,47.027,0.00793921
,,,,,,,,,648,45.7684,0.00944587
,,,,,,,,,685,64.9463,0.0149859
,,,,,,,,,723,67.4391,0.0118702
,,,,,,,,,762,62.0554,0.00758993
,,,,,,,,,722,74.5895,0.0119419
,,,,,,,,,761,26.3355,0.0098762
,,,,,,,,,801,48.666,0.00672212
,,,,,,,,,800,67.2195,0.0160988
,,,,,,,,,841,30.8388,0.00912195
,,,,,,,,,882,36.4137,0.0078653
