Q	U	V
{$V$}	{[mm$^3$]}	0.00302324
{$d_v$}	{[mm]}	0.179401
{$S_c$}	{[mm$^2$]}	0.175526
{$S_o$}	{[mm$^2$]}	0.100306
{$S_l/S_o$}	[]	0.749905
{$\Psi$}	[]	0.576047
{$\eta$}	[]	0.662603
{med($\theta_e$)}	{[$^\circ$]}	52.5404
{$\Upsilon$}	[]	17
{$\Xi$}	[]	9
