Q	U	V
{$V$}	{[mm$^3$]}	0.00629584
{$d_v$}	{[mm]}	0.229096
{$S_c$}	{[mm$^2$]}	0.296837
{$S_o$}	{[mm$^2$]}	0.167809
{$S_l/S_o$}	[]	0.768898
{$\Psi$}	[]	0.55548
{$\eta$}	[]	0.618973
{med($\theta_e$)}	{[$^\circ$]}	67.1392
{$\Upsilon$}	[]	17
{$\Xi$}	[]	15
