"cellPairingIds","interplanarAngles","angleWeights"
13,90.0964,0.017971
26,113.185,0.0445229
34,48.3332,0.0431234
43,77.4424,0.035737
53,81.3752,0.0391549
89,86.617,0.0376194
41,114.451,0.0241212
62,53.9804,0.021286
132,81.1298,0.0159985
99,67.2407,0.0880925
165,57.5861,0.0341052
184,81.3783,0.0333334
98,43.7651,0.0688555
164,57.1525,0.076202
182,84.5591,0.0558162
202,109.312,0.0287003
223,100.054,0.0281518
201,44.5112,0.0646271
244,57.5481,0.0302305
313,41.7401,0.029307
338,68.9688,0.0195892
