facetNormals:0,facetNormals:1,facetNormals:2,FacetCenters:0,FacetCenters:1,FacetCenters:2,FacetIds,relFacetSize,absFacetSize,cellPairingIds,interplanarAngles,angleWeights
0.743067,0.377244,-0.508057,5.018,5.21821,6.00083,1,0.0134382,0.00140663,8,35.2318,0.0155726
0.858613,-0.192125,-0.410122,5.02547,5.20493,5.97034,2,0.018513,0.00193783,13,89.9568,0.0205525
-0.626261,0.554649,-0.505524,4.96989,5.2395,5.84978,3,0.0436739,0.00457153,19,125.468,0.0247257
-0.885231,0.333116,0.00698079,4.93808,5.21437,5.93464,4,0.154495,0.0161716,26,92.738,0.0106637
0.297257,-0.910606,-0.15238,5.00051,5.14247,6.01461,5,0.00883882,0.000925196,34,64.6584,0.0246951
0.0439803,0.91532,-0.00954934,4.994,5.25379,5.91806,6,0.152138,0.0159249,43,148.02,0.0233739
-0.848501,-0.480391,-0.00877885,4.94846,5.14936,5.98416,7,0.0896793,0.00938711,53,139.054,0.0228533
-0.472188,-0.845453,0.0932518,4.97564,5.1163,5.9962,8,0.0763368,0.00799049,64,60.1149,0.0219126
0.625347,0.613933,0.434293,5.0273,5.2191,6.00418,9,0.0593237,0.00620966,76,112.263,0.0197677
0.294023,-0.564605,0.698737,5.02611,5.11925,6.02806,10,0.0373688,0.00391154,89,77.5253,0.0202341
0.655185,0.200961,0.700744,5.0297,5.17058,6.04436,11,0.0409363,0.00428497,103,88.881,0.0137799
0.262774,0.566143,0.767582,5.01242,5.20631,6.03082,12,0.0141395,0.00148004,118,106.726,0.0183075
-0.0122538,0.462322,0.870193,5.00444,5.20662,6.03776,13,0.0287109,0.00300528,134,138.15,0.0213416
-0.423374,0.126258,0.867039,4.96762,5.18662,6.05922,14,0.0518163,0.00542382,18,117.42,0.0260034
,,,,,,,,,25,154.24,0.033064
,,,,,,,,,33,58.4492,0.0119651
,,,,,,,,,42,98.6749,0.0330093
,,,,,,,,,52,131.94,0.0306904
,,,,,,,,,63,107.326,0.0297992
,,,,,,,,,75,75.3037,0.0282196
,,,,,,,,,88,85.3517,0.0247597
,,,,,,,,,102,75.6043,0.0254958
,,,,,,,,,117,101.895,0.0160333
,,,,,,,,,133,118.484,0.0225109
,,,,,,,,,150,141.9,0.0272796
,,,,,,,,,32,37.2809,0.0680975
,,,,,,,,,41,130.379,0.0147022
,,,,,,,,,51,57.2206,0.0678658
,,,,,,,,,62,73.5828,0.058741
,,,,,,,,,74,103.399,0.0555605
,,,,,,,,,87,106.446,0.0503099
,,,,,,,,,101,157.009,0.0402761
,,,,,,,,,116,132.977,0.0422608
,,,,,,,,,132,104.284,0.0213627
,,,,,,,,,149,100.516,0.0346459
,,,,,,,,,167,96.225,0.047398
,,,,,,,,,50,128.216,0.016721
,,,,,,,,,61,72.1355,0.153307
,,,,,,,,,73,50.1467,0.113484
,,,,,,,,,86,81.437,0.102184
,,,,,,,,,100,111.966,0.0857288
,,,,,,,,,115,119.738,0.0601811
,,,,,,,,,131,123.238,0.0647231
,,,,,,,,,148,92.3682,0.0259078
,,,,,,,,,166,79.4333,0.048423
,,,,,,,,,185,62.648,0.0776046
,,,,,,,,,72,157.124,0.016707
,,,,,,,,,85,78.6234,0.0160916
,,,,,,,,,99,49.302,0.0158432
,,,,,,,,,114,117.589,0.0153853
,,,,,,,,,130,57.318,0.0142962
,,,,,,,,,147,95.7361,0.0145385
,,,,,,,,,165,125.292,0.0108778
,,,,,,,,,184,125.661,0.0135165
,,,,,,,,,204,113.274,0.0151016
,,,,,,,,,98,122.258,0.112843
,,,,,,,,,113,153.162,0.101663
,,,,,,,,,129,49.231,0.085362
,,,,,,,,,146,126.113,0.0600001
,,,,,,,,,164,76.7375,0.0645138
,,,,,,,,,183,54.8144,0.0258742
,,,,,,,,,203,62.6916,0.0483057
,,,,,,,,,224,84.2938,0.0773039
,,,,,,,,,128,31.8284,0.0824719
,,,,,,,,,145,150.414,0.0714094
,,,,,,,,,163,89.029,0.0527549
,,,,,,,,,182,133.56,0.0562129
,,,,,,,,,202,121.335,0.0244275
,,,,,,,,,223,103.195,0.0434964
,,,,,,,,,245,72.1428,0.0656819
,,,,,,,,,162,144.417,0.0667635
,,,,,,,,,181,63.9614,0.0501754
,,,,,,,,,201,115.728,0.0532935
,,,,,,,,,222,123.495,0.0238596
,,,,,,,,,244,108.483,0.0417277
,,,,,,,,,267,79.4078,0.0617307
,,,,,,,,,200,81.2464,0.0458537
,,,,,,,,,221,29.1255,0.0484439
,,,,,,,,,243,29.1256,0.0228361
,,,,,,,,,266,47.2627,0.0386947
,,,,,,,,,290,78.5271,0.0553164
,,,,,,,,,242,52.1239,0.0390713
,,,,,,,,,265,71.6789,0.0205161
,,,,,,,,,289,68.3669,0.0324726
,,,,,,,,,314,63.5247,0.0434223
,,,,,,,,,288,31.8345,0.021019
,,,,,,,,,313,44.0124,0.0337506
,,,,,,,,,339,68.1127,0.0457382
,,,,,,,,,338,18.1421,0.0189476
,,,,,,,,,365,49.4594,0.0222166
,,,,,,,,,392,31.4538,0.0369488
