facetNormals:0,facetNormals:1,facetNormals:2,FacetCenters:0,FacetCenters:1,FacetCenters:2,FacetIds,relFacetSize,absFacetSize,cellPairingIds,interplanarAngles,angleWeights
-0.390675,0.311911,-0.850968,5.95384,4.19951,8.81313,1,0.00842034,0.00153122,8,38.0062,0.0155916
0.197834,0.519846,-0.763601,6.04544,4.27519,8.87755,2,0.105105,0.0191131,13,65.6379,0.0106942
0.605652,-0.067527,-0.774156,6.0404,4.21534,8.83857,3,0.0146503,0.00266413,19,96.7823,0.0126459
0.201319,-0.887716,-0.287074,5.97107,4.16372,8.92144,4,0.0253847,0.00461616,26,104.43,0.0155844
0.801977,-0.429878,-0.252803,6.05121,4.20996,8.93509,5,0.104453,0.0189946,34,46.1671,0.0131287
-0.414692,0.821119,-0.281303,5.94945,4.27222,8.91934,6,0.029781,0.00541561,43,84.2791,0.0136436
-0.451933,-0.764212,-0.177303,5.92699,4.25016,8.81435,7,0.0359338,0.0065345,53,71.8942,0.0151596
-0.759241,0.545073,0.20358,5.98215,4.29856,8.93296,8,0.0759331,0.0138083,64,113.98,0.01193
0.985977,0.112787,0.057237,6.05061,4.19385,9.02676,9,0.0204561,0.00371991,76,79.1289,0.011835
0.121877,0.976836,0.0859476,5.97733,4.26966,9.01052,10,0.0199081,0.00362024,89,112.692,0.0130501
0.835124,0.462226,0.224768,6.05935,4.23972,9.02499,11,0.0289896,0.0052717,103,87.8298,0.00932729
-0.336869,0.833271,0.416571,6.01024,4.29961,8.99617,12,0.0104532,0.00190089,118,144.464,0.0158346
0.804699,-0.213981,0.441711,6.0496,4.18873,9.02473,13,0.132521,0.0240987,134,110.873,0.0116677
0.314656,0.763015,0.543608,6.00021,4.25898,9.04369,14,0.0189924,0.00345373,151,108.973,0.0122455
-0.39913,0.508394,0.740112,6.01677,4.28135,9.01956,15,0.0224391,0.0040805,169,149.722,0.0155153
0.258219,0.17446,0.887716,6.0381,4.20762,9.04943,16,0.0985698,0.0179247,188,139.546,0.014611
-0.272074,-0.192415,0.907834,5.98175,4.17338,8.98622,17,0.0551785,0.0100341,18,43.4361,0.0257161
,,,,,,,,,25,102.974,0.040893
,,,,,,,,,33,81.7364,0.104778
,,,,,,,,,42,51.9893,0.0464115
,,,,,,,,,52,114.25,0.0535572
,,,,,,,,,63,91.4143,0.0881687
,,,,,,,,,75,77.0791,0.0342469
,,,,,,,,,88,60.0334,0.0334755
,,,,,,,,,102,75.3773,0.0454448
,,,,,,,,,117,87.0334,0.0190152
,,,,,,,,,133,108.961,0.117231
,,,,,,,,,150,87.3111,0.0321714
,,,,,,,,,168,114.153,0.0369826
,,,,,,,,,187,127.096,0.101732
,,,,,,,,,207,158.002,0.0723659
,,,,,,,,,32,64.5487,0.0185784
,,,,,,,,,41,40.2205,0.0256965
,,,,,,,,,51,95.3784,0.0196393
,,,,,,,,,62,95.4583,0.0208145
,,,,,,,,,74,133.964,0.0245617
,,,,,,,,,87,56.1713,0.0170731
,,,,,,,,,101,93.4558,0.0168792
,,,,,,,,,116,71.8738,0.0194641
,,,,,,,,,132,126.663,0.0122009
,,,,,,,,,149,80.0874,0.0263838
,,,,,,,,,167,106.822,0.0165411
,,,,,,,,,186,151.282,0.0177269
,,,,,,,,,206,125.831,0.0255092
,,,,,,,,,227,153.759,0.0231532
,,,,,,,,,50,46.9218,0.0408434
,,,,,,,,,61,142.834,0.0274077
,,,,,,,,,73,42.3809,0.0297518
,,,,,,,,,86,139.589,0.0380494
,,,,,,,,,100,85.0454,0.0226555
,,,,,,,,,115,156.863,0.0223153
,,,,,,,,,131,109.13,0.0270676
,,,,,,,,,148,168.678,0.0148084
,,,,,,,,,166,75.5065,0.0426078
,,,,,,,,,185,144.722,0.0217282
,,,,,,,,,205,142.507,0.0238212
,,,,,,,,,226,113.476,0.0403723
,,,,,,,,,248,99.0118,0.0347724
,,,,,,,,,72,132.56,0.0463476
,,,,,,,,,85,89.2695,0.0534722
,,,,,,,,,99,172.048,0.0879385
,,,,,,,,,114,39.1732,0.0342121
,,,,,,,,,130,111.624,0.0334422
,,,,,,,,,147,63.4301,0.0453835
,,,,,,,,,165,141.649,0.0190045
,,,,,,,,,184,45.3415,0.116825
,,,,,,,,,204,103.197,0.0321407
,,,,,,,,,225,141.451,0.0369421
,,,,,,,,,247,95.9646,0.101426
,,,,,,,,,270,113.556,0.0722108
,,,,,,,,,98,116.619,0.0325694
,,,,,,,,,113,39.9732,0.0427826
,,,,,,,,,129,110.339,0.0242531
,,,,,,,,,146,40.0734,0.0238637
,,,,,,,,,164,91.8228,0.02938
,,,,,,,,,183,42.1291,0.0154747
,,,,,,,,,203,134.336,0.0486329
,,,,,,,,,224,68.843,0.0231935
,,,,,,,,,246,66.641,0.0255939
,,,,,,,,,269,103.648,0.0457419
,,,,,,,,,293,108.849,0.0386836
,,,,,,,,,128,97.2652,0.0487824
,,,,,,,,,145,127.025,0.0260709
,,,,,,,,,163,155.926,0.0256214
,,,,,,,,,182,150.212,0.0320903
,,,,,,,,,202,128.507,0.0161952
,,,,,,,,,223,109.045,0.0565373
,,,,,,,,,245,156.683,0.0248504
,,,,,,,,,268,112.424,0.0276266
,,,,,,,,,292,118.575,0.0526676
,,,,,,,,,317,82.8457,0.0435238
,,,,,,,,,162,135.265,0.0322297
,,,,,,,,,181,61.0584,0.0315455
,,,,,,,,,201,111.013,0.0419598
,,,,,,,,,222,32.995,0.0183766
,,,,,,,,,244,135.012,0.0965463
,,,,,,,,,267,72.2841,0.0303849
,,,,,,,,,291,38.9651,0.0346413
,,,,,,,,,316,84.9151,0.0857833
,,,,,,,,,342,71.9576,0.0639131
,,,,,,,,,200,76.1427,0.0201784
,,,,,,,,,221,24.3018,0.0239865
,,,,,,,,,243,102.57,0.0138361
,,,,,,,,,266,32.0035,0.0354415
,,,,,,,,,290,64.2104,0.0196971
,,,,,,,,,315,107.507,0.0214018
,,,,,,,,,341,69.6595,0.033881
,,,,,,,,,368,104.334,0.0298471
,,,,,,,,,242,53.7763,0.0236055
,,,,,,,,,265,34.2948,0.0137084
,,,,,,,,,289,94.4944,0.0346159
,,,,,,,,,314,31.7528,0.0194394
,,,,,,,,,340,58.2055,0.0210979
,,,,,,,,,367,72.5887,0.0331257
,,,,,,,,,395,98.6118,0.0292595
,,,,,,,,,288,78.2716,0.0153657
,,,,,,,,,313,43.3253,0.0475725
,,,,,,,,,339,40.4347,0.0229495
,,,,,,,,,366,85.9518,0.0252972
,,,,,,,,,394,57.492,0.0448026
,,,,,,,,,423,96.7889,0.0380097
,,,,,,,,,338,106.512,0.0193779
,,,,,,,,,365,39.4255,0.0134846
,,,,,,,,,393,27.1194,0.0142623
,,,,,,,,,422,62.6504,0.0189019
,,,,,,,,,452,71.1516,0.0175766
,,,,,,,,,392,69.2488,0.0332233
,,,,,,,,,421,96.3882,0.0383796
,,,,,,,,,451,50.6254,0.113051
,,,,,,,,,482,75.8239,0.0779151
,,,,,,,,,450,46.8092,0.0205724
,,,,,,,,,481,41.4486,0.0318483
,,,,,,,,,513,74.1468,0.0282583
,,,,,,,,,512,45.9613,0.0365563
,,,,,,,,,545,44.0767,0.031904
,,,,,,,,,578,39.4978,0.0707511
