facetNormals:0,facetNormals:1,facetNormals:2,FacetCenters:0,FacetCenters:1,FacetCenters:2,FacetIds,relFacetSize,absFacetSize,cellPairingIds,interplanarAngles,angleWeights
0.0833498,0.323758,-0.890319,6.46787,4.7397,9.44945,1,0.0410062,0.00739209,8,65.3576,0.0320481
-0.213575,-0.634964,-0.674201,6.49469,4.66314,9.45067,2,0.0263022,0.00474145,13,42.137,0.0347672
-0.403847,0.687395,-0.559193,6.46793,4.77174,9.44176,3,0.0301761,0.00543977,19,41.1973,0.0247465
0.516829,0.681036,-0.500005,6.62104,4.75311,9.56024,4,0.0177201,0.00319436,26,54.1572,0.0392882
0.771298,0.480933,-0.365741,6.5784,4.76888,9.54757,5,0.0377084,0.0067976,34,84.1677,0.0606592
-0.894379,-0.155493,-0.242258,6.42692,4.70685,9.48169,6,0.116489,0.0209992,43,74.1298,0.0398307
-0.781258,0.575517,-0.150698,6.43729,4.81842,9.4982,7,0.0387208,0.00698011,53,68.5669,0.0599417
0.420174,0.869664,-0.0215083,6.55265,4.786,9.5451,8,0.111369,0.0200762,64,116.638,0.0610564
-0.741141,-0.603253,0.176666,6.44084,4.65631,9.47996,9,0.119474,0.0215373,76,119.386,0.053111
-0.814353,0.161816,0.487175,6.44138,4.76981,9.56074,10,0.0753557,0.0135842,89,131.642,0.0466098
0.574865,-0.541533,0.533277,6.66246,4.65295,9.59941,11,0.0539873,0.00973217,103,110.797,0.0445998
0.32561,0.653789,0.635396,6.54909,4.78942,9.58626,12,0.0488839,0.00881219,18,88.3414,0.0281063
,,,,,,,,,25,102.623,0.0211746
,,,,,,,,,33,103.888,0.0309891
,,,,,,,,,42,59.5114,0.0429147
,,,,,,,,,52,95.9639,0.0313256
,,,,,,,,,63,133.105,0.0425543
,,,,,,,,,75,62.7982,0.0431131
,,,,,,,,,88,106.331,0.038994
,,,,,,,,,102,98.7933,0.0353717
,,,,,,,,,117,172.903,0.0342019
,,,,,,,,,32,56.0221,0.0223284
,,,,,,,,,41,76.445,0.0335243
,,,,,,,,,51,64.7856,0.0479348
,,,,,,,,,62,33.7197,0.0339186
,,,,,,,,,74,62.1053,0.0474856
,,,,,,,,,87,103.079,0.0481825
,,,,,,,,,101,79.696,0.0430949
,,,,,,,,,116,166.569,0.0387134
,,,,,,,,,132,92.2733,0.0373166
,,,,,,,,,50,20.4835,0.0241102
,,,,,,,,,61,118.709,0.0307609
,,,,,,,,,73,86.2552,0.0243135
,,,,,,,,,86,30.9975,0.0305753
,,,,,,,,,100,156.432,0.0308627
,,,,,,,,,115,125.545,0.028693
,,,,,,,,,131,111.007,0.0266824
,,,,,,,,,148,72.0283,0.0260113
,,,,,,,,,72,137.252,0.0569739
,,,,,,,,,85,106.34,0.0382079
,,,,,,,,,99,37.5748,0.0563404
,,,,,,,,,114,166.637,0.0573241
,,,,,,,,,130,140.565,0.0502643
,,,,,,,,,147,90.7419,0.0444028
,,,,,,,,,165,69.4351,0.042575
,,,,,,,,,98,45.5805,0.058122
,,,,,,,,,113,123.865,0.113871
,,,,,,,,,129,38.5723,0.117963
,,,,,,,,,146,49.6872,0.0915127
,,,,,,,,,164,128.644,0.0737807
,,,,,,,,,183,126.953,0.0688678
,,,,,,,,,128,79.3403,0.0574629
,,,,,,,,,145,77.5819,0.0584865
,,,,,,,,,163,46.0619,0.0511557
,,,,,,,,,182,154.01,0.0450971
,,,,,,,,,202,88.425,0.0432128
,,,,,,,,,162,153.448,0.115279
,,,,,,,,,181,103.172,0.0898894
,,,,,,,,,201,105.168,0.0727219
,,,,,,,,,222,42.3018,0.0679445
,,,,,,,,,200,50.7422,0.0924197
,,,,,,,,,221,90.3195,0.0743691
,,,,,,,,,243,123.808,0.0693802
,,,,,,,,,242,108.822,0.0629064
,,,,,,,,,265,80.7263,0.0592996
,,,,,,,,,288,79.2563,0.051309
