"cellPairingIds","interplanarAngles","angleWeights"
26,71.6436,0.0102565
34,40.272,0.0191
43,76.3335,0.0196574
134,70.2347,0.0194947
188,92.1756,0.0183947
85,62.5791,0.016291
99,30.041,0.00954186
165,48.8993,0.00292259
204,118.278,0.0161791
270,135.372,0.0154141
98,84.6292,0.0615744
146,34.5775,0.0410171
269,55.0212,0.0286161
293,72.4801,0.0506773
128,64.4889,0.0171899
145,25.9992,0.0382721
163,74.9137,0.0436766
182,43.1723,0.0524111
162,58.8657,0.0143789
222,36.1746,0.00295026
369,60.9321,0.00959752
221,34.9786,0.0328379
315,35.8513,0.033066
396,105.031,0.0138603
455,71.1298,0.0284939
242,51.2751,0.0367384
289,27.4546,0.0245555
367,52.0188,0.0240383
454,43.3568,0.046591
313,31.7379,0.027094
484,65.4185,0.0566644
516,47.916,0.0356551
452,104.481,0.00334418
483,29.1618,0.00292779
547,36.2407,0.0321003
513,23.0001,0.0535539
579,92.6904,0.0154108
650,37.576,0.0359242
578,28.9643,0.0270614
649,30.7602,0.0312221
724,44.9035,0.0331374
648,81.9789,0.0155599
762,25.9522,0.0668238
761,94.8844,0.0143385
801,61.3208,0.0173937
800,35.6625,0.0448625
841,57.2092,0.0995977
882,70.6654,0.0489259
