Q	U	V
{$V$}	{[mm$^3$]}	0.00459542
{$d_v$}	{[mm]}	0.206273
{$S_c$}	{[mm$^2$]}	0.176604
{$S_o$}	{[mm$^2$]}	0.091705
{$S_l/S_o$}	[]	0.925784
{$\Psi$}	[]	0.756892
{$\eta$}	[]	0.765991
{med($\theta_e$)}	{[$^\circ$]}	45.7139
{$\Upsilon$}	[]	15
{$\Xi$}	[]	7
