Q	U	V
{$V$}	{[mm$^3$]}	0.0140641
{$d_v$}	{[mm]}	0.299482
{$S_c$}	{[mm$^2$]}	0.545473
{$S_o$}	{[mm$^2$]}	0.302277
{$S_l/S_o$}	[]	0.804547
{$\Psi$}	[]	0.516558
{$\eta$}	[]	0.546126
{med($\theta_e$)}	{[$^\circ$]}	87.3127
{$\Upsilon$}	[]	13
{$\Xi$}	[]	13
