Q	U	V
{$V$}	{[mm$^3$]}	0.011821
{$d_v$}	{[mm]}	0.282630
{$S_c$}	{[mm$^2$]}	0.448441
{$S_o$}	{[mm$^2$]}	0.287185
{$S_l/S_o$}	[]	0.561506
{$\Psi$}	[]	0.559605
{$\eta$}	[]	0.592566
{med($\theta_e$)}	{[$^\circ$]}	58.24365
{$\Upsilon$}	[]	19
{$\Xi$}	[]	15
