"cellPairingIds","interplanarAngles","angleWeights"
8,28.854,0.0657314
13,26.1883,0.0526573
19,23.8477,0.0464612
34,65.561,0.0545751
25,29.8871,0.070112
33,64.9036,0.054455
42,83.5521,0.0903919
52,76.094,0.0257498
63,41.7637,0.0380988
88,75.0808,0.133554
32,36.1893,0.0554318
51,59.7167,0.0673844
116,81.3343,0.0613977
132,88.5373,0.050971
149,95.3644,0.0573596
115,71.1312,0.0724768
166,79.1863,0.0500839
72,57.8575,0.0465685
85,41.2526,0.0203062
114,72.5373,0.0221098
129,66.5101,0.0263658
164,60.051,0.0640208
128,51.2913,0.017504
145,77.7008,0.0152206
163,80.4036,0.0260621
181,45.202,0.0387864
200,132.903,0.0291098
221,55.1422,0.0253968
243,80.964,0.0234155
266,123.123,0.0246782
289,37.8452,0.0758081
288,40.5723,0.0490228
338,57.6235,0.0464138
