"cellPairingIds","interplanarAngles","angleWeights"
8,59.2576,0.0315006
13,42.429,0.0381548
19,98.9415,0.025933
26,72.1477,0.0311473
25,97.2753,0.0390194
33,88.2763,0.0521572
63,72.7943,0.0658484
32,119.752,0.0497715
41,45.8902,0.0733333
62,65.4564,0.105028
73,152.911,0.0457181
86,115.512,0.0454507
100,128.714,0.0266148
85,28.6659,0.0648603
99,79.1624,0.0643234
128,68.4824,0.0874789
145,35.4123,0.0370337
162,42.9429,0.036858
