Q	U	V
{$V$}	{[mm$^3$]}	0.00358134
{$d_v$}	{[mm]}	0.189823
{$S_c$}	{[mm$^2$]}	0.171517
{$S_o$}	{[mm$^2$]}	0.106024
{$S_l/S_o$}	[]	0.617719
{$\Psi$}	[]	0.659995
{$\eta$}	[]	0.667666
{med($\theta_e$)}	{[$^\circ$]}	47.79715
{$\Upsilon$}	[]	18
{$\Xi$}	[]	5
