"cellPairingIds","interplanarAngles","angleWeights"
13,52.342,0.038906
19,65.9057,0.0349342
64,82.6241,0.0407058
76,105.535,0.0256652
89,88.7821,0.0637218
103,99.7695,0.0443978
32,69.5932,0.0362625
101,56.1128,0.026375
115,106.187,0.0244876
148,103.546,0.0409881
166,94.4624,0.0377748
205,113.969,0.0300402
221,36.2979,0.0740293
243,50.2158,0.0491676
242,75.943,0.035836
289,57.8277,0.027166
340,79.7393,0.0229217
288,83.5898,0.0872198
339,55.1271,0.127149
366,91.5854,0.0491238
365,39.101,0.0680495
393,74.956,0.036782
421,33.2839,0.0341734
450,56.0431,0.0423969
