"cellPairingIds","interplanarAngles","angleWeights"
32,99.035,0.0418099
41,42.6473,0.0305043
51,67.93,0.0831489
74,56.3944,0.0372579
101,58.2818,0.120657
50,98.4456,0.0215782
61,68.8933,0.0390818
100,58.9644,0.039067
148,63.4219,0.0257088
85,31.9016,0.0214347
114,68.1157,0.0290179
130,39.588,0.0325594
113,36.2784,0.035076
183,114.509,0.0370288
224,94.2501,0.0227532
145,38.2115,0.0385989
163,54.2093,0.0451282
181,91.8515,0.04037
201,31.0311,0.0367628
244,64.3154,0.021933
267,101.589,0.0170175
200,89.8425,0.100329
243,54.7363,0.0370155
341,77.43,0.0300702
289,59.7608,0.0369803
340,40.6173,0.0731136
367,64.6904,0.03389
313,35.1236,0.0339306
339,85.5345,0.0234513
338,114.531,0.0226809
365,41.9925,0.0174643
422,65.7941,0.0214797
392,83.0325,0.0163844
421,40.896,0.0289856
451,61.5691,0.019869
512,29.5759,0.0270521
