"cellPairingIds","interplanarAngles","angleWeights"
8,41.7476,0.0101585
13,69.0441,0.0105015
34,70.5269,0.0104964
43,76.0848,0.00780215
53,71.6215,0.00445896
18,47.555,0.0730086
25,30.1408,0.0400422
63,105.038,0.00700576
102,60.7319,0.0605844
51,55.013,0.0949871
116,47.676,0.07524
149,59.1516,0.0790454
50,70.199,0.017833
86,118.714,0.00663124
131,38.7555,0.0407043
148,45.9062,0.0398405
99,49.7207,0.00575235
165,91.2908,0.0207724
98,81.3495,0.0230029
146,33.1543,0.0671469
203,91.0863,0.0787601
246,68.7743,0.0579609
269,59.6653,0.0506658
128,24.3496,0.00579812
163,57.8454,0.020924
292,73.7516,0.0189983
370,101.454,0.0236363
222,133.168,0.00699955
267,55.0735,0.00542279
369,100.256,0.00669627
397,111.75,0.00722515
367,35.9057,0.0415691
288,28.0273,0.0601237
313,29.3275,0.0646837
338,37.6009,0.0625291
365,79.8314,0.0170341
452,28.5435,0.0511458
483,47.4958,0.0423089
421,33.4899,0.0516096
451,80.0414,0.0457448
482,39.2629,0.0544087
547,53.2674,0.0867168
546,49.4941,0.015343
512,47.5048,0.0378549
649,42.9306,0.0538439
648,23.5227,0.0384282
685,45.8133,0.0662638
722,45.0064,0.0521514
