facetNormals:0,facetNormals:1,facetNormals:2,FacetCenters:0,FacetCenters:1,FacetCenters:2,FacetIds,relFacetSize,absFacetSize,cellPairingIds,interplanarAngles,angleWeights
0.288645,0.010904,-0.918085,5.73064,6.93221,9.0336,1,0.0332661,0.00748456,8,39.0392,0.0378138
-0.100814,0.51494,-0.814486,5.68841,6.97878,9.00937,2,0.0438017,0.00985495,13,52.099,0.0500582
-0.312699,-0.543724,-0.71943,5.66512,6.89337,9.00205,3,0.101083,0.0227427,19,35.3384,0.0362014
0.503957,0.49368,-0.66446,5.74033,6.99591,8.96868,4,0.0397048,0.0089332,26,64.9451,0.0311423
-0.706865,0.187246,-0.6562,5.63071,6.95945,9.03018,5,0.0292734,0.00658624,34,59.7817,0.0424739
0.433932,-0.777774,-0.384683,5.73454,6.87456,9.0313,6,0.0587298,0.0132136,43,86.6339,0.0367857
-0.769336,-0.528897,-0.308686,5.61126,6.92593,9.01359,7,0.0411381,0.00925566,53,61.1607,0.0417189
0.862436,-0.37484,-0.221873,5.76112,6.91237,9.02689,8,0.0559307,0.0125839,64,85.5596,0.0446132
-0.617549,0.677894,-0.263547,5.73529,6.93705,9.05733,9,0.0677084,0.0152337,76,107.526,0.0398025
-0.930226,-0.213663,0.00631543,5.61768,6.93647,9.04746,10,0.0495355,0.011145,89,112.147,0.0447389
-0.385636,0.806678,0.255876,5.64728,7.00855,9.08706,11,0.068291,0.0153648,103,96.4547,0.0502799
0.556643,0.690208,0.293271,5.73457,7.00814,9.0434,12,0.102915,0.0231549,118,125.453,0.0248643
0.414915,-0.509541,0.714775,5.77418,6.8906,9.1129,13,0.0198508,0.00446623,134,142.682,0.0301778
-0.262249,-0.604231,0.730316,5.66658,6.90919,9.10809,14,0.0276141,0.00621291,18,68.5943,0.061119
,,,,,,,,,25,37.5322,0.0416528
,,,,,,,,,33,42.4718,0.0350934
,,,,,,,,,42,98.0072,0.050179
,,,,,,,,,52,86.5923,0.0424281
,,,,,,,,,63,96.0863,0.0491287
,,,,,,,,,75,47.3779,0.0531923
,,,,,,,,,88,91.3252,0.0464925
,,,,,,,,,102,74.1656,0.0533712
,,,,,,,,,117,86.1706,0.0614497
,,,,,,,,,133,160.435,0.0273201
,,,,,,,,,150,157.375,0.0338733
,,,,,,,,,32,86.7761,0.0570146
,,,,,,,,,41,50.9086,0.0453993
,,,,,,,,,51,52.4801,0.0742942
,,,,,,,,,62,36.9311,0.0584774
,,,,,,,,,74,84.1654,0.0720147
,,,,,,,,,87,89.1114,0.0810961
,,,,,,,,,101,63.7791,0.0664885
,,,,,,,,,116,124.448,0.0815126
,,,,,,,,,132,148.534,0.101991
,,,,,,,,,149,113.325,0.0331847
,,,,,,,,,167,97.0291,0.0433781
,,,,,,,,,50,79.579,0.0337004
,,,,,,,,,61,84.4875,0.0473788
,,,,,,,,,73,117.75,0.0404088
,,,,,,,,,86,64.9134,0.0464413
,,,,,,,,,100,77.5999,0.0500562
,,,,,,,,,115,128.71,0.0440787
,,,,,,,,,131,87.8459,0.0502146
,,,,,,,,,148,61.8939,0.0573023
,,,,,,,,,166,123.358,0.0264684
,,,,,,,,,185,163.899,0.0325737
,,,,,,,,,72,102.108,0.0390718
,,,,,,,,,85,47.9289,0.0342061
,,,,,,,,,99,124.247,0.038432
,,,,,,,,,114,38.2292,0.0408748
,,,,,,,,,130,49.1489,0.0367998
,,,,,,,,,147,73.7471,0.0409804
,,,,,,,,,165,119.847,0.0455815
,,,,,,,,,184,154.047,0.0236584
,,,,,,,,,204,114.911,0.0284196
,,,,,,,,,98,78.1272,0.0483846
,,,,,,,,,113,36.7433,0.0572961
,,,,,,,,,129,138.553,0.0629003
,,,,,,,,,146,105.015,0.0537423
,,,,,,,,,164,171.867,0.0631506
,,,,,,,,,183,116.769,0.0747835
,,,,,,,,,203,71.3392,0.0296723
,,,,,,,,,224,85.4785,0.0375654
,,,,,,,,,128,114.684,0.0474073
,,,,,,,,,145,77.8217,0.0511802
,,,,,,,,,163,28.2548,0.044948
,,,,,,,,,182,103.208,0.0513458
,,,,,,,,,202,164.238,0.0587801
,,,,,,,,,223,106.45,0.0267794
,,,,,,,,,245,72.1833,0.033046
,,,,,,,,,162,142.18,0.0612586
,,,,,,,,,181,141.685,0.0525392
,,,,,,,,,201,140.338,0.0614959
,,,,,,,,,222,80.0265,0.0724743
,,,,,,,,,244,65.418,0.0293018
,,,,,,,,,267,99.7989,0.0369736
,,,,,,,,,200,61.9706,0.0572136
,,,,,,,,,221,36.0356,0.0679984
,,,,,,,,,243,86.9868,0.0816794
,,,,,,,,,266,148.517,0.0307007
,,,,,,,,,290,117.972,0.0392291
,,,,,,,,,242,77.7735,0.0574205
,,,,,,,,,265,138.093,0.0668801
,,,,,,,,,289,107.106,0.0283433
,,,,,,,,,314,66.2763,0.0354604
,,,,,,,,,288,61.2966,0.0821019
,,,,,,,,,313,115.459,0.0307602
,,,,,,,,,339,102.593,0.0393263
,,,,,,,,,338,84.3742,0.0332819
,,,,,,,,,365,112.321,0.0435444
,,,,,,,,,392,40.9613,0.0230976
