Q	U	V
{$V$}	{[mm$^3$]}	0.00295555
{$d_v$}	{[mm]}	0.178052
{$S_c$}	{[mm$^2$]}	0.147056
{$S_o$}	{[mm$^2$]}	0.0935997
{$S_l/S_o$}	[]	0.571116
{$\Psi$}	[]	0.677268
{$\eta$}	[]	0.696463
{med($\theta_e$)}	{[$^\circ$]}	61.81655
{$\Upsilon$}	[]	12
{$\Xi$}	[]	6
