Q	U	V
{$V$}	{[mm$^3$]}	0.0020246
{$d_v$}	{[mm]}	0.156957
{$S_c$}	{[mm$^2$]}	0.17053
{$S_o$}	{[mm$^2$]}	0.0905725
{$S_l/S_o$}	[]	0.882801
{$\Psi$}	[]	0.453847
{$\eta$}	[]	0.485385
{med($\theta_e$)}	{[$^\circ$]}	107.8185
{$\Upsilon$}	[]	18
{$\Xi$}	[]	8
