Q	U	V
{$V$}	{[mm$^3$]}	0.00933689
{$d_v$}	{[mm]}	0.261257
{$S_c$}	{[mm$^2$]}	0.405228
{$S_o$}	{[mm$^2$]}	0.248551
{$S_l/S_o$}	[]	0.630362
{$\Psi$}	[]	0.529159
{$\eta$}	[]	0.582045
{med($\theta_e$)}	{[$^\circ$]}	76.47345
{$\Upsilon$}	[]	12
{$\Xi$}	[]	10
