"cellPairingIds","interplanarAngles","angleWeights"
32,133.223,0.058983
51,37.0985,0.070715
62,29.1456,0.0345937
87,36.3005,0.0804236
61,126.871,0.0470827
73,135.15,0.027774
166,101.945,0.0142901
185,133.963,0.0287228
205,121.884,0.0167239
129,54.8503,0.059811
246,95.6687,0.0175494
145,29.1228,0.0317611
223,78.3683,0.0122053
245,66.1884,0.0213819
290,50.3805,0.033008
315,70.8802,0.0180914
392,34.3955,0.0123851
450,35.3952,0.0141727
