Q	U	V
{$V$}	{[mm$^3$]}	0.00592417
{$d_v$}	{[mm]}	0.224497
{$S_c$}	{[mm$^2$]}	0.261287
{$S_o$}	{[mm$^2$]}	0.175784
{$S_l/S_o$}	[]	0.486409
{$\Psi$}	[]	0.60597
{$\eta$}	[]	0.627199
{med($\theta_e$)}	{[$^\circ$]}	62.17075
{$\Upsilon$}	[]	21
{$\Xi$}	[]	13
