Q	U	V
{$V$}	{[mm$^3$]}	0.00585292
{$d_v$}	{[mm]}	0.223593
{$S_c$}	{[mm$^2$]}	0.240751
{$S_o$}	{[mm$^2$]}	0.153979
{$S_l/S_o$}	[]	0.563531
{$\Psi$}	[]	0.652376
{$\eta$}	[]	0.701144
{med($\theta_e$)}	{[$^\circ$]}	59.816
{$\Upsilon$}	[]	20
{$\Xi$}	[]	6
