facetNormals:0,facetNormals:1,facetNormals:2,FacetCenters:0,FacetCenters:1,FacetCenters:2,FacetIds,relFacetSize,absFacetSize,cellPairingIds,interplanarAngles,angleWeights
-0.411022,-0.0983542,-0.842223,7.40357,4.79744,6.26282,1,0.0477163,0.0104589,8,43.7634,0.0193896
-0.532876,0.565246,-0.598189,7.38209,4.87981,6.26074,2,0.0121668,0.00266681,13,78.2927,0.0598256
0.698723,0.125456,-0.561065,7.55138,4.8044,6.33243,3,0.0801711,0.0175725,19,47.1571,0.022092
-0.738597,-0.564594,-0.322181,7.37881,4.80862,6.24553,4,0.0143733,0.00315046,26,104.091,0.0394441
0.876775,-0.398984,-0.116973,7.55832,4.77767,6.37161,5,0.0336162,0.00736828,34,64.0333,0.0503264
-0.960523,0.0326406,-0.00587971,7.36841,4.85156,6.35486,6,0.0532385,0.0116692,43,99.373,0.0383633
0.560681,-0.804363,-0.00103061,7.52878,4.75204,6.31777,7,0.032076,0.00703067,53,122.65,0.0360348
0.787256,0.568809,0.141854,7.5625,4.86089,6.46119,8,0.028948,0.00634506,64,79.198,0.0685477
-0.494603,-0.827747,0.133906,7.45137,4.7727,6.36303,9,0.12166,0.0266665,76,140.975,0.0454384
0.858591,0.0626567,0.398053,7.56253,4.82863,6.44803,10,0.043368,0.00950576,89,108.11,0.0413108
0.181304,-0.895773,0.357417,7.53388,4.76297,6.41194,11,0.0364215,0.00798315,103,97.1646,0.0557715
-0.656267,0.575611,0.386255,7.38618,4.89204,6.38227,12,0.0670988,0.0147073,118,96.8627,0.0421994
-0.822475,-0.0460547,0.538323,7.37002,4.84839,6.35316,13,0.037826,0.00829102,134,106.618,0.0509229
-0.443325,-0.632389,0.603904,7.44513,4.79722,6.43898,14,0.0545916,0.0119658,151,138.263,0.0569424
-0.265177,0.0464285,0.941669,7.48446,4.85794,6.49369,15,0.0705914,0.0154728,18,87.7905,0.0211273
,,,,,,,,,25,73.9216,0.0131783
,,,,,,,,,33,130.888,0.0178669
,,,,,,,,,42,55.4943,0.019807
,,,,,,,,,52,141.546,0.0176418
,,,,,,,,,63,100.953,0.0171327
,,,,,,,,,75,107.336,0.0221213
,,,,,,,,,88,135.233,0.0190024
,,,,,,,,,102,148.089,0.0182403
,,,,,,,,,117,61.6784,0.0205985
,,,,,,,,,133,84.6341,0.0184115
,,,,,,,,,150,120.128,0.0198987
,,,,,,,,,168,114.339,0.0207561
,,,,,,,,,32,117.141,0.0243763
,,,,,,,,,41,44.3189,0.0473699
,,,,,,,,,51,139.751,0.0639862
,,,,,,,,,62,70.8234,0.0458197
,,,,,,,,,74,52.4045,0.0425369
,,,,,,,,,87,126.548,0.0966514
,,,,,,,,,101,63.3867,0.0562876
,,,,,,,,,116,102.107,0.0500881
,,,,,,,,,132,134.281,0.0730548
,,,,,,,,,149,172.347,0.0514005
,,,,,,,,,167,145.142,0.0649537
,,,,,,,,,186,143.005,0.0750769
,,,,,,,,,50,113.757,0.0201367
,,,,,,,,,61,42.8836,0.0226355
,,,,,,,,,73,87.6026,0.0198512
,,,,,,,,,86,169.092,0.0192089
,,,,,,,,,100,34.4876,0.0257092
,,,,,,,,,115,148.747,0.0215908
,,,,,,,,,131,74.583,0.0206122
,,,,,,,,,148,87.8469,0.0236751
,,,,,,,,,166,61.6319,0.0208311
,,,,,,,,,185,59.4769,0.0227554
,,,,,,,,,205,97.9777,0.0238836
,,,,,,,,,72,156.383,0.0412108
,,,,,,,,,85,31.3372,0.032828
,,,,,,,,,99,62.0303,0.0311079
,,,,,,,,,114,97.2406,0.0526771
,,,,,,,,,130,42.2519,0.0378745
,,,,,,,,,147,60.1093,0.0349627
,,,,,,,,,165,156.622,0.0447919
,,,,,,,,,184,143.311,0.0355971
,,,,,,,,,204,102.569,0.04161
,,,,,,,,,225,112.336,0.045544
,,,,,,,,,98,126.823,0.0400325
,,,,,,,,,113,141.516,0.0375037
,,,,,,,,,129,61.4426,0.0740658
,,,,,,,,,146,154.829,0.047799
,,,,,,,,,164,102.584,0.0432528
,,,,,,,,,183,45.163,0.0593704
,,,,,,,,,203,33.864,0.044228
,,,,,,,,,224,64.7702,0.0539065
,,,,,,,,,246,74.5544,0.060699
,,,,,,,,,128,90.969,0.0304318
,,,,,,,,,145,65.9923,0.0507671
,,,,,,,,,163,62.4176,0.0368769
,,,,,,,,,182,31.3394,0.0341109
,,,,,,,,,202,152.654,0.0434033
,,,,,,,,,223,116.112,0.0347145
,,,,,,,,,245,74.3392,0.0404091
,,,,,,,,,268,101.229,0.0441092
,,,,,,,,,162,151.684,0.046768
,,,,,,,,,181,34.411,0.0347203
,,,,,,,,,201,109.157,0.0322575
,,,,,,,,,222,98.2499,0.0404464
,,,,,,,,,244,128.201,0.0327968
,,,,,,,,,267,130.351,0.037834
,,,,,,,,,291,92.9082,0.0410587
,,,,,,,,,200,117.282,0.0639426
,,,,,,,,,221,42.9152,0.0560602
,,,,,,,,,243,96.1866,0.086494
,,,,,,,,,266,57.3386,0.0577094
,,,,,,,,,290,30.3529,0.0753652
,,,,,,,,,315,76.7321,0.089343
,,,,,,,,,242,74.9417,0.0395924
,,,,,,,,,265,114.375,0.0526845
,,,,,,,,,289,122.013,0.0404079
,,,,,,,,,314,101.154,0.0483369
,,,,,,,,,340,80.7031,0.0537281
,,,,,,,,,288,122.01,0.0472147
,,,,,,,,,313,84.9776,0.0371105
,,,,,,,,,339,43.1467,0.0436928
,,,,,,,,,366,75.1144,0.0480511
,,,,,,,,,338,39.8485,0.048379
,,,,,,,,,365,80.144,0.0602025
,,,,,,,,,393,52.8589,0.0688008
,,,,,,,,,392,41.8321,0.0446881
,,,,,,,,,421,41.4055,0.0492576
,,,,,,,,,450,46.8339,0.061569
