facetNormals:0,facetNormals:1,facetNormals:2,FacetCenters:0,FacetCenters:1,FacetCenters:2,FacetIds,relFacetSize,absFacetSize,cellPairingIds,interplanarAngles,angleWeights
0.239705,-0.19494,-0.919809,3.42783,4.75775,8.3613,1,0.0520523,0.00520259,8,57.6493,0.0422674
-0.197777,0.595925,-0.714957,3.42309,4.74587,8.41276,2,0.0355791,0.0035561,13,63.1106,0.0769295
-0.641352,-0.471434,-0.521143,3.40463,4.69989,8.41512,3,0.147354,0.0147279,19,50.2519,0.0536417
0.851756,0.123262,-0.463503,3.48201,4.68504,8.4158,4,0.0553311,0.0055303,26,66.7125,0.0177755
0.380644,0.77834,-0.478565,3.45793,4.71814,8.41955,5,0.0107178,0.00107123,34,52.579,0.0521749
0.829605,-0.377043,-0.323834,3.47909,4.69275,8.43321,6,0.0522981,0.00522715,43,61.2512,0.0397016
0.692632,0.548168,-0.435313,3.48193,4.69767,8.44028,7,0.032088,0.00320717,53,66.1624,0.0649743
0.00303858,-0.935511,-0.20968,3.44727,4.65524,8.47912,8,0.0864307,0.00863868,64,105.822,0.0134573
-0.210819,0.956504,0.0241456,3.43292,4.70329,8.52108,9,0.00772757,0.000772365,76,94.4836,0.0227393
-0.737804,-0.663408,0.030187,3.40768,4.67396,8.45701,10,0.0145472,0.00145398,89,80.4534,0.0354723
0.974065,-0.119132,0.106397,3.48682,4.69633,8.46382,11,0.026903,0.00268893,103,82.3458,0.0532222
0.861095,0.453359,-0.00841839,3.46829,4.69397,8.42611,12,0.0544459,0.00544182,118,94.684,0.0524034
-0.477672,-0.842174,0.138254,3.40244,4.66404,8.49848,13,0.0527593,0.00527325,134,116.518,0.0214299
-0.960823,-0.0381375,0.222556,3.4031,4.69984,8.41432,14,0.0134923,0.00134855,151,100.778,0.0646437
0.287619,-0.800081,0.432713,3.45767,4.6548,8.52855,15,0.0852707,0.00852274,169,159.899,0.0178407
0.00292992,-0.036555,0.983154,3.47899,4.67224,8.54799,16,0.0107652,0.00107597,18,76.0332,0.0573185
,,,,,,,,,25,75.2773,0.0433094
,,,,,,,,,33,39.1196,0.0164732
,,,,,,,,,42,99.8384,0.0423482
,,,,,,,,,52,57.6844,0.0337435
,,,,,,,,,63,116.58,0.0504078
,,,,,,,,,75,50.3851,0.0126974
,,,,,,,,,88,106.673,0.0206509
,,,,,,,,,102,111.204,0.0306387
,,,,,,,,,117,83.4343,0.0430355
,,,,,,,,,133,122.955,0.0424986
,,,,,,,,,150,89.5007,0.0195652
,,,,,,,,,168,158.236,0.0502087
,,,,,,,,,187,140.782,0.0165291
,,,,,,,,,32,112.963,0.0804525
,,,,,,,,,41,112.585,0.0199822
,,,,,,,,,51,101.634,0.0771976
,,,,,,,,,62,120.52,0.0527
,,,,,,,,,74,53.0458,0.108954
,,,,,,,,,87,110.622,0.014685
,,,,,,,,,101,35.3594,0.0264802
,,,,,,,,,116,131.641,0.045499
,,,,,,,,,132,145.342,0.0795126
,,,,,,,,,149,47.2744,0.0776989
,,,,,,,,,167,56.5049,0.0247211
,,,,,,,,,186,92.0701,0.108028
,,,,,,,,,206,122.071,0.0200645
,,,,,,,,,50,48.4323,0.0179572
,,,,,,,,,61,31.0085,0.0537719
,,,,,,,,,73,26.7878,0.0406196
,,,,,,,,,86,90.95,0.0674696
,,,,,,,,,100,94.3629,0.0135612
,,,,,,,,,115,138.274,0.0230375
,,,,,,,,,131,37.4822,0.0362033
,,,,,,,,,148,33.5048,0.0548849
,,,,,,,,,166,126.955,0.0540146
,,,,,,,,,185,163.748,0.0216945
,,,,,,,,,205,93.3321,0.0671133
,,,,,,,,,226,118.42,0.0180237
,,,,,,,,,72,79.3266,0.0177898
,,,,,,,,,85,22.7878,0.0160685
,,,,,,,,,99,131.327,0.0190707
,,,,,,,,,114,47.6991,0.0089803
,,,,,,,,,130,145.696,0.0123423
,,,,,,,,,147,76.5574,0.0153288
,,,,,,,,,165,44.7022,0.01791
,,,,,,,,,184,158.953,0.0178163
,,,,,,,,,204,120.915,0.0119461
,,,,,,,,,225,139.716,0.0190421
,,,,,,,,,247,120.746,0.0107414
,,,,,,,,,98,57.6993,0.0397729
,,,,,,,,,113,62.846,0.0651654
,,,,,,,,,129,124.991,0.0134655
,,,,,,,,,146,112.781,0.0227627
,,,,,,,,,164,30.9645,0.0355292
,,,,,,,,,183,54.5282,0.0533504
,,,,,,,,,203,97.5035,0.0525277
,,,,,,,,,224,153.575,0.0214507
,,,,,,,,,246,64.2962,0.0648329
,,,,,,,,,269,108.517,0.017855
,,,,,,,,,128,116.377,0.0468009
,,,,,,,,,145,67.5915,0.0124555
,,,,,,,,,163,155.264,0.0200188
,,,,,,,,,182,54.6017,0.0292676
,,,,,,,,,202,27.6878,0.0403786
,,,,,,,,,223,152.294,0.0399056
,,,,,,,,,245,143.697,0.0189969
,,,,,,,,,268,117.085,0.0466291
,,,,,,,,,292,117.409,0.0161217
,,,,,,,,,162,163.475,0.0141867
,,,,,,,,,181,49.9749,0.0249029
,,,,,,,,,201,84.415,0.0410336
,,,,,,,,,222,116.736,0.0668073
,,,,,,,,,244,36.1207,0.0655222
,,,,,,,,,267,90.8421,0.023341
,,,,,,,,,291,43.936,0.0858468
,,,,,,,,,316,100.503,0.0191457
,,,,,,,,,200,119.457,0.0100934
,,,,,,,,,221,109.118,0.0120064
,,,,,,,,,243,74.6812,0.0135342
,,,,,,,,,266,137.061,0.0134807
,,,,,,,,,290,79.7873,0.00982691
,,,,,,,,,315,150.746,0.0141709
,,,,,,,,,341,90.704,0.0089969
,,,,,,,,,242,130.506,0.0188835
,,,,,,,,,265,165.754,0.0229598
,,,,,,,,,289,19.475,0.0228061
,,,,,,,,,314,40.8673,0.0139999
,,,,,,,,,340,69.5004,0.0248542
,,,,,,,,,367,86.9615,0.0123736
,,,,,,,,,288,35.3133,0.0360117
,,,,,,,,,313,111.272,0.035635
,,,,,,,,,339,158.698,0.0179716
,,,,,,,,,366,63.4083,0.0409015
,,,,,,,,,394,83.3884,0.0153772
,,,,,,,,,338,146.565,0.0535893
,,,,,,,,,365,151.8,0.0216256
,,,,,,,,,393,97.3455,0.0664579
,,,,,,,,,422,91.3362,0.0179761
,,,,,,,,,392,57.2757,0.0214892
,,,,,,,,,421,50.2796,0.0651861
,,,,,,,,,451,80.1074,0.0178817
,,,,,,,,,450,99.138,0.0232982
,,,,,,,,,481,77.0637,0.0119755
,,,,,,,,,512,60.9661,0.0191169
