Q	U	V
{$V$}	{[mm$^3$]}	0.00288193
{$d_v$}	{[mm]}	0.176561
{$S_c$}	{[mm$^2$]}	0.218603
{$S_o$}	{[mm$^2$]}	0.103691
{$S_l/S_o$}	[]	1.108216
{$\Psi$}	[]	0.448006
{$\eta$}	[]	0.481402
{med($\theta_e$)}	{[$^\circ$]}	85.87625
{$\Upsilon$}	[]	23
{$\Xi$}	[]	6
