facetNormals:0,facetNormals:1,facetNormals:2,FacetCenters:0,FacetCenters:1,FacetCenters:2,FacetIds,relFacetSize,absFacetSize,cellPairingIds,interplanarAngles,angleWeights
-0.0186962,0.511083,-0.823445,5.86691,7.23215,6.05286,1,0.10246,0.0208812,8,74.3211,0.0566895
-0.282602,-0.624983,-0.69129,5.83323,7.09578,6.01125,2,0.0391849,0.00798581,13,61.0732,0.0166333
-0.801442,-0.0447605,-0.57021,5.78433,7.21721,6.08168,3,0.00905135,0.00184465,19,73.8163,0.10188
0.780037,-0.208429,-0.450416,5.93105,7.16809,6.08451,4,0.101306,0.020646,26,90.4928,0.0742262
0.973531,-0.0588446,-0.0487403,5.95175,7.21372,6.12634,5,0.058191,0.0118592,34,63.6838,0.0375586
0.554332,0.80774,-0.0226408,5.92776,7.33382,6.14237,6,0.0229937,0.00468607,43,91.9684,0.0546438
0.85796,0.376245,0.253282,5.95266,7.26509,6.20593,7,0.0372568,0.00759287,53,116.956,0.109647
-0.833321,-0.299691,0.338893,5.79565,7.18006,6.1488,8,0.117918,0.0240315,64,145.698,0.0252832
0.50706,-0.647791,0.547212,5.92757,7.13282,6.18849,9,0.0144209,0.00293895,76,154.376,0.0442913
-0.1693,-0.794025,0.554625,5.86116,7.10806,6.16639,10,0.028252,0.00575771,89,146.221,0.0469798
-0.523674,-0.519143,0.654192,5.84156,7.16588,6.20748,11,0.0304771,0.00621117,103,133.561,0.0240447
0.723599,-0.268519,0.620049,5.95407,7.18981,6.23526,12,0.0136205,0.00277584,118,175.57,0.0581616
-0.0539845,-0.498295,0.841689,5.87907,7.15779,6.21074,13,0.0406058,0.00827539,134,110.802,0.114275
0.0293989,0.579902,0.758655,5.8367,7.17367,6.09065,14,0.129169,0.0263244,18,47.4303,0.0147058
,,,,,,,,,25,75.7783,0.0565114
,,,,,,,,,33,102.427,0.0468331
,,,,,,,,,42,132.592,0.0289812
,,,,,,,,,52,133.68,0.0381965
,,,,,,,,,63,78.2192,0.0588227
,,,,,,,,,75,96.9677,0.0210828
,,,,,,,,,88,80.3388,0.0328323
,,,,,,,,,102,88.7936,0.0342867
,,,,,,,,,117,118.857,0.0202146
,,,,,,,,,133,105.514,0.0398827
,,,,,,,,,150,164.196,0.060129
,,,,,,,,,32,113.226,0.0166179
,,,,,,,,,41,141.245,0.0156659
,,,,,,,,,51,118.983,0.0129895
,,,,,,,,,62,152.67,0.0145644
,,,,,,,,,74,58.4839,0.0168122
,,,,,,,,,87,135.127,0.0111219
,,,,,,,,,101,98.6157,0.0137102
,,,,,,,,,116,85.8698,0.0139575
,,,,,,,,,132,160.96,0.0108755
,,,,,,,,,149,115.442,0.014803
,,,,,,,,,167,120.832,0.0169172
,,,,,,,,,50,28.476,0.0739212
,,,,,,,,,61,72.38,0.0374804
,,,,,,,,,73,57.9039,0.0544784
,,,,,,,,,86,147.602,0.108983
,,,,,,,,,100,71.8816,0.0252477
,,,,,,,,,115,103.77,0.0441825
,,,,,,,,,131,130.753,0.0468575
,,,,,,,,,148,68.1191,0.0240126
,,,,,,,,,166,110.512,0.0579742
,,,,,,,,,185,119.851,0.113553
,,,,,,,,,72,58.9731,0.0329625
,,,,,,,,,85,32.3313,0.0454282
,,,,,,,,,99,151.038,0.0779264
,,,,,,,,,114,58.4327,0.0231137
,,,,,,,,,130,98.6936,0.0380369
,,,,,,,,,147,122.073,0.0400029
,,,,,,,,,165,44.4609,0.0220743
,,,,,,,,,184,93.8515,0.0478334
,,,,,,,,,204,92.6098,0.0802356
,,,,,,,,,98,35.5455,0.028437
,,,,,,,,,113,139.991,0.0384833
,,,,,,,,,129,105.244,0.0177251
,,,,,,,,,146,140.906,0.0253531
,,,,,,,,,164,138.587,0.0262117
,,,,,,,,,183,79.897,0.0171074
,,,,,,,,,203,118.055,0.0293612
,,,,,,,,,224,60.0393,0.0390381
,,,,,,,,,128,143.728,0.0566232
,,,,,,,,,145,69.875,0.0207933
,,,,,,,,,163,108.548,0.0321355
,,,,,,,,,182,120.042,0.0335276
,,,,,,,,,202,45.2143,0.0199483
,,,,,,,,,223,91.2424,0.0388593
,,,,,,,,,245,61.9794,0.0578326
,,,,,,,,,162,92.6282,0.0256989
,,,,,,,,,181,52.5424,0.0455829
,,,,,,,,,201,29.4806,0.0484355
,,,,,,,,,222,109.437,0.0244203
,,,,,,,,,244,58.9167,0.0604093
,,,,,,,,,267,86.2775,0.123287
,,,,,,,,,200,41.1034,0.019095
,,,,,,,,,221,63.8824,0.019578
,,,,,,,,,243,25.869,0.0140093
,,,,,,,,,266,38.6398,0.0212832
,,,,,,,,,290,86.6962,0.0259451
,,,,,,,,,242,26.985,0.0293224
,,,,,,,,,265,63.483,0.01838
,,,,,,,,,289,25.1865,0.0333207
,,,,,,,,,314,92.7254,0.0463634
,,,,,,,,,288,80.2006,0.0188271
,,,,,,,,,313,29.8461,0.0348198
,,,,,,,,,339,78.9898,0.0493177
,,,,,,,,,338,50.521,0.0203987
,,,,,,,,,365,69.1942,0.0246426
,,,,,,,,,392,68.1707,0.0617878
