"cellPairingIds","interplanarAngles","angleWeights"
25,49.0893,0.0567943
52,41.4411,0.0182253
168,97.0432,0.0229904
32,29.6613,0.0629366
51,59.1251,0.0653303
74,53.3925,0.0504033
87,97.4737,0.0190192
101,52.0005,0.0450377
73,57.812,0.0186384
86,44.7353,0.0491586
100,118.79,0.0188392
131,50.8843,0.0663547
205,146.104,0.0236517
129,46.5193,0.0190481
146,53.2685,0.0452001
183,41.71,0.0311248
182,43.9924,0.0191088
245,35.4362,0.0198111
268,99.4678,0.012572
181,52.3918,0.0375137
201,32.3774,0.0525722
244,48.1601,0.0497295
369,68.2307,0.0321587
243,49.2859,0.0144092
315,53.5319,0.0126631
265,58.9123,0.0256243
289,29.7182,0.0444989
339,44.6071,0.0840722
453,56.0985,0.0387237
338,65.2469,0.0307907
393,78.0762,0.0170649
452,40.6546,0.0255241
483,101.247,0.0230074
514,61.7429,0.0371591
450,86.6428,0.0255726
546,45.8067,0.0417208
545,47.0969,0.0205136
579,91.609,0.0188559
648,77.1423,0.0297508
