Q	U	V
{$V$}	{[mm$^3$]}	0.00310517
{$d_v$}	{[mm]}	0.181007
{$S_c$}	{[mm$^2$]}	0.174652
{$S_o$}	{[mm$^2$]}	0.104102
{$S_l/S_o$}	[]	0.677701
{$\Psi$}	[]	0.589342
{$\eta$}	[]	0.603177
{med($\theta_e$)}	{[$^\circ$]}	64.0569
{$\Upsilon$}	[]	12
{$\Xi$}	[]	6
