"cellPairingIds","interplanarAngles","angleWeights"
19,47.9824,0.0261167
26,112.418,0.0272905
34,89.2542,0.0502212
53,86.0911,0.0469963
61,123.571,0.0439691
86,47.0479,0.0414773
205,83.701,0.026155
72,138.355,0.0474015
99,52.5083,0.0445182
147,44.5144,0.0342831
164,127.985,0.0803983
246,116.746,0.0503627
201,56.4461,0.0724405
291,60.31,0.0471202
366,34.0611,0.0358057
