Q	U	V
{$V$}	{[mm$^3$]}	0.00370365
{$d_v$}	{[mm]}	0.191960
{$S_c$}	{[mm$^2$]}	0.164726
{$S_o$}	{[mm$^2$]}	0.109888
{$S_l/S_o$}	[]	0.499035
{$\Psi$}	[]	0.702763
{$\eta$}	[]	0.715789
{med($\theta_e$)}	{[$^\circ$]}	51.90615
{$\Upsilon$}	[]	14
{$\Xi$}	[]	11
