facetNormals:0,facetNormals:1,facetNormals:2,FacetCenters:0,FacetCenters:1,FacetCenters:2,FacetIds,relFacetSize,absFacetSize,cellPairingIds,interplanarAngles,angleWeights
-0.0119046,0.0170019,-0.993473,6.00673,6.15137,6.59555,1,0.0169558,0.00141888,8,29.1668,0.0241678
-0.0368749,-0.447101,-0.835377,6.01003,6.13997,6.58103,2,0.042056,0.0035193,13,61.8153,0.00914778
0.675202,-0.535346,-0.48419,6.03462,6.13092,6.60375,3,0.0062635,0.000524136,19,57.6584,0.026274
0.468872,0.683694,-0.516587,6.01741,6.2265,6.60302,4,0.0583303,0.00488115,26,68.5373,0.0246368
0.134083,-0.857218,-0.36007,6.01805,6.0966,6.58885,5,0.0450401,0.003769,34,63.5349,0.0293878
0.857836,0.131237,-0.442183,6.04947,6.15287,6.58422,6,0.110151,0.00921755,43,78.0506,0.0222046
-0.687512,-0.685285,-0.20913,5.96773,6.11985,6.60262,7,0.0321603,0.00269121,53,79.5913,0.0145278
-0.479728,0.842804,-0.157367,5.977,6.2488,6.64295,8,0.0127081,0.00106343,64,79.5844,0.0284127
-0.88876,-0.368923,-0.172442,5.96717,6.11843,6.59698,9,0.0876112,0.00733141,76,87.8436,0.0264501
0.727348,0.642025,-0.0342649,6.03958,6.22643,6.62837,10,0.0601063,0.00502976,89,84.8266,0.0305629
-0.871446,0.235887,-0.0671701,5.95692,6.19512,6.62166,11,0.154756,0.0129502,103,110.326,0.0209376
0.906785,0.0732235,0.326171,6.0522,6.17522,6.67424,12,0.0273637,0.00228983,118,117.602,0.0109425
-0.577779,0.65228,0.47886,5.97011,6.24341,6.66197,13,0.00807777,0.000675957,134,139.332,0.0130878
0.489969,-0.418923,0.720349,6.0031,6.16153,6.67859,14,0.0106568,0.000891775,151,132.537,0.022202
0.366281,0.599043,0.655328,6.02755,6.21853,6.66961,15,0.0321494,0.0026903,169,163.586,0.0283745
-0.253044,-0.0602495,0.91094,5.99917,6.15602,6.68066,16,0.0868901,0.00727106,18,48.6697,0.0109032
,,,,,,,,,25,83.2681,0.048874
,,,,,,,,,33,40.3228,0.0434969
,,,,,,,,,42,72.4111,0.0608712
,,,,,,,,,52,57.4608,0.0364484
,,,,,,,,,63,104.146,0.0195184
,,,,,,,,,75,68.3651,0.0568313
,,,,,,,,,88,108.052,0.0494866
,,,,,,,,,102,91.1493,0.0661385
,,,,,,,,,117,111.688,0.0331551
,,,,,,,,,133,135.319,0.0135525
,,,,,,,,,150,118.156,0.0170047
,,,,,,,,,168,155.51,0.0364414
,,,,,,,,,187,143.781,0.0566788
,,,,,,,,,32,78.0022,0.0113123
,,,,,,,,,41,38.7827,0.0109976
,,,,,,,,,51,41.3153,0.011853
,,,,,,,,,62,89.7715,0.010485
,,,,,,,,,74,136.033,0.00839119
,,,,,,,,,87,109.283,0.0116912
,,,,,,,,,101,80.1592,0.0113448
,,,,,,,,,116,139.673,0.0120397
,,,,,,,,,132,64.2407,0.0101937
,,,,,,,,,149,171.196,0.00705587
,,,,,,,,,167,77.5301,0.0078898
,,,,,,,,,186,114.302,0.0104844
,,,,,,,,,206,128.248,0.0116847
,,,,,,,,,50,111.56,0.0508308
,,,,,,,,,61,40.7838,0.0762713
,,,,,,,,,73,134.749,0.0414611
,,,,,,,,,86,63.2073,0.0208695
,,,,,,,,,100,127.389,0.0700334
,,,,,,,,,115,32.7317,0.059205
,,,,,,,,,131,103.913,0.084726
,,,,,,,,,148,71.0392,0.0372519
,,,,,,,,,166,94.2702,0.0141904
,,,,,,,,,185,117.008,0.0180212
,,,,,,,,,205,75.0031,0.041452
,,,,,,,,,226,132.942,0.0698018
,,,,,,,,,72,79.818,0.0639368
,,,,,,,,,85,52.2904,0.0375258
,,,,,,,,,99,142.29,0.0198231
,,,,,,,,,114,73.6079,0.0594946
,,,,,,,,,130,118.884,0.0514938
,,,,,,,,,147,110.287,0.0697734
,,,,,,,,,165,93.7026,0.0340442
,,,,,,,,,184,150.019,0.0136987
,,,,,,,,,204,79.5036,0.0172356
,,,,,,,,,225,140.918,0.0375183
,,,,,,,,,247,110.405,0.0593274
,,,,,,,,,98,127.386,0.0497851
,,,,,,,,,113,103.99,0.0227873
,,,,,,,,,129,140.486,0.0975966
,,,,,,,,,146,40.0896,0.0777737
,,,,,,,,,164,141.171,0.128698
,,,,,,,,,183,46.8921,0.0438373
,,,,,,,,,203,129.946,0.0150517
,,,,,,,,,224,87.1503,0.0194335
,,,,,,,,,246,83.6754,0.049772
,,,,,,,,,269,132.873,0.0971475
,,,,,,,,,128,102.721,0.0182176
,,,,,,,,,145,22.0253,0.0470496
,,,,,,,,,163,165.406,0.0419011
,,,,,,,,,182,59.849,0.0532538
,,,,,,,,,202,140.624,0.0295687
,,,,,,,,,223,98.7335,0.0129123
,,,,,,,,,245,102.052,0.0160089
,,,,,,,,,268,146.948,0.0321548
,,,,,,,,,292,88.4921,0.046945
,,,,,,,,,162,81.4636,0.0221966
,,,,,,,,,181,78.0449,0.0209804
,,,,,,,,,201,45.1348,0.0234875
,,,,,,,,,222,116.565,0.0173559
,,,,,,,,,244,39.7017,0.00987721
,,,,,,,,,267,137.614,0.0115924
,,,,,,,,,291,76.1404,0.0182158
,,,,,,,,,316,94.4823,0.0221733
,,,,,,,,,200,157.592,0.0712981
,,,,,,,,,221,37.8267,0.111883
,,,,,,,,,243,160.24,0.0417024
,,,,,,,,,266,78.7106,0.0147917
,,,,,,,,,290,115.385,0.0190023
,,,,,,,,,315,134.622,0.0470379
,,,,,,,,,341,84.421,0.0872491
,,,,,,,,,242,123.112,0.086584
,,,,,,,,,265,42.1671,0.0376067
,,,,,,,,,289,91.0611,0.0142416
,,,,,,,,,314,86.1668,0.0181038
,,,,,,,,,340,47.6124,0.0418918
,,,,,,,,,367,106.029,0.0710581
,,,,,,,,,288,155.296,0.0465046
,,,,,,,,,313,46.0071,0.0153541
,,,,,,,,,339,131.004,0.0199405
,,,,,,,,,366,104.786,0.0532388
,,,,,,,,,394,80.2586,0.111293
,,,,,,,,,338,109.45,0.0124734
,,,,,,,,,365,46.0339,0.0153396
,,,,,,,,,393,50.5535,0.0295641
,,,,,,,,,422,86.0384,0.0416202
,,,,,,,,,392,102.706,0.00918978
,,,,,,,,,421,58.9243,0.0129114
,,,,,,,,,451,54.7886,0.0147814
,,,,,,,,,450,64.4405,0.0160075
,,,,,,,,,481,52.5034,0.0189852
,,,,,,,,,512,59.0322,0.0469334
