Q	U	V
{$V$}	{[mm$^3$]}	0.0116429
{$d_v$}	{[mm]}	0.281204
{$S_c$}	{[mm$^2$]}	0.546293
{$S_o$}	{[mm$^2$]}	0.343756
{$S_l/S_o$}	[]	0.589188
{$\Psi$}	[]	0.454743
{$\eta$}	[]	0.488708
{med($\theta_e$)}	{[$^\circ$]}	59.3858
{$\Upsilon$}	[]	14
{$\Xi$}	[]	15
