facetNormals:0,facetNormals:1,facetNormals:2,FacetCenters:0,FacetCenters:1,FacetCenters:2,FacetIds,relFacetSize,absFacetSize,cellPairingIds,interplanarAngles,angleWeights
-0.176531,-0.25104,-0.930285,4.18657,5.1716,9.46855,1,0.0111689,0.00255226,8,36.9587,0.0159664
0.128304,0.287618,-0.920863,4.18848,5.18893,9.45011,2,0.0279887,0.00639583,13,35.0495,0.017057
-0.697237,-0.245131,-0.650023,4.10777,5.21005,9.50154,3,0.0360754,0.00824376,19,77.7101,0.0177754
-0.216381,0.843639,-0.401564,4.15678,5.27181,9.44528,4,0.043515,0.00994379,26,44.7188,0.019336
-0.325282,-0.793633,-0.448226,4.17824,5.14796,9.44042,5,0.0719425,0.0164399,34,78.5652,0.0198597
0.85945,-0.0222729,-0.350935,4.24555,5.18258,9.49201,6,0.0895055,0.0204533,43,64.2728,0.0199685
-0.839206,-0.454135,-0.160493,4.12311,5.16969,9.53839,7,0.0941299,0.02151,53,92.9141,0.0152688
0.877007,-0.44184,0.00538222,4.25198,5.1667,9.53542,8,0.0241244,0.00551277,64,101.24,0.0178706
0.647376,0.696954,-0.114278,4.22316,5.21627,9.58502,9,0.0446802,0.0102101,76,74.767,0.0155216
0.292004,-0.939032,-0.0748741,4.21568,5.11443,9.48129,10,0.0254332,0.00581184,89,81.4077,0.0191992
-0.920382,0.174264,-0.0197766,4.10565,5.24124,9.51987,11,0.0683216,0.0156125,103,94.1028,0.0158598
0.61924,-0.742455,0.156634,4.22192,5.13538,9.55767,12,0.0273439,0.00624848,118,121.284,0.0094446
0.271468,0.92162,0.241483,4.1656,5.27984,9.65674,13,0.0081815,0.00186959,134,87.841,0.00950767
-0.0254874,-0.961156,0.225033,4.17466,5.14411,9.53981,14,0.00827662,0.00189133,151,124.843,0.0168147
0.88016,0.239303,0.357869,4.2355,5.21076,9.6437,15,0.0340029,0.00777015,169,102.835,0.0190654
-0.369614,-0.733337,0.491953,4.1478,5.1572,9.59072,16,0.0650708,0.0148696,188,119.036,0.0167674
-0.745801,0.0773449,0.616889,4.11885,5.24669,9.64782,17,0.0336194,0.00768252,208,136.212,0.0145727
-0.0226226,0.818537,0.52133,4.14598,5.28595,9.64753,18,0.0209606,0.00478979,229,122.663,0.0147421
-0.601974,0.575616,0.515595,4.11782,5.26983,9.66358,19,0.0216771,0.00495354,251,173.552,0.0172321
0.17111,0.133688,0.888719,4.19275,5.22362,9.66459,20,0.0376958,0.00861404,18,62.7487,0.0315217
,,,,,,,,,25,51.2154,0.0340662
,,,,,,,,,33,81.2821,0.0402993
,,,,,,,,,42,61.8027,0.0426429
,,,,,,,,,52,95.5147,0.0431478
,,,,,,,,,63,91.1699,0.0259133
,,,,,,,,,75,65.3593,0.0344175
,,,,,,,,,88,99.8179,0.0266498
,,,,,,,,,102,93.1279,0.0397099
,,,,,,,,,117,106.978,0.0276626
,,,,,,,,,133,85.3875,0.0126618
,,,,,,,,,150,120.443,0.0127754
,,,,,,,,,168,98.9161,0.0307041
,,,,,,,,,187,139.777,0.0391416
,,,,,,,,,207,132.756,0.0305468
,,,,,,,,,228,105.191,0.0239701
,,,,,,,,,250,113.915,0.0244319
,,,,,,,,,273,148.355,0.032125
,,,,,,,,,32,77.4514,0.0394475
,,,,,,,,,41,41.5636,0.0480542
,,,,,,,,,51,113.583,0.0514242
,,,,,,,,,62,32.7734,0.0521604
,,,,,,,,,74,121.614,0.0289136
,,,,,,,,,87,125.525,0.0399194
,,,,,,,,,101,85.5533,0.0298336
,,,,,,,,,116,48.4336,0.0472184
,,,,,,,,,132,111.39,0.0311086
,,,,,,,,,149,125.93,0.0133381
,,,,,,,,,167,83.6734,0.0134642
,,,,,,,,,186,159.783,0.0350085
,,,,,,,,,206,82.8246,0.0464171
,,,,,,,,,227,83.9907,0.0348042
,,,,,,,,,249,123.242,0.0265152
,,,,,,,,,272,93.3614,0.0270815
,,,,,,,,,296,144.139,0.0368678
,,,,,,,,,50,116.847,0.0542291
,,,,,,,,,61,94.1104,0.0585598
,,,,,,,,,73,98.4952,0.0595164
,,,,,,,,,86,126.838,0.0310403
,,,,,,,,,100,57.4933,0.0440899
,,,,,,,,,115,150.758,0.0321031
,,,,,,,,,131,66.7917,0.0531671
,,,,,,,,,148,151.217,0.0335842
,,,,,,,,,166,49.1211,0.0137734
,,,,,,,,,185,161.049,0.0139079
,,,,,,,,,205,98.0919,0.0381753
,,,,,,,,,226,143.314,0.0521533
,,,,,,,,,248,91.2979,0.0379324
,,,,,,,,,271,58.5245,0.0282928
,,,,,,,,,295,64.2041,0.0289385
,,,,,,,,,320,108.687,0.0403969
,,,,,,,,,72,96.6833,0.0797687
,,,,,,,,,85,41.1294,0.0815541
,,,,,,,,,99,86.2008,0.0361325
,,,,,,,,,114,140.214,0.0551249
,,,,,,,,,130,44.2366,0.0375808
,,,,,,,,,147,79.1974,0.0700853
,,,,,,,,,165,70.4225,0.0396266
,,,,,,,,,184,165.45,0.0146922
,,,,,,,,,204,45.4656,0.0148454
,,,,,,,,,225,132.174,0.0461795
,,,,,,,,,247,58.6695,0.0683343
,,,,,,,,,270,95.8205,0.0458246
,,,,,,,,,294,158.814,0.032463
,,,,,,,,,319,121.273,0.0333158
,,,,,,,,,345,129.244,0.0494705
,,,,,,,,,98,136.783,0.0917595
,,,,,,,,,113,33.3566,0.0380053
,,,,,,,,,129,49.2306,0.0596058
,,,,,,,,,146,71.0005,0.0396108
,,,,,,,,,164,154.911,0.0774919
,,,,,,,,,183,57.1174,0.0418904
,,,,,,,,,203,81.9992,0.0149926
,,,,,,,,,224,94.9718,0.0151521
,,,,,,,,,246,46.5664,0.0492832
,,,,,,,,,269,122.221,0.0753569
,,,,,,,,,293,162.35,0.0488792
,,,,,,,,,318,104.167,0.0339667
,,,,,,,,,344,141.424,0.0349015
,,,,,,,,,371,101.392,0.0530495
,,,,,,,,,128,124.353,0.0384058
,,,,,,,,,145,155.187,0.0605971
,,,,,,,,,163,78.3064,0.0400462
,,,,,,,,,182,39.8094,0.0791757
,,,,,,,,,202,102.656,0.0423775
,,,,,,,,,223,135.621,0.0150545
,,,,,,,,,245,63.8058,0.0152154
,,,,,,,,,268,162.613,0.049959
,,,,,,,,,292,52.4708,0.0769483
,,,,,,,,,317,58.4384,0.0495438
,,,,,,,,,343,117.686,0.0342863
,,,,,,,,,370,80.2188,0.0352391
,,,,,,,,,398,113.074,0.0538333
,,,,,,,,,162,74.0089,0.0313317
,,,,,,,,,181,46.1805,0.0247615
,,,,,,,,,201,163.959,0.035658
,,,,,,,,,222,24.9616,0.0256335
,,,,,,,,,244,99.9339,0.0122191
,,,,,,,,,267,65.4096,0.0123248
,,,,,,,,,291,46.0251,0.0282243
,,,,,,,,,316,89.8469,0.0351991
,,,,,,,,,342,135.916,0.0280913
,,,,,,,,,369,113.407,0.0224315
,,,,,,,,,397,144.126,0.0228354
,,,,,,,,,426,83.8802,0.0294204
,,,,,,,,,200,118.916,0.0324149
,,,,,,,,,221,121.732,0.0540279
,,,,,,,,,243,98.2396,0.0339256
,,,,,,,,,266,33.6071,0.0138305
,,,,,,,,,290,138.824,0.0139661
,,,,,,,,,315,42.1754,0.0386171
,,,,,,,,,341,151.577,0.0529813
,,,,,,,,,368,122.47,0.0383686
,,,,,,,,,396,57.7508,0.0285348
,,,,,,,,,425,92.8979,0.0291916
,,,,,,,,,455,83.2918,0.0408919
,,,,,,,,,242,117.797,0.0370677
,,,,,,,,,265,26.2534,0.026354
,,,,,,,,,289,145.403,0.0123804
,,,,,,,,,314,25.6018,0.012489
,,,,,,,,,340,89.6738,0.0291002
,,,,,,,,,367,54.8263,0.036572
,,,,,,,,,395,110.579,0.0289589
,,,,,,,,,424,148.271,0.0229813
,,,,,,,,,454,141.39,0.0234054
,,,,,,,,,485,99.0623,0.0303735
,,,,,,,,,288,139.948,0.0390565
,,,,,,,,,313,95.814,0.0146131
,,,,,,,,,339,99.2354,0.0147646
,,,,,,,,,366,147.641,0.0454072
,,,,,,,,,394,76.9412,0.0666566
,,,,,,,,,423,40.8925,0.045064
,,,,,,,,,453,80.3057,0.0320794
,,,,,,,,,484,45.4241,0.0329119
,,,,,,,,,516,100.198,0.0485852
,,,,,,,,,338,119.538,0.0125946
,,,,,,,,,365,40.7128,0.012707
,,,,,,,,,393,63.8177,0.030312
,,,,,,,,,422,65.2419,0.0385067
,,,,,,,,,452,116.387,0.0301587
,,,,,,,,,483,124.616,0.0237305
,,,,,,,,,515,138.575,0.024183
,,,,,,,,,548,80.6284,0.0316961
,,,,,,,,,392,148.986,0.00822878
,,,,,,,,,421,55.7774,0.0131895
,,,,,,,,,451,133.884,0.0145354
,,,,,,,,,482,88.9403,0.0131603
,,,,,,,,,514,24.6334,0.0117692
,,,,,,,,,547,59.5636,0.0118794
,,,,,,,,,581,64.9129,0.0134449
,,,,,,,,,450,100.234,0.0133128
,,,,,,,,,481,29.2251,0.0146854
,,,,,,,,,513,85.0046,0.0132831
,,,,,,,,,546,134.248,0.0118673
,,,,,,,,,580,115.859,0.0119794
,,,,,,,,,615,85.7382,0.0135731
,,,,,,,,,512,110.257,0.0446657
,,,,,,,,,545,116.007,0.0338101
,,,,,,,,,579,67.594,0.0259343
,,,,,,,,,614,102.49,0.0264758
,,,,,,,,,650,56.0471,0.0357543
,,,,,,,,,578,55.8025,0.0443335
,,,,,,,,,613,111.159,0.0317075
,,,,,,,,,649,86.6972,0.0325206
,,,,,,,,,686,71.6358,0.0477372
,,,,,,,,,648,64.768,0.025822
,,,,,,,,,685,31.4328,0.0263587
,,,,,,,,,723,60.9768,0.0355411
,,,,,,,,,722,37.5801,0.0213128
,,,,,,,,,761,50.1658,0.0269408
,,,,,,,,,800,61.1681,0.0275256
