facetNormals:0,facetNormals:1,facetNormals:2,FacetCenters:0,FacetCenters:1,FacetCenters:2,FacetIds,relFacetSize,absFacetSize,cellPairingIds,interplanarAngles,angleWeights
0.0484646,0.0558072,-0.9756,5.89508,5.97058,5.72207,1,0.0285928,0.00817792,8,34.0861,0.0272151
-0.21226,0.534809,-0.795162,5.84312,5.92051,5.68793,2,0.025964,0.00742606,13,50.4259,0.043242
0.737857,-0.0721537,-0.561758,5.97582,5.93306,5.76865,3,0.0886727,0.0253616,19,52.8851,0.0473008
0.327067,0.720263,-0.513145,5.92627,6.00284,5.79109,4,0.136823,0.0391331,26,74.3029,0.0338466
0.792345,0.529599,-0.194246,5.9872,5.9691,5.83937,5,0.0414659,0.0118598,34,86.2097,0.0120341
-0.403364,-0.886738,-0.135969,6.01341,6.12589,5.89681,6,0.00762075,0.00217964,43,81.4091,0.0466685
-0.729365,0.569798,-0.143959,5.82739,5.97977,5.78697,7,0.126879,0.036289,53,106.904,0.0331636
0.653572,-0.653268,0.276361,5.98825,5.9247,5.86814,8,0.039474,0.0112901,64,114.522,0.0245737
-0.846161,-0.3645,0.34689,5.85648,5.97329,5.87655,9,0.0215452,0.00616222,76,131.186,0.0323263
-0.447746,-0.635402,0.583127,5.91541,5.9653,5.909,10,0.0371813,0.0106344,89,136.374,0.0263707
0.6052,-0.253007,0.72574,5.99004,5.93728,5.90759,11,0.0244691,0.00699851,103,161.19,0.0358321
-0.181441,-0.326523,0.878796,5.91516,5.92587,5.92969,12,0.04798,0.0137229,118,133.25,0.0447155
-0.694617,0.174279,0.631609,5.84407,5.95268,5.87984,13,0.102529,0.0293247,134,144.681,0.035467
0.372489,0.322636,0.819312,5.9482,5.98051,5.9312,14,0.0466929,0.0133548,18,74.0107,0.0401669
,,,,,,,,,25,38.5463,0.0436456
,,,,,,,,,33,73.6018,0.031933
,,,,,,,,,42,106.891,0.011783
,,,,,,,,,52,51.3641,0.0431068
,,,,,,,,,63,138.393,0.0313244
,,,,,,,,,75,107.538,0.0235491
,,,,,,,,,88,137.971,0.0305763
,,,,,,,,,102,151.132,0.0251944
,,,,,,,,,117,152.975,0.0336945
,,,,,,,,,133,106.207,0.0414352
,,,,,,,,,150,126.486,0.0333715
,,,,,,,,,32,57.0045,0.107607
,,,,,,,,,41,43.5654,0.0565073
,,,,,,,,,51,99.8974,0.0140353
,,,,,,,,,62,124.893,0.10439
,,,,,,,,,74,65.3537,0.0546291
,,,,,,,,,87,149.984,0.0346672
,,,,,,,,,101,132.626,0.0523935
,,,,,,,,,116,86.4012,0.0383544
,,,,,,,,,132,132.844,0.0622676
,,,,,,,,,149,172.169,0.0950989
,,,,,,,,,167,103.572,0.0611734
,,,,,,,,,50,36.1775,0.0636437
,,,,,,,,,61,139.083,0.0144374
,,,,,,,,,73,73.8459,0.131663
,,,,,,,,,86,115.993,0.061271
,,,,,,,,,100,140.599,0.0372282
,,,,,,,,,115,170.368,0.0584728
,,,,,,,,,131,112.75,0.041514
,,,,,,,,,148,145.89,0.0710461
,,,,,,,,,166,118.222,0.117219
,,,,,,,,,185,94.2121,0.0696252
,,,,,,,,,72,142.876,0.0128752
,,,,,,,,,85,105.808,0.0625044
,,,,,,,,,99,82.7616,0.0404454
,,,,,,,,,114,166.449,0.0283566
,,,,,,,,,130,148.348,0.0392069
,,,,,,,,,147,77.5848,0.0307768
,,,,,,,,,165,121.653,0.0444857
,,,,,,,,,184,128.706,0.0590501
,,,,,,,,,204,70.7323,0.0439244
,,,,,,,,,98,101.996,0.0143779
,,,,,,,,,113,72.9559,0.0127752
,,,,,,,,,129,50.3909,0.0112591
,,,,,,,,,146,45.9335,0.012649
,,,,,,,,,164,97.0706,0.0116219
,,,,,,,,,183,74.991,0.0131525
,,,,,,,,,203,87.5736,0.014187
,,,,,,,,,224,125.622,0.013103
,,,,,,,,,128,169.638,0.0602144
,,,,,,,,,145,67.0523,0.0368354
,,,,,,,,,163,97.5396,0.0575096
,,,,,,,,,182,138.858,0.0410262
,,,,,,,,,202,101.625,0.0696292
,,,,,,,,,223,54.8441,0.113412
,,,,,,,,,245,103.285,0.0682639
,,,,,,,,,162,103.337,0.0278757
,,,,,,,,,181,72.3863,0.0382934
,,,,,,,,,201,36.201,0.0302111
,,,,,,,,,222,68.4976,0.0433134
,,,,,,,,,244,115.278,0.0570021
,,,,,,,,,267,73.6816,0.0427811
,,,,,,,,,200,31.8325,0.0272817
,,,,,,,,,221,100.054,0.0229143
,,,,,,,,,243,52.1058,0.0297371
,,,,,,,,,266,37.7457,0.0356079
,,,,,,,,,290,99.0821,0.0294852
,,,,,,,,,242,70.7767,0.0295146
,,,,,,,,,265,30.2971,0.041896
,,,,,,,,,289,52.2095,0.0545724
,,,,,,,,,314,83.45,0.0413978
,,,,,,,,,288,49.1835,0.0324098
,,,,,,,,,313,90.3737,0.0395092
,,,,,,,,,339,37.8623,0.0321108
,,,,,,,,,338,46.7995,0.0653695
,,,,,,,,,365,53.1854,0.0473277
,,,,,,,,,392,69.8177,0.0641646
