"cellPairingIds","interplanarAngles","angleWeights"
8,40.4984,0.0371818
26,85.3214,0.0644486
43,58.1339,0.0532363
64,110.607,0.0530446
33,50.4431,0.0287632
75,127.128,0.026245
85,78.7795,0.0375152
114,147.566,0.0374199
130,67.8188,0.0451262
165,135.114,0.0257956
145,133.654,0.0333425
163,59.5245,0.0393267
202,133.15,0.0237901
243,26.0853,0.0237518
265,99.2499,0.0266393
