Q	U	V
{$V$}	{[mm$^3$]}	0.0100446
{$d_v$}	{[mm]}	0.267698
{$S_c$}	{[mm$^2$]}	0.350015
{$S_o$}	{[mm$^2$]}	0.248135
{$S_l/S_o$}	[]	0.410583
{$\Psi$}	[]	0.64321
{$\eta$}	[]	0.677857
{med($\theta_e$)}	{[$^\circ$]}	64.0161
{$\Upsilon$}	[]	15
{$\Xi$}	[]	12
