facetNormals:0,facetNormals:1,facetNormals:2,FacetCenters:0,FacetCenters:1,FacetCenters:2,FacetIds,relFacetSize,absFacetSize,cellPairingIds,interplanarAngles,angleWeights
0.242454,-0.285003,-0.904569,5.5866,5.81776,7.4958,1,0.0117707,0.00101793,8,34.9793,0.0100025
0.524466,0.22915,-0.813813,5.57129,5.83825,7.44428,2,0.00869613,0.000752038,13,60.468,0.0193796
0.546259,0.584719,-0.558253,5.6041,5.8626,7.46902,3,0.054809,0.00473986,19,81.3256,0.0163027
-0.305989,0.797243,-0.494238,5.53573,5.87015,7.49134,4,0.0265091,0.00229249,26,79.0207,0.0179938
0.16623,0.865235,-0.430132,5.57159,5.87195,7.4865,5,0.038178,0.00330161,34,101.76,0.0195712
-0.820127,0.455657,-0.153699,5.51227,5.84058,7.52963,6,0.0580223,0.00501775,43,92.1576,0.0185545
-0.910523,-0.172305,-0.151505,5.5002,5.82848,7.54785,7,0.0437936,0.00378725,53,57.6888,0.0222712
0.894651,-0.0954662,-0.274201,5.61948,5.78621,7.49682,8,0.206374,0.0178471,64,60.1905,0.0112641
0.391505,-0.898652,-0.144997,5.48185,5.79125,7.63785,9,0.0107993,0.000933916,76,124.176,0.0162383
-0.302513,0.90727,0.231195,5.56007,5.86924,7.54294,10,0.0261715,0.0022633,89,106.061,0.0194488
0.639468,0.697983,0.244174,5.62235,5.86657,7.55299,11,0.0559355,0.00483728,103,104.01,0.0159884
0.855393,0.305774,0.392141,5.63516,5.82863,7.58172,12,0.0249163,0.00215475,118,96.6853,0.0204924
0.567926,-0.644173,0.479069,5.6056,5.7532,7.60313,13,0.0791095,0.00684136,134,151.702,0.0149618
-0.521134,0.556727,0.623496,5.49524,5.78914,7.62365,14,0.0205266,0.00177513,151,148.162,0.0208569
0.0375301,0.684165,0.685685,5.57598,5.83794,7.60362,15,0.0914497,0.00790853,169,133.625,0.0175057
0.521218,0.25549,0.792884,5.59984,5.82111,7.61579,16,0.0341386,0.00295229,188,126.365,0.0177996
0.436475,-0.279676,0.836618,5.57119,5.79655,7.63316,17,0.0364892,0.00315557,208,153.418,0.0144596
-0.0202136,-0.101131,0.982986,5.51534,5.78092,7.633,18,0.0187407,0.00162069,18,25.6859,0.0150106
,,,,,,,,,25,64.3826,0.0130962
,,,,,,,,,33,49.3467,0.0141656
,,,,,,,,,42,102.246,0.0151253
,,,,,,,,,52,114.926,0.0145108
,,,,,,,,,63,44.2355,0.016689
,,,,,,,,,75,83.1604,0.00963426
,,,,,,,,,88,98.1576,0.0130546
,,,,,,,,,102,72.2447,0.0150522
,,,,,,,,,117,78.3036,0.0128926
,,,,,,,,,133,104.177,0.0156698
,,,,,,,,,150,131.795,0.0122167
,,,,,,,,,168,113.305,0.015882
,,,,,,,,,187,108.694,0.0138614
,,,,,,,,,207,121.802,0.014045
,,,,,,,,,228,147.979,0.0118798
,,,,,,,,,32,53.3286,0.0357346
,,,,,,,,,41,28.9769,0.0450062
,,,,,,,,,51,95.926,0.0563699
,,,,,,,,,62,124.094,0.048686
,,,,,,,,,74,50.3192,0.0866148
,,,,,,,,,87,103.802,0.0180434
,,,,,,,,,101,75.7575,0.0354267
,,,,,,,,,116,49.3683,0.0553665
,,,,,,,,,132,63.7383,0.0342586
,,,,,,,,,149,110.364,0.0647545
,,,,,,,,,167,108.642,0.0298675
,,,,,,,,,186,87.7119,0.0685398
,,,,,,,,,206,90.5092,0.042072
,,,,,,,,,227,114.103,0.0438111
,,,,,,,,,249,129.927,0.027931
,,,,,,,,,50,28.3275,0.031291
,,,,,,,,,61,42.6269,0.0363916
,,,,,,,,,73,76.5099,0.0330265
,,,,,,,,,86,103.354,0.0469831
,,,,,,,,,100,141.447,0.0153466
,,,,,,,,,115,43.7204,0.0263392
,,,,,,,,,131,75.5857,0.0359708
,,,,,,,,,148,102.529,0.025688
,,,,,,,,,166,162.261,0.0397112
,,,,,,,,,185,72.3206,0.0231374
,,,,,,,,,205,78.2315,0.0411033
,,,,,,,,,226,111.014,0.0298439
,,,,,,,,,248,142.462,0.0307086
,,,,,,,,,271,125.066,0.021958
,,,,,,,,,72,69.6578,0.0460534
,,,,,,,,,85,104.807,0.0407934
,,,,,,,,,99,78.4871,0.0644357
,,,,,,,,,114,132.002,0.0168362
,,,,,,,,,130,48.8124,0.0310547
,,,,,,,,,147,50.8467,0.0453815
,,,,,,,,,165,75.7928,0.0301534
,,,,,,,,,184,133.94,0.0515015
,,,,,,,,,204,82.4504,0.0266986
,,,,,,,,,225,71.3919,0.0538676
,,,,,,,,,247,91.9834,0.0360455
,,,,,,,,,270,123.265,0.0373145
,,,,,,,,,294,122.011,0.0251405
,,,,,,,,,98,39.2283,0.0499137
,,,,,,,,,113,145.289,0.0905784
,,,,,,,,,129,138.75,0.0182094
,,,,,,,,,146,47.9963,0.0360723
,,,,,,,,,164,105.216,0.0569598
,,,,,,,,,183,131.433,0.034862
,,,,,,,,,203,152.99,0.0669446
,,,,,,,,,224,51.3221,0.0303251
,,,,,,,,,246,79.0171,0.0709982
,,,,,,,,,269,117.606,0.0429857
,,,,,,,,,293,131.009,0.0448028
,,,,,,,,,318,101.08,0.0283308
,,,,,,,,,128,148.945,0.0722545
,,,,,,,,,145,101.134,0.017326
,,,,,,,,,163,84.7778,0.0327633
,,,,,,,,,182,143.668,0.0491254
,,,,,,,,,202,163.533,0.0317618
,,,,,,,,,223,121.227,0.0563776
,,,,,,,,,245,72.1109,0.0279519
,,,,,,,,,268,106.331,0.0592253
,,,,,,,,,292,133.808,0.038368
,,,,,,,,,317,121.001,0.0398091
,,,,,,,,,343,96.9996,0.0262487
,,,,,,,,,162,59.302,0.0205245
,,,,,,,,,181,117.035,0.0464522
,,,,,,,,,201,61.5174,0.0880154
,,,,,,,,,222,47.5143,0.0444642
,,,,,,,,,244,61.7191,0.114375
,,,,,,,,,267,138.169,0.0373394
,,,,,,,,,291,103.947,0.126738
,,,,,,,,,316,75.942,0.0585858
,,,,,,,,,342,78.2959,0.0620137
,,,,,,,,,369,107.397,0.0343611
,,,,,,,,,200,172.8,0.0152895
,,,,,,,,,221,115.189,0.0181034
,,,,,,,,,243,89.8102,0.0150678
,,,,,,,,,266,41.3242,0.0190043
,,,,,,,,,290,144.511,0.0141527
,,,,,,,,,315,136.744,0.0193174
,,,,,,,,,341,98.2965,0.0164081
,,,,,,,,,368,72.0285,0.0166661
,,,,,,,,,396,93.4867,0.0137025
,,,,,,,,,242,58.9407,0.0356588
,,,,,,,,,265,83.5529,0.0255285
,,,,,,,,,289,131.846,0.0393312
,,,,,,,,,314,33.6381,0.0230079
,,,,,,,,,340,36.3787,0.0406964
,,,,,,,,,367,74.5583,0.0296288
,,,,,,,,,395,101.457,0.0304809
,,,,,,,,,424,81.6263,0.0218414
,,,,,,,,,288,27.7315,0.0344756
,,,,,,,,,313,88.1805,0.0655342
,,,,,,,,,339,77.5515,0.0300323
,,,,,,,,,366,45.0966,0.0694138
,,,,,,,,,394,42.7673,0.0423997
,,,,,,,,,423,72.5716,0.0441666
,,,,,,,,,453,80.6786,0.0280751
,,,,,,,,,338,60.6637,0.0378967
,,,,,,,,,365,91.8253,0.0225094
,,,,,,,,,393,57.8635,0.0391624
,,,,,,,,,422,30.8284,0.0288073
,,,,,,,,,452,50.7665,0.0296122
,,,,,,,,,483,69.8264,0.0213917
,,,,,,,,,392,111.557,0.0325956
,,,,,,,,,421,95.473,0.0848332
,,,,,,,,,451,58.0549,0.047695
,,,,,,,,,482,31.0862,0.0499425
,,,,,,,,,514,57.3348,0.0303028
,,,,,,,,,450,34.2931,0.0335277
,,,,,,,,,481,67.8481,0.0256379
,,,,,,,,,513,81.7887,0.0262734
,,,,,,,,,546,54.3727,0.019593
,,,,,,,,,512,39.2134,0.0497174
,,,,,,,,,545,65.2981,0.0521644
,,,,,,,,,579,50.9137,0.0311067
,,,,,,,,,578,32.0882,0.0352748
,,,,,,,,,613,40.0908,0.0241978
,,,,,,,,,648,30.0704,0.0247631
