facetNormals:0,facetNormals:1,facetNormals:2,FacetCenters:0,FacetCenters:1,FacetCenters:2,FacetIds,relFacetSize,absFacetSize,cellPairingIds,interplanarAngles,angleWeights
0.338142,-0.0461552,-0.922994,3.76918,4.90649,6.43003,1,0.0175194,0.00326873,8,34.4881,0.0253066
-0.147208,-0.367065,-0.897296,3.72959,4.8465,6.44282,2,0.0455553,0.0084996,13,62.3223,0.0260407
-0.633636,-0.198,-0.699997,3.70281,4.87984,6.45431,3,0.0507017,0.00945981,19,66.0337,0.0260717
-0.576424,0.393878,-0.64147,3.68542,4.94698,6.46154,4,0.0509375,0.0095038,26,43.4655,0.0254607
0.25738,0.64059,-0.696713,3.77414,4.96705,6.44888,5,0.0465701,0.00868895,34,68.688,0.0167558
0.208572,-0.925171,-0.258197,3.75793,4.80311,6.48879,6,0.0160559,0.00299567,43,84.3215,0.0298165
0.437617,0.843116,0.0179334,3.77757,5.00094,6.55688,7,0.100026,0.0186626,53,91.4594,0.0293479
-0.356432,0.876368,-0.148399,3.6799,5.00199,6.54296,8,0.0903469,0.0168567,64,138.075,0.0300969
-0.739156,-0.366201,0.521783,3.70396,4.86645,6.57109,9,0.106697,0.0199072,76,127.178,0.0222811
0.466028,0.356064,0.78345,3.81315,4.93503,6.62752,10,0.0305973,0.00570878,89,143.15,0.0281418
-0.0338497,-0.486515,0.842313,3.7785,4.85638,6.61094,11,0.0714837,0.0133373,18,32.9242,0.0479909
,,,,,,,,,25,56.2977,0.0480963
,,,,,,,,,33,68.5231,0.0460571
,,,,,,,,,42,55.8845,0.0237435
,,,,,,,,,52,114.746,0.0626002
,,,,,,,,,63,98.3307,0.0605697
,,,,,,,,,75,103.594,0.0638493
,,,,,,,,,88,160.089,0.0366073
,,,,,,,,,102,126.839,0.0556474
,,,,,,,,,32,36.3912,0.0508193
,,,,,,,,,41,77.9353,0.0485482
,,,,,,,,,51,75.8528,0.0243886
,,,,,,,,,62,119.891,0.0672934
,,,,,,,,,74,80.2657,0.0649527
,,,,,,,,,87,79.2513,0.068739
,,,,,,,,,101,165.536,0.0381637
,,,,,,,,,116,120.166,0.0593254
,,,,,,,,,50,53.6729,0.048656
,,,,,,,,,61,110.018,0.0244158
,,,,,,,,,73,85.6497,0.0675007
,,,,,,,,,86,44.6581,0.0651458
,,,,,,,,,100,93.2758,0.0689553
,,,,,,,,,115,132.844,0.0382303
,,,,,,,,,131,140.538,0.0594864
,,,,,,,,,72,111.868,0.0238791
,,,,,,,,,85,46.6038,0.0635518
,,,,,,,,,99,52.4039,0.0614601
,,,,,,,,,114,145.435,0.0648395
,,,,,,,,,130,101.892,0.0369306
,,,,,,,,,147,161.864,0.0563981
,,,,,,,,,98,137.944,0.0276703
,,,,,,,,,113,154.111,0.0272662
,,,,,,,,,129,87.0181,0.0279116
,,,,,,,,,146,116.853,0.0210604
,,,,,,,,,164,76.3623,0.0262221
,,,,,,,,,128,50.3774,0.0949404
,,,,,,,,,145,132.195,0.103254
,,,,,,,,,163,56.1298,0.0468604
,,,,,,,,,182,116.312,0.0833799
,,,,,,,,,162,98.2979,0.0978434
,,,,,,,,,181,88.1857,0.0457132
,,,,,,,,,201,125.352,0.0798159
,,,,,,,,,200,93.9659,0.0475568
,,,,,,,,,221,47.4293,0.0856107
,,,,,,,,,242,60.3717,0.0428525
