Q	U	V
{$V$}	{[mm$^3$]}	0.00293774
{$d_v$}	{[mm]}	0.177694
{$S_c$}	{[mm$^2$]}	0.1325
{$S_o$}	{[mm$^2$]}	0.0854402
{$S_l/S_o$}	[]	0.550792
{$\Psi$}	[]	0.748647
{$\eta$}	[]	0.764030
{med($\theta_e$)}	{[$^\circ$]}	54.70425
{$\Upsilon$}	[]	14
{$\Xi$}	[]	11
