"cellPairingIds","interplanarAngles","angleWeights"
8,99.0396,0.0348253
19,42.6228,0.0340248
34,70.858,0.121444
18,87.7068,0.0232588
25,130.623,0.0204713
42,109.724,0.0361105
52,83.2972,0.0325468
75,71.7043,0.0227556
88,69.5992,0.0331414
32,59.6836,0.022899
41,30.6006,0.036545
62,48.4097,0.0391449
74,57.5015,0.0341896
50,35.6528,0.0301043
61,88.0803,0.0352506
86,43.2978,0.0284875
131,52.4078,0.0340992
99,30.169,0.0532012
146,59.8684,0.103164
164,66.9699,0.122396
128,65.464,0.0588957
145,32.2671,0.0377402
182,99.1149,0.089267
201,40.4022,0.0670919
200,78.882,0.0385419
221,108.707,0.0409456
242,106.505,0.0938862
