Q	U	V
{$V$}	{[mm$^3$]}	0.00250907
{$d_v$}	{[mm]}	0.168592
{$S_c$}	{[mm$^2$]}	0.135282
{$S_o$}	{[mm$^2$]}	0.084512
{$S_l/S_o$}	[]	0.600743
{$\Psi$}	[]	0.660064
{$\eta$}	[]	0.670904
{med($\theta_e$)}	{[$^\circ$]}	
{$\Upsilon$}	[]	17
{$\Xi$}	[]	5
