"cellPairingIds","interplanarAngles","angleWeights"
8,39.1718,0.0236557
13,30.7369,0.0176488
19,52.6337,0.0265615
26,61.3252,0.0312401
34,60.4777,0.0335462
18,63.7605,0.0207785
25,33.0052,0.0343477
117,74.6947,0.0418861
150,114.811,0.0292858
51,45.4643,0.02804
101,66.5404,0.0203529
167,110.533,0.020604
50,51.4344,0.0530472
73,35.3309,0.0206922
148,70.7642,0.0519489
72,60.3903,0.0908072
85,49.7454,0.0234252
147,50.4681,0.0708218
113,34.7165,0.0593451
129,42.6175,0.0369186
146,60.7653,0.0448802
164,67.3313,0.0838963
203,71.7979,0.0416607
293,109.467,0.0490619
182,69.5934,0.0229378
202,59.2894,0.0232085
162,19.2429,0.0284695
316,63.5708,0.0571673
342,79.0353,0.0351851
221,28.469,0.0331189
341,58.123,0.0360639
289,22.9536,0.0266858
314,60.2633,0.0284475
395,60.2985,0.0295403
288,108.266,0.0688776
394,48.0121,0.0796089
365,69.909,0.041183
422,85.1282,0.0829681
452,79.3978,0.0435134
482,40.3744,0.0281104
513,31.5023,0.0300721
578,38.9361,0.0475639
