"cellPairingIds","interplanarAngles","angleWeights"
13,39.0676,0.0203438
19,56.8105,0.0379264
34,46.0303,0.0277258
53,61.124,0.056039
32,73.3725,0.01771
41,28.7141,0.0219563
62,73.6461,0.0238154
74,83.3175,0.020858
50,79.6632,0.0439429
61,38.4899,0.0230533
73,122.122,0.0520796
100,103.954,0.049419
131,166.083,0.0168964
85,50.6265,0.120757
113,69.5731,0.0286899
129,65.7149,0.0334049
128,116.041,0.0936399
163,66.5157,0.0823444
182,53.3975,0.0223671
162,26.5241,0.0853755
181,54.7791,0.0552558
201,87.2607,0.0197387
221,85.2146,0.0218616
242,37.0227,0.0191839
