facetNormals:0,facetNormals:1,facetNormals:2,FacetCenters:0,FacetCenters:1,FacetCenters:2,FacetIds,relFacetSize,absFacetSize,cellPairingIds,interplanarAngles,angleWeights
-0.202971,0.258218,-0.9082,7.10145,4.52864,8.42326,1,0.0196088,0.00618357,8,39.7752,0.0240106
-0.765163,0.170555,-0.575124,7.11745,4.52949,8.58465,2,0.0309606,0.00976331,13,57.1722,0.0273084
0.359885,0.817955,-0.416145,7.15674,4.65285,8.45588,3,0.0449635,0.0141791,19,90.7736,0.0342299
0.701162,-0.543854,-0.29789,7.17609,4.48302,8.45399,4,0.134571,0.0424365,26,70.6033,0.0318811
0.748544,0.484578,-0.370532,7.19982,4.59921,8.43716,5,0.08521,0.0268706,34,114.389,0.0218917
0.203581,-0.954298,0.114586,7.11148,4.43209,8.52866,6,0.0247761,0.00781304,43,113.136,0.0240331
-0.494617,-0.777943,0.29359,7.04387,4.44188,8.5798,7,0.0310356,0.00978695,53,93.9577,0.0336653
-0.282587,0.799567,0.358047,7.09557,4.62632,8.57668,8,0.118894,0.0374927,64,102.842,0.0266015
0.532444,0.753563,0.3266,7.11824,4.63003,8.55719,9,0.0413455,0.0130381,76,139.383,0.0244754
0.720615,-0.407604,0.506471,7.10004,4.47872,8.56926,10,0.0325549,0.0102661,89,130.678,0.0173058
0.774297,0.220034,0.575281,7.16173,4.56397,8.58746,11,0.0154869,0.00488372,103,130.702,0.0298748
-0.540373,-0.406051,0.660852,7.04888,4.49377,8.61517,12,0.0627014,0.0197726,118,132.075,0.0208805
-0.517144,0.0666165,0.837533,7.04195,4.55427,8.64731,13,0.0223286,0.00704125,134,171.541,0.0256558
0.110099,-0.15449,0.936447,7.06629,4.5168,8.61385,14,0.0370953,0.0116979,18,83.8025,0.0366708
,,,,,,,,,25,120.211,0.0503396
,,,,,,,,,33,107.16,0.0454186
,,,,,,,,,42,113.731,0.0275252
,,,,,,,,,52,85.309,0.030998
,,,,,,,,,63,80.5678,0.049128
,,,,,,,,,75,119.369,0.0354073
,,,,,,,,,88,165.167,0.0317378
,,,,,,,,,102,157.045,0.0206462
,,,,,,,,,117,92.2356,0.0414527
,,,,,,,,,133,94.4619,0.0259455
,,,,,,,,,150,134.33,0.0337514
,,,,,,,,,32,94.2603,0.0674053
,,,,,,,,,41,30.5264,0.0588652
,,,,,,,,,51,141.219,0.031948
,,,,,,,,,62,169.096,0.0367233
,,,,,,,,,74,63.6113,0.0652505
,,,,,,,,,87,45.8479,0.0430787
,,,,,,,,,101,107.32,0.0377661
,,,,,,,,,116,77.0098,0.0230385
,,,,,,,,,132,149.343,0.0523713
,,,,,,,,,149,119.585,0.0298393
,,,,,,,,,167,120.387,0.0406522
,,,,,,,,,50,65.7179,0.104347
,,,,,,,,,61,46.9637,0.0418475
,,,,,,,,,73,90.7071,0.0504387
,,,,,,,,,86,149.14,0.126247
,,,,,,,,,100,98.397,0.0632562
,,,,,,,,,115,50.6446,0.0524269
,,,,,,,,,131,74.2184,0.0277771
,,,,,,,,,148,113.648,0.0855445
,,,,,,,,,166,134.592,0.038302
,,,,,,,,,185,97.565,0.0581588
,,,,,,,,,72,111.812,0.0383897
,,,,,,,,,85,156.386,0.0454992
,,,,,,,,,99,87.2107,0.0992723
,,,,,,,,,114,47.1557,0.055676
,,,,,,,,,130,80.5276,0.0471109
,,,,,,,,,147,60.3202,0.0262101
,,,,,,,,,165,157.963,0.072243
,,,,,,,,,184,134.283,0.0353849
,,,,,,,,,204,111.586,0.0516885
,,,,,,,,,98,44.726,0.0275548
,,,,,,,,,113,149.535,0.0410068
,,,,,,,,,129,126.597,0.0309847
,,,,,,,,,146,51.4901,0.0281378
,,,,,,,,,164,89.1999,0.0190599
,,,,,,,,,183,67.6472,0.0355176
,,,,,,,,,203,94.3122,0.0234888
,,,,,,,,,224,72.8282,0.0297092
,,,,,,,,,128,115.053,0.0492223
,,,,,,,,,145,142.741,0.0354563
,,,,,,,,,163,83.3118,0.0317771
,,,,,,,,,182,113.733,0.0206629
,,,,,,,,,202,31.813,0.0415199
,,,,,,,,,223,61.8815,0.0259718
,,,,,,,,,245,68.3759,0.0337959
,,,,,,,,,162,50.8372,0.0613547
,,,,,,,,,181,112.939,0.051114
,,,,,,,,,201,79.6836,0.0274041
,,,,,,,,,222,85.7391,0.0821035
,,,,,,,,,244,56.6491,0.0375965
,,,,,,,,,267,78.1472,0.0565475
,,,,,,,,,200,75.2446,0.0364274
,,,,,,,,,221,37.725,0.0225334
,,,,,,,,,243,114.104,0.0498318
,,,,,,,,,266,87.1278,0.0289973
,,,,,,,,,290,74.6191,0.0391052
,,,,,,,,,242,37.7116,0.020989
,,,,,,,,,265,83.0629,0.0428578
,,,,,,,,,289,88.5415,0.0264891
,,,,,,,,,314,48.3237,0.0346771
,,,,,,,,,288,97.84,0.0248387
,,,,,,,,,313,84.3529,0.0182888
,,,,,,,,,339,51.3844,0.0218511
,,,,,,,,,338,30.2188,0.0329304
,,,,,,,,,365,46.4686,0.0466133
,,,,,,,,,392,40.4735,0.0278772
