"cellPairingIds","interplanarAngles","angleWeights"
8,52.6546,0.0622742
13,90.385,0.0669049
89,98.245,0.0528608
18,102.645,0.087282
33,60.0028,0.0586779
52,56.7753,0.0467991
102,112.797,0.0648166
32,53.1559,0.092322
41,94.1327,0.0627716
101,65.4652,0.0415471
116,141.032,0.0698483
50,42.6223,0.0609135
115,36.6894,0.0407249
85,65.3839,0.0386973
130,59.0606,0.0337221
147,117.039,0.0502467
204,64.6872,0.0462204
182,63.0831,0.0412754
242,109.646,0.0356632
314,48.0751,0.0335866
339,66.7863,0.0499465
