facetNormals:0,facetNormals:1,facetNormals:2,FacetCenters:0,FacetCenters:1,FacetCenters:2,FacetIds,relFacetSize,absFacetSize,cellPairingIds,interplanarAngles,angleWeights
0.245468,-0.0250063,-0.953173,6.34153,3.68064,8.8503,1,0.0240531,0.00277103,8,51.901,0.0218076
-0.509217,-0.389777,-0.749695,6.26624,3.62414,8.84144,2,0.0199456,0.00229783,13,34.9033,0.0337737
0.115582,0.524561,-0.801045,6.28789,3.73204,8.83812,3,0.05668,0.00652981,19,38.7435,0.023515
0.671386,0.348459,-0.628665,6.33042,3.70162,8.85895,4,0.0230004,0.00264976,26,39.4752,0.0385201
0.563861,-0.475284,-0.600719,6.34738,3.64612,8.86576,5,0.0966537,0.011135,34,71.1431,0.0157434
-0.554582,0.65822,-0.490893,6.25059,3.76825,8.87163,6,0.011701,0.00134801,43,86.8835,0.0231284
-0.88725,-0.344065,-0.275095,6.24278,3.63271,8.92105,7,0.0222723,0.00256587,53,81.254,0.0381576
-0.867263,0.142499,-0.37731,6.24016,3.69688,8.87355,8,0.0922556,0.0106283,64,95.5505,0.0249935
-0.815495,-0.546501,-0.0971151,6.24909,3.67528,8.9016,9,0.0260105,0.00299654,76,81.5227,0.0207678
0.96914,-0.131617,0.103273,6.34585,3.62391,8.93361,10,0.0182722,0.00210504,89,121.512,0.0350941
-0.884279,-0.214069,0.294137,6.23719,3.66124,8.9346,11,0.0648719,0.00747357,103,116.89,0.0315923
-0.660669,0.628823,0.255937,6.24412,3.75894,8.9299,12,0.0460155,0.00530122,118,128.119,0.0352237
-0.213076,-0.74472,0.582753,6.29694,3.61277,8.95836,13,0.0657669,0.00757668,134,127.088,0.0321838
0.586938,-0.168738,0.765661,6.34062,3.63847,8.96706,14,0.0486182,0.00560105,151,130.012,0.0261497
0.52529,0.290552,0.782833,6.31782,3.66945,8.97749,15,0.0286468,0.00330026,169,151.844,0.0340364
-0.073487,0.459577,0.857912,6.26814,3.69738,8.97635,16,0.058187,0.00670343,188,170.394,0.0281877
-0.395659,-0.0122047,0.897079,6.27966,3.72027,8.97385,17,0.0340389,0.00392145,18,69.2425,0.0295076
,,,,,,,,,25,90.3776,0.0213644
,,,,,,,,,33,68.1995,0.0330674
,,,,,,,,,42,66.2391,0.0147494
,,,,,,,,,52,35.8474,0.0210448
,,,,,,,,,63,44.8512,0.0327999
,,,,,,,,,75,43.9132,0.0225779
,,,,,,,,,88,122.382,0.0190723
,,,,,,,,,102,70.6077,0.0305105
,,,,,,,,,117,96.1765,0.0278288
,,,,,,,,,133,92.284,0.0306084
,,,,,,,,,150,146.652,0.0282866
,,,,,,,,,168,173.85,0.0235172
,,,,,,,,,187,144.6,0.0297078
,,,,,,,,,207,118.819,0.0251526
,,,,,,,,,32,36.3551,0.0327223
,,,,,,,,,41,71.1058,0.0714563
,,,,,,,,,51,45.1135,0.0193976
,,,,,,,,,62,93.7611,0.0319786
,,,,,,,,,74,72.5418,0.0702189
,,,,,,,,,87,108.579,0.0356577
,,,,,,,,,101,92.402,0.0276354
,,,,,,,,,116,119.215,0.0604999
,,,,,,,,,132,86.9586,0.050794
,,,,,,,,,149,160.652,0.0608863
,,,,,,,,,167,132.159,0.0523405
,,,,,,,,,186,115.791,0.0380584
,,,,,,,,,206,118.88,0.0574236
,,,,,,,,,227,144.587,0.0425341
,,,,,,,,,50,50.8535,0.0371583
,,,,,,,,,61,80.2149,0.0155111
,,,,,,,,,73,123.845,0.0226305
,,,,,,,,,86,108.302,0.0368209
,,,,,,,,,100,134.238,0.024413
,,,,,,,,,115,56.0739,0.0203654
,,,,,,,,,131,155.122,0.0339602
,,,,,,,,,148,114.429,0.0306705
,,,,,,,,,166,143.755,0.0340816
,,,,,,,,,185,98.7224,0.0312276
,,,,,,,,,205,92.2576,0.025515
,,,,,,,,,226,116.513,0.0329688
,,,,,,,,,248,149.839,0.0274515
,,,,,,,,,72,110.539,0.0208749
,,,,,,,,,85,100.488,0.0362023
,,,,,,,,,99,111.274,0.0944035
,,,,,,,,,114,98.6887,0.0409902
,,,,,,,,,130,54.2161,0.0307341
,,,,,,,,,147,129.098,0.0776361
,,,,,,,,,165,156.314,0.062348
,,,,,,,,,184,97.2443,0.0782735
,,,,,,,,,204,93.0027,0.0646942
,,,,,,,,,225,109.432,0.0441949
,,,,,,,,,247,146.622,0.0726422
,,,,,,,,,270,144.175,0.0503469
,,,,,,,,,98,65.9105,0.0153419
,,,,,,,,,113,36.6867,0.020768
,,,,,,,,,129,81.7525,0.0161409
,,,,,,,,,146,133.826,0.0142663
,,,,,,,,,164,77.4971,0.019826
,,,,,,,,,183,45.7773,0.0186577
,,,,,,,,,203,133.249,0.0198673
,,,,,,,,,224,146.844,0.0188624
,,,,,,,,,246,119.704,0.0166154
,,,,,,,,,269,94.6193,0.0194839
,,,,,,,,,293,103.632,0.0174154
,,,,,,,,,128,29.5467,0.0358819
,,,,,,,,,145,16.2197,0.0239967
,,,,,,,,,163,149.917,0.0200749
,,,,,,,,,182,34.8497,0.0331599
,,,,,,,,,202,71.3933,0.0300162
,,,,,,,,,223,72.7357,0.0332756
,,,,,,,,,245,133.95,0.0305496
,,,,,,,,,268,143.092,0.0250605
,,,,,,,,,292,109.89,0.032214
,,,,,,,,,317,83.5884,0.0269262
,,,,,,,,,162,45.099,0.04058
,,,,,,,,,181,162.725,0.0305029
,,,,,,,,,201,46.8547,0.0761776
,,,,,,,,,222,51.3405,0.0614039
,,,,,,,,,244,98.7606,0.0767912
,,,,,,,,,267,151.338,0.0636783
,,,,,,,,,291,138.763,0.0437184
,,,,,,,,,316,102.024,0.0713638
,,,,,,,,,342,89.8213,0.0497294
,,,,,,,,,200,138.662,0.0214652
,,,,,,,,,221,30.8789,0.0371327
,,,,,,,,,243,79.5021,0.0332349
,,,,,,,,,266,56.7594,0.0372779
,,,,,,,,,290,118.485,0.03389
,,,,,,,,,315,132.959,0.0272651
,,,,,,,,,341,106.568,0.0359506
,,,,,,,,,368,75.4986,0.029488
,,,,,,,,,242,148.109,0.0285132
,,,,,,,,,265,138.393,0.0261575
,,,,,,,,,289,92.9041,0.0285987
,,,,,,,,,314,45.9166,0.0265617
,,,,,,,,,340,55.3451,0.0223125
,,,,,,,,,367,92.574,0.027811
,,,,,,,,,395,107.451,0.0237795
,,,,,,,,,288,54.587,0.0538405
,,,,,,,,,313,55.9289,0.0653164
,,,,,,,,,339,105.972,0.0555811
,,,,,,,,,366,108.317,0.0397434
,,,,,,,,,394,76.4318,0.0613479
,,,,,,,,,423,48.8989,0.0446497
,,,,,,,,,338,101.201,0.0541462
,,,,,,,,,365,108.73,0.0472811
,,,,,,,,,393,87.7911,0.0353109
,,,,,,,,,422,52.9476,0.0513904
,,,,,,,,,452,58.6456,0.0391313
,,,,,,,,,392,61.9251,0.0559071
,,,,,,,,,421,82.314,0.0399097
,,,,,,,,,451,79.4421,0.0617452
,,,,,,,,,482,49.5878,0.0448598
,,,,,,,,,450,27.2847,0.0360514
,,,,,,,,,481,55.8805,0.0529739
,,,,,,,,,513,61.6043,0.0400428
,,,,,,,,,512,37.2398,0.0383923
,,,,,,,,,545,59.504,0.031111
,,,,,,,,,578,34.0351,0.0429515
