Q	U	V
{$V$}	{[mm$^3$]}	0.00714249
{$d_v$}	{[mm]}	0.238937
{$S_c$}	{[mm$^2$]}	0.432693
{$S_o$}	{[mm$^2$]}	0.249392
{$S_l/S_o$}	[]	0.734991
{$\Psi$}	[]	0.414512
{$\eta$}	[]	0.452496
{med($\theta_e$)}	{[$^\circ$]}	77.4847
{$\Upsilon$}	[]	12
{$\Xi$}	[]	16
