"cellPairingIds","interplanarAngles","angleWeights"
13,27.3135,0.0157509
19,53.5731,0.0355352
26,74.2854,0.0374831
34,51.6983,0.0295723
41,93.8224,0.0193099
51,68.7969,0.0169711
87,60.5856,0.0189866
132,60.5568,0.0186144
167,68.8628,0.0156753
186,92.8149,0.015495
50,35.8297,0.0608291
61,55.2147,0.0424156
73,47.7201,0.0627174
85,37.2831,0.0690507
99,57.3822,0.0614267
114,108.504,0.0630561
98,87.4278,0.046256
203,77.4822,0.0400155
224,60.4853,0.0293072
269,80.721,0.0476222
128,70.9591,0.0633528
223,34.9175,0.0576082
268,131.488,0.0367213
162,66.7975,0.0582703
291,72.0888,0.0344476
315,37.6539,0.0349541
365,32.4931,0.0345786
393,50.5186,0.0337131
421,122.976,0.0326759
451,28.5113,0.0597427
450,77.5906,0.0251669
481,85.0117,0.0386556
512,101.514,0.0375771
