facetNormals:0,facetNormals:1,facetNormals:2,FacetCenters:0,FacetCenters:1,FacetCenters:2,FacetIds,relFacetSize,absFacetSize,cellPairingIds,interplanarAngles,angleWeights
0.237943,-0.386842,-0.885882,5.83039,4.37688,7.17793,1,0.00807251,0.000504885,8,26.8077,0.00680573
-0.13597,-0.132364,-0.973394,5.83761,4.37241,7.1754,2,0.0058826,0.00036792,13,49.7246,0.0111725
0.0797128,0.420241,-0.85962,5.88719,4.33955,7.16316,3,0.0181376,0.00113439,19,26.3134,0.00664295
-0.0990363,-0.651928,-0.74138,5.84231,4.35419,7.18058,4,0.00564354,0.000352968,26,30.8786,0.0106747
0.605229,-0.037664,-0.754838,5.86646,4.36813,7.18056,5,0.0157524,0.000985211,34,58.393,0.0112843
-0.689384,-0.272767,-0.644687,5.78717,4.35844,7.14872,6,0.0187404,0.00117209,43,87.7979,0.0103225
-0.436129,0.741149,-0.483379,5.81415,4.36324,7.15468,7,0.0143113,0.00089508,53,63.4755,0.0107986
0.959658,-0.0165544,-0.230365,5.90241,4.38033,7.18425,8,0.0163048,0.00101977,64,82.7594,0.0135903
-0.868473,-0.38291,-0.203546,5.81625,4.33649,7.14945,9,0.0429429,0.00268581,76,81.8688,0.0118415
0.833017,0.497548,-0.149568,5.89203,4.40501,7.1941,10,0.0222124,0.00138925,89,126.259,0.00953501
-0.676235,0.705314,0.169498,5.80435,4.4232,7.16664,11,0.0116447,0.000728302,103,107.452,0.0147966
0.130218,0.927986,-0.0539176,5.85949,4.44577,7.20292,12,0.0885817,0.00554023,118,105.479,0.0146801
-0.581145,-0.642876,0.412493,5.83463,4.33471,7.19574,13,0.080896,0.00505954,134,120.436,0.0144109
-0.911623,-0.0854303,0.350583,5.78892,4.39197,7.19762,14,0.0670824,0.00419558,151,94.2207,0.0140844
0.879418,-0.16381,0.388395,5.90442,4.35978,7.20572,15,0.0551743,0.00345081,169,99.9457,0.0138971
0.465323,-0.633445,0.592649,5.89416,4.32894,7.20797,16,0.049907,0.00312137,188,157.267,0.0151437
-0.561974,0.392391,0.674149,5.81547,4.41735,7.22393,17,0.122081,0.00763538,208,126.088,0.0108822
-0.190334,-0.513191,0.832423,5.83755,4.32433,7.22031,18,0.0166919,0.00104398,229,121.109,0.0114235
0.0743944,-0.539203,0.833342,5.85476,4.34425,7.23481,19,0.0195309,0.00122154,251,128.353,0.0144615
0.529011,0.00890285,0.816815,5.88691,4.3982,7.24575,20,0.0693415,0.00433687,274,150.968,0.00894522
0.261491,0.395765,0.877641,5.7894,4.39606,7.19748,21,0.0100295,0.000627282,298,152.055,0.0134026
-0.0879237,-0.057345,0.969353,5.84546,4.36738,7.21469,22,0.0394514,0.00246744,18,36.0066,0.00888388
,,,,,,,,,25,33.4067,0.00576059
,,,,,,,,,33,46.7897,0.00856622
,,,,,,,,,42,38.9845,0.00895442
,,,,,,,,,52,63.8142,0.00833793
,,,,,,,,,63,84.3753,0.00864587
,,,,,,,,,75,67.5967,0.0103477
,,,,,,,,,88,91.9738,0.00930178
,,,,,,,,,102,99.7407,0.00781651
,,,,,,,,,117,95.428,0.0110325
,,,,,,,,,133,104.443,0.0109677
,,,,,,,,,150,102.231,0.0108167
,,,,,,,,,168,119.48,0.0106317
,,,,,,,,,187,124.74,0.0105247
,,,,,,,,,207,131.499,0.0112243
,,,,,,,,,228,136.483,0.00869936
,,,,,,,,,250,139.438,0.00904185
,,,,,,,,,273,154.099,0.0108452
,,,,,,,,,297,162.243,0.00741568
,,,,,,,,,322,162.863,0.0102385
,,,,,,,,,32,68.0929,0.00860852
,,,,,,,,,41,42.8758,0.016861
,,,,,,,,,51,65.9392,0.0184341
,,,,,,,,,62,43.0453,0.0159989
,,,,,,,,,74,73.6011,0.0171725
,,,,,,,,,87,93.3935,0.0255034
,,,,,,,,,101,64.618,0.0199693
,,,,,,,,,116,84.1656,0.0141834
,,,,,,,,,132,60.2865,0.03011
,,,,,,,,,149,136.737,0.0296316
,,,,,,,,,167,115.815,0.0285547
,,,,,,,,,186,110.807,0.0273006
,,,,,,,,,206,141.39,0.0266059
,,,,,,,,,227,119.847,0.0315829
,,,,,,,,,249,171.643,0.0173848
,,,,,,,,,272,168.654,0.0188085
,,,,,,,,,296,134.611,0.0287541
,,,,,,,,,321,126.315,0.0129166
,,,,,,,,,347,157.416,0.0248504
,,,,,,,,,50,56.9286,0.00830991
,,,,,,,,,61,42.0331,0.00867474
,,,,,,,,,73,94.7831,0.00809491
,,,,,,,,,86,84.9305,0.00838485
,,,,,,,,,100,59.658,0.00997603
,,,,,,,,,115,107.689,0.00900035
,,,,,,,,,131,121.799,0.00760254
,,,,,,,,,148,128.355,0.010611
,,,,,,,,,166,79.6647,0.010551
,,,,,,,,,185,96.7261,0.0104112
,,,,,,,,,205,106.095,0.0102397
,,,,,,,,,226,94.257,0.0101404
,,,,,,,,,248,137.205,0.0107884
,,,,,,,,,271,105.474,0.00843515
,,,,,,,,,295,106.088,0.00875677
,,,,,,,,,320,133.425,0.0104376
,,,,,,,,,346,160.762,0.00722283
,,,,,,,,,373,134.045,0.00987452
,,,,,,,,,72,85.1957,0.0171169
,,,,,,,,,85,85.6168,0.0149973
,,,,,,,,,99,37.7842,0.0160238
,,,,,,,,,114,112.36,0.0230496
,,,,,,,,,130,50.9917,0.0184328
,,,,,,,,,147,125.954,0.0133906
,,,,,,,,,165,84.6613,0.0267481
,,,,,,,,,184,133.431,0.0263699
,,,,,,,,,204,148.935,0.0255136
,,,,,,,,,225,74.9465,0.0245077
,,,,,,,,,247,98.5601,0.0239464
,,,,,,,,,270,158.115,0.0279042
,,,,,,,,,294,138.658,0.0162085
,,,,,,,,,319,125.796,0.0174393
,,,,,,,,,345,108.354,0.0256726
,,,,,,,,,372,122.508,0.0122558
,,,,,,,,,400,146.011,0.0225149
,,,,,,,,,98,64.966,0.0162291
,,,,,,,,,113,121.628,0.017438
,,,,,,,,,129,28.9701,0.0260935
,,,,,,,,,146,129.502,0.0203292
,,,,,,,,,164,80.2785,0.014364
,,,,,,,,,183,109.52,0.0309359
,,,,,,,,,203,70.8033,0.0304311
,,,,,,,,,224,63.7697,0.0292964
,,,,,,,,,246,147.934,0.0279779
,,,,,,,,,269,123.236,0.0272487
,,,,,,,,,293,99.3976,0.0324928
,,,,,,,,,318,105.736,0.0176569
,,,,,,,,,344,116.835,0.0191275
,,,,,,,,,371,159.179,0.0295063
,,,,,,,,,399,150.612,0.0130662
,,,,,,,,,428,124.943,0.0254103
,,,,,,,,,128,109.152,0.0152432
,,,,,,,,,145,78.3506,0.0214681
,,,,,,,,,163,85.3952,0.0174072
,,,,,,,,,182,41.2321,0.012841
,,,,,,,,,202,44.7982,0.0246415
,,,,,,,,,223,116.496,0.0243201
,,,,,,,,,245,80.1893,0.0235899
,,,,,,,,,268,136.056,0.0227275
,,,,,,,,,292,170.911,0.0222439
,,,,,,,,,317,77.2045,0.0256193
,,,,,,,,,343,135.395,0.0154102
,,,,,,,,,370,148.242,0.0165186
,,,,,,,,,398,130.143,0.0237258
,,,,,,,,,427,104.412,0.0117938
,,,,,,,,,457,119.437,0.0210034
,,,,,,,,,162,144.516,0.0236356
,,,,,,,,,181,31.5702,0.0188056
,,,,,,,,,201,135.625,0.0135863
,,,,,,,,,222,82.4318,0.0275404
,,,,,,,,,244,132.669,0.0271396
,,,,,,,,,267,170.398,0.0262335
,,,,,,,,,291,38.1315,0.0251712
,,,,,,,,,316,70.7395,0.0245795
,,,,,,,,,342,137.631,0.0287676
,,,,,,,,,369,111.846,0.0164961
,,,,,,,,,397,96.5255,0.0177727
,,,,,,,,,426,70.5823,0.0264016
,,,,,,,,,456,87.5431,0.0124195
,,,,,,,,,487,108.585,0.0230736
,,,,,,,,,200,157.986,0.0292798
,,,,,,,,,221,72.9215,0.0183213
,,,,,,,,,243,120.137,0.057844
,,,,,,,,,266,44.2895,0.0561037
,,,,,,,,,290,37.6961,0.0523645
,,,,,,,,,315,145.49,0.0482962
,,,,,,,,,341,107.177,0.0461638
,,,,,,,,,368,77.5881,0.0635363
,,,,,,,,,396,78.5263,0.0240396
,,,,,,,,,425,91.6468,0.0268501
,,,,,,,,,455,131.753,0.053039
,,,,,,,,,486,125.132,0.0162611
,,,,,,,,,518,96.0035,0.0411232
,,,,,,,,,242,104.133,0.0152793
,,,,,,,,,265,51.133,0.0355184
,,,,,,,,,289,156.737,0.0348545
,,,,,,,,,314,152.57,0.033374
,,,,,,,,,340,51.732,0.0316735
,,,,,,,,,367,90.9598,0.0307422
,,,,,,,,,395,113.326,0.0375861
,,,,,,,,,424,123.399,0.0190605
,,,,,,,,,454,109.796,0.0207856
,,,,,,,,,485,70.2452,0.0336467
,,,,,,,,,517,73.1764,0.0138192
,,,,,,,,,550,104.939,0.0284222
,,,,,,,,,288,53.2211,0.0205835
,,,,,,,,,313,89.4295,0.0203588
,,,,,,,,,339,50.7157,0.0198446
,,,,,,,,,366,131.782,0.0192307
,,,,,,,,,394,132.617,0.0188834
,,,,,,,,,423,36.0285,0.0212614
,,,,,,,,,453,95.3521,0.0137188
,,,,,,,,,484,107.046,0.0145903
,,,,,,,,,516,102.75,0.0199407
,,,,,,,,,549,75.2994,0.0107769
,,,,,,,,,583,79.0716,0.0179818
,,,,,,,,,338,140.436,0.0845646
,,,,,,,,,365,103.632,0.0763474
,,,,,,,,,393,93.6603,0.0679963
,,,,,,,,,422,127.243,0.0638442
,,,,,,,,,452,73.6115,0.102668
,,,,,,,,,483,125.717,0.0280906
,,,,,,,,,515,124.981,0.0320052
,,,,,,,,,548,87.9229,0.0777896
,,,,,,,,,582,67.7878,0.0180188
,,,,,,,,,617,97.3406,0.0545901
,,,,,,,,,392,39.1909,0.0733445
,,,,,,,,,421,105.209,0.0656041
,,,,,,,,,451,66.1996,0.0617307
,,,,,,,,,482,67.5468,0.0973101
,,,,,,,,,514,34.9328,0.0276737
,,,,,,,,,547,47.3574,0.0314651
,,,,,,,,,581,88.5414,0.0746744
,,,,,,,,,616,92.656,0.0178464
,,,,,,,,,652,58.5819,0.0530375
,,,,,,,,,450,132.955,0.0605484
,,,,,,,,,481,99.6817,0.0572339
,,,,,,,,,513,40.6508,0.0865863
,,,,,,,,,546,58.5805,0.0267322
,,,,,,,,,580,73.9139,0.0302536
,,,,,,,,,615,101.894,0.0681932
,,,,,,,,,651,87.9204,0.01745
,,,,,,,,,688,63.6106,0.0496837
,,,,,,,,,512,39.2738,0.0524087
,,,,,,,,,545,108.446,0.0760004
,,,,,,,,,579,75.6991,0.02563
,,,,,,,,,614,60.5391,0.0288495
,,,,,,,,,650,34.6231,0.061452
,,,,,,,,,687,58.6616,0.0169736
,,,,,,,,,725,71.0641,0.0460066
,,,,,,,,,578,96.7067,0.0708502
,,,,,,,,,613,41.9084,0.0250168
,,,,,,,,,649,27.3796,0.0280749
,,,,,,,,,686,40.8546,0.0580406
,,,,,,,,,724,66.5302,0.0167024
,,,,,,,,,763,53.5749,0.0440675
,,,,,,,,,648,60.834,0.0293684
,,,,,,,,,685,71.1983,0.0336745
,,,,,,,,,723,74.0659,0.0884459
,,,,,,,,,762,51.2747,0.0185362
,,,,,,,,,802,43.4598,0.0596322
,,,,,,,,,722,15.351,0.0180002
,,,,,,,,,761,53.6494,0.0269068
,,,,,,,,,801,61.2733,0.0125301
,,,,,,,,,842,28.5714,0.0234585
,,,,,,,,,800,42.4076,0.0304775
,,,,,,,,,841,57.2331,0.0132532
,,,,,,,,,883,30.9647,0.0261272
,,,,,,,,,882,27.8135,0.0175243
,,,,,,,,,925,38.291,0.0502904
,,,,,,,,,968,34.1423,0.0159932
