Q	U	V
{$V$}	{[mm$^3$]}	0.00874673
{$d_v$}	{[mm]}	0.255632
{$S_c$}	{[mm$^2$]}	0.415068
{$S_o$}	{[mm$^2$]}	0.25242
{$S_l/S_o$}	[]	0.644355
{$\Psi$}	[]	0.494609
{$\eta$}	[]	0.536254
{med($\theta_e$)}	{[$^\circ$]}	84.0439
{$\Upsilon$}	[]	13
{$\Xi$}	[]	8
