Q	U	V
{$V$}	{[mm$^3$]}	0.00562731
{$d_v$}	{[mm]}	0.220682
{$S_c$}	{[mm$^2$]}	0.328232
{$S_o$}	{[mm$^2$]}	0.178634
{$S_l/S_o$}	[]	0.837455
{$\Psi$}	[]	0.466126
{$\eta$}	[]	0.514496
{med($\theta_e$)}	{[$^\circ$]}	67.4327
{$\Upsilon$}	[]	7
{$\Xi$}	[]	10
