Q	U	V
{$V$}	{[mm$^3$]}	0.0144643
{$d_v$}	{[mm]}	0.302296
{$S_c$}	{[mm$^2$]}	0.504627
{$S_o$}	{[mm$^2$]}	0.307648
{$S_l/S_o$}	[]	0.640274
{$\Psi$}	[]	0.568912
{$\eta$}	[]	0.581471
{med($\theta_e$)}	{[$^\circ$]}	50.05095
{$\Upsilon$}	[]	17
{$\Xi$}	[]	6
