"cellPairingIds","interplanarAngles","angleWeights"
26,44.5718,0.0695287
25,49.0443,0.0445187
33,86.4378,0.130096
52,66.956,0.126381
41,35.3687,0.0726128
50,68.3553,0.0428609
61,59.0299,0.037729
73,48.1396,0.0424498
72,35.5626,0.0852585
99,51.4933,0.0625156
98,89.7026,0.083647
113,47.38,0.052166
129,52.684,0.0723545
145,93.6939,0.0919688
163,54.2206,0.045139
162,38.0332,0.0552858
200,46.8393,0.0416327
