facetNormals:0,facetNormals:1,facetNormals:2,FacetCenters:0,FacetCenters:1,FacetCenters:2,FacetIds,relFacetSize,absFacetSize,cellPairingIds,interplanarAngles,angleWeights
0.409459,0.123183,-0.858281,6.17859,5.64288,7.68373,1,0.0189109,0.00214977,8,48.7499,0.0289544
-0.32141,-0.200697,-0.904613,6.10954,5.63562,7.69151,2,0.0617485,0.00701947,13,52.8739,0.026492
0.0495606,-0.644945,-0.723198,6.14566,5.60779,7.68205,3,0.0442181,0.00502665,19,70.9429,0.0316648
-0.699197,0.0890834,-0.677385,6.07043,5.63708,7.72965,4,0.0972563,0.0110559,26,22.9703,0.0156498
0.704772,0.246261,-0.639779,6.16906,5.63092,7.69163,5,0.0133479,0.00151737,34,78.9305,0.0209473
-0.523913,-0.619129,-0.548871,6.09548,5.59762,7.72561,6,0.0234752,0.00266863,43,71.5963,0.0207769
-0.623943,0.513808,-0.573486,6.08252,5.68592,7.72082,7,0.0230513,0.00262043,53,57.9556,0.0268585
-0.313082,0.680769,-0.633169,6.09338,5.69692,7.72366,8,0.0463288,0.00526658,64,47.9723,0.0142488
0.839117,0.42632,-0.271116,6.0906,5.63593,7.79937,9,0.0114308,0.00129944,76,104.311,0.0169098
-0.894616,-0.375491,-0.206733,6.02159,5.61068,7.79677,10,0.0152917,0.00173834,89,90.6842,0.0201116
-0.188203,-0.941623,-0.211811,6.11124,5.5904,7.7273,11,0.0214751,0.00244126,103,80.1912,0.029238
-0.032799,0.956345,-0.060889,6.10736,5.6929,7.79325,12,0.0644131,0.00732238,118,89.22,0.0247891
0.389747,0.825425,0.289836,6.1188,5.71024,7.83115,13,0.0359698,0.00408899,134,128.266,0.0298739
-0.693302,-0.606033,0.240834,6.03501,5.63913,7.80302,14,0.07108,0.00808026,151,121.853,0.0304256
0.0496876,-0.827962,0.465749,6.09068,5.61483,7.80588,15,0.0777932,0.00884341,169,119.516,0.0303767
-0.521693,0.721416,0.389548,6.04795,5.68472,7.82506,16,0.0771574,0.00877113,188,155.281,0.0269011
-0.411998,0.290797,0.836069,6.06611,5.68297,7.85426,17,0.0465831,0.00529549,208,149.152,0.0257412
0.0924427,-0.188798,0.954075,6.09054,5.66085,7.85365,18,0.0402949,0.00458067,18,36.2193,0.0515333
,,,,,,,,,25,31.2559,0.0755377
,,,,,,,,,33,71.6981,0.0219508
,,,,,,,,,42,34.7517,0.0340178
,,,,,,,,,52,50.6573,0.0335704
,,,,,,,,,63,56.0897,0.0529386
,,,,,,,,,75,96.5756,0.0192906
,,,,,,,,,88,55.5828,0.0245129
,,,,,,,,,102,62.7837,0.0318673
,,,,,,,,,117,97.7192,0.0630527
,,,,,,,,,133,126.076,0.0454589
,,,,,,,,,150,82.2055,0.0660865
,,,,,,,,,168,106.894,0.0688484
,,,,,,,,,187,110.226,0.0685983
,,,,,,,,,207,135.436,0.0531043
,,,,,,,,,228,153.152,0.0487665
,,,,,,,,,32,65.2053,0.0607953
,,,,,,,,,41,69.1979,0.0205059
,,,,,,,,,51,35.8407,0.0306686
,,,,,,,,,62,86.8737,0.0303046
,,,,,,,,,74,89.7994,0.0452489
,,,,,,,,,87,92.249,0.0181656
,,,,,,,,,101,68.8463,0.0227247
,,,,,,,,,116,38.0673,0.0289098
,,,,,,,,,132,128.126,0.0524385
,,,,,,,,,149,141.047,0.0396698
,,,,,,,,,167,78.6135,0.05452
,,,,,,,,,186,77.5094,0.0563861
,,,,,,,,,206,145.051,0.0562182
,,,,,,,,,227,149.067,0.0453698
,,,,,,,,,249,126.485,0.0421655
,,,,,,,,,50,92.2336,0.0234742
,,,,,,,,,61,44.4896,0.0378213
,,,,,,,,,73,26.038,0.0372692
,,,,,,,,,86,42.3766,0.0627609
,,,,,,,,,100,112.413,0.0204572
,,,,,,,,,115,40.9809,0.0264281
,,,,,,,,,131,78.5282,0.0351818
,,,,,,,,,148,80.8304,0.0774987
,,,,,,,,,166,114.975,0.0525166
,,,,,,,,,185,73.284,0.0821329
,,,,,,,,,205,117.125,0.0864427
,,,,,,,,,226,79.9881,0.0860488
,,,,,,,,,248,105.331,0.0629939
,,,,,,,,,271,139.639,0.0569815
,,,,,,,,,72,100.203,0.0170189
,,,,,,,,,85,86.8409,0.0169062
,,,,,,,,,99,68.5901,0.0207248
,,,,,,,,,114,25.4132,0.0123152
,,,,,,,,,130,127.275,0.0142539
,,,,,,,,,147,103.702,0.0164631
,,,,,,,,,165,74.5367,0.0221134
,,,,,,,,,184,71.9012,0.0194706
,,,,,,,,,204,147.807,0.0224753
,,,,,,,,,225,119.944,0.0227862
,,,,,,,,,247,117.369,0.0227587
,,,,,,,,,270,141.728,0.0207501
,,,,,,,,,294,128.028,0.0200531
,,,,,,,,,98,70.527,0.0232613
,,,,,,,,,113,84.6204,0.0311609
,,,,,,,,,129,125.335,0.015375
,,,,,,,,,146,33.0119,0.0185197
,,,,,,,,,164,34.0545,0.0224307
,,,,,,,,,183,125.216,0.0344099
,,,,,,,,,203,158.78,0.0284094
,,,,,,,,,224,49.4282,0.0352941
,,,,,,,,,246,75.6464,0.0360668
,,,,,,,,,269,114.004,0.035998
,,,,,,,,,293,116.262,0.0312182
,,,,,,,,,318,118.41,0.0296669
,,,,,,,,,128,20.9029,0.0307852
,,,,,,,,,145,98.8315,0.015283
,,,,,,,,,163,60.52,0.0183863
,,,,,,,,,182,104.555,0.0222353
,,,,,,,,,202,54.8739,0.0339522
,,,,,,,,,223,89.1118,0.0280968
,,,,,,,,,245,91.0277,0.0348128
,,,,,,,,,268,140.125,0.0355643
,,,,,,,,,292,60.6004,0.0354975
,,,,,,,,,317,94.3263,0.0308411
,,,,,,,,,343,136.458,0.0293261
,,,,,,,,,162,78.0366,0.0183372
,,,,,,,,,181,80.8136,0.0229939
,,,,,,,,,201,117.672,0.0293469
,,,,,,,,,222,41.9227,0.0538943
,,,,,,,,,244,74.1638,0.0404974
,,,,,,,,,267,111.882,0.0560955
,,,,,,,,,291,159.501,0.0580729
,,,,,,,,,316,64.6739,0.0578949
,,,,,,,,,342,102.2,0.0464556
,,,,,,,,,369,142.619,0.0431017
,,,,,,,,,200,151.602,0.0130823
,,,,,,,,,221,121.409,0.01492
,,,,,,,,,243,65.0143,0.019416
,,,,,,,,,266,50.2084,0.0173485
,,,,,,,,,290,166.214,0.0196944
,,,,,,,,,315,118.009,0.0199327
,,,,,,,,,341,104.345,0.0199117
,,,,,,,,,368,117.962,0.0183571
,,,,,,,,,396,105.864,0.0178095
,,,,,,,,,242,54.5525,0.0178635
,,,,,,,,,265,109.478,0.0247159
,,,,,,,,,289,139.139,0.0214602
,,,,,,,,,314,32.3097,0.0251688
,,,,,,,,,340,79.612,0.0255593
,,,,,,,,,367,83.1308,0.0255247
,,,,,,,,,395,84.8736,0.0230251
,,,,,,,,,424,102.457,0.02217
,,,,,,,,,288,159.207,0.0322111
,,,,,,,,,313,165.554,0.0268938
,,,,,,,,,339,46.0031,0.0329847
,,,,,,,,,366,44.1103,0.0336586
,,,,,,,,,394,133.986,0.0335987
,,,,,,,,,423,112.885,0.0293977
,,,,,,,,,453,92.4881,0.0280181
,,,,,,,,,338,34.2613,0.0461618
,,,,,,,,,365,128.771,0.0675825
,,,,,,,,,393,154.288,0.0704737
,,,,,,,,,422,42.8328,0.0702116
,,,,,,,,,452,75.1011,0.054066
,,,,,,,,,483,104.951,0.0495764
,,,,,,,,,392,140.229,0.0477672
,,,,,,,,,421,125.501,0.0491936
,,,,,,,,,451,57.135,0.0490658
,,,,,,,,,482,69.8724,0.0405942
,,,,,,,,,514,80.3579,0.0380097
,,,,,,,,,450,50.2067,0.0742852
,,,,,,,,,481,88.866,0.0739941
,,,,,,,,,513,70.4644,0.0562815
,,,,,,,,,546,72.469,0.0514328
,,,,,,,,,512,118.549,0.077474
,,,,,,,,,545,82.0689,0.0582723
,,,,,,,,,579,49.3616,0.0530904
,,,,,,,,,578,37.7316,0.058093
,,,,,,,,,613,78.6261,0.0529415
,,,,,,,,,648,42.3747,0.0432115
