Q	U	V
{$V$}	{[mm$^3$]}	0.00584342
{$d_v$}	{[mm]}	0.223472
{$S_c$}	{[mm$^2$]}	0.25349
{$S_o$}	{[mm$^2$]}	0.16777
{$S_l/S_o$}	[]	0.510938
{$\Psi$}	[]	0.61892
{$\eta$}	[]	0.686493
{med($\theta_e$)}	{[$^\circ$]}	52.48145
{$\Upsilon$}	[]	17
{$\Xi$}	[]	8
