facetNormals:0,facetNormals:1,facetNormals:2,FacetCenters:0,FacetCenters:1,FacetCenters:2,FacetIds,relFacetSize,absFacetSize,cellPairingIds,interplanarAngles,angleWeights
-0.220111,-0.455499,-0.829736,5.88819,3.34853,6.47357,1,0.0420723,0.0110941,8,38.6074,0.0316
0.272023,-0.761076,-0.548148,5.94167,3.31605,6.50205,2,0.025302,0.00667194,13,71.7392,0.0309459
-0.515857,0.613864,-0.558827,5.84329,3.51651,6.5284,3,0.0244736,0.00645348,19,50.7123,0.0346816
-0.79105,0.104702,-0.578626,5.85127,3.43316,6.47709,4,0.0294995,0.00777879,26,79.8163,0.0345729
0.583403,0.465227,-0.609699,6.00122,3.33318,6.48042,5,0.0293425,0.00773739,34,97.6376,0.0244721
-0.549703,0.802998,-0.141915,5.86674,3.56578,6.58683,6,0.0172542,0.00454978,43,42.8968,0.0504117
-0.645567,-0.666227,-0.299403,5.90024,3.3269,6.48786,7,0.0628743,0.0165794,53,125.055,0.0403894
0.630189,0.700209,0.0846971,5.98216,3.47729,6.60666,8,0.038836,0.0102407,64,110.269,0.0291654
-0.169853,0.958801,-0.084717,5.90326,3.57546,6.60287,9,0.0223185,0.00588521,76,78.0429,0.0458745
-0.127919,-0.905292,0.297603,5.92376,3.28873,6.60634,10,0.0504321,0.0132985,89,89.2895,0.0577848
-0.900348,-0.0559517,0.255939,5.82627,3.42093,6.59955,11,0.092229,0.02432,103,98.4268,0.023546
-0.37,-0.659698,0.62917,5.88656,3.38142,6.64592,12,0.0163474,0.00431069,118,123.043,0.0562581
-0.669098,0.301858,0.62922,5.87179,3.44198,6.65743,13,0.0848764,0.0223812,134,161.226,0.0279044
0.0325799,0.678317,0.702308,5.91725,3.5148,6.67586,14,0.0208748,0.00550452,151,133.587,0.0649615
0.72084,-0.0468565,0.585203,5.99338,3.42835,6.6315,15,0.142473,0.037569,169,132.48,0.0385152
0.291529,-0.324737,0.872677,5.96151,3.31641,6.63807,16,0.0355127,0.00936441,188,134.679,0.0172794
-0.1232,-0.204514,0.958111,5.9223,3.46502,6.67487,17,0.0108724,0.00286695,18,108.395,0.0248809
,,,,,,,,,25,88.6723,0.02724
,,,,,,,,,33,81.5161,0.0271729
,,,,,,,,,42,135.321,0.0205171
,,,,,,,,,52,58.6304,0.0360833
,,,,,,,,,63,116.207,0.0306411
,,,,,,,,,75,139.84,0.0237168
,,,,,,,,,88,58.4675,0.0336977
,,,,,,,,,102,111.972,0.0397101
,,,,,,,,,117,86.6256,0.0198621
,,,,,,,,,133,143.264,0.0389831
,,,,,,,,,150,159.282,0.0228762
,,,,,,,,,168,95.6277,0.0429725
,,,,,,,,,187,99.1732,0.0295502
,,,,,,,,,207,114.707,0.0152093
,,,,,,,,,32,34.313,0.0267526
,,,,,,,,,41,69.79,0.0266878
,,,,,,,,,51,27.0772,0.0202394
,,,,,,,,,62,84.4972,0.0352329
,,,,,,,,,74,86.4391,0.0300257
,,,,,,,,,87,40.7636,0.0233464
,,,,,,,,,101,134.277,0.0329549
,,,,,,,,,116,71.7449,0.0386825
,,,,,,,,,132,126.037,0.0196017
,,,,,,,,,149,79.0906,0.0379923
,,,,,,,,,167,89.5728,0.0225314
,,,,,,,,,186,143.209,0.0417717
,,,,,,,,,206,151.419,0.0289774
,,,,,,,,,227,128.246,0.0150561
,,,,,,,,,50,93.6221,0.0294208
,,,,,,,,,61,51.6798,0.0217732
,,,,,,,,,73,50.268,0.0401578
,,,,,,,,,86,120.574,0.03353
,,,,,,,,,100,72.8693,0.0254114
,,,,,,,,,115,100.075,0.0372249
,,,,,,,,,131,52.8412,0.0447013
,,,,,,,,,148,98.3268,0.021037
,,,,,,,,,166,78.081,0.0437822
,,,,,,,,,185,112.026,0.0244488
,,,,,,,,,205,175.69,0.0488786
,,,,,,,,,226,143.149,0.032228
,,,,,,,,,248,119.438,0.0158888
,,,,,,,,,72,81.5406,0.0217303
,,,,,,,,,85,122.451,0.040012
,,,,,,,,,99,45.2389,0.0334283
,,,,,,,,,114,64.9608,0.025353
,,,,,,,,,130,136.967,0.0370996
,,,,,,,,,147,141.521,0.0445208
,,,,,,,,,165,162.951,0.020997
,,,,,,,,,184,132.848,0.043609
,,,,,,,,,204,95.7073,0.0243947
,,,,,,,,,225,87.3164,0.0486629
,,,,,,,,,247,123.073,0.0321341
,,,,,,,,,270,142.138,0.0158659
,,,,,,,,,98,98.2536,0.0270776
,,,,,,,,,113,77.3417,0.0238931
,,,,,,,,,129,24.4067,0.0194623
,,,,,,,,,146,137.655,0.0257117
,,,,,,,,,164,63.3462,0.0290699
,,,,,,,,,183,115.441,0.0167886
,,,,,,,,,203,56.7794,0.0286784
,,,,,,,,,224,63.6047,0.0188926
,,,,,,,,,246,124.431,0.0307806
,,,,,,,,,269,124.6,0.0232245
,,,,,,,,,293,103.851,0.0133393
,,,,,,,,,128,167.085,0.0480145
,,,,,,,,,145,121.919,0.0329432
,,,,,,,,,163,50.4666,0.0559701
,,,,,,,,,182,53.6424,0.0747739
,,,,,,,,,202,59.2758,0.0259483
,,,,,,,,,223,87.4184,0.0722372
,,,,,,,,,245,135.842,0.0313434
,,,,,,,,,268,132.251,0.0872462
,,,,,,,,,292,104.189,0.0453888
,,,,,,,,,317,94.2346,0.0185389
,,,,,,,,,162,52.9388,0.0283466
,,,,,,,,,181,139.284,0.0438809
,,,,,,,,,201,131.26,0.0546569
,,,,,,,,,222,133.606,0.0230094
,,,,,,,,,244,99.8861,0.0532891
,,,,,,,,,267,53.0864,0.027154
,,,,,,,,,291,57.6104,0.0610348
,,,,,,,,,316,88.1217,0.0371001
,,,,,,,,,342,98.6023,0.0169887
,,,,,,,,,200,158.021,0.0309432
,,,,,,,,,221,85.1431,0.0359399
,,,,,,,,,243,130.379,0.0188719
,,,,,,,,,266,68.2762,0.0353434
,,,,,,,,,290,52.1929,0.0215725
,,,,,,,,,315,103.813,0.0385916
,,,,,,,,,341,117.125,0.0274105
,,,,,,,,,368,105.403,0.0146218
,,,,,,,,,242,74.4305,0.0652077
,,,,,,,,,265,28.442,0.0246913
,,,,,,,,,289,90.026,0.0632702
,,,,,,,,,314,115.828,0.0295276
,,,,,,,,,340,82.0022,0.0744948
,,,,,,,,,367,56.6022,0.0416774
,,,,,,,,,395,59.2064,0.0178883
,,,,,,,,,288,54.8543,0.0277723
,,,,,,,,,313,34.5619,0.0884001
,,,,,,,,,339,82.9482,0.0340442
,,,,,,,,,366,124.728,0.111973
,,,,,,,,,394,91.3124,0.0512801
,,,,,,,,,423,66.6087,0.0194517
,,,,,,,,,338,62.1529,0.0274147
,,,,,,,,,365,91.0533,0.0183358
,,,,,,,,,393,81.6773,0.0293296
,,,,,,,,,422,46.9395,0.0223887
,,,,,,,,,452,36.2614,0.0130593
,,,,,,,,,392,48.5805,0.0335084
,,,,,,,,,421,98.2025,0.106379
,,,,,,,,,451,74.2524,0.0500741
,,,,,,,,,482,49.2176,0.0192756
,,,,,,,,,450,63.6798,0.0364143
,,,,,,,,,481,65.0486,0.0262938
,,,,,,,,,513,56.6617,0.0142979
,,,,,,,,,512,35.7615,0.056854
,,,,,,,,,545,58.3657,0.020203
,,,,,,,,,578,25.9053,0.0166479
