facetNormals:0,facetNormals:1,facetNormals:2,FacetCenters:0,FacetCenters:1,FacetCenters:2,FacetIds,relFacetSize,absFacetSize,cellPairingIds,interplanarAngles,angleWeights
0.579219,0.299679,-0.742444,7.35275,5.29598,8.60191,1,0.0514653,0.0054196,8,36.3386,0.0437079
0.10327,0.684007,-0.693711,7.28484,5.35488,8.59528,2,0.0379827,0.0039998,13,21.3466,0.0491882
0.819255,0.287769,-0.466903,7.38199,5.28347,8.62651,3,0.047104,0.00496033,19,85.6685,0.0615321
-0.681163,0.537191,-0.411081,7.23283,5.35309,8.63619,4,0.0764947,0.00805534,26,115.711,0.0367631
-0.944577,0.25059,-0.0700198,7.21949,5.3098,8.6493,5,0.0285944,0.00301116,34,51.3462,0.070507
0.456873,0.852127,-0.108486,7.31921,5.36956,8.66193,6,0.111914,0.0117852,43,75.6168,0.0366304
0.843349,-0.466193,0.147457,7.37426,5.20572,8.65645,7,0.0284342,0.00299429,53,95.0242,0.0232055
-0.366435,0.888557,0.186915,7.25751,5.36661,8.69155,8,0.01498,0.00157748,64,156.549,0.0409944
-0.348704,-0.613688,0.661216,7.26596,5.2611,8.70806,9,0.0340639,0.00358713,76,160.821,0.0727663
-0.67573,-0.00205868,0.655456,7.2373,5.29766,8.70659,10,0.124151,0.0130738,89,132.613,0.0558246
0.128708,-0.6312,0.708663,7.30245,5.24945,8.71086,11,0.0609906,0.00642267,103,102.482,0.0742963
0.586124,0.0460887,0.750018,7.34718,5.27986,8.70106,12,0.133535,0.014062,118,113.796,0.0581318
0.184673,0.448414,0.851148,7.31215,5.27759,8.70881,13,0.0667824,0.00703258,18,51.1904,0.0420545
,,,,,,,,,25,51.7472,0.0507607
,,,,,,,,,33,82.6717,0.0326266
,,,,,,,,,42,42.2728,0.0567164
,,,,,,,,,52,110.476,0.0325221
,,,,,,,,,63,62.6792,0.0214861
,,,,,,,,,75,164.825,0.0359167
,,,,,,,,,88,124.765,0.0581692
,,,,,,,,,102,165.924,0.0468124
,,,,,,,,,117,117.302,0.0591428
,,,,,,,,,133,106.008,0.0484241
,,,,,,,,,32,102.914,0.058305
,,,,,,,,,41,133.839,0.0355863
,,,,,,,,,51,45.6809,0.0663019
,,,,,,,,,62,59.4915,0.0354619
,,,,,,,,,74,97.8458,0.022731
,,,,,,,,,87,143.957,0.0395365
,,,,,,,,,101,157.948,0.068296
,,,,,,,,,116,115.54,0.0531554
,,,,,,,,,132,81.2293,0.069642
,,,,,,,,,149,96.9623,0.0552431
,,,,,,,,,50,30.9277,0.041628
,,,,,,,,,61,78.1907,0.0908751
,,,,,,,,,73,161.127,0.0414579
,,,,,,,,,86,46.242,0.0250537
,,,,,,,,,100,113.079,0.0471371
,,,,,,,,,115,77.8809,0.0946633
,,,,,,,,,131,141.357,0.0678685
,,,,,,,,,148,138.276,0.0972692
,,,,,,,,,166,104.459,0.0713094
,,,,,,,,,72,102.753,0.0455505
,,,,,,,,,85,165.279,0.0285141
,,,,,,,,,99,54.6016,0.0196603
,,,,,,,,,114,82.1577,0.0310904
,,,,,,,,,130,50.0813,0.0464829
,,,,,,,,,147,110.55,0.0389349
,,,,,,,,,165,129.556,0.0471026
,,,,,,,,,184,97.2827,0.0400434
,,,,,,,,,98,91.6886,0.045347
,,,,,,,,,113,53.2899,0.0264231
,,,,,,,,,129,143.251,0.0522302
,,,,,,,,,146,114.621,0.117715
,,,,,,,,,164,126.63,0.0789534
,,,,,,,,,183,75.9121,0.121772
,,,,,,,,,203,66.8868,0.083649
,,,,,,,,,128,136.791,0.0196223
,,,,,,,,,145,84.5518,0.0309955
,,,,,,,,,163,120.971,0.046271
,,,,,,,,,182,57.0857,0.0387861
,,,,,,,,,202,51.0977,0.046885
,,,,,,,,,223,85.6637,0.039886
,,,,,,,,,162,108.082,0.020809
,,,,,,,,,181,66.45,0.0267342
,,,,,,,,,201,120.473,0.0240524
,,,,,,,,,222,92.0657,0.026938
,,,,,,,,,244,59.2892,0.0244709
,,,,,,,,,200,42.5926,0.0534597
,,,,,,,,,221,28.88,0.0437134
,,,,,,,,,243,73.4042,0.054281
,,,,,,,,,266,76.3735,0.0451155
,,,,,,,,,242,65.1541,0.0817973
,,,,,,,,,265,83.8928,0.128672
,,,,,,,,,289,62.0543,0.0868481
,,,,,,,,,288,50.7174,0.0837358
,,,,,,,,,313,68.4955,0.0637553
,,,,,,,,,338,34.7253,0.0890365
