"cellPairingIds","interplanarAngles","angleWeights"
19,83.6562,0.0152658
26,75.2516,0.0208821
34,57.244,0.0202359
43,113.015,0.0203176
53,82.8658,0.0181946
76,110.693,0.0200949
73,53.6722,0.0327807
100,47.1262,0.036109
115,64.9052,0.0322049
72,69.1177,0.0764139
85,98.0267,0.0775921
184,82.6661,0.0751878
113,65.0023,0.0496031
146,98.5555,0.0668336
203,102.654,0.0674342
145,37.5024,0.0876687
223,82.7015,0.0683501
181,35.3071,0.0487645
200,59.1269,0.0836682
243,47.3054,0.0651303
266,74.5413,0.0846116
265,44.6637,0.0534443
289,86.5807,0.0658937
338,44.0024,0.0538276
