"cellPairingIds","interplanarAngles","angleWeights"
8,43.8262,0.0350212
13,61.1903,0.0406469
19,49.5603,0.0714424
26,63.7781,0.0688484
34,78.6608,0.0396892
18,52.426,0.0254894
25,46.8901,0.0349317
75,40.815,0.0381531
150,104.581,0.0163886
51,78.7887,0.0278756
74,47.1502,0.0484636
167,86.8498,0.0175236
50,52.5157,0.0685034
100,61.156,0.0858121
131,46.4353,0.0369637
72,80.1597,0.0387653
85,55.4328,0.0465818
147,67.869,0.0362569
247,109.002,0.0460373
98,43.3456,0.0311151
113,58.2125,0.0471083
203,60.509,0.0303475
246,89.4204,0.0398973
223,42.8963,0.0349369
268,81.0665,0.048226
292,98.893,0.0356329
267,64.1638,0.0235738
291,64.2699,0.101784
221,58.2085,0.0405902
290,70.4588,0.0227045
341,74.3724,0.0532564
394,58.1401,0.0292592
421,38.3036,0.0464066
450,32.9473,0.0216185
481,40.7032,0.018662
512,42.7001,0.0476426
