facetNormals:0,facetNormals:1,facetNormals:2,FacetCenters:0,FacetCenters:1,FacetCenters:2,FacetIds,relFacetSize,absFacetSize,cellPairingIds,interplanarAngles,angleWeights
-0.457233,-0.231093,-0.830739,6.88181,3.95719,8.85505,1,0.023879,0.00355396,8,55.903,0.0286783
0.442383,-0.396982,-0.777781,6.8526,3.93765,8.85259,2,0.035892,0.00534189,13,68.1128,0.0255729
0.463514,-0.714399,-0.485768,6.87254,3.90088,8.87528,3,0.0275256,0.0040967,19,90.9764,0.030957
0.838411,-0.0366174,-0.43237,6.91443,3.96109,8.89381,4,0.0439989,0.00654846,26,42.2302,0.0339936
-0.877341,-0.280826,-0.275421,6.84576,3.92271,8.92333,5,0.0589734,0.00877716,34,93.6545,0.0318678
0.584767,-0.779847,-0.0318829,6.89718,3.91916,8.94272,6,0.0478896,0.00712753,43,118.094,0.0343306
0.811301,0.500086,-0.0574095,6.91431,4.0396,8.94108,7,0.0610529,0.00908665,53,73.7558,0.0304992
-0.76606,0.582411,-0.0572004,6.9133,4.01024,8.93806,8,0.0421982,0.00628046,64,74.8183,0.0406393
-0.487433,-0.780919,0.195936,6.7799,3.92234,8.92991,9,0.136323,0.0202893,76,142.848,0.0356354
0.84237,-0.0905054,0.467786,6.91937,3.97924,8.99773,10,0.0701944,0.0104472,89,148.716,0.0287669
0.343713,0.680848,0.588933,6.87284,4.06197,9.01282,11,0.0361709,0.0053834,103,90.9272,0.03102
-0.76959,-0.268192,0.516526,6.79321,3.94991,8.99093,12,0.0442544,0.0065865,118,107.034,0.0190654
0.0375622,-0.816787,0.544669,6.84792,3.89596,9.00447,13,0.015867,0.00236152,134,108.818,0.0197208
-0.672931,0.265447,0.67026,6.81208,3.99935,9.02987,14,0.016796,0.00249979,151,154.53,0.021298
0.558054,-0.189295,0.79597,6.88748,3.98661,9.02938,15,0.0192205,0.00286063,169,138.996,0.0273619
0.349928,-0.447346,0.806258,6.88061,3.97688,9.02726,16,0.0320344,0.00476775,188,136.979,0.0260269
-0.254548,0.20368,0.929591,6.83827,4.02406,9.05569,17,0.0285994,0.00425652,208,145.989,0.0195042
0.0140898,-0.101638,0.984389,6.85026,3.99802,9.04492,18,0.0164842,0.00245339,18,25.4646,0.0311569
,,,,,,,,,25,38.6492,0.0395341
,,,,,,,,,33,93.8027,0.0446248
,,,,,,,,,42,51.594,0.0410318
,,,,,,,,,52,77.3277,0.0452073
,,,,,,,,,63,123.847,0.0387904
,,,,,,,,,75,93.6104,0.0568232
,,,,,,,,,88,87.2929,0.0474974
,,,,,,,,,102,127.658,0.0360309
,,,,,,,,,117,132.305,0.0396369
,,,,,,,,,133,94.937,0.0220058
,,,,,,,,,150,163.246,0.0228835
,,,,,,,,,168,107.844,0.0250347
,,,,,,,,,187,107.774,0.0338536
,,,,,,,,,207,161.879,0.0318334
,,,,,,,,,228,137.918,0.0225924
,,,,,,,,,32,47.5402,0.0338652
,,,,,,,,,41,94.3956,0.0375328
,,,,,,,,,51,28.0722,0.0349582
,,,,,,,,,62,87.1418,0.0379441
,,,,,,,,,74,141.863,0.033318
,,,,,,,,,87,75.1313,0.0458029
,,,,,,,,,101,76.1037,0.0395444
,,,,,,,,,116,130.47,0.0312615
,,,,,,,,,132,116.091,0.0339406
,,,,,,,,,149,69.5622,0.0201301
,,,,,,,,,167,148.815,0.0208621
,,,,,,,,,186,89.5727,0.0226353
,,,,,,,,,206,84.6516,0.0296093
,,,,,,,,,227,137.765,0.0280522
,,,,,,,,,249,114.283,0.0206198
,,,,,,,,,50,131.902,0.0503973
,,,,,,,,,61,54.655,0.0458619
,,,,,,,,,73,40.3702,0.0511416
,,,,,,,,,86,134.588,0.0430797
,,,,,,,,,100,121.541,0.0665261
,,,,,,,,,115,56.2707,0.054092
,,,,,,,,,131,89.458,0.0397027
,,,,,,,,,148,160.519,0.0441263
,,,,,,,,,166,100.819,0.0233231
,,,,,,,,,185,158.084,0.0243114
,,,,,,,,,205,81.9667,0.0267538
,,,,,,,,,226,92.3908,0.0370753
,,,,,,,,,248,132.044,0.0346659
,,,,,,,,,271,116.034,0.0239831
,,,,,,,,,72,107.711,0.0528567
,,,,,,,,,85,155.662,0.0599952
,,,,,,,,,99,55.5523,0.0491951
,,,,,,,,,114,49.0589,0.0823306
,,,,,,,,,130,154.876,0.0640965
,,,,,,,,,147,134.985,0.0448397
,,,,,,,,,165,49.0319,0.0505646
,,,,,,,,,184,87.184,0.025006
,,,,,,,,,204,69.553,0.0261456
,,,,,,,,,225,133.517,0.028992
,,,,,,,,,247,115.18,0.0415168
,,,,,,,,,270,95.4466,0.0385189
,,,,,,,,,294,105.54,0.0257663
,,,,,,,,,98,84.6845,0.053676
,,,,,,,,,113,163.263,0.0448641
,,,,,,,,,129,69.7488,0.0708796
,,,,,,,,,146,54.4876,0.0569354
,,,,,,,,,164,111.783,0.0412134
,,,,,,,,,183,105.872,0.0460003
,,,,,,,,,203,47.9644,0.0238364
,,,,,,,,,224,130.286,0.0248697
,,,,,,,,,246,62.3267,0.0274314
,,,,,,,,,269,56.7197,0.0383893
,,,,,,,,,293,110.556,0.0358121
,,,,,,,,,318,86.6671,0.0245262
,,,,,,,,,128,110.808,0.049904
,,,,,,,,,145,152.521,0.0843357
,,,,,,,,,163,48.5802,0.0653053
,,,,,,,,,182,50.4742,0.045428
,,,,,,,,,202,148.817,0.0513138
,,,,,,,,,223,115.868,0.0251879
,,,,,,,,,245,118.666,0.0263445
,,,,,,,,,268,70.7087,0.0292368
,,,,,,,,,292,89.1543,0.0420206
,,,,,,,,,317,99.6724,0.0389522
,,,,,,,,,343,95.8253,0.0259594
,,,,,,,,,162,95.8591,0.064447
,,,,,,,,,181,140.974,0.0527094
,,,,,,,,,201,83.8486,0.0389528
,,,,,,,,,222,64.2701,0.0432019
,,,,,,,,,244,124.441,0.0230623
,,,,,,,,,267,48.3534,0.0240282
,,,,,,,,,291,127.657,0.0264112
,,,,,,,,,316,127.194,0.0364205
,,,,,,,,,342,74.082,0.0340928
,,,,,,,,,369,97.6066,0.0237074
,,,,,,,,,200,105.817,0.0926712
,,,,,,,,,221,130.072,0.0571722
,,,,,,,,,243,40.9619,0.0668178
,,,,,,,,,266,38.2399,0.0284255
,,,,,,,,,290,74.2435,0.0299072
,,,,,,,,,315,88.0468,0.0336908
,,,,,,,,,341,68.7279,0.051878
,,,,,,,,,368,80.8674,0.0472799
,,,,,,,,,396,73.4475,0.0294119
,,,,,,,,,242,57.3291,0.047741
,,,,,,,,,265,114.173,0.0542848
,,,,,,,,,289,67.7283,0.0258832
,,,,,,,,,314,106.893,0.0271061
,,,,,,,,,340,26.257,0.0301778
,,,,,,,,,367,41.7189,0.0439922
,,,,,,,,,395,77.7678,0.0406406
,,,,,,,,,424,59.818,0.0266986
,,,,,,,,,288,98.8422,0.0398064
,,,,,,,,,313,103.588,0.0220579
,,,,,,,,,339,68.766,0.0229399
,,,,,,,,,366,56.1409,0.0251022
,,,,,,,,,394,72.1985,0.0339772
,,,,,,,,,423,50.9012,0.0319426
,,,,,,,,,453,57.289,0.0226473
,,,,,,,,,338,60.1737,0.0233589
,,,,,,,,,365,33.5635,0.0243503
,,,,,,,,,393,88.055,0.0268009
,,,,,,,,,422,73.6969,0.0371657
,,,,,,,,,452,49.172,0.0347449
,,,,,,,,,483,56.6583,0.0240209
,,,,,,,,,392,82.7077,0.0163183
,,,,,,,,,421,51.2425,0.0173835
,,,,,,,,,451,32.4446,0.0212223
,,,,,,,,,482,70.0388,0.0204103
,,,,,,,,,514,50.407,0.0161697
,,,,,,,,,450,83.6674,0.0179267
,,,,,,,,,481,78.9639,0.0220375
,,,,,,,,,513,29.1518,0.0211632
,,,,,,,,,546,50.3098,0.0166387
,,,,,,,,,512,19.319,0.0240257
,,,,,,,,,545,55.0191,0.0229902
,,,,,,,,,579,34.205,0.0177475
,,,,,,,,,578,54.127,0.0302196
,,,,,,,,,613,30.1453,0.0217674
,,,,,,,,,648,23.9844,0.020914
