"cellPairingIds","interplanarAngles","angleWeights"
8,48.8318,0.0414499
26,66.6171,0.0128984
34,67.751,0.0394083
64,87.713,0.0542148
76,70.7558,0.0555547
33,99.083,0.0137366
42,33.1722,0.0484388
63,44.4869,0.0442164
75,50.7329,0.0729162
85,101.681,0.0143405
99,127.739,0.0131545
130,132.899,0.0149986
147,117.879,0.0140842
165,124.12,0.0134343
184,119.116,0.0119925
129,20.2945,0.0668261
128,33.7066,0.0511504
182,41.3696,0.0688136
162,33.9798,0.059047
201,54.1679,0.0480326
200,39.9136,0.131768
221,73.524,0.0839102
243,84.5546,0.0651365
266,89.8069,0.0411494
265,72.8095,0.0670803
313,48.4949,0.0354796
338,33.7539,0.0316255
