"cellPairingIds","interplanarAngles","angleWeights"
8,63.1613,0.0590836
13,61.6464,0.157266
19,59.8626,0.0808564
34,67.1025,0.099324
43,93.3066,0.0139025
18,42.0437,0.0595949
25,57.8233,0.043881
33,29.8458,0.047293
75,55.3045,0.021486
88,79.7756,0.0437489
41,44.8129,0.0945334
62,44.9972,0.0139306
61,35.7428,0.0627676
115,36.6169,0.0546443
85,68.9433,0.0131321
99,33.677,0.0274587
114,45.7466,0.0247891
165,59.8773,0.0347878
98,159.279,0.0132461
146,41.0209,0.0624976
203,72.4789,0.088639
224,127.39,0.0330763
246,101.424,0.0235196
128,63.5844,0.0102434
245,70.6194,0.0108584
222,41.4071,0.019912
267,57.828,0.0190972
291,65.1289,0.0154683
200,46.3196,0.0237794
243,26.9739,0.0184696
266,45.6333,0.026785
289,39.1469,0.0732596
338,31.2972,0.0388504
393,42.7606,0.0175513
421,36.6901,0.024896
450,27.847,0.0169152
