"cellPairingIds","interplanarAngles","angleWeights"
8,35.7092,0.0273115
13,36.0141,0.0272772
26,38.0376,0.0247903
18,57.4155,0.0525304
25,47.313,0.0649271
33,69.4349,0.0440253
42,60.3577,0.0308092
52,130.34,0.0776778
63,83.7335,0.0633062
41,57.7413,0.0439362
62,101.108,0.0774009
87,81.6413,0.0666571
50,47.7175,0.052286
61,24.5056,0.034639
86,54.1043,0.0819163
115,78.0407,0.109527
114,95.4006,0.0535337
130,41.4939,0.0608179
113,29.7654,0.0341723
128,119.36,0.103312
145,46.2687,0.113131
182,53.0842,0.026094
181,96.5542,0.104992
201,92.7676,0.0242451
200,65.2419,0.115149
221,44.6457,0.0247492
242,67.6827,0.0261999
