"cellPairingIds","interplanarAngles","angleWeights"
8,28.0802,0.0180469
13,45.026,0.0119712
26,37.6581,0.0219209
34,51.4125,0.01853
43,81.8392,0.021759
53,55.4062,0.0169209
64,107.837,0.021896
25,28.115,0.0239401
52,56.3358,0.0288092
63,47.0547,0.0208979
51,43.4191,0.0141159
87,121.787,0.0159883
132,54.2249,0.0176226
149,63.127,0.0118907
206,99.8761,0.0150465
227,94.1984,0.0163344
73,32.5325,0.030943
86,51.5933,0.0219983
131,57.3887,0.0401192
205,53.2563,0.0209495
72,32.9208,0.0303701
99,26.068,0.0262751
113,55.296,0.0215484
183,39.6448,0.036794
224,54.539,0.0297011
145,37.9479,0.0400477
182,36.2095,0.0559722
267,36.7094,0.0257728
291,57.2093,0.0185823
369,55.5743,0.0326188
200,19.7451,0.0424057
221,43.2612,0.0568877
341,56.3665,0.034968
242,50.0665,0.0606888
367,39.2268,0.0363681
485,47.0014,0.040098
517,55.1248,0.0463524
366,32.6269,0.030046
453,56.4945,0.0987665
516,52.3867,0.0528104
338,38.9327,0.0247308
365,66.6505,0.0510937
515,37.4453,0.0108137
582,87.8908,0.0592619
617,53.8749,0.0172464
482,39.2263,0.0222664
616,63.1868,0.0226101
546,38.1692,0.0558071
580,50.9663,0.0101045
688,65.55,0.0155102
579,29.2579,0.0303647
578,22.2968,0.0366672
724,41.6212,0.0376085
762,34.0286,0.0468394
761,64.129,0.0538032
801,78.1911,0.0656977
842,64.4085,0.0177525
883,21.773,0.00727923
882,22.6777,0.0416112
968,41.8004,0.0161875
