"cellPairingIds","interplanarAngles","angleWeights"
8,51.6105,0.0634179
13,63.8572,0.0577899
26,88.18,0.0422062
43,103.852,0.0438692
53,101.503,0.0564764
18,54.5551,0.112278
25,73.7789,0.0813874
42,70.2227,0.10043
63,125.862,0.107424
75,103.475,0.0919813
32,47.0521,0.0723456
41,45.7283,0.0594133
50,57.5853,0.0494763
61,71.5525,0.0672347
166,68.6083,0.0146763
85,30.2531,0.0447984
184,90.736,0.0140557
129,55.3375,0.0743045
203,62.4052,0.0151959
128,99.0038,0.0612162
202,46.7183,0.0428505
223,76.2641,0.0142354
162,37.1805,0.0780648
222,67.7008,0.0547992
244,81.0804,0.0153471
266,69.2346,0.0149876
338,39.7676,0.013858
