"cellPairingIds","interplanarAngles","angleWeights"
8,79.1969,0.0651988
13,41.5099,0.0491333
19,49.8065,0.0912691
26,110.544,0.0997588
34,89.7512,0.0581103
43,143.995,0.060767
64,119.396,0.105332
33,119.271,0.0645362
52,64.9041,0.0456052
62,112.1,0.0371162
87,105.213,0.0500505
101,130.091,0.0469219
61,56.5916,0.0546491
100,71.4326,0.0944853
72,47.1455,0.0575833
85,90.3373,0.060191
130,77.8819,0.0910465
129,65.6075,0.0593975
146,96.3065,0.0550422
163,32.3541,0.05742
200,58.6953,0.0956666
