"cellPairingIds","interplanarAngles","angleWeights"
8,37.0089,0.0268158
13,26.8901,0.0278717
19,45.4871,0.0196001
53,82.2216,0.0335496
76,95.6753,0.0172374
89,132.719,0.0177182
25,34.0394,0.0243518
33,30.2948,0.0530017
102,113.233,0.0215129
32,25.4361,0.0252194
74,77.3169,0.0542351
87,64.292,0.036971
50,35.3808,0.0306784
61,22.5526,0.0206068
73,39.0854,0.025707
100,73.1299,0.0237024
148,78.6915,0.0208368
147,103.364,0.0263053
165,55.264,0.0387679
98,28.4431,0.0306428
183,62.8113,0.0239658
203,41.3416,0.0294285
269,66.2741,0.0325731
145,36.4804,0.0380283
292,64.8743,0.0474556
162,34.8778,0.0476732
181,24.9421,0.0246469
267,54.3773,0.0313551
291,57.6152,0.0695791
315,36.1462,0.0435121
341,66.7215,0.0410471
242,100.11,0.0148797
314,34.9065,0.0166391
288,72.684,0.0187228
339,71.5804,0.0170866
423,50.5786,0.0279604
338,31.7068,0.0299
422,41.9532,0.0331517
452,44.9042,0.0424731
451,28.0713,0.0446052
450,61.5954,0.0294997
513,64.6141,0.0348933
512,34.3332,0.0563118
545,62.3949,0.089781
578,39.0988,0.0798826
