facetNormals:0,facetNormals:1,facetNormals:2,FacetCenters:0,FacetCenters:1,FacetCenters:2,FacetIds,relFacetSize,absFacetSize,cellPairingIds,interplanarAngles,angleWeights
0.105402,0.128129,-0.936776,6.40175,5.43339,5.78543,1,0.103002,0.0241443,8,43.0323,0.115952
0.723014,0.0667289,-0.616717,6.48596,5.40311,5.78803,2,0.132626,0.0310884,13,46.1456,0.10506
-0.488339,0.497015,-0.664362,6.37391,5.46133,5.78152,3,0.107202,0.0251289,19,92.6279,0.0692454
-0.893616,0.190992,-0.0318467,6.36195,5.44239,5.81146,4,0.0521532,0.012225,26,75.1752,0.0746221
0.53169,0.771955,-0.0790199,6.4754,5.50152,5.84003,5,0.0585028,0.0137134,34,79.4588,0.0506366
-0.593101,-0.672759,-0.336738,6.38572,5.36439,5.78052,6,0.0335699,0.00786898,43,100.742,0.0541575
-0.00801341,-0.971126,0.0503477,6.43317,5.29625,5.79704,7,0.0367367,0.00861129,53,94.3061,0.0864084
0.80737,-0.453765,0.0998074,6.51508,5.38143,5.85075,8,0.0744193,0.0174443,64,108.671,0.0195105
0.893008,-0.076126,0.410571,6.52534,5.40887,5.85022,9,0.0107758,0.00252591,76,130.794,0.0403366
-0.00384509,-0.813713,0.534086,6.41443,5.30144,5.82862,10,0.0250789,0.00587864,89,136.434,0.0374627
-0.610897,-0.494451,0.584272,6.3351,5.32743,5.81676,11,0.0228949,0.00536669,103,116.233,0.0611224
-0.01498,0.798233,0.540216,6.429,5.54761,5.87951,12,0.0434542,0.0101859,118,138.611,0.0572237
0.535924,-0.284171,0.765755,6.52133,5.44046,5.92605,13,0.0396165,0.00928633,134,145.319,0.0698845
-0.477405,0.253489,0.759418,6.40321,5.48327,5.86772,14,0.0528817,0.0123958,18,84.3803,0.118567
,,,,,,,,,25,134.794,0.0748664
,,,,,,,,,33,57.2589,0.0811913
,,,,,,,,,42,106.948,0.0535782
,,,,,,,,,52,96.2992,0.0575362
,,,,,,,,,63,56.3359,0.0953409
,,,,,,,,,75,65.6395,0.0199321
,,,,,,,,,88,114.631,0.0421815
,,,,,,,,,102,153.513,0.0390488
,,,,,,,,,117,108.456,0.0654606
,,,,,,,,,133,96.3999,0.0610091
,,,,,,,,,150,153.775,0.0756141
,,,,,,,,,32,51.1266,0.0701695
,,,,,,,,,41,78.7598,0.0756963
,,,,,,,,,51,78.8105,0.051129
,,,,,,,,,62,123.167,0.0547212
,,,,,,,,,74,139.912,0.0878521
,,,,,,,,,87,141.883,0.0195832
,,,,,,,,,101,143.924,0.0406485
,,,,,,,,,116,110.851,0.0377315
,,,,,,,,,132,87.2115,0.0618412
,,,,,,,,,149,165.779,0.0578533
,,,,,,,,,167,99.3246,0.0708258
,,,,,,,,,50,112.214,0.0551458
,,,,,,,,,61,61.9257,0.0408473
,,,,,,,,,73,101.674,0.0431081
,,,,,,,,,86,162.281,0.0613278
,,,,,,,,,100,156.341,0.0178612
,,,,,,,,,115,100.946,0.0338705
,,,,,,,,,131,61.0915,0.0318207
,,,,,,,,,148,80.2914,0.047408
,,,,,,,,,166,128.624,0.0450285
,,,,,,,,,185,58.064,0.052515
,,,,,,,,,72,153.729,0.0426605
,,,,,,,,,85,145.948,0.0451325
,,,,,,,,,99,85.346,0.0655081
,,,,,,,,,114,65.5651,0.0181994
,,,,,,,,,130,137.256,0.0351078
,,,,,,,,,147,144.791,0.0329104
,,,,,,,,,165,51.4137,0.0498679
,,,,,,,,,184,89.684,0.047242
,,,,,,,,,204,97.7445,0.0555504
,,,,,,,,,98,46.513,0.0350819
,,,,,,,,,113,103.425,0.0462685
,,,,,,,,,129,130.767,0.0163147
,,,,,,,,,146,66.6307,0.0287097
,,,,,,,,,164,57.9234,0.0272233
,,,,,,,,,183,140.253,0.0378778
,,,,,,,,,203,114.26,0.0363434
,,,,,,,,,224,99.2221,0.0410688
,,,,,,,,,128,60.9964,0.0491906
,,,,,,,,,145,84.7666,0.0166637
,,,,,,,,,163,30.3118,0.0298085
,,,,,,,,,182,57.3006,0.0282093
,,,,,,,,,202,142.919,0.0398141
,,,,,,,,,223,70.9405,0.0381223
,,,,,,,,,245,103.013,0.0433549
,,,,,,,,,162,29.8445,0.0188257
,,,,,,,,,181,62.4445,0.0375153
,,,,,,,,,201,103.344,0.0350169
,,,,,,,,,222,110.904,0.0548695
,,,,,,,,,244,45.4791,0.0517071
,,,,,,,,,267,119.28,0.0618286
,,,,,,,,,200,73.1715,0.0150745
,,,,,,,,,221,106.118,0.0146543
,,,,,,,,,243,81.0613,0.0172692
,,,,,,,,,266,32.2347,0.0169431
,,,,,,,,,290,98.3742,0.0179034
,,,,,,,,,242,41.2422,0.0239371
,,,,,,,,,265,112.625,0.0318031
,,,,,,,,,289,47.8457,0.0307143
,,,,,,,,,314,77.19,0.0340227
,,,,,,,,,288,94.2465,0.0299892
,,,,,,,,,313,74.1979,0.0290192
,,,,,,,,,339,48.0681,0.031955
,,,,,,,,,338,79.0543,0.0414467
,,,,,,,,,365,46.3926,0.0477067
,,,,,,,,,392,73.827,0.0452979
