"cellPairingIds","interplanarAngles","angleWeights"
8,65.9205,0.0614328
13,81.9031,0.0378338
19,49.2108,0.0545157
26,88.6522,0.0269178
64,101.327,0.0450721
118,103.989,0.0698596
18,99,0.041193
33,30.6885,0.0285758
52,82.3463,0.0836524
51,19.622,0.0184137
62,38.1577,0.0452331
87,55.954,0.0331294
50,74.2882,0.0269832
131,56.3126,0.072668
166,68.2408,0.0703016
85,95.2482,0.0304633
130,62.3696,0.0252497
147,58.0123,0.030705
204,60.6316,0.0237503
98,39.4847,0.0238176
113,25.0069,0.0142768
129,42.2103,0.0199749
183,58.2385,0.0167738
163,51.1944,0.0603719
202,54.9536,0.0364739
245,87.9853,0.0524541
268,69.4624,0.0149729
162,37.2526,0.0217766
222,36.0236,0.0180262
243,64.9188,0.0281739
266,66.1708,0.0553473
341,67.2024,0.0347234
314,38.5076,0.0386962
313,55.8976,0.10275
339,52.5326,0.0531749
393,26.3131,0.0118458
422,36.1204,0.0260736
392,81.7977,0.0518966
451,54.3943,0.0477857
450,26.4279,0.0131465
481,44.0989,0.033333
512,32.4139,0.0128661
