Q	U	V
{$V$}	{[mm$^3$]}	0.00141306
{$d_v$}	{[mm]}	0.139226
{$S_c$}	{[mm$^2$]}	0.0825571
{$S_o$}	{[mm$^2$]}	0.0500348
{$S_l/S_o$}	[]	0.649994
{$\Psi$}	[]	0.737627
{$\eta$}	[]	0.747097
{med($\theta_e$)}	{[$^\circ$]}	45.6162
{$\Upsilon$}	[]	19
{$\Xi$}	[]	3
