facetNormals:0,facetNormals:1,facetNormals:2,FacetCenters:0,FacetCenters:1,FacetCenters:2,FacetIds,relFacetSize,absFacetSize,cellPairingIds,interplanarAngles,angleWeights
-0.317859,0.248543,-0.893543,5.32055,6.95882,8.11261,1,0.0223818,0.00151621,8,52.6221,0.0219782
0.475293,-0.114714,-0.859841,5.33842,6.95237,8.10936,2,0.0215889,0.00146249,13,43.7247,0.0232613
-0.319242,-0.472158,-0.790554,5.28854,6.92965,8.10771,3,0.0242126,0.00164023,19,47.0104,0.0128471
0.46462,0.282963,-0.827443,5.33164,6.96536,8.10868,4,0.00900916,0.000610305,26,65.497,0.0177143
0.371227,-0.548375,-0.734689,5.32192,6.94531,8.12058,5,0.0146576,0.000992943,34,41.2308,0.0383297
-0.762084,0.410917,-0.402478,5.26982,7.00231,8.17794,6,0.133339,0.00903272,43,55.5958,0.0363923
0.136674,0.865588,-0.406825,5.30547,7.00157,8.14451,7,0.097299,0.0065913,53,90.4327,0.0266176
0.430801,-0.798992,-0.367378,5.33486,6.91857,8.13622,8,0.0328309,0.00222405,64,73.1796,0.026634
-0.949402,-0.253699,-0.0451864,5.25875,6.97722,8.18703,9,0.0328807,0.00222743,76,121.303,0.0119057
0.729153,-0.650459,0.120988,5.3388,6.94032,8.18344,10,0.00810979,0.000549379,89,100.452,0.0401147
-0.34471,-0.903704,0.0642064,5.29209,6.95244,8.16502,11,0.193128,0.013083,103,110.924,0.0120258
0.886101,0.385938,0.177167,5.33176,6.98635,8.18729,12,0.00822162,0.000556955,118,77.77,0.0307781
-0.404397,0.859791,0.159091,5.26392,7.01484,8.21232,13,0.0492557,0.00333672,134,125.261,0.0346756
-0.41254,-0.671652,0.579719,5.29092,6.95564,8.2477,14,0.076933,0.00521165,151,116.578,0.0357481
-0.670233,-0.125869,0.674165,5.27671,6.99011,8.2711,15,0.0887474,0.00601199,18,52.8488,0.0228256
,,,,,,,,,25,23.2665,0.0127131
,,,,,,,,,33,27.083,0.0174605
,,,,,,,,,42,93.8422,0.037161
,,,,,,,,,52,70.7244,0.0353371
,,,,,,,,,63,50.7921,0.0260487
,,,,,,,,,75,113.197,0.0260644
,,,,,,,,,88,70.9949,0.0117905
,,,,,,,,,102,96.9114,0.0388364
,,,,,,,,,117,76.642,0.0119083
,,,,,,,,,133,116.664,0.03002
,,,,,,,,,150,129.644,0.0337163
,,,,,,,,,168,158.712,0.0347294
,,,,,,,,,32,67.3145,0.0131321
,,,,,,,,,41,41.5663,0.0182607
,,,,,,,,,51,66.741,0.0409832
,,,,,,,,,62,97.9794,0.038776
,,,,,,,,,74,56.255,0.0278707
,,,,,,,,,87,61.4239,0.0278887
,,,,,,,,,101,91.2722,0.01215
,,,,,,,,,116,59.0414,0.0430305
,,,,,,,,,132,129.193,0.0122751
,,,,,,,,,149,115.393,0.032466
,,,,,,,,,167,90.5692,0.036833
,,,,,,,,,186,106.125,0.0380455
,,,,,,,,,50,50.3316,0.0111593
,,,,,,,,,61,84.2197,0.0168779
,,,,,,,,,73,47.6054,0.0164913
,,,,,,,,,86,73.337,0.0141385
,,,,,,,,,100,119.217,0.0141432
,,,,,,,,,115,86.789,0.00853585
,,,,,,,,,131,119.248,0.0172152
,,,,,,,,,148,67.3757,0.00859739
,,,,,,,,,166,94.5839,0.0152322
,,,,,,,,,185,152.753,0.0161295
,,,,,,,,,205,162.343,0.0163578
,,,,,,,,,72,103.007,0.0264118
,,,,,,,,,85,97.5187,0.0254771
,,,,,,,,,99,26.3439,0.0202669
,,,,,,,,,114,100.668,0.0202763
,,,,,,,,,130,56.43,0.0104421
,,,,,,,,,147,70.4754,0.0272472
,,,,,,,,,165,90.758,0.0105344
,,,,,,,,,184,140.808,0.0225921
,,,,,,,,,204,102.577,0.0246237
,,,,,,,,,225,135.379,0.0251597
,,,,,,,,,98,63.2451,0.112503
,,,,,,,,,113,122.966,0.0526887
,,,,,,,,,129,47.2597,0.0527528
,,,,,,,,,146,158.007,0.0152896
,,,,,,,,,164,98.3555,0.157758
,,,,,,,,,183,128.811,0.0154882
,,,,,,,,,203,49.493,0.0719375
,,,,,,,,,224,102.043,0.0975704
,,,,,,,,,246,78.1691,0.106566
,,,,,,,,,128,120.717,0.0490958
,,,,,,,,,145,110.379,0.0491515
,,,,,,,,,163,122.607,0.0149717
,,,,,,,,,182,155.987,0.129404
,,,,,,,,,202,66.2004,0.0151621
,,,,,,,,,223,47.8809,0.0654026
,,,,,,,,,245,157.537,0.0859257
,,,,,,,,,268,120.831,0.0928266
,,,,,,,,,162,101.357,0.0328558
,,,,,,,,,181,35.0423,0.0130067
,,,,,,,,,201,54.5935,0.0561214
,,,,,,,,,222,89.5067,0.0131501
,,,,,,,,,244,167.113,0.0394001
,,,,,,,,,267,81.2386,0.0460221
,,,,,,,,,291,117.654,0.0479305
,,,,,,,,,200,123.366,0.0130106
,,,,,,,,,221,54.5088,0.0561942
,,,,,,,,,243,168.485,0.0131541
,,,,,,,,,266,80.3651,0.0394359
,,,,,,,,,290,56.1714,0.046071
,,,,,,,,,315,47.4613,0.0479836
,,,,,,,,,242,68.8573,0.0155659
,,,,,,,,,265,64.4999,0.00816532
,,,,,,,,,289,151.665,0.0139266
,,,,,,,,,314,77.6398,0.0146729
,,,,,,,,,340,110.152,0.0148615
,,,,,,,,,288,132.448,0.0157718
,,,,,,,,,313,132.208,0.0784926
,,,,,,,,,339,33.9901,0.110034
,,,,,,,,,366,65.324,0.121611
,,,,,,,,,338,89.8986,0.0140912
,,,,,,,,,365,122.888,0.0148557
,,,,,,,,,393,123.717,0.0150491
,,,,,,,,,392,109.743,0.0600591
,,,,,,,,,421,73.0015,0.063351
,,,,,,,,,450,36.7432,0.0824189
