facetNormals:0,facetNormals:1,facetNormals:2,FacetCenters:0,FacetCenters:1,FacetCenters:2,FacetIds,relFacetSize,absFacetSize,cellPairingIds,interplanarAngles,angleWeights
-0.270289,-0.461646,-0.786926,3.77507,4.58757,7.18478,1,0.048254,0.0074401,8,47.3577,0.0264428
0.4755,-0.263552,-0.803115,3.77483,4.63817,7.21194,2,0.0182112,0.00280791,13,51.6435,0.0151585
-0.898909,-0.021736,-0.424663,3.80434,4.65856,7.33056,3,0.00899156,0.00138638,19,105.509,0.0708105
0.730115,0.540066,-0.262,3.80283,4.66818,7.19687,4,0.132966,0.0205015,26,114.335,0.0622362
0.304444,0.89795,-0.152815,3.77463,4.69658,7.24381,5,0.0876274,0.0135109,34,71.3629,0.0385452
-0.907926,-0.332995,0.130135,3.73406,4.5987,7.26103,6,0.0320889,0.00494767,43,84.0399,0.0476715
-0.92392,0.269267,0.0384522,3.7324,4.66039,7.30729,7,0.0471029,0.00726262,53,93.1172,0.0734524
0.667162,-0.611072,0.190116,3.79393,4.58614,7.22078,8,0.153732,0.0237034,64,90.2767,0.0393007
0.120125,-0.861747,0.470055,3.773,4.56011,7.2514,9,0.0331499,0.00511125,76,85.3569,0.0319255
-0.234484,-0.841689,0.476878,3.74645,4.56866,7.26754,10,0.0238538,0.00367792,89,157.022,0.0186308
0.193791,0.784496,0.58153,3.76314,4.69409,7.27965,11,0.011544,0.00177992,103,142.507,0.0373631
-0.24154,0.745918,0.582414,3.75243,4.70142,7.31101,12,0.0304831,0.00470007,118,98.5581,0.041833
-0.480501,-0.534977,0.653756,3.74019,4.60314,7.29451,13,0.0369202,0.00569258,134,143.049,0.0369465
-0.0982331,0.010722,0.960326,3.77988,4.64117,7.31348,14,0.0299324,0.00461517,18,94.797,0.012039
,,,,,,,,,25,63.0636,0.0320348
,,,,,,,,,33,88.1028,0.0301553
,,,,,,,,,42,118.288,0.0232356
,,,,,,,,,52,125.407,0.0262669
,,,,,,,,,63,68.7057,0.0325647
,,,,,,,,,75,95.581,0.023508
,,,,,,,,,88,106.406,0.020654
,,,,,,,,,102,127.043,0.0141306
,,,,,,,,,117,145.346,0.0228007
,,,,,,,,,133,130.533,0.0243912
,,,,,,,,,150,151.243,0.0226449
,,,,,,,,,32,126.326,0.0168441
,,,,,,,,,41,103.83,0.0163096
,,,,,,,,,51,37.664,0.014047
,,,,,,,,,62,32.4345,0.0151005
,,,,,,,,,74,136.53,0.0169894
,,,,,,,,,87,107.082,0.0141461
,,,,,,,,,101,88.4623,0.0130602
,,,,,,,,,116,116.272,0.0101091
,,,,,,,,,132,92.7395,0.0138869
,,,,,,,,,149,80.1135,0.0144612
,,,,,,,,,167,109.455,0.013829
,,,,,,,,,50,34.5928,0.105637
,,,,,,,,,61,161.933,0.0517008
,,,,,,,,,73,126.323,0.0695632
,,,,,,,,,86,82.9481,0.142597
,,,,,,,,,100,122.4,0.053069
,,,,,,,,,115,142.931,0.0404508
,,,,,,,,,131,63.9797,0.0212436
,,,,,,,,,148,85.4085,0.049596
,,,,,,,,,166,151.997,0.0577931
,,,,,,,,,185,110.364,0.0488647
,,,,,,,,,72,129.438,0.0469755
,,,,,,,,,85,92.8115,0.0612706
,,,,,,,,,99,114.959,0.111627
,,,,,,,,,114,148.415,0.0481024
,,,,,,,,,130,160.305,0.0374995
,,,,,,,,,147,45.129,0.0204004
,,,,,,,,,165,57.2632,0.0452314
,,,,,,,,,184,141.119,0.0519515
,,,,,,,,,204,100.379,0.0446224
,,,,,,,,,98,36.6304,0.0381727
,,,,,,,,,113,114.739,0.0530951
,,,,,,,,,129,75.6563,0.0326108
,,,,,,,,,146,55.1356,0.0273652
,,,,,,,,,164,111.847,0.0169796
,,,,,,,,,183,87.191,0.0312654
,,,,,,,,,203,42.4718,0.0343354
,,,,,,,,,224,77.0823,0.0309732
,,,,,,,,,128,150.328,0.0721112
,,,,,,,,,145,109.948,0.0389134
,,,,,,,,,163,89.5014,0.0316695
,,,,,,,,,182,86.7385,0.0185433
,,,,,,,,,202,61.6694,0.0370129
,,,,,,,,,223,69.6806,0.0413945
,,,,,,,,,245,81.9272,0.0366041
,,,,,,,,,162,40.4132,0.0545392
,,,,,,,,,181,60.8277,0.0412993
,,,,,,,,,201,105.085,0.0214753
,,,,,,,,,222,124.101,0.0508777
,,,,,,,,,244,81.64,0.059541
,,,,,,,,,267,82.8889,0.0501084
,,,,,,,,,200,20.6223,0.0277438
,,,,,,,,,221,112.666,0.0171246
,,,,,,,,,243,114.337,0.0317606
,,,,,,,,,266,42.3225,0.0349336
,,,,,,,,,290,63.2062,0.0314591
,,,,,,,,,242,115.615,0.0155585
,,,,,,,,,265,107.568,0.026764
,,,,,,,,,289,25.2827,0.0289823
,,,,,,,,,314,60.5844,0.0265496
,,,,,,,,,288,25.5819,0.0167462
,,,,,,,,,313,97.8786,0.0175885
,,,,,,,,,339,55.2503,0.016662
,,,,,,,,,338,84.088,0.0333942
,,,,,,,,,365,51.1839,0.0302052
,,,,,,,,,392,44.4911,0.0330611
