Q	U	V
{$V$}	{[mm$^3$]}	0.00623766
{$d_v$}	{[mm]}	0.228389
{$S_c$}	{[mm$^2$]}	0.243356
{$S_o$}	{[mm$^2$]}	0.167017
{$S_l/S_o$}	[]	0.457073
{$\Psi$}	[]	0.673374
{$\eta$}	[]	0.710416
{med($\theta_e$)}	{[$^\circ$]}	60.1998
{$\Upsilon$}	[]	18
{$\Xi$}	[]	7
