"cellPairingIds","interplanarAngles","angleWeights"
8,30.9325,0.0268443
13,29.4473,0.0337367
26,52.5704,0.0304218
43,74.9078,0.0337746
76,85.5347,0.0385034
103,66.2512,0.0397506
18,27.9806,0.032769
33,23.7408,0.0296327
133,64.5795,0.0370599
74,50.7849,0.049852
132,82.3629,0.0542841
149,80.1169,0.0516188
72,20.3064,0.0205081
85,65.3495,0.0383102
184,44.8655,0.0442426
98,57.5745,0.021979
203,33.9972,0.0238107
224,61.9944,0.0178451
163,44.6872,0.0520745
245,39.241,0.0299587
222,73.2394,0.0642056
244,99.5534,0.0605102
291,82.2589,0.0591707
342,83.2607,0.0372798
200,30.1384,0.0505352
243,33.7843,0.0527056
290,86.8973,0.0294427
315,30.8146,0.0492645
341,103.257,0.0437884
265,55.4968,0.0677872
314,61.7472,0.0336214
393,39.1648,0.0655201
392,70.6546,0.033468
451,62.0605,0.0533273
482,91.3504,0.0382591
481,42.9797,0.0304953
512,100.171,0.0522842
545,67.471,0.0377192
578,53.3796,0.0344232
