"cellPairingIds","interplanarAngles","angleWeights"
50,50.036,0.0390081
73,81.1377,0.0251873
100,25.1007,0.0151367
72,32.1404,0.0507533
85,91.8857,0.0308645
99,46.2443,0.0380325
114,60.0387,0.0170179
184,42.8492,0.0550512
129,30.076,0.0166301
203,38.58,0.0511897
128,67.7091,0.0247769
145,103.967,0.0137309
202,86.2855,0.0249719
292,80.8075,0.0366887
343,107.63,0.024836
244,74.3803,0.038277
369,130.649,0.029276
243,43.6338,0.0150587
266,61.9594,0.0170667
290,56.1497,0.0159001
365,79.9833,0.0332125
422,41.0093,0.0479964
452,53.1444,0.0259709
483,93.338,0.0295486
392,37.9223,0.0448514
514,115.977,0.0384183
513,57.9824,0.0285795
546,87.7914,0.0329726
613,57.4124,0.0474971
648,48.875,0.025824
