Q	U	V
{$V$}	{[mm$^3$]}	0.00193791
{$d_v$}	{[mm]}	0.154684
{$S_c$}	{[mm$^2$]}	0.164892
{$S_o$}	{[mm$^2$]}	0.0853612
{$S_l/S_o$}	[]	0.931697
{$\Psi$}	[]	0.455869
{$\eta$}	[]	0.493904
{med($\theta_e$)}	{[$^\circ$]}	
{$\Upsilon$}	[]	14
{$\Xi$}	[]	4
