"cellPairingIds","interplanarAngles","angleWeights"
8,32.9697,0.00815121
13,34.8338,0.0110037
19,63.4585,0.01851
26,90.5313,0.0142496
43,117.028,0.0193536
64,132.054,0.0181873
89,118.867,0.0195213
18,47.6198,0.00813829
42,89.6203,0.0119859
52,112.368,0.0119521
63,45.25,0.00583979
133,135.313,0.0121704
273,110.788,0.0106381
32,51.2227,0.0184435
74,38.9112,0.00717171
167,105.48,0.0159302
186,54.3458,0.0182813
249,86.476,0.0116972
50,36.3429,0.0298346
185,70.5402,0.0385806
147,36.7188,0.0325526
204,54.7285,0.0237686
247,60.0453,0.0149209
98,28.7103,0.080515
203,49.6783,0.0915807
145,31.1267,0.0626199
223,39.7778,0.0896438
291,45.935,0.00970271
426,78.0014,0.00904464
221,30.9788,0.06441
266,35.2708,0.0691149
341,46.1724,0.0192954
394,39.8788,0.0208036
451,46.7525,0.0212713
581,56.4136,0.0465331
481,23.0321,0.0168289
546,27.3622,0.0174854
615,63.2714,0.0294987
579,35.7073,0.0203593
650,64.1901,0.0387194
686,62.4258,0.0169931
761,52.5113,0.0176628
