"cellPairingIds","interplanarAngles","angleWeights"
8,36.0278,0.0364162
13,72.3436,0.0647416
19,80.9375,0.0765515
26,74.9901,0.0587367
34,53.7191,0.0349006
18,85.1909,0.0374794
42,37.2394,0.0250701
88,114.799,0.0297984
102,82.472,0.0401195
32,49.1155,0.0814056
87,68.4605,0.0576586
101,89.4332,0.0464153
50,29.663,0.0721329
86,49.0235,0.0991512
100,65.9889,0.0668424
148,73.8573,0.0712463
72,107.531,0.0339524
85,76.0245,0.0244011
99,39.4015,0.0711863
184,85.4949,0.0516956
98,35.4545,0.019008
164,59.2402,0.0382877
182,74.8071,0.0265626
223,85.2502,0.0235291
222,37.6755,0.0703226
244,49.9607,0.0642413
200,45.1873,0.0412865
243,36.8382,0.0523694
290,54.0393,0.0325786
242,67.4697,0.0505336
314,31.8153,0.0286565
313,63.1305,0.0624646
339,52.6014,0.0380767
338,34.7845,0.0512386
365,43.7808,0.0335906
392,41.5293,0.0321374
