facetNormals:0,facetNormals:1,facetNormals:2,FacetCenters:0,FacetCenters:1,FacetCenters:2,FacetIds,relFacetSize,absFacetSize,cellPairingIds,interplanarAngles,angleWeights
-0.0123806,0.0239031,-0.953793,3.73733,3.90053,7.93134,1,0.0640476,0.0110931,8,41.5169,0.0239078
-0.623836,0.245772,-0.726011,3.68863,3.9411,7.96344,2,0.0146969,0.00254552,13,51.3332,0.0736173
-0.576754,-0.486643,-0.611997,3.69348,3.83953,7.98102,3,0.086549,0.0149903,19,54.827,0.0144299
-0.423624,0.706352,-0.546391,3.72063,3.98248,7.9442,4,0.00813088,0.00140827,26,53.7865,0.0359395
0.685837,0.389868,-0.576697,3.81941,3.90593,7.94654,5,0.0249777,0.00432616,34,67.2687,0.0382628
-0.859348,0.283683,-0.357931,3.68442,3.91028,7.96448,6,0.0272801,0.00472493,43,70.5081,0.0615607
0.359327,-0.84112,-0.353013,3.76862,3.78478,8.02299,7,0.0592597,0.0102638,53,83.5096,0.0513053
-0.243558,-0.92614,-0.129323,3.73828,3.8094,8.01592,8,0.0427919,0.00741158,64,78.0108,0.0555123
0.149086,0.912854,-0.174669,3.77437,3.96386,7.9338,9,0.0489844,0.00848413,76,88.8711,0.0654281
0.919214,0.286664,-0.023732,3.83075,3.92189,8.00613,10,0.0668693,0.0115818,89,105.451,0.0785287
-0.859692,-0.15637,0.249431,3.67696,3.84447,8.04898,11,0.101471,0.0175749,103,88.756,0.0814241
0.81364,-0.473708,-0.0429026,3.81744,3.85823,8.01192,12,0.11174,0.0193534,118,124.666,0.0300416
0.735586,-0.372362,0.542807,3.81017,3.83253,8.08342,13,0.0196228,0.00339869,134,124.004,0.0203773
-0.726703,-0.390625,0.556387,3.69031,3.80509,8.0857,14,0.0121161,0.00209852,151,134.405,0.0592531
0.682455,0.118638,0.667495,3.79525,3.83968,8.1079,15,0.0551263,0.00954792,169,123.818,0.0167405
0.111412,0.79606,0.565807,3.71298,3.94547,7.93935,16,0.00962861,0.00166768,188,131.092,0.03309
-0.158853,-0.729007,0.622858,3.7144,3.80079,8.07936,17,0.0223076,0.00386369,208,149.519,0.0463629
-0.444967,-0.212432,0.840762,3.71679,3.83201,8.13458,18,0.0363312,0.00629259,18,44.5297,0.025127
,,,,,,,,,25,31.3086,0.0104696
,,,,,,,,,33,84.8519,0.0185053
,,,,,,,,,42,25.8288,0.0191025
,,,,,,,,,52,100.381,0.0235526
,,,,,,,,,63,88.9074,0.0218793
,,,,,,,,,75,73.8879,0.0226101
,,,,,,,,,88,120.685,0.0240975
,,,,,,,,,102,69.3442,0.0256751
,,,,,,,,,117,129.532,0.0259771
,,,,,,,,,133,165.508,0.0168064
,,,,,,,,,150,92.7162,0.0132823
,,,,,,,,,168,157.959,0.0232068
,,,,,,,,,187,107.038,0.0116348
,,,,,,,,,207,123.652,0.0177196
,,,,,,,,,228,113.561,0.0209279
,,,,,,,,,32,75.837,0.0148652
,,,,,,,,,41,104.165,0.0387674
,,,,,,,,,51,52.4216,0.0414844
,,,,,,,,,62,63.9636,0.0703507
,,,,,,,,,74,44.4424,0.0572687
,,,,,,,,,87,117.572,0.062561
,,,,,,,,,101,134.433,0.0754469
,,,,,,,,,116,61.6479,0.0934178
,,,,,,,,,132,103.418,0.0975442
,,,,,,,,,149,126.855,0.0319922
,,,,,,,,,167,73.8633,0.0212565
,,,,,,,,,186,156.923,0.067353
,,,,,,,,,206,146.664,0.0173293
,,,,,,,,,227,86.0411,0.0354724
,,,,,,,,,249,99.3914,0.0511788
,,,,,,,,,50,71.9079,0.0122682
,,,,,,,,,61,37.8046,0.0125278
,,,,,,,,,73,124.83,0.0142997
,,,,,,,,,86,120.193,0.0136652
,,,,,,,,,100,43.3023,0.0139467
,,,,,,,,,115,100.528,0.0144988
,,,,,,,,,131,82.4862,0.0150554
,,,,,,,,,148,134.752,0.0151587
,,,,,,,,,166,153.247,0.0114976
,,,,,,,,,185,106.059,0.00973128
,,,,,,,,,205,126.835,0.0141715
,,,,,,,,,226,77.762,0.00881659
,,,,,,,,,248,145.109,0.0119178
,,,,,,,,,271,115.909,0.0132879
,,,,,,,,,72,106.642,0.0260782
,,,,,,,,,85,82.6785,0.0351429
,,,,,,,,,99,118.704,0.0315435
,,,,,,,,,114,52.586,0.033085
,,,,,,,,,130,36.5746,0.0363701
,,,,,,,,,147,153.46,0.0400876
,,,,,,,,,165,64.3908,0.0408288
,,,,,,,,,184,87.2497,0.0219788
,,,,,,,,,204,177.56,0.0163171
,,,,,,,,,225,82.0902,0.0343786
,,,,,,,,,247,86.3908,0.0138992
,,,,,,,,,270,142.387,0.0235673
,,,,,,,,,294,156.407,0.0296032
,,,,,,,,,98,116.186,0.0373611
,,,,,,,,,113,90.4351,0.0333191
,,,,,,,,,129,77.814,0.0350438
,,,,,,,,,146,138.324,0.0387512
,,,,,,,,,164,46.8201,0.0429998
,,,,,,,,,183,153.139,0.0438537
,,,,,,,,,203,165.988,0.0228264
,,,,,,,,,224,71.0474,0.0167797
,,,,,,,,,246,147.749,0.0364984
,,,,,,,,,269,94.3424,0.0142335
,,,,,,,,,293,108.061,0.0245445
,,,,,,,,,318,88.7203,0.0311617
,,,,,,,,,128,38.917,0.0496971
,,,,,,,,,145,135.002,0.0536344
,,,,,,,,,163,84.0702,0.062835
,,,,,,,,,182,107.334,0.0748226
,,,,,,,,,202,40.1812,0.0774466
,,,,,,,,,223,66.5,0.0294829
,,,,,,,,,245,97.5965,0.0201188
,,,,,,,,,268,95.4881,0.0571184
,,,,,,,,,292,149.372,0.0165656
,,,,,,,,,317,69.3384,0.0324135
,,,,,,,,,343,106.913,0.0450456
,,,,,,,,,162,160.829,0.0456792
,,,,,,,,,181,121.5,0.0521873
,,,,,,,,,201,68.4913,0.0601975
,,,,,,,,,222,74.3225,0.0618844
,,,,,,,,,244,84.2537,0.0269071
,,,,,,,,,267,60.9577,0.0188851
,,,,,,,,,291,112.947,0.0481822
,,,,,,,,,316,151.856,0.01572
,,,,,,,,,342,47.5998,0.0293269
,,,,,,,,,369,77.9649,0.0392978
,,,,,,,,,200,63.6175,0.0565464
,,,,,,,,,221,111.571,0.0660727
,,,,,,,,,243,110.014,0.0681105
,,,,,,,,,266,110.478,0.0280207
,,,,,,,,,290,126.877,0.019427
,,,,,,,,,315,84.0761,0.0518742
,,,,,,,,,341,45.8523,0.0160938
,,,,,,,,,368,150.716,0.0306549
,,,,,,,,,396,116.343,0.0417195
,,,,,,,,,242,163.919,0.080614
,,,,,,,,,265,47.512,0.0836683
,,,,,,,,,289,54.1712,0.0303418
,,,,,,,,,314,145.848,0.020515
,,,,,,,,,340,45.8392,0.0604327
,,,,,,,,,367,70.4266,0.0168334
,,,,,,,,,395,113.267,0.0334547
,,,,,,,,,424,121.454,0.047082
,,,,,,,,,288,137.966,0.106358
,,,,,,,,,313,119.285,0.032886
,,,,,,,,,339,24.2296,0.0216474
,,,,,,,,,366,120.128,0.0714409
,,,,,,,,,394,95.0823,0.0175883
,,,,,,,,,423,62.6383,0.0365746
,,,,,,,,,453,45.0746,0.0535051
,,,,,,,,,338,36.1086,0.0333832
,,,,,,,,,365,117.297,0.0218617
,,,,,,,,,393,58.7422,0.0738293
,,,,,,,,,422,109.597,0.0177295
,,,,,,,,,452,78.0693,0.0371905
,,,,,,,,,483,108.895,0.0548337
,,,,,,,,,392,95.0865,0.0149817
,,,,,,,,,421,30.2636,0.0289431
,,,,,,,,,451,84.5205,0.0129184
,,,,,,,,,482,59.0994,0.0208793
,,,,,,,,,514,77.5048,0.0254824
,,,,,,,,,450,100.284,0.0198659
,,,,,,,,,481,94.5217,0.0107301
,,,,,,,,,513,39.4571,0.0157032
,,,,,,,,,546,25.6786,0.018172
,,,,,,,,,512,54.5714,0.0163938
,,,,,,,,,545,76.3363,0.0317622
,,,,,,,,,579,75.653,0.0437975
,,,,,,,,,578,104.897,0.0134513
,,,,,,,,,613,74.4388,0.0152228
,,,,,,,,,648,37.7312,0.0276425
