"cellPairingIds","interplanarAngles","angleWeights"
8,30.899,0.0453443
19,92.4879,0.0461091
26,82.7237,0.034487
34,40.263,0.0268544
43,60.3052,0.0489113
25,99.0448,0.0614644
52,60.8692,0.0665466
102,86.3831,0.0479394
150,72.5172,0.0582674
50,53.6129,0.0430801
100,34.8107,0.0747136
131,103.579,0.0487951
166,91.9274,0.0276022
72,73.3274,0.025798
85,112.879,0.0455166
114,59.2027,0.048325
130,31.4318,0.0204423
165,82.6706,0.0314896
225,64.2104,0.0329892
98,41.6393,0.0331
202,45.5873,0.0430938
245,56.3341,0.0642925
292,55.0769,0.0664973
317,95.4714,0.0252949
200,44.9738,0.025582
266,71.9828,0.0296651
368,79.7195,0.0261391
340,44.1233,0.0205298
395,86.5912,0.0150417
313,24.1755,0.0244983
339,38.3619,0.0467584
393,39.1719,0.0316976
452,80.4354,0.0202757
392,57.0543,0.0269384
482,36.7491,0.0163662
481,31.7824,0.0582296
513,59.065,0.0239987
545,65.4096,0.020887
578,41.1159,0.0242994
