facetNormals:0,facetNormals:1,facetNormals:2,FacetCenters:0,FacetCenters:1,FacetCenters:2,FacetIds,relFacetSize,absFacetSize,cellPairingIds,interplanarAngles,angleWeights
-0.0709395,0.343269,-0.92687,3.9865,6.96945,9.07665,1,0.0444961,0.00563238,8,28.854,0.0657314
0.406037,0.301167,-0.8278,4.07008,6.94127,9.08007,2,0.125739,0.0159162,13,26.1883,0.0526573
-0.47718,0.405531,-0.752506,3.94,7.00882,9.12014,3,0.0644847,0.00816256,19,23.8477,0.0464612
0.0736753,0.664631,-0.72123,4.01043,7.01349,9.10528,4,0.0486078,0.00615285,26,75.5962,0.0390256
0.389679,-0.705708,-0.550851,4.07952,6.87626,9.09703,5,0.0347529,0.00439907,34,65.561,0.0545751
-0.541497,-0.553098,-0.595323,3.97461,6.91641,9.11084,6,0.0705572,0.00893123,43,100.924,0.021694
0.826107,-0.513592,-0.0560265,4.12384,6.89752,9.15191,7,0.0143436,0.00181563,53,69.9501,0.0298436
0.887551,0.290613,-0.322443,4.13591,6.9266,9.13204,8,0.0224506,0.00284183,64,131.344,0.0237651
-0.252637,-0.831666,0.381795,4.00393,6.92841,9.17549,9,0.0162119,0.00205213,76,93.4495,0.0678055
0.622851,0.671824,0.262445,4.07663,6.99961,9.17435,10,0.142405,0.0180258,89,105.292,0.0505806
-0.900346,-0.240678,0.251986,3.91547,6.97222,9.1599,11,0.0585928,0.00741676,103,113.62,0.043286
-0.69252,0.302603,0.570766,3.92579,7.01744,9.20397,12,0.04214,0.00533413,118,102.034,0.0478079
0.0717506,0.822219,0.515988,3.99763,7.01644,9.21504,13,0.0516524,0.00653823,18,54.5089,0.0852495
,,,,,,,,,25,29.8871,0.070112
,,,,,,,,,33,64.9036,0.054455
,,,,,,,,,42,83.5521,0.0903919
,,,,,,,,,52,76.094,0.0257498
,,,,,,,,,63,41.7637,0.0380988
,,,,,,,,,75,136.604,0.0287208
,,,,,,,,,88,75.0808,0.133554
,,,,,,,,,102,133.674,0.0799363
,,,,,,,,,117,136.157,0.0631245
,,,,,,,,,133,99.1649,0.0732248
,,,,,,,,,32,36.1893,0.0554318
,,,,,,,,,41,93.4556,0.0451649
,,,,,,,,,51,59.7167,0.0673844
,,,,,,,,,62,125.973,0.0234673
,,,,,,,,,74,93.7362,0.0333057
,,,,,,,,,87,122.84,0.0259099
,,,,,,,,,101,103.782,0.0887713
,,,,,,,,,116,81.3343,0.0613977
,,,,,,,,,132,88.5373,0.050971
,,,,,,,,,149,95.3644,0.0573596
,,,,,,,,,50,92.5685,0.040529
,,,,,,,,,61,88.6955,0.0575611
,,,,,,,,,73,104.508,0.0221507
,,,,,,,,,86,59.6437,0.0307149
,,,,,,,,,100,155.072,0.0243144
,,,,,,,,,115,71.1312,0.0724768
,,,,,,,,,131,115.45,0.0531353
,,,,,,,,,148,106.308,0.0451434
,,,,,,,,,166,79.1863,0.0500839
,,,,,,,,,72,57.8575,0.0465685
,,,,,,,,,85,41.2526,0.0203062
,,,,,,,,,99,70.7282,0.0272789
,,,,,,,,,114,72.5373,0.0221098
,,,,,,,,,130,113.832,0.0558708
,,,,,,,,,147,109.833,0.0436285
,,,,,,,,,165,149.632,0.0380916
,,,,,,,,,184,151.667,0.04155
,,,,,,,,,98,97.8478,0.0238406
,,,,,,,,,113,117.761,0.0340628
,,,,,,,,,129,66.5101,0.0263658
,,,,,,,,,146,158.377,0.0943613
,,,,,,,,,164,60.051,0.0640208
,,,,,,,,,183,98.2161,0.0527658
,,,,,,,,,203,147.407,0.0596426
,,,,,,,,,128,51.2913,0.017504
,,,,,,,,,145,77.7008,0.0152206
,,,,,,,,,163,80.4036,0.0260621
,,,,,,,,,182,132.4,0.0230456
,,,,,,,,,202,145.391,0.0214023
,,,,,,,,,223,114.409,0.0224523
,,,,,,,,,162,128.901,0.0188279
,,,,,,,,,181,45.202,0.0387864
,,,,,,,,,201,175.051,0.0324627
,,,,,,,,,222,139.427,0.0292943
,,,,,,,,,244,81.8549,0.0312978
,,,,,,,,,200,132.903,0.0291098
,,,,,,,,,221,55.1422,0.0253968
,,,,,,,,,243,80.964,0.0234155
,,,,,,,,,266,123.123,0.0246782
,,,,,,,,,242,135.512,0.0830248
,,,,,,,,,265,94.9736,0.065035
,,,,,,,,,289,37.8452,0.0758081
,,,,,,,,,288,40.5723,0.0490228
,,,,,,,,,313,98.1039,0.0549041
,,,,,,,,,338,57.6235,0.0464138
