Q	U	V
{$V$}	{[mm$^3$]}	0.0100125
{$d_v$}	{[mm]}	0.267412
{$S_c$}	{[mm$^2$]}	0.417253
{$S_o$}	{[mm$^2$]}	0.231185
{$S_l/S_o$}	[]	0.804845
{$\Psi$}	[]	0.53841
{$\eta$}	[]	0.604331
{med($\theta_e$)}	{[$^\circ$]}	61.62545
{$\Upsilon$}	[]	12
{$\Xi$}	[]	12
