facetNormals:0,facetNormals:1,facetNormals:2,FacetCenters:0,FacetCenters:1,FacetCenters:2,FacetIds,relFacetSize,absFacetSize,cellPairingIds,interplanarAngles,angleWeights
-0.330382,-0.38617,-0.796911,6.07768,3.88238,6.33169,1,0.0470781,0.00855133,8,29.119,0.0349045
-0.497431,0.0671142,-0.841839,6.07179,3.86244,6.32862,2,0.0277331,0.00503748,13,60.8932,0.0406272
-0.0365496,0.543387,-0.812482,6.10824,3.96781,6.3284,3,0.0357311,0.00649024,19,78.5846,0.0469841
0.663839,0.290974,-0.643782,6.18456,3.99024,6.37107,4,0.0468905,0.00851725,26,85.0157,0.0340045
0.870455,-0.224194,-0.351694,6.18152,3.95271,6.41086,5,0.0266138,0.00483417,34,86.2197,0.0672941
-0.285636,0.843997,-0.365889,6.0979,3.99724,6.39776,6,0.117938,0.0214225,43,82.4089,0.0356772
-0.86369,0.465249,-0.0211259,6.13046,3.93057,6.39612,7,0.0287217,0.00521704,53,68.4664,0.0715522
-0.892606,-0.27849,0.0958203,6.0576,3.87619,6.41524,8,0.149024,0.0270689,64,110.32,0.0365189
0.706335,-0.518556,0.346541,6.17812,3.94191,6.47718,9,0.0298286,0.00541811,76,99.3909,0.0194906
-0.856098,0.316733,0.393828,6.13747,3.95227,6.41682,10,0.0122892,0.00223223,89,86.1706,0.0607599
-0.431244,-0.73355,0.457716,6.08545,3.84382,6.44051,11,0.0856522,0.015558,103,134.486,0.0657139
-0.313368,0.692329,0.598243,6.12255,3.98991,6.47306,12,0.108771,0.0197572,118,124.332,0.0361994
-0.385027,-0.152994,0.891101,6.10636,3.90554,6.51281,13,0.0294047,0.0053411,18,39.6045,0.0312281
,,,,,,,,,25,75.9123,0.0348528
,,,,,,,,,33,99.2439,0.027162
,,,,,,,,,42,57.5361,0.0449065
,,,,,,,,,52,60.1539,0.0282187
,,,,,,,,,63,68.0304,0.0467636
,,,,,,,,,75,137.223,0.0287427
,,,,,,,,,88,83.1884,0.0170314
,,,,,,,,,102,103.436,0.0418997
,,,,,,,,,117,108.531,0.0441973
,,,,,,,,,133,126.204,0.0285444
,,,,,,,,,32,46.1499,0.0405571
,,,,,,,,,41,81.9563,0.0305058
,,,,,,,,,51,35.5717,0.0548458
,,,,,,,,,62,71.689,0.0318452
,,,,,,,,,74,102.345,0.0576416
,,,,,,,,,87,129.734,0.0325141
,,,,,,,,,101,96.8857,0.0182884
,,,,,,,,,116,142.995,0.0504261
,,,,,,,,,132,95.9708,0.0537916
,,,,,,,,,149,145.595,0.0322606
,,,,,,,,,50,37.8337,0.0339554
,,,,,,,,,61,71.8087,0.0671022
,,,,,,,,,73,116.495,0.0356232
,,,,,,,,,86,143.796,0.0713353
,,,,,,,,,100,84.0362,0.0364623
,,,,,,,,,115,139.212,0.0194745
,,,,,,,,,131,148.004,0.0606035
,,,,,,,,,148,114.695,0.0655309
,,,,,,,,,166,156.52,0.0361438
,,,,,,,,,72,109.423,0.0434278
,,,,,,,,,85,153.645,0.0276276
,,,,,,,,,99,145.562,0.0451623
,,,,,,,,,114,47.9463,0.0281297
,,,,,,,,,130,174.235,0.0168143
,,,,,,,,,147,113.501,0.0406095
,,,,,,,,,165,133.145,0.0427642
,,,,,,,,,184,130.359,0.0279397
,,,,,,,,,98,46.7926,0.0461937
,,,,,,,,,113,90.9584,0.131671
,,,,,,,,,129,147.585,0.0476147
,,,,,,,,,146,67.4154,0.022259
,,,,,,,,,164,135.465,0.0992353
,,,,,,,,,183,60.768,0.113169
,,,,,,,,,203,111.388,0.047073
,,,,,,,,,128,46.1168,0.0481611
,,,,,,,,,145,158.222,0.0292647
,,,,,,,,,163,25.7767,0.0172133
,,,,,,,,,182,88.7001,0.0430181
,,,,,,,,,202,52.3186,0.0454436
,,,,,,,,,223,75.4325,0.0290591
,,,,,,,,,162,120.751,0.0497077
,,,,,,,,,181,40.2028,0.022706
,,,,,,,,,201,45.8068,0.108782
,,,,,,,,,222,80.8711,0.125755
,,,,,,,,,244,59.2935,0.0491177
,,,,,,,,,200,132.466,0.0174069
,,,,,,,,,221,75.0808,0.0442478
,,,,,,,,,243,114.163,0.0468181
,,,,,,,,,266,82.7923,0.0296151
,,,,,,,,,242,70.7233,0.0214944
,,,,,,,,,265,41.2261,0.0220834
,,,,,,,,,289,49.6831,0.017334
,,,,,,,,,288,96.0748,0.0958369
,,,,,,,,,313,43.728,0.0437796
,,,,,,,,,338,54.8029,0.0462943
