"cellPairingIds","interplanarAngles","angleWeights"
18,91.6547,0.0162342
25,66.6647,0.0199159
42,43.2863,0.0160487
32,80.2103,0.0390754
51,114.883,0.0265317
74,45.6119,0.0441876
167,124.031,0.0361814
61,106.591,0.0380179
86,89.1002,0.0889406
131,99.3853,0.0640615
164,61.5272,0.0360892
224,71.455,0.035273
201,138.202,0.0790565
267,103.208,0.0752425
339,56.9275,0.0566351
