facetNormals:0,facetNormals:1,facetNormals:2,FacetCenters:0,FacetCenters:1,FacetCenters:2,FacetIds,relFacetSize,absFacetSize,cellPairingIds,interplanarAngles,angleWeights
-0.431448,-0.249188,-0.736763,5.46163,3.84297,5.41415,1,0.0111829,0.00106316,8,92.2598,0.019899
0.822822,-0.456802,-0.280599,5.52233,3.8282,5.43541,2,0.0902111,0.00857637,13,117.512,0.0191863
0.667936,0.699068,-0.0862669,5.52515,3.93571,5.45911,3,0.0674825,0.00641557,19,105.878,0.0158987
0.880018,0.328044,-0.300593,5.54394,3.88809,5.4612,4,0.0274921,0.00261368,26,120.114,0.0203837
0.946032,-0.0539971,0.038675,5.5319,3.89713,5.43364,5,0.115005,0.0109336,34,96.9775,0.0111566
-0.331402,0.935497,0.0232484,5.4437,3.95274,5.47572,6,0.0111304,0.00105817,43,90.5509,0.0173217
0.0979691,-0.929782,0.268391,5.50975,3.81505,5.51683,7,0.0384025,0.00365093,53,83.1069,0.0188374
-0.783724,-0.37714,0.44496,5.41135,3.85373,5.47988,8,0.0597044,0.0056761,64,101.481,0.0163214
-0.645952,0.604167,0.407974,5.42113,3.93999,5.48796,9,0.0301969,0.00287082,76,97.2912,0.0204391
-0.410317,-0.651562,0.611278,5.45519,3.81353,5.48554,10,0.118633,0.0112784,89,128.573,0.00769537
0.208855,-0.538569,0.806617,5.52955,3.83088,5.52873,11,0.005866,0.000557681,103,110.723,0.0166051
-0.520169,-0.2376,0.80773,5.44856,3.87291,5.52874,12,0.0322346,0.00306455,118,125.058,0.0143279
-0.408907,0.486634,0.764035,5.4754,3.88759,5.54056,13,0.0199341,0.00189513,134,156.05,0.0203103
0.291965,0.61141,0.685908,5.50044,3.92818,5.51544,14,0.110499,0.0105051,151,148.215,0.00667488
0.245055,-0.196584,0.9405,5.53438,3.85062,5.49485,15,0.00475718,0.000452265,18,74.5183,0.0772089
,,,,,,,,,25,47.1505,0.0421415
,,,,,,,,,33,31.7199,0.10111
,,,,,,,,,42,136.445,0.0198159
,,,,,,,,,52,63.2449,0.053872
,,,,,,,,,63,128.514,0.0718538
,,,,,,,,,75,164.547,0.0452477
,,,,,,,,,88,102.654,0.102488
,,,,,,,,,102,78.6629,0.0110157
,,,,,,,,,117,124.187,0.0474973
,,,,,,,,,133,142.384,0.0326528
,,,,,,,,,150,104.154,0.0993295
,,,,,,,,,168,88.3798,0.00903776
,,,,,,,,,32,28.2695,0.0390681
,,,,,,,,,41,50.0758,0.0850561
,,,,,,,,,51,63.458,0.0191091
,,,,,,,,,62,130.062,0.0489493
,,,,,,,,,74,150.514,0.0633556
,,,,,,,,,87,92.6852,0.0417235
,,,,,,,,,101,145.056,0.0860287
,,,,,,,,,116,108.562,0.0107937
,,,,,,,,,132,127.379,0.0436289
,,,,,,,,,149,89.9314,0.0307768
,,,,,,,,,167,52.9977,0.0837923
,,,,,,,,,186,93.2684,0.00888781
,,,,,,,,,50,30.8117,0.0443761
,,,,,,,,,61,89.5168,0.0158456
,,,,,,,,,73,108.193,0.0320441
,,,,,,,,,86,169.471,0.0376483
,,,,,,,,,100,120.875,0.0287811
,,,,,,,,,115,141.486,0.0446394
,,,,,,,,,131,103.919,0.00966893
,,,,,,,,,148,142.912,0.0296751
,,,,,,,,,166,116.016,0.0231109
,,,,,,,,,185,74.6717,0.0440296
,,,,,,,,,205,97.7314,0.00811087
,,,,,,,,,72,112.688,0.0202965
,,,,,,,,,85,80.4359,0.0575785
,,,,,,,,,99,139.436,0.0786027
,,,,,,,,,114,132.827,0.047834
,,,,,,,,,130,110.686,0.116791
,,,,,,,,,147,74.094,0.0111626
,,,,,,,,,165,118.513,0.0503553
,,,,,,,,,184,114.013,0.0339786
,,,,,,,,,204,72.843,0.112707
,,,,,,,,,225,72.7527,0.00913643
,,,,,,,,,98,158.115,0.0172587
,,,,,,,,,113,94.894,0.018763
,,,,,,,,,129,35.3418,0.0162655
,,,,,,,,,146,118.076,0.0203514
,,,,,,,,,164,124.248,0.00768292
,,,,,,,,,183,91.8146,0.0165472
,,,,,,,,,203,51.9203,0.0142848
,,,,,,,,,224,59.1251,0.0202237
,,,,,,,,,246,104.307,0.0066655
,,,,,,,,,128,65.5512,0.0467408
,,,,,,,,,145,122.966,0.0338089
,,,,,,,,,163,40.2681,0.0580226
,,,,,,,,,182,40.1432,0.0101774
,,,,,,,,,202,66.3124,0.0350493
,,,,,,,,,223,107.299,0.0262449
,,,,,,,,,245,112.295,0.0569965
,,,,,,,,,268,61.5684,0.00846566
,,,,,,,,,162,61.097,0.0401082
,,,,,,,,,181,29.0929,0.0794326
,,,,,,,,,201,65.7338,0.0106824
,,,,,,,,,222,27.6205,0.0418658
,,,,,,,,,244,60.5827,0.0298889
,,,,,,,,,267,99.4226,0.0775222
,,,,,,,,,291,71.9245,0.00881221
,,,,,,,,,200,82.7541,0.0481401
,,,,,,,,,221,97.8041,0.00982367
,,,,,,,,,243,57.2142,0.0311825
,,,,,,,,,266,26.0301,0.024015
,,,,,,,,,290,60.6255,0.0474317
,,,,,,,,,315,83.661,0.00821948
,,,,,,,,,242,38.9757,0.0111792
,,,,,,,,,265,27.6342,0.0506946
,,,,,,,,,289,71.0227,0.0341327
,,,,,,,,,314,95.9885,0.114421
,,,,,,,,,340,51.8313,0.00914754
,,,,,,,,,288,46.9031,0.00992573
,,,,,,,,,313,74.1808,0.00906457
,,,,,,,,,339,72.6681,0.0111406
,,,,,,,,,366,21.4429,0.00525372
,,,,,,,,,338,43.4382,0.0246342
,,,,,,,,,365,74.3818,0.0499096
,,,,,,,,,393,46.2261,0.00829081
,,,,,,,,,392,42.8758,0.0337751
,,,,,,,,,421,57.9677,0.00768126
,,,,,,,,,450,51.3988,0.00912166
