Q	U	V
{$V$}	{[mm$^3$]}	0.0121203
{$d_v$}	{[mm]}	0.284996
{$S_c$}	{[mm$^2$]}	0.412185
{$S_o$}	{[mm$^2$]}	0.310361
{$S_l/S_o$}	[]	0.328082
{$\Psi$}	[]	0.619062
{$\eta$}	[]	0.636319
{med($\theta_e$)}	{[$^\circ$]}	56.3105
{$\Upsilon$}	[]	14
{$\Xi$}	[]	13
