"cellPairingIds","interplanarAngles","angleWeights"
8,59.6892,0.0338241
13,67.3351,0.0442705
26,57.8734,0.0396854
34,79.0353,0.0324178
89,98.326,0.0193699
18,103.555,0.0663859
25,41.7768,0.0437151
33,35.4213,0.0565829
102,67.3788,0.022675
32,92.9512,0.0628968
51,43.9091,0.0611772
87,43.3005,0.0992276
86,46.4666,0.0401269
100,99.9623,0.0558978
131,87.1508,0.0222533
147,43.2324,0.0251668
129,47.4505,0.0545355
164,136.008,0.0220342
162,56.5037,0.0523568
201,116.355,0.0216699
222,35.3893,0.0427177
221,150.642,0.0255651
243,39.767,0.0610561
288,115.891,0.0230279
