Q	U	V
{$V$}	{[mm$^3$]}	0.0134965
{$d_v$}	{[mm]}	0.295398
{$S_c$}	{[mm$^2$]}	0.433631
{$S_o$}	{[mm$^2$]}	0.284266
{$S_l/S_o$}	[]	0.525441
{$\Psi$}	[]	0.632186
{$\eta$}	[]	0.649721
{med($\theta_e$)}	{[$^\circ$]}	85.4595
{$\Upsilon$}	[]	13
{$\Xi$}	[]	9
