facetNormals:0,facetNormals:1,facetNormals:2,FacetCenters:0,FacetCenters:1,FacetCenters:2,FacetIds,relFacetSize,absFacetSize,cellPairingIds,interplanarAngles,angleWeights
0.355496,0.141537,-0.915721,7.34737,5.75406,9.5521,1,0.00565835,0.000371296,8,38.071,0.0106406
-0.277932,0.101993,-0.902645,7.3399,5.80443,9.52224,2,0.0890462,0.00584314,13,32.0529,0.0102864
0.193241,0.627534,-0.72967,7.33036,5.75811,9.5849,3,0.0564917,0.00370694,19,56.6603,0.00838221
0.358663,-0.717803,-0.551768,7.34998,5.73966,9.51471,4,0.0161628,0.00106059,26,78.6044,0.0103778
-0.398382,0.824082,-0.229349,7.32745,5.84038,9.55379,5,0.0625437,0.00410407,34,49.9622,0.00998444
0.903042,-0.175572,-0.367138,7.3883,5.76146,9.5488,6,0.0424058,0.00278264,43,52.1305,0.00734437
0.711567,0.628325,-0.286293,7.381,5.85886,9.53913,7,0.0104616,0.000686484,53,67.3513,0.00993246
0.799055,-0.548005,-0.186275,7.37936,5.73693,9.55588,8,0.0406011,0.00266421,64,108.273,0.0110283
-0.818437,-0.459102,-0.0689449,7.30659,5.75256,9.57698,9,0.216381,0.0141987,76,66.0839,0.00825834
1.00025,-0.0162836,-0.0543896,7.37906,5.76949,9.54377,10,0.015279,0.0010026,89,108.603,0.0101404
-0.895451,0.382136,0.0484627,7.30197,5.81317,9.56829,11,0.0487801,0.00320091,103,98.2352,0.00900007
0.485265,0.677405,0.439325,7.35718,5.78518,9.58155,12,0.0219827,0.00144248,118,101.13,0.0107459
0.213264,-0.919838,0.140331,7.3523,5.72386,9.58964,13,0.106534,0.00699068,134,94.0618,0.00651982
0.881511,-0.264428,0.377715,7.35544,5.77676,9.58744,14,0.00769071,0.000504659,151,131.888,0.00798213
-0.0928667,-0.805106,0.547066,7.32378,5.75533,9.56641,15,0.0135447,0.000888792,169,122.632,0.0098063
0.551393,-0.0876699,0.744256,7.35258,5.79706,9.54438,16,0.0367369,0.00241065,188,168.995,0.00865158
-0.503753,-0.0410788,0.851786,7.32282,5.75776,9.64034,17,0.0183683,0.00120531,18,44.163,0.069128
,,,,,,,,,25,69.4217,0.0273596
,,,,,,,,,33,63.3697,0.0734783
,,,,,,,,,42,86.1912,0.0574518
,,,,,,,,,52,82.3897,0.0187235
,,,,,,,,,63,96.7297,0.0557725
,,,,,,,,,75,74.2333,0.12617
,,,,,,,,,88,104.02,0.0260826
,,,,,,,,,102,74.7156,0.0630313
,,,,,,,,,117,121.108,0.0352606
,,,,,,,,,133,107.969,0.0970083
,,,,,,,,,150,130.433,0.0141586
,,,,,,,,,168,126.316,0.0235129
,,,,,,,,,187,160.666,0.0520147
,,,,,,,,,207,132.285,0.0304545
,,,,,,,,,32,88.7129,0.0251344
,,,,,,,,,41,49.0149,0.0593639
,,,,,,,,,51,70.0204,0.0484457
,,,,,,,,,62,40.4441,0.017654
,,,,,,,,,74,93.1703,0.0472461
,,,,,,,,,87,115.384,0.089593
,,,,,,,,,101,76.9084,0.0240526
,,,,,,,,,116,88.1192,0.0523535
,,,,,,,,,132,77.6162,0.0316495
,,,,,,,,,149,132.945,0.0738324
,,,,,,,,,167,106.124,0.0135383
,,,,,,,,,186,163.938,0.0218504
,,,,,,,,,206,122.561,0.0445214
,,,,,,,,,227,139.988,0.0277226
,,,,,,,,,50,131.415,0.0256874
,,,,,,,,,61,47.433,0.0234049
,,,,,,,,,73,92.2456,0.0127018
,,,,,,,,,86,35.4481,0.0231213
,,,,,,,,,100,85.3651,0.0300789
,,,,,,,,,115,65.7667,0.0157085
,,,,,,,,,131,130.954,0.0242805
,,,,,,,,,148,127.198,0.0186288
,,,,,,,,,166,44.8269,0.0280674
,,,,,,,,,185,72.1122,0.0104222
,,,,,,,,,205,75.2306,0.0147384
,,,,,,,,,226,99.5271,0.022449
,,,,,,,,,248,130.093,0.0171951
,,,,,,,,,72,116.719,0.0505427
,,,,,,,,,85,71.2994,0.017925
,,,,,,,,,99,141.359,0.0492384
,,,,,,,,,114,92.3544,0.0970389
,,,,,,,,,130,114.993,0.0245585
,,,,,,,,,147,44.1023,0.0548111
,,,,,,,,,165,72.7119,0.0325313
,,,,,,,,,184,166.302,0.0788162
,,,,,,,,,204,134.308,0.0136972
,,,,,,,,,225,144.584,0.0222671
,,,,,,,,,247,121.798,0.0462863
,,,,,,,,,270,91.7488,0.0283968
,,,,,,,,,98,49.5345,0.0167829
,,,,,,,,,113,24.9366,0.0414839
,,,,,,,,,129,132.794,0.0709141
,,,,,,,,,146,21.0549,0.0224641
,,,,,,,,,164,157.731,0.0453702
,,,,,,,,,183,80.2515,0.0289553
,,,,,,,,,203,71.3378,0.0606643
,,,,,,,,,224,44.4186,0.0130201
,,,,,,,,,246,98.512,0.0205315
,,,,,,,,,269,74.8995,0.0393684
,,,,,,,,,293,140.815,0.0256334
,,,,,,,,,128,73.5159,0.0166366
,,,,,,,,,145,155.821,0.0199583
,,,,,,,,,163,43.7896,0.0124195
,,,,,,,,,182,115.162,0.0172284
,,,,,,,,,202,46.311,0.0141766
,,,,,,,,,223,119.521,0.0190523
,,,,,,,,,245,69.0317,0.00886469
,,,,,,,,,268,138.72,0.0118052
,,,,,,,,,292,82.263,0.0162856
,,,,,,,,,317,129.763,0.0133308
,,,,,,,,,162,114.809,0.0683729
,,,,,,,,,181,34.1231,0.0222027
,,,,,,,,,201,166.184,0.0443164
,,,,,,,,,222,94.0289,0.0285224
,,,,,,,,,244,46.4998,0.0587949
,,,,,,,,,267,37.4792,0.0129319
,,,,,,,,,291,74.0514,0.0203129
,,,,,,,,,316,67.5876,0.0385725
,,,,,,,,,342,123.451,0.0252936
,,,,,,,,,200,148.926,0.0285426
,,,,,,,,,221,52.8359,0.0796127
,,,,,,,,,243,146.42,0.0399107
,,,,,,,,,266,74.6297,0.142774
,,,,,,,,,290,131.98,0.0148535
,,,,,,,,,315,63.6817,0.0254936
,,,,,,,,,341,121.879,0.06281
,,,,,,,,,368,66.4459,0.0338621
,,,,,,,,,242,157.851,0.0232695
,,,,,,,,,265,61.4903,0.0180278
,,,,,,,,,289,76.6601,0.0267251
,,,,,,,,,314,29.7278,0.0102314
,,,,,,,,,340,96.4198,0.0143597
,,,,,,,,,367,56.6471,0.021582
,,,,,,,,,395,123.629,0.0166818
,,,,,,,,,288,99.6787,0.0303074
,,,,,,,,,313,125.146,0.0669191
,,,,,,,,,339,154.068,0.0132866
,,,,,,,,,366,101.989,0.0212022
,,,,,,,,,394,122.791,0.0419105
,,,,,,,,,423,60.4152,0.0266874
,,,,,,,,,338,120.616,0.0364451
,,,,,,,,,365,63.7428,0.0113949
,,,,,,,,,393,112.34,0.0167616
,,,,,,,,,422,52.3669,0.0275062
,,,,,,,,,452,83.728,0.0200136
,,,,,,,,,392,59.3427,0.0143458
,,,,,,,,,421,31.3043,0.0240338
,,,,,,,,,451,70.075,0.054634
,,,,,,,,,482,86.9756,0.031334
,,,,,,,,,450,69.6881,0.00981082
,,,,,,,,,481,31.36,0.0127188
,,,,,,,,,513,96.4958,0.010842
,,,,,,,,,512,62.0403,0.0197921
,,,,,,,,,545,55.6942,0.015592
,,,,,,,,,578,67.019,0.0244911
