facetNormals:0,facetNormals:1,facetNormals:2,FacetCenters:0,FacetCenters:1,FacetCenters:2,FacetIds,relFacetSize,absFacetSize,cellPairingIds,interplanarAngles,angleWeights
-0.137989,-0.595642,-0.779095,5.83907,3.53313,8.55605,1,0.0142421,0.00431655,8,72.4935,0.0200751
0.063049,0.546446,-0.800274,5.84977,3.69011,8.57859,2,0.0340004,0.010305,13,69.0422,0.0121034
-0.47515,0.475607,-0.731023,5.75128,3.71613,8.59586,3,0.0105231,0.00318939,19,41.6917,0.0262879
-0.618472,-0.0942809,-0.733481,5.73578,3.617,8.60103,4,0.170472,0.0516675,26,44.3871,0.0247324
0.55461,-0.44751,-0.605724,5.88989,3.51018,8.59513,5,0.0938867,0.0284556,34,79.3336,0.0169355
0.821188,0.185319,-0.519927,5.93211,3.64091,8.5786,6,0.0208852,0.00632998,43,98.1597,0.0136601
0.20283,0.834772,-0.49523,5.85865,3.73318,8.61942,7,0.0131239,0.00397763,53,96.6111,0.0148282
-0.568627,0.732399,-0.315874,5.7872,3.73537,8.66234,8,0.0154647,0.00468709,64,107.415,0.0212609
0.508253,0.766619,-0.307193,5.86341,3.7187,8.62791,9,0.0419204,0.0127054,76,70.4327,0.0202687
-0.962403,-0.0282882,-0.229284,5.65054,3.63435,8.70495,10,0.0351371,0.0106495,89,51.681,0.0216959
-0.595759,-0.723732,-0.0828861,5.75002,3.49962,8.67612,11,0.0455192,0.0137961,103,119.85,0.0103067
-0.0841239,0.981573,-0.10845,5.77886,3.75785,8.66856,12,0.00807526,0.00244748,118,112.371,0.0209208
0.8731,0.403019,0.00247941,5.91822,3.68684,8.67484,13,0.0393948,0.0119399,134,74.5274,0.0200706
0.818812,-0.531254,-0.070731,5.9243,3.48982,8.66341,14,0.0339743,0.0102971,151,108.399,0.0154441
-0.756056,0.626696,0.0492807,5.75842,3.73164,8.73181,15,0.0168678,0.00511237,169,87.2551,0.0175151
-0.735387,-0.478764,0.436612,5.74755,3.5321,8.74105,16,0.0227414,0.00689256,188,154.057,0.0237328
0.0262031,0.839795,0.4346,5.75118,3.74655,8.72549,17,0.0711389,0.0215611,208,92.0073,0.0228134
-0.252788,-0.691381,0.616095,5.75148,3.52121,8.74622,18,0.0572964,0.0173656,229,132.376,0.0169668
-0.580325,0.26855,0.726962,5.6656,3.67591,8.79026,19,0.0209808,0.00635894,251,175.529,0.0148105
0.0733029,0.563901,0.806821,5.76064,3.72627,8.74704,20,0.0154261,0.00467542,18,32.3284,0.016072
,,,,,,,,,25,57.9731,0.0566934
,,,,,,,,,33,72.3639,0.0499219
,,,,,,,,,42,53.6785,0.0258758
,,,,,,,,,52,26.0269,0.0189379
,,,,,,,,,63,49.5496,0.0212596
,,,,,,,,,75,42.2742,0.0375473
,,,,,,,,,88,83.587,0.0345594
,,,,,,,,,102,113.658,0.0389255
,,,,,,,,,117,50.0622,0.0130509
,,,,,,,,,133,72.9829,0.0364994
,,,,,,,,,150,101.046,0.0339873
,,,,,,,,,168,74.4887,0.022549
,,,,,,,,,187,133.685,0.0272539
,,,,,,,,,207,82.9493,0.0460104
,,,,,,,,,228,162.044,0.0426762
,,,,,,,,,250,120.107,0.025949
,,,,,,,,,273,110.323,0.0212232
,,,,,,,,,32,34.9042,0.0198226
,,,,,,,,,41,92.0708,0.0189251
,,,,,,,,,51,85.4457,0.0139949
,,,,,,,,,62,47.7086,0.0116805
,,,,,,,,,74,29.1751,0.0125241
,,,,,,,,,87,68.8386,0.0168232
,,,,,,,,,101,51.5351,0.0161958
,,,,,,,,,116,90.0334,0.0170944
,,,,,,,,,132,53.4576,0.0091381
,,,,,,,,,149,103.626,0.0166095
,,,,,,,,,167,127.378,0.0160691
,,,,,,,,,186,50.4905,0.0129606
,,,,,,,,,206,101.704,0.0143883
,,,,,,,,,227,85.7722,0.0183342
,,,,,,,,,249,133.735,0.0177806
,,,,,,,,,272,97.6474,0.0140162
,,,,,,,,,296,111.321,0.0125114
,,,,,,,,,50,80.8445,0.121086
,,,,,,,,,61,98.6826,0.0372115
,,,,,,,,,73,80.4198,0.0243715
,,,,,,,,,86,57.0005,0.0283569
,,,,,,,,,100,99.9352,0.067293
,,,,,,,,,115,36.5955,0.0582649
,,,,,,,,,131,56.7451,0.0718525
,,,,,,,,,148,87.6589,0.0154201
,,,,,,,,,166,128.713,0.0639998
,,,,,,,,,185,115.385,0.0566572
,,,,,,,,,205,66.8693,0.0306981
,,,,,,,,,226,79.0361,0.0401294
,,,,,,,,,248,117.01,0.100386
,,,,,,,,,271,104.414,0.0857664
,,,,,,,,,295,102.349,0.0373631
,,,,,,,,,320,136.503,0.0282921
,,,,,,,,,72,42.0262,0.0341694
,,,,,,,,,85,87.5963,0.0230287
,,,,,,,,,99,119.547,0.0265552
,,,,,,,,,114,82.0855,0.0579612
,,,,,,,,,130,114.387,0.0511364
,,,,,,,,,147,87.1561,0.0613123
,,,,,,,,,165,116.958,0.0148714
,,,,,,,,,184,70.3548,0.0555013
,,,,,,,,,204,36.6105,0.0498938
,,,,,,,,,225,142.503,0.0285977
,,,,,,,,,247,119.98,0.0366141
,,,,,,,,,270,134.902,0.0809449
,,,,,,,,,294,103.132,0.0711636
,,,,,,,,,319,167.016,0.0342972
,,,,,,,,,345,139.348,0.0264984
,,,,,,,,,98,53.8516,0.0161189
,,,,,,,,,113,99.9212,0.0177708
,,,,,,,,,129,41.4524,0.0278802
,,,,,,,,,146,133.681,0.0261983
,,,,,,,,,164,128.548,0.028633
,,,,,,,,,183,80.0642,0.0116472
,,,,,,,,,203,33.8319,0.0272982
,,,,,,,,,224,50.8967,0.0258683
,,,,,,,,,246,123.033,0.0186628
,,,,,,,,,269,161.491,0.0217738
,,,,,,,,,293,92.9894,0.0322905
,,,,,,,,,318,133.686,0.030612
,,,,,,,,,344,147.147,0.0209329
,,,,,,,,,371,105.122,0.0177453
,,,,,,,,,128,47.7972,0.0141984
,,,,,,,,,145,21.4179,0.0199896
,,,,,,,,,163,96.1576,0.01911
,,,,,,,,,182,137.134,0.0203737
,,,,,,,,,202,29.4211,0.0099984
,,,,,,,,,223,57.5031,0.0196887
,,,,,,,,,245,104.464,0.0189338
,,,,,,,,,268,69.2523,0.0147622
,,,,,,,,,292,141.923,0.0166431
,,,,,,,,,317,58.4263,0.0221597
,,,,,,,,,343,168.737,0.0213561
,,,,,,,,,370,105.313,0.0161473
,,,,,,,,,398,84.9571,0.0141822
,,,,,,,,,162,67.1088,0.0225942
,,,,,,,,,181,51.8447,0.0214769
,,,,,,,,,201,100.318,0.0230861
,,,,,,,,,222,34.4074,0.0106102
,,,,,,,,,244,102.388,0.0222105
,,,,,,,,,267,150.261,0.0212545
,,,,,,,,,291,24.9399,0.0161358
,,,,,,,,,316,94.2051,0.0184101
,,,,,,,,,342,60.0297,0.0254063
,,,,,,,,,369,126.342,0.0243556
,,,,,,,,,397,71.747,0.0178053
,,,,,,,,,426,83.0817,0.0154454
,,,,,,,,,200,117.313,0.0382302
,,,,,,,,,221,155.766,0.0436457
,,,,,,,,,243,39.3668,0.0135419
,,,,,,,,,266,36.2582,0.0406184
,,,,,,,,,290,88.1509,0.0375314
,,,,,,,,,315,85.125,0.024056
,,,,,,,,,341,157.002,0.0294866
,,,,,,,,,368,55.1935,0.0527541
,,,,,,,,,396,155.603,0.048417
,,,,,,,,,425,109.435,0.0279652
,,,,,,,,,455,76.6078,0.0225531
,,,,,,,,,242,48.8546,0.03966
,,,,,,,,,265,85.4358,0.0131324
,,,,,,,,,289,153.564,0.0371443
,,,,,,,,,314,141.383,0.0345459
,,,,,,,,,340,44.1218,0.0227935
,,,,,,,,,367,50.1828,0.0276119
,,,,,,,,,395,99.1338,0.0470401
,,,,,,,,,424,82.6478,0.0435606
,,,,,,,,,454,66.3611,0.0262734
,,,,,,,,,485,106.135,0.0214397
,,,,,,,,,288,134.289,0.0137171
,,,,,,,,,313,153.81,0.0422361
,,,,,,,,,339,96.0752,0.0389084
,,,,,,,,,366,90.4469,0.0246144
,,,,,,,,,394,35.7642,0.0303299
,,,,,,,,,423,137.796,0.0555158
,,,,,,,,,453,48.3875,0.0507333
,,,,,,,,,484,84.2602,0.0287226
,,,,,,,,,516,123.943,0.0230431
,,,,,,,,,338,70.2622,0.0134031
,,,,,,,,,365,126.923,0.013049
,,,,,,,,,393,46.2902,0.0109218
,,,,,,,,,422,117.958,0.0119184
,,,,,,,,,452,34.2486,0.0145041
,,,,,,,,,483,139.568,0.0141555
,,,,,,,,,515,75.9116,0.011662
,,,,,,,,,548,61.9633,0.0106011
,,,,,,,,,392,57.861,0.0364843
,,,,,,,,,421,115.524,0.0236215
,,,,,,,,,451,152.227,0.0288364
,,,,,,,,,482,66.5216,0.0507086
,,,,,,,,,514,122.635,0.0466884
,,,,,,,,,547,115.216,0.0273797
,,,,,,,,,581,72.0035,0.0221707
,,,,,,,,,450,173.213,0.0225432
,,,,,,,,,481,113.254,0.0272455
,,,,,,,,,513,119.47,0.0459865
,,,,,,,,,546,82.8617,0.0426557
,,,,,,,,,580,134.94,0.0259414
,,,,,,,,,615,107.883,0.0212181
,,,,,,,,,512,73.2666,0.0193691
,,,,,,,,,545,55.4191,0.0272697
,,,,,,,,,579,102.967,0.0260628
,,,,,,,,,614,47.5211,0.0187008
,,,,,,,,,650,69.6361,0.0161148
,,,,,,,,,578,104.464,0.0344651
,,,,,,,,,613,33.3527,0.0325596
,,,,,,,,,649,49.5548,0.0218256
,,,,,,,,,686,88.3187,0.0183827
,,,,,,,,,648,110.6,0.0634717
,,,,,,,,,685,54.9275,0.0324046
,,,,,,,,,723,27.7772,0.0253543
,,,,,,,,,722,63.8979,0.0307145
,,,,,,,,,761,84.6299,0.0243078
,,,,,,,,,800,43.3073,0.0177797
