facetNormals:0,facetNormals:1,facetNormals:2,FacetCenters:0,FacetCenters:1,FacetCenters:2,FacetIds,relFacetSize,absFacetSize,cellPairingIds,interplanarAngles,angleWeights
0.214904,0.34251,-0.884803,5.5525,4.84842,7.03636,1,0.0621471,0.00883917,8,36.51,0.0701789
0.697942,0.0438132,-0.668372,5.61406,4.81172,7.04454,2,0.0805948,0.011463,13,30.5973,0.0391422
0.330976,0.732876,-0.56723,5.57481,4.8903,7.07718,3,0.0285675,0.00406314,19,73.9858,0.0598875
-0.831553,0.320034,-0.370815,5.4948,4.87905,7.08854,4,0.0577864,0.00821894,26,89.918,0.0353196
0.122449,-0.902755,-0.321238,5.58986,4.76975,7.07758,5,0.0246701,0.00350883,34,73.9188,0.0454376
-0.523257,0.780131,-0.113257,5.50422,4.88719,7.09855,6,0.0358095,0.00509317,43,79.2451,0.0709545
0.858829,-0.402153,-0.143874,5.60951,4.76272,7.0612,7,0.0826703,0.0117582,53,108.363,0.043651
-0.945257,-0.26081,0.00911079,5.49113,4.84364,7.16435,8,0.0336393,0.00478451,64,63.7349,0.0625186
0.79647,0.530915,-0.0679233,5.59753,4.82197,7.04463,9,0.0628945,0.00894547,76,126.497,0.0600916
-0.687603,-0.659085,0.21663,5.51795,4.78605,7.14575,10,0.0581676,0.00827317,89,98.6893,0.0559651
0.906008,-0.16657,0.317418,5.58786,4.76482,7.07924,11,0.0509018,0.00723975,103,80.2922,0.0356607
0.0726192,0.937257,0.202182,5.5499,4.86947,7.06846,12,0.0250042,0.00355634,118,134.178,0.0337937
-0.359695,-0.861213,0.34046,5.58341,4.76645,7.15091,13,0.0232063,0.00330062,134,88.0968,0.0326351
0.568458,0.712378,0.377807,5.56765,4.80872,7.0062,14,0.0221274,0.00314717,151,130.428,0.0707961
0.084199,-0.876655,0.359255,5.59352,4.76569,7.16115,15,0.0822417,0.0116972,169,136.366,0.0447758
-0.805863,-0.209277,0.493394,5.49068,4.83475,7.14462,16,0.0349943,0.00497723,188,155.044,0.0357413
-0.319803,-0.676603,0.645684,5.53746,4.78035,7.1576,17,0.0250835,0.00356763,208,138.796,0.0378338
0.134189,0.233418,0.900174,5.48534,4.77532,7.1107,18,0.0271946,0.00386788,229,160.685,0.0192892
0.104041,-0.284028,0.93271,5.53709,4.74022,7.06763,19,0.0114163,0.00162374,18,47.5727,0.0421829
,,,,,,,,,25,109.948,0.0673109
,,,,,,,,,33,73.8057,0.0377767
,,,,,,,,,42,106.198,0.0495868
,,,,,,,,,52,43.0576,0.0816194
,,,,,,,,,63,135.557,0.0474666
,,,,,,,,,75,47.7161,0.0706529
,,,,,,,,,88,133.764,0.0675688
,,,,,,,,,102,64.0196,0.0623958
,,,,,,,,,117,92.6734,0.0381672
,,,,,,,,,133,122.498,0.0360363
,,,,,,,,,150,79.4069,0.0347219
,,,,,,,,,168,103.818,0.0814099
,,,,,,,,,187,164.324,0.0487997
,,,,,,,,,207,135.708,0.0382595
,,,,,,,,,228,123.207,0.0406671
,,,,,,,,,250,126.427,0.0199997
,,,,,,,,,32,79.7094,0.0382336
,,,,,,,,,41,117.495,0.0264761
,,,,,,,,,51,60.1953,0.0317811
,,,,,,,,,62,85.6781,0.0424618
,,,,,,,,,74,121.846,0.0308966
,,,,,,,,,87,42.9467,0.0392892
,,,,,,,,,101,150.123,0.0383167
,,,,,,,,,116,90.1349,0.0365961
,,,,,,,,,132,50.9415,0.0266673
,,,,,,,,,149,164.774,0.0256093
,,,,,,,,,167,59.2828,0.0249384
,,,,,,,,,186,150.968,0.0424051
,,,,,,,,,206,137.303,0.031456
,,,,,,,,,227,174.357,0.0267124
,,,,,,,,,249,108.614,0.0278641
,,,,,,,,,272,136.747,0.0163134
,,,,,,,,,50,106.938,0.0345782
,,,,,,,,,61,37.2581,0.0442178
,,,,,,,,,73,148.527,0.0680241
,,,,,,,,,86,42.3715,0.042524
,,,,,,,,,100,120.297,0.0602323
,,,,,,,,,115,72.6882,0.0579764
,,,,,,,,,131,169.439,0.054126
,,,,,,,,,148,79.7836,0.034905
,,,,,,,,,166,96.1526,0.0331143
,,,,,,,,,185,113.838,0.032001
,,,,,,,,,205,121.806,0.0678785
,,,,,,,,,226,63.265,0.0435908
,,,,,,,,,248,101.491,0.0349822
,,,,,,,,,271,114.129,0.0369842
,,,,,,,,,295,123.571,0.0190659
,,,,,,,,,72,143.21,0.0292139
,,,,,,,,,85,56.2756,0.0380003
,,,,,,,,,99,82.9189,0.0284649
,,,,,,,,,114,112.848,0.0354393
,,,,,,,,,130,62.1221,0.0346461
,,,,,,,,,147,80.2531,0.0332333
,,,,,,,,,165,166.23,0.024836
,,,,,,,,,184,49.4385,0.0239158
,,,,,,,,,204,136.811,0.0233297
,,,,,,,,,225,41.6725,0.0379549
,,,,,,,,,247,94.1863,0.028939
,,,,,,,,,270,67.5754,0.0248751
,,,,,,,,,294,122.185,0.0258709
,,,,,,,,,319,91.8437,0.0156093
,,,,,,,,,98,145.378,0.0499727
,,,,,,,,,113,71.7791,0.0346905
,,,,,,,,,129,89.677,0.0456358
,,,,,,,,,146,101.162,0.0443289
,,,,,,,,,164,133.963,0.0420422
,,,,,,,,,183,42.5454,0.0294469
,,,,,,,,,203,123.748,0.0281621
,,,,,,,,,224,76.6519,0.0273529
,,,,,,,,,246,148.662,0.0498942
,,,,,,,,,269,77.2221,0.0353972
,,,,,,,,,293,117.624,0.0295018
,,,,,,,,,318,89.36,0.0309131
,,,,,,,,,344,114.292,0.0173131
,,,,,,,,,128,138.849,0.0478201
,,,,,,,,,145,58.546,0.0714391
,,,,,,,,,163,112.375,0.0682875
,,,,,,,,,182,31.1965,0.0630081
,,,,,,,,,202,111.875,0.0383955
,,,,,,,,,223,90.6951,0.0362397
,,,,,,,,,245,81.041,0.0349107
,,,,,,,,,268,65.8553,0.0824555
,,,,,,,,,292,137.001,0.0491735
,,,,,,,,,317,95.7786,0.0384889
,,,,,,,,,343,96.8914,0.0409264
,,,,,,,,,370,85.7693,0.0200622
,,,,,,,,,162,161.418,0.0438339
,,,,,,,,,181,30.675,0.0426268
,,,,,,,,,201,147.977,0.0405081
,,,,,,,,,222,109.274,0.028686
,,,,,,,,,244,54.3562,0.0274654
,,,,,,,,,267,138.064,0.0266951
,,,,,,,,,291,80.6008,0.0477482
,,,,,,,,,316,30.1298,0.0343034
,,,,,,,,,342,59.9992,0.0287381
,,,,,,,,,369,101.235,0.0300756
,,,,,,,,,397,90.9398,0.0170472
,,,,,,,,,200,166.724,0.0604388
,,,,,,,,,221,49.1457,0.0562662
,,,,,,,,,243,54.0501,0.0357827
,,,,,,,,,266,143.55,0.0339032
,,,,,,,,,290,31.7218,0.0327372
,,,,,,,,,315,117.593,0.0712786
,,,,,,,,,341,147.869,0.0449683
,,,,,,,,,368,133.908,0.0358639
,,,,,,,,,396,79.1539,0.0379711
,,,,,,,,,425,98.0203,0.0193249
,,,,,,,,,242,117.838,0.0542927
,,,,,,,,,265,131.623,0.0349742
,,,,,,,,,289,23.6817,0.0331766
,,,,,,,,,314,143.889,0.0320592
,,,,,,,,,340,49.9577,0.0681408
,,,,,,,,,367,32.3152,0.0436989
,,,,,,,,,395,33.4342,0.0350518
,,,,,,,,,424,93.1922,0.037062
,,,,,,,,,454,70.6268,0.0190866
,,,,,,,,,288,91.5994,0.0335351
,,,,,,,,,313,94.4061,0.0318789
,,,,,,,,,339,57.5147,0.0308458
,,,,,,,,,366,68.7197,0.0628833
,,,,,,,,,394,124.835,0.041475
,,,,,,,,,423,88.3393,0.0336064
,,,,,,,,,453,66.2689,0.0354499
,,,,,,,,,484,62.7373,0.0186498
,,,,,,,,,338,143.154,0.0240717
,,,,,,,,,365,34.1224,0.023478
,,,,,,,,,393,144.32,0.038349
,,,,,,,,,422,99.5823,0.0291675
,,,,,,,,,452,123.663,0.0250438
,,,,,,,,,483,62.9748,0.0260535
,,,,,,,,,515,94.2623,0.0156756
,,,,,,,,,392,134.693,0.022654
,,,,,,,,,421,26.3147,0.0361984
,,,,,,,,,451,48.4221,0.0279065
,,,,,,,,,482,20.8665,0.0241084
,,,,,,,,,514,86.4878,0.0250426
,,,,,,,,,547,57.4067,0.0153039
,,,,,,,,,450,118.025,0.0348723
,,,,,,,,,481,116.147,0.0271117
,,,,,,,,,513,115.502,0.0235129
,,,,,,,,,546,51.0566,0.0244007
,,,,,,,,,580,77.5115,0.0150617
,,,,,,,,,512,71.4489,0.0490974
,,,,,,,,,545,31.8953,0.0384423
,,,,,,,,,579,81.6316,0.0408737
,,,,,,,,,614,50.531,0.0200495
,,,,,,,,,578,41.3695,0.0292214
,,,,,,,,,613,71.5917,0.0306053
,,,,,,,,,649,62.6627,0.0172161
,,,,,,,,,648,65.821,0.0260964
,,,,,,,,,685,38.2475,0.0156911
,,,,,,,,,722,31.2923,0.0160816
