"cellPairingIds","interplanarAngles","angleWeights"
18,40.0216,0.0295633
42,125.711,0.0133984
52,38.6236,0.0326516
63,51.3213,0.0443621
32,61.7717,0.0256454
51,155.088,0.0142517
74,29.1459,0.0553324
61,123.154,0.0125308
86,64.4543,0.0360888
115,43.7653,0.0256008
98,117.668,0.0149326
146,146.558,0.014238
224,138.886,0.0166059
128,54.5561,0.0672347
245,56.1036,0.0616903
181,35.5912,0.0551252
267,35.8686,0.123071
314,31.1978,0.0513419
