Q	U	V
{$V$}	{[mm$^3$]}	0.00754147
{$d_v$}	{[mm]}	0.243306
{$S_c$}	{[mm$^2$]}	0.370005
{$S_o$}	{[mm$^2$]}	0.220663
{$S_l/S_o$}	[]	0.676788
{$\Psi$}	[]	0.502629
{$\eta$}	[]	0.529352
{med($\theta_e$)}	{[$^\circ$]}	61.4957
{$\Upsilon$}	[]	15
{$\Xi$}	[]	10
