"cellPairingIds","interplanarAngles","angleWeights"
8,65.9661,0.0867436
13,88.6594,0.0308248
19,81.9068,0.0451264
43,85.8102,0.075768
18,79.8258,0.0376067
33,88.6543,0.102402
42,68.0884,0.0604704
52,102.63,0.136095
32,48.518,0.0268653
41,41.6085,0.032596
50,73.0865,0.0490264
73,125.215,0.0556187
86,77.0322,0.0376896
131,96.0013,0.0334858
72,57.617,0.0484857
99,53.8901,0.0500291
114,71.6105,0.0567133
98,95.6585,0.054924
129,46.4612,0.0409767
146,70.9506,0.0299574
163,43.1761,0.0413368
182,63.7719,0.0478431
162,37.788,0.0420736
201,34.1198,0.0339505
200,32.0579,0.032907
221,29.9518,0.036902
242,24.864,0.0277197
