"cellPairingIds","interplanarAngles","angleWeights"
8,45.9243,0.0511183
43,76.4527,0.0392193
53,54.8963,0.0301605
89,141.56,0.0140567
25,72.1621,0.0159807
52,94.4663,0.077286
102,118.256,0.0170702
73,35.0076,0.0145963
131,133.647,0.00876015
128,47.2407,0.0376897
182,140.972,0.0154999
201,136.18,0.0138552
