Q	U	V
{$V$}	{[mm$^3$]}	0.0102679
{$d_v$}	{[mm]}	0.269667
{$S_c$}	{[mm$^2$]}	0.368839
{$S_o$}	{[mm$^2$]}	0.222283
{$S_l/S_o$}	[]	0.659322
{$\Psi$}	[]	0.619396
{$\eta$}	[]	0.664664
{med($\theta_e$)}	{[$^\circ$]}	58.7052
{$\Upsilon$}	[]	17
{$\Xi$}	[]	13
