"cellPairingIds","interplanarAngles","angleWeights"
8,45.0728,0.0128462
13,74.2389,0.0168643
19,49.3408,0.0157442
26,103.534,0.0125523
43,74.5692,0.0165646
18,30.0968,0.0308439
25,40.9798,0.0272925
32,61.3426,0.0552698
41,143.514,0.0292023
51,34.6488,0.0645545
87,74.2934,0.0683491
101,54.7354,0.066246
61,49.9057,0.0507368
73,56.3786,0.0521765
86,32.251,0.0681385
148,49.8772,0.0218428
85,96.8772,0.0283153
114,85.2556,0.0285711
147,53.9426,0.0211854
184,40.227,0.00862658
204,74.2265,0.0220469
225,82.4978,0.0215612
270,96.1219,0.03179
146,55.2762,0.0598381
183,26.6161,0.0231592
128,42.3105,0.0867312
202,70.9715,0.0234546
268,38.65,0.0369239
222,31.1515,0.0262152
200,26.49,0.0630846
221,32.1822,0.036246
290,19.718,0.0388429
265,66.8471,0.0233733
314,39.2771,0.0381545
395,71.9116,0.0812496
339,21.6737,0.0263527
393,71.5652,0.0186224
452,55.1127,0.0257896
392,38.7441,0.00937513
482,64.5655,0.0107801
513,63.4884,0.0450435
545,36.9575,0.0430615
