Q	U	V
{$V$}	{[mm$^3$]}	0.00300661
{$d_v$}	{[mm]}	0.179071
{$S_c$}	{[mm$^2$]}	0.149373
{$S_o$}	{[mm$^2$]}	0.0959738
{$S_l/S_o$}	[]	0.556394
{$\Psi$}	[]	0.674419
{$\eta$}	[]	0.707718
{med($\theta_e$)}	{[$^\circ$]}	55.7622
{$\Upsilon$}	[]	13
{$\Xi$}	[]	7
