Q	U	V
{$V$}	{[mm$^3$]}	0.00169567
{$d_v$}	{[mm]}	0.147950
{$S_c$}	{[mm$^2$]}	0.132184
{$S_o$}	{[mm$^2$]}	0.0741783
{$S_l/S_o$}	[]	0.781977
{$\Psi$}	[]	0.520235
{$\eta$}	[]	0.618710
{med($\theta_e$)}	{[$^\circ$]}	88.8314
{$\Upsilon$}	[]	11
{$\Xi$}	[]	10
