Q	U	V
{$V$}	{[mm$^3$]}	0.00577099
{$d_v$}	{[mm]}	0.222545
{$S_c$}	{[mm$^2$]}	0.365379
{$S_o$}	{[mm$^2$]}	0.178616
{$S_l/S_o$}	[]	1.045612
{$\Psi$}	[]	0.425834
{$\eta$}	[]	0.447694
{med($\theta_e$)}	{[$^\circ$]}	81.9369
{$\Upsilon$}	[]	17
{$\Xi$}	[]	11
