facetNormals:0,facetNormals:1,facetNormals:2,FacetCenters:0,FacetCenters:1,FacetCenters:2,FacetIds,relFacetSize,absFacetSize,cellPairingIds,interplanarAngles,angleWeights
-0.219141,-0.0884892,-0.915871,4.3802,3.29176,8.1412,1,0.0627032,0.0140982,8,49.2087,0.0386771
-0.550041,0.556324,-0.578704,4.33562,3.37719,8.20657,2,0.0279626,0.00628709,13,60.5191,0.0376858
0.40338,-0.706671,-0.518679,4.44595,3.21503,8.18036,3,0.026938,0.00605672,19,68.9738,0.0550198
0.212068,0.785208,-0.475763,4.3992,3.39044,8.23797,4,0.0490138,0.0110202,26,61.2931,0.0433494
-0.377551,-0.850852,-0.314931,4.34662,3.24559,8.22807,5,0.0331251,0.00744782,34,95.098,0.0360777
0.400562,0.90223,-0.0920297,4.42127,3.43058,8.31086,6,0.0253243,0.00569389,43,60.8826,0.0488858
-0.931602,-0.0540439,-0.258487,4.33385,3.28259,8.19145,7,0.0400585,0.00900672,53,75.2091,0.0762637
-0.743876,-0.589028,-0.0153015,4.36908,3.22093,8.23499,8,0.0973079,0.0218787,64,91.4814,0.0426607
-0.473415,0.850831,0.0571097,4.33972,3.40926,8.26974,9,0.0323275,0.0072685,76,87.5438,0.0337255
-0.953806,0.176686,0.167578,4.31138,3.3325,8.26453,10,0.0230659,0.00518612,89,123.898,0.048651
0.900722,0.00626445,0.33802,4.49792,3.31851,8.35397,11,0.039744,0.00893602,103,99.9129,0.0289514
-0.75738,0.565402,0.303055,4.3496,3.36428,8.19256,12,0.0188207,0.00423163,118,119.574,0.0206601
-0.585088,0.544929,0.595509,4.37931,3.38845,8.30223,13,0.0123675,0.00278071,134,125.416,0.0748253
0.280676,-0.700924,0.56494,4.45744,3.22431,8.31372,14,0.0927578,0.0208556,151,121.922,0.0516974
-0.681922,0.166878,0.681241,4.36972,3.3495,8.35573,15,0.0439782,0.00988804,169,118.217,0.0531836
-0.668849,-0.252431,0.659296,4.33773,3.3015,8.33173,16,0.0461736,0.0103816,188,152.568,0.0523619
-0.0611708,-0.272213,0.937702,4.40783,3.31236,8.37597,17,0.0449487,0.0101062,18,109.591,0.0274407
,,,,,,,,,25,49.4992,0.0356097
,,,,,,,,,33,95.0051,0.0303257
,,,,,,,,,42,69.6905,0.0265781
,,,,,,,,,52,47.882,0.032935
,,,,,,,,,63,84.3866,0.0434417
,,,,,,,,,75,42.4173,0.029987
,,,,,,,,,88,56.6983,0.0252793
,,,,,,,,,102,137.258,0.0328283
,,,,,,,,,117,54.8719,0.0224984
,,,,,,,,,133,73.2028,0.0171499
,,,,,,,,,150,161.707,0.0429712
,,,,,,,,,168,85.5604,0.0341877
,,,,,,,,,187,99.3701,0.0348314
,,,,,,,,,207,133.926,0.034477
,,,,,,,,,32,104.169,0.0347677
,,,,,,,,,41,49.7784,0.0297129
,,,,,,,,,51,116.594,0.0261062
,,,,,,,,,62,102.581,0.0322135
,,,,,,,,,74,82.2098,0.042195
,,,,,,,,,87,150.836,0.0293877
,,,,,,,,,101,128.902,0.024852
,,,,,,,,,116,78.5946,0.0321113
,,,,,,,,,132,154.196,0.0221593
,,,,,,,,,149,165.174,0.0169521
,,,,,,,,,167,69.7115,0.041751
,,,,,,,,,186,142.247,0.0334108
,,,,,,,,,206,117.505,0.0340253
,,,,,,,,,227,109.729,0.0336871
,,,,,,,,,50,130.254,0.0395327
,,,,,,,,,61,26.3453,0.0333944
,,,,,,,,,73,97.3687,0.044086
,,,,,,,,,86,133.277,0.0651911
,,,,,,,,,100,53.9757,0.0389592
,,,,,,,,,115,98.8849,0.0313693
,,,,,,,,,131,87.78,0.0438949
,,,,,,,,,148,81.4429,0.0271977
,,,,,,,,,166,88.7506,0.0197513
,,,,,,,,,185,148.749,0.0641372
,,,,,,,,,205,111.491,0.0463597
,,,,,,,,,226,135.512,0.0475513
,,,,,,,,,248,136.876,0.0468933
,,,,,,,,,72,155.982,0.0287041
,,,,,,,,,85,59.7672,0.0362633
,,,,,,,,,99,32.46,0.0494251
,,,,,,,,,114,125.986,0.0327214
,,,,,,,,,130,80.6597,0.0271951
,,,,,,,,,147,118.551,0.0361339
,,,,,,,,,165,107.332,0.0240033
,,,,,,,,,184,116.054,0.0180106
,,,,,,,,,204,70.2921,0.0488169
,,,,,,,,,225,95.9154,0.0377878
,,,,,,,,,247,74.2333,0.0385758
,,,,,,,,,270,92.4205,0.0381416
,,,,,,,,,98,114.502,0.0310312
,,,,,,,,,113,151.65,0.0401893
,,,,,,,,,129,53.6789,0.0284005
,,,,,,,,,146,104.119,0.0241424
,,,,,,,,,164,69.4167,0.0309364
,,,,,,,,,183,79.528,0.0215934
,,,,,,,,,203,78.1789,0.0166189
,,,,,,,,,224,127.718,0.0397863
,,,,,,,,,246,101.014,0.0321407
,,,,,,,,,269,125.241,0.032709
,,,,,,,,,293,111.558,0.0323963
,,,,,,,,,128,37.5226,0.0567534
,,,,,,,,,145,66.2551,0.0357802
,,,,,,,,,163,28.7496,0.029275
,,,,,,,,,182,174.205,0.0399006
,,,,,,,,,202,51.6223,0.0256093
,,,,,,,,,223,67.9962,0.0188999
,,,,,,,,,245,113.879,0.055953
,,,,,,,,,268,61.6247,0.0419269
,,,,,,,,,292,60.3166,0.0428992
,,,,,,,,,317,100.38,0.0423629
,,,,,,,,,162,99.3188,0.0485319
,,,,,,,,,181,49.807,0.037292
,,,,,,,,,201,138.038,0.0564371
,,,,,,,,,222,76.1343,0.0315409
,,,,,,,,,244,83.6192,0.0219458
,,,,,,,,,267,77.3854,0.0949784
,,,,,,,,,291,64.5756,0.0605782
,,,,,,,,,316,46.4246,0.062629
,,,,,,,,,342,78.0965,0.0614926
,,,,,,,,,200,50.4437,0.0269224
,,,,,,,,,221,115.352,0.0356542
,,,,,,,,,243,27.7257,0.0237907
,,,,,,,,,266,37.1882,0.0178906
,,,,,,,,,290,139.271,0.0479453
,,,,,,,,,315,58.1334,0.0372634
,,,,,,,,,341,81.5416,0.0380295
,,,,,,,,,368,98.9894,0.0376074
,,,,,,,,,242,147.795,0.0291906
,,,,,,,,,265,26.6742,0.0207281
,,,,,,,,,289,39.7869,0.0161016
,,,,,,,,,314,108.652,0.0369448
,,,,,,,,,340,34.4528,0.0302606
,,,,,,,,,367,42.6752,0.0307638
,,,,,,,,,395,79.9908,0.030487
,,,,,,,,,288,127.115,0.0255447
,,,,,,,,,313,109.635,0.0188647
,,,,,,,,,339,61.0327,0.0556455
,,,,,,,,,366,114.007,0.0417541
,,,,,,,,,394,114.042,0.0427182
,,,,,,,,,423,73.9544,0.0421864
,,,,,,,,,338,19.6813,0.0149265
,,,,,,,,,365,117.88,0.0312921
,,,,,,,,,393,32.6763,0.0263603
,,,,,,,,,422,54.2716,0.0267414
,,,,,,,,,452,79.5218,0.026532
,,,,,,,,,392,102.892,0.0218251
,,,,,,,,,421,23.3169,0.0193059
,,,,,,,,,451,48.1864,0.0195095
,,,,,,,,,482,62.7976,0.0193978
,,,,,,,,,450,85.2435,0.0596671
,,,,,,,,,481,66.7727,0.0616557
,,,,,,,,,513,40.3217,0.060554
,,,,,,,,,512,24.8696,0.0450492
,,,,,,,,,545,48.4253,0.0444582
,,,,,,,,,578,40.0917,0.0455529
