Q	U	V
{$V$}	{[mm$^3$]}	0.00637421
{$d_v$}	{[mm]}	0.230043
{$S_c$}	{[mm$^2$]}	0.245674
{$S_o$}	{[mm$^2$]}	0.1918
{$S_l/S_o$}	[]	0.280886
{$\Psi$}	[]	0.67672
{$\eta$}	[]	0.702260
{med($\theta_e$)}	{[$^\circ$]}	57.24965
{$\Upsilon$}	[]	18
{$\Xi$}	[]	11
