Q	U	V
{$V$}	{[mm$^3$]}	0.001438
{$d_v$}	{[mm]}	0.140040
{$S_c$}	{[mm$^2$]}	0.113418
{$S_o$}	{[mm$^2$]}	0.0579698
{$S_l/S_o$}	[]	0.956501
{$\Psi$}	[]	0.543219
{$\eta$}	[]	0.632550
{med($\theta_e$)}	{[$^\circ$]}	74.81385
{$\Upsilon$}	[]	14
{$\Xi$}	[]	6
