facetNormals:0,facetNormals:1,facetNormals:2,FacetCenters:0,FacetCenters:1,FacetCenters:2,FacetIds,relFacetSize,absFacetSize,cellPairingIds,interplanarAngles,angleWeights
0.18029,-0.140199,-0.956526,3.59424,3.71525,8.80341,1,0.023522,0.00495598,8,40.1176,0.0217231
-0.300458,-0.567259,-0.749109,3.5495,3.65289,8.85031,2,0.0201798,0.0042518,13,46.6408,0.030224
-0.215517,0.515421,-0.811732,3.51969,3.82021,8.81215,3,0.0422669,0.00890545,19,36.5079,0.0357154
0.328025,-0.632313,-0.632955,3.59883,3.67957,8.81218,4,0.0741573,0.0156246,26,79.2872,0.0142478
-0.848663,0.330467,-0.398371,3.49268,3.74786,8.85676,5,0.0102187,0.00215304,34,82.3137,0.0361833
-0.302608,0.85361,-0.313959,3.53288,3.84974,8.85464,6,0.0783654,0.0165112,43,65.498,0.0340699
0.315613,0.777247,-0.462977,3.61895,3.84206,8.83574,7,0.0617687,0.0130144,53,79.3999,0.0346629
-0.0528584,-0.942861,-0.0506214,3.54869,3.62851,8.89494,8,0.0658536,0.0138751,64,69.3674,0.0217691
0.954206,-0.194082,-0.148549,3.68752,3.74922,8.82065,9,0.0202594,0.00426856,76,70.2963,0.0402945
-0.792839,-0.144238,-0.447875,3.48414,3.72401,8.86239,10,0.140426,0.0295871,89,86.7893,0.0220398
0.844814,0.470292,0.0345913,3.66951,3.82262,8.86079,11,0.0207334,0.00436843,103,76.1818,0.0251832
0.764228,-0.614006,-0.00669053,3.6502,3.68554,8.83718,12,0.0270969,0.00570919,118,98.8863,0.0228508
0.438974,0.868091,0.110997,3.62083,3.85974,8.89379,13,0.0222169,0.004681,134,109.339,0.0295883
-0.528674,-0.74116,0.339838,3.53387,3.61411,8.96632,14,0.0398709,0.00840061,151,119.368,0.0338289
-0.859553,-0.264624,0.366423,3.46516,3.71291,8.93326,15,0.060213,0.0126866,169,126.286,0.0305214
-0.853192,0.243793,0.394255,3.46064,3.78032,8.9453,16,0.0434511,0.00915495,188,128.977,0.0244648
-0.533981,0.694574,0.428164,3.49528,3.84687,8.95478,17,0.0254863,0.00536986,208,135.604,0.0229292
0.331536,0.608883,0.693731,3.55332,3.85177,8.96028,18,0.0223655,0.0047123,229,170.114,0.0133164
-0.0998286,0.287894,0.935425,3.52066,3.77483,9.00738,19,0.00928704,0.00195674,18,66.9606,0.0273173
,,,,,,,,,25,38.6396,0.0317263
,,,,,,,,,33,68.0887,0.0135673
,,,,,,,,,42,99.6251,0.0320949
,,,,,,,,,52,101.528,0.0304211
,,,,,,,,,63,50.8794,0.030893
,,,,,,,,,75,93.8546,0.0202195
,,,,,,,,,88,43.8832,0.0352886
,,,,,,,,,102,124.931,0.0204529
,,,,,,,,,117,82.6519,0.0231323
,,,,,,,,,133,137.093,0.0211494
,,,,,,,,,150,70.2022,0.0267969
,,,,,,,,,168,81.9672,0.0302288
,,,,,,,,,187,100.666,0.0275601
,,,,,,,,,207,125.184,0.0225248
,,,,,,,,,228,175.589,0.0212165
,,,,,,,,,250,149.246,0.0127201
,,,,,,,,,32,82.8308,0.0538445
,,,,,,,,,41,46.3117,0.0164584
,,,,,,,,,51,36.4225,0.054915
,,,,,,,,,62,41.3846,0.05019
,,,,,,,,,74,117.721,0.0514875
,,,,,,,,,87,100.994,0.0273901
,,,,,,,,,101,59.574,0.0649765
,,,,,,,,,116,88.0617,0.0278201
,,,,,,,,,132,119.503,0.033023
,,,,,,,,,149,74.1979,0.0291248
,,,,,,,,,167,124.613,0.0410339
,,,,,,,,,186,105.056,0.0496686
,,,,,,,,,206,90.6285,0.0428508
,,,,,,,,,227,82.4938,0.0317986
,,,,,,,,,249,109.383,0.0292522
,,,,,,,,,272,127.445,0.0152281
,,,,,,,,,50,104.376,0.0179623
,,,,,,,,,61,118.818,0.0762033
,,,,,,,,,73,95.9654,0.0673984
,,,,,,,,,86,47.3219,0.0697592
,,,,,,,,,100,55.6405,0.0318245
,,,,,,,,,115,82.5036,0.0970589
,,,,,,,,,131,92.6201,0.0324064
,,,,,,,,,148,46.491,0.0396908
,,,,,,,,,166,120.617,0.0341906
,,,,,,,,,185,85.0361,0.0518594
,,,,,,,,,205,111.993,0.0664616
,,,,,,,,,226,137.627,0.0547957
,,,,,,,,,248,162.324,0.0379351
,,,,,,,,,271,139.944,0.0343662
,,,,,,,,,295,149.392,0.0165069
,,,,,,,,,72,45.8258,0.0180799
,,,,,,,,,85,79.508,0.0175364
,,,,,,,,,99,105.205,0.0176921
,,,,,,,,,114,146.316,0.0135852
,,,,,,,,,130,28.7345,0.0190511
,,,,,,,,,147,126.741,0.0136901
,,,,,,,,,165,150.576,0.0148408
,,,,,,,,,184,97.6691,0.0139987
,,,,,,,,,204,85.9422,0.0162681
,,,,,,,,,225,59.0797,0.0174723
,,,,,,,,,247,47.8617,0.0165462
,,,,,,,,,270,58.1069,0.0145883
,,,,,,,,,294,111.449,0.0140281
,,,,,,,,,319,101.369,0.00973064
,,,,,,,,,98,39.0437,0.0690842
,,,,,,,,,113,148.505,0.0715668
,,,,,,,,,129,115.588,0.0321955
,,,,,,,,,146,73.0653,0.100594
,,,,,,,,,164,81.6337,0.0327911
,,,,,,,,,183,143.285,0.0402695
,,,,,,,,,203,52.345,0.0346191
,,,,,,,,,224,128.463,0.0528517
,,,,,,,,,246,94.9807,0.0681003
,,,,,,,,,269,68.4076,0.0559048
,,,,,,,,,293,48.4425,0.0384634
,,,,,,,,,318,77.6159,0.0347992
,,,,,,,,,344,91.0771,0.0166061
,,,,,,,,,128,143.254,0.0637458
,,,,,,,,,145,76.5774,0.0305114
,,,,,,,,,163,100.104,0.0857978
,,,,,,,,,182,48.3445,0.0310459
,,,,,,,,,202,104.358,0.037669
,,,,,,,,,223,35.6949,0.0326796
,,,,,,,,,245,165.213,0.0484609
,,,,,,,,,268,134.019,0.0609809
,,,,,,,,,292,106.377,0.0510154
,,,,,,,,,317,79.3238,0.0360841
,,,,,,,,,343,74.147,0.0328401
,,,,,,,,,370,104.802,0.0161464
,,,,,,,,,162,81.3515,0.0309861
,,,,,,,,,181,76.7,0.0896605
,,,,,,,,,201,122.367,0.0315375
,,,,,,,,,222,54.4632,0.0383952
,,,,,,,,,244,156.221,0.0332248
,,,,,,,,,267,39.4567,0.0496695
,,,,,,,,,291,72.4857,0.0629071
,,,,,,,,,316,102.882,0.0523566
,,,,,,,,,342,134.672,0.0367499
,,,,,,,,,369,132.51,0.0333907
,,,,,,,,,397,109.693,0.0162784
,,,,,,,,,200,136.801,0.0354101
,,,,,,,,,221,41.866,0.0204937
,,,,,,,,,243,28.4058,0.0231845
,,,,,,,,,266,75.9638,0.021193
,,,,,,,,,290,115.435,0.026867
,,,,,,,,,315,149.387,0.030318
,,,,,,,,,341,164.137,0.0276342
,,,,,,,,,368,137.479,0.0225742
,,,,,,,,,396,84.349,0.0212604
,,,,,,,,,425,107.419,0.0127359
,,,,,,,,,242,147.599,0.036132
,,,,,,,,,265,124.686,0.0454279
,,,,,,,,,289,125.405,0.0383642
,,,,,,,,,314,65.3365,0.0621076
,,,,,,,,,340,51.6488,0.0842854
,,,,,,,,,367,58.7277,0.0663667
,,,,,,,,,395,81.5948,0.0431426
,,,,,,,,,424,137.007,0.0385855
,,,,,,,,,454,114.861,0.0174219
,,,,,,,,,288,67.9139,0.0234918
,,,,,,,,,313,34.2565,0.0214495
,,,,,,,,,339,146.437,0.0272805
,,,,,,,,,366,153.101,0.0308456
,,,,,,,,,394,129.101,0.0280719
,,,,,,,,,423,96.6742,0.0228655
,,,,,,,,,453,51.5213,0.0215185
,,,,,,,,,484,84.9724,0.0128281
,,,,,,,,,338,101.922,0.0244154
,,,,,,,,,365,87.0652,0.0322656
,,,,,,,,,393,121.459,0.0373746
,,,,,,,,,422,147.672,0.0333784
,,,,,,,,,452,151.161,0.0262669
,,,,,,,,,483,97.4777,0.0245049
,,,,,,,,,515,105.597,0.013833
,,,,,,,,,392,151.705,0.028534
,,,,,,,,,421,126.559,0.0324578
,,,,,,,,,451,97.1989,0.0294009
,,,,,,,,,482,64.1638,0.0237396
,,,,,,,,,514,38.5385,0.0222909
,,,,,,,,,547,71.2307,0.0130986
,,,,,,,,,450,34.7844,0.0479746
,,,,,,,,,481,64.625,0.041584
,,,,,,,,,513,95.2668,0.0310956
,,,,,,,,,546,114.207,0.0286563
,,,,,,,,,580,80.53,0.015065
,,,,,,,,,512,30.4008,0.0504769
,,,,,,,,,545,62.8543,0.0358138
,,,,,,,,,579,101.623,0.032616
,,,,,,,,,614,68.3566,0.0160921
,,,,,,,,,578,33.0402,0.0321279
,,,,,,,,,613,81.602,0.0295307
,,,,,,,,,649,56.7217,0.0153032
,,,,,,,,,648,55.4123,0.0238241
,,,,,,,,,685,47.0396,0.0136134
,,,,,,,,,722,34.9233,0.0131243
