Q	U	V
{$V$}	{[mm$^3$]}	0.00370365
{$d_v$}	{[mm]}	0.191960
{$S_c$}	{[mm$^2$]}	0.218165
{$S_o$}	{[mm$^2$]}	0.125714
{$S_l/S_o$}	[]	0.735407
{$\Psi$}	[]	0.530623
{$\eta$}	[]	0.565430
{med($\theta_e$)}	{[$^\circ$]}	65.4834
{$\Upsilon$}	[]	15
{$\Xi$}	[]	12
