"cellPairingIds","interplanarAngles","angleWeights"
8,101.231,0.0280485
13,68.9928,0.0292674
26,134.479,0.0305335
43,102.833,0.0244497
64,70.399,0.0167547
76,84.1837,0.020137
18,50.7296,0.0670795
25,40.4308,0.0938995
33,91.1271,0.0741238
32,86.8089,0.109113
87,74.8186,0.0256806
132,107.202,0.0578241
149,56.0851,0.0657276
50,55.1899,0.129064
148,49.5275,0.0767118
85,49.007,0.0533655
147,34.5478,0.0363972
165,55.23,0.0629839
163,35.8644,0.0280524
182,30.0897,0.028071
245,39.8365,0.043719
200,61.3933,0.0183715
243,98.1722,0.0233585
266,37.2766,0.0245511
290,68.5662,0.0240051
314,33.3443,0.0316128
288,49.5752,0.0305228
339,33.3006,0.0316363
338,75.3795,0.0523963
365,58.4913,0.0499708
