"cellPairingIds","interplanarAngles","angleWeights"
8,36.9734,0.0583553
13,67.771,0.041738
19,32.1353,0.0495666
34,42.2067,0.047978
18,96.5339,0.0550282
33,52.2152,0.0428888
42,52.2436,0.0664168
52,44.7681,0.0800425
75,48.8795,0.0301456
32,48.6129,0.0471455
41,118.745,0.0331799
74,58.8037,0.0411615
101,57.3902,0.0368225
132,92.5367,0.035147
61,50.3957,0.0552643
86,38.4415,0.0487557
114,41.9768,0.022154
147,58.7432,0.0311694
165,110.071,0.0297659
184,59.2449,0.0397448
98,21.2663,0.061729
113,61.3168,0.0472178
246,79.0269,0.0250707
269,66.6301,0.0771336
145,43.0879,0.0291412
182,53.8253,0.0470368
292,60.5482,0.0961404
181,44.6735,0.0377975
291,55.16,0.0236392
221,26.6656,0.0238442
265,52.2905,0.0326646
314,31.4909,0.0332142
340,50.9263,0.0221408
288,96.653,0.0328991
313,40.2053,0.0455354
394,43.2722,0.0554796
338,62.7324,0.0426008
365,35.2061,0.0318449
393,61.9346,0.0215239
422,80.0538,0.0511837
450,30.868,0.0217611
512,36.6823,0.0293352
