Q	U	V
{$V$}	{[mm$^3$]}	0.0075296
{$d_v$}	{[mm]}	0.243178
{$S_c$}	{[mm$^2$]}	0.303852
{$S_o$}	{[mm$^2$]}	0.184909
{$S_l/S_o$}	[]	0.643252
{$\Psi$}	[]	0.611416
{$\eta$}	[]	0.619910
{med($\theta_e$)}	{[$^\circ$]}	56.00445
{$\Upsilon$}	[]	16
{$\Xi$}	[]	6
