facetNormals:0,facetNormals:1,facetNormals:2,FacetCenters:0,FacetCenters:1,FacetCenters:2,FacetIds,relFacetSize,absFacetSize,cellPairingIds,interplanarAngles,angleWeights
0.0889265,0.227683,-0.923566,6.55197,4.17915,7.06654,1,0.062001,0.00709134,8,36.4105,0.0629837
0.171438,-0.367619,-0.883267,6.57504,4.14169,7.06158,2,0.0639982,0.00731977,13,43.3857,0.0853728
0.526854,0.620766,-0.524225,6.56291,4.28145,7.10019,3,0.137026,0.0156723,19,47.8954,0.0510338
-0.225248,0.808249,-0.499792,6.50876,4.19995,7.14304,4,0.0433634,0.00495968,26,77.5421,0.0584606
-0.278496,-0.825916,-0.449238,6.53011,4.11112,7.088,5,0.0553028,0.00632524,34,78.9851,0.012781
-0.933061,-0.0622091,-0.29923,6.50309,4.13529,7.12689,6,0.00712484,0.000814901,43,83.5017,0.0441323
-0.676708,0.684831,-0.00904562,6.4948,4.18713,7.16269,7,0.0342589,0.00391835,53,91.2581,0.0456442
0.773715,-0.55984,-0.0418056,6.61998,4.1235,7.11635,8,0.0361162,0.00413078,64,87.0904,0.0821669
0.909392,0.262669,0.102324,6.61537,4.20913,7.13707,9,0.121774,0.0139279,76,144.775,0.0820304
0.213614,-0.661399,0.677985,6.55832,4.13415,7.16648,10,0.121177,0.0138595,89,116.868,0.0285455
0.437215,0.583496,0.639277,6.56437,4.28646,7.18752,11,0.0185409,0.00212061,103,134.542,0.0528924
0.589231,0.0498632,0.778181,6.58519,4.21807,7.19716,12,0.0461173,0.00527465,118,146.963,0.0705224
-0.267963,0.285293,0.878685,6.52196,4.27827,7.19446,13,0.0817596,0.00935122,18,69.7903,0.0872473
,,,,,,,,,25,83.6063,0.0516978
,,,,,,,,,33,46.7789,0.0593336
,,,,,,,,,42,82.3398,0.0128222
,,,,,,,,,52,112.61,0.044628
,,,,,,,,,63,66.1707,0.0461746
,,,,,,,,,75,91.9221,0.0839019
,,,,,,,,,88,109.762,0.0837596
,,,,,,,,,102,138.346,0.028752
,,,,,,,,,117,129.532,0.0536059
,,,,,,,,,133,172.496,0.0717967
,,,,,,,,,32,46.9937,0.0658788
,,,,,,,,,41,116.516,0.0788017
,,,,,,,,,51,113.121,0.0135454
,,,,,,,,,62,85.4887,0.0548135
,,,,,,,,,74,84.9166,0.0571653
,,,,,,,,,87,50.3315,0.128951
,,,,,,,,,101,134.026,0.128615
,,,,,,,,,116,74.0882,0.0326623
,,,,,,,,,132,94.0321,0.069009
,,,,,,,,,149,117.126,0.102412
,,,,,,,,,50,113.398,0.0486107
,,,,,,,,,61,71.1731,0.0122388
,,,,,,,,,73,40.9253,0.0382772
,,,,,,,,,86,130.464,0.0394094
,,,,,,,,,100,92.6924,0.0639533
,,,,,,,,,115,166.369,0.0638706
,,,,,,,,,131,86.754,0.0259755
,,,,,,,,,148,120.284,0.044698
,,,,,,,,,166,99.0775,0.0566702
,,,,,,,,,72,62.4259,0.0126234
,,,,,,,,,85,113.277,0.0423086
,,,,,,,,,99,73.5343,0.0436961
,,,,,,,,,114,123.566,0.0760625
,,,,,,,,,130,78.9677,0.0759455
,,,,,,,,,147,159.541,0.0277712
,,,,,,,,,165,125.378,0.0502941
,,,,,,,,,184,126.1,0.0659778
,,,,,,,,,98,51.2648,0.0117964
,,,,,,,,,113,135.95,0.0119018
,,,,,,,,,129,163.324,0.013462
,,,,,,,,,146,112.255,0.0134584
,,,,,,,,,164,131.876,0.010294
,,,,,,,,,183,144.966,0.0123428
,,,,,,,,,203,91.8598,0.0131074
,,,,,,,,,128,170.071,0.0351631
,,,,,,,,,145,118.431,0.053474
,,,,,,,,,163,130.219,0.0534161
,,,,,,,,,182,83.9781,0.0240604
,,,,,,,,,202,113.261,0.0393133
,,,,,,,,,223,66.5363,0.0482853
,,,,,,,,,162,52.6402,0.0557098
,,,,,,,,,181,56.8749,0.055647
,,,,,,,,,201,90.934,0.0245028
,,,,,,,,,222,64.9595,0.0405086
,,,,,,,,,244,116.048,0.050101
,,,,,,,,,200,84.4189,0.121475
,,,,,,,,,221,48.1233,0.0321819
,,,,,,,,,243,47.5078,0.0668991
,,,,,,,,,266,94.9382,0.0978335
,,,,,,,,,242,81.3938,0.0321609
,,,,,,,,,265,49.1677,0.0668086
,,,,,,,,,289,68.0046,0.09764
,,,,,,,,,288,34.1646,0.0264485
,,,,,,,,,313,49.0743,0.0302271
,,,,,,,,,338,54.9356,0.0589712
