facetNormals:0,facetNormals:1,facetNormals:2,FacetCenters:0,FacetCenters:1,FacetCenters:2,FacetIds,relFacetSize,absFacetSize,cellPairingIds,interplanarAngles,angleWeights
-0.170595,0.609599,-0.686287,6.59769,3.99617,8.33414,1,0.0300451,0.00517662,8,90.0542,0.0254123
-0.372978,-0.711993,-0.538475,6.64542,3.96608,8.26,2,0.0220173,0.00379347,13,115.121,0.0279747
-0.38927,-0.888917,-0.12755,6.59317,3.97629,8.28421,3,0.0261713,0.00450919,19,94.84,0.0473854
0.872753,-0.164733,-0.257136,6.7334,4.03676,8.24886,4,0.112061,0.0193075,26,95.7878,0.027293
-0.8101,-0.535031,-0.139318,6.58706,3.98811,8.28562,5,0.0250028,0.00430785,34,57.8599,0.0250037
0.545899,0.810951,-0.129007,6.68275,4.13671,8.30007,6,0.0214111,0.00368902,43,78.6248,0.0368978
0.675831,0.635007,0.144232,6.71417,4.111,8.29059,7,0.0478002,0.00823573,53,148.724,0.0438183
0.361804,-0.845559,0.275225,6.60682,4.00471,8.34016,8,0.0809082,0.0139401,64,157.716,0.0378201
-0.0701458,-0.827482,0.507711,6.59045,3.98557,8.35206,9,0.0510239,0.00879116,76,131.091,0.0305204
-0.578059,-0.674933,0.424945,6.49007,4.01108,8.35899,10,0.0310111,0.00534306,89,105.996,0.0307586
0.733499,0.388213,0.53208,6.71664,4.06937,8.3365,11,0.0315068,0.00542847,103,86.5962,0.0340571
-0.413642,0.637333,0.591177,6.51117,4.10916,8.39667,12,0.0393057,0.00677218,118,132.854,0.0328856
0.685945,-0.0413248,0.70125,6.68971,4.0409,8.34642,13,0.0363193,0.00625763,134,100.338,0.0390975
0.25669,0.615623,0.7232,6.60023,4.11784,8.39121,14,0.055957,0.00964112,151,159.302,0.0461232
-0.103599,-0.469632,0.836022,6.60273,4.02635,8.36741,15,0.0992183,0.0170948,169,132.305,0.0247862
0.32672,0.114542,0.924422,6.59785,4.07631,8.41222,16,0.0210941,0.00363441,18,26.5894,0.0239153
,,,,,,,,,25,94.4731,0.0368036
,,,,,,,,,33,36.9699,0.0234153
,,,,,,,,,42,138.233,0.02171
,,,,,,,,,52,149.44,0.0301481
,,,,,,,,,63,69.9197,0.0346149
,,,,,,,,,75,68.7089,0.030761
,,,,,,,,,88,60.634,0.0257515
,,,,,,,,,102,151.289,0.0259208
,,,,,,,,,117,131.556,0.0282245
,,,,,,,,,133,129.486,0.0274151
,,,,,,,,,150,165.985,0.0316007
,,,,,,,,,168,94.7434,0.0360376
,,,,,,,,,187,137.241,0.0215458
,,,,,,,,,32,100.216,0.0424326
,,,,,,,,,41,32.5996,0.0255737
,,,,,,,,,51,161.818,0.0235531
,,,,,,,,,62,157.064,0.0338236
,,,,,,,,,74,52.2164,0.0395495
,,,,,,,,,87,42.8796,0.034597
,,,,,,,,,101,36.9195,0.0283864
,,,,,,,,,116,136.378,0.0285923
,,,,,,,,,132,120.69,0.0314211
,,,,,,,,,149,109.434,0.0304213
,,,,,,,,,167,140.163,0.0356629
,,,,,,,,,186,68.1615,0.0414177
,,,,,,,,,206,111.042,0.02336
,,,,,,,,,50,130.011,0.0408836
,,,,,,,,,61,65.6431,0.0359528
,,,,,,,,,73,58.9072,0.0670148
,,,,,,,,,86,64.347,0.0939698
,,,,,,,,,100,93.5328,0.0701203
,,,,,,,,,115,123.492,0.0485788
,,,,,,,,,131,61.181,0.0491849
,,,,,,,,,148,133.97,0.0581982
,,,,,,,,,166,62.075,0.0548587
,,,,,,,,,185,93.9931,0.0746419
,,,,,,,,,205,104.815,0.105249
,,,,,,,,,226,88.2059,0.0355048
,,,,,,,,,72,152.541,0.0230679
,,,,,,,,,85,170.311,0.0328321
,,,,,,,,,99,82.619,0.0382005
,,,,,,,,,114,63.3081,0.0335603
,,,,,,,,,130,37.1338,0.0276847
,,,,,,,,,147,154.966,0.0278805
,,,,,,,,,165,95.3639,0.0305637
,,,,,,,,,184,130.962,0.0296168
,,,,,,,,,204,131.398,0.0345623
,,,,,,,,,225,76.6311,0.0399406
,,,,,,,,,247,118.015,0.0228827
,,,,,,,,,98,20.7661,0.0295748
,,,,,,,,,113,123.589,0.0338613
,,,,,,,,,129,143.834,0.0301643
,,,,,,,,,146,160.884,0.0253321
,,,,,,,,,164,48.304,0.0254959
,,,,,,,,,183,76.9235,0.0277214
,,,,,,,,,203,75.0056,0.0269402
,,,,,,,,,224,55.7431,0.0309714
,,,,,,,,,246,124.983,0.0352215
,,,,,,,,,269,81.0166,0.0212514
,,,,,,,,,128,106.29,0.0600959
,,,,,,,,,145,123.158,0.0493594
,,,,,,,,,163,145.077,0.0376174
,,,,,,,,,182,27.7236,0.0379798
,,,,,,,,,202,76.5319,0.0431387
,,,,,,,,,223,54.24,0.0412762
,,,,,,,,,245,43.5934,0.051558
,,,,,,,,,268,105.879,0.0645178
,,,,,,,,,292,62.5627,0.029271
,,,,,,,,,162,29.406,0.0625814
,,,,,,,,,181,59.601,0.0448368
,,,,,,,,,201,84.9341,0.0453527
,,,,,,,,,222,124.679,0.0529082
,,,,,,,,,244,59.6597,0.0501337
,,,,,,,,,267,104.009,0.0661582
,,,,,,,,,291,50.4389,0.0891326
,,,,,,,,,316,73.0813,0.0334637
,,,,,,,,,200,31.807,0.0385764
,,,,,,,,,221,96.135,0.0389576
,,,,,,,,,243,102.212,0.0444047
,,,,,,,,,266,69.0236,0.0424338
,,,,,,,,,290,99.6332,0.0533767
,,,,,,,,,315,29.0928,0.0673912
,,,,,,,,,341,68.5323,0.0298484
,,,,,,,,,242,118.27,0.031257
,,,,,,,,,265,86.362,0.0346692
,,,,,,,,,289,94.1883,0.0334559
,,,,,,,,,314,105.352,0.0399063
,,,,,,,,,340,39.5897,0.0472531
,,,,,,,,,367,82.5154,0.0251089
,,,,,,,,,288,74.1898,0.0349768
,,,,,,,,,313,27.2839,0.0337423
,,,,,,,,,339,33.1434,0.0403144
,,,,,,,,,366,78.6866,0.0478264
,,,,,,,,,394,37.1166,0.0252698
,,,,,,,,,338,83.6531,0.0377535
,,,,,,,,,365,41.0996,0.0461761
,,,,,,,,,393,75.162,0.0563057
,,,,,,,,,422,59.3573,0.0274543
,,,,,,,,,392,47.0802,0.0440485
,,,,,,,,,421,55.6287,0.053174
,,,,,,,,,451,26.4641,0.0266879
,,,,,,,,,450,72.2738,0.0715573
,,,,,,,,,481,32.0739,0.0306384
,,,,,,,,,512,43.9706,0.0347914
