Q	U	V
{$V$}	{[mm$^3$]}	0.00867192
{$d_v$}	{[mm]}	0.254901
{$S_c$}	{[mm$^2$]}	0.300379
{$S_o$}	{[mm$^2$]}	0.193797
{$S_l/S_o$}	[]	0.549967
{$\Psi$}	[]	0.679555
{$\eta$}	[]	0.730254
{med($\theta_e$)}	{[$^\circ$]}	62.4014
{$\Upsilon$}	[]	13
{$\Xi$}	[]	5
