Q	U	V
{$V$}	{[mm$^3$]}	0.00441374
{$d_v$}	{[mm]}	0.203518
{$S_c$}	{[mm$^2$]}	0.261755
{$S_o$}	{[mm$^2$]}	0.154974
{$S_l/S_o$}	[]	0.689025
{$\Psi$}	[]	0.497119
{$\eta$}	[]	0.565865
{med($\theta_e$)}	{[$^\circ$]}	71.7936
{$\Upsilon$}	[]	17
{$\Xi$}	[]	12
