facetNormals:0,facetNormals:1,facetNormals:2,FacetCenters:0,FacetCenters:1,FacetCenters:2,FacetIds,relFacetSize,absFacetSize,cellPairingIds,interplanarAngles,angleWeights
0.492862,0.128,-0.796291,5.87446,5.22764,5.6224,1,0.0543708,0.00692364,8,68.4746,0.033699
-0.563585,0.377763,-0.718494,5.80086,5.22113,5.55212,2,0.024416,0.00310916,13,57.6085,0.0300022
-0.231491,0.696521,-0.658215,5.8225,5.2303,5.57649,3,0.020717,0.00263813,19,60.7656,0.0236333
0.0432813,-0.716173,-0.649284,5.85713,5.16915,5.6189,4,0.015098,0.00192259,26,95.9575,0.0440746
-0.615555,-0.63781,-0.365402,5.81821,5.1713,5.59287,5,0.0370571,0.0047189,34,97.3914,0.0778826
-0.778521,0.500979,-0.254712,5.80759,5.21404,5.53357,6,0.137222,0.0174741,43,74.3438,0.0487076
0.0371232,0.964396,-0.134122,5.8679,5.26765,5.61949,7,0.0441129,0.00561739,53,116.947,0.0638772
-0.0461368,-0.914598,0.352186,5.88789,5.109,5.58762,8,0.0774122,0.00985776,64,134.939,0.0717518
-0.472252,-0.754328,0.406917,5.83857,5.11791,5.52928,9,0.105467,0.0134303,76,157.097,0.0506177
-0.781935,-0.00772341,0.578039,5.79053,5.20661,5.62661,10,0.0473493,0.00602951,89,123.014,0.0440321
0.342706,-0.510621,0.764615,5.91853,5.1614,5.64364,11,0.0369971,0.00471125,103,155.371,0.071977
-0.163094,-0.351392,0.88195,5.84647,5.18545,5.64465,12,0.106446,0.013555,118,119.545,0.0400236
0.266382,0.464273,0.80565,5.9124,5.25467,5.6664,13,0.0316673,0.00403255,134,159.019,0.0383535
-0.501149,0.220054,0.793863,5.8107,5.22029,5.63957,14,0.0296258,0.00377259,18,27.2029,0.0224149
,,,,,,,,,25,79.664,0.0186583
,,,,,,,,,33,67.1108,0.0294368
,,,,,,,,,42,31.2703,0.0414558
,,,,,,,,,52,62.8256,0.0314338
,,,,,,,,,63,126.193,0.0371232
,,,,,,,,,75,108.77,0.0396524
,,,,,,,,,88,88.6612,0.0322184
,,,,,,,,,102,164.724,0.0294179
,,,,,,,,,117,135.118,0.039721
,,,,,,,,,133,125.392,0.0275729
,,,,,,,,,150,102.412,0.0267698
,,,,,,,,,32,94.8996,0.0174667
,,,,,,,,,41,93.7146,0.0265764
,,,,,,,,,51,42.5997,0.0359991
,,,,,,,,,62,38.5375,0.0281934
,,,,,,,,,74,152.521,0.0326865
,,,,,,,,,87,135.145,0.0346314
,,,,,,,,,101,102.337,0.028823
,,,,,,,,,116,165.908,0.0265609
,,,,,,,,,132,146.02,0.0346837
,,,,,,,,,149,106.359,0.0250477
,,,,,,,,,167,105.45,0.0243832
,,,,,,,,,50,43.9979,0.0214548
,,,,,,,,,61,104.148,0.0272029
,,,,,,,,,73,129.677,0.0224964
,,,,,,,,,86,63.4514,0.0252679
,,,,,,,,,100,74.341,0.0264146
,,,,,,,,,115,115.401,0.0228954
,,,,,,,,,131,97.0129,0.0214447
,,,,,,,,,148,110.605,0.0264451
,,,,,,,,,166,154.398,0.0204473
,,,,,,,,,185,138.122,0.0200023
,,,,,,,,,72,74.0637,0.0583553
,,,,,,,,,85,129.081,0.0402783
,,,,,,,,,99,59.1024,0.0501212
,,,,,,,,,114,48.3825,0.0548441
,,,,,,,,,130,72.8427,0.0415757
,,,,,,,,,147,100.081,0.0370271
,,,,,,,,,165,89.8605,0.0549755
,,,,,,,,,184,144.446,0.0341509
,,,,,,,,,204,97.5798,0.0329274
,,,,,,,,,98,58.5316,0.0667634
,,,,,,,,,113,122.919,0.0989839
,,,,,,,,,129,96.9619,0.119267
,,,,,,,,,146,60.65,0.070405
,,,,,,,,,164,139.588,0.0582808
,,,,,,,,,183,107.213,0.119891
,,,,,,,,,203,101.175,0.0514592
,,,,,,,,,224,71.212,0.0487309
,,,,,,,,,128,166.859,0.0562003
,,,,,,,,,145,146.989,0.062207
,,,,,,,,,163,96.9105,0.0456738
,,,,,,,,,182,127.518,0.0402428
,,,,,,,,,202,119.572,0.0623761
,,,,,,,,,223,68.2281,0.0368681
,,,,,,,,,245,84.6784,0.0354463
,,,,,,,,,162,27.0626,0.0892878
,,,,,,,,,181,75.0137,0.0587587
,,,,,,,,,201,41.55,0.0500663
,,,,,,,,,222,47.4176,0.0896366
,,,,,,,,,244,99.2883,0.0449477
,,,,,,,,,267,83.8443,0.0428521
,,,,,,,,,200,50.107,0.0653568
,,,,,,,,,221,56.1781,0.0547783
,,,,,,,,,243,41.9596,0.105954
,,,,,,,,,266,99.0067,0.0487093
,,,,,,,,,290,65.3392,0.0462578
,,,,,,,,,242,79.2518,0.0415379
,,,,,,,,,265,46.8992,0.0655435
,,,,,,,,,289,74.3445,0.0379521
,,,,,,,,,314,25.1105,0.0364472
,,,,,,,,,288,32.4198,0.0549094
,,,,,,,,,313,60.3004,0.0341253
,,,,,,,,,339,70.0462,0.0329037
,,,,,,,,,338,57.2566,0.0488129
,,,,,,,,,365,40.6657,0.0463513
,,,,,,,,,392,49.2965,0.0306126
