"cellPairingIds","interplanarAngles","angleWeights"
26,76.8901,0.0121103
76,128.192,0.0214876
118,152.935,0.0183693
134,163.032,0.017154
151,146.22,0.0190338
184,89.1458,0.0170347
204,115.654,0.0159846
225,119.471,0.0176047
314,40.9695,0.0377012
340,38.4628,0.0481532
392,28.6447,0.029049
450,39.0377,0.0307465
