facetNormals:0,facetNormals:1,facetNormals:2,FacetCenters:0,FacetCenters:1,FacetCenters:2,FacetIds,relFacetSize,absFacetSize,cellPairingIds,interplanarAngles,angleWeights
-0.442415,-0.360835,-0.783673,6.07323,5.01838,8.13247,1,0.031536,0.00261689,8,34.9389,0.0231652
-0.330753,0.202834,-0.910083,6.10504,5.07159,8.11759,2,0.0183062,0.00151907,13,64.5073,0.0386718
0.418653,0.21616,-0.856332,6.17318,5.06969,8.13313,3,0.0499814,0.00414751,19,38.2365,0.0474875
0.165108,-0.544341,-0.783379,6.15503,5.01657,8.1478,4,0.0960933,0.00797393,26,41.5257,0.00700242
-0.664056,0.290827,-0.679126,6.07782,5.0869,8.12695,5,0.00393847,0.000326819,34,64.5615,0.0343393
0.580257,-0.500623,-0.621414,6.14739,5.01686,8.14277,6,0.0376896,0.00312753,43,78.6352,0.0478316
0.0176619,0.770486,-0.603361,6.1286,5.1173,8.16145,7,0.0989753,0.00821309,53,93.3566,0.0325194
0.374479,0.773263,-0.495601,6.18829,5.11671,8.17375,8,0.0335661,0.00278535,64,79.4998,0.0354807
-0.476342,0.788654,-0.313659,6.07142,5.12057,8.19182,9,0.0405534,0.00336516,76,48.2061,0.0370465
-0.899395,-0.310211,-0.142658,6.02606,5.03735,8.20167,10,0.0448907,0.00372508,89,111.907,0.0336029
0.0422235,0.972439,-0.0221716,6.13316,5.14554,8.22268,11,0.0359597,0.00298397,103,69.7846,0.0190456
-0.989393,0.0586896,0.105409,6.04559,5.07934,8.23137,12,0.0136423,0.00113205,118,102.348,0.0460564
-0.615587,0.675017,0.290346,6.05669,5.11327,8.24254,13,0.0853588,0.00708317,134,86.6985,0.0532049
-0.307754,-0.775833,0.462959,6.08402,5.00893,8.23746,14,0.170048,0.0141108,151,108.891,0.0371675
-0.641758,0.0574629,0.724088,6.05566,5.07025,8.27866,15,0.0452477,0.00375471,169,140.28,0.0193641
-0.0953173,0.734931,0.659445,6.11426,5.132,8.28214,16,0.0139715,0.00115937,188,154.335,0.0271848
0.0273434,0.370872,0.908127,6.11141,5.09862,8.30109,17,0.0238888,0.00198232,18,44.92,0.0267975
,,,,,,,,,25,55.1058,0.0307536
,,,,,,,,,33,24.1592,0.0064823
,,,,,,,,,42,73.8158,0.024643
,,,,,,,,,52,43.7455,0.0308976
,,,,,,,,,63,60.4454,0.0236915
,,,,,,,,,75,51.2291,0.0252254
,,,,,,,,,88,67.4895,0.0260069
,,,,,,,,,102,77.8059,0.0242614
,,,,,,,,,117,75.7208,0.0156338
,,,,,,,,,133,85.3863,0.030147
,,,,,,,,,150,120.335,0.033054
,,,,,,,,,168,116.981,0.0260664
,,,,,,,,,187,115.309,0.0158478
,,,,,,,,,207,141.546,0.0207282
,,,,,,,,,32,48.879,0.0657592
,,,,,,,,,41,67.8276,0.00730158
,,,,,,,,,51,46.2508,0.0429738
,,,,,,,,,62,43.7873,0.0664209
,,,,,,,,,74,39.474,0.0401611
,,,,,,,,,87,75.4085,0.0447765
,,,,,,,,,101,109.989,0.0472995
,,,,,,,,,116,74.9642,0.0418267
,,,,,,,,,132,120.319,0.0214341
,,,,,,,,,149,112.625,0.0630463
,,,,,,,,,167,137.976,0.0772555
,,,,,,,,,186,157.671,0.0474969
,,,,,,,,,206,117.37,0.0218384
,,,,,,,,,227,135.665,0.0323268
,,,,,,,,,50,74.0628,0.0075668
,,,,,,,,,61,26.4619,0.0541432
,,,,,,,,,73,86.6017,0.097513
,,,,,,,,,86,88.2602,0.049753
,,,,,,,,,100,106.159,0.0570362
,,,,,,,,,115,81.8447,0.0611941
,,,,,,,,,131,122.396,0.0523348
,,,,,,,,,148,106.737,0.0238925
,,,,,,,,,166,138.638,0.0904085
,,,,,,,,,185,89.4523,0.122796
,,,,,,,,,205,138.656,0.061525
,,,,,,,,,226,166.133,0.0243959
,,,,,,,,,248,163.052,0.0382649
,,,,,,,,,72,96.3794,0.00713169
,,,,,,,,,85,50.2197,0.00757549
,,,,,,,,,99,71.4906,0.00704975
,,,,,,,,,114,38.3034,0.00717966
,,,,,,,,,130,50.8059,0.0072416
,,,,,,,,,147,73.7996,0.00709938
,,,,,,,,,165,52.5176,0.00611233
,,,,,,,,,184,64.6351,0.00752952
,,,,,,,,,204,110.735,0.00769863
,,,,,,,,,225,92.9096,0.00724621
,,,,,,,,,247,99.9821,0.00614477
,,,,,,,,,270,122.728,0.00676209
,,,,,,,,,98,90.0319,0.054591
,,,,,,,,,113,81.8843,0.0355085
,,,,,,,,,129,119.736,0.0390691
,,,,,,,,,146,107.026,0.0409762
,,,,,,,,,164,117.836,0.0368043
,,,,,,,,,183,132.865,0.0200332
,,,,,,,,,203,157.779,0.0522906
,,,,,,,,,224,94.743,0.0617032
,,,,,,,,,246,152.872,0.0411243
,,,,,,,,,269,148.331,0.0203859
,,,,,,,,,293,139.308,0.0292427
,,,,,,,,,128,21.7931,0.0501309
,,,,,,,,,145,34.1365,0.0575334
,,,,,,,,,163,100.329,0.0617668
,,,,,,,,,182,36.7678,0.0527531
,,,,,,,,,202,92.1062,0.0239793
,,,,,,,,,223,69.144,0.0916641
,,,,,,,,,245,160.858,0.125123
,,,,,,,,,268,115.201,0.0621039
,,,,,,,,,292,80.1148,0.0244864
,,,,,,,,,317,105.811,0.038488
,,,,,,,,,162,52.557,0.0367304
,,,,,,,,,181,122.023,0.0384111
,,,,,,,,,201,36.252,0.0347217
,,,,,,,,,222,112.44,0.0193998
,,,,,,,,,244,81.0726,0.0481844
,,,,,,,,,267,176.218,0.0560653
,,,,,,,,,291,125.243,0.0385412
,,,,,,,,,316,77.9281,0.0197304
,,,,,,,,,342,99.0467,0.0279124
,,,,,,,,,200,75.8737,0.0426119
,,,,,,,,,221,37.3019,0.0381186
,,,,,,,,,243,60.036,0.0204164
,,,,,,,,,266,38.0673,0.0549841
,,,,,,,,,290,131.085,0.0654888
,,,,,,,,,315,82.4531,0.0427721
,,,,,,,,,341,64.3346,0.0207829
,,,,,,,,,368,90.3225,0.0300664
,,,,,,,,,242,111.053,0.0399319
,,,,,,,,,265,26.7023,0.0209253
,,,,,,,,,289,70.8289,0.0588381
,,,,,,,,,314,60.5519,0.0710302
,,,,,,,,,340,60.7179,0.0450685
,,,,,,,,,367,104.338,0.0213105
,,,,,,,,,395,106.568,0.0311833
,,,,,,,,,288,89.2348,0.0197803
,,,,,,,,,313,48.0422,0.0506019
,,,,,,,,,339,146.816,0.0593655
,,,,,,,,,366,89.2272,0.0400725
,,,,,,,,,394,43.8911,0.0201241
,,,,,,,,,423,69.0463,0.0287069
,,,,,,,,,338,44.6875,0.0235247
,,,,,,,,,365,71.1249,0.0252582
,,,,,,,,,393,42.2906,0.0209639
,,,,,,,,,422,77.9184,0.0138049
,,,,,,,,,452,84.6947,0.0173668
,,,,,,,,,392,102.616,0.113663
,,,,,,,,,421,46.1147,0.0591439
,,,,,,,,,451,38.3031,0.0240126
,,,,,,,,,482,58.0935,0.0373302
,,,,,,,,,450,58.152,0.0714764
,,,,,,,,,481,104.406,0.0258215
,,,,,,,,,513,82.3752,0.0418924
,,,,,,,,,512,52.8321,0.0213504
,,,,,,,,,545,45.9495,0.0312689
,,,,,,,,,578,26.8119,0.0176312
