facetNormals:0,facetNormals:1,facetNormals:2,FacetCenters:0,FacetCenters:1,FacetCenters:2,FacetIds,relFacetSize,absFacetSize,cellPairingIds,interplanarAngles,angleWeights
0.770534,-0.198677,-0.507917,5.30775,6.98651,7.06038,1,0.120401,0.0385217,8,128.155,0.0353181
-0.690574,0.634297,-0.195846,5.25404,7.04884,7.05498,2,0.0206942,0.00662103,13,117.991,0.0830481
-0.702436,-0.632543,0.00637054,5.19678,6.96276,7.06598,3,0.0633841,0.0202795,19,72.7468,0.0513422
0.237276,-0.921344,0.185962,5.30357,6.97136,7.09028,4,0.0326278,0.0104391,26,62.0882,0.0828052
0.783993,0.472393,0.191051,5.38589,7.12144,7.13709,5,0.0631015,0.020189,34,64.5167,0.0854543
0.743843,-0.328831,0.495512,5.36792,7.08109,7.1758,6,0.0662307,0.0211902,43,103.839,0.101858
-0.0410977,-0.711547,0.642609,5.29762,6.98572,7.15734,7,0.0882651,0.02824,53,94.6024,0.0371855
0.466691,0.612424,0.615439,5.36613,7.14862,7.174,8,0.0219883,0.00703505,64,152.172,0.0771706
-0.531237,0.588383,0.546932,5.27936,7.10826,7.15945,9,0.0567827,0.0181674,76,131.965,0.0549874
-0.544311,-0.54835,0.619679,5.25435,6.94467,7.08194,10,0.0356298,0.0113996,89,161.439,0.100997
-0.734817,-0.0861928,0.621916,5.2203,7.00647,7.09735,11,0.0869789,0.0278285,103,129.411,0.0675817
-0.073793,0.248446,0.929324,5.31121,7.0985,7.1872,12,0.0469743,0.0150292,18,84.7651,0.0312015
,,,,,,,,,25,147.673,0.0253256
,,,,,,,,,33,108.162,0.0311671
,,,,,,,,,42,153.91,0.0315351
,,,,,,,,,52,126.656,0.0335277
,,,,,,,,,63,93.3002,0.0213216
,,,,,,,,,75,46.6784,0.0303335
,,,,,,,,,88,95.6431,0.0261818
,,,,,,,,,102,69.0541,0.0334338
,,,,,,,,,117,88.3542,0.0287311
,,,,,,,,,32,62.9102,0.0430797
,,,,,,,,,41,163.687,0.0632424
,,,,,,,,,51,110.234,0.0647761
,,,,,,,,,62,57.8262,0.0737835
,,,,,,,,,74,139.761,0.0326501
,,,,,,,,,87,89.7189,0.059902
,,,,,,,,,101,38.4575,0.0456171
,,,,,,,,,116,51.0265,0.0733302
,,,,,,,,,132,96.257,0.0539592
,,,,,,,,,50,103.635,0.0430142
,,,,,,,,,61,51.7459,0.0437183
,,,,,,,,,73,34.647,0.0476437
,,,,,,,,,86,110.784,0.0262717
,,,,,,,,,100,127.352,0.0414424
,,,,,,,,,115,59.2228,0.0340628
,,,,,,,,,131,88.7334,0.0474543
,,,,,,,,,148,94.5131,0.0385082
,,,,,,,,,72,54.0727,0.0646282
,,,,,,,,,85,105.884,0.0735917
,,,,,,,,,99,33.025,0.0326124
,,,,,,,,,114,92.1667,0.0597755
,,,,,,,,,130,127.782,0.0455437
,,,,,,,,,147,123.438,0.0731408
,,,,,,,,,165,74.7648,0.0538565
,,,,,,,,,98,55.1816,0.0756766
,,,,,,,,,113,61.3061,0.0330155
,,,,,,,,,129,110.261,0.0611439
,,,,,,,,,146,84.9828,0.0463337
,,,,,,,,,164,103.193,0.0751999
,,,,,,,,,183,69.3582,0.0549647
,,,,,,,,,128,93.604,0.0352061
,,,,,,,,,145,92.8135,0.0691073
,,,,,,,,,163,31.4602,0.0507667
,,,,,,,,,182,58.0244,0.0876173
,,,,,,,,,202,62.7837,0.0613164
,,,,,,,,,162,61.7717,0.0317008
,,,,,,,,,181,102.33,0.0271942
,,,,,,,,,201,90.7799,0.0351026
,,,,,,,,,222,43.5153,0.0299549
,,,,,,,,,200,71.3245,0.0437853
,,,,,,,,,221,43.0889,0.0687095
,,,,,,,,,243,41.7091,0.0514149
,,,,,,,,,242,29.567,0.0505517
,,,,,,,,,265,59.8591,0.0405231
,,,,,,,,,288,49.081,0.061003
