Q	U	V
{$V$}	{[mm$^3$]}	0.00342578
{$d_v$}	{[mm]}	0.187034
{$S_c$}	{[mm$^2$]}	0.158568
{$S_o$}	{[mm$^2$]}	0.087323
{$S_l/S_o$}	[]	0.815879
{$\Psi$}	[]	0.693066
{$\eta$}	[]	0.750460
{med($\theta_e$)}	{[$^\circ$]}	52.1773
{$\Upsilon$}	[]	14
{$\Xi$}	[]	3
