"cellPairingIds","interplanarAngles","angleWeights"
8,53.7337,0.0386307
13,33.5934,0.0469489
19,85.2262,0.0568447
26,55.8517,0.032816
43,74.481,0.0594483
25,52.5741,0.0592859
33,26.2534,0.0336151
42,44.7317,0.0424143
32,118.213,0.0814264
62,60.4234,0.0868766
74,126.759,0.0238019
149,125.73,0.061302
61,73.2457,0.0654338
86,87.3051,0.0261059
115,68.2185,0.0310522
72,35.133,0.0355066
85,50.8735,0.0483471
98,59.437,0.0689077
146,76.1089,0.0256981
163,116.381,0.0318133
223,89.9375,0.0845005
181,51.2293,0.0161456
244,51.6502,0.0236199
289,47.8544,0.0275973
