"cellPairingIds","interplanarAngles","angleWeights"
8,54.2735,0.0553858
13,40.8649,0.0359912
26,69.8627,0.053747
53,65.269,0.0206693
25,42.9188,0.0816762
63,62.5486,0.0242425
117,81.5748,0.0326037
41,34.7035,0.0471609
74,36.2171,0.0196158
132,91.7623,0.024752
115,39.0794,0.0404251
148,74.7528,0.031259
72,25.725,0.0686942
165,89.8821,0.0320288
164,76.2938,0.0930293
183,94.1532,0.0296261
222,56.908,0.0163942
200,26.1572,0.0205449
221,48.4467,0.0303742
243,57.8147,0.0178803
265,42.4995,0.0231669
288,52.2956,0.0364778
