facetNormals:0,facetNormals:1,facetNormals:2,FacetCenters:0,FacetCenters:1,FacetCenters:2,FacetIds,relFacetSize,absFacetSize,cellPairingIds,interplanarAngles,angleWeights
0.119662,-0.145679,-0.966588,3.43865,5.4362,9.22556,1,0.0204788,0.00135344,8,42.6453,0.029245
-0.540976,-0.239937,-0.742207,3.42875,5.42361,9.2384,2,0.0511331,0.00337938,13,31.0269,0.0173554
0.394929,0.290796,-0.857069,3.4531,5.44587,9.22952,3,0.0150587,0.000995229,19,66.9902,0.033781
0.126757,0.834607,-0.501052,3.41491,5.48834,9.26309,4,0.0963958,0.00637079,26,53.6321,0.031037
0.743177,-0.468558,-0.427703,3.46975,5.41634,9.28143,5,0.0640687,0.0042343,34,74.5441,0.0346197
0.675814,0.631771,-0.273488,3.44075,5.47267,9.31371,6,0.111861,0.00739286,43,79.8701,0.0229516
0.985396,-0.0626521,-0.0456897,3.4655,5.44678,9.32725,7,0.0261035,0.00172518,53,80.1983,0.0170934
0.172377,-0.962966,-0.00320526,3.43507,5.41965,9.27716,8,0.0146685,0.000969443,64,92.35,0.0156605
-0.83563,-0.525205,0.0169453,3.4049,5.43488,9.29742,9,0.0126777,0.000837868,76,94.9414,0.0292409
0.867799,-0.342328,0.243641,3.46489,5.41997,9.33885,10,0.0511079,0.00337772,89,103.571,0.00712212
-0.972249,0.128205,0.0958831,3.4238,5.45036,9.33575,11,0.00431063,0.000284889,103,107.685,0.0236589
-0.464252,0.863638,0.118026,3.38923,5.50519,9.3292,12,0.0280081,0.00185106,118,105.72,0.0329719
0.0242042,0.95292,0.124744,3.40333,5.49727,9.31767,13,0.0845536,0.00558814,134,96.9249,0.0104836
0.607567,-0.730974,0.308126,3.48255,5.42848,9.31553,14,0.00704509,0.00046561,151,99.7578,0.0301786
-0.33033,-0.866453,0.255796,3.4389,5.41636,9.28256,15,0.0573353,0.00378929,169,127.076,0.0209959
0.275386,-0.59031,0.718966,3.46696,5.43187,9.33559,16,0.0215397,0.00142356,188,132.086,0.0268622
0.630133,0.238326,0.710905,3.45789,5.43622,9.35013,17,0.0390274,0.00257932,208,151.133,0.0274729
-0.318374,0.538789,0.752976,3.45063,5.46452,9.32066,18,0.041722,0.00275741,229,144.85,0.00923841
0.417291,-0.101616,0.890821,3.4591,5.4354,9.32964,19,0.00596457,0.000394198,251,152.536,0.0195107
-0.379721,-0.214424,0.844657,3.42555,5.45172,9.34017,20,0.01863,0.00123126,18,67.8972,0.0232657
,,,,,,,,,25,83.6505,0.066821
,,,,,,,,,33,88.2808,0.0568747
,,,,,,,,,42,110.066,0.0701841
,,,,,,,,,52,121.062,0.0345627
,,,,,,,,,63,81.318,0.0227973
,,,,,,,,,75,52.8794,0.0203179
,,,,,,,,,88,128.372,0.0511205
,,,,,,,,,102,63.0413,0.00795098
,,,,,,,,,117,92.6699,0.0361921
,,,,,,,,,133,111.491,0.0637275
,,,,,,,,,150,113.749,0.0123839
,,,,,,,,,168,77.5573,0.0540569
,,,,,,,,,187,125.973,0.030311
,,,,,,,,,207,174.676,0.0442675
,,,,,,,,,228,123.717,0.0459507
,,,,,,,,,250,156.75,0.010683
,,,,,,,,,273,114.21,0.0273098
,,,,,,,,,32,41.84,0.0260482
,,,,,,,,,41,57.1201,0.0243858
,,,,,,,,,51,44.021,0.0265441
,,,,,,,,,62,65.1552,0.0190993
,,,,,,,,,74,102.507,0.0148611
,,,,,,,,,87,120.674,0.013766
,,,,,,,,,101,87.9321,0.0232631
,,,,,,,,,116,116.153,0.00670261
,,,,,,,,,132,91.9604,0.0195866
,,,,,,,,,149,79.0853,0.0255645
,,,,,,,,,167,103.881,0.00959925
,,,,,,,,,186,129.302,0.0238527
,,,,,,,,,206,135.143,0.0177254
,,,,,,,,,227,107.519,0.0217321
,,,,,,,,,249,129.456,0.02213
,,,,,,,,,272,130.04,0.00854469
,,,,,,,,,296,175.877,0.0166551
,,,,,,,,,50,94.9373,0.076976
,,,,,,,,,61,37.6341,0.103554
,,,,,,,,,73,84.3512,0.0410822
,,,,,,,,,86,144.336,0.0254625
,,,,,,,,,100,124.779,0.0224083
,,,,,,,,,115,108.338,0.0667995
,,,,,,,,,131,93.8104,0.00825224
,,,,,,,,,148,51.5535,0.0434048
,,,,,,,,,166,38.7626,0.0900872
,,,,,,,,,185,134.495,0.0131305
,,,,,,,,,205,161.063,0.0719032
,,,,,,,,,226,149.194,0.0352114
,,,,,,,,,248,94.6185,0.0555603
,,,,,,,,,271,88.0897,0.0582376
,,,,,,,,,295,119.514,0.011234
,,,,,,,,,320,134.178,0.0312252
,,,,,,,,,72,69.9485,0.0814733
,,,,,,,,,85,36.016,0.0370939
,,,,,,,,,99,52.5934,0.0238717
,,,,,,,,,114,113.343,0.0211669
,,,,,,,,,130,41.91,0.0568591
,,,,,,,,,147,148.809,0.00807778
,,,,,,,,,165,146.015,0.0389771
,,,,,,,,,184,120.861,0.0728994
,,,,,,,,,204,47.2901,0.0126943
,,,,,,,,,225,86.8844,0.0605153
,,,,,,,,,247,79.4388,0.0322403
,,,,,,,,,270,86.8508,0.0485069
,,,,,,,,,294,147.975,0.0505352
,,,,,,,,,319,91.3801,0.0109132
,,,,,,,,,345,125.774,0.0288662
,,,,,,,,,98,47.9348,0.0423292
,,,,,,,,,113,121.35,0.025936
,,,,,,,,,129,161.144,0.0227743
,,,,,,,,,146,70.9517,0.0701603
,,,,,,,,,164,129.317,0.00830137
,,,,,,,,,183,77.907,0.0447992
,,,,,,,,,203,50.9505,0.0963089
,,,,,,,,,224,98.0793,0.0132554
,,,,,,,,,246,154.938,0.0758123
,,,,,,,,,269,114.187,0.0361235
,,,,,,,,,293,66.153,0.0578658
,,,,,,,,,318,94.9012,0.0607758
,,,,,,,,,344,91.5506,0.0113253
,,,,,,,,,371,132.802,0.0319404
,,,,,,,,,128,76.2194,0.0187825
,,,,,,,,,145,144.193,0.0170666
,,,,,,,,,163,24.7562,0.034557
,,,,,,,,,182,175.148,0.00739937
,,,,,,,,,202,121.978,0.0270223
,,,,,,,,,223,92.5062,0.0398917
,,,,,,,,,245,50.3352,0.0110956
,,,,,,,,,268,107.31,0.0358743
,,,,,,,,,292,73.3041,0.023603
,,,,,,,,,317,53.6711,0.0312832
,,,,,,,,,343,113.241,0.0321145
,,,,,,,,,370,67.3234,0.00971036
,,,,,,,,,398,115.151,0.0217425
,,,,,,,,,162,68.0059,0.0136007
,,,,,,,,,181,59.5187,0.0227947
,,,,,,,,,201,107.593,0.00666317
,,,,,,,,,222,160.739,0.0192535
,,,,,,,,,244,166.337,0.025
,,,,,,,,,267,34.2856,0.00951856
,,,,,,,,,291,34.3837,0.0233606
,,,,,,,,,316,49.7195,0.0174522
,,,,,,,,,342,97.3852,0.0213228
,,,,,,,,,369,126.977,0.0217058
,,,,,,,,,397,80.0644,0.0084807
,,,,,,,,,426,81.446,0.0164136
,,,,,,,,,200,124.658,0.0203159
,,,,,,,,,221,39.8496,0.0064337
,,,,,,,,,243,93.7432,0.0174547
,,,,,,,,,266,123.126,0.0220494
,,,,,,,,,290,96.9043,0.00905709
,,,,,,,,,315,39.2381,0.0207641
,,,,,,,,,341,84.4815,0.0159611
,,,,,,,,,368,131.426,0.0191384
,,,,,,,,,396,90.2473,0.0194464
,,,,,,,,,425,106.682,0.00811243
,,,,,,,,,455,61.743,0.015088
,,,,,,,,,242,155.463,0.00795068
,,,,,,,,,265,134.699,0.0361858
,,,,,,,,,289,107.247,0.0637079
,,,,,,,,,314,27.7558,0.0123832
,,,,,,,,,340,85.5306,0.0540428
,,,,,,,,,367,48.7927,0.0303066
,,,,,,,,,395,47.461,0.0442581
,,,,,,,,,424,107.081,0.0459405
,,,,,,,,,454,49.9181,0.0106824
,,,,,,,,,485,93.1476,0.0273062
,,,,,,,,,288,53.8961,0.00747138
,,,,,,,,,313,83.2952,0.00820307
,,,,,,,,,339,131.694,0.00534864
,,,,,,,,,366,75.6691,0.00801842
,,,,,,,,,394,106.687,0.00718364
,,,,,,,,,423,122.177,0.00776375
,,,,,,,,,453,62.1417,0.00781395
,,,,,,,,,484,110.003,0.00500449
,,,,,,,,,516,63.1749,0.0070013
,,,,,,,,,338,29.4842,0.042078
,,,,,,,,,365,152.714,0.0112583
,,,,,,,,,393,126.476,0.0376328
,,,,,,,,,422,125.238,0.0243517
,,,,,,,,,452,90.1663,0.0326121
,,,,,,,,,483,43.4484,0.0335165
,,,,,,,,,515,100.402,0.00983475
,,,,,,,,,548,84.4501,0.0223762
,,,,,,,,,392,132.053,0.0130065
,,,,,,,,,421,150.111,0.0683338
,,,,,,,,,451,119.988,0.0343332
,,,,,,,,,482,69.4158,0.0534047
,,,,,,,,,514,50.4264,0.0558738
,,,,,,,,,547,88.5298,0.0111431
,,,,,,,,,581,96.7969,0.0305326
,,,,,,,,,450,57.8493,0.0125483
,,,,,,,,,481,32.1934,0.0106175
,,,,,,,,,513,64.0858,0.0119356
,,,,,,,,,546,111.293,0.0120547
,,,,,,,,,580,52.4457,0.00645996
,,,,,,,,,615,78.689,0.0102239
,,,,,,,,,512,49.634,0.031315
,,,,,,,,,545,104.306,0.0464422
,,,,,,,,,579,100.341,0.0482982
,,,,,,,,,614,79.2113,0.0108051
,,,,,,,,,650,54.7847,0.0281222
,,,,,,,,,578,55.077,0.0277589
,,,,,,,,,613,81.7905,0.0284115
,,,,,,,,,649,31.8058,0.00934219
,,,,,,,,,686,46.9717,0.0199795
,,,,,,,,,648,61.1243,0.0403297
,,,,,,,,,685,25.8028,0.0103477
,,,,,,,,,723,70.5448,0.0252207
,,,,,,,,,722,60.0666,0.0104371
,,,,,,,,,761,46.4397,0.0257583
,,,,,,,,,800,49.0786,0.00903614
