facetNormals:0,facetNormals:1,facetNormals:2,FacetCenters:0,FacetCenters:1,FacetCenters:2,FacetIds,relFacetSize,absFacetSize,cellPairingIds,interplanarAngles,angleWeights
0.117037,0.211655,-0.943585,4.18061,3.60516,6.62827,1,0.0346299,0.0059483,8,46.3797,0.0464311
-0.0554127,-0.515658,-0.803811,4.15135,3.53584,6.63287,2,0.0704334,0.0120982,13,47.5903,0.0394175
-0.477348,-0.282193,-0.800495,4.11613,3.58837,6.68652,3,0.0457413,0.00785688,19,32.8331,0.0460164
-0.233403,0.581306,-0.738658,4.15011,3.64331,6.65465,4,0.0685591,0.0117762,26,50.817,0.0284714
0.727056,-0.257563,-0.608291,4.1645,3.64199,6.73397,5,0.0241727,0.00415209,34,70.2712,0.043651
-0.761245,0.515787,-0.317754,4.07795,3.65054,6.71041,6,0.0590279,0.0101391,43,64.9123,0.0371891
-0.0766465,0.93624,-0.222,4.15009,3.70087,6.74627,7,0.0401568,0.00689764,53,93.4817,0.0577688
-0.895209,-0.175108,-0.0928329,4.06263,3.58703,6.77115,8,0.174096,0.0299041,64,75.6269,0.051861
0.789834,0.50559,-0.02906,4.22483,3.60326,6.66442,9,0.103222,0.0177302,76,86.7067,0.0288477
0.412444,0.870582,0.188227,4.18669,3.655,6.71286,10,0.0247202,0.00424613,89,115.082,0.0408779
0.544951,-0.636851,0.316878,4.13612,3.56134,6.74711,11,0.0498769,0.00856725,103,102.531,0.0264851
-0.696194,0.649424,0.281712,4.07889,3.61249,6.74808,12,0.021442,0.00368305,118,97.1331,0.037171
-0.227667,0.892939,0.296134,4.13882,3.66669,6.73069,13,0.0401146,0.00689039,134,158.533,0.0141684
-0.114268,-0.541601,0.795002,4.13733,3.57454,6.76982,14,0.0089061,0.00152978,151,146.798,0.0263342
-0.544708,0.10516,0.789559,4.08281,3.60755,6.80082,15,0.0212449,0.0036492,18,28.9147,0.0554633
,,,,,,,,,25,70.6537,0.0694836
,,,,,,,,,33,51.7719,0.0359927
,,,,,,,,,42,88.0525,0.0642282
,,,,,,,,,52,108.965,0.0511506
,,,,,,,,,63,75.8428,0.100292
,,,,,,,,,75,108.253,0.0837323
,,,,,,,,,88,131.574,0.0365961
,,,,,,,,,102,87.0918,0.058399
,,,,,,,,,117,123.393,0.0328757
,,,,,,,,,133,137.795,0.0511164
,,,,,,,,,150,112.419,0.0158127
,,,,,,,,,168,135.527,0.0326436
,,,,,,,,,32,55.1699,0.0548726
,,,,,,,,,41,77.1615,0.03163
,,,,,,,,,51,60.1052,0.0515421
,,,,,,,,,62,93.0433,0.0427675
,,,,,,,,,74,51.8899,0.0724479
,,,,,,,,,87,122.912,0.0633916
,,,,,,,,,101,128.362,0.0320951
,,,,,,,,,116,112.51,0.0477197
,,,,,,,,,132,94.5349,0.0291973
,,,,,,,,,149,113.8,0.0427435
,,,,,,,,,167,117.051,0.0149093
,,,,,,,,,186,115.308,0.0290141
,,,,,,,,,50,82.1526,0.035743
,,,,,,,,,61,40.8981,0.0634375
,,,,,,,,,73,39.0392,0.0506478
,,,,,,,,,86,78.5867,0.0983772
,,,,,,,,,100,81.7101,0.0823933
,,,,,,,,,115,73.4512,0.036338
,,,,,,,,,131,147.44,0.0577445
,,,,,,,,,148,69.8078,0.0326673
,,,,,,,,,166,67.8485,0.0506142
,,,,,,,,,185,158.915,0.0157643
,,,,,,,,,205,114.998,0.032438
,,,,,,,,,72,121.057,0.0342993
,,,,,,,,,85,99.8267,0.0301789
,,,,,,,,,99,127.58,0.0424511
,,,,,,,,,114,59.937,0.039172
,,,,,,,,,130,92.3096,0.0244434
,,,,,,,,,147,65.3244,0.0325635
,,,,,,,,,165,150.017,0.0227256
,,,,,,,,,184,127.26,0.030167
,,,,,,,,,204,116.673,0.0130165
,,,,,,,,,225,162.371,0.0226144
,,,,,,,,,98,49.3466,0.0477971
,,,,,,,,,113,45.9103,0.0881636
,,,,,,,,,129,111.278,0.0751061
,,,,,,,,,146,85.4801,0.0348469
,,,,,,,,,164,165.499,0.0540679
,,,,,,,,,183,36.6057,0.0314572
,,,,,,,,,203,55.0253,0.0477672
,,,,,,,,,224,118.174,0.015477
,,,,,,,,,246,76.5721,0.0312445
,,,,,,,,,128,94.843,0.0652606
,,,,,,,,,145,62.4223,0.0578198
,,,,,,,,,163,38.4809,0.030602
,,,,,,,,,182,144.982,0.0444921
,,,,,,,,,202,51.3288,0.0279565
,,,,,,,,,223,32.5288,0.0401357
,,,,,,,,,245,136.193,0.0145789
,,,,,,,,,268,92.1582,0.0277884
,,,,,,,,,162,157.175,0.129603
,,,,,,,,,181,126.803,0.0432931
,,,,,,,,,201,119.594,0.0775395
,,,,,,,,,222,57.9291,0.0381815
,,,,,,,,,244,88.7114,0.0652049
,,,,,,,,,267,82.0185,0.0169453
,,,,,,,,,291,63.4179,0.0378688
,,,,,,,,,200,34.3372,0.0398878
,,,,,,,,,221,83.222,0.0672558
,,,,,,,,,243,104.276,0.0355081
,,,,,,,,,266,73.1636,0.057776
,,,,,,,,,290,115.214,0.0163974
,,,,,,,,,315,116.219,0.0352374
,,,,,,,,,242,107.879,0.0330567
,,,,,,,,,265,70.1287,0.0229647
,,,,,,,,,289,38.916,0.0305897
,,,,,,,,,314,112.834,0.0130945
,,,,,,,,,340,89.0621,0.0228512
,,,,,,,,,288,142.275,0.029991
,,,,,,,,,313,133.67,0.0444662
,,,,,,,,,339,51.9881,0.0151135
,,,,,,,,,366,97.5502,0.0297976
,,,,,,,,,338,31.2233,0.0279462
,,,,,,,,,365,92.8733,0.0125849
,,,,,,,,,393,45.6334,0.021343
,,,,,,,,,392,103.707,0.0145761
,,,,,,,,,421,61.0765,0.0277783
,,,,,,,,,450,47.3788,0.0125508
