"cellPairingIds","interplanarAngles","angleWeights"
8,39.0216,0.0325403
13,58.1489,0.0244736
19,35.9396,0.0271142
26,74.235,0.0316085
34,99.2404,0.0272737
25,57.4953,0.0751254
33,54.08,0.12396
63,36.3813,0.0429434
32,41.1325,0.0426615
51,87.6048,0.0430576
87,91.3009,0.0164889
101,71.8173,0.0357547
132,56.2524,0.0437
86,61.8378,0.0339716
148,78.6014,0.0528989
72,76.8831,0.0714216
99,76.9831,0.0413353
114,97.1225,0.0194464
147,33.4345,0.107766
129,28.3981,0.0177143
201,90.3529,0.0408184
222,108.51,0.0346268
200,25.8003,0.0163411
221,78.3133,0.0193312
243,76.7876,0.017822
265,51.9961,0.0426768
288,141.388,0.0716008
