Q	U	V
{$V$}	{[mm$^3$]}	0.00665564
{$d_v$}	{[mm]}	0.233380
{$S_c$}	{[mm$^2$]}	0.210617
{$S_o$}	{[mm$^2$]}	0.169029
{$S_l/S_o$}	[]	0.246041
{$\Psi$}	[]	0.812426
{$\eta$}	[]	0.814364
{med($\theta_e$)}	{[$^\circ$]}	53.7584
{$\Upsilon$}	[]	17
{$\Xi$}	[]	8
