Q	U	V
{$V$}	{[mm$^3$]}	0.013943
{$d_v$}	{[mm]}	0.298620
{$S_c$}	{[mm$^2$]}	0.462481
{$S_o$}	{[mm$^2$]}	0.336863
{$S_l/S_o$}	[]	0.372905
{$\Psi$}	[]	0.605751
{$\eta$}	[]	0.638694
{med($\theta_e$)}	{[$^\circ$]}	61.17935
{$\Upsilon$}	[]	14
{$\Xi$}	[]	13
