facetNormals:0,facetNormals:1,facetNormals:2,FacetCenters:0,FacetCenters:1,FacetCenters:2,FacetIds,relFacetSize,absFacetSize,cellPairingIds,interplanarAngles,angleWeights
0.517636,-0.209909,-0.800738,5.26366,5.49549,6.31012,1,0.0554511,0.0103532,8,72.7122,0.0454083
-0.538289,0.255109,-0.76662,5.15406,5.59532,6.30341,2,0.0384454,0.00717806,13,38.7427,0.0680476
0.57488,0.410917,-0.647627,5.25317,5.56804,6.31741,3,0.0880492,0.0164395,19,47.969,0.039598
-0.0457181,-0.747807,-0.635536,5.20418,5.43957,6.31992,4,0.0307941,0.00574952,26,36.5165,0.027325
0.346528,-0.747187,-0.551333,5.26455,5.38965,6.32771,5,0.0181294,0.0033849,34,83.4756,0.0687658
-0.710663,-0.367295,-0.493331,5.16867,5.45048,6.329,6,0.0904951,0.0168962,43,85.6799,0.0423037
-0.106238,0.877291,-0.38727,5.20567,5.58075,6.32526,7,0.0341959,0.00638466,53,85.6643,0.0371648
-0.412165,-0.881668,-0.125775,5.19589,5.3611,6.38852,8,0.0279482,0.00521817,64,109.783,0.0343683
-0.666044,0.697576,-0.206406,5.16508,5.5764,6.3402,9,0.0249008,0.00464919,76,71.3346,0.0690148
0.594096,-0.714063,0.20043,5.28875,5.38817,6.41115,10,0.0913627,0.0170582,89,65.9726,0.0250082
0.958119,-0.175818,0.174189,5.3293,5.4385,6.41887,11,0.0161447,0.00301435,103,143.489,0.0524561
-0.89375,-0.0562055,0.396887,5.17153,5.50155,6.41615,12,0.0497681,0.0092921,118,129.954,0.0539198
-0.670641,-0.532954,0.471947,5.17406,5.50611,6.41808,13,0.0524708,0.00979672,134,147.086,0.0181902
-0.298258,0.693841,0.635764,5.17771,5.64022,6.39419,14,0.0108796,0.00203131,151,171.739,0.0646882
-0.599928,0.112437,0.742149,5.18192,5.47745,6.43547,15,0.0776179,0.0144919,169,121.034,0.0439585
0.329185,-0.223038,0.875983,5.27659,5.45377,6.47449,16,0.0364119,0.0067984,18,71.7216,0.0535214
,,,,,,,,,25,70.3301,0.034197
,,,,,,,,,33,87.2887,0.0246396
,,,,,,,,,42,43.0263,0.0539647
,,,,,,,,,52,51.9078,0.0361964
,,,,,,,,,63,84.3762,0.032367
,,,,,,,,,75,43.4893,0.0302251
,,,,,,,,,88,135.287,0.0541179
,,,,,,,,,102,136.263,0.02274
,,,,,,,,,117,80.1613,0.04338
,,,,,,,,,133,98.2816,0.0443762
,,,,,,,,,150,98.9943,0.0169598
,,,,,,,,,168,103.471,0.0514211
,,,,,,,,,187,165.855,0.037401
,,,,,,,,,32,85.2475,0.0456298
,,,,,,,,,41,74.7903,0.0300678
,,,,,,,,,51,105.449,0.0892554
,,,,,,,,,62,53.4902,0.0492605
,,,,,,,,,74,123.398,0.0424289
,,,,,,,,,87,87.7313,0.0388224
,,,,,,,,,101,95.1455,0.0896753
,,,,,,,,,116,67.3192,0.0272862
,,,,,,,,,132,147.736,0.063592
,,,,,,,,,149,166.146,0.0657559
,,,,,,,,,167,108.362,0.0193662
,,,,,,,,,186,147.793,0.0825051
,,,,,,,,,206,120.624,0.0515187
,,,,,,,,,50,23.4519,0.0228225
,,,,,,,,,61,47.7626,0.0459516
,,,,,,,,,73,115.298,0.032406
,,,,,,,,,86,38.1585,0.0293023
,,,,,,,,,100,111.81,0.0275357
,,,,,,,,,115,66.0192,0.0460627
,,,,,,,,,131,91.3573,0.0211834
,,,,,,,,,148,100.135,0.0380467
,,,,,,,,,166,82.2684,0.0388109
,,,,,,,,,185,159.638,0.0160786
,,,,,,,,,205,124.03,0.0440943
,,,,,,,,,226,115.372,0.0333682
,,,,,,,,,72,71.2021,0.0302072
,,,,,,,,,85,120.046,0.023696
,,,,,,,,,99,53.0045,0.0219926
,,,,,,,,,114,130.758,0.0209823
,,,,,,,,,130,48.1069,0.0302551
,,,,,,,,,147,68.004,0.0170796
,,,,,,,,,165,120.076,0.0265772
,,,,,,,,,184,95.5874,0.0269479
,,,,,,,,,204,173.575,0.0135986
,,,,,,,,,225,137.403,0.0293933
,,,,,,,,,247,102.246,0.0242064
,,,,,,,,,98,93.5199,0.0496357
,,,,,,,,,113,42.6115,0.042707
,,,,,,,,,129,69.8755,0.0390551
,,,,,,,,,146,106.845,0.0909268
,,,,,,,,,164,139.032,0.027401
,,,,,,,,,183,60.0217,0.0642188
,,,,,,,,,203,61.4347,0.0664263
,,,,,,,,,224,112.598,0.019424
,,,,,,,,,246,88.7993,0.0835633
,,,,,,,,,269,130.248,0.0519294
,,,,,,,,,128,135.99,0.030758
,,,,,,,,,145,36.733,0.0288174
,,,,,,,,,163,146.799,0.0497653
,,,,,,,,,182,109.805,0.0219339
,,,,,,,,,202,96.5656,0.040538
,,,,,,,,,223,127.855,0.0414066
,,,,,,,,,245,65.5539,0.0165073
,,,,,,,,,268,97.7509,0.0474756
,,,,,,,,,292,127.878,0.0352692
,,,,,,,,,162,108.964,0.0263367
,,,,,,,,,181,67.3253,0.0428029
,,,,,,,,,201,105.64,0.0204666
,,,,,,,,,222,67.4901,0.0357951
,,,,,,,,,244,44.2969,0.0364706
,,,,,,,,,267,125.951,0.0156622
,,,,,,,,,291,86.6689,0.0410981
,,,,,,,,,316,92.9879,0.0316236
,,,,,,,,,200,176.171,0.0391353
,,,,,,,,,221,144.718,0.0195888
,,,,,,,,,243,60.6085,0.0331936
,,,,,,,,,266,91.3372,0.0337738
,,,,,,,,,290,55.5054,0.015143
,,,,,,,,,315,69.9566,0.0377053
,,,,,,,,,341,125.846,0.0295758
,,,,,,,,,242,39.1084,0.0274404
,,,,,,,,,265,116.223,0.0644359
,,,,,,,,,289,85.2643,0.0666586
,,,,,,,,,314,125.534,0.0194438
,,,,,,,,,340,108.382,0.0839313
,,,,,,,,,367,54.5349,0.0520712
,,,,,,,,,288,143.314,0.0243804
,,,,,,,,,313,118.826,0.024692
,,,,,,,,,339,107.7,0.0129993
,,,,,,,,,366,119.297,0.0267296
,,,,,,,,,394,57.8059,0.0223705
,,,,,,,,,338,31.5204,0.0510837
,,,,,,,,,365,60.2459,0.0178558
,,,,,,,,,393,28.8494,0.0606486
,,,,,,,,,422,85.9841,0.042055
,,,,,,,,,392,82.2448,0.0180223
,,,,,,,,,421,42.5197,0.0626138
,,,,,,,,,451,70.6644,0.0429906
,,,,,,,,,450,39.8021,0.0190842
,,,,,,,,,481,71.3319,0.0167534
,,,,,,,,,512,62.4507,0.0495698
