Q	U	V
{$V$}	{[mm$^3$]}	0.00261476
{$d_v$}	{[mm]}	0.170927
{$S_c$}	{[mm$^2$]}	0.125389
{$S_o$}	{[mm$^2$]}	0.0737738
{$S_l/S_o$}	[]	0.699641
{$\Psi$}	[]	0.732003
{$\eta$}	[]	0.741785
{med($\theta_e$)}	{[$^\circ$]}	49.9224
{$\Upsilon$}	[]	15
{$\Xi$}	[]	6
