Q	U	V
{$V$}	{[mm$^3$]}	0.00263138
{$d_v$}	{[mm]}	0.171289
{$S_c$}	{[mm$^2$]}	0.144499
{$S_o$}	{[mm$^2$]}	0.0895427
{$S_l/S_o$}	[]	0.613744
{$\Psi$}	[]	0.637884
{$\eta$}	[]	0.668048
{med($\theta_e$)}	{[$^\circ$]}	66.1595
{$\Upsilon$}	[]	14
{$\Xi$}	[]	4
