facetNormals:0,facetNormals:1,facetNormals:2,FacetCenters:0,FacetCenters:1,FacetCenters:2,FacetIds,relFacetSize,absFacetSize,cellPairingIds,interplanarAngles,angleWeights
0.573134,0.0179148,-0.762723,7.73506,6.8917,7.79216,1,0.0545498,0.0237207,8,35.8929,0.053675
0.328447,0.559007,-0.728418,7.70792,6.90359,7.76152,2,0.0528278,0.0229719,13,106.233,0.0282695
-0.908365,-0.022466,-0.343389,7.53163,6.86203,7.81453,3,0.0190782,0.00829609,19,80.7187,0.0759232
-0.0689775,0.899121,-0.217905,7.70395,7.02248,7.90399,4,0.124835,0.0542841,26,44.3616,0.0490919
0.84934,-0.391639,-0.233143,7.80048,6.89017,7.87952,5,0.0446268,0.0194057,34,55.7819,0.0471809
0.578467,0.755286,-0.237426,7.77668,7.00883,7.87155,6,0.0415659,0.0180748,43,55.7741,0.0268725
0.903338,0.385472,-0.00326777,7.82363,6.97838,7.92015,7,0.0178273,0.00775213,53,100.593,0.086756
-0.223238,-0.857147,0.0158596,7.5965,6.84059,7.85332,8,0.211806,0.092103,64,85.2252,0.0627846
0.760121,-0.323407,0.46487,7.74941,6.89324,7.92177,9,0.0739478,0.0321559,76,130.773,0.0718428
-0.0904701,-0.645588,0.695963,7.68996,6.87777,7.95579,10,0.105189,0.0457411,89,108.049,0.0233905
0.550526,0.136749,0.795654,7.79677,7.01861,8.06078,11,0.014887,0.00647353,18,93.6788,0.0280327
,,,,,,,,,25,45.0914,0.0742391
,,,,,,,,,33,75.8455,0.0483822
,,,,,,,,,42,34.8026,0.0465251
,,,,,,,,,52,57.5033,0.0266585
,,,,,,,,,63,130.76,0.084564
,,,,,,,,,75,106.967,0.0616286
,,,,,,,,,88,164.841,0.0703331
,,,,,,,,,102,109.77,0.0232282
,,,,,,,,,32,82.5218,0.0330982
,,,,,,,,,41,136.81,0.0267295
,,,,,,,,,51,118.941,0.0261527
,,,,,,,,,62,150.228,0.0184316
,,,,,,,,,74,75.4218,0.0350036
,,,,,,,,,87,156.261,0.0303312
,,,,,,,,,101,98.8372,0.0322985
,,,,,,,,,116,144.879,0.016724
,,,,,,,,,50,113.733,0.0657492
,,,,,,,,,61,40.5759,0.0623661
,,,,,,,,,73,71.7734,0.0311992
,,,,,,,,,86,157.4,0.157086
,,,,,,,,,100,120.364,0.0928781
,,,,,,,,,115,145.136,0.114173
,,,,,,,,,131,95.5959,0.0266016
,,,,,,,,,72,74.6075,0.043042
,,,,,,,,,85,49.3243,0.0254771
,,,,,,,,,99,80.4011,0.0737208
,,,,,,,,,114,43.3973,0.055662
,,,,,,,,,130,89.1436,0.0626669
,,,,,,,,,147,75.9585,0.0223262
,,,,,,,,,98,32.2496,0.0249526
,,,,,,,,,113,153.934,0.069494
,,,,,,,,,129,84.7485,0.0532181
,,,,,,,,,146,138.953,0.0595862
,,,,,,,,,164,75.9358,0.0219224
,,,,,,,,,128,127.704,0.0328866
,,,,,,,,,145,52.9849,0.0287287
,,,,,,,,,163,110.818,0.0304876
,,,,,,,,,182,55.2219,0.016225
,,,,,,,,,162,82.136,0.109623
,,,,,,,,,181,46.2097,0.140568
,,,,,,,,,201,105.236,0.0278187
,,,,,,,,,200,59.1468,0.0868443
,,,,,,,,,221,36.546,0.0247844
,,,,,,,,,242,63.5079,0.0260826
