Q	U	V
{$V$}	{[mm$^3$]}	0.00183935
{$d_v$}	{[mm]}	0.152016
{$S_c$}	{[mm$^2$]}	0.0994404
{$S_o$}	{[mm$^2$]}	0.0635612
{$S_l/S_o$}	[]	0.564483
{$\Psi$}	[]	0.730069
{$\eta$}	[]	0.762093
{med($\theta_e$)}	{[$^\circ$]}	49.4249
{$\Upsilon$}	[]	13
{$\Xi$}	[]	5
