facetNormals:0,facetNormals:1,facetNormals:2,FacetCenters:0,FacetCenters:1,FacetCenters:2,FacetIds,relFacetSize,absFacetSize,cellPairingIds,interplanarAngles,angleWeights
0.133829,0.350295,-0.845628,6.22819,3.90276,6.66763,1,0.0619884,0.020106,8,44.8473,0.050642
-0.577983,0.321149,-0.712088,6.13968,3.87399,6.67577,2,0.0428067,0.0138844,13,65.0069,0.0336884
0.520653,-0.550402,-0.5892,6.18896,3.78122,6.74487,3,0.0231291,0.00750195,19,73.8942,0.0235856
-0.472341,-0.608484,-0.628508,6.14717,3.78758,6.69029,4,0.0145634,0.00472364,26,59.6864,0.0246176
0.901973,0.169637,-0.324456,6.20645,3.86327,6.75699,5,0.0153585,0.00498152,34,56.9984,0.0376681
0.539948,0.778184,-0.165024,6.18847,3.95585,6.76906,6,0.0270539,0.00877494,43,82.31,0.0627844
-0.839328,0.461956,-0.0822257,6.11023,3.89823,6.74183,7,0.063601,0.020629,53,73.3872,0.0719411
-0.364087,0.892371,0.0105921,6.18966,3.97539,6.76096,8,0.085701,0.0277972,64,110.589,0.0964371
-0.764514,-0.465354,0.0307335,6.12029,3.78489,6.75048,9,0.217068,0.0704061,76,100.657,0.0346007
0.906922,-0.196615,0.256878,6.21693,3.8608,6.82965,10,0.0239979,0.00778373,89,102.648,0.0492535
0.424677,0.655959,0.570713,6.18571,3.94455,6.86695,11,0.0408594,0.0132528,103,127.98,0.0487912
-0.596806,0.322248,0.690695,6.16152,3.86475,6.71839,12,0.040227,0.0130477,118,114.928,0.0358688
-0.103281,0.668456,0.714026,6.19938,3.93985,6.82436,13,0.0252355,0.00818514,134,160.961,0.0624029
0.11214,-0.522974,0.773939,6.16136,3.80285,6.87491,14,0.062823,0.0203767,151,162.283,0.0423951
-0.163861,-0.0759365,0.938693,6.15549,3.83435,6.84395,15,0.0322132,0.0104484,18,93.5733,0.0300317
,,,,,,,,,25,57.072,0.0217329
,,,,,,,,,33,104.435,0.0226061
,,,,,,,,,42,86.6039,0.0331542
,,,,,,,,,52,42.2167,0.051172
,,,,,,,,,63,58.4925,0.057095
,,,,,,,,,75,71.8872,0.0715111
,,,,,,,,,88,145.407,0.0307545
,,,,,,,,,102,117.983,0.0418104
,,,,,,,,,117,92.6445,0.0414768
,,,,,,,,,133,104.177,0.0317523
,,,,,,,,,150,149.033,0.0509183
,,,,,,,,,168,130.083,0.036762
,,,,,,,,,32,61.2262,0.0178729
,,,,,,,,,41,52.6041,0.0184593
,,,,,,,,,51,93.1034,0.024938
,,,,,,,,,62,134.148,0.0339221
,,,,,,,,,74,137.954,0.0364272
,,,,,,,,,87,100.73,0.0418039
,,,,,,,,,101,62.3373,0.0235555
,,,,,,,,,116,120.846,0.0295379
,,,,,,,,,132,164.442,0.029371
,,,,,,,,,149,153.176,0.0241364
,,,,,,,,,167,96.9829,0.0338105
,,,,,,,,,186,130.562,0.0269256
,,,,,,,,,50,109.644,0.0149503
,,,,,,,,,61,130.822,0.0189342
,,,,,,,,,73,79.9372,0.0236999
,,,,,,,,,86,113.212,0.0248961
,,,,,,,,,100,45.4165,0.0272954
,,,,,,,,,115,119.418,0.0181265
,,,,,,,,,131,175.055,0.0214731
,,,,,,,,,148,111.217,0.0213848
,,,,,,,,,166,145.593,0.0184685
,,,,,,,,,185,103.679,0.0236454
,,,,,,,,,205,119.389,0.0200584
,,,,,,,,,72,44.0583,0.0195936
,,,,,,,,,85,134.151,0.0247421
,,,,,,,,,99,101.089,0.0260487
,,,,,,,,,114,153.253,0.0286872
,,,,,,,,,130,41.5638,0.0187299
,,,,,,,,,147,70.8405,0.0223252
,,,,,,,,,165,138.682,0.0222297
,,,,,,,,,184,102.758,0.0190954
,,,,,,,,,204,105.107,0.0246827
,,,,,,,,,225,119.999,0.0208
,,,,,,,,,98,94.9728,0.0379605
,,,,,,,,,113,57.6323,0.0411254
,,,,,,,,,129,154.949,0.0481115
,,,,,,,,,146,71.4639,0.0254344
,,,,,,,,,164,46.0582,0.0325534
,,,,,,,,,183,101.494,0.0323508
,,,,,,,,,203,68.4986,0.0261131
,,,,,,,,,224,121.615,0.0378207
,,,,,,,,,246,109.215,0.029409
,,,,,,,,,128,39.3246,0.0730154
,,,,,,,,,145,60.4894,0.0983774
,,,,,,,,,163,160.569,0.0348473
,,,,,,,,,182,96.1911,0.0497547
,,,,,,,,,202,50.428,0.049283
,,,,,,,,,223,69.1395,0.0361338
,,,,,,,,,245,116.197,0.0632096
,,,,,,,,,268,88.4247,0.0427659
,,,,,,,,,162,99.1052,0.122885
,,,,,,,,,181,122.814,0.0374962
,,,,,,,,,201,62.0748,0.0553363
,,,,,,,,,222,56.7062,0.0547534
,,,,,,,,,244,47.3985,0.03899
,,,,,,,,,267,123.412,0.0725
,,,,,,,,,291,89.8857,0.0468256
,,,,,,,,,200,133.536,0.0432179
,,,,,,,,,221,134.966,0.0687734
,,,,,,,,,243,67.8012,0.0678754
,,,,,,,,,266,103.805,0.0452145
,,,,,,,,,290,77.5647,0.0974441
,,,,,,,,,315,77.2134,0.056101
,,,,,,,,,242,64.387,0.0302368
,,,,,,,,,265,117.278,0.030062
,,,,,,,,,289,92.5224,0.0246011
,,,,,,,,,314,63.5606,0.0347294
,,,,,,,,,340,83.296,0.0275052
,,,,,,,,,288,67.9194,0.0405407
,,,,,,,,,313,32.561,0.0312008
,,,,,,,,,339,80.7538,0.0495148
,,,,,,,,,366,63.2506,0.0360248
,,,,,,,,,338,36.0034,0.0310146
,,,,,,,,,365,70.8264,0.0490477
,,,,,,,,,393,38.7491,0.0357768
,,,,,,,,,392,78.059,0.0360072
,,,,,,,,,421,47.3968,0.0283006
,,,,,,,,,450,33.7395,0.0425886
