Q	U	V
{$V$}	{[mm$^3$]}	0.00298762
{$d_v$}	{[mm]}	0.178694
{$S_c$}	{[mm$^2$]}	0.144299
{$S_o$}	{[mm$^2$]}	0.0941967
{$S_l/S_o$}	[]	0.531890
{$\Psi$}	[]	0.695191
{$\eta$}	[]	0.724607
{med($\theta_e$)}	{[$^\circ$]}	60.44855
{$\Upsilon$}	[]	9
{$\Xi$}	[]	11
