Q	U	V
{$V$}	{[mm$^3$]}	0.00405038
{$d_v$}	{[mm]}	0.197772
{$S_c$}	{[mm$^2$]}	0.190462
{$S_o$}	{[mm$^2$]}	0.123265
{$S_l/S_o$}	[]	0.545143
{$\Psi$}	[]	0.645168
{$\eta$}	[]	0.662494
{med($\theta_e$)}	{[$^\circ$]}	64.0287
{$\Upsilon$}	[]	19
{$\Xi$}	[]	9
