"cellPairingIds","interplanarAngles","angleWeights"
8,83.4626,0.0336959
13,86.3144,0.0373387
19,85.8274,0.025378
26,78.0482,0.0392166
43,110.279,0.0223041
18,20.4688,0.100793
52,89.1079,0.0357472
63,93.9508,0.0435372
75,109.457,0.0705295
32,53.128,0.0508947
74,96.7063,0.0498167
50,109.404,0.0544487
86,108.39,0.0305848
85,93.1237,0.042023
99,102.637,0.0532167
114,80.3977,0.099993
145,29.5316,0.0340877
162,34.8832,0.0411003
