Q	U	V
{$V$}	{[mm$^3$]}	0.00271213
{$d_v$}	{[mm]}	0.173023
{$S_c$}	{[mm$^2$]}	0.226202
{$S_o$}	{[mm$^2$]}	0.111251
{$S_l/S_o$}	[]	1.033258
{$\Psi$}	[]	0.415778
{$\eta$}	[]	0.429175
{med($\theta_e$)}	{[$^\circ$]}	65.6214
{$\Upsilon$}	[]	15
{$\Xi$}	[]	5
