Q	U	V
{$V$}	{[mm$^3$]}	0.0144797
{$d_v$}	{[mm]}	0.302404
{$S_c$}	{[mm$^2$]}	0.522296
{$S_o$}	{[mm$^2$]}	0.347664
{$S_l/S_o$}	[]	0.502301
{$\Psi$}	[]	0.550056
{$\eta$}	[]	0.571574
{med($\theta_e$)}	{[$^\circ$]}	57.5659
{$\Upsilon$}	[]	17
{$\Xi$}	[]	16
