facetNormals:0,facetNormals:1,facetNormals:2,FacetCenters:0,FacetCenters:1,FacetCenters:2,FacetIds,relFacetSize,absFacetSize,cellPairingIds,interplanarAngles,angleWeights
0.0407968,0.0126853,-0.973686,3.64367,6.48171,6.00942,1,0.0174417,0.00195217,8,40.5951,0.0160534
-0.519988,0.331707,-0.763416,3.63344,6.49298,6.01145,2,0.0148698,0.00166431,13,74.9837,0.0296806
-0.28719,-0.837695,-0.262487,3.60224,6.49023,5.9972,3,0.099502,0.0111368,19,62.7744,0.0291803
-0.160064,0.842771,-0.43649,3.65254,6.5409,6.01842,4,0.0892433,0.00998863,26,84.9289,0.0303515
-0.901247,0.0288918,-0.117844,3.56177,6.54314,6.00969,5,0.116814,0.0130745,34,94.6341,0.0259046
-0.386039,0.896094,0.0746351,3.63508,6.59276,6.0613,6,0.0503211,0.00563223,43,105.688,0.0223376
0.0246355,0.946347,0.280601,3.64661,6.59907,6.06171,7,0.0310549,0.00347585,53,117.711,0.0223059
0.816781,-0.224944,0.485871,3.72948,6.56869,6.06723,8,0.0309325,0.00346215,64,120.616,0.0115932
-0.830023,0.257082,0.472877,3.55689,6.56869,6.0677,9,0.00868203,0.000971743,76,123.234,0.015058
0.140818,0.807503,0.56147,3.64824,6.50526,6.06932,10,0.0132476,0.00148274,89,116.126,0.0271033
0.402119,-0.763189,0.432189,3.68412,6.52051,6.04212,11,0.0607621,0.00680085,103,130.666,0.0230974
0.504669,0.503771,0.662653,3.69143,6.59352,6.07837,12,0.0341811,0.00382575,118,137.106,0.0260184
-0.649507,-0.24491,0.684482,3.59251,6.55691,6.07372,13,0.0511908,0.00572958,134,148.618,0.0293226
-0.159931,-0.506339,0.82535,3.64306,6.53563,6.07126,14,0.0919731,0.0102942,151,143.909,0.0257719
-0.366349,0.452901,0.774308,3.60767,6.58112,6.08299,15,0.0493342,0.00552177,169,153.268,0.0259283
0.271094,-0.329162,0.886534,3.66652,6.57455,6.08967,16,0.0505008,0.00565234,18,85.4537,0.025873
,,,,,,,,,25,42.5404,0.025492
,,,,,,,,,33,50.4595,0.0263813
,,,,,,,,,42,62.6655,0.0229561
,,,,,,,,,52,84.8559,0.0201103
,,,,,,,,,63,155.221,0.0200846
,,,,,,,,,75,80.7613,0.010963
,,,,,,,,,88,103.885,0.0140119
,,,,,,,,,102,146.78,0.0238925
,,,,,,,,,117,128.997,0.020724
,,,,,,,,,133,106.145,0.0230454
,,,,,,,,,150,137.919,0.0256006
,,,,,,,,,168,105.266,0.0228518
,,,,,,,,,187,163.754,0.0229747
,,,,,,,,,32,127.846,0.0940939
,,,,,,,,,41,71.5688,0.107465
,,,,,,,,,51,136.847,0.0668395
,,,,,,,,,62,163.292,0.0473361
,,,,,,,,,74,101.1,0.0471938
,,,,,,,,,87,96.353,0.0159706
,,,,,,,,,101,160.354,0.0233821
,,,,,,,,,116,62.5804,0.0754499
,,,,,,,,,132,145.489,0.0508829
,,,,,,,,,149,76.3806,0.0676023
,,,,,,,,,167,73.7639,0.0955896
,,,,,,,,,186,122.239,0.0659631
,,,,,,,,,206,92.1963,0.0669978
,,,,,,,,,50,75.4397,0.101184
,,,,,,,,,61,33.6092,0.0643548
,,,,,,,,,73,45.0741,0.0460762
,,,,,,,,,86,124.498,0.0459414
,,,,,,,,,100,81.3556,0.0158246
,,,,,,,,,115,64.4183,0.0230705
,,,,,,,,,131,164.805,0.0722989
,,,,,,,,,148,86.6627,0.04943
,,,,,,,,,166,115.315,0.0650617
,,,,,,,,,185,143.71,0.0905877
,,,,,,,,,205,83.6992,0.063542
,,,,,,,,,226,138.372,0.0645016
,,,,,,,,,72,65.7839,0.0703408
,,,,,,,,,85,91.7824,0.0490657
,,,,,,,,,99,154.242,0.0489128
,,,,,,,,,114,38.9366,0.0161628
,,,,,,,,,130,100.829,0.0237964
,,,,,,,,,147,119.75,0.0799417
,,,,,,,,,165,125.844,0.0528869
,,,,,,,,,184,55.8523,0.0711861
,,,,,,,,,204,87.9294,0.102916
,,,,,,,,,225,73.3814,0.0693709
,,,,,,,,,247,113.61,0.0705161
,,,,,,,,,98,27.1889,0.0384073
,,,,,,,,,113,120.192,0.0383136
,,,,,,,,,129,52.7406,0.014809
,,,,,,,,,146,42.9926,0.0209736
,,,,,,,,,164,148.713,0.0550509
,,,,,,,,,183,71.2584,0.0407097
,,,,,,,,,203,85.0473,0.0507522
,,,,,,,,,224,110.122,0.065051
,,,,,,,,,246,50.3482,0.0498228
,,,,,,,,,269,110.266,0.0504108
,,,,,,,,,128,93.3541,0.0309936
,,,,,,,,,145,68.655,0.0135702
,,,,,,,,,163,19.42,0.0185724
,,,,,,,,,182,128.347,0.0411027
,,,,,,,,,202,45.38,0.0325431
,,,,,,,,,223,93.3176,0.038658
,,,,,,,,,245,105.044,0.046432
,,,,,,,,,268,48.2678,0.0381163
,,,,,,,,,292,93.3086,0.0384595
,,,,,,,,,162,121.584,0.0135585
,,,,,,,,,181,77.7322,0.0185505
,,,,,,,,,201,41.0981,0.0409953
,,,,,,,,,222,49.228,0.0324758
,,,,,,,,,244,98.6289,0.038563
,,,,,,,,,267,66.3635,0.046295
,,,,,,,,,291,91.5072,0.038024
,,,,,,,,,316,40.8991,0.0383655
,,,,,,,,,200,68.7509,0.0104895
,,,,,,,,,221,109.945,0.0151932
,,,,,,,,,243,88.5733,0.0138469
,,,,,,,,,266,33.9682,0.0148461
,,,,,,,,,290,66.1306,0.0158663
,,,,,,,,,315,34.8476,0.0147656
,,,,,,,,,341,83.5345,0.0148168
,,,,,,,,,242,109.309,0.0217526
,,,,,,,,,265,28.5042,0.0190946
,,,,,,,,,289,84.366,0.0210481
,,,,,,,,,314,88.1183,0.0231593
,,,,,,,,,340,38.9323,0.0208865
,,,,,,,,,367,73.9557,0.0209892
,,,,,,,,,288,83.5901,0.0437507
,,,,,,,,,313,76.3759,0.0555674
,,,,,,,,,339,44.2022,0.0731787
,,,,,,,,,366,99.7495,0.0544551
,,,,,,,,,394,38.4481,0.0551583
,,,,,,,,,338,89.8545,0.0409914
,,,,,,,,,365,77.2323,0.0498397
,,,,,,,,,393,53.8529,0.040383
,,,,,,,,,422,54.3266,0.0407684
,,,,,,,,,392,34.0374,0.0657733
,,,,,,,,,421,45.9282,0.0502454
,,,,,,,,,451,57.7781,0.0508435
,,,,,,,,,450,60.4946,0.0642206
,,,,,,,,,481,27.6754,0.0652009
,,,,,,,,,512,62.6416,0.0499107
