Q	U	V
{$V$}	{[mm$^3$]}	0.0100019
{$d_v$}	{[mm]}	0.267318
{$S_c$}	{[mm$^2$]}	0.397533
{$S_o$}	{[mm$^2$]}	0.248282
{$S_l/S_o$}	[]	0.601135
{$\Psi$}	[]	0.564719
{$\eta$}	[]	0.608312
{med($\theta_e$)}	{[$^\circ$]}	58.8557
{$\Upsilon$}	[]	15
{$\Xi$}	[]	9
