Q	U	V
{$V$}	{[mm$^3$]}	0.00708549
{$d_v$}	{[mm]}	0.238300
{$S_c$}	{[mm$^2$]}	0.325725
{$S_o$}	{[mm$^2$]}	0.15589
{$S_l/S_o$}	[]	1.089454
{$\Psi$}	[]	0.547704
{$\eta$}	[]	0.563236
{med($\theta_e$)}	{[$^\circ$]}	52.13585
{$\Upsilon$}	[]	17
{$\Xi$}	[]	5
