facetNormals:0,facetNormals:1,facetNormals:2,FacetCenters:0,FacetCenters:1,FacetCenters:2,FacetIds,relFacetSize,absFacetSize,cellPairingIds,interplanarAngles,angleWeights
0.2896,0.313188,-0.886817,6.19357,4.74586,6.21264,1,0.00491934,0.000322255,8,37.2459,0.00800983
0.420425,-0.295203,-0.82682,6.24029,4.65839,6.19267,2,0.0215453,0.00141138,13,66.5843,0.0062089
-0.248246,-0.611816,-0.731775,6.22789,4.68619,6.20837,3,0.00841475,0.000551231,19,55.4386,0.00942482
-0.561403,0.0334461,-0.773584,6.19497,4.72798,6.20534,4,0.112026,0.00733858,26,98.1852,0.00919876
-0.450755,-0.820887,-0.282559,6.2185,4.64537,6.23128,5,0.0707146,0.00463235,34,69.4664,0.00797935
0.841216,-0.426075,-0.256083,6.23366,4.69957,6.22956,6,0.0211113,0.00138295,43,107.931,0.00964856
-0.895266,-0.295603,-0.0736763,6.17614,4.71598,6.26188,7,0.249641,0.0163534,53,98.1317,0.00878682
-0.907906,0.325603,-0.0300312,6.15798,4.77738,6.32408,8,0.041094,0.00269197,64,107.68,0.00766396
0.300129,-0.930465,0.10063,6.23378,4.65082,6.24496,9,0.0173363,0.00113566,76,109.035,0.00771243
0.666433,-0.654178,0.347178,6.24691,4.6612,6.2649,10,0.0178436,0.00116889,89,136.334,0.00894358
-0.660198,-0.646623,0.348957,6.1753,4.71299,6.30678,11,0.0491525,0.00321987,103,103.15,0.00506786
-0.237536,0.833263,0.464955,6.19825,4.78084,6.36495,12,0.00522561,0.000342318,118,148.062,0.00756759
-0.356606,-0.740295,0.556831,6.18507,4.69435,6.32138,13,0.0163919,0.00107379,134,117.491,0.00911272
0.666537,-0.172273,0.637415,6.245,4.68609,6.29469,14,0.06175,0.0040451,151,154.724,0.00929394
0.00675633,-0.595017,0.762989,6.2091,4.71575,6.34686,15,0.0839297,0.00549804,169,145.807,0.00883244
-0.574535,0.170269,0.762995,6.17837,4.76628,6.35844,16,0.0431801,0.00282863,18,44.7562,0.0121027
,,,,,,,,,25,64.9822,0.03614
,,,,,,,,,33,72.4927,0.0330277
,,,,,,,,,42,43.3907,0.0213261
,,,,,,,,,52,104.354,0.0396671
,,,,,,,,,63,118.832,0.0282692
,,,,,,,,,75,70.608,0.019213
,,,,,,,,,88,78.9279,0.0195205
,,,,,,,,,102,112.968,0.0299586
,,,,,,,,,117,139.725,0.00841117
,,,,,,,,,133,113.922,0.0186186
,,,,,,,,,150,102.389,0.0319447
,,,,,,,,,168,118.704,0.0342885
,,,,,,,,,187,167.691,0.0287469
,,,,,,,,,32,43.3927,0.0156537
,,,,,,,,,41,31.6312,0.0150398
,,,,,,,,,51,75.6159,0.0120332
,,,,,,,,,62,60.6385,0.0162807
,,,,,,,,,74,87.0981,0.0139691
,,,,,,,,,87,64.2315,0.0113301
,,,,,,,,,101,91.1238,0.0114363
,,,,,,,,,116,71.7963,0.0143695
,,,,,,,,,132,144.709,0.00644737
,,,,,,,,,149,82.129,0.0111207
,,,,,,,,,167,124.706,0.0148112
,,,,,,,,,186,101.858,0.0152959
,,,,,,,,,206,122.935,0.0140847
,,,,,,,,,50,61.6552,0.0867009
,,,,,,,,,61,107.976,0.0355275
,,,,,,,,,73,52.5708,0.154652
,,,,,,,,,86,53.8973,0.0601306
,,,,,,,,,100,107.168,0.030026
,,,,,,,,,115,134.223,0.0307839
,,,,,,,,,131,85.1995,0.0683263
,,,,,,,,,148,102.182,0.00998544
,,,,,,,,,166,105.601,0.0285991
,,,,,,,,,185,166.644,0.0796153
,,,,,,,,,205,131.56,0.0959637
,,,,,,,,,226,106.401,0.0623339
,,,,,,,,,72,87.4254,0.0325154
,,,,,,,,,85,43.8585,0.11021
,,,,,,,,,99,80.8292,0.0519807
,,,,,,,,,114,51.3784,0.0278459
,,,,,,,,,130,81.8293,0.0284966
,,,,,,,,,147,40.9513,0.0579943
,,,,,,,,,165,137.424,0.00973205
,,,,,,,,,184,50.9959,0.0266145
,,,,,,,,,204,111.686,0.065929
,,,,,,,,,225,73.4378,0.0767575
,,,,,,,,,247,95.8293,0.0536191
,,,,,,,,,98,131.17,0.0389305
,,,,,,,,,113,161.615,0.0278931
,,,,,,,,,129,49.5428,0.0190385
,,,,,,,,,146,39.5687,0.0193404
,,,,,,,,,164,112.491,0.0295365
,,,,,,,,,183,134.539,0.00837756
,,,,,,,,,203,97.5334,0.0184547
,,,,,,,,,224,59.0939,0.0314652
,,,,,,,,,246,86.1297,0.0337367
,,,,,,,,,269,142.417,0.028358
,,,,,,,,,128,38.0344,0.0705711
,,,,,,,,,145,90.0654,0.0324211
,,,,,,,,,163,117.075,0.0333065
,,,,,,,,,182,35.9219,0.0821336
,,,,,,,,,202,94.1881,0.0102369
,,,,,,,,,223,58.0261,0.0307638
,,,,,,,,,245,131.92,0.0990095
,,,,,,,,,268,82.8668,0.125624
,,,,,,,,,292,63.6089,0.0736253
,,,,,,,,,162,127.584,0.0243852
,,,,,,,,,181,149.511,0.0248827
,,,,,,,,,201,66.6127,0.0447635
,,,,,,,,,222,60.1005,0.00927216
,,,,,,,,,244,86.049,0.0234356
,,,,,,,,,267,138.721,0.0493476
,,,,,,,,,291,103.804,0.0551737
,,,,,,,,,316,53.7077,0.0421112
,,,,,,,,,200,30.5076,0.0175863
,,,,,,,,,221,63.1407,0.0256321
,,,,,,,,,243,145.852,0.00803059
,,,,,,,,,266,49.1715,0.0168509
,,,,,,,,,290,62.591,0.0270721
,,,,,,,,,315,48.3143,0.0287368
,,,,,,,,,341,105.454,0.0247398
,,,,,,,,,242,83.9235,0.0261823
,,,,,,,,,265,123.588,0.00808382
,,,,,,,,,289,63.5847,0.017087
,,,,,,,,,314,33.6412,0.0276867
,,,,,,,,,340,46.9036,0.0294303
,,,,,,,,,367,103.728,0.0252521
,,,,,,,,,288,103.075,0.00944689
,,,,,,,,,313,22.1042,0.024585
,,,,,,,,,339,96.5813,0.0547358
,,,,,,,,,366,47.4336,0.0619971
,,,,,,,,,394,56.0317,0.0459732
,,,,,,,,,338,106.258,0.00792485
,,,,,,,,,365,90.342,0.00963579
,,,,,,,,,393,98.623,0.00983865
,,,,,,,,,422,48.4223,0.00932297
,,,,,,,,,392,74.7615,0.0259067
,,,,,,,,,421,26.0414,0.0274271
,,,,,,,,,451,58.4634,0.023763
,,,,,,,,,450,49.1862,0.0711514
,,,,,,,,,481,85.3329,0.0508219
,,,,,,,,,512,59.4635,0.057023
