"cellPairingIds","interplanarAngles","angleWeights"
18,91.3866,0.0357182
25,90.5058,0.0461289
42,99.9627,0.0372237
52,60.7226,0.0360558
63,68.0759,0.0401926
150,90.2534,0.0397191
187,106.277,0.0155676
32,44.7666,0.0636443
51,66.6064,0.0478501
149,86.801,0.0314519
86,83.7374,0.0793926
148,66.3595,0.0983285
166,88.9751,0.0392526
98,53.1222,0.048458
146,39.8646,0.0500789
203,78.3171,0.0326134
163,63.6425,0.0479878
292,69.7867,0.017239
222,77.0319,0.0747842
267,54.0447,0.0621348
342,71.465,0.0227503
289,54.9837,0.0323997
340,33.8211,0.0474581
367,54.1951,0.0174399
338,41.2572,0.038092
452,41.6344,0.0240791
421,29.3469,0.0314812
451,75.0151,0.0146986
482,48.4644,0.0175945
481,27.8876,0.0180343
513,46.7533,0.0225978
512,48.3574,0.0171702
578,45.2593,0.0120032
