"cellPairingIds","interplanarAngles","angleWeights"
19,39.5416,0.0809499
26,87.9151,0.0380175
34,75.6245,0.0928084
64,135.049,0.065973
134,152.86,0.0505227
50,104.246,0.0401551
100,142.622,0.0726881
185,163.794,0.0543692
205,129.992,0.0609168
114,47.6784,0.0360909
129,70.6821,0.0821086
224,81.5135,0.059473
290,44.8365,0.0471761
315,51.1061,0.0520285
450,37.237,0.0419189
