facetNormals:0,facetNormals:1,facetNormals:2,FacetCenters:0,FacetCenters:1,FacetCenters:2,FacetIds,relFacetSize,absFacetSize,cellPairingIds,interplanarAngles,angleWeights
-0.433288,0.299737,-0.801512,4.97711,7.83315,7.06933,1,0.0488989,0.00586132,8,47.0565,0.0682113
-0.51158,-0.448576,-0.669325,4.96507,7.79295,7.08484,2,0.112736,0.0135132,13,39.1541,0.0259184
-0.880101,0.250967,-0.334642,4.97198,7.81041,7.10258,3,0.0176321,0.00211349,19,87.6823,0.0438262
-0.0832255,-0.911372,-0.343131,5.03043,7.74561,7.07874,4,0.039707,0.00475952,26,106.903,0.0476183
0.598626,-0.730794,-0.256331,5.08627,7.75462,7.108,5,0.0464031,0.00556215,34,69.5531,0.0680625
0.35772,0.855897,-0.27817,5.06373,7.84037,7.12948,6,0.111927,0.0134163,43,112.089,0.0211812
0.945896,-0.250235,-0.158842,5.09043,7.79162,7.12001,7,0.0135184,0.0016204,53,118.604,0.0439243
0.95929,0.0393712,0.0468628,5.10302,7.8128,7.16379,8,0.0398685,0.00477888,64,82.4985,0.0209586
-0.443598,0.749141,0.372038,5.0554,7.83501,7.14772,9,0.0133376,0.00159873,76,87.2177,0.0269889
-0.700956,-0.694907,0.0616104,4.94938,7.79639,7.12596,10,0.0186379,0.00223405,89,114.314,0.0653648
-0.222965,-0.922445,0.260467,5.00617,7.75931,7.16056,11,0.0985496,0.0118128,103,149.179,0.0590721
0.218364,-0.72715,0.612579,5.07131,7.77553,7.19271,12,0.0745902,0.00894084,118,121.849,0.058992
-0.478006,-0.462221,0.691197,4.95352,7.80176,7.18734,13,0.0743353,0.00891028,134,135.712,0.0447173
-0.197679,0.025053,0.936073,5.02146,7.81023,7.21203,14,0.0411946,0.00493783,18,52.8504,0.0304947
,,,,,,,,,25,43.1052,0.0587289
,,,,,,,,,33,78.0687,0.0657449
,,,,,,,,,42,114.326,0.11233
,,,,,,,,,52,106.288,0.0241419
,,,,,,,,,63,126.041,0.0589053
,,,,,,,,,75,113.348,0.0238532
,,,,,,,,,88,48.2044,0.0319875
,,,,,,,,,102,67.8906,0.105166
,,,,,,,,,117,102.123,0.0897792
,,,,,,,,,133,90.6732,0.0895942
,,,,,,,,,150,125.98,0.0603403
,,,,,,,,,32,92.4463,0.0244202
,,,,,,,,,41,130.898,0.0255542
,,,,,,,,,51,90.4214,0.030465
,,,,,,,,,62,150.674,0.0153036
,,,,,,,,,74,155.168,0.0244507
,,,,,,,,,87,60.5275,0.0151871
,,,,,,,,,101,64.0367,0.018121
,,,,,,,,,116,97.3352,0.0299124
,,,,,,,,,132,127.574,0.028522
,,,,,,,,,149,85.4963,0.0285033
,,,,,,,,,167,98.1982,0.0246945
,,,,,,,,,50,42.6051,0.0427947
,,,,,,,,,61,139,0.0586186
,,,,,,,,,73,77.8543,0.0201699
,,,,,,,,,86,98.0645,0.0397876
,,,,,,,,,100,146.706,0.019968
,,,,,,,,,115,46.0764,0.0253683
,,,,,,,,,131,36.8301,0.0566065
,,,,,,,,,148,62.9009,0.0518255
,,,,,,,,,166,76.1834,0.0517638
,,,,,,,,,185,110.5,0.0404371
,,,,,,,,,72,111.021,0.0656067
,,,,,,,,,85,35.5086,0.0209373
,,,,,,,,,99,55.46,0.0428883
,,,,,,,,,114,168.574,0.0207198
,,,,,,,,,130,85.7089,0.0265942
,,,,,,,,,147,60.5315,0.0630965
,,,,,,,,,165,58.0655,0.0572133
,,,,,,,,,184,97.6844,0.0571382
,,,,,,,,,204,113.703,0.043644
,,,,,,,,,98,79.8983,0.0241233
,,,,,,,,,113,66.9946,0.0587944
,,,,,,,,,129,65.5842,0.023835
,,,,,,,,,146,154.251,0.0319547
,,,,,,,,,164,171.157,0.104813
,,,,,,,,,183,139.151,0.0895216
,,,,,,,,,203,144.786,0.0893377
,,,,,,,,,224,109.518,0.0602239
,,,,,,,,,128,20.9069,0.0201907
,,,,,,,,,145,135.219,0.0134274
,,,,,,,,,163,120.594,0.0156706
,,,,,,,,,182,91.2598,0.0237755
,,,,,,,,,202,72.4738,0.0228886
,,,,,,,,,223,117.996,0.0228766
,,,,,,,,,245,111.127,0.0203566
,,,,,,,,,162,114.583,0.0199884
,,,,,,,,,181,137.146,0.0254011
,,,,,,,,,201,104.572,0.0567704
,,,,,,,,,222,77.0872,0.0519628
,,,,,,,,,244,118.815,0.0519008
,,,,,,,,,267,99.0546,0.0405207
,,,,,,,,,200,101.503,0.0155485
,,,,,,,,,221,122.108,0.0234954
,,,,,,,,,243,116.61,0.022629
,,,,,,,,,266,82.22,0.0226172
,,,,,,,,,290,59.8792,0.020151
,,,,,,,,,242,33.3093,0.0313473
,,,,,,,,,265,66.1576,0.0298237
,,,,,,,,,289,42.5422,0.0298033
,,,,,,,,,314,79.1091,0.0256643
,,,,,,,,,288,35.4954,0.0849122
,,,,,,,,,313,40.9405,0.0847467
,,,,,,,,,339,73.6721,0.058102
,,,,,,,,,338,45.5575,0.0744625
,,,,,,,,,365,56.7406,0.0530763
,,,,,,,,,392,37.326,0.0530116
