"cellPairingIds","interplanarAngles","angleWeights"
8,64.1877,0.0206683
26,90.3085,0.0349375
34,107.136,0.0378511
43,80.917,0.0454551
53,107.926,0.0439928
42,87.7645,0.0283282
52,88.2394,0.0323825
72,34.0458,0.0643506
99,45.0679,0.0843774
98,168.272,0.112145
113,68.4501,0.103646
129,81.0431,0.0456101
128,117.869,0.191253
145,94.2512,0.0571254
162,56.7806,0.0548348
