"cellPairingIds","interplanarAngles","angleWeights"
8,28.6141,0.017541
13,50.0189,0.0263669
19,64.726,0.0209228
34,85.6571,0.0241111
18,63.9896,0.0286507
25,77.7691,0.0223356
33,26.1524,0.0176176
52,67.3512,0.00995585
150,77.2608,0.0303182
41,66.5864,0.0265402
51,82.7634,0.0516295
87,52.2175,0.0702076
116,63.5717,0.0831348
132,57.1955,0.045736
61,55.5201,0.034203
73,26.577,0.0109614
115,39.4432,0.0213858
114,70.4178,0.0276995
184,44.5476,0.0231711
204,63.3021,0.027965
146,46.9837,0.024728
164,44.0523,0.0641969
163,51.7579,0.00976259
245,74.5494,0.012588
243,37.5319,0.0492909
266,43.6411,0.0507049
315,43.2491,0.091684
396,56.7213,0.0210992
242,83.6781,0.0302116
314,100.559,0.0285944
340,110.727,0.0298017
367,60.1505,0.0160855
424,105.433,0.0142769
454,102.657,0.0202804
288,35.4044,0.0553314
366,54.38,0.115046
393,28.8799,0.0539719
392,54.1127,0.0516018
514,62.9829,0.0183653
547,55.4935,0.0296595
481,41.2909,0.0255254
580,50.0832,0.0379971
579,25.8589,0.0219128
649,58.9075,0.0186869
722,26.6276,0.0162895
