facetNormals:0,facetNormals:1,facetNormals:2,FacetCenters:0,FacetCenters:1,FacetCenters:2,FacetIds,relFacetSize,absFacetSize,cellPairingIds,interplanarAngles,angleWeights
0.277053,0.48536,-0.811245,5.42817,4.93456,7.53414,1,0.0192918,0.00214808,8,32.1492,0.0270383
-0.179631,0.716646,-0.632548,5.40726,4.89646,7.51269,2,0.0451801,0.00503066,13,23.8039,0.010102
0.624367,0.485848,-0.597709,5.44259,4.95295,7.56727,3,0.00684247,0.000761887,19,64.7348,0.0316966
-0.713586,0.300865,-0.55858,5.37876,4.87921,7.51561,4,0.0887891,0.00988638,26,94.1952,0.0278321
-0.796422,-0.360408,-0.402142,5.38398,4.81531,7.50229,5,0.0499399,0.00556065,34,79.7935,0.0298918
-0.675484,0.68205,-0.029274,5.39166,4.90858,7.5393,6,0.0663462,0.00738743,43,43.0003,0.0216262
0.519846,0.803044,-0.212239,5.47806,4.91251,7.55305,7,0.0246033,0.0027395,53,95.8125,0.0207966
0.525853,-0.767599,-0.163483,5.42048,4.81208,7.56269,8,0.022556,0.00251154,64,126.382,0.0263995
-0.769887,-0.612314,0.0817284,5.3606,4.8068,7.56051,9,0.0418,0.0046543,76,67.3524,0.0250056
0.869617,0.398317,0.0862336,5.4714,4.90956,7.57223,10,0.0355282,0.00395595,89,69.2996,0.0239308
0.100932,0.939469,0.183397,5.42334,4.96115,7.60588,11,0.0315073,0.00350823,103,136.62,0.0158014
-0.304397,-0.912885,0.221367,5.37962,4.78385,7.60118,12,0.0133805,0.00148988,118,119.294,0.0327396
-0.927215,0.0282229,0.27513,5.39648,4.91278,7.55307,13,0.108077,0.012034,134,109.642,0.0313398
0.698234,0.0393111,0.652341,5.46541,4.88348,7.62182,14,0.0834642,0.00929346,151,130.688,0.0310108
-0.596921,0.259296,0.719097,5.38779,4.88635,7.61141,15,0.079001,0.0087965,169,156.891,0.0312582
0.0987902,-0.394884,0.834915,5.43648,4.86591,7.62677,16,0.0823204,0.00916611,188,132.028,0.0140355
-0.0803493,0.280178,0.941249,5.42941,4.88945,7.64197,17,0.0110302,0.00122818,18,50.447,0.011885
,,,,,,,,,25,41.3533,0.0598869
,,,,,,,,,33,81.4493,0.0474409
,,,,,,,,,42,47.6999,0.0537546
,,,,,,,,,52,49.7036,0.031858
,,,,,,,,,63,126.083,0.0300898
,,,,,,,,,75,111.523,0.0434244
,,,,,,,,,88,85.4133,0.039777
,,,,,,,,,102,54.837,0.0371248
,,,,,,,,,117,140.36,0.0206464
,,,,,,,,,133,89.2238,0.063722
,,,,,,,,,150,123.242,0.0586255
,,,,,,,,,168,99.8774,0.0574849
,,,,,,,,,187,156.56,0.0583408
,,,,,,,,,207,113.371,0.0177315
,,,,,,,,,32,87.9115,0.0127058
,,,,,,,,,41,116.923,0.0120359
,,,,,,,,,51,94.3894,0.0124055
,,,,,,,,,62,29.9796,0.0107072
,,,,,,,,,74,86.75,0.0104998
,,,,,,,,,87,147.673,0.0117599
,,,,,,,,,101,44.0043,0.011475
,,,,,,,,,116,64.568,0.0112432
,,,,,,,,,132,141.468,0.00905463
,,,,,,,,,149,139.512,0.0128701
,,,,,,,,,167,86.0608,0.012648
,,,,,,,,,186,134.709,0.0125941
,,,,,,,,,206,133.093,0.0126347
,,,,,,,,,227,119.2,0.00844573
,,,,,,,,,50,41.8399,0.0639249
,,,,,,,,,61,39.8933,0.0759443
,,,,,,,,,73,90.661,0.03853
,,,,,,,,,86,124.804,0.0359734
,,,,,,,,,100,70.1845,0.0568407
,,,,,,,,,115,126.766,0.0507495
,,,,,,,,,131,83.2396,0.0465102
,,,,,,,,,148,101.074,0.0232563
,,,,,,,,,166,56.0135,0.0974881
,,,,,,,,,185,158.701,0.0860443
,,,,,,,,,205,83.6582,0.0836095
,,,,,,,,,226,137.669,0.0854325
,,,,,,,,,248,114.097,0.0196227
,,,,,,,,,72,70.7989,0.0569857
,,,,,,,,,85,130.96,0.0329657
,,,,,,,,,99,94.8217,0.0310761
,,,,,,,,,114,32.5099,0.0455088
,,,,,,,,,130,160.446,0.041519
,,,,,,,,,147,122.141,0.0386378
,,,,,,,,,165,59.487,0.0211061
,,,,,,,,,184,48.4415,0.0683136
,,,,,,,,,204,154.789,0.0624897
,,,,,,,,,225,84.295,0.0611955
,,,,,,,,,247,107.725,0.0621664
,,,,,,,,,270,115.991,0.0180694
,,,,,,,,,98,77.5561,0.0358954
,,,,,,,,,113,164.426,0.0336664
,,,,,,,,,129,83.9432,0.0512874
,,,,,,,,,146,110.186,0.0462758
,,,,,,,,,164,52.148,0.0427249
,,,,,,,,,183,116.525,0.0222698
,,,,,,,,,203,46.6815,0.0822195
,,,,,,,,,224,120.339,0.0739272
,,,,,,,,,246,53.1189,0.0721227
,,,,,,,,,269,113.836,0.0734751
,,,,,,,,,293,76.6926,0.0189157
,,,,,,,,,128,109.458,0.0235352
,,,,,,,,,145,160.068,0.0309749
,,,,,,,,,163,36.79,0.0290733
,,,,,,,,,182,35.4841,0.0276305
,,,,,,,,,202,165.875,0.017334
,,,,,,,,,223,123.098,0.040082
,,,,,,,,,245,74.1408,0.0380039
,,,,,,,,,268,105.546,0.0375213
,,,,,,,,,292,119.122,0.0378841
,,,,,,,,,317,90.9818,0.0152317
,,,,,,,,,162,86.8154,0.0293008
,,,,,,,,,181,81.2866,0.0275936
,,,,,,,,,201,140.147,0.0262906
,,,,,,,,,222,57.2619,0.0167969
,,,,,,,,,244,127.324,0.0373227
,,,,,,,,,267,75.229,0.0355144
,,,,,,,,,291,133.482,0.0350926
,,,,,,,,,316,75.5768,0.0354097
,,,,,,,,,342,116.215,0.0148155
,,,,,,,,,200,162.959,0.0384098
,,,,,,,,,221,132.182,0.0359311
,,,,,,,,,243,33.6439,0.0202719
,,,,,,,,,266,41.1605,0.0602843
,,,,,,,,,290,122.579,0.0557031
,,,,,,,,,315,67.9396,0.0546724
,,,,,,,,,341,75.2153,0.0554461
,,,,,,,,,368,91.9308,0.0174545
,,,,,,,,,242,58.8765,0.0333972
,,,,,,,,,265,129.975,0.0194397
,,,,,,,,,289,146.107,0.0534769
,,,,,,,,,314,42.3203,0.0498407
,,,,,,,,,340,112.324,0.0490139
,,,,,,,,,367,89.9603,0.0496348
,,,,,,,,,395,82.5381,0.0168341
,,,,,,,,,288,153.124,0.0187839
,,,,,,,,,313,91.0221,0.0487908
,,,,,,,,,339,75.7206,0.0457458
,,,,,,,,,366,70.2641,0.0450483
,,,,,,,,,394,103.446,0.0455722
,,,,,,,,,423,63.1921,0.01634
,,,,,,,,,338,70.5983,0.0238129
,,,,,,,,,365,96.324,0.0230636
,,,,,,,,,393,83.7549,0.022885
,,,,,,,,,422,55.8225,0.0230194
,,,,,,,,,452,91.3516,0.0120922
,,,,,,,,,392,120.297,0.0941892
,,,,,,,,,421,36.0592,0.0912794
,,,,,,,,,451,81.8787,0.0934565
,,,,,,,,,482,69.019,0.0200175
,,,,,,,,,450,86.1364,0.0811712
,,,,,,,,,481,47.678,0.0828883
,,,,,,,,,513,52.8621,0.0194854
,,,,,,,,,512,60.8347,0.0806265
,,,,,,,,,545,33.4401,0.0193577
,,,,,,,,,578,43.1906,0.0194538
