facetNormals:0,facetNormals:1,facetNormals:2,FacetCenters:0,FacetCenters:1,FacetCenters:2,FacetIds,relFacetSize,absFacetSize,cellPairingIds,interplanarAngles,angleWeights
-0.116587,0.338068,-0.911921,6.20361,5.30643,8.45394,1,0.00430121,0.000322262,8,52.7887,0.00727219
0.657724,0.475084,-0.541688,6.26737,5.34345,8.42266,2,0.0235141,0.00176176,13,65.8932,0.00662009
0.492606,0.834002,-0.18656,6.24602,5.38708,8.44542,3,0.0143641,0.00107621,19,58.6483,0.00811438
-0.124462,0.940432,-0.174503,6.19762,5.38885,8.44737,4,0.0715133,0.00535803,26,85.5888,0.00783303
0.920013,0.318249,-0.0803417,6.29846,5.30006,8.38631,5,0.0437895,0.00328086,34,103.844,0.00757997
-0.700238,-0.680355,0.0892775,6.1632,5.25427,8.42095,6,0.0318873,0.00238911,43,118.638,0.00835053
0.864603,-0.0822629,0.338918,6.27121,5.29651,8.45807,7,0.142588,0.0106832,53,74.8676,0.00749358
-0.941604,0.27053,-0.0544632,6.14868,5.35241,8.43459,8,0.0290678,0.00217786,64,95.9242,0.00756002
0.573889,0.735394,0.308169,6.25583,5.37145,8.42869,9,0.0311944,0.0023372,76,111.651,0.00830224
-0.813797,0.00206981,0.479052,6.16271,5.30198,8.46034,10,0.118958,0.00891274,89,149.293,0.00830792
-0.165752,-0.680039,0.653388,6.20651,5.25841,8.47216,11,0.121336,0.00909093,103,129.091,0.00820324
0.405038,0.43686,0.769049,6.24905,5.34451,8.48266,12,0.0883909,0.00662256,118,147.669,0.00744586
-0.385282,-0.121097,0.898218,6.20084,5.31578,8.50132,13,0.0276908,0.00207469,18,31.4127,0.0178339
,,,,,,,,,25,60.7734,0.0353913
,,,,,,,,,33,32.9312,0.0305978
,,,,,,,,,42,150.464,0.0270679
,,,,,,,,,52,67.6401,0.0403707
,,,,,,,,,63,118.809,0.0259977
,,,,,,,,,75,54.2532,0.0268152
,,,,,,,,,88,149.498,0.0392665
,,,,,,,,,102,147.294,0.0393939
,,,,,,,,,117,86.5346,0.0371464
,,,,,,,,,133,146.104,0.0254321
,,,,,,,,,32,37.4277,0.023923
,,,,,,,,,41,40.4151,0.0216322
,,,,,,,,,51,163.869,0.0198062
,,,,,,,,,62,71.3509,0.026099
,,,,,,,,,74,103.628,0.019227
,,,,,,,,,87,30.0834,0.0196705
,,,,,,,,,101,121.631,0.025633
,,,,,,,,,116,144.684,0.0256872
,,,,,,,,,132,64.0175,0.0247122
,,,,,,,,,149,118.153,0.0189159
,,,,,,,,,50,77.8188,0.0543184
,,,,,,,,,61,126.936,0.0441074
,,,,,,,,,73,105.752,0.0952533
,,,,,,,,,86,66.2537,0.0413345
,,,,,,,,,100,53.2934,0.0434401
,,,,,,,,,115,88.7646,0.0893265
,,,,,,,,,131,142.52,0.0899888
,,,,,,,,,148,76.0487,0.0790614
,,,,,,,,,166,103.557,0.039923
,,,,,,,,,72,154.997,0.0369024
,,,,,,,,,85,35.4304,0.0670022
,,,,,,,,,99,144.042,0.0349413
,,,,,,,,,114,39.8,0.0364342
,,,,,,,,,130,148.503,0.0640146
,,,,,,,,,147,116.779,0.064354
,,,,,,,,,165,61.7421,0.0585653
,,,,,,,,,184,118.917,0.0339273
,,,,,,,,,98,124.614,0.052119
,,,,,,,,,113,60.7237,0.0304123
,,,,,,,,,129,155.249,0.031537
,,,,,,,,,146,48.6862,0.0502932
,,,,,,,,,164,47.2633,0.0505024
,,,,,,,,,183,122.482,0.0468671
,,,,,,,,,203,63.3972,0.0296412
,,,,,,,,,128,159.142,0.048291
,,,,,,,,,145,53.8617,0.0511899
,,,,,,,,,163,127.95,0.129705
,,,,,,,,,182,81.3618,0.131106
,,,,,,,,,202,50.6617,0.109131
,,,,,,,,,223,91.169,0.0463754
,,,,,,,,,162,111.815,0.0300936
,,,,,,,,,181,36.924,0.0467195
,,,,,,,,,201,93.8744,0.0469
,,,,,,,,,222,108.64,0.0437486
,,,,,,,,,244,73.0883,0.0283626
,,,,,,,,,200,110.038,0.0494275
,,,,,,,,,221,114.753,0.0496296
,,,,,,,,,243,34.17,0.0461144
,,,,,,,,,266,91.9759,0.0293384
,,,,,,,,,242,60.4103,0.120135
,,,,,,,,,265,87.5231,0.101421
,,,,,,,,,289,36.9135,0.0449242
,,,,,,,,,288,81.4634,0.102276
,,,,,,,,,313,38.976,0.0450911
,,,,,,,,,338,59.8069,0.0421706
