Q	U	V
{$V$}	{[mm$^3$]}	0.00123969
{$d_v$}	{[mm]}	0.133282
{$S_c$}	{[mm$^2$]}	0.114363
{$S_o$}	{[mm$^2$]}	0.0617459
{$S_l/S_o$}	[]	0.852155
{$\Psi$}	[]	0.487986
{$\eta$}	[]	0.545865
{med($\theta_e$)}	{[$^\circ$]}	59.6956
{$\Upsilon$}	[]	19
{$\Xi$}	[]	8
