"cellPairingIds","interplanarAngles","angleWeights"
8,55.0076,0.0569224
13,36.2961,0.0502171
19,39.7772,0.0153336
53,109.756,0.0456968
18,73.1523,0.0964529
25,52.2231,0.0179628
33,57.0066,0.121537
52,71.4274,0.0968019
75,91.9878,0.138762
41,56.2488,0.0945741
51,42.8627,0.0781287
74,80.3808,0.0681045
86,136.366,0.0166705
100,87.9106,0.0182298
72,52.7316,0.093812
85,43.7877,0.0949096
98,79.9032,0.0783575
113,46.3274,0.0677084
128,97.1417,0.0682783
145,83.3559,0.105097
163,51.5276,0.0315326
182,62.856,0.040545
162,116.314,0.0867892
201,63.4674,0.0374937
200,38.1208,0.034978
221,60.8402,0.0464248
242,33.1076,0.0228632
