Q	U	V
{$V$}	{[mm$^3$]}	0.000774215
{$d_v$}	{[mm]}	0.113926
{$S_c$}	{[mm$^2$]}	0.0632315
{$S_o$}	{[mm$^2$]}	0.0353957
{$S_l/S_o$}	[]	0.786418
{$\Psi$}	[]	0.644849
{$\eta$}	[]	0.693708
{med($\theta_e$)}	{[$^\circ$]}	58.8426
{$\Upsilon$}	[]	24
{$\Xi$}	[]	5
