facetNormals:0,facetNormals:1,facetNormals:2,FacetCenters:0,FacetCenters:1,FacetCenters:2,FacetIds,relFacetSize,absFacetSize,cellPairingIds,interplanarAngles,angleWeights
0.484094,-0.102873,-0.842852,4.21861,5.64417,8.98466,1,0.0357874,0.00365825,8,30.7491,0.0483727
0.448379,0.405274,-0.758534,4.19918,5.63999,8.97212,2,0.074611,0.00762686,13,77.0236,0.036862
-0.716813,-0.131892,-0.649886,4.1576,5.63228,8.98497,3,0.0380031,0.00388474,19,51.3143,0.0542584
0.0931642,-0.781565,-0.54505,4.18892,5.56704,8.99933,4,0.112135,0.0114626,26,35.3238,0.0488402
0.817062,-0.332184,-0.410737,4.25817,5.59877,9.02487,5,0.0768812,0.00785893,34,107.143,0.0442901
-0.773087,0.572674,-0.179393,4.15262,5.68415,9.04512,6,0.0580923,0.00593829,43,93.5197,0.0502585
-0.435812,0.795365,-0.279816,4.14264,5.68162,9.03184,7,0.0843777,0.00862523,53,75.5107,0.0546387
0.708642,0.614919,0.0591931,4.24075,5.66623,9.08545,8,0.115456,0.0118021,64,84.8333,0.0367852
0.272016,0.943951,-0.0617702,4.1941,5.69669,9.03268,9,0.0378402,0.00386809,76,108.703,0.0413074
-0.223183,0.950902,0.121763,4.18195,5.6987,9.1002,10,0.0488409,0.0049926,89,84.2629,0.0402363
0.862784,-0.201661,0.407119,4.26061,5.62185,9.13441,11,0.0459483,0.00469692,103,95.3538,0.0386277
0.459008,-0.734189,0.459295,4.25095,5.57887,9.0941,12,0.0419577,0.00428899,118,135.603,0.0274295
-0.151363,0.73258,0.638603,4.18725,5.69692,9.16301,13,0.0222364,0.00227304,134,119.024,0.0184721
0.451025,-0.235931,0.840873,4.23399,5.6443,9.17386,14,0.0124489,0.00127255,18,82.8365,0.0503569
,,,,,,,,,25,81.4242,0.0896029
,,,,,,,,,33,54.8493,0.0757291
,,,,,,,,,42,88.7003,0.0653235
,,,,,,,,,52,68.3792,0.0791944
,,,,,,,,,63,55.0714,0.0906448
,,,,,,,,,75,54.7201,0.0502137
,,,,,,,,,88,78.3397,0.0590362
,,,,,,,,,102,90.2234,0.0568724
,,,,,,,,,117,117.58,0.0537109
,,,,,,,,,133,105.528,0.0342617
,,,,,,,,,150,123.864,0.0213376
,,,,,,,,,32,65.3097,0.0567674
,,,,,,,,,41,106.821,0.0508638
,,,,,,,,,51,51.478,0.0459479
,,,,,,,,,62,65.1603,0.0524039
,,,,,,,,,74,133.123,0.0571838
,,,,,,,,,87,106.895,0.0379215
,,,,,,,,,101,92.6576,0.0427458
,,,,,,,,,116,154.085,0.0415998
,,,,,,,,,132,123.673,0.0398826
,,,,,,,,,149,114.818,0.0280564
,,,,,,,,,167,150.897,0.0187543
,,,,,,,,,50,53.075,0.0912204
,,,,,,,,,61,116.757,0.076535
,,,,,,,,,73,124.121,0.0962959
,,,,,,,,,86,119.766,0.113771
,,,,,,,,,100,136.076,0.0565854
,,,,,,,,,115,151.78,0.0680446
,,,,,,,,,131,89.0123,0.065186
,,,,,,,,,148,67.0274,0.0610661
,,,,,,,,,166,173.046,0.0371132
,,,,,,,,,185,104.266,0.0224099
,,,,,,,,,72,141.792,0.066179
,,,,,,,,,85,123.179,0.0804552
,,,,,,,,,99,67.4735,0.0923004
,,,,,,,,,114,93.9481,0.0507176
,,,,,,,,,130,124.922,0.0597341
,,,,,,,,,147,50.4017,0.0575198
,,,,,,,,,165,63.1796,0.0542879
,,,,,,,,,184,131.119,0.0344956
,,,,,,,,,204,83.907,0.0214281
,,,,,,,,,98,24.8902,0.0688102
,,,,,,,,,113,102.958,0.0772939
,,,,,,,,,129,69.2454,0.0458286
,,,,,,,,,146,43.8022,0.0530664
,,,,,,,,,164,153.702,0.0513116
,,,,,,,,,183,153.399,0.048724
,,,,,,,,,203,63.999,0.0321619
,,,,,,,,,224,131.279,0.0205039
,,,,,,,,,128,79.4293,0.0975003
,,,,,,,,,145,45.9527,0.0522488
,,,,,,,,,163,28.6927,0.0618695
,,,,,,,,,182,134.643,0.0594972
,,,,,,,,,202,168.785,0.056046
,,,,,,,,,223,59.7743,0.0351971
,,,,,,,,,245,131.609,0.0216967
,,,,,,,,,162,33.7324,0.0569992
,,,,,,,,,181,62.0454,0.0686438
,,,,,,,,,201,56.0837,0.0657357
,,,,,,,,,222,96.1683,0.0615483
,,,,,,,,,244,65.6655,0.0372907
,,,,,,,,,267,75.9514,0.0224745
,,,,,,,,,200,31.1254,0.0426425
,,,,,,,,,221,88.8546,0.041502
,,,,,,,,,243,128.195,0.0397927
,,,,,,,,,266,50.875,0.0280119
,,,,,,,,,290,99.0366,0.0187344
,,,,,,,,,242,110.412,0.0473505
,,,,,,,,,265,140.522,0.0451384
,,,,,,,,,289,33.4091,0.0305596
,,,,,,,,,314,103.303,0.0198407
,,,,,,,,,288,40.0988,0.0438624
,,,,,,,,,313,91.0957,0.0299693
,,,,,,,,,339,35.6274,0.0195902
,,,,,,,,,338,109.01,0.0290677
,,,,,,,,,365,37.2918,0.0192009
,,,,,,,,,392,72.1789,0.0159617
