Q	U	V
{$V$}	{[mm$^3$]}	0.00504784
{$d_v$}	{[mm]}	0.212831
{$S_c$}	{[mm$^2$]}	0.236036
{$S_o$}	{[mm$^2$]}	0.14465
{$S_l/S_o$}	[]	0.631773
{$\Psi$}	[]	0.602897
{$\eta$}	[]	0.673071
{med($\theta_e$)}	{[$^\circ$]}	51.21065
{$\Upsilon$}	[]	16
{$\Xi$}	[]	10
