Q	U	V
{$V$}	{[mm$^3$]}	0.00184054
{$d_v$}	{[mm]}	0.152049
{$S_c$}	{[mm$^2$]}	0.144794
{$S_o$}	{[mm$^2$]}	0.077064
{$S_l/S_o$}	[]	0.878880
{$\Psi$}	[]	0.501607
{$\eta$}	[]	0.569251
{med($\theta_e$)}	{[$^\circ$]}	
{$\Upsilon$}	[]	17
{$\Xi$}	[]	5
