Q	U	V
{$V$}	{[mm$^3$]}	0.00510246
{$d_v$}	{[mm]}	0.213596
{$S_c$}	{[mm$^2$]}	0.238144
{$S_o$}	{[mm$^2$]}	0.165516
{$S_l/S_o$}	[]	0.438797
{$\Psi$}	[]	0.601863
{$\eta$}	[]	0.626617
{med($\theta_e$)}	{[$^\circ$]}	61.7125
{$\Upsilon$}	[]	12
{$\Xi$}	[]	5
