Q	U	V
{$V$}	{[mm$^3$]}	0.00453605
{$d_v$}	{[mm]}	0.205381
{$S_c$}	{[mm$^2$]}	0.227231
{$S_o$}	{[mm$^2$]}	0.12431
{$S_l/S_o$}	[]	0.827938
{$\Psi$}	[]	0.583179
{$\eta$}	[]	0.610528
{med($\theta_e$)}	{[$^\circ$]}	56.1509
{$\Upsilon$}	[]	13
{$\Xi$}	[]	6
