Q	U	V
{$V$}	{[mm$^3$]}	0.0102714
{$d_v$}	{[mm]}	0.269698
{$S_c$}	{[mm$^2$]}	0.363057
{$S_o$}	{[mm$^2$]}	0.253767
{$S_l/S_o$}	[]	0.430671
{$\Psi$}	[]	0.629403
{$\eta$}	[]	0.638935
{med($\theta_e$)}	{[$^\circ$]}	53.7389
{$\Upsilon$}	[]	19
{$\Xi$}	[]	11
