"cellPairingIds","interplanarAngles","angleWeights"
8,39.6556,0.019373
13,49.5245,0.0195611
19,80.0962,0.0218661
34,106.805,0.021114
43,62.4177,0.0221297
53,79.0162,0.0179546
76,98.2515,0.0221874
18,40.411,0.0378354
33,63.8441,0.048869
52,43.6559,0.0487889
75,57.8102,0.0286404
32,67.2017,0.0486741
41,32.4198,0.050084
50,66.6532,0.0685991
61,45.6029,0.0595779
148,114.26,0.0650936
114,52.4983,0.035147
165,66.5778,0.0676401
146,108.044,0.0620253
183,114.333,0.0588532
203,49.8038,0.0518171
128,25.3678,0.040693
145,65.31,0.0351056
182,44.739,0.0789794
181,24.404,0.0408885
201,41.2617,0.0431601
221,45.8882,0.0369266
243,36.5421,0.0342033
242,46.2987,0.0797192
289,82.2512,0.0587978
314,51.7102,0.0523599
288,50.4193,0.0745546
339,51.8709,0.0561439
338,72.2608,0.0559396
365,52.8006,0.0500812
392,41.734,0.0448938
