"cellPairingIds","interplanarAngles","angleWeights"
19,61.6989,0.0914066
26,63.2731,0.0612806
64,76.5022,0.0334298
76,107.954,0.0967434
25,72.8744,0.0823182
33,54.8745,0.0570573
52,66.6025,0.0462366
88,120.599,0.0866214
102,81.5778,0.0501041
50,108.172,0.0650131
115,62.1175,0.106386
114,79.8352,0.029108
147,114.217,0.0431184
165,122.692,0.0320204
163,55.8934,0.0529671
182,48.1978,0.0366386
200,103.406,0.0352447
243,74.7929,0.0223089
242,71.7995,0.058105
265,67.2775,0.0396066
288,53.1469,0.0297069
