facetNormals:0,facetNormals:1,facetNormals:2,FacetCenters:0,FacetCenters:1,FacetCenters:2,FacetIds,relFacetSize,absFacetSize,cellPairingIds,interplanarAngles,angleWeights
0.646144,0.0602784,-0.729334,7.72578,7.58268,9.25103,1,0.0214879,0.00473814,8,83.4626,0.0336959
-0.457,-0.627794,-0.60696,7.72502,7.49526,9.2676,2,0.0780238,0.0172044,13,86.3144,0.0373387
-0.63362,-0.333316,-0.67347,7.65187,7.58432,9.26667,3,0.142327,0.0313835,19,85.8274,0.025378
-0.578721,0.529352,-0.562989,7.60876,7.62438,9.31699,4,0.0309878,0.00683288,26,78.0482,0.0392166
0.660604,0.549749,0.371186,7.71935,7.5978,9.30142,5,0.224161,0.0494281,34,158.765,0.0175632
-0.837852,0.111639,0.479277,7.5324,7.67101,9.36364,6,0.0148507,0.00327461,43,110.279,0.0223041
0.222082,-0.758326,0.592177,7.7263,7.48216,9.33942,7,0.0231847,0.00511227,53,164.236,0.0251071
-0.500879,-0.278994,0.773411,7.63017,7.54913,9.38071,8,0.0301922,0.00665744,64,131.982,0.0322175
0.0550776,-0.381649,0.866063,7.65933,7.54087,9.3743,9,0.0643487,0.014189,18,20.4688,0.100793
,,,,,,,,,25,73.2729,0.0443583
,,,,,,,,,33,160.985,0.115756
,,,,,,,,,42,88.689,0.0249521
,,,,,,,,,52,89.1079,0.0357472
,,,,,,,,,63,93.9508,0.0435372
,,,,,,,,,75,109.457,0.0705295
,,,,,,,,,32,53.128,0.0508947
,,,,,,,,,41,157.772,0.174108
,,,,,,,,,51,79.6928,0.0268951
,,,,,,,,,62,107.185,0.039874
,,,,,,,,,74,96.7063,0.0498167
,,,,,,,,,87,121.794,0.0886274
,,,,,,,,,50,109.404,0.0544487
,,,,,,,,,61,73.008,0.0200788
,,,,,,,,,73,154.904,0.0265243
,,,,,,,,,86,108.39,0.0305848
,,,,,,,,,100,142.025,0.0418313
,,,,,,,,,72,110.208,0.0278559
,,,,,,,,,85,93.1237,0.042023
,,,,,,,,,99,102.637,0.0532167
,,,,,,,,,114,80.3977,0.099993
,,,,,,,,,98,89.2185,0.0181046
,,,,,,,,,113,35.7522,0.0199088
,,,,,,,,,129,69.2524,0.0241321
,,,,,,,,,128,54.034,0.0262285
,,,,,,,,,145,29.5316,0.0340877
,,,,,,,,,162,34.8832,0.0411003
