"cellPairingIds","interplanarAngles","angleWeights"
8,69.1449,0.0287516
13,38.694,0.0297848
19,43.5219,0.0324144
34,96.8611,0.0304491
43,48.2488,0.0370231
25,47.7017,0.0557391
33,38.8194,0.05176
42,125.424,0.0501709
63,114.778,0.0310993
75,72.6229,0.064689
51,62.147,0.0534032
62,56.4204,0.0775555
50,33.3985,0.0649782
73,50.9894,0.0983258
85,75.5823,0.086584
114,67.5939,0.0774734
130,45.2843,0.0363716
98,110.438,0.0822271
113,44.3582,0.033095
183,78.4578,0.0515185
163,68.2571,0.0448945
202,65.2402,0.073643
162,69.8926,0.0388459
201,35.1847,0.0336219
222,84.9345,0.0316119
200,62.3491,0.0423144
221,55.5382,0.0766514
242,87.1235,0.0361894
265,74.4416,0.0338713
288,62.9643,0.0528068
