Q	U	V
{$V$}	{[mm$^3$]}	0.004105
{$d_v$}	{[mm]}	0.198657
{$S_c$}	{[mm$^2$]}	0.195496
{$S_o$}	{[mm$^2$]}	0.116876
{$S_l/S_o$}	[]	0.672679
{$\Psi$}	[]	0.634193
{$\eta$}	[]	0.701129
{med($\theta_e$)}	{[$^\circ$]}	52.3271
{$\Upsilon$}	[]	10
{$\Xi$}	[]	8
