facetNormals:0,facetNormals:1,facetNormals:2,FacetCenters:0,FacetCenters:1,FacetCenters:2,FacetIds,relFacetSize,absFacetSize,cellPairingIds,interplanarAngles,angleWeights
0.464964,0.206637,-0.836882,4.66213,7.6569,6.31426,1,0.0698618,0.0154898,8,81.2899,0.039566
-0.306045,-0.743461,-0.523652,4.6387,7.6146,6.35197,2,0.027598,0.00611903,13,64.2703,0.0675383
0.696338,-0.624836,-0.260868,4.70842,7.61527,6.38416,3,0.0653643,0.0144926,19,47.5343,0.0216528
0.92797,0.30477,-0.196377,4.66565,7.7097,6.46658,4,0.0128119,0.00284065,26,89.3993,0.0412243
0.14455,-0.955945,-0.167764,4.67538,7.60951,6.38752,5,0.0292388,0.00648283,34,63.3074,0.0648148
0.690715,0.659031,0.0440597,4.64171,7.68088,6.40244,6,0.0604479,0.0134025,43,78.8543,0.0795328
0.913583,-0.052242,0.278302,4.70244,7.66725,6.4555,7,0.0923116,0.0204673,53,143.31,0.0923352
-0.665737,-0.56947,0.389121,4.62809,7.70002,6.46929,8,0.136124,0.0301814,64,124.921,0.0779635
0.131315,-0.790101,0.516263,4.6881,7.65026,6.49384,9,0.0881907,0.0195537,76,107.992,0.0163096
0.55922,0.330186,0.751178,4.63213,7.61367,6.42482,10,0.00923251,0.00204703,89,132.281,0.0266434
0.231607,0.155542,0.936344,4.67446,7.74221,6.55766,11,0.0164605,0.00364962,18,65.3935,0.0388098
,,,,,,,,,25,115.249,0.0174998
,,,,,,,,,33,36.7565,0.0283947
,,,,,,,,,42,142.187,0.0378948
,,,,,,,,,52,114.907,0.0424923
,,,,,,,,,63,62.594,0.0458918
,,,,,,,,,75,72.3722,0.0420402
,,,,,,,,,88,148.228,0.0138363
,,,,,,,,,102,136.221,0.0206215
,,,,,,,,,32,58.4042,0.0214244
,,,,,,,,,41,38.8988,0.0404041
,,,,,,,,,51,86.4367,0.06281
,,,,,,,,,62,50.0749,0.0765353
,,,,,,,,,74,102.989,0.0883193
,,,,,,,,,87,60.8766,0.0750809
,,,,,,,,,101,90.7643,0.0161797
,,,,,,,,,116,100.945,0.0262984
,,,,,,,,,50,97.3024,0.0178168
,,,,,,,,,61,28.9499,0.0211426
,,,,,,,,,73,35.3517,0.0225008
,,,,,,,,,86,155.314,0.0234195
,,,,,,,,,100,103.419,0.0223734
,,,,,,,,,115,61.4996,0.0107316
,,,,,,,,,131,85.3771,0.0144088
,,,,,,,,,72,124.974,0.0394133
,,,,,,,,,85,81.7107,0.0444109
,,,,,,,,,99,65.9814,0.0481378
,,,,,,,,,114,42.6563,0.0439173
,,,,,,,,,130,111.735,0.0140337
,,,,,,,,,147,106.5,0.0210631
,,,,,,,,,98,48.2342,0.0730566
,,,,,,,,,113,153.237,0.083719
,,,,,,,,,129,116.564,0.0717303
,,,,,,,,,146,47.8402,0.0160184
,,,,,,,,,164,71.0168,0.025875
,,,,,,,,,128,120.85,0.110016
,,,,,,,,,145,70.4544,0.0902041
,,,,,,,,,163,42.279,0.0167862
,,,,,,,,,182,60.2255,0.027939
,,,,,,,,,162,51.9183,0.107036
,,,,,,,,,181,106.354,0.0172922
,,,,,,,,,201,82.5409,0.0293695
,,,,,,,,,200,77.7753,0.0167152
,,,,,,,,,221,65.1725,0.0277429
,,,,,,,,,242,24.2968,0.0118298
