Q	U	V
{$V$}	{[mm$^3$]}	0.00591348
{$d_v$}	{[mm]}	0.224361
{$S_c$}	{[mm$^2$]}	0.233789
{$S_o$}	{[mm$^2$]}	0.124941
{$S_l/S_o$}	[]	0.871195
{$\Psi$}	[]	0.676429
{$\eta$}	[]	0.688916
{med($\theta_e$)}	{[$^\circ$]}	75.5422
{$\Upsilon$}	[]	19
{$\Xi$}	[]	3
