"cellPairingIds","interplanarAngles","angleWeights"
8,27.8504,0.0390224
13,66.1606,0.0641573
26,79.502,0.0908772
43,91.7136,0.0538121
89,144.468,0.0423589
18,64.5499,0.0317752
25,78.1875,0.0420646
52,91.9258,0.0290128
63,118.381,0.034059
74,74.2585,0.0517567
116,114.21,0.0339529
73,49.6459,0.0597734
86,88.7287,0.0860358
166,73.6079,0.127737
85,37.5746,0.0503902
147,79.364,0.0402096
182,88.657,0.0308175
223,67.1673,0.0539863
201,67.2538,0.0365734
244,64.8108,0.0745354
313,34.2746,0.0424668
