facetNormals:0,facetNormals:1,facetNormals:2,FacetCenters:0,FacetCenters:1,FacetCenters:2,FacetIds,relFacetSize,absFacetSize,cellPairingIds,interplanarAngles,angleWeights
0.254842,0.604925,-0.711278,6.68753,5.63149,8.66089,1,0.0716457,0.0110305,8,76.4276,0.0181457
0.662423,-0.518667,-0.519538,6.75528,5.62848,8.79631,2,0.0103884,0.00159938,13,41.813,0.0753681
0.693238,0.0832682,-0.644546,6.72986,5.60121,8.7125,3,0.0794986,0.0122395,19,72.3395,0.0381729
-0.757588,0.104163,-0.578758,6.6116,5.57981,8.61338,4,0.0260176,0.00400564,26,67.7014,0.0261319
-0.750044,0.567429,-0.295085,6.63795,5.6487,8.71116,5,0.0159802,0.0024603,34,115.785,0.0896397
-0.37344,-0.791172,-0.26549,6.66981,5.52426,8.67912,6,0.119703,0.0184294,43,64.4594,0.089059
0.896097,0.239777,-0.0193632,6.73933,5.60676,8.74411,7,0.117655,0.018114,53,104.448,0.0681518
-0.939733,0.137386,0.104536,6.63913,5.62233,8.76153,8,0.0649828,0.0100047,64,68.315,0.0621427
-0.385748,0.874845,0.121236,6.66247,5.6616,8.7413,9,0.0548653,0.00844701,76,141.601,0.0570825
0.320052,-0.748765,0.493027,6.7279,5.52874,8.77063,10,0.0474395,0.00730374,89,82.8191,0.0227387
0.644637,0.541253,0.522747,6.75361,5.634,8.81123,11,0.0135139,0.00208058,103,105.115,0.0353358
-0.558782,0.535063,0.602874,6.68159,5.67358,8.81249,12,0.0234509,0.00361048,118,83.2044,0.0511239
0.134118,0.774214,0.551895,6.73185,5.67014,8.83705,13,0.0397408,0.00611845,134,156.404,0.0968304
-0.604272,-0.436316,0.62686,6.66911,5.57613,8.78782,14,0.149318,0.0229889,18,36.9498,0.0183756
,,,,,,,,,25,105.61,0.0148481
,,,,,,,,,33,130.876,0.0125914
,,,,,,,,,42,70.558,0.0191177
,,,,,,,,,52,58.5051,0.0190911
,,,,,,,,,63,142.354,0.0179131
,,,,,,,,,75,144.132,0.0174691
,,,,,,,,,88,68.5492,0.0170444
,,,,,,,,,102,97.3473,0.0117468
,,,,,,,,,117,172.212,0.0143985
,,,,,,,,,133,129.151,0.0164712
,,,,,,,,,150,121.256,0.0194253
,,,,,,,,,32,99.0585,0.0392046
,,,,,,,,,41,107.555,0.0266113
,,,,,,,,,51,100.186,0.0955438
,,,,,,,,,62,42.1495,0.0948844
,,,,,,,,,74,141.182,0.0715115
,,,,,,,,,87,107.324,0.0649239
,,,,,,,,,101,100.076,0.0594207
,,,,,,,,,116,80.5233,0.0231009
,,,,,,,,,132,141.698,0.0362181
,,,,,,,,,149,102.551,0.0529915
,,,,,,,,,167,158.204,0.103756
,,,,,,,,,50,32.4061,0.0197995
,,,,,,,,,61,66.1772,0.0427446
,,,,,,,,,73,136.242,0.0426121
,,,,,,,,,86,43.4031,0.037158
,,,,,,,,,100,70.193,0.035297
,,,,,,,,,115,131.574,0.033605
,,,,,,,,,131,140.623,0.0177883
,,,,,,,,,148,82.0473,0.0246677
,,,,,,,,,166,111.692,0.0314472
,,,,,,,,,185,86.9595,0.0443138
,,,,,,,,,72,95.7632,0.0281963
,,,,,,,,,85,125.443,0.0281386
,,,,,,,,,99,37.0208,0.0256522
,,,,,,,,,114,37.8666,0.0247513
,,,,,,,,,130,149.733,0.0239072
,,,,,,,,,147,109.787,0.0146439
,,,,,,,,,165,55.6992,0.0190079
,,,,,,,,,184,79.2919,0.0227945
,,,,,,,,,204,88.7659,0.0288707
,,,,,,,,,98,127.739,0.11867
,,,,,,,,,113,75.7867,0.0842366
,,,,,,,,,129,131.19,0.0752434
,,,,,,,,,146,66.862,0.0679499
,,,,,,,,,164,153.08,0.024286
,,,,,,,,,183,114.7,0.0392186
,,,,,,,,,203,157.175,0.0596712
,,,,,,,,,224,62.9856,0.132881
,,,,,,,,,128,156.21,0.0837236
,,,,,,,,,145,98.8938,0.0748338
,,,,,,,,,163,83.6481,0.0676157
,,,,,,,,,182,40.6676,0.0242432
,,,,,,,,,202,114.966,0.039107
,,,,,,,,,223,70.6536,0.0594133
,,,,,,,,,245,136.758,0.131609
,,,,,,,,,162,57.456,0.059497
,,,,,,,,,181,112.775,0.0548424
,,,,,,,,,201,120.24,0.0223747
,,,,,,,,,222,45.087,0.0344644
,,,,,,,,,244,87.6246,0.0493197
,,,,,,,,,267,51.9564,0.090556
,,,,,,,,,200,141.575,0.0508829
,,,,,,,,,221,72.4332,0.0216862
,,,,,,,,,243,36.8177,0.0328576
,,,,,,,,,266,41.5562,0.0460941
,,,,,,,,,290,94.437,0.0802454
,,,,,,,,,242,86.4274,0.0210355
,,,,,,,,,265,107.596,0.0313865
,,,,,,,,,289,106.832,0.0432503
,,,,,,,,,314,61.5001,0.0720032
,,,,,,,,,288,75.4259,0.0171467
,,,,,,,,,313,33.4304,0.0201692
,,,,,,,,,339,107.988,0.0247846
,,,,,,,,,338,44.4727,0.0294962
,,,,,,,,,365,59.6867,0.0405356
,,,,,,,,,392,94.4702,0.0627744
