Q	U	V
{$V$}	{[mm$^3$]}	0.00399576
{$d_v$}	{[mm]}	0.196879
{$S_c$}	{[mm$^2$]}	0.16399
{$S_o$}	{[mm$^2$]}	0.123112
{$S_l/S_o$}	[]	0.332039
{$\Psi$}	[]	0.742563
{$\eta$}	[]	0.794042
{med($\theta_e$)}	{[$^\circ$]}	48.2275
{$\Upsilon$}	[]	15
{$\Xi$}	[]	7
