Q	U	V
{$V$}	{[mm$^3$]}	0.0132863
{$d_v$}	{[mm]}	0.293856
{$S_c$}	{[mm$^2$]}	0.518994
{$S_o$}	{[mm$^2$]}	0.352392
{$S_l/S_o$}	[]	0.472775
{$\Psi$}	[]	0.522706
{$\eta$}	[]	0.543983
{med($\theta_e$)}	{[$^\circ$]}	54.32645
{$\Upsilon$}	[]	15
{$\Xi$}	[]	16
