"cellPairingIds","interplanarAngles","angleWeights"
13,63.0209,0.0557435
19,35.8445,0.050496
43,134.751,0.0452244
64,155.065,0.0302461
32,92.3147,0.0732228
51,49.047,0.115063
87,97.1995,0.0371534
50,44.241,0.0725272
61,134.583,0.094741
73,156.229,0.0560866
100,169.051,0.0347467
72,120.688,0.113355
114,126.168,0.0369734
129,51.892,0.0419928
145,26.9074,0.0321666
