facetNormals:0,facetNormals:1,facetNormals:2,FacetCenters:0,FacetCenters:1,FacetCenters:2,FacetIds,relFacetSize,absFacetSize,cellPairingIds,interplanarAngles,angleWeights
0.0125228,0.963768,0.0337986,7.41691,4.08913,6.78825,1,0.035541,0.00387939,8,72.1068,0.0447634
-0.911398,0.309477,-0.0409352,7.34832,4.02085,6.74163,2,0.0604489,0.00659814,13,33.1966,0.0357543
0.542255,0.805072,0.0342388,7.45371,4.07133,6.80616,3,0.0359702,0.00392623,19,157.977,0.0531078
-0.235493,-0.904496,0.254511,7.41122,3.88022,6.75657,4,0.105011,0.0114622,26,50.3632,0.0200341
-0.631503,0.623106,0.432582,7.41837,4.07018,6.8026,5,0.0139483,0.00152249,34,103.392,0.0186966
0.847684,-0.254866,0.434999,7.55137,3.9453,6.79632,6,0.0126847,0.00138457,43,144.663,0.0428754
0.412468,-0.813672,0.345122,7.48331,3.89797,6.78836,7,0.0540239,0.00589683,53,38.6116,0.0324142
-0.0923526,0.726554,0.613075,7.43587,4.07554,6.82374,8,0.029793,0.00325198,64,90.4543,0.0616096
-0.706288,-0.0205557,0.63317,7.38121,3.99541,6.8162,9,0.231161,0.0252318,76,72.4284,0.0487647
0.766252,0.263827,0.528713,7.52371,4.02282,6.81684,10,0.0776592,0.00847669,89,123.895,0.0310356
0.478981,-0.583228,0.645884,7.49859,3.92498,6.81658,11,0.0275439,0.00300648,103,110.288,0.0418966
0.294882,-0.372803,0.853703,7.48596,3.95577,6.84545,12,0.0510202,0.00556898,18,105.272,0.0451022
,,,,,,,,,25,94.6536,0.0767293
,,,,,,,,,33,37.8637,0.0226664
,,,,,,,,,42,156.185,0.0209692
,,,,,,,,,52,133.087,0.0570561
,,,,,,,,,63,72.0273,0.0399139
,,,,,,,,,75,48.0147,0.0958365
,,,,,,,,,88,133.22,0.0679817
,,,,,,,,,102,132.253,0.037844
,,,,,,,,,117,116.436,0.0553358
,,,,,,,,,32,154.215,0.0535855
,,,,,,,,,41,79.5412,0.0201017
,,,,,,,,,51,73.6684,0.0187554
,,,,,,,,,62,116.29,0.0431862
,,,,,,,,,74,53.1894,0.0325915
,,,,,,,,,87,114.208,0.0622534
,,,,,,,,,101,46.5771,0.0491672
,,,,,,,,,116,101.218,0.0311981
,,,,,,,,,132,96.7169,0.0421933
,,,,,,,,,50,108.589,0.0246256
,,,,,,,,,61,81.4759,0.0226353
,,,,,,,,,73,39.7249,0.0713442
,,,,,,,,,86,121.207,0.046417
,,,,,,,,,100,67.8802,0.144417
,,,,,,,,,115,107.67,0.0892875
,,,,,,,,,131,52.9981,0.043641
,,,,,,,,,148,59.1733,0.0686746
,,,,,,,,,72,121.315,0.0132865
,,,,,,,,,85,129.953,0.022172
,,,,,,,,,99,34.5722,0.0190009
,,,,,,,,,114,40.9657,0.0263091
,,,,,,,,,130,95.4548,0.023649
,,,,,,,,,147,113.216,0.0185187
,,,,,,,,,165,92.9253,0.0219074
,,,,,,,,,98,42.6837,0.0205454
,,,,,,,,,113,89.8037,0.0177936
,,,,,,,,,129,109.869,0.0240498
,,,,,,,,,146,31.6631,0.0218075
,,,,,,,,,164,31.4688,0.0173701
,,,,,,,,,183,41.985,0.020318
,,,,,,,,,128,116.638,0.0384059
,,,,,,,,,145,93.474,0.0875798
,,,,,,,,,163,72.4961,0.0637204
,,,,,,,,,182,22.5125,0.0364857
,,,,,,,,,202,40.9683,0.0524791
,,,,,,,,,162,61.0622,0.0527831
,,,,,,,,,181,61.2125,0.0430648
,,,,,,,,,201,94.3526,0.0286244
,,,,,,,,,222,76.0309,0.0376187
,,,,,,,,,200,103.342,0.11626
,,,,,,,,,221,84.9692,0.0492227
,,,,,,,,,243,68.4892,0.0835909
,,,,,,,,,242,54.7578,0.0406649
,,,,,,,,,265,52.2401,0.0615823
,,,,,,,,,288,20.3445,0.0357745
