"cellPairingIds","interplanarAngles","angleWeights"
8,52.4404,0.0446248
13,120.179,0.0208471
19,43.5952,0.0357069
26,82.9508,0.0566116
18,123.423,0.0243445
25,38.8483,0.0473604
42,57.9284,0.0547418
63,33.9807,0.0674906
41,114.812,0.0275237
51,78.9632,0.0228171
87,64.986,0.0182276
101,37.734,0.0220007
149,69.8508,0.0233825
50,79.772,0.0610879
73,37.5627,0.0317489
86,36.2251,0.0489869
131,63.1701,0.0402977
85,43.7415,0.0472689
114,51.3204,0.0407202
147,56.8292,0.0690906
165,35.1467,0.039868
113,61.7441,0.0569265
203,33.8196,0.0501063
269,62.8784,0.0617539
182,41.3247,0.0337826
201,57.3094,0.0540029
316,80.135,0.0784769
200,38.7441,0.0296925
243,53.3715,0.0229293
315,36.9043,0.0202971
289,67.436,0.046331
340,34.1461,0.0250883
367,58.8159,0.0561181
288,33.9805,0.0298256
394,62.1552,0.0583284
393,42.49,0.0200831
422,66.1677,0.0360317
452,20.2668,0.024368
451,31.1556,0.0660779
512,45.8282,0.029932
545,26.1315,0.0214164
578,47.6365,0.0405623
