Q	U	V
{$V$}	{[mm$^3$]}	0.00155318
{$d_v$}	{[mm]}	0.143684
{$S_c$}	{[mm$^2$]}	0.110747
{$S_o$}	{[mm$^2$]}	0.061641
{$S_l/S_o$}	[]	0.796645
{$\Psi$}	[]	0.585644
{$\eta$}	[]	0.687243
{med($\theta_e$)}	{[$^\circ$]}	51.0648
{$\Upsilon$}	[]	17
{$\Xi$}	[]	5
