facetNormals:0,facetNormals:1,facetNormals:2,FacetCenters:0,FacetCenters:1,FacetCenters:2,FacetIds,relFacetSize,absFacetSize,cellPairingIds,interplanarAngles,angleWeights
0.264057,-0.711023,-0.625658,5.318,5.22382,7.49651,1,0.0155591,0.0029184,8,54.0418,0.0216423
0.724955,0.0465248,-0.640767,5.33367,5.22361,7.44712,2,0.0355359,0.00666541,13,107.459,0.0235038
0.136619,0.811864,-0.427586,5.30709,5.31305,7.54527,3,0.0480266,0.00900827,19,31.6498,0.0238096
0.0764033,-0.94078,-0.18545,5.31295,5.16863,7.47602,4,0.0506867,0.00950723,26,47.6556,0.0211736
-0.434347,-0.838058,-0.270241,5.26591,5.16838,7.48593,5,0.0331274,0.00621366,34,126.451,0.0189957
-0.813699,0.542204,-0.0456453,5.24832,5.25573,7.55971,6,0.0243807,0.00457305,43,112.96,0.0269095
-0.867647,-0.0845035,0.293779,5.23115,5.2636,7.57577,7,0.0994797,0.0186593,53,159.423,0.0208293
-0.347776,0.84561,0.315065,5.26263,5.32724,7.58249,8,0.0314983,0.00590808,64,74.4689,0.0249876
-0.514709,-0.776156,0.258162,5.27608,5.17501,7.49942,9,0.0634167,0.011895,76,64.7912,0.02759
0.58698,-0.662621,0.360906,5.34026,5.20017,7.5032,10,0.121668,0.022821,89,112.103,0.0259659
0.694965,0.614925,0.150363,5.34908,5.28199,7.49727,11,0.0784107,0.0147074,103,93.2956,0.020651
0.725083,-0.205576,0.628287,5.32845,5.238,7.58384,12,0.0306968,0.00575775,118,120.801,0.0244842
0.598952,0.284512,0.712933,5.31578,5.23719,7.52876,13,0.0574237,0.0107709,134,112.132,0.022371
-0.143362,-0.335902,0.891755,5.27081,5.2602,7.62545,14,0.0397923,0.00746377,151,145.977,0.0201834
-0.0726576,0.264218,0.922531,5.26815,5.27277,7.63503,15,0.0287188,0.00538674,18,62.7972,0.0408477
,,,,,,,,,25,81.9521,0.0417802
,,,,,,,,,33,100.953,0.0342894
,,,,,,,,,42,124.38,0.0289199
,,,,,,,,,52,157.152,0.0523658
,,,,,,,,,63,116.273,0.0333955
,,,,,,,,,75,127.87,0.0455485
,,,,,,,,,88,79.8335,0.055006
,,,,,,,,,102,61.387,0.048907
,,,,,,,,,117,83.1414,0.0329396
,,,,,,,,,133,90.5695,0.043903
,,,,,,,,,150,137.751,0.0375438
,,,,,,,,,168,132.643,0.0317657
,,,,,,,,,32,139.056,0.0493208
,,,,,,,,,41,133.256,0.0392093
,,,,,,,,,51,67.4292,0.0323427
,,,,,,,,,62,111.499,0.0647792
,,,,,,,,,74,55.7994,0.0380448
,,,,,,,,,87,154.742,0.054659
,,,,,,,,,101,133.645,0.0688684
,,,,,,,,,116,52.5834,0.0595679
,,,,,,,,,132,111.695,0.0374542
,,,,,,,,,149,89.4942,0.0523064
,,,,,,,,,167,138.893,0.0435234
,,,,,,,,,186,102.279,0.0359439
,,,,,,,,,50,31.4917,0.0400677
,,,,,,,,,61,126.782,0.0329245
,,,,,,,,,73,92.6734,0.0671562
,,,,,,,,,86,161.18,0.0388524
,,,,,,,,,100,46.2383,0.0563416
,,,,,,,,,115,49.1641,0.0715611
,,,,,,,,,131,127.725,0.0615718
,,,,,,,,,148,81.9431,0.0382367
,,,,,,,,,166,112.216,0.0538453
,,,,,,,,,185,81.3332,0.0445836
,,,,,,,,,205,117.343,0.036664
,,,,,,,,,72,95.2915,0.0280889
,,,,,,,,,85,65.9366,0.0497033
,,,,,,,,,99,132.603,0.0322923
,,,,,,,,,114,32.0507,0.0435207
,,,,,,,,,130,77.5201,0.0520758
,,,,,,,,,147,158.341,0.0465768
,,,,,,,,,165,108.924,0.0318658
,,,,,,,,,184,136.311,0.042016
,,,,,,,,,204,83.7634,0.0361553
,,,,,,,,,225,117.696,0.030766
,,,,,,,,,98,44.0892,0.0391632
,,,,,,,,,113,39.8191,0.0274862
,,,,,,,,,129,90.8359,0.0352207
,,,,,,,,,146,155.778,0.0406214
,,,,,,,,,164,105.05,0.0371959
,,,,,,,,,183,139.482,0.0271766
,,,,,,,,,203,112.56,0.0342287
,,,,,,,,,224,96.4631,0.0302359
,,,,,,,,,246,80.2043,0.0263726
,,,,,,,,,128,68.722,0.0478468
,,,,,,,,,145,48.593,0.0774563
,,,,,,,,,163,113.259,0.109461
,,,,,,,,,182,134.932,0.0876975
,,,,,,,,,202,118.245,0.0469164
,,,,,,,,,223,111.914,0.0728154
,,,,,,,,,245,62.1042,0.0568459
,,,,,,,,,268,69.3829,0.0445705
,,,,,,,,,162,115.067,0.0420906
,,,,,,,,,181,134.74,0.0500414
,,,,,,,,,201,69.009,0.0449427
,,,,,,,,,222,103.906,0.0310924
,,,,,,,,,244,74.1666,0.0406817
,,,,,,,,,267,87.123,0.0351628
,,,,,,,,,291,54.5838,0.0300444
,,,,,,,,,200,70.7005,0.0833757
,,,,,,,,,221,151.204,0.0701211
,,,,,,,,,243,93.1101,0.041369
,,,,,,,,,266,111.513,0.0602716
,,,,,,,,,290,52.6718,0.0489007
,,,,,,,,,315,85.6536,0.0395342
,,,,,,,,,242,86.5081,0.0953632
,,,,,,,,,265,32.7845,0.0490246
,,,,,,,,,289,63.1523,0.0780228
,,,,,,,,,314,60.0244,0.0599707
,,,,,,,,,340,82.8053,0.0464689
,,,,,,,,,288,59.2245,0.0441208
,,,,,,,,,313,40.2661,0.0662959
,,,,,,,,,339,100.952,0.0527929
,,,,,,,,,366,73.9124,0.04204
,,,,,,,,,338,30.4305,0.0400071
,,,,,,,,,365,56.2444,0.0346577
,,,,,,,,,393,59.9666,0.0296749
,,,,,,,,,392,61.0377,0.0470091
,,,,,,,,,421,42.6327,0.0382886
,,,,,,,,,450,36.6188,0.0333606
