facetNormals:0,facetNormals:1,facetNormals:2,FacetCenters:0,FacetCenters:1,FacetCenters:2,FacetIds,relFacetSize,absFacetSize,cellPairingIds,interplanarAngles,angleWeights
-0.167602,0.365061,-0.895106,5.41966,7.67988,6.33906,1,0.0803611,0.00525775,8,42.6845,0.0554171
-0.533385,-0.227913,-0.769497,5.39174,7.63928,6.33925,2,0.0422902,0.0027669,13,55.6245,0.0658447
0.694681,0.30981,-0.605316,5.49599,7.71579,6.38963,3,0.0557703,0.00364886,19,25.2979,0.0887629
-0.165295,0.719594,-0.651068,5.41664,7.71436,6.37094,4,0.0991267,0.00648551,26,40.3545,0.0450296
0.369699,0.681532,-0.621019,5.47967,7.72787,6.37725,5,0.031278,0.00204641,34,45.9832,0.0451096
-0.771466,0.432354,-0.427264,5.37101,7.6131,6.36871,6,0.0313552,0.00205146,43,106.264,0.0115166
0.948216,-0.247493,0.0224178,5.48923,7.69244,6.43534,7,0.00620275,0.000405824,53,105.849,0.0268204
0.674068,-0.643116,-0.107768,5.48293,7.68158,6.41069,8,0.0160962,0.00105312,64,92.5116,0.0239201
0.924786,0.352416,0.0181128,5.52351,7.72703,6.4598,9,0.0140513,0.000919327,76,126.459,0.011143
-0.130212,-0.929009,0.283877,5.38578,7.62686,6.39696,10,0.00598653,0.000391678,89,65.4862,0.104
-0.119487,0.969188,-0.0266187,5.4477,7.75152,6.43703,11,0.147341,0.00964001,103,133.921,0.0176913
0.40459,-0.833507,0.332812,5.4534,7.66356,6.41192,12,0.00993977,0.000650324,118,94.0528,0.0426919
0.649418,0.688741,0.234853,5.51721,7.73626,6.48187,13,0.0290668,0.00190174,134,107.291,0.0796323
-0.816665,-0.445304,0.288594,5.37275,7.66627,6.41442,14,0.0789165,0.00516323,151,107.893,0.0801225
-0.205848,0.679627,0.636964,5.45936,7.73445,6.49813,15,0.0798853,0.00522662,169,119.745,0.0763906
-0.728571,-0.112575,0.611322,5.37994,7.69315,6.44463,16,0.0727939,0.00476265,18,88.4923,0.0481037
,,,,,,,,,25,63.3717,0.0592869
,,,,,,,,,33,82.4756,0.0359599
,,,,,,,,,42,47.3088,0.0360109
,,,,,,,,,52,119.603,0.0108187
,,,,,,,,,63,98.2728,0.0233175
,,,,,,,,,75,128.023,0.0210939
,,,,,,,,,88,86.1908,0.0104884
,,,,,,,,,102,98.3483,0.0657179
,,,,,,,,,117,107.289,0.0160963
,,,,,,,,,133,136.708,0.0344533
,,,,,,,,,150,70.3873,0.0550695
,,,,,,,,,168,125.61,0.0553035
,,,,,,,,,187,93.4879,0.0534995
,,,,,,,,,32,58.3439,0.0713807
,,,,,,,,,41,29.0874,0.0400785
,,,,,,,,,51,98.6349,0.0401418
,,,,,,,,,62,53.3755,0.0111639
,,,,,,,,,74,68.4921,0.0249822
,,,,,,,,,87,39.6693,0.0224471
,,,,,,,,,101,125.267,0.0108124
,,,,,,,,,116,75.7738,0.0809138
,,,,,,,,,132,100.757,0.0168724
,,,,,,,,,149,56.5681,0.0382159
,,,,,,,,,167,158.352,0.0653545
,,,,,,,,,186,110.056,0.0656844
,,,,,,,,,206,168.12,0.063155
,,,,,,,,,50,31.5161,0.0475517
,,,,,,,,,61,42.1486,0.0476409
,,,,,,,,,73,111.231,0.011675
,,,,,,,,,86,123.09,0.0276953
,,,,,,,,,100,84.7627,0.0246136
,,,,,,,,,115,149.559,0.0112912
,,,,,,,,,131,40.1995,0.118518
,,,,,,,,,148,155.714,0.0180678
,,,,,,,,,166,75.8097,0.0449523
,,,,,,,,,185,112.918,0.0878745
,,,,,,,,,205,83.3728,0.0884719
,,,,,,,,,226,112.356,0.0839437
,,,,,,,,,72,73.6417,0.0313165
,,,,,,,,,85,80.0677,0.0103525
,,,,,,,,,99,97.5353,0.0212545
,,,,,,,,,114,54.5121,0.0193913
,,,,,,,,,130,151.741,0.0100496
,,,,,,,,,147,49.2945,0.0516018
,,,,,,,,,165,129.736,0.0150855
,,,,,,,,,184,54.4268,0.0301319
,,,,,,,,,204,144.194,0.0447998
,,,,,,,,,225,90.5128,0.0449546
,,,,,,,,,247,139.712,0.0437552
,,,,,,,,,98,151.752,0.0103567
,,,,,,,,,113,144.728,0.0212723
,,,,,,,,,129,125.81,0.0194061
,,,,,,,,,146,116.034,0.0100536
,,,,,,,,,164,56.9983,0.0517068
,,,,,,,,,183,147.413,0.0150945
,,,,,,,,,203,108.476,0.0301677
,,,,,,,,,224,70.8243,0.044879
,,,,,,,,,246,78.8928,0.0450343
,,,,,,,,,269,74.4476,0.0438308
,,,,,,,,,128,30.0308,0.00895475
,,,,,,,,,145,35.4823,0.00860635
,,,,,,,,,163,83.2562,0.00609272
,,,,,,,,,182,111.681,0.0119044
,,,,,,,,,202,51.7539,0.0076387
,,,,,,,,,223,61.8808,0.0102238
,,,,,,,,,245,133.545,0.0115015
,,,,,,,,,268,111.922,0.0115117
,,,,,,,,,292,133.758,0.0114314
,,,,,,,,,162,64.8331,0.0150044
,,,,,,,,,181,58.5864,0.00872723
,,,,,,,,,201,139.916,0.029022
,,,,,,,,,222,33.1645,0.0122901
,,,,,,,,,244,91.9107,0.020719
,,,,,,,,,267,108.856,0.0267387
,,,,,,,,,291,136.085,0.0267938
,,,,,,,,,316,122.651,0.0263631
,,,,,,,,,200,117.149,0.00839597
,,,,,,,,,221,76.2046,0.0256559
,,,,,,,,,243,84.9105,0.0116432
,,,,,,,,,266,28.6072,0.0189445
,,,,,,,,,290,160.187,0.0238551
,,,,,,,,,315,86.3152,0.0238989
,,,,,,,,,341,137.811,0.0235557
,,,,,,,,,242,158.755,0.0115056
,,,,,,,,,265,32.2388,0.00747251
,,,,,,,,,289,133.477,0.00992826
,,,,,,,,,314,50.9039,0.0111288
,,,,,,,,,340,116.952,0.0111384
,,,,,,,,,367,66.5861,0.0110632
,,,,,,,,,288,154.087,0.0186232
,,,,,,,,,313,52.2227,0.0485549
,,,,,,,,,339,111.047,0.102782
,,,,,,,,,366,44.3543,0.103601
,,,,,,,,,394,92.3477,0.0974451
,,,,,,,,,338,104.054,0.0148138
,,,,,,,,,365,81.7973,0.0176557
,,,,,,,,,393,117.784,0.0176797
,,,,,,,,,422,89.8472,0.0174912
,,,,,,,,,392,144.082,0.0424853
,,,,,,,,,421,58.654,0.0426244
,,,,,,,,,451,115.839,0.0415447
,,,,,,,,,450,86.9587,0.079398
,,,,,,,,,481,28.2608,0.0757317
,,,,,,,,,512,59.56,0.076175
