Q	U	V
{$V$}	{[mm$^3$]}	0.00491128
{$d_v$}	{[mm]}	0.210895
{$S_c$}	{[mm$^2$]}	0.24783
{$S_o$}	{[mm$^2$]}	0.159633
{$S_l/S_o$}	[]	0.552499
{$\Psi$}	[]	0.563802
{$\eta$}	[]	0.615224
{med($\theta_e$)}	{[$^\circ$]}	81.5601
{$\Upsilon$}	[]	13
{$\Xi$}	[]	6
