"cellPairingIds","interplanarAngles","angleWeights"
13,53.9736,0.0202673
34,51.4301,0.0266579
64,105.98,0.0169379
76,71.4987,0.0269036
87,66.5045,0.0235297
101,97.6891,0.0484726
149,75.1085,0.0346043
113,52.8129,0.0663207
129,143.192,0.0326036
146,51.1713,0.113609
162,101.297,0.0273187
181,98.7135,0.0678627
201,88.9207,0.0532586
369,71.04,0.030473
221,22.8088,0.0290956
266,113.278,0.0259089
341,126.079,0.01878
289,47.3925,0.0597823
367,43.9345,0.0318685
424,86.9578,0.0376793
394,120.034,0.028233
453,82.0988,0.0327006
451,32.9629,0.0252227
613,63.6451,0.0202187
