Q	U	V
{$V$}	{[mm$^3$]}	0.00147243
{$d_v$}	{[mm]}	0.141149
{$S_c$}	{[mm$^2$]}	0.0915437
{$S_o$}	{[mm$^2$]}	0.0763169
{$S_l/S_o$}	[]	0.199521
{$\Psi$}	[]	0.683721
{$\eta$}	[]	0.758145
{med($\theta_e$)}	{[$^\circ$]}	48.0258
{$\Upsilon$}	[]	22
{$\Xi$}	[]	0
