facetNormals:0,facetNormals:1,facetNormals:2,FacetCenters:0,FacetCenters:1,FacetCenters:2,FacetIds,relFacetSize,absFacetSize,cellPairingIds,interplanarAngles,angleWeights
0.284392,-0.224164,-0.903028,7.71395,4.85182,6.40211,1,0.042469,0.00313226,8,21.6928,0.0377412
0.0832497,-0.523409,-0.828193,7.71256,4.81963,6.3808,2,0.0339606,0.00250473,13,47.0286,0.0475065
-0.487309,-0.169482,-0.827649,7.67133,4.82269,6.39256,3,0.0538999,0.00397533,19,40.9517,0.00832815
0.576903,0.369284,-0.716698,7.75345,4.86899,6.49032,4,0.00461674,0.000340503,26,46.2329,0.0292849
-0.310251,-0.664464,-0.676151,7.6695,4.82696,6.39841,5,0.0223473,0.00164821,34,59.4985,0.0227474
-0.589924,-0.545617,-0.598144,7.66512,4.83561,6.38881,6,0.0155339,0.00114569,43,43.7809,0.0480689
0.845626,-0.169814,-0.44732,7.7507,4.85672,6.40729,7,0.0553697,0.00408374,53,89.3209,0.0608321
-0.884296,-0.333864,-0.207974,7.62555,4.85041,6.48215,8,0.107172,0.00790435,64,107.923,0.0307315
-0.965446,0.170984,-0.0213346,7.62879,4.86485,6.4513,9,0.0240771,0.00177579,76,90.0387,0.03955
-0.607315,-0.775509,0.00196266,7.6435,4.79484,6.45238,10,0.0370064,0.00272937,89,61.2517,0.0546103
0.656523,-0.69328,-0.119797,7.73779,4.79756,6.43486,11,0.0764726,0.00564016,103,81.7842,0.0498732
0.0525609,-0.960848,0.106017,7.68059,4.78114,6.46353,12,0.0604042,0.00445505,118,116.366,0.0138129
0.451606,0.761,0.422518,7.73544,4.87253,6.53478,13,0.00824775,0.000608305,134,112.825,0.043716
-0.789428,-0.515851,0.292032,7.63743,4.82317,6.51121,14,0.0450384,0.00332176,151,81.6147,0.0260279
0.942706,-0.244472,0.201325,7.74789,4.85724,6.48857,15,0.0187638,0.00138391,169,130.304,0.0209213
-0.911232,0.0534784,0.3921,7.62634,4.85293,6.50374,16,0.0138793,0.00102366,188,96.24,0.0465572
0.881321,0.202934,0.340342,7.74991,4.86361,6.48696,17,0.0515163,0.00379954,208,99.5221,0.0459653
0.653602,-0.528747,0.51259,7.72537,4.80432,6.50131,18,0.0500889,0.00369426,229,115.157,0.0421192
-0.351633,-0.747542,0.52253,7.66795,4.80701,6.52152,19,0.0417751,0.00308108,251,146.051,0.0164028
-0.760064,0.039977,0.638768,7.61441,4.8566,6.51817,20,0.0101642,0.000749653,274,116.036,0.019456
0.702378,-0.0417447,0.701403,7.74663,4.84005,6.49901,21,0.0126184,0.000930657,298,142.91,0.0127521
-0.50193,-0.351479,0.785114,7.65064,4.86091,6.5479,22,0.00750242,0.000553333,323,125.497,0.0449643
0.199994,-0.524673,0.809624,7.69203,4.82469,6.54117,23,0.0477711,0.00352331,349,159.649,0.035428
-0.00617615,0.414647,0.855405,7.69627,4.87614,6.55291,24,0.0303897,0.00224136,18,40.0942,0.0416677
,,,,,,,,,25,62.6193,0.00812847
,,,,,,,,,33,25.9423,0.0269564
,,,,,,,,,42,42.0108,0.0213171
,,,,,,,,,52,56.3227,0.0420997
,,,,,,,,,63,73.3054,0.0515774
,,,,,,,,,75,99.0813,0.0281773
,,,,,,,,,88,68.5788,0.0354181
,,,,,,,,,102,56.898,0.047034
,,,,,,,,,117,63.8522,0.0434773
,,,,,,,,,133,137.48,0.0132722
,,,,,,,,,150,92.2186,0.0387228
,,,,,,,,,168,87.673,0.0241721
,,,,,,,,,187,116.025,0.0197053
,,,,,,,,,207,109.344,0.0409356
,,,,,,,,,228,95.5337,0.0404773
,,,,,,,,,250,94.222,0.0374647
,,,,,,,,,273,128.878,0.0156458
,,,,,,,,,297,120.826,0.0184001
,,,,,,,,,322,121.252,0.0122898
,,,,,,,,,348,113.047,0.039699
,,,,,,,,,375,172.166,0.0320761
,,,,,,,,,32,75.0486,0.008505
,,,,,,,,,41,32.1758,0.0315951
,,,,,,,,,51,26.4134,0.0241172
,,,,,,,,,62,90.7907,0.0546249
,,,,,,,,,74,45.6668,0.0717264
,,,,,,,,,87,61.3117,0.0332856
,,,,,,,,,101,63.6925,0.0438834
,,,,,,,,,116,96.318,0.0632321
,,,,,,,,,132,86.9955,0.0569669
,,,,,,,,,149,136.938,0.0143063
,,,,,,,,,167,76.1535,0.0490723
,,,,,,,,,186,127.065,0.0278369
,,,,,,,,,206,83.4534,0.0220744
,,,,,,,,,227,142.288,0.0526811
,,,,,,,,,249,132.854,0.0519246
,,,,,,,,,272,98.1057,0.0470692
,,,,,,,,,296,99.807,0.0171032
,,,,,,,,,321,160.919,0.0204494
,,,,,,,,,347,110.845,0.0131715
,,,,,,,,,374,134.927,0.0506508
,,,,,,,,,402,146.737,0.038866
,,,,,,,,,50,86.5078,0.00765255
,,,,,,,,,61,96.5409,0.00711799
,,,,,,,,,73,39.2682,0.00852285
,,,,,,,,,86,120.321,0.00885216
,,,,,,,,,100,119.485,0.00774785
,,,,,,,,,115,130.805,0.00820933
,,,,,,,,,131,77.3703,0.00870779
,,,,,,,,,148,114.663,0.00857787
,,,,,,,,,166,75.784,0.00591982
,,,,,,,,,185,150.906,0.00837499
,,,,,,,,,205,71.7176,0.00741024
,,,,,,,,,226,143.038,0.00692875
,,,,,,,,,248,69.2467,0.00847407
,,,,,,,,,271,100.958,0.00845425
,,,,,,,,,295,151.72,0.00831461
,,,,,,,,,320,153.493,0.00634947
,,,,,,,,,346,96.5824,0.00676013
,,,,,,,,,373,174.061,0.00571603
,,,,,,,,,401,132.399,0.00841978
,,,,,,,,,430,119.46,0.00801575
,,,,,,,,,72,18.0555,0.0183279
,,,,,,,,,85,80.9205,0.0318428
,,,,,,,,,99,48.7268,0.036983
,,,,,,,,,114,78.182,0.02318
,,,,,,,,,130,44.3661,0.0278666
,,,,,,,,,147,69.3838,0.0345873
,,,,,,,,,165,55.2474,0.0326247
,,,,,,,,,184,162.229,0.0120487
,,,,,,,,,204,66.6538,0.0298724
,,,,,,,,,225,105.564,0.0203994
,,,,,,,,,247,91.0375,0.0171236
,,,,,,,,,270,131.478,0.0311724
,,,,,,,,,294,101.633,0.0309059
,,,,,,,,,319,74.9912,0.0291181
,,,,,,,,,345,102.982,0.0139731
,,,,,,,,,372,132.104,0.0161294
,,,,,,,,,400,98.194,0.0112335
,,,,,,,,,429,105.392,0.0304501
,,,,,,,,,459,153.963,0.0257553
,,,,,,,,,98,98.1892,0.0242613
,,,,,,,,,113,31.3209,0.0271347
,,,,,,,,,129,60.1477,0.0188842
,,,,,,,,,146,37.747,0.0218824
,,,,,,,,,164,86.2753,0.0258224
,,,,,,,,,183,63.6903,0.0247125
,,,,,,,,,203,162.022,0.0107747
,,,,,,,,,224,54.6274,0.0231004
,,,,,,,,,246,123.04,0.0169968
,,,,,,,,,269,74.0277,0.0146601
,,,,,,,,,293,149.519,0.0238701
,,,,,,,,,318,114.159,0.0237135
,,,,,,,,,344,71.9895,0.0226467
,,,,,,,,,371,87.4381,0.0122881
,,,,,,,,,399,144.587,0.0139252
,,,,,,,,,428,88.9512,0.0101181
,,,,,,,,,458,108.672,0.0234443
,,,,,,,,,489,140.448,0.0205589
,,,,,,,,,128,129.494,0.0730161
,,,,,,,,,145,151.313,0.0335607
,,,,,,,,,163,113.574,0.0443629
,,,,,,,,,182,39.0115,0.0642323
,,,,,,,,,202,80.1946,0.0577775
,,,,,,,,,223,86.1688,0.0143569
,,,,,,,,,245,137.803,0.0496726
,,,,,,,,,268,39.214,0.0280291
,,,,,,,,,292,171.661,0.0221951
,,,,,,,,,317,53.4919,0.0533736
,,,,,,,,,343,64.4112,0.0525971
,,,,,,,,,370,115.184,0.0476212
,,,,,,,,,398,165.638,0.0171755
,,,,,,,,,427,72.6855,0.0205529
,,,,,,,,,457,137.722,0.0132143
,,,,,,,,,488,96.2335,0.0512905
,,,,,,,,,520,119.747,0.0392416
,,,,,,,,,162,32.4344,0.0393205
,,,,,,,,,181,33.436,0.0550158
,,,,,,,,,201,110.37,0.0892563
,,,,,,,,,222,74.3812,0.0772619
,,,,,,,,,244,141.36,0.0153168
,,,,,,,,,267,32.0783,0.0634234
,,,,,,,,,291,145.57,0.0319362
,,,,,,,,,316,42.7192,0.0245759
,,,,,,,,,342,168.951,0.0695842
,,,,,,,,,369,122.217,0.0682703
,,,,,,,,,397,61.47,0.0601169
,,,,,,,,,426,56.8463,0.0185675
,,,,,,,,,456,141.551,0.0225784
,,,,,,,,,487,65.6177,0.0140232
,,,,,,,,,519,100.273,0.0660852
,,,,,,,,,552,109.749,0.0473521
,,,,,,,,,200,61.9881,0.0291734
,,,,,,,,,221,142.611,0.0366235
,,,,,,,,,243,103.231,0.0344303
,,,,,,,,,266,109.114,0.0122866
,,,,,,,,,290,46.3954,0.0313792
,,,,,,,,,315,168.653,0.021091
,,,,,,,,,341,25.342,0.0176083
,,,,,,,,,368,150.333,0.0328167
,,,,,,,,,396,139.325,0.0325216
,,,,,,,,,425,77.9263,0.0305479
,,,,,,,,,455,41.7498,0.0142941
,,,,,,,,,486,135.944,0.0165587
,,,,,,,,,518,65.3256,0.0114401
,,,,,,,,,551,108.092,0.0320172
,,,,,,,,,585,86.3955,0.0268676
,,,,,,,,,242,81.5862,0.0498767
,,,,,,,,,265,41.5697,0.0458952
,,,,,,,,,289,153.39,0.0134891
,,,,,,,,,314,25.1743,0.0406292
,,,,,,,,,340,112.986,0.0249015
,,,,,,,,,367,58.4035,0.0201873
,,,,,,,,,395,136.633,0.0430722
,,,,,,,,,424,89.1663,0.0425651
,,,,,,,,,454,34.4164,0.0392464
,,,,,,,,,485,63.8178,0.0159481
,,,,,,,,,517,113.666,0.0188197
,,,,,,,,,550,53.8319,0.0124756
,,,,,,,,,584,72.7981,0.0417053
,,,,,,,,,619,109.731,0.0333732
,,,,,,,,,288,42.4004,0.0674952
,,,,,,,,,313,107.37,0.0148896
,,,,,,,,,339,101.884,0.0566896
,,,,,,,,,366,37.0004,0.0301338
,,,,,,,,,394,135.537,0.0234945
,,,,,,,,,423,64.7164,0.0615614
,,,,,,,,,453,39.2003,0.0605307
,,,,,,,,,484,76.1731,0.0540332
,,,,,,,,,516,129.116,0.0179435
,,,,,,,,,549,64.8675,0.0216624
,,,,,,,,,583,100.82,0.0136643
,,,,,,,,,618,65.1759,0.0588067
,,,,,,,,,654,115.512,0.0434948
,,,,,,,,,338,134.27,0.0145138
,,,,,,,,,365,59.4961,0.0516017
,,,,,,,,,393,71.4809,0.0286331
,,,,,,,,,422,93.4401,0.0225721
,,,,,,,,,452,96.9122,0.0556073
,,,,,,,,,483,51.2432,0.054765
,,,,,,,,,515,37.0581,0.0493914
,,,,,,,,,548,90.6338,0.0174005
,,,,,,,,,582,80.944,0.0208758
,,,,,,,,,617,65.8431,0.0133471
,,,,,,,,,653,50.9847,0.05335
,,,,,,,,,690,109.556,0.0404358
,,,,,,,,,392,130.265,0.0139423
,,,,,,,,,421,70.5483,0.0114587
,,,,,,,,,451,102.157,0.0103469
,,,,,,,,,482,42.712,0.014219
,,,,,,,,,514,83.4958,0.0141633
,,,,,,,,,547,121.926,0.0137757
,,,,,,,,,581,92.5256,0.00910625
,,,,,,,,,616,53.3323,0.00997533
,,,,,,,,,652,99.5736,0.00785745
,,,,,,,,,689,88.0354,0.0140668
,,,,,,,,,727,43.6788,0.0129743
,,,,,,,,,450,124.728,0.026491
,,,,,,,,,481,34.7043,0.0212195
,,,,,,,,,513,137.297,0.0480601
,,,,,,,,,546,95.5212,0.0474296
,,,,,,,,,580,32.2854,0.0433454
,,,,,,,,,615,38.6639,0.0165855
,,,,,,,,,651,109.544,0.0197136
,,,,,,,,,688,34.853,0.0128623
,,,,,,,,,726,68.96,0.0463645
,,,,,,,,,765,87.5092,0.0362916
,,,,,,,,,512,143.4,0.0159561
,,,,,,,,,545,27.8411,0.0275083
,,,,,,,,,579,29.93,0.0273006
,,,,,,,,,614,92.5668,0.0258961
,,,,,,,,,650,127.218,0.0131858
,,,,,,,,,687,34.5716,0.0150894
,,,,,,,,,725,103.379,0.010719
,,,,,,,,,764,60.6809,0.0269443
,,,,,,,,,804,86.0561,0.0232019
,,,,,,,,,578,133.334,0.0218672
,,,,,,,,,613,115.614,0.0217358
,,,,,,,,,649,60.0151,0.0208361
,,,,,,,,,686,16.7614,0.0117348
,,,,,,,,,724,111.844,0.0132189
,,,,,,,,,763,41.026,0.00973994
,,,,,,,,,803,83.7151,0.0215093
,,,,,,,,,844,67.3817,0.0190557
,,,,,,,,,648,47.4681,0.0507926
,,,,,,,,,685,107.483,0.0461371
,,,,,,,,,723,117.567,0.0169786
,,,,,,,,,762,27.7939,0.0202715
,,,,,,,,,802,104.84,0.0130974
,,,,,,,,,843,68.7329,0.0495731
,,,,,,,,,885,66.2587,0.0382283
,,,,,,,,,722,63.2458,0.0455558
,,,,,,,,,761,101.227,0.0168992
,,,,,,,,,801,30.753,0.0201585
,,,,,,,,,842,74.6115,0.0130502
,,,,,,,,,884,31.954,0.0489026
,,,,,,,,,927,76.7088,0.0378283
,,,,,,,,,800,53.9817,0.0163503
,,,,,,,,,841,81.0711,0.0193823
,,,,,,,,,883,29.2386,0.0127204
,,,,,,,,,926,39.3325,0.0445724
,,,,,,,,,970,81.3858,0.0351843
,,,,,,,,,882,95.0844,0.0112591
,,,,,,,,,925,28.5872,0.0086328
,,,,,,,,,969,69.4173,0.016762
,,,,,,,,,1014,53.0597,0.0152334
,,,,,,,,,968,77.5799,0.00941
,,,,,,,,,1013,41.7543,0.0199636
,,,,,,,,,1059,52.24,0.0178324
,,,,,,,,,1058,42.8265,0.0129682
,,,,,,,,,1105,56.0342,0.012034
,,,,,,,,,1152,59.6141,0.0371477
