facetNormals:0,facetNormals:1,facetNormals:2,FacetCenters:0,FacetCenters:1,FacetCenters:2,FacetIds,relFacetSize,absFacetSize,cellPairingIds,interplanarAngles,angleWeights
-0.44714,-0.0529737,-0.85733,5.18022,4.07767,9.29916,1,0.0765682,0.00868507,8,47.6409,0.0328311
-0.676985,0.558822,-0.423056,5.23779,4.00091,9.35124,2,0.0208953,0.00237014,13,73.7766,0.0647775
-0.329665,0.854959,-0.175298,5.26804,4.03324,9.3696,3,0.0561336,0.00636719,19,54.962,0.0799793
-0.915711,-0.254607,-0.128651,5.15541,4.03215,9.36508,4,0.0837086,0.00949501,26,100.639,0.0526853
0.939625,-0.135615,-0.275536,5.25946,4.06173,9.36996,5,0.040159,0.00455521,34,100.722,0.0745865
0.903086,0.233706,-0.280728,5.25296,4.09666,9.36758,6,0.0727048,0.00824685,43,80.7923,0.0848515
0.264872,-0.901,-0.258524,5.20445,3.99847,9.37042,7,0.0951443,0.0107922,53,92.3959,0.031813
0.770872,-0.509353,-0.324337,5.24047,4.03439,9.33499,8,0.0200774,0.00227737,64,105.893,0.0364364
0.747081,0.626279,-0.124353,5.25156,4.11293,9.41708,9,0.0239063,0.00271167,76,108.209,0.027377
0.280616,0.918774,0.139502,5.26048,4.07399,9.35981,10,0.0166684,0.00189069,89,88.2237,0.0408857
-0.638139,-0.653368,0.339082,5.17499,4.00042,9.4366,11,0.0278889,0.00316341,103,137.647,0.0927415
0.788863,-0.364143,0.414698,5.24887,4.05709,9.46896,12,0.117577,0.0133367,118,114.699,0.0458844
-0.0627188,-0.799898,0.538109,5.21167,4.00002,9.48882,13,0.0327573,0.00371564,134,139.453,0.0345396
0.281041,0.676177,0.654737,5.27989,4.04376,9.38837,14,0.0222994,0.00252941,151,175.919,0.0407591
0.476238,0.115782,0.846733,5.19502,4.09442,9.34736,15,0.0277711,0.00315006,169,139.427,0.0497774
-0.148697,0.354718,0.878199,5.22262,4.04632,9.39262,16,0.036875,0.00418271,188,144.603,0.0296383
-0.103659,-0.138831,0.968921,5.17205,4.07314,9.37629,17,0.0183756,0.00208433,18,31.5035,0.0304542
,,,,,,,,,25,55.2993,0.0334427
,,,,,,,,,33,128.172,0.0274881
,,,,,,,,,42,112.418,0.0324613
,,,,,,,,,52,127.167,0.0342654
,,,,,,,,,63,134.54,0.0204782
,,,,,,,,,75,96.1849,0.0222996
,,,,,,,,,88,73.7666,0.0185441
,,,,,,,,,102,94.6255,0.0238908
,,,,,,,,,117,166.697,0.0354844
,,,,,,,,,133,132.186,0.025515
,,,,,,,,,150,95.3584,0.0215745
,,,,,,,,,168,130.245,0.0238475
,,,,,,,,,187,94.4593,0.0266751
,,,,,,,,,207,115.791,0.0195546
,,,,,,,,,32,83.1481,0.0672024
,,,,,,,,,41,114.156,0.0468212
,,,,,,,,,51,93.0715,0.0633535
,,,,,,,,,62,153.368,0.070609
,,,,,,,,,74,133.839,0.0295763
,,,,,,,,,87,70.1745,0.0335319
,,,,,,,,,101,42.4212,0.0257042
,,,,,,,,,116,116.65,0.0372639
,,,,,,,,,132,135.816,0.0759886
,,,,,,,,,149,147.192,0.0413718
,,,,,,,,,167,66.1405,0.0319188
,,,,,,,,,186,103.072,0.0371587
,,,,,,,,,206,77.188,0.0445104
,,,,,,,,,227,106.082,0.0276876
,,,,,,,,,50,146.481,0.0542782
,,,,,,,,,61,155.522,0.0778196
,,,,,,,,,73,88.7663,0.0890609
,,,,,,,,,86,124.687,0.0323869
,,,,,,,,,100,151.4,0.0371912
,,,,,,,,,115,123.128,0.027801
,,,,,,,,,131,40.8227,0.0418385
,,,,,,,,,148,137.704,0.0977934
,,,,,,,,,166,78.0496,0.0470879
,,,,,,,,,185,123.046,0.0352172
,,,,,,,,,205,127.753,0.0417059
,,,,,,,,,226,94.1866,0.0511969
,,,,,,,,,248,89.6591,0.0301359
,,,,,,,,,72,21.7853,0.0517394
,,,,,,,,,85,62.6551,0.0564791
,,,,,,,,,99,24.2229,0.0267708
,,,,,,,,,114,47.9008,0.0299711
,,,,,,,,,130,83.9803,0.0235586
,,,,,,,,,147,128.875,0.0329177
,,,,,,,,,165,44.7104,0.0598693
,,,,,,,,,184,95.9334,0.0360825
,,,,,,,,,204,90.4738,0.0286758
,,,,,,,,,225,78.1574,0.0328355
,,,,,,,,,247,116.968,0.038447
,,,,,,,,,270,110.801,0.025214
,,,,,,,,,98,83.8772,0.0824246
,,,,,,,,,113,45.5368,0.0314656
,,,,,,,,,129,26.611,0.0359814
,,,,,,,,,146,63.0233,0.0271194
,,,,,,,,,164,150.277,0.0403138
,,,,,,,,,183,56.9934,0.08985
,,,,,,,,,203,114.792,0.0451653
,,,,,,,,,224,76.2139,0.0341306
,,,,,,,,,246,76.6884,0.0401906
,,,,,,,,,269,108.602,0.0489322
,,,,,,,,,293,114.528,0.0293366
,,,,,,,,,128,38.4528,0.0331579
,,,,,,,,,145,110.436,0.0382115
,,,,,,,,,163,146.616,0.0283672
,,,,,,,,,182,69.5211,0.0431342
,,,,,,,,,202,62.7191,0.105178
,,,,,,,,,223,53.1025,0.0487355
,,,,,,,,,245,137.379,0.0361307
,,,,,,,,,268,101.935,0.0429932
,,,,,,,,,292,128.868,0.0531505
,,,,,,,,,317,99.1741,0.0308023
,,,,,,,,,162,72.0088,0.0218252
,,,,,,,,,181,108.201,0.0182148
,,,,,,,,,201,106.385,0.0233471
,,,,,,,,,222,45.6438,0.0342981
,,,,,,,,,244,78.7504,0.0248958
,,,,,,,,,267,110.708,0.0211302
,,,,,,,,,291,87.995,0.0233057
,,,,,,,,,316,128.166,0.0259991
,,,,,,,,,342,109.608,0.0191889
,,,,,,,,,200,36.4178,0.0196418
,,,,,,,,,221,165.784,0.0257445
,,,,,,,,,243,70.8921,0.0397337
,,,,,,,,,266,130.351,0.0276405
,,,,,,,,,290,55.122,0.0230749
,,,,,,,,,315,70.3699,0.0256942
,,,,,,,,,341,89.8871,0.0290071
,,,,,,,,,368,107.128,0.0207792
,,,,,,,,,242,140.723,0.0208659
,,,,,,,,,265,93.3951,0.0291976
,,,,,,,,,289,136.25,0.0220943
,,,,,,,,,314,33.9002,0.0190771
,,,,,,,,,340,67.8461,0.0208328
,,,,,,,,,367,64.0889,0.0229589
,,,,,,,,,395,91.2879,0.0174804
,,,,,,,,,288,97.6507,0.0450839
,,,,,,,,,313,37.6569,0.0301277
,,,,,,,,,339,114.65,0.0247829
,,,,,,,,,366,95.5659,0.0278299
,,,,,,,,,394,80.0797,0.0317585
,,,,,,,,,423,59.5889,0.0221542
,,,,,,,,,338,60.0069,0.0512392
,,,,,,,,,365,74.8598,0.0374888
,,,,,,,,,393,43.3731,0.04493
,,,,,,,,,422,82.6727,0.0561424
,,,,,,,,,452,66.9785,0.0317839
,,,,,,,,,392,102.548,0.0265351
,,,,,,,,,421,69.3611,0.0300589
,,,,,,,,,451,77.6467,0.0346944
,,,,,,,,,482,47.7846,0.023544
,,,,,,,,,450,37.0971,0.0247363
,,,,,,,,,481,34.8281,0.0277921
,,,,,,,,,513,58.0679,0.0201483
,,,,,,,,,512,40.4423,0.031682
,,,,,,,,,545,38.3715,0.0221169
,,,,,,,,,578,30.0206,0.0245283
