"cellPairingIds","interplanarAngles","angleWeights"
8,40.696,0.0373142
13,45.7151,0.0285004
19,69.1226,0.0347935
26,57.369,0.020396
53,99.5718,0.0269075
25,69.7646,0.121842
33,81.3206,0.0350931
52,48.1218,0.085663
88,85.3308,0.118782
32,62.9629,0.0606241
51,38.026,0.0343662
74,62.186,0.0401308
61,56.2395,0.0439518
73,61.5172,0.0734475
100,61.536,0.0586973
131,53.8809,0.0566396
99,65.5501,0.025733
130,71.5794,0.032628
113,52.4335,0.0320764
129,58.3549,0.0337383
163,85.8814,0.0723244
182,48.3124,0.0473444
202,41.7284,0.0424655
223,73.3607,0.0335244
162,81.9349,0.0392773
181,104.281,0.0532376
244,110.777,0.0287471
267,68.262,0.0482004
221,37.5663,0.0407445
290,44.1357,0.0520536
289,33.0142,0.0376306
288,52.1877,0.0362465
313,77.8273,0.0295252
339,64.8837,0.0504288
338,33.1106,0.0275512
392,61.8417,0.0350421
