facetNormals:0,facetNormals:1,facetNormals:2,FacetCenters:0,FacetCenters:1,FacetCenters:2,FacetIds,relFacetSize,absFacetSize,cellPairingIds,interplanarAngles,angleWeights
-0.244177,-0.0297122,-0.949616,3.53651,3.61092,8.5741,1,0.0280825,0.00329449,8,39.2812,0.0334273
0.376068,-0.223819,-0.8644,3.57702,3.60124,8.58085,2,0.0412848,0.00484331,13,34.2036,0.0124286
-0.530086,0.42272,-0.724908,3.49904,3.6424,8.59126,3,0.00798022,0.000936196,19,36.8562,0.0219826
-0.643693,-0.391826,-0.638737,3.48392,3.63574,8.58275,4,0.0180598,0.00211867,26,52.7471,0.0294896
-0.0713582,-0.788791,-0.565518,3.53753,3.55868,8.60542,5,0.0310451,0.00364204,34,69.5147,0.039083
-0.54365,0.762319,-0.232867,3.48504,3.70969,8.66478,6,0.0642518,0.00753767,43,89.7897,0.041685
0.928731,-0.0470631,-0.240976,3.62455,3.60411,8.63491,7,0.0808441,0.0094842,53,71.3976,0.0433016
-0.948579,-0.0175636,-0.0690014,3.4577,3.64455,8.6446,8,0.0945331,0.0110901,64,74.8675,0.0302194
-0.329614,-0.91143,-0.151254,3.54805,3.55298,8.62599,9,0.0327082,0.00383715,76,103.928,0.028676
0.378555,-0.885259,0.173619,3.55306,3.5715,8.68347,10,0.0292951,0.00343674,89,91.7168,0.0350691
-0.581277,-0.758716,0.203448,3.51191,3.5614,8.66169,11,0.0466833,0.00547664,103,112.702,0.0181731
-0.21863,0.856083,0.419349,3.5286,3.74334,8.72395,12,0.013433,0.00157588,118,126.017,0.0364493
0.903617,0.0477268,0.357055,3.61028,3.67038,8.6929,13,0.0519173,0.00609066,134,123.449,0.0320851
0.626829,0.647598,0.374214,3.60092,3.72183,8.71851,14,0.0374184,0.00438973,151,111.372,0.0311944
-0.791718,0.0949034,0.569477,3.46971,3.68455,8.74013,15,0.0350818,0.00411561,169,117.971,0.0314785
-0.283153,-0.75456,0.576519,3.52482,3.59717,8.72293,16,0.0358088,0.0042009,188,135.511,0.0411071
0.458802,-0.584634,0.607835,3.58544,3.5961,8.70567,17,0.0766635,0.00899375,208,143.736,0.0349005
-0.101314,-0.461754,0.852223,3.52666,3.6131,8.73186,18,0.0460907,0.00540711,229,137.966,0.0198678
0.0520471,0.671295,0.724467,3.52072,3.72758,8.74019,19,0.0153714,0.00180329,251,165.512,0.0248008
0.401522,0.203744,0.871233,3.57674,3.66204,8.75414,20,0.0222058,0.00260507,274,152.438,0.034899
-0.171514,0.240357,0.931104,3.54442,3.6744,8.75397,21,0.0460854,0.00540649,18,69.7626,0.0133751
,,,,,,,,,25,65.4443,0.0251276
,,,,,,,,,33,47.3733,0.0354401
,,,,,,,,,42,100.714,0.0502692
,,,,,,,,,52,52.3831,0.0546575
,,,,,,,,,63,108.547,0.0574708
,,,,,,,,,75,77.1862,0.0364994
,,,,,,,,,88,78.4107,0.0342715
,,,,,,,,,102,103.726,0.0438184
,,,,,,,,,117,132.184,0.0202705
,,,,,,,,,133,88.7536,0.0459946
,,,,,,,,,150,104.247,0.0392566
,,,,,,,,,168,148.706,0.0379314
,,,,,,,,,187,117.005,0.0383523
,,,,,,,,,207,103.809,0.0536682
,,,,,,,,,228,135.323,0.0435556
,,,,,,,,,250,142.174,0.0224019
,,,,,,,,,273,132.974,0.0288787
,,,,,,,,,297,167.273,0.0435532
,,,,,,,,,32,49.36,0.0110692
,,,,,,,,,41,83.2021,0.0126967
,,,,,,,,,51,35.5422,0.0141971
,,,,,,,,,62,110.731,0.0145265
,,,,,,,,,74,54.7128,0.014718
,,,,,,,,,87,95.949,0.0128301
,,,,,,,,,101,136.189,0.0125435
,,,,,,,,,116,99.4996,0.0136304
,,,,,,,,,132,79.6871,0.0100123
,,,,,,,,,149,138.011,0.013834
,,,,,,,,,167,109.906,0.0131549
,,,,,,,,,186,87.2314,0.0130027
,,,,,,,,,206,126.628,0.0130518
,,,,,,,,,227,167.672,0.0144557
,,,,,,,,,249,141.714,0.0136049
,,,,,,,,,272,105.903,0.0105061
,,,,,,,,,296,141.169,0.011741
,,,,,,,,,321,119.842,0.0136046
,,,,,,,,,50,41.8408,0.0228355
,,,,,,,,,61,77.8879,0.0281946
,,,,,,,,,73,116.637,0.0295241
,,,,,,,,,86,45.2507,0.030326
,,,,,,,,,100,46.5914,0.0232707
,,,,,,,,,115,90.4567,0.0223446
,,,,,,,,,131,55.8787,0.0260442
,,,,,,,,,148,118.605,0.0154065
,,,,,,,,,166,149.55,0.0267978
,,,,,,,,,185,158.389,0.0243616
,,,,,,,,,205,83.5527,0.0238446
,,,,,,,,,226,83.5669,0.0240102
,,,,,,,,,248,118.634,0.029233
,,,,,,,,,271,108.044,0.0259511
,,,,,,,,,295,140.999,0.0166075
,,,,,,,,,320,157.459,0.0199193
,,,,,,,,,346,126.836,0.0259502
,,,,,,,,,72,117.312,0.0418629
,,,,,,,,,85,83.4201,0.0448625
,,,,,,,,,99,82.5168,0.0467404
,,,,,,,,,114,29.8495,0.031855
,,,,,,,,,130,52.9926,0.0301447
,,,,,,,,,147,56.4999,0.0372911
,,,,,,,,,165,160.43,0.0187521
,,,,,,,,,184,108.734,0.0388556
,,,,,,,,,204,143.881,0.0339351
,,,,,,,,,225,110.915,0.0329403
,,,,,,,,,247,72.5387,0.0332572
,,,,,,,,,270,84.8005,0.0441938
,,,,,,,,,294,96.6901,0.0371005
,,,,,,,,,319,168.419,0.0205619
,,,,,,,,,345,135.614,0.0258918
,,,,,,,,,372,137.772,0.0370988
,,,,,,,,,98,121.528,0.0715992
,,,,,,,,,113,55.6116,0.076505
,,,,,,,,,129,120.502,0.043349
,,,,,,,,,146,167.368,0.0402421
,,,,,,,,,164,109.179,0.0540764
,,,,,,,,,183,44.4336,0.0222204
,,,,,,,,,203,124.976,0.0574297
,,,,,,,,,224,85.9952,0.0472941
,,,,,,,,,246,66.9505,0.0453838
,,,,,,,,,269,125.525,0.0459877
,,,,,,,,,293,154.581,0.069911
,,,,,,,,,318,121.792,0.0536767
,,,,,,,,,344,70.7418,0.0248078
,,,,,,,,,371,106.318,0.0330049
,,,,,,,,,399,86.3713,0.0536731
,,,,,,,,,128,160.904,0.0871544
,,,,,,,,,145,103.926,0.0465735
,,,,,,,,,163,68.0436,0.0430062
,,,,,,,,,182,126.105,0.0591884
,,,,,,,,,202,111.504,0.023038
,,,,,,,,,223,36.5271,0.0632294
,,,,,,,,,245,60.509,0.0511584
,,,,,,,,,268,158.699,0.0489306
,,,,,,,,,292,112.637,0.0496333
,,,,,,,,,317,70.5476,0.0786983
,,,,,,,,,343,107.257,0.0587098
,,,,,,,,,370,99.5625,0.0258313
,,,,,,,,,398,80.6307,0.0348415
,,,,,,,,,427,114.893,0.0587055
,,,,,,,,,162,68.6897,0.0486007
,,,,,,,,,181,112.459,0.044729
,,,,,,,,,201,53.6723,0.0625015
,,,,,,,,,222,79.8834,0.0235233
,,,,,,,,,244,162.522,0.0670248
,,,,,,,,,267,132.89,0.0536149
,,,,,,,,,291,40.3789,0.051173
,,,,,,,,,316,75.1195,0.0519421
,,,,,,,,,342,120.745,0.0846657
,,,,,,,,,369,87.1923,0.0619681
,,,,,,,,,397,96.7849,0.026443
,,,,,,,,,426,118.46,0.0359638
,,,,,,,,,456,84.1798,0.0619633
,,,,,,,,,200,46.8925,0.0309077
,,,,,,,,,221,27.2295,0.0384658
,,,,,,,,,243,143.543,0.0190445
,,,,,,,,,266,114.476,0.0401326
,,,,,,,,,290,153.069,0.0349051
,,,,,,,,,315,84.7274,0.0338535
,,,,,,,,,341,44.4525,0.0341884
,,,,,,,,,368,72.0855,0.0458533
,,,,,,,,,396,70.103,0.0382631
,,,,,,,,,425,139.577,0.0209141
,,,,,,,,,455,117.878,0.0264527
,,,,,,,,,486,108.458,0.0382612
,,,,,,,,,242,59.3805,0.0359995
,,,,,,,,,265,143.365,0.0184197
,,,,,,,,,289,67.6555,0.0374554
,,,,,,,,,314,106.492,0.0328622
,,,,,,,,,340,107.286,0.0319284
,,,,,,,,,367,47.0219,0.0322261
,,,,,,,,,395,31.9755,0.0423913
,,,,,,,,,424,57.0645,0.0358219
,,,,,,,,,454,117.633,0.020163
,,,,,,,,,485,82.6408,0.0252625
,,,,,,,,,517,96.9749,0.0358203
,,,,,,,,,288,117.218,0.0208628
,,,,,,,,,313,120.946,0.0491614
,,,,,,,,,339,144.833,0.0415406
,,,,,,,,,366,58.2359,0.0400595
,,,,,,,,,394,28.0756,0.0405293
,,,,,,,,,423,71.3165,0.05803
,,,,,,,,,453,52.2824,0.0463851
,,,,,,,,,484,113.94,0.0231276
,,,,,,,,,516,102.702,0.0300959
,,,,,,,,,549,83.578,0.0463824
,,,,,,,,,338,90.4197,0.0213436
,,,,,,,,,365,53.0083,0.019769
,,,,,,,,,393,59.0298,0.0194272
,,,,,,,,,422,110.683,0.019537
,,,,,,,,,452,111.616,0.0228604
,,,,,,,,,483,90.948,0.020803
,,,,,,,,,515,26.3087,0.014337
,,,,,,,,,548,61.8854,0.0167396
,,,,,,,,,582,48.4442,0.0208024
,,,,,,,,,392,39.649,0.0434913
,,,,,,,,,421,122.173,0.0418707
,,,,,,,,,451,95.1201,0.0423841
,,,,,,,,,482,49.7286,0.0619091
,,,,,,,,,514,78.3953,0.0488308
,,,,,,,,,547,69.4488,0.0237199
,,,,,,,,,581,44.2267,0.0311068
,,,,,,,,,616,78.5305,0.0488278
,,,,,,,,,450,103.406,0.0362125
,,,,,,,,,481,117.76,0.0365959
,,,,,,,,,513,81.6263,0.0502907
,,,,,,,,,546,92.629,0.0413043
,,,,,,,,,580,40.084,0.0217911
,,,,,,,,,615,42.1399,0.0278714
,,,,,,,,,651,65.4157,0.0413021
,,,,,,,,,512,60.3128,0.0354416
,,,,,,,,,545,94.4247,0.0481362
,,,,,,,,,579,56.8842,0.0398397
,,,,,,,,,614,63.3248,0.0213765
,,,,,,,,,650,78.1342,0.0271968
,,,,,,,,,687,43.9706,0.0398378
,,,,,,,,,578,45.934,0.0488161
,,,,,,,,,613,25.9374,0.0403043
,,,,,,,,,649,96.068,0.0215095
,,,,,,,,,686,76.0148,0.0274125
,,,,,,,,,724,65.3303,0.0403023
,,,,,,,,,648,37.5827,0.0575699
,,,,,,,,,685,85.6651,0.0256082
,,,,,,,,,723,50.8331,0.0344369
,,,,,,,,,762,68.3005,0.0575658
,,,,,,,,,722,71.7306,0.0230541
,,,,,,,,,761,50.5162,0.0299717
,,,,,,,,,801,42.6737,0.046088
,,,,,,,,,800,35.5818,0.0181671
,,,,,,,,,841,31.1297,0.0230535
,,,,,,,,,882,34.3053,0.0299706
