Q	U	V
{$V$}	{[mm$^3$]}	0.00471891
{$d_v$}	{[mm]}	0.208104
{$S_c$}	{[mm$^2$]}	0.223403
{$S_o$}	{[mm$^2$]}	0.132751
{$S_l/S_o$}	[]	0.682872
{$\Psi$}	[]	0.609008
{$\eta$}	[]	0.659150
{med($\theta_e$)}	{[$^\circ$]}	58.77275
{$\Upsilon$}	[]	18
{$\Xi$}	[]	8
