Q	U	V
{$V$}	{[mm$^3$]}	0.00600729
{$d_v$}	{[mm]}	0.225542
{$S_c$}	{[mm$^2$]}	0.254281
{$S_o$}	{[mm$^2$]}	0.158072
{$S_l/S_o$}	[]	0.608640
{$\Psi$}	[]	0.628477
{$\eta$}	[]	0.656392
{med($\theta_e$)}	{[$^\circ$]}	56.8068
{$\Upsilon$}	[]	13
{$\Xi$}	[]	9
