facetNormals:0,facetNormals:1,facetNormals:2,FacetCenters:0,FacetCenters:1,FacetCenters:2,FacetIds,relFacetSize,absFacetSize,cellPairingIds,interplanarAngles,angleWeights
0.0424049,0.0373517,-0.951008,4.37915,5.41254,6.62376,1,0.0370826,0.00500791,8,44.311,0.0306282
0.678989,0.183664,-0.648124,4.37313,5.41468,6.66425,2,0.0260876,0.00352307,13,34.5498,0.0303659
-0.472587,-0.190579,-0.837236,4.35615,5.36525,6.6297,3,0.0257093,0.00347197,19,42.649,0.026283
-0.425332,0.506166,-0.718522,4.34832,5.43203,6.60904,4,0.0203551,0.0027489,26,50.6102,0.0441105
-0.080082,-0.719332,-0.650431,4.40972,5.3262,6.60674,5,0.0544252,0.00734999,34,54.0315,0.0363746
0.568019,-0.545012,-0.566827,4.43011,5.33991,6.62123,6,0.0356932,0.00482029,43,67.201,0.0329338
-0.881929,-0.0914734,-0.42452,4.31557,5.37127,6.64668,7,0.0296199,0.0040001,53,71.5298,0.0331094
-0.730074,-0.546383,-0.365841,4.32527,5.34808,6.64335,8,0.0299052,0.00403862,64,82.0086,0.0522429
-0.741191,0.545375,-0.141289,4.33759,5.45195,6.64358,9,0.0883716,0.0119344,76,90.687,0.0332575
-0.124614,-0.967631,-0.0318365,4.38401,5.32108,6.65217,10,0.0301478,0.00407139,89,84.1543,0.0398683
0.918936,-0.257815,-0.066768,4.47698,5.36313,6.64942,11,0.0431066,0.00582145,103,90.292,0.0292186
-0.0730299,0.969229,0.0397779,4.38516,5.48052,6.66121,12,0.0241065,0.00325552,118,112.708,0.00608967
0.900821,-0.1638,0.423913,4.45159,5.37647,6.69644,13,0.00331721,0.000447981,134,114.66,0.0137191
0.829329,0.286435,0.462855,4.47306,5.4281,6.67236,14,0.0084164,0.00113662,151,132.783,0.0542958
0.340978,-0.617105,0.637918,4.44139,5.33776,6.68648,15,0.101333,0.0136848,169,134.338,0.0209774
0.670245,0.079831,0.728159,4.49325,5.45326,6.66327,16,0.0146254,0.00197513,188,140.987,0.0539563
-0.604848,-0.203247,0.705438,4.34407,5.38596,6.67987,17,0.0990082,0.0133708,208,150.237,0.0564875
0.0393898,0.439118,0.85744,4.40731,5.44756,6.69855,18,0.118494,0.0160024,229,166.455,0.037415
0.188453,-0.0329526,0.969803,4.41381,5.4048,6.71248,19,0.0377535,0.00509851,18,78.5092,0.025897
,,,,,,,,,25,73.2044,0.0228675
,,,,,,,,,33,75.3707,0.0352695
,,,,,,,,,42,45.2705,0.0301437
,,,,,,,,,52,111.23,0.0277418
,,,,,,,,,63,112.455,0.0278662
,,,,,,,,,75,110.478,0.0402834
,,,,,,,,,88,105.003,0.0279711
,,,,,,,,,102,47.3606,0.0325041
,,,,,,,,,117,83.6663,0.0250579
,,,,,,,,,133,71.4622,0.00588598
,,,,,,,,,150,70.5637,0.0127269
,,,,,,,,,168,108.946,0.0414931
,,,,,,,,,187,90.1319,0.018743
,,,,,,,,,207,174.256,0.0412945
,,,,,,,,,228,119.089,0.042761
,,,,,,,,,250,122.403,0.0308547
,,,,,,,,,32,42.452,0.022721
,,,,,,,,,41,41.0274,0.0349221
,,,,,,,,,51,70.9704,0.0298896
,,,,,,,,,62,34.9593,0.0275264
,,,,,,,,,74,38.3279,0.0276489
,,,,,,,,,87,66.4466,0.0398309
,,,,,,,,,101,73.6105,0.0277522
,,,,,,,,,116,110.555,0.0322088
,,,,,,,,,132,101.097,0.0248821
,,,,,,,,,149,139.273,0.00587623
,,,,,,,,,167,149.073,0.0126813
,,,,,,,,,186,128.304,0.0410131
,,,,,,,,,206,165.374,0.0186445
,,,,,,,,,227,106.58,0.0408191
,,,,,,,,,249,150.22,0.0422514
,,,,,,,,,272,157.446,0.0305885
,,,,,,,,,50,81.6909,0.0296289
,,,,,,,,,61,96.6805,0.0259254
,,,,,,,,,73,48.6739,0.0241287
,,,,,,,,,86,71.9769,0.0242228
,,,,,,,,,100,40.3463,0.0330886
,,,,,,,,,115,115.738,0.024302
,,,,,,,,,131,120.446,0.0276525
,,,,,,,,,148,58.7276,0.0220725
,,,,,,,,,166,141.467,0.00570474
,,,,,,,,,185,123.907,0.0119088
,,,,,,,,,205,170.538,0.0339004
,,,,,,,,,226,142.378,0.017021
,,,,,,,,,248,112.304,0.0337678
,,,,,,,,,271,115.857,0.0347421
,,,,,,,,,295,145.315,0.0264496
,,,,,,,,,72,40.7367,0.0431124
,,,,,,,,,85,64.4521,0.038362
,,,,,,,,,99,43.8542,0.0386004
,,,,,,,,,114,105.431,0.0673634
,,,,,,,,,130,40.0856,0.038802
,,,,,,,,,147,80.3982,0.0481092
,,,,,,,,,165,139.259,0.0334133
,,,,,,,,,184,103.55,0.00625329
,,,,,,,,,204,126.45,0.0145784
,,,,,,,,,225,89.8962,0.0708158
,,,,,,,,,247,127.243,0.0230553
,,,,,,,,,270,106.585,0.0702395
,,,,,,,,,294,159.144,0.0745905
,,,,,,,,,319,130.303,0.0445817
,,,,,,,,,98,102.751,0.0323742
,,,,,,,,,113,84.5539,0.0325438
,,,,,,,,,129,134.961,0.0508487
,,,,,,,,,146,59.9171,0.032687
,,,,,,,,,164,41.0097,0.0390512
,,,,,,,,,183,128.876,0.0287773
,,,,,,,,,203,68.3764,0.00607027
,,,,,,,,,224,86.8662,0.013621
,,,,,,,,,246,79.4782,0.0527914
,,,,,,,,,269,94.4982,0.0207489
,,,,,,,,,293,133.287,0.0524705
,,,,,,,,,318,138.732,0.0548611
,,,,,,,,,344,116.29,0.0366945
,,,,,,,,,128,28.4595,0.0297619
,,,,,,,,,145,43.5095,0.0443686
,,,,,,,,,163,77.2409,0.0298816
,,,,,,,,,182,143.752,0.0351128
,,,,,,,,,202,92.4655,0.0265803
,,,,,,,,,223,165.309,0.00596625
,,,,,,,,,245,168.064,0.0131082
,,,,,,,,,268,123.441,0.0458406
,,,,,,,,,292,158.403,0.0195819
,,,,,,,,,317,74.3307,0.0455984
,,,,,,,,,343,117.586,0.0473931
,,,,,,,,,370,126.271,0.0331958
,,,,,,,,,162,71.1974,0.0446878
,,,,,,,,,181,48.8338,0.030026
,,,,,,,,,201,122.537,0.0353124
,,,,,,,,,222,120.897,0.0266946
,,,,,,,,,244,136.85,0.00597198
,,,,,,,,,267,162.843,0.0131359
,,,,,,,,,291,98.9379,0.0461814
,,,,,,,,,316,145.022,0.0196438
,,,,,,,,,342,71.629,0.0459356
,,,,,,,,,369,127.935,0.0477575
,,,,,,,,,397,119.237,0.0333741
,,,,,,,,,200,118.301,0.0449582
,,,,,,,,,221,155.772,0.0579473
,,,,,,,,,243,50.4158,0.0378799
,,,,,,,,,266,150.419,0.0063944
,,,,,,,,,290,124.558,0.0153691
,,,,,,,,,315,140.133,0.0944096
,,,,,,,,,341,126.986,0.0250973
,,,,,,,,,368,74.4239,0.093388
,,,,,,,,,396,84.3006,0.10124
,,,,,,,,,425,108.675,0.0529052
,,,,,,,,,242,81.5595,0.035481
,,,,,,,,,265,168.351,0.0267908
,,,,,,,,,289,88.0946,0.00597679
,,,,,,,,,314,114.09,0.0131592
,,,,,,,,,340,54.8503,0.0464702
,,,,,,,,,367,100.941,0.0196959
,,,,,,,,,395,74.4073,0.0462213
,,,,,,,,,424,119.058,0.0480664
,,,,,,,,,454,91.3346,0.0335247
,,,,,,,,,288,110.087,0.030921
,,,,,,,,,313,29.3132,0.00616036
,,,,,,,,,339,46.1633,0.0140831
,,,,,,,,,366,61.8019,0.0604838
,,,,,,,,,394,54.8637,0.0218407
,,,,,,,,,423,127.223,0.0600628
,,,,,,,,,453,98.3692,0.0632161
,,,,,,,,,484,82.8984,0.0402529
,,,,,,,,,338,102.216,0.00583191
,,,,,,,,,365,75.877,0.0124767
,,,,,,,,,393,130.252,0.0389476
,,,,,,,,,422,86.5935,0.0182055
,,,,,,,,,452,97.7487,0.0387726
,,,,,,,,,483,60.8513,0.0400626
,,,,,,,,,515,90.4245,0.0294246
,,,,,,,,,392,26.4186,0.0047588
,,,,,,,,,421,44.9732,0.00642412
,,,,,,,,,451,26.1337,0.00540786
,,,,,,,,,482,102.794,0.00641935
,,,,,,,,,514,70.3555,0.00645375
,,,,,,,,,547,53.997,0.00609857
,,,,,,,,,450,64.8206,0.0155419
,,,,,,,,,481,21.6036,0.0106844
,,,,,,,,,513,104.316,0.015514
,,,,,,,,,546,54.5065,0.0157165
,,,,,,,,,580,52.5893,0.0137643
,,,,,,,,,512,47.0041,0.0255616
,,,,,,,,,545,65.907,0.100157
,,,,,,,,,579,71.5957,0.109244
,,,,,,,,,614,41.5612,0.0550115
,,,,,,,,,578,84.4068,0.0254861
,,,,,,,,,613,44.2411,0.0260372
,,,,,,,,,649,32.2715,0.0210833
,,,,,,,,,648,57.5712,0.107878
,,,,,,,,,685,52.1571,0.054663
,,,,,,,,,722,30.1041,0.0572625
