facetNormals:0,facetNormals:1,facetNormals:2,FacetCenters:0,FacetCenters:1,FacetCenters:2,FacetIds,relFacetSize,absFacetSize,cellPairingIds,interplanarAngles,angleWeights
0.104269,0.2955,-0.924381,6.23403,5.27116,8.5435,1,0.0287654,0.00376685,8,55.3525,0.0422115
-0.668267,0.4929,-0.499541,6.13594,5.23646,8.5806,2,0.0792615,0.0103794,13,58.7172,0.040135
-0.343968,0.859084,-0.297048,6.18405,5.28861,8.57806,3,0.0663666,0.00869076,19,49.5237,0.0381028
0.499056,0.7444,-0.37042,6.24915,5.2798,8.5563,4,0.0564156,0.00738767,26,72.6122,0.0222695
0.676131,-0.569489,-0.413768,6.27344,5.19924,8.57985,5,0.018167,0.00237899,34,74.619,0.0159026
-0.92228,0.0578694,-0.363654,6.12591,5.20686,8.57412,6,0.0109888,0.00143899,43,107.313,0.0244364
-0.641231,-0.743132,-0.00145735,6.10824,5.13991,8.61168,7,0.02124,0.00278139,53,80.5834,0.0365306
0.972105,-0.0263774,-0.0671799,6.27378,5.20381,8.59782,8,0.0500383,0.00655256,64,102.737,0.0356713
-0.95298,-0.0162551,0.110681,6.1308,5.22733,8.67378,9,0.0469407,0.00614692,76,97.9055,0.0219987
0.932035,-0.294096,0.154822,6.27173,5.17906,8.60806,10,0.0178093,0.00233215,89,93.4582,0.0272766
0.839915,0.418482,0.291097,6.27942,5.28758,8.63519,11,0.0259343,0.00339611,103,120.003,0.0301395
0.69253,-0.567446,0.418544,6.24234,5.19927,8.66011,12,0.0316514,0.00414478,118,102.882,0.043417
0.0464644,0.782716,0.470739,6.207,5.30399,8.67869,13,0.0884882,0.0115876,134,115.382,0.0278854
0.839753,-0.153212,0.491595,6.24295,5.24757,8.68951,14,0.0270576,0.00354322,151,142.733,0.0347262
0.27138,-0.700246,0.631017,6.19393,5.13819,8.65154,15,0.0438033,0.00573608,169,123.965,0.0368348
-0.695887,0.320311,0.596742,6.12699,5.23622,8.6629,16,0.0511968,0.00670426,188,130.154,0.0285901
0.608893,0.0893036,0.766565,6.24151,5.24166,8.69012,17,0.0284169,0.00372122,208,156.834,0.0392485
-0.448215,-0.393969,0.766513,6.15244,5.1712,8.65895,18,0.0617536,0.00808668,229,165.531,0.0325833
0.0775501,-0.134624,0.961036,6.20164,5.20471,8.6939,19,0.0375697,0.00491979,18,31.6558,0.0722432
,,,,,,,,,25,76.5579,0.0659151
,,,,,,,,,33,123.776,0.029559
,,,,,,,,,42,30.8119,0.0193016
,,,,,,,,,52,86.2052,0.0335022
,,,,,,,,,63,131.755,0.0613476
,,,,,,,,,75,51.9155,0.0589624
,,,,,,,,,88,151.808,0.0290838
,,,,,,,,,102,121.709,0.0390812
,,,,,,,,,117,173.494,0.045238
,,,,,,,,,133,82.2444,0.0836211
,,,,,,,,,150,157.557,0.0403432
,,,,,,,,,168,152.314,0.0564242
,,,,,,,,,187,69.807,0.0622105
,,,,,,,,,207,141.528,0.0418351
,,,,,,,,,228,107.149,0.0694207
,,,,,,,,,250,129.357,0.0509767
,,,,,,,,,32,52.1831,0.0609879
,,,,,,,,,41,129.149,0.0285255
,,,,,,,,,51,60.5202,0.0188555
,,,,,,,,,62,115.949,0.0321808
,,,,,,,,,74,110.842,0.0570573
,,,,,,,,,87,72.466,0.0549884
,,,,,,,,,101,130.082,0.0280827
,,,,,,,,,116,90.9518,0.0372947
,,,,,,,,,132,152.244,0.0428614
,,,,,,,,,149,54.4643,0.0758473
,,,,,,,,,167,126.28,0.0384423
,,,,,,,,,186,157.751,0.0527744
,,,,,,,,,206,69.0611,0.057803
,,,,,,,,,227,112.164,0.0397946
,,,,,,,,,249,115.872,0.0639771
,,,,,,,,,272,116.882,0.0479789
,,,,,,,,,50,85.955,0.0274837
,,,,,,,,,61,107.058,0.0183946
,,,,,,,,,73,156.464,0.030861
,,,,,,,,,86,58.7503,0.0530359
,,,,,,,,,100,124.624,0.0512438
,,,,,,,,,115,78.649,0.0270724
,,,,,,,,,131,49.177,0.0355337
,,,,,,,,,148,103.998,0.0405517
,,,,,,,,,166,60.8887,0.0689025
,,,,,,,,,185,82.6058,0.0365739
,,,,,,,,,205,130.643,0.0493158
,,,,,,,,,226,110.507,0.0536797
,,,,,,,,,248,84.8,0.0377958
,,,,,,,,,271,148.231,0.058964
,,,,,,,,,295,116.247,0.0451032
,,,,,,,,,72,121.473,0.0136943
,,,,,,,,,85,90.583,0.0195837
,,,,,,,,,99,42.6231,0.0266562
,,,,,,,,,114,136.636,0.0261957
,,,,,,,,,130,40.5745,0.0179864
,,,,,,,,,147,77.4043,0.0213667
,,,,,,,,,165,50.1432,0.0230843
,,,,,,,,,184,133.029,0.0301451
,,,,,,,,,204,61.983,0.0217384
,,,,,,,,,225,70.3994,0.0256825
,,,,,,,,,247,161.694,0.0268178
,,,,,,,,,270,87.3923,0.0221643
,,,,,,,,,294,114.677,0.0280748
,,,,,,,,,319,106.417,0.0244912
,,,,,,,,,98,55.7265,0.0144841
,,,,,,,,,113,154.489,0.0180202
,,,,,,,,,129,28.4596,0.0178086
,,,,,,,,,146,161.691,0.0135914
,,,,,,,,,164,151.354,0.0154368
,,,,,,,,,183,147.066,0.0163137
,,,,,,,,,203,100.708,0.0195498
,,,,,,,,,224,169.59,0.0156299
,,,,,,,,,246,122.284,0.0175699
,,,,,,,,,269,62.6304,0.0180939
,,,,,,,,,293,148.816,0.0158488
,,,,,,,,,318,83.3427,0.0186575
,,,,,,,,,344,116.33,0.0170041
,,,,,,,,,128,129.117,0.0298215
,,,,,,,,,145,48.5865,0.0292464
,,,,,,,,,163,112.989,0.019374
,,,,,,,,,182,151.811,0.0233536
,,,,,,,,,202,91.3582,0.025421
,,,,,,,,,223,132.994,0.0342571
,,,,,,,,,245,116.098,0.0237984
,,,,,,,,,268,68.9744,0.0286081
,,,,,,,,,292,77.4369,0.0300239
,,,,,,,,,317,118.333,0.0243098
,,,,,,,,,343,52.6046,0.0316084
,,,,,,,,,370,87.0657,0.0271377
,,,,,,,,,162,176.327,0.04844
,,,,,,,,,181,20.5152,0.0262691
,,,,,,,,,201,34.8574,0.0341625
,,,,,,,,,222,46.7532,0.0387756
,,,,,,,,,244,90.4564,0.0639271
,,,,,,,,,267,34.918,0.0351229
,,,,,,,,,291,75.4701,0.0467137
,,,,,,,,,316,139.99,0.050611
,,,,,,,,,342,55.8401,0.0362483
,,,,,,,,,369,120.235,0.0552821
,,,,,,,,,397,89.132,0.0429168
,,,,,,,,,200,155.839,0.0258218
,,,,,,,,,221,145.293,0.0334099
,,,,,,,,,243,129.595,0.0378089
,,,,,,,,,266,90.32,0.0613414
,,,,,,,,,290,141.858,0.0343279
,,,,,,,,,315,100.864,0.0453177
,,,,,,,,,341,39.01,0.0489765
,,,,,,,,,368,121.787,0.0354021
,,,,,,,,,396,56.2103,0.0533378
,,,,,,,,,425,87.874,0.0417357
,,,,,,,,,242,43.5337,0.0211172
,,,,,,,,,265,26.2448,0.0227934
,,,,,,,,,289,97.2373,0.029651
,,,,,,,,,314,21.9849,0.0214803
,,,,,,,,,340,55.0114,0.025323
,,,,,,,,,367,132.6,0.0264261
,,,,,,,,,395,47.279,0.0218961
,,,,,,,,,424,100.988,0.0276458
,,,,,,,,,454,74.3007,0.0241641
,,,,,,,,,288,61.3185,0.028509
,,,,,,,,,313,55.9118,0.0401123
,,,,,,,,,339,35.8665,0.026484
,,,,,,,,,366,82.9322,0.0325795
,,,,,,,,,394,106.861,0.0344284
,,,,,,,,,423,36.9423,0.0271189
,,,,,,,,,453,109.475,0.0365281
,,,,,,,,,484,72.4415,0.030686
,,,,,,,,,338,103.757,0.0466254
,,,,,,,,,365,26.1027,0.0291748
,,,,,,,,,393,28.8162,0.0367488
,,,,,,,,,422,115.55,0.0391186
,,,,,,,,,452,44.5935,0.0299471
,,,,,,,,,483,75.8947,0.0418519
,,,,,,,,,515,56.4076,0.0343576
,,,,,,,,,392,80.3825,0.0414429
,,,,,,,,,421,105.414,0.058599
,,,,,,,,,451,55.7912,0.0648647
,,,,,,,,,482,59.2962,0.0430188
,,,,,,,,,514,87.9593,0.0727423
,,,,,,,,,547,66.8076,0.0527452
,,,,,,,,,450,48.0923,0.0334518
,,,,,,,,,481,110.827,0.0354041
,,,,,,,,,513,25.435,0.0277206
,,,,,,,,,546,86.358,0.0376282
,,,,,,,,,580,54.4032,0.0314587
,,,,,,,,,512,92.2016,0.0472123
,,,,,,,,,545,52.5435,0.0344711
,,,,,,,,,579,47.9734,0.0512522
,,,,,,,,,614,40.9034,0.0404478
,,,,,,,,,578,86.2564,0.0365479
,,,,,,,,,613,47.0172,0.0559819
,,,,,,,,,649,59.7384,0.0433373
,,,,,,,,,648,72.9819,0.0389229
,,,,,,,,,685,36.2366,0.0323585
,,,,,,,,,722,37.0336,0.0467175
