facetNormals:0,facetNormals:1,facetNormals:2,FacetCenters:0,FacetCenters:1,FacetCenters:2,FacetIds,relFacetSize,absFacetSize,cellPairingIds,interplanarAngles,angleWeights
0.278884,-0.161976,-0.932543,6.89277,4.17076,8.13566,1,0.0207021,0.00177873,8,54.1861,0.0342262
0.18512,0.670164,-0.6506,6.88105,4.22513,8.14844,2,0.0987115,0.00848132,13,34.4301,0.030556
0.284559,-0.65736,-0.637754,6.88929,4.14086,8.14398,3,0.0583113,0.00501013,19,62.0245,0.0328559
-0.600553,0.289015,-0.714945,6.84718,4.18332,8.13831,4,0.0795698,0.00683666,26,63.8038,0.0255472
-0.408983,-0.77392,-0.446979,6.87106,4.11472,8.16792,5,0.033353,0.0028657,34,85.3804,0.0166378
0.3557,0.909517,-0.135626,6.904,4.25332,8.19443,6,0.0139074,0.00119493,43,92.3542,0.0225307
-0.456978,-0.873744,0.0580316,6.85774,4.11159,8.19397,7,0.0247137,0.00212341,53,87.0943,0.0339849
0.801705,0.48358,0.105227,6.91981,4.2094,8.23922,8,0.0948276,0.00814762,64,125.499,0.035703
-0.724921,-0.455493,0.459288,6.84021,4.14672,8.23134,9,0.129642,0.0111389,76,123.649,0.0213081
-0.345253,-0.709607,0.601905,6.8514,4.16573,8.21864,10,0.0219506,0.001886,89,140.934,0.0360442
-0.627257,0.50478,0.505954,6.85612,4.22346,8.23281,11,0.139213,0.0119613,103,156.303,0.0206247
-0.049384,-0.167616,0.955155,6.90994,4.15999,8.29419,12,0.0205479,0.00176549,118,157.825,0.0209027
0.0600008,0.329102,0.919843,6.90836,4.19583,8.29748,13,0.0211073,0.00181354,18,88.3019,0.0733142
,,,,,,,,,25,53.9534,0.088113
,,,,,,,,,33,108.927,0.0498593
,,,,,,,,,42,35.5743,0.0243799
,,,,,,,,,52,138.823,0.0395304
,,,,,,,,,63,63.2328,0.0967306
,,,,,,,,,75,142.942,0.112082
,,,,,,,,,88,170.135,0.0359148
,,,,,,,,,102,96.7871,0.115515
,,,,,,,,,117,143.465,0.0340152
,,,,,,,,,133,113.176,0.034778
,,,,,,,,,32,84.1786,0.0673018
,,,,,,,,,41,44.0567,0.0424343
,,,,,,,,,51,115.706,0.0224584
,,,,,,,,,62,64.5343,0.0347145
,,,,,,,,,74,99.9971,0.0722158
,,,,,,,,,87,102.38,0.0804413
,,,,,,,,,101,90.9418,0.0318948
,,,,,,,,,116,155.974,0.0821945
,,,,,,,,,132,123.428,0.0303878
,,,,,,,,,149,146.845,0.0309951
,,,,,,,,,50,69.1764,0.0470036
,,,,,,,,,61,81.2734,0.0236766
,,,,,,,,,73,91.1618,0.0377138
,,,,,,,,,86,116.921,0.0865312
,,,,,,,,,100,91.4878,0.0986138
,,,,,,,,,115,116.186,0.034409
,,,,,,,,,131,80.0335,0.101262
,,,,,,,,,148,137.673,0.0326615
,,,,,,,,,166,128.731,0.0333641
,,,,,,,,,72,144.481,0.0196297
,,,,,,,,,85,30.4195,0.0283906
,,,,,,,,,99,144.002,0.0493489
,,,,,,,,,114,62.312,0.0530562
,,,,,,,,,130,64.4094,0.0264763
,,,,,,,,,147,112.673,0.0538133
,,,,,,,,,165,106.874,0.0254294
,,,,,,,,,184,135.861,0.0258534
,,,,,,,,,98,172.302,0.0177987
,,,,,,,,,113,40.085,0.0242573
,,,,,,,,,129,140.057,0.0251201
,,,,,,,,,146,150.28,0.0170269
,,,,,,,,,164,79.7168,0.0252885
,,,,,,,,,183,108.234,0.0165878
,,,,,,,,,203,78.2872,0.0167671
,,,,,,,,,128,147.262,0.0392088
,,,,,,,,,145,38.0292,0.0415136
,,,,,,,,,163,34.0002,0.0232503
,,,,,,,,,182,97.6506,0.0419756
,,,,,,,,,202,76.466,0.0224391
,,,,,,,,,223,105.699,0.0227685
,,,,,,,,,162,145.361,0.109535
,,,,,,,,,181,126.531,0.0356492
,,,,,,,,,201,103.263,0.112812
,,,,,,,,,222,91.2614,0.0337769
,,,,,,,,,244,70.7491,0.0345289
,,,,,,,,,200,28.1821,0.0375443
,,,,,,,,,221,60.341,0.134257
,,,,,,,,,243,54.2753,0.0354734
,,,,,,,,,266,76.0609,0.0363039
,,,,,,,,,242,80.0605,0.0379219
,,,,,,,,,265,42.4665,0.0212261
,,,,,,,,,289,72.0483,0.0215207
,,,,,,,,,288,62.2705,0.0358103
,,,,,,,,,313,50.3514,0.0366567
,,,,,,,,,338,30.3132,0.0208239
