facetNormals:0,facetNormals:1,facetNormals:2,FacetCenters:0,FacetCenters:1,FacetCenters:2,FacetIds,relFacetSize,absFacetSize,cellPairingIds,interplanarAngles,angleWeights
0.303526,0.199487,-0.861995,6.14095,4.09548,7.9329,1,0.116498,0.0194179,8,43.6098,0.0588656
-0.390174,0.354282,-0.823756,6.10303,4.1097,7.93509,2,0.0393828,0.00656436,13,62.6089,0.0552537
-0.190539,-0.653036,-0.708617,6.14318,4.03878,7.93939,3,0.0362151,0.00603637,19,67.0281,0.0534273
0.38869,-0.768657,-0.453227,6.15719,4.02903,7.95192,4,0.0346618,0.00577747,26,71.4836,0.0369515
-0.656393,0.594789,-0.433306,6.06778,4.15633,8.01629,5,0.0219582,0.00366002,34,55.4315,0.122903
0.0269056,0.891701,-0.381571,6.13478,4.18237,8.0154,6,0.130055,0.0216777,43,93.0055,0.0461634
-0.938304,0.0974489,-0.252284,6.15981,4.07918,8.03401,7,0.0287848,0.00479789,53,60.3284,0.0920076
0.903597,0.312498,-0.127663,6.23574,4.13064,8.009,8,0.0760256,0.012672,64,95.3989,0.0148767
-0.219317,0.938521,0.241417,6.08177,4.19798,8.07335,9,0.00794565,0.00132439,76,110.025,0.107113
-0.122901,-0.935786,0.0925512,6.13322,4.02912,7.9986,10,0.0991275,0.0165227,89,116.621,0.0617819
-0.816239,0.424781,0.278335,6.03301,4.12888,8.0148,11,0.0420379,0.00700692,103,95.0865,0.0814486
0.865356,-0.211025,0.347872,6.23697,4.06904,8.04196,12,0.0626116,0.0104362,118,156.513,0.0765006
-0.473025,-0.487844,0.670933,6.11052,4.05333,8.02904,13,0.0569485,0.00949224,134,121.286,0.0612977
0.182613,0.591866,0.748975,6.1452,4.18575,8.11232,14,0.0415908,0.0069324,151,135.767,0.0470676
0.416648,-0.262546,0.84924,6.19311,4.10474,8.10331,15,0.0294914,0.00491566,18,63.627,0.0377326
,,,,,,,,,25,93.0491,0.0368718
,,,,,,,,,33,31.3231,0.0281957
,,,,,,,,,42,49.2213,0.0604579
,,,,,,,,,52,50.4199,0.03326
,,,,,,,,,63,98.3316,0.051887
,,,,,,,,,75,76.9617,0.0132234
,,,,,,,,,88,112.829,0.05637
,,,,,,,,,102,75.2289,0.040667
,,,,,,,,,117,138.371,0.048352
,,,,,,,,,133,125.4,0.0465641
,,,,,,,,,150,120.231,0.0404567
,,,,,,,,,168,174.223,0.0337268
,,,,,,,,,32,38.4197,0.0354214
,,,,,,,,,41,87.4143,0.0273396
,,,,,,,,,51,109.43,0.0566542
,,,,,,,,,62,72.1566,0.0320753
,,,,,,,,,74,107.554,0.0490602
,,,,,,,,,87,139.502,0.0130321
,,,,,,,,,101,52.3572,0.0530493
,,,,,,,,,116,109.75,0.0389099
,,,,,,,,,132,106.934,0.0458881
,,,,,,,,,149,94.0791,0.0442747
,,,,,,,,,167,175.72,0.0387172
,,,,,,,,,186,121.91,0.0325092
,,,,,,,,,50,122.518,0.0268849
,,,,,,,,,61,122.112,0.0547356
,,,,,,,,,73,110.013,0.0314511
,,,,,,,,,86,79.6375,0.0476149
,,,,,,,,,100,161.31,0.0129278
,,,,,,,,,115,46.9938,0.0513634
,,,,,,,,,131,145.372,0.0379952
,,,,,,,,,148,68.514,0.0446213
,,,,,,,,,166,96.9807,0.0430942
,,,,,,,,,185,139.883,0.0378115
,,,,,,,,,205,91.268,0.0318683
,,,,,,,,,72,44.8731,0.0375727
,,,,,,,,,85,35.5774,0.0249123
,,,,,,,,,99,111.715,0.0340747
,,,,,,,,,114,52.4166,0.0116689
,,,,,,,,,130,123.491,0.0359524
,,,,,,,,,147,45.2121,0.0288479
,,,,,,,,,165,153.554,0.0325137
,,,,,,,,,184,106.687,0.0316953
,,,,,,,,,204,95.5305,0.0287419
,,,,,,,,,225,145.482,0.0251733
,,,,,,,,,98,80.406,0.0471369
,,,,,,,,,113,67.9291,0.0959576
,,,,,,,,,129,39.9674,0.0149763
,,,,,,,,,146,161.588,0.112504
,,,,,,,,,164,74.4145,0.0635382
,,,,,,,,,183,108.71,0.0845289
,,,,,,,,,203,139.423,0.0792117
,,,,,,,,,224,74.8226,0.0630262
,,,,,,,,,246,125.044,0.0480801
,,,,,,,,,128,146.47,0.0417589
,,,,,,,,,145,75.9016,0.0124536
,,,,,,,,,163,89.9519,0.0446144
,,,,,,,,,182,38.2652,0.0341713
,,,,,,,,,202,170.255,0.0394384
,,,,,,,,,223,75.9085,0.0382407
,,,,,,,,,245,108.594,0.0340227
,,,,,,,,,268,131.147,0.0291338
,,,,,,,,,162,86.1536,0.0143876
,,,,,,,,,181,117,0.086053
,,,,,,,,,201,133.674,0.0541396
,,,,,,,,,222,43.2732,0.0686697
,,,,,,,,,244,136.263,0.0651186
,,,,,,,,,267,74.2581,0.0537674
,,,,,,,,,291,78.671,0.0424975
,,,,,,,,,200,151.613,0.014712
,,,,,,,,,221,47.5342,0.0133651
,,,,,,,,,243,108.652,0.0141017
,,,,,,,,,266,101.683,0.0139456
,,,,,,,,,290,43.8636,0.0133423
,,,,,,,,,315,97.8229,0.0125185
,,,,,,,,,242,107.321,0.0590387
,,,,,,,,,265,82.1845,0.0767474
,,,,,,,,,289,50.4417,0.0723386
,,,,,,,,,314,123.37,0.0585964
,,,,,,,,,340,72.9432,0.0454585
,,,,,,,,,288,139.514,0.0503024
,,,,,,,,,313,66.5296,0.0483702
,,,,,,,,,339,70.5691,0.0418132
,,,,,,,,,366,103.183,0.0346643
,,,,,,,,,338,94.5847,0.0596459
,,,,,,,,,365,71.5794,0.0499809
,,,,,,,,,393,40.7289,0.0400965
,,,,,,,,,392,82.1106,0.0480729
,,,,,,,,,421,57.711,0.0388592
,,,,,,,,,450,54.3015,0.0345114
