Q	U	V
{$V$}	{[mm$^3$]}	0.0128458
{$d_v$}	{[mm]}	0.290572
{$S_c$}	{[mm$^2$]}	0.624009
{$S_o$}	{[mm$^2$]}	0.378208
{$S_l/S_o$}	[]	0.649910
{$\Psi$}	[]	0.425077
{$\eta$}	[]	0.443511
{med($\theta_e$)}	{[$^\circ$]}	81.332
{$\Upsilon$}	[]	12
{$\Xi$}	[]	7
