"cellPairingIds","interplanarAngles","angleWeights"
8,104.887,0.0360916
13,94.994,0.0282573
19,73.1046,0.0336373
26,90.2874,0.0310107
34,130.489,0.0366052
43,52.0491,0.0349606
64,80.4656,0.0274229
18,50.8724,0.0491183
42,28.4461,0.0813773
88,57.6815,0.0854732
32,48.5247,0.0446815
101,38.1823,0.0515958
149,49.4419,0.0390289
100,48.8031,0.0426306
166,45.2362,0.0500956
72,100.573,0.0594245
85,73.266,0.0552085
99,63.2004,0.0557907
147,36.8499,0.0303032
165,43.5086,0.0532117
113,38.0535,0.0769481
146,53.5469,0.0884107
164,75.6152,0.0356233
246,72.7211,0.0310307
145,38.4998,0.0447786
202,53.5945,0.0660085
201,39.8484,0.0342847
243,57.7231,0.043456
266,59.4446,0.0374549
290,28.5224,0.0328693
341,48.6637,0.0168629
289,33.1392,0.0589531
340,79.5759,0.0316083
367,60.2827,0.0201753
288,47.3831,0.0332931
366,24.5254,0.020662
365,34.7707,0.0430274
393,49.4468,0.0292475
451,39.0716,0.0179191
450,62.1348,0.0240369
481,33.2041,0.016798
512,51.6367,0.0141882
