facetNormals:0,facetNormals:1,facetNormals:2,FacetCenters:0,FacetCenters:1,FacetCenters:2,FacetIds,relFacetSize,absFacetSize,cellPairingIds,interplanarAngles,angleWeights
0.233878,0.0723832,-0.947815,7.05335,6.28983,8.18928,1,0.0227973,0.00473603,8,41.0229,0.0245397
-0.359111,-0.254064,-0.862326,7.01704,6.29803,8.2206,2,0.0265706,0.00551992,13,38.3495,0.0357824
-0.130245,0.561509,-0.765281,7.06098,6.34219,8.22237,3,0.0831351,0.0172709,19,63.4632,0.0121981
-0.749758,-0.0365312,-0.644253,7.021,6.30693,8.16967,4,0.00832672,0.00172984,26,65.4274,0.031885
-0.499321,0.641785,-0.479677,7.0311,6.35563,8.25817,5,0.0530208,0.0110148,34,81.9107,0.0303185
0.0639623,0.954506,-0.0505515,7.04314,6.38651,8.2766,6,0.0452459,0.00939963,43,104.58,0.0206892
-0.821475,0.50089,0.0867215,7.00901,6.32593,8.23676,7,0.0189381,0.00393429,53,103.034,0.021653
-0.360603,0.883884,0.205996,6.99902,6.40638,8.30931,8,0.0206181,0.00428331,64,107.284,0.0339783
-0.0197829,-0.943048,0.220331,7.01259,6.42056,8.23632,9,0.0666835,0.0138532,76,116.03,0.0325196
0.484635,0.576595,0.600114,6.97441,6.38319,8.21892,10,0.0567007,0.0117793,89,130.928,0.0357764
-0.470744,-0.672191,0.473582,6.99845,6.32125,8.26362,11,0.0830707,0.0172576,103,131.204,0.0399098
0.430301,-0.451488,0.719583,7.08203,6.31575,8.27913,12,0.160046,0.0332489,18,52.5443,0.0402705
,,,,,,,,,25,29.4233,0.0126798
,,,,,,,,,33,61.9407,0.0354007
,,,,,,,,,42,103.843,0.0334801
,,,,,,,,,52,84.2951,0.0221143
,,,,,,,,,63,106.766,0.0232189
,,,,,,,,,75,86.5333,0.0379999
,,,,,,,,,88,154.013,0.0361846
,,,,,,,,,102,94.2863,0.0402629
,,,,,,,,,117,135.752,0.0455749
,,,,,,,,,32,53.0143,0.0151373
,,,,,,,,,41,28.8179,0.0647477
,,,,,,,,,51,51.9006,0.0585994
,,,,,,,,,62,69.6486,0.0308488
,,,,,,,,,74,65.6597,0.0330416
,,,,,,,,,87,138.547,0.0740061
,,,,,,,,,101,102.431,0.0674193
,,,,,,,,,116,138.374,0.0831029
,,,,,,,,,132,160.544,0.109428
,,,,,,,,,50,45.0354,0.0143931
,,,,,,,,,61,93.0401,0.014065
,,,,,,,,,73,55.4656,0.0115674
,,,,,,,,,86,83.7386,0.0118626
,,,,,,,,,100,95.5497,0.0148048
,,,,,,,,,115,144.034,0.014521
,,,,,,,,,131,85.5701,0.0151362
,,,,,,,,,148,144.798,0.0158299
,,,,,,,,,72,48.0234,0.0488258
,,,,,,,,,85,40.834,0.0279079
,,,,,,,,,99,45.3007,0.0296905
,,,,,,,,,114,140.049,0.0590724
,,,,,,,,,130,100.123,0.054799
,,,,,,,,,147,118.259,0.0647281
,,,,,,,,,165,160.951,0.0796536
,,,,,,,,,98,62.9284,0.0267004
,,,,,,,,,113,30.002,0.0283276
,,,,,,,,,129,169.548,0.0539118
,,,,,,,,,146,53.326,0.0503298
,,,,,,,,,164,140.034,0.0585834
,,,,,,,,,183,118.823,0.0705477
,,,,,,,,,128,36.6586,0.0197424
,,,,,,,,,145,117.84,0.0294986
,,,,,,,,,163,93.5288,0.0283929
,,,,,,,,,182,84.2891,0.0308444
,,,,,,,,,202,124.211,0.0338685
,,,,,,,,,162,145.653,0.0314974
,,,,,,,,,181,60.8231,0.03024
,,,,,,,,,201,110.684,0.0330365
,,,,,,,,,222,115.886,0.0365301
,,,,,,,,,200,116.835,0.0612882
,,,,,,,,,221,35.4579,0.0739805
,,,,,,,,,243,51.373,0.0941425
,,,,,,,,,242,111.304,0.0673981
,,,,,,,,,265,65.5179,0.0837357
,,,,,,,,,288,60.6883,0.109373
