Q	U	V
{$V$}	{[mm$^3$]}	0.00329873
{$d_v$}	{[mm]}	0.184693
{$S_c$}	{[mm$^2$]}	0.14268
{$S_o$}	{[mm$^2$]}	0.0921274
{$S_l/S_o$}	[]	0.548725
{$\Psi$}	[]	0.751079
{$\eta$}	[]	0.754899
{med($\theta_e$)}	{[$^\circ$]}	53.6665
{$\Upsilon$}	[]	15
{$\Xi$}	[]	7
