facetNormals:0,facetNormals:1,facetNormals:2,FacetCenters:0,FacetCenters:1,FacetCenters:2,FacetIds,relFacetSize,absFacetSize,cellPairingIds,interplanarAngles,angleWeights
-0.0171384,0.126047,-0.976201,5.83315,3.93363,9.08543,1,0.0321536,0.00576741,8,20.6454,0.023
-0.358986,0.0511011,-0.922436,5.76424,3.92026,9.02056,2,0.0179032,0.00321131,13,39.225,0.0494089
0.5586,0.225438,-0.705294,5.8484,3.96124,9.04653,3,0.106635,0.0191273,19,46.8168,0.0396521
-0.69707,0.253696,-0.623953,5.75052,3.96407,9.05645,4,0.0517117,0.00927556,26,60.6287,0.0395547
-0.624185,-0.506498,-0.530923,5.75677,3.90015,9.07842,5,0.0513817,0.00921639,34,64.2223,0.0351227
0.263166,-0.773948,-0.532385,5.82314,3.8982,9.04058,6,0.038696,0.00694094,43,77.2313,0.032842
-0.944633,0.190897,-0.177166,5.72677,3.95709,9.08767,7,0.0335605,0.00601978,53,87.5852,0.0221232
0.18681,0.943009,0.0775026,5.84078,3.96319,9.08793,8,0.0168628,0.0030247,64,75.4516,0.0119589
-0.224741,0.945996,-0.122155,5.80891,3.96588,9.16557,9,0.00734548,0.00131756,76,94.346,0.0177484
-0.778167,0.573584,0.162638,5.7023,3.97197,9.13488,10,0.012257,0.00219856,89,101.109,0.0490648
0.373704,-0.894451,0.0667415,5.82725,3.89923,9.09411,11,0.103501,0.0185651,103,100.928,0.0245404
0.884439,0.328235,0.211695,5.88415,3.9625,9.11195,12,0.0198422,0.00355911,118,101.951,0.0402923
-0.71806,-0.616851,0.132561,5.70327,3.90464,9.11731,13,0.0539475,0.00967661,134,121.32,0.0215809
-0.462114,0.609447,0.594671,5.81014,3.96455,9.15076,14,0.0162407,0.00291311,151,134.011,0.0455326
-0.549932,-0.491641,0.622442,5.74538,3.92807,9.13025,15,0.0779797,0.0139873,169,141.077,0.0503634
0.509126,-0.432016,0.686822,5.85073,3.96014,9.15624,16,0.116136,0.0208313,18,59.8614,0.030659
,,,,,,,,,25,29.1868,0.0265979
,,,,,,,,,33,43.9049,0.026554
,,,,,,,,,42,68.3282,0.0244803
,,,,,,,,,52,58.1647,0.0233501
,,,,,,,,,63,95.4244,0.0173675
,,,,,,,,,75,75.5909,0.010417
,,,,,,,,,88,80.6032,0.0145516
,,,,,,,,,102,104.518,0.0305261
,,,,,,,,,117,121.171,0.0188229
,,,,,,,,,133,83.6994,0.0268844
,,,,,,,,,150,111.473,0.0170315
,,,,,,,,,168,114.84,0.0291206
,,,,,,,,,187,152.014,0.0310238
,,,,,,,,,32,83.1084,0.0696482
,,,,,,,,,41,95.6776,0.0693483
,,,,,,,,,51,67.3801,0.0567856
,,,,,,,,,62,113.313,0.0510534
,,,,,,,,,74,72.9505,0.0291207
,,,,,,,,,87,78.9715,0.0137442
,,,,,,,,,101,117.517,0.0219868
,,,,,,,,,116,92.5416,0.105045
,,,,,,,,,132,62.1641,0.0334586
,,,,,,,,,149,135.62,0.0716479
,,,,,,,,,167,126.95,0.0281883
,,,,,,,,,186,163.204,0.0900836
,,,,,,,,,206,109.557,0.111183
,,,,,,,,,50,46.9133,0.0515462
,,,,,,,,,61,92.8859,0.0442669
,,,,,,,,,73,30.6118,0.0407042
,,,,,,,,,86,86.2797,0.0254324
,,,,,,,,,100,60.1446,0.0128637
,,,,,,,,,115,51.8886,0.0198169
,,,,,,,,,131,124.174,0.0689662
,,,,,,,,,148,135.229,0.0286797
,,,,,,,,,166,73.6173,0.0528059
,,,,,,,,,185,83.5378,0.0247183
,,,,,,,,,205,97.9725,0.0621855
,,,,,,,,,226,164.112,0.0715599
,,,,,,,,,72,57.1051,0.0441456
,,,,,,,,,85,51.5488,0.0406016
,,,,,,,,,99,133.147,0.0253923
,,,,,,,,,114,106.873,0.0128534
,,,,,,,,,130,83.3811,0.0197926
,,,,,,,,,147,78.6421,0.0686722
,,,,,,,,,165,153.111,0.0286288
,,,,,,,,,184,41.444,0.0526334
,,,,,,,,,204,111.099,0.0246804
,,,,,,,,,225,73.6459,0.0619463
,,,,,,,,,247,120.16,0.0712434
,,,,,,,,,98,108.418,0.0359458
,,,,,,,,,113,140.113,0.0234895
,,,,,,,,,129,139.437,0.0123472
,,,,,,,,,146,140.253,0.0186171
,,,,,,,,,164,37.1967,0.0563314
,,,,,,,,,183,98.1668,0.0262329
,,,,,,,,,203,76.4885,0.0450664
,,,,,,,,,224,164.305,0.0228791
,,,,,,,,,246,95.8273,0.0517246
,,,,,,,,,269,83.6911,0.05805
,,,,,,,,,128,90.6172,0.022447
,,,,,,,,,145,64.4253,0.0120529
,,,,,,,,,163,31.8706,0.0179561
,,,,,,,,,182,124.23,0.050686
,,,,,,,,,202,148.795,0.0249394
,,,,,,,,,223,55.0126,0.0413792
,,,,,,,,,245,61.8746,0.0218889
,,,,,,,,,268,70.5222,0.0469255
,,,,,,,,,292,136.877,0.0520731
,,,,,,,,,162,27.1982,0.0102333
,,,,,,,,,181,64.426,0.0141957
,,,,,,,,,201,145.089,0.0290008
,,,,,,,,,222,58.2156,0.0182316
,,,,,,,,,244,139.937,0.0256942
,,,,,,,,,267,55.1095,0.0165459
,,,,,,,,,291,123.82,0.0277293
,,,,,,,,,316,106.285,0.0294496
,,,,,,,,,200,43.4319,0.00918594
,,,,,,,,,221,170.19,0.0137174
,,,,,,,,,243,84.7996,0.0107218
,,,,,,,,,266,117.902,0.0129304
,,,,,,,,,290,50.1983,0.0101157
,,,,,,,,,315,116.196,0.0134262
,,,,,,,,,341,130.289,0.013817
,,,,,,,,,242,146.357,0.0219184
,,,,,,,,,265,119.418,0.0151534
,,,,,,,,,289,76.0111,0.0199756
,,,,,,,,,314,31.9469,0.0139704
,,,,,,,,,340,74.8565,0.0211843
,,,,,,,,,367,124.53,0.0221738
,,,,,,,,,288,86.8846,0.0333004
,,,,,,,,,313,71.6601,0.0709264
,,,,,,,,,339,136.084,0.0280759
,,,,,,,,,366,72.8989,0.0889459
,,,,,,,,,394,48.0236,0.109455
,,,,,,,,,338,151.152,0.0290132
,,,,,,,,,365,95.0702,0.0178617
,,,,,,,,,393,123.569,0.0316348
,,,,,,,,,422,60.6539,0.0338936
,,,,,,,,,392,87.8515,0.0249656
,,,,,,,,,421,32.2024,0.0637747
,,,,,,,,,451,90.5036,0.0736725
,,,,,,,,,450,69.6845,0.0268826
,,,,,,,,,481,95.5735,0.0284964
,,,,,,,,,512,67.0894,0.0933076
