"cellPairingIds","interplanarAngles","angleWeights"
8,46.7362,0.0651835
19,77.9737,0.0712852
34,38.3035,0.016157
53,48.0346,0.0285133
118,99.9155,0.0918696
25,58.1473,0.0674327
52,53.7419,0.0286233
63,43.8119,0.0278763
102,77.9036,0.0403083
32,28.1989,0.021996
51,70.5339,0.010715
87,65.8302,0.0223636
61,97.1995,0.0162917
73,29.9353,0.0297411
100,88.8927,0.0783142
115,53.268,0.0884679
129,53.2028,0.0164925
203,67.9212,0.017171
163,62.9206,0.0318364
182,118.592,0.0229344
223,167.245,0.0328081
201,35.1434,0.0224523
244,96.7451,0.0318304
200,63.5459,0.0947315
266,63.2221,0.103886
289,108.16,0.122544
313,67.5236,0.0491341
