facetNormals:0,facetNormals:1,facetNormals:2,FacetCenters:0,FacetCenters:1,FacetCenters:2,FacetIds,relFacetSize,absFacetSize,cellPairingIds,interplanarAngles,angleWeights
0.315222,0.185846,-0.863634,7.63972,4.67193,5.56413,1,0.0673532,0.0252997,8,65.317,0.0483054
-0.403267,-0.508635,-0.684469,7.47936,4.53945,5.48334,2,0.0376561,0.0141447,13,41.2747,0.0288705
0.655871,-0.360195,-0.643873,7.6695,4.60872,5.48759,3,0.0183729,0.00690139,19,48.7803,0.0243796
-0.0878234,0.801451,-0.563581,7.62638,4.77595,5.55322,4,0.0148834,0.00559064,26,97.4321,0.0314935
-0.265915,-0.922187,-0.15884,7.62144,4.56911,5.47632,5,0.0205515,0.00771973,34,56.1617,0.0663003
0.857415,0.391138,-0.183536,7.72574,4.73092,5.52939,6,0.0652799,0.0245209,43,90.6829,0.0672962
-0.887088,0.149645,-0.279387,7.42917,4.60914,5.51779,7,0.0672393,0.025257,53,64.7589,0.034841
0.943497,-0.237836,-0.163775,7.72695,4.68883,5.55824,8,0.0234982,0.00882657,64,77.5515,0.0294728
-0.136302,0.959726,-0.0707682,7.6032,4.76772,5.56662,9,0.0188636,0.0070857,76,85.9984,0.0870055
0.470124,-0.822394,-0.0774129,7.60086,4.54761,5.52067,10,0.122851,0.0461463,89,112.389,0.0542934
-0.796882,0.520728,0.225925,7.48094,4.72317,5.54867,11,0.0454757,0.0170819,103,100.323,0.0351436
-0.414501,0.868593,0.228121,7.57027,4.77483,5.58186,12,0.0237742,0.00893027,118,93.7529,0.0440032
0.860783,0.165863,0.418939,7.71367,4.67453,5.52589,13,0.0326754,0.0122738,134,123.299,0.0426395
0.458917,-0.571253,0.61496,7.60036,4.57213,5.57573,14,0.0311937,0.0117172,151,158.524,0.0641941
-0.52753,-0.394242,0.677585,7.54481,4.61771,5.58878,15,0.0613181,0.0230328,169,123.447,0.0200864
0.58975,-0.0752129,0.791754,7.61314,4.59573,5.58248,16,0.0118032,0.00443361,188,151.79,0.047451
0.0249874,-0.507463,0.837071,7.52486,4.57531,5.60828,17,0.0366279,0.0137585,208,143.643,0.0164601
0.277564,-0.0978082,0.950784,7.66478,4.65986,5.6423,18,0.00937571,0.00352178,229,144.6,0.0716537
-0.0428711,0.31953,0.896649,7.58733,4.71718,5.62859,19,0.0765409,0.0287509,18,67.2951,0.0246962
,,,,,,,,,25,89.1649,0.0213345
,,,,,,,,,33,41.7142,0.0265907
,,,,,,,,,42,117.563,0.0477615
,,,,,,,,,52,57.8506,0.0482761
,,,,,,,,,63,99.1127,0.0289383
,,,,,,,,,75,114.812,0.0251357
,,,,,,,,,88,71.6875,0.0576434
,,,,,,,,,102,96.1044,0.0411981
,,,,,,,,,117,117.497,0.0291467
,,,,,,,,,133,141.598,0.0349894
,,,,,,,,,150,110.46,0.0341216
,,,,,,,,,168,93.2496,0.0466587
,,,,,,,,,187,142.552,0.0179728
,,,,,,,,,207,110.595,0.0371349
,,,,,,,,,228,139.411,0.0150134
,,,,,,,,,250,147.607,0.0504783
,,,,,,,,,32,89.0208,0.0164451
,,,,,,,,,41,74.2894,0.0194013
,,,,,,,,,51,55.2939,0.0286753
,,,,,,,,,62,119.353,0.02886
,,,,,,,,,74,33.7441,0.0206219
,,,,,,,,,87,113.953,0.018615
,,,,,,,,,101,45.7744,0.0319653
,,,,,,,,,116,152.371,0.026172
,,,,,,,,,132,138.529,0.0207275
,,,,,,,,,149,75.8123,0.0235206
,,,,,,,,,167,83.2621,0.0231252
,,,,,,,,,186,133.347,0.0282741
,,,,,,,,,206,95.6306,0.0143729
,,,,,,,,,227,110.581,0.024471
,,,,,,,,,249,113.699,0.0124157
,,,,,,,,,272,139.999,0.0296328
,,,,,,,,,50,130.873,0.0172642
,,,,,,,,,61,68.7954,0.0242402
,,,,,,,,,73,67.4542,0.0243721
,,,,,,,,,86,100.758,0.018224
,,,,,,,,,100,30.8253,0.0166388
,,,,,,,,,115,134.625,0.0265503
,,,,,,,,,131,68.0344,0.0224269
,,,,,,,,,148,51.6288,0.0183065
,,,,,,,,,166,100.781,0.0204514
,,,,,,,,,185,153.852,0.0201518
,,,,,,,,,205,134.502,0.0239529
,,,,,,,,,226,124.974,0.0131655
,,,,,,,,,248,156.102,0.0211662
,,,,,,,,,271,130.713,0.0115043
,,,,,,,,,295,105.183,0.024921
,,,,,,,,,72,126.804,0.0312613
,,,,,,,,,85,81.0689,0.031481
,,,,,,,,,99,90.3311,0.0219263
,,,,,,,,,114,152.353,0.0196714
,,,,,,,,,130,45.7064,0.0352125
,,,,,,,,,147,108.639,0.0283094
,,,,,,,,,165,139.076,0.0220457
,,,,,,,,,184,118.321,0.0252327
,,,,,,,,,204,70.732,0.0247783
,,,,,,,,,225,64.4666,0.0307851
,,,,,,,,,247,102.79,0.0149946
,,,,,,,,,270,69.8354,0.0263297
,,,,,,,,,294,97.9929,0.0128769
,,,,,,,,,319,117.338,0.0324028
,,,,,,,,,98,136.018,0.0662451
,,,,,,,,,113,38.0513,0.0345571
,,,,,,,,,129,73.0853,0.0292694
,,,,,,,,,146,83.9846,0.0852566
,,,,,,,,,164,123.689,0.0536072
,,,,,,,,,183,93.473,0.0348548
,,,,,,,,,203,38.8941,0.0435514
,,,,,,,,,224,86.4309,0.0422151
,,,,,,,,,246,143.67,0.063237
,,,,,,,,,269,69.6282,0.0199917
,,,,,,,,,293,110.594,0.046926
,,,,,,,,,318,88.4872,0.0163965
,,,,,,,,,344,94.787,0.0704633
,,,,,,,,,128,152.814,0.0348258
,,,,,,,,,145,71.9095,0.0294619
,,,,,,,,,163,125.387,0.0869104
,,,,,,,,,182,38.4573,0.0542564
,,,,,,,,,202,62.2418,0.035128
,,,,,,,,,223,159.241,0.0439789
,,,,,,,,,245,137.501,0.0426167
,,,,,,,,,268,75.7128,0.0641424
,,,,,,,,,292,144.11,0.0200813
,,,,,,,,,317,111.094,0.0474227
,,,,,,,,,343,124.163,0.0164567
,,,,,,,,,370,100.571,0.0715892
,,,,,,,,,162,111.102,0.0209274
,,,,,,,,,181,45.9675,0.0394505
,,,,,,,,,201,160.988,0.0309855
,,,,,,,,,222,130.593,0.0236354
,,,,,,,,,244,42.7392,0.0273371
,,,,,,,,,267,60.2666,0.0268045
,,,,,,,,,291,123.525,0.0339761
,,,,,,,,,316,62.9263,0.0157135
,,,,,,,,,342,89.5744,0.0286295
,,,,,,,,,369,82.4267,0.0134035
,,,,,,,,,397,106.263,0.0359574
,,,,,,,,,200,156.612,0.0327054
,,,,,,,,,221,51.4674,0.026666
,,,,,,,,,243,24.6166,0.0210362
,,,,,,,,,266,89.2592,0.0239188
,,,,,,,,,290,134.728,0.0235101
,,,,,,,,,315,112.7,0.0288515
,,,,,,,,,341,102.519,0.0145206
,,,,,,,,,368,125.279,0.0249023
,,,,,,,,,396,101.871,0.0125258
,,,,,,,,,425,74.3999,0.0302677
,,,,,,,,,242,151.911,0.0663797
,,,,,,,,,265,170.378,0.0398388
,,,,,,,,,289,75.2031,0.0516208
,,,,,,,,,314,45.4412,0.0497541
,,,,,,,,,340,88.4837,0.0818052
,,,,,,,,,367,72.8292,0.0215371
,,,,,,,,,395,66.9572,0.0564309
,,,,,,,,,424,81.653,0.0174218
,,,,,,,,,454,112.896,0.094318
,,,,,,,,,288,30.4598,0.0312246
,,,,,,,,,313,122.085,0.0380272
,,,,,,,,,339,124.064,0.0370045
,,,,,,,,,366,66.5311,0.0522218
,,,,,,,,,394,109.933,0.0187419
,,,,,,,,,423,95.6938,0.0405751
,,,,,,,,,453,93.3741,0.0155463
,,,,,,,,,484,64.3783,0.0570537
,,,,,,,,,338,97.0027,0.027523
,,,,,,,,,365,125.253,0.0269832
,,,,,,,,,393,88.1116,0.0342638
,,,,,,,,,422,97.579,0.0157747
,,,,,,,,,452,105.583,0.0288334
,,,,,,,,,483,89.0171,0.013448
,,,,,,,,,515,57.969,0.0362797
,,,,,,,,,392,53.1107,0.0319173
,,,,,,,,,421,104.871,0.0426326
,,,,,,,,,451,30.7341,0.017342
,,,,,,,,,482,72.3776,0.0345389
,,,,,,,,,514,50.0431,0.0145706
,,,,,,,,,547,64.9665,0.0457991
,,,,,,,,,450,63.7486,0.0413513
,,,,,,,,,481,32.3103,0.0171261
,,,,,,,,,513,29.3947,0.0336931
,,,,,,,,,546,36.2373,0.0144179
,,,,,,,,,580,67.4743,0.0443236
,,,,,,,,,512,74.1818,0.0197959
,,,,,,,,,545,35.4133,0.045861
,,,,,,,,,579,55.2262,0.0162645
,,,,,,,,,614,55.9437,0.068089
,,,,,,,,,578,42.4256,0.0178532
,,,,,,,,,613,20.3685,0.0104503
,,,,,,,,,649,45.5554,0.0204525
,,,,,,,,,648,28.9937,0.0149298
,,,,,,,,,685,50.987,0.049546
,,,,,,,,,722,31.412,0.0167052
