"cellPairingIds","interplanarAngles","angleWeights"
8,45.3242,0.0361767
19,50.9041,0.0442102
26,146.03,0.0422308
34,60.0626,0.0308324
43,88.4755,0.0455712
53,129.854,0.0304783
33,127.549,0.0705335
52,56.7961,0.0803735
88,118.94,0.0285097
61,23.7972,0.0558385
86,109.393,0.0546879
115,106.944,0.0332747
99,53.5227,0.0516908
130,59.2808,0.0321408
98,42.1966,0.0580274
146,93.7585,0.0250834
163,66.772,0.0340399
181,66.897,0.0248485
