facetNormals:0,facetNormals:1,facetNormals:2,FacetCenters:0,FacetCenters:1,FacetCenters:2,FacetIds,relFacetSize,absFacetSize,cellPairingIds,interplanarAngles,angleWeights
-0.161513,-0.182501,-0.95804,6.2763,7.0623,5.61026,1,0.0106232,0.000441023,8,52.4165,0.0127355
0.613443,0.0726931,-0.70914,6.28753,7.05752,5.60567,2,0.0158962,0.000659929,13,48.3164,0.00757195
0.502966,-0.5192,-0.655485,6.29412,7.05049,5.61744,3,0.00588237,0.000244206,19,34.75,0.0186438
-0.468562,-0.566169,-0.638582,6.25747,7.04697,5.61042,4,0.0760989,0.00315924,26,50.7791,0.0184968
-0.852541,-0.0962605,-0.479063,6.23647,7.10545,5.59678,5,0.0714623,0.00296675,34,89.5685,0.00639406
0.936016,0.229124,-0.20911,6.33073,7.11136,5.69812,6,0.00457337,0.000189863,43,62.6395,0.00796911
-0.530179,-0.821273,-0.230451,6.26089,7.01531,5.63917,7,0.0063761,0.000264703,53,75.9389,0.0107389
-0.742228,0.609108,-0.238951,6.24571,7.1621,5.5918,8,0.0108571,0.00045073,64,72.8931,0.0136744
-0.297507,-0.933034,-0.0701135,6.27407,7.0177,5.64799,9,0.0191844,0.000796438,76,73.1441,0.0172444
-0.816565,-0.533463,-0.05298,6.24265,7.04347,5.6465,10,0.0457736,0.00190029,89,85.4657,0.0184512
0.192234,-0.944377,0.0686755,6.3122,7.0137,5.65256,11,0.0701237,0.00291118,103,105.252,0.0140813
-0.785118,-0.359863,0.467495,6.2552,7.05084,5.67253,12,0.0208772,0.000866716,118,110.826,0.0200586
-0.801566,0.382602,0.423191,6.25012,7.12075,5.65583,13,0.179387,0.00744722,134,134.398,0.00817345
0.818595,0.161817,0.554405,6.33675,7.08869,5.70324,14,0.00664181,0.000275734,151,136.395,0.00671132
0.558329,0.602929,0.51601,6.31636,7.09529,5.69325,15,0.00490507,0.000203634,169,121.408,0.019043
0.0576053,-0.71533,0.645645,6.30845,7.03042,5.68826,16,0.0918104,0.0038115,188,150.712,0.0100585
0.581265,-0.043344,0.803857,6.33092,7.08897,5.70558,17,0.0095508,0.0003965,208,140.002,0.0193367
-0.48896,0.0876574,0.83107,6.28558,7.07796,5.68373,18,0.107562,0.00446543,229,144.098,0.0166321
-0.217702,-0.292963,0.918951,6.29224,7.05343,5.70538,19,0.0382908,0.00158964,251,166.726,0.00874649
0.358999,0.273539,0.885628,6.32479,7.10536,5.71594,20,0.00743329,0.000308592,274,156.548,0.0147244
0.280006,-0.199579,0.924712,6.32658,7.07,5.71233,21,0.0239832,0.000995661,298,165.639,0.0119215
-0.0601661,0.0757682,0.996273,6.28005,7.07983,5.70231,22,0.0135812,0.000563822,18,36.718,0.00858709
,,,,,,,,,25,82.2009,0.0262988
,,,,,,,,,33,101.881,0.0260073
,,,,,,,,,42,37.1534,0.00710315
,,,,,,,,,52,103.563,0.00910151
,,,,,,,,,63,105.047,0.0129021
,,,,,,,,,75,102.548,0.0173862
,,,,,,,,,88,123.133,0.0235975
,,,,,,,,,102,89.9638,0.0259172
,,,,,,,,,117,155.33,0.0180494
,,,,,,,,,133,145.659,0.0292044
,,,,,,,,,150,82.6353,0.00936902
,,,,,,,,,168,88.7185,0.00749685
,,,,,,,,,187,121.512,0.0271002
,,,,,,,,,207,103.413,0.0119324
,,,,,,,,,228,165.844,0.0276989
,,,,,,,,,250,150.145,0.0224658
,,,,,,,,,273,114.517,0.0101298
,,,,,,,,,297,122.497,0.0191197
,,,,,,,,,322,141.615,0.0146478
,,,,,,,,,32,59.8715,0.0109206
,,,,,,,,,41,93.8751,0.01087
,,,,,,,,,51,59.4637,0.00514593
,,,,,,,,,62,71.5105,0.00611929
,,,,,,,,,74,123.502,0.00763052
,,,,,,,,,87,66.5832,0.00900392
,,,,,,,,,101,95.9618,0.010425
,,,,,,,,,116,54.9098,0.0108542
,,,,,,,,,132,122.47,0.00917858
,,,,,,,,,149,156.316,0.0113912
,,,,,,,,,167,92.0925,0.00623906
,,,,,,,,,186,113.032,0.00534945
,,,,,,,,,206,91.3892,0.0110563
,,,,,,,,,227,102.642,0.00728059
,,,,,,,,,249,152.258,0.0111547
,,,,,,,,,272,125.46,0.0101981
,,,,,,,,,296,123.97,0.00656751
,,,,,,,,,321,112.067,0.00944753
,,,,,,,,,347,137.718,0.00820914
,,,,,,,,,50,37.4124,0.0737077
,,,,,,,,,61,116.928,0.0086282
,,,,,,,,,73,28.3469,0.0117663
,,,,,,,,,86,80.71,0.019003
,,,,,,,,,100,41.8153,0.0306436
,,,,,,,,,115,40.933,0.0571634
,,,,,,,,,131,64.7846,0.0729892
,,,,,,,,,148,73.4045,0.0327655
,,,,,,,,,166,96.671,0.106864
,,,,,,,,,185,148.228,0.0122173
,,,,,,,,,205,170.778,0.00921611
,,,,,,,,,226,92.0909,0.0832196
,,,,,,,,,248,141.938,0.0169716
,,,,,,,,,271,111.876,0.0891355
,,,,,,,,,295,109.349,0.0509467
,,,,,,,,,320,156.67,0.0135436
,,,,,,,,,346,129.326,0.036472
,,,,,,,,,373,131.907,0.0230489
,,,,,,,,,72,137.981,0.00859658
,,,,,,,,,85,49.4609,0.0117076
,,,,,,,,,99,44.9071,0.0188503
,,,,,,,,,114,66.9956,0.0302484
,,,,,,,,,130,36.3699,0.0558035
,,,,,,,,,147,96.403,0.0707867
,,,,,,,,,165,60.1704,0.0323141
,,,,,,,,,184,62.6742,0.102208
,,,,,,,,,204,174.008,0.012154
,,,,,,,,,225,145.02,0.00918004
,,,,,,,,,247,107.773,0.0803684
,,,,,,,,,270,153.935,0.0168497
,,,,,,,,,294,89.3805,0.0858725
,,,,,,,,,319,103.477,0.0498637
,,,,,,,,,345,140.775,0.0134659
,,,,,,,,,372,133.108,0.0359136
,,,,,,,,,400,116.136,0.0228246
,,,,,,,,,98,129.974,0.00532633
,,,,,,,,,113,121.185,0.00643577
,,,,,,,,,129,119.558,0.00738599
,,,,,,,,,146,155.354,0.00831588
,,,,,,,,,164,93.0569,0.00858673
,,,,,,,,,183,160.901,0.00750311
,,,,,,,,,203,140.733,0.00891935
,,,,,,,,,224,45.9091,0.00541685
,,,,,,,,,246,54.7039,0.00473342
,,,,,,,,,269,104.914,0.00871273
,,,,,,,,,293,68.0465,0.00618505
,,,,,,,,,318,129.819,0.0087737
,,,,,,,,,344,118.354,0.00817083
,,,,,,,,,371,77.4184,0.00566272
,,,,,,,,,399,88.6455,0.00768188
,,,,,,,,,428,104.509,0.00684256
,,,,,,,,,128,92.9801,0.00803401
,,,,,,,,,145,17.5531,0.00957115
,,,,,,,,,163,25.8004,0.0111931
,,,,,,,,,182,47.3179,0.0116893
,,,,,,,,,202,52.234,0.00976874
,,,,,,,,,223,89.2329,0.0123145
,,,,,,,,,245,133.662,0.00650624
,,,,,,,,,268,159.049,0.00554468
,,,,,,,,,292,65.1033,0.0119241
,,,,,,,,,317,117.328,0.00764704
,,,,,,,,,343,90.2519,0.0120386
,,,,,,,,,370,81.6478,0.0109319
,,,,,,,,,398,128.325,0.00686423
,,,,,,,,,427,101.506,0.010074
,,,,,,,,,457,104.984,0.00867804
,,,,,,,,,162,109.905,0.0138666
,,,,,,,,,181,72.3031,0.0175512
,,,,,,,,,201,140.185,0.0188029
,,,,,,,,,222,74.9795,0.0142852
,,,,,,,,,244,41.6974,0.0204749
,,,,,,,,,267,130.328,0.00824174
,,,,,,,,,291,100.227,0.0067573
,,,,,,,,,316,131.488,0.0194179
,,,,,,,,,342,131.415,0.0101621
,,,,,,,,,369,76.8634,0.0197233
,,,,,,,,,397,103.986,0.0169174
,,,,,,,,,426,108.463,0.00882473
,,,,,,,,,456,124.318,0.0149475
,,,,,,,,,487,98.5504,0.0120673
,,,,,,,,,200,39.0894,0.0270371
,,,,,,,,,221,30.2892,0.0301267
,,,,,,,,,243,56.1876,0.019995
,,,,,,,,,266,98.8239,0.0346619
,,,,,,,,,290,116.143,0.00986743
,,,,,,,,,315,143.401,0.00781261
,,,,,,,,,341,50.3312,0.0317371
,,,,,,,,,368,101.17,0.0127527
,,,,,,,,,396,89.6738,0.0325613
,,,,,,,,,425,73.6258,0.0255618
,,,,,,,,,455,115.758,0.0107149
,,,,,,,,,486,87.7472,0.0213171
,,,,,,,,,518,97.169,0.0159037
,,,,,,,,,242,68.6773,0.0553907
,,,,,,,,,265,32.5845,0.0286756
,,,,,,,,,289,63.5541,0.0729363
,,,,,,,,,314,143.253,0.0116004
,,,,,,,,,340,148.125,0.00886065
,,,,,,,,,367,71.4261,0.0610899
,,,,,,,,,395,120.626,0.015804
,,,,,,,,,424,70.9639,0.0642187
,,,,,,,,,454,72.8153,0.0416992
,,,,,,,,,485,120.035,0.0127896
,,,,,,,,,517,100.231,0.031475
,,,,,,,,,550,92.5835,0.0209473
,,,,,,,,,288,76.5299,0.0321752
,,,,,,,,,313,120.772,0.100832
,,,,,,,,,339,87.4764,0.0121343
,,,,,,,,,366,117.069,0.0091688
,,,,,,,,,394,38.3992,0.0795149
,,,,,,,,,423,77.4858,0.0168118
,,,,,,,,,453,97.3516,0.0848988
,,,,,,,,,484,71.8291,0.0495339
,,,,,,,,,516,97.6887,0.0134417
,,,,,,,,,549,71.2875,0.0357421
,,,,,,,,,583,90.8709,0.0227553
,,,,,,,,,338,44.4728,0.0374016
,,,,,,,,,365,116.679,0.0100776
,,,,,,,,,393,115.757,0.00794377
,,,,,,,,,422,57.1658,0.0340187
,,,,,,,,,452,93.8199,0.013106
,,,,,,,,,483,38.8165,0.0349674
,,,,,,,,,515,43.3649,0.0270215
,,,,,,,,,548,88.0196,0.0109632
,,,,,,,,,582,72.9377,0.0223227
,,,,,,,,,617,60.3884,0.0164568
,,,,,,,,,392,111.399,0.0128094
,,,,,,,,,421,89.9091,0.00954904
,,,,,,,,,451,92.8142,0.121458
,,,,,,,,,482,98.3769,0.018136
,,,,,,,,,514,35.3283,0.134485
,,,,,,,,,547,62.3601,0.0631105
,,,,,,,,,581,78.6966,0.0142751
,,,,,,,,,616,84.6486,0.0423098
,,,,,,,,,652,59.5673,0.0252507
,,,,,,,,,450,30.137,0.00564283
,,,,,,,,,481,72.5906,0.0123875
,,,,,,,,,513,23.1768,0.00783501
,,,,,,,,,546,85.5847,0.0125111
,,,,,,,,,580,73.3483,0.0113201
,,,,,,,,,615,33.6312,0.0070153
,,,,,,,,,651,44.1161,0.0104027
,,,,,,,,,688,59.0749,0.0089209
,,,,,,,,,512,94.0387,0.00931261
,,,,,,,,,545,42.248,0.00648143
,,,,,,,,,579,77.1656,0.0093823
,,,,,,,,,614,79.4296,0.00869617
,,,,,,,,,650,31.5017,0.00591016
,,,,,,,,,687,57.5843,0.00814444
,,,,,,,,,725,57.1971,0.00720716
,,,,,,,,,578,52.5012,0.0173017
,,,,,,,,,613,61.519,0.0990641
,,,,,,,,,649,34.1053,0.0540425
,,,,,,,,,686,65.5726,0.0137531
,,,,,,,,,724,37.4643,0.0380316
,,,,,,,,,763,52.6978,0.0236621
,,,,,,,,,648,66.7146,0.0175438
,,,,,,,,,685,50.473,0.0152883
,,,,,,,,,723,22.9689,0.00836004
,,,,,,,,,762,20.9674,0.0136613
,,,,,,,,,802,39.889,0.0112149
,,,,,,,,,722,28.1038,0.0564767
,,,,,,,,,761,52.6063,0.0139056
,,,,,,,,,801,49.9928,0.0392212
,,,,,,,,,842,26.9325,0.0241173
,,,,,,,,,800,48.1645,0.0124497
,,,,,,,,,841,29.7095,0.0294934
,,,,,,,,,883,23.6761,0.0200507
,,,,,,,,,882,28.1228,0.0113491
,,,,,,,,,925,27.6349,0.00960794
,,,,,,,,,968,25.7715,0.017342
