Q	U	V
{$V$}	{[mm$^3$]}	0.00390432
{$d_v$}	{[mm]}	0.195366
{$S_c$}	{[mm$^2$]}	0.249702
{$S_o$}	{[mm$^2$]}	0.146429
{$S_l/S_o$}	[]	0.705277
{$\Psi$}	[]	0.480204
{$\eta$}	[]	0.518290
{med($\theta_e$)}	{[$^\circ$]}	62.31665
{$\Upsilon$}	[]	13
{$\Xi$}	[]	8
