facetNormals:0,facetNormals:1,facetNormals:2,FacetCenters:0,FacetCenters:1,FacetCenters:2,FacetIds,relFacetSize,absFacetSize,cellPairingIds,interplanarAngles,angleWeights
-0.198877,0.468207,-0.828006,5.88594,4.75476,6.58083,1,0.0726569,0.00701434,8,66.2824,0.0505058
0.358112,-0.439289,-0.795522,5.91042,4.68759,6.57879,2,0.0387055,0.00373666,13,29.1527,0.0544676
-0.62665,0.252861,-0.714473,5.82767,4.76945,6.60929,3,0.043562,0.00420551,19,38.3073,0.0749053
0.431689,0.430817,-0.751186,5.92218,4.77169,6.60284,4,0.0772973,0.00746233,26,62.1311,0.0705161
-0.523097,-0.475598,-0.68234,5.84965,4.68853,6.59069,5,0.0684979,0.00661283,34,54.62,0.0405232
-0.850976,-0.0493474,-0.492472,5.82023,4.72317,6.60877,6,0.0280969,0.00271249,43,48.3676,0.104587
0.243877,0.863306,-0.310624,5.92135,4.82212,6.66813,7,0.186585,0.018013,53,41.769,0.0359066
-0.443982,0.831665,-0.285276,5.85752,4.82021,6.63972,8,0.0238455,0.00230206,64,67.5231,0.074136
-0.894963,0.362995,-0.0131607,5.8061,4.79885,6.66582,9,0.0756765,0.00730586,76,105.71,0.0768256
-0.671437,-0.678476,0.0820684,5.82962,4.68277,6.64518,10,0.0815018,0.00786823,89,156.798,0.0212325
0.518459,-0.542658,0.615999,5.91712,4.75288,6.6328,11,0.0124329,0.00120028,103,119.149,0.0738719
-0.702139,-0.142682,0.635429,5.81783,4.77078,6.71417,12,0.0751281,0.00725292,118,122.591,0.0523983
-0.311091,0.314488,0.868981,5.8607,4.8251,6.74065,13,0.0409738,0.00395564,18,75.9688,0.0409904
,,,,,,,,,25,53.4435,0.0515821
,,,,,,,,,33,53.9778,0.049462
,,,,,,,,,42,83.5088,0.0325589
,,,,,,,,,52,92.7691,0.0641116
,,,,,,,,,63,108.006,0.0295104
,,,,,,,,,75,119.844,0.0512161
,,,,,,,,,88,90.4708,0.0524855
,,,,,,,,,102,93.99,0.0188203
,,,,,,,,,117,137.919,0.0510899
,,,,,,,,,133,171.053,0.0398074
,,,,,,,,,32,66.7824,0.0557214
,,,,,,,,,41,44.0012,0.0532556
,,,,,,,,,51,25.6589,0.0341607
,,,,,,,,,62,72.0707,0.0706333
,,,,,,,,,74,44.3766,0.0308202
,,,,,,,,,87,45.8152,0.0552946
,,,,,,,,,101,78.3311,0.0567772
,,,,,,,,,116,160.891,0.0193447
,,,,,,,,,132,93.0482,0.0551475
,,,,,,,,,149,111.176,0.0422283
,,,,,,,,,50,85.0609,0.072632
,,,,,,,,,61,91.1236,0.0412132
,,,,,,,,,73,39.329,0.10931
,,,,,,,,,86,66.441,0.0364473
,,,,,,,,,100,103.62,0.0764783
,,,,,,,,,115,133.986,0.0793439
,,,,,,,,,131,120.209,0.0214204
,,,,,,,,,148,155.307,0.0761973
,,,,,,,,,166,133.677,0.0535577
,,,,,,,,,72,33.708,0.0398485
,,,,,,,,,85,110.47,0.100208
,,,,,,,,,99,88.1429,0.0353759
,,,,,,,,,114,71.2856,0.0719085
,,,,,,,,,130,48.9736,0.0744362
,,,,,,,,,147,117.022,0.0210458
,,,,,,,,,165,89.9045,0.07166
,,,,,,,,,184,127.239,0.0512757
,,,,,,,,,98,95.9675,0.0488393
,,,,,,,,,113,60.5142,0.0257972
,,,,,,,,,129,37.9128,0.0409792
,,,,,,,,,146,53.2405,0.0417879
,,,,,,,,,164,138.672,0.0172379
,,,,,,,,,183,71.9819,0.0408984
,,,,,,,,,203,100.731,0.033335
,,,,,,,,,128,41.686,0.0422867
,,,,,,,,,145,83.7891,0.10768
,,,,,,,,,163,148.435,0.113448
,,,,,,,,,182,125.356,0.0233123
,,,,,,,,,202,122.747,0.107123
,,,,,,,,,223,94.6034,0.0671923
,,,,,,,,,162,42.3587,0.0362642
,,,,,,,,,181,107.87,0.036896
,,,,,,,,,201,153.682,0.0163441
,,,,,,,,,222,89.2832,0.0362009
,,,,,,,,,244,80.9081,0.0301466
,,,,,,,,,200,67.5384,0.0784812
,,,,,,,,,221,135.518,0.021357
,,,,,,,,,243,52.0974,0.0754013
,,,,,,,,,266,66.1286,0.0531632
,,,,,,,,,242,85.646,0.0215746
,,,,,,,,,265,47.4546,0.0781853
,,,,,,,,,289,85.8983,0.0545323
,,,,,,,,,288,83.5273,0.021335
,,,,,,,,,313,77.5975,0.0190771
,,,,,,,,,338,38.9979,0.0530273
