facetNormals:0,facetNormals:1,facetNormals:2,FacetCenters:0,FacetCenters:1,FacetCenters:2,FacetIds,relFacetSize,absFacetSize,cellPairingIds,interplanarAngles,angleWeights
0.290776,0.262315,-0.881176,5.4808,7.53122,7.93329,1,0.0691391,0.00915265,8,25.5963,0.0226696
0.133012,0.643582,-0.74483,5.47398,7.62244,7.97262,2,0.0135574,0.00179473,13,58.625,0.00556104
0.200518,-0.67589,-0.701784,5.42736,7.58909,8.12409,3,0.00289703,0.00038351,19,52.6508,0.0514317
-0.529495,0.447085,-0.691634,5.43297,7.58577,7.97747,4,0.0409451,0.00542033,26,38.8336,0.0471282
0.815348,0.0410407,-0.565088,5.52747,7.49641,7.96598,5,0.0357477,0.00473229,34,55.4756,0.0713968
-0.300638,0.789809,-0.461192,5.43514,7.61152,7.99124,6,0.073807,0.00977059,43,52.9977,0.0919253
0.896528,0.24995,-0.267553,5.53001,7.54261,7.99668,7,0.137114,0.0181512,53,104.841,0.038451
-0.713881,-0.547568,-0.143228,5.44526,7.52748,8.04757,8,0.0266307,0.00352538,64,99.0427,0.0594959
0.678784,-0.619128,0.201452,5.52643,7.47325,8.05915,9,0.0522135,0.00691204,76,73.3376,0.0538385
0.680179,0.710459,0.124852,5.49701,7.63849,8.04688,10,0.044083,0.00583572,89,118.309,0.0601817
-0.801555,0.388395,0.347221,5.4002,7.60469,8.07561,11,0.053279,0.0070531,103,98.203,0.0855659
0.655562,0.491804,0.513754,5.51371,7.57767,8.09496,12,0.112231,0.0148572,118,152.02,0.053645
0.147311,-0.429794,0.864272,5.50833,7.50822,8.11635,13,0.0438241,0.00580145,134,163.177,0.0531594
-0.226804,0.00606776,0.947314,5.44821,7.57519,8.10375,14,0.0431795,0.00571612,18,83.352,0.00477394
,,,,,,,,,25,41.1367,0.0203701
,,,,,,,,,33,55.7006,0.0196591
,,,,,,,,,42,31.9053,0.0229071
,,,,,,,,,52,60.1081,0.024675
,,,,,,,,,63,112.115,0.0179677
,,,,,,,,,75,119.371,0.0215256
,,,,,,,,,88,62.5015,0.0207372
,,,,,,,,,102,96.9725,0.0216147
,,,,,,,,,117,88.7443,0.0241924
,,,,,,,,,133,158.236,0.0207085
,,,,,,,,,150,139.145,0.0206357
,,,,,,,,,32,85.464,0.0054112
,,,,,,,,,41,57.3865,0.0053597
,,,,,,,,,51,106.403,0.00557523
,,,,,,,,,62,78.1029,0.00567417
,,,,,,,,,74,68.8174,0.00522559
,,,,,,,,,87,63.7924,0.00548948
,,,,,,,,,101,115.94,0.00543677
,,,,,,,,,116,134.531,0.00549526
,,,,,,,,,132,125.702,0.00564826
,,,,,,,,,149,107.156,0.00543479
,,,,,,,,,167,137.497,0.00542976
,,,,,,,,,50,91.3286,0.0381703
,,,,,,,,,61,28.1294,0.0526707
,,,,,,,,,73,100.815,0.0630594
,,,,,,,,,86,74.9076,0.0322718
,,,,,,,,,100,147.37,0.0458978
,,,,,,,,,115,97.6288,0.0424561
,,,,,,,,,131,67.518,0.0463048
,,,,,,,,,148,120.635,0.0600004
,,,,,,,,,166,155.212,0.0423357
,,,,,,,,,185,123.933,0.0420327
,,,,,,,,,72,87.1275,0.0481664
,,,,,,,,,85,21.8512,0.0567102
,,,,,,,,,99,125.37,0.030523
,,,,,,,,,114,63.6704,0.0424394
,,,,,,,,,130,58.5788,0.0394802
,,,,,,,,,147,151.458,0.0427872
,,,,,,,,,165,74.0206,0.054224
,,,,,,,,,184,113.458,0.039376
,,,,,,,,,204,138.111,0.0391137
,,,,,,,,,98,86.8473,0.0959599
,,,,,,,,,113,99.9665,0.0391394
,,,,,,,,,129,150.224,0.0611602
,,,,,,,,,146,71.7413,0.0551978
,,,,,,,,,164,65.0936,0.0618851
,,,,,,,,,183,92.8065,0.089051
,,,,,,,,,203,146.329,0.0549944
,,,,,,,,,224,112.833,0.0544841
,,,,,,,,,128,146.838,0.0445993
,,,,,,,,,145,63.9574,0.0756277
,,,,,,,,,163,38.2536,0.0667163
,,,,,,,,,182,140.508,0.0767392
,,,,,,,,,202,52.2703,0.123431
,,,,,,,,,223,102.62,0.0664194
,,,,,,,,,245,118.857,0.0656765
,,,,,,,,,162,101.744,0.0352717
,,,,,,,,,181,171.144,0.0332032
,,,,,,,,,201,69.1621,0.0355115
,,,,,,,,,222,156.955,0.043047
,,,,,,,,,244,89.5883,0.0331295
,,,,,,,,,267,88.5209,0.0329436
,,,,,,,,,200,87.1122,0.047805
,,,,,,,,,221,142.631,0.0527409
,,,,,,,,,243,74.4431,0.0712699
,,,,,,,,,266,53.9699,0.0476524
,,,,,,,,,290,87.9277,0.0472687
,,,,,,,,,242,103.789,0.0482467
,,,,,,,,,265,26.3363,0.0633018
,,,,,,,,,289,95.7654,0.0439531
,,,,,,,,,314,91.8799,0.0436266
,,,,,,,,,288,99.717,0.0722561
,,,,,,,,,313,89.074,0.0480912
,,,,,,,,,339,56.5664,0.0477006
,,,,,,,,,338,69.5991,0.0630344
,,,,,,,,,365,68.7829,0.0623649
,,,,,,,,,392,34.6205,0.0434994
