facetNormals:0,facetNormals:1,facetNormals:2,FacetCenters:0,FacetCenters:1,FacetCenters:2,FacetIds,relFacetSize,absFacetSize,cellPairingIds,interplanarAngles,angleWeights
0.143391,-0.226698,-0.946745,4.70071,3.39926,6.6632,1,0.0175427,0.00123977,8,26.9878,0.0181488
0.293702,0.205893,-0.915424,4.70085,3.45825,6.63196,2,0.0187983,0.0013285,13,44.5677,0.0255256
-0.364004,0.305889,-0.848719,4.68899,3.44148,6.64573,3,0.0468406,0.0033103,19,36.1509,0.0180754
-0.238979,-0.642686,-0.711722,4.66873,3.37836,6.65555,4,0.0186416,0.00131743,26,52.2852,0.0260692
-0.68039,-0.113521,-0.701312,4.65897,3.4048,6.6378,5,0.0507225,0.00358464,34,47.7336,0.0228571
0.796717,-0.00349709,-0.558766,4.76441,3.44686,6.64853,6,0.0327906,0.00231736,43,63.0301,0.0292803
0.574369,0.594538,-0.514294,4.72153,3.4985,6.66924,7,0.0884842,0.00625332,53,64.172,0.014494
-0.625294,-0.664676,-0.383847,4.65248,3.38295,6.66949,8,0.012348,0.000872656,64,79.3428,0.026649
-0.0589153,0.88419,-0.408172,4.72655,3.4811,6.66932,9,0.0554137,0.00391618,76,94.5224,0.0265194
0.373602,0.906891,-0.0799224,4.74539,3.50322,6.71825,10,0.0543106,0.00383822,89,80.1379,0.0330882
0.594733,-0.6789,0.0911489,4.7416,3.40964,6.7035,11,0.290629,0.0205392,103,93.3955,0.0185132
0.842448,0.504137,0.0674585,4.77442,3.48752,6.71751,12,0.0195974,0.00138498,118,108.899,0.021732
0.850651,-0.0463275,0.466993,4.77089,3.4608,6.75087,13,0.0285499,0.00201767,134,103.145,0.027263
-0.374002,-0.801912,0.361287,4.66415,3.37812,6.70755,14,0.0611406,0.00432091,151,143.411,0.0135869
-0.35642,0.667944,0.584063,4.7207,3.47726,6.7558,15,0.0110869,0.000783528,169,134.062,0.0227755
0.507472,0.478757,0.652867,4.75435,3.48379,6.77515,16,0.032457,0.00229379,18,39.9709,0.0268293
,,,,,,,,,25,62.4768,0.0187196
,,,,,,,,,33,64.341,0.0274305
,,,,,,,,,42,38.8824,0.0238969
,,,,,,,,,52,37.2545,0.0310088
,,,,,,,,,63,88.1819,0.0149052
,,,,,,,,,75,55.8558,0.0280731
,,,,,,,,,88,67.5414,0.0279294
,,,,,,,,,102,93.1202,0.0353124
,,,,,,,,,117,72.5913,0.0191895
,,,,,,,,,133,101.302,0.0226699
,,,,,,,,,150,130.133,0.0287554
,,,,,,,,,168,122.262,0.0139477
,,,,,,,,,187,111.876,0.0238077
,,,,,,,,,32,59.0501,0.0266693
,,,,,,,,,41,32.3816,0.0487043
,,,,,,,,,51,78.8445,0.0385761
,,,,,,,,,62,64.3974,0.0612549
,,,,,,,,,74,68.686,0.0195439
,,,,,,,,,87,47.736,0.0507678
,,,,,,,,,101,77.3749,0.0502998
,,,,,,,,,116,124.631,0.0806783
,,,,,,,,,132,102.653,0.0276334
,,,,,,,,,149,139.639,0.0354764
,,,,,,,,,167,116.563,0.0530437
,,,,,,,,,186,100.008,0.0179299
,,,,,,,,,206,129.59,0.0383443
,,,,,,,,,50,40.9109,0.0272633
,,,,,,,,,61,77.4159,0.0237699
,,,,,,,,,73,99.1695,0.0307953
,,,,,,,,,86,29.7092,0.0148557
,,,,,,,,,100,105.87,0.027898
,,,,,,,,,115,129.243,0.0277561
,,,,,,,,,131,75.1799,0.0350359
,,,,,,,,,148,126.123,0.0191075
,,,,,,,,,166,121.796,0.0225555
,,,,,,,,,185,68.4062,0.0285717
,,,,,,,,,205,143.515,0.0139043
,,,,,,,,,226,161.144,0.0236817
,,,,,,,,,72,99.0038,0.0398314
,,,,,,,,,85,95.8496,0.0644817
,,,,,,,,,99,37.7437,0.019861
,,,,,,,,,114,76.3819,0.0529644
,,,,,,,,,130,108.122,0.0524553
,,,,,,,,,147,116.023,0.086371
,,,,,,,,,165,134.436,0.0282716
,,,,,,,,,184,160.53,0.0365353
,,,,,,,,,204,84.3766,0.0554464
,,,,,,,,,225,104.967,0.0181964
,,,,,,,,,247,155.826,0.0395843
,,,,,,,,,98,38.3606,0.0478492
,,,,,,,,,113,106.981,0.0179403
,,,,,,,,,129,79.1916,0.0412009
,,,,,,,,,146,69.2592,0.0408921
,,,,,,,,,164,61.2003,0.0589321
,,,,,,,,,183,48.7249,0.0245327
,,,,,,,,,203,63.8307,0.0305236
,,,,,,,,,224,122.304,0.0426873
,,,,,,,,,246,131.179,0.0165709
,,,,,,,,,269,87.6678,0.0326229
,,,,,,,,,128,125.295,0.0216718
,,,,,,,,,145,42.3704,0.0681488
,,,,,,,,,163,33.9382,0.0673082
,,,,,,,,,182,97.0836,0.135664
,,,,,,,,,202,38.5864,0.0320879
,,,,,,,,,223,76.4958,0.0431705
,,,,,,,,,245,160.546,0.0723139
,,,,,,,,,268,96.6607,0.0197048
,,,,,,,,,292,75.0267,0.047493
,,,,,,,,,162,114.086,0.0201958
,,,,,,,,,181,145.793,0.0201213
,,,,,,,,,201,87.1677,0.0236896
,,,,,,,,,222,155.674,0.0151502
,,,,,,,,,244,135.022,0.0172397
,,,,,,,,,267,48.4016,0.0205465
,,,,,,,,,291,118.059,0.0116835
,,,,,,,,,316,159.516,0.01789
,,,,,,,,,200,32.1956,0.0548566
,,,,,,,,,221,139.453,0.09308
,,,,,,,,,243,67.4246,0.0289547
,,,,,,,,,266,107.289,0.0376843
,,,,,,,,,290,153.497,0.0581365
,,,,,,,,,315,66.4199,0.018477
,,,,,,,,,341,82.1742,0.0409366
,,,,,,,,,242,116.676,0.0915189
,,,,,,,,,265,37.6701,0.0288019
,,,,,,,,,289,75.5562,0.0374258
,,,,,,,,,314,162.266,0.0575236
,,,,,,,,,340,63.0875,0.0184146
,,,,,,,,,367,52.5626,0.0406318
,,,,,,,,,288,79.3539,0.0367187
,,,,,,,,,313,48.85,0.0519923
,,,,,,,,,339,65.8356,0.101028
,,,,,,,,,366,134.893,0.021359
,,,,,,,,,394,87.6004,0.0583928
,,,,,,,,,338,40.7035,0.0232413
,,,,,,,,,365,137.639,0.0296811
,,,,,,,,,393,85.3753,0.0141619
,,,,,,,,,422,40.6949,0.0244387
,,,,,,,,,392,96.9451,0.038924
,,,,,,,,,421,93.7885,0.0159715
,,,,,,,,,451,39.6834,0.0303783
,,,,,,,,,450,102.084,0.0187701
,,,,,,,,,481,111.712,0.0424037
,,,,,,,,,512,55.2918,0.016528
