"cellPairingIds","interplanarAngles","angleWeights"
13,78.455,0.0292427
26,97.3608,0.0416754
34,47.0733,0.0345502
64,78.5639,0.0412988
41,51.1463,0.0479665
74,44.0055,0.0429466
87,77.2078,0.0474683
72,110.693,0.064124
99,87.0773,0.0764341
130,96.4273,0.0763223
165,60.6912,0.0484638
129,103.968,0.0632367
146,58.502,0.0553993
164,52.9736,0.0466974
162,42.8693,0.0751769
222,77.3506,0.0433449
200,135.644,0.0750687
221,67.5682,0.0599348
243,109.178,0.0479553
266,51.3069,0.0863282
290,62.0886,0.0662422
242,70.3871,0.0528486
265,85.2114,0.0433089
314,79.3814,0.0576925
338,57.9138,0.0468329
365,82.7509,0.0402173
392,56.5828,0.0641196
