facetNormals:0,facetNormals:1,facetNormals:2,FacetCenters:0,FacetCenters:1,FacetCenters:2,FacetIds,relFacetSize,absFacetSize,cellPairingIds,interplanarAngles,angleWeights
-0.337659,-0.189768,-0.860473,3.44748,4.68828,5.53178,1,0.0659629,0.0245924,8,78.0138,0.0751042
0.798744,-0.0471346,-0.520424,3.52731,4.69613,5.61937,2,0.0871868,0.0325052,13,43.3453,0.0534739
-0.859859,0.0352353,-0.441853,3.38768,4.71724,5.59339,3,0.0449613,0.0167626,19,83.8507,0.0632675
0.556203,0.617939,-0.46653,3.48279,4.7367,5.61914,4,0.0607838,0.0226616,26,78.5217,0.04472
0.651742,-0.626549,-0.327404,3.55882,4.69722,5.60967,5,0.0338265,0.0126113,34,112.163,0.0498026
0.66417,0.709428,-0.0149911,3.50481,4.73229,5.67662,6,0.0400025,0.0149138,43,87.0789,0.0289117
0.436417,-0.879854,-0.0321309,3.54317,4.65046,5.62674,7,0.018513,0.00690205,53,84.3405,0.0375514
-0.731685,0.626318,0.0447215,3.40015,4.70862,5.66203,8,0.0262466,0.0097853,64,67.099,0.0629122
-0.484577,-0.801749,-0.0330603,3.44558,4.62383,5.62036,9,0.0601313,0.0224183,76,123.317,0.0675857
0.884376,-0.225132,0.277093,3.5484,4.67965,5.67894,10,0.0692903,0.025833,89,104.281,0.0880929
-0.440743,-0.570193,0.54277,3.43345,4.70992,5.73135,11,0.132569,0.0494246,103,150.332,0.0674921
0.636335,0.432784,0.56401,3.5445,4.74994,5.71644,12,0.0690939,0.0257597,118,137.864,0.0569051
-0.199895,0.583145,0.721687,3.43666,4.6913,5.71195,13,0.0500346,0.018654,18,119.774,0.0593278
,,,,,,,,,25,43.6944,0.0716297
,,,,,,,,,33,38.2742,0.0487421
,,,,,,,,,42,57.0289,0.0548425
,,,,,,,,,52,64.298,0.030541
,,,,,,,,,63,133.821,0.0403471
,,,,,,,,,75,111.785,0.0711746
,,,,,,,,,88,51.0071,0.0772151
,,,,,,,,,102,134.879,0.105192
,,,,,,,,,117,77.6781,0.077093
,,,,,,,,,133,128.401,0.0635813
,,,,,,,,,32,105.751,0.0516888
,,,,,,,,,41,118.079,0.0386071
,,,,,,,,,51,125.014,0.0423372
,,,,,,,,,62,114.357,0.0262269
,,,,,,,,,74,47.3907,0.0331446
,,,,,,,,,87,63.6126,0.0514514
,,,,,,,,,101,164.911,0.0545354
,,,,,,,,,116,82.1595,0.0671487
,,,,,,,,,132,147.81,0.0544745
,,,,,,,,,149,97.9159,0.0473624
,,,,,,,,,50,81.9684,0.0434647
,,,,,,,,,61,28.4351,0.0482507
,,,,,,,,,73,107.774,0.0283817
,,,,,,,,,86,92.5442,0.0366623
,,,,,,,,,100,147.006,0.0604558
,,,,,,,,,115,75.7699,0.0647589
,,,,,,,,,131,171.52,0.0833507
,,,,,,,,,148,66.8062,0.064673
,,,,,,,,,166,95.5507,0.0548879
,,,,,,,,,72,90.4118,0.0366562
,,,,,,,,,85,26.4131,0.0239295
,,,,,,,,,99,162.451,0.0295583
,,,,,,,,,114,77.353,0.0432967
,,,,,,,,,130,46.8879,0.0454601
,,,,,,,,,147,97.1318,0.0538998
,,,,,,,,,165,92.5673,0.0454177
,,,,,,,,,184,143.323,0.0403642
,,,,,,,,,98,110.46,0.0253118
,,,,,,,,,113,92.5875,0.0316964
,,,,,,,,,129,167.69,0.0480437
,,,,,,,,,146,62.8137,0.0507222
,,,,,,,,,164,143.554,0.0614596
,,,,,,,,,183,38.9467,0.0506694
,,,,,,,,,203,72.9734,0.0444596
,,,,,,,,,128,156.95,0.0217116
,,,,,,,,,145,57.4945,0.02831
,,,,,,,,,163,52.1439,0.0292192
,,,,,,,,,182,70.7769,0.0324889
,,,,,,,,,202,97.4275,0.0292017
,,,,,,,,,223,131.952,0.0270262
,,,,,,,,,162,99.4935,0.0365427
,,,,,,,,,181,147.517,0.0380718
,,,,,,,,,201,90.6827,0.0438178
,,,,,,,,,222,100.606,0.0380421
,,,,,,,,,244,53.5445,0.0344314
,,,,,,,,,200,106.72,0.0643867
,,,,,,,,,221,39.4785,0.0827351
,,,,,,,,,243,138.901,0.0643018
,,,,,,,,,266,116.323,0.0546202
,,,,,,,,,242,97.413,0.0910113
,,,,,,,,,265,46.9122,0.069192
,,,,,,,,,289,96.8581,0.0581088
,,,,,,,,,288,104.884,0.0908417
,,,,,,,,,313,80.0944,0.0726495
,,,,,,,,,338,54.0055,0.0580396
