Q	U	V
{$V$}	{[mm$^3$]}	0.00609635
{$d_v$}	{[mm]}	0.226651
{$S_c$}	{[mm$^2$]}	0.320389
{$S_o$}	{[mm$^2$]}	0.22969
{$S_l/S_o$}	[]	0.394876
{$\Psi$}	[]	0.503717
{$\eta$}	[]	0.588148
{med($\theta_e$)}	{[$^\circ$]}	75.191
{$\Upsilon$}	[]	11
{$\Xi$}	[]	3
