Q	U	V
{$V$}	{[mm$^3$]}	0.00661645
{$d_v$}	{[mm]}	0.232921
{$S_c$}	{[mm$^2$]}	0.375439
{$S_o$}	{[mm$^2$]}	0.198346
{$S_l/S_o$}	[]	0.892849
{$\Psi$}	[]	0.453971
{$\eta$}	[]	0.470913
{med($\theta_e$)}	{[$^\circ$]}	
{$\Upsilon$}	[]	21
{$\Xi$}	[]	9
