Q	U	V
{$V$}	{[mm$^3$]}	0.0143598
{$d_v$}	{[mm]}	0.301567
{$S_c$}	{[mm$^2$]}	0.59266
{$S_o$}	{[mm$^2$]}	0.36615
{$S_l/S_o$}	[]	0.618626
{$\Psi$}	[]	0.482071
{$\eta$}	[]	0.566959
{med($\theta_e$)}	{[$^\circ$]}	66.7786
{$\Upsilon$}	[]	12
{$\Xi$}	[]	18
