facetNormals:0,facetNormals:1,facetNormals:2,FacetCenters:0,FacetCenters:1,FacetCenters:2,FacetIds,relFacetSize,absFacetSize,cellPairingIds,interplanarAngles,angleWeights
0.600583,0.533522,-0.525203,6.18982,5.50065,5.67348,1,0.0183057,0.00108942,8,118.802,0.0270368
-0.279325,-0.865267,-0.342843,6.18975,5.393,5.68045,2,0.0516918,0.00307631,13,92.7371,0.0217038
0.507651,-0.807801,-0.155722,6.23053,5.38889,5.69355,3,0.026651,0.00158607,19,139.959,0.0296656
-0.640068,-0.741779,-0.106629,6.14132,5.45869,5.6825,4,0.0781842,0.00465295,26,62.8823,0.0178853
0.959834,-0.154024,0.124734,6.19314,5.49007,5.66583,5,0.0174837,0.0010405,34,121.345,0.0334235
-0.871608,0.299883,0.205732,6.13412,5.51488,5.6595,6,0.191924,0.0114219,43,77.4796,0.0136005
0.870939,-0.474512,0.118207,6.21971,5.44761,5.69512,7,0.0108196,0.000643901,53,75.0514,0.00698233
-0.277449,0.944541,0.171203,6.16363,5.53392,5.67171,8,0.00431388,0.00025673,64,158.091,0.0272802
-0.841326,-0.358723,0.311912,6.13695,5.46108,5.66619,9,0.0535175,0.00318497,76,69.2894,0.0244669
0.76203,0.286683,0.533533,6.17934,5.49159,5.6732,10,0.0368795,0.0021948,89,58.4239,0.0307527
0.481932,0.748341,0.383763,6.19898,5.48944,5.71972,11,0.0960865,0.00571836,103,96.0915,0.0269312
-0.243097,0.705094,0.627258,6.1553,5.53041,5.69904,12,0.0509282,0.00303087,118,154.024,0.0314661
-0.245109,-0.528483,0.772931,6.19438,5.43392,5.74267,13,0.111948,0.00666229,134,153.46,0.0243502
-0.535397,-0.194215,0.81204,6.1826,5.42991,5.73368,14,0.0363541,0.00216353,151,111.127,0.0254775
0.288063,-0.0503262,0.904284,6.16989,5.48851,5.68355,15,0.0418883,0.00249288,18,49.4611,0.0351695
,,,,,,,,,25,26.4835,0.062236
,,,,,,,,,33,100.747,0.0261296
,,,,,,,,,42,95.4116,0.0814471
,,,,,,,,,52,82.4946,0.0178938
,,,,,,,,,63,145.321,0.0079632
,,,,,,,,,75,62.1645,0.0525888
,,,,,,,,,88,132.895,0.0430471
,,,,,,,,,102,165.946,0.0672207
,,,,,,,,,117,143.096,0.0513071
,,,,,,,,,133,73.9044,0.0707259
,,,,,,,,,150,87.6693,0.042687
,,,,,,,,,168,112.066,0.0462765
,,,,,,,,,32,72.2227,0.0397516
,,,,,,,,,41,51.3096,0.0211153
,,,,,,,,,51,141.727,0.0468028
,,,,,,,,,62,33.2992,0.0153909
,,,,,,,,,74,164.432,0.00742578
,,,,,,,,,87,101.478,0.0355824
,,,,,,,,,101,85.6007,0.0309418
,,,,,,,,,116,116.604,0.0417281
,,,,,,,,,132,147.064,0.034991
,,,,,,,,,149,78.7762,0.0430526
,,,,,,,,,167,104.58,0.0307554
,,,,,,,,,186,87.1256,0.0325759
,,,,,,,,,50,122.109,0.0285769
,,,,,,,,,61,70.3168,0.111107
,,,,,,,,,73,102.799,0.0190086
,,,,,,,,,86,123.345,0.00817661
,,,,,,,,,100,35.9116,0.0635409
,,,,,,,,,115,142.129,0.0501182
,,,,,,,,,131,161.232,0.0862158
,,,,,,,,,148,116.885,0.0616793
,,,,,,,,,166,60.7226,0.092068
,,,,,,,,,185,65.8345,0.0496309
,,,,,,,,,205,105.066,0.0545504
,,,,,,,,,72,157.819,0.0320479
,,,,,,,,,85,19.3243,0.0133671
,,,,,,,,,99,113.495,0.00692027
,,,,,,,,,114,138.871,0.0263568
,,,,,,,,,130,37.8013,0.0237216
,,,,,,,,,147,65.4189,0.0295843
,,,,,,,,,165,106.027,0.0260309
,,,,,,,,,184,93.4724,0.030244
,,,,,,,,,204,113.183,0.0236118
,,,,,,,,,225,64.77,0.0246703
,,,,,,,,,98,158.401,0.0204843
,,,,,,,,,113,53.5781,0.0084381
,,,,,,,,,129,40.8922,0.0836965
,,,,,,,,,146,120.635,0.0618702
,,,,,,,,,164,97.3232,0.12806
,,,,,,,,,183,53.1184,0.0804963
,,,,,,,,,203,76.4497,0.141411
,,,,,,,,,224,52.0961,0.0611292
,,,,,,,,,246,95.1218,0.0687678
,,,,,,,,,128,132.137,0.00616837
,,,,,,,,,145,122.998,0.0180001
,,,,,,,,,163,52.587,0.0167307
,,,,,,,,,182,83.4762,0.0194491
,,,,,,,,,202,119.016,0.0178475
,,,,,,,,,223,82.352,0.0197321
,,,,,,,,,245,106.306,0.0166761
,,,,,,,,,268,66.2936,0.0171972
,,,,,,,,,162,93.0872,0.00798418
,,,,,,,,,181,81.0868,0.00772424
,,,,,,,,,201,48.7327,0.00825706
,,,,,,,,,222,30.2912,0.00795402
,,,,,,,,,244,107.999,0.00830763
,,,,,,,,,267,83.9693,0.00771257
,,,,,,,,,291,88.3492,0.00782219
,,,,,,,,,200,127.878,0.0436673
,,,,,,,,,221,126.276,0.0687456
,,,,,,,,,243,81.0048,0.0521908
,,,,,,,,,266,47.0828,0.0724159
,,,,,,,,,290,36.2045,0.0432969
,,,,,,,,,315,86.3945,0.0469942
,,,,,,,,,242,33.5291,0.0533012
,,,,,,,,,265,68.2477,0.04278
,,,,,,,,,289,85.4892,0.0554814
,,,,,,,,,314,91.8053,0.0366149
,,,,,,,,,340,41.9954,0.0392247
,,,,,,,,,288,46.4176,0.0665718
,,,,,,,,,313,103.373,0.103412
,,,,,,,,,339,95.4753,0.0527503
,,,,,,,,,366,60.8875,0.0583426
,,,,,,,,,338,79.5066,0.0700078
,,,,,,,,,365,58.6716,0.0424244
,,,,,,,,,393,60.0988,0.045968
,,,,,,,,,392,26.1793,0.0548848
,,,,,,,,,421,44.6027,0.0609649
,,,,,,,,,450,51.263,0.0389255
