"cellPairingIds","interplanarAngles","angleWeights"
8,141.529,0.0248461
13,40.3032,0.0303385
19,71.4348,0.0296805
26,165.372,0.0207826
53,72.3587,0.030531
134,67.8087,0.0330656
151,62.7981,0.026471
25,75.7168,0.0379228
33,28.6183,0.0245131
88,54.6199,0.0433357
41,144.183,0.0298435
51,28.6413,0.0385845
186,57.6722,0.0431629
206,81.2598,0.0572764
86,23.6139,0.0529795
115,34.7156,0.0605326
72,116.817,0.0243469
114,46.1074,0.0340726
130,77.1724,0.0323152
165,52.1603,0.0284642
184,59.4772,0.0282888
129,74.3205,0.0459599
164,31.6088,0.0222324
269,70.4751,0.0399615
181,31.8376,0.0641785
222,78.5004,0.0505863
267,38.8527,0.0648256
316,85.0099,0.0579662
221,57.9096,0.0300702
266,33.0784,0.0623643
341,63.9705,0.0751869
265,57.9341,0.0574284
394,40.196,0.0273812
338,30.4602,0.0458348
422,50.6147,0.052403
451,36.3301,0.0518115
450,30.793,0.0489008
481,50.7562,0.0678394
512,37.2941,0.0448934
