"cellPairingIds","interplanarAngles","angleWeights"
8,69.2113,0.015378
34,62.4286,0.0217475
43,115.39,0.0194017
53,57.947,0.0255642
42,96.3603,0.0143608
52,86.8602,0.013299
88,90.261,0.0194609
117,106.864,0.0143812
133,98.3642,0.0206479
113,51.3659,0.0228712
183,34.2215,0.0198061
269,52.3734,0.022785
128,123.503,0.0202911
163,29.8712,0.0263859
182,40.653,0.0256571
245,107.955,0.0281346
201,85.3803,0.0376635
267,34.4442,0.0432548
316,56.8636,0.0270099
289,65.396,0.0897927
314,109.152,0.0852142
340,88.6851,0.022784
367,108.604,0.039002
339,68.0335,0.0780536
338,54.9918,0.0341449
393,31.5779,0.0161184
422,33.6235,0.0228363
421,29.0582,0.024428
481,37.0487,0.0429475
512,33.6375,0.0180376
