"cellPairingIds","interplanarAngles","angleWeights"
8,47.9888,0.0630191
13,57.6236,0.0621998
19,57.183,0.0218064
26,65.5817,0.037965
34,87.8737,0.0480375
18,45.7617,0.075655
42,72.1984,0.0556863
52,38.3345,0.0851723
41,59.8201,0.0422123
62,55.3766,0.0836825
74,50.6809,0.0521995
50,69.7277,0.0187019
61,85.1707,0.0208561
100,29.6286,0.0195461
131,55.4046,0.0239431
99,34.5711,0.0339904
147,89.9724,0.0449483
98,73.9284,0.059917
129,72.3283,0.0382845
146,40.1324,0.0321231
164,88.3471,0.0597915
128,93.2206,0.0565602
163,38.156,0.040139
223,37.6254,0.0498889
245,97.2538,0.0675698
201,104.522,0.0564485
267,49.9113,0.0454404
221,31.9228,0.0501545
242,117.7,0.0400827
289,38.6707,0.0289981
313,120.562,0.0498019
339,80.8035,0.0674103
392,70.4369,0.0410322
