Q	U	V
{$V$}	{[mm$^3$]}	0.00283681
{$d_v$}	{[mm]}	0.175635
{$S_c$}	{[mm$^2$]}	0.138947
{$S_o$}	{[mm$^2$]}	0.0953657
{$S_l/S_o$}	[]	0.456991
{$\Psi$}	[]	0.697464
{$\eta$}	[]	0.728047
{med($\theta_e$)}	{[$^\circ$]}	84.3528
{$\Upsilon$}	[]	17
{$\Xi$}	[]	6
