Q	U	V
{$V$}	{[mm$^3$]}	0.00733486
{$d_v$}	{[mm]}	0.241063
{$S_c$}	{[mm$^2$]}	0.310041
{$S_o$}	{[mm$^2$]}	0.207857
{$S_l/S_o$}	[]	0.491607
{$\Psi$}	[]	0.588834
{$\eta$}	[]	0.651317
{med($\theta_e$)}	{[$^\circ$]}	65.1309
{$\Upsilon$}	[]	14
{$\Xi$}	[]	9
