facetNormals:0,facetNormals:1,facetNormals:2,FacetCenters:0,FacetCenters:1,FacetCenters:2,FacetIds,relFacetSize,absFacetSize,cellPairingIds,interplanarAngles,angleWeights
0.348178,-0.360801,-0.853018,6.58582,6.25856,8.45431,1,0.0159504,0.00644065,8,67.0828,0.0206848
-0.16261,0.590857,-0.755791,6.53118,6.29325,8.41007,2,0.0294162,0.011878,13,32.7503,0.0182527
0.592095,0.12937,-0.76576,6.6085,6.26553,8.40401,3,0.0213316,0.00861353,19,68.5423,0.0266699
-0.573302,0.23007,-0.740523,6.48988,6.21817,8.38464,4,0.0813224,0.0328373,26,51.8321,0.0216272
-0.49402,-0.463897,-0.70791,6.50766,6.19588,8.42472,5,0.0335776,0.0135584,34,29.8182,0.0128889
0.113972,-0.755055,-0.631082,6.55681,6.20061,8.48357,6,0.0108133,0.00436633,43,32.1628,0.0215924
0.679226,-0.524875,-0.454531,6.59511,6.24236,8.47564,7,0.0334104,0.0134908,53,105.622,0.0224128
-0.660913,0.680665,-0.251101,6.41756,6.19824,8.45947,8,0.0376786,0.0152143,64,65.106,0.025691
0.134838,-0.909091,-0.0092106,6.54512,6.31823,8.51879,9,0.0659896,0.026646,76,75.1123,0.0180415
-0.65451,-0.69437,-0.268912,6.5229,6.19683,8.40926,10,0.0207637,0.00838421,89,88.3541,0.02643
0.629144,0.669658,-0.0571184,6.59357,6.26203,8.41933,11,0.0770584,0.0311155,103,106.317,0.0221784
-0.945739,-0.183842,0.00572004,6.42796,6.26794,8.49648,12,0.0363854,0.0146921,118,80.1715,0.0234814
0.802355,-0.401612,0.309439,6.62551,6.21178,8.47645,13,0.0444853,0.0179628,134,87.7528,0.0191616
0.925372,0.184102,0.255383,6.6525,6.25501,8.45887,14,0.0239917,0.00968766,151,130.178,0.0259473
-0.0865913,0.892658,0.293215,6.51946,6.33142,8.50464,15,0.0695165,0.0280702,169,158.143,0.0242572
-0.652776,0.329404,0.641203,6.47422,6.23803,8.52114,16,0.0506189,0.0204395,188,118.184,0.00991316
0.0697722,-0.56537,0.810234,6.55624,6.30843,8.43844,17,0.00719126,0.00290377,208,137.168,0.0146299
-0.408608,-0.356907,0.821985,6.49178,6.27839,8.51148,18,0.0135112,0.00545572,229,150.547,0.0229123
0.151851,0.375386,0.900298,6.55656,6.26179,8.54642,19,0.0406583,0.0164175,18,53.9716,0.0247299
,,,,,,,,,25,32.788,0.0432044
,,,,,,,,,33,69.0294,0.0313594
,,,,,,,,,42,89.2686,0.0158136
,,,,,,,,,52,94.6759,0.0312863
,,,,,,,,,63,42.9091,0.0330387
,,,,,,,,,75,128.124,0.0406928
,,,,,,,,,88,95.9862,0.024344
,,,,,,,,,102,67.9329,0.0425785
,,,,,,,,,117,87.5032,0.0325317
,,,,,,,,,133,130.652,0.0354144
,,,,,,,,,150,104.287,0.0264285
,,,,,,,,,168,69.6082,0.0413394
,,,,,,,,,187,101.202,0.0372091
,,,,,,,,,207,173.622,0.0115572
,,,,,,,,,228,143.034,0.0185173
,,,,,,,,,250,120.211,0.0341355
,,,,,,,,,32,74.1397,0.0337978
,,,,,,,,,41,78.5755,0.026089
,,,,,,,,,51,62.0754,0.0143516
,,,,,,,,,62,44.0008,0.0260384
,,,,,,,,,74,96.6496,0.0272409
,,,,,,,,,87,91.9614,0.0322411
,,,,,,,,,101,106.282,0.0210438
,,,,,,,,,116,55.9889,0.0334136
,,,,,,,,,132,128.688,0.0268953
,,,,,,,,,149,78.4138,0.0288359
,,,,,,,,,167,66.7921,0.0225836
,,,,,,,,,186,100.02,0.0326457
,,,,,,,,,206,151.533,0.0300146
,,,,,,,,,227,132.405,0.0107564
,,,,,,,,,249,162.549,0.0165438
,,,,,,,,,272,124.854,0.0279822
,,,,,,,,,50,42.145,0.0475302
,,,,,,,,,61,76.1755,0.0190885
,,,,,,,,,73,100.679,0.0473624
,,,,,,,,,86,40.3337,0.0514973
,,,,,,,,,100,108.391,0.072858
,,,,,,,,,115,64.299,0.033081
,,,,,,,,,131,100.666,0.079133
,,,,,,,,,148,57.7594,0.0502762
,,,,,,,,,166,148.636,0.0575108
,,,,,,,,,185,135.931,0.0370523
,,,,,,,,,205,87.6138,0.0749575
,,,,,,,,,226,91.5154,0.0623982
,,,,,,,,,248,143.73,0.013214
,,,,,,,,,271,118.731,0.0231725
,,,,,,,,,295,134.511,0.0542124
,,,,,,,,,72,40.2728,0.0163585
,,,,,,,,,85,76.0358,0.0334938
,,,,,,,,,99,78.6972,0.0355101
,,,,,,,,,114,66.3279,0.0445081
,,,,,,,,,130,30.6504,0.0256599
,,,,,,,,,147,130.092,0.0467738
,,,,,,,,,165,54.4883,0.0349251
,,,,,,,,,184,117.475,0.0382694
,,,,,,,,,204,139.037,0.0279866
,,,,,,,,,225,128.759,0.0452828
,,,,,,,,,247,107.352,0.0403737
,,,,,,,,,270,110.869,0.0118456
,,,,,,,,,294,102.838,0.0192689
,,,,,,,,,319,156.396,0.0367803
,,,,,,,,,98,37.7738,0.0163386
,,,,,,,,,113,116.302,0.0168041
,,,,,,,,,129,38.998,0.0185817
,,,,,,,,,146,50.8994,0.0142208
,,,,,,,,,164,115.866,0.0189653
,,,,,,,,,183,88.3541,0.0166719
,,,,,,,,,203,77.7557,0.0173977
,,,,,,,,,224,101.6,0.0149076
,,,,,,,,,246,158.371,0.0187154
,,,,,,,,,269,139.062,0.0178199
,,,,,,,,,293,94.471,0.00863796
,,,,,,,,,318,107.65,0.0120127
,,,,,,,,,344,148.553,0.0170832
,,,,,,,,,128,136.55,0.0354164
,,,,,,,,,145,50.0748,0.0443609
,,,,,,,,,163,87.4927,0.0256109
,,,,,,,,,182,83.4626,0.0466114
,,,,,,,,,202,125.88,0.0348345
,,,,,,,,,223,48.1448,0.0381605
,,,,,,,,,245,64.0248,0.0279283
,,,,,,,,,268,136.122,0.0451305
,,,,,,,,,292,163.938,0.0402525
,,,,,,,,,317,91.4377,0.0118351
,,,,,,,,,343,119.003,0.0192413
,,,,,,,,,370,121.648,0.0366797
,,,,,,,,,162,141.467,0.0479684
,,,,,,,,,181,88.3824,0.0267733
,,,,,,,,,201,86.5516,0.0506106
,,,,,,,,,222,58.1844,0.0370207
,,,,,,,,,244,161.119,0.0408
,,,,,,,,,267,125.013,0.0293164
,,,,,,,,,291,50.3248,0.0488695
,,,,,,,,,316,58.7847,0.0432005
,,,,,,,,,342,130.741,0.0120774
,,,,,,,,,369,100.689,0.0198901
,,,,,,,,,397,94.1976,0.0391118
,,,,,,,,,200,53.2267,0.0315882
,,,,,,,,,221,128.215,0.0710957
,,,,,,,,,243,87.4398,0.0469071
,,,,,,,,,266,57.364,0.0531445
,,,,,,,,,290,92.8675,0.0351896
,,,,,,,,,315,162.24,0.0677071
,,,,,,,,,341,116.111,0.0572912
,,,,,,,,,368,55.4759,0.0129692
,,,,,,,,,396,73.1891,0.02243
,,,,,,,,,425,111.266,0.0503156
,,,,,,,,,242,160.704,0.0327128
,,,,,,,,,265,38.7311,0.0264395
,,,,,,,,,289,110.498,0.0283125
,,,,,,,,,314,145.874,0.0222613
,,,,,,,,,340,133.34,0.0319764
,,,,,,,,,367,88.4492,0.029448
,,,,,,,,,395,82.4493,0.0106827
,,,,,,,,,424,72.4624,0.0163702
,,,,,,,,,454,127.971,0.0274891
,,,,,,,,,288,144.096,0.0494306
,,,,,,,,,313,75.5402,0.0564071
,,,,,,,,,339,39.8456,0.036591
,,,,,,,,,366,52.6872,0.0730934
,,,,,,,,,394,104.669,0.0611011
,,,,,,,,,423,114.698,0.0131549
,,,,,,,,,453,126.792,0.0229912
,,,,,,,,,484,71.0257,0.0532306
,,,,,,,,,338,138.344,0.0400297
,,,,,,,,,365,164.512,0.0289165
,,,,,,,,,393,95.0826,0.0477685
,,,,,,,,,422,53.2611,0.0423379
,,,,,,,,,452,87.4421,0.012009
,,,,,,,,,483,61.2264,0.0197052
,,,,,,,,,515,102.6,0.0384034
,,,,,,,,,392,36.3116,0.0311719
,,,,,,,,,421,112.122,0.0542529
,,,,,,,,,451,119.723,0.0473543
,,,,,,,,,482,55.4031,0.0123811
,,,,,,,,,514,85.715,0.0207271
,,,,,,,,,547,74.5457,0.0424858
,,,,,,,,,450,80.067,0.0356722
,,,,,,,,,481,113.541,0.0325539
,,,,,,,,,513,80.0429,0.0110657
,,,,,,,,,546,104.062,0.0172871
,,,,,,,,,580,62.9011,0.0301767
,,,,,,,,,512,54.0604,0.0585814
,,,,,,,,,545,106.995,0.0130342
,,,,,,,,,579,92.6025,0.0226251
,,,,,,,,,614,51.0209,0.051308
,,,,,,,,,578,72.6185,0.0125934
,,,,,,,,,613,45.0887,0.0213292
,,,,,,,,,649,51.1813,0.0450951
,,,,,,,,,648,30.6418,0.00938658
,,,,,,,,,685,57.328,0.012221
,,,,,,,,,722,55.9766,0.0202824
