Q	U	V
{$V$}	{[mm$^3$]}	0.002838
{$d_v$}	{[mm]}	0.175659
{$S_c$}	{[mm$^2$]}	0.174788
{$S_o$}	{[mm$^2$]}	0.0986535
{$S_l/S_o$}	[]	0.771736
{$\Psi$}	[]	0.554601
{$\eta$}	[]	0.597289
{med($\theta_e$)}	{[$^\circ$]}	60.8802
{$\Upsilon$}	[]	18
{$\Xi$}	[]	4
