"cellPairingIds","interplanarAngles","angleWeights"
8,63.4726,0.0336811
13,55.0462,0.0257389
19,110.348,0.0294194
26,104.814,0.0328351
43,81.8213,0.0340363
18,108.541,0.0588663
25,78.5477,0.0824594
42,90.9102,0.0230128
63,118.402,0.0452355
117,99.3055,0.0823873
51,40.9456,0.0190058
62,48.0726,0.0599597
101,34.8386,0.0277128
116,64.9228,0.0344463
50,61.7666,0.0775665
86,47.7568,0.037868
85,50.0515,0.120753
99,50.4201,0.0437225
146,35.716,0.015987
183,109.772,0.0209355
203,101.871,0.0150676
128,89.2499,0.0458784
182,44.1732,0.0511261
223,73.6113,0.0328627
222,35.9967,0.0378528
244,33.2273,0.0222124
242,38.5246,0.0256633
289,75.0519,0.0200657
313,39.9644,0.023374
338,41.8544,0.0285298
