Q	U	V
{$V$}	{[mm$^3$]}	0.00203885
{$d_v$}	{[mm]}	0.157324
{$S_c$}	{[mm$^2$]}	0.147654
{$S_o$}	{[mm$^2$]}	0.0781561
{$S_l/S_o$}	[]	0.889219
{$\Psi$}	[]	0.526618
{$\eta$}	[]	0.593742
{med($\theta_e$)}	{[$^\circ$]}	53.94605
{$\Upsilon$}	[]	17
{$\Xi$}	[]	8
