facetNormals:0,facetNormals:1,facetNormals:2,FacetCenters:0,FacetCenters:1,FacetCenters:2,FacetIds,relFacetSize,absFacetSize,cellPairingIds,interplanarAngles,angleWeights
0.49783,0.595529,-0.583782,4.70414,5.92231,8.53246,1,0.0875709,0.011366,8,106.497,0.0525304
-0.728677,-0.363797,-0.532728,4.60757,5.80977,8.53614,2,0.037518,0.00486954,13,74.263,0.0645304
-0.665943,0.579453,-0.417385,4.64137,5.90715,8.52757,3,0.0510886,0.00663091,19,107.897,0.0662971
-0.931873,0.020113,-0.277007,4.59857,5.85109,8.54609,4,0.0533392,0.00692302,26,39.6062,0.0937092
0.328245,0.893893,-0.0293648,4.71025,5.90082,8.5648,5,0.100773,0.0130795,34,88.7799,0.0630362
0.823455,-0.236762,0.42678,4.59163,5.83623,8.57435,6,0.0492405,0.00639103,43,64.4714,0.0601608
0.875912,0.281491,0.332659,4.70171,5.89432,8.60178,7,0.0458191,0.00594697,53,95.4451,0.0772955
-0.564008,0.674807,0.357281,4.6498,5.91689,8.6066,8,0.0691783,0.00897881,64,142.246,0.0978914
-0.730592,-0.0176788,0.617162,4.62412,5.85276,8.62077,9,0.110969,0.014403,76,142.513,0.0739271
0.0303291,-0.41499,0.839855,4.64924,5.82993,8.62326,10,0.0639616,0.00830173,89,147.38,0.0576695
-0.321393,-0.19178,0.913139,4.66276,5.85193,8.6382,11,0.0429903,0.00557981,18,58.4798,0.0432641
,,,,,,,,,25,30.0304,0.0440511
,,,,,,,,,33,126.288,0.0546789
,,,,,,,,,42,142.722,0.0425873
,,,,,,,,,52,164.591,0.0412551
,,,,,,,,,63,91.5412,0.0486508
,,,,,,,,,75,76.9615,0.0560768
,,,,,,,,,88,110.439,0.0472944
,,,,,,,,,102,100.954,0.0400682
,,,,,,,,,32,38.0347,0.0521897
,,,,,,,,,41,70.428,0.0678032
,,,,,,,,,51,157.527,0.0501475
,,,,,,,,,62,125.818,0.0483106
,,,,,,,,,74,48.2273,0.058773
,,,,,,,,,87,76.4587,0.069966
,,,,,,,,,101,131.9,0.056805
,,,,,,,,,116,106.782,0.0466909
,,,,,,,,,50,107.578,0.0697563
,,,,,,,,,61,163.047,0.0512079
,,,,,,,,,73,161.611,0.049294
,,,,,,,,,86,61.5182,0.0602349
,,,,,,,,,100,56.7849,0.0720476
,,,,,,,,,115,107.184,0.0581694
,,,,,,,,,131,87.45,0.0476089
,,,,,,,,,72,87.101,0.0661555
,,,,,,,,,85,55.3922,0.0629956
,,,,,,,,,99,63.213,0.0820388
,,,,,,,,,114,107.481,0.105626
,,,,,,,,,130,115.588,0.0782543
,,,,,,,,,147,108.848,0.0602693
,,,,,,,,,98,31.7191,0.0474682
,,,,,,,,,113,121.274,0.0575309
,,,,,,,,,129,111.396,0.0682128
,,,,,,,,,146,57.5299,0.0556438
,,,,,,,,,164,79.6039,0.0459036
,,,,,,,,,128,101.504,0.0551263
,,,,,,,,,145,118.019,0.0648583
,,,,,,,,,163,78.0966,0.0533913
,,,,,,,,,182,91.8835,0.0443597
,,,,,,,,,162,46.8822,0.0852264
,,,,,,,,,181,89.812,0.0664678
,,,,,,,,,201,66.196,0.0530272
,,,,,,,,,200,55.833,0.0811495
,,,,,,,,,221,31.8601,0.0619722
,,,,,,,,,242,25.2277,0.0514199
