"cellPairingIds","interplanarAngles","angleWeights"
13,81.9288,0.0983854
18,114.596,0.0467315
25,104.483,0.0253979
33,79.3421,0.0486112
32,54.87,0.0346964
62,50.2782,0.0763508
50,38.5896,0.035722
73,63.5362,0.0321834
86,57.1702,0.0296329
72,63.6775,0.152077
99,42.2136,0.0669151
113,72.8461,0.0811168
128,74.1817,0.0554869
162,39.8901,0.0588882
