facetNormals:0,facetNormals:1,facetNormals:2,FacetCenters:0,FacetCenters:1,FacetCenters:2,FacetIds,relFacetSize,absFacetSize,cellPairingIds,interplanarAngles,angleWeights
-0.24313,0.00552266,-0.906849,7.04097,7.53319,5.50955,1,0.113518,0.0211966,8,48.2911,0.121416
0.523749,-0.0414669,-0.799937,7.14717,7.54447,5.50566,2,0.130496,0.0243667,13,67.2755,0.0536517
0.317592,-0.797599,-0.484214,7.12954,7.48152,5.53169,3,0.0351267,0.00655902,19,48.3804,0.0940938
-0.492031,-0.634226,-0.535475,7.04183,7.45972,5.52263,4,0.0803457,0.0150025,26,49.2482,0.0591403
-0.865024,-0.113323,-0.424484,6.98567,7.51408,5.53136,5,0.0399861,0.00746638,34,57.4927,0.07132
-0.497772,0.735945,-0.405449,7.03444,7.60829,5.52262,6,0.0519928,0.00970832,43,84.2828,0.0597635
0.914343,-0.0383775,-0.346292,7.20922,7.5096,5.5582,7,0.040558,0.00757316,53,73.5187,0.0635738
0.349744,0.819417,-0.372411,7.13026,7.64815,5.52539,8,0.0441494,0.00824378,64,101.559,0.0579198
0.667624,-0.687606,0.0156653,7.18355,7.47474,5.57788,9,0.0388782,0.00725951,76,93.7081,0.0553436
-0.501447,0.795982,0.203739,7.07476,7.62392,5.55238,10,0.0365915,0.00683253,89,121.162,0.0527494
0.917422,-0.146549,0.271727,7.17552,7.53309,5.57299,11,0.0343572,0.00641534,103,136.985,0.0763535
0.735466,0.24306,0.503777,7.1574,7.53192,5.5754,12,0.0575216,0.0107407,118,116.358,0.0266218
-0.0981447,0.851582,0.484011,7.10581,7.61216,5.56939,13,0.015079,0.00281563,134,136.362,0.0532676
0.41122,0.627989,0.62589,7.08017,7.53138,5.58015,14,0.0347982,0.00649768,18,51.5362,0.0553535
,,,,,,,,,25,77.6862,0.0994564
,,,,,,,,,33,96.7288,0.0612149
,,,,,,,,,42,87.97,0.074359
,,,,,,,,,52,36.0113,0.0618828
,,,,,,,,,63,61.0663,0.0659773
,,,,,,,,,75,66.5097,0.0599081
,,,,,,,,,88,119.857,0.0571562
,,,,,,,,,102,73.106,0.0543936
,,,,,,,,,117,91.806,0.0798471
,,,,,,,,,133,120.199,0.0270342
,,,,,,,,,150,109.442,0.0549448
,,,,,,,,,32,50.1929,0.0488823
,,,,,,,,,41,88.7295,0.0373992
,,,,,,,,,51,124.756,0.0419272
,,,,,,,,,62,59.5556,0.0376475
,,,,,,,,,74,112.366,0.0391246
,,,,,,,,,87,37.165,0.0369074
,,,,,,,,,101,160.221,0.0358442
,,,,,,,,,116,73.1422,0.0347377
,,,,,,,,,132,102.958,0.0436175
,,,,,,,,,149,166.826,0.0211003
,,,,,,,,,167,134.346,0.0349617
,,,,,,,,,50,39.2665,0.0533975
,,,,,,,,,61,90.2875,0.063132
,,,,,,,,,73,104.733,0.053905
,,,,,,,,,86,121.899,0.0569856
,,,,,,,,,100,83.8418,0.0524005
,,,,,,,,,115,113.288,0.0502829
,,,,,,,,,131,122.654,0.0481323
,,,,,,,,,148,151.804,0.0670444
,,,,,,,,,166,142.241,0.0253925
,,,,,,,,,185,172.869,0.0485634
,,,,,,,,,72,56.7663,0.0452058
,,,,,,,,,85,132.355,0.04027
,,,,,,,,,99,104.673,0.0419648
,,,,,,,,,114,122.981,0.0394244
,,,,,,,,,130,74.0217,0.0382136
,,,,,,,,,147,161.835,0.0369586
,,,,,,,,,165,168.219,0.0471771
,,,,,,,,,184,103.136,0.0218996
,,,,,,,,,204,136.918,0.0372122
,,,,,,,,,98,111.033,0.045569
,,,,,,,,,113,52.0507,0.0477512
,,,,,,,,,129,154.471,0.0444891
,,,,,,,,,146,36.7939,0.0429533
,,,,,,,,,164,135.537,0.0413741
,,,,,,,,,183,115.71,0.0546176
,,,,,,,,,203,60.0945,0.023378
,,,,,,,,,224,89.7776,0.0416923
,,,,,,,,,128,63.7903,0.0422776
,,,,,,,,,145,47.6845,0.0397003
,,,,,,,,,163,126.452,0.0384728
,,,,,,,,,182,37.6043,0.037201
,,,,,,,,,202,57.2814,0.0475728
,,,,,,,,,223,107.524,0.0219845
,,,,,,,,,245,81.8753,0.037458
,,,,,,,,,162,111.27,0.0413465
,,,,,,,,,181,64.4433,0.0400168
,,,,,,,,,201,83.8841,0.0386427
,,,,,,,,,222,72.4681,0.0499561
,,,,,,,,,244,59.4468,0.0224801
,,,,,,,,,267,63.2139,0.03892
,,,,,,,,,200,162.287,0.0377002
,,,,,,,,,221,39.3461,0.0364782
,,,,,,,,,243,68.0003,0.0463971
,,,,,,,,,266,132.997,0.02173
,,,,,,,,,290,99.0566,0.0367253
,,,,,,,,,242,124.022,0.0354392
,,,,,,,,,265,94.6877,0.0447292
,,,,,,,,,289,29.3845,0.021357
,,,,,,,,,314,63.4038,0.0356724
,,,,,,,,,288,29.8176,0.0430193
,,,,,,,,,313,95.0162,0.0209593
,,,,,,,,,339,61.2318,0.0345763
,,,,,,,,,338,65.4011,0.0238943
,,,,,,,,,365,31.4525,0.0433634
,,,,,,,,,392,34.0293,0.0210406
