facetNormals:0,facetNormals:1,facetNormals:2,FacetCenters:0,FacetCenters:1,FacetCenters:2,FacetIds,relFacetSize,absFacetSize,cellPairingIds,interplanarAngles,angleWeights
0.0837744,-0.255876,-0.950457,4.56507,4.80767,9.16694,1,0.00825783,0.00174254,8,34.5298,0.0121978
-0.297736,-0.59796,-0.68372,4.57179,4.79359,9.20782,2,0.0233279,0.00492257,13,57.3928,0.0106895
-0.55128,0.405161,-0.709826,4.51381,4.85743,9.20776,3,0.015151,0.00319711,19,41.0948,0.0147763
0.666421,-0.0345741,-0.675952,4.62647,4.76691,9.25135,4,0.070154,0.0148036,26,82.5546,0.0138367
-0.743144,0.520767,-0.336024,4.48756,4.82905,9.22138,5,0.0426508,0.00900001,34,82.3194,0.0114561
-0.277838,0.862646,-0.393998,4.52785,4.84804,9.23956,6,0.0186976,0.0039455,43,70.9985,0.0120276
-0.901453,-0.116469,-0.381714,4.5131,4.87444,9.21842,7,0.0221305,0.00466989,53,78.9005,0.0147395
0.872328,0.362304,-0.214457,4.61732,4.80748,9.25145,8,0.0685285,0.0144606,64,70.2685,0.0142319
0.89332,-0.32042,-0.17354,4.63308,4.73563,9.27604,9,0.0514619,0.0108593,76,93.141,0.0147492
0.346211,0.880149,-0.151881,4.58857,4.83192,9.25624,10,0.0689474,0.014549,89,104.381,0.0124322
-0.947007,-0.156291,0.212363,4.48783,4.77795,9.34135,11,0.0251412,0.0053052,103,108.444,0.0115183
-0.928025,0.295587,0.163359,4.47891,4.81384,9.30575,12,0.0190335,0.00401637,118,90.299,0.0137993
0.770786,-0.557006,0.22319,4.66051,4.69778,9.38874,13,0.0419505,0.00885223,134,118.775,0.0138193
-0.536483,0.778203,0.2299,4.51009,4.86155,9.31518,14,0.0423233,0.0089309,151,103.497,0.0109162
-0.626736,-0.664062,0.361779,4.51607,4.66911,9.36743,15,0.0160985,0.00339705,169,123.011,0.0138599
0.665151,0.547447,0.465781,4.61855,4.83117,9.35834,16,0.0430966,0.00909408,188,143.957,0.0148927
0.2408,0.66625,0.64965,4.58685,4.82923,9.38755,17,0.0757781,0.0159904,208,123.563,0.0100025
0.444794,-0.484778,0.737689,4.63502,4.70128,9.46119,18,0.0126818,0.00267607,229,142.295,0.0141843
-0.603669,-0.0475648,0.756245,4.53215,4.75165,9.42427,19,0.0502416,0.0106018,251,151.871,0.0125922
-0.298543,0.611841,0.711698,4.5303,4.83118,9.39878,20,0.0265035,0.00559267,274,174.768,0.0113945
-0.172926,0.249651,0.938749,4.53968,4.74854,9.4314,21,0.0183736,0.00387712,18,64.3991,0.0183707
,,,,,,,,,25,71.7442,0.0350131
,,,,,,,,,33,81.3188,0.0301599
,,,,,,,,,42,99.981,0.0207577
,,,,,,,,,52,50.5294,0.0227134
,,,,,,,,,63,110.863,0.0348071
,,,,,,,,,75,87.248,0.0321033
,,,,,,,,,88,125.026,0.0348609
,,,,,,,,,102,75.8179,0.0242006
,,,,,,,,,117,90.7366,0.020963
,,,,,,,,,133,93.0096,0.0299829
,,,,,,,,,150,119.849,0.0300776
,,,,,,,,,168,69.0075,0.0190504
,,,,,,,,,187,154.35,0.0302706
,,,,,,,,,207,174.315,0.0356738
,,,,,,,,,228,111.542,0.0164311
,,,,,,,,,250,109.484,0.0318619
,,,,,,,,,273,144.203,0.0248146
,,,,,,,,,297,141.652,0.0205565
,,,,,,,,,32,83.9672,0.0249201
,,,,,,,,,41,25.7576,0.0223593
,,,,,,,,,51,36.58,0.0167385
,,,,,,,,,62,42.1364,0.0179874
,,,,,,,,,74,100.98,0.0248156
,,,,,,,,,87,121.651,0.0234099
,,,,,,,,,101,73.162,0.0248429
,,,,,,,,,116,71.4692,0.0189076
,,,,,,,,,132,58.0364,0.0168718
,,,,,,,,,149,147.151,0.0222619
,,,,,,,,,167,62.16,0.022314
,,,,,,,,,186,100.734,0.0156104
,,,,,,,,,206,119.506,0.0224201
,,,,,,,,,227,109.99,0.025253
,,,,,,,,,249,172.11,0.0138069
,,,,,,,,,272,103.52,0.0232813
,,,,,,,,,296,95.479,0.0192803
,,,,,,,,,321,118.885,0.0166074
,,,,,,,,,50,108.137,0.0530496
,,,,,,,,,61,86.8646,0.0295259
,,,,,,,,,73,111.205,0.0336469
,,,,,,,,,86,39.1218,0.0693317
,,,,,,,,,100,37.8398,0.0593715
,,,,,,,,,115,70.5512,0.0695454
,,,,,,,,,131,145.471,0.0370167
,,,,,,,,,148,141.991,0.0299431
,,,,,,,,,166,65.6836,0.0525045
,,,,,,,,,185,125.75,0.0527955
,,,,,,,,,205,133.253,0.0261876
,,,,,,,,,226,83.2399,0.0533931
,,,,,,,,,248,109.295,0.0728576
,,,,,,,,,271,101.393,0.0214805
,,,,,,,,,295,172.259,0.0585511
,,,,,,,,,320,138.55,0.0384725
,,,,,,,,,346,144.024,0.0291204
,,,,,,,,,72,34.4981,0.025998
,,,,,,,,,85,39.3659,0.0291406
,,,,,,,,,99,114.422,0.0525781
,,,,,,,,,114,145.829,0.0466439
,,,,,,,,,130,74.2182,0.0527009
,,,,,,,,,147,54.6018,0.0316348
,,,,,,,,,165,34.3798,0.0263209
,,,,,,,,,184,172.844,0.0422977
,,,,,,,,,204,39.4657,0.0424864
,,,,,,,,,225,90.0984,0.0233744
,,,,,,,,,247,112.701,0.0428725
,,,,,,,,,270,93.0992,0.0545812
,,,,,,,,,294,150.306,0.0195505
,,,,,,,,,319,79.5694,0.046136
,,,,,,,,,345,71.5674,0.032692
,,,,,,,,,372,93.4181,0.0256831
,,,,,,,,,98,72.0416,0.0202697
,,,,,,,,,113,80.7011,0.0293793
,,,,,,,,,129,118.589,0.0274293
,,,,,,,,,146,40.2117,0.0294176
,,,,,,,,,164,87.3674,0.0214459
,,,,,,,,,183,62.6437,0.018864
,,,,,,,,,203,144.165,0.0258664
,,,,,,,,,224,40.6096,0.0259368
,,,,,,,,,246,123.894,0.017301
,,,,,,,,,269,83.8351,0.0260802
,,,,,,,,,293,74.6235,0.0299944
,,,,,,,,,318,148.45,0.0151131
,,,,,,,,,344,100.305,0.0272529
,,,,,,,,,371,70.1591,0.0219266
,,,,,,,,,399,96.2684,0.0185342
,,,,,,,,,128,141.441,0.0334566
,,,,,,,,,145,137.543,0.0309509
,,,,,,,,,163,112.188,0.0335062
,,,,,,,,,182,35.3109,0.02354
,,,,,,,,,202,40.5483,0.0204655
,,,,,,,,,223,137.956,0.0289754
,,,,,,,,,245,71.4414,0.0290638
,,,,,,,,,268,58.6178,0.0186386
,,,,,,,,,292,150.604,0.0292439
,,,,,,,,,317,124.936,0.0342566
,,,,,,,,,343,129.978,0.0161239
,,,,,,,,,370,74.1378,0.0307265
,,,,,,,,,398,94.3594,0.0241204
,,,,,,,,,427,103.77,0.0200778
,,,,,,,,,162,41.4542,0.0587815
,,,,,,,,,181,45.2285,0.0687373
,,,,,,,,,201,167.134,0.0367865
,,,,,,,,,222,140.441,0.0297923
,,,,,,,,,244,63.464,0.0520425
,,,,,,,,,267,104.464,0.0523285
,,,,,,,,,291,155.386,0.0260722
,,,,,,,,,316,44.3186,0.0529154
,,,,,,,,,342,70.413,0.0719712
,,,,,,,,,369,86.7568,0.0214028
,,,,,,,,,397,138.795,0.0579772
,,,,,,,,,426,101.573,0.0382239
,,,,,,,,,456,105.894,0.0289778
,,,,,,,,,200,86.674,0.058935
,,,,,,,,,221,151.408,0.0337797
,,,,,,,,,243,177.799,0.027789
,,,,,,,,,266,28.489,0.0462219
,,,,,,,,,290,144.97,0.0464474
,,,,,,,,,315,115.63,0.024525
,,,,,,,,,341,69.0423,0.0469092
,,,,,,,,,368,96.8813,0.0612965
,,,,,,,,,396,63.5574,0.020349
,,,,,,,,,425,134.512,0.0508444
,,,,,,,,,455,128.096,0.0349879
,,,,,,,,,486,114.674,0.0270791
,,,,,,,,,242,121.905,0.0368465
,,,,,,,,,265,95.2125,0.0298316
,,,,,,,,,289,105.96,0.0521629
,,,,,,,,,314,60.1156,0.0524501
,,,,,,,,,340,155.542,0.0261024
,,,,,,,,,367,46.8672,0.0530398
,,,,,,,,,395,51.6654,0.0722015
,,,,,,,,,424,113.974,0.0214232
,,,,,,,,,454,113.209,0.0581266
,,,,,,,,,485,69.7162,0.0382888
,,,,,,,,,517,88.9522,0.029015
,,,,,,,,,288,26.6936,0.0216651
,,,,,,,,,313,128.326,0.0314401
,,,,,,,,,339,62.9247,0.0315443
,,,,,,,,,366,36.6978,0.0196285
,,,,,,,,,394,129.824,0.0317566
,,,,,,,,,423,101.861,0.0377559
,,,,,,,,,453,101.204,0.0168594
,,,,,,,,,484,39.0397,0.0335125
,,,,,,,,,516,69.5521,0.0258044
,,,,,,,,,549,70.4789,0.0212311
,,,,,,,,,338,150.971,0.026186
,,,,,,,,,365,37.1752,0.0262582
,,,,,,,,,393,62.7287,0.0174434
,,,,,,,,,422,113.095,0.0264052
,,,,,,,,,452,85.1902,0.030425
,,,,,,,,,483,116.5,0.0152216
,,,,,,,,,515,45.5757,0.0276079
,,,,,,,,,548,53.82,0.0221558
,,,,,,,,,582,66.5582,0.0186977
,,,,,,,,,392,146.862,0.0421361
,,,,,,,,,421,91.9382,0.0232679
,,,,,,,,,451,70.983,0.0425158
,,,,,,,,,482,92.4725,0.0540043
,,,,,,,,,514,36.3648,0.0194759
,,,,,,,,,547,106.578,0.0457232
,,,,,,,,,581,115.361,0.0324842
,,,,,,,,,616,93.7376,0.0255547
,,,,,,,,,450,95.8492,0.0233249
,,,,,,,,,481,79.3373,0.0427065
,,,,,,,,,513,54.8249,0.0543123
,,,,,,,,,546,117.655,0.0195159
,,,,,,,,,580,60.7348,0.0459438
,,,,,,,,,615,33.3904,0.0325953
,,,,,,,,,651,58.4028,0.0256234
,,,,,,,,,512,129.506,0.0234408
,,,,,,,,,545,112.306,0.0265555
,,,,,,,,,579,71.3764,0.0141874
,,,,,,,,,614,44.0827,0.0243839
,,,,,,,,,650,87.7317,0.0200304
,,,,,,,,,687,73.0687,0.017161
,,,,,,,,,578,28.4694,0.0549449
,,,,,,,,,613,67.2677,0.0195969
,,,,,,,,,649,94.5536,0.0463956
,,,,,,,,,686,60.9822,0.0328221
,,,,,,,,,724,61.6452,0.0257633
,,,,,,,,,648,73.9073,0.0217274
,,,,,,,,,685,70.2784,0.0604225
,,,,,,,,,723,32.5352,0.0392717
,,,,,,,,,762,39.2372,0.029576
,,,,,,,,,722,70.9586,0.0202517
,,,,,,,,,761,84.3635,0.017155
,,,,,,,,,801,59.5284,0.0150061
,,,,,,,,,800,43.7424,0.0347013
,,,,,,,,,841,32.9144,0.0269071
,,,,,,,,,882,26.1221,0.0217021
