facetNormals:0,facetNormals:1,facetNormals:2,FacetCenters:0,FacetCenters:1,FacetCenters:2,FacetIds,relFacetSize,absFacetSize,cellPairingIds,interplanarAngles,angleWeights
-0.208202,0.111151,-0.929689,4.80035,5.30686,7.88772,1,0.0195742,0.00215807,8,40.3652,0.0153292
-0.145869,-0.534146,-0.788773,4.87192,5.28292,7.85618,2,0.0125973,0.00138886,13,47.2503,0.0305028
-0.457711,0.697999,-0.492922,4.78564,5.33312,7.92083,3,0.0690601,0.00761393,19,64.4649,0.00995613
0.215928,0.878104,-0.379517,4.82411,5.35898,7.94013,4,0.00667585,0.000736018,26,95.8962,0.0363592
-0.200696,-0.913612,0.0349236,4.84303,5.26654,7.92774,5,0.255159,0.0281314,34,127.135,0.025181
0.415919,-0.783502,0.426127,4.88115,5.29508,8.01302,6,0.0352892,0.00389067,43,137.533,0.0236999
0.701952,-0.423819,0.538889,4.88227,5.28593,7.98594,7,0.0300293,0.00331075,53,103.579,0.0323382
-0.656714,0.550011,0.446857,4.81246,5.37344,7.98565,8,0.0929467,0.0102475,64,125.744,0.0275195
-0.527345,-0.48943,0.639893,4.8091,5.29508,7.99491,9,0.0463219,0.00510703,76,121.26,0.0348159
-0.0881442,0.734486,0.626577,4.88693,5.38587,8.00973,10,0.157296,0.017342,89,159.531,0.0138721
0.132548,-0.446943,0.876276,4.86535,5.30781,8.05057,11,0.0107427,0.00118439,103,171.106,0.0214024
0.25515,0.0316171,0.93935,4.87326,5.3311,8.01626,12,0.0236072,0.00260272,18,84.9191,0.0213078
,,,,,,,,,25,102.29,0.00872691
,,,,,,,,,33,57.1196,0.0240092
,,,,,,,,,42,88.6878,0.0185667
,,,,,,,,,52,108.566,0.0177489
,,,,,,,,,63,126.241,0.0221874
,,,,,,,,,75,100.329,0.0198078
,,,,,,,,,88,159.253,0.0233264
,,,,,,,,,102,119.552,0.0115963
,,,,,,,,,117,147.896,0.0164281
,,,,,,,,,32,42.4756,0.0121748
,,,,,,,,,41,128.355,0.1087
,,,,,,,,,51,173.23,0.04671
,,,,,,,,,62,158.138,0.0418576
,,,,,,,,,74,60.2861,0.0792425
,,,,,,,,,87,116.445,0.0554505
,,,,,,,,,101,74.941,0.0959804
,,,,,,,,,116,146.742,0.0185931
,,,,,,,,,132,126.213,0.0351865
,,,,,,,,,50,159.324,0.0130113
,,,,,,,,,61,141.944,0.0112277
,,,,,,,,,73,116.218,0.0109233
,,,,,,,,,86,79.5672,0.012457
,,,,,,,,,100,146.4,0.0116699
,,,,,,,,,115,65.9054,0.0128081
,,,,,,,,,131,135.68,0.0082345
,,,,,,,,,148,106.649,0.0104083
,,,,,,,,,72,45.3625,0.0620032
,,,,,,,,,85,73.2205,0.0537346
,,,,,,,,,99,113.119,0.136259
,,,,,,,,,114,50.3312,0.0784093
,,,,,,,,,130,134.096,0.194617
,,,,,,,,,147,63.6532,0.0206173
,,,,,,,,,165,92.9734,0.0432161
,,,,,,,,,98,27.8633,0.0324475
,,,,,,,,,113,122.7,0.051156
,,,,,,,,,129,62.5488,0.0400598
,,,,,,,,,146,111.208,0.0576457
,,,,,,,,,164,37.1341,0.0164712
,,,,,,,,,183,59.8324,0.0282897
,,,,,,,,,128,118.564,0.0453929
,,,,,,,,,145,78.8874,0.0364372
,,,,,,,,,163,92.1392,0.0504308
,,,,,,,,,182,39.2041,0.0158243
,,,,,,,,,202,45.3211,0.0264338
,,,,,,,,,162,67.0284,0.0618297
,,,,,,,,,181,37.6245,0.116848
,,,,,,,,,201,86.4907,0.0192594
,,,,,,,,,222,73.3512,0.0376515
,,,,,,,,,200,84.5938,0.0715679
,,,,,,,,,221,42.0584,0.0174406
,,,,,,,,,243,61.2485,0.0312754
,,,,,,,,,242,77.4494,0.0201118
,,,,,,,,,265,51.3789,0.0410531
,,,,,,,,,288,29.3212,0.014766
