facetNormals:0,facetNormals:1,facetNormals:2,FacetCenters:0,FacetCenters:1,FacetCenters:2,FacetIds,relFacetSize,absFacetSize,cellPairingIds,interplanarAngles,angleWeights
-0.486849,0.399339,-0.742116,7.05389,3.42436,7.14378,1,0.0315139,0.00543241,8,42.3517,0.025405
0.138533,0.70088,-0.649611,7.07518,3.43213,7.1448,2,0.0212799,0.00366827,13,82.3841,0.0466717
-0.151926,-0.796496,-0.493962,7.06178,3.27924,7.23804,3,0.0899245,0.0155013,19,28.5848,0.0234673
-0.847251,0.232769,-0.46228,7.02341,3.41106,7.21764,4,0.0186941,0.00322253,26,49.2148,0.0433212
-0.843823,-0.252277,-0.416968,7.01018,3.35191,7.25529,5,0.0692773,0.0119421,34,113.495,0.0404732
0.488749,-0.788228,-0.243455,7.07961,3.27368,7.26034,6,0.0565503,0.00974824,43,51.5152,0.0395517
-0.757715,0.631316,0.0314777,7.01475,3.45014,7.24406,7,0.0530935,0.00915236,53,61.4061,0.0273026
-0.18894,0.957535,0.0263854,7.05858,3.47846,7.24188,8,0.0240842,0.00415168,64,60.9287,0.0406418
-0.955959,0.189804,0.104639,7.00479,3.35976,7.3093,9,0.0572135,0.00986256,76,83.492,0.0411669
-0.888662,-0.240427,0.309254,7.00982,3.32923,7.32644,10,0.0593447,0.0102299,89,142.65,0.0229653
0.405735,-0.841565,0.305845,7.05408,3.2973,7.27322,11,0.018065,0.00311408,103,169.439,0.0379006
0.61662,-0.443108,0.624783,7.10512,3.31577,7.33137,12,0.0475342,0.00819402,118,117.34,0.0351132
-0.502371,-0.564444,0.611224,7.033,3.2727,7.34275,13,0.0396408,0.00683335,134,99.5907,0.0341279
0.0369323,0.770326,0.604382,7.03833,3.41188,7.34919,14,0.0372149,0.00641517,151,153.707,0.0373481
0.103458,-0.623039,0.747209,7.06537,3.29933,7.34515,15,0.0458333,0.00790082,169,143.182,0.0391777
0.708809,0.158755,0.629702,7.04367,3.36189,7.24083,16,0.0517668,0.00892365,188,127.14,0.0413401
0.0525321,0.325188,0.897621,7.05247,3.35944,7.3681,17,0.0600706,0.0103551,18,106.371,0.0344157
,,,,,,,,,25,68.8395,0.0199034
,,,,,,,,,33,91.3913,0.0325588
,,,,,,,,,42,110.654,0.0309234
,,,,,,,,,52,70.5638,0.0303825
,,,,,,,,,63,48.2485,0.0225954
,,,,,,,,,75,94.082,0.0310217
,,,,,,,,,88,121.681,0.0313267
,,,,,,,,,102,140.485,0.0195411
,,,,,,,,,117,131.649,0.0293988
,,,,,,,,,133,156.75,0.0276935
,,,,,,,,,150,80.73,0.0270769
,,,,,,,,,168,163.914,0.0290652
,,,,,,,,,187,102.417,0.0301614
,,,,,,,,,207,112.137,0.0314269
,,,,,,,,,32,79.5073,0.0309534
,,,,,,,,,41,54.6645,0.078262
,,,,,,,,,51,42.2582,0.0694353
,,,,,,,,,62,115.495,0.0667665
,,,,,,,,,74,143.689,0.0379929
,,,,,,,,,87,93.5501,0.0699329
,,,,,,,,,101,79.1387,0.0715023
,,,,,,,,,116,60.6431,0.030086
,,,,,,,,,132,93.0309,0.062193
,,,,,,,,,149,75.9527,0.0550252
,,,,,,,,,167,170.563,0.0526435
,,,,,,,,,186,83.11,0.060719
,,,,,,,,,206,126.677,0.0657077
,,,,,,,,,227,141.49,0.0720266
,,,,,,,,,50,28.6558,0.0294432
,,,,,,,,,61,120.629,0.0280993
,,,,,,,,,73,37.7739,0.027652
,,,,,,,,,86,67.5122,0.0210496
,,,,,,,,,100,34.1125,0.0281805
,,,,,,,,,115,54.9312,0.0284319
,,,,,,,,,131,134.249,0.0183742
,,,,,,,,,148,159.492,0.0268348
,,,,,,,,,166,89.3057,0.0254067
,,,,,,,,,185,97.7615,0.0248869
,,,,,,,,,205,126.523,0.0265566
,,,,,,,,,226,153.571,0.0274687
,,,,,,,,,248,113.845,0.0285145
,,,,,,,,,72,96.8876,0.0622702
,,,,,,,,,85,60.9439,0.0601153
,,,,,,,,,99,95.6178,0.0357426
,,,,,,,,,114,41.5212,0.0626701
,,,,,,,,,130,43.9274,0.0639275
,,,,,,,,,147,105.599,0.0286572
,,,,,,,,,165,134.286,0.0563821
,,,,,,,,,184,70.8004,0.050427
,,,,,,,,,204,120.008,0.0484195
,,,,,,,,,225,104.685,0.0551679
,,,,,,,,,247,164.058,0.0592555
,,,,,,,,,270,122.502,0.0643463
,,,,,,,,,98,157.733,0.0547674
,,,,,,,,,113,155.739,0.0337813
,,,,,,,,,129,133.107,0.05688
,,,,,,,,,146,110.105,0.0579138
,,,,,,,,,164,33.3739,0.0273826
,,,,,,,,,183,58.08,0.0516517
,,,,,,,,,203,86.8893,0.0466093
,,,,,,,,,224,141.598,0.044889
,,,,,,,,,246,67.451,0.0506309
,,,,,,,,,269,85.7701,0.0540529
,,,,,,,,,293,119.335,0.0582573
,,,,,,,,,128,39.0206,0.0331369
,,,,,,,,,145,28.8162,0.0550766
,,,,,,,,,163,56.3292,0.0560453
,,,,,,,,,182,148.728,0.0269577
,,,,,,,,,202,138.552,0.0501603
,,,,,,,,,223,87.3971,0.0453914
,,,,,,,,,245,60.4138,0.0437583
,,,,,,,,,268,117.663,0.049197
,,,,,,,,,292,116.08,0.0524218
,,,,,,,,,317,78.1499,0.056367
,,,,,,,,,162,67.5726,0.0338987
,,,,,,,,,181,93.2741,0.0342632
,,,,,,,,,201,155.649,0.0206448
,,,,,,,,,222,123.101,0.0319701
,,,,,,,,,244,116.907,0.0299637
,,,,,,,,,267,38.7015,0.0292432
,,,,,,,,,291,128.636,0.0315761
,,,,,,,,,316,87.8809,0.032874
,,,,,,,,,342,69.6177,0.0343832
,,,,,,,,,200,28.5436,0.0582596
,,,,,,,,,221,122.348,0.0274597
,,,,,,,,,243,129.123,0.0519266
,,,,,,,,,266,62.6911,0.046833
,,,,,,,,,290,79.5534,0.0450965
,,,,,,,,,315,98.332,0.050895
,,,,,,,,,341,128.11,0.054354
,,,,,,,,,368,83.5412,0.0586072
,,,,,,,,,242,93.8222,0.0276984
,,,,,,,,,265,105.065,0.0527869
,,,,,,,,,289,35.2111,0.0475316
,,,,,,,,,314,91.8741,0.0457439
,,,,,,,,,340,72.2966,0.0517211
,,,,,,,,,367,120.463,0.0552973
,,,,,,,,,395,80.5335,0.0597054
,,,,,,,,,288,32.6205,0.0261803
,,,,,,,,,313,61.347,0.0248194
,,,,,,,,,339,117.747,0.024323
,,,,,,,,,366,34.2679,0.0259155
,,,,,,,,,394,68.4855,0.0267834
,,,,,,,,,423,88.6479,0.0277767
,,,,,,,,,338,70.2958,0.0432301
,,,,,,,,,365,86.4866,0.0417463
,,,,,,,,,393,33.0142,0.0466682
,,,,,,,,,422,36.4723,0.0495603
,,,,,,,,,452,61.466,0.0530721
,,,,,,,,,392,95.0574,0.0383896
,,,,,,,,,421,37.2979,0.0425127
,,,,,,,,,451,93.7315,0.0448995
,,,,,,,,,482,68.6241,0.0477628
,,,,,,,,,450,91.4658,0.0410769
,,,,,,,,,481,55.8284,0.0433009
,,,,,,,,,513,31.9483,0.0459579
,,,,,,,,,512,61.7658,0.0486197
,,,,,,,,,545,59.5886,0.0519949
,,,,,,,,,578,44.6337,0.0556104
