facetNormals:0,facetNormals:1,facetNormals:2,FacetCenters:0,FacetCenters:1,FacetCenters:2,FacetIds,relFacetSize,absFacetSize,cellPairingIds,interplanarAngles,angleWeights
-0.230998,0.490386,-0.819138,7.00402,4.67191,8.18425,1,0.0350135,0.00568619,8,39.2941,0.0507124
-0.567361,-0.0626552,-0.75837,6.96263,4.60739,8.15962,2,0.0919317,0.0149297,13,66.1558,0.0339478
0.708402,0.00671367,-0.667635,7.09878,4.57161,8.14157,3,0.0329451,0.00535028,19,45.2793,0.0486793
0.479286,0.595571,-0.597087,7.07335,4.69805,8.19437,4,0.0798417,0.0129663,26,86.4933,0.0196221
0.299089,-0.727568,-0.592126,7.05838,4.50017,8.12296,5,0.0136303,0.00221357,34,34.9782,0.0311766
-0.201257,0.884835,-0.380214,6.98872,4.72359,8.22944,6,0.0280975,0.00456304,43,100.158,0.0354072
-0.366362,-0.853856,-0.206554,7.02051,4.48362,8.16729,7,0.0358098,0.00581552,53,75.9889,0.0183286
-0.803363,-0.462883,-0.336965,6.98908,4.52076,8.15376,8,0.0124134,0.00201593,64,41.5274,0.0451523
-0.667171,0.644794,-0.301706,6.94409,4.70941,8.22882,9,0.0635562,0.0103215,76,87.9968,0.0487062
0.9367,0.210456,-0.179095,7.12227,4.64348,8.22104,10,0.0799863,0.0129898,89,107.748,0.0375818
0.953117,-0.241544,-0.0534516,7.12211,4.57412,8.21721,11,0.0405567,0.00658641,103,120.277,0.0395545
0.814242,-0.548602,0.0359442,7.09828,4.51525,8.20862,12,0.0454489,0.0073809,118,74.1729,0.0422937
-0.253578,0.892974,0.288213,6.97092,4.72856,8.29018,13,0.0533962,0.00867155,134,96.426,0.01828
-0.888317,0.0653613,0.421908,7.01085,4.7185,8.31497,14,0.0123687,0.00200869,151,104.87,0.0470119
0.75806,0.489035,0.38025,7.09253,4.71035,8.3079,15,0.0715207,0.011615,169,145.379,0.0303394
0.712735,-0.248017,0.60498,7.1027,4.6083,8.30101,16,0.0267663,0.00434685,188,156.4,0.0449162
-0.14949,-0.512781,0.722347,7.03833,4.59569,8.28591,17,0.0626295,0.010171,208,156.983,0.0176729
0.209228,-0.123123,0.957696,7.06075,4.60446,8.29177,18,0.0118193,0.00191946,18,83.539,0.0485069
,,,,,,,,,25,81.0292,0.0854612
,,,,,,,,,33,69.6534,0.0237407
,,,,,,,,,42,68.1816,0.0430404
,,,,,,,,,52,62.4402,0.0515425
,,,,,,,,,63,37.7541,0.0218732
,,,,,,,,,75,52.2521,0.0751548
,,,,,,,,,88,116.169,0.085544
,,,,,,,,,102,121.265,0.0562834
,,,,,,,,,117,119.193,0.0608265
,,,,,,,,,133,98.1411,0.0675549
,,,,,,,,,150,78.9104,0.0218039
,,,,,,,,,168,143.722,0.0804518
,,,,,,,,,187,157.412,0.041461
,,,,,,,,,207,120.35,0.074503
,,,,,,,,,228,153.231,0.0209457
,,,,,,,,,32,38.1899,0.0466436
,,,,,,,,,41,51.0663,0.0192828
,,,,,,,,,51,82.9703,0.0303288
,,,,,,,,,62,97.9007,0.0343177
,,,,,,,,,74,111.198,0.0180323
,,,,,,,,,87,106.319,0.0433956
,,,,,,,,,101,34.3876,0.0466682
,,,,,,,,,116,42.2757,0.0363567
,,,,,,,,,132,54.9585,0.0381998
,,,,,,,,,149,112.76,0.0407486
,,,,,,,,,167,161.628,0.0179852
,,,,,,,,,186,72.5091,0.0451105
,,,,,,,,,206,83.9441,0.029536
,,,,,,,,,227,132.57,0.0431774
,,,,,,,,,249,120.768,0.0173972
,,,,,,,,,50,86.1828,0.0232855
,,,,,,,,,61,46.4505,0.041567
,,,,,,,,,73,127.401,0.0494436
,,,,,,,,,86,118.699,0.0214862
,,,,,,,,,100,75.0343,0.0707742
,,,,,,,,,115,44.02,0.0799139
,,,,,,,,,131,68.8348,0.05379
,,,,,,,,,148,87.4704,0.0579248
,,,,,,,,,166,75.366,0.0639945
,,,,,,,,,185,131.922,0.0214193
,,,,,,,,,205,63.2422,0.0754525
,,,,,,,,,226,100.274,0.040092
,,,,,,,,,248,158.064,0.0701959
,,,,,,,,,271,124.649,0.0205905
,,,,,,,,,72,119.624,0.018356
,,,,,,,,,85,47.4304,0.0197451
,,,,,,,,,99,72.2555,0.0129934
,,,,,,,,,114,120.671,0.0224467
,,,,,,,,,130,75.9719,0.0232916
,,,,,,,,,147,59.4737,0.0204035
,,,,,,,,,165,50.0307,0.0209713
,,,,,,,,,184,159.464,0.021717
,,,,,,,,,204,125.467,0.0129689
,,,,,,,,,225,111.562,0.022897
,,,,,,,,,247,87.8699,0.0180626
,,,,,,,,,270,96.4489,0.0223882
,,,,,,,,,294,115.248,0.0126604
,,,,,,,,,98,130.104,0.0314883
,,,,,,,,,113,97.0885,0.0172193
,,,,,,,,,129,31.379,0.0389678
,,,,,,,,,146,86.0736,0.0415866
,,,,,,,,,164,113.43,0.0331966
,,,,,,,,,183,133.303,0.0347264
,,,,,,,,,203,40.0925,0.03682
,,,,,,,,,224,85.493,0.0171763
,,,,,,,,,246,81.9084,0.0403451
,,,,,,,,,269,128.54,0.0274158
,,,,,,,,,293,142.188,0.0387919
,,,,,,,,,318,122.005,0.0166393
,,,,,,,,,128,36.0507,0.0184359
,,,,,,,,,145,105.221,0.0458091
,,,,,,,,,163,121.513,0.0494713
,,,,,,,,,182,98.0902,0.0380357
,,,,,,,,,202,79.9806,0.0400576
,,,,,,,,,223,142.007,0.0428695
,,,,,,,,,245,78.7827,0.0183867
,,,,,,,,,268,146.146,0.0477244
,,,,,,,,,292,100.914,0.0306346
,,,,,,,,,317,66.3216,0.0455662
,,,,,,,,,343,100.374,0.0177726
,,,,,,,,,162,69.3659,0.02077
,,,,,,,,,181,145.039,0.0214914
,,,,,,,,,201,130.889,0.0190087
,,,,,,,,,222,115.176,0.0195006
,,,,,,,,,244,108.657,0.0201438
,,,,,,,,,267,56.1761,0.012391
,,,,,,,,,291,176.065,0.021155
,,,,,,,,,316,133.902,0.0169608
,,,,,,,,,342,82.6064,0.02072
,,,,,,,,,369,116.429,0.0121091
,,,,,,,,,200,117.177,0.070831
,,,,,,,,,221,143.825,0.049516
,,,,,,,,,243,161.276,0.0529986
,,,,,,,,,266,46.0636,0.0580349
,,,,,,,,,290,58.1444,0.0207076
,,,,,,,,,315,108.632,0.0673037
,,,,,,,,,341,150.088,0.0376687
,,,,,,,,,368,120.802,0.0630895
,,,,,,,,,396,121.798,0.019932
,,,,,,,,,242,27.6915,0.0538228
,,,,,,,,,265,48.0979,0.0579628
,,,,,,,,,289,96.1206,0.0640409
,,,,,,,,,314,158.23,0.0214245
,,,,,,,,,340,38.8208,0.075517
,,,,,,,,,367,57.5329,0.0401103
,,,,,,,,,395,115.471,0.0702517
,,,,,,,,,424,90.0859,0.0205953
,,,,,,,,,288,20.4175,0.0428636
,,,,,,,,,313,119.602,0.0460991
,,,,,,,,,339,155.77,0.0189563
,,,,,,,,,366,52.7076,0.0517614
,,,,,,,,,394,42.0803,0.0322491
,,,,,,,,,423,93.7094,0.0492323
,,,,,,,,,453,79.4595,0.0183043
,,,,,,,,,338,135.919,0.049103
,,,,,,,,,365,140.205,0.0194455
,,,,,,,,,393,67.8507,0.0555791
,,,,,,,,,422,39.0329,0.0336909
,,,,,,,,,452,77.864,0.0526736
,,,,,,,,,483,73.7063,0.01876
,,,,,,,,,392,64.9762,0.020085
,,,,,,,,,421,68.1558,0.0611436
,,,,,,,,,451,104.026,0.035658
,,,,,,,,,482,104.037,0.0576455
,,,,,,,,,514,83.2412,0.0193545
,,,,,,,,,450,119.902,0.0210902
,,,,,,,,,481,114.42,0.0169191
,,,,,,,,,513,62.8498,0.0206578
,,,,,,,,,546,77.5365,0.0120878
,,,,,,,,,512,46.7282,0.0389542
,,,,,,,,,545,95.8354,0.0667805
,,,,,,,,,579,61.4297,0.0202862
,,,,,,,,,578,58.219,0.0375042
,,,,,,,,,613,37.409,0.0163978
,,,,,,,,,648,35.3829,0.0198858
