facetNormals:0,facetNormals:1,facetNormals:2,FacetCenters:0,FacetCenters:1,FacetCenters:2,FacetIds,relFacetSize,absFacetSize,cellPairingIds,interplanarAngles,angleWeights
0.526422,-0.093034,-0.799986,6.73394,3.97017,9.02165,1,0.0196594,0.0016633,8,43.2164,0.020491
0.348291,0.578852,-0.675487,6.69315,3.98278,9.00635,2,0.0213959,0.00181021,13,35.7371,0.0202195
0.312998,-0.634731,-0.674981,6.74183,3.9762,9.02974,3,0.0208124,0.00176084,19,85.8465,0.032165
-0.577034,-0.668515,-0.385921,6.69115,3.96911,9.01426,4,0.0883924,0.00747849,26,78.2769,0.0144519
-0.0481197,-0.973601,-0.159831,6.70343,3.96505,9.02206,5,0.0114255,0.00096666,34,120.912,0.0225538
-0.90321,0.285229,-0.0417197,6.65691,4.01372,9.09826,6,0.0264477,0.00223762,43,53.6795,0.0295578
0.721504,-0.632532,-0.142714,6.7546,3.97485,9.05017,7,0.0595314,0.00503668,53,62.0931,0.0309558
0.852184,0.466946,-0.0410237,6.74455,4.03363,9.05853,8,0.0727693,0.00615669,64,66.3339,0.0282988
0.916319,-0.328127,0.164576,6.69402,3.99287,9.11089,9,0.0504842,0.00427124,76,95.3273,0.0225225
0.322389,0.897203,0.216987,6.68202,4.00351,9.00334,10,0.0263615,0.00223033,89,137.718,0.0319935
-0.658826,-0.506529,0.478797,6.67673,3.98744,9.11154,11,0.0858622,0.00726442,103,94.5239,0.0318964
0.738982,0.326077,0.540559,6.73795,4.04863,9.12119,12,0.0844817,0.00714762,118,102.504,0.0346746
0.537748,-0.461974,0.659765,6.71837,3.98206,9.12003,13,0.146779,0.0124183,134,138.155,0.0191619
-0.0749717,-0.431585,0.888089,6.72129,4.01252,9.15373,14,0.0186889,0.00158118,151,167.071,0.0218698
-0.370427,-0.0168701,0.908832,6.68633,4.04254,9.16943,15,0.0246402,0.0020847,18,77.7938,0.0211001
,,,,,,,,,25,110.821,0.0344524
,,,,,,,,,33,120.037,0.0148963
,,,,,,,,,42,97.6959,0.0236551
,,,,,,,,,52,91.1406,0.0314784
,,,,,,,,,63,50.1957,0.0330688
,,,,,,,,,75,88.9039,0.0300544
,,,,,,,,,88,58.7149,0.0236206
,,,,,,,,,102,157.431,0.0342557
,,,,,,,,,117,84.9959,0.0341444
,,,,,,,,,133,124.632,0.0373477
,,,,,,,,,150,157.791,0.019951
,,,,,,,,,168,143.386,0.0229038
,,,,,,,,,32,57.6595,0.0336918
,,,,,,,,,41,42.6276,0.0147523
,,,,,,,,,51,118.02,0.023294
,,,,,,,,,62,40.2912,0.0308422
,,,,,,,,,74,90.1183,0.0323675
,,,,,,,,,87,66.5616,0.0294739
,,,,,,,,,101,130.031,0.0232606
,,,,,,,,,116,102.804,0.0335037
,,,,,,,,,132,110.994,0.0333972
,,,,,,,,,149,89.0191,0.0364555
,,,,,,,,,167,111.121,0.0196935
,,,,,,,,,186,138.474,0.0225651
,,,,,,,,,50,38.9546,0.0202354
,,,,,,,,,61,67.7079,0.0407135
,,,,,,,,,73,86.222,0.0711464
,,,,,,,,,86,147.219,0.0798236
,,,,,,,,,100,113.078,0.0642645
,,,,,,,,,115,157.339,0.0406114
,,,,,,,,,131,54.7093,0.087109
,,,,,,,,,148,155.599,0.0863928
,,,,,,,,,166,105.924,0.110338
,,,,,,,,,185,90.6574,0.0308542
,,,,,,,,,205,97.6365,0.0385377
,,,,,,,,,72,104.063,0.0159573
,,,,,,,,,85,50.9318,0.0191715
,,,,,,,,,99,120.601,0.01975
,,,,,,,,,114,75.2007,0.0186338
,,,,,,,,,130,163.018,0.0159416
,,,,,,,,,147,61.7563,0.0201674
,,,,,,,,,165,117.239,0.0201287
,,,,,,,,,184,70.5559,0.0212007
,,,,,,,,,204,73.2531,0.0141812
,,,,,,,,,225,96.5742,0.0156119
,,,,,,,,,98,153.928,0.0366244
,,,,,,,,,113,133.505,0.0387953
,,,,,,,,,129,172.601,0.0347109
,,,,,,,,,146,92.7409,0.0264045
,,,,,,,,,164,61.7351,0.0404391
,,,,,,,,,183,130.382,0.0402841
,,,,,,,,,203,134.626,0.0448195
,,,,,,,,,224,95.6503,0.0219014
,,,,,,,,,246,71.7235,0.025512
,,,,,,,,,128,69.828,0.0654881
,,,,,,,,,145,28.037,0.0546358
,,,,,,,,,163,112.69,0.0365417
,,,,,,,,,182,103.886,0.0703125
,,,,,,,,,202,74.6375,0.0698452
,,,,,,,,,223,51.4051,0.084707
,,,,,,,,,245,84.4948,0.0284472
,,,,,,,,,268,113.935,0.0348542
,,,,,,,,,162,49.7042,0.0596121
,,,,,,,,,181,43.9374,0.0387026
,,,,,,,,,201,151.222,0.0787754
,,,,,,,,,222,36.5039,0.0781893
,,,,,,,,,244,76.7755,0.0972999
,,,,,,,,,267,108.265,0.0297398
,,,,,,,,,291,112.208,0.0368147
,,,,,,,,,200,87.8193,0.0346367
,,,,,,,,,221,112.264,0.0635834
,,,,,,,,,243,46.6062,0.063201
,,,,,,,,,266,38.0383,0.0751283
,,,,,,,,,290,77.0489,0.0272792
,,,,,,,,,315,100.966,0.0331169
,,,,,,,,,242,126.894,0.0403383
,,,,,,,,,265,47.0005,0.0401841
,,,,,,,,,289,95.9381,0.0446957
,,,,,,,,,314,103.054,0.0218718
,,,,,,,,,340,86.2573,0.0254718
,,,,,,,,,288,114.95,0.0851664
,,,,,,,,,313,77.8423,0.108345
,,,,,,,,,339,43.122,0.0306963
,,,,,,,,,366,43.069,0.0382917
,,,,,,,,,338,50.1297,0.10724
,,,,,,,,,365,72.8417,0.0306069
,,,,,,,,,393,77.1581,0.0381527
,,,,,,,,,392,39.0271,0.0331561
,,,,,,,,,421,64.5686,0.0421968
,,,,,,,,,450,29.9523,0.0212558
