Q	U	V
{$V$}	{[mm$^3$]}	0.00552044
{$d_v$}	{[mm]}	0.219276
{$S_c$}	{[mm$^2$]}	0.29142
{$S_o$}	{[mm$^2$]}	0.14415
{$S_l/S_o$}	[]	1.021644
{$\Psi$}	[]	0.518339
{$\eta$}	[]	0.543998
{med($\theta_e$)}	{[$^\circ$]}	73.7346
{$\Upsilon$}	[]	11
{$\Xi$}	[]	4
