facetNormals:0,facetNormals:1,facetNormals:2,FacetCenters:0,FacetCenters:1,FacetCenters:2,FacetIds,relFacetSize,absFacetSize,cellPairingIds,interplanarAngles,angleWeights
0.0684811,-0.0156254,-0.979463,4.41808,4.54775,6.4541,1,0.0294727,0.00241945,8,29.3483,0.0181913
-0.0230352,0.460989,-0.86836,4.41198,4.56627,6.45849,2,0.0131556,0.00107996,13,23.4701,0.0259248
0.398367,-0.216965,-0.875335,4.41944,4.5384,6.44982,3,0.0231393,0.00189953,19,54.5558,0.0489198
0.673859,-0.472787,-0.507616,4.46451,4.50707,6.50344,4,0.143812,0.0118057,26,63.7378,0.0377185
-0.133696,0.845532,-0.452347,4.39918,4.5843,6.48919,5,0.0523706,0.00429917,34,86.4086,0.0444971
0.946686,0.107625,0.00463543,4.47135,4.53075,6.53218,6,0.0907682,0.00745127,43,92.7645,0.0505585
0.605019,0.741744,0.0769031,4.45047,4.58448,6.54086,7,0.177671,0.0145852,53,104.166,0.0116618
0.330133,-0.891671,0.280537,4.46501,4.42399,6.58076,8,0.00726899,0.00059672,64,125.635,0.0222647
-0.684167,-0.450494,0.528919,4.30288,4.47352,6.5772,9,0.0178896,0.00146857,76,140.89,0.0228144
-0.577941,0.310595,0.702313,4.45909,4.49308,6.62181,10,0.0186102,0.00152773,89,131.282,0.0429521
0.492638,0.519751,0.678845,4.47673,4.5406,6.61189,11,0.079153,0.00649776,103,143.196,0.0418075
0.129176,-0.539031,0.796819,4.44314,4.44165,6.63279,12,0.0718979,0.00590218,118,144.133,0.0273075
0.520247,-0.0107251,0.837913,4.47279,4.46021,6.63099,13,0.0254387,0.0020883,18,47.8275,0.0167744
,,,,,,,,,25,77.409,0.0241061
,,,,,,,,,33,34.3959,0.0210288
,,,,,,,,,42,88.5456,0.0229806
,,,,,,,,,52,73.9419,0.0244974
,,,,,,,,,63,132.79,0.00936401
,,,,,,,,,75,132.774,0.0151617
,,,,,,,,,88,118.664,0.0154146
,,,,,,,,,102,111.855,0.0225615
,,,,,,,,,117,171.232,0.0222416
,,,,,,,,,133,140.137,0.0173426
,,,,,,,,,32,31.223,0.0398644
,,,,,,,,,41,80.3966,0.0320969
,,,,,,,,,51,68.1425,0.0368775
,,,,,,,,,62,89.2271,0.0409459
,,,,,,,,,74,85.3395,0.0110627
,,,,,,,,,87,131.563,0.0201786
,,,,,,,,,101,164.341,0.020629
,,,,,,,,,116,121.668,0.03581
,,,,,,,,,132,123.564,0.0350108
,,,,,,,,,149,122.597,0.0242346
,,,,,,,,,50,106.136,0.0767808
,,,,,,,,,61,50.6142,0.111293
,,,,,,,,,73,88.8911,0.158959
,,,,,,,,,86,58.4515,0.0138385
,,,,,,,,,100,123.213,0.0318208
,,,,,,,,,115,163.848,0.0329557
,,,,,,,,,131,105.708,0.102107
,,,,,,,,,148,93.8228,0.0958675
,,,,,,,,,166,94.1899,0.0432305
,,,,,,,,,72,92.34,0.0664193
,,,,,,,,,85,56.6234,0.0808962
,,,,,,,,,99,164.513,0.0127661
,,,,,,,,,114,124.056,0.0266691
,,,,,,,,,130,88.6331,0.0274617
,,,,,,,,,147,86.0068,0.0630349
,,,,,,,,,165,152.484,0.0606
,,,,,,,,,184,118.635,0.0342438
,,,,,,,,,98,44.468,0.120153
,,,,,,,,,113,76.6643,0.0134601
,,,,,,,,,129,138.305,0.0298884
,,,,,,,,,146,123.877,0.0308875
,,,,,,,,,164,56.0202,0.0845636
,,,,,,,,,183,85.7853,0.0802385
,,,,,,,,,203,58.1988,0.03974
,,,,,,,,,128,117.534,0.0139666
,,,,,,,,,145,139.068,0.0325061
,,,,,,,,,163,94.0555,0.0336913
,,,,,,,,,182,39.0581,0.109516
,,,,,,,,,202,106.222,0.10237
,,,,,,,,,223,66.9241,0.0445053
,,,,,,,,,162,70.4034,0.0103376
,,,,,,,,,181,106.507,0.0104545
,,,,,,,,,201,96.4784,0.0133152
,,,,,,,,,222,39.0933,0.0132031
,,,,,,,,,244,64.7967,0.0113071
,,,,,,,,,200,48.0105,0.0182427
,,,,,,,,,221,102.737,0.0291833
,,,,,,,,,243,52.5202,0.0286504
,,,,,,,,,266,84.5058,0.0210065
,,,,,,,,,242,68.1164,0.0301351
,,,,,,,,,265,70.1,0.0295671
,,,,,,,,,289,72.5374,0.0214952
,,,,,,,,,288,70.203,0.0753512
,,,,,,,,,313,32.6436,0.0385031
,,,,,,,,,338,39.3207,0.0375808
