Q	U	V
{$V$}	{[mm$^3$]}	0.00342222
{$d_v$}	{[mm]}	0.186969
{$S_c$}	{[mm$^2$]}	0.239383
{$S_o$}	{[mm$^2$]}	0.116916
{$S_l/S_o$}	[]	1.047479
{$\Psi$}	[]	0.458771
{$\eta$}	[]	0.481421
{med($\theta_e$)}	{[$^\circ$]}	
{$\Upsilon$}	[]	16
{$\Xi$}	[]	3
