Q	U	V
{$V$}	{[mm$^3$]}	0.00978931
{$d_v$}	{[mm]}	0.265410
{$S_c$}	{[mm$^2$]}	0.353589
{$S_o$}	{[mm$^2$]}	0.232383
{$S_l/S_o$}	[]	0.521579
{$\Psi$}	[]	0.625874
{$\eta$}	[]	0.701608
{med($\theta_e$)}	{[$^\circ$]}	62.03825
{$\Upsilon$}	[]	14
{$\Xi$}	[]	15
