facetNormals:0,facetNormals:1,facetNormals:2,FacetCenters:0,FacetCenters:1,FacetCenters:2,FacetIds,relFacetSize,absFacetSize,cellPairingIds,interplanarAngles,angleWeights
-0.0946793,0.263272,-0.928425,5.83434,3.76168,6.5657,1,0.028272,0.0070876,8,45.3222,0.0258753
0.402075,-0.296707,-0.84785,5.84918,3.75306,6.61479,2,0.0238532,0.00597984,13,30.2412,0.0161808
-0.539929,0.0342851,-0.826578,5.78971,3.76923,6.61034,3,0.0113337,0.00284127,19,61.4783,0.0291189
0.785871,-0.0214904,-0.570712,5.98921,3.74327,6.63606,4,0.0300182,0.00752536,26,82.7061,0.0450955
0.364425,-0.798088,-0.390832,5.89516,3.6849,6.62525,5,0.111364,0.0279182,34,59.2605,0.03757
-0.795513,-0.174721,-0.470573,5.76869,3.74462,6.65556,6,0.0559808,0.014034,43,46.0826,0.0284004
-0.627023,0.564697,-0.478753,5.81563,3.79134,6.59071,7,0.0285299,0.00715227,53,51.4835,0.0245791
0.141556,0.883476,-0.401852,5.88039,3.79291,6.6386,8,0.0217394,0.00544993,64,67.5271,0.0335183
0.664694,0.669047,-0.269663,5.95682,3.77812,6.67194,9,0.0411555,0.0103174,76,105.282,0.0277226
0.880348,-0.434926,0.057663,5.91244,3.75081,6.74771,10,0.0271941,0.00681738,89,118.659,0.0247356
0.625143,-0.735131,0.224005,5.8569,3.74737,6.80832,11,0.0219855,0.00551162,103,99.599,0.0310143
-0.74219,-0.63639,0.0658833,5.68642,3.75393,6.75496,12,0.0343457,0.00861024,118,87.3967,0.0334288
-0.949861,0.160993,0.0965857,5.76668,3.74191,6.65114,13,0.0408865,0.01025,134,121.765,0.0329208
0.16491,-0.938186,0.260053,5.86227,3.7049,6.75563,14,0.0393994,0.00987717,151,120.75,0.0431706
-0.38355,-0.837022,0.322755,5.77953,3.71872,6.77488,15,0.0912654,0.0228796,169,145.497,0.0350921
0.324886,-0.689415,0.613421,5.89423,3.73319,6.80409,16,0.0462487,0.0115942,188,121.956,0.034558
-0.714435,0.105915,0.634214,5.76969,3.7506,6.78202,17,0.0444386,0.0111405,18,60.8515,0.0153662
,,,,,,,,,25,32.5127,0.0265829
,,,,,,,,,33,40.8791,0.0392907
,,,,,,,,,42,81.8673,0.0334524
,,,,,,,,,52,90.8251,0.0259828
,,,,,,,,,63,81.9311,0.0227473
,,,,,,,,,75,72.058,0.0302018
,,,,,,,,,88,63.3549,0.0254143
,,,,,,,,,102,73.3376,0.0228813
,,,,,,,,,117,99.8791,0.0281536
,,,,,,,,,133,122.471,0.0301291
,,,,,,,,,150,82.658,0.0297158
,,,,,,,,,168,100.775,0.0378214
,,,,,,,,,187,101.072,0.0314736
,,,,,,,,,207,154.869,0.0310433
,,,,,,,,,32,87.2117,0.0164547
,,,,,,,,,41,84.0154,0.0205735
,,,,,,,,,51,29.0314,0.0188508
,,,,,,,,,62,38.1569,0.0162227
,,,,,,,,,74,72.8315,0.0148996
,,,,,,,,,87,96.6997,0.0177729
,,,,,,,,,101,123.612,0.0159993
,,,,,,,,,116,124.045,0.0149569
,,,,,,,,,132,70.417,0.0170432
,,,,,,,,,149,62.711,0.0177477
,,,,,,,,,167,110.158,0.0176035
,,,,,,,,,186,95.2618,0.0201633
,,,,,,,,,206,136.935,0.0182058
,,,,,,,,,227,98.1647,0.018061
,,,,,,,,,50,55.6417,0.0472895
,,,,,,,,,61,112.714,0.0390805
,,,,,,,,,73,104.229,0.0292551
,,,,,,,,,86,70.2749,0.0252167
,,,,,,,,,100,46.0057,0.0347154
,,,,,,,,,115,45.6245,0.0285364
,,,,,,,,,131,66.793,0.0253814
,,,,,,,,,148,129.631,0.0320364
,,,,,,,,,166,148.856,0.0346194
,,,,,,,,,185,89.9197,0.0340749
,,,,,,,,,205,119.563,0.0451771
,,,,,,,,,226,94.8256,0.0364064
,,,,,,,,,248,172.458,0.0358319
,,,,,,,,,72,87.878,0.0745078
,,,,,,,,,85,121.875,0.0454231
,,,,,,,,,99,121.801,0.0363776
,,,,,,,,,114,101.407,0.0601004
,,,,,,,,,130,46.9097,0.0437137
,,,,,,,,,147,40.1794,0.0367214
,,,,,,,,,165,77.0025,0.0524999
,,,,,,,,,184,123.434,0.0598131
,,,,,,,,,204,41.781,0.0582061
,,,,,,,,,225,64.5896,0.100318
,,,,,,,,,247,62.8445,0.0653556
,,,,,,,,,270,129.947,0.0635273
,,,,,,,,,98,46.7382,0.0377971
,,,,,,,,,113,94.8416,0.0313172
,,,,,,,,,129,124.212,0.0474368
,,,,,,,,,146,134.758,0.0366059
,,,,,,,,,164,120.595,0.0315717
,,,,,,,,,183,43.3177,0.0425722
,,,,,,,,,203,41.5071,0.0472576
,,,,,,,,,224,95.5383,0.0462488
,,,,,,,,,246,70.9538,0.0693955
,,,,,,,,,269,117.621,0.0506515
,,,,,,,,,293,73.8561,0.0495464
,,,,,,,,,128,50.7152,0.024676
,,,,,,,,,145,84.5653,0.033699
,,,,,,,,,163,149.853,0.027846
,,,,,,,,,182,162.053,0.0248338
,,,,,,,,,202,85.5077,0.0311688
,,,,,,,,,223,47.0323,0.0336085
,,,,,,,,,245,142.272,0.0330951
,,,,,,,,,268,114.112,0.0434707
,,,,,,,,,292,159.099,0.0352901
,,,,,,,,,317,77.3545,0.0347501
,,,,,,,,,162,34.4321,0.0284505
,,,,,,,,,181,107.045,0.0241627
,,,,,,,,,201,132.065,0.0218618
,,,,,,,,,222,136.207,0.0266258
,,,,,,,,,244,91.8729,0.028386
,,,,,,,,,267,159.986,0.0280189
,,,,,,,,,291,164.801,0.0351146
,,,,,,,,,316,147.532,0.0295764
,,,,,,,,,342,106.162,0.0291961
,,,,,,,,,200,73.2148,0.0327489
,,,,,,,,,221,98.0878,0.0286604
,,,,,,,,,243,167.089,0.0374435
,,,,,,,,,266,125.365,0.0410206
,,,,,,,,,290,127.394,0.0402583
,,,,,,,,,315,160.476,0.0567293
,,,,,,,,,341,115.34,0.0435537
,,,,,,,,,368,127.584,0.0427341
,,,,,,,,,242,25.0195,0.024314
,,,,,,,,,265,112.755,0.0303543
,,,,,,,,,289,161.032,0.0326634
,,,,,,,,,314,54.1945,0.0321783
,,,,,,,,,340,87.3125,0.0419026
,,,,,,,,,367,49.7918,0.0342496
,,,,,,,,,395,132.477,0.0337407
,,,,,,,,,288,88.9013,0.0268095
,,,,,,,,,313,136.046,0.0285949
,,,,,,,,,339,29.5415,0.0282224
,,,,,,,,,366,62.3962,0.0354349
,,,,,,,,,394,29.0428,0.0298033
,,,,,,,,,423,113.679,0.0294172
,,,,,,,,,338,50.0762,0.0373318
,,,,,,,,,365,59.451,0.0366994
,,,,,,,,,393,28.6962,0.0499092
,,,,,,,,,422,75.6236,0.0394182
,,,,,,,,,452,57.6028,0.0387457
,,,,,,,,,392,107.191,0.0401292
,,,,,,,,,421,73.9776,0.0564733
,,,,,,,,,451,112.359,0.0434026
,,,,,,,,,482,35.5777,0.0425886
,,,,,,,,,450,33.2173,0.0550386
,,,,,,,,,481,27.1097,0.0425502
,,,,,,,,,513,93.1562,0.0417676
,,,,,,,,,512,47.0443,0.0613887
,,,,,,,,,545,65.421,0.0597728
,,,,,,,,,578,84.8805,0.0453256
