"cellPairingIds","interplanarAngles","angleWeights"
13,54.8739,0.0136056
19,36.3851,0.0168271
26,60.8974,0.030156
34,95.5134,0.0260784
53,76.7825,0.0265166
18,46.916,0.014912
25,44.1893,0.0188719
75,70.5483,0.0424595
32,83.3742,0.0129553
51,79.5636,0.0178232
62,50.7404,0.0089593
87,81.3019,0.0209417
50,37.034,0.0271369
100,98.6442,0.029691
99,40.477,0.0660742
114,119.604,0.134894
147,51.7792,0.0782801
98,57.7161,0.0130783
113,74.4211,0.0492137
146,47.4173,0.051484
203,65.6785,0.0332101
145,72.5788,0.0146827
223,77.2096,0.0116794
181,33.779,0.0532204
201,65.5696,0.0577168
244,86.2147,0.0339241
221,87.5301,0.104116
243,51.3284,0.0514094
266,89.9503,0.0459637
289,58.8854,0.0349876
288,45.8307,0.0403012
313,74.9101,0.0368762
338,55.845,0.0270528
