facetNormals:0,facetNormals:1,facetNormals:2,FacetCenters:0,FacetCenters:1,FacetCenters:2,FacetIds,relFacetSize,absFacetSize,cellPairingIds,interplanarAngles,angleWeights
0.265799,-0.135683,-0.872395,4.93476,7.12124,5.69571,1,0.125942,0.0270177,8,30.0237,0.0799868
0.606296,0.203453,-0.746237,4.97978,7.18279,5.7074,2,0.058603,0.0125718,13,60.875,0.0183781
-0.436331,0.516494,-0.722161,4.87037,7.20395,5.67538,3,0.0099123,0.00212644,19,41.5543,0.0433397
0.0713271,-0.740113,-0.638078,4.92103,7.01713,5.72242,4,0.0261733,0.00561483,26,61.4326,0.0479198
-0.428848,-0.697889,-0.509703,4.87498,7.03859,5.72274,5,0.0295891,0.00634761,34,56.3849,0.0318847
0.938544,-0.0959739,-0.27393,5.02905,7.12675,5.76904,6,0.0182529,0.0039157,43,91.3951,0.0477246
-0.931902,-0.227023,-0.22328,4.84154,7.06673,5.75836,7,0.0294404,0.0063157,53,72.1583,0.0664036
0.683055,0.664213,-0.211204,4.97549,7.2465,5.75655,8,0.0450883,0.00967259,64,62.3458,0.0469549
0.762885,-0.602655,-0.156913,4.98442,7.00972,5.77728,9,0.0288568,0.0061905,76,96.5848,0.0601487
-0.740027,-0.634661,-0.0085999,4.84994,7.06334,5.76414,10,0.0395089,0.00847565,89,104.899,0.10862
-0.786424,0.534176,-0.0637672,4.85193,7.21572,5.75931,11,0.0954869,0.0204843,103,135.543,0.0978491
-0.600859,-0.428714,0.602289,4.9458,7.15394,5.76555,12,0.0800035,0.0171628,118,117.244,0.112117
0.51044,-0.401153,0.668903,4.97435,7.0798,5.8364,13,0.101026,0.0216727,134,123.961,0.0919327
0.503922,0.531215,0.648315,4.97905,7.18842,5.82619,14,0.0723857,0.0155286,18,67.0285,0.0169565
,,,,,,,,,25,67.4787,0.0361854
,,,,,,,,,33,91.3077,0.0393235
,,,,,,,,,42,38.659,0.0278358
,,,,,,,,,52,117.345,0.0391919
,,,,,,,,,63,42.5204,0.050965
,,,,,,,,,75,61.8224,0.0386713
,,,,,,,,,88,126.608,0.0471979
,,,,,,,,,102,110.017,0.0726306
,,,,,,,,,117,164.218,0.0676512
,,,,,,,,,133,107.226,0.0741775
,,,,,,,,,150,94.1882,0.0647693
,,,,,,,,,32,87.1965,0.014379
,,,,,,,,,41,78.2259,0.0148499
,,,,,,,,,51,105.595,0.0128476
,,,,,,,,,62,62.4502,0.0148311
,,,,,,,,,74,78.1926,0.0162518
,,,,,,,,,87,123.015,0.0147559
,,,,,,,,,101,89.9223,0.0158484
,,,,,,,,,116,45.123,0.0179602
,,,,,,,,,132,114.726,0.0176391
,,,,,,,,,149,171.907,0.0180533
,,,,,,,,,167,115.315,0.0174368
,,,,,,,,,50,30.8929,0.0277766
,,,,,,,,,61,71.0386,0.0215071
,,,,,,,,,73,75.3509,0.0277109
,,,,,,,,,86,108.798,0.0331205
,,,,,,,,,100,51.5067,0.0274496
,,,,,,,,,115,63.7546,0.0314873
,,,,,,,,,131,116.103,0.041085
,,,,,,,,,148,96.7597,0.0394428
,,,,,,,,,166,95.8763,0.0415755
,,,,,,,,,185,143.563,0.0384454
,,,,,,,,,72,101.928,0.0225779
,,,,,,,,,85,44.9941,0.0295145
,,,,,,,,,99,133.562,0.0357303
,,,,,,,,,114,79.4837,0.0292183
,,,,,,,,,130,35.6127,0.0338369
,,,,,,,,,147,90.1893,0.0451785
,,,,,,,,,165,74.2238,0.0432006
,,,,,,,,,184,108.133,0.0457722
,,,,,,,,,204,166.459,0.042007
,,,,,,,,,98,144.915,0.0225345
,,,,,,,,,113,48.506,0.025986
,,,,,,,,,129,32.4031,0.0223614
,,,,,,,,,146,131.232,0.0249698
,,,,,,,,,164,145.55,0.0306473
,,,,,,,,,183,137.297,0.0297242
,,,,,,,,,203,68.5863,0.0309194
,,,,,,,,,224,75.2645,0.0291542
,,,,,,,,,128,140.369,0.0356216
,,,,,,,,,145,123.77,0.0291456
,,,,,,,,,163,29.5016,0.0337395
,,,,,,,,,182,48.167,0.0450049
,,,,,,,,,202,56.1354,0.0430418
,,,,,,,,,223,125.568,0.0455941
,,,,,,,,,245,139.739,0.0418569
,,,,,,,,,162,80.7825,0.0351911
,,,,,,,,,181,166.519,0.0421146
,,,,,,,,,201,100.465,0.0612532
,,,,,,,,,222,152.199,0.0576732
,,,,,,,,,244,93.723,0.0623498
,,,,,,,,,267,54.0637,0.0555655
,,,,,,,,,200,100.85,0.033353
,,,,,,,,,221,166.361,0.0443198
,,,,,,,,,243,108.297,0.0424148
,,,,,,,,,266,55.0245,0.044891
,,,,,,,,,290,92.2275,0.0412637
,,,,,,,,,242,74.8037,0.0558918
,,,,,,,,,265,39.9941,0.0528957
,,,,,,,,,289,98.1538,0.0568034
,,,,,,,,,314,138.639,0.0511173
,,,,,,,,,288,76.9403,0.0870621
,,,,,,,,,313,137.838,0.0981785
,,,,,,,,,339,99.5048,0.0823468
,,,,,,,,,338,72.4246,0.0892942
,,,,,,,,,365,98.6455,0.0760042
,,,,,,,,,392,58.3921,0.0843409
