facetNormals:0,facetNormals:1,facetNormals:2,FacetCenters:0,FacetCenters:1,FacetCenters:2,FacetIds,relFacetSize,absFacetSize,cellPairingIds,interplanarAngles,angleWeights
0.255668,0.34606,-0.857676,5.74512,4.44971,5.58107,1,0.00954933,0.000835654,8,45.0728,0.0128462
0.756761,-0.143423,-0.60719,5.77629,4.42245,5.59407,2,0.01962,0.00171693,13,74.2389,0.0168643
0.769322,-0.540581,-0.287588,5.77484,4.36144,5.65416,3,0.0720757,0.00630729,19,49.3408,0.0157442
0.822918,0.463044,-0.28733,5.76373,4.45396,5.62593,4,0.0448192,0.0039221,26,103.534,0.0125523
-0.974349,0.0483964,-0.0154639,5.66444,4.39952,5.7261,5,0.0183105,0.00160234,34,88.8762,0.0164168
0.932313,-0.217601,0.168788,5.76999,4.34899,5.65505,6,0.0584547,0.00511532,43,74.5692,0.0165646
0.158784,0.932703,0.139002,5.71626,4.44791,5.70319,7,0.0624235,0.00546263,53,78.6405,0.0178956
0.744392,0.572276,0.239285,5.75827,4.45723,5.65059,8,0.142042,0.01243,64,136.731,0.0166519
-0.131658,-0.885155,0.403183,5.70859,4.33121,5.71567,9,0.0649888,0.00568712,76,128.081,0.0165241
0.30938,-0.813649,0.435606,5.72977,4.31611,5.67967,10,0.0612887,0.00536333,89,141.469,0.0138398
-0.621905,-0.644611,0.420527,5.66497,4.32061,5.6839,11,0.0251311,0.00219921,103,98.5552,0.0114962
0.868143,0.114374,0.470368,5.76132,4.42813,5.68078,12,0.0144401,0.00126364,118,143.653,0.00709352
-0.780291,-0.2428,0.564352,5.66561,4.37557,5.72209,13,0.00564245,0.000493766,134,154.431,0.0142024
-0.315138,-0.705441,0.623232,5.66853,4.33301,5.69958,14,0.0276991,0.00242393,151,112.759,0.0139992
-0.100745,0.679608,0.655019,5.71774,4.43643,5.71965,15,0.0262151,0.00229407,169,126.695,0.0137099
0.605821,-0.311693,0.715171,5.76423,4.36963,5.74062,16,0.0242954,0.00212607,188,141.051,0.0176962
0.0952154,0.179373,0.923347,5.6946,4.40955,5.73197,17,0.120492,0.0105442,18,30.0968,0.0308439
,,,,,,,,,25,40.9798,0.0272925
,,,,,,,,,33,140.173,0.0189427
,,,,,,,,,42,48.3005,0.0293791
,,,,,,,,,52,95.9983,0.0298561
,,,,,,,,,63,69.2975,0.0344777
,,,,,,,,,75,103.057,0.0301407
,,,,,,,,,88,84.812,0.0297245
,,,,,,,,,102,130.752,0.0220362
,,,,,,,,,117,68.6467,0.0166362
,,,,,,,,,133,157.262,0.00876438
,,,,,,,,,150,121.987,0.0229699
,,,,,,,,,168,127.863,0.0224431
,,,,,,,,,187,85.9203,0.0217088
,,,,,,,,,207,123.688,0.0337453
,,,,,,,,,32,61.3426,0.0552698
,,,,,,,,,41,143.514,0.0292023
,,,,,,,,,51,34.6488,0.0645545
,,,,,,,,,62,116.669,0.0669033
,,,,,,,,,74,78.2203,0.0956276
,,,,,,,,,87,74.2934,0.0683491
,,,,,,,,,101,54.7354,0.066246
,,,,,,,,,116,104.945,0.0372678
,,,,,,,,,132,61.2037,0.0240599
,,,,,,,,,149,130.281,0.0104656
,,,,,,,,,167,92.3681,0.0400188
,,,,,,,,,186,132.725,0.0384466
,,,,,,,,,206,63.7935,0.0363409
,,,,,,,,,227,108.13,0.0901974
,,,,,,,,,50,143.585,0.0259992
,,,,,,,,,61,49.9057,0.0507368
,,,,,,,,,73,56.3786,0.0521765
,,,,,,,,,86,32.251,0.0681385
,,,,,,,,,100,130.882,0.0530517
,,,,,,,,,115,104.918,0.0517758
,,,,,,,,,131,162.431,0.0322045
,,,,,,,,,148,49.8772,0.0218428
,,,,,,,,,166,159.261,0.0100231
,,,,,,,,,185,141.34,0.0342383
,,,,,,,,,205,87.3341,0.033081
,,,,,,,,,226,81.2251,0.03151
,,,,,,,,,248,96.3925,0.0653357
,,,,,,,,,72,166.31,0.0278859
,,,,,,,,,85,96.8772,0.0283153
,,,,,,,,,99,137.886,0.0324393
,,,,,,,,,114,85.2556,0.0285711
,,,,,,,,,130,111.467,0.0281969
,,,,,,,,,147,53.9426,0.0211854
,,,,,,,,,165,150.928,0.0161466
,,,,,,,,,184,40.227,0.00862658
,,,,,,,,,204,74.2265,0.0220469
,,,,,,,,,225,82.4978,0.0215612
,,,,,,,,,247,129.765,0.0208826
,,,,,,,,,270,96.1219,0.03179
,,,,,,,,,98,91.9392,0.0603739
,,,,,,,,,113,49.6506,0.0828246
,,,,,,,,,129,81.6893,0.0615488
,,,,,,,,,146,55.2762,0.0598381
,,,,,,,,,164,112.529,0.0351503
,,,,,,,,,183,26.6161,0.0231592
,,,,,,,,,203,126.878,0.0102915
,,,,,,,,,224,92.085,0.0375873
,,,,,,,,,246,98.1769,0.036197
,,,,,,,,,269,38.32,0.0343245
,,,,,,,,,293,77.074,0.0787198
,,,,,,,,,128,42.3105,0.0867312
,,,,,,,,,145,147.368,0.0636803
,,,,,,,,,163,134.223,0.0618509
,,,,,,,,,182,132.685,0.0358353
,,,,,,,,,202,70.9715,0.0234546
,,,,,,,,,223,106.637,0.0103494
,,,,,,,,,245,130.888,0.0383716
,,,,,,,,,268,38.65,0.0369239
,,,,,,,,,292,95.7792,0.0349774
,,,,,,,,,317,69.8951,0.0822406
,,,,,,,,,162,122.292,0.0891766
,,,,,,,,,181,97.9898,0.0856297
,,,,,,,,,201,139.697,0.0427064
,,,,,,,,,222,31.1515,0.0262152
,,,,,,,,,244,127.421,0.0108537
,,,,,,,,,267,120.568,0.0463581
,,,,,,,,,291,59.2217,0.0442615
,,,,,,,,,316,62.379,0.0414936
,,,,,,,,,342,64.4934,0.130383
,,,,,,,,,200,26.49,0.0630846
,,,,,,,,,221,32.1822,0.036246
,,,,,,,,,243,91.5208,0.0236299
,,,,,,,,,266,55.9932,0.0103834
,,,,,,,,,290,19.718,0.0388429
,,,,,,,,,315,110.363,0.03736
,,,,,,,,,341,60.0183,0.0353686
,,,,,,,,,368,77.4922,0.0844361
,,,,,,,,,242,57.6587,0.0356459
,,,,,,,,,265,66.8471,0.0233733
,,,,,,,,,289,77.9397,0.0103336
,,,,,,,,,314,39.2771,0.0381545
,,,,,,,,,340,108.868,0.0367228
,,,,,,,,,367,38.4884,0.0347969
,,,,,,,,,395,71.9116,0.0812496
,,,,,,,,,288,115.01,0.0183414
,,,,,,,,,313,26.5465,0.00921577
,,,,,,,,,339,21.6737,0.0263527
,,,,,,,,,366,96.11,0.0256617
,,,,,,,,,394,82.6577,0.0247062
,,,,,,,,,423,76.8107,0.0415882
,,,,,,,,,338,116.452,0.00811427
,,,,,,,,,365,93.5515,0.0189837
,,,,,,,,,393,71.5652,0.0186224
,,,,,,,,,422,32.6474,0.018114
,,,,,,,,,452,55.1127,0.0257896
,,,,,,,,,392,38.7441,0.00937513
,,,,,,,,,421,72.5139,0.00928618
,,,,,,,,,451,89.6162,0.00915801
,,,,,,,,,482,64.5655,0.0107801
,,,,,,,,,450,92.3992,0.0269367
,,,,,,,,,481,61.045,0.0258858
,,,,,,,,,513,63.4884,0.0450435
,,,,,,,,,512,77.9596,0.0252188
,,,,,,,,,545,36.9575,0.0430615
,,,,,,,,,578,44.843,0.0404372
