Q	U	V
{$V$}	{[mm$^3$]}	0.00187973
{$d_v$}	{[mm]}	0.153120
{$S_c$}	{[mm$^2$]}	0.139575
{$S_o$}	{[mm$^2$]}	0.0840752
{$S_l/S_o$}	[]	0.660121
{$\Psi$}	[]	0.527724
{$\eta$}	[]	0.581465
{med($\theta_e$)}	{[$^\circ$]}	115.635
{$\Upsilon$}	[]	24
{$\Xi$}	[]	5
