facetNormals:0,facetNormals:1,facetNormals:2,FacetCenters:0,FacetCenters:1,FacetCenters:2,FacetIds,relFacetSize,absFacetSize,cellPairingIds,interplanarAngles,angleWeights
0.193348,-0.130305,-0.949435,5.11819,3.9296,9.08975,1,0.0549672,0.00820505,8,56.1502,0.0396459
-0.578647,0.268916,-0.696564,5.13692,3.9114,9.17859,2,0.031004,0.00462802,13,30.6233,0.0458647
0.610436,0.106826,-0.757745,5.1877,3.97473,9.09729,3,0.0393486,0.00587363,19,41.843,0.0643665
0.383708,-0.678177,-0.568859,5.1665,3.90181,9.11401,4,0.0776432,0.0115899,26,64.8588,0.0210089
0.954584,0.0572672,-0.24537,5.22156,4.0133,9.15483,5,0.0129861,0.00193846,34,92.0268,0.0256057
-0.871698,0.337178,-0.189066,5.12859,3.93026,9.2058,6,0.0166903,0.00249139,43,72.3252,0.0331391
0.803661,0.52129,-0.214799,5.22598,3.99634,9.16631,7,0.0237197,0.00354068,53,89.1279,0.0455771
-0.674661,-0.722233,-0.0537809,4.99305,3.92795,9.12024,8,0.0389271,0.00581071,64,81.8457,0.054689
0.961667,-0.18033,0.0772414,5.23469,3.94679,9.19615,9,0.0544135,0.0081224,76,92.3568,0.0815207
-0.289716,-0.913028,0.107122,5.0756,3.89702,9.16353,10,0.157704,0.0235407,89,112.573,0.0531686
0.552768,-0.55166,0.570575,5.19511,3.90752,9.25936,11,0.0514839,0.00768509,103,115.312,0.0575617
0.771558,0.221423,0.556823,5.21176,3.99429,9.25016,12,0.0604133,0.00901799,118,133.925,0.0671448
-0.593737,-0.429076,0.626553,5.04676,3.94158,9.24598,13,0.0862537,0.0128752,134,141.94,0.0341169
0.388275,0.367822,0.827261,5.17565,4.00626,9.27809,14,0.0247346,0.00369217,151,169.129,0.061905
-0.221971,0.302614,0.890091,5.09819,4.00355,9.28093,15,0.0708472,0.0105755,18,77.2983,0.0346814
,,,,,,,,,25,90.5129,0.0443132
,,,,,,,,,33,113.11,0.0183051
,,,,,,,,,42,36.2129,0.0216993
,,,,,,,,,52,100.892,0.0268771
,,,,,,,,,63,75.5299,0.0345167
,,,,,,,,,75,135.278,0.039501
,,,,,,,,,88,99.642,0.0518204
,,,,,,,,,102,161.347,0.0387016
,,,,,,,,,117,147.093,0.0409781
,,,,,,,,,133,103.221,0.0456126
,,,,,,,,,150,138.972,0.0275167
,,,,,,,,,168,116.713,0.0431325
,,,,,,,,,32,51.1163,0.0522285
,,,,,,,,,41,36.7104,0.0195276
,,,,,,,,,51,112.209,0.0234387
,,,,,,,,,62,42.4539,0.0295977
,,,,,,,,,74,117.557,0.0391367
,,,,,,,,,87,57.9914,0.0456708
,,,,,,,,,101,112.138,0.0629824
,,,,,,,,,116,99.3523,0.0446056
,,,,,,,,,132,85.6394,0.047657
,,,,,,,,,149,159.362,0.054043
,,,,,,,,,167,111.317,0.0303752
,,,,,,,,,186,145.324,0.0505961
,,,,,,,,,50,60.6381,0.0222507
,,,,,,,,,61,119.685,0.0274746
,,,,,,,,,73,85.3346,0.0363383
,,,,,,,,,86,74.1052,0.0518559
,,,,,,,,,100,61.8065,0.0639853
,,,,,,,,,115,61.2625,0.104056
,,,,,,,,,131,73.7154,0.0619138
,,,,,,,,,148,100.445,0.0679531
,,,,,,,,,166,108.381,0.0817223
,,,,,,,,,185,126.933,0.0375174
,,,,,,,,,205,148.752,0.0740897
,,,,,,,,,72,144.497,0.014607
,,,,,,,,,85,28.7525,0.0167836
,,,,,,,,,99,133.462,0.0194753
,,,,,,,,,114,23.4861,0.0209681
,,,,,,,,,130,111.913,0.0239963
,,,,,,,,,147,68.1057,0.0207407
,,,,,,,,,165,50.5712,0.0213771
,,,,,,,,,184,141.528,0.0225736
,,,,,,,,,204,78.8111,0.0170308
,,,,,,,,,225,115.659,0.021949
,,,,,,,,,98,121.145,0.0195936
,,,,,,,,,113,67.9225,0.0233634
,,,,,,,,,129,167.493,0.0255452
,,,,,,,,,146,94.7157,0.030186
,,,,,,,,,164,147.257,0.0252084
,,,,,,,,,183,139.011,0.0261549
,,,,,,,,,203,73.9312,0.0279686
,,,,,,,,,224,113.253,0.0199314
,,,,,,,,,246,82.06,0.0270161
,,,,,,,,,128,158.999,0.0294776
,,,,,,,,,145,46.5807,0.0330378
,,,,,,,,,163,140.658,0.0412371
,,,,,,,,,182,87.9416,0.0324767
,,,,,,,,,202,50.0451,0.0340648
,,,,,,,,,223,151.983,0.0372074
,,,,,,,,,245,70.2942,0.0242165
,,,,,,,,,268,102.907,0.0355405
,,,,,,,,,162,122.553,0.0453856
,,,,,,,,,181,27.1214,0.0624414
,,,,,,,,,201,90.3106,0.0443335
,,,,,,,,,222,137.281,0.0473466
,,,,,,,,,244,44.8202,0.0536441
,,,,,,,,,267,125.926,0.0302488
,,,,,,,,,291,97.0092,0.0502463
,,,,,,,,,200,96.4146,0.0809101
,,,,,,,,,221,44.6659,0.0529082
,,,,,,,,,243,39.008,0.0572567
,,,,,,,,,266,118.072,0.0667301
,,,,,,,,,290,67.4381,0.0340095
,,,,,,,,,315,102.134,0.0615524
,,,,,,,,,242,64.2736,0.0776261
,,,,,,,,,265,112.876,0.0873604
,,,,,,,,,289,47.2325,0.111516
,,,,,,,,,314,112.262,0.0427622
,,,,,,,,,340,97.1966,0.0977714
,,,,,,,,,288,48.8257,0.0555923
,,,,,,,,,313,73.4224,0.0644803
,,,,,,,,,339,59.4886,0.0334153
,,,,,,,,,366,76.4922,0.0596331
,,,,,,,,,338,102.525,0.0710571
,,,,,,,,,365,29.0053,0.0350989
,,,,,,,,,393,65.4983,0.0652155
,,,,,,,,,392,82.1335,0.0384446
,,,,,,,,,421,53.0573,0.077795
,,,,,,,,,450,36.85,0.0366676
