Q	U	V
{$V$}	{[mm$^3$]}	0.00371671
{$d_v$}	{[mm]}	0.192185
{$S_c$}	{[mm$^2$]}	0.171702
{$S_o$}	{[mm$^2$]}	0.0955177
{$S_l/S_o$}	[]	0.797594
{$\Psi$}	[]	0.675794
{$\eta$}	[]	0.695274
{med($\theta_e$)}	{[$^\circ$]}	97.5474
{$\Upsilon$}	[]	18
{$\Xi$}	[]	8
