Q	U	V
{$V$}	{[mm$^3$]}	0.00119695
{$d_v$}	{[mm]}	0.131732
{$S_c$}	{[mm$^2$]}	0.130816
{$S_o$}	{[mm$^2$]}	0.0621535
{$S_l/S_o$}	[]	1.104725
{$\Psi$}	[]	0.416748
{$\eta$}	[]	0.431959
{med($\theta_e$)}	{[$^\circ$]}	
{$\Upsilon$}	[]	22
{$\Xi$}	[]	7
