"cellPairingIds","interplanarAngles","angleWeights"
18,92.1437,0.0295436
25,101.498,0.0246883
42,84.1247,0.0254354
52,72.1983,0.0194847
102,95.0997,0.0262032
32,58.4201,0.0570944
51,37.2971,0.0612556
74,41.3657,0.0223749
73,88.6757,0.0285805
86,34.6773,0.0194743
100,42.8832,0.0489016
148,57.6501,0.0569011
113,73.1548,0.0199363
164,37.6444,0.0484494
183,101.576,0.0610331
203,65.8588,0.0514035
145,54.152,0.0319832
182,143.005,0.0306306
202,100.419,0.0352217
245,69.5351,0.033943
222,42.129,0.0223452
243,53.8929,0.072192
288,101.964,0.0656485
313,60.9758,0.0546388
339,101.337,0.0613411
338,41.4187,0.0711922
365,53.8786,0.0830101
