"cellPairingIds","interplanarAngles","angleWeights"
8,44.5483,0.107577
13,66.2064,0.0484062
19,56.8275,0.029947
26,73.7498,0.147364
34,78.4096,0.0243498
18,56.7057,0.0428947
33,50.2679,0.105929
52,62.5672,0.0374713
63,51.8224,0.0592155
51,41.2625,0.0181536
62,29.7584,0.0262812
149,59.2149,0.0311894
50,81.5885,0.0298179
61,101.954,0.0147451
205,62.9659,0.0295855
99,41.8478,0.069552
204,75.8762,0.0282102
225,94.5652,0.139005
203,33.3372,0.0190578
246,119.312,0.0241102
128,61.1785,0.031621
163,27.7299,0.0239045
182,36.361,0.0354683
223,59.1248,0.0282195
181,55.3721,0.0312173
222,37.8653,0.0308766
267,65.9338,0.0233125
242,28.4733,0.0349612
265,37.1888,0.0234766
288,60.5846,0.0345344
313,29.7935,0.0450319
394,81.0753,0.0117783
365,41.0274,0.0187065
422,86.0566,0.0101118
421,102.659,0.0541916
451,68.0123,0.0108526
450,55.998,0.0280021
481,55.7499,0.00914055
512,35.9136,0.0123231
