"cellPairingIds","interplanarAngles","angleWeights"
8,48.6911,0.0482225
13,49.9062,0.0342319
19,79.2435,0.0372342
26,53.2413,0.0530827
34,44.8281,0.0263413
18,45.725,0.0423066
25,45.6496,0.0469891
63,56.8789,0.040202
75,56.3632,0.0458746
117,84.8677,0.0485263
41,35.882,0.0460018
87,52.4173,0.0330319
116,56.1627,0.0333939
132,88.2628,0.0343848
61,121.176,0.0259689
73,23.4818,0.0186363
86,32.4798,0.0322641
72,40.654,0.0327987
147,60.9036,0.0510945
184,48.8849,0.0498929
98,139.698,0.0154405
203,67.2375,0.0255313
246,82.0405,0.0346086
128,27.6188,0.0174668
163,38.682,0.0174065
245,62.4582,0.0226219
268,133.5,0.0227037
181,25.0457,0.0287477
222,44.3406,0.0329815
243,36.5167,0.0367051
265,28.0311,0.0327671
314,29.6072,0.0460003
288,50.7033,0.0371527
313,45.3619,0.035398
338,88.1134,0.0365133
365,29.1748,0.0578919
393,84.6776,0.0584311
421,29.6624,0.0542051
450,74.1926,0.119979
