Q	U	V
{$V$}	{[mm$^3$]}	0.00427006
{$d_v$}	{[mm]}	0.201285
{$S_c$}	{[mm$^2$]}	0.188984
{$S_o$}	{[mm$^2$]}	0.117868
{$S_l/S_o$}	[]	0.603353
{$\Psi$}	[]	0.673517
{$\eta$}	[]	0.720669
{med($\theta_e$)}	{[$^\circ$]}	55.9703
{$\Upsilon$}	[]	19
{$\Xi$}	[]	7
