facetNormals:0,facetNormals:1,facetNormals:2,FacetCenters:0,FacetCenters:1,FacetCenters:2,FacetIds,relFacetSize,absFacetSize,cellPairingIds,interplanarAngles,angleWeights
0.399768,0.250277,-0.858102,4.40136,4.24003,6.02416,1,0.0307856,0.0048359,8,44.8136,0.0528418
-0.235492,0.539917,-0.68129,4.35767,4.22251,6.03416,2,0.186354,0.029273,13,54.6922,0.0209721
0.65169,-0.529428,-0.49295,4.36994,4.14009,6.04546,3,0.0159028,0.00249806,19,80.4102,0.0275247
0.151177,-0.891272,-0.375616,4.32942,4.0998,6.08146,4,0.0248884,0.00390955,26,96.0868,0.0370529
-0.804383,0.519825,-0.106531,4.32704,4.21612,6.05399,5,0.0465243,0.00730818,34,104.017,0.018407
-0.567837,0.775784,0.235288,4.30289,4.18494,6.06854,6,0.0131283,0.00206223,43,131.967,0.0449674
-0.895517,-0.282944,0.239917,4.31641,4.11738,6.11025,7,0.0833754,0.0130969,53,140.207,0.0490077
-0.496818,-0.724643,0.405681,4.33799,4.07883,6.14752,8,0.120088,0.0188638,64,158.553,0.0316625
-0.111259,-0.057669,0.96757,4.3811,4.12141,6.16591,9,0.0325908,0.00511946,18,96.7766,0.0293048
,,,,,,,,,25,107.214,0.0439122
,,,,,,,,,33,51.2972,0.0744594
,,,,,,,,,42,63.8918,0.0245285
,,,,,,,,,52,96.93,0.115207
,,,,,,,,,63,129.181,0.146056
,,,,,,,,,75,139.097,0.055479
,,,,,,,,,32,37.5621,0.0194059
,,,,,,,,,41,142.756,0.0237034
,,,,,,,,,51,158.521,0.014383
,,,,,,,,,62,125.8,0.0267108
,,,,,,,,,74,98.5513,0.0280863
,,,,,,,,,87,123.112,0.0213754
,,,,,,,,,50,125.284,0.0324288
,,,,,,,,,61,153.307,0.0171894
,,,,,,,,,73,88.3886,0.0383338
,,,,,,,,,86,63.7928,0.0412315
,,,,,,,,,100,110.14,0.0282235
,,,,,,,,,72,28.9042,0.020478
,,,,,,,,,85,54.101,0.0597227
,,,,,,,,,99,91.2457,0.067066
,,,,,,,,,114,92.6555,0.0383306
,,,,,,,,,98,68.8952,0.0226846
,,,,,,,,,113,101.112,0.023669
,,,,,,,,,129,75.2356,0.0187169
,,,,,,,,,128,37.1903,0.0984196
,,,,,,,,,145,68.4034,0.0468631
,,,,,,,,,162,58.7658,0.0512679
