"cellPairingIds","interplanarAngles","angleWeights"
8,36.9188,0.0721884
13,40.0634,0.048831
34,62.0623,0.0732211
18,71.5273,0.0484354
33,64.5957,0.0663128
42,65.2644,0.0723352
133,103.49,0.0449871
41,111.575,0.0460698
51,92.4955,0.0488981
62,116.793,0.0242454
74,107.48,0.054702
101,87.1401,0.0395284
116,102.246,0.0321562
85,42.1422,0.0280277
114,39.2516,0.0579006
184,80.2444,0.0429392
113,30.5313,0.087265
203,69.9345,0.045386
145,36.5315,0.0271667
163,107.165,0.0254641
245,62.5095,0.0292485
201,34.0878,0.0452348
222,25.8695,0.0376785
244,54.9547,0.0503438
266,48.0112,0.0409509
290,54.3154,0.0633641
242,32.9265,0.0343356
314,60.0801,0.0548153
288,23.6708,0.025408
339,61.1637,0.0415921
338,43.0554,0.0269439
365,52.8442,0.0351167
392,46.0425,0.0458725
