Q	U	V
{$V$}	{[mm$^3$]}	0.00231315
{$d_v$}	{[mm]}	0.164085
{$S_c$}	{[mm$^2$]}	0.147823
{$S_o$}	{[mm$^2$]}	0.078203
{$S_l/S_o$}	[]	0.890247
{$\Psi$}	[]	0.572196
{$\eta$}	[]	0.593268
{med($\theta_e$)}	{[$^\circ$]}	67.82295
{$\Upsilon$}	[]	18
{$\Xi$}	[]	8
