Q	U	V
{$V$}	{[mm$^3$]}	0.00463104
{$d_v$}	{[mm]}	0.206804
{$S_c$}	{[mm$^2$]}	0.264435
{$S_o$}	{[mm$^2$]}	0.156032
{$S_l/S_o$}	[]	0.694749
{$\Psi$}	[]	0.508102
{$\eta$}	[]	0.534661
{med($\theta_e$)}	{[$^\circ$]}	67.6105
{$\Upsilon$}	[]	18
{$\Xi$}	[]	8
