facetNormals:0,facetNormals:1,facetNormals:2,FacetCenters:0,FacetCenters:1,FacetCenters:2,FacetIds,relFacetSize,absFacetSize,cellPairingIds,interplanarAngles,angleWeights
0.426632,-0.542078,-0.665476,6.95983,6.02341,6.47066,1,0.0759933,0.00741522,8,71.2147,0.0222292
-0.663437,-0.249896,-0.676161,7.00263,6.04003,6.50247,2,0.0130187,0.00127033,13,64.1382,0.0771732
0.486169,0.485525,-0.700116,6.96542,6.09243,6.47143,3,0.0783904,0.00764912,19,41.2098,0.0883183
0.778703,0.0247161,-0.561518,6.99154,6.07505,6.52395,4,0.105415,0.0102861,26,89.0121,0.0398617
0.150226,0.795748,-0.576571,6.9705,6.12091,6.51889,5,0.0270165,0.0026362,34,55.704,0.0229426
-0.462053,-0.678332,-0.541825,7.00813,5.99856,6.51767,6,0.0135108,0.00131834,43,88.8805,0.0576718
0.46858,0.789339,-0.370425,7.01292,6.11552,6.53396,7,0.0464686,0.00453428,53,110.714,0.0334963
-0.00564785,0.948099,-0.273235,6.94201,6.13266,6.52921,8,0.0214828,0.00209623,64,65.4593,0.0565204
-0.217078,-0.927487,0.0458398,7.00625,5.98379,6.5601,9,0.0449916,0.00439016,76,45.2448,0.0444031
0.28248,-0.929958,-0.0482168,7.00681,5.98772,6.54195,10,0.0313648,0.00306049,89,113.542,0.0319303
0.48039,0.842656,0.190231,6.99313,6.09962,6.52577,11,0.0202113,0.00197216,103,108.042,0.0238668
-0.806598,-0.458464,0.289953,6.94672,6.04625,6.55371,12,0.0141564,0.00138134,118,67.3775,0.0822979
0.919759,-0.158536,0.190985,7.04702,6.03955,6.59156,13,0.0897432,0.0087569,134,140.355,0.0755316
-0.0984427,0.932952,0.255199,6.95586,6.13143,6.56209,14,0.0750754,0.00732566,151,134.432,0.0275452
-0.832309,-0.0115819,0.41262,6.93542,6.10371,6.57333,15,0.0168212,0.00164137,169,92.1028,0.0514934
0.21927,-0.62975,0.704826,7.01717,6.02303,6.62193,16,0.0389394,0.00379961,188,146.974,0.0650728
0.0569528,0.40016,0.88023,7.00624,6.08599,6.63492,17,0.0568966,0.00555181,18,88.2399,0.0223291
,,,,,,,,,25,98.7496,0.0231752
,,,,,,,,,33,84.6187,0.0175705
,,,,,,,,,42,29.0331,0.0132602
,,,,,,,,,52,105.408,0.0203391
,,,,,,,,,63,92.8716,0.0162125
,,,,,,,,,75,68.3429,0.020194
,,,,,,,,,88,85.3318,0.0184
,,,,,,,,,102,132.797,0.0158366
,,,,,,,,,117,61.5518,0.0135637
,,,,,,,,,133,138.566,0.0227387
,,,,,,,,,150,110.939,0.0221895
,,,,,,,,,168,72.3425,0.0146777
,,,,,,,,,187,119.264,0.0195134
,,,,,,,,,207,140.571,0.021189
,,,,,,,,,32,33.7048,0.0899161
,,,,,,,,,41,27.7423,0.040184
,,,,,,,,,51,100.43,0.023049
,,,,,,,,,62,26.3136,0.0583489
,,,,,,,,,74,47.9025,0.0337236
,,,,,,,,,87,128.939,0.0571706
,,,,,,,,,101,107.084,0.0448034
,,,,,,,,,116,58.3006,0.0321368
,,,,,,,,,132,149.048,0.0239819
,,,,,,,,,149,75.3423,0.0836835
,,,,,,,,,167,76.2647,0.0766971
,,,,,,,,,186,140.1,0.0276987
,,,,,,,,,206,136.694,0.0520324
,,,,,,,,,227,114.518,0.0659361
,,,,,,,,,50,61.167,0.0430101
,,,,,,,,,61,94.3917,0.0239517
,,,,,,,,,73,51.4527,0.0645032
,,,,,,,,,86,79.5137,0.0356918
,,,,,,,,,100,103.751,0.0630663
,,,,,,,,,115,76.128,0.0483452
,,,,,,,,,131,72.3328,0.0339192
,,,,,,,,,148,149.248,0.0249608
,,,,,,,,,166,48.5979,0.09695
,,,,,,,,,185,102.174,0.0876953
,,,,,,,,,205,170.546,0.0290128
,,,,,,,,,226,104.963,0.0568712
,,,,,,,,,248,118.232,0.0739042
,,,,,,,,,72,107.673,0.0180132
,,,,,,,,,85,22.0438,0.034168
,,,,,,,,,99,21.7349,0.0239339
,,,,,,,,,114,147.224,0.0337605
,,,,,,,,,130,133.818,0.0290287
,,,,,,,,,147,49.892,0.0231236
,,,,,,,,,165,132.528,0.0185781
,,,,,,,,,184,95.9457,0.0415306
,,,,,,,,,204,53.0872,0.0397343
,,,,,,,,,225,113.763,0.0207333
,,,,,,,,,247,155.055,0.0319003
,,,,,,,,,270,100.807,0.0366367
,,,,,,,,,98,124.489,0.0209347
,,,,,,,,,113,120.497,0.0165887
,,,,,,,,,129,41.2991,0.0207811
,,,,,,,,,146,56.6284,0.0188861
,,,,,,,,,164,157.275,0.0161953
,,,,,,,,,183,56.5758,0.0138261
,,,,,,,,,203,116.696,0.0234858
,,,,,,,,,224,139.369,0.0229003
,,,,,,,,,246,79.3499,0.0149853
,,,,,,,,,269,93.366,0.020061
,,,,,,,,,293,144.415,0.0218363
,,,,,,,,,128,29.8722,0.029382
,,,,,,,,,145,154.327,0.0457182
,,,,,,,,,163,127.308,0.0374512
,,,,,,,,,182,33.0867,0.0281701
,,,,,,,,,202,151.707,0.0217016
,,,,,,,,,223,75.5637,0.0612317
,,,,,,,,,245,51.7533,0.0574055
,,,,,,,,,268,126.886,0.0247009
,,,,,,,,,292,133.033,0.0423721
,,,,,,,,,317,89.0145,0.0511566
,,,,,,,,,162,161.177,0.0290802
,,,,,,,,,181,154.987,0.0254999
,,,,,,,,,201,40.264,0.0208276
,,,,,,,,,222,122.077,0.0170665
,,,,,,,,,244,102.765,0.0346669
,,,,,,,,,267,31.7932,0.0334063
,,,,,,,,,291,97.4603,0.0188683
,,,,,,,,,316,145.7,0.0276894
,,,,,,,,,342,81.6639,0.0311892
,,,,,,,,,200,30.5737,0.0369623
,,,,,,,,,221,158.511,0.0278925
,,,,,,,,,243,48.5525,0.0215365
,,,,,,,,,266,92.7674,0.0599354
,,,,,,,,,290,153.846,0.0562646
,,,,,,,,,315,76.2669,0.0244872
,,,,,,,,,341,52.0694,0.0417473
,,,,,,,,,368,111.808,0.0502486
,,,,,,,,,242,133.091,0.024582
,,,,,,,,,265,78.7508,0.019508
,,,,,,,,,289,64.573,0.0464838
,,,,,,,,,314,163.628,0.0442451
,,,,,,,,,340,105.673,0.0218982
,,,,,,,,,367,49.4685,0.0347441
,,,,,,,,,395,115.01,0.0404379
,,,,,,,,,288,138.414,0.0166505
,,,,,,,,,313,68.535,0.0329923
,,,,,,,,,339,34.9777,0.0318485
,,,,,,,,,366,111.134,0.0183611
,,,,,,,,,394,107.679,0.0266105
,,,,,,,,,423,56.243,0.0298271
,,,,,,,,,338,131.518,0.0244552
,,,,,,,,,365,106.875,0.0238211
,,,,,,,,,393,28.1449,0.0153742
,,,,,,,,,422,70.4104,0.0207641
,,,,,,,,,452,88.428,0.0226718
,,,,,,,,,392,101.819,0.0817567
,,,,,,,,,421,140.698,0.0283319
,,,,,,,,,451,61.8476,0.0543127
,,,,,,,,,482,80.2004,0.0696412
,,,,,,,,,450,78.736,0.0274843
,,,,,,,,,481,117.067,0.051281
,,,,,,,,,513,51.0209,0.064734
,,,,,,,,,512,82.6309,0.0234936
,,,,,,,,,545,69.7701,0.0259657
,,,,,,,,,578,66.0906,0.0462357
