facetNormals:0,facetNormals:1,facetNormals:2,FacetCenters:0,FacetCenters:1,FacetCenters:2,FacetIds,relFacetSize,absFacetSize,cellPairingIds,interplanarAngles,angleWeights
0.539137,-0.218413,-0.788605,7.17622,3.90494,7.84331,1,0.0537138,0.00527693,8,97.4849,0.0215331
-0.3274,0.839062,-0.302427,7.09877,3.96955,7.94957,2,0.0134656,0.00132288,13,48.4726,0.039418
0.020263,-0.793797,-0.572994,7.13423,3.8501,7.82687,3,0.0311322,0.00305847,19,20.1251,0.0388929
0.773811,-0.277266,-0.544683,7.19896,3.86653,7.86677,4,0.0304822,0.00299462,26,63.9116,0.0250226
0.455179,0.755271,-0.435408,7.16451,3.92878,7.8905,5,0.0163104,0.00160236,34,37.7202,0.062432
0.87232,0.169528,-0.414316,7.19648,3.89681,7.86992,6,0.0745286,0.0073218,43,88.1243,0.0765163
-0.231117,-0.932113,0.0610153,7.13377,3.84462,7.90725,7,0.13296,0.0130622,53,80.0657,0.0696723
0.835581,0.427104,0.245044,7.20331,3.95275,7.95652,8,0.0991215,0.00973785,64,81.9591,0.0487269
0.54877,-0.701958,0.399835,7.20764,3.8547,7.95415,9,0.0445873,0.00438033,76,158.48,0.0147812
-0.801915,0.13887,0.5466,7.04525,3.96553,8.00548,10,0.00856975,0.000841906,89,118.703,0.0321384
0.180778,0.833602,0.475526,7.13146,3.99356,8.00652,11,0.0229285,0.00225254,103,125.182,0.0772439
-0.482128,-0.642001,0.541598,7.09245,3.88923,7.97678,12,0.137461,0.0135043,118,138.744,0.0237553
0.0232174,0.624206,0.767149,7.1075,3.98362,8.03765,13,0.0152498,0.00149816,134,117.37,0.0562644
0.181049,-0.50408,0.825576,7.16156,3.90171,8.01669,14,0.0590693,0.00580306,151,122.103,0.0451724
0.393351,0.114369,0.875649,7.13591,3.9552,8.02895,15,0.0389747,0.00382893,169,157.235,0.0329313
-0.194824,0.14269,0.946105,7.0905,3.96984,8.03379,16,0.0237443,0.00233268,18,122.465,0.0187998
,,,,,,,,,25,110.055,0.0186795
,,,,,,,,,33,48.7263,0.0147521
,,,,,,,,,42,91.1104,0.02281
,,,,,,,,,52,142.455,0.0244546
,,,,,,,,,63,89.3354,0.0237102
,,,,,,,,,75,163.482,0.0206844
,,,,,,,,,88,76.7327,0.0104738
,,,,,,,,,102,57.6523,0.0169668
,,,,,,,,,117,126.291,0.0245284
,,,,,,,,,133,72.404,0.0143023
,,,,,,,,,150,141.518,0.0219316
,,,,,,,,,168,108.908,0.0200158
,,,,,,,,,187,96.3506,0.0171853
,,,,,,,,,32,55.4302,0.0308038
,,,,,,,,,41,110.727,0.021406
,,,,,,,,,51,82.7895,0.0439186
,,,,,,,,,62,41.9979,0.0504514
,,,,,,,,,74,119.144,0.0473825
,,,,,,,,,87,69.2231,0.0366643
,,,,,,,,,101,117.259,0.0134399
,,,,,,,,,116,166.674,0.0264079
,,,,,,,,,132,78.4724,0.0507667
,,,,,,,,,149,164.747,0.0204717
,,,,,,,,,167,94.1207,0.0407744
,,,,,,,,,186,128.135,0.0346148
,,,,,,,,,206,133.596,0.0269409
,,,,,,,,,50,66.9324,0.0212502
,,,,,,,,,61,27.9972,0.0432678
,,,,,,,,,73,87.199,0.0495945
,,,,,,,,,86,65.6257,0.0466258
,,,,,,,,,100,65.3601,0.0362096
,,,,,,,,,115,171.769,0.0133783
,,,,,,,,,131,111.329,0.0261712
,,,,,,,,,148,120.875,0.0498991
,,,,,,,,,166,125.969,0.0203292
,,,,,,,,,185,100.078,0.0402129
,,,,,,,,,205,102.374,0.0342092
,,,,,,,,,226,137.129,0.0266946
,,,,,,,,,72,42.9758,0.0267637
,,,,,,,,,85,152.023,0.0290564
,,,,,,,,,99,51.3121,0.0280115
,,,,,,,,,114,118.241,0.0238839
,,,,,,,,,130,121.107,0.011236
,,,,,,,,,147,58.289,0.0190614
,,,,,,,,,165,170.781,0.0291608
,,,,,,,,,184,81.2509,0.0157623
,,,,,,,,,204,132.815,0.0255624
,,,,,,,,,225,96.9984,0.0229969
,,,,,,,,,247,114.148,0.0193375
,,,,,,,,,98,114.077,0.0955168
,,,,,,,,,113,42.6189,0.0850836
,,,,,,,,,129,78.3082,0.0557949
,,,,,,,,,146,159.859,0.0153719
,,,,,,,,,164,83.8851,0.0350684
,,,,,,,,,183,142.545,0.0966534
,,,,,,,,,203,101.403,0.0253189
,,,,,,,,,224,106.223,0.0659045
,,,,,,,,,246,90.0168,0.0511832
,,,,,,,,,269,124.172,0.0360146
,,,,,,,,,128,128.131,0.113574
,,,,,,,,,145,54.0384,0.0667803
,,,,,,,,,163,84.5717,0.0161017
,,,,,,,,,182,147.185,0.0391123
,,,,,,,,,202,37.1415,0.135173
,,,,,,,,,223,124.587,0.0273614
,,,,,,,,,245,59.6569,0.0817986
,,,,,,,,,268,98.9104,0.0602796
,,,,,,,,,292,91.8448,0.040293
,,,,,,,,,162,74.2748,0.0615072
,,,,,,,,,181,120.097,0.0157756
,,,,,,,,,201,48.8216,0.0372423
,,,,,,,,,222,125.417,0.115185
,,,,,,,,,244,60.3962,0.0264329
,,,,,,,,,267,81.6692,0.074025
,,,,,,,,,291,50.8394,0.0559498
,,,,,,,,,316,82.1106,0.0383112
,,,,,,,,,200,109.462,0.0143764
,,,,,,,,,221,108.069,0.0302839
,,,,,,,,,243,64.8053,0.0673339
,,,,,,,,,266,97.0567,0.0227266
,,,,,,,,,290,35.4114,0.0508167
,,,,,,,,,315,59.0399,0.0415925
,,,,,,,,,341,79.6569,0.030987
,,,,,,,,,242,76.0555,0.0124764
,,,,,,,,,265,51.3105,0.0161337
,,,,,,,,,289,59.8324,0.0109731
,,,,,,,,,314,75.8364,0.014968
,,,,,,,,,340,79.1084,0.0140502
,,,,,,,,,367,43.6034,0.0125941
,,,,,,,,,288,112.687,0.0393016
,,,,,,,,,313,22.9963,0.018317
,,,,,,,,,339,89.6953,0.0330344
,,,,,,,,,366,51.8762,0.0288719
,,,,,,,,,394,55.9712,0.0233293
,,,,,,,,,338,89.7876,0.0274538
,,,,,,,,,365,44.1834,0.0826307
,,,,,,,,,393,76.9643,0.0607303
,,,,,,,,,422,57.0223,0.0404939
,,,,,,,,,392,70.6302,0.0242413
,,,,,,,,,421,38.1318,0.021922
,,,,,,,,,451,32.9771,0.0185718
,,,,,,,,,450,39.2733,0.0469628
,,,,,,,,,481,45.469,0.0338727
,,,,,,,,,512,35.536,0.0295103
