"cellPairingIds","interplanarAngles","angleWeights"
8,46.5065,0.0544774
13,57.3761,0.0540446
19,59.3077,0.0234793
26,68.7858,0.0547934
34,107.842,0.0591536
53,100.67,0.049544
33,36.2227,0.0679953
63,71.3746,0.060094
102,83.8706,0.0500642
133,74.845,0.0713198
32,63.1486,0.025514
51,81.6179,0.0740265
62,37.1827,0.0686163
87,95.7187,0.0564937
50,62.6668,0.0256797
100,40.4107,0.02393
114,58.9601,0.0573124
130,29.0952,0.0359606
184,58.19,0.0718623
98,54.7408,0.0770673
113,59.6117,0.065835
164,61.8473,0.0539862
183,74.2082,0.0611762
224,65.0255,0.0212587
145,105.996,0.0582476
245,75.1153,0.020788
201,19.5146,0.045867
200,56.2868,0.0326207
266,78.0599,0.0596564
290,87.2769,0.0195191
289,31.8115,0.0368695
288,19.5943,0.0435561
313,45.4081,0.0521297
338,30.4387,0.0588031
365,56.9271,0.0194269
392,71.5584,0.0209647
