"cellPairingIds","interplanarAngles","angleWeights"
8,43.8073,0.0312929
19,88.8876,0.0817477
34,69.0485,0.0261168
64,116.921,0.145426
25,107.628,0.0254249
52,119.981,0.0230405
63,146.612,0.0314513
75,90.5561,0.0294333
61,85.3634,0.0218986
73,49.0802,0.0422325
86,81.4892,0.0828376
113,102.843,0.0262271
129,106.301,0.0248087
128,43.1863,0.0619501
162,73.3083,0.148912
