"cellPairingIds","interplanarAngles","angleWeights"
8,85.58,0.035213
13,79.2536,0.0795922
19,60.8339,0.0830944
26,111.362,0.0620647
53,74.584,0.060864
33,63.238,0.025259
52,46.5359,0.0215216
63,86.5234,0.0250579
32,42.7622,0.0508195
41,91.7492,0.0420961
116,34.3822,0.0221847
86,77.7143,0.0424746
131,46.9436,0.0224484
85,48.8756,0.0292581
147,103.598,0.0205659
165,112.798,0.0560131
128,102.628,0.0289885
202,78.1048,0.0404397
201,105.285,0.0204323
222,66.1359,0.0550333
288,68.672,0.0255272
