facetNormals:0,facetNormals:1,facetNormals:2,FacetCenters:0,FacetCenters:1,FacetCenters:2,FacetIds,relFacetSize,absFacetSize,cellPairingIds,interplanarAngles,angleWeights
-0.234041,-0.160159,-0.921773,4.22841,4.29534,6.08229,1,0.080565,0.0107731,8,32.7587,0.109158
0.234588,0.0882265,-0.879723,4.23818,4.28991,6.08264,2,0.169211,0.0226269,13,27.2678,0.0168294
-0.456269,-0.514037,-0.721681,4.16526,4.20142,6.09364,3,0.0093961,0.00125645,19,47.6628,0.0351753
-0.399105,0.579318,-0.697272,4.19915,4.37032,6.11674,4,0.0224994,0.00300861,26,36.7778,0.0370724
-0.757035,-0.00503314,-0.634909,4.15689,4.26291,6.10872,5,0.0240754,0.00321936,34,79.3736,0.0386808
0.116155,0.890315,-0.371668,4.22177,4.38167,6.1085,6,0.0254499,0.00340316,43,54.2565,0.0259944
-0.831857,0.30031,-0.44647,4.20186,4.35954,6.1119,7,0.0154973,0.0020723,53,74.1872,0.0302866
0.647685,-0.654881,-0.329564,4.24969,4.16471,6.13115,8,0.0186486,0.00249369,64,59.5159,0.0711988
-0.870316,-0.357283,-0.231138,4.15407,4.19663,6.12754,9,0.0637836,0.00852914,76,73.4214,0.0293273
-0.295211,-0.928081,-0.0549911,4.1786,4.18708,6.1426,10,0.0179264,0.00239712,89,77.4109,0.0778527
-0.810085,0.487204,-0.0956372,4.15699,4.34603,6.15458,11,0.075317,0.0100714,103,126.118,0.0140922
0.887873,-0.0482577,0.379082,4.25788,4.29844,6.20817,12,0.00772143,0.00103251,118,105.705,0.0570055
-0.306621,0.903604,0.196766,4.21395,4.39102,6.15021,13,0.0441072,0.00589802,134,108.63,0.0681111
-0.801781,0.272274,0.481899,4.16056,4.33814,6.20459,14,0.058992,0.00788841,151,120.527,0.0710579
0.220295,-0.737894,0.586803,4.22965,4.16945,6.19413,15,0.0635578,0.00849894,169,114.962,0.0966138
-0.654261,-0.295627,0.643062,4.16719,4.24354,6.20428,16,0.120647,0.0161329,18,58.0443,0.0178036
,,,,,,,,,25,50.9425,0.0397176
,,,,,,,,,33,65.1015,0.0421532
,,,,,,,,,42,60.8655,0.0442452
,,,,,,,,,52,75.6815,0.0283942
,,,,,,,,,63,64.5815,0.0335947
,,,,,,,,,75,92.0921,0.092645
,,,,,,,,,88,96.613,0.0324184
,,,,,,,,,102,94.1514,0.104237
,,,,,,,,,117,98.4194,0.0147689
,,,,,,,,,133,100.69,0.0699746
,,,,,,,,,150,131.284,0.0874844
,,,,,,,,,168,126.731,0.0924065
,,,,,,,,,187,147.707,0.140861
,,,,,,,,,32,66.8859,0.0132562
,,,,,,,,,41,35.0425,0.0135169
,,,,,,,,,51,104.497,0.013725
,,,,,,,,,62,56.3307,0.011699
,,,,,,,,,74,73.3739,0.0124961
,,,,,,,,,87,39.2603,0.0163793
,,,,,,,,,101,47.9242,0.0123296
,,,,,,,,,116,78.5364,0.0167078
,,,,,,,,,132,132.747,0.00847684
,,,,,,,,,149,118.72,0.015492
,,,,,,,,,167,97.2127,0.0162103
,,,,,,,,,186,98.6245,0.0163719
,,,,,,,,,206,90.8114,0.0174344
,,,,,,,,,50,40.7025,0.0232607
,,,,,,,,,61,40.804,0.0238839
,,,,,,,,,73,33.606,0.0183532
,,,,,,,,,86,114.908,0.0203938
,,,,,,,,,100,71.6852,0.0332648
,,,,,,,,,115,113.256,0.0199543
,,,,,,,,,131,44.4132,0.0346483
,,,,,,,,,148,132.484,0.0114972
,,,,,,,,,166,58.1915,0.0297984
,,,,,,,,,185,81.5556,0.0325748
,,,,,,,,,205,164.604,0.033234
,,,,,,,,,226,112.059,0.037926
,,,,,,,,,72,81.4007,0.0247436
,,,,,,,,,85,21.3486,0.0188566
,,,,,,,,,99,106.702,0.0210173
,,,,,,,,,114,32.4867,0.0349563
,,,,,,,,,130,74.1599,0.0205508
,,,,,,,,,147,44.33,0.0364874
,,,,,,,,,165,162.848,0.0116928
,,,,,,,,,184,83.8789,0.0311487
,,,,,,,,,204,71.8638,0.0341953
,,,,,,,,,225,124.051,0.0349223
,,,,,,,,,247,84.6677,0.0401406
,,,,,,,,,98,69.5296,0.0192641
,,,,,,,,,113,113.913,0.0215248
,,,,,,,,,129,110.734,0.0363829
,,,,,,,,,146,152.414,0.0210357
,,,,,,,,,164,66.0218,0.0380444
,,,,,,,,,183,94.9302,0.0118482
,,,,,,,,,203,42.7037,0.0322763
,,,,,,,,,224,91.8054,0.0355591
,,,,,,,,,246,154.542,0.0363461
,,,,,,,,,269,128.122,0.0420331
,,,,,,,,,128,127.375,0.0169275
,,,,,,,,,145,41.4054,0.024936
,,,,,,,,,163,90.5091,0.0166236
,,,,,,,,,182,23.5531,0.0257055
,,,,,,,,,202,164.392,0.0103073
,,,,,,,,,223,62.9755,0.022936
,,,,,,,,,245,56.4404,0.0245463
,,,,,,,,,268,134.045,0.0249187
,,,,,,,,,292,79.8446,0.0274665
,,,,,,,,,162,105.517,0.0288594
,,,,,,,,,181,62.8998,0.0182804
,,,,,,,,,201,150.91,0.0298951
,,,,,,,,,222,59.3729,0.010921
,,,,,,,,,244,153.803,0.0262139
,,,,,,,,,267,153.972,0.0283387
,,,,,,,,,291,62.8272,0.0288363
,,,,,,,,,316,117.961,0.0323039
,,,,,,,,,200,50.4895,0.0279871
,,,,,,,,,221,53.0688,0.0690722
,,,,,,,,,243,154.203,0.0137753
,,,,,,,,,266,96.1712,0.0521512
,,,,,,,,,290,58.786,0.0612943
,,,,,,,,,315,93.8956,0.0636705
,,,,,,,,,341,55.6842,0.0834493
,,,,,,,,,242,102.954,0.02896
,,,,,,,,,265,104.631,0.0107937
,,,,,,,,,289,142.992,0.0254921
,,,,,,,,,314,92.563,0.0274971
,,,,,,,,,340,51.5297,0.0279653
,,,,,,,,,367,62.6358,0.0312148
,,,,,,,,,288,148.019,0.0140069
,,,,,,,,,313,43.6499,0.055634
,,,,,,,,,339,37.3292,0.0661624
,,,,,,,,,366,130.227,0.0689395
,,,,,,,,,394,69.2482,0.0927393
,,,,,,,,,338,104.843,0.0131422
,,,,,,,,,365,125.162,0.0136555
,,,,,,,,,393,61.0042,0.01377
,,,,,,,,,422,110.276,0.014514
,,,,,,,,,392,51.8242,0.0504752
,,,,,,,,,421,131,0.0520756
,,,,,,,,,451,86.3358,0.0645981
,,,,,,,,,450,95.7655,0.0611899
,,,,,,,,,481,36.5904,0.0792391
,,,,,,,,,512,61.0732,0.0832558
