Q	U	V
{$V$}	{[mm$^3$]}	0.00862205
{$d_v$}	{[mm]}	0.254412
{$S_c$}	{[mm$^2$]}	0.30041
{$S_o$}	{[mm$^2$]}	0.195629
{$S_l/S_o$}	[]	0.535611
{$\Psi$}	[]	0.676878
{$\eta$}	[]	0.716561
{med($\theta_e$)}	{[$^\circ$]}	55.5297
{$\Upsilon$}	[]	17
{$\Xi$}	[]	9
