facetNormals:0,facetNormals:1,facetNormals:2,FacetCenters:0,FacetCenters:1,FacetCenters:2,FacetIds,relFacetSize,absFacetSize,cellPairingIds,interplanarAngles,angleWeights
0.5537,0.130657,-0.804037,7.33267,4.6367,7.67912,1,0.0382021,0.00655676,8,31.9025,0.0478738
0.189748,0.526009,-0.792774,7.2496,4.69372,7.66335,2,0.0641029,0.0110022,13,83.505,0.03247
-0.730206,-0.0680663,-0.64968,7.16989,4.6334,7.6451,3,0.0282336,0.00484582,19,28.7215,0.0378109
0.547514,0.571288,-0.591354,7.31167,4.67503,7.6915,4,0.0374276,0.00642383,26,49.5662,0.0403384
0.616001,0.726368,-0.237639,7.26666,4.69315,7.70957,5,0.0427278,0.00733351,34,35.8143,0.0286145
0.878021,0.329346,-0.329074,7.38298,4.64344,7.73603,6,0.0228739,0.00392592,43,55.9214,0.018456
0.90559,-0.363268,-0.109342,7.38889,4.58747,7.73035,7,0.0121671,0.00208827,53,100.957,0.0103618
-0.107978,-0.976906,-0.00425671,7.35499,4.56716,7.71114,8,0.00599378,0.00102873,64,114.337,0.0427738
-0.86988,-0.391882,-0.173203,7.15656,4.61887,7.72183,9,0.0485883,0.00833938,76,122.921,0.0183348
-0.595135,-0.774164,0.119296,7.24785,4.69332,7.7484,10,0.0120619,0.00207023,89,70.1922,0.0476115
0.877549,0.290898,0.253639,7.34904,4.67259,7.78148,11,0.0631706,0.0108422,103,115.844,0.0592948
-0.765798,0.518196,0.051368,7.16046,4.68949,7.73988,12,0.132394,0.0227233,118,83.7827,0.0351496
0.427765,0.836765,0.299694,7.25174,4.7012,7.75486,13,0.0325488,0.00558647,134,106.13,0.0395263
-0.088779,0.881696,0.415187,7.199,4.69144,7.80107,14,0.0409456,0.00702763,151,112.408,0.0432712
0.467728,0.227387,0.807629,7.29972,4.66692,7.80447,15,0.0498913,0.00856301,169,163.922,0.0592619
-0.291381,-0.194984,0.850539,7.24798,4.65287,7.80806,16,0.132067,0.0226671,18,68.996,0.0392013
,,,,,,,,,25,24.3355,0.047261
,,,,,,,,,33,43.7977,0.0512769
,,,,,,,,,42,51.4601,0.0337166
,,,,,,,,,52,85.9403,0.0204522
,,,,,,,,,63,123.839,0.0109625
,,,,,,,,,75,104.396,0.0552776
,,,,,,,,,88,130.099,0.0203035
,,,,,,,,,102,82.683,0.0636333
,,,,,,,,,117,84.4722,0.0863814
,,,,,,,,,133,72.7531,0.0431751
,,,,,,,,,150,82.8732,0.0499718
,,,,,,,,,168,117.611,0.0561112
,,,,,,,,,187,158.807,0.0863116
,,,,,,,,,32,93.2276,0.0321869
,,,,,,,,,41,111.013,0.0340004
,,,,,,,,,51,117.51,0.0252727
,,,,,,,,,62,126.006,0.0170057
,,,,,,,,,74,81.1527,0.00988833
,,,,,,,,,87,35.4012,0.0357144
,,,,,,,,,101,64.8404,0.0169027
,,,,,,,,,116,151.492,0.0390252
,,,,,,,,,132,57.2721,0.0465419
,,,,,,,,,149,125.705,0.030238
,,,,,,,,,167,106.04,0.0334216
,,,,,,,,,186,159.53,0.0360605
,,,,,,,,,206,111.24,0.0465216
,,,,,,,,,50,22.9733,0.0399025
,,,,,,,,,61,28.4133,0.0283945
,,,,,,,,,73,68.66,0.0183642
,,,,,,,,,86,129.28,0.0103328
,,,,,,,,,100,128.609,0.0422839
,,,,,,,,,115,149.656,0.0182442
,,,,,,,,,131,58.3686,0.0470053
,,,,,,,,,148,99.6673,0.0583576
,,,,,,,,,166,56.6969,0.0348182
,,,,,,,,,185,77.4794,0.0391077
,,,,,,,,,205,95.5397,0.0427699
,,,,,,,,,226,148.383,0.0583258
,,,,,,,,,72,28.3801,0.0297965
,,,,,,,,,85,70.6105,0.0189406
,,,,,,,,,99,143.455,0.0105128
,,,,,,,,,114,144.963,0.04547
,,,,,,,,,130,172.455,0.018813
,,,,,,,,,147,42.6983,0.050976
,,,,,,,,,165,96.794,0.0646054
,,,,,,,,,184,34.2771,0.0369501
,,,,,,,,,204,59.5314,0.0418177
,,,,,,,,,225,73.9077,0.0460325
,,,,,,,,,247,125.41,0.0645663
,,,,,,,,,98,43.1864,0.0158847
,,,,,,,,,113,115.151,0.00949858
,,,,,,,,,129,150.151,0.0311046
,,,,,,,,,146,146.66,0.0157949
,,,,,,,,,164,34.7472,0.0335862
,,,,,,,,,183,124.299,0.0390082
,,,,,,,,,203,55.6911,0.0268669
,,,,,,,,,224,85.5295,0.029351
,,,,,,,,,246,76.6892,0.0313668
,,,,,,,,,269,131.01,0.038994
,,,,,,,,,128,74.5203,0.0080312
,,,,,,,,,145,131.148,0.0194609
,,,,,,,,,163,106.28,0.0121143
,,,,,,,,,182,45.3672,0.0204042
,,,,,,,,,202,167.4,0.022286
,,,,,,,,,223,87.0027,0.0177129
,,,,,,,,,245,117.663,0.0187597
,,,,,,,,,268,74.4613,0.0195632
,,,,,,,,,292,108.462,0.0222814
,,,,,,,,,162,59.9327,0.0106712
,,,,,,,,,181,31.9917,0.00800817
,,,,,,,,,201,113.785,0.0109487
,,,,,,,,,222,117.747,0.0114684
,,,,,,,,,244,153.141,0.0101234
,,,,,,,,,267,152.547,0.0104568
,,,,,,,,,291,107.003,0.0107019
,,,,,,,,,316,76.0276,0.0114671
,,,,,,,,,200,32.9556,0.0193262
,,,,,,,,,221,172.337,0.0549281
,,,,,,,,,243,59.6169,0.0710877
,,,,,,,,,266,141.826,0.0389832
,,,,,,,,,290,111.009,0.0444408
,,,,,,,,,315,133.051,0.0492312
,,,,,,,,,341,78.191,0.0710404
,,,,,,,,,242,139.507,0.0202561
,,,,,,,,,265,86.1788,0.0221096
,,,,,,,,,289,153.264,0.0176012
,,,,,,,,,314,127.064,0.0186345
,,,,,,,,,340,112.265,0.0194271
,,,,,,,,,367,61.9318,0.022105
,,,,,,,,,288,124.924,0.085531
,,,,,,,,,313,42.7127,0.0429616
,,,,,,,,,339,72.3862,0.049686
,,,,,,,,,366,42.2697,0.0557511
,,,,,,,,,394,96.2943,0.0854625
,,,,,,,,,338,82.3615,0.0522517
,,,,,,,,,365,52.9359,0.0625472
,,,,,,,,,393,102.918,0.0724722
,,,,,,,,,422,78.7787,0.13223
,,,,,,,,,392,31.365,0.0362676
,,,,,,,,,421,48.1324,0.039396
,,,,,,,,,451,92.0776,0.0522262
,,,,,,,,,450,58.2772,0.044978
,,,,,,,,,481,76.7015,0.0625106
,,,,,,,,,512,55.046,0.0724231
