facetNormals:0,facetNormals:1,facetNormals:2,FacetCenters:0,FacetCenters:1,FacetCenters:2,FacetIds,relFacetSize,absFacetSize,cellPairingIds,interplanarAngles,angleWeights
0.437264,-0.0902112,-0.875272,7.34824,6.3063,6.52977,1,0.0302069,0.00191998,8,38.1127,0.0428105
0.0897306,-0.604827,-0.742175,7.32002,6.25264,6.54624,2,0.073462,0.00466933,13,80.5382,0.0124543
-0.477196,-0.783159,-0.33805,7.27239,6.2419,6.56218,3,0.00784422,0.000498588,19,49.4249,0.0514477
0.859644,0.321453,-0.311325,7.36651,6.35842,6.56983,4,0.173329,0.011017,26,79.8713,0.0297432
0.64542,0.746162,0.0505092,7.35012,6.40546,6.5995,5,0.0292935,0.00186193,34,92.1237,0.0280485
0.854512,0.223562,0.444994,7.37558,6.34878,6.64256,6,0.026178,0.0016639,43,125.601,0.0463429
-0.547981,-0.682832,0.435706,7.28119,6.25789,6.60686,7,0.099488,0.00632358,53,89.5555,0.0481504
0.603007,-0.665848,0.36144,7.35444,6.27617,6.61294,8,0.118604,0.00753862,64,112.316,0.0410191
0.289241,0.794461,0.476253,7.32294,6.4107,6.63205,9,0.0638865,0.0040607,76,115.407,0.0335402
0.5565,0.361147,0.708153,7.3542,6.37147,6.65022,10,0.0377006,0.00239629,89,121.869,0.0341455
0.181582,-0.624728,0.738386,7.32832,6.28249,6.65316,11,0.0392654,0.00249575,103,147.521,0.0183407
-0.0191535,0.450082,0.881629,7.30293,6.38631,6.66945,12,0.013168,0.000836973,118,161.522,0.0464559
-0.219268,-0.125663,0.947735,7.30197,6.33442,6.66843,13,0.100538,0.00639029,18,43.5018,0.0141749
,,,,,,,,,25,82.9879,0.103189
,,,,,,,,,33,116.974,0.041885
,,,,,,,,,42,114.13,0.0386007
,,,,,,,,,52,87.5345,0.0845168
,,,,,,,,,63,78.3152,0.090728
,,,,,,,,,75,149.989,0.0683405
,,,,,,,,,88,138.058,0.049829
,,,,,,,,,102,99.3574,0.0511768
,,,,,,,,,117,167.166,0.0223328
,,,,,,,,,133,133.316,0.0848932
,,,,,,,,,32,125.996,0.0150092
,,,,,,,,,41,160.369,0.0123747
,,,,,,,,,51,139.336,0.0120713
,,,,,,,,,62,47.2391,0.0145419
,,,,,,,,,74,83.2326,0.0147152
,,,,,,,,,87,166.232,0.0139728
,,,,,,,,,101,146.162,0.0129864
,,,,,,,,,116,80.8475,0.0130762
,,,,,,,,,132,131.513,0.00983168
,,,,,,,,,149,97.03,0.014553
,,,,,,,,,50,35.5473,0.0501169
,,,,,,,,,61,45.8286,0.0454862
,,,,,,,,,73,150.662,0.126416
,,,,,,,,,86,78.206,0.140837
,,,,,,,,,100,67.7724,0.0933614
,,,,,,,,,115,66.5647,0.0619306
,,,,,,,,,131,106.734,0.0640264
,,,,,,,,,148,98.7678,0.0244765
,,,,,,,,,166,123.448,0.12726
,,,,,,,,,72,40.6922,0.0276482
,,,,,,,,,85,150.541,0.0452604
,,,,,,,,,99,95.3616,0.0469829
,,,,,,,,,114,33.0463,0.0401687
,,,,,,,,,130,46.1221,0.0329695
,,,,,,,,,147,108.698,0.0335542
,,,,,,,,,165,67.8975,0.0181688
,,,,,,,,,184,101.152,0.0453681
,,,,,,,,,98,116.199,0.0414495
,,,,,,,,,113,56.595,0.0428895
,,,,,,,,,129,48.4398,0.0371383
,,,,,,,,,146,24.7736,0.0309
,,,,,,,,,164,69.298,0.0314131
,,,,,,,,,183,60.8763,0.0175221
,,,,,,,,,203,77.7232,0.0415398
,,,,,,,,,128,72.6931,0.108208
,,,,,,,,,145,121.332,0.0778082
,,,,,,,,,163,104.837,0.0546803
,,,,,,,,,182,47.6124,0.0563076
,,,,,,,,,202,84.8271,0.0232577
,,,,,,,,,223,49.819,0.10001
,,,,,,,,,162,101.196,0.0830421
,,,,,,,,,181,68.0606,0.0572144
,,,,,,,,,201,33.7467,0.0589985
,,,,,,,,,222,89.5565,0.0237042
,,,,,,,,,244,71.9677,0.108826
,,,,,,,,,200,33.5073,0.0474186
,,,,,,,,,221,95.537,0.0486376
,,,,,,,,,243,36.5383,0.0218354
,,,,,,,,,266,72.3805,0.0781272
,,,,,,,,,242,65.3473,0.0384671
,,,,,,,,,265,36.103,0.0195186
,,,,,,,,,289,58.0447,0.0548376
,,,,,,,,,288,67.9151,0.019722
,,,,,,,,,313,40.0878,0.0564744
,,,,,,,,,338,36.2445,0.0232861
