facetNormals:0,facetNormals:1,facetNormals:2,FacetCenters:0,FacetCenters:1,FacetCenters:2,FacetIds,relFacetSize,absFacetSize,cellPairingIds,interplanarAngles,angleWeights
0.582077,-0.349014,-0.686241,4.5522,7.04311,8.31659,1,0.0558669,0.0086126,8,43.5052,0.0763487
-0.0485574,-0.693027,-0.681454,4.45058,7.04201,8.31469,2,0.120541,0.018583,13,85.298,0.074575
-0.695647,-0.0573102,-0.67267,4.3946,7.0744,8.31452,3,0.112121,0.0172849,19,93.1389,0.0415593
-0.149156,0.827204,-0.472944,4.52329,7.12159,8.27799,4,0.0330859,0.00510063,26,83.075,0.0535033
-0.54178,-0.777643,-0.229404,4.42729,7.11933,8.24682,5,0.0513316,0.00791343,34,90.1259,0.0134954
0.47169,0.84888,-0.0286348,4.40806,7.15273,8.20952,6,0.00767464,0.00118314,43,39.08,0.0298714
0.511722,-0.817177,-0.233434,4.52357,7.07425,8.28606,7,0.0203857,0.00314273,53,45.9676,0.0430828
0.914065,-0.333442,-0.00628462,4.5968,7.08943,8.32613,8,0.03506,0.00540495,64,53.7928,0.0168593
0.711389,-0.687273,0.124656,4.59355,7.09129,8.33754,9,0.0099276,0.00153047,76,102.723,0.0186522
-0.569481,-0.785401,0.224872,4.41491,7.13297,8.18518,10,0.0111949,0.00172584,89,112.067,0.0364406
-0.379899,-0.719023,0.567397,4.42853,7.01452,8.36981,11,0.0270387,0.00416836,103,94.6174,0.0648086
0.166064,-0.734608,0.625302,4.54022,7.03562,8.37267,12,0.0771582,0.0118949,118,87.0044,0.0609373
0.575101,-0.458717,0.649,4.60839,7.06999,8.38931,13,0.0670199,0.010332,134,120.343,0.0564669
0.0423098,-0.354521,0.912175,4.4897,7.06042,8.41282,14,0.05708,0.00879963,151,150.875,0.0610938
-0.42037,-0.0723414,0.863184,4.39541,7.06828,8.39756,15,0.0673997,0.0103905,18,55.6789,0.116179
,,,,,,,,,25,105.052,0.0519208
,,,,,,,,,33,40.5023,0.0720018
,,,,,,,,,42,128.742,0.0144305
,,,,,,,,,52,43.4761,0.0348737
,,,,,,,,,63,78.3638,0.0543206
,,,,,,,,,75,68.4221,0.0183444
,,,,,,,,,88,64.4017,0.0204871
,,,,,,,,,102,82.252,0.0441696
,,,,,,,,,117,85.4889,0.0940898
,,,,,,,,,133,99.1789,0.0861443
,,,,,,,,,150,113.36,0.0774738
,,,,,,,,,168,123.538,0.0864574
,,,,,,,,,32,66.3873,0.0510944
,,,,,,,,,41,52.4753,0.0704222
,,,,,,,,,51,112.31,0.0143659
,,,,,,,,,62,99.1017,0.0344989
,,,,,,,,,74,130.497,0.0534166
,,,,,,,,,87,123.922,0.0182401
,,,,,,,,,101,72.5239,0.0203572
,,,,,,,,,116,94.5461,0.0435701
,,,,,,,,,132,121.375,0.0914104
,,,,,,,,,149,148.444,0.083893
,,,,,,,,,167,130.979,0.0756481
,,,,,,,,,186,107.719,0.0841899
,,,,,,,,,50,118.862,0.040237
,,,,,,,,,61,46.468,0.0124592
,,,,,,,,,73,132.136,0.0252276
,,,,,,,,,86,115.851,0.0340444
,,,,,,,,,100,139.722,0.0152726
,,,,,,,,,115,134.324,0.0167293
,,,,,,,,,131,147.487,0.0297582
,,,,,,,,,148,169.459,0.0463127
,,,,,,,,,166,144.699,0.0443014
,,,,,,,,,185,140.69,0.0418905
,,,,,,,,,205,115.884,0.0443841
,,,,,,,,,72,163.657,0.0133529
,,,,,,,,,85,64.8066,0.0291821
,,,,,,,,,99,104.308,0.0416634
,,,,,,,,,114,82.8836,0.0166375
,,,,,,,,,130,26.6785,0.0183811
,,,,,,,,,147,48.9658,0.03542
,,,,,,,,,165,69.272,0.0616493
,,,,,,,,,184,96.226,0.058136
,,,,,,,,,204,87.3891,0.0540534
,,,,,,,,,225,84.7453,0.0582784
,,,,,,,,,98,117.54,0.0111512
,,,,,,,,,113,80.9754,0.0125927
,,,,,,,,,129,105.045,0.00865693
,,,,,,,,,146,166.75,0.0091064
,,,,,,,,,164,146.766,0.0119558
,,,,,,,,,183,126.31,0.0139607
,,,,,,,,,203,98.2469,0.0137722
,,,,,,,,,224,108.826,0.0135301
,,,,,,,,,246,107.701,0.0137802
,,,,,,,,,128,39.79,0.025781
,,,,,,,,,145,24.9737,0.0133526
,,,,,,,,,163,72.4496,0.0144529
,,,,,,,,,182,74.6307,0.0232455
,,,,,,,,,202,56.2637,0.0322506
,,,,,,,,,223,57.8654,0.0312623
,,,,,,,,,245,84.1868,0.0300421
,,,,,,,,,268,111.98,0.0313034
,,,,,,,,,162,25.0747,0.0154737
,,,,,,,,,181,105.569,0.0169709
,,,,,,,,,201,96.6102,0.0305313
,,,,,,,,,222,65.6432,0.0482126
,,,,,,,,,244,45.0331,0.0460368
,,,,,,,,,267,80.875,0.0434388
,,,,,,,,,291,112.967,0.0461261
,,,,,,,,,200,80.5686,0.0105232
,,,,,,,,,221,72.6601,0.0145229
,,,,,,,,,243,44.0899,0.0175917
,,,,,,,,,266,34.5761,0.0172935
,,,,,,,,,290,66.6252,0.0169135
,,,,,,,,,315,98.4905,0.0173061
,,,,,,,,,242,23.0484,0.015834
,,,,,,,,,265,50.2763,0.0195529
,,,,,,,,,289,79.4596,0.0191851
,,,,,,,,,314,61.9002,0.0187186
,,,,,,,,,340,59.2452,0.0192006
,,,,,,,,,288,32.3614,0.0400445
,,,,,,,,,313,60.4606,0.0385319
,,,,,,,,,339,38.8555,0.036695
,,,,,,,,,366,42.7145,0.0385944
,,,,,,,,,338,29.1951,0.0717326
,,,,,,,,,365,29.1001,0.0656175
,,,,,,,,,393,56.2895,0.0719495
,,,,,,,,,392,35.8441,0.0616519
,,,,,,,,,421,68.1434,0.0672092
,,,,,,,,,450,32.5231,0.0618121
