Q	U	V
{$V$}	{[mm$^3$]}	0.00768159
{$d_v$}	{[mm]}	0.244803
{$S_c$}	{[mm$^2$]}	0.283276
{$S_o$}	{[mm$^2$]}	0.173201
{$S_l/S_o$}	[]	0.635533
{$\Psi$}	[]	0.664623
{$\eta$}	[]	0.697747
{med($\theta_e$)}	{[$^\circ$]}	62.6383
{$\Upsilon$}	[]	18
{$\Xi$}	[]	11
