Q	U	V
{$V$}	{[mm$^3$]}	0.00857693
{$d_v$}	{[mm]}	0.253967
{$S_c$}	{[mm$^2$]}	0.301604
{$S_o$}	{[mm$^2$]}	0.197563
{$S_l/S_o$}	[]	0.526622
{$\Psi$}	[]	0.671844
{$\eta$}	[]	0.736917
{med($\theta_e$)}	{[$^\circ$]}	53.6288
{$\Upsilon$}	[]	18
{$\Xi$}	[]	8
