"cellPairingIds","interplanarAngles","angleWeights"
13,62.0254,0.0539091
19,77.0947,0.0346899
34,58.3671,0.0419407
43,68.451,0.0389322
76,79.5642,0.0538001
32,71.1782,0.0261726
41,36.0088,0.0298661
101,66.7421,0.0357547
116,76.8727,0.0542294
50,52.7911,0.022852
73,94.0225,0.0220537
86,54.5126,0.0336348
100,29.7924,0.0239127
99,35.8638,0.0399903
147,69.737,0.0416803
98,68.0555,0.0247769
146,41.8712,0.0300645
183,51.8029,0.0412051
145,92.8228,0.0258547
202,78.2481,0.0382976
223,81.2242,0.0350748
245,104.476,0.0403774
162,44.9061,0.0433557
201,64.8769,0.100367
244,68.8165,0.0775323
267,78.8266,0.109246
266,55.5111,0.0400231
242,56.8759,0.0541191
265,55.7495,0.0525957
288,68.0645,0.105432
339,46.5265,0.122853
365,48.3218,0.115274
392,49.1484,0.0903001
