"cellPairingIds","interplanarAngles","angleWeights"
8,33.9414,0.0483917
13,32.0363,0.0355534
19,71.7324,0.0583302
53,59.1433,0.0415746
25,86.1613,0.0886458
42,73.9876,0.0574468
63,51.2525,0.0549747
32,74.6059,0.0533537
41,40.5848,0.0457863
74,65.8976,0.038983
50,102.192,0.0921006
61,94.6442,0.0720124
115,47.5829,0.0377576
205,78.2582,0.0747246
99,64.909,0.056284
147,42.5916,0.0557995
225,84.8373,0.0606788
113,95.3624,0.0480865
146,67.5451,0.0306643
183,35.7097,0.0393825
224,50.3496,0.0365939
269,66.3671,0.046789
201,30.5199,0.0460132
222,75.3817,0.0382047
316,79.1232,0.0451358
314,30.7413,0.0250469
340,57.175,0.0311456
366,110.032,0.0489091
394,72.4092,0.0448237
422,34.12,0.0373811
450,60.3109,0.0372815
481,69.6619,0.0348597
512,83.8133,0.047919
