"cellPairingIds","interplanarAngles","angleWeights"
41,85.4114,0.00824671
51,73.2658,0.00855116
62,89.5953,0.00820979
101,118.525,0.00898192
116,79.4786,0.00830184
132,84.0629,0.00893201
227,75.4011,0.00652821
72,36.4181,0.0406316
130,36.7647,0.0526234
113,24.4496,0.0493371
146,67.3669,0.0680939
164,48.074,0.042006
163,41.087,0.0511556
202,50.142,0.0495778
245,40.6709,0.0247217
268,54.1871,0.0464739
181,54.5693,0.0682113
201,50.3301,0.0420506
316,35.1071,0.0364003
289,25.7068,0.0613427
314,45.6775,0.0333564
367,48.5885,0.0456847
394,65.6292,0.032248
423,109.047,0.0166544
453,38.994,0.0491872
393,32.8431,0.0857005
452,65.0618,0.0194002
392,23.3213,0.0268789
421,45.5736,0.0547312
451,59.0168,0.0343479
547,93.078,0.0576401
450,23.0834,0.0313003
545,77.0535,0.0189061
614,79.5112,0.0826883
613,68.5139,0.0416286
649,83.1133,0.043599
648,86.0663,0.0188478
685,61.977,0.0192415
722,50.9857,0.0815851
