"cellPairingIds","interplanarAngles","angleWeights"
13,35.4796,0.0308976
19,41.5053,0.0209223
26,39.4056,0.0259173
34,45.5242,0.0292717
43,54.9492,0.0290636
103,117.899,0.0255217
41,37.2931,0.0412219
51,29.771,0.0504101
87,40.308,0.0497254
101,55.5508,0.0639645
73,49.6918,0.0281587
86,25.4396,0.0268184
148,84.8491,0.0248213
85,31.3156,0.0380208
114,31.3168,0.0379797
147,45.6272,0.0459019
146,40.1734,0.0573678
183,120.973,0.0375167
203,57.1583,0.0322069
128,51.1506,0.0418422
182,43.8145,0.0567904
245,49.5702,0.0455546
222,70.4393,0.0348743
267,55.9049,0.0421468
200,70.5165,0.0564827
221,33.7634,0.0566989
341,72.2392,0.0427416
289,30.079,0.03725
367,77.6248,0.0528552
424,92.7823,0.0726385
339,52.1206,0.057353
366,43.6236,0.0797404
394,59.3824,0.0530444
338,87.9307,0.0277246
365,86.7354,0.0374157
452,57.2538,0.0214235
483,61.5935,0.0434968
514,75.2054,0.0365168
450,41.4776,0.0592284
513,50.7983,0.0239636
546,81.0137,0.055425
512,34.6593,0.0546447
579,55.9312,0.0760617
613,44.5254,0.051391
648,32.2167,0.0263204
