facetNormals:0,facetNormals:1,facetNormals:2,FacetCenters:0,FacetCenters:1,FacetCenters:2,FacetIds,relFacetSize,absFacetSize,cellPairingIds,interplanarAngles,angleWeights
0.0590539,0.296619,-0.919527,3.9233,4.07009,6.19746,1,0.0434043,0.00751447,8,28.5199,0.038188
0.496634,0.386781,-0.746631,3.94898,4.134,6.22771,2,0.0340909,0.00590206,13,47.3418,0.0224653
0.493356,0.740973,-0.436545,3.99572,4.14318,6.29361,3,0.0151545,0.00262365,19,65.1316,0.0398347
0.816559,0.482138,-0.223316,4.0061,4.14864,6.32213,4,0.0368075,0.00637239,26,95.5276,0.0541321
-0.173874,-0.911823,-0.208822,3.9111,3.96376,6.26687,5,0.0719036,0.0124485,34,62.0462,0.0422369
-0.582374,0.74026,-0.284075,3.89931,4.14058,6.28215,6,0.0411306,0.00712082,43,94.1723,0.0379893
0.950039,-0.0916487,0.104992,4.02054,4.10868,6.41304,7,0.0337755,0.00584745,53,77.498,0.0618655
-0.915923,0.163148,-0.224275,3.86388,4.06424,6.27633,8,0.107654,0.0186378,64,104.642,0.0238697
0.673473,-0.707783,0.0757004,3.93922,4.00353,6.35899,9,0.0164611,0.00284987,76,101.269,0.0393007
0.656759,0.532465,0.406976,4.01607,4.13919,6.41145,10,0.0359059,0.0062163,89,92.0768,0.0614132
-0.398109,0.838055,0.281762,3.93248,4.14439,6.37257,11,0.104963,0.018172,103,123.61,0.0615326
-0.829384,-0.183591,0.4468,3.87203,4.04139,6.38222,12,0.105665,0.0182934,118,142.867,0.0530663
-0.0774544,-0.779241,0.543768,3.92529,3.99432,6.39623,13,0.0682616,0.0118179,134,128.79,0.0371747
-0.231619,0.5182,0.798231,3.92702,4.10825,6.43506,14,0.0325088,0.00562816,151,169.064,0.0433719
0.120653,-0.295996,0.878753,3.96749,4.06881,6.45257,15,0.0433394,0.00750323,18,27.6656,0.0209819
,,,,,,,,,25,37.1071,0.0353972
,,,,,,,,,33,107.74,0.0462525
,,,,,,,,,42,77.4238,0.0372813
,,,,,,,,,52,67.5572,0.0339324
,,,,,,,,,63,103.888,0.0517834
,,,,,,,,,75,89.749,0.0222019
,,,,,,,,,88,75.5764,0.0349749
,,,,,,,,,102,95.0858,0.0514662
,,,,,,,,,117,150.588,0.05155
,,,,,,,,,133,143.236,0.0454723
,,,,,,,,,150,122.262,0.0332811
,,,,,,,,,168,141.099,0.0381628
,,,,,,,,,32,27.3939,0.0214695
,,,,,,,,,41,135.277,0.025033
,,,,,,,,,51,66.7389,0.0221484
,,,,,,,,,62,68.1082,0.0209217
,,,,,,,,,74,104.22,0.0265688
,,,,,,,,,87,103.404,0.0157808
,,,,,,,,,101,54.451,0.0213134
,,,,,,,,,116,71.7188,0.0264851
,,,,,,,,,132,141.069,0.0265073
,,,,,,,,,149,154.477,0.0248026
,,,,,,,,,167,94.6521,0.0206723
,,,,,,,,,186,125.884,0.0224566
,,,,,,,,,50,125.25,0.0486904
,,,,,,,,,61,93.3016,0.0388492
,,,,,,,,,73,40.8,0.0352264
,,,,,,,,,86,131.614,0.0548586
,,,,,,,,,100,78.4113,0.0227486
,,,,,,,,,115,39.8198,0.0363512
,,,,,,,,,131,89.0261,0.0545026
,,,,,,,,,148,157.767,0.0545967
,,,,,,,,,166,127.11,0.0478265
,,,,,,,,,185,97.076,0.0345249
,,,,,,,,,205,105.303,0.0398073
,,,,,,,,,72,123.337,0.0523282
,,,,,,,,,85,96.5078,0.0459614
,,,,,,,,,99,86.3903,0.0862197
,,,,,,,,,114,56.6571,0.0267893
,,,,,,,,,130,140.078,0.0478949
,,,,,,,,,147,144.789,0.0853437
,,,,,,,,,165,76.169,0.0855746
,,,,,,,,,184,47.7024,0.0700353
,,,,,,,,,204,129.992,0.0447744
,,,,,,,,,225,85.7835,0.0540815
,,,,,,,,,98,133.558,0.0370919
,,,,,,,,,113,40.3134,0.0595205
,,,,,,,,,129,166.566,0.0235123
,,,,,,,,,146,96.4643,0.0383411
,,,,,,,,,164,35.955,0.0591018
,,,,,,,,,183,76.5154,0.0592124
,,,,,,,,,203,137.023,0.0513316
,,,,,,,,,224,72.3767,0.036315
,,,,,,,,,246,125.869,0.0422061
,,,,,,,,,128,171.435,0.0514187
,,,,,,,,,145,40.7663,0.0221345
,,,,,,,,,163,46.704,0.0348081
,,,,,,,,,182,117.19,0.0511059
,,,,,,,,,202,141.796,0.0511886
,,,,,,,,,223,86.5604,0.0451908
,,,,,,,,,245,101.266,0.03313
,,,,,,,,,268,74.8924,0.0379644
,,,,,,,,,162,143.036,0.0285558
,,,,,,,,,181,132.437,0.0538509
,,,,,,,,,201,61.823,0.106292
,,,,,,,,,222,46.7381,0.10665
,,,,,,,,,244,101.26,0.0835472
,,,,,,,,,267,82.7886,0.0499377
,,,,,,,,,291,113.434,0.0617995
,,,,,,,,,200,83.9916,0.0225734
,,,,,,,,,221,152.127,0.0284591
,,,,,,,,,243,114.82,0.0284847
,,,,,,,,,266,54.6485,0.0265256
,,,,,,,,,290,118.796,0.0218555
,,,,,,,,,315,67.051,0.0238598
,,,,,,,,,242,70.7852,0.0535079
,,,,,,,,,265,120.761,0.0535985
,,,,,,,,,289,105.861,0.0470588
,,,,,,,,,314,60.7794,0.034123
,,,,,,,,,340,71.4413,0.039274
,,,,,,,,,288,71.0507,0.105313
,,,,,,,,,313,120.487,0.0827245
,,,,,,,,,339,37.7052,0.0496426
,,,,,,,,,366,93.0659,0.0613482
,,,,,,,,,338,60.5236,0.0829413
,,,,,,,,,365,61.1497,0.0497206
,,,,,,,,,393,67.2616,0.0614674
,,,,,,,,,392,87.0418,0.0440428
,,,,,,,,,421,38.3478,0.0530178
,,,,,,,,,450,55.3969,0.0371508
