facetNormals:0,facetNormals:1,facetNormals:2,FacetCenters:0,FacetCenters:1,FacetCenters:2,FacetIds,relFacetSize,absFacetSize,cellPairingIds,interplanarAngles,angleWeights
-0.0676809,0.00127916,-0.979797,4.12058,6.21912,9.94262,1,0.0197576,0.00201736,8,39.6677,0.0125357
0.193126,-0.576352,-0.772625,4.13215,6.19117,9.95779,2,0.00918009,0.000937339,13,43.8073,0.0302298
0.585413,0.186048,-0.730789,4.15488,6.22069,9.83125,3,0.0643233,0.00656777,19,52.7672,0.0215561
-0.7117,0.413723,-0.55114,4.03324,6.24217,9.84023,4,0.0237149,0.00242142,26,40.1566,0.0333889
-0.229345,0.5908,-0.715837,4.08786,6.24481,9.80565,5,0.107681,0.0109948,34,67.2177,0.0233238
-0.246236,-0.800959,-0.334206,4.09275,6.18283,9.89648,6,0.0284608,0.00290601,43,75.5496,0.0319944
0.586142,0.721128,-0.282501,4.15659,6.25715,9.83634,7,0.0840507,0.00858206,53,77.0125,0.0191105
-0.924633,0.320832,-0.159083,4.01608,6.23992,9.86065,8,0.0185045,0.00188941,64,80.9334,0.0194129
0.137052,0.9668,-0.164623,4.08406,6.23707,9.85266,9,0.0190801,0.00194819,76,81.0926,0.0269807
-0.387453,0.898657,-0.12519,4.06907,6.28366,9.85299,10,0.0425287,0.00434242,89,102.631,0.0334208
0.927285,0.274273,0.15083,4.1878,6.21121,9.88081,11,0.108348,0.011063,103,126.811,0.0246877
0.795261,-0.214985,0.534637,4.17987,6.1673,9.92197,12,0.0328963,0.0033589,118,128.08,0.031422
0.434111,0.628532,0.554333,4.13362,6.26818,9.93653,13,0.0767092,0.00783244,134,118.001,0.0290194
-0.372796,0.768593,0.490273,4.0707,6.27822,9.92435,14,0.054627,0.00557773,151,121.033,0.0290435
-0.762344,0.1683,0.544858,4.03743,6.23129,9.93127,15,0.0547982,0.00559521,169,146.698,0.0298086
-0.332033,-0.361437,0.831058,4.08049,6.19823,9.95359,16,0.0606746,0.00619522,188,164.984,0.0252433
0.211927,-0.210471,0.939871,4.13647,6.19605,9.96044,17,0.0349463,0.00356821,18,52.5666,0.0160671
,,,,,,,,,25,87.0615,0.0132364
,,,,,,,,,33,79.6864,0.0169179
,,,,,,,,,42,40.707,0.0138824
,,,,,,,,,52,95.0564,0.0165523
,,,,,,,,,63,104.288,0.012272
,,,,,,,,,75,114.491,0.012396
,,,,,,,,,88,120.76,0.0151006
,,,,,,,,,102,95.6984,0.0169261
,,,,,,,,,117,98.0728,0.0143544
,,,,,,,,,133,139.612,0.0163978
,,,,,,,,,150,157.381,0.0157187
,,,,,,,,,168,135.296,0.0157257
,,,,,,,,,187,121.652,0.0159473
,,,,,,,,,207,125.569,0.0145405
,,,,,,,,,32,86.1744,0.0346536
,,,,,,,,,41,56.8743,0.0805375
,,,,,,,,,51,93.2571,0.0394614
,,,,,,,,,62,42.4899,0.0728755
,,,,,,,,,74,112.703,0.0287408
,,,,,,,,,87,66.2717,0.0294303
,,,,,,,,,101,88.0614,0.0512032
,,,,,,,,,116,58.8253,0.0807234
,,,,,,,,,132,87.8697,0.0435303
,,,,,,,,,149,92.1644,0.0699723
,,,,,,,,,167,117.456,0.0590799
,,,,,,,,,186,153.468,0.0591799
,,,,,,,,,206,160.574,0.0624457
,,,,,,,,,227,129.744,0.045288
,,,,,,,,,50,32.12,0.0388694
,,,,,,,,,61,88.2005,0.025872
,,,,,,,,,73,87.803,0.0369924
,,,,,,,,,86,26.5824,0.0207882
,,,,,,,,,100,66.3726,0.0211465
,,,,,,,,,115,42.8521,0.0304501
,,,,,,,,,131,130.494,0.0389127
,,,,,,,,,148,167.425,0.027561
,,,,,,,,,166,112.276,0.0362293
,,,,,,,,,185,71.284,0.0330723
,,,,,,,,,205,70.6891,0.0331036
,,,,,,,,,226,112.847,0.0341012
,,,,,,,,,248,140.688,0.0282554
,,,,,,,,,72,101.876,0.045022
,,,,,,,,,85,57.8728,0.0944097
,,,,,,,,,99,57.0598,0.0315818
,,,,,,,,,114,46.0056,0.0324163
,,,,,,,,,130,41.2292,0.0609752
,,,,,,,,,147,99.7586,0.108014
,,,,,,,,,165,137.487,0.0503966
,,,,,,,,,184,97.9649,0.089594
,,,,,,,,,204,78.4446,0.0724831
,,,,,,,,,225,97.3066,0.0726336
,,,,,,,,,247,142.522,0.0776155
,,,,,,,,,270,153.766,0.0527676
,,,,,,,,,98,135.737,0.0425228
,,,,,,,,,113,88.4709,0.0224273
,,,,,,,,,129,147.459,0.022845
,,,,,,,,,146,130.882,0.0341008
,,,,,,,,,164,124.369,0.0450801
,,,,,,,,,183,103.199,0.0305182
,,,,,,,,,203,159.128,0.0415177
,,,,,,,,,224,140.708,0.0374238
,,,,,,,,,246,98.6505,0.0374639
,,,,,,,,,269,83.8348,0.0387466
,,,,,,,,,293,102.84,0.0313719
,,,,,,,,,128,106.013,0.0303313
,,,,,,,,,145,31.0472,0.0311002
,,,,,,,,,163,61.5636,0.0564794
,,,,,,,,,182,42.6914,0.0946653
,,,,,,,,,202,80.3397,0.0472857
,,,,,,,,,223,53.0462,0.0802123
,,,,,,,,,245,78.1015,0.0662174
,,,,,,,,,268,121.228,0.066343
,,,,,,,,,292,137.398,0.0704748
,,,,,,,,,317,107.816,0.049367
,,,,,,,,,162,77.6716,0.0187879
,,,,,,,,,181,47.0555,0.0257883
,,,,,,,,,201,144.843,0.0316103
,,,,,,,,,222,155.963,0.0236856
,,,,,,,,,244,107.918,0.0298164
,,,,,,,,,267,58.2922,0.0276446
,,,,,,,,,291,44.595,0.0276664
,,,,,,,,,316,86.4751,0.0283598
,,,,,,,,,342,114.983,0.0241966
,,,,,,,,,200,31.1251,0.0263421
,,,,,,,,,221,67.7207,0.0324464
,,,,,,,,,243,101.078,0.0241519
,,,,,,,,,266,51.961,0.0305591
,,,,,,,,,290,51.1898,0.0282819
,,,,,,,,,315,91.9126,0.0283048
,,,,,,,,,341,123.805,0.029031
,,,,,,,,,368,109.698,0.0246834
,,,,,,,,,242,97.8384,0.0610817
,,,,,,,,,265,125.908,0.0370974
,,,,,,,,,289,69.4252,0.0547199
,,,,,,,,,314,37.2239,0.0478246
,,,,,,,,,340,66.2423,0.0478901
,,,,,,,,,367,108.377,0.0500064
,,,,,,,,,395,113.561,0.0383664
,,,,,,,,,288,37.8346,0.0504693
,,,,,,,,,313,44.5255,0.0898241
,,,,,,,,,339,93.6244,0.0726337
,,,,,,,,,366,128.386,0.0727848
,,,,,,,,,394,107.349,0.0777882
,,,,,,,,,423,73.1016,0.0528474
,,,,,,,,,338,56.8789,0.046046
,,,,,,,,,365,101.908,0.041064
,,,,,,,,,393,112.059,0.0411122
,,,,,,,,,422,74.2077,0.0426622
,,,,,,,,,452,42.3066,0.0338903
,,,,,,,,,392,50.3614,0.0638117
,,,,,,,,,421,85.0922,0.0639284
,,,,,,,,,451,84.3699,0.0677562
,,,,,,,,,482,58.9047,0.0480174
,,,,,,,,,450,43.4545,0.0547125
,,,,,,,,,481,74.5383,0.0574922
,,,,,,,,,513,76.9079,0.0426246
,,,,,,,,,512,45.4072,0.0575869
,,,,,,,,,545,70.3894,0.0426766
,,,,,,,,,578,34.2482,0.0443491
