"cellPairingIds","interplanarAngles","angleWeights"
8,86.4885,0.0309793
13,115.065,0.0369559
19,56.6061,0.074946
53,45.2335,0.0415517
18,34.2419,0.0253667
63,117.877,0.0274507
75,56.3562,0.0356914
32,151.385,0.0488161
51,29.9024,0.0382903
87,52.1696,0.0438643
61,153.101,0.0806454
86,44.0067,0.0571683
166,77.6544,0.0216338
129,38.7755,0.0679694
203,103.399,0.0192845
162,119.038,0.050493
244,59.2089,0.0175601
266,78.6445,0.0206031
