"cellPairingIds","interplanarAngles","angleWeights"
8,42.816,0.0251224
19,75.5465,0.0250801
53,75.5747,0.0475155
18,81.4138,0.0364975
25,113.651,0.0234631
42,58.2411,0.0215737
52,73.7879,0.0314368
63,100.416,0.0420279
32,63.6336,0.0364083
51,63.4485,0.0320525
101,61.8808,0.0465889
86,80.6732,0.0419096
100,75.0493,0.0320391
115,104.775,0.0272588
98,40.2369,0.0280824
146,47.1359,0.0247415
128,116.267,0.0766252
163,56.1253,0.0386473
162,127.078,0.0807405
181,148.833,0.0559945
200,33.6906,0.039667
