Q	U	V
{$V$}	{[mm$^3$]}	0.00586361
{$d_v$}	{[mm]}	0.223729
{$S_c$}	{[mm$^2$]}	0.32535
{$S_o$}	{[mm$^2$]}	0.167432
{$S_l/S_o$}	[]	0.943177
{$\Psi$}	[]	0.48333
{$\eta$}	[]	0.511797
{med($\theta_e$)}	{[$^\circ$]}	65.3822
{$\Upsilon$}	[]	19
{$\Xi$}	[]	4
