Q	U	V
{$V$}	{[mm$^3$]}	0.00227871
{$d_v$}	{[mm]}	0.163266
{$S_c$}	{[mm$^2$]}	0.136402
{$S_o$}	{[mm$^2$]}	0.0770153
{$S_l/S_o$}	[]	0.771103
{$\Psi$}	[]	0.613936
{$\eta$}	[]	0.683609
{med($\theta_e$)}	{[$^\circ$]}	48.44545
{$\Upsilon$}	[]	17
{$\Xi$}	[]	7
