Q	U	V
{$V$}	{[mm$^3$]}	0.00898897
{$d_v$}	{[mm]}	0.257971
{$S_c$}	{[mm$^2$]}	0.321105
{$S_o$}	{[mm$^2$]}	0.211016
{$S_l/S_o$}	[]	0.521709
{$\Psi$}	[]	0.651094
{$\eta$}	[]	0.690076
{med($\theta_e$)}	{[$^\circ$]}	46.22145
{$\Upsilon$}	[]	21
{$\Xi$}	[]	14
