facetNormals:0,facetNormals:1,facetNormals:2,FacetCenters:0,FacetCenters:1,FacetCenters:2,FacetIds,relFacetSize,absFacetSize,cellPairingIds,interplanarAngles,angleWeights
-0.0645599,-0.308488,-0.928347,3.35742,4.08111,7.66801,1,0.0176708,0.00512602,8,44.7924,0.0245751
-0.646658,0.0597575,-0.679085,3.33737,4.1412,7.67924,2,0.0403349,0.0117006,13,64.0956,0.0325634
0.475429,0.501498,-0.631645,3.37052,4.20231,7.72831,3,0.207123,0.0600831,19,65.5634,0.0196963
0.865361,-0.184505,-0.428335,3.4483,4.0899,7.72343,4,0.0222464,0.00645335,26,103.885,0.0270116
-0.393672,0.833781,-0.0159835,3.33951,4.25324,7.78145,5,0.057301,0.0166222,34,64.7008,0.0214912
0.538601,-0.782514,-0.217208,3.44498,4.04473,7.71408,6,0.0274194,0.00795394,43,110.903,0.0160988
0.561349,0.805789,0.064004,3.36777,4.25571,7.79889,7,0.0147837,0.00428854,53,66.417,0.0259453
-0.213375,-0.917897,-0.0797233,3.36635,4.08577,7.73021,8,0.0487936,0.0141543,64,89.5057,0.0250975
-0.868692,-0.375073,0.176279,3.32768,4.11752,7.74088,9,0.0432928,0.0125586,76,122.596,0.0239434
-0.741437,0.398266,0.466718,3.31461,4.2486,7.82685,10,0.0371201,0.010768,89,104.832,0.0244674
0.514905,-0.685659,0.454375,3.4435,4.0963,7.81701,11,0.0397604,0.0115339,103,114.663,0.0257575
-0.101704,-0.701876,0.670349,3.40412,4.11434,7.82277,12,0.0474913,0.0137765,118,149.192,0.0242874
0.521349,0.416759,0.707444,3.44057,4.19724,7.84996,13,0.0388253,0.0112626,134,161.94,0.0278559
-0.135257,0.0794133,0.925188,3.35859,4.19398,7.86421,14,0.0657579,0.0190754,18,80.0852,0.0675209
,,,,,,,,,25,107.629,0.0286765
,,,,,,,,,33,68.6652,0.0473439
,,,,,,,,,42,105.685,0.0326461
,,,,,,,,,52,112.798,0.021637
,,,,,,,,,63,81.1139,0.0441629
,,,,,,,,,75,62.3549,0.0417615
,,,,,,,,,88,78.1098,0.0386608
,,,,,,,,,102,138.46,0.0400456
,,,,,,,,,117,118.065,0.0436215
,,,,,,,,,133,150.15,0.0395657
,,,,,,,,,150,127.443,0.0500004
,,,,,,,,,32,50.1736,0.0401775
,,,,,,,,,41,73.7861,0.0897676
,,,,,,,,,51,89.9475,0.0484277
,,,,,,,,,62,46.8135,0.0275976
,,,,,,,,,74,125.281,0.078981
,,,,,,,,,87,142.245,0.0716163
,,,,,,,,,101,119.785,0.0629571
,,,,,,,,,116,115.146,0.066714
,,,,,,,,,132,154.373,0.0772661
,,,,,,,,,149,89.3698,0.0653926
,,,,,,,,,167,133.872,0.0998235
,,,,,,,,,50,122.543,0.0320499
,,,,,,,,,61,42.7447,0.0245635
,,,,,,,,,73,71.3306,0.0177631
,,,,,,,,,86,88.8377,0.0305597
,,,,,,,,,100,143.242,0.0293903
,,,,,,,,,115,165.28,0.02782
,,,,,,,,,131,66.6916,0.02853
,,,,,,,,,148,104.836,0.0302995
,,,,,,,,,166,85.727,0.0282855
,,,,,,,,,185,124.915,0.0332456
,,,,,,,,,72,163.359,0.0370904
,,,,,,,,,85,60.2862,0.0235035
,,,,,,,,,99,141.237,0.0527062
,,,,,,,,,114,88.2934,0.0493215
,,,,,,,,,130,46.0011,0.0450539
,,,,,,,,,147,150.862,0.0469458
,,,,,,,,,165,128.148,0.051937
,,,,,,,,,184,81.6057,0.0462876
,,,,,,,,,204,83.0526,0.0612389
,,,,,,,,,98,110.899,0.01921
,,,,,,,,,113,47.6652,0.0351092
,,,,,,,,,129,103.105,0.0335744
,,,,,,,,,146,150.024,0.0315407
,,,,,,,,,164,40.8628,0.0324563
,,,,,,,,,183,68.4797,0.0347662
,,,,,,,,,203,102.119,0.0321404
,,,,,,,,,224,111.554,0.0387013
,,,,,,,,,128,158.257,0.0226921
,,,,,,,,,145,145.284,0.0220409
,,,,,,,,,163,93.9605,0.0211458
,,,,,,,,,182,104.206,0.0215535
,,,,,,,,,202,127.133,0.0225483
,,,,,,,,,223,45.2588,0.0214137
,,,,,,,,,245,87.0654,0.0241402
,,,,,,,,,162,55.4996,0.0458789
,,,,,,,,,181,105.588,0.0421638
,,,,,,,,,201,58.2255,0.0438163
,,,,,,,,,222,48.4204,0.0481336
,,,,,,,,,244,126.736,0.0432424
,,,,,,,,,267,97.6272,0.0560196
,,,,,,,,,200,51.472,0.0399695
,,,,,,,,,221,96.7651,0.0414515
,,,,,,,,,243,59.9903,0.0452949
,,,,,,,,,266,121.169,0.0409375
,,,,,,,,,290,73.8779,0.0522113
,,,,,,,,,242,118.302,0.0383949
,,,,,,,,,265,83.3513,0.04167
,,,,,,,,,289,83.2751,0.0379535
,,,,,,,,,314,51.3758,0.0474531
,,,,,,,,,288,39.2395,0.0432833
,,,,,,,,,313,71.202,0.0392873
,,,,,,,,,339,71.0123,0.0495565
,,,,,,,,,338,82.2071,0.0427232
,,,,,,,,,365,50.8458,0.0551514
,,,,,,,,,392,47.4577,0.0488237
