facetNormals:0,facetNormals:1,facetNormals:2,FacetCenters:0,FacetCenters:1,FacetCenters:2,FacetIds,relFacetSize,absFacetSize,cellPairingIds,interplanarAngles,angleWeights
-0.121236,0.171478,-0.947133,4.89219,6.35491,5.4525,1,0.0359713,0.00278514,8,56.2069,0.0246211
0.442797,-0.502684,-0.699446,4.89831,6.35217,5.45484,2,0.0187157,0.0014491,13,56.4875,0.049659
0.609702,0.5203,-0.526031,4.94887,6.39593,5.51502,3,0.0801624,0.00620672,19,59.2627,0.0270366
-0.623248,-0.535839,-0.528922,4.86647,6.33261,5.50172,4,0.0216573,0.00167686,26,67.3646,0.0349021
-0.0487645,-0.815779,-0.524197,4.88759,6.30195,5.47842,5,0.0338947,0.00262436,34,67.7688,0.0140375
-0.73244,0.62453,-0.172112,4.86369,6.36532,5.53896,6,0.00872026,0.000675182,43,92.3329,0.0341248
-0.846492,-0.462787,0.064882,4.84741,6.3221,5.51252,7,0.0324586,0.00251317,53,104.621,0.0566179
0.91895,-0.32547,0.076271,4.96732,6.36592,5.58306,8,0.132898,0.0102899,64,112.15,0.0301975
-0.058227,-0.961974,0.214595,4.8952,6.31289,5.59428,9,0.0260208,0.00201471,76,110.064,0.0559035
0.406687,-0.878128,0.132176,4.92591,6.3167,5.55713,10,0.125376,0.00970751,89,110.893,0.0488138
-0.510951,-0.781318,0.279962,4.86592,6.32707,5.59433,11,0.0759182,0.00587811,103,136.449,0.0369348
-0.465316,-0.521665,0.698977,4.87373,6.34692,5.63858,12,0.0379513,0.00293845,118,142.832,0.0256993
-0.0163173,-0.718282,0.678816,4.90148,6.33678,5.64126,13,0.0199907,0.00154782,134,162.395,0.0520595
0.358504,-0.306203,0.834139,4.92763,6.39742,5.68532,14,0.0941829,0.00729229,18,66.0882,0.0303464
,,,,,,,,,25,67.4289,0.0200794
,,,,,,,,,33,36.5765,0.0241155
,,,,,,,,,42,123.152,0.0118972
,,,,,,,,,52,101.554,0.0237418
,,,,,,,,,63,56.9015,0.0328108
,,,,,,,,,75,71.2299,0.0217718
,,,,,,,,,88,55.9938,0.0325696
,,,,,,,,,102,91.7794,0.0300286
,,,,,,,,,117,116.869,0.0250688
,,,,,,,,,133,97.2586,0.0193322
,,,,,,,,,150,106.965,0.0312263
,,,,,,,,,32,113.961,0.0341015
,,,,,,,,,41,101.052,0.0476442
,,,,,,,,,51,91.9006,0.0157294
,,,,,,,,,62,148.573,0.0462073
,,,,,,,,,74,68.0245,0.100004
,,,,,,,,,87,133.276,0.0392885
,,,,,,,,,101,107.3,0.0977964
,,,,,,,,,116,157.829,0.0779826
,,,,,,,,,132,166.828,0.0515142
,,,,,,,,,149,141.415,0.032001
,,,,,,,,,167,114.403,0.0866089
,,,,,,,,,50,38.295,0.0264281
,,,,,,,,,61,77.13,0.012434
,,,,,,,,,73,38.3423,0.02598
,,,,,,,,,86,117.321,0.0372451
,,,,,,,,,100,62.991,0.0236394
,,,,,,,,,115,81.1325,0.0369346
,,,,,,,,,131,51.8054,0.0337007
,,,,,,,,,148,78.0639,0.0275773
,,,,,,,,,166,87.8637,0.0207906
,,,,,,,,,185,122.309,0.0352166
,,,,,,,,,72,113.828,0.0138717
,,,,,,,,,85,65.802,0.0331611
,,,,,,,,,99,79.0269,0.0540136
,,,,,,,,,114,45.2305,0.0294404
,,,,,,,,,130,48.5903,0.053363
,,,,,,,,,147,56.9881,0.0468656
,,,,,,,,,165,85.1077,0.0358085
,,,,,,,,,184,76.0764,0.0251489
,,,,,,,,,204,102.727,0.0498495
,,,,,,,,,98,70.2292,0.0137472
,,,,,,,,,113,158.472,0.0163666
,,,,,,,,,129,128.052,0.0130628
,,,,,,,,,146,155.497,0.0163064
,,,,,,,,,164,99.781,0.0156436
,,,,,,,,,183,96.2529,0.0141819
,,,,,,,,,203,124.935,0.0121434
,,,,,,,,,224,129.614,0.0159626
,,,,,,,,,128,131.161,0.0521743
,,,,,,,,,145,57.8228,0.0288853
,,,,,,,,,163,85.7064,0.051567
,,,,,,,,,182,30.4671,0.0454746
,,,,,,,,,202,44.5938,0.0349907
,,,,,,,,,223,65.899,0.0247427
,,,,,,,,,245,96.6721,0.0482787
,,,,,,,,,162,73.3922,0.0435205
,,,,,,,,,181,45.4853,0.129028
,,,,,,,,,201,101.738,0.096634
,,,,,,,,,222,102.214,0.0590422
,,,,,,,,,244,73.7444,0.0347537
,,,,,,,,,267,58.2722,0.11024
,,,,,,,,,200,28.2581,0.0430972
,,,,,,,,,221,29.0247,0.0387575
,,,,,,,,,243,45.9254,0.0308736
,,,,,,,,,266,30.8777,0.0226106
,,,,,,,,,290,61.4117,0.040776
,,,,,,,,,242,57.2264,0.0945713
,,,,,,,,,265,68.0291,0.0582657
,,,,,,,,,289,42.3192,0.0344832
,,,,,,,,,314,55.8806,0.107564
,,,,,,,,,288,29.2006,0.0506052
,,,,,,,,,313,37.956,0.0316479
,,,,,,,,,339,71.9345,0.0840699
,,,,,,,,,338,28.7355,0.0261873
,,,,,,,,,365,52.5494,0.0541021
,,,,,,,,,392,34.5202,0.032981
