Q	U	V
{$V$}	{[mm$^3$]}	0.00391739
{$d_v$}	{[mm]}	0.195584
{$S_c$}	{[mm$^2$]}	0.189312
{$S_o$}	{[mm$^2$]}	0.123292
{$S_l/S_o$}	[]	0.535477
{$\Psi$}	[]	0.6348
{$\eta$}	[]	0.662642
{med($\theta_e$)}	{[$^\circ$]}	89.6597
{$\Upsilon$}	[]	17
{$\Xi$}	[]	8
