"cellPairingIds","interplanarAngles","angleWeights"
50,52.6605,0.0675606
61,84.3538,0.0493131
100,50.1878,0.0535934
115,53.7849,0.0929665
131,60.2725,0.0241036
72,96.3962,0.040307
85,38.8861,0.0463871
114,47.7188,0.043122
98,112.549,0.0369894
113,108.848,0.02763
146,86.419,0.0481589
183,74.5303,0.0467488
246,141.431,0.0289372
128,40.26,0.0303576
145,62.1413,0.0393465
223,45.8984,0.055638
244,51.1252,0.0368581
291,42.6117,0.0247136
221,28.2795,0.0200497
266,51.2626,0.0510057
242,60.2744,0.0238245
265,44.5251,0.0842537
288,92.0445,0.0234742
313,55.781,0.0235659
366,77.2273,0.0179319
394,41.9051,0.0197434
393,105.971,0.0389683
422,85.656,0.0486731
421,33.0777,0.0392216
512,40.8723,0.0296631
