facetNormals:0,facetNormals:1,facetNormals:2,FacetCenters:0,FacetCenters:1,FacetCenters:2,FacetIds,relFacetSize,absFacetSize,cellPairingIds,interplanarAngles,angleWeights
0.0651744,0.00947672,-0.963198,3.78039,3.70181,8.21726,1,0.0414385,0.0139149,8,40.1354,0.0525751
0.125012,-0.591913,-0.715209,3.76537,3.64771,8.23965,2,0.0718974,0.0241428,13,42.5635,0.0464297
0.482756,0.500868,-0.681173,3.7969,3.77178,8.24959,3,0.0527878,0.0177259,19,69.2627,0.0498439
-0.723007,-0.492485,-0.394329,3.6768,3.64051,8.26082,4,0.0625267,0.0209962,26,57.1135,0.0610077
-0.603384,0.449121,-0.540515,3.74383,3.76633,8.26859,5,0.115599,0.0388175,34,54.7622,0.0419751
0.796779,-0.195228,-0.505166,3.80856,3.72303,8.25514,6,0.0425257,0.0142799,43,72.904,0.0246671
0.635907,-0.705368,-0.25355,3.77045,3.64287,8.27538,7,0.01756,0.00589657,53,81.2062,0.0505191
0.134106,0.943769,-0.129044,3.77529,3.83942,8.34046,8,0.0646964,0.0217247,64,96.4121,0.0231426
0.778978,-0.570654,0.156599,3.81395,3.72913,8.34927,9,0.0160543,0.00539096,76,100.802,0.049807
0.881067,0.0463505,0.231423,3.82373,3.78968,8.38684,10,0.0624107,0.0209572,89,106.222,0.0598707
-0.82443,0.297852,0.198838,3.69407,3.75656,8.32829,11,0.107838,0.0362114,103,96.0285,0.0500747
0.580088,0.75954,0.14854,3.79905,3.81326,8.33957,12,0.0632584,0.0212419,118,120.962,0.0215976
-0.0369019,0.837554,0.512433,3.73391,3.80059,8.372,13,0.0146048,0.00490423,134,143.078,0.0373021
0.396456,0.352963,0.798885,3.75873,3.75179,8.40744,14,0.0339165,0.011389,18,74.0216,0.0608782
,,,,,,,,,25,57.4863,0.0668855
,,,,,,,,,33,87.0066,0.0886552
,,,,,,,,,42,50.3011,0.0534418
,,,,,,,,,52,42.5485,0.0282262
,,,,,,,,,63,119.928,0.0681071
,,,,,,,,,75,69.3509,0.0262476
,,,,,,,,,88,95.5615,0.0668191
,,,,,,,,,102,120.045,0.0862742
,,,,,,,,,117,122.237,0.0673018
,,,,,,,,,133,160.358,0.024278
,,,,,,,,,150,144.418,0.0460905
,,,,,,,,,32,110.495,0.057246
,,,,,,,,,41,70.4448,0.0724785
,,,,,,,,,51,47.7253,0.0471043
,,,,,,,,,62,82.4102,0.0263535
,,,,,,,,,74,48.1098,0.0581385
,,,,,,,,,87,90.9889,0.0246207
,,,,,,,,,101,70.8777,0.0571973
,,,,,,,,,116,116.045,0.0708793
,,,,,,,,,132,53.5635,0.0575507
,,,,,,,,,149,86.846,0.0228795
,,,,,,,,,167,100.863,0.0412985
,,,,,,,,,50,61.1983,0.0811564
,,,,,,,,,61,107.678,0.0506222
,,,,,,,,,73,90.7533,0.0274195
,,,,,,,,,86,123.604,0.0635931
,,,,,,,,,100,111.492,0.0255487
,,,,,,,,,115,149.11,0.0624687
,,,,,,,,,131,64.5256,0.0791567
,,,,,,,,,148,156.644,0.0628904
,,,,,,,,,166,128.573,0.0236788
,,,,,,,,,185,147.414,0.043978
,,,,,,,,,72,109.331,0.0621778
,,,,,,,,,85,128.232,0.0304886
,,,,,,,,,99,62.4071,0.082962
,,,,,,,,,114,153.508,0.0281931
,,,,,,,,,130,138.821,0.0810586
,,,,,,,,,147,51.0181,0.111583
,,,,,,,,,165,95.7129,0.0817702
,,,,,,,,,184,82.3312,0.0259332
,,,,,,,,,204,125.231,0.0524456
,,,,,,,,,98,35.3428,0.0248562
,,,,,,,,,113,90.7548,0.0513189
,,,,,,,,,129,46.1448,0.023309
,,,,,,,,,146,49.0396,0.0505841
,,,,,,,,,164,160.34,0.0609972
,,,,,,,,,183,75.1456,0.0508603
,,,,,,,,,203,118.506,0.0217425
,,,,,,,,,224,99.7563,0.0377363
,,,,,,,,,128,125.397,0.0276226
,,,,,,,,,145,26.816,0.0167734
,,,,,,,,,163,58.4671,0.0274084
,,,,,,,,,182,152.65,0.030202
,,,,,,,,,202,102.424,0.0274892
,,,,,,,,,223,140.399,0.0159467
,,,,,,,,,245,102.211,0.0231396
,,,,,,,,,162,118.867,0.025725
,,,,,,,,,181,81.3451,0.063533
,,,,,,,,,201,80.3538,0.0808734
,,,,,,,,,222,33.5426,0.0639693
,,,,,,,,,244,40.4381,0.0238301
,,,,,,,,,267,72.1256,0.0445028
,,,,,,,,,200,38.7258,0.025539
,,,,,,,,,221,152.655,0.0279479
,,,,,,,,,243,87.4739,0.0256092
,,,,,,,,,266,116.338,0.0152953
,,,,,,,,,290,75.6523,0.021793
,,,,,,,,,242,144.39,0.0790637
,,,,,,,,,265,48.8367,0.0628317
,,,,,,,,,289,81.9893,0.0236705
,,,,,,,,,314,51.0027,0.0439492
,,,,,,,,,288,104.827,0.0797405
,,,,,,,,,313,64.3879,0.0257255
,,,,,,,,,339,94.1819,0.0516031
,,,,,,,,,338,43.3671,0.0237308
,,,,,,,,,365,48.3324,0.0441576
,,,,,,,,,392,42.9004,0.0204176
