"cellPairingIds","interplanarAngles","angleWeights"
13,105.649,0.0234674
34,128.639,0.020744
53,132.069,0.0147154
76,50.7919,0.019625
51,51.6983,0.0894664
74,69.3823,0.0323344
113,87.0467,0.0273813
146,128.81,0.0512283
183,89.4827,0.0320922
181,134.063,0.0254648
222,129.163,0.0196427
265,43.0926,0.0294909
