facetNormals:0,facetNormals:1,facetNormals:2,FacetCenters:0,FacetCenters:1,FacetCenters:2,FacetIds,relFacetSize,absFacetSize,cellPairingIds,interplanarAngles,angleWeights
-0.0119658,-0.664717,-0.687158,6.631,4.66681,8.23165,1,0.0372822,0.00695698,8,46.4577,0.0408447
-0.358251,-0.0239652,-0.89437,6.61624,4.74592,8.25145,2,0.04516,0.00842701,13,69.2828,0.036571
-0.124292,0.414272,-0.882195,6.65355,4.81331,8.29933,3,0.0358865,0.00669655,19,98.8455,0.0559718
0.131002,0.768545,-0.542506,6.66448,4.791,8.28966,4,0.112236,0.0209435,26,73.7847,0.0340568
-0.854151,0.105556,-0.467856,6.55878,4.75527,8.29446,5,0.0313451,0.0058491,34,89.5776,0.0421758
0.768885,0.348722,-0.360138,6.72703,4.78402,8.29708,6,0.0485483,0.00905928,43,96.156,0.0334809
-0.69996,0.560622,-0.384531,6.57185,4.78797,8.32245,7,0.0303831,0.00566959,53,56.7776,0.0366416
-0.816616,-0.426853,-0.315321,6.55311,4.69665,8.29654,8,0.0360227,0.00672196,64,49.203,0.0390129
0.71209,-0.529475,-0.376587,6.72388,4.73068,8.29194,9,0.0409121,0.00763433,76,103.821,0.0225276
-0.950319,0.227162,0.1242,6.57294,4.77142,8.33075,10,0.0161401,0.00301179,89,88.6923,0.0247496
-0.947409,-0.191643,0.170712,6.53834,4.69988,8.31237,11,0.018523,0.00345645,103,111.848,0.049356
0.884863,0.247561,0.236389,6.72019,4.77623,8.33223,12,0.0729956,0.0136212,118,95.2395,0.0498519
0.706801,-0.391149,0.485845,6.7078,4.77977,8.42719,13,0.0752084,0.0140341,134,143.32,0.0566141
-0.487075,0.75375,0.357202,6.61352,4.81999,8.40613,14,0.117586,0.021942,151,147.848,0.0276638
0.326482,0.275023,0.872003,6.68225,4.82036,8.40655,15,0.0219905,0.00410349,169,113.357,0.0276888
-0.41887,-0.291469,0.823833,6.60516,4.75136,8.39089,16,0.0220221,0.0041094,18,29.5653,0.0399927
,,,,,,,,,25,62.6991,0.0644054
,,,,,,,,,33,40.1229,0.0370052
,,,,,,,,,42,87.5195,0.0467929
,,,,,,,,,52,51.8236,0.0363263
,,,,,,,,,63,51.4607,0.0400772
,,,,,,,,,75,84.1686,0.0429312
,,,,,,,,,88,76.3553,0.0237809
,,,,,,,,,102,78.3315,0.0262707
,,,,,,,,,117,125.76,0.055799
,,,,,,,,,133,138.305,0.0564336
,,,,,,,,,150,100.087,0.0652574
,,,,,,,,,168,164.915,0.029578
,,,,,,,,,187,128.372,0.0296066
,,,,,,,,,32,33.219,0.0543841
,,,,,,,,,41,54.2272,0.0334624
,,,,,,,,,51,66.0135,0.041268
,,,,,,,,,62,46.6189,0.0329063
,,,,,,,,,74,77.7615,0.0359545
,,,,,,,,,87,88.5256,0.0382349
,,,,,,,,,101,83.9107,0.022266
,,,,,,,,,116,96.6834,0.0244342
,,,,,,,,,132,103.396,0.0481173
,,,,,,,,,149,137.103,0.0485885
,,,,,,,,,167,86.5158,0.0549904
,,,,,,,,,186,136.848,0.0272703
,,,,,,,,,206,146.664,0.0272946
,,,,,,,,,50,76.1299,0.0490043
,,,,,,,,,61,49.6795,0.0677785
,,,,,,,,,73,53.7683,0.0478208
,,,,,,,,,86,106.581,0.0545404
,,,,,,,,,100,96.8586,0.0599656
,,,,,,,,,115,91.0589,0.0282217
,,,,,,,,,131,112.982,0.0317981
,,,,,,,,,148,78.6116,0.0884593
,,,,,,,,,166,121.784,0.0900649
,,,,,,,,,185,69.4727,0.114849
,,,,,,,,,205,103.734,0.0367755
,,,,,,,,,226,142.051,0.0368197
,,,,,,,,,72,120.138,0.0380946
,,,,,,,,,85,28.8823,0.0308566
,,,,,,,,,99,33.0152,0.0335215
,,,,,,,,,114,121.112,0.0354953
,,,,,,,,,130,36.3018,0.0213082
,,,,,,,,,147,42.4806,0.0232856
,,,,,,,,,165,154.702,0.0438574
,,,,,,,,,184,160.847,0.0442485
,,,,,,,,,204,69.6864,0.049496
,,,,,,,,,225,133.761,0.0258474
,,,,,,,,,247,93.5284,0.0258693
,,,,,,,,,98,103.179,0.0373755
,,,,,,,,,113,137.891,0.041358
,,,,,,,,,129,55.7085,0.0444043
,,,,,,,,,146,140.361,0.0242261
,,,,,,,,,164,161.981,0.0268151
,,,,,,,,,183,38.4971,0.0583133
,,,,,,,,,203,74.4416,0.0590068
,,,,,,,,,224,105.726,0.0687228
,,,,,,,,,246,87.8847,0.0302699
,,,,,,,,,269,144.086,0.0302998
,,,,,,,,,128,61.4929,0.0329635
,,,,,,,,,145,133.752,0.0348701
,,,,,,,,,163,39.2003,0.0210814
,,,,,,,,,182,59.2244,0.023015
,,,,,,,,,202,128.12,0.042907
,,,,,,,,,223,168.344,0.0432812
,,,,,,,,,245,48.3673,0.0482889
,,,,,,,,,268,115.621,0.0255143
,,,,,,,,,292,101.406,0.0255356
,,,,,,,,,162,104.607,0.038312
,,,,,,,,,181,48.1563,0.0222921
,,,,,,,,,201,33.0086,0.0244657
,,,,,,,,,222,167.703,0.0482396
,,,,,,,,,244,127.858,0.0487132
,,,,,,,,,267,92.231,0.0551501
,,,,,,,,,291,134.18,0.0273095
,,,,,,,,,316,77.3492,0.0273339
,,,,,,,,,200,152.707,0.0231481
,,,,,,,,,221,132.354,0.0255006
,,,,,,,,,243,63.3653,0.0524355
,,,,,,,,,266,54.5182,0.0529955
,,,,,,,,,290,161.014,0.0607035
,,,,,,,,,315,104.955,0.0286054
,,,,,,,,,341,119.091,0.0286321
,,,,,,,,,242,24.7462,0.0172496
,,,,,,,,,265,143.926,0.0264351
,,,,,,,,,289,138.95,0.0265767
,,,,,,,,,314,44.5088,0.0283841
,,,,,,,,,340,98.3872,0.0186165
,,,,,,,,,367,62.9436,0.0186278
,,,,,,,,,288,155.205,0.029548
,,,,,,,,,313,123.577,0.029725
,,,,,,,,,339,66.5042,0.0320044
,,,,,,,,,366,102.925,0.0201083
,,,,,,,,,394,51.4076,0.0201216
,,,,,,,,,338,43.9919,0.0740855
,,,,,,,,,365,100.052,0.0900745
,,,,,,,,,393,52.3151,0.0337988
,,,,,,,,,422,105.652,0.0338362
,,,,,,,,,392,120.75,0.0917398
,,,,,,,,,421,53.3089,0.0340306
,,,,,,,,,451,76.1805,0.0340685
,,,,,,,,,450,67.4416,0.0370517
,,,,,,,,,481,72.6841,0.0370966
,,,,,,,,,512,57.7922,0.0220063
