Q	U	V
{$V$}	{[mm$^3$]}	0.00125276
{$d_v$}	{[mm]}	0.133749
{$S_c$}	{[mm$^2$]}	0.111828
{$S_o$}	{[mm$^2$]}	0.0514655
{$S_l/S_o$}	[]	1.172873
{$\Psi$}	[]	0.502549
{$\eta$}	[]	0.592220
{med($\theta_e$)}	{[$^\circ$]}	88.35665
{$\Upsilon$}	[]	14
{$\Xi$}	[]	5
