facetNormals:0,facetNormals:1,facetNormals:2,FacetCenters:0,FacetCenters:1,FacetCenters:2,FacetIds,relFacetSize,absFacetSize,cellPairingIds,interplanarAngles,angleWeights
0.84431,-0.107921,-0.490831,3.8225,3.66702,5.64261,1,0.0415873,0.0049125,8,22.5664,0.0345155
0.894449,0.243337,-0.340192,3.8104,3.68266,5.62948,2,0.0294993,0.00348461,13,127.728,0.0587191
-0.788957,0.515954,-0.269554,3.66839,3.72637,5.5918,3,0.0998535,0.0117952,19,108.904,0.0366638
-0.334196,0.913431,-0.138525,3.6984,3.75849,5.60973,4,0.0327827,0.00387246,26,73.2422,0.0236986
0.179952,-0.958868,-0.0432804,3.76646,3.5947,5.68006,5,0.0165708,0.00195742,34,47.2037,0.0443907
0.740465,-0.589982,0.107535,3.82332,3.61872,5.68346,6,0.0475993,0.00562267,43,72.4139,0.0660397
0.51023,0.811091,0.115575,3.7717,3.73167,5.65471,7,0.160282,0.0189333,53,98.3983,0.0451236
-0.111812,-0.926585,0.29783,3.73685,3.59916,5.70406,8,0.0493172,0.0058256,64,152.151,0.0211823
-0.911727,-0.297976,0.253007,3.67548,3.64214,5.71875,9,0.01421,0.00167856,76,169.032,0.0457471
-0.914946,0.164695,0.326036,3.64797,3.67237,5.66703,10,0.0508317,0.00600449,89,167.405,0.048558
-0.752681,-0.0371119,0.620325,3.67846,3.67953,5.70669,11,0.0583361,0.00689095,103,88.1503,0.0377104
0.521272,0.201083,0.789945,3.77761,3.6819,5.74246,12,0.0344948,0.0040747,118,109.206,0.043138
0.060288,-0.470555,0.845779,3.76098,3.63488,5.73895,13,0.0448088,0.00529305,134,136.111,0.0266852
-0.388064,-0.358376,0.827128,3.69474,3.61765,5.69576,14,0.0196456,0.00232063,151,133.661,0.0227734
-0.222464,0.128378,0.952477,3.72347,3.67296,5.75516,15,0.0156799,0.00185219,18,120.299,0.0455438
,,,,,,,,,25,91.744,0.0310544
,,,,,,,,,33,93.4274,0.021221
,,,,,,,,,42,59.1716,0.0364247
,,,,,,,,,52,49.856,0.0498279
,,,,,,,,,63,116.181,0.0369167
,,,,,,,,,75,173.963,0.0191806
,,,,,,,,,88,156.079,0.037333
,,,,,,,,,102,157.951,0.0391841
,,,,,,,,,117,75.051,0.031802
,,,,,,,,,133,111.331,0.035577
,,,,,,,,,150,137.608,0.0235846
,,,,,,,,,168,120.322,0.0204761
,,,,,,,,,32,36.7035,0.0493601
,,,,,,,,,41,130.752,0.0284245
,,,,,,,,,51,169.164,0.0644675
,,,,,,,,,62,90.9214,0.123049
,,,,,,,,,74,119.305,0.066025
,,,,,,,,,87,59.2446,0.0248795
,,,,,,,,,101,41.9005,0.0673685
,,,,,,,,,116,64.8,0.0736466
,,,,,,,,,132,123.272,0.051276
,,,,,,,,,149,123.035,0.0618588
,,,,,,,,,167,96.0667,0.0328317
,,,,,,,,,186,90.8881,0.0271037
,,,,,,,,,50,165.77,0.022014
,,,,,,,,,61,148.862,0.0388254
,,,,,,,,,73,54.225,0.0544323
,,,,,,,,,86,152.054,0.039385
,,,,,,,,,100,90.1489,0.0198262
,,,,,,,,,115,64.8695,0.0398592
,,,,,,,,,131,82.1054,0.0419763
,,,,,,,,,148,96.0361,0.0336169
,,,,,,,,,166,126.532,0.0378638
,,,,,,,,,185,108.895,0.0245682
,,,,,,,,,205,86.4704,0.0212135
,,,,,,,,,72,41.7423,0.0245833
,,,,,,,,,85,137.14,0.0300362
,,,,,,,,,99,26.599,0.0248065
,,,,,,,,,114,83.4382,0.0152999
,,,,,,,,,130,110.484,0.0249938
,,,,,,,,,147,97.639,0.02581
,,,,,,,,,165,98.1038,0.0223871
,,,,,,,,,184,63.3047,0.0241943
,,,,,,,,,204,75.6212,0.0179776
,,,,,,,,,225,102.247,0.016113
,,,,,,,,,98,95.5092,0.0734006
,,,,,,,,,113,57.911,0.048443
,,,,,,,,,129,119.964,0.0218863
,,,,,,,,,146,141.987,0.0491624
,,,,,,,,,164,120.264,0.0524236
,,,,,,,,,183,67.5348,0.0400011
,,,,,,,,,203,63.4366,0.0461619
,,,,,,,,,224,89.2014,0.0278122
,,,,,,,,,246,98.4447,0.0235892
,,,,,,,,,128,144.96,0.0754264
,,,,,,,,,145,135.052,0.0261056
,,,,,,,,,163,108.11,0.0771849
,,,,,,,,,182,111.315,0.0855393
,,,,,,,,,202,56.1365,0.0567715
,,,,,,,,,223,105.692,0.0700377
,,,,,,,,,245,114.518,0.0350011
,,,,,,,,,268,83.9289,0.0285653
,,,,,,,,,162,62.1902,0.0220629
,,,,,,,,,181,87.2206,0.050063
,,,,,,,,,201,71.5075,0.0534489
,,,,,,,,,222,90.5643,0.0405953
,,,,,,,,,244,44.1932,0.046955
,,,,,,,,,267,49.7051,0.0280982
,,,,,,,,,291,78.6864,0.0237946
,,,,,,,,,200,27.4058,0.022211
,,,,,,,,,221,28.0845,0.0228532
,,,,,,,,,243,110.448,0.0201283
,,,,,,,,,266,71.8767,0.0215773
,,,,,,,,,290,46.5231,0.0164915
,,,,,,,,,315,65.5169,0.0149088
,,,,,,,,,242,23.053,0.0543259
,,,,,,,,,265,101.269,0.0410992
,,,,,,,,,289,81.3856,0.0476306
,,,,,,,,,314,54.1897,0.0283387
,,,,,,,,,340,56.5835,0.0239668
,,,,,,,,,288,84.5188,0.0433539
,,,,,,,,,313,58.345,0.0506854
,,,,,,,,,339,31.3035,0.0293927
,,,,,,,,,366,38.504,0.0247164
,,,,,,,,,338,49.8557,0.0389811
,,,,,,,,,365,66.4741,0.0250338
,,,,,,,,,393,46.0664,0.0215597
,,,,,,,,,392,27.4183,0.0273153
,,,,,,,,,421,40.0998,0.0232307
,,,,,,,,,450,31.1987,0.0174401
