"cellPairingIds","interplanarAngles","angleWeights"
8,75.192,0.0213535
13,31.4093,0.0164908
26,78.355,0.0187515
34,36.9676,0.0210164
43,72.2,0.0205232
18,92.998,0.044012
25,75.8504,0.0505307
33,61.1956,0.0648922
63,52.2977,0.0299897
75,75.6889,0.126919
32,31.1943,0.0297626
51,32.5875,0.0426037
101,90.5912,0.0441525
206,107.934,0.0109372
86,104.391,0.0226127
148,91.9706,0.0365208
226,108.387,0.0112994
85,44.5516,0.0577879
114,51.7058,0.0695539
147,83.5391,0.033698
98,63.6945,0.0865244
146,63.339,0.104269
163,57.3849,0.0931615
182,54.2614,0.0398858
162,48.2257,0.0309483
222,54.2618,0.0244281
291,66.2296,0.0121852
221,67.4378,0.0451584
315,51.128,0.0176676
242,27.7977,0.0432811
367,50.071,0.0128949
366,47.175,0.0139084
394,50.8125,0.0108829
393,48.7769,0.0153315
422,48.3082,0.0117352
512,38.5531,0.0079149
