Q	U	V
{$V$}	{[mm$^3$]}	0.00186904
{$d_v$}	{[mm]}	0.152829
{$S_c$}	{[mm$^2$]}	0.118316
{$S_o$}	{[mm$^2$]}	0.0773582
{$S_l/S_o$}	[]	0.529456
{$\Psi$}	[]	0.620183
{$\eta$}	[]	0.636682
{med($\theta_e$)}	{[$^\circ$]}	69.0419
{$\Upsilon$}	[]	22
{$\Xi$}	[]	6
