Q	U	V
{$V$}	{[mm$^3$]}	0.00215403
{$d_v$}	{[mm]}	0.160233
{$S_c$}	{[mm$^2$]}	0.12099
{$S_o$}	{[mm$^2$]}	0.0585364
{$S_l/S_o$}	[]	1.066919
{$\Psi$}	[]	0.666657
{$\eta$}	[]	0.707600
{med($\theta_e$)}	{[$^\circ$]}	67.0503
{$\Upsilon$}	[]	18
{$\Xi$}	[]	8
