Q	U	V
{$V$}	{[mm$^3$]}	0.0136996
{$d_v$}	{[mm]}	0.296872
{$S_c$}	{[mm$^2$]}	0.512814
{$S_o$}	{[mm$^2$]}	0.340745
{$S_l/S_o$}	[]	0.504979
{$\Psi$}	[]	0.53992
{$\eta$}	[]	0.589473
{med($\theta_e$)}	{[$^\circ$]}	60.5114
{$\Upsilon$}	[]	16
{$\Xi$}	[]	16
