facetNormals:0,facetNormals:1,facetNormals:2,FacetCenters:0,FacetCenters:1,FacetCenters:2,FacetIds,relFacetSize,absFacetSize,cellPairingIds,interplanarAngles,angleWeights
0.00195773,0.382058,-0.863326,6.27004,7.05448,6.02278,1,0.0680289,0.00893917,8,40.2149,0.0414395
-0.523471,-0.00584627,-0.807152,6.28608,7.04897,6.01203,2,0.0297943,0.00391504,13,35.9948,0.0473823
-0.450366,0.642857,-0.580036,6.26095,7.06832,6.02844,3,0.0363501,0.0047765,19,75.7372,0.075267
0.0856506,-0.74303,-0.584346,6.36319,6.99578,6.04546,4,0.0842289,0.0110679,26,53.895,0.0618706
0.785133,0.235579,-0.519239,6.31245,7.01454,6.03222,5,0.0567347,0.00745509,34,87.9304,0.0394407
0.699747,-0.602279,-0.303325,6.33747,6.97006,6.06438,6,0.0277706,0.00364912,43,66.2527,0.0124376
0.685969,0.686878,-0.125526,6.33619,7.04161,6.08789,7,0.00684446,0.00089938,53,113.376,0.0379827
0.217266,-0.959232,0.00271957,6.35811,6.96683,6.09681,8,0.0263463,0.00346198,64,112.065,0.0462796
-0.342862,-0.913955,-0.0042428,6.31317,6.95656,6.09162,9,0.0350681,0.00460803,76,104.066,0.0530587
-0.75301,-0.609406,-0.0139016,6.25725,6.968,6.0464,10,0.0434887,0.00571453,89,85.0269,0.0121002
0.552769,0.780987,0.253052,6.23886,6.91841,6.06002,11,0.00664069,0.000872603,103,92.2845,0.0516998
-0.799938,0.496493,0.260487,6.26517,7.09406,6.0964,12,0.0416923,0.00547848,118,126.261,0.0452791
0.736477,-0.300425,0.464459,6.34981,7.01242,6.12667,13,0.0339319,0.00445874,134,146.054,0.0335789
0.202721,-0.796262,0.540064,6.38126,6.99906,6.13118,14,0.0222908,0.00292907,151,125.839,0.0973901
-0.764877,-0.104996,0.563966,6.29263,7.06388,6.13881,15,0.171341,0.0225146,169,112.316,0.034781
-0.274662,0.641516,0.691092,6.29805,7.10933,6.13695,16,0.0233628,0.00306993,188,143.558,0.0711775
-0.508518,-0.589604,0.605757,6.3248,6.99562,6.1166,17,0.0746317,0.0098068,208,148.051,0.0349632
0.286879,0.0556312,0.928343,6.32205,7.04892,6.16489,18,0.0235276,0.00309158,18,41.7808,0.0327473
,,,,,,,,,25,61.8242,0.044018
,,,,,,,,,33,89.5867,0.0390706
,,,,,,,,,42,97.2475,0.0287468
,,,,,,,,,52,106.14,0.0111317
,,,,,,,,,63,96.6954,0.0279644
,,,,,,,,,75,78.4367,0.0322168
,,,,,,,,,88,63.9741,0.0353619
,,,,,,,,,102,121.548,0.0108607
,,,,,,,,,117,77.3639,0.0347532
,,,,,,,,,133,148.887,0.0317288
,,,,,,,,,150,124.617,0.0255021
,,,,,,,,,168,93.3782,0.0507616
,,,,,,,,,187,116.242,0.0261895
,,,,,,,,,207,103.36,0.0425871
,,,,,,,,,228,163.948,0.0262927
,,,,,,,,,32,101.034,0.0507838
,,,,,,,,,41,83.998,0.0443104
,,,,,,,,,51,123.71,0.0314864
,,,,,,,,,62,77.5818,0.0115198
,,,,,,,,,74,138.244,0.0305501
,,,,,,,,,87,116.875,0.0356976
,,,,,,,,,101,92.7016,0.0396003
,,,,,,,,,116,83.6798,0.0112298
,,,,,,,,,132,56.3462,0.0388384
,,,,,,,,,149,152.067,0.0350994
,,,,,,,,,167,162.742,0.0276351
,,,,,,,,,186,93.0804,0.0599762
,,,,,,,,,206,81.8889,0.0284441
,,,,,,,,,227,121.382,0.0488886
,,,,,,,,,249,131.702,0.0285659
,,,,,,,,,50,77.7369,0.0678005
,,,,,,,,,61,42.0717,0.0417696
,,,,,,,,,73,114.026,0.0126602
,,,,,,,,,86,38.5812,0.0401378
,,,,,,,,,100,45.2567,0.0495192
,,,,,,,,,115,64.4614,0.057361
,,,,,,,,,131,136.448,0.0123108
,,,,,,,,,148,129.49,0.0557761
,,,,,,,,,166,89.0234,0.0483755
,,,,,,,,,185,71.6749,0.0352522
,,,,,,,,,205,110.449,0.112939
,,,,,,,,,226,165.879,0.0365795
,,,,,,,,,248,87.5169,0.0791404
,,,,,,,,,271,127.257,0.0367811
,,,,,,,,,72,53.1886,0.0372889
,,,,,,,,,85,36.2892,0.0122153
,,,,,,,,,99,93.4124,0.035983
,,,,,,,,,114,120.61,0.0433446
,,,,,,,,,130,140.709,0.0492364
,,,,,,,,,147,59.5572,0.0118897
,,,,,,,,,165,132.992,0.0480641
,,,,,,,,,184,72.6653,0.0424658
,,,,,,,,,204,108.887,0.0320064
,,,,,,,,,225,171.737,0.0852434
,,,,,,,,,247,116.375,0.0330967
,,,,,,,,,270,152.973,0.0644641
,,,,,,,,,294,104.954,0.0332617
,,,,,,,,,98,83.6997,0.0109822
,,,,,,,,,113,40.3022,0.0270397
,,,,,,,,,129,70.8094,0.0309956
,,,,,,,,,146,99.5171,0.0338961
,,,,,,,,,164,99.5959,0.0107183
,,,,,,,,,183,171.065,0.0333363
,,,,,,,,,203,51.6475,0.0305436
,,,,,,,,,224,61.3859,0.0247308
,,,,,,,,,246,133.796,0.0477947
,,,,,,,,,269,145.671,0.0253767
,,,,,,,,,293,101.094,0.0404789
,,,,,,,,,318,96.9443,0.0254736
,,,,,,,,,128,122.001,0.0108661
,,,,,,,,,145,154.503,0.0114535
,,,,,,,,,163,169.824,0.0118275
,,,,,,,,,182,24.1662,0.00674104
,,,,,,,,,202,104.561,0.0117586
,,,,,,,,,223,74.5258,0.0113912
,,,,,,,,,245,119.619,0.0104731
,,,,,,,,,268,135.508,0.0131631
,,,,,,,,,292,80.0879,0.0105872
,,,,,,,,,317,149.25,0.012539
,,,,,,,,,343,82.8562,0.0106041
,,,,,,,,,162,33.3277,0.0300879
,,,,,,,,,181,63.7847,0.0328136
,,,,,,,,,201,130.205,0.0106077
,,,,,,,,,222,132.52,0.0322887
,,,,,,,,,244,60.2554,0.0296618
,,,,,,,,,267,33.1886,0.0241495
,,,,,,,,,291,93.8984,0.0456702
,,,,,,,,,316,134.177,0.024765
,,,,,,,,,342,61.9179,0.0389446
,,,,,,,,,369,89.3122,0.0248573
,,,,,,,,,200,30.4577,0.0388271
,,,,,,,,,221,159.407,0.0111668
,,,,,,,,,243,100.918,0.0380944
,,,,,,,,,266,88.7194,0.0344906
,,,,,,,,,290,46.8891,0.0272563
,,,,,,,,,315,67.5892,0.0582202
,,,,,,,,,341,121.091,0.028043
,,,,,,,,,368,42.4405,0.0477155
,,,,,,,,,396,99.2763,0.0281614
,,,,,,,,,242,159.09,0.011522
,,,,,,,,,265,71.7629,0.0425716
,,,,,,,,,289,115.059,0.0381204
,,,,,,,,,314,70.0459,0.0294742
,,,,,,,,,340,46.9672,0.0693702
,,,,,,,,,367,101.748,0.0303963
,,,,,,,,,395,39.843,0.0549547
,,,,,,,,,424,106.186,0.0305354
,,,,,,,,,288,89.319,0.0114566
,,,,,,,,,313,71.4502,0.0111076
,,,,,,,,,339,112.547,0.0102329
,,,,,,,,,366,112.498,0.0127858
,,,,,,,,,394,57.374,0.0103418
,,,,,,,,,423,127.051,0.0121962
,,,,,,,,,453,63.0238,0.0103579
,,,,,,,,,338,133.321,0.0374139
,,,,,,,,,365,115.719,0.02905
,,,,,,,,,393,40.836,0.0670656
,,,,,,,,,422,41.5283,0.0299454
,,,,,,,,,452,73.615,0.0534983
,,,,,,,,,483,87.5913,0.0300804
,,,,,,,,,392,45.093,0.0269062
,,,,,,,,,421,107.843,0.0566458
,,,,,,,,,451,94.6938,0.0276725
,,,,,,,,,482,84.6976,0.0466527
,,,,,,,,,514,45.7303,0.0277878
,,,,,,,,,450,75.6418,0.0394494
,,,,,,,,,481,101.544,0.0228142
,,,,,,,,,513,44.3562,0.0343285
,,,,,,,,,546,57.4253,0.0228925
,,,,,,,,,512,55.4545,0.0411189
,,,,,,,,,545,32.8358,0.103975
,,,,,,,,,579,71.3033,0.0413739
,,,,,,,,,578,79.2893,0.0355858
,,,,,,,,,613,51.2372,0.0234449
,,,,,,,,,648,66.4462,0.0357766
