Q	U	V
{$V$}	{[mm$^3$]}	0.00634453
{$d_v$}	{[mm]}	0.229686
{$S_c$}	{[mm$^2$]}	0.267288
{$S_o$}	{[mm$^2$]}	0.18485
{$S_l/S_o$}	[]	0.445972
{$\Psi$}	[]	0.620066
{$\eta$}	[]	0.640111
{med($\theta_e$)}	{[$^\circ$]}	66.7117
{$\Upsilon$}	[]	13
{$\Xi$}	[]	5
