facetNormals:0,facetNormals:1,facetNormals:2,FacetCenters:0,FacetCenters:1,FacetCenters:2,FacetIds,relFacetSize,absFacetSize,cellPairingIds,interplanarAngles,angleWeights
0.140093,-0.542029,-0.772787,6.78526,4.6681,8.77186,1,0.0357081,0.0105571,8,55.0998,0.0382826
0.680604,0.15269,-0.664209,6.79994,4.70572,8.73487,2,0.0412571,0.0121977,13,81.6163,0.0479349
0.473986,0.628009,-0.524837,6.84547,4.78277,8.72163,3,0.0728948,0.0215514,19,46.3537,0.0258285
-0.370695,-0.855092,-0.302578,6.79315,4.68266,8.78004,4,0.020231,0.0059813,26,60.2616,0.0450454
-0.751828,-0.287295,-0.522581,6.75379,4.72331,8.79172,5,0.0609947,0.0180331,34,48.7885,0.0421537
0.246208,-0.917726,-0.0880142,6.80626,4.64842,8.77376,6,0.0514387,0.0152079,43,114.637,0.0319981
-0.685788,0.678841,-0.101026,6.74841,4.79721,8.80074,7,0.0289865,0.00856988,53,106.673,0.0461836
-0.121303,0.906774,-0.315186,6.78308,4.82054,8.79823,8,0.0653569,0.0193228,64,52.0877,0.0446745
0.825332,-0.402162,-0.301522,6.8427,4.66071,8.73464,9,0.0596536,0.0176366,76,102.571,0.0495525
-0.885221,0.259042,-0.0930095,6.73876,4.77133,8.83393,10,0.0809297,0.0239269,89,127.06,0.0251058
0.206846,0.964646,0.0987444,6.81561,4.84077,8.84224,11,0.019358,0.00572322,103,105.843,0.0377095
0.864245,0.111981,0.401598,6.77425,4.68613,8.83258,12,0.0399486,0.0118108,118,85.3923,0.0235835
-0.417293,-0.797172,0.386347,6.73125,4.66618,8.88851,13,0.0176056,0.0052051,134,149.485,0.0269715
-0.168505,0.890941,0.397953,6.78058,4.83385,8.8529,14,0.0216697,0.00640665,151,141.644,0.0329523
0.363339,0.785411,0.467331,6.82711,4.8043,8.84174,15,0.0305914,0.00904435,169,106.192,0.042034
0.576575,-0.346506,0.675926,6.75072,4.70682,8.89454,16,0.0510836,0.0151029,188,114.973,0.0364665
-0.114181,-0.489157,0.826692,6.72386,4.68251,8.90557,17,0.0372578,0.0110153,208,164.819,0.040914
0.0775225,0.435935,0.841584,6.79082,4.79118,8.89556,18,0.0478968,0.0141607,18,32.6409,0.0526917
,,,,,,,,,25,101.111,0.027149
,,,,,,,,,33,103.034,0.0492209
,,,,,,,,,42,84.6372,0.0457887
,,,,,,,,,52,108.466,0.03405
,,,,,,,,,63,73.465,0.0505831
,,,,,,,,,75,41.1745,0.0487784
,,,,,,,,,88,124.144,0.0546528
,,,,,,,,,102,76.5279,0.0263517
,,,,,,,,,117,68.511,0.0405923
,,,,,,,,,133,134.609,0.0246796
,,,,,,,,,150,104.759,0.0284148
,,,,,,,,,168,86.5619,0.0351326
,,,,,,,,,187,96.8434,0.0456475
,,,,,,,,,207,138.843,0.0391556
,,,,,,,,,228,118.686,0.0443297
,,,,,,,,,32,126.704,0.0316719
,,,,,,,,,41,106.812,0.0664159
,,,,,,,,,51,117.265,0.0603154
,,,,,,,,,62,80.3205,0.041479
,,,,,,,,,74,42.2532,0.0689204
,,,,,,,,,87,71.0444,0.0656128
,,,,,,,,,101,103.729,0.0767024
,,,,,,,,,116,45.9483,0.030592
,,,,,,,,,132,72.7453,0.0516121
,,,,,,,,,149,166.672,0.0283613
,,,,,,,,,167,73.1936,0.033408
,,,,,,,,,186,63.1455,0.0430966
,,,,,,,,,206,109.366,0.0600706
,,,,,,,,,227,150.362,0.0493116
,,,,,,,,,249,98.3866,0.0578091
,,,,,,,,,50,43.4638,0.0303841
,,,,,,,,,61,39.6343,0.0290403
,,,,,,,,,73,108.121,0.02383
,,,,,,,,,86,132.049,0.0308977
,,,,,,,,,100,82.1594,0.0302149
,,,,,,,,,115,81.4669,0.03237
,,,,,,,,,131,163.475,0.0197849
,,,,,,,,,148,124.877,0.0268596
,,,,,,,,,166,41.427,0.0188272
,,,,,,,,,185,147.66,0.0209256
,,,,,,,,,205,169.538,0.0243552
,,,,,,,,,226,97.4996,0.0289835
,,,,,,,,,248,77.1712,0.0262229
,,,,,,,,,271,134.762,0.0284465
,,,,,,,,,72,82.183,0.0558106
,,,,,,,,,85,66.3586,0.0392976
,,,,,,,,,99,90.284,0.0631005
,,,,,,,,,114,112.001,0.0603167
,,,,,,,,,130,44.0186,0.0695621
,,,,,,,,,147,120.594,0.0293889
,,,,,,,,,165,165.581,0.0482776
,,,,,,,,,184,68.7316,0.0273243
,,,,,,,,,204,110.787,0.0319783
,,,,,,,,,225,141.932,0.0407466
,,,,,,,,,247,138.669,0.0556009
,,,,,,,,,270,102.799,0.0462589
,,,,,,,,,294,133.082,0.053658
,,,,,,,,,98,147.743,0.0370786
,,,,,,,,,113,154.629,0.0575685
,,,,,,,,,129,49.5049,0.0552424
,,,,,,,,,146,120.389,0.062899
,,,,,,,,,164,153.004,0.0281299
,,,,,,,,,183,85.3224,0.0449713
,,,,,,,,,203,50.4622,0.0262327
,,,,,,,,,224,161.134,0.0304933
,,,,,,,,,246,135.769,0.0383659
,,,,,,,,,269,63.8912,0.0512605
,,,,,,,,,293,67.8493,0.0432146
,,,,,,,,,318,120.097,0.0496046
,,,,,,,,,128,38.9038,0.0401611
,,,,,,,,,145,149.585,0.0390151
,,,,,,,,,163,28.2462,0.0426847
,,,,,,,,,182,58.4735,0.0232135
,,,,,,,,,202,126.766,0.0335959
,,,,,,,,,223,108.027,0.021906
,,,,,,,,,245,44.9309,0.0247997
,,,,,,,,,268,75.6324,0.0297673
,,,,,,,,,292,139.061,0.036986
,,,,,,,,,317,111.061,0.0326058
,,,,,,,,,343,80.1557,0.0361161
,,,,,,,,,162,113.293,0.0623752
,,,,,,,,,181,65.5277,0.0723144
,,,,,,,,,201,31.4454,0.0298692
,,,,,,,,,222,98.0406,0.0495874
,,,,,,,,,244,146.928,0.027739
,,,,,,,,,267,42.8122,0.0325478
,,,,,,,,,291,56.8199,0.0416757
,,,,,,,,,316,130.33,0.0573455
,,,,,,,,,342,137.515,0.0474601
,,,,,,,,,369,82.4668,0.055281
,,,,,,,,,200,154.23,0.0686817
,,,,,,,,,221,104.939,0.0292305
,,,,,,,,,243,53.8368,0.0478519
,,,,,,,,,266,98.5268,0.0271873
,,,,,,,,,290,130.179,0.031791
,,,,,,,,,315,99.5022,0.0404429
,,,,,,,,,341,63.484,0.055037
,,,,,,,,,368,99.0342,0.0458679
,,,,,,,,,396,113.409,0.0531326
,,,,,,,,,242,86.4074,0.0312429
,,,,,,,,,265,150.394,0.0534922
,,,,,,,,,289,81.9602,0.0289199
,,,,,,,,,314,68.0626,0.0341858
,,,,,,,,,340,100.212,0.0443997
,,,,,,,,,367,138.591,0.0626328
,,,,,,,,,395,96.5652,0.051025
,,,,,,,,,424,92.2087,0.0601782
,,,,,,,,,288,69.9329,0.0260789
,,,,,,,,,313,147.314,0.0184403
,,,,,,,,,339,28.3706,0.0204487
,,,,,,,,,366,25.6646,0.0237115
,,,,,,,,,394,99.0208,0.0280765
,,,,,,,,,423,115.562,0.0254783
,,,,,,,,,453,56.5544,0.0275724
,,,,,,,,,338,108.282,0.0244402
,,,,,,,,,365,83.1117,0.0280979
,,,,,,,,,393,51.3321,0.0346493
,,,,,,,,,422,36.9829,0.0448351
,,,,,,,,,452,78.91,0.0385563
,,,,,,,,,483,60.1776,0.0435631
,,,,,,,,,392,120.092,0.0194273
,,,,,,,,,421,128.321,0.0223491
,,,,,,,,,451,71.4699,0.0261863
,,,,,,,,,482,36.9514,0.0239119
,,,,,,,,,514,93.3689,0.0257472
,,,,,,,,,450,32.1548,0.025369
,,,,,,,,,481,98.335,0.0304306
,,,,,,,,,513,95.2463,0.0274019
,,,,,,,,,546,41.0403,0.0298393
,,,,,,,,,512,74.3361,0.0382667
,,,,,,,,,545,92.3697,0.0335971
,,,,,,,,,579,35.2421,0.0373363
,,,,,,,,,578,44.1,0.0430888
,,,,,,,,,613,59.336,0.0494389
,,,,,,,,,648,59.0101,0.0419127
