"cellPairingIds","interplanarAngles","angleWeights"
8,63.1743,0.035012
13,63.0292,0.0434664
19,64.2504,0.0438351
34,122.07,0.0784554
43,43.2313,0.0779279
25,38.9893,0.0268873
33,54.5317,0.0404405
42,105.288,0.0368655
51,102.201,0.04636
62,58.1056,0.0461753
74,61.0497,0.0317066
101,66.8734,0.0285056
50,73.6204,0.0526903
73,55.1811,0.0465916
115,68.4803,0.0286638
131,93.9448,0.0413519
72,69.856,0.112207
147,48.5418,0.0853385
113,52.8181,0.0469948
129,43.6069,0.0795345
164,72.1712,0.0708415
163,40.1952,0.0401496
162,36.9534,0.0443617
181,95.9734,0.0287444
200,103.5,0.0383382
221,47.3131,0.0650235
242,92.1651,0.0361972
