facetNormals:0,facetNormals:1,facetNormals:2,FacetCenters:0,FacetCenters:1,FacetCenters:2,FacetIds,relFacetSize,absFacetSize,cellPairingIds,interplanarAngles,angleWeights
0.0835498,0.31666,-0.883666,3.87722,3.93815,8.68308,1,0.0391556,0.00851725,8,62.1386,0.048378
-0.26199,-0.575322,-0.70163,3.86848,3.93237,8.69078,2,0.0632833,0.0137656,13,42.6589,0.0237861
-0.241561,0.79756,-0.498698,3.88839,3.93823,8.69592,3,0.0170813,0.00371558,19,75.7343,0.0591812
0.591636,-0.599573,-0.404479,3.9221,3.92688,8.72422,4,0.121133,0.0263491,26,79.2716,0.0320058
0.971486,-0.0273165,-0.112158,3.9516,3.9243,8.77322,5,0.027064,0.00588704,34,79.5647,0.0419491
-0.904871,0.29278,-0.167164,3.86135,3.95839,8.74588,6,0.0451718,0.00982592,43,69.4821,0.0473125
0.79911,0.535907,-0.0937635,3.94612,3.95499,8.77693,7,0.0597622,0.0129997,53,118.568,0.0502222
0.357415,-0.864216,0.213292,3.91775,3.88551,8.77965,8,0.070009,0.0152286,64,121.496,0.0578987
-0.787555,-0.451133,0.295731,3.83318,3.91619,8.77435,9,0.111062,0.0241587,76,101.481,0.0234532
0.025795,0.834911,0.509303,3.9252,3.98074,8.82233,10,0.01674,0.00364133,89,120.191,0.0395057
-0.829258,0.124164,0.48582,3.84718,3.93916,8.79905,11,0.0398621,0.00867092,103,136.328,0.0425451
-0.306298,-0.818288,0.428471,3.86835,3.86008,8.80795,12,0.0465771,0.0101316,118,134.358,0.0244718
-0.410366,0.353801,0.822103,3.86803,3.93088,8.87499,13,0.0177975,0.00387138,18,92.8539,0.0269014
,,,,,,,,,25,57.5317,0.0831346
,,,,,,,,,33,99.9792,0.0379136
,,,,,,,,,42,78.2373,0.0527153
,,,,,,,,,52,119.667,0.0614724
,,,,,,,,,63,73.7228,0.0664765
,,,,,,,,,75,73.3449,0.080626
,,,,,,,,,88,156.057,0.0264763
,,,,,,,,,102,102.305,0.0489136
,,,,,,,,,117,74.1897,0.05366
,,,,,,,,,133,136.352,0.0277818
,,,,,,,,,32,117.527,0.0299406
,,,,,,,,,41,102.184,0.0209439
,,,,,,,,,51,55.1817,0.0247889
,,,,,,,,,62,72.5751,0.0265687
,,,,,,,,,74,161.221,0.0274622
,,,,,,,,,87,109.998,0.0296088
,,,,,,,,,101,64.7245,0.0169089
,,,,,,,,,116,86.5236,0.0239149
,,,,,,,,,132,146.968,0.0249959
,,,,,,,,,149,91.7185,0.0174321
,,,,,,,,,50,45.8704,0.044243
,,,,,,,,,61,135.474,0.0658044
,,,,,,,,,73,77.8975,0.0800372
,,,,,,,,,86,44.1289,0.0887339
,,,,,,,,,100,110.685,0.115879
,,,,,,,,,115,139.134,0.0294149
,,,,,,,,,131,147.249,0.0599845
,,,,,,,,,148,81.3921,0.067283
,,,,,,,,,166,148.859,0.0310352
,,,,,,,,,72,156.801,0.0338483
,,,,,,,,,85,35.2662,0.0372561
,,,,,,,,,99,68.3047,0.039037
,,,,,,,,,114,147.308,0.0435223
,,,,,,,,,130,93.2864,0.0206854
,,,,,,,,,147,155.615,0.0322393
,,,,,,,,,165,109.85,0.0342353
,,,,,,,,,184,121.307,0.0214737
,,,,,,,,,98,126.138,0.0514527
,,,,,,,,,113,131.363,0.0549125
,,,,,,,,,129,54.8171,0.0642227
,,,,,,,,,146,81.725,0.0244275
,,,,,,,,,164,41.0677,0.0423512
,,,,,,,,,183,92.0761,0.0458637
,,,,,,,,,203,69.2086,0.0255345
,,,,,,,,,128,102.299,0.0644811
,,,,,,,,,145,166.909,0.0777094
,,,,,,,,,163,63.6158,0.026154
,,,,,,,,,182,133.231,0.0478246
,,,,,,,,,202,140.266,0.0523523
,,,,,,,,,223,103.08,0.0274271
,,,,,,,,,162,79.2068,0.0858818
,,,,,,,,,181,130.038,0.0270193
,,,,,,,,,201,108.833,0.0507996
,,,,,,,,,222,42.4205,0.0559383
,,,,,,,,,244,107.061,0.0283803
,,,,,,,,,200,105.295,0.0290946
,,,,,,,,,221,36.7979,0.0586675
,,,,,,,,,243,37.4879,0.0656303
,,,,,,,,,266,64.3601,0.0306788
,,,,,,,,,242,69.6495,0.0235783
,,,,,,,,,265,119.781,0.0246284
,,,,,,,,,289,43.0851,0.0172526
,,,,,,,,,288,67.5216,0.0429588
,,,,,,,,,313,34.7868,0.0246081
,,,,,,,,,338,78.6582,0.0257542
