Q	U	V
{$V$}	{[mm$^3$]}	0.00118151
{$d_v$}	{[mm]}	0.131163
{$S_c$}	{[mm$^2$]}	0.10581
{$S_o$}	{[mm$^2$]}	0.0541685
{$S_l/S_o$}	[]	0.953349
{$\Psi$}	[]	0.510798
{$\eta$}	[]	0.543238
{med($\theta_e$)}	{[$^\circ$]}	67.86515
{$\Upsilon$}	[]	20
{$\Xi$}	[]	10
