facetNormals:0,facetNormals:1,facetNormals:2,FacetCenters:0,FacetCenters:1,FacetCenters:2,FacetIds,relFacetSize,absFacetSize,cellPairingIds,interplanarAngles,angleWeights
-0.255246,-0.245322,-0.873913,6.06213,5.46688,6.53492,1,0.050281,0.0216738,8,48.0987,0.0436415
0.438506,0.115679,-0.863095,6.15564,5.47464,6.52249,2,0.038551,0.0166175,13,31.8607,0.0257087
-0.627481,-0.489252,-0.58367,6.02871,5.43705,6.56263,3,0.0172692,0.00744394,19,85.4087,0.0659375
0.853754,0.166711,-0.378074,6.22133,5.48425,6.58155,4,0.095753,0.0412746,26,77.8903,0.0703804
0.260227,0.758566,-0.503246,6.14715,5.55624,6.59659,5,0.11725,0.0505409,34,67.5282,0.0409077
-0.953904,0.116859,-0.155695,5.98855,5.50256,6.57963,6,0.03448,0.0148627,43,93.9433,0.0464305
0.66177,-0.664587,0.0630214,6.26051,5.41917,6.67736,7,0.0431278,0.0185904,53,68.9806,0.0549035
-0.776962,-0.573076,0.0141361,5.99906,5.44889,6.6004,8,0.060462,0.0260623,64,100.145,0.0374997
-0.233075,-0.790975,0.470552,6.07842,5.46408,6.6812,9,0.0298993,0.0128882,76,113.353,0.0396794
-0.654075,0.562149,0.449097,6.02412,5.57197,6.70644,10,0.03277,0.0141256,89,101.624,0.0318197
-0.855243,-0.0202298,0.467401,6.00396,5.52161,6.68035,11,0.0232743,0.0100324,103,143.009,0.0581944
0.00744312,-0.301456,0.902371,6.12078,5.47499,6.76111,12,0.0690639,0.0297702,118,156.894,0.0569583
-0.109297,0.343903,0.870959,6.12636,5.52351,6.74146,13,0.0656806,0.0283118,18,79.701,0.0238532
,,,,,,,,,25,38.872,0.0549704
,,,,,,,,,33,46.4324,0.058024
,,,,,,,,,42,106.551,0.036402
,,,,,,,,,52,80.0145,0.0407112
,,,,,,,,,63,116.442,0.0470821
,,,,,,,,,75,130.391,0.0336784
,,,,,,,,,88,130,0.0354262
,,,,,,,,,102,145.233,0.0290252
,,,,,,,,,117,150.888,0.0494816
,,,,,,,,,133,145.76,0.0485851
,,,,,,,,,32,115.071,0.0292611
,,,,,,,,,41,104.929,0.0301045
,,,,,,,,,51,48.8439,0.0230126
,,,,,,,,,62,97.8619,0.0246629
,,,,,,,,,74,37.1282,0.0268652
,,,,,,,,,87,73.9777,0.0218933
,,,,,,,,,101,97.5899,0.0226187
,,,,,,,,,116,73.4675,0.019827
,,,,,,,,,132,114.134,0.0276297
,,,,,,,,,149,130.812,0.0273479
,,,,,,,,,50,53.123,0.105417
,,,,,,,,,61,142.854,0.0507024
,,,,,,,,,73,61.1377,0.05947
,,,,,,,,,86,146.561,0.0741212
,,,,,,,,,100,124.4,0.0455694
,,,,,,,,,115,133.469,0.048829
,,,,,,,,,131,169.885,0.0374466
,,,,,,,,,148,115.259,0.0802475
,,,,,,,,,166,114.11,0.0779158
,,,,,,,,,72,95.056,0.0532891
,,,,,,,,,85,114.117,0.0630603
,,,,,,,,,99,134.788,0.0797827
,,,,,,,,,114,176.774,0.0476481
,,,,,,,,,130,88.1194,0.0512236
,,,,,,,,,147,120.838,0.038839
,,,,,,,,,165,139.099,0.0869258
,,,,,,,,,184,103.335,0.0841964
,,,,,,,,,98,141.756,0.0383221
,,,,,,,,,113,44.3691,0.0439159
,,,,,,,,,129,86.4871,0.0320267
,,,,,,,,,146,49.1104,0.0336033
,,,,,,,,,164,38.7,0.0277901
,,,,,,,,,183,101.383,0.0459964
,,,,,,,,,203,89.4479,0.0452207
,,,,,,,,,128,98.3894,0.0503446
,,,,,,,,,145,63.2932,0.0353154
,,,,,,,,,163,148.357,0.0372422
,,,,,,,,,182,124.808,0.0302331
,,,,,,,,,202,72.9557,0.053098
,,,,,,,,,223,106.116,0.052067
,,,,,,,,,162,45.631,0.0400121
,,,,,,,,,181,78.1757,0.0425034
,,,,,,,,,201,43.5063,0.0336105
,,,,,,,,,222,78.7175,0.0644773
,,,,,,,,,244,96.2976,0.0629634
,,,,,,,,,200,95.0257,0.0312689
,,,,,,,,,221,61.9463,0.0261741
,,,,,,,,,243,42.9353,0.0417319
,,,,,,,,,266,79.4886,0.0410924
,,,,,,,,,242,36.9101,0.0272177
,,,,,,,,,265,75.5458,0.0444493
,,,,,,,,,289,44.3112,0.0437245
,,,,,,,,,288,62.97,0.0348158
,,,,,,,,,313,57.5141,0.0343695
,,,,,,,,,338,40.5598,0.0673298
