Q	U	V
{$V$}	{[mm$^3$]}	0.00139762
{$d_v$}	{[mm]}	0.138717
{$S_c$}	{[mm$^2$]}	0.108747
{$S_o$}	{[mm$^2$]}	0.0868162
{$S_l/S_o$}	[]	0.252612
{$\Psi$}	[]	0.555895
{$\eta$}	[]	0.746572
{med($\theta_e$)}	{[$^\circ$]}	88.8876
{$\Upsilon$}	[]	9
{$\Xi$}	[]	4
