"cellPairingIds","interplanarAngles","angleWeights"
26,77.8067,0.0129948
43,42.6059,0.0327684
64,76.3486,0.0700656
89,82.4513,0.0475636
103,135.054,0.0657777
114,65.1116,0.0130635
165,85.438,0.0129067
182,50.388,0.0271263
202,153.624,0.0322135
221,44.04,0.0484972
243,132.398,0.0675766
288,142.451,0.0464034
