facetNormals:0,facetNormals:1,facetNormals:2,FacetCenters:0,FacetCenters:1,FacetCenters:2,FacetIds,relFacetSize,absFacetSize,cellPairingIds,interplanarAngles,angleWeights
0.184699,-0.872494,-0.40974,6.78985,3.98037,6.26151,1,0.0667717,0.00352861,8,36.1092,0.0123274
0.692823,-0.537999,-0.449187,6.79743,3.98897,6.29169,2,0.00679051,0.00035885,13,87.0523,0.00500174
0.897539,0.28219,-0.318661,6.80169,4.01711,6.34991,3,0.00259818,0.000137303,19,69.2079,0.105185
-0.827931,-0.445092,-0.253172,6.72205,4.01625,6.30774,4,0.247666,0.0130881,26,111.642,0.0552669
-0.900737,0.324896,-0.228255,6.70057,4.07667,6.35955,5,0.0471439,0.00249136,34,52.6906,0.0104753
0.878227,-0.432766,-0.11357,6.79616,4.02125,6.35302,6,0.00568345,0.000300347,43,148.471,0.0526903
-0.601901,0.759243,0.100799,6.6977,4.08031,6.39276,7,0.0435137,0.00229952,53,77.2295,0.0265836
0.958325,-0.133509,0.193794,6.80213,4.00465,6.33833,8,0.0165953,0.000876995,64,41.7002,0.0155757
0.206342,-0.922217,0.289272,6.71636,4.04484,6.33655,9,0.00881608,0.000465893,76,51.1251,0.0595114
-0.266586,-0.889677,0.304789,6.74831,3.98904,6.34551,10,0.0536751,0.0028365,89,139.41,0.0406705
-0.734586,0.473105,0.445063,6.70907,4.09991,6.38233,11,0.0292404,0.00154523,103,83.9425,0.0930271
0.541723,-0.340104,0.724177,6.7621,4.03467,6.38727,12,0.15331,0.00810181,118,128.479,0.0404801
0.228235,0.308448,0.888443,6.74476,4.07564,6.40583,13,0.0290439,0.00153485,18,51.2195,0.00375835
,,,,,,,,,25,103.283,0.0132186
,,,,,,,,,33,135.871,0.0118711
,,,,,,,,,42,23.2743,0.00618785
,,,,,,,,,52,155.101,0.0117477
,,,,,,,,,63,48.1581,0.00963752
,,,,,,,,,75,58.4812,0.00767184
,,,,,,,,,88,80.6177,0.0120558
,,,,,,,,,102,175.504,0.0110215
,,,,,,,,,117,75.836,0.013005
,,,,,,,,,133,115.254,0.0110075
,,,,,,,,,32,144.578,0.00514242
,,,,,,,,,41,131.196,0.00492495
,,,,,,,,,51,44.1665,0.00356612
,,,,,,,,,62,111.72,0.00490358
,,,,,,,,,74,39.1006,0.00449295
,,,,,,,,,87,99.8071,0.00401354
,,,,,,,,,101,127.229,0.00495645
,,,,,,,,,116,133.269,0.00477232
,,,,,,,,,132,80.4355,0.00510977
,,,,,,,,,149,89.4768,0.00476969
,,,,,,,,,50,46.5579,0.07921
,,,,,,,,,61,121.809,0.0111119
,,,,,,,,,73,81.8228,0.0740221
,,,,,,,,,86,144.603,0.0311063
,,,,,,,,,100,80.0403,0.0170261
,,,,,,,,,115,55.4589,0.0882288
,,,,,,,,,131,72.6329,0.0523054
,,,,,,,,,148,120.718,0.189386
,,,,,,,,,166,125.807,0.0519909
,,,,,,,,,72,158.992,0.010144
,,,,,,,,,85,36.998,0.0452562
,,,,,,,,,99,168.19,0.0245491
,,,,,,,,,114,124.534,0.0148543
,,,,,,,,,130,97.0741,0.050198
,,,,,,,,,147,42.312,0.036094
,,,,,,,,,165,143.418,0.0721127
,,,,,,,,,184,108.873,0.0359439
,,,,,,,,,98,154.785,0.0100537
,,,,,,,,,113,25.5647,0.00846713
,,,,,,,,,129,55.8042,0.00691136
,,,,,,,,,146,83.0677,0.0102785
,,,,,,,,,164,158.693,0.00951707
,,,,,,,,,183,55.4057,0.0109606
,,,,,,,,,203,92.0393,0.0095066
,,,,,,,,,128,133.251,0.0240272
,,,,,,,,,145,145.692,0.0146616
,,,,,,,,,163,120.572,0.0480632
,,,,,,,,,182,27.6364,0.034977
,,,,,,,,,202,122.904,0.0677875
,,,,,,,,,223,78.598,0.034836
,,,,,,,,,162,67.2637,0.011515
,,,,,,,,,181,94.6161,0.0253522
,,,,,,,,,201,134.722,0.0211736
,,,,,,,,,222,42.3277,0.0299488
,,,,,,,,,244,68.5183,0.0211219
,,,,,,,,,200,27.9168,0.0151447
,,,,,,,,,221,118.28,0.0135475
,,,,,,,,,243,48.3258,0.0166734
,,,,,,,,,266,88.8234,0.0135263
,,,,,,,,,242,95.3536,0.0378574
,,,,,,,,,265,66.3488,0.0795123
,,,,,,,,,289,93.9082,0.0376923
,,,,,,,,,288,104.458,0.0491135
,,,,,,,,,313,66.81,0.0291418
,,,,,,,,,338,44.9188,0.0488361
