Q	U	V
{$V$}	{[mm$^3$]}	0.0107036
{$d_v$}	{[mm]}	0.273428
{$S_c$}	{[mm$^2$]}	0.391571
{$S_o$}	{[mm$^2$]}	0.245963
{$S_l/S_o$}	[]	0.591991
{$\Psi$}	[]	0.599828
{$\eta$}	[]	0.616578
{med($\theta_e$)}	{[$^\circ$]}	46.7988
{$\Upsilon$}	[]	20
{$\Xi$}	[]	15
