Q	U	V
{$V$}	{[mm$^3$]}	0.0120858
{$d_v$}	{[mm]}	0.284725
{$S_c$}	{[mm$^2$]}	0.528195
{$S_o$}	{[mm$^2$]}	0.334461
{$S_l/S_o$}	[]	0.579242
{$\Psi$}	[]	0.482177
{$\eta$}	[]	0.501845
{med($\theta_e$)}	{[$^\circ$]}	87.691
{$\Upsilon$}	[]	12
{$\Xi$}	[]	13
