facetNormals:0,facetNormals:1,facetNormals:2,FacetCenters:0,FacetCenters:1,FacetCenters:2,FacetIds,relFacetSize,absFacetSize,cellPairingIds,interplanarAngles,angleWeights
0.775522,-0.161209,-0.48928,4.96614,7.24171,7.4958,1,0.0599995,0.0112002,8,64.8529,0.0672897
0.244088,-0.936055,-0.0903135,5.05536,7.13846,7.54058,2,0.0765966,0.0142985,13,90.491,0.0355578
-0.206949,-0.965829,0.00631253,4.99258,7.1538,7.55189,3,0.0252656,0.00471638,19,108.349,0.0394664
-0.499285,-0.851653,0.0826703,4.92027,7.25224,7.56709,4,0.0294039,0.00548888,26,74.9231,0.0516166
0.400226,-0.776878,0.412103,5.11364,7.15404,7.56629,5,0.0452889,0.00845419,34,53.7886,0.042291
0.868908,-0.216831,0.362574,5.07306,7.198,7.59273,6,0.0326535,0.0060955,43,160.775,0.0749512
-0.831303,-0.148126,0.452143,4.86982,7.2321,7.53972,7,0.099828,0.0186351,53,146.741,0.0260336
-0.526069,0.651723,0.520525,4.93919,7.2898,7.57353,8,0.0166232,0.00310309,64,93.2731,0.0876628
0.367945,0.721062,0.446043,5.03341,7.2797,7.57627,9,0.162657,0.0303636,76,135.509,0.0609963
-0.509965,-0.484433,0.668876,4.94303,7.17185,7.59695,10,0.0620268,0.0115787,89,89.1737,0.0504284
0.54066,0.0749287,0.805569,5.08463,7.19537,7.59502,11,0.0434907,0.00811851,103,142.047,0.0523963
-0.311186,0.348784,0.858458,4.97384,7.24707,7.60936,12,0.0465034,0.00868089,118,107.638,0.0547122
0.102172,-0.431911,0.864577,5.04159,7.19065,7.60587,13,0.0502814,0.00938614,18,27.2746,0.0379975
,,,,,,,,,25,46.0621,0.0424948
,,,,,,,,,33,32.9563,0.0569219
,,,,,,,,,42,65.9659,0.0457875
,,,,,,,,,52,96.4842,0.0866828
,,,,,,,,,63,145.068,0.0273178
,,,,,,,,,75,134.145,0.104149
,,,,,,,,,88,73.4534,0.068546
,,,,,,,,,102,90.662,0.0554803
,,,,,,,,,117,120.358,0.0578717
,,,,,,,,,133,68.1673,0.06071
,,,,,,,,,32,18.7914,0.0271781
,,,,,,,,,41,45.4017,0.0324359
,,,,,,,,,51,88.085,0.0284883
,,,,,,,,,62,70.3628,0.0403252
,,,,,,,,,74,122.078,0.0200528
,,,,,,,,,87,147.473,0.0437374
,,,,,,,,,101,52.9522,0.0359056
,,,,,,,,,116,100.743,0.0319627
,,,,,,,,,132,106.057,0.0327421
,,,,,,,,,149,65.2783,0.0336317
,,,,,,,,,50,58.7985,0.0356572
,,,,,,,,,61,103.239,0.0309436
,,,,,,,,,73,52.4287,0.0454273
,,,,,,,,,86,104.788,0.0212391
,,,,,,,,,100,146.205,0.0498045
,,,,,,,,,115,41.2928,0.0398953
,,,,,,,,,131,106.089,0.0350862
,,,,,,,,,148,94.1872,0.0360276
,,,,,,,,,166,66.2146,0.0371077
,,,,,,,,,72,44.5175,0.037947
,,,,,,,,,85,91.9384,0.0623098
,,,,,,,,,99,121.819,0.0243198
,,,,,,,,,114,104.865,0.0708508
,,,,,,,,,130,61.4725,0.0523526
,,,,,,,,,147,58.5781,0.0443716
,,,,,,,,,165,92.5328,0.0458881
,,,,,,,,,184,38.7092,0.0476548
,,,,,,,,,98,124.658,0.0492104
,,,,,,,,,113,115.468,0.0220309
,,,,,,,,,129,68.6515,0.0543885
,,,,,,,,,146,95.8482,0.0427838
,,,,,,,,,164,37.5255,0.0373009
,,,,,,,,,183,92.1097,0.0383668
,,,,,,,,,203,58.1202,0.039594
,,,,,,,,,128,52.4129,0.0285005
,,,,,,,,,145,103.789,0.123723
,,,,,,,,,163,30.8552,0.0765131
,,,,,,,,,182,95.9317,0.0605865
,,,,,,,,,202,50.528,0.0634497
,,,,,,,,,223,66.5823,0.0668777
,,,,,,,,,162,56.0853,0.0301637
,,,,,,,,,181,71.6884,0.0262195
,,,,,,,,,201,78.9615,0.0240528
,,,,,,,,,222,29.629,0.0244916
,,,,,,,,,244,83.1202,0.0249859
,,,,,,,,,200,105.424,0.089807
,,,,,,,,,221,47.0952,0.0686311
,,,,,,,,,243,54.8672,0.0723282
,,,,,,,,,266,82.8503,0.0768168
,,,,,,,,,242,76.1053,0.0511307
,,,,,,,,,265,53.531,0.0531549
,,,,,,,,,289,38.774,0.0555399
,,,,,,,,,288,54.7141,0.0449466
,,,,,,,,,313,40.4759,0.0466402
,,,,,,,,,338,53.8954,0.0483186
