"cellPairingIds","interplanarAngles","angleWeights"
13,45.1427,0.0153032
134,109.617,0.0182907
151,119.822,0.0191911
169,146.883,0.0198055
186,116.149,0.0389435
206,161.7,0.0415593
450,63.214,0.0666439
481,44.9696,0.0746888
512,72.315,0.0923896
