"cellPairingIds","interplanarAngles","angleWeights"
8,63.4347,0.031886
13,72.744,0.0327317
19,74.1748,0.0420676
26,72.8418,0.0380511
34,66.3008,0.033691
64,84.3485,0.0394845
18,57.1578,0.0366721
25,55.8814,0.0488078
52,84.714,0.0433607
63,94.9627,0.0588944
41,70.137,0.0450707
62,88.3312,0.0449398
101,93.5582,0.0202816
61,77.8615,0.053168
86,41.2268,0.106507
131,72.447,0.0526135
114,52.7409,0.0589541
130,41.1734,0.0222051
129,33.4262,0.0491076
164,36.5218,0.0401336
128,81.0337,0.0835923
163,94.2279,0.0221732
223,35.106,0.0496974
245,63.2716,0.0623475
201,38.1382,0.0645265
244,52.6229,0.0712304
267,57.81,0.100439
200,47.825,0.0226856
221,46.6682,0.0486342
243,28.4568,0.032463
265,57.9303,0.0169846
314,61.5681,0.0232057
288,23.2388,0.0282824
339,46.6292,0.0510886
365,42.2728,0.0335385
392,33.9253,0.0552021
