"cellPairingIds","interplanarAngles","angleWeights"
8,51.9802,0.0651577
19,74.7309,0.0616239
34,55.5429,0.0946979
43,81.4591,0.0192228
64,56.3529,0.0997501
118,99.2537,0.0631748
25,75.6832,0.0505484
33,60.389,0.0382584
52,43.4756,0.017993
117,82.5505,0.0530343
50,56.5447,0.0370122
61,56.5568,0.0666866
86,44.7559,0.0557517
115,61.0504,0.0423116
99,52.4593,0.0411663
147,37.6328,0.0277747
165,41.8242,0.0383276
270,86.8085,0.0279644
129,49.724,0.113725
146,44.4224,0.0556588
202,62.7496,0.0180083
223,62.0077,0.0178384
317,84.073,0.0153377
181,51.7403,0.0478291
201,30.5489,0.0371436
267,44.3193,0.0330743
316,52.7384,0.038967
200,74.9783,0.0573665
266,71.7296,0.0711121
290,95.6379,0.0373706
368,115.539,0.0430992
314,33.1684,0.02783
394,41.9447,0.0267558
423,60.7778,0.026048
452,47.1333,0.0351155
482,60.2774,0.0344752
481,36.1214,0.0245776
513,63.4134,0.0239791
578,31.0069,0.0269318
