Q	U	V
{$V$}	{[mm$^3$]}	0.00500152
{$d_v$}	{[mm]}	0.212178
{$S_c$}	{[mm$^2$]}	0.322624
{$S_o$}	{[mm$^2$]}	0.184393
{$S_l/S_o$}	[]	0.749654
{$\Psi$}	[]	0.438385
{$\eta$}	[]	0.488736
{med($\theta_e$)}	{[$^\circ$]}	60.8249
{$\Upsilon$}	[]	16
{$\Xi$}	[]	7
