facetNormals:0,facetNormals:1,facetNormals:2,FacetCenters:0,FacetCenters:1,FacetCenters:2,FacetIds,relFacetSize,absFacetSize,cellPairingIds,interplanarAngles,angleWeights
-0.0748498,0.614284,-0.678221,4.27489,4.3858,7.81588,1,0.108036,0.0256527,8,99.0396,0.0348253
-0.158766,-0.791848,-0.497888,4.29451,4.22573,8.04974,2,0.0207584,0.00492901,13,78.4172,0.0424883
0.914195,0.000838439,-0.36799,4.37815,4.36536,7.86342,3,0.0264441,0.00627907,19,42.6228,0.0340248
0.431658,0.850274,-0.262771,4.3338,4.39598,7.92411,4,0.0201921,0.00479454,26,70.9315,0.0764303
0.845247,0.444159,-0.116405,4.39716,4.35515,7.94972,5,0.0591317,0.0140406,34,70.858,0.121444
-0.811242,0.480947,0.103968,4.25562,4.35045,7.97654,6,0.138653,0.0329226,43,126.765,0.0887595
0.749696,-0.436648,0.254307,4.3874,4.25016,8.06131,7,0.0753205,0.0178846,53,85.9203,0.0668049
0.702907,0.57402,0.348702,4.36333,4.35024,8.05237,8,0.0483519,0.011481,64,156.014,0.0408385
0.393977,-0.750356,0.483947,4.37353,4.23934,8.06617,9,0.025178,0.00597842,76,119.474,0.093325
-0.79749,-0.452041,0.32679,4.25949,4.30079,7.99725,10,0.0821403,0.0195039,89,82.0917,0.108788
0.0966646,0.77098,0.5141,4.31762,4.37069,7.99066,11,0.109552,0.0260127,18,87.7068,0.0232588
,,,,,,,,,25,130.623,0.0204713
,,,,,,,,,33,117.965,0.0307292
,,,,,,,,,42,109.724,0.0361105
,,,,,,,,,52,83.2972,0.0325468
,,,,,,,,,63,143.322,0.0290465
,,,,,,,,,75,71.7043,0.0227556
,,,,,,,,,88,69.5992,0.0331414
,,,,,,,,,102,176.02,0.0349032
,,,,,,,,,32,59.6836,0.022899
,,,,,,,,,41,30.6006,0.036545
,,,,,,,,,51,146.476,0.044417
,,,,,,,,,62,48.4097,0.0391449
,,,,,,,,,74,57.5015,0.0341896
,,,,,,,,,87,79.1249,0.0257955
,,,,,,,,,101,152.37,0.0400081
,,,,,,,,,116,96.2631,0.0426042
,,,,,,,,,50,35.6528,0.0301043
,,,,,,,,,61,88.0803,0.0352506
,,,,,,,,,73,97.3552,0.0318466
,,,,,,,,,86,43.2978,0.0284875
,,,,,,,,,100,128.061,0.0224111
,,,,,,,,,115,147.791,0.0324156
,,,,,,,,,131,52.4078,0.0340992
,,,,,,,,,72,122.04,0.0829061
,,,,,,,,,85,61.8613,0.0662515
,,,,,,,,,99,30.169,0.0532012
,,,,,,,,,114,93.4568,0.0353178
,,,,,,,,,130,167.207,0.0687623
,,,,,,,,,147,66.0154,0.0768063
,,,,,,,,,98,157.368,0.097614
,,,,,,,,,113,106.236,0.0717
,,,,,,,,,129,132.887,0.0426171
,,,,,,,,,146,59.8684,0.103164
,,,,,,,,,164,66.9699,0.122396
,,,,,,,,,128,65.464,0.0588957
,,,,,,,,,145,32.2671,0.0377402
,,,,,,,,,163,111.145,0.0785827
,,,,,,,,,182,99.1149,0.089267
,,,,,,,,,162,89.0964,0.0331131
,,,,,,,,,181,138.269,0.0608716
,,,,,,,,,201,40.4022,0.0670919
,,,,,,,,,200,78.882,0.0385419
,,,,,,,,,221,108.707,0.0409456
,,,,,,,,,242,106.505,0.0938862
