"cellPairingIds","interplanarAngles","angleWeights"
8,44.3875,0.0140139
13,43.9649,0.0178909
19,52.6133,0.0173993
26,68.1487,0.0182061
34,74.0786,0.0147669
64,110.598,0.0200193
18,46.0851,0.0313329
63,78.3085,0.0378575
75,81.4342,0.0385016
88,77.1334,0.0283856
32,42.639,0.0554585
74,60.9154,0.0913111
61,69.4757,0.0334938
86,82.5726,0.0798019
131,86.8272,0.0467412
72,38.7339,0.0366175
85,44.6043,0.060216
114,76.7332,0.104797
98,51.7851,0.0340147
164,74.0914,0.0316058
145,65.0263,0.0859701
182,68.6155,0.0477617
202,61.5247,0.0397436
181,36.3875,0.0701
201,86.2553,0.0698593
222,82.4489,0.0539418
200,65.8018,0.072341
243,74.3596,0.0552591
265,70.128,0.0365594
288,37.0525,0.0364938
