Q	U	V
{$V$}	{[mm$^3$]}	0.0042095
{$d_v$}	{[mm]}	0.200329
{$S_c$}	{[mm$^2$]}	0.272141
{$S_o$}	{[mm$^2$]}	0.137993
{$S_l/S_o$}	[]	0.972136
{$\Psi$}	[]	0.46328
{$\eta$}	[]	0.547349
{med($\theta_e$)}	{[$^\circ$]}	98.4452
{$\Upsilon$}	[]	16
{$\Xi$}	[]	9
