Q	U	V
{$V$}	{[mm$^3$]}	0.00643359
{$d_v$}	{[mm]}	0.230755
{$S_c$}	{[mm$^2$]}	0.328917
{$S_o$}	{[mm$^2$]}	0.206463
{$S_l/S_o$}	[]	0.593104
{$\Psi$}	[]	0.508589
{$\eta$}	[]	0.580678
{med($\theta_e$)}	{[$^\circ$]}	67.93155
{$\Upsilon$}	[]	18
{$\Xi$}	[]	11
