"cellPairingIds","interplanarAngles","angleWeights"
8,32.6388,0.0402753
13,48.0056,0.0405527
19,45.7093,0.043017
43,40.0592,0.0394947
76,76.6788,0.0457012
18,36.0748,0.0853301
52,48.2321,0.0807769
75,65.8444,0.0341037
32,38.5581,0.0986514
51,51.4688,0.0650023
87,97.4327,0.0343024
61,47.044,0.0715747
115,72.2912,0.135894
131,72.8079,0.0684578
129,139.286,0.0303148
164,55.8589,0.0503653
183,41.1044,0.0371533
145,51.8684,0.0335424
163,79.4379,0.106023
223,74.8274,0.05652
243,148.686,0.0245797
266,56.7198,0.0288722
242,56.8637,0.0755164
289,80.0557,0.0701545
288,27.3812,0.0362955
313,104.606,0.0465048
338,114.591,0.0350094
