facetNormals:0,facetNormals:1,facetNormals:2,FacetCenters:0,FacetCenters:1,FacetCenters:2,FacetIds,relFacetSize,absFacetSize,cellPairingIds,interplanarAngles,angleWeights
0.690473,0.042178,-0.673778,7.63279,4.00792,8.4051,1,0.0781937,0.00976331,8,87.9706,0.086918
-0.599176,0.364637,-0.639365,7.62847,4.03497,8.44416,2,0.0978337,0.0122156,13,111.467,0.0386781
-0.877099,-0.202494,-0.395743,7.5409,4.04887,8.47558,3,0.0256937,0.00320812,19,128.202,0.0201178
-0.936769,0.304636,-0.0658554,7.5223,4.05831,8.47584,4,0.0115439,0.00144138,26,112.921,0.0142564
-0.688699,0.709526,-0.106246,7.61999,4.06388,8.49025,5,0.00784319,0.000979305,34,50.3536,0.0988173
0.623694,0.722557,-0.209192,7.61274,4.09093,8.48175,6,0.134217,0.0167584,43,94.9616,0.0536285
-0.192036,0.951267,-0.0169345,7.55987,4.08724,8.47829,7,0.0408082,0.00509534,53,50.0574,0.095707
0.917617,0.0857582,0.0933579,7.6555,3.99672,8.50597,8,0.12333,0.015399,64,139.708,0.0712513
-0.86292,-0.387759,0.136298,7.63024,3.96156,8.50544,9,0.0654412,0.00817103,76,146.634,0.0802799
-0.600092,0.489738,0.559234,7.58659,4.06931,8.55084,10,0.0824805,0.0102986,89,115.311,0.057539
0.0489436,-0.752994,0.589917,7.62748,3.99329,8.55188,11,0.045516,0.00568315,103,142.814,0.0328861
-0.496577,-0.627665,0.581224,7.59509,4.00639,8.56118,12,0.0208215,0.00259979,118,169.598,0.0418458
-0.632942,-0.202576,0.72263,7.57207,4.03359,8.56648,13,0.0285667,0.00356686,134,130.577,0.0270052
-0.186229,0.59374,0.767347,7.58905,4.07925,8.58337,14,0.0163209,0.00203784,151,102.684,0.035774
0.373606,0.535197,0.722863,7.61901,4.06639,8.57409,15,0.0231923,0.00289581,169,112.345,0.0304184
0.366603,-0.0596381,0.904991,7.62789,4.00936,8.5687,16,0.0188818,0.0023576,18,40.9636,0.0406988
,,,,,,,,,25,40.3128,0.0206511
,,,,,,,,,33,38.4386,0.0145222
,,,,,,,,,42,88.5469,0.113173
,,,,,,,,,52,59.1224,0.0575933
,,,,,,,,,63,131.125,0.109112
,,,,,,,,,75,71.4556,0.0784242
,,,,,,,,,88,78.512,0.0895034
,,,,,,,,,102,138.523,0.0621278
,,,,,,,,,117,108.827,0.0343356
,,,,,,,,,133,99.6784,0.0442212
,,,,,,,,,150,99.9821,0.027975
,,,,,,,,,168,122.077,0.0374959
,,,,,,,,,187,152.035,0.0316544
,,,,,,,,,32,35.9369,0.0159304
,,,,,,,,,41,59.0842,0.0120178
,,,,,,,,,51,129.453,0.0431307
,,,,,,,,,62,91.05,0.0315333
,,,,,,,,,74,160.598,0.0425274
,,,,,,,,,87,33.7524,0.0368997
,,,,,,,,,101,77.3419,0.0391817
,,,,,,,,,116,97.5597,0.0328459
,,,,,,,,,132,70.0018,0.0230024
,,,,,,,,,149,71.2572,0.0270541
,,,,,,,,,167,105.558,0.0199618
,,,,,,,,,186,138.941,0.024379
,,,,,,,,,206,133.951,0.0217673
,,,,,,,,,50,27.8258,0.00934035
,,,,,,,,,61,111.296,0.0212594
,,,,,,,,,73,60.5728,0.0179969
,,,,,,,,,86,156.648,0.0211118
,,,,,,,,,100,43.7839,0.0196258
,,,,,,,,,115,44.3447,0.0202532
,,,,,,,,,131,109.4,0.0184169
,,,,,,,,,148,76.0333,0.014853
,,,,,,,,,166,60.0685,0.0164431
,,,,,,,,,185,71.7903,0.013523
,,,,,,,,,205,104.119,0.0154151
,,,,,,,,,226,115.856,0.014328
,,,,,,,,,72,83.7757,0.0148203
,,,,,,,,,85,33.0582,0.0131575
,,,,,,,,,99,129.103,0.0147484
,,,,,,,,,114,71.3045,0.0140076
,,,,,,,,,130,42.4227,0.0143243
,,,,,,,,,147,131.458,0.0133807
,,,,,,,,,165,99.6625,0.0113943
,,,,,,,,,184,77.2549,0.0123073
,,,,,,,,,204,61.5536,0.0105949
,,,,,,,,,225,87.2996,0.0117222
,,,,,,,,,247,113.694,0.0110828
,,,,,,,,,98,52.9749,0.0625871
,,,,,,,,,113,47.2229,0.128543
,,,,,,,,,129,155.061,0.0879836
,,,,,,,,,146,98.4636,0.102173
,,,,,,,,,164,132.888,0.0679788
,,,,,,,,,183,156.271,0.0360504
,,,,,,,,,203,136.191,0.0471072
,,,,,,,,,224,80.9207,0.0291029
,,,,,,,,,246,60.5087,0.0395505
,,,,,,,,,269,90.2254,0.0331062
,,,,,,,,,128,96.1433,0.0613249
,,,,,,,,,145,102.795,0.0502693
,,,,,,,,,163,51.9406,0.0546016
,,,,,,,,,182,142.312,0.0430337
,,,,,,,,,202,122.198,0.027574
,,,,,,,,,223,95.0207,0.0336075
,,,,,,,,,245,52.2109,0.0233166
,,,,,,,,,268,63.2739,0.0295759
,,,,,,,,,292,98.629,0.0258178
,,,,,,,,,162,156.565,0.0855094
,,,,,,,,,181,121.049,0.0988512
,,,,,,,,,201,87.7128,0.0664923
,,,,,,,,,222,119.791,0.035628
,,,,,,,,,244,125.701,0.0463885
,,,,,,,,,267,93.0273,0.028827
,,,,,,,,,291,59.6241,0.0390426
,,,,,,,,,316,62.6889,0.0327497
,,,,,,,,,200,63.73,0.0729795
,,,,,,,,,221,68.861,0.0536896
,,,,,,,,,243,37.3942,0.0315915
,,,,,,,,,266,39.5812,0.039772
,,,,,,,,,290,87.8721,0.026126
,,,,,,,,,315,117.608,0.0342474
,,,,,,,,,341,100.468,0.0293075
,,,,,,,,,242,94.2767,0.0586607
,,,,,,,,,265,70.4868,0.0332495
,,,,,,,,,289,43.1091,0.042436
,,,,,,,,,314,28.2185,0.0272498
,,,,,,,,,340,61.627,0.0362045
,,,,,,,,,367,74.0448,0.030729
,,,,,,,,,288,33.3707,0.0285724
,,,,,,,,,313,54.3654,0.0351025
,,,,,,,,,339,90.2135,0.0240265
,,,,,,,,,366,87.437,0.0307276
,,,,,,,,,394,50.4419,0.0266911
,,,,,,,,,338,27.4868,0.0240868
,,,,,,,,,365,80.231,0.0182985
,,,,,,,,,393,96.0363,0.0219431
,,,,,,,,,422,66.7867,0.0198043
,,,,,,,,,392,55.3037,0.0207734
,,,,,,,,,421,79.3034,0.0256005
,,,,,,,,,451,63.1335,0.0227359
,,,,,,,,,450,33.4438,0.0191592
,,,,,,,,,481,52.3187,0.0175082
,,,,,,,,,512,37.1661,0.0208163
