facetNormals:0,facetNormals:1,facetNormals:2,FacetCenters:0,FacetCenters:1,FacetCenters:2,FacetIds,relFacetSize,absFacetSize,cellPairingIds,interplanarAngles,angleWeights
0.300062,0.230874,-0.891851,6.19438,4.0726,6.70198,1,0.0334691,0.00661361,8,42.2665,0.0364724
0.597781,-0.356948,-0.665711,6.29706,4.06828,6.74302,2,0.0400678,0.00791754,13,60.0253,0.0453312
-0.616804,0.161658,-0.666208,6.11776,4.10855,6.7455,3,0.0702175,0.0138752,19,90.088,0.044894
-0.152921,-0.925291,-0.289343,6.15295,4.02486,6.82271,4,0.0681614,0.0134689,26,103.967,0.0303799
-0.815228,-0.509144,-0.150964,6.09326,4.07757,6.80015,5,0.0278128,0.00549591,34,85.2188,0.0316519
-0.759545,0.588896,-0.191845,6.11739,4.19708,6.81938,6,0.0300218,0.00593241,43,88.4513,0.0465911
0.416072,-0.878337,-0.116128,6.29457,4.03642,6.80198,7,0.0766382,0.015144,53,109.996,0.0444003
0.380671,-0.861716,0.268959,6.25093,4.03205,6.858,8,0.065935,0.013029,64,120.767,0.0312282
-0.457283,-0.858955,0.173047,6.16033,4.02819,6.77341,9,0.0292685,0.00578356,76,124.256,0.0329124
-0.0879448,-0.926572,0.33557,6.21935,4.0279,6.83209,10,0.0323739,0.00639719,89,115.27,0.0506578
-0.932834,0.0907265,0.14981,6.08812,4.13184,6.86652,11,0.104142,0.0205787,103,98.9969,0.0268766
-0.209812,0.895261,0.326964,6.13627,4.20931,6.89505,12,0.0224539,0.00443696,118,96.9393,0.0252433
0.328597,0.808365,0.448599,6.18473,4.16765,6.92326,13,0.0202631,0.00400406,134,138.161,0.0166563
-0.627653,-0.636744,0.425369,6.12166,4.05801,6.7921,14,0.0110869,0.00219081,151,89.5575,0.0253663
0.882047,0.123131,0.320696,6.32529,4.10164,6.84852,15,0.0204221,0.00403548,169,114.914,0.019056
0.517764,0.408276,0.730112,6.26274,4.13109,6.94679,16,0.0133199,0.00263206,188,134.381,0.0362509
0.358184,-0.561975,0.721124,6.2553,4.06719,6.94469,17,0.039537,0.00781265,208,160.563,0.0389291
-0.589877,-0.151446,0.760305,6.13623,4.1052,6.91933,18,0.0465176,0.00919205,229,167.899,0.0407664
-0.131524,-0.347873,0.906504,6.15778,4.11399,6.93786,19,0.0521331,0.0103017,251,139.556,0.0264973
0.066434,0.331617,0.913772,6.17912,4.11721,6.9404,20,0.0219293,0.00433331,18,88.898,0.0510215
,,,,,,,,,25,62.8456,0.0504684
,,,,,,,,,33,102.64,0.0328341
,,,,,,,,,42,124.633,0.0343248
,,,,,,,,,52,47.2897,0.0526233
,,,,,,,,,63,67.8317,0.0498453
,,,,,,,,,75,94.938,0.0338272
,,,,,,,,,88,86.7053,0.0358123
,,,,,,,,,102,138.973,0.0578704
,,,,,,,,,117,134.819,0.0287797
,,,,,,,,,133,114.421,0.0269149
,,,,,,,,,150,116.871,0.017368
,,,,,,,,,168,72.7873,0.0270547
,,,,,,,,,187,109.881,0.0199934
,,,,,,,,,207,93.9617,0.0398007
,,,,,,,,,228,149.042,0.0430525
,,,,,,,,,250,126.236,0.045311
,,,,,,,,,273,137.047,0.0283452
,,,,,,,,,32,81.2616,0.0691742
,,,,,,,,,41,54.4937,0.0398438
,,,,,,,,,51,40.083,0.0420604
,,,,,,,,,62,110.849,0.0732875
,,,,,,,,,74,127.764,0.0680089
,,,,,,,,,87,88.2451,0.0413156
,,,,,,,,,101,110.472,0.0443159
,,,,,,,,,116,55.9374,0.0838794
,,,,,,,,,132,86.4125,0.0340268
,,,,,,,,,149,114.197,0.0314504
,,,,,,,,,167,89.9486,0.0191501
,,,,,,,,,186,147.694,0.0316416
,,,,,,,,,206,144.628,0.0223922
,,,,,,,,,227,151.031,0.0505891
,,,,,,,,,249,100.724,0.0559618
,,,,,,,,,272,129.853,0.0598388
,,,,,,,,,296,131.564,0.0334211
,,,,,,,,,50,47.9599,0.0395056
,,,,,,,,,61,112.832,0.0416838
,,,,,,,,,73,35.4387,0.0721517
,,,,,,,,,86,46.547,0.0670297
,,,,,,,,,100,32.8806,0.0409522
,,,,,,,,,115,37.1766,0.043898
,,,,,,,,,131,89.0555,0.0823948
,,,,,,,,,148,158.454,0.0337799
,,,,,,,,,166,164.517,0.0312394
,,,,,,,,,185,54.6612,0.0190717
,,,,,,,,,205,111.574,0.031428
,,,,,,,,,226,133.792,0.022285
,,,,,,,,,248,74.56,0.0500453
,,,,,,,,,271,89.3799,0.0552971
,,,,,,,,,295,85.2457,0.0590794
,,,,,,,,,320,127.443,0.0331828
,,,,,,,,,72,68.5737,0.0288751
,,,,,,,,,85,82.4251,0.0408139
,,,,,,,,,99,84.7148,0.0391228
,,,,,,,,,114,35.3838,0.0285221
,,,,,,,,,130,59.2071,0.0299205
,,,,,,,,,147,41.4963,0.0439011
,,,,,,,,,165,110.603,0.0248477
,,,,,,,,,184,141.509,0.0234452
,,,,,,,,,204,36.7707,0.015854
,,,,,,,,,225,154.345,0.0235513
,,,,,,,,,247,140.652,0.0180131
,,,,,,,,,270,96.8981,0.0326545
,,,,,,,,,294,62.1194,0.0348118
,,,,,,,,,319,81.0999,0.0362738
,,,,,,,,,345,112.38,0.0245231
,,,,,,,,,98,147.716,0.043143
,,,,,,,,,113,152.054,0.0412579
,,,,,,,,,129,101.415,0.0296404
,,,,,,,,,146,124.072,0.0311535
,,,,,,,,,164,37.9793,0.0466076
,,,,,,,,,183,49.2884,0.0256921
,,,,,,,,,203,81.6045,0.0241955
,,,,,,,,,224,88.8102,0.0161936
,,,,,,,,,246,135.261,0.0243085
,,,,,,,,,269,107.685,0.0184528
,,,,,,,,,293,140.387,0.0341286
,,,,,,,,,318,77.1092,0.0364921
,,,,,,,,,344,106.882,0.0381019
,,,,,,,,,371,91.8288,0.0253453
,,,,,,,,,128,22.7972,0.0708849
,,,,,,,,,145,55.7769,0.0423597
,,,,,,,,,163,40.3276,0.0455193
,,,,,,,,,182,121.485,0.0882978
,,,,,,,,,202,162.615,0.0347318
,,,,,,,,,223,130.632,0.0320518
,,,,,,,,,245,75.1286,0.0193714
,,,,,,,,,268,76.1621,0.0322503
,,,,,,,,,292,103.694,0.0226954
,,,,,,,,,317,54.4431,0.0521634
,,,,,,,,,343,102.151,0.0578946
,,,,,,,,,370,81.2706,0.062054
,,,,,,,,,398,112.811,0.034101
,,,,,,,,,162,50.7501,0.0405409
,,,,,,,,,181,28.0776,0.0434258
,,,,,,,,,201,115.001,0.0807469
,,,,,,,,,222,142.981,0.0334996
,,,,,,,,,244,117.971,0.0309995
,,,,,,,,,267,64.0694,0.018982
,,,,,,,,,291,70.0826,0.0311852
,,,,,,,,,316,87.5233,0.0221627
,,,,,,,,,342,32.1377,0.0494325
,,,,,,,,,369,83.3545,0.0545499
,,,,,,,,,397,59.0619,0.0582274
,,,,,,,,,426,90.8825,0.0329123
,,,,,,,,,200,23.8782,0.030743
,,,,,,,,,221,66.4665,0.0456947
,,,,,,,,,243,129.726,0.0254123
,,,,,,,,,266,142.271,0.0239472
,,,,,,,,,290,21.965,0.016082
,,,,,,,,,315,119.003,0.0240579
,,,,,,,,,341,118.309,0.018308
,,,,,,,,,368,62.7929,0.0336365
,,,,,,,,,396,56.501,0.0359301
,,,,,,,,,425,57.8162,0.0374896
,,,,,,,,,455,99.3887,0.0250729
,,,,,,,,,242,87.0551,0.0493932
,,,,,,,,,265,136.583,0.0265164
,,,,,,,,,289,130.262,0.0249253
,,,,,,,,,314,36.4539,0.0165172
,,,,,,,,,340,95.1487,0.0250452
,,,,,,,,,367,100.587,0.0188742
,,,,,,,,,395,41.1782,0.0355987
,,,,,,,,,424,62.3455,0.0381779
,,,,,,,,,454,48.836,0.0399435
,,,,,,,,,485,90.3848,0.0261472
,,,,,,,,,288,69.3985,0.0369426
,,,,,,,,,313,100.267,0.0339253
,,,,,,,,,339,50.9964,0.0200403
,,,,,,,,,366,148.202,0.0341479
,,,,,,,,,394,111.128,0.023619
,,,,,,,,,423,107.296,0.0573147
,,,,,,,,,453,45.2942,0.0643097
,,,,,,,,,484,75.8763,0.0694831
,,,,,,,,,516,83.4802,0.0362297
,,,,,,,,,338,33.1779,0.0213023
,,,,,,,,,365,108.043,0.0148443
,,,,,,,,,393,88.1373,0.0213898
,,,,,,,,,422,58.9223,0.0167208
,,,,,,,,,452,110.941,0.0286416
,,,,,,,,,483,75.5784,0.0302879
,,,,,,,,,515,89.2479,0.0313886
,,,,,,,,,548,52.2832,0.0221885
,,,,,,,,,392,123.074,0.0143321
,,,,,,,,,421,54.96,0.0203423
,,,,,,,,,451,30.9631,0.0160738
,,,,,,,,,482,90.7783,0.026794
,,,,,,,,,514,88.5122,0.0282295
,,,,,,,,,547,85.0933,0.0291833
,,,,,,,,,581,42.9433,0.0210633
,,,,,,,,,450,121.925,0.0143716
,,,,,,,,,481,106.361,0.0121013
,,,,,,,,,513,63.1061,0.0173176
,,,,,,,,,546,35.0004,0.0179061
,,,,,,,,,580,44.6934,0.0182852
,,,,,,,,,615,81.9055,0.0147278
,,,,,,,,,512,37.2657,0.0161236
,,,,,,,,,545,59.0504,0.0269327
,,,,,,,,,579,108.666,0.0283834
,,,,,,,,,614,81.8261,0.0293478
,,,,,,,,,650,64.8154,0.0211489
,,,,,,,,,578,60.0325,0.0199266
,,,,,,,,,613,78.6955,0.0207098
,,,,,,,,,649,62.0552,0.0212186
,,,,,,,,,686,29.1752,0.0165732
,,,,,,,,,648,63.8139,0.0427442
,,,,,,,,,685,33.5205,0.0449697
,,,,,,,,,723,58.7459,0.0282112
,,,,,,,,,722,30.8451,0.0491656
,,,,,,,,,761,50.375,0.029807
,,,,,,,,,800,42.4678,0.0308724
