facetNormals:0,facetNormals:1,facetNormals:2,FacetCenters:0,FacetCenters:1,FacetCenters:2,FacetIds,relFacetSize,absFacetSize,cellPairingIds,interplanarAngles,angleWeights
-0.610248,-0.145746,-0.760681,6.30067,6.57044,7.26353,1,0.012523,0.00492125,8,69.2818,0.0206514
0.166002,0.652262,-0.705185,6.4016,6.67235,7.31013,2,0.0588493,0.0231264,13,88.2626,0.0210814
0.727234,-0.0185178,-0.617365,6.36376,6.58386,7.411,3,0.0665908,0.0261686,19,28.7901,0.0140626
-0.695737,0.315697,-0.620403,6.27594,6.63377,7.32297,4,0.0160339,0.00630096,26,69.1436,0.0220373
-0.00439816,-0.898475,-0.255408,6.35947,6.50793,7.35537,5,0.0917253,0.0360459,34,81.1879,0.0219949
-0.169795,0.924213,-0.233122,6.32144,6.71641,7.40435,6,0.0902756,0.0354762,43,40.8665,0.0206991
-0.939733,-0.21737,-0.16347,6.25165,6.58649,7.36431,7,0.0596327,0.0234343,53,106.055,0.0225485
0.63802,-0.708779,-0.033946,6.4006,6.52856,7.43088,8,0.113061,0.0444304,64,130.062,0.0224793
0.939607,0.0806209,0.0176862,6.25083,6.56902,7.39153,9,0.109677,0.0431005,76,73.9516,0.0216908
-0.859141,-0.252981,0.387948,6.27359,6.60153,7.49074,10,0.0809596,0.0318152,89,119.968,0.0155898
0.163167,-0.727581,0.648281,6.38379,6.5203,7.52666,11,0.0206457,0.0081133,103,170.805,0.0142521
0.71559,0.0962987,0.654452,6.40724,6.59914,7.5075,12,0.0165351,0.00649793,118,108.871,0.0145298
-0.453949,0.560014,0.669294,6.31441,6.69983,7.5398,13,0.0173024,0.00679946,134,153.108,0.012379
0.332952,0.50736,0.760446,6.37483,6.67725,7.55435,14,0.0122383,0.00480935,151,136.195,0.0202919
-0.0255304,-0.152172,0.950337,6.37673,6.61405,7.56827,15,0.0534516,0.0210053,18,54.2054,0.0624812
,,,,,,,,,25,56.6152,0.0252015
,,,,,,,,,33,116.526,0.0716983
,,,,,,,,,42,38.4595,0.0712511
,,,,,,,,,52,101.033,0.0592384
,,,,,,,,,63,110.94,0.0774074
,,,,,,,,,75,77.6864,0.0765983
,,,,,,,,,88,127.652,0.0681561
,,,,,,,,,102,159.921,0.0305676
,,,,,,,,,117,107.137,0.0258165
,,,,,,,,,133,100.944,0.0267423
,,,,,,,,,150,99.1032,0.0202627
,,,,,,,,,168,145.519,0.0560207
,,,,,,,,,32,97.8833,0.0258448
,,,,,,,,,41,78.9303,0.0771628
,,,,,,,,,51,89.7937,0.0766451
,,,,,,,,,62,128.296,0.06292
,,,,,,,,,74,56.8352,0.0838157
,,,,,,,,,87,41.7992,0.0828679
,,,,,,,,,101,157.381,0.0730755
,,,,,,,,,116,106.522,0.0315193
,,,,,,,,,132,82.9212,0.0264921
,,,,,,,,,149,143.421,0.0274678
,,,,,,,,,167,104.775,0.0206765
,,,,,,,,,186,130.983,0.0593021
,,,,,,,,,50,97.6343,0.0272963
,,,,,,,,,61,54.4106,0.0272312
,,,,,,,,,73,44.5114,0.0252726
,,,,,,,,,86,133.51,0.0280849
,,,,,,,,,100,133.52,0.0279777
,,,,,,,,,115,73.2283,0.0267667
,,,,,,,,,131,140.045,0.0180499
,,,,,,,,,148,155.609,0.0162807
,,,,,,,,,166,85.4149,0.016644
,,,,,,,,,185,124.566,0.0138813
,,,,,,,,,205,130.858,0.0246681
,,,,,,,,,72,148.38,0.0909947
,,,,,,,,,85,74.6964,0.0722767
,,,,,,,,,99,43.8607,0.101282
,,,,,,,,,114,95.2806,0.0999011
,,,,,,,,,130,81.6757,0.0860068
,,,,,,,,,147,58.1214,0.033705
,,,,,,,,,165,106.388,0.0280193
,,,,,,,,,184,137.01,0.0291132
,,,,,,,,,204,135.803,0.0215952
,,,,,,,,,225,96.7619,0.0675433
,,,,,,,,,98,90.1952,0.0718223
,,,,,,,,,113,144.859,0.100392
,,,,,,,,,129,95.6025,0.099035
,,,,,,,,,146,100.88,0.0853642
,,,,,,,,,164,152.859,0.0336059
,,,,,,,,,183,101.312,0.0279508
,,,,,,,,,203,62.5768,0.0290392
,,,,,,,,,224,75.5467,0.0215545
,,,,,,,,,246,112.576,0.0671463
,,,,,,,,,128,118.117,0.078082
,,,,,,,,,145,168.242,0.0772588
,,,,,,,,,163,33.2049,0.0686786
,,,,,,,,,182,96.0068,0.0306723
,,,,,,,,,202,147.092,0.0258911
,,,,,,,,,223,78.2817,0.0268224
,,,,,,,,,245,125.114,0.0203086
,,,,,,,,,268,95.9894,0.0563732
,,,,,,,,,162,52.9945,0.111343
,,,,,,,,,181,114.215,0.0943547
,,,,,,,,,201,50.6525,0.0349156
,,,,,,,,,222,66.8162,0.0288509
,,,,,,,,,244,139.078,0.030012
,,,,,,,,,267,100.739,0.0220858
,,,,,,,,,291,86.2988,0.0725867
,,,,,,,,,200,153.071,0.0931553
,,,,,,,,,221,83.4617,0.0347501
,,,,,,,,,243,41.1893,0.0287377
,,,,,,,,,266,113.471,0.0298895
,,,,,,,,,290,66.4131,0.0220195
,,,,,,,,,315,91.2272,0.0718747
,,,,,,,,,242,72.1641,0.0329012
,,,,,,,,,265,113.894,0.0274616
,,,,,,,,,289,58.0558,0.0285115
,,,,,,,,,314,97.2229,0.0212624
,,,,,,,,,340,62.829,0.0643908
,,,,,,,,,288,60.7167,0.0183632
,,,,,,,,,313,92.8091,0.0188268
,,,,,,,,,339,79.3192,0.0153672
,,,,,,,,,366,40.5674,0.0297864
,,,,,,,,,338,79.9606,0.0169101
,,,,,,,,,365,34.1315,0.0140659
,,,,,,,,,393,51.1116,0.0252571
,,,,,,,,,392,47.8737,0.0143363
,,,,,,,,,421,53.5689,0.0261425
,,,,,,,,,450,47.1548,0.0199164
