"cellPairingIds","interplanarAngles","angleWeights"
8,49.3447,0.0667271
13,100.85,0.0331938
26,47.5801,0.0511309
34,39.437,0.0713034
18,104.885,0.036651
25,41.4626,0.0914066
42,68.6796,0.0894227
63,53.2322,0.0366388
32,115.113,0.0383438
41,93.6819,0.0313917
87,50.5008,0.0273522
116,108.254,0.0174707
132,54.4845,0.014665
206,107.119,0.0359866
73,21.2017,0.0271979
86,51.4338,0.0383305
131,44.0452,0.0244532
72,45.6891,0.0634757
114,57.449,0.0384739
130,35.4617,0.0612853
113,42.3104,0.0379772
146,29.6063,0.0927295
203,64.463,0.102697
128,37.6512,0.018825
182,40.1273,0.0147218
223,37.8477,0.0273773
244,34.263,0.0386878
200,79.9521,0.04757
243,28.5744,0.0160448
290,36.976,0.0288848
315,66.4266,0.0414913
289,68.1639,0.0970837
340,43.0927,0.0693149
313,54.1615,0.0245981
394,46.6053,0.0234727
365,23.9208,0.0150944
422,68.1666,0.0186729
421,67.1769,0.0747372
451,56.5808,0.0892625
450,37.0323,0.0356818
481,60.154,0.0386874
512,56.4236,0.0652339
