"cellPairingIds","interplanarAngles","angleWeights"
8,97.1674,0.0235676
13,54.0377,0.019625
19,87.3312,0.0173246
26,124.393,0.0200491
53,56.3582,0.022495
64,69.399,0.0257952
103,69.8454,0.022782
118,102.68,0.019558
25,39.3802,0.0322217
33,40.2517,0.04312
42,29.452,0.0304851
32,40.5863,0.0252784
87,38.6541,0.048532
116,47.1039,0.0402421
61,32.7763,0.0207929
131,35.8697,0.03163
72,47.7319,0.0248451
184,99.3996,0.0313578
204,71.9713,0.054194
225,56.6144,0.0240175
247,47.5985,0.0383159
146,37.496,0.0273789
164,48.4699,0.029955
269,52.616,0.0280029
162,32.0539,0.0709026
222,26.638,0.051999
342,48.7247,0.0327858
221,44.4248,0.0789824
368,48.2278,0.0403004
242,25.6092,0.0498836
340,73.482,0.0263773
367,49.1186,0.0446949
395,65.9311,0.0310566
423,63.6626,0.0344137
338,62.2774,0.0386001
452,43.5322,0.0333991
483,37.127,0.0298465
392,34.4948,0.0507496
514,39.3227,0.0245456
450,25.8796,0.0339548
513,80.046,0.0421251
546,53.3088,0.0366264
512,27.208,0.0269559
545,80.3152,0.0213115
648,37.9889,0.022334
