facetNormals:0,facetNormals:1,facetNormals:2,FacetCenters:0,FacetCenters:1,FacetCenters:2,FacetIds,relFacetSize,absFacetSize,cellPairingIds,interplanarAngles,angleWeights
0.561548,-0.0357567,-0.790857,6.75238,3.95115,6.52554,1,0.0779937,0.00695577,8,76.7863,0.0753402
-0.58891,0.265766,-0.696739,6.64984,4.00172,6.52237,2,0.0728613,0.00649804,13,34.0641,0.0679065
0.485942,0.518472,-0.674496,6.72829,4.01466,6.52896,3,0.0601297,0.00536259,19,76.0456,0.0832497
-0.502325,-0.547505,-0.617938,6.66863,3.93403,6.52769,4,0.0892653,0.007961,26,53.4327,0.049399
0.709899,-0.636571,-0.176129,6.78706,3.91325,6.57676,5,0.0361466,0.00322368,34,73.6787,0.0831748
0.145263,-0.926454,-0.184608,6.73404,3.88799,6.57564,6,0.0890931,0.00794565,43,131.027,0.059619
-0.935858,0.221088,0.104772,6.65801,4.01136,6.60142,7,0.0482513,0.00430323,53,95.6616,0.0285039
-0.0746196,0.98208,0.021892,6.701,4.04007,6.56749,8,0.0174385,0.00155523,64,118.44,0.0659827
-0.554848,0.798963,0.144702,6.66382,4.04083,6.57328,9,0.0571774,0.00509929,76,99.9247,0.040736
0.308369,-0.801379,0.461379,6.75112,3.92069,6.64116,10,0.0275671,0.00245853,89,141.143,0.0606595
-0.840906,-0.337364,0.344592,6.6516,3.97665,6.60124,11,0.0496293,0.00442613,103,137.107,0.0374288
-0.457568,0.695123,0.531568,6.64469,4.01017,6.60091,12,0.0246225,0.00219593,118,124.847,0.0450398
-0.29001,-0.784814,0.520582,6.70088,3.93031,6.62997,13,0.0316619,0.00282373,134,149.418,0.0841687
-0.406248,-0.454445,0.768292,6.68514,3.9235,6.6308,14,0.0914054,0.00815187,18,69.7931,0.0658861
,,,,,,,,,25,50.7618,0.0802334
,,,,,,,,,33,120.277,0.048321
,,,,,,,,,42,102.925,0.0801638
,,,,,,,,,52,54.2587,0.058056
,,,,,,,,,63,71.9727,0.0281417
,,,,,,,,,75,62.0298,0.0640735
,,,,,,,,,88,140.631,0.0400001
,,,,,,,,,102,79.6512,0.0590422
,,,,,,,,,117,84.8735,0.0368067
,,,,,,,,,133,115.323,0.0441419
,,,,,,,,,150,116.57,0.0810866
,,,,,,,,,32,96.7429,0.0718564
,,,,,,,,,41,81.908,0.045151
,,,,,,,,,51,107.734,0.0718006
,,,,,,,,,62,115.688,0.0535396
,,,,,,,,,74,61.6619,0.0270362
,,,,,,,,,87,87.2031,0.0586164
,,,,,,,,,101,127.158,0.037803
,,,,,,,,,116,149.222,0.0543773
,,,,,,,,,132,103.174,0.0349382
,,,,,,,,,149,158.611,0.0414814
,,,,,,,,,167,171.884,0.0725401
,,,,,,,,,50,83.8271,0.0514566
,,,,,,,,,61,53.5826,0.0891791
,,,,,,,,,73,72.2934,0.0626422
,,,,,,,,,86,122.657,0.0291771
,,,,,,,,,100,105.135,0.0697058
,,,,,,,,,115,90.0758,0.0421251
,,,,,,,,,131,65.1167,0.0637919
,,,,,,,,,148,120.143,0.0385983
,,,,,,,,,166,74.5507,0.046744
,,,,,,,,,185,91.3226,0.0903227
,,,,,,,,,72,38.4895,0.051428
,,,,,,,,,85,151.408,0.0413309
,,,,,,,,,99,135.557,0.0235268
,,,,,,,,,114,166.692,0.0442923
,,,,,,,,,130,46.7361,0.0312792
,,,,,,,,,147,118.112,0.0418283
,,,,,,,,,165,154.047,0.0292919
,,,,,,,,,184,77.7937,0.0337559
,,,,,,,,,204,98.1266,0.0518062
,,,,,,,,,98,112.924,0.0625997
,,,,,,,,,113,169.145,0.0291679
,,,,,,,,,129,154.379,0.0696533
,,,,,,,,,146,41.0999,0.0421059
,,,,,,,,,164,82.1348,0.0637479
,,,,,,,,,183,148.952,0.0385822
,,,,,,,,,203,51.3009,0.0467204
,,,,,,,,,224,76.4148,0.0902345
,,,,,,,,,128,72.33,0.0256183
,,,,,,,,,145,41.6277,0.0523365
,,,,,,,,,163,116.277,0.0350878
,,,,,,,,,182,37.0387,0.0489306
,,,,,,,,,202,48.1259,0.0326062
,,,,,,,,,223,80.7977,0.0382347
,,,,,,,,,245,67.6847,0.0631611
,,,,,,,,,162,31.1415,0.0267259
,,,,,,,,,181,146.408,0.0213631
,,,,,,,,,201,105.863,0.0258086
,,,,,,,,,222,41.5139,0.020417
,,,,,,,,,244,139.457,0.0224901
,,,,,,,,,267,114.403,0.0292892
,,,,,,,,,200,140.964,0.0371992
,,,,,,,,,221,74.9899,0.0531367
,,,,,,,,,243,24.1431,0.0344219
,,,,,,,,,266,113.782,0.0407555
,,,,,,,,,290,91.5748,0.070349
,,,,,,,,,242,79.6333,0.0354456
,,,,,,,,,265,118.068,0.0260118
,,,,,,,,,289,35.7366,0.029473
,,,,,,,,,314,51.6324,0.0423591
,,,,,,,,,288,69.6147,0.032915
,,,,,,,,,313,43.9231,0.03866
,,,,,,,,,339,36.9578,0.0643301
,,,,,,,,,338,98.0411,0.027702
,,,,,,,,,365,73.2942,0.0387947
,,,,,,,,,392,25.2026,0.0470323
