"cellPairingIds","interplanarAngles","angleWeights"
8,32.7276,0.0425784
13,35.3346,0.0645591
19,57.1436,0.0332049
26,62.6399,0.0257275
64,89.5514,0.100064
25,52.4473,0.0237747
63,52.2746,0.0369146
75,70.9115,0.0455809
32,78.8702,0.0293555
41,57.3469,0.0233547
62,64.806,0.0412304
116,76.849,0.0396957
86,51.577,0.0296564
115,45.3354,0.0322245
131,128.691,0.0251142
85,31.3711,0.0209938
114,49.891,0.0267939
165,64.3677,0.0243147
182,53.4923,0.0333257
202,49.7992,0.0443199
162,75.2303,0.0735453
181,60.9542,0.0622652
267,81.5815,0.0741438
243,48.1839,0.0816196
290,83.5793,0.11995
242,106.515,0.0451287
314,72.8142,0.092592
288,69.1243,0.0425514
339,84.2482,0.0510574
365,57.7643,0.0823575
