"cellPairingIds","interplanarAngles","angleWeights"
25,62.0934,0.0555132
33,55.8058,0.0161998
88,48.9843,0.0449221
50,90.312,0.0191062
73,83.1602,0.118053
115,92.6946,0.0776961
131,69.6713,0.0437982
166,104.843,0.0732551
72,41.1024,0.0188442
85,97.9566,0.0191622
99,69.0937,0.0180419
114,50.3509,0.0163694
130,90.0714,0.0176722
129,31.8033,0.0552436
146,63.9517,0.0735387
203,114.613,0.0695481
128,68.4857,0.0865178
223,103.004,0.0740847
162,31.536,0.0488721
244,106.814,0.0597427
266,113.34,0.0446403
242,36.7902,0.036929
265,36.3315,0.0335785
289,70.2201,0.0558724
288,30.6016,0.0251621
313,53.4694,0.0358947
338,33.9342,0.0327212
