facetNormals:0,facetNormals:1,facetNormals:2,FacetCenters:0,FacetCenters:1,FacetCenters:2,FacetIds,relFacetSize,absFacetSize,cellPairingIds,interplanarAngles,angleWeights
0.123087,0.525077,-0.796275,6.7353,7.24092,6.67429,1,0.0282223,0.00520289,8,80.5153,0.0274153
0.629166,-0.546943,-0.45216,6.83597,7.1752,6.73871,2,0.0266531,0.0049136,13,27.003,0.029289
-0.018066,0.845663,-0.505589,6.74727,7.24419,6.67366,3,0.0304395,0.00561164,19,40.0285,0.0272657
-0.430539,0.735951,-0.491358,6.74426,7.20771,6.6654,4,0.0263718,0.00486174,26,46.4619,0.0305213
0.555002,0.77201,-0.216392,6.85636,7.27444,6.7299,5,0.0332279,0.0061257,34,55.6006,0.0339224
0.839234,0.364451,-0.283554,6.76916,7.24728,6.73202,6,0.0425078,0.00783646,43,90.7552,0.0347084
0.96351,-0.0654314,0.121285,6.89736,7.24224,6.78024,7,0.0450654,0.00830797,53,120.826,0.0324891
0.733069,-0.523864,0.370915,6.89594,7.20788,6.77332,8,0.0382758,0.00705629,64,93.8185,0.0229466
0.846326,0.298211,0.406711,6.89349,7.25785,6.75373,9,0.0193327,0.00356405,76,82.6242,0.0490558
-0.430061,0.779682,0.301877,6.80503,7.2657,6.72665,10,0.187374,0.0345431,89,132.792,0.0492434
-0.719675,-0.0936806,0.599154,6.75555,7.18921,6.72974,11,0.192988,0.0355781,103,161.641,0.0438684
-0.0537156,-0.720932,0.575557,6.81409,7.16807,6.73605,12,0.0984444,0.0181486,18,105.216,0.0284208
,,,,,,,,,25,118.913,0.0265117
,,,,,,,,,33,88.4642,0.0295796
,,,,,,,,,42,59.8053,0.0327631
,,,,,,,,,52,50.4999,0.0334958
,,,,,,,,,63,51.1206,0.0314242
,,,,,,,,,75,78.5503,0.0224102
,,,,,,,,,88,159.191,0.0466679
,,,,,,,,,102,138.889,0.0468376
,,,,,,,,,117,83.4302,0.0419489
,,,,,,,,,32,25.0457,0.02826
,,,,,,,,,41,38.4793,0.0317727
,,,,,,,,,51,62.463,0.0354754
,,,,,,,,,62,98.0346,0.0363359
,,,,,,,,,74,132.104,0.0339108
,,,,,,,,,87,88.1544,0.0236468
,,,,,,,,,101,56.2688,0.0523711
,,,,,,,,,116,113.456,0.0525849
,,,,,,,,,132,171.118,0.0465007
,,,,,,,,,50,63.0074,0.0294055
,,,,,,,,,61,87.1894,0.0325498
,,,,,,,,,73,123.065,0.0332727
,,,,,,,,,86,157.117,0.0312278
,,,,,,,,,100,110.829,0.0223102
,,,,,,,,,115,48.702,0.0462361
,,,,,,,,,131,93.3114,0.0464027
,,,,,,,,,148,150.345,0.0415997
,,,,,,,,,72,30.0508,0.0372993
,,,,,,,,,85,61.1476,0.0382518
,,,,,,,,,99,94.6991,0.0355737
,,,,,,,,,114,50.4337,0.0244436
,,,,,,,,,130,71.0377,0.056446
,,,,,,,,,147,130.945,0.0566944
,,,,,,,,,165,142.09,0.0496855
,,,,,,,,,98,36.405,0.0437492
,,,,,,,,,113,70.0065,0.0402809
,,,,,,,,,129,41.7894,0.0265777
,,,,,,,,,146,100.386,0.0692952
,,,,,,,,,164,153.678,0.0696699
,,,,,,,,,183,122.15,0.0593769
,,,,,,,,,128,34.0705,0.041394
,,,,,,,,,145,28.1783,0.0270578
,,,,,,,,,163,117.94,0.0726562
,,,,,,,,,182,132.143,0.0730683
,,,,,,,,,202,85.8414,0.0618276
,,,,,,,,,162,50.1552,0.0256898
,,,,,,,,,181,131.894,0.0635666
,,,,,,,,,201,106.228,0.0638818
,,,,,,,,,222,52.206,0.0551205
,,,,,,,,,200,90.5372,0.0350491
,,,,,,,,,221,115.102,0.0351447
,,,,,,,,,243,91.6596,0.0323186
,,,,,,,,,242,61.8586,0.190139
,,,,,,,,,265,114.86,0.129074
,,,,,,,,,288,58.7583,0.130381
