facetNormals:0,facetNormals:1,facetNormals:2,FacetCenters:0,FacetCenters:1,FacetCenters:2,FacetIds,relFacetSize,absFacetSize,cellPairingIds,interplanarAngles,angleWeights
0.0439161,0.168564,-0.957481,6.17081,7.51603,8.25922,1,0.0249134,0.00586343,8,31.2474,0.0175966
0.360602,-0.248806,-0.886682,6.15182,7.48968,8.25713,2,0.0136018,0.00320122,13,51.7329,0.0265266
-0.188684,-0.612994,-0.726722,6.12335,7.40726,8.29784,3,0.0283631,0.00667533,19,31.2465,0.0162215
-0.235554,0.575254,-0.768358,6.16595,7.55559,8.26749,4,0.0120258,0.0028303,26,67.4476,0.0251421
-0.29779,0.907442,-0.23755,6.18053,7.59769,8.33139,5,0.0253751,0.00597208,34,93.0344,0.0423505
-0.881017,0.386897,0.0796538,6.11235,7.50901,8.39437,6,0.141124,0.033214,43,74.0863,0.0390028
0.370901,0.861238,-0.094008,6.25481,7.61217,8.38817,7,0.089772,0.021128,53,90.2084,0.0316609
-0.640945,0.745113,0.105434,6.16233,7.58326,8.42471,8,0.0434208,0.0102192,64,91.3983,0.0285422
0.798269,0.558757,0.159472,6.3008,7.56586,8.43078,9,0.0334082,0.00786269,76,117.734,0.0374788
-0.11629,-0.92899,0.295495,6.14698,7.37374,8.38766,10,0.075617,0.0177966,89,123.459,0.0289562
-0.656698,-0.582483,0.410334,6.09601,7.41062,8.41503,11,0.0345653,0.00813503,103,117.882,0.0329696
0.78629,0.195083,0.53078,6.30441,7.52597,8.47936,12,0.0487258,0.0114677,118,142.816,0.0393422
0.225512,-0.6366,0.666807,6.22901,7.45225,8.50479,13,0.0934845,0.0220018,134,139.782,0.0298049
-0.0282627,0.490388,0.840809,6.17457,7.51058,8.43909,14,0.0370865,0.00872838,151,170.776,0.0243959
-0.196589,-0.201883,0.939476,6.17693,7.49088,8.50806,15,0.0238995,0.00562481,18,40.5086,0.0183863
,,,,,,,,,25,62.3757,0.0127654
,,,,,,,,,33,97.2319,0.0177104
,,,,,,,,,42,120.495,0.0248122
,,,,,,,,,52,89.8265,0.0236242
,,,,,,,,,63,121.444,0.0207147
,,,,,,,,,75,89.5638,0.0193326
,,,,,,,,,88,94.3002,0.0230563
,,,,,,,,,102,118.394,0.0195217
,,,,,,,,,117,104.241,0.021267
,,,,,,,,,133,111.994,0.0237483
,,,,,,,,,150,155.698,0.0199038
,,,,,,,,,168,151.647,0.0173368
,,,,,,,,,32,74.8597,0.0168902
,,,,,,,,,41,110.075,0.026786
,,,,,,,,,51,97.9118,0.0472333
,,,,,,,,,62,125.435,0.0431068
,,,,,,,,,74,115.497,0.0343127
,,,,,,,,,87,129.522,0.0306796
,,,,,,,,,101,66.6827,0.0412528
,,,,,,,,,116,78.7787,0.0311586
,,,,,,,,,132,134.132,0.0358551
,,,,,,,,,149,98.5586,0.0435218
,,,,,,,,,167,163.785,0.0321435
,,,,,,,,,186,123.296,0.0259407
,,,,,,,,,50,37.2072,0.0163181
,,,,,,,,,61,67.2583,0.022163
,,,,,,,,,73,58.9578,0.0212103
,,,,,,,,,86,59.3122,0.0188351
,,,,,,,,,100,89.3623,0.0176855
,,,,,,,,,115,139.159,0.0207514
,,,,,,,,,131,121.171,0.0178436
,,,,,,,,,148,120.153,0.0192906
,,,,,,,,,166,173.346,0.0213103
,,,,,,,,,185,111.792,0.0181622
,,,,,,,,,205,144.755,0.0160005
,,,,,,,,,72,51.2687,0.0430157
,,,,,,,,,85,41.615,0.0395663
,,,,,,,,,99,30.0622,0.0320312
,,,,,,,,,114,76.221,0.0288428
,,,,,,,,,130,155.408,0.0379988
,,,,,,,,,147,116.835,0.0292657
,,,,,,,,,165,101.082,0.0333713
,,,,,,,,,184,149.312,0.0399156
,,,,,,,,,204,74.6505,0.0301328
,,,,,,,,,225,111.121,0.0246152
,,,,,,,,,98,90.066,0.109738
,,,,,,,,,113,25.5099,0.0664091
,,,,,,,,,129,119.844,0.0540267
,,,,,,,,,146,104.256,0.0984713
,,,,,,,,,164,65.6403,0.0555299
,,,,,,,,,183,127.942,0.0724403
,,,,,,,,,203,115.318,0.112468
,,,,,,,,,224,72.5715,0.0587372
,,,,,,,,,246,79.6633,0.0408766
,,,,,,,,,128,64.974,0.0585313
,,,,,,,,,145,34.99,0.0486948
,,,,,,,,,163,160.285,0.0820888
,,,,,,,,,182,149.129,0.0499126
,,,,,,,,,202,63.3255,0.0631666
,,,,,,,,,223,126.125,0.0915907
,,,,,,,,,245,68.7361,0.0524888
,,,,,,,,,268,111.256,0.0377493
,,,,,,,,,162,94.6131,0.0377621
,,,,,,,,,181,127.183,0.0551649
,,,,,,,,,201,88.1959,0.0384903
,,,,,,,,,222,108.429,0.0459206
,,,,,,,,,244,125.784,0.059299
,,,,,,,,,267,60.6253,0.0400044
,,,,,,,,,291,85.5853,0.0308298
,,,,,,,,,200,125.637,0.0463421
,,,,,,,,,221,145.057,0.0339769
,,,,,,,,,243,30.8099,0.0396387
,,,,,,,,,266,94.244,0.049225
,,,,,,,,,290,66.3603,0.0351514
,,,,,,,,,315,97.1128,0.027865
,,,,,,,,,242,39.0539,0.0474437
,,,,,,,,,265,96.9966,0.0592636
,,,,,,,,,289,35.1128,0.0836068
,,,,,,,,,314,102.31,0.0497654
,,,,,,,,,340,59.549,0.0363198
,,,,,,,,,288,116.054,0.0404419
,,,,,,,,,313,57.3365,0.0504698
,,,,,,,,,339,85.2625,0.0357815
,,,,,,,,,366,48.3032,0.0282595
,,,,,,,,,338,63.715,0.0640616
,,,,,,,,,365,56.5595,0.0421168
,,,,,,,,,393,71.2918,0.0320694
,,,,,,,,,392,74.8134,0.0531054
,,,,,,,,,421,40.2349,0.0380671
,,,,,,,,,450,43.1795,0.0290673
