facetNormals:0,facetNormals:1,facetNormals:2,FacetCenters:0,FacetCenters:1,FacetCenters:2,FacetIds,relFacetSize,absFacetSize,cellPairingIds,interplanarAngles,angleWeights
-0.0327861,0.150715,-0.968552,3.89965,3.61682,8.81218,1,0.0312947,0.00462791,8,30.6661,0.0167222
-0.531436,0.158198,-0.818447,3.84901,3.58324,8.86218,2,0.0114093,0.00168723,13,59.2084,0.0435138
0.105153,-0.73358,-0.61786,3.90518,3.52238,8.8602,3,0.0713869,0.0105568,19,46.8127,0.0278936
-0.495779,0.620165,-0.560068,3.89174,3.64697,8.83293,4,0.0251593,0.0037206,26,47.3347,0.0421511
0.60402,0.430247,-0.614373,3.95801,3.66111,8.85701,5,0.0645409,0.0095444,34,65.5286,0.0192713
-0.522707,-0.67581,-0.503426,3.86857,3.51758,8.87346,6,0.0139224,0.00205886,43,53.627,0.0398297
0.108948,0.845669,-0.451474,3.9388,3.70533,8.89383,7,0.054766,0.00809888,53,57.5436,0.0368046
-0.74802,-0.288885,-0.547163,3.84112,3.55733,8.87573,8,0.0446693,0.00660576,64,76.9292,0.0259545
-0.965206,-0.0287912,-0.197521,3.84043,3.56029,8.87965,9,0.0221712,0.0032787,76,93.0193,0.0480427
0.914626,-0.340041,-0.0318019,3.98314,3.57365,8.93118,10,0.103355,0.0152844,89,96.8707,0.0307759
0.990371,0.0558101,0.0958805,3.98651,3.59163,8.91594,11,0.0302739,0.00447695,103,108.272,0.0476177
-0.0490523,-0.914704,0.154239,3.87541,3.49374,8.94974,12,0.0995327,0.014719,118,112.979,0.0204662
0.0116308,0.828123,0.513749,3.97289,3.70594,8.96209,13,0.015205,0.00224854,134,125.649,0.0307472
0.777693,-0.346313,0.50349,3.94762,3.60666,9.01706,14,0.0302186,0.00446877,151,113.265,0.0334265
0.784528,0.406758,0.429767,3.94364,3.6877,9.00533,15,0.0358699,0.0053045,169,138.168,0.0221749
0.321028,-0.697863,0.630183,3.89009,3.55051,9.02144,16,0.017171,0.00253927,188,150.975,0.0307227
0.482851,-0.2792,0.81366,3.91551,3.59141,9.02582,17,0.0301712,0.00446177,208,143.93,0.0360413
0.521495,0.176352,0.814295,3.95134,3.63153,9.02166,18,0.0424853,0.00628279,229,150.131,0.0302651
-0.381601,-0.369486,0.794954,3.86865,3.53225,9.0156,19,0.029301,0.00433308,251,166.035,0.0297661
0.0670682,-0.37828,0.904965,3.86688,3.5488,9.02651,20,0.0283799,0.00419686,18,69.5187,0.0196742
,,,,,,,,,25,31.3894,0.0156993
,,,,,,,,,33,74.7822,0.0193908
,,,,,,,,,42,53.5165,0.0125412
,,,,,,,,,52,62.1624,0.0188845
,,,,,,,,,63,33.5668,0.0181761
,,,,,,,,,75,46.5542,0.0150658
,,,,,,,,,88,122.166,0.0205501
,,,,,,,,,102,127.223,0.0165728
,,,,,,,,,117,105.465,0.020472
,,,,,,,,,133,107.87,0.0130365
,,,,,,,,,150,154.18,0.0165645
,,,,,,,,,168,136.47,0.0173121
,,,,,,,,,187,144.212,0.0137094
,,,,,,,,,207,172.425,0.0165574
,,,,,,,,,228,160.453,0.017988
,,,,,,,,,250,122.388,0.0164236
,,,,,,,,,273,149.352,0.0162755
,,,,,,,,,32,99.8906,0.0372059
,,,,,,,,,41,82.1136,0.0677915
,,,,,,,,,51,38.2066,0.0233005
,,,,,,,,,62,110.76,0.0619815
,,,,,,,,,74,59.787,0.0549527
,,,,,,,,,87,87.4888,0.0338342
,,,,,,,,,101,67.1846,0.0844469
,,,,,,,,,116,89.7641,0.0425171
,,,,,,,,,132,50.4622,0.0831423
,,,,,,,,,149,169.199,0.0250702
,,,,,,,,,167,88.5145,0.0424625
,,,,,,,,,186,120.515,0.0477479
,,,,,,,,,206,80.6148,0.0276832
,,,,,,,,,227,105.049,0.0424157
,,,,,,,,,249,127.524,0.0532683
,,,,,,,,,272,106.387,0.0415483
,,,,,,,,,296,106.826,0.0406138
,,,,,,,,,50,70.5578,0.0362052
,,,,,,,,,61,82.7266,0.0179254
,,,,,,,,,73,39.5055,0.0344791
,,,,,,,,,86,58.121,0.0321888
,,,,,,,,,100,53.3769,0.0235709
,,,,,,,,,115,132.964,0.0404678
,,,,,,,,,131,121.789,0.0274807
,,,,,,,,,148,134.208,0.0401658
,,,,,,,,,166,76.5617,0.0189547
,,,,,,,,,185,156.653,0.0274579
,,,,,,,,,205,113.282,0.0295748
,,,,,,,,,226,168.17,0.0204114
,,,,,,,,,248,154.936,0.0274383
,,,,,,,,,271,129.326,0.0316034
,,,,,,,,,295,121.485,0.0270727
,,,,,,,,,320,144.192,0.0266728
,,,,,,,,,72,108.132,0.022904
,,,,,,,,,85,40.4514,0.059253
,,,,,,,,,99,104.872,0.0527972
,,,,,,,,,114,119.962,0.0330046
,,,,,,,,,130,63.0789,0.0794616
,,,,,,,,,147,54.0586,0.0412152
,,,,,,,,,165,125.379,0.0783055
,,,,,,,,,184,87.0875,0.0246118
,,,,,,,,,204,89.3135,0.0411639
,,,,,,,,,225,66.0044,0.0461121
,,,,,,,,,247,121.049,0.0271253
,,,,,,,,,270,110.221,0.0411199
,,,,,,,,,294,96.6376,0.0512405
,,,,,,,,,319,162.449,0.0403042
,,,,,,,,,345,135.754,0.0394242
,,,,,,,,,98,114.791,0.0222009
,,,,,,,,,113,26.4779,0.0212284
,,,,,,,,,129,50.3701,0.0171042
,,,,,,,,,146,103.881,0.0245392
,,,,,,,,,164,127.65,0.0190733
,,,,,,,,,183,52.0762,0.0244278
,,,,,,,,,203,148.535,0.0145354
,,,,,,,,,224,115.739,0.0190623
,,,,,,,,,246,157.66,0.0200591
,,,,,,,,,269,90.7811,0.015377
,,,,,,,,,293,118.937,0.0190529
,,,,,,,,,318,145.336,0.0209722
,,,,,,,,,344,87.0395,0.0188759
,,,,,,,,,371,103.948,0.0186806
,,,,,,,,,128,94.8242,0.049205
,,,,,,,,,145,92.4306,0.0315641
,,,,,,,,,163,100.618,0.0715952
,,,,,,,,,182,83.3222,0.038993
,,,,,,,,,202,161.221,0.0706553
,,,,,,,,,223,60.0362,0.0238018
,,,,,,,,,245,117.15,0.0389471
,,,,,,,,,268,75.622,0.0433482
,,,,,,,,,292,151.157,0.0261447
,,,,,,,,,317,125.364,0.0389078
,,,,,,,,,343,99.8164,0.0478503
,,,,,,,,,370,140.614,0.0381767
,,,,,,,,,398,139.49,0.0373862
,,,,,,,,,162,28.809,0.0296339
,,,,,,,,,181,126.86,0.062379
,,,,,,,,,201,146.789,0.036089
,,,,,,,,,222,76.1055,0.0616643
,,,,,,,,,244,123.998,0.0226874
,,,,,,,,,267,142.056,0.0360497
,,,,,,,,,291,170.02,0.0397889
,,,,,,,,,316,113.418,0.0248064
,,,,,,,,,342,139.274,0.036016
,,,,,,,,,369,158.304,0.0435499
,,,,,,,,,397,92.6422,0.0353887
,,,,,,,,,426,117.187,0.0347084
,,,,,,,,,200,154.251,0.0365103
,,,,,,,,,221,173.777,0.0255966
,,,,,,,,,243,87.2946,0.0362643
,,,,,,,,,266,98.172,0.0180389
,,,,,,,,,290,149.518,0.0255768
,,,,,,,,,315,151.831,0.027404
,,,,,,,,,341,115.024,0.0193533
,,,,,,,,,368,129.52,0.0255598
,,,,,,,,,396,133.695,0.029137
,,,,,,,,,425,76.3777,0.0252423
,,,,,,,,,455,103.888,0.0248943
,,,,,,,,,242,24.7206,0.0468306
,,,,,,,,,265,73.2566,0.101408
,,,,,,,,,289,107.574,0.02651
,,,,,,,,,314,32.6495,0.0467644
,,,,,,,,,340,53.8778,0.0532568
,,,,,,,,,367,58.22,0.0294494
,,,,,,,,,395,57.9774,0.0467077
,,,,,,,,,424,65.9483,0.0602175
,,,,,,,,,454,105.45,0.0456581
,,,,,,,,,485,80.3321,0.044532
,,,,,,,,,288,95.2585,0.0464267
,,,,,,,,,313,83.6754,0.020243
,,,,,,,,,339,35.8283,0.0302462
,,,,,,,,,366,30.8333,0.0328352
,,,,,,,,,394,69.9536,0.0219131
,,,,,,,,,423,56.6376,0.0302225
,,,,,,,,,453,51.9017,0.0353549
,,,,,,,,,484,109.773,0.0297795
,,,,,,,,,516,82.2525,0.0292963
,,,,,,,,,338,138.573,0.0263801
,,,,,,,,,365,67.1828,0.0463616
,,,,,,,,,393,112.157,0.052735
,,,,,,,,,422,38.7504,0.0292891
,,,,,,,,,452,67.0576,0.0463058
,,,,,,,,,483,93.8492,0.0595513
,,,,,,,,,515,57.3379,0.045274
,,,,,,,,,548,58.1214,0.0441666
,,,,,,,,,392,91.134,0.0202306
,,,,,,,,,421,53.7162,0.0213569
,,,,,,,,,451,104.988,0.0161283
,,,,,,,,,482,78.4548,0.02022
,,,,,,,,,514,53.453,0.0223951
,,,,,,,,,547,83.9636,0.0200207
,,,,,,,,,581,80.8455,0.0198012
,,,,,,,,,450,45.1341,0.0328026
,,,,,,,,,481,34.6282,0.0218986
,,,,,,,,,513,25.3319,0.0301949
,,,,,,,,,546,39.097,0.0353171
,,,,,,,,,580,75.833,0.0297527
,,,,,,,,,615,48.9326,0.0292704
,,,,,,,,,512,75.8413,0.0232244
,,,,,,,,,545,50.6282,0.0327747
,,,,,,,,,579,30.6653,0.0388983
,,,,,,,,,614,96.6024,0.0322544
,,,,,,,,,650,72.6764,0.0316883
,,,,,,,,,578,28.348,0.0218862
,,,,,,,,,613,55.1903,0.0244573
,,,,,,,,,649,47.9451,0.0216529
,,,,,,,,,686,28.8226,0.0213963
,,,,,,,,,648,26.8461,0.0352848
,,,,,,,,,685,53.1427,0.0297298
,,,,,,,,,723,25.6412,0.0292482
,,,,,,,,,722,65.9377,0.0346824
,,,,,,,,,761,43.136,0.0340288
,,,,,,,,,800,27.5226,0.0288331
