Q	U	V
{$V$}	{[mm$^3$]}	0.00416437
{$d_v$}	{[mm]}	0.199611
{$S_c$}	{[mm$^2$]}	0.197994
{$S_o$}	{[mm$^2$]}	0.117007
{$S_l/S_o$}	[]	0.692155
{$\Psi$}	[]	0.632215
{$\eta$}	[]	0.642267
{med($\theta_e$)}	{[$^\circ$]}	55.9849
{$\Upsilon$}	[]	13
{$\Xi$}	[]	11
