facetNormals:0,facetNormals:1,facetNormals:2,FacetCenters:0,FacetCenters:1,FacetCenters:2,FacetIds,relFacetSize,absFacetSize,cellPairingIds,interplanarAngles,angleWeights
-0.380912,0.377684,-0.82125,5.0857,4.30895,8.05757,1,0.0409834,0.00511038,8,64.1455,0.0244062
-0.26376,-0.64263,-0.679258,5.08001,4.18113,8.0235,2,0.0173773,0.00216684,13,71.1901,0.0600163
0.703734,0.419155,-0.504027,5.17295,4.33224,8.10573,3,0.112056,0.0139726,19,54.4435,0.0232862
0.194587,0.900013,-0.364081,5.11814,4.34135,8.08272,4,0.0162634,0.00202794,26,69.8498,0.0229572
-0.910981,-0.346145,-0.141857,5.02077,4.23192,8.07077,5,0.0159443,0.00198815,34,42.7837,0.05877
-0.767321,0.534095,-0.24589,5.05989,4.31953,8.13288,6,0.103833,0.0129474,43,63.6317,0.0523294
-0.121073,0.96416,-0.0159979,5.10984,4.35227,8.13573,7,0.0723625,0.00902315,53,85.7198,0.0367697
-0.638909,-0.710559,-0.116251,5.04322,4.22573,8.10737,8,0.0333416,0.00415749,64,98.0711,0.0493991
0.543172,0.748114,0.252847,5.15376,4.33344,8.17429,9,0.0621642,0.00775149,76,79.6256,0.0490379
-0.780075,0.443278,0.357901,5.06653,4.31619,8.14708,10,0.0610328,0.00761041,89,81.3523,0.0461949
-0.937441,0.0243732,0.270724,5.03054,4.2683,8.1109,11,0.0529249,0.0065994,103,101.729,0.0312985
-0.104662,0.740654,0.625988,5.09661,4.30862,8.11687,12,0.025316,0.00315675,118,160.059,0.0410468
0.568269,-0.487687,0.566313,5.12958,4.24613,8.08502,13,0.0411104,0.00512622,134,147.951,0.0317559
0.467355,0.156967,0.851735,5.14638,4.29332,8.1799,14,0.02592,0.00323206,151,139.014,0.0207609
-0.297352,-0.289586,0.890865,5.0906,4.3065,8.24774,15,0.0139015,0.00173343,169,140.044,0.0357825
-0.0408573,0.120488,0.970708,5.11299,4.31074,8.22011,16,0.031753,0.0039594,18,96.922,0.0300886
,,,,,,,,,25,113.422,0.0168019
,,,,,,,,,33,54.2445,0.01663
,,,,,,,,,42,88.4023,0.0297721
,,,,,,,,,52,127.652,0.0280247
,,,,,,,,,63,41.1604,0.022847
,,,,,,,,,75,148.712,0.0271619
,,,,,,,,,88,110.08,0.0270523
,,,,,,,,,102,87.1165,0.026164
,,,,,,,,,117,157.194,0.0206086
,,,,,,,,,133,104.031,0.0244287
,,,,,,,,,150,147.088,0.0208059
,,,,,,,,,168,110.898,0.0154463
,,,,,,,,,187,139.755,0.022462
,,,,,,,,,32,42.8925,0.0284043
,,,,,,,,,41,138.988,0.0279163
,,,,,,,,,51,101.93,0.107788
,,,,,,,,,62,69.5226,0.0879374
,,,,,,,,,74,138.08,0.0513918
,,,,,,,,,87,51.9318,0.0799662
,,,,,,,,,101,125.808,0.0790239
,,,,,,,,,116,146.85,0.0718937
,,,,,,,,,132,94.8137,0.0413011
,,,,,,,,,149,95.7167,0.0601524
,,,,,,,,,167,92.0956,0.0421013
,,,,,,,,,186,145.572,0.0247344
,,,,,,,,,206,119.77,0.0494838
,,,,,,,,,50,116.635,0.0161022
,,,,,,,,,61,63.9135,0.028122
,,,,,,,,,73,27.9556,0.0265579
,,,,,,,,,86,139.198,0.0218626
,,,,,,,,,100,43.6278,0.0257818
,,,,,,,,,115,82.9823,0.025683
,,,,,,,,,131,105.547,0.024881
,,,,,,,,,148,64.3334,0.0198042
,,,,,,,,,166,125.099,0.0233066
,,,,,,,,,185,94.5844,0.0199864
,,,,,,,,,205,131.344,0.01499
,,,,,,,,,226,105.124,0.0215098
,,,,,,,,,72,54.781,0.0276437
,,,,,,,,,85,103.361,0.0261309
,,,,,,,,,99,27.0225,0.0215724
,,,,,,,,,114,146.781,0.0253791
,,,,,,,,,130,57.8352,0.0252834
,,,,,,,,,147,32.8896,0.0245058
,,,,,,,,,165,105.075,0.0195658
,,,,,,,,,184,117.659,0.0229771
,,,,,,,,,204,128.318,0.0197436
,,,,,,,,,225,75.3525,0.0148529
,,,,,,,,,247,98.4808,0.0212288
,,,,,,,,,98,49.3688,0.0852873
,,,,,,,,,113,81.389,0.0504753
,,,,,,,,,129,94.9158,0.0777688
,,,,,,,,,146,36.8419,0.0768773
,,,,,,,,,164,45.122,0.0701126
,,,,,,,,,183,70.0341,0.040707
,,,,,,,,,203,157.051,0.0589005
,,,,,,,,,224,120.595,0.0414842
,,,,,,,,,246,98.8127,0.0245201
,,,,,,,,,269,98.6897,0.0486335
,,,,,,,,,128,130.364,0.0456497
,,,,,,,,,145,45.6204,0.0668768
,,,,,,,,,163,56.6495,0.0662165
,,,,,,,,,182,81.9604,0.0611358
,,,,,,,,,202,40.8761,0.0375093
,,,,,,,,,223,126.917,0.0524328
,,,,,,,,,245,85.1339,0.0381682
,,,,,,,,,268,105.637,0.0233225
,,,,,,,,,292,83.6286,0.044138
,,,,,,,,,162,169.79,0.0434038
,,,,,,,,,181,81.2274,0.0431247
,,,,,,,,,201,54.1588,0.0409105
,,,,,,,,,222,124.528,0.0287798
,,,,,,,,,244,95.2296,0.0368207
,,,,,,,,,267,122.511,0.0291661
,,,,,,,,,291,72.0104,0.0196218
,,,,,,,,,316,100.538,0.0325279
,,,,,,,,,200,90.0989,0.0615933
,,,,,,,,,221,116.849,0.0571737
,,,,,,,,,243,45.4772,0.0359795
,,,,,,,,,266,84.4511,0.0494913
,,,,,,,,,290,51.5421,0.0365853
,,,,,,,,,315,99.3417,0.0227218
,,,,,,,,,341,70.4895,0.0420349
,,,,,,,,,242,27.1479,0.0566904
,,,,,,,,,265,47.7091,0.0357875
,,,,,,,,,289,120.243,0.0491287
,,,,,,,,,314,89.4066,0.0363868
,,,,,,,,,340,63.5792,0.022645
,,,,,,,,,367,62.7712,0.0417731
,,,,,,,,,288,72.5407,0.0342492
,,,,,,,,,313,115.277,0.0462755
,,,,,,,,,339,102.244,0.0347977
,,,,,,,,,366,57.6803,0.0220192
,,,,,,,,,394,71.4478,0.0396921
,,,,,,,,,338,94.1441,0.0313355
,,,,,,,,,365,51.2737,0.0256144
,,,,,,,,,393,67.0166,0.0179476
,,,,,,,,,422,42.7543,0.0281715
,,,,,,,,,392,43.3958,0.031794
,,,,,,,,,421,58.8901,0.0207771
,,,,,,,,,451,59.4106,0.0358309
,,,,,,,,,450,53.5711,0.0180971
,,,,,,,,,481,30.9138,0.0285415
,,,,,,,,,512,28.9406,0.0193371
