facetNormals:0,facetNormals:1,facetNormals:2,FacetCenters:0,FacetCenters:1,FacetCenters:2,FacetIds,relFacetSize,absFacetSize,cellPairingIds,interplanarAngles,angleWeights
0.0366396,-0.0817783,-0.965764,5.83736,6.64366,8.19263,1,0.0256016,0.00480219,8,47.9734,0.0362112
-0.669957,0.10354,-0.67956,5.74871,6.62538,8.21658,2,0.0618368,0.0115989,13,46.4542,0.0378703
-0.00774951,-0.728169,-0.584863,5.78393,6.5746,8.23897,3,0.0727177,0.0136399,19,58.0858,0.0186223
0.812206,0.209607,-0.507424,5.89039,6.64946,8.29619,4,0.0146331,0.00274478,26,62.1151,0.0364769
0.754029,-0.467977,-0.386405,5.86333,6.60892,8.273,5,0.0634148,0.0118949,34,85.3087,0.0314808
0.196958,0.947017,-0.153159,5.89916,6.73659,8.23489,6,0.0408649,0.00766518,43,82.9039,0.0400919
-0.463606,0.818673,-0.206411,5.80807,6.70905,8.24246,7,0.092375,0.0173271,53,99.4498,0.0184188
0.918827,0.256234,0.173014,5.9031,6.66398,8.29944,8,0.0143833,0.00269793,64,89.519,0.0408805
0.403822,-0.855314,0.0797429,5.85777,6.60286,8.27614,9,0.101388,0.0190178,76,121.436,0.0409349
-0.689614,0.495009,0.430452,5.74924,6.63952,8.32713,10,0.102061,0.0191439,89,125.033,0.0304437
0.534992,-0.520099,0.62574,5.88934,6.64265,8.31897,11,0.0375444,0.00704233,103,128.379,0.0296117
0.144983,0.800742,0.55018,5.85998,6.67489,8.37255,12,0.0351113,0.00658595,118,146.858,0.0188733
-0.233918,0.574603,0.78163,5.78902,6.68083,8.35296,13,0.0149455,0.00280338,134,153.998,0.0262569
0.241781,0.402395,0.85755,5.86332,6.67806,8.36258,14,0.0269466,0.00505447,151,154.758,0.0338833
-0.0946656,-0.33676,0.913553,5.79481,6.57014,8.39423,15,0.0500848,0.00939459,18,68.5914,0.0668373
,,,,,,,,,25,100.88,0.0236659
,,,,,,,,,33,108.255,0.0626159
,,,,,,,,,42,85.7184,0.0492096
,,,,,,,,,52,54.5961,0.0740822
,,,,,,,,,63,139.407,0.0233382
,,,,,,,,,75,116.975,0.0768207
,,,,,,,,,88,76.0175,0.0770129
,,,,,,,,,102,153.636,0.0467216
,,,,,,,,,117,114.306,0.0447904
,,,,,,,,,133,109.196,0.0240728
,,,,,,,,,150,138.523,0.0375361
,,,,,,,,,168,129.105,0.0553438
,,,,,,,,,32,81.3412,0.0243635
,,,,,,,,,41,51.6504,0.0677484
,,,,,,,,,51,131.12,0.052325
,,,,,,,,,62,121.632,0.0813761
,,,,,,,,,74,109.007,0.0240163
,,,,,,,,,87,49.7315,0.0846924
,,,,,,,,,101,133.052,0.0849261
,,,,,,,,,116,89.4581,0.0495209
,,,,,,,,,132,170.925,0.0473567
,,,,,,,,,149,159.626,0.0247949
,,,,,,,,,167,150.718,0.0393219
,,,,,,,,,186,108.397,0.0593156
,,,,,,,,,50,41.5256,0.0237791
,,,,,,,,,61,62.9789,0.0215496
,,,,,,,,,73,96.0916,0.0252641
,,,,,,,,,86,41.4651,0.0145071
,,,,,,,,,100,83.3202,0.0255751
,,,,,,,,,115,136.316,0.0255963
,,,,,,,,,131,89.5204,0.0210586
,,,,,,,,,148,89.6179,0.0206571
,,,,,,,,,166,118.457,0.0147877
,,,,,,,,,185,99.2719,0.0189666
,,,,,,,,,205,129.579,0.022649
,,,,,,,,,72,104.385,0.0497017
,,,,,,,,,85,134.455,0.0752032
,,,,,,,,,99,57.3636,0.0234483
,,,,,,,,,114,42.8158,0.0780267
,,,,,,,,,130,175.164,0.0782251
,,,,,,,,,147,64.5522,0.047165
,,,,,,,,,165,120.182,0.0451977
,,,,,,,,,184,140.686,0.0241899
,,,,,,,,,204,110.886,0.0378218
,,,,,,,,,225,106.365,0.0559671
,,,,,,,,,98,40.6576,0.0566632
,,,,,,,,,113,65.2734,0.0212775
,,,,,,,,,129,143.028,0.0582514
,,,,,,,,,146,73.3528,0.0583619
,,,,,,,,,164,120.43,0.0391344
,,,,,,,,,183,43.0831,0.0377703
,,,,,,,,,203,67.2217,0.0218865
,,,,,,,,,224,71.9061,0.0324774
,,,,,,,,,246,119.895,0.0450076
,,,,,,,,,128,105.651,0.024891
,,,,,,,,,145,171.357,0.096672
,,,,,,,,,163,46.063,0.0969767
,,,,,,,,,182,148.88,0.0533895
,,,,,,,,,202,59.8817,0.0508824
,,,,,,,,,223,64.2544,0.0257283
,,,,,,,,,245,87.5453,0.0417224
,,,,,,,,,268,116.497,0.0649529
,,,,,,,,,162,79.6276,0.0251927
,,,,,,,,,181,117.94,0.0252134
,,,,,,,,,201,60.382,0.0207986
,,,,,,,,,222,62.9155,0.020407
,,,,,,,,,244,85.997,0.014659
,,,,,,,,,267,60.0178,0.0187555
,,,,,,,,,291,90.9192,0.0223486
,,,,,,,,,200,137.637,0.101724
,,,,,,,,,221,39.7379,0.0547972
,,,,,,,,,243,128.66,0.0521595
,,,,,,,,,266,123.557,0.0260509
,,,,,,,,,290,101.068,0.0425772
,,,,,,,,,315,69.6664,0.0670484
,,,,,,,,,242,112.658,0.054895
,,,,,,,,,265,55.2269,0.0522481
,,,,,,,,,289,34.5587,0.0260729
,,,,,,,,,314,64.4318,0.0426362
,,,,,,,,,340,71.734,0.0671948
,,,,,,,,,288,89.6784,0.0362871
,,,,,,,,,313,86.1586,0.0213801
,,,,,,,,,339,61.335,0.0313747
,,,,,,,,,366,43.0473,0.0429173
,,,,,,,,,338,29.1337,0.0209664
,,,,,,,,,365,30.3079,0.0304919
,,,,,,,,,393,76.8117,0.0412822
,,,,,,,,,392,29.9934,0.019227
,,,,,,,,,421,56.2249,0.0230213
,,,,,,,,,450,49.191,0.0350407
