Q	U	V
{$V$}	{[mm$^3$]}	0.00382477
{$d_v$}	{[mm]}	0.194030
{$S_c$}	{[mm$^2$]}	0.217441
{$S_o$}	{[mm$^2$]}	0.124861
{$S_l/S_o$}	[]	0.741465
{$\Psi$}	[]	0.543934
{$\eta$}	[]	0.603000
{med($\theta_e$)}	{[$^\circ$]}	66.2955
{$\Upsilon$}	[]	16
{$\Xi$}	[]	4
