Q	U	V
{$V$}	{[mm$^3$]}	0.00145106
{$d_v$}	{[mm]}	0.140463
{$S_c$}	{[mm$^2$]}	0.0913701
{$S_o$}	{[mm$^2$]}	0.0525006
{$S_l/S_o$}	[]	0.740363
{$\Psi$}	[]	0.678376
{$\eta$}	[]	0.699142
{med($\theta_e$)}	{[$^\circ$]}	63.85525
{$\Upsilon$}	[]	15
{$\Xi$}	[]	7
