Q	U	V
{$V$}	{[mm$^3$]}	0.00570924
{$d_v$}	{[mm]}	0.221748
{$S_c$}	{[mm$^2$]}	0.330679
{$S_o$}	{[mm$^2$]}	0.18531
{$S_l/S_o$}	[]	0.784464
{$\Psi$}	[]	0.467157
{$\eta$}	[]	0.605360
{med($\theta_e$)}	{[$^\circ$]}	62.7913
{$\Upsilon$}	[]	14
{$\Xi$}	[]	7
