Q	U	V
{$V$}	{[mm$^3$]}	0.0164461
{$d_v$}	{[mm]}	0.315516
{$S_c$}	{[mm$^2$]}	0.524867
{$S_o$}	{[mm$^2$]}	0.362294
{$S_l/S_o$}	[]	0.448732
{$\Psi$}	[]	0.595859
{$\eta$}	[]	0.601651
{med($\theta_e$)}	{[$^\circ$]}	50.3092
{$\Upsilon$}	[]	19
{$\Xi$}	[]	8
