facetNormals:0,facetNormals:1,facetNormals:2,FacetCenters:0,FacetCenters:1,FacetCenters:2,FacetIds,relFacetSize,absFacetSize,cellPairingIds,interplanarAngles,angleWeights
0.136106,0.671853,-0.701738,3.961,3.31226,6.27125,1,0.0317547,0.0027386,8,87.467,0.0139884
0.89362,-0.365085,-0.237634,3.99247,3.29602,6.29908,2,0.00896988,0.000773585,13,61.0117,0.013985
-0.725319,0.65872,-0.18562,3.93787,3.35457,6.28642,3,0.00896709,0.000773345,19,94.0256,0.0419442
-0.934973,0.0122624,-0.0775234,3.90556,3.31892,6.32519,4,0.061763,0.00532659,26,54.4747,0.0578018
0.770311,0.589355,-0.0766438,3.89978,3.34426,6.25637,5,0.321586,0.0277344,34,51.2205,0.0282724
0.00127696,0.97482,0.0773478,3.92577,3.34056,6.32041,6,0.0254784,0.00219732,43,97.0861,0.0417623
0.906317,-0.0275126,0.314978,3.95406,3.28582,6.32788,7,0.0609806,0.00525912,53,90.936,0.0215599
-0.751821,0.490588,0.345844,3.91402,3.3313,6.30759,8,0.0163204,0.00140751,64,135.862,0.0359425
-0.721517,-0.581561,0.272305,3.76133,3.26802,6.33401,9,0.0414028,0.00357068,76,131.212,0.00857985
-0.764216,-0.164304,0.604689,3.91931,3.35223,6.27432,10,0.00496,0.000427763,89,136.691,0.0333503
-0.264537,-0.00234401,0.930273,3.93128,3.29162,6.35987,11,0.0351148,0.00302839,18,148.417,0.00896849
,,,,,,,,,25,151.737,0.0156648
,,,,,,,,,33,59.465,0.017453
,,,,,,,,,42,112.57,0.0132685
,,,,,,,,,52,38.6649,0.0156393
,,,,,,,,,63,167.336,0.0115769
,,,,,,,,,75,121.181,0.0147452
,,,,,,,,,88,141.288,0.0063878
,,,,,,,,,102,118.352,0.0142896
,,,,,,,,,32,41.5133,0.0156605
,,,,,,,,,41,99.269,0.0174477
,,,,,,,,,51,49.9982,0.0132654
,,,,,,,,,62,140.064,0.0156351
,,,,,,,,,74,33.035,0.0115746
,,,,,,,,,87,84.6566,0.0147415
,,,,,,,,,101,70.2004,0.00638709
,,,,,,,,,116,88.9513,0.014286
,,,,,,,,,50,140.764,0.103624
,,,,,,,,,61,89.7025,0.0360751
,,,,,,,,,73,165.551,0.0613693
,,,,,,,,,86,40.9126,0.0258184
,,,,,,,,,100,44.503,0.0495738
,,,,,,,,,115,44.1227,0.00918258
,,,,,,,,,131,78.8688,0.0447738
,,,,,,,,,72,53.2262,0.047216
,,,,,,,,,85,45.2232,0.102521
,,,,,,,,,99,109.765,0.0310642
,,,,,,,,,114,168.058,0.0733607
,,,,,,,,,130,139.566,0.00976933
,,,,,,,,,147,107.085,0.0633159
,,,,,,,,,98,90.0793,0.0359405
,,,,,,,,,113,57.6044,0.0198961
,,,,,,,,,129,125.372,0.0315448
,,,,,,,,,146,96.7967,0.00830352
,,,,,,,,,164,85.796,0.0295303
,,,,,,,,,128,129.385,0.0257494
,,,,,,,,,145,126.551,0.0493198
,,,,,,,,,163,121.641,0.00917383
,,,,,,,,,182,86.7071,0.0445666
,,,,,,,,,162,67.7853,0.023412
,,,,,,,,,181,42.3116,0.00760786
,,,,,,,,,201,56.0619,0.0222838
,,,,,,,,,200,31.7619,0.00885874
,,,,,,,,,221,61.5139,0.0380004
,,,,,,,,,242,36.8272,0.00869222
