Q	U	V
{$V$}	{[mm$^3$]}	0.00676132
{$d_v$}	{[mm]}	0.234609
{$S_c$}	{[mm$^2$]}	0.284577
{$S_o$}	{[mm$^2$]}	0.178954
{$S_l/S_o$}	[]	0.590224
{$\Psi$}	[]	0.607629
{$\eta$}	[]	0.669046
{med($\theta_e$)}	{[$^\circ$]}	50.5482
{$\Upsilon$}	[]	15
{$\Xi$}	[]	4
