"cellPairingIds","interplanarAngles","angleWeights"
8,78.3558,0.100109
13,30.4787,0.0747355
19,53.9166,0.0416597
26,76.1784,0.0162556
76,57.2294,0.114266
18,58.7349,0.0659387
33,150.432,0.0157972
42,34.1683,0.0487279
63,88.3901,0.0163502
75,55.3142,0.0486799
51,58.7179,0.0418174
101,36.903,0.0717982
116,46.3648,0.0649909
50,26.1008,0.0129337
115,75.1809,0.0407309
148,91.4799,0.0208253
226,76.107,0.0245971
99,116.18,0.00887392
165,70.1232,0.0116915
129,44.8003,0.034141
164,36.148,0.0482084
224,51.3523,0.0527818
162,37.0954,0.0143001
222,47.849,0.0119917
267,68.3978,0.0167827
290,55.2016,0.0527255
242,23.5129,0.0929566
314,54.2257,0.111603
367,71.4681,0.0393658
339,39.1929,0.0959769
365,79.0243,0.030838
422,48.9168,0.0204625
481,46.3365,0.0398975
