facetNormals:0,facetNormals:1,facetNormals:2,FacetCenters:0,FacetCenters:1,FacetCenters:2,FacetIds,relFacetSize,absFacetSize,cellPairingIds,interplanarAngles,angleWeights
0.293103,0.253702,-0.90268,4.246,4.67085,8.95653,1,0.0112527,0.00270288,8,44.6267,0.0172841
-0.439763,0.311982,-0.80658,4.16653,4.6425,8.95438,2,0.0372496,0.00894731,13,45.4321,0.018407
0.0415141,-0.454733,-0.853778,4.21522,4.60964,8.92294,3,0.0505395,0.0121395,19,48.4959,0.0165883
0.546373,-0.476013,-0.666359,4.24561,4.66183,8.86196,4,0.0315468,0.0075775,26,72.5971,0.0204821
-0.571004,-0.468495,-0.633899,4.14819,4.54061,8.9805,5,0.113915,0.0273621,34,51.611,0.0201403
0.870904,0.0224567,-0.343904,4.27451,4.67006,8.94216,6,0.0958256,0.0230172,43,57.8016,0.0164587
-0.409563,0.739669,-0.492534,4.19469,4.71218,9.02136,7,0.030629,0.00735705,53,74.4359,0.0174034
0.534093,-0.754735,-0.324876,4.23178,4.57728,8.95685,8,0.0383841,0.00921982,64,80.6707,0.0156869
0.819517,-0.552502,-0.0639198,4.26159,4.59211,8.96062,9,0.0258886,0.00621841,76,100.765,0.019342
-0.945646,0.103133,-0.0839564,4.12264,4.62591,9.01851,10,0.0688027,0.0165263,89,91.9754,0.0146085
-0.684044,0.710489,0.0145789,4.13759,4.66264,9.02985,11,0.0208165,0.00500009,103,129.035,0.017794
-0.519654,-0.765416,0.278324,4.14244,4.54361,9.06259,12,0.0424994,0.0102083,118,102.775,0.0177959
0.814374,-0.362785,0.397351,4.24709,4.5467,9.04977,13,0.0425215,0.0102136,134,95.068,0.0160632
0.751294,0.412303,0.45302,4.2473,4.63664,8.99558,14,0.0280576,0.0067394,151,114.907,0.0153316
-0.746042,0.533093,0.358905,4.12842,4.64716,9.05147,15,0.0240488,0.00577649,169,131.388,0.0187228
0.153336,-0.79095,0.515865,4.21452,4.60954,8.99359,16,0.055698,0.0133786,188,153.397,0.0153806
-0.530213,0.111665,0.797179,4.13558,4.59419,9.11111,17,0.0242917,0.00583483,208,172.626,0.0166104
-0.169449,-0.247727,0.926585,4.15989,4.55853,9.13375,18,0.0317068,0.00761593,18,55.7622,0.0428886
,,,,,,,,,25,81.044,0.0341618
,,,,,,,,,33,49.2645,0.0561413
,,,,,,,,,42,96.2291,0.0536459
,,,,,,,,,52,31.6497,0.0336165
,,,,,,,,,63,102.655,0.0378084
,,,,,,,,,75,120.052,0.030547
,,,,,,,,,88,56.1742,0.0483323
,,,,,,,,,102,57.7457,0.0267077
,,,,,,,,,117,104.505,0.0397017
,,,,,,,,,133,146.735,0.0397113
,,,,,,,,,150,127.089,0.0320067
,,,,,,,,,168,77.6142,0.0292278
,,,,,,,,,187,141.887,0.044643
,,,,,,,,,207,113.639,0.0294065
,,,,,,,,,228,142.544,0.0342554
,,,,,,,,,32,32.0299,0.0388459
,,,,,,,,,41,39.1763,0.0700157
,,,,,,,,,51,69.3666,0.0661767
,,,,,,,,,62,85.9349,0.0381423
,,,,,,,,,74,47.3603,0.043631
,,,,,,,,,87,69.2444,0.0342386
,,,,,,,,,101,90.8971,0.0582737
,,,,,,,,,116,112.4,0.0294875
,,,,,,,,,132,84.5489,0.046172
,,,,,,,,,149,98.5481,0.0461851
,,,,,,,,,167,125.354,0.0360832
,,,,,,,,,186,127.457,0.0325899
,,,,,,,,,206,94.6069,0.0529935
,,,,,,,,,227,143.831,0.0328122
,,,,,,,,,249,136.627,0.038967
,,,,,,,,,50,69.6361,0.0494102
,,,,,,,,,61,41.1485,0.047467
,,,,,,,,,73,104.898,0.0310811
,,,,,,,,,86,25.9421,0.0346312
,,,,,,,,,100,39.408,0.028439
,,,,,,,,,115,122.841,0.0432589
,,,,,,,,,131,138.004,0.0250822
,,,,,,,,,148,96.3409,0.0362131
,,,,,,,,,166,68.4554,0.0362211
,,,,,,,,,185,95.2699,0.0297001
,,,,,,,,,205,158.279,0.0272922
,,,,,,,,,226,82.8926,0.0402796
,,,,,,,,,248,157.09,0.0274479
,,,,,,,,,271,128.135,0.0316266
,,,,,,,,,72,108.536,0.10409
,,,,,,,,,85,77.9056,0.0482774
,,,,,,,,,99,74.5219,0.0574202
,,,,,,,,,114,100.072,0.0421891
,,,,,,,,,130,54.1114,0.0857897
,,,,,,,,,147,87.1049,0.0352005
,,,,,,,,,165,59.3846,0.0619037
,,,,,,,,,184,125.148,0.0619271
,,,,,,,,,204,164.53,0.0450253
,,,,,,,,,225,93.0664,0.0397136
,,,,,,,,,247,92.7088,0.0748154
,,,,,,,,,270,105.765,0.0400441
,,,,,,,,,294,113.272,0.0496063
,,,,,,,,,98,100.734,0.0464205
,,,,,,,,,113,52.4101,0.0548125
,,,,,,,,,129,38.7663,0.0407642
,,,,,,,,,146,152.364,0.0800963
,,,,,,,,,164,129.272,0.0342029
,,,,,,,,,183,128.676,0.0588835
,,,,,,,,,203,51.8721,0.0589047
,,,,,,,,,224,55.995,0.043406
,,,,,,,,,246,145.624,0.0384484
,,,,,,,,,269,93.9439,0.0704484
,,,,,,,,,293,144.329,0.0387582
,,,,,,,,,318,121.143,0.0476479
,,,,,,,,,128,130.047,0.0340709
,,,,,,,,,145,137.353,0.02806
,,,,,,,,,163,57.2904,0.0423881
,,,,,,,,,182,34.1739,0.0247869
,,,,,,,,,202,121.25,0.0356008
,,,,,,,,,223,146.627,0.0356085
,,,,,,,,,245,103.776,0.029287
,,,,,,,,,268,57.1179,0.026943
,,,,,,,,,292,164.47,0.0395236
,,,,,,,,,317,95.652,0.0270947
,,,,,,,,,343,126.749,0.0311586
,,,,,,,,,162,25.5853,0.0309217
,,,,,,,,,181,126.42,0.0492772
,,,,,,,,,201,159.648,0.0269937
,,,,,,,,,222,77.2025,0.0403371
,,,,,,,,,244,52.6996,0.040347
,,,,,,,,,267,93.4456,0.0324184
,,,,,,,,,291,161.931,0.0295707
,,,,,,,,,316,56.954,0.045448
,,,,,,,,,342,131.542,0.0297536
,,,,,,,,,369,102.375,0.0347274
,,,,,,,,,200,150.92,0.0376213
,,,,,,,,,221,167.579,0.0230771
,,,,,,,,,243,91.2433,0.0321767
,,,,,,,,,266,29.3747,0.032183
,,,,,,,,,290,68.0458,0.0269295
,,,,,,,,,315,162.259,0.0249348
,,,,,,,,,341,56.0116,0.0353476
,,,,,,,,,368,124.97,0.0250647
,,,,,,,,,396,93.6388,0.0285038
,,,,,,,,,242,40.25,0.0319626
,,,,,,,,,265,65.0548,0.052543
,,,,,,,,,289,154.441,0.0525599
,,,,,,,,,314,139.697,0.0398603
,,,,,,,,,340,39.0409,0.0356402
,,,,,,,,,367,107.182,0.0615607
,,,,,,,,,395,61.0193,0.0359062
,,,,,,,,,424,86.4929,0.0434091
,,,,,,,,,288,101.151,0.0279452
,,,,,,,,,313,147.174,0.02795
,,,,,,,,,339,102.956,0.0239006
,,,,,,,,,366,22.9585,0.0223162
,,,,,,,,,394,134.324,0.0303063
,,,,,,,,,423,61.5009,0.0224202
,,,,,,,,,453,92.7796,0.0251326
,,,,,,,,,338,92.1222,0.0425104
,,,,,,,,,365,128.26,0.0338005
,,,,,,,,,393,85.2039,0.0307164
,,,,,,,,,422,43.6016,0.0482117
,,,,,,,,,452,63.7458,0.0309138
,,,,,,,,,483,55.3086,0.0363183
,,,,,,,,,392,47.2492,0.0338075
,,,,,,,,,421,133.235,0.0307221
,,,,,,,,,451,48.6591,0.0482259
,,,,,,,,,482,99.5161,0.0309196
,,,,,,,,,514,70.3263,0.0363263
,,,,,,,,,450,100.754,0.025899
,,,,,,,,,481,88.592,0.037317
,,,,,,,,,513,89.4584,0.0260392
,,,,,,,,,546,78.3708,0.0297708
,,,,,,,,,512,111.87,0.0335931
,,,,,,,,,545,38.6537,0.0241696
,,,,,,,,,579,70.0702,0.0273519
,,,,,,,,,578,74.8102,0.0338293
,,,,,,,,,613,45.9421,0.0404098
,,,,,,,,,648,31.4573,0.0275083
