facetNormals:0,facetNormals:1,facetNormals:2,FacetCenters:0,FacetCenters:1,FacetCenters:2,FacetIds,relFacetSize,absFacetSize,cellPairingIds,interplanarAngles,angleWeights
0.133637,0.120455,-0.968667,3.38167,5.06605,5.74146,1,0.00673535,0.000701145,8,40.0778,0.0109508
-0.28371,-0.385187,-0.838028,3.33052,4.99148,5.7599,2,0.0292704,0.00304702,13,43.3005,0.0122002
-0.484304,0.378548,-0.721155,3.31786,5.08449,5.74856,3,0.0646748,0.0067326,19,76.3525,0.0102865
-0.434486,-0.789364,-0.394115,3.31661,4.98814,5.76933,4,0.0217584,0.00226503,26,102.791,0.0114761
-0.917925,0.246284,0.119685,3.28772,5.07616,5.80342,5,0.0387522,0.00403408,34,81.6494,0.0117471
0.561578,0.806101,0.0325173,3.46943,5.10675,5.77877,6,0.0459044,0.00477862,43,99.6656,0.0118749
-0.888375,-0.383577,-0.00501151,3.28468,5.0211,5.79515,7,0.0501217,0.00521764,53,87.8874,0.0128316
0.033967,0.961315,0.0880114,3.3786,5.12867,5.79886,8,0.135234,0.0140777,64,110.257,0.0116979
-0.317221,-0.901517,0.187062,3.35936,4.94809,5.80287,9,0.0444434,0.00462652,76,109.935,0.012098
0.832886,-0.147413,0.424812,3.46875,5.04134,5.83246,10,0.0593612,0.00617945,89,114.659,0.0105945
0.322318,-0.860134,0.355453,3.4209,4.96139,5.81683,11,0.0248093,0.00258263,103,140.977,0.0120065
-0.0513425,-0.698349,0.674132,3.39335,4.96842,5.85459,12,0.0552304,0.00574944,118,149.222,0.012385
-0.550296,-0.33837,0.741143,3.32319,5.00286,5.84086,13,0.0768332,0.00799828,134,127.677,0.0124831
0.406732,0.511067,0.727431,3.4348,5.08319,5.85815,14,0.0851303,0.008862,151,148.506,0.0116901
-0.521818,0.205662,0.803243,3.31544,5.08882,5.8585,15,0.0442194,0.00460321,169,172.457,0.0124975
-0.103645,0.00542188,0.966341,3.3929,5.05867,5.84762,16,0.0864903,0.00900357,18,49.3272,0.0403013
,,,,,,,,,25,37.0309,0.0249615
,,,,,,,,,33,85.9515,0.0333504
,,,,,,,,,42,121.604,0.0357471
,,,,,,,,,52,64.3641,0.0369579
,,,,,,,,,63,119.126,0.0481245
,,,,,,,,,75,72.6335,0.0352953
,,,,,,,,,88,125.897,0.0392078
,,,,,,,,,102,93.4994,0.0268558
,,,,,,,,,117,107.457,0.0382627
,,,,,,,,,133,110.654,0.0423913
,,,,,,,,,150,167.737,0.0435626
,,,,,,,,,168,129.735,0.0352244
,,,,,,,,,187,146.55,0.0437385
,,,,,,,,,32,77.8697,0.032562
,,,,,,,,,41,60.1726,0.048465
,,,,,,,,,51,89.4018,0.0536965
,,,,,,,,,62,71.6511,0.0564758
,,,,,,,,,74,71.9249,0.0875022
,,,,,,,,,87,110.458,0.0526836
,,,,,,,,,101,148.597,0.0619042
,,,,,,,,,116,142.259,0.0358619
,,,,,,,,,132,141.985,0.0595807
,,,,,,,,,149,115.158,0.0702317
,,,,,,,,,167,124.755,0.073506
,,,,,,,,,186,105.539,0.0525259
,,,,,,,,,206,134.424,0.0740084
,,,,,,,,,50,80.3912,0.027869
,,,,,,,,,61,157.499,0.0295231
,,,,,,,,,73,43.4619,0.0303441
,,,,,,,,,86,148.304,0.0374856
,,,,,,,,,100,35.9074,0.0292142
,,,,,,,,,115,116.334,0.0318445
,,,,,,,,,131,65.6857,0.0231839
,,,,,,,,,148,71.2119,0.0312182
,,,,,,,,,166,77.2072,0.033913
,,,,,,,,,185,154.364,0.0346585
,,,,,,,,,205,105.174,0.0291657
,,,,,,,,,226,110.843,0.0347698
,,,,,,,,,72,109.42,0.0420262
,,,,,,,,,85,38.9959,0.0437097
,,,,,,,,,99,76.4928,0.0602417
,,,,,,,,,114,84.3682,0.0414032
,,,,,,,,,130,145.812,0.0468922
,,,,,,,,,147,119.541,0.0302515
,,,,,,,,,165,92.7198,0.0455467
,,,,,,,,,184,57.1758,0.0515196
,,,,,,,,,204,99.8634,0.05326
,,,,,,,,,225,48.1774,0.0413057
,,,,,,,,,247,76.829,0.0535232
,,,,,,,,,98,148.184,0.0479205
,,,,,,,,,113,32.9387,0.0685425
,,,,,,,,,129,159.87,0.0451621
,,,,,,,,,146,67.0549,0.0517727
,,,,,,,,,164,121.149,0.0322103
,,,,,,,,,183,126.614,0.0501374
,,,,,,,,,203,125.245,0.057472
,,,,,,,,,224,46.2911,0.0596462
,,,,,,,,,246,96.0285,0.0450462
,,,,,,,,,269,91.3442,0.0599765
,,,,,,,,,128,115.294,0.0731368
,,,,,,,,,145,48.3162,0.0471121
,,,,,,,,,163,138.455,0.0543516
,,,,,,,,,182,87.4859,0.0331901
,,,,,,,,,202,70.7495,0.0525522
,,,,,,,,,223,49.7308,0.0606674
,,,,,,,,,245,126.372,0.0630952
,,,,,,,,,268,66.3259,0.046986
,,,,,,,,,292,84.8051,0.063465
,,,,,,,,,162,156.244,0.0669005
,,,,,,,,,181,94.7702,0.0825061
,,,,,,,,,201,145.562,0.0419268
,,,,,,,,,222,130.821,0.0784296
,,,,,,,,,244,107.069,0.0979921
,,,,,,,,,267,52.9377,0.104486
,,,,,,,,,291,74.6391,0.0666465
,,,,,,,,,316,84.6985,0.105504
,,,,,,,,,200,93.2245,0.0508304
,,,,,,,,,221,39.5405,0.031843
,,,,,,,,,243,35.359,0.0492532
,,,,,,,,,266,49.7793,0.0563131
,,,,,,,,,290,118.459,0.0583989
,,,,,,,,,315,82.1454,0.0443311
,,,,,,,,,341,77.2579,0.0587155
,,,,,,,,,242,54.1297,0.0349935
,,,,,,,,,265,67.871,0.0572213
,,,,,,,,,289,95.7732,0.0669765
,,,,,,,,,314,51.7842,0.0699479
,,,,,,,,,340,97.6664,0.0506836
,,,,,,,,,367,69.4184,0.0704027
,,,,,,,,,288,30.6324,0.0342387
,,,,,,,,,313,67.08,0.0375075
,,,,,,,,,339,92.9718,0.0384215
,,,,,,,,,366,93.5396,0.0317854
,,,,,,,,,394,71.3938,0.0385583
,,,,,,,,,338,36.9024,0.0642649
,,,,,,,,,365,83.1949,0.0669957
,,,,,,,,,393,63.5158,0.0491154
,,,,,,,,,422,46.2739,0.0674128
,,,,,,,,,392,81.4815,0.0807693
,,,,,,,,,421,32.4411,0.056133
,,,,,,,,,451,36.1677,0.0813763
,,,,,,,,,450,60.1187,0.0582052
,,,,,,,,,481,45.704,0.0858049
,,,,,,,,,512,29.1697,0.0585198
