"cellPairingIds","interplanarAngles","angleWeights"
8,60.2419,0.0535916
13,124.769,0.0854426
26,81.896,0.070462
43,47.4909,0.113101
18,101.602,0.0440991
25,51.0415,0.0430749
52,68.3201,0.0504691
32,68.5722,0.0615026
41,89.0893,0.0549192
74,53.6274,0.0710912
87,48.5057,0.0424244
73,105.772,0.0746415
100,41.4584,0.0414756
85,96.3943,0.0651615
99,44.2701,0.0604057
128,135.421,0.0892511
145,133.091,0.0482876
163,41.677,0.099819
162,77.6478,0.0456256
181,119.919,0.0890759
200,96.8071,0.0482363
