"cellPairingIds","interplanarAngles","angleWeights"
13,55.1733,0.0183729
19,49.7728,0.0281256
26,55.9143,0.0257305
18,46.3444,0.017327
25,62.3506,0.0257466
42,63.7529,0.0191174
75,50.1041,0.0215857
32,98.9026,0.0357577
41,78.8871,0.0319738
62,58.4921,0.0198895
87,64.5055,0.0282064
50,83.1385,0.0806298
61,38.8412,0.0443242
115,109.836,0.162471
85,66.5136,0.0288066
99,43.673,0.0640884
130,110.584,0.105658
129,71.4341,0.0332801
146,89.2255,0.05096
128,43.6391,0.028897
145,95.4259,0.0257125
163,98.5075,0.0351286
181,77.8157,0.106883
200,103.415,0.0733038
