facetNormals:0,facetNormals:1,facetNormals:2,FacetCenters:0,FacetCenters:1,FacetCenters:2,FacetIds,relFacetSize,absFacetSize,cellPairingIds,interplanarAngles,angleWeights
0.145283,0.0775323,-0.972006,3.97691,3.71521,5.994,1,0.0330732,0.00791166,8,30.0132,0.03697
0.0939742,-0.41851,-0.875808,3.98271,3.66657,5.99932,2,0.0419078,0.0100251,13,34.2584,0.0353132
-0.422337,0.0191446,-0.880016,3.96783,3.73799,5.98413,3,0.0378786,0.00906119,19,49.8226,0.0449721
-0.244726,0.685434,-0.598488,3.95033,3.78807,6.02426,4,0.0702444,0.0168036,26,52.3949,0.0274094
-0.52074,-0.423282,-0.721383,3.95163,3.67728,5.98832,5,0.0234018,0.00559811,34,40.6327,0.0514756
0.698519,-0.143476,-0.649437,4.09057,3.66748,6.03534,6,0.116045,0.0277598,43,41.4523,0.0426468
0.600403,0.460709,-0.614664,4.1337,3.69662,6.09229,7,0.0600209,0.014358,53,67.3929,0.0310816
0.917236,0.288725,-0.224909,4.12287,3.67692,6.11156,8,0.0293162,0.00701293,64,85.8098,0.0328834
-0.119488,-0.934069,-0.163192,3.94278,3.64494,6.04327,9,0.0326958,0.00782139,76,74.927,0.0401843
0.26946,0.929168,-0.143574,4.0444,3.79979,6.05027,10,0.0511909,0.0122457,89,106.384,0.0333582
-0.748717,-0.619949,0.118817,3.86901,3.67329,6.05657,11,0.0336481,0.00804918,103,108.111,0.0412819
0.827698,0.0389279,0.419659,4.13076,3.67998,6.13803,12,0.0549105,0.0131355,118,108.667,0.0432794
-0.922729,0.119822,0.179246,3.89362,3.7201,6.09121,13,0.062596,0.014974,134,102.82,0.0284233
0.381349,-0.847179,0.203467,4.11884,3.61721,6.13748,14,0.0249197,0.0059612,151,143.991,0.0330747
-0.66284,0.0668867,0.697785,3.88004,3.73601,6.09089,15,0.0330762,0.00791238,169,143.412,0.0250654
0.165679,-0.561177,0.763163,3.94571,3.68295,6.07782,16,0.0201794,0.00482726,188,141.875,0.04713
0.0521919,0.499955,0.804709,3.94948,3.79476,6.09035,17,0.0819685,0.0196082,18,40.5881,0.0397915
,,,,,,,,,25,76.5138,0.0524963
,,,,,,,,,33,37.7218,0.0300329
,,,,,,,,,42,42.4105,0.0615777
,,,,,,,,,52,64.992,0.049355
,,,,,,,,,63,80.2956,0.034499
,,,,,,,,,75,55.8935,0.0367331
,,,,,,,,,88,104.437,0.0460866
,,,,,,,,,102,84.8917,0.0373265
,,,,,,,,,117,109.748,0.0475361
,,,,,,,,,133,108.541,0.0502042
,,,,,,,,,150,76.7747,0.0312545
,,,,,,,,,168,138.204,0.0369719
,,,,,,,,,187,116.466,0.0272415
,,,,,,,,,207,169.27,0.0554605
,,,,,,,,,32,45.6435,0.0492173
,,,,,,,,,41,28.3357,0.0289302
,,,,,,,,,51,73.0989,0.0571143
,,,,,,,,,62,71.8719,0.0464457
,,,,,,,,,74,100.998,0.0330519
,,,,,,,,,87,79.1153,0.0350969
,,,,,,,,,101,88.1796,0.0435399
,,,,,,,,,116,77.9389,0.0356382
,,,,,,,,,132,142.366,0.0448314
,,,,,,,,,149,75.3321,0.047197
,,,,,,,,,167,112.567,0.030062
,,,,,,,,,186,110.694,0.0353149
,,,,,,,,,206,143.254,0.0263312
,,,,,,,,,227,141.073,0.0518135
,,,,,,,,,50,73.1542,0.0351076
,,,,,,,,,61,82.4515,0.0875144
,,,,,,,,,73,54.2518,0.0647314
,,,,,,,,,86,83.333,0.0413678
,,,,,,,,,100,124.751,0.044622
,,,,,,,,,115,44.541,0.0592229
,,,,,,,,,131,109.815,0.0455007
,,,,,,,,,148,119.204,0.0616381
,,,,,,,,,166,77.0124,0.0662
,,,,,,,,,185,152.62,0.0367884
,,,,,,,,,205,103.328,0.0449749
,,,,,,,,,226,166.724,0.0313522
,,,,,,,,,248,99.7688,0.0756549
,,,,,,,,,72,79.9718,0.0389491
,,,,,,,,,85,93.8355,0.0336742
,,,,,,,,,99,116.728,0.0260273
,,,,,,,,,114,52.3392,0.0272789
,,,,,,,,,130,116.505,0.03212
,,,,,,,,,147,54.04,0.0276048
,,,,,,,,,165,145.065,0.0328175
,,,,,,,,,184,71.2255,0.0340674
,,,,,,,,,204,89.1908,0.0241369
,,,,,,,,,225,101.316,0.0274104
,,,,,,,,,247,114.923,0.0216715
,,,,,,,,,270,151.215,0.036409
,,,,,,,,,98,36.8507,0.0791194
,,,,,,,,,113,38.5093,0.0468075
,,,,,,,,,129,80.2229,0.0510174
,,,,,,,,,146,80.9642,0.0710427
,,,,,,,,,164,122.767,0.0521692
,,,,,,,,,183,70.4328,0.0745467
,,,,,,,,,203,148.365,0.0813245
,,,,,,,,,224,73.8087,0.0410288
,,,,,,,,,246,174.215,0.0514793
,,,,,,,,,269,108.831,0.0343804
,,,,,,,,,293,127.562,0.0960744
,,,,,,,,,128,31.3829,0.039392
,,,,,,,,,145,115.542,0.0423318
,,,,,,,,,163,44.6724,0.0552554
,,,,,,,,,182,147.828,0.0431218
,,,,,,,,,202,73.517,0.0573521
,,,,,,,,,223,131.237,0.0612814
,,,,,,,,,245,107.991,0.0352176
,,,,,,,,,268,147.816,0.0426493
,,,,,,,,,292,132.065,0.0302041
,,,,,,,,,317,104.586,0.0692984
,,,,,,,,,162,111.283,0.0309139
,,,,,,,,,181,55.4536,0.0372818
,,,,,,,,,201,157.341,0.0313331
,,,,,,,,,222,42.5213,0.0382246
,,,,,,,,,244,155.58,0.0399311
,,,,,,,,,267,86.3726,0.0269397
,,,,,,,,,291,141.498,0.0310829
,,,,,,,,,316,101.03,0.0239045
,,,,,,,,,342,89.313,0.0431866
,,,,,,,,,200,159.699,0.0399045
,,,,,,,,,221,46.0856,0.0331651
,,,,,,,,,243,103.269,0.0409867
,,,,,,,,,266,91.9565,0.042955
,,,,,,,,,290,38.3786,0.028283
,,,,,,,,,315,96.0482,0.0328849
,,,,,,,,,341,65.5886,0.0249562
,,,,,,,,,368,131.812,0.0467456
,,,,,,,,,242,146.085,0.0406058
,,,,,,,,,265,77.3495,0.0529855
,,,,,,,,,289,100.132,0.0563219
,,,,,,,,,314,140.101,0.0335213
,,,,,,,,,340,103.274,0.0401865
,,,,,,,,,367,128.566,0.0289477
,,,,,,,,,395,66.9678,0.0630228
,,,,,,,,,288,130.769,0.0417268
,,,,,,,,,313,46.5762,0.0437686
,,,,,,,,,339,73.5428,0.0286335
,,,,,,,,,366,55.3089,0.0333597
,,,,,,,,,394,70.4892,0.0252287
,,,,,,,,,423,105.827,0.0477108
,,,,,,,,,338,140.985,0.058502
,,,,,,,,,365,65.3775,0.0342816
,,,,,,,,,393,106.413,0.0412842
,,,,,,,,,422,60.8152,0.029513
,,,,,,,,,452,62.98,0.0657651
,,,,,,,,,392,117.556,0.0356478
,,,,,,,,,421,35.4498,0.0432819
,,,,,,,,,451,95.2464,0.03052
,,,,,,,,,482,80.0087,0.0709842
,,,,,,,,,450,100.516,0.0284244
,,,,,,,,,481,40.6536,0.0223004
,,,,,,,,,513,105.419,0.0382199
,,,,,,,,,512,65.4704,0.0250662
,,,,,,,,,545,52.2531,0.0471331
,,,,,,,,,578,67.9725,0.0323859
