"cellPairingIds","interplanarAngles","angleWeights"
18,68.4259,0.024961
33,23.1622,0.0179638
88,26.8403,0.0142714
41,88.0606,0.0203027
62,33.0069,0.0427304
74,107.898,0.0221062
87,74.9424,0.0231521
101,89.9317,0.0157091
116,37.3661,0.032469
132,65.417,0.0480718
149,118.415,0.0169012
227,80.4026,0.0405347
99,28.312,0.0164362
130,29.136,0.0126163
163,65.064,0.018723
245,59.1986,0.0669857
317,67.1286,0.0693333
162,85.0456,0.0182551
181,51.9389,0.0132901
244,82.6484,0.0141335
291,47.1992,0.0256202
316,47.3112,0.025336
266,44.9155,0.0145539
314,52.2865,0.0181214
340,47.1128,0.0174056
424,64.7797,0.016125
288,36.311,0.0557068
423,52.6882,0.0458312
338,70.9645,0.0215891
452,66.3167,0.0845827
451,51.4876,0.0187264
482,118.498,0.0199252
514,100.571,0.0173836
547,102.641,0.0186992
513,50.5534,0.0617427
546,49.517,0.042492
512,44.0713,0.0461288
579,33.5523,0.0387548
613,61.3624,0.0381081
648,76.3075,0.0434247
685,42.6211,0.0526838
722,36.7387,0.0379957
