Q	U	V
{$V$}	{[mm$^3$]}	0.00267769
{$d_v$}	{[mm]}	0.172288
{$S_c$}	{[mm$^2$]}	0.161975
{$S_o$}	{[mm$^2$]}	0.0975773
{$S_l/S_o$}	[]	0.659966
{$\Psi$}	[]	0.575718
{$\eta$}	[]	0.633135
{med($\theta_e$)}	{[$^\circ$]}	64.573
{$\Upsilon$}	[]	17
{$\Xi$}	[]	9
