"cellPairingIds","interplanarAngles","angleWeights"
8,43.0939,0.045787
13,36.6336,0.0320603
26,45.4182,0.125497
34,59.9291,0.0677659
64,106.892,0.112493
89,111.635,0.0688783
18,50.1139,0.0221075
52,31.9186,0.033692
75,70.0632,0.0436076
32,29.2806,0.0197693
41,69.658,0.0318861
62,55.4043,0.0256202
132,116.94,0.0284942
50,54.759,0.0365489
86,55.2257,0.0326109
148,137.323,0.0321608
99,55.8895,0.0873918
130,80.4747,0.0257884
147,99.6487,0.0680791
129,48.6171,0.0630985
164,59.1929,0.0465611
145,65.6941,0.0597735
202,65.1942,0.0511723
181,88.4675,0.0237636
222,135.494,0.0658941
244,93.6014,0.0623988
200,71.0521,0.02519
221,40.7598,0.0640619
243,38.7612,0.0781678
242,30.5134,0.0220618
265,89.6332,0.0235237
289,27.9644,0.0230625
338,67.0319,0.0607715
