"cellPairingIds","interplanarAngles","angleWeights"
8,58.1843,0.0192338
19,71.2704,0.0232772
26,58.7158,0.00932502
76,100.832,0.0230733
118,84.9295,0.01033
169,119.834,0.0229484
208,128.185,0.0256047
25,59.3929,0.0346309
33,83.0103,0.0107349
42,51.1545,0.0383243
75,68.9241,0.0334039
86,42.7211,0.0571616
100,70.1379,0.0478346
115,45.5636,0.0494455
72,95.5945,0.0122941
85,60.6827,0.0115622
204,76.5135,0.0119045
225,112.074,0.0118128
247,77.1679,0.0118011
98,41.3836,0.0514721
129,34.8609,0.05518
246,46.4417,0.0568406
268,55.5307,0.0439713
162,43.1348,0.0538939
181,35.0069,0.0559475
342,55.7249,0.0602549
369,62.8211,0.0735878
315,38.2425,0.0466492
368,55.9905,0.0499819
424,44.4196,0.0612774
451,51.591,0.0134581
514,51.0619,0.0143299
450,37.0149,0.0493694
481,58.9296,0.0491646
512,77.972,0.0476384
545,37.8825,0.0513405
578,63.8515,0.0511192
613,56.4299,0.060404
648,40.3401,0.0664828
