"cellPairingIds","interplanarAngles","angleWeights"
25,40.9523,0.0402864
33,39.3457,0.0532964
63,43.0832,0.0409763
75,62.1289,0.0203518
133,130.967,0.0295097
100,43.0111,0.0230176
166,101.658,0.0354655
85,53.1183,0.061063
99,74.7552,0.0790246
184,118.764,0.0451731
247,95.4304,0.0649782
223,67.9885,0.0317454
292,70.8544,0.0403985
162,33.8782,0.0232412
316,128.882,0.0475486
243,34.0661,0.0225665
266,117.13,0.0190441
341,146.372,0.0218519
338,85.5623,0.0344059
393,84.8388,0.049522
422,132.58,0.0448078
421,31.189,0.0352244
451,78.5892,0.0327719
512,59.2817,0.0462061
