Q	U	V
{$V$}	{[mm$^3$]}	0.00584342
{$d_v$}	{[mm]}	0.223472
{$S_c$}	{[mm$^2$]}	0.262549
{$S_o$}	{[mm$^2$]}	0.167776
{$S_l/S_o$}	[]	0.564878
{$\Psi$}	[]	0.597565
{$\eta$}	[]	0.653604
{med($\theta_e$)}	{[$^\circ$]}	52.4656
{$\Upsilon$}	[]	12
{$\Xi$}	[]	9
