facetNormals:0,facetNormals:1,facetNormals:2,FacetCenters:0,FacetCenters:1,FacetCenters:2,FacetIds,relFacetSize,absFacetSize,cellPairingIds,interplanarAngles,angleWeights
-0.173908,0.0632724,-0.953208,7.52385,4.70069,6.6338,1,0.0288375,0.00341621,8,33.0816,0.0277458
0.36396,0.192106,-0.892605,7.55002,4.70151,6.6549,2,0.0267337,0.00316698,13,27.1827,0.0296057
-0.563673,-0.107838,-0.786796,7.47489,4.71498,6.68255,3,0.030416,0.0036032,19,73.5715,0.0428333
0.580564,0.712676,-0.341085,7.57089,4.72122,6.6837,4,0.0832251,0.0098592,26,82.7587,0.0316177
0.935475,-0.071073,-0.301938,7.62782,4.64058,6.67116,5,0.0349911,0.0041452,34,81.3359,0.0468039
0.0810942,0.93463,-0.0974923,7.50465,4.75203,6.71915,6,0.124155,0.0147079,43,92.9183,0.0288381
0.858495,0.486801,-0.0729913,7.59676,4.70171,6.75378,7,0.0288386,0.00341635,53,84.075,0.0410797
-0.64215,0.678384,0.0637329,7.45972,4.70682,6.71123,8,0.0713842,0.00845647,64,85.7343,0.0333081
-0.680699,-0.676077,0.00661738,7.44114,4.70151,6.76444,9,0.0394192,0.00466976,76,104.25,0.0328939
0.985443,0.067854,0.0730809,7.60348,4.67906,6.7575,10,0.0382782,0.0045346,89,128.41,0.0370459
0.866291,0.0448892,0.469043,7.60759,4.65327,6.76824,11,0.0517866,0.00613486,103,113.052,0.0354719
-0.779094,0.202919,0.542954,7.4417,4.72128,6.80183,12,0.0460712,0.00545779,118,124.367,0.0375797
0.260847,0.746717,0.5589,7.54204,4.73159,6.76577,13,0.0539285,0.00638859,134,165.512,0.0337793
0.399295,-0.114721,0.873746,7.54587,4.68662,6.82668,14,0.0407651,0.0048292,151,149.21,0.0356253
-0.332791,-0.161582,0.907939,7.49501,4.69471,6.83183,15,0.0465922,0.00551952,18,60.1507,0.0284562
,,,,,,,,,25,47.3711,0.0404681
,,,,,,,,,33,52.0052,0.0303101
,,,,,,,,,42,71.3748,0.0439943
,,,,,,,,,52,61.0298,0.0277463
,,,,,,,,,63,100.03,0.0388994
,,,,,,,,,75,113.998,0.0318601
,,,,,,,,,88,71.6518,0.0314809
,,,,,,,,,102,95.6098,0.0352634
,,,,,,,,,117,139.819,0.0338343
,,,,,,,,,133,105.881,0.0357468
,,,,,,,,,150,133.669,0.032291
,,,,,,,,,168,177.305,0.0339738
,,,,,,,,,32,98.1728,0.0445503
,,,,,,,,,41,107.091,0.0325435
,,,,,,,,,51,94.3577,0.0488616
,,,,,,,,,62,119.802,0.0296063
,,,,,,,,,74,74.8263,0.0426565
,,,,,,,,,87,61.1109,0.0343372
,,,,,,,,,101,130.02,0.0338972
,,,,,,,,,116,153.866,0.0383234
,,,,,,,,,132,90.6012,0.0366415
,,,,,,,,,149,135.031,0.038895
,,,,,,,,,167,162.821,0.0348382
,,,,,,,,,186,122.24,0.0368051
,,,,,,,,,50,51.9607,0.049268
,,,,,,,,,61,36.1816,0.099651
,,,,,,,,,73,26.2456,0.0428345
,,,,,,,,,86,84.4413,0.0768512
,,,,,,,,,100,159.185,0.0534989
,,,,,,,,,115,52.1749,0.0524382
,,,,,,,,,131,67.1828,0.0638455
,,,,,,,,,148,121.178,0.05931
,,,,,,,,,166,58.7247,0.0654478
,,,,,,,,,185,98.9739,0.054725
,,,,,,,,,205,130.013,0.05974
,,,,,,,,,72,87.6034,0.0545954
,,,,,,,,,85,35.8504,0.0316184
,,,,,,,,,99,136.394,0.0469623
,,,,,,,,,114,128.663,0.0370734
,,,,,,,,,130,23.5357,0.0365609
,,,,,,,,,147,46.7784,0.0417635
,,,,,,,,,165,161.424,0.0397739
,,,,,,,,,184,88.6678,0.0424432
,,,,,,,,,204,82.8994,0.0376581
,,,,,,,,,225,126.443,0.0399668
,,,,,,,,,98,55.2735,0.0468054
,,,,,,,,,113,49.3098,0.0906489
,,,,,,,,,129,139.464,0.0598394
,,,,,,,,,146,81.6164,0.0585156
,,,,,,,,,164,85.9015,0.0730875
,,,,,,,,,183,85.3946,0.0672044
,,,,,,,,,203,43.322,0.075195
,,,,,,,,,224,100.1,0.0613775
,,,,,,,,,246,106.751,0.067757
,,,,,,,,,128,104.098,0.0410809
,,,,,,,,,145,164.29,0.0333089
,,,,,,,,,163,26.955,0.0328946
,,,,,,,,,182,41.4624,0.0370468
,,,,,,,,,202,129.38,0.0354728
,,,,,,,,,223,55.2253,0.0375807
,,,,,,,,,245,76.5207,0.0337801
,,,,,,,,,268,116.35,0.0356262
,,,,,,,,,162,91.3464,0.050791
,,,,,,,,,181,128.881,0.049834
,,,,,,,,,201,122.489,0.0600263
,,,,,,,,,222,42.2913,0.0560001
,,,,,,,,,244,65.5945,0.0614406
,,,,,,,,,267,107.909,0.0518948
,,,,,,,,,291,79.8381,0.0563833
,,,,,,,,,200,138.908,0.0388403
,,,,,,,,,221,130.697,0.0447644
,,,,,,,,,243,64.7963,0.0424864
,,,,,,,,,266,136.921,0.0455462
,,,,,,,,,290,101.714,0.0400808
,,,,,,,,,315,68.6936,0.0427066
,,,,,,,,,242,24.187,0.0440194
,,,,,,,,,265,137.959,0.0418147
,,,,,,,,,289,68.6934,0.0447752
,,,,,,,,,314,62.0223,0.0394825
,,,,,,,,,340,106.301,0.042028
,,,,,,,,,288,115.426,0.048762
,,,,,,,,,313,56.8953,0.0528358
,,,,,,,,,339,38.1212,0.0456196
,,,,,,,,,366,82.2537,0.0490523
,,,,,,,,,338,74.4732,0.0496912
,,,,,,,,,365,81.4278,0.043256
,,,,,,,,,393,40.9137,0.0463303
,,,,,,,,,392,57.2553,0.0464318
,,,,,,,,,421,71.5832,0.0499926
,,,,,,,,,450,44.2911,0.0434843
