Q	U	V
{$V$}	{[mm$^3$]}	0.012619
{$d_v$}	{[mm]}	0.288852
{$S_c$}	{[mm$^2$]}	0.471302
{$S_o$}	{[mm$^2$]}	0.305587
{$S_l/S_o$}	[]	0.542284
{$\Psi$}	[]	0.556162
{$\eta$}	[]	0.572334
{med($\theta_e$)}	{[$^\circ$]}	64.9102
{$\Upsilon$}	[]	14
{$\Xi$}	[]	10
