"cellPairingIds","interplanarAngles","angleWeights"
13,99.9624,0.0161934
26,99.85,0.0153295
43,42.9483,0.00679384
64,130.054,0.013356
89,87.8083,0.00896299
41,38.2726,0.108156
87,47.5206,0.0529524
114,76.3946,0.0447122
147,70.6222,0.0169313
145,148.943,0.00958557
182,76.1882,0.00709116
317,60.515,0.00879925
398,66.9451,0.010401
221,133.577,0.0145558
368,99.8397,0.0241974
455,107.308,0.0419721
516,75.6003,0.0165228
723,27.0178,0.0301678
