Q	U	V
{$V$}	{[mm$^3$]}	0.00339372
{$d_v$}	{[mm]}	0.186449
{$S_c$}	{[mm$^2$]}	0.193387
{$S_o$}	{[mm$^2$]}	0.114619
{$S_l/S_o$}	[]	0.687216
{$\Psi$}	[]	0.56473
{$\eta$}	[]	0.624654
{med($\theta_e$)}	{[$^\circ$]}	62.9389
{$\Upsilon$}	[]	16
{$\Xi$}	[]	9
