Q	U	V
{$V$}	{[mm$^3$]}	0.00975606
{$d_v$}	{[mm]}	0.265109
{$S_c$}	{[mm$^2$]}	0.36678
{$S_o$}	{[mm$^2$]}	0.218418
{$S_l/S_o$}	[]	0.679257
{$\Psi$}	[]	0.601998
{$\eta$}	[]	0.630424
{med($\theta_e$)}	{[$^\circ$]}	61.354
{$\Upsilon$}	[]	19
{$\Xi$}	[]	11
