Q	U	V
{$V$}	{[mm$^3$]}	0.00539576
{$d_v$}	{[mm]}	0.217613
{$S_c$}	{[mm$^2$]}	0.257114
{$S_o$}	{[mm$^2$]}	0.167519
{$S_l/S_o$}	[]	0.534835
{$\Psi$}	[]	0.57862
{$\eta$}	[]	0.654255
{med($\theta_e$)}	{[$^\circ$]}	60.7889
{$\Upsilon$}	[]	14
{$\Xi$}	[]	11
