Q	U	V
{$V$}	{[mm$^3$]}	0.00263019
{$d_v$}	{[mm]}	0.171263
{$S_c$}	{[mm$^2$]}	0.1495
{$S_o$}	{[mm$^2$]}	0.0881757
{$S_l/S_o$}	[]	0.695478
{$\Psi$}	[]	0.61636
{$\eta$}	[]	0.668287
{med($\theta_e$)}	{[$^\circ$]}	66.9901
{$\Upsilon$}	[]	15
{$\Xi$}	[]	4
