"cellPairingIds","interplanarAngles","angleWeights"
25,48.658,0.0116382
33,46.681,0.0292303
42,32.5455,0.0337361
52,38.5384,0.0135611
75,59.884,0.0382461
50,53.4827,0.012032
73,46.2879,0.00815388
115,45.173,0.0132582
148,39.5721,0.0142646
114,54.1534,0.0428555
130,51.4295,0.0421731
98,57.9929,0.0150696
113,29.8696,0.038919
129,37.2886,0.0532906
128,34.7176,0.0143282
182,24.3061,0.0124709
202,66.174,0.0172653
268,55.0241,0.0161469
162,66.5349,0.045047
201,41.5167,0.0253021
291,70.8509,0.0470209
200,102.714,0.0639091
266,36.8105,0.0171179
290,72.8723,0.0716613
315,134.792,0.0697458
368,62.1273,0.0316879
265,46.1367,0.0934256
314,46.2222,0.0697736
367,72.6405,0.036226
395,92.979,0.0313133
424,61.421,0.0541605
366,32.4793,0.0315844
393,63.3072,0.106448
422,33.4193,0.0448764
392,44.6368,0.0175121
482,28.2827,0.0133857
513,47.8763,0.0330659
512,44.361,0.03803
545,143.114,0.0326521
650,53.9216,0.0418407
613,81.9947,0.0332852
649,51.2355,0.0191079
686,47.8069,0.0271818
648,45.9015,0.0290916
723,91.7856,0.024319
722,40.4003,0.0231517
761,73.3335,0.0361684
800,34.4242,0.0200243
