"cellPairingIds","interplanarAngles","angleWeights"
8,43.9669,0.03822
13,33.567,0.0422432
19,77.4965,0.0316559
26,46.6056,0.0498627
103,64.6689,0.0309377
151,125.306,0.0239902
25,63.9315,0.0375903
168,86.1652,0.0272505
101,48.1453,0.053535
132,47.4405,0.0402509
149,55.0567,0.0340359
186,103.431,0.0292357
50,61.9124,0.0487962
100,65.2145,0.033107
185,48.4721,0.045159
205,102.682,0.0237406
114,33.486,0.0535603
165,75.3137,0.0471102
243,85.6284,0.0323221
290,35.851,0.0492099
341,63.9848,0.038592
368,42.2042,0.0261321
289,29.9381,0.0313809
340,65.2181,0.027255
338,31.672,0.0262941
422,34.4314,0.0351267
421,85.8564,0.0211007
451,51.3875,0.0302985
482,94.7673,0.0220459
450,115.662,0.0310193
513,46.6093,0.0331061
545,118.358,0.0199267
578,48.7541,0.0279354
