Q	U	V
{$V$}	{[mm$^3$]}	0.00585886
{$d_v$}	{[mm]}	0.223669
{$S_c$}	{[mm$^2$]}	0.329826
{$S_o$}	{[mm$^2$]}	0.19465
{$S_l/S_o$}	[]	0.694457
{$\Psi$}	[]	0.476513
{$\eta$}	[]	0.521551
{med($\theta_e$)}	{[$^\circ$]}	93.1317
{$\Upsilon$}	[]	16
{$\Xi$}	[]	12
