facetNormals:0,facetNormals:1,facetNormals:2,FacetCenters:0,FacetCenters:1,FacetCenters:2,FacetIds,relFacetSize,absFacetSize,cellPairingIds,interplanarAngles,angleWeights
-0.245213,0.14211,-0.868264,6.59836,5.89098,9.35906,1,0.0243993,0.00251047,8,57.2696,0.0328704
0.611553,0.359611,-0.668136,6.63594,5.8969,9.39277,2,0.0503518,0.00518073,13,46.2785,0.0140157
0.238022,0.68601,-0.67646,6.60295,5.88257,9.40414,3,0.00983165,0.00101159,19,73.1412,0.0369567
0.772055,-0.211965,-0.548868,6.71208,5.8953,9.35128,4,0.076146,0.00783472,26,50.6191,0.0131896
0.00332066,0.836814,-0.522369,6.5958,5.89912,9.40257,5,0.00903748,0.000929873,34,89.9393,0.0262572
0.58818,-0.725511,-0.285948,6.7043,5.89557,9.39788,6,0.0284214,0.0029243,43,76.7343,0.0287194
0.532916,0.784843,-0.25945,6.66058,5.89717,9.39285,7,0.0348984,0.00359072,53,94.9513,0.0330124
0.790378,0.569178,-0.0415477,6.68801,5.96048,9.37339,8,0.0510244,0.00524994,64,102.858,0.0377721
-0.0862963,-0.955324,0.09363,6.63458,5.83169,9.37049,9,0.0835811,0.00859972,76,81.5763,0.0330189
-0.301258,0.905935,0.0856452,6.65746,5.96266,9.42837,10,0.0510552,0.00525311,89,118.588,0.0326494
0.917485,0.198801,0.264345,6.72332,5.92236,9.39684,11,0.0493289,0.00507549,103,112.961,0.0332503
-0.520938,-0.691866,0.430822,6.59486,5.85797,9.41319,12,0.0521784,0.00536867,118,113.902,0.035214
-0.55632,0.469775,0.650004,6.60873,5.93914,9.44338,13,0.0632478,0.00650762,134,115.939,0.0257013
0.124407,0.804224,0.54789,6.64052,5.97134,9.39848,14,0.0271501,0.0027935,151,146.367,0.0399838
0.384598,-0.621274,0.641015,6.68456,5.88044,9.42234,15,0.110674,0.0113874,169,141.605,0.0141986
0.295632,0.48536,0.815306,6.62755,5.92816,9.46721,16,0.0100126,0.0010302,188,158.728,0.0294381
-0.0595351,-0.314059,0.921768,6.62792,5.8966,9.44905,17,0.0370997,0.00381721,18,29.2006,0.0164511
,,,,,,,,,25,36.2741,0.060619
,,,,,,,,,33,47.2987,0.0153244
,,,,,,,,,42,72.272,0.0363339
,,,,,,,,,52,35.3774,0.0412245
,,,,,,,,,63,41.1116,0.0506858
,,,,,,,,,75,119.246,0.0628442
,,,,,,,,,88,84.8208,0.0507011
,,,,,,,,,102,61.3319,0.0498351
,,,,,,,,,117,155.128,0.0512488
,,,,,,,,,133,129.542,0.0560678
,,,,,,,,,150,90.0465,0.035278
,,,,,,,,,168,116.084,0.0692142
,,,,,,,,,187,101.277,0.0167036
,,,,,,,,,207,143.594,0.0427216
,,,,,,,,,32,64.8342,0.0174148
,,,,,,,,,41,18.5327,0.00941785
,,,,,,,,,51,99.757,0.0146095
,,,,,,,,,62,30.5254,0.0153413
,,,,,,,,,74,51.164,0.0164866
,,,,,,,,,87,140.615,0.0175937
,,,,,,,,,101,58.8662,0.0164882
,,,,,,,,,116,79.5264,0.0163955
,,,,,,,,,132,158.001,0.0165457
,,,,,,,,,149,104.948,0.0170179
,,,,,,,,,167,77.5018,0.0144358
,,,,,,,,,186,142.793,0.018059
,,,,,,,,,206,98.6417,0.0099213
,,,,,,,,,227,151.784,0.015544
,,,,,,,,,50,83.2892,0.0161573
,,,,,,,,,61,36.229,0.0413929
,,,,,,,,,73,66.0541,0.0478615
,,,,,,,,,86,57.2181,0.0611039
,,,,,,,,,100,84.8191,0.0796905
,,,,,,,,,115,120.456,0.061126
,,,,,,,,,131,56.6017,0.0598717
,,,,,,,,,148,121.601,0.0619239
,,,,,,,,,166,159.225,0.0691002
,,,,,,,,,185,113.199,0.0400281
,,,,,,,,,205,85.3319,0.0902194
,,,,,,,,,226,109.507,0.017698
,,,,,,,,,248,120.828,0.0498914
,,,,,,,,,72,118.231,0.0137141
,,,,,,,,,85,35.0704,0.014357
,,,,,,,,,99,58.6299,0.0153552
,,,,,,,,,114,153.201,0.0163113
,,,,,,,,,130,41.1181,0.0153566
,,,,,,,,,147,88.1344,0.0152762
,,,,,,,,,165,147.608,0.0154065
,,,,,,,,,184,86.9205,0.0158151
,,,,,,,,,204,66.416,0.0135609
,,,,,,,,,225,152.883,0.0167104
,,,,,,,,,247,91.096,0.00950008
,,,,,,,,,270,140.676,0.0145344
,,,,,,,,,98,100.907,0.0313286
,,,,,,,,,113,86.1571,0.0365075
,,,,,,,,,129,49.1642,0.0424185
,,,,,,,,,146,156.55,0.0365154
,,,,,,,,,164,70.3832,0.0360641
,,,,,,,,,183,85.6078,0.0367987
,,,,,,,,,203,153.593,0.0392191
,,,,,,,,,224,134.109,0.0277712
,,,,,,,,,246,58.671,0.0452281
,,,,,,,,,269,115.074,0.0148083
,,,,,,,,,293,94.2572,0.0321858
,,,,,,,,,128,23.5867,0.0414481
,,,,,,,,,145,149.9,0.049238
,,,,,,,,,163,55.921,0.0414583
,,,,,,,,,182,53.0655,0.0408775
,,,,,,,,,202,168.546,0.0418238
,,,,,,,,,223,95.7643,0.0449788
,,,,,,,,,245,54.8609,0.0305405
,,,,,,,,,268,118.01,0.0530643
,,,,,,,,,292,70.4583,0.0155607
,,,,,,,,,317,122.628,0.0359654
,,,,,,,,,162,130.955,0.0633655
,,,,,,,,,181,72.9512,0.0510398
,,,,,,,,,201,29.5231,0.0501623
,,,,,,,,,222,150.834,0.0515949
,,,,,,,,,244,102.092,0.0564823
,,,,,,,,,267,56.108,0.0354417
,,,,,,,,,291,94.6167,0.069847
,,,,,,,,,316,60.5711,0.0167402
,,,,,,,,,342,106.122,0.0429619
,,,,,,,,,200,154.159,0.0633893
,,,,,,,,,221,105.067,0.0620414
,,,,,,,,,243,36.8242,0.0642478
,,,,,,,,,266,111.183,0.0720065
,,,,,,,,,290,140.325,0.0409864
,,,,,,,,,315,48.5319,0.0952383
,,,,,,,,,341,115.533,0.0178829
,,,,,,,,,368,65.3965,0.051389
,,,,,,,,,242,94.5191,0.0501772
,,,,,,,,,265,117.836,0.0516107
,,,,,,,,,289,46.0908,0.0565012
,,,,,,,,,314,38.2961,0.0354491
,,,,,,,,,340,132.03,0.069876
,,,,,,,,,367,63.8081,0.0167419
,,,,,,,,,395,101.575,0.0429728
,,,,,,,,,288,122.121,0.0507136
,,,,,,,,,313,104.926,0.0554279
,,,,,,,,,339,64.0383,0.0350236
,,,,,,,,,366,65.1222,0.0682416
,,,,,,,,,394,53.0051,0.0166464
,,,,,,,,,423,82.3536,0.0423491
,,,,,,,,,338,74.9709,0.0571823
,,,,,,,,,365,113.947,0.035716
,,,,,,,,,393,57.466,0.0709206
,,,,,,,,,422,98.287,0.0168012
,,,,,,,,,452,46.8497,0.0433656
,,,,,,,,,392,46.0369,0.0379917
,,,,,,,,,421,95.3923,0.0804947
,,,,,,,,,451,52.278,0.0172883
,,,,,,,,,482,59.4002,0.0467669
,,,,,,,,,450,96.0553,0.0436036
,,,,,,,,,481,26.3326,0.0146299
,,,,,,,,,513,75.1657,0.0313545
,,,,,,,,,512,69.7229,0.0183638
,,,,,,,,,545,36.4205,0.0555711
,,,,,,,,,578,53.1499,0.0157693
