"cellPairingIds","interplanarAngles","angleWeights"
8,84.8176,0.0761855
43,46.654,0.076069
53,58.4639,0.0684184
89,71.7534,0.0275394
33,91.169,0.0746578
42,62.9196,0.0809954
52,105.484,0.0756443
63,120.174,0.0680747
117,106.627,0.0867806
72,59.2702,0.0797374
99,41.3335,0.0671838
147,69.4373,0.0273372
164,118.198,0.0281435
183,98.6167,0.0937204
163,46.5004,0.033418
182,69.9537,0.0274683
202,87.9255,0.0866294
201,32.8086,0.0264023
242,27.7944,0.0188361
265,84.9436,0.0354264
288,101.311,0.0288109
