Q	U	V
{$V$}	{[mm$^3$]}	0.00994486
{$d_v$}	{[mm]}	0.266809
{$S_c$}	{[mm$^2$]}	0.508903
{$S_o$}	{[mm$^2$]}	0.24268
{$S_l/S_o$}	[]	1.097013
{$\Psi$}	[]	0.439455
{$\eta$}	[]	0.456657
{med($\theta_e$)}	{[$^\circ$]}	
{$\Upsilon$}	[]	16
{$\Xi$}	[]	16
