"cellPairingIds","interplanarAngles","angleWeights"
18,59.8374,0.0587143
42,86.7039,0.0845883
52,64.7811,0.059451
63,83.2355,0.0694357
32,48.1446,0.0254648
51,122.445,0.0447906
74,73.2416,0.0401511
87,57.8864,0.0529666
61,103.416,0.0293597
100,64.3133,0.0326648
148,62.2216,0.0265295
98,68.776,0.0452181
183,108.493,0.0481928
203,75.3206,0.0807717
128,83.9741,0.0404942
223,75.1707,0.0575401
162,42.1221,0.0615383
244,96.4698,0.066843
243,57.6593,0.057791
266,101.269,0.111928
338,61.1483,0.0624449
