"cellPairingIds","interplanarAngles","angleWeights"
8,70.434,0.0450753
13,111.436,0.0510538
53,87.9828,0.0587197
76,71.209,0.0281671
134,150.577,0.0520861
18,55.8848,0.053893
63,63.8424,0.0625072
133,92.9033,0.0504631
149,53.939,0.0580769
167,85.2818,0.0642294
181,58.9449,0.0341116
244,87.2086,0.0682062
267,113.007,0.0768518
314,101.255,0.0317617
392,44.7423,0.0594165
