"cellPairingIds","interplanarAngles","angleWeights"
8,40.9209,0.0715737
13,113.517,0.0653764
19,93.0233,0.0723559
18,114.349,0.0860355
25,117.234,0.0985451
42,118.509,0.0925132
52,59.3909,0.109234
63,135.102,0.0705352
75,102.361,0.0699281
32,124.302,0.0871682
41,81.9939,0.0395535
51,46.8719,0.082415
50,47.9624,0.0420049
86,58.0509,0.0712947
72,71.8483,0.0408691
99,35.6488,0.0359241
98,60.2804,0.103463
113,62.361,0.0680831
128,96.4902,0.0767263
145,57.418,0.0760086
162,39.6745,0.0550084
