"cellPairingIds","interplanarAngles","angleWeights"
8,81.2621,0.0554152
13,74.2328,0.0607717
19,59.0023,0.0678421
26,99.2175,0.0520926
34,54.9228,0.0792699
43,71.347,0.0935976
53,63.1884,0.0426604
64,64.2534,0.0810742
33,59.422,0.0390377
52,62.0033,0.0584668
88,40.4468,0.025396
133,57.6932,0.0342581
32,30.6066,0.0511006
41,40.1125,0.0416221
116,39.2404,0.0485524
167,50.0629,0.0387891
61,40.842,0.0635755
131,32.4091,0.0529622
130,37.0447,0.0246748
204,59.3327,0.0350607
129,51.0826,0.0750548
164,53.0876,0.0596787
128,33.677,0.0444463
202,41.2917,0.0616366
223,72.2785,0.0458115
162,31.6551,0.0414089
222,52.2576,0.0345053
221,100.325,0.0606957
243,72.9261,0.0559457
315,40.9506,0.0474078
341,76.1151,0.0257208
289,41.796,0.0226752
314,83.464,0.0236508
424,69.7825,0.0159963
339,26.1198,0.0398525
366,101.223,0.0407724
423,98.2019,0.0356905
453,81.327,0.0220629
338,48.5413,0.0353225
422,33.9445,0.0228777
451,54.0481,0.0202777
514,54.2073,0.0191102
546,56.8444,0.0197984
512,38.7993,0.0213084
545,31.2414,0.0306405
578,19.4699,0.0198326
613,47.6578,0.0147649
648,42.5115,0.0187143
