Q	U	V
{$V$}	{[mm$^3$]}	0.00775996
{$d_v$}	{[mm]}	0.245633
{$S_c$}	{[mm$^2$]}	0.381774
{$S_o$}	{[mm$^2$]}	0.194601
{$S_l/S_o$}	[]	0.961830
{$\Psi$}	[]	0.496498
{$\eta$}	[]	0.520515
{med($\theta_e$)}	{[$^\circ$]}	80.38375
{$\Upsilon$}	[]	16
{$\Xi$}	[]	6
