facetNormals:0,facetNormals:1,facetNormals:2,FacetCenters:0,FacetCenters:1,FacetCenters:2,FacetIds,relFacetSize,absFacetSize,cellPairingIds,interplanarAngles,angleWeights
-0.0506974,0.0485259,-0.96875,5.56216,3.61297,5.34773,1,0.0317881,0.00782179,8,37.544,0.040993
-0.512071,-0.309833,-0.754021,5.54851,3.52321,5.33071,2,0.0577015,0.014198,13,49.9967,0.0466314
0.676197,0.0119439,-0.630891,5.59976,3.56285,5.32321,3,0.0874791,0.0215251,19,72.7218,0.0305451
0.52225,0.765621,-0.277032,5.59546,3.67874,5.3806,4,0.0293956,0.00723308,26,74.0659,0.0425208
-0.613033,-0.703812,-0.270666,5.55359,3.47866,5.32989,5,0.0641949,0.0157958,34,92.8756,0.0341766
0.892857,-0.323182,-0.0151463,5.60651,3.56093,5.33606,6,0.0369532,0.0090927,43,87.6302,0.0553378
-0.910986,0.139364,0.0164431,5.49731,3.63183,5.4087,7,0.21352,0.0525386,53,106.753,0.0424509
-0.702983,0.583271,0.348564,5.51889,3.67507,5.44197,8,0.0638775,0.0157177,64,108.24,0.0318772
-0.658913,-0.658748,0.309592,5.51276,3.53932,5.42819,9,0.0319667,0.00786573,76,128.606,0.0305217
0.486916,-0.635302,0.550408,5.5944,3.54601,5.37105,10,0.0293523,0.00722242,89,137.795,0.032266
-0.335189,-0.574328,0.712729,5.52587,3.55317,5.45136,11,0.0327584,0.00806054,18,81.8812,0.0695365
,,,,,,,,,25,108.518,0.0389489
,,,,,,,,,33,38.1147,0.0607753
,,,,,,,,,42,112.215,0.0450533
,,,,,,,,,52,62.4137,0.0908514
,,,,,,,,,63,95.0936,0.0606327
,,,,,,,,,75,70.9773,0.0411412
,,,,,,,,,88,119.995,0.0389109
,,,,,,,,,102,101.546,0.0417911
,,,,,,,,,32,53.1075,0.0440044
,,,,,,,,,41,106.294,0.0740498
,,,,,,,,,51,46.0633,0.0519581
,,,,,,,,,62,137.122,0.12411
,,,,,,,,,74,139.568,0.0738382
,,,,,,,,,87,135.596,0.0468232
,,,,,,,,,101,91.6318,0.0439558
,,,,,,,,,116,139.268,0.0476669
,,,,,,,,,50,146.516,0.0403256
,,,,,,,,,61,75.9471,0.0327439
,,,,,,,,,73,114.774,0.0516767
,,,,,,,,,86,91.038,0.0402628
,,,,,,,,,100,169.643,0.0306273
,,,,,,,,,115,114.16,0.0293739
,,,,,,,,,131,149.475,0.030986
,,,,,,,,,72,110.009,0.0469056
,,,,,,,,,85,59.4034,0.098712
,,,,,,,,,99,94.4612,0.0640358
,,,,,,,,,114,34.7704,0.0426802
,,,,,,,,,130,90.0206,0.0402848
,,,,,,,,,147,63.8976,0.0433801
,,,,,,,,,98,168.8,0.0630027
,,,,,,,,,113,152.217,0.0468206
,,,,,,,,,129,114.058,0.0342795
,,,,,,,,,146,46.7813,0.0327171
,,,,,,,,,164,97.7266,0.0347296
,,,,,,,,,128,36.1767,0.0983363
,,,,,,,,,145,55.4259,0.0556081
,,,,,,,,,163,125.745,0.0516098
,,,,,,,,,182,74.7035,0.0568022
,,,,,,,,,162,78.7732,0.0426098
,,,,,,,,,181,123.268,0.0402221
,,,,,,,,,201,81.0008,0.0433074
,,,,,,,,,200,73.6759,0.0306038
,,,,,,,,,221,31.0579,0.0323577
,,,,,,,,,242,51.1521,0.0309619
