facetNormals:0,facetNormals:1,facetNormals:2,FacetCenters:0,FacetCenters:1,FacetCenters:2,FacetIds,relFacetSize,absFacetSize,cellPairingIds,interplanarAngles,angleWeights
-0.472878,-0.252107,-0.813511,5.69622,3.70351,7.20021,1,0.0493385,0.0022203,8,75.4805,0.00319162
0.37223,0.606423,-0.70502,5.71013,3.78592,7.26026,2,0.00164915,7.42139e-05,13,29.0162,0.0561105
-0.475827,0.236998,-0.821455,5.69431,3.72423,7.19935,3,0.0650371,0.00292676,19,41.0136,0.0145141
-0.00907643,-0.740034,-0.663466,5.71255,3.67664,7.2033,4,0.00850857,0.000382897,26,34.5694,0.0189579
-0.786826,0.176704,-0.572653,5.68159,3.7473,7.22378,5,0.0117331,0.000528006,34,78.3861,0.0585134
0.648545,-0.530916,-0.440738,5.70121,3.71407,7.2631,6,0.07188,0.00323469,43,103.714,0.00724648
0.720981,0.595717,-0.322833,5.70228,3.78264,7.25679,7,0.00391041,0.000175973,53,103.155,0.00829065
0.914735,0.229835,-0.330569,5.69207,3.72048,7.28001,8,0.00452555,0.000203656,64,78.7237,0.0515785
-0.418823,0.850052,-0.249426,5.68662,3.77245,7.23711,9,0.0540315,0.00243149,76,101.837,0.0227585
0.0457713,0.983659,-0.0885791,5.69525,3.77834,7.22432,10,0.0147904,0.000665589,89,55.1497,0.0540197
-0.98139,-0.0470198,-0.0900952,5.68408,3.70503,7.22893,11,0.0596823,0.00268578,103,126.701,0.00863224
0.765551,0.624005,0.0702189,5.71434,3.75813,7.22702,12,0.00472989,0.000212851,118,72.6251,0.0474593
-0.0664205,-0.99089,-0.0094578,5.69816,3.74413,7.22602,13,0.045718,0.00205737,134,85.3615,0.0351775
-0.727531,0.667142,0.119862,5.67662,3.77061,7.26248,14,0.0273326,0.00123,151,69.2605,0.0707114
-0.564173,-0.780194,0.156119,5.69128,3.67248,7.25331,15,0.124753,0.00561404,169,123.16,0.0294627
0.833017,-0.423547,0.287443,5.72931,3.6731,7.27642,16,0.0210021,0.00094512,188,87.5918,0.0691952
-0.865672,0.244052,0.378469,5.67411,3.74986,7.27747,17,0.115799,0.00521112,208,99.2465,0.01275
-0.0240394,-0.872519,0.47563,5.7332,3.66122,7.29058,18,0.00732096,0.000329453,229,147.109,0.00344425
0.554129,0.680691,0.466353,5.71444,3.75818,7.21911,19,0.00178441,8.03006e-05,251,114.608,0.0070752
0.382173,-0.767642,0.514345,5.73139,3.64992,7.28805,20,0.00381084,0.000171493,274,115.009,0.0735981
-0.430867,-0.276718,0.829854,5.70752,3.70294,7.30797,21,0.144791,0.0065158,18,56.1631,0.00321673
,,,,,,,,,25,89.1019,0.00276281
,,,,,,,,,33,77.288,0.00289184
,,,,,,,,,42,75.9563,0.00322432
,,,,,,,,,52,30.1214,0.00231991
,,,,,,,,,63,44.5902,0.00241738
,,,,,,,,,75,56.9406,0.00320061
,,,,,,,,,88,46.9542,0.00296743
,,,,,,,,,102,109.525,0.00320961
,,,,,,,,,117,51.7612,0.0024456
,,,,,,,,,133,128.475,0.00318346
,,,,,,,,,150,87.1654,0.00311061
,,,,,,,,,168,144.278,0.00325527
,,,,,,,,,187,98.7763,0.00305816
,,,,,,,,,207,116.823,0.00325198
,,,,,,,,,228,151.303,0.00269191
,,,,,,,,,250,73.0494,0.00171411
,,,,,,,,,273,133.218,0.00230207
,,,,,,,,,297,159.225,0.00326115
,,,,,,,,,32,67.387,0.0150484
,,,,,,,,,41,23.6196,0.0198798
,,,,,,,,,51,94.48,0.0682876
,,,,,,,,,62,86.2501,0.00737725
,,,,,,,,,74,96.4138,0.00846226
,,,,,,,,,87,50.8265,0.0590257
,,,,,,,,,101,72.9213,0.0241001
,,,,,,,,,116,56.7125,0.0622447
,,,,,,,,,132,106.433,0.00881845
,,,,,,,,,149,101.604,0.0536926
,,,,,,,,,167,65.3471,0.0384895
,,,,,,,,,186,92.6846,0.0855005
,,,,,,,,,206,140.003,0.031751
,,,,,,,,,227,80.4226,0.0832936
,,,,,,,,,249,127.053,0.0131605
,,,,,,,,,272,119.944,0.00347351
,,,,,,,,,296,143.48,0.0071998
,,,,,,,,,321,124.634,0.0897572
,,,,,,,,,50,74.887,0.00986401
,,,,,,,,,61,43.7923,0.015216
,,,,,,,,,73,103.718,0.00535825
,,,,,,,,,86,87.6384,0.00590849
,,,,,,,,,100,118.169,0.014702
,,,,,,,,,115,132.951,0.0108026
,,,,,,,,,131,83.9429,0.0148938
,,,,,,,,,148,121.576,0.00607995
,,,,,,,,,166,41.426,0.014347
,,,,,,,,,185,124.982,0.0129773
,,,,,,,,,205,60.3967,0.0159306
,,,,,,,,,226,83.1938,0.0121107
,,,,,,,,,248,115.913,0.0158524
,,,,,,,,,271,70.4665,0.00787022
,,,,,,,,,295,145.914,0.00295012
,,,,,,,,,320,77.0126,0.00526402
,,,,,,,,,346,110.655,0.0160726
,,,,,,,,,72,112.057,0.0201733
,,,,,,,,,85,106.452,0.00586585
,,,,,,,,,99,119.704,0.00653176
,,,,,,,,,114,50.0309,0.0192796
,,,,,,,,,130,78.8843,0.0130856
,,,,,,,,,147,33.3165,0.0196109
,,,,,,,,,165,122.925,0.00674194
,,,,,,,,,184,96.8651,0.0186738
,,,,,,,,,204,50.7927,0.0164183
,,,,,,,,,225,77.0227,0.0214489
,,,,,,,,,247,157.729,0.0150553
,,,,,,,,,270,58.2736,0.0213073
,,,,,,,,,294,114.495,0.0090162
,,,,,,,,,319,126.358,0.0030977
,,,,,,,,,345,137.648,0.0057531
,,,,,,,,,372,101.065,0.0217072
,,,,,,,,,98,71.738,0.0074173
,,,,,,,,,113,49.3188,0.008515
,,,,,,,,,129,131.346,0.0616907
,,,,,,,,,146,118.973,0.0245328
,,,,,,,,,164,127.735,0.0652157
,,,,,,,,,183,81.768,0.00887573
,,,,,,,,,203,58.8017,0.0558888
,,,,,,,,,224,158.964,0.0396052
,,,,,,,,,246,91.2706,0.0912079
,,,,,,,,,269,46.4052,0.0325063
,,,,,,,,,293,158.174,0.0887008
,,,,,,,,,318,75.3533,0.0132885
,,,,,,,,,344,102.739,0.00348236
,,,,,,,,,371,63.0792,0.00723794
,,,,,,,,,399,122.656,0.096068
,,,,,,,,,128,24.028,0.00419555
,,,,,,,,,145,72.9079,0.007293
,,,,,,,,,163,48.5476,0.00618546
,,,,,,,,,182,136.363,0.0073399
,,,,,,,,,202,23.1136,0.00428129
,,,,,,,,,223,130.267,0.00720458
,,,,,,,,,245,99.7024,0.00684195
,,,,,,,,,268,162.81,0.00758312
,,,,,,,,,292,74.6865,0.00659321
,,,,,,,,,317,128.494,0.00756534
,,,,,,,,,343,134.608,0.00509785
,,,,,,,,,370,48.278,0.00245056
,,,,,,,,,398,110.582,0.00385998
,,,,,,,,,427,140.401,0.00761515
,,,,,,,,,162,96.1718,0.00835159
,,,,,,,,,181,72.4943,0.00693051
,,,,,,,,,201,153.019,0.00841315
,,,,,,,,,222,33.9903,0.00462546
,,,,,,,,,244,106.709,0.00823585
,,,,,,,,,267,123.727,0.00776536
,,,,,,,,,291,140.022,0.00873426
,,,,,,,,,316,54.3421,0.00744652
,,,,,,,,,342,151.975,0.00871068
,,,,,,,,,369,112.474,0.00559344
,,,,,,,,,397,59.1644,0.00255958
,,,,,,,,,426,89.8206,0.00413756
,,,,,,,,,456,138.691,0.00877678
,,,,,,,,,200,29.9938,0.0232237
,,,,,,,,,221,65.9809,0.0567165
,,,,,,,,,243,78.5689,0.00869833
,,,,,,,,,266,146.563,0.0495283
,,,,,,,,,290,30.2249,0.0363015
,,,,,,,,,315,119.17,0.0754047
,,,,,,,,,341,144.566,0.0302471
,,,,,,,,,368,60.1712,0.0736829
,,,,,,,,,396,150.798,0.0128948
,,,,,,,,,425,76.3272,0.00345472
,,,,,,,,,455,163.789,0.00711953
,,,,,,,,,486,105.899,0.0786962
,,,,,,,,,242,94.8922,0.023706
,,,,,,,,,265,48.9707,0.00716762
,,,,,,,,,289,174.195,0.0223502
,,,,,,,,,314,51.4764,0.0191943
,,,,,,,,,340,146.817,0.0264455
,,,,,,,,,367,114.701,0.0173572
,,,,,,,,,395,80.0371,0.0262306
,,,,,,,,,424,156.531,0.00979406
,,,,,,,,,454,48.3074,0.0031846
,,,,,,,,,485,142.388,0.00606022
,,,,,,,,,517,112.274,0.0268392
,,,,,,,,,288,143.665,0.00876513
,,,,,,,,,313,83.3999,0.0517751
,,,,,,,,,339,46.7812,0.0374941
,,,,,,,,,366,53.2131,0.0807388
,,,,,,,,,394,148.613,0.0310705
,,,,,,,,,423,33.3753,0.078768
,,,,,,,,,453,88.7283,0.0130421
,,,,,,,,,484,129.053,0.00346521
,,,,,,,,,516,112.989,0.00716422
,,,,,,,,,549,67.956,0.0845241
,,,,,,,,,338,132.935,0.00857285
,,,,,,,,,365,97.7193,0.00806426
,,,,,,,,,393,160.046,0.00911422
,,,,,,,,,422,66.0096,0.00772094
,,,,,,,,,452,120.052,0.00908855
,,,,,,,,,483,122.544,0.00574687
,,,,,,,,,515,26.3708,0.00259124
,,,,,,,,,548,98.7329,0.00422091
,,,,,,,,,582,117.395,0.00916053
,,,,,,,,,392,128.434,0.0342116
,,,,,,,,,421,33.3614,0.0669141
,,,,,,,,,451,68.1344,0.0287821
,,,,,,,,,482,101.18,0.0655547
,,,,,,,,,514,29.2123,0.0126209
,,,,,,,,,547,136.472,0.00343475
,,,,,,,,,581,42.6526,0.00703525
,,,,,,,,,616,72.2675,0.0694933
,,,,,,,,,450,95.4036,0.0448408
,,,,,,,,,481,151.472,0.0237527
,,,,,,,,,513,30.2724,0.0442262
,,,,,,,,,546,120.9,0.0115486
,,,,,,,,,580,83.7923,0.0033501
,,,,,,,,,615,137.113,0.00668905
,,,,,,,,,651,76.3802,0.0459845
,,,,,,,,,512,95.6955,0.0359517
,,,,,,,,,545,67.9659,0.120109
,,,,,,,,,579,37.5629,0.0138303
,,,,,,,,,614,142.672,0.00351849
,,,,,,,,,650,61.6194,0.00739575
,,,,,,,,,687,51.7731,0.134027
,,,,,,,,,578,138.604,0.0355555
,,,,,,,,,613,59.9793,0.0108573
,,,,,,,,,649,71.5625,0.00328934
,,,,,,,,,686,35.9611,0.00645111
,,,,,,,,,724,90.1911,0.0366832
,,,,,,,,,648,90.7159,0.0137713
,,,,,,,,,685,98.1247,0.00351465
,,,,,,,,,723,109.363,0.00737884
,,,,,,,,,762,49.3764,0.128683
,,,,,,,,,722,112.961,0.00286942
,,,,,,,,,761,24.3942,0.00501248
,,,,,,,,,801,48.1659,0.0139372
,,,,,,,,,800,94.0901,0.00243066
,,,,,,,,,841,92.3719,0.00352537
,,,,,,,,,882,60.8748,0.00742622
