facetNormals:0,facetNormals:1,facetNormals:2,FacetCenters:0,FacetCenters:1,FacetCenters:2,FacetIds,relFacetSize,absFacetSize,cellPairingIds,interplanarAngles,angleWeights
0.527154,0.0656997,-0.815784,5.80976,4.79409,7.19654,1,0.0319784,0.0085194,8,62.8994,0.037283
-0.2605,-0.560782,-0.736119,5.74477,4.72864,7.20324,2,0.0446974,0.0119079,13,33.613,0.031286
0.426232,-0.485088,-0.738754,5.80115,4.72703,7.21865,3,0.030623,0.0081583,19,77.324,0.0333149
-0.619178,0.411908,-0.620571,5.78919,4.80546,7.25565,4,0.034768,0.00926258,26,24.7255,0.0256536
0.653179,0.408498,-0.610478,5.83571,4.8233,7.2308,5,0.0214175,0.00570585,34,40.3293,0.0453952
0.837629,-0.320164,-0.365429,5.80343,4.73322,7.30441,6,0.0782076,0.0208354,43,95.3973,0.0383957
-0.336136,-0.883292,-0.180348,5.76007,4.69555,7.27245,7,0.0480351,0.0127971,53,109.351,0.0273893
-0.921317,-0.209053,-0.227912,5.71842,4.75451,7.27213,8,0.0239521,0.00638109,64,81.2846,0.0436754
0.383505,-0.878658,0.00369955,5.84571,4.72071,7.32401,9,0.0688644,0.0183462,76,129.632,0.0438079
-0.794551,0.455458,0.244842,5.75132,4.80054,7.31835,10,0.0695275,0.0185229,89,148.534,0.033543
-0.877329,-0.0762959,0.42003,5.76071,4.78194,7.35219,11,0.0352686,0.00939594,103,139.753,0.0388186
-0.558933,-0.635825,0.469216,5.79977,4.73375,7.3555,12,0.0493812,0.0131557,118,95.9003,0.0431318
0.725028,-0.207851,0.567561,5.89356,4.80372,7.40586,13,0.0662321,0.017645,134,139.163,0.0439147
-0.0199717,-0.505966,0.804875,5.88774,4.7949,7.40457,14,0.0700684,0.018667,151,174.9,0.0294393
-0.499632,0.0119181,0.844997,5.81782,4.81742,7.40354,15,0.0272737,0.00726602,169,140.911,0.025544
-0.161647,0.476517,0.844249,5.83678,4.87997,7.41869,16,0.0212651,0.00566527,188,133.708,0.0370788
0.214806,0.0624364,0.942959,5.89405,4.85678,7.43626,17,0.0441149,0.0117527,18,41.6526,0.0363452
,,,,,,,,,25,65.4341,0.0391124
,,,,,,,,,33,86.9577,0.0289589
,,,,,,,,,42,75.6743,0.0568842
,,,,,,,,,52,39.3115,0.0463062
,,,,,,,,,63,55.8104,0.0311902
,,,,,,,,,75,64.9591,0.0542094
,,,,,,,,,88,104.531,0.0544137
,,,,,,,,,102,92.3134,0.0394271
,,,,,,,,,117,80.3011,0.0469227
,,,,,,,,,133,122.69,0.0533745
,,,,,,,,,150,109.393,0.0545786
,,,,,,,,,168,121.887,0.0338765
,,,,,,,,,187,153.636,0.0288193
,,,,,,,,,207,147.423,0.0444042
,,,,,,,,,32,90.318,0.0325641
,,,,,,,,,41,56.5772,0.0252061
,,,,,,,,,51,34.5772,0.0440124
,,,,,,,,,62,63.6895,0.0374018
,,,,,,,,,74,97.406,0.0268798
,,,,,,,,,87,51.3936,0.042394
,,,,,,,,,101,142.756,0.0425188
,,,,,,,,,116,132.538,0.032782
,,,,,,,,,132,106.923,0.037803
,,,,,,,,,149,90.5835,0.0418816
,,,,,,,,,167,112.542,0.0426194
,,,,,,,,,186,151.06,0.0288515
,,,,,,,,,206,163.315,0.0251002
,,,,,,,,,227,131.924,0.0361511
,,,,,,,,,50,81.3814,0.0265066
,,,,,,,,,61,116.859,0.0481365
,,,,,,,,,73,92.6932,0.0403387
,,,,,,,,,86,48.3329,0.0283639
,,,,,,,,,100,130.387,0.0462072
,,,,,,,,,115,54.9264,0.0463555
,,,,,,,,,131,74.5887,0.0350165
,,,,,,,,,148,102.756,0.0408058
,,,,,,,,,166,165.906,0.0455991
,,,,,,,,,185,139.039,0.0464751
,,,,,,,,,205,102.766,0.0305682
,,,,,,,,,226,103.829,0.0263896
,,,,,,,,,248,137.535,0.0388877
,,,,,,,,,72,47.795,0.0336263
,,,,,,,,,85,119.819,0.0296257
,,,,,,,,,99,125.009,0.022614
,,,,,,,,,114,96.7456,0.0326733
,,,,,,,,,130,121.177,0.0327474
,,,,,,,,,147,153.817,0.0266508
,,,,,,,,,165,163.297,0.0298769
,,,,,,,,,184,87.3942,0.0323681
,,,,,,,,,204,139.532,0.032807
,,,,,,,,,225,150.193,0.0239934
,,,,,,,,,247,116.186,0.021341
,,,,,,,,,270,115.482,0.0288355
,,,,,,,,,98,85.8671,0.0595157
,,,,,,,,,113,131.333,0.0366726
,,,,,,,,,129,49.6393,0.0732392
,,,,,,,,,146,168.909,0.0736125
,,,,,,,,,164,156.125,0.0486141
,,,,,,,,,183,117.728,0.060538
,,,,,,,,,203,59.315,0.0717234
,,,,,,,,,224,99.3037,0.0739146
,,,,,,,,,246,140.27,0.0404434
,,,,,,,,,269,128.81,0.0334382
,,,,,,,,,293,101.348,0.0564102
,,,,,,,,,128,55.0654,0.0319651
,,,,,,,,,145,45.4997,0.0565941
,,,,,,,,,163,101.342,0.0568167
,,,,,,,,,182,72.2274,0.0406736
,,,,,,,,,202,44.4429,0.0486988
,,,,,,,,,223,100.306,0.0556847
,,,,,,,,,245,70.296,0.0569965
,,,,,,,,,268,89.6953,0.0347926
,,,,,,,,,292,123.275,0.0294796
,,,,,,,,,317,108.6,0.0459916
,,,,,,,,,162,100.543,0.0355421
,,,,,,,,,181,50.9022,0.0356297
,,,,,,,,,201,39.7973,0.0285291
,,,,,,,,,222,54.8958,0.0322577
,,,,,,,,,244,145.266,0.0351812
,,,,,,,,,267,93.677,0.0357004
,,,,,,,,,291,73.8587,0.0255052
,,,,,,,,,316,98.6166,0.0225288
,,,,,,,,,342,116.883,0.0310472
,,,,,,,,,200,140.769,0.0691944
,,,,,,,,,221,106.641,0.0466471
,,,,,,,,,243,68.1038,0.0575177
,,,,,,,,,266,59.2437,0.0675226
,,,,,,,,,290,61.1497,0.0694612
,,,,,,,,,315,102.204,0.0390727
,,,,,,,,,341,120.453,0.0324957
,,,,,,,,,368,88.0875,0.0537788
,,,,,,,,,242,34.1812,0.0467983
,,,,,,,,,265,72.9269,0.0577477
,,,,,,,,,289,126.461,0.0678398
,,,,,,,,,314,91.1131,0.0697969
,,,,,,,,,340,49.1042,0.0391787
,,,,,,,,,367,53.6552,0.032569
,,,,,,,,,395,84.4636,0.0539798
,,,,,,,,,288,38.8017,0.0411485
,,,,,,,,,313,114.494,0.0460275
,,,,,,,,,339,64.8569,0.0469202
,,,,,,,,,366,34.1859,0.0307602
,,,,,,,,,394,61.3292,0.0265325
,,,,,,,,,423,77.612,0.0391989
,,,,,,,,,338,90.4249,0.0565786
,,,,,,,,,365,39.4673,0.0579334
,,,,,,,,,393,45.3181,0.0351395
,,,,,,,,,422,78.8779,0.0297283
,,,,,,,,,452,72.4602,0.0465997
,,,,,,,,,392,52.4125,0.0680963
,,,,,,,,,421,82.8798,0.0386371
,,,,,,,,,451,73.5365,0.0321938
,,,,,,,,,482,42.1745,0.052957
,,,,,,,,,450,42.8809,0.0392641
,,,,,,,,,481,61.7997,0.032628
,,,,,,,,,513,38.3129,0.0541421
,,,,,,,,,512,34.0091,0.0238975
,,,,,,,,,545,43.493,0.0337078
,,,,,,,,,578,33.8413,0.0286971
