"cellPairingIds","interplanarAngles","angleWeights"
8,43.7668,0.0515842
19,58.588,0.0722644
26,52.6769,0.0232622
34,99.831,0.0493524
43,62.4486,0.0758412
76,99.4313,0.0283426
103,99.1471,0.0191011
118,117.74,0.0779677
134,120.286,0.0518838
42,60.8839,0.0411325
88,71.1379,0.0254247
61,59.4965,0.0532936
166,64.1287,0.088282
165,50.1654,0.0124993
184,66.3208,0.0247051
146,74.9236,0.0248703
203,68.5171,0.0563326
202,49.6705,0.0199195
245,103.032,0.0584019
268,59.4053,0.0364835
289,130.985,0.0305139
314,55.2956,0.0254973
367,102.471,0.0233269
338,36.9096,0.0200633
393,33.8171,0.0150201
421,52.6881,0.0369685
451,39.4274,0.0489904
450,79.7297,0.0298525
481,79.8377,0.0372298
512,45.6512,0.02692
