facetNormals:0,facetNormals:1,facetNormals:2,FacetCenters:0,FacetCenters:1,FacetCenters:2,FacetIds,relFacetSize,absFacetSize,cellPairingIds,interplanarAngles,angleWeights
0.319651,-0.309236,-0.874439,4.32022,5.92935,6.15746,1,0.00887634,0.0011831,8,58.8881,0.0163873
-0.122956,0.528764,-0.785432,4.28214,5.99368,6.17698,2,0.106531,0.0141992,13,28.7264,0.0113744
0.185831,-0.717201,-0.644631,4.29718,5.87391,6.16749,3,0.0158293,0.00210984,19,96.6169,0.0159036
-0.00602875,0.932881,-0.208528,4.29546,6.0134,6.22697,4,0.0763457,0.0101759,26,96.3757,0.0149422
-0.92394,-0.329779,-0.09829,4.23559,5.92547,6.20206,5,0.0471915,0.00629003,34,90.3285,0.0150322
-0.651776,-0.72872,0.0257383,4.24751,5.87287,6.23693,6,0.0490473,0.00653739,43,63.9441,0.0153528
0.603189,-0.727383,0.0120216,4.31233,5.8843,6.23866,7,0.0567854,0.00756878,53,121.373,0.0148151
-0.951943,-0.0577057,0.24797,4.26789,5.93945,6.24694,8,0.0447666,0.00596682,64,100.493,0.0128414
0.177805,-0.796914,0.54771,4.32044,5.89191,6.29697,9,0.0232089,0.00309345,76,124.622,0.013852
-0.0578388,-0.562356,0.804467,4.31954,5.92453,6.32287,10,0.031521,0.00420136,89,163.02,0.0162448
-0.556442,0.339431,0.713521,4.28294,5.99455,6.29662,11,0.0956262,0.0127458,103,141.231,0.0148428
0.276176,0.527371,0.756544,4.28209,5.9169,6.21743,12,0.0452761,0.00603474,118,118.75,0.0144504
0.422233,-0.361523,0.814168,4.35699,5.93906,6.30798,13,0.0388424,0.0051772,134,152.109,0.0149254
-0.412616,-0.151337,0.863055,4.27728,5.94008,6.30627,14,0.0468595,0.00624577,151,153.852,0.0115191
0.117931,0.263091,0.947238,4.30876,5.94749,6.27587,15,0.0164026,0.00218626,18,83.6176,0.027563
,,,,,,,,,25,43.8861,0.088947
,,,,,,,,,33,89,0.0654081
,,,,,,,,,42,110.394,0.0671694
,,,,,,,,,52,121.26,0.0740819
,,,,,,,,,63,96.6056,0.0630416
,,,,,,,,,75,158.502,0.0381141
,,,,,,,,,88,169.182,0.0486478
,,,,,,,,,102,109.798,0.100784
,,,,,,,,,117,112.336,0.0635452
,,,,,,,,,133,159.658,0.0569281
,,,,,,,,,150,139.883,0.0650885
,,,,,,,,,168,130.932,0.0284281
,,,,,,,,,32,124.799,0.0262218
,,,,,,,,,41,82.3927,0.0237067
,,,,,,,,,51,66.3738,0.0239341
,,,,,,,,,62,47.5819,0.0247573
,,,,,,,,,74,107.771,0.0233885
,,,,,,,,,87,74.901,0.0188216
,,,,,,,,,101,97.4984,0.021075
,,,,,,,,,116,148.221,0.0271623
,,,,,,,,,132,149.5,0.0234574
,,,,,,,,,149,101.142,0.0224923
,,,,,,,,,167,123.465,0.0236646
,,,,,,,,,186,143.079,0.0161108
,,,,,,,,,50,107.383,0.0583284
,,,,,,,,,61,136.776,0.059725
,,,,,,,,,73,139.284,0.0651286
,,,,,,,,,86,96.0819,0.0564391
,,,,,,,,,100,156.016,0.0355965
,,,,,,,,,115,137.414,0.0446198
,,,,,,,,,131,79.3194,0.0849051
,,,,,,,,,148,68.8157,0.0568424
,,,,,,,,,166,122.734,0.0514888
,,,,,,,,,185,110.133,0.0580742
,,,,,,,,,205,87.1418,0.0270036
,,,,,,,,,72,29.4109,0.0481015
,,,,,,,,,85,109.996,0.0515458
,,,,,,,,,99,25.8686,0.0459471
,,,,,,,,,114,87.3576,0.0311152
,,,,,,,,,130,80.5107,0.0377964
,,,,,,,,,147,69.605,0.0631958
,,,,,,,,,165,122.034,0.046214
,,,,,,,,,184,111.164,0.0426118
,,,,,,,,,204,68.7359,0.0470249
,,,,,,,,,225,107.209,0.0243439
,,,,,,,,,98,81.4616,0.0526335
,,,,,,,,,113,46.0478,0.0468093
,,,,,,,,,129,60.1274,0.0315082
,,,,,,,,,146,60.8635,0.0383779
,,,,,,,,,164,81.8684,0.0648385
,,,,,,,,,183,125.358,0.0470863
,,,,,,,,,203,89.4531,0.0433524
,,,,,,,,,224,64.9254,0.0479284
,,,,,,,,,246,104.607,0.0245838
,,,,,,,,,128,124.634,0.0500648
,,,,,,,,,145,41.7219,0.0329505
,,,,,,,,,163,65.6012,0.0405392
,,,,,,,,,182,128.936,0.0712567
,,,,,,,,,202,103.211,0.0503818
,,,,,,,,,223,55.5178,0.0461305
,,,,,,,,,245,98.0663,0.0513471
,,,,,,,,,268,96.68,0.0254531
,,,,,,,,,162,89.2583,0.0305693
,,,,,,,,,181,72.7698,0.0369939
,,,,,,,,,201,43.8251,0.060984
,,,,,,,,,222,96.3996,0.0450199
,,,,,,,,,244,100.63,0.0415946
,,,,,,,,,267,49.8374,0.0457891
,,,,,,,,,291,83.6779,0.0240085
,,,,,,,,,200,24.6699,0.0267337
,,,,,,,,,221,88.7114,0.0373522
,,,,,,,,,243,87.3838,0.0306872
,,,,,,,,,266,33.4082,0.0290562
,,,,,,,,,290,56.9056,0.0310427
,,,,,,,,,315,70.1777,0.019221
,,,,,,,,,242,64.0831,0.0474133
,,,,,,,,,265,71.7725,0.0371668
,,,,,,,,,289,30.6536,0.0348008
,,,,,,,,,314,32.4859,0.0376895
,,,,,,,,,340,51.4095,0.0215771
,,,,,,,,,288,52.5945,0.0614551
,,,,,,,,,313,76.4468,0.0552449
,,,,,,,,,339,31.968,0.0628974
,,,,,,,,,366,43.0237,0.0280021
,,,,,,,,,338,55.1793,0.0418132
,,,,,,,,,365,60.4963,0.0460542
,,,,,,,,,393,21.3225,0.0240811
,,,,,,,,,392,52.354,0.0424759
,,,,,,,,,421,41.9559,0.0230651
,,,,,,,,,450,40.5149,0.0242995
