"cellPairingIds","interplanarAngles","angleWeights"
18,55.6653,0.0100303
52,103.945,0.0262812
63,47.7537,0.0269783
133,163.405,0.0224942
150,96.885,0.0313007
149,109.823,0.0110869
167,116.763,0.0128719
128,147.834,0.0472605
182,121.608,0.0638974
223,62.2453,0.0350282
201,46.8535,0.0681808
244,148.11,0.0362776
267,51.3552,0.0664123
313,117.58,0.0453393
392,97.3894,0.0445504
