"cellPairingIds","interplanarAngles","angleWeights"
8,31.8047,0.0453911
13,44.0713,0.0657423
19,33.2633,0.0528473
43,50.7887,0.0475428
53,58.9576,0.0330794
18,48.5681,0.0683842
33,61.5632,0.0433195
42,37.455,0.045981
63,62.9813,0.0337352
117,69.8699,0.058759
41,32.1189,0.0614838
62,71.9006,0.0733881
149,79.6081,0.00395873
73,43.6701,0.0576777
86,29.8563,0.037687
100,42.5958,0.0816036
165,73.2667,0.053591
184,53.2583,0.00383043
113,50.0208,0.0333916
164,59.604,0.0625769
183,46.3403,0.0577245
145,44.4415,0.0696106
163,28.8247,0.00619913
223,123.277,0.00386954
162,39.5812,0.0424408
201,28.5857,0.041885
200,37.7545,0.00640083
221,43.1555,0.104222
290,46.8865,0.0480767
289,115.456,0.00249817
314,26.4357,0.00596134
288,83.5456,0.088882
339,77.4964,0.0473648
366,41.3254,0.0957629
338,78.3726,0.00392155
393,59.1335,0.0848479
392,102.67,0.00377553
421,105.285,0.00393402
451,104.73,0.00361398
450,88.6688,0.0461944
481,35.401,0.0226459
512,53.6397,0.0298617
