facetNormals:0,facetNormals:1,facetNormals:2,FacetCenters:0,FacetCenters:1,FacetCenters:2,FacetIds,relFacetSize,absFacetSize,cellPairingIds,interplanarAngles,angleWeights
0.369595,0.161877,-0.85325,4.79709,4.73131,8.46141,1,0.0393075,0.00555711,8,51.3902,0.0446613
0.129082,0.811826,-0.430629,4.79026,4.7252,8.41951,2,0.0517036,0.00730961,13,52.5716,0.0554478
0.467459,-0.586205,-0.523513,4.76316,4.65052,8.37208,3,0.0940778,0.0133003,19,108.367,0.0200064
-0.939641,0.262726,-0.0170425,4.76697,4.7253,8.48542,4,0.0134178,0.00189695,26,102.972,0.0312668
-0.571158,0.770952,0.139618,4.81405,4.77169,8.52088,5,0.0259571,0.0036697,34,123.471,0.0665836
-0.586244,-0.703262,0.182146,4.74286,4.62756,8.43092,6,0.217535,0.030754,43,104.237,0.0501665
0.207337,-0.906528,0.175265,4.76382,4.62049,8.44242,7,0.0693156,0.00979952,53,99.1876,0.0269776
0.160414,0.873699,0.407883,4.83012,4.74013,8.46643,8,0.020536,0.00290328,64,101.879,0.0462082
0.619618,0.446381,0.570079,4.8203,4.72605,8.48945,9,0.0560479,0.00792379,76,136.871,0.0337434
0.00653262,-0.736132,0.662938,4.83095,4.63997,8.52736,10,0.0295592,0.00417894,89,159.525,0.0363814
-0.407537,-0.492319,0.755723,4.78362,4.6694,8.52967,11,0.0338608,0.00478708,103,166.091,0.0525575
-0.442842,0.0592831,0.860499,4.81556,4.68847,8.54554,12,0.0792824,0.0112086,118,149.895,0.0438909
0.0933675,-0.336468,0.903956,4.81504,4.67619,8.5274,13,0.0496844,0.00702414,18,102.946,0.0667322
,,,,,,,,,25,83.7022,0.0213064
,,,,,,,,,33,56.8491,0.0345625
,,,,,,,,,42,146.819,0.0835492
,,,,,,,,,52,153.318,0.059228
,,,,,,,,,63,52.3283,0.0293962
,,,,,,,,,75,77.1372,0.0537881
,,,,,,,,,88,163.672,0.0376141
,,,,,,,,,102,147.861,0.0409218
,,,,,,,,,117,114.953,0.0625896
,,,,,,,,,133,136.321,0.0506739
,,,,,,,,,32,130.907,0.023486
,,,,,,,,,41,153.29,0.040688
,,,,,,,,,51,87.1224,0.13135
,,,,,,,,,62,51.6787,0.0798204
,,,,,,,,,74,136.718,0.0337128
,,,,,,,,,87,108.081,0.070246
,,,,,,,,,101,84.456,0.0449843
,,,,,,,,,116,109.193,0.0497981
,,,,,,,,,132,141.33,0.0860487
,,,,,,,,,149,105.201,0.0650268
,,,,,,,,,50,38.8494,0.0176909
,,,,,,,,,61,66.517,0.0252766
,,,,,,,,,73,118.172,0.0224834
,,,,,,,,,86,85.6794,0.0162308
,,,,,,,,,100,120.692,0.0216522
,,,,,,,,,115,102.597,0.0184573
,,,,,,,,,131,75.5678,0.0192196
,,,,,,,,,148,63.8475,0.0229514
,,,,,,,,,166,101.686,0.0211294
,,,,,,,,,72,101.595,0.04638
,,,,,,,,,85,149.782,0.0377702
,,,,,,,,,99,47.6126,0.0229305
,,,,,,,,,114,85.6657,0.0354818
,,,,,,,,,130,119.892,0.0276413
,,,,,,,,,147,92.465,0.0293868
,,,,,,,,,165,63.5466,0.0391097
,,,,,,,,,184,101.45,0.0340994
,,,,,,,,,98,51.6672,0.105132
,,,,,,,,,113,134.029,0.0375291
,,,,,,,,,129,130.126,0.0891311
,,,,,,,,,146,46.6681,0.0520461
,,,,,,,,,164,38.5275,0.0586001
,,,,,,,,,183,65.5476,0.116211
,,,,,,,,,203,67.4755,0.080893
,,,,,,,,,128,137.989,0.0316848
,,,,,,,,,145,101.272,0.0619797
,,,,,,,,,163,33.1529,0.0414446
,,,,,,,,,182,58.1489,0.0454965
,,,,,,,,,202,89.6718,0.0739648
,,,,,,,,,223,58.2311,0.0578807
,,,,,,,,,162,39.1948,0.0300585
,,,,,,,,,181,112.573,0.0242349
,,,,,,,,,201,101.161,0.0255664
,,,,,,,,,222,69.5106,0.0326221
,,,,,,,,,244,84.5652,0.0290604
,,,,,,,,,200,86.7587,0.0387054
,,,,,,,,,221,92.5192,0.0422167
,,,,,,,,,243,74.7768,0.0656706
,,,,,,,,,266,62.74,0.0526746
,,,,,,,,,242,28.6141,0.0315641
,,,,,,,,,265,56.9443,0.043063
,,,,,,,,,289,28.0097,0.0370662
,,,,,,,,,288,33.3519,0.0474543
,,,,,,,,,313,32.2955,0.0402741
,,,,,,,,,338,40.3022,0.061087
