"cellPairingIds","interplanarAngles","angleWeights"
8,62.2505,0.00614774
13,60.8978,0.00662016
19,100.92,0.00654149
26,82.3232,0.0062953
34,62.155,0.00631351
53,110.421,0.00359904
64,90.1697,0.0063907
103,144.579,0.0064311
33,26.2189,0.033999
42,60.7145,0.034537
52,31.1828,0.0385871
51,29.8548,0.0576477
87,44.6301,0.0647938
149,46.8923,0.0967938
50,28.2652,0.0509648
131,35.5906,0.0132645
148,60.3818,0.0614738
185,34.6987,0.0505108
226,56.6494,0.0311997
85,49.653,0.0452436
130,34.6213,0.015667
147,23.8496,0.0122899
98,35.8647,0.0462012
203,62.5259,0.0565992
318,66.8963,0.0543235
163,30.4116,0.0165752
343,69.4749,0.0650655
162,39.4066,0.0070308
222,75.6392,0.00707973
291,52.006,0.00636011
342,45.9561,0.00724016
266,28.5395,0.0634722
368,46.8911,0.0597217
242,17.0946,0.00836148
424,63.7401,0.0175147
394,32.4273,0.0106613
453,73.927,0.0133987
365,36.2404,0.0445993
393,35.2645,0.0286756
515,39.3865,0.0528717
482,30.7737,0.085896
514,41.4696,0.0877753
481,39.2635,0.0261737
546,75.6179,0.0525135
580,35.9441,0.0445546
545,39.2996,0.0315031
614,31.4879,0.0286571
613,44.9556,0.0319524
648,37.9163,0.0807615
685,51.5885,0.0633561
722,47.4676,0.0643727
