Q	U	V
{$V$}	{[mm$^3$]}	0.0035564
{$d_v$}	{[mm]}	0.189381
{$S_c$}	{[mm$^2$]}	0.154513
{$S_o$}	{[mm$^2$]}	0.0891836
{$S_l/S_o$}	[]	0.732527
{$\Psi$}	[]	0.729222
{$\eta$}	[]	0.734100
{med($\theta_e$)}	{[$^\circ$]}	54.2587
{$\Upsilon$}	[]	14
{$\Xi$}	[]	7
