Q	U	V
{$V$}	{[mm$^3$]}	0.00418694
{$d_v$}	{[mm]}	0.199971
{$S_c$}	{[mm$^2$]}	0.186279
{$S_o$}	{[mm$^2$]}	0.122986
{$S_l/S_o$}	[]	0.514636
{$\Psi$}	[]	0.674401
{$\eta$}	[]	0.749376
{med($\theta_e$)}	{[$^\circ$]}	51.74095
{$\Upsilon$}	[]	16
{$\Xi$}	[]	4
