"cellPairingIds","interplanarAngles","angleWeights"
8,62.5027,0.0798845
13,58.3872,0.0351097
26,74.8595,0.0619411
18,105.14,0.0365481
25,143.409,0.0870559
33,137.35,0.0665629
42,42.2287,0.0918329
52,86.7799,0.00879512
63,72.1832,0.0616128
102,118.595,0.0672772
133,124.39,0.0730178
32,40.6874,0.0364286
41,47.6989,0.0322711
50,37.7154,0.0661674
100,33.4781,0.0673723
115,37.5387,0.0318814
131,66.7284,0.0668732
99,105.2,0.0503608
130,31.034,0.028651
165,34.8765,0.0416509
113,33.2156,0.0636024
203,93.7683,0.0758291
182,41.2538,0.00853488
223,43.0273,0.00862086
181,102.542,0.0276933
222,76.2357,0.0396572
244,83.0902,0.0539706
200,26.5929,0.0288746
221,48.4223,0.054885
242,74.6101,0.0287825
265,28.9665,0.0248372
289,65.6383,0.0297844
313,42.2404,0.058268
