facetNormals:0,facetNormals:1,facetNormals:2,FacetCenters:0,FacetCenters:1,FacetCenters:2,FacetIds,relFacetSize,absFacetSize,cellPairingIds,interplanarAngles,angleWeights
0.0353769,0.149386,-0.971786,6.35755,5.03258,6.77456,1,0.0123103,0.00165112,8,46.7591,0.0181476
0.00491951,-0.583397,-0.746743,6.31773,4.88801,6.66578,2,0.034513,0.00462905,13,49.3611,0.0233657
-0.670916,0.342552,-0.611538,6.2584,4.96164,6.70074,3,0.229211,0.0307429,19,81.1991,0.0210654
-0.565046,-0.727311,-0.281556,6.24534,4.85129,6.70036,4,0.0729425,0.0097834,26,90.2641,0.0191304
-0.595233,0.767605,0.100887,6.29164,5.05857,6.75641,5,0.0428946,0.00575323,34,103.129,0.0139185
-0.225824,-0.959436,0.0715469,6.28604,4.82164,6.73,6,0.0160101,0.00214736,43,101.243,0.0148422
0.296639,-0.936691,0.0611266,6.3206,4.83561,6.72668,7,0.0186851,0.00250614,53,107.887,0.0110388
-0.942348,-0.17032,0.24703,6.21406,4.91872,6.76606,8,0.0100053,0.00134196,64,109.103,0.017078
0.143387,0.843962,0.456371,6.34351,5.0641,6.77527,9,0.0278733,0.0037385,76,142.285,0.0205844
0.00707958,-0.706216,0.672984,6.28446,4.85743,6.77755,10,0.0627819,0.00842061,89,134.958,0.0163439
-0.436456,-0.660353,0.58795,6.23654,4.86708,6.77923,11,0.0243088,0.00326042,103,147.528,0.0174477
-0.537594,-0.267506,0.780214,6.22542,4.90942,6.80289,12,0.0299443,0.00401627,118,138.371,0.0157875
-0.333464,0.466443,0.81144,6.27675,5.0174,6.81006,13,0.0220025,0.00295108,134,163.798,0.0195491
0.235959,-0.159632,0.925158,6.29921,4.93257,6.80494,14,0.0474524,0.00636455,151,149.018,0.016205
-0.480128,0.112545,0.861135,6.24252,4.96072,6.81784,15,0.0237046,0.00317938,169,143.036,0.0180228
0.343368,0.333173,0.859295,6.32022,5.01326,6.80668,16,0.0336275,0.00451029,18,73.995,0.0599927
,,,,,,,,,25,46.1914,0.0468559
,,,,,,,,,33,124.644,0.03825
,,,,,,,,,42,57.3535,0.0218734
,,,,,,,,,52,57.4244,0.0242445
,,,,,,,,,63,95.4948,0.0155133
,,,,,,,,,75,154.894,0.0308398
,,,,,,,,,88,95.6184,0.0445407
,,,,,,,,,102,93.4327,0.0285258
,,,,,,,,,117,117.39,0.0320667
,,,,,,,,,133,159.118,0.026873
,,,,,,,,,150,130.566,0.0399613
,,,,,,,,,168,139.126,0.0281055
,,,,,,,,,187,153.538,0.0340645
,,,,,,,,,32,71.1357,0.110667
,,,,,,,,,41,50.6658,0.0722654
,,,,,,,,,51,103.319,0.0299297
,,,,,,,,,62,125.691,0.0345535
,,,,,,,,,74,63.8554,0.0191737
,,,,,,,,,87,95.2536,0.0497025
,,,,,,,,,101,134.058,0.0985661
,,,,,,,,,116,107.829,0.0439559
,,,,,,,,,132,102.581,0.0529687
,,,,,,,,,149,96.7145,0.0401508
,,,,,,,,,167,146.008,0.078627
,,,,,,,,,186,99.9239,0.0429658
,,,,,,,,,206,132.258,0.0586505
,,,,,,,,,50,105.438,0.0540213
,,,,,,,,,61,32.2127,0.0262571
,,,,,,,,,73,58.4248,0.0297496
,,,,,,,,,86,51.9693,0.0175969
,,,,,,,,,100,151.792,0.0403339
,,,,,,,,,115,70.0769,0.0674818
,,,,,,,,,131,53.7622,0.0364652
,,,,,,,,,148,72.9097,0.0424585
,,,,,,,,,166,113.352,0.0338073
,,,,,,,,,185,107.33,0.057499
,,,,,,,,,205,93.1801,0.0357812
,,,,,,,,,226,135.732,0.0460331
,,,,,,,,,72,128.05,0.0233172
,,,,,,,,,85,157.69,0.026031
,,,,,,,,,99,61.8867,0.0162259
,,,,,,,,,114,50.0349,0.0337897
,,,,,,,,,130,120.143,0.0509669
,,,,,,,,,147,101.245,0.0310317
,,,,,,,,,165,78.3976,0.0352682
,,,,,,,,,184,48.8575,0.0290856
,,,,,,,,,204,100.338,0.0450585
,,,,,,,,,225,61.7256,0.0305349
,,,,,,,,,247,81.736,0.0376999
,,,,,,,,,98,30.7512,0.0172445
,,,,,,,,,113,66.2328,0.0123147
,,,,,,,,,129,147.599,0.0203382
,,,,,,,,,146,41.3146,0.0255139
,,,,,,,,,164,37.3915,0.0193054
,,,,,,,,,183,63.5167,0.0208647
,,,,,,,,,203,108.66,0.018534
,,,,,,,,,224,80.0035,0.0239423
,,,,,,,,,246,86.372,0.019112
,,,,,,,,,269,110.207,0.0216924
,,,,,,,,,128,96.1854,0.0130323
,,,,,,,,,145,138.94,0.0223726
,,,,,,,,,163,42.792,0.0287991
,,,,,,,,,182,57.2569,0.0211292
,,,,,,,,,202,81.767,0.0230113
,,,,,,,,,223,119.809,0.0202086
,,,,,,,,,245,73.1601,0.0268125
,,,,,,,,,268,101.527,0.0208977
,,,,,,,,,292,99.3739,0.0240223
,,,,,,,,,162,99.9714,0.014725
,,,,,,,,,181,73.1376,0.01726
,,,,,,,,,201,46.6811,0.0141759
,,,,,,,,,222,40.089,0.014999
,,,,,,,,,244,63.7081,0.0137555
,,,,,,,,,267,88.0021,0.0165261
,,,,,,,,,291,48.8332,0.0140713
,,,,,,,,,316,99.9489,0.015422
,,,,,,,,,200,107.709,0.0386064
,,,,,,,,,221,111.564,0.0259693
,,,,,,,,,243,86.8058,0.0288717
,,,,,,,,,266,42.0122,0.0245923
,,,,,,,,,290,69.991,0.0351183
,,,,,,,,,315,64.1901,0.0256205
,,,,,,,,,341,40.7705,0.0304812
,,,,,,,,,242,26.7538,0.0350474
,,,,,,,,,265,42.318,0.0405486
,,,,,,,,,289,77.226,0.0325852
,,,,,,,,,314,38.6985,0.0540513
,,,,,,,,,340,59.1344,0.0344151
,,,,,,,,,367,68.8983,0.0437965
,,,,,,,,,288,26.3363,0.0268339
,,,,,,,,,313,71.2686,0.0230982
,,,,,,,,,339,55.0808,0.0321486
,,,,,,,,,366,49.0308,0.0240029
,,,,,,,,,394,81.9773,0.0282187
,,,,,,,,,338,45.3395,0.0253663
,,,,,,,,,365,48.0035,0.0367181
,,,,,,,,,393,22.917,0.0264616
,,,,,,,,,422,65.8137,0.0316792
,,,,,,,,,392,51.5894,0.0300647
,,,,,,,,,421,22.4329,0.0228218
,,,,,,,,,451,40.9399,0.0266003
,,,,,,,,,450,46.1548,0.0316157
,,,,,,,,,481,30.2032,0.0393613
,,,,,,,,,512,51.1206,0.0278074
