Q	U	V
{$V$}	{[mm$^3$]}	0.00757235
{$d_v$}	{[mm]}	0.243637
{$S_c$}	{[mm$^2$]}	0.279587
{$S_o$}	{[mm$^2$]}	0.196038
{$S_l/S_o$}	[]	0.426188
{$\Psi$}	[]	0.666992
{$\eta$}	[]	0.681852
{med($\theta_e$)}	{[$^\circ$]}	57.8243
{$\Upsilon$}	[]	14
{$\Xi$}	[]	15
