facetNormals:0,facetNormals:1,facetNormals:2,FacetCenters:0,FacetCenters:1,FacetCenters:2,FacetIds,relFacetSize,absFacetSize,cellPairingIds,interplanarAngles,angleWeights
0.259982,-0.51245,-0.784945,5.87311,5.42952,9.5464,1,0.0224186,0.0056891,8,36.8158,0.0287248
-0.345281,-0.546372,-0.71097,5.85302,5.43656,9.55304,2,0.0399676,0.0101425,13,91.7749,0.0217595
-0.198087,0.798986,-0.549239,5.86062,5.55655,9.54895,3,0.021138,0.00536414,19,93.542,0.0329674
0.174704,0.860532,-0.429104,5.90669,5.56966,9.56464,4,0.0622663,0.0158011,26,52.5742,0.024867
0.81955,-0.533933,-0.122434,5.9733,5.42695,9.63885,5,0.0279159,0.00708414,34,123.299,0.0303038
-0.904096,0.223469,0.203233,5.80907,5.50707,9.65023,6,0.0467453,0.0118624,43,131.146,0.030505
-0.66584,0.691588,0.11656,5.85438,5.5626,9.62745,7,0.0477164,0.0121089,53,65.1403,0.0259696
-0.441762,-0.856996,-0.0914133,5.84404,5.41594,9.578,8,0.0308572,0.00783056,64,84.5533,0.0225131
0.950035,0.26769,0.0237569,6.04666,5.51868,9.6015,9,0.0226085,0.0057373,76,106.081,0.0289929
0.569385,0.776604,0.0121802,5.98462,5.55018,9.63026,10,0.0410231,0.0104103,89,82.1541,0.0285144
0.923763,-0.147798,0.239094,6.01005,5.48874,9.66344,11,0.0391632,0.00993834,103,91.8739,0.0322938
-0.804004,-0.523095,0.114354,5.80253,5.44953,9.6224,12,0.0577184,0.0146471,118,121.883,0.0289613
0.647419,0.521479,0.51366,6.00927,5.55016,9.63741,13,0.0408967,0.0103782,134,84.255,0.0308671
0.521253,-0.662697,0.484639,5.98084,5.41521,9.66299,14,0.0495342,0.0125702,151,152.383,0.033042
-0.0454393,0.815932,0.510148,5.91744,5.57095,9.68706,15,0.0628014,0.015937,169,109.47,0.0186925
0.676159,-0.120139,0.710596,6.00199,5.48932,9.70642,16,0.0160284,0.00406749,188,163.465,0.0315231
-0.465283,0.322673,0.789771,5.89755,5.51563,9.66813,17,0.0530792,0.0134698,208,105.513,0.0369839
-0.13449,-0.651563,0.701227,5.91081,5.42243,9.68708,18,0.105577,0.026792,229,127.96,0.020092
0.318313,-0.105444,0.922587,6.04378,5.46196,9.6432,19,0.018203,0.00461932,18,88.6534,0.0276517
,,,,,,,,,25,103.889,0.0486851
,,,,,,,,,33,84.1951,0.032872
,,,,,,,,,42,87.1477,0.0430916
,,,,,,,,,52,104.384,0.0434996
,,,,,,,,,63,42.5288,0.0348265
,,,,,,,,,75,121.182,0.0288803
,,,,,,,,,88,132.873,0.0404885
,,,,,,,,,102,116.102,0.0395613
,,,,,,,,,117,58.7064,0.0472302
,,,,,,,,,133,158.508,0.0404268
,,,,,,,,,150,100.013,0.0442396
,,,,,,,,,168,148.926,0.0488478
,,,,,,,,,187,135.139,0.0228808
,,,,,,,,,207,128.179,0.0455996
,,,,,,,,,228,95.9402,0.0579844
,,,,,,,,,250,138.667,0.0250137
,,,,,,,,,32,23.2471,0.0315616
,,,,,,,,,41,122.331,0.0240587
,,,,,,,,,51,74.8823,0.0291118
,,,,,,,,,62,49.5847,0.0292975
,,,,,,,,,74,124.803,0.0250892
,,,,,,,,,87,89.2586,0.0218486
,,,,,,,,,101,58.2835,0.0279
,,,,,,,,,116,116.905,0.0274566
,,,,,,,,,132,109.652,0.0309437
,,,,,,,,,149,89.6275,0.0278707
,,,,,,,,,167,159.079,0.0296313
,,,,,,,,,186,66.4615,0.0316299
,,,,,,,,,206,129.362,0.018232
,,,,,,,,,227,94.9989,0.0302353
,,,,,,,,,249,156.784,0.0352238
,,,,,,,,,272,132.32,0.019561
,,,,,,,,,50,105.888,0.0385491
,,,,,,,,,61,93.2524,0.0534009
,,,,,,,,,73,63.02,0.0540289
,,,,,,,,,86,145.008,0.0412649
,,,,,,,,,100,66.4111,0.0331723
,,,,,,,,,115,35.8876,0.0494602
,,,,,,,,,131,94.1563,0.0480836
,,,,,,,,,148,132.653,0.0599062
,,,,,,,,,166,69.0525,0.0493682
,,,,,,,,,185,136.302,0.0551752
,,,,,,,,,205,59.681,0.0625327
,,,,,,,,,226,107.484,0.0254942
,,,,,,,,,248,98.6299,0.0573069
,,,,,,,,,271,159.537,0.0783336
,,,,,,,,,295,116.696,0.0281706
,,,,,,,,,72,160.39,0.0349562
,,,,,,,,,85,167.094,0.0352243
,,,,,,,,,99,83.5816,0.029313
,,,,,,,,,114,49.4472,0.0249834
,,,,,,,,,130,86.9511,0.0332235
,,,,,,,,,147,32.0561,0.0325966
,,,,,,,,,165,114.417,0.0376312
,,,,,,,,,184,78.6689,0.033182
,,,,,,,,,204,41.1649,0.0357079
,,,,,,,,,225,124.315,0.038651
,,,,,,,,,247,56.9488,0.0203643
,,,,,,,,,270,132.754,0.0365887
,,,,,,,,,294,80.8322,0.0441563
,,,,,,,,,319,77.8166,0.0220366
,,,,,,,,,98,32.1798,0.0472259
,,,,,,,,,113,78.1671,0.0371748
,,,,,,,,,129,147.561,0.0304768
,,,,,,,,,146,111.655,0.0436977
,,,,,,,,,164,152.933,0.0426197
,,,,,,,,,183,46.5509,0.0516556
,,,,,,,,,203,113.029,0.0436259
,,,,,,,,,224,124.186,0.0480994
,,,,,,,,,246,69.133,0.0535967
,,,,,,,,,269,121.611,0.0238716
,,,,,,,,,293,45.151,0.0497113
,,,,,,,,,318,82.6107,0.0647999
,,,,,,,,,344,97.6058,0.0262025
,,,,,,,,,128,109.277,0.0374781
,,,,,,,,,145,117.757,0.0306804
,,,,,,,,,163,80.1457,0.0441174
,,,,,,,,,182,137.588,0.0430188
,,,,,,,,,202,78.4589,0.052243
,,,,,,,,,223,90.64,0.0440441
,,,,,,,,,245,142.778,0.0486083
,,,,,,,,,268,45.4124,0.0542294
,,,,,,,,,292,118.123,0.0239963
,,,,,,,,,317,48.3121,0.0502552
,,,,,,,,,343,107.387,0.065727
,,,,,,,,,370,100.766,0.0263528
,,,,,,,,,162,132.93,0.0260966
,,,,,,,,,181,169.884,0.0352213
,,,,,,,,,201,108.924,0.0345176
,,,,,,,,,222,32.0422,0.0402149
,,,,,,,,,244,145.49,0.0351746
,,,,,,,,,267,71.8521,0.0380261
,,,,,,,,,291,141.072,0.0413817
,,,,,,,,,316,105.807,0.0210978
,,,,,,,,,342,98.7507,0.0390266
,,,,,,,,,369,53.7389,0.0477565
,,,,,,,,,397,98.1388,0.0228981
,,,,,,,,,200,38.0148,0.0291513
,,,,,,,,,221,27.7454,0.0286675
,,,,,,,,,243,160.885,0.0324904
,,,,,,,,,266,37.3602,0.0291193
,,,,,,,,,290,69.9408,0.0310466
,,,,,,,,,315,78.6388,0.0332478
,,,,,,,,,341,50.0045,0.0187582
,,,,,,,,,368,110.557,0.0317103
,,,,,,,,,396,107.409,0.0372419
,,,,,,,,,425,72.2108,0.020168
,,,,,,,,,242,63.5559,0.0400716
,,,,,,,,,265,158.014,0.0479594
,,,,,,,,,289,34.0367,0.0409598
,,,,,,,,,314,103.08,0.0448787
,,,,,,,,,340,48.5623,0.0496282
,,,,,,,,,367,71.6034,0.0230506
,,,,,,,,,395,90.2887,0.0462789
,,,,,,,,,424,128.072,0.0590872
,,,,,,,,,454,83.282,0.0252167
,,,,,,,,,288,133.162,0.0466639
,,,,,,,,,313,46.9764,0.0400112
,,,,,,,,,339,42.2272,0.0437424
,,,,,,,,,366,92.5013,0.0482423
,,,,,,,,,394,31.6521,0.0227471
,,,,,,,,,423,107.917,0.0450715
,,,,,,,,,453,81.3904,0.0571332
,,,,,,,,,484,55.9866,0.0248539
,,,,,,,,,338,141.094,0.0478728
,,,,,,,,,365,91.0378,0.053314
,,,,,,,,,393,110.897,0.0601527
,,,,,,,,,422,114.742,0.0250895
,,,,,,,,,452,71.6445,0.0553017
,,,,,,,,,483,55.4795,0.0746345
,,,,,,,,,515,95.766,0.0276772
,,,,,,,,,392,75.3204,0.0448029
,,,,,,,,,421,45.6468,0.0495355
,,,,,,,,,451,39.9678,0.0230306
,,,,,,,,,482,73.3112,0.0461983
,,,,,,,,,514,94.0465,0.058956
,,,,,,,,,547,49.3428,0.0251928
,,,,,,,,,450,109.788,0.0553843
,,,,,,,,,481,36.106,0.0242197
,,,,,,,,,513,94.4674,0.0512455
,,,,,,,,,546,41.7304,0.0674312
,,,,,,,,,580,44.3262,0.0266226
,,,,,,,,,512,75.786,0.0255387
,,,,,,,,,545,42.7614,0.0575325
,,,,,,,,,579,100.381,0.0787558
,,,,,,,,,614,66.9569,0.028225
,,,,,,,,,578,77.5009,0.0246218
,,,,,,,,,613,59.443,0.0278315
,,,,,,,,,649,24.3915,0.0170466
,,,,,,,,,648,64.3816,0.0706426
,,,,,,,,,685,55.0475,0.0271092
,,,,,,,,,722,44.8384,0.0310521
