"cellPairingIds","interplanarAngles","angleWeights"
8,64.1455,0.0244062
13,71.1901,0.0600163
19,54.4435,0.0232862
34,42.7837,0.05877
53,85.7198,0.0367697
18,96.922,0.0300886
63,41.1604,0.022847
133,104.031,0.0244287
32,42.8925,0.0284043
132,94.8137,0.0413011
149,95.7167,0.0601524
61,63.9135,0.028122
148,64.3334,0.0198042
113,81.389,0.0504753
146,36.8419,0.0768773
164,45.122,0.0701126
183,70.0341,0.040707
201,54.1588,0.0409105
244,95.2296,0.0368207
242,27.1479,0.0566904
265,47.7091,0.0357875
288,72.5407,0.0342492
313,115.277,0.0462755
338,94.1441,0.0313355
