Q	U	V
{$V$}	{[mm$^3$]}	0.0033486
{$d_v$}	{[mm]}	0.185619
{$S_c$}	{[mm$^2$]}	0.174133
{$S_o$}	{[mm$^2$]}	0.0896612
{$S_l/S_o$}	[]	0.942122
{$\Psi$}	[]	0.621601
{$\eta$}	[]	0.658347
{med($\theta_e$)}	{[$^\circ$]}	88.1228
{$\Upsilon$}	[]	11
{$\Xi$}	[]	6
