facetNormals:0,facetNormals:1,facetNormals:2,FacetCenters:0,FacetCenters:1,FacetCenters:2,FacetIds,relFacetSize,absFacetSize,cellPairingIds,interplanarAngles,angleWeights
-0.00916961,0.193639,-0.974173,3.79666,5.15422,8.31231,1,0.00977304,0.000791302,8,30.6519,0.00702265
0.24769,-0.259585,-0.920573,3.76778,5.11448,8.26933,2,0.00548034,0.000443731,13,34.7951,0.0162981
-0.459881,0.473699,-0.718562,3.77186,5.14942,8.3026,3,0.0490402,0.00397068,19,30.0714,0.0156774
-0.0980144,0.641063,-0.739598,3.80425,5.17231,8.30476,4,0.0396037,0.00320663,26,71.0662,0.0129976
-0.602322,-0.602432,-0.429745,3.75807,5.10532,8.33003,5,0.0193978,0.0015706,34,53.4803,0.0166007
0.730595,0.270247,-0.522191,3.84016,5.15955,8.31842,6,0.055082,0.00445987,43,75.6849,0.0157119
0.213267,-0.861084,-0.42068,3.8119,5.10981,8.31036,7,0.0400489,0.00324267,53,63.9114,0.0130458
-0.833267,0.282239,-0.362744,3.77057,5.17146,8.34944,8,0.0196142,0.00158812,64,75.1876,0.0164188
-0.309598,0.897822,-0.0667909,3.78656,5.18437,8.34861,9,0.0513093,0.0041544,76,77.7207,0.0175624
0.68729,0.665756,-0.0823969,3.82681,5.19953,8.38978,10,0.0865229,0.00700557,89,111.105,0.0182702
0.32662,-0.886445,0.173347,3.79234,5.10693,8.36966,11,0.139942,0.0113308,103,115.332,0.0181313
0.878936,-0.0722281,0.399794,3.8338,5.16249,8.39881,12,0.12525,0.0101412,118,104.449,0.0107567
-0.593707,0.683203,0.392361,3.78558,5.18655,8.3789,13,0.0119606,0.000968422,134,109.019,0.0167967
0.55422,0.666433,0.452083,3.79043,5.21238,8.47228,14,0.0597069,0.00483434,151,118.287,0.00971994
-0.740542,0.343059,0.550944,3.78229,5.1803,8.38176,15,0.0096674,0.000782749,169,136.4,0.0171913
0.506531,-0.583099,0.602737,3.78975,5.14988,8.44177,16,0.0713503,0.00577708,18,63.8697,0.00985893
,,,,,,,,,25,59.7116,0.00962832
,,,,,,,,,33,64.705,0.00854619
,,,,,,,,,42,50.3276,0.00996884
,,,,,,,,,52,46.834,0.00964135
,,,,,,,,,63,86.6907,0.008567
,,,,,,,,,75,105.303,0.00990295
,,,,,,,,,88,85.5716,0.0103078
,,,,,,,,,102,80.8179,0.0105476
,,,,,,,,,117,97.9057,0.0105012
,,,,,,,,,133,134.701,0.00751658
,,,,,,,,,150,117.896,0.0100392
,,,,,,,,,168,143.262,0.00699519
,,,,,,,,,187,106.692,0.0101789
,,,,,,,,,32,23.5088,0.0438197
,,,,,,,,,41,71.1758,0.0277996
,,,,,,,,,51,79.469,0.0518858
,,,,,,,,,62,102.275,0.0440908
,,,,,,,,,74,33.1398,0.028021
,,,,,,,,,87,48.4934,0.0501491
,,,,,,,,,101,86.421,0.0625996
,,,,,,,,,116,137.833,0.0726288
,,,,,,,,,132,140.178,0.0704833
,,,,,,,,,149,70.9167,0.0192309
,,,,,,,,,167,106.068,0.0538504
,,,,,,,,,186,83.5956,0.0161509
,,,,,,,,,206,170.263,0.058128
,,,,,,,,,50,90.5691,0.0260409
,,,,,,,,,61,58.0726,0.0460777
,,,,,,,,,73,105.728,0.039825
,,,,,,,,,86,55.4481,0.0262351
,,,,,,,,,100,45.5932,0.0447029
,,,,,,,,,115,63.5786,0.0543363
,,,,,,,,,131,140.45,0.061736
,,,,,,,,,148,116.712,0.0601789
,,,,,,,,,166,77.7449,0.0183725
,,,,,,,,,185,87.7028,0.0476206
,,,,,,,,,205,96.8169,0.0155412
,,,,,,,,,226,154.417,0.0509353
,,,,,,,,,72,115.02,0.0286916
,,,,,,,,,85,52.4382,0.0261364
,,,,,,,,,99,57.508,0.0195054
,,,,,,,,,114,111.011,0.0281524
,,,,,,,,,130,148.297,0.0316908
,,,,,,,,,147,73.3359,0.0340727
,,,,,,,,,165,135.388,0.033593
,,,,,,,,,184,103.679,0.0147973
,,,,,,,,,204,175.268,0.0292823
,,,,,,,,,225,89.8408,0.0129038
,,,,,,,,,247,103.161,0.0305029
,,,,,,,,,98,81.0789,0.0463776
,,,,,,,,,113,112.609,0.0289275
,,,,,,,,,129,86.7048,0.0531287
,,,,,,,,,146,36.3868,0.067312
,,,,,,,,,164,95.8273,0.0790495
,,,,,,,,,183,62.8864,0.0765146
,,,,,,,,,203,119.389,0.0196536
,,,,,,,,,224,67.6286,0.0573013
,,,,,,,,,246,142.847,0.016448
,,,,,,,,,269,96.3898,0.0621695
,,,,,,,,,128,106.678,0.0263321
,,,,,,,,,145,150.19,0.0449851
,,,,,,,,,163,114.567,0.0547538
,,,,,,,,,182,36.2944,0.0622756
,,,,,,,,,202,85.0846,0.0606915
,,,,,,,,,223,155.305,0.01842
,,,,,,,,,245,132.291,0.047941
,,,,,,,,,268,135.126,0.0155751
,,,,,,,,,292,68.2418,0.051302
,,,,,,,,,162,53.7588,0.0283796
,,,,,,,,,181,112.85,0.0319789
,,,,,,,,,201,129.814,0.034406
,,,,,,,,,222,166.993,0.0339169
,,,,,,,,,244,54.4952,0.0148598
,,,,,,,,,267,118.067,0.0295281
,,,,,,,,,291,56.7309,0.0129514
,,,,,,,,,316,149.739,0.0307698
,,,,,,,,,200,64.7213,0.0644178
,,,,,,,,,221,173.515,0.0750878
,,,,,,,,,243,113.234,0.0727969
,,,,,,,,,266,34.8244,0.0193991
,,,,,,,,,290,64.7809,0.0551905
,,,,,,,,,315,57.7337,0.0162694
,,,,,,,,,341,140.584,0.0596926
,,,,,,,,,242,114.324,0.106932
,,,,,,,,,265,55.7743,0.102345
,,,,,,,,,289,89.125,0.021016
,,,,,,,,,314,33.008,0.0706561
,,,,,,,,,340,110.162,0.0173916
,,,,,,,,,367,95.4722,0.0782075
,,,,,,,,,288,63.1252,0.132189
,,,,,,,,,313,140.538,0.0220376
,,,,,,,,,339,110.666,0.0837019
,,,,,,,,,366,118.444,0.0180854
,,,,,,,,,394,33.2656,0.0945126
,,,,,,,,,338,115.705,0.021836
,,,,,,,,,365,49.103,0.0808651
,,,,,,,,,393,118.531,0.0179494
,,,,,,,,,422,39.8513,0.0909115
,,,,,,,,,392,71.648,0.019929
,,,,,,,,,421,23.5934,0.0106924
,,,,,,,,,451,118.597,0.0204869
,,,,,,,,,450,85.9925,0.0166405
,,,,,,,,,481,80.1029,0.0650114
,,,,,,,,,512,104.593,0.0170277
