Q	U	V
{$V$}	{[mm$^3$]}	0.00412756
{$d_v$}	{[mm]}	0.199021
{$S_c$}	{[mm$^2$]}	0.182579
{$S_o$}	{[mm$^2$]}	0.153959
{$S_l/S_o$}	[]	0.185894
{$\Psi$}	[]	0.681547
{$\eta$}	[]	0.785233
{med($\theta_e$)}	{[$^\circ$]}	64.4594
{$\Upsilon$}	[]	14
{$\Xi$}	[]	8
