facetNormals:0,facetNormals:1,facetNormals:2,FacetCenters:0,FacetCenters:1,FacetCenters:2,FacetIds,relFacetSize,absFacetSize,cellPairingIds,interplanarAngles,angleWeights
-0.0653535,0.118323,-0.929003,4.84795,5.11256,8.17459,1,0.0522067,0.010688,8,53.2686,0.0366275
0.540834,-0.443067,-0.686775,4.87789,5.07741,8.21016,2,0.0282094,0.00577514,13,44.7914,0.0173525
0.346379,0.662981,-0.651133,4.89743,5.1562,8.22304,3,0.0104056,0.00213027,19,70.5741,0.0381563
0.14133,-0.841524,-0.439755,4.92502,5.04775,8.26157,4,0.0300649,0.006155,26,54.7581,0.0305862
-0.838326,-0.0296156,-0.520423,4.76783,5.08914,8.19037,5,0.0216289,0.00442795,34,62.5889,0.0656888
0.812354,0.128169,-0.484997,4.92216,5.12789,8.24765,6,0.0885584,0.01813,43,59.2804,0.0492715
-0.503215,0.739959,-0.370278,4.83513,5.16143,8.23701,7,0.0466487,0.00955012,53,91.0009,0.0346004
-0.914528,-0.338083,0.0384993,4.78034,5.1264,8.29316,8,0.0258744,0.00529711,64,104.574,0.0830072
-0.0482341,0.817636,0.332283,4.86715,5.15297,8.32394,9,0.202442,0.0414448,76,90.0777,0.0456336
0.744756,0.632325,0.0294829,4.90666,5.15225,8.31675,10,0.0405305,0.00829758,89,111.432,0.058564
0.875928,-0.225573,0.256833,4.96712,5.05131,8.36787,11,0.0666841,0.0136518,103,94.3598,0.0495856
-0.929354,0.276613,0.176319,4.77316,5.11669,8.26501,12,0.047215,0.00966605,118,125.967,0.0452687
0.606474,0.471054,0.593268,4.92948,5.12998,8.36698,13,0.0399585,0.00818046,134,143.55,0.0691558
-0.446221,-0.277814,0.721819,4.86048,5.07954,8.35433,14,0.1024,0.0209638,18,69.4749,0.0152032
,,,,,,,,,25,37.0052,0.0291076
,,,,,,,,,33,94.9132,0.0244847
,,,,,,,,,42,40.1087,0.0427888
,,,,,,,,,52,111.361,0.035158
,,,,,,,,,63,112.844,0.0269915
,,,,,,,,,75,135.378,0.0495186
,,,,,,,,,88,83.8647,0.0332657
,,,,,,,,,102,64.4603,0.0396469
,,,,,,,,,117,140.592,0.0353177
,,,,,,,,,133,107.637,0.0330714
,,,,,,,,,150,134.555,0.0442333
,,,,,,,,,32,103.524,0.0154603
,,,,,,,,,41,88.3112,0.0140512
,,,,,,,,,51,43.9088,0.0186229
,,,,,,,,,62,54.5248,0.0170156
,,,,,,,,,74,125.794,0.0148422
,,,,,,,,,87,69.3584,0.0197937
,,,,,,,,,101,47.2493,0.0165597
,,,,,,,,,116,90.8222,0.018002
,,,,,,,,,132,105.022,0.0170529
,,,,,,,,,149,81.8714,0.0165114
,,,,,,,,,167,155.965,0.0188914
,,,,,,,,,50,81.7915,0.0251585
,,,,,,,,,61,76.0963,0.04489
,,,,,,,,,73,124.831,0.0365643
,,,,,,,,,86,81.508,0.0278127
,,,,,,,,,100,172.376,0.0523545
,,,,,,,,,115,117.953,0.0345219
,,,,,,,,,131,77.1542,0.0414443
,,,,,,,,,148,117.829,0.036737
,,,,,,,,,166,127.849,0.0343127
,,,,,,,,,185,99.8544,0.0464824
,,,,,,,,,72,117.309,0.0347666
,,,,,,,,,85,51.6902,0.0295546
,,,,,,,,,99,38.2323,0.0235619
,,,,,,,,,114,100.346,0.0390822
,,,,,,,,,130,133.03,0.0282059
,,,,,,,,,147,158.112,0.0326634
,,,,,,,,,165,45.7281,0.0296674
,,,,,,,,,184,150.182,0.0280661
,,,,,,,,,204,89.5674,0.0357143
,,,,,,,,,98,98.3558,0.0611083
,,,,,,,,,113,149.768,0.0400479
,,,,,,,,,129,96.5008,0.123216
,,,,,,,,,146,43.9597,0.05561
,,,,,,,,,164,51.5619,0.0760801
,,,,,,,,,183,148.819,0.0615921
,,,,,,,,,203,73.3598,0.0550692
,,,,,,,,,224,151.354,0.0949776
,,,,,,,,,128,78.0429,0.0332861
,,,,,,,,,145,53.7422,0.0758251
,,,,,,,,,163,85.0179,0.043375
,,,,,,,,,182,140.516,0.0548955
,,,,,,,,,202,50.503,0.0469302
,,,,,,,,,223,100.813,0.0430452
,,,,,,,,,245,106.687,0.0640976
,,,,,,,,,162,104.746,0.0458843
,,,,,,,,,181,159.567,0.0315851
,,,,,,,,,201,141.188,0.0372826
,,,,,,,,,222,37.4763,0.0334292
,,,,,,,,,244,136.871,0.0314099
,,,,,,,,,267,52.5511,0.0413105
,,,,,,,,,200,55.3757,0.0675392
,,,,,,,,,221,99.7919,0.100322
,,,,,,,,,243,67.7688,0.0765715
,,,,,,,,,266,49.8521,0.0667431
,,,,,,,,,290,87.5149,0.136006
,,,,,,,,,242,55.7463,0.0504174
,,,,,,,,,265,122.11,0.0436182
,,,,,,,,,289,36.033,0.0402425
,,,,,,,,,314,123.894,0.0580748
,,,,,,,,,288,153.757,0.0552856
,,,,,,,,,313,50.7465,0.0499724
,,,,,,,,,339,99.7929,0.08077
,,,,,,,,,338,110.104,0.0432847
,,,,,,,,,365,58.0935,0.0646302
,,,,,,,,,392,88.2312,0.0574852
