facetNormals:0,facetNormals:1,facetNormals:2,FacetCenters:0,FacetCenters:1,FacetCenters:2,FacetIds,relFacetSize,absFacetSize,cellPairingIds,interplanarAngles,angleWeights
-0.688592,-0.0446232,-0.668182,4.15639,3.82808,8.85995,1,0.029613,0.0087379,8,42.8975,0.0245594
-0.387991,-0.675048,-0.573339,4.14333,3.79462,8.86927,2,0.0209792,0.00619035,13,46.5474,0.0288605
-0.816922,-0.506853,-0.0778778,4.18556,3.81691,8.85972,3,0.0281452,0.00830482,19,92.4239,0.0409992
0.212323,0.90474,-0.221152,4.23039,3.89532,8.90348,4,0.0666112,0.019655,26,134.471,0.0422158
0.892269,0.365203,0.0274,4.30253,3.84611,8.88975,5,0.0734935,0.0216857,34,54.0465,0.0441101
-0.670939,0.629379,-0.1354,4.14689,3.89166,8.87045,6,0.0864146,0.0254984,43,109.078,0.0403123
0.328052,-0.872592,0.165023,4.20519,3.78814,8.911,7,0.0631166,0.0186238,53,122.696,0.035703
0.523677,0.792361,0.154643,4.2186,3.92175,8.94289,8,0.0449463,0.0132623,64,145.852,0.0383306
0.802536,-0.397396,0.338449,4.28456,3.79305,8.91941,9,0.0543222,0.0160289,76,104.216,0.0205144
-0.120908,0.883906,0.412564,4.17562,3.9624,8.92063,10,0.0156928,0.00463047,89,81.3983,0.0346551
-0.716463,0.459492,0.495871,4.09535,3.9342,8.92374,11,0.0417665,0.0123241,103,98.2294,0.0463017
-0.446834,-0.484318,0.688998,4.16603,3.80644,8.95038,12,0.106089,0.0313038,118,93.0631,0.0375658
-0.638536,0.116678,0.724999,4.10342,3.88208,8.96054,13,0.0513585,0.0151543,134,149.085,0.0293896
0.284084,0.283861,0.869551,4.23948,3.84134,8.97386,14,0.0291695,0.00860705,18,41.0101,0.0240396
,,,,,,,,,25,127.816,0.0319088
,,,,,,,,,33,130.723,0.0326409
,,,,,,,,,42,95.5473,0.033762
,,,,,,,,,52,66.3545,0.0314912
,,,,,,,,,63,152.688,0.0286062
,,,,,,,,,75,104.845,0.0302687
,,,,,,,,,88,145.826,0.017955
,,,,,,,,,102,109.408,0.0279295
,,,,,,,,,117,83.4425,0.0350311
,,,,,,,,,133,105.199,0.0297898
,,,,,,,,,150,149.795,0.0244056
,,,,,,,,,32,131.855,0.0395707
,,,,,,,,,41,169.996,0.0407028
,,,,,,,,,51,74.502,0.042461
,,,,,,,,,62,79.8173,0.0389305
,,,,,,,,,74,155.038,0.0346148
,,,,,,,,,87,121.359,0.0370792
,,,,,,,,,101,113.72,0.0201504
,,,,,,,,,116,70.7158,0.0336289
,,,,,,,,,132,52.7315,0.044488
,,,,,,,,,149,64.3679,0.036363
,,,,,,,,,167,118.701,0.0286482
,,,,,,,,,50,56.1062,0.0698833
,,,,,,,,,61,59.043,0.0752315
,,,,,,,,,73,146.75,0.0648168
,,,,,,,,,86,30.2751,0.053675
,,,,,,,,,100,106.778,0.0598423
,,,,,,,,,115,43.3486,0.0254013
,,,,,,,,,131,80.5847,0.0513411
,,,,,,,,,148,138.816,0.0818381
,,,,,,,,,166,101.816,0.0579988
,,,,,,,,,185,82.1583,0.0405722
,,,,,,,,,72,114.542,0.079432
,,,,,,,,,85,91.3455,0.0679109
,,,,,,,,,99,34.936,0.0557796
,,,,,,,,,114,51.0701,0.0624701
,,,,,,,,,130,76.1943,0.0258631
,,,,,,,,,147,118.812,0.0532634
,,,,,,,,,165,127.258,0.0868332
,,,,,,,,,184,122.715,0.0604638
,,,,,,,,,204,65.6449,0.0417632
,,,,,,,,,98,154.064,0.0729506
,,,,,,,,,113,81.8788,0.0591351
,,,,,,,,,129,159.605,0.0667094
,,,,,,,,,146,50.4817,0.0265619
,,,,,,,,,164,39.893,0.0563147
,,,,,,,,,183,96.3671,0.0952466
,,,,,,,,,203,63.5038,0.0644265
,,,,,,,,,224,98.3727,0.0436163
,,,,,,,,,128,122.845,0.0525038
,,,,,,,,,145,42.7183,0.0583901
,,,,,,,,,163,142.97,0.025136
,,,,,,,,,182,126.457,0.0502686
,,,,,,,,,202,64.4187,0.0791462
,,,,,,,,,223,102.006,0.0566337
,,,,,,,,,245,90.6954,0.0398994
,,,,,,,,,162,80.1418,0.0491915
,,,,,,,,,181,42.1844,0.0232633
,,,,,,,,,201,86.0334,0.0432981
,,,,,,,,,222,123.863,0.0631417
,,,,,,,,,244,97.9688,0.0479389
,,,,,,,,,267,56.5412,0.0353788
,,,,,,,,,200,109.148,0.024351
,,,,,,,,,221,128.71,0.0472241
,,,,,,,,,243,85.7867,0.0718528
,,,,,,,,,266,109.66,0.0527988
,,,,,,,,,290,63.4768,0.0379571
,,,,,,,,,242,43.926,0.0228138
,,,,,,,,,265,95.4996,0.0273412
,,,,,,,,,289,59.9171,0.02404
,,,,,,,,,314,52.3319,0.0204069
,,,,,,,,,288,62.1137,0.0599366
,,,,,,,,,313,24.739,0.0460685
,,,,,,,,,339,67.6957,0.0343495
,,,,,,,,,338,38.2752,0.0692114
,,,,,,,,,365,68.4981,0.0457578
,,,,,,,,,392,58.8495,0.037207
