facetNormals:0,facetNormals:1,facetNormals:2,FacetCenters:0,FacetCenters:1,FacetCenters:2,FacetIds,relFacetSize,absFacetSize,cellPairingIds,interplanarAngles,angleWeights
-0.0530552,0.176734,-0.970726,6.83826,5.73572,6.49648,1,0.0267372,0.00235757,8,25.5407,0.04122
-0.391062,-0.0685261,-0.866423,6.82161,5.75571,6.50443,2,0.0899354,0.00793012,13,43.6744,0.0393724
0.562841,-0.152314,-0.769001,6.90771,5.71471,6.52918,3,0.0746494,0.00658226,19,37.6647,0.0290677
0.380435,0.571241,-0.715937,6.86095,5.80393,6.51004,4,0.0318432,0.0028078,26,56.6596,0.0368684
0.783694,0.156841,-0.560365,6.90856,5.76745,6.542,5,0.0593613,0.00523423,34,63.042,0.0216344
-0.82631,0.396206,-0.332561,6.80204,5.81592,6.53478,6,0.0181672,0.0016019,43,77.9654,0.0301145
-0.106661,-0.901655,-0.366102,6.86596,5.67408,6.54461,7,0.0344685,0.00303928,53,94.4801,0.0316838
0.0846283,-0.978728,-0.104266,6.86284,5.67066,6.54531,8,0.0388762,0.00342794,64,90.3066,0.0266909
0.855277,-0.464994,-0.126056,6.88937,5.75211,6.56213,9,0.0266448,0.00234943,76,72.8156,0.0449312
0.495645,0.817287,-0.170274,6.88343,5.81712,6.56862,10,0.140619,0.0123992,89,108.938,0.0430384
0.720341,0.466309,0.351926,6.90104,5.79408,6.62466,11,0.110265,0.00972268,103,108.172,0.00658495
-0.784293,-0.532331,0.257782,6.88312,5.74044,6.56608,12,0.00375485,0.000331087,118,125.128,0.0427313
0.611185,-0.608392,0.416847,6.9134,5.71333,6.61679,13,0.106349,0.00937738,134,145.957,0.0189867
-0.456646,-0.35432,0.777791,6.8749,5.71225,6.62679,14,0.0147197,0.00129792,151,134.136,0.0255761
-0.449938,0.345156,0.759039,6.87995,5.78439,6.62773,15,0.0245116,0.00216132,18,60.2348,0.0815826
,,,,,,,,,25,62.7775,0.0470334
,,,,,,,,,33,79.5776,0.0715178
,,,,,,,,,42,51.0457,0.0302282
,,,,,,,,,52,63.1985,0.0498367
,,,,,,,,,63,82.4129,0.0542863
,,,,,,,,,75,101.929,0.0411101
,,,,,,,,,88,96.3478,0.109706
,,,,,,,,,102,134.411,0.099068
,,,,,,,,,117,82.6457,0.00720874
,,,,,,,,,133,127.719,0.0974559
,,,,,,,,,150,120.666,0.0252988
,,,,,,,,,168,124.03,0.0385236
,,,,,,,,,32,44.9253,0.0446431
,,,,,,,,,41,25.7972,0.0661333
,,,,,,,,,51,106.658,0.0292226
,,,,,,,,,62,67.6781,0.0471609
,,,,,,,,,74,73.1166,0.0511266
,,,,,,,,,87,46.7463,0.0392721
,,,,,,,,,101,72.2643,0.0975259
,,,,,,,,,116,85.9138,0.0890273
,,,,,,,,,132,126.102,0.00715006
,,,,,,,,,149,82.784,0.0877233
,,,,,,,,,167,148.948,0.0245906
,,,,,,,,,186,166.608,0.0369051
,,,,,,,,,50,35.4185,0.0414509
,,,,,,,,,61,81.071,0.0231353
,,,,,,,,,73,107.597,0.0331039
,,,,,,,,,86,117.489,0.03501
,,,,,,,,,100,81.1368,0.029013
,,,,,,,,,115,36.1682,0.0519275
,,,,,,,,,131,71.7236,0.0494158
,,,,,,,,,148,143.885,0.00671759
,,,,,,,,,166,115.801,0.0490114
,,,,,,,,,185,166.114,0.0201329
,,,,,,,,,205,123.411,0.0277005
,,,,,,,,,72,114.796,0.0278202
,,,,,,,,,85,91.1906,0.0436129
,,,,,,,,,99,91.7088,0.046983
,,,,,,,,,114,45.8023,0.0367804
,,,,,,,,,130,49.7729,0.0834815
,,,,,,,,,147,60.8873,0.0771752
,,,,,,,,,165,151.493,0.00706295
,,,,,,,,,184,80.7693,0.0761934
,,,,,,,,,204,153.881,0.0235899
,,,,,,,,,225,141.503,0.0346963
,,,,,,,,,98,98.882,0.0237936
,,,,,,,,,113,116.056,0.0247626
,,,,,,,,,129,152.526,0.0216041
,,,,,,,,,146,91.7629,0.0321773
,,,,,,,,,164,125.692,0.0311947
,,,,,,,,,183,68.4706,0.00622343
,,,,,,,,,203,161.345,0.0310331
,,,,,,,,,224,91.3172,0.0162628
,,,,,,,,,246,73.902,0.0208678
,,,,,,,,,128,19.5057,0.0365399
,,,,,,,,,145,67.0843,0.0300559
,,,,,,,,,163,139.938,0.0553657
,,,,,,,,,182,133.598,0.0525195
,,,,,,,,,202,60.793,0.006772
,,,,,,,,,223,69.3451,0.0520629
,,,,,,,,,245,84.9546,0.0206296
,,,,,,,,,268,125.688,0.0286496
,,,,,,,,,162,56.1178,0.0316189
,,,,,,,,,181,140.51,0.0609124
,,,,,,,,,201,118.14,0.0574849
,,,,,,,,,222,63.8456,0.00684827
,,,,,,,,,244,50.3566,0.0569384
,,,,,,,,,267,76.2806,0.0213541
,,,,,,,,,291,119.087,0.0300663
,,,,,,,,,200,86.0685,0.0448007
,,,,,,,,,221,67.0571,0.0429186
,,,,,,,,,243,118.206,0.00658214
,,,,,,,,,266,36.7796,0.0426133
,,,,,,,,,290,109.904,0.0189633
,,,,,,,,,315,133.566,0.0255337
,,,,,,,,,242,41.1324,0.123606
,,,,,,,,,265,155.478,0.0073144
,,,,,,,,,289,106.574,0.121106
,,,,,,,,,314,133.562,0.0266498
,,,,,,,,,340,94.3743,0.0417463
,,,,,,,,,288,142.466,0.0072624
,,,,,,,,,313,70.0394,0.108271
,,,,,,,,,339,104.198,0.0259723
,,,,,,,,,366,83.2053,0.0401074
,,,,,,,,,338,92.9259,0.00725361
,,,,,,,,,365,38.2772,0.0059834
,,,,,,,,,393,66.9231,0.00651213
,,,,,,,,,392,73.6883,0.0258602
,,,,,,,,,421,100.705,0.0398406
,,,,,,,,,450,42.8116,0.0183937
