"cellPairingIds","interplanarAngles","angleWeights"
8,44.4676,0.0540817
13,30.4578,0.0446144
19,39.6975,0.0430971
26,35.1219,0.0414351
34,45.1891,0.0242888
18,59.6893,0.0713536
25,32.5074,0.0675501
75,59.6291,0.0600533
88,55.2943,0.069816
133,67.0829,0.0963661
41,32.1935,0.0508692
62,34.8149,0.0612852
87,89.1821,0.0486012
61,44.0301,0.0266777
86,41.2975,0.0407782
115,46.3584,0.0525314
72,46.9376,0.0260314
85,37.7713,0.0554417
165,43.9191,0.0363715
113,34.4934,0.0235346
183,74.6464,0.0224562
269,71.539,0.00485569
145,101.803,0.0527584
182,30.0685,0.0383181
202,35.7035,0.0414028
268,106.299,0.0539057
181,45.3058,0.0415931
316,64.2376,0.00518182
266,51.6159,0.0590388
315,44.0707,0.0438416
289,32.0689,0.0684486
367,91.3634,0.00533345
395,70.7027,0.00846139
288,36.0318,0.0281259
339,31.6336,0.0368053
366,83.4267,0.0333863
365,56.4946,0.0396423
422,71.6088,0.0051276
421,62.0516,0.0604793
482,51.6968,0.00875369
450,58.8762,0.0509592
481,84.5507,0.00535795
546,44.1183,0.0411441
545,51.1944,0.00832578
579,41.492,0.0369177
578,62.4851,0.00348282
613,66.8997,0.00515193
648,36.8864,0.00801345
