facetNormals:0,facetNormals:1,facetNormals:2,FacetCenters:0,FacetCenters:1,FacetCenters:2,FacetIds,relFacetSize,absFacetSize,cellPairingIds,interplanarAngles,angleWeights
0.27077,0.136959,-0.940917,5.85435,3.55111,7.52772,1,0.0151275,0.00230463,8,41.1911,0.0225582
0.150309,-0.527193,-0.800835,5.86136,3.47905,7.55499,2,0.0443364,0.0067545,13,42.5079,0.0190179
-0.375145,-0.14584,-0.875676,5.80145,3.53966,7.53969,3,0.0256022,0.00390041,19,30.168,0.0254733
0.696413,0.0313058,-0.679111,5.92697,3.53714,7.58298,4,0.0805877,0.0122773,26,73.7862,0.0193685
-0.779299,-0.237901,-0.546774,5.77296,3.51794,7.55454,5,0.0269137,0.00410021,34,68.8752,0.0196135
0.756863,-0.535466,-0.221063,5.90566,3.47737,7.58675,6,0.0278816,0.00424766,43,55.2215,0.0230861
0.0436429,0.869871,-0.447763,5.86988,3.61408,7.59176,7,0.0487153,0.00742161,53,76.3064,0.0245114
-0.774294,0.400289,-0.403464,5.7677,3.58378,7.57511,8,0.064558,0.00983519,64,51.5417,0.0250943
0.65219,0.629611,-0.357455,5.89247,3.6084,7.60016,9,0.0735577,0.0112063,76,84.8954,0.0220586
0.103268,-0.941513,-0.197785,5.87695,3.46484,7.6165,10,0.0407114,0.00620225,89,95.8182,0.0217556
-0.667881,-0.667602,-0.186839,5.77977,3.47903,7.60064,11,0.0387211,0.00589903,103,94.6587,0.0245791
0.886087,0.0275847,0.340037,5.93777,3.58255,7.6971,12,0.0655081,0.00997995,118,123.066,0.0179009
-0.827378,-0.483882,0.260946,5.77363,3.55325,7.67504,13,0.0219196,0.00333938,134,148.14,0.0235788
-0.695958,-0.258693,0.632486,5.79699,3.52902,7.66525,14,0.0534265,0.00813935,151,144.224,0.0274257
-0.00184747,-0.630646,0.730062,5.85136,3.51248,7.67948,15,0.146634,0.0223392,169,156.544,0.0106337
-0.590219,0.0622368,0.797127,5.86065,3.51112,7.68436,16,0.0081983,0.00124898,188,129.532,0.0205351
0.0910149,0.580912,0.746016,5.91565,3.58613,7.70224,17,0.0319596,0.00486893,18,39.4944,0.0324602
,,,,,,,,,25,47.9976,0.0572022
,,,,,,,,,33,62.0627,0.0334948
,,,,,,,,,42,51.7159,0.0342344
,,,,,,,,,52,95.6424,0.0464228
,,,,,,,,,63,90.2646,0.0525696
,,,,,,,,,75,86.8257,0.0553256
,,,,,,,,,88,44.4563,0.0424467
,,,,,,,,,102,64.5682,0.0413389
,,,,,,,,,117,99.5997,0.0528819
,,,,,,,,,133,94.655,0.0293358
,,,,,,,,,150,120.102,0.0484588
,,,,,,,,,168,105.643,0.0680862
,,,,,,,,,187,141.988,0.0138378
,,,,,,,,,207,164.895,0.0371441
,,,,,,,,,32,69.4749,0.0388591
,,,,,,,,,41,31.5564,0.0262415
,,,,,,,,,51,90.7649,0.0266933
,,,,,,,,,62,74.7118,0.0335646
,,,,,,,,,74,50.7724,0.0366642
,,,,,,,,,87,91.4323,0.0379839
,,,,,,,,,101,73.0562,0.0314355
,,,,,,,,,116,56.539,0.0308238
,,,,,,,,,132,133.872,0.0368158
,,,,,,,,,149,80.8371,0.0236182
,,,,,,,,,167,105.743,0.0346162
,,,,,,,,,186,126.01,0.043593
,,,,,,,,,206,120.471,0.0124196
,,,,,,,,,227,147.506,0.0284298
,,,,,,,,,50,100.794,0.0403513
,,,,,,,,,61,44.6018,0.0414294
,,,,,,,,,73,67.697,0.0607233
,,,,,,,,,86,105.684,0.0716877
,,,,,,,,,100,40.9145,0.0769124
,,,,,,,,,115,79.181,0.054095
,,,,,,,,,131,112.541,0.0523087
,,,,,,,,,148,65.2395,0.0722697
,,,,,,,,,166,142.653,0.0344649
,,,,,,,,,185,166.318,0.0642547
,,,,,,,,,205,123.398,0.104012
,,,,,,,,,226,169.316,0.0148826
,,,,,,,,,248,117.374,0.0457683
,,,,,,,,,72,111.42,0.0273891
,,,,,,,,,85,89.7692,0.0346721
,,,,,,,,,99,39.3533,0.0379897
,,,,,,,,,114,118.933,0.0394084
,,,,,,,,,130,74.6301,0.0324049
,,,,,,,,,147,34.1777,0.0317553
,,,,,,,,,165,161.396,0.0381526
,,,,,,,,,184,50.7136,0.0241613
,,,,,,,,,204,74.3565,0.0357954
,,,,,,,,,225,105.169,0.0454798
,,,,,,,,,247,89.4534,0.0125682
,,,,,,,,,270,131.452,0.0292204
,,,,,,,,,98,110.952,0.0354651
,,,,,,,,,113,140.974,0.0389439
,,,,,,,,,129,75.3112,0.0404361
,,,,,,,,,146,47.2481,0.0330966
,,,,,,,,,164,96.6791,0.0324193
,,,,,,,,,183,50.0828,0.039115
,,,,,,,,,203,116.658,0.0245437
,,,,,,,,,224,124.612,0.0366412
,,,,,,,,,246,79.0348,0.0468541
,,,,,,,,,269,133.854,0.0126709
,,,,,,,,,293,116.721,0.0297816
,,,,,,,,,128,58.2436,0.0555287
,,,,,,,,,145,39.5147,0.0586129
,,,,,,,,,163,140.004,0.0443552
,,,,,,,,,182,123.93,0.043147
,,,,,,,,,202,95.5289,0.0558773
,,,,,,,,,223,126.149,0.0302349
,,,,,,,,,245,124.324,0.0509622
,,,,,,,,,268,157.93,0.0731338
,,,,,,,,,292,109.729,0.0140347
,,,,,,,,,317,79.1409,0.0385974
,,,,,,,,,162,96.6718,0.0687646
,,,,,,,,,181,113.935,0.0499337
,,,,,,,,,201,69.4019,0.0484078
,,,,,,,,,222,152.953,0.0650296
,,,,,,,,,244,69.0174,0.0327272
,,,,,,,,,267,78.9137,0.0584671
,,,,,,,,,291,126.07,0.0896472
,,,,,,,,,316,80.332,0.014549
,,,,,,,,,342,98.7589,0.0427538
,,,,,,,,,200,118.835,0.0524138
,,,,,,,,,221,147.273,0.050735
,,,,,,,,,243,59.2027,0.0693
,,,,,,,,,266,165.593,0.0337746
,,,,,,,,,290,152.476,0.0618964
,,,,,,,,,315,134.528,0.0979697
,,,,,,,,,341,130.637,0.0147524
,,,,,,,,,368,80.1439,0.044559
,,,,,,,,,242,50.1745,0.0396913
,,,,,,,,,265,90.1073,0.0502154
,,,,,,,,,289,70.6466,0.0284964
,,,,,,,,,314,87.17,0.0462103
,,,,,,,,,340,61.2367,0.0637291
,,,,,,,,,367,106.755,0.0136482
,,,,,,,,,395,138.193,0.0358085
,,,,,,,,,288,137.488,0.0486725
,,,,,,,,,313,30.1513,0.0279928
,,,,,,,,,339,56.4174,0.0449004
,,,,,,,,,366,72.0732,0.0612643
,,,,,,,,,394,77.7054,0.0135316
,,,,,,,,,423,130.019,0.0350169
,,,,,,,,,338,134.215,0.032848
,,,,,,,,,365,116.191,0.0588537
,,,,,,,,,393,75.5087,0.0905592
,,,,,,,,,422,105.377,0.0145728
,,,,,,,,,452,67.1421,0.0429601
,,,,,,,,,392,26.6391,0.0310855
,,,,,,,,,421,58.7477,0.0381381
,,,,,,,,,451,47.5572,0.0119333
,,,,,,,,,482,99.8689,0.0260041
,,,,,,,,,450,48.2812,0.0783177
,,,,,,,,,481,21.9826,0.0142153
,,,,,,,,,513,73.8163,0.0399945
,,,,,,,,,512,55.4457,0.0155284
,,,,,,,,,545,78.7919,0.0524807
,,,,,,,,,578,52.3135,0.0130492
