Q	U	V
{$V$}	{[mm$^3$]}	0.00397557
{$d_v$}	{[mm]}	0.196547
{$S_c$}	{[mm$^2$]}	0.197904
{$S_o$}	{[mm$^2$]}	0.11981
{$S_l/S_o$}	[]	0.651815
{$\Psi$}	[]	0.613238
{$\eta$}	[]	0.681618
{med($\theta_e$)}	{[$^\circ$]}	56.98385
{$\Upsilon$}	[]	18
{$\Xi$}	[]	9
