Q	U	V
{$V$}	{[mm$^3$]}	0.00512858
{$d_v$}	{[mm]}	0.213960
{$S_c$}	{[mm$^2$]}	0.243273
{$S_o$}	{[mm$^2$]}	0.137201
{$S_l/S_o$}	[]	0.773114
{$\Psi$}	[]	0.591183
{$\eta$}	[]	0.622794
{med($\theta_e$)}	{[$^\circ$]}	
{$\Upsilon$}	[]	15
{$\Xi$}	[]	10
