"cellPairingIds","interplanarAngles","angleWeights"
51,59.9736,0.0883144
74,136.051,0.0409217
87,108.449,0.0699405
116,61.8276,0.0853222
113,154.447,0.0446312
164,67.6784,0.103208
183,125.578,0.0123799
203,68.3857,0.034153
162,40.3395,0.0394003
201,134.69,0.043854
222,34.0625,0.0106508
244,118.94,0.0235884
221,99.1832,0.0789647
313,39.2368,0.033696
338,96.3452,0.00992418
