"cellPairingIds","interplanarAngles","angleWeights"
18,63.1755,0.0111773
25,60.3092,0.0355296
42,52.146,0.0506329
52,35.7054,0.0572826
117,82.4045,0.0702618
32,86.988,0.00927403
41,79.0471,0.00692107
62,62.0828,0.0102944
74,31.0828,0.00867731
149,114.603,0.0111183
167,96.8356,0.0101632
50,35.9453,0.0120244
61,36.3143,0.0262394
100,37.167,0.0315958
166,79.9825,0.0349411
184,54.3865,0.0153191
129,40.2325,0.0430029
183,50.0429,0.0413265
128,56.1548,0.0231305
163,49.7813,0.0561388
202,84.6232,0.045652
343,105.55,0.0415999
181,30.7643,0.0278425
201,39.9733,0.0244834
267,97.1501,0.0224781
291,57.9569,0.0242599
243,62.2333,0.0563803
266,57.637,0.0726574
341,47.6139,0.0536611
340,42.0977,0.0632904
424,73.1545,0.0598021
339,62.5591,0.0416746
366,30.1084,0.0482444
423,61.6704,0.0369339
422,42.6697,0.0510757
483,71.1348,0.0480453
392,27.1969,0.0521209
451,55.6282,0.0640808
482,47.0783,0.0449112
513,36.9216,0.0325529
545,49.3189,0.0364277
579,41.4556,0.0454015
578,61.1255,0.0368482
613,60.443,0.0460566
648,36.3417,0.0352444
