facetNormals:0,facetNormals:1,facetNormals:2,FacetCenters:0,FacetCenters:1,FacetCenters:2,FacetIds,relFacetSize,absFacetSize,cellPairingIds,interplanarAngles,angleWeights
-0.00930567,0.592085,-0.776107,7.4791,5.43457,6.96571,1,0.0230947,0.0111152,8,84.5777,0.0345921
0.424559,-0.608028,-0.580919,7.57007,5.35901,6.97602,2,0.0688855,0.0331538,13,73.6403,0.0245125
0.845812,-0.162719,-0.484382,7.59604,5.45145,6.99903,3,0.0261158,0.0125692,19,54.6165,0.0356723
0.775729,0.410447,-0.398064,7.5812,5.44753,7.03105,4,0.0783326,0.0377006,26,112.129,0.0360579
-0.645141,-0.676657,-0.0644407,7.53321,5.34324,7.06043,5,0.082193,0.0395585,34,84.3234,0.0292601
-0.960869,-0.0119805,-0.118076,7.40639,5.456,6.99595,6,0.039916,0.0192111,43,119.803,0.0269667
0.112232,-0.956939,-0.124072,7.59006,5.31526,7.0374,7,0.0323984,0.015593,53,49.2429,0.0152007
-0.380182,0.902418,-0.116824,7.53835,5.47409,6.99672,8,0.0113285,0.00545225,64,75.2955,0.0285602
0.84411,0.5042,0.0600175,7.60226,5.49643,7.07466,9,0.0374144,0.0180071,76,66.1943,0.0234079
-0.764449,0.587407,-0.0324481,7.4307,5.46634,7.00407,10,0.0237297,0.0114208,89,113.838,0.0321414
0.846422,-0.370928,0.186091,7.62977,5.36499,7.1003,11,0.0528397,0.0254311,103,108.328,0.0173982
-0.935426,-0.157558,0.282502,7.46008,5.41812,7.10759,12,0.0139558,0.00671678,118,146.3,0.0252408
-0.0763453,-0.914911,0.320569,7.48542,5.39777,7.07508,13,0.0278266,0.0133926,134,83.9605,0.0220874
-0.0308102,0.826258,0.502657,7.5913,5.4237,7.16506,14,0.0211642,0.0101861,151,97.6513,0.0358686
0.51453,0.546675,0.568602,7.59051,5.4746,7.13158,15,0.0802618,0.0386291,169,153.126,0.0185592
-0.336905,-0.765545,0.532491,7.45082,5.38262,7.07843,16,0.0155128,0.00746611,188,132.682,0.0277838
-0.67738,-0.232486,0.66294,7.50453,5.40935,7.1587,17,0.0348622,0.0167788,208,115.009,0.0295829
-0.478562,0.332245,0.774609,7.50611,5.45863,7.16155,18,0.0411411,0.0198007,229,158.341,0.0327011
-0.092816,-0.269343,0.906853,7.48224,5.50737,7.12995,19,0.0559909,0.0269477,18,37.4094,0.0378732
,,,,,,,,,25,69.9642,0.0733059
,,,,,,,,,33,78.5691,0.0749532
,,,,,,,,,42,111.352,0.050544
,,,,,,,,,52,39.9478,0.0440698
,,,,,,,,,63,133.735,0.0194571
,,,,,,,,,75,88.9539,0.0484913
,,,,,,,,,88,136.842,0.0352994
,,,,,,,,,102,57.5269,0.059805
,,,,,,,,,117,119.947,0.0232095
,,,,,,,,,133,68.3714,0.0396403
,,,,,,,,,150,152.354,0.0323801
,,,,,,,,,168,120.051,0.0741398
,,,,,,,,,187,89.1963,0.0253229
,,,,,,,,,207,125.308,0.046295
,,,,,,,,,228,159.491,0.0515153
,,,,,,,,,250,116.708,0.0617724
,,,,,,,,,32,34.7814,0.0391719
,,,,,,,,,41,115.889,0.0396373
,,,,,,,,,51,141.967,0.0315738
,,,,,,,,,62,71.1135,0.0289198
,,,,,,,,,74,114.998,0.0158023
,,,,,,,,,87,51.7345,0.0307604
,,,,,,,,,101,139.65,0.0248656
,,,,,,,,,116,42.5611,0.0349552
,,,,,,,,,132,157.313,0.0181908
,,,,,,,,,149,94.2358,0.0269441
,,,,,,,,,167,114.992,0.0233807
,,,,,,,,,186,85.6356,0.0394087
,,,,,,,,,206,115.274,0.019464
,,,,,,,,,227,152.606,0.0298617
,,,,,,,,,249,150.552,0.0319501
,,,,,,,,,272,120.302,0.0356182
,,,,,,,,,50,146.437,0.0802164
,,,,,,,,,61,138.92,0.0528839
,,,,,,,,,73,105.89,0.0458381
,,,,,,,,,86,82.6257,0.0197943
,,,,,,,,,100,28.0396,0.0506409
,,,,,,,,,115,111.387,0.0364249
,,,,,,,,,131,61.7294,0.0631089
,,,,,,,,,148,161.167,0.0236909
,,,,,,,,,166,126.876,0.0410653
,,,,,,,,,185,82.9069,0.0333247
,,,,,,,,,205,64.0468,0.0792855
,,,,,,,,,226,145.507,0.025897
,,,,,,,,,248,160.186,0.0482504
,,,,,,,,,271,125.561,0.0539481
,,,,,,,,,295,126.396,0.0653037
,,,,,,,,,72,45.5291,0.0537358
,,,,,,,,,85,50.1702,0.0464768
,,,,,,,,,99,112.779,0.0199124
,,,,,,,,,114,164.511,0.0514216
,,,,,,,,,130,83.7894,0.0368271
,,,,,,,,,147,110.34,0.064326
,,,,,,,,,165,41.761,0.0238603
,,,,,,,,,184,44.7077,0.0415772
,,,,,,,,,204,129.076,0.033661
,,,,,,,,,225,146.801,0.0812159
,,,,,,,,,247,41.0206,0.0260996
,,,,,,,,,270,52.9052,0.0489586
,,,,,,,,,294,87.8543,0.0548349
,,,,,,,,,319,78.0994,0.0666077
,,,,,,,,,98,94.9849,0.0357664
,,,,,,,,,113,67.3111,0.0176482
,,,,,,,,,129,149.793,0.0386247
,,,,,,,,,146,38.4564,0.0297646
,,,,,,,,,164,155.55,0.0454775
,,,,,,,,,183,25.1602,0.020681
,,,,,,,,,203,87.171,0.0327925
,,,,,,,,,224,92.4254,0.0276617
,,,,,,,,,246,128.539,0.0533165
,,,,,,,,,269,73.6633,0.0223424
,,,,,,,,,293,52.4847,0.0372183
,,,,,,,,,318,67.1503,0.0405193
,,,,,,,,,344,90.9132,0.0466063
,,,,,,,,,128,158.56,0.0167871
,,,,,,,,,145,114.392,0.0347262
,,,,,,,,,163,133.402,0.0273946
,,,,,,,,,182,62.2171,0.040168
,,,,,,,,,202,89.3601,0.0195083
,,,,,,,,,223,28.8835,0.029939
,,,,,,,,,245,155.666,0.0256032
,,,,,,,,,268,125.86,0.0461628
,,,,,,,,,292,49.2537,0.02098
,,,,,,,,,317,86.1171,0.0335852
,,,,,,,,,343,119.787,0.0362501
,,,,,,,,,370,81.6051,0.041046
,,,,,,,,,162,82.4837,0.0173912
,,,,,,,,,181,29.9187,0.0153357
,,,,,,,,,201,136.852,0.018657
,,,,,,,,,222,79.3467,0.0125056
,,,,,,,,,244,150.425,0.0161017
,,,,,,,,,267,42.9365,0.0147577
,,,,,,,,,291,75.5796,0.0198546
,,,,,,,,,316,129.728,0.0130945
,,,,,,,,,342,91.7696,0.0171002
,,,,,,,,,369,65.8362,0.0177652
,,,,,,,,,397,109.552,0.0188442
,,,,,,,,,200,111.682,0.0290406
,,,,,,,,,221,54.5469,0.0438089
,,,,,,,,,243,150.921,0.0203289
,,,,,,,,,266,121.921,0.031916
,,,,,,,,,290,63.8049,0.0270354
,,,,,,,,,315,36.6706,0.0510375
,,,,,,,,,341,130.817,0.0219321
,,,,,,,,,368,132.48,0.0360932
,,,,,,,,,396,101.476,0.0391894
,,,,,,,,,425,99.8216,0.0448554
,,,,,,,,,242,163.3,0.0327512
,,,,,,,,,265,50.0262,0.0175753
,,,,,,,,,289,121.453,0.0256153
,,,,,,,,,314,58.1469,0.0223736
,,,,,,,,,340,95.7276,0.0366297
,,,,,,,,,367,102.648,0.0187609
,,,,,,,,,395,67.5329,0.0282383
,,,,,,,,,424,55.0297,0.0300987
,,,,,,,,,454,97.3113,0.0333326
,,,,,,,,,288,136.853,0.02208
,,,,,,,,,313,68.6057,0.0364551
,,,,,,,,,339,105.191,0.030223
,,,,,,,,,366,67.5833,0.0637259
,,,,,,,,,394,83.9884,0.0239842
,,,,,,,,,423,113.29,0.0420084
,,,,,,,,,453,114.863,0.0462623
,,,,,,,,,484,77.7515,0.0543697
,,,,,,,,,338,71.4547,0.0185888
,,,,,,,,,365,87.5681,0.0168203
,,,,,,,,,393,115.876,0.0237773
,,,,,,,,,422,53.3218,0.0146932
,,,,,,,,,452,27.4012,0.0199324
,,,,,,,,,483,50.195,0.0208418
,,,,,,,,,515,65.8147,0.0223427
,,,,,,,,,392,129.023,0.0240424
,,,,,,,,,421,112.954,0.0413257
,,,,,,,,,451,21.5458,0.0199203
,,,,,,,,,482,59.8304,0.0309496
,,,,,,,,,514,91.1625,0.0331986
,,,,,,,,,547,53.9314,0.0371769
,,,,,,,,,450,37.635,0.0334959
,,,,,,,,,481,111.684,0.0179031
,,,,,,,,,513,80.1214,0.0263387
,,,,,,,,,546,43.6489,0.0279501
,,,,,,,,,580,75.1231,0.0307174
,,,,,,,,,512,108.034,0.0260003
,,,,,,,,,545,96.1636,0.0486102
,,,,,,,,,579,65.6852,0.0543983
,,,,,,,,,614,69.0114,0.0659646
,,,,,,,,,578,38.3161,0.0214713
,,,,,,,,,613,70.5911,0.0225302
,,,,,,,,,649,40.1541,0.0242945
,,,,,,,,,648,36.4907,0.0377423
,,,,,,,,,685,38.4305,0.0429697
,,,,,,,,,722,44.4768,0.0474308
