"cellPairingIds","interplanarAngles","angleWeights"
8,91.6127,0.0634644
13,47.9188,0.0562441
19,70.9976,0.0239736
26,107.106,0.0645383
34,77.6359,0.0331403
43,54.3512,0.0628022
53,75.7069,0.0407448
76,91.2976,0.0279082
25,51.8336,0.0254131
33,86.273,0.0761506
75,71.3614,0.0758692
41,62.4483,0.0659863
51,38.3104,0.033518
86,43.3387,0.0207745
100,117.305,0.0255517
131,102.04,0.0270858
72,57.0014,0.036298
114,39.1941,0.077409
130,77.6286,0.0301143
165,53.2539,0.0400759
146,31.0238,0.0208826
128,53.8167,0.04475
163,57.2419,0.0297308
245,56.5186,0.0406899
201,100.862,0.0506326
244,42.8449,0.036046
267,78.2804,0.030124
221,39.948,0.093019
243,45.0283,0.0399978
265,55.4583,0.02208
314,34.4014,0.0224795
288,44.8941,0.043889
313,77.854,0.0605105
339,76.5886,0.0454961
365,55.05,0.0276008
392,37.6601,0.0333644
