facetNormals:0,facetNormals:1,facetNormals:2,FacetCenters:0,FacetCenters:1,FacetCenters:2,FacetIds,relFacetSize,absFacetSize,cellPairingIds,interplanarAngles,angleWeights
0.282138,-0.410631,-0.850869,4.12658,6.65798,9.51097,1,0.00766397,0.000785293,8,23.9157,0.0130234
-0.119386,-0.367318,-0.892427,4.11274,6.61901,9.48209,2,0.0433114,0.00443793,13,33.6537,0.0119406
0.718184,-0.441282,-0.488794,4.16649,6.62827,9.53816,3,0.0270155,0.00276816,19,31.3507,0.0119117
0.365991,-0.777356,-0.475129,4.14633,6.57574,9.52183,4,0.0267222,0.0027381,26,83.3623,0.00965909
-0.87895,0.0603584,-0.453295,4.05695,6.63522,9.52683,5,0.0130586,0.00133805,34,66.2245,0.0142863
-0.709272,-0.472831,-0.459385,4.07309,6.63036,9.52875,6,0.105108,0.0107699,43,70.0678,0.0132104
0.53918,0.635595,-0.515009,4.14049,6.65627,9.49312,7,0.0478125,0.00489913,53,94.4779,0.0110707
-0.816057,0.393363,-0.371836,4.05485,6.65582,9.52397,8,0.0199299,0.00204213,64,59.1782,0.0134224
0.871559,0.194065,-0.381074,4.18793,6.62954,9.53765,9,0.0539836,0.00553146,76,110.452,0.0110184
-0.706145,0.667666,-0.157718,4.05936,6.6565,9.56578,10,0.0195951,0.00200782,89,98.0205,0.0136399
0.422595,0.878688,-0.124991,4.15059,6.66913,9.54549,11,0.0619284,0.00634553,103,75.7379,0.0108577
-0.568947,-0.792418,-0.0858012,4.07213,6.6011,9.57848,12,0.0186147,0.00190736,118,141.433,0.0118449
-0.668454,0.597959,0.368212,4.05969,6.65679,9.58927,13,0.0260631,0.00267058,134,121.276,0.00982233
-0.111985,0.983589,0.085992,4.08137,6.68555,9.51778,14,0.013673,0.00140101,151,72.641,0.0135488
0.0403801,-0.975574,0.143015,4.12963,6.57155,9.58075,15,0.058364,0.0059803,169,88.7311,0.0129083
-0.319888,-0.88884,0.29747,4.08388,6.57592,9.59336,16,0.0408865,0.00418946,188,77.6549,0.0128047
0.642135,-0.664408,0.293382,4.17048,6.59185,9.59097,17,0.0388933,0.00398523,208,146.08,0.0115623
-0.155657,0.833095,0.48561,4.08751,6.66101,9.61573,18,0.0235322,0.00241124,229,125.506,0.0125976
-0.808985,-0.208069,0.480836,4.05152,6.62325,9.60309,19,0.0353611,0.0036233,251,122.416,0.0123974
-0.0161385,-0.497282,0.842378,4.10556,6.60582,9.63979,20,0.0324212,0.00332206,274,116.505,0.0131693
0.576823,-0.1521,0.767307,4.10953,6.65302,9.56166,21,0.0467569,0.00479098,298,152.881,0.0126402
0.161368,0.306654,0.905827,4.13525,6.64661,9.61296,22,0.0360437,0.00369324,18,57.2515,0.0332755
,,,,,,,,,25,45.7795,0.033052
,,,,,,,,,33,59.6173,0.0200669
,,,,,,,,,42,44.7851,0.0613447
,,,,,,,,,52,80.224,0.0454508
,,,,,,,,,63,72.5993,0.0272983
,,,,,,,,,75,79.9499,0.0480622
,,,,,,,,,88,91.2084,0.0269826
,,,,,,,,,102,105.887,0.0509732
,,,,,,,,,117,62.7808,0.0260384
,,,,,,,,,133,119.793,0.0325431
,,,,,,,,,150,116.071,0.0207845
,,,,,,,,,168,76.3847,0.0497235
,,,,,,,,,187,84.0874,0.042064
,,,,,,,,,207,95.7492,0.0409836
,,,,,,,,,228,139.364,0.0304954
,,,,,,,,,250,105.858,0.0389345
,,,,,,,,,273,126.596,0.0370833
,,,,,,,,,297,137.586,0.0449683
,,,,,,,,,322,175.578,0.0393447
,,,,,,,,,32,28.8278,0.026868
,,,,,,,,,41,116.868,0.0176066
,,,,,,,,,51,94.6318,0.0429832
,,,,,,,,,62,67.9442,0.034524
,,,,,,,,,74,127.277,0.022938
,,,,,,,,,87,39.8185,0.0360101
,,,,,,,,,101,139.062,0.0227146
,,,,,,,,,116,91.3851,0.0376199
,,,,,,,,,132,91.0202,0.0220418
,,,,,,,,,149,167.964,0.0265308
,,,,,,,,,167,125.083,0.0181566
,,,,,,,,,186,66.0979,0.0369347
,,,,,,,,,206,88.9853,0.0325342
,,,,,,,,,227,49.7015,0.0318841
,,,,,,,,,249,138.861,0.0251538
,,,,,,,,,272,140.457,0.03063
,,,,,,,,,296,102.35,0.0294726
,,,,,,,,,321,83.5534,0.0342448
,,,,,,,,,347,119.281,0.0308833
,,,,,,,,,50,99.0631,0.0175438
,,,,,,,,,61,69.9315,0.0426111
,,,,,,,,,73,93.1019,0.0342835
,,,,,,,,,86,116.419,0.0228316
,,,,,,,,,100,68.51,0.0357486
,,,,,,,,,115,136.616,0.0226103
,,,,,,,,,131,119.074,0.0373345
,,,,,,,,,148,62.1929,0.0219435
,,,,,,,,,166,158.298,0.0263885
,,,,,,,,,185,150.181,0.0180899
,,,,,,,,,205,43.2945,0.0366596
,,,,,,,,,226,63.5883,0.0323206
,,,,,,,,,248,49.9785,0.0316789
,,,,,,,,,271,167.231,0.0250259
,,,,,,,,,295,112.543,0.0304406
,,,,,,,,,320,91.168,0.0292971
,,,,,,,,,346,92.1153,0.0340082
,,,,,,,,,373,129.814,0.0306907
,,,,,,,,,72,33.1668,0.0232309
,,,,,,,,,85,102.016,0.0205143
,,,,,,,,,99,20.37,0.0157786
,,,,,,,,,114,127.204,0.02103
,,,,,,,,,130,41.3332,0.0156726
,,,,,,,,,147,105.59,0.021569
,,,,,,,,,165,59.5895,0.0153493
,,,,,,,,,184,61.6109,0.0173994
,,,,,,,,,204,83.0684,0.0133587
,,,,,,,,,225,99.3711,0.021342
,,,,,,,,,247,84.5806,0.0197949
,,,,,,,,,270,140.157,0.0195524
,,,,,,,,,294,91.9556,0.0167964
,,,,,,,,,319,59.7875,0.0190735
,,,,,,,,,345,114.221,0.0186182
,,,,,,,,,372,153.795,0.0204154
,,,,,,,,,400,123.755,0.0191714
,,,,,,,,,98,118.066,0.0657266
,,,,,,,,,113,53.5309,0.0335065
,,,,,,,,,129,124.678,0.0713313
,,,,,,,,,146,74.323,0.0330321
,,,,,,,,,164,133.713,0.0779371
,,,,,,,,,183,30.4312,0.031628
,,,,,,,,,203,88.6431,0.041769
,,,,,,,,,224,116.222,0.0241982
,,,,,,,,,246,67.4183,0.0750529
,,,,,,,,,269,57.8376,0.058872
,,,,,,,,,293,107.102,0.0567772
,,,,,,,,,318,122.384,0.0384548
,,,,,,,,,344,61.0835,0.0529189
,,,,,,,,,371,98.5226,0.0495565
,,,,,,,,,399,137.124,0.0647223
,,,,,,,,,428,136.001,0.0536795
,,,,,,,,,128,89.9095,0.028133
,,,,,,,,,145,33.895,0.050711
,,,,,,,,,163,82.5631,0.0277978
,,,,,,,,,182,27.9569,0.0539626
,,,,,,,,,202,142.998,0.0267967
,,,,,,,,,223,100.309,0.0337363
,,,,,,,,,245,57.6809,0.0212649
,,,,,,,,,268,134.026,0.052564
,,,,,,,,,292,156.613,0.0440791
,,,,,,,,,317,103.837,0.0428942
,,,,,,,,,343,78.2131,0.0315407
,,,,,,,,,370,149.791,0.0406548
,,,,,,,,,398,142.318,0.0386406
,,,,,,,,,427,100.947,0.0472788
,,,,,,,,,457,101.202,0.0411022
,,,,,,,,,162,121.251,0.0291121
,,,,,,,,,181,21.4165,0.0197611
,,,,,,,,,201,87.1861,0.0301552
,,,,,,,,,222,78.9081,0.0192498
,,,,,,,,,244,47.3044,0.0225876
,,,,,,,,,267,62.6984,0.0162189
,,,,,,,,,291,119.094,0.0297134
,,,,,,,,,316,101.853,0.0267975
,,,,,,,,,342,160.422,0.0263549
,,,,,,,,,369,73.3437,0.0215817
,,,,,,,,,397,64.9558,0.0254921
,,,,,,,,,426,121.156,0.0246853
,,,,,,,,,456,149.006,0.0279474
,,,,,,,,,487,111.487,0.0256673
,,,,,,,,,200,116.453,0.0287532
,,,,,,,,,221,52.0815,0.0576837
,,,,,,,,,243,130.462,0.0276835
,,,,,,,,,266,130.148,0.035154
,,,,,,,,,290,86.4037,0.0218195
,,,,,,,,,315,102.578,0.0560884
,,,,,,,,,341,125.964,0.046531
,,,,,,,,,368,70.1929,0.0452126
,,,,,,,,,396,99.6552,0.0327766
,,,,,,,,,425,172.983,0.0427315
,,,,,,,,,455,117.026,0.040512
,,,,,,,,,486,78.9519,0.050111
,,,,,,,,,518,98.8611,0.0432262
,,,,,,,,,242,71.4448,0.0297704
,,,,,,,,,265,96.7774,0.0190923
,,,,,,,,,289,31.577,0.022371
,,,,,,,,,314,42.4177,0.0161069
,,,,,,,,,340,136.302,0.0293397
,,,,,,,,,367,115.156,0.0264932
,,,,,,,,,395,171.236,0.0260605
,,,,,,,,,424,52.189,0.0213839
,,,,,,,,,454,67.9325,0.0252166
,,,,,,,,,485,118.087,0.0244268
,,,,,,,,,517,131.169,0.0276165
,,,,,,,,,550,93.1261,0.025388
,,,,,,,,,288,164.141,0.0286251
,,,,,,,,,313,78.0761,0.0366865
,,,,,,,,,339,34.3754,0.0224003
,,,,,,,,,366,152.193,0.0600934
,,,,,,,,,394,168.316,0.0492543
,,,,,,,,,423,111.49,0.0477794
,,,,,,,,,453,50.9006,0.0341048
,,,,,,,,,484,128.115,0.0450173
,,,,,,,,,516,124.815,0.0425608
,,,,,,,,,549,89.1479,0.0532838
,,,,,,,,,583,76.3845,0.0455666
,,,,,,,,,338,97.5722,0.021718
,,,,,,,,,365,137.994,0.0157657
,,,,,,,,,393,40.2276,0.0282267
,,,,,,,,,422,27.4317,0.0255823
,,,,,,,,,452,81.7654,0.0251786
,,,,,,,,,483,129.876,0.0207865
,,,,,,,,,515,51.7841,0.02439
,,,,,,,,,548,69.7911,0.0236504
,,,,,,,,,582,106.699,0.0266282
,,,,,,,,,617,115.744,0.0245503
,,,,,,,,,392,43.8571,0.0179364
,,,,,,,,,421,125.655,0.0360346
,,,,,,,,,451,102.519,0.0318338
,,,,,,,,,482,139.857,0.0312111
,,,,,,,,,514,34.4398,0.0247331
,,,,,,,,,547,50.5776,0.0300084
,,,,,,,,,581,88.5738,0.0288966
,,,,,,,,,616,101.881,0.0334697
,,,,,,,,,652,64.2138,0.0302515
,,,,,,,,,450,166.081,0.0221556
,,,,,,,,,481,145.687,0.0204929
,,,,,,,,,513,136.622,0.020233
,,,,,,,,,546,25.1456,0.0172963
,,,,,,,,,580,94.3542,0.0197206
,,,,,,,,,615,115.262,0.0192343
,,,,,,,,,651,98.8282,0.0211586
,,,,,,,,,688,67.9722,0.0198253
,,,,,,,,,512,23.4293,0.0480864
,,,,,,,,,545,41.5407,0.0466797
,,,,,,,,,579,141.046,0.0335408
,,,,,,,,,614,75.4413,0.0440397
,,,,,,,,,650,51.2,0.0416859
,,,,,,,,,687,72.9377,0.0519197
,,,,,,,,,725,99.8121,0.0445653
,,,,,,,,,578,60.526,0.039865
,,,,,,,,,613,124.379,0.0298717
,,,,,,,,,649,52.0701,0.0379236
,,,,,,,,,686,43.9353,0.0361651
,,,,,,,,,724,79.2874,0.0436251
,,,,,,,,,763,93.2665,0.0383127
,,,,,,,,,648,122.658,0.0293228
,,,,,,,,,685,104.894,0.0370432
,,,,,,,,,723,53.2736,0.0353636
,,,,,,,,,762,42.3302,0.0424641
,,,,,,,,,802,79.8538,0.0374143
,,,,,,,,,722,78.6,0.0282587
,,,,,,,,,761,90.1621,0.0272706
,,,,,,,,,801,80.5352,0.0313076
,,,,,,,,,842,44.9679,0.0284741
,,,,,,,,,800,56.4181,0.0338274
,,,,,,,,,841,94.043,0.0402683
,,,,,,,,,883,75.0462,0.0356991
,,,,,,,,,882,41.4513,0.0382913
,,,,,,,,,925,50.1536,0.0341366
,,,,,,,,,968,38.128,0.0407072
