facetNormals:0,facetNormals:1,facetNormals:2,FacetCenters:0,FacetCenters:1,FacetCenters:2,FacetIds,relFacetSize,absFacetSize,cellPairingIds,interplanarAngles,angleWeights
0.174628,0.472665,-0.835707,7.08915,6.6423,6.08606,1,0.0373674,0.00580596,8,58.2226,0.0443213
-0.513698,0.781476,-0.262697,7.04949,6.66414,6.15569,2,0.0544551,0.00846096,13,41.6064,0.0454126
0.119907,0.926923,-0.310648,7.1339,6.68243,6.25592,3,0.0578723,0.0089919,19,47.5663,0.0597715
0.698923,0.624713,-0.269033,7.19804,6.62815,6.2125,4,0.149265,0.023192,26,79.7386,0.0400409
-0.878874,0.406475,-0.157836,7.03195,6.64324,6.19968,5,0.0431263,0.00670074,34,66.5319,0.0335881
-0.21867,0.964711,0.0395682,7.05411,6.6593,6.20744,6,0.0305031,0.00473942,43,119.176,0.0466586
0.483572,-0.748621,0.197246,7.07901,6.64579,6.22676,7,0.0620991,0.00964864,53,96.6939,0.0570091
-0.288452,0.766811,0.504377,7.07452,6.647,6.27796,8,0.12018,0.018673,64,121.266,0.0367444
0.561204,0.131036,0.778317,7.18003,6.64683,6.34301,9,0.0361418,0.00561553,76,162.314,0.0497423
-0.448932,-0.37425,0.769907,7.07116,6.58605,6.32332,10,0.0743716,0.0115555,89,138.644,0.03709
-0.443324,0.162671,0.857096,7.072,6.58911,6.32426,11,0.0368166,0.00572038,18,38.919,0.0561117
,,,,,,,,,25,77.8225,0.0797981
,,,,,,,,,33,31.7296,0.0481331
,,,,,,,,,42,27.1315,0.0391028
,,,,,,,,,52,176.759,0.0580264
,,,,,,,,,63,48.8537,0.0749496
,,,,,,,,,75,114.515,0.0434476
,,,,,,,,,88,106.336,0.0628738
,,,,,,,,,102,82.1579,0.0439315
,,,,,,,,,32,39.0048,0.0834066
,,,,,,,,,41,70.6345,0.0494228
,,,,,,,,,51,28.6456,0.0399497
,,,,,,,,,62,140.852,0.0599112
,,,,,,,,,74,56.7531,0.0781242
,,,,,,,,,87,93.1871,0.0444957
,,,,,,,,,101,132.232,0.0650927
,,,,,,,,,116,100.076,0.0450034
,,,,,,,,,50,109.403,0.0669182
,,,,,,,,,61,62.9422,0.0506546
,,,,,,,,,73,101.847,0.0877085
,,,,,,,,,86,81.3116,0.133153
,,,,,,,,,100,73.7242,0.0581932
,,,,,,,,,115,143.184,0.0992777
,,,,,,,,,131,117.374,0.0590647
,,,,,,,,,72,53.475,0.0357326
,,,,,,,,,85,148.117,0.0509022
,,,,,,,,,99,59.0389,0.0634748
,,,,,,,,,114,126.323,0.0393264
,,,,,,,,,130,82.675,0.0545945
,,,,,,,,,147,70.5009,0.0397225
,,,,,,,,,98,155.176,0.0409108
,,,,,,,,,113,30.2456,0.0486566
,,,,,,,,,129,87.9384,0.0330839
,,,,,,,,,146,104.056,0.0432624
,,,,,,,,,164,72.7186,0.0333638
,,,,,,,,,128,134.366,0.0818862
,,,,,,,,,145,68.3032,0.0456912
,,,,,,,,,163,75.9004,0.0676835
,,,,,,,,,182,100.782,0.0462268
,,,,,,,,,162,69.1802,0.0555716
,,,,,,,,,181,75.6276,0.0918829
,,,,,,,,,201,43.3232,0.0563658
,,,,,,,,,200,71.4217,0.0486443
,,,,,,,,,221,62.3627,0.0364761
,,,,,,,,,242,32.4717,0.0492518
