facetNormals:0,facetNormals:1,facetNormals:2,FacetCenters:0,FacetCenters:1,FacetCenters:2,FacetIds,relFacetSize,absFacetSize,cellPairingIds,interplanarAngles,angleWeights
0.2966,-0.0678366,-0.907228,5.63621,5.00641,8.84086,1,0.0467428,0.0115404,8,35.1639,0.0387701
0.653837,0.302069,-0.639112,5.63668,5.03547,8.84818,2,0.0331208,0.00817723,13,47.9465,0.0285486
-0.206358,0.53144,-0.802882,5.57201,5.04434,8.82795,3,0.0205498,0.00507356,19,31.767,0.0601154
0.16675,-0.526039,-0.718697,5.60864,4.98338,8.8452,4,0.0842058,0.0207897,26,65.9963,0.0496834
-0.698002,0.0758883,-0.642106,5.48357,5.10267,8.87155,5,0.0530187,0.0130898,34,93.9521,0.0462596
-0.476863,0.782701,-0.146947,5.52686,5.09535,8.89563,6,0.0457863,0.0113042,43,74.0836,0.0551904
0.247965,-0.907197,-0.12554,5.66227,4.8933,8.93056,7,0.0673649,0.0166318,53,59.9485,0.014907
0.669536,-0.689643,-0.254763,5.72414,4.93064,8.91605,8,0.00886747,0.0021893,64,95.1231,0.0497296
-0.867302,-0.368528,-0.165872,5.49835,4.99366,8.90231,9,0.0531242,0.0131159,76,88.7309,0.0494507
-0.222947,-0.949821,-0.0246647,5.59275,4.88871,8.94036,10,0.0524917,0.0129597,89,82.0835,0.0154742
0.824761,-0.516563,0.164877,5.62879,5.05984,8.96115,11,0.00927185,0.00228914,103,124.454,0.0517895
-0.808139,-0.427587,0.352478,5.48822,5.02546,8.95166,12,0.0580577,0.0143339,118,105.853,0.05894
0.761995,0.201586,0.503525,5.70995,5.00072,8.9839,13,0.0797502,0.0196896,134,146.984,0.0379598
-0.723435,0.245911,0.60957,5.5505,5.05412,8.98623,14,0.0319554,0.00788949,151,149.088,0.0567585
-0.485718,-0.38293,0.748516,5.52824,5.06031,9.01417,15,0.0722368,0.0178346,169,137.187,0.0248615
0.113901,0.621437,0.748841,5.66639,5.03898,9.00464,16,0.0169342,0.0041809,188,138.081,0.042738
0.222856,-0.384649,0.864646,5.64482,4.95415,9.022,17,0.0393653,0.00971893,208,174.25,0.0397694
-0.246032,0.148515,0.940393,5.60839,5.00947,9.02313,18,0.0346065,0.00854403,18,55.3767,0.0253631
,,,,,,,,,25,62.0124,0.0475419
,,,,,,,,,33,91.4435,0.0407716
,,,,,,,,,42,88.8105,0.0384371
,,,,,,,,,52,91.9867,0.0444079
,,,,,,,,,63,65.8154,0.0139895
,,,,,,,,,75,128.407,0.0408028
,,,,,,,,,88,116.337,0.0406148
,,,,,,,,,102,73.0022,0.0144879
,,,,,,,,,117,159.333,0.0421792
,,,,,,,,,133,74.7229,0.0468037
,,,,,,,,,150,146.883,0.0325277
,,,,,,,,,168,167.167,0.0454176
,,,,,,,,,187,103.261,0.0224103
,,,,,,,,,207,123.969,0.0359741
,,,,,,,,,228,139.223,0.0338474
,,,,,,,,,32,72.8528,0.0330372
,,,,,,,,,41,41.665,0.0296193
,,,,,,,,,51,46.2255,0.0283677
,,,,,,,,,62,117.575,0.0314927
,,,,,,,,,74,107.849,0.012389
,,,,,,,,,87,82.9097,0.0296358
,,,,,,,,,101,117.179,0.0295365
,,,,,,,,,116,126.424,0.0127783
,,,,,,,,,132,110.853,0.0303552
,,,,,,,,,149,119.562,0.032679
,,,,,,,,,167,102.568,0.0250138
,,,,,,,,,186,137.438,0.0319971
,,,,,,,,,206,107.772,0.0185676
,,,,,,,,,227,170.642,0.0270032
,,,,,,,,,249,130.227,0.025787
,,,,,,,,,50,69.2697,0.0650683
,,,,,,,,,61,117.29,0.0593186
,,,,,,,,,73,44.9182,0.0748498
,,,,,,,,,86,43.1346,0.0160453
,,,,,,,,,100,78.7969,0.0651477
,,,,,,,,,115,57.1115,0.0646699
,,,,,,,,,131,71.0282,0.0167044
,,,,,,,,,148,100.589,0.0687288
,,,,,,,,,166,113.715,0.0819175
,,,,,,,,,185,140.978,0.0463292
,,,,,,,,,205,118.329,0.0777635
,,,,,,,,,226,162.374,0.0281977
,,,,,,,,,248,115.692,0.0536498
,,,,,,,,,271,153.158,0.0490533
,,,,,,,,,72,56.566,0.0491378
,,,,,,,,,85,100.294,0.059337
,,,,,,,,,99,112.109,0.0151938
,,,,,,,,,114,41.3022,0.0530714
,,,,,,,,,130,83.8565,0.0527539
,,,,,,,,,147,140.128,0.0157835
,,,,,,,,,165,70.8845,0.0554239
,,,,,,,,,184,160.699,0.0636934
,,,,,,,,,204,81.8269,0.0398765
,,,,,,,,,225,100.645,0.0611535
,,,,,,,,,247,123.402,0.0256695
,,,,,,,,,270,143.121,0.0451831
,,,,,,,,,294,116.731,0.0418782
,,,,,,,,,98,156.859,0.054518
,,,,,,,,,113,152.893,0.0148575
,,,,,,,,,129,80.3088,0.0491831
,,,,,,,,,146,134.37,0.0489103
,,,,,,,,,164,153.767,0.0154209
,,,,,,,,,183,90.0691,0.051197
,,,,,,,,,203,108.785,0.0581738
,,,,,,,,,224,60.4198,0.0376405
,,,,,,,,,246,101.396,0.0560476
,,,,,,,,,269,69.2609,0.0247241
,,,,,,,,,293,126.31,0.0423337
,,,,,,,,,318,84.0019,0.0394191
,,,,,,,,,128,29.1927,0.015672
,,,,,,,,,145,81.1234,0.059403
,,,,,,,,,163,29.0518,0.0590055
,,,,,,,,,182,45.8404,0.0163002
,,,,,,,,,202,81.1358,0.062366
,,,,,,,,,223,93.6919,0.0730362
,,,,,,,,,245,121.097,0.043348
,,,,,,,,,268,81.7008,0.0697158
,,,,,,,,,292,132.625,0.0270648
,,,,,,,,,317,71.306,0.0496924
,,,,,,,,,343,109.654,0.0457239
,,,,,,,,,162,107.384,0.0151981
,,,,,,,,,181,58.1542,0.0151719
,,,,,,,,,201,28.0201,0.00906515
,,,,,,,,,222,110.172,0.0153851
,,,,,,,,,244,74.8619,0.0159603
,,,,,,,,,267,146.367,0.0138826
,,,,,,,,,291,105.118,0.0157959
,,,,,,,,,316,123.879,0.0116398
,,,,,,,,,342,78.4118,0.0144744
,,,,,,,,,369,121.214,0.0141175
,,,,,,,,,200,54.106,0.0528061
,,,,,,,,,221,125.788,0.0157882
,,,,,,,,,243,31.4309,0.0554815
,,,,,,,,,266,156.177,0.0637695
,,,,,,,,,290,62.2341,0.0399063
,,,,,,,,,315,61.8569,0.0612236
,,,,,,,,,341,118.827,0.0256819
,,,,,,,,,368,102.097,0.0452213
,,,,,,,,,396,89.8375,0.0419111
,,,,,,,,,242,71.6857,0.0157599
,,,,,,,,,265,52.8432,0.0551346
,,,,,,,,,289,114.172,0.0633116
,,,,,,,,,314,95.2519,0.0397265
,,,,,,,,,340,61.4059,0.0608014
,,,,,,,,,367,131.542,0.0256073
,,,,,,,,,395,71.9284,0.0449906
,,,,,,,,,424,96.5461,0.0417128
,,,,,,,,,288,113.621,0.0159901
,,,,,,,,,313,48.8615,0.0166123
,,,,,,,,,339,130.236,0.0143733
,,,,,,,,,366,94.751,0.0164343
,,,,,,,,,394,96.1501,0.0119828
,,,,,,,,,423,56.8286,0.0150087
,,,,,,,,,453,97.375,0.0146253
,,,,,,,,,338,124.911,0.0671967
,,,,,,,,,365,43.5349,0.0412219
,,,,,,,,,393,30.4649,0.0643758
,,,,,,,,,422,95.6079,0.0262204
,,,,,,,,,452,72.3316,0.0469182
,,,,,,,,,483,61.023,0.0433646
,,,,,,,,,392,102.299,0.0456279
,,,,,,,,,421,94.4466,0.0758078
,,,,,,,,,451,49.9928,0.0279364
,,,,,,,,,482,54.5317,0.0527117
,,,,,,,,,514,69.9063,0.0482678
,,,,,,,,,450,41.2572,0.0443095
,,,,,,,,,481,56.6203,0.0221372
,,,,,,,,,513,73.4151,0.0352754
,,,,,,,,,546,34.9566,0.0332281
,,,,,,,,,512,73.6862,0.0274365
,,,,,,,,,545,43.37,0.05096
,,,,,,,,,579,36.6003,0.046795
,,,,,,,,,578,62.9066,0.0236812
,,,,,,,,,613,37.0933,0.0227406
,,,,,,,,,648,42.8272,0.0368328
