facetNormals:0,facetNormals:1,facetNormals:2,FacetCenters:0,FacetCenters:1,FacetCenters:2,FacetIds,relFacetSize,absFacetSize,cellPairingIds,interplanarAngles,angleWeights
-0.177985,-0.181132,-0.953009,5.27787,7.48448,7.19672,1,0.00601468,0.000379157,8,31.4539,0.0103751
0.328217,-0.00883099,-0.931874,5.29645,7.46047,7.21214,2,0.0377226,0.00237798,13,30.1582,0.00777543
-0.632003,-0.103766,-0.733747,5.26805,7.45248,7.23016,3,0.0109937,0.000693029,19,62.9198,0.011175
0.703231,0.20067,-0.621675,5.30499,7.47615,7.22293,4,0.0786722,0.00495938,26,43.5108,0.0112401
0.319213,-0.616023,-0.662601,5.31077,7.38419,7.2505,5,0.0856595,0.00539985,34,60.9069,0.00825444
-0.800876,-0.507983,-0.247029,5.2768,7.3829,7.27629,6,0.013152,0.000829082,43,85.767,0.0106577
0.897099,-0.329303,-0.179226,5.33527,7.39009,7.27237,7,0.046732,0.00294592,53,77.7056,0.00376563
-0.852206,0.472523,-0.14784,5.29434,7.41027,7.23743,8,0.00274077,0.000172774,64,97.7463,0.0109652
0.342473,-0.835404,0.2246,5.29737,7.36479,7.30298,9,0.0619741,0.00390676,76,115.886,0.0108016
0.944599,0.134807,0.242818,5.33387,7.40557,7.29291,10,0.0529164,0.00333578,89,120.995,0.0103802
0.818813,0.484842,0.284188,5.30771,7.48418,7.26886,11,0.0378575,0.00238649,103,113.533,0.011193
0.567802,0.762,0.146437,5.29685,7.4707,7.2802,12,0.0804933,0.00507418,118,138.261,0.010579
0.389081,0.722451,0.555006,5.29607,7.45982,7.30286,13,0.0438724,0.00276565,134,158.982,0.0117133
0.494134,0.191594,0.791492,5.28721,7.4192,7.32878,14,0.222893,0.0140509,18,60.2679,0.0170256
,,,,,,,,,25,31.5266,0.050994
,,,,,,,,,33,39.8549,0.0523787
,,,,,,,,,42,91.6674,0.0195039
,,,,,,,,,52,61.0929,0.0417467
,,,,,,,,,63,98.6296,0.00511026
,,,,,,,,,75,95.5883,0.0468987
,,,,,,,,,88,85.1311,0.044046
,,,,,,,,,102,90.0211,0.0377899
,,,,,,,,,117,87.3953,0.0513707
,,,,,,,,,133,113.857,0.0405657
,,,,,,,,,150,127.819,0.0645249
,,,,,,,,,32,90.5587,0.0192916
,,,,,,,,,41,68.1104,0.0194865
,,,,,,,,,51,39.1588,0.0119764
,,,,,,,,,62,115.073,0.0178
,,,,,,,,,74,51.4634,0.00438768
,,,,,,,,,87,108.969,0.0186747
,,,,,,,,,101,145.38,0.0182052
,,,,,,,,,116,143.38,0.0170393
,,,,,,,,,132,125.618,0.0193453
,,,,,,,,,149,138.994,0.0175818
,,,,,,,,,167,169.752,0.020954
,,,,,,,,,50,56.1611,0.0820173
,,,,,,,,,61,122.945,0.0225364
,,,,,,,,,73,43.5659,0.0586346
,,,,,,,,,86,115.856,0.00529701
,,,,,,,,,100,94.2661,0.0693319
,,,,,,,,,115,55.1243,0.0632737
,,,,,,,,,131,58.6146,0.0511172
,,,,,,,,,148,60.0194,0.0795723
,,,,,,,,,166,85.5633,0.0563311
,,,,,,,,,185,96.6649,0.116296
,,,,,,,,,72,76.408,0.0228029
,,,,,,,,,85,49.3242,0.0604728
,,,,,,,,,99,119.468,0.0053116
,,,,,,,,,114,57.8394,0.0719168
,,,,,,,,,130,86.5045,0.0654196
,,,,,,,,,147,103.697,0.0525087
,,,,,,,,,165,114.681,0.082996
,,,,,,,,,184,136.43,0.0580256
,,,,,,,,,204,122.034,0.123758
,,,,,,,,,98,122.139,0.020527
,,,,,,,,,113,60.2708,0.00453623
,,,,,,,,,129,84.0444,0.021699
,,,,,,,,,146,156.511,0.0210677
,,,,,,,,,164,177.359,0.0195219
,,,,,,,,,183,158.709,0.0226097
,,,,,,,,,203,147.16,0.0202373
,,,,,,,,,224,137.529,0.0248384
,,,,,,,,,128,158.832,0.00517787
,,,,,,,,,145,53.1846,0.0532845
,,,,,,,,,163,37.499,0.0496323
,,,,,,,,,182,57.1373,0.0418293
,,,,,,,,,202,75.6183,0.0591331
,,,,,,,,,223,89.3059,0.0452571
,,,,,,,,,245,75.0875,0.0772647
,,,,,,,,,162,141.718,0.0052494
,,,,,,,,,181,143.216,0.00521161
,,,,,,,,,201,121.451,0.00511149
,,,,,,,,,222,98.8302,0.00530105
,,,,,,,,,244,94.244,0.00515924
,,,,,,,,,267,118.474,0.00541496
,,,,,,,,,200,73.1574,0.0570882
,,,,,,,,,221,93.7721,0.0470029
,,,,,,,,,243,117.223,0.07003
,,,,,,,,,266,112.025,0.0513753
,,,,,,,,,290,77.8229,0.0969827
,,,,,,,,,242,21.8103,0.0441379
,,,,,,,,,265,44.5511,0.0638547
,,,,,,,,,289,52.0602,0.0479718
,,,,,,,,,314,43.101,0.0855279
,,,,,,,,,288,23.455,0.0514957
,,,,,,,,,313,32.8407,0.0406436
,,,,,,,,,339,40.2107,0.0647222
,,,,,,,,,338,26.462,0.0567911
,,,,,,,,,365,53.6798,0.118274
,,,,,,,,,392,35.3172,0.0733142
