Q	U	V
{$V$}	{[mm$^3$]}	0.00925971
{$d_v$}	{[mm]}	0.260535
{$S_c$}	{[mm$^2$]}	0.35925
{$S_o$}	{[mm$^2$]}	0.190034
{$S_l/S_o$}	[]	0.890451
{$\Psi$}	[]	0.593589
{$\eta$}	[]	0.601848
{med($\theta_e$)}	{[$^\circ$]}	53.5418
{$\Upsilon$}	[]	14
{$\Xi$}	[]	9
