facetNormals:0,facetNormals:1,facetNormals:2,FacetCenters:0,FacetCenters:1,FacetCenters:2,FacetIds,relFacetSize,absFacetSize,cellPairingIds,interplanarAngles,angleWeights
-0.214213,-0.202551,-0.941235,4.74375,3.32281,5.43164,1,0.0164738,0.00596837,8,33.1212,0.0232901
0.273849,-0.436024,-0.813275,4.82139,3.32584,5.44319,2,0.0397283,0.0143933,13,29.0597,0.0233641
-0.516259,0.165982,-0.814626,4.68525,3.40974,5.48098,3,0.040162,0.0145504,19,39.5504,0.0251625
-0.0463244,0.435807,-0.871294,4.7354,3.42962,5.48414,4,0.0532448,0.0192903,26,53.8847,0.0200073
-0.490736,0.590168,-0.627753,4.75003,3.44388,5.48356,5,0.0254703,0.00922775,34,83.4918,0.0255219
0.278014,0.859936,-0.364054,4.78817,3.49765,5.54014,6,0.0566195,0.0205129,43,86.4528,0.0223974
0.708166,0.586523,-0.351205,4.85211,3.44734,5.57065,7,0.0349726,0.0126704,53,77.0287,0.0206139
-0.438605,0.827458,-0.310308,4.80428,3.47792,5.50752,8,0.0275334,0.00997519,64,90.7862,0.0224717
0.832645,-0.443988,-0.0803376,4.90509,3.3633,5.52403,9,0.0353373,0.0128025,76,67.5215,0.0211273
-0.558728,-0.798232,-0.0932204,4.69077,3.25067,5.53849,10,0.0294449,0.0106677,89,88.4239,0.0183199
-0.850404,0.479361,0.0621902,4.71947,3.45876,5.6477,11,0.0206319,0.00747482,103,71.9434,0.0254853
-0.936864,-0.234579,-0.0504196,4.64355,3.35073,5.53986,12,0.0562607,0.0203829,118,125.933,0.0244752
0.792317,0.422126,0.313626,4.86513,3.4626,5.63108,13,0.0475891,0.0172412,134,109.818,0.0287541
-0.761941,-0.162876,0.54659,4.6797,3.37328,5.63702,14,0.112955,0.040923,151,147.878,0.0218305
0.397264,0.611085,0.637395,4.86661,3.44834,5.68025,15,0.0323492,0.0117199,169,126.775,0.0224193
-0.0367029,0.8711,0.431069,4.75157,3.50407,5.61762,16,0.0350797,0.0127092,188,137.269,0.0222777
-0.224773,-0.352014,0.869181,4.7567,3.34135,5.70424,17,0.0343953,0.0124612,208,149.965,0.0232111
0.528326,-0.163031,0.788509,4.83536,3.38827,5.70745,18,0.0392718,0.0142279,229,151.048,0.0246198
-0.207624,0.419599,0.833658,4.76822,3.45075,5.70119,19,0.048702,0.0176444,18,61.549,0.039944
,,,,,,,,,25,57.3929,0.045504
,,,,,,,,,33,82.8485,0.0310403
,,,,,,,,,42,90.1676,0.0466932
,,,,,,,,,52,76.3357,0.0371991
,,,,,,,,,63,103.925,0.0325254
,,,,,,,,,75,57.712,0.0374044
,,,,,,,,,88,73.2925,0.0338222
,,,,,,,,,102,121.536,0.0271593
,,,,,,,,,117,96.9891,0.0465708
,,,,,,,,,133,104.045,0.0433049
,,,,,,,,,150,129.454,0.058782
,,,,,,,,,168,136.498,0.035661
,,,,,,,,,187,142.27,0.0372596
,,,,,,,,,207,131.491,0.03687
,,,,,,,,,228,117.324,0.0394987
,,,,,,,,,250,175.763,0.0437598
,,,,,,,,,32,32.3821,0.0457872
,,,,,,,,,41,27.247,0.0311718
,,,,,,,,,51,71.9286,0.0469915
,,,,,,,,,62,88.9378,0.0373881
,,,,,,,,,74,50.3125,0.0326698
,,,,,,,,,87,118.211,0.0375955
,,,,,,,,,101,75.9897,0.0339784
,,,,,,,,,116,60.7368,0.02726
,,,,,,,,,132,59.1158,0.0468675
,,,,,,,,,149,129.701,0.0435612
,,,,,,,,,167,94.862,0.0592554
,,,,,,,,,186,131.1,0.0358347
,,,,,,,,,206,101.369,0.0374492
,,,,,,,,,227,133.571,0.0370557
,,,,,,,,,249,178.562,0.0397119
,,,,,,,,,272,122.467,0.0440217
,,,,,,,,,50,31.2359,0.0344575
,,,,,,,,,61,44.3877,0.0548803
,,,,,,,,,73,56.5752,0.0422164
,,,,,,,,,86,47.4006,0.0362972
,,,,,,,,,100,100.106,0.042481
,,,,,,,,,115,104.609,0.0379198
,,,,,,,,,131,78.26,0.0297399
,,,,,,,,,148,90.9052,0.0547113
,,,,,,,,,166,97.8078,0.0502583
,,,,,,,,,185,123.469,0.072374
,,,,,,,,,205,109,0.0402464
,,,,,,,,,226,89.653,0.0422943
,,,,,,,,,248,163.188,0.041793
,,,,,,,,,271,146.424,0.0452031
,,,,,,,,,295,124.926,0.0508722
,,,,,,,,,72,51.6366,0.0351351
,,,,,,,,,85,77.0275,0.0294745
,,,,,,,,,99,23.3155,0.0264617
,,,,,,,,,114,131.335,0.0296033
,,,,,,,,,130,98.1975,0.0273138
,,,,,,,,,147,47.0244,0.0227972
,,,,,,,,,165,68.403,0.0350657
,,,,,,,,,184,110.913,0.0331815
,,,,,,,,,204,93.9698,0.0415676
,,,,,,,,,225,104.134,0.0285006
,,,,,,,,,247,74.2671,0.0295125
,,,,,,,,,270,132.264,0.0292675
,,,,,,,,,294,152.952,0.0309
,,,,,,,,,319,100.564,0.033448
,,,,,,,,,98,30.1715,0.043238
,,,,,,,,,113,43.0375,0.0370499
,,,,,,,,,129,97.5393,0.0435157
,,,,,,,,,146,147.894,0.038742
,,,,,,,,,164,80.7527,0.0302433
,,,,,,,,,183,118.1,0.0564395
,,,,,,,,,203,59.583,0.051713
,,,,,,,,,224,126.445,0.0754295
,,,,,,,,,246,64.6514,0.0411739
,,,,,,,,,269,52.1132,0.0433198
,,,,,,,,,293,136.508,0.042794
,,,,,,,,,318,107.386,0.0463765
,,,,,,,,,344,90.024,0.0523632
,,,,,,,,,128,73.0137,0.0308103
,,,,,,,,,145,67.4514,0.035154
,,,,,,,,,163,149.617,0.0319716
,,,,,,,,,182,110.864,0.025953
,,,,,,,,,202,145.376,0.043133
,,,,,,,,,223,41.7316,0.0403169
,,,,,,,,,245,151.989,0.053409
,,,,,,,,,268,64.1273,0.0336098
,,,,,,,,,292,69.6109,0.0350261
,,,,,,,,,317,134.977,0.0346816
,,,,,,,,,343,89.9038,0.0369977
,,,,,,,,,370,101.878,0.0407109
,,,,,,,,,162,139.235,0.0309511
,,,,,,,,,181,113.594,0.0284571
,,,,,,,,,201,38.9669,0.0235882
,,,,,,,,,222,75.8991,0.0369728
,,,,,,,,,244,95.845,0.0348841
,,,,,,,,,267,88.1809,0.0442747
,,,,,,,,,291,81.9594,0.0297477
,,,,,,,,,316,51.0571,0.0308518
,,,,,,,,,342,119.08,0.0305842
,,,,,,,,,369,130.046,0.0323714
,,,,,,,,,397,79.0256,0.0351787
,,,,,,,,,200,96.4,0.0321231
,,,,,,,,,221,178.189,0.0260528
,,,,,,,,,243,137.188,0.0434093
,,,,,,,,,266,60.2341,0.0405582
,,,,,,,,,290,132.249,0.0538333
,,,,,,,,,315,89.484,0.0337773
,,,,,,,,,341,119.384,0.0352081
,,,,,,,,,368,96.3303,0.03486
,,,,,,,,,396,60.5118,0.0372009
,,,,,,,,,425,118.075,0.040957
,,,,,,,,,242,84.8042,0.0242629
,,,,,,,,,265,40.9079,0.0386577
,,,,,,,,,289,150.345,0.0363802
,,,,,,,,,314,57.1901,0.0467128
,,,,,,,,,340,144.252,0.0308288
,,,,,,,,,367,138.684,0.0320163
,,,,,,,,,395,69.8237,0.0317282
,,,,,,,,,424,104.66,0.0336557
,,,,,,,,,454,108.481,0.0367008
,,,,,,,,,288,43.9448,0.0301919
,,,,,,,,,313,119.068,0.0287845
,,,,,,,,,339,49.5613,0.0348909
,,,,,,,,,366,90.3185,0.0251949
,,,,,,,,,394,60.0074,0.0259824
,,,,,,,,,423,85.3506,0.0257924
,,,,,,,,,453,120.52,0.0270519
,,,,,,,,,484,62.659,0.0289848
,,,,,,,,,338,158.748,0.0515629
,,,,,,,,,365,38.0846,0.0751105
,,,,,,,,,393,125.793,0.0410787
,,,,,,,,,422,101.759,0.0432144
,,,,,,,,,452,74.4931,0.0426912
,,,,,,,,,483,122.213,0.0462557
,,,,,,,,,515,86.6487,0.0522092
,,,,,,,,,392,123.613,0.0669652
,,,,,,,,,421,32.9547,0.0385164
,,,,,,,,,451,59.1833,0.040388
,,,,,,,,,482,93.3814,0.0399306
,,,,,,,,,514,49.31,0.0430323
,,,,,,,,,547,72.4559,0.0481391
,,,,,,,,,450,93.3487,0.0502945
,,,,,,,,,481,82.4454,0.0535338
,,,,,,,,,513,39.9408,0.0527332
,,,,,,,,,546,86.5604,0.0582808
,,,,,,,,,580,53.1671,0.0680594
,,,,,,,,,512,32.6986,0.0336592
,,,,,,,,,545,74.4946,0.0333409
,,,,,,,,,579,48.9108,0.0354759
,,,,,,,,,614,40.3718,0.0388759
,,,,,,,,,578,85.3346,0.0347342
,,,,,,,,,613,79.0144,0.0370576
,,,,,,,,,649,38.0301,0.0407834
,,,,,,,,,648,47.7852,0.0366722
,,,,,,,,,685,47.4436,0.0403171
,,,,,,,,,722,58.6357,0.0434815
