Q	U	V
{$V$}	{[mm$^3$]}	0.0139299
{$d_v$}	{[mm]}	0.298527
{$S_c$}	{[mm$^2$]}	0.505447
{$S_o$}	{[mm$^2$]}	0.337736
{$S_l/S_o$}	[]	0.496574
{$\Psi$}	[]	0.553912
{$\eta$}	[]	0.575627
{med($\theta_e$)}	{[$^\circ$]}	73.5085
{$\Upsilon$}	[]	11
{$\Xi$}	[]	13
