"cellPairingIds","interplanarAngles","angleWeights"
8,37.8589,0.0218519
13,62.1484,0.0323189
19,40.1887,0.0260284
26,97.266,0.0398269
34,62.2544,0.0296372
76,136.856,0.0295051
18,45.5881,0.0234998
42,35.9141,0.0220491
52,76.0215,0.0262632
41,36.3674,0.045663
62,47.2254,0.0430015
61,36.6622,0.0263087
100,43.4383,0.0341505
115,139.557,0.0262046
185,89.5461,0.0255137
85,26.637,0.0573985
130,95.6148,0.0402408
147,47.7561,0.082467
98,82.9003,0.0383807
113,43.0672,0.0466663
129,37.7868,0.0406438
183,58.0641,0.0399859
128,46.4062,0.0706642
182,47.4227,0.0741757
223,55.9574,0.042192
222,42.0731,0.0763039
244,61.558,0.0524243
243,40.5855,0.0614222
290,50.4987,0.0387772
242,55.5372,0.0478243
289,64.1615,0.0321238
314,67.7715,0.0288454
340,55.1788,0.0452928
313,35.3289,0.0543326
338,49.2009,0.04414
365,38.7122,0.0381778
393,43.0036,0.0735064
421,25.539,0.0510885
450,33.3422,0.0432678
