Q	U	V
{$V$}	{[mm$^3$]}	0.00179067
{$d_v$}	{[mm]}	0.150663
{$S_c$}	{[mm$^2$]}	0.0931714
{$S_o$}	{[mm$^2$]}	0.0752199
{$S_l/S_o$}	[]	0.238654
{$\Psi$}	[]	0.765383
{$\eta$}	[]	0.843442
{med($\theta_e$)}	{[$^\circ$]}	56.394
{$\Upsilon$}	[]	16
{$\Xi$}	[]	2
