facetNormals:0,facetNormals:1,facetNormals:2,FacetCenters:0,FacetCenters:1,FacetCenters:2,FacetIds,relFacetSize,absFacetSize,cellPairingIds,interplanarAngles,angleWeights
0.193676,-0.190048,-0.940245,3.77751,5.01554,7.56556,1,0.0225355,0.0101985,8,65.8942,0.034484
-0.446394,-0.786771,-0.344378,3.74996,4.9761,7.65995,2,0.0734032,0.033219,13,76.882,0.036158
0.480355,0.691557,-0.248198,3.82319,5.06111,7.67729,3,0.0914217,0.0413733,19,60.5066,0.0357695
0.83846,-0.274913,-0.24034,3.87064,5.00463,7.69068,4,0.0866619,0.0392193,26,72.9704,0.0182596
0.853257,0.453184,-0.217724,3.80959,5.02383,7.62467,5,0.0153475,0.00694558,34,88.9542,0.0220896
0.109511,0.961461,-0.190513,3.80436,5.07866,7.68803,6,0.0216609,0.00980276,43,101.275,0.0339613
0.842391,0.349093,0.298185,3.82468,5.03383,7.70189,7,0.0688892,0.0311761,53,97.2813,0.0381489
-0.189926,-0.863316,0.256803,3.72117,4.99599,7.70377,8,0.124198,0.0562065,64,121.901,0.0249041
-0.282878,0.875494,0.296438,3.77321,5.07025,7.77717,9,0.0278291,0.0125942,76,127.869,0.0275489
-0.629161,-0.462848,0.588968,3.74333,4.99847,7.72514,10,0.0354312,0.0160345,89,138.947,0.0284303
-0.735773,0.256083,0.541218,3.84522,4.99999,7.78769,11,0.0385016,0.0174241,103,171.329,0.0345125
-0.0444853,0.167266,0.898184,3.81004,5.03269,7.77944,12,0.0736616,0.0333359,18,142.385,0.0814276
,,,,,,,,,25,94.8748,0.0794835
,,,,,,,,,33,133.715,0.025387
,,,,,,,,,42,140.795,0.0334507
,,,,,,,,,52,144.224,0.0710746
,,,,,,,,,63,40.6907,0.0922721
,,,,,,,,,75,135.264,0.0403576
,,,,,,,,,88,62.1604,0.047793
,,,,,,,,,102,93.7104,0.0505097
,,,,,,,,,117,118.397,0.0735322
,,,,,,,,,32,70.1733,0.0889782
,,,,,,,,,41,26.6076,0.0262828
,,,,,,,,,51,27.9482,0.0350236
,,,,,,,,,62,47.2141,0.0785719
,,,,,,,,,74,158.534,0.105319
,,,,,,,,,87,62.1812,0.0426695
,,,,,,,,,101,153.497,0.0510698
,,,,,,,,,116,111.905,0.054184
,,,,,,,,,132,99.2176,0.0815863
,,,,,,,,,50,44.7556,0.0260769
,,,,,,,,,61,98.0758,0.034659
,,,,,,,,,73,52.1234,0.0767602
,,,,,,,,,86,88.8856,0.102089
,,,,,,,,,100,128.401,0.0421295
,,,,,,,,,115,127.276,0.0502982
,,,,,,,,,131,160.426,0.0533162
,,,,,,,,,148,110.954,0.0796347
,,,,,,,,,72,54.252,0.0179657
,,,,,,,,,85,31.276,0.0251025
,,,,,,,,,99,131.933,0.0273191
,,,,,,,,,114,84.5544,0.0197842
,,,,,,,,,130,154.553,0.0214176
,,,,,,,,,147,132.079,0.0219466
,,,,,,,,,165,100.026,0.0254024
,,,,,,,,,98,66.9093,0.0329587
,,,,,,,,,113,172.347,0.0368883
,,,,,,,,,129,37.7011,0.0243606
,,,,,,,,,146,130.464,0.0268854
,,,,,,,,,164,86.1677,0.0277243
,,,,,,,,,183,90.9634,0.0334775
,,,,,,,,,128,115.831,0.0886222
,,,,,,,,,145,80.3328,0.0396435
,,,,,,,,,163,123.351,0.0467948
,,,,,,,,,182,113.922,0.0493961
,,,,,,,,,202,70.7899,0.0711955
,,,,,,,,,162,134.709,0.0454698
,,,,,,,,,181,41.8914,0.0551338
,,,,,,,,,201,86.2146,0.058781
,,,,,,,,,222,83.5421,0.092476
,,,,,,,,,200,93.192,0.0311734
,,,,,,,,,221,49.7253,0.0323068
,,,,,,,,,243,61.2504,0.0403965
,,,,,,,,,242,44.3872,0.0369026
,,,,,,,,,265,57.5916,0.0478477
,,,,,,,,,288,49.6602,0.0505708
