Q	U	V
{$V$}	{[mm$^3$]}	0.00156387
{$d_v$}	{[mm]}	0.144013
{$S_c$}	{[mm$^2$]}	0.111572
{$S_o$}	{[mm$^2$]}	0.0841131
{$S_l/S_o$}	[]	0.326452
{$\Psi$}	[]	0.583977
{$\eta$}	[]	0.634021
{med($\theta_e$)}	{[$^\circ$]}	
{$\Upsilon$}	[]	13
{$\Xi$}	[]	2
