facetNormals:0,facetNormals:1,facetNormals:2,FacetCenters:0,FacetCenters:1,FacetCenters:2,FacetIds,relFacetSize,absFacetSize,cellPairingIds,interplanarAngles,angleWeights
-0.145805,0.0305102,-0.95846,3.57246,3.70149,5.41103,1,0.0416141,0.00908338,8,28.9816,0.0447844
-0.174933,0.495806,-0.819742,3.55629,3.76871,5.45262,2,0.0484776,0.0105815,13,55.3749,0.0281487
0.238883,0.766152,-0.582007,3.59574,3.79224,5.45124,3,0.0212671,0.00464211,19,71.4632,0.0567897
0.683488,0.529702,-0.392659,3.63575,3.75663,5.45726,4,0.0893868,0.019511,26,53.1716,0.0462584
-0.802791,0.330762,-0.464758,3.52166,3.70669,5.4467,5,0.0520696,0.0113656,34,72.2616,0.0610904
-0.952461,-0.0211014,-0.153302,3.48236,3.68432,5.54011,6,0.114837,0.0250662,43,76.0338,0.0296534
-0.124096,0.948401,-0.189071,3.57416,3.83038,5.51706,7,0.0230332,0.0050276,53,113.711,0.043563
0.911297,-0.219759,0.249103,3.64633,3.73932,5.55431,8,0.0457035,0.009976,64,112.019,0.049189
-0.635171,-0.550493,0.438869,3.49552,3.65709,5.57977,9,0.0601353,0.0131261,76,127.736,0.0355146
0.818787,0.224982,0.489744,3.62417,3.72963,5.56967,10,0.0309746,0.00676104,89,138.379,0.0230691
0.571405,-0.488823,0.648965,3.58783,3.68688,5.64208,11,0.0159577,0.00348319,103,137.317,0.0372824
0.0802303,-0.685769,0.694539,3.53877,3.65331,5.63309,12,0.0337674,0.00737064,118,140.594,0.0515798
0.362362,0.520404,0.700006,3.5904,3.77866,5.62246,13,0.0678218,0.0148039,134,148.025,0.0230156
-0.0876913,0.448671,0.875492,3.5363,3.80422,5.61309,14,0.0159066,0.00347203,151,155.93,0.0322423
-0.253955,-0.0805372,0.929659,3.52101,3.71465,5.63715,15,0.0263158,0.00574412,18,32.3976,0.0295643
,,,,,,,,,25,59.8203,0.0628626
,,,,,,,,,33,44.3852,0.0502094
,,,,,,,,,42,72.5485,0.0681754
,,,,,,,,,52,47.0528,0.0312287
,,,,,,,,,63,120.019,0.0470497
,,,,,,,,,75,124.391,0.0536808
,,,,,,,,,88,116.984,0.0377982
,,,,,,,,,102,154.668,0.0240114
,,,,,,,,,117,165.507,0.039807
,,,,,,,,,133,114.346,0.0565409
,,,,,,,,,150,119.928,0.0239535
,,,,,,,,,168,143.553,0.0341133
,,,,,,,,,32,32.0905,0.0343593
,,,,,,,,,41,70.1114,0.0301996
,,,,,,,,,51,99.2927,0.0358879
,,,,,,,,,62,33.3913,0.0221149
,,,,,,,,,74,95.7091,0.0290271
,,,,,,,,,87,151.863,0.0314217
,,,,,,,,,101,85.1045,0.0252189
,,,,,,,,,116,128.703,0.0182337
,,,,,,,,,132,159.682,0.0260976
,,,,,,,,,149,85.2301,0.0323805
,,,,,,,,,167,100.995,0.0182003
,,,,,,,,,186,133.789,0.0235236
,,,,,,,,,50,101.784,0.0658059
,,,,,,,,,61,131.063,0.100526
,,,,,,,,,73,57.9186,0.036628
,,,,,,,,,86,63.6652,0.0604823
,,,,,,,,,100,175.773,0.0718997
,,,,,,,,,115,58.4935,0.0460068
,,,,,,,,,131,97.5047,0.0270808
,,,,,,,,,148,128.669,0.0490176
,,,,,,,,,166,73.9192,0.0771252
,,,,,,,,,185,100.196,0.0270072
,,,,,,,,,205,129.264,0.0406608
,,,,,,,,,72,29.2798,0.071651
,,,,,,,,,85,58.5357,0.0319383
,,,,,,,,,99,164.4,0.0486793
,,,,,,,,,114,82.3779,0.0558125
,,,,,,,,,130,147.097,0.0388428
,,,,,,,,,147,160.485,0.0244287
,,,,,,,,,165,129.542,0.0409673
,,,,,,,,,184,118.518,0.0589109
,,,,,,,,,204,101.15,0.0243688
,,,,,,,,,225,105.52,0.0349619
,,,,,,,,,98,82.2316,0.0383703
,,,,,,,,,113,164.411,0.0653847
,,,,,,,,,129,53.1042,0.0789353
,,,,,,,,,146,155.35,0.0487894
,,,,,,,,,164,131.366,0.0280215
,,,,,,,,,183,100.266,0.0521888
,,,,,,,,,203,120.562,0.0852786
,,,,,,,,,224,93.6191,0.0279427
,,,,,,,,,246,83.7828,0.0428192
,,,,,,,,,128,112.94,0.0306298
,,,,,,,,,145,124.696,0.0333084
,,,,,,,,,163,88.8508,0.02642
,,,,,,,,,182,132.736,0.0188534
,,,,,,,,,202,146.006,0.027386
,,,,,,,,,223,69.9163,0.0343878
,,,,,,,,,245,73.6628,0.0188177
,,,,,,,,,268,103.533,0.0245653
,,,,,,,,,162,112.269,0.0519354
,,,,,,,,,181,30.5612,0.0369244
,,,,,,,,,201,34.9376,0.0236558
,,,,,,,,,222,65.3071,0.0388391
,,,,,,,,,244,64.7895,0.054608
,,,,,,,,,267,87.6324,0.0235996
,,,,,,,,,291,88.9095,0.0334
,,,,,,,,,200,117.486,0.0408884
,,,,,,,,,221,78.3017,0.0252223
,,,,,,,,,243,47.1642,0.0432493
,,,,,,,,,266,103.523,0.0637477
,,,,,,,,,290,78.111,0.0251584
,,,,,,,,,315,47.9956,0.0366105
,,,,,,,,,242,46.0531,0.0210637
,,,,,,,,,265,74.8091,0.0323108
,,,,,,,,,289,35.1964,0.042527
,,,,,,,,,314,61.7726,0.0210191
,,,,,,,,,340,76.0059,0.0284558
,,,,,,,,,288,31.2302,0.0216731
,,,,,,,,,313,64.2934,0.0258364
,,,,,,,,,339,72.2711,0.0159321
,,,,,,,,,366,58.8024,0.0198677
,,,,,,,,,338,80.1415,0.0450868
,,,,,,,,,365,72.3457,0.021626
,,,,,,,,,393,44.0649,0.0295795
,,,,,,,,,392,29.1705,0.0257693
,,,,,,,,,421,55.5414,0.0379186
,,,,,,,,,450,33.1114,0.0198281
