Q	U	V
{$V$}	{[mm$^3$]}	0.00623884
{$d_v$}	{[mm]}	0.228403
{$S_c$}	{[mm$^2$]}	0.294903
{$S_o$}	{[mm$^2$]}	0.16996
{$S_l/S_o$}	[]	0.735132
{$\Psi$}	[]	0.555743
{$\eta$}	[]	0.616393
{med($\theta_e$)}	{[$^\circ$]}	66.4283
{$\Upsilon$}	[]	13
{$\Xi$}	[]	10
