Q	U	V
{$V$}	{[mm$^3$]}	0.00534945
{$d_v$}	{[mm]}	0.216989
{$S_c$}	{[mm$^2$]}	0.282499
{$S_o$}	{[mm$^2$]}	0.167349
{$S_l/S_o$}	[]	0.688083
{$\Psi$}	[]	0.523608
{$\eta$}	[]	0.625829
{med($\theta_e$)}	{[$^\circ$]}	79.2575
{$\Upsilon$}	[]	11
{$\Xi$}	[]	10
