facetNormals:0,facetNormals:1,facetNormals:2,FacetCenters:0,FacetCenters:1,FacetCenters:2,FacetIds,relFacetSize,absFacetSize,cellPairingIds,interplanarAngles,angleWeights
0.300796,-0.0738943,-0.880139,4.58157,3.92055,9.68292,1,0.100484,0.0236441,8,37.4883,0.0500828
0.0638177,0.495766,-0.847398,4.59638,3.99871,9.69108,2,0.0333532,0.00784805,13,48.9559,0.0883944
-0.374423,-0.453441,-0.75737,4.51437,3.88866,9.6951,3,0.0789012,0.0185655,19,67.2657,0.0691671
-0.466301,0.595473,-0.606553,4.52678,3.98504,9.71738,4,0.0527324,0.012408,26,56.2286,0.0372665
0.430942,0.725244,-0.487913,4.62923,4.01904,9.71816,5,0.0228751,0.00538254,34,89.8871,0.0739701
-0.894273,-0.236935,-0.287759,4.4475,3.91596,9.74336,6,0.0585269,0.0137715,43,69.6355,0.0162567
0.167077,-0.950572,-0.229033,4.59674,3.82267,9.72908,7,0.00884376,0.00208095,53,96.0209,0.0881768
-0.699336,-0.637799,-0.0798361,4.48109,3.8533,9.77824,8,0.0785552,0.0184841,64,66.8882,0.0496231
0.926449,0.298284,-0.116309,4.68,4.01276,9.77346,9,0.0329467,0.00775241,76,108.843,0.0818742
0.00808157,0.862181,0.236498,4.57187,4.01186,9.79395,10,0.0690802,0.0162546,89,79.0483,0.0194953
0.983591,0.0734405,0.129628,4.67187,3.91178,9.74963,11,0.0107948,0.00254003,103,80.5237,0.110659
0.815795,-0.463596,0.151826,4.65191,3.88595,9.77836,12,0.123127,0.0289719,118,111.837,0.0658791
-0.184745,-0.850483,0.383252,4.55049,3.82501,9.83338,13,0.0490031,0.0115305,18,65.3737,0.0468865
,,,,,,,,,25,35.1969,0.0408615
,,,,,,,,,33,33.3939,0.0271379
,,,,,,,,,42,85.8301,0.0424915
,,,,,,,,,52,105.848,0.0139805
,,,,,,,,,63,108.284,0.0468252
,,,,,,,,,75,71.5273,0.0331487
,,,,,,,,,88,75.0076,0.0449862
,,,,,,,,,102,90.6245,0.0163107
,,,,,,,,,117,109.128,0.0524882
,,,,,,,,,133,144.134,0.0396912
,,,,,,,,,32,66.9506,0.0632156
,,,,,,,,,41,97.4201,0.0354675
,,,,,,,,,51,44.7099,0.0672038
,,,,,,,,,62,55.2655,0.0159048
,,,,,,,,,74,47.8232,0.0787278
,,,,,,,,,87,114.788,0.0464834
,,,,,,,,,101,131.951,0.0736648
,,,,,,,,,116,121.595,0.0189913
,,,,,,,,,132,103.336,0.0961734
,,,,,,,,,149,79.6033,0.0604578
,,,,,,,,,50,56.1083,0.0319084
,,,,,,,,,61,61.3432,0.0554788
,,,,,,,,,73,121.678,0.0151472
,,,,,,,,,86,90.3276,0.0631043
,,,,,,,,,100,101.154,0.040555
,,,,,,,,,115,65.0099,0.0598093
,,,,,,,,,131,120.779,0.017921
,,,,,,,,,148,144.321,0.0738406
,,,,,,,,,166,135.073,0.0507994
,,,,,,,,,72,116.196,0.0328938
,,,,,,,,,85,121.538,0.0127559
,,,,,,,,,99,141.553,0.0354324
,,,,,,,,,114,45.2666,0.0270023
,,,,,,,,,130,53.8992,0.0343692
,,,,,,,,,147,64.7284,0.0146678
,,,,,,,,,165,93.6355,0.0385822
,,,,,,,,,184,162.407,0.0311903
,,,,,,,,,98,81.5201,0.0153657
,,,,,,,,,113,29.6858,0.067078
,,,,,,,,,129,155.725,0.0421602
,,,,,,,,,146,108.829,0.0633672
,,,,,,,,,164,165.783,0.0182277
,,,,,,,,,183,136.084,0.0793404
,,,,,,,,,203,73.8394,0.0533433
,,,,,,,,,128,57.3942,0.0158977
,,,,,,,,,145,96.0284,0.0139445
,,,,,,,,,163,169.631,0.0156801
,,,,,,,,,182,86.2328,0.00972237
,,,,,,,,,202,54.8959,0.0165022
,,,,,,,,,223,43.0079,0.0149834
,,,,,,,,,162,152.902,0.0464232
,,,,,,,,,181,132.564,0.0735137
,,,,,,,,,201,142.043,0.0189813
,,,,,,,,,222,108.532,0.095916
,,,,,,,,,244,44.7914,0.0603559
,,,,,,,,,200,74.2994,0.044615
,,,,,,,,,221,19.6952,0.0162616
,,,,,,,,,243,49.923,0.0519836
,,,,,,,,,266,120.238,0.039402
,,,,,,,,,242,83.4197,0.0186719
,,,,,,,,,265,114.855,0.0885049
,,,,,,,,,289,139.253,0.0573349
,,,,,,,,,288,33.5517,0.0198494
,,,,,,,,,313,101.864,0.0176922
,,,,,,,,,338,70.4986,0.0701052
