"cellPairingIds","interplanarAngles","angleWeights"
8,51.2531,0.0324962
13,102.753,0.0218061
19,53.0173,0.012548
64,75.9791,0.0446111
76,102.536,0.040229
89,100.957,0.0627693
18,100.23,0.0194975
42,74.5563,0.0185696
52,48.9671,0.0448163
88,65.0779,0.0330168
51,65.9384,0.0145059
74,44.3097,0.0168463
116,88.8652,0.027437
132,88.326,0.0206374
149,103.831,0.0255242
100,36.65,0.0130265
131,58.0506,0.0142283
98,44.2906,0.0250237
183,41.5793,0.0196006
163,26.745,0.0609825
202,56.386,0.0513333
245,53.8043,0.103031
222,53.6486,0.0241304
244,65.703,0.0310903
200,70.3806,0.0455982
221,70.9281,0.0768972
266,64.5006,0.0635493
290,61.5816,0.0656239
314,30.7158,0.0565609
313,39.3811,0.108094
338,67.0219,0.0470368
365,41.9306,0.0481639
392,61.0057,0.0870685
