facetNormals:0,facetNormals:1,facetNormals:2,FacetCenters:0,FacetCenters:1,FacetCenters:2,FacetIds,relFacetSize,absFacetSize,cellPairingIds,interplanarAngles,angleWeights
0.363147,-0.0696785,-0.874352,4.86599,5.46608,6.33806,1,0.07115,0.0189649,8,42.9061,0.0248261
-0.0269216,0.51743,-0.831708,4.76662,5.54464,6.30494,2,0.0150364,0.0040079,13,56.1022,0.0497356
-0.369602,-0.534633,-0.6809,4.7951,5.52516,6.42102,3,0.0382295,0.01019,19,48.4148,0.0530952
0.558107,0.605646,-0.517371,4.84951,5.5356,6.34424,4,0.0423489,0.011288,26,85.1772,0.0394546
-0.787211,0.316245,-0.439369,4.68881,5.54664,6.34163,5,0.0272952,0.00727548,34,50.9343,0.0251314
0.470797,-0.760113,-0.419741,4.87395,5.39822,6.37659,6,0.0152609,0.00406776,43,40.776,0.0268121
0.807195,-0.346547,-0.447827,4.94244,5.41155,6.39174,7,0.0165184,0.00440294,53,73.0618,0.0587975
0.070216,0.895835,-0.346916,4.77366,5.56333,6.34589,8,0.0500997,0.0133539,64,100.207,0.0929299
-0.0726314,-0.880189,0.214851,4.79095,5.46027,6.44445,9,0.133927,0.0356978,76,119.164,0.0714651
-0.855346,-0.342381,0.167491,4.70908,5.47104,6.44511,10,0.0717831,0.0191336,89,122.882,0.0338069
-0.71718,0.630247,0.230922,4.68434,5.55109,6.41503,11,0.0221706,0.00590952,103,99.4191,0.0714775
0.671018,0.575329,0.405655,4.91611,5.48234,6.45418,12,0.071808,0.0191402,118,113.002,0.0861292
0.150719,0.876642,0.407915,4.81384,5.54116,6.45411,13,0.109098,0.0290797,134,101.231,0.0665721
0.727213,-0.331051,0.531334,4.90458,5.39944,6.48492,14,0.0625477,0.0166719,151,150.525,0.0434034
-0.506984,0.492874,0.672551,4.73292,5.49561,6.4987,15,0.031226,0.00832322,169,141.05,0.061575
0.257476,0.214521,0.903643,4.84203,5.43548,6.54727,16,0.0542714,0.0144659,18,71.0443,0.0215835
,,,,,,,,,25,40.1331,0.0221929
,,,,,,,,,33,54.0013,0.0193908
,,,,,,,,,42,93.369,0.0151478
,,,,,,,,,52,79.7807,0.0157426
,,,,,,,,,63,37.3642,0.0231306
,,,,,,,,,75,135.217,0.0270372
,,,,,,,,,88,108.65,0.0248644
,,,,,,,,,102,80.8322,0.0179195
,,,,,,,,,117,93.4747,0.0248659
,,,,,,,,,133,83.3962,0.02643
,,,,,,,,,150,132.298,0.0242444
,,,,,,,,,168,107.698,0.0202984
,,,,,,,,,187,133.284,0.0235484
,,,,,,,,,32,101.198,0.0401839
,,,,,,,,,41,62.0833,0.03185
,,,,,,,,,51,56.1291,0.0218139
,,,,,,,,,62,78.0701,0.023069
,,,,,,,,,74,107.237,0.043367
,,,,,,,,,87,65.7703,0.0594802
,,,,,,,,,101,64.0917,0.0498894
,,,,,,,,,116,104.347,0.0280652
,,,,,,,,,132,155.317,0.0498954
,,,,,,,,,149,150.552,0.0566188
,,,,,,,,,167,120.143,0.0474545
,,,,,,,,,186,125.549,0.0343747
,,,,,,,,,206,155.44,0.0448594
,,,,,,,,,50,91.2641,0.0331951
,,,,,,,,,61,88.8334,0.0224366
,,,,,,,,,73,60.4947,0.0237666
,,,,,,,,,86,35.6539,0.0458994
,,,,,,,,,100,140.769,0.0643498
,,,,,,,,,115,147.883,0.0532705
,,,,,,,,,131,98.3069,0.0291044
,,,,,,,,,148,57.1515,0.0532774
,,,,,,,,,166,64.8822,0.0610138
,,,,,,,,,185,94.2728,0.0505036
,,,,,,,,,205,110.501,0.0359467
,,,,,,,,,226,101.938,0.0475746
,,,,,,,,,72,116.875,0.0195765
,,,,,,,,,85,125.592,0.0205814
,,,,,,,,,99,65.5799,0.0353378
,,,,,,,,,114,111.31,0.0453482
,,,,,,,,,130,56.6778,0.0395513
,,,,,,,,,147,45.1006,0.0244675
,,,,,,,,,165,124.369,0.039555
,,,,,,,,,184,91.265,0.0436657
,,,,,,,,,204,173.371,0.0380053
,,,,,,,,,225,73.8405,0.0291286
,,,,,,,,,247,125.284,0.0363225
,,,,,,,,,98,31.3848,0.0158648
,,,,,,,,,113,121.865,0.0233953
,,,,,,,,,129,52.6502,0.0273996
,,,,,,,,,146,103.298,0.0251706
,,,,,,,,,164,160.333,0.018078
,,,,,,,,,183,107.676,0.0251721
,,,,,,,,,203,142.478,0.0267763
,,,,,,,,,224,66.9569,0.0245354
,,,,,,,,,246,158.309,0.020502
,,,,,,,,,269,116.257,0.0238229
,,,,,,,,,128,95.9476,0.0248451
,,,,,,,,,145,80.3532,0.0294095
,,,,,,,,,163,134.467,0.0268567
,,,,,,,,,182,158.433,0.0189316
,,,,,,,,,202,80.3587,0.0268584
,,,,,,,,,223,112.215,0.0286925
,,,,,,,,,245,60.647,0.0261348
,,,,,,,,,268,156.327,0.0216069
,,,,,,,,,292,106.581,0.0253279
,,,,,,,,,162,172.559,0.0729209
,,,,,,,,,181,118.102,0.0590126
,,,,,,,,,201,62.6882,0.0307385
,,,,,,,,,222,63.2398,0.059021
,,,,,,,,,244,46.0321,0.0686664
,,,,,,,,,267,117.714,0.0556359
,,,,,,,,,291,79.418,0.0384728
,,,,,,,,,316,96.3846,0.0521022
,,,,,,,,,200,62.0093,0.0934682
,,,,,,,,,221,120.491,0.0380434
,,,,,,,,,243,121.965,0.0934893
,,,,,,,,,266,141.377,0.120244
,,,,,,,,,290,66.1452,0.0852711
,,,,,,,,,315,106.539,0.050644
,,,,,,,,,341,90.8746,0.0772419
,,,,,,,,,242,61.6826,0.0338779
,,,,,,,,,265,140.526,0.0717955
,,,,,,,,,289,113.183,0.0865914
,,,,,,,,,314,117.844,0.0668479
,,,,,,,,,340,65.5971,0.0435205
,,,,,,,,,367,99.0734,0.0618109
,,,,,,,,,288,91.4976,0.0338806
,,,,,,,,,313,55.9219,0.0368522
,,,,,,,,,339,130.129,0.0327372
,,,,,,,,,366,30.0718,0.0259305
,,,,,,,,,394,80.3181,0.0314809
,,,,,,,,,338,35.895,0.0866095
,,,,,,,,,365,56.6487,0.0668587
,,,,,,,,,393,76.8324,0.043525
,,,,,,,,,422,45.0021,0.0618201
,,,,,,,,,392,87.7948,0.0795105
,,,,,,,,,421,48.7207,0.0485547
,,,,,,,,,451,50.8483,0.0724847
,,,,,,,,,450,100.74,0.0416559
,,,,,,,,,481,49.8459,0.0581163
,,,,,,,,,512,51.6974,0.0396428
