facetNormals:0,facetNormals:1,facetNormals:2,FacetCenters:0,FacetCenters:1,FacetCenters:2,FacetIds,relFacetSize,absFacetSize,cellPairingIds,interplanarAngles,angleWeights
-0.330162,0.653279,-0.653956,6.82961,4.02924,7.29696,1,0.0581175,0.00524537,8,52.671,0.0318855
0.526701,0.47841,-0.690293,6.88915,4.02636,7.2891,2,0.0219694,0.00198284,13,92.717,0.0762533
0.71385,-0.298572,-0.589457,6.90319,3.95577,7.31315,3,0.110842,0.010004,19,27.658,0.0327698
-0.711986,0.516014,-0.421305,6.80729,4.02915,7.32424,4,0.0228179,0.00205941,26,79.8483,0.0594335
0.853143,0.376227,-0.315275,6.92368,4.03003,7.34512,5,0.0608105,0.00548842,34,106.962,0.0499064
0.972441,-0.063081,-0.123836,6.94112,3.97013,7.37532,6,0.0437283,0.00394668,43,41.1816,0.0604098
-0.0717689,0.973237,-0.0996713,6.84826,4.0661,7.36072,7,0.0628904,0.00567614,53,77.2451,0.0343925
-0.877978,-0.221226,-0.0789085,6.81392,4.01117,7.34659,8,0.0244226,0.00220425,64,135.557,0.033919
0.842305,-0.494435,0.137815,6.91687,3.90405,7.39619,9,0.0239478,0.0021614,76,148.703,0.0680579
0.704843,-0.280214,0.623535,6.90278,3.91768,7.43724,10,0.0821002,0.00740991,89,108.078,0.0462159
0.653487,0.452236,0.58012,6.9098,4.02926,7.41972,11,0.0383603,0.00346219,103,80.859,0.0656588
-0.0839146,0.769116,0.580106,6.84929,4.04101,7.41605,12,0.0754491,0.00680962,118,94.4638,0.0722371
-0.524927,0.347688,0.724472,6.81735,3.9898,7.43913,13,0.095419,0.008612,134,130.909,0.0508202
0.607454,0.104028,0.755764,6.90285,3.97956,7.44799,14,0.0451509,0.00407508,151,122.77,0.0399991
-0.423092,-0.137051,0.871782,6.83687,3.94839,7.46249,15,0.0304928,0.00275211,169,141.536,0.0318275
0.140635,-0.120201,0.973608,6.85851,3.93842,7.46233,16,0.0219144,0.00197787,18,48.4153,0.0366705
,,,,,,,,,25,80.3107,0.0223856
,,,,,,,,,33,29.7723,0.0322777
,,,,,,,,,42,54.3566,0.0292456
,,,,,,,,,52,59.2921,0.0325635
,,,,,,,,,63,124.768,0.0231311
,,,,,,,,,75,83.425,0.022916
,,,,,,,,,88,101.45,0.0346632
,,,,,,,,,102,80.5534,0.0279383
,,,,,,,,,117,94.5883,0.0340299
,,,,,,,,,133,129.89,0.0357156
,,,,,,,,,150,99.0448,0.029557
,,,,,,,,,168,156.567,0.0255387
,,,,,,,,,187,131.852,0.0219419
,,,,,,,,,32,115.88,0.037845
,,,,,,,,,41,44.5306,0.0785349
,,,,,,,,,51,34.6549,0.0627149
,,,,,,,,,62,107.256,0.0802486
,,,,,,,,,74,125.564,0.040026
,,,,,,,,,87,45.9032,0.0393861
,,,,,,,,,101,76.7279,0.0943302
,,,,,,,,,116,90.6279,0.0569955
,,,,,,,,,132,132.171,0.0897834
,,,,,,,,,149,165.911,0.102554
,,,,,,,,,167,92.5932,0.0641647
,,,,,,,,,186,144.497,0.047828
,,,,,,,,,206,116.998,0.0365938
,,,,,,,,,50,106.992,0.0331841
,,,,,,,,,61,134.619,0.0299878
,,,,,,,,,73,51.5092,0.0334862
,,,,,,,,,86,52.1131,0.023593
,,,,,,,,,100,161.661,0.0233692
,,,,,,,,,115,161.732,0.0357107
,,,,,,,,,131,119.769,0.0286148
,,,,,,,,,148,76.9925,0.035039
,,,,,,,,,166,74.6381,0.0368287
,,,,,,,,,185,137.161,0.0303153
,,,,,,,,,205,98.2406,0.0261029
,,,,,,,,,226,126.321,0.022357
,,,,,,,,,72,29.0863,0.0508738
,,,,,,,,,85,69.6129,0.061833
,,,,,,,,,99,154.496,0.0348492
,,,,,,,,,114,59.7472,0.0343631
,,,,,,,,,130,71.9581,0.0698696
,,,,,,,,,147,55.7703,0.0470443
,,,,,,,,,165,87.9,0.0673435
,,,,,,,,,184,125.263,0.0742815
,,,,,,,,,204,70.5821,0.0518236
,,,,,,,,,225,135.526,0.0406181
,,,,,,,,,247,103.771,0.0322182
,,,,,,,,,98,97.0842,0.0515874
,,,,,,,,,113,158.394,0.031341
,,,,,,,,,129,30.6917,0.0309473
,,,,,,,,,146,49.5421,0.0570634
,,,,,,,,,164,56.3828,0.0408688
,,,,,,,,,183,102.275,0.0553672
,,,,,,,,,203,131.285,0.0599726
,,,,,,,,,224,59.1967,0.0444282
,,,,,,,,,246,122.091,0.0359304
,,,,,,,,,269,88.6007,0.0291968
,,,,,,,,,128,99.323,0.0351826
,,,,,,,,,145,125.029,0.0346872
,,,,,,,,,163,113.589,0.0712227
,,,,,,,,,182,69.6649,0.0476539
,,,,,,,,,202,42.7356,0.0685997
,,,,,,,,,223,71.1734,0.0758128
,,,,,,,,,245,91.059,0.0525643
,,,,,,,,,268,101.409,0.0410717
,,,,,,,,,292,103.329,0.032503
,,,,,,,,,162,135.647,0.0241829
,,,,,,,,,181,132.775,0.0376464
,,,,,,,,,201,143.579,0.0298444
,,,,,,,,,222,99.3146,0.0369006
,,,,,,,,,244,68,0.038891
,,,,,,,,,267,134.027,0.0316989
,,,,,,,,,291,68.0143,0.0271222
,,,,,,,,,316,101.12,0.0231006
,,,,,,,,,200,32.3529,0.0370798
,,,,,,,,,221,65.2196,0.0294872
,,,,,,,,,243,112.89,0.036356
,,,,,,,,,266,122.897,0.0382866
,,,,,,,,,290,54.0745,0.0312962
,,,,,,,,,315,100.05,0.0268269
,,,,,,,,,341,71.3829,0.022886
,,,,,,,,,242,43.9447,0.0522892
,,,,,,,,,265,84.7396,0.0786342
,,,,,,,,,289,90.9535,0.0882599
,,,,,,,,,314,24.6536,0.0582612
,,,,,,,,,340,72.824,0.0444693
,,,,,,,,,367,40.505,0.0345947
,,,,,,,,,288,48.5756,0.0508614
,,,,,,,,,313,75.6238,0.0547215
,,,,,,,,,339,23.1211,0.0414795
,,,,,,,,,366,79.9963,0.0339771
,,,,,,,,,394,51.8489,0.0278937
,,,,,,,,,338,37.9678,0.0842671
,,,,,,,,,365,60.2838,0.0564941
,,,,,,,,,393,62.5798,0.0434324
,,,,,,,,,422,61.2774,0.0339639
,,,,,,,,,392,73.5649,0.061297
,,,,,,,,,421,30.9018,0.0462164
,,,,,,,,,451,51.6859,0.0356428
,,,,,,,,,450,66.0388,0.0364017
,,,,,,,,,481,33.1939,0.0295072
,,,,,,,,,512,33.8231,0.0255015
