"cellPairingIds","interplanarAngles","angleWeights"
8,52.2195,0.0151765
13,59.59,0.026265
19,39.1519,0.0236436
89,78.0114,0.0299984
18,60.2855,0.0245012
25,64.733,0.0222046
33,29.5338,0.0226543
42,32.1566,0.0233751
51,60.8862,0.066833
62,57.5092,0.0415733
74,42.8252,0.0619252
116,100.835,0.121094
50,54.0808,0.0486734
100,37.8617,0.0537589
115,73.7753,0.0630826
131,74.3833,0.0801323
72,46.408,0.0546745
130,43.3212,0.0668525
113,47.3925,0.0552035
146,68.7329,0.0735445
128,53.5556,0.0367566
163,149.351,0.0440753
182,76.1938,0.0517717
181,107.284,0.0676451
200,50.2615,0.0768356
221,77.1086,0.103714
242,124.31,0.145084
