"cellPairingIds","interplanarAngles","angleWeights"
8,41.2096,0.0410564
13,51.8475,0.0558988
26,42.1534,0.0223719
34,59.5809,0.0668528
18,57.2225,0.0487535
25,40.0086,0.0573689
42,78.5079,0.0568825
52,59.4031,0.0482828
63,70.7004,0.0258705
32,44.969,0.0912092
41,62.8988,0.0244777
87,91.3602,0.087542
116,77.5441,0.0773655
73,49.2404,0.0895755
115,57.8533,0.0632651
131,83.761,0.101571
72,61.3224,0.0263697
114,44.1487,0.0261557
113,54.9922,0.0341816
129,75.1799,0.11776
183,75.8874,0.0114965
128,55.2216,0.0308768
163,18.7249,0.0523923
181,64.3904,0.0270055
222,94.1808,0.0092544
221,82.1683,0.0970436
243,44.7123,0.0114557
242,79.5976,0.0562798
265,115.778,0.0105533
288,82.2391,0.0112618
