facetNormals:0,facetNormals:1,facetNormals:2,FacetCenters:0,FacetCenters:1,FacetCenters:2,FacetIds,relFacetSize,absFacetSize,cellPairingIds,interplanarAngles,angleWeights
0.290791,0.156562,-0.916024,6.917,3.2357,7.37615,1,0.0591921,0.0143442,8,56.3607,0.0367794
-0.396898,-0.437976,-0.774624,6.8777,3.20054,7.38843,2,0.026678,0.00646495,13,37.3835,0.0584932
-0.219094,0.501521,-0.808454,6.88762,3.2968,7.38927,3,0.0578106,0.0140094,19,75.9875,0.0553923
-0.810212,-0.110088,-0.526301,6.80899,3.22228,7.41845,4,0.0520508,0.0126136,26,43.6545,0.0674867
0.727544,-0.272478,-0.545872,6.99341,3.16881,7.43887,5,0.0784847,0.0190194,34,73.351,0.0552022
-0.707007,0.523864,-0.433677,6.83464,3.33294,7.43155,6,0.0517162,0.0125325,43,39.396,0.069016
0.591268,0.567736,-0.507045,6.9826,3.3169,7.43644,7,0.0827496,0.0200529,53,87.5975,0.0215928
-0.925227,0.21984,-0.30058,6.77952,3.25996,7.44853,8,0.0132049,0.00319999,64,78.9007,0.0598222
0.0532207,-0.888939,-0.329338,6.876,3.12256,7.41216,9,0.0604658,0.0146528,76,71.682,0.0191663
0.0716455,0.975693,-0.14071,6.94165,3.43236,7.50412,10,0.0114344,0.00277093,89,80.5176,0.0870167
0.871458,0.134743,0.143222,7.01366,3.28665,7.50731,11,0.164205,0.0397921,103,111.009,0.0575132
-0.873004,0.400629,0.16261,6.78987,3.26924,7.48586,12,0.0559268,0.0135529,118,87.7748,0.0319136
-0.310727,0.92732,0.0194796,6.87026,3.38129,7.47471,13,0.021846,0.00529399,134,111.49,0.0203275
0.457642,0.605019,0.633591,7.00314,3.33057,7.53219,14,0.0122707,0.00297359,151,151.608,0.0589701
-0.371286,0.29631,0.814646,6.92672,3.36717,7.57111,15,0.0587497,0.014237,18,58.7454,0.0365084
,,,,,,,,,25,34.8576,0.0352758
,,,,,,,,,33,74.102,0.0398205
,,,,,,,,,42,66.1099,0.0351986
,,,,,,,,,52,95.5334,0.040348
,,,,,,,,,63,58.7754,0.0176658
,,,,,,,,,75,47.642,0.0370217
,,,,,,,,,88,111.105,0.0160077
,,,,,,,,,102,126.341,0.0458989
,,,,,,,,,117,87.2788,0.0361242
,,,,,,,,,133,108.214,0.0240214
,,,,,,,,,150,166.748,0.0168097
,,,,,,,,,168,131.885,0.0366936
,,,,,,,,,32,54.7582,0.0547797
,,,,,,,,,41,80.9845,0.0665797
,,,,,,,,,51,36.665,0.0545938
,,,,,,,,,62,53.0909,0.0680677
,,,,,,,,,74,55.1808,0.0214991
,,,,,,,,,87,101.905,0.0591084
,,,,,,,,,101,52.5022,0.0190925
,,,,,,,,,116,105.914,0.0855146
,,,,,,,,,132,74.0894,0.0568531
,,,,,,,,,149,57.1945,0.0317093
,,,,,,,,,167,108.681,0.0202444
,,,,,,,,,186,117.749,0.0582764
,,,,,,,,,50,107.145,0.0625913
,,,,,,,,,61,38.8029,0.051883
,,,,,,,,,73,107.043,0.0639046
,,,,,,,,,86,24.3402,0.0210657
,,,,,,,,,100,75.6983,0.0559436
,,,,,,,,,115,95.4573,0.0187499
,,,,,,,,,131,156.437,0.0790452
,,,,,,,,,148,52.4282,0.0539192
,,,,,,,,,166,81.5718,0.0307754
,,,,,,,,,185,143.326,0.0198596
,,,,,,,,,205,100.083,0.0551978
,,,,,,,,,72,116.829,0.0623487
,,,,,,,,,85,52.8829,0.0805607
,,,,,,,,,99,126.929,0.0226064
,,,,,,,,,114,59.267,0.0683069
,,,,,,,,,130,98.3892,0.0199607
,,,,,,,,,147,52.2658,0.106206
,,,,,,,,,165,154.239,0.0653129
,,,,,,,,,184,121.796,0.0341785
,,,,,,,,,204,100.919,0.0212233
,,,,,,,,,225,152.685,0.0671982
,,,,,,,,,98,83.973,0.0636518
,,,,,,,,,113,23.1449,0.0210381
,,,,,,,,,129,112.769,0.0557498
,,,,,,,,,146,57.463,0.018728
,,,,,,,,,164,133.896,0.0786588
,,,,,,,,,183,37.6607,0.0537392
,,,,,,,,,203,43.4172,0.0307166
,,,,,,,,,224,106.87,0.0198351
,,,,,,,,,246,86.0061,0.055009
,,,,,,,,,128,106.302,0.0227754
,,,,,,,,,145,109.549,0.069874
,,,,,,,,,163,45.5072,0.0200924
,,,,,,,,,182,52.9222,0.110044
,,,,,,,,,202,113.284,0.0667442
,,,,,,,,,223,69.3256,0.0345664
,,,,,,,,,245,72.0992,0.0213722
,,,,,,,,,268,120.723,0.0687143
,,,,,,,,,162,98.849,0.0216761
,,,,,,,,,181,78.8574,0.0122561
,,,,,,,,,201,156.926,0.0244441
,,,,,,,,,222,29.3492,0.0213653
,,,,,,,,,244,60.156,0.0164603
,,,,,,,,,267,119.196,0.0127207
,,,,,,,,,291,79.9706,0.0215632
,,,,,,,,,200,150.548,0.0192319
,,,,,,,,,221,98.1717,0.0883851
,,,,,,,,,243,119.547,0.0581078
,,,,,,,,,266,155.82,0.0320959
,,,,,,,,,290,140.308,0.0204012
,,,,,,,,,315,128.016,0.0595954
,,,,,,,,,242,78.6516,0.02138
,,,,,,,,,265,71.5043,0.0189869
,,,,,,,,,289,24.5001,0.0150116
,,,,,,,,,314,56.8683,0.0118378
,,,,,,,,,340,80.8712,0.019143
,,,,,,,,,288,141.753,0.083436
,,,,,,,,,313,99.4211,0.0385616
,,,,,,,,,339,49.7028,0.022835
,,,,,,,,,366,101.43,0.0865377
,,,,,,,,,338,47.3257,0.0314191
,,,,,,,,,365,93.2212,0.0201257
,,,,,,,,,393,51.228,0.0573035
,,,,,,,,,392,63.5141,0.0157146
,,,,,,,,,421,63.8871,0.0318489
,,,,,,,,,450,55.6809,0.0203012
