facetNormals:0,facetNormals:1,facetNormals:2,FacetCenters:0,FacetCenters:1,FacetCenters:2,FacetIds,relFacetSize,absFacetSize,cellPairingIds,interplanarAngles,angleWeights
0.30286,-0.44345,-0.796852,4.8448,4.05435,6.02745,1,0.0637299,0.0175818,8,74.3148,0.0480273
-0.388604,0.496539,-0.74129,4.78376,4.13671,6.05652,2,0.0385331,0.0106305,13,43.6979,0.0580804
-0.337036,-0.68896,-0.58645,4.78514,4.01465,6.058,3,0.053351,0.0147185,19,39.1665,0.023798
0.827467,-0.177742,-0.510823,4.85851,4.1131,6.03004,4,0.0146307,0.00403632,26,62.6344,0.0256613
0.916528,0.192063,-0.304331,4.90987,4.13645,6.07808,5,0.016065,0.00443202,34,77.8954,0.0453179
0.662207,0.598936,-0.321608,4.85634,4.16222,6.04514,6,0.0351599,0.00969994,43,63.6577,0.0573208
0.0339177,-0.9595,0.032816,4.82349,3.97801,6.13122,7,0.0520829,0.0143687,53,86.8065,0.0462939
-0.892065,-0.276895,-0.249908,4.7289,4.06548,6.06721,8,0.036349,0.010028,64,132.629,0.0780888
-0.133696,0.913965,0.215101,4.84129,4.17567,6.1653,9,0.1008,0.0278088,76,115.635,0.0393636
0.416296,0.868161,0.186762,4.85823,4.17333,6.16513,10,0.0284761,0.007856,89,118.33,0.0508033
-0.922824,0.286704,0.0432525,4.75978,4.13371,6.10956,11,0.0422364,0.0116522,103,141.29,0.0543162
-0.596925,0.725717,0.296418,4.80616,4.1534,6.1804,12,0.0473257,0.0130562,118,101.769,0.0583635
-0.570555,-0.68019,0.401308,4.78569,4.02309,6.1785,13,0.0538308,0.0148509,134,152.77,0.0499362
-0.678195,0.220522,0.665176,4.75726,4.10339,6.21168,14,0.0410511,0.0113252,151,100.521,0.060211
0.228981,-0.647406,0.656497,4.80805,4.03695,6.222,15,0.0570603,0.0157418,169,134.249,0.0327515
0.445193,0.433959,0.7427,4.87522,4.13473,6.25143,16,0.0220387,0.00608005,188,132.333,0.0429394
-0.3904,-0.33562,0.835061,4.86954,4.07732,6.26381,17,0.0323771,0.00893222,18,76.2325,0.0447472
,,,,,,,,,25,91.8552,0.0212086
,,,,,,,,,33,92.1053,0.0226761
,,,,,,,,,42,72.4521,0.0367693
,,,,,,,,,52,123.348,0.0442949
,,,,,,,,,63,65.2179,0.0374092
,,,,,,,,,75,67.9617,0.0557532
,,,,,,,,,88,82.1198,0.0327499
,,,,,,,,,102,60.1242,0.0402998
,,,,,,,,,117,67.1352,0.0424791
,,,,,,,,,133,115.856,0.0449151
,,,,,,,,,150,97.2665,0.0397522
,,,,,,,,,168,166.004,0.0460013
,,,,,,,,,187,122.618,0.0280401
,,,,,,,,,207,131.609,0.0351879
,,,,,,,,,32,81.3745,0.0229639
,,,,,,,,,41,106.045,0.0246942
,,,,,,,,,51,119.214,0.0423861
,,,,,,,,,62,47.1841,0.0527094
,,,,,,,,,74,46.8898,0.0432387
,,,,,,,,,87,140.916,0.069773
,,,,,,,,,101,153.572,0.0371327
,,,,,,,,,116,84.5851,0.0471475
,,,,,,,,,132,119.79,0.050158
,,,,,,,,,149,63.1013,0.0535898
,,,,,,,,,167,109.445,0.0463998
,,,,,,,,,186,91.0083,0.0551434
,,,,,,,,,206,161.072,0.0311922
,,,,,,,,,227,97.7005,0.0402984
,,,,,,,,,50,25.3402,0.0153143
,,,,,,,,,61,49.7815,0.0206631
,,,,,,,,,73,78.9605,0.0228442
,,,,,,,,,86,125.96,0.0208637
,,,,,,,,,100,114.109,0.0255526
,,,,,,,,,115,84.3911,0.0193299
,,,,,,,,,131,151.04,0.0217331
,,,,,,,,,148,142.654,0.0223515
,,,,,,,,,166,125.275,0.023008
,,,,,,,,,185,167.221,0.0215728
,,,,,,,,,205,91.8799,0.0232897
,,,,,,,,,226,95.2817,0.0175864
,,,,,,,,,248,135.354,0.0201541
,,,,,,,,,72,28.6776,0.0220535
,,,,,,,,,85,99.9342,0.0245558
,,,,,,,,,99,146.589,0.0222821
,,,,,,,,,114,90.7644,0.0277132
,,,,,,,,,130,59.409,0.0205414
,,,,,,,,,147,147.568,0.0232766
,,,,,,,,,165,120.879,0.0239874
,,,,,,,,,184,143.958,0.0247452
,,,,,,,,,204,144.492,0.0230928
,,,,,,,,,225,97.0164,0.0250713
,,,,,,,,,247,73.845,0.0185836
,,,,,,,,,270,134.447,0.0214747
,,,,,,,,,98,128.117,0.0419801
,,,,,,,,,113,137.468,0.0357446
,,,,,,,,,129,64.3446,0.0521348
,,,,,,,,,146,37.7875,0.031467
,,,,,,,,,164,119.589,0.0383747
,,,,,,,,,183,93.4308,0.0403456
,,,,,,,,,203,171.416,0.0425367
,,,,,,,,,224,125.008,0.0378778
,,,,,,,,,246,119.74,0.0435097
,,,,,,,,,269,69.9019,0.0270943
,,,,,,,,,293,141.449,0.0337112
,,,,,,,,,128,75.8404,0.0428163
,,,,,,,,,145,163.689,0.0686795
,,,,,,,,,163,149.614,0.0368207
,,,,,,,,,182,109.159,0.0466457
,,,,,,,,,202,138.31,0.0495905
,,,,,,,,,223,46.3152,0.0529424
,,,,,,,,,245,103.127,0.0459137
,,,,,,,,,268,44.5408,0.0544581
,,,,,,,,,292,113.896,0.0309718
,,,,,,,,,317,69.1004,0.0399312
,,,,,,,,,162,101.802,0.0534307
,,,,,,,,,181,133.973,0.0319345
,,,,,,,,,201,38.3958,0.0390722
,,,,,,,,,222,74.3208,0.0411174
,,,,,,,,,244,50.6725,0.0433954
,,,,,,,,,267,66.387,0.0385572
,,,,,,,,,291,101.878,0.0444086
,,,,,,,,,316,138.639,0.0274402
,,,,,,,,,342,75.8112,0.0342483
,,,,,,,,,200,33.238,0.0444072
,,,,,,,,,221,64.5159,0.0595293
,,,,,,,,,243,30.2976,0.0644106
,,,,,,,,,266,119.789,0.0701819
,,,,,,,,,290,61.9236,0.0583422
,,,,,,,,,315,122.274,0.0728705
,,,,,,,,,341,57.2557,0.0361694
,,,,,,,,,368,94.6192,0.0490117
,,,,,,,,,242,97.7045,0.0340174
,,,,,,,,,265,63.1207,0.0355572
,,,,,,,,,289,142.01,0.0372482
,,,,,,,,,314,88.0019,0.0336264
,,,,,,,,,340,111.674,0.0379921
,,,,,,,,,367,42.462,0.0248472
,,,,,,,,,395,108.039,0.0303016
,,,,,,,,,288,35.9314,0.0446364
,,,,,,,,,313,68.2735,0.0473339
,,,,,,,,,339,40.4494,0.0416353
,,,,,,,,,366,113.642,0.0485418
,,,,,,,,,394,105.749,0.0289641
,,,,,,,,,423,71.5595,0.0366554
,,,,,,,,,338,92.0352,0.0503691
,,,,,,,,,365,37.5283,0.0439656
,,,,,,,,,393,116.107,0.0517391
,,,,,,,,,422,73.6073,0.030073
,,,,,,,,,452,75.807,0.0384496
,,,,,,,,,392,57.9719,0.0465803
,,,,,,,,,421,51.7394,0.0553985
,,,,,,,,,451,105.434,0.0312737
,,,,,,,,,482,34.6629,0.0404345
,,,,,,,,,450,81.3948,0.0477496
,,,,,,,,,481,72.2606,0.0286802
,,,,,,,,,513,38.7396,0.0362018
,,,,,,,,,512,70.4065,0.0317965
,,,,,,,,,545,43.4944,0.0413127
,,,,,,,,,578,71.5473,0.0262258
