Q	U	V
{$V$}	{[mm$^3$]}	0.0052782
{$d_v$}	{[mm]}	0.216021
{$S_c$}	{[mm$^2$]}	0.248306
{$S_o$}	{[mm$^2$]}	0.160128
{$S_l/S_o$}	[]	0.550672
{$\Psi$}	[]	0.590411
{$\eta$}	[]	0.651329
{med($\theta_e$)}	{[$^\circ$]}	55.2433
{$\Upsilon$}	[]	20
{$\Xi$}	[]	10
