"cellPairingIds","interplanarAngles","angleWeights"
8,77.5136,0.0425447
13,49.0384,0.0287085
19,72.8853,0.0388048
34,62.8108,0.0411445
18,74.2017,0.0472036
25,119.956,0.0824952
33,52.0195,0.0176293
63,110.344,0.0928534
75,71.7201,0.0805857
102,84.0591,0.0541489
41,65.6061,0.0146947
51,65.16,0.0454862
149,75.9291,0.034485
61,67.8548,0.0773885
86,52.3387,0.0767168
115,41.7142,0.0321302
147,40.2028,0.0153058
184,77.6057,0.015495
146,58.3319,0.0337178
203,57.8816,0.0541423
246,71.7346,0.0538159
162,57.1352,0.0750627
181,49.6805,0.0335896
222,47.9853,0.0744747
221,49.8521,0.0475735
243,45.1455,0.0663708
290,63.1237,0.0642121
265,61.607,0.0317302
340,59.8032,0.0271862
313,58.5143,0.0380505
339,26.5013,0.0462282
365,38.4274,0.0637813
393,42.9278,0.0489245
392,38.6688,0.047998
421,25.5824,0.0390697
450,25.9288,0.0477414
