"cellPairingIds","interplanarAngles","angleWeights"
8,59.9715,0.0516592
13,38.3275,0.0760991
19,35.4782,0.0971568
64,67.5729,0.0242724
18,82.4524,0.0585183
25,70.2485,0.0702219
42,108.4,0.0409361
63,77.2833,0.0411146
102,67.3249,0.041146
41,28.4479,0.0528515
51,34.8501,0.0549106
87,77.6025,0.0256871
86,55.0433,0.0655426
100,46.0754,0.0277147
72,31.9772,0.0380799
114,57.0474,0.021286
129,86.8216,0.0216124
146,43.6695,0.0367205
164,166.462,0.0393291
224,83.9462,0.0472127
162,66.771,0.0216621
201,41.3256,0.0394938
244,43.5139,0.0573113
200,52.0648,0.0208544
266,50.898,0.0261279
290,69.3514,0.0238667
314,50.828,0.0437398
313,65.5716,0.0573722
339,99.2491,0.047492
392,51.7333,0.0758476
