Q	U	V
{$V$}	{[mm$^3$]}	0.00239152
{$d_v$}	{[mm]}	0.165917
{$S_c$}	{[mm$^2$]}	0.201279
{$S_o$}	{[mm$^2$]}	0.105563
{$S_l/S_o$}	[]	0.906719
{$\Psi$}	[]	0.42967
{$\eta$}	[]	0.440036
{med($\theta_e$)}	{[$^\circ$]}	69.3029
{$\Upsilon$}	[]	15
{$\Xi$}	[]	6
