Q	U	V
{$V$}	{[mm$^3$]}	0.00688956
{$d_v$}	{[mm]}	0.236083
{$S_c$}	{[mm$^2$]}	0.426553
{$S_o$}	{[mm$^2$]}	0.219393
{$S_l/S_o$}	[]	0.944242
{$\Psi$}	[]	0.410493
{$\eta$}	[]	0.434481
{med($\theta_e$)}	{[$^\circ$]}	67.7027
{$\Upsilon$}	[]	11
{$\Xi$}	[]	18
