facetNormals:0,facetNormals:1,facetNormals:2,FacetCenters:0,FacetCenters:1,FacetCenters:2,FacetIds,relFacetSize,absFacetSize,cellPairingIds,interplanarAngles,angleWeights
-0.1114,-0.249072,-0.93641,7.12585,5.92983,7.43353,1,0.0781603,0.00983366,8,49.1307,0.0623909
0.604596,0.0641939,-0.743684,7.19054,5.92373,7.44077,2,0.0519164,0.00653181,13,52.8362,0.0586618
0.352257,-0.707527,-0.415584,7.15308,5.88584,7.4655,3,0.0469494,0.00590689,19,61.31,0.0515437
-0.482669,0.613792,-0.597474,7.10555,5.98713,7.45365,4,0.03845,0.00483754,26,83.0365,0.073642
-0.0526861,0.91119,-0.359993,7.08221,5.98924,7.48342,5,0.0696174,0.00875884,34,81.2749,0.079088
-0.84949,0.404592,-0.157286,7.0578,5.9743,7.50066,6,0.0800379,0.0100699,43,88.7167,0.0210699
0.95666,-0.218839,-0.0785681,7.18639,5.88524,7.49256,7,0.0121761,0.00153192,53,94.0829,0.0325205
-0.872544,-0.338784,0.26608,7.04745,5.93242,7.53122,8,0.0205316,0.00258316,64,116.169,0.101229
0.822481,0.398349,0.228974,7.17123,5.95858,7.49767,9,0.143617,0.018069,76,110.062,0.0536841
0.192285,-0.796199,0.539311,7.09526,5.92354,7.54489,10,0.0408818,0.00514351,89,130.192,0.0455984
0.538867,-0.407638,0.696716,7.16457,5.92298,7.53313,11,0.0321886,0.00404977,103,149.134,0.0564617
-0.0307822,0.674452,0.682735,7.10115,5.94319,7.53333,12,0.0441929,0.00556009,118,122.19,0.0568599
-0.721759,0.0428717,0.593509,7.07451,5.95275,7.53709,13,0.0446828,0.00562172,134,167.704,0.0852811
0.0651527,0.0465701,0.942903,7.14177,5.93996,7.54534,14,0.0938294,0.0118051,18,56.2447,0.0493081
,,,,,,,,,25,78.2757,0.0441798
,,,,,,,,,33,71.8004,0.0594779
,,,,,,,,,42,113.859,0.0629806
,,,,,,,,,52,48.8123,0.0197258
,,,,,,,,,63,143.066,0.029426
,,,,,,,,,75,67.0722,0.076264
,,,,,,,,,88,110.892,0.0457431
,,,,,,,,,102,103.555,0.0397388
,,,,,,,,,117,121.583,0.0477443
,,,,,,,,,133,166.852,0.0480288
,,,,,,,,,150,136.452,0.0668463
,,,,,,,,,32,113.921,0.0422767
,,,,,,,,,41,125.893,0.0560794
,,,,,,,,,51,127.631,0.0591828
,,,,,,,,,62,53.3746,0.0193372
,,,,,,,,,74,101.837,0.0285694
,,,,,,,,,87,95.9547,0.0707652
,,,,,,,,,101,62.3102,0.043706
,,,,,,,,,116,77.4248,0.0381924
,,,,,,,,,132,154.173,0.0455295
,,,,,,,,,149,129.492,0.0457881
,,,,,,,,,167,118.396,0.0625838
,,,,,,,,,50,33.9938,0.0495392
,,,,,,,,,61,36.6686,0.0519455
,,,,,,,,,73,124.562,0.0184952
,,,,,,,,,86,86.7505,0.026769
,,,,,,,,,100,108.198,0.0606598
,,,,,,,,,115,159.598,0.0396286
,,,,,,,,,131,166.168,0.0350418
,,,,,,,,,148,88.7306,0.0411219
,,,,,,,,,166,88.7491,0.0413327
,,,,,,,,,185,127.487,0.0545473
,,,,,,,,,72,59.8553,0.0744649
,,,,,,,,,85,103.258,0.020727
,,,,,,,,,99,112.056,0.031711
,,,,,,,,,114,75.1302,0.093777
,,,,,,,,,130,165.082,0.0515133
,,,,,,,,,147,133.1,0.0440227
,,,,,,,,,165,66.8482,0.0540653
,,,,,,,,,184,98.5575,0.0544303
,,,,,,,,,204,108.88,0.0799301
,,,,,,,,,98,161.156,0.0211367
,,,,,,,,,113,52.7189,0.03268
,,,,,,,,,129,129.654,0.10279
,,,,,,,,,146,127.56,0.0541201
,,,,,,,,,164,142.269,0.0459126
,,,,,,,,,183,77.9235,0.0569441
,,,,,,,,,203,52.9938,0.0573492
,,,,,,,,,224,101.813,0.0863866
,,,,,,,,,128,144.661,0.0152866
,,,,,,,,,145,42.6983,0.0224489
,,,,,,,,,163,70.9071,0.0187637
,,,,,,,,,182,54.8593,0.0176686
,,,,,,,,,202,104.125,0.0190919
,,,,,,,,,223,144.152,0.0191373
,,,,,,,,,245,91.3497,0.021555
,,,,,,,,,162,149.718,0.035927
,,,,,,,,,181,75.0951,0.027335
,,,,,,,,,201,98.9361,0.0250713
,,,,,,,,,222,91.2249,0.0280373
,,,,,,,,,244,31.8547,0.0281352
,,,,,,,,,267,78.8378,0.033691
,,,,,,,,,200,92.2036,0.0636462
,,,,,,,,,221,61.2104,0.0525902
,,,,,,,,,243,63.7797,0.0675881
,,,,,,,,,266,120.001,0.0681595
,,,,,,,,,290,71.1504,0.113503
,,,,,,,,,242,32.3681,0.0360181
,,,,,,,,,265,100.692,0.042473
,,,,,,,,,289,80.7685,0.0426979
,,,,,,,,,314,58.5671,0.0569502
,,,,,,,,,288,78.6029,0.0372474
,,,,,,,,,313,89.552,0.0374203
,,,,,,,,,339,42.8749,0.0479334
,,,,,,,,,338,59.4647,0.0444365
,,,,,,,,,365,42.1958,0.0600859
,,,,,,,,,392,54.4556,0.060537
