facetNormals:0,facetNormals:1,facetNormals:2,FacetCenters:0,FacetCenters:1,FacetCenters:2,FacetIds,relFacetSize,absFacetSize,cellPairingIds,interplanarAngles,angleWeights
0.231348,0.434115,-0.834048,4.00749,5.88778,8.38002,1,0.11562,0.0179919,8,36.6386,0.127262
-0.288538,0.670648,-0.62825,3.97337,5.894,8.37056,2,0.141511,0.0220209,13,91.4804,0.0995255
-0.587534,-0.618436,-0.455852,3.90873,5.75459,8.39242,3,0.0873644,0.013595,19,65.1665,0.0406543
0.696322,-0.438295,-0.505939,4.00231,5.79276,8.35212,4,0.0246632,0.00383791,26,81.6395,0.0594164
-0.879819,0.000424596,-0.407499,3.88472,5.8203,8.36837,5,0.0399812,0.00622159,34,41.2604,0.0873122
0.763193,0.44688,-0.404415,4.07653,5.8532,8.36029,6,0.0701397,0.0109146,43,111.357,0.0812647
-0.112424,-0.956844,-0.118789,3.94024,5.72455,8.43199,7,0.0626492,0.00974901,53,93.4623,0.0166742
0.671446,-0.718447,-0.118256,3.98319,5.73691,8.442,8,0.00898499,0.00139818,64,126.639,0.0810581
-0.819223,-0.429567,0.205712,3.88121,5.77185,8.3982,9,0.0624039,0.00971085,76,118.102,0.026408
0.442694,-0.853184,0.217673,3.97307,5.73657,8.47411,10,0.0149063,0.00231961,89,135.581,0.102113
-0.578601,0.185367,0.712329,3.9011,5.84343,8.41647,11,0.0914324,0.014228,103,170.533,0.0150342
-0.076824,-0.429138,0.881834,3.99548,5.92381,8.42888,12,0.00803979,0.00125109,118,139.128,0.0229125
0.118168,0.135335,0.964568,3.93103,5.88726,8.4306,13,0.0127163,0.00197881,18,87.4676,0.108033
,,,,,,,,,25,100.968,0.0420055
,,,,,,,,,33,56.8892,0.0623474
,,,,,,,,,42,69.1383,0.0937916
,,,,,,,,,52,124.877,0.086849
,,,,,,,,,63,129.07,0.0168971
,,,,,,,,,75,101.435,0.086613
,,,,,,,,,88,151.812,0.0269716
,,,,,,,,,102,99.9784,0.111089
,,,,,,,,,117,149.89,0.0152152
,,,,,,,,,133,125.54,0.0233356
,,,,,,,,,32,84.3127,0.0384671
,,,,,,,,,41,41.4952,0.0548576
,,,,,,,,,51,125.069,0.0778102
,,,,,,,,,62,40.6853,0.0729708
,,,,,,,,,74,83.784,0.0162942
,,,,,,,,,87,44.545,0.0728042
,,,,,,,,,101,79.8294,0.0254673
,,,,,,,,,116,96.3025,0.0893521
,,,,,,,,,132,95.5159,0.0147245
,,,,,,,,,149,128.66,0.0222011
,,,,,,,,,50,115.735,0.0305074
,,,,,,,,,61,54.8951,0.036494
,,,,,,,,,73,64.6661,0.0353931
,,,,,,,,,86,28.3071,0.0131715
,,,,,,,,,100,122.09,0.0353539
,,,,,,,,,115,53.0606,0.0185819
,,,,,,,,,131,159.051,0.0388476
,,,,,,,,,148,109.142,0.0121265
,,,,,,,,,166,119.388,0.0167805
,,,,,,,,,72,122.489,0.0509308
,,,,,,,,,85,81.0201,0.0488119
,,,,,,,,,99,124.422,0.0146726
,,,,,,,,,114,46.1301,0.0487373
,,,,,,,,,130,120.053,0.0217162
,,,,,,,,,147,76.0484,0.0556347
,,,,,,,,,165,107.823,0.0133875
,,,,,,,,,184,121.493,0.0192955
,,,,,,,,,98,119.535,0.0661832
,,,,,,,,,113,75.6202,0.0159294
,,,,,,,,,129,167.7,0.0660461
,,,,,,,,,146,97.8826,0.0245873
,,,,,,,,,164,135.269,0.079383
,,,,,,,,,183,129.386,0.014426
,,,,,,,,,203,104.532,0.0215293
,,,,,,,,,128,49.3753,0.015716
,,,,,,,,,145,58.6414,0.0625263
,,,,,,,,,163,39.2604,0.0240826
,,,,,,,,,182,102.515,0.0743524
,,,,,,,,,202,70.7705,0.0142508
,,,,,,,,,223,105.677,0.0211414
,,,,,,,,,162,106.449,0.0157083
,,,,,,,,,181,25.0275,0.0112119
,,,,,,,,,201,130.8,0.0163621
,,,,,,,,,222,80.9982,0.00848615
,,,,,,,,,244,97.804,0.0105299
,,,,,,,,,200,87.0162,0.0240644
,,,,,,,,,221,52.4333,0.0741794
,,,,,,,,,243,62.6212,0.0142444
,,,,,,,,,266,87.3195,0.0211274
,,,,,,,,,242,106.317,0.0256336
,,,,,,,,,265,57.2775,0.0104457
,,,,,,,,,289,81.2675,0.0137245
,,,,,,,,,288,49.9144,0.01478
,,,,,,,,,313,45.5046,0.0223273
,,,,,,,,,338,35.7378,0.00985121
