"cellPairingIds","interplanarAngles","angleWeights"
8,33.7589,0.0313103
13,50.6518,0.0331562
19,44.0641,0.0311742
26,82.9608,0.0245428
34,85.7323,0.0281722
64,88.3176,0.0255858
76,112.655,0.0244911
89,83.1748,0.0287636
33,82.7956,0.0396987
63,65.3032,0.0824346
75,67.4409,0.0425012
32,46.9191,0.067823
51,44.6989,0.0550584
62,54.1187,0.0434081
132,62.073,0.0639008
73,40.3097,0.0400726
131,53.4212,0.0516792
185,62.142,0.0537705
99,91.0689,0.0477609
130,35.3465,0.0293405
146,38.449,0.0346819
183,41.9411,0.0476529
202,55.3353,0.0386702
245,28.1578,0.0371879
162,48.3234,0.0518763
181,104.158,0.0475654
291,69.1368,0.0358088
221,37.3614,0.0379412
315,68.494,0.0254297
341,89.7007,0.0322246
265,55.8444,0.0379936
340,90.3857,0.024348
367,85.0486,0.0305071
339,48.6119,0.0469794
394,74.6121,0.0374333
365,58.2146,0.0512753
422,51.8961,0.040111
481,39.5241,0.0385185
512,36.2811,0.0252006
