Q	U	V
{$V$}	{[mm$^3$]}	0.00162918
{$d_v$}	{[mm]}	0.145990
{$S_c$}	{[mm$^2$]}	0.103137
{$S_o$}	{[mm$^2$]}	0.0653968
{$S_l/S_o$}	[]	0.577096
{$\Psi$}	[]	0.649206
{$\eta$}	[]	0.661167
{med($\theta_e$)}	{[$^\circ$]}	69.70805
{$\Upsilon$}	[]	19
{$\Xi$}	[]	8
