facetNormals:0,facetNormals:1,facetNormals:2,FacetCenters:0,FacetCenters:1,FacetCenters:2,FacetIds,relFacetSize,absFacetSize,cellPairingIds,interplanarAngles,angleWeights
-0.150029,-0.286977,-0.884808,4.25104,7.22407,8.85839,1,0.0574719,0.012681,8,40.6792,0.0384001
0.456655,-0.478882,-0.700011,4.23894,7.24782,8.98747,2,0.0288323,0.00636174,13,58.4469,0.0521781
-0.542204,0.522653,-0.621778,4.19588,7.27934,8.8934,3,0.0477773,0.0105419,19,67.2919,0.0280967
0.0263119,0.738974,-0.648425,4.22465,7.29576,8.90919,4,0.0185932,0.00410253,26,47.957,0.0637337
-0.504717,-0.731277,-0.361251,4.21999,7.18808,8.89588,5,0.0715267,0.0157821,34,67.7451,0.0496499
-0.894531,0.201147,-0.302998,4.1824,7.24318,8.89976,6,0.0437019,0.00964268,43,107.25,0.0481217
0.824318,0.522002,-0.000976481,4.29215,7.25548,8.95363,7,0.0413882,0.00913216,53,98.7855,0.057436
0.953981,-0.120413,0.0337829,4.31872,7.20781,8.91666,8,0.0574001,0.0126651,64,88.256,0.0432711
-0.926849,-0.211147,0.194198,4.18726,7.23515,8.97615,9,0.0346976,0.0076559,76,125.577,0.0468764
0.469897,0.815723,0.260974,4.24239,7.29332,8.98177,10,0.0395795,0.00873308,89,90.9631,0.0555131
-0.574956,-0.707117,0.344273,4.20472,7.18932,8.95924,11,0.0536834,0.0118451,103,121.398,0.0469017
-0.196314,0.868493,0.267372,4.22885,7.29169,8.9565,12,0.0396156,0.00874105,118,113.096,0.0845165
0.271151,-0.677256,0.557111,4.29416,7.20355,8.95327,13,0.159637,0.0352234,134,125.66,0.0277302
-0.432321,-0.367916,0.803245,4.20033,7.2476,8.97236,14,0.0182736,0.00403201,151,148.473,0.0597313
-0.34274,0.322391,0.781807,4.25406,7.24172,8.95475,15,0.0621756,0.0137188,169,167.755,0.0440372
0.297315,0.148181,0.894475,4.26326,7.2493,8.97517,16,0.0356934,0.00787562,18,93.8179,0.0359623
,,,,,,,,,25,83.208,0.0226074
,,,,,,,,,33,66.2173,0.041098
,,,,,,,,,42,108.342,0.0347429
,,,,,,,,,52,82.2257,0.0339877
,,,,,,,,,63,59.5524,0.0383841
,,,,,,,,,75,119.35,0.0314942
,,,,,,,,,88,112.41,0.0333617
,,,,,,,,,102,100.122,0.0375156
,,,,,,,,,117,140.672,0.0333745
,,,,,,,,,133,86.2282,0.0488429
,,,,,,,,,150,128.015,0.0223696
,,,,,,,,,168,167.514,0.0393958
,,,,,,,,,187,127.642,0.031898
,,,,,,,,,32,36.1924,0.0267689
,,,,,,,,,41,82.882,0.0572881
,,,,,,,,,51,34.3542,0.0456488
,,,,,,,,,62,100.492,0.0443538
,,,,,,,,,74,129.778,0.0521485
,,,,,,,,,87,73.3534,0.0402003
,,,,,,,,,101,89.442,0.0432937
,,,,,,,,,116,106.605,0.0505584
,,,,,,,,,132,64.2732,0.0433153
,,,,,,,,,149,160.958,0.0735438
,,,,,,,,,167,118.43,0.0264361
,,,,,,,,,186,98.5038,0.0540337
,,,,,,,,,206,133.371,0.0408607
,,,,,,,,,50,109.793,0.0295143
,,,,,,,,,61,70.2075,0.0260874
,,,,,,,,,73,64.833,0.0256593
,,,,,,,,,86,95.2016,0.0280881
,,,,,,,,,100,108.726,0.024212
,,,,,,,,,115,62.3443,0.0253009
,,,,,,,,,131,142.576,0.0276202
,,,,,,,,,148,59.5579,0.0253082
,,,,,,,,,166,161.199,0.0333071
,,,,,,,,,185,146.226,0.018432
,,,,,,,,,205,108.027,0.028626
,,,,,,,,,226,119.541,0.02445
,,,,,,,,,72,63.4601,0.0542548
,,,,,,,,,85,148.438,0.0524352
,,,,,,,,,99,116.075,0.0636895
,,,,,,,,,114,53.615,0.0467276
,,,,,,,,,130,172.034,0.0509601
,,,,,,,,,147,43.0442,0.0613337
,,,,,,,,,165,135.189,0.05099
,,,,,,,,,184,79.7181,0.0987898
,,,,,,,,,204,77.9427,0.0291102
,,,,,,,,,225,113.229,0.0665242
,,,,,,,,,247,129.452,0.0476222
,,,,,,,,,98,132.135,0.0425136
,,,,,,,,,113,162.861,0.049623
,,,,,,,,,129,39.0308,0.0386826
,,,,,,,,,146,110.823,0.0415387
,,,,,,,,,164,73.4631,0.0481811
,,,,,,,,,183,72.5444,0.0415586
,,,,,,,,,203,128.154,0.0686189
,,,,,,,,,224,85.8135,0.0257712
,,,,,,,,,246,81.2163,0.0513271
,,,,,,,,,269,123.398,0.0392937
,,,,,,,,,128,39.584,0.0480965
,,,,,,,,,145,157.474,0.0377487
,,,,,,,,,163,31.4765,0.0404636
,,,,,,,,,182,152.533,0.0467407
,,,,,,,,,202,71.2704,0.0404825
,,,,,,,,,223,98.3822,0.0657339
,,,,,,,,,245,124.909,0.0253533
,,,,,,,,,268,97.4216,0.0496957
,,,,,,,,,292,69.7939,0.0383304
,,,,,,,,,162,155.912,0.0432507
,,,,,,,,,181,67.5542,0.0468525
,,,,,,,,,201,118.811,0.0554796
,,,,,,,,,222,108.432,0.0468778
,,,,,,,,,244,66.0123,0.0844388
,,,,,,,,,267,111.12,0.0277218
,,,,,,,,,291,112.741,0.0596925
,,,,,,,,,316,71.1899,0.0440161
,,,,,,,,,200,125.998,0.0369781
,,,,,,,,,221,37.583,0.0421512
,,,,,,,,,243,86.7907,0.0369938
,,,,,,,,,266,90.0081,0.0570049
,,,,,,,,,290,48.3379,0.0239394
,,,,,,,,,315,63.0367,0.0445395
,,,,,,,,,341,98.2693,0.0351884
,,,,,,,,,242,142.707,0.045565
,,,,,,,,,265,40.9466,0.0395976
,,,,,,,,,289,108.172,0.063432
,,,,,,,,,314,107.794,0.0250033
,,,,,,,,,340,69.9258,0.0483687
,,,,,,,,,367,57.995,0.0375361
,,,,,,,,,288,116.859,0.0455889
,,,,,,,,,313,54.8533,0.0803473
,,,,,,,,,339,34.9674,0.027266
,,,,,,,,,366,74.4544,0.0576183
,,,,,,,,,394,88.0137,0.0428779
,,,,,,,,,338,125.246,0.0634784
,,,,,,,,,365,91.2468,0.0250105
,,,,,,,,,393,49.0211,0.0483956
,,,,,,,,,422,69.581,0.0375524
,,,,,,,,,392,50.0747,0.0327934
,,,,,,,,,421,81.4671,0.0894947
,,,,,,,,,451,56.8781,0.058342
,,,,,,,,,450,42.8932,0.0282457
,,,,,,,,,481,55.2147,0.0241721
,,,,,,,,,512,42.1819,0.0453516
