facetNormals:0,facetNormals:1,facetNormals:2,FacetCenters:0,FacetCenters:1,FacetCenters:2,FacetIds,relFacetSize,absFacetSize,cellPairingIds,interplanarAngles,angleWeights
-0.00912821,-0.15017,-0.96296,7.14014,4.34306,7.41539,1,0.072869,0.00455097,8,33.5709,0.0680199
0.418942,0.20876,-0.868649,7.11083,4.37246,7.42008,2,0.063776,0.00398307,13,35.2858,0.0369139
-0.188981,0.412553,-0.882091,7.15263,4.40089,7.41849,3,0.0247177,0.00154372,19,30.2263,0.0159921
0.337846,-0.491377,-0.797226,7.11357,4.31984,7.40201,4,0.00898162,0.000560939,26,41.807,0.0579443
-0.614126,0.132461,-0.757012,7.08615,4.35862,7.40949,5,0.0480939,0.00300366,34,53.3809,0.0704233
-0.0137491,0.681552,-0.693052,7.11985,4.43578,7.44693,6,0.0681365,0.0042554,43,71.167,0.0894232
-0.81807,0.358433,-0.363158,7.07106,4.39481,7.45067,7,0.11571,0.00722655,53,53.738,0.0510022
-0.327986,-0.801338,-0.458452,7.12605,4.30469,7.45317,8,0.03923,0.00245007,64,86.6553,0.0930795
-0.24632,-0.923644,0.089678,7.09508,4.31029,7.46631,9,0.128804,0.00804432,76,98.1781,0.0275844
-0.782064,0.592848,0.0564889,7.07464,4.41828,7.48639,10,0.0170121,0.00106248,89,119.628,0.0777793
-0.785092,0.357024,0.43511,7.07303,4.40481,7.4908,11,0.0833991,0.00520862,103,125.951,0.0110803
-0.0723715,0.873597,0.44995,7.09615,4.41725,7.49632,12,0.00599599,0.000374474,118,120.089,0.0360569
-0.35177,-0.678613,0.603272,7.09728,4.33518,7.49855,13,0.0239552,0.0014961,134,122.862,0.0169923
0.816189,-0.0577084,0.539523,7.10691,4.35467,7.52266,14,0.00961748,0.000600651,151,141.415,0.0144687
0.391528,0.586927,0.680035,7.10323,4.40035,7.51353,15,0.00803173,0.000501615,169,144.76,0.0530297
-0.527112,-0.0445356,0.815435,7.07824,4.3698,7.52081,16,0.0416815,0.00260318,188,153.551,0.0348892
0.301111,-0.170055,0.883054,7.14795,4.40114,7.43511,17,0.0229352,0.0014324,18,37.822,0.0356273
,,,,,,,,,25,41.8753,0.0157457
,,,,,,,,,33,63.8409,0.0548358
,,,,,,,,,42,39.6522,0.0658841
,,,,,,,,,52,87.1346,0.0822294
,,,,,,,,,63,84.4475,0.0485783
,,,,,,,,,75,113.246,0.085311
,,,,,,,,,88,105.116,0.0268595
,,,,,,,,,102,131.559,0.0722793
,,,,,,,,,117,104.218,0.0109614
,,,,,,,,,133,147.802,0.0348283
,,,,,,,,,150,98.2498,0.0167144
,,,,,,,,,168,108.335,0.0142668
,,,,,,,,,187,168.091,0.0504142
,,,,,,,,,207,136.29,0.0337376
,,,,,,,,,32,63.7586,0.0131756
,,,,,,,,,41,30.7719,0.0326533
,,,,,,,,,51,21.8387,0.0362757
,,,,,,,,,62,49.3682,0.0407339
,,,,,,,,,74,81.9686,0.0303271
,,,,,,,,,87,115.739,0.041476
,,,,,,,,,101,69.4334,0.0201535
,,,,,,,,,116,95.278,0.0381334
,,,,,,,,,132,91.3375,0.00965088
,,,,,,,,,149,140.527,0.0243305
,,,,,,,,,167,132.272,0.0138471
,,,,,,,,,186,116.367,0.0121239
,,,,,,,,,206,131.433,0.0310326
,,,,,,,,,227,164.381,0.0237931
,,,,,,,,,50,70.2507,0.0151365
,,,,,,,,,61,77.2876,0.0158711
,,,,,,,,,73,99.7762,0.0166693
,,,,,,,,,86,48.3336,0.0146168
,,,,,,,,,100,71.7625,0.0167923
,,,,,,,,,115,127.855,0.0117564
,,,,,,,,,131,144.975,0.0162168
,,,,,,,,,148,145.914,0.00719123
,,,,,,,,,166,105.946,0.0130648
,,,,,,,,,185,97.4205,0.00928868
,,,,,,,,,205,135.705,0.00848016
,,,,,,,,,226,146.43,0.0147787
,,,,,,,,,248,123.325,0.0129083
,,,,,,,,,72,49.3195,0.0563871
,,,,,,,,,85,29.5895,0.0679464
,,,,,,,,,99,62.6815,0.0432121
,,,,,,,,,114,92.3642,0.0700368
,,,,,,,,,130,57.7476,0.0251338
,,,,,,,,,147,77.8474,0.0610069
,,,,,,,,,165,100.729,0.0106626
,,,,,,,,,184,110.185,0.0319809
,,,,,,,,,204,162.065,0.0160295
,,,,,,,,,225,134.653,0.0137647
,,,,,,,,,247,108.252,0.0446587
,,,,,,,,,270,159.866,0.0310589
,,,,,,,,,98,57.2368,0.0857679
,,,,,,,,,113,103.597,0.0497919
,,,,,,,,,129,137.512,0.0891258
,,,,,,,,,146,66.8515,0.0272265
,,,,,,,,,164,92.895,0.0749991
,,,,,,,,,183,72.7178,0.011022
,,,,,,,,,203,157.694,0.0354478
,,,,,,,,,224,116.456,0.0168558
,,,,,,,,,246,94.616,0.0143696
,,,,,,,,,269,128.503,0.0517225
,,,,,,,,,293,142.565,0.0343185
,,,,,,,,,128,81.0118,0.0585943
,,,,,,,,,145,100.087,0.121906
,,,,,,,,,163,28.6447,0.0296631
,,,,,,,,,182,48.9038,0.0969328
,,,,,,,,,202,77.2955,0.0114012
,,,,,,,,,223,100.715,0.0396928
,,,,,,,,,245,159.361,0.0177589
,,,,,,,,,268,112.194,0.0150208
,,,,,,,,,292,82.6975,0.0612862
,,,,,,,,,317,133.376,0.0382823
,,,,,,,,,162,34.0028,0.0601423
,,,,,,,,,181,104.704,0.0237326
,,,,,,,,,201,103.945,0.05336
,,,,,,,,,222,156.1,0.0104021
,,,,,,,,,244,66.3568,0.0297463
,,,,,,,,,267,119.223,0.0154478
,,,,,,,,,291,161.511,0.0133336
,,,,,,,,,316,99.9939,0.0404186
,,,,,,,,,342,113.287,0.028947
,,,,,,,,,200,111.76,0.0300547
,,,,,,,,,221,96.0256,0.101244
,,,,,,,,,243,142.319,0.0114586
,,,,,,,,,266,34.8177,0.0403972
,,,,,,,,,290,96.061,0.0178985
,,,,,,,,,315,127.871,0.0151206
,,,,,,,,,341,74.8371,0.0629818
,,,,,,,,,368,79.7457,0.0389371
,,,,,,,,,242,26.4426,0.0282597
,,,,,,,,,265,51.7282,0.00886684
,,,,,,,,,289,95.5834,0.0198953
,,,,,,,,,314,131.791,0.0122881
,,,,,,,,,340,85.2257,0.0109118
,,,,,,,,,367,63.1262,0.0241625
,,,,,,,,,395,107.893,0.0195346
,,,,,,,,,288,53.6253,0.0111876
,,,,,,,,,313,71.6343,0.0372196
,,,,,,,,,339,116.784,0.0172462
,,,,,,,,,366,77.923,0.0146524
,,,,,,,,,394,36.7088,0.0555833
,,,,,,,,,423,84.5435,0.0359766
,,,,,,,,,338,107.965,0.00959128
,,,,,,,,,365,82.0674,0.00738674
,,,,,,,,,393,35.055,0.00686615
,,,,,,,,,422,67.5233,0.0104839
,,,,,,,,,452,75.9419,0.00950664
,,,,,,,,,392,85.3403,0.0137248
,,,,,,,,,421,97.5746,0.01203
,,,,,,,,,451,41.6183,0.0304247
,,,,,,,,,482,54.0456,0.0234341
,,,,,,,,,450,47.1961,0.00875337
,,,,,,,,,481,89.2606,0.0156288
,,,,,,,,,513,38.0429,0.0135521
,,,,,,,,,512,70.2402,0.0134682
,,,,,,,,,545,48.2676,0.0118972
,,,,,,,,,578,51.8881,0.0295891
