facetNormals:0,facetNormals:1,facetNormals:2,FacetCenters:0,FacetCenters:1,FacetCenters:2,FacetIds,relFacetSize,absFacetSize,cellPairingIds,interplanarAngles,angleWeights
0.326733,-0.145074,-0.904043,3.61888,7.634,5.9611,1,0.0441062,0.0048544,8,47.2203,0.01835
-0.344218,0.263194,-0.888843,3.56282,7.64052,5.9658,2,0.0115849,0.00127505,13,39.6985,0.046705
-0.274433,-0.404993,-0.834674,3.57879,7.6206,5.96227,3,0.0496292,0.00546227,19,71.4736,0.0489922
-0.768668,-0.160194,-0.587084,3.53858,7.62184,5.99169,4,0.0550955,0.00606391,26,48.1803,0.0610695
0.882969,-0.19084,-0.34315,3.67685,7.62321,6.02068,5,0.0992356,0.010922,34,94.648,0.0554295
-0.837323,0.408962,-0.283374,3.53761,7.68345,6.02314,6,0.074575,0.00820785,43,65.1607,0.0543136
-0.00742222,-0.91663,-0.28988,3.59708,7.55468,6.01255,7,0.0706683,0.00777787,53,87.3828,0.00692503
0.475627,0.85089,-0.012517,3.65269,7.67366,6.15442,8,0.00375749,0.000413556,64,124.674,0.0629773
-0.926588,0.0160388,0.249715,3.53207,7.65331,6.07737,9,0.110073,0.0121148,76,93.9123,0.0487734
0.181653,-0.925207,0.286423,3.61372,7.56662,6.09431,10,0.0545452,0.00600334,89,93.9637,0.0614023
0.615352,-0.634219,0.396156,3.65699,7.60031,6.11144,11,0.101015,0.0111179,103,115.888,0.0378878
-0.651457,-0.663735,0.335219,3.53877,7.58872,6.09652,12,0.0332061,0.00365472,118,124.72,0.0209441
0.0763239,0.809156,0.473996,3.62288,7.68624,6.11792,13,0.0137326,0.00151143,134,130.772,0.042274
-0.205988,-0.63853,0.718246,3.58127,7.60499,6.15615,14,0.040588,0.00446718,151,147.975,0.0408868
-0.607539,-0.276252,0.719434,3.55361,7.65228,6.13282,15,0.0381054,0.00419395,18,40.2871,0.0187849
,,,,,,,,,25,39.8519,0.0191443
,,,,,,,,,33,92.9487,0.0207477
,,,,,,,,,42,47.7369,0.0200544
,,,,,,,,,52,88.8572,0.0199065
,,,,,,,,,63,85.7551,0.0056745
,,,,,,,,,75,83.8781,0.0209634
,,,,,,,,,88,125.124,0.0191108
,,,,,,,,,102,139.748,0.0207859
,,,,,,,,,117,104.721,0.0171771
,,,,,,,,,133,104.606,0.0125676
,,,,,,,,,150,139.186,0.018025
,,,,,,,,,168,121.225,0.0177679
,,,,,,,,,32,36.1553,0.0522197
,,,,,,,,,41,82.5395,0.0661672
,,,,,,,,,51,71.3918,0.059597
,,,,,,,,,62,48.5909,0.058309
,,,,,,,,,74,119.517,0.00698606
,,,,,,,,,87,87.5706,0.0684127
,,,,,,,,,101,84.8377,0.0519712
,,,,,,,,,116,105.012,0.0665581
,,,,,,,,,132,79.8962,0.0397896
,,,,,,,,,149,144.85,0.0215126
,,,,,,,,,167,107.401,0.0446555
,,,,,,,,,186,109.818,0.0431105
,,,,,,,,,50,118.131,0.0708533
,,,,,,,,,61,38.7727,0.0633721
,,,,,,,,,73,69.9771,0.0619177
,,,,,,,,,86,121.161,0.00703519
,,,,,,,,,100,53.2453,0.0734344
,,,,,,,,,115,99.5072,0.054819
,,,,,,,,,131,129.505,0.0713017
,,,,,,,,,148,64.9562,0.0414377
,,,,,,,,,166,120.385,0.0219853
,,,,,,,,,185,99.621,0.0467419
,,,,,,,,,205,84.6993,0.0450519
,,,,,,,,,72,139.918,0.0851559
,,,,,,,,,85,73.2434,0.0825503
,,,,,,,,,99,73.8603,0.00724082
,,,,,,,,,114,167.91,0.104374
,,,,,,,,,130,75.4843,0.0703967
,,,,,,,,,147,55.6204,0.100117
,,,,,,,,,165,126.153,0.0497612
,,,,,,,,,184,105.939,0.0241264
,,,,,,,,,204,108.826,0.0576122
,,,,,,,,,225,140.392,0.0550661
,,,,,,,,,98,107.816,0.0725691
,,,,,,,,,113,92.8206,0.00715451
,,,,,,,,,129,40.4237,0.0889117
,,,,,,,,,146,129.588,0.0630065
,,,,,,,,,164,160.095,0.0858043
,,,,,,,,,183,79.2836,0.0459514
,,,,,,,,,203,81.6747,0.0231941
,,,,,,,,,224,107.771,0.0525663
,,,,,,,,,246,78.4202,0.0504384
,,,,,,,,,128,146.311,0.00713558
,,,,,,,,,145,94.9869,0.0860751
,,,,,,,,,163,36.2822,0.0615687
,,,,,,,,,182,60.2541,0.0831596
,,,,,,,,,202,57.1137,0.0451819
,,,,,,,,,223,166.529,0.0229964
,,,,,,,,,245,66.379,0.0515617
,,,,,,,,,268,87.0119,0.0495128
,,,,,,,,,162,117.372,0.00726692
,,,,,,,,,181,137.162,0.00703066
,,,,,,,,,201,105.477,0.00724548
,,,,,,,,,222,155.764,0.00675106
,,,,,,,,,244,38.3957,0.0059005
,,,,,,,,,267,132.739,0.00687823
,,,,,,,,,291,123.86,0.00684046
,,,,,,,,,200,96.7785,0.0729439
,,,,,,,,,221,121.195,0.105349
,,,,,,,,,243,44.505,0.0510206
,,,,,,,,,266,86.1508,0.0244187
,,,,,,,,,290,67.567,0.0593071
,,,,,,,,,315,38.3969,0.0566125
,,,,,,,,,242,31.6875,0.0708392
,,,,,,,,,265,52.5942,0.0412811
,,,,,,,,,289,130.247,0.0219411
,,,,,,,,,314,38.3959,0.0465427
,,,,,,,,,340,68.6986,0.0448668
,,,,,,,,,288,80.8115,0.0499819
,,,,,,,,,313,107.794,0.0241782
,,,,,,,,,339,53.7555,0.0579083
,,,,,,,,,366,84.786,0.0553365
,,,,,,,,,338,117.389,0.0194298
,,,,,,,,,365,34.7066,0.0365278
,,,,,,,,,393,32.2672,0.0354875
,,,,,,,,,392,101.98,0.0205218
,,,,,,,,,421,85.583,0.0201893
,,,,,,,,,450,31.9645,0.0393075
