Q	U	V
{$V$}	{[mm$^3$]}	0.00790839
{$d_v$}	{[mm]}	0.247189
{$S_c$}	{[mm$^2$]}	0.331727
{$S_o$}	{[mm$^2$]}	0.225205
{$S_l/S_o$}	[]	0.473000
{$\Psi$}	[]	0.578667
{$\eta$}	[]	0.610825
{med($\theta_e$)}	{[$^\circ$]}	66.95065
{$\Upsilon$}	[]	13
{$\Xi$}	[]	9
