"cellPairingIds","interplanarAngles","angleWeights"
73,33.8647,0.0424422
100,96.6564,0.0379628
115,147.099,0.0475798
148,45.6207,0.0228784
163,145.309,0.0845196
182,27.7523,0.0429145
202,33.0192,0.0289656
200,77.6044,0.0684383
243,114.81,0.0268069
290,43.3548,0.0551223
242,128.47,0.0481743
265,163.856,0.03127
314,66.7236,0.0780203
288,39.9417,0.0230149
365,114.394,0.0281617
