"cellPairingIds","interplanarAngles","angleWeights"
18,58.7123,0.016548
25,45.8269,0.0364018
42,84.9887,0.0391919
52,53.4591,0.0456477
41,26.7651,0.0166182
51,68.7636,0.0154697
62,99.5168,0.0163843
74,46.1552,0.0185733
61,94.0103,0.0315624
73,43.6282,0.0356192
185,85.8526,0.0295496
226,66.5348,0.0407185
85,88.6749,0.0461861
99,55.6553,0.0691641
130,70.4025,0.0555506
165,54.7525,0.0220792
113,53.7993,0.0528378
129,31.2309,0.0377029
164,45.184,0.0450927
224,67.5404,0.031362
163,35.3281,0.0530207
223,41.3759,0.0354267
292,41.615,0.0526465
162,28.6016,0.0636073
201,51.9509,0.0879134
222,35.8143,0.0256692
221,29.1353,0.0527089
265,94.9121,0.0235291
289,23.9504,0.0406878
340,72.3258,0.0456426
288,64.9866,0.0236922
339,48.3132,0.0410936
423,93.6489,0.0700459
393,27.6808,0.0203255
452,75.7126,0.0238899
421,72.9936,0.0319733
451,21.3418,0.040467
482,43.4711,0.0417786
481,89.262,0.0403856
513,81.2594,0.0416918
545,51.1841,0.0470199
578,45.7863,0.0680134
