"cellPairingIds","interplanarAngles","angleWeights"
8,31.3989,0.0594336
13,45.267,0.0605228
19,63.5224,0.0151547
26,52.4877,0.0532413
43,66.3372,0.112241
53,63.8346,0.0780194
25,52.0129,0.0141105
33,32.1095,0.0422564
32,39.6742,0.0141711
74,62.2102,0.0574806
101,85.4315,0.0177002
132,89.7832,0.00541562
50,79.6171,0.0137314
115,71.7786,0.0094375
72,21.6027,0.0281864
85,41.4297,0.0634962
130,139.274,0.0170194
204,92.4952,0.0563863
98,23.0014,0.0390548
129,52.6586,0.0377513
224,73.5768,0.0362438
128,85.3039,0.102209
145,35.2027,0.147927
162,83.1421,0.0937383
222,74.0032,0.00552652
244,64.7712,0.0387515
221,41.2873,0.0480851
266,74.8637,0.043895
290,39.9608,0.114339
242,95.1072,0.0158933
265,39.6315,0.00454452
314,95.8119,0.0196583
288,65.1166,0.00523357
313,34.3831,0.0278289
339,38.5071,0.0456659
338,31.9113,0.00517976
