facetNormals:0,facetNormals:1,facetNormals:2,FacetCenters:0,FacetCenters:1,FacetCenters:2,FacetIds,relFacetSize,absFacetSize,cellPairingIds,interplanarAngles,angleWeights
-0.131521,-0.317705,-0.895677,4.16343,3.6818,8.20925,1,0.0520895,0.00464778,8,51.4255,0.0728738
0.507197,0.216302,-0.80032,4.21404,3.66957,8.18744,2,0.121256,0.0108193,13,57.1438,0.0625713
-0.331961,0.568801,-0.72013,4.15632,3.71624,8.19683,3,0.0783341,0.0069895,19,41.4654,0.0455675
-0.410482,-0.74556,-0.446856,4.14731,3.64814,8.21064,4,0.040497,0.00361341,26,78.1869,0.056692
0.7496,0.429696,-0.479142,4.17257,3.66426,8.22198,5,0.0621867,0.00554872,34,59.4966,0.0327914
0.618335,-0.651948,-0.39271,4.22623,3.64666,8.23759,6,0.023927,0.00213493,43,83.0305,0.0392468
0.40943,0.774525,-0.463686,4.23442,3.71814,8.24476,7,0.0314844,0.00280925,53,75.3376,0.0341535
0.910425,-0.204524,-0.329446,4.27122,3.6539,8.25394,8,0.0254056,0.00226686,64,119.033,0.0254775
0.63236,0.73371,0.156988,4.22746,3.7109,8.27221,9,0.0168625,0.00150459,76,79.9016,0.0612369
-0.83626,-0.483351,0.111627,4.14156,3.64795,8.21962,10,0.0742814,0.00662788,89,107.736,0.0472674
0.958818,0.0847337,0.146884,4.27893,3.66677,8.29007,11,0.0432625,0.00386017,103,86.1589,0.0541429
0.0880162,-0.935616,0.249184,4.22919,3.6033,8.25805,12,0.0563647,0.00502924,118,79.1531,0.0374151
-0.359955,-0.90555,0.174508,4.19994,3.61294,8.25045,13,0.0291915,0.00260466,134,99.1345,0.0492302
0.734547,-0.57967,0.26304,4.27566,3.62649,8.28187,14,0.0466684,0.00416407,151,101.022,0.053029
-0.482766,-0.683992,0.514769,4.1915,3.61768,8.25283,15,0.0540029,0.00481851,169,165.831,0.0269717
0.348183,0.357056,0.811164,4.23745,3.69083,8.30037,16,0.018197,0.00162366,18,55.953,0.09518
,,,,,,,,,25,90.7257,0.0607161
,,,,,,,,,33,26.8604,0.0822112
,,,,,,,,,42,59.277,0.0399674
,,,,,,,,,52,39.2238,0.049989
,,,,,,,,,63,44.9041,0.0420093
,,,,,,,,,75,68.2236,0.0296077
,,,,,,,,,88,130.845,0.0921263
,,,,,,,,,102,65.8553,0.0637721
,,,,,,,,,117,112.21,0.0769569
,,,,,,,,,133,122.581,0.0470549
,,,,,,,,,150,87.7759,0.0673974
,,,,,,,,,168,147.412,0.0747258
,,,,,,,,,187,115.291,0.031645
,,,,,,,,,32,87.9239,0.0533917
,,,,,,,,,41,69.3116,0.0693327
,,,,,,,,,51,107.848,0.0366571
,,,,,,,,,62,48.69,0.0449159
,,,,,,,,,74,100.822,0.0383676
,,,,,,,,,87,84.3446,0.0277512
,,,,,,,,,101,94.6977,0.0762539
,,,,,,,,,116,113.301,0.0557405
,,,,,,,,,132,141.339,0.0655578
,,,,,,,,,149,122.653,0.0425329
,,,,,,,,,167,143.55,0.0584905
,,,,,,,,,186,128.687,0.0639318
,,,,,,,,,206,122.307,0.0295334
,,,,,,,,,50,115.841,0.0490511
,,,,,,,,,61,64.3704,0.0300811
,,,,,,,,,73,124.4,0.0354264
,,,,,,,,,86,94.4625,0.0312233
,,,,,,,,,100,158.357,0.0238106
,,,,,,,,,115,45.6169,0.052417
,,,,,,,,,131,123.926,0.0418341
,,,,,,,,,148,53.9428,0.0471311
,,,,,,,,,166,38.4839,0.0339272
,,,,,,,,,185,89.1955,0.0433642
,,,,,,,,,205,59.598,0.0462848
,,,,,,,,,226,147.456,0.0251107
,,,,,,,,,72,67.4505,0.0345576
,,,,,,,,,85,28.3462,0.0418039
,,,,,,,,,99,39.6817,0.0360737
,,,,,,,,,114,42.5606,0.0265309
,,,,,,,,,130,157.581,0.0676981
,,,,,,,,,147,44.6176,0.0510265
,,,,,,,,,165,118.305,0.0591328
,,,,,,,,,184,139.393,0.0397321
,,,,,,,,,204,79.4698,0.0533214
,,,,,,,,,225,158.341,0.0578066
,,,,,,,,,247,88.4309,0.0281552
,,,,,,,,,98,94.1115,0.0271903
,,,,,,,,,113,31.6937,0.0246441
,,,,,,,,,129,98.9069,0.019783
,,,,,,,,,146,104.94,0.0361951
,,,,,,,,,164,59.824,0.0308126
,,,,,,,,,183,53.5409,0.0335935
,,,,,,,,,203,72.0445,0.0262983
,,,,,,,,,224,40.125,0.0316348
,,,,,,,,,246,93.2561,0.0331613
,,,,,,,,,269,111.093,0.0206723
,,,,,,,,,128,68.0213,0.0281202
,,,,,,,,,145,39.1396,0.0219624
,,,,,,,,,163,142.881,0.0442242
,,,,,,,,,182,66.1607,0.0364455
,,,,,,,,,202,146.56,0.0404013
,,,,,,,,,223,161.333,0.0302946
,,,,,,,,,245,106.286,0.0376014
,,,,,,,,,268,172.626,0.0397778
,,,,,,,,,292,87.3901,0.0230638
,,,,,,,,,162,67.3501,0.0202707
,,,,,,,,,181,136.615,0.0378617
,,,,,,,,,201,33.0958,0.0320122
,,,,,,,,,222,78.6466,0.0350244
,,,,,,,,,244,101.78,0.0271673
,,,,,,,,,267,43.2442,0.0329006
,,,,,,,,,291,118.846,0.0345549
,,,,,,,,,316,91.4149,0.0212054
,,,,,,,,,200,155.175,0.0274856
,,,,,,,,,221,43.6311,0.0242666
,,,,,,,,,243,128.333,0.025959
,,,,,,,,,266,152.884,0.0213767
,,,,,,,,,290,85.1594,0.0247737
,,,,,,,,,315,138.864,0.0257001
,,,,,,,,,341,49.2837,0.0175044
,,,,,,,,,242,150.793,0.0546791
,,,,,,,,,265,64.5354,0.0640945
,,,,,,,,,289,38.0314,0.0419121
,,,,,,,,,314,108.81,0.0573229
,,,,,,,,,340,34.0474,0.0625394
,,,,,,,,,367,113.772,0.0292327
,,,,,,,,,288,87.4744,0.0489521
,,,,,,,,,313,114.271,0.0348606
,,,,,,,,,339,42.8538,0.044901
,,,,,,,,,366,117.727,0.0480397
,,,,,,,,,394,58.5867,0.0256184
,,,,,,,,,338,26.8051,0.0384629
,,,,,,,,,365,44.627,0.0510603
,,,,,,,,,393,40.5769,0.0551586
,,,,,,,,,422,96.2816,0.0275119
,,,,,,,,,392,71.4312,0.0359167
,,,,,,,,,421,24.8311,0.0378974
,,,,,,,,,451,109.013,0.0224188
,,,,,,,,,450,79.305,0.0500685
,,,,,,,,,481,73.5463,0.0261842
,,,,,,,,,512,89.6787,0.0272214
