facetNormals:0,facetNormals:1,facetNormals:2,FacetCenters:0,FacetCenters:1,FacetCenters:2,FacetIds,relFacetSize,absFacetSize,cellPairingIds,interplanarAngles,angleWeights
0.70657,-0.286072,-0.607326,7.38636,4.12505,5.95825,1,0.0159468,0.00230149,8,99.9369,0.0278699
-0.705288,-0.0187249,-0.561938,7.31704,4.24673,6.00932,2,0.110455,0.0159412,13,62.2566,0.0232298
0.499203,0.685719,-0.464743,7.36098,4.28927,6.06402,3,0.0427572,0.00617086,19,102.076,0.0176218
-0.272463,0.854917,-0.391063,7.32269,4.33607,6.05085,4,0.0196901,0.00284174,26,120.748,0.018777
-0.922434,-0.32874,-0.109814,7.32421,4.23403,6.03194,5,0.0228284,0.00329468,34,33.1202,0.0156455
0.963457,-0.154761,-0.129202,7.39278,4.16567,6.04423,6,0.0153555,0.00221615,43,102.97,0.0132443
-0.719596,-0.668489,-0.163657,7.34093,4.20771,6.03032,7,0.0113251,0.00163447,53,55.4859,0.018103
0.910669,0.371354,-0.00975259,7.39748,4.27681,6.13215,8,0.0209335,0.00302119,64,105.524,0.0207136
-0.0266986,0.971297,-0.070145,7.36645,4.29888,6.06442,9,0.0295451,0.00426405,76,134.241,0.0186524
-0.483854,0.849327,0.143118,7.32521,4.33416,6.10234,10,0.0224637,0.00324203,89,61.9158,0.0243454
0.488382,-0.79477,0.218697,7.42738,4.16962,6.07323,11,0.0514337,0.00742309,103,110.587,0.0288829
-0.50716,-0.759015,0.311838,7.35529,4.20841,6.12468,12,0.152986,0.0220795,118,144.667,0.0216918
-0.922716,-0.178685,0.303847,7.29131,4.26715,6.1158,13,0.0339075,0.00489365,134,75.5455,0.0257641
0.782765,-0.0250209,0.541141,7.41891,4.22143,6.1481,14,0.0670292,0.00967388,151,97.3074,0.0224855
0.459658,0.76571,0.371537,7.38419,4.23656,6.10726,15,0.0381133,0.00550063,169,174.629,0.0241376
-0.709938,0.360604,0.554834,7.30823,4.29232,6.13476,16,0.0496289,0.00716261,188,146.47,0.0234724
-0.306655,0.685127,0.640889,7.34456,4.32694,6.173,17,0.0444488,0.00641499,208,144.027,0.0175581
-0.22445,0.142709,0.938347,7.35749,4.25297,6.18575,18,0.0195315,0.00281885,18,96.8314,0.0616497
,,,,,,,,,25,63.3561,0.0334222
,,,,,,,,,33,36.0671,0.0378369
,,,,,,,,,42,132.869,0.0269626
,,,,,,,,,52,47.0447,0.0205437
,,,,,,,,,63,136.525,0.0351965
,,,,,,,,,75,87.387,0.04662
,,,,,,,,,88,74.0455,0.0373345
,,,,,,,,,102,121.571,0.0701853
,,,,,,,,,117,76.9361,0.128287
,,,,,,,,,133,57.1418,0.0518868
,,,,,,,,,150,175.268,0.0834294
,,,,,,,,,168,128.852,0.0566715
,,,,,,,,,187,77.9882,0.068486
,,,,,,,,,207,100.137,0.0633888
,,,,,,,,,228,114.992,0.0331935
,,,,,,,,,32,48.12,0.0269633
,,,,,,,,,41,131.771,0.0297651
,,,,,,,,,51,62.8185,0.022596
,,,,,,,,,62,140.356,0.0179071
,,,,,,,,,74,41.3762,0.0281064
,,,,,,,,,87,43.3355,0.034944
,,,,,,,,,101,73.3136,0.0294533
,,,,,,,,,116,115.767,0.0466958
,,,,,,,,,132,169.919,0.0668351
,,,,,,,,,149,139.309,0.0378216
,,,,,,,,,167,82.3784,0.0522101
,,,,,,,,,186,51.5406,0.0403019
,,,,,,,,,206,112.883,0.0459375
,,,,,,,,,227,88.8671,0.0435866
,,,,,,,,,249,118.513,0.0268143
,,,,,,,,,50,89.2142,0.0211434
,,,,,,,,,61,110.937,0.0172547
,,,,,,,,,73,108.636,0.0143795
,,,,,,,,,86,85.6411,0.0202928
,,,,,,,,,100,24.8741,0.0236313
,,,,,,,,,115,33.9659,0.0209856
,,,,,,,,,131,163.256,0.0284781
,,,,,,,,,148,132.071,0.0348897
,,,,,,,,,166,91.1959,0.0249131
,,,,,,,,,185,118.618,0.0304387
,,,,,,,,,205,66.0665,0.0259657
,,,,,,,,,226,72.5574,0.0281942
,,,,,,,,,248,64.3196,0.0272908
,,,,,,,,,271,101.1,0.0196105
,,,,,,,,,72,148.122,0.0183607
,,,,,,,,,85,23.2502,0.0151395
,,,,,,,,,99,172.576,0.02184
,,,,,,,,,114,107.394,0.0257561
,,,,,,,,,130,81.0528,0.0226446
,,,,,,,,,147,103.053,0.0316218
,,,,,,,,,165,44.0596,0.0397286
,,,,,,,,,184,25.7716,0.0272863
,,,,,,,,,204,145.52,0.0340577
,,,,,,,,,225,138.741,0.0285541
,,,,,,,,,247,60.1916,0.0312722
,,,,,,,,,270,90.7504,0.0301646
,,,,,,,,,294,86.5949,0.0210517
,,,,,,,,,98,125.467,0.0130358
,,,,,,,,,113,31.9799,0.0177158
,,,,,,,,,129,100.028,0.0202081
,,,,,,,,,146,129.315,0.0182416
,,,,,,,,,164,53.1745,0.0236502
,,,,,,,,,183,115.678,0.0279096
,,,,,,,,,203,157.863,0.0211382
,,,,,,,,,224,42.7458,0.0249868
,,,,,,,,,246,73.1269,0.0218912
,,,,,,,,,269,148.153,0.0234541
,,,,,,,,,293,119.899,0.0228255
,,,,,,,,,318,111.996,0.0171935
,,,,,,,,,128,157.074,0.0146983
,,,,,,,,,145,129.622,0.0163738
,,,,,,,,,163,104.302,0.0150584
,,,,,,,,,182,81.3147,0.0185628
,,,,,,,,,202,31.2344,0.021089
,,,,,,,,,223,41.7561,0.0169791
,,,,,,,,,245,132.07,0.0193763
,,,,,,,,,268,159.719,0.0174615
,,,,,,,,,292,79.3251,0.0184418
,,,,,,,,,317,110.378,0.0180509
,,,,,,,,,343,95.1666,0.014337
,,,,,,,,,162,69.4031,0.0245047
,,,,,,,,,181,97.4883,0.0216716
,,,,,,,,,201,80.9959,0.0297562
,,,,,,,,,222,141.914,0.0368278
,,,,,,,,,244,159.441,0.0258859
,,,,,,,,,267,41.7707,0.0319034
,,,,,,,,,291,42.6854,0.0270241
,,,,,,,,,316,122.868,0.0294465
,,,,,,,,,342,91.8351,0.0284624
,,,,,,,,,369,99.6354,0.0202082
,,,,,,,,,200,30.6651,0.0255223
,,,,,,,,,221,149.031,0.0375312
,,,,,,,,,243,142.5,0.0495257
,,,,,,,,,266,100.19,0.0315764
,,,,,,,,,290,95.1448,0.0410127
,,,,,,,,,315,41.5328,0.0332866
,,,,,,,,,341,69.553,0.0370397
,,,,,,,,,368,49.1677,0.035496
,,,,,,,,,396,85.2436,0.0235167
,,,,,,,,,242,158.393,0.0312701
,,,,,,,,,265,111.847,0.0391751
,,,,,,,,,289,69.7224,0.027024
,,,,,,,,,314,110.059,0.0336501
,,,,,,,,,340,59.7704,0.028267
,,,,,,,,,367,40.4881,0.0309282
,,,,,,,,,395,32.5399,0.0298444
,,,,,,,,,424,67.7971,0.0208952
,,,,,,,,,288,62.7111,0.0769852
,,,,,,,,,313,104.826,0.040871
,,,,,,,,,339,55.201,0.0582049
,,,,,,,,,366,109.071,0.0437827
,,,,,,,,,394,123.408,0.0505152
,,,,,,,,,423,125.871,0.0476868
,,,,,,,,,453,91.093,0.0283119
,,,,,,,,,338,42.8696,0.0555116
,,,,,,,,,365,103.172,0.0932166
,,,,,,,,,393,138.463,0.0610238
,,,,,,,,,422,73.9164,0.0749454
,,,,,,,,,452,99.958,0.0688839
,,,,,,,,,483,71.5262,0.0346405
,,,,,,,,,392,126.052,0.0450341
,,,,,,,,,421,117.967,0.0358876
,,,,,,,,,451,37.628,0.0402889
,,,,,,,,,482,68.6289,0.0384691
,,,,,,,,,514,61.0226,0.0247858
,,,,,,,,,450,53.9637,0.048595
,,,,,,,,,481,106.636,0.0570314
,,,,,,,,,513,84.5259,0.0534521
,,,,,,,,,546,69.2778,0.0302489
,,,,,,,,,512,80.4386,0.0431154
,,,,,,,,,545,49.3632,0.0410379
,,,,,,,,,579,67.913,0.0258275
,,,,,,,,,578,31.084,0.0468962
,,,,,,,,,613,39.3998,0.0280313
,,,,,,,,,648,37.0809,0.0271381
