facetNormals:0,facetNormals:1,facetNormals:2,FacetCenters:0,FacetCenters:1,FacetCenters:2,FacetIds,relFacetSize,absFacetSize,cellPairingIds,interplanarAngles,angleWeights
-0.12111,0.466749,-0.848806,7.67139,5.42161,6.00187,1,0.02015,0.00431534,8,61.6842,0.0235141
0.65106,-0.133788,-0.688539,7.73637,5.36749,6.00415,2,0.0282267,0.00604504,13,45.2784,0.026214
0.592282,0.45112,-0.621107,7.70554,5.36666,5.98333,3,0.0374992,0.00803085,19,40.3247,0.0169207
-0.715195,0.420371,-0.529955,7.67711,5.42744,5.98453,4,0.0145835,0.0031232,26,98.7487,0.0346482
0.942165,0.0553353,0.0614458,7.78625,5.38304,6.07218,5,0.123529,0.0264551,34,63.091,0.0364835
0.078949,0.902859,0.0134178,7.69169,5.43008,6.06003,6,0.192622,0.041252,43,132.498,0.02974
0.442428,-0.822264,0.232326,7.75543,5.30934,6.09248,7,0.0567482,0.0121532,53,98.5051,0.0344873
-0.801774,0.293365,0.439013,7.69213,5.4336,6.08095,8,0.119552,0.0256033,64,123.976,0.0303489
-0.736764,-0.309319,0.563461,7.70495,5.35311,6.0944,9,0.0614538,0.013161,76,138.268,0.0158881
0.740351,-0.23198,0.618268,7.70836,5.29089,6.11717,10,0.0131143,0.00280857,89,104.438,0.0141893
0.0760033,0.727071,0.674125,7.69348,5.41413,6.12822,11,0.0109501,0.00234509,103,152.663,0.0319633
0.344167,-0.07014,0.887043,7.67386,5.31889,6.15271,12,0.0772556,0.0165451,118,124.029,0.0176535
0.110567,0.454963,0.870648,7.64012,5.35314,6.13341,13,0.0157075,0.00336392,18,35.7649,0.0322089
,,,,,,,,,25,99.592,0.0192311
,,,,,,,,,33,51.4805,0.045953
,,,,,,,,,42,95.2008,0.049238
,,,,,,,,,52,75.0154,0.0377009
,,,,,,,,,63,160.035,0.0456704
,,,,,,,,,75,152.01,0.0386848
,,,,,,,,,88,84.7213,0.0179083
,,,,,,,,,102,122.545,0.015779
,,,,,,,,,117,114.409,0.0413466
,,,,,,,,,133,128.455,0.0201834
,,,,,,,,,32,84.2757,0.021
,,,,,,,,,41,53.5493,0.0575333
,,,,,,,,,51,59.5238,0.0627771
,,,,,,,,,62,105.748,0.045158
,,,,,,,,,74,131.371,0.057091
,,,,,,,,,87,167.599,0.046577
,,,,,,,,,101,92.9895,0.0194326
,,,,,,,,,116,92.7163,0.0169506
,,,,,,,,,132,114.17,0.0504907
,,,,,,,,,149,106.364,0.0221407
,,,,,,,,,50,137.2,0.0260871
,,,,,,,,,61,69.2613,0.0271141
,,,,,,,,,73,145.993,0.0232039
,,,,,,,,,86,60.589,0.0259958
,,,,,,,,,100,84.1387,0.0235729
,,,,,,,,,115,167.834,0.0138099
,,,,,,,,,131,96.2148,0.0125083
,,,,,,,,,148,142.562,0.0245354
,,,,,,,,,166,111.03,0.0151246
,,,,,,,,,72,81.6043,0.150526
,,,,,,,,,85,64.9294,0.0777697
,,,,,,,,,99,141.663,0.121508
,,,,,,,,,114,137.03,0.0820761
,,,,,,,,,130,39.626,0.0237113
,,,,,,,,,147,80.6213,0.020117
,,,,,,,,,165,65.4514,0.0950602
,,,,,,,,,184,78.7223,0.027871
,,,,,,,,,98,143.862,0.0876684
,,,,,,,,,113,76.2071,0.147535
,,,,,,,,,129,111.853,0.0931796
,,,,,,,,,146,99.1311,0.0245567
,,,,,,,,,164,41.8417,0.0207223
,,,,,,,,,183,91.6071,0.11028
,,,,,,,,,203,61.2356,0.0290463
,,,,,,,,,128,122.326,0.0769637
,,,,,,,,,145,86.3871,0.0590073
,,,,,,,,,163,46.0965,0.0213051
,,,,,,,,,182,115.214,0.0183579
,,,,,,,,,202,63.0514,0.0654327
,,,,,,,,,223,97.4242,0.0246046
,,,,,,,,,162,37.2328,0.0811788
,,,,,,,,,181,114.187,0.0236359
,,,,,,,,,201,61.9914,0.0200627
,,,,,,,,,222,84.1783,0.0938587
,,,,,,,,,244,63.2576,0.0277668
,,,,,,,,,200,97.4243,0.0216158
,,,,,,,,,221,84.1589,0.0185882
,,,,,,,,,243,73.3074,0.0684546
,,,,,,,,,266,73.8787,0.0250199
,,,,,,,,,242,72.028,0.0119349
,,,,,,,,,265,30.0206,0.0224224
,,,,,,,,,289,58.3498,0.0142942
,,,,,,,,,288,52.8346,0.0191815
,,,,,,,,,313,19.5918,0.0129043
,,,,,,,,,338,34.373,0.0261069
