"cellPairingIds","interplanarAngles","angleWeights"
8,118.273,0.0327395
13,76.0754,0.028986
19,132.84,0.0341392
34,51.7787,0.0307697
64,62.3702,0.0407547
89,91.4905,0.0312883
18,68.3118,0.0442764
25,48.5984,0.0575448
33,32.6712,0.0293956
117,91.3216,0.0573523
41,42.2364,0.0263338
51,40.1169,0.0407485
62,45.4496,0.0225622
86,38.5448,0.0578937
100,115.506,0.0879456
148,74.6843,0.0617902
85,30.9457,0.0179355
165,84.431,0.0304648
98,70.3334,0.0236283
146,65.2664,0.0444317
164,84.8957,0.0454501
163,26.6486,0.0236476
182,101.147,0.023933
202,63.7715,0.025528
162,88.8498,0.0798834
201,77.19,0.0501454
222,46.1448,0.0576988
221,39.3095,0.0712269
242,74.6697,0.0455213
288,58.3631,0.0530426
