Q	U	V
{$V$}	{[mm$^3$]}	0.00463698
{$d_v$}	{[mm]}	0.206893
{$S_c$}	{[mm$^2$]}	0.223788
{$S_o$}	{[mm$^2$]}	0.137611
{$S_l/S_o$}	[]	0.626236
{$\Psi$}	[]	0.600903
{$\eta$}	[]	0.644396
{med($\theta_e$)}	{[$^\circ$]}	50.7109
{$\Upsilon$}	[]	8
{$\Xi$}	[]	5
