facetNormals:0,facetNormals:1,facetNormals:2,FacetCenters:0,FacetCenters:1,FacetCenters:2,FacetIds,relFacetSize,absFacetSize,cellPairingIds,interplanarAngles,angleWeights
-0.273659,0.219542,-0.90908,6.89234,6.43503,6.2429,1,0.0199444,0.00444991,8,48.9522,0.0172814
0.0219516,-0.533598,-0.830478,6.90747,6.39575,6.2381,2,0.0152458,0.00340159,13,59.2275,0.0329237
0.654811,0.190173,-0.678861,6.95077,6.44042,6.26262,3,0.0942772,0.0210348,19,81.8346,0.0252359
0.504546,-0.66374,-0.456916,6.93691,6.38858,6.27267,4,0.0343493,0.00766388,26,37.4014,0.0292376
-0.755132,0.332022,-0.525187,6.82839,6.43032,6.28182,5,0.0547479,0.0122151,34,55.1184,0.0264188
0.381654,0.71515,-0.538854,6.94535,6.41937,6.24778,6,0.0391174,0.00872772,43,61.7398,0.0275871
-0.908313,-0.197856,-0.264929,6.90844,6.37656,6.3124,7,0.0447265,0.00997919,53,55.6519,0.0255221
-0.612826,0.724833,-0.231319,6.81822,6.43965,6.33439,8,0.0354307,0.00790516,64,97.2938,0.022637
0.828015,0.483676,-0.00195396,6.98206,6.39904,6.28637,9,0.0261702,0.005839,76,81.7454,0.0334339
-0.509945,-0.792587,-0.18573,6.89496,6.35417,6.30118,10,0.103305,0.0230491,89,114.358,0.0307645
0.229051,-0.942792,0.136515,6.9024,6.35479,6.35918,11,0.0672467,0.0150038,103,87.2151,0.0217359
-0.367525,0.856026,0.266897,6.89608,6.38637,6.29778,12,0.0238811,0.00532825,118,118.263,0.0306908
-0.163612,-0.907422,0.326604,6.89052,6.36408,6.39225,13,0.0665482,0.014848,134,119.21,0.0317622
-0.636121,-0.416806,0.596378,6.87618,6.40009,6.36089,14,0.0779519,0.0173923,18,59.8842,0.0262472
,,,,,,,,,25,37.5036,0.0211184
,,,,,,,,,33,75.4596,0.0238501
,,,,,,,,,42,85.5672,0.0219405
,,,,,,,,,52,71.3218,0.0227402
,,,,,,,,,63,102.459,0.0213184
,,,,,,,,,75,104.576,0.0192673
,,,,,,,,,88,53.364,0.0265704
,,,,,,,,,102,65.919,0.0248564
,,,,,,,,,117,135.846,0.0186106
,,,,,,,,,133,77.4803,0.0248083
,,,,,,,,,150,107.493,0.0255037
,,,,,,,,,32,55.788,0.0503529
,,,,,,,,,41,94.5596,0.0692699
,,,,,,,,,51,36.6177,0.0552928
,,,,,,,,,62,119.116,0.0606701
,,,,,,,,,74,96.4997,0.051505
,,,,,,,,,87,46.4676,0.0409682
,,,,,,,,,101,112.827,0.098585
,,,,,,,,,116,97.4346,0.0785002
,,,,,,,,,132,106.131,0.0381089
,,,,,,,,,149,122.191,0.0780223
,,,,,,,,,167,165.592,0.0853408
,,,,,,,,,50,112.876,0.0422135
,,,,,,,,,61,92.2233,0.0365786
,,,,,,,,,73,102.948,0.038857
,,,,,,,,,86,137.482,0.0348816
,,,,,,,,,100,83.8526,0.0297071
,,,,,,,,,115,67.2177,0.0515561
,,,,,,,,,131,43.2068,0.0454718
,,,,,,,,,148,161.866,0.0281742
,,,,,,,,,166,66.5216,0.045311
,,,,,,,,,185,110.168,0.0476859
,,,,,,,,,72,75.8778,0.0456312
,,,,,,,,,85,36.5524,0.0492324
,,,,,,,,,99,30.2937,0.0430203
,,,,,,,,,114,119.632,0.0354127
,,,,,,,,,130,76.4891,0.0715676
,,,,,,,,,147,125.596,0.060357
,,,,,,,,,165,63.5851,0.0332559
,,,,,,,,,184,111.415,0.0600741
,,,,,,,,,204,88.2564,0.0643211
,,,,,,,,,98,111.537,0.0417343
,,,,,,,,,113,64.518,0.0371829
,,,,,,,,,129,44.7432,0.03136
,,,,,,,,,146,135.018,0.0567471
,,,,,,,,,164,133.824,0.0494625
,,,,,,,,,183,69.645,0.0296568
,,,,,,,,,203,158.745,0.0492723
,,,,,,,,,224,156.426,0.0520935
,,,,,,,,,128,59.8365,0.0395395
,,,,,,,,,145,156.074,0.0330199
,,,,,,,,,163,43.8859,0.0624255
,,,,,,,,,182,93.4917,0.0537219
,,,,,,,,,202,84.2562,0.031137
,,,,,,,,,223,75.1945,0.0534976
,,,,,,,,,245,57.4769,0.0568399
,,,,,,,,,162,99.6097,0.0301044
,,,,,,,,,181,103.497,0.0527646
,,,,,,,,,201,153.324,0.0464094
,,,,,,,,,222,34.0988,0.0285314
,,,,,,,,,244,131.483,0.0462419
,,,,,,,,,267,93.05,0.048718
,,,,,,,,,200,150.947,0.0417612
,,,,,,,,,221,106.485,0.0376776
,,,,,,,,,243,83.2514,0.0249733
,,,,,,,,,266,127.807,0.0375671
,,,,,,,,,290,141.917,0.0391851
,,,,,,,,,242,49.9905,0.0814642
,,,,,,,,,265,125.505,0.0387941
,,,,,,,,,289,37.8474,0.0809496
,,,,,,,,,314,54.1301,0.0888554
,,,,,,,,,288,154.197,0.0352455
,,,,,,,,,313,25.8341,0.0668956
,,,,,,,,,339,69.69,0.0722047
,,,,,,,,,338,131.61,0.0351489
,,,,,,,,,365,87.787,0.0365613
,,,,,,,,,392,44.2589,0.0718001
