"cellPairingIds","interplanarAngles","angleWeights"
8,25.3308,0.0442014
13,44.8712,0.0572806
19,49.4883,0.0252342
26,25.8062,0.0646215
34,46.0493,0.0729917
43,54.5208,0.0838209
18,28.9485,0.0434153
25,32.7774,0.0221218
32,54.9819,0.024976
51,35.7607,0.0708727
74,45.4332,0.0716573
87,52.2895,0.0434761
116,57.9981,0.0528159
73,27.8782,0.0289766
115,49.7922,0.0238911
131,74.9175,0.0243282
148,55.3754,0.0242711
72,52.2943,0.0824634
85,64.0069,0.0965566
225,112.499,0.016529
129,40.5049,0.0519659
246,129.553,0.0170284
163,34.9543,0.0706309
268,116.445,0.0175576
162,28.6624,0.0523864
201,30.2678,0.0665715
291,124.068,0.0170733
315,111.662,0.0147892
265,62.3318,0.0479646
314,80.131,0.0345004
340,92.9602,0.0155518
288,30.1548,0.0497598
339,32.934,0.0354195
366,121.356,0.0157358
365,34.8573,0.0352986
450,91.4131,0.013931
