"cellPairingIds","interplanarAngles","angleWeights"
8,36.8304,0.067375
13,51.2777,0.0916056
19,75.6595,0.0484073
26,68.22,0.0573593
34,73.6248,0.0819627
53,112.063,0.0483989
25,39.092,0.0447703
63,119.252,0.0447632
41,42.4037,0.0658492
74,71.1195,0.0543069
61,89.3434,0.0507754
73,27.462,0.0327722
86,118.652,0.035517
115,73.7078,0.0527881
166,103.595,0.0334781
72,61.9958,0.0607145
99,93.7647,0.04011
114,69.7518,0.0265308
165,80.8271,0.0382133
129,36.3702,0.0308083
146,60.748,0.0953624
163,46.8824,0.0469365
223,89.8024,0.0310251
222,95.3222,0.0340176
244,45.859,0.0334741
200,41.1572,0.0315379
243,32.218,0.0237208
265,44.3126,0.0495426
289,77.8135,0.0483981
338,63.6706,0.0321427
