Q	U	V
{$V$}	{[mm$^3$]}	0.00820763
{$d_v$}	{[mm]}	0.250269
{$S_c$}	{[mm$^2$]}	0.325785
{$S_o$}	{[mm$^2$]}	0.20103
{$S_l/S_o$}	[]	0.620579
{$\Psi$}	[]	0.603993
{$\eta$}	[]	0.614448
{med($\theta_e$)}	{[$^\circ$]}	51.70265
{$\Upsilon$}	[]	20
{$\Xi$}	[]	12
