"cellPairingIds","interplanarAngles","angleWeights"
8,55.2206,0.0199784
13,36.5616,0.0232846
26,36.2418,0.0247479
53,69.4973,0.0239717
18,51.3829,0.0469143
33,84.5445,0.0532595
42,52.2299,0.0480222
52,61.0729,0.0171593
75,72.1102,0.0264716
62,43.0034,0.0195426
74,55.408,0.0770578
72,86.1611,0.0894694
99,74.7287,0.0958058
130,53.2112,0.15413
147,70.2342,0.0534262
129,75.458,0.0331374
164,65.1485,0.0481577
128,64.8624,0.0200243
145,60.3528,0.0147861
162,116.562,0.0339696
181,48.0666,0.128263
200,150.218,0.0392336
221,113.878,0.0265127
242,74.4726,0.0622041
