Q	U	V
{$V$}	{[mm$^3$]}	0.0075201
{$d_v$}	{[mm]}	0.243076
{$S_c$}	{[mm$^2$]}	0.455788
{$S_o$}	{[mm$^2$]}	0.250367
{$S_l/S_o$}	[]	0.820480
{$\Psi$}	[]	0.407259
{$\eta$}	[]	0.453987
{med($\theta_e$)}	{[$^\circ$]}	83.628
{$\Upsilon$}	[]	19
{$\Xi$}	[]	16
