Q	U	V
{$V$}	{[mm$^3$]}	0.0107226
{$d_v$}	{[mm]}	0.273590
{$S_c$}	{[mm$^2$]}	0.379071
{$S_o$}	{[mm$^2$]}	0.237457
{$S_l/S_o$}	[]	0.596377
{$\Psi$}	[]	0.620341
{$\eta$}	[]	0.651569
{med($\theta_e$)}	{[$^\circ$]}	53.26465
{$\Upsilon$}	[]	19
{$\Xi$}	[]	7
