"cellPairingIds","interplanarAngles","angleWeights"
8,39.1877,0.0246804
19,61.0913,0.0298931
76,76.445,0.0276347
89,87.6894,0.0173695
134,108.606,0.0283805
25,32.9162,0.064312
33,35.5103,0.0418711
88,98.691,0.0546957
50,61.3839,0.059462
100,72.3188,0.0681185
131,131.786,0.0306716
148,80.2444,0.0504072
248,115.525,0.0099107
114,34.3044,0.0434519
130,77.968,0.0511476
184,67.156,0.0355114
266,43.6246,0.0384279
368,110.502,0.00933729
289,64.9689,0.044326
314,48.3299,0.0769199
288,73.9485,0.022749
339,33.1382,0.0290813
365,92.9395,0.0462506
452,49.758,0.00890824
392,78.8348,0.0462765
482,86.6664,0.0089092
513,68.0664,0.00973862
