facetNormals:0,facetNormals:1,facetNormals:2,FacetCenters:0,FacetCenters:1,FacetCenters:2,FacetIds,relFacetSize,absFacetSize,cellPairingIds,interplanarAngles,angleWeights
0.0385051,-0.404922,-0.897504,4.77002,7.17741,5.61993,1,0.0237995,0.00228763,8,41.8527,0.0378358
0.137983,0.286533,-0.917366,4.76723,7.27862,5.61231,2,0.0922321,0.00886545,13,31.5702,0.031166
0.488015,-0.11424,-0.852868,4.77805,7.17545,5.62221,3,0.0451371,0.00433863,19,68.9175,0.034292
0.730518,0.366835,-0.515915,4.82847,7.31596,5.63313,4,0.0613309,0.0058952,26,31.8217,0.0258156
0.51461,-0.519821,-0.666642,4.78062,7.18465,5.62131,5,0.0282049,0.00271109,34,78.9207,0.0118006
-0.925298,-0.235866,-0.136804,4.7494,7.30777,5.6463,6,0.00784524,0.000754093,43,65.8615,0.0281377
0.911145,-0.0829011,-0.365921,4.83985,7.23613,5.65376,7,0.03441,0.00330753,53,93.2355,0.0330609
-0.241597,0.867751,-0.342157,4.75181,7.33902,5.65753,8,0.054122,0.00520227,64,60.2772,0.0317739
0.099186,-0.949942,-0.0893408,4.73588,7.14534,5.6737,9,0.0477851,0.00459316,76,84.0293,0.0208886
0.964638,-0.198952,0.0186414,4.84181,7.2669,5.67831,10,0.0186122,0.00178903,89,66.3734,0.0326202
0.728702,-0.646784,-0.108291,4.7849,7.14669,5.67899,11,0.0518298,0.00498194,103,88.3154,0.0340779
0.432714,-0.797136,0.346862,4.77397,7.1463,5.70455,12,0.0599834,0.00576567,118,100.389,0.0285539
0.792497,-0.408757,0.412976,4.80437,7.18734,5.71679,13,0.0356821,0.0034298,134,103.684,0.0233294
-0.601806,-0.589189,0.493534,4.84526,7.34126,5.60159,14,0.0228775,0.00219901,151,140.931,0.0392457
0.319817,0.764355,0.488945,4.77756,7.32326,5.72953,15,0.111816,0.0107478,169,136.182,0.0260305
0.649956,0.243625,0.697481,4.82059,7.26263,5.74971,16,0.0287231,0.00276089,188,129.905,0.0344477
0.338432,-0.328463,0.843145,4.78199,7.21016,5.76275,17,0.0623388,0.00599207,208,166.164,0.0156428
0.177356,0.308166,0.927192,4.76105,7.27731,5.77873,18,0.0116501,0.00111982,18,31.7216,0.0606117
,,,,,,,,,25,43.6416,0.0736724
,,,,,,,,,33,56.2665,0.0431993
,,,,,,,,,42,94.2715,0.0144605
,,,,,,,,,52,62.7774,0.0501209
,,,,,,,,,63,55.5527,0.0682152
,,,,,,,,,75,100.927,0.062954
,,,,,,,,,88,86.4637,0.030974
,,,,,,,,,102,89.1232,0.0663656
,,,,,,,,,117,121.092,0.0726916
,,,,,,,,,133,113.904,0.0514569
,,,,,,,,,150,138.025,0.0366615
,,,,,,,,,168,101.448,0.101084
,,,,,,,,,187,120.184,0.0438045
,,,,,,,,,207,151.063,0.0743948
,,,,,,,,,228,139.927,0.0206871
,,,,,,,,,32,37.8949,0.0520025
,,,,,,,,,41,26.1144,0.0347165
,,,,,,,,,51,108.826,0.0133671
,,,,,,,,,62,38.1831,0.0390503
,,,,,,,,,74,85.5004,0.0492229
,,,,,,,,,87,75.779,0.0464234
,,,,,,,,,101,60.6544,0.0263564
,,,,,,,,,116,57.4442,0.0482525
,,,,,,,,,132,89.6177,0.0515119
,,,,,,,,,149,85.2066,0.0398565
,,,,,,,,,167,132.092,0.0303648
,,,,,,,,,186,111.464,0.0643128
,,,,,,,,,206,108.291,0.0351062
,,,,,,,,,227,122.708,0.0523614
,,,,,,,,,249,138.826,0.01852
,,,,,,,,,50,56.4166,0.03864
,,,,,,,,,61,137.903,0.013911
,,,,,,,,,73,30.109,0.0440856
,,,,,,,,,86,70.0135,0.0575014
,,,,,,,,,100,104.357,0.0537172
,,,,,,,,,115,49.2109,0.0285579
,,,,,,,,,131,68.2641,0.0561815
,,,,,,,,,148,99.5209,0.0606497
,,,,,,,,,166,76.8611,0.0451159
,,,,,,,,,185,164.754,0.0333245
,,,,,,,,,205,73.6515,0.0792133
,,,,,,,,,226,77.595,0.0391235
,,,,,,,,,248,109.274,0.0618307
,,,,,,,,,271,104.217,0.0195807
,,,,,,,,,72,105.951,0.0122759
,,,,,,,,,85,39.1818,0.031
,,,,,,,,,99,111.359,0.037084
,,,,,,,,,114,50.4586,0.0354724
,,,,,,,,,130,52.9507,0.0224258
,,,,,,,,,147,36.1522,0.0365305
,,,,,,,,,165,65.0223,0.0383685
,,,,,,,,,184,69.2224,0.031506
,,,,,,,,,204,110.127,0.0252634
,,,,,,,,,225,125.929,0.045047
,,,,,,,,,247,105.31,0.0284616
,,,,,,,,,270,103.129,0.0388378
,,,,,,,,,294,134.352,0.0164892
,,,,,,,,,98,144.462,0.0127773
,,,,,,,,,113,85.9476,0.013704
,,,,,,,,,129,81.0159,0.0134777
,,,,,,,,,146,153.199,0.0110379
,,,,,,,,,164,122.413,0.0136277
,,,,,,,,,183,106.104,0.0138757
,,,,,,,,,203,137.009,0.0128625
,,,,,,,,,224,48.1455,0.0116838
,,,,,,,,,246,125.817,0.0146618
,,,,,,,,,269,142.621,0.0123243
,,,,,,,,,293,112.127,0.0139366
,,,,,,,,,318,112.31,0.00937636
,,,,,,,,,128,100.122,0.0420715
,,,,,,,,,145,77.6721,0.0400093
,,,,,,,,,163,23.7355,0.0241577
,,,,,,,,,182,38.3854,0.0413606
,,,,,,,,,202,69.6071,0.0437325
,,,,,,,,,223,51.3442,0.0350345
,,,,,,,,,245,134.994,0.027483
,,,,,,,,,268,87.03,0.0526252
,,,,,,,,,292,70.9307,0.0313104
,,,,,,,,,317,88.3707,0.0443432
,,,,,,,,,343,101.987,0.0174068
,,,,,,,,,162,152.211,0.0507565
,,,,,,,,,181,115.729,0.027699
,,,,,,,,,201,137.843,0.0529511
,,,,,,,,,222,167.914,0.0569021
,,,,,,,,,244,136.555,0.0430089
,,,,,,,,,267,124.647,0.0321607
,,,,,,,,,291,63.1487,0.0729393
,,,,,,,,,316,101.207,0.0375291
,,,,,,,,,342,134.744,0.0579405
,,,,,,,,,369,95.5586,0.019173
,,,,,,,,,200,72.5738,0.0267899
,,,,,,,,,221,42.2276,0.0497254
,,,,,,,,,243,34.3402,0.0531939
,,,,,,,,,266,62.8607,0.0408561
,,,,,,,,,290,60.8647,0.0309415
,,,,,,,,,315,143.103,0.0669561
,,,,,,,,,341,104.057,0.0358794
,,,,,,,,,368,73.0447,0.0541003
,,,,,,,,,396,112.074,0.018733
,,,,,,,,,242,30.7936,0.027389
,,,,,,,,,265,52.4912,0.0284093
,,,,,,,,,289,28.1582,0.0244638
,,,,,,,,,314,118.179,0.0205256
,,,,,,,,,340,79.9401,0.0319125
,,,,,,,,,367,52.3962,0.0225878
,,,,,,,,,395,64.646,0.0286658
,,,,,,,,,424,82.5371,0.0143303
,,,,,,,,,288,33.5555,0.0556093
,,,,,,,,,313,34.1613,0.0422662
,,,,,,,,,339,96.655,0.0317436
,,,,,,,,,366,109.464,0.0708285
,,,,,,,,,394,75.5621,0.0369623
,,,,,,,,,423,67.1512,0.0566006
,,,,,,,,,453,100.086,0.019024
,,,,,,,,,338,31.6878,0.0447462
,,,,,,,,,365,66.3378,0.0331223
,,,,,,,,,393,108.815,0.0780805
,,,,,,,,,422,69.8624,0.0388451
,,,,,,,,,452,41.6743,0.0611384
,,,,,,,,,483,80.8886,0.0195107
,,,,,,,,,392,91.9282,0.0278799
,,,,,,,,,421,81.304,0.0541
,,,,,,,,,451,43.3167,0.0318266
,,,,,,,,,482,37.7485,0.0453858
,,,,,,,,,514,65.9623,0.0175652
,,,,,,,,,450,115.311,0.0379836
,,,,,,,,,481,101.436,0.0254692
,,,,,,,,,513,64.5012,0.0334715
,,,,,,,,,546,79.9417,0.0154384
,,,,,,,,,512,39.0581,0.0457054
,,,,,,,,,545,73.1494,0.080049
,,,,,,,,,579,38.6984,0.0211015
,,,,,,,,,578,40.0195,0.0393262
,,,,,,,,,613,31.0605,0.0165766
,,,,,,,,,648,39.4716,0.0196313
