"cellPairingIds","interplanarAngles","angleWeights"
18,79.4829,0.0426776
63,77.9461,0.0398234
88,73.4771,0.0291937
133,125.544,0.0130972
62,87.7146,0.0487392
74,118.097,0.106315
87,73.3335,0.124226
149,125.696,0.0164888
128,51.8236,0.0450517
145,67.7612,0.0479833
223,115.127,0.013617
181,38.5934,0.0494353
244,114.311,0.0160446
266,71.9647,0.0164014
289,85.4904,0.013992
