"cellPairingIds","interplanarAngles","angleWeights"
13,76.2385,0.0376365
19,70.7586,0.0344872
26,65.6285,0.0314622
34,62.3251,0.0267049
53,54.1957,0.0468193
32,68.1114,0.0402487
41,63.9435,0.0361881
87,46.5977,0.0482464
132,50.6507,0.0381107
61,50.4538,0.0279941
115,59.8543,0.0162577
148,87.2683,0.034885
166,77.8537,0.0468202
185,70.5547,0.0381054
85,56.0923,0.040481
99,108.722,0.0445988
114,48.6544,0.0385489
147,113.46,0.0426286
225,69.8492,0.0356125
270,84.1053,0.0390662
113,24.3952,0.0356071
164,56.414,0.03434
203,58.1153,0.0335477
128,62.6029,0.07004
182,58.1332,0.0653003
201,42.5163,0.0767281
243,40.2096,0.040738
315,35.7028,0.0472287
341,61.1676,0.0377503
265,31.4886,0.0158975
314,35.9431,0.0165343
313,50.3583,0.0677641
423,73.6774,0.0616961
453,66.9952,0.049693
365,55.6314,0.0361836
422,35.6472,0.0312478
392,45.5327,0.0491895
514,40.8816,0.0480509
481,40.131,0.033807
546,42.4632,0.0389166
512,37.2567,0.0349299
545,39.0941,0.0480076
579,63.4977,0.040412
613,40.5126,0.0332652
648,43.9896,0.0449182
