"cellPairingIds","interplanarAngles","angleWeights"
8,62.2059,0.029394
26,71.766,0.03114
34,44.8797,0.0380344
18,30.9751,0.0195976
33,108.161,0.0285054
42,91.9462,0.0341763
63,48.3917,0.0444489
32,30.7429,0.0229857
41,98.9001,0.0203587
74,47.976,0.0273704
149,76.5094,0.0150423
50,69.3935,0.0362847
166,64.8513,0.0222618
72,91.2375,0.0365598
85,28.8941,0.0254133
147,51.8221,0.0494002
184,81.897,0.0197888
98,80.9913,0.0298256
113,110.81,0.0677089
129,63.1971,0.0612598
146,43.3519,0.0329294
183,78.3711,0.047649
182,45.4998,0.0378521
202,38.2395,0.030318
162,54.7003,0.104585
244,83.6576,0.0263503
267,79.0923,0.0746189
291,94.2302,0.035378
200,76.0576,0.0397448
243,103.95,0.063374
315,90.4468,0.0335335
265,37.0099,0.0335307
288,50.432,0.0720609
313,39.4776,0.0265937
339,48.0014,0.0766046
365,73.203,0.0509707
393,49.7494,0.0289991
392,24.75,0.0230708
450,28.6547,0.0297082
