"cellPairingIds","interplanarAngles","angleWeights"
25,40.7513,0.00566434
33,69.9584,0.00682988
117,76.8063,0.00960286
168,66.6666,0.00856029
187,82.717,0.00982617
50,95.7589,0.0078794
86,85.9925,0.00313957
205,63.6842,0.0102758
295,113.087,0.0042538
99,68.945,0.00346756
130,46.8837,0.011435
147,38.0481,0.0119555
165,56.0946,0.0183467
181,37.054,0.00358355
397,59.6574,0.0025217
242,41.5677,0.0134572
454,70.3351,0.00511191
288,45.4805,0.0241756
339,38.5813,0.0177055
484,95.788,0.00521338
365,26.2539,0.0365747
422,40.1442,0.101428
481,43.5714,0.0400405
580,103.446,0.00562456
765,53.5974,0.0341035
512,58.819,0.0443615
614,111.218,0.00570259
804,73.742,0.0371887
844,47.0353,0.0844567
970,73.0603,0.00607322
