facetNormals:0,facetNormals:1,facetNormals:2,FacetCenters:0,FacetCenters:1,FacetCenters:2,FacetIds,relFacetSize,absFacetSize,cellPairingIds,interplanarAngles,angleWeights
-0.480238,0.0180661,-0.826453,6.0057,4.06274,6.24075,1,0.0790963,0.0115458,8,67.2441,0.095133
0.432174,-0.50171,-0.690015,6.10621,4.05259,6.25055,2,0.119326,0.0174183,13,39.8287,0.0549937
-0.880655,0.218954,-0.346364,5.9869,4.0872,6.31766,3,0.0421497,0.00615268,19,57.6687,0.0144649
-0.395122,-0.818015,-0.40316,6.07374,4.0078,6.27436,4,0.00796035,0.00116199,26,67.1176,0.0965424
-0.881473,-0.301478,0.0848475,5.96469,4.06199,6.32646,5,0.123862,0.0180804,34,125.332,0.0360639
0.756407,-0.590926,0.204027,6.17355,4.05791,6.35035,6,0.0233567,0.00340942,43,120.607,0.119247
0.190527,-0.823361,0.429682,6.07682,4.02389,6.35906,7,0.242182,0.0353519,53,147.866,0.0767098
-0.0302966,0.0377799,0.960418,6.02233,4.09915,6.40743,8,0.074463,0.0108695,18,105.705,0.0622949
,,,,,,,,,25,56.9892,0.014925
,,,,,,,,,33,108.795,0.121552
,,,,,,,,,42,59.0542,0.0390666
,,,,,,,,,52,77.3253,0.159878
,,,,,,,,,63,139.064,0.0917016
,,,,,,,,,32,71.3636,0.0133916
,,,,,,,,,41,41.4664,0.0628962
,,,,,,,,,51,155.333,0.0300574
,,,,,,,,,62,122.655,0.0718028
,,,,,,,,,74,108.585,0.0538294
,,,,,,,,,50,52.9101,0.0149593
,,,,,,,,,61,83.9817,0.0118739
,,,,,,,,,73,63.1893,0.0154141
,,,,,,,,,86,115.147,0.0143831
,,,,,,,,,72,120.891,0.0393022
,,,,,,,,,85,82.4364,0.1639
,,,,,,,,,99,83.8223,0.0930104
,,,,,,,,,98,39.4574,0.0426045
,,,,,,,,,113,80.8102,0.0355595
,,,,,,,,,128,65.6576,0.113904
