Q	U	V
{$V$}	{[mm$^3$]}	0.00401713
{$d_v$}	{[mm]}	0.197230
{$S_c$}	{[mm$^2$]}	0.218323
{$S_o$}	{[mm$^2$]}	0.134048
{$S_l/S_o$}	[]	0.628693
{$\Psi$}	[]	0.559751
{$\eta$}	[]	0.627456
{med($\theta_e$)}	{[$^\circ$]}	74.20425
{$\Upsilon$}	[]	12
{$\Xi$}	[]	3
