Q	U	V
{$V$}	{[mm$^3$]}	0.00141544
{$d_v$}	{[mm]}	0.139304
{$S_c$}	{[mm$^2$]}	0.122169
{$S_o$}	{[mm$^2$]}	0.065382
{$S_l/S_o$}	[]	0.868542
{$\Psi$}	[]	0.499019
{$\eta$}	[]	0.518452
{med($\theta_e$)}	{[$^\circ$]}	75.6989
{$\Upsilon$}	[]	15
{$\Xi$}	[]	1
