"cellPairingIds","interplanarAngles","angleWeights"
8,28.9676,0.0201337
13,37.5503,0.0407684
26,47.317,0.0409567
34,58.0314,0.0430782
76,110.396,0.030193
42,32.4754,0.0238775
52,68.6666,0.0257218
88,127.883,0.0193098
41,26.9259,0.05573
74,68.2012,0.0483935
101,111.409,0.0375265
72,53.7805,0.0601378
99,44.4069,0.048659
98,83.7251,0.0804958
113,58.7002,0.0516829
129,31.5697,0.0193762
145,84.4887,0.0205733
163,71.6634,0.0447836
162,58.3638,0.0180075
181,146.357,0.0341818
316,56.674,0.0495524
200,144.284,0.0162558
290,82.8166,0.0171508
315,52.6222,0.0160541
341,59.6385,0.0190688
314,63.0139,0.0312214
367,107.625,0.0382197
450,35.036,0.0304858
481,61.5593,0.0435642
512,34.9448,0.0371231
