"cellPairingIds","interplanarAngles","angleWeights"
8,44.0372,0.0294784
19,35.5323,0.025906
34,43.8379,0.0525225
25,72.6875,0.0211664
33,31.5184,0.0350233
42,85.9806,0.036123
52,73.2434,0.0309134
63,49.99,0.0197436
61,41.3389,0.0309013
86,98.6974,0.0180743
205,86.4697,0.01671
85,72.0754,0.0545433
99,43.5736,0.0272964
114,71.2202,0.030072
147,62.6619,0.090128
98,55.7274,0.057258
129,80.1869,0.0308792
146,41.8491,0.0638176
224,73.6591,0.0536619
246,86.649,0.0248245
145,28.157,0.0269909
201,89.9561,0.0301276
244,36.9769,0.0302661
291,123.916,0.0158106
221,32.762,0.0335448
243,35.8468,0.0299802
290,63.2392,0.0261643
314,42.3975,0.0465
340,47.0109,0.0231734
288,40.4322,0.0893083
313,65.5224,0.13332
394,65.028,0.0295031
365,33.0812,0.051004
393,80.6681,0.0242402
422,64.5624,0.0267099
421,107,0.0266259
451,52.1895,0.0296359
450,51.6231,0.0216833
512,62.5576,0.0156369
