facetNormals:0,facetNormals:1,facetNormals:2,FacetCenters:0,FacetCenters:1,FacetCenters:2,FacetIds,relFacetSize,absFacetSize,cellPairingIds,interplanarAngles,angleWeights
-0.0436512,0.256653,-0.956344,4.15186,6.8298,6.76239,1,0.0217064,0.00229665,8,28.2107,0.0299628
0.415837,0.322571,-0.829894,4.20257,6.86044,6.74968,2,0.0483558,0.00511629,13,49.7827,0.0329713
0.344707,-0.455238,-0.790443,4.18657,6.77002,6.76528,3,0.0685427,0.00725217,19,33.2665,0.02209
-0.0303713,0.73834,-0.657738,4.18096,6.70744,6.84591,4,0.0224873,0.00237928,26,83.4232,0.0206832
-0.287935,-0.874505,-0.337967,4.13507,6.77365,6.79139,5,0.019752,0.00208987,34,66.3925,0.0369078
0.439114,0.816387,-0.194028,4.16084,6.92709,6.81558,6,0.123157,0.0130306,43,91.4379,0.0218354
0.688231,-0.670073,-0.185797,4.21772,6.77169,6.79349,7,0.021966,0.00232412,53,84.1761,0.0138803
-0.724035,0.616891,0.0980399,4.13279,6.83844,6.82777,8,0.010202,0.00107943,64,83.0064,0.0356663
0.932445,0.148509,-0.122856,4.17714,6.91063,6.82235,9,0.0999405,0.0105742,76,129.237,0.0255877
-0.609573,-0.501848,0.508967,4.1101,6.86019,6.85951,10,0.0311593,0.00329681,89,132.959,0.0349042
0.482373,-0.686633,0.474598,4.17519,6.75338,6.84153,11,0.0890441,0.00942132,103,112.344,0.0247563
0.707018,0.483216,0.485218,4.1656,6.91842,6.86348,12,0.0288033,0.00304754,118,118.486,0.0198543
0.29155,0.681311,0.660096,4.18829,6.90324,6.85834,13,0.0182935,0.00193555,134,165.933,0.0318012
0.24233,-0.365032,0.872477,4.14794,6.78367,6.87868,14,0.059448,0.00628991,151,141.908,0.0327485
0.57407,0.0598378,0.783828,4.19973,6.85598,6.86364,15,0.0666572,0.00705268,18,47.0856,0.0567063
,,,,,,,,,25,37.4888,0.0306986
,,,,,,,,,33,97.2331,0.0280475
,,,,,,,,,42,49.2949,0.069445
,,,,,,,,,52,76.5125,0.0302092
,,,,,,,,,63,101.258,0.0168492
,,,,,,,,,75,54.9311,0.0651763
,,,,,,,,,88,155.161,0.037898
,,,,,,,,,102,115.964,0.0626754
,,,,,,,,,117,87.2032,0.0361022
,,,,,,,,,133,102.242,0.0265448
,,,,,,,,,150,140.568,0.0533313
,,,,,,,,,168,114.223,0.0560504
,,,,,,,,,32,79.65,0.0338645
,,,,,,,,,41,53.7133,0.0306668
,,,,,,,,,51,94.1552,0.0880701
,,,,,,,,,62,43.7504,0.0332699
,,,,,,,,,74,130.688,0.0177605
,,,,,,,,,87,67.7926,0.081316
,,,,,,,,,101,114.782,0.0428425
,,,,,,,,,116,83.6657,0.0774598
,,,,,,,,,132,112.016,0.0405616
,,,,,,,,,149,139.096,0.0288793
,,,,,,,,,167,117.523,0.0636723
,,,,,,,,,186,118.226,0.0675868
,,,,,,,,,50,115.3,0.0210311
,,,,,,,,,61,40.0643,0.0380306
,,,,,,,,,73,113.985,0.0222236
,,,,,,,,,86,64.1156,0.0140361
,,,,,,,,,100,80.0884,0.0367138
,,,,,,,,,115,137.647,0.0261224
,,,,,,,,,131,150.955,0.0359067
,,,,,,,,,148,89.0492,0.0252564
,,,,,,,,,166,86.4955,0.0201748
,,,,,,,,,185,151.741,0.0326313
,,,,,,,,,205,120.504,0.0336295
,,,,,,,,,72,146.527,0.0340441
,,,,,,,,,85,61.9907,0.0208003
,,,,,,,,,99,112.847,0.0134546
,,,,,,,,,114,112.465,0.032985
,,,,,,,,,130,61.305,0.0241777
,,,,,,,,,147,71.4257,0.0323321
,,,,,,,,,165,144.935,0.023434
,,,,,,,,,184,158.061,0.0189948
,,,,,,,,,204,92.7189,0.029652
,,,,,,,,,225,120.36,0.030474
,,,,,,,,,98,103.022,0.0372824
,,,,,,,,,113,79.3953,0.0188431
,,,,,,,,,129,52.0528,0.110341
,,,,,,,,,146,150.734,0.0497353
,,,,,,,,,164,118.87,0.103358
,,,,,,,,,183,49.0622,0.0466875
,,,,,,,,,203,53.7209,0.0318553
,,,,,,,,,224,112.973,0.0801888
,,,,,,,,,246,80.7084,0.0864982
,,,,,,,,,128,173.694,0.0139329
,,,,,,,,,145,52.6579,0.036016
,,,,,,,,,163,101.156,0.0257672
,,,,,,,,,182,41.729,0.035239
,,,,,,,,,202,85.6733,0.0249243
,,,,,,,,,223,112.945,0.0199622
,,,,,,,,,245,74.8724,0.0320789
,,,,,,,,,268,77.3003,0.0330431
,,,,,,,,,162,130.852,0.0185141
,,,,,,,,,181,78.3324,0.0153713
,,,,,,,,,201,141.986,0.0183066
,,,,,,,,,222,100.173,0.0150673
,,,,,,,,,244,73.2235,0.0130989
,,,,,,,,,267,109.726,0.0174153
,,,,,,,,,291,108.925,0.0176957
,,,,,,,,,200,142.063,0.0475069
,,,,,,,,,221,71.6154,0.0941781
,,,,,,,,,243,44.2417,0.0447185
,,,,,,,,,266,72.0043,0.0309261
,,,,,,,,,290,86.0177,0.0745507
,,,,,,,,,315,61.1033,0.0799742
,,,,,,,,,242,71.1836,0.0461643
,,,,,,,,,265,117.47,0.029935
,,,,,,,,,289,101.362,0.0230528
,,,,,,,,,314,58.4763,0.0408876
,,,,,,,,,340,88.8109,0.0424671
,,,,,,,,,288,75.3781,0.0435269
,,,,,,,,,313,90.8321,0.0303515
,,,,,,,,,339,33.8571,0.0712967
,,,,,,,,,366,49.6298,0.0762413
,,,,,,,,,338,28.8437,0.0223757
,,,,,,,,,365,64.1973,0.0388051
,,,,,,,,,393,31.7055,0.040225
,,,,,,,,,392,65.7554,0.0279776
,,,,,,,,,421,41.3188,0.0287083
,,,,,,,,,450,32.542,0.0628466
