"cellPairingIds","interplanarAngles","angleWeights"
13,57.1438,0.0625713
19,41.4654,0.0455675
26,78.1869,0.056692
34,59.4966,0.0327914
76,79.9016,0.0612369
41,69.3116,0.0693327
62,48.69,0.0449159
87,84.3446,0.0277512
101,94.6977,0.0762539
206,122.307,0.0295334
61,64.3704,0.0300811
115,45.6169,0.052417
166,38.4839,0.0339272
205,59.598,0.0462848
72,67.4505,0.0345576
85,28.3462,0.0418039
114,42.5606,0.0265309
247,88.4309,0.0281552
203,72.0445,0.0262983
246,93.2561,0.0331613
269,111.093,0.0206723
145,39.1396,0.0219624
341,49.2837,0.0175044
340,34.0474,0.0625394
367,113.772,0.0292327
421,24.8311,0.0378974
512,89.6787,0.0272214
