facetNormals:0,facetNormals:1,facetNormals:2,FacetCenters:0,FacetCenters:1,FacetCenters:2,FacetIds,relFacetSize,absFacetSize,cellPairingIds,interplanarAngles,angleWeights
-0.132807,0.21676,-0.938347,7.30374,4.01098,8.0599,1,0.0343185,0.00749257,8,30.4264,0.0423288
-0.0104668,-0.271368,-0.907188,7.25901,4.02139,8.02352,2,0.0552169,0.0120552,13,52.5711,0.0308176
0.583192,-0.225596,-0.749084,7.29343,4.04157,8.02754,3,0.0279648,0.0061054,19,48.585,0.0332546
0.475806,0.595114,-0.590554,7.30536,4.08651,8.05362,4,0.0322546,0.00704197,26,72.3451,0.0243004
0.0567191,-0.842462,-0.513097,7.24995,4.00583,8.08383,5,0.0188095,0.00410658,34,65.7115,0.0461021
-0.604368,0.653298,-0.148031,7.30977,4.00213,8.17791,6,0.0702091,0.0153283,43,94.4578,0.0482435
-0.572238,-0.742913,-0.0151007,7.18491,3.9913,8.09967,7,0.0811849,0.0177246,53,93.3048,0.0449788
0.973506,-0.0650088,-0.0942565,7.33255,4.11381,8.1159,8,0.0652461,0.0142448,64,83.2227,0.0345899
0.911433,0.339972,-0.171227,7.33052,4.1422,8.12183,9,0.0348655,0.00761198,76,105.208,0.035454
0.183658,-0.96296,0.0180363,7.26918,4.00557,8.13591,10,0.0366671,0.00800531,89,104.659,0.0510916
0.755592,-0.573507,0.0092927,7.30989,4.01924,8.1218,11,0.0999341,0.021818,103,105.373,0.0421514
0.832368,0.445433,0.253574,7.31779,4.16065,8.16562,12,0.0546174,0.0119243,118,108.456,0.0212966
0.362978,0.798448,0.457529,7.28755,4.21136,8.20405,13,0.0154385,0.0033706,134,145.759,0.034645
-0.258213,-0.589844,0.741199,7.2049,3.96711,8.11688,14,0.0349776,0.00763646,151,147.514,0.037686
0.354822,-0.630315,0.659787,7.27597,4.01045,8.1646,15,0.0417863,0.00912295,169,143.975,0.0404896
0.311141,0.350203,0.85034,7.28634,4.10309,8.2224,16,0.0493664,0.0107779,188,173.155,0.0331322
0.242145,-0.254388,0.918635,7.28084,4.08219,8.25042,17,0.0320252,0.00699187,18,37.3368,0.0371267
,,,,,,,,,25,66.1396,0.0407218
,,,,,,,,,33,42.166,0.0280604
,,,,,,,,,42,92.4597,0.061817
,,,,,,,,,52,75.5719,0.065729
,,,,,,,,,63,84.2523,0.059814
,,,,,,,,,75,86.7187,0.0427423
,,,,,,,,,88,74.8259,0.0440696
,,,,,,,,,102,81.0798,0.0711314
,,,,,,,,,117,112.861,0.0549155
,,,,,,,,,133,132.721,0.0241303
,,,,,,,,,150,123.24,0.0428265
,,,,,,,,,168,117.718,0.0475718
,,,,,,,,,187,161.086,0.052128
,,,,,,,,,207,145.429,0.0405385
,,,,,,,,,32,51.4972,0.0299569
,,,,,,,,,41,50.9422,0.0224912
,,,,,,,,,51,116.22,0.0399981
,,,,,,,,,62,99.7395,0.0416002
,,,,,,,,,74,46.9424,0.0391498
,,,,,,,,,87,52.7705,0.0310362
,,,,,,,,,101,71.0407,0.0317301
,,,,,,,,,116,52.5334,0.0437008
,,,,,,,,,132,78.2038,0.0369902
,,,,,,,,,149,108.806,0.0198941
,,,,,,,,,167,126.715,0.0310806
,,,,,,,,,186,98.7368,0.0335062
,,,,,,,,,206,124.35,0.0357042
,,,,,,,,,227,120.671,0.0298576
,,,,,,,,,50,100.365,0.0237621
,,,,,,,,,61,77.4729,0.0442023
,,,,,,,,,73,141.288,0.0461671
,,,,,,,,,86,59.4588,0.0431687
,,,,,,,,,100,39.2739,0.0335093
,,,,,,,,,115,121.676,0.0343196
,,,,,,,,,131,89.2027,0.0487687
,,,,,,,,,148,57.1342,0.0405577
,,,,,,,,,166,66.6691,0.020882
,,,,,,,,,185,164.398,0.033561
,,,,,,,,,205,129.154,0.0364069
,,,,,,,,,226,98.9574,0.0390168
,,,,,,,,,248,127.616,0.0321395
,,,,,,,,,72,124.797,0.0296702
,,,,,,,,,85,49.5527,0.0305427
,,,,,,,,,99,80.59,0.0292009
,,,,,,,,,114,98.6551,0.0244361
,,,,,,,,,130,33.0054,0.0248642
,,,,,,,,,147,56.2123,0.0316601
,,,,,,,,,165,118.318,0.0279823
,,,,,,,,,184,155.138,0.0169581
,,,,,,,,,204,83.9663,0.0244636
,,,,,,,,,225,77.3034,0.0259417
,,,,,,,,,247,138.075,0.0272401
,,,,,,,,,270,104.5,0.0236995
,,,,,,,,,98,99.336,0.0752991
,,,,,,,,,113,134.23,0.0676367
,,,,,,,,,129,109.905,0.0465931
,,,,,,,,,146,147.105,0.0481747
,,,,,,,,,164,166.639,0.082475
,,,,,,,,,183,106.44,0.0614395
,,,,,,,,,203,74.7654,0.0253112
,,,,,,,,,224,112.502,0.0466931
,,,,,,,,,246,145.039,0.052391
,,,,,,,,,269,95.5777,0.0579713
,,,,,,,,,293,120.364,0.0439864
,,,,,,,,,128,123.496,0.0723481
,,,,,,,,,145,146.395,0.0487814
,,,,,,,,,163,48.4415,0.0505179
,,,,,,,,,182,90.4156,0.0895891
,,,,,,,,,202,152.211,0.0653024
,,,,,,,,,223,150.537,0.0259435
,,,,,,,,,245,51.377,0.0488911
,,,,,,,,,268,73.8591,0.0551741
,,,,,,,,,292,119.695,0.0613982
,,,,,,,,,317,87.7289,0.0459316
,,,,,,,,,162,24.4559,0.0454461
,,,,,,,,,181,75.5581,0.0469495
,,,,,,,,,201,33.8806,0.0789479
,,,,,,,,,222,37.7663,0.0594605
,,,,,,,,,244,74.5493,0.0249689
,,,,,,,,,267,107.094,0.0455412
,,,,,,,,,291,70.2551,0.0509452
,,,,,,,,,316,77.8691,0.0562062
,,,,,,,,,342,80.1039,0.0429627
,,,,,,,,,200,99.6941,0.0357436
,,,,,,,,,221,58.3189,0.0516953
,,,,,,,,,243,26.1546,0.0425615
,,,,,,,,,266,57.5737,0.0214007
,,,,,,,,,290,125.474,0.0349215
,,,,,,,,,315,90.2291,0.0380134
,,,,,,,,,341,74.4516,0.0408678
,,,,,,,,,368,91.3615,0.033385
,,,,,,,,,242,42.0014,0.0536495
,,,,,,,,,265,106.455,0.0438774
,,,,,,,,,289,135.681,0.0217284
,,,,,,,,,314,56.313,0.0358024
,,,,,,,,,340,44.5541,0.0390597
,,,,,,,,,367,106.149,0.0420795
,,,,,,,,,395,71.4979,0.0341893
,,,,,,,,,288,66.0909,0.070632
,,,,,,,,,313,101.021,0.0267452
,,,,,,,,,339,80.7282,0.0518185
,,,,,,,,,366,46.8045,0.0589312
,,,,,,,,,394,87.3766,0.0660867
,,,,,,,,,423,68.7995,0.048506
,,,,,,,,,338,36.8504,0.0240725
,,,,,,,,,365,107.57,0.0426449
,,,,,,,,,393,79.0443,0.0473479
,,,,,,,,,422,48.3577,0.0518593
,,,,,,,,,452,70.483,0.0403758
,,,,,,,,,392,103.429,0.0214218
,,,,,,,,,421,94.2995,0.0225468
,,,,,,,,,451,35.527,0.0235212
,,,,,,,,,482,71.7251,0.0208337
,,,,,,,,,450,36.8488,0.03808
,,,,,,,,,481,68.8858,0.0409447
,,,,,,,,,513,37.27,0.0334364
,,,,,,,,,512,61.6939,0.0452612
,,,,,,,,,545,27.7191,0.0362603
,,,,,,,,,578,36.512,0.0388485
