Q	U	V
{$V$}	{[mm$^3$]}	0.00366683
{$d_v$}	{[mm]}	0.191322
{$S_c$}	{[mm$^2$]}	0.215926
{$S_o$}	{[mm$^2$]}	0.135171
{$S_l/S_o$}	[]	0.597428
{$\Psi$}	[]	0.532566
{$\eta$}	[]	0.640312
{med($\theta_e$)}	{[$^\circ$]}	73.51575
{$\Upsilon$}	[]	12
{$\Xi$}	[]	7
