"cellPairingIds","interplanarAngles","angleWeights"
13,40.9504,0.0741984
19,37.2688,0.0628109
26,51.4905,0.0256875
34,62.3556,0.0589711
43,75.7351,0.0477782
53,63.593,0.0343859
134,112.554,0.0524417
32,41.1068,0.0637989
74,37.4376,0.0346799
87,60.1747,0.101122
116,46.1002,0.0807353
100,54.1862,0.0810866
185,95.0225,0.0470242
72,38.1681,0.0237175
99,29.218,0.0184205
130,42.0313,0.0106988
98,66.0357,0.0413847
146,46.4454,0.0139867
224,117.991,0.0448384
245,54.2904,0.0380592
181,48.1624,0.0119587
201,30.729,0.0357264
291,91.1218,0.0357497
221,59.8194,0.110566
290,91.1081,0.0645975
315,105.977,0.110789
314,139.118,0.0135855
340,56.9209,0.0148912
366,79.4073,0.086781
450,94.2657,0.0556813
