Q	U	V
{$V$}	{[mm$^3$]}	0.0163476
{$d_v$}	{[mm]}	0.314885
{$S_c$}	{[mm$^2$]}	0.581512
{$S_o$}	{[mm$^2$]}	0.388962
{$S_l/S_o$}	[]	0.495036
{$\Psi$}	[]	0.535667
{$\eta$}	[]	0.549499
{med($\theta_e$)}	{[$^\circ$]}	70.0304
{$\Upsilon$}	[]	11
{$\Xi$}	[]	10
