facetNormals:0,facetNormals:1,facetNormals:2,FacetCenters:0,FacetCenters:1,FacetCenters:2,FacetIds,relFacetSize,absFacetSize,cellPairingIds,interplanarAngles,angleWeights
0.0346351,-0.393118,-0.842556,4.13166,3.38728,7.2632,1,0.0467072,0.0125816,8,60.7528,0.0657959
-0.0867425,0.540373,-0.761737,4.1362,3.47808,7.29321,2,0.111271,0.0299734,13,50.8995,0.036639
-0.664117,-0.545195,-0.447679,4.19701,3.28744,7.25144,3,0.0301417,0.00811933,19,53.8647,0.0242818
0.386253,-0.875003,-0.214104,4.17692,3.34607,7.30416,4,0.0164052,0.00441912,26,77.3647,0.0587774
0.842065,0.344086,-0.362455,4.16993,3.44122,7.35939,5,0.0792598,0.0213504,34,93.4318,0.0551466
-0.776966,0.509625,-0.206796,4.15425,3.45478,7.32098,6,0.0673083,0.018131,43,79.1837,0.0181022
-0.966325,-0.0893093,-0.20353,4.18408,3.36805,7.27944,7,0.0112267,0.00302416,53,74.3695,0.0405257
0.0245791,-0.922032,0.153036,4.17407,3.36354,7.32859,8,0.0357892,0.00964063,64,112.71,0.0445031
0.420525,0.876297,0.0229086,4.20647,3.45962,7.36725,9,0.0424977,0.0114477,76,99.5127,0.0487468
-0.92913,-0.186649,0.226723,4.16964,3.39138,7.36332,10,0.0509726,0.0137306,89,89.9425,0.0216469
0.666097,-0.636334,0.323199,4.17659,3.40898,7.37709,11,0.0140881,0.00379495,103,104.398,0.0540651
-0.580591,-0.558913,0.496873,4.20391,3.31782,7.36135,12,0.0641746,0.0172869,118,148.053,0.0460557
0.470296,0.370598,0.733973,4.22274,3.47629,7.41042,13,0.0454221,0.0122355,134,121.839,0.0360467
0.314123,-0.461827,0.793816,4.21419,3.38939,7.39824,14,0.0293482,0.0079056,18,83.4279,0.0474341
,,,,,,,,,25,111.923,0.0285946
,,,,,,,,,33,64.9428,0.0925764
,,,,,,,,,42,55.9208,0.0838783
,,,,,,,,,52,78.1744,0.0203955
,,,,,,,,,63,134.709,0.0541588
,,,,,,,,,75,62.6049,0.0615049
,,,,,,,,,88,102.189,0.0699168
,,,,,,,,,102,135.03,0.0250097
,,,,,,,,,117,135.203,0.0814016
,,,,,,,,,133,116.731,0.0645104
,,,,,,,,,150,165.52,0.0464461
,,,,,,,,,32,70.539,0.0212466
,,,,,,,,,41,128.036,0.0436744
,,,,,,,,,51,68.986,0.0416374
,,,,,,,,,62,35.5565,0.0163599
,,,,,,,,,74,62.5305,0.0327236
,,,,,,,,,87,144.543,0.0352688
,,,,,,,,,101,49.1665,0.0378823
,,,,,,,,,116,104.707,0.0192015
,,,,,,,,,132,59.3331,0.0410179
,,,,,,,,,149,156.711,0.0362369
,,,,,,,,,167,109.39,0.0297396
,,,,,,,,,50,83.9126,0.0271839
,,,,,,,,,61,138.776,0.0263806
,,,,,,,,,73,104.999,0.0133307
,,,,,,,,,86,31.2413,0.0224978
,,,,,,,,,100,129.742,0.0236723
,,,,,,,,,115,104.808,0.0248217
,,,,,,,,,131,38.8798,0.0151586
,,,,,,,,,148,80.1707,0.0261306
,,,,,,,,,166,108.837,0.0241046
,,,,,,,,,185,68.0588,0.021046
,,,,,,,,,72,115.681,0.0727968
,,,,,,,,,85,142.536,0.0196676
,,,,,,,,,99,112.613,0.049312
,,,,,,,,,114,47.1606,0.055329
,,,,,,,,,130,166.755,0.0620441
,,,,,,,,,147,76.3991,0.0239238
,,,,,,,,,165,158.289,0.0709239
,,,,,,,,,184,73.8815,0.0577493
,,,,,,,,,204,101.047,0.0428354
,,,,,,,,,98,37.6452,0.0192436
,,,,,,,,,113,125.801,0.0467307
,,,,,,,,,129,82.8552,0.0521
,,,,,,,,,146,51.3057,0.0580124
,,,,,,,,,164,167.898,0.0232995
,,,,,,,,,183,85.9589,0.0657041
,,,,,,,,,203,111.353,0.0542406
,,,,,,,,,224,134.151,0.0408742
,,,,,,,,,128,88.3034,0.0170918
,,,,,,,,,145,120.5,0.0177613
,,,,,,,,,163,26.0075,0.0184006
,,,,,,,,,182,132.391,0.0124957
,,,,,,,,,202,57.1062,0.0191102
,,,,,,,,,223,132.7,0.0180035
,,,,,,,,,245,116.13,0.0162407
,,,,,,,,,162,150.881,0.038856
,,,,,,,,,181,78.3512,0.0420523
,,,,,,,,,201,44.3633,0.0202177
,,,,,,,,,222,49.3108,0.0459518
,,,,,,,,,244,104.238,0.0400344
,,,,,,,,,267,52.295,0.0322502
,,,,,,,,,200,125.421,0.0463509
,,,,,,,,,221,106.533,0.0211612
,,,,,,,,,243,141.717,0.0511337
,,,,,,,,,266,54.1516,0.0439113
,,,,,,,,,290,105.64,0.0347196
,,,,,,,,,242,116.66,0.022075
,,,,,,,,,265,34.9236,0.0568168
,,,,,,,,,289,111.596,0.0480376
,,,,,,,,,314,91.5562,0.0372495
,,,,,,,,,288,81.9449,0.0231042
,,,,,,,,,313,70.1067,0.0215059
,,,,,,,,,339,36.7063,0.0190376
,,,,,,,,,338,97.3992,0.053194
,,,,,,,,,365,59.2267,0.040277
,,,,,,,,,392,52.5373,0.0356574
