Q	U	V
{$V$}	{[mm$^3$]}	0.00313486
{$d_v$}	{[mm]}	0.181582
{$S_c$}	{[mm$^2$]}	0.192138
{$S_o$}	{[mm$^2$]}	0.117941
{$S_l/S_o$}	[]	0.629103
{$\Psi$}	[]	0.539117
{$\eta$}	[]	0.581285
{med($\theta_e$)}	{[$^\circ$]}	50.61525
{$\Upsilon$}	[]	16
{$\Xi$}	[]	9
