facetNormals:0,facetNormals:1,facetNormals:2,FacetCenters:0,FacetCenters:1,FacetCenters:2,FacetIds,relFacetSize,absFacetSize,cellPairingIds,interplanarAngles,angleWeights
-0.36287,-0.494819,-0.771667,3.81718,7.12515,6.4287,1,0.0183679,0.00518722,8,41.7578,0.0303792
0.316221,-0.39114,-0.792335,3.91818,7.12977,6.46461,2,0.0877834,0.0247906,13,80.3976,0.0234706
0.447008,0.4701,-0.717846,3.91552,7.19047,6.44519,3,0.032499,0.00917792,19,37.6985,0.0224366
-0.801192,-0.0939179,-0.550004,3.81648,7.09964,6.46159,4,0.0288206,0.00813913,26,68.7396,0.0203716
0.671041,-0.606975,-0.381205,3.95049,7.10189,6.52204,5,0.0228659,0.00645749,34,98.8111,0.0245778
0.290966,0.8051,-0.462648,3.9705,7.27605,6.52209,6,0.0371312,0.0104861,43,74.7232,0.0217672
-0.743375,0.537186,-0.322128,3.74859,7.21698,6.43945,7,0.0267104,0.00754318,53,118.676,0.0268864
0.00742624,0.925213,-0.0292465,3.89819,7.26861,6.51146,8,0.0501396,0.0141597,64,41.2954,0.0249371
-0.121831,-0.929387,-0.288021,3.89856,7.0735,6.54967,9,0.0388214,0.0109634,76,57.6915,0.0212799
-0.902169,-0.389229,0.00287737,3.83518,7.10573,6.56803,10,0.0252892,0.00714183,89,49.715,0.0256404
-0.650074,-0.72498,-0.0343378,3.86443,7.04835,6.54114,11,0.0424465,0.0119872,103,97.1816,0.0291773
0.748341,-0.558239,0.15728,4.02437,7.07524,6.64071,12,0.0709031,0.0200235,118,74.3187,0.0299967
-0.0698652,-0.910772,0.286306,3.92659,7.06458,6.61697,13,0.0817585,0.0230891,134,93.1478,0.0304388
-0.72595,-0.217404,0.54632,3.8251,7.13231,6.58946,14,0.0887871,0.0250741,151,119.081,0.0132956
0.515492,-0.492051,0.688412,4.01434,7.08183,6.65353,15,0.0104185,0.00294225,169,172.58,0.0221301
0.314221,0.400168,0.841812,4.10182,7.23844,6.73994,16,0.0278305,0.0078595,188,121.611,0.021387
-0.380264,-0.102116,0.905566,3.92998,7.13765,6.70073,17,0.0255938,0.00722786,208,144.752,0.0211362
0.284679,-0.0722032,0.933216,4.01111,7.12491,6.67806,18,0.0248871,0.00702828,229,143.895,0.0243534
-0.240829,0.448267,0.836396,3.98001,7.2056,6.69708,19,0.0361256,0.0102021,18,54.5806,0.0474362
,,,,,,,,,25,76.1612,0.0433942
,,,,,,,,,33,35.3422,0.0362813
,,,,,,,,,42,80.9484,0.0521877
,,,,,,,,,52,102.018,0.0409582
,,,,,,,,,63,112.779,0.0638243
,,,,,,,,,75,53.0496,0.0538348
,,,,,,,,,88,98.4386,0.0392663
,,,,,,,,,102,83.3933,0.0572234
,,,,,,,,,117,68.1726,0.0784454
,,,,,,,,,133,83.1407,0.0846639
,,,,,,,,,150,131.19,0.0882824
,,,,,,,,,168,101.789,0.0186263
,,,,,,,,,187,141.67,0.0422623
,,,,,,,,,207,149.417,0.0396325
,,,,,,,,,228,132.572,0.0387799
,,,,,,,,,250,174.25,0.0511864
,,,,,,,,,32,90.4532,0.0305495
,,,,,,,,,41,72.3351,0.0268444
,,,,,,,,,51,26.7602,0.034661
,,,,,,,,,62,80.7319,0.0293217
,,,,,,,,,74,59.1518,0.0394364
,,,,,,,,,87,107.457,0.0353799
,,,,,,,,,101,128.233,0.0284443
,,,,,,,,,116,130.062,0.0368126
,,,,,,,,,132,92.5539,0.0445693
,,,,,,,,,149,135.881,0.0465102
,,,,,,,,,167,154.955,0.0475815
,,,,,,,,,186,121.091,0.0157787
,,,,,,,,,206,106.841,0.0299841
,,,,,,,,,227,155.308,0.028636
,,,,,,,,,249,127.527,0.0281882
,,,,,,,,,272,121.67,0.0342164
,,,,,,,,,50,106.419,0.0255003
,,,,,,,,,61,93.2749,0.0324523
,,,,,,,,,73,40.4422,0.0277254
,,,,,,,,,86,94.8719,0.0366021
,,,,,,,,,100,68.9864,0.0330817
,,,,,,,,,115,37.8211,0.0269397
,,,,,,,,,131,50.2884,0.034331
,,,,,,,,,148,133.274,0.0409826
,,,,,,,,,166,90.9782,0.042618
,,,,,,,,,185,70.6931,0.0435158
,,,,,,,,,205,140.404,0.0153045
,,,,,,,,,226,141.573,0.0283169
,,,,,,,,,248,100.991,0.0271115
,,,,,,,,,271,140.267,0.0267098
,,,,,,,,,295,108.872,0.0320623
,,,,,,,,,72,97.0378,0.0283027
,,,,,,,,,85,137.359,0.0246391
,,,,,,,,,99,126.878,0.0314083
,,,,,,,,,114,52.0452,0.0287802
,,,,,,,,,130,112.568,0.0240166
,,,,,,,,,147,88.9873,0.0297211
,,,,,,,,,165,32.8381,0.03458
,,,,,,,,,184,65.0285,0.0357371
,,,,,,,,,204,127.899,0.0363662
,,,,,,,,,225,66.8702,0.0143147
,,,,,,,,,247,111.435,0.0251051
,,,,,,,,,270,123.732,0.0241531
,,,,,,,,,294,97.2299,0.0238337
,,,,,,,,,319,141.523,0.0280056
,,,,,,,,,98,67.2876,0.0310703
,,,,,,,,,113,32.3976,0.0426659
,,,,,,,,,129,132.974,0.0379575
,,,,,,,,,146,127.135,0.0300869
,,,,,,,,,164,142.973,0.0396113
,,,,,,,,,183,109.298,0.0487385
,,,,,,,,,203,162.028,0.051069
,,,,,,,,,224,134.663,0.0523636
,,,,,,,,,246,125.848,0.0162714
,,,,,,,,,269,88.5548,0.031815
,,,,,,,,,293,129.548,0.0303014
,,,,,,,,,318,115.313,0.0298005
,,,,,,,,,344,95.7913,0.0366215
,,,,,,,,,128,56.1752,0.0348535
,,,,,,,,,145,109.355,0.0316468
,,,,,,,,,163,61.1658,0.0259804
,,,,,,,,,182,83.6437,0.0327881
,,,,,,,,,202,170.174,0.038803
,,,,,,,,,223,124.686,0.0402659
,,,,,,,,,245,74.225,0.0410665
,,,,,,,,,268,154.491,0.01499
,,,,,,,,,292,107.642,0.0272589
,,,,,,,,,317,93.8161,0.0261402
,,,,,,,,,343,125.408,0.0257665
,,,,,,,,,370,80.907,0.0307126
,,,,,,,,,162,159.884,0.0437605
,,,,,,,,,181,113.79,0.0336208
,,,,,,,,,201,138.409,0.0459734
,,,,,,,,,222,126.031,0.0587405
,,,,,,,,,244,163.937,0.0621591
,,,,,,,,,267,104.91,0.0640877
,,,,,,,,,291,120.938,0.0172521
,,,,,,,,,316,67.5339,0.0357934
,,,,,,,,,342,97.7829,0.033889
,,,,,,,,,369,95.8293,0.0332636
,,,,,,,,,397,64.6174,0.0419943
,,,,,,,,,200,60.7467,0.0306271
,,,,,,,,,221,37.0176,0.0405531
,,,,,,,,,243,65.6797,0.0501722
,,,,,,,,,266,34.6169,0.0526452
,,,,,,,,,290,81.6429,0.0540221
,,,,,,,,,315,78.3483,0.0164281
,,,,,,,,,341,132.582,0.0324197
,,,,,,,,,368,97.0944,0.0308495
,,,,,,,,,396,104.263,0.0303304
,,,,,,,,,425,130.869,0.037425
,,,,,,,,,242,24.8725,0.0316949
,,,,,,,,,265,119.451,0.0372812
,,,,,,,,,289,63.5902,0.0386296
,,,,,,,,,314,36.1569,0.0393658
,,,,,,,,,340,106.197,0.0147573
,,,,,,,,,367,116.87,0.026499
,,,,,,,,,395,66.5944,0.0254406
,,,,,,,,,424,103.6,0.0250865
,,,,,,,,,454,87.307,0.0297514
,,,,,,,,,288,95.4219,0.0531028
,,,,,,,,,313,41.7485,0.0558812
,,,,,,,,,339,47.8557,0.057435
,,,,,,,,,366,90.1198,0.0167305
,,,,,,,,,394,123.093,0.0336186
,,,,,,,,,423,72.4491,0.0319331
,,,,,,,,,453,99.9531,0.0313772
,,,,,,,,,484,101.927,0.0390318
,,,,,,,,,338,56.4282,0.0759448
,,,,,,,,,365,112.324,0.0788437
,,,,,,,,,393,34.9708,0.0181674
,,,,,,,,,422,81.0951,0.0399715
,,,,,,,,,452,95.2247,0.0376112
,,,,,,,,,483,64.4073,0.0368424
,,,,,,,,,515,108.813,0.0478641
,,,,,,,,,392,63.0615,0.085128
,,,,,,,,,421,50.0357,0.0184818
,,,,,,,,,451,98.8831,0.0415257
,,,,,,,,,482,66.3732,0.038984
,,,,,,,,,514,70.4717,0.0381587
,,,,,,,,,547,99.3325,0.0501098
,,,,,,,,,450,83.247,0.0186487
,,,,,,,,,481,80.9341,0.0423776
,,,,,,,,,513,30.7269,0.0397339
,,,,,,,,,546,69.5809,0.0388769
,,,,,,,,,580,54.2537,0.0513556
,,,,,,,,,512,56.0288,0.0151613
,,,,,,,,,545,60.78,0.0148088
,,,,,,,,,579,31.7045,0.0146881
,,,,,,,,,614,76.2196,0.0161728
,,,,,,,,,578,51.7014,0.0266653
,,,,,,,,,613,28.4438,0.0262766
,,,,,,,,,649,32.9827,0.0314401
,,,,,,,,,648,39.6151,0.0252355
,,,,,,,,,685,33.8151,0.0299611
,,,,,,,,,722,44.8026,0.0294713
