facetNormals:0,facetNormals:1,facetNormals:2,FacetCenters:0,FacetCenters:1,FacetCenters:2,FacetIds,relFacetSize,absFacetSize,cellPairingIds,interplanarAngles,angleWeights
-0.288517,-0.391229,-0.859381,5.76873,5.34381,5.67445,1,0.0187244,0.0012566,8,31.0118,0.0243007
0.186818,-0.18247,-0.945862,5.82288,5.33987,5.69021,2,0.0346068,0.00232246,13,25.2115,0.0154392
-0.507456,-0.0222499,-0.838802,5.74187,5.38306,5.68649,3,0.0131346,0.000881465,19,61.7327,0.0339621
0.507319,0.21309,-0.792097,5.82812,5.38279,5.6973,4,0.182379,0.0122394,26,29.2185,0.0100916
-0.721322,-0.343491,-0.608396,5.73154,5.36335,5.68966,5,0.0069071,0.000463536,34,80.4145,0.0331172
0.0482245,0.798611,-0.567402,5.79866,5.44749,5.7317,6,0.143153,0.00960703,43,48.3953,0.00812242
-0.0243179,-0.945404,-0.324069,5.79136,5.3181,5.70158,7,0.00518602,0.000348034,53,104.252,0.0231141
0.75624,0.560076,-0.234557,5.84206,5.44917,5.74665,8,0.0301922,0.0020262,64,45.327,0.0292383
-0.53416,-0.770871,-0.254719,5.76841,5.32696,5.70474,9,0.0666791,0.00447483,76,70.7421,0.0268269
-0.895769,0.317776,-0.213026,5.72698,5.4279,5.73088,10,0.0472903,0.00317366,89,66.4441,0.0330284
-0.885411,-0.354934,0.0207518,5.74039,5.38539,5.75322,11,0.139901,0.00938875,103,111.133,0.0245663
-0.692411,0.559876,0.378329,5.72471,5.43666,5.81586,12,0.0357062,0.00239624,118,106.928,0.0192976
0.226527,-0.708275,0.55725,5.80194,5.40674,5.78701,13,0.0199069,0.00133595,134,152.646,0.0139034
0.650244,0.445654,0.573706,5.82739,5.45883,5.77922,14,0.0110566,0.000742012,151,141.147,0.0298104
0.057353,0.847444,0.458594,5.7846,5.46137,5.79515,15,0.0730749,0.00490406,169,143.981,0.00733676
0.580135,-0.135154,0.775279,5.8396,5.42978,5.77597,16,0.00456217,0.000306168,18,43.0939,0.0190421
,,,,,,,,,25,31.7098,0.0581748
,,,,,,,,,33,59.2797,0.0115158
,,,,,,,,,42,65.4445,0.055739
,,,,,,,,,52,61.0726,0.00902031
,,,,,,,,,63,74.086,0.0322491
,,,,,,,,,75,72.8119,0.0455651
,,,,,,,,,88,91.4291,0.0399664
,,,,,,,,,102,97.3809,0.0554878
,,,,,,,,,117,128.375,0.0351479
,,,,,,,,,133,112.949,0.0252749
,,,,,,,,,150,121.684,0.0167589
,,,,,,,,,168,127.582,0.0469697
,,,,,,,,,187,128.733,0.0080616
,,,,,,,,,32,64.8307,0.0245045
,,,,,,,,,41,26.1418,0.00905333
,,,,,,,,,51,63.1978,0.0240615
,,,,,,,,,62,71.8604,0.00743603
,,,,,,,,,74,102.107,0.0183057
,,,,,,,,,87,58.2218,0.0219462
,,,,,,,,,101,49.0366,0.0205591
,,,,,,,,,116,61.9621,0.0240146
,,,,,,,,,132,88.6974,0.0192047
,,,,,,,,,149,128.449,0.0158267
,,,,,,,,,167,149.187,0.0120064
,,,,,,,,,186,117.197,0.0222669
,,,,,,,,,206,169.181,0.00677212
,,,,,,,,,50,87.4688,0.0133101
,,,,,,,,,61,47.0898,0.160403
,,,,,,,,,73,87.4498,0.0100853
,,,,,,,,,86,42.5765,0.0518078
,,,,,,,,,100,104.425,0.0976548
,,,,,,,,,115,103.417,0.0751059
,,,,,,,,,131,126.028,0.15834
,,,,,,,,,148,124.733,0.0597203
,,,,,,,,,166,122.187,0.0358957
,,,,,,,,,185,91.803,0.0208493
,,,,,,,,,205,99.4948,0.104342
,,,,,,,,,226,111.695,0.00890167
,,,,,,,,,72,87.8994,0.0131784
,,,,,,,,,85,57.4972,0.00592409
,,,,,,,,,99,127.669,0.0112423
,,,,,,,,,114,34.4193,0.0125175
,,,,,,,,,130,47.0404,0.0120537
,,,,,,,,,147,38.6816,0.0131643
,,,,,,,,,165,85.4564,0.0115751
,,,,,,,,,184,106.123,0.0102558
,,,,,,,,,204,172.708,0.00850261
,,,,,,,,,225,129.11,0.0126212
,,,,,,,,,247,149.244,0.00549492
,,,,,,,,,98,125.708,0.0100094
,,,,,,,,,113,49.5758,0.049867
,,,,,,,,,129,121.416,0.0909806
,,,,,,,,,146,69.7003,0.0710947
,,,,,,,,,164,111.167,0.141508
,,,,,,,,,183,77.8908,0.0571561
,,,,,,,,,203,162.846,0.0349532
,,,,,,,,,224,86.2983,0.0205278
,,,,,,,,,246,63.7105,0.0967581
,,,,,,,,,269,122.827,0.00884254
,,,,,,,,,128,119.123,0.00885163
,,,,,,,,,145,31.9543,0.00962357
,,,,,,,,,163,102.431,0.00934702
,,,,,,,,,182,68.4498,0.0100013
,,,,,,,,,202,131.042,0.00905665
,,,,,,,,,223,58.6354,0.00822843
,,,,,,,,,245,129.735,0.00706042
,,,,,,,,,268,170.299,0.00968474
,,,,,,,,,292,98.0917,0.00485414
,,,,,,,,,162,145.414,0.0415642
,,,,,,,,,181,118.411,0.0368547
,,,,,,,,,201,160.679,0.0496659
,,,,,,,,,222,108.569,0.0327185
,,,,,,,,,244,113.273,0.0239937
,,,,,,,,,267,50.0811,0.0161859
,,,,,,,,,291,63.9966,0.0427298
,,,,,,,,,316,78.9846,0.0079266
,,,,,,,,,200,72.3011,0.0553355
,,,,,,,,,221,36.9241,0.0903133
,,,,,,,,,243,99.6804,0.0465078
,,,,,,,,,266,71.7342,0.0306602
,,,,,,,,,290,152.054,0.018968
,,,,,,,,,315,148.602,0.0697306
,,,,,,,,,341,115.108,0.00854004
,,,,,,,,,242,43.3406,0.0706866
,,,,,,,,,265,40.4087,0.0406898
,,,,,,,,,289,127.157,0.0280191
,,,,,,,,,314,126.364,0.0179229
,,,,,,,,,340,82.6533,0.0574208
,,,,,,,,,367,139.837,0.00832155
,,,,,,,,,288,62.7825,0.0568921
,,,,,,,,,313,85.9652,0.0348542
,,,,,,,,,339,140.909,0.0204936
,,,,,,,,,366,111.801,0.0960038
,,,,,,,,,394,118.814,0.0088362
,,,,,,,,,338,112.398,0.0255623
,,,,,,,,,365,89.0084,0.0168848
,,,,,,,,,393,49.3597,0.047972
,,,,,,,,,422,101.22,0.00809061
,,,,,,,,,392,80.3833,0.0142169
,,,,,,,,,421,111.702,0.0312898
,,,,,,,,,451,43.4859,0.00742314
,,,,,,,,,450,43.9055,0.0192071
,,,,,,,,,481,36.9495,0.00645917
,,,,,,,,,512,73.1046,0.00858817
