"cellPairingIds","interplanarAngles","angleWeights"
99,39.8312,0.0971838
114,68.2898,0.0164599
147,153.873,0.00857651
162,96.3171,0.0175481
201,146.366,0.0088629
222,69.2488,0.0694103
221,117.309,0.00612393
243,112.838,0.0154152
288,95.1807,0.00828399
