"cellPairingIds","interplanarAngles","angleWeights"
8,42.7021,0.0981721
13,116.134,0.015194
19,33.8643,0.0367783
26,45.0638,0.0789361
34,106.181,0.0573404
53,51.6104,0.0703914
18,90.0298,0.0148984
33,42.0631,0.0715604
52,44.4616,0.0512562
102,62.363,0.0483802
51,74.3758,0.0134454
62,59.0916,0.0133086
101,70.8477,0.0144802
167,46.8656,0.010058
50,28.968,0.032281
86,28.7238,0.0307543
131,60.1621,0.026544
226,82.3595,0.0235756
147,36.5758,0.043193
113,94.1881,0.043926
146,41.9328,0.0483473
183,58.7754,0.0297479
145,26.0006,0.0283313
182,62.662,0.0348584
245,52.1634,0.0193005
222,55.3718,0.0329138
316,61.2155,0.0339754
221,63.1485,0.02743
290,27.4101,0.0167839
315,25.0526,0.0303646
265,55.9875,0.035335
314,70.9141,0.0218663
367,62.3347,0.0365615
395,52.5837,0.061792
339,79.3484,0.0188779
366,41.9063,0.0379881
394,80.3525,0.0289096
423,76.791,0.0426935
422,27.4067,0.0248242
450,37.8309,0.020223
513,36.9719,0.0214835
578,62.3925,0.0355037
