facetNormals:0,facetNormals:1,facetNormals:2,FacetCenters:0,FacetCenters:1,FacetCenters:2,FacetIds,relFacetSize,absFacetSize,cellPairingIds,interplanarAngles,angleWeights
-0.535207,0.050198,-0.789451,5.16782,4.67879,5.84224,1,0.0528422,0.00401095,8,68.1302,0.0175657
0.215905,-0.715638,-0.63342,5.18674,4.67354,5.82367,2,0.0105337,0.000799551,13,85.9721,0.0102696
0.656722,-0.484819,-0.560183,5.20522,4.67615,5.79849,3,0.00568748,0.000431705,19,34.3922,0.0291901
-0.464094,0.600748,-0.635599,5.15971,4.72012,5.80597,4,0.0201645,0.00153057,26,67.7797,0.0298103
-0.214267,-0.875092,-0.353104,5.17898,4.64645,5.83469,5,0.0207613,0.00157588,34,90.0981,0.0374433
0.805649,0.0912156,-0.538372,5.22522,4.69224,5.82728,6,0.0289941,0.00220078,43,41.2314,0.0287537
-0.700686,0.58277,-0.389766,5.08608,4.71195,5.7532,7,0.0197504,0.00149914,53,97.1555,0.0107906
0.533979,-0.785354,-0.263427,5.19597,4.6579,5.80742,8,0.00600882,0.000456096,64,103.349,0.0374049
0.763218,0.584175,-0.205732,5.21222,4.70829,5.79202,9,0.028948,0.00219728,76,81.1718,0.0338451
0.198618,0.938891,-0.259539,5.18902,4.73094,5.83183,10,0.0248952,0.00188966,89,69.0672,0.0441508
-0.111641,0.936596,-0.291476,5.19238,4.73215,5.87814,11,0.0379147,0.0028779,103,48.3989,0.0617015
-0.9625,0.116543,-0.125315,5.09953,4.6884,5.81553,12,0.0741298,0.00562678,118,71.8868,0.0355321
-0.350502,0.92462,-0.0766232,5.11638,4.73393,5.82445,13,0.0267646,0.00203155,134,63.926,0.0487558
-0.660198,0.724249,-0.027693,5.10411,4.72509,5.8201,14,0.0452561,0.00343514,151,100.508,0.0636518
0.34567,0.907017,0.0376441,5.16671,4.73471,5.81098,15,0.0800212,0.00607397,169,76.5356,0.0639406
-0.728047,-0.580602,0.188995,5.09388,4.66139,5.8313,16,0.0809405,0.00614374,188,131.473,0.0564144
0.675709,0.608253,0.365754,5.18833,4.70208,5.80194,17,0.0605045,0.00459256,208,96.8269,0.0237235
-0.699793,0.257226,0.631272,5.08057,4.70625,5.8561,18,0.0152952,0.00116097,229,125.559,0.0403311
0.0554195,-0.759785,0.593579,5.15745,4.65673,5.84785,19,0.0326102,0.00247526,251,161.294,0.0536096
0.775614,-0.0163831,0.589977,5.17541,4.68732,5.83518,20,0.0543997,0.00412918,274,154.997,0.0226052
0.488408,-0.462512,0.719114,5.16964,4.64911,5.84164,21,0.014378,0.00109135,298,132.915,0.0337886
0.0836268,0.572379,0.778983,5.14335,4.71559,5.87122,22,0.024834,0.00188501,323,166.968,0.038636
0.355107,-0.0294332,0.917572,5.1536,4.67894,5.85485,23,0.0304498,0.00231128,349,145.473,0.0181405
0.0138957,-0.230018,0.959649,5.12474,4.68605,5.88249,24,0.0109497,0.000831133,18,29.5806,0.00738665
,,,,,,,,,25,97.5535,0.0138383
,,,,,,,,,33,32.044,0.0139762
,,,,,,,,,42,61.8637,0.0154531
,,,,,,,,,52,109.329,0.0137395
,,,,,,,,,63,29.0461,0.00765241
,,,,,,,,,75,97.3356,0.0154466
,,,,,,,,,88,118.49,0.0148036
,,,,,,,,,102,121.802,0.0164869
,,,,,,,,,117,102.777,0.0184462
,,,,,,,,,133,135.143,0.0151175
,,,,,,,,,150,132.044,0.0170896
,,,,,,,,,168,128.95,0.0186167
,,,,,,,,,187,81.4384,0.0186413
,,,,,,,,,207,122.868,0.0179434
,,,,,,,,,228,140.167,0.0124755
,,,,,,,,,250,79.0516,0.0159237
,,,,,,,,,273,101.753,0.0176497
,,,,,,,,,297,91.132,0.0121592
,,,,,,,,,322,158.579,0.0147928
,,,,,,,,,348,120.087,0.0156526
,,,,,,,,,375,117.083,0.0107377
,,,,,,,,,32,104.172,0.00887245
,,,,,,,,,41,59.8379,0.00892892
,,,,,,,,,51,35.2933,0.00950956
,,,,,,,,,62,122.299,0.0088317
,,,,,,,,,74,25.7264,0.00584374
,,,,,,,,,87,69.9727,0.00950708
,,,,,,,,,101,100.5,0.00925955
,,,,,,,,,116,111.873,0.00989121
,,,,,,,,,132,129.713,0.0105644
,,,,,,,,,149,130.335,0.00938141
,,,,,,,,,167,142.418,0.010105
,,,,,,,,,186,104.071,0.0106201
,,,,,,,,,206,108.758,0.0106281
,,,,,,,,,227,93.3107,0.0103976
,,,,,,,,,249,165.869,0.0082917
,,,,,,,,,272,85.6668,0.0096857
,,,,,,,,,296,78.8368,0.0102983
,,,,,,,,,321,81.6155,0.00815077
,,,,,,,,,347,133.314,0.00925531
,,,,,,,,,374,105.873,0.00958471
,,,,,,,,,402,115.259,0.0074864
,,,,,,,,,50,102.162,0.0204585
,,,,,,,,,61,88.627,0.0237863
,,,,,,,,,73,19.8597,0.0199553
,,,,,,,,,86,124.464,0.00925866
,,,,,,,,,100,82.4716,0.0237708
,,,,,,,,,115,49.6852,0.0222815
,,,,,,,,,131,35.0965,0.0263272
,,,,,,,,,148,51.9659,0.0317048
,,,,,,,,,166,38.6548,0.0230004
,,,,,,,,,185,38.5537,0.0278984
,,,,,,,,,205,67.9833,0.0322119
,,,,,,,,,226,98.0066,0.0322857
,,,,,,,,,248,100.731,0.0302481
,,,,,,,,,271,85.3709,0.0173955
,,,,,,,,,295,154.004,0.0249198
,,,,,,,,,320,140.518,0.0294228
,,,,,,,,,346,170.517,0.0167865
,,,,,,,,,373,101.412,0.022257
,,,,,,,,,401,141.783,0.0242621
,,,,,,,,,430,140.555,0.0141926
,,,,,,,,,72,93.7956,0.0241966
,,,,,,,,,85,103.396,0.0202432
,,,,,,,,,99,45.7174,0.00932017
,,,,,,,,,114,129.275,0.0241805
,,,,,,,,,130,143.422,0.0226411
,,,,,,,,,147,136.483,0.0268307
,,,,,,,,,165,80.9687,0.0324378
,,,,,,,,,184,137.446,0.0233838
,,,,,,,,,204,120.574,0.0284645
,,,,,,,,,225,159.61,0.0329689
,,,,,,,,,247,49.4842,0.0330462
,,,,,,,,,270,148.231,0.0309147
,,,,,,,,,294,108.379,0.0176139
,,,,,,,,,319,61.6747,0.0253705
,,,,,,,,,345,112.451,0.0300531
,,,,,,,,,372,87.2227,0.0169898
,,,,,,,,,400,147.729,0.0226158
,,,,,,,,,429,113.141,0.0246891
,,,,,,,,,459,98.4628,0.0143376
,,,,,,,,,98,108.212,0.0234958
,,,,,,,,,113,58.5556,0.00995462
,,,,,,,,,129,35.4859,0.028971
,,,,,,,,,146,66.5276,0.0267888
,,,,,,,,,164,80.873,0.0328597
,,,,,,,,,183,137.132,0.0416844
,,,,,,,,,203,99.3481,0.0278348
,,,,,,,,,224,118.201,0.0353443
,,,,,,,,,246,68.8602,0.0425655
,,,,,,,,,269,143.278,0.0426944
,,,,,,,,,293,65.0081,0.0392023
,,,,,,,,,318,157.779,0.0200261
,,,,,,,,,344,111.483,0.030696
,,,,,,,,,371,71.1963,0.0378271
,,,,,,,,,399,92.1441,0.0192233
,,,,,,,,,428,108.51,0.0267533
,,,,,,,,,458,102.698,0.0297042
,,,,,,,,,489,123.234,0.0158962
,,,,,,,,,128,138.28,0.0092143
,,,,,,,,,145,96.7285,0.0234806
,,,,,,,,,163,58.8897,0.0220263
,,,,,,,,,182,41.078,0.0259717
,,,,,,,,,202,35.2661,0.0311906
,,,,,,,,,223,34.0735,0.0227286
,,,,,,,,,245,22.8587,0.0274995
,,,,,,,,,268,73.6091,0.0316813
,,,,,,,,,292,84.0207,0.0317527
,,,,,,,,,317,105.62,0.0297798
,,,,,,,,,343,65.9785,0.0172396
,,,,,,,,,370,138.142,0.0246011
,,,,,,,,,398,144.141,0.0289794
,,,,,,,,,427,156.059,0.0166413
,,,,,,,,,457,91.7072,0.0220024
,,,,,,,,,488,129.729,0.0239599
,,,,,,,,,520,121.96,0.0140886
,,,,,,,,,162,89.8253,0.0099519
,,,,,,,,,181,125.068,0.009681
,,,,,,,,,201,137.591,0.0103736
,,,,,,,,,222,126.454,0.0111166
,,,,,,,,,244,156.026,0.00981428
,,,,,,,,,267,161.082,0.010609
,,,,,,,,,291,124.168,0.0111783
,,,,,,,,,316,88.9335,0.0111871
,,,,,,,,,342,102.755,0.010932
,,,,,,,,,369,140.412,0.00862805
,,,,,,,,,397,60.4142,0.0101478
,,,,,,,,,426,73.5746,0.0108223
,,,,,,,,,456,63.395,0.00847555
,,,,,,,,,487,129.641,0.00967636
,,,,,,,,,519,91.7117,0.010037
,,,,,,,,,552,93.8159,0.00775951
,,,,,,,,,200,39.5486,0.0267691
,,,,,,,,,221,57.4631,0.0328301
,,,,,,,,,243,131.822,0.0416367
,,,,,,,,,266,72.792,0.0278135
,,,,,,,,,290,94.4693,0.03531
,,,,,,,,,315,34.5971,0.0425157
,,,,,,,,,341,178.728,0.0426444
,,,,,,,,,368,34.2905,0.0391601
,,,,,,,,,396,122.343,0.020015
,,,,,,,,,425,123.482,0.0306702
,,,,,,,,,455,61.2335,0.0377878
,,,,,,,,,486,92.687,0.0192131
,,,,,,,,,518,75.5526,0.0267337
,,,,,,,,,551,86.1444,0.0296799
,,,,,,,,,585,109.336,0.0158893
,,,,,,,,,242,18.1098,0.0300556
,,,,,,,,,265,92.9032,0.0372729
,,,,,,,,,289,33.8989,0.0257961
,,,,,,,,,314,55.214,0.0321208
,,,,,,,,,340,19.4696,0.0379758
,,,,,,,,,367,141.451,0.0380784
,,,,,,,,,395,51.2069,0.0352758
,,,,,,,,,424,93.6202,0.0189486
,,,,,,,,,454,153.125,0.0282352
,,,,,,,,,485,90.8547,0.0341583
,,,,,,,,,517,122.355,0.0182283
,,,,,,,,,550,68.6078,0.0248646
,,,,,,,,,584,101.509,0.0273938
,,,,,,,,,619,118.109,0.0152097
,,,,,,,,,288,74.7944,0.0501695
,,,,,,,,,313,18.6967,0.0313786
,,,,,,,,,339,38.2485,0.0412614
,,,,,,,,,366,33.4716,0.0514514
,,,,,,,,,394,123.489,0.0516399
,,,,,,,,,423,66.3792,0.0466171
,,,,,,,,,453,81.9511,0.0217971
,,,,,,,,,484,159.12,0.035063
,,,,,,,,,516,106.539,0.0446853
,,,,,,,,,549,135.834,0.0208494
,,,,,,,,,583,71.7675,0.030011
,,,,,,,,,618,110.144,0.0337747
,,,,,,,,,654,120.65,0.0169922
,,,,,,,,,338,62.0312,0.0393293
,,,,,,,,,365,41.0014,0.0562014
,,,,,,,,,393,104.123,0.0769629
,,,,,,,,,422,49.0017,0.0773855
,,,,,,,,,452,130.747,0.0666277
,,,,,,,,,483,49.1698,0.0253582
,,,,,,,,,515,103.243,0.0452949
,,,,,,,,,548,149.667,0.0627504
,,,,,,,,,582,129.64,0.0240846
,,,,,,,,,617,96.7448,0.0372043
,,,,,,,,,653,118.571,0.0431679
,,,,,,,,,690,99.5722,0.019081
,,,,,,,,,392,21.7406,0.0336365
,,,,,,,,,421,42.1196,0.0401127
,,,,,,,,,451,108.315,0.0402272
,,,,,,,,,482,72.1734,0.0371123
,,,,,,,,,514,63.3398,0.0194661
,,,,,,,,,547,143.246,0.0293996
,,,,,,,,,581,110.101,0.0358775
,,,,,,,,,616,132.037,0.0187067
,,,,,,,,,652,62.7754,0.0257632
,,,,,,,,,689,103.143,0.0284885
,,,,,,,,,727,107.3,0.0155413
,,,,,,,,,450,63.3168,0.0578149
,,,,,,,,,481,86.6201,0.0580531
,,,,,,,,,513,90.9366,0.0517811
,,,,,,,,,546,48.8043,0.0228632
,,,,,,,,,580,129.582,0.0379063
,,,,,,,,,615,124.431,0.0494084
,,,,,,,,,651,134.558,0.0218228
,,,,,,,,,688,69.202,0.0320699
,,,,,,,,,726,106.939,0.0364051
,,,,,,,,,765,102.071,0.0176331
,,,,,,,,,512,146.668,0.0804782
,,,,,,,,,545,32.9238,0.0689076
,,,,,,,,,579,89.0838,0.0256816
,,,,,,,,,614,133.658,0.0463371
,,,,,,,,,650,73.0852,0.0647687
,,,,,,,,,687,103.52,0.0243761
,,,,,,,,,725,52.2214,0.0379046
,,,,,,,,,764,82.1499,0.0441135
,,,,,,,,,804,100.074,0.0192635
,,,,,,,,,578,146.444,0.0692462
,,,,,,,,,613,58.9027,0.0257285
,,,,,,,,,649,56.0134,0.04649
,,,,,,,,,686,118.625,0.0650677
,,,,,,,,,724,87.0065,0.0244183
,,,,,,,,,763,105.475,0.0380068
,,,,,,,,,803,94.171,0.044252
,,,,,,,,,844,71.0328,0.0192899
,,,,,,,,,648,95.1243,0.0244177
,,,,,,,,,685,102.671,0.0423792
,,,,,,,,,723,40.1627,0.05729
,,,,,,,,,762,71.1531,0.0232346
,,,,,,,,,802,43.5117,0.0352144
,,,,,,,,,843,54.6821,0.0405116
,,,,,,,,,885,76.8228,0.0185436
,,,,,,,,,722,81.4363,0.0208235
,,,,,,,,,761,100.563,0.023877
,,,,,,,,,801,90.4049,0.0148224
,,,,,,,,,842,52.2385,0.0189309
,,,,,,,,,884,70.3627,0.0203622
,,,,,,,,,927,56.1603,0.0127627
,,,,,,,,,800,64.4726,0.0407766
,,,,,,,,,841,32.1278,0.0199569
,,,,,,,,,883,88.0346,0.0281958
,,,,,,,,,926,51.8903,0.031493
,,,,,,,,,970,38.5739,0.0163946
,,,,,,,,,882,32.3608,0.0227445
,,,,,,,,,925,56.9984,0.0341007
,,,,,,,,,969,31.5843,0.0390447
,,,,,,,,,1014,52.8632,0.0182301
,,,,,,,,,968,69.3911,0.0182119
,,,,,,,,,1013,29.1013,0.0195328
,,,,,,,,,1059,34.2514,0.0124318
,,,,,,,,,1058,40.372,0.0273567
,,,,,,,,,1105,49.8804,0.0151983
,,,,,,,,,1152,23.2978,0.0161073
