"cellPairingIds","interplanarAngles","angleWeights"
13,56.8292,0.0494745
19,28.3532,0.0667668
26,115.163,0.023675
53,79.2097,0.0843956
76,69.9035,0.0520233
89,73.056,0.0425858
18,24.8727,0.0508245
33,105.996,0.0239798
75,44.5688,0.0308808
41,128.258,0.0229643
74,40.0088,0.0760094
87,53.0915,0.0292169
50,91.7772,0.0261022
115,57.7713,0.0653828
114,111.865,0.0177768
130,103.451,0.0234986
204,89.4062,0.0162205
225,100.394,0.019783
162,42.1901,0.0386648
201,65.4968,0.0608798
222,42.7843,0.0917855
243,72.8308,0.0312837
266,34.7826,0.0252132
290,54.2436,0.0191091
242,37.7987,0.0420185
340,64.5278,0.0363216
288,30.1411,0.0443892
366,54.7002,0.0314548
338,60.7188,0.0404967
393,49.0572,0.0380795
392,21.2498,0.0221931
421,56.7239,0.029449
450,44.5939,0.021447
