Q	U	V
{$V$}	{[mm$^3$]}	0.00820526
{$d_v$}	{[mm]}	0.250245
{$S_c$}	{[mm$^2$]}	0.299036
{$S_o$}	{[mm$^2$]}	0.200783
{$S_l/S_o$}	[]	0.489349
{$\Psi$}	[]	0.657893
{$\eta$}	[]	0.696936
{med($\theta_e$)}	{[$^\circ$]}	52.4613
{$\Upsilon$}	[]	17
{$\Xi$}	[]	7
