facetNormals:0,facetNormals:1,facetNormals:2,FacetCenters:0,FacetCenters:1,FacetCenters:2,FacetIds,relFacetSize,absFacetSize,cellPairingIds,interplanarAngles,angleWeights
0.414946,-0.400082,-0.792085,6.12494,5.09826,5.67948,1,0.0142866,0.00172055,8,65.1997,0.0251246
0.265649,0.616681,-0.66118,6.10702,5.14843,5.69146,2,0.104083,0.0125348,13,35.0719,0.0231966
0.187641,-0.824341,-0.459105,6.08269,5.09037,5.6676,3,0.0616369,0.00742299,19,94.3914,0.0174829
-0.689844,0.44225,-0.494149,6.01983,5.12078,5.68097,4,0.0225216,0.00271229,26,47.5661,0.014563
0.899141,-0.306384,-0.181195,6.08331,5.14058,5.68316,5,0.0148503,0.00178844,34,115.648,0.0251448
-0.0220116,0.948616,0.0173552,6.07797,5.13311,5.71917,6,0.104778,0.0126185,43,72.8953,0.0206029
0.943456,0.292441,-0.0127908,6.16116,5.11412,5.73776,7,0.0369299,0.0044475,53,131.581,0.0224931
-0.772042,0.577044,0.0994275,6.02124,5.1385,5.75241,8,0.0528522,0.00636503,64,105.705,0.0174912
-0.831513,-0.505994,0.149664,6.00759,5.09672,5.70518,9,0.0225492,0.00271562,76,134.442,0.0215707
-0.911765,0.0851374,0.319119,6.0146,5.11238,5.73042,10,0.0440081,0.00529993,89,80.5026,0.0195176
0.601648,-0.611998,0.428549,6.08659,5.13907,5.69173,11,0.0307916,0.00370826,103,132.495,0.0174888
0.204262,0.807898,0.519222,6.08455,5.15366,5.77986,12,0.0225411,0.00271465,118,115.818,0.0195311
-0.590952,-0.588327,0.515684,6.02072,5.12587,5.69762,13,0.0308591,0.00371639,134,106.558,0.0247244
0.727728,0.397254,0.5268,6.13638,5.12408,5.80981,14,0.0917737,0.0110524,151,175.111,0.0186409
-0.446536,0.455636,0.738367,6.0736,5.15855,5.76786,15,0.0268127,0.00322908,169,147.736,0.0212298
-0.552495,-0.126472,0.798504,6.05746,5.13722,5.78592,16,0.0413022,0.00497406,188,132.215,0.021355
-0.102387,-0.316327,0.915639,6.06289,5.16425,5.73197,17,0.0422664,0.00509017,18,99.8417,0.0774242
,,,,,,,,,25,62.513,0.0370305
,,,,,,,,,33,79.2666,0.0259922
,,,,,,,,,42,50.5983,0.10443
,,,,,,,,,52,61.832,0.0545167
,,,,,,,,,63,84.6575,0.0701056
,,,,,,,,,75,132.913,0.0370678
,,,,,,,,,88,116.007,0.0618606
,,,,,,,,,102,123.652,0.0475239
,,,,,,,,,117,76.9336,0.0370569
,,,,,,,,,133,158.69,0.0476043
,,,,,,,,,150,84.4211,0.0975417
,,,,,,,,,168,110.753,0.0426408
,,,,,,,,,187,144.659,0.0591375
,,,,,,,,,207,154.373,0.0601194
,,,,,,,,,32,106.869,0.0329892
,,,,,,,,,41,57.1633,0.0239341
,,,,,,,,,51,150.429,0.0776156
,,,,,,,,,62,93.5092,0.0461869
,,,,,,,,,74,135.615,0.0569075
,,,,,,,,,87,78.2847,0.0330188
,,,,,,,,,101,114.56,0.0513517
,,,,,,,,,116,62.8831,0.0410674
,,,,,,,,,132,156.47,0.0330102
,,,,,,,,,149,81.6276,0.0411274
,,,,,,,,,167,117.255,0.0737452
,,,,,,,,,186,148.262,0.0373694
,,,,,,,,,206,112.863,0.0494611
,,,,,,,,,227,101,0.050146
,,,,,,,,,50,136.052,0.0178986
,,,,,,,,,61,62.0146,0.0370742
,,,,,,,,,73,123.027,0.0279798
,,,,,,,,,86,37.1894,0.0315843
,,,,,,,,,100,72.9769,0.0225354
,,,,,,,,,115,56.739,0.0297952
,,,,,,,,,131,167.884,0.0260151
,,,,,,,,,148,92.4516,0.0225313
,,,,,,,,,166,96.5702,0.0260392
,,,,,,,,,185,128.618,0.0361675
,,,,,,,,,205,81.0862,0.0244805
,,,,,,,,,226,94.2461,0.0291487
,,,,,,,,,248,124.035,0.0293852
,,,,,,,,,72,109.979,0.0260137
,,,,,,,,,85,37.1876,0.0211826
,,,,,,,,,99,161.573,0.0231859
,,,,,,,,,114,130.598,0.0179073
,,,,,,,,,130,164.51,0.022207
,,,,,,,,,147,45.4452,0.0200371
,,,,,,,,,165,99.5758,0.0179048
,,,,,,,,,184,117.96,0.0200513
,,,,,,,,,204,62.5993,0.025564
,,,,,,,,,225,135.66,0.0191142
,,,,,,,,,247,129.53,0.0218459
,,,,,,,,,270,99.8439,0.0219785
,,,,,,,,,98,74.1257,0.0546116
,,,,,,,,,113,52.0033,0.0702626
,,,,,,,,,129,119.42,0.0371116
,,,,,,,,,146,83.3629,0.0619827
,,,,,,,,,164,130.097,0.047596
,,,,,,,,,183,34.175,0.0371007
,,,,,,,,,203,125.184,0.0476766
,,,,,,,,,224,66.618,0.0978458
,,,,,,,,,246,60.5816,0.0426988
,,,,,,,,,269,95.8026,0.0592492
,,,,,,,,,293,107.756,0.0602347
,,,,,,,,,128,125.874,0.0434792
,,,,,,,,,145,163.841,0.0280011
,,,,,,,,,163,151.194,0.0401595
,,,,,,,,,182,66.1482,0.0335826
,,,,,,,,,202,64.1863,0.0279949
,,,,,,,,,223,139.475,0.0336227
,,,,,,,,,245,34.8806,0.0526667
,,,,,,,,,268,107.976,0.0310684
,,,,,,,,,292,125.992,0.0389939
,,,,,,,,,317,102.046,0.0394184
,,,,,,,,,162,67.5204,0.0316115
,,,,,,,,,181,33.3659,0.0480264
,,,,,,,,,201,146.494,0.0389127
,,,,,,,,,222,67.7578,0.0316035
,,,,,,,,,244,79.8131,0.0389666
,,,,,,,,,267,107.122,0.0670757
,,,,,,,,,291,43.9192,0.0355768
,,,,,,,,,316,62.8507,0.0463688
,,,,,,,,,342,90.7556,0.0469702
,,,,,,,,,200,36.9878,0.0298193
,,,,,,,,,221,97.6938,0.0260336
,,,,,,,,,243,121.202,0.0225452
,,,,,,,,,266,26.2131,0.0260577
,,,,,,,,,290,138.747,0.0362031
,,,,,,,,,315,74.8431,0.0244968
,,,,,,,,,341,48.1881,0.0291718
,,,,,,,,,368,66.5196,0.0294088
,,,,,,,,,242,119.914,0.0362322
,,,,,,,,,265,87.096,0.0298123
,,,,,,,,,289,46.5989,0.0362789
,,,,,,,,,314,118.984,0.0594894
,,,,,,,,,340,43.9248,0.0333229
,,,,,,,,,367,38.0475,0.0426122
,,,,,,,,,395,67.6894,0.0431197
,,,,,,,,,288,99.1041,0.0260282
,,,,,,,,,313,76.127,0.0308253
,,,,,,,,,339,63.4977,0.0461119
,,,,,,,,,366,104.292,0.0286647
,,,,,,,,,394,84.6739,0.0352807
,,,,,,,,,423,55.863,0.0356278
,,,,,,,,,338,109.938,0.0260523
,,,,,,,,,365,39.6018,0.0361927
,,,,,,,,,393,46.4361,0.0244921
,,,,,,,,,422,78.0196,0.0291651
,,,,,,,,,452,77.9945,0.0294019
,,,,,,,,,392,114.025,0.0461876
,,,,,,,,,421,66.8202,0.028694
,,,,,,,,,451,32.1688,0.035325
,,,,,,,,,482,41.185,0.035673
,,,,,,,,,450,75.1897,0.0415006
,,,,,,,,,481,91.886,0.0569668
,,,,,,,,,513,72.8486,0.0578773
,,,,,,,,,512,35.42,0.0325164
,,,,,,,,,545,52.5758,0.032811
,,,,,,,,,578,29.8039,0.0417787
