"cellPairingIds","interplanarAngles","angleWeights"
8,49.9905,0.0590281
13,79.1387,0.0545331
19,48.1115,0.0546381
26,72.1187,0.0559477
53,123.418,0.0320627
18,35.7681,0.052276
25,54.8459,0.0523725
42,52.8629,0.0599998
150,64.8679,0.0263264
74,75.8829,0.0299607
87,50.5223,0.0448161
167,54.8053,0.0253929
50,84.5091,0.0499332
61,37.5396,0.0554696
73,83.3429,0.0546425
115,48.2139,0.0698151
205,75.573,0.0449792
85,34.7845,0.0559523
99,105.985,0.0303828
147,62.0609,0.0498002
165,77.5174,0.0217528
146,33.0371,0.0840599
224,43.3888,0.0270867
182,43.8984,0.0544832
268,41.9397,0.0498055
162,31.2755,0.0284375
201,70.7217,0.0299443
222,36.1447,0.0168674
267,93.4392,0.0191452
290,64.26,0.0242902
314,57.1804,0.0301076
340,36.2543,0.0621085
288,35.9075,0.0215271
339,110.335,0.0253812
366,55.4209,0.0448713
450,79.5043,0.0243172
