facetNormals:0,facetNormals:1,facetNormals:2,FacetCenters:0,FacetCenters:1,FacetCenters:2,FacetIds,relFacetSize,absFacetSize,cellPairingIds,interplanarAngles,angleWeights
-0.142226,0.0428349,-0.972934,4.16518,7.46437,6.55762,1,0.0176985,0.00501793,8,29.9441,0.0190643
-0.0980689,0.526648,-0.82392,4.16423,7.48929,6.58082,2,0.0206584,0.00585713,13,34.287,0.0271219
0.232498,-0.374481,-0.852894,4.21578,7.41641,6.58019,3,0.0580074,0.0164464,19,62.0846,0.0242383
0.71631,-0.310826,-0.578679,4.31565,7.4096,6.62691,4,0.0384436,0.0108996,26,56.4992,0.0172247
-0.25073,0.824761,-0.477163,4.157,7.53665,6.59433,5,0.0167756,0.00475625,34,67.8014,0.0211022
0.259925,0.856796,-0.370636,4.19896,7.4973,6.70828,6,0.0261267,0.00740751,43,79.6423,0.0271066
0.362064,-0.858638,-0.267033,4.31468,7.41269,6.68269,7,0.0578673,0.0164067,53,72.6377,0.0206141
-0.964184,-0.0961523,-0.159737,4.12023,7.48299,6.61084,8,0.0246798,0.00699727,64,89.6383,0.0264906
-0.317827,-0.926922,-0.000605666,4.25728,7.38433,6.6727,9,0.0526408,0.0149249,76,98.2046,0.0301474
-0.661896,-0.685558,0.207363,4.17619,7.4029,6.64203,10,0.101639,0.0288169,89,105.536,0.0223006
0.0274291,-0.958421,0.22036,4.29649,7.38289,6.68924,11,0.0301371,0.00854455,103,103.503,0.026759
0.036402,0.929684,0.264046,4.24174,7.51847,6.75786,12,0.0548265,0.0155446,118,101.896,0.026157
-0.610685,0.67869,0.320957,4.16356,7.5274,6.69465,13,0.0501017,0.014205,134,134.571,0.0306204
0.731553,0.06609,0.545509,4.29425,7.447,6.77258,14,0.113454,0.0321667,151,137.577,0.0274893
0.00188633,-0.678717,0.69554,4.30246,7.40796,6.77527,15,0.0615246,0.0174436,169,136.185,0.0158047
-0.111954,0.613929,0.762771,4.21704,7.53622,6.73505,16,0.0142771,0.00404787,188,141.475,0.0219447
-0.425325,-0.316319,0.822921,4.22955,7.46423,6.74672,17,0.0288713,0.00818567,18,59.2299,0.0304667
,,,,,,,,,25,75.271,0.026875
,,,,,,,,,33,28.3589,0.0185156
,,,,,,,,,42,39.8514,0.023073
,,,,,,,,,52,106.32,0.0304473
,,,,,,,,,63,79.5211,0.0224908
,,,,,,,,,75,118.296,0.0296723
,,,,,,,,,88,119.159,0.0343377
,,,,,,,,,102,135.449,0.0245134
,,,,,,,,,117,73.5914,0.0300094
,,,,,,,,,133,80.7501,0.0292544
,,,,,,,,,150,122.747,0.0349525
,,,,,,,,,168,167.029,0.030931
,,,,,,,,,187,107.681,0.0168849
,,,,,,,,,207,146.577,0.024084
,,,,,,,,,32,33.6767,0.0462414
,,,,,,,,,41,87.5875,0.0260248
,,,,,,,,,51,86.5681,0.0360268
,,,,,,,,,62,47.103,0.0579373
,,,,,,,,,74,93.1571,0.0346271
,,,,,,,,,87,73.0837,0.0551939
,,,,,,,,,101,94.5343,0.0738609
,,,,,,,,,116,79.1778,0.0396661
,,,,,,,,,132,127.472,0.0563721
,,,,,,,,,149,136.136,0.0537655
,,,,,,,,,167,111.359,0.0767656
,,,,,,,,,186,111.28,0.0597142
,,,,,,,,,206,163.35,0.0229143
,,,,,,,,,227,136.555,0.0385538
,,,,,,,,,50,99.6083,0.0233583
,,,,,,,,,61,81.7986,0.0311104
,,,,,,,,,73,43.7312,0.0461968
,,,,,,,,,86,126.545,0.0300611
,,,,,,,,,100,86.3397,0.0444358
,,,,,,,,,115,113.703,0.0557867
,,,,,,,,,131,78.5364,0.0337873
,,,,,,,,,148,116.247,0.0451962
,,,,,,,,,166,152.478,0.0435052
,,,,,,,,,185,77.8075,0.0574279
,,,,,,,,,205,101.616,0.0473196
,,,,,,,,,226,138.055,0.0208215
,,,,,,,,,248,135.845,0.0329769
,,,,,,,,,72,31.0078,0.020432
,,,,,,,,,85,134.677,0.0260107
,,,,,,,,,99,75.72,0.0199741
,,,,,,,,,114,135.153,0.025443
,,,,,,,,,130,121.245,0.028798
,,,,,,,,,147,158.599,0.0215535
,,,,,,,,,165,48.4812,0.0256905
,,,,,,,,,184,54.055,0.0251351
,,,,,,,,,204,115.579,0.0292292
,,,,,,,,,225,158.704,0.0263629
,,,,,,,,,247,79.8902,0.0154258
,,,,,,,,,270,124.546,0.0212208
,,,,,,,,,98,125.284,0.0359998
,,,,,,,,,113,106.721,0.0253826
,,,,,,,,,129,157.389,0.0349213
,,,,,,,,,146,152.241,0.0415682
,,,,,,,,,164,159.976,0.027989
,,,,,,,,,183,40.9218,0.0353892
,,,,,,,,,203,71.0975,0.034344
,,,,,,,,,224,87.1172,0.0424726
,,,,,,,,,246,152.965,0.036678
,,,,,,,,,269,77.0387,0.0184642
,,,,,,,,,293,136.371,0.0274305
,,,,,,,,,128,103.602,0.0346021
,,,,,,,,,145,44.1996,0.0551305
,,,,,,,,,163,71.9049,0.0737473
,,,,,,,,,182,35.7444,0.0396333
,,,,,,,,,202,155.871,0.0563059
,,,,,,,,,223,161.486,0.0537053
,,,,,,,,,245,85.9621,0.0766429
,,,,,,,,,268,65.027,0.05964
,,,,,,,,,292,143.846,0.0229034
,,,,,,,,,317,96.1795,0.0385228
,,,,,,,,,162,65.7219,0.0336046
,,,,,,,,,181,45.525,0.0397158
,,,,,,,,,201,88.1905,0.0271368
,,,,,,,,,222,100.107,0.0340377
,,,,,,,,,244,60.2022,0.0330697
,,,,,,,,,267,152.757,0.0405407
,,,,,,,,,291,92.8626,0.0352282
,,,,,,,,,316,94.3215,0.0180895
,,,,,,,,,342,71.2461,0.0266115
,,,,,,,,,200,27.7532,0.0693592
,,,,,,,,,221,24.1685,0.0383301
,,,,,,,,,243,157.173,0.0537114
,,,,,,,,,266,117.317,0.0513399
,,,,,,,,,290,109.149,0.0719145
,,,,,,,,,315,48.7331,0.0567371
,,,,,,,,,341,123.566,0.022462
,,,,,,,,,368,63.5066,0.0372904
,,,,,,,,,242,44.4776,0.0464895
,,,,,,,,,265,130.033,0.0712299
,,,,,,,,,289,89.6671,0.0671183
,,,,,,,,,314,117.818,0.107222
,,,,,,,,,340,50.0732,0.0766507
,,,,,,,,,367,101.317,0.0250372
,,,,,,,,,395,45.507,0.0449689
,,,,,,,,,288,150.958,0.0388946
,,,,,,,,,313,128.793,0.0376357
,,,,,,,,,339,85.0971,0.0476238
,,,,,,,,,366,32.782,0.0404569
,,,,,,,,,394,115.892,0.0193753
,,,,,,,,,423,60.5935,0.0294907
,,,,,,,,,338,42.1892,0.0523577
,,,,,,,,,365,74.7928,0.0739276
,,,,,,,,,393,118.416,0.0579828
,,,,,,,,,422,36.3073,0.0226547
,,,,,,,,,452,95.5933,0.0378245
,,,,,,,,,392,104.842,0.0695083
,,,,,,,,,421,104.693,0.0552287
,,,,,,,,,451,40.0718,0.0222218
,,,,,,,,,482,70.9509,0.0366328
,,,,,,,,,450,67.801,0.0797836
,,,,,,,,,481,65.441,0.0253625
,,,,,,,,,513,82.5027,0.0460293
,,,,,,,,,512,83.1855,0.023176
,,,,,,,,,545,34.2552,0.0393004
,,,,,,,,,578,60.0839,0.0191061
