Q	U	V
{$V$}	{[mm$^3$]}	0.00205191
{$d_v$}	{[mm]}	0.157659
{$S_c$}	{[mm$^2$]}	0.13902
{$S_o$}	{[mm$^2$]}	0.0803927
{$S_l/S_o$}	[]	0.729261
{$\Psi$}	[]	0.56171
{$\eta$}	[]	0.638100
{med($\theta_e$)}	{[$^\circ$]}	48.6552
{$\Upsilon$}	[]	15
{$\Xi$}	[]	6
