Q	U	V
{$V$}	{[mm$^3$]}	0.00936895
{$d_v$}	{[mm]}	0.261556
{$S_c$}	{[mm$^2$]}	0.415996
{$S_o$}	{[mm$^2$]}	0.264762
{$S_l/S_o$}	[]	0.571207
{$\Psi$}	[]	0.516641
{$\eta$}	[]	0.589849
{med($\theta_e$)}	{[$^\circ$]}	62.1461
{$\Upsilon$}	[]	12
{$\Xi$}	[]	11
