Q	U	V
{$V$}	{[mm$^3$]}	0.00445767
{$d_v$}	{[mm]}	0.204191
{$S_c$}	{[mm$^2$]}	0.232831
{$S_o$}	{[mm$^2$]}	0.146714
{$S_l/S_o$}	[]	0.586972
{$\Psi$}	[]	0.562577
{$\eta$}	[]	0.638781
{med($\theta_e$)}	{[$^\circ$]}	66.66375
{$\Upsilon$}	[]	11
{$\Xi$}	[]	11
