Q	U	V
{$V$}	{[mm$^3$]}	0.00820644
{$d_v$}	{[mm]}	0.250257
{$S_c$}	{[mm$^2$]}	0.346027
{$S_o$}	{[mm$^2$]}	0.228563
{$S_l/S_o$}	[]	0.513924
{$\Psi$}	[]	0.568605
{$\eta$}	[]	0.588942
{med($\theta_e$)}	{[$^\circ$]}	70.7155
{$\Upsilon$}	[]	11
{$\Xi$}	[]	8
