Q	U	V
{$V$}	{[mm$^3$]}	0.00542782
{$d_v$}	{[mm]}	0.218043
{$S_c$}	{[mm$^2$]}	0.251926
{$S_o$}	{[mm$^2$]}	0.149852
{$S_l/S_o$}	[]	0.681165
{$\Psi$}	[]	0.592873
{$\eta$}	[]	0.604328
{med($\theta_e$)}	{[$^\circ$]}	56.71355
{$\Upsilon$}	[]	11
{$\Xi$}	[]	7
