Q	U	V
{$V$}	{[mm$^3$]}	0.0193067
{$d_v$}	{[mm]}	0.332841
{$S_c$}	{[mm$^2$]}	0.701262
{$S_o$}	{[mm$^2$]}	0.461443
{$S_l/S_o$}	[]	0.519715
{$\Psi$}	[]	0.496298
{$\eta$}	[]	0.566184
{med($\theta_e$)}	{[$^\circ$]}	63.6187
{$\Upsilon$}	[]	11
{$\Xi$}	[]	14
