Q	U	V
{$V$}	{[mm$^3$]}	0.00821594
{$d_v$}	{[mm]}	0.250353
{$S_c$}	{[mm$^2$]}	0.313983
{$S_o$}	{[mm$^2$]}	0.205032
{$S_l/S_o$}	[]	0.531385
{$\Psi$}	[]	0.627118
{$\eta$}	[]	0.670635
{med($\theta_e$)}	{[$^\circ$]}	65.5392
{$\Upsilon$}	[]	12
{$\Xi$}	[]	4
