Q	U	V
{$V$}	{[mm$^3$]}	0.00163155
{$d_v$}	{[mm]}	0.146061
{$S_c$}	{[mm$^2$]}	0.1416
{$S_o$}	{[mm$^2$]}	0.0757851
{$S_l/S_o$}	[]	0.868441
{$\Psi$}	[]	0.47332
{$\eta$}	[]	0.535915
{med($\theta_e$)}	{[$^\circ$]}	133.7005
{$\Upsilon$}	[]	16
{$\Xi$}	[]	7
