Q	U	V
{$V$}	{[mm$^3$]}	0.00785733
{$d_v$}	{[mm]}	0.246656
{$S_c$}	{[mm$^2$]}	0.324045
{$S_o$}	{[mm$^2$]}	0.216342
{$S_l/S_o$}	[]	0.497837
{$\Psi$}	[]	0.589833
{$\eta$}	[]	0.623741
{med($\theta_e$)}	{[$^\circ$]}	73.4106
{$\Upsilon$}	[]	14
{$\Xi$}	[]	12
