Q	U	V
{$V$}	{[mm$^3$]}	0.00310755
{$d_v$}	{[mm]}	0.181053
{$S_c$}	{[mm$^2$]}	0.187981
{$S_o$}	{[mm$^2$]}	0.102579
{$S_l/S_o$}	[]	0.832549
{$\Psi$}	[]	0.547834
{$\eta$}	[]	0.594236
{med($\theta_e$)}	{[$^\circ$]}	109.256
{$\Upsilon$}	[]	11
{$\Xi$}	[]	4
