Q	U	V
{$V$}	{[mm$^3$]}	0.0077944
{$d_v$}	{[mm]}	0.245996
{$S_c$}	{[mm$^2$]}	0.427633
{$S_o$}	{[mm$^2$]}	0.227082
{$S_l/S_o$}	[]	0.883166
{$\Psi$}	[]	0.444564
{$\eta$}	[]	0.458770
{med($\theta_e$)}	{[$^\circ$]}	75.4775
{$\Upsilon$}	[]	13
{$\Xi$}	[]	7
