Q	U	V
{$V$}	{[mm$^3$]}	0.0125228
{$d_v$}	{[mm]}	0.288116
{$S_c$}	{[mm$^2$]}	0.591469
{$S_o$}	{[mm$^2$]}	0.339567
{$S_l/S_o$}	[]	0.741833
{$\Psi$}	[]	0.440913
{$\eta$}	[]	0.501183
{med($\theta_e$)}	{[$^\circ$]}	75.14485
{$\Upsilon$}	[]	10
{$\Xi$}	[]	15
