Q	U	V
{$V$}	{[mm$^3$]}	0.00324292
{$d_v$}	{[mm]}	0.183645
{$S_c$}	{[mm$^2$]}	0.228654
{$S_o$}	{[mm$^2$]}	0.118284
{$S_l/S_o$}	[]	0.933093
{$\Psi$}	[]	0.463372
{$\eta$}	[]	0.500975
{med($\theta_e$)}	{[$^\circ$]}	
{$\Upsilon$}	[]	18
{$\Xi$}	[]	8
