Q	U	V
{$V$}	{[mm$^3$]}	0.00204597
{$d_v$}	{[mm]}	0.157507
{$S_c$}	{[mm$^2$]}	0.174354
{$S_o$}	{[mm$^2$]}	0.0862633
{$S_l/S_o$}	[]	1.021184
{$\Psi$}	[]	0.447011
{$\eta$}	[]	0.541732
{med($\theta_e$)}	{[$^\circ$]}	
{$\Upsilon$}	[]	15
{$\Xi$}	[]	5
