Q	U	V
{$V$}	{[mm$^3$]}	0.0109744
{$d_v$}	{[mm]}	0.275715
{$S_c$}	{[mm$^2$]}	0.501824
{$S_o$}	{[mm$^2$]}	0.280503
{$S_l/S_o$}	[]	0.789015
{$\Psi$}	[]	0.475905
{$\eta$}	[]	0.506624
{med($\theta_e$)}	{[$^\circ$]}	75.00985
{$\Upsilon$}	[]	8
{$\Xi$}	[]	12
