Q	U	V
{$V$}	{[mm$^3$]}	0.00388176
{$d_v$}	{[mm]}	0.194989
{$S_c$}	{[mm$^2$]}	0.2439
{$S_o$}	{[mm$^2$]}	0.140852
{$S_l/S_o$}	[]	0.731605
{$\Psi$}	[]	0.489732
{$\eta$}	[]	0.587942
{med($\theta_e$)}	{[$^\circ$]}	71.23045
{$\Upsilon$}	[]	9
{$\Xi$}	[]	10
