Q	U	V
{$V$}	{[mm$^3$]}	0.00679813
{$d_v$}	{[mm]}	0.235034
{$S_c$}	{[mm$^2$]}	0.311929
{$S_o$}	{[mm$^2$]}	0.196803
{$S_l/S_o$}	[]	0.584981
{$\Psi$}	[]	0.556358
{$\eta$}	[]	0.626909
{med($\theta_e$)}	{[$^\circ$]}	65.18985
{$\Upsilon$}	[]	14
{$\Xi$}	[]	11
