Q	U	V
{$V$}	{[mm$^3$]}	0.00890466
{$d_v$}	{[mm]}	0.257162
{$S_c$}	{[mm$^2$]}	0.420298
{$S_o$}	{[mm$^2$]}	0.24073
{$S_l/S_o$}	[]	0.745931
{$\Psi$}	[]	0.494316
{$\eta$}	[]	0.507281
{med($\theta_e$)}	{[$^\circ$]}	71.9122
{$\Upsilon$}	[]	12
{$\Xi$}	[]	12
