Q	U	V
{$V$}	{[mm$^3$]}	0.0124338
{$d_v$}	{[mm]}	0.287432
{$S_c$}	{[mm$^2$]}	0.343289
{$S_o$}	{[mm$^2$]}	0.267136
{$S_l/S_o$}	[]	0.285072
{$\Psi$}	[]	0.756067
{$\eta$}	[]	0.779847
{med($\theta_e$)}	{[$^\circ$]}	70.1747
{$\Upsilon$}	[]	11
{$\Xi$}	[]	8
