Q	U	V
{$V$}	{[mm$^3$]}	0.0055145
{$d_v$}	{[mm]}	0.219198
{$S_c$}	{[mm$^2$]}	0.325608
{$S_o$}	{[mm$^2$]}	0.172023
{$S_l/S_o$}	[]	0.892817
{$\Psi$}	[]	0.463582
{$\eta$}	[]	0.531145
{med($\theta_e$)}	{[$^\circ$]}	76.98945
{$\Upsilon$}	[]	13
{$\Xi$}	[]	13
