Q	U	V
{$V$}	{[mm$^3$]}	0.00528532
{$d_v$}	{[mm]}	0.216118
{$S_c$}	{[mm$^2$]}	0.359774
{$S_o$}	{[mm$^2$]}	0.190902
{$S_l/S_o$}	[]	0.884600
{$\Psi$}	[]	0.407851
{$\eta$}	[]	0.447926
{med($\theta_e$)}	{[$^\circ$]}	
{$\Upsilon$}	[]	10
{$\Xi$}	[]	8
