Q	U	V
{$V$}	{[mm$^3$]}	0.0120193
{$d_v$}	{[mm]}	0.284202
{$S_c$}	{[mm$^2$]}	0.512274
{$S_o$}	{[mm$^2$]}	0.307023
{$S_l/S_o$}	[]	0.668520
{$\Psi$}	[]	0.495338
{$\eta$}	[]	0.511871
{med($\theta_e$)}	{[$^\circ$]}	81.9291
{$\Upsilon$}	[]	9
{$\Xi$}	[]	8
