Q	U	V
{$V$}	{[mm$^3$]}	0.00803308
{$d_v$}	{[mm]}	0.248482
{$S_c$}	{[mm$^2$]}	0.329703
{$S_o$}	{[mm$^2$]}	0.225778
{$S_l/S_o$}	[]	0.460297
{$\Psi$}	[]	0.588323
{$\eta$}	[]	0.612482
{med($\theta_e$)}	{[$^\circ$]}	57.2877
{$\Upsilon$}	[]	14
{$\Xi$}	[]	15
