Q	U	V
{$V$}	{[mm$^3$]}	0.0049944
{$d_v$}	{[mm]}	0.212078
{$S_c$}	{[mm$^2$]}	0.242693
{$S_o$}	{[mm$^2$]}	0.149905
{$S_l/S_o$}	[]	0.618979
{$\Psi$}	[]	0.582214
{$\eta$}	[]	0.593054
{med($\theta_e$)}	{[$^\circ$]}	
{$\Upsilon$}	[]	12
{$\Xi$}	[]	6
