Q	U	V
{$V$}	{[mm$^3$]}	0.002819
{$d_v$}	{[mm]}	0.175266
{$S_c$}	{[mm$^2$]}	0.147958
{$S_o$}	{[mm$^2$]}	0.0851594
{$S_l/S_o$}	[]	0.737424
{$\Psi$}	[]	0.652242
{$\eta$}	[]	0.699313
{med($\theta_e$)}	{[$^\circ$]}	76.8811
{$\Upsilon$}	[]	11
{$\Xi$}	[]	5
