Q	U	V
{$V$}	{[mm$^3$]}	0.00421544
{$d_v$}	{[mm]}	0.200423
{$S_c$}	{[mm$^2$]}	0.241296
{$S_o$}	{[mm$^2$]}	0.139536
{$S_l/S_o$}	[]	0.729274
{$\Psi$}	[]	0.522993
{$\eta$}	[]	0.589939
{med($\theta_e$)}	{[$^\circ$]}	
{$\Upsilon$}	[]	15
{$\Xi$}	[]	6
