Q	U	V
{$V$}	{[mm$^3$]}	0.0022704
{$d_v$}	{[mm]}	0.163068
{$S_c$}	{[mm$^2$]}	0.146113
{$S_o$}	{[mm$^2$]}	0.0819819
{$S_l/S_o$}	[]	0.782259
{$\Psi$}	[]	0.571738
{$\eta$}	[]	0.627338
{med($\theta_e$)}	{[$^\circ$]}	71.8664
{$\Upsilon$}	[]	16
{$\Xi$}	[]	5
