Q	U	V
{$V$}	{[mm$^3$]}	0.00379864
{$d_v$}	{[mm]}	0.193587
{$S_c$}	{[mm$^2$]}	0.202103
{$S_o$}	{[mm$^2$]}	0.116186
{$S_l/S_o$}	[]	0.739478
{$\Psi$}	[]	0.582546
{$\eta$}	[]	0.652840
{med($\theta_e$)}	{[$^\circ$]}	45.1769
{$\Upsilon$}	[]	12
{$\Xi$}	[]	8
