Q	U	V
{$V$}	{[mm$^3$]}	0.00190585
{$d_v$}	{[mm]}	0.153826
{$S_c$}	{[mm$^2$]}	0.131016
{$S_o$}	{[mm$^2$]}	0.072775
{$S_l/S_o$}	[]	0.800289
{$\Psi$}	[]	0.567395
{$\eta$}	[]	0.652304
{med($\theta_e$)}	{[$^\circ$]}	44.3244
{$\Upsilon$}	[]	12
{$\Xi$}	[]	6
