Q	U	V
{$V$}	{[mm$^3$]}	0.00271213
{$d_v$}	{[mm]}	0.173023
{$S_c$}	{[mm$^2$]}	0.163646
{$S_o$}	{[mm$^2$]}	0.0922837
{$S_l/S_o$}	[]	0.773293
{$\Psi$}	[]	0.574715
{$\eta$}	[]	0.620394
{med($\theta_e$)}	{[$^\circ$]}	58.1007
{$\Upsilon$}	[]	12
{$\Xi$}	[]	8
