Q	U	V
{$V$}	{[mm$^3$]}	0.00474029
{$d_v$}	{[mm]}	0.208418
{$S_c$}	{[mm$^2$]}	0.252181
{$S_o$}	{[mm$^2$]}	0.145777
{$S_l/S_o$}	[]	0.729909
{$\Psi$}	[]	0.541138
{$\eta$}	[]	0.565875
{med($\theta_e$)}	{[$^\circ$]}	80.71175
{$\Upsilon$}	[]	13
{$\Xi$}	[]	8
