Q	U	V
{$V$}	{[mm$^3$]}	0.002857
{$d_v$}	{[mm]}	0.176050
{$S_c$}	{[mm$^2$]}	0.219273
{$S_o$}	{[mm$^2$]}	0.0979827
{$S_l/S_o$}	[]	1.237875
{$\Psi$}	[]	0.444057
{$\eta$}	[]	0.471672
{med($\theta_e$)}	{[$^\circ$]}	
{$\Upsilon$}	[]	13
{$\Xi$}	[]	6
