Q	U	V
{$V$}	{[mm$^3$]}	0.00700831
{$d_v$}	{[mm]}	0.237431
{$S_c$}	{[mm$^2$]}	0.349451
{$S_o$}	{[mm$^2$]}	0.211288
{$S_l/S_o$}	[]	0.653908
{$\Psi$}	[]	0.506804
{$\eta$}	[]	0.564600
{med($\theta_e$)}	{[$^\circ$]}	49.1177
{$\Upsilon$}	[]	18
{$\Xi$}	[]	9
