Q	U	V
{$V$}	{[mm$^3$]}	0.00299237
{$d_v$}	{[mm]}	0.178788
{$S_c$}	{[mm$^2$]}	0.148583
{$S_o$}	{[mm$^2$]}	0.0963976
{$S_l/S_o$}	[]	0.541356
{$\Psi$}	[]	0.675863
{$\eta$}	[]	0.686081
{med($\theta_e$)}	{[$^\circ$]}	64.31975
{$\Upsilon$}	[]	10
{$\Xi$}	[]	5
