Q	U	V
{$V$}	{[mm$^3$]}	0.00830381
{$d_v$}	{[mm]}	0.251242
{$S_c$}	{[mm$^2$]}	0.407894
{$S_o$}	{[mm$^2$]}	0.232442
{$S_l/S_o$}	[]	0.754821
{$\Psi$}	[]	0.48617
{$\eta$}	[]	0.551903
{med($\theta_e$)}	{[$^\circ$]}	88.3928
{$\Upsilon$}	[]	11
{$\Xi$}	[]	13
