Q	U	V
{$V$}	{[mm$^3$]}	0.0103902
{$d_v$}	{[mm]}	0.270733
{$S_c$}	{[mm$^2$]}	0.441469
{$S_o$}	{[mm$^2$]}	0.30614
{$S_l/S_o$}	[]	0.442049
{$\Psi$}	[]	0.521595
{$\eta$}	[]	0.599580
{med($\theta_e$)}	{[$^\circ$]}	75.4777
{$\Upsilon$}	[]	10
{$\Xi$}	[]	16
