Q	U	V
{$V$}	{[mm$^3$]}	0.00521883
{$d_v$}	{[mm]}	0.215208
{$S_c$}	{[mm$^2$]}	0.327058
{$S_o$}	{[mm$^2$]}	0.180782
{$S_l/S_o$}	[]	0.809129
{$\Psi$}	[]	0.444879
{$\eta$}	[]	0.476252
{med($\theta_e$)}	{[$^\circ$]}	
{$\Upsilon$}	[]	12
{$\Xi$}	[]	4
