Q	U	V
{$V$}	{[mm$^3$]}	0.00790008
{$d_v$}	{[mm]}	0.247103
{$S_c$}	{[mm$^2$]}	0.390601
{$S_o$}	{[mm$^2$]}	0.248137
{$S_l/S_o$}	[]	0.574134
{$\Psi$}	[]	0.491102
{$\eta$}	[]	0.587833
{med($\theta_e$)}	{[$^\circ$]}	72.8631
{$\Upsilon$}	[]	9
{$\Xi$}	[]	8
