Q	U	V
{$V$}	{[mm$^3$]}	0.0024117
{$d_v$}	{[mm]}	0.166383
{$S_c$}	{[mm$^2$]}	0.138232
{$S_o$}	{[mm$^2$]}	0.0778872
{$S_l/S_o$}	[]	0.774772
{$\Psi$}	[]	0.629155
{$\eta$}	[]	0.665570
{med($\theta_e$)}	{[$^\circ$]}	68.71775
{$\Upsilon$}	[]	8
{$\Xi$}	[]	5
