Q	U	V
{$V$}	{[mm$^3$]}	0.00500984
{$d_v$}	{[mm]}	0.212296
{$S_c$}	{[mm$^2$]}	0.266952
{$S_o$}	{[mm$^2$]}	0.178284
{$S_l/S_o$}	[]	0.497341
{$\Psi$}	[]	0.530396
{$\eta$}	[]	0.619546
{med($\theta_e$)}	{[$^\circ$]}	58.3306
{$\Upsilon$}	[]	10
{$\Xi$}	[]	12
