Q	U	V
{$V$}	{[mm$^3$]}	0.00136675
{$d_v$}	{[mm]}	0.137688
{$S_c$}	{[mm$^2$]}	0.0963479
{$S_o$}	{[mm$^2$]}	0.0541058
{$S_l/S_o$}	[]	0.780731
{$\Psi$}	[]	0.618161
{$\eta$}	[]	0.660966
{med($\theta_e$)}	{[$^\circ$]}	60.2653
{$\Upsilon$}	[]	16
{$\Xi$}	[]	6
