Q	U	V
{$V$}	{[mm$^3$]}	0.00529245
{$d_v$}	{[mm]}	0.216215
{$S_c$}	{[mm$^2$]}	0.27514
{$S_o$}	{[mm$^2$]}	0.16765
{$S_l/S_o$}	[]	0.641157
{$\Psi$}	[]	0.533787
{$\eta$}	[]	0.581279
{med($\theta_e$)}	{[$^\circ$]}	72.3284
{$\Upsilon$}	[]	14
{$\Xi$}	[]	6
