Q	U	V
{$V$}	{[mm$^3$]}	0.00554419
{$d_v$}	{[mm]}	0.219590
{$S_c$}	{[mm$^2$]}	0.378103
{$S_o$}	{[mm$^2$]}	0.172046
{$S_l/S_o$}	[]	1.197686
{$\Psi$}	[]	0.400651
{$\eta$}	[]	0.445619
{med($\theta_e$)}	{[$^\circ$]}	68.4398
{$\Upsilon$}	[]	13
{$\Xi$}	[]	12
