Q	U	V
{$V$}	{[mm$^3$]}	0.00234758
{$d_v$}	{[mm]}	0.164895
{$S_c$}	{[mm$^2$]}	0.143849
{$S_o$}	{[mm$^2$]}	0.0884734
{$S_l/S_o$}	[]	0.625901
{$\Psi$}	[]	0.593824
{$\eta$}	[]	0.637326
{med($\theta_e$)}	{[$^\circ$]}	62.763
{$\Upsilon$}	[]	11
{$\Xi$}	[]	7
