Q	U	V
{$V$}	{[mm$^3$]}	0.00403019
{$d_v$}	{[mm]}	0.197443
{$S_c$}	{[mm$^2$]}	0.230945
{$S_o$}	{[mm$^2$]}	0.136587
{$S_l/S_o$}	[]	0.690827
{$\Psi$}	[]	0.530305
{$\eta$}	[]	0.592336
{med($\theta_e$)}	{[$^\circ$]}	65.5903
{$\Upsilon$}	[]	14
{$\Xi$}	[]	10
