Q	U	V
{$V$}	{[mm$^3$]}	0.00827175
{$d_v$}	{[mm]}	0.250919
{$S_c$}	{[mm$^2$]}	0.30813
{$S_o$}	{[mm$^2$]}	0.19868
{$S_l/S_o$}	[]	0.550886
{$\Psi$}	[]	0.641921
{$\eta$}	[]	0.669893
{med($\theta_e$)}	{[$^\circ$]}	67.00215
{$\Upsilon$}	[]	10
{$\Xi$}	[]	8
