Q	U	V
{$V$}	{[mm$^3$]}	0.00203647
{$d_v$}	{[mm]}	0.157263
{$S_c$}	{[mm$^2$]}	0.17106
{$S_o$}	{[mm$^2$]}	0.0896812
{$S_l/S_o$}	[]	0.907423
{$\Psi$}	[]	0.454208
{$\eta$}	[]	0.469311
{med($\theta_e$)}	{[$^\circ$]}	67.5963
{$\Upsilon$}	[]	14
{$\Xi$}	[]	6
