Q	U	V
{$V$}	{[mm$^3$]}	0.004219
{$d_v$}	{[mm]}	0.200480
{$S_c$}	{[mm$^2$]}	0.253478
{$S_o$}	{[mm$^2$]}	0.143465
{$S_l/S_o$}	[]	0.766828
{$\Psi$}	[]	0.498139
{$\eta$}	[]	0.544477
{med($\theta_e$)}	{[$^\circ$]}	116.39
{$\Upsilon$}	[]	10
{$\Xi$}	[]	7
