Q	U	V
{$V$}	{[mm$^3$]}	0.00368821
{$d_v$}	{[mm]}	0.191693
{$S_c$}	{[mm$^2$]}	0.195481
{$S_o$}	{[mm$^2$]}	0.115026
{$S_l/S_o$}	[]	0.699451
{$\Psi$}	[]	0.59055
{$\eta$}	[]	0.626833
{med($\theta_e$)}	{[$^\circ$]}	93.42135
{$\Upsilon$}	[]	9
{$\Xi$}	[]	5
