Q	U	V
{$V$}	{[mm$^3$]}	0.00132163
{$d_v$}	{[mm]}	0.136156
{$S_c$}	{[mm$^2$]}	0.128714
{$S_o$}	{[mm$^2$]}	0.0648204
{$S_l/S_o$}	[]	0.985702
{$\Psi$}	[]	0.452479
{$\eta$}	[]	0.488353
{med($\theta_e$)}	{[$^\circ$]}	
{$\Upsilon$}	[]	16
{$\Xi$}	[]	7
