Q	U	V
{$V$}	{[mm$^3$]}	0.00775284
{$d_v$}	{[mm]}	0.245558
{$S_c$}	{[mm$^2$]}	0.38336
{$S_o$}	{[mm$^2$]}	0.224508
{$S_l/S_o$}	[]	0.707556
{$\Psi$}	[]	0.494141
{$\eta$}	[]	0.546718
{med($\theta_e$)}	{[$^\circ$]}	61.8938
{$\Upsilon$}	[]	12
{$\Xi$}	[]	13
