Q	U	V
{$V$}	{[mm$^3$]}	0.00335216
{$d_v$}	{[mm]}	0.185684
{$S_c$}	{[mm$^2$]}	0.178114
{$S_o$}	{[mm$^2$]}	0.105263
{$S_l/S_o$}	[]	0.692086
{$\Psi$}	[]	0.608139
{$\eta$}	[]	0.665551
{med($\theta_e$)}	{[$^\circ$]}	83.10005
{$\Upsilon$}	[]	19
{$\Xi$}	[]	9
