Q	U	V
{$V$}	{[mm$^3$]}	0.0142719
{$d_v$}	{[mm]}	0.300950
{$S_c$}	{[mm$^2$]}	0.402903
{$S_o$}	{[mm$^2$]}	0.319786
{$S_l/S_o$}	[]	0.259914
{$\Psi$}	[]	0.706217
{$\eta$}	[]	0.739265
{med($\theta_e$)}	{[$^\circ$]}	55.9276
{$\Upsilon$}	[]	16
{$\Xi$}	[]	11
