Q	U	V
{$V$}	{[mm$^3$]}	0.00463935
{$d_v$}	{[mm]}	0.206928
{$S_c$}	{[mm$^2$]}	0.224431
{$S_o$}	{[mm$^2$]}	0.139222
{$S_l/S_o$}	[]	0.612037
{$\Psi$}	[]	0.599385
{$\eta$}	[]	0.667764
{med($\theta_e$)}	{[$^\circ$]}	61.7836
{$\Upsilon$}	[]	14
{$\Xi$}	[]	5
