Q	U	V
{$V$}	{[mm$^3$]}	0.00551925
{$d_v$}	{[mm]}	0.219261
{$S_c$}	{[mm$^2$]}	0.316428
{$S_o$}	{[mm$^2$]}	0.176219
{$S_l/S_o$}	[]	0.795652
{$\Psi$}	[]	0.477305
{$\eta$}	[]	0.525131
{med($\theta_e$)}	{[$^\circ$]}	56.03525
{$\Upsilon$}	[]	13
{$\Xi$}	[]	6
