Q	U	V
{$V$}	{[mm$^3$]}	0.00982731
{$d_v$}	{[mm]}	0.265753
{$S_c$}	{[mm$^2$]}	0.514235
{$S_o$}	{[mm$^2$]}	0.313641
{$S_l/S_o$}	[]	0.639566
{$\Psi$}	[]	0.431465
{$\eta$}	[]	0.466333
{med($\theta_e$)}	{[$^\circ$]}	65.1254
{$\Upsilon$}	[]	10
{$\Xi$}	[]	9
