Q	U	V
{$V$}	{[mm$^3$]}	0.00853655
{$d_v$}	{[mm]}	0.253568
{$S_c$}	{[mm$^2$]}	0.31239
{$S_o$}	{[mm$^2$]}	0.206247
{$S_l/S_o$}	[]	0.514640
{$\Psi$}	[]	0.646609
{$\eta$}	[]	0.670310
{med($\theta_e$)}	{[$^\circ$]}	73.43125
{$\Upsilon$}	[]	14
{$\Xi$}	[]	8
