Q	U	V
{$V$}	{[mm$^3$]}	0.00292587
{$d_v$}	{[mm]}	0.177454
{$S_c$}	{[mm$^2$]}	0.20638
{$S_o$}	{[mm$^2$]}	0.110017
{$S_l/S_o$}	[]	0.875892
{$\Psi$}	[]	0.479351
{$\eta$}	[]	0.495077
{med($\theta_e$)}	{[$^\circ$]}	
{$\Upsilon$}	[]	12
{$\Xi$}	[]	7
