Q	U	V
{$V$}	{[mm$^3$]}	0.0180302
{$d_v$}	{[mm]}	0.325337
{$S_c$}	{[mm$^2$]}	0.819309
{$S_o$}	{[mm$^2$]}	0.515709
{$S_l/S_o$}	[]	0.588704
{$\Psi$}	[]	0.405854
{$\eta$}	[]	0.443475
{med($\theta_e$)}	{[$^\circ$]}	79.8381
{$\Upsilon$}	[]	11
{$\Xi$}	[]	13
