Q	U	V
{$V$}	{[mm$^3$]}	0.00316573
{$d_v$}	{[mm]}	0.182176
{$S_c$}	{[mm$^2$]}	0.196716
{$S_o$}	{[mm$^2$]}	0.114625
{$S_l/S_o$}	[]	0.716170
{$\Psi$}	[]	0.530022
{$\eta$}	[]	0.547866
{med($\theta_e$)}	{[$^\circ$]}	
{$\Upsilon$}	[]	15
{$\Xi$}	[]	10
