Q	U	V
{$V$}	{[mm$^3$]}	0.00861255
{$d_v$}	{[mm]}	0.254318
{$S_c$}	{[mm$^2$]}	0.305159
{$S_o$}	{[mm$^2$]}	0.219338
{$S_l/S_o$}	[]	0.391273
{$\Psi$}	[]	0.665854
{$\eta$}	[]	0.674049
{med($\theta_e$)}	{[$^\circ$]}	71.43855
{$\Upsilon$}	[]	13
{$\Xi$}	[]	11
