Q	U	V
{$V$}	{[mm$^3$]}	0.00423325
{$d_v$}	{[mm]}	0.200705
{$S_c$}	{[mm$^2$]}	0.31293
{$S_o$}	{[mm$^2$]}	0.148963
{$S_l/S_o$}	[]	1.100723
{$\Psi$}	[]	0.404408
{$\eta$}	[]	0.438849
{med($\theta_e$)}	{[$^\circ$]}	
{$\Upsilon$}	[]	11
{$\Xi$}	[]	5
