Q	U	V
{$V$}	{[mm$^3$]}	0.00765072
{$d_v$}	{[mm]}	0.244475
{$S_c$}	{[mm$^2$]}	0.26849
{$S_o$}	{[mm$^2$]}	0.1943
{$S_l/S_o$}	[]	0.381832
{$\Psi$}	[]	0.699344
{$\eta$}	[]	0.706995
{med($\theta_e$)}	{[$^\circ$]}	61.0324
{$\Upsilon$}	[]	14
{$\Xi$}	[]	7
