Q	U	V
{$V$}	{[mm$^3$]}	0.00337591
{$d_v$}	{[mm]}	0.186122
{$S_c$}	{[mm$^2$]}	0.191785
{$S_o$}	{[mm$^2$]}	0.116565
{$S_l/S_o$}	[]	0.645305
{$\Psi$}	[]	0.567453
{$\eta$}	[]	0.682201
{med($\theta_e$)}	{[$^\circ$]}	67.3743
{$\Upsilon$}	[]	12
{$\Xi$}	[]	8
