Q	U	V
{$V$}	{[mm$^3$]}	0.00459067
{$d_v$}	{[mm]}	0.206202
{$S_c$}	{[mm$^2$]}	0.252917
{$S_o$}	{[mm$^2$]}	0.151139
{$S_l/S_o$}	[]	0.673407
{$\Psi$}	[]	0.528149
{$\eta$}	[]	0.549042
{med($\theta_e$)}	{[$^\circ$]}	83.2159
{$\Upsilon$}	[]	16
{$\Xi$}	[]	2
