Q	U	V
{$V$}	{[mm$^3$]}	0.0011542
{$d_v$}	{[mm]}	0.130145
{$S_c$}	{[mm$^2$]}	0.0921797
{$S_o$}	{[mm$^2$]}	0.0507399
{$S_l/S_o$}	[]	0.816710
{$\Psi$}	[]	0.577257
{$\eta$}	[]	0.636976
{med($\theta_e$)}	{[$^\circ$]}	58.3937
{$\Upsilon$}	[]	13
{$\Xi$}	[]	4
