Q	U	V
{$V$}	{[mm$^3$]}	0.00180967
{$d_v$}	{[mm]}	0.151194
{$S_c$}	{[mm$^2$]}	0.142921
{$S_o$}	{[mm$^2$]}	0.0716193
{$S_l/S_o$}	[]	0.995565
{$\Psi$}	[]	0.502483
{$\eta$}	[]	0.537796
{med($\theta_e$)}	{[$^\circ$]}	
{$\Upsilon$}	[]	15
{$\Xi$}	[]	6
