Q	U	V
{$V$}	{[mm$^3$]}	0.0065547
{$d_v$}	{[mm]}	0.232194
{$S_c$}	{[mm$^2$]}	0.291632
{$S_o$}	{[mm$^2$]}	0.198237
{$S_l/S_o$}	[]	0.471128
{$\Psi$}	[]	0.580788
{$\eta$}	[]	0.607807
{med($\theta_e$)}	{[$^\circ$]}	57.367
{$\Upsilon$}	[]	16
{$\Xi$}	[]	12
