Q	U	V
{$V$}	{[mm$^3$]}	0.00136081
{$d_v$}	{[mm]}	0.137488
{$S_c$}	{[mm$^2$]}	0.0977691
{$S_o$}	{[mm$^2$]}	0.0556871
{$S_l/S_o$}	[]	0.755687
{$\Psi$}	[]	0.607408
{$\eta$}	[]	0.709938
{med($\theta_e$)}	{[$^\circ$]}	51.21915
{$\Upsilon$}	[]	14
{$\Xi$}	[]	5
