Q	U	V
{$V$}	{[mm$^3$]}	0.00370127
{$d_v$}	{[mm]}	0.191919
{$S_c$}	{[mm$^2$]}	0.199592
{$S_o$}	{[mm$^2$]}	0.105186
{$S_l/S_o$}	[]	0.897515
{$\Psi$}	[]	0.579751
{$\eta$}	[]	0.609899
{med($\theta_e$)}	{[$^\circ$]}	60.14735
{$\Upsilon$}	[]	9
{$\Xi$}	[]	7
