Q	U	V
{$V$}	{[mm$^3$]}	0.00277506
{$d_v$}	{[mm]}	0.174351
{$S_c$}	{[mm$^2$]}	0.205615
{$S_o$}	{[mm$^2$]}	0.113648
{$S_l/S_o$}	[]	0.809227
{$\Psi$}	[]	0.464456
{$\eta$}	[]	0.559230
{med($\theta_e$)}	{[$^\circ$]}	
{$\Upsilon$}	[]	10
{$\Xi$}	[]	9
