Q	U	V
{$V$}	{[mm$^3$]}	0.00415013
{$d_v$}	{[mm]}	0.199383
{$S_c$}	{[mm$^2$]}	0.232647
{$S_o$}	{[mm$^2$]}	0.145293
{$S_l/S_o$}	[]	0.601226
{$\Psi$}	[]	0.536819
{$\eta$}	[]	0.642209
{med($\theta_e$)}	{[$^\circ$]}	70.4795
{$\Upsilon$}	[]	10
{$\Xi$}	[]	9
