Q	U	V
{$V$}	{[mm$^3$]}	0.00139881
{$d_v$}	{[mm]}	0.138757
{$S_c$}	{[mm$^2$]}	0.102022
{$S_o$}	{[mm$^2$]}	0.0555968
{$S_l/S_o$}	[]	0.835034
{$\Psi$}	[]	0.592875
{$\eta$}	[]	0.622989
{med($\theta_e$)}	{[$^\circ$]}	76.7963
{$\Upsilon$}	[]	16
{$\Xi$}	[]	5
