Q	U	V
{$V$}	{[mm$^3$]}	0.0101301
{$d_v$}	{[mm]}	0.268455
{$S_c$}	{[mm$^2$]}	0.51712
{$S_o$}	{[mm$^2$]}	0.277671
{$S_l/S_o$}	[]	0.862348
{$\Psi$}	[]	0.437826
{$\eta$}	[]	0.468682
{med($\theta_e$)}	{[$^\circ$]}	81.88585
{$\Upsilon$}	[]	11
{$\Xi$}	[]	6
