Q	U	V
{$V$}	{[mm$^3$]}	0.00635284
{$d_v$}	{[mm]}	0.229786
{$S_c$}	{[mm$^2$]}	0.306459
{$S_o$}	{[mm$^2$]}	0.187637
{$S_l/S_o$}	[]	0.633255
{$\Psi$}	[]	0.541282
{$\eta$}	[]	0.601963
{med($\theta_e$)}	{[$^\circ$]}	56.0331
{$\Upsilon$}	[]	14
{$\Xi$}	[]	13
