Q	U	V
{$V$}	{[mm$^3$]}	0.00545869
{$d_v$}	{[mm]}	0.218456
{$S_c$}	{[mm$^2$]}	0.332503
{$S_o$}	{[mm$^2$]}	0.187248
{$S_l/S_o$}	[]	0.775736
{$\Psi$}	[]	0.450901
{$\eta$}	[]	0.494552
{med($\theta_e$)}	{[$^\circ$]}	86.84755
{$\Upsilon$}	[]	12
{$\Xi$}	[]	8
