Q	U	V
{$V$}	{[mm$^3$]}	0.00727074
{$d_v$}	{[mm]}	0.240359
{$S_c$}	{[mm$^2$]}	0.321399
{$S_o$}	{[mm$^2$]}	0.189392
{$S_l/S_o$}	[]	0.697004
{$\Psi$}	[]	0.56471
{$\eta$}	[]	0.577024
{med($\theta_e$)}	{[$^\circ$]}	58.4026
{$\Upsilon$}	[]	16
{$\Xi$}	[]	6
