Q	U	V
{$V$}	{[mm$^3$]}	0.00342816
{$d_v$}	{[mm]}	0.187077
{$S_c$}	{[mm$^2$]}	0.239141
{$S_o$}	{[mm$^2$]}	0.126375
{$S_l/S_o$}	[]	0.892313
{$\Psi$}	[]	0.459767
{$\eta$}	[]	0.501976
{med($\theta_e$)}	{[$^\circ$]}	96.7874
{$\Upsilon$}	[]	10
{$\Xi$}	[]	5
