Q	U	V
{$V$}	{[mm$^3$]}	0.0128921
{$d_v$}	{[mm]}	0.290921
{$S_c$}	{[mm$^2$]}	0.415508
{$S_o$}	{[mm$^2$]}	0.302032
{$S_l/S_o$}	[]	0.375709
{$\Psi$}	[]	0.639912
{$\eta$}	[]	0.698841
{med($\theta_e$)}	{[$^\circ$]}	50.9491
{$\Upsilon$}	[]	20
{$\Xi$}	[]	15
