Q	U	V
{$V$}	{[mm$^3$]}	0.00384376
{$d_v$}	{[mm]}	0.194351
{$S_c$}	{[mm$^2$]}	0.27288
{$S_o$}	{[mm$^2$]}	0.131438
{$S_l/S_o$}	[]	1.076112
{$\Psi$}	[]	0.43486
{$\eta$}	[]	0.464999
{med($\theta_e$)}	{[$^\circ$]}	
{$\Upsilon$}	[]	14
{$\Xi$}	[]	9
