Q	U	V
{$V$}	{[mm$^3$]}	0.00298168
{$d_v$}	{[mm]}	0.178575
{$S_c$}	{[mm$^2$]}	0.157013
{$S_o$}	{[mm$^2$]}	0.0940019
{$S_l/S_o$}	[]	0.670317
{$\Psi$}	[]	0.638052
{$\eta$}	[]	0.677581
{med($\theta_e$)}	{[$^\circ$]}	51.2624
{$\Upsilon$}	[]	14
{$\Xi$}	[]	8
