Q	U	V
{$V$}	{[mm$^3$]}	0.0049279
{$d_v$}	{[mm]}	0.211132
{$S_c$}	{[mm$^2$]}	0.298348
{$S_o$}	{[mm$^2$]}	0.144338
{$S_l/S_o$}	[]	1.067009
{$\Psi$}	[]	0.469392
{$\eta$}	[]	0.505534
{med($\theta_e$)}	{[$^\circ$]}	
{$\Upsilon$}	[]	12
{$\Xi$}	[]	7
