Q	U	V
{$V$}	{[mm$^3$]}	0.00269194
{$d_v$}	{[mm]}	0.172593
{$S_c$}	{[mm$^2$]}	0.173238
{$S_o$}	{[mm$^2$]}	0.0980542
{$S_l/S_o$}	[]	0.766758
{$\Psi$}	[]	0.540196
{$\eta$}	[]	0.595401
{med($\theta_e$)}	{[$^\circ$]}	65.22165
{$\Upsilon$}	[]	10
{$\Xi$}	[]	7
