Q	U	V
{$V$}	{[mm$^3$]}	0.00459186
{$d_v$}	{[mm]}	0.206220
{$S_c$}	{[mm$^2$]}	0.289261
{$S_o$}	{[mm$^2$]}	0.16647
{$S_l/S_o$}	[]	0.737616
{$\Psi$}	[]	0.46187
{$\eta$}	[]	0.531361
{med($\theta_e$)}	{[$^\circ$]}	
{$\Upsilon$}	[]	12
{$\Xi$}	[]	12
