Q	U	V
{$V$}	{[mm$^3$]}	0.00389126
{$d_v$}	{[mm]}	0.195148
{$S_c$}	{[mm$^2$]}	0.270628
{$S_o$}	{[mm$^2$]}	0.143802
{$S_l/S_o$}	[]	0.881949
{$\Psi$}	[]	0.442084
{$\eta$}	[]	0.480009
{med($\theta_e$)}	{[$^\circ$]}	87.3828
{$\Upsilon$}	[]	14
{$\Xi$}	[]	9
