Q	U	V
{$V$}	{[mm$^3$]}	0.00184767
{$d_v$}	{[mm]}	0.152245
{$S_c$}	{[mm$^2$]}	0.175489
{$S_o$}	{[mm$^2$]}	0.077086
{$S_l/S_o$}	[]	1.276535
{$\Psi$}	[]	0.414939
{$\eta$}	[]	0.481623
{med($\theta_e$)}	{[$^\circ$]}	
{$\Upsilon$}	[]	11
{$\Xi$}	[]	6
