Q	U	V
{$V$}	{[mm$^3$]}	0.0118567
{$d_v$}	{[mm]}	0.282914
{$S_c$}	{[mm$^2$]}	0.47935
{$S_o$}	{[mm$^2$]}	0.301038
{$S_l/S_o$}	[]	0.592324
{$\Psi$}	[]	0.524575
{$\eta$}	[]	0.562948
{med($\theta_e$)}	{[$^\circ$]}	69.82625
{$\Upsilon$}	[]	12
{$\Xi$}	[]	8
