Q	U	V
{$V$}	{[mm$^3$]}	0.00754147
{$d_v$}	{[mm]}	0.243306
{$S_c$}	{[mm$^2$]}	0.284445
{$S_o$}	{[mm$^2$]}	0.210133
{$S_l/S_o$}	[]	0.353643
{$\Psi$}	[]	0.653817
{$\eta$}	[]	0.701563
{med($\theta_e$)}	{[$^\circ$]}	69.8697
{$\Upsilon$}	[]	14
{$\Xi$}	[]	8
