Q	U	V
{$V$}	{[mm$^3$]}	0.0103569
{$d_v$}	{[mm]}	0.270444
{$S_c$}	{[mm$^2$]}	0.38825
{$S_o$}	{[mm$^2$]}	0.258266
{$S_l/S_o$}	[]	0.503295
{$\Psi$}	[]	0.591824
{$\eta$}	[]	0.620392
{med($\theta_e$)}	{[$^\circ$]}	65.7495
{$\Upsilon$}	[]	14
{$\Xi$}	[]	9
