Q	U	V
{$V$}	{[mm$^3$]}	0.00430212
{$d_v$}	{[mm]}	0.201788
{$S_c$}	{[mm$^2$]}	0.279751
{$S_o$}	{[mm$^2$]}	0.156079
{$S_l/S_o$}	[]	0.792368
{$\Psi$}	[]	0.457265
{$\eta$}	[]	0.480588
{med($\theta_e$)}	{[$^\circ$]}	
{$\Upsilon$}	[]	11
{$\Xi$}	[]	8
