Q	U	V
{$V$}	{[mm$^3$]}	0.00598117
{$d_v$}	{[mm]}	0.225214
{$S_c$}	{[mm$^2$]}	0.255049
{$S_o$}	{[mm$^2$]}	0.168034
{$S_l/S_o$}	[]	0.517842
{$\Psi$}	[]	0.624767
{$\eta$}	[]	0.646080
{med($\theta_e$)}	{[$^\circ$]}	93.44565
{$\Upsilon$}	[]	12
{$\Xi$}	[]	8
