Q	U	V
{$V$}	{[mm$^3$]}	0.00513096
{$d_v$}	{[mm]}	0.213993
{$S_c$}	{[mm$^2$]}	0.231639
{$S_o$}	{[mm$^2$]}	0.153323
{$S_l/S_o$}	[]	0.510791
{$\Psi$}	[]	0.621067
{$\eta$}	[]	0.650573
{med($\theta_e$)}	{[$^\circ$]}	63.4887
{$\Upsilon$}	[]	10
{$\Xi$}	[]	6
