Q	U	V
{$V$}	{[mm$^3$]}	0.00223596
{$d_v$}	{[mm]}	0.162239
{$S_c$}	{[mm$^2$]}	0.152917
{$S_o$}	{[mm$^2$]}	0.0810192
{$S_l/S_o$}	[]	0.887417
{$\Psi$}	[]	0.54076
{$\eta$}	[]	0.596233
{med($\theta_e$)}	{[$^\circ$]}	118.8975
{$\Upsilon$}	[]	14
{$\Xi$}	[]	4
