Q	U	V
{$V$}	{[mm$^3$]}	0.00319186
{$d_v$}	{[mm]}	0.182676
{$S_c$}	{[mm$^2$]}	0.234865
{$S_o$}	{[mm$^2$]}	0.126845
{$S_l/S_o$}	[]	0.851591
{$\Psi$}	[]	0.44637
{$\eta$}	[]	0.528738
{med($\theta_e$)}	{[$^\circ$]}	71.0421
{$\Upsilon$}	[]	13
{$\Xi$}	[]	2
