Q	U	V
{$V$}	{[mm$^3$]}	0.00440543
{$d_v$}	{[mm]}	0.203390
{$S_c$}	{[mm$^2$]}	0.192237
{$S_o$}	{[mm$^2$]}	0.129975
{$S_l/S_o$}	[]	0.479031
{$\Psi$}	[]	0.67604
{$\eta$}	[]	0.702950
{med($\theta_e$)}	{[$^\circ$]}	68.1649
{$\Upsilon$}	[]	14
{$\Xi$}	[]	6
