Q	U	V
{$V$}	{[mm$^3$]}	0.0079927
{$d_v$}	{[mm]}	0.248065
{$S_c$}	{[mm$^2$]}	0.345379
{$S_o$}	{[mm$^2$]}	0.228296
{$S_l/S_o$}	[]	0.512856
{$\Psi$}	[]	0.559737
{$\eta$}	[]	0.588947
{med($\theta_e$)}	{[$^\circ$]}	65.6825
{$\Upsilon$}	[]	14
{$\Xi$}	[]	9
