Q	U	V
{$V$}	{[mm$^3$]}	0.00304818
{$d_v$}	{[mm]}	0.179893
{$S_c$}	{[mm$^2$]}	0.165651
{$S_o$}	{[mm$^2$]}	0.0989603
{$S_l/S_o$}	[]	0.673914
{$\Psi$}	[]	0.613739
{$\eta$}	[]	0.640576
{med($\theta_e$)}	{[$^\circ$]}	77.3556
{$\Upsilon$}	[]	11
{$\Xi$}	[]	10
