Q	U	V
{$V$}	{[mm$^3$]}	0.00750704
{$d_v$}	{[mm]}	0.242935
{$S_c$}	{[mm$^2$]}	0.312534
{$S_o$}	{[mm$^2$]}	0.205624
{$S_l/S_o$}	[]	0.519930
{$\Psi$}	[]	0.593243
{$\eta$}	[]	0.639998
{med($\theta_e$)}	{[$^\circ$]}	58.9917
{$\Upsilon$}	[]	14
{$\Xi$}	[]	10
