Q	U	V
{$V$}	{[mm$^3$]}	0.0066022
{$d_v$}	{[mm]}	0.232754
{$S_c$}	{[mm$^2$]}	0.424544
{$S_o$}	{[mm$^2$]}	0.222376
{$S_l/S_o$}	[]	0.909127
{$\Psi$}	[]	0.400886
{$\eta$}	[]	0.436122
{med($\theta_e$)}	{[$^\circ$]}	88.79055
{$\Upsilon$}	[]	11
{$\Xi$}	[]	8
