Q	U	V
{$V$}	{[mm$^3$]}	0.00330466
{$d_v$}	{[mm]}	0.184803
{$S_c$}	{[mm$^2$]}	0.22531
{$S_o$}	{[mm$^2$]}	0.126281
{$S_l/S_o$}	[]	0.784196
{$\Psi$}	[]	0.476199
{$\eta$}	[]	0.522449
{med($\theta_e$)}	{[$^\circ$]}	70.3133
{$\Upsilon$}	[]	13
{$\Xi$}	[]	6
