Q	U	V
{$V$}	{[mm$^3$]}	0.00219915
{$d_v$}	{[mm]}	0.161344
{$S_c$}	{[mm$^2$]}	0.170084
{$S_o$}	{[mm$^2$]}	0.081332
{$S_l/S_o$}	[]	1.091231
{$\Psi$}	[]	0.480829
{$\eta$}	[]	0.506353
{med($\theta_e$)}	{[$^\circ$]}	
{$\Upsilon$}	[]	11
{$\Xi$}	[]	6
