Q	U	V
{$V$}	{[mm$^3$]}	0.0011542
{$d_v$}	{[mm]}	0.130145
{$S_c$}	{[mm$^2$]}	0.0829094
{$S_o$}	{[mm$^2$]}	0.0498282
{$S_l/S_o$}	[]	0.663905
{$\Psi$}	[]	0.641802
{$\eta$}	[]	0.703671
{med($\theta_e$)}	{[$^\circ$]}	39.0664
{$\Upsilon$}	[]	13
{$\Xi$}	[]	1
