Q	U	V
{$V$}	{[mm$^3$]}	0.00317048
{$d_v$}	{[mm]}	0.182267
{$S_c$}	{[mm$^2$]}	0.184502
{$S_o$}	{[mm$^2$]}	0.104925
{$S_l/S_o$}	[]	0.758418
{$\Psi$}	[]	0.565674
{$\eta$}	[]	0.662128
{med($\theta_e$)}	{[$^\circ$]}	64.76605
{$\Upsilon$}	[]	12
{$\Xi$}	[]	7
