Q	U	V
{$V$}	{[mm$^3$]}	0.00235233
{$d_v$}	{[mm]}	0.165006
{$S_c$}	{[mm$^2$]}	0.111433
{$S_o$}	{[mm$^2$]}	0.0862058
{$S_l/S_o$}	[]	0.292639
{$\Psi$}	[]	0.767601
{$\eta$}	[]	0.791720
{med($\theta_e$)}	{[$^\circ$]}	61.0175
{$\Upsilon$}	[]	12
{$\Xi$}	[]	8
