Q	U	V
{$V$}	{[mm$^3$]}	0.0016648
{$d_v$}	{[mm]}	0.147046
{$S_c$}	{[mm$^2$]}	0.161209
{$S_o$}	{[mm$^2$]}	0.0731989
{$S_l/S_o$}	[]	1.202342
{$\Psi$}	[]	0.421376
{$\eta$}	[]	0.464705
{med($\theta_e$)}	{[$^\circ$]}	
{$\Upsilon$}	[]	16
{$\Xi$}	[]	3
