Q	U	V
{$V$}	{[mm$^3$]}	0.00298405
{$d_v$}	{[mm]}	0.178622
{$S_c$}	{[mm$^2$]}	0.142902
{$S_o$}	{[mm$^2$]}	0.0661318
{$S_l/S_o$}	[]	1.160867
{$\Psi$}	[]	0.701428
{$\eta$}	[]	0.712978
{med($\theta_e$)}	{[$^\circ$]}	49.9576
{$\Upsilon$}	[]	14
{$\Xi$}	[]	8
