Q	U	V
{$V$}	{[mm$^3$]}	0.00286531
{$d_v$}	{[mm]}	0.176221
{$S_c$}	{[mm$^2$]}	0.149578
{$S_o$}	{[mm$^2$]}	0.0919153
{$S_l/S_o$}	[]	0.627346
{$\Psi$}	[]	0.652225
{$\eta$}	[]	0.663277
{med($\theta_e$)}	{[$^\circ$]}	60.029
{$\Upsilon$}	[]	12
{$\Xi$}	[]	6
