Q	U	V
{$V$}	{[mm$^3$]}	0.00523901
{$d_v$}	{[mm]}	0.215485
{$S_c$}	{[mm$^2$]}	0.335318
{$S_o$}	{[mm$^2$]}	0.188808
{$S_l/S_o$}	[]	0.775973
{$\Psi$}	[]	0.435038
{$\eta$}	[]	0.480943
{med($\theta_e$)}	{[$^\circ$]}	
{$\Upsilon$}	[]	15
{$\Xi$}	[]	6
