Q	U	V
{$V$}	{[mm$^3$]}	0.00922765
{$d_v$}	{[mm]}	0.260234
{$S_c$}	{[mm$^2$]}	0.446593
{$S_o$}	{[mm$^2$]}	0.255516
{$S_l/S_o$}	[]	0.747808
{$\Psi$}	[]	0.476394
{$\eta$}	[]	0.517964
{med($\theta_e$)}	{[$^\circ$]}	80.28675
{$\Upsilon$}	[]	13
{$\Xi$}	[]	9
