Q	U	V
{$V$}	{[mm$^3$]}	0.00536726
{$d_v$}	{[mm]}	0.217229
{$S_c$}	{[mm$^2$]}	0.25709
{$S_o$}	{[mm$^2$]}	0.18277
{$S_l/S_o$}	[]	0.406631
{$\Psi$}	[]	0.576635
{$\eta$}	[]	0.700840
{med($\theta_e$)}	{[$^\circ$]}	65.86585
{$\Upsilon$}	[]	10
{$\Xi$}	[]	7
