Q	U	V
{$V$}	{[mm$^3$]}	0.00166361
{$d_v$}	{[mm]}	0.147011
{$S_c$}	{[mm$^2$]}	0.139709
{$S_o$}	{[mm$^2$]}	0.0729028
{$S_l/S_o$}	[]	0.916374
{$\Psi$}	[]	0.48599
{$\eta$}	[]	0.605116
{med($\theta_e$)}	{[$^\circ$]}	
{$\Upsilon$}	[]	14
{$\Xi$}	[]	4
