Q	U	V
{$V$}	{[mm$^3$]}	0.00692281
{$d_v$}	{[mm]}	0.236462
{$S_c$}	{[mm$^2$]}	0.283583
{$S_o$}	{[mm$^2$]}	0.181532
{$S_l/S_o$}	[]	0.562165
{$\Psi$}	[]	0.61943
{$\eta$}	[]	0.647028
{med($\theta_e$)}	{[$^\circ$]}	64.1201
{$\Upsilon$}	[]	16
{$\Xi$}	[]	10
