Q	U	V
{$V$}	{[mm$^3$]}	0.00489822
{$d_v$}	{[mm]}	0.210707
{$S_c$}	{[mm$^2$]}	0.314358
{$S_o$}	{[mm$^2$]}	0.161895
{$S_l/S_o$}	[]	0.941740
{$\Psi$}	[]	0.443696
{$\eta$}	[]	0.481168
{med($\theta_e$)}	{[$^\circ$]}	
{$\Upsilon$}	[]	13
{$\Xi$}	[]	1
