Q	U	V
{$V$}	{[mm$^3$]}	0.0132543
{$d_v$}	{[mm]}	0.293620
{$S_c$}	{[mm$^2$]}	0.509152
{$S_o$}	{[mm$^2$]}	0.34319
{$S_l/S_o$}	[]	0.483586
{$\Psi$}	[]	0.531955
{$\eta$}	[]	0.557643
{med($\theta_e$)}	{[$^\circ$]}	72.30755
{$\Upsilon$}	[]	10
{$\Xi$}	[]	15
