Q	U	V
{$V$}	{[mm$^3$]}	0.00407294
{$d_v$}	{[mm]}	0.198139
{$S_c$}	{[mm$^2$]}	0.207049
{$S_o$}	{[mm$^2$]}	0.128384
{$S_l/S_o$}	[]	0.612732
{$\Psi$}	[]	0.595685
{$\eta$}	[]	0.668987
{med($\theta_e$)}	{[$^\circ$]}	75.5738
{$\Upsilon$}	[]	11
{$\Xi$}	[]	7
