Q	U	V
{$V$}	{[mm$^3$]}	0.00158405
{$d_v$}	{[mm]}	0.144629
{$S_c$}	{[mm$^2$]}	0.132173
{$S_o$}	{[mm$^2$]}	0.0683204
{$S_l/S_o$}	[]	0.934605
{$\Psi$}	[]	0.497188
{$\eta$}	[]	0.578422
{med($\theta_e$)}	{[$^\circ$]}	91.50605
{$\Upsilon$}	[]	16
{$\Xi$}	[]	5
