Q	U	V
{$V$}	{[mm$^3$]}	0.00456692
{$d_v$}	{[mm]}	0.205846
{$S_c$}	{[mm$^2$]}	0.228061
{$S_o$}	{[mm$^2$]}	0.153158
{$S_l/S_o$}	[]	0.489057
{$\Psi$}	[]	0.58369
{$\eta$}	[]	0.596165
{med($\theta_e$)}	{[$^\circ$]}	69.7602
{$\Upsilon$}	[]	13
{$\Xi$}	[]	7
