Q	U	V
{$V$}	{[mm$^3$]}	0.00295793
{$d_v$}	{[mm]}	0.178100
{$S_c$}	{[mm$^2$]}	0.158452
{$S_o$}	{[mm$^2$]}	0.0979736
{$S_l/S_o$}	[]	0.617293
{$\Psi$}	[]	0.628895
{$\eta$}	[]	0.689553
{med($\theta_e$)}	{[$^\circ$]}	79.3139
{$\Upsilon$}	[]	9
{$\Xi$}	[]	7
