Q	U	V
{$V$}	{[mm$^3$]}	0.0025827
{$d_v$}	{[mm]}	0.170226
{$S_c$}	{[mm$^2$]}	0.161469
{$S_o$}	{[mm$^2$]}	0.0858147
{$S_l/S_o$}	[]	0.881601
{$\Psi$}	[]	0.563782
{$\eta$}	[]	0.597472
{med($\theta_e$)}	{[$^\circ$]}	49.8709
{$\Upsilon$}	[]	13
{$\Xi$}	[]	6
