Q	U	V
{$V$}	{[mm$^3$]}	0.0066497
{$d_v$}	{[mm]}	0.233311
{$S_c$}	{[mm$^2$]}	0.347303
{$S_o$}	{[mm$^2$]}	0.1973
{$S_l/S_o$}	[]	0.760279
{$\Psi$}	[]	0.492391
{$\eta$}	[]	0.520148
{med($\theta_e$)}	{[$^\circ$]}	
{$\Upsilon$}	[]	14
{$\Xi$}	[]	9
