Q	U	V
{$V$}	{[mm$^3$]}	0.0160483
{$d_v$}	{[mm]}	0.312951
{$S_c$}	{[mm$^2$]}	0.608938
{$S_o$}	{[mm$^2$]}	0.404653
{$S_l/S_o$}	[]	0.504840
{$\Psi$}	[]	0.505278
{$\eta$}	[]	0.524255
{med($\theta_e$)}	{[$^\circ$]}	62.09425
{$\Upsilon$}	[]	16
{$\Xi$}	[]	6
