Q	U	V
{$V$}	{[mm$^3$]}	0.00701068
{$d_v$}	{[mm]}	0.237458
{$S_c$}	{[mm$^2$]}	0.422829
{$S_o$}	{[mm$^2$]}	0.217421
{$S_l/S_o$}	[]	0.944748
{$\Psi$}	[]	0.418947
{$\eta$}	[]	0.442791
{med($\theta_e$)}	{[$^\circ$]}	
{$\Upsilon$}	[]	12
{$\Xi$}	[]	5
