Q	U	V
{$V$}	{[mm$^3$]}	0.00715912
{$d_v$}	{[mm]}	0.239122
{$S_c$}	{[mm$^2$]}	0.294425
{$S_o$}	{[mm$^2$]}	0.196001
{$S_l/S_o$}	[]	0.502161
{$\Psi$}	[]	0.610121
{$\eta$}	[]	0.631556
{med($\theta_e$)}	{[$^\circ$]}	66.66445
{$\Upsilon$}	[]	12
{$\Xi$}	[]	6
