Q	U	V
{$V$}	{[mm$^3$]}	0.0104863
{$d_v$}	{[mm]}	0.271565
{$S_c$}	{[mm$^2$]}	0.334336
{$S_o$}	{[mm$^2$]}	0.239898
{$S_l/S_o$}	[]	0.393659
{$\Psi$}	[]	0.692972
{$\eta$}	[]	0.708667
{med($\theta_e$)}	{[$^\circ$]}	58.01085
{$\Upsilon$}	[]	12
{$\Xi$}	[]	10
