Q	U	V
{$V$}	{[mm$^3$]}	0.00209109
{$d_v$}	{[mm]}	0.158657
{$S_c$}	{[mm$^2$]}	0.160474
{$S_o$}	{[mm$^2$]}	0.0874605
{$S_l/S_o$}	[]	0.834817
{$\Psi$}	[]	0.492789
{$\eta$}	[]	0.598528
{med($\theta_e$)}	{[$^\circ$]}	71.413
{$\Upsilon$}	[]	12
{$\Xi$}	[]	11
