Q	U	V
{$V$}	{[mm$^3$]}	0.00395657
{$d_v$}	{[mm]}	0.196234
{$S_c$}	{[mm$^2$]}	0.267273
{$S_o$}	{[mm$^2$]}	0.14831
{$S_l/S_o$}	[]	0.802124
{$\Psi$}	[]	0.452628
{$\eta$}	[]	0.538195
{med($\theta_e$)}	{[$^\circ$]}	81.9681
{$\Upsilon$}	[]	10
{$\Xi$}	[]	4
