Q	U	V
{$V$}	{[mm$^3$]}	0.00319067
{$d_v$}	{[mm]}	0.182653
{$S_c$}	{[mm$^2$]}	0.243275
{$S_o$}	{[mm$^2$]}	0.140403
{$S_l/S_o$}	[]	0.732691
{$\Psi$}	[]	0.430832
{$\eta$}	[]	0.470554
{med($\theta_e$)}	{[$^\circ$]}	76.6014
{$\Upsilon$}	[]	12
{$\Xi$}	[]	11
