Q	U	V
{$V$}	{[mm$^3$]}	0.0151079
{$d_v$}	{[mm]}	0.306715
{$S_c$}	{[mm$^2$]}	0.535869
{$S_o$}	{[mm$^2$]}	0.345819
{$S_l/S_o$}	[]	0.549565
{$\Psi$}	[]	0.55152
{$\eta$}	[]	0.605730
{med($\theta_e$)}	{[$^\circ$]}	65.6998
{$\Upsilon$}	[]	16
{$\Xi$}	[]	5
