Q	U	V
{$V$}	{[mm$^3$]}	0.00784308
{$d_v$}	{[mm]}	0.246507
{$S_c$}	{[mm$^2$]}	0.361735
{$S_o$}	{[mm$^2$]}	0.191458
{$S_l/S_o$}	[]	0.889370
{$\Psi$}	[]	0.527738
{$\eta$}	[]	0.565837
{med($\theta_e$)}	{[$^\circ$]}	70.1258
{$\Upsilon$}	[]	10
{$\Xi$}	[]	4
