Q	U	V
{$V$}	{[mm$^3$]}	0.00386514
{$d_v$}	{[mm]}	0.194710
{$S_c$}	{[mm$^2$]}	0.266985
{$S_o$}	{[mm$^2$]}	0.144514
{$S_l/S_o$}	[]	0.847468
{$\Psi$}	[]	0.446109
{$\eta$}	[]	0.505354
{med($\theta_e$)}	{[$^\circ$]}	87.0888
{$\Upsilon$}	[]	10
{$\Xi$}	[]	11
