Q	U	V
{$V$}	{[mm$^3$]}	0.00218253
{$d_v$}	{[mm]}	0.160936
{$S_c$}	{[mm$^2$]}	0.148374
{$S_o$}	{[mm$^2$]}	0.0838408
{$S_l/S_o$}	[]	0.769711
{$\Psi$}	[]	0.548403
{$\eta$}	[]	0.611586
{med($\theta_e$)}	{[$^\circ$]}	50.3702
{$\Upsilon$}	[]	13
{$\Xi$}	[]	11
