Q	U	V
{$V$}	{[mm$^3$]}	0.00371315
{$d_v$}	{[mm]}	0.192124
{$S_c$}	{[mm$^2$]}	0.210889
{$S_o$}	{[mm$^2$]}	0.119595
{$S_l/S_o$}	[]	0.763360
{$\Psi$}	[]	0.549868
{$\eta$}	[]	0.632299
{med($\theta_e$)}	{[$^\circ$]}	78.2122
{$\Upsilon$}	[]	10
{$\Xi$}	[]	6
