Q	U	V
{$V$}	{[mm$^3$]}	0.00609398
{$d_v$}	{[mm]}	0.226621
{$S_c$}	{[mm$^2$]}	0.253795
{$S_o$}	{[mm$^2$]}	0.166704
{$S_l/S_o$}	[]	0.522429
{$\Psi$}	[]	0.635724
{$\eta$}	[]	0.662346
{med($\theta_e$)}	{[$^\circ$]}	67.9121
{$\Upsilon$}	[]	14
{$\Xi$}	[]	8
