Q	U	V
{$V$}	{[mm$^3$]}	0.00706056
{$d_v$}	{[mm]}	0.238020
{$S_c$}	{[mm$^2$]}	0.348599
{$S_o$}	{[mm$^2$]}	0.224911
{$S_l/S_o$}	[]	0.549942
{$\Psi$}	[]	0.510565
{$\eta$}	[]	0.524494
{med($\theta_e$)}	{[$^\circ$]}	76.1365
{$\Upsilon$}	[]	14
{$\Xi$}	[]	9
