Q	U	V
{$V$}	{[mm$^3$]}	0.00593961
{$d_v$}	{[mm]}	0.224691
{$S_c$}	{[mm$^2$]}	0.275539
{$S_o$}	{[mm$^2$]}	0.166957
{$S_l/S_o$}	[]	0.650359
{$\Psi$}	[]	0.575625
{$\eta$}	[]	0.591720
{med($\theta_e$)}	{[$^\circ$]}	80.67325
{$\Upsilon$}	[]	15
{$\Xi$}	[]	11
