Q	U	V
{$V$}	{[mm$^3$]}	0.00374046
{$d_v$}	{[mm]}	0.192594
{$S_c$}	{[mm$^2$]}	0.253864
{$S_o$}	{[mm$^2$]}	0.13495
{$S_l/S_o$}	[]	0.881171
{$\Psi$}	[]	0.459021
{$\eta$}	[]	0.500106
{med($\theta_e$)}	{[$^\circ$]}	
{$\Upsilon$}	[]	16
{$\Xi$}	[]	8
