Q	U	V
{$V$}	{[mm$^3$]}	0.00335454
{$d_v$}	{[mm]}	0.185728
{$S_c$}	{[mm$^2$]}	0.262312
{$S_o$}	{[mm$^2$]}	0.144343
{$S_l/S_o$}	[]	0.817282
{$\Psi$}	[]	0.413131
{$\eta$}	[]	0.451550
{med($\theta_e$)}	{[$^\circ$]}	
{$\Upsilon$}	[]	11
{$\Xi$}	[]	4
