Q	U	V
{$V$}	{[mm$^3$]}	0.00206141
{$d_v$}	{[mm]}	0.157902
{$S_c$}	{[mm$^2$]}	0.140256
{$S_o$}	{[mm$^2$]}	0.0785675
{$S_l/S_o$}	[]	0.785166
{$\Psi$}	[]	0.558477
{$\eta$}	[]	0.642567
{med($\theta_e$)}	{[$^\circ$]}	52.171
{$\Upsilon$}	[]	14
{$\Xi$}	[]	7
