Q	U	V
{$V$}	{[mm$^3$]}	0.0052307
{$d_v$}	{[mm]}	0.215371
{$S_c$}	{[mm$^2$]}	0.265678
{$S_o$}	{[mm$^2$]}	0.122944
{$S_l/S_o$}	[]	1.160968
{$\Psi$}	[]	0.54849
{$\eta$}	[]	0.571880
{med($\theta_e$)}	{[$^\circ$]}	
{$\Upsilon$}	[]	12
{$\Xi$}	[]	4
