Q	U	V
{$V$}	{[mm$^3$]}	0.0072363
{$d_v$}	{[mm]}	0.239979
{$S_c$}	{[mm$^2$]}	0.356412
{$S_o$}	{[mm$^2$]}	0.182058
{$S_l/S_o$}	[]	0.957684
{$\Psi$}	[]	0.507625
{$\eta$}	[]	0.542976
{med($\theta_e$)}	{[$^\circ$]}	63.82235
{$\Upsilon$}	[]	8
{$\Xi$}	[]	11
