Q	U	V
{$V$}	{[mm$^3$]}	0.00496828
{$d_v$}	{[mm]}	0.211707
{$S_c$}	{[mm$^2$]}	0.278415
{$S_o$}	{[mm$^2$]}	0.16402
{$S_l/S_o$}	[]	0.697445
{$\Psi$}	[]	0.505742
{$\eta$}	[]	0.548354
{med($\theta_e$)}	{[$^\circ$]}	98.9115
{$\Upsilon$}	[]	16
{$\Xi$}	[]	7
