Q	U	V
{$V$}	{[mm$^3$]}	0.0036134
{$d_v$}	{[mm]}	0.190388
{$S_c$}	{[mm$^2$]}	0.24032
{$S_o$}	{[mm$^2$]}	0.120162
{$S_l/S_o$}	[]	0.999967
{$\Psi$}	[]	0.473847
{$\eta$}	[]	0.488590
{med($\theta_e$)}	{[$^\circ$]}	
{$\Upsilon$}	[]	13
{$\Xi$}	[]	5
