Q	U	V
{$V$}	{[mm$^3$]}	0.00788583
{$d_v$}	{[mm]}	0.246954
{$S_c$}	{[mm$^2$]}	0.320311
{$S_o$}	{[mm$^2$]}	0.18922
{$S_l/S_o$}	[]	0.692797
{$\Psi$}	[]	0.598151
{$\eta$}	[]	0.609889
{med($\theta_e$)}	{[$^\circ$]}	
{$\Upsilon$}	[]	12
{$\Xi$}	[]	9
