Q	U	V
{$V$}	{[mm$^3$]}	0.00411331
{$d_v$}	{[mm]}	0.198791
{$S_c$}	{[mm$^2$]}	0.211236
{$S_o$}	{[mm$^2$]}	0.131103
{$S_l/S_o$}	[]	0.611222
{$\Psi$}	[]	0.587729
{$\eta$}	[]	0.680249
{med($\theta_e$)}	{[$^\circ$]}	60.2781
{$\Upsilon$}	[]	11
{$\Xi$}	[]	6
