Q	U	V
{$V$}	{[mm$^3$]}	0.0100802
{$d_v$}	{[mm]}	0.268014
{$S_c$}	{[mm$^2$]}	0.462152
{$S_o$}	{[mm$^2$]}	0.290774
{$S_l/S_o$}	[]	0.589386
{$\Psi$}	[]	0.488291
{$\eta$}	[]	0.542940
{med($\theta_e$)}	{[$^\circ$]}	71.644
{$\Upsilon$}	[]	10
{$\Xi$}	[]	14
