Q	U	V
{$V$}	{[mm$^3$]}	0.00474741
{$d_v$}	{[mm]}	0.208522
{$S_c$}	{[mm$^2$]}	0.215294
{$S_o$}	{[mm$^2$]}	0.137335
{$S_l/S_o$}	[]	0.567656
{$\Psi$}	[]	0.634488
{$\eta$}	[]	0.660464
{med($\theta_e$)}	{[$^\circ$]}	61.4942
{$\Upsilon$}	[]	12
{$\Xi$}	[]	9
