Q	U	V
{$V$}	{[mm$^3$]}	0.000904834
{$d_v$}	{[mm]}	0.120002
{$S_c$}	{[mm$^2$]}	0.0783667
{$S_o$}	{[mm$^2$]}	0.0385744
{$S_l/S_o$}	[]	1.031573
{$\Psi$}	[]	0.577296
{$\eta$}	[]	0.662593
{med($\theta_e$)}	{[$^\circ$]}	56.0075
{$\Upsilon$}	[]	22
{$\Xi$}	[]	1
