Q	U	V
{$V$}	{[mm$^3$]}	0.0081067
{$d_v$}	{[mm]}	0.249239
{$S_c$}	{[mm$^2$]}	0.353704
{$S_o$}	{[mm$^2$]}	0.227555
{$S_l/S_o$}	[]	0.554367
{$\Psi$}	[]	0.551747
{$\eta$}	[]	0.614457
{med($\theta_e$)}	{[$^\circ$]}	68.54895
{$\Upsilon$}	[]	13
{$\Xi$}	[]	7
