Q	U	V
{$V$}	{[mm$^3$]}	0.0193969
{$d_v$}	{[mm]}	0.333358
{$S_c$}	{[mm$^2$]}	0.671461
{$S_o$}	{[mm$^2$]}	0.48159
{$S_l/S_o$}	[]	0.394259
{$\Psi$}	[]	0.519938
{$\eta$}	[]	0.547649
{med($\theta_e$)}	{[$^\circ$]}	66.5218
{$\Upsilon$}	[]	12
{$\Xi$}	[]	18
