Q	U	V
{$V$}	{[mm$^3$]}	0.00307549
{$d_v$}	{[mm]}	0.180429
{$S_c$}	{[mm$^2$]}	0.178391
{$S_o$}	{[mm$^2$]}	0.101699
{$S_l/S_o$}	[]	0.754108
{$\Psi$}	[]	0.573307
{$\eta$}	[]	0.629135
{med($\theta_e$)}	{[$^\circ$]}	102.815
{$\Upsilon$}	[]	9
{$\Xi$}	[]	6
