Q	U	V
{$V$}	{[mm$^3$]}	0.0175849
{$d_v$}	{[mm]}	0.322637
{$S_c$}	{[mm$^2$]}	0.505549
{$S_o$}	{[mm$^2$]}	0.376951
{$S_l/S_o$}	[]	0.341153
{$\Psi$}	[]	0.646866
{$\eta$}	[]	0.671573
{med($\theta_e$)}	{[$^\circ$]}	74.63755
{$\Upsilon$}	[]	10
{$\Xi$}	[]	13
