Q	U	V
{$V$}	{[mm$^3$]}	0.00913978
{$d_v$}	{[mm]}	0.259405
{$S_c$}	{[mm$^2$]}	0.458559
{$S_o$}	{[mm$^2$]}	0.259936
{$S_l/S_o$}	[]	0.764123
{$\Psi$}	[]	0.461013
{$\eta$}	[]	0.499504
{med($\theta_e$)}	{[$^\circ$]}	83.5832
{$\Upsilon$}	[]	13
{$\Xi$}	[]	7
