Q	U	V
{$V$}	{[mm$^3$]}	0.00262426
{$d_v$}	{[mm]}	0.171134
{$S_c$}	{[mm$^2$]}	0.175772
{$S_o$}	{[mm$^2$]}	0.101655
{$S_l/S_o$}	[]	0.729103
{$\Psi$}	[]	0.523447
{$\eta$}	[]	0.572093
{med($\theta_e$)}	{[$^\circ$]}	68.6381
{$\Upsilon$}	[]	10
{$\Xi$}	[]	7
