Q	U	V
{$V$}	{[mm$^3$]}	0.00527464
{$d_v$}	{[mm]}	0.215972
{$S_c$}	{[mm$^2$]}	0.362889
{$S_o$}	{[mm$^2$]}	0.189392
{$S_l/S_o$}	[]	0.916074
{$\Psi$}	[]	0.403805
{$\eta$}	[]	0.450468
{med($\theta_e$)}	{[$^\circ$]}	49.0452
{$\Upsilon$}	[]	15
{$\Xi$}	[]	12
