Q	U	V
{$V$}	{[mm$^3$]}	0.00423443
{$d_v$}	{[mm]}	0.200724
{$S_c$}	{[mm$^2$]}	0.18992
{$S_o$}	{[mm$^2$]}	0.111907
{$S_l/S_o$}	[]	0.697124
{$\Psi$}	[]	0.666464
{$\eta$}	[]	0.693266
{med($\theta_e$)}	{[$^\circ$]}	57.4849
{$\Upsilon$}	[]	15
{$\Xi$}	[]	7
