Q	U	V
{$V$}	{[mm$^3$]}	0.00174555
{$d_v$}	{[mm]}	0.149386
{$S_c$}	{[mm$^2$]}	0.144002
{$S_o$}	{[mm$^2$]}	0.0732119
{$S_l/S_o$}	[]	0.966921
{$\Psi$}	[]	0.48686
{$\eta$}	[]	0.503781
{med($\theta_e$)}	{[$^\circ$]}	69.74155
{$\Upsilon$}	[]	15
{$\Xi$}	[]	6
