Q	U	V
{$V$}	{[mm$^3$]}	0.0122248
{$d_v$}	{[mm]}	0.285812
{$S_c$}	{[mm$^2$]}	0.397293
{$S_o$}	{[mm$^2$]}	0.286094
{$S_l/S_o$}	[]	0.388680
{$\Psi$}	[]	0.645953
{$\eta$}	[]	0.722177
{med($\theta_e$)}	{[$^\circ$]}	70.45855
{$\Upsilon$}	[]	12
{$\Xi$}	[]	11
