Q	U	V
{$V$}	{[mm$^3$]}	0.00897591
{$d_v$}	{[mm]}	0.257846
{$S_c$}	{[mm$^2$]}	0.399644
{$S_o$}	{[mm$^2$]}	0.234266
{$S_l/S_o$}	[]	0.705941
{$\Psi$}	[]	0.522633
{$\eta$}	[]	0.558369
{med($\theta_e$)}	{[$^\circ$]}	87.61065
{$\Upsilon$}	[]	10
{$\Xi$}	[]	12
