Q	U	V
{$V$}	{[mm$^3$]}	0.00879898
{$d_v$}	{[mm]}	0.256140
{$S_c$}	{[mm$^2$]}	0.373932
{$S_o$}	{[mm$^2$]}	0.223281
{$S_l/S_o$}	[]	0.674715
{$\Psi$}	[]	0.551205
{$\eta$}	[]	0.564191
{med($\theta_e$)}	{[$^\circ$]}	97.5026
{$\Upsilon$}	[]	12
{$\Xi$}	[]	10
