Q	U	V
{$V$}	{[mm$^3$]}	0.0156422
{$d_v$}	{[mm]}	0.310289
{$S_c$}	{[mm$^2$]}	0.51265
{$S_o$}	{[mm$^2$]}	0.357496
{$S_l/S_o$}	[]	0.434002
{$\Psi$}	[]	0.590013
{$\eta$}	[]	0.641902
{med($\theta_e$)}	{[$^\circ$]}	68.5507
{$\Upsilon$}	[]	11
{$\Xi$}	[]	8
