Q	U	V
{$V$}	{[mm$^3$]}	0.00166599
{$d_v$}	{[mm]}	0.147081
{$S_c$}	{[mm$^2$]}	0.134605
{$S_o$}	{[mm$^2$]}	0.0768671
{$S_l/S_o$}	[]	0.751139
{$\Psi$}	[]	0.504899
{$\eta$}	[]	0.545892
{med($\theta_e$)}	{[$^\circ$]}	78.963
{$\Upsilon$}	[]	16
{$\Xi$}	[]	3
