Q	U	V
{$V$}	{[mm$^3$]}	0.00402188
{$d_v$}	{[mm]}	0.197307
{$S_c$}	{[mm$^2$]}	0.208371
{$S_o$}	{[mm$^2$]}	0.125819
{$S_l/S_o$}	[]	0.656117
{$\Psi$}	[]	0.586948
{$\eta$}	[]	0.644907
{med($\theta_e$)}	{[$^\circ$]}	74.7118
{$\Upsilon$}	[]	10
{$\Xi$}	[]	8
