Q	U	V
{$V$}	{[mm$^3$]}	0.00565343
{$d_v$}	{[mm]}	0.221023
{$S_c$}	{[mm$^2$]}	0.308121
{$S_o$}	{[mm$^2$]}	0.184182
{$S_l/S_o$}	[]	0.672916
{$\Psi$}	[]	0.498086
{$\eta$}	[]	0.533164
{med($\theta_e$)}	{[$^\circ$]}	74.4647
{$\Upsilon$}	[]	6
{$\Xi$}	[]	5
