Q	U	V
{$V$}	{[mm$^3$]}	0.0122414
{$d_v$}	{[mm]}	0.285942
{$S_c$}	{[mm$^2$]}	0.509251
{$S_o$}	{[mm$^2$]}	0.331295
{$S_l/S_o$}	[]	0.537153
{$\Psi$}	[]	0.504398
{$\eta$}	[]	0.533933
{med($\theta_e$)}	{[$^\circ$]}	62.9317
{$\Upsilon$}	[]	12
{$\Xi$}	[]	11
