Q	U	V
{$V$}	{[mm$^3$]}	0.0138539
{$d_v$}	{[mm]}	0.297983
{$S_c$}	{[mm$^2$]}	0.554034
{$S_o$}	{[mm$^2$]}	0.343874
{$S_l/S_o$}	[]	0.611154
{$\Psi$}	[]	0.503496
{$\eta$}	[]	0.543526
{med($\theta_e$)}	{[$^\circ$]}	76.21145
{$\Upsilon$}	[]	12
{$\Xi$}	[]	13
