Q	U	V
{$V$}	{[mm$^3$]}	0.00599779
{$d_v$}	{[mm]}	0.225423
{$S_c$}	{[mm$^2$]}	0.304724
{$S_o$}	{[mm$^2$]}	0.174738
{$S_l/S_o$}	[]	0.743891
{$\Psi$}	[]	0.523888
{$\eta$}	[]	0.574188
{med($\theta_e$)}	{[$^\circ$]}	84.161
{$\Upsilon$}	[]	12
{$\Xi$}	[]	5
