Q	U	V
{$V$}	{[mm$^3$]}	0.00847599
{$d_v$}	{[mm]}	0.252967
{$S_c$}	{[mm$^2$]}	0.455063
{$S_o$}	{[mm$^2$]}	0.261192
{$S_l/S_o$}	[]	0.742255
{$\Psi$}	[]	0.44178
{$\eta$}	[]	0.475095
{med($\theta_e$)}	{[$^\circ$]}	67.1946
{$\Upsilon$}	[]	10
{$\Xi$}	[]	11
