Q	U	V
{$V$}	{[mm$^3$]}	0.00381645
{$d_v$}	{[mm]}	0.193889
{$S_c$}	{[mm$^2$]}	0.201539
{$S_o$}	{[mm$^2$]}	0.109869
{$S_l/S_o$}	[]	0.834357
{$\Psi$}	[]	0.586001
{$\eta$}	[]	0.600316
{med($\theta_e$)}	{[$^\circ$]}	56.8254
{$\Upsilon$}	[]	10
{$\Xi$}	[]	8
