Q	U	V
{$V$}	{[mm$^3$]}	0.00666632
{$d_v$}	{[mm]}	0.233505
{$S_c$}	{[mm$^2$]}	0.33814
{$S_o$}	{[mm$^2$]}	0.200096
{$S_l/S_o$}	[]	0.689889
{$\Psi$}	[]	0.506576
{$\eta$}	[]	0.575303
{med($\theta_e$)}	{[$^\circ$]}	66.5644
{$\Upsilon$}	[]	12
{$\Xi$}	[]	9
