Q	U	V
{$V$}	{[mm$^3$]}	0.00193316
{$d_v$}	{[mm]}	0.154557
{$S_c$}	{[mm$^2$]}	0.187168
{$S_o$}	{[mm$^2$]}	0.0953047
{$S_l/S_o$}	[]	0.963891
{$\Psi$}	[]	0.400957
{$\eta$}	[]	0.439721
{med($\theta_e$)}	{[$^\circ$]}	132.5645
{$\Upsilon$}	[]	14
{$\Xi$}	[]	3
