Q	U	V
{$V$}	{[mm$^3$]}	0.00807701
{$d_v$}	{[mm]}	0.248934
{$S_c$}	{[mm$^2$]}	0.419591
{$S_o$}	{[mm$^2$]}	0.234168
{$S_l/S_o$}	[]	0.791837
{$\Psi$}	[]	0.463972
{$\eta$}	[]	0.486235
{med($\theta_e$)}	{[$^\circ$]}	96.4894
{$\Upsilon$}	[]	8
{$\Xi$}	[]	13
