Q	U	V
{$V$}	{[mm$^3$]}	0.00653333
{$d_v$}	{[mm]}	0.231942
{$S_c$}	{[mm$^2$]}	0.306965
{$S_o$}	{[mm$^2$]}	0.194728
{$S_l/S_o$}	[]	0.576378
{$\Psi$}	[]	0.550577
{$\eta$}	[]	0.574906
{med($\theta_e$)}	{[$^\circ$]}	88.5035
{$\Upsilon$}	[]	11
{$\Xi$}	[]	11
