Q	U	V
{$V$}	{[mm$^3$]}	0.019429
{$d_v$}	{[mm]}	0.333542
{$S_c$}	{[mm$^2$]}	0.753575
{$S_o$}	{[mm$^2$]}	0.467786
{$S_l/S_o$}	[]	0.610940
{$\Psi$}	[]	0.463793
{$\eta$}	[]	0.496637
{med($\theta_e$)}	{[$^\circ$]}	66.5068
{$\Upsilon$}	[]	13
{$\Xi$}	[]	11
