Q	U	V
{$V$}	{[mm$^3$]}	0.0158488
{$d_v$}	{[mm]}	0.311649
{$S_c$}	{[mm$^2$]}	0.532564
{$S_o$}	{[mm$^2$]}	0.364504
{$S_l/S_o$}	[]	0.461065
{$\Psi$}	[]	0.572941
{$\eta$}	[]	0.581645
{med($\theta_e$)}	{[$^\circ$]}	68.7936
{$\Upsilon$}	[]	13
{$\Xi$}	[]	3
