Q	U	V
{$V$}	{[mm$^3$]}	0.00256726
{$d_v$}	{[mm]}	0.169886
{$S_c$}	{[mm$^2$]}	0.153823
{$S_o$}	{[mm$^2$]}	0.0927166
{$S_l/S_o$}	[]	0.659066
{$\Psi$}	[]	0.589444
{$\eta$}	[]	0.634066
{med($\theta_e$)}	{[$^\circ$]}	54.33155
{$\Upsilon$}	[]	12
{$\Xi$}	[]	7
