Q	U	V
{$V$}	{[mm$^3$]}	0.00311942
{$d_v$}	{[mm]}	0.181284
{$S_c$}	{[mm$^2$]}	0.186541
{$S_o$}	{[mm$^2$]}	0.110668
{$S_l/S_o$}	[]	0.685591
{$\Psi$}	[]	0.553468
{$\eta$}	[]	0.578640
{med($\theta_e$)}	{[$^\circ$]}	88.194
{$\Upsilon$}	[]	13
{$\Xi$}	[]	9
