Q	U	V
{$V$}	{[mm$^3$]}	0.00390789
{$d_v$}	{[mm]}	0.195426
{$S_c$}	{[mm$^2$]}	0.174972
{$S_o$}	{[mm$^2$]}	0.11394
{$S_l/S_o$}	[]	0.535650
{$\Psi$}	[]	0.685715
{$\eta$}	[]	0.712617
{med($\theta_e$)}	{[$^\circ$]}	64.792
{$\Upsilon$}	[]	18
{$\Xi$}	[]	5
