Q	U	V
{$V$}	{[mm$^3$]}	0.00632197
{$d_v$}	{[mm]}	0.229413
{$S_c$}	{[mm$^2$]}	0.239147
{$S_o$}	{[mm$^2$]}	0.172406
{$S_l/S_o$}	[]	0.387115
{$\Psi$}	[]	0.691386
{$\eta$}	[]	0.713005
{med($\theta_e$)}	{[$^\circ$]}	67.397
{$\Upsilon$}	[]	11
{$\Xi$}	[]	9
