Q	U	V
{$V$}	{[mm$^3$]}	0.0038212
{$d_v$}	{[mm]}	0.193970
{$S_c$}	{[mm$^2$]}	0.191303
{$S_o$}	{[mm$^2$]}	0.119252
{$S_l/S_o$}	[]	0.604191
{$\Psi$}	[]	0.617868
{$\eta$}	[]	0.676680
{med($\theta_e$)}	{[$^\circ$]}	61.11125
{$\Upsilon$}	[]	12
{$\Xi$}	[]	6
