Q	U	V
{$V$}	{[mm$^3$]}	0.0033391
{$d_v$}	{[mm]}	0.185443
{$S_c$}	{[mm$^2$]}	0.15947
{$S_o$}	{[mm$^2$]}	0.107154
{$S_l/S_o$}	[]	0.488232
{$\Psi$}	[]	0.677472
{$\eta$}	[]	0.690550
{med($\theta_e$)}	{[$^\circ$]}	53.09995
{$\Upsilon$}	[]	15
{$\Xi$}	[]	8
