Q	U	V
{$V$}	{[mm$^3$]}	0.0052877
{$d_v$}	{[mm]}	0.216150
{$S_c$}	{[mm$^2$]}	0.283911
{$S_o$}	{[mm$^2$]}	0.170966
{$S_l/S_o$}	[]	0.660628
{$\Psi$}	[]	0.516987
{$\eta$}	[]	0.541902
{med($\theta_e$)}	{[$^\circ$]}	86.4624
{$\Upsilon$}	[]	14
{$\Xi$}	[]	14
