Q	U	V
{$V$}	{[mm$^3$]}	0.010047
{$d_v$}	{[mm]}	0.267719
{$S_c$}	{[mm$^2$]}	0.400905
{$S_o$}	{[mm$^2$]}	0.24956
{$S_l/S_o$}	[]	0.606447
{$\Psi$}	[]	0.561651
{$\eta$}	[]	0.590564
{med($\theta_e$)}	{[$^\circ$]}	59.1444
{$\Upsilon$}	[]	11
{$\Xi$}	[]	9
