Q	U	V
{$V$}	{[mm$^3$]}	0.00450755
{$d_v$}	{[mm]}	0.204950
{$S_c$}	{[mm$^2$]}	0.236024
{$S_o$}	{[mm$^2$]}	0.142899
{$S_l/S_o$}	[]	0.651684
{$\Psi$}	[]	0.559098
{$\eta$}	[]	0.599257
{med($\theta_e$)}	{[$^\circ$]}	65.09585
{$\Upsilon$}	[]	13
{$\Xi$}	[]	8
