Q	U	V
{$V$}	{[mm$^3$]}	0.00816369
{$d_v$}	{[mm]}	0.249821
{$S_c$}	{[mm$^2$]}	0.358381
{$S_o$}	{[mm$^2$]}	0.227769
{$S_l/S_o$}	[]	0.573441
{$\Psi$}	[]	0.547096
{$\eta$}	[]	0.610599
{med($\theta_e$)}	{[$^\circ$]}	82.9488
{$\Upsilon$}	[]	9
{$\Xi$}	[]	9
