Q	U	V
{$V$}	{[mm$^3$]}	0.00169449
{$d_v$}	{[mm]}	0.147915
{$S_c$}	{[mm$^2$]}	0.128416
{$S_o$}	{[mm$^2$]}	0.0698208
{$S_l/S_o$}	[]	0.839223
{$\Psi$}	[]	0.535251
{$\eta$}	[]	0.569125
{med($\theta_e$)}	{[$^\circ$]}	
{$\Upsilon$}	[]	14
{$\Xi$}	[]	7
