Q	U	V
{$V$}	{[mm$^3$]}	0.0150093
{$d_v$}	{[mm]}	0.306046
{$S_c$}	{[mm$^2$]}	0.479297
{$S_o$}	{[mm$^2$]}	0.333095
{$S_l/S_o$}	[]	0.438920
{$\Psi$}	[]	0.613931
{$\eta$}	[]	0.645967
{med($\theta_e$)}	{[$^\circ$]}	71.70035
{$\Upsilon$}	[]	10
{$\Xi$}	[]	16
