Q	U	V
{$V$}	{[mm$^3$]}	0.00590161
{$d_v$}	{[mm]}	0.224211
{$S_c$}	{[mm$^2$]}	0.350681
{$S_o$}	{[mm$^2$]}	0.2117
{$S_l/S_o$}	[]	0.656500
{$\Psi$}	[]	0.450352
{$\eta$}	[]	0.553549
{med($\theta_e$)}	{[$^\circ$]}	73.1448
{$\Upsilon$}	[]	10
{$\Xi$}	[]	13
