Q	U	V
{$V$}	{[mm$^3$]}	0.00315861
{$d_v$}	{[mm]}	0.182040
{$S_c$}	{[mm$^2$]}	0.191604
{$S_o$}	{[mm$^2$]}	0.107451
{$S_l/S_o$}	[]	0.783176
{$\Psi$}	[]	0.543347
{$\eta$}	[]	0.579215
{med($\theta_e$)}	{[$^\circ$]}	61.96985
{$\Upsilon$}	[]	12
{$\Xi$}	[]	12
