Q	U	V
{$V$}	{[mm$^3$]}	0.00359796
{$d_v$}	{[mm]}	0.190116
{$S_c$}	{[mm$^2$]}	0.189014
{$S_o$}	{[mm$^2$]}	0.11674
{$S_l/S_o$}	[]	0.619102
{$\Psi$}	[]	0.600751
{$\eta$}	[]	0.698377
{med($\theta_e$)}	{[$^\circ$]}	72.3989
{$\Upsilon$}	[]	10
{$\Xi$}	[]	9
