Q	U	V
{$V$}	{[mm$^3$]}	0.00151399
{$d_v$}	{[mm]}	0.142465
{$S_c$}	{[mm$^2$]}	0.10933
{$S_o$}	{[mm$^2$]}	0.0575242
{$S_l/S_o$}	[]	0.900591
{$\Psi$}	[]	0.583212
{$\eta$}	[]	0.656546
{med($\theta_e$)}	{[$^\circ$]}	70.4643
{$\Upsilon$}	[]	14
{$\Xi$}	[]	5
