Q	U	V
{$V$}	{[mm$^3$]}	0.00518202
{$d_v$}	{[mm]}	0.214701
{$S_c$}	{[mm$^2$]}	0.234338
{$S_o$}	{[mm$^2$]}	0.116748
{$S_l/S_o$}	[]	1.007212
{$\Psi$}	[]	0.61798
{$\eta$}	[]	0.638228
{med($\theta_e$)}	{[$^\circ$]}	58.7909
{$\Upsilon$}	[]	16
{$\Xi$}	[]	9
