Q	U	V
{$V$}	{[mm$^3$]}	0.00607616
{$d_v$}	{[mm]}	0.226400
{$S_c$}	{[mm$^2$]}	0.298282
{$S_o$}	{[mm$^2$]}	0.170246
{$S_l/S_o$}	[]	0.752065
{$\Psi$}	[]	0.539854
{$\eta$}	[]	0.585014
{med($\theta_e$)}	{[$^\circ$]}	58.21265
{$\Upsilon$}	[]	14
{$\Xi$}	[]	11
