Q	U	V
{$V$}	{[mm$^3$]}	0.00789889
{$d_v$}	{[mm]}	0.247090
{$S_c$}	{[mm$^2$]}	0.362055
{$S_o$}	{[mm$^2$]}	0.22528
{$S_l/S_o$}	[]	0.607133
{$\Psi$}	[]	0.52977
{$\eta$}	[]	0.574863
{med($\theta_e$)}	{[$^\circ$]}	72.50465
{$\Upsilon$}	[]	9
{$\Xi$}	[]	11
