Q	U	V
{$V$}	{[mm$^3$]}	0.00602154
{$d_v$}	{[mm]}	0.225720
{$S_c$}	{[mm$^2$]}	0.289172
{$S_o$}	{[mm$^2$]}	0.180628
{$S_l/S_o$}	[]	0.600926
{$\Psi$}	[]	0.55352
{$\eta$}	[]	0.635276
{med($\theta_e$)}	{[$^\circ$]}	65.8794
{$\Upsilon$}	[]	11
{$\Xi$}	[]	13
