Q	U	V
{$V$}	{[mm$^3$]}	0.0172405
{$d_v$}	{[mm]}	0.320517
{$S_c$}	{[mm$^2$]}	0.548981
{$S_o$}	{[mm$^2$]}	0.394138
{$S_l/S_o$}	[]	0.392865
{$\Psi$}	[]	0.587886
{$\eta$}	[]	0.617914
{med($\theta_e$)}	{[$^\circ$]}	63.9959
{$\Upsilon$}	[]	11
{$\Xi$}	[]	13
