Q	U	V
{$V$}	{[mm$^3$]}	0.00434368
{$d_v$}	{[mm]}	0.202435
{$S_c$}	{[mm$^2$]}	0.248641
{$S_o$}	{[mm$^2$]}	0.131132
{$S_l/S_o$}	[]	0.896112
{$\Psi$}	[]	0.517786
{$\eta$}	[]	0.565293
{med($\theta_e$)}	{[$^\circ$]}	48.7609
{$\Upsilon$}	[]	11
{$\Xi$}	[]	8
