Q	U	V
{$V$}	{[mm$^3$]}	0.00417031
{$d_v$}	{[mm]}	0.199705
{$S_c$}	{[mm$^2$]}	0.211509
{$S_o$}	{[mm$^2$]}	0.135599
{$S_l/S_o$}	[]	0.559812
{$\Psi$}	[]	0.592381
{$\eta$}	[]	0.618215
{med($\theta_e$)}	{[$^\circ$]}	70.60365
{$\Upsilon$}	[]	12
{$\Xi$}	[]	8
