Q	U	V
{$V$}	{[mm$^3$]}	0.0105053
{$d_v$}	{[mm]}	0.271729
{$S_c$}	{[mm$^2$]}	0.404413
{$S_o$}	{[mm$^2$]}	0.25348
{$S_l/S_o$}	[]	0.595443
{$\Psi$}	[]	0.573585
{$\eta$}	[]	0.601971
{med($\theta_e$)}	{[$^\circ$]}	65.98885
{$\Upsilon$}	[]	12
{$\Xi$}	[]	11
