Q	U	V
{$V$}	{[mm$^3$]}	0.0113686
{$d_v$}	{[mm]}	0.278978
{$S_c$}	{[mm$^2$]}	0.481037
{$S_o$}	{[mm$^2$]}	0.292568
{$S_l/S_o$}	[]	0.644189
{$\Psi$}	[]	0.508289
{$\eta$}	[]	0.534408
{med($\theta_e$)}	{[$^\circ$]}	60.84965
{$\Upsilon$}	[]	14
{$\Xi$}	[]	13
