Q	U	V
{$V$}	{[mm$^3$]}	0.0103379
{$d_v$}	{[mm]}	0.270278
{$S_c$}	{[mm$^2$]}	0.541571
{$S_o$}	{[mm$^2$]}	0.303834
{$S_l/S_o$}	[]	0.782457
{$\Psi$}	[]	0.423757
{$\eta$}	[]	0.439896
{med($\theta_e$)}	{[$^\circ$]}	
{$\Upsilon$}	[]	14
{$\Xi$}	[]	6
