Q	U	V
{$V$}	{[mm$^3$]}	0.00631959
{$d_v$}	{[mm]}	0.229384
{$S_c$}	{[mm$^2$]}	0.3303
{$S_o$}	{[mm$^2$]}	0.191506
{$S_l/S_o$}	[]	0.724750
{$\Psi$}	[]	0.500459
{$\eta$}	[]	0.532343
{med($\theta_e$)}	{[$^\circ$]}	
{$\Upsilon$}	[]	15
{$\Xi$}	[]	8
