Q	U	V
{$V$}	{[mm$^3$]}	0.00521527
{$d_v$}	{[mm]}	0.215159
{$S_c$}	{[mm$^2$]}	0.300801
{$S_o$}	{[mm$^2$]}	0.170522
{$S_l/S_o$}	[]	0.764001
{$\Psi$}	[]	0.483492
{$\eta$}	[]	0.518924
{med($\theta_e$)}	{[$^\circ$]}	91.982
{$\Upsilon$}	[]	9
{$\Xi$}	[]	8
