Q	U	V
{$V$}	{[mm$^3$]}	0.00216828
{$d_v$}	{[mm]}	0.160585
{$S_c$}	{[mm$^2$]}	0.113225
{$S_o$}	{[mm$^2$]}	0.0647371
{$S_l/S_o$}	[]	0.748997
{$\Psi$}	[]	0.715515
{$\eta$}	[]	0.721100
{med($\theta_e$)}	{[$^\circ$]}	72.7845
{$\Upsilon$}	[]	15
{$\Xi$}	[]	3
