Q	U	V
{$V$}	{[mm$^3$]}	0.00226684
{$d_v$}	{[mm]}	0.162982
{$S_c$}	{[mm$^2$]}	0.131297
{$S_o$}	{[mm$^2$]}	0.0806189
{$S_l/S_o$}	[]	0.628613
{$\Psi$}	[]	0.635589
{$\eta$}	[]	0.657463
{med($\theta_e$)}	{[$^\circ$]}	53.86275
{$\Upsilon$}	[]	12
{$\Xi$}	[]	6
