Q	U	V
{$V$}	{[mm$^3$]}	0.00817676
{$d_v$}	{[mm]}	0.249954
{$S_c$}	{[mm$^2$]}	0.279766
{$S_o$}	{[mm$^2$]}	0.177582
{$S_l/S_o$}	[]	0.575419
{$\Psi$}	[]	0.701579
{$\eta$}	[]	0.711759
{med($\theta_e$)}	{[$^\circ$]}	55.4287
{$\Upsilon$}	[]	15
{$\Xi$}	[]	16
