Q	U	V
{$V$}	{[mm$^3$]}	0.00335691
{$d_v$}	{[mm]}	0.185772
{$S_c$}	{[mm$^2$]}	0.244211
{$S_o$}	{[mm$^2$]}	0.123439
{$S_l/S_o$}	[]	0.978394
{$\Psi$}	[]	0.443962
{$\eta$}	[]	0.458108
{med($\theta_e$)}	{[$^\circ$]}	
{$\Upsilon$}	[]	12
{$\Xi$}	[]	10
