Q	U	V
{$V$}	{[mm$^3$]}	0.0086458
{$d_v$}	{[mm]}	0.254645
{$S_c$}	{[mm$^2$]}	0.286726
{$S_o$}	{[mm$^2$]}	0.214117
{$S_l/S_o$}	[]	0.339109
{$\Psi$}	[]	0.710483
{$\eta$}	[]	0.723129
{med($\theta_e$)}	{[$^\circ$]}	55.614
{$\Upsilon$}	[]	16
{$\Xi$}	[]	8
