Q	U	V
{$V$}	{[mm$^3$]}	0.00365615
{$d_v$}	{[mm]}	0.191136
{$S_c$}	{[mm$^2$]}	0.267105
{$S_o$}	{[mm$^2$]}	0.146547
{$S_l/S_o$}	[]	0.822658
{$\Psi$}	[]	0.429686
{$\eta$}	[]	0.534719
{med($\theta_e$)}	{[$^\circ$]}	70.06275
{$\Upsilon$}	[]	12
{$\Xi$}	[]	13
