Q	U	V
{$V$}	{[mm$^3$]}	0.00397913
{$d_v$}	{[mm]}	0.196606
{$S_c$}	{[mm$^2$]}	0.199897
{$S_o$}	{[mm$^2$]}	0.113929
{$S_l/S_o$}	[]	0.754575
{$\Psi$}	[]	0.607486
{$\eta$}	[]	0.615022
{med($\theta_e$)}	{[$^\circ$]}	75.4707
{$\Upsilon$}	[]	13
{$\Xi$}	[]	5
