Q	U	V
{$V$}	{[mm$^3$]}	0.011181
{$d_v$}	{[mm]}	0.277435
{$S_c$}	{[mm$^2$]}	0.404679
{$S_o$}	{[mm$^2$]}	0.279449
{$S_l/S_o$}	[]	0.448132
{$\Psi$}	[]	0.597531
{$\eta$}	[]	0.620492
{med($\theta_e$)}	{[$^\circ$]}	88.9474
{$\Upsilon$}	[]	8
{$\Xi$}	[]	5
