Q	U	V
{$V$}	{[mm$^3$]}	0.0141354
{$d_v$}	{[mm]}	0.299988
{$S_c$}	{[mm$^2$]}	0.510845
{$S_o$}	{[mm$^2$]}	0.331419
{$S_l/S_o$}	[]	0.541387
{$\Psi$}	[]	0.553436
{$\eta$}	[]	0.611183
{med($\theta_e$)}	{[$^\circ$]}	59.73755
{$\Upsilon$}	[]	14
{$\Xi$}	[]	12
