Q	U	V
{$V$}	{[mm$^3$]}	0.00599186
{$d_v$}	{[mm]}	0.225348
{$S_c$}	{[mm$^2$]}	0.280586
{$S_o$}	{[mm$^2$]}	0.165628
{$S_l/S_o$}	[]	0.694073
{$\Psi$}	[]	0.568581
{$\eta$}	[]	0.592834
{med($\theta_e$)}	{[$^\circ$]}	81.0504
{$\Upsilon$}	[]	7
{$\Xi$}	[]	7
