Q	U	V
{$V$}	{[mm$^3$]}	0.0126059
{$d_v$}	{[mm]}	0.288752
{$S_c$}	{[mm$^2$]}	0.601707
{$S_o$}	{[mm$^2$]}	0.355364
{$S_l/S_o$}	[]	0.693213
{$\Psi$}	[]	0.435326
{$\eta$}	[]	0.490687
{med($\theta_e$)}	{[$^\circ$]}	60.6803
{$\Upsilon$}	[]	10
{$\Xi$}	[]	14
