Q	U	V
{$V$}	{[mm$^3$]}	0.00808057
{$d_v$}	{[mm]}	0.248970
{$S_c$}	{[mm$^2$]}	0.374074
{$S_o$}	{[mm$^2$]}	0.231484
{$S_l/S_o$}	[]	0.615982
{$\Psi$}	[]	0.520581
{$\eta$}	[]	0.569762
{med($\theta_e$)}	{[$^\circ$]}	72.9676
{$\Upsilon$}	[]	14
{$\Xi$}	[]	8
