Q	U	V
{$V$}	{[mm$^3$]}	0.00251382
{$d_v$}	{[mm]}	0.168699
{$S_c$}	{[mm$^2$]}	0.142498
{$S_o$}	{[mm$^2$]}	0.0882457
{$S_l/S_o$}	[]	0.614787
{$\Psi$}	[]	0.627429
{$\eta$}	[]	0.678761
{med($\theta_e$)}	{[$^\circ$]}	55.9551
{$\Upsilon$}	[]	13
{$\Xi$}	[]	9
