Q	U	V
{$V$}	{[mm$^3$]}	0.00633978
{$d_v$}	{[mm]}	0.229628
{$S_c$}	{[mm$^2$]}	0.282899
{$S_o$}	{[mm$^2$]}	0.191457
{$S_l/S_o$}	[]	0.477611
{$\Psi$}	[]	0.585557
{$\eta$}	[]	0.599634
{med($\theta_e$)}	{[$^\circ$]}	65.3844
{$\Upsilon$}	[]	14
{$\Xi$}	[]	9
