Q	U	V
{$V$}	{[mm$^3$]}	0.00617353
{$d_v$}	{[mm]}	0.227603
{$S_c$}	{[mm$^2$]}	0.310488
{$S_o$}	{[mm$^2$]}	0.20054
{$S_l/S_o$}	[]	0.548260
{$\Psi$}	[]	0.524157
{$\eta$}	[]	0.611038
{med($\theta_e$)}	{[$^\circ$]}	80.2083
{$\Upsilon$}	[]	8
{$\Xi$}	[]	8
