Q	U	V
{$V$}	{[mm$^3$]}	0.00987718
{$d_v$}	{[mm]}	0.266202
{$S_c$}	{[mm$^2$]}	0.365304
{$S_o$}	{[mm$^2$]}	0.236295
{$S_l/S_o$}	[]	0.545966
{$\Psi$}	[]	0.609422
{$\eta$}	[]	0.628214
{med($\theta_e$)}	{[$^\circ$]}	64.4651
{$\Upsilon$}	[]	13
{$\Xi$}	[]	10
