Q	U	V
{$V$}	{[mm$^3$]}	0.00657845
{$d_v$}	{[mm]}	0.232474
{$S_c$}	{[mm$^2$]}	0.286381
{$S_o$}	{[mm$^2$]}	0.188759
{$S_l/S_o$}	[]	0.517178
{$\Psi$}	[]	0.592865
{$\eta$}	[]	0.626414
{med($\theta_e$)}	{[$^\circ$]}	63.8629
{$\Upsilon$}	[]	15
{$\Xi$}	[]	9
