Q	U	V
{$V$}	{[mm$^3$]}	0.00568193
{$d_v$}	{[mm]}	0.221394
{$S_c$}	{[mm$^2$]}	0.25678
{$S_o$}	{[mm$^2$]}	0.169589
{$S_l/S_o$}	[]	0.514131
{$\Psi$}	[]	0.599681
{$\eta$}	[]	0.663993
{med($\theta_e$)}	{[$^\circ$]}	67.0543
{$\Upsilon$}	[]	13
{$\Xi$}	[]	10
