Q	U	V
{$V$}	{[mm$^3$]}	0.0126879
{$d_v$}	{[mm]}	0.289377
{$S_c$}	{[mm$^2$]}	0.455609
{$S_o$}	{[mm$^2$]}	0.301324
{$S_l/S_o$}	[]	0.512024
{$\Psi$}	[]	0.577411
{$\eta$}	[]	0.601033
{med($\theta_e$)}	{[$^\circ$]}	64.4225
{$\Upsilon$}	[]	10
{$\Xi$}	[]	11
