Q	U	V
{$V$}	{[mm$^3$]}	0.00422731
{$d_v$}	{[mm]}	0.200611
{$S_c$}	{[mm$^2$]}	0.307972
{$S_o$}	{[mm$^2$]}	0.169122
{$S_l/S_o$}	[]	0.821005
{$\Psi$}	[]	0.410534
{$\eta$}	[]	0.423399
{med($\theta_e$)}	{[$^\circ$]}	88.2504
{$\Upsilon$}	[]	14
{$\Xi$}	[]	7
