Q	U	V
{$V$}	{[mm$^3$]}	0.00211247
{$d_v$}	{[mm]}	0.159195
{$S_c$}	{[mm$^2$]}	0.138063
{$S_o$}	{[mm$^2$]}	0.0797601
{$S_l/S_o$}	[]	0.730978
{$\Psi$}	[]	0.576679
{$\eta$}	[]	0.648707
{med($\theta_e$)}	{[$^\circ$]}	56.3623
{$\Upsilon$}	[]	11
{$\Xi$}	[]	6
