Q	U	V
{$V$}	{[mm$^3$]}	0.00326073
{$d_v$}	{[mm]}	0.183981
{$S_c$}	{[mm$^2$]}	0.213855
{$S_o$}	{[mm$^2$]}	0.114187
{$S_l/S_o$}	[]	0.872849
{$\Psi$}	[]	0.49725
{$\eta$}	[]	0.548255
{med($\theta_e$)}	{[$^\circ$]}	
{$\Upsilon$}	[]	14
{$\Xi$}	[]	7
