Q	U	V
{$V$}	{[mm$^3$]}	0.0086078
{$d_v$}	{[mm]}	0.254272
{$S_c$}	{[mm$^2$]}	0.353476
{$S_o$}	{[mm$^2$]}	0.22736
{$S_l/S_o$}	[]	0.554697
{$\Psi$}	[]	0.574626
{$\eta$}	[]	0.601996
{med($\theta_e$)}	{[$^\circ$]}	72.03765
{$\Upsilon$}	[]	15
{$\Xi$}	[]	12
