Q	U	V
{$V$}	{[mm$^3$]}	0.0118757
{$d_v$}	{[mm]}	0.283065
{$S_c$}	{[mm$^2$]}	0.545137
{$S_o$}	{[mm$^2$]}	0.30537
{$S_l/S_o$}	[]	0.785169
{$\Psi$}	[]	0.461762
{$\eta$}	[]	0.478874
{med($\theta_e$)}	{[$^\circ$]}	82.42565
{$\Upsilon$}	[]	9
{$\Xi$}	[]	11
