Q	U	V
{$V$}	{[mm$^3$]}	0.00378914
{$d_v$}	{[mm]}	0.193426
{$S_c$}	{[mm$^2$]}	0.247224
{$S_o$}	{[mm$^2$]}	0.139386
{$S_l/S_o$}	[]	0.773665
{$\Psi$}	[]	0.475431
{$\eta$}	[]	0.524694
{med($\theta_e$)}	{[$^\circ$]}	79.6463
{$\Upsilon$}	[]	12
{$\Xi$}	[]	7
