Q	U	V
{$V$}	{[mm$^3$]}	0.00427718
{$d_v$}	{[mm]}	0.201397
{$S_c$}	{[mm$^2$]}	0.228352
{$S_o$}	{[mm$^2$]}	0.119441
{$S_l/S_o$}	[]	0.911839
{$\Psi$}	[]	0.558022
{$\eta$}	[]	0.603043
{med($\theta_e$)}	{[$^\circ$]}	
{$\Upsilon$}	[]	13
{$\Xi$}	[]	7
