Q	U	V
{$V$}	{[mm$^3$]}	0.0064799
{$d_v$}	{[mm]}	0.231308
{$S_c$}	{[mm$^2$]}	0.317987
{$S_o$}	{[mm$^2$]}	0.185886
{$S_l/S_o$}	[]	0.710656
{$\Psi$}	[]	0.528592
{$\eta$}	[]	0.534972
{med($\theta_e$)}	{[$^\circ$]}	
{$\Upsilon$}	[]	14
{$\Xi$}	[]	9
