Q	U	V
{$V$}	{[mm$^3$]}	0.0104543
{$d_v$}	{[mm]}	0.271289
{$S_c$}	{[mm$^2$]}	0.496631
{$S_o$}	{[mm$^2$]}	0.300167
{$S_l/S_o$}	[]	0.654516
{$\Psi$}	[]	0.465565
{$\eta$}	[]	0.528930
{med($\theta_e$)}	{[$^\circ$]}	67.1871
{$\Upsilon$}	[]	11
{$\Xi$}	[]	11
