Q	U	V
{$V$}	{[mm$^3$]}	0.00442918
{$d_v$}	{[mm]}	0.203755
{$S_c$}	{[mm$^2$]}	0.310511
{$S_o$}	{[mm$^2$]}	0.164723
{$S_l/S_o$}	[]	0.885049
{$\Psi$}	[]	0.420039
{$\eta$}	[]	0.484566
{med($\theta_e$)}	{[$^\circ$]}	93.2976
{$\Upsilon$}	[]	12
{$\Xi$}	[]	9
