Q	U	V
{$V$}	{[mm$^3$]}	0.00568312
{$d_v$}	{[mm]}	0.221409
{$S_c$}	{[mm$^2$]}	0.30918
{$S_o$}	{[mm$^2$]}	0.176605
{$S_l/S_o$}	[]	0.750687
{$\Psi$}	[]	0.498116
{$\eta$}	[]	0.566596
{med($\theta_e$)}	{[$^\circ$]}	66.7762
{$\Upsilon$}	[]	13
{$\Xi$}	[]	8
