Q	U	V
{$V$}	{[mm$^3$]}	0.00807107
{$d_v$}	{[mm]}	0.248873
{$S_c$}	{[mm$^2$]}	0.45882
{$S_o$}	{[mm$^2$]}	0.239095
{$S_l/S_o$}	[]	0.918986
{$\Psi$}	[]	0.424094
{$\eta$}	[]	0.465692
{med($\theta_e$)}	{[$^\circ$]}	56.6081
{$\Upsilon$}	[]	15
{$\Xi$}	[]	15
