Q	U	V
{$V$}	{[mm$^3$]}	0.00321442
{$d_v$}	{[mm]}	0.183105
{$S_c$}	{[mm$^2$]}	0.188501
{$S_o$}	{[mm$^2$]}	0.105191
{$S_l/S_o$}	[]	0.791988
{$\Psi$}	[]	0.558777
{$\eta$}	[]	0.624649
{med($\theta_e$)}	{[$^\circ$]}	
{$\Upsilon$}	[]	20
{$\Xi$}	[]	11
