Q	U	V
{$V$}	{[mm$^3$]}	0.00167786
{$d_v$}	{[mm]}	0.147430
{$S_c$}	{[mm$^2$]}	0.136645
{$S_o$}	{[mm$^2$]}	0.0680853
{$S_l/S_o$}	[]	1.006968
{$\Psi$}	[]	0.499721
{$\eta$}	[]	0.554626
{med($\theta_e$)}	{[$^\circ$]}	
{$\Upsilon$}	[]	18
{$\Xi$}	[]	5
