Q	U	V
{$V$}	{[mm$^3$]}	0.00667701
{$d_v$}	{[mm]}	0.233630
{$S_c$}	{[mm$^2$]}	0.289471
{$S_o$}	{[mm$^2$]}	0.211114
{$S_l/S_o$}	[]	0.371160
{$\Psi$}	[]	0.59238
{$\eta$}	[]	0.666060
{med($\theta_e$)}	{[$^\circ$]}	68.4999
{$\Upsilon$}	[]	14
{$\Xi$}	[]	11
