Q	U	V
{$V$}	{[mm$^3$]}	0.00625072
{$d_v$}	{[mm]}	0.228548
{$S_c$}	{[mm$^2$]}	0.386182
{$S_o$}	{[mm$^2$]}	0.215581
{$S_l/S_o$}	[]	0.791355
{$\Psi$}	[]	0.424925
{$\eta$}	[]	0.505881
{med($\theta_e$)}	{[$^\circ$]}	95.1429
{$\Upsilon$}	[]	13
{$\Xi$}	[]	12
