Q	U	V
{$V$}	{[mm$^3$]}	0.0151851
{$d_v$}	{[mm]}	0.307237
{$S_c$}	{[mm$^2$]}	0.594525
{$S_o$}	{[mm$^2$]}	0.387702
{$S_l/S_o$}	[]	0.533459
{$\Psi$}	[]	0.498799
{$\eta$}	[]	0.507000
{med($\theta_e$)}	{[$^\circ$]}	59.41885
{$\Upsilon$}	[]	16
{$\Xi$}	[]	15
