Q	U	V
{$V$}	{[mm$^3$]}	0.00381289
{$d_v$}	{[mm]}	0.193829
{$S_c$}	{[mm$^2$]}	0.224554
{$S_o$}	{[mm$^2$]}	0.121949
{$S_l/S_o$}	[]	0.841376
{$\Psi$}	[]	0.525613
{$\eta$}	[]	0.574013
{med($\theta_e$)}	{[$^\circ$]}	78.3174
{$\Upsilon$}	[]	11
{$\Xi$}	[]	8
