Q	U	V
{$V$}	{[mm$^3$]}	0.0103201
{$d_v$}	{[mm]}	0.270123
{$S_c$}	{[mm$^2$]}	0.417264
{$S_o$}	{[mm$^2$]}	0.240636
{$S_l/S_o$}	[]	0.734005
{$\Psi$}	[]	0.549367
{$\eta$}	[]	0.613842
{med($\theta_e$)}	{[$^\circ$]}	70.543
{$\Upsilon$}	[]	12
{$\Xi$}	[]	6
