Q	U	V
{$V$}	{[mm$^3$]}	0.00840118
{$d_v$}	{[mm]}	0.252221
{$S_c$}	{[mm$^2$]}	0.420777
{$S_o$}	{[mm$^2$]}	0.244892
{$S_l/S_o$}	[]	0.718215
{$\Psi$}	[]	0.474962
{$\eta$}	[]	0.510078
{med($\theta_e$)}	{[$^\circ$]}	80.77955
{$\Upsilon$}	[]	8
{$\Xi$}	[]	9
