Q	U	V
{$V$}	{[mm$^3$]}	0.00875979
{$d_v$}	{[mm]}	0.255759
{$S_c$}	{[mm$^2$]}	0.460094
{$S_o$}	{[mm$^2$]}	0.253691
{$S_l/S_o$}	[]	0.813600
{$\Psi$}	[]	0.446649
{$\eta$}	[]	0.482749
{med($\theta_e$)}	{[$^\circ$]}	102.9
{$\Upsilon$}	[]	13
{$\Xi$}	[]	15
