Q	U	V
{$V$}	{[mm$^3$]}	0.00401476
{$d_v$}	{[mm]}	0.197191
{$S_c$}	{[mm$^2$]}	0.200287
{$S_o$}	{[mm$^2$]}	0.12097
{$S_l/S_o$}	[]	0.655675
{$\Psi$}	[]	0.609917
{$\eta$}	[]	0.663438
{med($\theta_e$)}	{[$^\circ$]}	65.1072
{$\Upsilon$}	[]	13
{$\Xi$}	[]	9
