Q	U	V
{$V$}	{[mm$^3$]}	0.00462154
{$d_v$}	{[mm]}	0.206663
{$S_c$}	{[mm$^2$]}	0.304018
{$S_o$}	{[mm$^2$]}	0.157739
{$S_l/S_o$}	[]	0.927348
{$\Psi$}	[]	0.441343
{$\eta$}	[]	0.468196
{med($\theta_e$)}	{[$^\circ$]}	
{$\Upsilon$}	[]	14
{$\Xi$}	[]	4
