Q	U	V
{$V$}	{[mm$^3$]}	0.00342222
{$d_v$}	{[mm]}	0.186969
{$S_c$}	{[mm$^2$]}	0.178477
{$S_o$}	{[mm$^2$]}	0.115422
{$S_l/S_o$}	[]	0.546300
{$\Psi$}	[]	0.615329
{$\eta$}	[]	0.620231
{med($\theta_e$)}	{[$^\circ$]}	64.0461
{$\Upsilon$}	[]	12
{$\Xi$}	[]	3
