Q	U	V
{$V$}	{[mm$^3$]}	0.0107036
{$d_v$}	{[mm]}	0.273428
{$S_c$}	{[mm$^2$]}	0.492444
{$S_o$}	{[mm$^2$]}	0.266496
{$S_l/S_o$}	[]	0.847848
{$\Psi$}	[]	0.476958
{$\eta$}	[]	0.498912
{med($\theta_e$)}	{[$^\circ$]}	64.7257
{$\Upsilon$}	[]	11
{$\Xi$}	[]	12
