Q	U	V
{$V$}	{[mm$^3$]}	0.0135713
{$d_v$}	{[mm]}	0.295943
{$S_c$}	{[mm$^2$]}	0.59862
{$S_o$}	{[mm$^2$]}	0.352252
{$S_l/S_o$}	[]	0.699408
{$\Psi$}	[]	0.459636
{$\eta$}	[]	0.477261
{med($\theta_e$)}	{[$^\circ$]}	70.62305
{$\Upsilon$}	[]	10
{$\Xi$}	[]	13
