Q	U	V
{$V$}	{[mm$^3$]}	0.0148003
{$d_v$}	{[mm]}	0.304619
{$S_c$}	{[mm$^2$]}	0.604133
{$S_o$}	{[mm$^2$]}	0.410091
{$S_l/S_o$}	[]	0.473168
{$\Psi$}	[]	0.482538
{$\eta$}	[]	0.571722
{med($\theta_e$)}	{[$^\circ$]}	64.9581
{$\Upsilon$}	[]	8
{$\Xi$}	[]	17
