Q	U	V
{$V$}	{[mm$^3$]}	0.00572587
{$d_v$}	{[mm]}	0.221963
{$S_c$}	{[mm$^2$]}	0.291538
{$S_o$}	{[mm$^2$]}	0.188549
{$S_l/S_o$}	[]	0.546219
{$\Psi$}	[]	0.530905
{$\eta$}	[]	0.570629
{med($\theta_e$)}	{[$^\circ$]}	63.2801
{$\Upsilon$}	[]	13
{$\Xi$}	[]	7
