Q	U	V
{$V$}	{[mm$^3$]}	0.00406344
{$d_v$}	{[mm]}	0.197985
{$S_c$}	{[mm$^2$]}	0.243164
{$S_o$}	{[mm$^2$]}	0.137821
{$S_l/S_o$}	[]	0.764347
{$\Psi$}	[]	0.506424
{$\eta$}	[]	0.522495
{med($\theta_e$)}	{[$^\circ$]}	70.1314
{$\Upsilon$}	[]	13
{$\Xi$}	[]	10
