Q	U	V
{$V$}	{[mm$^3$]}	0.00216828
{$d_v$}	{[mm]}	0.160585
{$S_c$}	{[mm$^2$]}	0.181986
{$S_o$}	{[mm$^2$]}	0.0871733
{$S_l/S_o$}	[]	1.087635
{$\Psi$}	[]	0.445167
{$\eta$}	[]	0.482609
{med($\theta_e$)}	{[$^\circ$]}	58.69165
{$\Upsilon$}	[]	14
{$\Xi$}	[]	5
