Q	U	V
{$V$}	{[mm$^3$]}	0.00976794
{$d_v$}	{[mm]}	0.265217
{$S_c$}	{[mm$^2$]}	0.458238
{$S_o$}	{[mm$^2$]}	0.269992
{$S_l/S_o$}	[]	0.697228
{$\Psi$}	[]	0.482238
{$\eta$}	[]	0.539200
{med($\theta_e$)}	{[$^\circ$]}	70.8313
{$\Upsilon$}	[]	12
{$\Xi$}	[]	11
