Q	U	V
{$V$}	{[mm$^3$]}	0.0065547
{$d_v$}	{[mm]}	0.232194
{$S_c$}	{[mm$^2$]}	0.312156
{$S_o$}	{[mm$^2$]}	0.185192
{$S_l/S_o$}	[]	0.685580
{$\Psi$}	[]	0.542601
{$\eta$}	[]	0.568418
{med($\theta_e$)}	{[$^\circ$]}	70.36395
{$\Upsilon$}	[]	12
{$\Xi$}	[]	11
