Q	U	V
{$V$}	{[mm$^3$]}	0.00339491
{$d_v$}	{[mm]}	0.186470
{$S_c$}	{[mm$^2$]}	0.209289
{$S_o$}	{[mm$^2$]}	0.122856
{$S_l/S_o$}	[]	0.703531
{$\Psi$}	[]	0.521943
{$\eta$}	[]	0.602110
{med($\theta_e$)}	{[$^\circ$]}	75.2197
{$\Upsilon$}	[]	10
{$\Xi$}	[]	10
