Q	U	V
{$V$}	{[mm$^3$]}	0.0106229
{$d_v$}	{[mm]}	0.272740
{$S_c$}	{[mm$^2$]}	0.477555
{$S_o$}	{[mm$^2$]}	0.316782
{$S_l/S_o$}	[]	0.507519
{$\Psi$}	[]	0.489354
{$\eta$}	[]	0.578057
{med($\theta_e$)}	{[$^\circ$]}	65.3338
{$\Upsilon$}	[]	12
{$\Xi$}	[]	15
