Q	U	V
{$V$}	{[mm$^3$]}	0.013373
{$d_v$}	{[mm]}	0.294494
{$S_c$}	{[mm$^2$]}	0.583269
{$S_o$}	{[mm$^2$]}	0.341055
{$S_l/S_o$}	[]	0.710190
{$\Psi$}	[]	0.467126
{$\eta$}	[]	0.500844
{med($\theta_e$)}	{[$^\circ$]}	92.081
{$\Upsilon$}	[]	7
{$\Xi$}	[]	8
