Q	U	V
{$V$}	{[mm$^3$]}	0.00378202
{$d_v$}	{[mm]}	0.193304
{$S_c$}	{[mm$^2$]}	0.249967
{$S_o$}	{[mm$^2$]}	0.150711
{$S_l/S_o$}	[]	0.658585
{$\Psi$}	[]	0.469624
{$\eta$}	[]	0.535307
{med($\theta_e$)}	{[$^\circ$]}	98.7833
{$\Upsilon$}	[]	9
{$\Xi$}	[]	9
