Q	U	V
{$V$}	{[mm$^3$]}	0.0112166
{$d_v$}	{[mm]}	0.277729
{$S_c$}	{[mm$^2$]}	0.496967
{$S_o$}	{[mm$^2$]}	0.296264
{$S_l/S_o$}	[]	0.677446
{$\Psi$}	[]	0.4876
{$\eta$}	[]	0.527186
{med($\theta_e$)}	{[$^\circ$]}	55.9105
{$\Upsilon$}	[]	13
{$\Xi$}	[]	12
