Q	U	V
{$V$}	{[mm$^3$]}	0.0110623
{$d_v$}	{[mm]}	0.276449
{$S_c$}	{[mm$^2$]}	0.513056
{$S_o$}	{[mm$^2$]}	0.312165
{$S_l/S_o$}	[]	0.643541
{$\Psi$}	[]	0.467968
{$\eta$}	[]	0.504949
{med($\theta_e$)}	{[$^\circ$]}	71.5214
{$\Upsilon$}	[]	9
{$\Xi$}	[]	12
