Q	U	V
{$V$}	{[mm$^3$]}	0.00727311
{$d_v$}	{[mm]}	0.240385
{$S_c$}	{[mm$^2$]}	0.419934
{$S_o$}	{[mm$^2$]}	0.231952
{$S_l/S_o$}	[]	0.810435
{$\Psi$}	[]	0.432298
{$\eta$}	[]	0.502293
{med($\theta_e$)}	{[$^\circ$]}	57.33735
{$\Upsilon$}	[]	12
{$\Xi$}	[]	9
