Q	U	V
{$V$}	{[mm$^3$]}	0.00899372
{$d_v$}	{[mm]}	0.258016
{$S_c$}	{[mm$^2$]}	0.5122
{$S_o$}	{[mm$^2$]}	0.257932
{$S_l/S_o$}	[]	0.985795
{$\Psi$}	[]	0.408323
{$\eta$}	[]	0.430592
{med($\theta_e$)}	{[$^\circ$]}	77.5948
{$\Upsilon$}	[]	11
{$\Xi$}	[]	8
