Q	U	V
{$V$}	{[mm$^3$]}	0.0110979
{$d_v$}	{[mm]}	0.276746
{$S_c$}	{[mm$^2$]}	0.573604
{$S_o$}	{[mm$^2$]}	0.304152
{$S_l/S_o$}	[]	0.885912
{$\Psi$}	[]	0.419468
{$\eta$}	[]	0.436913
{med($\theta_e$)}	{[$^\circ$]}	96.88295
{$\Upsilon$}	[]	12
{$\Xi$}	[]	8
