Q	U	V
{$V$}	{[mm$^3$]}	0.00199966
{$d_v$}	{[mm]}	0.156310
{$S_c$}	{[mm$^2$]}	0.175676
{$S_o$}	{[mm$^2$]}	0.084748
{$S_l/S_o$}	[]	1.072922
{$\Psi$}	[]	0.436927
{$\eta$}	[]	0.469434
{med($\theta_e$)}	{[$^\circ$]}	
{$\Upsilon$}	[]	18
{$\Xi$}	[]	3
