Q	U	V
{$V$}	{[mm$^3$]}	0.0155995
{$d_v$}	{[mm]}	0.310006
{$S_c$}	{[mm$^2$]}	0.483952
{$S_o$}	{[mm$^2$]}	0.332391
{$S_l/S_o$}	[]	0.455972
{$\Psi$}	[]	0.623863
{$\eta$}	[]	0.640516
{med($\theta_e$)}	{[$^\circ$]}	60.9811
{$\Upsilon$}	[]	13
{$\Xi$}	[]	16
