Q	U	V
{$V$}	{[mm$^3$]}	0.00208991
{$d_v$}	{[mm]}	0.158627
{$S_c$}	{[mm$^2$]}	0.136398
{$S_o$}	{[mm$^2$]}	0.082082
{$S_l/S_o$}	[]	0.661729
{$\Psi$}	[]	0.579555
{$\eta$}	[]	0.588069
{med($\theta_e$)}	{[$^\circ$]}	83.53875
{$\Upsilon$}	[]	15
{$\Xi$}	[]	9
