Q	U	V
{$V$}	{[mm$^3$]}	0.00232621
{$d_v$}	{[mm]}	0.164393
{$S_c$}	{[mm$^2$]}	0.174653
{$S_o$}	{[mm$^2$]}	0.0888915
{$S_l/S_o$}	[]	0.964789
{$\Psi$}	[]	0.486117
{$\eta$}	[]	0.602566
{med($\theta_e$)}	{[$^\circ$]}	56.4333
{$\Upsilon$}	[]	14
{$\Xi$}	[]	6
