Q	U	V
{$V$}	{[mm$^3$]}	0.0052687
{$d_v$}	{[mm]}	0.215891
{$S_c$}	{[mm$^2$]}	0.247162
{$S_o$}	{[mm$^2$]}	0.138047
{$S_l/S_o$}	[]	0.790419
{$\Psi$}	[]	0.592431
{$\eta$}	[]	0.608018
{med($\theta_e$)}	{[$^\circ$]}	78.6115
{$\Upsilon$}	[]	9
{$\Xi$}	[]	8
