Q	U	V
{$V$}	{[mm$^3$]}	0.00590161
{$d_v$}	{[mm]}	0.224211
{$S_c$}	{[mm$^2$]}	0.207047
{$S_o$}	{[mm$^2$]}	0.175389
{$S_l/S_o$}	[]	0.180502
{$\Psi$}	[]	0.762773
{$\eta$}	[]	0.833115
{med($\theta_e$)}	{[$^\circ$]}	59.6685
{$\Upsilon$}	[]	13
{$\Xi$}	[]	3
