Q	U	V
{$V$}	{[mm$^3$]}	0.0122354
{$d_v$}	{[mm]}	0.285895
{$S_c$}	{[mm$^2$]}	0.517934
{$S_o$}	{[mm$^2$]}	0.357703
{$S_l/S_o$}	[]	0.447944
{$\Psi$}	[]	0.495779
{$\eta$}	[]	0.521018
{med($\theta_e$)}	{[$^\circ$]}	66.01165
{$\Upsilon$}	[]	10
{$\Xi$}	[]	11
