Q	U	V
{$V$}	{[mm$^3$]}	0.00858999
{$d_v$}	{[mm]}	0.254096
{$S_c$}	{[mm$^2$]}	0.312368
{$S_o$}	{[mm$^2$]}	0.195982
{$S_l/S_o$}	[]	0.593861
{$\Psi$}	[]	0.649351
{$\eta$}	[]	0.712154
{med($\theta_e$)}	{[$^\circ$]}	69.6722
{$\Upsilon$}	[]	12
{$\Xi$}	[]	15
