Q	U	V
{$V$}	{[mm$^3$]}	0.00994961
{$d_v$}	{[mm]}	0.266851
{$S_c$}	{[mm$^2$]}	0.388108
{$S_o$}	{[mm$^2$]}	0.247442
{$S_l/S_o$}	[]	0.568481
{$\Psi$}	[]	0.576415
{$\eta$}	[]	0.586548
{med($\theta_e$)}	{[$^\circ$]}	71.72325
{$\Upsilon$}	[]	15
{$\Xi$}	[]	5
