Q	U	V
{$V$}	{[mm$^3$]}	0.00538982
{$d_v$}	{[mm]}	0.217533
{$S_c$}	{[mm$^2$]}	0.294934
{$S_o$}	{[mm$^2$]}	0.174463
{$S_l/S_o$}	[]	0.690525
{$\Psi$}	[]	0.504052
{$\eta$}	[]	0.534099
{med($\theta_e$)}	{[$^\circ$]}	56.1146
{$\Upsilon$}	[]	12
{$\Xi$}	[]	7
