Q	U	V
{$V$}	{[mm$^3$]}	0.0120526
{$d_v$}	{[mm]}	0.284464
{$S_c$}	{[mm$^2$]}	0.464633
{$S_o$}	{[mm$^2$]}	0.276835
{$S_l/S_o$}	[]	0.678375
{$\Psi$}	[]	0.547135
{$\eta$}	[]	0.553912
{med($\theta_e$)}	{[$^\circ$]}	65.0601
{$\Upsilon$}	[]	12
{$\Xi$}	[]	7
