Q	U	V
{$V$}	{[mm$^3$]}	0.0112831
{$d_v$}	{[mm]}	0.278277
{$S_c$}	{[mm$^2$]}	0.408282
{$S_o$}	{[mm$^2$]}	0.271255
{$S_l/S_o$}	[]	0.505159
{$\Psi$}	[]	0.595858
{$\eta$}	[]	0.643144
{med($\theta_e$)}	{[$^\circ$]}	59.0113
{$\Upsilon$}	[]	15
{$\Xi$}	[]	13
