Q	U	V
{$V$}	{[mm$^3$]}	0.00601917
{$d_v$}	{[mm]}	0.225690
{$S_c$}	{[mm$^2$]}	0.39028
{$S_o$}	{[mm$^2$]}	0.20959
{$S_l/S_o$}	[]	0.862112
{$\Psi$}	[]	0.410014
{$\eta$}	[]	0.453077
{med($\theta_e$)}	{[$^\circ$]}	63.6007
{$\Upsilon$}	[]	9
{$\Xi$}	[]	8
