Q	U	V
{$V$}	{[mm$^3$]}	0.0175113
{$d_v$}	{[mm]}	0.322186
{$S_c$}	{[mm$^2$]}	0.60362
{$S_o$}	{[mm$^2$]}	0.395052
{$S_l/S_o$}	[]	0.527951
{$\Psi$}	[]	0.540256
{$\eta$}	[]	0.551874
{med($\theta_e$)}	{[$^\circ$]}	68.9724
{$\Upsilon$}	[]	10
{$\Xi$}	[]	15
