Q	U	V
{$V$}	{[mm$^3$]}	0.00501459
{$d_v$}	{[mm]}	0.212363
{$S_c$}	{[mm$^2$]}	0.221266
{$S_o$}	{[mm$^2$]}	0.127546
{$S_l/S_o$}	[]	0.734794
{$\Psi$}	[]	0.640314
{$\eta$}	[]	0.687209
{med($\theta_e$)}	{[$^\circ$]}	
{$\Upsilon$}	[]	17
{$\Xi$}	[]	8
