Q	U	V
{$V$}	{[mm$^3$]}	0.00879185
{$d_v$}	{[mm]}	0.256071
{$S_c$}	{[mm$^2$]}	0.426427
{$S_o$}	{[mm$^2$]}	0.255884
{$S_l/S_o$}	[]	0.666486
{$\Psi$}	[]	0.483088
{$\eta$}	[]	0.512074
{med($\theta_e$)}	{[$^\circ$]}	67.4614
{$\Upsilon$}	[]	12
{$\Xi$}	[]	8
