Q	U	V
{$V$}	{[mm$^3$]}	0.00438643
{$d_v$}	{[mm]}	0.203097
{$S_c$}	{[mm$^2$]}	0.251209
{$S_o$}	{[mm$^2$]}	0.148893
{$S_l/S_o$}	[]	0.687178
{$\Psi$}	[]	0.51585
{$\eta$}	[]	0.575927
{med($\theta_e$)}	{[$^\circ$]}	68.16475
{$\Upsilon$}	[]	17
{$\Xi$}	[]	12
