Q	U	V
{$V$}	{[mm$^3$]}	0.00206497
{$d_v$}	{[mm]}	0.157993
{$S_c$}	{[mm$^2$]}	0.173902
{$S_o$}	{[mm$^2$]}	0.098819
{$S_l/S_o$}	[]	0.759803
{$\Psi$}	[]	0.450943
{$\eta$}	[]	0.471666
{med($\theta_e$)}	{[$^\circ$]}	73.2696
{$\Upsilon$}	[]	15
{$\Xi$}	[]	6
