Q	U	V
{$V$}	{[mm$^3$]}	0.0179388
{$d_v$}	{[mm]}	0.324787
{$S_c$}	{[mm$^2$]}	0.502008
{$S_o$}	{[mm$^2$]}	0.313058
{$S_l/S_o$}	[]	0.603562
{$\Psi$}	[]	0.66014
{$\eta$}	[]	0.673928
{med($\theta_e$)}	{[$^\circ$]}	59.0545
{$\Upsilon$}	[]	15
{$\Xi$}	[]	4
