Q	U	V
{$V$}	{[mm$^3$]}	0.004219
{$d_v$}	{[mm]}	0.200480
{$S_c$}	{[mm$^2$]}	0.315566
{$S_o$}	{[mm$^2$]}	0.156765
{$S_l/S_o$}	[]	1.012988
{$\Psi$}	[]	0.400129
{$\eta$}	[]	0.441534
{med($\theta_e$)}	{[$^\circ$]}	
{$\Upsilon$}	[]	13
{$\Xi$}	[]	8
