Q	U	V
{$V$}	{[mm$^3$]}	0.00460017
{$d_v$}	{[mm]}	0.206344
{$S_c$}	{[mm$^2$]}	0.317207
{$S_o$}	{[mm$^2$]}	0.171187
{$S_l/S_o$}	[]	0.852985
{$\Psi$}	[]	0.421687
{$\eta$}	[]	0.446589
{med($\theta_e$)}	{[$^\circ$]}	
{$\Upsilon$}	[]	13
{$\Xi$}	[]	4
