Q	U	V
{$V$}	{[mm$^3$]}	0.00559644
{$d_v$}	{[mm]}	0.220278
{$S_c$}	{[mm$^2$]}	0.345595
{$S_o$}	{[mm$^2$]}	0.185865
{$S_l/S_o$}	[]	0.859387
{$\Psi$}	[]	0.441087
{$\eta$}	[]	0.501879
{med($\theta_e$)}	{[$^\circ$]}	
{$\Upsilon$}	[]	14
{$\Xi$}	[]	7
