Q	U	V
{$V$}	{[mm$^3$]}	0.00281662
{$d_v$}	{[mm]}	0.175217
{$S_c$}	{[mm$^2$]}	0.153818
{$S_o$}	{[mm$^2$]}	0.0938338
{$S_l/S_o$}	[]	0.639260
{$\Psi$}	[]	0.627041
{$\eta$}	[]	0.666092
{med($\theta_e$)}	{[$^\circ$]}	66.9772
{$\Upsilon$}	[]	13
{$\Xi$}	[]	9
