Q	U	V
{$V$}	{[mm$^3$]}	0.00380933
{$d_v$}	{[mm]}	0.193769
{$S_c$}	{[mm$^2$]}	0.191258
{$S_o$}	{[mm$^2$]}	0.114201
{$S_l/S_o$}	[]	0.674749
{$\Psi$}	[]	0.616733
{$\eta$}	[]	0.647602
{med($\theta_e$)}	{[$^\circ$]}	55.15255
{$\Upsilon$}	[]	16
{$\Xi$}	[]	6
