Q	U	V
{$V$}	{[mm$^3$]}	0.0038782
{$d_v$}	{[mm]}	0.194929
{$S_c$}	{[mm$^2$]}	0.203213
{$S_o$}	{[mm$^2$]}	0.137994
{$S_l/S_o$}	[]	0.472622
{$\Psi$}	[]	0.587425
{$\eta$}	[]	0.641745
{med($\theta_e$)}	{[$^\circ$]}	73.0258
{$\Upsilon$}	[]	12
{$\Xi$}	[]	10
