Q	U	V
{$V$}	{[mm$^3$]}	0.00324648
{$d_v$}	{[mm]}	0.183712
{$S_c$}	{[mm$^2$]}	0.194362
{$S_o$}	{[mm$^2$]}	0.114358
{$S_l/S_o$}	[]	0.699593
{$\Psi$}	[]	0.545525
{$\eta$}	[]	0.592703
{med($\theta_e$)}	{[$^\circ$]}	69.0504
{$\Upsilon$}	[]	13
{$\Xi$}	[]	9
