Q	U	V
{$V$}	{[mm$^3$]}	0.00276913
{$d_v$}	{[mm]}	0.174227
{$S_c$}	{[mm$^2$]}	0.17429
{$S_o$}	{[mm$^2$]}	0.099777
{$S_l/S_o$}	[]	0.746795
{$\Psi$}	[]	0.547151
{$\eta$}	[]	0.573946
{med($\theta_e$)}	{[$^\circ$]}	78.2112
{$\Upsilon$}	[]	11
{$\Xi$}	[]	6
