Q	U	V
{$V$}	{[mm$^3$]}	0.00141425
{$d_v$}	{[mm]}	0.139265
{$S_c$}	{[mm$^2$]}	0.116012
{$S_o$}	{[mm$^2$]}	0.0622608
{$S_l/S_o$}	[]	0.863323
{$\Psi$}	[]	0.525209
{$\eta$}	[]	0.654349
{med($\theta_e$)}	{[$^\circ$]}	54.3933
{$\Upsilon$}	[]	15
{$\Xi$}	[]	6
