Q	U	V
{$V$}	{[mm$^3$]}	0.00814826
{$d_v$}	{[mm]}	0.249664
{$S_c$}	{[mm$^2$]}	0.354685
{$S_o$}	{[mm$^2$]}	0.227794
{$S_l/S_o$}	[]	0.557043
{$\Psi$}	[]	0.5521
{$\eta$}	[]	0.563066
{med($\theta_e$)}	{[$^\circ$]}	61.359
{$\Upsilon$}	[]	14
{$\Xi$}	[]	10
