Q	U	V
{$V$}	{[mm$^3$]}	0.0135749
{$d_v$}	{[mm]}	0.295969
{$S_c$}	{[mm$^2$]}	0.523601
{$S_o$}	{[mm$^2$]}	0.368447
{$S_l/S_o$}	[]	0.421103
{$\Psi$}	[]	0.525583
{$\eta$}	[]	0.588746
{med($\theta_e$)}	{[$^\circ$]}	64.1874
{$\Upsilon$}	[]	15
{$\Xi$}	[]	15
