Q	U	V
{$V$}	{[mm$^3$]}	0.00243902
{$d_v$}	{[mm]}	0.167009
{$S_c$}	{[mm$^2$]}	0.142847
{$S_o$}	{[mm$^2$]}	0.0821837
{$S_l/S_o$}	[]	0.738143
{$\Psi$}	[]	0.613418
{$\eta$}	[]	0.683672
{med($\theta_e$)}	{[$^\circ$]}	72.1522
{$\Upsilon$}	[]	14
{$\Xi$}	[]	5
