Q	U	V
{$V$}	{[mm$^3$]}	0.00171942
{$d_v$}	{[mm]}	0.148637
{$S_c$}	{[mm$^2$]}	0.104423
{$S_o$}	{[mm$^2$]}	0.0804584
{$S_l/S_o$}	[]	0.297851
{$\Psi$}	[]	0.664675
{$\eta$}	[]	0.712288
{med($\theta_e$)}	{[$^\circ$]}	69.8468
{$\Upsilon$}	[]	18
{$\Xi$}	[]	5
