Q	U	V
{$V$}	{[mm$^3$]}	0.0044173
{$d_v$}	{[mm]}	0.203573
{$S_c$}	{[mm$^2$]}	0.320791
{$S_o$}	{[mm$^2$]}	0.1823
{$S_l/S_o$}	[]	0.759687
{$\Psi$}	[]	0.405851
{$\eta$}	[]	0.433422
{med($\theta_e$)}	{[$^\circ$]}	72.0651
{$\Upsilon$}	[]	13
{$\Xi$}	[]	11
