Q	U	V
{$V$}	{[mm$^3$]}	0.00416319
{$d_v$}	{[mm]}	0.199592
{$S_c$}	{[mm$^2$]}	0.220081
{$S_o$}	{[mm$^2$]}	0.130636
{$S_l/S_o$}	[]	0.684689
{$\Psi$}	[]	0.56866
{$\eta$}	[]	0.602705
{med($\theta_e$)}	{[$^\circ$]}	66.1758
{$\Upsilon$}	[]	10
{$\Xi$}	[]	7
