Q	U	V
{$V$}	{[mm$^3$]}	0.00801764
{$d_v$}	{[mm]}	0.248322
{$S_c$}	{[mm$^2$]}	0.440441
{$S_o$}	{[mm$^2$]}	0.264309
{$S_l/S_o$}	[]	0.666387
{$\Psi$}	[]	0.439839
{$\eta$}	[]	0.451413
{med($\theta_e$)}	{[$^\circ$]}	88.9357
{$\Upsilon$}	[]	8
{$\Xi$}	[]	11
