Q	U	V
{$V$}	{[mm$^3$]}	0.00497065
{$d_v$}	{[mm]}	0.211741
{$S_c$}	{[mm$^2$]}	0.255673
{$S_o$}	{[mm$^2$]}	0.16192
{$S_l/S_o$}	[]	0.579008
{$\Psi$}	[]	0.550902
{$\eta$}	[]	0.619979
{med($\theta_e$)}	{[$^\circ$]}	66.91225
{$\Upsilon$}	[]	14
{$\Xi$}	[]	7
