Q	U	V
{$V$}	{[mm$^3$]}	0.00260645
{$d_v$}	{[mm]}	0.170746
{$S_c$}	{[mm$^2$]}	0.190142
{$S_o$}	{[mm$^2$]}	0.100479
{$S_l/S_o$}	[]	0.892356
{$\Psi$}	[]	0.481695
{$\eta$}	[]	0.517134
{med($\theta_e$)}	{[$^\circ$]}	73.76385
{$\Upsilon$}	[]	14
{$\Xi$}	[]	4
