Q	U	V
{$V$}	{[mm$^3$]}	0.00504071
{$d_v$}	{[mm]}	0.212731
{$S_c$}	{[mm$^2$]}	0.300593
{$S_o$}	{[mm$^2$]}	0.167335
{$S_l/S_o$}	[]	0.796355
{$\Psi$}	[]	0.472969
{$\eta$}	[]	0.511555
{med($\theta_e$)}	{[$^\circ$]}	98.7996
{$\Upsilon$}	[]	14
{$\Xi$}	[]	10
