Q	U	V
{$V$}	{[mm$^3$]}	0.00899609
{$d_v$}	{[mm]}	0.258039
{$S_c$}	{[mm$^2$]}	0.307506
{$S_o$}	{[mm$^2$]}	0.213527
{$S_l/S_o$}	[]	0.440127
{$\Psi$}	[]	0.680247
{$\eta$}	[]	0.732922
{med($\theta_e$)}	{[$^\circ$]}	63.9512
{$\Upsilon$}	[]	11
{$\Xi$}	[]	9
