Q	U	V
{$V$}	{[mm$^3$]}	0.00666039
{$d_v$}	{[mm]}	0.233436
{$S_c$}	{[mm$^2$]}	0.422898
{$S_o$}	{[mm$^2$]}	0.259998
{$S_l/S_o$}	[]	0.626543
{$\Psi$}	[]	0.404807
{$\eta$}	[]	0.426982
{med($\theta_e$)}	{[$^\circ$]}	85.5458
{$\Upsilon$}	[]	9
{$\Xi$}	[]	19
