Q	U	V
{$V$}	{[mm$^3$]}	0.0088916
{$d_v$}	{[mm]}	0.257036
{$S_c$}	{[mm$^2$]}	0.356242
{$S_o$}	{[mm$^2$]}	0.231098
{$S_l/S_o$}	[]	0.541519
{$\Psi$}	[]	0.582629
{$\eta$}	[]	0.625491
{med($\theta_e$)}	{[$^\circ$]}	57.47265
{$\Upsilon$}	[]	17
{$\Xi$}	[]	12
