Q	U	V
{$V$}	{[mm$^3$]}	0.00157099
{$d_v$}	{[mm]}	0.144231
{$S_c$}	{[mm$^2$]}	0.131761
{$S_o$}	{[mm$^2$]}	0.0681911
{$S_l/S_o$}	[]	0.932232
{$\Psi$}	[]	0.495998
{$\eta$}	[]	0.516440
{med($\theta_e$)}	{[$^\circ$]}	98.2725
{$\Upsilon$}	[]	13
{$\Xi$}	[]	5
