Q	U	V
{$V$}	{[mm$^3$]}	0.00550975
{$d_v$}	{[mm]}	0.219135
{$S_c$}	{[mm$^2$]}	0.358224
{$S_o$}	{[mm$^2$]}	0.183834
{$S_l/S_o$}	[]	0.948628
{$\Psi$}	[]	0.421131
{$\eta$}	[]	0.456848
{med($\theta_e$)}	{[$^\circ$]}	94.3686
{$\Upsilon$}	[]	11
{$\Xi$}	[]	5
