Q	U	V
{$V$}	{[mm$^3$]}	0.0194005
{$d_v$}	{[mm]}	0.333379
{$S_c$}	{[mm$^2$]}	0.72798
{$S_o$}	{[mm$^2$]}	0.452067
{$S_l/S_o$}	[]	0.610337
{$\Psi$}	[]	0.47963
{$\eta$}	[]	0.511863
{med($\theta_e$)}	{[$^\circ$]}	72.1786
{$\Upsilon$}	[]	10
{$\Xi$}	[]	11
