Q	U	V
{$V$}	{[mm$^3$]}	0.0089866
{$d_v$}	{[mm]}	0.257948
{$S_c$}	{[mm$^2$]}	0.446789
{$S_o$}	{[mm$^2$]}	0.269526
{$S_l/S_o$}	[]	0.657684
{$\Psi$}	[]	0.467856
{$\eta$}	[]	0.549340
{med($\theta_e$)}	{[$^\circ$]}	64.3669
{$\Upsilon$}	[]	13
{$\Xi$}	[]	14
