Q	U	V
{$V$}	{[mm$^3$]}	0.00139644
{$d_v$}	{[mm]}	0.138678
{$S_c$}	{[mm$^2$]}	0.136179
{$S_o$}	{[mm$^2$]}	0.0665041
{$S_l/S_o$}	[]	1.047678
{$\Psi$}	[]	0.443665
{$\eta$}	[]	0.475566
{med($\theta_e$)}	{[$^\circ$]}	87.8317
{$\Upsilon$}	[]	20
{$\Xi$}	[]	4
