Q	U	V
{$V$}	{[mm$^3$]}	0.0024307
{$d_v$}	{[mm]}	0.166819
{$S_c$}	{[mm$^2$]}	0.179974
{$S_o$}	{[mm$^2$]}	0.093566
{$S_l/S_o$}	[]	0.923498
{$\Psi$}	[]	0.485768
{$\eta$}	[]	0.493913
{med($\theta_e$)}	{[$^\circ$]}	
{$\Upsilon$}	[]	14
{$\Xi$}	[]	4
