Q	U	V
{$V$}	{[mm$^3$]}	0.00143206
{$d_v$}	{[mm]}	0.139847
{$S_c$}	{[mm$^2$]}	0.122708
{$S_o$}	{[mm$^2$]}	0.0591003
{$S_l/S_o$}	[]	1.076267
{$\Psi$}	[]	0.500709
{$\eta$}	[]	0.584743
{med($\theta_e$)}	{[$^\circ$]}	77.913
{$\Upsilon$}	[]	12
{$\Xi$}	[]	3
