Q	U	V
{$V$}	{[mm$^3$]}	0.00163749
{$d_v$}	{[mm]}	0.146238
{$S_c$}	{[mm$^2$]}	0.140907
{$S_o$}	{[mm$^2$]}	0.0725749
{$S_l/S_o$}	[]	0.941539
{$\Psi$}	[]	0.476801
{$\eta$}	[]	0.516945
{med($\theta_e$)}	{[$^\circ$]}	
{$\Upsilon$}	[]	13
{$\Xi$}	[]	6
