Q	U	V
{$V$}	{[mm$^3$]}	0.00265276
{$d_v$}	{[mm]}	0.171751
{$S_c$}	{[mm$^2$]}	0.166311
{$S_o$}	{[mm$^2$]}	0.0914003
{$S_l/S_o$}	[]	0.819589
{$\Psi$}	[]	0.557222
{$\eta$}	[]	0.610242
{med($\theta_e$)}	{[$^\circ$]}	54.84165
{$\Upsilon$}	[]	17
{$\Xi$}	[]	3
