Q	U	V
{$V$}	{[mm$^3$]}	0.00261594
{$d_v$}	{[mm]}	0.170953
{$S_c$}	{[mm$^2$]}	0.142135
{$S_o$}	{[mm$^2$]}	0.0943186
{$S_l/S_o$}	[]	0.506967
{$\Psi$}	[]	0.645954
{$\eta$}	[]	0.691672
{med($\theta_e$)}	{[$^\circ$]}	62.7226
{$\Upsilon$}	[]	11
{$\Xi$}	[]	10
