Q	U	V
{$V$}	{[mm$^3$]}	0.00650958
{$d_v$}	{[mm]}	0.231660
{$S_c$}	{[mm$^2$]}	0.396118
{$S_o$}	{[mm$^2$]}	0.220078
{$S_l/S_o$}	[]	0.799898
{$\Psi$}	[]	0.425626
{$\eta$}	[]	0.487367
{med($\theta_e$)}	{[$^\circ$]}	77.26825
{$\Upsilon$}	[]	11
{$\Xi$}	[]	13
