Q	U	V
{$V$}	{[mm$^3$]}	0.0179779
{$d_v$}	{[mm]}	0.325023
{$S_c$}	{[mm$^2$]}	0.767877
{$S_o$}	{[mm$^2$]}	0.461122
{$S_l/S_o$}	[]	0.665236
{$\Psi$}	[]	0.4322
{$\eta$}	[]	0.443195
{med($\theta_e$)}	{[$^\circ$]}	78.7656
{$\Upsilon$}	[]	14
{$\Xi$}	[]	13
