Q	U	V
{$V$}	{[mm$^3$]}	0.0087966
{$d_v$}	{[mm]}	0.256117
{$S_c$}	{[mm$^2$]}	0.296842
{$S_o$}	{[mm$^2$]}	0.234119
{$S_l/S_o$}	[]	0.267911
{$\Psi$}	[]	0.694228
{$\eta$}	[]	0.723341
{med($\theta_e$)}	{[$^\circ$]}	72.5155
{$\Upsilon$}	[]	11
{$\Xi$}	[]	5
