Q	U	V
{$V$}	{[mm$^3$]}	0.0066117
{$d_v$}	{[mm]}	0.232865
{$S_c$}	{[mm$^2$]}	0.362687
{$S_o$}	{[mm$^2$]}	0.207112
{$S_l/S_o$}	[]	0.751164
{$\Psi$}	[]	0.469708
{$\eta$}	[]	0.489634
{med($\theta_e$)}	{[$^\circ$]}	91.5522
{$\Upsilon$}	[]	14
{$\Xi$}	[]	8
