Q	U	V
{$V$}	{[mm$^3$]}	0.00361815
{$d_v$}	{[mm]}	0.190471
{$S_c$}	{[mm$^2$]}	0.198362
{$S_o$}	{[mm$^2$]}	0.130836
{$S_l/S_o$}	[]	0.516112
{$\Psi$}	[]	0.574579
{$\eta$}	[]	0.638802
{med($\theta_e$)}	{[$^\circ$]}	70.2844
{$\Upsilon$}	[]	11
{$\Xi$}	[]	8
