Q	U	V
{$V$}	{[mm$^3$]}	0.00170636
{$d_v$}	{[mm]}	0.148260
{$S_c$}	{[mm$^2$]}	0.0973081
{$S_o$}	{[mm$^2$]}	0.0642509
{$S_l/S_o$}	[]	0.514502
{$\Psi$}	[]	0.709658
{$\eta$}	[]	0.716969
{med($\theta_e$)}	{[$^\circ$]}	54.9296
{$\Upsilon$}	[]	17
{$\Xi$}	[]	8
