Q	U	V
{$V$}	{[mm$^3$]}	0.00599186
{$d_v$}	{[mm]}	0.225348
{$S_c$}	{[mm$^2$]}	0.355107
{$S_o$}	{[mm$^2$]}	0.194136
{$S_l/S_o$}	[]	0.829166
{$\Psi$}	[]	0.449262
{$\eta$}	[]	0.491055
{med($\theta_e$)}	{[$^\circ$]}	66.39955
{$\Upsilon$}	[]	11
{$\Xi$}	[]	7
