Q	U	V
{$V$}	{[mm$^3$]}	0.00530432
{$d_v$}	{[mm]}	0.216377
{$S_c$}	{[mm$^2$]}	0.292668
{$S_o$}	{[mm$^2$]}	0.155729
{$S_l/S_o$}	[]	0.879342
{$\Psi$}	[]	0.502569
{$\eta$}	[]	0.556115
{med($\theta_e$)}	{[$^\circ$]}	82.8483
{$\Upsilon$}	[]	9
{$\Xi$}	[]	6
