Q	U	V
{$V$}	{[mm$^3$]}	0.00875029
{$d_v$}	{[mm]}	0.255667
{$S_c$}	{[mm$^2$]}	0.500424
{$S_o$}	{[mm$^2$]}	0.313294
{$S_l/S_o$}	[]	0.597298
{$\Psi$}	[]	0.410356
{$\eta$}	[]	0.452254
{med($\theta_e$)}	{[$^\circ$]}	76.6977
{$\Upsilon$}	[]	10
{$\Xi$}	[]	10
