Q	U	V
{$V$}	{[mm$^3$]}	0.00695131
{$d_v$}	{[mm]}	0.236786
{$S_c$}	{[mm$^2$]}	0.327067
{$S_o$}	{[mm$^2$]}	0.205863
{$S_l/S_o$}	[]	0.588760
{$\Psi$}	[]	0.538549
{$\eta$}	[]	0.556907
{med($\theta_e$)}	{[$^\circ$]}	77.7832
{$\Upsilon$}	[]	12
{$\Xi$}	[]	7
