Q	U	V
{$V$}	{[mm$^3$]}	0.00672095
{$d_v$}	{[mm]}	0.234141
{$S_c$}	{[mm$^2$]}	0.292275
{$S_o$}	{[mm$^2$]}	0.199975
{$S_l/S_o$}	[]	0.461558
{$\Psi$}	[]	0.589268
{$\eta$}	[]	0.635952
{med($\theta_e$)}	{[$^\circ$]}	61.8943
{$\Upsilon$}	[]	15
{$\Xi$}	[]	12
