Q	U	V
{$V$}	{[mm$^3$]}	0.00130857
{$d_v$}	{[mm]}	0.135706
{$S_c$}	{[mm$^2$]}	0.074892
{$S_o$}	{[mm$^2$]}	0.0461414
{$S_l/S_o$}	[]	0.623098
{$\Psi$}	[]	0.772526
{$\eta$}	[]	0.779668
{med($\theta_e$)}	{[$^\circ$]}	53.2216
{$\Upsilon$}	[]	16
{$\Xi$}	[]	5
