Q	U	V
{$V$}	{[mm$^3$]}	0.00173723
{$d_v$}	{[mm]}	0.149149
{$S_c$}	{[mm$^2$]}	0.135143
{$S_o$}	{[mm$^2$]}	0.0759025
{$S_l/S_o$}	[]	0.780482
{$\Psi$}	[]	0.517125
{$\eta$}	[]	0.573739
{med($\theta_e$)}	{[$^\circ$]}	59.9815
{$\Upsilon$}	[]	22
{$\Xi$}	[]	7
