Q	U	V
{$V$}	{[mm$^3$]}	0.00514046
{$d_v$}	{[mm]}	0.214125
{$S_c$}	{[mm$^2$]}	0.342548
{$S_o$}	{[mm$^2$]}	0.185498
{$S_l/S_o$}	[]	0.846640
{$\Psi$}	[]	0.420498
{$\eta$}	[]	0.437527
{med($\theta_e$)}	{[$^\circ$]}	
{$\Upsilon$}	[]	13
{$\Xi$}	[]	10
