Q	U	V
{$V$}	{[mm$^3$]}	0.00316217
{$d_v$}	{[mm]}	0.182108
{$S_c$}	{[mm$^2$]}	0.146421
{$S_o$}	{[mm$^2$]}	0.0856885
{$S_l/S_o$}	[]	0.708759
{$\Psi$}	[]	0.711548
{$\eta$}	[]	0.781063
{med($\theta_e$)}	{[$^\circ$]}	59.91275
{$\Upsilon$}	[]	12
{$\Xi$}	[]	4
