Q	U	V
{$V$}	{[mm$^3$]}	0.00361696
{$d_v$}	{[mm]}	0.190450
{$S_c$}	{[mm$^2$]}	0.221322
{$S_o$}	{[mm$^2$]}	0.112779
{$S_l/S_o$}	[]	0.962440
{$\Psi$}	[]	0.514859
{$\eta$}	[]	0.546344
{med($\theta_e$)}	{[$^\circ$]}	95.159
{$\Upsilon$}	[]	7
{$\Xi$}	[]	8
