Q	U	V
{$V$}	{[mm$^3$]}	0.00710687
{$d_v$}	{[mm]}	0.238539
{$S_c$}	{[mm$^2$]}	0.289827
{$S_o$}	{[mm$^2$]}	0.19421
{$S_l/S_o$}	[]	0.492338
{$\Psi$}	[]	0.616781
{$\eta$}	[]	0.647086
{med($\theta_e$)}	{[$^\circ$]}	57.76075
{$\Upsilon$}	[]	20
{$\Xi$}	[]	11
