Q	U	V
{$V$}	{[mm$^3$]}	0.00796064
{$d_v$}	{[mm]}	0.247733
{$S_c$}	{[mm$^2$]}	0.456231
{$S_o$}	{[mm$^2$]}	0.235142
{$S_l/S_o$}	[]	0.940236
{$\Psi$}	[]	0.422602
{$\eta$}	[]	0.432636
{med($\theta_e$)}	{[$^\circ$]}	
{$\Upsilon$}	[]	16
{$\Xi$}	[]	15
