Q	U	V
{$V$}	{[mm$^3$]}	0.0144595
{$d_v$}	{[mm]}	0.302263
{$S_c$}	{[mm$^2$]}	0.488684
{$S_o$}	{[mm$^2$]}	0.350257
{$S_l/S_o$}	[]	0.395216
{$\Psi$}	[]	0.587343
{$\eta$}	[]	0.616165
{med($\theta_e$)}	{[$^\circ$]}	55.92655
{$\Upsilon$}	[]	18
{$\Xi$}	[]	10
