Q	U	V
{$V$}	{[mm$^3$]}	0.00438999
{$d_v$}	{[mm]}	0.203152
{$S_c$}	{[mm$^2$]}	0.245349
{$S_o$}	{[mm$^2$]}	0.167749
{$S_l/S_o$}	[]	0.462596
{$\Psi$}	[]	0.528456
{$\eta$}	[]	0.554035
{med($\theta_e$)}	{[$^\circ$]}	68.58735
{$\Upsilon$}	[]	14
{$\Xi$}	[]	11
