Q	U	V
{$V$}	{[mm$^3$]}	0.00408838
{$d_v$}	{[mm]}	0.198389
{$S_c$}	{[mm$^2$]}	0.212039
{$S_o$}	{[mm$^2$]}	0.124976
{$S_l/S_o$}	[]	0.696638
{$\Psi$}	[]	0.583135
{$\eta$}	[]	0.656870
{med($\theta_e$)}	{[$^\circ$]}	54.9077
{$\Upsilon$}	[]	14
{$\Xi$}	[]	7
