Q	U	V
{$V$}	{[mm$^3$]}	0.00308974
{$d_v$}	{[mm]}	0.180707
{$S_c$}	{[mm$^2$]}	0.204451
{$S_o$}	{[mm$^2$]}	0.101234
{$S_l/S_o$}	[]	1.019588
{$\Psi$}	[]	0.501776
{$\eta$}	[]	0.554852
{med($\theta_e$)}	{[$^\circ$]}	
{$\Upsilon$}	[]	13
{$\Xi$}	[]	6
