Q	U	V
{$V$}	{[mm$^3$]}	0.00952332
{$d_v$}	{[mm]}	0.262984
{$S_c$}	{[mm$^2$]}	0.327843
{$S_o$}	{[mm$^2$]}	0.224633
{$S_l/S_o$}	[]	0.459461
{$\Psi$}	[]	0.662741
{$\eta$}	[]	0.705353
{med($\theta_e$)}	{[$^\circ$]}	70.2068
{$\Upsilon$}	[]	9
{$\Xi$}	[]	14
