Q	U	V
{$V$}	{[mm$^3$]}	0.00211247
{$d_v$}	{[mm]}	0.159195
{$S_c$}	{[mm$^2$]}	0.106909
{$S_o$}	{[mm$^2$]}	0.0709079
{$S_l/S_o$}	[]	0.507716
{$\Psi$}	[]	0.744727
{$\eta$}	[]	0.757541
{med($\theta_e$)}	{[$^\circ$]}	62.6117
{$\Upsilon$}	[]	15
{$\Xi$}	[]	7
