Q	U	V
{$V$}	{[mm$^3$]}	0.00664495
{$d_v$}	{[mm]}	0.233255
{$S_c$}	{[mm$^2$]}	0.3131
{$S_o$}	{[mm$^2$]}	0.17759
{$S_l/S_o$}	[]	0.763050
{$\Psi$}	[]	0.54592
{$\eta$}	[]	0.610479
{med($\theta_e$)}	{[$^\circ$]}	76.4462
{$\Upsilon$}	[]	9
{$\Xi$}	[]	9
