Q	U	V
{$V$}	{[mm$^3$]}	0.00542663
{$d_v$}	{[mm]}	0.218027
{$S_c$}	{[mm$^2$]}	0.227612
{$S_o$}	{[mm$^2$]}	0.149805
{$S_l/S_o$}	[]	0.519389
{$\Psi$}	[]	0.656109
{$\eta$}	[]	0.694115
{med($\theta_e$)}	{[$^\circ$]}	59.1733
{$\Upsilon$}	[]	14
{$\Xi$}	[]	13
