Q	U	V
{$V$}	{[mm$^3$]}	0.00312417
{$d_v$}	{[mm]}	0.181376
{$S_c$}	{[mm$^2$]}	0.161135
{$S_o$}	{[mm$^2$]}	0.114756
{$S_l/S_o$}	[]	0.404153
{$\Psi$}	[]	0.641383
{$\eta$}	[]	0.645086
{med($\theta_e$)}	{[$^\circ$]}	57.5373
{$\Upsilon$}	[]	14
{$\Xi$}	[]	8
