Q	U	V
{$V$}	{[mm$^3$]}	0.00364665
{$d_v$}	{[mm]}	0.190970
{$S_c$}	{[mm$^2$]}	0.236979
{$S_o$}	{[mm$^2$]}	0.116201
{$S_l/S_o$}	[]	1.039389
{$\Psi$}	[]	0.483471
{$\eta$}	[]	0.546652
{med($\theta_e$)}	{[$^\circ$]}	
{$\Upsilon$}	[]	16
{$\Xi$}	[]	4
