Q	U	V
{$V$}	{[mm$^3$]}	0.00282494
{$d_v$}	{[mm]}	0.175389
{$S_c$}	{[mm$^2$]}	0.179609
{$S_o$}	{[mm$^2$]}	0.106248
{$S_l/S_o$}	[]	0.690469
{$\Psi$}	[]	0.538058
{$\eta$}	[]	0.575155
{med($\theta_e$)}	{[$^\circ$]}	51.41295
{$\Upsilon$}	[]	13
{$\Xi$}	[]	7
