Q	U	V
{$V$}	{[mm$^3$]}	0.0154807
{$d_v$}	{[mm]}	0.309217
{$S_c$}	{[mm$^2$]}	0.624213
{$S_o$}	{[mm$^2$]}	0.437805
{$S_l/S_o$}	[]	0.425779
{$\Psi$}	[]	0.481222
{$\eta$}	[]	0.501991
{med($\theta_e$)}	{[$^\circ$]}	62.9303
{$\Upsilon$}	[]	15
{$\Xi$}	[]	19
