Q	U	V
{$V$}	{[mm$^3$]}	0.00621272
{$d_v$}	{[mm]}	0.228084
{$S_c$}	{[mm$^2$]}	0.290656
{$S_o$}	{[mm$^2$]}	0.175595
{$S_l/S_o$}	[]	0.655264
{$\Psi$}	[]	0.562289
{$\eta$}	[]	0.601828
{med($\theta_e$)}	{[$^\circ$]}	
{$\Upsilon$}	[]	16
{$\Xi$}	[]	11
