Q	U	V
{$V$}	{[mm$^3$]}	0.00240695
{$d_v$}	{[mm]}	0.166273
{$S_c$}	{[mm$^2$]}	0.120324
{$S_o$}	{[mm$^2$]}	0.0706021
{$S_l/S_o$}	[]	0.704255
{$\Psi$}	[]	0.721844
{$\eta$}	[]	0.738455
{med($\theta_e$)}	{[$^\circ$]}	53.3392
{$\Upsilon$}	[]	15
{$\Xi$}	[]	3
