Q	U	V
{$V$}	{[mm$^3$]}	0.00407175
{$d_v$}	{[mm]}	0.198120
{$S_c$}	{[mm$^2$]}	0.237697
{$S_o$}	{[mm$^2$]}	0.144676
{$S_l/S_o$}	[]	0.642961
{$\Psi$}	[]	0.518778
{$\eta$}	[]	0.610311
{med($\theta_e$)}	{[$^\circ$]}	70.52265
{$\Upsilon$}	[]	12
{$\Xi$}	[]	6
