Q	U	V
{$V$}	{[mm$^3$]}	0.00634215
{$d_v$}	{[mm]}	0.229657
{$S_c$}	{[mm$^2$]}	0.354101
{$S_o$}	{[mm$^2$]}	0.210592
{$S_l/S_o$}	[]	0.681455
{$\Psi$}	[]	0.46793
{$\eta$}	[]	0.554785
{med($\theta_e$)}	{[$^\circ$]}	78.19
{$\Upsilon$}	[]	12
{$\Xi$}	[]	10
