Q	U	V
{$V$}	{[mm$^3$]}	0.00344597
{$d_v$}	{[mm]}	0.187401
{$S_c$}	{[mm$^2$]}	0.18446
{$S_o$}	{[mm$^2$]}	0.116413
{$S_l/S_o$}	[]	0.584531
{$\Psi$}	[]	0.598122
{$\eta$}	[]	0.637542
{med($\theta_e$)}	{[$^\circ$]}	66.35955
{$\Upsilon$}	[]	12
{$\Xi$}	[]	10
