Q	U	V
{$V$}	{[mm$^3$]}	0.00855911
{$d_v$}	{[mm]}	0.253791
{$S_c$}	{[mm$^2$]}	0.430382
{$S_o$}	{[mm$^2$]}	0.290305
{$S_l/S_o$}	[]	0.482517
{$\Psi$}	[]	0.470164
{$\eta$}	[]	0.535106
{med($\theta_e$)}	{[$^\circ$]}	
{$\Upsilon$}	[]	11
{$\Xi$}	[]	6
