Q	U	V
{$V$}	{[mm$^3$]}	0.00314792
{$d_v$}	{[mm]}	0.181834
{$S_c$}	{[mm$^2$]}	0.208502
{$S_o$}	{[mm$^2$]}	0.114601
{$S_l/S_o$}	[]	0.819373
{$\Psi$}	[]	0.498184
{$\eta$}	[]	0.533592
{med($\theta_e$)}	{[$^\circ$]}	66.8895
{$\Upsilon$}	[]	14
{$\Xi$}	[]	4
