Q	U	V
{$V$}	{[mm$^3$]}	0.00464648
{$d_v$}	{[mm]}	0.207034
{$S_c$}	{[mm$^2$]}	0.225732
{$S_o$}	{[mm$^2$]}	0.144547
{$S_l/S_o$}	[]	0.561651
{$\Psi$}	[]	0.596541
{$\eta$}	[]	0.695240
{med($\theta_e$)}	{[$^\circ$]}	63.6473
{$\Upsilon$}	[]	14
{$\Xi$}	[]	5
