Q	U	V
{$V$}	{[mm$^3$]}	0.0027145
{$d_v$}	{[mm]}	0.173073
{$S_c$}	{[mm$^2$]}	0.156592
{$S_o$}	{[mm$^2$]}	0.0823512
{$S_l/S_o$}	[]	0.901514
{$\Psi$}	[]	0.600954
{$\eta$}	[]	0.656004
{med($\theta_e$)}	{[$^\circ$]}	44.8961
{$\Upsilon$}	[]	14
{$\Xi$}	[]	8
