Q	U	V
{$V$}	{[mm$^3$]}	0.00469754
{$d_v$}	{[mm]}	0.207790
{$S_c$}	{[mm$^2$]}	0.257959
{$S_o$}	{[mm$^2$]}	0.143695
{$S_l/S_o$}	[]	0.795184
{$\Psi$}	[]	0.525832
{$\eta$}	[]	0.553022
{med($\theta_e$)}	{[$^\circ$]}	64.5691
{$\Upsilon$}	[]	11
{$\Xi$}	[]	6
