Q	U	V
{$V$}	{[mm$^3$]}	0.00233333
{$d_v$}	{[mm]}	0.164561
{$S_c$}	{[mm$^2$]}	0.138385
{$S_o$}	{[mm$^2$]}	0.0842389
{$S_l/S_o$}	[]	0.642768
{$\Psi$}	[]	0.61477
{$\eta$}	[]	0.680900
{med($\theta_e$)}	{[$^\circ$]}	62.7853
{$\Upsilon$}	[]	14
{$\Xi$}	[]	5
