Q	U	V
{$V$}	{[mm$^3$]}	0.00408719
{$d_v$}	{[mm]}	0.198370
{$S_c$}	{[mm$^2$]}	0.300737
{$S_o$}	{[mm$^2$]}	0.152539
{$S_l/S_o$}	[]	0.971542
{$\Psi$}	[]	0.411068
{$\eta$}	[]	0.460136
{med($\theta_e$)}	{[$^\circ$]}	87.6326
{$\Upsilon$}	[]	12
{$\Xi$}	[]	7
