Q	U	V
{$V$}	{[mm$^3$]}	0.00210059
{$d_v$}	{[mm]}	0.158896
{$S_c$}	{[mm$^2$]}	0.127763
{$S_o$}	{[mm$^2$]}	0.0734435
{$S_l/S_o$}	[]	0.739609
{$\Psi$}	[]	0.620831
{$\eta$}	[]	0.680880
{med($\theta_e$)}	{[$^\circ$]}	53.7217
{$\Upsilon$}	[]	13
{$\Xi$}	[]	5
