Q	U	V
{$V$}	{[mm$^3$]}	0.00319304
{$d_v$}	{[mm]}	0.182699
{$S_c$}	{[mm$^2$]}	0.219722
{$S_o$}	{[mm$^2$]}	0.121683
{$S_l/S_o$}	[]	0.805692
{$\Psi$}	[]	0.477251
{$\eta$}	[]	0.509125
{med($\theta_e$)}	{[$^\circ$]}	84.1322
{$\Upsilon$}	[]	15
{$\Xi$}	[]	6
