Q	U	V
{$V$}	{[mm$^3$]}	0.00293774
{$d_v$}	{[mm]}	0.177694
{$S_c$}	{[mm$^2$]}	0.21035
{$S_o$}	{[mm$^2$]}	0.106241
{$S_l/S_o$}	[]	0.979932
{$\Psi$}	[]	0.471575
{$\eta$}	[]	0.496815
{med($\theta_e$)}	{[$^\circ$]}	
{$\Upsilon$}	[]	15
{$\Xi$}	[]	6
