Q	U	V
{$V$}	{[mm$^3$]}	0.00415488
{$d_v$}	{[mm]}	0.199459
{$S_c$}	{[mm$^2$]}	0.23816
{$S_o$}	{[mm$^2$]}	0.138052
{$S_l/S_o$}	[]	0.725147
{$\Psi$}	[]	0.524793
{$\eta$}	[]	0.563604
{med($\theta_e$)}	{[$^\circ$]}	74.6576
{$\Upsilon$}	[]	9
{$\Xi$}	[]	9
