Q	U	V
{$V$}	{[mm$^3$]}	0.00307074
{$d_v$}	{[mm]}	0.180336
{$S_c$}	{[mm$^2$]}	0.238397
{$S_o$}	{[mm$^2$]}	0.130643
{$S_l/S_o$}	[]	0.824797
{$\Psi$}	[]	0.42856
{$\eta$}	[]	0.459662
{med($\theta_e$)}	{[$^\circ$]}	70.8328
{$\Upsilon$}	[]	12
{$\Xi$}	[]	11
