Q	U	V
{$V$}	{[mm$^3$]}	0.00327854
{$d_v$}	{[mm]}	0.184315
{$S_c$}	{[mm$^2$]}	0.22997
{$S_o$}	{[mm$^2$]}	0.123754
{$S_l/S_o$}	[]	0.858283
{$\Psi$}	[]	0.464088
{$\eta$}	[]	0.485146
{med($\theta_e$)}	{[$^\circ$]}	
{$\Upsilon$}	[]	18
{$\Xi$}	[]	4
