Q	U	V
{$V$}	{[mm$^3$]}	0.0194254
{$d_v$}	{[mm]}	0.333521
{$S_c$}	{[mm$^2$]}	0.592796
{$S_o$}	{[mm$^2$]}	0.395879
{$S_l/S_o$}	[]	0.497417
{$\Psi$}	[]	0.589511
{$\eta$}	[]	0.626096
{med($\theta_e$)}	{[$^\circ$]}	52.4954
{$\Upsilon$}	[]	17
{$\Xi$}	[]	11
