Q	U	V
{$V$}	{[mm$^3$]}	0.00408244
{$d_v$}	{[mm]}	0.198293
{$S_c$}	{[mm$^2$]}	0.285008
{$S_o$}	{[mm$^2$]}	0.144737
{$S_l/S_o$}	[]	0.969144
{$\Psi$}	[]	0.433418
{$\eta$}	[]	0.457071
{med($\theta_e$)}	{[$^\circ$]}	112.224
{$\Upsilon$}	[]	13
{$\Xi$}	[]	1
