Q	U	V
{$V$}	{[mm$^3$]}	0.00767565
{$d_v$}	{[mm]}	0.244740
{$S_c$}	{[mm$^2$]}	0.291971
{$S_o$}	{[mm$^2$]}	0.197851
{$S_l/S_o$}	[]	0.475712
{$\Psi$}	[]	0.644497
{$\eta$}	[]	0.668419
{med($\theta_e$)}	{[$^\circ$]}	61.0478
{$\Upsilon$}	[]	14
{$\Xi$}	[]	12
