Q	U	V
{$V$}	{[mm$^3$]}	0.00300899
{$d_v$}	{[mm]}	0.179119
{$S_c$}	{[mm$^2$]}	0.162147
{$S_o$}	{[mm$^2$]}	0.0992799
{$S_l/S_o$}	[]	0.633231
{$\Psi$}	[]	0.621616
{$\eta$}	[]	0.634215
{med($\theta_e$)}	{[$^\circ$]}	80.11205
{$\Upsilon$}	[]	7
{$\Xi$}	[]	8
