Q	U	V
{$V$}	{[mm$^3$]}	0.00443749
{$d_v$}	{[mm]}	0.203882
{$S_c$}	{[mm$^2$]}	0.309121
{$S_o$}	{[mm$^2$]}	0.16805
{$S_l/S_o$}	[]	0.839458
{$\Psi$}	[]	0.422455
{$\eta$}	[]	0.507808
{med($\theta_e$)}	{[$^\circ$]}	68.4983
{$\Upsilon$}	[]	14
{$\Xi$}	[]	10
