Q	U	V
{$V$}	{[mm$^3$]}	0.00210772
{$d_v$}	{[mm]}	0.159076
{$S_c$}	{[mm$^2$]}	0.126956
{$S_o$}	{[mm$^2$]}	0.0728518
{$S_l/S_o$}	[]	0.742661
{$\Psi$}	[]	0.62619
{$\eta$}	[]	0.673812
{med($\theta_e$)}	{[$^\circ$]}	76.3986
{$\Upsilon$}	[]	11
{$\Xi$}	[]	8
