Q	U	V
{$V$}	{[mm$^3$]}	0.00631009
{$d_v$}	{[mm]}	0.229269
{$S_c$}	{[mm$^2$]}	0.398206
{$S_o$}	{[mm$^2$]}	0.212414
{$S_l/S_o$}	[]	0.874669
{$\Psi$}	[]	0.414699
{$\eta$}	[]	0.500181
{med($\theta_e$)}	{[$^\circ$]}	86.4925
{$\Upsilon$}	[]	13
{$\Xi$}	[]	2
