Q	U	V
{$V$}	{[mm$^3$]}	0.00338897
{$d_v$}	{[mm]}	0.186362
{$S_c$}	{[mm$^2$]}	0.223985
{$S_o$}	{[mm$^2$]}	0.126901
{$S_l/S_o$}	[]	0.765037
{$\Psi$}	[]	0.487129
{$\eta$}	[]	0.551912
{med($\theta_e$)}	{[$^\circ$]}	63.3036
{$\Upsilon$}	[]	12
{$\Xi$}	[]	12
