Q	U	V
{$V$}	{[mm$^3$]}	0.00814113
{$d_v$}	{[mm]}	0.249591
{$S_c$}	{[mm$^2$]}	0.349647
{$S_o$}	{[mm$^2$]}	0.228029
{$S_l/S_o$}	[]	0.533344
{$\Psi$}	[]	0.559729
{$\eta$}	[]	0.572829
{med($\theta_e$)}	{[$^\circ$]}	83.34585
{$\Upsilon$}	[]	15
{$\Xi$}	[]	5
