Q	U	V
{$V$}	{[mm$^3$]}	0.00108533
{$d_v$}	{[mm]}	0.127503
{$S_c$}	{[mm$^2$]}	0.0884689
{$S_o$}	{[mm$^2$]}	0.0507569
{$S_l/S_o$}	[]	0.742993
{$\Psi$}	[]	0.5773
{$\eta$}	[]	0.651996
{med($\theta_e$)}	{[$^\circ$]}	65.84555
{$\Upsilon$}	[]	17
{$\Xi$}	[]	5
