Q	U	V
{$V$}	{[mm$^3$]}	0.0042095
{$d_v$}	{[mm]}	0.200329
{$S_c$}	{[mm$^2$]}	0.285456
{$S_o$}	{[mm$^2$]}	0.16646
{$S_l/S_o$}	[]	0.714862
{$\Psi$}	[]	0.441671
{$\eta$}	[]	0.476970
{med($\theta_e$)}	{[$^\circ$]}	76.1905
{$\Upsilon$}	[]	11
{$\Xi$}	[]	11
