Q	U	V
{$V$}	{[mm$^3$]}	0.00209822
{$d_v$}	{[mm]}	0.158837
{$S_c$}	{[mm$^2$]}	0.159796
{$S_o$}	{[mm$^2$]}	0.0886296
{$S_l/S_o$}	[]	0.802964
{$\Psi$}	[]	0.496004
{$\eta$}	[]	0.513214
{med($\theta_e$)}	{[$^\circ$]}	70.319
{$\Upsilon$}	[]	16
{$\Xi$}	[]	6
