Q	U	V
{$V$}	{[mm$^3$]}	0.00361102
{$d_v$}	{[mm]}	0.190346
{$S_c$}	{[mm$^2$]}	0.232682
{$S_o$}	{[mm$^2$]}	0.136313
{$S_l/S_o$}	[]	0.706969
{$\Psi$}	[]	0.489187
{$\eta$}	[]	0.542212
{med($\theta_e$)}	{[$^\circ$]}	76.181
{$\Upsilon$}	[]	13
{$\Xi$}	[]	7
