Q	U	V
{$V$}	{[mm$^3$]}	0.00915878
{$d_v$}	{[mm]}	0.259585
{$S_c$}	{[mm$^2$]}	0.375425
{$S_o$}	{[mm$^2$]}	0.229953
{$S_l/S_o$}	[]	0.632616
{$\Psi$}	[]	0.563879
{$\eta$}	[]	0.569166
{med($\theta_e$)}	{[$^\circ$]}	65.161
{$\Upsilon$}	[]	14
{$\Xi$}	[]	5
