Q	U	V
{$V$}	{[mm$^3$]}	0.0194551
{$d_v$}	{[mm]}	0.333691
{$S_c$}	{[mm$^2$]}	0.609121
{$S_o$}	{[mm$^2$]}	0.447245
{$S_l/S_o$}	[]	0.361940
{$\Psi$}	[]	0.574297
{$\eta$}	[]	0.587614
{med($\theta_e$)}	{[$^\circ$]}	62.28765
{$\Upsilon$}	[]	13
{$\Xi$}	[]	19
