Q	U	V
{$V$}	{[mm$^3$]}	0.00292706
{$d_v$}	{[mm]}	0.177478
{$S_c$}	{[mm$^2$]}	0.140929
{$S_o$}	{[mm$^2$]}	0.0886702
{$S_l/S_o$}	[]	0.589361
{$\Psi$}	[]	0.702163
{$\eta$}	[]	0.743169
{med($\theta_e$)}	{[$^\circ$]}	62.60265
{$\Upsilon$}	[]	12
{$\Xi$}	[]	3
