Q	U	V
{$V$}	{[mm$^3$]}	0.00201985
{$d_v$}	{[mm]}	0.156834
{$S_c$}	{[mm$^2$]}	0.192645
{$S_o$}	{[mm$^2$]}	0.0880445
{$S_l/S_o$}	[]	1.188041
{$\Psi$}	[]	0.401118
{$\eta$}	[]	0.449770
{med($\theta_e$)}	{[$^\circ$]}	
{$\Upsilon$}	[]	16
{$\Xi$}	[]	3
