Q	U	V
{$V$}	{[mm$^3$]}	0.00536013
{$d_v$}	{[mm]}	0.217133
{$S_c$}	{[mm$^2$]}	0.352569
{$S_o$}	{[mm$^2$]}	0.180478
{$S_l/S_o$}	[]	0.953529
{$\Psi$}	[]	0.420104
{$\eta$}	[]	0.438879
{med($\theta_e$)}	{[$^\circ$]}	77.64595
{$\Upsilon$}	[]	8
{$\Xi$}	[]	10
