Q	U	V
{$V$}	{[mm$^3$]}	0.00179304
{$d_v$}	{[mm]}	0.150729
{$S_c$}	{[mm$^2$]}	0.161165
{$S_o$}	{[mm$^2$]}	0.0927181
{$S_l/S_o$}	[]	0.738226
{$\Psi$}	[]	0.442867
{$\eta$}	[]	0.474034
{med($\theta_e$)}	{[$^\circ$]}	96.9413
{$\Upsilon$}	[]	11
{$\Xi$}	[]	11
