Q	U	V
{$V$}	{[mm$^3$]}	0.00776115
{$d_v$}	{[mm]}	0.245646
{$S_c$}	{[mm$^2$]}	0.404785
{$S_o$}	{[mm$^2$]}	0.238262
{$S_l/S_o$}	[]	0.698907
{$\Psi$}	[]	0.468321
{$\eta$}	[]	0.514488
{med($\theta_e$)}	{[$^\circ$]}	63.3707
{$\Upsilon$}	[]	14
{$\Xi$}	[]	4
