Q	U	V
{$V$}	{[mm$^3$]}	0.00251026
{$d_v$}	{[mm]}	0.168619
{$S_c$}	{[mm$^2$]}	0.170574
{$S_o$}	{[mm$^2$]}	0.106199
{$S_l/S_o$}	[]	0.606173
{$\Psi$}	[]	0.523661
{$\eta$}	[]	0.552789
{med($\theta_e$)}	{[$^\circ$]}	52.61195
{$\Upsilon$}	[]	19
{$\Xi$}	[]	9
