Q	U	V
{$V$}	{[mm$^3$]}	0.0126891
{$d_v$}	{[mm]}	0.289386
{$S_c$}	{[mm$^2$]}	0.611524
{$S_o$}	{[mm$^2$]}	0.353028
{$S_l/S_o$}	[]	0.732225
{$\Psi$}	[]	0.430221
{$\eta$}	[]	0.474930
{med($\theta_e$)}	{[$^\circ$]}	83.8215
{$\Upsilon$}	[]	15
{$\Xi$}	[]	17
