Q	U	V
{$V$}	{[mm$^3$]}	0.00575674
{$d_v$}	{[mm]}	0.222361
{$S_c$}	{[mm$^2$]}	0.254299
{$S_o$}	{[mm$^2$]}	0.179087
{$S_l/S_o$}	[]	0.419975
{$\Psi$}	[]	0.610835
{$\eta$}	[]	0.681222
{med($\theta_e$)}	{[$^\circ$]}	62.46955
{$\Upsilon$}	[]	19
{$\Xi$}	[]	8
