Q	U	V
{$V$}	{[mm$^3$]}	0.00860424
{$d_v$}	{[mm]}	0.254237
{$S_c$}	{[mm$^2$]}	0.28874
{$S_o$}	{[mm$^2$]}	0.202017
{$S_l/S_o$}	[]	0.429286
{$\Psi$}	[]	0.703265
{$\eta$}	[]	0.742104
{med($\theta_e$)}	{[$^\circ$]}	59.843
{$\Upsilon$}	[]	14
{$\Xi$}	[]	11
