Q	U	V
{$V$}	{[mm$^3$]}	0.0140617
{$d_v$}	{[mm]}	0.299465
{$S_c$}	{[mm$^2$]}	0.66052
{$S_o$}	{[mm$^2$]}	0.387386
{$S_l/S_o$}	[]	0.705069
{$\Psi$}	[]	0.426537
{$\eta$}	[]	0.440981
{med($\theta_e$)}	{[$^\circ$]}	99.12205
{$\Upsilon$}	[]	13
{$\Xi$}	[]	8
