Q	U	V
{$V$}	{[mm$^3$]}	0.00142612
{$d_v$}	{[mm]}	0.139654
{$S_c$}	{[mm$^2$]}	0.118031
{$S_o$}	{[mm$^2$]}	0.0654287
{$S_l/S_o$}	[]	0.803964
{$\Psi$}	[]	0.519109
{$\eta$}	[]	0.585452
{med($\theta_e$)}	{[$^\circ$]}	55.9475
{$\Upsilon$}	[]	9
{$\Xi$}	[]	6
