Q	U	V
{$V$}	{[mm$^3$]}	0.00200678
{$d_v$}	{[mm]}	0.156495
{$S_c$}	{[mm$^2$]}	0.144329
{$S_o$}	{[mm$^2$]}	0.0813987
{$S_l/S_o$}	[]	0.773112
{$\Psi$}	[]	0.533086
{$\eta$}	[]	0.584046
{med($\theta_e$)}	{[$^\circ$]}	68.30055
{$\Upsilon$}	[]	19
{$\Xi$}	[]	4
