Q	U	V
{$V$}	{[mm$^3$]}	0.00261357
{$d_v$}	{[mm]}	0.170901
{$S_c$}	{[mm$^2$]}	0.174393
{$S_o$}	{[mm$^2$]}	0.107072
{$S_l/S_o$}	[]	0.628745
{$\Psi$}	[]	0.526152
{$\eta$}	[]	0.566344
{med($\theta_e$)}	{[$^\circ$]}	55.3635
{$\Upsilon$}	[]	16
{$\Xi$}	[]	7
