Q	U	V
{$V$}	{[mm$^3$]}	0.00267413
{$d_v$}	{[mm]}	0.172211
{$S_c$}	{[mm$^2$]}	0.181208
{$S_o$}	{[mm$^2$]}	0.078901
{$S_l/S_o$}	[]	1.296650
{$\Psi$}	[]	0.514156
{$\eta$}	[]	0.563242
{med($\theta_e$)}	{[$^\circ$]}	76.953
{$\Upsilon$}	[]	14
{$\Xi$}	[]	8
