Q	U	V
{$V$}	{[mm$^3$]}	0.00960169
{$d_v$}	{[mm]}	0.263704
{$S_c$}	{[mm$^2$]}	0.504153
{$S_o$}	{[mm$^2$]}	0.281429
{$S_l/S_o$}	[]	0.791404
{$\Psi$}	[]	0.433331
{$\eta$}	[]	0.457403
{med($\theta_e$)}	{[$^\circ$]}	80.29265
{$\Upsilon$}	[]	10
{$\Xi$}	[]	12
