Q	U	V
{$V$}	{[mm$^3$]}	0.00392214
{$d_v$}	{[mm]}	0.195663
{$S_c$}	{[mm$^2$]}	0.215776
{$S_o$}	{[mm$^2$]}	0.136243
{$S_l/S_o$}	[]	0.583758
{$\Psi$}	[]	0.557395
{$\eta$}	[]	0.613595
{med($\theta_e$)}	{[$^\circ$]}	64.8757
{$\Upsilon$}	[]	12
{$\Xi$}	[]	9
