Q	U	V
{$V$}	{[mm$^3$]}	0.00341153
{$d_v$}	{[mm]}	0.186774
{$S_c$}	{[mm$^2$]}	0.191882
{$S_o$}	{[mm$^2$]}	0.110272
{$S_l/S_o$}	[]	0.740079
{$\Psi$}	[]	0.571149
{$\eta$}	[]	0.594886
{med($\theta_e$)}	{[$^\circ$]}	69.3502
{$\Upsilon$}	[]	13
{$\Xi$}	[]	11
