Q	U	V
{$V$}	{[mm$^3$]}	0.00619728
{$d_v$}	{[mm]}	0.227895
{$S_c$}	{[mm$^2$]}	0.374619
{$S_o$}	{[mm$^2$]}	0.214443
{$S_l/S_o$}	[]	0.746940
{$\Psi$}	[]	0.43554
{$\eta$}	[]	0.461426
{med($\theta_e$)}	{[$^\circ$]}	
{$\Upsilon$}	[]	12
{$\Xi$}	[]	10
