Q	U	V
{$V$}	{[mm$^3$]}	0.0179031
{$d_v$}	{[mm]}	0.324571
{$S_c$}	{[mm$^2$]}	0.562631
{$S_o$}	{[mm$^2$]}	0.366362
{$S_l/S_o$}	[]	0.535724
{$\Psi$}	[]	0.588228
{$\eta$}	[]	0.613596
{med($\theta_e$)}	{[$^\circ$]}	56.6458
{$\Upsilon$}	[]	11
{$\Xi$}	[]	8
