Q	U	V
{$V$}	{[mm$^3$]}	0.00356471
{$d_v$}	{[mm]}	0.189529
{$S_c$}	{[mm$^2$]}	0.229237
{$S_o$}	{[mm$^2$]}	0.142812
{$S_l/S_o$}	[]	0.605166
{$\Psi$}	[]	0.492284
{$\eta$}	[]	0.539228
{med($\theta_e$)}	{[$^\circ$]}	61.5454
{$\Upsilon$}	[]	17
{$\Xi$}	[]	7
