Q	U	V
{$V$}	{[mm$^3$]}	0.00222052
{$d_v$}	{[mm]}	0.161865
{$S_c$}	{[mm$^2$]}	0.191025
{$S_o$}	{[mm$^2$]}	0.100583
{$S_l/S_o$}	[]	0.899178
{$\Psi$}	[]	0.430887
{$\eta$}	[]	0.473780
{med($\theta_e$)}	{[$^\circ$]}	57.9195
{$\Upsilon$}	[]	14
{$\Xi$}	[]	9
