Q	U	V
{$V$}	{[mm$^3$]}	0.00462867
{$d_v$}	{[mm]}	0.206769
{$S_c$}	{[mm$^2$]}	0.330431
{$S_o$}	{[mm$^2$]}	0.173419
{$S_l/S_o$}	[]	0.905391
{$\Psi$}	[]	0.406482
{$\eta$}	[]	0.481063
{med($\theta_e$)}	{[$^\circ$]}	
{$\Upsilon$}	[]	13
{$\Xi$}	[]	6
