Q	U	V
{$V$}	{[mm$^3$]}	0.00403376
{$d_v$}	{[mm]}	0.197502
{$S_c$}	{[mm$^2$]}	0.21815
{$S_o$}	{[mm$^2$]}	0.143582
{$S_l/S_o$}	[]	0.519341
{$\Psi$}	[]	0.56174
{$\eta$}	[]	0.635104
{med($\theta_e$)}	{[$^\circ$]}	66.6796
{$\Upsilon$}	[]	14
{$\Xi$}	[]	9
