Q	U	V
{$V$}	{[mm$^3$]}	0.00940814
{$d_v$}	{[mm]}	0.261920
{$S_c$}	{[mm$^2$]}	0.499972
{$S_o$}	{[mm$^2$]}	0.309894
{$S_l/S_o$}	[]	0.613365
{$\Psi$}	[]	0.431063
{$\eta$}	[]	0.482121
{med($\theta_e$)}	{[$^\circ$]}	69.3814
{$\Upsilon$}	[]	14
{$\Xi$}	[]	6
