Q	U	V
{$V$}	{[mm$^3$]}	0.0110943
{$d_v$}	{[mm]}	0.276716
{$S_c$}	{[mm$^2$]}	0.523194
{$S_o$}	{[mm$^2$]}	0.315758
{$S_l/S_o$}	[]	0.656946
{$\Psi$}	[]	0.459785
{$\eta$}	[]	0.477309
{med($\theta_e$)}	{[$^\circ$]}	81.46595
{$\Upsilon$}	[]	9
{$\Xi$}	[]	17
