Q	U	V
{$V$}	{[mm$^3$]}	0.00424275
{$d_v$}	{[mm]}	0.200855
{$S_c$}	{[mm$^2$]}	0.231872
{$S_o$}	{[mm$^2$]}	0.136002
{$S_l/S_o$}	[]	0.704916
{$\Psi$}	[]	0.546597
{$\eta$}	[]	0.569866
{med($\theta_e$)}	{[$^\circ$]}	64.63035
{$\Upsilon$}	[]	12
{$\Xi$}	[]	8
