Q	U	V
{$V$}	{[mm$^3$]}	0.00234758
{$d_v$}	{[mm]}	0.164895
{$S_c$}	{[mm$^2$]}	0.1906
{$S_o$}	{[mm$^2$]}	0.0946466
{$S_l/S_o$}	[]	1.013807
{$\Psi$}	[]	0.448169
{$\eta$}	[]	0.521860
{med($\theta_e$)}	{[$^\circ$]}	66.3289
{$\Upsilon$}	[]	14
{$\Xi$}	[]	4
