Q	U	V
{$V$}	{[mm$^3$]}	0.01063
{$d_v$}	{[mm]}	0.272800
{$S_c$}	{[mm$^2$]}	0.565712
{$S_o$}	{[mm$^2$]}	0.306014
{$S_l/S_o$}	[]	0.848647
{$\Psi$}	[]	0.41328
{$\eta$}	[]	0.445128
{med($\theta_e$)}	{[$^\circ$]}	75.3423
{$\Upsilon$}	[]	8
{$\Xi$}	[]	12
