Q	U	V
{$V$}	{[mm$^3$]}	0.00314555
{$d_v$}	{[mm]}	0.181788
{$S_c$}	{[mm$^2$]}	0.219652
{$S_o$}	{[mm$^2$]}	0.117782
{$S_l/S_o$}	[]	0.864903
{$\Psi$}	[]	0.472658
{$\eta$}	[]	0.510275
{med($\theta_e$)}	{[$^\circ$]}	82.0559
{$\Upsilon$}	[]	16
{$\Xi$}	[]	6
