Q	U	V
{$V$}	{[mm$^3$]}	0.00939626
{$d_v$}	{[mm]}	0.261810
{$S_c$}	{[mm$^2$]}	0.431247
{$S_o$}	{[mm$^2$]}	0.295377
{$S_l/S_o$}	[]	0.459988
{$\Psi$}	[]	0.499338
{$\eta$}	[]	0.544321
{med($\theta_e$)}	{[$^\circ$]}	64.8591
{$\Upsilon$}	[]	17
{$\Xi$}	[]	13
