Q	U	V
{$V$}	{[mm$^3$]}	0.00388651
{$d_v$}	{[mm]}	0.195068
{$S_c$}	{[mm$^2$]}	0.189369
{$S_o$}	{[mm$^2$]}	0.115798
{$S_l/S_o$}	[]	0.635339
{$\Psi$}	[]	0.63127
{$\eta$}	[]	0.703864
{med($\theta_e$)}	{[$^\circ$]}	69.36765
{$\Upsilon$}	[]	12
{$\Xi$}	[]	9
