Q	U	V
{$V$}	{[mm$^3$]}	0.00417506
{$d_v$}	{[mm]}	0.199781
{$S_c$}	{[mm$^2$]}	0.227691
{$S_o$}	{[mm$^2$]}	0.128088
{$S_l/S_o$}	[]	0.777614
{$\Psi$}	[]	0.550698
{$\eta$}	[]	0.579492
{med($\theta_e$)}	{[$^\circ$]}	65.0535
{$\Upsilon$}	[]	15
{$\Xi$}	[]	5
