Q	U	V
{$V$}	{[mm$^3$]}	0.00723036
{$d_v$}	{[mm]}	0.239913
{$S_c$}	{[mm$^2$]}	0.339199
{$S_o$}	{[mm$^2$]}	0.210478
{$S_l/S_o$}	[]	0.611565
{$\Psi$}	[]	0.533093
{$\eta$}	[]	0.553887
{med($\theta_e$)}	{[$^\circ$]}	115.012
{$\Upsilon$}	[]	15
{$\Xi$}	[]	14
