Q	U	V
{$V$}	{[mm$^3$]}	0.00373689
{$d_v$}	{[mm]}	0.192532
{$S_c$}	{[mm$^2$]}	0.25367
{$S_o$}	{[mm$^2$]}	0.142739
{$S_l/S_o$}	[]	0.777160
{$\Psi$}	[]	0.45908
{$\eta$}	[]	0.505858
{med($\theta_e$)}	{[$^\circ$]}	103.968
{$\Upsilon$}	[]	14
{$\Xi$}	[]	3
