Q	U	V
{$V$}	{[mm$^3$]}	0.00422018
{$d_v$}	{[mm]}	0.200498
{$S_c$}	{[mm$^2$]}	0.237581
{$S_o$}	{[mm$^2$]}	0.143597
{$S_l/S_o$}	[]	0.654498
{$\Psi$}	[]	0.531569
{$\eta$}	[]	0.580038
{med($\theta_e$)}	{[$^\circ$]}	63.1201
{$\Upsilon$}	[]	15
{$\Xi$}	[]	11
