Q	U	V
{$V$}	{[mm$^3$]}	0.00468923
{$d_v$}	{[mm]}	0.207667
{$S_c$}	{[mm$^2$]}	0.266732
{$S_o$}	{[mm$^2$]}	0.160591
{$S_l/S_o$}	[]	0.660940
{$\Psi$}	[]	0.507937
{$\eta$}	[]	0.609683
{med($\theta_e$)}	{[$^\circ$]}	57.9448
{$\Upsilon$}	[]	17
{$\Xi$}	[]	10
