Q	U	V
{$V$}	{[mm$^3$]}	0.00325954
{$d_v$}	{[mm]}	0.183958
{$S_c$}	{[mm$^2$]}	0.258631
{$S_o$}	{[mm$^2$]}	0.129567
{$S_l/S_o$}	[]	0.996118
{$\Psi$}	[]	0.411062
{$\eta$}	[]	0.480271
{med($\theta_e$)}	{[$^\circ$]}	91.45625
{$\Upsilon$}	[]	9
{$\Xi$}	[]	8
