Q	U	V
{$V$}	{[mm$^3$]}	0.0046916
{$d_v$}	{[mm]}	0.207702
{$S_c$}	{[mm$^2$]}	0.309131
{$S_o$}	{[mm$^2$]}	0.151272
{$S_l/S_o$}	[]	1.043544
{$\Psi$}	[]	0.438419
{$\eta$}	[]	0.472424
{med($\theta_e$)}	{[$^\circ$]}	62.9795
{$\Upsilon$}	[]	10
{$\Xi$}	[]	5
