Q	U	V
{$V$}	{[mm$^3$]}	0.00330229
{$d_v$}	{[mm]}	0.184759
{$S_c$}	{[mm$^2$]}	0.192698
{$S_o$}	{[mm$^2$]}	0.110501
{$S_l/S_o$}	[]	0.743858
{$\Psi$}	[]	0.556524
{$\eta$}	[]	0.596021
{med($\theta_e$)}	{[$^\circ$]}	61.2005
{$\Upsilon$}	[]	12
{$\Xi$}	[]	9
