Q	U	V
{$V$}	{[mm$^3$]}	0.00818507
{$d_v$}	{[mm]}	0.250039
{$S_c$}	{[mm$^2$]}	0.473165
{$S_o$}	{[mm$^2$]}	0.264063
{$S_l/S_o$}	[]	0.791864
{$\Psi$}	[]	0.4151
{$\eta$}	[]	0.509292
{med($\theta_e$)}	{[$^\circ$]}	63.0887
{$\Upsilon$}	[]	14
{$\Xi$}	[]	7
