Q	U	V
{$V$}	{[mm$^3$]}	0.0120977
{$d_v$}	{[mm]}	0.284818
{$S_c$}	{[mm$^2$]}	0.472544
{$S_o$}	{[mm$^2$]}	0.30802
{$S_l/S_o$}	[]	0.534134
{$\Psi$}	[]	0.539317
{$\eta$}	[]	0.556564
{med($\theta_e$)}	{[$^\circ$]}	55.2665
{$\Upsilon$}	[]	20
{$\Xi$}	[]	10
