"cellPairingIds","interplanarAngles","angleWeights"
13,42.6991,0.0761831
18,52.6109,0.0609315
25,28.9919,0.0646215
32,43.6207,0.0635756
62,45.8395,0.0527955
87,78.8674,0.0922153
50,39.5575,0.00758921
73,60.7175,0.0555436
86,61.8612,0.0722978
99,70.0609,0.00764493
130,71.1212,0.00743693
128,17.538,0.0586737
145,79.6881,0.0762266
182,66.8123,0.0303544
202,60.6524,0.0521283
181,34.798,0.0604973
222,54.9885,0.0666168
265,37.9564,0.0535628
