"cellPairingIds","interplanarAngles","angleWeights"
13,59.7557,0.0323737
19,71.2559,0.0359267
26,79.0837,0.0141234
89,114.723,0.0290422
41,105.907,0.0158901
101,53.825,0.0272845
116,76.8876,0.0376503
50,59.8145,0.0167008
131,130.195,0.0425434
148,69.264,0.0199842
166,55.8773,0.0477377
130,144.05,0.0130606
147,164.213,0.0150431
184,81.8326,0.015645
242,27.8544,0.0248792
288,65.8696,0.017656
313,94.7064,0.0363029
338,35.1102,0.018491
