facetNormals:0,facetNormals:1,facetNormals:2,FacetCenters:0,FacetCenters:1,FacetCenters:2,FacetIds,relFacetSize,absFacetSize,cellPairingIds,interplanarAngles,angleWeights
-0.280548,0.681308,-0.595888,4.50906,7.0873,11.7198,1,0.070403,0.00606043,8,45.7213,0.0240087
0.442457,0.77074,-0.416966,4.5629,7.0832,11.7038,2,0.0144719,0.00124577,13,35.4128,0.0691968
-0.636806,0.717494,-0.135537,4.47284,7.09262,11.7608,3,0.0680312,0.00585627,19,73.2134,0.0715251
0.804545,0.518787,-0.238768,4.58255,7.06254,11.7021,4,0.0726835,0.00625675,26,129.67,0.0158796
0.215693,-0.947764,-0.181401,4.53706,6.95242,11.758,5,0.00894906,0.000770353,34,75.2289,0.0601252
-0.971482,-0.104867,-0.0594238,4.42521,6.98489,11.7674,6,0.052466,0.00451638,43,48.4771,0.0271238
0.100643,0.97315,0.0332937,4.55965,7.04027,11.7458,7,0.0167977,0.00144598,53,102.501,0.0972583
0.859714,0.338042,0.318048,4.57698,7.05547,11.7752,8,0.157236,0.0135352,64,76.9725,0.0832443
-0.576142,0.543476,0.547484,4.46695,7.0554,11.8173,9,0.101815,0.00876447,76,111.647,0.0790352
-0.677445,-0.21596,0.628865,4.45615,7.01473,11.8167,10,0.09008,0.00775427,89,167.776,0.0792161
0.18333,-0.574937,0.738141,4.52871,6.98481,11.8104,11,0.0905516,0.00779487,103,108.94,0.0384623
0.320408,0.416089,0.833292,4.51435,7.0196,11.8325,12,0.0264585,0.00227761,18,69.8421,0.0238668
,,,,,,,,,25,27.9734,0.0241378
,,,,,,,,,33,125.192,0.0110593
,,,,,,,,,42,120.372,0.0226862
,,,,,,,,,52,35.6679,0.0155483
,,,,,,,,,63,57.9949,0.0265044
,,,,,,,,,75,93.9021,0.0253418
,,,,,,,,,88,141.416,0.0249375
,,,,,,,,,102,135.695,0.0249555
,,,,,,,,,117,83.1688,0.0187101
,,,,,,,,,32,96.4722,0.0702805
,,,,,,,,,41,145.848,0.0158174
,,,,,,,,,51,54.4486,0.0592433
,,,,,,,,,62,48.4046,0.0269429
,,,,,,,,,74,111.572,0.0949713
,,,,,,,,,87,42.9654,0.0815633
,,,,,,,,,101,77.9997,0.0775182
,,,,,,,,,116,132.942,0.0776923
,,,,,,,,,132,91.1071,0.0380995
,,,,,,,,,50,106.363,0.015936
,,,,,,,,,61,148.307,0.0609417
,,,,,,,,,73,53.2496,0.0272887
,,,,,,,,,86,34.8447,0.0994128
,,,,,,,,,100,109.193,0.0848177
,,,,,,,,,115,149.533,0.0804521
,,,,,,,,,131,110.343,0.0806396
,,,,,,,,,148,73.5815,0.0387948
,,,,,,,,,72,95.8926,0.0152901
,,,,,,,,,85,159.503,0.0116771
,,,,,,,,,99,101.503,0.0169343
,,,,,,,,,114,140.886,0.0164521
,,,,,,,,,130,93.3911,0.0162807
,,,,,,,,,147,61.4503,0.0162884
,,,,,,,,,165,119.286,0.0133745
,,,,,,,,,98,102.157,0.0254479
,,,,,,,,,113,158.447,0.0786788
,,,,,,,,,129,60.0763,0.069248
,,,,,,,,,146,46.1794,0.0663103
,,,,,,,,,164,99.9751,0.0664377
,,,,,,,,,183,114.799,0.0351772
,,,,,,,,,128,63.5443,0.0303527
,,,,,,,,,145,58.7378,0.0288377
,,,,,,,,,163,106.082,0.0283153
,,,,,,,,,182,123.599,0.0283385
,,,,,,,,,202,61.1726,0.0205493
,,,,,,,,,162,98.4033,0.123597
,,,,,,,,,181,119.41,0.11454
,,,,,,,,,201,77.7261,0.114921
,,,,,,,,,222,44.9428,0.0452952
,,,,,,,,,200,47.5193,0.0955888
,,,,,,,,,221,90.8719,0.0958536
,,,,,,,,,243,58.3418,0.0420021
,,,,,,,,,242,59.1447,0.0903152
,,,,,,,,,265,76.5726,0.040903
,,,,,,,,,288,62.4328,0.0409514
