"cellPairingIds","interplanarAngles","angleWeights"
8,37.1571,0.018764
13,39.8462,0.0443001
89,130.775,0.041642
134,140.79,0.0169919
18,29.514,0.0225625
102,127.646,0.0218521
150,138.791,0.012407
116,102.191,0.0664807
339,84.2441,0.0194855
