facetNormals:0,facetNormals:1,facetNormals:2,FacetCenters:0,FacetCenters:1,FacetCenters:2,FacetIds,relFacetSize,absFacetSize,cellPairingIds,interplanarAngles,angleWeights
0.445489,0.515595,-0.709698,4.61268,6.66651,10.5794,1,0.0231704,0.00373533,8,68.6314,0.035982
0.462414,-0.560412,-0.589468,4.58399,6.60954,10.5798,2,0.0804839,0.0129749,13,32.868,0.0267339
0.801511,0.123472,-0.544647,4.64919,6.64126,10.6176,3,0.0315927,0.00509309,19,88.7368,0.0293434
-0.827351,0.0668889,-0.500368,4.45928,6.59779,10.5964,4,0.0400001,0.00644847,26,70.2138,0.0348093
-0.624267,0.655213,-0.375683,4.48964,6.64688,10.5846,5,0.0699428,0.0112756,34,55.7072,0.0258897
-0.280407,0.908913,-0.293109,4.5588,6.69131,10.5823,6,0.0293321,0.00472866,43,42.0407,0.0363906
0.747325,0.604524,-0.0852237,4.62483,6.65267,10.6919,7,0.0847401,0.013661,53,110.646,0.0374587
-0.905183,0.314083,0.132793,4.4392,6.60707,10.7339,8,0.0977177,0.0157532,64,75.0459,0.0358135
-0.415752,0.894412,0.0357485,4.50666,6.68393,10.6803,9,0.0788247,0.0127074,76,75.6514,0.0237651
0.766846,0.433177,0.455424,4.6421,6.59647,10.7508,10,0.0243911,0.00393211,89,105.486,0.0380574
0.0562183,0.542869,0.782966,4.54857,6.63669,10.7824,11,0.106455,0.0171618,103,102.578,0.0368888
0.5517,0.198124,0.786336,4.61554,6.59426,10.7791,12,0.0904279,0.014578,18,47.0726,0.0453744
,,,,,,,,,25,97.9306,0.0534406
,,,,,,,,,33,118.284,0.074844
,,,,,,,,,42,120.045,0.0429949
,,,,,,,,,52,86.3786,0.0825572
,,,,,,,,,63,138.03,0.0882675
,,,,,,,,,75,140.699,0.0796457
,,,,,,,,,88,99.7196,0.0374367
,,,,,,,,,102,145.94,0.0916654
,,,,,,,,,117,110.372,0.0851666
,,,,,,,,,32,113.818,0.0353027
,,,,,,,,,41,102.97,0.0435253
,,,,,,,,,51,87.2224,0.0304204
,,,,,,,,,62,40.1973,0.046026
,,,,,,,,,74,143.446,0.0477481
,,,,,,,,,87,104.553,0.0451067
,,,,,,,,,101,64.2978,0.0275287
,,,,,,,,,116,109.704,0.0487252
,,,,,,,,,132,87.7042,0.0468258
,,,,,,,,,50,38.0074,0.0508941
,,,,,,,,,61,62.8997,0.0338454
,,,,,,,,,73,124.908,0.0543468
,,,,,,,,,86,41.3775,0.0567642
,,,,,,,,,100,66.207,0.0530697
,,,,,,,,,115,150.134,0.0303037
,,,,,,,,,131,115.757,0.0581505
,,,,,,,,,148,151.66,0.0554655
,,,,,,,,,72,25.4432,0.0413311
,,,,,,,,,85,92.3287,0.0766337
,,,,,,,,,99,40.4763,0.0815296
,,,,,,,,,114,30.633,0.0741186
,,,,,,,,,130,112.129,0.036169
,,,,,,,,,147,88.3791,0.0844201
,,,,,,,,,165,122.051,0.078877
,,,,,,,,,98,67.6725,0.0435795
,,,,,,,,,113,58.6861,0.0451203
,,,,,,,,,129,20.6813,0.0427545
,,,,,,,,,146,87.3747,0.0266344
,,,,,,,,,164,74.8564,0.0459918
,,,,,,,,,183,102.129,0.0442959
,,,,,,,,,128,122.237,0.0907674
,,,,,,,,,145,76.2147,0.0816754
,,,,,,,,,163,33.6872,0.0378792
,,,,,,,,,182,70.7619,0.0943645
,,,,,,,,,202,60.5696,0.0874916
,,,,,,,,,162,46.0979,0.0872603
,,,,,,,,,181,121.254,0.0390379
,,,,,,,,,201,75.9839,0.101899
,,,,,,,,,222,110.532,0.0939316
,,,,,,,,,200,85.0228,0.0372543
,,,,,,,,,221,58.6435,0.0905797
,,,,,,,,,243,91.424,0.0842286
,,,,,,,,,242,47.8661,0.0396886
,,,,,,,,,265,26.9311,0.0384193
,,,,,,,,,288,36.3173,0.0977892
