"cellPairingIds","interplanarAngles","angleWeights"
8,44.5955,0.0862352
13,53.9801,0.0457546
19,80.3312,0.0708523
26,67.4389,0.0630869
34,132.792,0.0887749
18,28.9566,0.0558436
25,58.0064,0.0983737
33,94.7389,0.0840152
52,121.262,0.0335574
32,30.5925,0.04896
61,127.646,0.101692
73,158.456,0.0309431
72,79.7681,0.0864239
85,49.0243,0.0293645
98,53.8594,0.0339351
