facetNormals:0,facetNormals:1,facetNormals:2,FacetCenters:0,FacetCenters:1,FacetCenters:2,FacetIds,relFacetSize,absFacetSize,cellPairingIds,interplanarAngles,angleWeights
0.0877897,-0.393463,-0.885972,6.27511,5.10117,13.4483,1,0.0377268,0.0048785,8,37.0664,0.0254498
-0.170529,0.168063,-0.9527,6.31616,5.18577,13.5369,2,0.0192014,0.00248295,13,51.1947,0.0430523
-0.683682,-0.119741,-0.686907,6.31605,5.17628,13.5556,3,0.0501283,0.00648215,19,40.8062,0.0319897
-0.485601,-0.607917,-0.590327,6.25657,5.11035,13.4676,4,0.0277671,0.0035906,26,72.633,0.0322295
-0.60585,0.478691,-0.59162,6.29637,5.19059,13.5315,5,0.0281305,0.0036376,34,35.0033,0.0265421
0.125858,-0.843964,-0.505062,6.28279,5.0879,13.4467,6,0.0204727,0.00264735,43,98.0416,0.0257686
0.000278683,0.916648,-0.260593,6.28506,5.17526,13.5416,7,0.0195666,0.00253019,53,48.7142,0.0365306
0.572365,-0.720532,-0.332591,6.31866,5.0923,13.4725,8,0.0354079,0.00457864,64,87.0053,0.0118453
0.901165,0.39707,-0.14417,6.32495,5.14742,13.5629,9,0.00702555,0.000908483,76,74.368,0.0593353
-0.331353,-0.829677,0.0703277,6.25116,5.07063,13.5248,10,0.138881,0.0179589,89,84.7874,0.0488159
0.869211,-0.41247,0.171758,6.32015,5.08213,13.5195,11,0.0691376,0.00894027,103,110.944,0.0275809
0.822675,0.466795,0.259388,6.30063,5.15626,13.5741,12,0.0217356,0.00281066,118,104.732,0.0627922
-0.921703,0.181369,0.0918309,6.22494,5.13441,13.5385,13,0.187099,0.0241941,134,128.488,0.0159721
-0.676803,-0.190971,0.69266,6.23388,5.15924,13.5673,14,0.0101305,0.00130999,151,127.78,0.0497075
0.647856,-0.0243027,0.734276,6.34013,5.17604,13.552,15,0.0728386,0.00941885,169,137.697,0.0440809
0.0398793,-0.29385,0.919507,6.27397,5.11269,13.5866,16,0.0530088,0.00685463,18,38.4855,0.0277668
,,,,,,,,,25,55.5262,0.0227032
,,,,,,,,,33,38.5398,0.0228237
,,,,,,,,,42,70.9531,0.0198167
,,,,,,,,,52,64.5501,0.0193823
,,,,,,,,,63,84.1384,0.0248998
,,,,,,,,,75,87.0445,0.0102872
,,,,,,,,,88,99.8063,0.0337382
,,,,,,,,,102,113.393,0.0300555
,,,,,,,,,117,108.704,0.02039
,,,,,,,,,133,83.7977,0.0348284
,,,,,,,,,150,126.487,0.0132633
,,,,,,,,,168,147.788,0.0303911
,,,,,,,,,187,169.182,0.0281911
,,,,,,,,,32,31.8317,0.0357381
,,,,,,,,,41,36.531,0.0360377
,,,,,,,,,51,68.0502,0.0290722
,,,,,,,,,62,85.7446,0.0281467
,,,,,,,,,74,94.597,0.0415014
,,,,,,,,,87,125.517,0.0123239
,,,,,,,,,101,71.5071,0.0736669
,,,,,,,,,116,133.991,0.058118
,,,,,,,,,132,146.267,0.0303231
,,,,,,,,,149,53.7233,0.0790715
,,,,,,,,,167,89.4179,0.0168548
,,,,,,,,,186,170.864,0.0593863
,,,,,,,,,206,131.382,0.0515283
,,,,,,,,,50,68.2236,0.0279476
,,,,,,,,,61,39.2352,0.0235684
,,,,,,,,,73,115.695,0.0229565
,,,,,,,,,86,68.1009,0.0311254
,,,,,,,,,100,127.66,0.0112138
,,,,,,,,,115,44.5469,0.046281
,,,,,,,,,131,106.603,0.0396214
,,,,,,,,,148,150.826,0.0243839
,,,,,,,,,166,72.1141,0.0483576
,,,,,,,,,185,87.8685,0.014845
,,,,,,,,,205,140.041,0.0402068
,,,,,,,,,226,113.983,0.0364441
,,,,,,,,,72,100.843,0.0236983
,,,,,,,,,85,50.2466,0.0230798
,,,,,,,,,99,121.331,0.0313525
,,,,,,,,,114,106.231,0.0112431
,,,,,,,,,130,105.845,0.0467848
,,,,,,,,,147,150.286,0.03999
,,,,,,,,,165,116.683,0.024523
,,,,,,,,,184,49.9391,0.0489078
,,,,,,,,,204,95.4484,0.0148964
,,,,,,,,,225,151.651,0.0405864
,,,,,,,,,247,138.958,0.0367557
,,,,,,,,,98,132.795,0.0200094
,,,,,,,,,113,29.054,0.0259444
,,,,,,,,,129,98.6768,0.0104612
,,,,,,,,,146,45.4852,0.035685
,,,,,,,,,164,67.5059,0.0315909
,,,,,,,,,183,115.679,0.0210853
,,,,,,,,,203,109.698,0.036907
,,,,,,,,,224,106.248,0.013554
,,,,,,,,,246,106.067,0.0319619
,,,,,,,,,269,102.748,0.0295376
,,,,,,,,,128,127.967,0.0252049
,,,,,,,,,145,64.936,0.0103389
,,,,,,,,,163,155.796,0.0343007
,,,,,,,,,182,116.985,0.0305011
,,,,,,,,,202,67.3117,0.0205942
,,,,,,,,,223,80.9125,0.0354282
,,,,,,,,,245,112.222,0.0133494
,,,,,,,,,268,103.218,0.0308469
,,,,,,,,,292,123.559,0.0285828
,,,,,,,,,162,73.4349,0.0117247
,,,,,,,,,181,63.9728,0.0564291
,,,,,,,,,201,39.5287,0.0468316
,,,,,,,,,222,87.1176,0.0269361
,,,,,,,,,244,138.229,0.0595468
,,,,,,,,,267,119.811,0.0157537
,,,,,,,,,291,81.3524,0.0476516
,,,,,,,,,316,94.3235,0.0424565
,,,,,,,,,200,135.686,0.0133745
,,,,,,,,,221,52.305,0.012755
,,,,,,,,,243,24.3502,0.0106188
,,,,,,,,,266,145.249,0.0135426
,,,,,,,,,290,143.099,0.00829705
,,,,,,,,,315,61.2898,0.012815
,,,,,,,,,341,102.817,0.0124068
,,,,,,,,,242,85.6599,0.0923177
,,,,,,,,,265,136.887,0.0375884
,,,,,,,,,289,79.0004,0.159424
,,,,,,,,,314,60.8097,0.0188835
,,,,,,,,,340,99.3667,0.0955593
,,,,,,,,,367,70.0616,0.0767306
,,,,,,,,,288,53.7289,0.0330735
,,,,,,,,,313,158.829,0.100966
,,,,,,,,,339,113.881,0.0176716
,,,,,,,,,366,43.0762,0.0709398
,,,,,,,,,394,70.5895,0.0600083
,,,,,,,,,338,134.58,0.0389467
,,,,,,,,,365,118.791,0.0138198
,,,,,,,,,393,42.1657,0.0334804
,,,,,,,,,422,81.8614,0.0308298
,,,,,,,,,392,45.5191,0.0192203
,,,,,,,,,421,125.29,0.104856
,,,,,,,,,451,90.3527,0.082612
,,,,,,,,,450,85.5645,0.0177871
,,,,,,,,,481,45.7011,0.0170102
,,,,,,,,,512,41.5578,0.0613614
