Q	U	V
{$V$}	{[mm$^3$]}	0.00613079
{$d_v$}	{[mm]}	0.227077
{$S_c$}	{[mm$^2$]}	0.282864
{$S_o$}	{[mm$^2$]}	0.1879
{$S_l/S_o$}	[]	0.505396
{$\Psi$}	[]	0.572687
{$\eta$}	[]	0.626930
{med($\theta_e$)}	{[$^\circ$]}	59.3066
{$\Upsilon$}	[]	13
{$\Xi$}	[]	6
