"cellPairingIds","interplanarAngles","angleWeights"
13,41.2127,0.0614926
19,85.4454,0.0391497
34,61.732,0.04535
32,83.8719,0.0504204
41,55.2091,0.105728
51,90.5835,0.061196
74,52.5233,0.0740071
50,86.5379,0.0533644
61,132.928,0.0390292
100,79.9002,0.0453899
131,50.7749,0.0458858
148,53.723,0.0503678
99,47.7326,0.0805279
147,49.9983,0.0875796
165,86.6403,0.105497
113,79.8944,0.0518113
129,73.5788,0.0539403
183,142.351,0.0611185
222,128.199,0.0738938
243,72.0728,0.0783016
288,38.9955,0.079789
