Q	U	V
{$V$}	{[mm$^3$]}	0.00180729
{$d_v$}	{[mm]}	0.151127
{$S_c$}	{[mm$^2$]}	0.12894
{$S_o$}	{[mm$^2$]}	0.0725952
{$S_l/S_o$}	[]	0.776150
{$\Psi$}	[]	0.556478
{$\eta$}	[]	0.569967
{med($\theta_e$)}	{[$^\circ$]}	68.45825
{$\Upsilon$}	[]	14
{$\Xi$}	[]	8
