Q	U	V
{$V$}	{[mm$^3$]}	0.011599
{$d_v$}	{[mm]}	0.280850
{$S_c$}	{[mm$^2$]}	0.38367
{$S_o$}	{[mm$^2$]}	0.260701
{$S_l/S_o$}	[]	0.471686
{$\Psi$}	[]	0.645862
{$\eta$}	[]	0.673230
{med($\theta_e$)}	{[$^\circ$]}	60.3962
{$\Upsilon$}	[]	13
{$\Xi$}	[]	7
