Q	U	V
{$V$}	{[mm$^3$]}	0.0188139
{$d_v$}	{[mm]}	0.329984
{$S_c$}	{[mm$^2$]}	0.746852
{$S_o$}	{[mm$^2$]}	0.446652
{$S_l/S_o$}	[]	0.672112
{$\Psi$}	[]	0.458039
{$\eta$}	[]	0.469801
{med($\theta_e$)}	{[$^\circ$]}	66.8892
{$\Upsilon$}	[]	11
{$\Xi$}	[]	17
