Q	U	V
{$V$}	{[mm$^3$]}	0.00488278
{$d_v$}	{[mm]}	0.210486
{$S_c$}	{[mm$^2$]}	0.257025
{$S_o$}	{[mm$^2$]}	0.15882
{$S_l/S_o$}	[]	0.618342
{$\Psi$}	[]	0.541527
{$\eta$}	[]	0.575481
{med($\theta_e$)}	{[$^\circ$]}	80.4026
{$\Upsilon$}	[]	12
{$\Xi$}	[]	10
