facetNormals:0,facetNormals:1,facetNormals:2,FacetCenters:0,FacetCenters:1,FacetCenters:2,FacetIds,relFacetSize,absFacetSize,cellPairingIds,interplanarAngles,angleWeights
0.239667,-0.343232,-0.890133,5.16009,3.99495,12.67,1,0.0341615,0.00595378,8,35.8703,0.0506706
-0.277923,-0.0389571,-0.927935,5.06603,4.04807,12.6711,2,0.098059,0.01709,13,49.0607,0.0459083
0.128447,0.456285,-0.839382,5.10219,4.11907,12.6734,3,0.0699671,0.0121941,19,56.0983,0.0396637
-0.652249,-0.153721,-0.724755,5.0218,4.08689,12.7118,4,0.0472785,0.00823985,26,46.0763,0.0337003
0.679975,0.241264,-0.659065,5.1834,4.05459,12.6807,5,0.0332513,0.00579515,34,35.6605,0.0307362
0.329413,-0.784668,-0.490779,5.1709,3.96773,12.7123,6,0.0279352,0.00486864,43,99.7165,0.0511383
-0.925892,0.239735,-0.160852,4.96469,4.08972,12.7786,7,0.101658,0.0177173,53,87.3866,0.029479
-0.913713,-0.332945,-0.167354,4.98978,4.0215,12.8068,8,0.0259254,0.00451836,64,102.306,0.0324759
-0.688318,0.668921,-0.211764,5.01629,4.14699,12.7388,9,0.0309488,0.00539386,76,65.608,0.056599
-0.322661,-0.876692,-0.183288,5.04748,3.96797,12.7548,10,0.164918,0.0287425,89,75.7285,0.0229032
0.822713,-0.496082,0.148,4.99415,4.11271,12.8044,11,0.0172262,0.00300224,103,102.796,0.0151184
-0.184711,-0.822476,0.508338,5.01166,3.97031,12.8372,12,0.00970715,0.0016918,118,130.311,0.0486152
0.390497,0.698762,0.516921,5.05866,4.12937,12.7777,13,0.0842694,0.0146867,134,138.49,0.041059
-0.610657,-0.215864,0.720589,4.98121,4.0412,12.8721,14,0.0514463,0.00896624,18,39.0822,0.0816647
,,,,,,,,,25,26.0389,0.0637974
,,,,,,,,,33,64.1413,0.0496623
,,,,,,,,,42,65.5339,0.0434829
,,,,,,,,,52,65.0072,0.0998261
,,,,,,,,,63,63.81,0.0410087
,,,,,,,,,75,67.6887,0.0470484
,,,,,,,,,88,71.4303,0.122989
,,,,,,,,,102,111.584,0.0293044
,,,,,,,,,117,114.012,0.0176655
,,,,,,,,,133,131.776,0.0906427
,,,,,,,,,150,121.483,0.0674862
,,,,,,,,,32,61.4728,0.0564275
,,,,,,,,,41,37.1705,0.0450791
,,,,,,,,,51,84.1677,0.0399285
,,,,,,,,,62,82.2871,0.0828867
,,,,,,,,,74,97.7824,0.0378325
,,,,,,,,,87,65.391,0.0429149
,,,,,,,,,101,108.265,0.0982509
,,,,,,,,,116,105.151,0.0276458
,,,,,,,,,132,150.476,0.017049
,,,,,,,,,149,94.0517,0.0764551
,,,,,,,,,167,146.828,0.0592941
,,,,,,,,,50,90.1746,0.0390432
,,,,,,,,,61,74.358,0.0351195
,,,,,,,,,73,44.4296,0.0645407
,,,,,,,,,86,37.9145,0.0334877
,,,,,,,,,100,59.0057,0.0374092
,,,,,,,,,115,59.4201,0.0734892
,,,,,,,,,131,126.27,0.0252517
,,,,,,,,,148,97.184,0.0161072
,,,,,,,,,166,141.565,0.060573
,,,,,,,,,185,95.446,0.0492744
,,,,,,,,,72,68.0956,0.0303623
,,,,,,,,,85,119.433,0.0501116
,,,,,,,,,99,127.823,0.0291349
,,,,,,,,,114,100.018,0.0320588
,,,,,,,,,130,109.472,0.055344
,,,,,,,,,147,68.8845,0.022695
,,,,,,,,,165,133.246,0.0150273
,,,,,,,,,184,84.2414,0.0476863
,,,,,,,,,204,174.36,0.0403945
,,,,,,,,,98,115.766,0.0438269
,,,,,,,,,113,87.4934,0.0268928
,,,,,,,,,129,132.127,0.0293649
,,,,,,,,,146,44.1029,0.0477774
,,,,,,,,,164,52.0204,0.021311
,,,,,,,,,183,69.7288,0.0144078
,,,,,,,,,203,135.999,0.0419605
,,,,,,,,,224,113.887,0.036209
,,,,,,,,,128,34.0339,0.0413145
,,,,,,,,,145,29.2484,0.0474515
,,,,,,,,,163,82.6537,0.125782
,,,,,,,,,182,163.621,0.0294603
,,,,,,,,,202,96.4907,0.0177221
,,,,,,,,,223,107.454,0.0921506
,,,,,,,,,245,64.9585,0.0683185
,,,,,,,,,162,62.9121,0.0282152
,,,,,,,,,181,48.9129,0.044807
,,,,,,,,,201,129.593,0.0206989
,,,,,,,,,222,68.4026,0.0141254
,,,,,,,,,244,135.964,0.0396519
,,,,,,,,,267,57.8162,0.0344768
,,,,,,,,,200,110.359,0.0521172
,,,,,,,,,221,166.618,0.022133
,,,,,,,,,243,123.263,0.0147789
,,,,,,,,,266,84.537,0.0452712
,,,,,,,,,290,82.5586,0.038648
,,,,,,,,,242,81.1525,0.0311941
,,,,,,,,,265,42.8096,0.0183351
,,,,,,,,,289,156.731,0.111543
,,,,,,,,,314,74.0023,0.0784272
,,,,,,,,,288,69.7433,0.0124171
,,,,,,,,,313,86.8357,0.028605
,,,,,,,,,339,107.848,0.0258101
,,,,,,,,,338,114.171,0.0174089
,,,,,,,,,365,46.4899,0.0163326
,,,,,,,,,392,91.0432,0.0638887
