Q	U	V
{$V$}	{[mm$^3$]}	0.00387701
{$d_v$}	{[mm]}	0.194909
{$S_c$}	{[mm$^2$]}	0.200106
{$S_o$}	{[mm$^2$]}	0.0957571
{$S_l/S_o$}	[]	1.089725
{$\Psi$}	[]	0.596424
{$\eta$}	[]	0.631755
{med($\theta_e$)}	{[$^\circ$]}	109.116
{$\Upsilon$}	[]	14
{$\Xi$}	[]	8
