"cellPairingIds","interplanarAngles","angleWeights"
8,40.956,0.113475
13,34.7711,0.0929908
19,50.8518,0.0605715
43,75.1877,0.0537984
76,105.531,0.0372419
89,106.397,0.0195868
25,54.4587,0.0579677
63,69.0803,0.0671939
75,77.3602,0.087702
88,96.2359,0.036241
32,25.8395,0.0521044
62,64.3935,0.0470129
73,85.7208,0.0370008
86,72.7286,0.0442885
148,65.7497,0.0475321
226,113.268,0.0216029
182,46.2982,0.0162412
202,86.5804,0.0432583
292,108.124,0.0206746
162,42.9522,0.0597711
291,78.5593,0.0439085
316,63.0584,0.022768
200,59.8506,0.0339659
315,43.2648,0.051828
242,66.0906,0.0143194
289,35.9301,0.0216053
340,39.2766,0.0281806
313,40.4748,0.0141868
394,85.8499,0.0123708
422,51.231,0.0235957
421,34.831,0.0276714
451,66.5871,0.0174566
512,49.9677,0.0215121
