facetNormals:0,facetNormals:1,facetNormals:2,FacetCenters:0,FacetCenters:1,FacetCenters:2,FacetIds,relFacetSize,absFacetSize,cellPairingIds,interplanarAngles,angleWeights
0.221046,0.696944,-0.650919,3.83069,6.77443,14.3921,1,0.0107011,0.00120579,8,60.7119,0.0180137
-0.688588,0.384924,-0.514685,3.78204,6.75415,14.3311,2,0.0568873,0.00640999,13,112.963,0.01993
-0.0628108,-0.873324,-0.393236,3.8467,6.68448,14.3805,3,0.144865,0.0163232,19,135.799,0.0178358
-0.633952,-0.728196,0.0472107,3.7909,6.67234,14.3899,4,0.0535152,0.00603002,26,89.6983,0.0164353
-0.873739,0.421889,0.147235,3.79549,6.77912,14.3526,5,0.0354096,0.00398991,34,174.316,0.0176266
-0.296221,-0.695613,0.587479,3.87271,6.66071,14.4609,6,0.049958,0.00562921,43,73.2221,0.0176697
-0.362057,0.839888,0.351034,3.83453,6.80262,14.3867,7,0.0506576,0.00570803,53,114.606,0.0185464
0.699422,-0.247401,0.551461,3.93797,6.69255,14.4554,8,0.0694952,0.00783063,64,150.368,0.0136318
0.241454,-0.54977,0.776474,3.93978,6.70507,14.4678,9,0.0187729,0.00211531,76,139.844,0.0176256
-0.621653,-0.163288,0.745212,3.83851,6.72377,14.4418,10,0.0499415,0.00562735,89,115.054,0.0203203
-0.378552,0.316208,0.818764,3.85717,6.72388,14.4511,11,0.200975,0.0226456,18,95.7463,0.081694
,,,,,,,,,25,81.6684,0.0551498
,,,,,,,,,33,41.8779,0.0436495
,,,,,,,,,42,113.953,0.053198
,,,,,,,,,52,64.866,0.053592
,,,,,,,,,63,171.292,0.0625624
,,,,,,,,,75,147.243,0.0282299
,,,,,,,,,88,91.1337,0.0531886
,,,,,,,,,102,92.4841,0.0886747
,,,,,,,,,32,44.9,0.0781577
,,,,,,,,,41,113.226,0.0569088
,,,,,,,,,51,64.5388,0.0742948
,,,,,,,,,62,154.513,0.0750655
,,,,,,,,,74,92.8893,0.0939299
,,,,,,,,,87,80.2454,0.0332385
,,,,,,,,,101,96.7727,0.0742765
,,,,,,,,,116,128.757,0.168368
,,,,,,,,,50,74.4918,0.0426192
,,,,,,,,,61,38.7243,0.0516755
,,,,,,,,,73,112.704,0.0520472
,,,,,,,,,86,105.395,0.0604672
,,,,,,,,,100,72.5878,0.0277953
,,,,,,,,,115,54.8116,0.0516666
,,,,,,,,,131,86.9988,0.0845236
,,,,,,,,,72,86.837,0.0414441
,,,,,,,,,85,41.291,0.0416829
,,,,,,,,,99,134.363,0.0469148
,,,,,,,,,114,109.945,0.0245371
,,,,,,,,,130,52.7932,0.0414384
,,,,,,,,,147,51.4406,0.0602107
,,,,,,,,,98,106.778,0.0503054
,,,,,,,,,113,70.9501,0.0581289
,,,,,,,,,129,35.2952,0.0272907
,,,,,,,,,146,38.6838,0.0499498
,,,,,,,,,164,65.9359,0.0800238
,,,,,,,,,128,107.177,0.0585997
,,,,,,,,,145,106.717,0.027394
,,,,,,,,,163,68.7433,0.050297
,,,,,,,,,182,42.5311,0.0809188
,,,,,,,,,162,36.1045,0.0295605
,,,,,,,,,181,88.9573,0.0581178
,,,,,,,,,201,82.9454,0.103278
,,,,,,,,,200,57.5492,0.0272882
,,,,,,,,,221,66.7404,0.0343383
,,,,,,,,,242,32.443,0.0800027
