"cellPairingIds","interplanarAngles","angleWeights"
8,100.901,0.0213992
13,100.988,0.0283478
19,48.0592,0.0199513
26,31.1154,0.032566
34,47.9299,0.016578
18,32.93,0.0349966
25,99.5735,0.0230308
63,55.658,0.0370626
75,87.8317,0.0382253
88,91.6849,0.0393984
41,109.904,0.0796791
74,45.2137,0.064405
61,54.7582,0.0175407
115,102.959,0.0347549
148,94.1766,0.0293324
72,33.0454,0.0265992
99,139.869,0.0912616
147,93.3704,0.0828828
164,87.1789,0.0239927
183,79.315,0.022578
162,42.7402,0.076259
201,68.3768,0.0664821
200,25.3211,0.0868543
221,50.266,0.0703189
243,45.5442,0.0594085
265,34.7453,0.0622912
288,51.023,0.053302
