facetNormals:0,facetNormals:1,facetNormals:2,FacetCenters:0,FacetCenters:1,FacetCenters:2,FacetIds,relFacetSize,absFacetSize,cellPairingIds,interplanarAngles,angleWeights
-0.337822,0.589734,-0.695448,5.28687,5.51215,13.5826,1,0.0571722,0.0055251,8,81.2308,0.0356938
-0.223745,-0.672147,-0.668992,5.26202,5.47656,13.6015,2,0.0259463,0.00250744,13,72.3765,0.0582785
0.583401,-0.0681698,-0.741725,5.28557,5.44436,13.6883,3,0.0594284,0.00574314,19,36.0628,0.0323655
0.235474,0.74735,-0.587796,5.31665,5.5395,13.6162,4,0.0225717,0.00218132,26,96.5678,0.0221795
0.67389,-0.470939,-0.566984,5.28028,5.43383,13.6945,5,0.0137585,0.00132961,34,106.897,0.0262001
0.252104,-0.845334,-0.438876,5.30187,5.47415,13.6739,6,0.0169939,0.00164228,43,121.97,0.036117
0.615379,-0.730215,-0.196375,5.3413,5.45271,13.6719,7,0.026396,0.00255089,53,86.4529,0.0707969
0.799573,0.5752,0.0141471,5.38066,5.50961,13.6518,8,0.0929471,0.00898237,64,85.8257,0.0640117
-0.885592,-0.388593,0.00223228,5.27697,5.42376,13.6223,9,0.0727098,0.00702664,76,125.292,0.047423
-0.432143,-0.808666,0.304686,5.28814,5.40984,13.6411,10,0.0405143,0.00391529,89,73.885,0.0299663
-0.936632,0.207315,0.24639,5.26356,5.46262,13.6378,11,0.0203043,0.0019622,103,154.008,0.0392893
0.676019,-0.413118,0.49613,5.37107,5.44243,13.7141,12,0.0299281,0.00289224,118,155.453,0.0147201
0.117749,-0.86691,0.471982,5.33981,5.40709,13.6917,13,0.00844756,0.000816369,134,75.4805,0.0832951
-0.507114,0.671792,0.476882,5.31268,5.49965,13.6615,14,0.153374,0.014822,151,107.057,0.0764371
-0.668813,-0.0182444,0.709312,5.29975,5.44955,13.6823,15,0.115283,0.0111409,169,151.17,0.033886
-0.121855,-0.504504,0.817033,5.33685,5.41543,13.709,16,0.0240787,0.00232696,18,63.4892,0.0361219
,,,,,,,,,25,99.7593,0.0241416
,,,,,,,,,33,55.9344,0.0179818
,,,,,,,,,42,32.9727,0.0205369
,,,,,,,,,52,59.3339,0.0261692
,,,,,,,,,63,126.802,0.040568
,,,,,,,,,75,60.9303,0.038245
,,,,,,,,,88,62.3834,0.0316337
,,,,,,,,,102,95.6263,0.0227812
,,,,,,,,,117,103.039,0.0277953
,,,,,,,,,133,75.6174,0.0127455
,,,,,,,,,150,134.196,0.0443841
,,,,,,,,,168,109.211,0.042359
,,,,,,,,,187,101.016,0.0249776
,,,,,,,,,32,55.6883,0.0327171
,,,,,,,,,41,26.475,0.022344
,,,,,,,,,51,55.3335,0.02643
,,,,,,,,,62,53.0518,0.0365554
,,,,,,,,,74,63.4376,0.0725012
,,,,,,,,,87,122.514,0.0654017
,,,,,,,,,101,117.562,0.0481817
,,,,,,,,,116,142.488,0.0302674
,,,,,,,,,132,86.4631,0.0398086
,,,,,,,,,149,103.671,0.0147924
,,,,,,,,,167,139.439,0.0856643
,,,,,,,,,186,172.695,0.0784275
,,,,,,,,,206,134.572,0.0342716
,,,,,,,,,50,81.7721,0.0170961
,,,,,,,,,61,109.014,0.0193896
,,,,,,,,,73,107.389,0.0243345
,,,,,,,,,86,50.8011,0.0363227
,,,,,,,,,100,121.876,0.0344492
,,,,,,,,,115,159.281,0.0289915
,,,,,,,,,131,102.528,0.021378
,,,,,,,,,148,118.805,0.0257345
,,,,,,,,,166,157.193,0.012294
,,,,,,,,,185,83.8,0.0393521
,,,,,,,,,205,128.002,0.0377519
,,,,,,,,,226,159.14,0.0233009
,,,,,,,,,72,33.8883,0.015206
,,,,,,,,,85,26.6867,0.0180886
,,,,,,,,,99,74.6804,0.023969
,,,,,,,,,114,115.451,0.0231386
,,,,,,,,,130,94.9426,0.0205413
,,,,,,,,,147,151.408,0.0164024
,,,,,,,,,165,66.7298,0.0188509
,,,,,,,,,184,77.1964,0.0104679
,,,,,,,,,204,163.952,0.0252518
,,,,,,,,,225,150.112,0.0245831
,,,,,,,,,247,108.565,0.0175112
,,,,,,,,,98,26.6385,0.0206763
,,,,,,,,,113,107.439,0.0287342
,,,,,,,,,129,83.7188,0.027549
,,,,,,,,,146,62.4075,0.0239443
,,,,,,,,,164,122.166,0.0185022
,,,,,,,,,183,70.8645,0.0216783
,,,,,,,,,203,55.4559,0.0112853
,,,,,,,,,224,161.713,0.0305976
,,,,,,,,,246,118.913,0.0296213
,,,,,,,,,269,87.7659,0.0199253
,,,,,,,,,128,85.8654,0.0411156
,,,,,,,,,145,106.112,0.0387313
,,,,,,,,,163,73.6772,0.0319656
,,,,,,,,,182,143.495,0.0229528
,,,,,,,,,202,47.1102,0.0280513
,,,,,,,,,223,50.7782,0.012799
,,,,,,,,,245,161.859,0.0450404
,,,,,,,,,268,124.435,0.0429564
,,,,,,,,,292,81.8999,0.0251841
,,,,,,,,,162,167.924,0.0815923
,,,,,,,,,181,147.911,0.0564311
,,,,,,,,,201,129.926,0.0333281
,,,,,,,,,222,70.3321,0.0452773
,,,,,,,,,244,113.97,0.0154875
,,,,,,,,,267,90.7404,0.115749
,,,,,,,,,291,123.864,0.102917
,,,,,,,,,316,113.229,0.0382488
,,,,,,,,,200,41.7033,0.0520347
,,,,,,,,,221,38.5154,0.031744
,,,,,,,,,243,118.91,0.0424028
,,,,,,,,,266,75.9339,0.0151365
,,,,,,,,,290,78.3386,0.0986519
,,,,,,,,,315,50.4093,0.0891759
,,,,,,,,,341,70.9339,0.036177
,,,,,,,,,242,70.9601,0.0270514
,,,,,,,,,265,77.6547,0.0344258
,,,,,,,,,289,34.2436,0.0139802
,,,,,,,,,314,101.029,0.0640972
,,,,,,,,,340,56.5065,0.0599576
,,,,,,,,,367,40.6481,0.0302055
,,,,,,,,,288,130.119,0.0241943
,,,,,,,,,313,100.163,0.0119312
,,,,,,,,,339,40.2083,0.0358611
,,,,,,,,,366,34.3407,0.0345274
,,,,,,,,,394,77.2947,0.022031
,,,,,,,,,338,43.6913,0.013176
,,,,,,,,,365,115.11,0.0500834
,,,,,,,,,393,95.8361,0.0475198
,,,,,,,,,422,54.0343,0.0266866
,,,,,,,,,392,115.699,0.0160132
,,,,,,,,,421,73.7123,0.0157416
,,,,,,,,,451,32.8172,0.0125072
,,,,,,,,,450,45.1583,0.131628
,,,,,,,,,481,83.0997,0.0416229
,,,,,,,,,512,44.7544,0.0398369
