facetNormals:0,facetNormals:1,facetNormals:2,FacetCenters:0,FacetCenters:1,FacetCenters:2,FacetIds,relFacetSize,absFacetSize,cellPairingIds,interplanarAngles,angleWeights
-0.506791,0.210861,-0.780669,6.54679,6.83585,11.903,1,0.0276102,0.0111564,8,32.3719,0.0231799
-0.580321,-0.32296,-0.727675,6.5015,6.85027,12.0321,2,0.0199748,0.00807118,13,82.6949,0.0422679
0.720749,0.000141413,-0.615142,6.70939,6.79078,11.8686,3,0.0901004,0.0364068,19,38.7789,0.022837
-0.486812,0.736349,-0.414382,6.48161,6.94436,12.0812,4,0.0194708,0.00786757,26,107.817,0.0230348
0.875705,-0.350779,-0.293669,6.74352,6.78179,11.9518,5,0.0197602,0.00798449,34,122.439,0.0353202
0.609861,-0.732221,0.0315229,6.68182,6.75099,11.9766,6,0.0490042,0.0198011,43,84.5172,0.0304036
0.46001,0.831027,-0.187242,6.61908,6.90454,12.0498,7,0.0338257,0.0136679,53,83.0483,0.0459878
-0.426989,-0.855348,-0.0959984,6.57674,6.74667,11.9698,8,0.137526,0.0555702,64,125.254,0.0280857
0.876946,0.37418,0.222617,6.74019,6.84707,12.0387,9,0.0285778,0.0115474,76,109.128,0.0340863
-0.411437,-0.775818,0.453449,6.56644,6.77648,12.0891,10,0.0445314,0.0179937,89,89.1118,0.0234609
-0.803693,-0.420531,0.389444,6.53032,6.83976,12.0519,11,0.0203958,0.00824132,103,84.1367,0.0150836
-0.492364,0.746543,0.398985,6.50595,6.95072,12.0351,12,0.010376,0.00419263,118,140.861,0.0402065
0.11248,-0.688359,0.636089,6.63312,6.77935,12.0964,13,0.0739384,0.0298762,134,119.311,0.043102
0.398677,0.687301,0.483445,6.62259,6.92264,12.1293,14,0.0982023,0.0396805,151,144.344,0.0370999
0.00649314,0.0367817,0.95871,6.58542,6.86064,12.1579,15,0.0565291,0.0228416,18,88.2007,0.0327001
,,,,,,,,,25,68.8755,0.0197196
,,,,,,,,,33,100.729,0.0198669
,,,,,,,,,42,98.5946,0.028381
,,,,,,,,,52,114.735,0.0251173
,,,,,,,,,63,51.1407,0.034883
,,,,,,,,,75,145.167,0.0235141
,,,,,,,,,88,80.5801,0.0275789
,,,,,,,,,102,70.8623,0.0201831
,,,,,,,,,117,104.755,0.0136576
,,,,,,,,,133,109.199,0.0314525
,,,,,,,,,150,151.482,0.0331971
,,,,,,,,,168,138.992,0.0295189
,,,,,,,,,32,95.9549,0.0320217
,,,,,,,,,41,29.8782,0.032412
,,,,,,,,,51,62.2931,0.0634817
,,,,,,,,,62,60.8498,0.0491859
,,,,,,,,,74,105.861,0.108873
,,,,,,,,,87,57.7418,0.0433925
,,,,,,,,,101,127.924,0.059604
,,,,,,,,,116,151.1,0.0332622
,,,,,,,,,132,130.303,0.018609
,,,,,,,,,149,110.299,0.0812232
,,,,,,,,,167,90.6465,0.093977
,,,,,,,,,186,130.056,0.0694716
,,,,,,,,,50,125.751,0.0196145
,,,,,,,,,61,155.962,0.0278686
,,,,,,,,,73,60.4514,0.0247151
,,,,,,,,,86,114.074,0.0341121
,,,,,,,,,100,104.784,0.0231613
,,,,,,,,,115,125.443,0.0270948
,,,,,,,,,131,94.7547,0.0199226
,,,,,,,,,148,49.1911,0.0135378
,,,,,,,,,166,153.697,0.0308244
,,,,,,,,,185,82.9267,0.0324982
,,,,,,,,,205,113.519,0.028965
,,,,,,,,,72,33.9254,0.0281638
,,,,,,,,,85,79.9869,0.024947
,,,,,,,,,99,92.7586,0.0345554
,,,,,,,,,114,53.7999,0.0233648
,,,,,,,,,130,103.1,0.0273737
,,,,,,,,,147,133.444,0.020073
,,,,,,,,,165,146.869,0.013607
,,,,,,,,,184,80.548,0.0311859
,,,,,,,,,204,92.1167,0.0329003
,,,,,,,,,225,107.735,0.029284
,,,,,,,,,98,111.204,0.0400242
,,,,,,,,,113,66.6646,0.0722602
,,,,,,,,,129,73.3258,0.036102
,,,,,,,,,146,69.4067,0.0466608
,,,,,,,,,164,100.402,0.0288035
,,,,,,,,,183,153.329,0.0171259
,,,,,,,,,203,48.8142,0.0589428
,,,,,,,,,224,106.03,0.065382
,,,,,,,,,246,89.546,0.0524984
,,,,,,,,,128,162.941,0.0542967
,,,,,,,,,145,44.7926,0.0309811
,,,,,,,,,163,163.813,0.0384472
,,,,,,,,,182,145.98,0.0254476
,,,,,,,,,202,70.3246,0.0158807
,,,,,,,,,223,134.399,0.0464165
,,,,,,,,,245,42.4841,0.050319
,,,,,,,,,268,99.0407,0.0423251
,,,,,,,,,162,139.551,0.0473222
,,,,,,,,,181,33.0723,0.067278
,,,,,,,,,201,45.4402,0.0355234
,,,,,,,,,222,119.732,0.0192962
,,,,,,,,,244,58.0696,0.0961719
,,,,,,,,,267,154.196,0.114584
,,,,,,,,,291,97.8728,0.0801239
,,,,,,,,,200,124.649,0.034814
,,,,,,,,,221,143.354,0.0238033
,,,,,,,,,243,93.8044,0.0152244
,,,,,,,,,266,91.0742,0.0412227
,,,,,,,,,290,38.3224,0.0442721
,,,,,,,,,315,75.6459,0.0379635
,,,,,,,,,242,31.3116,0.0279776
,,,,,,,,,265,101.665,0.0168305
,,,,,,,,,289,33.6983,0.0555851
,,,,,,,,,314,121.335,0.0612761
,,,,,,,,,340,64.8148,0.049818
,,,,,,,,,288,75.7988,0.0137546
,,,,,,,,,313,61.3485,0.0319722
,,,,,,,,,339,117.306,0.0337765
,,,,,,,,,366,68.1376,0.0299762
,,,,,,,,,338,109.955,0.0181982
,,,,,,,,,365,55.9704,0.0187689
,,,,,,,,,393,64.3449,0.0175337
,,,,,,,,,392,97.9053,0.0843603
,,,,,,,,,421,49.746,0.0640722
,,,,,,,,,450,56.59,0.0717538
