facetNormals:0,facetNormals:1,facetNormals:2,FacetCenters:0,FacetCenters:1,FacetCenters:2,FacetIds,relFacetSize,absFacetSize,cellPairingIds,interplanarAngles,angleWeights
-0.348855,-0.0482535,-0.918359,2.98419,6.2939,13.4924,1,0.0191399,0.00122946,8,35.7143,0.00732813
0.0673469,0.396773,-0.918295,2.97397,6.34906,13.4989,2,0.00453157,0.000291088,13,31.8163,0.00780019
-0.185002,0.466331,-0.861574,2.95774,6.3555,13.4932,3,0.00489819,0.000314638,19,51.2106,0.032781
0.184909,-0.657845,-0.684727,3.00121,6.28291,13.5081,4,0.114101,0.00732934,26,36.2682,0.0256962
-0.624937,0.406609,-0.6229,2.93364,6.35852,13.516,5,0.0390841,0.00251059,34,93.2083,0.0333775
0.579762,0.693963,-0.201168,2.9973,6.35522,13.5314,6,0.130312,0.00837068,43,96.4596,0.0167021
0.951977,0.080308,-0.24695,3.04775,6.30297,13.5357,7,0.0148152,0.000951662,53,65.6195,0.0198447
-0.388359,-0.876982,-0.243929,2.9617,6.31115,13.5341,8,0.0206034,0.00132347,64,49.2907,0.0295371
-0.668658,-0.597013,-0.400429,2.96483,6.27085,13.5339,9,0.064664,0.00415373,76,84.1894,0.0254636
0.786492,-0.43673,-0.38178,2.9797,6.33293,13.5095,10,0.0380276,0.00244272,89,57.4722,0.0185116
-0.930992,0.241032,-0.228219,2.91371,6.36044,13.5656,11,0.0179233,0.00115131,103,66.5501,0.0251194
-0.459909,0.801064,-0.278586,2.94107,6.37258,13.5483,12,0.0365323,0.00234667,118,86.1848,0.0227766
0.370476,-0.898666,-0.16376,3.00888,6.27487,13.5522,13,0.0281195,0.00180627,134,64.8909,0.0120321
-0.850124,0.489314,-0.154027,2.91825,6.37925,13.5584,14,0.0087738,0.00056359,151,84.2287,0.0210422
-0.123893,0.974078,-0.110539,2.95641,6.37271,13.5606,15,0.0233644,0.00150082,169,66.9855,0.0293889
-0.913455,-0.327707,-0.0425365,2.92085,6.33092,13.5436,16,0.0632668,0.00406398,188,121.634,0.0267376
0.780989,-0.504474,0.274383,2.94008,6.38232,13.5329,17,0.0443375,0.00284804,208,95.0563,0.0243809
-0.595355,-0.677437,0.353176,2.89871,6.36521,13.5516,18,0.0335745,0.00215668,229,113.913,0.0293813
-0.0516189,-0.834913,0.482776,2.93919,6.38651,13.5434,19,0.0631961,0.00405944,251,114.812,0.00710202
-0.597929,0.444113,0.647307,2.93979,6.36043,13.5809,20,0.0043599,0.00028006,274,166.138,0.0176724
0.539362,0.107608,0.792619,2.96739,6.37276,13.5578,21,0.0164139,0.00105436,298,133.055,0.00603635
-0.262803,-0.435671,0.842113,2.93455,6.35614,13.5776,22,0.00358321,0.000230169,323,146.442,0.0102956
-0.10104,0.396608,0.899724,2.93649,6.38428,13.5644,23,0.00704175,0.000452331,18,15.3917,0.00470775
,,,,,,,,,25,66.9197,0.00871694
,,,,,,,,,33,44.7937,0.00812149
,,,,,,,,,42,57.4941,0.00875856
,,,,,,,,,52,70.96,0.00694029
,,,,,,,,,63,98.7018,0.00742915
,,,,,,,,,75,84.9994,0.00846959
,,,,,,,,,88,76.4076,0.00809812
,,,,,,,,,102,75.835,0.00723412
,,,,,,,,,117,55.873,0.00806298
,,,,,,,,,133,100.567,0.00780528
,,,,,,,,,150,73.764,0.00597639
,,,,,,,,,168,61.0432,0.00759087
,,,,,,,,,187,99.0075,0.00845736
,,,,,,,,,207,114.272,0.00822272
,,,,,,,,,228,130.697,0.00798535
,,,,,,,,,250,143.467,0.00845673
,,,,,,,,,273,117.607,0.00444407
,,,,,,,,,297,132.128,0.00710232
,,,,,,,,,322,167.716,0.00400197
,,,,,,,,,348,132.983,0.00551443
,,,,,,,,,32,75.0406,0.00939315
,,,,,,,,,41,29.6364,0.00870538
,,,,,,,,,51,65.0443,0.00944149
,,,,,,,,,62,85.6805,0.00736227
,,,,,,,,,74,97.3926,0.00791475
,,,,,,,,,87,78.7895,0.00910657
,,,,,,,,,101,91.1898,0.00867853
,,,,,,,,,116,60.7658,0.00769377
,,,,,,,,,132,43.4193,0.00863819
,,,,,,,,,149,110.646,0.00834308
,,,,,,,,,167,58.4369,0.00628668
,,,,,,,,,186,54.4774,0.00809857
,,,,,,,,,206,86.8736,0.00909243
,,,,,,,,,227,129.606,0.00882179
,,,,,,,,,249,121.884,0.00854914
,,,,,,,,,272,145.729,0.0090917
,,,,,,,,,296,104.118,0.00461339
,,,,,,,,,321,139.602,0.00754487
,,,,,,,,,347,153.793,0.00413876
,,,,,,,,,374,125.448,0.00577755
,,,,,,,,,50,87.3487,0.0582242
,,,,,,,,,61,103.656,0.121669
,,,,,,,,,73,72.1693,0.0262252
,,,,,,,,,86,45.407,0.0349041
,,,,,,,,,100,55.1074,0.0825467
,,,,,,,,,115,42.7562,0.0570436
,,,,,,,,,131,100.512,0.0309801
,,,,,,,,,148,116.831,0.0553446
,,,,,,,,,166,35.9626,0.0451195
,,,,,,,,,185,112.891,0.0162946
,,,,,,,,,205,127.963,0.0387865
,,,,,,,,,226,85.3732,0.0813992
,,,,,,,,,248,72.0889,0.0638601
,,,,,,,,,271,84.2585,0.0518824
,,,,,,,,,295,77.0657,0.0813407
,,,,,,,,,320,152.398,0.00839887
,,,,,,,,,346,123.403,0.0286994
,,,,,,,,,373,110.84,0.00694822
,,,,,,,,,401,159.504,0.0132648
,,,,,,,,,72,87.1236,0.0601328
,,,,,,,,,85,115.217,0.0214859
,,,,,,,,,99,87.7317,0.0269827
,,,,,,,,,114,63.5704,0.0487206
,,,,,,,,,130,117.016,0.0385486
,,,,,,,,,147,31.1307,0.0245763
,,,,,,,,,165,32.938,0.0377651
,,,,,,,,,184,121.118,0.0327073
,,,,,,,,,204,31.0788,0.0143306
,,,,,,,,,225,55.6015,0.0292457
,,,,,,,,,247,60.5433,0.0483186
,,,,,,,,,270,156.564,0.0415454
,,,,,,,,,294,97.5345,0.0361204
,,,,,,,,,319,130.383,0.048298
,,,,,,,,,345,80.9355,0.0078447
,,,,,,,,,372,147.108,0.0231188
,,,,,,,,,400,124.213,0.00656458
,,,,,,,,,429,110.482,0.0119335
,,,,,,,,,98,44.0206,0.0266056
,,,,,,,,,113,148.858,0.0355812
,,,,,,,,,129,142.486,0.0864363
,,,,,,,,,146,75.3018,0.0588745
,,,,,,,,,164,110.896,0.0315123
,,,,,,,,,183,67.2719,0.0570663
,,,,,,,,,203,114.309,0.0462573
,,,,,,,,,224,97.642,0.0164407
,,,,,,,,,246,46.8205,0.0396243
,,,,,,,,,269,146.276,0.085179
,,,,,,,,,293,86.9677,0.0661635
,,,,,,,,,318,171.051,0.0533925
,,,,,,,,,344,142.145,0.085115
,,,,,,,,,371,100.633,0.0084375
,,,,,,,,,399,75.2245,0.0291555
,,,,,,,,,428,133.215,0.00697463
,,,,,,,,,458,87.7683,0.0133615
,,,,,,,,,128,112.894,0.0172363
,,,,,,,,,145,127.192,0.0241072
,,,,,,,,,163,33.09,0.0213231
,,,,,,,,,182,146.211,0.0162217
,,,,,,,,,202,108.666,0.0210812
,,,,,,,,,223,70.7331,0.019406
,,,,,,,,,245,138.339,0.0110209
,,,,,,,,,268,90.7298,0.0181326
,,,,,,,,,292,157.474,0.0240083
,,,,,,,,,317,48.3898,0.0222093
,,,,,,,,,343,137.833,0.0205586
,,,,,,,,,370,104.301,0.0240033
,,,,,,,,,398,135.407,0.00673715
,,,,,,,,,427,69.9506,0.0155736
,,,,,,,,,457,120.526,0.00577071
,,,,,,,,,488,107.083,0.00954615
,,,,,,,,,162,24.9521,0.0312499
,,,,,,,,,181,79.8349,0.0267264
,,,,,,,,,201,77.8518,0.0191701
,,,,,,,,,222,118.524,0.0263474
,,,,,,,,,244,45.4656,0.0237817
,,,,,,,,,267,93.5821,0.0123068
,,,,,,,,,291,142.823,0.0218972
,,,,,,,,,316,47.2535,0.031084
,,,,,,,,,342,85.6852,0.0281334
,,,,,,,,,369,39.5442,0.0255362
,,,,,,,,,397,48.4094,0.0310755
,,,,,,,,,426,108.828,0.00719686
,,,,,,,,,456,121.381,0.0182716
,,,,,,,,,487,73.3666,0.00610472
,,,,,,,,,519,122.67,0.0104962
,,,,,,,,,200,96.7207,0.0478913
,,,,,,,,,221,54.0271,0.028067
,,,,,,,,,243,93.5814,0.0466879
,,,,,,,,,266,68.5203,0.0391949
,,,,,,,,,290,69.7127,0.0154511
,,,,,,,,,315,117.933,0.0343261
,,,,,,,,,341,30.2926,0.0639578
,,,,,,,,,368,110.346,0.0526055
,,,,,,,,,396,45.9535,0.0441998
,,,,,,,,,425,69.0103,0.0639216
,,,,,,,,,455,97.3853,0.00816901
,,,,,,,,,486,141.6,0.026182
,,,,,,,,,518,84.1401,0.00679016
,,,,,,,,,551,123.068,0.0127004
,,,,,,,,,242,140.97,0.0243635
,,,,,,,,,265,129.932,0.0372649
,,,,,,,,,289,39.2146,0.0323315
,,,,,,,,,314,148.069,0.014258
,,,,,,,,,340,119.85,0.0289449
,,,,,,,,,367,126.08,0.0475028
,,,,,,,,,395,39.614,0.0409408
,,,,,,,,,424,108.94,0.0356625
,,,,,,,,,454,81.4873,0.0474828
,,,,,,,,,485,160.914,0.00782289
,,,,,,,,,517,85.4617,0.0229304
,,,,,,,,,550,110.576,0.0065493
,,,,,,,,,584,128.11,0.011883
,,,,,,,,,288,44.0976,0.0240482
,,,,,,,,,313,122.546,0.0218924
,,,,,,,,,339,15.7474,0.0117807
,,,,,,,,,366,67.3982,0.0202853
,,,,,,,,,394,35.5523,0.0279332
,,,,,,,,,423,162.011,0.0255272
,,,,,,,,,453,71.0814,0.0233705
,,,,,,,,,484,106.015,0.0279263
,,,,,,,,,516,58.0601,0.00701369
,,,,,,,,,549,133.559,0.0171354
,,,,,,,,,583,93.0964,0.00597242
,,,,,,,,,618,90.9191,0.010111
,,,,,,,,,338,152.641,0.0317785
,,,,,,,,,365,30.4455,0.0141494
,,,,,,,,,393,24.4173,0.0285009
,,,,,,,,,422,79.5838,0.0463186
,,,,,,,,,452,153.878,0.0400582
,,,,,,,,,483,113.142,0.034991
,,,,,,,,,515,146.784,0.0462997
,,,,,,,,,548,61.7637,0.00779009
,,,,,,,,,582,114.276,0.0226509
,,,,,,,,,617,119.175,0.0065263
,,,,,,,,,653,83.163,0.0118075
,,,,,,,,,392,138.185,0.0133745
,,,,,,,,,421,158.01,0.0255223
,,,,,,,,,451,92.2114,0.0389343
,,,,,,,,,482,43.0963,0.0344135
,,,,,,,,,514,69.754,0.0306058
,,,,,,,,,547,46.7665,0.0389209
,,,,,,,,,581,138.332,0.00754928
,,,,,,,,,616,91.6078,0.0207283
,,,,,,,,,652,80.7284,0.00635643
,,,,,,,,,689,123.741,0.011263
,,,,,,,,,450,52.3738,0.0127571
,,,,,,,,,481,49.784,0.0154105
,,,,,,,,,513,171.956,0.0146488
,,,,,,,,,546,82.817,0.013912
,,,,,,,,,580,117.245,0.0154084
,,,,,,,,,615,50.2954,0.00582515
,,,,,,,,,651,123.446,0.0114351
,,,,,,,,,688,97.0247,0.00508834
,,,,,,,,,726,81.7173,0.00781293
,,,,,,,,,512,102.108,0.034126
,,,,,,,,,545,130.217,0.0306023
,,,,,,,,,579,130.784,0.027554
,,,,,,,,,614,154.34,0.0341157
,,,,,,,,,650,63.4967,0.00734853
,,,,,,,,,687,92.9836,0.0192819
,,,,,,,,,725,119.919,0.0062135
,,,,,,,,,764,72.1496,0.0108219
,,,,,,,,,578,126.472,0.0521371
,,,,,,,,,613,37.0593,0.0438687
,,,,,,,,,649,71.337,0.0632314
,,,,,,,,,686,67.093,0.00815763
,,,,,,,,,724,126.822,0.0260655
,,,,,,,,,763,68.7104,0.00678229
,,,,,,,,,803,94.5367,0.012673
,,,,,,,,,648,91.6058,0.0382126
,,,,,,,,,685,56.7503,0.0521131
,,,,,,,,,723,122.46,0.00793911
,,,,,,,,,762,51.3241,0.0239584
,,,,,,,,,802,75.078,0.00663056
,,,,,,,,,843,91.9211,0.0121533
,,,,,,,,,722,34.9405,0.0438517
,,,,,,,,,761,72.7305,0.0077176
,,,,,,,,,801,97.0123,0.0220487
,,,,,,,,,842,38.1869,0.00647534
,,,,,,,,,884,83.448,0.0116418
,,,,,,,,,800,91.6491,0.00815704
,,,,,,,,,841,73.4786,0.0260595
,,,,,,,,,883,34.4221,0.00678188
,,,,,,,,,926,83.4772,0.0126715
,,,,,,,,,882,75.5003,0.00688973
,,,,,,,,,925,58.3984,0.00393358
,,,,,,,,,969,32.9001,0.00538541
,,,,,,,,,968,59.7035,0.0058823
,,,,,,,,,1013,42.6548,0.00985542
,,,,,,,,,1058,51.0445,0.00474958
