Q	U	V
{$V$}	{[mm$^3$]}	0.0102097
{$d_v$}	{[mm]}	0.269156
{$S_c$}	{[mm$^2$]}	0.480486
{$S_o$}	{[mm$^2$]}	0.270178
{$S_l/S_o$}	[]	0.778405
{$\Psi$}	[]	0.473673
{$\eta$}	[]	0.506300
{med($\theta_e$)}	{[$^\circ$]}	
{$\Upsilon$}	[]	17
{$\Xi$}	[]	8
