"cellPairingIds","interplanarAngles","angleWeights"
18,42.0291,0.00585417
25,42.7363,0.010878
117,87.5471,0.00918733
32,55.9897,0.011347
101,59.564,0.00445466
132,107.687,0.0095196
206,80.129,0.00938332
100,82.1585,0.0485304
115,50.5382,0.0068684
131,73.3559,0.12909
148,124.409,0.0382313
166,53.1351,0.0195348
221,27.2375,0.0523212
243,54.75,0.0266505
289,43.1076,0.00533204
340,36.1409,0.00560094
367,55.7483,0.00609618
288,78.811,0.0405456
313,68.9241,0.0201216
423,87.3111,0.0125195
422,124.839,0.0224218
452,115.034,0.0101744
421,35.9168,0.0118852
482,57.6907,0.008109
512,45.5788,0.0164936
545,40.5034,0.0087477
578,57.8717,0.0100189
