Q	U	V
{$V$}	{[mm$^3$]}	0.00867192
{$d_v$}	{[mm]}	0.254901
{$S_c$}	{[mm$^2$]}	0.43613
{$S_o$}	{[mm$^2$]}	0.271462
{$S_l/S_o$}	[]	0.606597
{$\Psi$}	[]	0.468035
{$\eta$}	[]	0.549162
{med($\theta_e$)}	{[$^\circ$]}	64.9516
{$\Upsilon$}	[]	12
{$\Xi$}	[]	10
