facetNormals:0,facetNormals:1,facetNormals:2,FacetCenters:0,FacetCenters:1,FacetCenters:2,FacetIds,relFacetSize,absFacetSize,cellPairingIds,interplanarAngles,angleWeights
0.418546,0.169077,-0.817708,4.57526,6.81358,13.0281,1,0.049203,0.0076076,8,37.8563,0.0648823
-0.0619664,0.560046,-0.793971,4.44795,6.84566,13.0287,2,0.0952283,0.0147239,13,65.6641,0.0364382
-0.325751,-0.526169,-0.723769,4.54043,6.82461,13.017,3,0.0289323,0.00447342,19,89.605,0.0158929
-0.0731186,-0.951336,-0.241885,4.52477,6.79386,13.0639,4,0.00947702,0.0014653,26,112.81,0.0533886
-0.778663,-0.581012,-0.0867566,4.46873,6.81238,13.0489,5,0.0583527,0.0090223,34,98.511,0.00880446
0.344118,-0.919017,0.154042,4.59871,6.84303,13.0629,6,0.0048348,0.000747541,43,116.028,0.0400303
-0.411659,-0.887443,0.0986332,4.53457,6.82453,13.0682,7,0.0337403,0.00521682,53,80.6555,0.0510227
0.307393,0.922534,0.165159,4.50041,6.85138,13.0864,8,0.0529823,0.00819195,64,81.1027,0.0404392
0.914786,-0.0789226,0.282216,4.62387,6.76734,13.0969,9,0.0343254,0.00530727,76,136.417,0.0224958
-0.553845,-0.729725,0.389209,4.44905,6.76691,13.1255,10,0.0145812,0.00225449,89,147.028,0.0390058
-0.842885,-0.0637683,0.493215,4.4128,6.81779,13.1046,11,0.0323098,0.00499563,103,95.8315,0.0687839
0.489274,0.676751,0.503541,4.56624,6.81197,13.1232,12,0.114252,0.0176652,118,164.673,0.0533429
-0.515397,-0.39667,0.736974,4.49867,6.74211,13.1563,13,0.0582436,0.00900544,134,121.977,0.0324069
0.502953,-0.236462,0.795609,4.5924,6.73166,13.159,14,0.0241597,0.00373549,151,128.59,0.0556438
-0.104991,0.598403,0.76728,4.47687,6.83999,13.123,15,0.0640248,0.0098993,169,162.087,0.0569069
-0.305314,0.089105,0.914451,4.51176,6.7939,13.1423,16,0.0674713,0.0104322,18,71.1099,0.0443808
,,,,,,,,,25,110.538,0.0172385
,,,,,,,,,33,102.668,0.0723635
,,,,,,,,,42,132.899,0.0092024
,,,,,,,,,52,125.055,0.0498266
,,,,,,,,,63,67.5646,0.0680844
,,,,,,,,,75,110.333,0.0504616
,,,,,,,,,88,134.845,0.02529
,,,,,,,,,102,113.182,0.0482492
,,,,,,,,,117,93.0856,0.103876
,,,,,,,,,133,144.118,0.0722795
,,,,,,,,,150,147.319,0.0385413
,,,,,,,,,168,106.308,0.0765696
,,,,,,,,,187,134.206,0.0789821
,,,,,,,,,32,41.7369,0.0142774
,,,,,,,,,41,47.9474,0.0386843
,,,,,,,,,51,74.0481,0.0082851
,,,,,,,,,62,55.5497,0.0311519
,,,,,,,,,74,138.65,0.0374268
,,,,,,,,,87,120.244,0.0313989
,,,,,,,,,101,72.6485,0.0193902
,,,,,,,,,116,93.0047,0.0305279
,,,,,,,,,132,161.363,0.0461723
,,,,,,,,,149,99.6434,0.0386603
,,,,,,,,,167,131.739,0.0263315
,,,,,,,,,186,153.769,0.0398546
,,,,,,,,,206,131.365,0.0404985
,,,,,,,,,50,48.9396,0.0163058
,,,,,,,,,61,33.8678,0.00640303
,,,,,,,,,73,28.5048,0.0147977
,,,,,,,,,86,165.53,0.0160781
,,,,,,,,,100,93.6425,0.0148532
,,,,,,,,,115,49.1708,0.0114876
,,,,,,,,,131,89.8219,0.0146554
,,,,,,,,,148,146.605,0.0175022
,,,,,,,,,166,75.8334,0.0163016
,,,,,,,,,185,90.2559,0.0136138
,,,,,,,,,205,140.862,0.0165102
,,,,,,,,,226,107.315,0.0166196
,,,,,,,,,72,74.8855,0.00892974
,,,,,,,,,85,30.352,0.0427576
,,,,,,,,,99,145.167,0.055538
,,,,,,,,,114,137.513,0.0432244
,,,,,,,,,130,32.2083,0.0233321
,,,,,,,,,147,47.0368,0.0415908
,,,,,,,,,165,149.299,0.0772506
,,,,,,,,,184,53.6801,0.0582981
,,,,,,,,,204,109.968,0.0341714
,,,,,,,,,225,110.383,0.0610573
,,,,,,,,,247,83.5168,0.0625816
,,,,,,,,,98,45.1256,0.00845767
,,,,,,,,,113,137.004,0.00886101
,,,,,,,,,129,63.1612,0.00847578
,,,,,,,,,146,56.8967,0.00726176
,,,,,,,,,164,99.2026,0.00841099
,,,,,,,,,183,112.841,0.00927703
,,,,,,,,,203,72.0618,0.00892846
,,,,,,,,,224,57.8542,0.00805721
,,,,,,,,,246,118.768,0.00899068
,,,,,,,,,269,92.7468,0.00902304
,,,,,,,,,128,163.313,0.0412266
,,,,,,,,,145,107.163,0.0340303
,,,,,,,,,163,20.9489,0.0203625
,,,,,,,,,182,61.9684,0.0330095
,,,,,,,,,202,141.688,0.0520959
,,,,,,,,,223,48.7761,0.0427283
,,,,,,,,,245,85.114,0.0281573
,,,,,,,,,268,115.36,0.044192
,,,,,,,,,292,81.7374,0.044985
,,,,,,,,,162,74.3865,0.0416604
,,,,,,,,,181,142.528,0.0228687
,,,,,,,,,201,104.18,0.0401408
,,,,,,,,,222,26.8819,0.0723934
,,,,,,,,,244,114.54,0.0554885
,,,,,,,,,267,85.9346,0.0331865
,,,,,,,,,291,47.9534,0.0579825
,,,,,,,,,316,81.6073,0.0593554
,,,,,,,,,200,110.78,0.0204678
,,,,,,,,,221,131.819,0.0332871
,,,,,,,,,243,55.0747,0.0527906
,,,,,,,,,266,104.236,0.0431945
,,,,,,,,,290,41.0262,0.028359
,,,,,,,,,315,85.5301,0.0446908
,,,,,,,,,341,91.7411,0.045502
,,,,,,,,,242,43.6087,0.020094
,,,,,,,,,265,125.878,0.0258618
,,,,,,,,,289,28.2581,0.0233234
,,,,,,,,,314,77.8295,0.0181863
,,,,,,,,,340,94.7041,0.0237528
,,,,,,,,,367,61.4893,0.02398
,,,,,,,,,288,102.54,0.050374
,,,,,,,,,313,31.1546,0.0415631
,,,,,,,,,339,90.9922,0.0276466
,,,,,,,,,366,63.4064,0.0429467
,,,,,,,,,394,42.1322,0.0436953
,,,,,,,,,338,98.9745,0.077155
,,,,,,,,,365,59.0529,0.0398852
,,,,,,,,,393,39.1648,0.0820629
,,,,,,,,,422,66.8363,0.0848403
,,,,,,,,,392,63.816,0.0341527
,,,,,,,,,421,66.5891,0.0609975
,,,,,,,,,451,33.2391,0.0625188
,,,,,,,,,450,64.0149,0.0350814
,,,,,,,,,481,53.9531,0.0355793
,,,,,,,,,512,33.8414,0.0657029
