"cellPairingIds","interplanarAngles","angleWeights"
19,65.3315,0.0252642
34,72.2191,0.0551519
43,102.084,0.0497249
53,123.552,0.0486507
61,69.3655,0.0379959
73,104.192,0.0353388
115,84.1065,0.0277869
113,75.6783,0.137143
146,60.6095,0.0687842
128,111.632,0.107868
163,123.375,0.0605432
181,59.2389,0.0589582
