"cellPairingIds","interplanarAngles","angleWeights"
8,36.858,0.0600679
13,33.2179,0.03379
19,157.132,0.0210769
34,58.126,0.0562958
43,88.3988,0.0460363
53,113.888,0.04257
76,70.1328,0.0311397
33,52.0622,0.0321
63,78.1598,0.0511781
88,79.6792,0.0355086
102,62.8003,0.0282554
117,67.8836,0.0593974
51,27.8024,0.0373708
101,40.5723,0.0243256
73,89.7287,0.0205895
86,69.1814,0.0198661
100,54.9996,0.0198934
166,84.2633,0.0241069
185,58.2347,0.0231882
226,61.5591,0.0223411
248,76.1686,0.0206989
99,26.5808,0.0263189
147,36.163,0.018571
204,61.7676,0.0324845
98,39.1721,0.0529484
146,38.1752,0.0341557
203,46.5888,0.0847468
246,56.666,0.0263239
223,29.946,0.0634577
162,19.8148,0.0380035
267,45.1223,0.0521627
290,28.0519,0.0523514
265,33.2797,0.0309586
340,35.3452,0.0191065
288,40.2107,0.0252969
339,46.2006,0.0285529
423,60.092,0.0248701
393,46.8626,0.0243832
452,49.4954,0.0461826
421,33.3701,0.0286858
451,33.1364,0.0836768
513,40.0212,0.0583249
512,33.2624,0.0262198
545,28.8192,0.0239864
578,30.6297,0.0532467
