facetNormals:0,facetNormals:1,facetNormals:2,FacetCenters:0,FacetCenters:1,FacetCenters:2,FacetIds,relFacetSize,absFacetSize,cellPairingIds,interplanarAngles,angleWeights
0.418493,0.100292,-0.894064,3.91573,6.59746,12.8379,1,0.00268284,0.000221069,8,70.5422,0.00424603
-0.702979,0.0131987,-0.692375,3.83779,6.50973,12.7994,2,0.010174,0.000838348,13,28.7404,0.00339033
0.794634,0.0925026,-0.578163,3.87447,6.52416,12.8194,3,0.00460461,0.000379425,19,76.6437,0.00482524
-0.54837,0.628558,-0.426337,3.84753,6.5418,12.8366,4,0.023953,0.00197375,26,73.856,0.00445751
0.0330506,-0.900234,-0.388215,3.87836,6.48846,12.8098,5,0.0131678,0.00108505,34,76.7725,0.00494518
0.772175,-0.469605,0.0783936,3.8556,6.5286,12.8421,6,0.0315502,0.00259977,43,114.274,0.00525289
-0.509984,-0.815303,0.111526,3.84787,6.47088,12.8459,7,0.124941,0.0102953,53,72.0617,0.00477982
0.628136,0.734356,0.0457135,3.90802,6.58097,12.8664,8,0.0218881,0.0018036,64,122.226,0.00528815
-0.843666,-0.38074,0.114346,3.81875,6.524,12.8542,9,0.182964,0.0150765,76,147.736,0.00483932
-0.73096,0.254225,0.612715,3.82847,6.56883,12.8823,10,0.0246656,0.00203247,89,131.948,0.00502323
-0.402644,0.651498,0.611834,3.87102,6.57317,12.9086,11,0.039352,0.00324265,103,122.232,0.00527891
0.181434,0.605067,0.719548,3.88861,6.60453,12.9046,12,0.163208,0.0134485,118,153.49,0.0051329
0.0129034,-0.218191,0.940009,3.86008,6.54509,12.9195,13,0.0591552,0.00487445,18,99.281,0.00633987
,,,,,,,,,25,41.8132,0.0142818
,,,,,,,,,33,76.0303,0.0114789
,,,,,,,,,42,132.373,0.0153863
,,,,,,,,,52,73.5497,0.0188158
,,,,,,,,,63,119.048,0.0138911
,,,,,,,,,75,56.4304,0.0192761
,,,,,,,,,88,84.5225,0.0144059
,,,,,,,,,102,97.8413,0.0161679
,,,,,,,,,117,130.831,0.019154
,,,,,,,,,133,134.104,0.0173619
,,,,,,,,,32,98.1521,0.00772433
,,,,,,,,,41,80.0415,0.00682323
,,,,,,,,,51,54.1166,0.00803635
,,,,,,,,,62,124.785,0.00888188
,,,,,,,,,74,55.5165,0.00760859
,,,,,,,,,87,146.964,0.00898314
,,,,,,,,,101,159.327,0.00776048
,,,,,,,,,116,129.345,0.00824452
,,,,,,,,,132,103.204,0.00895652
,,,,,,,,,149,125.517,0.00854414
,,,,,,,,,50,117.09,0.0169936
,,,,,,,,,61,152.245,0.0272316
,,,,,,,,,73,108.007,0.0401992
,,,,,,,,,86,83.8147,0.022874
,,,,,,,,,100,78.4738,0.0423603
,,,,,,,,,115,71.1075,0.0243041
,,,,,,,,,131,66.2762,0.0297796
,,,,,,,,,148,91.6575,0.0417749
,,,,,,,,,166,127.071,0.0340988
,,,,,,,,,72,61.9942,0.0185808
,,,,,,,,,85,44.8027,0.0238247
,,,,,,,,,99,133.904,0.0164434
,,,,,,,,,114,72.8031,0.0245676
,,,,,,,,,130,120.462,0.0171696
,,,,,,,,,147,150.551,0.0197328
,,,,,,,,,165,150.573,0.0243695
,,,,,,,,,184,100.227,0.0215407
,,,,,,,,,98,90.1425,0.0503787
,,,,,,,,,113,80.5721,0.0258456
,,,,,,,,,129,123.235,0.0538197
,,,,,,,,,146,135.236,0.0276863
,,,,,,,,,164,129.773,0.0350218
,,,,,,,,,183,95.7907,0.0528783
,,,,,,,,,203,77.7259,0.0411521
,,,,,,,,,128,167.383,0.0372504
,,,,,,,,,145,33.4407,0.148485
,,,,,,,,,163,75.8357,0.041198
,,,,,,,,,182,105.75,0.0598525
,,,,,,,,,202,123.055,0.141534
,,,,,,,,,223,72.8088,0.080294
,,,,,,,,,162,153.054,0.0390988
,,,,,,,,,181,104.831,0.023194
,,,,,,,,,201,74.4966,0.0281299
,,,,,,,,,222,50.34,0.0385995
,,,,,,,,,244,96.7138,0.0319531
,,,,,,,,,200,50.1457,0.0434708
,,,,,,,,,221,79.8185,0.0647726
,,,,,,,,,243,109.71,0.172522
,,,,,,,,,266,78.4852,0.0894045
,,,,,,,,,242,30.3711,0.0303242
,,,,,,,,,265,60.7311,0.0428546
,,,,,,,,,289,57.5564,0.0348147
,,,,,,,,,288,35.7855,0.0634139
,,,,,,,,,313,63.1161,0.047263
,,,,,,,,,338,53.7269,0.0868363
