"cellPairingIds","interplanarAngles","angleWeights"
89,112.632,0.0358278
103,104.197,0.0128222
134,138.115,0.0584559
151,163.988,0.0476729
288,63.6056,0.0131049
366,63.433,0.05183
365,78.0444,0.0152665
393,88.1039,0.014415
450,53.8269,0.117793
