facetNormals:0,facetNormals:1,facetNormals:2,FacetCenters:0,FacetCenters:1,FacetCenters:2,FacetIds,relFacetSize,absFacetSize,cellPairingIds,interplanarAngles,angleWeights
0.204204,-0.109234,-0.957574,3.39572,6.9732,11.8095,1,0.00958016,0.00120751,8,47.3814,0.0148306
0.187258,0.645723,-0.719965,3.41324,7.00066,11.8266,2,0.032815,0.0041361,13,40.7262,0.0169092
0.769085,0.00670874,-0.59485,3.44962,6.96115,11.8382,3,0.0719619,0.0090703,19,49.3323,0.0148285
0.585209,0.518664,-0.591911,3.43763,6.9939,11.8427,4,0.0327941,0.00413347,26,59.6293,0.0155459
-0.379387,0.602169,-0.651496,3.36046,6.99664,11.8249,5,0.0412049,0.00519359,34,88.8375,0.0159654
-0.892441,0.279585,-0.242373,3.29643,6.96587,11.8789,6,0.0478736,0.00603414,43,84.0179,0.0157947
-0.448126,0.821461,-0.294454,3.33285,7.0169,11.8763,7,0.0449601,0.00566691,53,71.8802,0.0132881
0.892866,0.38091,-0.168283,3.47054,6.95471,11.8693,8,0.021679,0.00273249,64,92.2309,0.00943774
-0.212354,-0.959028,0.103672,3.36932,6.94241,11.9202,9,0.00929949,0.00117214,76,79.0027,0.0116258
0.970924,-0.182515,0.0338639,3.47499,6.95017,11.888,10,0.0147821,0.00186318,89,106.617,0.0136433
0.0837606,0.958109,0.197429,3.36989,7.03324,11.9108,11,0.0236915,0.00298614,103,104.057,0.00873853
0.620978,0.713082,0.298899,3.44697,7.02609,11.904,12,0.00803283,0.00101248,118,120.723,0.0114027
-0.434219,0.817546,0.330858,3.37144,7.02751,11.8916,13,0.0140815,0.00177487,134,112.745,0.0172385
0.742529,-0.218858,0.56439,3.45222,6.91964,11.9201,14,0.0859312,0.010831,151,150.07,0.0179051
0.129437,0.450877,0.813288,3.39133,6.98831,11.9385,15,0.136653,0.0172242,169,140.539,0.0130543
0.3694,-0.227651,0.894283,3.4163,6.92164,11.9567,16,0.020482,0.00258161,188,159.736,0.0173978
-0.407586,-0.141521,0.844588,3.35001,6.93206,11.928,17,0.0945648,0.0119192,18,52.9847,0.0450754
,,,,,,,,,25,25.6829,0.0328045
,,,,,,,,,33,34.1223,0.0365344
,,,,,,,,,42,78.6117,0.0389391
,,,,,,,,,52,47.0424,0.0379393
,,,,,,,,,63,56.5946,0.0261091
,,,,,,,,,75,138.943,0.0144921
,,,,,,,,,88,87.6706,0.0203825
,,,,,,,,,102,59.4077,0.0275167
,,,,,,,,,117,68.2786,0.0129063
,,,,,,,,,133,77.5731,0.0197065
,,,,,,,,,150,115.658,0.0474934
,,,,,,,,,168,106.984,0.0529217
,,,,,,,,,187,137.48,0.0252215
,,,,,,,,,207,146.137,0.0487227
,,,,,,,,,32,32.3414,0.0450556
,,,,,,,,,41,83.8933,0.0524037
,,,,,,,,,51,125.113,0.0574967
,,,,,,,,,62,99.8995,0.0553431
,,,,,,,,,74,34.5103,0.0333201
,,,,,,,,,87,103.944,0.0164705
,,,,,,,,,101,41.0022,0.0245262
,,,,,,,,,116,92.7976,0.0356471
,,,,,,,,,132,71.5867,0.0144524
,,,,,,,,,149,123.336,0.0235539
,,,,,,,,,167,75.4589,0.0783286
,,,,,,,,,186,114.683,0.0942772
,,,,,,,,,206,104.954,0.0318879
,,,,,,,,,227,152.348,0.0817294
,,,,,,,,,50,59.8051,0.0365215
,,,,,,,,,61,104.285,0.0389244
,,,,,,,,,73,69.4251,0.0379253
,,,,,,,,,86,31.9682,0.0261025
,,,,,,,,,100,134.84,0.01449
,,,,,,,,,115,62.1105,0.0203785
,,,,,,,,,131,63.5367,0.0275093
,,,,,,,,,148,55.1092,0.0129047
,,,,,,,,,166,91.5403,0.0197028
,,,,,,,,,185,90.7957,0.0474715
,,,,,,,,,205,100.753,0.0528945
,,,,,,,,,226,116.255,0.0252154
,,,,,,,,,248,150.788,0.0486996
,,,,,,,,,72,44.5028,0.0442896
,,,,,,,,,85,25.1905,0.0430007
,,,,,,,,,99,89.984,0.0284105
,,,,,,,,,114,126.32,0.0151743
,,,,,,,,,130,121.639,0.0217585
,,,,,,,,,147,63.9153,0.030085
,,,,,,,,,165,90.0555,0.0134446
,,,,,,,,,184,62.2611,0.0209898
,,,,,,,,,204,147.684,0.0557007
,,,,,,,,,225,109.84,0.0633177
,,,,,,,,,247,153.706,0.0273626
,,,,,,,,,270,121.698,0.0573991
,,,,,,,,,98,42.3008,0.0463712
,,,,,,,,,113,133.034,0.0298436
,,,,,,,,,129,96.2415,0.0155738
,,,,,,,,,146,165.776,0.0225893
,,,,,,,,,164,81.1904,0.0316969
,,,,,,,,,183,116.485,0.0137573
,,,,,,,,,203,55.6491,0.0217619
,,,,,,,,,224,158.417,0.0614901
,,,,,,,,,246,101.87,0.0709066
,,,,,,,,,269,129.441,0.0286896
,,,,,,,,,293,82.5077,0.0635665
,,,,,,,,,128,92.2333,0.0292528
,,,,,,,,,145,138.276,0.0154113
,,,,,,,,,163,127.849,0.0222491
,,,,,,,,,182,44.1237,0.0310312
,,,,,,,,,202,76.9611,0.0136304
,,,,,,,,,223,37.1403,0.0214461
,,,,,,,,,245,136.237,0.0590334
,,,,,,,,,268,85.4603,0.0676596
,,,,,,,,,292,129.169,0.0281431
,,,,,,,,,317,101.3,0.0609446
,,,,,,,,,162,126.028,0.0130157
,,,,,,,,,181,35.6181,0.0175783
,,,,,,,,,201,65.1488,0.0226406
,,,,,,,,,222,37.4367,0.0117222
,,,,,,,,,244,97.8313,0.0170732
,,,,,,,,,267,59.1043,0.0346231
,,,,,,,,,291,80.639,0.0374214
,,,,,,,,,316,84.573,0.0210635
,,,,,,,,,342,126.819,0.0352719
,,,,,,,,,200,91.6218,0.0114167
,,,,,,,,,221,160.865,0.0133563
,,,,,,,,,243,143.242,0.00861988
,,,,,,,,,266,132.625,0.0112015
,,,,,,,,,290,83.2802,0.0167827
,,,,,,,,,315,113.891,0.0174139
,,,,,,,,,341,76.2959,0.0127913
,,,,,,,,,368,70.6855,0.0169337
,,,,,,,,,242,95.1345,0.0182052
,,,,,,,,,265,60.4881,0.0104092
,,,,,,,,,289,125.16,0.0144233
,,,,,,,,,314,34.5484,0.025225
,,,,,,,,,340,85.6173,0.0266784
,,,,,,,,,367,64.0155,0.0171714
,,,,,,,,,395,111.349,0.0255676
,,,,,,,,,288,35.3408,0.0119977
,,,,,,,,,313,32.6957,0.017664
,,,,,,,,,339,92.1976,0.0371426
,,,,,,,,,366,49.1118,0.0403819
,,,,,,,,,394,90.6233,0.0219701
,,,,,,,,,423,90.1837,0.0378902
,,,,,,,,,338,64.9852,0.0102299
,,,,,,,,,365,60.0903,0.0146922
,,,,,,,,,393,46.1531,0.0151737
,,,,,,,,,422,70.1721,0.0115398
,,,,,,,,,452,96.1997,0.0148078
,,,,,,,,,392,109.516,0.0241977
,,,,,,,,,421,50.9478,0.025532
,,,,,,,,,451,92.9703,0.0166891
,,,,,,,,,482,68.5649,0.0245128
,,,,,,,,,450,59.5045,0.105513
,,,,,,,,,481,29.4956,0.0330794
,,,,,,,,,513,76.96,0.0900415
,,,,,,,,,512,43.8966,0.0356244
,,,,,,,,,545,50.1706,0.111778
,,,,,,,,,578,47.4945,0.033671
