facetNormals:0,facetNormals:1,facetNormals:2,FacetCenters:0,FacetCenters:1,FacetCenters:2,FacetIds,relFacetSize,absFacetSize,cellPairingIds,interplanarAngles,angleWeights
-0.0500688,-0.0217788,-0.89847,3.39191,7.13686,11.6865,1,0.122367,0.0108311,8,51.6183,0.0688547
-0.681004,-0.416776,-0.557793,3.32628,7.06426,11.721,2,0.0479053,0.00424028,13,53.0162,0.111846
0.449268,-0.62325,-0.595959,3.40301,7.07162,11.7067,3,0.102992,0.00911617,19,57.2569,0.1075
-0.642758,0.536854,-0.507937,3.34059,7.12785,11.723,4,0.0958541,0.00848441,26,67.4672,0.049379
-0.92935,0.0112151,-0.326706,3.30158,7.09234,11.7566,5,0.0309302,0.00273774,34,74.2015,0.0886673
0.839588,-0.38197,-0.302284,3.43622,7.11626,11.7099,6,0.0695213,0.0061536,43,82.6994,0.0442969
-0.227158,-0.953292,-0.0895136,3.34421,7.08095,11.7362,7,0.0270433,0.00239371,53,84.3468,0.0277094
-0.677799,-0.719193,-0.0424142,3.32266,7.05565,11.7727,8,0.0156237,0.00138291,64,92.2446,0.0580451
-0.901827,-0.350045,0.0968881,3.3027,7.09479,11.7808,9,0.0380462,0.00336761,76,117.142,0.113231
0.707355,-0.503275,0.411955,3.37951,7.09399,11.7455,10,0.105364,0.00932617,89,125.182,0.0279589
-0.480475,0.638565,0.581928,3.40028,7.0332,11.7172,11,0.0157825,0.00139696,103,131.852,0.0355201
-0.0702714,0.742325,0.644897,3.33224,7.06097,11.6868,12,0.0207753,0.0018389,118,127.486,0.114957
-0.207315,-0.702529,0.609587,3.33903,7.06492,11.7951,13,0.108394,0.00959436,18,72.4081,0.0653935
,,,,,,,,,25,58.5807,0.0638834
,,,,,,,,,33,32.3659,0.0375901
,,,,,,,,,42,104.954,0.0567238
,,,,,,,,,52,51.0946,0.0345708
,,,,,,,,,63,35.4326,0.0235627
,,,,,,,,,75,41.7909,0.0424103
,,,,,,,,,88,122.42,0.0658644
,,,,,,,,,102,105.885,0.0237428
,,,,,,,,,117,130.317,0.0289819
,,,,,,,,,133,84.1899,0.0664449
,,,,,,,,,32,109.675,0.0992947
,,,,,,,,,41,103.881,0.0475732
,,,,,,,,,51,32.5671,0.0830096
,,,,,,,,,62,55.2477,0.0428383
,,,,,,,,,74,79.8799,0.0271315
,,,,,,,,,87,105.004,0.0555658
,,,,,,,,,101,65.6018,0.104164
,,,,,,,,,116,178.025,0.0273706
,,,,,,,,,132,156.423,0.034576
,,,,,,,,,149,91.1488,0.105624
,,,,,,,,,50,37.1298,0.0467689
,,,,,,,,,61,128.448,0.0805912
,,,,,,,,,73,109.409,0.042185
,,,,,,,,,86,85.7913,0.026868
,,,,,,,,,100,68.9186,0.0544716
,,,,,,,,,115,172.966,0.100384
,,,,,,,,,131,68.4242,0.0271025
,,,,,,,,,148,83.093,0.0341492
,,,,,,,,,166,126.373,0.101739
,,,,,,,,,72,135.821,0.0428128
,,,,,,,,,85,76.2966,0.0288564
,,,,,,,,,99,49.2815,0.0207606
,,,,,,,,,114,33.0817,0.0341211
,,,,,,,,,130,147.411,0.0478219
,,,,,,,,,147,74.298,0.0209003
,,,,,,,,,165,98.1128,0.0248556
,,,,,,,,,184,90.8768,0.0481272
,,,,,,,,,98,77.8852,0.0389395
,,,,,,,,,113,107.051,0.0255136
,,,,,,,,,129,133.764,0.0491788
,,,,,,,,,146,44.8203,0.0837697
,,,,,,,,,164,149.083,0.0257249
,,,,,,,,,183,124.173,0.0319907
,,,,,,,,,203,95.5825,0.084711
,,,,,,,,,128,29.9558,0.0198053
,,,,,,,,,145,56.3686,0.0316148
,,,,,,,,,163,72.6356,0.0430398
,,,,,,,,,182,124.549,0.0199324
,,,,,,,,,202,140.578,0.0234985
,,,,,,,,,223,45.0742,0.0432869
,,,,,,,,,162,26.7325,0.022151
,,,,,,,,,181,98.1633,0.0272122
,,,,,,,,,201,99.3144,0.0157027
,,,,,,,,,222,121.782,0.0178349
,,,,,,,,,244,48.8794,0.0273108
,,,,,,,,,200,116.842,0.0559054
,,,,,,,,,221,73.9228,0.0223101
,,,,,,,,,243,98.0363,0.0268753
,,,,,,,,,266,57.9284,0.0563231
,,,,,,,,,242,116.342,0.0274528
,,,,,,,,,265,99.5786,0.0347072
,,,,,,,,,289,59.9862,0.106858
,,,,,,,,,288,25.0259,0.0179379
,,,,,,,,,313,89.6512,0.0275531
,,,,,,,,,338,96.9585,0.0348677
