Q	U	V
{$V$}	{[mm$^3$]}	0.00491128
{$d_v$}	{[mm]}	0.210895
{$S_c$}	{[mm$^2$]}	0.321386
{$S_o$}	{[mm$^2$]}	0.184819
{$S_l/S_o$}	[]	0.738923
{$\Psi$}	[]	0.434764
{$\eta$}	[]	0.460683
{med($\theta_e$)}	{[$^\circ$]}	
{$\Upsilon$}	[]	10
{$\Xi$}	[]	14
