facetNormals:0,facetNormals:1,facetNormals:2,FacetCenters:0,FacetCenters:1,FacetCenters:2,FacetIds,relFacetSize,absFacetSize,cellPairingIds,interplanarAngles,angleWeights
-0.376933,0.40214,-0.787575,5.77109,6.09878,14.3923,1,0.0370453,0.00423062,8,52.1236,0.0430801
-0.545553,-0.42689,-0.689071,5.71985,6.0832,14.3914,2,0.0514638,0.00587723,13,48.3943,0.0348183
-0.869093,-0.108782,-0.4306,5.72619,6.0734,14.3996,3,0.0328439,0.00375081,19,55.5299,0.0580258
0.012461,0.923065,-0.185048,5.81082,6.14882,14.4559,4,0.133807,0.015281,26,113.934,0.0203115
0.856469,-0.436713,-0.151018,5.86265,6.04403,14.4659,5,0.0139914,0.00159784,34,60.6099,0.0395758
-0.932065,0.242951,-0.00683468,5.73216,6.09184,14.4516,6,0.0424774,0.00485097,43,74.527,0.0400027
-0.252865,0.911737,0.266479,5.78705,6.14987,14.4821,7,0.0434733,0.00496471,53,126.771,0.0371476
-0.136735,-0.922329,0.313164,5.77902,6.01963,14.4559,8,0.0372506,0.00425406,64,107.212,0.0498696
-0.587148,-0.747605,0.254722,5.73199,6.04899,14.4677,9,0.0762742,0.00871061,76,143.159,0.0395763
0.347349,-0.836485,0.357991,5.84701,6.04018,14.47,10,0.0424786,0.00485111,89,105.196,0.0281102
0.205938,0.749107,0.597511,5.88401,6.14323,14.5199,11,0.0226477,0.00258639,103,81.2277,0.0418787
-0.668694,0.573753,0.430458,5.7464,6.10832,14.4898,12,0.0481628,0.00550025,118,172.92,0.0295455
0.463784,-0.318549,0.805255,5.84283,6.07908,14.5185,13,0.0245711,0.00280605,134,164.897,0.0237129
0.170183,-0.555795,0.801118,5.89282,6.09531,14.5287,14,0.0174373,0.00199137,151,123.313,0.0555828
-0.227756,0.274073,0.894239,5.80409,6.12044,14.5237,15,0.111255,0.0127055,169,144.487,0.0471987
-0.171635,-0.236594,0.927649,5.82642,6.09619,14.5282,16,0.0650194,0.0074253,18,31.0151,0.0400976
,,,,,,,,,25,107.285,0.0743368
,,,,,,,,,33,100.713,0.0220014
,,,,,,,,,42,64.2089,0.0465408
,,,,,,,,,52,116.923,0.0471323
,,,,,,,,,63,74.7654,0.0432186
,,,,,,,,,75,61.1526,0.0614595
,,,,,,,,,88,94.7676,0.0465415
,,,,,,,,,102,151.787,0.0314536
,,,,,,,,,117,100.629,0.0497586
,,,,,,,,,133,134.43,0.0332616
,,,,,,,,,150,114.928,0.0260487
,,,,,,,,,168,130.347,0.0703743
,,,,,,,,,187,117.893,0.0574528
,,,,,,,,,32,91.9683,0.0527419
,,,,,,,,,41,131.698,0.0196234
,,,,,,,,,51,33.2097,0.0370446
,,,,,,,,,62,89.6514,0.0374183
,,,,,,,,,74,84.961,0.0349087
,,,,,,,,,87,59.885,0.0459161
,,,,,,,,,101,112.583,0.037045
,,,,,,,,,116,122.77,0.026809
,,,,,,,,,132,69.6146,0.0390549
,,,,,,,,,149,138.238,0.0281115
,,,,,,,,,167,116.591,0.0227803
,,,,,,,,,186,103.35,0.0507158
,,,,,,,,,206,103.683,0.0436423
,,,,,,,,,50,113.441,0.0253339
,,,,,,,,,61,76.3571,0.0644842
,,,,,,,,,73,31.4958,0.0656253
,,,,,,,,,86,169.658,0.0582773
,,,,,,,,,100,143.469,0.0971627
,,,,,,,,,115,155.448,0.0644856
,,,,,,,,,131,50.7798,0.0387386
,,,,,,,,,148,61.4242,0.0708307
,,,,,,,,,166,118.215,0.0415182
,,,,,,,,,185,135.019,0.0308539
,,,,,,,,,205,84.6394,0.121494
,,,,,,,,,226,115.359,0.0875141
,,,,,,,,,72,164.512,0.0210495
,,,,,,,,,85,133.212,0.0211697
,,,,,,,,,99,75.5789,0.0203423
,,,,,,,,,114,102.964,0.0236455
,,,,,,,,,130,50.0389,0.0210496
,,,,,,,,,147,104.636,0.017297
,,,,,,,,,165,158.561,0.0216837
,,,,,,,,,184,64.2902,0.01783
,,,,,,,,,204,73.8765,0.0155255
,,,,,,,,,225,118.695,0.0248569
,,,,,,,,,247,101.195,0.0230276
,,,,,,,,,98,61.2526,0.0429696
,,,,,,,,,113,95.9843,0.0396926
,,,,,,,,,129,67.4267,0.0545665
,,,,,,,,,146,124.357,0.042478
,,,,,,,,,164,90.8519,0.0295436
,,,,,,,,,183,36.4578,0.0451418
,,,,,,,,,203,122.987,0.0311332
,,,,,,,,,224,108.286,0.0247249
,,,,,,,,,246,72.8927,0.0614812
,,,,,,,,,269,84.109,0.0513849
,,,,,,,,,128,138.391,0.0401221
,,,,,,,,,145,118.748,0.0553814
,,,,,,,,,163,142.069,0.0429702
,,,,,,,,,182,34.8996,0.0297808
,,,,,,,,,202,33.164,0.045698
,,,,,,,,,223,101.537,0.0313967
,,,,,,,,,245,110.222,0.0248908
,,,,,,,,,268,54.7752,0.0625177
,,,,,,,,,292,85.5073,0.0521069
,,,,,,,,,162,28.6365,0.0500553
,,,,,,,,,181,29.2096,0.0396932
,,,,,,,,,201,123.492,0.0281691
,,,,,,,,,222,108.306,0.0420096
,,,,,,,,,244,60.0375,0.0296106
,,,,,,,,,267,40.5044,0.0237548
,,,,,,,,,291,86.4638,0.0558136
,,,,,,,,,316,56.1992,0.047365
,,,,,,,,,200,57.6689,0.0545675
,,,,,,,,,221,123.242,0.0349252
,,,,,,,,,243,85.6423,0.0590432
,,,,,,,,,266,79.8148,0.0371686
,,,,,,,,,290,57.7591,0.0283854
,,,,,,,,,315,80.4847,0.0905022
,,,,,,,,,341,57.5248,0.0701985
,,,,,,,,,242,110.943,0.0295439
,,,,,,,,,265,125.759,0.0451425
,,,,,,,,,289,41.5645,0.0311335
,,,,,,,,,314,32.7401,0.0247251
,,,,,,,,,340,89.2812,0.0614825
,,,,,,,,,367,60.226,0.0513858
,,,,,,,,,288,55.1438,0.0308083
,,,,,,,,,313,69.4457,0.0235702
,,,,,,,,,339,84.2391,0.0197039
,,,,,,,,,366,42.7578,0.0376343
,,,,,,,,,394,68.9945,0.0335939
,,,,,,,,,338,98.7335,0.0325409
,,,,,,,,,365,95.1925,0.0256045
,,,,,,,,,393,42.6342,0.0672241
,,,,,,,,,422,66.6294,0.0553358
,,,,,,,,,392,22.0668,0.0203985
,,,,,,,,,421,56.1195,0.0402523
,,,,,,,,,451,38.9767,0.0356644
,,,,,,,,,450,56.5416,0.0301493
,,,,,,,,,481,28.5702,0.0274996
,,,,,,,,,512,30.8505,0.0820737
