"cellPairingIds","interplanarAngles","angleWeights"
13,49.6754,0.0162979
26,81.5721,0.0170402
43,93.5634,0.0215474
53,135.016,0.0204265
76,141.364,0.0222096
89,125.846,0.0206485
32,27.0856,0.0216687
62,66.9752,0.0367765
101,111.273,0.0387486
132,89.5025,0.0177827
73,42.6274,0.0320501
148,66.4743,0.0165991
99,69.6267,0.0369484
147,73.1592,0.037681
184,90.9522,0.0440562
182,70.1277,0.0701102
202,56.2018,0.0242212
245,47.0768,0.0504556
181,34.6031,0.0745954
244,34.4535,0.0771037
265,53.3918,0.0250612
289,33.8011,0.11063
313,57.9195,0.0803645
339,38.7381,0.0457882
338,50.7816,0.0253381
365,37.4135,0.0204656
392,51.721,0.0555573
