"cellPairingIds","interplanarAngles","angleWeights"
8,46.823,0.0828016
13,71.0223,0.108462
26,48.2377,0.119056
53,99.3522,0.0783339
18,49.8813,0.0931519
25,44.7562,0.0534105
33,83.9501,0.10086
42,90.2875,0.076616
51,85.2677,0.0980886
62,63.9664,0.0513159
74,113.639,0.0875353
87,76.5696,0.0871652
50,104.373,0.066466
61,49.5033,0.0549976
115,113.082,0.0357378
99,78.7839,0.0943078
130,60.5544,0.0521554
98,51.3479,0.045863
146,97.7311,0.0448214
145,40.9445,0.0433244
163,115.079,0.0316425
162,49.7844,0.0665845
181,61.5524,0.0424811
200,99.6204,0.0423937
