Q	U	V
{$V$}	{[mm$^3$]}	0.00775521
{$d_v$}	{[mm]}	0.245583
{$S_c$}	{[mm$^2$]}	0.339525
{$S_o$}	{[mm$^2$]}	0.221478
{$S_l/S_o$}	[]	0.532997
{$\Psi$}	[]	0.558052
{$\eta$}	[]	0.597620
{med($\theta_e$)}	{[$^\circ$]}	68.4061
{$\Upsilon$}	[]	10
{$\Xi$}	[]	13
