"cellPairingIds","interplanarAngles","angleWeights"
13,38.0805,0.0316921
19,34.4356,0.0447385
26,41.501,0.0530751
53,63.354,0.00480002
32,34.308,0.0355437
41,30.7482,0.0406116
132,45.6226,0.0458313
149,55.1398,0.0220476
167,66.3906,0.0237559
86,86.5142,0.00488011
100,83.237,0.0156752
148,43.2664,0.0792542
72,39.0865,0.0516684
85,25.0098,0.0617392
99,89.7751,0.00496518
130,47.519,0.0277577
204,62.9451,0.0340341
113,69.3164,0.00478823
146,23.1747,0.0230048
163,24.6006,0.0248064
245,50.2359,0.0297014
162,51.3106,0.0040036
181,88.4339,0.00443425
342,65.799,0.00382071
243,103.232,0.0173974
341,62.5418,0.0155155
368,57.2457,0.00829096
455,78.8427,0.00660358
314,58.1881,0.0186925
340,33.5469,0.0245675
395,100.305,0.0103783
424,72.5241,0.0273988
338,36.3385,0.0335125
422,52.6586,0.0753337
515,71.1667,0.0891179
392,30.5803,0.019954
547,52.8291,0.0287701
546,51.9359,0.0334961
580,56.9598,0.0317494
545,79.1243,0.0130008
579,40.7408,0.0586132
649,59.3228,0.0549662
686,71.7831,0.00932596
648,72.0519,0.0137529
723,40.2814,0.00612035
722,37.8895,0.0689781
761,43.26,0.00965885
800,45.3755,0.00950801
