Q	U	V
{$V$}	{[mm$^3$]}	0.00986887
{$d_v$}	{[mm]}	0.266127
{$S_c$}	{[mm$^2$]}	0.498937
{$S_o$}	{[mm$^2$]}	0.256942
{$S_l/S_o$}	[]	0.941827
{$\Psi$}	[]	0.445947
{$\eta$}	[]	0.488948
{med($\theta_e$)}	{[$^\circ$]}	
{$\Upsilon$}	[]	12
{$\Xi$}	[]	15
