"cellPairingIds","interplanarAngles","angleWeights"
19,63.2837,0.0220882
26,69.709,0.0442063
34,74.0486,0.0457579
43,89.2631,0.0433902
53,108.28,0.0501719
64,92.6426,0.0395529
86,46.1181,0.0332386
100,88.7106,0.0282194
72,47.9391,0.106878
99,82.1245,0.134522
98,58.1382,0.102229
113,127.012,0.149999
128,162.407,0.127239
145,81.0562,0.0756983
162,96.4107,0.0990578
