Q	U	V
{$V$}	{[mm$^3$]}	0.00475335
{$d_v$}	{[mm]}	0.208609
{$S_c$}	{[mm$^2$]}	0.329475
{$S_o$}	{[mm$^2$]}	0.174988
{$S_l/S_o$}	[]	0.882843
{$\Psi$}	[]	0.414949
{$\eta$}	[]	0.469435
{med($\theta_e$)}	{[$^\circ$]}	85.60845
{$\Upsilon$}	[]	14
{$\Xi$}	[]	8
