"cellPairingIds","interplanarAngles","angleWeights"
8,36.3741,0.0262961
13,127.248,0.0170284
19,22.1797,0.0240273
26,66.8793,0.0251642
18,156.926,0.0375613
25,45.2339,0.105076
42,59.0089,0.123643
52,66.2965,0.0470421
88,96.1358,0.106772
41,93.316,0.0352937
51,135.781,0.0347406
74,67.5094,0.0377695
87,104.384,0.0208543
50,47.7363,0.0890678
73,47.1338,0.0402443
85,43.8061,0.0435388
114,40.1011,0.0345242
113,80.2348,0.125928
146,62.5999,0.0867497
145,27.316,0.0234819
163,43.6766,0.0404905
162,62.8927,0.0368895
181,44.2475,0.108471
200,29.8579,0.0325793
