facetNormals:0,facetNormals:1,facetNormals:2,FacetCenters:0,FacetCenters:1,FacetCenters:2,FacetIds,relFacetSize,absFacetSize,cellPairingIds,interplanarAngles,angleWeights
-0.48442,-0.0133797,-0.848595,2.99293,6.77111,13.7996,1,0.0599998,0.00581458,8,42.0802,0.0615893
-0.23978,-0.648527,-0.684445,3.04175,6.72846,13.8431,2,0.0632653,0.00613104,13,79.8564,0.0543045
0.741335,-0.192074,-0.619996,3.06216,6.72936,13.8333,3,0.0495967,0.00480642,19,81.9975,0.0250392
0.55208,-0.678649,-0.46315,3.06577,6.70629,13.8799,4,0.0158207,0.00153319,26,58.1676,0.0577721
-0.459618,-0.804026,-0.320114,3.02919,6.71535,13.8644,5,0.055704,0.00539827,34,103.188,0.0431245
0.601916,0.726503,-0.105636,3.05884,6.78769,13.8728,6,0.0336579,0.00326179,43,67.1256,0.0589513
-0.699245,0.650075,-0.0388136,2.97858,6.77938,13.8553,7,0.0579388,0.00561485,53,66.1222,0.0840878
-0.764367,-0.594521,-0.00568731,2.99867,6.70692,13.9092,8,0.14049,0.0136149,64,141.445,0.033202
0.735094,-0.421018,0.451457,3.03072,6.71524,13.8897,9,0.0229512,0.0022242,76,128.313,0.0281068
0.18066,-0.716062,0.577416,3.04432,6.70678,13.9104,10,0.0183519,0.00177848,89,113.252,0.0626986
0.155188,0.898825,0.339728,3.0327,6.81407,13.8661,11,0.0656516,0.0063623,103,112.813,0.050132
-0.297758,0.721076,0.597302,3.00111,6.79143,13.9089,12,0.0430516,0.00417213,118,108.285,0.0519361
-0.628822,0.21078,0.705466,2.99251,6.74936,13.9389,13,0.0457831,0.00443684,134,172.387,0.0115683
0.4239,-0.0955536,0.889844,3.03832,6.73028,13.9429,14,0.00640122,0.000620342,18,67.2209,0.0556033
,,,,,,,,,25,49.5558,0.0253118
,,,,,,,,,33,26.8262,0.0592443
,,,,,,,,,42,126.022,0.0439395
,,,,,,,,,52,104.156,0.060485
,,,,,,,,,63,52.5613,0.0872433
,,,,,,,,,75,103.134,0.033683
,,,,,,,,,88,88.3754,0.0284508
,,,,,,,,,102,154.211,0.0644364
,,,,,,,,,117,147.372,0.0512369
,,,,,,,,,133,119.843,0.0531229
,,,,,,,,,150,132.325,0.0116261
,,,,,,,,,32,32.041,0.0239892
,,,,,,,,,41,89.2777,0.0524732
,,,,,,,,,51,66.5551,0.0401016
,,,,,,,,,62,131.12,0.0534442
,,,,,,,,,74,118.067,0.0733123
,,,,,,,,,87,68.5475,0.0313808
,,,,,,,,,101,95.3753,0.0267906
,,,,,,,,,116,106.241,0.0565059
,,,,,,,,,132,138.902,0.046093
,,,,,,,,,149,171.692,0.0476137
,,,,,,,,,167,102.976,0.011339
,,,,,,,,,50,63.0127,0.0246426
,,,,,,,,,61,96.8332,0.0215242
,,,,,,,,,73,148.821,0.0248547
,,,,,,,,,86,90.9496,0.0284389
,,,,,,,,,100,59.486,0.0187303
,,,,,,,,,115,69.9418,0.0169926
,,,,,,,,,131,135.031,0.0254972
,,,,,,,,,148,163.058,0.0231385
,,,,,,,,,166,148.468,0.0235155
,,,,,,,,,185,96.6347,0.00911459
,,,,,,,,,72,152.743,0.0419615
,,,,,,,,,85,101.637,0.0567994
,,,,,,,,,99,28.847,0.0797767
,,,,,,,,,114,98.7982,0.0325083
,,,,,,,,,130,70.4187,0.0276081
,,,,,,,,,147,161.178,0.0602701
,,,,,,,,,165,131.196,0.0485673
,,,,,,,,,184,96.4319,0.0502586
,,,,,,,,,204,114.53,0.0114829
,,,,,,,,,98,86.4927,0.0425801
,,,,,,,,,113,165.843,0.0543056
,,,,,,,,,129,84.4015,0.0272921
,,,,,,,,,146,122.066,0.0237527
,,,,,,,,,164,39.7421,0.0445012
,,,,,,,,,183,72.4322,0.0377796
,,,,,,,,,203,109.041,0.0387952
,,,,,,,,,224,84.4004,0.0107567
,,,,,,,,,128,80.7827,0.0820428
,,,,,,,,,145,151.389,0.0328784
,,,,,,,,,163,133.292,0.0278746
,,,,,,,,,182,60.1724,0.0615546
,,,,,,,,,202,45.8644,0.049398
,,,,,,,,,223,53.5764,0.0511487
,,,,,,,,,245,114.544,0.0115287
,,,,,,,,,162,109.752,0.0394566
,,,,,,,,,181,71.7465,0.0324631
,,,,,,,,,201,134.014,0.0894861
,,,,,,,,,222,102.411,0.0659069
,,,,,,,,,244,67.9947,0.0690607
,,,,,,,,,267,106.494,0.0122445
,,,,,,,,,200,39.4397,0.0203955
,,,,,,,,,221,96.8213,0.0340121
,,,,,,,,,243,105.548,0.0299408
,,,,,,,,,266,104.486,0.0305751
,,,,,,,,,290,37.5575,0.0100105
,,,,,,,,,242,117.365,0.0286852
,,,,,,,,,265,104.155,0.025734
,,,,,,,,,289,80.9476,0.0262012
,,,,,,,,,314,44.7909,0.00949169
,,,,,,,,,288,32.6931,0.0520023
,,,,,,,,,313,69.4036,0.0539461
,,,,,,,,,339,72.9755,0.0116651
,,,,,,,,,338,36.9181,0.0443754
,,,,,,,,,365,69.7739,0.0111453
,,,,,,,,,392,69.1639,0.011232
