"cellPairingIds","interplanarAngles","angleWeights"
8,33.2425,0.0438156
13,60.0256,0.0746568
19,60.1231,0.0504602
26,79.3281,0.0758955
34,45.9588,0.0739691
43,41.9227,0.0480031
18,39.2006,0.0424881
33,60.8692,0.0428864
63,62.7802,0.0178129
75,60.5573,0.0149277
51,46.7584,0.0702629
87,56.2987,0.0173728
167,44.9978,0.0738376
50,40.7959,0.0492318
73,66.1163,0.0357551
131,81.2052,0.00973782
148,70.8866,0.0434174
99,29.1552,0.021509
165,37.5581,0.0610104
98,55.608,0.0461476
146,54.8766,0.0711559
203,44.82,0.0560522
224,85.5422,0.0731648
269,94.4704,0.0809882
163,24.2072,0.0468023
182,71.5648,0.00964257
162,19.7369,0.0110909
222,30.5777,0.0203201
243,44.1779,0.0166493
290,35.155,0.0175449
242,61.3517,0.0104068
289,35.4687,0.0570211
340,54.6173,0.038294
288,97.9706,0.0101244
366,65.2017,0.0092205
423,95.1218,0.00960725
365,69.8181,0.0623255
452,54.9296,0.0409368
421,27.7666,0.0334442
451,74.4268,0.0631664
481,56.4227,0.0857746
513,51.0305,0.0468124
512,52.6933,0.0409709
545,85.1725,0.0293161
578,36.0556,0.0498963
