facetNormals:0,facetNormals:1,facetNormals:2,FacetCenters:0,FacetCenters:1,FacetCenters:2,FacetIds,relFacetSize,absFacetSize,cellPairingIds,interplanarAngles,angleWeights
0.0941478,-0.683279,-0.696199,3.3889,4.71458,11.5531,1,0.0330559,0.00656693,8,25.4282,0.0411855
0.448125,-0.443735,-0.738369,3.3844,4.73591,11.535,2,0.0546181,0.0108505,13,27.5449,0.0347129
-0.351958,-0.717114,-0.564958,3.3431,4.71333,11.5663,3,0.0365448,0.00726005,19,100.154,0.0515458
0.394561,0.747109,-0.443117,3.33883,4.87972,11.5685,4,0.116978,0.023239,26,85.4238,0.0474485
-0.879192,0.159622,-0.38482,3.27193,4.82868,11.5994,5,0.0840397,0.0166955,34,73.1244,0.0579863
-0.847425,-0.400375,-0.10714,3.27701,4.75447,11.6328,6,0.235899,0.0468641,43,52.4271,0.035213
0.610491,-0.742656,-0.01385,3.36933,4.67425,11.6285,7,0.0376714,0.00748385,53,91.5388,0.0308495
0.920485,0.260247,-0.0946041,3.29122,4.79379,11.5863,8,0.0289192,0.00574514,64,141.776,0.0348436
-0.442483,0.834141,0.185693,3.27865,4.87668,11.6622,9,0.0368357,0.00731783,76,86.5522,0.0112654
0.97244,-0.102885,0.148747,3.26946,4.79823,11.5723,10,0.00678964,0.00134884,89,143.027,0.026568
0.336038,0.858862,0.289649,3.30274,4.8514,11.6161,11,0.0222091,0.00441209,103,119.668,0.0252091
0.762456,0.225585,0.558884,3.28377,4.82369,11.6556,12,0.020373,0.00404734,118,141.116,0.0253627
-0.564174,0.240604,0.744703,3.27268,4.86318,11.7345,13,0.0205744,0.00408734,134,167.592,0.0307075
-0.0806928,0.506123,0.809229,3.27515,4.86464,11.7205,14,0.0286707,0.00569577,18,52.5559,0.0437899
,,,,,,,,,25,79.2701,0.0744669
,,,,,,,,,33,101.026,0.0662075
,,,,,,,,,42,97.7157,0.0886995
,,,,,,,,,52,48.9321,0.0445888
,,,,,,,,,63,66.8559,0.0378158
,,,,,,,,,75,139.028,0.0439981
,,,,,,,,,88,67.2386,0.0120779
,,,,,,,,,102,118.257,0.0315778
,,,,,,,,,117,100.445,0.0296765
,,,,,,,,,133,166.117,0.0298895
,,,,,,,,,150,157.328,0.0376027
,,,,,,,,,32,117.035,0.0556912
,,,,,,,,,41,64.3284,0.0509388
,,,,,,,,,51,45.5896,0.0632856
,,,,,,,,,62,69.7548,0.0370996
,,,,,,,,,74,119.083,0.0322879
,,,,,,,,,87,125.544,0.0366897
,,,,,,,,,101,111.362,0.0114517
,,,,,,,,,116,161.668,0.027628
,,,,,,,,,132,141.662,0.0261615
,,,,,,,,,149,114.717,0.026327
,,,,,,,,,167,147.648,0.0321324
,,,,,,,,,50,93.5281,0.0978102
,,,,,,,,,61,130.626,0.1564
,,,,,,,,,73,109.608,0.0569898
,,,,,,,,,86,49.174,0.0463739
,,,,,,,,,100,66.4841,0.0560283
,,,,,,,,,115,75.2092,0.0128343
,,,,,,,,,131,45.5446,0.0373307
,,,,,,,,,148,76.1653,0.0347023
,,,,,,,,,166,113.895,0.0349939
,,,,,,,,,185,90.7707,0.0460538
,,,,,,,,,72,38.0869,0.123929
,,,,,,,,,85,134.013,0.0520231
,,,,,,,,,99,141.446,0.0430309
,,,,,,,,,114,61.2226,0.0512207
,,,,,,,,,130,164.794,0.0125642
,,,,,,,,,147,106.672,0.0351335
,,,,,,,,,165,153.937,0.0327957
,,,,,,,,,184,74.6893,0.0330561
,,,,,,,,,204,99.8657,0.0427552
,,,,,,,,,98,103.941,0.0649679
,,,,,,,,,113,164.572,0.0515223
,,,,,,,,,129,88.6677,0.0637213
,,,,,,,,,146,148.882,0.0131994
,,,,,,,,,164,136.335,0.0405962
,,,,,,,,,183,150.291,0.0375069
,,,,,,,,,203,70.6218,0.0378478
,,,,,,,,,224,104.154,0.0511275
,,,,,,,,,128,66.4013,0.0327202
,,,,,,,,,145,164.637,0.0372488
,,,,,,,,,163,45.3779,0.0115056
,,,,,,,,,182,118.025,0.0279439
,,,,,,,,,202,71.9072,0.0264446
,,,,,,,,,223,125.104,0.0266136
,,,,,,,,,245,118.281,0.0325605
,,,,,,,,,162,102.981,0.0324009
,,,,,,,,,181,26.0384,0.0109973
,,,,,,,,,201,57.0475,0.0251238
,,,,,,,,,222,40.7563,0.0239053
,,,,,,,,,244,124.641,0.0240433
,,,,,,,,,267,91.1896,0.0287944
,,,,,,,,,200,120.877,0.0114659
,,,,,,,,,221,48.0791,0.0277107
,,,,,,,,,243,92.7838,0.0262357
,,,,,,,,,266,50.6535,0.026402
,,,,,,,,,290,48.7189,0.0322443
,,,,,,,,,242,72.8781,0.0103999
,,,,,,,,,265,33.5284,0.010185
,,,,,,,,,289,118.998,0.0102099
,,,,,,,,,314,90.6151,0.0109792
,,,,,,,,,288,49.3651,0.0212515
,,,,,,,,,313,75.5472,0.0213605
,,,,,,,,,339,46.1079,0.0250296
,,,,,,,,,338,87.5353,0.0204732
,,,,,,,,,365,57.1553,0.0238199
,,,,,,,,,392,33.5758,0.023957
