facetNormals:0,facetNormals:1,facetNormals:2,FacetCenters:0,FacetCenters:1,FacetCenters:2,FacetIds,relFacetSize,absFacetSize,cellPairingIds,interplanarAngles,angleWeights
-0.0545028,0.239714,-0.899645,5.26691,6.49457,11.8647,1,0.172262,0.0156452,8,61.7194,0.0643424
-0.728239,0.609424,-0.279715,5.16982,6.52766,11.9759,2,0.0395592,0.00359285,13,67.8218,0.0944885
-0.912444,0.0689268,-0.303638,5.18497,6.50639,11.9364,3,0.0650979,0.00591233,19,100.944,0.0820975
-0.163119,-0.946359,-0.0529917,5.23967,6.47937,11.9292,4,0.0538905,0.00489445,26,83.4941,0.111374
-0.715456,-0.604936,-0.231194,5.19353,6.47449,11.949,5,0.0822885,0.00747361,34,73.3806,0.140848
0.36875,0.906164,-0.0717377,5.28896,6.53595,11.9382,6,0.119125,0.0108191,43,73.2,0.084818
-0.231183,0.94622,-0.0258265,5.21374,6.52095,11.9425,7,0.0562595,0.0051096,53,89.3751,0.0931364
-0.742846,0.600876,0.194086,5.16978,6.52937,11.9943,8,0.0638212,0.00579638,64,144.513,0.0344664
0.562554,-0.385093,0.670359,5.28378,6.52167,11.9868,9,0.0191489,0.00173914,76,139.775,0.0179949
-0.453257,-0.588461,0.653972,5.27558,6.51339,11.9746,10,0.00949327,0.000862198,89,111.343,0.0937026
0.295484,0.758963,0.556494,5.248,6.54204,12.0124,11,0.0643542,0.00584478,103,163.425,0.0239855
-0.0291941,-0.499837,0.841458,5.31122,6.53152,11.9414,12,0.0128902,0.00117071,118,142.231,0.0607489
-0.271865,0.28061,0.881012,5.20849,6.49871,12.0352,13,0.0368769,0.00334923,18,33.9807,0.0492125
,,,,,,,,,25,117.737,0.0456259
,,,,,,,,,33,76.8688,0.0534317
,,,,,,,,,42,71.771,0.0593945
,,,,,,,,,52,38.7535,0.046454
,,,,,,,,,63,27.9117,0.0488432
,,,,,,,,,75,151.51,0.0258061
,,,,,,,,,88,102.466,0.015312
,,,,,,,,,102,84.6123,0.0489985
,,,,,,,,,117,122.354,0.0194445
,,,,,,,,,133,82.6193,0.038171
,,,,,,,,,32,83.8277,0.0589664
,,,,,,,,,41,42.921,0.0726907
,,,,,,,,,51,105.468,0.0841891
,,,,,,,,,62,72.4031,0.0603568
,,,,,,,,,74,45.3749,0.0644532
,,,,,,,,,87,143.752,0.0295929
,,,,,,,,,101,79.4655,0.0165701
,,,,,,,,,116,113.964,0.0647239
,,,,,,,,,132,106.196,0.0215193
,,,,,,,,,149,90.0065,0.0470824
,,,,,,,,,50,40.9089,0.0651285
,,,,,,,,,61,165.623,0.0742095
,,,,,,,,,73,156.039,0.0550495
,,,,,,,,,86,119.221,0.058437
,,,,,,,,,100,75.0548,0.0282571
,,,,,,,,,115,51.2185,0.0161428
,,,,,,,,,131,147.031,0.0586594
,,,,,,,,,148,62.6126,0.0208042
,,,,,,,,,166,106.799,0.0437891
,,,,,,,,,72,147.166,0.0973381
,,,,,,,,,85,115.245,0.0668289
,,,,,,,,,99,82.4813,0.0718878
,,,,,,,,,114,110.592,0.0310681
,,,,,,,,,130,56.3595,0.0170227
,,,,,,,,,147,147.093,0.0722247
,,,,,,,,,165,82.1708,0.0222889
,,,,,,,,,184,101.092,0.0509299
,,,,,,,,,98,35.9231,0.0764253
,,,,,,,,,113,74.4339,0.083114
,,,,,,,,,129,101.663,0.0329941
,,,,,,,,,146,140.334,0.0175851
,,,,,,,,,164,38.5463,0.0835646
,,,,,,,,,183,123.067,0.0232631
,,,,,,,,,203,84.487,0.0563192
,,,,,,,,,128,39.2868,0.0598023
,,,,,,,,,145,123.319,0.0285726
,,,,,,,,,163,119.096,0.0162453
,,,,,,,,,182,48.6131,0.0600352
,,,,,,,,,202,120.759,0.0209746
,,,,,,,,,223,71.0077,0.0445513
,,,,,,,,,162,123.846,0.0294589
,,,,,,,,,181,83.4517,0.016528
,,,,,,,,,201,69.0062,0.0640866
,,,,,,,,,222,96.9394,0.0214484
,,,,,,,,,244,54.8054,0.0467442
,,,,,,,,,200,64.3206,0.0126936
,,,,,,,,,221,74.8171,0.0295153
,,,,,,,,,243,37.7586,0.0154082
,,,,,,,,,266,69.0418,0.0252081
,,,,,,,,,242,102.821,0.0165458
,,,,,,,,,265,27.739,0.010934
,,,,,,,,,289,55.9345,0.0150995
,,,,,,,,,288,85.232,0.0214783
,,,,,,,,,313,49.0621,0.0468864
,,,,,,,,,338,49.8069,0.019103
