"cellPairingIds","interplanarAngles","angleWeights"
13,65.084,0.0306989
19,85.9289,0.0938126
26,46.2161,0.0599048
76,96.6064,0.0981424
25,59.064,0.0692094
33,71.808,0.0488221
42,38.8005,0.0755717
102,76.7242,0.0491672
32,61.973,0.0273896
101,45.7737,0.027747
50,115.782,0.0484755
115,95.427,0.0707961
131,109.549,0.0488157
72,43.2201,0.0515132
85,36.432,0.0468485
99,65.1031,0.0372343
114,53.0899,0.0578535
130,124.507,0.0496064
129,43.4573,0.0996515
164,64.0122,0.0518975
128,46.3718,0.0464257
145,32.2386,0.0835573
163,107.563,0.0673786
181,63.0753,0.0491326
200,125.843,0.0927545
221,44.7979,0.0583387
242,116.883,0.0499627
