facetNormals:0,facetNormals:1,facetNormals:2,FacetCenters:0,FacetCenters:1,FacetCenters:2,FacetIds,relFacetSize,absFacetSize,cellPairingIds,interplanarAngles,angleWeights
0.181182,0.143231,-0.942317,4.77432,5.92218,13.6351,1,0.0203715,0.00538324,8,40.5649,0.0259198
-0.205795,0.619906,-0.686504,4.7974,5.94814,13.7392,2,0.0356216,0.00941315,13,75.7089,0.0275581
-0.876192,-0.0574876,-0.425156,4.65143,5.95874,13.6567,3,0.0425793,0.0112517,19,93.3522,0.0306795
-0.64992,-0.682062,-0.170988,4.71062,5.8774,13.6572,4,0.0621049,0.0164115,26,64.6556,0.0323953
0.892392,-0.179353,-0.274718,4.82052,5.92871,13.6818,5,0.0790576,0.0208913,34,75.6479,0.0185406
-0.67658,0.654901,-0.28136,4.72515,6.00815,13.7439,6,0.0170117,0.00449541,43,105.001,0.0312596
-0.949995,0.0671699,0.0823081,4.71199,5.97374,13.6908,7,0.0671493,0.0177445,53,109.244,0.025117
-0.465116,0.769101,0.355469,4.72886,6.0459,13.7606,8,0.0327448,0.00865294,64,131.993,0.030792
-0.650424,-0.564703,0.4626,4.69667,5.94839,13.737,9,0.0630373,0.0166578,76,109.034,0.0348934
0.630328,-0.631803,0.346643,4.80312,5.94775,13.7207,10,0.121518,0.0321117,89,153.032,0.0340496
0.199705,-0.37102,0.864589,4.77478,5.96749,13.7944,11,0.103632,0.0273852,103,144.292,0.0321567
0.027801,0.403901,0.865812,4.80084,6.09578,13.8135,12,0.0762946,0.0201611,18,61.8213,0.0387909
,,,,,,,,,25,100.907,0.0452749
,,,,,,,,,33,96.7718,0.0491137
,,,,,,,,,42,37.5448,0.0230267
,,,,,,,,,52,78.4969,0.0465495
,,,,,,,,,63,68.9843,0.0341227
,,,,,,,,,75,125.18,0.0455203
,,,,,,,,,88,146.824,0.0550933
,,,,,,,,,102,161.569,0.053019
,,,,,,,,,117,112.714,0.0485674
,,,,,,,,,32,43.1642,0.0505211
,,,,,,,,,41,134.904,0.0553486
,,,,,,,,,51,45.267,0.0243106
,,,,,,,,,62,31.6917,0.0521135
,,,,,,,,,74,76.9957,0.03702
,,,,,,,,,87,64.8298,0.0508269
,,,,,,,,,101,135.25,0.063062
,,,,,,,,,116,123.745,0.0603589
,,,,,,,,,132,116.474,0.0546557
,,,,,,,,,50,116.814,0.0695633
,,,,,,,,,61,87.4937,0.0267077
,,,,,,,,,73,52.474,0.0645287
,,,,,,,,,86,107.81,0.0428808
,,,,,,,,,100,38.8799,0.0625676
,,,,,,,,,115,92.376,0.0821997
,,,,,,,,,131,91.5287,0.077666
,,,,,,,,,148,118.85,0.0684723
,,,,,,,,,72,133.563,0.0279987
,,,,,,,,,85,166.144,0.0726185
,,,,,,,,,99,135.074,0.046309
,,,,,,,,,114,130.703,0.0701443
,,,,,,,,,130,50.3725,0.0957936
,,,,,,,,,147,89.5463,0.0896921
,,,,,,,,,165,108.309,0.0776515
,,,,,,,,,98,45.0607,0.0271462
,,,,,,,,,113,40.8644,0.0223909
,,,,,,,,,129,93.5752,0.0267929
,,,,,,,,,146,175.313,0.0298453
,,,,,,,,,164,131.1,0.0292259
,,,,,,,,,183,89.8719,0.0278203
,,,,,,,,,128,55.5411,0.0440225
,,,,,,,,,145,48.6025,0.0650283
,,,,,,,,,163,132.027,0.0865
,,,,,,,,,182,98.9781,0.081494
,,,,,,,,,202,85.4813,0.0714304
,,,,,,,,,162,88.0201,0.0431008
,,,,,,,,,181,135.134,0.0515884
,,,,,,,,,201,94.3743,0.0497653
,,,,,,,,,222,49.0491,0.0458229
,,,,,,,,,200,83.4267,0.0830122
,,,,,,,,,221,59.3366,0.078391
,,,,,,,,,243,80.4924,0.0690352
,,,,,,,,,242,44.2148,0.111865
,,,,,,,,,265,86.0859,0.093737
,,,,,,,,,288,48.9035,0.0878866
