Q	U	V
{$V$}	{[mm$^3$]}	0.00527226
{$d_v$}	{[mm]}	0.215940
{$S_c$}	{[mm$^2$]}	0.353928
{$S_o$}	{[mm$^2$]}	0.194468
{$S_l/S_o$}	[]	0.819981
{$\Psi$}	[]	0.413905
{$\eta$}	[]	0.449207
{med($\theta_e$)}	{[$^\circ$]}	69.3053
{$\Upsilon$}	[]	17
{$\Xi$}	[]	3
