facetNormals:0,facetNormals:1,facetNormals:2,FacetCenters:0,FacetCenters:1,FacetCenters:2,FacetIds,relFacetSize,absFacetSize,cellPairingIds,interplanarAngles,angleWeights
-0.365339,0.476494,-0.723779,4.92531,6.0527,13.9926,1,0.0847091,0.0294066,8,68.3186,0.0874207
0.414133,-0.245488,-0.832129,4.92875,5.96787,14.0184,2,0.0903116,0.0313516,13,52.3858,0.0422859
-0.590658,-0.335819,-0.692031,4.93895,6.07697,14.0446,3,0.0281754,0.00978104,19,54.8183,0.0830463
0.504739,0.442921,-0.677078,5.01074,6.02553,13.9963,4,0.0814475,0.0282744,26,79.6953,0.0559057
-0.0513955,-0.692783,-0.651505,4.9737,6.00857,14.0309,5,0.0417199,0.014483,34,54.169,0.0867025
-0.592648,0.719158,0.0622162,4.90606,6.02469,14.0714,6,0.088792,0.030824,43,102.809,0.102023
-0.653393,0.101494,0.667229,4.88841,5.95566,14.095,7,0.128233,0.0445161,53,162.998,0.0569128
0.499815,-0.567524,0.501719,5.03051,5.97077,14.0408,8,0.0428516,0.0148759,64,138.527,0.0634394
0.63897,0.136789,0.699243,5.02149,6.02204,14.0643,9,0.0507073,0.017603,76,104.799,0.075576
0.322115,0.660969,0.584226,4.9682,6.02902,14.0669,10,0.0682207,0.0236827,89,140.487,0.0503662
-0.268155,-0.413479,0.835405,4.96876,6.00045,14.0718,11,0.035837,0.0124408,18,63.6594,0.0429509
,,,,,,,,,25,43.6163,0.0856508
,,,,,,,,,33,41.0078,0.0570741
,,,,,,,,,42,121.846,0.0895454
,,,,,,,,,52,160.397,0.105982
,,,,,,,,,63,94.68,0.0581241
,,,,,,,,,75,112.414,0.0649481
,,,,,,,,,88,124.781,0.077727
,,,,,,,,,102,139.092,0.0513125
,,,,,,,,,32,88.6562,0.0418674
,,,,,,,,,41,39.3871,0.0336353
,,,,,,,,,51,85.8538,0.0427769
,,,,,,,,,62,96.9284,0.0461998
,,,,,,,,,74,120.888,0.0339972
,,,,,,,,,87,167.813,0.0362233
,,,,,,,,,101,153.703,0.0398801
,,,,,,,,,116,107.374,0.0315477
,,,,,,,,,50,83.1496,0.0551766
,,,,,,,,,61,91.4622,0.0849613
,,,,,,,,,73,145.315,0.0996208
,,,,,,,,,86,113.046,0.0561574
,,,,,,,,,100,95.681,0.0625022
,,,,,,,,,115,86.1729,0.0742497
,,,,,,,,,131,162.915,0.0497736
,,,,,,,,,72,124.851,0.0567671
,,,,,,,,,85,121.8,0.0629571
,,,,,,,,,99,87.307,0.0422782
,,,,,,,,,114,129.777,0.0457766
,,,,,,,,,130,162.947,0.0517763
,,,,,,,,,147,105.318,0.0385553
,,,,,,,,,98,55.1185,0.104929
,,,,,,,,,113,142.576,0.0578058
,,,,,,,,,129,105.363,0.0645509
,,,,,,,,,146,68.5473,0.0771588
,,,,,,,,,164,95.4768,0.0510642
,,,,,,,,,128,93.3229,0.0642372
,,,,,,,,,145,85.9854,0.0726762
,,,,,,,,,163,73.7792,0.0890608
,,,,,,,,,182,40.7103,0.0560187
,,,,,,,,,162,46.9812,0.0464496
,,,,,,,,,181,84.6815,0.052639
,,,,,,,,,201,53.8089,0.0390317
,,,,,,,,,200,38.3611,0.0581745
,,,,,,,,,221,67.4322,0.0419946
,,,,,,,,,242,81.8971,0.0469898
