facetNormals:0,facetNormals:1,facetNormals:2,FacetCenters:0,FacetCenters:1,FacetCenters:2,FacetIds,relFacetSize,absFacetSize,cellPairingIds,interplanarAngles,angleWeights
0.571591,-0.0113088,-0.752728,4.50691,6.94373,13.2289,1,0.166245,0.0442625,8,49.8501,0.0616472
0.240332,-0.737697,-0.601087,4.51168,6.84565,13.2751,2,0.0378394,0.0100747,13,81.5735,0.0422392
-0.177189,0.901632,-0.32761,4.45194,7.06388,13.3102,3,0.0241931,0.00644139,19,42.5827,0.0586495
0.88795,0.334765,-0.234564,4.48741,7.01133,13.2643,4,0.0356054,0.00947992,26,82.583,0.0469935
0.18475,-0.94718,-0.001912,4.46607,6.8321,13.3456,5,0.0273644,0.00728576,34,88.9597,0.106701
-0.494822,-0.712163,-0.386696,4.436,6.88444,13.2876,6,0.0785627,0.0209173,43,115.825,0.180196
-0.898858,0.183952,-0.174437,4.40229,6.98004,13.3095,7,0.196704,0.0523725,53,111.328,0.026751
-0.107277,-0.908403,0.38555,4.44228,6.82662,13.3955,8,0.0145458,0.00387281,64,151.076,0.118664
-0.774249,-0.272511,0.439471,4.42748,6.93756,13.3307,9,0.092259,0.0245639,76,137.013,0.0558846
-0.288154,-0.631191,0.688653,4.45681,6.87441,13.3551,10,0.0335877,0.00894272,89,112.473,0.057023
0.0831216,0.796982,0.506065,4.4706,7.06475,13.3015,11,0.0344136,0.0091626,18,122.242,0.0295152
,,,,,,,,,25,83.57,0.0366884
,,,,,,,,,33,38.2033,0.0317605
,,,,,,,,,42,46.72,0.0510775
,,,,,,,,,52,105.625,0.0634694
,,,,,,,,,63,64.9441,0.0210137
,,,,,,,,,75,105.826,0.0536675
,,,,,,,,,88,91.049,0.035587
,,,,,,,,,102,159.657,0.0360453
,,,,,,,,,32,76.5784,0.0288102
,,,,,,,,,41,160.264,0.0256812
,,,,,,,,,51,117.503,0.036994
,,,,,,,,,62,65.1916,0.0430868
,,,,,,,,,74,163.06,0.0181682
,,,,,,,,,87,106.14,0.0383339
,,,,,,,,,101,141.241,0.0281266
,,,,,,,,,116,54.4101,0.0284121
,,,,,,,,,50,99.3085,0.0309456
,,,,,,,,,61,129.236,0.0490024
,,,,,,,,,73,139.64,0.0602965
,,,,,,,,,86,120.316,0.0206539
,,,,,,,,,100,165.67,0.0513813
,,,,,,,,,115,131.14,0.0345671
,,,,,,,,,131,76.1413,0.0349993
,,,,,,,,,72,50.4167,0.0405906
,,,,,,,,,85,112.161,0.048045
,,,,,,,,,99,28.7482,0.0189948
,,,,,,,,,114,82.6957,0.0422093
,,,,,,,,,130,54.8379,0.0301583
,,,,,,,,,147,144.062,0.0304868
,,,,,,,,,98,64.5384,0.112281
,,,,,,,,,113,54.231,0.0245468
,,,,,,,,,129,62.5699,0.0848618
,,,,,,,,,146,69.4522,0.0470572
,,,,,,,,,164,153.369,0.0478618
,,,,,,,,,128,98.5563,0.0270885
,,,,,,,,,145,49.1145,0.125606
,,,,,,,,,163,88.5707,0.057378
,,,,,,,,,182,91.0607,0.0585787
,,,,,,,,,162,57.2445,0.0251296
,,,,,,,,,181,26.3205,0.0203002
,,,,,,,,,201,124.865,0.0204485
,,,,,,,,,200,39.95,0.0492467
,,,,,,,,,221,93.8432,0.0501286
,,,,,,,,,242,101.108,0.0339956
