"cellPairingIds","interplanarAngles","angleWeights"
8,78.4082,0.0520927
13,38.892,0.0118602
19,92.7229,0.0866337
26,116.059,0.0547342
34,59.7726,0.0569224
43,102.956,0.0235522
53,132.603,0.0804221
33,42.3904,0.0474511
63,77.3608,0.0656228
32,90.1304,0.012584
51,26.8529,0.0116972
101,115.492,0.0116745
149,143.609,0.0121456
50,54.9202,0.0745122
115,47.2342,0.0776154
99,66.0449,0.0698706
130,57.0434,0.050991
184,65.1478,0.061391
98,76.0262,0.0229178
129,63.0658,0.0358374
203,120.772,0.0641573
128,54.23,0.0259734
145,23.2042,0.0189412
162,67.7202,0.0439167
244,42.2543,0.0956635
266,68.4907,0.0404085
289,47.8049,0.0634821
