"cellPairingIds","interplanarAngles","angleWeights"
8,57.8529,0.0867955
13,99.3261,0.049425
26,121.093,0.0274261
53,67.3685,0.0799168
76,80.6189,0.0726222
18,86.2294,0.0495642
25,55.3332,0.0787978
42,48.0977,0.0226903
63,66.2099,0.0802813
32,43.5773,0.0467245
41,48.9381,0.022165
87,69.6387,0.0414916
61,35.965,0.0220761
100,64.7399,0.0601827
114,58.142,0.0247953
130,101.251,0.025871
184,65.01,0.0245437
113,81.711,0.022191
129,64.8377,0.0208346
183,67.2157,0.0169278
181,59.1432,0.0680052
222,40.8839,0.0364181
243,78.3304,0.0329028
266,69.9651,0.0506875
265,68.2694,0.0348241
289,46.1016,0.0553957
314,42.6199,0.0540245
338,73.8174,0.0324612
365,27.3594,0.0319855
392,51.264,0.0485427
