"cellPairingIds","interplanarAngles","angleWeights"
8,58.9782,0.0134895
13,83.1595,0.0277798
26,106.004,0.0325708
34,106.42,0.0383214
43,99.7391,0.0356426
53,113.168,0.0353963
89,166.089,0.0385037
18,38.2062,0.015302
52,46.268,0.0174186
41,50.1072,0.0456176
62,56.7309,0.0518799
101,70.3565,0.0385524
130,89.012,0.0484407
147,63.8507,0.0840652
98,34.1286,0.106689
113,29.3651,0.104513
129,40.5751,0.0976661
146,35.9393,0.0623578
163,30.0646,0.0555626
162,30.2864,0.080675
201,79.4546,0.10588
200,38.6673,0.053012
221,50.5062,0.0988591
242,61.9331,0.062842
