facetNormals:0,facetNormals:1,facetNormals:2,FacetCenters:0,FacetCenters:1,FacetCenters:2,FacetIds,relFacetSize,absFacetSize,cellPairingIds,interplanarAngles,angleWeights
-0.437376,-0.228574,-0.854395,2.72197,5.68292,12.232,1,0.0482487,0.00686683,8,58.2798,0.0380743
0.519704,-0.190723,-0.811449,2.80041,5.66504,12.2072,2,0.0314437,0.00447511,13,50.5457,0.0401242
-0.106654,0.535714,-0.798973,2.76157,5.69315,12.2351,3,0.0343415,0.00488754,19,43.5625,0.0329247
0.127755,-0.665591,-0.70673,2.78935,5.59945,12.2135,4,0.0249884,0.00355638,26,85.2029,0.040285
0.811496,0.0832551,-0.531728,2.82344,5.67472,12.2308,5,0.0345778,0.00492116,34,32.3339,0.0542789
-0.659379,-0.5195,-0.455296,2.69829,5.63521,12.2705,6,0.0620319,0.00882847,43,49.6789,0.0750724
-0.71581,0.450117,-0.480873,2.69365,5.7566,12.2775,7,0.169062,0.0240612,53,54.1063,0.0258581
-0.963336,-0.176147,-0.128458,2.63627,5.69094,12.3319,8,0.0176618,0.00251365,64,120.138,0.0730243
0.872818,0.392913,0.00307058,2.79483,5.7545,12.3009,9,0.150101,0.0213627,76,94.3731,0.0296174
-0.636018,-0.483032,0.539687,2.65648,5.6758,12.3641,10,0.0213666,0.00304093,89,83.3788,0.0401953
-0.917248,0.215773,0.280898,2.64422,5.73716,12.3826,11,0.0344458,0.00490238,103,134.466,0.068854
0.103794,0.779894,0.486542,2.73478,5.79592,12.3942,12,0.120178,0.0171039,118,116.544,0.0510824
-0.593048,0.228516,0.749666,2.68255,5.73205,12.444,13,0.0542697,0.00772375,18,58.9248,0.0328288
,,,,,,,,,25,37.1341,0.0278468
,,,,,,,,,33,28.9084,0.0329363
,,,,,,,,,42,82.2901,0.041733
,,,,,,,,,52,94.0601,0.0530252
,,,,,,,,,63,111.96,0.0226187
,,,,,,,,,75,66.4165,0.0519952
,,,,,,,,,88,135.587,0.0254437
,,,,,,,,,102,140.547,0.0328763
,,,,,,,,,117,122.602,0.0498456
,,,,,,,,,133,173.987,0.0398173
,,,,,,,,,32,78.1589,0.0289277
,,,,,,,,,41,66.0291,0.0344593
,,,,,,,,,51,80.296,0.0442087
,,,,,,,,,62,41.8142,0.057087
,,,,,,,,,74,83.3312,0.0233267
,,,,,,,,,87,82.8725,0.0558949
,,,,,,,,,101,131.826,0.0263431
,,,,,,,,,116,90.6629,0.0343936
,,,,,,,,,132,88.8482,0.0534184
,,,,,,,,,149,115.753,0.0420648
,,,,,,,,,50,63.5935,0.0290112
,,,,,,,,,61,51.4058,0.0356256
,,,,,,,,,73,93.081,0.0435411
,,,,,,,,,86,84.9605,0.0206958
,,,,,,,,,100,99.3445,0.0428442
,,,,,,,,,115,98.6018,0.023036
,,,,,,,,,131,118.494,0.0289646
,,,,,,,,,148,159.726,0.0413739
,,,,,,,,,166,141.935,0.0342201
,,,,,,,,,72,111.198,0.0444039
,,,,,,,,,85,107.683,0.0574131
,,,,,,,,,99,139.204,0.023381
,,,,,,,,,114,37.5086,0.0562075
,,,,,,,,,130,153.958,0.0264123
,,,,,,,,,147,156.157,0.0345117
,,,,,,,,,165,96.9854,0.0537038
,,,,,,,,,184,154.094,0.0422415
,,,,,,,,,98,60.5238,0.0907617
,,,,,,,,,113,33.6467,0.0274951
,,,,,,,,,129,148.699,0.0877851
,,,,,,,,,146,62.5308,0.031785
,,,,,,,,,164,67.1365,0.044295
,,,,,,,,,183,141.894,0.0818272
,,,,,,,,,203,94.2155,0.0578918
,,,,,,,,,128,45.614,0.0319824
,,,,,,,,,145,118.859,0.159019
,,,,,,,,,163,91.3245,0.0379385
,,,,,,,,,182,49.7006,0.057231
,,,,,,,,,202,87.2749,0.140489
,,,,,,,,,223,79.9475,0.0821643
,,,,,,,,,162,164.364,0.0316048
,,,,,,,,,181,48.6913,0.0193384
,,,,,,,,,201,33.5336,0.0233507
,,,,,,,,,222,109.159,0.0307975
,,,,,,,,,244,63.3933,0.0266504
,,,,,,,,,200,143.667,0.0374083
,,,,,,,,,221,139.433,0.056033
,,,,,,,,,243,63.2516,0.133483
,,,,,,,,,266,116.894,0.0797173
,,,,,,,,,242,48.2777,0.0263737
,,,,,,,,,265,101.656,0.0362825
,,,,,,,,,289,44.8692,0.0306615
,,,,,,,,,288,76.6678,0.0535445
,,,,,,,,,313,33.712,0.0421429
,,,,,,,,,338,58.0277,0.0747734
