Q	U	V
{$V$}	{[mm$^3$]}	0.000940458
{$d_v$}	{[mm]}	0.121557
{$S_c$}	{[mm$^2$]}	0.0801951
{$S_o$}	{[mm$^2$]}	0.0453111
{$S_l/S_o$}	[]	0.769878
{$\Psi$}	[]	0.578845
{$\eta$}	[]	0.621042
{med($\theta_e$)}	{[$^\circ$]}	64.54825
{$\Upsilon$}	[]	16
{$\Xi$}	[]	0
