Q	U	V
{$V$}	{[mm$^3$]}	0.00670789
{$d_v$}	{[mm]}	0.233989
{$S_c$}	{[mm$^2$]}	0.365809
{$S_o$}	{[mm$^2$]}	0.23656
{$S_l/S_o$}	[]	0.546369
{$\Psi$}	[]	0.470205
{$\eta$}	[]	0.520662
{med($\theta_e$)}	{[$^\circ$]}	49.9683
{$\Upsilon$}	[]	15
{$\Xi$}	[]	9
