Q	U	V
{$V$}	{[mm$^3$]}	0.0054955
{$d_v$}	{[mm]}	0.218946
{$S_c$}	{[mm$^2$]}	0.265092
{$S_o$}	{[mm$^2$]}	0.168559
{$S_l/S_o$}	[]	0.572696
{$\Psi$}	[]	0.568101
{$\eta$}	[]	0.591991
{med($\theta_e$)}	{[$^\circ$]}	65.6114
{$\Upsilon$}	[]	13
{$\Xi$}	[]	8
