facetNormals:0,facetNormals:1,facetNormals:2,FacetCenters:0,FacetCenters:1,FacetCenters:2,FacetIds,relFacetSize,absFacetSize,cellPairingIds,interplanarAngles,angleWeights
0.40808,-0.240207,-0.797701,5.91255,5.2225,13.0459,1,0.0842741,0.0218043,8,66.1546,0.124909
-0.417923,-0.696295,-0.43788,5.82803,5.2304,13.0528,2,0.241217,0.0624103,13,91.713,0.0808417
0.530538,0.764487,0.0736517,5.93924,5.28503,13.0824,3,0.077678,0.0200977,19,131.824,0.0619448
-0.885742,0.289672,0.198554,5.8627,5.25114,13.0784,4,0.0489698,0.01267,26,68.4367,0.0753367
0.912655,-0.0942545,0.100763,5.95145,5.24511,13.0644,5,0.0681131,0.017623,34,141.327,0.0835265
0.00767447,0.664399,0.643952,5.90215,5.21733,13.1464,6,0.082792,0.0214209,43,106.332,0.041587
0.673488,-0.0939631,0.689511,5.94074,5.21538,13.1413,7,0.0276045,0.00714215,53,136.027,0.0903944
-0.243399,-0.436324,0.787144,5.80864,5.26426,13.1543,8,0.0974732,0.0252194,64,172.285,0.0488341
-0.312124,0.243368,0.899016,5.82765,5.26646,13.1684,9,0.0343773,0.00889448,18,155.921,0.117514
,,,,,,,,,25,84.6784,0.081412
,,,,,,,,,33,115.001,0.10623
,,,,,,,,,42,151.159,0.123273
,,,,,,,,,52,125.43,0.0495398
,,,,,,,,,63,85.9429,0.138842
,,,,,,,,,75,118.517,0.0601782
,,,,,,,,,32,105.243,0.0600701
,,,,,,,,,41,60.8592,0.0725818
,,,,,,,,,51,49.6318,0.0801535
,,,,,,,,,62,68.1623,0.0407335
,,,,,,,,,74,117.713,0.086457
,,,,,,,,,87,84.576,0.0476615
,,,,,,,,,50,158.041,0.0569765
,,,,,,,,,61,69.1691,0.06154
,,,,,,,,,73,121.845,0.0353066
,,,,,,,,,86,73.9577,0.0651891
,,,,,,,,,100,55.8456,0.0403961
,,,,,,,,,72,89.3782,0.0747386
,,,,,,,,,85,39.1706,0.039287
,,,,,,,,,99,96.787,0.0801902
,,,,,,,,,114,103.861,0.0456929
,,,,,,,,,98,64.4303,0.0414041
,,,,,,,,,113,75.5599,0.0895348
,,,,,,,,,129,35.6868,0.0485821
,,,,,,,,,128,62.2913,0.0430245
,,,,,,,,,145,66.0074,0.0306209
,,,,,,,,,162,42.2922,0.0508282
