Q	U	V
{$V$}	{[mm$^3$]}	0.00120763
{$d_v$}	{[mm]}	0.132123
{$S_c$}	{[mm$^2$]}	0.132129
{$S_o$}	{[mm$^2$]}	0.0557999
{$S_l/S_o$}	[]	1.367907
{$\Psi$}	[]	0.415058
{$\eta$}	[]	0.451081
{med($\theta_e$)}	{[$^\circ$]}	
{$\Upsilon$}	[]	21
{$\Xi$}	[]	3
