facetNormals:0,facetNormals:1,facetNormals:2,FacetCenters:0,FacetCenters:1,FacetCenters:2,FacetIds,relFacetSize,absFacetSize,cellPairingIds,interplanarAngles,angleWeights
-0.280157,0.85545,-0.358321,7.03212,7.82239,12.0458,1,0.0399846,0.0084933,8,84.3306,0.0423488
-0.904057,-0.292023,-0.25293,7.0319,7.75736,12.1052,2,0.0450102,0.0095608,13,46.6123,0.0384951
0.485853,0.799902,-0.290085,7.07421,7.80788,12.0891,3,0.0371127,0.00788326,19,31.8142,0.0468395
0.0916514,0.974431,0.00586487,7.08175,7.80691,12.1688,4,0.056531,0.012008,26,74.4315,0.0287459
-1.00523,-0.0269351,-0.00812916,7.00287,7.81275,12.178,5,0.0224389,0.00476634,34,115.915,0.0646743
-0.66289,-0.684312,0.0104793,7.04947,7.73104,12.1892,6,0.169074,0.0359137,43,53.1801,0.040806
-0.891792,0.39401,0.0555012,7.00569,7.83333,12.1744,7,0.0416618,0.00884957,53,69.4184,0.024045
0.690885,0.691893,0.16854,7.07285,7.71552,12.2518,8,0.0171916,0.00365175,64,57.0683,0.0355715
0.271794,0.855309,0.390677,7.10926,7.79758,12.2616,9,0.0320358,0.00680486,76,86.9287,0.0342906
-0.917951,-0.0890187,0.361672,7.03647,7.77114,12.2838,10,0.0300162,0.00637587,89,65.502,0.0502435
-0.343961,0.601676,0.644357,7.06327,7.8263,12.2792,11,0.0675835,0.0143557,103,97.655,0.0452674
0.638327,0.331743,0.639626,7.15825,7.74618,12.3299,12,0.0521587,0.0110792,118,109.805,0.0532733
-0.491904,-0.193402,0.805521,7.09771,7.73172,12.3385,13,0.0797919,0.016949,18,128.484,0.0406817
,,,,,,,,,25,112.543,0.050117
,,,,,,,,,33,21.6843,0.0299479
,,,,,,,,,42,31.7591,0.071094
,,,,,,,,,52,45.1466,0.0432713
,,,,,,,,,63,153.017,0.0248802
,,,,,,,,,75,128.14,0.0374305
,,,,,,,,,88,38.293,0.0360149
,,,,,,,,,102,91.7073,0.054034
,,,,,,,,,117,152.016,0.0483215
,,,,,,,,,133,71.6981,0.0575543
,,,,,,,,,32,30.9703,0.0448085
,,,,,,,,,41,121.007,0.0279679
,,,,,,,,,51,159.16,0.0608651
,,,,,,,,,62,98.0633,0.0392559
,,,,,,,,,74,30.1996,0.0234982
,,,,,,,,,87,42.87,0.0343878
,,,,,,,,,101,129.861,0.0331893
,,,,,,,,,116,82.112,0.047914
,,,,,,,,,132,65.5792,0.0433677
,,,,,,,,,149,131.65,0.0506617
,,,,,,,,,50,96.9105,0.032126
,,,,,,,,,61,141.273,0.0847315
,,,,,,,,,73,71.5472,0.0479706
,,,,,,,,,86,40.4931,0.0263653
,,,,,,,,,100,26.0553,0.040896
,,,,,,,,,115,100.023,0.039212
,,,,,,,,,131,52.9117,0.0615652
,,,,,,,,,148,65.8466,0.0542569
,,,,,,,,,166,104.043,0.066177
,,,,,,,,,72,44.3889,0.0396196
,,,,,,,,,85,25.631,0.029168
,,,,,,,,,99,135.733,0.0194679
,,,,,,,,,114,107.71,0.026392
,,,,,,,,,130,22.2231,0.0256803
,,,,,,,,,147,70.0746,0.0336916
,,,,,,,,,165,132.645,0.0313786
,,,,,,,,,184,59.4039,0.0350274
,,,,,,,,,98,69.745,0.0668508
,,,,,,,,,113,169.554,0.0312098
,,,,,,,,,129,144.726,0.0538653
,,,,,,,,,146,44.501,0.0509815
,,,,,,,,,164,101.319,0.0965667
,,,,,,,,,183,134.552,0.0797231
,,,,,,,,,203,59.4303,0.108418
,,,,,,,,,128,110.175,0.0243396
,,,,,,,,,145,83.0113,0.0362201
,,,,,,,,,163,33.8284,0.034893
,,,,,,,,,182,51.1587,0.0515473
,,,,,,,,,202,115.389,0.046323
,,,,,,,,,223,64.3556,0.0547414
,,,,,,,,,162,29.4818,0.0223756
,,,,,,,,,181,130.231,0.0218619
,,,,,,,,,201,72.1851,0.0274106
,,,,,,,,,222,35.4194,0.0258598
,,,,,,,,,244,110.7,0.0282884
,,,,,,,,,200,100.959,0.0309931
,,,,,,,,,221,43.4116,0.0434673
,,,,,,,,,243,41.3671,0.0396925
,,,,,,,,,266,89.0532,0.0457167
,,,,,,,,,242,58.1119,0.0415698
,,,,,,,,,265,113.756,0.0381042
,,,,,,,,,289,37.2138,0.0436225
,,,,,,,,,288,64.4988,0.0588776
,,,,,,,,,313,51.1533,0.0731821
,,,,,,,,,338,81.5005,0.0630818
