"cellPairingIds","interplanarAngles","angleWeights"
8,95.8388,0.0679651
13,44.5179,0.0680628
76,83.3053,0.0588491
18,138.364,0.0762579
25,145.932,0.102444
33,58.4056,0.0441711
52,69.9359,0.0550034
75,86.0067,0.0726287
88,113.646,0.0648774
32,34.5501,0.102666
51,41.5592,0.0897436
101,79.2373,0.0649664
116,75.2056,0.0138305
50,130.241,0.0519045
61,40.7438,0.128355
86,99.3453,0.0581491
72,122.954,0.0483823
85,30.5339,0.0361201
99,32.1122,0.0332502
147,95.8731,0.0122205
113,94.7623,0.0537642
164,41.1445,0.0142137
145,39.5297,0.0531495
182,70.2844,0.0129247
200,32.5168,0.0623137
221,46.4633,0.0137063
242,24.9308,0.0134041
