Q	U	V
{$V$}	{[mm$^3$]}	0.00408838
{$d_v$}	{[mm]}	0.198389
{$S_c$}	{[mm$^2$]}	0.226978
{$S_o$}	{[mm$^2$]}	0.127349
{$S_l/S_o$}	[]	0.782330
{$\Psi$}	[]	0.544755
{$\eta$}	[]	0.598732
{med($\theta_e$)}	{[$^\circ$]}	66.5064
{$\Upsilon$}	[]	17
{$\Xi$}	[]	6
