"cellPairingIds","interplanarAngles","angleWeights"
8,32.4243,0.0326849
13,63.4875,0.0558808
19,67.9269,0.0445761
26,82.8282,0.0415795
43,74.2399,0.0427535
53,73.6855,0.0359302
18,62.0823,0.044091
42,33.4363,0.0288995
52,66.5052,0.0354925
75,67.001,0.0283838
32,47.4508,0.0688765
87,60.4529,0.0443824
101,64.4515,0.0913192
50,57.7917,0.0483703
115,46.5523,0.0645623
99,57.5841,0.0383552
130,73.1801,0.0584601
147,46.3233,0.0518729
165,40.4615,0.0223967
98,36.8135,0.0364998
129,70.3507,0.0290244
128,39.9379,0.0393521
145,98.4685,0.035681
223,59.342,0.0471393
201,48.3059,0.0433664
244,67.7871,0.0389778
200,92.0486,0.0425502
266,95.6649,0.035373
290,37.0203,0.0365292
341,73.519,0.0346808
265,55.686,0.0253392
340,46.7439,0.0523582
367,42.6592,0.0579591
288,34.2493,0.0240173
313,51.2083,0.0530182
366,58.3068,0.0470115
393,37.2678,0.0214395
392,65.0379,0.048631
421,64.5009,0.0418976
451,75.0646,0.045409
481,47.6707,0.0473321
512,26.5936,0.0409299
