"cellPairingIds","interplanarAngles","angleWeights"
18,66.9246,0.0386111
42,131.948,0.0631048
63,132.243,0.0458141
88,110.952,0.0475794
41,33.0173,0.036556
51,127.338,0.0466663
101,147.892,0.0375946
72,101.581,0.0577945
99,128.02,0.0429491
130,137.861,0.0444968
113,43.7273,0.0576143
181,35.6612,0.0443899
