Q	U	V
{$V$}	{[mm$^3$]}	0.00880373
{$d_v$}	{[mm]}	0.256186
{$S_c$}	{[mm$^2$]}	0.465448
{$S_o$}	{[mm$^2$]}	0.199728
{$S_l/S_o$}	[]	1.330409
{$\Psi$}	[]	0.442987
{$\eta$}	[]	0.463149
{med($\theta_e$)}	{[$^\circ$]}	72.35585
{$\Upsilon$}	[]	11
{$\Xi$}	[]	6
