facetNormals:0,facetNormals:1,facetNormals:2,FacetCenters:0,FacetCenters:1,FacetCenters:2,FacetIds,relFacetSize,absFacetSize,cellPairingIds,interplanarAngles,angleWeights
-0.208956,0.404616,-0.866638,3.87086,3.64251,13.9935,1,0.0298306,0.00474908,8,45.2783,0.0411417
0.314034,0.781703,-0.48242,3.92444,3.64859,13.9904,2,0.0662696,0.0105502,13,79.0379,0.0339287
0.890936,0.136834,-0.359381,3.98464,3.62596,14.0366,3,0.039332,0.0062617,19,39.0592,0.0412107
-0.521393,0.729865,-0.392269,3.86416,3.62502,13.9705,4,0.0666289,0.0106074,26,68.5957,0.0479248
-0.884984,0.351828,-0.0150276,3.83844,3.5952,13.9871,5,0.12181,0.0193923,34,71.886,0.0338495
-0.954043,-0.164843,-0.193713,3.83087,3.53062,13.9784,6,0.0391199,0.00622794,43,78.1817,0.0223799
0.744711,0.6464,-0.107263,3.98845,3.61085,14.0204,7,0.0179073,0.00285086,53,92.2879,0.0392869
-0.845809,-0.469586,0.0283407,3.83549,3.51731,14.018,8,0.0575211,0.00915743,64,123.08,0.0274198
0.847619,-0.358622,0.210298,3.98555,3.58011,14.0617,9,0.0253695,0.00403885,76,93.4399,0.033425
0.515372,0.774321,0.303573,3.95725,3.67462,14.0969,10,0.0380042,0.00605032,89,121.231,0.0326492
-0.67207,-0.500617,0.499837,3.87302,3.51818,14.0328,11,0.0360559,0.00574014,103,110.89,0.0286321
-0.771526,0.0640603,0.613939,3.83781,3.57806,14.074,12,0.0275261,0.00438218,118,120.358,0.0257809
0.133445,0.562083,0.788171,3.90577,3.64111,14.1179,13,0.0226993,0.00361376,134,169.316,0.027606
0.170309,-0.5677,0.791888,3.93436,3.5677,14.111,14,0.0256901,0.0040899,151,151.002,0.0502823
-0.138348,-0.0749812,0.940921,3.91716,3.55973,14.1138,15,0.159927,0.0254605,18,53.5165,0.0493651
,,,,,,,,,25,51.1592,0.0664487
,,,,,,,,,33,89.7298,0.0858392
,,,,,,,,,42,110.457,0.0491977
,,,,,,,,,52,34.7811,0.0281956
,,,,,,,,,63,133.468,0.0615862
,,,,,,,,,75,97.2466,0.0366923
,,,,,,,,,88,49.197,0.048306
,,,,,,,,,102,152.934,0.0467021
,,,,,,,,,117,120.608,0.0388961
,,,,,,,,,133,83.8848,0.0338157
,,,,,,,,,150,143.543,0.0370265
,,,,,,,,,168,126.894,0.0937086
,,,,,,,,,32,103.619,0.0494644
,,,,,,,,,41,142.669,0.0594635
,,,,,,,,,51,146.932,0.0392257
,,,,,,,,,62,34.7912,0.02461
,,,,,,,,,74,151.839,0.0467186
,,,,,,,,,87,46.5079,0.0308442
,,,,,,,,,101,61.2955,0.0386567
,,,,,,,,,116,153.434,0.0376228
,,,,,,,,,132,159.7,0.0323867
,,,,,,,,,149,95.2914,0.0287857
,,,,,,,,,167,102.671,0.03108
,,,,,,,,,186,120.631,0.0631364
,,,,,,,,,50,39.0542,0.08614
,,,,,,,,,61,62.0469,0.0492963
,,,,,,,,,73,82.5702,0.0282279
,,,,,,,,,86,84.7227,0.0617409
,,,,,,,,,100,148.279,0.0367472
,,,,,,,,,115,79.3299,0.0484011
,,,,,,,,,131,102.763,0.046791
,,,,,,,,,148,77.571,0.0389577
,,,,,,,,,166,88.1136,0.0338623
,,,,,,,,,185,147.18,0.0370824
,,,,,,,,,205,112.121,0.0940673
,,,,,,,,,72,32.9433,0.0592207
,,,,,,,,,85,117.075,0.0312242
,,,,,,,,,99,50.7792,0.078142
,,,,,,,,,114,167.969,0.041993
,,,,,,,,,130,101.653,0.0579334
,,,,,,,,,147,63.7454,0.0556417
,,,,,,,,,165,42.2975,0.0449048
,,,,,,,,,184,85.8218,0.0382674
,,,,,,,,,204,112.62,0.0424313
,,,,,,,,,225,84.8277,0.13829
,,,,,,,,,98,144.391,0.0245683
,,,,,,,,,113,23.1206,0.0465686
,,,,,,,,,129,147.974,0.0307788
,,,,,,,,,146,134.583,0.038554
,,,,,,,,,164,49.4082,0.0375254
,,,,,,,,,183,51.5552,0.0323145
,,,,,,,,,203,112.719,0.0287287
,,,,,,,,,224,103.157,0.0310136
,,,,,,,,,246,92.3071,0.0628628
,,,,,,,,,128,167.279,0.0273119
,,,,,,,,,145,66.2699,0.020995
,,,,,,,,,163,28.6442,0.0243439
,,,,,,,,,182,155.069,0.0239297
,,,,,,,,,202,127.674,0.0216984
,,,,,,,,,223,67.0375,0.0200205
,,,,,,,,,245,109.349,0.021104
,,,,,,,,,268,105.471,0.0322081
,,,,,,,,,162,126.427,0.0352098
,,,,,,,,,181,146.637,0.0457689
,,,,,,,,,201,30.021,0.0443266
,,,,,,,,,222,48,0.0372341
,,,,,,,,,244,112.012,0.0325525
,,,,,,,,,267,81.2895,0.0355174
,,,,,,,,,291,78.8282,0.0846102
,,,,,,,,,200,76.0305,0.0304274
,,,,,,,,,221,108.022,0.0297831
,,,,,,,,,243,125.964,0.0264038
,,,,,,,,,266,85.1946,0.0239602
,,,,,,,,,290,56.5684,0.0255288
,,,,,,,,,315,83.145,0.0437921
,,,,,,,,,242,127.581,0.0370044
,,,,,,,,,265,99.6252,0.0319274
,,,,,,,,,289,38.9802,0.0284224
,,,,,,,,,314,96.6106,0.0306568
,,,,,,,,,340,80.3618,0.0614142
,,,,,,,,,288,34.6304,0.0312188
,,,,,,,,,313,88.6248,0.0278594
,,,,,,,,,339,54.1286,0.0300029
,,,,,,,,,366,49.8015,0.058845
,,,,,,,,,338,64.4174,0.0248807
,,,,,,,,,365,70.9864,0.0265764
,,,,,,,,,393,43.8642,0.0469681
,,,,,,,,,392,70.1778,0.0241023
,,,,,,,,,421,43.0729,0.0397558
,,,,,,,,,450,35.927,0.044269
