Q	U	V
{$V$}	{[mm$^3$]}	0.0092324
{$d_v$}	{[mm]}	0.260279
{$S_c$}	{[mm$^2$]}	0.391511
{$S_o$}	{[mm$^2$]}	0.240638
{$S_l/S_o$}	[]	0.626971
{$\Psi$}	[]	0.543605
{$\eta$}	[]	0.568495
{med($\theta_e$)}	{[$^\circ$]}	74.76255
{$\Upsilon$}	[]	15
{$\Xi$}	[]	12
