Q	U	V
{$V$}	{[mm$^3$]}	0.00675063
{$d_v$}	{[mm]}	0.234485
{$S_c$}	{[mm$^2$]}	0.358963
{$S_o$}	{[mm$^2$]}	0.21741
{$S_l/S_o$}	[]	0.651088
{$\Psi$}	[]	0.481206
{$\eta$}	[]	0.525068
{med($\theta_e$)}	{[$^\circ$]}	60.74965
{$\Upsilon$}	[]	10
{$\Xi$}	[]	14
