Q	U	V
{$V$}	{[mm$^3$]}	0.00274181
{$d_v$}	{[mm]}	0.173652
{$S_c$}	{[mm$^2$]}	0.159345
{$S_o$}	{[mm$^2$]}	0.0923341
{$S_l/S_o$}	[]	0.725744
{$\Psi$}	[]	0.594526
{$\eta$}	[]	0.650576
{med($\theta_e$)}	{[$^\circ$]}	58.9506
{$\Upsilon$}	[]	16
{$\Xi$}	[]	9
