facetNormals:0,facetNormals:1,facetNormals:2,FacetCenters:0,FacetCenters:1,FacetCenters:2,FacetIds,relFacetSize,absFacetSize,cellPairingIds,interplanarAngles,angleWeights
0.0270456,-0.599743,-0.792919,6.26132,3.87976,12.5173,1,0.0242327,0.00215438,8,33.2027,0.0308459
0.544744,-0.423218,-0.672135,6.35106,3.866,12.4991,2,0.0424235,0.00377161,13,48.0986,0.038025
-0.704561,-0.334821,-0.590184,6.20813,3.86393,12.5539,3,0.0882578,0.00784647,19,81.591,0.0222011
-0.503555,0.56264,-0.622208,6.26898,3.91556,12.5169,4,0.0204837,0.00182108,26,30.4939,0.0365112
0.0147375,-0.88458,-0.36466,6.27655,3.82348,12.5586,5,0.0740123,0.00657998,34,90.0795,0.0364844
0.150406,0.760113,-0.568127,6.33208,3.92702,12.497,6,0.0737925,0.00656045,43,72.802,0.0316219
-0.818019,0.171444,-0.523283,6.25171,3.87818,12.5386,7,0.0454942,0.00404461,53,42.733,0.0317584
-0.522346,-0.760879,-0.352523,6.21373,3.82576,12.5963,8,0.0460637,0.00409525,64,105.203,0.00810746
-0.866765,0.491631,-0.0727682,6.20375,3.89028,12.6015,9,0.00486808,0.000432791,76,80.5193,0.0161174
-0.92098,-0.356931,0.0343689,6.20681,3.81674,12.6439,10,0.012074,0.00107342,89,139.73,0.03333
0.154858,0.930347,0.230875,6.27036,3.93183,12.5661,11,0.053363,0.00474418,103,110.076,0.0272314
0.733516,-0.167062,0.55351,6.29096,3.86015,12.6003,12,0.0310771,0.00276288,118,90.5686,0.00706897
0.0873638,-0.784819,0.609008,6.24214,3.81795,12.6457,13,0.00413804,0.000367888,134,92.6548,0.00833597
0.422977,-0.67913,0.58571,6.31502,3.84152,12.5601,14,0.00503379,0.000447524,151,150.591,0.0412395
-0.40153,0.748285,0.493557,6.21825,3.89972,12.6237,15,0.1383,0.0122955,169,148.194,0.0144352
-0.123429,0.0965821,0.967683,6.26056,3.85655,12.6451,16,0.0102792,0.000913862,18,80.5563,0.0573028
,,,,,,,,,25,95.7384,0.0276277
,,,,,,,,,33,47.0894,0.0539329
,,,,,,,,,42,81.167,0.0538744
,,,,,,,,,52,100.094,0.0439052
,,,,,,,,,63,73.2382,0.0441687
,,,,,,,,,75,131,0.00873394
,,,,,,,,,88,113.118,0.0187979
,,,,,,,,,102,119.785,0.0472685
,,,,,,,,,117,83.7297,0.0358745
,,,,,,,,,133,91.7658,0.00754057
,,,,,,,,,150,82.5299,0.00899971
,,,,,,,,,168,156.441,0.0649298
,,,,,,,,,187,143.455,0.0165487
,,,,,,,,,32,56.1124,0.0332504
,,,,,,,,,41,57.6391,0.0805097
,,,,,,,,,51,91.5348,0.0803796
,,,,,,,,,62,30.8871,0.0600398
,,,,,,,,,74,30.7139,0.0605336
,,,,,,,,,87,59.9756,0.00922721
,,,,,,,,,101,39.3003,0.021242
,,,,,,,,,116,125.895,0.0665114
,,,,,,,,,132,149.544,0.045968
,,,,,,,,,149,99.3338,0.00790543
,,,,,,,,,167,115.418,0.00952435
,,,,,,,,,186,105.634,0.107752
,,,,,,,,,206,122.59,0.0184138
,,,,,,,,,50,107.288,0.032087
,,,,,,,,,61,41.3748,0.0320663
,,,,,,,,,73,30.1856,0.0282485
,,,,,,,,,86,86.7814,0.0283574
,,,,,,,,,100,39.1261,0.00786661
,,,,,,,,,115,75.5341,0.0151927
,,,,,,,,,131,71.4763,0.0296038
,,,,,,,,,148,152.122,0.0246922
,,,,,,,,,166,152.379,0.00688517
,,,,,,,,,185,171.518,0.00808156
,,,,,,,,,205,70.7956,0.0356825
,,,,,,,,,226,120.418,0.013689
,,,,,,,,,72,120.237,0.0739022
,,,,,,,,,85,88.3537,0.0563506
,,,,,,,,,99,32.8834,0.0567854
,,,,,,,,,114,116.134,0.00913529
,,,,,,,,,130,72.1669,0.0207611
,,,,,,,,,147,166.873,0.0620139
,,,,,,,,,165,92.7739,0.0437739
,,,,,,,,,184,60.2553,0.00783787
,,,,,,,,,204,65.5053,0.00942646
,,,,,,,,,225,154.427,0.0964232
,,,,,,,,,247,117.982,0.0180513
,,,,,,,,,98,71.2484,0.0562868
,,,,,,,,,113,118.755,0.0567206
,,,,,,,,,129,72.7503,0.00913361
,,,,,,,,,146,116.881,0.0207524
,,,,,,,,,164,50.0313,0.0619366
,,,,,,,,,183,111.653,0.0437354
,,,,,,,,,203,165.93,0.00783663
,,,,,,,,,224,145.522,0.00942467
,,,,,,,,,246,76.0202,0.0962365
,,,,,,,,,269,121.699,0.0180448
,,,,,,,,,128,60.3928,0.0457772
,,,,,,,,,145,32.451,0.00879505
,,,,,,,,,163,46.2281,0.0190833
,,,,,,,,,182,95.2726,0.0491154
,,,,,,,,,202,175.628,0.0369284
,,,,,,,,,223,122.248,0.00758607
,,,,,,,,,245,141.852,0.00906461
,,,,,,,,,268,78.1751,0.0684663
,,,,,,,,,292,113.719,0.0167694
,,,,,,,,,162,83.9328,0.00880557
,,,,,,,,,181,40.675,0.0191329
,,,,,,,,,201,155.105,0.0494454
,,,,,,,,,222,119.271,0.0371146
,,,,,,,,,244,70.0084,0.0075939
,,,,,,,,,267,84.7686,0.00907579
,,,,,,,,,291,123.359,0.0691093
,,,,,,,,,316,111.195,0.0168077
,,,,,,,,,200,51.0853,0.0069386
,,,,,,,,,221,71.5917,0.00892222
,,,,,,,,,243,144.34,0.00841758
,,,,,,,,,266,120.512,0.00447347
,,,,,,,,,290,138.599,0.00494955
,,,,,,,,,315,46.1396,0.0094051
,,,,,,,,,341,85.0772,0.00660712
,,,,,,,,,242,119.103,0.0196923
,,,,,,,,,265,130.289,0.0173912
,,,,,,,,,289,77.0663,0.00616365
,,,,,,,,,314,97.4474,0.00710529
,,,,,,,,,340,82.9184,0.022209
,,,,,,,,,367,83.3342,0.0111045
,,,,,,,,,288,84.5613,0.0392791
,,,,,,,,,313,126.504,0.0076805
,,,,,,,,,339,116.6,0.00919975
,,,,,,,,,366,38.3513,0.0770113
,,,,,,,,,394,71.9991,0.0172379
,,,,,,,,,338,55.1455,0.00730358
,,,,,,,,,365,36.1383,0.00866418
,,,,,,,,,393,99.1796,0.0507502
,,,,,,,,,422,62.063,0.0154486
,,,,,,,,,392,20.4237,0.00454217
,,,,,,,,,421,109.178,0.00803565
,,,,,,,,,451,59.0509,0.00590068
,,,,,,,,,450,113.538,0.00971401
,,,,,,,,,481,62.4897,0.0067581
,,,,,,,,,512,51.4968,0.0191361
