facetNormals:0,facetNormals:1,facetNormals:2,FacetCenters:0,FacetCenters:1,FacetCenters:2,FacetIds,relFacetSize,absFacetSize,cellPairingIds,interplanarAngles,angleWeights
-0.256969,0.0431219,-0.918234,4.38937,4.26258,12.0827,1,0.0885009,0.00741908,8,46.5322,0.0945884
0.242294,0.570543,-0.720901,4.40446,4.29984,12.0797,2,0.101575,0.00851511,13,53.6375,0.0845211
0.41786,-0.48492,-0.745115,4.38946,4.19411,12.076,3,0.0808838,0.00678054,19,81.7014,0.0544154
0.830409,-0.35706,-0.397295,4.40451,4.18114,12.0935,4,0.0392851,0.00329329,26,96.1043,0.0590808
0.724592,0.628987,-0.0669206,4.42246,4.28673,12.11,5,0.0443408,0.00371711,34,95.6094,0.114629
0.597608,-0.707381,-0.10576,4.39988,4.18675,12.1182,6,0.162649,0.0136349,43,95.8182,0.0431191
0.95977,0.183536,-0.155706,4.43545,4.2326,12.123,7,0.0285031,0.00238943,53,86.9287,0.0251165
-0.346151,0.915338,0.085148,4.37364,4.17092,12.0764,8,0.014635,0.00122686,64,127.164,0.0634835
0.876051,0.202401,0.376437,4.4468,4.29073,12.1215,9,0.0494929,0.00414902,76,107.101,0.0848302
-0.664658,0.40715,0.485884,4.39581,4.19071,12.0994,10,0.081452,0.00682816,89,159.704,0.00995705
-0.0181802,-0.245405,0.955816,4.39004,4.15639,12.143,11,0.00527528,0.00044223,18,67.2122,0.0900563
,,,,,,,,,25,72.397,0.0566574
,,,,,,,,,33,50.4189,0.0617331
,,,,,,,,,42,101.888,0.125054
,,,,,,,,,52,61.457,0.0445149
,,,,,,,,,63,66.1929,0.0255838
,,,,,,,,,75,86.513,0.0665561
,,,,,,,,,88,108.634,0.0904074
,,,,,,,,,102,152.648,0.0100297
,,,,,,,,,32,32.703,0.0528843
,,,,,,,,,41,87.1102,0.0572803
,,,,,,,,,51,42.8216,0.10804
,,,,,,,,,62,63.8705,0.0421521
,,,,,,,,,74,132.504,0.0247853
,,,,,,,,,87,90.7522,0.0614093
,,,,,,,,,101,158.112,0.0811669
,,,,,,,,,116,128.292,0.00990458
,,,,,,,,,50,64.8436,0.0416601
,,,,,,,,,61,30.7549,0.0632848
,,,,,,,,,73,35.7076,0.0330367
,,,,,,,,,86,131.93,0.0213255
,,,,,,,,,100,58.3059,0.0438021
,,,,,,,,,115,169.04,0.0530052
,,,,,,,,,131,108.376,0.00930153
,,,,,,,,,72,90.3089,0.0696844
,,,,,,,,,85,30.3496,0.0347003
,,,,,,,,,99,70.2532,0.0220065
,,,,,,,,,114,38.1888,0.0467754
,,,,,,,,,130,106.982,0.0574221
,,,,,,,,,147,104.114,0.0094288
,,,,,,,,,98,60.066,0.0485059
,,,,,,,,,113,160.561,0.0268537
,,,,,,,,,129,67.9854,0.0758923
,,,,,,,,,146,149.366,0.108546
,,,,,,,,,164,86.1577,0.0102191
,,,,,,,,,128,100.521,0.0193399
,,,,,,,,,145,31.8432,0.0361737
,,,,,,,,,163,134.662,0.0422288
,,,,,,,,,182,102.496,0.00890284
,,,,,,,,,162,95.1487,0.0225901
,,,,,,,,,181,44.4451,0.0248118
,,,,,,,,,201,98.1205,0.00775515
,,,,,,,,,200,110.734,0.0615724
,,,,,,,,,221,72.1931,0.00953433
,,,,,,,,,242,65.455,0.00990881
