facetNormals:0,facetNormals:1,facetNormals:2,FacetCenters:0,FacetCenters:1,FacetCenters:2,FacetIds,relFacetSize,absFacetSize,cellPairingIds,interplanarAngles,angleWeights
-0.0481083,0.489292,-0.815304,4.92498,5.65329,10.8746,1,0.0744967,0.00914891,8,66.1218,0.0755901
-0.523243,-0.436756,-0.689534,4.88095,5.60055,10.9182,2,0.076716,0.00942146,13,58.1305,0.0611728
0.782888,0.397429,-0.403424,4.98635,5.64829,10.8951,3,0.0518918,0.00637282,19,115.76,0.0508059
-0.119314,-0.954622,-0.0760833,4.95308,5.56616,10.8796,4,0.0385474,0.004734,26,115.532,0.0305997
0.357322,-0.9066,-0.0733172,4.95251,5.57792,10.873,5,0.0192542,0.0023646,34,107.717,0.0344344
-0.667869,-0.722327,-0.044133,4.87284,5.59627,10.9721,6,0.0223924,0.00275,43,46.3889,0.0738063
0.213904,0.904252,-0.243711,4.92949,5.61061,10.8734,7,0.0731286,0.00898089,53,67.5992,0.0719885
-0.820199,0.506976,-0.0778391,4.86049,5.65651,10.9277,8,0.0696437,0.00855291,64,97.2245,0.0578007
-0.911901,-0.350165,-0.0128771,4.85617,5.5984,10.9691,9,0.0472183,0.00579886,76,76.549,0.0918368
-0.400331,0.828195,0.260922,4.89737,5.64211,10.9213,10,0.119698,0.0147001,89,109.626,0.0692932
-0.850219,0.0423977,0.454029,4.86622,5.5943,10.9798,11,0.0647692,0.00795428,103,81.6376,0.0627522
0.183291,0.891228,0.357985,4.94492,5.66042,10.917,12,0.0542065,0.00665708,118,155.283,0.0121156
0.434668,-0.532435,0.681712,4.94243,5.56616,10.9109,13,0.00659401,0.000809807,134,114.942,0.027545
0.660781,0.33038,0.640908,4.98596,5.61292,10.8918,14,0.0168961,0.00207501,18,109.003,0.0619081
,,,,,,,,,25,55.3609,0.0513121
,,,,,,,,,33,74.1009,0.0307826
,,,,,,,,,42,43.2543,0.0346662
,,,,,,,,,52,111.333,0.0748793
,,,,,,,,,63,73.8162,0.073009
,,,,,,,,,75,47.5754,0.0584568
,,,,,,,,,88,110.996,0.093504
,,,,,,,,,102,83.0438,0.0702382
,,,,,,,,,117,140.549,0.0635262
,,,,,,,,,133,119.695,0.0121442
,,,,,,,,,150,169.373,0.0276931
,,,,,,,,,32,118.303,0.0442351
,,,,,,,,,41,93.0954,0.0280869
,,,,,,,,,51,146.357,0.0312847
,,,,,,,,,62,47.6611,0.0607065
,,,,,,,,,74,115.965,0.0594713
,,,,,,,,,87,153.93,0.0494449
,,,,,,,,,101,95.5609,0.0723976
,,,,,,,,,116,153.181,0.0576198
,,,,,,,,,132,68.0416,0.0530239
,,,,,,,,,149,99.0001,0.0117011
,,,,,,,,,167,65.6217,0.025492
,,,,,,,,,50,28.5495,0.025681
,,,,,,,,,61,35.6139,0.0283286
,,,,,,,,,73,159.828,0.0504839
,,,,,,,,,86,114.032,0.0496267
,,,,,,,,,100,61.8997,0.0424446
,,,,,,,,,115,145.746,0.0583151
,,,,,,,,,131,88.3736,0.0483308
,,,,,,,,,148,162.493,0.0450552
,,,,,,,,,166,64.3405,0.0112616
,,,,,,,,,185,117.992,0.0234942
,,,,,,,,,72,64.1594,0.0207051
,,,,,,,,,85,140.608,0.0304826
,,,,,,,,,99,142.202,0.030168
,,,,,,,,,114,90.4464,0.0273542
,,,,,,,,,130,167.721,0.0331725
,,,,,,,,,147,113.472,0.0296841
,,,,,,,,,165,143.565,0.0284153
,,,,,,,,,184,51.5675,0.00982369
,,,,,,,,,204,96.6331,0.0179983
,,,,,,,,,98,146.109,0.0342861
,,,,,,,,,113,78.801,0.0338886
,,,,,,,,,129,26.2871,0.0303784
,,,,,,,,,146,111.322,0.037727
,,,,,,,,,164,57.0202,0.0332793
,,,,,,,,,183,144.304,0.0316927
,,,,,,,,,203,86.1382,0.0101879
,,,,,,,,,224,137.337,0.0192598
,,,,,,,,,128,71.0383,0.0713436
,,,,,,,,,145,122.814,0.0573842
,,,,,,,,,163,49.242,0.0907898
,,,,,,,,,182,105.917,0.0686955
,,,,,,,,,202,36.2111,0.0622616
,,,,,,,,,223,126.612,0.0120972
,,,,,,,,,245,72.4123,0.02745
,,,,,,,,,162,52.7961,0.0562793
,,,,,,,,,181,38.0974,0.0880546
,,,,,,,,,201,42.9168,0.067118
,,,,,,,,,222,73.1845,0.060963
,,,,,,,,,244,136.519,0.0120473
,,,,,,,,,267,116.649,0.0271946
,,,,,,,,,200,85.5979,0.0677218
,,,,,,,,,221,36.8072,0.0546184
,,,,,,,,,243,120.433,0.0504716
,,,,,,,,,266,103.372,0.011572
,,,,,,,,,290,139.498,0.024887
,,,,,,,,,242,57.6257,0.0840555
,,,,,,,,,265,35.8139,0.0746204
,,,,,,,,,289,118.178,0.0124994
,,,,,,,,,314,79.1324,0.0296123
,,,,,,,,,288,87.2972,0.059019
,,,,,,,,,313,95.075,0.0119694
,,,,,,,,,339,105.793,0.0268008
,,,,,,,,,338,99.1676,0.0117577
,,,,,,,,,365,47.5865,0.0257622
,,,,,,,,,392,54.6174,0.00948595
