Q	U	V
{$V$}	{[mm$^3$]}	0.00773265
{$d_v$}	{[mm]}	0.245345
{$S_c$}	{[mm$^2$]}	0.461763
{$S_o$}	{[mm$^2$]}	0.255085
{$S_l/S_o$}	[]	0.810232
{$\Psi$}	[]	0.409528
{$\eta$}	[]	0.451606
{med($\theta_e$)}	{[$^\circ$]}	68.5001
{$\Upsilon$}	[]	12
{$\Xi$}	[]	4
