Q	U	V
{$V$}	{[mm$^3$]}	0.00201272
{$d_v$}	{[mm]}	0.156649
{$S_c$}	{[mm$^2$]}	0.138293
{$S_o$}	{[mm$^2$]}	0.0762951
{$S_l/S_o$}	[]	0.812607
{$\Psi$}	[]	0.55745
{$\eta$}	[]	0.638923
{med($\theta_e$)}	{[$^\circ$]}	72.45775
{$\Upsilon$}	[]	10
{$\Xi$}	[]	3
