Q	U	V
{$V$}	{[mm$^3$]}	0.00376183
{$d_v$}	{[mm]}	0.192960
{$S_c$}	{[mm$^2$]}	0.223474
{$S_o$}	{[mm$^2$]}	0.127684
{$S_l/S_o$}	[]	0.750211
{$\Psi$}	[]	0.523428
{$\eta$}	[]	0.552149
{med($\theta_e$)}	{[$^\circ$]}	69.0989
{$\Upsilon$}	[]	13
{$\Xi$}	[]	3
