"cellPairingIds","interplanarAngles","angleWeights"
50,107.09,0.0656986
86,29.665,0.0360321
100,101.498,0.0758056
205,98.7837,0.0346686
114,45.8307,0.0913883
225,124.727,0.0376007
162,89.25,0.0425997
222,44.1593,0.0264312
291,109.819,0.0255576
243,53.8604,0.0429689
315,159.582,0.0407069
393,137.531,0.02569
