Q	U	V
{$V$}	{[mm$^3$]}	0.0199859
{$d_v$}	{[mm]}	0.336699
{$S_c$}	{[mm$^2$]}	0.690039
{$S_o$}	{[mm$^2$]}	0.51419
{$S_l/S_o$}	[]	0.341992
{$\Psi$}	[]	0.516131
{$\eta$}	[]	0.536328
{med($\theta_e$)}	{[$^\circ$]}	63.1795
{$\Upsilon$}	[]	14
{$\Xi$}	[]	9
