Q	U	V
{$V$}	{[mm$^3$]}	0.0106466
{$d_v$}	{[mm]}	0.272942
{$S_c$}	{[mm$^2$]}	0.423656
{$S_o$}	{[mm$^2$]}	0.303011
{$S_l/S_o$}	[]	0.398154
{$\Psi$}	[]	0.552431
{$\eta$}	[]	0.595452
{med($\theta_e$)}	{[$^\circ$]}	76.586
{$\Upsilon$}	[]	7
{$\Xi$}	[]	9
