Q	U	V
{$V$}	{[mm$^3$]}	0.00443511
{$d_v$}	{[mm]}	0.203846
{$S_c$}	{[mm$^2$]}	0.286829
{$S_o$}	{[mm$^2$]}	0.165267
{$S_l/S_o$}	[]	0.735549
{$\Psi$}	[]	0.455125
{$\eta$}	[]	0.496365
{med($\theta_e$)}	{[$^\circ$]}	92.19255
{$\Upsilon$}	[]	15
{$\Xi$}	[]	8
