facetNormals:0,facetNormals:1,facetNormals:2,FacetCenters:0,FacetCenters:1,FacetCenters:2,FacetIds,relFacetSize,absFacetSize,cellPairingIds,interplanarAngles,angleWeights
-0.338726,0.456763,-0.783635,6.20707,6.7191,14.1273,1,0.0159889,0.00319998,8,69.5543,0.014114
0.532445,-0.246664,-0.803275,6.33692,6.65611,14.1314,2,0.0126327,0.00252827,13,58.3635,0.0248596
0.536182,0.111081,-0.789919,6.31604,6.67988,14.1366,3,0.0558393,0.0111755,19,80.5971,0.0181176
0.417105,-0.560125,-0.707442,6.34847,6.62271,14.1483,4,0.0209,0.00418286,26,104.052,0.0244191
0.489059,-0.761015,-0.362598,6.36914,6.6121,14.1961,5,0.051653,0.0103377,34,119.418,0.0267457
-0.121493,-0.970891,0.0825083,6.30951,6.59848,14.2337,6,0.0817316,0.0163575,43,106.571,0.0263435
0.957096,-0.0606383,-0.108941,6.40795,6.68389,14.2326,7,0.0747563,0.0149615,53,134.975,0.0239888
0.808622,0.0305546,0.498093,6.3583,6.70721,14.3038,8,0.0480101,0.00960859,64,99.6788,0.0228443
0.385552,0.754362,0.474779,6.31549,6.74209,14.2633,9,0.0399902,0.00800352,76,148.839,0.0204548
-0.0810236,-0.746912,0.650061,6.29381,6.64295,14.2992,10,0.0283821,0.0056803,89,120.644,0.0232991
-0.0801231,0.398853,0.874548,6.33605,6.74101,14.3423,11,0.0429236,0.00859061,103,149.163,0.0284386
-0.170027,-0.43544,0.833524,6.30174,6.67205,14.3252,12,0.128473,0.0257123,18,21.0026,0.0206041
,,,,,,,,,25,20.1241,0.0157472
,,,,,,,,,33,40.302,0.0203005
,,,,,,,,,42,83.6215,0.0218831
,,,,,,,,,52,50.3963,0.0216131
,,,,,,,,,63,88.6115,0.0200023
,,,,,,,,,75,112.017,0.0192002
,,,,,,,,,88,112.68,0.0174836
,,,,,,,,,102,151.539,0.0195204
,,,,,,,,,117,133.357,0.0230035
,,,,,,,,,32,41.0771,0.0304157
,,,,,,,,,41,60.2991,0.0536646
,,,,,,,,,51,104.617,0.0663489
,,,,,,,,,62,50.3062,0.0639277
,,,,,,,,,74,87.2694,0.0516296
,,,,,,,,,87,95.1949,0.0466042
,,,,,,,,,101,132.078,0.037635
,,,,,,,,,116,138.049,0.048537
,,,,,,,,,132,150.311,0.0778445
,,,,,,,,,50,23.7483,0.0297589
,,,,,,,,,61,63.5503,0.0332878
,,,,,,,,,73,57.8728,0.0326671
,,,,,,,,,86,91.9539,0.0291223
,,,,,,,,,100,128.245,0.0274525
,,,,,,,,,115,94.3734,0.0240731
,,,,,,,,,131,155.939,0.028112
,,,,,,,,,148,116.016,0.0359514
,,,,,,,,,72,47.2553,0.0633009
,,,,,,,,,85,53.9376,0.0610934
,,,,,,,,,99,78.059,0.0497649
,,,,,,,,,114,126.102,0.0450795
,,,,,,,,,130,72.3807,0.0366344
,,,,,,,,,147,134.582,0.0468855
,,,,,,,,,165,93.3245,0.073682
,,,,,,,,,98,94.0172,0.0780885
,,,,,,,,,113,95.3385,0.0604885
,,,,,,,,,129,140.903,0.0537038
,,,,,,,,,146,36.058,0.0421331
,,,,,,,,,164,108.808,0.0562867
,,,,,,,,,183,56.9192,0.0999057
,,,,,,,,,128,38.4937,0.0584697
,,,,,,,,,145,73.1601,0.0521065
,,,,,,,,,163,96.1708,0.0411436
,,,,,,,,,182,102.163,0.0545346
,,,,,,,,,202,104.255,0.0945157
,,,,,,,,,162,51.7498,0.0436347
,,,,,,,,,181,75.5572,0.0356745
,,,,,,,,,201,65.2985,0.0453246
,,,,,,,,,222,73.0735,0.0698991
,,,,,,,,,200,107.246,0.0332008
,,,,,,,,,221,42.9876,0.041405
,,,,,,,,,243,89.8947,0.0609945
,,,,,,,,,242,73.1922,0.0341701
,,,,,,,,,265,21.9109,0.046493
,,,,,,,,,288,51.889,0.0643482
