facetNormals:0,facetNormals:1,facetNormals:2,FacetCenters:0,FacetCenters:1,FacetCenters:2,FacetIds,relFacetSize,absFacetSize,cellPairingIds,interplanarAngles,angleWeights
-0.40101,0.211567,-0.854268,3.05238,5.64686,11.7749,1,0.0565426,0.00678771,8,36.9495,0.0460915
0.20094,0.327587,-0.891682,3.0885,5.63788,11.7749,2,0.0389012,0.00466993,13,30.3851,0.0489129
-0.250593,0.666482,-0.676512,3.07654,5.64462,11.7592,3,0.0430975,0.00517368,19,68.9955,0.0760682
0.520999,0.675332,-0.473119,3.17101,5.63348,11.7515,4,0.116192,0.0139484,26,59.3718,0.0402256
-0.13105,0.939965,-0.275714,3.07623,5.67696,11.7833,5,0.031217,0.00374747,34,107.547,0.0730637
0.68261,-0.62346,-0.154897,3.17616,5.54748,11.7618,6,0.103225,0.0123917,43,90.7451,0.0562537
-0.160441,0.890475,0.309928,3.07049,5.67338,11.8226,7,0.0559678,0.00671871,53,166.505,0.0799846
0.575739,-0.182496,0.714324,3.15357,5.59115,11.8265,8,0.13663,0.0164019,64,141.388,0.0280493
0.588583,0.386441,0.693971,3.07443,5.6393,11.7333,9,0.0186507,0.00223894,76,139.343,0.040219
-0.21736,-0.480847,0.821535,3.11071,5.58946,11.8375,10,0.0312091,0.00374652,18,36.0326,0.040892
,,,,,,,,,25,37.8526,0.0582877
,,,,,,,,,33,56.6578,0.034638
,,,,,,,,,42,85.523,0.0565072
,,,,,,,,,52,91.042,0.0458994
,,,,,,,,,63,129.771,0.0605599
,,,,,,,,,75,112.927,0.0252132
,,,,,,,,,88,170.027,0.0346332
,,,,,,,,,32,48.1133,0.062874
,,,,,,,,,41,29.3799,0.0362076
,,,,,,,,,51,121.555,0.0608072
,,,,,,,,,62,63.1672,0.0486966
,,,,,,,,,74,144.627,0.065526
,,,,,,,,,87,111.725,0.0260347
,,,,,,,,,101,148.972,0.0362022
,,,,,,,,,50,43.6959,0.0492123
,,,,,,,,,61,89.5061,0.109325
,,,,,,,,,73,66.556,0.0755463
,,,,,,,,,86,100.179,0.125585
,,,,,,,,,100,75.6312,0.0321421
,,,,,,,,,115,150.228,0.0492024
,,,,,,,,,72,133.083,0.047937
,,,,,,,,,85,35.1787,0.0400792
,,,,,,,,,99,118.699,0.0508222
,,,,,,,,,114,84.4338,0.0233505
,,,,,,,,,130,132.345,0.031213
,,,,,,,,,98,142.652,0.0725821
,,,,,,,,,113,63.1423,0.117601
,,,,,,,,,129,86.6997,0.0315931
,,,,,,,,,146,88.4872,0.0479276
,,,,,,,,,128,92.1453,0.0794078
,,,,,,,,,145,60.5584,0.027978
,,,,,,,,,163,98.5409,0.0400726
,,,,,,,,,162,34.2888,0.0328211
,,,,,,,,,181,53.0179,0.0508117
,,,,,,,,,200,74.5983,0.0233483
