Q	U	V
{$V$}	{[mm$^3$]}	0.00284393
{$d_v$}	{[mm]}	0.175782
{$S_c$}	{[mm$^2$]}	0.18193
{$S_o$}	{[mm$^2$]}	0.10693
{$S_l/S_o$}	[]	0.701393
{$\Psi$}	[]	0.533571
{$\eta$}	[]	0.590738
{med($\theta_e$)}	{[$^\circ$]}	63.09275
{$\Upsilon$}	[]	13
{$\Xi$}	[]	4
