Q	U	V
{$V$}	{[mm$^3$]}	0.0116548
{$d_v$}	{[mm]}	0.281299
{$S_c$}	{[mm$^2$]}	0.564095
{$S_o$}	{[mm$^2$]}	0.289749
{$S_l/S_o$}	[]	0.946840
{$\Psi$}	[]	0.440692
{$\eta$}	[]	0.457735
{med($\theta_e$)}	{[$^\circ$]}	
{$\Upsilon$}	[]	11
{$\Xi$}	[]	2
