Q	U	V
{$V$}	{[mm$^3$]}	0.0101978
{$d_v$}	{[mm]}	0.269052
{$S_c$}	{[mm$^2$]}	0.46718
{$S_o$}	{[mm$^2$]}	0.297309
{$S_l/S_o$}	[]	0.571362
{$\Psi$}	[]	0.486785
{$\eta$}	[]	0.540916
{med($\theta_e$)}	{[$^\circ$]}	62.93775
{$\Upsilon$}	[]	13
{$\Xi$}	[]	10
