facetNormals:0,facetNormals:1,facetNormals:2,FacetCenters:0,FacetCenters:1,FacetCenters:2,FacetIds,relFacetSize,absFacetSize,cellPairingIds,interplanarAngles,angleWeights
-0.14241,-0.338788,-0.88995,4.59539,6.58973,11.4332,1,0.0451081,0.0154954,8,51.9252,0.0343745
-0.0950199,0.498875,-0.815933,4.66762,6.6601,11.3669,2,0.0277672,0.00953851,13,34.1585,0.042697
-0.603307,-0.0405333,-0.751713,4.55867,6.61211,11.3806,3,0.0405305,0.0139229,19,60.688,0.0596272
0.732191,-0.072442,-0.588682,4.73671,6.63791,11.3678,4,0.0879291,0.0302052,26,32.0658,0.0364991
0.210474,-0.686793,-0.677619,4.51102,6.5152,11.5282,5,0.0306495,0.0105286,34,38.5926,0.021905
-0.582479,-0.619003,-0.508861,4.56294,6.5634,11.478,6,0.0144646,0.00496884,43,66.3275,0.030757
-0.884469,0.19803,-0.357018,4.5734,6.65133,11.3954,7,0.0233334,0.00801544,53,92.7531,0.0276278
0.225808,0.893038,-0.32533,4.71862,6.68658,11.3784,8,0.0199116,0.00683999,64,45.8227,0.0551913
0.0912339,-0.882675,-0.418207,4.60913,6.52619,11.4723,9,0.0710799,0.0244172,76,71.5629,0.0683511
-0.0686902,-0.919465,0.0451494,4.60293,6.54458,11.5013,10,0.141009,0.0484391,89,118.974,0.035153
-0.0792763,0.955523,0.158229,4.66824,6.62009,11.4439,11,0.0287975,0.00989246,103,97.044,0.0546158
0.857898,-0.402927,0.143286,4.72811,6.60818,11.4216,12,0.069202,0.0237721,118,139.755,0.0605129
0.383361,-0.23331,0.7474,4.59921,6.5636,11.5855,13,0.0918962,0.0315679,134,130.081,0.0593
-0.558055,0.0158777,0.715391,4.4867,6.56922,11.601,14,0.0865212,0.0297215,18,45.4486,0.0329562
,,,,,,,,,25,65.5648,0.0422061
,,,,,,,,,33,78.4348,0.0291372
,,,,,,,,,42,80.2192,0.0190208
,,,,,,,,,52,59.5732,0.025358
,,,,,,,,,63,42.7437,0.0231923
,,,,,,,,,75,96.5646,0.0399342
,,,,,,,,,88,123.449,0.0463978
,,,,,,,,,102,67.6519,0.028273
,,,,,,,,,117,115.695,0.0396321
,,,,,,,,,133,155.54,0.0426479
,,,,,,,,,150,126.828,0.0420419
,,,,,,,,,32,89.7655,0.0554853
,,,,,,,,,41,64.4933,0.0349042
,,,,,,,,,51,37.4201,0.0213203
,,,,,,,,,62,32.3467,0.0296166
,,,,,,,,,74,85.6108,0.0267042
,,,,,,,,,87,71.8306,0.0516243
,,,,,,,,,101,87.1184,0.0629633
,,,,,,,,,116,96.7287,0.0336712
,,,,,,,,,132,131.185,0.0511205
,,,,,,,,,149,158.714,0.0562515
,,,,,,,,,167,103.323,0.0552019
,,,,,,,,,50,49.6255,0.0454548
,,,,,,,,,61,95.0449,0.0248425
,,,,,,,,,73,119.483,0.0368801
,,,,,,,,,86,71.4953,0.0324703
,,,,,,,,,100,65.9348,0.0786118
,,,,,,,,,115,90.6762,0.108316
,,,,,,,,,131,103.928,0.0433859
,,,,,,,,,148,50.6277,0.0774496
,,,,,,,,,166,99.9816,0.0898689
,,,,,,,,,185,166.341,0.0872195
,,,,,,,,,72,48.5682,0.0196538
,,,,,,,,,85,94.7848,0.0264957
,,,,,,,,,99,110.977,0.0241403
,,,,,,,,,114,20.2576,0.0428305
,,,,,,,,,130,49.9613,0.0503541
,,,,,,,,,147,144.388,0.0296947
,,,,,,,,,165,67.634,0.0424832
,,,,,,,,,184,107.965,0.0459677
,,,,,,,,,204,133.174,0.0452644
,,,,,,,,,98,53.4816,0.0178585
,,,,,,,,,113,122.415,0.0167566
,,,,,,,,,129,43.4042,0.0240376
,,,,,,,,,146,50.1342,0.0262377
,,,,,,,,,164,130.547,0.0192568
,,,,,,,,,183,109.899,0.0239278
,,,,,,,,,203,122.121,0.0249949
,,,,,,,,,224,93.1123,0.0247855
,,,,,,,,,128,84.3751,0.0214871
,,,,,,,,,145,96.3794,0.0351335
,,,,,,,,,163,98.7917,0.0400411
,,,,,,,,,182,77.6267,0.0257791
,,,,,,,,,202,162.328,0.0348995
,,,,,,,,,223,140.163,0.037217
,,,,,,,,,245,74.1578,0.0367547
,,,,,,,,,162,131.229,0.0311087
,,,,,,,,,181,160.735,0.0348957
,,,,,,,,,201,34.3322,0.0235441
,,,,,,,,,222,103.13,0.0309251
,,,,,,,,,244,115.373,0.0327312
,,,,,,,,,267,112.873,0.032373
,,,,,,,,,200,29.7225,0.0945161
,,,,,,,,,221,164.099,0.0409888
,,,,,,,,,243,66.5641,0.0701284
,,,,,,,,,266,94.8063,0.0801587
,,,,,,,,,290,114.143,0.0780441
,,,,,,,,,242,164.87,0.0478275
,,,,,,,,,265,68.9376,0.0928411
,,,,,,,,,289,73.9921,0.111274
,,,,,,,,,314,86.1646,0.107241
,,,,,,,,,288,117.515,0.0406706
,,,,,,,,,313,99.1737,0.0438529
,,,,,,,,,339,78.7122,0.0432124
,,,,,,,,,338,50.6393,0.0789506
,,,,,,,,,365,116.097,0.0768985
,,,,,,,,,392,66.3741,0.0891277
