"cellPairingIds","interplanarAngles","angleWeights"
8,77.5249,0.0522588
19,52.3285,0.043753
34,73.8175,0.0237672
64,113.119,0.0204099
33,65.2311,0.0572296
42,102.156,0.0378241
75,164.566,0.0299767
61,45.9781,0.0331585
100,70.8032,0.0269692
72,101.258,0.0247447
114,105.95,0.0211265
129,91.8403,0.0177625
