facetNormals:0,facetNormals:1,facetNormals:2,FacetCenters:0,FacetCenters:1,FacetCenters:2,FacetIds,relFacetSize,absFacetSize,cellPairingIds,interplanarAngles,angleWeights
0.320925,-0.239001,-0.901884,3.33091,6.98373,12.5919,1,0.0242755,0.0035158,8,49.3319,0.0281229
0.364797,0.5561,-0.712366,3.34384,7.02073,12.613,2,0.0334195,0.0048401,13,92.7831,0.0225465
-0.868498,-0.198468,-0.207855,3.26339,6.9295,12.5999,3,0.0210475,0.00304828,19,34.8731,0.0367122
0.764637,-0.00944344,-0.595109,3.36274,6.9704,12.6177,4,0.0752783,0.0109025,26,68.1643,0.0255218
0.705437,0.584766,-0.29573,3.34372,6.99907,12.6085,5,0.026903,0.00389634,34,76.4092,0.0377664
-0.0715404,0.79885,-0.477057,3.32954,7.00166,12.6122,6,0.0850092,0.0123118,43,49.4837,0.0277045
0.846715,-0.403999,-0.289442,3.36648,6.9663,12.6223,7,0.0322614,0.00467239,53,57.1646,0.0434193
0.144571,-0.900439,-0.274975,3.29806,6.89874,12.6395,8,0.205392,0.0297467,64,83.2541,0.0318238
0.641808,-0.633062,0.275023,3.38483,6.94441,12.6985,9,0.0461845,0.00668885,76,123.04,0.0372361
-0.156614,0.919755,0.281888,3.30184,6.9175,12.6371,10,0.0798871,0.01157,89,115.082,0.0259836
-0.0613268,-0.737536,0.621966,3.31461,6.90185,12.7239,11,0.0279501,0.00404798,103,121.27,0.0253787
0.359677,0.78197,0.480554,3.37292,6.97263,12.6727,12,0.0265868,0.00385054,118,118.653,0.0367689
0.621366,-0.0158397,0.727087,3.38081,6.96987,12.7241,13,0.0757574,0.0109719,134,161.832,0.0300419
-0.182609,0.487351,0.784191,3.34412,7.01655,12.6959,14,0.0394011,0.00570642,18,108.245,0.0258283
,,,,,,,,,25,42.3756,0.0462891
,,,,,,,,,33,32.2947,0.0298093
,,,,,,,,,42,33.5471,0.0479776
,,,,,,,,,52,72.3316,0.0328302
,,,,,,,,,63,105.759,0.0574854
,,,,,,,,,75,109.978,0.0387785
,,,,,,,,,88,74.519,0.047125
,,,,,,,,,102,158.334,0.0304411
,,,,,,,,,117,76.5333,0.0296141
,,,,,,,,,133,108.778,0.0463793
,,,,,,,,,150,112.718,0.0361646
,,,,,,,,,32,127.41,0.0328971
,,,,,,,,,41,139.249,0.0236177
,,,,,,,,,51,89.8158,0.033741
,,,,,,,,,62,131.491,0.025475
,,,,,,,,,74,82.7277,0.0381822
,,,,,,,,,87,124.546,0.0289168
,,,,,,,,,101,96.7705,0.033317
,,,,,,,,,116,85.4367,0.0240126
,,,,,,,,,132,128.995,0.023495
,,,,,,,,,149,141.796,0.0329426
,,,,,,,,,167,96.7451,0.027438
,,,,,,,,,50,40.4581,0.0396396
,,,,,,,,,61,75.8107,0.0798484
,,,,,,,,,73,30.0463,0.0451663
,,,,,,,,,86,72.1648,0.110176
,,,,,,,,,100,68.6115,0.057247
,,,,,,,,,115,108.278,0.0775143
,,,,,,,,,131,115.961,0.0407647
,,,,,,,,,148,91.1004,0.0392953
,,,,,,,,,166,87.3674,0.0755171
,,,,,,,,,185,132.057,0.0517277
,,,,,,,,,72,51.6292,0.0408714
,,,,,,,,,85,61.8033,0.0293396
,,,,,,,,,99,111.979,0.0475746
,,,,,,,,,114,89.9224,0.0340004
,,,,,,,,,130,68.4958,0.040251
,,,,,,,,,147,135.027,0.0274166
,,,,,,,,,165,53.1757,0.026744
,,,,,,,,,184,76.561,0.0397057
,,,,,,,,,204,94.7945,0.0319742
,,,,,,,,,98,105.525,0.0467725
,,,,,,,,,113,132.321,0.120249
,,,,,,,,,129,140.928,0.0598521
,,,,,,,,,146,47.7561,0.0823686
,,,,,,,,,164,167.719,0.0420685
,,,,,,,,,183,66.305,0.0405054
,,,,,,,,,203,116.907,0.0801171
,,,,,,,,,224,88.1548,0.0538453
,,,,,,,,,128,52.7718,0.0557639
,,,,,,,,,145,38.9556,0.0379874
,,,,,,,,,163,127.746,0.0459618
,,,,,,,,,182,86.0117,0.0299514
,,,,,,,,,202,98.9437,0.0291505
,,,,,,,,,223,69.9439,0.0452521
,,,,,,,,,245,128.758,0.0354756
,,,,,,,,,162,49.1511,0.0754119
,,,,,,,,,181,179.48,0.115032
,,,,,,,,,201,58.2748,0.0492044
,,,,,,,,,222,146.639,0.0470794
,,,,,,,,,244,96.0377,0.110688
,,,,,,,,,267,139.418,0.0661185
,,,,,,,,,200,131.214,0.058531
,,,,,,,,,221,48.9305,0.0348248
,,,,,,,,,243,98.1695,0.0337468
,,,,,,,,,266,47.5256,0.057385
,,,,,,,,,290,103.697,0.042524
,,,,,,,,,242,121.58,0.0414116
,,,,,,,,,265,33.8057,0.039896
,,,,,,,,,289,84.2705,0.0777675
,,,,,,,,,314,40.4649,0.0527737
,,,,,,,,,288,108.342,0.0272514
,,,,,,,,,313,62.5833,0.0408346
,,,,,,,,,339,81.1806,0.0327022
,,,,,,,,,338,53.5292,0.0393603
,,,,,,,,,365,41.7437,0.0317497
,,,,,,,,,392,60.0849,0.0518403
