facetNormals:0,facetNormals:1,facetNormals:2,FacetCenters:0,FacetCenters:1,FacetCenters:2,FacetIds,relFacetSize,absFacetSize,cellPairingIds,interplanarAngles,angleWeights
0.0153316,-0.0338541,-0.952022,4.46714,4.63439,13.1228,1,0.077894,0.0126485,8,36.8568,0.0430184
0.428025,-0.44427,-0.763,4.45508,4.614,13.1444,2,0.0297143,0.00482505,13,50.832,0.0645912
-0.553091,0.467569,-0.633888,4.4097,4.7006,13.1531,3,0.0551693,0.00895846,19,64.651,0.0390219
0.398245,0.774304,-0.4389,4.46348,4.72101,13.1634,4,0.0260313,0.004227,26,61.4546,0.030167
0.281227,-0.835886,-0.436285,4.50409,4.5551,13.1681,5,0.0187057,0.00303746,34,63.4071,0.0420748
-0.159361,0.831202,-0.464661,4.40333,4.73528,13.1832,6,0.0288214,0.00468006,43,61.0372,0.10745
-0.616525,-0.57123,-0.452111,4.42925,4.58596,13.1913,7,0.173151,0.0281166,53,61.9062,0.0375533
0.75883,0.423367,-0.467952,4.46691,4.69594,13.1517,8,0.0247404,0.00401738,64,88.5817,0.046285
0.846104,-0.476833,0.00652359,4.52876,4.54156,13.217,9,0.0329244,0.00534632,76,93.0179,0.0389723
-0.888957,0.425489,0.0224924,4.33705,4.71333,13.1911,10,0.0259872,0.00421984,89,89.9137,0.0303689
0.589152,0.791488,-0.0201457,4.42237,4.74123,13.2208,11,0.0188612,0.00306271,103,97.0887,0.079846
-0.965778,-0.0280206,0.105476,4.34147,4.67667,13.2504,12,0.0818983,0.0132988,118,83.6938,0.0649191
0.951439,0.087132,-0.0933013,4.53468,4.60719,13.1702,13,0.0556495,0.00903644,134,97.7417,0.0227993
0.259815,-0.934199,0.17012,4.44848,4.53469,13.2773,14,0.013354,0.00216844,151,119.079,0.0681916
0.269462,0.760692,0.419716,4.40834,4.72574,13.2617,15,0.0606385,0.00984657,169,124.514,0.047475
0.116226,-0.75137,0.566095,4.46231,4.53742,13.2786,16,0.034142,0.00554403,18,87.6214,0.0386251
,,,,,,,,,25,80.2916,0.0277512
,,,,,,,,,33,31.3357,0.0229586
,,,,,,,,,42,95.0234,0.029261
,,,,,,,,,52,69.0478,0.0507239
,,,,,,,,,63,59.3442,0.0270002
,,,,,,,,,75,53.3379,0.0312371
,,,,,,,,,88,127.34,0.027726
,,,,,,,,,102,94.9819,0.0230753
,,,,,,,,,117,120.318,0.0436071
,,,,,,,,,133,62.171,0.0387421
,,,,,,,,,150,65.7691,0.0184268
,,,,,,,,,168,127.462,0.0398843
,,,,,,,,,187,92.9812,0.0317746
,,,,,,,,,32,63.4154,0.0353724
,,,,,,,,,41,106.554,0.0279385
,,,,,,,,,51,33.8974,0.0378627
,,,,,,,,,62,66.8923,0.0836774
,,,,,,,,,74,85.4787,0.0341613
,,,,,,,,,87,138.035,0.0412383
,,,,,,,,,101,44.5316,0.0353316
,,,,,,,,,116,86.5603,0.0281116
,,,,,,,,,132,60.9517,0.0659276
,,,,,,,,,149,117.481,0.0554083
,,,,,,,,,167,136.591,0.0215031
,,,,,,,,,186,93.8913,0.0577747
,,,,,,,,,206,148.088,0.0421803
,,,,,,,,,50,110.995,0.0217687
,,,,,,,,,61,33.6078,0.0273554
,,,,,,,,,73,121.73,0.0452585
,,,,,,,,,86,29.7624,0.0253694
,,,,,,,,,100,92.1253,0.0290749
,,,,,,,,,115,92.0531,0.0260092
,,,,,,,,,131,27.1431,0.0218737
,,,,,,,,,148,118.528,0.0395058
,,,,,,,,,166,58.6262,0.0354705
,,,,,,,,,185,136.348,0.0176524
,,,,,,,,,205,54.7341,0.0364256
,,,,,,,,,226,148.014,0.02954
,,,,,,,,,72,124.412,0.022687
,,,,,,,,,85,57.7309,0.0337638
,,,,,,,,,99,86.2402,0.0213039
,,,,,,,,,114,48.4638,0.0238572
,,,,,,,,,130,129.385,0.0217533
,,,,,,,,,147,120.109,0.0187831
,,,,,,,,,165,107.917,0.0304553
,,,,,,,,,184,75.5659,0.0279997
,,,,,,,,,204,36.3935,0.0155832
,,,,,,,,,225,146.136,0.0285915
,,,,,,,,,247,63.6643,0.0241694
,,,,,,,,,98,100.409,0.0494172
,,,,,,,,,113,61.9279,0.0266254
,,,,,,,,,129,124.728,0.0307366
,,,,,,,,,146,59.3734,0.027331
,,,,,,,,,164,53.0061,0.022801
,,,,,,,,,183,85.0111,0.0426378
,,,,,,,,,203,92.2164,0.0379751
,,,,,,,,,224,160.676,0.0182514
,,,,,,,,,246,63.3215,0.039072
,,,,,,,,,269,171.911,0.0312569
,,,,,,,,,128,121.927,0.0432947
,,,,,,,,,145,105.789,0.0553283
,,,,,,,,,163,71.7362,0.0451918
,,,,,,,,,182,148.872,0.034017
,,,,,,,,,202,52.5718,0.1112
,,,,,,,,,223,130.433,0.0842285
,,,,,,,,,245,71.6011,0.0247957
,,,,,,,,,268,155.574,0.0898212
,,,,,,,,,292,83.5509,0.0570373
,,,,,,,,,162,62.8692,0.0282517
,,,,,,,,,181,121.266,0.0253485
,,,,,,,,,201,35.6381,0.0214044
,,,,,,,,,222,145.877,0.0380011
,,,,,,,,,244,32.1061,0.0342528
,,,,,,,,,267,106.624,0.0173455
,,,,,,,,,291,68.4248,0.0351427
,,,,,,,,,316,121.932,0.0286906
,,,,,,,,,200,175.816,0.0290474
,,,,,,,,,221,82.751,0.0239833
,,,,,,,,,243,148.295,0.0469673
,,,,,,,,,266,35.0942,0.0413717
,,,,,,,,,290,45.8166,0.0190012
,,,,,,,,,315,98.5923,0.0426769
,,,,,,,,,341,60.0009,0.0335222
,,,,,,,,,242,101.107,0.0218581
,,,,,,,,,265,27.6133,0.0394549
,,,,,,,,,289,148.959,0.0354295
,,,,,,,,,314,130.063,0.0176422
,,,,,,,,,340,84.0106,0.0363824
,,,,,,,,,367,116.045,0.0295116
,,,,,,,,,288,128.209,0.0306611
,,,,,,,,,313,48.2062,0.0281736
,,,,,,,,,339,127.375,0.0156369
,,,,,,,,,366,33.0589,0.0287728
,,,,,,,,,394,125.079,0.0242989
,,,,,,,,,338,176.389,0.0662693
,,,,,,,,,365,102.482,0.0229636
,,,,,,,,,393,105.569,0.0696829
,,,,,,,,,422,91.9585,0.0481931
,,,,,,,,,392,80.8718,0.0215393
,,,,,,,,,421,71.055,0.058037
,,,,,,,,,451,90.4851,0.0423199
,,,,,,,,,450,129.468,0.0218878
,,,,,,,,,481,27.4084,0.0191988
,,,,,,,,,512,110.548,0.0436866
