facetNormals:0,facetNormals:1,facetNormals:2,FacetCenters:0,FacetCenters:1,FacetCenters:2,FacetIds,relFacetSize,absFacetSize,cellPairingIds,interplanarAngles,angleWeights
0.323459,-0.107107,-0.92924,5.24395,7.1084,12.9687,1,0.0156251,0.00444006,8,40.1276,0.0179947
-0.0164995,0.47322,-0.859329,5.18822,7.208,12.9691,2,0.0212117,0.00602756,13,58.8742,0.0275862
-0.597533,-0.28002,-0.708985,5.16539,7.07708,13.0058,3,0.117642,0.0334296,19,39.7972,0.0159302
0.169293,-0.707532,-0.667467,5.20334,7.06116,13.1119,4,0.0162476,0.00461695,26,40.3604,0.021719
0.582302,0.450026,-0.641549,5.28336,7.17121,12.9802,5,0.0356054,0.0101177,34,48.9208,0.022405
0.549608,-0.681328,-0.405294,5.28941,7.01023,13.0203,6,0.0395787,0.0112468,43,80.3512,0.0127007
-0.0169306,-0.98994,-0.0689682,5.19515,6.93358,13.1158,7,0.0106985,0.0030401,53,79.1158,0.0235857
0.488168,0.808511,-0.114606,5.2599,7.21742,13.0325,8,0.0480828,0.0136633,64,63.3204,0.0214907
0.935267,0.186463,-0.15825,5.31144,7.10976,13.0321,9,0.0344071,0.0097772,76,77.5365,0.0269267
0.8189,-0.505315,0.120378,5.2988,7.01303,13.1085,10,0.0973155,0.0276534,89,130.363,0.0133631
-0.806421,0.439518,0.345499,5.12106,7.19321,13.0796,11,0.0116733,0.00331711,103,97.9885,0.0138907
0.766724,0.519197,0.353773,5.27956,7.14646,13.0849,12,0.0125028,0.00355284,118,108.674,0.0218142
-0.0289533,0.942616,0.210824,5.19894,7.23377,13.0574,13,0.0361223,0.0102646,134,109.424,0.021818
0.762655,0.0898485,0.600397,5.17589,7.08453,13.0874,14,0.0361433,0.0102706,151,110.561,0.0222213
0.283153,-0.754368,0.550562,5.22235,6.96247,13.1856,15,0.0384556,0.0109276,169,134.6,0.0271464
0.243703,0.571236,0.743471,5.23416,7.15621,13.1602,16,0.103361,0.0293714,18,59.1999,0.0359427
,,,,,,,,,25,75.9016,0.0184007
,,,,,,,,,33,38.0181,0.0265853
,,,,,,,,,42,88.9832,0.0276205
,,,,,,,,,52,114.83,0.0142232
,,,,,,,,,63,59.5519,0.0294372
,,,,,,,,,75,77.2831,0.0262441
,,,,,,,,,88,111.977,0.0348313
,,,,,,,,,102,94.5039,0.0150592
,,,,,,,,,117,94.1843,0.0157325
,,,,,,,,,133,73.7461,0.0267281
,,,,,,,,,150,120.541,0.0267339
,,,,,,,,,168,150.671,0.0273419
,,,,,,,,,187,113.079,0.0351997
,,,,,,,,,32,53.3972,0.0285519
,,,,,,,,,41,91.1581,0.0546658
,,,,,,,,,51,80.7787,0.0592304
,,,,,,,,,62,69.5275,0.0196133
,,,,,,,,,74,118.299,0.0682646
,,,,,,,,,87,122.195,0.0532423
,,,,,,,,,101,117.463,0.106518
,,,,,,,,,116,83.1208,0.0212391
,,,,,,,,,132,152.855,0.0226034
,,,,,,,,,149,115.038,0.0552729
,,,,,,,,,167,163.778,0.0552975
,,,,,,,,,186,111.622,0.0579637
,,,,,,,,,206,152.556,0.11004
,,,,,,,,,50,77.5149,0.0223131
,,,,,,,,,61,27.3907,0.0230378
,,,,,,,,,73,40.6375,0.0129016
,,,,,,,,,86,116.078,0.024288
,,,,,,,,,100,82.0485,0.0220723
,,,,,,,,,115,64.2597,0.027846
,,,,,,,,,131,134.422,0.0135857
,,,,,,,,,148,118.947,0.0141313
,,,,,,,,,166,148.393,0.0224136
,,,,,,,,,185,110.383,0.0224177
,,,,,,,,,205,77.1555,0.0228437
,,,,,,,,,226,153.933,0.028081
,,,,,,,,,72,73.1218,0.0374871
,,,,,,,,,85,115.105,0.0164532
,,,,,,,,,99,39.0208,0.040914
,,,,,,,,,114,39.3302,0.034996
,,,,,,,,,130,79.5199,0.0521357
,,,,,,,,,147,121.002,0.0175822
,,,,,,,,,165,62.0796,0.018507
,,,,,,,,,184,73.238,0.035862
,,,,,,,,,204,84.008,0.0358724
,,,,,,,,,225,123.64,0.0369757
,,,,,,,,,247,94.7302,0.0529655
,,,,,,,,,98,43.6171,0.0168439
,,,,,,,,,113,104.908,0.0434183
,,,,,,,,,129,61.0686,0.0368122
,,,,,,,,,146,37.1555,0.0562715
,,,,,,,,,164,158.833,0.0180291
,,,,,,,,,183,94.5423,0.0190027
,,,,,,,,,203,142.91,0.0377716
,,,,,,,,,224,82.9993,0.0377831
,,,,,,,,,246,61.6893,0.0390091
,,,,,,,,,269,126.556,0.0572395
,,,,,,,,,128,147.998,0.0175026
,,,,,,,,,145,101.392,0.0163219
,,,,,,,,,163,60.2177,0.0192776
,,,,,,,,,182,117.207,0.0111646
,,,,,,,,,202,124.086,0.0115305
,,,,,,,,,223,170.968,0.0165078
,,,,,,,,,245,98.516,0.01651
,,,,,,,,,268,43.3755,0.0167399
,,,,,,,,,292,130.224,0.01939
,,,,,,,,,162,47.1518,0.0401113
,,,,,,,,,181,91.4029,0.0643639
,,,,,,,,,201,94.7873,0.0187858
,,,,,,,,,222,36.964,0.0198454
,,,,,,,,,244,38.0653,0.0412531
,,,,,,,,,267,66.072,0.0412668
,,,,,,,,,291,125.17,0.0427337
,,,,,,,,,316,57.4694,0.0656335
,,,,,,,,,200,45.8817,0.0508393
,,,,,,,,,221,140.026,0.0174323
,,,,,,,,,243,37.7273,0.018341
,,,,,,,,,266,82.9089,0.0352438
,,,,,,,,,290,47.6321,0.0352538
,,,,,,,,,315,87.7502,0.0363189
,,,,,,,,,341,76.6152,0.0516281
,,,,,,,,,242,152.088,0.020846
,,,,,,,,,265,64.8786,0.0221588
,,,,,,,,,289,120.431,0.0526876
,,,,,,,,,314,46.4407,0.0527099
,,,,,,,,,340,44.1241,0.055127
,,,,,,,,,367,89.9749,0.100247
,,,,,,,,,288,105.986,0.0120738
,,,,,,,,,313,57.428,0.0176445
,,,,,,,,,339,112.633,0.0176471
,,,,,,,,,366,112.709,0.01791
,,,,,,,,,394,70.8768,0.0209774
,,,,,,,,,338,55.5556,0.018576
,,,,,,,,,365,29.1592,0.0185788
,,,,,,,,,393,88.803,0.0188704
,,,,,,,,,422,38.9819,0.0223073
,,,,,,,,,392,78.4136,0.0361328
,,,,,,,,,421,129.765,0.0372525
,,,,,,,,,451,42.6848,0.0535353
,,,,,,,,,450,59.7851,0.0372636
,,,,,,,,,481,43.6241,0.0535584
,,,,,,,,,512,87.1255,0.0560557
