facetNormals:0,facetNormals:1,facetNormals:2,FacetCenters:0,FacetCenters:1,FacetCenters:2,FacetIds,relFacetSize,absFacetSize,cellPairingIds,interplanarAngles,angleWeights
0.178064,-0.215611,-0.932434,3.58934,3.66394,12.8753,1,0.0299143,0.00499797,8,36.6825,0.0368793
0.487232,0.301715,-0.802018,3.59398,3.62765,12.8746,2,0.048072,0.00803169,13,49.7913,0.00969958
0.358237,-0.833481,-0.409779,3.60502,3.57311,12.9037,3,0.00578819,0.000967069,19,60.4113,0.0381101
-0.247212,-0.877111,-0.347072,3.57564,3.55385,12.9303,4,0.0524914,0.00877007,26,68.3306,0.0475371
0.937406,0.00471879,-0.190865,3.65415,3.62903,12.9701,5,0.115693,0.0193295,34,87.0643,0.0507577
-0.89126,-0.265496,-0.159257,3.50939,3.63928,12.9614,6,0.167391,0.0279671,43,115.818,0.0318516
-0.894373,0.338379,0.194659,3.49577,3.70556,13.0396,7,0.0340571,0.00569014,53,97.7317,0.0324489
-0.478036,-0.816451,0.234405,3.54112,3.56329,13.0057,8,0.0354528,0.00592332,64,119.521,0.0297853
-0.918124,-0.100002,0.357183,3.49524,3.68313,13.0469,9,0.0296575,0.00495506,76,105.983,0.0346301
0.735391,-0.390349,0.511604,3.61058,3.58571,13.0564,10,0.0411109,0.00686866,89,137.397,0.0170209
-0.796401,0.172782,0.573894,3.5223,3.65232,13.0905,11,0.0118944,0.00198727,103,130.109,0.0365178
0.498917,0.536963,0.614394,3.59951,3.72421,13.0886,12,0.0468625,0.00782962,118,151.472,0.0146408
-0.384421,0.58149,0.695032,3.52813,3.75534,13.0903,13,0.00969218,0.00161933,134,148.96,0.0380549
-0.595616,-0.0510777,0.770168,3.53313,3.67531,13.1057,14,0.0522827,0.0087352,151,129.12,0.0261287
0.00411148,-0.594342,0.788804,3.5953,3.60055,13.0729,15,0.0231935,0.00387509,169,132.297,0.0365231
0.36131,-0.348475,0.832703,3.60253,3.62661,13.0884,16,0.0468802,0.00783257,18,75.1358,0.0103323
,,,,,,,,,25,96.375,0.0501846
,,,,,,,,,33,49.5953,0.0679215
,,,,,,,,,42,114.564,0.0746932
,,,,,,,,,52,120.609,0.0398688
,,,,,,,,,63,133.985,0.0408091
,,,,,,,,,75,141.508,0.0366835
,,,,,,,,,88,100.152,0.0443198
,,,,,,,,,102,144.131,0.0190702
,,,,,,,,,117,95.335,0.0474595
,,,,,,,,,133,125.923,0.0161319
,,,,,,,,,150,163.891,0.050089
,,,,,,,,,168,146.299,0.0312903
,,,,,,,,,187,128.523,0.0474686
,,,,,,,,,32,36.0608,0.0104266
,,,,,,,,,41,64.4925,0.0110248
,,,,,,,,,51,91.9974,0.0111895
,,,,,,,,,62,134.609,0.00989471
,,,,,,,,,74,64.7957,0.00995162
,,,,,,,,,87,113.428,0.00968598
,,,,,,,,,101,67.0601,0.0101476
,,,,,,,,,116,132.044,0.00778698
,,,,,,,,,132,123.147,0.0103037
,,,,,,,,,149,157.788,0.00724791
,,,,,,,,,167,120.077,0.0104225
,,,,,,,,,186,79.8293,0.00926436
,,,,,,,,,206,85.3386,0.0103041
,,,,,,,,,50,100.477,0.0722169
,,,,,,,,,61,56.4502,0.0799208
,,,,,,,,,73,98.6584,0.0413111
,,,,,,,,,86,37.6112,0.0423215
,,,,,,,,,100,78.6086,0.037901
,,,,,,,,,115,91.0211,0.0461093
,,,,,,,,,131,99.1078,0.0193941
,,,,,,,,,148,149.984,0.0495175
,,,,,,,,,166,133.129,0.016363
,,,,,,,,,185,94.5404,0.0523868
,,,,,,,,,205,75.1696,0.0321718
,,,,,,,,,226,94.3962,0.0495273
,,,,,,,,,72,153.296,0.136821
,,,,,,,,,85,159.415,0.0526232
,,,,,,,,,99,122.187,0.0542739
,,,,,,,,,114,168.815,0.0472122
,,,,,,,,,130,50.8769,0.0606648
,,,,,,,,,147,153.762,0.021571
,,,,,,,,,165,67.3089,0.0667053
,,,,,,,,,184,121.374,0.017886
,,,,,,,,,204,139.156,0.0720191
,,,,,,,,,225,99.1043,0.0386406
,,,,,,,,,247,78.9602,0.0667232
,,,,,,,,,98,42.7341,0.0565987
,,,,,,,,,113,48.8222,0.0585128
,,,,,,,,,129,32.5004,0.0503876
,,,,,,,,,146,133.381,0.0660099
,,,,,,,,,164,52.4966,0.0222105
,,,,,,,,,183,139.392,0.0732251
,,,,,,,,,203,85.2104,0.0183234
,,,,,,,,,224,62.7099,0.0796786
,,,,,,,,,246,88.2469,0.0407419
,,,,,,,,,269,113.249,0.0732466
,,,,,,,,,128,78.0529,0.0347409
,,,,,,,,,145,27.5375,0.0317054
,,,,,,,,,163,136.369,0.037253
,,,,,,,,,182,24.8702,0.0176311
,,,,,,,,,202,98.9328,0.0394466
,,,,,,,,,223,45.2838,0.01509
,,,,,,,,,245,45.6276,0.0412463
,,,,,,,,,268,93.0476,0.0275946
,,,,,,,,,292,107.098,0.0394528
,,,,,,,,,162,51.2391,0.0322972
,,,,,,,,,181,84.7544,0.0380728
,,,,,,,,,201,67.348,0.0178126
,,,,,,,,,222,124.864,0.0403669
,,,,,,,,,244,97.6709,0.0152227
,,,,,,,,,267,57.7593,0.0422535
,,,,,,,,,291,46.0454,0.0280418
,,,,,,,,,316,71.0998,0.0403734
,,,,,,,,,200,117.942,0.0344574
,,,,,,,,,221,21.4045,0.0169791
,,,,,,,,,243,107.978,0.0363258
,,,,,,,,,266,56.1429,0.0146098
,,,,,,,,,290,31.0543,0.0378465
,,,,,,,,,315,69.8183,0.0260302
,,,,,,,,,341,89.9674,0.0363311
,,,,,,,,,242,111.66,0.0184505
,,,,,,,,,265,59.6937,0.0437987
,,,,,,,,,289,99.2187,0.0156862
,,,,,,,,,314,91.4466,0.0460286
,,,,,,,,,340,48.5744,0.029656
,,,,,,,,,367,29.4027,0.0438064
,,,,,,,,,288,87.1116,0.0189731
,,,,,,,,,313,34.8171,0.0106809
,,,,,,,,,339,20.9497,0.0193798
,,,,,,,,,366,69.3775,0.0157246
,,,,,,,,,394,82.2954,0.0189745
,,,,,,,,,338,54.4433,0.0160623
,,,,,,,,,365,80.8302,0.0494244
,,,,,,,,,393,79.7833,0.0310297
,,,,,,,,,422,57.1263,0.0468713
,,,,,,,,,392,40.0577,0.0163529
,,,,,,,,,421,78.0648,0.0136713
,,,,,,,,,451,75.6493,0.0160634
,,,,,,,,,450,48.7085,0.0321325
,,,,,,,,,481,62.0764,0.0494342
,,,,,,,,,512,25.6821,0.0310335
