facetNormals:0,facetNormals:1,facetNormals:2,FacetCenters:0,FacetCenters:1,FacetCenters:2,FacetIds,relFacetSize,absFacetSize,cellPairingIds,interplanarAngles,angleWeights
-0.421186,-0.24834,-0.816694,2.978,6.13751,13.2204,1,0.04227,0.016128,8,67.9781,0.0217722
0.423563,0.435366,-0.784387,3.08316,6.29039,13.1967,2,0.0146622,0.00559431,13,35.4163,0.0276831
0.0187113,-0.631049,-0.746148,3.0001,6.06925,13.203,3,0.0205808,0.00785254,19,76.7784,0.0623585
0.728044,-0.104243,-0.596144,3.10919,6.21487,13.202,4,0.118833,0.0453403,26,60.4194,0.0248896
0.410773,-0.682519,-0.566814,3.00204,6.0997,13.1874,5,0.0176375,0.00672953,34,46.4588,0.0437309
-0.748727,0.352437,-0.495426,2.99193,6.31987,13.2547,6,0.0452963,0.0172826,43,91.2327,0.037218
0.180163,0.879364,-0.336275,3.03255,6.33292,13.2657,7,0.0332446,0.0126844,53,48.0237,0.0462299
-0.667787,-0.667169,-0.20587,2.87428,6.12209,13.2602,8,0.0510084,0.0194621,64,69.569,0.0217347
-0.417553,-0.891189,0.0844485,2.89643,6.11418,13.298,9,0.0146282,0.00558132,76,121.859,0.043074
0.919783,-0.210896,0.180868,3.0825,6.17265,13.3126,10,0.0439091,0.0167534,89,147.465,0.0461003
0.691912,0.507247,0.433374,3.10391,6.29892,13.3282,11,0.050694,0.0193421,103,82.7609,0.052906
-0.721614,-0.471391,0.377304,2.88581,6.14461,13.3163,12,0.0706942,0.0269731,118,98.5237,0.0404028
-0.577602,0.732702,0.241572,2.90831,6.28995,13.322,13,0.0386936,0.0147634,134,135.462,0.0577942
0.0664232,0.80832,0.520596,3.00979,6.34416,13.3702,14,0.0913398,0.0348504,151,110.088,0.0423078
-0.629468,-0.0626769,0.730532,2.91069,6.19954,13.3743,15,0.0423456,0.0161568,169,142.582,0.02607
-0.190427,0.270243,0.927567,2.96291,6.26987,13.4352,16,0.0188469,0.00719096,188,153.808,0.0513342
0.339499,-0.171977,0.878253,3.00851,6.17918,13.401,17,0.0653469,0.0249329,18,70.8269,0.0171245
,,,,,,,,,25,38.9342,0.0261036
,,,,,,,,,33,70.6456,0.0160128
,,,,,,,,,42,76.4052,0.0221534
,,,,,,,,,52,40.5172,0.0203495
,,,,,,,,,63,115.446,0.0227772
,,,,,,,,,75,130.091,0.0146452
,,,,,,,,,88,80.587,0.0219836
,,,,,,,,,102,79.4877,0.0227457
,,,,,,,,,117,149.809,0.0242871
,,,,,,,,,133,96.9168,0.021266
,,,,,,,,,150,91.6961,0.0252682
,,,,,,,,,168,154.726,0.0217823
,,,,,,,,,187,134.983,0.0164932
,,,,,,,,,207,130.759,0.0239505
,,,,,,,,,32,55.4925,0.0350852
,,,,,,,,,41,25.663,0.0189958
,,,,,,,,,51,81.8743,0.0283022
,,,,,,,,,62,108.717,0.025423
,,,,,,,,,74,53.4672,0.0293283
,,,,,,,,,87,59.3927,0.0171013
,,,,,,,,,101,89.064,0.0280256
,,,,,,,,,116,132.156,0.0292761
,,,,,,,,,132,89.8477,0.0318805
,,,,,,,,,149,133.922,0.0268698
,,,,,,,,,167,162.282,0.0335925
,,,,,,,,,186,123.21,0.0276992
,,,,,,,,,206,154.156,0.0196757
,,,,,,,,,227,125.287,0.0313029
,,,,,,,,,50,40.09,0.0307161
,,,,,,,,,61,108.286,0.0655909
,,,,,,,,,73,74.6669,0.0519544
,,,,,,,,,86,108.743,0.0713781
,,,,,,,,,100,106.234,0.0260497
,,,,,,,,,115,50.0745,0.0641242
,,,,,,,,,131,77.7863,0.0710697
,,,,,,,,,148,141.918,0.08865
,,,,,,,,,166,134.622,0.0583783
,,,,,,,,,185,112.302,0.103288
,,,,,,,,,205,165.884,0.0624407
,,,,,,,,,226,140.54,0.0325339
,,,,,,,,,248,106.572,0.0843237
,,,,,,,,,72,106.467,0.025389
,,,,,,,,,85,110.982,0.0230475
,,,,,,,,,99,71.6266,0.0262116
,,,,,,,,,114,66.2548,0.0159925
,,,,,,,,,130,63.4935,0.0251662
,,,,,,,,,147,109.109,0.0261699
,,,,,,,,,165,101.828,0.0282315
,,,,,,,,,184,158.104,0.0242302
,,,,,,,,,204,150.428,0.0295659
,,,,,,,,,225,131.812,0.0249027
,,,,,,,,,247,144.979,0.0182222
,,,,,,,,,270,104.922,0.0277777
,,,,,,,,,98,68.314,0.0383458
,,,,,,,,,113,66.8163,0.0479829
,,,,,,,,,129,92.6046,0.0221146
,,,,,,,,,146,156.93,0.0445919
,,,,,,,,,164,126.697,0.0478434
,,,,,,,,,183,78.0935,0.0552146
,,,,,,,,,203,52.099,0.0417354
,,,,,,,,,224,91.4035,0.0605602
,,,,,,,,,246,84.6264,0.0437712
,,,,,,,,,269,103.5,0.0266184
,,,,,,,,,293,144.323,0.0535048
,,,,,,,,,128,133.524,0.0402538
,,,,,,,,,145,159.575,0.0203167
,,,,,,,,,163,95.0184,0.0378398
,,,,,,,,,182,62.5313,0.0401556
,,,,,,,,,202,138.111,0.0452228
,,,,,,,,,223,60.2069,0.0357627
,,,,,,,,,245,53.6379,0.0487469
,,,,,,,,,268,116.56,0.0372472
,,,,,,,,,292,96.6058,0.024056
,,,,,,,,,317,114.838,0.0440693
,,,,,,,,,162,26.2353,0.0227361
,,,,,,,,,181,123.381,0.0471933
,,,,,,,,,201,163.348,0.0508507
,,,,,,,,,222,37.757,0.0592592
,,,,,,,,,244,99.4484,0.0440056
,,,,,,,,,267,137.895,0.0654605
,,,,,,,,,291,70.4924,0.046275
,,,,,,,,,316,104.866,0.027524
,,,,,,,,,342,108.458,0.0572942
,,,,,,,,,200,100.984,0.0219453
,,,,,,,,,221,137.892,0.0227047
,,,,,,,,,243,35.8556,0.0242405
,,,,,,,,,266,114.276,0.0212302
,,,,,,,,,290,137.703,0.0252177
,,,,,,,,,315,66.5154,0.0217447
,,,,,,,,,341,94.8946,0.0164717
,,,,,,,,,368,84.8011,0.0239051
,,,,,,,,,242,48.8411,0.0470583
,,,,,,,,,265,123.28,0.0541715
,,,,,,,,,289,133.9,0.0411367
,,,,,,,,,314,90.9416,0.0593077
,,,,,,,,,340,117.841,0.0431132
,,,,,,,,,367,93.9015,0.0263736
,,,,,,,,,395,56.5162,0.0525248
,,,,,,,,,288,129.471,0.0590464
,,,,,,,,,313,85.2504,0.0438882
,,,,,,,,,339,42.6255,0.0652011
,,,,,,,,,366,99.3395,0.0461452
,,,,,,,,,394,64.5113,0.0274781
,,,,,,,,,423,54.9552,0.0570953
,,,,,,,,,338,79.6728,0.0500131
,,,,,,,,,365,104.859,0.0797017
,,,,,,,,,393,33.3619,0.0529652
,,,,,,,,,422,67.1358,0.0297599
,,,,,,,,,452,79.2845,0.0679155
,,,,,,,,,392,42.9679,0.0543593
,,,,,,,,,421,57.9562,0.0404373
,,,,,,,,,451,55.8995,0.0253475
,,,,,,,,,482,96.8448,0.0486062
,,,,,,,,,450,71.9972,0.0578647
,,,,,,,,,481,43.4751,0.0312464
,,,,,,,,,513,68.3218,0.0761874
,,,,,,,,,512,34.8892,0.0260843
,,,,,,,,,545,61.689,0.0513899
,,,,,,,,,578,41.7204,0.029256
