Q	U	V
{$V$}	{[mm$^3$]}	0.00667226
{$d_v$}	{[mm]}	0.233574
{$S_c$}	{[mm$^2$]}	0.417719
{$S_o$}	{[mm$^2$]}	0.224289
{$S_l/S_o$}	[]	0.862414
{$\Psi$}	[]	0.410313
{$\eta$}	[]	0.488335
{med($\theta_e$)}	{[$^\circ$]}	85.7074
{$\Upsilon$}	[]	15
{$\Xi$}	[]	11
