facetNormals:0,facetNormals:1,facetNormals:2,FacetCenters:0,FacetCenters:1,FacetCenters:2,FacetIds,relFacetSize,absFacetSize,cellPairingIds,interplanarAngles,angleWeights
0.360377,0.205488,-0.878271,4.73985,5.05063,10.8846,1,0.0274005,0.00534926,8,78.4978,0.0415147
-0.509886,-0.594279,-0.560646,4.72984,4.98446,11.0562,2,0.0856168,0.0167145,13,71.9156,0.0337147
0.117288,-0.831841,-0.478381,4.75523,4.96011,11.0341,3,0.0438104,0.00855289,19,78.1566,0.0236426
-0.68776,0.557206,-0.369556,4.75047,5.07698,10.9987,4,0.0207912,0.00405896,26,51.7483,0.0419541
0.932542,0.071742,-0.266455,4.78507,5.07555,10.9671,5,0.0894823,0.0174692,34,108.231,0.038091
0.0827234,-0.93628,0.143871,4.71653,4.98271,10.9834,6,0.0624604,0.0121938,43,84.6588,0.0424972
0.865618,-0.342272,0.177549,4.80091,5.00325,11.0642,7,0.094641,0.0184763,53,77.9663,0.0313747
0.935038,0.23527,0.211132,4.76949,5.09218,10.9842,8,0.0366974,0.00716425,64,78.5677,0.0399678
0.352361,0.884382,0.140554,4.74966,5.13169,11.0536,9,0.0738302,0.0144135,76,93.3854,0.0327511
0.612183,0.618679,0.460245,4.75631,5.10499,11.1048,10,0.0406986,0.00794539,89,138.737,0.0428037
0.0527927,0.335763,0.899932,4.71678,5.06175,11.1559,11,0.0977592,0.019085,103,165.361,0.0386473
-0.120972,-0.229317,0.936647,4.69879,5.01209,11.1366,12,0.0655554,0.012798,18,40.9906,0.0579616
,,,,,,,,,25,75.7918,0.0334576
,,,,,,,,,33,113.185,0.0875069
,,,,,,,,,42,61.7407,0.072228
,,,,,,,,,52,111.705,0.089903
,,,,,,,,,63,140.64,0.0513745
,,,,,,,,,75,147.779,0.0792878
,,,,,,,,,88,171.531,0.0551712
,,,,,,,,,102,142.096,0.091286
,,,,,,,,,117,110.46,0.0742549
,,,,,,,,,32,113.34,0.0281996
,,,,,,,,,41,79.1381,0.0588218
,,,,,,,,,51,38.4689,0.0514989
,,,,,,,,,62,70.7976,0.0598948
,,,,,,,,,74,101.304,0.0399397
,,,,,,,,,87,144.949,0.05499
,,,,,,,,,101,134.154,0.0421972
,,,,,,,,,116,139.166,0.0605055
,,,,,,,,,132,106.797,0.0525211
,,,,,,,,,50,122.625,0.0337424
,,,,,,,,,61,133.841,0.0311977
,,,,,,,,,73,159.551,0.0340928
,,,,,,,,,86,128.55,0.0265438
,,,,,,,,,100,77.5816,0.0324455
,,,,,,,,,115,105.123,0.0275224
,,,,,,,,,131,101.363,0.0342898
,,,,,,,,,148,114.78,0.0315699
,,,,,,,,,72,91.7576,0.0735685
,,,,,,,,,85,37.0653,0.0919894
,,,,,,,,,99,29.8458,0.0520491
,,,,,,,,,114,67.7351,0.0809062
,,,,,,,,,130,59.0356,0.0559499
,,,,,,,,,147,100.25,0.0934378
,,,,,,,,,165,113.63,0.0756725
,,,,,,,,,98,62.3888,0.0752548
,,,,,,,,,113,96.8877,0.0462321
,,,,,,,,,129,148.316,0.067671
,,,,,,,,,146,119.598,0.0492842
,,,,,,,,,164,101.382,0.0762214
,,,,,,,,,183,68.4493,0.0639705
,,,,,,,,,128,34.9811,0.0528875
,,,,,,,,,145,88.2866,0.0829502
,,,,,,,,,163,64.6212,0.0569199
,,,,,,,,,182,84.2987,0.0961748
,,,,,,,,,202,81.2515,0.0774578
,,,,,,,,,162,53.3322,0.0490262
,,,,,,,,,181,32.9856,0.0385946
,,,,,,,,,201,70.4095,0.0533631
,,,,,,,,,222,88.1665,0.0470542
,,,,,,,,,200,29.1387,0.0524722
,,,,,,,,,221,61.4777,0.0841262
,,,,,,,,,243,96.9878,0.0694471
,,,,,,,,,242,46.3095,0.0574712
,,,,,,,,,265,77.0055,0.0502195
,,,,,,,,,288,35.6678,0.0784822
