"cellPairingIds","interplanarAngles","angleWeights"
8,43.6475,0.0179975
26,44.1515,0.026146
43,106.734,0.0326001
64,132.621,0.0300806
33,54.8733,0.0263582
42,76.2648,0.0311063
52,109.758,0.0329306
63,98.0322,0.0238629
72,32.1317,0.0674256
114,121.434,0.0640227
113,46.6362,0.0531961
129,101.354,0.101746
164,95.4425,0.0750479
128,131.995,0.0587632
145,72.5261,0.124262
163,51.6009,0.104641
182,79.8156,0.0866259
201,60.5495,0.0433218
200,27.4076,0.0824691
221,28.7519,0.0708561
242,29.2049,0.0640117
