"cellPairingIds","interplanarAngles","angleWeights"
19,53.4822,0.0154632
26,59.2656,0.0407468
34,85.4823,0.0391501
53,72.9071,0.0593561
76,120.983,0.0424742
61,69.7981,0.0167819
86,71.549,0.0196491
115,114.437,0.0173644
99,85.2839,0.0928926
130,102.907,0.0572692
146,46.1087,0.0541644
181,166.028,0.102385
