facetNormals:0,facetNormals:1,facetNormals:2,FacetCenters:0,FacetCenters:1,FacetCenters:2,FacetIds,relFacetSize,absFacetSize,cellPairingIds,interplanarAngles,angleWeights
0.113226,-0.459131,-0.870448,5.12467,5.6555,10.6421,1,0.00875682,0.000635525,8,39.0051,0.0163057
0.654786,-0.146625,-0.686338,5.17789,5.66515,10.6821,2,0.118212,0.00857921,13,33.8932,0.0158021
-0.214991,-0.768489,-0.524927,5.08784,5.65018,10.6639,3,0.0808499,0.00586767,19,88.206,0.0133577
0.543486,0.735425,-0.352127,5.12018,5.61723,10.6764,4,0.0281456,0.00204267,26,93.5912,0.0128013
-0.0496912,0.873205,-0.398536,5.08971,5.65258,10.6713,5,0.0237886,0.00172646,34,92.7878,0.0149042
-0.689802,-0.604124,0.282028,5.06689,5.6535,10.7095,6,0.050017,0.00362998,43,71.9785,0.0165731
-0.204429,-0.947675,0.128935,5.12739,5.63415,10.7194,7,0.1543,0.0111983,53,132.393,0.0143513
0.204488,0.881076,0.29086,5.07553,5.62282,10.6999,8,0.0397406,0.00288417,64,103.955,0.0137889
0.858623,0.436232,0.149049,5.20274,5.67377,10.7436,9,0.0324175,0.00235269,76,86.4259,0.0139162
0.86835,-0.323645,0.216156,5.21996,5.68103,10.7453,10,0.0338752,0.00245849,89,114.577,0.0130595
-0.884894,0.127235,0.258228,5.0891,5.65078,10.7226,11,0.0256746,0.00186333,103,86.5845,0.0140257
0.171827,-0.879054,0.418979,5.16787,5.67687,10.7464,12,0.0352131,0.00255559,118,135.195,0.0167598
0.127743,-0.223133,0.855985,5.16212,5.6943,10.7837,13,0.1947,0.0141304,18,68.757,0.0960246
,,,,,,,,,25,58.6234,0.045466
,,,,,,,,,33,82.9668,0.0396069
,,,,,,,,,42,127.195,0.0702924
,,,,,,,,,52,95.0969,0.133866
,,,,,,,,,63,102.341,0.0594838
,,,,,,,,,75,64.9574,0.0508816
,,,,,,,,,88,59.2001,0.0526599
,,,,,,,,,102,150.231,0.0421867
,,,,,,,,,117,92.7876,0.0542625
,,,,,,,,,133,123.311,0.147108
,,,,,,,,,32,122.085,0.0417553
,,,,,,,,,41,119.435,0.036761
,,,,,,,,,51,59.5401,0.0618013
,,,,,,,,,62,41.0444,0.106104
,,,,,,,,,74,164.32,0.0532882
,,,,,,,,,87,129.978,0.046279
,,,,,,,,,101,93.2441,0.0477455
,,,,,,,,,116,92.7785,0.038973
,,,,,,,,,132,63.6875,0.0490592
,,,,,,,,,149,110.956,0.114255
,,,,,,,,,50,36.6622,0.0257844
,,,,,,,,,61,167.703,0.0360213
,,,,,,,,,73,152.94,0.0476073
,,,,,,,,,86,45.1434,0.0329529
,,,,,,,,,100,39.6786,0.0301309
,,,,,,,,,115,80.2566,0.0307457
,,,,,,,,,131,121.636,0.0268534
,,,,,,,,,148,136.308,0.0312852
,,,,,,,,,166,116.888,0.0491816
,,,,,,,,,72,131.059,0.0322424
,,,,,,,,,85,157.547,0.041222
,,,,,,,,,99,45.2162,0.0297619
,,,,,,,,,114,72.6803,0.0274407
,,,,,,,,,130,116.767,0.0279497
,,,,,,,,,147,86.6566,0.0246957
,,,,,,,,,165,172.894,0.0283948
,,,,,,,,,184,129.148,0.0423971
,,,,,,,,,98,36.9414,0.0755456
,,,,,,,,,113,130.446,0.0442905
,,,,,,,,,129,150.508,0.0393385
,,,,,,,,,146,112.036,0.0403931
,,,,,,,,,164,47.2155,0.0339316
,,,,,,,,,183,55.9836,0.0413294
,,,,,,,,,203,70.3667,0.0795884
,,,,,,,,,128,154.583,0.063203
,,,,,,,,,145,126.708,0.0535784
,,,,,,,,,163,80.2839,0.055554
,,,,,,,,,182,84.0958,0.0440239
,,,,,,,,,202,28.2441,0.0573405
,,,,,,,,,223,70.2268,0.172162
,,,,,,,,,162,49.3419,0.0357074
,,,,,,,,,181,92.835,0.0365742
,,,,,,,,,201,89.5942,0.0311953
,,,,,,,,,222,131.092,0.0373401
,,,,,,,,,244,84.6961,0.0660082
,,,,,,,,,200,46.6475,0.0331303
,,,,,,,,,221,137.238,0.0286547
,,,,,,,,,243,100.371,0.0337575
,,,,,,,,,266,80.7553,0.0555808
,,,,,,,,,242,148.347,0.0292103
,,,,,,,,,265,56.1398,0.0345312
,,,,,,,,,289,64.3489,0.0577096
,,,,,,,,,288,99.7421,0.0296967
,,,,,,,,,313,84.5072,0.0453669
,,,,,,,,,338,49.2644,0.0596399
