Q	U	V
{$V$}	{[mm$^3$]}	0.00541713
{$d_v$}	{[mm]}	0.217900
{$S_c$}	{[mm$^2$]}	0.355439
{$S_o$}	{[mm$^2$]}	0.197476
{$S_l/S_o$}	[]	0.799910
{$\Psi$}	[]	0.419661
{$\eta$}	[]	0.431140
{med($\theta_e$)}	{[$^\circ$]}	87.009
{$\Upsilon$}	[]	8
{$\Xi$}	[]	8
