facetNormals:0,facetNormals:1,facetNormals:2,FacetCenters:0,FacetCenters:1,FacetCenters:2,FacetIds,relFacetSize,absFacetSize,cellPairingIds,interplanarAngles,angleWeights
0.545109,0.122058,-0.799986,4.12015,5.12173,11.9583,1,0.0388677,0.00384394,8,79.0262,0.0392756
-0.624824,-0.248703,-0.686888,4.02634,5.06606,11.9878,2,0.0396921,0.00392548,13,85.1549,0.0130301
-0.455614,-0.716514,-0.522481,4.04404,5.02721,12.0224,3,0.00782701,0.000774076,19,34.1447,0.0450455
0.902212,0.110802,-0.35244,4.11648,5.12733,11.9576,4,0.0535583,0.00529681,26,41.7571,0.0298964
0.632074,0.661766,-0.364603,4.11411,5.1712,11.9763,5,0.0242899,0.00240222,34,107.503,0.0130578
-0.911778,-0.269651,-0.297018,4.02571,5.04158,11.9989,6,0.007847,0.000776053,43,72.3181,0.0410583
0.180235,0.942138,-0.0903596,4.04625,5.18443,11.9816,7,0.0435105,0.00430311,53,111.531,0.0485606
-0.617537,-0.710008,-0.10529,4.01548,5.05514,12.0112,8,0.0646942,0.00639814,64,62.3158,0.0480556
0.587267,-0.733217,-0.264767,4.09256,5.03655,11.9847,9,0.062932,0.00622386,76,56.1804,0.0325373
0.904683,-0.377772,-0.110968,4.11589,5.06873,12.0095,10,0.0279801,0.00276718,89,100.616,0.0294794
-0.545315,0.812096,-0.02778,4.02621,5.17079,11.9947,11,0.0237441,0.00234825,103,78.6399,0.0270967
-0.145892,0.955254,-0.190274,4.05244,5.19036,11.9899,12,0.0207981,0.00205689,118,89.7752,0.0479217
0.687818,-0.572165,0.376734,4.10277,5.07244,12.0133,13,0.062475,0.00617866,134,148.991,0.0393637
-0.746277,-0.430658,0.434559,3.99999,5.07611,12.0271,14,0.0398725,0.00394331,151,133.103,0.0655729
0.0862838,0.298057,0.889023,4.06126,5.12284,12.053,15,0.209551,0.0207242,18,30.9686,0.0130756
,,,,,,,,,25,111.876,0.0455943
,,,,,,,,,33,109.05,0.0301371
,,,,,,,,,42,28.593,0.0131035
,,,,,,,,,52,107.913,0.0415137
,,,,,,,,,63,45.7832,0.049199
,,,,,,,,,75,90.1661,0.0486807
,,,,,,,,,88,114.618,0.0328226
,,,,,,,,,102,80.3409,0.0297134
,,,,,,,,,117,90.9514,0.0272943
,,,,,,,,,133,125.828,0.0485433
,,,,,,,,,150,72.7618,0.0397821
,,,,,,,,,168,144.696,0.0667423
,,,,,,,,,32,108.369,0.013658
,,,,,,,,,41,125.596,0.0118391
,,,,,,,,,51,39.7262,0.00783699
,,,,,,,,,62,137.656,0.0132674
,,,,,,,,,74,26.4615,0.0139645
,,,,,,,,,87,65.9773,0.0139224
,,,,,,,,,101,94.8711,0.0122322
,,,,,,,,,116,109.079,0.0117731
,,,,,,,,,132,121.879,0.0113737
,,,,,,,,,149,95.9456,0.0139112
,,,,,,,,,167,64.0142,0.0130853
,,,,,,,,,186,139.832,0.0150904
,,,,,,,,,50,36.4918,0.0334221
,,,,,,,,,61,140.357,0.0136885
,,,,,,,,,73,71.4485,0.0480143
,,,,,,,,,86,130.434,0.0586019
,,,,,,,,,100,55.2837,0.057868
,,,,,,,,,115,32.255,0.0367573
,,,,,,,,,131,114.274,0.0329018
,,,,,,,,,148,87.5361,0.0299613
,,,,,,,,,166,63.3585,0.057674
,,,,,,,,,185,158.306,0.045713
,,,,,,,,,205,102.741,0.085312
,,,,,,,,,72,131.209,0.0118619
,,,,,,,,,85,35.7417,0.0311758
,,,,,,,,,99,151.771,0.035319
,,,,,,,,,114,91.0422,0.0350511
,,,,,,,,,130,68.1146,0.0260047
,,,,,,,,,147,77.8516,0.0240139
,,,,,,,,,165,51.0947,0.0224088
,,,,,,,,,184,94.8737,0.0349798
,,,,,,,,,204,164.299,0.030189
,,,,,,,,,225,94.4741,0.0435336
,,,,,,,,,98,114.077,0.0132961
,,,,,,,,,113,33.5807,0.0139963
,,,,,,,,,129,105.456,0.0139541
,,,,,,,,,146,134.596,0.0122566
,,,,,,,,,164,72.9096,0.0117957
,,,,,,,,,183,93.9774,0.0113948
,,,,,,,,,203,127.207,0.0139428
,,,,,,,,,224,46.0215,0.0131133
,,,,,,,,,246,116.813,0.0151275
,,,,,,,,,128,147.653,0.0520287
,,,,,,,,,145,126.627,0.0514494
,,,,,,,,,163,101.089,0.0340584
,,,,,,,,,182,44.7726,0.0307226
,,,,,,,,,202,20.141,0.0281435
,,,,,,,,,223,118.698,0.051296
,,,,,,,,,245,128.557,0.0416121
,,,,,,,,,268,76.2242,0.0720589
,,,,,,,,,162,78.401,0.063801
,,,,,,,,,181,107.361,0.0390648
,,,,,,,,,201,104.814,0.0347385
,,,,,,,,,222,127.532,0.0314769
,,,,,,,,,244,93.6288,0.0635652
,,,,,,,,,267,37.9142,0.0493373
,,,,,,,,,291,113.71,0.0988658
,,,,,,,,,200,29.5571,0.0387373
,,,,,,,,,221,161.994,0.0344792
,,,,,,,,,243,139.939,0.0312639
,,,,,,,,,266,40.1976,0.0627027
,,,,,,,,,290,104.609,0.0488161
,,,,,,,,,315,116.026,0.0967948
,,,,,,,,,242,145.639,0.0256887
,,,,,,,,,265,119.043,0.0238603
,,,,,,,,,289,33.7274,0.0386503
,,,,,,,,,314,126.077,0.0328841
,,,,,,,,,340,98.2425,0.0493684
,,,,,,,,,288,26.7569,0.0221736
,,,,,,,,,313,153.503,0.0344103
,,,,,,,,,339,87.2597,0.0297638
,,,,,,,,,366,79.3495,0.042655
,,,,,,,,,338,138.728,0.0312072
,,,,,,,,,365,113.909,0.0273368
,,,,,,,,,393,83.6249,0.0378404
,,,,,,,,,392,96.3236,0.0486779
,,,,,,,,,421,75.8322,0.0962532
,,,,,,,,,450,77.6996,0.066997
