facetNormals:0,facetNormals:1,facetNormals:2,FacetCenters:0,FacetCenters:1,FacetCenters:2,FacetIds,relFacetSize,absFacetSize,cellPairingIds,interplanarAngles,angleWeights
0.10713,0.255821,-0.918746,4.75372,6.46012,12.3998,1,0.0793739,0.0051146,8,28.1604,0.0595197
0.509881,0.0227997,-0.837082,4.77385,6.45176,12.3991,2,0.0476106,0.00306787,13,43.4343,0.0128763
0.409081,-0.397064,-0.821074,4.78297,6.43467,12.4374,3,0.00700646,0.000451474,19,65.431,0.0581776
0.0266591,-0.748283,-0.630344,4.71287,6.49172,12.5,4,0.0459161,0.00295868,26,40.3127,0.0291082
0.593266,0.557532,-0.564824,4.79187,6.47287,12.4208,5,0.017822,0.00114839,34,74.4308,0.0191363
-0.717273,-0.448709,-0.481508,4.73924,6.44372,12.4541,6,0.0108796,0.000701049,43,74.7437,0.0496319
0.643467,-0.637847,-0.371762,4.80068,6.40176,12.4303,7,0.0361036,0.0023264,53,70.6278,0.0543182
0.906462,0.328611,-0.140405,4.81321,6.45462,12.4409,8,0.0412856,0.00266031,64,100.788,0.017106
-0.0851568,-0.990963,-0.0905844,4.76806,6.50133,12.4902,9,0.00958594,0.000617687,76,65.9703,0.100649
0.204658,0.912145,-0.123229,4.74315,6.50135,12.4432,10,0.137506,0.00886045,89,120.789,0.106514
0.680737,-0.523245,0.452656,4.79285,6.40858,12.4932,11,0.161857,0.0104295,103,132.166,0.00529592
-0.804098,-0.170067,0.553812,4.72512,6.46337,12.5092,12,0.00273934,0.000176514,118,120.243,0.112184
-0.079806,0.683501,0.695923,4.71549,6.46835,12.4956,13,0.191232,0.0123224,134,164.315,0.0185717
0.108979,-0.109677,0.968409,4.7499,6.44472,12.5163,14,0.0105161,0.000677625,18,25.1859,0.0122153
,,,,,,,,,25,56.8893,0.046748
,,,,,,,,,33,35.7908,0.0259355
,,,,,,,,,42,88.3724,0.0177119
,,,,,,,,,52,49.4078,0.0410663
,,,,,,,,,63,52.0694,0.0442231
,,,,,,,,,75,89.4258,0.0159587
,,,,,,,,,88,75.7022,0.070731
,,,,,,,,,102,92.6348,0.073578
,,,,,,,,,117,154.563,0.00518061
,,,,,,,,,133,129.293,0.0762399
,,,,,,,,,150,141.993,0.0172272
,,,,,,,,,32,32.4514,0.0121577
,,,,,,,,,41,60.6758,0.0100585
,,,,,,,,,51,73.2709,0.00852369
,,,,,,,,,62,32.9206,0.0117355
,,,,,,,,,74,68.5844,0.0119799
,,,,,,,,,87,64.2945,0.0080957
,,,,,,,,,101,100.841,0.0133335
,,,,,,,,,116,83.218,0.0134315
,,,,,,,,,132,136.294,0.00393874
,,,,,,,,,149,153.492,0.0135177
,,,,,,,,,167,136.157,0.00840981
,,,,,,,,,50,92.6797,0.0256774
,,,,,,,,,61,49.3926,0.0175911
,,,,,,,,,73,40.5089,0.0404229
,,,,,,,,,86,98.0304,0.0434779
,,,,,,,,,100,35.4458,0.0158606
,,,,,,,,,115,130.504,0.0688438
,,,,,,,,,131,82.4784,0.071538
,,,,,,,,,148,104.524,0.00517023
,,,,,,,,,166,173.768,0.0740518
,,,,,,,,,185,123.192,0.0171129
,,,,,,,,,72,114.743,0.0135112
,,,,,,,,,85,75.9181,0.0238639
,,,,,,,,,99,34.0126,0.0248967
,,,,,,,,,114,123.893,0.0124665
,,,,,,,,,130,41.517,0.0315542
,,,,,,,,,147,98.5833,0.0321085
,,,,,,,,,165,154.272,0.00474877
,,,,,,,,,184,93.5085,0.0326052
,,,,,,,,,204,124.007,0.0132273
,,,,,,,,,98,89.7793,0.0167206
,,,,,,,,,113,140.322,0.0172212
,,,,,,,,,129,55.5955,0.0101919
,,,,,,,,,146,122.764,0.0201639
,,,,,,,,,164,119.931,0.0203888
,,,,,,,,,183,66.3901,0.0043767
,,,,,,,,,203,127.845,0.020588
,,,,,,,,,224,121.25,0.0106948
,,,,,,,,,128,63.4934,0.0385211
,,,,,,,,,145,51.3439,0.0151495
,,,,,,,,,163,115.966,0.0571911
,,,,,,,,,182,50.588,0.0590382
,,,,,,,,,202,129.305,0.00509231
,,,,,,,,,223,141.11,0.0607399
,,,,,,,,,245,103.238,0.016288
,,,,,,,,,162,113.634,0.0155592
,,,,,,,,,181,56.8376,0.0635044
,,,,,,,,,201,66.2052,0.0657899
,,,,,,,,,222,153.28,0.00513779
,,,,,,,,,244,86.7204,0.06791
,,,,,,,,,267,94.3951,0.0167626
,,,,,,,,,200,165.128,0.0179225
,,,,,,,,,221,64.3549,0.0180999
,,,,,,,,,243,79.1195,0.00426103
,,,,,,,,,266,138.632,0.0182567
,,,,,,,,,290,89.3166,0.0100295
,,,,,,,,,242,115.482,0.148691
,,,,,,,,,265,114.528,0.00537167
,,,,,,,,,289,55.6003,0.159979
,,,,,,,,,314,102.306,0.019538
,,,,,,,,,288,102.47,0.00538751
,,,,,,,,,313,95.8579,0.175322
,,,,,,,,,339,53.219,0.0197491
,,,,,,,,,338,69.8994,0.00540131
,,,,,,,,,365,61.2593,0.00434647
,,,,,,,,,392,52.0474,0.0199359
