facetNormals:0,facetNormals:1,facetNormals:2,FacetCenters:0,FacetCenters:1,FacetCenters:2,FacetIds,relFacetSize,absFacetSize,cellPairingIds,interplanarAngles,angleWeights
0.0306003,-0.397463,-0.864565,3.77439,6.73002,13.0362,1,0.0278646,0.00378115,8,61.376,0.0316109
-0.612086,0.287382,-0.647757,3.75034,6.77836,13.0406,2,0.036521,0.0049558,13,68.8688,0.0166607
0.517425,0.562776,-0.634913,3.77346,6.81591,13.1263,3,0.0118828,0.00161247,19,66.5212,0.0216824
0.759771,0.317986,-0.555027,3.80154,6.81615,13.1767,4,0.0177453,0.00240799,26,38.3655,0.0197982
-0.174467,-0.84923,-0.465292,3.7839,6.67549,13.0956,5,0.0153536,0.00208344,34,91.5377,0.035504
0.450854,0.792517,-0.31983,3.78659,6.80943,13.1628,6,0.0489144,0.00663754,43,58.7819,0.0273798
-0.754005,-0.534485,-0.343772,3.7477,6.69555,13.0772,7,0.0269116,0.00365183,53,89.9786,0.0262743
0.950948,0.201712,-0.059476,3.85184,6.76965,13.2222,8,0.0248557,0.00337284,64,105.949,0.0261498
0.0628984,0.959218,-0.144604,3.76749,6.82024,13.1318,9,0.0246338,0.00334274,76,95.1487,0.0434851
-0.907682,-0.234626,0.169893,3.72624,6.74998,13.164,10,0.0989616,0.0134288,89,114.935,0.0435506
-0.744359,0.583852,0.149916,3.73868,6.81263,13.1757,11,0.0996436,0.0135214,103,135.689,0.0323294
0.205315,0.865979,0.368018,3.79968,6.81793,13.2244,12,0.0384979,0.00522405,118,88.9048,0.0478801
-0.510182,-0.734899,0.299933,3.7785,6.69225,13.1845,13,0.169976,0.0230653,134,118.231,0.0430503
0.641036,-0.216993,0.590187,3.86287,6.71328,13.2366,14,0.0946122,0.0128386,151,147.454,0.0152068
-0.525758,0.183135,0.808145,3.7926,6.79328,13.2781,15,0.0104567,0.00141894,169,156.585,0.0246487
0.276922,0.161412,0.921408,3.82369,6.7895,13.2585,16,0.0220983,0.00299868,188,177.549,0.0103336
-0.0731437,0.404781,0.905729,3.83718,6.80073,13.247,17,0.00634292,0.000860717,18,74.0129,0.0179314
,,,,,,,,,25,90.8712,0.0238851
,,,,,,,,,33,79.7383,0.0216186
,,,,,,,,,42,79.881,0.0418188
,,,,,,,,,52,54.9262,0.0309885
,,,,,,,,,63,122.17,0.0295798
,,,,,,,,,75,68.688,0.0294221
,,,,,,,,,88,64.9254,0.0533526
,,,,,,,,,102,54.0704,0.0534512
,,,,,,,,,117,97.3385,0.0374834
,,,,,,,,,133,96.0554,0.0601238
,,,,,,,,,150,174.54,0.0526996
,,,,,,,,,168,99.3341,0.0162583
,,,,,,,,,187,142.011,0.0275354
,,,,,,,,,207,117.187,0.0108086
,,,,,,,,,32,20.5023,0.0142341
,,,,,,,,,41,106.199,0.0133971
,,,,,,,,,51,23.2331,0.0191207
,,,,,,,,,62,118.839,0.0164862
,,,,,,,,,74,48.3409,0.0160788
,,,,,,,,,87,46.5645,0.0160321
,,,,,,,,,101,138.539,0.0212179
,,,,,,,,,116,99.174,0.0212335
,,,,,,,,,132,67.9093,0.0181603
,,,,,,,,,149,157.772,0.0222128
,,,,,,,,,167,100.665,0.0211139
,,,,,,,,,186,134.379,0.0111242
,,,,,,,,,206,111.219,0.0154551
,,,,,,,,,227,112.927,0.00827092
,,,,,,,,,50,98.4943,0.016463
,,,,,,,,,61,36.4365,0.0260428
,,,,,,,,,73,124.309,0.0213878
,,,,,,,,,86,32.0728,0.0207071
,,,,,,,,,100,63.3491,0.0206297
,,,,,,,,,115,155.129,0.0300943
,,,,,,,,,131,119.131,0.0301257
,,,,,,,,,148,76.2653,0.024293
,,,,,,,,,166,147.206,0.0321357
,,,,,,,,,185,84.1777,0.0298854
,,,,,,,,,205,144.124,0.0131591
,,,,,,,,,226,104.933,0.0196841
,,,,,,,,,248,115.772,0.00934541
,,,,,,,,,72,129.355,0.0233712
,,,,,,,,,85,39.802,0.0195522
,,,,,,,,,99,108.845,0.0189819
,,,,,,,,,114,142.447,0.0189168
,,,,,,,,,130,72.7141,0.0265829
,,,,,,,,,147,117.537,0.0266074
,,,,,,,,,165,174.036,0.0219522
,,,,,,,,,184,51.8459,0.0281632
,,,,,,,,,204,103.228,0.0264198
,,,,,,,,,225,117.097,0.0124406
,,,,,,,,,247,129.775,0.0181186
,,,,,,,,,270,140.24,0.00897717
,,,,,,,,,98,133.311,0.0347207
,,,,,,,,,113,49.7833,0.0329619
,,,,,,,,,129,27.2819,0.0327662
,,,,,,,,,146,134.871,0.065469
,,,,,,,,,164,85.0929,0.0656175
,,,,,,,,,183,44.7248,0.0430855
,,,,,,,,,203,175.079,0.0759674
,,,,,,,,,224,94.7412,0.0644884
,,,,,,,,,246,111.685,0.01723
,,,,,,,,,269,92.5489,0.0304432
,,,,,,,,,293,90.1109,0.0112297
,,,,,,,,,128,146.885,0.0258428
,,,,,,,,,145,122.172,0.0257224
,,,,,,,,,163,36.8933,0.0423159
,,,,,,,,,182,77.9206,0.0423779
,,,,,,,,,202,141.592,0.0316786
,,,,,,,,,223,43.5499,0.0464664
,,,,,,,,,245,130.092,0.041904
,,,,,,,,,268,88.7729,0.0150612
,,,,,,,,,292,129.494,0.0242686
,,,,,,,,,317,118.8,0.0102662
,,,,,,,,,162,73.9407,0.0247442
,,,,,,,,,181,172.784,0.039732
,,,,,,,,,201,129.95,0.0397867
,,,,,,,,,222,68.2193,0.0302079
,,,,,,,,,244,135.126,0.0433694
,,,,,,,,,267,52.6377,0.0393687
,,,,,,,,,291,122.327,0.0147205
,,,,,,,,,316,75.3004,0.023396
,,,,,,,,,342,92.4714,0.0101067
,,,,,,,,,200,109.339,0.0394481
,,,,,,,,,221,58.135,0.039502
,,,,,,,,,243,32.4112,0.0300435
,,,,,,,,,266,148.299,0.0430313
,,,,,,,,,290,106.86,0.0390899
,,,,,,,,,315,88.4541,0.0146813
,,,,,,,,,341,87.6426,0.0232973
,,,,,,,,,368,74.8513,0.0100882
,,,,,,,,,242,51.8188,0.0993014
,,,,,,,,,265,110.878,0.0554317
,,,,,,,,,289,40.2198,0.125093
,,,,,,,,,314,120.224,0.096738
,,,,,,,,,340,52.3186,0.0189147
,,,,,,,,,367,98.2071,0.036129
,,,,,,,,,395,82.4034,0.0119217
,,,,,,,,,288,63.7531,0.0555382
,,,,,,,,,313,90.2757,0.125636
,,,,,,,,,339,126.813,0.0970627
,,,,,,,,,366,48.7769,0.0189271
,,,,,,,,,394,88.3905,0.0361742
,,,,,,,,,423,63.4044,0.0119266
,,,,,,,,,338,133.958,0.0627773
,,,,,,,,,365,79.2772,0.0547271
,,,,,,,,,393,68.3911,0.0164463
,,,,,,,,,422,55.2357,0.0280789
,,,,,,,,,452,45.7218,0.0108914
,,,,,,,,,392,89.3617,0.121561
,,,,,,,,,421,66.0401,0.0197014
,,,,,,,,,451,88.9755,0.0391118
,,,,,,,,,482,89.2979,0.0122295
,,,,,,,,,450,83.4718,0.018832
,,,,,,,,,481,38.425,0.0358283
,,,,,,,,,513,63.4097,0.0118888
,,,,,,,,,512,48.9603,0.014196
,,,,,,,,,545,30.1028,0.00789613
,,,,,,,,,578,24.9863,0.00985667
