facetNormals:0,facetNormals:1,facetNormals:2,FacetCenters:0,FacetCenters:1,FacetCenters:2,FacetIds,relFacetSize,absFacetSize,cellPairingIds,interplanarAngles,angleWeights
-0.149343,-0.0662273,-0.894607,6.4827,5.8158,12.8655,1,0.0735161,0.0233623,8,66.0979,0.0993972
-0.37038,-0.821561,-0.264144,6.55893,5.75113,12.8804,2,0.153402,0.0487487,13,76.7934,0.0623121
-0.944219,-0.0773417,-0.0570698,6.39547,5.82528,12.9137,3,0.0540715,0.0171831,19,106.839,0.034665
-0.149018,-0.904324,0.384509,6.51701,5.70552,12.9313,4,0.0226795,0.00720722,26,99.3676,0.0259575
-0.501842,-0.801806,0.307716,6.54778,5.70736,12.9456,5,0.0157613,0.0050087,34,122.929,0.089868
0.64121,0.607919,0.379295,6.56368,5.82206,12.9358,6,0.115575,0.036728,43,121.109,0.0727763
0.487238,-0.676807,0.472063,6.72867,5.6853,12.883,7,0.0720512,0.0228968,53,115.582,0.0351214
-0.769936,0.26391,0.537013,6.37947,5.88975,12.9425,8,0.0230718,0.00733188,64,120.925,0.0579669
-0.418657,-0.630432,0.63146,6.46775,5.74479,12.9626,9,0.0478469,0.015205,76,145.779,0.0923691
0.158024,0.596594,0.738286,6.59033,5.81533,12.9244,10,0.124227,0.0394773,89,135.944,0.0414504
0.0313108,-0.626066,0.761879,6.57544,5.73514,12.9603,11,0.0288617,0.00917182,103,141.174,0.035776
-0.466613,-0.0733123,0.861148,6.42856,5.81771,12.9657,12,0.0236401,0.00751248,118,162.262,0.0288083
-0.0137515,-0.176777,0.972288,6.47885,5.79651,12.9006,13,0.0179141,0.00569283,18,61.2772,0.0799589
,,,,,,,,,25,41.7291,0.0395168
,,,,,,,,,33,35.1993,0.0285856
,,,,,,,,,42,157.98,0.131828
,,,,,,,,,52,73.8126,0.0980495
,,,,,,,,,63,94.6037,0.0401109
,,,,,,,,,75,56.8461,0.0729425
,,,,,,,,,88,145.382,0.137281
,,,,,,,,,102,71.0091,0.0485828
,,,,,,,,,117,89.6529,0.040967
,,,,,,,,,133,96.5888,0.0320817
,,,,,,,,,32,78.4606,0.0319557
,,,,,,,,,41,56.701,0.0244079
,,,,,,,,,51,137.617,0.0736746
,,,,,,,,,62,118.548,0.0617798
,,,,,,,,,74,43.0833,0.0323431
,,,,,,,,,87,64.1398,0.0507691
,,,,,,,,,101,105.072,0.0753471
,,,,,,,,,116,91.5068,0.037635
,,,,,,,,,132,64.7861,0.0328975
,,,,,,,,,149,91.7614,0.0269121
,,,,,,,,,50,21.76,0.0185979
,,,,,,,,,61,121.508,0.0379183
,,,,,,,,,73,40.8038,0.0344996
,,,,,,,,,86,85.1132,0.022874
,,,,,,,,,100,26.6822,0.0307727
,,,,,,,,,115,106.972,0.0383565
,,,,,,,,,131,29.3836,0.0253999
,,,,,,,,,148,61.4232,0.0231499
,,,,,,,,,166,56.9468,0.0200171
,,,,,,,,,72,136.388,0.0277396
,,,,,,,,,85,62.2781,0.0258647
,,,,,,,,,99,69.478,0.0187284
,,,,,,,,,114,21.8622,0.0237117
,,,,,,,,,130,110.198,0.0279734
,,,,,,,,,147,42.7446,0.0203885
,,,,,,,,,165,55.174,0.018913
,,,,,,,,,184,62.9006,0.0167689
,,,,,,,,,98,85.0175,0.088765
,,,,,,,,,113,97.943,0.038465
,,,,,,,,,129,115.78,0.0676764
,,,,,,,,,146,36.4739,0.119745
,,,,,,,,,164,94.325,0.046189
,,,,,,,,,183,91.0396,0.0392516
,,,,,,,,,203,74.5915,0.0310201
,,,,,,,,,128,108.743,0.0349516
,,,,,,,,,145,56.5383,0.0575059
,,,,,,,,,163,88.6495,0.0912042
,,,,,,,,,182,32.3589,0.0412142
,,,,,,,,,202,75.932,0.0355999
,,,,,,,,,223,52.8523,0.028694
,,,,,,,,,162,58.9954,0.0311318
,,,,,,,,,181,62.57,0.038916
,,,,,,,,,201,76.7926,0.025644
,,,,,,,,,222,33.0942,0.0233525
,,,,,,,,,244,59.7108,0.0201684
,,,,,,,,,200,88.5543,0.0690851
,,,,,,,,,221,27.4841,0.0360049
,,,,,,,,,243,35.7809,0.0316451
,,,,,,,,,266,41.3584,0.0260681
,,,,,,,,,242,78.2136,0.0468408
,,,,,,,,,265,56.7431,0.0397214
,,,,,,,,,289,50.0883,0.0313127
,,,,,,,,,288,44.8181,0.0259913
,,,,,,,,,313,29.2202,0.0221068
,,,,,,,,,338,28.0537,0.0203826
