facetNormals:0,facetNormals:1,facetNormals:2,FacetCenters:0,FacetCenters:1,FacetCenters:2,FacetIds,relFacetSize,absFacetSize,cellPairingIds,interplanarAngles,angleWeights
0.142843,0.112935,-0.930602,6.17752,4.88574,14.4612,1,0.0486086,0.00517458,8,37.5115,0.023668
-0.261557,0.557312,-0.768252,6.15466,4.89827,14.4575,2,0.0156422,0.00166517,13,67.8976,0.0154446
-0.417767,-0.704037,-0.521765,6.17557,4.82838,14.4869,3,0.00918085,0.000977337,19,78.1444,0.0720893
0.819533,0.485056,-0.0147258,6.26523,4.84951,14.4659,4,0.139453,0.0148453,26,118.43,0.0265655
-0.409908,-0.827587,0.309091,6.16566,4.78754,14.5142,5,0.0182772,0.00194567,34,99.548,0.0617993
-0.777499,0.508933,0.100397,6.13609,4.88814,14.4701,6,0.0848151,0.00902889,43,117.873,0.0538449
-0.905618,-0.150779,0.303291,6.13072,4.8195,14.4955,7,0.0603454,0.006424,53,148.557,0.0101116
-0.24819,-0.603747,0.758775,6.18463,4.80723,14.5132,8,0.00564268,0.000600685,64,139.757,0.0792976
-0.0765798,0.507441,0.76873,6.20374,4.86081,14.5077,9,0.215101,0.0228984,76,129.067,0.0454222
0.566796,0.280947,0.752332,6.24375,4.84767,14.5015,10,0.0426279,0.0045379,18,82.923,0.0115706
,,,,,,,,,25,85.885,0.0281292
,,,,,,,,,33,128.09,0.0168573
,,,,,,,,,42,63.5495,0.0264131
,,,,,,,,,52,94.8309,0.0248444
,,,,,,,,,63,150.129,0.00829358
,,,,,,,,,75,108.435,0.0291636
,,,,,,,,,88,126.062,0.0228863
,,,,,,,,,32,136.997,0.0172275
,,,,,,,,,41,51.184,0.0122223
,,,,,,,,,51,95.4309,0.0165683
,,,,,,,,,62,69.6612,0.0159371
,,,,,,,,,74,82.1422,0.00698951
,,,,,,,,,87,144.048,0.0176101
,,,,,,,,,101,150.088,0.0151079
,,,,,,,,,50,143.115,0.0323186
,,,,,,,,,61,116.112,0.105478
,,,,,,,,,73,152.899,0.0842384
,,,,,,,,,86,122.159,0.0108465
,,,,,,,,,100,78.7291,0.169207
,,,,,,,,,115,50.9577,0.0652961
,,,,,,,,,72,94.5021,0.0300736
,,,,,,,,,85,51.2224,0.0280567
,,,,,,,,,99,30.9587,0.00862316
,,,,,,,,,114,99.654,0.0336916
,,,,,,,,,130,104.044,0.0255846
,,,,,,,,,98,43.2876,0.0705178
,,,,,,,,,113,92.3353,0.0105814
,,,,,,,,,129,62.7936,0.12166
,,,,,,,,,146,103.994,0.0567389
,,,,,,,,,128,55.6599,0.0103204
,,,,,,,,,145,75.3523,0.0942496
,,,,,,,,,163,110.156,0.0499624
,,,,,,,,,162,71.3444,0.0109969
,,,,,,,,,181,74.6431,0.00996614
,,,,,,,,,200,41.7799,0.0711546
