facetNormals:0,facetNormals:1,facetNormals:2,FacetCenters:0,FacetCenters:1,FacetCenters:2,FacetIds,relFacetSize,absFacetSize,cellPairingIds,interplanarAngles,angleWeights
-0.509308,0.0524574,-0.839415,5.43509,7.31251,14.0361,1,0.107069,0.00485142,8,28.9497,0.113632
-0.171003,0.402894,-0.861604,5.46002,7.30574,14.0225,2,0.121051,0.00548494,13,27.8031,0.103313
-0.703819,0.385665,-0.566989,5.40122,7.31684,14.0624,3,0.0998115,0.00452257,19,80.8572,0.0117112
0.709107,-0.277003,-0.631671,5.50432,7.28222,14.0136,4,0.00619436,0.000280673,26,91.8039,0.00995665
0.548314,-0.749539,-0.343021,5.49724,7.26999,14.0401,5,0.00522109,0.000236573,34,69.4494,0.0378482
-0.5222,-0.720328,-0.0961323,5.44063,7.28406,14.0677,6,0.022987,0.00104156,43,58.6745,0.0832078
-0.752622,0.619055,-0.101321,5.3796,7.32641,14.1043,7,0.0680436,0.00308313,53,107.308,0.0461654
0.87039,0.44033,-0.156328,5.50961,7.31052,14.0317,8,0.0294267,0.00133336,64,121.027,0.058625
0.972585,0.115448,0.00846593,5.51054,7.31064,14.0488,9,0.0403626,0.00182887,76,114.979,0.0179473
0.428691,-0.855772,0.167018,5.47227,7.30463,14.0827,10,0.00979454,0.000443801,89,103.382,0.0363284
0.201339,0.944483,0.204467,5.46703,7.37599,14.0724,11,0.0218753,0.000991194,103,90.54,0.0600657
-0.529563,0.741274,0.378524,5.388,7.33056,14.1201,12,0.0417413,0.00189134,118,107.001,0.00493862
-0.254411,-0.858589,0.442857,5.42664,7.27466,14.0822,13,0.0025276,0.000114528,134,145.574,0.102681
0.654049,0.449616,0.582438,5.48459,7.32893,14.0891,14,0.0986382,0.0044694,151,128.813,0.102931
0.0982772,0.663481,0.686425,5.4336,7.33725,14.1191,15,0.0991012,0.00449038,169,156.453,0.0102038
0.391831,-0.432919,0.790568,5.43218,7.29349,14.1065,16,0.00535716,0.000242738,18,36.4087,0.10941
,,,,,,,,,25,70.9906,0.0117856
,,,,,,,,,33,96.0116,0.0100104
,,,,,,,,,42,97.8483,0.038637
,,,,,,,,,52,60.558,0.0871177
,,,,,,,,,63,80.1535,0.0473444
,,,,,,,,,75,97.7167,0.0605393
,,,,,,,,,88,126.765,0.0181227
,,,,,,,,,102,79.7391,0.0370545
,,,,,,,,,117,86.2066,0.0620769
,,,,,,,,,133,135.11,0.00495181
,,,,,,,,,150,117.041,0.108701
,,,,,,,,,168,111.567,0.108982
,,,,,,,,,187,166.25,0.0102602
,,,,,,,,,32,104.767,0.0116648
,,,,,,,,,41,119.599,0.0099231
,,,,,,,,,51,80.5593,0.037368
,,,,,,,,,62,30.9229,0.0809214
,,,,,,,,,74,111.397,0.0454529
,,,,,,,,,87,132.064,0.0574807
,,,,,,,,,101,139.544,0.0178386
,,,,,,,,,116,83.6895,0.0358857
,,,,,,,,,132,62.7416,0.0588651
,,,,,,,,,149,114.248,0.00493035
,,,,,,,,,167,129.642,0.0992214
,,,,,,,,,186,102.399,0.0994551
,,,,,,,,,206,157.305,0.0101685
,,,,,,,,,50,33.8743,0.00566624
,,,,,,,,,61,97.1405,0.00975896
,,,,,,,,,73,131.417,0.011355
,,,,,,,,,86,52.5687,0.0102344
,,,,,,,,,100,47.6793,0.0107404
,,,,,,,,,115,63.0541,0.00758913
,,,,,,,,,131,104.713,0.00965481
,,,,,,,,,148,147.163,0.0107878
,,,,,,,,,166,103,0.00359022
,,,,,,,,,185,91.6866,0.0116567
,,,,,,,,,205,125.233,0.0116599
,,,,,,,,,226,95.999,0.00574542
,,,,,,,,,72,71.1281,0.00850941
,,,,,,,,,85,150.225,0.00969803
,,,,,,,,,99,78.1505,0.00886864
,,,,,,,,,114,62.7593,0.00924615
,,,,,,,,,130,31.6084,0.00681132
,,,,,,,,,147,133.095,0.00843012
,,,,,,,,,165,177.632,0.00928126
,,,,,,,,,184,69.1425,0.00340621
,,,,,,,,,204,100.533,0.00991724
,,,,,,,,,225,135.603,0.00991957
,,,,,,,,,247,74.0026,0.00528825
,,,,,,,,,98,92.8218,0.0343647
,,,,,,,,,113,148.863,0.0258113
,,,,,,,,,129,132.474,0.0292919
,,,,,,,,,146,64.3391,0.0137362
,,,,,,,,,164,155.708,0.0224174
,,,,,,,,,183,109.44,0.0296472
,,,,,,,,,203,37.5532,0.00455441
,,,,,,,,,224,144.972,0.037285
,,,,,,,,,246,133.874,0.0373179
,,,,,,,,,269,87.965,0.00868926
,,,,,,,,,128,112.26,0.0410854
,,,,,,,,,145,133.567,0.050669
,,,,,,,,,163,155.954,0.0171241
,,,,,,,,,182,64.7574,0.0331071
,,,,,,,,,202,32.0649,0.0517417
,,,,,,,,,223,113.157,0.00487414
,,,,,,,,,245,106.437,0.0805331
,,,,,,,,,268,73.4899,0.080687
,,,,,,,,,292,131.894,0.00993233
,,,,,,,,,162,22.1707,0.0340379
,,,,,,,,,181,91.7793,0.0146972
,,,,,,,,,201,55.0114,0.0250953
,,,,,,,,,222,101.464,0.0345186
,,,,,,,,,244,132.657,0.00465533
,,,,,,,,,267,45.9485,0.0453301
,,,,,,,,,291,73.4298,0.0453789
,,,,,,,,,316,88.4165,0.00906417
,,,,,,,,,200,70.3791,0.0157638
,,,,,,,,,221,71.5119,0.0283732
,,,,,,,,,243,116.178,0.0410404
,,,,,,,,,266,110.509,0.00475729
,,,,,,,,,290,44.056,0.0572845
,,,,,,,,,315,79.0849,0.0573623
,,,,,,,,,341,69.4567,0.00945888
,,,,,,,,,242,135.819,0.0135308
,,,,,,,,,265,146.379,0.0158661
,,,,,,,,,289,43.8779,0.00401825
,,,,,,,,,314,90.4257,0.0178196
,,,,,,,,,340,116.154,0.0178272
,,,,,,,,,367,45.4005,0.00692607
,,,,,,,,,288,46.4533,0.0287065
,,,,,,,,,313,141.485,0.0045316
,,,,,,,,,339,45.9691,0.0358091
,,,,,,,,,366,33.8481,0.0358395
,,,,,,,,,394,99.9929,0.0086066
,,,,,,,,,338,109.816,0.00476657
,,,,,,,,,365,77.6696,0.0586593
,,,,,,,,,393,42.3586,0.0587409
,,,,,,,,,422,103.671,0.00949562
,,,,,,,,,392,107.424,0.0049289
,,,,,,,,,421,107.648,0.00492947
,,,,,,,,,451,50.6823,0.00343467
,,,,,,,,,450,36.2027,0.0988692
,,,,,,,,,481,57.3441,0.0101624
,,,,,,,,,512,71.8424,0.0101648
