Q	U	V
{$V$}	{[mm$^3$]}	0.00465123
{$d_v$}	{[mm]}	0.207105
{$S_c$}	{[mm$^2$]}	0.24747
{$S_o$}	{[mm$^2$]}	0.134472
{$S_l/S_o$}	[]	0.840309
{$\Psi$}	[]	0.544511
{$\eta$}	[]	0.568255
{med($\theta_e$)}	{[$^\circ$]}	60.34895
{$\Upsilon$}	[]	13
{$\Xi$}	[]	5
