Q	U	V
{$V$}	{[mm$^3$]}	0.00346378
{$d_v$}	{[mm]}	0.187723
{$S_c$}	{[mm$^2$]}	0.256679
{$S_o$}	{[mm$^2$]}	0.143701
{$S_l/S_o$}	[]	0.786202
{$\Psi$}	[]	0.431314
{$\eta$}	[]	0.457575
{med($\theta_e$)}	{[$^\circ$]}	61.1174
{$\Upsilon$}	[]	15
{$\Xi$}	[]	5
