"cellPairingIds","interplanarAngles","angleWeights"
34,103.55,0.0107908
43,122.563,0.0112573
64,125.944,0.0108687
76,66.639,0.00881921
89,105.837,0.0102842
98,41.0186,0.125877
113,30.612,0.0155433
146,149.537,0.0307672
203,59.6433,0.0840444
145,42.3457,0.137363
202,54.9568,0.0894379
223,58.9797,0.124104
181,126.795,0.0117573
244,37.7901,0.015516
221,58.1159,0.0637543
243,26.5172,0.0696506
242,68.1888,0.0269784
265,112.693,0.0279807
289,117.014,0.0306601
314,53.2653,0.027136
340,67.0009,0.0211185
288,50.8363,0.0510564
338,56.9143,0.0660713
365,60.1964,0.051624
393,56.4743,0.0334768
421,57.3643,0.0373856
450,24.7934,0.0322748
