facetNormals:0,facetNormals:1,facetNormals:2,FacetCenters:0,FacetCenters:1,FacetCenters:2,FacetIds,relFacetSize,absFacetSize,cellPairingIds,interplanarAngles,angleWeights
-0.215947,0.019554,-0.93572,6.7573,6.40356,11.803,1,0.127575,0.0311627,8,48.2916,0.0924283
0.551637,-0.119091,-0.796471,6.88263,6.26346,11.8125,2,0.0724644,0.0177008,13,79.1262,0.0252331
0.854494,-0.309071,-0.395569,6.89423,6.21051,11.8517,3,0.0140012,0.00342006,19,69.5246,0.0342561
-0.40373,-0.834649,-0.271133,6.83515,6.43078,11.8777,4,0.0197842,0.00483268,26,77.1166,0.0430022
-0.838393,-0.460999,-0.0352797,6.77586,6.37301,11.8798,5,0.0258593,0.00631664,34,71.4992,0.0507627
-0.811195,0.515969,-0.117487,6.67588,6.47673,11.8721,6,0.0316852,0.00773972,43,101.518,0.059263
0.745688,0.649909,0.0444316,6.78531,6.40734,11.8783,7,0.0385961,0.00942783,53,120.854,0.0938114
0.909136,0.0843439,0.29749,6.8904,6.30904,11.8956,8,0.0741792,0.0181197,64,101.128,0.0997977
0.461094,0.848555,0.103756,6.80111,6.46524,11.887,9,0.0819536,0.0200187,76,100.763,0.0391804
-0.681986,0.595061,0.35629,6.69229,6.44733,11.8946,10,0.0231442,0.00565341,89,130.608,0.0568366
0.1993,0.723282,0.618928,6.76022,6.46687,11.937,11,0.036563,0.0089312,103,130.428,0.108806
-0.422618,-0.45259,0.720471,6.76585,6.33825,11.9391,12,0.0948514,0.0231693,118,153.553,0.0648973
0.466681,-0.352641,0.783737,6.8758,6.26989,11.9333,13,0.0435172,0.0106299,134,170.08,0.0863775
0.189236,0.143892,0.927208,6.81729,6.3789,11.9476,14,0.0652926,0.015949,18,31.6812,0.023468
,,,,,,,,,25,84.3621,0.0310824
,,,,,,,,,33,113.957,0.0381166
,,,,,,,,,42,116.061,0.0440914
,,,,,,,,,52,72.007,0.0503661
,,,,,,,,,63,74.2445,0.0733117
,,,,,,,,,75,85.7259,0.0769174
,,,,,,,,,88,140.329,0.0350832
,,,,,,,,,102,119.615,0.0486027
,,,,,,,,,117,144.298,0.0821602
,,,,,,,,,133,109.891,0.0543784
,,,,,,,,,150,134.186,0.0686918
,,,,,,,,,32,88.789,0.0163978
,,,,,,,,,41,126.168,0.0181664
,,,,,,,,,51,147.127,0.0194207
,,,,,,,,,62,64.7398,0.0205483
,,,,,,,,,74,48.2984,0.0235562
,,,,,,,,,87,84.5936,0.0239164
,,,,,,,,,101,160.308,0.0174475
,,,,,,,,,116,108.014,0.0202485
,,,,,,,,,132,122.527,0.0244006
,,,,,,,,,149,78.2272,0.021186
,,,,,,,,,167,105.252,0.0230579
,,,,,,,,,50,37.5943,0.0224175
,,,,,,,,,61,94.3703,0.0243588
,,,,,,,,,73,153.441,0.0261593
,,,,,,,,,86,123.954,0.0312372
,,,,,,,,,100,169.492,0.0318739
,,,,,,,,,115,109.777,0.0213327
,,,,,,,,,131,155.068,0.0256755
,,,,,,,,,148,67.3754,0.0327396
,,,,,,,,,166,96.4777,0.0272017
,,,,,,,,,185,118.973,0.030367
,,,,,,,,,72,61.2246,0.0284774
,,,,,,,,,85,167.732,0.0309693
,,,,,,,,,99,151.975,0.0383497
,,,,,,,,,114,147.17,0.0393137
,,,,,,,,,130,72.1878,0.0244265
,,,,,,,,,147,124.122,0.0302935
,,,,,,,,,165,53.7727,0.0406392
,,,,,,,,,184,105.889,0.0324411
,,,,,,,,,204,106.331,0.0370464
,,,,,,,,,98,106.651,0.0348009
,,,,,,,,,113,141.603,0.0444036
,,,,,,,,,129,86.8557,0.0457012
,,,,,,,,,146,29.6923,0.0267494
,,,,,,,,,164,81.5265,0.0339498
,,,,,,,,,183,88.4644,0.0475022
,,,,,,,,,203,133.55,0.0366704
,,,,,,,,,224,101.712,0.0426656
,,,,,,,,,128,38.3215,0.050774
,,,,,,,,,145,20.6533,0.0524777
,,,,,,,,,163,96.3177,0.0289365
,,,,,,,,,182,47.8556,0.037552
,,,,,,,,,202,127.857,0.0548664
,,,,,,,,,223,80.8707,0.0409092
,,,,,,,,,245,73.0807,0.0485142
,,,,,,,,,162,55.9953,0.0778728
,,,,,,,,,181,119.774,0.0352806
,,,,,,,,,201,62.8407,0.0489824
,,,,,,,,,222,103.183,0.0832512
,,,,,,,,,244,48.0575,0.0548542
,,,,,,,,,267,59.9696,0.0694528
,,,,,,,,,200,76.0696,0.0360949
,,,,,,,,,221,35.4179,0.0505662
,,,,,,,,,243,123.118,0.087932
,,,,,,,,,266,90.1649,0.0568481
,,,,,,,,,290,70.8128,0.0726805
,,,,,,,,,242,57.0184,0.0283457
,,,,,,,,,265,72.648,0.0372091
,,,,,,,,,289,105.167,0.0302175
,,,,,,,,,314,72.0513,0.0341745
,,,,,,,,,288,87.87,0.0527803
,,,,,,,,,313,70.1463,0.0397381
,,,,,,,,,339,39.7594,0.046876
,,,,,,,,,338,55.4397,0.0596619
,,,,,,,,,365,54.8964,0.0773441
,,,,,,,,,392,35.2708,0.052226
