"cellPairingIds","interplanarAngles","angleWeights"
8,51.4781,0.0945225
13,49.2718,0.127214
19,56.3767,0.126991
26,56.4023,0.129505
34,70.1285,0.135778
18,56.4533,0.0794173
42,44.5396,0.0826727
88,116.277,0.0135913
41,75.9082,0.102733
74,55.8472,0.0252426
101,108.842,0.0141127
50,27.1542,0.102588
61,89.8595,0.106485
73,47.2223,0.114427
100,38.7082,0.0393966
99,49.9752,0.0253316
114,48.8762,0.0396352
130,129.527,0.0141405
147,93.9132,0.0128886
98,61.4898,0.121512
146,116.009,0.0142122
145,44.3349,0.0412855
163,118.494,0.0143451
181,89.9453,0.00994032
200,103.123,0.0115802
221,72.4654,0.0107269
242,36.3769,0.00720917
