"cellPairingIds","interplanarAngles","angleWeights"
8,34.2223,0.0241768
26,83.1014,0.0345353
34,93.0386,0.030573
43,83.5864,0.027637
53,93.2214,0.0253559
18,51.5845,0.0324956
25,45.2171,0.0434148
33,90.9475,0.0413621
52,103.809,0.0318429
75,98.8448,0.0456595
41,45.6097,0.0544447
87,47.5033,0.0621436
73,87.3657,0.0560069
100,121.464,0.119732
131,96.0937,0.118859
72,35.4001,0.0644192
114,31.0645,0.105317
130,67.488,0.0580666
113,55.6876,0.0384527
146,44.5825,0.0476774
183,69.2403,0.0460524
128,42.9122,0.0339205
182,50.6284,0.0595809
202,64.3421,0.0396996
222,46.4916,0.0351564
200,62.7058,0.0669071
221,118.03,0.137345
243,93.0974,0.0637502
265,31.9384,0.0427119
288,32.3315,0.063502
