facetNormals:0,facetNormals:1,facetNormals:2,FacetCenters:0,FacetCenters:1,FacetCenters:2,FacetIds,relFacetSize,absFacetSize,cellPairingIds,interplanarAngles,angleWeights
0.521677,0.565034,-0.582197,4.51109,7.81531,12.6148,1,0.206044,0.0218905,8,60.5069,0.0390074
0.944937,-0.21343,-0.161482,4.55552,7.79334,12.6917,2,0.0215429,0.00228875,13,84.8271,0.0922199
-0.754783,0.516416,-0.319854,4.42344,7.8189,12.6171,3,0.0594037,0.00631113,19,42.0123,0.0743157
0.795099,0.565012,0.0579891,4.55395,7.81064,12.6866,4,0.0453332,0.00481626,26,110.848,0.0987747
-0.830958,0.451813,0.27464,4.42167,7.81979,12.6814,5,0.0649571,0.00690113,34,62.4562,0.0349103
0.900649,0.268373,0.309464,4.56261,7.7594,12.7265,6,0.0190708,0.00202611,43,156.53,0.0353672
-0.626878,-0.722225,0.233303,4.48051,7.81772,12.5674,7,0.0193438,0.00205511,53,99.8073,0.0691917
-0.621457,0.673345,0.376164,4.43882,7.82107,12.7256,8,0.0415768,0.00441718,64,72.6514,0.079769
0.246696,0.806658,0.515543,4.51567,7.83546,12.731,9,0.0494582,0.00525451,76,173.873,0.0891363
-0.457903,-0.53358,0.656714,4.51523,7.85008,12.6026,10,0.0568691,0.00604186,89,111.746,0.027339
0.555341,-0.40312,0.714439,4.52712,7.7585,12.7265,11,0.0146408,0.00155546,103,95.8812,0.0523232
0.650759,-0.0181145,0.731807,4.53685,7.76135,12.7687,12,0.0299665,0.00318368,118,129.038,0.0946398
-0.565378,0.251594,0.761324,4.45274,7.78678,12.7558,13,0.0614272,0.00652611,134,90.3957,0.0493759
0.316923,0.506113,0.78647,4.51639,7.80292,12.767,14,0.0280487,0.00297994,151,101.528,0.0676883
-0.13636,0.588437,0.773965,4.48494,7.84341,12.7263,15,0.0404959,0.00430234,18,144.204,0.031619
,,,,,,,,,25,49.6472,0.0292065
,,,,,,,,,33,163.195,0.0323552
,,,,,,,,,42,40.0529,0.0202316
,,,,,,,,,52,119.488,0.0203842
,,,,,,,,,63,144.473,0.0283805
,,,,,,,,,75,91.3163,0.0300128
,,,,,,,,,88,116.72,0.0312484
,,,,,,,,,102,59.3873,0.0174336
,,,,,,,,,117,58.6393,0.0250659
,,,,,,,,,133,137.542,0.0318987
,,,,,,,,,150,86.1895,0.0243691
,,,,,,,,,168,113.173,0.0281243
,,,,,,,,,32,110.2,0.0514233
,,,,,,,,,41,35.9312,0.0620564
,,,,,,,,,51,131.899,0.0288724
,,,,,,,,,62,88.4639,0.0291842
,,,,,,,,,74,43.4688,0.0489167
,,,,,,,,,87,86.0806,0.0539766
,,,,,,,,,101,98.637,0.0581088
,,,,,,,,,116,153.091,0.0234918
,,,,,,,,,132,140.725,0.039837
,,,,,,,,,149,70.7651,0.0603985
,,,,,,,,,167,103.873,0.0381053
,,,,,,,,,186,80.3625,0.0481605
,,,,,,,,,50,113.873,0.0533993
,,,,,,,,,61,23.6372,0.0268474
,,,,,,,,,73,158.181,0.0271168
,,,,,,,,,86,95.4461,0.0433738
,,,,,,,,,100,45.1046,0.0473059
,,,,,,,,,115,131.871,0.0504501
,,,,,,,,,131,74.7127,0.0221334
,,,,,,,,,148,54.9511,0.0360819
,,,,,,,,,166,105.937,0.0521671
,,,,,,,,,185,52.7871,0.0346554
,,,,,,,,,205,73.7195,0.0427782
,,,,,,,,,72,123.803,0.029485
,,,,,,,,,85,74.526,0.0298103
,,,,,,,,,99,18.7223,0.0507014
,,,,,,,,,114,71.9897,0.0561579
,,,,,,,,,130,70.2775,0.0606446
,,,,,,,,,147,117.293,0.0238957
,,,,,,,,,165,111.143,0.0410127
,,,,,,,,,184,34.8944,0.0631428
,,,,,,,,,204,79.2557,0.0391796
,,,,,,,,,225,52.269,0.0498894
,,,,,,,,,98,134.794,0.0192063
,,,,,,,,,113,105.542,0.0261478
,,,,,,,,,129,52.2964,0.0275272
,,,,,,,,,146,111.726,0.0285631
,,,,,,,,,164,51.2817,0.0165647
,,,,,,,,,183,33.5444,0.0233082
,,,,,,,,,203,102.257,0.0291054
,,,,,,,,,224,47.1356,0.0227044
,,,,,,,,,246,73.5779,0.0259302
,,,,,,,,,128,90.527,0.0264033
,,,,,,,,,145,129.344,0.0278105
,,,,,,,,,163,29.3369,0.0288682
,,,,,,,,,182,83.5413,0.0166669
,,,,,,,,,202,103.442,0.0235109
,,,,,,,,,223,68.731,0.0294223
,,,,,,,,,245,113.057,0.0228968
,,,,,,,,,268,99.4655,0.0261814
,,,,,,,,,162,53.4042,0.0451763
,,,,,,,,,181,79.5825,0.0480352
,,,,,,,,,201,110.761,0.0216558
,,,,,,,,,222,98.3768,0.0348296
,,,,,,,,,244,33.8415,0.0495893
,,,,,,,,,267,63.2873,0.0334985
,,,,,,,,,291,37.4415,0.0410292
,,,,,,,,,200,102.435,0.0529054
,,,,,,,,,221,79.4003,0.0225934
,,,,,,,,,243,57.2939,0.0373206
,,,,,,,,,266,61.9587,0.0547967
,,,,,,,,,290,23.9899,0.0357965
,,,,,,,,,315,30.0602,0.0445306
,,,,,,,,,242,63.1825,0.0232866
,,,,,,,,,265,78.2273,0.0392504
,,,,,,,,,289,48.569,0.0590604
,,,,,,,,,314,83.8784,0.0375682
,,,,,,,,,340,74.2285,0.0473058
,,,,,,,,,288,23.244,0.0196709
,,,,,,,,,313,82.4012,0.0236458
,,,,,,,,,339,56.9244,0.0192392
,,,,,,,,,366,75.7127,0.0215063
,,,,,,,,,338,78.921,0.0402819
,,,,,,,,,365,36.9834,0.0289759
,,,,,,,,,393,60.9457,0.0344445
,,,,,,,,,392,55.6317,0.0385122
,,,,,,,,,421,32.2769,0.0488123
,,,,,,,,,450,27.067,0.0331422
