facetNormals:0,facetNormals:1,facetNormals:2,FacetCenters:0,FacetCenters:1,FacetCenters:2,FacetIds,relFacetSize,absFacetSize,cellPairingIds,interplanarAngles,angleWeights
0.0276154,-0.161925,-0.930822,6.29852,7.57211,11.0833,1,0.110364,0.0154822,8,33.6598,0.0545084
-0.517483,-0.0673777,-0.838076,6.25639,7.60892,11.0788,2,0.0361917,0.00507709,13,59.011,0.0563601
-0.811519,-0.183578,-0.499525,6.23571,7.52391,11.1171,3,0.0378427,0.00530869,19,58.7712,0.0929422
0.653183,0.429887,-0.562537,6.33336,7.6025,11.1012,4,0.0802709,0.0112606,26,56.8482,0.0682418
0.534402,-0.722023,-0.405933,6.32659,7.49351,11.1422,5,0.049391,0.00692872,34,64.6774,0.0964117
-0.155503,-0.913797,-0.264283,6.29773,7.49085,11.1384,6,0.0855913,0.012007,43,69.4194,0.100739
0.795804,-0.451628,-0.235053,6.3535,7.52727,11.1512,7,0.0926582,0.0129984,53,96.0006,0.0414017
0.919172,-0.303474,0.184669,6.32426,7.51433,11.165,8,0.0254801,0.00357443,64,106.235,0.0613387
0.435277,0.866385,0.140325,6.30678,7.48838,11.1548,9,0.042472,0.00595811,76,103.118,0.0530262
-0.903182,-0.245068,0.2384,6.23648,7.49838,11.1884,10,0.0348964,0.00489537,89,134.14,0.091409
-0.135282,0.78079,0.537164,6.26996,7.47503,11.1173,11,0.0780107,0.0109436,103,129.83,0.0437426
0.648481,0.454093,0.577638,6.33912,7.54017,11.1399,12,0.0272769,0.00382649,118,125.017,0.0817512
0.441707,-0.538198,0.669589,6.31365,7.49565,11.2297,13,0.0649201,0.00910719,18,27.3561,0.0369988
,,,,,,,,,25,83.6931,0.0498897
,,,,,,,,,33,83.3733,0.0417735
,,,,,,,,,42,67.5413,0.0508724
,,,,,,,,,52,101.402,0.0520522
,,,,,,,,,63,128.827,0.0299057
,,,,,,,,,75,114.508,0.0390812
,,,,,,,,,88,72.6642,0.0355322
,,,,,,,,,102,117.252,0.0494445
,,,,,,,,,117,151.501,0.0311082
,,,,,,,,,133,142.193,0.0464747
,,,,,,,,,32,110.54,0.0514364
,,,,,,,,,41,95.9014,0.0428524
,,,,,,,,,51,62.9105,0.0524816
,,,,,,,,,62,119.072,0.0537381
,,,,,,,,,74,144.905,0.0304546
,,,,,,,,,87,127.774,0.0400239
,,,,,,,,,101,45.3317,0.0363099
,,,,,,,,,116,108.962,0.0509633
,,,,,,,,,132,160.803,0.0317026
,,,,,,,,,149,129.329,0.047814
,,,,,,,,,50,73.6671,0.0611538
,,,,,,,,,61,111.862,0.0828457
,,,,,,,,,73,59.7916,0.0860208
,,,,,,,,,86,67.3178,0.0386816
,,,,,,,,,100,52.2444,0.0555513
,,,,,,,,,115,153.073,0.0486451
,,,,,,,,,131,93.4122,0.0791246
,,,,,,,,,148,71.8641,0.0407176
,,,,,,,,,166,110.083,0.071784
,,,,,,,,,72,43.9568,0.0626369
,,,,,,,,,85,24.5935,0.0644351
,,,,,,,,,99,49.1502,0.0336174
,,,,,,,,,114,117.767,0.0456709
,,,,,,,,,130,115.012,0.0408974
,,,,,,,,,147,154.833,0.0604863
,,,,,,,,,165,102.908,0.0351447
,,,,,,,,,184,68.2509,0.0561007
,,,,,,,,,98,67.3232,0.0889846
,,,,,,,,,113,84.831,0.0392698
,,,,,,,,,129,161.688,0.0567725
,,,,,,,,,146,71.1085,0.0495789
,,,,,,,,,164,154.725,0.0816254
,,,,,,,,,183,135.045,0.0413698
,,,,,,,,,203,74.6701,0.0738362
,,,,,,,,,128,27.5866,0.0399691
,,,,,,,,,145,94.8264,0.0582458
,,,,,,,,,163,136.711,0.0506988
,,,,,,,,,182,130.431,0.0847059
,,,,,,,,,202,79.0915,0.0421466
,,,,,,,,,223,61.3758,0.0763478
,,,,,,,,,162,80.2746,0.0318516
,,,,,,,,,181,138.412,0.029454
,,,,,,,,,201,106.131,0.0384135
,,,,,,,,,222,54.1981,0.0263479
,,,,,,,,,244,43.281,0.0365966
,,,,,,,,,200,127.199,0.0383133
,,,,,,,,,221,42.366,0.055
,,,,,,,,,243,37.9819,0.0332193
,,,,,,,,,266,100.969,0.0513499
,,,,,,,,,242,86.3475,0.0482218
,,,,,,,,,265,126.224,0.0306198
,,,,,,,,,289,96.6121,0.0453928
,,,,,,,,,288,52.038,0.0404205
,,,,,,,,,313,97.4744,0.0708659
,,,,,,,,,338,63.0642,0.0384138
