"cellPairingIds","interplanarAngles","angleWeights"
25,119.302,0.0710456
42,116.242,0.0647157
52,59.7246,0.0849273
63,90.5901,0.048836
61,98.357,0.0905877
73,164.259,0.13584
86,148.68,0.0622527
113,56.738,0.0573385
128,40.7166,0.0726593
