Q	U	V
{$V$}	{[mm$^3$]}	0.00136556
{$d_v$}	{[mm]}	0.137648
{$S_c$}	{[mm$^2$]}	0.105515
{$S_o$}	{[mm$^2$]}	0.0601765
{$S_l/S_o$}	[]	0.753425
{$\Psi$}	[]	0.564127
{$\eta$}	[]	0.613737
{med($\theta_e$)}	{[$^\circ$]}	79.6428
{$\Upsilon$}	[]	9
{$\Xi$}	[]	3
