facetNormals:0,facetNormals:1,facetNormals:2,FacetCenters:0,FacetCenters:1,FacetCenters:2,FacetIds,relFacetSize,absFacetSize,cellPairingIds,interplanarAngles,angleWeights
0.249311,-0.194017,-0.964284,6.28323,4.66449,11.66,1,0.0271715,0.00109054,8,38.5102,0.00538962
-0.405999,-0.119982,-0.899223,6.20097,4.63942,11.5855,2,0.0029915,0.000120064,13,31.4075,0.00775098
-0.119391,-0.560511,-0.807131,6.21956,4.6375,11.5921,3,0.00452021,0.00018142,19,54.945,0.0324346
-0.201057,0.585465,-0.764168,6.18669,4.67236,11.5687,4,0.0402263,0.00161449,26,42.0265,0.0244191
0.121072,0.506738,-0.849897,6.19775,4.67526,11.5563,5,0.0221731,0.000889921,34,49.8775,0.0315047
0.619253,0.475282,-0.605434,6.24243,4.65329,11.5586,6,0.0374821,0.00150435,43,52.6262,0.0390887
0.316998,0.640972,-0.675219,6.22083,4.65697,11.5696,7,0.0696261,0.00279446,53,64.3309,0.0209705
-0.500635,-0.686541,-0.424198,6.20546,4.64142,11.5644,8,0.017074,0.000685268,64,70.4312,0.0138607
-0.510183,0.601405,-0.602764,6.1866,4.67207,11.5706,9,0.00930326,0.000373389,76,53.4153,0.0128193
0.270065,-0.862867,-0.369042,6.21966,4.63929,11.5624,10,0.00838843,0.000336672,89,77.9337,0.0388944
0.793906,0.563432,-0.123984,6.2563,4.66507,11.5709,11,0.0684087,0.0027456,103,110.398,0.0433811
-0.696404,0.659055,0.0393104,6.15543,4.68186,11.5919,12,0.107529,0.00431571,118,105.546,0.0399229
0.369155,0.875491,0.192716,6.23121,4.67384,11.5847,13,0.075226,0.00301921,134,102.468,0.0232254
0.777383,0.518087,0.321182,6.25058,4.66329,11.6071,14,0.0202801,0.000813945,151,105.648,0.0127209
0.451911,-0.686897,0.53319,6.22766,4.61101,11.641,15,0.00830437,0.000333298,169,112.207,0.0282102
0.783768,0.0291132,0.586212,6.28072,4.59424,11.6393,16,0.0293314,0.00117722,188,137.523,0.0264613
-0.235231,0.788629,0.547775,6.18553,4.68371,11.6113,17,0.0257873,0.00103498,208,158.87,0.00899701
-0.267821,-0.175042,0.948712,6.23337,4.61017,11.6507,18,0.00539104,0.000216371,229,152.552,0.0496692
0.173092,0.379495,0.866078,6.22856,4.6375,11.6407,19,0.288755,0.0115893,18,31.2042,0.0036003
,,,,,,,,,25,44.384,0.00556886
,,,,,,,,,33,48.6718,0.00527175
,,,,,,,,,42,76.0935,0.00554078
,,,,,,,,,52,65.744,0.00573653
,,,,,,,,,63,45.0308,0.00509101
,,,,,,,,,75,46.6688,0.00452724
,,,,,,,,,88,70.3909,0.00441022
,,,,,,,,,102,106.586,0.00573232
,,,,,,,,,117,79.8355,0.00582105
,,,,,,,,,133,116.385,0.00575417
,,,,,,,,,150,132.759,0.0052139
,,,,,,,,,168,126.585,0.00439851
,,,,,,,,,187,150.717,0.00542927
,,,,,,,,,207,120.027,0.00536108
,,,,,,,,,228,136.629,0.00384783
,,,,,,,,,250,159.447,0.00592165
,,,,,,,,,32,71.2681,0.00812718
,,,,,,,,,41,66.879,0.00750953
,,,,,,,,,51,81.2756,0.00806751
,,,,,,,,,62,81.2636,0.00848929
,,,,,,,,,74,33.1632,0.00714804
,,,,,,,,,87,77.64,0.00608425
,,,,,,,,,101,39.187,0.00587475
,,,,,,,,,116,108.641,0.00848009
,,,,,,,,,132,109.558,0.00867572
,,,,,,,,,149,136,0.00852799
,,,,,,,,,167,131.069,0.00739268
,,,,,,,,,186,95.875,0.00585399
,,,,,,,,,206,126.979,0.00783326
,,,,,,,,,227,151.02,0.00769209
,,,,,,,,,249,129.893,0.00491737
,,,,,,,,,272,168.485,0.00890109
,,,,,,,,,50,19.9047,0.0285881
,,,,,,,,,61,50.6188,0.0388058
,,,,,,,,,73,31.1766,0.0509921
,,,,,,,,,86,88.597,0.0239728
,,,,,,,,,100,20.3436,0.0151116
,,,,,,,,,115,106.793,0.013882
,,,,,,,,,131,74.0637,0.0506619
,,,,,,,,,148,58.3051,0.0585495
,,,,,,,,,166,72.2238,0.052421
,,,,,,,,,185,95.814,0.0269655
,,,,,,,,,205,159.122,0.0137667
,,,,,,,,,226,127.672,0.0339256
,,,,,,,,,248,84.6637,0.0314277
,,,,,,,,,271,141.784,0.00950786
,,,,,,,,,295,120.124,0.0706153
,,,,,,,,,72,32.5216,0.0278632
,,,,,,,,,85,17.1056,0.0336348
,,,,,,,,,99,92.9053,0.0192923
,,,,,,,,,114,40.2467,0.0131071
,,,,,,,,,130,95.3578,0.012172
,,,,,,,,,147,60.1456,0.0334909
,,,,,,,,,165,76.9355,0.036765
,,,,,,,,,184,70.378,0.0342507
,,,,,,,,,204,85.1255,0.0211844
,,,,,,,,,225,139.833,0.0120833
,,,,,,,,,247,113.458,0.0252548
,,,,,,,,,270,95.4969,0.023844
,,,,,,,,,294,158.312,0.0086733
,,,,,,,,,319,123.064,0.0411837
,,,,,,,,,98,20.551,0.0487308
,,,,,,,,,113,113.86,0.023461
,,,,,,,,,129,70.034,0.0149066
,,,,,,,,,146,91.1544,0.0137088
,,,,,,,,,164,30.6003,0.0484292
,,,,,,,,,183,98.6033,0.0555877
,,,,,,,,,203,56.5418,0.0500342
,,,,,,,,,224,56.8835,0.0263196
,,,,,,,,,246,112.433,0.0135964
,,,,,,,,,269,81.4223,0.0329096
,,,,,,,,,293,96.0238,0.0305538
,,,,,,,,,318,146.358,0.0094263
,,,,,,,,,344,104.439,0.0663515
,,,,,,,,,128,109.536,0.0274231
,,,,,,,,,145,49.7511,0.0164134
,,,,,,,,,163,103.136,0.0149729
,,,,,,,,,182,43.8088,0.069012
,,,,,,,,,202,79.3058,0.0845229
,,,,,,,,,223,54.9143,0.0723178
,,,,,,,,,245,68.1472,0.031411
,,,,,,,,,268,132.979,0.0148389
,,,,,,,,,292,97.6807,0.0412749
,,,,,,,,,317,86.3998,0.0376355
,,,,,,,,,343,148.29,0.0100072
,,,,,,,,,370,107.652,0.112198
,,,,,,,,,162,84.0196,0.012044
,,,,,,,,,181,48.5658,0.0112498
,,,,,,,,,201,141.726,0.0273274
,,,,,,,,,222,97.598,0.0294688
,,,,,,,,,244,160.448,0.0278311
,,,,,,,,,267,159.914,0.0185394
,,,,,,,,,291,88.8202,0.011174
,,,,,,,,,316,135.305,0.0215839
,,,,,,,,,342,134.326,0.020545
,,,,,,,,,369,98.966,0.00819465
,,,,,,,,,397,141.512,0.0322415
,,,,,,,,,200,116.615,0.0088222
,,,,,,,,,221,89.4973,0.0163791
,,,,,,,,,243,40.1619,0.0171249
,,,,,,,,,266,76.6607,0.0165587
,,,,,,,,,290,106.507,0.0127552
,,,,,,,,,315,172.79,0.00877548
,,,,,,,,,341,139.195,0.0141261
,,,,,,,,,368,74.3864,0.0136735
,,,,,,,,,396,122.946,0.00682636
,,,,,,,,,425,113.607,0.0180258
,,,,,,,,,242,103.64,0.0149444
,,,,,,,,,265,145.386,0.0155628
,,,,,,,,,289,140.151,0.0150938
,,,,,,,,,314,111.631,0.0118679
,,,,,,,,,340,57.2311,0.00834619
,,,,,,,,,367,91.7852,0.0130459
,,,,,,,,,395,168.535,0.012659
,,,,,,,,,424,106.116,0.00656373
,,,,,,,,,454,129.754,0.0163032
,,,,,,,,,288,101.417,0.0836197
,,,,,,,,,313,36.7381,0.0716555
,,,,,,,,,339,26.2834,0.0312854
,,,,,,,,,366,95.6301,0.0148108
,,,,,,,,,394,53.9167,0.0410583
,,,,,,,,,423,78.7261,0.0374554
,,,,,,,,,453,115.88,0.00999445
,,,,,,,,,484,75.0194,0.110612
,,,,,,,,,338,69.3895,0.0885227
,,,,,,,,,365,101.395,0.0341243
,,,,,,,,,393,142.538,0.015418
,,,,,,,,,422,122.407,0.0460904
,,,,,,,,,452,41.9918,0.0415985
,,,,,,,,,483,83.5193,0.0102673
,,,,,,,,,515,79.7838,0.156704
,,,,,,,,,392,33.0842,0.0319474
,,,,,,,,,421,110.44,0.0149575
,,,,,,,,,451,63.2151,0.0422062
,,,,,,,,,482,42.275,0.0384083
,,,,,,,,,514,94.0931,0.0100611
,,,,,,,,,547,52.8314,0.119357
,,,,,,,,,450,80.0853,0.0117836
,,,,,,,,,481,32.847,0.02398
,,,,,,,,,513,65.7155,0.0227045
,,,,,,,,,546,89.6627,0.0085178
,,,,,,,,,580,50.0843,0.0378984
,,,,,,,,,512,47.6224,0.012944
,,,,,,,,,545,111.556,0.012563
,,,,,,,,,579,59.0194,0.00653784
,,,,,,,,,614,72.7512,0.0161444
,,,,,,,,,578,80.5038,0.0274454
,,,,,,,,,613,69.6365,0.00910804
,,,,,,,,,649,45.9527,0.0532534
,,,,,,,,,648,63.3063,0.00891775
,,,,,,,,,685,39.5297,0.0473463
,,,,,,,,,722,42.5632,0.0105845
