facetNormals:0,facetNormals:1,facetNormals:2,FacetCenters:0,FacetCenters:1,FacetCenters:2,FacetIds,relFacetSize,absFacetSize,cellPairingIds,interplanarAngles,angleWeights
0.579797,-0.15059,-0.77952,5.97262,4.97046,11.7615,1,0.020029,0.00274516,8,31.0337,0.022572
0.25572,-0.558789,-0.747895,5.94423,4.92604,11.7862,2,0.0258546,0.00354361,13,87.2146,0.00611938
-0.724687,0.220661,-0.642516,5.841,4.95783,11.8525,3,0.00361138,0.000494972,19,31.1521,0.0297752
0.798843,0.230295,-0.494177,5.99827,5.01413,11.7718,4,0.0579965,0.00794894,26,92.4794,0.0175302
0.152448,0.963628,-0.0195289,5.91604,4.99457,11.8674,5,0.0155857,0.00213616,34,47.7263,0.0320433
0.948905,-0.247392,-0.0811865,6.02783,4.96993,11.797,6,0.0800768,0.0109753,43,69.829,0.0353836
0.535603,-0.781498,0.133276,5.96056,4.87677,11.8594,7,0.151614,0.02078,53,111.786,0.0324372
-0.476219,-0.811064,0.259117,5.82599,4.90756,11.9476,8,0.0852515,0.0116845,64,142.986,0.0226482
-0.905143,0.128235,0.258764,5.83703,4.97037,11.8986,9,0.0260556,0.00357115,76,86.2507,0.0313227
0.801967,-0.1036,0.536478,5.98844,4.93892,11.8947,10,0.0718188,0.00984342,89,129.072,0.0308089
0.100809,0.641514,0.724356,5.91664,4.9887,11.9038,11,0.0667165,0.0091441,103,120.61,0.0323621
0.365468,0.293661,0.823781,5.91987,4.95084,11.929,12,0.0842237,0.0115436,18,79.7003,0.00633753
,,,,,,,,,25,61.6062,0.0357652
,,,,,,,,,33,120.886,0.0194478
,,,,,,,,,42,62.3772,0.0390886
,,,,,,,,,52,59.2166,0.044176
,,,,,,,,,63,81.619,0.0396764
,,,,,,,,,75,122.685,0.0259547
,,,,,,,,,88,98.4641,0.0380216
,,,,,,,,,102,158.216,0.0372671
,,,,,,,,,117,138.46,0.0395641
,,,,,,,,,32,102.662,0.00679937
,,,,,,,,,41,83.2037,0.005864
,,,,,,,,,51,134.913,0.00691107
,,,,,,,,,62,132.842,0.00705471
,,,,,,,,,74,90.0206,0.00692922
,,,,,,,,,87,56.7117,0.00634352
,,,,,,,,,101,169.812,0.00687695
,,,,,,,,,116,114.251,0.00685186
,,,,,,,,,132,140.773,0.00692579
,,,,,,,,,50,68.0123,0.0245689
,,,,,,,,,61,38.8475,0.0672711
,,,,,,,,,73,78.6551,0.0838992
,,,,,,,,,86,137.465,0.0690312
,,,,,,,,,100,153.369,0.0359571
,,,,,,,,,115,67.9941,0.0641718
,,,,,,,,,131,97.9229,0.0620516
,,,,,,,,,148,92.9709,0.0686918
,,,,,,,,,72,95.5073,0.0260928
,,,,,,,,,85,136.216,0.0282657
,,,,,,,,,99,154.498,0.0263535
,,,,,,,,,114,91.2033,0.0195044
,,,,,,,,,130,89.277,0.025613
,,,,,,,,,147,49.2705,0.0252684
,,,,,,,,,165,69.5863,0.0263038
,,,,,,,,,98,42.7998,0.104801
,,,,,,,,,113,106.477,0.0825832
,,,,,,,,,129,167.195,0.0393178
,,,,,,,,,146,38.9047,0.0757233
,,,,,,,,,164,97.3135,0.0727887
,,,,,,,,,183,77.16,0.0820979
,,,,,,,,,128,63.7165,0.109136
,,,,,,,,,145,127.274,0.044469
,,,,,,,,,163,51.1814,0.0974676
,,,,,,,,,182,112.142,0.0926591
,,,,,,,,,202,85.1901,0.10829
,,,,,,,,,162,64.8385,0.0399126
,,,,,,,,,181,99.661,0.0779608
,,,,,,,,,201,113.644,0.0748537
,,,,,,,,,222,102.413,0.0847345
,,,,,,,,,200,130.629,0.0382384
,,,,,,,,,221,78.8677,0.0374754
,,,,,,,,,243,95.0952,0.0397989
,,,,,,,,,242,64.7307,0.0691737
,,,,,,,,,265,39.9998,0.0775282
,,,,,,,,,288,26.9522,0.0744548
