facetNormals:0,facetNormals:1,facetNormals:2,FacetCenters:0,FacetCenters:1,FacetCenters:2,FacetIds,relFacetSize,absFacetSize,cellPairingIds,interplanarAngles,angleWeights
0.0164783,-0.252049,-0.944416,6.57376,4.9953,11.2007,1,0.0490339,0.00248561,8,32.3821,0.0292622
-0.502068,-0.115707,-0.837316,6.56391,5.01907,11.1998,2,0.0208536,0.0010571,13,28.2381,0.036599
-0.381113,-0.468752,-0.784599,6.58295,5.01144,11.1946,3,0.0291952,0.00147995,19,42.4748,0.067091
-0.183152,0.411278,-0.841857,6.5749,5.04563,11.2053,4,0.1062,0.00538343,26,32.2766,0.0432451
0.13454,-0.704457,-0.666563,6.60827,4.9899,11.2186,5,0.0386788,0.00196069,34,45.6173,0.0690257
0.676594,0.0218025,-0.698048,6.61388,5.01407,11.2223,6,0.116541,0.00590763,43,61.1522,0.0410514
0.584527,0.503353,-0.6177,6.60897,5.04107,11.22,7,0.035304,0.00178961,53,79.401,0.0458581
-0.193419,0.849548,-0.413751,6.58676,5.0872,11.253,8,0.0430686,0.00218322,64,50.9588,0.0644934
0.644132,-0.557461,-0.476356,6.63503,4.99619,11.2401,9,0.0941896,0.00477462,76,86.0746,0.0374845
0.659683,0.696231,-0.244442,6.65195,5.07238,11.2601,10,0.0303386,0.00153791,89,85.2099,0.0424797
0.260638,0.899518,-0.321098,6.6221,5.08735,11.2778,11,0.037471,0.00189946,103,90.1478,0.0680931
0.935637,0.210278,-0.0372318,6.65766,5.01289,11.2685,12,0.111389,0.00564649,118,106.301,0.0482748
0.436028,0.878189,0.0586109,6.64084,5.0775,11.2618,13,0.0475388,0.00240981,134,107.658,0.0103695
-0.866094,-0.252047,0.356741,6.59793,5.03265,11.2697,14,0.00579782,0.0002939,151,97.6912,0.00789307
0.183873,-0.881005,0.373318,6.65273,4.992,11.279,15,0.00429198,0.000217567,169,133.003,0.025358
0.209176,0.829879,0.472302,6.6198,5.08513,11.2622,16,0.0171009,0.000866869,188,111.751,0.0170895
-0.308576,-0.727403,0.560323,6.58363,5.03693,11.2657,17,0.010348,0.000524557,208,139.25,0.0584794
-0.407514,0.662389,0.574201,6.56943,5.06817,11.2451,18,0.0724322,0.0036717,229,148.678,0.00740016
0.344376,-0.132193,0.90772,6.63776,4.99746,11.276,19,0.00400207,0.000202871,251,153.895,0.00943389
-0.244484,-0.128554,0.947133,6.62176,4.98922,11.2666,20,0.005219,0.000264559,18,22.0173,0.0243292
,,,,,,,,,25,37.0323,0.0348617
,,,,,,,,,33,53.5365,0.0270976
,,,,,,,,,42,75.3199,0.0353769
,,,,,,,,,52,80.1924,0.0262196
,,,,,,,,,63,68.6487,0.0281009
,,,,,,,,,75,81.6126,0.034147
,,,,,,,,,88,102.287,0.0247174
,,,,,,,,,102,88.0027,0.026795
,,,,,,,,,117,119.381,0.0351303
,,,,,,,,,133,112.504,0.0289902
,,,,,,,,,150,80.0185,0.00907309
,,,,,,,,,168,108.438,0.0071188
,,,,,,,,,187,128.367,0.0187917
,,,,,,,,,207,103.981,0.0138322
,,,,,,,,,228,111.792,0.0323837
,,,,,,,,,250,162.294,0.00671538
,,,,,,,,,273,132.511,0.0083486
,,,,,,,,,32,55.3473,0.0457997
,,,,,,,,,41,34.1975,0.0332744
,,,,,,,,,51,73.119,0.0466931
,,,,,,,,,62,88.4817,0.0319603
,,,,,,,,,74,89.993,0.0348002
,,,,,,,,,87,66.2288,0.0445741
,,,,,,,,,101,113.192,0.0297559
,,,,,,,,,116,105.928,0.0328194
,,,,,,,,,132,116.628,0.0462644
,,,,,,,,,149,129.894,0.0361744
,,,,,,,,,167,79.9071,0.00967441
,,,,,,,,,186,87.03,0.00748377
,,,,,,,,,206,150.12,0.0215683
,,,,,,,,,227,88.8683,0.0152801
,,,,,,,,,249,129.252,0.0416162
,,,,,,,,,272,143.653,0.00703921
,,,,,,,,,296,127.128,0.00885505
,,,,,,,,,50,74.6919,0.0567051
,,,,,,,,,61,59.389,0.11113
,,,,,,,,,73,48.9176,0.0529919
,,,,,,,,,86,37.233,0.061284
,,,,,,,,,100,86.6913,0.0998348
,,,,,,,,,115,66.862,0.0471949
,,,,,,,,,131,51.1775,0.0553963
,,,,,,,,,148,93.3499,0.108733
,,,,,,,,,166,75.677,0.0656778
,,,,,,,,,185,105.364,0.0109954
,,,,,,,,,205,139.783,0.00825052
,,,,,,,,,226,95.8188,0.0294582
,,,,,,,,,248,140.577,0.0188585
,,,,,,,,,271,98.4948,0.0861244
,,,,,,,,,295,160.474,0.00771347
,,,,,,,,,320,148.776,0.00994907
,,,,,,,,,72,55.3756,0.058081
,,,,,,,,,85,81.9327,0.0369144
,,,,,,,,,99,111.668,0.0407558
,,,,,,,,,114,33.4987,0.0548383
,,,,,,,,,130,104.264,0.0340048
,,,,,,,,,147,113.374,0.0380653
,,,,,,,,,165,89.8436,0.0574193
,,,,,,,,,184,128.528,0.0426535
,,,,,,,,,204,100.726,0.0100841
,,,,,,,,,225,65.4397,0.00772658
,,,,,,,,,247,155.554,0.0237162
,,,,,,,,,270,84.1045,0.0163278
,,,,,,,,,294,162.8,0.0504287
,,,,,,,,,319,119.034,0.00725362
,,,,,,,,,345,126.431,0.00919703
,,,,,,,,,98,29.343,0.0541916
,,,,,,,,,113,79.1546,0.0628942
,,,,,,,,,129,37.1764,0.10418
,,,,,,,,,146,48.9426,0.0481441
,,,,,,,,,164,64.1268,0.0567087
,,,,,,,,,183,44.6731,0.113907
,,,,,,,,,203,73.3758,0.0675307
,,,,,,,,,224,153.013,0.0110461
,,,,,,,,,246,99.4401,0.00827905
,,,,,,,,,269,100.307,0.0298252
,,,,,,,,,293,130.825,0.0190082
,,,,,,,,,318,134.777,0.0893387
,,,,,,,,,344,115.057,0.0077384
,,,,,,,,,371,149.827,0.00999059
,,,,,,,,,128,53.263,0.0388017
,,,,,,,,,145,66.1394,0.051358
,,,,,,,,,163,24.9225,0.0326335
,,,,,,,,,182,34.7924,0.0363552
,,,,,,,,,202,44.5601,0.0536151
,,,,,,,,,223,47.1036,0.0405179
,,,,,,,,,245,152.918,0.00995995
,,,,,,,,,268,126.045,0.0076535
,,,,,,,,,292,75.1086,0.0230409
,,,,,,,,,317,158.826,0.0160048
,,,,,,,,,343,105.76,0.0474705
,,,,,,,,,370,116.097,0.00718918
,,,,,,,,,398,144.391,0.00909368
,,,,,,,,,162,115.217,0.0591093
,,,,,,,,,181,53.712,0.0355998
,,,,,,,,,201,27.5524,0.0400753
,,,,,,,,,222,89.1906,0.062119
,,,,,,,,,244,47.7108,0.0451934
,,,,,,,,,267,101.98,0.0102199
,,,,,,,,,291,176.975,0.00780605
,,,,,,,,,316,60.1595,0.0244812
,,,,,,,,,342,147.744,0.0166868
,,,,,,,,,369,64.326,0.0540179
,,,,,,,,,397,125.924,0.00732361
,,,,,,,,,426,118.482,0.00930984
,,,,,,,,,200,80.8726,0.0458945
,,,,,,,,,221,100.772,0.0536133
,,,,,,,,,243,57.5061,0.10207
,,,,,,,,,266,104.289,0.0631865
,,,,,,,,,290,128.342,0.0109233
,,,,,,,,,315,62.9997,0.00820985
,,,,,,,,,341,125.415,0.0289463
,,,,,,,,,368,93.6495,0.0186474
,,,,,,,,,396,163.631,0.0818904
,,,,,,,,,425,98.2295,0.00767791
,,,,,,,,,455,123.895,0.00989
,,,,,,,,,242,26.5345,0.0335297
,,,,,,,,,265,35.5618,0.0476885
,,,,,,,,,289,24.4889,0.0370393
,,,,,,,,,314,150.308,0.0097352
,,,,,,,,,340,127.22,0.00752009
,,,,,,,,,367,51.6489,0.0218728
,,,,,,,,,395,152.055,0.0154323
,,,,,,,,,424,86.8855,0.0427649
,,,,,,,,,454,95.1316,0.00707134
,,,,,,,,,485,119.598,0.00890595
,,,,,,,,,288,62.0747,0.0560777
,,,,,,,,,313,24.5156,0.0419087
,,,,,,,,,339,126.187,0.0100419
,,,,,,,,,366,153.653,0.00770178
,,,,,,,,,394,47.8571,0.0234841
,,,,,,,,,423,162.508,0.0162174
,,,,,,,,,453,71.4017,0.0493909
,,,,,,,,,484,109.3,0.00723176
,,,,,,,,,516,119.669,0.00916192
,,,,,,,,,338,51.2169,0.0666378
,,,,,,,,,365,160.338,0.0110219
,,,,,,,,,393,91.6618,0.00826548
,,,,,,,,,422,67.9202,0.0296498
,,,,,,,,,452,119.838,0.0189368
,,,,,,,,,483,106.492,0.0877826
,,,,,,,,,515,73.9093,0.00772654
,,,,,,,,,548,107.902,0.00997083
,,,,,,,,,392,127.354,0.0103352
,,,,,,,,,421,134.571,0.00787314
,,,,,,,,,451,28.009,0.0251534
,,,,,,,,,482,141.105,0.0169964
,,,,,,,,,514,62.5527,0.0574028
,,,,,,,,,547,84.7973,0.00738264
,,,,,,,,,581,99.7425,0.00940543
,,,,,,,,,450,78.0322,0.00493253
,,,,,,,,,481,103.531,0.00865968
,,,,,,,,,513,46.1876,0.00743175
,,,,,,,,,546,65.3678,0.0107363
,,,,,,,,,580,86.4483,0.00473542
,,,,,,,,,615,52.5418,0.0054932
,,,,,,,,,512,122.829,0.00686178
,,,,,,,,,545,32.8051,0.00606742
,,,,,,,,,579,118.134,0.00810377
,,,,,,,,,614,57.0929,0.00414196
,,,,,,,,,650,63.9676,0.00471031
,,,,,,,,,578,115.227,0.0128938
,,,,,,,,,613,38.8768,0.0276692
,,,,,,,,,649,65.9025,0.0064862
,,,,,,,,,686,72.5307,0.0079973
,,,,,,,,,648,92.1014,0.0181089
,,,,,,,,,685,58.3154,0.00577188
,,,,,,,,,723,42.9365,0.00693856
,,,,,,,,,722,71.961,0.00758505
,,,,,,,,,761,54.1689,0.00973645
,,,,,,,,,800,34.9295,0.00453024
