facetNormals:0,facetNormals:1,facetNormals:2,FacetCenters:0,FacetCenters:1,FacetCenters:2,FacetIds,relFacetSize,absFacetSize,cellPairingIds,interplanarAngles,angleWeights
-0.487837,0.112882,-0.813103,4.02187,3.66217,13.6489,1,0.0816012,0.0152819,8,44.7639,0.102315
0.226492,0.145835,-0.895038,4.04185,3.65691,13.639,2,0.137123,0.0256797,13,42.0592,0.0552717
-0.191028,-0.514786,-0.810408,4.00166,3.59005,13.6419,3,0.0417883,0.00782591,19,75.7609,0.0348521
0.0506785,-0.867554,-0.431069,4.07632,3.61418,13.6688,4,0.0221579,0.00414963,26,76.0715,0.0754914
0.532367,0.649872,-0.506495,4.14754,3.7149,13.6838,5,0.0702328,0.0131529,34,46.0249,0.0924289
-0.716047,-0.464397,-0.405305,3.96845,3.5671,13.6834,6,0.10657,0.0199578,43,56.5548,0.0787202
-0.00398891,0.826291,-0.512119,4.04316,3.7325,13.6794,7,0.0760357,0.0142396,53,111.565,0.0802694
0.890582,0.34854,-0.0719526,4.16281,3.67382,13.724,8,0.0789804,0.0147911,64,123.841,0.0848536
0.881847,-0.39045,0.0482468,4.1468,3.66629,13.7465,9,0.088376,0.0165507,76,126.323,0.042939
0.298822,-0.845074,0.380909,3.94409,3.58457,13.7391,10,0.029135,0.00545626,89,80.8833,0.0701512
-0.614963,0.666226,0.284621,3.88875,3.65517,13.714,11,0.061519,0.011521,18,48.4397,0.0640556
,,,,,,,,,25,72.6242,0.038151
,,,,,,,,,33,43.1735,0.0928889
,,,,,,,,,42,81.3473,0.119931
,,,,,,,,,52,50.5006,0.0978261
,,,,,,,,,63,69.2949,0.10023
,,,,,,,,,75,83.6639,0.107481
,,,,,,,,,88,115.82,0.0480587
,,,,,,,,,102,109.526,0.0849334
,,,,,,,,,32,34.1073,0.02896
,,,,,,,,,41,91.5381,0.0523992
,,,,,,,,,51,40.4017,0.0600353
,,,,,,,,,62,90.5766,0.0539347
,,,,,,,,,74,108.072,0.0546574
,,,,,,,,,87,90.3975,0.0567449
,,,,,,,,,101,85.8342,0.0343329
,,,,,,,,,116,119.364,0.0497694
,,,,,,,,,50,109.553,0.0336876
,,,,,,,,,61,53.7994,0.0366877
,,,,,,,,,73,121.754,0.0343157
,,,,,,,,,86,104.073,0.0346069
,,,,,,,,,100,67.2243,0.0354322
,,,,,,,,,115,51.8129,0.0251719
,,,,,,,,,131,142.55,0.0325809
,,,,,,,,,72,121.026,0.0846672
,,,,,,,,,85,33.6051,0.0730191
,,,,,,,,,99,38.4227,0.0743502
,,,,,,,,,114,78.3495,0.0782667
,,,,,,,,,130,127.608,0.041185
,,,,,,,,,147,92.3722,0.0655878
,,,,,,,,,98,100.876,0.0887498
,,,,,,,,,113,148.235,0.0907239
,,,,,,,,,129,120.985,0.0966238
,,,,,,,,,146,88.4995,0.0457597
,,,,,,,,,164,89.005,0.0780072
,,,,,,,,,128,69.8419,0.0774801
,,,,,,,,,145,111.948,0.0817427
,,,,,,,,,163,160.877,0.0421277
,,,,,,,,,182,63.8467,0.0680114
,,,,,,,,,162,45.7863,0.0834145
,,,,,,,,,181,93.4264,0.0425673
,,,,,,,,,201,111.63,0.0691647
,,,,,,,,,200,49.4135,0.0438228
,,,,,,,,,221,149.261,0.0725415
,,,,,,,,,242,133.609,0.0395428
