"cellPairingIds","interplanarAngles","angleWeights"
8,64.9671,0.00829845
13,100.395,0.00927536
26,68.0868,0.00914665
34,106.314,0.00952218
43,66.315,0.00813211
76,97.4981,0.0094749
89,86.3121,0.00890265
18,39.998,0.0345792
25,43.5777,0.024861
33,106.141,0.0328557
32,32.6126,0.0363218
51,58.9936,0.0744458
74,43.011,0.0705455
87,49.0571,0.0572758
50,111.693,0.0344249
86,31.4665,0.0392469
148,100.951,0.0434051
85,40.0723,0.0303942
165,39.1135,0.0754641
129,48.1202,0.0681907
146,59.0077,0.0895898
203,49.738,0.0463478
224,67.8073,0.0838315
182,33.9887,0.027857
202,58.9706,0.037187
245,98.6451,0.0334671
162,31.6227,0.0649038
222,92.7594,0.103281
267,62.0185,0.0789182
290,44.2205,0.0626744
242,29.4436,0.0541413
289,28.0747,0.0452489
313,50.5944,0.034621
339,74.0203,0.0519834
365,73.5819,0.0977479
392,36.2144,0.0437317
