"cellPairingIds","interplanarAngles","angleWeights"
8,37.3756,0.0427508
13,70.4418,0.0365689
19,35.3442,0.0430964
18,84.6209,0.0496136
25,69.6215,0.0624458
42,95.6271,0.0607809
52,79.9896,0.0683918
63,67.469,0.0314906
88,76.2265,0.020978
32,81.7722,0.0500797
51,69.9376,0.0490033
87,93.4356,0.0392791
116,77.335,0.0531688
73,47.2245,0.0692806
100,71.1154,0.046911
185,77.2221,0.0510156
146,85.5611,0.0208681
164,78.9003,0.0662041
183,38.6859,0.0224244
246,69.1001,0.0621549
128,36.7282,0.0331393
223,34.4938,0.0778887
245,53.7049,0.0549161
181,38.4859,0.015817
244,36.1232,0.0333637
221,41.8261,0.049611
290,28.5949,0.0398526
265,57.0793,0.0131907
289,55.3302,0.021793
340,76.5667,0.0211392
339,58.7982,0.054225
366,43.6723,0.0690129
393,42.4537,0.0227379
392,39.1786,0.0555352
421,72.3321,0.0711492
450,59.2052,0.0514781
