facetNormals:0,facetNormals:1,facetNormals:2,FacetCenters:0,FacetCenters:1,FacetCenters:2,FacetIds,relFacetSize,absFacetSize,cellPairingIds,interplanarAngles,angleWeights
0.322452,0.320717,-0.842031,5.32051,5.73736,10.1502,1,0.0686285,0.0178915,8,53.4475,0.0768475
-0.089312,-0.432145,-0.842636,5.2854,5.64971,10.1453,2,0.087303,0.02276,13,38.8521,0.0454866
0.766795,-0.0629142,-0.586698,5.35484,5.68846,10.1736,3,0.0340161,0.00886804,19,64.0827,0.0478048
-0.569066,0.59821,-0.459437,5.28662,5.76694,10.1664,4,0.0366763,0.00956154,26,88.1871,0.0605581
-0.607633,-0.588155,-0.491885,5.20797,5.62877,10.1945,5,0.0541862,0.0141264,34,97.3409,0.0733375
-0.126786,-0.915749,-0.257965,5.19854,5.63899,10.2488,6,0.0787404,0.0205277,43,58.3043,0.0685339
0.787276,0.55497,-0.0635729,5.3934,5.73988,10.2206,7,0.0684396,0.0178423,53,143.753,0.0593076
-0.607241,-0.603413,0.406108,5.2173,5.6232,10.292,8,0.0522158,0.0136127,64,127.691,0.0608442
0.0238044,-0.912405,0.337896,5.26937,5.60073,10.2676,9,0.0546459,0.0142462,76,123.336,0.072478
0.505672,-0.583049,0.571323,5.35053,5.63479,10.2854,10,0.076785,0.0200179,89,97.2608,0.0739389
0.480347,0.630388,0.563758,5.30969,5.76241,10.2831,11,0.0801401,0.0208926,103,133.536,0.0313305
0.446769,-0.322155,0.824905,5.31049,5.63949,10.3202,12,0.0202987,0.00529188,118,153.428,0.0197056
-0.493835,0.0916829,0.845193,5.23255,5.66904,10.3544,13,0.0115044,0.00299922,18,60.5079,0.048957
,,,,,,,,,25,78.4826,0.051653
,,,,,,,,,33,39.0259,0.0668689
,,,,,,,,,42,46.8455,0.0828009
,,,,,,,,,52,106.226,0.076729
,,,,,,,,,63,91.7298,0.0653474
,,,,,,,,,75,83.3353,0.0672178
,,,,,,,,,88,107.498,0.0817069
,,,,,,,,,102,148.686,0.0835683
,,,,,,,,,117,129.159,0.0329388
,,,,,,,,,133,139.179,0.0203299
,,,,,,,,,32,102.922,0.0352962
,,,,,,,,,41,98.5262,0.0417949
,,,,,,,,,51,83.089,0.0475085
,,,,,,,,,62,49.5416,0.045445
,,,,,,,,,74,136.585,0.0411954
,,,,,,,,,87,97.48,0.041931
,,,,,,,,,101,84.4884,0.0471463
,,,,,,,,,116,90.1272,0.0477601
,,,,,,,,,132,97.2505,0.0254252
,,,,,,,,,149,157.73,0.0171938
,,,,,,,,,50,76.2358,0.0437441
,,,,,,,,,61,113.192,0.0500431
,,,,,,,,,73,95.4619,0.0477589
,,,,,,,,,86,103.039,0.0430878
,,,,,,,,,100,140.994,0.0438931
,,,,,,,,,115,172.26,0.0496414
,,,,,,,,,131,99.7264,0.0503224
,,,,,,,,,148,151.798,0.0261336
,,,,,,,,,166,93.2362,0.0175149
,,,,,,,,,72,37.7415,0.0641954
,,,,,,,,,85,144.992,0.0604845
,,,,,,,,,99,55.5685,0.0531827
,,,,,,,,,114,68.0464,0.054415
,,,,,,,,,130,105.141,0.0635359
,,,,,,,,,147,171.06,0.0646558
,,,,,,,,,165,120.175,0.0295337
,,,,,,,,,184,100.155,0.0189793
,,,,,,,,,98,129.684,0.0732296
,,,,,,,,,113,54.755,0.0627919
,,,,,,,,,129,37.0691,0.064517
,,,,,,,,,146,69.522,0.0777504
,,,,,,,,,164,147.08,0.0794341
,,,,,,,,,183,88.4608,0.0322767
,,,,,,,,,203,104.695,0.0200757
,,,,,,,,,128,156.496,0.0592369
,,,,,,,,,145,122.812,0.0607699
,,,,,,,,,163,87.6376,0.0723726
,,,,,,,,,182,42.5028,0.0738292
,,,,,,,,,202,82.77,0.0313108
,,,,,,,,,223,114.371,0.0196978
,,,,,,,,,162,43.1006,0.0534032
,,,,,,,,,181,72.2899,0.0621607
,,,,,,,,,201,118.741,0.0632322
,,,,,,,,,222,74.0606,0.0292331
,,,,,,,,,244,50.878,0.0188547
,,,,,,,,,200,37.9382,0.0638508
,,,,,,,,,221,113.223,0.0649819
,,,,,,,,,243,52.8265,0.0296016
,,,,,,,,,266,78.5361,0.0190073
,,,,,,,,,242,77.7952,0.0784267
,,,,,,,,,265,21.687,0.0321091
,,,,,,,,,289,79.0269,0.0200107
,,,,,,,,,288,60.3962,0.0323926
,,,,,,,,,313,71.9007,0.0201205
,,,,,,,,,338,62.7158,0.0146857
