facetNormals:0,facetNormals:1,facetNormals:2,FacetCenters:0,FacetCenters:1,FacetCenters:2,FacetIds,relFacetSize,absFacetSize,cellPairingIds,interplanarAngles,angleWeights
-0.497868,-0.430406,-0.732014,3.34673,5.39468,11.709,1,0.0155222,0.00269314,8,82.6318,0.0271364
0.672956,0.0947951,-0.679127,3.41122,5.33953,11.6947,2,0.107782,0.0187004,13,91.5422,0.0209743
0.183985,0.762049,-0.538774,3.38106,5.39623,11.7073,3,0.0323299,0.0056093,19,71.5472,0.0125255
0.570128,-0.706284,-0.393589,3.4279,5.26302,11.7997,4,0.0104986,0.00182153,26,31.5065,0.0224074
-0.868515,-0.306465,-0.364852,3.31075,5.40789,11.7706,5,0.0402699,0.0069869,34,37.9123,0.0239137
-0.286221,-0.877459,-0.328926,3.36654,5.28049,11.705,6,0.0520555,0.00903173,43,52.3071,0.0270993
-0.94661,0.0444279,-0.174577,3.31358,5.3865,11.7803,7,0.106623,0.0184993,53,69.479,0.0149747
0.214182,-0.958201,-0.0456112,3.40793,5.25542,11.8114,8,0.0144645,0.00250962,64,72.4787,0.0209238
-0.837831,0.510841,-0.131334,3.32429,5.3604,11.7195,9,0.0320913,0.00556791,76,66.0213,0.0287858
-0.623848,-0.648345,0.289056,3.34598,5.29994,11.8594,10,0.197819,0.034322,89,100.087,0.0239649
0.721897,-0.628105,0.105057,3.43426,5.26792,11.7819,11,0.052544,0.00911648,103,113.933,0.0205435
-0.397109,0.830878,0.311951,3.31915,5.44911,11.8542,12,0.030367,0.00526873,118,150.211,0.0220005
0.487413,0.761742,0.353972,3.35702,5.43676,11.8358,13,0.0377598,0.00655139,134,120.582,0.0216366
-0.470765,0.407693,0.744573,3.34125,5.41028,11.8975,14,0.0356988,0.0061938,151,137.078,0.012802
0.247475,-0.214302,0.910131,3.41078,5.33494,11.9258,15,0.010893,0.00188996,18,52.0567,0.04974
,,,,,,,,,25,52.0906,0.0191336
,,,,,,,,,33,112.599,0.0586332
,,,,,,,,,42,93.1915,0.0702045
,,,,,,,,,52,123.744,0.1072
,,,,,,,,,63,84.8798,0.0255061
,,,,,,,,,75,116.62,0.0494572
,,,,,,,,,88,138.269,0.139537
,,,,,,,,,102,67.4342,0.0706473
,,,,,,,,,117,115.375,0.0473839
,,,,,,,,,133,80.1369,0.0559266
,,,,,,,,,150,147.189,0.0536335
,,,,,,,,,168,120.516,0.0197863
,,,,,,,,,32,103.599,0.0158502
,,,,,,,,,41,102.052,0.0358657
,,,,,,,,,51,125.717,0.0398872
,,,,,,,,,62,92.8921,0.0496155
,,,,,,,,,74,135.443,0.0199869
,,,,,,,,,87,71.0455,0.0322102
,,,,,,,,,101,148.27,0.0555768
,,,,,,,,,116,116.071,0.0400298
,,,,,,,,,132,64.9204,0.0313177
,,,,,,,,,149,58.7344,0.0348345
,,,,,,,,,167,101.057,0.0339309
,,,,,,,,,186,131.374,0.0162955
,,,,,,,,,50,97.9239,0.0166552
,,,,,,,,,61,52.8052,0.0174733
,,,,,,,,,73,121.8,0.0191151
,,,,,,,,,86,32.8615,0.0121666
,,,,,,,,,100,143.443,0.0158214
,,,,,,,,,115,90.7064,0.0199391
,,,,,,,,,131,31.2918,0.0175006
,,,,,,,,,148,166.67,0.015603
,,,,,,,,,166,114.566,0.0164293
,,,,,,,,,185,152.188,0.0162255
,,,,,,,,,205,93.9409,0.0106922
,,,,,,,,,72,48.9447,0.0454105
,,,,,,,,,85,23.9737,0.0584602
,,,,,,,,,99,82.6672,0.0212841
,,,,,,,,,114,50.8632,0.0357184
,,,,,,,,,130,47.2857,0.0669175
,,,,,,,,,147,119.723,0.0455954
,,,,,,,,,165,91.4014,0.0346243
,,,,,,,,,184,144.778,0.0389745
,,,,,,,,,204,89.2692,0.0378468
,,,,,,,,,225,120.155,0.0171476
,,,,,,,,,98,72.1519,0.0699567
,,,,,,,,,113,34.417,0.0226385
,,,,,,,,,129,99.8075,0.0397051
,,,,,,,,,146,45.2079,0.0824219
,,,,,,,,,164,70.8151,0.0522986
,,,,,,,,,183,138.91,0.0383577
,,,,,,,,,203,166.265,0.0437699
,,,,,,,,,224,119.47,0.0423528
,,,,,,,,,246,101.082,0.018016
,,,,,,,,,128,104.513,0.0254733
,,,,,,,,,145,28.4578,0.0493341
,,,,,,,,,163,55.844,0.138562
,,,,,,,,,182,141.864,0.0703964
,,,,,,,,,202,67.5117,0.0472709
,,,,,,,,,223,121.528,0.0557692
,,,,,,,,,245,69.0944,0.0534888
,,,,,,,,,268,115.598,0.0197666
,,,,,,,,,162,132.943,0.019941
,,,,,,,,,181,59.2849,0.0269579
,,,,,,,,,201,37.3991,0.0226844
,,,,,,,,,222,159.547,0.0195953
,,,,,,,,,244,132.238,0.0209166
,,,,,,,,,267,123.417,0.0205874
,,,,,,,,,291,76.8156,0.0124272
,,,,,,,,,200,80.5563,0.0552239
,,,,,,,,,221,170.321,0.0398464
,,,,,,,,,243,41.9263,0.0312054
,,,,,,,,,266,93.92,0.0346956
,,,,,,,,,290,58.3058,0.0337991
,,,,,,,,,315,117.109,0.016265
,,,,,,,,,242,90.8035,0.083033
,,,,,,,,,265,102.622,0.0526515
,,,,,,,,,289,139.284,0.0634149
,,,,,,,,,314,74.5364,0.0604827
,,,,,,,,,340,74.2811,0.020649
,,,,,,,,,288,145.98,0.0384895
,,,,,,,,,313,95.4878,0.0439417
,,,,,,,,,339,123.644,0.0425135
,,,,,,,,,366,63.9514,0.0180451
,,,,,,,,,338,54.3914,0.0336623
,,,,,,,,,365,36.573,0.0328177
,,,,,,,,,393,89.538,0.0160343
,,,,,,,,,392,68.5543,0.0367004
,,,,,,,,,421,72.6863,0.0169083
,,,,,,,,,450,59.6925,0.0166925
