facetNormals:0,facetNormals:1,facetNormals:2,FacetCenters:0,FacetCenters:1,FacetCenters:2,FacetIds,relFacetSize,absFacetSize,cellPairingIds,interplanarAngles,angleWeights
0.467221,-0.252748,-0.823232,4.32912,5.26118,11.349,1,0.0111382,0.000878812,8,46.9132,0.0207499
0.539495,0.499066,-0.638514,4.317,5.29051,11.3504,2,0.15141,0.0119464,13,91.5168,0.00974788
-0.748213,0.387782,-0.512626,4.22571,5.31529,11.4482,3,0.00866615,0.000683768,19,84.3304,0.0130309
-0.577737,-0.691037,-0.224882,4.35434,5.24117,11.4614,4,0.0156986,0.00123863,26,74.8218,0.0112438
0.475891,0.822712,-0.292346,4.34364,5.27929,11.3782,5,0.0113514,0.000895639,34,52.741,0.0172851
0.967554,-0.0342168,-0.145806,4.35405,5.26292,11.4065,6,0.0385727,0.00304342,43,97.9176,0.0178766
0.161255,0.965986,-0.0443399,4.2956,5.31097,11.448,7,0.0452553,0.00357069,53,119.513,0.0138728
-0.262472,0.94173,0.140993,4.25735,5.32709,11.4435,8,0.0183871,0.00145076,64,69.2969,0.0123383
0.210786,-0.903224,0.00669827,4.30432,5.27199,11.3927,9,0.0138284,0.00109107,76,70.0175,0.0145043
0.910505,-0.324277,0.213728,4.32884,5.26407,11.4596,10,0.0207862,0.00164005,89,102.568,0.0200568
0.479408,0.808071,0.277714,4.30414,5.34151,11.4556,11,0.100652,0.00794158,103,91.911,0.0209516
0.818793,0.338047,0.39948,4.33104,5.28832,11.4855,12,0.17616,0.0138992,118,152.075,0.0193061
-0.54857,0.607871,0.524591,4.21531,5.3207,11.5144,13,0.0723966,0.00571216,134,152.296,0.0201675
-0.0259486,0.177791,0.966042,4.25259,5.28547,11.5479,14,0.106518,0.00840438,18,82.9905,0.016394
,,,,,,,,,25,124.579,0.0284476
,,,,,,,,,33,28.098,0.0211195
,,,,,,,,,42,51.1429,0.0614823
,,,,,,,,,52,51.2504,0.0696829
,,,,,,,,,63,75.6485,0.0327919
,,,,,,,,,75,112.21,0.0253422
,,,,,,,,,88,78.4529,0.0365541
,,,,,,,,,102,59.4669,0.120921
,,,,,,,,,117,67.9365,0.16285
,,,,,,,,,133,110.241,0.0979556
,,,,,,,,,150,124.519,0.125057
,,,,,,,,,32,72.2238,0.0111675
,,,,,,,,,41,83.3945,0.00982868
,,,,,,,,,51,133.31,0.0141526
,,,,,,,,,62,73.3752,0.0145467
,,,,,,,,,74,59.8544,0.0117801
,,,,,,,,,87,123.984,0.0106549
,,,,,,,,,101,159.835,0.0122324
,,,,,,,,,116,101.199,0.0159583
,,,,,,,,,132,135.727,0.0165196
,,,,,,,,,149,66.8405,0.0154794
,,,,,,,,,167,114.82,0.0160283
,,,,,,,,,50,147.4,0.0131757
,,,,,,,,,61,123.566,0.0223152
,,,,,,,,,73,145.573,0.0233109
,,,,,,,,,86,125.372,0.0169368
,,,,,,,,,100,54.4313,0.0147042
,,,,,,,,,115,112.387,0.0178877
,,,,,,,,,131,170.777,0.0271609
,,,,,,,,,148,151.992,0.0288281
,,,,,,,,,166,104.177,0.0258022
,,,,,,,,,185,110.879,0.0273642
,,,,,,,,,72,60.8029,0.0175408
,,,,,,,,,85,24.8719,0.0181502
,,,,,,,,,99,51.7069,0.014037
,,,,,,,,,114,134.351,0.0124681
,,,,,,,,,130,83.9331,0.0146839
,,,,,,,,,147,33.5695,0.020402
,,,,,,,,,165,55.235,0.0213285
,,,,,,,,,184,84.9165,0.0196257
,,,,,,,,,204,98.7416,0.0205165
,,,,,,,,,98,82.25,0.0416476
,,,,,,,,,113,108.493,0.0249031
,,,,,,,,,129,75.0758,0.0203583
,,,,,,,,,146,27.3413,0.0270146
,,,,,,,,,164,65.637,0.0557721
,,,,,,,,,183,40.5968,0.0632877
,,,,,,,,,203,131.274,0.0503298
,,,,,,,,,224,100.302,0.0566361
,,,,,,,,,128,27.217,0.0261496
,,,,,,,,,145,157.291,0.0211837
,,,,,,,,,163,100.443,0.0284877
,,,,,,,,,182,28.3169,0.0624375
,,,,,,,,,202,62.4332,0.072011
,,,,,,,,,223,60.0827,0.0556953
,,,,,,,,,245,82.5607,0.0635225
,,,,,,,,,162,171.044,0.0157852
,,,,,,,,,181,121.731,0.0195132
,,,,,,,,,201,45.8307,0.0310939
,,,,,,,,,222,80.4185,0.0332985
,,,,,,,,,244,34.6246,0.029326
,,,,,,,,,267,71.3453,0.0313607
,,,,,,,,,200,58.021,0.016608
,,,,,,,,,221,133.623,0.024316
,,,,,,,,,243,98.2973,0.0256437
,,,,,,,,,266,137.141,0.0232213
,,,,,,,,,290,100.084,0.0244788
,,,,,,,,,242,76.0491,0.0344566
,,,,,,,,,265,41.4234,0.0371847
,,,,,,,,,289,127.387,0.0322989
,,,,,,,,,314,82.605,0.0347845
,,,,,,,,,288,35.3398,0.128108
,,,,,,,,,313,66.8936,0.0842176
,,,,,,,,,339,65.482,0.103502
,,,,,,,,,338,92.0688,0.102619
,,,,,,,,,365,63.5857,0.13276
,,,,,,,,,392,48.8246,0.0862036
