"cellPairingIds","interplanarAngles","angleWeights"
8,59.5951,0.0480213
13,91.6919,0.0978023
26,108.392,0.118688
34,57.4889,0.0252933
43,87.816,0.132326
53,95.1119,0.156214
18,38.3391,0.0360349
25,61.9042,0.0267971
42,104.255,0.0175247
32,39.1597,0.0374279
41,101.041,0.0651369
87,85.3407,0.0351863
61,138.198,0.0178478
86,135.212,0.0436779
100,68.6827,0.026325
115,97.6914,0.0352708
85,38.5794,0.0788355
114,49.8192,0.0375644
130,49.7295,0.058871
113,43.2042,0.0234523
128,45.3533,0.0938029
163,54.5991,0.062043
181,52.2927,0.0668347
200,36.1969,0.0332733
