Q	U	V
{$V$}	{[mm$^3$]}	0.0140879
{$d_v$}	{[mm]}	0.299651
{$S_c$}	{[mm$^2$]}	0.459166
{$S_o$}	{[mm$^2$]}	0.352423
{$S_l/S_o$}	[]	0.302883
{$\Psi$}	[]	0.614344
{$\eta$}	[]	0.646259
{med($\theta_e$)}	{[$^\circ$]}	68.5089
{$\Upsilon$}	[]	13
{$\Xi$}	[]	14
