"cellPairingIds","interplanarAngles","angleWeights"
8,31.9585,0.0367709
13,51.0863,0.0313693
26,48.6106,0.0601568
103,117.47,0.0768915
18,60.0487,0.0244292
25,35.0017,0.0417253
88,100.678,0.026518
117,118.577,0.0453275
32,52.9204,0.034905
41,48.4562,0.0329354
51,30.6985,0.0330158
62,47.8942,0.0350558
116,93.722,0.030067
61,57.3859,0.0750743
86,61.9314,0.0465774
115,88.6545,0.0393317
85,38.3739,0.0753534
165,114.7,0.0870361
113,64.1957,0.0432732
164,66.0731,0.0557725
182,65.2365,0.061853
202,123.167,0.103596
181,51.9548,0.0283981
201,58.047,0.0383443
242,81.5674,0.0332949
265,59.2943,0.0425167
288,93.8627,0.0695118
