"cellPairingIds","interplanarAngles","angleWeights"
8,40.8008,0.0334049
13,46.9841,0.072642
19,72.1889,0.0344177
26,82.2906,0.0483149
34,75.8783,0.0231565
76,120.751,0.0558378
25,48.3895,0.027302
33,48.7959,0.035373
32,47.2931,0.0488811
51,87.3713,0.0289123
74,48.5607,0.0769189
116,66.1473,0.108823
50,74.931,0.0365107
73,35.5469,0.0434906
86,45.0366,0.0353489
166,80.7287,0.0278539
85,66.7186,0.0683236
130,45.6771,0.0615633
146,114.479,0.0258196
164,57.5166,0.0259018
203,121.923,0.0199876
163,81.4162,0.0844046
223,50.6938,0.0431992
201,54.2055,0.0587516
244,60.3217,0.0351562
289,73.9053,0.0403946
313,78.343,0.040596
