"cellPairingIds","interplanarAngles","angleWeights"
8,34.0726,0.041283
13,50.3145,0.0472445
19,76.0563,0.0438566
34,65.9235,0.0391664
43,71.7332,0.0628476
25,97.8161,0.0394601
33,40.045,0.0397096
52,49.5582,0.0541947
75,70.7949,0.0615216
32,43.338,0.0448722
51,45.2066,0.0399743
50,117.981,0.0420852
61,84.9352,0.0375219
100,146.42,0.0674172
131,108.473,0.0221863
166,85.7438,0.061358
185,106.57,0.0508244
114,35.5873,0.0681488
98,89.7866,0.0506045
224,92.4876,0.0446306
246,85.7843,0.0206558
145,40.5311,0.125898
268,68.2981,0.0257785
221,50.6754,0.0277891
266,90.5912,0.138692
290,86.3938,0.0944463
315,61.0166,0.0273265
313,45.0244,0.0267022
392,32.0142,0.0829683
450,38.8815,0.0241329
