Q	U	V
{$V$}	{[mm$^3$]}	0.00518914
{$d_v$}	{[mm]}	0.214799
{$S_c$}	{[mm$^2$]}	0.298523
{$S_o$}	{[mm$^2$]}	0.177749
{$S_l/S_o$}	[]	0.679464
{$\Psi$}	[]	0.485553
{$\eta$}	[]	0.544876
{med($\theta_e$)}	{[$^\circ$]}	98.6361
{$\Upsilon$}	[]	13
{$\Xi$}	[]	11
