Q	U	V
{$V$}	{[mm$^3$]}	0.00284512
{$d_v$}	{[mm]}	0.175806
{$S_c$}	{[mm$^2$]}	0.189158
{$S_o$}	{[mm$^2$]}	0.10341
{$S_l/S_o$}	[]	0.829204
{$\Psi$}	[]	0.513326
{$\eta$}	[]	0.573235
{med($\theta_e$)}	{[$^\circ$]}	83.63225
{$\Upsilon$}	[]	18
{$\Xi$}	[]	6
