Q	U	V
{$V$}	{[mm$^3$]}	0.00153537
{$d_v$}	{[mm]}	0.143132
{$S_c$}	{[mm$^2$]}	0.125391
{$S_o$}	{[mm$^2$]}	0.0683517
{$S_l/S_o$}	[]	0.834497
{$\Psi$}	[]	0.513286
{$\eta$}	[]	0.558960
{med($\theta_e$)}	{[$^\circ$]}	60.3135
{$\Upsilon$}	[]	12
{$\Xi$}	[]	8
