"cellPairingIds","interplanarAngles","angleWeights"
50,29.3703,0.0636162
73,54.2893,0.0124049
100,128.94,0.0372674
115,159.375,0.0324943
85,42.8186,0.0122314
114,134.968,0.0357443
130,164.963,0.0313303
163,143.456,0.0103293
200,35.84,0.0232386
