"cellPairingIds","interplanarAngles","angleWeights"
8,73.8262,0.105898
13,102.903,0.0542377
19,65.9475,0.0209363
26,64.6971,0.0422049
18,71.5122,0.0761096
25,125.727,0.0235485
42,112.446,0.061989
75,108.177,0.0941436
41,110.774,0.0365098
87,77.0968,0.0509777
101,97.5671,0.0327975
116,56.5726,0.0550951
50,39.9224,0.0176315
61,72.5726,0.0183645
115,61.4156,0.0167177
148,65.017,0.0169855
130,38.7,0.0279746
129,50.3795,0.0442295
183,34.4895,0.0307312
200,74.9043,0.0357484
221,26.2221,0.063965
243,48.2612,0.0369954
242,66.0254,0.0377255
265,45.2993,0.0263824
