facetNormals:0,facetNormals:1,facetNormals:2,FacetCenters:0,FacetCenters:1,FacetCenters:2,FacetIds,relFacetSize,absFacetSize,cellPairingIds,interplanarAngles,angleWeights
-0.166741,-0.690124,-0.633884,5.95201,4.60249,10.9684,1,0.0750088,0.0206879,8,40.8808,0.0951231
0.451611,-0.446669,-0.737254,6.0632,4.62208,10.9765,2,0.129978,0.0358487,13,66.5814,0.048385
-0.865061,0.0618539,-0.413048,5.89664,4.60417,11.0335,3,0.0357099,0.00984903,19,36.7361,0.0380389
0.166548,-0.953144,-0.193437,6.03851,4.58007,11.0404,4,0.0254803,0.00702764,26,112.268,0.0460679
0.813432,0.511382,-0.211001,6.13996,4.70821,11.0165,5,0.033242,0.00916835,34,104.001,0.0495553
-0.85754,0.419567,0.11823,5.89708,4.64581,11.0473,6,0.0369998,0.0102048,43,114.255,0.0486662
0.937154,0.110802,0.232305,6.13571,4.63393,11.1176,7,0.0360172,0.00993378,53,85.0927,0.0502466
0.689164,-0.583405,0.330386,6.11833,4.60823,11.111,8,0.0377758,0.0104188,64,76.118,0.095299
-0.589116,-0.579631,0.447459,5.93376,4.58874,11.1265,9,0.130637,0.0360304,76,157.007,0.0690778
0.492758,0.667121,0.445093,6.07948,4.68628,11.1417,10,0.064016,0.017656,89,93.2887,0.061791
0.267293,-0.626104,0.695153,6.03626,4.56487,11.1362,11,0.0525337,0.0144891,103,132.74,0.0433981
0.428184,0.00428483,0.879657,6.04506,4.62369,11.2066,12,0.0305314,0.00842074,118,147.546,0.0220055
-0.0752475,0.309105,0.936965,5.98876,4.68735,11.17,13,0.0128941,0.00355628,18,96.9909,0.0560271
,,,,,,,,,25,47.916,0.042608
,,,,,,,,,33,72.0833,0.0529436
,,,,,,,,,42,134.991,0.0576023
,,,,,,,,,52,77.6383,0.0564046
,,,,,,,,,63,69.4629,0.0585384
,,,,,,,,,75,111.624,0.130306
,,,,,,,,,88,116.143,0.0857827
,,,,,,,,,102,96.8012,0.074825
,,,,,,,,,117,118.691,0.0494476
,,,,,,,,,133,153.644,0.0234608
,,,,,,,,,32,97.464,0.0297401
,,,,,,,,,41,128.239,0.0344318
,,,,,,,,,51,38.9212,0.0363434
,,,,,,,,,62,164.541,0.0358629
,,,,,,,,,74,146.335,0.0367138
,,,,,,,,,87,71.3335,0.056088
,,,,,,,,,101,128.986,0.0458458
,,,,,,,,,116,126.586,0.0425181
,,,,,,,,,132,141.303,0.0329182
,,,,,,,,,149,108.576,0.0189469
,,,,,,,,,50,108.695,0.0288482
,,,,,,,,,61,126.574,0.0301781
,,,,,,,,,73,89.6694,0.0298461
,,,,,,,,,86,50.2278,0.0304331
,,,,,,,,,100,66.6331,0.0426432
,,,,,,,,,115,133.548,0.0364518
,,,,,,,,,131,58.1366,0.0343163
,,,,,,,,,148,96.1206,0.0277781
,,,,,,,,,166,120.014,0.0171232
,,,,,,,,,72,122.463,0.0350204
,,,,,,,,,85,36.3543,0.034574
,,,,,,,,,99,78.2549,0.0353642
,,,,,,,,,114,160.232,0.052998
,,,,,,,,,130,45.5809,0.0437603
,,,,,,,,,147,105.106,0.0407184
,,,,,,,,,165,80.1354,0.0318291
,,,,,,,,,184,95.9462,0.0185809
,,,,,,,,,98,141.307,0.0365019
,,,,,,,,,113,149.471,0.0373838
,,,,,,,,,129,69.6159,0.0576668
,,,,,,,,,146,95.7066,0.0468952
,,,,,,,,,164,115.96,0.0434192
,,,,,,,,,183,106.125,0.0334558
,,,,,,,,,203,71.3119,0.0191237
,,,,,,,,,128,45.2406,0.0368756
,,,,,,,,,145,124.123,0.0564664
,,,,,,,,,163,45.6808,0.0460982
,,,,,,,,,182,68.7572,0.0427351
,,,,,,,,,202,50.3976,0.0330482
,,,,,,,,,223,79.1274,0.0189899
,,,,,,,,,162,84.9211,0.058605
,,,,,,,,,181,83.8191,0.0475138
,,,,,,,,,201,33.6063,0.0439489
,,,,,,,,,222,51.6838,0.0337694
,,,,,,,,,244,85.3355,0.0192258
,,,,,,,,,200,122.693,0.0859257
,,,,,,,,,221,55.6093,0.0749338
,,,,,,,,,243,81.3127,0.0494951
,,,,,,,,,266,72.1912,0.0234715
,,,,,,,,,242,88.5339,0.0577092
,,,,,,,,,265,48.8985,0.0413443
,,,,,,,,,289,50.9973,0.0214648
,,,,,,,,,288,40.5531,0.0386185
,,,,,,,,,313,62.9597,0.020706
,,,,,,,,,338,34.9675,0.018131
