Q	U	V
{$V$}	{[mm$^3$]}	0.00359203
{$d_v$}	{[mm]}	0.190012
{$S_c$}	{[mm$^2$]}	0.21655
{$S_o$}	{[mm$^2$]}	0.133393
{$S_l/S_o$}	[]	0.623399
{$\Psi$}	[]	0.523784
{$\eta$}	[]	0.550427
{med($\theta_e$)}	{[$^\circ$]}	72.496
{$\Upsilon$}	[]	13
{$\Xi$}	[]	8
