facetNormals:0,facetNormals:1,facetNormals:2,FacetCenters:0,FacetCenters:1,FacetCenters:2,FacetIds,relFacetSize,absFacetSize,cellPairingIds,interplanarAngles,angleWeights
0.518495,0.0574843,-0.786096,2.60651,5.38088,13.8491,1,0.0839747,0.0343691,8,52.533,0.110123
-0.299426,0.171701,-0.864589,2.52767,5.35104,13.8323,2,0.159921,0.0654522,13,78.1499,0.0607808
-0.38171,-0.704978,-0.541791,2.51642,5.34806,13.8667,3,0.0476264,0.0194925,19,77.3262,0.0434451
-0.0142854,0.955511,-0.19644,2.58932,5.32867,13.8886,4,0.0293025,0.0119929,26,45.4245,0.0258162
0.958965,-0.110254,-0.207149,2.6152,5.3351,13.8412,5,0.0152526,0.00624259,34,54.5357,0.0663564
0.799733,0.528008,-0.105211,2.64543,5.40439,13.8595,6,0.0548488,0.0224485,43,60.7727,0.0318959
0.813453,-0.537324,-0.0757764,2.67007,5.24977,13.8759,7,0.0196868,0.00805739,53,98.3772,0.0658592
0.178362,0.859007,0.345318,2.59787,5.33771,13.9142,8,0.0541728,0.0221718,64,79.0271,0.0547839
0.894009,-0.148315,0.356371,2.67264,5.31474,13.8934,9,0.0406525,0.0166382,76,113.466,0.0872195
0.212549,-0.719422,0.52525,2.62357,5.27712,13.9325,10,0.0907253,0.037132,89,152.538,0.029998
-0.80007,-0.213124,0.471235,2.53725,5.393,13.899,11,0.0182606,0.0074737,103,96.1534,0.0442768
0.711864,0.271749,0.615409,2.65853,5.32868,13.911,12,0.0300643,0.0123047,118,147.726,0.0496633
-0.541728,0.461293,0.663965,2.48039,5.29411,13.9625,13,0.0352574,0.0144301,134,143.798,0.0577238
0.0378299,0.0414536,0.938831,2.55669,5.28061,13.9654,14,0.0439765,0.0179987,18,59.1673,0.0733949
,,,,,,,,,25,68.1393,0.0495296
,,,,,,,,,33,97.9408,0.0278491
,,,,,,,,,42,93.6949,0.0816825
,,,,,,,,,52,107.274,0.0350578
,,,,,,,,,63,103.471,0.0809305
,,,,,,,,,75,131.549,0.064826
,,,,,,,,,88,138.784,0.115772
,,,,,,,,,102,103.328,0.0327784
,,,,,,,,,117,140.008,0.0506135
,,,,,,,,,133,111.541,0.0577768
,,,,,,,,,150,158.73,0.0689833
,,,,,,,,,32,126.517,0.0362822
,,,,,,,,,41,100.622,0.0231056
,,,,,,,,,51,131.696,0.0509831
,,,,,,,,,62,83.363,0.0278581
,,,,,,,,,74,160.65,0.0506891
,,,,,,,,,87,117.137,0.043864
,,,,,,,,,101,80.8131,0.0624628
,,,,,,,,,116,77.448,0.0263994
,,,,,,,,,132,147.213,0.0368604
,,,,,,,,,149,120.516,0.040519
,,,,,,,,,167,127.367,0.0457288
,,,,,,,,,50,94.6663,0.0200623
,,,,,,,,,61,56.8909,0.038198
,,,,,,,,,73,122.328,0.0235509
,,,,,,,,,86,35.3328,0.0380328
,,,,,,,,,100,103.668,0.0340568
,,,,,,,,,115,152.661,0.0442977
,,,,,,,,,131,107.843,0.0224999
,,,,,,,,,148,82.2657,0.0296785
,,,,,,,,,166,70.4265,0.0320053
,,,,,,,,,185,99.1149,0.0351703
,,,,,,,,,72,39.8703,0.0238679
,,,,,,,,,85,27.6652,0.0171883
,,,,,,,,,99,89.7044,0.0238033
,,,,,,,,,114,33.6962,0.0221825
,,,,,,,,,130,78.8817,0.0261148
,,,,,,,,,147,153.45,0.0166216
,,,,,,,,,165,57.1017,0.0202379
,,,,,,,,,184,137.458,0.0212935
,,,,,,,,,204,100.096,0.0226496
,,,,,,,,,98,66.5727,0.028974
,,,,,,,,,113,51.9794,0.0545087
,,,,,,,,,129,50.3404,0.0466955
,,,,,,,,,146,107.477,0.0683662
,,,,,,,,,164,150.828,0.0273993
,,,,,,,,,183,46.6628,0.0388395
,,,,,,,,,203,106.058,0.0429233
,,,,,,,,,224,92.9481,0.0488146
,,,,,,,,,128,111.818,0.0288788
,,,,,,,,,145,35.0077,0.0265272
,,,,,,,,,163,54.527,0.0323531
,,,,,,,,,182,127.882,0.0189469
,,,,,,,,,202,66.205,0.0237932
,,,,,,,,,223,140.933,0.0252658
,,,,,,,,,245,93.9057,0.027198
,,,,,,,,,162,80.2733,0.0464488
,,,,,,,,,181,117.501,0.0678386
,,,,,,,,,201,100.459,0.0273141
,,,,,,,,,222,51.655,0.0386686
,,,,,,,,,244,54.8006,0.0427147
,,,,,,,,,267,65.5836,0.048545
,,,,,,,,,200,57.1363,0.0561466
,,,,,,,,,221,123.774,0.0252012
,,,,,,,,,243,31.2463,0.0345657
,,,,,,,,,266,109.485,0.0377632
,,,,,,,,,290,66.7011,0.0422492
,,,,,,,,,242,74.6608,0.0304021
,,,,,,,,,265,71.8741,0.0451627
,,,,,,,,,289,96.33,0.0507806
,,,,,,,,,314,56.8215,0.0592387
,,,,,,,,,288,111.201,0.0227209
,,,,,,,,,313,45.6602,0.02406
,,,,,,,,,339,63.2486,0.0258058
,,,,,,,,,338,81.0477,0.0324544
,,,,,,,,,365,48.036,0.0357134
,,,,,,,,,392,47.1924,0.0391372
