facetNormals:0,facetNormals:1,facetNormals:2,FacetCenters:0,FacetCenters:1,FacetCenters:2,FacetIds,relFacetSize,absFacetSize,cellPairingIds,interplanarAngles,angleWeights
-0.311227,-0.650807,-0.647894,4.47486,7.85067,10.813,1,0.0322116,0.0040629,8,41.6588,0.0295836
0.374479,-0.597416,-0.658522,4.47241,7.78345,10.8391,2,0.0273521,0.00344996,13,47.3824,0.0431805
-0.580608,0.0610907,-0.728422,4.46163,7.88493,10.8175,3,0.0654772,0.00825874,19,85.0469,0.0449757
0.209186,0.526533,-0.750939,4.44926,7.93978,10.8136,4,0.0744948,0.00939614,26,108.809,0.0517813
0.920985,0.239117,-0.212206,4.49979,7.87112,10.8629,5,0.13194,0.0166417,34,68.4029,0.044019
0.378841,-0.873355,0.163238,4.47337,7.80582,10.8652,6,0.0694917,0.0087651,43,81.1767,0.0507878
-0.912519,0.154078,0.0705167,4.49859,7.93006,10.8424,7,0.119979,0.0151332,53,154.199,0.0381913
0.114104,0.880052,0.343172,4.46264,7.9595,10.8786,8,0.0468973,0.00591523,64,79.6265,0.0425201
-0.649714,-0.464364,0.52152,4.50118,7.92145,10.8639,9,0.0625321,0.00788727,76,126.429,0.0448194
0.760429,-0.0858987,0.567922,4.49883,7.87711,10.9231,10,0.0736444,0.00928888,89,102.446,0.0240921
0.492049,-0.561484,0.646093,4.48575,7.81471,10.9129,11,0.0192419,0.00242701,103,117.941,0.0289591
-0.632209,0.303787,0.687065,4.51307,7.92185,10.9112,12,0.0263033,0.00331767,18,75.4828,0.0385857
,,,,,,,,,25,73.4654,0.0400128
,,,,,,,,,33,68.6921,0.0453109
,,,,,,,,,42,53.359,0.0392538
,,,,,,,,,52,122.431,0.0445484
,,,,,,,,,63,140.569,0.0345522
,,,,,,,,,75,109.642,0.0380575
,,,,,,,,,88,92.3629,0.0398891
,,,,,,,,,102,84.3224,0.0225912
,,,,,,,,,117,156.803,0.0268174
,,,,,,,,,32,58.5855,0.0696955
,,,,,,,,,41,113.683,0.0875207
,,,,,,,,,51,115.785,0.0674248
,,,,,,,,,62,55.7304,0.0847197
,,,,,,,,,74,107.187,0.0546512
,,,,,,,,,87,91.9969,0.0639708
,,,,,,,,,101,165.288,0.0693211
,,,,,,,,,116,149.071,0.0297432
,,,,,,,,,132,97.1983,0.0375301
,,,,,,,,,50,58.5922,0.0952245
,,,,,,,,,61,123.628,0.0719063
,,,,,,,,,73,100.741,0.091918
,,,,,,,,,86,75.1396,0.057559
,,,,,,,,,100,149.369,0.0679912
,,,,,,,,,115,110.41,0.0740671
,,,,,,,,,131,136.876,0.030584
,,,,,,,,,148,121.912,0.0388788
,,,,,,,,,72,83.5712,0.0910356
,,,,,,,,,85,154.775,0.125676
,,,,,,,,,99,74.832,0.0691984
,,,,,,,,,114,151.878,0.08485
,,,,,,,,,130,52.9869,0.0945269
,,,,,,,,,147,79.1125,0.0335857
,,,,,,,,,165,133.213,0.0438622
,,,,,,,,,98,121.527,0.0880089
,,,,,,,,,113,136.748,0.0560014
,,,,,,,,,129,74.6063,0.0658285
,,,,,,,,,146,60.3172,0.0715078
,,,,,,,,,164,34.8868,0.0301386
,,,,,,,,,183,114.46,0.0381619
,,,,,,,,,128,86.3853,0.0674355
,,,,,,,,,145,50.9166,0.0822147
,,,,,,,,,163,138.958,0.0912678
,,,,,,,,,182,122.322,0.0331649
,,,,,,,,,202,42.4723,0.0431473
,,,,,,,,,162,109.56,0.0535978
,,,,,,,,,181,76.8638,0.0573034
,,,,,,,,,201,103.31,0.0272877
,,,,,,,,,222,62.5256,0.0337033
,,,,,,,,,200,100.01,0.0676348
,,,,,,,,,221,72.8306,0.0294284
,,,,,,,,,243,47.8874,0.0370303
,,,,,,,,,242,32.9749,0.0305117
,,,,,,,,,265,97.1614,0.038762
,,,,,,,,,288,92.2313,0.0222252
