facetNormals:0,facetNormals:1,facetNormals:2,FacetCenters:0,FacetCenters:1,FacetCenters:2,FacetIds,relFacetSize,absFacetSize,cellPairingIds,interplanarAngles,angleWeights
-0.174827,0.18192,-0.943892,3.35596,4.6878,12.1159,1,0.0235172,0.00937141,8,43.0944,0.0301443
-0.172912,-0.519709,-0.802599,3.35544,4.61976,12.1118,2,0.041972,0.0167255,13,50.1483,0.0396714
0.581465,0.00374739,-0.721757,3.45517,4.67886,12.1365,3,0.12671,0.050493,19,39.2192,0.0298157
-0.738098,0.046038,-0.637305,3.32575,4.69596,12.1396,4,0.0407221,0.0162274,26,31.9335,0.0217826
-0.409098,0.588027,-0.676319,3.34826,4.78112,12.1368,5,0.0202863,0.00808392,34,85.7721,0.0360152
0.51995,-0.733037,-0.310137,3.33867,4.55687,12.1858,6,0.0768639,0.0306296,43,97.0154,0.0259668
-0.0156995,-0.980033,-0.0618156,3.36113,4.58786,12.1949,7,0.0289861,0.0115507,53,98.1349,0.0296834
0.959973,0.0977249,-0.0176112,3.34109,4.64448,12.1996,8,0.0402323,0.0160322,64,82.1951,0.042346
-0.794865,0.365494,0.0939814,3.27045,4.64786,12.2189,9,0.212409,0.0846435,76,97.1365,0.0304614
-0.628375,-0.690658,0.104092,3.31599,4.63611,12.2272,10,0.0432249,0.0172248,89,86.0042,0.0249402
0.196031,0.962425,0.0781138,3.42557,4.78705,12.2083,11,0.0265466,0.0105786,103,115.591,0.0373816
0.252623,0.752777,0.523544,3.43341,4.78242,12.2618,12,0.0910727,0.0362917,118,146.549,0.0157415
-0.367816,-0.297564,0.853831,3.3533,4.71088,12.2808,13,0.01183,0.00471416,18,58.0341,0.0630568
,,,,,,,,,25,49.5689,0.0413376
,,,,,,,,,33,71.2344,0.0273524
,,,,,,,,,42,54.2312,0.0542955
,,,,,,,,,52,53.945,0.0342908
,,,,,,,,,63,102.48,0.0410837
,,,,,,,,,75,98.6059,0.0700935
,,,,,,,,,88,65.122,0.0425892
,,,,,,,,,102,128.56,0.0325229
,,,,,,,,,117,157.709,0.0574619
,,,,,,,,,133,119.498,0.0184576
,,,,,,,,,32,88.0383,0.0616358
,,,,,,,,,41,73.949,0.0349734
,,,,,,,,,51,53.5578,0.0956845
,,,,,,,,,62,87.9971,0.0471795
,,,,,,,,,74,50.309,0.061073
,,,,,,,,,87,130.408,0.158731
,,,,,,,,,101,120.587,0.0644603
,,,,,,,,,116,86.1566,0.0438965
,,,,,,,,,132,105,0.105976
,,,,,,,,,149,156.747,0.0216397
,,,,,,,,,50,37.7899,0.0270815
,,,,,,,,,61,103.703,0.0532387
,,,,,,,,,73,89.6495,0.0338662
,,,,,,,,,86,137.337,0.0404757
,,,,,,,,,100,50.7394,0.068342
,,,,,,,,,115,66.5046,0.0419362
,,,,,,,,,131,98.9814,0.0321407
,,,,,,,,,148,121.523,0.0562795
,,,,,,,,,166,107.488,0.0183339
,,,,,,,,,72,117.605,0.0321005
,,,,,,,,,85,123.078,0.0238682
,,,,,,,,,99,109.882,0.0269723
,,,,,,,,,114,56.6511,0.0370355
,,,,,,,,,130,103.716,0.0276132
,,,,,,,,,147,63.5135,0.022998
,,,,,,,,,165,90.9037,0.0331815
,,,,,,,,,184,128.753,0.0149449
,,,,,,,,,98,38.6301,0.042097
,,,,,,,,,113,61.8439,0.0528183
,,,,,,,,,129,148.12,0.11288
,,,,,,,,,146,80.51,0.055333
,,,,,,,,,164,132.082,0.0394635
,,,,,,,,,183,130.133,0.0833672
,,,,,,,,,203,104.855,0.0205042
,,,,,,,,,128,96.6496,0.0336956
,,,,,,,,,145,114.003,0.0510111
,,,,,,,,,163,42.4994,0.0347017
,,,,,,,,,182,169.39,0.0277128
,,,,,,,,,202,145.966,0.0439759
,,,,,,,,,223,75.2169,0.0168025
,,,,,,,,,162,149.143,0.0676508
,,,,,,,,,181,137.879,0.0416749
,,,,,,,,,201,72.8205,0.031987
,,,,,,,,,222,70.4699,0.0558099
,,,,,,,,,244,114.938,0.0182838
,,,,,,,,,200,71.9005,0.0718321
,,,,,,,,,221,76.4391,0.0471948
,,,,,,,,,243,81.5111,0.127485
,,,,,,,,,266,72.1099,0.0224118
,,,,,,,,,242,147.389,0.0328923
,,,,,,,,,265,134.306,0.0586252
,,,,,,,,,289,55.0392,0.018576
,,,,,,,,,288,29.5876,0.04111
,,,,,,,,,313,107.661,0.0163665
,,,,,,,,,338,81.9445,0.02094
