facetNormals:0,facetNormals:1,facetNormals:2,FacetCenters:0,FacetCenters:1,FacetCenters:2,FacetIds,relFacetSize,absFacetSize,cellPairingIds,interplanarAngles,angleWeights
0.521147,-0.0396482,-0.823815,5.45335,4.96972,14.2136,1,0.0493488,0.00754961,8,74.2716,0.050679
-0.627627,-0.237033,-0.695961,5.40511,4.97918,14.2416,2,0.0520829,0.00796788,13,44.7031,0.0592016
0.372675,0.646643,-0.603026,5.4224,5.03457,14.2166,3,0.0739703,0.0113163,19,30.0221,0.0511874
0.847841,-0.12082,-0.449674,5.49752,4.95963,14.2801,4,0.0531683,0.00813392,26,37.412,0.0503836
0.790981,0.383655,-0.444892,5.4836,5.00006,14.2579,5,0.0514627,0.007873,34,73.1581,0.074011
-0.0753038,-0.884712,-0.330092,5.45602,4.89972,14.2854,6,0.147949,0.0226339,43,71.4668,0.0212515
0.943972,0.159132,0.219776,5.52876,4.93338,14.3147,7,0.0135415,0.00207164,53,115.428,0.0664774
-0.435823,0.817595,0.163333,5.39698,5.05741,14.2943,8,0.101817,0.0155765,64,143.593,0.0752907
-0.728012,-0.405474,0.471591,5.39053,4.94487,14.3227,9,0.158736,0.0242841,76,155.211,0.0278774
-0.412472,0.441885,0.771937,5.40071,5.01591,14.339,10,0.0194255,0.0029718,89,147.356,0.0474026
0.00555257,0.0238294,0.958388,5.45127,4.95955,14.3888,11,0.0456042,0.00697673,18,87.9916,0.0611264
,,,,,,,,,25,101.757,0.05262
,,,,,,,,,33,106.955,0.0517709
,,,,,,,,,42,57.8934,0.0770438
,,,,,,,,,52,145.57,0.0214944
,,,,,,,,,63,92.1385,0.068914
,,,,,,,,,75,75.9426,0.0784315
,,,,,,,,,88,113.842,0.028297
,,,,,,,,,102,136.851,0.0486287
,,,,,,,,,32,56.741,0.0618675
,,,,,,,,,41,30.9069,0.0606971
,,,,,,,,,51,116.186,0.098629
,,,,,,,,,62,70.0107,0.0228922
,,,,,,,,,74,72.7441,0.0856882
,,,,,,,,,87,152.902,0.100915
,,,,,,,,,101,110.761,0.0307703
,,,,,,,,,116,127.536,0.0564226
,,,,,,,,,50,30.1236,0.0523016
,,,,,,,,,61,77.9379,0.0782249
,,,,,,,,,73,44.0983,0.0215853
,,,,,,,,,86,126.535,0.0698575
,,,,,,,,,100,147.406,0.0796559
,,,,,,,,,115,142.285,0.0284548
,,,,,,,,,131,117.565,0.0490966
,,,,,,,,,72,105.673,0.0763632
,,,,,,,,,85,42.8102,0.0214411
,,,,,,,,,99,96.4245,0.0683689
,,,,,,,,,114,176.094,0.0777263
,,,,,,,,,130,121.181,0.0282046
,,,,,,,,,147,115.917,0.0483566
,,,,,,,,,98,107.799,0.024812
,,,,,,,,,113,146.649,0.120623
,,,,,,,,,129,73.4821,0.153153
,,,,,,,,,146,131.44,0.0343419
,,,,,,,,,164,111.84,0.0697182
,,,,,,,,,128,105.401,0.0239038
,,,,,,,,,145,133.562,0.0249541
,,,,,,,,,163,98.9244,0.0159584
,,,,,,,,,182,76.5097,0.0208823
,,,,,,,,,162,86.0026,0.12406
,,,,,,,,,181,43.6758,0.0326263
,,,,,,,,,201,78.9028,0.0629934
,,,,,,,,,200,58.8831,0.0346149
,,,,,,,,,221,61.4821,0.0708526
,,,,,,,,,242,37.2655,0.0272455
