"cellPairingIds","interplanarAngles","angleWeights"
8,41.1534,0.0214781
13,33.3955,0.0582178
19,61.1136,0.0535684
26,64.9337,0.0522626
43,85.845,0.0180867
25,37.6258,0.0268553
33,68.7386,0.0265231
42,40.7398,0.022113
32,65.2138,0.127315
62,74.3698,0.022484
101,94.4496,0.130985
61,59.8433,0.0577
100,71.5684,0.10997
115,99.4038,0.109586
72,63.5103,0.0561878
85,75.9944,0.0215363
99,58.5597,0.0493277
147,72.1303,0.0850229
129,78.2504,0.0585513
164,74.4874,0.0518651
128,50.2872,0.0177218
163,82.0077,0.0218595
181,96.5364,0.0510567
201,43.5654,0.0459645
200,58.4276,0.112698
221,73.9802,0.0905541
242,95.5212,0.0902932
