"cellPairingIds","interplanarAngles","angleWeights"
8,25.1758,0.023552
13,34.5125,0.0283922
19,43.5075,0.0315787
64,58.9638,0.0566392
18,49.5771,0.019898
25,48.0252,0.0214122
33,27.198,0.019236
52,37.8611,0.0310719
88,65.8951,0.0281765
62,58.2047,0.040088
74,56.2704,0.0330684
87,59.1878,0.0392885
116,76.1189,0.0307833
50,36.072,0.0242756
100,60.8822,0.0456649
115,52.4276,0.0404888
148,107.91,0.0345341
130,39.1832,0.0333535
128,37.8902,0.0821868
163,77.5298,0.0982385
202,149.972,0.0692615
201,108.177,0.0507424
222,133.637,0.0506758
221,36.553,0.0670252
243,96.4075,0.0669092
265,88.4736,0.0563533
288,74.2052,0.0455
