Q	U	V
{$V$}	{[mm$^3$]}	0.00735742
{$d_v$}	{[mm]}	0.241310
{$S_c$}	{[mm$^2$]}	0.343146
{$S_o$}	{[mm$^2$]}	0.20649
{$S_l/S_o$}	[]	0.661804
{$\Psi$}	[]	0.533117
{$\eta$}	[]	0.583000
{med($\theta_e$)}	{[$^\circ$]}	82.11955
{$\Upsilon$}	[]	14
{$\Xi$}	[]	5
