facetNormals:0,facetNormals:1,facetNormals:2,FacetCenters:0,FacetCenters:1,FacetCenters:2,FacetIds,relFacetSize,absFacetSize,cellPairingIds,interplanarAngles,angleWeights
0.268576,-0.255471,-0.926546,5.26573,5.20699,13.2101,1,0.0106051,0.000551638,8,40.2967,0.0188805
-0.407002,-0.229488,-0.855353,5.23628,5.23103,13.2263,2,0.0859453,0.00447055,13,29.5939,0.0193358
0.681947,-0.276167,-0.638594,5.31392,5.22953,13.2216,3,0.109397,0.00569042,19,64.2616,0.0193608
0.23893,0.738563,-0.590588,5.26758,5.31147,13.2159,4,0.111022,0.00577494,26,78.8288,0.0129884
-0.54505,0.619799,-0.534021,5.22009,5.30304,13.2345,5,0.0167535,0.000871453,34,50.5495,0.0166155
0.788146,0.286719,-0.529323,5.31608,5.21562,13.2262,6,0.0383503,0.00199484,43,60.007,0.0181344
0.94789,0.0189898,-0.259742,5.3279,5.20795,13.2537,7,0.0625245,0.00325229,53,97.1947,0.01084
-0.698991,0.66487,-0.251458,5.21458,5.32224,13.2389,8,0.0110854,0.000576623,64,77.5158,0.0196975
-0.817632,-0.400742,-0.35397,5.23114,5.23881,13.2226,9,0.138092,0.00718301,76,111.12,0.0159522
-0.927921,0.26089,0.0333855,5.20681,5.29933,13.2497,10,0.0321742,0.00167358,89,101.42,0.00890078
0.410064,0.887417,0.0834085,5.27856,5.30231,13.2398,11,0.0076684,0.000398881,103,102.365,0.0156781
-0.753698,-0.608282,0.176306,5.26917,5.1756,13.2439,12,0.0300551,0.00156335,118,95.93,0.0174561
-0.292219,-0.890201,0.26922,5.29747,5.16561,13.2618,13,0.0493118,0.00256501,134,137.707,0.00571142
-0.640855,0.613601,0.430873,5.25968,5.19281,13.2763,14,0.00390806,0.000203283,151,136.81,0.0083672
0.407012,0.483249,0.7621,5.28669,5.28011,13.2456,15,0.00690921,0.000359391,169,133.683,0.00887698
-0.533709,-0.442481,0.700385,5.28735,5.18126,13.2793,16,0.00763314,0.000397047,188,129.4,0.0105652
0.505267,-0.0643051,0.829858,5.22036,5.29376,13.2503,17,0.0105255,0.000547497,208,179.267,0.00859304
-0.258224,0.258847,0.892676,5.20279,5.29023,13.2046,18,0.0072227,0.000375697,229,153.142,0.0057112
0.0863684,-0.0359451,1.00024,5.20823,5.27141,13.2037,19,0.00390786,0.000203272,18,69.5313,0.0962635
,,,,,,,,,25,75.475,0.0968873
,,,,,,,,,33,55.9574,0.0280409
,,,,,,,,,42,86.0739,0.0530353
,,,,,,,,,52,100.098,0.0723876
,,,,,,,,,63,69.0768,0.0196379
,,,,,,,,,75,40.1772,0.10595
,,,,,,,,,88,72.0799,0.0468208
,,,,,,,,,102,117.523,0.0140805
,,,,,,,,,117,72.06,0.044536
,,,,,,,,,133,84.3861,0.0626676
,,,,,,,,,150,104.983,0.00747617
,,,,,,,,,168,164.206,0.0127902
,,,,,,,,,187,106.968,0.014021
,,,,,,,,,207,161.64,0.0187542
,,,,,,,,,228,139.775,0.0133255
,,,,,,,,,250,154.325,0.00747579
,,,,,,,,,32,69.285,0.110203
,,,,,,,,,41,102.166,0.0290571
,,,,,,,,,51,34.4946,0.0567916
,,,,,,,,,62,32.5741,0.0795711
,,,,,,,,,74,120.965,0.020131
,,,,,,,,,87,103.418,0.122081
,,,,,,,,,101,140.608,0.0497243
,,,,,,,,,116,91.1208,0.0143322
,,,,,,,,,132,118.564,0.0471551
,,,,,,,,,149,97.5847,0.0679807
,,,,,,,,,167,156.563,0.00754654
,,,,,,,,,186,110.806,0.0129975
,,,,,,,,,206,135.862,0.0142706
,,,,,,,,,227,100.178,0.0192034
,,,,,,,,,249,150.461,0.0135507
,,,,,,,,,272,125.614,0.00754615
,,,,,,,,,50,47.8938,0.0291136
,,,,,,,,,61,42.5442,0.0570082
,,,,,,,,,73,65.7432,0.0799969
,,,,,,,,,86,60.9241,0.0201581
,,,,,,,,,100,107.232,0.123086
,,,,,,,,,115,92.97,0.0498902
,,,,,,,,,131,42.626,0.0143459
,,,,,,,,,148,139.805,0.0473043
,,,,,,,,,166,158.766,0.0682912
,,,,,,,,,185,87.2835,0.00755035
,,,,,,,,,205,89.7585,0.0130088
,,,,,,,,,226,154.553,0.0142842
,,,,,,,,,248,116.036,0.0192281
,,,,,,,,,271,115.006,0.013563
,,,,,,,,,295,127.51,0.00754996
,,,,,,,,,72,88.1897,0.0233197
,,,,,,,,,85,112.266,0.0264261
,,,,,,,,,99,18.873,0.0133425
,,,,,,,,,114,66.2823,0.0298817
,,,,,,,,,130,46.7513,0.0220337
,,,,,,,,,147,73.0015,0.0105211
,,,,,,,,,165,93.5759,0.0215143
,,,,,,,,,184,124.025,0.0250099
,,,,,,,,,204,58.9919,0.00633773
,,,,,,,,,225,109.778,0.00978361
,,,,,,,,,247,111.647,0.0104879
,,,,,,,,,270,142.403,0.0129286
,,,,,,,,,294,100.667,0.0100938
,,,,,,,,,319,127.668,0.00633746
,,,,,,,,,98,24.0884,0.0475407
,,,,,,,,,113,103.283,0.0171993
,,,,,,,,,129,126.18,0.0600294
,,,,,,,,,146,134.818,0.0349918
,,,,,,,,,164,56.752,0.0127811
,,,,,,,,,183,151.963,0.0336997
,,,,,,,,,203,130.513,0.0431457
,,,,,,,,,224,124.726,0.00709329
,,,,,,,,,246,86.7334,0.0117089
,,,,,,,,,269,159.971,0.0127321
,,,,,,,,,293,93.5312,0.0165176
,,,,,,,,,318,128.981,0.012156
,,,,,,,,,344,118.257,0.00709295
,,,,,,,,,128,126.624,0.018832
,,,,,,,,,145,135.99,0.0860759
,,,,,,,,,163,158.692,0.0424858
,,,,,,,,,182,66.5452,0.0136613
,,,,,,,,,202,142.892,0.040596
,,,,,,,,,223,112.313,0.0551377
,,,,,,,,,245,136.88,0.00735632
,,,,,,,,,268,78.3185,0.0124434
,,,,,,,,,292,135.946,0.0136053
,,,,,,,,,317,74.1035,0.0180179
,,,,,,,,,343,119.832,0.0129495
,,,,,,,,,370,100.421,0.00735596
,,,,,,,,,162,66.1322,0.0205234
,,,,,,,,,181,32.1953,0.0164895
,,,,,,,,,201,73.2181,0.00906562
,,,,,,,,,222,85.4377,0.0161969
,,,,,,,,,244,117.936,0.0181016
,,,,,,,,,267,40.5127,0.00577885
,,,,,,,,,291,99.0265,0.00851271
,,,,,,,,,316,95.6809,0.00904094
,,,,,,,,,342,128.524,0.0107982
,,,,,,,,,369,82.3438,0.00874658
,,,,,,,,,397,109.589,0.00577862
,,,,,,,,,200,47.0226,0.0521889
,,,,,,,,,221,138.731,0.0145299
,,,,,,,,,243,33.9706,0.0493659
,,,,,,,,,266,58.3049,0.0726726
,,,,,,,,,290,82.5121,0.00760101
,,,,,,,,,315,145.414,0.01316
,,,,,,,,,341,67.6704,0.0144666
,,,,,,,,,368,135.726,0.0195601
,,,,,,,,,396,102.787,0.0137274
,,,,,,,,,425,114.71,0.00760062
,,,,,,,,,242,98.8881,0.012385
,,,,,,,,,265,54.8553,0.0310786
,,,,,,,,,289,87.0798,0.0389409
,,,,,,,,,314,36.0496,0.00696956
,,,,,,,,,340,103.702,0.0113756
,,,,,,,,,367,64.9004,0.0123389
,,,,,,,,,395,119.184,0.0158619
,,,,,,,,,424,68.7673,0.0117971
,,,,,,,,,454,93.3209,0.00696923
,,,,,,,,,288,149.726,0.0122192
,,,,,,,,,313,158.087,0.0132728
,,,,,,,,,339,70.8366,0.00517751
,,,,,,,,,366,47.2487,0.00726904
,,,,,,,,,394,124.893,0.00765073
,,,,,,,,,423,76.7265,0.00887262
,,,,,,,,,453,77.9074,0.00743888
,,,,,,,,,484,84.9392,0.00517732
,,,,,,,,,338,32.5216,0.0373473
,,,,,,,,,365,78.9725,0.00691674
,,,,,,,,,393,118.589,0.0112355
,,,,,,,,,422,34.9814,0.0121744
,,,,,,,,,452,101.762,0.015591
,,,,,,,,,483,78.1782,0.0116466
,,,,,,,,,515,82.2645,0.00691642
,,,,,,,,,392,104.636,0.00724217
,,,,,,,,,421,110.88,0.0121202
,,,,,,,,,451,39.7694,0.0132199
,,,,,,,,,482,81.9448,0.0173481
,,,,,,,,,514,84.7922,0.0125999
,,,,,,,,,547,73.6283,0.00724181
,,,,,,,,,450,68.1085,0.00499232
,,,,,,,,,481,67.4792,0.00516944
,,,,,,,,,513,90.3399,0.00569982
,,,,,,,,,546,41.8319,0.00507185
,,,,,,,,,580,69.0946,0.00390796
,,,,,,,,,512,83.9566,0.00725316
,,,,,,,,,545,33.1516,0.00834231
,,,,,,,,,579,42.8334,0.00706248
,,,,,,,,,614,38.3367,0.00499215
,,,,,,,,,578,69.2472,0.00884898
,,,,,,,,,613,46.9869,0.00742225
,,,,,,,,,649,47.381,0.00516926
,,,,,,,,,648,50.7981,0.00856679
,,,,,,,,,685,26.4217,0.0056996
,,,,,,,,,722,27.2832,0.00507167
