"cellPairingIds","interplanarAngles","angleWeights"
8,55.395,0.00512645
19,63.5166,0.0402244
34,67.4992,0.0654961
43,73.355,0.0279056
18,39.656,0.00331345
25,78.9454,0.00506062
42,89.2357,0.00531881
117,101.983,0.00535684
32,54.2573,0.00759913
132,106.579,0.00828729
149,93.5782,0.0074435
73,106.419,0.0260602
86,56.7116,0.0550616
166,90.4001,0.0331681
98,39.007,0.034746
146,45.4632,0.0974662
183,84.6449,0.145383
128,60.4346,0.0343216
163,30.2593,0.0324391
181,74.5691,0.0941989
244,79.8509,0.0478174
265,71.7825,0.112043
289,91.1712,0.0442404
338,63.4508,0.0520232
