"cellPairingIds","interplanarAngles","angleWeights"
18,32.6569,0.0250509
25,92.9659,0.016844
42,27.893,0.0318971
52,72.9082,0.0199166
32,115.885,0.0188831
41,59.7268,0.0363043
51,34.9818,0.0400968
116,91.6969,0.0462568
186,84.618,0.0462867
227,94.5492,0.0366751
50,76.6567,0.0212791
73,50.9439,0.0158108
131,96.2122,0.0243498
320,106.032,0.020866
147,52.104,0.0638746
98,80.8603,0.0283846
113,28.5731,0.0537822
246,56.6154,0.076708
128,55.0938,0.0267007
268,82.6875,0.0313527
343,104.058,0.0264089
398,101.288,0.0257959
291,48.6552,0.065538
423,75.6826,0.0650312
516,82.6156,0.0602921
545,52.8198,0.0650903
579,36.6548,0.0638073
648,25.2521,0.0468731
723,43.7374,0.0449763
761,34.3003,0.0443599
