"cellPairingIds","interplanarAngles","angleWeights"
8,35.9183,0.0383231
13,48.2742,0.0656451
19,66.5544,0.0495035
26,67.8951,0.0298031
34,63.9624,0.0965335
25,81.1766,0.0320621
42,73.2701,0.046843
63,70.0268,0.0190283
75,85.7944,0.0285673
150,140.228,0.0383261
41,35.9409,0.0296896
51,50.3761,0.0953523
101,58.5445,0.04869
50,54.3173,0.0258739
73,44.6668,0.0569674
148,65.4552,0.0353694
185,92.5494,0.0495085
85,38.8546,0.0323553
130,66.7412,0.0257346
147,48.3138,0.0217617
113,60.3833,0.0271602
146,53.5037,0.0638416
203,50.7294,0.0970833
182,40.2853,0.04023
202,32.3227,0.0487073
162,30.9484,0.0198115
244,62.8667,0.024093
266,73.3187,0.0417405
290,72.0084,0.0416421
242,44.6223,0.03048
289,28.2853,0.0491374
314,91.2304,0.0490011
288,42.4326,0.0281087
339,65.3726,0.0363614
365,36.5051,0.0431491
392,86.3762,0.06647
