Q	U	V
{$V$}	{[mm$^3$]}	0.0124896
{$d_v$}	{[mm]}	0.287861
{$S_c$}	{[mm$^2$]}	0.570115
{$S_o$}	{[mm$^2$]}	0.346849
{$S_l/S_o$}	[]	0.643698
{$\Psi$}	[]	0.456619
{$\eta$}	[]	0.467707
{med($\theta_e$)}	{[$^\circ$]}	68.7895
{$\Upsilon$}	[]	12
{$\Xi$}	[]	11
