Q	U	V
{$V$}	{[mm$^3$]}	0.00456098
{$d_v$}	{[mm]}	0.205756
{$S_c$}	{[mm$^2$]}	0.242366
{$S_o$}	{[mm$^2$]}	0.143372
{$S_l/S_o$}	[]	0.690470
{$\Psi$}	[]	0.548763
{$\eta$}	[]	0.598591
{med($\theta_e$)}	{[$^\circ$]}	80.2034
{$\Upsilon$}	[]	12
{$\Xi$}	[]	5
