facetNormals:0,facetNormals:1,facetNormals:2,FacetCenters:0,FacetCenters:1,FacetCenters:2,FacetIds,relFacetSize,absFacetSize,cellPairingIds,interplanarAngles,angleWeights
0.443525,0.486114,-0.689833,5.83786,4.30105,13.2336,1,0.11292,0.0297246,8,71.6991,0.119404
0.045406,-0.541583,-0.756778,5.7851,4.14304,13.239,2,0.126679,0.0333465,13,59.8656,0.113196
-0.484934,0.271595,-0.791326,5.68767,4.25255,13.2303,3,0.113473,0.0298704,19,87.6529,0.0306523
-0.851252,0.287698,-0.400247,5.66735,4.27872,13.2702,4,0.017733,0.00466797,26,57.1375,0.0422152
-0.184159,0.945406,-0.188143,5.73881,4.33709,13.2836,5,0.0259602,0.00683367,34,95.0955,0.0618742
0.583738,-0.756015,-0.0400965,5.82258,4.10829,13.3204,6,0.0426115,0.0112169,43,84.2231,0.0523007
-0.437439,0.825923,0.168655,5.69537,4.32852,13.3226,7,0.0340315,0.00895833,53,130.062,0.108388
-0.601973,-0.732211,-0.0582864,5.6832,4.11937,13.3253,8,0.104207,0.027431,64,135.726,0.0553659
0.0515215,-0.889646,0.355646,5.73966,4.09486,13.3581,9,0.0366737,0.00965385,76,128.324,0.0599239
-0.777235,0.273405,0.534694,5.63934,4.24893,13.381,10,0.0407833,0.0107357,89,102.106,0.0425831
0.725422,-0.164333,0.63384,5.88182,4.2232,13.2756,11,0.026239,0.00690707,103,150.068,0.0686256
-0.797301,-0.161988,0.54823,5.65028,4.17299,13.4003,12,0.0492907,0.0129751,118,131.404,0.0258753
0.310539,-0.309829,0.880281,5.85462,4.29362,13.3062,13,0.0146118,0.00384635,134,115.828,0.0547377
-0.216415,0.499435,0.790847,5.73328,4.33873,13.3424,14,0.0361245,0.00950928,18,61.5118,0.119713
,,,,,,,,,25,83.2052,0.031111
,,,,,,,,,33,114.418,0.04309
,,,,,,,,,42,58.432,0.0637718
,,,,,,,,,52,132.237,0.0536502
,,,,,,,,,63,62.152,0.114349
,,,,,,,,,75,76.0831,0.0568804
,,,,,,,,,88,129.981,0.0617021
,,,,,,,,,102,113.135,0.0434734
,,,,,,,,,117,113.423,0.0709678
,,,,,,,,,133,121.903,0.0262013
,,,,,,,,,150,169.253,0.0562176
,,,,,,,,,32,31.8881,0.0306726
,,,,,,,,,41,58.5638,0.0422537
,,,,,,,,,51,119.603,0.061957
,,,,,,,,,62,70.7367,0.0523599
,,,,,,,,,74,81.2834,0.108643
,,,,,,,,,87,126.204,0.0554322
,,,,,,,,,101,88.3079,0.0600016
,,,,,,,,,116,161.85,0.0426223
,,,,,,,,,132,95.5155,0.0687275
,,,,,,,,,149,168.301,0.0258897
,,,,,,,,,167,114.516,0.0548025
,,,,,,,,,50,58.5232,0.021072
,,,,,,,,,61,137.957,0.0250439
,,,,,,,,,73,54.5005,0.0233164
,,,,,,,,,86,69.6342,0.0303084
,,,,,,,,,100,117.935,0.0239064
,,,,,,,,,115,56.9959,0.0247183
,,,,,,,,,131,162.841,0.0211633
,,,,,,,,,148,64.6832,0.0260825
,,,,,,,,,166,136.849,0.0160218
,,,,,,,,,185,89.3098,0.0237885
,,,,,,,,,72,150.27,0.0322641
,,,,,,,,,85,27.1054,0.0294529
,,,,,,,,,99,127.736,0.0415655
,,,,,,,,,114,166.998,0.0304007
,,,,,,,,,130,71.8033,0.0317257
,,,,,,,,,147,115.191,0.0260989
,,,,,,,,,165,96.5281,0.0340088
,,,,,,,,,184,122.297,0.0186988
,,,,,,,,,204,67.3238,0.0302103
,,,,,,,,,98,167.539,0.0378412
,,,,,,,,,113,76.9822,0.0604885
,,,,,,,,,129,41.3663,0.0394203
,,,,,,,,,146,136.564,0.0416774
,,,,,,,,,164,56.01,0.0324786
,,,,,,,,,183,112.899,0.0457084
,,,,,,,,,203,66.1479,0.0217614
,,,,,,,,,224,125.703,0.0391008
,,,,,,,,,128,112.92,0.0513072
,,,,,,,,,145,139.931,0.0353032
,,,,,,,,,163,45.3134,0.0371028
,,,,,,,,,182,111.899,0.0296315
,,,,,,,,,202,70.733,0.0402638
,,,,,,,,,223,105.097,0.0204452
,,,,,,,,,245,45.3701,0.0350468
,,,,,,,,,162,48.8449,0.0542537
,,,,,,,,,181,75.3117,0.0586233
,,,,,,,,,201,112.376,0.0419222
,,,,,,,,,222,52.5445,0.0669252
,,,,,,,,,244,90.6984,0.0256297
,,,,,,,,,267,107.984,0.0536504
,,,,,,,,,200,95.6704,0.0386195
,,,,,,,,,221,64.1386,0.030591
,,,,,,,,,243,71.5432,0.0420563
,,,,,,,,,266,50.1487,0.0208974
,,,,,,,,,290,100.901,0.036397
,,,,,,,,,242,106.328,0.0319331
,,,,,,,,,265,25.6661,0.0446353
,,,,,,,,,289,81.3907,0.0215151
,,,,,,,,,314,39.5012,0.0383128
,,,,,,,,,288,102.302,0.0342472
,,,,,,,,,313,29.7879,0.0187707
,,,,,,,,,339,73.7711,0.0303983
,,,,,,,,,338,72.8085,0.0225413
,,,,,,,,,365,56.1085,0.0416928
,,,,,,,,,392,59.8526,0.0208073
