facetNormals:0,facetNormals:1,facetNormals:2,FacetCenters:0,FacetCenters:1,FacetCenters:2,FacetIds,relFacetSize,absFacetSize,cellPairingIds,interplanarAngles,angleWeights
0.488201,-0.431561,-0.667163,4.90582,4.82874,11.718,1,0.0734374,0.0350747,8,62.7711,0.0325897
-0.490156,-0.286587,-0.801498,4.76191,4.81043,11.6933,2,0.0209415,0.010002,13,67.4067,0.10065
0.328419,0.592495,-0.645413,4.79132,4.91927,11.6709,3,0.159905,0.0763729,19,108.114,0.0332278
-0.789152,0.379242,-0.403762,4.70833,4.90868,11.7584,4,0.0214714,0.010255,26,103.315,0.0788464
0.260689,0.928328,-0.0977296,4.82707,4.97,11.7796,5,0.0851155,0.0406524,34,128.178,0.0211918
-0.672899,0.710907,-0.101939,4.69184,4.92959,11.7744,6,0.0123825,0.00591407,43,85.7003,0.0879927
-0.513769,-0.782396,0.031998,4.73042,4.83592,11.7329,7,0.109744,0.0524154,53,75.0421,0.0321842
0.915893,0.287824,0.134279,4.96212,4.90066,11.877,8,0.0206078,0.00984259,64,120.432,0.0529279
-0.639423,-0.493858,0.539328,4.69155,4.88239,11.7676,9,0.0413732,0.0197605,76,149.659,0.0808803
-0.799042,0.13823,0.437319,4.70251,4.91448,11.8147,10,0.090002,0.0429862,89,96.7318,0.0197057
0.459698,-0.411561,0.763451,4.96252,4.85022,11.8408,11,0.0113796,0.00543507,103,136.291,0.0806886
0.163464,0.301111,0.863771,4.86275,4.92163,11.9208,12,0.0895286,0.0427602,18,78.2905,0.0370331
,,,,,,,,,25,50.551,0.0212032
,,,,,,,,,33,109.355,0.033613
,,,,,,,,,42,77.5871,0.0155629
,,,,,,,,,52,60.6846,0.0351716
,,,,,,,,,63,132.155,0.0207733
,,,,,,,,,75,88.638,0.0278078
,,,,,,,,,88,89.9031,0.0339773
,,,,,,,,,102,138.246,0.0147462
,,,,,,,,,117,160.192,0.0339434
,,,,,,,,,32,75.484,0.0378592
,,,,,,,,,41,39.5999,0.111096
,,,,,,,,,51,73.2094,0.0229852
,,,,,,,,,62,138.17,0.130159
,,,,,,,,,74,64.9068,0.0365103
,,,,,,,,,87,159.382,0.0657378
,,,,,,,,,101,122.468,0.115177
,,,,,,,,,116,129.614,0.0212472
,,,,,,,,,132,111.978,0.114789
,,,,,,,,,50,78.5314,0.0342922
,,,,,,,,,61,27.4859,0.0157069
,,,,,,,,,73,83.9096,0.0359159
,,,,,,,,,86,135.605,0.0210307
,,,,,,,,,100,83.8985,0.028271
,,,,,,,,,115,55.243,0.0346714
,,,,,,,,,131,150.917,0.0148754
,,,,,,,,,148,113.941,0.0346361
,,,,,,,,,72,58.7725,0.0216198
,,,,,,,,,85,162.025,0.0958734
,,,,,,,,,99,58.3612,0.0331818
,,,,,,,,,114,136.055,0.0556809
,,,,,,,,,130,97.8994,0.0874906
,,,,,,,,,147,110.736,0.0200753
,,,,,,,,,165,74.6945,0.0872663
,,,,,,,,,98,103.41,0.0222541
,,,,,,,,,113,116.479,0.0154698
,,,,,,,,,129,88.5494,0.0190605
,,,,,,,,,146,49.2924,0.0217699
,,,,,,,,,164,134.718,0.0118599
,,,,,,,,,183,88.9966,0.021756
,,,,,,,,,128,139.606,0.0346997
,,,,,,,,,145,36.411,0.060092
,,,,,,,,,163,68.491,0.0988975
,,,,,,,,,182,83.112,0.020621
,,,,,,,,,202,109.6,0.098611
,,,,,,,,,162,134.103,0.027512
,,,,,,,,,181,135.163,0.0335367
,,,,,,,,,201,64.8045,0.0146626
,,,,,,,,,222,66.9726,0.0335037
,,,,,,,,,200,40.6992,0.0566876
,,,,,,,,,221,70.3239,0.0178497
,,,,,,,,,243,76.3758,0.0565934
,,,,,,,,,242,95.7328,0.0202046
,,,,,,,,,265,70.289,0.0897647
,,,,,,,,,288,47.9734,0.0201926
