"cellPairingIds","interplanarAngles","angleWeights"
8,51.3372,0.0411167
26,70.307,0.106418
118,131.349,0.0546279
151,171.596,0.127611
33,38.0678,0.0354387
133,84.1322,0.0269349
168,136.869,0.0375134
225,117.151,0.0852295
421,55.2681,0.0484454
