facetNormals:0,facetNormals:1,facetNormals:2,FacetCenters:0,FacetCenters:1,FacetCenters:2,FacetIds,relFacetSize,absFacetSize,cellPairingIds,interplanarAngles,angleWeights
-0.613092,-0.342946,-0.678595,3.74007,4.7956,12.5645,1,0.0492056,0.0189281,8,31.3195,0.0501364
-0.879212,0.0192815,-0.406841,3.73349,4.78307,12.5749,2,0.0511031,0.019658,13,89.5077,0.0375626
-0.043677,0.871259,-0.412788,3.80631,4.85958,12.6056,3,0.0303752,0.0116845,19,100.703,0.0743416
0.831704,-0.112107,-0.441297,3.93688,4.74772,12.6594,4,0.151977,0.0584613,26,79.7312,0.0517847
0.403567,-0.8588,-0.178327,3.9088,4.67554,12.7227,5,0.0546492,0.021022,34,119.113,0.0660236
0.650199,0.612174,-0.247806,3.89267,4.84607,12.6249,6,0.100308,0.0385857,43,58.6672,0.0707834
-0.54495,-0.741083,0.167111,3.80513,4.67553,12.6855,7,0.126067,0.0484944,53,108.098,0.0226319
0.331506,-0.760478,0.523409,3.90843,4.63918,12.7546,8,0.0146956,0.00565298,64,115.909,0.0668466
-0.370298,0.522534,0.639814,3.87736,4.78805,12.708,9,0.104206,0.0400853,76,125.289,0.0216958
0.250525,-0.469961,0.833855,3.91402,4.67081,12.7694,10,0.0139158,0.00535301,18,76.1952,0.0381026
,,,,,,,,,25,127.074,0.076487
,,,,,,,,,33,108.628,0.0528167
,,,,,,,,,42,120.742,0.0677104
,,,,,,,,,52,64.0198,0.0727257
,,,,,,,,,63,123.101,0.0228269
,,,,,,,,,75,85.0727,0.0685762
,,,,,,,,,88,126.374,0.0218748
,,,,,,,,,32,86.9831,0.0506309
,,,,,,,,,41,137.981,0.0390471
,,,,,,,,,51,47.2397,0.0466299
,,,,,,,,,62,139.966,0.0489549
,,,,,,,,,74,160.636,0.019808
,,,,,,,,,87,76.2723,0.0470389
,,,,,,,,,101,143.201,0.0190871
,,,,,,,,,50,56.0985,0.0803907
,,,,,,,,,61,48.5679,0.120851
,,,,,,,,,73,120.049,0.137814
,,,,,,,,,86,81.9658,0.0267997
,,,,,,,,,100,139.111,0.123637
,,,,,,,,,115,96.5448,0.0254969
,,,,,,,,,72,104.176,0.0707518
,,,,,,,,,85,64.6334,0.0762461
,,,,,,,,,99,42.9201,0.0231625
,,,,,,,,,114,144.58,0.0716977
,,,,,,,,,130,68.1196,0.0221829
,,,,,,,,,98,168.608,0.111722
,,,,,,,,,113,114.688,0.0256354
,,,,,,,,,129,95.4329,0.10222
,,,,,,,,,146,111.189,0.0244408
,,,,,,,,,128,59.1415,0.0263227
,,,,,,,,,145,95.3236,0.114099
,,,,,,,,,163,67.6938,0.0250648
,,,,,,,,,162,102.041,0.0257585
,,,,,,,,,181,25.3747,0.014295
,,,,,,,,,200,77.4142,0.0245527
