"cellPairingIds","interplanarAngles","angleWeights"
8,27.7612,0.0204257
13,99.7347,0.0225189
19,92.2003,0.0211958
26,64.6998,0.0184243
34,79.0254,0.0229316
53,57.8618,0.0213881
89,99.7742,0.0227134
63,40.6691,0.0487626
102,75.5877,0.056245
32,70.932,0.061046
51,89.0532,0.0780654
101,76.7843,0.0219928
132,76.9121,0.0702637
149,72.2734,0.0216337
50,71.7309,0.0380951
115,46.4909,0.0207291
131,103.194,0.0624974
147,49.0493,0.0432944
113,31.4924,0.065974
164,99.6759,0.0804548
183,59.1586,0.0744448
201,80.9576,0.0641997
242,85.2899,0.0221783
289,26.0729,0.0128066
288,91.9082,0.0721934
313,87.5525,0.0218133
338,56.8682,0.021346
