"cellPairingIds","interplanarAngles","angleWeights"
8,46.7175,0.0848328
13,59.9514,0.141476
26,54.778,0.0967255
53,84.3573,0.0158315
118,124.858,0.00828453
18,57.4602,0.11811
25,43.6294,0.05067
33,46.0164,0.0852014
42,59.4827,0.0685827
32,46.4795,0.0665957
87,81.5219,0.0306414
149,109.41,0.00851892
61,54.8134,0.0473256
73,54.614,0.0459982
100,92.5584,0.0227767
131,50.5914,0.0515352
72,59.1399,0.0761523
99,69.6226,0.0158443
130,67.35,0.0128911
146,72.4731,0.0124351
164,35.1428,0.0701774
224,31.575,0.034389
145,41.8213,0.0254067
182,43.1489,0.0672976
181,39.9697,0.00766873
244,73.5647,0.00576427
291,52.3547,0.012131
221,79.1555,0.0270096
266,39.6359,0.00683647
315,68.3959,0.0181078
314,58.7329,0.0106928
340,44.4178,0.0103207
339,28.1552,0.036559
366,92.8846,0.0325471
421,38.7492,0.00714413
450,73.6921,0.0219519
