facetNormals:0,facetNormals:1,facetNormals:2,FacetCenters:0,FacetCenters:1,FacetCenters:2,FacetIds,relFacetSize,absFacetSize,cellPairingIds,interplanarAngles,angleWeights
0.205584,-0.609149,-0.729955,4.67349,3.70449,11.1448,1,0.0982617,0.0191066,8,22.7126,0.0717851
0.323437,-0.824216,-0.43221,4.71846,3.6622,11.2215,2,0.0565482,0.0109956,13,41.7003,0.0929129
-0.3528,-0.822834,-0.380597,4.60939,3.67325,11.1998,3,0.0881163,0.0171338,19,98.2205,0.0937627
0.858267,0.377269,0.106674,4.76046,3.7158,11.2427,4,0.0896576,0.0174335,26,54.5412,0.067234
0.0129929,-0.97717,0.0621251,4.67965,3.64759,11.2992,5,0.0510987,0.00993592,34,70.7135,0.0772144
0.358021,-0.828196,0.363782,4.71751,3.64785,11.3247,6,0.063593,0.0123654,43,80.2549,0.0430072
-0.0825772,-0.864118,0.474692,4.63585,3.62933,11.309,7,0.0275277,0.00535265,53,158.585,0.0761859
0.0156857,0.804813,0.525088,4.64765,3.67686,11.1601,8,0.0622097,0.0120964,64,147.079,0.069536
-0.540835,0.178382,0.770985,4.60533,3.63197,11.2331,9,0.0538063,0.0104624,76,161.961,0.0768089
0.0618059,0.502322,0.830391,4.65396,3.65713,11.2208,10,0.0630447,0.0122588,18,40.5236,0.0688879
,,,,,,,,,25,94.9032,0.069354
,,,,,,,,,33,35.7761,0.0536855
,,,,,,,,,42,48.0152,0.0598641
,,,,,,,,,52,60.4774,0.0370295
,,,,,,,,,63,159.201,0.059244
,,,,,,,,,75,133.929,0.0551432
,,,,,,,,,88,141.797,0.05962
,,,,,,,,,32,135.421,0.0888803
,,,,,,,,,41,35.4707,0.064686
,,,,,,,,,51,63.8768,0.0738726
,,,,,,,,,62,54.4577,0.0419502
,,,,,,,,,74,158.119,0.0729307
,,,,,,,,,87,105.514,0.0668141
,,,,,,,,,101,142.563,0.0735013
,,,,,,,,,50,112.318,0.0650967
,,,,,,,,,61,87.9004,0.0744088
,,,,,,,,,73,111.77,0.0421225
,,,,,,,,,86,65.7054,0.0734532
,,,,,,,,,100,110.358,0.0672524
,,,,,,,,,115,68.8461,0.0740321
,,,,,,,,,72,28.5823,0.0566653
,,,,,,,,,85,25.7236,0.0357801
,,,,,,,,,99,143.203,0.0561094
,,,,,,,,,114,98.1734,0.0524176
,,,,,,,,,130,117.415,0.0564466
,,,,,,,,,98,26.8444,0.0384231
,,,,,,,,,113,120.171,0.0628938
,,,,,,,,,129,93.7444,0.0582917
,,,,,,,,,146,95.5691,0.0633177
,,,,,,,,,128,118.074,0.0381667
,,,,,,,,,145,74.3074,0.0364218
,,,,,,,,,163,92.6801,0.0383224
,,,,,,,,,162,54.1197,0.0577037
,,,,,,,,,181,25.8267,0.0626244
,,,,,,,,,200,41.6593,0.0580603
