Q	U	V
{$V$}	{[mm$^3$]}	0.0115574
{$d_v$}	{[mm]}	0.280514
{$S_c$}	{[mm$^2$]}	0.529352
{$S_o$}	{[mm$^2$]}	0.320553
{$S_l/S_o$}	[]	0.651371
{$\Psi$}	[]	0.466996
{$\eta$}	[]	0.482715
{med($\theta_e$)}	{[$^\circ$]}	67.3595
{$\Upsilon$}	[]	10
{$\Xi$}	[]	13
