"cellPairingIds","interplanarAngles","angleWeights"
8,64.9001,0.0737225
13,108.433,0.0430052
19,70.8041,0.0733637
26,60.3269,0.0470342
34,57.7373,0.0767288
43,114.298,0.0254917
18,66.4169,0.0488034
25,63.9693,0.0920124
75,90.3542,0.113389
62,51.0122,0.0216664
87,79.2355,0.0540313
50,27.717,0.0538652
86,50.8266,0.0657548
100,77.7621,0.112543
72,42.2623,0.0556574
99,30.603,0.0437859
98,115.808,0.0278285
113,34.8469,0.0684452
164,69.5538,0.0510601
145,96.357,0.0289996
163,55.2032,0.0232636
182,85.1557,0.0218435
162,87.7608,0.075993
201,53.059,0.0408896
200,54.2152,0.0651934
221,66.6851,0.0551462
242,39.8307,0.0375432
