"cellPairingIds","interplanarAngles","angleWeights"
18,49.4621,0.0355233
25,53.5817,0.0435077
52,108.713,0.022209
75,80.4608,0.0419653
88,118.362,0.0136437
62,63.0682,0.031472
101,75.0724,0.0166552
61,102.025,0.0120574
73,126.252,0.0375824
100,56.9751,0.184819
131,59.2145,0.0242315
98,24.7118,0.00952572
164,105.012,0.00835846
163,51.2299,0.013001
182,119.466,0.0157951
200,127.078,0.0179469
221,52.9367,0.0237455
242,129.177,0.0109197
