"cellPairingIds","interplanarAngles","angleWeights"
8,47.5701,0.0312049
13,40.0007,0.0262688
26,101.562,0.0259922
43,56.7216,0.0408543
33,80.3705,0.035263
52,71.7489,0.0696258
63,63.5663,0.0469665
32,29.0209,0.0178115
41,96.342,0.0290866
51,36.9542,0.046974
62,78.0323,0.0490575
50,85.9153,0.017684
61,40.023,0.0230114
148,120.706,0.0192356
99,124.009,0.036077
130,70.0537,0.0346334
165,78.9784,0.0330867
98,63.5051,0.129912
129,23.3299,0.0462811
183,124.818,0.0583705
128,44.3464,0.072872
145,53.9807,0.0483022
202,119.342,0.0616225
181,68.8045,0.0458563
222,86.9971,0.0431833
243,108.094,0.0331814
265,33.7476,0.0411312
