facetNormals:0,facetNormals:1,facetNormals:2,FacetCenters:0,FacetCenters:1,FacetCenters:2,FacetIds,relFacetSize,absFacetSize,cellPairingIds,interplanarAngles,angleWeights
-0.322544,-0.458002,-0.789114,4.04398,6.42794,14.0303,1,0.0413636,0.00687612,8,25.0981,0.0287801
-0.579324,-0.117702,-0.796193,4.03342,6.39418,14.0006,2,0.022067,0.00366832,13,66.2865,0.0633523
0.0538096,0.524955,-0.798878,4.09234,6.49823,14.0276,3,0.135251,0.0224836,19,48.6775,0.0385039
-0.896376,-0.182641,-0.309654,3.99468,6.42492,14.066,4,0.0360141,0.00598684,26,82.9841,0.0644823
0.830504,-0.00310369,-0.481456,4.17511,6.44909,14.066,5,0.14619,0.024302,34,88.0623,0.0243048
-0.343289,0.837435,-0.38654,4.032,6.456,14.0292,6,0.017208,0.00286058,43,53.0442,0.0465098
-0.788134,-0.55535,-0.0681476,3.9996,6.42311,14.0881,7,0.0531184,0.00883019,53,56.1224,0.0536025
0.195151,-0.913672,-0.203048,4.11021,6.33361,14.0606,8,0.0761277,0.0126552,64,134.62,0.0194423
0.30011,0.89131,0.185787,4.13994,6.58438,14.1236,9,0.0127077,0.00211248,76,65.1406,0.0337525
-0.341443,-0.90876,0.159784,4.07021,6.3409,14.1057,10,0.028507,0.00473889,89,93.0137,0.0384717
-0.76764,0.571127,0.0440397,4.01578,6.49575,14.064,11,0.0359576,0.00597745,103,133.846,0.0520449
0.806037,-0.0253988,0.484499,4.18608,6.44724,14.1424,12,0.0701631,0.0116636,118,107.342,0.0505723
-0.393841,-0.437376,0.768743,4.07906,6.36222,14.1271,13,0.0650556,0.0108146,134,163.11,0.0225305
0.074423,0.368596,0.897259,4.16212,6.38379,14.1556,14,0.0154816,0.0025736,18,55.1092,0.0379433
,,,,,,,,,25,34.706,0.027366
,,,,,,,,,33,95.8745,0.0383457
,,,,,,,,,42,65.2837,0.0193369
,,,,,,,,,52,53.0466,0.0311806
,,,,,,,,,63,80.5204,0.0342159
,,,,,,,,,75,116.669,0.0161279
,,,,,,,,,88,79.5147,0.024877
,,,,,,,,,102,68.8682,0.0273496
,,,,,,,,,117,155.616,0.0335744
,,,,,,,,,133,110.257,0.0329554
,,,,,,,,,150,146.114,0.0181968
,,,,,,,,,32,83.588,0.056882
,,,,,,,,,41,62.2688,0.140508
,,,,,,,,,51,39.2249,0.0305314
,,,,,,,,,62,107.58,0.0762791
,,,,,,,,,74,109.59,0.0974209
,,,,,,,,,87,68.5514,0.0232326
,,,,,,,,,101,131.412,0.0470891
,,,,,,,,,116,75.905,0.0568115
,,,,,,,,,132,113.351,0.0923952
,,,,,,,,,149,158.919,0.0878537
,,,,,,,,,167,123.884,0.027783
,,,,,,,,,50,129.907,0.0577912
,,,,,,,,,61,73.2162,0.0232885
,,,,,,,,,73,27.3674,0.0429251
,,,,,,,,,86,86.5964,0.0488965
,,,,,,,,,100,121.906,0.0187865
,,,,,,,,,115,63.595,0.0318238
,,,,,,,,,131,51.9497,0.0359859
,,,,,,,,,148,162.787,0.0475971
,,,,,,,,,166,77.9712,0.0463625
,,,,,,,,,185,115.999,0.0216545
,,,,,,,,,72,96.1736,0.0307915
,,,,,,,,,85,131.93,0.0779232
,,,,,,,,,99,73.3702,0.100119
,,,,,,,,,114,80.1755,0.0233828
,,,,,,,,,130,112.254,0.0477105
,,,,,,,,,147,135.919,0.0577185
,,,,,,,,,165,61.1171,0.0948185
,,,,,,,,,184,138.476,0.0900418
,,,,,,,,,204,113.428,0.0279982
,,,,,,,,,98,100.183,0.0259948
,,,,,,,,,113,143.221,0.0280708
,,,,,,,,,129,52.7116,0.0146193
,,,,,,,,,146,136.778,0.0214611
,,,,,,,,,164,39.7455,0.0232766
,,,,,,,,,183,121.608,0.0276376
,,,,,,,,,203,123.667,0.0272168
,,,,,,,,,224,93.8147,0.0162992
,,,,,,,,,128,66.5707,0.0625749
,,,,,,,,,145,143.431,0.020509
,,,,,,,,,163,36.654,0.0371024
,,,,,,,,,182,72.0814,0.042885
,,,,,,,,,202,136.006,0.0604625
,,,,,,,,,223,57.6373,0.0584841
,,,,,,,,,245,110.188,0.0239755
,,,,,,,,,162,149.97,0.0217798
,,,,,,,,,181,38.9796,0.041481
,,,,,,,,,201,138.003,0.0488444
,,,,,,,,,222,84.7612,0.0730238
,,,,,,,,,244,79.6272,0.0701575
,,,,,,,,,267,122.842,0.0257306
,,,,,,,,,200,159.384,0.0175791
,,,,,,,,,221,71.7955,0.0187788
,,,,,,,,,243,69.9451,0.0215181
,,,,,,,,,266,113.171,0.0212621
,,,,,,,,,290,56.293,0.0139582
,,,,,,,,,242,105.377,0.0318018
,,,,,,,,,265,100.881,0.040542
,,,,,,,,,289,46.5755,0.0396428
,,,,,,,,,314,103.104,0.0200659
,,,,,,,,,288,132.772,0.0475477
,,,,,,,,,313,84.6548,0.0463156
,,,,,,,,,339,78.0526,0.0216443
,,,,,,,,,338,85.8376,0.0675129
,,,,,,,,,365,57.9755,0.0253661
,,,,,,,,,392,57.9931,0.0250112
