Q	U	V
{$V$}	{[mm$^3$]}	0.00429499
{$d_v$}	{[mm]}	0.201676
{$S_c$}	{[mm$^2$]}	0.275353
{$S_o$}	{[mm$^2$]}	0.152283
{$S_l/S_o$}	[]	0.808166
{$\Psi$}	[]	0.464055
{$\eta$}	[]	0.487814
{med($\theta_e$)}	{[$^\circ$]}	
{$\Upsilon$}	[]	13
{$\Xi$}	[]	8
