Q	U	V
{$V$}	{[mm$^3$]}	0.00327616
{$d_v$}	{[mm]}	0.184270
{$S_c$}	{[mm$^2$]}	0.211056
{$S_o$}	{[mm$^2$]}	0.118237
{$S_l/S_o$}	[]	0.785025
{$\Psi$}	[]	0.505432
{$\eta$}	[]	0.594814
{med($\theta_e$)}	{[$^\circ$]}	55.4727
{$\Upsilon$}	[]	10
{$\Xi$}	[]	5
