facetNormals:0,facetNormals:1,facetNormals:2,FacetCenters:0,FacetCenters:1,FacetCenters:2,FacetIds,relFacetSize,absFacetSize,cellPairingIds,interplanarAngles,angleWeights
0.34329,0.456876,-0.792065,3.73602,4.9984,11.0398,1,0.060616,0.01464,8,95.6968,0.0445476
-0.271403,-0.819621,-0.47007,3.63627,4.88663,11.033,2,0.0352132,0.00850469,13,67.9388,0.0656637
0.754458,-0.450642,-0.375576,3.79127,4.91764,11.1063,3,0.0716285,0.0172997,19,107.926,0.0795457
-0.746601,-0.555608,-0.275678,3.61603,4.90469,11.1187,4,0.115667,0.027936,26,45.9911,0.0912003
0.290709,0.877809,-0.173743,3.71934,5.0478,11.135,5,0.184079,0.0444588,34,106.247,0.0464398
0.525496,-0.813466,0.0942248,3.7234,4.90094,11.0495,6,0.0376376,0.00909023,43,93.0687,0.0709732
-0.735316,0.570799,0.0721841,3.59414,5.03406,11.1148,7,0.0855991,0.0206739,53,82.6335,0.0186805
0.83565,0.326407,0.395448,3.78243,4.99305,11.1301,8,0.0110417,0.00266678,64,153.085,0.0440609
-0.546203,-0.664022,0.444499,3.57352,4.93784,11.0747,9,0.0346088,0.00835873,76,125.895,0.0176885
0.503189,-0.209225,0.79311,3.69159,4.95887,11.0586,10,0.0103551,0.00250097,18,68.7087,0.047215
,,,,,,,,,25,34.3683,0.0539899
,,,,,,,,,33,140.793,0.0591175
,,,,,,,,,42,59.8922,0.036385
,,,,,,,,,52,109.224,0.0498992
,,,,,,,,,63,134.891,0.0168117
,,,,,,,,,75,59.457,0.0349084
,,,,,,,,,88,110.928,0.016004
,,,,,,,,,32,103.044,0.0884705
,,,,,,,,,41,97.0907,0.103128
,,,,,,,,,51,38.5086,0.049346
,,,,,,,,,62,160.118,0.0779931
,,,,,,,,,74,69.0612,0.0191338
,,,,,,,,,87,107.606,0.0466687
,,,,,,,,,101,78.9638,0.0180944
,,,,,,,,,50,135.994,0.142066
,,,,,,,,,61,87.9577,0.0567945
,,,,,,,,,73,76.4745,0.0983872
,,,,,,,,,86,163.893,0.0201589
,,,,,,,,,100,45.8659,0.0532767
,,,,,,,,,115,120.787,0.0190085
,,,,,,,,,72,129.124,0.0624968
,,,,,,,,,85,71.7741,0.116858
,,,,,,,,,99,60.0345,0.0208337
,,,,,,,,,114,154.055,0.0582635
,,,,,,,,,130,101.156,0.0196073
,,,,,,,,,98,158.275,0.0522855
,,,,,,,,,113,77.2295,0.0170743
,,,,,,,,,129,71.7447,0.0360597
,,,,,,,,,146,57.044,0.0162417
,,,,,,,,,128,115.884,0.0195602
,,,,,,,,,145,86.5302,0.0492893
,,,,,,,,,163,118.753,0.0184753
,,,,,,,,,162,121.611,0.0167419
,,,,,,,,,181,45.1106,0.0106874
,,,,,,,,,200,76.5511,0.0159407
