Q	U	V
{$V$}	{[mm$^3$]}	0.00197472
{$d_v$}	{[mm]}	0.155657
{$S_c$}	{[mm$^2$]}	0.134379
{$S_o$}	{[mm$^2$]}	0.0783444
{$S_l/S_o$}	[]	0.715234
{$\Psi$}	[]	0.566443
{$\eta$}	[]	0.624010
{med($\theta_e$)}	{[$^\circ$]}	63.2967
{$\Upsilon$}	[]	15
{$\Xi$}	[]	6
