facetNormals:0,facetNormals:1,facetNormals:2,FacetCenters:0,FacetCenters:1,FacetCenters:2,FacetIds,relFacetSize,absFacetSize,cellPairingIds,interplanarAngles,angleWeights
-0.158883,0.264085,-0.911033,4.67817,7.08521,11.7394,1,0.182051,0.0191414,8,56.788,0.129247
-0.630282,-0.460135,-0.588692,4.66006,7.00459,11.7549,2,0.100187,0.010534,13,81.9819,0.0260166
-0.316015,-0.872266,-0.343405,4.68382,6.96198,11.7643,3,0.0140093,0.00147298,19,69.2515,0.142456
-0.886563,-0.286228,-0.293672,4.59251,7.06422,11.8175,4,0.117008,0.0123026,26,67.3621,0.0823712
-0.704127,0.62795,-0.0799068,4.63594,7.1525,11.7953,5,0.0532273,0.00559648,34,112.272,0.0788601
-0.359941,-0.867901,0.195142,4.65418,6.98044,11.8194,6,0.0503312,0.00529197,43,92.313,0.0168321
-0.95339,0.11514,0.241838,4.61869,7.0937,11.8338,7,0.00882395,0.000927777,53,94.1625,0.0644019
0.652759,0.683075,0.157563,4.68225,7.13805,11.7971,8,0.0391206,0.00411326,64,92.6666,0.0868578
0.281264,0.898048,0.259209,4.6706,7.06845,11.7911,9,0.0570348,0.00599681,76,103.659,0.0129037
-0.842574,0.254524,0.469403,4.58227,7.08472,11.8599,10,0.00668891,0.000703292,89,118.897,0.0525372
-0.408306,0.513744,0.715356,4.60693,7.12391,11.8606,11,0.0306981,0.00322769,103,162.13,0.051273
0.451437,-0.274658,0.831678,4.64571,7.024,11.8611,12,0.0298384,0.0031373,118,152.278,0.137616
0.107788,0.193279,0.936362,4.64713,7.08716,11.8626,13,0.110616,0.0116305,18,33.8936,0.0245814
,,,,,,,,,25,25.285,0.107946
,,,,,,,,,33,77.4003,0.06952
,,,,,,,,,42,56.9682,0.0670023
,,,,,,,,,52,65.2318,0.0162194
,,,,,,,,,63,150.943,0.0562693
,,,,,,,,,75,141.15,0.0726889
,,,,,,,,,88,81.8871,0.0125406
,,,,,,,,,102,114.942,0.0469962
,,,,,,,,,117,132.261,0.0459821
,,,,,,,,,133,138.84,0.105144
,,,,,,,,,32,49.2574,0.0250227
,,,,,,,,,41,108.537,0.0221807
,,,,,,,,,51,32.1477,0.0219179
,,,,,,,,,62,83.0935,0.0108278
,,,,,,,,,74,154.632,0.0206306
,,,,,,,,,87,174.532,0.0224936
,,,,,,,,,101,96.8058,0.00905459
,,,,,,,,,116,126.02,0.0192388
,,,,,,,,,132,101.161,0.0190667
,,,,,,,,,149,123.417,0.024869
,,,,,,,,,50,59.6028,0.0731695
,,,,,,,,,61,57.0228,0.0703858
,,,,,,,,,73,39.978,0.0164103
,,,,,,,,,86,151.273,0.0586365
,,,,,,,,,100,127.658,0.0766883
,,,,,,,,,115,56.6065,0.0126544
,,,,,,,,,131,89.7063,0.0486361
,,,,,,,,,148,126.008,0.0475507
,,,,,,,,,166,116.944,0.113722
,,,,,,,,,72,109.757,0.0517387
,,,,,,,,,85,39.4261,0.0151383
,,,,,,,,,99,92.7351,0.0450965
,,,,,,,,,114,68.07,0.0550653
,,,,,,,,,130,40.7421,0.0118843
,,,,,,,,,147,53.017,0.0389388
,,,,,,,,,165,126.641,0.03824
,,,,,,,,,184,91.8461,0.071871
,,,,,,,,,98,72.2052,0.0150154
,,,,,,,,,113,150.125,0.0440234
,,,,,,,,,129,152.395,0.0534737
,,,,,,,,,146,79.5286,0.0118085
,,,,,,,,,164,99.8471,0.0381361
,,,,,,,,,183,75.4107,0.0374656
,,,,,,,,,203,91.4784,0.0691834
,,,,,,,,,128,122.208,0.0143999
,,,,,,,,,145,96.0611,0.0152834
,,,,,,,,,163,16.7113,0.00760951
,,,,,,,,,182,49.7283,0.0137077
,,,,,,,,,202,105.507,0.0136201
,,,,,,,,,223,81.1897,0.0163441
,,,,,,,,,162,26.3452,0.0464089
,,,,,,,,,181,108.436,0.0114244
,,,,,,,,,201,77.7615,0.0344013
,,,,,,,,,222,75.3877,0.0338548
,,,,,,,,,244,67.6863,0.0577997
,,,,,,,,,200,83.3201,0.0119736
,,,,,,,,,221,55.8484,0.0399134
,,,,,,,,,243,84.2779,0.0391795
,,,,,,,,,266,61.6061,0.0752632
,,,,,,,,,242,33.1686,0.0109844
,,,,,,,,,265,93.4929,0.0109281
,,,,,,,,,289,65.507,0.012615
,,,,,,,,,288,73.6346,0.0302621
,,,,,,,,,313,39.0738,0.048059
,,,,,,,,,338,35.24,0.0469989
