Q	U	V
{$V$}	{[mm$^3$]}	0.0157265
{$d_v$}	{[mm]}	0.310845
{$S_c$}	{[mm$^2$]}	0.503618
{$S_o$}	{[mm$^2$]}	0.378153
{$S_l/S_o$}	[]	0.331784
{$\Psi$}	[]	0.602751
{$\eta$}	[]	0.618032
{med($\theta_e$)}	{[$^\circ$]}	58.866
{$\Upsilon$}	[]	14
{$\Xi$}	[]	14
