Q	U	V
{$V$}	{[mm$^3$]}	0.00694181
{$d_v$}	{[mm]}	0.236678
{$S_c$}	{[mm$^2$]}	0.325737
{$S_o$}	{[mm$^2$]}	0.208219
{$S_l/S_o$}	[]	0.564396
{$\Psi$}	[]	0.540255
{$\eta$}	[]	0.616896
{med($\theta_e$)}	{[$^\circ$]}	62.24425
{$\Upsilon$}	[]	15
{$\Xi$}	[]	11
