facetNormals:0,facetNormals:1,facetNormals:2,FacetCenters:0,FacetCenters:1,FacetCenters:2,FacetIds,relFacetSize,absFacetSize,cellPairingIds,interplanarAngles,angleWeights
0.422137,-0.0166101,-0.842718,4.49334,5.20312,12.8042,1,0.117698,0.0359736,8,70.3514,0.0804858
-0.613765,0.112263,-0.648028,4.40767,5.25281,12.794,2,0.0611517,0.0186906,13,53.3613,0.11391
0.0305963,-0.740268,-0.611286,4.47811,5.08879,12.8446,3,0.110359,0.0337304,19,35.8358,0.0479589
0.858809,-0.160023,-0.463462,4.52174,5.3167,12.8322,4,0.030115,0.00920445,26,87.6052,0.0659953
-0.247889,-0.931132,-0.151412,4.43102,5.06322,12.9057,5,0.0458529,0.0140146,34,116.073,0.0692874
-0.822725,0.476449,0.046473,4.39285,5.24261,12.8262,6,0.0490943,0.0150053,43,67.9737,0.132029
0.907093,0.273075,0.0510127,4.5668,5.25263,12.9114,7,0.150334,0.0459486,53,69.7506,0.0568677
0.918618,-0.303228,0.0899863,4.55721,5.19834,12.9006,8,0.037491,0.0114589,64,123.214,0.0512886
-0.405413,-0.788722,0.411512,4.47524,5.06603,12.9717,9,0.0327882,0.0100215,76,147.989,0.0574866
-0.546459,0.495175,0.647124,4.41273,5.15924,12.9418,10,0.0380309,0.0116239,89,165.697,0.0653016
-0.571374,-0.131644,0.738527,4.42865,5.14549,12.9621,11,0.0451859,0.0138107,103,135.536,0.0311412
0.212032,-0.338276,0.895998,4.53207,5.14444,12.9908,12,0.0179445,0.00548462,118,142.298,0.0468776
0.124975,0.292581,0.910257,4.52498,5.15016,12.9909,13,0.0292671,0.0089453,18,70.0905,0.0786964
,,,,,,,,,25,105.968,0.0403561
,,,,,,,,,33,80.4395,0.0524087
,,,,,,,,,42,51.902,0.0544637
,,,,,,,,,52,130.934,0.0869391
,,,,,,,,,63,138.658,0.0464837
,,,,,,,,,75,96.9479,0.0426881
,,,,,,,,,88,91.8419,0.0468964
,,,,,,,,,102,99.6827,0.0519702
,,,,,,,,,117,148.051,0.0277469
,,,,,,,,,133,136.936,0.0395877
,,,,,,,,,32,63.2158,0.0473178
,,,,,,,,,41,34.2672,0.0647874
,,,,,,,,,51,116.383,0.0679571
,,,,,,,,,62,103.039,0.127281
,,,,,,,,,74,77.7772,0.0559685
,,,,,,,,,87,70.082,0.050556
,,,,,,,,,101,145.739,0.0565679
,,,,,,,,,116,114.213,0.0641186
,,,,,,,,,132,107.978,0.0308696
,,,,,,,,,149,146.149,0.0462648
,,,,,,,,,50,89.6266,0.0363538
,,,,,,,,,61,148.704,0.0373308
,,,,,,,,,73,40.6602,0.0501783
,,,,,,,,,86,34.0838,0.0334006
,,,,,,,,,100,115.268,0.0313948
,,,,,,,,,115,150.984,0.0336132
,,,,,,,,,131,150.535,0.0361423
,,,,,,,,,148,100.636,0.0224887
,,,,,,,,,166,112.269,0.029685
,,,,,,,,,72,105.411,0.0474183
,,,,,,,,,85,121.745,0.0702723
,,,,,,,,,99,87.52,0.0412525
,,,,,,,,,114,35.8842,0.0382354
,,,,,,,,,130,116.273,0.0415772
,,,,,,,,,147,80.4629,0.045517
,,,,,,,,,165,82.387,0.0257944
,,,,,,,,,184,117.978,0.035729
,,,,,,,,,98,132.823,0.074017
,,,,,,,,,113,165.684,0.0425152
,,,,,,,,,129,91.4235,0.0393177
,,,,,,,,,146,39.9821,0.0428602
,,,,,,,,,164,60.5228,0.0470591
,,,,,,,,,183,108.352,0.0262825
,,,,,,,,,203,85.0697,0.0366724
,,,,,,,,,128,34.9938,0.0600152
,,,,,,,,,145,127.308,0.053835
,,,,,,,,,163,110.598,0.060705
,,,,,,,,,182,125.27,0.0694863
,,,,,,,,,202,80.9943,0.032062
,,,,,,,,,223,74.8096,0.0489958
,,,,,,,,,162,95.8146,0.0349823
,,,,,,,,,181,128.54,0.037759
,,,,,,,,,201,117.181,0.0409804
,,,,,,,,,222,66.6332,0.0242717
,,,,,,,,,244,83.3803,0.0328725
,,,,,,,,,200,84.1787,0.0352155
,,,,,,,,,221,46.0882,0.0380015
,,,,,,,,,243,55.036,0.0231948
,,,,,,,,,266,84.3292,0.0309278
,,,,,,,,,242,38.409,0.0413008
,,,,,,,,,265,72.0592,0.0243838
,,,,,,,,,289,45.2837,0.0330784
,,,,,,,,,288,50.7617,0.0256877
,,,,,,,,,313,51.7984,0.0355247
,,,,,,,,,338,38.219,0.0222481
