"cellPairingIds","interplanarAngles","angleWeights"
8,44.5061,0.0684235
13,57.4999,0.0543929
19,38.1353,0.0788457
26,49.4038,0.0292939
53,102.85,0.0291674
76,128.261,0.0897349
33,48.3134,0.0292257
42,48.4224,0.0304678
52,62.7091,0.080159
88,105.592,0.089098
74,53.0633,0.0262231
101,83.2299,0.0666956
50,33.1102,0.0309745
86,105.338,0.0308332
100,32.8746,0.0774198
72,26.1062,0.0191046
114,48.5333,0.0290948
98,63.1782,0.0326773
129,64.8848,0.0303256
183,62.4105,0.0223638
163,63.2863,0.111058
202,97.9563,0.0410361
162,97.1451,0.0289701
181,71.1135,0.0323692
244,62.2014,0.0252861
221,26.5549,0.0482532
243,39.9278,0.0373944
266,52.8663,0.0499215
265,124.646,0.0432579
289,106.075,0.0609511
288,26.9528,0.0308037
313,27.747,0.0388303
338,43.2823,0.0314752
