"cellPairingIds","interplanarAngles","angleWeights"
8,60.8773,0.029856
13,81.8761,0.015866
26,81.1901,0.0265366
76,107.497,0.035905
18,46.1635,0.0214496
63,51.8552,0.066188
88,127.498,0.0873818
41,124.676,0.019681
74,83.0064,0.0224002
101,164.673,0.0244034
116,126.939,0.0181863
132,115.38,0.018107
130,69.6665,0.0639641
147,38.8642,0.0337356
181,83.704,0.105645
242,59.374,0.0504804
265,61.2957,0.0498745
288,32.4077,0.029361
