facetNormals:0,facetNormals:1,facetNormals:2,FacetCenters:0,FacetCenters:1,FacetCenters:2,FacetIds,relFacetSize,absFacetSize,cellPairingIds,interplanarAngles,angleWeights
0.160479,-0.509602,-0.804959,5.69429,4.84778,14.3135,1,0.122964,0.0183848,8,28.4324,0.061467
-0.0528916,-0.831689,-0.52178,5.70449,4.82344,14.3297,2,0.0409747,0.00612626,13,56.3413,0.0962674
-0.663887,-0.560836,-0.419148,5.59986,4.839,14.3417,3,0.0790949,0.0118258,19,53.7112,0.0362468
-0.367822,-0.898519,-0.210148,5.65091,4.7805,14.3859,4,0.0212563,0.00317811,26,84.011,0.0443325
-0.666037,-0.70608,0.190352,5.61769,4.86914,14.4453,5,0.0270408,0.00404296,34,72.105,0.128489
0.709088,-0.628382,0.183285,5.77275,4.84137,14.4198,6,0.134534,0.0201146,43,81.467,0.0660574
-0.142234,-0.890233,0.362208,5.67059,4.81258,14.4671,7,0.0451584,0.00675179,53,106.346,0.0654298
-0.777752,-0.407418,0.433644,5.62424,4.89706,14.4962,8,0.0445739,0.00666439,64,155.239,0.0520638
0.169012,0.695999,0.639683,5.66542,5.00634,14.5465,9,0.0330229,0.00493737,76,138.98,0.0952538
-0.63269,0.0210591,0.747655,5.62758,4.88694,14.4894,10,0.0777357,0.0116225,89,117.455,0.125675
0.458833,-0.276447,0.798619,5.74075,4.88273,14.496,11,0.128509,0.0192138,18,40.6054,0.0539835
,,,,,,,,,25,26.1973,0.0279915
,,,,,,,,,33,57.4587,0.0325804
,,,,,,,,,42,65.7652,0.0628172
,,,,,,,,,52,54.1905,0.0429649
,,,,,,,,,63,80.8136,0.0426986
,,,,,,,,,75,167.429,0.0365716
,,,,,,,,,88,112.858,0.0536633
,,,,,,,,,102,102.898,0.0621371
,,,,,,,,,32,29.2582,0.0335076
,,,,,,,,,41,37.3796,0.0403029
,,,,,,,,,51,102.099,0.0996209
,,,,,,,,,62,61.8763,0.0574922
,,,,,,,,,74,53.4203,0.0570163
,,,,,,,,,87,146.279,0.0465929
,,,,,,,,,101,84.2412,0.0784094
,,,,,,,,,116,121.465,0.0979211
,,,,,,,,,50,31.3188,0.0238021
,,,,,,,,,61,73.935,0.0367121
,,,,,,,,,73,36.4734,0.0289063
,,,,,,,,,86,54.7794,0.0287855
,,,,,,,,,100,149.503,0.0258642
,,,,,,,,,115,86.6612,0.033384
,,,,,,,,,131,95.2979,0.0364788
,,,,,,,,,72,89.6219,0.0450306
,,,,,,,,,85,34.4723,0.0338264
,,,,,,,,,99,23.5074,0.033661
,,,,,,,,,114,120.51,0.029734
,,,,,,,,,130,55.5009,0.0401241
,,,,,,,,,147,87.4926,0.04468
,,,,,,,,,98,55.9521,0.0676193
,,,,,,,,,113,103.213,0.0669619
,,,,,,,,,129,102.48,0.0530292
,,,,,,,,,146,110.096,0.0985359
,,,,,,,,,164,45.9312,0.131452
,,,,,,,,,128,48.5026,0.0448642
,,,,,,,,,145,116.201,0.0381488
,,,,,,,,,163,68.9385,0.0571292
,,,,,,,,,182,59.7902,0.0668319
,,,,,,,,,162,98.415,0.0379387
,,,,,,,,,181,32.653,0.0566592
,,,,,,,,,201,83.7764,0.0661896
,,,,,,,,,200,65.7769,0.0463542
,,,,,,,,,221,64.6068,0.0525437
,,,,,,,,,242,71.3687,0.0968726
