Q	U	V
{$V$}	{[mm$^3$]}	0.010535
{$d_v$}	{[mm]}	0.271985
{$S_c$}	{[mm$^2$]}	0.389914
{$S_o$}	{[mm$^2$]}	0.264778
{$S_l/S_o$}	[]	0.472607
{$\Psi$}	[]	0.596035
{$\eta$}	[]	0.630937
{med($\theta_e$)}	{[$^\circ$]}	53.6086
{$\Upsilon$}	[]	16
{$\Xi$}	[]	10
