Q	U	V
{$V$}	{[mm$^3$]}	0.00282969
{$d_v$}	{[mm]}	0.175488
{$S_c$}	{[mm$^2$]}	0.1774
{$S_o$}	{[mm$^2$]}	0.0929311
{$S_l/S_o$}	[]	0.908941
{$\Psi$}	[]	0.545368
{$\eta$}	[]	0.651285
{med($\theta_e$)}	{[$^\circ$]}	48.2178
{$\Upsilon$}	[]	12
{$\Xi$}	[]	12
