facetNormals:0,facetNormals:1,facetNormals:2,FacetCenters:0,FacetCenters:1,FacetCenters:2,FacetIds,relFacetSize,absFacetSize,cellPairingIds,interplanarAngles,angleWeights
0.0970393,-0.576816,-0.759326,4.12869,5.97546,13.5022,1,0.0986317,0.0150199,8,64.7909,0.0380319
0.887812,-0.00914454,-0.404049,4.19231,5.93846,13.4817,2,0.0235578,0.00358746,13,95.5764,0.0404937
0.670308,0.648307,-0.287133,4.20575,5.97906,13.5012,3,0.0254766,0.00387965,19,32.2368,0.0474034
0.182782,-0.90767,-0.340426,4.11794,5.96894,13.5094,4,0.0311989,0.00475107,26,58.6918,0.0874349
0.804749,-0.491978,-0.149887,4.21785,5.86484,13.4939,5,0.0785211,0.0119574,34,71.2519,0.0726712
-0.811196,-0.487653,-0.120318,4.12598,5.86642,13.4583,6,0.0575291,0.00876071,43,120.915,0.0262442
0.512293,0.83713,0.0675401,4.22139,5.95448,13.5044,7,0.0151358,0.00230492,53,116.233,0.0747283
0.814082,0.307581,0.406261,4.22623,5.9511,13.5107,8,0.0601507,0.00915992,64,80.9681,0.0951034
-0.182407,-0.828129,0.418394,4.16279,5.82416,13.49,9,0.0918188,0.0139824,76,122.873,0.118033
-0.718922,-0.0862601,0.632265,4.14691,5.89604,13.5146,10,0.146934,0.0223756,89,112.509,0.0302023
0.460314,-0.339941,0.787455,4.23347,5.86469,13.565,11,0.0178312,0.00271539,103,141.932,0.0197267
0.503686,0.360475,0.7816,4.2307,5.93336,13.5063,12,0.0109593,0.00166891,118,165.429,0.115845
-0.315743,0.596783,0.658528,4.15935,5.97586,13.4982,13,0.140336,0.0213707,18,42.1916,0.0244797
,,,,,,,,,25,71.3251,0.0268453
,,,,,,,,,33,33.2032,0.0362423
,,,,,,,,,42,135.79,0.0334274
,,,,,,,,,52,64.0532,0.0184302
,,,,,,,,,63,53.6119,0.0338561
,,,,,,,,,75,110.526,0.0374955
,,,,,,,,,88,162.227,0.0406055
,,,,,,,,,102,84.3423,0.0202983
,,,,,,,,,117,82.4346,0.0149594
,,,,,,,,,133,126.858,0.0403433
,,,,,,,,,32,112.489,0.0280489
,,,,,,,,,41,73.574,0.0384711
,,,,,,,,,51,152.445,0.0353144
,,,,,,,,,62,25.4539,0.0189897
,,,,,,,,,74,47.885,0.0357932
,,,,,,,,,87,147.632,0.0398862
,,,,,,,,,101,140.081,0.043424
,,,,,,,,,116,98.3506,0.0209791
,,,,,,,,,132,69.1145,0.0153259
,,,,,,,,,149,90.8612,0.0431244
,,,,,,,,,50,46.823,0.044655
,,,,,,,,,61,69.1295,0.0404573
,,,,,,,,,73,135.248,0.020383
,,,,,,,,,86,106.475,0.0410869
,,,,,,,,,100,51.875,0.0465729
,,,,,,,,,115,106.438,0.0514693
,,,,,,,,,131,82.5432,0.0226927
,,,,,,,,,148,120.628,0.0162207
,,,,,,,,,166,152.275,0.0510489
,,,,,,,,,72,115.679,0.0664056
,,,,,,,,,85,90.5919,0.0253794
,,,,,,,,,99,61.1265,0.0681191
,,,,,,,,,114,77.3404,0.0846509
,,,,,,,,,130,133.408,0.102348
,,,,,,,,,147,63.1664,0.0290626
,,,,,,,,,165,83.3169,0.0192341
,,,,,,,,,184,135.859,0.100699
,,,,,,,,,98,152.416,0.0239661
,,,,,,,,,113,159.67,0.0588107
,,,,,,,,,129,56.2317,0.0707376
,,,,,,,,,146,53.2173,0.0826848
,,,,,,,,,164,109.001,0.0272242
,,,,,,,,,183,135.479,0.0184112
,,,,,,,,,203,97.2863,0.0816051
,,,,,,,,,128,42.0147,0.0241857
,,,,,,,,,145,144.62,0.0259877
,,,,,,,,,163,114.876,0.0274445
,,,,,,,,,182,89.7352,0.0163733
,,,,,,,,,202,51.3614,0.0127133
,,,,,,,,,223,65.6663,0.0273245
,,,,,,,,,162,104.882,0.0726852
,,,,,,,,,181,112.61,0.0853582
,,,,,,,,,201,50.8618,0.0275079
,,,,,,,,,222,28.9067,0.0185405
,,,,,,,,,244,77.6294,0.0842081
,,,,,,,,,200,59.0768,0.113015
,,,,,,,,,221,55.0704,0.029863
,,,,,,,,,243,93.8538,0.0195814
,,,,,,,,,266,100.407,0.111008
,,,,,,,,,242,77.8919,0.0318029
,,,,,,,,,265,83.9539,0.0203972
,,,,,,,,,289,49.2432,0.143559
,,,,,,,,,288,41.7012,0.0135751
,,,,,,,,,313,79.3066,0.0316419
,,,,,,,,,338,52.6365,0.0203309
