facetNormals:0,facetNormals:1,facetNormals:2,FacetCenters:0,FacetCenters:1,FacetCenters:2,FacetIds,relFacetSize,absFacetSize,cellPairingIds,interplanarAngles,angleWeights
0.469777,0.218372,-0.847432,6.17878,7.48864,11.2002,1,0.00363666,0.000264099,8,59.0361,0.00692645
0.261228,-0.71029,-0.633288,6.14437,7.44342,11.1847,2,0.0726209,0.00527383,13,86.9612,0.00690884
-0.314236,-0.809354,-0.443328,6.09008,7.43842,11.1848,3,0.0689351,0.00500616,19,31.0604,0.00662455
0.758967,0.444154,-0.462273,6.20515,7.46821,11.2374,4,0.0371341,0.00269673,26,54.4715,0.0065849
-0.0184063,0.843329,-0.441272,6.1848,7.4516,11.2051,5,0.0347858,0.00252619,34,77.8932,0.00701068
0.383655,-0.864914,-0.250821,6.17615,7.42632,11.235,6,0.0970776,0.00704991,43,57.1488,0.00689825
0.938153,0.221733,-0.0361268,6.20345,7.4858,11.2578,7,0.0668864,0.00485739,53,86.2278,0.00547235
-0.563648,0.787746,-0.185516,6.13881,7.44545,11.2116,8,0.0110503,0.000802486,64,70.8973,0.00468504
0.606488,0.766308,0.154189,6.21651,7.46719,11.2466,9,0.00658272,0.000478046,76,86.9986,0.00673893
0.164264,0.921816,0.268817,6.19929,7.42072,11.2595,10,0.0458605,0.00333045,89,107.529,0.00678564
-0.197457,0.843919,0.453274,6.18393,7.40028,11.2473,11,0.0506017,0.00367477,103,142.769,0.00580334
-0.765979,0.257544,0.558382,6.17986,7.42216,11.2051,12,0.0143572,0.00104264,118,122.863,0.00623044
-0.598817,0.633288,0.45719,6.16882,7.4182,11.1959,13,0.0217266,0.00157782,134,96.2006,0.00525407
0.816301,-0.214414,0.52296,6.21252,7.47747,11.2972,14,0.00946258,0.000687185,151,143.089,0.00716395
-0.150245,-0.69899,0.628976,6.13444,7.44725,11.2998,15,0.238221,0.0172999,169,119.408,0.00656243
0.488421,0.0188475,0.829922,6.1834,7.5018,11.3165,16,0.0335715,0.00243801,18,36.4767,0.07073
,,,,,,,,,25,79.6855,0.0491406
,,,,,,,,,33,110.199,0.0470394
,,,,,,,,,42,25.2868,0.083087
,,,,,,,,,52,83.337,0.0696358
,,,,,,,,,63,127.264,0.0191818
,,,,,,,,,75,119.686,0.0120712
,,,,,,,,,88,144.445,0.0562186
,,,,,,,,,102,166.384,0.059644
,,,,,,,,,117,139.461,0.0239747
,,,,,,,,,133,157.267,0.0334467
,,,,,,,,,150,87.9907,0.0167435
,,,,,,,,,168,86.4055,0.11131
,,,,,,,,,187,115.647,0.0459165
,,,,,,,,,32,113.942,0.0482674
,,,,,,,,,41,121.228,0.0462387
,,,,,,,,,51,43.6332,0.080621
,,,,,,,,,62,119.162,0.0678953
,,,,,,,,,74,113.165,0.0190473
,,,,,,,,,87,155.718,0.0120178
,,,,,,,,,101,164.898,0.0550787
,,,,,,,,,116,149.545,0.0583625
,,,,,,,,,132,102.993,0.0237649
,,,,,,,,,149,123.322,0.0330399
,,,,,,,,,167,108.981,0.0166409
,,,,,,,,,186,68.9056,0.106928
,,,,,,,,,206,124.859,0.0451532
,,,,,,,,,50,53.3476,0.0359216
,,,,,,,,,61,88.6463,0.0537194
,,,,,,,,,73,30.3302,0.0477553
,,,,,,,,,86,89.541,0.0170322
,,,,,,,,,100,42.0919,0.011183
,,,,,,,,,115,64.9465,0.0410385
,,,,,,,,,131,89.0901,0.0428342
,,,,,,,,,148,137.99,0.0207081
,,,,,,,,,166,113.159,0.0274138
,,,,,,,,,185,73.354,0.0150819
,,,,,,,,,205,139.117,0.0642524
,,,,,,,,,226,90.2745,0.035263
,,,,,,,,,72,132.187,0.0512185
,,,,,,,,,85,78.3358,0.0457686
,,,,,,,,,99,36.3102,0.0167725
,,,,,,,,,114,52.9826,0.0110705
,,,,,,,,,130,45.0007,0.0395627
,,,,,,,,,147,56.3965,0.041229
,,,,,,,,,165,90.9256,0.0203255
,,,,,,,,,184,68.5029,0.0267473
,,,,,,,,,204,116.83,0.014878
,,,,,,,,,225,162.437,0.060707
,,,,,,,,,247,113.071,0.0341678
,,,,,,,,,98,79.1836,0.0792024
,,,,,,,,,113,151.831,0.019842
,,,,,,,,,129,118.951,0.0123294
,,,,,,,,,146,147.217,0.0622931
,,,,,,,,,164,163.793,0.0665265
,,,,,,,,,183,133.076,0.0250149
,,,,,,,,,203,157.826,0.0355066
,,,,,,,,,224,67.7849,0.0172443
,,,,,,,,,246,65.3229,0.137942
,,,,,,,,,269,92.2539,0.0498899
,,,,,,,,,128,111.418,0.018967
,,,,,,,,,145,39.7938,0.0119858
,,,,,,,,,163,68.2133,0.0544129
,,,,,,,,,182,90.8803,0.0576155
,,,,,,,,,202,136.004,0.0236401
,,,,,,,,,223,117.464,0.0327992
,,,,,,,,,245,43.0978,0.0165796
,,,,,,,,,268,110.298,0.104447
,,,,,,,,,292,62.2647,0.0447048
,,,,,,,,,162,76.1722,0.00825054
,,,,,,,,,181,52.5878,0.0178093
,,,,,,,,,201,44.1612,0.0181393
,,,,,,,,,222,56.7586,0.0124885
,,,,,,,,,244,39.2587,0.0146497
,,,,,,,,,267,137.854,0.010195
,,,,,,,,,291,128.344,0.0211208
,,,,,,,,,316,115.866,0.0166275
,,,,,,,,,200,28.4416,0.0115129
,,,,,,,,,221,51.9191,0.0116499
,,,,,,,,,243,100.74,0.00902673
,,,,,,,,,266,78.5912,0.0101041
,,,,,,,,,290,65.2404,0.00776421
,,,,,,,,,315,124.217,0.0128114
,,,,,,,,,341,62.5933,0.0110071
,,,,,,,,,242,24.452,0.0481146
,,,,,,,,,265,74.1286,0.0218683
,,,,,,,,,289,50.6194,0.0294847
,,,,,,,,,314,85.4328,0.0156882
,,,,,,,,,340,122.611,0.0769141
,,,,,,,,,367,70.0135,0.0387654
,,,,,,,,,288,49.6765,0.022368
,,,,,,,,,313,26.7096,0.0304004
,,,,,,,,,339,96.2124,0.0159437
,,,,,,,,,366,107.181,0.0834726
,,,,,,,,,394,71.7097,0.0403638
,,,,,,,,,338,24.8741,0.0172894
,,,,,,,,,365,113.474,0.011407
,,,,,,,,,393,72.1782,0.0270823
,,,,,,,,,422,84.2889,0.0201129
,,,,,,,,,392,113.235,0.0131834
,,,,,,,,,421,93.985,0.0398214
,,,,,,,,,451,84.0118,0.0263805
,,,,,,,,,450,67.8705,0.0182021
,,,,,,,,,481,29.9411,0.0147638
,,,,,,,,,512,61.6555,0.0588495
