"cellPairingIds","interplanarAngles","angleWeights"
8,90.9935,0.0268037
13,31.444,0.0244246
19,68.3314,0.0380397
26,77.3521,0.0362319
53,74.071,0.0421702
25,52.383,0.0375437
33,68.8374,0.0357816
42,51.8058,0.0304556
75,30.6653,0.0420134
41,63.4572,0.0316644
62,36.193,0.0234045
74,93.8629,0.036108
116,87.0353,0.0266102
61,31.4575,0.0458408
86,54.2838,0.0766827
114,71.0928,0.0709544
147,47.715,0.0412587
204,77.8866,0.0637511
113,59.5904,0.0519757
129,59.7786,0.0526846
146,44.8237,0.0315795
183,50.494,0.0569927
128,74.5627,0.0392188
182,92.8309,0.0282623
223,48.1116,0.0309435
181,38.673,0.0436828
244,53.7851,0.057854
243,61.5932,0.117462
290,75.5224,0.0866503
265,38.6953,0.0471728
289,62.1551,0.0336572
313,102.554,0.0368056
339,31.52,0.0461161
338,84.3435,0.0641385
365,69.5,0.0989525
392,86.1773,0.05371
