"cellPairingIds","interplanarAngles","angleWeights"
8,50.1797,0.033738
19,65.8343,0.0226517
26,71.9851,0.095668
34,84.5016,0.078163
43,87.8792,0.0931353
18,61.827,0.0322325
33,103.803,0.0406158
42,69.8861,0.0370893
41,123.189,0.0844789
51,78.8259,0.0705306
87,77.2329,0.0533909
101,68.0411,0.059261
50,69.0715,0.0255573
73,57.6046,0.025373
86,61.0379,0.0192011
99,65.9483,0.0543884
114,74.3484,0.0811284
98,35.286,0.124087
146,92.7341,0.0780527
128,85.3865,0.0535603
163,89.6696,0.0929788
162,52.8159,0.0395589
181,60.5014,0.0426921
200,38.71,0.0575925
