"cellPairingIds","interplanarAngles","angleWeights"
8,43.8729,0.111854
13,87.6548,0.0615681
34,146.76,0.0460429
53,84.0795,0.14519
64,94.4622,0.0638345
18,51.3974,0.0614181
52,58.4879,0.0536645
75,91.7175,0.0636732
41,47.4955,0.0347501
51,90.6624,0.0344109
62,47.7853,0.0385561
72,45.2402,0.029194
85,63.8635,0.0321241
130,88.18,0.0344922
113,79.3574,0.0507462
146,48.106,0.034158
145,71.9986,0.0394328
163,116.866,0.0382388
182,82.4905,0.0425407
162,93.9044,0.0732465
181,53.7066,0.069231
200,76.1796,0.0430619
221,45.5788,0.048596
242,38.5004,0.0467952
