facetNormals:0,facetNormals:1,facetNormals:2,FacetCenters:0,FacetCenters:1,FacetCenters:2,FacetIds,relFacetSize,absFacetSize,cellPairingIds,interplanarAngles,angleWeights
-0.122146,-0.403341,-0.870407,3.2971,5.63465,14.1417,1,0.0311224,0.0085273,8,41.1582,0.036411
-0.0933064,0.274804,-0.925998,3.30288,5.679,14.1642,2,0.0438651,0.0120187,13,59.801,0.0413495
0.593084,0.21547,-0.71676,3.38523,5.71065,14.1937,3,0.0615878,0.0168746,19,71.7087,0.0458847
-0.413406,0.642485,-0.572642,3.28323,5.77244,14.2281,4,0.0872885,0.0239164,26,39.1861,0.0393951
-0.19497,-0.840485,-0.403377,3.28514,5.60084,14.1751,5,0.0536581,0.0147019,34,82.4801,0.0483238
0.87166,-0.257605,-0.136596,3.40364,5.68193,14.2348,6,0.108035,0.0296009,43,105.278,0.0466472
0.278855,0.887144,-0.173293,3.34534,5.79043,14.2469,7,0.0930771,0.0255024,53,107.294,0.0337176
0.907311,0.348307,0.0324431,3.42392,5.78091,14.2857,8,0.036785,0.0100788,64,78.5686,0.0273058
-0.112409,-0.939051,0.236265,3.36062,5.65089,14.1326,9,0.024323,0.00666433,76,103.801,0.0348286
-0.822433,0.44008,0.162431,3.28525,5.77106,14.2782,10,0.039537,0.0108328,89,116.09,0.0235838
-0.779699,-0.0217391,0.600458,3.30881,5.76714,14.3274,11,0.0189852,0.00520179,103,126.06,0.0273482
-0.367345,-0.325108,0.836282,3.32998,5.712,14.2051,12,0.0243904,0.0066828,118,157.045,0.0441424
-0.188307,0.585022,0.737425,3.29377,5.77815,14.3191,13,0.0758915,0.0207937,134,117.474,0.0204948
0.0348374,-0.60321,0.780628,3.30842,5.71366,14.1775,14,0.0152777,0.00418599,151,144.791,0.041855
0.499707,-0.0280564,0.797913,3.38077,5.74582,14.3272,15,0.0638863,0.0175044,18,43.912,0.0512372
,,,,,,,,,25,36.4378,0.0583883
,,,,,,,,,33,79.984,0.0482699
,,,,,,,,,42,91.647,0.0623959
,,,,,,,,,52,65.6665,0.0596286
,,,,,,,,,63,91.1528,0.0400143
,,,,,,,,,75,119.537,0.0312938
,,,,,,,,,88,87.0514,0.0415887
,,,,,,,,,102,120.809,0.0265006
,,,,,,,,,117,151.837,0.0313495
,,,,,,,,,133,122.792,0.0555959
,,,,,,,,,150,158.597,0.0226624
,,,,,,,,,168,150.206,0.0520156
,,,,,,,,,32,70.5436,0.0722198
,,,,,,,,,41,90.4793,0.0573502
,,,,,,,,,51,50.4097,0.0784523
,,,,,,,,,62,57.8461,0.0741269
,,,,,,,,,74,50.5603,0.0460597
,,,,,,,,,87,118.092,0.0348734
,,,,,,,,,101,124.289,0.0481582
,,,,,,,,,116,162.703,0.0290235
,,,,,,,,,132,163.413,0.0349426
,,,,,,,,,149,124.119,0.0679956
,,,,,,,,,167,135.195,0.0244823
,,,,,,,,,186,108.244,0.062716
,,,,,,,,,50,104.547,0.0664611
,,,,,,,,,61,120.669,0.09656
,,,,,,,,,73,52.1703,0.0900899
,,,,,,,,,86,100.543,0.0517582
,,,,,,,,,100,138.044,0.0380448
,,,,,,,,,115,54.1275,0.0544232
,,,,,,,,,131,92.1637,0.0311871
,,,,,,,,,148,125.375,0.0381272
,,,,,,,,,166,88.0346,0.081192
,,,,,,,,,185,154.258,0.0260041
,,,,,,,,,205,139.274,0.073776
,,,,,,,,,72,83.331,0.0717032
,,,,,,,,,85,144.131,0.0680728
,,,,,,,,,99,121.414,0.0436476
,,,,,,,,,114,39.5533,0.0334729
,,,,,,,,,130,107.759,0.0455277
,,,,,,,,,147,94.3997,0.0280468
,,,,,,,,,165,89.5327,0.0335367
,,,,,,,,,184,145.384,0.0628669
,,,,,,,,,204,78.6328,0.0237837
,,,,,,,,,225,116.174,0.0583272
,,,,,,,,,98,87.4816,0.1
,,,,,,,,,113,38.7842,0.0548829
,,,,,,,,,129,82.8418,0.0397065
,,,,,,,,,146,168.388,0.0578888
,,,,,,,,,164,146.683,0.0322951
,,,,,,,,,183,113.174,0.0397963
,,,,,,,,,203,118.099,0.0891546
,,,,,,,,,224,84.997,0.0267699
,,,,,,,,,246,67.3199,0.0802921
,,,,,,,,,128,52.7809,0.0527304
,,,,,,,,,145,169.058,0.0385675
,,,,,,,,,163,81.4648,0.0554992
,,,,,,,,,182,111.467,0.0315375
,,,,,,,,,202,125.745,0.0386522
,,,,,,,,,223,68.0999,0.0836104
,,,,,,,,,245,135.036,0.0262473
,,,,,,,,,268,91.5318,0.0757674
,,,,,,,,,162,116.395,0.0292833
,,,,,,,,,181,129.663,0.0381114
,,,,,,,,,201,136.604,0.0250445
,,,,,,,,,222,116.414,0.0293321
,,,,,,,,,244,86.5091,0.0495519
,,,,,,,,,267,99.1816,0.021589
,,,,,,,,,291,59.162,0.0466878
,,,,,,,,,200,107.819,0.0301177
,,,,,,,,,221,74.9028,0.0213251
,,,,,,,,,243,54.8468,0.0243567
,,,,,,,,,266,112.226,0.0368392
,,,,,,,,,290,39.0827,0.0187674
,,,,,,,,,315,80.0472,0.0352323
,,,,,,,,,242,38.517,0.0256524
,,,,,,,,,265,71.2625,0.0301693
,,,,,,,,,289,54.1655,0.0519893
,,,,,,,,,314,100.312,0.0220392
,,,,,,,,,340,109.23,0.0488453
,,,,,,,,,288,33.5214,0.021351
,,,,,,,,,313,52.373,0.0303723
,,,,,,,,,339,62.1002,0.0169309
,,,,,,,,,366,84.4231,0.0292716
,,,,,,,,,338,57.8203,0.0369165
,,,,,,,,,365,29.116,0.0187874
,,,,,,,,,393,57.3381,0.035303
,,,,,,,,,392,76.8114,0.0254351
,,,,,,,,,421,58.0932,0.0693734
,,,,,,,,,450,45.0218,0.0246586
