Q	U	V
{$V$}	{[mm$^3$]}	0.0018821
{$d_v$}	{[mm]}	0.153184
{$S_c$}	{[mm$^2$]}	0.167038
{$S_o$}	{[mm$^2$]}	0.0842052
{$S_l/S_o$}	[]	0.983702
{$\Psi$}	[]	0.441331
{$\eta$}	[]	0.528501
{med($\theta_e$)}	{[$^\circ$]}	
{$\Upsilon$}	[]	10
{$\Xi$}	[]	8
