facetNormals:0,facetNormals:1,facetNormals:2,FacetCenters:0,FacetCenters:1,FacetCenters:2,FacetIds,relFacetSize,absFacetSize,cellPairingIds,interplanarAngles,angleWeights
0.425012,-0.593672,-0.575685,4.21548,5.60106,14.0551,1,0.0424858,0.00718625,8,61.086,0.0348309
0.487753,0.346818,-0.74192,4.283,5.6283,14.0889,2,0.0295133,0.00499202,13,64.2922,0.0610572
-0.562953,-0.420938,-0.654332,4.23166,5.59996,14.1539,3,0.108473,0.0183476,19,72.7098,0.0553801
-0.596236,-0.726287,-0.147817,4.20019,5.5688,14.1804,4,0.0795116,0.013449,26,115.293,0.0338569
-0.947203,0.119904,-0.155437,4.22707,5.63337,14.249,5,0.0281414,0.00475996,34,118.886,0.067078
-0.0336257,0.899703,-0.228014,4.25867,5.66434,14.1763,6,0.159267,0.0269391,43,94.8116,0.0535483
0.785696,0.501401,0.191906,4.23571,5.65393,14.132,7,0.0723997,0.012246,53,124.451,0.0304739
0.399617,0.844626,0.329151,4.29831,5.66411,14.2276,8,0.0237572,0.0040184,64,66.6603,0.0475072
0.595261,-0.58718,0.440322,4.16974,5.60837,14.0901,9,0.0538746,0.0091126,76,103.235,0.0382248
0.653931,0.148063,0.684344,4.19382,5.64427,14.1535,10,0.0347407,0.0058762,89,177.495,0.0588262
-0.473468,0.595403,0.578137,4.21979,5.64393,14.272,11,0.0955916,0.0161688,103,113.8,0.0298526
-0.36833,-0.420258,0.794609,4.13285,5.60779,14.1477,12,0.0230105,0.0038921,18,85.9351,0.0464017
,,,,,,,,,25,118.527,0.043048
,,,,,,,,,33,109.322,0.028811
,,,,,,,,,42,58.3307,0.0497986
,,,,,,,,,52,62.7919,0.0419329
,,,,,,,,,63,75.0482,0.0263242
,,,,,,,,,75,105.451,0.0381355
,,,,,,,,,88,98.6545,0.0319144
,,,,,,,,,102,119.854,0.0451018
,,,,,,,,,117,171.14,0.0258593
,,,,,,,,,32,36.1008,0.0917613
,,,,,,,,,41,51.0121,0.044689
,,,,,,,,,51,103.657,0.129052
,,,,,,,,,62,148.469,0.086839
,,,,,,,,,74,146.777,0.0389776
,,,,,,,,,87,114.48,0.0719928
,,,,,,,,,101,162.659,0.0526266
,,,,,,,,,116,113.262,0.101626
,,,,,,,,,132,98.3628,0.037967
,,,,,,,,,50,57.0375,0.04157
,,,,,,,,,61,132.75,0.10607
,,,,,,,,,73,162.02,0.0757892
,,,,,,,,,86,162.831,0.0365836
,,,,,,,,,100,89.5884,0.0642294
,,,,,,,,,115,131.059,0.0483542
,,,,,,,,,131,105.024,0.0868133
,,,,,,,,,148,63.8411,0.0356918
,,,,,,,,,72,78.7566,0.0478313
,,,,,,,,,85,140.857,0.0405292
,,,,,,,,,99,110.041,0.0257641
,,,,,,,,,114,140.237,0.036971
,,,,,,,,,130,139.816,0.0310947
,,,,,,,,,147,62.2744,0.043482
,,,,,,,,,165,79.2684,0.0253186
,,,,,,,,,98,64.4679,0.0995472
,,,,,,,,,113,43.1356,0.0413468
,,,,,,,,,129,137.657,0.080514
,,,,,,,,,146,92.887,0.0570394
,,,,,,,,,164,61.7675,0.119475
,,,,,,,,,183,127.313,0.0402113
,,,,,,,,,128,31.8663,0.0357751
,,,,,,,,,145,73.3418,0.0617783
,,,,,,,,,163,37.9043,0.0469517
,,,,,,,,,182,87.6374,0.0823948
,,,,,,,,,202,112.089,0.0349219
,,,,,,,,,162,96.9413,0.0329738
,,,,,,,,,181,49.8778,0.0282178
,,,,,,,,,201,57.8296,0.0380563
,,,,,,,,,222,104.478,0.0233779
,,,,,,,,,200,48.1826,0.0422419
,,,,,,,,,221,114.671,0.0689113
,,,,,,,,,243,65.7252,0.0322476
,,,,,,,,,242,79.0305,0.0509607
,,,,,,,,,265,75.0116,0.0276843
,,,,,,,,,288,65.5913,0.0370922
