Q	U	V
{$V$}	{[mm$^3$]}	0.0127935
{$d_v$}	{[mm]}	0.290177
{$S_c$}	{[mm$^2$]}	0.579372
{$S_o$}	{[mm$^2$]}	0.353794
{$S_l/S_o$}	[]	0.637597
{$\Psi$}	[]	0.456583
{$\eta$}	[]	0.512253
{med($\theta_e$)}	{[$^\circ$]}	65.8764
{$\Upsilon$}	[]	10
{$\Xi$}	[]	17
