facetNormals:0,facetNormals:1,facetNormals:2,FacetCenters:0,FacetCenters:1,FacetCenters:2,FacetIds,relFacetSize,absFacetSize,cellPairingIds,interplanarAngles,angleWeights
0.13658,-0.057207,-0.968568,3.29781,6.38484,12.7249,1,0.0328817,0.00310615,8,32.9327,0.0403813
0.623299,0.0448153,-0.731841,3.35634,6.38247,12.7558,2,0.0523126,0.00494168,13,55.234,0.0445514
-0.231992,0.691696,-0.629378,3.29292,6.43853,12.7624,3,0.0690612,0.00652383,19,58.2221,0.0439189
0.225785,0.77601,-0.528419,3.30039,6.41862,12.7686,4,0.0661093,0.00624498,26,71.7176,0.0210843
-0.863618,-0.163062,-0.421469,3.37125,6.46962,12.8205,5,0.015517,0.00146581,34,71.792,0.0276718
-0.48525,-0.776092,-0.330162,3.33814,6.35505,12.7753,6,0.023887,0.00225647,43,77.9928,0.0259342
0.709987,-0.640477,-0.0637316,3.3736,6.39743,12.8294,7,0.0214104,0.00202253,53,76.7676,0.03359
0.960479,0.152543,-0.0999543,3.38019,6.39031,12.793,8,0.0343295,0.00324292,64,107.706,0.0528256
-0.893859,0.127173,0.147929,3.26147,6.41519,12.8115,9,0.134257,0.0126826,76,92.5515,0.0447061
0.665573,0.704722,0.0960984,3.35623,6.4157,12.8041,10,0.0698101,0.00659458,89,102.3,0.00679418
0.557619,-0.756045,0.338476,3.35773,6.38274,12.8225,11,0.00378849,0.000357877,103,107.297,0.0440943
0.864562,0.0147953,0.408712,3.38111,6.34262,12.8132,12,0.0669107,0.00632068,118,109.822,0.012238
0.133286,-0.886967,0.409394,3.35699,6.37122,12.854,13,0.00751802,0.000710186,134,126.401,0.0299836
-0.703226,0.515884,0.463219,3.24341,6.39204,12.8438,14,0.027555,0.00260297,151,132.073,0.033983
-0.201872,-0.668743,0.664629,3.31578,6.37776,12.858,15,0.0351607,0.00332143,169,153.11,0.0457589
-0.266715,0.466971,0.818181,3.29695,6.42344,12.8509,16,0.0752147,0.00710512,188,136.835,0.0413711
0.394578,0.478151,0.739317,3.34289,6.36993,12.8445,17,0.0557698,0.00526827,18,68.0231,0.0595313
,,,,,,,,,25,52.7684,0.0584072
,,,,,,,,,33,104.645,0.0239345
,,,,,,,,,42,95.8604,0.0327978
,,,,,,,,,52,60.0457,0.0303849
,,,,,,,,,63,43.8349,0.0414548
,,,,,,,,,75,138.528,0.0752892
,,,,,,,,,88,66.3457,0.0598078
,,,,,,,,,102,86.0635,0.0070653
,,,,,,,,,117,74.8572,0.0587179
,,,,,,,,,133,105.671,0.0131467
,,,,,,,,,150,142.524,0.0360966
,,,,,,,,,168,133.797,0.042055
,,,,,,,,,187,142.16,0.0617072
,,,,,,,,,207,107.144,0.0539859
,,,,,,,,,32,28.5879,0.067553
,,,,,,,,,41,67.9334,0.0253404
,,,,,,,,,51,103.348,0.0354965
,,,,,,,,,62,127.932,0.0326872
,,,,,,,,,74,93.3108,0.0458617
,,,,,,,,,87,76.7378,0.0912064
,,,,,,,,,101,73.1178,0.0694337
,,,,,,,,,116,154.08,0.00718294
,,,,,,,,,132,119.057,0.0679689
,,,,,,,,,149,161.731,0.0135599
,,,,,,,,,167,76.1089,0.0393926
,,,,,,,,,186,153.863,0.0465975
,,,,,,,,,206,97.9248,0.0720067
,,,,,,,,,227,104.077,0.0617079
,,,,,,,,,50,96.0267,0.0251345
,,,,,,,,,61,124.884,0.0350937
,,,,,,,,,73,109.116,0.0323454
,,,,,,,,,86,65.7281,0.0451917
,,,,,,,,,100,101.843,0.0885942
,,,,,,,,,115,46.5916,0.0679093
,,,,,,,,,131,131.559,0.0071663
,,,,,,,,,148,90.576,0.0665076
,,,,,,,,,166,156.722,0.0135007
,,,,,,,,,185,90.1935,0.0388973
,,,,,,,,,205,169.594,0.045906
,,,,,,,,,226,97.915,0.0703687
,,,,,,,,,248,85.7236,0.060501
,,,,,,,,,72,43.7792,0.0188131
,,,,,,,,,85,121.056,0.0179934
,,,,,,,,,99,148.47,0.0213733
,,,,,,,,,114,39.4229,0.0278188
,,,,,,,,,130,140.272,0.0253904
,,,,,,,,,147,120.976,0.00609008
,,,,,,,,,165,171.227,0.0251919
,,,,,,,,,184,98.559,0.0101287
,,,,,,,,,204,70.0793,0.0198538
,,,,,,,,,225,89.8009,0.0215317
,,,,,,,,,247,101.523,0.0257266
,,,,,,,,,270,140.949,0.0242788
,,,,,,,,,98,79.2711,0.022581
,,,,,,,,,113,125.43,0.0281717
,,,,,,,,,129,71.2464,0.040558
,,,,,,,,,146,162.038,0.0355946
,,,,,,,,,164,77.8545,0.00653976
,,,,,,,,,183,127.455,0.0352057
,,,,,,,,,203,59.3879,0.0114366
,,,,,,,,,224,102.75,0.0255903
,,,,,,,,,246,64.9309,0.0284476
,,,,,,,,,269,121.878,0.0362588
,,,,,,,,,293,149.229,0.0334478
,,,,,,,,,128,50.9213,0.0263728
,,,,,,,,,145,145.842,0.0369313
,,,,,,,,,163,89.0753,0.0327704
,,,,,,,,,182,26.2062,0.00643782
,,,,,,,,,202,50.8788,0.0324404
,,,,,,,,,223,47.6396,0.0111284
,,,,,,,,,245,155.218,0.0240972
,,,,,,,,,268,74.7765,0.0266145
,,,,,,,,,292,125.181,0.0333325
,,,,,,,,,317,94.5419,0.030942
,,,,,,,,,162,162.687,0.0546779
,,,,,,,,,181,39.2785,0.0460256
,,,,,,,,,201,66.6822,0.00682391
,,,,,,,,,222,32.1331,0.0453774
,,,,,,,,,244,92.8665,0.0123348
,,,,,,,,,267,131.763,0.0305715
,,,,,,,,,291,112.605,0.0347401
,,,,,,,,,316,106.18,0.0471423
,,,,,,,,,342,66.3741,0.0424987
,,,,,,,,,200,123.439,0.0918571
,,,,,,,,,221,126.585,0.00736903
,,,,,,,,,243,144.285,0.0893109
,,,,,,,,,266,100.952,0.0142387
,,,,,,,,,290,32.416,0.0457254
,,,,,,,,,315,77.3147,0.055727
,,,,,,,,,341,62.1241,0.096415
,,,,,,,,,368,101.933,0.0788046
,,,,,,,,,242,97.6294,0.00718695
,,,,,,,,,265,47.8554,0.0683297
,,,,,,,,,289,121.165,0.0135742
,,,,,,,,,314,93.5748,0.0395135
,,,,,,,,,340,125.227,0.0467667
,,,,,,,,,367,76.0331,0.0724117
,,,,,,,,,395,44.4748,0.0620051
,,,,,,,,,288,50.362,0.00717095
,,,,,,,,,313,26.1847,0.00503815
,,,,,,,,,339,129.359,0.00666114
,,,,,,,,,366,50.0693,0.00683998
,,,,,,,,,394,103.296,0.00721363
,,,,,,,,,423,83.5182,0.007095
,,,,,,,,,338,73.3975,0.0135173
,,,,,,,,,365,115.797,0.0390348
,,,,,,,,,393,84.5731,0.0460976
,,,,,,,,,422,83.2097,0.0708201
,,,,,,,,,452,45.1866,0.0608344
,,,,,,,,,392,111.805,0.011813
,,,,,,,,,421,28.1327,0.0123874
,,,,,,,,,451,96.8287,0.0136697
,,,,,,,,,482,94.15,0.0132499
,,,,,,,,,450,83.6789,0.0308967
,,,,,,,,,481,33.3727,0.0403337
,,,,,,,,,513,70.9076,0.0368855
,,,,,,,,,512,72.4068,0.0479201
,,,,,,,,,545,84.3273,0.0431297
,,,,,,,,,578,40.0675,0.064049
