"cellPairingIds","interplanarAngles","angleWeights"
8,54.1912,0.0304291
13,47.4072,0.0389994
19,49.1347,0.0322415
34,42.2747,0.0369463
53,47.5399,0.0155702
18,50.1607,0.0600579
25,41.2097,0.0454027
33,35.7569,0.0580532
52,45.9252,0.0293612
102,76.1306,0.0514193
51,53.9275,0.0921347
62,56.2062,0.0372623
50,32.8486,0.0650268
86,60.4063,0.0187311
100,33.5157,0.0477972
114,44.0475,0.0620264
147,47.046,0.0781183
98,109.8,0.0353836
113,52.2321,0.0202275
146,56.7011,0.0940367
163,164.104,0.0375696
182,66.0402,0.0337449
223,111.107,0.030431
162,58.5542,0.0184737
181,43.527,0.0209235
200,88.1712,0.0652414
221,62.5993,0.0545121
243,31.5074,0.060653
266,65.9255,0.0463572
265,79.0186,0.0985291
289,82.249,0.065644
313,48.8234,0.0547929
338,35.2263,0.0610008
