facetNormals:0,facetNormals:1,facetNormals:2,FacetCenters:0,FacetCenters:1,FacetCenters:2,FacetIds,relFacetSize,absFacetSize,cellPairingIds,interplanarAngles,angleWeights
-0.0377771,0.0800619,-0.964984,6.9282,4.76309,12.9268,1,0.04715,0.0106261,8,30.2794,0.0366674
0.065109,-0.414145,-0.890282,6.94283,4.67317,12.8854,2,0.0299981,0.00676061,13,24.4969,0.0317844
-0.382313,0.28691,-0.861649,6.89771,4.7762,12.911,3,0.0239721,0.00540255,19,39.7017,0.0432492
0.57721,0.210088,-0.760394,6.9822,4.77977,12.9744,4,0.0399445,0.00900222,26,48.1407,0.0504845
-0.745262,0.0820456,-0.612979,6.85734,4.75813,12.9365,5,0.0543264,0.0122434,34,60.9942,0.0470077
0.72093,-0.401204,-0.542257,7.03041,4.6834,13.0112,6,0.0468663,0.0105622,43,59.9099,0.0585008
-0.436987,-0.691104,-0.531125,6.88248,4.63299,12.9351,7,0.0770496,0.0173645,53,78.8082,0.0207799
-0.802108,-0.541803,-0.206456,6.82935,4.67502,12.9618,8,0.0133265,0.00300338,64,83.8812,0.0563304
0.934349,0.103517,-0.129563,6.99805,4.70572,12.9667,9,0.0699502,0.0157646,76,105.054,0.0693441
0.150828,-0.871219,0.155979,6.9704,4.62147,13.0251,10,0.131014,0.0295264,89,85.3181,0.0462574
-0.667414,0.69452,0.00479801,6.86404,4.78499,12.9584,11,0.0453979,0.0102312,103,88.7222,0.043185
0.842756,0.514472,-0.0124215,6.98405,4.7229,12.9349,12,0.0398352,0.00897758,118,83.3265,0.0359903
0.350226,0.912515,-0.0522284,6.94171,4.78412,12.9385,13,0.0291023,0.00655872,134,132.181,0.0266216
-0.604357,-0.404873,0.646129,6.89357,4.6789,13.031,14,0.0185467,0.00417983,151,144.003,0.0636741
-0.381821,0.276084,0.774146,6.85832,4.68945,12.9945,15,0.098029,0.0220926,18,49.9904,0.0266487
,,,,,,,,,25,49.2781,0.0342641
,,,,,,,,,33,60.9177,0.0386528
,,,,,,,,,42,44.2554,0.0365813
,,,,,,,,,52,40.4056,0.0431834
,,,,,,,,,63,68.5622,0.0184547
,,,,,,,,,75,81.7925,0.0419892
,,,,,,,,,88,74.792,0.0488183
,,,,,,,,,102,110.72,0.0361253
,,,,,,,,,117,98.7092,0.0342238
,,,,,,,,,133,108.687,0.0295434
,,,,,,,,,150,117.825,0.0229217
,,,,,,,,,168,158.265,0.0459384
,,,,,,,,,32,59.0889,0.0299626
,,,,,,,,,41,28.7489,0.0332655
,,,,,,,,,51,85.4895,0.0317196
,,,,,,,,,62,63.6504,0.0365672
,,,,,,,,,74,70.2778,0.0171301
,,,,,,,,,87,103.348,0.0357073
,,,,,,,,,101,119.976,0.0405286
,,,,,,,,,116,61.6779,0.0313762
,,,,,,,,,132,99.6968,0.0299318
,,,,,,,,,149,79.6718,0.0262892
,,,,,,,,,167,117.444,0.0209132
,,,,,,,,,186,119.657,0.0385236
,,,,,,,,,50,86.7802,0.0460384
,,,,,,,,,61,39.5476,0.0431294
,,,,,,,,,73,89.613,0.052613
,,,,,,,,,86,115.718,0.0199854
,,,,,,,,,100,44.6786,0.050851
,,,,,,,,,115,104.152,0.0612229
,,,,,,,,,131,104.955,0.042497
,,,,,,,,,148,51.2645,0.0398898
,,,,,,,,,166,63.0535,0.0336721
,,,,,,,,,185,166.609,0.0253316
,,,,,,,,,205,147.973,0.0567604
,,,,,,,,,72,104.401,0.0503214
,,,,,,,,,85,50.9771,0.0637229
,,,,,,,,,99,44.8202,0.0214029
,,,,,,,,,114,131.456,0.0611562
,,,,,,,,,130,108.75,0.0768048
,,,,,,,,,147,53.7621,0.0494625
,,,,,,,,,165,127.205,0.0459657
,,,,,,,,,184,99.3575,0.0379012
,,,,,,,,,204,88.7155,0.0276528
,,,,,,,,,225,100.991,0.0699097
,,,,,,,,,98,74.9326,0.0582819
,,,,,,,,,113,104.759,0.0207522
,,,,,,,,,129,41.4415,0.0561274
,,,,,,,,,146,65.066,0.0690367
,,,,,,,,,164,143.292,0.0461204
,,,,,,,,,183,65.2668,0.0430656
,,,,,,,,,203,95.0637,0.0359073
,,,,,,,,,224,130.482,0.0265762
,,,,,,,,,246,154.238,0.0634148
,,,,,,,,,128,30.1318,0.0227229
,,,,,,,,,145,116.374,0.0733285
,,,,,,,,,163,58.8104,0.0970335
,,,,,,,,,182,101.727,0.0571329
,,,,,,,,,202,138.154,0.0525181
,,,,,,,,,223,142.382,0.0422474
,,,,,,,,,245,77.7843,0.0298968
,,,,,,,,,268,119.5,0.0862823
,,,,,,,,,162,146.017,0.0223879
,,,,,,,,,181,68.9724,0.0241923
,,,,,,,,,201,80.4568,0.0206046
,,,,,,,,,222,166.973,0.0199717
,,,,,,,,,244,142.111,0.0182816
,,,,,,,,,267,53.6529,0.0155091
,,,,,,,,,291,90.2012,0.0234634
,,,,,,,,,200,87.9464,0.0912048
,,,,,,,,,221,127.175,0.055061
,,,,,,,,,243,25.989,0.0507623
,,,,,,,,,266,62.53,0.0411037
,,,,,,,,,290,138.388,0.0293195
,,,,,,,,,315,119.883,0.0816428
,,,,,,,,,242,144.606,0.0674304
,,,,,,,,,265,111.369,0.0610944
,,,,,,,,,289,148.627,0.0476254
,,,,,,,,,314,65.4925,0.0324935
,,,,,,,,,340,102.591,0.112146
,,,,,,,,,288,102.46,0.042435
,,,,,,,,,313,64.9122,0.0354679
,,,,,,,,,339,82.3189,0.0263347
,,,,,,,,,366,58.9469,0.0620569
,,,,,,,,,338,37.6493,0.0336332
,,,,,,,,,365,139.05,0.0253096
,,,,,,,,,393,102.216,0.05665
,,,,,,,,,392,130.213,0.0226553
,,,,,,,,,421,84.97,0.0448806
,,,,,,,,,450,45.3958,0.0311919
