Q	U	V
{$V$}	{[mm$^3$]}	0.00600254
{$d_v$}	{[mm]}	0.225482
{$S_c$}	{[mm$^2$]}	0.378971
{$S_o$}	{[mm$^2$]}	0.203472
{$S_l/S_o$}	[]	0.862522
{$\Psi$}	[]	0.421471
{$\eta$}	[]	0.444501
{med($\theta_e$)}	{[$^\circ$]}	73.1597
{$\Upsilon$}	[]	10
{$\Xi$}	[]	3
