facetNormals:0,facetNormals:1,facetNormals:2,FacetCenters:0,FacetCenters:1,FacetCenters:2,FacetIds,relFacetSize,absFacetSize,cellPairingIds,interplanarAngles,angleWeights
0.0739859,0.232619,-0.922493,5.67622,7.27328,12.0568,1,0.0806927,0.00868342,8,49.4619,0.038544
0.12269,-0.563142,-0.789182,5.62134,7.19284,12.084,2,0.025319,0.0027246,13,44.4926,0.0199529
0.561321,-0.298355,-0.763053,5.66394,7.21644,12.1138,3,0.0113839,0.00122503,19,35.688,0.0556826
0.413293,0.624288,-0.633317,5.68592,7.33917,12.1049,4,0.0425077,0.00457429,26,72.7436,0.0477299
-0.892142,-0.0106181,-0.370701,5.66254,7.22611,12.1359,5,0.033887,0.00364662,34,67.353,0.0499169
0.899259,-0.175286,-0.364873,5.66861,7.28439,12.1933,6,0.0361351,0.00388853,43,57.3181,0.0436021
0.724088,0.583067,-0.349689,5.7118,7.32576,12.1108,7,0.0298716,0.00321451,53,77.4648,0.0497007
0.642247,-0.67341,-0.340791,5.68654,7.21246,12.0795,8,0.035909,0.0038642,64,69.0113,0.0640177
-0.587919,0.740545,-0.220117,5.70097,7.21509,12.1418,9,0.0530542,0.00570921,76,103.641,0.0786108
0.240907,-0.934372,0.0191501,5.64287,7.19299,12.099,10,0.0766337,0.00824662,89,94.5126,0.0562896
0.704173,-0.693289,-0.0378626,5.6976,7.22645,12.1172,11,0.0432192,0.00465086,103,92.0148,0.0548733
0.973823,-0.151627,0.0758168,5.70773,7.29456,12.1298,12,0.0415716,0.00447356,118,83.8784,0.0151185
0.622007,0.76509,0.133059,5.6968,7.38498,12.1234,13,0.0083406,0.000897541,134,93.5779,0.0627782
0.874011,0.364518,0.224846,5.71393,7.34695,12.1501,14,0.0513729,0.00552829,151,116.112,0.0594241
0.618641,-0.700898,0.323216,5.69674,7.23425,12.1458,15,0.0470285,0.00506078,169,108.365,0.0271303
-0.875735,0.27851,0.316796,5.662,7.27896,12.1723,16,0.0163064,0.00175475,188,119.639,0.0701075
0.80988,-0.145029,0.528666,5.7127,7.29617,12.1596,17,0.0619773,0.00666944,208,139.758,0.0643473
-0.466221,0.278668,0.789624,5.66711,7.3323,12.1743,18,0.0535085,0.0057581,229,170.781,0.0637326
-0.226009,-0.236841,0.900194,5.6665,7.29583,12.1535,19,0.0526636,0.00566719,18,30.1697,0.0157061
,,,,,,,,,25,78.0181,0.0317353
,,,,,,,,,33,78.4481,0.0289831
,,,,,,,,,42,58.9555,0.0297752
,,,,,,,,,52,87.8475,0.0274075
,,,,,,,,,63,41.3531,0.0296982
,,,,,,,,,75,109.421,0.034279
,,,,,,,,,88,55.0252,0.0380625
,,,,,,,,,102,58.3779,0.0319316
,,,,,,,,,117,81.3648,0.0314708
,,,,,,,,,133,118.205,0.0125477
,,,,,,,,,150,106.836,0.0339204
,,,,,,,,,168,77.1166,0.0329165
,,,,,,,,,187,122.78,0.019837
,,,,,,,,,207,104.307,0.0359512
,,,,,,,,,228,153.378,0.0343733
,,,,,,,,,250,130.246,0.0341971
,,,,,,,,,32,57.1014,0.0179584
,,,,,,,,,41,102.932,0.0170426
,,,,,,,,,51,31.4549,0.0173134
,,,,,,,,,62,59.5907,0.0164853
,,,,,,,,,74,33.4224,0.0172874
,,,,,,,,,87,113.405,0.0187456
,,,,,,,,,101,65.375,0.0198231
,,,,,,,,,116,50.0229,0.0180211
,,,,,,,,,132,57.0458,0.0178734
,,,,,,,,,149,88.8782,0.00962748
,,,,,,,,,167,77.4359,0.0186378
,,,,,,,,,186,71.6214,0.0183306
,,,,,,,,,206,147.745,0.0134076
,,,,,,,,,227,84.4182,0.0192348
,,,,,,,,,249,174.448,0.0187737
,,,,,,,,,272,141.364,0.018721
,,,,,,,,,50,98.5326,0.037711
,,,,,,,,,61,59.3289,0.0390632
,,,,,,,,,73,24.7245,0.0350866
,,,,,,,,,86,86.4093,0.0389307
,,,,,,,,,100,67.8636,0.0471989
,,,,,,,,,115,121.598,0.0546833
,,,,,,,,,131,96.9773,0.0428605
,,,,,,,,,148,74.4534,0.0420344
,,,,,,,,,166,48.1917,0.013945
,,,,,,,,,185,62.1155,0.0465217
,,,,,,,,,205,113.487,0.0446539
,,,,,,,,,226,114.066,0.0235708
,,,,,,,,,248,95.4229,0.0504285
,,,,,,,,,271,123.505,0.0473779
,,,,,,,,,295,149.744,0.0470438
,,,,,,,,,72,134.275,0.034975
,,,,,,,,,85,122.993,0.0317529
,,,,,,,,,99,117.324,0.0348687
,,,,,,,,,114,50.3716,0.0413578
,,,,,,,,,130,103.148,0.0469937
,,,,,,,,,147,129.429,0.0379884
,,,,,,,,,165,159.629,0.037338
,,,,,,,,,184,129.571,0.0133864
,,,,,,,,,204,157.212,0.0408369
,,,,,,,,,225,134.035,0.0393906
,,,,,,,,,247,45.2735,0.0220179
,,,,,,,,,270,166.041,0.0438167
,,,,,,,,,294,82.5374,0.0414951
,,,,,,,,,319,98.0474,0.0412386
,,,,,,,,,98,46.316,0.0327061
,,,,,,,,,113,32.9679,0.0360217
,,,,,,,,,129,127.151,0.0429899
,,,,,,,,,146,66.8988,0.0491123
,,,,,,,,,164,37.9922,0.0393609
,,,,,,,,,183,26.2012,0.0386632
,,,,,,,,,203,67.4244,0.013553
,,,,,,,,,224,48.179,0.0424273
,,,,,,,,,246,54.8758,0.0408683
,,,,,,,,,269,173.242,0.022472
,,,,,,,,,293,54.4443,0.0456529
,,,,,,,,,318,143.14,0.0431383
,,,,,,,,,344,121.26,0.0428611
,,,,,,,,,128,78.7774,0.0326132
,,,,,,,,,145,85.0589,0.0382224
,,,,,,,,,163,113.163,0.0429869
,,,,,,,,,182,83.048,0.0353266
,,,,,,,,,202,53.0474,0.0347635
,,,,,,,,,223,30.6768,0.0130402
,,,,,,,,,245,37.5188,0.0377771
,,,,,,,,,268,94.3047,0.0365361
,,,,,,,,,292,127.109,0.0210966
,,,,,,,,,317,70.9535,0.0403131
,,,,,,,,,343,118.295,0.0383397
,,,,,,,,,370,130.392,0.0381206
,,,,,,,,,162,146.391,0.0428295
,,,,,,,,,181,35.6281,0.048903
,,,,,,,,,201,18.0057,0.0392264
,,,,,,,,,222,44.2477,0.0385334
,,,,,,,,,244,99.4023,0.013537
,,,,,,,,,267,75.6392,0.0422711
,,,,,,,,,291,39.2455,0.0407234
,,,,,,,,,316,152.955,0.0224281
,,,,,,,,,342,63.1562,0.045472
,,,,,,,,,369,142.766,0.0429767
,,,,,,,,,397,107.943,0.0427017
,,,,,,,,,200,153.4,0.0627003
,,,,,,,,,221,163.198,0.0476343
,,,,,,,,,243,136.971,0.0466162
,,,,,,,,,266,79.7667,0.014415
,,,,,,,,,290,108.09,0.0522
,,,,,,,,,315,173.379,0.0498599
,,,,,,,,,341,46.3494,0.0249457
,,,,,,,,,368,137.492,0.0571696
,,,,,,,,,396,70.7565,0.0532804
,,,,,,,,,425,104.999,0.0528582
,,,,,,,,,242,31.1615,0.0552685
,,,,,,,,,265,66.675,0.0539025
,,,,,,,,,289,125.857,0.0150439
,,,,,,,,,314,97.6922,0.0615108
,,,,,,,,,340,31.9403,0.0582873
,,,,,,,,,367,119.724,0.0268909
,,,,,,,,,395,68.8379,0.0685306
,,,,,,,,,424,112.742,0.0630165
,,,,,,,,,454,78.5138,0.0624268
,,,,,,,,,288,36.2812,0.0423794
,,,,,,,,,313,95.6849,0.0139828
,,,,,,,,,339,68.4063,0.0469446
,,,,,,,,,366,21.6292,0.0450434
,,,,,,,,,394,148.746,0.0236789
,,,,,,,,,423,47.7049,0.0509258
,,,,,,,,,453,125.576,0.0478166
,,,,,,,,,484,91.7564,0.0474763
,,,,,,,,,338,59.4564,0.0138937
,,,,,,,,,365,32.3337,0.0459554
,,,,,,,,,393,41.4176,0.044132
,,,,,,,,,422,155.032,0.0234246
,,,,,,,,,452,28.3499,0.0497638
,,,,,,,,,483,117.43,0.0467907
,,,,,,,,,515,97.0331,0.0464648
,,,,,,,,,392,28.3266,0.0143512
,,,,,,,,,421,96.3261,0.0141684
,,,,,,,,,451,107.416,0.0110363
,,,,,,,,,482,61.578,0.0147026
,,,,,,,,,514,88.3005,0.0144317
,,,,,,,,,547,102.237,0.0144005
,,,,,,,,,450,68.1779,0.0491048
,,,,,,,,,481,128.787,0.0247552
,,,,,,,,,513,35.6119,0.0561791
,,,,,,,,,546,97.9093,0.0524189
,,,,,,,,,580,95.0128,0.0520103
,,,,,,,,,512,131.299,0.0242162
,,,,,,,,,545,36.9043,0.0534779
,,,,,,,,,579,103.949,0.0500596
,,,,,,,,,614,70.4448,0.0496868
,,,,,,,,,578,127.763,0.0258196
,,,,,,,,,613,37.8052,0.0249956
,,,,,,,,,649,63.3836,0.0249023
,,,,,,,,,648,90.0337,0.0574324
,,,,,,,,,685,69.5558,0.0569421
,,,,,,,,,722,35.1971,0.0530827
