Q	U	V
{$V$}	{[mm$^3$]}	0.0161671
{$d_v$}	{[mm]}	0.313722
{$S_c$}	{[mm$^2$]}	0.679092
{$S_o$}	{[mm$^2$]}	0.435599
{$S_l/S_o$}	[]	0.558984
{$\Psi$}	[]	0.455313
{$\eta$}	[]	0.459116
{med($\theta_e$)}	{[$^\circ$]}	71.4768
{$\Upsilon$}	[]	16
{$\Xi$}	[]	16
