"cellPairingIds","interplanarAngles","angleWeights"
8,38.62,0.0248768
13,40.0012,0.0524358
19,36.1679,0.0405369
26,46.5188,0.0488604
43,75.9388,0.0504966
18,56.4467,0.0307757
52,99.4419,0.0300973
63,93.9996,0.0272345
32,33.9876,0.0589486
51,37.2173,0.103671
74,126.515,0.0641397
50,41.1531,0.0544678
61,58.3225,0.0656002
115,100.16,0.0521228
131,109.458,0.0646917
85,33.5764,0.0741076
147,88.1664,0.0888451
113,107.791,0.0720933
129,93.5978,0.0703996
146,67.7263,0.0842642
128,123.599,0.0612619
182,62.8437,0.0944077
162,29.4694,0.0496285
201,88.3317,0.0709975
200,55.6895,0.0551079
221,69.7227,0.0693544
242,48.7698,0.082771
