"cellPairingIds","interplanarAngles","angleWeights"
8,56.788,0.129247
13,81.9819,0.0260166
19,69.2515,0.142456
53,94.1625,0.0644019
64,92.6666,0.0868578
18,33.8936,0.0245814
25,25.285,0.107946
42,56.9682,0.0670023
51,32.1477,0.0219179
74,154.632,0.0206306
132,101.161,0.0190667
61,57.0228,0.0703858
73,39.978,0.0164103
100,127.658,0.0766883
98,72.2052,0.0150154
183,75.4107,0.0374656
145,96.0611,0.0152834
202,105.507,0.0136201
223,81.1897,0.0163441
162,26.3452,0.0464089
222,75.3877,0.0338548
243,84.2779,0.0391795
266,61.6061,0.0752632
338,35.24,0.0469989
