"cellPairingIds","interplanarAngles","angleWeights"
8,44.8634,0.032804
13,41.2219,0.0371077
19,76.1368,0.0496775
18,84.8638,0.0471237
25,41.8558,0.0694347
42,103.865,0.0519892
32,115.865,0.0920256
41,46.9873,0.0582277
51,146.462,0.0636971
87,122.931,0.0448234
50,131.434,0.0965696
61,89.8091,0.112605
73,91.498,0.114254
131,81.1865,0.0338932
99,30.4706,0.0663902
114,80.4436,0.0458748
147,86.9761,0.0279237
98,27.3105,0.0736096
129,52.8178,0.0492034
145,31.2186,0.0495156
182,43.8821,0.029232
162,53.4768,0.0495092
201,57.7121,0.0292298
221,40.7457,0.0244214
