Q	U	V
{$V$}	{[mm$^3$]}	0.00312061
{$d_v$}	{[mm]}	0.181307
{$S_c$}	{[mm$^2$]}	0.251826
{$S_o$}	{[mm$^2$]}	0.127468
{$S_l/S_o$}	[]	0.975602
{$\Psi$}	[]	0.410088
{$\eta$}	[]	0.415215
{med($\theta_e$)}	{[$^\circ$]}	
{$\Upsilon$}	[]	16
{$\Xi$}	[]	7
