"cellPairingIds","interplanarAngles","angleWeights"
8,92.8351,0.0824807
13,33.8397,0.0698724
19,38.4467,0.0519868
34,83.4799,0.0800314
42,111.135,0.188889
61,100.01,0.0806079
72,76.7442,0.105431
98,39.9883,0.089781
