"cellPairingIds","interplanarAngles","angleWeights"
8,44.0961,0.0742772
13,52.6668,0.0701385
19,74.7333,0.0908318
26,79.2375,0.0255967
34,92.0532,0.0639827
25,56.0644,0.0933294
33,68.4627,0.0257912
32,47.9275,0.0868873
51,139.421,0.062
62,120.051,0.0487116
149,88.7946,0.0595588
50,121.157,0.0275336
86,135.34,0.0338828
100,90.1392,0.0872858
115,68.5869,0.0675186
166,91.4498,0.0738445
72,29.5834,0.0244265
99,45.0045,0.0173696
98,38.6039,0.0456606
113,36.0982,0.0292968
203,114.686,0.0550605
223,85.0491,0.0443227
162,47.4619,0.0305725
181,90.9128,0.0277291
244,94.0031,0.0287402
200,54.864,0.055536
289,36.4507,0.0497718
