Q	U	V
{$V$}	{[mm$^3$]}	0.00149856
{$d_v$}	{[mm]}	0.141979
{$S_c$}	{[mm$^2$]}	0.115425
{$S_o$}	{[mm$^2$]}	0.0607023
{$S_l/S_o$}	[]	0.901493
{$\Psi$}	[]	0.548656
{$\eta$}	[]	0.599989
{med($\theta_e$)}	{[$^\circ$]}	66.8076
{$\Upsilon$}	[]	15
{$\Xi$}	[]	9
