facetNormals:0,facetNormals:1,facetNormals:2,FacetCenters:0,FacetCenters:1,FacetCenters:2,FacetIds,relFacetSize,absFacetSize,cellPairingIds,interplanarAngles,angleWeights
-0.412681,-0.376707,-0.732357,5.92618,3.38461,10.0814,1,0.0977064,0.0224147,8,55.8579,0.0852023
-0.181872,0.475334,-0.828333,5.90504,3.46331,10.1042,2,0.0755356,0.0173285,13,62.8505,0.0649605
0.542999,-0.144691,-0.786235,6.0346,3.38058,10.0549,3,0.0486542,0.0111617,19,57.9797,0.102044
-0.707823,0.452389,-0.478643,5.86745,3.47172,10.1235,4,0.106785,0.0244974,26,96.9907,0.0681013
0.782303,0.358135,-0.474616,6.06465,3.46073,10.1016,5,0.052265,0.01199,34,103.882,0.0892235
0.519676,0.726694,-0.374319,6.01986,3.52863,10.1361,6,0.0820959,0.0188335,43,101.149,0.0420046
-0.423032,0.88086,0.0230229,5.82402,3.48439,10.2154,7,0.0267529,0.00613735,53,130.214,0.0804607
0.903176,-0.0475965,0.285847,6.07384,3.40497,10.1805,8,0.0683895,0.0156891,64,118.135,0.037127
0.640199,-0.553104,0.509552,6.08341,3.40549,10.186,9,0.0229177,0.00525751,76,122.363,0.0244859
0.293132,-0.53011,0.763895,5.99941,3.38883,10.1982,10,0.0139968,0.00321098,89,148.19,0.110924
-0.0568889,0.571251,0.735611,5.96046,3.51373,10.2249,11,0.128278,0.0294281,18,59.0117,0.0591856
,,,,,,,,,25,38.0439,0.0884822
,,,,,,,,,33,63.8446,0.0617816
,,,,,,,,,42,53.4377,0.0786792
,,,,,,,,,52,59.8999,0.0395117
,,,,,,,,,63,117.35,0.0717851
,,,,,,,,,75,146.581,0.0351659
,,,,,,,,,88,171.77,0.0236173
,,,,,,,,,102,111.159,0.0950826
,,,,,,,,,32,94.5104,0.0668498
,,,,,,,,,41,38.2118,0.050395
,,,,,,,,,51,59.7673,0.0610984
,,,,,,,,,62,113.407,0.0345231
,,,,,,,,,74,72.7017,0.056858
,,,,,,,,,87,88.3772,0.0311587
,,,,,,,,,101,112.775,0.0217396
,,,,,,,,,116,140.111,0.0705498
,,,,,,,,,50,99.9739,0.0701806
,,,,,,,,,61,81.3979,0.0928269
,,,,,,,,,73,43.3762,0.0427865
,,,,,,,,,86,150.432,0.0833794
,,,,,,,,,100,172.757,0.0377365
,,,,,,,,,115,149.592,0.0247496
,,,,,,,,,131,93.3934,0.116549
,,,,,,,,,72,27.4732,0.0638689
,,,,,,,,,85,91.5751,0.0353905
,,,,,,,,,99,53.542,0.0592498
,,,,,,,,,114,86.402,0.0318635
,,,,,,,,,130,109.71,0.0220804
,,,,,,,,,147,101.899,0.0742699
,,,,,,,,,98,64.2279,0.0403552
,,,,,,,,,113,69.0994,0.0746185
,,,,,,,,,129,105.769,0.0358325
,,,,,,,,,146,123.326,0.0239161
,,,,,,,,,164,82.9963,0.100118
,,,,,,,,,128,116.758,0.0384607
,,,,,,,,,145,140.631,0.0246872
,,,,,,,,,163,126.991,0.0183783
,,,,,,,,,182,53.3686,0.0442726
,,,,,,,,,162,36.7929,0.0343309
,,,,,,,,,181,56.653,0.0232377
,,,,,,,,,201,81.4424,0.0892154
,,,,,,,,,200,25.3557,0.0173793
,,,,,,,,,221,88.6041,0.0388878
,,,,,,,,,242,74.5445,0.0252396
