Q	U	V
{$V$}	{[mm$^3$]}	0.00340322
{$d_v$}	{[mm]}	0.186622
{$S_c$}	{[mm$^2$]}	0.261153
{$S_o$}	{[mm$^2$]}	0.152376
{$S_l/S_o$}	[]	0.713872
{$\Psi$}	[]	0.41897
{$\eta$}	[]	0.441113
{med($\theta_e$)}	{[$^\circ$]}	83.2154
{$\Upsilon$}	[]	17
{$\Xi$}	[]	11
