facetNormals:0,facetNormals:1,facetNormals:2,FacetCenters:0,FacetCenters:1,FacetCenters:2,FacetIds,relFacetSize,absFacetSize,cellPairingIds,interplanarAngles,angleWeights
0.194216,0.184094,-0.938342,3.70783,7.22949,13.0287,1,0.0139011,0.00176474,8,57.4452,0.0252944
0.424013,-0.648415,-0.581493,3.73916,7.11903,13.124,2,0.140208,0.0177992,13,54.0092,0.0141676
-0.253721,0.806199,-0.491943,3.60877,7.19689,13.1817,3,0.0144444,0.00183371,19,70.4016,0.015965
-0.768325,0.459052,-0.412741,3.60823,7.26004,13.1145,4,0.0187486,0.00238012,26,79.4714,0.0244049
-0.879902,-0.0844614,-0.381636,3.59643,7.22807,13.1351,5,0.099857,0.0126768,34,88.1629,0.0255846
-0.559755,-0.717692,-0.28849,3.63999,7.12475,13.1544,6,0.160374,0.0203593,43,95.6003,0.0188286
0.594426,0.526446,0.312926,3.7212,7.20268,13.1497,7,0.0291676,0.00370281,53,98.4956,0.0198401
-0.706563,0.652045,0.130743,3.60307,7.29273,13.17,8,0.0346391,0.0043974,64,98.5634,0.0182322
0.570164,-0.788619,0.115023,3.75658,7.08642,13.2212,9,0.0264835,0.00336206,76,125.93,0.0210816
0.176085,-0.816308,0.457234,3.75945,7.09119,13.2526,10,0.0436055,0.00553568,89,145.214,0.0214796
-0.395772,-0.646423,0.636611,3.68234,7.09095,13.2537,11,0.0472256,0.00599525,103,145.437,0.0242994
-0.636911,0.0854274,0.696377,3.60426,7.22068,13.2277,12,0.096433,0.0122421,118,169.722,0.0221843
-0.357684,-0.228154,0.890166,3.67093,7.14556,13.2703,13,0.0548931,0.00696863,18,111.31,0.0261907
,,,,,,,,,25,113.679,0.0330745
,,,,,,,,,33,95.933,0.116641
,,,,,,,,,42,64.665,0.149614
,,,,,,,,,52,109.155,0.0482895
,,,,,,,,,63,148.151,0.0555534
,,,,,,,,,75,43.7037,0.0445518
,,,,,,,,,88,68.4945,0.0665222
,,,,,,,,,102,97.12,0.0706533
,,,,,,,,,117,142.723,0.114272
,,,,,,,,,133,123.078,0.078897
,,,,,,,,,32,37.1663,0.0163175
,,,,,,,,,41,68.6427,0.0252381
,,,,,,,,,51,108.396,0.0265019
,,,,,,,,,62,81.7571,0.0193208
,,,,,,,,,74,47.535,0.0203874
,,,,,,,,,87,150.864,0.0186933
,,,,,,,,,101,175.151,0.0217005
,,,,,,,,,116,139.304,0.0221225
,,,,,,,,,132,96.9488,0.0251254
,,,,,,,,,149,123.418,0.0228707
,,,,,,,,,50,33.1172,0.0315698
,,,,,,,,,61,76.4997,0.0335724
,,,,,,,,,73,114.154,0.0228254
,,,,,,,,,86,34.4902,0.024329
,,,,,,,,,100,151.351,0.0219547
,,,,,,,,,115,138.128,0.0262226
,,,,,,,,,131,105.177,0.0268412
,,,,,,,,,148,75.0363,0.0313936
,,,,,,,,,166,101.714,0.0279507
,,,,,,,,,72,43.8235,0.123079
,,,,,,,,,85,146.715,0.0451479
,,,,,,,,,99,56.4185,0.0514357
,,,,,,,,,114,120.509,0.0418641
,,,,,,,,,130,106.509,0.0607032
,,,,,,,,,147,80.342,0.0641246
,,,,,,,,,165,71.6355,0.0981151
,,,,,,,,,184,90.3453,0.0708427
,,,,,,,,,98,169.344,0.0493584
,,,,,,,,,113,96.8305,0.0569726
,,,,,,,,,129,76.8,0.04546
,,,,,,,,,146,66.9863,0.0685676
,,,,,,,,,164,57.9291,0.072965
,,,,,,,,,183,84.0169,0.120443
,,,,,,,,,203,83.4649,0.0817907
,,,,,,,,,128,92.479,0.0316688
,,,,,,,,,145,92.7587,0.0277609
,,,,,,,,,163,102.943,0.0349544
,,,,,,,,,182,116.455,0.0360623
,,,,,,,,,202,98.2259,0.0447884
,,,,,,,,,223,93.6905,0.0380939
,,,,,,,,,162,161.567,0.0300172
,,,,,,,,,181,130.252,0.0386085
,,,,,,,,,201,93.4996,0.0399647
,,,,,,,,,222,49.5292,0.0509697
,,,,,,,,,244,76.686,0.0424751
,,,,,,,,,200,31.3493,0.0329532
,,,,,,,,,221,68.3818,0.0339361
,,,,,,,,,243,112.172,0.0415548
,,,,,,,,,266,85.3475,0.0357293
,,,,,,,,,242,37.3574,0.0453434
,,,,,,,,,265,81.296,0.0600551
,,,,,,,,,289,55.6097,0.0486025
,,,,,,,,,288,46.9585,0.0634018
,,,,,,,,,313,28.7517,0.0507715
,,,,,,,,,338,27.5807,0.0699616
