facetNormals:0,facetNormals:1,facetNormals:2,FacetCenters:0,FacetCenters:1,FacetCenters:2,FacetIds,relFacetSize,absFacetSize,cellPairingIds,interplanarAngles,angleWeights
0.340393,-0.451567,-0.781358,2.81675,3.59568,11.6012,1,0.0210073,0.0025695,8,79.3368,0.0200567
-0.512763,0.456041,-0.712963,2.85704,3.73651,11.6177,2,0.0191884,0.00234703,13,66.6665,0.0340864
0.250303,0.597713,-0.704336,2.83468,3.70268,11.5994,3,0.0903183,0.0110473,19,40.7532,0.025565
-0.289302,-0.666736,-0.656636,2.79634,3.57827,11.5911,4,0.0326481,0.00399334,26,41.6432,0.0230394
0.824094,-0.111023,-0.448257,2.83342,3.6379,11.6241,5,0.0255067,0.00311984,34,107.128,0.0277478
-0.713484,0.604249,-0.302763,2.81429,3.73369,11.6418,6,0.0408576,0.00499748,43,77.7533,0.0301314
-0.796221,-0.425872,-0.354776,2.77322,3.58376,11.6046,7,0.0532667,0.00651529,53,67.4605,0.0174373
-0.368437,-0.910488,-0.101547,2.81234,3.50771,11.6612,8,0.0149045,0.00182304,64,109.43,0.0345984
0.43747,0.864095,0.0906419,2.90793,3.75073,11.6849,9,0.0980045,0.0119874,76,79.3141,0.0137785
0.500188,-0.71014,0.408595,2.85354,3.58625,11.7139,10,0.010251,0.00125385,89,145.793,0.0100716
-0.00559075,0.841873,0.52264,2.88185,3.76093,11.755,11,0.00662355,0.000810157,103,121.222,0.0358614
-0.900087,-0.165006,0.324509,2.80082,3.6165,11.681,12,0.122433,0.0149753,118,148.312,0.0373583
-0.759117,0.22134,0.557832,2.79918,3.65096,11.7019,13,0.168545,0.0206155,134,171.514,0.0262626
-0.339699,0.586637,0.723074,2.87149,3.72385,11.7842,14,0.0350246,0.00428402,18,46.9592,0.0316522
,,,,,,,,,25,71.1948,0.0241708
,,,,,,,,,33,99.4577,0.021901
,,,,,,,,,42,28.1755,0.0261131
,,,,,,,,,52,60.8926,0.0282134
,,,,,,,,,63,99.062,0.0167773
,,,,,,,,,75,83.7305,0.0320933
,,,,,,,,,88,156.582,0.0133631
,,,,,,,,,102,89.1719,0.00984779
,,,,,,,,,117,80.721,0.0331771
,,,,,,,,,133,84.4583,0.0344543
,,,,,,,,,150,94.3159,0.0247936
,,,,,,,,,32,90.5157,0.0479598
,,,,,,,,,41,59.7379,0.0397794
,,,,,,,,,51,65.1132,0.0562632
,,,,,,,,,62,102.689,0.0670119
,,,,,,,,,74,126.709,0.0255866
,,,,,,,,,87,52.8577,0.0940045
,,,,,,,,,101,129.717,0.0184123
,,,,,,,,,116,81.8967,0.012342
,,,,,,,,,132,126.48,0.103952
,,,,,,,,,149,119.113,0.117612
,,,,,,,,,167,104.885,0.0504753
,,,,,,,,,50,81.9264,0.0286389
,,,,,,,,,61,89.8605,0.0362944
,,,,,,,,,73,38.1528,0.0404833
,,,,,,,,,86,36.2163,0.0204659
,,,,,,,,,100,143.126,0.0489797
,,,,,,,,,115,86.3124,0.0156029
,,,,,,,,,131,158.469,0.0110128
,,,,,,,,,148,80.4777,0.0515499
,,,,,,,,,166,108.086,0.0547005
,,,,,,,,,185,142.253,0.0337946
,,,,,,,,,72,124.015,0.0314067
,,,,,,,,,85,119.396,0.0344953
,,,,,,,,,99,99.6909,0.0188148
,,,,,,,,,114,75.8945,0.0404785
,,,,,,,,,130,70.1515,0.0146245
,,,,,,,,,147,110.796,0.0105162
,,,,,,,,,165,161.324,0.042218
,,,,,,,,,184,169.983,0.0443081
,,,,,,,,,204,135.621,0.0295174
,,,,,,,,,98,63.9859,0.0462441
,,,,,,,,,113,105.329,0.0218414
,,,,,,,,,129,78.9912,0.057672
,,,,,,,,,146,164.641,0.0163899
,,,,,,,,,164,68.6558,0.0113991
,,,,,,,,,183,62.2529,0.0612689
,,,,,,,,,203,57.8217,0.0657713
,,,,,,,,,224,67.1709,0.0377169
,,,,,,,,,128,41.5312,0.0232917
,,,,,,,,,145,142.477,0.0690201
,,,,,,,,,163,104.985,0.0171932
,,,,,,,,,182,124.138,0.011782
,,,,,,,,,202,44.5027,0.0742357
,,,,,,,,,223,70.5728,0.08095
,,,,,,,,,245,104.2,0.0422611
,,,,,,,,,162,175.17,0.0258741
,,,,,,,,,181,63.6444,0.0121473
,,,,,,,,,201,146.668,0.00917135
,,,,,,,,,222,62.0805,0.026574
,,,,,,,,,244,88.7099,0.0273871
,,,,,,,,,267,119.531,0.0209106
,,,,,,,,,200,112.529,0.0185606
,,,,,,,,,221,36.7467,0.0124085
,,,,,,,,,243,122.461,0.108865
,,,,,,,,,266,95.5029,0.123941
,,,,,,,,,290,63.9214,0.0516063
,,,,,,,,,242,114.014,0.00804739
,,,,,,,,,265,102.419,0.0189181
,,,,,,,,,289,109.427,0.0193266
,,,,,,,,,314,107.814,0.0158601
,,,,,,,,,288,87.8723,0.0125672
,,,,,,,,,313,59.8153,0.0127462
,,,,,,,,,339,27.1826,0.0111403
,,,,,,,,,338,28.2336,0.141835
,,,,,,,,,365,62.5502,0.0544676
,,,,,,,,,392,34.4334,0.0579971
