"cellPairingIds","interplanarAngles","angleWeights"
8,44.5709,0.0512342
13,48.1902,0.0527131
19,33.5338,0.0718706
26,51.0206,0.109078
34,82.6886,0.081965
89,129.851,0.0457014
33,57.4812,0.0469128
42,73.5592,0.04107
52,75.4237,0.0462556
63,82.6683,0.0516826
102,125.075,0.0293863
117,118.996,0.0250441
32,63.981,0.0391932
116,81.7808,0.0298669
50,45.3121,0.0636464
115,66.8581,0.0297154
131,133.536,0.0351801
99,58.1458,0.11113
130,67.5799,0.0345944
164,54.1051,0.0374369
128,61.5276,0.107512
202,47.7763,0.033465
181,68.81,0.0371206
222,87.216,0.0362163
242,109.851,0.024027
265,105.815,0.0210438
288,35.3826,0.0236449
