"cellPairingIds","interplanarAngles","angleWeights"
32,67.2527,0.0108398
41,51.7364,0.0215437
51,24.4564,0.0183807
132,88.2235,0.020945
149,73.928,0.0113127
50,74.8468,0.015356
61,66.1919,0.0136782
73,67.9166,0.016133
115,59.1008,0.0154325
205,94.4186,0.0167121
226,98.9452,0.0100274
85,32.511,0.0619227
165,54.5876,0.0485147
203,78.6509,0.0144401
269,100.836,0.0161607
163,42.0188,0.0631857
202,62.6765,0.0572218
265,92.1491,0.0492865
314,76.882,0.058724
340,51.7519,0.0731064
338,48.512,0.0159768
365,32.7986,0.053538
392,68.4641,0.0168548
451,103.484,0.0104309
482,85.8654,0.0169603
450,67.0909,0.0828674
513,28.7367,0.0664511
512,61.1855,0.0205733
545,41.0663,0.0854808
578,81.2188,0.0193844
