"cellPairingIds","interplanarAngles","angleWeights"
19,78.9385,0.037831
26,28.3565,0.0355478
64,65.0516,0.062431
76,123.403,0.05105
18,33.4679,0.0587292
25,42.3195,0.0458479
42,67.0914,0.035664
52,67.0795,0.0604905
32,40.1493,0.050243
62,63.7215,0.0683828
116,77.6021,0.0344053
132,78.7565,0.0367267
50,100.039,0.0379004
61,105.985,0.0323463
115,98.371,0.0560461
131,95.2108,0.0295428
72,31.9815,0.0306624
114,46.2719,0.0626203
98,56.2635,0.039008
113,38.5263,0.0184407
129,54.347,0.048781
128,47.1438,0.0234083
202,42.8599,0.0374079
223,49.4955,0.0758804
162,43.7476,0.0266071
244,34.7315,0.0239402
200,101.722,0.134648
266,61.754,0.124337
290,74.9582,0.0478087
242,46.7552,0.0370309
314,48.0938,0.0408369
288,41.4947,0.0242871
339,45.6885,0.0246948
338,35.1101,0.038785
365,47.6035,0.0258684
392,42.1132,0.039835
