"cellPairingIds","interplanarAngles","angleWeights"
25,97.7021,0.0269458
33,53.5965,0.0128039
42,40.4093,0.0380893
63,29.1711,0.0335471
168,74.7506,0.0332576
50,66.8566,0.0137574
61,110.021,0.0479825
73,29.5712,0.0225692
185,69.6166,0.046514
226,148.182,0.0340453
85,53.3402,0.0117236
99,72.5021,0.0152939
184,87.8662,0.0098907
204,68.3365,0.0160029
246,58.6861,0.072476
269,76.9466,0.0540099
245,42.1497,0.0293181
244,37.0905,0.0189349
291,46.3199,0.0576287
392,102.586,0.0200338
421,27.7833,0.0188424
482,25.408,0.0177712
481,114.271,0.0521565
513,85.0431,0.0566423
512,33.5032,0.0447841
545,36.6047,0.0480516
578,49.3524,0.039172
