Q	U	V
{$V$}	{[mm$^3$]}	0.00115657
{$d_v$}	{[mm]}	0.130234
{$S_c$}	{[mm$^2$]}	0.0934514
{$S_o$}	{[mm$^2$]}	0.0461559
{$S_l/S_o$}	[]	1.024690
{$\Psi$}	[]	0.570181
{$\eta$}	[]	0.646308
{med($\theta_e$)}	{[$^\circ$]}	57.6907
{$\Upsilon$}	[]	18
{$\Xi$}	[]	6
