Q	U	V
{$V$}	{[mm$^3$]}	0.00592773
{$d_v$}	{[mm]}	0.224541
{$S_c$}	{[mm$^2$]}	0.390661
{$S_o$}	{[mm$^2$]}	0.214454
{$S_l/S_o$}	[]	0.821654
{$\Psi$}	[]	0.405455
{$\eta$}	[]	0.453754
{med($\theta_e$)}	{[$^\circ$]}	
{$\Upsilon$}	[]	21
{$\Xi$}	[]	8
