"cellPairingIds","interplanarAngles","angleWeights"
26,73.6291,0.0578024
76,98.7996,0.0235517
134,140.525,0.0337395
130,166.236,0.0285646
165,64.0663,0.119189
204,122.149,0.0450705
265,123.244,0.0298067
314,71.0178,0.0211207
365,67.8311,0.0482426
