facetNormals:0,facetNormals:1,facetNormals:2,FacetCenters:0,FacetCenters:1,FacetCenters:2,FacetIds,relFacetSize,absFacetSize,cellPairingIds,interplanarAngles,angleWeights
0.420956,-0.797861,-0.403175,7.12328,4.72136,12.4093,1,0.00908833,0.000830676,8,47.5708,0.0161024
-0.342991,-0.895699,-0.208542,7.06503,4.74016,12.4057,2,0.0705524,0.00644852,13,31.849,0.00932481
0.747617,-0.644625,0.00120533,7.14633,4.72198,12.4337,3,0.00957393,0.000875061,19,112.899,0.0168756
-0.963646,0.0408774,-0.155411,6.97262,4.82453,12.3479,4,0.117881,0.0107744,26,68.3733,0.0167431
-0.520323,-0.814432,0.180407,7.00571,4.76815,12.4316,5,0.106147,0.00970186,34,153.181,0.0161159
-0.733638,0.644344,0.107378,6.97959,4.89191,12.3718,6,0.0710743,0.00649621,43,141.939,0.0130631
0.125709,0.958118,0.112455,7.09209,4.84831,12.4721,7,0.0232171,0.00212205,53,45.2986,0.0103277
0.323747,-0.867595,0.348961,7.05102,4.74991,12.3864,8,0.0119586,0.00109302,64,117.13,0.0100558
0.573795,0.686709,0.29221,7.08729,4.85967,12.4642,9,0.0112538,0.0010286,76,167.664,0.0103891
-0.223517,0.866264,0.450296,7.03766,4.897,12.4499,10,0.0121243,0.00110817,89,101.169,0.0131011
-0.651438,-0.417089,0.614071,6.9932,4.79799,12.4722,11,0.0234587,0.00214413,103,157.37,0.017017
-0.548683,0.503166,0.613284,6.99821,4.85961,12.4536,12,0.133365,0.0121896,118,80.7277,0.0167095
-0.0787535,-0.613317,0.748196,7.08791,4.76594,12.4768,13,0.103504,0.00946031,134,116.872,0.00934309
0.49913,0.450006,0.728678,7.09327,4.8526,12.4901,14,0.00961255,0.00087859,151,79.4515,0.0152553
0.434395,-0.386092,0.780876,7.11264,4.78073,12.4701,15,0.0474594,0.00433781,169,99.3301,0.0121047
0.148747,-0.207489,0.960984,7.11987,4.77394,12.482,16,0.018118,0.00165599,188,128.405,0.0120906
-0.0533082,0.249352,0.95334,7.06971,4.81554,12.4898,17,0.0180551,0.00165024,18,70.6706,0.01686
,,,,,,,,,25,70.1049,0.0882731
,,,,,,,,,33,25.5909,0.0847646
,,,,,,,,,42,111.151,0.0708124
,,,,,,,,,52,165.568,0.0349372
,,,,,,,,,63,52.3524,0.0204508
,,,,,,,,,75,160.843,0.0194114
,,,,,,,,,88,143.785,0.0206927
,,,,,,,,,102,61.0681,0.0352101
,,,,,,,,,117,114.353,0.0922846
,,,,,,,,,133,63.8204,0.0839091
,,,,,,,,,150,138.28,0.0169198
,,,,,,,,,168,87.9617,0.0567465
,,,,,,,,,187,93.8527,0.0288319
,,,,,,,,,207,114.642,0.0287522
,,,,,,,,,32,140.764,0.0177096
,,,,,,,,,41,81.9315,0.0175637
,,,,,,,,,51,173.633,0.0168748
,,,,,,,,,62,123.033,0.0135573
,,,,,,,,,74,34.845,0.0106342
,,,,,,,,,87,90.8224,0.0103461
,,,,,,,,,101,137.161,0.0106993
,,,,,,,,,116,102.886,0.0135982
,,,,,,,,,132,140.416,0.0178654
,,,,,,,,,149,69.3836,0.0175267
,,,,,,,,,167,85.0784,0.0095932
,,,,,,,,,186,53.2759,0.0159336
,,,,,,,,,206,75.4785,0.0125279
,,,,,,,,,227,101.814,0.0125128
,,,,,,,,,50,62.7302,0.111707
,,,,,,,,,61,41.6918,0.0886804
,,,,,,,,,73,96.0062,0.0387937
,,,,,,,,,86,114.549,0.0217143
,,,,,,,,,100,128.322,0.0205462
,,,,,,,,,115,79.3507,0.0219873
,,,,,,,,,131,57.7216,0.0391304
,,,,,,,,,148,61.1979,0.125146
,,,,,,,,,166,93.9582,0.110226
,,,,,,,,,185,126.485,0.0177756
,,,,,,,,,205,125.76,0.0676733
,,,,,,,,,226,108.061,0.0314086
,,,,,,,,,248,95.1532,0.031314
,,,,,,,,,72,97.3575,0.0851401
,,,,,,,,,85,149.658,0.0381006
,,,,,,,,,99,51.8423,0.0214954
,,,,,,,,,114,150.449,0.0203501
,,,,,,,,,130,121.056,0.0217629
,,,,,,,,,147,35.6083,0.0384253
,,,,,,,,,165,90.8255,0.118209
,,,,,,,,,184,44.9426,0.104809
,,,,,,,,,204,120.508,0.0176287
,,,,,,,,,225,76.1373,0.065592
,,,,,,,,,247,74.2739,0.0309528
,,,,,,,,,270,90.1981,0.0308609
,,,,,,,,,98,55.7958,0.0350008
,,,,,,,,,113,141.34,0.0204725
,,,,,,,,,129,86.7208,0.019431
,,,,,,,,,146,38.45,0.020715
,,,,,,,,,164,73.5266,0.0352747
,,,,,,,,,183,33.2243,0.0927299
,,,,,,,,,203,105.641,0.0842771
,,,,,,,,,224,89.8811,0.0169347
,,,,,,,,,246,120.383,0.0569145
,,,,,,,,,269,98.2191,0.0288753
,,,,,,,,,293,71.8392,0.0287953
,,,,,,,,,128,141.297,0.0157861
,,,,,,,,,145,33.5851,0.0151595
,,,,,,,,,163,28.9619,0.0159299
,,,,,,,,,182,115.422,0.0233373
,,,,,,,,,202,59.0858,0.0395492
,,,,,,,,,223,122.934,0.0379268
,,,,,,,,,245,53.3352,0.013596
,,,,,,,,,268,103.901,0.0311806
,,,,,,,,,292,94.2705,0.020353
,,,,,,,,,317,69.2962,0.0203133
,,,,,,,,,162,109.31,0.0115955
,,,,,,,,,181,132.279,0.0120409
,,,,,,,,,201,68.0554,0.0158416
,,,,,,,,,222,114.786,0.021949
,,,,,,,,,244,36.943,0.02144
,,,,,,,,,267,88.5134,0.010658
,,,,,,,,,291,39.0487,0.0191035
,,,,,,,,,316,55.0616,0.0144076
,,,,,,,,,342,84.1768,0.0143876
,,,,,,,,,200,50.6205,0.0116729
,,,,,,,,,221,121.138,0.0152107
,,,,,,,,,243,76.6339,0.0207562
,,,,,,,,,266,105.73,0.0203004
,,,,,,,,,290,29.9742,0.0103686
,,,,,,,,,315,76.604,0.0181935
,,,,,,,,,341,76.1748,0.0138838
,,,,,,,,,368,63.1756,0.0138653
,,,,,,,,,242,86.4754,0.0159863
,,,,,,,,,265,30.2313,0.0222279
,,,,,,,,,289,100.477,0.0217061
,,,,,,,,,314,52.3551,0.0107233
,,,,,,,,,340,94.7025,0.0193145
,,,,,,,,,367,77.2528,0.0145272
,,,,,,,,,395,48.3239,0.014507
,,,,,,,,,288,56.6164,0.0398992
,,,,,,,,,313,36.9056,0.0382486
,,,,,,,,,339,93.8294,0.0136371
,,,,,,,,,366,68.1652,0.0313978
,,,,,,,,,394,53.8168,0.0204453
,,,,,,,,,423,58.0236,0.0204052
,,,,,,,,,338,78.0743,0.116552
,,,,,,,,,365,65.3053,0.0179326
,,,,,,,,,393,87.1743,0.0700063
,,,,,,,,,422,65.1303,0.031902
,,,,,,,,,452,39.0337,0.0318044
,,,,,,,,,392,76.1767,0.0175914
,,,,,,,,,421,33.6157,0.0650786
,,,,,,,,,451,30.1519,0.030838
,,,,,,,,,482,53.8875,0.0307468
,,,,,,,,,450,50.6288,0.015987
,,,,,,,,,481,46.2868,0.0125609
,,,,,,,,,513,37.0943,0.0125457
,,,,,,,,,512,22.3561,0.0262246
,,,,,,,,,545,49.4104,0.0261586
,,,,,,,,,578,29.2086,0.0180865
