"cellPairingIds","interplanarAngles","angleWeights"
8,114.224,0.0216883
13,114.364,0.0361934
19,127.25,0.0343451
26,75.4933,0.029573
34,111.504,0.0338985
76,120.739,0.0332935
89,97.4049,0.0327227
18,34.0935,0.037334
42,64.194,0.0348971
52,59.5301,0.0175389
32,28.2018,0.102107
62,51.6755,0.0259486
50,93.9365,0.0625823
73,37.0541,0.0249846
86,46.1715,0.0871907
99,74.3695,0.0618525
147,60.5059,0.057397
165,53.9489,0.0399461
98,79.6715,0.0247475
129,48.6166,0.109202
146,37.2907,0.0794674
128,29.559,0.0248675
145,38.8326,0.026654
202,61.2844,0.0203752
222,35.379,0.0487236
200,36.3803,0.103163
243,57.2251,0.0560896
242,45.228,0.0732935
265,62.5756,0.0470477
288,42.353,0.0459159
