"cellPairingIds","interplanarAngles","angleWeights"
8,116.704,0.00896456
13,165.292,0.116218
34,45.9289,0.042829
43,62.591,0.0260304
53,42.8636,0.0193985
18,71.7499,0.00920639
42,90.7825,0.00810607
102,70.7495,0.00874441
62,116.436,0.0281798
116,66.0016,0.0876197
113,29.0236,0.0157817
164,83.9792,0.0382306
128,39.238,0.0127498
182,87.1359,0.0242571
201,86.0292,0.0183963
