facetNormals:0,facetNormals:1,facetNormals:2,FacetCenters:0,FacetCenters:1,FacetCenters:2,FacetIds,relFacetSize,absFacetSize,cellPairingIds,interplanarAngles,angleWeights
0.266193,-0.310519,-0.867073,3.82618,5.19173,11.1459,1,0.0646329,0.0267374,8,50.1797,0.033738
-0.508488,-0.0741739,-0.806872,3.81426,5.22039,11.1986,2,0.0228267,0.00944296,13,111.624,0.0593245
-0.865317,0.362136,-0.0130924,3.74515,5.26346,11.2127,3,0.0548218,0.0226787,19,65.8343,0.0226517
0.792756,-0.571573,0.0056925,3.95635,5.17772,11.3216,4,0.0137322,0.00568072,26,71.9851,0.095668
0.736882,0.46558,-0.25064,3.91028,5.27847,11.2882,5,0.184038,0.076133,34,84.5016,0.078163
-0.535148,-0.79629,0.0192159,3.78844,5.19821,11.2907,6,0.0988575,0.0408954,43,87.8792,0.0931353
-0.0282246,-0.875563,0.267418,3.83914,5.17522,11.3392,7,0.166607,0.068922,53,120.562,0.0427251
0.653548,0.112596,0.704102,3.91516,5.24316,11.3866,8,0.0319092,0.0132002,64,144.074,0.0576525
0.0671551,0.735468,0.621381,3.83729,5.32357,11.3656,9,0.0520329,0.021525,76,177.216,0.0645575
-0.293435,0.274617,0.887406,3.78381,5.27847,11.4321,10,0.0644823,0.026675,18,61.827,0.0322325
,,,,,,,,,25,113,0.0171482
,,,,,,,,,33,103.803,0.0406158
,,,,,,,,,42,69.8861,0.0370893
,,,,,,,,,52,98.961,0.0401522
,,,,,,,,,63,169.169,0.0266144
,,,,,,,,,75,129.725,0.0317325
,,,,,,,,,88,129.057,0.0337175
,,,,,,,,,32,166.91,0.0219629
,,,,,,,,,41,123.189,0.0844789
,,,,,,,,,51,78.8259,0.0705306
,,,,,,,,,62,110.161,0.0824978
,,,,,,,,,74,126.048,0.040339
,,,,,,,,,87,77.2329,0.0533909
,,,,,,,,,101,68.0411,0.059261
,,,,,,,,,50,69.0715,0.0255573
,,,,,,,,,61,88.1055,0.0241146
,,,,,,,,,73,57.6046,0.025373
,,,,,,,,,86,61.0379,0.0192011
,,,,,,,,,100,112.672,0.0217296
,,,,,,,,,115,113.821,0.0226424
,,,,,,,,,72,152.204,0.128624
,,,,,,,,,85,126.615,0.174889
,,,,,,,,,99,65.9483,0.0543884
,,,,,,,,,114,74.3484,0.0811284
,,,,,,,,,130,110.595,0.0955029
,,,,,,,,,98,35.286,0.124087
,,,,,,,,,113,117.312,0.0482457
,,,,,,,,,129,131.166,0.0681798
,,,,,,,,,146,92.7341,0.0780527
,,,,,,,,,128,85.3865,0.0535603
,,,,,,,,,145,122.861,0.0792997
,,,,,,,,,163,89.6696,0.0929788
,,,,,,,,,162,52.8159,0.0395589
,,,,,,,,,181,60.5014,0.0426921
,,,,,,,,,200,38.71,0.0575925
