"cellPairingIds","interplanarAngles","angleWeights"
8,43.6892,0.0691922
13,66.7923,0.0203417
19,34.6109,0.0327217
26,54.3387,0.0552546
34,66.3818,0.0147902
18,36.7211,0.0219201
42,82.1038,0.0156073
52,44.6763,0.0561713
41,42.4166,0.0202981
62,41.7887,0.0190439
87,66.1669,0.0222717
132,85.7258,0.0230236
50,81.3884,0.0326088
61,42.1844,0.0124718
86,40.0508,0.0270203
115,55.3194,0.0211329
99,67.7246,0.0407391
114,51.7252,0.0722645
98,100.777,0.014092
146,49.3131,0.0118524
164,67.3854,0.0128916
183,137.396,0.0161587
202,73.8569,0.0640359
162,89.0824,0.0495524
181,52.501,0.0242721
244,72.226,0.0356791
243,54.9646,0.124905
266,82.3028,0.0577393
242,39.9071,0.022367
289,45.73,0.0260837
288,80.7898,0.044997
313,34.1214,0.0317089
338,74.5846,0.0630795
