facetNormals:0,facetNormals:1,facetNormals:2,FacetCenters:0,FacetCenters:1,FacetCenters:2,FacetIds,relFacetSize,absFacetSize,cellPairingIds,interplanarAngles,angleWeights
0.437545,-0.533342,-0.682324,3.85535,7.19278,11.7005,1,0.0360205,0.0120323,8,106.666,0.0267958
-0.847778,0.234719,-0.342175,3.74781,7.29334,11.8852,2,0.0213326,0.00712594,13,38.4102,0.0392822
0.769744,-0.587453,-0.136906,3.91481,7.1707,11.8315,3,0.0431934,0.0144283,19,71.0841,0.0499266
0.888967,0.348408,-0.147671,3.96586,7.35065,11.9882,4,0.0813221,0.0271648,26,66.6001,0.0592198
-0.355116,-0.856064,-0.0841432,3.8083,7.19089,11.8625,5,0.166376,0.0555763,34,115.817,0.0330745
-0.893894,-0.279344,0.24458,3.78579,7.21255,11.9462,6,0.0305739,0.0102129,43,57.6035,0.0493139
0.949166,-0.117984,-0.0281608,3.94685,7.24331,11.9271,7,0.0781585,0.026108,53,66.5517,0.0307433
0.5128,-0.752746,0.362508,3.91198,7.18528,11.9547,8,0.0268148,0.00895721,64,86.8485,0.0485051
-0.180502,-0.829711,0.457397,3.84067,7.20582,11.9668,9,0.0742346,0.0247973,76,128.654,0.0347342
0.331365,0.773645,0.459458,3.89388,7.42861,11.9991,10,0.0335366,0.0112026,89,161.834,0.0459369
-0.651055,0.35972,0.55652,3.82737,7.32689,12.038,11,0.0633874,0.0211739,103,101.226,0.052237
0.540663,-0.179132,0.746728,3.91712,7.26038,12.0523,12,0.0950116,0.0317377,18,143.669,0.0285599
,,,,,,,,,25,132.949,0.033799
,,,,,,,,,33,81.5604,0.0378164
,,,,,,,,,42,48.2324,0.0251306
,,,,,,,,,52,155.635,0.0335171
,,,,,,,,,63,142.641,0.0237616
,,,,,,,,,75,102.577,0.0331414
,,,,,,,,,88,106.467,0.0260774
,,,,,,,,,102,59.4295,0.0319221
,,,,,,,,,117,148.513,0.0348422
,,,,,,,,,32,58.0618,0.0564199
,,,,,,,,,41,74.6396,0.068582
,,,,,,,,,51,126.08,0.0358042
,,,,,,,,,62,30.8008,0.0556387
,,,,,,,,,74,34.7912,0.0330882
,,,,,,,,,87,72.3578,0.0546112
,,,,,,,,,101,106.245,0.0377573
,,,,,,,,,116,150.24,0.0513773
,,,,,,,,,132,62.8448,0.0593882
,,,,,,,,,50,131.991,0.109246
,,,,,,,,,61,172.94,0.0444401
,,,,,,,,,73,29.2238,0.0797089
,,,,,,,,,86,81.4955,0.040331
,,,,,,,,,100,123.704,0.0776169
,,,,,,,,,115,57.6096,0.0474891
,,,,,,,,,131,126.639,0.0712434
,,,,,,,,,148,70.1604,0.0876355
,,,,,,,,,72,53.4846,0.0516554
,,,,,,,,,85,105.214,0.106355
,,,,,,,,,99,61.7506,0.0461858
,,,,,,,,,114,34.9256,0.102663
,,,,,,,,,130,156.548,0.0558213
,,,,,,,,,147,98.2179,0.0918001
,,,,,,,,,165,96.6679,0.120952
,,,,,,,,,98,152.612,0.043954
,,,,,,,,,113,99.674,0.0285712
,,,,,,,,,129,57.2523,0.0433103
,,,,,,,,,146,115.526,0.0319868
,,,,,,,,,164,46.6189,0.041251
,,,,,,,,,183,106.004,0.0462613
,,,,,,,,,128,52.9381,0.0399302
,,,,,,,,,145,95.3665,0.076146
,,,,,,,,,163,76.7496,0.0469344
,,,,,,,,,182,139.513,0.0700022
,,,,,,,,,202,55.1684,0.085765
,,,,,,,,,162,42.4347,0.0393983
,,,,,,,,,181,105.164,0.0298014
,,,,,,,,,201,116.258,0.0376869
,,,,,,,,,222,42.1295,0.0418254
,,,,,,,,,200,122.109,0.0462012
,,,,,,,,,221,85.2879,0.0683835
,,,,,,,,,243,64.3151,0.0833478
,,,,,,,,,242,69.0664,0.0438653
,,,,,,,,,265,64.7833,0.0495747
,,,,,,,,,288,90.0571,0.0760426
