"cellPairingIds","interplanarAngles","angleWeights"
13,34.0319,0.0753943
19,33.5003,0.0496501
26,41.3045,0.0782515
43,80.4477,0.0396076
53,67.8341,0.0488231
25,33.1594,0.053429
52,78.407,0.0419759
88,60.2679,0.0454278
62,49.5426,0.041862
74,39.3767,0.0522946
50,36.9788,0.0546539
73,99.8185,0.0325041
100,45.6171,0.0331299
115,60.4539,0.0345362
99,93.457,0.0536534
114,45.1599,0.0438162
165,50.7902,0.0448093
225,85.7008,0.104255
270,95.2773,0.0421183
128,48.9845,0.0321476
163,129.696,0.0293583
223,72.3875,0.0266503
292,97.8472,0.0326379
222,78.4224,0.0333116
244,55.1102,0.0305274
267,59.279,0.0153916
200,27.2549,0.0298679
315,55.9895,0.0465567
340,51.6342,0.0493825
367,98.8619,0.0346873
365,56.0391,0.0145668
452,50.2142,0.0284705
392,23.3183,0.0140081
451,44.5051,0.0309692
481,50.4658,0.0155031
513,38.8441,0.0142704
512,58.2494,0.0594269
545,44.1066,0.0446444
578,41.7765,0.0322809
