facetNormals:0,facetNormals:1,facetNormals:2,FacetCenters:0,FacetCenters:1,FacetCenters:2,FacetIds,relFacetSize,absFacetSize,cellPairingIds,interplanarAngles,angleWeights
-0.429036,-0.0975253,-0.826783,3.71601,7.06227,12.9928,1,0.0498672,0.00513895,8,51.0127,0.0342952
0.340014,-0.376304,-0.817973,3.77349,7.00974,13.0251,2,0.0261343,0.00269321,13,42.6635,0.0276305
-0.583163,0.521641,-0.560773,3.70293,7.09258,12.9773,3,0.0191093,0.00196927,19,66.733,0.0257062
-0.112992,0.839098,-0.474682,3.73404,7.1333,13.0219,4,0.0173163,0.00178449,26,58.5892,0.0329082
-0.298426,-0.883551,-0.323719,3.76737,7.01539,13.0677,5,0.0245568,0.00253065,34,107.997,0.0213481
0.873868,0.430506,-0.158796,3.77059,7.07483,13.0347,6,0.0135811,0.00139957,43,82.8782,0.0493218
0.022159,-0.969276,-0.0334084,3.78882,6.98169,13.1055,7,0.0487883,0.00502776,53,104.73,0.0494622
0.582705,-0.738298,0.0560992,3.81312,6.97433,13.116,8,0.0490636,0.00505614,64,67.1702,0.0825681
-0.829646,-0.463435,0.066493,3.72181,7.02255,13.0603,9,0.239854,0.0247176,76,117.815,0.0802121
-0.337356,0.678548,0.608822,3.75037,7.09237,13.1084,10,0.204891,0.0211145,89,165.591,0.0308871
0.549351,-0.109741,0.794118,3.84873,7.01799,13.1815,11,0.022372,0.0023055,103,142.878,0.0521587
-0.126472,-0.117394,0.964218,3.79991,7.01271,13.1884,12,0.0546708,0.00563397,18,86.0316,0.0220764
,,,,,,,,,25,87.908,0.0208306
,,,,,,,,,33,58.5436,0.025321
,,,,,,,,,42,73.8006,0.0178738
,,,,,,,,,52,64.6597,0.0340364
,,,,,,,,,63,61.6894,0.0341032
,,,,,,,,,75,100.183,0.047133
,,,,,,,,,88,158.101,0.0463558
,,,,,,,,,102,116.784,0.0241073
,,,,,,,,,117,146.653,0.0353637
,,,,,,,,,32,34.5282,0.0181687
,,,,,,,,,41,96.3639,0.0214933
,,,,,,,,,51,101.904,0.0158778
,,,,,,,,,62,122.358,0.0274623
,,,,,,,,,74,146.507,0.0275057
,,,,,,,,,87,77.0963,0.0353985
,,,,,,,,,101,77.0762,0.0349583
,,,,,,,,,116,151.601,0.0206124
,,,,,,,,,132,124.067,0.0283199
,,,,,,,,,50,125.322,0.0203106
,,,,,,,,,61,69.3494,0.0152229
,,,,,,,,,73,148.162,0.0255605
,,,,,,,,,86,141.122,0.0255982
,,,,,,,,,100,110.689,0.0323007
,,,,,,,,,115,70.2724,0.0319338
,,,,,,,,,131,124.265,0.0195222
,,,,,,,,,148,124.747,0.0263019
,,,,,,,,,72,127.249,0.0174896
,,,,,,,,,85,26.0184,0.0326698
,,,,,,,,,99,60.3407,0.0327313
,,,,,,,,,114,47.4837,0.0445523
,,,,,,,,,130,136.489,0.0438572
,,,,,,,,,147,109.741,0.0234136
,,,,,,,,,165,100.166,0.0338907
,,,,,,,,,98,114.207,0.0212475
,,,,,,,,,113,78.6856,0.0212735
,,,,,,,,,129,173.978,0.0257066
,,,,,,,,,146,95.9445,0.0254736
,,,,,,,,,164,71.3518,0.0169018
,,,,,,,,,183,108.963,0.0217573
,,,,,,,,,128,37.3466,0.0489256
,,,,,,,,,145,62.3695,0.0810835
,,,,,,,,,163,136.631,0.0788103
,,,,,,,,,182,84.3992,0.030677
,,,,,,,,,202,85.245,0.0515623
,,,,,,,,,162,98.8153,0.0814635
,,,,,,,,,181,136.412,0.0791692
,,,,,,,,,201,60.8746,0.0307312
,,,,,,,,,222,85.8328,0.0517157
,,,,,,,,,200,89.6346,0.220998
,,,,,,,,,221,112.354,0.0409267
,,,,,,,,,243,76.1456,0.0890452
,,,,,,,,,242,76.3031,0.0403394
,,,,,,,,,265,54.7127,0.0863112
,,,,,,,,,288,41.849,0.0317511
