facetNormals:0,facetNormals:1,facetNormals:2,FacetCenters:0,FacetCenters:1,FacetCenters:2,FacetIds,relFacetSize,absFacetSize,cellPairingIds,interplanarAngles,angleWeights
-0.332846,0.0329339,-0.904733,3.8961,5.15119,13.4078,1,0.0494905,0.00548821,8,29.9947,0.0280184
-0.329545,-0.462862,-0.806719,3.9097,5.12741,13.3686,2,0.0195405,0.00216692,13,55.1662,0.0404629
-0.154718,-0.782194,-0.567582,3.91469,5.11809,13.3867,3,0.0342206,0.00379487,19,51.732,0.0533874
-0.716499,-0.524962,-0.398284,3.8885,5.10769,13.4129,4,0.0579505,0.00642637,26,85.3329,0.0516165
-0.242499,-0.936616,-0.028846,3.93592,5.10406,13.3904,5,0.0539333,0.00598089,34,94.7497,0.0396719
0.929962,-0.0815381,-0.259557,3.95648,5.16725,13.4635,6,0.0331042,0.00367106,43,90.7062,0.0187737
0.575073,0.780927,-0.1702,3.90133,5.09834,13.3639,7,0.011584,0.00128459,53,81.1388,0.0566356
-0.82784,0.350259,0.167152,3.86867,5.15873,13.4276,8,0.0661919,0.00734029,64,104.365,0.0724655
0.492967,-0.811142,0.0404057,3.9652,5.08893,13.4169,9,0.135255,0.014999,76,90.8913,0.0217143
-0.909575,-0.16439,0.345005,3.84264,5.18427,13.4391,10,0.0139084,0.00154236,89,131.334,0.0723654
0.835928,0.219406,0.359561,3.97315,5.13507,13.4262,11,0.13456,0.0149219,103,107.487,0.0300278
-0.688977,-0.413912,0.550497,3.86151,5.15183,13.4536,12,0.0215521,0.00239,118,130.991,0.0250331
0.474369,0.680369,0.543853,3.92514,5.1724,13.4445,13,0.0167537,0.00185788,134,137.599,0.0500619
0.169605,-0.674963,0.67793,3.91784,5.09617,13.4434,14,0.0506466,0.00561641,151,123.794,0.041819
-0.167545,0.67697,0.65272,3.87461,5.15991,13.4483,15,0.0362067,0.00401511,169,149.12,0.0590634
-0.170744,-0.131444,0.944205,3.91254,5.1344,13.4867,16,0.0732278,0.00812053,18,25.6035,0.0248762
,,,,,,,,,25,33.5604,0.0292261
,,,,,,,,,33,55.8093,0.0286873
,,,,,,,,,42,93.558,0.024575
,,,,,,,,,52,115.2,0.0145452
,,,,,,,,,63,91.5342,0.0301735
,,,,,,,,,75,78.9052,0.0341476
,,,,,,,,,88,84.2512,0.0162503
,,,,,,,,,102,136.241,0.0341253
,,,,,,,,,117,91.5179,0.0204971
,,,,,,,,,133,158.407,0.0180401
,,,,,,,,,150,107.632,0.0282006
,,,,,,,,,168,146.361,0.0253823
,,,,,,,,,187,132.418,0.030849
,,,,,,,,,32,38.3144,0.0430309
,,,,,,,,,41,33.8782,0.0418729
,,,,,,,,,51,85.9355,0.0336532
,,,,,,,,,62,128.75,0.0173088
,,,,,,,,,74,105.608,0.0451165
,,,,,,,,,87,54.8548,0.0546216
,,,,,,,,,101,85.635,0.0197782
,,,,,,,,,116,123.453,0.0545646
,,,,,,,,,132,82.8968,0.0264476
,,,,,,,,,149,160.361,0.0224945
,,,,,,,,,167,82.9366,0.040844
,,,,,,,,,186,159.221,0.0351857
,,,,,,,,,206,115.407,0.0466438
,,,,,,,,,50,44.0744,0.0558698
,,,,,,,,,61,123.467,0.0421374
,,,,,,,,,73,141.894,0.0193083
,,,,,,,,,86,67.3531,0.0617976
,,,,,,,,,100,86.4965,0.0811374
,,,,,,,,,115,51.291,0.0224328
,,,,,,,,,131,160.201,0.0810118
,,,,,,,,,148,58.7697,0.0314192
,,,,,,,,,166,161.144,0.0259927
,,,,,,,,,185,92.2543,0.0540529
,,,,,,,,,205,122.187,0.0445679
,,,,,,,,,226,101.299,0.0646995
,,,,,,,,,72,98.6874,0.0410265
,,,,,,,,,85,155.315,0.0190717
,,,,,,,,,99,98.5865,0.0594371
,,,,,,,,,114,45.9808,0.0771163
,,,,,,,,,130,67.5557,0.022114
,,,,,,,,,147,117.516,0.0770029
,,,,,,,,,165,55.1469,0.0307974
,,,,,,,,,184,143.126,0.0255657
,,,,,,,,,204,52.5755,0.0522383
,,,,,,,,,225,131.469,0.043327
,,,,,,,,,247,81.579,0.0621168
,,,,,,,,,98,57.309,0.0171624
,,,,,,,,,113,161.846,0.0441353
,,,,,,,,,129,56.0503,0.05319
,,,,,,,,,146,164.686,0.0195873
,,,,,,,,,164,42.7363,0.053136
,,,,,,,,,183,142.598,0.0261074
,,,,,,,,,203,75.2603,0.0222479
,,,,,,,,,224,87.7597,0.0400382
,,,,,,,,,246,114.27,0.034586
,,,,,,,,,269,114.768,0.0455959
,,,,,,,,,128,104.867,0.0197173
,,,,,,,,,145,112.423,0.0213402
,,,,,,,,,163,136.974,0.0126402
,,,,,,,,,182,50.1283,0.0213315
,,,,,,,,,202,147.962,0.0150687
,,,,,,,,,223,43.23,0.0136973
,,,,,,,,,245,124.725,0.0188553
,,,,,,,,,268,70.0297,0.0175523
,,,,,,,,,292,112.28,0.0200036
,,,,,,,,,162,142.103,0.0888848
,,,,,,,,,181,33.3999,0.0229867
,,,,,,,,,201,130.434,0.0887342
,,,,,,,,,222,54.4868,0.0325168
,,,,,,,,,244,94.0148,0.0267394
,,,,,,,,,267,107.256,0.0573851
,,,,,,,,,291,56.2721,0.046809
,,,,,,,,,316,73.389,0.0695323
,,,,,,,,,200,108.738,0.025223
,,,,,,,,,221,73.764,0.134906
,,,,,,,,,243,88.8645,0.0371798
,,,,,,,,,266,108.312,0.0298143
,,,,,,,,,290,44.4877,0.0736971
,,,,,,,,,315,131.84,0.0571222
,,,,,,,,,341,86.2237,0.0950143
,,,,,,,,,242,136.723,0.0252109
,,,,,,,,,265,23.0141,0.0169064
,,,,,,,,,289,111.315,0.015199
,,,,,,,,,314,78.532,0.0218236
,,,,,,,,,340,73.586,0.0200968
,,,,,,,,,367,58.2592,0.0233767
,,,,,,,,,288,120.938,0.0371534
,,,,,,,,,313,37.0089,0.0297973
,,,,,,,,,339,74.8653,0.0735935
,,,,,,,,,366,74.2188,0.0570599
,,,,,,,,,394,79.3248,0.0948422
,,,,,,,,,338,108.654,0.0188523
,,,,,,,,,365,55.5278,0.0302371
,,,,,,,,,393,77.9322,0.0270203
,,,,,,,,,422,42.8394,0.0333027
,,,,,,,,,392,90.599,0.0251784
,,,,,,,,,421,39.0154,0.0229075
,,,,,,,,,451,69.0734,0.0272686
,,,,,,,,,450,92.6464,0.0422263
,,,,,,,,,481,41.9442,0.059879
,,,,,,,,,512,53.0627,0.0484552
