Q	U	V
{$V$}	{[mm$^3$]}	0.00182986
{$d_v$}	{[mm]}	0.151754
{$S_c$}	{[mm$^2$]}	0.124608
{$S_o$}	{[mm$^2$]}	0.0745577
{$S_l/S_o$}	[]	0.671296
{$\Psi$}	[]	0.580609
{$\eta$}	[]	0.595940
{med($\theta_e$)}	{[$^\circ$]}	57.332
{$\Upsilon$}	[]	12
{$\Xi$}	[]	10
