facetNormals:0,facetNormals:1,facetNormals:2,FacetCenters:0,FacetCenters:1,FacetCenters:2,FacetIds,relFacetSize,absFacetSize,cellPairingIds,interplanarAngles,angleWeights
0.521872,-0.0580279,-0.842372,4.38928,5.11258,12.217,1,0.0119398,0.00287316,8,38.6137,0.0203629
0.103456,0.434326,-0.849229,4.32233,5.13639,12.2263,2,0.0691361,0.0166368,13,48.859,0.0205595
0.168579,-0.743749,-0.593506,4.33024,5.00737,12.1874,3,0.0739375,0.0177922,19,53.7694,0.0153429
0.288306,0.762356,-0.564344,4.33932,5.13977,12.2321,4,0.0214593,0.00516392,26,87.3892,0.0185798
-0.758072,-0.0148518,-0.51791,4.28348,5.04451,12.1938,5,0.0418583,0.0100727,34,32.3497,0.0197547
0.8621,0.105334,-0.444329,4.42095,5.07268,12.2231,6,0.0571816,0.0137601,43,79.0853,0.0190139
-0.0898265,0.921622,-0.339168,4.36321,5.04474,12.2826,7,0.0466585,0.0112278,53,99.9522,0.0191141
-0.425266,-0.871177,-0.00601844,4.28272,5.00077,12.2547,8,0.0478905,0.0115243,64,73.764,0.0202174
0.471341,0.846925,-0.0869493,4.36152,5.17452,12.3076,9,0.0659148,0.0158616,76,102.442,0.0222464
0.152856,-0.815747,0.38294,4.3516,5.02146,12.344,10,0.162647,0.0391391,89,72.0228,0.0210134
0.922228,-0.009769,0.226617,4.41817,5.106,12.3603,11,0.0875368,0.0210647,103,103.299,0.0213915
0.370531,0.767697,0.436233,4.33571,5.19111,12.3961,12,0.102655,0.0247028,118,145.684,0.00973288
-0.398492,0.604862,0.675236,4.27064,5.18627,12.4031,13,0.00821455,0.00197673,134,112.701,0.0117298
0.512396,-0.313596,0.790596,4.35362,5.07724,12.4256,14,0.0115272,0.00277387,151,121.3,0.0154796
0.426982,0.243254,0.847526,4.30679,5.16228,12.4849,15,0.022003,0.00529476,18,77.6418,0.0714563
,,,,,,,,,25,27.9515,0.0327525
,,,,,,,,,33,66.2404,0.0521453
,,,,,,,,,42,56.818,0.0625931
,,,,,,,,,52,44.1379,0.0557156
,,,,,,,,,63,116.654,0.0565848
,,,,,,,,,75,58.3126,0.067487
,,,,,,,,,88,139.184,0.0970285
,,,,,,,,,102,96.3818,0.0772559
,,,,,,,,,117,89.9188,0.0826256
,,,,,,,,,133,111.743,0.0146844
,,,,,,,,,150,142.38,0.0197598
,,,,,,,,,168,127.324,0.033382
,,,,,,,,,32,101.04,0.0332641
,,,,,,,,,41,77.5938,0.0534544
,,,,,,,,,51,69.4645,0.0644889
,,,,,,,,,62,121.597,0.0572127
,,,,,,,,,74,51.763,0.0581296
,,,,,,,,,87,122.036,0.069696
,,,,,,,,,101,62.6935,0.101661
,,,,,,,,,116,88.237,0.0801645
,,,,,,,,,132,146.029,0.0859613
,,,,,,,,,149,163.559,0.0147863
,,,,,,,,,167,98.97,0.0199448
,,,,,,,,,186,130.27,0.0339137
,,,,,,,,,50,86.0693,0.0283728
,,,,,,,,,61,53.1804,0.0312071
,,,,,,,,,73,27.3795,0.0293978
,,,,,,,,,86,144.596,0.029638
,,,,,,,,,100,30.5728,0.0323776
,,,,,,,,,115,151.184,0.037916
,,,,,,,,,131,82.0299,0.0344687
,,,,,,,,,148,61.9843,0.035498
,,,,,,,,,166,92.0334,0.0118811
,,,,,,,,,185,123.097,0.014998
,,,,,,,,,205,100.066,0.0217277
,,,,,,,,,72,118.321,0.0483345
,,,,,,,,,85,75.2812,0.0441282
,,,,,,,,,99,67.6542,0.0446717
,,,,,,,,,114,111.319,0.0512017
,,,,,,,,,130,111.096,0.0665814
,,,,,,,,,147,159.41,0.0566349
,,,,,,,,,165,126.113,0.0594681
,,,,,,,,,184,93.5694,0.0137339
,,,,,,,,,204,150.461,0.0180764
,,,,,,,,,225,148.406,0.028844
,,,,,,,,,98,79.8015,0.0513868
,,,,,,,,,113,118.806,0.0521253
,,,,,,,,,129,55.7589,0.0612384
,,,,,,,,,146,98.0129,0.0846151
,,,,,,,,,164,41.5547,0.0691756
,,,,,,,,,183,77.2314,0.0734497
,,,,,,,,,203,126.886,0.0143654
,,,,,,,,,224,86.6018,0.0191865
,,,,,,,,,246,88.9722,0.0317781
,,,,,,,,,128,142.914,0.0472665
,,,,,,,,,145,36.8733,0.0546397
,,,,,,,,,163,173.414,0.0725147
,,,,,,,,,182,100.377,0.0608715
,,,,,,,,,202,56.1292,0.0641567
,,,,,,,,,223,68.1003,0.0139696
,,,,,,,,,245,128.025,0.018487
,,,,,,,,,268,96.0378,0.029904
,,,,,,,,,162,173.715,0.0554753
,,,,,,,,,181,43.4445,0.0739939
,,,,,,,,,201,114.722,0.0619104
,,,,,,,,,222,153.254,0.0653119
,,,,,,,,,244,112.124,0.0140237
,,,,,,,,,267,86.9907,0.0185817
,,,,,,,,,291,114.815,0.0301526
,,,,,,,,,200,137.151,0.0938113
,,,,,,,,,221,63.8923,0.0752025
,,,,,,,,,243,32.3879,0.0802811
,,,,,,,,,266,73.9928,0.0146085
,,,,,,,,,290,95.5124,0.0196227
,,,,,,,,,315,69.5192,0.0329927
,,,,,,,,,242,74.2439,0.113817
,,,,,,,,,265,117.383,0.125868
,,,,,,,,,289,109.072,0.0156392
,,,,,,,,,314,45.4328,0.0215286
,,,,,,,,,340,77.6591,0.0387622
,,,,,,,,,288,61.5621,0.0944951
,,,,,,,,,313,103.553,0.0150196
,,,,,,,,,339,46.0252,0.0203717
,,,,,,,,,366,51.1639,0.0351666
,,,,,,,,,338,49.8626,0.0152118
,,,,,,,,,365,71.9888,0.0207269
,,,,,,,,,393,40.3758,0.0362387
,,,,,,,,,392,81.816,0.00959293
,,,,,,,,,421,55.5161,0.0119629
,,,,,,,,,450,33.3535,0.0151286
