facetNormals:0,facetNormals:1,facetNormals:2,FacetCenters:0,FacetCenters:1,FacetCenters:2,FacetIds,relFacetSize,absFacetSize,cellPairingIds,interplanarAngles,angleWeights
-0.26768,-0.521527,-0.737201,4.26416,5.70868,14.509,1,0.111359,0.0255853,8,78.7583,0.112436
0.49382,0.424105,-0.721341,4.27831,5.8133,14.4689,2,0.113534,0.0260851,13,74.0388,0.0411951
-0.328588,0.625245,-0.663476,4.16765,5.86212,14.4793,3,0.025272,0.00580638,19,79.1865,0.0666482
0.833428,-0.0321096,-0.514846,4.35454,5.72759,14.5532,4,0.0475549,0.010926,26,60.3939,0.103709
0.640983,-0.576405,-0.434201,4.3265,5.66179,14.5334,5,0.0970432,0.0222962,34,120.667,0.0788263
0.646601,0.702751,-0.105835,4.31874,5.81133,14.5222,6,0.0610044,0.0140161,43,99.1334,0.03433
0.79961,-0.50694,0.267829,4.32966,5.65975,14.6025,7,0.020293,0.00466242,53,86.7534,0.0908017
0.313628,-0.799694,0.383782,4.2955,5.62246,14.6064,8,0.0766517,0.0176112,64,155.935,0.086126
-0.120015,0.610793,0.735797,4.2771,5.80851,14.5709,9,0.0702159,0.0161325,76,134.369,0.0604779
0.275792,-0.198131,0.896476,4.31231,5.70941,14.6209,10,0.0415111,0.00953742,18,51.8603,0.0413416
,,,,,,,,,25,36.1161,0.0670325
,,,,,,,,,33,65.7434,0.104643
,,,,,,,,,42,42.0066,0.0793644
,,,,,,,,,52,90.7989,0.0344316
,,,,,,,,,63,120.294,0.0915166
,,,,,,,,,75,110.699,0.0867689
,,,,,,,,,88,129.662,0.0607942
,,,,,,,,,32,87.124,0.0330045
,,,,,,,,,41,107.607,0.0401009
,,,,,,,,,51,71.3893,0.0357387
,,,,,,,,,62,142.594,0.0225104
,,,,,,,,,74,160.174,0.0380116
,,,,,,,,,87,94.1047,0.0371669
,,,,,,,,,101,150.593,0.0314172
,,,,,,,,,50,34.8619,0.0638304
,,,,,,,,,61,52.6896,0.0534465
,,,,,,,,,73,55.6032,0.0284469
,,,,,,,,,86,84.4319,0.0586952
,,,,,,,,,100,121.848,0.0567052
,,,,,,,,,115,103.876,0.0443279
,,,,,,,,,72,86.5786,0.0749149
,,,,,,,,,85,43.5379,0.0335667
,,,,,,,,,99,56.9434,0.0856505
,,,,,,,,,114,143.571,0.0814781
,,,,,,,,,130,96.0965,0.0581486
,,,,,,,,,98,81.9472,0.0304551
,,,,,,,,,113,116.25,0.0679387
,,,,,,,,,129,72.8044,0.0652868
,,,,,,,,,146,93.4725,0.0494044
,,,,,,,,,128,34.9271,0.0320903
,,,,,,,,,145,102.704,0.0314862
,,,,,,,,,163,53.4986,0.0272598
,,,,,,,,,162,105.591,0.0732928
,,,,,,,,,181,49.2284,0.0538562
,,,,,,,,,200,56.8292,0.0521761
