Q	U	V
{$V$}	{[mm$^3$]}	0.0100482
{$d_v$}	{[mm]}	0.267730
{$S_c$}	{[mm$^2$]}	0.427707
{$S_o$}	{[mm$^2$]}	0.280455
{$S_l/S_o$}	[]	0.525047
{$\Psi$}	[]	0.526498
{$\eta$}	[]	0.554641
{med($\theta_e$)}	{[$^\circ$]}	76.5629
{$\Upsilon$}	[]	14
{$\Xi$}	[]	12
