"cellPairingIds","interplanarAngles","angleWeights"
8,39.1299,0.0458813
13,86.5797,0.0312529
19,100.99,0.116143
26,85.4781,0.0100291
34,64.6024,0.123127
33,68.8776,0.00920872
42,67.0375,0.0588088
32,59.9937,0.0361085
51,65.9985,0.0367567
74,83.6297,0.0223083
87,44.9492,0.0237556
50,91.4954,0.0104814
73,58.9877,0.025018
86,46.4238,0.046643
72,135.332,0.0105353
85,48.0561,0.00762944
98,171.117,0.0253275
113,137.144,0.0477303
129,95.1534,0.0548848
128,37.9114,0.0175121
162,43.6168,0.0279014
