Q	U	V
{$V$}	{[mm$^3$]}	0.0041525
{$d_v$}	{[mm]}	0.199421
{$S_c$}	{[mm$^2$]}	0.212022
{$S_o$}	{[mm$^2$]}	0.138502
{$S_l/S_o$}	[]	0.530823
{$\Psi$}	[]	0.589264
{$\eta$}	[]	0.634844
{med($\theta_e$)}	{[$^\circ$]}	76.2238
{$\Upsilon$}	[]	10
{$\Xi$}	[]	6
