Q	U	V
{$V$}	{[mm$^3$]}	0.00182036
{$d_v$}	{[mm]}	0.151491
{$S_c$}	{[mm$^2$]}	0.141287
{$S_o$}	{[mm$^2$]}	0.0785836
{$S_l/S_o$}	[]	0.797920
{$\Psi$}	[]	0.510294
{$\eta$}	[]	0.539861
{med($\theta_e$)}	{[$^\circ$]}	55.01125
{$\Upsilon$}	[]	18
{$\Xi$}	[]	1
