facetNormals:0,facetNormals:1,facetNormals:2,FacetCenters:0,FacetCenters:1,FacetCenters:2,FacetIds,relFacetSize,absFacetSize,cellPairingIds,interplanarAngles,angleWeights
0.377096,0.0833106,-0.870859,2.96047,5.02056,11.2939,1,0.0709387,0.00433076,8,25.8521,0.0120477
0.735942,-0.0452844,-0.659524,2.99205,5.02328,11.3081,2,0.00658281,0.000401876,13,64.9676,0.0980247
0.140255,-0.829144,-0.462902,2.93337,4.96598,11.3267,3,0.15857,0.00968062,19,89.521,0.0259753
-0.779009,-0.459813,-0.390321,2.92287,4.99184,11.3822,4,0.0158984,0.000970586,26,57.9895,0.0782169
0.882035,-0.299071,-0.19891,3.00547,5.01265,11.3515,5,0.0871593,0.00532102,34,69.5798,0.0194443
0.716731,-0.683316,-0.136544,2.9818,5.07358,11.3734,6,0.0112662,0.000687795,43,64.701,0.0362743
0.92914,0.308462,-0.0259814,2.99726,5.05268,11.3606,7,0.0243672,0.0014876,53,74.6936,0.0789806
0.600738,0.757341,0.0530131,2.99269,5.0553,11.3682,8,0.0890791,0.00543822,64,107.837,0.0272923
-0.808532,0.482545,0.0115859,2.94021,5.06048,11.3812,9,0.0168965,0.00103152,76,127.77,0.0609459
-0.81761,-0.440385,0.247829,2.88291,4.97068,11.3956,10,0.0534208,0.00326131,89,112.576,0.0541831
-0.123647,-0.933465,0.268359,2.93143,4.96071,11.3931,11,0.0438304,0.00267582,103,97.3872,0.0876562
0.513167,-0.77043,0.284725,2.95715,4.96926,11.4,12,0.114682,0.00700128,118,126.071,0.0264679
0.113238,-0.772924,0.615747,2.9515,4.96378,11.406,13,0.016269,0.000993211,134,105.937,0.0302182
0.761438,0.00257579,0.626058,2.98069,5.0459,11.4218,14,0.0191981,0.00117203,151,144.973,0.00589507
-0.227783,-0.63637,0.734901,2.89788,4.96509,11.441,15,0.00307532,0.000187746,169,135.187,0.0633838
0.344936,-0.230605,0.887792,2.93521,5.0236,11.4368,16,0.0572831,0.0034971,188,138.529,0.0776133
0.138525,0.357072,0.883231,2.95576,5.01194,11.4293,17,0.0856745,0.00523037,18,61.9828,0.0126409
,,,,,,,,,25,107.622,0.00931055
,,,,,,,,,33,32.5827,0.0122411
,,,,,,,,,42,49.0234,0.00831007
,,,,,,,,,52,44.8414,0.0103654
,,,,,,,,,63,67.0886,0.0122597
,,,,,,,,,75,132.1,0.00947442
,,,,,,,,,88,141.605,0.0117213
,,,,,,,,,102,103.476,0.0114465
,,,,,,,,,117,76.432,0.0124509
,,,,,,,,,133,107.004,0.00937306
,,,,,,,,,150,81.3089,0.00980396
,,,,,,,,,168,129.142,0.00419217
,,,,,,,,,187,109.351,0.0118086
,,,,,,,,,207,121.439,0.0122262
,,,,,,,,,32,61.4022,0.0288993
,,,,,,,,,41,59.5163,0.112489
,,,,,,,,,51,40.4408,0.0210377
,,,,,,,,,62,96.9293,0.042243
,,,,,,,,,74,127.694,0.114075
,,,,,,,,,87,125.031,0.0305389
,,,,,,,,,101,81.5393,0.0799181
,,,,,,,,,116,47.7105,0.0686776
,,,,,,,,,132,51.4809,0.133102
,,,,,,,,,149,67.0882,0.0295103
,,,,,,,,,167,101.283,0.0342496
,,,,,,,,,186,80.6624,0.00603362
,,,,,,,,,206,100.497,0.0841627
,,,,,,,,,227,137.883,0.111244
,,,,,,,,,50,120.199,0.0268916
,,,,,,,,,61,101.174,0.0131874
,,,,,,,,,73,152.456,0.0192422
,,,,,,,,,86,151.336,0.0269813
,,,,,,,,,100,64.2221,0.0163822
,,,,,,,,,115,38.3446,0.0245042
,,,,,,,,,131,64.1367,0.0233332
,,,,,,,,,148,99.4488,0.0279255
,,,,,,,,,166,88.43,0.0160816
,,,,,,,,,185,149.723,0.0173931
,,,,,,,,,205,79.2662,0.00515372
,,,,,,,,,226,121.83,0.0248891
,,,,,,,,,248,130.569,0.0268199
,,,,,,,,,72,24.8738,0.0199533
,,,,,,,,,85,38.2512,0.0380865
,,,,,,,,,99,71.4822,0.0881087
,,,,,,,,,114,163.48,0.0283057
,,,,,,,,,130,134.251,0.0662415
,,,,,,,,,147,82.8085,0.0583287
,,,,,,,,,165,47.2232,0.0990443
,,,,,,,,,184,77.2812,0.0274198
,,,,,,,,,204,54.4141,0.0314655
,,,,,,,,,225,99.4895,0.00594101
,,,,,,,,,247,77.8379,0.0691314
,,,,,,,,,270,100.069,0.0864105
,,,,,,,,,98,62.0593,0.0154084
,,,,,,,,,113,95.5844,0.0200026
,,,,,,,,,129,165.376,0.0135185
,,,,,,,,,146,109.386,0.0186081
,,,,,,,,,164,58.4183,0.017925
,,,,,,,,,183,27.9292,0.0205169
,,,,,,,,,203,58.1133,0.0133131
,,,,,,,,,224,62.271,0.0141996
,,,,,,,,,246,80.1213,0.00483173
,,,,,,,,,269,73.173,0.0188292
,,,,,,,,,293,106.003,0.0199138
,,,,,,,,,128,33.5251,0.0382667
,,,,,,,,,145,130.809,0.0199556
,,,,,,,,,163,163.372,0.0334683
,,,,,,,,,182,115.3,0.0313215
,,,,,,,,,202,75.8569,0.0401942
,,,,,,,,,223,98.8103,0.0195112
,,,,,,,,,245,44.2089,0.021476
,,,,,,,,,268,115.894,0.00546137
,,,,,,,,,292,76.3618,0.0341904
,,,,,,,,,317,76.7618,0.0379429
,,,,,,,,,162,97.5417,0.0284051
,,,,,,,,,181,150.708,0.0667885
,,,,,,,,,201,144.014,0.0587523
,,,,,,,,,222,106.106,0.100272
,,,,,,,,,244,120.221,0.0275131
,,,,,,,,,267,58.9271,0.0315883
,,,,,,,,,291,126.858,0.00594538
,,,,,,,,,316,85.1851,0.0697274
,,,,,,,,,342,64.5528,0.0873436
,,,,,,,,,200,60.0813,0.0256729
,,,,,,,,,221,112.132,0.0243905
,,,,,,,,,243,149.203,0.0294535
,,,,,,,,,266,119.231,0.0165768
,,,,,,,,,290,130.85,0.0179739
,,,,,,,,,315,96.9883,0.00520354
,,,,,,,,,341,114.31,0.0260957
,,,,,,,,,368,85.5375,0.0282262
,,,,,,,,,242,52.0547,0.0481527
,,,,,,,,,265,90.5984,0.0728889
,,,,,,,,,289,65.2408,0.024942
,,,,,,,,,314,119.637,0.0282455
,,,,,,,,,340,47.4792,0.00581583
,,,,,,,,,367,87.5933,0.0552846
,,,,,,,,,395,93.1979,0.0658081
,,,,,,,,,288,39.4596,0.0634217
,,,,,,,,,313,26.3465,0.0237299
,,,,,,,,,339,85.7544,0.0267009
,,,,,,,,,366,33.0518,0.00574738
,,,,,,,,,394,64.6465,0.0496618
,,,,,,,,,423,96.911,0.0579924
,,,,,,,,,338,30.6313,0.0284956
,,,,,,,,,365,53.5647,0.0328903
,,,,,,,,,393,52.9499,0.00599001
,,,,,,,,,422,50.2054,0.0764033
,,,,,,,,,452,87.0819,0.0980785
,,,,,,,,,392,61.3761,0.0176126
,,,,,,,,,421,22.3433,0.00517282
,,,,,,,,,451,38.3951,0.0253409
,,,,,,,,,482,72.776,0.0273453
,,,,,,,,,450,73.1679,0.00530141
,,,,,,,,,481,32.153,0.0287581
,,,,,,,,,513,45.9897,0.0313673
,,,,,,,,,512,42.5674,0.00583726
,,,,,,,,,545,66.043,0.00593751
,,,,,,,,,578,37.3894,0.0686595
