facetNormals:0,facetNormals:1,facetNormals:2,FacetCenters:0,FacetCenters:1,FacetCenters:2,FacetIds,relFacetSize,absFacetSize,cellPairingIds,interplanarAngles,angleWeights
-0.46397,-0.213575,-0.82229,3.7865,6.24668,13.5652,1,0.122249,0.0120413,8,72.8082,0.00850591
0.584664,0.256265,-0.735252,3.8723,6.27766,13.5547,2,0.00440624,0.000434006,13,41.1672,0.0457062
-0.405039,0.467191,-0.763404,3.83692,6.28075,13.538,3,0.0281075,0.00276853,19,52.1105,0.0512258
-0.322121,-0.875592,-0.299165,3.77337,6.15686,13.6571,4,0.0324014,0.00319148,26,117.427,0.0308892
0.907826,0.0139133,-0.0233553,3.81887,6.20184,13.6445,5,0.017678,0.00174125,34,48.5088,0.138974
-0.839436,-0.462767,-0.164692,3.73476,6.20577,13.6695,6,0.160999,0.0158581,43,86.4165,0.1259
-0.134026,0.926362,-0.236008,3.80155,6.31678,13.6053,7,0.129775,0.0127826,53,82.0077,0.0360043
-0.859061,0.448329,0.206116,3.7234,6.27295,13.6743,8,0.0211109,0.00207938,64,83.7722,0.0225272
-0.646831,0.728915,0.0510232,3.7404,6.3036,13.6518,9,0.0124067,0.00122203,76,123.176,0.0768941
0.138546,0.905604,0.309552,3.77004,6.31198,13.6668,10,0.0560859,0.00552435,89,101.428,0.0586368
-0.476285,-0.553439,0.638765,3.76689,6.17271,13.7677,11,0.038568,0.00379887,103,112.062,0.102113
-0.610972,0.19943,0.719543,3.74831,6.24162,13.7681,12,0.0876719,0.0086355,118,130.35,0.0440404
-0.191618,0.690296,0.683532,3.77238,6.2902,13.7307,13,0.026858,0.00264546,18,62.3301,0.00761822
,,,,,,,,,25,101.657,0.00775755
,,,,,,,,,33,51.418,0.00705422
,,,,,,,,,42,121.038,0.00857773
,,,,,,,,,52,69.279,0.00852311
,,,,,,,,,63,123.964,0.00729077
,,,,,,,,,75,103.939,0.00650296
,,,,,,,,,88,84.7915,0.00817059
,,,,,,,,,102,160.41,0.00790892
,,,,,,,,,117,152.75,0.00839078
,,,,,,,,,133,117,0.0075705
,,,,,,,,,32,92.9904,0.0301021
,,,,,,,,,41,112.634,0.0217049
,,,,,,,,,51,74.8612,0.0478595
,,,,,,,,,62,45.2826,0.0462071
,,,,,,,,,74,65.7291,0.0241119
,,,,,,,,,87,53.9941,0.0172148
,,,,,,,,,101,82.0947,0.0374479
,,,,,,,,,116,125.488,0.0325172
,,,,,,,,,132,102.718,0.0425678
,,,,,,,,,149,97.187,0.0274685
,,,,,,,,,50,109.54,0.0228754
,,,,,,,,,61,40.4746,0.0539461
,,,,,,,,,73,137.504,0.0518558
,,,,,,,,,86,100.537,0.0255651
,,,,,,,,,100,117.747,0.0179429
,,,,,,,,,115,169.043,0.041074
,,,,,,,,,131,61.9535,0.0352168
,,,,,,,,,148,101.786,0.047316
,,,,,,,,,166,140.371,0.0293704
,,,,,,,,,72,149.956,0.031858
,,,,,,,,,85,96.7648,0.0311172
,,,,,,,,,99,149.901,0.0192426
,,,,,,,,,114,130.725,0.0145805
,,,,,,,,,130,81.4124,0.0268827
,,,,,,,,,147,121.091,0.0242437
,,,,,,,,,165,130.467,0.0294232
,,,,,,,,,184,101.566,0.0213219
,,,,,,,,,98,107.18,0.143711
,,,,,,,,,113,60.1413,0.0373273
,,,,,,,,,129,78.0049,0.0230381
,,,,,,,,,146,128.568,0.0831912
,,,,,,,,,164,54.2904,0.0622288
,,,,,,,,,183,71.2202,0.113524
,,,,,,,,,203,106.354,0.0460362
,,,,,,,,,128,59.7473,0.0363144
,,,,,,,,,145,37.2447,0.0226482
,,,,,,,,,163,36.8172,0.0783225
,,,,,,,,,182,129.813,0.0594638
,,,,,,,,,202,84.0331,0.104647
,,,,,,,,,223,58.1892,0.0445052
,,,,,,,,,162,22.5325,0.0156286
,,,,,,,,,181,68.5208,0.0306755
,,,,,,,,,201,72.2695,0.0272862
,,,,,,,,,222,37.075,0.0340281
,,,,,,,,,244,51.1769,0.0236402
,,,,,,,,,200,51.5908,0.0203187
,,,,,,,,,221,93.7999,0.0187741
,,,,,,,,,243,52.1825,0.0217373
,,,,,,,,,266,46.7571,0.0169729
,,,,,,,,,242,113.192,0.0457059
,,,,,,,,,265,70.0262,0.0684089
,,,,,,,,,289,32.2081,0.0363222
,,,,,,,,,288,46.8395,0.0535699
,,,,,,,,,313,81.2672,0.031665
,,,,,,,,,338,38.6016,0.0411192
