facetNormals:0,facetNormals:1,facetNormals:2,FacetCenters:0,FacetCenters:1,FacetCenters:2,FacetIds,relFacetSize,absFacetSize,cellPairingIds,interplanarAngles,angleWeights
0.0971894,0.597206,-0.772399,4.65658,6.4995,14.5199,1,0.0706493,0.00704203,8,91.7907,0.0736576
-0.699649,-0.517029,-0.448932,4.61152,6.48141,14.5637,2,0.0769335,0.0076684,13,33.5958,0.107225
0.424542,0.799685,-0.358735,4.69803,6.5086,14.5703,3,0.22232,0.0221599,19,127.083,0.0476683
-0.621042,-0.744733,0.0921293,4.60992,6.49005,14.6083,4,0.0359684,0.00358518,26,96.9372,0.0266079
-0.985299,-0.0170924,0.0140157,4.59545,6.49405,14.6164,5,0.0163904,0.00163373,34,86.6454,0.07449
-0.345866,0.747061,0.463858,4.60956,6.52497,14.6276,6,0.0787721,0.00785168,43,132.453,0.0384885
-0.713577,-0.134159,0.631651,4.58166,6.50639,14.6319,7,0.0264486,0.00263628,53,88.2237,0.0807676
0.232645,0.751016,0.571669,4.6583,6.52413,14.6294,8,0.0942686,0.0093963,64,163.927,0.00458403
-0.0770474,-0.361509,0.912244,4.70885,6.46068,14.5542,9,0.00236887,0.000236119,18,125.191,0.11431
,,,,,,,,,25,35.3051,0.0490191
,,,,,,,,,33,44.181,0.0270236
,,,,,,,,,42,112.4,0.0778419
,,,,,,,,,52,72.3888,0.0393643
,,,,,,,,,63,148.077,0.0847234
,,,,,,,,,75,100.084,0.00459621
,,,,,,,,,32,160.151,0.0619192
,,,,,,,,,41,117.084,0.0305301
,,,,,,,,,51,72.0126,0.116327
,,,,,,,,,62,132.802,0.0472733
,,,,,,,,,74,58.5268,0.132398
,,,,,,,,,87,132.619,0.00468779
,,,,,,,,,50,49.3059,0.0225191
,,,,,,,,,61,108.945,0.0493864
,,,,,,,,,73,50.1033,0.0304825
,,,,,,,,,86,133.444,0.0520696
,,,,,,,,,100,65.2679,0.00444499
,,,,,,,,,72,68.9488,0.0271348
,,,,,,,,,85,41.1459,0.0202387
,,,,,,,,,99,104.14,0.0279255
,,,,,,,,,114,84.387,0.00413947
,,,,,,,,,98,61.0938,0.0396008
,,,,,,,,,113,35.7189,0.0858265
,,,,,,,,,129,78.8579,0.00459942
,,,,,,,,,128,84.2129,0.0413077
,,,,,,,,,145,44.1477,0.00434828
,,,,,,,,,162,75.9627,0.0046216
