Q	U	V
{$V$}	{[mm$^3$]}	0.00314436
{$d_v$}	{[mm]}	0.181765
{$S_c$}	{[mm$^2$]}	0.207153
{$S_o$}	{[mm$^2$]}	0.113709
{$S_l/S_o$}	[]	0.821782
{$\Psi$}	[]	0.50105
{$\eta$}	[]	0.551848
{med($\theta_e$)}	{[$^\circ$]}	67.443
{$\Upsilon$}	[]	11
{$\Xi$}	[]	10
