facetNormals:0,facetNormals:1,facetNormals:2,FacetCenters:0,FacetCenters:1,FacetCenters:2,FacetIds,relFacetSize,absFacetSize,cellPairingIds,interplanarAngles,angleWeights
0.480755,0.560336,-0.644682,5.28544,6.99953,10.8915,1,0.00553729,0.000586455,8,87.1093,0.0107363
0.260232,-0.759841,-0.540601,5.32893,6.93767,10.8366,2,0.175753,0.0186141,13,55.5702,0.0102672
0.835623,-0.251159,-0.432177,5.38116,6.97967,10.846,3,0.0704194,0.00745813,19,117.46,0.00978786
-0.521448,-0.747992,-0.353398,5.22578,6.93619,10.8367,4,0.0421212,0.00446106,26,68.2482,0.00934937
-0.447426,0.850934,-0.141577,5.32982,6.98557,10.9051,5,0.030008,0.00317816,34,153.552,0.0096061
-0.78716,-0.445768,0.342059,5.25276,6.95541,10.8944,6,0.0362224,0.00383632,43,115.524,0.00460025
-0.9233,0.30135,0.226774,5.34273,7.00164,10.918,7,0.00393445,0.000416698,53,148.98,0.0102993
-0.325616,-0.858042,0.251138,5.28115,6.92175,10.9031,8,0.0735574,0.00779048,64,114.158,0.00882814
0.496956,-0.80041,0.287867,5.34494,6.9333,10.911,9,0.0217607,0.00230468,76,72.7355,0.0104052
0.861565,0.194183,0.377822,5.40928,7.00558,10.8949,10,0.0860699,0.00911568,89,136.123,0.00915883
-0.762178,0.112402,0.598471,5.26801,6.9615,10.9084,11,0.0264728,0.00280374,103,94.2946,0.00967985
-0.255533,0.742142,0.564567,5.30678,6.97305,10.921,12,0.0384304,0.00407017,118,108.007,0.0101332
0.58301,-0.151918,0.757689,5.37238,6.98295,10.9239,13,0.0596071,0.006313,134,131.47,0.00968198
-0.319774,0.183143,0.898347,5.30079,6.95112,10.9359,14,0.0384978,0.00407731,151,118.457,0.00710602
0.152,0.154958,0.963673,5.3466,6.96467,10.9454,15,0.00991498,0.0010501,18,47.0826,0.100551
,,,,,,,,,25,48.7933,0.067956
,,,,,,,,,33,136.857,0.0512634
,,,,,,,,,42,93.1253,0.0600654
,,,,,,,,,52,127.802,0.0076966
,,,,,,,,,63,62.0703,0.10371
,,,,,,,,,75,52.4036,0.0387265
,,,,,,,,,88,97.8855,0.115552
,,,,,,,,,102,130.014,0.0460147
,,,,,,,,,117,178.215,0.0630699
,,,,,,,,,133,98.7429,0.0890221
,,,,,,,,,150,138.865,0.0631607
,,,,,,,,,168,128.792,0.018771
,,,,,,,,,32,95.7342,0.0527125
,,,,,,,,,41,123.803,0.0420831
,,,,,,,,,51,137.441,0.0478379
,,,,,,,,,62,166.733,0.00745251
,,,,,,,,,74,100.266,0.0719542
,,,,,,,,,87,59.1502,0.0332474
,,,,,,,,,101,57.1126,0.077462
,,,,,,,,,116,166.525,0.0384799
,,,,,,,,,132,133.155,0.0497244
,,,,,,,,,149,77.8817,0.0645637
,,,,,,,,,167,137.894,0.0497808
,,,,,,,,,186,109.962,0.0173825
,,,,,,,,,50,111.816,0.0350475
,,,,,,,,,61,48.7958,0.0389497
,,,,,,,,,73,79.6095,0.00719667
,,,,,,,,,86,39.0251,0.0535678
,,,,,,,,,100,75.7072,0.0286963
,,,,,,,,,115,140.807,0.0565619
,,,,,,,,,131,83.8707,0.0325121
,,,,,,,,,148,131.088,0.0401912
,,,,,,,,,166,118.945,0.0493613
,,,,,,,,,185,107.638,0.0402281
,,,,,,,,,205,123.683,0.0160516
,,,,,,,,,72,94.6109,0.0328237
,,,,,,,,,85,48.8759,0.00695677
,,,,,,,,,99,132.109,0.0426265
,,,,,,,,,114,170.505,0.0252274
,,,,,,,,,130,107.053,0.044501
,,,,,,,,,147,68.2082,0.0281298
,,,,,,,,,165,44.866,0.033701
,,,,,,,,,184,121.922,0.0399194
,,,,,,,,,204,79.5136,0.0337269
,,,,,,,,,225,94.3365,0.0149051
,,,,,,,,,98,46.002,0.00709793
,,,,,,,,,113,38.0437,0.0485413
,,,,,,,,,129,86.1435,0.0271881
,,,,,,,,,146,133.162,0.050987
,,,,,,,,,164,36.8931,0.0305895
,,,,,,,,,183,86.1099,0.0372937
,,,,,,,,,203,98.1072,0.0450615
,,,,,,,,,224,59.4471,0.0373255
,,,,,,,,,246,81.5182,0.0155685
,,,,,,,,,128,84.0105,0.00746937
,,,,,,,,,145,130.244,0.00666401
,,,,,,,,,163,132.828,0.00752492
,,,,,,,,,182,26.1609,0.00685073
,,,,,,,,,202,52.4566,0.00713811
,,,,,,,,,223,115.277,0.00738166
,,,,,,,,,245,55.0943,0.00713927
,,,,,,,,,268,82.7172,0.00563344
,,,,,,,,,162,50.4177,0.0335856
,,,,,,,,,181,112.67,0.0793232
,,,,,,,,,201,71.0113,0.0389337
,,,,,,,,,222,116.592,0.0504848
,,,,,,,,,244,81.8359,0.0658515
,,,,,,,,,267,79.2335,0.0505429
,,,,,,,,,291,86.3667,0.0174745
,,,,,,,,,200,66.2256,0.0347386
,,,,,,,,,221,107.967,0.0238866
,,,,,,,,,243,125.898,0.0277872
,,,,,,,,,266,48.6968,0.0318822
,,,,,,,,,290,92.8103,0.0278048
,,,,,,,,,315,76.3944,0.0136229
,,,,,,,,,242,115.858,0.0404915
,,,,,,,,,265,81.5013,0.0531356
,,,,,,,,,289,35.283,0.0704349
,,,,,,,,,314,83.878,0.0532
,,,,,,,,,340,56.3975,0.0177816
,,,,,,,,,288,49.2213,0.0313501
,,,,,,,,,313,90.4841,0.0366629
,,,,,,,,,339,32.1568,0.0313725
,,,,,,,,,366,60.2428,0.0144267
,,,,,,,,,338,79.7812,0.0467316
,,,,,,,,,365,39.4615,0.0384641
,,,,,,,,,393,49.5043,0.0157631
,,,,,,,,,392,60.2501,0.0467814
,,,,,,,,,421,33.7323,0.0170019
,,,,,,,,,450,28.178,0.0157688
