Q	U	V
{$V$}	{[mm$^3$]}	0.00327735
{$d_v$}	{[mm]}	0.184293
{$S_c$}	{[mm$^2$]}	0.212644
{$S_o$}	{[mm$^2$]}	0.134868
{$S_l/S_o$}	[]	0.576682
{$\Psi$}	[]	0.501779
{$\eta$}	[]	0.569045
{med($\theta_e$)}	{[$^\circ$]}	61.6059
{$\Upsilon$}	[]	17
{$\Xi$}	[]	6
