facetNormals:0,facetNormals:1,facetNormals:2,FacetCenters:0,FacetCenters:1,FacetCenters:2,FacetIds,relFacetSize,absFacetSize,cellPairingIds,interplanarAngles,angleWeights
0.399928,0.248869,-0.836183,4.90987,3.46195,12.3722,1,0.0471822,0.0118412,8,55.2955,0.0606457
-0.483551,0.389895,-0.753204,4.88335,3.45328,12.3244,2,0.0848611,0.0212974,13,73.2549,0.0638658
-0.665263,-0.113071,-0.665164,4.81516,3.38229,12.386,3,0.0988023,0.0247962,19,57.9952,0.055517
0.543028,-0.60954,-0.5059,4.93152,3.38051,12.3473,4,0.0674283,0.0169223,26,62.5319,0.0542113
-0.0438434,0.916951,-0.252039,4.9205,3.5202,12.4058,5,0.0637014,0.015987,34,59.0557,0.0473104
0.664353,0.703514,-0.0445464,4.97162,3.50533,12.4161,6,0.0474393,0.0119057,43,60.1899,0.0337215
0.979096,0.0394952,-0.0809762,4.88603,3.44832,12.4008,7,0.0262365,0.0065845,53,67.6083,0.0255043
0.887028,0.427361,0.117875,4.86827,3.46787,12.4363,8,0.0174753,0.00438572,64,109.137,0.0247206
-0.742391,0.610488,0.195694,4.78694,3.46385,12.4645,9,0.0167477,0.00420312,76,89.1504,0.048802
0.878772,-0.16228,0.35563,4.85792,3.44859,12.4452,10,0.0505369,0.0126831,89,135.142,0.0262844
-0.883595,-0.29101,0.281567,4.85563,3.43878,12.4656,11,0.0182161,0.00457166,103,113.686,0.0465437
0.410596,-0.748238,0.410335,4.84025,3.46069,12.4151,12,0.0459223,0.011525,118,88.7306,0.0281213
0.4268,0.78895,0.413823,4.9833,3.50441,12.4487,13,0.0200296,0.00502679,134,105.535,0.0584519
-0.148539,0.827885,0.471815,4.87935,3.50468,12.4841,14,0.0767946,0.019273,151,136.054,0.0337533
-0.168944,0.437867,0.856864,4.88092,3.48565,12.5044,15,0.026275,0.00659417,169,159.243,0.0342044
-0.51273,0.0791577,0.817362,4.80734,3.4692,12.4796,16,0.0268258,0.00673241,18,32.6823,0.0913026
,,,,,,,,,25,97.3033,0.0751469
,,,,,,,,,33,52.2847,0.0727744
,,,,,,,,,42,90.8119,0.0608577
,,,,,,,,,52,114.433,0.0400811
,,,,,,,,,63,111.262,0.0289823
,,,,,,,,,75,61.9979,0.0279745
,,,,,,,,,88,143.628,0.0633483
,,,,,,,,,102,83.8462,0.0299938
,,,,,,,,,117,149.833,0.059595
,,,,,,,,,133,102.605,0.0324097
,,,,,,,,,150,87.6114,0.0806266
,,,,,,,,,168,114.331,0.040126
,,,,,,,,,187,110.879,0.0407651
,,,,,,,,,32,87.2178,0.0801545
,,,,,,,,,41,84.0735,0.0774609
,,,,,,,,,51,122.407,0.0641009
,,,,,,,,,62,130.251,0.0414627
,,,,,,,,,74,139.722,0.0296978
,,,,,,,,,87,71.5142,0.0286406
,,,,,,,,,101,151.755,0.0668701
,,,,,,,,,116,61.9241,0.0307609
,,,,,,,,,132,120.951,0.0627015
,,,,,,,,,149,133.846,0.0333071
,,,,,,,,,167,109.739,0.0864193
,,,,,,,,,186,123.214,0.0415108
,,,,,,,,,206,103.332,0.0421952
,,,,,,,,,50,119.862,0.0655119
,,,,,,,,,61,92.8047,0.0556946
,,,,,,,,,73,54.4838,0.0377747
,,,,,,,,,86,80.2334,0.0277568
,,,,,,,,,100,158.133,0.0268311
,,,,,,,,,115,64.6004,0.0577732
,,,,,,,,,131,118.463,0.0286833
,,,,,,,,,148,58.777,0.0546351
,,,,,,,,,166,118.899,0.0308849
,,,,,,,,,185,152.827,0.0718073
,,,,,,,,,205,147.59,0.0378146
,,,,,,,,,226,142.759,0.0383817
,,,,,,,,,72,47.1442,0.0543806
,,,,,,,,,85,89.1615,0.0371656
,,,,,,,,,99,69.9742,0.0274266
,,,,,,,,,114,54.442,0.0265224
,,,,,,,,,130,107.608,0.0563606
,,,,,,,,,147,108.858,0.0283308
,,,,,,,,,165,153.602,0.0533701
,,,,,,,,,184,50.3225,0.0304765
,,,,,,,,,204,45.2161,0.0696379
,,,,,,,,,225,78.0266,0.0372043
,,,,,,,,,247,96.914,0.0377531
,,,,,,,,,98,44.2804,0.0337869
,,,,,,,,,113,22.9219,0.0255417
,,,,,,,,,129,94.3726,0.0247557
,,,,,,,,,146,60.8495,0.0489391
,,,,,,,,,164,148.68,0.0263241
,,,,,,,,,183,107.242,0.0466685
,,,,,,,,,203,31.0068,0.0281668
,,,,,,,,,224,60.3079,0.0586488
,,,,,,,,,246,80.4113,0.0338189
,,,,,,,,,269,110.041,0.0342717
,,,,,,,,,128,26.0692,0.0209778
,,,,,,,,,145,138.168,0.0204447
,,,,,,,,,163,29.237,0.0345409
,,,,,,,,,182,160.245,0.0215028
,,,,,,,,,202,68.6339,0.0333941
,,,,,,,,,223,64.6712,0.0227167
,,,,,,,,,245,99.1595,0.0391109
,,,,,,,,,268,103.087,0.0262557
,,,,,,,,,292,126.416,0.0265279
,,,,,,,,,162,112.648,0.0171037
,,,,,,,,,181,37.9517,0.0259702
,,,,,,,,,201,155.2,0.017838
,,,,,,,,,222,84.3282,0.0253166
,,,,,,,,,244,38.6976,0.0186655
,,,,,,,,,267,73.1217,0.0284716
,,,,,,,,,291,81.7945,0.0209902
,,,,,,,,,316,109.764,0.0211637
,,,,,,,,,200,136.284,0.0251581
,,,,,,,,,221,55.9789,0.0174511
,,,,,,,,,243,137.177,0.0245442
,,,,,,,,,266,75.3067,0.0182422
,,,,,,,,,290,41.5427,0.0274984
,,,,,,,,,315,54.211,0.0204564
,,,,,,,,,341,51.671,0.0206212
,,,,,,,,,242,132.298,0.0267795
,,,,,,,,,265,46.3958,0.0481192
,,,,,,,,,289,65.4872,0.0286888
,,,,,,,,,314,96.0083,0.0609584
,,,,,,,,,340,84.7974,0.0345742
,,,,,,,,,367,100.691,0.0350477
,,,,,,,,,288,91.8378,0.026085
,,,,,,,,,313,120.699,0.0190799
,,,,,,,,,339,88.5834,0.0294472
,,,,,,,,,366,73.9135,0.0215157
,,,,,,,,,394,45.447,0.0216981
,,,,,,,,,338,105.2,0.0278932
,,,,,,,,,365,122.213,0.0574751
,,,,,,,,,393,92.8124,0.0334253
,,,,,,,,,422,85.8944,0.0338676
,,,,,,,,,392,34.5127,0.0317724
,,,,,,,,,421,49.41,0.0227311
,,,,,,,,,451,79.0377,0.0229348
,,,,,,,,,450,32.8112,0.0391537
,,,,,,,,,481,55.6105,0.039762
,,,,,,,,,512,29.6903,0.0265475
