Q	U	V
{$V$}	{[mm$^3$]}	0.00175148
{$d_v$}	{[mm]}	0.149555
{$S_c$}	{[mm$^2$]}	0.122573
{$S_o$}	{[mm$^2$]}	0.0723776
{$S_l/S_o$}	[]	0.693521
{$\Psi$}	[]	0.57327
{$\eta$}	[]	0.650040
{med($\theta_e$)}	{[$^\circ$]}	48.171
{$\Upsilon$}	[]	21
{$\Xi$}	[]	10
