"cellPairingIds","interplanarAngles","angleWeights"
8,41.1368,0.0414337
13,43.8613,0.0704363
19,74.6503,0.0258967
26,85.3585,0.0252272
43,50.9961,0.0685772
33,69.6007,0.0229536
42,29.4637,0.0434942
52,52.4944,0.0540293
32,46.8986,0.0306715
62,66.5769,0.116676
167,74.9882,0.0424325
50,81.8269,0.0172277
185,73.2585,0.02084
72,77.0428,0.0259764
114,32.7129,0.0210132
204,139.566,0.0204043
98,54.2775,0.0744118
113,37.9191,0.0288762
129,60.8979,0.0370169
146,32.2797,0.054496
164,58.765,0.0646601
128,24.8819,0.0331702
202,64.3433,0.0806995
245,97.1785,0.0417507
181,27.2107,0.0285235
222,68.1959,0.0297765
244,58.6888,0.0294667
221,41.7986,0.0407194
290,138.726,0.026647
242,48.2091,0.0629183
289,36.7174,0.0566382
313,33.2149,0.0676983
339,110.431,0.0384935
338,66.2792,0.0618021
365,36.8828,0.0365127
392,86.5028,0.0360481
