facetNormals:0,facetNormals:1,facetNormals:2,FacetCenters:0,FacetCenters:1,FacetCenters:2,FacetIds,relFacetSize,absFacetSize,cellPairingIds,interplanarAngles,angleWeights
0.33219,-0.785643,-0.512626,4.11969,3.69068,13.4916,1,0.0442532,0.00280662,8,32.1358,0.0453654
0.738532,-0.417684,-0.501453,4.15821,3.69841,13.5252,2,0.0465349,0.00295133,13,109.613,0.021088
0.216395,0.773667,-0.446539,4.10856,3.75078,13.5316,3,0.0138421,0.000877888,19,20.135,0.0428082
-0.00669043,-0.86299,-0.496176,4.07243,3.68229,13.5114,4,0.0414546,0.00262913,26,82.2103,0.0350949
-0.866385,-0.320764,-0.327767,4.00296,3.70721,13.5401,5,0.0290773,0.00184413,34,43.3715,0.0697386
-0.367423,-0.836676,-0.32402,4.05094,3.69042,13.5133,6,0.164439,0.010429,43,106.681,0.0380721
-0.948973,-0.132537,0.126778,3.99902,3.72828,13.5301,7,0.033406,0.00211867,53,127.265,0.0129328
-0.914995,0.393321,-0.0246446,4.0001,3.72493,13.5545,8,0.007573,0.000480293,64,81.3567,0.026025
0.952023,0.0691817,0.224799,4.16872,3.71918,13.5463,9,0.0184325,0.00116902,76,163.141,0.0645176
-0.566718,0.675278,0.385308,4.03312,3.7462,13.5824,10,0.119018,0.00754834,89,70.9255,0.0490576
0.546146,-0.566152,0.595613,4.11382,3.68661,13.5842,11,0.0550321,0.00349023,103,71.8494,0.0601501
0.0197643,-0.763998,0.597157,4.09136,3.69327,13.5897,12,0.0938706,0.00595344,118,124.66,0.0580861
0.542586,0.54024,0.592584,4.12762,3.74697,13.5842,13,0.0844993,0.0053591,134,102.764,0.0336951
0.489611,-0.072876,0.851366,4.12321,3.72221,13.6044,14,0.0272045,0.00172536,18,86.1651,0.0213372
,,,,,,,,,25,51.9786,0.0438481
,,,,,,,,,33,110.701,0.0357907
,,,,,,,,,42,75.4168,0.0725412
,,,,,,,,,52,138.104,0.0388924
,,,,,,,,,63,147.454,0.0130262
,,,,,,,,,75,54.4832,0.0264057
,,,,,,,,,88,160.497,0.0669091
,,,,,,,,,102,69.463,0.0504281
,,,,,,,,,117,87.946,0.0622235
,,,,,,,,,133,97.3507,0.0600174
,,,,,,,,,150,92.0599,0.034336
,,,,,,,,,32,119.284,0.0207541
,,,,,,,,,41,108.728,0.0187556
,,,,,,,,,51,130.787,0.0255347
,,,,,,,,,62,114.224,0.0195736
,,,,,,,,,74,82.6399,0.00978993
,,,,,,,,,87,79.8295,0.0158108
,,,,,,,,,101,75.0751,0.0247998
,,,,,,,,,116,130.236,0.0221203
,,,,,,,,,132,163.213,0.0241264
,,,,,,,,,149,72.2858,0.0237874
,,,,,,,,,167,111.422,0.0183482
,,,,,,,,,50,62.8539,0.0341799
,,,,,,,,,61,23.4765,0.0662163
,,,,,,,,,73,86.5547,0.0369977
,,,,,,,,,86,108.89,0.0128065
,,,,,,,,,100,100.483,0.0255184
,,,,,,,,,115,143.525,0.0614915
,,,,,,,,,131,78.8822,0.0472881
,,,,,,,,,148,67.9225,0.0575114
,,,,,,,,,166,142.424,0.0556217
,,,,,,,,,185,111.72,0.0328508
,,,,,,,,,72,43.1929,0.0494164
,,,,,,,,,85,29.6839,0.0310917
,,,,,,,,,99,46.3055,0.0120164
,,,,,,,,,114,163.286,0.0225624
,,,,,,,,,130,80.9654,0.0467364
,,,,,,,,,147,120.218,0.0380501
,,,,,,,,,165,88.0585,0.0444009
,,,,,,,,,184,151.948,0.0432661
,,,,,,,,,204,134.768,0.0281097
,,,,,,,,,98,63.4757,0.0555309
,,,,,,,,,113,89.1047,0.0144792
,,,,,,,,,129,120.357,0.0331492
,,,,,,,,,146,121.085,0.138089
,,,,,,,,,164,85.2012,0.0824657
,,,,,,,,,183,62.2068,0.119515
,,,,,,,,,203,153.953,0.111634
,,,,,,,,,224,114.422,0.0466854
,,,,,,,,,128,32.396,0.012347
,,,,,,,,,145,158.872,0.0237567
,,,,,,,,,163,57.6814,0.0521692
,,,,,,,,,182,112.681,0.0415749
,,,,,,,,,202,80.2838,0.049276
,,,,,,,,,223,123.124,0.0478822
,,,,,,,,,245,111.382,0.029988
,,,,,,,,,162,150.394,0.0107354
,,,,,,,,,181,36.0802,0.0142399
,,,,,,,,,201,138.576,0.0133139
,,,,,,,,,222,110.178,0.0140153
,,,,,,,,,244,108.032,0.0139002
,,,,,,,,,267,120.478,0.0118479
,,,,,,,,,200,115.501,0.0319213
,,,,,,,,,221,50.5612,0.0276154
,,,,,,,,,243,83.9526,0.0308142
,,,,,,,,,266,43.6379,0.0302634
,,,,,,,,,290,47.499,0.0219754
,,,,,,,,,242,119.145,0.0752635
,,,,,,,,,265,108.561,0.104959
,,,,,,,,,289,72.1425,0.0988313
,,,,,,,,,314,89.918,0.0442863
,,,,,,,,,288,33.3916,0.0693862
,,,,,,,,,313,68.9313,0.0666542
,,,,,,,,,339,32.913,0.0364101
,,,,,,,,,338,92.9393,0.0889388
,,,,,,,,,365,53.0806,0.0421838
,,,,,,,,,392,39.9653,0.0411582
