facetNormals:0,facetNormals:1,facetNormals:2,FacetCenters:0,FacetCenters:1,FacetCenters:2,FacetIds,relFacetSize,absFacetSize,cellPairingIds,interplanarAngles,angleWeights
0.212236,0.11526,-0.937705,5.64469,3.44998,10.9762,1,0.0230464,0.00626583,8,59.7852,0.0291193
-0.56848,-0.346224,-0.65738,5.62723,3.37587,10.8868,2,0.0395376,0.0107494,13,55.864,0.0308498
0.182806,-0.714328,-0.595729,5.61296,3.46946,11.0424,3,0.046643,0.0126812,19,43.4966,0.0328683
0.786165,-0.0282055,-0.540509,5.70717,3.3941,10.91,4,0.0572794,0.015573,26,74.5576,0.038965
-0.659863,0.622808,-0.339142,5.57645,3.449,10.9408,5,0.125985,0.0342527,34,73.0527,0.0366337
-0.115941,0.940694,-0.202339,5.64823,3.50424,10.9717,6,0.089255,0.0242666,43,93.1432,0.0177432
0.770713,-0.594094,0.157229,5.70343,3.42682,10.9681,7,0.0144241,0.00392161,53,80.0928,0.0290058
0.563288,0.782344,0.0521282,5.71015,3.47899,10.9574,8,0.039122,0.0106365,64,129.713,0.0308001
-0.826776,-0.306496,0.419453,5.54121,3.40432,11.066,9,0.0464164,0.0126196,76,100.183,0.0395338
0.848952,0.0016708,0.360757,5.71327,3.42917,11.0216,10,0.13891,0.0377667,89,125.687,0.0361266
-0.200651,0.697402,0.612261,5.61081,3.48158,11.0874,11,0.0835413,0.0227131,103,157.442,0.0181887
-0.35744,-0.440994,0.80155,5.61216,3.41064,11.0847,12,0.0150223,0.00408426,18,52.8928,0.0427974
,,,,,,,,,25,95.2584,0.0467829
,,,,,,,,,33,65.0382,0.0601869
,,,,,,,,,42,98.0372,0.0548002
,,,,,,,,,52,111.355,0.021137
,,,,,,,,,63,133.819,0.0393287
,,,,,,,,,75,70.802,0.0427017
,,,,,,,,,88,146.59,0.061555
,,,,,,,,,102,126.623,0.0536733
,,,,,,,,,117,100.728,0.0217723
,,,,,,,,,32,57.5203,0.0514168
,,,,,,,,,41,113.319,0.0680807
,,,,,,,,,51,128.557,0.0612683
,,,,,,,,,62,59.688,0.0220342
,,,,,,,,,74,122.145,0.0425527
,,,,,,,,,87,101.345,0.0465294
,,,,,,,,,101,93.9946,0.0698364
,,,,,,,,,116,178.213,0.0598631
,,,,,,,,,132,104.164,0.0227255
,,,,,,,,,50,112.447,0.0787534
,,,,,,,,,61,90.5151,0.0697785
,,,,,,,,,73,55.146,0.023045
,,,,,,,,,86,64.7828,0.0464907
,,,,,,,,,100,158.656,0.0512789
,,,,,,,,,115,57.5519,0.0811122
,,,,,,,,,131,124.121,0.0679615
,,,,,,,,,148,138.471,0.0238022
,,,,,,,,,72,38.8632,0.104486
,,,,,,,,,85,167.411,0.0258847
,,,,,,,,,99,83.9924,0.0597042
,,,,,,,,,114,77.022,0.067839
,,,,,,,,,130,139.703,0.132132
,,,,,,,,,147,67.0176,0.100464
,,,,,,,,,165,109.056,0.0268439
,,,,,,,,,98,135.383,0.0248348
,,,,,,,,,113,45.1324,0.0543997
,,,,,,,,,129,107.041,0.0610725
,,,,,,,,,146,100.952,0.108679
,,,,,,,,,164,52.8726,0.0863037
,,,,,,,,,183,124.238,0.0257164
,,,,,,,,,128,91.3521,0.0210772
,,,,,,,,,145,113.849,0.0220089
,,,,,,,,,163,38.6586,0.0261345
,,,,,,,,,182,120.336,0.0246007
,,,,,,,,,202,83.3253,0.0147172
,,,,,,,,,162,136.485,0.0424582
,,,,,,,,,181,55.9743,0.0610502
,,,,,,,,,201,59.5535,0.053289
,,,,,,,,,222,122.147,0.0217088
,,,,,,,,,200,127.723,0.0695821
,,,,,,,,,221,76.9744,0.0596761
,,,,,,,,,243,36.905,0.0226985
,,,,,,,,,242,86.6158,0.104335
,,,,,,,,,265,90.95,0.0271126
,,,,,,,,,288,74.1357,0.0254655
