Q	U	V
{$V$}	{[mm$^3$]}	0.000946395
{$d_v$}	{[mm]}	0.121812
{$S_c$}	{[mm$^2$]}	0.0863619
{$S_o$}	{[mm$^2$]}	0.041187
{$S_l/S_o$}	[]	1.096824
{$\Psi$}	[]	0.539772
{$\eta$}	[]	0.609044
{med($\theta_e$)}	{[$^\circ$]}	112.288
{$\Upsilon$}	[]	22
{$\Xi$}	[]	10
