facetNormals:0,facetNormals:1,facetNormals:2,FacetCenters:0,FacetCenters:1,FacetCenters:2,FacetIds,relFacetSize,absFacetSize,cellPairingIds,interplanarAngles,angleWeights
-0.20626,-0.0328861,-0.964035,4.44424,5.56082,11.8366,1,0.0228472,0.00362858,8,39.8563,0.0330489
-0.52271,0.459217,-0.653706,4.39853,5.59515,11.8504,2,0.0597112,0.0094833,13,39.693,0.0390639
-0.620815,-0.391155,-0.600197,4.38138,5.52074,11.8872,3,0.134605,0.021378,19,63.4588,0.0345688
0.719785,-0.293624,-0.590251,4.53085,5.52946,11.8576,4,0.0709896,0.0112745,26,65.5525,0.0312293
-0.216409,-0.890702,-0.336845,4.43312,5.46545,11.908,5,0.0493258,0.0078339,34,95.1869,0.0201591
0.787144,0.569423,-0.0975198,4.54027,5.5458,11.8966,6,0.018037,0.00286462,43,83.1289,0.030558
-0.820897,-0.521432,0.0740329,4.38007,5.50907,11.9384,7,0.0461251,0.00732558,53,117.562,0.0251048
0.00414172,-0.841583,0.48853,4.43589,5.46356,11.9745,8,0.0278576,0.00442433,64,111.92,0.0352635
-0.784114,-0.182902,0.545484,4.37235,5.52511,11.9528,9,0.0772393,0.0122671,76,113.887,0.0271304
-0.61888,0.519176,0.510673,4.49269,5.50316,11.8404,10,0.0333902,0.00530303,89,142.025,0.0356327
0.621867,-0.343025,0.661413,4.48475,5.49658,11.9769,11,0.0809115,0.0128503,103,151.933,0.0281242
-0.22099,0.226669,0.906329,4.50017,5.46738,11.9112,12,0.036571,0.00580819,18,53.5861,0.0827253
,,,,,,,,,25,97.723,0.0648637
,,,,,,,,,33,94.6579,0.0540239
,,,,,,,,,42,95.3066,0.027705
,,,,,,,,,52,81.275,0.0520461
,,,,,,,,,63,139.648,0.0379909
,,,,,,,,,75,91.8957,0.0673535
,,,,,,,,,88,75.5237,0.0428301
,,,,,,,,,102,170.935,0.0687133
,,,,,,,,,117,114.006,0.0453604
,,,,,,,,,32,88.6211,0.0929554
,,,,,,,,,41,42.2798,0.0721957
,,,,,,,,,51,134.858,0.0318112
,,,,,,,,,62,43.6358,0.0687066
,,,,,,,,,74,87.9248,0.0461616
,,,,,,,,,87,75.4937,0.0981552
,,,,,,,,,101,97.9544,0.0535074
,,,,,,,,,116,134.853,0.10107
,,,,,,,,,132,122.984,0.0575156
,,,,,,,,,50,71.3643,0.0582073
,,,,,,,,,61,61.3497,0.0287653
,,,,,,,,,73,120.381,0.0559179
,,,,,,,,,86,92.3089,0.0400132
,,,,,,,,,100,151.302,0.0739827
,,,,,,,,,115,164.601,0.045418
,,,,,,,,,131,80.4026,0.0756265
,,,,,,,,,148,144.26,0.0482735
,,,,,,,,,72,132.541,0.0264148
,,,,,,,,,85,49.6116,0.0476718
,,,,,,,,,99,52.0697,0.035606
,,,,,,,,,114,80.9826,0.0602044
,,,,,,,,,130,122.432,0.039823
,,,,,,,,,147,93.1355,0.0612885
,,,,,,,,,165,119.339,0.0420014
,,,,,,,,,98,176.289,0.025933
,,,,,,,,,113,123.441,0.0218965
,,,,,,,,,129,144.654,0.0292447
,,,,,,,,,146,104.988,0.0234218
,,,,,,,,,164,75.9732,0.0294981
,,,,,,,,,183,98.1735,0.0241587
,,,,,,,,,128,60.2054,0.0347361
,,,,,,,,,145,34.7428,0.0577585
,,,,,,,,,163,72.8322,0.0387379
,,,,,,,,,182,107.375,0.0587556
,,,,,,,,,202,81.9997,0.0407962
,,,,,,,,,162,63.8454,0.040947
,,,,,,,,,181,101.79,0.030374
,,,,,,,,,201,49.4165,0.0414456
,,,,,,,,,222,74.4086,0.0316251
,,,,,,,,,200,43.9744,0.0466248
,,,,,,,,,221,93.8932,0.0790328
,,,,,,,,,243,47.8787,0.0496391
,,,,,,,,,242,104.051,0.0472723
,,,,,,,,,265,38.5749,0.0349083
,,,,,,,,,288,65.6411,0.0503737
