facetNormals:0,facetNormals:1,facetNormals:2,FacetCenters:0,FacetCenters:1,FacetCenters:2,FacetIds,relFacetSize,absFacetSize,cellPairingIds,interplanarAngles,angleWeights
0.417871,0.219761,-0.815909,4.8887,5.3236,12.0734,1,0.123285,0.00478725,8,56.1744,0.0713545
-0.456363,0.448083,-0.74408,4.8506,5.33904,12.0783,2,0.0502063,0.00194954,13,38.8366,0.0506264
-0.133992,0.553918,-0.812787,4.86427,5.35997,12.0997,3,0.0318534,0.00123689,19,42.556,0.127084
0.505699,-0.461057,-0.695695,4.88915,5.26203,12.081,4,0.131124,0.00509162,26,68.4005,0.0458338
-0.192668,-0.657906,-0.689365,4.85925,5.23611,12.0929,5,0.0281494,0.00109306,34,83.9945,0.0384329
-0.818904,0.315937,-0.453745,4.83367,5.34594,12.1105,6,0.0227648,0.000883971,43,87.4265,0.0699645
-0.629353,0.703722,-0.182667,4.84191,5.35048,12.0983,7,0.0488408,0.00189652,53,49.391,0.0437351
0.478311,0.791652,-0.26544,4.88482,5.3386,12.0875,8,0.0265826,0.00103222,64,60.2083,0.0366867
-0.0554253,0.917946,-0.344954,4.88108,5.35699,12.0826,9,0.0215497,0.000836789,76,107.341,0.157707
-0.881655,-0.238935,-0.194293,4.83143,5.27458,12.1052,10,0.218795,0.00849594,89,52.8417,0.00571216
0.881315,0.459818,-0.123855,4.87372,5.29841,12.1046,11,0.00292381,0.000113534,103,59.8689,0.0142917
0.979896,0.109542,-0.0409785,4.90213,5.28847,12.1068,12,0.00758551,0.00029455,118,82.3842,0.0219238
0.808208,-0.520771,0.125199,4.89071,5.2591,12.1136,13,0.0120317,0.0004672,134,134.9,0.00450777
-0.0997323,-0.828001,0.53315,4.84027,5.26988,12.1103,14,0.00229586,8.91497e-05,151,94.814,0.0271266
0.725121,0.313899,0.549222,4.8795,5.27032,12.1162,15,0.0152399,0.000591776,169,138.126,0.0218375
0.172584,-0.572839,0.779333,4.86449,5.29379,12.1237,16,0.0119797,0.00046518,188,154.247,0.0109106
-0.564968,0.187626,0.793204,4.85564,5.29087,12.1171,17,0.00570787,0.00022164,208,118.876,0.00878164
0.560798,-0.104987,0.813188,4.84158,5.30508,12.1369,18,0.00455298,0.000176795,229,156.192,0.0132604
-0.112111,-0.0213222,0.985266,4.86725,5.28098,12.1208,19,0.00700705,0.000272088,18,20.1914,0.0389775
,,,,,,,,,25,85.1905,0.0726106
,,,,,,,,,33,71.2849,0.0360734
,,,,,,,,,42,28.3869,0.0313257
,,,,,,,,,52,38.4932,0.0495142
,,,,,,,,,63,69.2858,0.0347606
,,,,,,,,,75,43.9949,0.0301558
,,,,,,,,,88,61.3123,0.0816716
,,,,,,,,,102,96.0742,0.00552583
,,,,,,,,,117,112.313,0.0131797
,,,,,,,,,133,136.964,0.0194115
,,,,,,,,,150,138.041,0.00439093
,,,,,,,,,168,129.372,0.0233823
,,,,,,,,,187,161.716,0.0193438
,,,,,,,,,207,104.784,0.0102504
,,,,,,,,,228,158.693,0.00834884
,,,,,,,,,250,135.281,0.0122978
,,,,,,,,,32,75.5147,0.0512555
,,,,,,,,,41,76.7196,0.0298871
,,,,,,,,,51,48.2185,0.0265529
,,,,,,,,,62,49.2892,0.0385591
,,,,,,,,,74,51.8416,0.0289803
,,,,,,,,,87,35.245,0.0257075
,,,,,,,,,101,81.0826,0.0556107
,,,,,,,,,116,76.1951,0.005356
,,,,,,,,,132,92.1829,0.0122531
,,,,,,,,,149,121.195,0.0174661
,,,,,,,,,167,153.404,0.00428302
,,,,,,,,,186,112.769,0.0206162
,,,,,,,,,206,176.895,0.0174113
,,,,,,,,,227,118.191,0.00968098
,,,,,,,,,249,143.653,0.00796716
,,,,,,,,,272,144.104,0.0114872
,,,,,,,,,50,43.7363,0.0463488
,,,,,,,,,61,104.665,0.0387943
,,,,,,,,,73,123.332,0.0711717
,,,,,,,,,86,86.2418,0.0442038
,,,,,,,,,100,102.734,0.037016
,,,,,,,,,115,102.711,0.163976
,,,,,,,,,131,70.9019,0.00572008
,,,,,,,,,148,60.5465,0.0143414
,,,,,,,,,166,53.5819,0.022041
,,,,,,,,,185,92.3489,0.0045127
,,,,,,,,,205,99.8179,0.0273062
,,,,,,,,,226,101.478,0.0219537
,,,,,,,,,248,162.703,0.0109395
,,,,,,,,,271,103.952,0.00880038
,,,,,,,,,295,139.165,0.0133032
,,,,,,,,,72,74.1282,0.0251724
,,,,,,,,,85,103.346,0.0357147
,,,,,,,,,99,117.364,0.0273436
,,,,,,,,,114,111.854,0.0244114
,,,,,,,,,130,59.4861,0.0498813
,,,,,,,,,147,113.41,0.0052974
,,,,,,,,,165,104.031,0.0119506
,,,,,,,,,184,83.8739,0.016858
,,,,,,,,,204,78.2222,0.00424546
,,,,,,,,,225,140.786,0.0197742
,,,,,,,,,247,101.695,0.0168069
,,,,,,,,,270,125.609,0.0094912
,,,,,,,,,294,128.376,0.00783818
,,,,,,,,,319,131.868,0.0112209
,,,,,,,,,98,30.2702,0.0310548
,,,,,,,,,113,91.2738,0.024526
,,,,,,,,,129,59.5434,0.0221406
,,,,,,,,,146,37.2355,0.0412388
,,,,,,,,,164,121.709,0.00518207
,,,,,,,,,183,140.209,0.0113793
,,,,,,,,,203,157.203,0.0157429
,,,,,,,,,224,115.551,0.00417106
,,,,,,,,,246,141.474,0.0182574
,,,,,,,,,269,134.129,0.0156984
,,,,,,,,,293,80.4831,0.00912724
,,,,,,,,,318,151.354,0.00758829
,,,,,,,,,344,111.676,0.0107158
,,,,,,,,,128,70.783,0.0344274
,,,,,,,,,145,38.0375,0.0299048
,,,,,,,,,163,61.9553,0.0798558
,,,,,,,,,182,102.497,0.00551734
,,,,,,,,,202,124.108,0.0131316
,,,,,,,,,223,164.399,0.0193072
,,,,,,,,,245,130.432,0.00438557
,,,,,,,,,268,111.277,0.023231
,,,,,,,,,292,133.815,0.0192402
,,,,,,,,,317,68.9391,0.0102212
,,,,,,,,,343,127.037,0.00832947
,,,,,,,,,370,97.4958,0.0122558
,,,,,,,,,162,33.0999,0.023803
,,,,,,,,,181,128.489,0.0474056
,,,,,,,,,201,31.8915,0.00526818
,,,,,,,,,222,53.3918,0.011803
,,,,,,,,,244,93.6213,0.0165656
,,,,,,,,,267,152.48,0.00422667
,,,,,,,,,291,60.9554,0.0193731
,,,,,,,,,316,127.674,0.0165162
,,,,,,,,,342,110.374,0.00939782
,,,,,,,,,369,91.8423,0.00777438
,,,,,,,,,397,110.358,0.0110907
,,,,,,,,,200,96.4752,0.039235
,,,,,,,,,221,64.9902,0.00514902
,,,,,,,,,243,86.4286,0.0112212
,,,,,,,,,266,126.468,0.0154419
,,,,,,,,,290,164.856,0.00414963
,,,,,,,,,315,86.4516,0.0178537
,,,,,,,,,341,146.451,0.015399
,,,,,,,,,368,94.1253,0.00902523
,,,,,,,,,396,114.717,0.00751764
,,,,,,,,,425,111.259,0.0105754
,,,,,,,,,242,157.263,0.00577052
,,,,,,,,,265,163.171,0.0146627
,,,,,,,,,289,132.562,0.0228091
,,,,,,,,,314,78.6338,0.00454404
,,,,,,,,,340,156.008,0.028495
,,,,,,,,,367,100.468,0.0227157
,,,,,,,,,395,71.1553,0.0111255
,,,,,,,,,424,132.55,0.00892033
,,,,,,,,,454,95.42,0.0135792
,,,,,,,,,288,21.617,0.00422075
,,,,,,,,,313,61.9106,0.00470442
,,,,,,,,,339,122.63,0.00257206
,,,,,,,,,366,42.0874,0.00490634
,,,,,,,,,394,102.19,0.00470043
,,,,,,,,,423,120.879,0.00386686
,,,,,,,,,453,69.6994,0.0035609
,,,,,,,,,484,103.422,0.00412599
,,,,,,,,,338,40.2962,0.00930475
,,,,,,,,,365,102.431,0.00352487
,,,,,,,,,393,40.4701,0.0101293
,,,,,,,,,422,85.5974,0.00928916
,,,,,,,,,452,125.301,0.00651409
,,,,,,,,,483,59.0135,0.00569044
,,,,,,,,,515,98.9673,0.00728482
,,,,,,,,,392,64.2237,0.00385594
,,,,,,,,,421,58.2223,0.0134471
,,,,,,,,,451,55.8049,0.0120057
,,,,,,,,,482,118.242,0.00774262
,,,,,,,,,514,50.7242,0.00660611
,,,,,,,,,547,87.3866,0.00885633
,,,,,,,,,450,92.3713,0.00399055
,,,,,,,,,481,26.1988,0.00385326
,,,,,,,,,513,70.7352,0.00327459
,,,,,,,,,546,61.8065,0.00305249
,,,,,,,,,580,55.6382,0.00345853
,,,,,,,,,512,66.7398,0.0134146
,,,,,,,,,545,84.8979,0.00830517
,,,,,,,,,579,30.8899,0.0070113
,,,,,,,,,614,61.6554,0.00960013
,,,,,,,,,578,64.9096,0.00773182
,,,,,,,,,613,35.8916,0.00659825
,,,,,,,,,649,38.6815,0.00884221
,,,,,,,,,648,71.7518,0.00506543
,,,,,,,,,685,31.2607,0.00629108
,,,,,,,,,722,41.2676,0.00551953
