Q	U	V
{$V$}	{[mm$^3$]}	0.00510008
{$d_v$}	{[mm]}	0.213563
{$S_c$}	{[mm$^2$]}	0.318487
{$S_o$}	{[mm$^2$]}	0.169842
{$S_l/S_o$}	[]	0.875196
{$\Psi$}	[]	0.449894
{$\eta$}	[]	0.458119
{med($\theta_e$)}	{[$^\circ$]}	116.95895
{$\Upsilon$}	[]	11
{$\Xi$}	[]	1
