"cellPairingIds","interplanarAngles","angleWeights"
8,34.7584,0.0757075
13,55.9505,0.0762871
34,148.237,0.187175
18,87.6211,0.0520095
33,118.252,0.0364404
42,154.411,0.087249
52,162.556,0.070354
32,28.485,0.0320267
41,55.2287,0.0365742
51,111.279,0.0880196
50,32.6882,0.0253558
61,88.9906,0.0426291
73,66.0601,0.0381526
85,51.3832,0.0447862
98,37.9847,0.157538
