facetNormals:0,facetNormals:1,facetNormals:2,FacetCenters:0,FacetCenters:1,FacetCenters:2,FacetIds,relFacetSize,absFacetSize,cellPairingIds,interplanarAngles,angleWeights
0.0104582,-0.518805,-0.810899,5.2314,4.32228,12.0128,1,0.167315,0.0252499,8,50.2213,0.144715
0.547713,0.0961148,-0.785475,5.27335,4.36934,12.01,2,0.127494,0.0192404,13,50.8725,0.129522
-0.703858,-0.189089,-0.591166,5.13345,4.36495,12.0331,3,0.105657,0.0159449,19,58.1681,0.0285724
-0.443382,-0.873645,-0.0614495,5.20624,4.28113,12.064,4,0.0156199,0.00235723,26,73.6408,0.056705
-0.945019,-0.171826,-0.232736,5.14379,4.41323,12.0152,5,0.0341372,0.00515172,34,127.411,0.0866542
0.40184,0.880517,0.148061,5.20351,4.46172,12.0351,6,0.0584676,0.00882346,43,136.574,0.0612163
-0.0258678,0.947061,0.235502,5.19736,4.44485,12.046,7,0.0374612,0.00565334,53,115.143,0.077608
-0.838788,0.0294652,0.450944,5.13395,4.39744,12.084,8,0.0505209,0.00762421,64,174.235,0.0561878
-0.105428,0.501008,0.805999,5.17363,4.42111,12.0759,9,0.033763,0.00509525,18,86.1488,0.115553
,,,,,,,,,25,107.148,0.0278302
,,,,,,,,,33,111.676,0.0538546
,,,,,,,,,42,78.4654,0.0801699
,,,,,,,,,52,96.6083,0.0579076
,,,,,,,,,63,152.157,0.0723659
,,,,,,,,,75,134.376,0.0533879
,,,,,,,,,32,56.1145,0.0272162
,,,,,,,,,41,25.7674,0.0516021
,,,,,,,,,51,125.752,0.0752783
,,,,,,,,,62,109.121,0.0553114
,,,,,,,,,74,69.1501,0.0683564
,,,,,,,,,87,123.687,0.0511734
,,,,,,,,,50,53.0323,0.0214329
,,,,,,,,,61,174.371,0.0246535
,,,,,,,,,73,150.056,0.022047
,,,,,,,,,86,70.0935,0.0238622
,,,,,,,,,100,118.03,0.0213586
,,,,,,,,,72,125.76,0.0431062
,,,,,,,,,85,101.545,0.0357221
,,,,,,,,,99,43.5338,0.0407437
,,,,,,,,,114,100.628,0.0339491
,,,,,,,,,98,26.1036,0.0456644
,,,,,,,,,113,105.184,0.0542045
,,,,,,,,,129,56.3462,0.0428067
,,,,,,,,,128,80.3574,0.0430218
,,,,,,,,,145,44.3111,0.0355161
,,,,,,,,,162,59.1403,0.040476
