"cellPairingIds","interplanarAngles","angleWeights"
8,72.8797,0.00804603
13,41.015,0.0247443
26,73.2729,0.0243117
53,71.9868,0.048122
64,124.489,0.0471282
103,146.596,0.0349634
33,73.9348,0.0070058
75,77.3182,0.00814165
74,65.0618,0.0259635
101,37.8038,0.0215371
132,111.271,0.0215813
99,71.9358,0.0254877
114,138.976,0.0252062
147,73.5746,0.0266506
165,139.316,0.0212516
181,64.5547,0.0373153
201,37.1938,0.0582387
222,118.521,0.0374483
243,30.3824,0.0368437
265,78.7751,0.0288855
288,92.4361,0.0400136
