"cellPairingIds","interplanarAngles","angleWeights"
8,69.2471,0.0269635
13,44.7295,0.0492116
19,73.894,0.0640949
26,51.1741,0.0486165
43,41.3282,0.0440716
53,74.5429,0.0344436
76,72.2019,0.0616476
18,53.3693,0.0272496
25,36.1092,0.0312702
42,34.0483,0.0286106
51,41.7704,0.0549897
62,62.4745,0.0448411
87,63.9561,0.0375359
50,46.5683,0.0646778
61,69.4519,0.0742572
86,67.5434,0.0417972
185,111.658,0.0934287
99,31.3931,0.0346112
129,95.7207,0.0401682
183,104.373,0.0341547
224,125.967,0.0731204
145,31.9385,0.0344696
163,42.5361,0.0549396
181,55.5626,0.0407424
201,50.5569,0.0382069
267,83.6361,0.0414346
200,55.891,0.0443617
243,46.5593,0.026501
242,36.6005,0.0748414
265,70.5777,0.03714
289,50.6225,0.0679101
313,34.619,0.0611463
339,48.9161,0.0772106
338,37.6005,0.0334249
365,64.7557,0.0377143
392,41.3681,0.0698551
