"cellPairingIds","interplanarAngles","angleWeights"
8,59.0367,0.0233015
13,75.0295,0.0379202
19,37.6146,0.0309802
18,42.3948,0.0372796
25,96.2646,0.0305514
42,60.0742,0.0332172
52,74.0872,0.0255526
88,72.221,0.0397351
32,106.566,0.0617769
41,65.079,0.0691454
51,34.2399,0.0737438
50,80.7601,0.0490924
73,90.3965,0.0350903
100,48.6592,0.0307657
131,51.6084,0.061598
148,65.506,0.0413976
72,75.3383,0.0563605
147,56.6555,0.0689214
204,59.4941,0.0716621
146,28.2284,0.0840136
203,52.037,0.0636009
224,89.9398,0.0766133
128,45.7387,0.0198092
145,66.6188,0.0257024
163,91.8421,0.0477718
202,82.5809,0.0327234
181,46.2128,0.0273873
222,107.812,0.0216734
243,26.0898,0.0289311
265,127.358,0.0602741
289,37.1957,0.0927232
288,42.2492,0.0546582
339,53.0374,0.101844
338,96.1078,0.048993
365,60.1934,0.0563679
392,47.1485,0.0837906
