Q	U	V
{$V$}	{[mm$^3$]}	0.00145106
{$d_v$}	{[mm]}	0.140463
{$S_c$}	{[mm$^2$]}	0.107882
{$S_o$}	{[mm$^2$]}	0.0601435
{$S_l/S_o$}	[]	0.793743
{$\Psi$}	[]	0.574547
{$\eta$}	[]	0.622455
{med($\theta_e$)}	{[$^\circ$]}	60.2131
{$\Upsilon$}	[]	12
{$\Xi$}	[]	5
