"cellPairingIds","interplanarAngles","angleWeights"
8,35.3952,0.0655188
13,44.4324,0.0692011
26,56.0579,0.038879
53,65.6695,0.0793198
64,58.2578,0.11576
18,27.8418,0.0417161
42,36.8384,0.0302254
75,62.5744,0.0550675
133,103.639,0.0441314
41,82.326,0.0290447
51,35.3815,0.030986
62,85.7838,0.0350814
186,144.667,0.0163943
85,28.2274,0.0251412
99,54.653,0.0306878
130,50.6805,0.0312253
147,76.1212,0.0238883
203,92.1341,0.0322991
246,127.1,0.0142633
269,109.182,0.0312163
163,39.1893,0.038313
268,85.2219,0.0150733
162,46.1933,0.0644998
201,38.7141,0.0347853
222,48.0902,0.0658335
243,43.338,0.0891168
266,65.9787,0.062362
242,53.3379,0.0354774
340,53.6976,0.0170671
367,85.8626,0.0487398
288,36.1559,0.0408746
394,62.2065,0.0329455
338,40.2102,0.063608
422,55.2106,0.0595407
451,31.5408,0.0462761
512,39.2376,0.0164586
