facetNormals:0,facetNormals:1,facetNormals:2,FacetCenters:0,FacetCenters:1,FacetCenters:2,FacetIds,relFacetSize,absFacetSize,cellPairingIds,interplanarAngles,angleWeights
-0.28792,-0.361166,-0.858561,4.26369,6.85936,14.1735,1,0.0221113,0.00156453,8,29.384,0.0187004
0.162459,-0.560113,-0.792159,4.26945,6.84906,14.1687,2,0.0162012,0.00114635,13,50.3386,0.0187604
0.53535,-0.434335,-0.718455,4.27733,6.8483,14.169,3,0.0162915,0.00115274,19,61.3728,0.0340679
-0.269121,0.605758,-0.681965,4.24913,6.90917,14.17,4,0.0741809,0.00524882,26,78.3893,0.0399138
0.836791,-0.0904415,-0.461997,4.2941,6.86522,14.1888,5,0.204822,0.0144926,34,63.6543,0.0270546
0.440263,-0.816994,-0.29465,4.22345,6.96192,14.2151,6,0.0348447,0.00246551,43,52.8935,0.00648426
-0.665097,-0.718783,-0.153673,4.24491,6.86836,14.1825,7,0.0037992,0.00026882,53,103.356,0.034822
0.488589,0.81347,-0.24873,4.28548,6.92164,14.2152,8,0.0819059,0.00579542,64,89.4481,0.0312585
-0.49271,0.824525,-0.192331,4.22869,6.94712,14.2367,9,0.0533136,0.00377232,76,113.025,0.0320337
0.815356,0.557647,-0.0682316,4.28499,6.92788,14.2385,10,0.0581109,0.00411176,89,107.109,0.0140591
0.997612,0.110279,-0.0453025,4.28529,6.89602,14.2093,11,0.010306,0.000729225,103,87.59,0.0288473
0.021051,-0.860006,0.311035,4.23597,6.92619,14.2427,12,0.0414855,0.0029354,118,80.6435,0.0106764
-0.922821,-0.255776,0.235034,4.21358,6.91207,14.2168,13,0.0070371,0.000497924,134,145.08,0.0349811
0.677039,0.511437,0.453648,4.27482,6.92154,14.2652,14,0.0836962,0.0059221,151,109.351,0.00839738
-0.793026,0.285878,0.517946,4.2004,6.94746,14.2085,15,0.00518286,0.000366724,169,138.169,0.030767
-0.240573,0.724911,0.594824,4.22302,6.94,14.2959,16,0.050559,0.0035774,188,112.718,0.00895076
-0.669449,-0.120531,0.704731,4.22232,6.91963,14.2132,17,0.00561107,0.000397023,208,162.626,0.0220009
0.314256,0.614443,0.706361,4.27139,6.92487,14.2943,18,0.0218915,0.00154898,18,23.3295,0.0162463
,,,,,,,,,25,80.3256,0.0265943
,,,,,,,,,33,54.192,0.0300274
,,,,,,,,,42,37.2394,0.0221184
,,,,,,,,,52,64.7282,0.00615504
,,,,,,,,,63,100.704,0.0270516
,,,,,,,,,75,113.843,0.0248507
,,,,,,,,,88,97.4229,0.0253382
,,,,,,,,,102,82.0796,0.0125981
,,,,,,,,,117,74.615,0.0233023
,,,,,,,,,133,101.468,0.00981221
,,,,,,,,,150,124.482,0.0271475
,,,,,,,,,168,135.929,0.00785338
,,,,,,,,,187,164.2,0.0245391
,,,,,,,,,207,128.479,0.00833532
,,,,,,,,,228,151.37,0.0186214
,,,,,,,,,32,84.9846,0.0267158
,,,,,,,,,41,31.0313,0.0301824
,,,,,,,,,51,34.1628,0.0222024
,,,,,,,,,62,86.1344,0.00616152
,,,,,,,,,74,84.893,0.0271773
,,,,,,,,,87,119.73,0.0249568
,,,,,,,,,101,75.7122,0.0254485
,,,,,,,,,116,58.7672,0.0126253
,,,,,,,,,132,79.7974,0.0233955
,,,,,,,,,149,124.196,0.0098287
,,,,,,,,,167,101.171,0.0272741
,,,,,,,,,186,159.184,0.00786394
,,,,,,,,,206,154.635,0.0246425
,,,,,,,,,227,146.405,0.00834722
,,,,,,,,,249,128.055,0.0186809
,,,,,,,,,50,87.7981,0.108916
,,,,,,,,,61,116.448,0.0474166
,,,,,,,,,73,99.255,0.0072282
,,,,,,,,,86,55.3148,0.0778522
,,,,,,,,,100,34.9901,0.0620396
,,,,,,,,,115,79.9146,0.0651698
,,,,,,,,,131,100.296,0.0180977
,,,,,,,,,148,148.12,0.0532122
,,,,,,,,,166,94.0893,0.0128547
,,,,,,,,,185,101.458,0.0786518
,,,,,,,,,205,87.9674,0.00968878
,,,,,,,,,226,83.8761,0.0601333
,,,,,,,,,248,113.636,0.010433
,,,,,,,,,271,101.926,0.0338065
,,,,,,,,,72,51.7781,0.0595574
,,,,,,,,,85,116.223,0.00746002
,,,,,,,,,99,61.4467,0.117018
,,,,,,,,,114,115.035,0.0846052
,,,,,,,,,130,45.7507,0.0905355
,,,,,,,,,147,28.7481,0.0196246
,,,,,,,,,165,93.1526,0.0689963
,,,,,,,,,184,154.949,0.0136067
,,,,,,,,,204,70.3464,0.118834
,,,,,,,,,225,167.875,0.0101099
,,,,,,,,,247,125.646,0.0810991
,,,,,,,,,270,158.484,0.0109229
,,,,,,,,,294,97.2064,0.0395554
,,,,,,,,,98,69.3937,0.00685138
,,,,,,,,,113,113.194,0.0488903
,,,,,,,,,129,150.954,0.0421446
,,,,,,,,,146,94.552,0.0435661
,,,,,,,,,164,68.2535,0.0159072
,,,,,,,,,183,45.8665,0.0378762
,,,,,,,,,203,106.12,0.0117094
,,,,,,,,,224,105.695,0.0492044
,,,,,,,,,246,139.753,0.00902354
,,,,,,,,,269,157.907,0.0412561
,,,,,,,,,293,115.057,0.00966567
,,,,,,,,,318,126.485,0.0268895
,,,,,,,,,128,153.658,0.00726157
,,,,,,,,,145,104.029,0.00709294
,,,,,,,,,163,161.84,0.00713211
,,,,,,,,,182,137.63,0.00555179
,,,,,,,,,202,52.1531,0.00696092
,,,,,,,,,223,38.8234,0.0049344
,,,,,,,,,245,158.538,0.00726846
,,,,,,,,,268,75.693,0.00438445
,,,,,,,,,292,118.131,0.00706733
,,,,,,,,,317,64.1333,0.0045307
,,,,,,,,,343,140.855,0.00647473
,,,,,,,,,162,60.182,0.0645868
,,,,,,,,,181,26.5403,0.0679865
,,,,,,,,,201,53.345,0.0183084
,,,,,,,,,222,148.688,0.0550753
,,,,,,,,,244,137.874,0.0129607
,,,,,,,,,267,47.8009,0.0827914
,,,,,,,,,291,106.998,0.00974883
,,,,,,,,,316,70.0388,0.0625234
,,,,,,,,,342,128.675,0.0105026
,,,,,,,,,369,60.4565,0.034549
,,,,,,,,,200,85.7914,0.055609
,,,,,,,,,221,113.465,0.017273
,,,,,,,,,243,150.418,0.0466617
,,,,,,,,,266,78.1357,0.0124331
,,,,,,,,,290,89.9478,0.0651362
,,,,,,,,,315,57.0727,0.0094473
,,,,,,,,,341,50.6074,0.0518998
,,,,,,,,,368,84.3223,0.0101535
,,,,,,,,,396,77.1023,0.0310382
,,,,,,,,,242,28.0475,0.0175072
,,,,,,,,,265,122.273,0.0484106
,,,,,,,,,289,158.936,0.0125539
,,,,,,,,,314,32.1875,0.0685954
,,,,,,,,,340,122.233,0.00951691
,,,,,,,,,367,79.9361,0.0540725
,,,,,,,,,395,132.977,0.010234
,,,,,,,,,424,55.7254,0.0318025
,,,,,,,,,288,95.4901,0.0165105
,,,,,,,,,313,165.581,0.00836349
,,,,,,,,,339,42.6267,0.0183523
,,,,,,,,,366,141.977,0.00689717
,,,,,,,,,394,101.085,0.0171219
,,,,,,,,,423,136.436,0.00726614
,,,,,,,,,453,69.3895,0.0140144
,,,,,,,,,338,72.3392,0.0120331
,,,,,,,,,365,108.858,0.0554743
,,,,,,,,,393,96.436,0.00921453
,,,,,,,,,422,120.052,0.045575
,,,,,,,,,452,69.8421,0.00988514
,,,,,,,,,483,109.537,0.0286597
,,,,,,,,,392,133.161,0.0129826
,,,,,,,,,421,36.8717,0.0059693
,,,,,,,,,451,79.351,0.0123546
,,,,,,,,,482,32.5311,0.0062437
,,,,,,,,,514,106.781,0.0106505
,,,,,,,,,450,99.4158,0.00976125
,,,,,,,,,481,59.145,0.0630381
,,,,,,,,,513,101.954,0.0105171
,,,,,,,,,546,26.8879,0.0347055
,,,,,,,,,512,42.506,0.00940192
,,,,,,,,,545,27.2585,0.00538847
,,,,,,,,,579,72.5927,0.00838141
,,,,,,,,,578,58.6815,0.0101011
,,,,,,,,,613,34.2783,0.0305537
,,,,,,,,,648,77.2569,0.00893261
