Q	U	V
{$V$}	{[mm$^3$]}	0.00320136
{$d_v$}	{[mm]}	0.182857
{$S_c$}	{[mm$^2$]}	0.157086
{$S_o$}	{[mm$^2$]}	0.107794
{$S_l/S_o$}	[]	0.457280
{$\Psi$}	[]	0.668708
{$\eta$}	[]	0.686446
{med($\theta_e$)}	{[$^\circ$]}	68.0287
{$\Upsilon$}	[]	10
{$\Xi$}	[]	8
