"cellPairingIds","interplanarAngles","angleWeights"
8,50.0329,0.0787514
13,52.0424,0.0415754
26,70.29,0.0451214
53,117.287,0.0645802
89,152,0.0515999
33,24.1042,0.0500395
63,86.9754,0.0751517
41,99.2565,0.0319094
116,134.592,0.0350187
132,120.051,0.0515386
99,86.1097,0.0439162
165,110.475,0.0571015
201,47.8066,0.0500298
222,71.1426,0.0922946
288,34.8043,0.0678881
