"cellPairingIds","interplanarAngles","angleWeights"
8,45.2062,0.0311848
13,47.7304,0.025596
34,84.5383,0.0483678
64,107.915,0.0410928
89,97.2489,0.0438698
18,61.5839,0.027737
33,56.5832,0.0389314
42,76.6393,0.0566274
52,75.1112,0.0487578
62,67.8709,0.0363488
87,64.9847,0.0353092
72,73.9532,0.0699583
85,52.9095,0.0583278
99,38.7151,0.0500683
113,50.6465,0.0837115
146,47.7985,0.0718739
164,97.8654,0.11923
128,82.6133,0.0675857
145,63.2161,0.0782607
223,68.2062,0.0421591
181,49.7274,0.0510419
244,35.0076,0.0376678
200,115.135,0.0569038
221,68.6175,0.0830054
266,91.3597,0.040767
242,71.9058,0.0623709
289,53.5636,0.0350688
