"cellPairingIds","interplanarAngles","angleWeights"
33,94.169,0.0391284
42,42.7799,0.0382256
63,98.7774,0.0460182
75,106.974,0.0556823
102,83.1534,0.0715425
99,75.8612,0.0357786
114,63.4929,0.0413597
113,110.315,0.0350222
164,62.6687,0.0480759
183,32.3569,0.0412319
162,132.686,0.0491356
181,82.3146,0.0601373
222,119.904,0.0504461
244,134.752,0.0383892
200,53.4001,0.0777781
221,57.6137,0.0793715
266,76.8462,0.0448884
289,101.877,0.0538959
288,48.1077,0.0828481
313,33.3875,0.0546562
338,35.6591,0.0459796
