Q	U	V
{$V$}	{[mm$^3$]}	0.00663901
{$d_v$}	{[mm]}	0.233186
{$S_c$}	{[mm$^2$]}	0.393592
{$S_o$}	{[mm$^2$]}	0.248229
{$S_l/S_o$}	[]	0.585600
{$\Psi$}	[]	0.434017
{$\eta$}	[]	0.532521
{med($\theta_e$)}	{[$^\circ$]}	55.676
{$\Upsilon$}	[]	10
{$\Xi$}	[]	8
