"cellPairingIds","interplanarAngles","angleWeights"
13,31.1996,0.0318808
26,96.8211,0.0227975
43,90.9264,0.0449095
18,49.1119,0.0223891
33,82.4952,0.017494
63,65.5645,0.0329164
41,127.36,0.021581
51,38.7271,0.0155395
62,74.5755,0.0404211
74,77.366,0.0511385
87,61.3068,0.0266375
85,132.965,0.0268549
99,103.165,0.0311989
130,135.312,0.0275306
113,42.2388,0.0199731
129,31.1853,0.0146943
145,74.3781,0.0351603
163,57.3007,0.0679083
162,48.9299,0.0429989
181,78.9294,0.104811
200,44.2144,0.0363276
