"cellPairingIds","interplanarAngles","angleWeights"
8,47.566,0.0296188
13,62.3834,0.0418005
26,81.6295,0.0608234
34,81.1278,0.0689317
53,105.303,0.077716
18,77.727,0.0218824
25,44.2892,0.0262619
63,141.581,0.0288657
75,87.7403,0.0129296
102,133.528,0.0315374
133,114.318,0.0302585
32,47.7701,0.0354123
51,33.5811,0.0378162
61,79.265,0.0531271
166,82.4996,0.0641501
72,60.3614,0.0527381
99,32.3549,0.0577305
130,51.5132,0.0697508
146,57.8126,0.0806269
203,87.1609,0.0724987
181,46.868,0.0929104
201,30.6053,0.0924775
221,56.2457,0.0186874
266,74.8054,0.0182308
290,65.97,0.013016
242,58.7766,0.127741
289,63.9576,0.10907
314,46.9195,0.0321084
339,58.1521,0.0320565
392,28.3089,0.0307361
