facetNormals:0,facetNormals:1,facetNormals:2,FacetCenters:0,FacetCenters:1,FacetCenters:2,FacetIds,relFacetSize,absFacetSize,cellPairingIds,interplanarAngles,angleWeights
0.236764,-0.353192,-0.852619,5.33857,7.58776,10.5289,1,0.0432898,0.00552451,8,25.5886,0.0407544
-0.176885,-0.464478,-0.84307,5.31543,7.59392,10.5194,2,0.0384997,0.00491322,13,62.8293,0.0359938
-0.652563,0.102798,-0.723863,5.25444,7.6255,10.545,3,0.0308025,0.00393092,19,52.7092,0.0481404
-0.558386,-0.532856,-0.593505,5.2563,7.58122,10.5537,4,0.0542153,0.0069188,26,95.1882,0.0563792
-0.758371,0.485669,-0.315359,5.23565,7.66028,10.5897,5,0.0808153,0.0103134,34,55.2111,0.0180834
-0.0403188,-0.95701,-0.245147,5.28213,7.52392,10.5804,6,0.0114287,0.0014585,43,55.5972,0.0470603
0.556889,-0.757377,-0.130881,5.34771,7.58501,10.5787,7,0.0515502,0.00657869,53,101.208,0.0422853
0.0932318,0.929844,-0.153597,5.28937,7.68037,10.6137,8,0.0413264,0.00527396,64,79.4935,0.049118
-0.601955,-0.763344,-0.0492874,5.24359,7.57491,10.6177,9,0.0567597,0.00724351,76,98.0064,0.032417
-0.940157,-0.297853,0.0158287,5.21339,7.61218,10.6361,10,0.0259095,0.00330649,89,100.239,0.0227953
0.730099,0.645899,0.130542,5.34306,7.66342,10.6186,11,0.015471,0.00197436,103,121.127,0.030539
0.287596,0.898502,0.275358,5.2782,7.63884,10.589,12,0.0235905,0.00301056,118,104.799,0.0303607
-0.718273,-0.597549,0.331001,5.25721,7.56282,10.6451,13,0.0233784,0.00298348,134,131.857,0.0365953
-0.83495,0.0530995,0.456979,5.22391,7.60064,10.5996,14,0.031694,0.0040447,151,100.958,0.0309249
0.628634,-0.467799,0.574781,5.36115,7.59242,10.5929,15,0.0240543,0.00306974,169,123.382,0.056146
-0.0180135,-0.514729,0.786012,5.27943,7.57671,10.6682,16,0.0798643,0.0101921,188,160.886,0.0678783
0.0670589,0.431446,0.831807,5.30716,7.66034,10.666,17,0.157125,0.0200518,18,45.0194,0.0342236
,,,,,,,,,25,27.3136,0.0450255
,,,,,,,,,33,79.2343,0.0521538
,,,,,,,,,42,47.1304,0.0176254
,,,,,,,,,52,66.955,0.0440793
,,,,,,,,,63,110.124,0.039863
,,,,,,,,,75,58.1577,0.0458796
,,,,,,,,,88,72.4358,0.0309741
,,,,,,,,,102,124.07,0.0220723
,,,,,,,,,117,136.733,0.0292551
,,,,,,,,,133,82.5642,0.0290914
,,,,,,,,,150,106.325,0.0347669
,,,,,,,,,168,113.451,0.0296091
,,,,,,,,,187,117.201,0.0519542
,,,,,,,,,207,173.522,0.0618456
,,,,,,,,,32,39.219,0.0392851
,,,,,,,,,41,34.233,0.0446042
,,,,,,,,,51,83.756,0.0166717
,,,,,,,,,62,111.873,0.0385628
,,,,,,,,,74,80.9535,0.0352967
,,,,,,,,,87,68.4733,0.0399337
,,,,,,,,,101,53.7593,0.0281449
,,,,,,,,,116,121.565,0.0205969
,,,,,,,,,132,107.813,0.0267184
,,,,,,,,,149,80.0593,0.0265818
,,,,,,,,,167,76.4095,0.0312419
,,,,,,,,,186,156.653,0.0270133
,,,,,,,,,206,131.492,0.0444581
,,,,,,,,,227,130.796,0.0515075
,,,,,,,,,50,67.7457,0.0648953
,,,,,,,,,61,45.2312,0.018878
,,,,,,,,,73,79.3812,0.0528492
,,,,,,,,,86,119.666,0.0469015
,,,,,,,,,100,35.4406,0.0554583
,,,,,,,,,115,45.4014,0.0350626
,,,,,,,,,131,150.005,0.0240725
,,,,,,,,,148,147.032,0.0328759
,,,,,,,,,166,57.1841,0.0326693
,,,,,,,,,185,79.6529,0.0400026
,,,,,,,,,205,117.91,0.0333236
,,,,,,,,,226,101.484,0.0645865
,,,,,,,,,248,146.306,0.0806148
,,,,,,,,,72,112.229,0.0200255
,,,,,,,,,85,145.782,0.0629476
,,,,,,,,,99,61.6336,0.0546874
,,,,,,,,,114,83.7374,0.0666844
,,,,,,,,,130,53.2325,0.0392389
,,,,,,,,,147,107.434,0.0259703
,,,,,,,,,165,81.9429,0.0365205
,,,,,,,,,184,80.8672,0.0362657
,,,,,,,,,204,55.5258,0.0455315
,,,,,,,,,225,162.675,0.0370738
,,,,,,,,,247,122.684,0.080337
,,,,,,,,,270,96.6389,0.106734
,,,,,,,,,98,38.4989,0.0187096
,,,,,,,,,113,156.084,0.0179057
,,,,,,,,,129,37.1716,0.0190265
,,,,,,,,,146,70.9023,0.0158611
,,,,,,,,,164,134.335,0.0131461
,,,,,,,,,183,165.088,0.0153978
,,,,,,,,,203,57.9778,0.0153523
,,,,,,,,,224,97.8773,0.0167996
,,,,,,,,,246,72.9681,0.0154953
,,,,,,,,,269,71.1212,0.019996
,,,,,,,,,293,131.834,0.0213076
,,,,,,,,,128,134.696,0.0458756
,,,,,,,,,145,74.3409,0.0540297
,,,,,,,,,163,108.693,0.034486
,,,,,,,,,182,96.1305,0.0237994
,,,,,,,,,202,126.618,0.0323685
,,,,,,,,,223,89.4367,0.0321682
,,,,,,,,,245,128.64,0.039254
,,,,,,,,,268,46.9922,0.0328024
,,,,,,,,,292,71.9112,0.062657
,,,,,,,,,317,116.531,0.077631
,,,,,,,,,162,145.35,0.0478289
,,,,,,,,,181,113.137,0.0318504
,,,,,,,,,201,45.8643,0.0225137
,,,,,,,,,222,28.235,0.0300357
,,,,,,,,,244,135.839,0.0298632
,,,,,,,,,267,96.2738,0.0358749
,,,,,,,,,291,120.323,0.0304089
,,,,,,,,,316,132.48,0.054468
,,,,,,,,,342,71.6789,0.0654409
,,,,,,,,,200,34.3642,0.0355783
,,,,,,,,,221,168.762,0.0243145
,,,,,,,,,243,155.802,0.0333289
,,,,,,,,,266,25.3158,0.0331166
,,,,,,,,,290,61.7263,0.0406753
,,,,,,,,,315,93.0086,0.0337891
,,,,,,,,,341,66.4811,0.0663584
,,,,,,,,,368,116.688,0.0833942
,,,,,,,,,242,154.66,0.0193736
,,,,,,,,,265,123.403,0.0246957
,,,,,,,,,289,28.5859,0.0245789
,,,,,,,,,314,34.3392,0.0285113
,,,,,,,,,340,117.499,0.0249474
,,,,,,,,,367,78.6325,0.0391258
,,,,,,,,,395,101.1,0.0444837
,,,,,,,,,288,31.2567,0.0186869
,,,,,,,,,313,152.811,0.0186199
,,,,,,,,,339,123.365,0.0207924
,,,,,,,,,366,75.9612,0.0188306
,,,,,,,,,394,105.244,0.0259207
,,,,,,,,,423,61.8275,0.0281684
,,,,,,,,,338,132.039,0.023484
,,,,,,,,,365,94.0756,0.0270484
,,,,,,,,,393,94.8806,0.0238202
,,,,,,,,,422,105.785,0.0364225
,,,,,,,,,452,46.4606,0.0410221
,,,,,,,,,392,40.4337,0.0269084
,,,,,,,,,421,88.9141,0.0237115
,,,,,,,,,451,51.4355,0.0361691
,,,,,,,,,482,91.8861,0.0407009
,,,,,,,,,450,108.05,0.0273507
,,,,,,,,,481,67.2177,0.0453793
,,,,,,,,,513,67.2008,0.0527481
,,,,,,,,,512,41.7562,0.0369728
,,,,,,,,,545,69.5862,0.0417214
,,,,,,,,,578,60.8123,0.105901
