"cellPairingIds","interplanarAngles","angleWeights"
19,47.8675,0.0211956
26,35.6807,0.0128453
43,40.1968,0.037619
89,56.197,0.0298108
18,30.0974,0.0321482
33,21.3139,0.0119173
63,29.9814,0.0145836
117,109.707,0.0197542
187,91.2585,0.0295147
207,79.635,0.013975
41,47.5759,0.0160096
132,80.2315,0.0342782
50,74.287,0.0118206
131,83.4449,0.0248178
148,60.604,0.0194898
85,33.1718,0.0156247
99,31.9102,0.0100073
165,127.257,0.0121983
184,51.9195,0.00506428
204,63.055,0.011759
182,46.7304,0.0507707
223,43.9898,0.00684022
267,31.5143,0.0143472
342,63.5759,0.0114192
288,120.783,0.0265434
313,78.5001,0.00652926
516,77.459,0.0477727
422,57.5048,0.0313004
515,35.26,0.0311398
548,69.3189,0.0313012
582,66.4351,0.0291442
392,37.8828,0.00597963
482,75.8147,0.00540231
581,120.373,0.00678287
616,107.702,0.0066758
513,39.2227,0.0137578
578,27.7368,0.0189098
649,34.738,0.0650512
724,56.2014,0.0569105
762,65.2349,0.0181008
841,36.5487,0.056382
882,44.1631,0.0569135
