facetNormals:0,facetNormals:1,facetNormals:2,FacetCenters:0,FacetCenters:1,FacetCenters:2,FacetIds,relFacetSize,absFacetSize,cellPairingIds,interplanarAngles,angleWeights
-0.305289,-0.0636965,-0.92326,4.6659,7.08948,11.9473,1,0.0604751,0.0220697,8,43.6076,0.0456967
0.39711,-0.202122,-0.852626,4.71378,7.03721,11.989,2,0.0367227,0.0134015,13,50.3773,0.0309584
0.19517,0.57802,-0.760902,4.72148,7.12303,11.9458,3,0.0208042,0.00759227,19,42.6617,0.0658368
-0.645356,-0.529341,-0.50885,4.66603,7.02392,12.0156,4,0.0722416,0.0263638,26,87.8536,0.0575016
0.8777,-0.0700871,-0.322457,4.63317,7.06185,12.0752,5,0.0548068,0.0200011,34,69.7787,0.0567148
-0.661729,0.663583,-0.174765,4.64981,7.13359,12.0378,6,0.0533947,0.0194858,43,81.2659,0.0719274
-0.862566,-0.341903,0.157954,4.62109,6.98935,12.066,7,0.0887303,0.0323812,53,93.1972,0.0369271
-0.900785,0.172266,0.343626,4.60481,7.05302,12.1093,8,0.026578,0.00969934,64,119.392,0.0735809
0.398948,0.805294,0.303988,4.72,7.1277,12.0342,9,0.0939385,0.0342818,76,107.822,0.0555402
-0.419182,0.779691,0.398424,4.64552,7.12752,12.0284,10,0.0513499,0.0187396,89,134.495,0.0262886
0.867424,0.0649483,0.424797,4.73596,7.08413,12.0809,11,0.0167946,0.00612901,103,144.749,0.0477197
0.00496701,-0.444044,0.874034,4.72724,6.86686,12.1542,12,0.0394078,0.0143814,118,130.242,0.0367097
-0.501713,-0.0642668,0.837444,4.64702,7.00341,12.1446,13,0.0263534,0.00961738,134,166.547,0.0765836
0.193785,0.256495,0.879377,4.69762,7.01417,12.1358,14,0.104389,0.0380957,18,49.4929,0.026561
,,,,,,,,,25,72.3866,0.0486931
,,,,,,,,,33,45.0204,0.0439782
,,,,,,,,,42,105.682,0.0435165
,,,,,,,,,52,116.789,0.0519464
,,,,,,,,,63,136.683,0.0308374
,,,,,,,,,75,106.782,0.0528033
,,,,,,,,,88,135.295,0.0428216
,,,,,,,,,102,91.8988,0.0230484
,,,,,,,,,117,133.859,0.0380179
,,,,,,,,,133,163.04,0.0306857
,,,,,,,,,150,143.564,0.0543321
,,,,,,,,,32,92.6896,0.0323052
,,,,,,,,,41,65.7126,0.03016
,,,,,,,,,51,65.3753,0.0299421
,,,,,,,,,62,121.98,0.0337056
,,,,,,,,,74,110.705,0.0233393
,,,,,,,,,87,70.2914,0.0340643
,,,,,,,,,101,86.0206,0.0296115
,,,,,,,,,116,97.0816,0.0185856
,,,,,,,,,132,164.363,0.0272321
,,,,,,,,,149,144.036,0.0232523
,,,,,,,,,167,121.937,0.0346941
,,,,,,,,,50,113.482,0.0623279
,,,,,,,,,61,79.8191,0.0614045
,,,,,,,,,73,44.409,0.0796415
,,,,,,,,,86,70.7726,0.0388594
,,,,,,,,,100,154.693,0.0816737
,,,,,,,,,115,111.315,0.06003
,,,,,,,,,131,148.905,0.0272534
,,,,,,,,,148,102.836,0.0509968
,,,,,,,,,166,94.0971,0.0386188
,,,,,,,,,185,140.702,0.08539
,,,,,,,,,72,129.697,0.0540915
,,,,,,,,,85,152.671,0.0677598
,,,,,,,,,99,174.114,0.0357967
,,,,,,,,,114,77.2922,0.0692253
,,,,,,,,,130,127.255,0.0530221
,,,,,,,,,147,46.9353,0.0257107
,,,,,,,,,165,105.545,0.0458488
,,,,,,,,,184,140.306,0.0355925
,,,,,,,,,204,98.6112,0.0718767
,,,,,,,,,98,69.3583,0.0666699
,,,,,,,,,113,45.8478,0.0354902
,,,,,,,,,129,76.1005,0.0680881
,,,,,,,,,146,38.4101,0.0523523
,,,,,,,,,164,130.976,0.0255521
,,,,,,,,,183,118.832,0.0453472
,,,,,,,,,203,81.1805,0.0352894
,,,,,,,,,224,97.1899,0.0706514
,,,,,,,,,128,33.0812,0.0409038
,,,,,,,,,145,129.788,0.0912602
,,,,,,,,,163,80.0467,0.0650526
,,,,,,,,,182,140.527,0.0282434
,,,,,,,,,202,71.9705,0.0545765
,,,,,,,,,223,50.3955,0.0406373
,,,,,,,,,245,97.5605,0.095925
,,,,,,,,,162,97.1832,0.0414333
,,,,,,,,,181,46.9656,0.0350267
,,,,,,,,,201,131.178,0.0205829
,,,,,,,,,222,76.7926,0.0317456
,,,,,,,,,244,40.4964,0.0264652
,,,,,,,,,267,79.2014,0.0423687
,,,,,,,,,200,50.8256,0.0664021
,,,,,,,,,221,54.9449,0.0284949
,,,,,,,,,243,95.5472,0.0555232
,,,,,,,,,266,89.8357,0.0411599
,,,,,,,,,290,51.6468,0.0988885
,,,,,,,,,242,98.7971,0.025311
,,,,,,,,,265,90.0038,0.0445931
,,,,,,,,,289,58.6681,0.0348311
,,,,,,,,,314,58.9268,0.0688379
,,,,,,,,,288,68.5693,0.023552
,,,,,,,,,313,95.0659,0.0205152
,,,,,,,,,339,51.9764,0.0289342
,,,,,,,,,338,37.7877,0.0315849
,,,,,,,,,365,44.4139,0.057216
,,,,,,,,,392,47.171,0.0420828
