facetNormals:0,facetNormals:1,facetNormals:2,FacetCenters:0,FacetCenters:1,FacetCenters:2,FacetIds,relFacetSize,absFacetSize,cellPairingIds,interplanarAngles,angleWeights
0.175638,-0.0496475,-0.95337,3.14768,7.33143,12.1577,1,0.128775,0.00932274,8,34.3824,0.0883598
-0.235338,0.350686,-0.887476,3.1318,7.33304,12.1593,2,0.067253,0.00486882,13,58.6103,0.0967341
-0.725789,-0.056105,-0.647426,3.09736,7.3317,12.1723,3,0.0774609,0.00560783,19,77.9569,0.081843
-0.161565,0.915042,-0.283814,3.13976,7.42162,12.2024,4,0.0599825,0.00434246,26,93.0982,0.103303
-0.775212,-0.577491,-0.0594472,3.09844,7.25111,12.2055,5,0.0862436,0.00624366,34,93.8368,0.0101821
-0.333416,-0.93298,0.0547642,3.13862,7.22246,12.1949,6,0.00530063,0.000383742,43,98.1994,0.147398
-0.755768,0.581489,-0.0309742,3.1014,7.39779,12.2355,7,0.172317,0.012475,53,123.139,0.0722565
-0.871211,-0.205123,0.394628,3.08041,7.29516,12.2189,8,0.0502167,0.00363547,64,117.159,0.0138023
0.670565,0.440323,0.553589,3.14838,7.31654,12.2318,9,0.00729194,0.000527904,76,133.83,0.0403303
-0.546556,-0.535896,0.623184,3.1032,7.28151,12.2426,10,0.0239091,0.00173092,89,148.036,0.0454689
-0.595107,0.288683,0.719591,3.13953,7.35325,12.2072,11,0.0276086,0.00199874,103,120.541,0.0642455
0.0608078,-0.77754,0.543526,3.1177,7.26293,12.2344,12,0.0427989,0.00309845,118,166.916,0.0545444
-0.160162,-0.169507,0.934865,3.12131,7.32292,12.2267,13,0.0345998,0.00250488,18,40.7185,0.0719969
,,,,,,,,,25,50.2352,0.06341
,,,,,,,,,33,88.0327,0.0755735
,,,,,,,,,42,107.75,0.00982674
,,,,,,,,,52,64.1221,0.096747
,,,,,,,,,63,103.053,0.0574995
,,,,,,,,,75,121.091,0.0131573
,,,,,,,,,88,129.141,0.035277
,,,,,,,,,102,114.432,0.0391467
,,,,,,,,,117,145.43,0.052309
,,,,,,,,,133,154.039,0.0456922
,,,,,,,,,32,74.7055,0.0676103
,,,,,,,,,41,47.8205,0.0816167
,,,,,,,,,51,74.4665,0.00992227
,,,,,,,,,62,54.7865,0.106878
,,,,,,,,,74,65.9515,0.0609321
,,,,,,,,,87,156.352,0.0133291
,,,,,,,,,101,88.6124,0.0365399
,,,,,,,,,116,93.0195,0.040708
,,,,,,,,,132,112.366,0.0551346
,,,,,,,,,149,120.72,0.0478336
,,,,,,,,,50,114.239,0.0707549
,,,,,,,,,61,147.755,0.00974049
,,,,,,,,,73,44.3386,0.0889886
,,,,,,,,,86,99.6274,0.0546669
,,,,,,,,,100,81.6538,0.0130031
,,,,,,,,,115,127.134,0.0341901
,,,,,,,,,131,80.5401,0.0378128
,,,,,,,,,148,161.44,0.0499542
,,,,,,,,,166,114.928,0.0438852
,,,,,,,,,72,34.2889,0.00998741
,,,,,,,,,85,74.1792,0.114954
,,,,,,,,,99,35.5919,0.0634745
,,,,,,,,,114,148.751,0.0134469
,,,,,,,,,130,43.2642,0.0374391
,,,,,,,,,147,74.5706,0.0418273
,,,,,,,,,165,66.3334,0.057208
,,,,,,,,,184,79.7236,0.0493865
,,,,,,,,,98,107.979,0.0102849
,,,,,,,,,113,58.7546,0.00958908
,,,,,,,,,129,128.652,0.00613884
,,,,,,,,,146,42.9974,0.00867747
,,,,,,,,,164,91.8618,0.00889373
,,,,,,,,,183,38.821,0.00943298
,,,,,,,,,203,74.0489,0.00919291
,,,,,,,,,128,55.6242,0.0777698
,,,,,,,,,145,106.743,0.0139918
,,,,,,,,,163,84.9956,0.0419919
,,,,,,,,,182,50.3257,0.047592
,,,,,,,,,202,124.593,0.0685675
,,,,,,,,,223,90.4038,0.0576284
,,,,,,,,,162,118.578,0.0127347
,,,,,,,,,181,30.4869,0.0323946
,,,,,,,,,201,38.9788,0.0356288
,,,,,,,,,222,69.8051,0.046212
,,,,,,,,,244,54.8035,0.0409706
,,,,,,,,,200,105.524,0.0111755
,,,,,,,,,221,82.3746,0.0115368
,,,,,,,,,243,90.0434,0.0124608
,,,,,,,,,266,69.069,0.0120453
,,,,,,,,,242,50.0874,0.025626
,,,,,,,,,265,39.6785,0.0306795
,,,,,,,,,289,36.8558,0.0282778
,,,,,,,,,288,81.928,0.0335651
,,,,,,,,,313,40.2181,0.0307113
,,,,,,,,,338,46.5265,0.0382651
