"cellPairingIds","interplanarAngles","angleWeights"
25,49.5689,0.0413376
63,102.48,0.0410837
88,65.122,0.0425892
50,37.7899,0.0270815
86,137.337,0.0404757
100,50.7394,0.068342
115,66.5046,0.0419362
99,109.882,0.0269723
114,56.6511,0.0370355
162,149.143,0.0676508
181,137.879,0.0416749
244,114.938,0.0182838
200,71.9005,0.0718321
266,72.1099,0.0224118
289,55.0392,0.018576
