Q	U	V
{$V$}	{[mm$^3$]}	0.00393639
{$d_v$}	{[mm]}	0.195899
{$S_c$}	{[mm$^2$]}	0.20819
{$S_o$}	{[mm$^2$]}	0.13679
{$S_l/S_o$}	[]	0.521968
{$\Psi$}	[]	0.579104
{$\eta$}	[]	0.627216
{med($\theta_e$)}	{[$^\circ$]}	104.618
{$\Upsilon$}	[]	13
{$\Xi$}	[]	10
