"cellPairingIds","interplanarAngles","angleWeights"
72,48.5682,0.0196538
85,94.7848,0.0264957
130,49.9613,0.0503541
147,144.388,0.0296947
165,67.634,0.0424832
184,107.965,0.0459677
98,53.4816,0.0178585
146,50.1342,0.0262377
163,98.7917,0.0400411
182,77.6267,0.0257791
245,74.1578,0.0367547
289,73.9921,0.111274
314,86.1646,0.107241
288,117.515,0.0406706
313,99.1737,0.0438529
339,78.7122,0.0432124
338,50.6393,0.0789506
392,66.3741,0.0891277
