"cellPairingIds","interplanarAngles","angleWeights"
8,38.2755,0.0810465
13,37.7666,0.0809764
43,36.336,0.0907229
76,72.7858,0.0426298
18,35.2772,0.0895298
25,29.3189,0.0830979
52,70.3336,0.101598
63,57.1549,0.016184
117,71.6026,0.0471102
168,133.432,0.0182553
32,23.0825,0.0830242
101,74.4261,0.0448659
115,95.2532,0.0431906
148,70.4406,0.0452447
166,63.5392,0.0356813
226,124.733,0.0364435
128,87.1836,0.0165362
163,64.8432,0.0477055
268,124.32,0.0187047
291,78.3076,0.00948682
340,121.576,0.015175
367,96.4475,0.0265367
338,36.4381,0.0268682
393,67.1454,0.015421
421,77.1377,0.0141302
451,64.4006,0.0234982
512,37.7969,0.0142482
