"cellPairingIds","interplanarAngles","angleWeights"
13,84.5914,0.0170836
19,39.7704,0.0180081
26,63.6605,0.0182503
32,121.093,0.0309676
41,115.963,0.0316911
74,61.8363,0.0388929
101,134.715,0.0423404
50,63.7753,0.0350266
61,34.9505,0.048213
115,90.7875,0.0485125
148,94.8159,0.0218484
72,41.6065,0.0499898
99,121.527,0.0455175
147,51.6798,0.0379221
165,71.8218,0.0222061
183,63.5188,0.0268642
181,83.3968,0.07126
201,72.5705,0.0487166
222,83.3101,0.0255169
265,41.1927,0.0269569
288,46.7049,0.022941
