facetNormals:0,facetNormals:1,facetNormals:2,FacetCenters:0,FacetCenters:1,FacetCenters:2,FacetIds,relFacetSize,absFacetSize,cellPairingIds,interplanarAngles,angleWeights
-0.381167,-0.61185,-0.606494,5.45251,4.98806,11.6664,1,0.0894995,0.0232304,8,83.1789,0.100953
-0.335739,0.634443,-0.601854,5.46837,5.08133,11.6991,2,0.115769,0.0300489,13,95.7127,0.0147206
0.854328,0.0894453,-0.475366,5.57883,5.02593,11.6764,3,0.00801985,0.00208163,19,54.0036,0.029649
-0.960359,-0.205212,-0.0896706,5.34195,5.0082,11.7562,4,0.0177675,0.00461172,26,116.283,0.0464204
-0.367397,0.912669,-0.0130637,5.47816,5.11731,11.6788,5,0.0313369,0.00813379,34,134.815,0.0757071
0.359874,0.88977,-0.0702133,5.54562,5.1172,11.7298,6,0.065598,0.0170266,43,46.3808,0.0266969
-0.786863,-0.598171,0.0380505,5.41552,4.98366,11.7134,7,0.0156883,0.00407203,53,100.471,0.0392074
-0.761802,0.605801,0.145434,5.45074,5.09821,11.7207,8,0.025102,0.00651545,64,165.856,0.0755645
0.52215,0.703058,0.43618,5.57522,5.08528,11.8169,9,0.0653843,0.0169711,76,146.509,0.0536589
-0.160749,0.66278,0.679698,5.52492,5.08424,11.8205,10,0.0383154,0.0099451,89,83.2963,0.0761065
-0.319001,-0.639765,0.668436,5.50526,4.94192,11.8385,11,0.0662001,0.0171828,103,108.828,0.0612432
-0.32752,-0.205881,0.908541,5.53208,4.9826,11.8662,12,0.0465475,0.0120818,118,115.636,0.0591525
-0.519545,0.16995,0.814042,5.43724,5.05153,11.8363,13,0.0441741,0.0114658,134,135.108,0.0648817
0.257741,-0.0294646,0.926646,5.52981,5.02442,11.8175,14,0.0508851,0.0132077,151,134.104,0.0273374
-0.159165,0.215456,0.957568,5.45801,5.07216,11.8516,15,0.0161325,0.00418734,18,86.5078,0.0150005
,,,,,,,,,25,74.5421,0.0308069
,,,,,,,,,33,39.5919,0.0493229
,,,,,,,,,42,57.3806,0.0837442
,,,,,,,,,52,98.5794,0.027632
,,,,,,,,,63,53.1713,0.0412581
,,,,,,,,,75,89.4856,0.0835698
,,,,,,,,,88,85.8427,0.0575753
,,,,,,,,,102,139.883,0.0842331
,,,,,,,,,117,127.842,0.0663982
,,,,,,,,,133,103.068,0.0639476
,,,,,,,,,150,137.346,0.0706964
,,,,,,,,,168,114.495,0.0283188
,,,,,,,,,32,145.325,0.0110514
,,,,,,,,,41,103.532,0.0127712
,,,,,,,,,51,63.5782,0.0142923
,,,,,,,,,62,139.993,0.0106139
,,,,,,,,,74,133.558,0.012156
,,,,,,,,,87,71.6978,0.0142873
,,,,,,,,,101,115.111,0.0132635
,,,,,,,,,116,132.368,0.0143065
,,,,,,,,,132,138.861,0.0136823
,,,,,,,,,149,147.915,0.0135751
,,,,,,,,,167,103.649,0.0138559
,,,,,,,,,186,125.863,0.0107137
,,,,,,,,,50,80.1063,0.0226773
,,,,,,,,,61,123.364,0.0279615
,,,,,,,,,73,26.2258,0.0166633
,,,,,,,,,86,52.2418,0.0208073
,,,,,,,,,100,135.222,0.027942
,,,,,,,,,115,92.5704,0.0242772
,,,,,,,,,131,66.9613,0.0280158
,,,,,,,,,148,73.5767,0.0257182
,,,,,,,,,166,66.1434,0.025342
,,,,,,,,,185,110.001,0.0263384
,,,,,,,,,205,88.669,0.0169106
,,,,,,,,,72,44.0322,0.0424128
,,,,,,,,,85,105.332,0.0209089
,,,,,,,,,99,30.8985,0.0278751
,,,,,,,,,114,62.5248,0.042368
,,,,,,,,,130,46.2545,0.0344766
,,,,,,,,,147,119.584,0.0425378
,,,,,,,,,165,94.6899,0.0374569
,,,,,,,,,184,69.6599,0.0366643
,,,,,,,,,204,98.1173,0.0387872
,,,,,,,,,225,75.6422,0.0212997
,,,,,,,,,98,149.25,0.0253209
,,,,,,,,,113,74.4017,0.0363096
,,,,,,,,,129,33.7511,0.065491
,,,,,,,,,146,58.5006,0.0483751
,,,,,,,,,164,140.904,0.0658977
,,,,,,,,,183,112.577,0.0544547
,,,,,,,,,203,95.6506,0.0527955
,,,,,,,,,224,89.9088,0.0573124
,,,,,,,,,246,85.9734,0.0258963
,,,,,,,,,128,75.5689,0.0193089
,,,,,,,,,145,147.349,0.0253049
,,,,,,,,,163,104.851,0.0222615
,,,,,,,,,182,47.0888,0.0253654
,,,,,,,,,202,64.8289,0.0234672
,,,,,,,,,223,69.5972,0.0231536
,,,,,,,,,245,99.0624,0.0239825
,,,,,,,,,268,88.089,0.0159073
,,,,,,,,,162,84.5424,0.0362768
,,,,,,,,,181,48.907,0.0303321
,,,,,,,,,201,92.8173,0.0364012
,,,,,,,,,222,74.6703,0.0326153
,,,,,,,,,244,50.2428,0.0320127
,,,,,,,,,267,94.8115,0.0336193
,,,,,,,,,291,66.4459,0.0196417
,,,,,,,,,200,43.9236,0.0483169
,,,,,,,,,221,109.829,0.0657896
,,,,,,,,,243,85.2187,0.0543809
,,,,,,,,,266,77.7668,0.0527261
,,,,,,,,,290,56.6146,0.0572307
,,,,,,,,,315,60.0247,0.0258796
,,,,,,,,,242,85.0331,0.0485379
,,,,,,,,,265,55.8511,0.0420322
,,,,,,,,,289,37.4575,0.0410367
,,,,,,,,,314,52.1219,0.0437146
,,,,,,,,,340,31.1638,0.0227051
,,,,,,,,,288,29.2166,0.054661
,,,,,,,,,313,51.2145,0.0529894
,,,,,,,,,339,53.8142,0.057541
,,,,,,,,,366,55.3711,0.0259429
,,,,,,,,,338,25.3869,0.0453298
,,,,,,,,,365,36.5298,0.0486198
,,,,,,,,,393,26.6241,0.0239607
,,,,,,,,,392,49.2902,0.0472927
,,,,,,,,,421,22.7992,0.0236339
,,,,,,,,,450,28.6143,0.0244982
