facetNormals:0,facetNormals:1,facetNormals:2,FacetCenters:0,FacetCenters:1,FacetCenters:2,FacetIds,relFacetSize,absFacetSize,cellPairingIds,interplanarAngles,angleWeights
-0.597412,-0.0800782,-0.756636,6.88253,5.68149,14.5884,1,0.00834072,0.00110754,8,112.082,0.0142596
0.699216,0.595326,-0.166508,6.93572,5.84239,14.5965,2,0.0491088,0.006521,13,100.388,0.0148203
-0.0202551,-0.901077,0.332864,6.90222,5.56466,14.592,3,0.0664176,0.00881938,19,140.218,0.0140679
0.842412,-0.360087,0.32957,6.96872,5.67827,14.6165,4,0.0448962,0.00596162,26,161.973,0.0155064
0.801169,0.0118209,0.542768,6.96418,5.67909,14.6284,5,0.110071,0.014616,34,109.299,0.0146939
-0.247421,0.783148,0.524155,6.84755,5.8865,14.6086,6,0.0616629,0.00818801,43,96.5549,0.0135721
-0.479384,-0.603206,0.583396,6.84633,5.64353,14.6189,7,0.0364072,0.0048344,53,119.26,0.0161254
-0.355429,-0.0373722,0.875568,6.86264,5.73868,14.6443,8,0.24188,0.0321184,64,159.099,0.0145471
0.299327,0.194139,0.90496,6.92686,5.77532,14.6569,9,0.0568487,0.00754876,18,132.518,0.0564666
,,,,,,,,,25,69.3951,0.0469081
,,,,,,,,,33,58.1336,0.0679164
,,,,,,,,,42,76.9095,0.0546745
,,,,,,,,,52,151.336,0.0418148
,,,,,,,,,63,118.162,0.0816419
,,,,,,,,,75,78.9383,0.0526961
,,,,,,,,,32,63.5202,0.0535765
,,,,,,,,,41,80.4801,0.0828457
,,,,,,,,,51,124.201,0.063952
,,,,,,,,,62,36.396,0.047033
,,,,,,,,,74,68.5471,0.104218
,,,,,,,,,87,82.6089,0.0612618
,,,,,,,,,50,25.6308,0.0637783
,,,,,,,,,61,109.566,0.0519605
,,,,,,,,,73,89.6567,0.0402085
,,,,,,,,,86,89.8382,0.075735
,,,,,,,,,100,59.5131,0.0501704
,,,,,,,,,72,84.1855,0.0790444
,,,,,,,,,85,94.5716,0.0547164
,,,,,,,,,99,78.0165,0.151294
,,,,,,,,,114,38.8376,0.074975
,,,,,,,,,98,92.922,0.0457831
,,,,,,,,,113,55.8224,0.0982729
,,,,,,,,,129,54.3547,0.059158
,,,,,,,,,128,39.6482,0.0632884
,,,,,,,,,145,73.478,0.0443876
,,,,,,,,,162,42.4568,0.0920606
