"cellPairingIds","interplanarAngles","angleWeights"
13,63.3826,0.041191
19,62.1349,0.0457584
34,47.8011,0.0319443
53,43.8646,0.0205704
89,61.9737,0.0353058
103,88.9815,0.0509314
18,24.4043,0.040386
33,49.412,0.0419945
42,65.7321,0.031458
52,39.6053,0.042048
88,57.2774,0.0358704
150,93.9968,0.0227471
32,28.3719,0.0693975
51,80.2584,0.0419106
62,31.0313,0.0630744
73,40.6666,0.0744544
148,78.0501,0.102387
166,74.1578,0.0479827
72,35.0979,0.0436455
114,57.9839,0.0344878
204,65.297,0.028502
247,82.7928,0.0486007
113,40.9239,0.0207483
129,45.0377,0.0270479
163,45.4691,0.0527111
223,71.5618,0.0448725
268,84.5331,0.0553484
162,41.7955,0.0184228
201,41.6329,0.022116
316,83.9296,0.0218052
341,47.3215,0.0288722
314,49.866,0.0255423
340,54.3324,0.0451199
288,49.4628,0.061588
394,86.435,0.0391067
338,46.2226,0.0537022
422,101.797,0.0592369
421,52.8848,0.0392508
451,98.9735,0.0357713
450,44.7223,0.026146
481,37.6147,0.024555
512,55.968,0.0421277
