Q	U	V
{$V$}	{[mm$^3$]}	0.00387464
{$d_v$}	{[mm]}	0.194870
{$S_c$}	{[mm$^2$]}	0.271023
{$S_o$}	{[mm$^2$]}	0.15144
{$S_l/S_o$}	[]	0.789639
{$\Psi$}	[]	0.440182
{$\eta$}	[]	0.457714
{med($\theta_e$)}	{[$^\circ$]}	105.6535
{$\Upsilon$}	[]	15
{$\Xi$}	[]	8
