Q	U	V
{$V$}	{[mm$^3$]}	0.0170505
{$d_v$}	{[mm]}	0.319335
{$S_c$}	{[mm$^2$]}	0.773944
{$S_o$}	{[mm$^2$]}	0.390794
{$S_l/S_o$}	[]	0.980440
{$\Psi$}	[]	0.413935
{$\eta$}	[]	0.443912
{med($\theta_e$)}	{[$^\circ$]}	76.41975
{$\Upsilon$}	[]	9
{$\Xi$}	[]	15
