Q	U	V
{$V$}	{[mm$^3$]}	0.00315267
{$d_v$}	{[mm]}	0.181925
{$S_c$}	{[mm$^2$]}	0.194542
{$S_o$}	{[mm$^2$]}	0.107106
{$S_l/S_o$}	[]	0.816350
{$\Psi$}	[]	0.53447
{$\eta$}	[]	0.593152
{med($\theta_e$)}	{[$^\circ$]}	69.0003
{$\Upsilon$}	[]	15
{$\Xi$}	[]	6
