facetNormals:0,facetNormals:1,facetNormals:2,FacetCenters:0,FacetCenters:1,FacetCenters:2,FacetIds,relFacetSize,absFacetSize,cellPairingIds,interplanarAngles,angleWeights
-0.223383,-0.664459,-0.651811,6.13025,5.09201,13.254,1,0.0852307,0.00855262,8,47.845,0.0158046
-0.827422,-0.176208,-0.510804,6.07856,5.13098,13.244,2,0.00870986,0.000874006,13,45.3919,0.0821616
0.431711,-0.781612,-0.334536,6.18544,5.08414,13.2707,3,0.0793058,0.00795807,19,95.1225,0.00644499
-0.604198,0.693206,-0.369642,6.10968,5.21519,13.2661,4,0.00334912,0.000336073,26,97.0401,0.0721149
-0.902275,0.323719,0.153968,6.08547,5.18364,13.2947,5,0.0624974,0.0062714,34,124.82,0.0365461
-0.583716,0.740256,0.267023,6.10037,5.23034,13.2887,6,0.0232598,0.00233405,43,81.0818,0.0836486
0.206877,-0.791169,0.515539,6.17883,5.08175,13.3381,7,0.0821241,0.00824089,53,117.291,0.0375995
0.903988,-0.024093,0.373579,6.25858,5.14039,13.3181,8,0.02412,0.00242036,64,86.684,0.107731
-0.780344,-0.259519,0.452264,6.09104,5.14426,13.3097,9,0.146373,0.014688,76,122.598,0.0556044
0.598128,-0.177668,0.744905,6.22518,5.12455,13.3589,10,0.0412617,0.00414048,89,129.975,0.0785327
-0.548718,0.396376,0.708437,6.11485,5.20472,13.3341,11,0.0728108,0.00730632,103,97.7117,0.0375884
-0.30079,-0.492833,0.799881,6.1094,5.14889,13.3202,12,0.0241109,0.00241944,118,155.383,0.0902739
0.410734,0.337493,0.820949,6.19277,5.19744,13.3615,13,0.0959514,0.0096284,134,119.729,0.0544265
-0.298331,-0.108352,0.924654,6.136,5.13424,13.3561,14,0.0399777,0.00401163,18,92.9563,0.0156959
,,,,,,,,,25,54.6545,0.00483795
,,,,,,,,,33,50.4544,0.015289
,,,,,,,,,42,77.1013,0.0126739
,,,,,,,,,52,107.993,0.0157494
,,,,,,,,,63,165.135,0.0127982
,,,,,,,,,75,60.239,0.0164414
,,,,,,,,,88,151.525,0.0143835
,,,,,,,,,102,88.6801,0.0155586
,,,,,,,,,117,94.2862,0.0127969
,,,,,,,,,133,147.888,0.0159701
,,,,,,,,,150,102.334,0.0143035
,,,,,,,,,32,135.932,0.00642684
,,,,,,,,,41,138.566,0.0699054
,,,,,,,,,51,169.948,0.0359699
,,,,,,,,,62,54.5037,0.0806904
,,,,,,,,,74,72.2699,0.0369899
,,,,,,,,,87,108.593,0.102874
,,,,,,,,,101,80.8156,0.0542815
,,,,,,,,,116,147.014,0.0759196
,,,,,,,,,132,90.7455,0.0369792
,,,,,,,,,149,112.781,0.0868381
,,,,,,,,,167,112.281,0.0531584
,,,,,,,,,50,42.2146,0.00635756
,,,,,,,,,61,37.8148,0.00585518
,,,,,,,,,73,154.397,0.00643579
,,,,,,,,,86,136.293,0.00588158
,,,,,,,,,100,82.3137,0.00654841
,,,,,,,,,115,142.099,0.00619538
,,,,,,,,,131,69.2256,0.00640369
,,,,,,,,,148,117.773,0.0058813
,,,,,,,,,166,109.131,0.00647233
,,,,,,,,,185,104.138,0.00618048
,,,,,,,,,72,31.9199,0.0339022
,,,,,,,,,85,112.78,0.070979
,,,,,,,,,99,143.735,0.0348068
,,,,,,,,,114,40.8057,0.0875942
,,,,,,,,,130,120.76,0.0497065
,,,,,,,,,147,39.6479,0.067261
,,,,,,,,,165,75.7959,0.0347973
,,,,,,,,,184,98.17,0.0756927
,,,,,,,,,204,66.6316,0.0487631
,,,,,,,,,98,126.904,0.0362521
,,,,,,,,,113,117.708,0.0236821
,,,,,,,,,129,65.307,0.0401409
,,,,,,,,,146,107.213,0.0297495
,,,,,,,,,164,33.2488,0.0352567
,,,,,,,,,183,88.557,0.0236777
,,,,,,,,,203,76.1563,0.037443
,,,,,,,,,224,69.1557,0.0294089
,,,,,,,,,128,65.0714,0.0372884
,,,,,,,,,145,72.2201,0.105216
,,,,,,,,,163,46.3549,0.0549266
,,,,,,,,,182,93.7463,0.0771875
,,,,,,,,,202,39.102,0.0372774
,,,,,,,,,223,75.2207,0.0885009
,,,,,,,,,245,58.0076,0.0537769
,,,,,,,,,162,125.267,0.0414154
,,,,,,,,,181,30.0133,0.0304438
,,,,,,,,,201,104.555,0.0362361
,,,,,,,,,222,87.6972,0.0241154
,,,,,,,,,244,45.5736,0.0385496
,,,,,,,,,267,85.3014,0.0300873
,,,,,,,,,200,95.2687,0.0643761
,,,,,,,,,221,45.3984,0.0972474
,,,,,,,,,243,38.5199,0.0414019
,,,,,,,,,266,92.2985,0.115916
,,,,,,,,,290,42.2549,0.0628025
,,,,,,,,,242,82.2076,0.0526735
,,,,,,,,,265,58.3155,0.0304365
,,,,,,,,,289,32.9782,0.0577076
,,,,,,,,,314,56.1174,0.0406095
,,,,,,,,,288,56.2963,0.0362258
,,,,,,,,,313,59.2497,0.0827946
,,,,,,,,,339,35.9135,0.0516153
,,,,,,,,,338,67.6564,0.0385378
,,,,,,,,,365,23.7479,0.0300801
,,,,,,,,,392,51.1333,0.0564399
