Q	U	V
{$V$}	{[mm$^3$]}	0.014836
{$d_v$}	{[mm]}	0.304864
{$S_c$}	{[mm$^2$]}	0.511357
{$S_o$}	{[mm$^2$]}	0.339599
{$S_l/S_o$}	[]	0.505767
{$\Psi$}	[]	0.571002
{$\eta$}	[]	0.586442
{med($\theta_e$)}	{[$^\circ$]}	72.39785
{$\Upsilon$}	[]	10
{$\Xi$}	[]	17
