Q	U	V
{$V$}	{[mm$^3$]}	0.00883341
{$d_v$}	{[mm]}	0.256474
{$S_c$}	{[mm$^2$]}	0.410647
{$S_o$}	{[mm$^2$]}	0.244752
{$S_l/S_o$}	[]	0.677809
{$\Psi$}	[]	0.503231
{$\eta$}	[]	0.511524
{med($\theta_e$)}	{[$^\circ$]}	63.9706
{$\Upsilon$}	[]	12
{$\Xi$}	[]	6
