facetNormals:0,facetNormals:1,facetNormals:2,FacetCenters:0,FacetCenters:1,FacetCenters:2,FacetIds,relFacetSize,absFacetSize,cellPairingIds,interplanarAngles,angleWeights
-0.0990585,-0.0276203,-0.916884,5.98022,6.24593,13.7457,1,0.0825409,0.0178489,8,22.4469,0.0399291
0.169406,-0.293768,-0.930687,5.97611,6.1853,13.7657,2,0.0263341,0.00569458,13,19.862,0.050579
-0.198536,0.29171,-0.918988,5.95865,6.27499,13.7446,3,0.0364605,0.00788436,19,37.9575,0.0601727
-0.109872,-0.62318,-0.744729,5.98075,6.12389,13.7936,4,0.0473429,0.0102376,26,52.4307,0.0462775
0.561396,-0.463206,-0.642249,6.03465,6.16464,13.795,5,0.0321519,0.00695265,34,61.2029,0.045135
-0.551471,-0.702109,-0.391888,5.912,6.20052,13.7816,6,0.0310595,0.00671641,43,83.0325,0.0781191
0.492107,0.770263,-0.190338,5.94794,6.29989,13.7962,7,0.074147,0.0160338,53,66.0142,0.0535498
0.8258,0.109211,-0.487266,6.07206,6.26013,13.7871,8,0.0396304,0.00856981,64,63.3275,0.0659694
-0.781564,0.403435,-0.356385,5.92344,6.30864,13.7904,9,0.0549394,0.0118803,76,96.613,0.0399797
0.347506,-0.892345,0.100926,6.02872,6.12133,13.8478,10,0.0263781,0.0057041,89,104.122,0.0662328
0.93732,0.197832,0.130135,6.07481,6.2566,13.8347,11,0.0553056,0.0119595,103,111.997,0.0369999
-0.644407,0.615619,0.422865,5.87332,6.30466,13.8341,12,0.0238442,0.00515615,118,140.005,0.0339358
0.599946,0.379717,0.683494,6.04969,6.22087,13.8701,13,0.0213586,0.00461866,134,126.952,0.057153
0.729712,-0.361063,0.514701,6.06813,6.18817,13.8276,14,0.043709,0.0094518,151,155.499,0.10837
-0.0764609,0.384054,0.87176,5.97017,6.27202,13.8775,15,0.157725,0.0341069,169,166.018,0.0369412
0.0379393,-0.199095,0.959123,6.02012,6.18354,13.8914,16,0.0237954,0.00514561,18,40.9956,0.0305808
,,,,,,,,,25,27.6381,0.0338432
,,,,,,,,,33,30.446,0.0289536
,,,,,,,,,42,60.365,0.0285023
,,,,,,,,,52,87.8787,0.0388649
,,,,,,,,,63,54.042,0.0316422
,,,,,,,,,75,85.0712,0.0356027
,,,,,,,,,88,76.227,0.0263561
,,,,,,,,,102,91.2233,0.0356793
,,,,,,,,,117,134.394,0.0250274
,,,,,,,,,133,131.435,0.0235868
,,,,,,,,,150,105.149,0.0328666
,,,,,,,,,168,171.866,0.0451327
,,,,,,,,,187,148.476,0.0250005
,,,,,,,,,32,56.9668,0.0411952
,,,,,,,,,41,68.9225,0.0341709
,,,,,,,,,51,73.9841,0.033544
,,,,,,,,,62,70.8229,0.0488835
,,,,,,,,,74,70.5905,0.0379794
,,,,,,,,,87,50.0102,0.043832
,,,,,,,,,101,116.439,0.0306105
,,,,,,,,,116,105.103,0.0439481
,,,,,,,,,132,94.79,0.0288326
,,,,,,,,,149,130.998,0.0269373
,,,,,,,,,167,139.705,0.0397571
,,,,,,,,,186,135.754,0.0592293
,,,,,,,,,206,168.922,0.028797
,,,,,,,,,50,41.9703,0.038296
,,,,,,,,,61,33.9962,0.0375102
,,,,,,,,,73,115.467,0.0577881
,,,,,,,,,86,77.502,0.0431447
,,,,,,,,,100,83.8182,0.0508591
,,,,,,,,,115,61.9338,0.0338795
,,,,,,,,,131,110.003,0.0510154
,,,,,,,,,148,130.632,0.0317151
,,,,,,,,,166,147.419,0.0294368
,,,,,,,,,185,104.676,0.0454535
,,,,,,,,,205,160.46,0.0728262
,,,,,,,,,226,128.348,0.031672
,,,,,,,,,72,73.5935,0.0315963
,,,,,,,,,85,87.3614,0.044854
,,,,,,,,,99,39.1962,0.0355016
,,,,,,,,,114,115.512,0.0405645
,,,,,,,,,130,54.4373,0.0289802
,,,,,,,,,147,68.036,0.0406639
,,,,,,,,,165,163.591,0.0273818
,,,,,,,,,184,106.897,0.0256667
,,,,,,,,,204,74.7236,0.0370501
,,,,,,,,,225,147.31,0.0534152
,,,,,,,,,247,121.874,0.0273496
,,,,,,,,,98,144.122,0.04378
,,,,,,,,,113,111.257,0.0348253
,,,,,,,,,129,71.9032,0.039684
,,,,,,,,,146,65.0976,0.028528
,,,,,,,,,164,138.576,0.0397791
,,,,,,,,,183,104.608,0.0269777
,,,,,,,,,203,154.225,0.0253114
,,,,,,,,,224,111.922,0.0363142
,,,,,,,,,246,127.645,0.0518989
,,,,,,,,,269,105.598,0.0269465
,,,,,,,,,128,49.6596,0.051653
,,,,,,,,,145,90.3898,0.0631142
,,,,,,,,,163,126.561,0.0389128
,,,,,,,,,182,49.2769,0.0633552
,,,,,,,,,202,85.2301,0.0360844
,,,,,,,,,223,60.176,0.033164
,,,,,,,,,245,91.0822,0.0549975
,,,,,,,,,268,84.0646,0.100873
,,,,,,,,,292,110.28,0.0360285
,,,,,,,,,162,117.84,0.0460458
,,,,,,,,,181,81.3138,0.031674
,,,,,,,,,201,38.294,0.0461739
,,,,,,,,,222,134.816,0.0297743
,,,,,,,,,244,77.6229,0.0277574
,,,,,,,,,267,70.3636,0.0415699
,,,,,,,,,291,118.919,0.0633446
,,,,,,,,,316,118.939,0.0297362
,,,,,,,,,200,136.93,0.035643
,,,,,,,,,221,139.644,0.0551219
,,,,,,,,,243,50.0345,0.0332553
,,,,,,,,,266,126.726,0.0307591
,,,,,,,,,290,169.72,0.048685
,,,,,,,,,315,96.0751,0.0814928
,,,,,,,,,341,119.054,0.0332078
,,,,,,,,,242,79.9581,0.0357197
,,,,,,,,,265,140.279,0.0250472
,,,,,,,,,289,93.7079,0.0236045
,,,,,,,,,314,47.4067,0.0329008
,,,,,,,,,340,107.799,0.0451974
,,,,,,,,,367,72.2585,0.0250203
,,,,,,,,,288,116.613,0.0333221
,,,,,,,,,313,40.3234,0.0308162
,,,,,,,,,339,43.136,0.0488283
,,,,,,,,,366,82.6775,0.081895
,,,,,,,,,394,82.6654,0.0332744
,,,,,,,,,338,81.9478,0.022533
,,,,,,,,,365,119.985,0.0308559
,,,,,,,,,393,46.0442,0.0414258
,,,,,,,,,422,74.4913,0.0238198
,,,,,,,,,392,46.5795,0.0286952
,,,,,,,,,421,42.374,0.0376225
,,,,,,,,,451,51.4022,0.0225113
,,,,,,,,,450,73.9672,0.0684493
,,,,,,,,,481,51.0775,0.030815
,,,,,,,,,512,36.1211,0.0413522
