facetNormals:0,facetNormals:1,facetNormals:2,FacetCenters:0,FacetCenters:1,FacetCenters:2,FacetIds,relFacetSize,absFacetSize,cellPairingIds,interplanarAngles,angleWeights
-0.187989,-0.42793,-0.812853,6.06088,7.34142,11.8178,1,0.0514761,0.00494346,8,27.3502,0.0308706
-0.552736,-0.149875,-0.807943,6.09731,7.37425,11.7899,2,0.0220458,0.00211715,13,40.0927,0.0284527
-0.696881,-0.557274,-0.413196,6.01996,7.25793,11.7831,3,0.0196596,0.001888,19,86.4322,0.0629682
-0.850236,0.469029,-0.120527,5.97774,7.37822,11.7637,4,0.0810663,0.00778513,26,118.841,0.0176073
0.473971,0.841696,-0.0151494,6.07913,7.38731,11.7803,5,0.0106199,0.00101987,34,95.6912,0.0831832
-0.86678,-0.105848,0.364425,5.99535,7.27786,11.7996,6,0.2166,0.020801,43,162.469,0.0821966
0.449556,0.294704,0.812324,6.0593,7.35524,11.7978,7,0.203857,0.0195772,18,34.4995,0.0207845
,,,,,,,,,25,59.1406,0.0346647
,,,,,,,,,33,113.134,0.0143346
,,,,,,,,,42,77.6432,0.0400185
,,,,,,,,,52,169.653,0.0397887
,,,,,,,,,32,66.6767,0.031645
,,,,,,,,,41,146.601,0.0137904
,,,,,,,,,51,56.5805,0.0360474
,,,,,,,,,62,148.099,0.0358609
,,,,,,,,,50,90.3868,0.0187796
,,,,,,,,,61,45.9783,0.117977
,,,,,,,,,73,111.022,0.116003
,,,,,,,,,72,123.568,0.0202471
,,,,,,,,,85,61.5143,0.0201881
,,,,,,,,,98,97.7838,0.210035
