"cellPairingIds","interplanarAngles","angleWeights"
13,40.4121,0.0394265
19,75.3384,0.0277336
34,87.9995,0.0168942
64,91.745,0.0049215
118,107.788,0.00883188
32,65.9612,0.0271455
87,66.4577,0.00490265
61,35.03,0.0141509
100,118.727,0.00465842
131,60.5627,0.0379069
164,53.2559,0.0201958
203,140.78,0.00676426
221,112.575,0.0051676
243,34.9897,0.00364358
266,64.9595,0.00342661
288,87.9678,0.0116049
313,115.963,0.00965724
338,52.9929,0.00542031
