facetNormals:0,facetNormals:1,facetNormals:2,FacetCenters:0,FacetCenters:1,FacetCenters:2,FacetIds,relFacetSize,absFacetSize,cellPairingIds,interplanarAngles,angleWeights
-0.176332,0.182462,-0.942769,6.16684,6.96348,10.5741,1,0.0105362,0.000807362,8,35.352,0.00740495
0.32736,0.464817,-0.800729,6.20324,6.93484,10.5317,2,0.00570846,0.000437424,13,38.1652,0.0139885
-0.712415,-0.00839172,-0.658053,6.19861,6.92401,10.554,3,0.0208057,0.00159429,19,67.2942,0.0183986
0.0643216,-0.803861,-0.56009,6.11365,6.90932,10.5083,4,0.0725013,0.00555558,26,82.9807,0.0170885
0.612833,-0.670322,-0.36839,6.15173,6.9464,10.5262,5,0.0451944,0.00346313,34,53.4515,0.0142856
-0.234716,0.851202,-0.385524,6.21577,6.97025,10.5581,6,0.0221777,0.00169942,43,71.4302,0.0189196
-0.577939,-0.708879,-0.352342,6.04877,6.92021,10.525,7,0.0925975,0.0070955,53,69.2612,0.0133353
-0.728903,0.653147,-0.0979612,6.21683,6.95458,10.5712,8,0.0181596,0.00139152,64,87.8377,0.0108264
-0.869225,0.408518,0.203283,6.19545,6.94181,10.5746,9,0.011133,0.000853096,76,92.5726,0.015749
-0.940444,-0.0778496,0.205725,6.149,6.92399,10.5627,10,0.0311706,0.00238852,89,123.805,0.01954
0.501725,-0.775692,0.319183,6.17775,6.93612,10.5714,11,0.134346,0.0102946,103,115.667,0.0186702
-0.621039,-0.598371,0.433261,6.06223,6.92631,10.5947,12,0.0818896,0.00627498,118,129.691,0.0183417
0.749308,-0.480181,0.416905,6.19316,6.96334,10.5898,13,0.0707701,0.00542293,134,117.762,0.014292
0.216994,0.757359,0.577064,6.10042,6.96433,10.6096,14,0.0222085,0.00170178,151,111.632,0.0161526
-0.674185,0.399606,0.574385,6.06683,6.96557,10.5847,15,0.0345922,0.00265071,169,150.898,0.0145269
-0.123633,-0.551089,0.80988,6.11984,6.93959,10.6294,16,0.0233838,0.00179184,188,143.409,0.0159496
-0.27399,0.231234,0.906731,6.09892,6.95349,10.6222,17,0.0328035,0.00251364,18,72.2853,0.00895887
,,,,,,,,,25,84.2927,0.0105836
,,,,,,,,,33,78.9777,0.0101366
,,,,,,,,,42,48.4533,0.0090798
,,,,,,,,,52,104.228,0.010754
,,,,,,,,,63,81.4613,0.00868636
,,,,,,,,,75,105.488,0.00754713
,,,,,,,,,88,122.44,0.0096497
,,,,,,,,,102,118.086,0.0109516
,,,,,,,,,117,150.927,0.0106729
,,,,,,,,,133,108.844,0.0105647
,,,,,,,,,150,92.3309,0.00908238
,,,,,,,,,168,121.241,0.00979974
,,,,,,,,,187,167.092,0.0091767
,,,,,,,,,207,137.704,0.00972463
,,,,,,,,,32,69.7567,0.0323329
,,,,,,,,,41,101.441,0.028494
,,,,,,,,,51,63.7173,0.0214698
,,,,,,,,,62,46.8984,0.0339772
,,,,,,,,,74,52.6874,0.0193928
,,,,,,,,,87,59.5833,0.0145047
,,,,,,,,,101,55.1506,0.0249547
,,,,,,,,,116,126.283,0.0360314
,,,,,,,,,132,80.0119,0.0331811
,,,,,,,,,149,147.528,0.0321575
,,,,,,,,,167,124.81,0.0214842
,,,,,,,,,186,83.9716,0.0259835
,,,,,,,,,206,117.37,0.0220196
,,,,,,,,,227,115.252,0.0254621
,,,,,,,,,50,35.3811,0.05568
,,,,,,,,,61,120.732,0.0339655
,,,,,,,,,73,40.6616,0.0813263
,,,,,,,,,86,122.37,0.0290443
,,,,,,,,,100,121.119,0.0193021
,,,,,,,,,115,96.8519,0.0435973
,,,,,,,,,131,60.1914,0.0941782
,,,,,,,,,148,77.9148,0.07691
,,,,,,,,,166,77.9958,0.0716252
,,,,,,,,,185,163.23,0.0340016
,,,,,,,,,205,136.003,0.0468372
,,,,,,,,,226,91.0969,0.0353623
,,,,,,,,,248,137.992,0.0451697
,,,,,,,,,72,127.313,0.0297544
,,,,,,,,,85,74.8663,0.0607421
,,,,,,,,,99,151.651,0.0259087
,,,,,,,,,114,156.356,0.0178652
,,,,,,,,,130,129.329,0.0368948
,,,,,,,,,147,42.1824,0.0676358
,,,,,,,,,165,98.4563,0.0582441
,,,,,,,,,184,49.3489,0.0551619
,,,,,,,,,204,127.849,0.0297821
,,,,,,,,,225,159.604,0.0391889
,,,,,,,,,247,90.2789,0.0308208
,,,,,,,,,270,133.427,0.0380147
,,,,,,,,,98,110.578,0.0357847
,,,,,,,,,113,36.1925,0.0199685
,,,,,,,,,129,59.9679,0.0148244
,,,,,,,,,146,85.3672,0.0259162
,,,,,,,,,164,163.114,0.0380707
,,,,,,,,,183,124.794,0.0349029
,,,,,,,,,203,141.92,0.033772
,,,,,,,,,224,66.7598,0.0221931
,,,,,,,,,246,72.7925,0.0270276
,,,,,,,,,269,142.262,0.0227648
,,,,,,,,,293,95.4014,0.0264638
,,,,,,,,,128,90.4294,0.0303643
,,,,,,,,,145,81.5651,0.0198763
,,,,,,,,,163,56.2286,0.0466408
,,,,,,,,,182,81.1463,0.109632
,,,,,,,,,202,48.2053,0.086915
,,,,,,,,,223,104.4,0.0802256
,,,,,,,,,245,154.735,0.0358248
,,,,,,,,,268,95.7862,0.0503681
,,,,,,,,,292,79.4762,0.0373385
,,,,,,,,,317,109.884,0.0484449
,,,,,,,,,162,24.2404,0.0138036
,,,,,,,,,181,49.6967,0.0229492
,,,,,,,,,201,160.037,0.0319944
,,,,,,,,,222,88.8284,0.029727
,,,,,,,,,244,158.7,0.0289027
,,,,,,,,,267,73.0544,0.019981
,,,,,,,,,291,43.2487,0.0238164
,,,,,,,,,316,111.071,0.0204432
,,,,,,,,,342,74.1513,0.0233776
,,,,,,,,,200,29.2246,0.0164063
,,,,,,,,,221,135.819,0.0205621
,,,,,,,,,243,66.127,0.0196013
,,,,,,,,,266,142.237,0.0192395
,,,,,,,,,290,75.6207,0.0148312
,,,,,,,,,315,24.7853,0.0168448
,,,,,,,,,341,87.2226,0.0150844
,,,,,,,,,368,57.3127,0.0166241
,,,,,,,,,242,111.488,0.0506009
,,,,,,,,,265,39.4507,0.0451538
,,,,,,,,,289,127.782,0.043279
,,,,,,,,,314,98.8012,0.0259372
,,,,,,,,,340,39.7915,0.0327924
,,,,,,,,,367,70.0239,0.0267215
,,,,,,,,,395,63.0903,0.0319662
,,,,,,,,,288,72.0413,0.101755
,,,,,,,,,313,23.4106,0.0927053
,,,,,,,,,339,107.966,0.0381161
,,,,,,,,,366,119.309,0.0550181
,,,,,,,,,394,49.7184,0.0398342
,,,,,,,,,423,91.6488,0.0527314
,,,,,,,,,338,89.8426,0.0759249
,,,,,,,,,365,111.011,0.034941
,,,,,,,,,393,62.8145,0.0486384
,,,,,,,,,422,37.3594,0.0363794
,,,,,,,,,452,63.1756,0.0468426
,,,,,,,,,392,87.6408,0.0338077
,,,,,,,,,421,118.633,0.0464701
,,,,,,,,,451,58.3186,0.0351525
,,,,,,,,,482,86.3092,0.0448281
,,,,,,,,,450,59.064,0.0270504
,,,,,,,,,481,88.6241,0.022781
,,,,,,,,,513,47.8561,0.0264857
,,,,,,,,,512,69.9882,0.0279046
,,,,,,,,,545,32.6238,0.0336741
,,,,,,,,,578,48.2716,0.0273041
