Q	U	V
{$V$}	{[mm$^3$]}	0.00587549
{$d_v$}	{[mm]}	0.223880
{$S_c$}	{[mm$^2$]}	0.375528
{$S_o$}	{[mm$^2$]}	0.192629
{$S_l/S_o$}	[]	0.949488
{$\Psi$}	[]	0.419313
{$\eta$}	[]	0.435102
{med($\theta_e$)}	{[$^\circ$]}	70.5718
{$\Upsilon$}	[]	11
{$\Xi$}	[]	9
