facetNormals:0,facetNormals:1,facetNormals:2,FacetCenters:0,FacetCenters:1,FacetCenters:2,FacetIds,relFacetSize,absFacetSize,cellPairingIds,interplanarAngles,angleWeights
-0.384837,-0.0421927,-0.897192,3.1203,5.0467,11.5137,1,0.0124597,0.00118654,8,75.1188,0.0157471
0.728679,0.211749,-0.591652,3.06317,5.1331,11.6168,2,0.0213908,0.00203704,13,50.3808,0.0224252
-0.253074,0.714151,-0.59344,3.08177,5.11191,11.6099,3,0.112021,0.0106677,19,45.3257,0.0154621
-0.690928,-0.55895,-0.435029,3.06106,5.05799,11.6063,4,0.0203708,0.00193991,26,102.416,0.00744223
0.666636,0.745388,-0.085968,3.11004,5.0808,11.6144,5,0.00530565,0.000505257,34,80.5267,0.023454
-0.384099,-0.872237,0.0348144,3.08964,5.03634,11.6276,6,0.199411,0.0189899,43,73.8309,0.00745686
-0.972998,-0.146379,0.123472,3.07915,5.0865,11.5866,7,0.00532054,0.000506674,53,91.3726,0.0197244
-0.117442,0.924943,0.0312151,3.12684,5.10843,11.6462,8,0.047306,0.00450494,64,90.5479,0.0131752
-0.863032,0.283061,0.367076,3.068,5.07474,11.6284,9,0.0139778,0.0013311,76,95.459,0.0124359
-0.839856,-0.203019,0.471794,3.01926,5.10908,11.6482,10,0.0124122,0.00118201,89,128.391,0.022788
-0.162414,0.647371,0.687127,3.08629,5.11792,11.7018,11,0.133207,0.0126853,103,120.928,0.0218431
-0.137869,-0.706046,0.626239,3.08243,5.07163,11.6746,12,0.0884684,0.00842483,18,69.9213,0.0359221
,,,,,,,,,25,112.506,0.0208683
,,,,,,,,,33,44.0217,0.00850241
,,,,,,,,,42,121.918,0.0386369
,,,,,,,,,52,148.439,0.00852152
,,,,,,,,,63,84.1296,0.0294602
,,,,,,,,,75,146.508,0.0169074
,,,,,,,,,88,170.441,0.015709
,,,,,,,,,102,114.881,0.0368621
,,,,,,,,,117,132.54,0.0344515
,,,,,,,,,32,87.9632,0.0344728
,,,,,,,,,41,64.5808,0.0101314
,,,,,,,,,51,126.532,0.143455
,,,,,,,,,62,85.8883,0.0101586
,,,,,,,,,74,41.5658,0.0665206
,,,,,,,,,87,77.5834,0.0248543
,,,,,,,,,101,102.956,0.0223481
,,,,,,,,,116,84.0445,0.121699
,,,,,,,,,132,156.372,0.0988612
,,,,,,,,,50,147.741,0.00841864
,,,,,,,,,61,38.572,0.0369654
,,,,,,,,,73,44.4569,0.00843737
,,,,,,,,,86,119.136,0.0284783
,,,,,,,,,100,73.3098,0.0165793
,,,,,,,,,115,59.9005,0.0154254
,,,,,,,,,131,125.362,0.0353376
,,,,,,,,,148,76.6773,0.0331162
,,,,,,,,,72,161.775,0.0103363
,,,,,,,,,85,140.531,0.00531309
,,,,,,,,,99,49.4706,0.0095412
,,,,,,,,,114,113.743,0.0076917
,,,,,,,,,130,139.537,0.00743372
,,,,,,,,,147,70.8625,0.0102048
,,,,,,,,,165,134.588,0.0100109
,,,,,,,,,98,57.6756,0.0103645
,,,,,,,,,113,148.745,0.0764709
,,,,,,,,,129,84.0177,0.0261243
,,,,,,,,,146,56.6542,0.0233697
,,,,,,,,,164,121.575,0.15972
,,,,,,,,,183,40.6045,0.122562
,,,,,,,,,128,91.0694,0.00956527
,,,,,,,,,145,29.7278,0.00770734
,,,,,,,,,163,22.0029,0.00744832
,,,,,,,,,182,81.0302,0.0102324
,,,,,,,,,202,70.558,0.0100374
,,,,,,,,,162,65.7998,0.0215794
,,,,,,,,,181,94.6478,0.0196647
,,,,,,,,,201,44.3242,0.0698175
,,,,,,,,,222,133.931,0.0616476
,,,,,,,,,200,29.3604,0.0131485
,,,,,,,,,221,52.1629,0.0253007
,,,,,,,,,243,80.8234,0.0241413
,,,,,,,,,242,69.5713,0.0227084
,,,,,,,,,265,53.7973,0.02177
,,,,,,,,,288,90.2744,0.106323
