Q	U	V
{$V$}	{[mm$^3$]}	0.00745598
{$d_v$}	{[mm]}	0.242383
{$S_c$}	{[mm$^2$]}	0.443614
{$S_o$}	{[mm$^2$]}	0.258961
{$S_l/S_o$}	[]	0.713053
{$\Psi$}	[]	0.416053
{$\eta$}	[]	0.442094
{med($\theta_e$)}	{[$^\circ$]}	74.26055
{$\Upsilon$}	[]	11
{$\Xi$}	[]	9
