"cellPairingIds","interplanarAngles","angleWeights"
8,81.3197,0.0480121
13,77.9876,0.0609566
19,79.6657,0.0372428
34,109.213,0.0462564
43,88.7996,0.0542527
18,101.963,0.0975946
25,33.8967,0.0483275
33,31.5431,0.0351215
42,66.068,0.0646832
41,112.218,0.0415807
62,154.466,0.127378
74,73.6118,0.0652856
87,127.773,0.148423
61,39.4108,0.0465491
72,51.9638,0.0341727
114,44.9694,0.0400583
98,41.5755,0.0765453
113,104.325,0.0487073
129,40.9952,0.0836751
146,46.8039,0.051164
128,107.453,0.0576553
163,50.2286,0.0611298
162,68.3203,0.0616094
181,62.1146,0.0419722
