"cellPairingIds","interplanarAngles","angleWeights"
18,59.9229,0.0324848
25,60.6249,0.0348094
33,42.2885,0.0603839
42,32.4684,0.0844398
75,150.312,0.0164677
51,81.0971,0.0351228
87,97.7884,0.0129277
116,73.3941,0.0320826
50,29.0661,0.0321195
100,128.515,0.0132806
72,27.1943,0.0701823
114,156.973,0.0158402
130,43.3463,0.0291978
146,43.6441,0.0338624
164,61.5632,0.0817744
200,134.125,0.0127529
221,112.965,0.0163637
242,57.3937,0.0310276
