Q	U	V
{$V$}	{[mm$^3$]}	0.00392689
{$d_v$}	{[mm]}	0.195742
{$S_c$}	{[mm$^2$]}	0.266836
{$S_o$}	{[mm$^2$]}	0.146876
{$S_l/S_o$}	[]	0.816743
{$\Psi$}	[]	0.451099
{$\eta$}	[]	0.477214
{med($\theta_e$)}	{[$^\circ$]}	
{$\Upsilon$}	[]	16
{$\Xi$}	[]	6
