Q	U	V
{$V$}	{[mm$^3$]}	0.00147718
{$d_v$}	{[mm]}	0.141301
{$S_c$}	{[mm$^2$]}	0.110971
{$S_o$}	{[mm$^2$]}	0.0650312
{$S_l/S_o$}	[]	0.706427
{$\Psi$}	[]	0.565237
{$\eta$}	[]	0.580967
{med($\theta_e$)}	{[$^\circ$]}	56.2619
{$\Upsilon$}	[]	18
{$\Xi$}	[]	8
