facetNormals:0,facetNormals:1,facetNormals:2,FacetCenters:0,FacetCenters:1,FacetCenters:2,FacetIds,relFacetSize,absFacetSize,cellPairingIds,interplanarAngles,angleWeights
-0.475081,-0.751126,-0.363583,6.04124,5.93442,11.9386,1,0.133726,0.0187396,8,116.479,0.050319
0.937238,0.111441,-0.291608,6.11279,6.00743,11.9131,2,0.0309901,0.00434278,13,34.9297,0.0677118
-0.884959,-0.416971,-0.115106,5.9975,5.97116,12.0095,3,0.0453331,0.00635273,19,79.6084,0.0647071
0.715863,-0.666725,-0.0241752,6.08255,5.92104,12.0009,4,0.0426794,0.00598086,26,107.636,0.0895187
0.958644,-0.191682,-0.0722387,6.10123,5.96877,11.985,5,0.0672779,0.00942795,34,137.691,0.130026
0.908534,0.223764,0.234724,6.1052,6.01906,12.0172,6,0.126526,0.0177306,43,53.6184,0.0776154
-0.86449,-0.351232,0.313236,5.9893,6.0021,12.0128,7,0.0546744,0.00766177,53,178.183,0.0638894
0.507176,0.756113,0.351849,6.07953,6.04897,12.0411,8,0.0419707,0.00588155,64,146.352,0.0400335
-0.0658305,0.852342,0.469528,5.99297,6.01097,11.9996,9,0.0235404,0.00329882,76,93.3726,0.105113
-0.696374,0.213041,0.618225,6.00495,6.02919,12.0568,10,0.0865862,0.0121337,89,78.4843,0.0564447
-0.252948,-0.47967,0.808273,6.0518,5.91986,12.0852,11,0.0357719,0.00501288,103,124.064,0.0533429
0.140801,0.14755,0.953202,6.06128,5.99057,12.0909,12,0.0333164,0.00466878,18,149.955,0.0368139
,,,,,,,,,25,51.3549,0.0359073
,,,,,,,,,33,21.9509,0.0424339
,,,,,,,,,42,32.018,0.049786
,,,,,,,,,52,165.347,0.0395581
,,,,,,,,,63,61.7085,0.0356541
,,,,,,,,,75,96.1745,0.0267564
,,,,,,,,,88,149.038,0.0456438
,,,,,,,,,102,123.181,0.0332097
,,,,,,,,,117,97.732,0.0321111
,,,,,,,,,32,111.465,0.0439662
,,,,,,,,,41,141.924,0.0541672
,,,,,,,,,51,166.595,0.0667501
,,,,,,,,,62,25.4534,0.0495675
,,,,,,,,,74,146.81,0.0435872
,,,,,,,,,87,111.441,0.0309889
,,,,,,,,,101,60.994,0.0595094
,,,,,,,,,116,69.8149,0.0399889
,,,,,,,,,132,107.946,0.0384067
,,,,,,,,,50,31.7394,0.0522272
,,,,,,,,,61,58.3368,0.0638283
,,,,,,,,,73,114.032,0.0479379
,,,,,,,,,86,99.0084,0.0423221
,,,,,,,,,100,131.048,0.0303441
,,,,,,,,,115,134.526,0.057176
,,,,,,,,,131,82.8111,0.0389215
,,,,,,,,,148,91.239,0.0374211
,,,,,,,,,72,30.938,0.0878454
,,,,,,,,,85,144.348,0.0603249
,,,,,,,,,99,70.7252,0.0516931
,,,,,,,,,114,105.805,0.0348773
,,,,,,,,,130,143.532,0.0757205
,,,,,,,,,147,102.649,0.0467086
,,,,,,,,,165,87.7307,0.0445643
,,,,,,,,,98,146.358,0.0763544
,,,,,,,,,113,40.8207,0.0630325
,,,,,,,,,129,75.1509,0.0396954
,,,,,,,,,146,118.513,0.102813
,,,,,,,,,164,99.0333,0.0557748
,,,,,,,,,183,65.8528,0.0527443
,,,,,,,,,128,128.175,0.0474876
,,,,,,,,,145,95.7023,0.0329108
,,,,,,,,,163,39.9472,0.0670258
,,,,,,,,,182,48.0583,0.0432479
,,,,,,,,,202,82.5122,0.0414033
,,,,,,,,,162,35.3712,0.030163
,,,,,,,,,181,88.4377,0.0565366
,,,,,,,,,201,102.559,0.0386242
,,,,,,,,,222,56.9888,0.0371461
,,,,,,,,,200,56.2444,0.0370169
,,,,,,,,,221,90.7656,0.0283949
,,,,,,,,,243,53.61,0.0275879
,,,,,,,,,242,51.9046,0.0506277
,,,,,,,,,265,55.8532,0.048118
,,,,,,,,,288,45.5805,0.0345005
