"cellPairingIds","interplanarAngles","angleWeights"
8,35.0681,0.0349124
13,74.4537,0.123824
34,71.8483,0.111922
43,119.992,0.0782514
103,168.755,0.0895814
18,89.2714,0.0376561
117,139.12,0.0337346
62,55.4036,0.0935255
132,116.778,0.110181
98,118.639,0.0865715
183,99.0428,0.100656
202,69.873,0.0725723
