Q	U	V
{$V$}	{[mm$^3$]}	0.00731942
{$d_v$}	{[mm]}	0.240894
{$S_c$}	{[mm$^2$]}	0.297232
{$S_o$}	{[mm$^2$]}	0.19208
{$S_l/S_o$}	[]	0.547439
{$\Psi$}	[]	0.613347
{$\eta$}	[]	0.692318
{med($\theta_e$)}	{[$^\circ$]}	60.1338
{$\Upsilon$}	[]	14
{$\Xi$}	[]	12
