facetNormals:0,facetNormals:1,facetNormals:2,FacetCenters:0,FacetCenters:1,FacetCenters:2,FacetIds,relFacetSize,absFacetSize,cellPairingIds,interplanarAngles,angleWeights
-0.40886,-0.0450158,-0.877627,5.93159,6.48754,11.991,1,0.0263563,0.0116145,8,49.4229,0.0185684
-0.164471,0.697108,-0.65767,5.89354,6.46315,12.0223,2,0.0143331,0.00631619,13,69.169,0.0448861
0.5524,-0.462363,-0.602434,6.03684,6.43534,12.0235,3,0.151155,0.0666099,19,91.9362,0.0355672
0.861859,0.231368,-0.377231,6.004,6.47181,12.0652,4,0.0546744,0.0240935,26,53.1198,0.0411623
-0.712374,-0.555561,-0.263307,5.91977,6.49553,12.0791,5,0.0939266,0.0413908,34,91.9427,0.0244449
0.259451,-0.934586,-0.0365946,6.01364,6.4714,12.1138,6,0.022792,0.0100438,43,97.1914,0.040161
-0.655898,-0.493562,0.461039,5.93393,6.47533,12.1342,7,0.0843309,0.0371622,53,146.444,0.0395831
0.650946,0.425892,0.553606,6.04539,6.54915,12.1461,8,0.0794593,0.0350155,64,113.218,0.0338689
-0.545861,0.451271,0.649551,6.02848,6.478,12.0193,9,0.0473715,0.0208753,76,163.181,0.0422338
0.387767,-0.228375,0.818417,6.02736,6.48524,12.1754,10,0.106226,0.0468109,18,91.0647,0.0261834
,,,,,,,,,25,73.4958,0.0227121
,,,,,,,,,33,96.0824,0.0248709
,,,,,,,,,42,135.235,0.0175989
,,,,,,,,,52,126.101,0.0245018
,,,,,,,,,63,100.818,0.0242855
,,,,,,,,,75,91.3998,0.0220075
,,,,,,,,,88,146.948,0.0252581
,,,,,,,,,32,49.0426,0.0803026
,,,,,,,,,41,88.5746,0.115859
,,,,,,,,,51,49.0417,0.0396113
,,,,,,,,,62,117.765,0.108262
,,,,,,,,,74,100.985,0.104163
,,,,,,,,,87,177.367,0.0721359
,,,,,,,,,101,101.393,0.124769
,,,,,,,,,50,134.87,0.0691164
,,,,,,,,,61,88.7093,0.0321724
,,,,,,,,,73,159.329,0.0663391
,,,,,,,,,86,60.8393,0.064777
,,,,,,,,,100,131.021,0.0507617
,,,,,,,,,115,91.7334,0.0721919
,,,,,,,,,72,67.8724,0.0366827
,,,,,,,,,85,45.5804,0.0888705
,,,,,,,,,99,160.347,0.0860894
,,,,,,,,,114,92.0839,0.0629795
,,,,,,,,,130,114.528,0.0996986
,,,,,,,,,98,72.5366,0.0358854
,,,,,,,,,113,105.612,0.0354233
,,,,,,,,,129,129.011,0.0307765
,,,,,,,,,146,71.737,0.0375313
,,,,,,,,,128,115.143,0.0818227
,,,,,,,,,145,61.2795,0.0606653
,,,,,,,,,163,74.4515,0.0940207
,,,,,,,,,162,77.6362,0.0593564
,,,,,,,,,181,46.9942,0.0909136
,,,,,,,,,200,76.0172,0.0655231
