Q	U	V
{$V$}	{[mm$^3$]}	0.00841425
{$d_v$}	{[mm]}	0.252351
{$S_c$}	{[mm$^2$]}	0.4337
{$S_o$}	{[mm$^2$]}	0.245715
{$S_l/S_o$}	[]	0.765053
{$\Psi$}	[]	0.461287
{$\eta$}	[]	0.563567
{med($\theta_e$)}	{[$^\circ$]}	72.5261
{$\Upsilon$}	[]	11
{$\Xi$}	[]	7
