"cellPairingIds","interplanarAngles","angleWeights"
13,54.0489,0.0260854
26,31.6443,0.0182354
34,52.8387,0.0236977
53,62.5362,0.0167164
41,70.1063,0.034684
51,79.805,0.0617613
62,39.993,0.106265
101,83.3813,0.0914698
85,96.0678,0.0385901
113,59.4307,0.0265411
129,31.6438,0.0274024
146,69.5821,0.0675896
163,78.549,0.124778
182,30.2691,0.106164
162,44.5459,0.0184786
200,73.9038,0.0320161
243,36.5729,0.0315242
242,58.1008,0.091395
265,62.1061,0.0997629
