"cellPairingIds","interplanarAngles","angleWeights"
8,25.3101,0.0649822
13,60.9833,0.116645
19,47.3384,0.039748
26,55.9074,0.0413825
34,61.113,0.0225474
43,77.3851,0.0601769
76,102.24,0.120112
25,25.2032,0.0324003
42,51.2562,0.0199775
32,47.0699,0.0415834
62,58.9711,0.0644859
116,104.844,0.0965447
132,94.7846,0.113781
61,64.8716,0.0167151
148,121.121,0.0394101
85,42.3839,0.0321554
114,45.6465,0.0264366
130,70.507,0.0438463
146,74.4023,0.0232596
183,140.078,0.0224383
145,47.5974,0.0330259
182,66.5535,0.0543404
200,53.7196,0.045481
221,46.515,0.0397932
242,75.373,0.0989077
265,97.8068,0.117078
288,32.2171,0.0855867
