facetNormals:0,facetNormals:1,facetNormals:2,FacetCenters:0,FacetCenters:1,FacetCenters:2,FacetIds,relFacetSize,absFacetSize,cellPairingIds,interplanarAngles,angleWeights
-0.0215681,0.458263,-0.850693,2.78105,7.63882,12.321,1,0.143069,0.010101,8,59.6207,0.041177
0.707689,-0.143007,-0.655154,2.86211,7.60658,12.3177,2,0.0240494,0.00169793,13,53.4081,0.11785
-0.477177,-0.281271,-0.796469,2.77597,7.59318,12.3164,3,0.10019,0.0070736,19,36.6181,0.117619
0.447147,0.683164,-0.531971,2.83167,7.67926,12.3495,4,0.0998564,0.00705007,26,85.5696,0.041234
-0.669674,-0.609061,-0.397901,2.73654,7.61723,12.3374,5,0.0240883,0.00170068,34,83.0951,0.0395752
0.964646,-0.0512894,-0.186468,2.88116,7.62599,12.3502,6,0.0229637,0.00162128,43,70.1471,0.12687
-0.756146,0.558935,-0.0429202,2.72192,7.64151,12.3939,7,0.113967,0.00804628,53,71.4811,0.0762964
0.537427,0.822667,0.0739364,2.84061,7.69612,12.4028,8,0.0520185,0.00367262,64,100.93,0.0049702
0.920408,0.214378,0.306149,2.8821,7.64482,12.3857,9,0.00252903,0.000178555,76,112.893,0.0739705
-0.895887,-0.188519,0.355175,2.72239,7.65089,12.3969,10,0.0498798,0.00352162,89,91.3769,0.0194453
0.364444,0.812283,0.455635,2.82909,7.69773,12.4294,11,0.0104316,0.000736489,103,114.141,0.0344451
-0.740611,0.241945,0.608464,2.7377,7.64515,12.4406,12,0.0195795,0.00138236,118,104.902,0.0135552
0.264352,0.703413,0.6655,2.82908,7.69218,12.4367,13,0.00711462,0.000502307,134,132.137,0.00650877
0.544787,0.135194,0.810535,2.85818,7.6689,12.4426,14,0.00333013,0.000235114,151,126.193,0.104015
-0.0646614,0.415503,0.879488,2.78754,7.67476,12.4433,15,0.0817106,0.00576894,18,76.2792,0.0387881
,,,,,,,,,25,53.3392,0.038763
,,,,,,,,,33,97.5182,0.0240688
,,,,,,,,,42,32.1422,0.023494
,,,,,,,,,52,129.76,0.0397175
,,,,,,,,,63,77.1146,0.032892
,,,,,,,,,75,64.2913,0.00457677
,,,,,,,,,88,151.298,0.0324521
,,,,,,,,,102,99.2517,0.0145514
,,,,,,,,,117,173.376,0.0215855
,,,,,,,,,133,110.926,0.0109808
,,,,,,,,,150,99.8733,0.00585019
,,,,,,,,,168,135.802,0.0371613
,,,,,,,,,32,88.8984,0.100023
,,,,,,,,,41,32.6412,0.0388387
,,,,,,,,,51,108.153,0.0373635
,,,,,,,,,62,74.9064,0.106635
,,,,,,,,,74,124.882,0.0684814
,,,,,,,,,87,140.471,0.00493353
,,,,,,,,,101,78.0268,0.0666017
,,,,,,,,,116,142.068,0.0188957
,,,,,,,,,132,101.992,0.0327575
,,,,,,,,,149,151.285,0.0132858
,,,,,,,,,167,170.569,0.00644601
,,,,,,,,,186,146.266,0.0900115
,,,,,,,,,50,121.527,0.0388136
,,,,,,,,,61,58.8813,0.0373403
,,,,,,,,,73,85.8383,0.106446
,,,,,,,,,86,37.3886,0.0684034
,,,,,,,,,100,65.909,0.00493312
,,,,,,,,,115,138.646,0.0665279
,,,,,,,,,131,60.7982,0.0188898
,,,,,,,,,148,120.543,0.0327396
,,,,,,,,,166,75.5116,0.0132829
,,,,,,,,,185,95.6879,0.00644532
,,,,,,,,,205,102.952,0.0898767
,,,,,,,,,72,123.756,0.0235125
,,,,,,,,,85,78.6593,0.0397705
,,,,,,,,,99,156.031,0.0329284
,,,,,,,,,114,152.182,0.00457747
,,,,,,,,,130,53.8022,0.0324875
,,,,,,,,,147,158.496,0.0145585
,,,,,,,,,165,83.7451,0.0216011
,,,,,,,,,184,151.258,0.0109848
,,,,,,,,,204,142.14,0.00585134
,,,,,,,,,225,125.497,0.0372077
,,,,,,,,,98,144.092,0.0382252
,,,,,,,,,113,61.511,0.0318619
,,,,,,,,,129,32.9875,0.00455627
,,,,,,,,,146,162.376,0.0314489
,,,,,,,,,164,76.785,0.0143462
,,,,,,,,,183,149.766,0.021137
,,,,,,,,,203,84.4895,0.0108635
,,,,,,,,,224,67.7392,0.00581674
,,,,,,,,,246,104.966,0.0358517
,,,,,,,,,128,86.8932,0.0714326
,,,,,,,,,145,129.065,0.00494826
,,,,,,,,,163,52.9586,0.0693898
,,,,,,,,,182,80.2833,0.0191136
,,,,,,,,,202,44.0208,0.0334179
,,,,,,,,,223,79.9605,0.0133932
,,,,,,,,,245,113.575,0.00647118
,,,,,,,,,268,74.6188,0.09518
,,,,,,,,,162,44.8802,0.00482355
,,,,,,,,,181,129.101,0.0509267
,,,,,,,,,201,24.3619,0.0173782
,,,,,,,,,222,99.0955,0.0284505
,,,,,,,,,244,38.8862,0.0125173
,,,,,,,,,267,61.4769,0.00625954
,,,,,,,,,291,67.2109,0.0635683
,,,,,,,,,200,140.828,0.00481398
,,,,,,,,,221,49.2087,0.00407107
,,,,,,,,,243,116.848,0.00447946
,,,,,,,,,266,53.1615,0.00373159
,,,,,,,,,290,37.3521,0.00287482
,,,,,,,,,315,72.0274,0.00490621
,,,,,,,,,242,108.88,0.0172546
,,,,,,,,,265,30.782,0.0281207
,,,,,,,,,289,97.7585,0.012453
,,,,,,,,,314,103.479,0.00624343
,,,,,,,,,340,72.2419,0.0619454
,,,,,,,,,288,78.101,0.0136113
,,,,,,,,,313,14.7205,0.00845957
,,,,,,,,,339,46.5857,0.00504858
,,,,,,,,,366,42.8595,0.0185012
,,,,,,,,,338,67.5249,0.0104368
,,,,,,,,,365,82.7846,0.00569214
,,,,,,,,,393,44.822,0.0315896
,,,,,,,,,392,38.1243,0.00453675
,,,,,,,,,421,28.4346,0.0130895
,,,,,,,,,450,40.2273,0.00639945
