Q	U	V
{$V$}	{[mm$^3$]}	0.00731586
{$d_v$}	{[mm]}	0.240855
{$S_c$}	{[mm$^2$]}	0.382801
{$S_o$}	{[mm$^2$]}	0.224288
{$S_l/S_o$}	[]	0.706739
{$\Psi$}	[]	0.476089
{$\eta$}	[]	0.538021
{med($\theta_e$)}	{[$^\circ$]}	68.0996
{$\Upsilon$}	[]	16
{$\Xi$}	[]	11
