Q	U	V
{$V$}	{[mm$^3$]}	0.0194385
{$d_v$}	{[mm]}	0.333596
{$S_c$}	{[mm$^2$]}	0.484296
{$S_o$}	{[mm$^2$]}	0.368628
{$S_l/S_o$}	[]	0.313780
{$\Psi$}	[]	0.721908
{$\eta$}	[]	0.749494
{med($\theta_e$)}	{[$^\circ$]}	68.7386
{$\Upsilon$}	[]	11
{$\Xi$}	[]	5
