facetNormals:0,facetNormals:1,facetNormals:2,FacetCenters:0,FacetCenters:1,FacetCenters:2,FacetIds,relFacetSize,absFacetSize,cellPairingIds,interplanarAngles,angleWeights
0.116302,0.186764,-0.930914,5.65836,4.06279,13.7038,1,0.0599724,0.0237418,8,40.9042,0.0474973
0.533262,-0.324157,-0.765355,5.76232,3.94497,13.7518,2,0.0393185,0.0155654,13,51.4723,0.0698042
0.097338,-0.621992,-0.729267,5.68227,3.91126,13.7677,3,0.0834917,0.0330526,19,51.4779,0.0365566
-0.674581,-0.00712277,-0.714657,5.54666,4.0834,13.7528,4,0.0262914,0.0104082,26,75.4042,0.0601446
-0.662879,-0.556892,-0.446816,5.57419,3.95983,13.8682,5,0.0603177,0.0238785,34,70.2288,0.054473
0.87318,-0.311245,-0.291074,5.79404,3.93985,13.8598,6,0.0498974,0.0197533,43,65.8153,0.0502648
0.747448,0.53655,-0.194895,5.76694,4.04942,13.7896,7,0.043262,0.0171265,53,87.7331,0.0696786
-0.930316,-0.162009,-0.187862,5.53848,4.0171,13.815,8,0.0831333,0.0329107,64,94.3374,0.0678614
-0.230102,-0.914127,-0.138107,5.66554,3.91748,13.8843,9,0.0781403,0.0309341,76,123.089,0.0295551
-0.781863,-0.48367,0.358957,5.58557,3.94087,13.8812,10,0.0196094,0.00776295,89,98.9697,0.0435869
-0.39462,0.811778,0.264237,5.5651,4.1012,13.8815,11,0.0342337,0.0135524,103,101.956,0.0209176
0.379726,0.810913,0.420728,5.66946,3.99474,13.9609,12,0.012668,0.005015,118,143.256,0.0727617
-0.0960367,-0.688877,0.613379,5.66736,3.90862,13.9163,13,0.0924843,0.0366126,134,128.663,0.0443631
-0.646295,0.368221,0.611119,5.54102,4.045,13.9477,14,0.0352011,0.0139354,151,134.039,0.0364582
0.599051,-0.251081,0.713874,5.7633,3.92314,13.9452,15,0.0261896,0.0103679,169,132.724,0.0417838
0.329237,0.424639,0.795668,5.69151,3.95994,13.9857,16,0.0320605,0.0126921,188,162.29,0.0198232
-0.0449046,0.101614,0.987118,5.64836,3.95885,13.9981,17,0.011874,0.00470068,18,31.4457,0.0534609
,,,,,,,,,25,78.7375,0.0315116
,,,,,,,,,33,79.8829,0.0476052
,,,,,,,,,42,34.6525,0.0439808
,,,,,,,,,52,66.266,0.0411961
,,,,,,,,,63,108.38,0.0533872
,,,,,,,,,75,72.7294,0.0523138
,,,,,,,,,88,123.284,0.026168
,,,,,,,,,102,136.69,0.0366003
,,,,,,,,,117,113.04,0.0191622
,,,,,,,,,133,108.947,0.0551786
,,,,,,,,,150,168.543,0.0371461
,,,,,,,,,168,98.7826,0.0314385
,,,,,,,,,187,127.034,0.0353205
,,,,,,,,,207,145.909,0.0182397
,,,,,,,,,32,60.9367,0.03999
,,,,,,,,,41,49.6507,0.0700375
,,,,,,,,,51,58.3738,0.0624642
,,,,,,,,,62,97.5366,0.0569927
,,,,,,,,,74,80.8683,0.0833121
,,,,,,,,,87,45.1872,0.0807274
,,,,,,,,,101,92.2326,0.0317596
,,,,,,,,,116,144.323,0.0485575
,,,,,,,,,132,144.322,0.0219983
,,,,,,,,,149,91.8081,0.0877582
,,,,,,,,,167,142.683,0.0495228
,,,,,,,,,186,109.221,0.0398722
,,,,,,,,,206,151.427,0.0463303
,,,,,,,,,227,145.368,0.0207912
,,,,,,,,,50,36.4217,0.0366205
,,,,,,,,,61,113.372,0.0344374
,,,,,,,,,73,113.513,0.0327063
,,,,,,,,,86,36.2606,0.0399487
,,,,,,,,,100,73.85,0.0393447
,,,,,,,,,115,73.5702,0.022464
,,,,,,,,,131,85.5582,0.0297414
,,,,,,,,,148,125.355,0.0170978
,,,,,,,,,166,113.86,0.0409434
,,,,,,,,,185,90.205,0.0301008
,,,,,,,,,205,164.157,0.0262404
,,,,,,,,,226,147.27,0.0288907
,,,,,,,,,248,133.815,0.0163596
,,,,,,,,,72,106.916,0.054615
,,,,,,,,,85,140.515,0.0503856
,,,,,,,,,99,32.5325,0.0699111
,,,,,,,,,114,38.8059,0.0680819
,,,,,,,,,130,49.2832,0.0295968
,,,,,,,,,147,109.679,0.0436778
,,,,,,,,,165,157.623,0.0209385
,,,,,,,,,184,78.9465,0.0730153
,,,,,,,,,204,93.0377,0.0444572
,,,,,,,,,225,127.794,0.0365217
,,,,,,,,,247,150.02,0.0418673
,,,,,,,,,270,118.912,0.019842
,,,,,,,,,98,53.5911,0.0463434
,,,,,,,,,113,139.112,0.0623636
,,,,,,,,,129,82.3144,0.0609039
,,,,,,,,,146,131.598,0.0281543
,,,,,,,,,164,137.539,0.0406074
,,,,,,,,,183,92.581,0.0202061
,,,,,,,,,203,93.0528,0.0648219
,,,,,,,,,224,156.353,0.0412803
,,,,,,,,,246,65.1938,0.03435
,,,,,,,,,269,94.6905,0.039038
,,,,,,,,,293,111.783,0.0191831
,,,,,,,,,128,145.433,0.056909
,,,,,,,,,145,135.178,0.055691
,,,,,,,,,163,169.905,0.0269866
,,,,,,,,,182,84.2186,0.0382219
,,,,,,,,,202,46.8026,0.0195975
,,,,,,,,,223,130.027,0.058949
,,,,,,,,,245,116.544,0.0388175
,,,,,,,,,268,78.9545,0.0326275
,,,,,,,,,292,69.3221,0.0368283
,,,,,,,,,317,100.573,0.0186337
,,,,,,,,,162,64.9692,0.0805595
,,,,,,,,,181,39.0186,0.0317335
,,,,,,,,,201,78.149,0.0484967
,,,,,,,,,222,126.282,0.0219858
,,,,,,,,,244,84.4911,0.0875598
,,,,,,,,,267,62.583,0.0494596
,,,,,,,,,291,134.449,0.0398312
,,,,,,,,,316,124.573,0.0462749
,,,,,,,,,342,99.6382,0.02078
,,,,,,,,,200,52.4954,0.0313512
,,,,,,,,,221,140.137,0.0476094
,,,,,,,,,243,160.188,0.0218016
,,,,,,,,,266,50.0677,0.0847094
,,,,,,,,,290,107.27,0.048537
,,,,,,,,,315,90.4308,0.0392307
,,,,,,,,,341,128.854,0.0454663
,,,,,,,,,368,103.373,0.0206154
,,,,,,,,,242,89.336,0.0249355
,,,,,,,,,265,123.44,0.0153923
,,,,,,,,,289,46.6364,0.032358
,,,,,,,,,314,54.8813,0.0251876
,,,,,,,,,340,95.4628,0.0224268
,,,,,,,,,367,100.777,0.0243347
,,,,,,,,,395,69.6901,0.0147914
,,,,,,,,,288,48.2478,0.0184928
,,,,,,,,,313,114.323,0.0499705
,,,,,,,,,339,37.7966,0.0347107
,,,,,,,,,366,106.091,0.0296762
,,,,,,,,,394,61.9199,0.0331114
,,,,,,,,,423,67.2659,0.0176323
,,,,,,,,,338,111.551,0.0222837
,,,,,,,,,365,70.986,0.0186311
,,,,,,,,,393,70.1509,0.0170762
,,,,,,,,,422,32.1598,0.0181604
,,,,,,,,,452,60.7192,0.0122582
,,,,,,,,,392,78.1546,0.0509933
,,,,,,,,,421,51.8161,0.0408199
,,,,,,,,,451,79.3922,0.0476148
,,,,,,,,,482,54.1288,0.021046
,,,,,,,,,450,92.6745,0.030034
,,,,,,,,,481,62.2871,0.0335575
,,,,,,,,,513,45.5486,0.017758
,,,,,,,,,512,44.7039,0.0288292
,,,,,,,,,545,47.1298,0.0163398
,,,,,,,,,578,31.4307,0.0173298
