Q	U	V
{$V$}	{[mm$^3$]}	0.0154594
{$d_v$}	{[mm]}	0.309076
{$S_c$}	{[mm$^2$]}	0.708065
{$S_o$}	{[mm$^2$]}	0.413267
{$S_l/S_o$}	[]	0.713335
{$\Psi$}	[]	0.423844
{$\eta$}	[]	0.448577
{med($\theta_e$)}	{[$^\circ$]}	72.705
{$\Upsilon$}	[]	7
{$\Xi$}	[]	17
