Q	U	V
{$V$}	{[mm$^3$]}	0.00231433
{$d_v$}	{[mm]}	0.164113
{$S_c$}	{[mm$^2$]}	0.161491
{$S_o$}	{[mm$^2$]}	0.095115
{$S_l/S_o$}	[]	0.697850
{$\Psi$}	[]	0.523945
{$\eta$}	[]	0.602133
{med($\theta_e$)}	{[$^\circ$]}	84.85175
{$\Upsilon$}	[]	8
{$\Xi$}	[]	9
