facetNormals:0,facetNormals:1,facetNormals:2,FacetCenters:0,FacetCenters:1,FacetCenters:2,FacetIds,relFacetSize,absFacetSize,cellPairingIds,interplanarAngles,angleWeights
0.363729,-0.384248,-0.822066,6.5456,4.32028,13.3778,1,0.0377244,0.00712218,8,44.5397,0.0469368
-0.328225,-0.148201,-0.888918,6.43621,4.38079,13.3703,2,0.0621026,0.0117247,13,100.547,0.0426092
-0.82733,0.325105,-0.312875,6.35026,4.39973,13.3915,3,0.0489473,0.00924101,19,34.1842,0.0415087
-0.00440878,-0.773105,-0.608443,6.50966,4.28604,13.4039,4,0.046137,0.00871043,26,56.171,0.0569525
-0.137649,-0.917201,-0.272113,6.47199,4.28922,13.4161,5,0.116159,0.0219302,34,82.3239,0.0513126
-0.349461,-0.910588,0.114999,6.46312,4.27907,13.4808,6,0.0802007,0.0151415,43,112.09,0.0229948
-0.880523,-0.388702,0.235204,6.40179,4.34054,13.4949,7,0.0165376,0.00312222,53,135.454,0.0317243
-0.904804,0.152324,0.365555,6.36217,4.40176,13.4813,8,0.0273709,0.00516749,64,89.2743,0.0363946
0.692366,-0.448637,0.5015,6.60577,4.29629,13.5231,9,0.0351554,0.00663717,76,157.015,0.032943
-0.638527,0.487952,0.564725,6.38181,4.41681,13.4929,10,0.0292373,0.00551986,89,128.963,0.0527868
-0.510101,-0.420779,0.68059,6.41551,4.34516,13.5226,11,0.0878722,0.0165898,103,127.84,0.0311392
0.198049,-0.263503,0.932012,6.48686,4.4124,13.5485,12,0.0265113,0.00500521,118,158.817,0.0297355
-0.289549,0.0515102,0.940565,6.45674,4.37445,13.5456,13,0.0245389,0.00463282,134,136.332,0.057391
0.354076,0.322704,0.830836,6.54458,4.3683,13.5372,14,0.119895,0.0226356,18,56.2994,0.0547457
,,,,,,,,,25,45.881,0.0529423
,,,,,,,,,33,62.852,0.0809346
,,,,,,,,,42,80.9952,0.0700008
,,,,,,,,,52,81.6782,0.0261197
,,,,,,,,,63,93.0586,0.0379957
,,,,,,,,,75,130.922,0.0448959
,,,,,,,,,88,112.779,0.0397573
,,,,,,,,,102,114.347,0.0727734
,,,,,,,,,117,154.311,0.0371595
,,,,,,,,,133,142.384,0.0351778
,,,,,,,,,150,168.887,0.081823
,,,,,,,,,32,93.545,0.0475006
,,,,,,,,,41,96.2503,0.0688728
,,,,,,,,,51,92.6566,0.0607924
,,,,,,,,,62,55.5254,0.0247224
,,,,,,,,,74,42.7277,0.0351091
,,,,,,,,,87,164.227,0.0409205
,,,,,,,,,101,56.5485,0.0366079
,,,,,,,,,116,85.3635,0.0628727
,,,,,,,,,132,125.51,0.0343939
,,,,,,,,,149,92.3439,0.0326894
,,,,,,,,,167,119.713,0.069515
,,,,,,,,,50,23.0114,0.0660426
,,,,,,,,,61,48.8697,0.0585766
,,,,,,,,,73,80.4766,0.0243478
,,,,,,,,,86,110.242,0.0343585
,,,,,,,,,100,87.6676,0.0399045
,,,,,,,,,115,137.992,0.0357926
,,,,,,,,,131,95.3191,0.0605057
,,,,,,,,,148,111.993,0.0336733
,,,,,,,,,166,129.052,0.0320378
,,,,,,,,,185,143.305,0.0666329
,,,,,,,,,72,26.1634,0.0948874
,,,,,,,,,85,64.4058,0.0289531
,,,,,,,,,99,96.897,0.0443026
,,,,,,,,,114,78.8962,0.0539752
,,,,,,,,,130,122.732,0.0467161
,,,,,,,,,147,72.8174,0.100055
,,,,,,,,,165,92.3505,0.0431699
,,,,,,,,,184,106.049,0.0405181
,,,,,,,,,204,128.007,0.117997
,,,,,,,,,98,44.9477,0.0274209
,,,,,,,,,113,76.9196,0.0408131
,,,,,,,,,129,76.3204,0.0488832
,,,,,,,,,146,99.3213,0.0428526
,,,,,,,,,164,46.6541,0.0838614
,,,,,,,,,183,73.3667,0.0398498
,,,,,,,,,203,80.3375,0.0375796
,,,,,,,,,224,109.993,0.0961107
,,,,,,,,,128,32.7044,0.0206178
,,,,,,,,,145,109.372,0.0224938
,,,,,,,,,163,58.7136,0.0211258
,,,,,,,,,182,34.7219,0.0278364
,,,,,,,,,202,81.354,0.0203691
,,,,,,,,,223,62.1493,0.019759
,,,,,,,,,245,104.741,0.029066
,,,,,,,,,162,122.437,0.0307786
,,,,,,,,,181,27.7526,0.0282733
,,,,,,,,,201,46.4079,0.0417403
,,,,,,,,,222,82.8596,0.0269343
,,,,,,,,,244,50.9147,0.0258776
,,,,,,,,,267,88.0336,0.0445675
,,,,,,,,,200,113.478,0.0319244
,,,,,,,,,221,78.8659,0.0502193
,,,,,,,,,243,40.7795,0.0302275
,,,,,,,,,266,74.8842,0.0289031
,,,,,,,,,290,56.0558,0.0543689
,,,,,,,,,242,57.2113,0.0438759
,,,,,,,,,265,73.7757,0.0278077
,,,,,,,,,289,40.0278,0.0266828
,,,,,,,,,314,64.8343,0.0470107
,,,,,,,,,288,46.6323,0.0407333
,,,,,,,,,313,34.9848,0.0383643
,,,,,,,,,339,74.1175,0.101416
,,,,,,,,,338,34.2065,0.025487
,,,,,,,,,365,36.7742,0.0434213
,,,,,,,,,392,42.6134,0.0407396
