Q	U	V
{$V$}	{[mm$^3$]}	0.00537913
{$d_v$}	{[mm]}	0.217389
{$S_c$}	{[mm$^2$]}	0.328258
{$S_o$}	{[mm$^2$]}	0.222543
{$S_l/S_o$}	[]	0.475032
{$\Psi$}	[]	0.452283
{$\eta$}	[]	0.485240
{med($\theta_e$)}	{[$^\circ$]}	70.2017
{$\Upsilon$}	[]	11
{$\Xi$}	[]	17
