Q	U	V
{$V$}	{[mm$^3$]}	0.00418812
{$d_v$}	{[mm]}	0.199989
{$S_c$}	{[mm$^2$]}	0.211328
{$S_o$}	{[mm$^2$]}	0.100617
{$S_l/S_o$}	[]	1.100321
{$\Psi$}	[]	0.594575
{$\eta$}	[]	0.606701
{med($\theta_e$)}	{[$^\circ$]}	55.0859
{$\Upsilon$}	[]	16
{$\Xi$}	[]	6
