Q	U	V
{$V$}	{[mm$^3$]}	0.00349584
{$d_v$}	{[mm]}	0.188300
{$S_c$}	{[mm$^2$]}	0.229536
{$S_o$}	{[mm$^2$]}	0.138752
{$S_l/S_o$}	[]	0.654290
{$\Psi$}	[]	0.48529
{$\eta$}	[]	0.502475
{med($\theta_e$)}	{[$^\circ$]}	72.97555
{$\Upsilon$}	[]	11
{$\Xi$}	[]	9
