facetNormals:0,facetNormals:1,facetNormals:2,FacetCenters:0,FacetCenters:1,FacetCenters:2,FacetIds,relFacetSize,absFacetSize,cellPairingIds,interplanarAngles,angleWeights
0.328206,-0.275333,-0.872116,5.38203,4.22219,12.2346,1,0.047132,0.00527578,8,23.004,0.0182672
0.56114,0.0351402,-0.817075,5.39517,4.23213,12.1655,2,0.0113291,0.00126813,13,38.9419,0.0422811
-0.103274,-0.712491,-0.66067,5.36667,4.23936,12.2262,3,0.0383355,0.00429114,19,78.9683,0.0228855
-0.382281,0.668118,-0.557408,5.36562,4.31349,12.2834,4,0.0151116,0.00169153,26,32.2265,0.0390097
0.537998,-0.635339,-0.524187,5.41129,4.18954,12.2292,5,0.0332754,0.00372472,34,48.9841,0.0455087
0.279131,-0.878953,-0.334824,5.38438,4.19321,12.1822,6,0.0439934,0.00492446,43,51.0927,0.0268504
0.845714,-0.466048,-0.229036,5.43917,4.19685,12.2498,7,0.0187724,0.00210131,53,89.6619,0.0390263
0.298447,0.913845,-0.182624,5.38233,4.31439,12.3251,8,0.0332994,0.00372741,64,74.1026,0.0720665
0.840655,0.463814,-0.125565,5.44212,4.27408,12.2966,9,0.153019,0.0171284,76,89.3981,0.00477644
-0.436003,-0.88827,0.104705,5.36121,4.18289,12.2145,10,0.00251569,0.000281597,89,73.3214,0.0490133
0.924406,-0.270192,0.12274,5.43142,4.20889,12.2677,11,0.051051,0.00571446,103,111.665,0.0651508
0.4547,0.800446,0.319166,5.33526,4.33528,12.349,12,0.105474,0.0118064,118,107.496,0.0243008
-0.658505,-0.623882,0.265763,5.38751,4.19714,12.2606,13,0.0163707,0.00183247,134,106.326,0.0513813
0.78164,0.0828936,0.57253,5.4273,4.24342,12.3442,14,0.0564727,0.00632134,151,150.78,0.01866
-0.163415,0.701563,0.680735,5.335,4.32681,12.3728,15,0.0116327,0.00130212,169,168.179,0.0474049
-0.387049,0.441134,0.776401,5.34963,4.30495,12.3774,16,0.047681,0.00533724,188,138.69,0.0473753
0.299449,0.540005,0.764876,5.33407,4.32464,12.3632,17,0.0476211,0.00533053,18,61.8767,0.0174895
,,,,,,,,,25,73.7096,0.0129498
,,,,,,,,,33,43.4939,0.0169032
,,,,,,,,,42,65.7724,0.0180181
,,,,,,,,,52,49.0337,0.0141304
,,,,,,,,,63,68.9374,0.0169063
,,,,,,,,,75,52.0492,0.0210962
,,,,,,,,,88,111.483,0.00411715
,,,,,,,,,102,64.8698,0.0185431
,,,,,,,,,117,88.6661,0.0204604
,,,,,,,,,133,130.477,0.0133911
,,,,,,,,,150,91.5612,0.0188722
,,,,,,,,,168,129.348,0.0114789
,,,,,,,,,187,150.012,0.0183081
,,,,,,,,,207,116.692,0.0183037
,,,,,,,,,32,94.2169,0.0216779
,,,,,,,,,41,39.3445,0.0356267
,,,,,,,,,51,31.3603,0.0409701
,,,,,,,,,62,65.8959,0.0252031
,,,,,,,,,74,125.945,0.0356405
,,,,,,,,,87,110.692,0.061311
,,,,,,,,,101,51.2376,0.00472154
,,,,,,,,,116,89.0365,0.0437889
,,,,,,,,,132,150.439,0.0562327
,,,,,,,,,149,68.6052,0.0229436
,,,,,,,,,167,123.038,0.0456693
,,,,,,,,,186,164.389,0.0178492
,,,,,,,,,206,145.878,0.0425006
,,,,,,,,,227,163.505,0.0424768
,,,,,,,,,50,111.19,0.0207843
,,,,,,,,,61,122.962,0.0224959
,,,,,,,,,73,122.517,0.0167442
,,,,,,,,,86,49.9613,0.020789
,,,,,,,,,100,86.3548,0.0275067
,,,,,,,,,115,120.866,0.00431333
,,,,,,,,,131,130.751,0.0233202
,,,,,,,,,148,78.5978,0.0264357
,,,,,,,,,166,110.406,0.0157159
,,,,,,,,,185,127.496,0.023843
,,,,,,,,,205,80.7289,0.0131459
,,,,,,,,,226,89.3855,0.0229497
,,,,,,,,,248,101.111,0.0229428
,,,,,,,,,72,23.6558,0.037891
,,,,,,,,,85,26.8418,0.0240032
,,,,,,,,,99,109.687,0.0332874
,,,,,,,,,114,76.4363,0.0546636
,,,,,,,,,130,73.6908,0.00467774
,,,,,,,,,147,50.7247,0.0402897
,,,,,,,,,165,116.736,0.0505903
,,,,,,,,,184,96.0002,0.0219449
,,,,,,,,,204,85.9395,0.0418761
,,,,,,,,,225,155.96,0.0172389
,,,,,,,,,247,159.268,0.0391965
,,,,,,,,,270,127.068,0.0391762
,,,,,,,,,98,42.1048,0.0263156
,,,,,,,,,113,133.329,0.0379066
,,,,,,,,,129,97.9245,0.0683392
,,,,,,,,,146,50.2695,0.00475924
,,,,,,,,,164,61.5062,0.0472602
,,,,,,,,,183,135.644,0.0620893
,,,,,,,,,203,72.7138,0.0238619
,,,,,,,,,224,92.7862,0.049458
,,,,,,,,,246,156.271,0.0184001
,,,,,,,,,269,142.322,0.0457631
,,,,,,,,,293,132.145,0.0457354
,,,,,,,,,128,97.7924,0.0240095
,,,,,,,,,145,56.987,0.033442
,,,,,,,,,163,88.7663,0.00443681
,,,,,,,,,182,24.0901,0.0274506
,,,,,,,,,202,93.6525,0.0318721
,,,,,,,,,223,110.402,0.0174894
,,,,,,,,,245,59.3981,0.0281779
,,,,,,,,,268,129.156,0.0143643
,,,,,,,,,292,137.38,0.0269387
,,,,,,,,,317,100.251,0.0269292
,,,,,,,,,162,42.5807,0.0546961
,,,,,,,,,181,170.74,0.00467798
,,,,,,,,,201,89.6045,0.0403073
,,,,,,,,,222,31.9603,0.0506181
,,,,,,,,,244,151.804,0.0219502
,,,,,,,,,267,77.5915,0.0418952
,,,,,,,,,291,61.1455,0.0172421
,,,,,,,,,316,81.1922,0.0392132
,,,,,,,,,342,62.5669,0.0391929
,,,,,,,,,200,145.253,0.00495001
,,,,,,,,,221,47.3957,0.0765598
,,,,,,,,,243,40.87,0.124874
,,,,,,,,,266,163.222,0.029577
,,,,,,,,,290,48.5223,0.0824987
,,,,,,,,,315,83.8662,0.0216217
,,,,,,,,,341,103.391,0.0727066
,,,,,,,,,368,64.7415,0.0726369
,,,,,,,,,242,98.9439,0.00479509
,,,,,,,,,265,154.609,0.00491418
,,,,,,,,,289,22.4745,0.0043612
,,,,,,,,,314,111.491,0.00481681
,,,,,,,,,340,119.169,0.00413677
,,,,,,,,,367,98.4198,0.00477923
,,,,,,,,,395,122.82,0.00477893
,,,,,,,,,288,75.1006,0.0688012
,,,,,,,,,313,116.365,0.0247914
,,,,,,,,,339,35.3099,0.0536252
,,,,,,,,,366,105.495,0.0189479
,,,,,,,,,394,113.825,0.0493085
,,,,,,,,,423,76.3769,0.0492765
,,,,,,,,,338,140.827,0.0283423
,,,,,,,,,365,50.3567,0.07356
,,,,,,,,,393,43.1497,0.0209544
,,,,,,,,,422,63.3786,0.0656735
,,,,,,,,,452,31.9684,0.0656166
,,,,,,,,,392,116.788,0.0253831
,,,,,,,,,421,99.1619,0.0136009
,,,,,,,,,451,78.3355,0.0243731
,,,,,,,,,482,110.856,0.0243653
,,,,,,,,,450,70.5979,0.0192916
,,,,,,,,,481,79.1256,0.0517058
,,,,,,,,,513,41.4272,0.0516706
,,,,,,,,,512,20.8781,0.0187026
,,,,,,,,,545,29.1844,0.018698
,,,,,,,,,578,41.5334,0.0476511
