Q	U	V
{$V$}	{[mm$^3$]}	0.00832875
{$d_v$}	{[mm]}	0.251494
{$S_c$}	{[mm$^2$]}	0.495517
{$S_o$}	{[mm$^2$]}	0.270471
{$S_l/S_o$}	[]	0.832052
{$\Psi$}	[]	0.401001
{$\eta$}	[]	0.413522
{med($\theta_e$)}	{[$^\circ$]}	89.8883
{$\Upsilon$}	[]	7
{$\Xi$}	[]	3
