Q	U	V
{$V$}	{[mm$^3$]}	0.00718049
{$d_v$}	{[mm]}	0.239360
{$S_c$}	{[mm$^2$]}	0.276883
{$S_o$}	{[mm$^2$]}	0.215652
{$S_l/S_o$}	[]	0.283934
{$\Psi$}	[]	0.650066
{$\eta$}	[]	0.672418
{med($\theta_e$)}	{[$^\circ$]}	59.07075
{$\Upsilon$}	[]	16
{$\Xi$}	[]	15
