Q	U	V
{$V$}	{[mm$^3$]}	0.00167311
{$d_v$}	{[mm]}	0.147291
{$S_c$}	{[mm$^2$]}	0.160347
{$S_o$}	{[mm$^2$]}	0.034253
{$S_l/S_o$}	[]	3.681254
{$\Psi$}	[]	0.42505
{$\eta$}	[]	0.447195
{med($\theta_e$)}	{[$^\circ$]}	
{$\Upsilon$}	[]	19
{$\Xi$}	[]	4
