facetNormals:0,facetNormals:1,facetNormals:2,FacetCenters:0,FacetCenters:1,FacetCenters:2,FacetIds,relFacetSize,absFacetSize,cellPairingIds,interplanarAngles,angleWeights
-0.154637,0.21105,-0.945557,3.77873,4.52234,13.9856,1,0.0414769,0.00237576,8,56.1124,0.0473737
0.628854,-0.216223,-0.716721,3.85855,4.54335,13.9819,2,0.0552251,0.00316325,13,43.3163,0.0512743
-0.483483,-0.408433,-0.756971,3.79896,4.51861,13.979,3,0.0671318,0.00384525,19,35.2212,0.0384703
-0.144976,0.724719,-0.647292,3.81033,4.57958,13.975,4,0.0358702,0.00205461,26,79.7157,0.0501393
0.518379,-0.710025,-0.42406,3.84103,4.46783,14.0138,5,0.0633752,0.00363008,34,56.9435,0.043359
0.138234,0.893127,-0.377605,3.82189,4.59699,14.0294,6,0.0454201,0.00260163,43,89.9282,0.032989
0.809135,-0.507361,-0.246853,3.86744,4.4929,14.0225,7,0.0273849,0.00156859,53,52.8478,0.0449273
-0.678278,0.595281,-0.366583,3.7527,4.57043,14.0131,8,0.0490039,0.0028069,64,86.7472,0.0364033
0.66629,0.728751,-0.00444248,3.86754,4.57739,14.043,9,0.0324356,0.00185788,76,79.062,0.0632345
0.0434113,0.965695,0.0180965,3.8154,4.59677,14.041,10,0.133006,0.00761846,89,101.305,0.0396428
0.936183,-0.331076,-0.024969,3.87498,4.5159,14.0464,11,0.0379641,0.00217455,103,117.498,0.0528821
0.931862,-0.121713,0.291867,3.87662,4.52837,14.0478,12,0.0729386,0.00417786,118,125.047,0.0306297
-0.616506,-0.364121,0.561813,3.78956,4.51561,14.049,13,0.02428,0.00139074,134,110.561,0.00857508
-0.829683,0.0911502,0.513062,3.76726,4.57831,14.0587,14,0.00478185,0.0002739,151,118.161,0.0271109
0.430321,0.680021,0.562075,3.83844,4.58651,14.0935,15,0.0201364,0.0011534,169,154.734,0.00780462
0.0552191,-0.584258,0.766028,3.78635,4.53658,14.0489,16,0.00430759,0.000246735,18,70.1981,0.0605991
,,,,,,,,,25,77.0011,0.0434915
,,,,,,,,,33,34.818,0.0590201
,,,,,,,,,42,80.1117,0.049845
,,,,,,,,,52,34.433,0.0366139
,,,,,,,,,63,107.888,0.0519288
,,,,,,,,,75,74.0924,0.040868
,,,,,,,,,88,101.872,0.0780452
,,,,,,,,,102,45.7059,0.044996
,,,,,,,,,117,65.2279,0.0628577
,,,,,,,,,133,143.106,0.0337303
,,,,,,,,,150,161.647,0.00880158
,,,,,,,,,168,106.918,0.029512
,,,,,,,,,187,114.281,0.00799181
,,,,,,,,,32,74.1921,0.0467569
,,,,,,,,,41,68.0258,0.0651994
,,,,,,,,,51,98.6757,0.0541818
,,,,,,,,,62,89.8304,0.0389011
,,,,,,,,,74,67.8548,0.056653
,,,,,,,,,87,129.248,0.0437384
,,,,,,,,,101,116.731,0.0892278
,,,,,,,,,116,107.732,0.0485004
,,,,,,,,,132,129.818,0.0699149
,,,,,,,,,149,88.6272,0.0356619
,,,,,,,,,167,91.4501,0.00892776
,,,,,,,,,186,160.198,0.0309802
,,,,,,,,,206,112.732,0.0080957
,,,,,,,,,50,109.192,0.0458113
,,,,,,,,,61,25.0684,0.0400842
,,,,,,,,,73,109.607,0.0310584
,,,,,,,,,86,36.7251,0.0414209
,,,,,,,,,100,63.3974,0.0340665
,,,,,,,,,115,44.1245,0.0565023
,,,,,,,,,131,111.616,0.0368874
,,,,,,,,,148,115.238,0.0480902
,,,,,,,,,166,127.004,0.0289584
,,,,,,,,,185,98.7096,0.00843873
,,,,,,,,,205,86.0393,0.0257932
,,,,,,,,,226,167.979,0.00769151
,,,,,,,,,72,114.889,0.052916
,,,,,,,,,85,23.2898,0.0382442
,,,,,,,,,99,130.608,0.0552706
,,,,,,,,,114,100.169,0.0429098
,,,,,,,,,130,135.306,0.0858461
,,,,,,,,,147,41.0678,0.0474837
,,,,,,,,,165,62.3518,0.0678214
,,,,,,,,,184,109.689,0.0351091
,,,,,,,,,204,138.154,0.00889271
,,,,,,,,,225,121.326,0.0305622
,,,,,,,,,247,82.765,0.00806687
,,,,,,,,,98,104.878,0.0341687
,,,,,,,,,113,52.8382,0.047144
,,,,,,,,,129,39.6531,0.0378451
,,,,,,,,,146,24.5106,0.0677159
,,,,,,,,,164,99.2775,0.0413588
,,,,,,,,,183,95.3638,0.0559803
,,,,,,,,,203,134.299,0.0316441
,,,,,,,,,224,103.684,0.00865273
,,,,,,,,,246,61.7828,0.0279025
,,,,,,,,,269,148.216,0.00786889
,,,,,,,,,128,142.31,0.0351352
,,,,,,,,,145,79.9203,0.0296971
,,,,,,,,,163,118.789,0.0454185
,,,,,,,,,182,18.0463,0.0318182
,,,,,,,,,202,39.9906,0.0398196
,,,,,,,,,223,120.288,0.0257392
,,,,,,,,,245,150.87,0.00814197
,,,,,,,,,268,98.049,0.0232078
,,,,,,,,,292,80.8108,0.00744421
,,,,,,,,,162,90.9823,0.0390344
,,,,,,,,,181,55.1034,0.0716204
,,,,,,,,,201,148.268,0.0427833
,,,,,,,,,222,147.845,0.0586223
,,,,,,,,,244,90.2936,0.0324714
,,,,,,,,,267,63.2911,0.00871343
,,,,,,,,,291,95.589,0.0285437
,,,,,,,,,316,135.122,0.00791906
,,,,,,,,,200,39.8827,0.0521529
,,,,,,,,,221,67.0403,0.0349828
,,,,,,,,,243,56.8825,0.044903
,,,,,,,,,266,139.037,0.0277714
,,,,,,,,,290,120.338,0.00833491
,,,,,,,,,315,36.437,0.0248473
,,,,,,,,,341,114.318,0.00760517
,,,,,,,,,242,106.922,0.0590683
,,,,,,,,,265,94.3281,0.0942124
,,,,,,,,,289,114.738,0.0410638
,,,,,,,,,314,86.2902,0.00923179
,,,,,,,,,340,43.751,0.0349774
,,,,,,,,,367,125.966,0.00834491
,,,,,,,,,288,22.1403,0.0499366
,,,,,,,,,313,121.373,0.0296178
,,,,,,,,,339,147.383,0.00849383
,,,,,,,,,366,80.3356,0.0263151
,,,,,,,,,394,76.3625,0.00773726
,,,,,,,,,338,114.135,0.0364323
,,,,,,,,,365,131.155,0.00897528
,,,,,,,,,393,60.0473,0.0315599
,,,,,,,,,422,68.6222,0.00813475
,,,,,,,,,392,30.7194,0.00799008
,,,,,,,,,421,102.748,0.0220149
,,,,,,,,,451,46.0923,0.00731703
,,,,,,,,,450,90.3972,0.00772841
,,,,,,,,,481,71.8859,0.00453234
,,,,,,,,,512,86.549,0.00709698
