facetNormals:0,facetNormals:1,facetNormals:2,FacetCenters:0,FacetCenters:1,FacetCenters:2,FacetIds,relFacetSize,absFacetSize,cellPairingIds,interplanarAngles,angleWeights
-0.35589,-0.171457,-0.795104,4.44481,6.0084,10.8495,1,0.0828809,0.0122104,8,79.754,0.0941631
0.756204,-0.249669,-0.468113,4.5061,6.05562,10.822,2,0.109001,0.0160585,13,64.1079,0.0472163
-0.44926,-0.854204,-0.0872349,4.37278,5.98623,10.8984,3,0.0330112,0.00486336,19,94.8361,0.0766867
0.445866,-0.841457,0.0717816,4.42987,5.95932,10.8847,4,0.071354,0.0105122,26,99.9184,0.0439884
-0.502246,-0.62935,0.54783,4.38065,5.98986,10.9051,5,0.0299392,0.00441078,34,148.047,0.0478629
0.818464,0.187125,0.538104,4.46763,6.07385,10.9133,6,0.0336468,0.00495699,43,115.912,0.0578815
-0.562541,0.503155,0.619859,4.37413,6.06733,10.9221,7,0.0444685,0.00655129,53,137.414,0.0886624
0.434286,-0.492153,0.701612,4.44693,5.98797,10.9267,8,0.0953109,0.0140416,64,144.584,0.0687092
0.0757858,0.663924,0.71052,4.42578,6.1274,10.913,9,0.0586762,0.00864444,76,152.192,0.110381
0.608658,0.44179,0.556146,4.48217,6.09298,10.8807,10,0.16519,0.0243365,89,128.756,0.0857422
-0.420176,-0.0149308,0.861159,4.36148,6.03512,10.948,11,0.0888082,0.0130836,18,95.489,0.0506753
,,,,,,,,,25,54.3904,0.0862483
,,,,,,,,,33,122.18,0.0469756
,,,,,,,,,42,69.6521,0.0514208
,,,,,,,,,52,158.811,0.063167
,,,,,,,,,63,82.0435,0.101697
,,,,,,,,,75,119.309,0.0762866
,,,,,,,,,88,84.046,0.131338
,,,,,,,,,102,144.105,0.0978739
,,,,,,,,,32,56.3951,0.0451392
,,,,,,,,,41,40.7056,0.0314003
,,,,,,,,,51,126.475,0.033326
,,,,,,,,,62,104.136,0.0378927
,,,,,,,,,74,79.8494,0.049038
,,,,,,,,,87,134.554,0.0422517
,,,,,,,,,101,140.49,0.0550262
,,,,,,,,,116,82.1774,0.0481314
,,,,,,,,,50,68.2284,0.0421802
,,,,,,,,,61,75.0242,0.0457298
,,,,,,,,,73,132.466,0.0547908
,,,,,,,,,86,44.1695,0.0816107
,,,,,,,,,100,120.579,0.0643971
,,,,,,,,,115,93.88,0.0996599
,,,,,,,,,131,97.0903,0.0791301
,,,,,,,,,72,103.945,0.0316849
,,,,,,,,,85,71.268,0.0357853
,,,,,,,,,99,59.4225,0.0455654
,,,,,,,,,114,94.024,0.0396482
,,,,,,,,,130,107.839,0.0506911
,,,,,,,,,147,42.1255,0.0447816
,,,,,,,,,98,91.9251,0.038308
,,,,,,,,,113,48.0163,0.0497358
,,,,,,,,,129,54.2274,0.0427686
,,,,,,,,,146,19.3492,0.0559063
,,,,,,,,,164,82.9858,0.0488034
,,,,,,,,,128,93.4846,0.0606431
,,,,,,,,,145,39.8026,0.0505938
,,,,,,,,,163,75.7659,0.0700734
,,,,,,,,,182,35.4271,0.0592626
,,,,,,,,,162,77.3848,0.0726357
,,,,,,,,,181,60.8972,0.120878
,,,,,,,,,201,62.2239,0.0919447
,,,,,,,,,200,36.3743,0.0865939
,,,,,,,,,221,52.4158,0.0706641
,,,,,,,,,242,76.0175,0.115514
