facetNormals:0,facetNormals:1,facetNormals:2,FacetCenters:0,FacetCenters:1,FacetCenters:2,FacetIds,relFacetSize,absFacetSize,cellPairingIds,interplanarAngles,angleWeights
0.273268,-0.775768,-0.50213,5.41707,4.49769,10.5671,1,0.0587091,0.0138905,8,31.4396,0.0474653
-0.249002,-0.775213,-0.517704,5.34346,4.53871,10.5214,2,0.039836,0.00942518,13,37.7506,0.0381622
0.771376,-0.395061,-0.455548,5.33705,4.55999,10.5331,3,0.0282687,0.00668836,19,90.3573,0.0547187
-0.847155,-0.00378309,-0.443749,5.16862,4.58657,10.5086,4,0.0512362,0.0121224,26,64.7286,0.0378201
0.916495,-0.0160884,-0.256127,5.40563,4.53397,10.5639,5,0.027895,0.00659993,34,122.118,0.0915772
0.490209,0.810735,-0.0189093,5.36871,4.5905,10.56,6,0.208058,0.0492263,43,147.696,0.0610061
0.0451834,0.977625,0.112076,5.25492,4.63694,10.5518,7,0.0634901,0.0150217,53,101.798,0.0520356
-0.865669,-0.273147,0.32985,5.18175,4.56015,10.5588,8,0.0467243,0.0110549,64,167.264,0.0512303
-0.131879,0.720647,0.657264,5.26581,4.60253,10.6337,9,0.0454417,0.0107515,76,108.912,0.0572722
-0.576265,-0.286971,0.739681,5.24211,4.5174,10.6389,10,0.0559039,0.0132268,89,130.172,0.0659885
-0.270037,0.082674,0.937773,5.30845,4.52763,10.6876,11,0.0753284,0.0178227,103,111.809,0.0417437
0.25296,-0.060743,0.898274,5.42322,4.48623,10.6952,12,0.0323852,0.00766231,18,68.2528,0.0330701
,,,,,,,,,25,61.266,0.0448226
,,,,,,,,,33,95.1944,0.0328129
,,,,,,,,,42,144.114,0.0668689
,,,,,,,,,52,150.488,0.0489556
,,,,,,,,,63,74.0209,0.0430061
,,,,,,,,,75,155.783,0.0424546
,,,,,,,,,88,91.0284,0.0465217
,,,,,,,,,102,120.692,0.0521131
,,,,,,,,,117,122.208,0.0357263
,,,,,,,,,32,118.712,0.036435
,,,,,,,,,41,27.0386,0.0280806
,,,,,,,,,51,85.8922,0.0497746
,,,,,,,,,62,114.661,0.0391196
,,,,,,,,,74,138.673,0.0352256
,,,,,,,,,87,135.374,0.0348547
,,,,,,,,,101,134.097,0.0375498
,,,,,,,,,116,134.171,0.04111
,,,,,,,,,132,101.982,0.0301873
,,,,,,,,,50,136.726,0.0361231
,,,,,,,,,61,116.896,0.0822239
,,,,,,,,,73,95.5865,0.0567087
,,,,,,,,,86,50.4594,0.0488763
,,,,,,,,,100,101.19,0.0481653
,,,,,,,,,115,80.112,0.0534684
,,,,,,,,,131,101.559,0.0609892
,,,,,,,,,148,133.239,0.0396858
,,,,,,,,,72,60.7211,0.0491943
,,,,,,,,,85,90.1848,0.0387603
,,,,,,,,,99,161.849,0.034934
,,,,,,,,,114,108.73,0.0345692
,,,,,,,,,130,139.814,0.0372186
,,,,,,,,,147,121.643,0.0407133
,,,,,,,,,165,89.8235,0.0299728
,,,,,,,,,98,29.4764,0.0972912
,,,,,,,,,113,135.435,0.0763111
,,,,,,,,,129,57.0578,0.0745918
,,,,,,,,,146,124.711,0.0881282
,,,,,,,,,164,95.1361,0.11061
,,,,,,,,,183,86.2622,0.0560464
,,,,,,,,,128,106.435,0.053832
,,,,,,,,,145,37.2037,0.0529707
,,,,,,,,,163,103.39,0.059456
,,,,,,,,,182,79.626,0.0689045
,,,,,,,,,202,86.7192,0.0428919
,,,,,,,,,162,81.889,0.0460741
,,,,,,,,,181,29.8741,0.0509036
,,,,,,,,,201,56.6138,0.0576746
,,,,,,,,,222,84.0321,0.0382552
,,,,,,,,,200,68.3956,0.0501328
,,,,,,,,,221,42.4236,0.056687
,,,,,,,,,243,56.1079,0.0378182
,,,,,,,,,242,30.7272,0.0641786
,,,,,,,,,265,54.2256,0.041012
,,,,,,,,,288,32.8953,0.0452965
