"cellPairingIds","interplanarAngles","angleWeights"
8,48.1116,0.087323
13,121.114,0.0296918
19,48.2953,0.0457866
43,56.6014,0.0454611
18,94.4117,0.0346683
25,49.5135,0.0588031
63,49.6758,0.111295
41,110.959,0.0195532
51,52.1705,0.032289
62,130.445,0.0253872
74,98.7443,0.0320382
101,70.3075,0.0256121
116,94.0999,0.0270534
73,78.7207,0.0362963
86,50.1294,0.0516159
100,42.1768,0.0249476
131,78.3065,0.039801
148,53.8167,0.0247147
166,73.867,0.0437715
85,30.4485,0.0253421
130,58.4443,0.0255662
184,55.2246,0.0287729
113,52.9577,0.0900033
164,44.9762,0.0593056
145,39.7607,0.0248507
223,59.6236,0.0434739
201,44.4502,0.058465
266,47.1599,0.028141
242,83.7009,0.0401035
289,70.5223,0.0441377
340,65.3356,0.0521074
288,48.5573,0.0261834
366,36.692,0.0584417
338,30.4395,0.027845
393,29.3968,0.0308186
421,35.4489,0.0674218
