"cellPairingIds","interplanarAngles","angleWeights"
8,51.3223,0.0289886
13,35.2846,0.08968
19,37.9799,0.0504643
89,138.789,0.0638477
25,28.0872,0.0250969
33,26.9457,0.0200853
102,132.899,0.0280176
32,51.406,0.0606061
62,34.8356,0.0627734
116,141.819,0.0809963
50,50.3265,0.0284841
61,38.8728,0.0361104
73,64.376,0.0406577
72,46.814,0.0265711
147,113.54,0.0323064
165,95.3713,0.0374308
98,62.6922,0.0368688
146,59.6072,0.0327126
183,105.699,0.0518095
163,32.5101,0.0364007
182,134.883,0.0489193
242,114.438,0.0418622
265,90.7978,0.0508899
288,36.9551,0.0792385
