facetNormals:0,facetNormals:1,facetNormals:2,FacetCenters:0,FacetCenters:1,FacetCenters:2,FacetIds,relFacetSize,absFacetSize,cellPairingIds,interplanarAngles,angleWeights
-0.181568,-0.298772,-0.861227,4.00876,6.16872,13.8925,1,0.0133778,0.00161834,8,77.2407,0.0150137
-0.349174,0.806705,-0.440617,4.03282,6.3159,13.8685,2,0.0171054,0.00206927,13,91.3251,0.0240376
0.914156,-0.165792,-0.111855,4.0697,6.22522,13.8956,3,0.118306,0.0143118,19,98.2731,0.020128
0.067981,0.934168,-0.189991,4.03295,6.32436,13.8834,4,0.0406278,0.00491482,26,121.102,0.0127433
0.630498,0.743278,0.159862,4.07281,6.32989,13.8827,5,0.0121662,0.00147176,34,87.2481,0.0224925
-0.378185,-0.798523,0.308262,3.97369,6.10648,13.9373,6,0.0705819,0.00853843,43,128.044,0.0146896
-0.00271381,0.920261,0.332005,4.01697,6.34161,13.9066,7,0.0162866,0.00197022,53,145.781,0.0248445
0.632007,0.0046771,0.720384,4.06155,6.22141,13.9418,8,0.173911,0.0210384,64,122.104,0.023729
-0.682841,0.0115732,0.701498,3.92602,6.19624,13.9414,9,0.10488,0.0126876,76,142.861,0.0240198
-0.399467,0.462031,0.768504,3.95823,6.27475,13.9461,10,0.117453,0.0142086,89,164.402,0.0216534
0.189498,0.556045,0.793156,4.03235,6.31216,13.9388,11,0.0567735,0.006868,103,141.56,0.0208267
-0.314404,-0.0886625,0.931434,3.97912,6.17407,13.967,12,0.0469924,0.00568477,18,116.021,0.0298892
,,,,,,,,,25,30.0316,0.0240747
,,,,,,,,,33,71.4469,0.014219
,,,,,,,,,42,134.764,0.0275372
,,,,,,,,,52,51.6367,0.016686
,,,,,,,,,63,124.544,0.0311472
,,,,,,,,,75,93.6525,0.0294135
,,,,,,,,,88,79.6395,0.0298618
,,,,,,,,,102,88.0562,0.0262898
,,,,,,,,,117,112.547,0.0250811
,,,,,,,,,32,94.5843,0.0604845
,,,,,,,,,41,61.9054,0.0220634
,,,,,,,,,51,106.439,0.0884151
,,,,,,,,,62,102.118,0.0286317
,,,,,,,,,74,56.3906,0.140818
,,,,,,,,,87,140.272,0.111189
,,,,,,,,,101,125.064,0.117878
,,,,,,,,,116,90.4762,0.0767269
,,,,,,,,,132,114.082,0.0672661
,,,,,,,,,50,41.5132,0.018725
,,,,,,,,,61,158.174,0.0515708
,,,,,,,,,73,31.5936,0.0232521
,,,,,,,,,86,95.6099,0.065868
,,,,,,,,,100,100.399,0.0585679
,,,,,,,,,115,74.0094,0.0603724
,,,,,,,,,131,66.1359,0.0473624
,,,,,,,,,148,107.341,0.0435789
,,,,,,,,,72,147.868,0.0207548
,,,,,,,,,85,40.4449,0.013928
,,,,,,,,,99,56.885,0.0227414
,,,,,,,,,114,108.685,0.0218031
,,,,,,,,,130,77.2242,0.0220485
,,,,,,,,,147,47.4236,0.0200383
,,,,,,,,,165,96.788,0.0193283
,,,,,,,,,98,133.612,0.0264662
,,,,,,,,,113,91.3216,0.100412
,,,,,,,,,129,59.4814,0.0843788
,,,,,,,,,146,88.8129,0.0881758
,,,,,,,,,164,107.074,0.0629291
,,,,,,,,,183,58.9202,0.0564207
,,,,,,,,,128,75.0568,0.029784
,,,,,,,,,145,75.1545,0.0281949
,,,,,,,,,163,44.8028,0.0286065
,,,,,,,,,182,36.6685,0.025312
,,,,,,,,,202,76.3124,0.0241896
,,,,,,,,,162,85.486,0.130849
,,,,,,,,,181,71.191,0.140212
,,,,,,,,,201,42.8254,0.0856021
,,,,,,,,,222,60.0766,0.0739917
,,,,,,,,,200,31.7529,0.110811
,,,,,,,,,221,63.3497,0.0736688
,,,,,,,,,243,26.2019,0.0649041
,,,,,,,,,242,35.3004,0.0765466
,,,,,,,,,265,34.3006,0.0671275
,,,,,,,,,288,49.7179,0.051422
