Q	U	V
{$V$}	{[mm$^3$]}	0.00555606
{$d_v$}	{[mm]}	0.219747
{$S_c$}	{[mm$^2$]}	0.30742
{$S_o$}	{[mm$^2$]}	0.157241
{$S_l/S_o$}	[]	0.955088
{$\Psi$}	[]	0.493473
{$\eta$}	[]	0.524641
{med($\theta_e$)}	{[$^\circ$]}	70.7164
{$\Upsilon$}	[]	16
{$\Xi$}	[]	10
