Q	U	V
{$V$}	{[mm$^3$]}	0.0113377
{$d_v$}	{[mm]}	0.278725
{$S_c$}	{[mm$^2$]}	0.494426
{$S_o$}	{[mm$^2$]}	0.315505
{$S_l/S_o$}	[]	0.567094
{$\Psi$}	[]	0.493628
{$\eta$}	[]	0.524817
{med($\theta_e$)}	{[$^\circ$]}	59.6147
{$\Upsilon$}	[]	14
{$\Xi$}	[]	4
