"cellPairingIds","interplanarAngles","angleWeights"
18,68.2283,0.0693427
25,49.1667,0.0781172
33,100.858,0.0380983
42,35.9747,0.0303479
52,123.597,0.0301677
133,103.817,0.100778
32,50.4985,0.0634571
62,56.3319,0.0276966
61,65.2827,0.0291641
73,96.5305,0.0289976
86,53.8273,0.0305907
100,47.8016,0.0736115
85,34.5927,0.0208628
184,97.275,0.0404744
113,25.9863,0.0189252
164,55.0545,0.026792
183,34.9959,0.0286177
203,84.6551,0.0318367
145,64.7681,0.029471
223,112.043,0.0316384
245,38.4649,0.0136335
268,92.3703,0.0281306
292,77.2154,0.0151991
162,83.0945,0.031118
181,25.5874,0.013911
222,41.1707,0.0299901
291,75.1443,0.0296274
200,59.0895,0.0189462
315,57.9536,0.0682699
340,56.42,0.0183831
288,27.6271,0.0560874
313,31.7748,0.0699486
394,80.5385,0.0206259
393,79.5413,0.0630661
422,89.3334,0.0216913
451,67.554,0.0234917
450,58.9618,0.0184963
481,40.2898,0.011861
512,44.1598,0.0215009
