Q	U	V
{$V$}	{[mm$^3$]}	0.00385326
{$d_v$}	{[mm]}	0.194511
{$S_c$}	{[mm$^2$]}	0.259318
{$S_o$}	{[mm$^2$]}	0.144784
{$S_l/S_o$}	[]	0.791068
{$\Psi$}	[]	0.458357
{$\eta$}	[]	0.483449
{med($\theta_e$)}	{[$^\circ$]}	
{$\Upsilon$}	[]	13
{$\Xi$}	[]	5
