facetNormals:0,facetNormals:1,facetNormals:2,FacetCenters:0,FacetCenters:1,FacetCenters:2,FacetIds,relFacetSize,absFacetSize,cellPairingIds,interplanarAngles,angleWeights
0.0827156,-0.245799,-0.894362,4.33681,5.44635,12.0424,1,0.0590994,0.0080342,8,50.7943,0.0380219
0.244692,0.557106,-0.783244,4.36345,5.50398,12.0566,2,0.0280264,0.00381002,13,30.4749,0.0352558
-0.0887148,-0.684572,-0.706293,4.31694,5.47001,12.0274,3,0.0251208,0.00341502,19,55.2183,0.038969
0.61197,0.429746,-0.649995,4.33628,5.53012,12.0405,4,0.0290679,0.0039516,26,56.9765,0.0529778
-0.185313,-0.907154,-0.324544,4.33797,5.48081,12.0719,5,0.0480054,0.00652604,34,81.1727,0.0496797
0.547151,0.753221,-0.313355,4.34364,5.53823,12.088,6,0.0428499,0.00582519,43,75.9624,0.0722762
0.918272,0.176705,-0.205434,4.33841,5.50217,12.0492,7,0.0930148,0.0126448,53,93.8377,0.0802831
-0.536294,-0.731997,0.216589,4.34474,5.50078,12.1228,8,0.125138,0.0170117,64,119.154,0.0699466
0.422057,0.786266,0.300569,4.33529,5.50621,12.0947,9,0.0856707,0.0116464,76,107.541,0.0208074
-0.957741,0.00318776,0.218828,4.31801,5.47838,12.1066,10,0.0126264,0.00171648,89,93.3133,0.0589254
0.836382,-0.396722,0.243994,4.38658,5.44937,12.1228,11,0.0587525,0.00798704,103,83.2913,0.0499511
0.358579,-0.850223,0.153062,4.35343,5.44588,12.1106,12,0.0432554,0.00588031,118,121.385,0.0220815
0.793868,0.147188,0.568381,4.336,5.51746,12.1584,13,0.0135772,0.00184573,134,138.457,0.0308267
-0.672785,0.391086,0.592501,4.32738,5.50384,12.1357,14,0.0208515,0.00283464,151,142.717,0.042868
0.222474,-0.277825,0.894383,4.35569,5.48097,12.1639,15,0.0336313,0.00457197,169,157.561,0.0563107
-0.327761,-0.03124,0.905563,4.32785,5.47197,12.1383,16,0.0537733,0.00731015,18,81.1847,0.0264942
,,,,,,,,,25,23.9247,0.0285377
,,,,,,,,,33,107.742,0.035391
,,,,,,,,,42,34.9107,0.033888
,,,,,,,,,52,59.3536,0.0430741
,,,,,,,,,63,139.986,0.0457962
,,,,,,,,,75,70.8814,0.0422358
,,,,,,,,,88,114.493,0.0174095
,,,,,,,,,102,102.621,0.0379498
,,,,,,,,,117,123.04,0.0340141
,,,,,,,,,133,99.933,0.0182926
,,,,,,,,,150,115.055,0.0239124
,,,,,,,,,168,147.017,0.0305741
,,,,,,,,,187,147.597,0.0368479
,,,,,,,,,32,83.5098,0.0269506
,,,,,,,,,41,26.5632,0.0329822
,,,,,,,,,51,110.696,0.0316732
,,,,,,,,,62,93.4764,0.039558
,,,,,,,,,74,64.5653,0.041842
,,,,,,,,,87,147.922,0.0388498
,,,,,,,,,101,94.2423,0.0168057
,,,,,,,,,116,88.4815,0.0351938
,,,,,,,,,132,61.4052,0.0317833
,,,,,,,,,149,125.96,0.0176272
,,,,,,,,,167,130.436,0.0227879
,,,,,,,,,186,119.024,0.0287597
,,,,,,,,,206,128.249,0.0342441
,,,,,,,,,50,107.499,0.0362101
,,,,,,,,,61,27.6372,0.0346383
,,,,,,,,,73,35.5887,0.0442936
,,,,,,,,,86,147.961,0.0471771
,,,,,,,,,100,64.5574,0.0434076
,,,,,,,,,115,138.318,0.0176054
,,,,,,,,,131,78.8909,0.0388932
,,,,,,,,,148,105.357,0.0347701
,,,,,,,,,166,79.4196,0.018509
,,,,,,,,,185,130.454,0.0242835
,,,,,,,,,205,126.297,0.0311835
,,,,,,,,,226,147.215,0.0377367
,,,,,,,,,72,135.127,0.0452814
,,,,,,,,,85,106.31,0.0633273
,,,,,,,,,99,40.777,0.069391
,,,,,,,,,114,164.215,0.0615316
,,,,,,,,,130,83.8315,0.019994
,,,,,,,,,147,82.3085,0.052838
,,,,,,,,,165,44.4455,0.0455068
,,,,,,,,,184,118.692,0.0211676
,,,,,,,,,204,116.115,0.0290744
,,,,,,,,,225,94.8266,0.0395529
,,,,,,,,,247,102.513,0.0507259
,,,,,,,,,98,41.9089,0.0586713
,,,,,,,,,113,174.817,0.0638398
,,,,,,,,,129,37.9911,0.0571268
,,,,,,,,,146,127.704,0.0195053
,,,,,,,,,164,84.976,0.0495567
,,,,,,,,,183,122.389,0.0430517
,,,,,,,,,203,67.7584,0.0206206
,,,,,,,,,224,105.652,0.0280523
,,,,,,,,,246,112.891,0.0376851
,,,,,,,,,269,120.94,0.0476942
,,,,,,,,,128,138.243,0.106711
,,,,,,,,,145,58.9686,0.0891918
,,,,,,,,,163,169.175,0.0222345
,,,,,,,,,182,45.0267,0.0720162
,,,,,,,,,202,80.5139,0.0590503
,,,,,,,,,223,47.536,0.0236956
,,,,,,,,,245,135.719,0.0340663
,,,,,,,,,268,91.7744,0.0494008
,,,,,,,,,292,122.268,0.0681488
,,,,,,,,,162,147.005,0.10171
,,,,,,,,,181,52.4411,0.0229383
,,,,,,,,,201,96.7712,0.0799624
,,,,,,,,,222,57.9384,0.0642887
,,,,,,,,,244,116.456,0.0244965
,,,,,,,,,267,77.1544,0.0357467
,,,,,,,,,291,71.9824,0.0530147
,,,,,,,,,316,63.9492,0.0752226
,,,,,,,,,200,111.293,0.022009
,,,,,,,,,221,82.7085,0.069703
,,,,,,,,,243,122.34,0.057486
,,,,,,,,,266,48.0426,0.0234396
,,,,,,,,,290,77.354,0.0335398
,,,,,,,,,315,80.8413,0.0483013
,,,,,,,,,341,83.082,0.0660738
,,,,,,,,,242,142.778,0.0207857
,,,,,,,,,265,109.891,0.019547
,,,,,,,,,289,130.927,0.0130845
,,,,,,,,,314,36.2149,0.0157285
,,,,,,,,,340,91.1053,0.0183598
,,,,,,,,,367,57.2592,0.0204508
,,,,,,,,,288,41.12,0.0498268
,,,,,,,,,313,38.0592,0.0220571
,,,,,,,,,339,127.754,0.0307793
,,,,,,,,,366,56.0591,0.0427764
,,,,,,,,,394,92.5343,0.0561527
,,,,,,,,,338,74.5188,0.0206672
,,,,,,,,,365,121.872,0.0281387
,,,,,,,,,393,59.8016,0.037841
,,,,,,,,,422,86.97,0.0479443
,,,,,,,,,392,98.3216,0.0164459
,,,,,,,,,421,47.3407,0.0193448
,,,,,,,,,451,74.7715,0.0216803
,,,,,,,,,450,73.2339,0.0257426
,,,,,,,,,481,37.7834,0.0300505
,,,,,,,,,512,36.4913,0.0413815
