facetNormals:0,facetNormals:1,facetNormals:2,FacetCenters:0,FacetCenters:1,FacetCenters:2,FacetIds,relFacetSize,absFacetSize,cellPairingIds,interplanarAngles,angleWeights
0.568737,0.388608,-0.695167,2.94608,5.39352,10.084,1,0.0184068,0.00355301,8,32.7602,0.024869
0.248495,0.785509,-0.496149,2.91114,5.41381,10.0842,2,0.0383233,0.00739742,13,68.6351,0.0281297
0.415976,-0.672974,-0.521993,2.94733,5.33607,10.1188,3,0.0596245,0.0115091,19,126.693,0.0333966
-0.678156,-0.633198,-0.121651,2.89546,5.33658,10.1704,4,0.179899,0.0347253,26,44.4398,0.0132818
0.908974,0.370521,-0.0365269,2.9815,5.36377,10.2445,5,0.0103891,0.00200538,34,94.9784,0.0243501
0.356942,-0.907687,-0.0956595,2.93459,5.3641,10.2191,6,0.0359615,0.00694154,43,119.55,0.0308583
-0.942818,0.0466528,-0.0870902,2.87359,5.39106,10.202,7,0.095376,0.0184101,53,101.859,0.0181961
-0.816737,0.550391,-0.0747643,2.88614,5.42187,10.2207,8,0.0179901,0.00347257,64,121.708,0.024847
-0.0380774,-0.974305,0.154672,2.94827,5.32667,10.2744,9,0.0382192,0.00737734,76,92.4236,0.0295677
-0.382263,0.855425,0.222786,2.89423,5.42336,10.2346,10,0.0751101,0.0144983,89,115.507,0.0291317
0.364109,-0.778898,0.451067,2.94035,5.35101,10.2889,11,0.0698027,0.0134738,103,144.329,0.0279121
-0.694634,0.190813,0.641612,2.89233,5.38628,10.3105,12,0.0577175,0.011141,118,106.344,0.0205303
0.118089,0.548497,0.785693,2.96621,5.40111,10.3446,13,0.0232077,0.00447971,18,100.51,0.0466577
,,,,,,,,,25,132.289,0.0631862
,,,,,,,,,33,55.5022,0.0163468
,,,,,,,,,42,127.735,0.0371049
,,,,,,,,,52,99.752,0.0546767
,,,,,,,,,63,73.7085,0.0244858
,,,,,,,,,75,153.747,0.0382712
,,,,,,,,,88,59.7635,0.0507516
,,,,,,,,,102,142.938,0.0494806
,,,,,,,,,117,111.569,0.0460622
,,,,,,,,,133,85.6534,0.0289089
,,,,,,,,,32,76.4683,0.0895644
,,,,,,,,,41,80.8641,0.017695
,,,,,,,,,51,29.4023,0.0448641
,,,,,,,,,62,114.887,0.0733771
,,,,,,,,,74,135.795,0.0276404
,,,,,,,,,87,53.3093,0.0465805
,,,,,,,,,101,158.786,0.0664774
,,,,,,,,,116,61.425,0.0643134
,,,,,,,,,132,145.36,0.0586555
,,,,,,,,,149,142.927,0.0334109
,,,,,,,,,50,157.08,0.0196438
,,,,,,,,,61,67.9473,0.0599409
,,,,,,,,,73,45.6201,0.124661
,,,,,,,,,86,76.5829,0.0327092
,,,,,,,,,100,47.5156,0.0630447
,,,,,,,,,115,110.088,0.105974
,,,,,,,,,131,77.8387,0.100579
,,,,,,,,,148,72.4501,0.0873956
,,,,,,,,,166,125.371,0.0411118
,,,,,,,,,72,90.4983,0.016121
,,,,,,,,,85,153.944,0.0187372
,,,,,,,,,99,123.517,0.0131717
,,,,,,,,,114,114.443,0.0163373
,,,,,,,,,130,92.3417,0.0182534
,,,,,,,,,147,88.4444,0.0180863
,,,,,,,,,165,128.058,0.0176087
,,,,,,,,,184,72.709,0.014353
,,,,,,,,,98,113.506,0.0522298
,,,,,,,,,113,144.085,0.0239826
,,,,,,,,,129,27.7842,0.037056
,,,,,,,,,146,171.811,0.0486366
,,,,,,,,,164,33.4637,0.0474681
,,,,,,,,,183,120.689,0.0443132
,,,,,,,,,203,124.13,0.0282101
,,,,,,,,,128,31.0442,0.0302705
,,,,,,,,,145,91.4097,0.0545708
,,,,,,,,,163,65.3409,0.0840385
,,,,,,,,,182,117.073,0.0806097
,,,,,,,,,202,48.3344,0.0719151
,,,,,,,,,223,99.6979,0.0373316
,,,,,,,,,162,121.999,0.0244645
,,,,,,,,,181,36.3266,0.0290276
,,,,,,,,,201,142.399,0.0286073
,,,,,,,,,222,49.0574,0.0274304
,,,,,,,,,244,81.1507,0.0202685
,,,,,,,,,200,145.592,0.0506603
,,,,,,,,,221,31.7859,0.0493938
,,,,,,,,,243,93.6254,0.0459869
,,,,,,,,,266,115.97,0.0288792
,,,,,,,,,242,138.932,0.0723592
,,,,,,,,,265,52.0218,0.0652751
,,,,,,,,,289,49.8849,0.0354591
,,,,,,,,,288,96.8761,0.0631874
,,,,,,,,,313,91.8233,0.034834
,,,,,,,,,338,55.5582,0.0331044
