Q	U	V
{$V$}	{[mm$^3$]}	0.00120288
{$d_v$}	{[mm]}	0.131950
{$S_c$}	{[mm$^2$]}	0.117293
{$S_o$}	{[mm$^2$]}	0.0595204
{$S_l/S_o$}	[]	0.970635
{$\Psi$}	[]	0.46633
{$\eta$}	[]	0.476438
{med($\theta_e$)}	{[$^\circ$]}	
{$\Upsilon$}	[]	18
{$\Xi$}	[]	4
