Q	U	V
{$V$}	{[mm$^3$]}	0.0129218
{$d_v$}	{[mm]}	0.291144
{$S_c$}	{[mm$^2$]}	0.644505
{$S_o$}	{[mm$^2$]}	0.382492
{$S_l/S_o$}	[]	0.685016
{$\Psi$}	[]	0.413181
{$\eta$}	[]	0.451107
{med($\theta_e$)}	{[$^\circ$]}	55.80015
{$\Upsilon$}	[]	14
{$\Xi$}	[]	17
