Q	U	V
{$V$}	{[mm$^3$]}	0.00423443
{$d_v$}	{[mm]}	0.200724
{$S_c$}	{[mm$^2$]}	0.288613
{$S_o$}	{[mm$^2$]}	0.147861
{$S_l/S_o$}	[]	0.951921
{$\Psi$}	[]	0.438563
{$\eta$}	[]	0.490719
{med($\theta_e$)}	{[$^\circ$]}	71.2754
{$\Upsilon$}	[]	10
{$\Xi$}	[]	4
