Q	U	V
{$V$}	{[mm$^3$]}	0.00270738
{$d_v$}	{[mm]}	0.172922
{$S_c$}	{[mm$^2$]}	0.201671
{$S_o$}	{[mm$^2$]}	0.108728
{$S_l/S_o$}	[]	0.854821
{$\Psi$}	[]	0.465808
{$\eta$}	[]	0.478341
{med($\theta_e$)}	{[$^\circ$]}	
{$\Upsilon$}	[]	19
{$\Xi$}	[]	7
