Q	U	V
{$V$}	{[mm$^3$]}	0.00182629
{$d_v$}	{[mm]}	0.151655
{$S_c$}	{[mm$^2$]}	0.142949
{$S_o$}	{[mm$^2$]}	0.0775489
{$S_l/S_o$}	[]	0.843340
{$\Psi$}	[]	0.505455
{$\eta$}	[]	0.525188
{med($\theta_e$)}	{[$^\circ$]}	77.587
{$\Upsilon$}	[]	20
{$\Xi$}	[]	7
