facetNormals:0,facetNormals:1,facetNormals:2,FacetCenters:0,FacetCenters:1,FacetCenters:2,FacetIds,relFacetSize,absFacetSize,cellPairingIds,interplanarAngles,angleWeights
0.738126,-0.175886,-0.535679,3.161,3.66892,12.4235,1,0.223297,0.098271,8,90.4124,0.0490918
-0.356167,-0.863297,-0.195407,3.03951,3.55462,12.3846,2,0.0275773,0.0121365,13,136.703,0.161418
-0.615374,0.734801,0.131679,3.0718,3.74633,12.4667,3,0.126393,0.0556243,19,133.181,0.124586
-0.864822,-0.235147,-0.0494372,2.97232,3.58887,12.4193,4,0.0863939,0.0380212,26,65.3887,0.0795171
0.816666,0.200119,0.390225,3.19197,3.69709,12.5707,5,0.0483712,0.0212877,34,150.36,0.119205
-0.410181,0.47968,0.718219,3.10634,3.70988,12.5762,6,0.0813044,0.0357813,43,133.532,0.0174778
-0.206745,-0.17068,0.949877,3.13456,3.65601,12.6189,7,0.00909482,0.00400255,18,118.533,0.045276
,,,,,,,,,25,52.5552,0.041809
,,,,,,,,,33,127.621,0.0351277
,,,,,,,,,42,116.592,0.0411852
,,,,,,,,,52,87.8474,0.0136785
,,,,,,,,,32,66.0219,0.102634
,,,,,,,,,41,109.823,0.069966
,,,,,,,,,51,40.8725,0.0989545
,,,,,,,,,62,82.3635,0.0169686
,,,,,,,,,50,158.217,0.0620187
,,,,,,,,,61,76.0816,0.0837719
,,,,,,,,,73,78.8065,0.0164572
,,,,,,,,,72,87.3305,0.0606558
,,,,,,,,,85,79.4401,0.0153109
,,,,,,,,,98,43.4447,0.0163596
