facetNormals:0,facetNormals:1,facetNormals:2,FacetCenters:0,FacetCenters:1,FacetCenters:2,FacetIds,relFacetSize,absFacetSize,cellPairingIds,interplanarAngles,angleWeights
0.202569,0.0300996,-0.973656,2.91678,5.47137,14.2989,1,0.00787262,0.00114438,8,26.6359,0.0128369
0.278234,0.443792,-0.807842,2.93296,5.49658,14.2782,2,0.0347482,0.00505108,13,31.0744,0.0123212
0.287995,-0.464359,-0.808578,2.90314,5.41689,14.3268,3,0.0283294,0.00411803,19,67.935,0.014317
-0.403087,-0.745728,-0.481078,2.88549,5.42135,14.3645,4,0.0789198,0.011472,26,59.5201,0.0136203
-0.660504,-0.293749,-0.6506,2.88114,5.46491,14.2926,5,0.0504621,0.00733528,34,85.692,0.0142539
-0.918271,0.209069,-0.259571,2.83551,5.48989,14.3453,6,0.0752454,0.0109378,43,72.667,0.0136907
0.407593,0.877873,-0.188248,2.92711,5.54849,14.3242,7,0.0524595,0.00762563,53,92.7722,0.0131769
0.874391,-0.118491,0.223238,2.89379,5.49094,14.3633,8,0.0403905,0.00587125,64,104.926,0.013921
-0.892511,-0.387132,0.0588723,2.83942,5.40252,14.4187,9,0.0600775,0.00873299,76,108.17,0.0125515
0.456474,-0.724387,0.369771,2.89853,5.41727,14.3989,10,0.0309402,0.00449753,89,113.155,0.0140102
-0.709688,0.615965,0.263568,2.8555,5.52818,14.419,11,0.0635691,0.00924055,103,116.218,0.0135521
-0.944012,0.125096,0.252182,2.83193,5.46959,14.4376,12,0.0486484,0.00707164,118,134.728,0.0136296
-0.819608,-0.127557,0.535595,2.86099,5.41728,14.4993,13,0.0507178,0.00737244,134,152.932,0.0132271
-0.27379,-0.451169,0.80491,2.90965,5.37348,14.5144,14,0.0413535,0.00601123,151,155.109,0.0143195
-0.298366,0.361227,0.843507,2.90353,5.46192,14.5208,15,0.0790714,0.011494,18,55.8642,0.0312122
,,,,,,,,,25,93.3273,0.0482514
,,,,,,,,,33,76.9492,0.0411562
,,,,,,,,,42,87.1369,0.0475417
,,,,,,,,,52,46.367,0.0418053
,,,,,,,,,63,89.3227,0.0373575
,,,,,,,,,75,119.895,0.0440299
,,,,,,,,,88,123.315,0.0327338
,,,,,,,,,102,98.3846,0.0449344
,,,,,,,,,117,115.671,0.0405399
,,,,,,,,,133,138.989,0.041241
,,,,,,,,,150,179.459,0.0377642
,,,,,,,,,168,130.565,0.0482797
,,,,,,,,,32,49.3862,0.0416927
,,,,,,,,,41,60.1605,0.0362872
,,,,,,,,,51,99.1535,0.0411617
,,,,,,,,,62,98.2485,0.0367909
,,,,,,,,,74,81.8229,0.0333015
,,,,,,,,,87,97.544,0.0385029
,,,,,,,,,101,79.3089,0.0295773
,,,,,,,,,116,137.617,0.0391927
,,,,,,,,,132,123.734,0.0358072
,,,,,,,,,149,129.268,0.0363531
,,,,,,,,,167,123.628,0.0336243
,,,,,,,,,186,173.571,0.0417138
,,,,,,,,,50,32.6334,0.0615613
,,,,,,,,,61,69.1364,0.0770388
,,,,,,,,,73,139.279,0.0630251
,,,,,,,,,86,114.755,0.0534339
,,,,,,,,,100,49.2476,0.0682215
,,,,,,,,,115,78.6882,0.0444528
,,,,,,,,,131,108.388,0.0704176
,,,,,,,,,148,80.0496,0.0601925
,,,,,,,,,166,79.9566,0.0617512
,,,,,,,,,185,86.3584,0.0542699
,,,,,,,,,205,126.159,0.0789955
,,,,,,,,,72,41.2783,0.0604107
,,,,,,,,,85,114.957,0.0514414
,,,,,,,,,99,141.005,0.044868
,,,,,,,,,114,45.4532,0.0548516
,,,,,,,,,130,111.287,0.0383602
,,,,,,,,,147,82.9599,0.0562623
,,,,,,,,,165,63.8182,0.0495387
,,,,,,,,,184,76.1193,0.0505896
,,,,,,,,,204,102.983,0.0454559
,,,,,,,,,225,119.201,0.0616073
,,,,,,,,,98,98.4704,0.0618197
,,,,,,,,,113,174.914,0.052565
,,,,,,,,,129,40.5593,0.0668114
,,,,,,,,,146,137.024,0.0438498
,,,,,,,,,164,41.683,0.0689162
,,,,,,,,,183,30.6885,0.0590921
,,,,,,,,,203,52.5186,0.0605936
,,,,,,,,,224,93.1607,0.0533737
,,,,,,,,,246,82.0387,0.077111
,,,,,,,,,128,76.4446,0.0456406
,,,,,,,,,145,138.049,0.0560107
,,,,,,,,,163,124.394,0.0389236
,,,,,,,,,182,77.8917,0.0574825
,,,,,,,,,202,109.387,0.0504822
,,,,,,,,,223,124.175,0.0515739
,,,,,,,,,245,133.994,0.0462491
,,,,,,,,,268,87.7886,0.0630734
,,,,,,,,,162,144.41,0.0483051
,,,,,,,,,181,48.045,0.0350393
,,,,,,,,,201,135.601,0.0493959
,,,,,,,,,222,150.969,0.0441365
,,,,,,,,,244,130.36,0.0449688
,,,,,,,,,267,90.409,0.0408663
,,,,,,,,,291,97.5498,0.0534687
,,,,,,,,,200,96.6462,0.040845
,,,,,,,,,221,64.4367,0.061774
,,,,,,,,,243,32.587,0.0537623
,,,,,,,,,266,32.4102,0.0550023
,,,,,,,,,290,60.1854,0.0489872
,,,,,,,,,315,79.2065,0.0682781
,,,,,,,,,242,137.648,0.0416221
,,,,,,,,,265,117.786,0.0378243
,,,,,,,,,289,95.2138,0.0384339
,,,,,,,,,314,56.1919,0.0353968
,,,,,,,,,340,95.4813,0.0444768
,,,,,,,,,288,32.2089,0.0551168
,,,,,,,,,313,48.0437,0.0564209
,,,,,,,,,339,82.1346,0.0501094
,,,,,,,,,366,45.7965,0.0704779
,,,,,,,,,338,23.3731,0.0496615
,,,,,,,,,365,64.7128,0.0447053
,,,,,,,,,393,55.4126,0.0602365
,,,,,,,,,392,41.3817,0.0455594
,,,,,,,,,421,46.9584,0.0617975
,,,,,,,,,450,49.9431,0.0543057
