Q	U	V
{$V$}	{[mm$^3$]}	0.00368821
{$d_v$}	{[mm]}	0.191693
{$S_c$}	{[mm$^2$]}	0.227365
{$S_o$}	{[mm$^2$]}	0.137313
{$S_l/S_o$}	[]	0.655816
{$\Psi$}	[]	0.507736
{$\eta$}	[]	0.573633
{med($\theta_e$)}	{[$^\circ$]}	59.229
{$\Upsilon$}	[]	14
{$\Xi$}	[]	8
