facetNormals:0,facetNormals:1,facetNormals:2,FacetCenters:0,FacetCenters:1,FacetCenters:2,FacetIds,relFacetSize,absFacetSize,cellPairingIds,interplanarAngles,angleWeights
-0.00126435,-0.504538,-0.798482,4.24264,5.55068,12.5402,1,0.129718,0.032559,8,54.6209,0.119474
0.656444,0.0698712,-0.708342,4.37325,5.62435,12.6141,2,0.11073,0.027793,13,48.8833,0.0290255
-0.746665,-0.288773,-0.589872,4.10695,5.58564,12.5588,3,0.016341,0.00410156,19,73.8091,0.0969884
-0.876216,0.107135,-0.383801,4.1716,5.66415,12.571,4,0.0774475,0.0194393,26,88.2985,0.10584
0.461987,0.705808,-0.480815,4.3032,5.70076,12.5991,5,0.0893864,0.0224359,34,98.1556,0.113229
0.899434,0.286508,-0.024003,4.3794,5.63636,12.6359,6,0.100459,0.0252152,43,124.822,0.0348645
-0.0773234,0.978123,0.0455507,4.24194,5.69815,12.6346,7,0.0201386,0.00505477,53,145.197,0.0546536
-0.540054,0.574609,0.600523,4.19443,5.65467,12.6745,8,0.03462,0.00868958,64,173.978,0.106015
-0.0929337,0.479083,0.82323,4.25036,5.67928,12.6735,9,0.0896358,0.0224985,18,95.5122,0.0284791
,,,,,,,,,25,108.507,0.0911453
,,,,,,,,,33,42.4994,0.0989198
,,,,,,,,,42,46.6656,0.105345
,,,,,,,,,52,90.8845,0.0340792
,,,,,,,,,63,140.423,0.0527481
,,,,,,,,,75,131.224,0.0990723
,,,,,,,,,32,27.414,0.0269877
,,,,,,,,,41,105.939,0.0276307
,,,,,,,,,51,142.022,0.0281096
,,,,,,,,,62,104.927,0.0180421
,,,,,,,,,74,96.8128,0.0222023
,,,,,,,,,87,125.643,0.0276426
,,,,,,,,,50,98.9031,0.0829898
,,,,,,,,,61,145.403,0.0874651
,,,,,,,,,73,80.5605,0.0319653
,,,,,,,,,86,71.402,0.0478503
,,,,,,,,,100,101.471,0.0830971
,,,,,,,,,72,46.6579,0.0945999
,,,,,,,,,85,48.4364,0.0328714
,,,,,,,,,99,97.9238,0.0499096
,,,,,,,,,114,96.2161,0.0895109
,,,,,,,,,98,76.9392,0.0335513
,,,,,,,,,113,111.007,0.0514942
,,,,,,,,,129,87.8493,0.0947394
,,,,,,,,,128,49.588,0.0254644
,,,,,,,,,145,56.9037,0.0328882
,,,,,,,,,162,30.1988,0.0499484
