Q	U	V
{$V$}	{[mm$^3$]}	0.0050324
{$d_v$}	{[mm]}	0.212614
{$S_c$}	{[mm$^2$]}	0.348871
{$S_o$}	{[mm$^2$]}	0.217721
{$S_l/S_o$}	[]	0.602376
{$\Psi$}	[]	0.40707
{$\eta$}	[]	0.446446
{med($\theta_e$)}	{[$^\circ$]}	83.1989
{$\Upsilon$}	[]	16
{$\Xi$}	[]	11
