facetNormals:0,facetNormals:1,facetNormals:2,FacetCenters:0,FacetCenters:1,FacetCenters:2,FacetIds,relFacetSize,absFacetSize,cellPairingIds,interplanarAngles,angleWeights
0.255668,0.388809,-0.851202,3.63527,5.83518,10.3185,1,0.0585073,0.0165631,8,49.3319,0.0483422
0.481262,-0.390375,-0.764872,3.63887,5.78603,10.3349,2,0.0411864,0.0116597,13,51.7391,0.0682075
-0.5675,0.243377,-0.738835,3.56088,5.79547,10.34,3,0.0817636,0.0231468,19,57.0955,0.0614831
0.868525,-0.124763,-0.390803,3.67277,5.77047,10.3326,4,0.0647778,0.0183383,26,84.078,0.0794045
-0.302249,-0.724736,-0.53345,3.55779,5.71049,10.3454,5,0.123524,0.0349689,34,68.1726,0.0332938
-0.718267,0.556999,-0.378537,3.52133,5.82412,10.3821,6,0.0232669,0.00658675,43,96.872,0.041889
0.5704,-0.784634,-0.0545868,3.43487,5.79962,10.4348,7,0.0326228,0.00923536,53,81.7068,0.0649509
-0.535971,0.785809,0.0414452,3.50705,5.81542,10.4053,8,0.0729895,0.020663,64,119.03,0.0250407
-0.00152179,-0.988204,0.0973172,3.54424,5.69747,10.4163,9,0.0159291,0.00450944,76,138.613,0.0246785
0.164531,-0.813702,0.51151,3.58995,5.69215,10.4469,10,0.0156371,0.00442679,89,150.584,0.0116158
-0.609975,-0.555607,0.544254,3.47374,5.77714,10.4,11,0.00644799,0.00182539,103,109.958,0.0604882
0.77988,-0.406298,0.429328,3.68311,5.73071,10.4071,12,0.062608,0.017724,118,133.444,0.0731346
-0.240996,0.339847,0.766638,3.58632,5.80163,10.3785,13,0.0975138,0.0276057,18,78.0051,0.0547791
,,,,,,,,,25,35.9336,0.050356
,,,,,,,,,33,54.2873,0.0617752
,,,,,,,,,42,106.395,0.0297357
,,,,,,,,,52,49.3885,0.0364078
,,,,,,,,,63,129.52,0.0526587
,,,,,,,,,75,71.4728,0.0229732
,,,,,,,,,88,89.6663,0.022668
,,,,,,,,,102,120.439,0.0111503
,,,,,,,,,117,77.6793,0.0496867
,,,,,,,,,133,166.456,0.0579126
,,,,,,,,,32,104.688,0.0722863
,,,,,,,,,41,64.7945,0.0983961
,,,,,,,,,51,29.7816,0.0362254
,,,,,,,,,62,120.465,0.0466377
,,,,,,,,,74,59.5365,0.0771278
,,,,,,,,,87,109.016,0.0266636
,,,,,,,,,101,135.469,0.0262534
,,,,,,,,,116,101.588,0.0119533
,,,,,,,,,132,155.683,0.070915
,,,,,,,,,149,114.39,0.0889468
,,,,,,,,,50,87.7132,0.0849871
,,,,,,,,,61,125.217,0.0342367
,,,,,,,,,73,48.8071,0.0433927
,,,,,,,,,86,129.341,0.0686389
,,,,,,,,,100,84.9513,0.0255703
,,,,,,,,,115,87.2756,0.0251928
,,,,,,,,,131,135.155,0.0117285
,,,,,,,,,148,53.4132,0.0636744
,,,,,,,,,166,131.134,0.0778442
,,,,,,,,,72,89.0591,0.0391581
,,,,,,,,,85,62.536,0.0516143
,,,,,,,,,99,118.381,0.091759
,,,,,,,,,114,45.1556,0.0282192
,,,,,,,,,130,73.2272,0.0277601
,,,,,,,,,147,71.5662,0.0122562
,,,,,,,,,165,100.562,0.0830978
,,,,,,,,,184,134.681,0.108988
,,,,,,,,,98,149.715,0.0271618
,,,,,,,,,113,30.5894,0.0352858
,,,,,,,,,129,126.837,0.0189112
,,,,,,,,,146,142.829,0.0187039
,,,,,,,,,164,94.5597,0.0100976
,,,,,,,,,183,170.039,0.033926
,,,,,,,,,203,85.1795,0.0375697
,,,,,,,,,128,178.136,0.0450918
,,,,,,,,,145,37.1286,0.021406
,,,,,,,,,163,41.9701,0.0211408
,,,,,,,,,182,86.519,0.0107677
,,,,,,,,,202,38.8742,0.0428947
,,,,,,,,,223,121.74,0.0488898
,,,,,,,,,162,144.711,0.026151
,,,,,,,,,181,139.543,0.0257563
,,,,,,,,,201,95.3115,0.0118492
,,,,,,,,,222,140.553,0.0674013
,,,,,,,,,244,58.9889,0.0834879
,,,,,,,,,200,28.1625,0.0157818
,,,,,,,,,221,52.0977,0.00917998
,,,,,,,,,243,62.9371,0.0253966
,,,,,,,,,266,107.523,0.0273848
,,,,,,,,,242,49.1722,0.00913086
,,,,,,,,,265,44.6768,0.0250242
,,,,,,,,,289,84.8779,0.0269523
,,,,,,,,,288,90.9657,0.0116918
,,,,,,,,,313,64.1948,0.0120961
,,,,,,,,,338,89.7911,0.0762562
