Q	U	V
{$V$}	{[mm$^3$]}	0.00590992
{$d_v$}	{[mm]}	0.224316
{$S_c$}	{[mm$^2$]}	0.305675
{$S_o$}	{[mm$^2$]}	0.182416
{$S_l/S_o$}	[]	0.675703
{$\Psi$}	[]	0.517145
{$\eta$}	[]	0.589109
{med($\theta_e$)}	{[$^\circ$]}	67.89455
{$\Upsilon$}	[]	16
{$\Xi$}	[]	7
