facetNormals:0,facetNormals:1,facetNormals:2,FacetCenters:0,FacetCenters:1,FacetCenters:2,FacetIds,relFacetSize,absFacetSize,cellPairingIds,interplanarAngles,angleWeights
-0.795862,0.0995085,-0.535049,4.87592,5.75154,10.6918,1,0.0641489,0.0107403,8,71.546,0.045957
-0.200385,-0.863058,-0.422304,4.95326,5.69894,10.6944,2,0.0358035,0.00599447,13,36.9763,0.0472075
-0.696776,0.638793,-0.253741,4.87557,5.77744,10.7513,3,0.0373448,0.00625254,19,104.78,0.0758766
0.278211,-0.909074,-0.141084,4.99973,5.67321,10.7395,4,0.0928518,0.0155459,26,68.0939,0.073088
-0.560917,-0.800605,0.0279776,4.9134,5.72605,10.7816,5,0.0849218,0.0142182,34,90.393,0.0609528
-0.165687,0.860335,0.418457,4.92236,5.81282,10.8165,6,0.05806,0.00972081,43,113.916,0.0490825
0.352175,0.848542,0.352939,4.98783,5.77342,10.8169,7,0.0397472,0.00665476,53,59.6423,0.0516566
-0.868163,0.189154,0.428252,4.85186,5.76629,10.8067,8,0.0432367,0.00723899,64,110.534,0.0820407
-0.0483266,-0.801812,0.531583,4.97928,5.70422,10.8333,9,0.113773,0.0190487,76,153.967,0.0513875
0.584069,-0.4714,0.624812,5.03864,5.7253,10.8569,10,0.042861,0.0071761,89,88.9854,0.0420038
-0.550592,-0.398788,0.713372,4.89349,5.73171,10.8367,11,0.0312246,0.00522784,103,98.3865,0.0648781
-0.383459,0.198663,0.860324,4.93139,5.76988,10.863,12,0.0656241,0.0109872,118,146.788,0.0512978
0.363135,-0.123215,0.869147,5.04431,5.74772,10.8567,13,0.0427363,0.00715521,18,108.482,0.0365579
,,,,,,,,,25,33.3034,0.0516795
,,,,,,,,,33,34.4469,0.0503705
,,,,,,,,,42,158.394,0.0442931
,,,,,,,,,52,170.224,0.0376724
,,,,,,,,,63,100.122,0.0391706
,,,,,,,,,75,59.6851,0.0544667
,,,,,,,,,88,88.4489,0.0390157
,,,,,,,,,102,80.8835,0.0333576
,,,,,,,,,117,118.991,0.04633
,,,,,,,,,133,110.955,0.0389639
,,,,,,,,,32,141.753,0.0532661
,,,,,,,,,41,97.6662,0.0518767
,,,,,,,,,51,53.9801,0.0454535
,,,,,,,,,62,77.5845,0.0385086
,,,,,,,,,74,50.2672,0.0400754
,,,,,,,,,87,130.59,0.0562321
,,,,,,,,,101,155.05,0.0399133
,,,,,,,,,116,93.0975,0.0340116
,,,,,,,,,132,79.2468,0.0476012
,,,,,,,,,149,126.44,0.0398591
,,,,,,,,,50,52.8351,0.08871
,,,,,,,,,61,161.947,0.0714454
,,,,,,,,,73,139.868,0.0556656
,,,,,,,,,86,119.994,0.0589999
,,,,,,,,,100,46.2257,0.102253
,,,,,,,,,115,57.6038,0.0586492
,,,,,,,,,131,83.4095,0.0467334
,,,,,,,,,148,116.213,0.076899
,,,,,,,,,166,84.3167,0.0585323
,,,,,,,,,72,127.966,0.0689677
,,,,,,,,,85,154.265,0.0541499
,,,,,,,,,99,68.8835,0.0573
,,,,,,,,,114,43.4453,0.0972528
,,,,,,,,,130,85.9609,0.0569691
,,,,,,,,,147,47.7416,0.0456604
,,,,,,,,,165,85.1186,0.0740361
,,,,,,,,,184,94.9848,0.0568588
,,,,,,,,,98,30.9685,0.0471892
,,,,,,,,,113,59.5195,0.0495638
,,,,,,,,,129,119.418,0.0768847
,,,,,,,,,146,104.716,0.049316
,,,,,,,,,164,87.2054,0.0406095
,,,,,,,,,183,50.5048,0.0616107
,,,,,,,,,203,77.6343,0.0492333
,,,,,,,,,128,89.6513,0.0414186
,,,,,,,,,145,122.53,0.0589129
,,,,,,,,,163,88.4373,0.0412454
,,,,,,,,,182,106.812,0.0349742
,,,,,,,,,202,69.1521,0.0495082
,,,,,,,,,223,69.3258,0.0411876
,,,,,,,,,162,82.8691,0.0626607
,,,,,,,,,181,109.949,0.0430481
,,,,,,,,,201,43.2406,0.0362617
,,,,,,,,,222,38.9018,0.0521284
,,,,,,,,,244,87.9421,0.042985
,,,,,,,,,200,43.5413,0.0622653
,,,,,,,,,221,40.1458,0.049001
,,,,,,,,,243,70.0369,0.0832372
,,,,,,,,,266,53.5798,0.0621335
,,,,,,,,,242,71.0749,0.036129
,,,,,,,,,265,76.4711,0.0518544
,,,,,,,,,289,28.7694,0.0427986
,,,,,,,,,288,38.1842,0.0423152
,,,,,,,,,313,59.9187,0.0360845
,,,,,,,,,338,50.3099,0.051763
