"cellPairingIds","interplanarAngles","angleWeights"
25,33.6296,0.0879558
42,39.2251,0.0660317
75,125.207,0.0581906
50,37.1102,0.105783
61,43.1013,0.0663085
100,135.105,0.0584055
72,70.1633,0.0755957
114,120.369,0.0654926
147,106.281,0.0895356
129,160.509,0.0478547
164,143.948,0.0595365
221,52.7636,0.0530868
