Q	U	V
{$V$}	{[mm$^3$]}	0.0193483
{$d_v$}	{[mm]}	0.333080
{$S_c$}	{[mm$^2$]}	0.599508
{$S_o$}	{[mm$^2$]}	0.437323
{$S_l/S_o$}	[]	0.370859
{$\Psi$}	[]	0.581368
{$\eta$}	[]	0.630140
{med($\theta_e$)}	{[$^\circ$]}	64.8529
{$\Upsilon$}	[]	11
{$\Xi$}	[]	14
