facetNormals:0,facetNormals:1,facetNormals:2,FacetCenters:0,FacetCenters:1,FacetCenters:2,FacetIds,relFacetSize,absFacetSize,cellPairingIds,interplanarAngles,angleWeights
-0.107156,0.42832,-0.88992,6.23289,6.10994,11.8132,1,0.016662,0.00132468,8,56.9168,0.0242482
0.133196,-0.483567,-0.850369,6.21726,6.01734,11.8233,2,0.0445171,0.00353927,13,51.0582,0.0288147
0.583396,-0.030847,-0.754774,6.26929,6.03829,11.819,3,0.106473,0.008465,19,26.5705,0.0266388
-0.510904,0.237139,-0.806504,6.21084,6.0743,11.82,4,0.0663949,0.00527863,26,44.2365,0.00508315
0.290874,0.851206,-0.419005,6.21904,6.07014,11.772,5,0.00299904,0.000238434,34,81.2128,0.0298044
-0.392407,-0.732979,-0.468258,6.223,5.97219,11.857,6,0.141099,0.0112178,43,92.0777,0.014497
0.956229,0.169437,0.00571436,6.2695,6.04817,11.8379,7,0.0128299,0.00102002,53,48.7618,0.02776
-0.529071,0.765101,-0.283682,6.20725,6.13357,11.8519,8,0.0831307,0.00660918,64,76.5046,0.00978006
0.557305,0.796035,0.0623602,6.23404,6.04999,11.8225,9,0.00692134,0.000550271,76,88.7248,0.0299257
-0.965316,-0.168568,0.0107565,6.17196,6.04059,11.8856,10,0.146727,0.0116653,89,79.9319,0.0265138
-0.839344,0.485549,0.143469,6.16822,6.10069,11.8958,11,0.0648703,0.00515741,103,119.25,0.0232193
-0.575181,-0.763717,0.239256,6.19654,5.96559,11.918,12,0.0382872,0.00304397,118,120.145,0.0129156
-0.794293,-0.15048,0.58146,6.197,6.01742,11.8909,13,0.0105447,0.000838341,134,140.91,0.0157711
-0.489133,-0.556037,0.638456,6.18898,5.99731,11.9207,14,0.0149707,0.00119022,151,124.206,0.0240037
-0.624416,0.111456,0.740898,6.25715,6.02967,11.823,15,0.042912,0.00341165,169,117.975,0.0126578
0.300541,0.561659,0.749038,6.23477,6.00206,11.7989,16,0.0102053,0.000811358,188,129.207,0.0245696
0.061405,0.394101,0.835738,6.23478,6.05715,11.8144,17,0.0467626,0.00371779,18,38.7919,0.0627839
,,,,,,,,,25,58.8003,0.0532983
,,,,,,,,,33,90.9687,0.0056195
,,,,,,,,,42,41.9743,0.0676807
,,,,,,,,,52,87.5747,0.0199191
,,,,,,,,,63,101.975,0.0579836
,,,,,,,,,75,112.232,0.0119801
,,,,,,,,,88,93.3306,0.0683092
,,,,,,,,,102,118.961,0.0528002
,,,,,,,,,117,84.7378,0.0411678
,,,,,,,,,133,122.448,0.0170507
,,,,,,,,,150,110.571,0.0224063
,,,,,,,,,168,142.812,0.0436998
,,,,,,,,,187,153.468,0.0166042
,,,,,,,,,207,167.646,0.0456122
,,,,,,,,,32,71.1502,0.0817881
,,,,,,,,,41,60.9647,0.00583376
,,,,,,,,,51,80.7045,0.121365
,,,,,,,,,62,53.7325,0.0229003
,,,,,,,,,74,97.3124,0.0933651
,,,,,,,,,87,74.1709,0.0129978
,,,,,,,,,101,127.244,0.123401
,,,,,,,,,116,130.93,0.0806211
,,,,,,,,,132,121.577,0.0563215
,,,,,,,,,149,160.805,0.019189
,,,,,,,,,167,143.49,0.0262504
,,,,,,,,,186,174.707,0.0611704
,,,,,,,,,206,115.724,0.0186254
,,,,,,,,,227,133.385,0.0649844
,,,,,,,,,50,66.3768,0.00573885
,,,,,,,,,61,64.4859,0.090299
,,,,,,,,,73,118.304,0.0215044
,,,,,,,,,86,44.6553,0.0738262
,,,,,,,,,100,98.7825,0.0125359
,,,,,,,,,115,62.5405,0.0914212
,,,,,,,,,131,63.6324,0.0656237
,,,,,,,,,148,94.7453,0.0485675
,,,,,,,,,166,95.7901,0.0181991
,,,,,,,,,185,114.369,0.0244324
,,,,,,,,,205,105.233,0.0521309
,,,,,,,,,226,130.21,0.0176913
,,,,,,,,,248,132.203,0.0548757
,,,,,,,,,72,124.907,0.00587324
,,,,,,,,,85,64.1641,0.00486165
,,,,,,,,,99,50.3165,0.00578922
,,,,,,,,,114,32.6511,0.00418479
,,,,,,,,,130,116.162,0.00587793
,,,,,,,,,147,83.5634,0.00573303
,,,,,,,,,165,159.763,0.00556238
,,,,,,,,,184,127.588,0.0046699
,,,,,,,,,204,155.525,0.00499703
,,,,,,,,,225,114.229,0.00560627
,,,,,,,,,247,75.0538,0.00463576
,,,,,,,,,270,89.804,0.00563658
,,,,,,,,,98,122.809,0.0235211
,,,,,,,,,113,103.737,0.104622
,,,,,,,,,129,153.479,0.0131954
,,,,,,,,,146,57.8708,0.143858
,,,,,,,,,164,95.7502,0.0888786
,,,,,,,,,183,44.2651,0.0602308
,,,,,,,,,203,80.9349,0.0196229
,,,,,,,,,224,71.2087,0.0270693
,,,,,,,,,246,101.378,0.0658095
,,,,,,,,,269,159.768,0.0190339
,,,,,,,,,293,142.85,0.0702448
,,,,,,,,,128,113.586,0.0222291
,,,,,,,,,145,45.0442,0.00899185
,,,,,,,,,163,179.023,0.0235965
,,,,,,,,,182,139.099,0.0214228
,,,,,,,,,202,135.106,0.0192194
,,,,,,,,,223,143.932,0.0115756
,,,,,,,,,245,126.011,0.0138179
,,,,,,,,,268,127.299,0.0197538
,,,,,,,,,292,66.1026,0.0113681
,,,,,,,,,317,81.6712,0.0201354
,,,,,,,,,162,71.7532,0.0127787
,,,,,,,,,181,66.5869,0.106131
,,,,,,,,,201,35.625,0.072874
,,,,,,,,,222,111.282,0.0524279
,,,,,,,,,244,81.6787,0.0187155
,,,,,,,,,267,111.451,0.0253722
,,,,,,,,,291,77.49,0.0566047
,,,,,,,,,316,86.5089,0.0181789
,,,,,,,,,342,87.9665,0.0598554
,,,,,,,,,200,134.724,0.0132191
,,,,,,,,,221,94.3448,0.0125081
,,,,,,,,,243,162.169,0.0117234
,,,,,,,,,266,122.865,0.00835719
,,,,,,,,,290,135.185,0.0094662
,,,,,,,,,315,102.965,0.0119201
,,,,,,,,,341,46.3151,0.00824848
,,,,,,,,,368,63.6621,0.012058
,,,,,,,,,242,40.5478,0.0899655
,,,,,,,,,265,44.6978,0.060728
,,,,,,,,,289,35.1051,0.0196754
,,,,,,,,,314,53.2913,0.0271692
,,,,,,,,,340,51.7337,0.0664035
,,,,,,,,,367,113.015,0.0190833
,,,,,,,,,395,97.3896,0.0709221
,,,,,,,,,288,81.291,0.0481536
,,,,,,,,,313,46.0838,0.0181406
,,,,,,,,,339,75.9816,0.0243272
,,,,,,,,,366,44.2753,0.0516544
,,,,,,,,,394,82.3733,0.0176361
,,,,,,,,,423,73.3742,0.0543479
,,,,,,,,,338,43.5852,0.0165354
,,,,,,,,,365,26.9848,0.0215249
,,,,,,,,,393,61.9986,0.0404679
,,,,,,,,,422,115.854,0.0161152
,,,,,,,,,452,98.5916,0.0421026
,,,,,,,,,392,29.9779,0.0123738
,,,,,,,,,421,20.4542,0.0169294
,,,,,,,,,451,83.4143,0.0103722
,,,,,,,,,482,65.8098,0.0172089
,,,,,,,,,450,41.2965,0.0221974
,,,,,,,,,481,88.8724,0.012137
,,,,,,,,,513,71.693,0.0226804
,,,,,,,,,512,63.3672,0.0164892
,,,,,,,,,545,46.2309,0.0447546
,,,,,,,,,578,18.0376,0.0167542
