facetNormals:0,facetNormals:1,facetNormals:2,FacetCenters:0,FacetCenters:1,FacetCenters:2,FacetIds,relFacetSize,absFacetSize,cellPairingIds,interplanarAngles,angleWeights
-0.46675,0.827091,-0.167284,4.64181,6.16635,12.9536,1,0.0292817,0.00423951,8,136.519,0.0435146
-0.0561797,-0.884017,-0.300927,4.56689,6.09325,12.9531,2,0.0846707,0.0122589,13,101.133,0.0353324
-0.711833,-0.65246,-0.151822,4.54391,6.08798,12.969,3,0.0445352,0.00644797,19,27.6742,0.019621
-0.0626626,0.974957,0.00754834,4.65829,6.1725,12.971,4,0.0147535,0.00213607,26,146.892,0.0514431
0.821567,-0.468804,-0.0388519,4.61836,6.12367,12.987,5,0.211558,0.0306302,34,102.692,0.0143371
0.88899,0.309754,0.303988,4.63873,6.20229,13.0361,6,0.00949243,0.00137435,43,43.7546,0.0453223
-0.899583,0.318471,0.0924757,4.64086,6.13078,12.9938,7,0.100228,0.0145113,53,153.371,0.0162402
0.0740766,-0.920899,0.371497,4.58106,6.07808,13.0067,8,0.0112359,0.00162678,64,92.7101,0.0477133
-0.777931,-0.416071,0.374643,4.52823,6.11747,13.059,9,0.128767,0.0186433,76,78.2589,0.0206755
0.550768,0.646356,0.501898,4.61847,6.21233,13.0549,10,0.0159791,0.00231351,89,119.774,0.041406
0.600064,-0.0724478,0.770239,4.59893,6.15299,13.0913,11,0.0706658,0.0102313,103,66.4949,0.0207653
-0.424326,0.380522,0.802437,4.56993,6.18753,13.0823,12,0.0160866,0.00232908,118,93.3924,0.0313126
0.239216,0.252962,0.918241,4.56615,6.18046,13.1038,13,0.0336462,0.00487143,18,43.5777,0.0583692
,,,,,,,,,25,160.323,0.0251285
,,,,,,,,,33,64.5948,0.120939
,,,,,,,,,42,116.659,0.017071
,,,,,,,,,52,106.772,0.0917946
,,,,,,,,,63,41.4594,0.0198392
,,,,,,,,,75,70.5362,0.102164
,,,,,,,,,88,144.724,0.0268845
,,,,,,,,,102,102.705,0.0770369
,,,,,,,,,117,126.991,0.0270365
,,,,,,,,,133,123.974,0.0481563
,,,,,,,,,32,128.359,0.0221644
,,,,,,,,,41,107.161,0.0735809
,,,,,,,,,51,155.664,0.0156493
,,,,,,,,,62,63.4753,0.0616685
,,,,,,,,,74,59.6562,0.0179446
,,,,,,,,,87,34.9034,0.066181
,,,,,,,,,101,157.371,0.0235194
,,,,,,,,,116,121.274,0.0546369
,,,,,,,,,132,94.0563,0.0236357
,,,,,,,,,149,119.641,0.0383324
,,,,,,,,,50,123.376,0.0275834
,,,,,,,,,61,75.0962,0.0115522
,,,,,,,,,73,66.8962,0.0257209
,,,,,,,,,86,157.634,0.0127567
,,,,,,,,,100,112.217,0.0264738
,,,,,,,,,115,51.5372,0.0153419
,,,,,,,,,131,96.1466,0.0244106
,,,,,,,,,148,65.1811,0.0153912
,,,,,,,,,166,75.6021,0.0205125
,,,,,,,,,72,52.2526,0.0181696
,,,,,,,,,85,169.325,0.136016
,,,,,,,,,99,59.5219,0.0213386
,,,,,,,,,114,120.36,0.160092
,,,,,,,,,130,81.9993,0.0297138
,,,,,,,,,147,57.5728,0.105944
,,,,,,,,,165,126.801,0.0298997
,,,,,,,,,184,87.3943,0.0580588
,,,,,,,,,98,135.196,0.0173424
,,,,,,,,,113,96.2047,0.0102909
,,,,,,,,,129,138.175,0.0176814
,,,,,,,,,146,30.3145,0.0119098
,,,,,,,,,164,39.7063,0.0167367
,,,,,,,,,183,90.9076,0.0119395
,,,,,,,,,203,54.0641,0.0148074
,,,,,,,,,128,109.938,0.0202066
,,,,,,,,,145,49.0763,0.112719
,,,,,,,,,163,104.901,0.0275637
,,,,,,,,,182,121.585,0.0828898
,,,,,,,,,202,52.2976,0.0277236
,,,,,,,,,223,93.027,0.05038
,,,,,,,,,162,60.8621,0.0206684
,,,,,,,,,181,112.001,0.0131942
,,,,,,,,,201,65.9506,0.019389
,,,,,,,,,222,94.9021,0.0132307
,,,,,,,,,244,82.6032,0.0168462
,,,,,,,,,200,122.598,0.0284301
,,,,,,,,,221,99.0804,0.0912529
,,,,,,,,,243,59.9498,0.0286002
,,,,,,,,,266,86.7922,0.0533518
,,,,,,,,,242,46.0526,0.0260644
,,,,,,,,,265,64.6952,0.0160327
,,,,,,,,,289,38.6884,0.0216678
,,,,,,,,,288,69.6018,0.0262073
,,,,,,,,,313,30.0221,0.045587
,,,,,,,,,338,40.8093,0.0217665
