"cellPairingIds","interplanarAngles","angleWeights"
8,66.1769,0.0201867
13,106.594,0.0410769
19,77.2783,0.109855
26,39.8542,0.0472355
18,120.796,0.0153358
33,99.0527,0.0161204
75,61.112,0.0157284
117,69.1835,0.0187659
32,43.1221,0.0403673
51,38.2623,0.032702
74,62.0978,0.0234143
87,123.426,0.026051
50,66.3638,0.0462996
73,58.7722,0.112133
86,40.1181,0.036407
85,38.6591,0.0476518
165,85.0663,0.0401264
113,68.5388,0.0300536
129,89.0598,0.0345408
146,72.3936,0.062019
203,49.8444,0.0176139
128,36.7117,0.0372379
163,36.9583,0.103044
202,86.4486,0.081694
181,27.0949,0.0353935
221,21.5293,0.032484
243,42.4549,0.0377823
266,72.4928,0.0154845
290,52.6319,0.0270772
242,85.0642,0.0556879
265,87.2328,0.0733124
289,38.6968,0.0193224
314,50.6203,0.0414864
288,28.0155,0.0487961
339,36.4563,0.0323024
392,27.8804,0.0154432
