Q	U	V
{$V$}	{[mm$^3$]}	0.00360984
{$d_v$}	{[mm]}	0.190325
{$S_c$}	{[mm$^2$]}	0.27368
{$S_o$}	{[mm$^2$]}	0.138661
{$S_l/S_o$}	[]	0.973735
{$\Psi$}	[]	0.415815
{$\eta$}	[]	0.425424
{med($\theta_e$)}	{[$^\circ$]}	
{$\Upsilon$}	[]	11
{$\Xi$}	[]	6
