"cellPairingIds","interplanarAngles","angleWeights"
8,43.5388,0.024048
13,56.381,0.0194577
19,48.6891,0.0246199
26,68.9317,0.0214769
43,55.3767,0.0260263
25,56.0022,0.0879719
33,50.9902,0.0577655
63,47.4897,0.0442357
75,81.16,0.0335115
41,72.419,0.0368713
62,64.9103,0.0526805
87,103.68,0.0252203
101,98.772,0.0395558
149,128.443,0.042083
167,132.372,0.0179205
73,47.4128,0.121855
86,67.4229,0.0462101
131,72.7368,0.0678125
114,45.1564,0.0287201
163,46.6313,0.0812349
182,84.0652,0.0796709
162,68.6454,0.0249292
201,71.4368,0.0384831
222,40.9627,0.0347891
244,68.0068,0.0412786
266,34.1759,0.0317864
242,44.5943,0.0530503
314,73.4822,0.0203543
288,47.8404,0.0457647
339,48.3214,0.0202547
338,39.7568,0.0497733
365,45.1712,0.0191826
392,39.2268,0.0210033
