Q	U	V
{$V$}	{[mm$^3$]}	0.00305767
{$d_v$}	{[mm]}	0.180079
{$S_c$}	{[mm$^2$]}	0.15437
{$S_o$}	{[mm$^2$]}	0.0970426
{$S_l/S_o$}	[]	0.590745
{$\Psi$}	[]	0.659956
{$\eta$}	[]	0.714018
{med($\theta_e$)}	{[$^\circ$]}	57.07575
{$\Upsilon$}	[]	16
{$\Xi$}	[]	10
