facetNormals:0,facetNormals:1,facetNormals:2,FacetCenters:0,FacetCenters:1,FacetCenters:2,FacetIds,relFacetSize,absFacetSize,cellPairingIds,interplanarAngles,angleWeights
-0.537307,0.455523,-0.693253,5.38163,4.6045,14.2931,1,0.0244714,0.00573958,8,36.4113,0.0414085
-0.875923,0.258043,-0.232716,5.38015,4.60969,14.3598,2,0.134495,0.0315449,13,106.563,0.0421869
0.786062,-0.166497,-0.360703,5.38406,4.58613,14.383,3,0.152812,0.035841,19,88.4639,0.0176631
0.744611,0.617639,-0.2091,5.41043,4.6597,14.4038,4,0.0138185,0.00324104,26,115.561,0.0341366
0.377634,-0.857134,-0.25824,5.39752,4.55009,14.3717,5,0.0564205,0.013233,34,79.4298,0.0312526
0.399589,0.8358,-0.00278955,5.41782,4.64099,14.428,6,0.0432328,0.0101399,43,128.654,0.0382391
0.0551971,-0.919057,0.190571,5.41387,4.52245,14.4343,7,0.0874246,0.0205048,53,78.9731,0.0392331
-0.846109,-0.374187,0.154155,5.38295,4.56084,14.4287,8,0.0988795,0.0231915,64,76.2625,0.0311177
-0.574378,0.612255,0.514183,5.39486,4.67079,14.4528,9,0.0427204,0.0100198,76,103.556,0.038267
-0.176479,0.509613,0.791771,5.41667,4.62863,14.5083,10,0.0877176,0.0205735,18,141.281,0.14307
,,,,,,,,,25,118.44,0.0250621
,,,,,,,,,33,122.495,0.0794936
,,,,,,,,,42,98.8088,0.0654327
,,,,,,,,,52,111.857,0.105968
,,,,,,,,,63,46.4721,0.11397
,,,,,,,,,75,54.2923,0.064844
,,,,,,,,,88,83.5234,0.106183
,,,,,,,,,32,50.2095,0.0253452
,,,,,,,,,41,51.4998,0.0824129
,,,,,,,,,51,77.5468,0.0673978
,,,,,,,,,62,81.1314,0.11122
,,,,,,,,,74,142.847,0.120067
,,,,,,,,,87,148.451,0.0667734
,,,,,,,,,101,127.118,0.111457
,,,,,,,,,50,101.651,0.0221999
,,,,,,,,,61,27.3628,0.020943
,,,,,,,,,73,127.49,0.0238649
,,,,,,,,,86,164.228,0.0242484
,,,,,,,,,100,99.2754,0.0208824
,,,,,,,,,115,88.925,0.0238758
,,,,,,,,,72,128.863,0.0489541
,,,,,,,,,85,33.7692,0.0685813
,,,,,,,,,99,92.4277,0.0718459
,,,,,,,,,114,156.101,0.0486238
,,,,,,,,,130,139.515,0.0686712
,,,,,,,,,98,149,0.0578553
,,,,,,,,,113,138.551,0.0601614
,,,,,,,,,129,72.0696,0.0429751
,,,,,,,,,146,66.548,0.0579193
,,,,,,,,,128,68.2642,0.0927999
,,,,,,,,,145,122.433,0.0573946
,,,,,,,,,163,111.302,0.0875708
,,,,,,,,,162,68.65,0.0596635
,,,,,,,,,181,84.848,0.0929647
,,,,,,,,,200,29.5418,0.0574576
