Q	U	V
{$V$}	{[mm$^3$]}	0.00162443
{$d_v$}	{[mm]}	0.145848
{$S_c$}	{[mm$^2$]}	0.152629
{$S_o$}	{[mm$^2$]}	0.0744631
{$S_l/S_o$}	[]	1.049727
{$\Psi$}	[]	0.437839
{$\eta$}	[]	0.486841
{med($\theta_e$)}	{[$^\circ$]}	
{$\Upsilon$}	[]	15
{$\Xi$}	[]	5
