facetNormals:0,facetNormals:1,facetNormals:2,FacetCenters:0,FacetCenters:1,FacetCenters:2,FacetIds,relFacetSize,absFacetSize,cellPairingIds,interplanarAngles,angleWeights
-0.511915,0.266139,-0.796182,6.23418,5.24697,12.6865,1,0.00555996,0.000565331,8,48.4821,0.0104909
-0.649523,-0.471008,-0.524497,6.18862,5.23423,12.6743,2,0.0927325,0.00942894,13,87.8378,0.00997934
0.809854,0.077487,-0.540308,6.26839,5.24633,12.6775,3,0.0486461,0.00494628,19,82.4789,0.010366
0.723957,0.461244,-0.469451,6.293,5.25335,12.6979,4,0.0764446,0.0077728,26,89.2005,0.00965751
0.39791,0.892276,0.0255783,6.26464,5.29467,12.7165,5,0.0367171,0.00373335,34,110.352,0.0101893
0.718094,0.644655,0.17502,6.31461,5.24306,12.7723,6,0.0608765,0.00618986,43,88.0115,0.0108008
-0.837559,-0.168181,0.441102,6.21374,5.22677,12.7394,7,0.188154,0.0191313,53,81.8033,0.0106649
-0.325273,0.843069,0.322043,6.20826,5.28844,12.7331,8,0.130324,0.0132512,64,111.888,0.00999903
0.127783,0.750663,0.621188,6.26808,5.26141,12.8031,9,0.0495982,0.00504309,76,159.899,0.0101673
0.191921,-0.339694,0.889276,6.27906,5.18855,12.8041,10,0.0593437,0.006034,18,107.347,0.0638155
,,,,,,,,,25,118.067,0.0838045
,,,,,,,,,33,137.631,0.0526053
,,,,,,,,,42,156.458,0.0735013
,,,,,,,,,52,64.8359,0.124235
,,,,,,,,,63,112.691,0.108361
,,,,,,,,,75,144.032,0.0646293
,,,,,,,,,88,117.588,0.0723728
,,,,,,,,,32,23.5873,0.0594566
,,,,,,,,,41,66.6979,0.0418481
,,,,,,,,,51,55.9041,0.0540784
,,,,,,,,,62,171.928,0.0773054
,,,,,,,,,74,113.401,0.070847
,,,,,,,,,87,100.444,0.0491176
,,,,,,,,,101,111.746,0.053465
,,,,,,,,,50,44.018,0.0496073
,,,,,,,,,61,40.0011,0.0677781
,,,,,,,,,73,161.301,0.108718
,,,,,,,,,86,89.8661,0.0963644
,,,,,,,,,100,81.1975,0.0601624
,,,,,,,,,115,117.262,0.0668173
,,,,,,,,,72,25.4591,0.0458065
,,,,,,,,,85,120.158,0.0614438
,,,,,,,,,99,47.6937,0.0572927
,,,,,,,,,114,39.9239,0.0421965
,,,,,,,,,130,102.412,0.0453656
,,,,,,,,,98,132.141,0.0919901
,,,,,,,,,113,67.0887,0.0829879
,,,,,,,,,129,44.7555,0.0546617
,,,,,,,,,146,85.5152,0.0601003
,,,,,,,,,128,72.8023,0.153989
,,,,,,,,,145,87.529,0.0785028
,,,,,,,,,163,71.9915,0.0902292
,,,,,,,,,162,32.9198,0.0718515
,,,,,,,,,181,93.8424,0.0815522
,,,,,,,,,200,70.2843,0.0540351
