facetNormals:0,facetNormals:1,facetNormals:2,FacetCenters:0,FacetCenters:1,FacetCenters:2,FacetIds,relFacetSize,absFacetSize,cellPairingIds,interplanarAngles,angleWeights
0.276588,0.404105,-0.789012,3.67933,5.21929,14.2539,1,0.0304836,0.00653258,8,54.4436,0.0311444
0.429531,-0.449292,-0.742006,3.64266,5.20385,14.2267,2,0.0318345,0.00682207,13,70.5538,0.0337977
-0.665418,-0.1281,-0.673121,3.61106,5.22186,14.225,3,0.0379202,0.00812622,19,79.7712,0.0216276
-0.854821,0.327538,-0.335687,3.59416,5.26443,14.26,4,0.0167589,0.0035914,26,101.732,0.0347383
-0.846685,0.441333,0.160952,3.5714,5.32281,14.3117,5,0.0403734,0.00865193,34,77.3446,0.0303878
-0.170907,0.939276,0.17106,3.62638,5.36803,14.37,6,0.0302925,0.00649163,43,122.674,0.0263772
0.247398,-0.928171,0.240533,3.76,5.13841,14.2686,7,0.0232457,0.00498151,53,79.5975,0.0373786
0.384189,0.826925,0.350599,3.7245,5.35884,14.3866,8,0.0483042,0.0103515,64,137.265,0.04868
-0.700813,-0.580073,0.28011,3.5975,5.22854,14.3122,9,0.120771,0.0258809,76,159.264,0.0372467
-0.331528,-0.695839,0.60794,3.64488,5.22995,14.3574,10,0.0478662,0.0102576,89,111.33,0.0425572
0.751516,-0.398391,0.476865,3.79182,5.23985,14.3342,11,0.0704666,0.0151009,103,150.955,0.0500997
0.170805,-0.550871,0.756716,3.72981,5.21594,14.3532,12,0.14053,0.0301153,118,115.985,0.0367181
0.368647,0.365234,0.814159,3.74326,5.3141,14.3586,13,0.0461584,0.00989166,18,72.9422,0.0346119
,,,,,,,,,25,106.323,0.0219582
,,,,,,,,,33,136.637,0.0355991
,,,,,,,,,42,131.522,0.0310444
,,,,,,,,,52,68.916,0.0268705
,,,,,,,,,63,119.571,0.038377
,,,,,,,,,75,105.63,0.0503872
,,,,,,,,,88,107.192,0.038238
,,,,,,,,,102,80.9815,0.0438562
,,,,,,,,,117,105.146,0.0519098
,,,,,,,,,133,130.736,0.0376811
,,,,,,,,,32,36.0641,0.0232447
,,,,,,,,,41,64.4743,0.0391084
,,,,,,,,,51,97.5513,0.0336799
,,,,,,,,,62,102.681,0.0288226
,,,,,,,,,74,129.824,0.0424869
,,,,,,,,,87,67.2156,0.0577178
,,,,,,,,,101,96.0901,0.0423166
,,,,,,,,,116,145.767,0.0493069
,,,,,,,,,132,127.439,0.0597245
,,,,,,,,,149,155.648,0.0416357
,,,,,,,,,50,30.4011,0.0236859
,,,,,,,,,61,65.2232,0.0215794
,,,,,,,,,73,128.136,0.0194764
,,,,,,,,,86,100.602,0.0248843
,,,,,,,,,100,70.1569,0.0294334
,,,,,,,,,115,98.9309,0.0248258
,,,,,,,,,131,168.892,0.0270779
,,,,,,,,,148,128.734,0.0299465
,,,,,,,,,166,119.868,0.0245899
,,,,,,,,,72,51.3324,0.0346139
,,,,,,,,,85,127.251,0.029504
,,,,,,,,,99,84.1694,0.0439842
,,,,,,,,,114,65.4843,0.0605163
,,,,,,,,,130,85.689,0.0438017
,,,,,,,,,147,141.153,0.0513348
,,,,,,,,,165,106.778,0.062726
,,,,,,,,,184,91.2196,0.0430725
,,,,,,,,,98,155.355,0.0263054
,,,,,,,,,113,35.536,0.0372346
,,,,,,,,,129,114.112,0.048436
,,,,,,,,,146,121.179,0.0371037
,,,,,,,,,164,116.436,0.0423706
,,,,,,,,,183,116.876,0.0498413
,,,,,,,,,203,63.3979,0.0365792
,,,,,,,,,128,127.445,0.0313869
,,,,,,,,,145,62.6942,0.0389872
,,,,,,,,,163,43.0755,0.0312939
,,,,,,,,,182,46.0306,0.034959
,,,,,,,,,202,38.672,0.0398926
,,,,,,,,,223,93.1158,0.0309199
,,,,,,,,,162,134.409,0.0690077
,,,,,,,,,181,120.702,0.0480842
,,,,,,,,,201,82.3706,0.0573177
,,,,,,,,,222,97.7043,0.0718958
,,,,,,,,,244,39.3739,0.047207
,,,,,,,,,200,30.3643,0.0685595
,,,,,,,,,221,100.051,0.0890025
,,,,,,,,,243,62.9544,0.129903
,,,,,,,,,266,105.278,0.0667898
,,,,,,,,,242,70.5997,0.0570082
,,,,,,,,,265,32.6154,0.0714095
,,,,,,,,,289,82.8116,0.0469968
,,,,,,,,,288,40.1969,0.0938658
,,,,,,,,,313,56.4893,0.0557792
,,,,,,,,,338,58.6544,0.0694917
