Q	U	V
{$V$}	{[mm$^3$]}	0.0020341
{$d_v$}	{[mm]}	0.157202
{$S_c$}	{[mm$^2$]}	0.134408
{$S_o$}	{[mm$^2$]}	0.0724406
{$S_l/S_o$}	[]	0.855424
{$\Psi$}	[]	0.577618
{$\eta$}	[]	0.614478
{med($\theta_e$)}	{[$^\circ$]}	86.8
{$\Upsilon$}	[]	14
{$\Xi$}	[]	5
