"cellPairingIds","interplanarAngles","angleWeights"
8,58.1712,0.09786
13,97.4715,0.0131166
43,67.3005,0.0988525
64,92.5815,0.0894372
18,133.457,0.0137821
25,112.642,0.0139006
42,30.2417,0.0138202
75,52.4316,0.133339
32,37.1052,0.00724849
41,47.59,0.00970096
62,116.597,0.0138016
132,56.7557,0.0121327
149,71.208,0.00994147
61,103.589,0.007259
115,78.1413,0.0130087
148,60.2996,0.0122245
85,76.1321,0.0270567
147,39.3378,0.0131986
184,37.0553,0.0153627
129,40.4057,0.0136388
146,31.6762,0.0129382
128,33.2078,0.0337701
145,68.3352,0.135189
182,62.3111,0.022154
162,35.9554,0.0325977
201,69.4694,0.0146159
244,85.6824,0.0173174
200,58.741,0.0804368
243,114.331,0.0575917
266,101.955,0.0281448
265,96.2705,0.0468742
313,18.3773,0.0136478
338,22.3351,0.0225063
