"cellPairingIds","interplanarAngles","angleWeights"
8,38.753,0.0205707
19,111.18,0.0540971
26,132.642,0.0455487
53,97.4439,0.0603954
18,65.0985,0.0250752
33,128.694,0.0222862
42,51.7911,0.0233539
63,129.061,0.0253333
75,92.217,0.0248374
41,73.8016,0.0756335
51,52.9031,0.089523
62,65.8739,0.0219697
87,80.7293,0.116106
101,106.9,0.036417
50,33.0718,0.0678281
86,77.329,0.106995
85,46.4551,0.0197989
99,98.8702,0.0780308
130,76.1145,0.0308162
129,43.5241,0.0865631
163,45.6613,0.015445
162,85.9005,0.121852
181,54.2477,0.0369638
200,51.7248,0.0359174
