"cellPairingIds","interplanarAngles","angleWeights"
8,40.7851,0.10115
13,38.8132,0.0365632
19,69.648,0.0695988
43,92.4724,0.0413559
53,108.422,0.0455429
33,34.8393,0.0247397
42,72.1822,0.11255
52,88.1438,0.0472794
63,133.175,0.0528323
102,76.9124,0.0610477
32,49.6656,0.0347196
74,75.5711,0.027479
73,59.4742,0.0390127
86,90.7663,0.0427175
100,47.7741,0.0328623
148,56.9727,0.0668036
85,69.0177,0.0182765
130,73.7233,0.0189656
147,49.9115,0.0200221
113,92.0954,0.0477191
164,33.5107,0.054322
203,38.3948,0.0458934
163,17.0859,0.0298892
202,34.0612,0.0403526
162,55.7332,0.0263025
244,86.9166,0.0314144
267,53.1259,0.0407806
243,51.1872,0.0338079
290,37.6439,0.0317039
242,79.2794,0.0348594
265,25.2577,0.0438722
289,85.9998,0.0311842
313,28.8049,0.0341468
338,91.6802,0.0427494
365,54.8407,0.0621848
392,69.0507,0.0394398
