"cellPairingIds","interplanarAngles","angleWeights"
8,49.807,0.0471513
13,52.2535,0.0391941
19,62.5185,0.0844158
34,52.7667,0.102245
53,67.2492,0.118404
64,72.5485,0.0863479
89,106.684,0.0344553
25,25.7731,0.0416067
42,22.4708,0.0455188
52,25.0546,0.0277537
51,61.4383,0.0380595
116,69.4064,0.0219697
73,26.2245,0.0374966
100,90.9026,0.0694089
115,59.431,0.0375196
166,95.0273,0.017709
98,35.1127,0.0406448
164,128.469,0.0335754
203,95.6996,0.0183814
223,76.1496,0.014606
162,41.3094,0.0908519
201,51.4841,0.0351507
222,60.4128,0.0829662
200,54.0089,0.0378965
243,56.549,0.0658394
265,72.6833,0.0364513
289,90.4562,0.0146095
288,51.3097,0.0306462
313,95.5903,0.0135786
338,87.0204,0.0174674
