Q	U	V
{$V$}	{[mm$^3$]}	0.00285818
{$d_v$}	{[mm]}	0.176075
{$S_c$}	{[mm$^2$]}	0.234761
{$S_o$}	{[mm$^2$]}	0.11812
{$S_l/S_o$}	[]	0.987479
{$\Psi$}	[]	0.414876
{$\eta$}	[]	0.495640
{med($\theta_e$)}	{[$^\circ$]}	51.5105
{$\Upsilon$}	[]	12
{$\Xi$}	[]	8
