Q	U	V
{$V$}	{[mm$^3$]}	0.00619728
{$d_v$}	{[mm]}	0.227895
{$S_c$}	{[mm$^2$]}	0.361186
{$S_o$}	{[mm$^2$]}	0.20141
{$S_l/S_o$}	[]	0.793287
{$\Psi$}	[]	0.451739
{$\eta$}	[]	0.473905
{med($\theta_e$)}	{[$^\circ$]}	
{$\Upsilon$}	[]	13
{$\Xi$}	[]	8
