Q	U	V
{$V$}	{[mm$^3$]}	0.00697862
{$d_v$}	{[mm]}	0.237096
{$S_c$}	{[mm$^2$]}	0.347638
{$S_o$}	{[mm$^2$]}	0.200997
{$S_l/S_o$}	[]	0.729568
{$\Psi$}	[]	0.508007
{$\eta$}	[]	0.581953
{med($\theta_e$)}	{[$^\circ$]}	78.378
{$\Upsilon$}	[]	14
{$\Xi$}	[]	8
