Q	U	V
{$V$}	{[mm$^3$]}	0.00116132
{$d_v$}	{[mm]}	0.130412
{$S_c$}	{[mm$^2$]}	0.100243
{$S_o$}	{[mm$^2$]}	0.0465553
{$S_l/S_o$}	[]	1.153203
{$\Psi$}	[]	0.533005
{$\eta$}	[]	0.591202
{med($\theta_e$)}	{[$^\circ$]}	78.9579
{$\Upsilon$}	[]	13
{$\Xi$}	[]	5
