facetNormals:0,facetNormals:1,facetNormals:2,FacetCenters:0,FacetCenters:1,FacetCenters:2,FacetIds,relFacetSize,absFacetSize,cellPairingIds,interplanarAngles,angleWeights
0.0508882,0.150135,-0.947927,5.95279,4.8564,12.8121,1,0.0305941,0.00231512,8,45.6541,0.00685542
0.0356791,-0.590086,-0.791881,5.96533,4.84642,12.883,2,0.0038602,0.000292109,13,49.4759,0.0421592
0.615436,-0.351416,-0.661112,5.96417,4.8189,12.7298,3,0.067782,0.00512921,19,37.851,0.0391805
0.648122,0.117727,-0.739263,5.94882,4.85328,12.7043,4,0.0544669,0.00412163,26,54.0457,0.015268
-0.226946,0.825709,-0.460092,5.95599,4.87632,12.9166,5,0.0101723,0.000769756,34,66.7432,0.0177811
-0.830504,0.195852,-0.388986,5.93916,4.88006,12.7691,6,0.0125324,0.000948354,43,76.1368,0.0559497
0.881194,0.343334,-0.130228,5.98572,4.88925,12.7909,7,0.326759,0.0247266,53,92.8744,0.0232706
-0.317442,0.873438,0.169324,5.95012,4.88776,12.8623,8,0.0187761,0.00142083,64,101.217,0.0377941
0.817285,-0.508237,0.15567,5.95541,4.8096,12.8239,9,0.0494259,0.00374017,76,105.617,0.0257971
-0.794292,-0.325451,0.143348,5.93406,4.83063,12.8228,10,0.0223005,0.00168752,89,100.629,0.0443588
0.105668,-0.965118,0.0344938,5.94598,4.78397,12.7867,11,0.0806393,0.00610215,103,117.46,0.0431658
0.385354,-0.830496,0.346887,5.95691,4.79004,12.7968,12,0.0732763,0.00554497,118,122.291,0.0125627
0.816367,-0.139349,0.564674,5.98248,4.872,12.883,13,0.00790421,0.000598128,134,134.964,0.00842579
-0.599291,0.297913,0.718553,5.94259,4.87037,12.8565,14,0.00488567,0.000369709,151,142.209,0.0161441
0.45982,0.207069,0.847967,5.95792,4.90514,12.8716,15,0.0109651,0.000829755,169,166.002,0.0347875
0.146858,-0.278948,0.926369,5.96746,4.85209,12.8689,16,0.040313,0.00305057,18,38.1819,0.00730441
,,,,,,,,,25,56.5702,0.00720945
,,,,,,,,,33,97.8376,0.00559659
,,,,,,,,,42,79.8802,0.00590237
,,,,,,,,,52,94.1354,0.00763026
,,,,,,,,,63,135.064,0.00640383
,,,,,,,,,75,77.6665,0.00716111
,,,,,,,,,88,86.6543,0.0065812
,,,,,,,,,102,55.3416,0.00736771
,,,,,,,,,117,76.3014,0.00733404
,,,,,,,,,133,109.816,0.00518714
,,,,,,,,,150,142.147,0.00431281
,,,,,,,,,168,142.867,0.00571017
,,,,,,,,,187,125.66,0.00704573
,,,,,,,,,32,28.1377,0.0603993
,,,,,,,,,41,97.6651,0.0176898
,,,,,,,,,51,110.803,0.0211537
,,,,,,,,,62,56.7155,0.112274
,,,,,,,,,74,132.138,0.0294064
,,,,,,,,,87,52.235,0.0571666
,,,,,,,,,101,123.802,0.0335597
,,,,,,,,,116,66.1054,0.0736538
,,,,,,,,,132,71.5896,0.0704222
,,,,,,,,,149,79.4375,0.0141575
,,,,,,,,,167,175.352,0.00911437
,,,,,,,,,186,111.496,0.0188766
,,,,,,,,,206,116.558,0.0505573
,,,,,,,,,50,72.4497,0.0171429
,,,,,,,,,61,104.192,0.0203764
,,,,,,,,,73,41.5129,0.0933701
,,,,,,,,,86,104.114,0.0279256
,,,,,,,,,100,68.4371,0.0518241
,,,,,,,,,115,139.894,0.0316446
,,,,,,,,,131,94.211,0.0650181
,,,,,,,,,148,96.1857,0.0624868
,,,,,,,,,166,84.4925,0.013805
,,,,,,,,,185,155.471,0.00896699
,,,,,,,,,205,108.16,0.0182552
,,,,,,,,,226,129.975,0.0463331
,,,,,,,,,72,54.5159,0.0112297
,,,,,,,,,85,81.109,0.0197303
,,,,,,,,,99,38.8308,0.0131956
,,,,,,,,,114,135.568,0.0168721
,,,,,,,,,130,100.517,0.0139715
,,,,,,,,,147,152.378,0.0180656
,,,,,,,,,165,168.55,0.0178646
,,,,,,,,,184,125.089,0.00889595
,,,,,,,,,204,86.9135,0.00660094
,,,,,,,,,225,109.714,0.0105538
,,,,,,,,,247,136.488,0.0162453
,,,,,,,,,98,133.297,0.024139
,,,,,,,,,113,65.3946,0.0150317
,,,,,,,,,129,156.566,0.0199949
,,,,,,,,,146,48.5569,0.0160468
,,,,,,,,,164,108.574,0.0216934
,,,,,,,,,183,132.276,0.0214041
,,,,,,,,,203,169.736,0.00969424
,,,,,,,,,224,72.5227,0.00703053
,,,,,,,,,246,136.506,0.0116965
,,,,,,,,,269,125.813,0.0191206
,,,,,,,,,128,90.1206,0.0355116
,,,,,,,,,145,55.63,0.085864
,,,,,,,,,163,178.088,0.0417515
,,,,,,,,,182,105.173,0.129356
,,,,,,,,,202,89.4324,0.119708
,,,,,,,,,223,51.3226,0.0154351
,,,,,,,,,245,123.646,0.00962738
,,,,,,,,,268,67.1421,0.0212182
,,,,,,,,,292,95.3439,0.0717714
,,,,,,,,,162,137.316,0.027214
,,,,,,,,,181,90.5469,0.0203871
,,,,,,,,,201,161.576,0.0304599
,,,,,,,,,222,148.549,0.0298926
,,,,,,,,,244,107.533,0.0111251
,,,,,,,,,267,51.9183,0.00775375
,,,,,,,,,291,78.9593,0.0138449
,,,,,,,,,316,98.298,0.0256196
,,,,,,,,,200,122.947,0.030734
,,,,,,,,,221,52.0676,0.0612873
,,,,,,,,,243,34.0317,0.0590332
,,,,,,,,,266,32.3099,0.0136289
,,,,,,,,,290,123.569,0.00889234
,,,,,,,,,315,65.2582,0.0179484
,,,,,,,,,341,64.8128,0.0444068
,,,,,,,,,242,73.854,0.0349388
,,,,,,,,,265,89.0634,0.0341944
,,,,,,,,,289,126.767,0.0116715
,,,,,,,,,314,55.6599,0.00801531
,,,,,,,,,340,111.241,0.0147015
,,,,,,,,,367,82.7867,0.0287158
,,,,,,,,,288,26.0929,0.0767817
,,,,,,,,,313,75.718,0.0143972
,,,,,,,,,339,109.986,0.00921314
,,,,,,,,,366,97.3133,0.0193052
,,,,,,,,,394,70.5411,0.0537536
,,,,,,,,,338,50.3508,0.0142692
,,,,,,,,,365,103.786,0.00916055
,,,,,,,,,393,71.9449,0.0190758
,,,,,,,,,422,50.4837,0.0520117
,,,,,,,,,392,97.2966,0.00603873
,,,,,,,,,421,33.4259,0.00918641
,,,,,,,,,451,45.9593,0.013217
,,,,,,,,,450,65.9098,0.00675953
,,,,,,,,,481,59.0247,0.00871512
,,,,,,,,,512,34.5344,0.0172408
