Q	U	V
{$V$}	{[mm$^3$]}	0.00245683
{$d_v$}	{[mm]}	0.167414
{$S_c$}	{[mm$^2$]}	0.16424
{$S_o$}	{[mm$^2$]}	0.0829593
{$S_l/S_o$}	[]	0.979766
{$\Psi$}	[]	0.536112
{$\eta$}	[]	0.598217
{med($\theta_e$)}	{[$^\circ$]}	51.5982
{$\Upsilon$}	[]	8
{$\Xi$}	[]	7
