facetNormals:0,facetNormals:1,facetNormals:2,FacetCenters:0,FacetCenters:1,FacetCenters:2,FacetIds,relFacetSize,absFacetSize,cellPairingIds,interplanarAngles,angleWeights
0.069817,-0.453541,-0.875691,6.05486,5.79929,10.4223,1,0.069824,0.01171,8,21.883,0.0932402
0.390649,-0.536458,-0.706415,6.10999,5.76138,10.4633,2,0.140287,0.0235272,13,78.2369,0.0254392
0.648169,0.561551,-0.463535,6.09918,5.87056,10.4353,3,0.0155528,0.00260833,19,84.8687,0.0663988
-0.401243,0.730627,-0.509018,5.98882,5.90136,10.4165,4,0.063294,0.0106149,26,52.0718,0.0316359
-0.71517,-0.479365,-0.49948,5.98297,5.77951,10.4629,5,0.0204509,0.00342978,34,70.0748,0.095296
-0.64024,-0.707465,-0.0522944,6.01375,5.75957,10.539,6,0.150026,0.0251605,43,95.0618,0.0329393
-0.81621,-0.485946,0.285408,6.00744,5.74733,10.5437,7,0.0215536,0.00361471,53,109.288,0.0510517
0.842932,0.179274,0.31676,6.1468,5.75034,10.5701,8,0.0402345,0.00674765,64,111.321,0.0467798
-0.866686,-0.18865,0.433945,5.96279,5.80814,10.5198,9,0.0351719,0.00589861,76,151.42,0.0441673
-0.229444,0.770869,0.546505,5.99354,5.8771,10.5031,10,0.0322991,0.00541681,89,137.995,0.0542241
-0.696027,0.228432,0.645078,5.98251,5.82624,10.5512,11,0.0443218,0.00743311,103,133.887,0.0130917
-0.542773,-0.162476,0.822667,6.03805,5.75946,10.6183,12,0.00722297,0.00121135,118,158.265,0.0457429
0.279897,0.345106,0.842208,6.10272,5.75915,10.596,13,0.0340126,0.00570417,18,72.7997,0.0280013
,,,,,,,,,25,101.524,0.0872314
,,,,,,,,,33,69.9583,0.0356978
,,,,,,,,,42,79.6527,0.144993
,,,,,,,,,52,105.677,0.0373663
,,,,,,,,,63,89.3977,0.0625342
,,,,,,,,,75,124.633,0.0562429
,,,,,,,,,88,160.648,0.0525088
,,,,,,,,,102,153.975,0.0673616
,,,,,,,,,117,136.822,0.0137386
,,,,,,,,,133,136.614,0.0547508
,,,,,,,,,32,66.0726,0.02497
,,,,,,,,,41,121.101,0.0176687
,,,,,,,,,51,147.771,0.0281839
,,,,,,,,,62,165.057,0.018068
,,,,,,,,,74,56.0238,0.0224338
,,,,,,,,,87,154.502,0.0215683
,,,,,,,,,101,88.1356,0.0209957
,,,,,,,,,116,130.81,0.0230258
,,,,,,,,,132,147.843,0.00986464
,,,,,,,,,149,90.9368,0.0213452
,,,,,,,,,50,78.6715,0.0309134
,,,,,,,,,61,104.481,0.0890282
,,,,,,,,,73,100.277,0.0321568
,,,,,,,,,86,114.261,0.0491962
,,,,,,,,,100,90.6516,0.0452171
,,,,,,,,,115,66.6053,0.0427717
,,,,,,,,,131,82.9009,0.0521355
,,,,,,,,,148,109.128,0.0129663
,,,,,,,,,166,108.095,0.0442476
,,,,,,,,,72,30.0708,0.0359951
,,,,,,,,,85,46.9359,0.0209878
,,,,,,,,,99,157.941,0.027118
,,,,,,,,,114,59.8597,0.0258634
,,,,,,,,,130,119.622,0.0250444
,,,,,,,,,147,86.1006,0.0279877
,,,,,,,,,165,86.82,0.0106755
,,,,,,,,,184,146.054,0.0255433
,,,,,,,,,98,26.0629,0.0376922
,,,,,,,,,113,141.127,0.0634522
,,,,,,,,,129,45.1338,0.0569845
,,,,,,,,,146,117.36,0.0531546
,,,,,,,,,164,74.4351,0.0684281
,,,,,,,,,183,63.9337,0.0137824
,,,,,,,,,203,120.907,0.0554533
,,,,,,,,,128,138.753,0.0280701
,,,,,,,,,145,19.5544,0.0267281
,,,,,,,,,163,91.8627,0.0258543
,,,,,,,,,182,48.5246,0.0290031
,,,,,,,,,202,40.1979,0.01082
,,,,,,,,,223,99.4938,0.0263863
,,,,,,,,,162,133.748,0.0375333
,,,,,,,,,181,82.4115,0.0358327
,,,,,,,,,201,112.393,0.0421794
,,,,,,,,,222,104.27,0.0122473
,,,,,,,,,244,49.7781,0.0368629
,,,,,,,,,200,72.3841,0.0336743
,,,,,,,,,221,29.3559,0.0392203
,,,,,,,,,243,29.5489,0.0119847
,,,,,,,,,266,86.4766,0.0345825
,,,,,,,,,242,43.514,0.0373672
,,,,,,,,,265,62.475,0.0118058
,,,,,,,,,289,44.3543,0.0331337
,,,,,,,,,288,26.6598,0.0124216
,,,,,,,,,313,62.6302,0.0384888
,,,,,,,,,338,59.3527,0.0119155
