facetNormals:0,facetNormals:1,facetNormals:2,FacetCenters:0,FacetCenters:1,FacetCenters:2,FacetIds,relFacetSize,absFacetSize,cellPairingIds,interplanarAngles,angleWeights
-0.217011,0.111832,-0.938541,5.94852,3.79198,13.7508,1,0.025629,0.00623933,8,50.5383,0.0239243
0.0386066,-0.653887,-0.731838,5.93372,3.76564,13.7636,2,0.0224323,0.00546108,13,43.3256,0.0342983
-0.71902,-0.282668,-0.605062,5.88346,3.78168,13.7895,3,0.0518303,0.012618,19,57.1843,0.0393017
0.421113,0.662664,-0.557698,5.93318,3.8974,13.7628,4,0.084245,0.0205092,26,60.6371,0.025857
-0.388993,-0.743766,-0.491482,5.9069,3.77477,13.7777,5,0.026089,0.00635132,34,41.5373,0.0217409
-0.631074,0.483428,-0.539581,5.93582,3.85614,13.7876,6,0.0188771,0.00459559,43,87.8294,0.0369548
0.416341,-0.808442,-0.229299,5.93491,3.70629,13.8607,7,0.0662169,0.0161204,53,70.4336,0.03237
-0.82541,-0.490001,-0.207362,5.86781,3.75188,13.8803,8,0.0439225,0.0106928,64,85.9487,0.0444418
-0.932083,0.157779,0.164274,5.87054,3.80992,13.8673,9,0.167101,0.0406802,76,105.689,0.0292514
-0.843022,-0.265094,0.439059,5.87709,3.73881,13.9393,10,0.0340663,0.00829336,89,109.955,0.0390832
-0.493224,0.655146,0.537958,5.90831,3.85667,13.9366,11,0.0822734,0.0200293,103,134.337,0.0345784
-0.306682,-0.58348,0.691018,5.92601,3.77623,13.9098,12,0.0531312,0.0129347,118,147.74,0.0216287
-0.315355,-0.00433609,0.932708,5.93272,3.74668,13.9498,13,0.0187085,0.00455454,18,51.5083,0.0313124
,,,,,,,,,25,90.5394,0.0354303
,,,,,,,,,33,29.5548,0.0241229
,,,,,,,,,42,86.6942,0.0205017
,,,,,,,,,52,39.3257,0.0335118
,,,,,,,,,63,62.8392,0.0296974
,,,,,,,,,75,105.976,0.0395546
,,,,,,,,,88,100.735,0.0270515
,,,,,,,,,102,150.834,0.0352527
,,,,,,,,,117,98.3385,0.0315457
,,,,,,,,,133,135.686,0.0204018
,,,,,,,,,32,99.2959,0.0641769
,,,,,,,,,41,34.4266,0.0347078
,,,,,,,,,51,46.9524,0.0276748
,,,,,,,,,62,85.7687,0.0581469
,,,,,,,,,74,27.1566,0.0475499
,,,,,,,,,87,56.0247,0.0791197
,,,,,,,,,101,64.5956,0.0411114
,,,,,,,,,116,99.3311,0.0635964
,,,,,,,,,132,91.9976,0.0524727
,,,,,,,,,149,110.374,0.0274931
,,,,,,,,,50,114.106,0.0398403
,,,,,,,,,61,67.4044,0.0308431
,,,,,,,,,73,104.919,0.0741509
,,,,,,,,,86,126.056,0.0577409
,,,,,,,,,100,114.253,0.112016
,,,,,,,,,115,144.694,0.0485146
,,,,,,,,,131,94.4679,0.0832476
,,,,,,,,,148,168.477,0.0651647
,,,,,,,,,166,133.762,0.0306176
,,,,,,,,,72,80.6938,0.0219047
,,,,,,,,,85,52.7576,0.0374307
,,,,,,,,,99,34.474,0.0327345
,,,,,,,,,114,79.8488,0.0451318
,,,,,,,,,130,71.2001,0.0295487
,,,,,,,,,147,125.933,0.0396158
,,,,,,,,,165,76.7026,0.0349946
,,,,,,,,,184,110.317,0.0217908
,,,,,,,,,98,126.018,0.0293789
,,,,,,,,,113,65.1907,0.0264056
,,,,,,,,,129,51.3438,0.0339221
,,,,,,,,,146,79.8579,0.0242929
,,,,,,,,,164,68.999,0.0307084
,,,,,,,,,183,120.189,0.0278569
,,,,,,,,,203,108.896,0.0187924
,,,,,,,,,128,83.7644,0.0528133
,,,,,,,,,145,127.943,0.0948483
,,,,,,,,,163,104.861,0.0449879
,,,,,,,,,182,158.943,0.0733771
,,,,,,,,,202,78.0413,0.0589567
,,,,,,,,,223,111.717,0.0291743
,,,,,,,,,162,45.7107,0.0695609
,,,,,,,,,181,40.6985,0.0383716
,,,,,,,,,201,91.5149,0.0572705
,,,,,,,,,222,65.0401,0.04809
,,,,,,,,,244,85.907,0.0262402
,,,,,,,,,200,30.4696,0.0565948
,,,,,,,,,221,46.1893,0.11026
,,,,,,,,,243,70.4049,0.0806264
,,,,,,,,,266,61.797,0.0336496
,,,,,,,,,242,60.3805,0.0481822
,,,,,,,,,265,40.4968,0.0415146
,,,,,,,,,289,45.8683,0.0241528
,,,,,,,,,288,81.3579,0.0645662
,,,,,,,,,313,47.3324,0.0304849
,,,,,,,,,338,37.7203,0.0276728
