"cellPairingIds","interplanarAngles","angleWeights"
8,58.2631,0.0794802
13,35.6724,0.128919
19,61.8169,0.044285
26,63.075,0.106116
25,38.3154,0.0371453
33,107.684,0.0726535
75,69.6377,0.0448664
88,160.351,0.0293429
32,66.811,0.0452563
41,69.0678,0.111869
51,38.9267,0.116655
62,49.1415,0.0609678
74,56.7323,0.115249
73,39.8723,0.0320243
100,36.9048,0.0309716
99,59.3723,0.0966771
130,60.3739,0.0323398
98,27.949,0.05649
113,50.6247,0.10023
164,45.9691,0.0863321
145,33.5476,0.0376034
182,56.5021,0.051512
181,48.7326,0.0326163
201,57.1338,0.0855599
200,128.753,0.0253511
221,57.5145,0.0488418
242,72.2196,0.0309927
