"cellPairingIds","interplanarAngles","angleWeights"
8,80.2963,0.0177348
26,74.5625,0.0150671
34,124.755,0.0186601
43,97.8486,0.0207025
53,61.3874,0.0108404
103,84.8884,0.0196599
42,60.0009,0.0535766
52,56.101,0.0747504
102,79.1378,0.0669853
85,43.5514,0.0428052
130,69.0476,0.0310516
165,61.7918,0.0385752
113,120.575,0.0183398
129,36.2154,0.0181899
164,53.7639,0.0824211
163,42.0695,0.0707326
182,58.6127,0.146075
162,99.2628,0.01068
222,57.4992,0.0193046
244,32.4352,0.0193013
291,68.0804,0.0170252
316,94.9066,0.0164401
221,53.478,0.0195162
341,42.0984,0.0163196
242,21.6513,0.0637407
265,93.6701,0.0598821
367,57.9337,0.0388724
394,48.6061,0.0542499
338,32.071,0.0959007
393,56.6856,0.057624
422,74.0892,0.0514294
421,43.3527,0.0575941
512,27.1207,0.0379081
