"cellPairingIds","interplanarAngles","angleWeights"
34,93.4126,0.00618682
43,43.6694,0.0124135
76,112.318,0.00923109
98,135.564,0.00993005
146,44.2446,0.00778354
203,118.415,0.0105505
246,73.392,0.0102955
163,146.965,0.021097
223,85.8914,0.0729577
245,123.913,0.0170891
292,97.3134,0.0563132
314,53.1492,0.011589
340,67.8644,0.0228179
367,97.4778,0.0219637
421,57.5751,0.0986989
451,45.8874,0.0844872
481,47.6554,0.0176533
512,55.6596,0.0705066
