Q	U	V
{$V$}	{[mm$^3$]}	0.00156505
{$d_v$}	{[mm]}	0.144049
{$S_c$}	{[mm$^2$]}	0.136378
{$S_o$}	{[mm$^2$]}	0.062039
{$S_l/S_o$}	[]	1.198262
{$\Psi$}	[]	0.477997
{$\eta$}	[]	0.529610
{med($\theta_e$)}	{[$^\circ$]}	
{$\Upsilon$}	[]	18
{$\Xi$}	[]	6
