"cellPairingIds","interplanarAngles","angleWeights"
8,51.5947,0.0192077
13,36.12,0.00958314
19,67.9473,0.0468664
26,71.9806,0.0408077
18,57.6665,0.00825966
25,103.022,0.0262759
42,83.0244,0.0152517
88,89.9338,0.0219364
133,116.108,0.0264159
41,71.6673,0.0106937
87,87.4767,0.0105049
101,84.7531,0.0102172
132,109.139,0.0104399
50,57.6078,0.0952342
61,66.9812,0.0287016
131,66.2004,0.0997657
114,45.0872,0.0651498
147,55.4897,0.0758069
164,89.2047,0.0266437
203,58.6902,0.0288687
221,46.2021,0.0672391
243,29.2553,0.0567444
290,57.5084,0.0332686
265,56.3451,0.0492546
289,72.3113,0.0682155
314,58.1459,0.0305454
313,65.7907,0.101814
339,50.0157,0.0358416
365,29.0294,0.0326252
392,33.0902,0.0399874
