Q	U	V
{$V$}	{[mm$^3$]}	0.0041905
{$d_v$}	{[mm]}	0.200027
{$S_c$}	{[mm$^2$]}	0.181992
{$S_o$}	{[mm$^2$]}	0.117592
{$S_l/S_o$}	[]	0.547656
{$\Psi$}	[]	0.690678
{$\eta$}	[]	0.730038
{med($\theta_e$)}	{[$^\circ$]}	48.5673
{$\Upsilon$}	[]	20
{$\Xi$}	[]	7
