Q	U	V
{$V$}	{[mm$^3$]}	0.00687294
{$d_v$}	{[mm]}	0.235893
{$S_c$}	{[mm$^2$]}	0.298738
{$S_o$}	{[mm$^2$]}	0.191247
{$S_l/S_o$}	[]	0.562053
{$\Psi$}	[]	0.585179
{$\eta$}	[]	0.659769
{med($\theta_e$)}	{[$^\circ$]}	93.1023
{$\Upsilon$}	[]	13
{$\Xi$}	[]	8
