facetNormals:0,facetNormals:1,facetNormals:2,FacetCenters:0,FacetCenters:1,FacetCenters:2,FacetIds,relFacetSize,absFacetSize,cellPairingIds,interplanarAngles,angleWeights
0.750852,0.0444631,-0.629747,3.7168,4.98366,11.4447,1,0.0181955,0.00375365,8,108.807,0.0293974
-0.746668,-0.436303,-0.434946,3.54111,4.92217,11.2859,2,0.0764842,0.0157783,13,103.844,0.0223004
-0.69517,0.564331,-0.42033,3.55492,5.01922,11.2638,3,0.0287971,0.0059407,19,69.6897,0.0326687
0.368173,-0.839446,-0.120158,3.64293,4.89898,11.4304,4,0.159689,0.0329432,26,125.638,0.0266749
-0.915522,0.27256,-0.188593,3.52964,4.97539,11.336,5,0.0499546,0.0103054,34,105.145,0.0298452
-0.449591,0.862551,-0.0780045,3.58754,5.02532,11.3506,6,0.0829615,0.0171146,43,47.7019,0.0262225
0.768427,0.563378,-0.043976,3.68912,5.02486,11.3995,7,0.0469223,0.00967985,53,87.2243,0.022654
0.0670809,0.987206,0.0748281,3.62638,5.044,11.4083,8,0.0300066,0.00619022,64,126.303,0.0229265
-0.615957,-0.747861,0.112326,3.54835,4.892,11.4109,9,0.0309822,0.00639149,76,157.96,0.0219173
-0.802963,-0.358223,0.431588,3.54252,4.91907,11.4288,10,0.027553,0.00568406,89,155.496,0.0239811
-0.814546,0.329609,0.454075,3.53094,4.98562,11.4107,11,0.0351613,0.00725361,103,88.1901,0.0277321
0.368708,0.783855,0.446999,3.67769,5.03749,11.4448,12,0.0582755,0.012022,118,88.1093,0.0178998
0.637954,0.0474051,0.714688,3.70856,4.95049,11.486,13,0.0176136,0.0036336,134,155.657,0.031403
-0.492153,0.227842,0.794203,3.61412,4.95085,11.5001,14,0.114553,0.0236318,18,61.583,0.0418407
,,,,,,,,,25,80.7654,0.10343
,,,,,,,,,33,46.6752,0.0604362
,,,,,,,,,42,90.4071,0.0795913
,,,,,,,,,52,150.101,0.0581625
,,,,,,,,,63,122.305,0.0431029
,,,,,,,,,75,38.6509,0.0441003
,,,,,,,,,88,53.1871,0.0405118
,,,,,,,,,102,73.8146,0.0481754
,,,,,,,,,117,149.344,0.0661497
,,,,,,,,,133,150.469,0.0286332
,,,,,,,,,150,94.7672,0.0917255
,,,,,,,,,32,137.962,0.0487949
,,,,,,,,,41,25.4659,0.0365337
,,,,,,,,,51,30.4495,0.0427537
,,,,,,,,,62,102.1,0.0356903
,,,,,,,,,74,60.7884,0.0293894
,,,,,,,,,87,92.4392,0.0298497
,,,,,,,,,101,79.6157,0.0281613
,,,,,,,,,116,54.9835,0.0316625
,,,,,,,,,132,90.1098,0.0385463
,,,,,,,,,149,139.101,0.0218579
,,,,,,,,,167,81.7268,0.0460243
,,,,,,,,,50,127.119,0.0761025
,,,,,,,,,61,167.35,0.109194
,,,,,,,,,73,102.092,0.0725321
,,,,,,,,,86,152.404,0.0505201
,,,,,,,,,100,64.5476,0.0518958
,,,,,,,,,115,92.9613,0.0469971
,,,,,,,,,131,133.648,0.0576327
,,,,,,,,,148,129.728,0.0853897
,,,,,,,,,166,82.9256,0.0317276
,,,,,,,,,185,121.753,0.133407
,,,,,,,,,72,45.8818,0.0623598
,,,,,,,,,85,125.678,0.048391
,,,,,,,,,99,78.4443,0.0374924
,,,,,,,,,114,69.0925,0.0382448
,,,,,,,,,130,54.3302,0.0355165
,,,,,,,,,147,38.8577,0.0412724
,,,,,,,,,165,102.673,0.0537952
,,,,,,,,,184,139.102,0.0260442
,,,,,,,,,204,67.1979,0.0695707
,,,,,,,,,98,81.1065,0.0599419
,,,,,,,,,113,32.6255,0.0440725
,,,,,,,,,129,113.329,0.0451158
,,,,,,,,,146,88.8997,0.0413672
,,,,,,,,,164,50.4098,0.0493898
,,,,,,,,,183,60.0082,0.0684611
,,,,,,,,,203,108.803,0.0290579
,,,,,,,,,224,67.717,0.0962308
,,,,,,,,,128,50.3133,0.0366046
,,,,,,,,,145,165.229,0.0373215
,,,,,,,,,163,153.738,0.0347189
,,,,,,,,,182,119.195,0.0401992
,,,,,,,,,202,40.6642,0.0519862
,,,,,,,,,223,57.9499,0.0256127
,,,,,,,,,245,108.084,0.0665747
,,,,,,,,,162,142.828,0.0304866
,,,,,,,,,181,112.709,0.0287275
,,,,,,,,,201,71.912,0.0323801
,,,,,,,,,222,30.6658,0.039615
,,,,,,,,,244,81.3546,0.0221974
,,,,,,,,,267,74.7296,0.0475561
,,,,,,,,,200,31.9079,0.0291672
,,,,,,,,,221,71.4926,0.0329397
,,,,,,,,,243,143.383,0.040456
,,,,,,,,,266,111.846,0.022459
,,,,,,,,,290,76.3123,0.0487732
,,,,,,,,,242,40.9277,0.0308956
,,,,,,,,,265,113.711,0.0374157
,,,,,,,,,289,103.592,0.0214896
,,,,,,,,,314,45.8313,0.0444215
,,,,,,,,,288,80.3868,0.0438594
,,,,,,,,,313,100.906,0.0234701
,,,,,,,,,339,28.417,0.0538069
,,,,,,,,,338,50.728,0.027051
,,,,,,,,,365,67.9362,0.0772516
,,,,,,,,,392,73.3413,0.0305325
