facetNormals:0,facetNormals:1,facetNormals:2,FacetCenters:0,FacetCenters:1,FacetCenters:2,FacetIds,relFacetSize,absFacetSize,cellPairingIds,interplanarAngles,angleWeights
0.106477,-0.0846718,-0.958228,4.52775,4.23522,13.8263,1,0.0270604,0.00676302,8,42.2153,0.0388038
0.629086,-0.336924,-0.595703,4.57527,4.19065,13.856,2,0.0685542,0.0171333,13,58.8553,0.0374642
-0.66317,-0.48644,-0.546563,4.47106,4.21332,13.8499,3,0.0608647,0.0152115,19,74.0707,0.0438981
-0.509939,-0.764418,-0.253343,4.48041,4.17467,13.8955,4,0.116202,0.0290416,26,67.1022,0.0261717
0.216247,-0.913419,-0.280234,4.49198,4.20211,13.9301,5,0.0253396,0.00633294,34,77.6297,0.0286199
0.213065,0.9209,-0.270429,4.52553,4.31107,13.7925,6,0.0303702,0.00759022,43,77.2673,0.0399048
0.859579,0.392634,-0.152263,4.58029,4.25657,13.8093,7,0.0759592,0.0189839,53,100.837,0.0321632
-0.931883,-0.279234,0.106969,4.41856,4.20316,13.957,8,0.0396376,0.00990634,64,98.0705,0.0270122
-0.224647,-0.932721,0.196315,4.49444,4.15191,14.0002,9,0.0269641,0.00673894,76,97.7632,0.0425685
-0.502264,0.797097,0.00229585,4.44086,4.29037,13.895,10,0.099713,0.0249206,89,96.9109,0.0396033
0.522201,-0.710438,0.231594,4.5634,4.14236,13.9435,11,0.0738195,0.0184492,103,107.346,0.0248438
0.236789,0.921703,0.240445,4.51021,4.28855,13.8753,12,0.0229628,0.00573893,118,135.05,0.0271039
-0.597987,0.498616,0.586124,4.45695,4.24784,13.8948,13,0.0271475,0.00678479,134,138.741,0.0334062
0.254811,0.591638,0.696215,4.52887,4.19154,13.8516,14,0.0436401,0.0109067,18,85.4831,0.064481
,,,,,,,,,25,84.3215,0.0862341
,,,,,,,,,33,47.8815,0.0370021
,,,,,,,,,42,90.9493,0.0420929
,,,,,,,,,52,55.8757,0.072067
,,,,,,,,,63,127.662,0.0502316
,,,,,,,,,75,86.4739,0.0387046
,,,,,,,,,88,131.988,0.0812487
,,,,,,,,,102,59.515,0.0710895
,,,,,,,,,117,109.516,0.0344023
,,,,,,,,,133,170.436,0.0388933
,,,,,,,,,150,120.974,0.0533309
,,,,,,,,,32,25.6527,0.0798864
,,,,,,,,,41,62.0045,0.0357821
,,,,,,,,,51,117.046,0.0405212
,,,,,,,,,62,135.815,0.0675793
,,,,,,,,,74,43.9864,0.0480094
,,,,,,,,,87,59.1839,0.0373718
,,,,,,,,,101,93.4451,0.0755896
,,,,,,,,,116,98.1297,0.0667191
,,,,,,,,,132,139.479,0.0333452
,,,,,,,,,149,99.9529,0.0375476
,,,,,,,,,167,153.371,0.0508329
,,,,,,,,,50,45.1127,0.0416063
,,,,,,,,,61,142.563,0.0481549
,,,,,,,,,73,140.095,0.0918669
,,,,,,,,,86,44.8328,0.0591117
,,,,,,,,,100,33.5622,0.0437713
,,,,,,,,,115,113.2,0.107328
,,,,,,,,,131,75.4631,0.0902844
,,,,,,,,,148,161.306,0.0383477
,,,,,,,,,166,103.999,0.0440127
,,,,,,,,,185,147.038,0.063451
,,,,,,,,,72,138.32,0.0276278
,,,,,,,,,85,97.9746,0.0380019
,,,,,,,,,99,88.5916,0.0309155
,,,,,,,,,114,38.7283,0.0261266
,,,,,,,,,130,155.13,0.04041
,,,,,,,,,147,38.6996,0.0377284
,,,,,,,,,165,153.178,0.0240927
,,,,,,,,,184,141.681,0.0262124
,,,,,,,,,204,137.078,0.0320622
,,,,,,,,,98,51.4945,0.0433915
,,,,,,,,,113,120.243,0.0343905
,,,,,,,,,129,175.57,0.028566
,,,,,,,,,146,47.447,0.0465595
,,,,,,,,,164,132.509,0.0430352
,,,,,,,,,183,30.1766,0.0261521
,,,,,,,,,203,79.5818,0.0286686
,,,,,,,,,224,63.8592,0.0358155
,,,,,,,,,128,171.689,0.0520921
,,,,,,,,,145,128.946,0.0397999
,,,,,,,,,163,97.5902,0.0862302
,,,,,,,,,182,81.122,0.0748741
,,,,,,,,,202,55.7463,0.0352649
,,,,,,,,,223,115.902,0.0399994
,,,,,,,,,245,67.645,0.0554329
,,,,,,,,,162,59.1964,0.032095
,,,,,,,,,181,74.5445,0.0567257
,,,,,,,,,201,107.177,0.0515795
,,,,,,,,,222,118.09,0.0290794
,,,,,,,,,244,59.7338,0.0322246
,,,,,,,,,267,110.704,0.0415426
,,,,,,,,,200,133.082,0.0424492
,,,,,,,,,221,48.5636,0.0395
,,,,,,,,,243,154.241,0.0248031
,,,,,,,,,266,103.061,0.0270555
,,,,,,,,,290,120.569,0.0333327
,,,,,,,,,242,164.599,0.0848345
,,,,,,,,,265,48.2058,0.0373291
,,,,,,,,,289,40.4079,0.0426762
,,,,,,,,,314,67.2758,0.06071
,,,,,,,,,288,122.099,0.0350292
,,,,,,,,,313,126.686,0.0396965
,,,,,,,,,339,98.3802,0.0548527
,,,,,,,,,338,61.3309,0.0248804
,,,,,,,,,365,33.866,0.0300917
,,,,,,,,,392,53.434,0.0334725
