facetNormals:0,facetNormals:1,facetNormals:2,FacetCenters:0,FacetCenters:1,FacetCenters:2,FacetIds,relFacetSize,absFacetSize,cellPairingIds,interplanarAngles,angleWeights
-0.209383,0.327318,-0.902611,4.36102,5.09998,13.7426,1,0.0305421,0.00367143,8,45.4751,0.0498629
0.505391,0.304757,-0.713794,4.43837,5.03805,13.7896,2,0.135717,0.0163144,13,53.5404,0.0468441
0.320832,-0.378026,-0.845841,4.4316,4.96873,13.7851,3,0.100472,0.0120776,19,53.5648,0.0378711
-0.184422,0.855095,-0.232372,4.38061,5.09127,13.8093,4,0.049828,0.00598976,26,43.9184,0.0409621
-0.699039,-0.161241,-0.661694,4.35364,4.99487,13.7832,5,0.0621742,0.00747389,34,72.6728,0.0489991
0.765714,-0.202897,-0.567093,4.46945,5.00552,13.8122,6,0.123834,0.0148859,43,73.0535,0.0337865
-0.720102,-0.570117,-0.351814,4.34404,4.97855,13.8032,7,0.0378023,0.00454417,53,85.7649,0.0336185
-0.317327,-0.874697,-0.322769,4.39001,4.95799,13.8179,8,0.037384,0.00449389,64,59.2161,0.0427447
-0.769758,0.542385,-0.156657,4.33278,5.09921,13.7963,9,0.0711862,0.00855721,76,129.19,0.0267407
-0.399039,-0.714097,0.489409,4.40899,4.91023,13.8593,10,0.0237809,0.00285867,18,44.2279,0.115465
,,,,,,,,,25,66.5749,0.0728934
,,,,,,,,,33,85.5657,0.0852801
,,,,,,,,,42,36.0029,0.129503
,,,,,,,,,52,108.335,0.0591336
,,,,,,,,,63,102.444,0.0586206
,,,,,,,,,75,97.272,0.0933884
,,,,,,,,,88,150.529,0.0404704
,,,,,,,,,32,102.09,0.0666176
,,,,,,,,,41,65.5292,0.0768141
,,,,,,,,,51,32.893,0.110936
,,,,,,,,,62,72.9921,0.0549353
,,,,,,,,,74,58.6859,0.0544923
,,,,,,,,,87,109.96,0.0833308
,,,,,,,,,101,106.922,0.0384589
,,,,,,,,,50,80.5651,0.0553206
,,,,,,,,,61,101.974,0.0710621
,,,,,,,,,73,107.855,0.04299
,,,,,,,,,86,133.573,0.0427182
,,,,,,,,,100,41.9922,0.0586223
,,,,,,,,,115,138.96,0.032196
,,,,,,,,,72,97.6948,0.0827842
,,,,,,,,,85,30.3792,0.0470176
,,,,,,,,,99,53.151,0.0466927
,,,,,,,,,114,53.4898,0.0663757
,,,,,,,,,130,85.6697,0.034403
,,,,,,,,,98,104.272,0.0579227
,,,,,,,,,113,82.9638,0.0574304
,,,,,,,,,129,131.041,0.0904036
,,,,,,,,,146,118.155,0.0398995
,,,,,,,,,128,29.7797,0.037592
,,,,,,,,,145,71.3529,0.0493814
,,,,,,,,,163,56.1466,0.0291954
,,,,,,,,,162,101.013,0.0490231
,,,,,,,,,181,50.807,0.0290698
,,,,,,,,,200,99.9237,0.0356518
