Q	U	V
{$V$}	{[mm$^3$]}	0.0126036
{$d_v$}	{[mm]}	0.288734
{$S_c$}	{[mm$^2$]}	0.383283
{$S_o$}	{[mm$^2$]}	0.273076
{$S_l/S_o$}	[]	0.403576
{$\Psi$}	[]	0.683326
{$\eta$}	[]	0.691335
{med($\theta_e$)}	{[$^\circ$]}	53.9578
{$\Upsilon$}	[]	18
{$\Xi$}	[]	11
