Q	U	V
{$V$}	{[mm$^3$]}	0.0179981
{$d_v$}	{[mm]}	0.325144
{$S_c$}	{[mm$^2$]}	0.644774
{$S_o$}	{[mm$^2$]}	0.392189
{$S_l/S_o$}	[]	0.644039
{$\Psi$}	[]	0.515103
{$\eta$}	[]	0.533852
{med($\theta_e$)}	{[$^\circ$]}	66.1565
{$\Upsilon$}	[]	12
{$\Xi$}	[]	11
