Q	U	V
{$V$}	{[mm$^3$]}	0.00593486
{$d_v$}	{[mm]}	0.224631
{$S_c$}	{[mm$^2$]}	0.243448
{$S_o$}	{[mm$^2$]}	0.159954
{$S_l/S_o$}	[]	0.521988
{$\Psi$}	[]	0.651156
{$\eta$}	[]	0.688200
{med($\theta_e$)}	{[$^\circ$]}	62.45755
{$\Upsilon$}	[]	12
{$\Xi$}	[]	7
