Q	U	V
{$V$}	{[mm$^3$]}	0.0121203
{$d_v$}	{[mm]}	0.284996
{$S_c$}	{[mm$^2$]}	0.585807
{$S_o$}	{[mm$^2$]}	0.361334
{$S_l/S_o$}	[]	0.621234
{$\Psi$}	[]	0.435584
{$\eta$}	[]	0.452721
{med($\theta_e$)}	{[$^\circ$]}	71.4824
{$\Upsilon$}	[]	10
{$\Xi$}	[]	19
