Q	U	V
{$V$}	{[mm$^3$]}	0.0142161
{$d_v$}	{[mm]}	0.300557
{$S_c$}	{[mm$^2$]}	0.468857
{$S_o$}	{[mm$^2$]}	0.325878
{$S_l/S_o$}	[]	0.438750
{$\Psi$}	[]	0.605291
{$\eta$}	[]	0.647910
{med($\theta_e$)}	{[$^\circ$]}	67.5562
{$\Upsilon$}	[]	12
{$\Xi$}	[]	5
