Q	U	V
{$V$}	{[mm$^3$]}	0.00402188
{$d_v$}	{[mm]}	0.197307
{$S_c$}	{[mm$^2$]}	0.213286
{$S_o$}	{[mm$^2$]}	0.124879
{$S_l/S_o$}	[]	0.707941
{$\Psi$}	[]	0.573422
{$\eta$}	[]	0.607227
{med($\theta_e$)}	{[$^\circ$]}	57.789
{$\Upsilon$}	[]	14
{$\Xi$}	[]	11
