Q	U	V
{$V$}	{[mm$^3$]}	0.00808295
{$d_v$}	{[mm]}	0.248995
{$S_c$}	{[mm$^2$]}	0.319353
{$S_o$}	{[mm$^2$]}	0.199558
{$S_l/S_o$}	[]	0.600302
{$\Psi$}	[]	0.609902
{$\eta$}	[]	0.664675
{med($\theta_e$)}	{[$^\circ$]}	54.5483
{$\Upsilon$}	[]	10
{$\Xi$}	[]	14
