Q	U	V
{$V$}	{[mm$^3$]}	0.00749635
{$d_v$}	{[mm]}	0.242820
{$S_c$}	{[mm$^2$]}	0.268602
{$S_o$}	{[mm$^2$]}	0.188668
{$S_l/S_o$}	[]	0.423675
{$\Psi$}	[]	0.689617
{$\eta$}	[]	0.706778
{med($\theta_e$)}	{[$^\circ$]}	65.848
{$\Upsilon$}	[]	14
{$\Xi$}	[]	6
