Q	U	V
{$V$}	{[mm$^3$]}	0.00883935
{$d_v$}	{[mm]}	0.256531
{$S_c$}	{[mm$^2$]}	0.349883
{$S_o$}	{[mm$^2$]}	0.219838
{$S_l/S_o$}	[]	0.591549
{$\Psi$}	[]	0.590892
{$\eta$}	[]	0.650949
{med($\theta_e$)}	{[$^\circ$]}	50.587
{$\Upsilon$}	[]	15
{$\Xi$}	[]	10
