Q	U	V
{$V$}	{[mm$^3$]}	0.00899016
{$d_v$}	{[mm]}	0.257982
{$S_c$}	{[mm$^2$]}	0.435583
{$S_o$}	{[mm$^2$]}	0.255038
{$S_l/S_o$}	[]	0.707914
{$\Psi$}	[]	0.480019
{$\eta$}	[]	0.525482
{med($\theta_e$)}	{[$^\circ$]}	56.87825
{$\Upsilon$}	[]	12
{$\Xi$}	[]	9
