Q	U	V
{$V$}	{[mm$^3$]}	0.00316454
{$d_v$}	{[mm]}	0.182153
{$S_c$}	{[mm$^2$]}	0.160072
{$S_o$}	{[mm$^2$]}	0.0931469
{$S_l/S_o$}	[]	0.718490
{$\Psi$}	[]	0.651192
{$\eta$}	[]	0.682106
{med($\theta_e$)}	{[$^\circ$]}	41.02705
{$\Upsilon$}	[]	11
{$\Xi$}	[]	9
