Q	U	V
{$V$}	{[mm$^3$]}	0.00222646
{$d_v$}	{[mm]}	0.162009
{$S_c$}	{[mm$^2$]}	0.201506
{$S_o$}	{[mm$^2$]}	0.101181
{$S_l/S_o$}	[]	0.991540
{$\Psi$}	[]	0.409204
{$\eta$}	[]	0.447582
{med($\theta_e$)}	{[$^\circ$]}	
{$\Upsilon$}	[]	18
{$\Xi$}	[]	9
