Q	U	V
{$V$}	{[mm$^3$]}	0.00276081
{$d_v$}	{[mm]}	0.174052
{$S_c$}	{[mm$^2$]}	0.151202
{$S_o$}	{[mm$^2$]}	0.0933424
{$S_l/S_o$}	[]	0.619864
{$\Psi$}	[]	0.629435
{$\eta$}	[]	0.656351
{med($\theta_e$)}	{[$^\circ$]}	56.2871
{$\Upsilon$}	[]	13
{$\Xi$}	[]	5
