Q	U	V
{$V$}	{[mm$^3$]}	0.00648108
{$d_v$}	{[mm]}	0.231322
{$S_c$}	{[mm$^2$]}	0.30193
{$S_o$}	{[mm$^2$]}	0.173628
{$S_l/S_o$}	[]	0.738948
{$\Psi$}	[]	0.55677
{$\eta$}	[]	0.642493
{med($\theta_e$)}	{[$^\circ$]}	47.2783
{$\Upsilon$}	[]	17
{$\Xi$}	[]	10
