Q	U	V
{$V$}	{[mm$^3$]}	0.00393282
{$d_v$}	{[mm]}	0.195840
{$S_c$}	{[mm$^2$]}	0.231678
{$S_o$}	{[mm$^2$]}	0.128664
{$S_l/S_o$}	[]	0.800644
{$\Psi$}	[]	0.520078
{$\eta$}	[]	0.575083
{med($\theta_e$)}	{[$^\circ$]}	76.565
{$\Upsilon$}	[]	13
{$\Xi$}	[]	10
