Q	U	V
{$V$}	{[mm$^3$]}	0.0110634
{$d_v$}	{[mm]}	0.276459
{$S_c$}	{[mm$^2$]}	0.544738
{$S_o$}	{[mm$^2$]}	0.306615
{$S_l/S_o$}	[]	0.776619
{$\Psi$}	[]	0.44078
{$\eta$}	[]	0.475988
{med($\theta_e$)}	{[$^\circ$]}	76.024
{$\Upsilon$}	[]	9
{$\Xi$}	[]	8
