Q	U	V
{$V$}	{[mm$^3$]}	0.0126677
{$d_v$}	{[mm]}	0.289223
{$S_c$}	{[mm$^2$]}	0.492192
{$S_o$}	{[mm$^2$]}	0.310126
{$S_l/S_o$}	[]	0.587071
{$\Psi$}	[]	0.533926
{$\eta$}	[]	0.575657
{med($\theta_e$)}	{[$^\circ$]}	65.37
{$\Upsilon$}	[]	13
{$\Xi$}	[]	13
