Q	U	V
{$V$}	{[mm$^3$]}	0.00509058
{$d_v$}	{[mm]}	0.213430
{$S_c$}	{[mm$^2$]}	0.258509
{$S_o$}	{[mm$^2$]}	0.147533
{$S_l/S_o$}	[]	0.752211
{$\Psi$}	[]	0.553588
{$\eta$}	[]	0.586660
{med($\theta_e$)}	{[$^\circ$]}	84.1478
{$\Upsilon$}	[]	19
{$\Xi$}	[]	10
