Q	U	V
{$V$}	{[mm$^3$]}	0.0140309
{$d_v$}	{[mm]}	0.299246
{$S_c$}	{[mm$^2$]}	0.473092
{$S_o$}	{[mm$^2$]}	0.325395
{$S_l/S_o$}	[]	0.453901
{$\Psi$}	[]	0.594651
{$\eta$}	[]	0.621287
{med($\theta_e$)}	{[$^\circ$]}	57.1932
{$\Upsilon$}	[]	14
{$\Xi$}	[]	11
