Q	U	V
{$V$}	{[mm$^3$]}	0.0108948
{$d_v$}	{[mm]}	0.275047
{$S_c$}	{[mm$^2$]}	0.475525
{$S_o$}	{[mm$^2$]}	0.287467
{$S_l/S_o$}	[]	0.654190
{$\Psi$}	[]	0.499793
{$\eta$}	[]	0.538308
{med($\theta_e$)}	{[$^\circ$]}	52.9583
{$\Upsilon$}	[]	12
{$\Xi$}	[]	5
