Q	U	V
{$V$}	{[mm$^3$]}	0.00132044
{$d_v$}	{[mm]}	0.136115
{$S_c$}	{[mm$^2$]}	0.111618
{$S_o$}	{[mm$^2$]}	0.065477
{$S_l/S_o$}	[]	0.704690
{$\Psi$}	[]	0.52147
{$\eta$}	[]	0.535195
{med($\theta_e$)}	{[$^\circ$]}	60.1619
{$\Upsilon$}	[]	15
{$\Xi$}	[]	6
