Q	U	V
{$V$}	{[mm$^3$]}	0.00851755
{$d_v$}	{[mm]}	0.253380
{$S_c$}	{[mm$^2$]}	0.369694
{$S_o$}	{[mm$^2$]}	0.225758
{$S_l/S_o$}	[]	0.637568
{$\Psi$}	[]	0.545571
{$\eta$}	[]	0.631498
{med($\theta_e$)}	{[$^\circ$]}	
{$\Upsilon$}	[]	17
{$\Xi$}	[]	8
