Q	U	V
{$V$}	{[mm$^3$]}	0.00319423
{$d_v$}	{[mm]}	0.182721
{$S_c$}	{[mm$^2$]}	0.19277
{$S_o$}	{[mm$^2$]}	0.109494
{$S_l/S_o$}	[]	0.760553
{$\Psi$}	[]	0.544113
{$\eta$}	[]	0.612201
{med($\theta_e$)}	{[$^\circ$]}	63.0993
{$\Upsilon$}	[]	9
{$\Xi$}	[]	7
