Q	U	V
{$V$}	{[mm$^3$]}	0.00311942
{$d_v$}	{[mm]}	0.181284
{$S_c$}	{[mm$^2$]}	0.16524
{$S_o$}	{[mm$^2$]}	0.110158
{$S_l/S_o$}	[]	0.500027
{$\Psi$}	[]	0.624815
{$\eta$}	[]	0.657801
{med($\theta_e$)}	{[$^\circ$]}	66.2407
{$\Upsilon$}	[]	13
{$\Xi$}	[]	5
