Q	U	V
{$V$}	{[mm$^3$]}	0.010326
{$d_v$}	{[mm]}	0.270175
{$S_c$}	{[mm$^2$]}	0.484408
{$S_o$}	{[mm$^2$]}	0.291825
{$S_l/S_o$}	[]	0.659926
{$\Psi$}	[]	0.473399
{$\eta$}	[]	0.585046
{med($\theta_e$)}	{[$^\circ$]}	68.3836
{$\Upsilon$}	[]	17
{$\Xi$}	[]	15
