Q	U	V
{$V$}	{[mm$^3$]}	0.0117985
{$d_v$}	{[mm]}	0.282451
{$S_c$}	{[mm$^2$]}	0.454173
{$S_o$}	{[mm$^2$]}	0.272465
{$S_l/S_o$}	[]	0.666904
{$\Psi$}	[]	0.551841
{$\eta$}	[]	0.567365
{med($\theta_e$)}	{[$^\circ$]}	57.8519
{$\Upsilon$}	[]	15
{$\Xi$}	[]	5
