Q	U	V
{$V$}	{[mm$^3$]}	0.00987362
{$d_v$}	{[mm]}	0.266170
{$S_c$}	{[mm$^2$]}	0.380296
{$S_o$}	{[mm$^2$]}	0.24831
{$S_l/S_o$}	[]	0.531537
{$\Psi$}	[]	0.585257
{$\eta$}	[]	0.596422
{med($\theta_e$)}	{[$^\circ$]}	61.6389
{$\Upsilon$}	[]	15
{$\Xi$}	[]	11
