Q	U	V
{$V$}	{[mm$^3$]}	0.0104614
{$d_v$}	{[mm]}	0.271350
{$S_c$}	{[mm$^2$]}	0.404723
{$S_o$}	{[mm$^2$]}	0.274257
{$S_l/S_o$}	[]	0.475707
{$\Psi$}	[]	0.571548
{$\eta$}	[]	0.596527
{med($\theta_e$)}	{[$^\circ$]}	70.72015
{$\Upsilon$}	[]	10
{$\Xi$}	[]	14
