Q	U	V
{$V$}	{[mm$^3$]}	0.00339728
{$d_v$}	{[mm]}	0.186514
{$S_c$}	{[mm$^2$]}	0.211667
{$S_o$}	{[mm$^2$]}	0.118823
{$S_l/S_o$}	[]	0.781364
{$\Psi$}	[]	0.51632
{$\eta$}	[]	0.583492
{med($\theta_e$)}	{[$^\circ$]}	47.3423
{$\Upsilon$}	[]	13
{$\Xi$}	[]	6
