Q	U	V
{$V$}	{[mm$^3$]}	0.00136913
{$d_v$}	{[mm]}	0.137768
{$S_c$}	{[mm$^2$]}	0.111876
{$S_o$}	{[mm$^2$]}	0.0561049
{$S_l/S_o$}	[]	0.994050
{$\Psi$}	[]	0.532979
{$\eta$}	[]	0.587484
{med($\theta_e$)}	{[$^\circ$]}	
{$\Upsilon$}	[]	17
{$\Xi$}	[]	5
