Q	U	V
{$V$}	{[mm$^3$]}	0.00455504
{$d_v$}	{[mm]}	0.205667
{$S_c$}	{[mm$^2$]}	0.296374
{$S_o$}	{[mm$^2$]}	0.15685
{$S_l/S_o$}	[]	0.889538
{$\Psi$}	[]	0.448372
{$\eta$}	[]	0.511445
{med($\theta_e$)}	{[$^\circ$]}	86.9331
{$\Upsilon$}	[]	16
{$\Xi$}	[]	7
