Q	U	V
{$V$}	{[mm$^3$]}	0.00938083
{$d_v$}	{[mm]}	0.261666
{$S_c$}	{[mm$^2$]}	0.375911
{$S_o$}	{[mm$^2$]}	0.253522
{$S_l/S_o$}	[]	0.482755
{$\Psi$}	[]	0.572216
{$\eta$}	[]	0.586793
{med($\theta_e$)}	{[$^\circ$]}	73.2388
{$\Upsilon$}	[]	15
{$\Xi$}	[]	12
