Q	U	V
{$V$}	{[mm$^3$]}	0.00269907
{$d_v$}	{[mm]}	0.172745
{$S_c$}	{[mm$^2$]}	0.202247
{$S_o$}	{[mm$^2$]}	0.109234
{$S_l/S_o$}	[]	0.851502
{$\Psi$}	[]	0.46353
{$\eta$}	[]	0.571554
{med($\theta_e$)}	{[$^\circ$]}	66.9867
{$\Upsilon$}	[]	15
{$\Xi$}	[]	11
