Q	U	V
{$V$}	{[mm$^3$]}	0.00553469
{$d_v$}	{[mm]}	0.219465
{$S_c$}	{[mm$^2$]}	0.301528
{$S_o$}	{[mm$^2$]}	0.168276
{$S_l/S_o$}	[]	0.791866
{$\Psi$}	[]	0.501825
{$\eta$}	[]	0.546039
{med($\theta_e$)}	{[$^\circ$]}	59.76635
{$\Upsilon$}	[]	17
{$\Xi$}	[]	12
