Q	U	V
{$V$}	{[mm$^3$]}	0.0058078
{$d_v$}	{[mm]}	0.223017
{$S_c$}	{[mm$^2$]}	0.282186
{$S_o$}	{[mm$^2$]}	0.158516
{$S_l/S_o$}	[]	0.780174
{$\Psi$}	[]	0.553719
{$\eta$}	[]	0.590773
{med($\theta_e$)}	{[$^\circ$]}	71.37685
{$\Upsilon$}	[]	12
{$\Xi$}	[]	6
