Q	U	V
{$V$}	{[mm$^3$]}	0.00650483
{$d_v$}	{[mm]}	0.231604
{$S_c$}	{[mm$^2$]}	0.297207
{$S_o$}	{[mm$^2$]}	0.188586
{$S_l/S_o$}	[]	0.575976
{$\Psi$}	[]	0.566999
{$\eta$}	[]	0.630369
{med($\theta_e$)}	{[$^\circ$]}	63.7119
{$\Upsilon$}	[]	13
{$\Xi$}	[]	11
