Q	U	V
{$V$}	{[mm$^3$]}	0.00975487
{$d_v$}	{[mm]}	0.265099
{$S_c$}	{[mm$^2$]}	0.3521
{$S_o$}	{[mm$^2$]}	0.252842
{$S_l/S_o$}	[]	0.392569
{$\Psi$}	[]	0.627046
{$\eta$}	[]	0.637032
{med($\theta_e$)}	{[$^\circ$]}	64.4664
{$\Upsilon$}	[]	11
{$\Xi$}	[]	12
