Q	U	V
{$V$}	{[mm$^3$]}	0.0153216
{$d_v$}	{[mm]}	0.308154
{$S_c$}	{[mm$^2$]}	0.699126
{$S_o$}	{[mm$^2$]}	0.405986
{$S_l/S_o$}	[]	0.722045
{$\Psi$}	[]	0.426709
{$\eta$}	[]	0.480384
{med($\theta_e$)}	{[$^\circ$]}	69.37545
{$\Upsilon$}	[]	11
{$\Xi$}	[]	13
