Q	U	V
{$V$}	{[mm$^3$]}	0.00244614
{$d_v$}	{[mm]}	0.167171
{$S_c$}	{[mm$^2$]}	0.141586
{$S_o$}	{[mm$^2$]}	0.0807051
{$S_l/S_o$}	[]	0.754362
{$\Psi$}	[]	0.620085
{$\eta$}	[]	0.640889
{med($\theta_e$)}	{[$^\circ$]}	53.5846
{$\Upsilon$}	[]	14
{$\Xi$}	[]	3
