Q	U	V
{$V$}	{[mm$^3$]}	0.0111905
{$d_v$}	{[mm]}	0.277513
{$S_c$}	{[mm$^2$]}	0.418314
{$S_o$}	{[mm$^2$]}	0.243064
{$S_l/S_o$}	[]	0.721004
{$\Psi$}	[]	0.578382
{$\eta$}	[]	0.586084
{med($\theta_e$)}	{[$^\circ$]}	60.17465
{$\Upsilon$}	[]	16
{$\Xi$}	[]	7
