Q	U	V
{$V$}	{[mm$^3$]}	0.00782883
{$d_v$}	{[mm]}	0.246358
{$S_c$}	{[mm$^2$]}	0.352429
{$S_o$}	{[mm$^2$]}	0.208747
{$S_l/S_o$}	[]	0.688307
{$\Psi$}	[]	0.541016
{$\eta$}	[]	0.611332
{med($\theta_e$)}	{[$^\circ$]}	56.1195
{$\Upsilon$}	[]	12
{$\Xi$}	[]	10
