Q	U	V
{$V$}	{[mm$^3$]}	0.00434605
{$d_v$}	{[mm]}	0.202472
{$S_c$}	{[mm$^2$]}	0.252267
{$S_o$}	{[mm$^2$]}	0.146222
{$S_l/S_o$}	[]	0.725233
{$\Psi$}	[]	0.510529
{$\eta$}	[]	0.612815
{med($\theta_e$)}	{[$^\circ$]}	88.1861
{$\Upsilon$}	[]	10
{$\Xi$}	[]	7
