Q	U	V
{$V$}	{[mm$^3$]}	0.0180468
{$d_v$}	{[mm]}	0.325437
{$S_c$}	{[mm$^2$]}	0.659873
{$S_o$}	{[mm$^2$]}	0.438829
{$S_l/S_o$}	[]	0.503713
{$\Psi$}	[]	0.504224
{$\eta$}	[]	0.521129
{med($\theta_e$)}	{[$^\circ$]}	62.5209
{$\Upsilon$}	[]	11
{$\Xi$}	[]	6
