Q	U	V
{$V$}	{[mm$^3$]}	0.00687888
{$d_v$}	{[mm]}	0.235961
{$S_c$}	{[mm$^2$]}	0.345181
{$S_o$}	{[mm$^2$]}	0.197564
{$S_l/S_o$}	[]	0.747186
{$\Psi$}	[]	0.506737
{$\eta$}	[]	0.519878
{med($\theta_e$)}	{[$^\circ$]}	63.6114
{$\Upsilon$}	[]	12
{$\Xi$}	[]	3
