Q	U	V
{$V$}	{[mm$^3$]}	0.0142054
{$d_v$}	{[mm]}	0.300482
{$S_c$}	{[mm$^2$]}	0.46233
{$S_o$}	{[mm$^2$]}	0.305287
{$S_l/S_o$}	[]	0.514411
{$\Psi$}	[]	0.613528
{$\eta$}	[]	0.621100
{med($\theta_e$)}	{[$^\circ$]}	62.30725
{$\Upsilon$}	[]	12
{$\Xi$}	[]	7
