Q	U	V
{$V$}	{[mm$^3$]}	0.0105873
{$d_v$}	{[mm]}	0.272435
{$S_c$}	{[mm$^2$]}	0.427723
{$S_o$}	{[mm$^2$]}	0.259934
{$S_l/S_o$}	[]	0.645506
{$\Psi$}	[]	0.545145
{$\eta$}	[]	0.592084
{med($\theta_e$)}	{[$^\circ$]}	89.7722
{$\Upsilon$}	[]	12
{$\Xi$}	[]	11
