Q	U	V
{$V$}	{[mm$^3$]}	0.0143657
{$d_v$}	{[mm]}	0.301608
{$S_c$}	{[mm$^2$]}	0.564976
{$S_o$}	{[mm$^2$]}	0.356255
{$S_l/S_o$}	[]	0.585875
{$\Psi$}	[]	0.505831
{$\eta$}	[]	0.525150
{med($\theta_e$)}	{[$^\circ$]}	58.9944
{$\Upsilon$}	[]	13
{$\Xi$}	[]	10
