Q	U	V
{$V$}	{[mm$^3$]}	0.00818151
{$d_v$}	{[mm]}	0.250003
{$S_c$}	{[mm$^2$]}	0.343735
{$S_o$}	{[mm$^2$]}	0.203065
{$S_l/S_o$}	[]	0.692734
{$\Psi$}	[]	0.571237
{$\eta$}	[]	0.614421
{med($\theta_e$)}	{[$^\circ$]}	80.39855
{$\Upsilon$}	[]	11
{$\Xi$}	[]	8
