Q	U	V
{$V$}	{[mm$^3$]}	0.00157812
{$d_v$}	{[mm]}	0.144449
{$S_c$}	{[mm$^2$]}	0.142389
{$S_o$}	{[mm$^2$]}	0.068841
{$S_l/S_o$}	[]	1.068375
{$\Psi$}	[]	0.460364
{$\eta$}	[]	0.528516
{med($\theta_e$)}	{[$^\circ$]}	
{$\Upsilon$}	[]	17
{$\Xi$}	[]	6
