Q	U	V
{$V$}	{[mm$^3$]}	0.00579711
{$d_v$}	{[mm]}	0.222880
{$S_c$}	{[mm$^2$]}	0.306075
{$S_o$}	{[mm$^2$]}	0.17643
{$S_l/S_o$}	[]	0.734824
{$\Psi$}	[]	0.509875
{$\eta$}	[]	0.569347
{med($\theta_e$)}	{[$^\circ$]}	72.1759
{$\Upsilon$}	[]	10
{$\Xi$}	[]	11
