Q	U	V
{$V$}	{[mm$^3$]}	0.00184054
{$d_v$}	{[mm]}	0.152049
{$S_c$}	{[mm$^2$]}	0.114285
{$S_o$}	{[mm$^2$]}	0.0628646
{$S_l/S_o$}	[]	0.817955
{$\Psi$}	[]	0.635514
{$\eta$}	[]	0.662964
{med($\theta_e$)}	{[$^\circ$]}	58.34895
{$\Upsilon$}	[]	11
{$\Xi$}	[]	5
