Q	U	V
{$V$}	{[mm$^3$]}	0.00897116
{$d_v$}	{[mm]}	0.257800
{$S_c$}	{[mm$^2$]}	0.384242
{$S_o$}	{[mm$^2$]}	0.231134
{$S_l/S_o$}	[]	0.662421
{$\Psi$}	[]	0.54339
{$\eta$}	[]	0.572113
{med($\theta_e$)}	{[$^\circ$]}	57.63625
{$\Upsilon$}	[]	19
{$\Xi$}	[]	1
