Q	U	V
{$V$}	{[mm$^3$]}	0.00332485
{$d_v$}	{[mm]}	0.185179
{$S_c$}	{[mm$^2$]}	0.207734
{$S_o$}	{[mm$^2$]}	0.124476
{$S_l/S_o$}	[]	0.668868
{$\Psi$}	[]	0.518591
{$\eta$}	[]	0.611152
{med($\theta_e$)}	{[$^\circ$]}	70.7643
{$\Upsilon$}	[]	11
{$\Xi$}	[]	5
