Q	U	V
{$V$}	{[mm$^3$]}	0.002667
{$d_v$}	{[mm]}	0.172058
{$S_c$}	{[mm$^2$]}	0.134099
{$S_o$}	{[mm$^2$]}	0.0813351
{$S_l/S_o$}	[]	0.648722
{$\Psi$}	[]	0.693544
{$\eta$}	[]	0.718398
{med($\theta_e$)}	{[$^\circ$]}	61.1996
{$\Upsilon$}	[]	16
{$\Xi$}	[]	8
