Q	U	V
{$V$}	{[mm$^3$]}	0.0113888
{$d_v$}	{[mm]}	0.279143
{$S_c$}	{[mm$^2$]}	0.467564
{$S_o$}	{[mm$^2$]}	0.309522
{$S_l/S_o$}	[]	0.510600
{$\Psi$}	[]	0.523554
{$\eta$}	[]	0.595427
{med($\theta_e$)}	{[$^\circ$]}	106.84495
{$\Upsilon$}	[]	6
{$\Xi$}	[]	10
