Q	U	V
{$V$}	{[mm$^3$]}	0.00205784
{$d_v$}	{[mm]}	0.157811
{$S_c$}	{[mm$^2$]}	0.12718
{$S_o$}	{[mm$^2$]}	0.07294
{$S_l/S_o$}	[]	0.743625
{$\Psi$}	[]	0.615186
{$\eta$}	[]	0.673841
{med($\theta_e$)}	{[$^\circ$]}	61.0769
{$\Upsilon$}	[]	11
{$\Xi$}	[]	4
