Q	U	V
{$V$}	{[mm$^3$]}	0.00264444
{$d_v$}	{[mm]}	0.171571
{$S_c$}	{[mm$^2$]}	0.184618
{$S_o$}	{[mm$^2$]}	0.0757198
{$S_l/S_o$}	[]	1.438173
{$\Psi$}	[]	0.500917
{$\eta$}	[]	0.540805
{med($\theta_e$)}	{[$^\circ$]}	69.5298
{$\Upsilon$}	[]	18
{$\Xi$}	[]	9
