Q	U	V
{$V$}	{[mm$^3$]}	0.00701068
{$d_v$}	{[mm]}	0.237458
{$S_c$}	{[mm$^2$]}	0.342413
{$S_o$}	{[mm$^2$]}	0.199568
{$S_l/S_o$}	[]	0.715771
{$\Psi$}	[]	0.517338
{$\eta$}	[]	0.520836
{med($\theta_e$)}	{[$^\circ$]}	60.668
{$\Upsilon$}	[]	11
{$\Xi$}	[]	10
