Q	U	V
{$V$}	{[mm$^3$]}	0.0087776
{$d_v$}	{[mm]}	0.255933
{$S_c$}	{[mm$^2$]}	0.44996
{$S_o$}	{[mm$^2$]}	0.290205
{$S_l/S_o$}	[]	0.550490
{$\Psi$}	[]	0.457328
{$\eta$}	[]	0.482456
{med($\theta_e$)}	{[$^\circ$]}	73.7397
{$\Upsilon$}	[]	12
{$\Xi$}	[]	7
