Q	U	V
{$V$}	{[mm$^3$]}	0.00562375
{$d_v$}	{[mm]}	0.220636
{$S_c$}	{[mm$^2$]}	0.226298
{$S_o$}	{[mm$^2$]}	0.149926
{$S_l/S_o$}	[]	0.509398
{$\Psi$}	[]	0.675804
{$\eta$}	[]	0.686758
{med($\theta_e$)}	{[$^\circ$]}	59.8011
{$\Upsilon$}	[]	16
{$\Xi$}	[]	5
