Q	U	V
{$V$}	{[mm$^3$]}	0.00893316
{$d_v$}	{[mm]}	0.257436
{$S_c$}	{[mm$^2$]}	0.351114
{$S_o$}	{[mm$^2$]}	0.217082
{$S_l/S_o$}	[]	0.617426
{$\Psi$}	[]	0.592979
{$\eta$}	[]	0.641370
{med($\theta_e$)}	{[$^\circ$]}	60.7135
{$\Upsilon$}	[]	14
{$\Xi$}	[]	9
