Q	U	V
{$V$}	{[mm$^3$]}	0.00607023
{$d_v$}	{[mm]}	0.226327
{$S_c$}	{[mm$^2$]}	0.326159
{$S_o$}	{[mm$^2$]}	0.187747
{$S_l/S_o$}	[]	0.737226
{$\Psi$}	[]	0.493391
{$\eta$}	[]	0.561938
{med($\theta_e$)}	{[$^\circ$]}	57.4318
{$\Upsilon$}	[]	14
{$\Xi$}	[]	11
