Q	U	V
{$V$}	{[mm$^3$]}	0.0107927
{$d_v$}	{[mm]}	0.274185
{$S_c$}	{[mm$^2$]}	0.370353
{$S_o$}	{[mm$^2$]}	0.256665
{$S_l/S_o$}	[]	0.442943
{$\Psi$}	[]	0.637708
{$\eta$}	[]	0.666723
{med($\theta_e$)}	{[$^\circ$]}	48.9606
{$\Upsilon$}	[]	19
{$\Xi$}	[]	10
