Q	U	V
{$V$}	{[mm$^3$]}	0.00428431
{$d_v$}	{[mm]}	0.201509
{$S_c$}	{[mm$^2$]}	0.27552
{$S_o$}	{[mm$^2$]}	0.1593
{$S_l/S_o$}	[]	0.729567
{$\Psi$}	[]	0.463004
{$\eta$}	[]	0.539580
{med($\theta_e$)}	{[$^\circ$]}	56.55855
{$\Upsilon$}	[]	15
{$\Xi$}	[]	8
