Q	U	V
{$V$}	{[mm$^3$]}	0.0137708
{$d_v$}	{[mm]}	0.297386
{$S_c$}	{[mm$^2$]}	0.436858
{$S_o$}	{[mm$^2$]}	0.307446
{$S_l/S_o$}	[]	0.420926
{$\Psi$}	[]	0.635989
{$\eta$}	[]	0.666910
{med($\theta_e$)}	{[$^\circ$]}	63.7265
{$\Upsilon$}	[]	13
{$\Xi$}	[]	8
