Q	U	V
{$V$}	{[mm$^3$]}	0.00470823
{$d_v$}	{[mm]}	0.207947
{$S_c$}	{[mm$^2$]}	0.268207
{$S_o$}	{[mm$^2$]}	0.159452
{$S_l/S_o$}	[]	0.682055
{$\Psi$}	[]	0.506507
{$\eta$}	[]	0.575843
{med($\theta_e$)}	{[$^\circ$]}	
{$\Upsilon$}	[]	17
{$\Xi$}	[]	9
