Q	U	V
{$V$}	{[mm$^3$]}	0.00545988
{$d_v$}	{[mm]}	0.218472
{$S_c$}	{[mm$^2$]}	0.315878
{$S_o$}	{[mm$^2$]}	0.179122
{$S_l/S_o$}	[]	0.763480
{$\Psi$}	[]	0.474701
{$\eta$}	[]	0.507231
{med($\theta_e$)}	{[$^\circ$]}	69.7553
{$\Upsilon$}	[]	16
{$\Xi$}	[]	13
