Q	U	V
{$V$}	{[mm$^3$]}	0.00808176
{$d_v$}	{[mm]}	0.248983
{$S_c$}	{[mm$^2$]}	0.382575
{$S_o$}	{[mm$^2$]}	0.238598
{$S_l/S_o$}	[]	0.603429
{$\Psi$}	[]	0.509063
{$\eta$}	[]	0.529582
{med($\theta_e$)}	{[$^\circ$]}	82.409
{$\Upsilon$}	[]	9
{$\Xi$}	[]	8
