Q	U	V
{$V$}	{[mm$^3$]}	0.00204716
{$d_v$}	{[mm]}	0.157538
{$S_c$}	{[mm$^2$]}	0.115059
{$S_o$}	{[mm$^2$]}	0.0727893
{$S_l/S_o$}	[]	0.580713
{$\Psi$}	[]	0.677638
{$\eta$}	[]	0.697672
{med($\theta_e$)}	{[$^\circ$]}	60.9153
{$\Upsilon$}	[]	14
{$\Xi$}	[]	7
