Q	U	V
{$V$}	{[mm$^3$]}	0.0114897
{$d_v$}	{[mm]}	0.279965
{$S_c$}	{[mm$^2$]}	0.460545
{$S_o$}	{[mm$^2$]}	0.305395
{$S_l/S_o$}	[]	0.508031
{$\Psi$}	[]	0.534668
{$\eta$}	[]	0.605669
{med($\theta_e$)}	{[$^\circ$]}	65.3061
{$\Upsilon$}	[]	14
{$\Xi$}	[]	14
