Q	U	V
{$V$}	{[mm$^3$]}	0.0103617
{$d_v$}	{[mm]}	0.270486
{$S_c$}	{[mm$^2$]}	0.458206
{$S_o$}	{[mm$^2$]}	0.272213
{$S_l/S_o$}	[]	0.683263
{$\Psi$}	[]	0.501623
{$\eta$}	[]	0.569763
{med($\theta_e$)}	{[$^\circ$]}	62.84805
{$\Upsilon$}	[]	14
{$\Xi$}	[]	10
