Q	U	V
{$V$}	{[mm$^3$]}	0.00345903
{$d_v$}	{[mm]}	0.187637
{$S_c$}	{[mm$^2$]}	0.157156
{$S_o$}	{[mm$^2$]}	0.09592
{$S_l/S_o$}	[]	0.638407
{$\Psi$}	[]	0.703811
{$\eta$}	[]	0.723625
{med($\theta_e$)}	{[$^\circ$]}	55.3221
{$\Upsilon$}	[]	13
{$\Xi$}	[]	9
