Q	U	V
{$V$}	{[mm$^3$]}	0.00676963
{$d_v$}	{[mm]}	0.234705
{$S_c$}	{[mm$^2$]}	0.398548
{$S_o$}	{[mm$^2$]}	0.210218
{$S_l/S_o$}	[]	0.895880
{$\Psi$}	[]	0.434224
{$\eta$}	[]	0.452161
{med($\theta_e$)}	{[$^\circ$]}	74.6777
{$\Upsilon$}	[]	11
{$\Xi$}	[]	14
