Q	U	V
{$V$}	{[mm$^3$]}	0.0031408
{$d_v$}	{[mm]}	0.181697
{$S_c$}	{[mm$^2$]}	0.180481
{$S_o$}	{[mm$^2$]}	0.104382
{$S_l/S_o$}	[]	0.729043
{$\Psi$}	[]	0.574662
{$\eta$}	[]	0.615976
{med($\theta_e$)}	{[$^\circ$]}	67.67185
{$\Upsilon$}	[]	14
{$\Xi$}	[]	6
