Q	U	V
{$V$}	{[mm$^3$]}	0.00470704
{$d_v$}	{[mm]}	0.207930
{$S_c$}	{[mm$^2$]}	0.260866
{$S_o$}	{[mm$^2$]}	0.156624
{$S_l/S_o$}	[]	0.665556
{$\Psi$}	[]	0.520673
{$\eta$}	[]	0.601995
{med($\theta_e$)}	{[$^\circ$]}	66.5142
{$\Upsilon$}	[]	13
{$\Xi$}	[]	7
