Q	U	V
{$V$}	{[mm$^3$]}	0.0141935
{$d_v$}	{[mm]}	0.300398
{$S_c$}	{[mm$^2$]}	0.54844
{$S_o$}	{[mm$^2$]}	0.374005
{$S_l/S_o$}	[]	0.466398
{$\Psi$}	[]	0.51691
{$\eta$}	[]	0.529245
{med($\theta_e$)}	{[$^\circ$]}	74.5786
{$\Upsilon$}	[]	15
{$\Xi$}	[]	13
