Q	U	V
{$V$}	{[mm$^3$]}	0.00601917
{$d_v$}	{[mm]}	0.225690
{$S_c$}	{[mm$^2$]}	0.233845
{$S_o$}	{[mm$^2$]}	0.144546
{$S_l/S_o$}	[]	0.617789
{$\Psi$}	[]	0.684301
{$\eta$}	[]	0.702555
{med($\theta_e$)}	{[$^\circ$]}	56.1597
{$\Upsilon$}	[]	14
{$\Xi$}	[]	6
