Q	U	V
{$V$}	{[mm$^3$]}	0.01858
{$d_v$}	{[mm]}	0.328611
{$S_c$}	{[mm$^2$]}	0.533377
{$S_o$}	{[mm$^2$]}	0.388083
{$S_l/S_o$}	[]	0.374389
{$\Psi$}	[]	0.636034
{$\eta$}	[]	0.678008
{med($\theta_e$)}	{[$^\circ$]}	60.4619
{$\Upsilon$}	[]	12
{$\Xi$}	[]	15
