Q	U	V
{$V$}	{[mm$^3$]}	0.00477828
{$d_v$}	{[mm]}	0.208973
{$S_c$}	{[mm$^2$]}	0.281901
{$S_o$}	{[mm$^2$]}	0.141181
{$S_l/S_o$}	[]	0.996735
{$\Psi$}	[]	0.486671
{$\eta$}	[]	0.509427
{med($\theta_e$)}	{[$^\circ$]}	57.8781
{$\Upsilon$}	[]	16
{$\Xi$}	[]	6
