Q	U	V
{$V$}	{[mm$^3$]}	0.00494453
{$d_v$}	{[mm]}	0.211369
{$S_c$}	{[mm$^2$]}	0.245885
{$S_o$}	{[mm$^2$]}	0.150193
{$S_l/S_o$}	[]	0.637127
{$\Psi$}	[]	0.570824
{$\eta$}	[]	0.633430
{med($\theta_e$)}	{[$^\circ$]}	65.6741
{$\Upsilon$}	[]	10
{$\Xi$}	[]	6
