Q	U	V
{$V$}	{[mm$^3$]}	0.0122271
{$d_v$}	{[mm]}	0.285830
{$S_c$}	{[mm$^2$]}	0.425276
{$S_o$}	{[mm$^2$]}	0.270907
{$S_l/S_o$}	[]	0.569823
{$\Psi$}	[]	0.603525
{$\eta$}	[]	0.627505
{med($\theta_e$)}	{[$^\circ$]}	57.3648
{$\Upsilon$}	[]	11
{$\Xi$}	[]	10
