Q	U	V
{$V$}	{[mm$^3$]}	0.00207684
{$d_v$}	{[mm]}	0.158295
{$S_c$}	{[mm$^2$]}	0.150081
{$S_o$}	{[mm$^2$]}	0.0872205
{$S_l/S_o$}	[]	0.720708
{$\Psi$}	[]	0.524518
{$\eta$}	[]	0.556377
{med($\theta_e$)}	{[$^\circ$]}	84.72945
{$\Upsilon$}	[]	18
{$\Xi$}	[]	3
