Q	U	V
{$V$}	{[mm$^3$]}	0.00973706
{$d_v$}	{[mm]}	0.264937
{$S_c$}	{[mm$^2$]}	0.462138
{$S_o$}	{[mm$^2$]}	0.280337
{$S_l/S_o$}	[]	0.648509
{$\Psi$}	[]	0.47716
{$\eta$}	[]	0.543249
{med($\theta_e$)}	{[$^\circ$]}	65.63325
{$\Upsilon$}	[]	10
{$\Xi$}	[]	13
