Q	U	V
{$V$}	{[mm$^3$]}	0.00640152
{$d_v$}	{[mm]}	0.230371
{$S_c$}	{[mm$^2$]}	0.330919
{$S_o$}	{[mm$^2$]}	0.191646
{$S_l/S_o$}	[]	0.726720
{$\Psi$}	[]	0.503831
{$\eta$}	[]	0.540510
{med($\theta_e$)}	{[$^\circ$]}	67.8873
{$\Upsilon$}	[]	12
{$\Xi$}	[]	13
