Q	U	V
{$V$}	{[mm$^3$]}	0.0193126
{$d_v$}	{[mm]}	0.332875
{$S_c$}	{[mm$^2$]}	0.609149
{$S_o$}	{[mm$^2$]}	0.405782
{$S_l/S_o$}	[]	0.501173
{$\Psi$}	[]	0.571463
{$\eta$}	[]	0.585417
{med($\theta_e$)}	{[$^\circ$]}	75.09495
{$\Upsilon$}	[]	11
{$\Xi$}	[]	19
