Q	U	V
{$V$}	{[mm$^3$]}	0.0109696
{$d_v$}	{[mm]}	0.275675
{$S_c$}	{[mm$^2$]}	0.376913
{$S_o$}	{[mm$^2$]}	0.233631
{$S_l/S_o$}	[]	0.613283
{$\Psi$}	[]	0.633437
{$\eta$}	[]	0.636165
{med($\theta_e$)}	{[$^\circ$]}	54.09645
{$\Upsilon$}	[]	12
{$\Xi$}	[]	10
