Q	U	V
{$V$}	{[mm$^3$]}	0.00397795
{$d_v$}	{[mm]}	0.196586
{$S_c$}	{[mm$^2$]}	0.193874
{$S_o$}	{[mm$^2$]}	0.120374
{$S_l/S_o$}	[]	0.610597
{$\Psi$}	[]	0.626235
{$\eta$}	[]	0.655534
{med($\theta_e$)}	{[$^\circ$]}	55.0361
{$\Upsilon$}	[]	14
{$\Xi$}	[]	10
