Q	U	V
{$V$}	{[mm$^3$]}	0.00860186
{$d_v$}	{[mm]}	0.254213
{$S_c$}	{[mm$^2$]}	0.367774
{$S_o$}	{[mm$^2$]}	0.227818
{$S_l/S_o$}	[]	0.614332
{$\Psi$}	[]	0.552033
{$\eta$}	[]	0.581447
{med($\theta_e$)}	{[$^\circ$]}	80.4482
{$\Upsilon$}	[]	11
{$\Xi$}	[]	10
