Q	U	V
{$V$}	{[mm$^3$]}	0.00320373
{$d_v$}	{[mm]}	0.182902
{$S_c$}	{[mm$^2$]}	0.178865
{$S_o$}	{[mm$^2$]}	0.114973
{$S_l/S_o$}	[]	0.555713
{$\Psi$}	[]	0.587574
{$\eta$}	[]	0.607743
{med($\theta_e$)}	{[$^\circ$]}	54.6175
{$\Upsilon$}	[]	14
{$\Xi$}	[]	8
