Q	U	V
{$V$}	{[mm$^3$]}	0.0123839
{$d_v$}	{[mm]}	0.287047
{$S_c$}	{[mm$^2$]}	0.476975
{$S_o$}	{[mm$^2$]}	0.298116
{$S_l/S_o$}	[]	0.599964
{$\Psi$}	[]	0.5427
{$\eta$}	[]	0.585783
{med($\theta_e$)}	{[$^\circ$]}	80.3355
{$\Upsilon$}	[]	8
{$\Xi$}	[]	10
