Q	U	V
{$V$}	{[mm$^3$]}	0.0142244
{$d_v$}	{[mm]}	0.300616
{$S_c$}	{[mm$^2$]}	0.502383
{$S_o$}	{[mm$^2$]}	0.321558
{$S_l/S_o$}	[]	0.562340
{$\Psi$}	[]	0.565117
{$\eta$}	[]	0.598589
{med($\theta_e$)}	{[$^\circ$]}	51.933
{$\Upsilon$}	[]	16
{$\Xi$}	[]	10
