Q	U	V
{$V$}	{[mm$^3$]}	0.0122628
{$d_v$}	{[mm]}	0.286108
{$S_c$}	{[mm$^2$]}	0.472704
{$S_o$}	{[mm$^2$]}	0.302588
{$S_l/S_o$}	[]	0.562203
{$\Psi$}	[]	0.544028
{$\eta$}	[]	0.586312
{med($\theta_e$)}	{[$^\circ$]}	67.2342
{$\Upsilon$}	[]	11
{$\Xi$}	[]	13
