Q	U	V
{$V$}	{[mm$^3$]}	0.00724699
{$d_v$}	{[mm]}	0.240097
{$S_c$}	{[mm$^2$]}	0.295331
{$S_o$}	{[mm$^2$]}	0.201497
{$S_l/S_o$}	[]	0.465684
{$\Psi$}	[]	0.613216
{$\eta$}	[]	0.665243
{med($\theta_e$)}	{[$^\circ$]}	72.8141
{$\Upsilon$}	[]	9
{$\Xi$}	[]	12
