Q	U	V
{$V$}	{[mm$^3$]}	0.00134538
{$d_v$}	{[mm]}	0.136967
{$S_c$}	{[mm$^2$]}	0.134303
{$S_o$}	{[mm$^2$]}	0.0604479
{$S_l/S_o$}	[]	1.221798
{$\Psi$}	[]	0.438829
{$\eta$}	[]	0.510914
{med($\theta_e$)}	{[$^\circ$]}	
{$\Upsilon$}	[]	19
{$\Xi$}	[]	2
