Q	U	V
{$V$}	{[mm$^3$]}	0.00255182
{$d_v$}	{[mm]}	0.169545
{$S_c$}	{[mm$^2$]}	0.161633
{$S_o$}	{[mm$^2$]}	0.0826308
{$S_l/S_o$}	[]	0.956087
{$\Psi$}	[]	0.558711
{$\eta$}	[]	0.569777
{med($\theta_e$)}	{[$^\circ$]}	80.2452
{$\Upsilon$}	[]	14
{$\Xi$}	[]	1
