Q	U	V
{$V$}	{[mm$^3$]}	0.00923833
{$d_v$}	{[mm]}	0.260334
{$S_c$}	{[mm$^2$]}	0.43977
{$S_o$}	{[mm$^2$]}	0.256227
{$S_l/S_o$}	[]	0.716330
{$\Psi$}	[]	0.484158
{$\eta$}	[]	0.544669
{med($\theta_e$)}	{[$^\circ$]}	63.8441
{$\Upsilon$}	[]	12
{$\Xi$}	[]	4
