Q	U	V
{$V$}	{[mm$^3$]}	0.00462985
{$d_v$}	{[mm]}	0.206787
{$S_c$}	{[mm$^2$]}	0.21381
{$S_o$}	{[mm$^2$]}	0.127374
{$S_l/S_o$}	[]	0.678600
{$\Psi$}	[]	0.6283
{$\eta$}	[]	0.686329
{med($\theta_e$)}	{[$^\circ$]}	50.21105
{$\Upsilon$}	[]	17
{$\Xi$}	[]	10
