Q	U	V
{$V$}	{[mm$^3$]}	0.0158322
{$d_v$}	{[mm]}	0.311540
{$S_c$}	{[mm$^2$]}	0.574745
{$S_o$}	{[mm$^2$]}	0.354883
{$S_l/S_o$}	[]	0.619534
{$\Psi$}	[]	0.530522
{$\eta$}	[]	0.583638
{med($\theta_e$)}	{[$^\circ$]}	56.51285
{$\Upsilon$}	[]	12
{$\Xi$}	[]	11
