Q	U	V
{$V$}	{[mm$^3$]}	0.00472841
{$d_v$}	{[mm]}	0.208244
{$S_c$}	{[mm$^2$]}	0.221679
{$S_o$}	{[mm$^2$]}	0.13988
{$S_l/S_o$}	[]	0.584780
{$\Psi$}	[]	0.614568
{$\eta$}	[]	0.717673
{med($\theta_e$)}	{[$^\circ$]}	56.89985
{$\Upsilon$}	[]	15
{$\Xi$}	[]	13
