Q	U	V
{$V$}	{[mm$^3$]}	0.0180432
{$d_v$}	{[mm]}	0.325416
{$S_c$}	{[mm$^2$]}	0.583893
{$S_o$}	{[mm$^2$]}	0.382502
{$S_l/S_o$}	[]	0.526510
{$\Psi$}	[]	0.569762
{$\eta$}	[]	0.586816
{med($\theta_e$)}	{[$^\circ$]}	58.6186
{$\Upsilon$}	[]	13
{$\Xi$}	[]	6
