Q	U	V
{$V$}	{[mm$^3$]}	0.00192129
{$d_v$}	{[mm]}	0.154240
{$S_c$}	{[mm$^2$]}	0.142031
{$S_o$}	{[mm$^2$]}	0.0745824
{$S_l/S_o$}	[]	0.904350
{$\Psi$}	[]	0.526215
{$\eta$}	[]	0.557818
{med($\theta_e$)}	{[$^\circ$]}	65.8294
{$\Upsilon$}	[]	13
{$\Xi$}	[]	5
