Q	U	V
{$V$}	{[mm$^3$]}	0.00221934
{$d_v$}	{[mm]}	0.161836
{$S_c$}	{[mm$^2$]}	0.130227
{$S_o$}	{[mm$^2$]}	0.0789237
{$S_l/S_o$}	[]	0.650037
{$\Psi$}	[]	0.631828
{$\eta$}	[]	0.654790
{med($\theta_e$)}	{[$^\circ$]}	45.79925
{$\Upsilon$}	[]	18
{$\Xi$}	[]	5
