Q	U	V
{$V$}	{[mm$^3$]}	0.00348041
{$d_v$}	{[mm]}	0.188023
{$S_c$}	{[mm$^2$]}	0.18844
{$S_o$}	{[mm$^2$]}	0.106346
{$S_l/S_o$}	[]	0.771952
{$\Psi$}	[]	0.589383
{$\eta$}	[]	0.620813
{med($\theta_e$)}	{[$^\circ$]}	52.3438
{$\Upsilon$}	[]	14
{$\Xi$}	[]	9
