Q	U	V
{$V$}	{[mm$^3$]}	0.00517252
{$d_v$}	{[mm]}	0.214569
{$S_c$}	{[mm$^2$]}	0.246597
{$S_o$}	{[mm$^2$]}	0.150075
{$S_l/S_o$}	[]	0.643158
{$\Psi$}	[]	0.58654
{$\eta$}	[]	0.661877
{med($\theta_e$)}	{[$^\circ$]}	57.1276
{$\Upsilon$}	[]	19
{$\Xi$}	[]	10
