Q	U	V
{$V$}	{[mm$^3$]}	0.0077659
{$d_v$}	{[mm]}	0.245696
{$S_c$}	{[mm$^2$]}	0.334187
{$S_o$}	{[mm$^2$]}	0.215552
{$S_l/S_o$}	[]	0.550378
{$\Psi$}	[]	0.567487
{$\eta$}	[]	0.580205
{med($\theta_e$)}	{[$^\circ$]}	66.71495
{$\Upsilon$}	[]	19
{$\Xi$}	[]	10
