Q	U	V
{$V$}	{[mm$^3$]}	0.0105991
{$d_v$}	{[mm]}	0.272536
{$S_c$}	{[mm$^2$]}	0.492295
{$S_o$}	{[mm$^2$]}	0.281816
{$S_l/S_o$}	[]	0.746867
{$\Psi$}	[]	0.473992
{$\eta$}	[]	0.489881
{med($\theta_e$)}	{[$^\circ$]}	75.0589
{$\Upsilon$}	[]	12
{$\Xi$}	[]	8
