Q	U	V
{$V$}	{[mm$^3$]}	0.00400288
{$d_v$}	{[mm]}	0.196996
{$S_c$}	{[mm$^2$]}	0.234881
{$S_o$}	{[mm$^2$]}	0.137597
{$S_l/S_o$}	[]	0.707021
{$\Psi$}	[]	0.51906
{$\eta$}	[]	0.599674
{med($\theta_e$)}	{[$^\circ$]}	64.0592
{$\Upsilon$}	[]	11
{$\Xi$}	[]	11
