Q	U	V
{$V$}	{[mm$^3$]}	0.00514283
{$d_v$}	{[mm]}	0.214158
{$S_c$}	{[mm$^2$]}	0.311751
{$S_o$}	{[mm$^2$]}	0.169101
{$S_l/S_o$}	[]	0.843579
{$\Psi$}	[]	0.46218
{$\eta$}	[]	0.470972
{med($\theta_e$)}	{[$^\circ$]}	66.9719
{$\Upsilon$}	[]	13
{$\Xi$}	[]	9
