Q	U	V
{$V$}	{[mm$^3$]}	0.00948889
{$d_v$}	{[mm]}	0.262667
{$S_c$}	{[mm$^2$]}	0.530767
{$S_o$}	{[mm$^2$]}	0.274576
{$S_l/S_o$}	[]	0.933042
{$\Psi$}	[]	0.408373
{$\eta$}	[]	0.432001
{med($\theta_e$)}	{[$^\circ$]}	59.44125
{$\Upsilon$}	[]	10
{$\Xi$}	[]	3
