Q	U	V
{$V$}	{[mm$^3$]}	0.00815063
{$d_v$}	{[mm]}	0.249688
{$S_c$}	{[mm$^2$]}	0.450045
{$S_o$}	{[mm$^2$]}	0.235574
{$S_l/S_o$}	[]	0.910419
{$\Psi$}	[]	0.4352
{$\eta$}	[]	0.455343
{med($\theta_e$)}	{[$^\circ$]}	86.18185
{$\Upsilon$}	[]	9
{$\Xi$}	[]	6
