Q	U	V
{$V$}	{[mm$^3$]}	0.00555606
{$d_v$}	{[mm]}	0.219747
{$S_c$}	{[mm$^2$]}	0.227452
{$S_o$}	{[mm$^2$]}	0.152336
{$S_l/S_o$}	[]	0.493094
{$\Psi$}	[]	0.666969
{$\eta$}	[]	0.668937
{med($\theta_e$)}	{[$^\circ$]}	62.7242
{$\Upsilon$}	[]	10
{$\Xi$}	[]	4
