Q	U	V
{$V$}	{[mm$^3$]}	0.00363359
{$d_v$}	{[mm]}	0.190742
{$S_c$}	{[mm$^2$]}	0.189977
{$S_o$}	{[mm$^2$]}	0.1226
{$S_l/S_o$}	[]	0.549568
{$\Psi$}	[]	0.601645
{$\eta$}	[]	0.605426
{med($\theta_e$)}	{[$^\circ$]}	61.18175
{$\Upsilon$}	[]	16
{$\Xi$}	[]	6
