Q	U	V
{$V$}	{[mm$^3$]}	0.00974537
{$d_v$}	{[mm]}	0.265013
{$S_c$}	{[mm$^2$]}	0.358432
{$S_o$}	{[mm$^2$]}	0.229966
{$S_l/S_o$}	[]	0.558630
{$\Psi$}	[]	0.615568
{$\eta$}	[]	0.639365
{med($\theta_e$)}	{[$^\circ$]}	57.3609
{$\Upsilon$}	[]	13
{$\Xi$}	[]	8
