Q	U	V
{$V$}	{[mm$^3$]}	0.0131379
{$d_v$}	{[mm]}	0.292758
{$S_c$}	{[mm$^2$]}	0.411325
{$S_o$}	{[mm$^2$]}	0.294695
{$S_l/S_o$}	[]	0.395765
{$\Psi$}	[]	0.654611
{$\eta$}	[]	0.688733
{med($\theta_e$)}	{[$^\circ$]}	60.6418
{$\Upsilon$}	[]	15
{$\Xi$}	[]	10
