Q	U	V
{$V$}	{[mm$^3$]}	0.00939151
{$d_v$}	{[mm]}	0.261765
{$S_c$}	{[mm$^2$]}	0.448598
{$S_o$}	{[mm$^2$]}	0.267845
{$S_l/S_o$}	[]	0.674842
{$\Psi$}	[]	0.479863
{$\eta$}	[]	0.502842
{med($\theta_e$)}	{[$^\circ$]}	55.81875
{$\Upsilon$}	[]	10
{$\Xi$}	[]	13
