Q	U	V
{$V$}	{[mm$^3$]}	0.009781
{$d_v$}	{[mm]}	0.265335
{$S_c$}	{[mm$^2$]}	0.535055
{$S_o$}	{[mm$^2$]}	0.298901
{$S_l/S_o$}	[]	0.790074
{$\Psi$}	[]	0.413372
{$\eta$}	[]	0.448812
{med($\theta_e$)}	{[$^\circ$]}	112.429
{$\Upsilon$}	[]	10
{$\Xi$}	[]	6
