Q	U	V
{$V$}	{[mm$^3$]}	0.00313605
{$d_v$}	{[mm]}	0.181605
{$S_c$}	{[mm$^2$]}	0.163171
{$S_o$}	{[mm$^2$]}	0.0980788
{$S_l/S_o$}	[]	0.663672
{$\Psi$}	[]	0.634985
{$\eta$}	[]	0.724112
{med($\theta_e$)}	{[$^\circ$]}	74.83
{$\Upsilon$}	[]	11
{$\Xi$}	[]	9
