Q	U	V
{$V$}	{[mm$^3$]}	0.00994011
{$d_v$}	{[mm]}	0.266766
{$S_c$}	{[mm$^2$]}	0.447511
{$S_o$}	{[mm$^2$]}	0.270634
{$S_l/S_o$}	[]	0.653565
{$\Psi$}	[]	0.499583
{$\eta$}	[]	0.533077
{med($\theta_e$)}	{[$^\circ$]}	64.968
{$\Upsilon$}	[]	13
{$\Xi$}	[]	14
