Q	U	V
{$V$}	{[mm$^3$]}	0.00357303
{$d_v$}	{[mm]}	0.189676
{$S_c$}	{[mm$^2$]}	0.188319
{$S_o$}	{[mm$^2$]}	0.115563
{$S_l/S_o$}	[]	0.629579
{$\Psi$}	[]	0.600179
{$\eta$}	[]	0.641444
{med($\theta_e$)}	{[$^\circ$]}	54.4622
{$\Upsilon$}	[]	14
{$\Xi$}	[]	10
