Q	U	V
{$V$}	{[mm$^3$]}	0.00942951
{$d_v$}	{[mm]}	0.262118
{$S_c$}	{[mm$^2$]}	0.381601
{$S_o$}	{[mm$^2$]}	0.249767
{$S_l/S_o$}	[]	0.527828
{$\Psi$}	[]	0.565632
{$\eta$}	[]	0.624383
{med($\theta_e$)}	{[$^\circ$]}	66.8886
{$\Upsilon$}	[]	10
{$\Xi$}	[]	10
