Q	U	V
{$V$}	{[mm$^3$]}	0.00949838
{$d_v$}	{[mm]}	0.262755
{$S_c$}	{[mm$^2$]}	0.498282
{$S_o$}	{[mm$^2$]}	0.301459
{$S_l/S_o$}	[]	0.652901
{$\Psi$}	[]	0.435287
{$\eta$}	[]	0.503484
{med($\theta_e$)}	{[$^\circ$]}	60.37385
{$\Upsilon$}	[]	7
{$\Xi$}	[]	12
