Q	U	V
{$V$}	{[mm$^3$]}	0.00388058
{$d_v$}	{[mm]}	0.194969
{$S_c$}	{[mm$^2$]}	0.212416
{$S_o$}	{[mm$^2$]}	0.127054
{$S_l/S_o$}	[]	0.671856
{$\Psi$}	[]	0.562205
{$\eta$}	[]	0.621540
{med($\theta_e$)}	{[$^\circ$]}	59.0716
{$\Upsilon$}	[]	13
{$\Xi$}	[]	8
