Q	U	V
{$V$}	{[mm$^3$]}	0.0131902
{$d_v$}	{[mm]}	0.293146
{$S_c$}	{[mm$^2$]}	0.527798
{$S_o$}	{[mm$^2$]}	0.320832
{$S_l/S_o$}	[]	0.645092
{$\Psi$}	[]	0.511506
{$\eta$}	[]	0.550559
{med($\theta_e$)}	{[$^\circ$]}	59.5611
{$\Upsilon$}	[]	15
{$\Xi$}	[]	10
