Q	U	V
{$V$}	{[mm$^3$]}	0.0192924
{$d_v$}	{[mm]}	0.332759
{$S_c$}	{[mm$^2$]}	0.587986
{$S_o$}	{[mm$^2$]}	0.409946
{$S_l/S_o$}	[]	0.434301
{$\Psi$}	[]	0.591618
{$\eta$}	[]	0.614271
{med($\theta_e$)}	{[$^\circ$]}	52.5615
{$\Upsilon$}	[]	15
{$\Xi$}	[]	17
