Q	U	V
{$V$}	{[mm$^3$]}	0.0079547
{$d_v$}	{[mm]}	0.247671
{$S_c$}	{[mm$^2$]}	0.431115
{$S_o$}	{[mm$^2$]}	0.238032
{$S_l/S_o$}	[]	0.811164
{$\Psi$}	[]	0.446999
{$\eta$}	[]	0.495167
{med($\theta_e$)}	{[$^\circ$]}	67.06055
{$\Upsilon$}	[]	12
{$\Xi$}	[]	9
