Q	U	V
{$V$}	{[mm$^3$]}	0.0150782
{$d_v$}	{[mm]}	0.306514
{$S_c$}	{[mm$^2$]}	0.563071
{$S_o$}	{[mm$^2$]}	0.35853
{$S_l/S_o$}	[]	0.570499
{$\Psi$}	[]	0.524188
{$\eta$}	[]	0.557928
{med($\theta_e$)}	{[$^\circ$]}	55.0384
{$\Upsilon$}	[]	16
{$\Xi$}	[]	11
