Q	U	V
{$V$}	{[mm$^3$]}	0.00130738
{$d_v$}	{[mm]}	0.135665
{$S_c$}	{[mm$^2$]}	0.0936409
{$S_o$}	{[mm$^2$]}	0.0539062
{$S_l/S_o$}	[]	0.737108
{$\Psi$}	[]	0.617476
{$\eta$}	[]	0.699280
{med($\theta_e$)}	{[$^\circ$]}	66.53785
{$\Upsilon$}	[]	12
{$\Xi$}	[]	6
