Q	U	V
{$V$}	{[mm$^3$]}	0.011276
{$d_v$}	{[mm]}	0.278218
{$S_c$}	{[mm$^2$]}	0.469897
{$S_o$}	{[mm$^2$]}	0.274264
{$S_l/S_o$}	[]	0.713302
{$\Psi$}	[]	0.517509
{$\eta$}	[]	0.550544
{med($\theta_e$)}	{[$^\circ$]}	65.2891
{$\Upsilon$}	[]	12
{$\Xi$}	[]	9
