Q	U	V
{$V$}	{[mm$^3$]}	0.00433062
{$d_v$}	{[mm]}	0.202232
{$S_c$}	{[mm$^2$]}	0.292375
{$S_o$}	{[mm$^2$]}	0.173604
{$S_l/S_o$}	[]	0.684149
{$\Psi$}	[]	0.439451
{$\eta$}	[]	0.512154
{med($\theta_e$)}	{[$^\circ$]}	87.93695
{$\Upsilon$}	[]	10
{$\Xi$}	[]	10
