Q	U	V
{$V$}	{[mm$^3$]}	0.0179779
{$d_v$}	{[mm]}	0.325023
{$S_c$}	{[mm$^2$]}	0.624437
{$S_o$}	{[mm$^2$]}	0.403518
{$S_l/S_o$}	[]	0.547482
{$\Psi$}	[]	0.531481
{$\eta$}	[]	0.539119
{med($\theta_e$)}	{[$^\circ$]}	57.9043
{$\Upsilon$}	[]	14
{$\Xi$}	[]	5
