Q	U	V
{$V$}	{[mm$^3$]}	0.00553944
{$d_v$}	{[mm]}	0.219528
{$S_c$}	{[mm$^2$]}	0.26133
{$S_o$}	{[mm$^2$]}	0.168319
{$S_l/S_o$}	[]	0.552588
{$\Psi$}	[]	0.579347
{$\eta$}	[]	0.587154
{med($\theta_e$)}	{[$^\circ$]}	78.1366
{$\Upsilon$}	[]	9
{$\Xi$}	[]	12
