Q	U	V
{$V$}	{[mm$^3$]}	0.00330823
{$d_v$}	{[mm]}	0.184870
{$S_c$}	{[mm$^2$]}	0.242692
{$S_o$}	{[mm$^2$]}	0.138247
{$S_l/S_o$}	[]	0.755496
{$\Psi$}	[]	0.442411
{$\eta$}	[]	0.465429
{med($\theta_e$)}	{[$^\circ$]}	53.22735
{$\Upsilon$}	[]	14
{$\Xi$}	[]	11
