Q	U	V
{$V$}	{[mm$^3$]}	0.00427006
{$d_v$}	{[mm]}	0.201285
{$S_c$}	{[mm$^2$]}	0.25006
{$S_o$}	{[mm$^2$]}	0.149977
{$S_l/S_o$}	[]	0.667322
{$\Psi$}	[]	0.509013
{$\eta$}	[]	0.542882
{med($\theta_e$)}	{[$^\circ$]}	73.5344
{$\Upsilon$}	[]	13
{$\Xi$}	[]	7
