Q	U	V
{$V$}	{[mm$^3$]}	0.0135975
{$d_v$}	{[mm]}	0.296133
{$S_c$}	{[mm$^2$]}	0.571687
{$S_o$}	{[mm$^2$]}	0.328836
{$S_l/S_o$}	[]	0.738517
{$\Psi$}	[]	0.481909
{$\eta$}	[]	0.505149
{med($\theta_e$)}	{[$^\circ$]}	82.5219
{$\Upsilon$}	[]	9
{$\Xi$}	[]	9
