Q	U	V
{$V$}	{[mm$^3$]}	0.0173272
{$d_v$}	{[mm]}	0.321053
{$S_c$}	{[mm$^2$]}	0.533837
{$S_o$}	{[mm$^2$]}	0.384054
{$S_l/S_o$}	[]	0.390005
{$\Psi$}	[]	0.606589
{$\eta$}	[]	0.619335
{med($\theta_e$)}	{[$^\circ$]}	72.0289
{$\Upsilon$}	[]	15
{$\Xi$}	[]	6
