Q	U	V
{$V$}	{[mm$^3$]}	0.00304699
{$d_v$}	{[mm]}	0.179869
{$S_c$}	{[mm$^2$]}	0.19354
{$S_o$}	{[mm$^2$]}	0.102245
{$S_l/S_o$}	[]	0.892904
{$\Psi$}	[]	0.525163
{$\eta$}	[]	0.580810
{med($\theta_e$)}	{[$^\circ$]}	52.0593
{$\Upsilon$}	[]	16
{$\Xi$}	[]	7
