Q	U	V
{$V$}	{[mm$^3$]}	0.0125501
{$d_v$}	{[mm]}	0.288325
{$S_c$}	{[mm$^2$]}	0.454296
{$S_o$}	{[mm$^2$]}	0.29302
{$S_l/S_o$}	[]	0.550392
{$\Psi$}	[]	0.574879
{$\eta$}	[]	0.609746
{med($\theta_e$)}	{[$^\circ$]}	57.0988
{$\Upsilon$}	[]	8
{$\Xi$}	[]	10
