Q	U	V
{$V$}	{[mm$^3$]}	0.011574
{$d_v$}	{[mm]}	0.280648
{$S_c$}	{[mm$^2$]}	0.501589
{$S_o$}	{[mm$^2$]}	0.306107
{$S_l/S_o$}	[]	0.638607
{$\Psi$}	[]	0.493316
{$\eta$}	[]	0.531941
{med($\theta_e$)}	{[$^\circ$]}	59.2744
{$\Upsilon$}	[]	13
{$\Xi$}	[]	14
