Q	U	V
{$V$}	{[mm$^3$]}	0.00693706
{$d_v$}	{[mm]}	0.236624
{$S_c$}	{[mm$^2$]}	0.40697
{$S_o$}	{[mm$^2$]}	0.194622
{$S_l/S_o$}	[]	1.091079
{$\Psi$}	[]	0.432221
{$\eta$}	[]	0.477667
{med($\theta_e$)}	{[$^\circ$]}	54.94665
{$\Upsilon$}	[]	15
{$\Xi$}	[]	11
