Q	U	V
{$V$}	{[mm$^3$]}	0.019011
{$d_v$}	{[mm]}	0.331133
{$S_c$}	{[mm$^2$]}	0.660035
{$S_o$}	{[mm$^2$]}	0.427196
{$S_l/S_o$}	[]	0.545040
{$\Psi$}	[]	0.5219
{$\eta$}	[]	0.569321
{med($\theta_e$)}	{[$^\circ$]}	65.6923
{$\Upsilon$}	[]	14
{$\Xi$}	[]	13
