Q	U	V
{$V$}	{[mm$^3$]}	0.0114351
{$d_v$}	{[mm]}	0.279521
{$S_c$}	{[mm$^2$]}	0.418025
{$S_o$}	{[mm$^2$]}	0.27748
{$S_l/S_o$}	[]	0.506505
{$\Psi$}	[]	0.587185
{$\eta$}	[]	0.591405
{med($\theta_e$)}	{[$^\circ$]}	62.70395
{$\Upsilon$}	[]	15
{$\Xi$}	[]	9
