Q	U	V
{$V$}	{[mm$^3$]}	0.0200536
{$d_v$}	{[mm]}	0.337079
{$S_c$}	{[mm$^2$]}	0.776148
{$S_o$}	{[mm$^2$]}	0.471764
{$S_l/S_o$}	[]	0.645204
{$\Psi$}	[]	0.459905
{$\eta$}	[]	0.482471
{med($\theta_e$)}	{[$^\circ$]}	85.7507
{$\Upsilon$}	[]	9
{$\Xi$}	[]	11
