Q	U	V
{$V$}	{[mm$^3$]}	0.00293181
{$d_v$}	{[mm]}	0.177574
{$S_c$}	{[mm$^2$]}	0.218881
{$S_o$}	{[mm$^2$]}	0.11336
{$S_l/S_o$}	[]	0.930849
{$\Psi$}	[]	0.452585
{$\eta$}	[]	0.466336
{med($\theta_e$)}	{[$^\circ$]}	76.6284
{$\Upsilon$}	[]	9
{$\Xi$}	[]	7
