Q	U	V
{$V$}	{[mm$^3$]}	0.00173248
{$d_v$}	{[mm]}	0.149013
{$S_c$}	{[mm$^2$]}	0.106443
{$S_o$}	{[mm$^2$]}	0.0537158
{$S_l/S_o$}	[]	0.981596
{$\Psi$}	[]	0.655359
{$\eta$}	[]	0.698501
{med($\theta_e$)}	{[$^\circ$]}	53.8114
{$\Upsilon$}	[]	12
{$\Xi$}	[]	7
