Q	U	V
{$V$}	{[mm$^3$]}	0.00721018
{$d_v$}	{[mm]}	0.239690
{$S_c$}	{[mm$^2$]}	0.35718
{$S_o$}	{[mm$^2$]}	0.219576
{$S_l/S_o$}	[]	0.626681
{$\Psi$}	[]	0.505314
{$\eta$}	[]	0.605345
{med($\theta_e$)}	{[$^\circ$]}	61.5292
{$\Upsilon$}	[]	13
{$\Xi$}	[]	10
