Q	U	V
{$V$}	{[mm$^3$]}	0.0112154
{$d_v$}	{[mm]}	0.277719
{$S_c$}	{[mm$^2$]}	0.389784
{$S_o$}	{[mm$^2$]}	0.256527
{$S_l/S_o$}	[]	0.519466
{$\Psi$}	[]	0.621637
{$\eta$}	[]	0.631183
{med($\theta_e$)}	{[$^\circ$]}	48.2307
{$\Upsilon$}	[]	18
{$\Xi$}	[]	15
