Q	U	V
{$V$}	{[mm$^3$]}	0.00127769
{$d_v$}	{[mm]}	0.134630
{$S_c$}	{[mm$^2$]}	0.109491
{$S_o$}	{[mm$^2$]}	0.0503235
{$S_l/S_o$}	[]	1.175743
{$\Psi$}	[]	0.520063
{$\eta$}	[]	0.560908
{med($\theta_e$)}	{[$^\circ$]}	84.01285
{$\Upsilon$}	[]	17
{$\Xi$}	[]	4
