Q	U	V
{$V$}	{[mm$^3$]}	0.0119469
{$d_v$}	{[mm]}	0.283630
{$S_c$}	{[mm$^2$]}	0.529381
{$S_o$}	{[mm$^2$]}	0.332275
{$S_l/S_o$}	[]	0.593201
{$\Psi$}	[]	0.477404
{$\eta$}	[]	0.484173
{med($\theta_e$)}	{[$^\circ$]}	55.4351
{$\Upsilon$}	[]	13
{$\Xi$}	[]	14
