Q	U	V
{$V$}	{[mm$^3$]}	0.00528651
{$d_v$}	{[mm]}	0.216134
{$S_c$}	{[mm$^2$]}	0.302071
{$S_o$}	{[mm$^2$]}	0.181236
{$S_l/S_o$}	[]	0.666727
{$\Psi$}	[]	0.485834
{$\eta$}	[]	0.498780
{med($\theta_e$)}	{[$^\circ$]}	69.62895
{$\Upsilon$}	[]	10
{$\Xi$}	[]	9
