Q	U	V
{$V$}	{[mm$^3$]}	0.0192046
{$d_v$}	{[mm]}	0.332253
{$S_c$}	{[mm$^2$]}	0.700873
{$S_o$}	{[mm$^2$]}	0.457802
{$S_l/S_o$}	[]	0.530952
{$\Psi$}	[]	0.494821
{$\eta$}	[]	0.539205
{med($\theta_e$)}	{[$^\circ$]}	82.0062
{$\Upsilon$}	[]	7
{$\Xi$}	[]	9
