Q	U	V
{$V$}	{[mm$^3$]}	0.00744291
{$d_v$}	{[mm]}	0.242241
{$S_c$}	{[mm$^2$]}	0.323207
{$S_o$}	{[mm$^2$]}	0.216758
{$S_l/S_o$}	[]	0.491096
{$\Psi$}	[]	0.570381
{$\eta$}	[]	0.581429
{med($\theta_e$)}	{[$^\circ$]}	69.0456
{$\Upsilon$}	[]	12
{$\Xi$}	[]	9
