Q	U	V
{$V$}	{[mm$^3$]}	0.002838
{$d_v$}	{[mm]}	0.175659
{$S_c$}	{[mm$^2$]}	0.183866
{$S_o$}	{[mm$^2$]}	0.101058
{$S_l/S_o$}	[]	0.819411
{$\Psi$}	[]	0.527219
{$\eta$}	[]	0.553506
{med($\theta_e$)}	{[$^\circ$]}	61.93955
{$\Upsilon$}	[]	14
{$\Xi$}	[]	7
