Q	U	V
{$V$}	{[mm$^3$]}	0.0162336
{$d_v$}	{[mm]}	0.314151
{$S_c$}	{[mm$^2$]}	0.515543
{$S_o$}	{[mm$^2$]}	0.322829
{$S_l/S_o$}	[]	0.596954
{$\Psi$}	[]	0.601399
{$\eta$}	[]	0.613844
{med($\theta_e$)}	{[$^\circ$]}	62.8551
{$\Upsilon$}	[]	12
{$\Xi$}	[]	18
