Q	U	V
{$V$}	{[mm$^3$]}	0.00417269
{$d_v$}	{[mm]}	0.199743
{$S_c$}	{[mm$^2$]}	0.274806
{$S_o$}	{[mm$^2$]}	0.162265
{$S_l/S_o$}	[]	0.693563
{$\Psi$}	[]	0.456109
{$\eta$}	[]	0.484273
{med($\theta_e$)}	{[$^\circ$]}	53.8728
{$\Upsilon$}	[]	16
{$\Xi$}	[]	12
