Q	U	V
{$V$}	{[mm$^3$]}	0.0024877
{$d_v$}	{[mm]}	0.168112
{$S_c$}	{[mm$^2$]}	0.15629
{$S_o$}	{[mm$^2$]}	0.0919794
{$S_l/S_o$}	[]	0.699185
{$\Psi$}	[]	0.568091
{$\eta$}	[]	0.620469
{med($\theta_e$)}	{[$^\circ$]}	68.19145
{$\Upsilon$}	[]	10
{$\Xi$}	[]	6
