Q	U	V
{$V$}	{[mm$^3$]}	0.0069715
{$d_v$}	{[mm]}	0.237015
{$S_c$}	{[mm$^2$]}	0.35608
{$S_o$}	{[mm$^2$]}	0.217463
{$S_l/S_o$}	[]	0.637428
{$\Psi$}	[]	0.495626
{$\eta$}	[]	0.533136
{med($\theta_e$)}	{[$^\circ$]}	62.9203
{$\Upsilon$}	[]	11
{$\Xi$}	[]	13
