Q	U	V
{$V$}	{[mm$^3$]}	0.00461323
{$d_v$}	{[mm]}	0.206539
{$S_c$}	{[mm$^2$]}	0.236464
{$S_o$}	{[mm$^2$]}	0.144696
{$S_l/S_o$}	[]	0.634212
{$\Psi$}	[]	0.566747
{$\eta$}	[]	0.622310
{med($\theta_e$)}	{[$^\circ$]}	57.1911
{$\Upsilon$}	[]	15
{$\Xi$}	[]	11
