Q	U	V
{$V$}	{[mm$^3$]}	0.0170066
{$d_v$}	{[mm]}	0.319060
{$S_c$}	{[mm$^2$]}	0.512366
{$S_o$}	{[mm$^2$]}	0.369987
{$S_l/S_o$}	[]	0.384822
{$\Psi$}	[]	0.624188
{$\eta$}	[]	0.630930
{med($\theta_e$)}	{[$^\circ$]}	66.29745
{$\Upsilon$}	[]	10
{$\Xi$}	[]	16
