Q	U	V
{$V$}	{[mm$^3$]}	0.00382714
{$d_v$}	{[mm]}	0.194070
{$S_c$}	{[mm$^2$]}	0.176886
{$S_o$}	{[mm$^2$]}	0.101436
{$S_l/S_o$}	[]	0.743819
{$\Psi$}	[]	0.668919
{$\eta$}	[]	0.710616
{med($\theta_e$)}	{[$^\circ$]}	68.2363
{$\Upsilon$}	[]	12
{$\Xi$}	[]	7
