Q	U	V
{$V$}	{[mm$^3$]}	0.0174875
{$d_v$}	{[mm]}	0.322040
{$S_c$}	{[mm$^2$]}	0.565558
{$S_o$}	{[mm$^2$]}	0.41487
{$S_l/S_o$}	[]	0.363217
{$\Psi$}	[]	0.576092
{$\eta$}	[]	0.603714
{med($\theta_e$)}	{[$^\circ$]}	58.72545
{$\Upsilon$}	[]	15
{$\Xi$}	[]	9
