Q	U	V
{$V$}	{[mm$^3$]}	0.0178461
{$d_v$}	{[mm]}	0.324226
{$S_c$}	{[mm$^2$]}	0.768976
{$S_o$}	{[mm$^2$]}	0.481511
{$S_l/S_o$}	[]	0.597006
{$\Psi$}	[]	0.429471
{$\eta$}	[]	0.464905
{med($\theta_e$)}	{[$^\circ$]}	
{$\Upsilon$}	[]	11
{$\Xi$}	[]	10
