Q	U	V
{$V$}	{[mm$^3$]}	0.00410025
{$d_v$}	{[mm]}	0.198581
{$S_c$}	{[mm$^2$]}	0.225185
{$S_o$}	{[mm$^2$]}	0.128065
{$S_l/S_o$}	[]	0.758365
{$\Psi$}	[]	0.550155
{$\eta$}	[]	0.617195
{med($\theta_e$)}	{[$^\circ$]}	60.413
{$\Upsilon$}	[]	12
{$\Xi$}	[]	5
