Q	U	V
{$V$}	{[mm$^3$]}	0.00378914
{$d_v$}	{[mm]}	0.193426
{$S_c$}	{[mm$^2$]}	0.197127
{$S_o$}	{[mm$^2$]}	0.114258
{$S_l/S_o$}	[]	0.725280
{$\Psi$}	[]	0.596255
{$\eta$}	[]	0.609348
{med($\theta_e$)}	{[$^\circ$]}	82.2809
{$\Upsilon$}	[]	12
{$\Xi$}	[]	8
