Q	U	V
{$V$}	{[mm$^3$]}	0.00144987
{$d_v$}	{[mm]}	0.140425
{$S_c$}	{[mm$^2$]}	0.100182
{$S_o$}	{[mm$^2$]}	0.0570016
{$S_l/S_o$}	[]	0.757530
{$\Psi$}	[]	0.618368
{$\eta$}	[]	0.681517
{med($\theta_e$)}	{[$^\circ$]}	55.23165
{$\Upsilon$}	[]	16
{$\Xi$}	[]	6
