Q	U	V
{$V$}	{[mm$^3$]}	0.0172014
{$d_v$}	{[mm]}	0.320274
{$S_c$}	{[mm$^2$]}	0.612335
{$S_o$}	{[mm$^2$]}	0.395451
{$S_l/S_o$}	[]	0.548447
{$\Psi$}	[]	0.526265
{$\eta$}	[]	0.559811
{med($\theta_e$)}	{[$^\circ$]}	66.4971
{$\Upsilon$}	[]	9
{$\Xi$}	[]	16
