Q	U	V
{$V$}	{[mm$^3$]}	0.00587192
{$d_v$}	{[mm]}	0.223835
{$S_c$}	{[mm$^2$]}	0.23857
{$S_o$}	{[mm$^2$]}	0.148191
{$S_l/S_o$}	[]	0.609882
{$\Psi$}	[]	0.659764
{$\eta$}	[]	0.696035
{med($\theta_e$)}	{[$^\circ$]}	56.054
{$\Upsilon$}	[]	13
{$\Xi$}	[]	9
