Q	U	V
{$V$}	{[mm$^3$]}	0.00333316
{$d_v$}	{[mm]}	0.185333
{$S_c$}	{[mm$^2$]}	0.163831
{$S_o$}	{[mm$^2$]}	0.105301
{$S_l/S_o$}	[]	0.555835
{$\Psi$}	[]	0.658656
{$\eta$}	[]	0.673182
{med($\theta_e$)}	{[$^\circ$]}	72.8252
{$\Upsilon$}	[]	11
{$\Xi$}	[]	6
