Q	U	V
{$V$}	{[mm$^3$]}	0.00502884
{$d_v$}	{[mm]}	0.212564
{$S_c$}	{[mm$^2$]}	0.227383
{$S_o$}	{[mm$^2$]}	0.153357
{$S_l/S_o$}	[]	0.482704
{$\Psi$}	[]	0.624268
{$\eta$}	[]	0.693143
{med($\theta_e$)}	{[$^\circ$]}	63.2425
{$\Upsilon$}	[]	12
{$\Xi$}	[]	13
