Q	U	V
{$V$}	{[mm$^3$]}	0.0103771
{$d_v$}	{[mm]}	0.270620
{$S_c$}	{[mm$^2$]}	0.433107
{$S_o$}	{[mm$^2$]}	0.262938
{$S_l/S_o$}	[]	0.647183
{$\Psi$}	[]	0.531218
{$\eta$}	[]	0.566467
{med($\theta_e$)}	{[$^\circ$]}	63.4207
{$\Upsilon$}	[]	12
{$\Xi$}	[]	6
