Q	U	V
{$V$}	{[mm$^3$]}	0.00752129
{$d_v$}	{[mm]}	0.243089
{$S_c$}	{[mm$^2$]}	0.29487
{$S_o$}	{[mm$^2$]}	0.179306
{$S_l/S_o$}	[]	0.644507
{$\Psi$}	[]	0.629576
{$\eta$}	[]	0.653620
{med($\theta_e$)}	{[$^\circ$]}	87.1988
{$\Upsilon$}	[]	13
{$\Xi$}	[]	6
