Q	U	V
{$V$}	{[mm$^3$]}	0.00248295
{$d_v$}	{[mm]}	0.168005
{$S_c$}	{[mm$^2$]}	0.150472
{$S_o$}	{[mm$^2$]}	0.08495
{$S_l/S_o$}	[]	0.771301
{$\Psi$}	[]	0.589305
{$\eta$}	[]	0.618108
{med($\theta_e$)}	{[$^\circ$]}	67.2414
{$\Upsilon$}	[]	17
{$\Xi$}	[]	5
