Q	U	V
{$V$}	{[mm$^3$]}	0.00690619
{$d_v$}	{[mm]}	0.236273
{$S_c$}	{[mm$^2$]}	0.240098
{$S_o$}	{[mm$^2$]}	0.168767
{$S_l/S_o$}	[]	0.422660
{$\Psi$}	[]	0.730446
{$\eta$}	[]	0.775296
{med($\theta_e$)}	{[$^\circ$]}	62.7858
{$\Upsilon$}	[]	14
{$\Xi$}	[]	12
