Q	U	V
{$V$}	{[mm$^3$]}	0.00670195
{$d_v$}	{[mm]}	0.233920
{$S_c$}	{[mm$^2$]}	0.419663
{$S_o$}	{[mm$^2$]}	0.241454
{$S_l/S_o$}	[]	0.738066
{$\Psi$}	[]	0.409623
{$\eta$}	[]	0.462395
{med($\theta_e$)}	{[$^\circ$]}	76.66465
{$\Upsilon$}	[]	14
{$\Xi$}	[]	15
