Q	U	V
{$V$}	{[mm$^3$]}	0.00455623
{$d_v$}	{[mm]}	0.205685
{$S_c$}	{[mm$^2$]}	0.207204
{$S_o$}	{[mm$^2$]}	0.128478
{$S_l/S_o$}	[]	0.612759
{$\Psi$}	[]	0.641441
{$\eta$}	[]	0.664886
{med($\theta_e$)}	{[$^\circ$]}	49.4236
{$\Upsilon$}	[]	17
{$\Xi$}	[]	8
