Q	U	V
{$V$}	{[mm$^3$]}	0.00370602
{$d_v$}	{[mm]}	0.192001
{$S_c$}	{[mm$^2$]}	0.149952
{$S_o$}	{[mm$^2$]}	0.0876708
{$S_l/S_o$}	[]	0.710398
{$\Psi$}	[]	0.772331
{$\eta$}	[]	0.801370
{med($\theta_e$)}	{[$^\circ$]}	54.1599
{$\Upsilon$}	[]	13
{$\Xi$}	[]	5
