Q	U	V
{$V$}	{[mm$^3$]}	0.0183021
{$d_v$}	{[mm]}	0.326965
{$S_c$}	{[mm$^2$]}	0.538229
{$S_o$}	{[mm$^2$]}	0.354885
{$S_l/S_o$}	[]	0.516629
{$\Psi$}	[]	0.624
{$\eta$}	[]	0.670350
{med($\theta_e$)}	{[$^\circ$]}	56.83
{$\Upsilon$}	[]	14
{$\Xi$}	[]	16
