Q	U	V
{$V$}	{[mm$^3$]}	0.00212672
{$d_v$}	{[mm]}	0.159553
{$S_c$}	{[mm$^2$]}	0.121249
{$S_o$}	{[mm$^2$]}	0.0783786
{$S_l/S_o$}	[]	0.546966
{$\Psi$}	[]	0.659598
{$\eta$}	[]	0.738711
{med($\theta_e$)}	{[$^\circ$]}	65.7839
{$\Upsilon$}	[]	9
{$\Xi$}	[]	10
