Q	U	V
{$V$}	{[mm$^3$]}	0.00407175
{$d_v$}	{[mm]}	0.198120
{$S_c$}	{[mm$^2$]}	0.278035
{$S_o$}	{[mm$^2$]}	0.145858
{$S_l/S_o$}	[]	0.906203
{$\Psi$}	[]	0.443512
{$\eta$}	[]	0.539565
{med($\theta_e$)}	{[$^\circ$]}	69.5816
{$\Upsilon$}	[]	11
{$\Xi$}	[]	10
