Q	U	V
{$V$}	{[mm$^3$]}	0.0038212
{$d_v$}	{[mm]}	0.193970
{$S_c$}	{[mm$^2$]}	0.199638
{$S_o$}	{[mm$^2$]}	0.11875
{$S_l/S_o$}	[]	0.681162
{$\Psi$}	[]	0.592071
{$\eta$}	[]	0.644682
{med($\theta_e$)}	{[$^\circ$]}	61.4003
{$\Upsilon$}	[]	14
{$\Xi$}	[]	11
