Q	U	V
{$V$}	{[mm$^3$]}	0.00798202
{$d_v$}	{[mm]}	0.247954
{$S_c$}	{[mm$^2$]}	0.420303
{$S_o$}	{[mm$^2$]}	0.251065
{$S_l/S_o$}	[]	0.674080
{$\Psi$}	[]	0.459547
{$\eta$}	[]	0.492545
{med($\theta_e$)}	{[$^\circ$]}	111.115
{$\Upsilon$}	[]	11
{$\Xi$}	[]	16
