Q	U	V
{$V$}	{[mm$^3$]}	0.00408719
{$d_v$}	{[mm]}	0.198370
{$S_c$}	{[mm$^2$]}	0.190566
{$S_o$}	{[mm$^2$]}	0.125491
{$S_l/S_o$}	[]	0.518563
{$\Psi$}	[]	0.648717
{$\eta$}	[]	0.676637
{med($\theta_e$)}	{[$^\circ$]}	56.8494
{$\Upsilon$}	[]	13
{$\Xi$}	[]	7
