Q	U	V
{$V$}	{[mm$^3$]}	0.000872773
{$d_v$}	{[mm]}	0.118568
{$S_c$}	{[mm$^2$]}	0.073918
{$S_o$}	{[mm$^2$]}	0.0373289
{$S_l/S_o$}	[]	0.980182
{$\Psi$}	[]	0.597496
{$\eta$}	[]	0.654018
{med($\theta_e$)}	{[$^\circ$]}	49.25055
{$\Upsilon$}	[]	19
{$\Xi$}	[]	2
