Q	U	V
{$V$}	{[mm$^3$]}	0.00440068
{$d_v$}	{[mm]}	0.203317
{$S_c$}	{[mm$^2$]}	0.223848
{$S_o$}	{[mm$^2$]}	0.131093
{$S_l/S_o$}	[]	0.707551
{$\Psi$}	[]	0.580155
{$\eta$}	[]	0.603396
{med($\theta_e$)}	{[$^\circ$]}	59.5798
{$\Upsilon$}	[]	13
{$\Xi$}	[]	8
