Q	U	V
{$V$}	{[mm$^3$]}	0.00420119
{$d_v$}	{[mm]}	0.200197
{$S_c$}	{[mm$^2$]}	0.29526
{$S_o$}	{[mm$^2$]}	0.161032
{$S_l/S_o$}	[]	0.833549
{$\Psi$}	[]	0.426443
{$\eta$}	[]	0.453475
{med($\theta_e$)}	{[$^\circ$]}	
{$\Upsilon$}	[]	15
{$\Xi$}	[]	13
