Q	U	V
{$V$}	{[mm$^3$]}	0.00211484
{$d_v$}	{[mm]}	0.159255
{$S_c$}	{[mm$^2$]}	0.115066
{$S_o$}	{[mm$^2$]}	0.0737055
{$S_l/S_o$}	[]	0.561159
{$\Psi$}	[]	0.692451
{$\eta$}	[]	0.704654
{med($\theta_e$)}	{[$^\circ$]}	51.8935
{$\Upsilon$}	[]	13
{$\Xi$}	[]	5
