Q	U	V
{$V$}	{[mm$^3$]}	0.0132377
{$d_v$}	{[mm]}	0.293498
{$S_c$}	{[mm$^2$]}	0.514595
{$S_o$}	{[mm$^2$]}	0.332937
{$S_l/S_o$}	[]	0.545623
{$\Psi$}	[]	0.525888
{$\eta$}	[]	0.535466
{med($\theta_e$)}	{[$^\circ$]}	69.8269
{$\Upsilon$}	[]	14
{$\Xi$}	[]	15
