Q	U	V
{$V$}	{[mm$^3$]}	0.00394707
{$d_v$}	{[mm]}	0.196076
{$S_c$}	{[mm$^2$]}	0.208955
{$S_o$}	{[mm$^2$]}	0.130592
{$S_l/S_o$}	[]	0.600060
{$\Psi$}	[]	0.578027
{$\eta$}	[]	0.631567
{med($\theta_e$)}	{[$^\circ$]}	58.9011
{$\Upsilon$}	[]	14
{$\Xi$}	[]	9
