Q	U	V
{$V$}	{[mm$^3$]}	0.00475454
{$d_v$}	{[mm]}	0.208627
{$S_c$}	{[mm$^2$]}	0.273826
{$S_o$}	{[mm$^2$]}	0.145084
{$S_l/S_o$}	[]	0.887362
{$\Psi$}	[]	0.499362
{$\eta$}	[]	0.514020
{med($\theta_e$)}	{[$^\circ$]}	
{$\Upsilon$}	[]	16
{$\Xi$}	[]	7
