Q	U	V
{$V$}	{[mm$^3$]}	0.00623053
{$d_v$}	{[mm]}	0.228302
{$S_c$}	{[mm$^2$]}	0.314623
{$S_o$}	{[mm$^2$]}	0.190246
{$S_l/S_o$}	[]	0.653769
{$\Psi$}	[]	0.520448
{$\eta$}	[]	0.554972
{med($\theta_e$)}	{[$^\circ$]}	57.5136
{$\Upsilon$}	[]	12
{$\Xi$}	[]	13
