Q	U	V
{$V$}	{[mm$^3$]}	0.00277862
{$d_v$}	{[mm]}	0.174426
{$S_c$}	{[mm$^2$]}	0.122864
{$S_o$}	{[mm$^2$]}	0.0849335
{$S_l/S_o$}	[]	0.446591
{$\Psi$}	[]	0.777939
{$\eta$}	[]	0.799450
{med($\theta_e$)}	{[$^\circ$]}	54.7196
{$\Upsilon$}	[]	12
{$\Xi$}	[]	6
