Q	U	V
{$V$}	{[mm$^3$]}	0.00939508
{$d_v$}	{[mm]}	0.261799
{$S_c$}	{[mm$^2$]}	0.361448
{$S_o$}	{[mm$^2$]}	0.241107
{$S_l/S_o$}	[]	0.499119
{$\Psi$}	[]	0.595715
{$\eta$}	[]	0.624112
{med($\theta_e$)}	{[$^\circ$]}	64.29865
{$\Upsilon$}	[]	13
{$\Xi$}	[]	13
