Q	U	V
{$V$}	{[mm$^3$]}	0.0146947
{$d_v$}	{[mm]}	0.303893
{$S_c$}	{[mm$^2$]}	0.406859
{$S_o$}	{[mm$^2$]}	0.30637
{$S_l/S_o$}	[]	0.327999
{$\Psi$}	[]	0.713095
{$\eta$}	[]	0.726854
{med($\theta_e$)}	{[$^\circ$]}	52.7075
{$\Upsilon$}	[]	16
{$\Xi$}	[]	15
