Q	U	V
{$V$}	{[mm$^3$]}	0.00544563
{$d_v$}	{[mm]}	0.218281
{$S_c$}	{[mm$^2$]}	0.227173
{$S_o$}	{[mm$^2$]}	0.142694
{$S_l/S_o$}	[]	0.592029
{$\Psi$}	[]	0.65891
{$\eta$}	[]	0.664137
{med($\theta_e$)}	{[$^\circ$]}	61.26085
{$\Upsilon$}	[]	15
{$\Xi$}	[]	4
