Q	U	V
{$V$}	{[mm$^3$]}	0.00110195
{$d_v$}	{[mm]}	0.128151
{$S_c$}	{[mm$^2$]}	0.0821381
{$S_o$}	{[mm$^2$]}	0.0445678
{$S_l/S_o$}	[]	0.842992
{$\Psi$}	[]	0.628127
{$\eta$}	[]	0.696699
{med($\theta_e$)}	{[$^\circ$]}	65.0923
{$\Upsilon$}	[]	13
{$\Xi$}	[]	9
