Q	U	V
{$V$}	{[mm$^3$]}	0.0126178
{$d_v$}	{[mm]}	0.288843
{$S_c$}	{[mm$^2$]}	0.458309
{$S_o$}	{[mm$^2$]}	0.305241
{$S_l/S_o$}	[]	0.501466
{$\Psi$}	[]	0.571893
{$\eta$}	[]	0.609408
{med($\theta_e$)}	{[$^\circ$]}	60.71605
{$\Upsilon$}	[]	15
{$\Xi$}	[]	13
