Q	U	V
{$V$}	{[mm$^3$]}	0.00577455
{$d_v$}	{[mm]}	0.222590
{$S_c$}	{[mm$^2$]}	0.228132
{$S_o$}	{[mm$^2$]}	0.164608
{$S_l/S_o$}	[]	0.385911
{$\Psi$}	[]	0.682302
{$\eta$}	[]	0.706345
{med($\theta_e$)}	{[$^\circ$]}	58.13875
{$\Upsilon$}	[]	14
{$\Xi$}	[]	9
