Q	U	V
{$V$}	{[mm$^3$]}	0.00252689
{$d_v$}	{[mm]}	0.168991
{$S_c$}	{[mm$^2$]}	0.159237
{$S_o$}	{[mm$^2$]}	0.0915533
{$S_l/S_o$}	[]	0.739282
{$\Psi$}	[]	0.563418
{$\eta$}	[]	0.661228
{med($\theta_e$)}	{[$^\circ$]}	71.6614
{$\Upsilon$}	[]	10
{$\Xi$}	[]	6
