Q	U	V
{$V$}	{[mm$^3$]}	0.00875742
{$d_v$}	{[mm]}	0.255736
{$S_c$}	{[mm$^2$]}	0.385266
{$S_o$}	{[mm$^2$]}	0.220155
{$S_l/S_o$}	[]	0.749976
{$\Psi$}	[]	0.533303
{$\eta$}	[]	0.555756
{med($\theta_e$)}	{[$^\circ$]}	60.97635
{$\Upsilon$}	[]	19
{$\Xi$}	[]	11
