Q	U	V
{$V$}	{[mm$^3$]}	0.0189683
{$d_v$}	{[mm]}	0.330885
{$S_c$}	{[mm$^2$]}	0.569818
{$S_o$}	{[mm$^2$]}	0.361083
{$S_l/S_o$}	[]	0.578080
{$\Psi$}	[]	0.603625
{$\eta$}	[]	0.616363
{med($\theta_e$)}	{[$^\circ$]}	52.43495
{$\Upsilon$}	[]	14
{$\Xi$}	[]	14
