Q	U	V
{$V$}	{[mm$^3$]}	0.00613672
{$d_v$}	{[mm]}	0.227150
{$S_c$}	{[mm$^2$]}	0.262223
{$S_o$}	{[mm$^2$]}	0.172629
{$S_l/S_o$}	[]	0.518997
{$\Psi$}	[]	0.618165
{$\eta$}	[]	0.628217
{med($\theta_e$)}	{[$^\circ$]}	67.5579
{$\Upsilon$}	[]	13
{$\Xi$}	[]	12
