Q	U	V
{$V$}	{[mm$^3$]}	0.00774334
{$d_v$}	{[mm]}	0.245458
{$S_c$}	{[mm$^2$]}	0.416663
{$S_o$}	{[mm$^2$]}	0.235427
{$S_l/S_o$}	[]	0.769818
{$\Psi$}	[]	0.454274
{$\eta$}	[]	0.487228
{med($\theta_e$)}	{[$^\circ$]}	72.0342
{$\Upsilon$}	[]	18
{$\Xi$}	[]	9
