Q	U	V
{$V$}	{[mm$^3$]}	0.010307
{$d_v$}	{[mm]}	0.270009
{$S_c$}	{[mm$^2$]}	0.356969
{$S_o$}	{[mm$^2$]}	0.258567
{$S_l/S_o$}	[]	0.380567
{$\Psi$}	[]	0.641616
{$\eta$}	[]	0.660088
{med($\theta_e$)}	{[$^\circ$]}	57.275
{$\Upsilon$}	[]	15
{$\Xi$}	[]	10
