Q	U	V
{$V$}	{[mm$^3$]}	0.0118899
{$d_v$}	{[mm]}	0.283178
{$S_c$}	{[mm$^2$]}	0.468981
{$S_o$}	{[mm$^2$]}	0.318712
{$S_l/S_o$}	[]	0.471488
{$\Psi$}	[]	0.537173
{$\eta$}	[]	0.602065
{med($\theta_e$)}	{[$^\circ$]}	73.23055
{$\Upsilon$}	[]	10
{$\Xi$}	[]	13
