Q	U	V
{$V$}	{[mm$^3$]}	0.0110112
{$d_v$}	{[mm]}	0.276023
{$S_c$}	{[mm$^2$]}	0.407764
{$S_o$}	{[mm$^2$]}	0.294509
{$S_l/S_o$}	[]	0.384555
{$\Psi$}	[]	0.586991
{$\eta$}	[]	0.652694
{med($\theta_e$)}	{[$^\circ$]}	59.78115
{$\Upsilon$}	[]	20
{$\Xi$}	[]	15
