Q	U	V
{$V$}	{[mm$^3$]}	0.00241052
{$d_v$}	{[mm]}	0.166356
{$S_c$}	{[mm$^2$]}	0.137301
{$S_o$}	{[mm$^2$]}	0.0819441
{$S_l/S_o$}	[]	0.675545
{$\Psi$}	[]	0.633215
{$\eta$}	[]	0.669296
{med($\theta_e$)}	{[$^\circ$]}	57.19275
{$\Upsilon$}	[]	20
{$\Xi$}	[]	8
