Q	U	V
{$V$}	{[mm$^3$]}	0.00236539
{$d_v$}	{[mm]}	0.165311
{$S_c$}	{[mm$^2$]}	0.126852
{$S_o$}	{[mm$^2$]}	0.0838663
{$S_l/S_o$}	[]	0.512550
{$\Psi$}	[]	0.676792
{$\eta$}	[]	0.708824
{med($\theta_e$)}	{[$^\circ$]}	64.17045
{$\Upsilon$}	[]	12
{$\Xi$}	[]	7
