Q	U	V
{$V$}	{[mm$^3$]}	0.00351128
{$d_v$}	{[mm]}	0.188577
{$S_c$}	{[mm$^2$]}	0.232335
{$S_o$}	{[mm$^2$]}	0.129786
{$S_l/S_o$}	[]	0.790139
{$\Psi$}	[]	0.480854
{$\eta$}	[]	0.549616
{med($\theta_e$)}	{[$^\circ$]}	82.88905
{$\Upsilon$}	[]	11
{$\Xi$}	[]	7
