Q	U	V
{$V$}	{[mm$^3$]}	0.0186227
{$d_v$}	{[mm]}	0.328863
{$S_c$}	{[mm$^2$]}	0.560863
{$S_o$}	{[mm$^2$]}	0.387517
{$S_l/S_o$}	[]	0.447325
{$\Psi$}	[]	0.60579
{$\eta$}	[]	0.623038
{med($\theta_e$)}	{[$^\circ$]}	55.9236
{$\Upsilon$}	[]	17
{$\Xi$}	[]	14
