Q	U	V
{$V$}	{[mm$^3$]}	0.00216828
{$d_v$}	{[mm]}	0.160585
{$S_c$}	{[mm$^2$]}	0.158249
{$S_o$}	{[mm$^2$]}	0.0769754
{$S_l/S_o$}	[]	1.055839
{$\Psi$}	[]	0.511941
{$\eta$}	[]	0.555139
{med($\theta_e$)}	{[$^\circ$]}	50.80415
{$\Upsilon$}	[]	16
{$\Xi$}	[]	4
