Q	U	V
{$V$}	{[mm$^3$]}	0.00107939
{$d_v$}	{[mm]}	0.127270
{$S_c$}	{[mm$^2$]}	0.0915667
{$S_o$}	{[mm$^2$]}	0.0496787
{$S_l/S_o$}	[]	0.843178
{$\Psi$}	[]	0.555732
{$\eta$}	[]	0.582304
{med($\theta_e$)}	{[$^\circ$]}	79.7931
{$\Upsilon$}	[]	20
{$\Xi$}	[]	2
