Q	U	V
{$V$}	{[mm$^3$]}	0.00136081
{$d_v$}	{[mm]}	0.137488
{$S_c$}	{[mm$^2$]}	0.113816
{$S_o$}	{[mm$^2$]}	0.0562598
{$S_l/S_o$}	[]	1.023043
{$\Psi$}	[]	0.52177
{$\eta$}	[]	0.578263
{med($\theta_e$)}	{[$^\circ$]}	86.891
{$\Upsilon$}	[]	23
{$\Xi$}	[]	7
