Q	U	V
{$V$}	{[mm$^3$]}	0.00287125
{$d_v$}	{[mm]}	0.176343
{$S_c$}	{[mm$^2$]}	0.12783
{$S_o$}	{[mm$^2$]}	0.0914449
{$S_l/S_o$}	[]	0.397891
{$\Psi$}	[]	0.764244
{$\eta$}	[]	0.785958
{med($\theta_e$)}	{[$^\circ$]}	53.0819
{$\Upsilon$}	[]	17
{$\Xi$}	[]	9
