Q	U	V
{$V$}	{[mm$^3$]}	0.00128482
{$d_v$}	{[mm]}	0.134880
{$S_c$}	{[mm$^2$]}	0.0742004
{$S_o$}	{[mm$^2$]}	0.0462237
{$S_l/S_o$}	[]	0.605246
{$\Psi$}	[]	0.770264
{$\eta$}	[]	0.795639
{med($\theta_e$)}	{[$^\circ$]}	49.9252
{$\Upsilon$}	[]	11
{$\Xi$}	[]	5
