Q	U	V
{$V$}	{[mm$^3$]}	0.00596692
{$d_v$}	{[mm]}	0.225035
{$S_c$}	{[mm$^2$]}	0.241509
{$S_o$}	{[mm$^2$]}	0.158928
{$S_l/S_o$}	[]	0.519613
{$\Psi$}	[]	0.658745
{$\eta$}	[]	0.689121
{med($\theta_e$)}	{[$^\circ$]}	106.982
{$\Upsilon$}	[]	16
{$\Xi$}	[]	9
