Q	U	V
{$V$}	{[mm$^3$]}	0.00191298
{$d_v$}	{[mm]}	0.154018
{$S_c$}	{[mm$^2$]}	0.111273
{$S_o$}	{[mm$^2$]}	0.0698778
{$S_l/S_o$}	[]	0.592394
{$\Psi$}	[]	0.669732
{$\eta$}	[]	0.745395
{med($\theta_e$)}	{[$^\circ$]}	66.40985
{$\Upsilon$}	[]	12
{$\Xi$}	[]	8
