Q	U	V
{$V$}	{[mm$^3$]}	0.0124314
{$d_v$}	{[mm]}	0.287413
{$S_c$}	{[mm$^2$]}	0.49949
{$S_o$}	{[mm$^2$]}	0.283168
{$S_l/S_o$}	[]	0.763935
{$\Psi$}	[]	0.519562
{$\eta$}	[]	0.564268
{med($\theta_e$)}	{[$^\circ$]}	62.01055
{$\Upsilon$}	[]	12
{$\Xi$}	[]	6
