Q	U	V
{$V$}	{[mm$^3$]}	0.00743342
{$d_v$}	{[mm]}	0.242138
{$S_c$}	{[mm$^2$]}	0.291433
{$S_o$}	{[mm$^2$]}	0.199353
{$S_l/S_o$}	[]	0.461894
{$\Psi$}	[]	0.63203
{$\eta$}	[]	0.666819
{med($\theta_e$)}	{[$^\circ$]}	48.30925
{$\Upsilon$}	[]	19
{$\Xi$}	[]	10
