Q	U	V
{$V$}	{[mm$^3$]}	0.00641577
{$d_v$}	{[mm]}	0.230542
{$S_c$}	{[mm$^2$]}	0.255436
{$S_o$}	{[mm$^2$]}	0.166916
{$S_l/S_o$}	[]	0.530327
{$\Psi$}	[]	0.653684
{$\eta$}	[]	0.671918
{med($\theta_e$)}	{[$^\circ$]}	63.4634
{$\Upsilon$}	[]	16
{$\Xi$}	[]	11
