Q	U	V
{$V$}	{[mm$^3$]}	0.00691806
{$d_v$}	{[mm]}	0.236408
{$S_c$}	{[mm$^2$]}	0.258411
{$S_o$}	{[mm$^2$]}	0.177942
{$S_l/S_o$}	[]	0.452220
{$\Psi$}	[]	0.679458
{$\eta$}	[]	0.710991
{med($\theta_e$)}	{[$^\circ$]}	63.78785
{$\Upsilon$}	[]	12
{$\Xi$}	[]	15
