Q	U	V
{$V$}	{[mm$^3$]}	0.00854012
{$d_v$}	{[mm]}	0.253603
{$S_c$}	{[mm$^2$]}	0.368253
{$S_o$}	{[mm$^2$]}	0.258412
{$S_l/S_o$}	[]	0.425062
{$\Psi$}	[]	0.548673
{$\eta$}	[]	0.588821
{med($\theta_e$)}	{[$^\circ$]}	55.2607
{$\Upsilon$}	[]	15
{$\Xi$}	[]	14
