Q	U	V
{$V$}	{[mm$^3$]}	0.00546938
{$d_v$}	{[mm]}	0.218598
{$S_c$}	{[mm$^2$]}	0.226429
{$S_o$}	{[mm$^2$]}	0.142842
{$S_l/S_o$}	[]	0.585171
{$\Psi$}	[]	0.662996
{$\eta$}	[]	0.688379
{med($\theta_e$)}	{[$^\circ$]}	47.4159
{$\Upsilon$}	[]	17
{$\Xi$}	[]	4
