Q	U	V
{$V$}	{[mm$^3$]}	0.00129313
{$d_v$}	{[mm]}	0.135170
{$S_c$}	{[mm$^2$]}	0.0877569
{$S_o$}	{[mm$^2$]}	0.0579635
{$S_l/S_o$}	[]	0.514003
{$\Psi$}	[]	0.65408
{$\eta$}	[]	0.666785
{med($\theta_e$)}	{[$^\circ$]}	78.4638
{$\Upsilon$}	[]	19
{$\Xi$}	[]	9
