Q	U	V
{$V$}	{[mm$^3$]}	0.00244495
{$d_v$}	{[mm]}	0.167144
{$S_c$}	{[mm$^2$]}	0.142162
{$S_o$}	{[mm$^2$]}	0.0842708
{$S_l/S_o$}	[]	0.686966
{$\Psi$}	[]	0.617372
{$\eta$}	[]	0.681975
{med($\theta_e$)}	{[$^\circ$]}	49.35815
{$\Upsilon$}	[]	16
{$\Xi$}	[]	5
