Q	U	V
{$V$}	{[mm$^3$]}	0.00910653
{$d_v$}	{[mm]}	0.259090
{$S_c$}	{[mm$^2$]}	0.290948
{$S_o$}	{[mm$^2$]}	0.205796
{$S_l/S_o$}	[]	0.413769
{$\Psi$}	[]	0.724832
{$\eta$}	[]	0.747553
{med($\theta_e$)}	{[$^\circ$]}	57.4954
{$\Upsilon$}	[]	15
{$\Xi$}	[]	7
