Q	U	V
{$V$}	{[mm$^3$]}	0.00188092
{$d_v$}	{[mm]}	0.153152
{$S_c$}	{[mm$^2$]}	0.106696
{$S_o$}	{[mm$^2$]}	0.0646739
{$S_l/S_o$}	[]	0.649754
{$\Psi$}	[]	0.690637
{$\eta$}	[]	0.736685
{med($\theta_e$)}	{[$^\circ$]}	51.5331
{$\Upsilon$}	[]	17
{$\Xi$}	[]	7
