Q	U	V
{$V$}	{[mm$^3$]}	0.00343647
{$d_v$}	{[mm]}	0.187228
{$S_c$}	{[mm$^2$]}	0.175693
{$S_o$}	{[mm$^2$]}	0.117654
{$S_l/S_o$}	[]	0.493302
{$\Psi$}	[]	0.626813
{$\eta$}	[]	0.638050
{med($\theta_e$)}	{[$^\circ$]}	64.247
{$\Upsilon$}	[]	11
{$\Xi$}	[]	5
