Q	U	V
{$V$}	{[mm$^3$]}	0.0110979
{$d_v$}	{[mm]}	0.276746
{$S_c$}	{[mm$^2$]}	0.480397
{$S_o$}	{[mm$^2$]}	0.242839
{$S_l/S_o$}	[]	0.978253
{$\Psi$}	[]	0.500854
{$\eta$}	[]	0.534629
{med($\theta_e$)}	{[$^\circ$]}	71.7488
{$\Upsilon$}	[]	11
{$\Xi$}	[]	7
