Q	U	V
{$V$}	{[mm$^3$]}	0.00253164
{$d_v$}	{[mm]}	0.169096
{$S_c$}	{[mm$^2$]}	0.199442
{$S_o$}	{[mm$^2$]}	0.110615
{$S_l/S_o$}	[]	0.803029
{$\Psi$}	[]	0.450404
{$\eta$}	[]	0.467879
{med($\theta_e$)}	{[$^\circ$]}	51.9218
{$\Upsilon$}	[]	12
{$\Xi$}	[]	7
