Q	U	V
{$V$}	{[mm$^3$]}	0.00201985
{$d_v$}	{[mm]}	0.156834
{$S_c$}	{[mm$^2$]}	0.10928
{$S_o$}	{[mm$^2$]}	0.0729564
{$S_l/S_o$}	[]	0.497881
{$\Psi$}	[]	0.707114
{$\eta$}	[]	0.739788
{med($\theta_e$)}	{[$^\circ$]}	56.7118
{$\Upsilon$}	[]	17
{$\Xi$}	[]	9
