Q	U	V
{$V$}	{[mm$^3$]}	0.00364665
{$d_v$}	{[mm]}	0.190970
{$S_c$}	{[mm$^2$]}	0.16308
{$S_o$}	{[mm$^2$]}	0.112705
{$S_l/S_o$}	[]	0.446963
{$\Psi$}	[]	0.702554
{$\eta$}	[]	0.722670
{med($\theta_e$)}	{[$^\circ$]}	50.9123
{$\Upsilon$}	[]	17
{$\Xi$}	[]	8
