Q	U	V
{$V$}	{[mm$^3$]}	0.014209
{$d_v$}	{[mm]}	0.300507
{$S_c$}	{[mm$^2$]}	0.445096
{$S_o$}	{[mm$^2$]}	0.306992
{$S_l/S_o$}	[]	0.449862
{$\Psi$}	[]	0.637391
{$\eta$}	[]	0.674001
{med($\theta_e$)}	{[$^\circ$]}	60.9687
{$\Upsilon$}	[]	12
{$\Xi$}	[]	13
