Q	U	V
{$V$}	{[mm$^3$]}	0.00830025
{$d_v$}	{[mm]}	0.251206
{$S_c$}	{[mm$^2$]}	0.345436
{$S_o$}	{[mm$^2$]}	0.219265
{$S_l/S_o$}	[]	0.575427
{$\Psi$}	[]	0.57391
{$\eta$}	[]	0.622164
{med($\theta_e$)}	{[$^\circ$]}	70.92875
{$\Upsilon$}	[]	11
{$\Xi$}	[]	10
