Q	U	V
{$V$}	{[mm$^3$]}	0.00541238
{$d_v$}	{[mm]}	0.217836
{$S_c$}	{[mm$^2$]}	0.277358
{$S_o$}	{[mm$^2$]}	0.164823
{$S_l/S_o$}	[]	0.682763
{$\Psi$}	[]	0.537488
{$\eta$}	[]	0.549041
{med($\theta_e$)}	{[$^\circ$]}	104.639
{$\Upsilon$}	[]	14
{$\Xi$}	[]	11
