Q	U	V
{$V$}	{[mm$^3$]}	0.00938439
{$d_v$}	{[mm]}	0.261699
{$S_c$}	{[mm$^2$]}	0.450624
{$S_o$}	{[mm$^2$]}	0.251341
{$S_l/S_o$}	[]	0.792879
{$\Psi$}	[]	0.477464
{$\eta$}	[]	0.500013
{med($\theta_e$)}	{[$^\circ$]}	
{$\Upsilon$}	[]	11
{$\Xi$}	[]	7
