Q	U	V
{$V$}	{[mm$^3$]}	0.00233333
{$d_v$}	{[mm]}	0.164561
{$S_c$}	{[mm$^2$]}	0.167621
{$S_o$}	{[mm$^2$]}	0.0879996
{$S_l/S_o$}	[]	0.904793
{$\Psi$}	[]	0.507543
{$\eta$}	[]	0.544773
{med($\theta_e$)}	{[$^\circ$]}	66.7911
{$\Upsilon$}	[]	20
{$\Xi$}	[]	6
