Q	U	V
{$V$}	{[mm$^3$]}	0.00224546
{$d_v$}	{[mm]}	0.162468
{$S_c$}	{[mm$^2$]}	0.12336
{$S_o$}	{[mm$^2$]}	0.079903
{$S_l/S_o$}	[]	0.543872
{$\Psi$}	[]	0.672223
{$\eta$}	[]	0.691095
{med($\theta_e$)}	{[$^\circ$]}	50.8403
{$\Upsilon$}	[]	17
{$\Xi$}	[]	5
