Q	U	V
{$V$}	{[mm$^3$]}	0.00147243
{$d_v$}	{[mm]}	0.141149
{$S_c$}	{[mm$^2$]}	0.0900521
{$S_o$}	{[mm$^2$]}	0.0537616
{$S_l/S_o$}	[]	0.675026
{$\Psi$}	[]	0.695046
{$\eta$}	[]	0.726757
{med($\theta_e$)}	{[$^\circ$]}	53.87125
{$\Upsilon$}	[]	9
{$\Xi$}	[]	4
