Q	U	V
{$V$}	{[mm$^3$]}	0.00158049
{$d_v$}	{[mm]}	0.144521
{$S_c$}	{[mm$^2$]}	0.111037
{$S_o$}	{[mm$^2$]}	0.0643172
{$S_l/S_o$}	[]	0.726397
{$\Psi$}	[]	0.590941
{$\eta$}	[]	0.632764
{med($\theta_e$)}	{[$^\circ$]}	53.93385
{$\Upsilon$}	[]	19
{$\Xi$}	[]	5
