Q	U	V
{$V$}	{[mm$^3$]}	0.00187498
{$d_v$}	{[mm]}	0.152991
{$S_c$}	{[mm$^2$]}	0.112288
{$S_o$}	{[mm$^2$]}	0.0655297
{$S_l/S_o$}	[]	0.713544
{$\Psi$}	[]	0.65486
{$\eta$}	[]	0.705949
{med($\theta_e$)}	{[$^\circ$]}	59.3065
{$\Upsilon$}	[]	11
{$\Xi$}	[]	6
