Q	U	V
{$V$}	{[mm$^3$]}	0.0128957
{$d_v$}	{[mm]}	0.290948
{$S_c$}	{[mm$^2$]}	0.593431
{$S_o$}	{[mm$^2$]}	0.341773
{$S_l/S_o$}	[]	0.736331
{$\Psi$}	[]	0.448137
{$\eta$}	[]	0.468597
{med($\theta_e$)}	{[$^\circ$]}	66.0309
{$\Upsilon$}	[]	12
{$\Xi$}	[]	12
