Q	U	V
{$V$}	{[mm$^3$]}	0.0036989
{$d_v$}	{[mm]}	0.191878
{$S_c$}	{[mm$^2$]}	0.177791
{$S_o$}	{[mm$^2$]}	0.115352
{$S_l/S_o$}	[]	0.541291
{$\Psi$}	[]	0.650563
{$\eta$}	[]	0.687493
{med($\theta_e$)}	{[$^\circ$]}	58.5246
{$\Upsilon$}	[]	13
{$\Xi$}	[]	10
