Q	U	V
{$V$}	{[mm$^3$]}	0.010497
{$d_v$}	{[mm]}	0.271658
{$S_c$}	{[mm$^2$]}	0.345929
{$S_o$}	{[mm$^2$]}	0.247109
{$S_l/S_o$}	[]	0.399904
{$\Psi$}	[]	0.670204
{$\eta$}	[]	0.686288
{med($\theta_e$)}	{[$^\circ$]}	62.4416
{$\Upsilon$}	[]	14
{$\Xi$}	[]	10
