Q	U	V
{$V$}	{[mm$^3$]}	0.0109352
{$d_v$}	{[mm]}	0.275387
{$S_c$}	{[mm$^2$]}	0.431922
{$S_o$}	{[mm$^2$]}	0.257655
{$S_l/S_o$}	[]	0.676358
{$\Psi$}	[]	0.551607
{$\eta$}	[]	0.608151
{med($\theta_e$)}	{[$^\circ$]}	64.694
{$\Upsilon$}	[]	13
{$\Xi$}	[]	10
