Q	U	V
{$V$}	{[mm$^3$]}	0.0188614
{$d_v$}	{[mm]}	0.330262
{$S_c$}	{[mm$^2$]}	0.655917
{$S_o$}	{[mm$^2$]}	0.461956
{$S_l/S_o$}	[]	0.419869
{$\Psi$}	[]	0.522418
{$\eta$}	[]	0.562048
{med($\theta_e$)}	{[$^\circ$]}	73.7734
{$\Upsilon$}	[]	14
{$\Xi$}	[]	12
