Q	U	V
{$V$}	{[mm$^3$]}	0.0036324
{$d_v$}	{[mm]}	0.190721
{$S_c$}	{[mm$^2$]}	0.192902
{$S_o$}	{[mm$^2$]}	0.111716
{$S_l/S_o$}	[]	0.726718
{$\Psi$}	[]	0.592393
{$\eta$}	[]	0.661662
{med($\theta_e$)}	{[$^\circ$]}	51.0841
{$\Upsilon$}	[]	16
{$\Xi$}	[]	7
