Q	U	V
{$V$}	{[mm$^3$]}	0.00683969
{$d_v$}	{[mm]}	0.235512
{$S_c$}	{[mm$^2$]}	0.303284
{$S_o$}	{[mm$^2$]}	0.193471
{$S_l/S_o$}	[]	0.567594
{$\Psi$}	[]	0.574547
{$\eta$}	[]	0.634353
{med($\theta_e$)}	{[$^\circ$]}	57.4987
{$\Upsilon$}	[]	15
{$\Xi$}	[]	4
