Q	U	V
{$V$}	{[mm$^3$]}	0.00249957
{$d_v$}	{[mm]}	0.168379
{$S_c$}	{[mm$^2$]}	0.123274
{$S_o$}	{[mm$^2$]}	0.0780703
{$S_l/S_o$}	[]	0.579013
{$\Psi$}	[]	0.72253
{$\eta$}	[]	0.742908
{med($\theta_e$)}	{[$^\circ$]}	60.9774
{$\Upsilon$}	[]	13
{$\Xi$}	[]	7
