Q	U	V
{$V$}	{[mm$^3$]}	0.0058268
{$d_v$}	{[mm]}	0.223260
{$S_c$}	{[mm$^2$]}	0.225099
{$S_o$}	{[mm$^2$]}	0.133648
{$S_l/S_o$}	[]	0.684268
{$\Psi$}	[]	0.69566
{$\eta$}	[]	0.698422
{med($\theta_e$)}	{[$^\circ$]}	
{$\Upsilon$}	[]	15
{$\Xi$}	[]	11
