Q	U	V
{$V$}	{[mm$^3$]}	0.00181086
{$d_v$}	{[mm]}	0.151227
{$S_c$}	{[mm$^2$]}	0.138602
{$S_o$}	{[mm$^2$]}	0.0711356
{$S_l/S_o$}	[]	0.948420
{$\Psi$}	[]	0.518368
{$\eta$}	[]	0.579691
{med($\theta_e$)}	{[$^\circ$]}	69.7757
{$\Upsilon$}	[]	15
{$\Xi$}	[]	7
