Q	U	V
{$V$}	{[mm$^3$]}	0.00342816
{$d_v$}	{[mm]}	0.187077
{$S_c$}	{[mm$^2$]}	0.156883
{$S_o$}	{[mm$^2$]}	0.112683
{$S_l/S_o$}	[]	0.392251
{$\Psi$}	[]	0.700835
{$\eta$}	[]	0.735809
{med($\theta_e$)}	{[$^\circ$]}	49.6568
{$\Upsilon$}	[]	16
{$\Xi$}	[]	9
