Q	U	V
{$V$}	{[mm$^3$]}	0.00606429
{$d_v$}	{[mm]}	0.226253
{$S_c$}	{[mm$^2$]}	0.259664
{$S_o$}	{[mm$^2$]}	0.174695
{$S_l/S_o$}	[]	0.486385
{$\Psi$}	[]	0.619335
{$\eta$}	[]	0.693616
{med($\theta_e$)}	{[$^\circ$]}	51.3129
{$\Upsilon$}	[]	18
{$\Xi$}	[]	13
