Q	U	V
{$V$}	{[mm$^3$]}	0.00329635
{$d_v$}	{[mm]}	0.184648
{$S_c$}	{[mm$^2$]}	0.217333
{$S_o$}	{[mm$^2$]}	0.126722
{$S_l/S_o$}	[]	0.715038
{$\Psi$}	[]	0.492849
{$\eta$}	[]	0.516673
{med($\theta_e$)}	{[$^\circ$]}	73.5953
{$\Upsilon$}	[]	13
{$\Xi$}	[]	8
