Q	U	V
{$V$}	{[mm$^3$]}	0.00703562
{$d_v$}	{[mm]}	0.237739
{$S_c$}	{[mm$^2$]}	0.263421
{$S_o$}	{[mm$^2$]}	0.174606
{$S_l/S_o$}	[]	0.508659
{$\Psi$}	[]	0.674065
{$\eta$}	[]	0.688001
{med($\theta_e$)}	{[$^\circ$]}	49.377
{$\Upsilon$}	[]	15
{$\Xi$}	[]	9
