Q	U	V
{$V$}	{[mm$^3$]}	0.00359203
{$d_v$}	{[mm]}	0.190012
{$S_c$}	{[mm$^2$]}	0.185845
{$S_o$}	{[mm$^2$]}	0.112706
{$S_l/S_o$}	[]	0.648936
{$\Psi$}	[]	0.610323
{$\eta$}	[]	0.678996
{med($\theta_e$)}	{[$^\circ$]}	62.14835
{$\Upsilon$}	[]	14
{$\Xi$}	[]	12
