Q	U	V
{$V$}	{[mm$^3$]}	0.00776946
{$d_v$}	{[mm]}	0.245733
{$S_c$}	{[mm$^2$]}	0.469129
{$S_o$}	{[mm$^2$]}	0.279282
{$S_l/S_o$}	[]	0.679768
{$\Psi$}	[]	0.404376
{$\eta$}	[]	0.423941
{med($\theta_e$)}	{[$^\circ$]}	69.671
{$\Upsilon$}	[]	12
{$\Xi$}	[]	13
