Q	U	V
{$V$}	{[mm$^3$]}	0.0056285
{$d_v$}	{[mm]}	0.220698
{$S_c$}	{[mm$^2$]}	0.32524
{$S_o$}	{[mm$^2$]}	0.146634
{$S_l/S_o$}	[]	1.218039
{$\Psi$}	[]	0.470481
{$\eta$}	[]	0.487668
{med($\theta_e$)}	{[$^\circ$]}	77.6973
{$\Upsilon$}	[]	12
{$\Xi$}	[]	10
