Q	U	V
{$V$}	{[mm$^3$]}	0.00434249
{$d_v$}	{[mm]}	0.202417
{$S_c$}	{[mm$^2$]}	0.215254
{$S_o$}	{[mm$^2$]}	0.132064
{$S_l/S_o$}	[]	0.629922
{$\Psi$}	[]	0.597988
{$\eta$}	[]	0.655296
{med($\theta_e$)}	{[$^\circ$]}	53.43335
{$\Upsilon$}	[]	14
{$\Xi$}	[]	12
