Q	U	V
{$V$}	{[mm$^3$]}	0.00391026
{$d_v$}	{[mm]}	0.195465
{$S_c$}	{[mm$^2$]}	0.219292
{$S_o$}	{[mm$^2$]}	0.130576
{$S_l/S_o$}	[]	0.679420
{$\Psi$}	[]	0.54735
{$\eta$}	[]	0.611016
{med($\theta_e$)}	{[$^\circ$]}	63.5516
{$\Upsilon$}	[]	17
{$\Xi$}	[]	9
