Q	U	V
{$V$}	{[mm$^3$]}	0.0108924
{$d_v$}	{[mm]}	0.275027
{$S_c$}	{[mm$^2$]}	0.545314
{$S_o$}	{[mm$^2$]}	0.316452
{$S_l/S_o$}	[]	0.723212
{$\Psi$}	[]	0.435766
{$\eta$}	[]	0.461976
{med($\theta_e$)}	{[$^\circ$]}	74.3789
{$\Upsilon$}	[]	11
{$\Xi$}	[]	8
