Q	U	V
{$V$}	{[mm$^3$]}	0.00729211
{$d_v$}	{[mm]}	0.240594
{$S_c$}	{[mm$^2$]}	0.373385
{$S_o$}	{[mm$^2$]}	0.22277
{$S_l/S_o$}	[]	0.676101
{$\Psi$}	[]	0.487038
{$\eta$}	[]	0.556988
{med($\theta_e$)}	{[$^\circ$]}	58.7796
{$\Upsilon$}	[]	13
{$\Xi$}	[]	6
