Q	U	V
{$V$}	{[mm$^3$]}	0.00597048
{$d_v$}	{[mm]}	0.225080
{$S_c$}	{[mm$^2$]}	0.28136
{$S_o$}	{[mm$^2$]}	0.180535
{$S_l/S_o$}	[]	0.558479
{$\Psi$}	[]	0.565668
{$\eta$}	[]	0.578355
{med($\theta_e$)}	{[$^\circ$]}	60.6115
{$\Upsilon$}	[]	13
{$\Xi$}	[]	10
