Q	U	V
{$V$}	{[mm$^3$]}	0.00319779
{$d_v$}	{[mm]}	0.182789
{$S_c$}	{[mm$^2$]}	0.188503
{$S_o$}	{[mm$^2$]}	0.113752
{$S_l/S_o$}	[]	0.657140
{$\Psi$}	[]	0.556843
{$\eta$}	[]	0.561848
{med($\theta_e$)}	{[$^\circ$]}	
{$\Upsilon$}	[]	15
{$\Xi$}	[]	6
