Q	U	V
{$V$}	{[mm$^3$]}	0.00343766
{$d_v$}	{[mm]}	0.187250
{$S_c$}	{[mm$^2$]}	0.159241
{$S_o$}	{[mm$^2$]}	0.108225
{$S_l/S_o$}	[]	0.471388
{$\Psi$}	[]	0.691732
{$\eta$}	[]	0.720832
{med($\theta_e$)}	{[$^\circ$]}	81.3346
{$\Upsilon$}	[]	7
{$\Xi$}	[]	5
