Q	U	V
{$V$}	{[mm$^3$]}	0.00382952
{$d_v$}	{[mm]}	0.194110
{$S_c$}	{[mm$^2$]}	0.192717
{$S_o$}	{[mm$^2$]}	0.118797
{$S_l/S_o$}	[]	0.622238
{$\Psi$}	[]	0.614224
{$\eta$}	[]	0.684252
{med($\theta_e$)}	{[$^\circ$]}	56.5727
{$\Upsilon$}	[]	17
{$\Xi$}	[]	12
