Q	U	V
{$V$}	{[mm$^3$]}	0.0195442
{$d_v$}	{[mm]}	0.334200
{$S_c$}	{[mm$^2$]}	0.548199
{$S_o$}	{[mm$^2$]}	0.408055
{$S_l/S_o$}	[]	0.343444
{$\Psi$}	[]	0.640066
{$\eta$}	[]	0.656532
{med($\theta_e$)}	{[$^\circ$]}	62.6759
{$\Upsilon$}	[]	16
{$\Xi$}	[]	18
