Q	U	V
{$V$}	{[mm$^3$]}	0.0029983
{$d_v$}	{[mm]}	0.178906
{$S_c$}	{[mm$^2$]}	0.153258
{$S_o$}	{[mm$^2$]}	0.0982577
{$S_l/S_o$}	[]	0.559756
{$\Psi$}	[]	0.656112
{$\eta$}	[]	0.679860
{med($\theta_e$)}	{[$^\circ$]}	63.32065
{$\Upsilon$}	[]	13
{$\Xi$}	[]	9
