Q	U	V
{$V$}	{[mm$^3$]}	0.00620085
{$d_v$}	{[mm]}	0.227938
{$S_c$}	{[mm$^2$]}	0.264686
{$S_o$}	{[mm$^2$]}	0.16509
{$S_l/S_o$}	[]	0.603283
{$\Psi$}	[]	0.616672
{$\eta$}	[]	0.631084
{med($\theta_e$)}	{[$^\circ$]}	57.9273
{$\Upsilon$}	[]	13
{$\Xi$}	[]	10
