Q	U	V
{$V$}	{[mm$^3$]}	0.00224784
{$d_v$}	{[mm]}	0.162526
{$S_c$}	{[mm$^2$]}	0.176426
{$S_o$}	{[mm$^2$]}	0.0926766
{$S_l/S_o$}	[]	0.903674
{$\Psi$}	[]	0.470362
{$\eta$}	[]	0.584874
{med($\theta_e$)}	{[$^\circ$]}	61.8961
{$\Upsilon$}	[]	13
{$\Xi$}	[]	6
