Q	U	V
{$V$}	{[mm$^3$]}	0.00316336
{$d_v$}	{[mm]}	0.182131
{$S_c$}	{[mm$^2$]}	0.171202
{$S_o$}	{[mm$^2$]}	0.0996987
{$S_l/S_o$}	[]	0.717194
{$\Psi$}	[]	0.608706
{$\eta$}	[]	0.631137
{med($\theta_e$)}	{[$^\circ$]}	56.3085
{$\Upsilon$}	[]	11
{$\Xi$}	[]	6
