Q	U	V
{$V$}	{[mm$^3$]}	0.00349703
{$d_v$}	{[mm]}	0.188322
{$S_c$}	{[mm$^2$]}	0.257797
{$S_o$}	{[mm$^2$]}	0.125213
{$S_l/S_o$}	[]	1.058868
{$\Psi$}	[]	0.432188
{$\eta$}	[]	0.473539
{med($\theta_e$)}	{[$^\circ$]}	
{$\Upsilon$}	[]	15
{$\Xi$}	[]	6
