Q	U	V
{$V$}	{[mm$^3$]}	0.00761747
{$d_v$}	{[mm]}	0.244120
{$S_c$}	{[mm$^2$]}	0.340658
{$S_o$}	{[mm$^2$]}	0.191823
{$S_l/S_o$}	[]	0.775898
{$\Psi$}	[]	0.549591
{$\eta$}	[]	0.583861
{med($\theta_e$)}	{[$^\circ$]}	67.3378
{$\Upsilon$}	[]	12
{$\Xi$}	[]	10
