Q	U	V
{$V$}	{[mm$^3$]}	0.00748566
{$d_v$}	{[mm]}	0.242704
{$S_c$}	{[mm$^2$]}	0.377579
{$S_o$}	{[mm$^2$]}	0.231338
{$S_l/S_o$}	[]	0.632153
{$\Psi$}	[]	0.490113
{$\eta$}	[]	0.610545
{med($\theta_e$)}	{[$^\circ$]}	64.6982
{$\Upsilon$}	[]	14
{$\Xi$}	[]	15
