Q	U	V
{$V$}	{[mm$^3$]}	0.00107226
{$d_v$}	{[mm]}	0.126989
{$S_c$}	{[mm$^2$]}	0.0820839
{$S_o$}	{[mm$^2$]}	0.0491197
{$S_l/S_o$}	[]	0.671099
{$\Psi$}	[]	0.6172
{$\eta$}	[]	0.658331
{med($\theta_e$)}	{[$^\circ$]}	63.6875
{$\Upsilon$}	[]	15
{$\Xi$}	[]	4
