Q	U	V
{$V$}	{[mm$^3$]}	0.0145818
{$d_v$}	{[mm]}	0.303113
{$S_c$}	{[mm$^2$]}	0.502893
{$S_o$}	{[mm$^2$]}	0.348944
{$S_l/S_o$}	[]	0.441185
{$\Psi$}	[]	0.573961
{$\eta$}	[]	0.641393
{med($\theta_e$)}	{[$^\circ$]}	61.02905
{$\Upsilon$}	[]	14
{$\Xi$}	[]	10
