Q	U	V
{$V$}	{[mm$^3$]}	0.00239864
{$d_v$}	{[mm]}	0.166082
{$S_c$}	{[mm$^2$]}	0.160927
{$S_o$}	{[mm$^2$]}	0.0959944
{$S_l/S_o$}	[]	0.676421
{$\Psi$}	[]	0.538475
{$\eta$}	[]	0.654788
{med($\theta_e$)}	{[$^\circ$]}	140.841
{$\Upsilon$}	[]	18
{$\Xi$}	[]	6
