Q	U	V
{$V$}	{[mm$^3$]}	0.00151162
{$d_v$}	{[mm]}	0.142391
{$S_c$}	{[mm$^2$]}	0.105764
{$S_o$}	{[mm$^2$]}	0.0572688
{$S_l/S_o$}	[]	0.846800
{$\Psi$}	[]	0.602247
{$\eta$}	[]	0.651422
{med($\theta_e$)}	{[$^\circ$]}	79.7091
{$\Upsilon$}	[]	20
{$\Xi$}	[]	4
