Q	U	V
{$V$}	{[mm$^3$]}	0.0107547
{$d_v$}	{[mm]}	0.273863
{$S_c$}	{[mm$^2$]}	0.444027
{$S_o$}	{[mm$^2$]}	0.27632
{$S_l/S_o$}	[]	0.606930
{$\Psi$}	[]	0.530649
{$\eta$}	[]	0.589626
{med($\theta_e$)}	{[$^\circ$]}	72.8161
{$\Upsilon$}	[]	10
{$\Xi$}	[]	12
