Q	U	V
{$V$}	{[mm$^3$]}	0.00875979
{$d_v$}	{[mm]}	0.255759
{$S_c$}	{[mm$^2$]}	0.327837
{$S_o$}	{[mm$^2$]}	0.220404
{$S_l/S_o$}	[]	0.487437
{$\Psi$}	[]	0.626838
{$\eta$}	[]	0.665953
{med($\theta_e$)}	{[$^\circ$]}	66.17945
{$\Upsilon$}	[]	10
{$\Xi$}	[]	10
