Q	U	V
{$V$}	{[mm$^3$]}	0.00360628
{$d_v$}	{[mm]}	0.190263
{$S_c$}	{[mm$^2$]}	0.151845
{$S_o$}	{[mm$^2$]}	0.104605
{$S_l/S_o$}	[]	0.451604
{$\Psi$}	[]	0.748956
{$\eta$}	[]	0.760440
{med($\theta_e$)}	{[$^\circ$]}	59.1089
{$\Upsilon$}	[]	16
{$\Xi$}	[]	6
