Q	U	V
{$V$}	{[mm$^3$]}	0.00187379
{$d_v$}	{[mm]}	0.152959
{$S_c$}	{[mm$^2$]}	0.154032
{$S_o$}	{[mm$^2$]}	0.0786803
{$S_l/S_o$}	[]	0.957695
{$\Psi$}	[]	0.477185
{$\eta$}	[]	0.499029
{med($\theta_e$)}	{[$^\circ$]}	
{$\Upsilon$}	[]	12
{$\Xi$}	[]	5
