Q	U	V
{$V$}	{[mm$^3$]}	0.0144156
{$d_v$}	{[mm]}	0.301957
{$S_c$}	{[mm$^2$]}	0.487088
{$S_o$}	{[mm$^2$]}	0.335251
{$S_l/S_o$}	[]	0.452905
{$\Psi$}	[]	0.588074
{$\eta$}	[]	0.625969
{med($\theta_e$)}	{[$^\circ$]}	59.3273
{$\Upsilon$}	[]	15
{$\Xi$}	[]	13
