Q	U	V
{$V$}	{[mm$^3$]}	0.0108497
{$d_v$}	{[mm]}	0.274667
{$S_c$}	{[mm$^2$]}	0.461664
{$S_o$}	{[mm$^2$]}	0.29365
{$S_l/S_o$}	[]	0.572157
{$\Psi$}	[]	0.513377
{$\eta$}	[]	0.574743
{med($\theta_e$)}	{[$^\circ$]}	66.2871
{$\Upsilon$}	[]	11
{$\Xi$}	[]	8
