Q	U	V
{$V$}	{[mm$^3$]}	0.00124207
{$d_v$}	{[mm]}	0.133367
{$S_c$}	{[mm$^2$]}	0.0873031
{$S_o$}	{[mm$^2$]}	0.0510429
{$S_l/S_o$}	[]	0.710387
{$\Psi$}	[]	0.640057
{$\eta$}	[]	0.654909
{med($\theta_e$)}	{[$^\circ$]}	52.5253
{$\Upsilon$}	[]	18
{$\Xi$}	[]	6
