Q	U	V
{$V$}	{[mm$^3$]}	0.0120787
{$d_v$}	{[mm]}	0.284669
{$S_c$}	{[mm$^2$]}	0.47539
{$S_o$}	{[mm$^2$]}	0.303994
{$S_l/S_o$}	[]	0.563814
{$\Psi$}	[]	0.535526
{$\eta$}	[]	0.610932
{med($\theta_e$)}	{[$^\circ$]}	86.9416
{$\Upsilon$}	[]	13
{$\Xi$}	[]	13
