Q	U	V
{$V$}	{[mm$^3$]}	0.00369058
{$d_v$}	{[mm]}	0.191734
{$S_c$}	{[mm$^2$]}	0.195242
{$S_o$}	{[mm$^2$]}	0.11926
{$S_l/S_o$}	[]	0.637112
{$\Psi$}	[]	0.591526
{$\eta$}	[]	0.607154
{med($\theta_e$)}	{[$^\circ$]}	
{$\Upsilon$}	[]	12
{$\Xi$}	[]	8
