Q	U	V
{$V$}	{[mm$^3$]}	0.00839643
{$d_v$}	{[mm]}	0.252173
{$S_c$}	{[mm$^2$]}	0.307502
{$S_o$}	{[mm$^2$]}	0.215752
{$S_l/S_o$}	[]	0.425257
{$\Psi$}	[]	0.64968
{$\eta$}	[]	0.679498
{med($\theta_e$)}	{[$^\circ$]}	56.4713
{$\Upsilon$}	[]	15
{$\Xi$}	[]	15
