Q	U	V
{$V$}	{[mm$^3$]}	0.00785971
{$d_v$}	{[mm]}	0.246681
{$S_c$}	{[mm$^2$]}	0.349736
{$S_o$}	{[mm$^2$]}	0.213883
{$S_l/S_o$}	[]	0.635174
{$\Psi$}	[]	0.546615
{$\eta$}	[]	0.577773
{med($\theta_e$)}	{[$^\circ$]}	75.7199
{$\Upsilon$}	[]	10
{$\Xi$}	[]	11
