Q	U	V
{$V$}	{[mm$^3$]}	0.0149345
{$d_v$}	{[mm]}	0.305537
{$S_c$}	{[mm$^2$]}	0.457922
{$S_o$}	{[mm$^2$]}	0.3424
{$S_l/S_o$}	[]	0.337389
{$\Psi$}	[]	0.640452
{$\eta$}	[]	0.679179
{med($\theta_e$)}	{[$^\circ$]}	63.195
{$\Upsilon$}	[]	15
{$\Xi$}	[]	8
