Q	U	V
{$V$}	{[mm$^3$]}	0.0017693
{$d_v$}	{[mm]}	0.150061
{$S_c$}	{[mm$^2$]}	0.0991984
{$S_o$}	{[mm$^2$]}	0.0638656
{$S_l/S_o$}	[]	0.553237
{$\Psi$}	[]	0.713149
{$\eta$}	[]	0.766962
{med($\theta_e$)}	{[$^\circ$]}	58.7186
{$\Upsilon$}	[]	15
{$\Xi$}	[]	9
