Q	U	V
{$V$}	{[mm$^3$]}	0.00785258
{$d_v$}	{[mm]}	0.246607
{$S_c$}	{[mm$^2$]}	0.32452
{$S_o$}	{[mm$^2$]}	0.211192
{$S_l/S_o$}	[]	0.536611
{$\Psi$}	[]	0.588732
{$\eta$}	[]	0.658018
{med($\theta_e$)}	{[$^\circ$]}	59.1102
{$\Upsilon$}	[]	15
{$\Xi$}	[]	15
