Q	U	V
{$V$}	{[mm$^3$]}	0.00262069
{$d_v$}	{[mm]}	0.171056
{$S_c$}	{[mm$^2$]}	0.144967
{$S_o$}	{[mm$^2$]}	0.082832
{$S_l/S_o$}	[]	0.750133
{$\Psi$}	[]	0.634101
{$\eta$}	[]	0.666790
{med($\theta_e$)}	{[$^\circ$]}	40.2099
{$\Upsilon$}	[]	12
{$\Xi$}	[]	10
