Q	U	V
{$V$}	{[mm$^3$]}	0.00522595
{$d_v$}	{[mm]}	0.215306
{$S_c$}	{[mm$^2$]}	0.256867
{$S_o$}	{[mm$^2$]}	0.161524
{$S_l/S_o$}	[]	0.590271
{$\Psi$}	[]	0.56696
{$\eta$}	[]	0.596406
{med($\theta_e$)}	{[$^\circ$]}	61.59435
{$\Upsilon$}	[]	12
{$\Xi$}	[]	10
