Q	U	V
{$V$}	{[mm$^3$]}	0.00417269
{$d_v$}	{[mm]}	0.199743
{$S_c$}	{[mm$^2$]}	0.223287
{$S_o$}	{[mm$^2$]}	0.135744
{$S_l/S_o$}	[]	0.644912
{$\Psi$}	[]	0.561347
{$\eta$}	[]	0.660751
{med($\theta_e$)}	{[$^\circ$]}	53.6495
{$\Upsilon$}	[]	11
{$\Xi$}	[]	10
