Q	U	V
{$V$}	{[mm$^3$]}	0.0107963
{$d_v$}	{[mm]}	0.274216
{$S_c$}	{[mm$^2$]}	0.359759
{$S_o$}	{[mm$^2$]}	0.265217
{$S_l/S_o$}	[]	0.356470
{$\Psi$}	[]	0.656633
{$\eta$}	[]	0.700755
{med($\theta_e$)}	{[$^\circ$]}	57.5268
{$\Upsilon$}	[]	15
{$\Xi$}	[]	17
