Q	U	V
{$V$}	{[mm$^3$]}	0.00340203
{$d_v$}	{[mm]}	0.186601
{$S_c$}	{[mm$^2$]}	0.198551
{$S_o$}	{[mm$^2$]}	0.120738
{$S_l/S_o$}	[]	0.644478
{$\Psi$}	[]	0.55094
{$\eta$}	[]	0.611102
{med($\theta_e$)}	{[$^\circ$]}	59.7519
{$\Upsilon$}	[]	15
{$\Xi$}	[]	10
