Q	U	V
{$V$}	{[mm$^3$]}	0.00166717
{$d_v$}	{[mm]}	0.147116
{$S_c$}	{[mm$^2$]}	0.141697
{$S_o$}	{[mm$^2$]}	0.0678513
{$S_l/S_o$}	[]	1.088346
{$\Psi$}	[]	0.479855
{$\eta$}	[]	0.565968
{med($\theta_e$)}	{[$^\circ$]}	
{$\Upsilon$}	[]	11
{$\Xi$}	[]	5
