Q	U	V
{$V$}	{[mm$^3$]}	0.00440186
{$d_v$}	{[mm]}	0.203335
{$S_c$}	{[mm$^2$]}	0.26171
{$S_o$}	{[mm$^2$]}	0.15807
{$S_l/S_o$}	[]	0.655659
{$\Psi$}	[]	0.496312
{$\eta$}	[]	0.539502
{med($\theta_e$)}	{[$^\circ$]}	60.6983
{$\Upsilon$}	[]	13
{$\Xi$}	[]	8
