Q	U	V
{$V$}	{[mm$^3$]}	0.010896
{$d_v$}	{[mm]}	0.275057
{$S_c$}	{[mm$^2$]}	0.521552
{$S_o$}	{[mm$^2$]}	0.310668
{$S_l/S_o$}	[]	0.678808
{$\Psi$}	[]	0.45572
{$\eta$}	[]	0.522471
{med($\theta_e$)}	{[$^\circ$]}	67.5833
{$\Upsilon$}	[]	12
{$\Xi$}	[]	18
