Q	U	V
{$V$}	{[mm$^3$]}	0.00376896
{$d_v$}	{[mm]}	0.193082
{$S_c$}	{[mm$^2$]}	0.194215
{$S_o$}	{[mm$^2$]}	0.126798
{$S_l/S_o$}	[]	0.531688
{$\Psi$}	[]	0.603044
{$\eta$}	[]	0.661890
{med($\theta_e$)}	{[$^\circ$]}	67.8392
{$\Upsilon$}	[]	12
{$\Xi$}	[]	7
