Q	U	V
{$V$}	{[mm$^3$]}	0.00129075
{$d_v$}	{[mm]}	0.135087
{$S_c$}	{[mm$^2$]}	0.111253
{$S_o$}	{[mm$^2$]}	0.0549382
{$S_l/S_o$}	[]	1.025057
{$\Psi$}	[]	0.515308
{$\eta$}	[]	0.580974
{med($\theta_e$)}	{[$^\circ$]}	
{$\Upsilon$}	[]	21
{$\Xi$}	[]	3
