Q	U	V
{$V$}	{[mm$^3$]}	0.00605598
{$d_v$}	{[mm]}	0.226149
{$S_c$}	{[mm$^2$]}	0.344717
{$S_o$}	{[mm$^2$]}	0.203691
{$S_l/S_o$}	[]	0.692353
{$\Psi$}	[]	0.466099
{$\eta$}	[]	0.510387
{med($\theta_e$)}	{[$^\circ$]}	
{$\Upsilon$}	[]	15
{$\Xi$}	[]	9
