Q	U	V
{$V$}	{[mm$^3$]}	0.00413825
{$d_v$}	{[mm]}	0.199192
{$S_c$}	{[mm$^2$]}	0.172248
{$S_o$}	{[mm$^2$]}	0.114401
{$S_l/S_o$}	[]	0.505651
{$\Psi$}	[]	0.723671
{$\eta$}	[]	0.738255
{med($\theta_e$)}	{[$^\circ$]}	52.73565
{$\Upsilon$}	[]	16
{$\Xi$}	[]	5
