Q	U	V
{$V$}	{[mm$^3$]}	0.00400763
{$d_v$}	{[mm]}	0.197074
{$S_c$}	{[mm$^2$]}	0.193261
{$S_o$}	{[mm$^2$]}	0.117195
{$S_l/S_o$}	[]	0.649055
{$\Psi$}	[]	0.631342
{$\eta$}	[]	0.649521
{med($\theta_e$)}	{[$^\circ$]}	53.9143
{$\Upsilon$}	[]	15
{$\Xi$}	[]	8
