Q	U	V
{$V$}	{[mm$^3$]}	0.0171491
{$d_v$}	{[mm]}	0.319949
{$S_c$}	{[mm$^2$]}	0.555005
{$S_o$}	{[mm$^2$]}	0.411969
{$S_l/S_o$}	[]	0.347201
{$\Psi$}	[]	0.579448
{$\eta$}	[]	0.597550
{med($\theta_e$)}	{[$^\circ$]}	60.9211
{$\Upsilon$}	[]	16
{$\Xi$}	[]	8
