Q	U	V
{$V$}	{[mm$^3$]}	0.0190514
{$d_v$}	{[mm]}	0.331367
{$S_c$}	{[mm$^2$]}	0.59709
{$S_o$}	{[mm$^2$]}	0.398273
{$S_l/S_o$}	[]	0.499198
{$\Psi$}	[]	0.577735
{$\eta$}	[]	0.584163
{med($\theta_e$)}	{[$^\circ$]}	61.43405
{$\Upsilon$}	[]	14
{$\Xi$}	[]	14
