Q	U	V
{$V$}	{[mm$^3$]}	0.00972281
{$d_v$}	{[mm]}	0.264808
{$S_c$}	{[mm$^2$]}	0.370981
{$S_o$}	{[mm$^2$]}	0.255763
{$S_l/S_o$}	[]	0.450487
{$\Psi$}	[]	0.593828
{$\eta$}	[]	0.611678
{med($\theta_e$)}	{[$^\circ$]}	59.46935
{$\Upsilon$}	[]	14
{$\Xi$}	[]	13
