Q	U	V
{$V$}	{[mm$^3$]}	0.00137981
{$d_v$}	{[mm]}	0.138125
{$S_c$}	{[mm$^2$]}	0.099533
{$S_o$}	{[mm$^2$]}	0.0515155
{$S_l/S_o$}	[]	0.932098
{$\Psi$}	[]	0.602185
{$\eta$}	[]	0.666686
{med($\theta_e$)}	{[$^\circ$]}	76.31245
{$\Upsilon$}	[]	14
{$\Xi$}	[]	6
