Q	U	V
{$V$}	{[mm$^3$]}	0.00509533
{$d_v$}	{[mm]}	0.213497
{$S_c$}	{[mm$^2$]}	0.265796
{$S_o$}	{[mm$^2$]}	0.157557
{$S_l/S_o$}	[]	0.686983
{$\Psi$}	[]	0.538746
{$\eta$}	[]	0.606123
{med($\theta_e$)}	{[$^\circ$]}	64.6255
{$\Upsilon$}	[]	13
{$\Xi$}	[]	12
