Q	U	V
{$V$}	{[mm$^3$]}	0.00951501
{$d_v$}	{[mm]}	0.262908
{$S_c$}	{[mm$^2$]}	0.324353
{$S_o$}	{[mm$^2$]}	0.219947
{$S_l/S_o$}	[]	0.474687
{$\Psi$}	[]	0.669482
{$\eta$}	[]	0.679380
{med($\theta_e$)}	{[$^\circ$]}	77.3809
{$\Upsilon$}	[]	12
{$\Xi$}	[]	10
