Q	U	V
{$V$}	{[mm$^3$]}	0.00368583
{$d_v$}	{[mm]}	0.191652
{$S_c$}	{[mm$^2$]}	0.216362
{$S_o$}	{[mm$^2$]}	0.131188
{$S_l/S_o$}	[]	0.649251
{$\Psi$}	[]	0.533327
{$\eta$}	[]	0.547508
{med($\theta_e$)}	{[$^\circ$]}	67.5259
{$\Upsilon$}	[]	15
{$\Xi$}	[]	10
