Q	U	V
{$V$}	{[mm$^3$]}	0.00760085
{$d_v$}	{[mm]}	0.243943
{$S_c$}	{[mm$^2$]}	0.299879
{$S_o$}	{[mm$^2$]}	0.178067
{$S_l/S_o$}	[]	0.684080
{$\Psi$}	[]	0.623418
{$\eta$}	[]	0.626413
{med($\theta_e$)}	{[$^\circ$]}	65.88795
{$\Upsilon$}	[]	13
{$\Xi$}	[]	8
