Q	U	V
{$V$}	{[mm$^3$]}	0.00595623
{$d_v$}	{[mm]}	0.224901
{$S_c$}	{[mm$^2$]}	0.288713
{$S_o$}	{[mm$^2$]}	0.180777
{$S_l/S_o$}	[]	0.597067
{$\Psi$}	[]	0.550384
{$\eta$}	[]	0.606976
{med($\theta_e$)}	{[$^\circ$]}	87.0054
{$\Upsilon$}	[]	17
{$\Xi$}	[]	10
