Q	U	V
{$V$}	{[mm$^3$]}	0.00708668
{$d_v$}	{[mm]}	0.238313
{$S_c$}	{[mm$^2$]}	0.22738
{$S_o$}	{[mm$^2$]}	0.173469
{$S_l/S_o$}	[]	0.310782
{$\Psi$}	[]	0.784682
{$\eta$}	[]	0.791596
{med($\theta_e$)}	{[$^\circ$]}	57.4046
{$\Upsilon$}	[]	14
{$\Xi$}	[]	8
