Q	U	V
{$V$}	{[mm$^3$]}	0.0197567
{$d_v$}	{[mm]}	0.335407
{$S_c$}	{[mm$^2$]}	0.73825
{$S_o$}	{[mm$^2$]}	0.462488
{$S_l/S_o$}	[]	0.596258
{$\Psi$}	[]	0.47873
{$\eta$}	[]	0.502330
{med($\theta_e$)}	{[$^\circ$]}	74.4757
{$\Upsilon$}	[]	15
{$\Xi$}	[]	8
