Q	U	V
{$V$}	{[mm$^3$]}	0.00532095
{$d_v$}	{[mm]}	0.216603
{$S_c$}	{[mm$^2$]}	0.299011
{$S_o$}	{[mm$^2$]}	0.166586
{$S_l/S_o$}	[]	0.794935
{$\Psi$}	[]	0.492935
{$\eta$}	[]	0.525556
{med($\theta_e$)}	{[$^\circ$]}	64.8067
{$\Upsilon$}	[]	15
{$\Xi$}	[]	5
