Q	U	V
{$V$}	{[mm$^3$]}	0.0152623
{$d_v$}	{[mm]}	0.307756
{$S_c$}	{[mm$^2$]}	0.628979
{$S_o$}	{[mm$^2$]}	0.374083
{$S_l/S_o$}	[]	0.681389
{$\Psi$}	[]	0.473073
{$\eta$}	[]	0.522348
{med($\theta_e$)}	{[$^\circ$]}	
{$\Upsilon$}	[]	11
{$\Xi$}	[]	8
