Q	U	V
{$V$}	{[mm$^3$]}	0.00194029
{$d_v$}	{[mm]}	0.154747
{$S_c$}	{[mm$^2$]}	0.16611
{$S_o$}	{[mm$^2$]}	0.090037
{$S_l/S_o$}	[]	0.844908
{$\Psi$}	[]	0.452897
{$\eta$}	[]	0.464443
{med($\theta_e$)}	{[$^\circ$]}	65.4333
{$\Upsilon$}	[]	17
{$\Xi$}	[]	13
