Q	U	V
{$V$}	{[mm$^3$]}	0.00572112
{$d_v$}	{[mm]}	0.221902
{$S_c$}	{[mm$^2$]}	0.312338
{$S_o$}	{[mm$^2$]}	0.20347
{$S_l/S_o$}	[]	0.535057
{$\Psi$}	[]	0.495275
{$\eta$}	[]	0.528152
{med($\theta_e$)}	{[$^\circ$]}	70.8483
{$\Upsilon$}	[]	11
{$\Xi$}	[]	13
