Q	U	V
{$V$}	{[mm$^3$]}	0.00524851
{$d_v$}	{[mm]}	0.215615
{$S_c$}	{[mm$^2$]}	0.34944
{$S_o$}	{[mm$^2$]}	0.200852
{$S_l/S_o$}	[]	0.739789
{$\Psi$}	[]	0.417961
{$\eta$}	[]	0.438982
{med($\theta_e$)}	{[$^\circ$]}	159.268
{$\Upsilon$}	[]	4
{$\Xi$}	[]	5
