Q	U	V
{$V$}	{[mm$^3$]}	0.00432587
{$d_v$}	{[mm]}	0.202158
{$S_c$}	{[mm$^2$]}	0.197162
{$S_o$}	{[mm$^2$]}	0.119731
{$S_l/S_o$}	[]	0.646708
{$\Psi$}	[]	0.651193
{$\eta$}	[]	0.691365
{med($\theta_e$)}	{[$^\circ$]}	53.1104
{$\Upsilon$}	[]	15
{$\Xi$}	[]	11
