Q	U	V
{$V$}	{[mm$^3$]}	0.00215165
{$d_v$}	{[mm]}	0.160174
{$S_c$}	{[mm$^2$]}	0.184868
{$S_o$}	{[mm$^2$]}	0.087392
{$S_l/S_o$}	[]	1.115388
{$\Psi$}	[]	0.435984
{$\eta$}	[]	0.492037
{med($\theta_e$)}	{[$^\circ$]}	
{$\Upsilon$}	[]	19
{$\Xi$}	[]	8
