Q	U	V
{$V$}	{[mm$^3$]}	0.00680882
{$d_v$}	{[mm]}	0.235157
{$S_c$}	{[mm$^2$]}	0.283955
{$S_o$}	{[mm$^2$]}	0.183974
{$S_l/S_o$}	[]	0.543452
{$\Psi$}	[]	0.611809
{$\eta$}	[]	0.628645
{med($\theta_e$)}	{[$^\circ$]}	78.72395
{$\Upsilon$}	[]	8
{$\Xi$}	[]	9
