Q	U	V
{$V$}	{[mm$^3$]}	0.00782765
{$d_v$}	{[mm]}	0.246345
{$S_c$}	{[mm$^2$]}	0.320631
{$S_o$}	{[mm$^2$]}	0.211578
{$S_l/S_o$}	[]	0.515427
{$\Psi$}	[]	0.594611
{$\eta$}	[]	0.615393
{med($\theta_e$)}	{[$^\circ$]}	58.1041
{$\Upsilon$}	[]	12
{$\Xi$}	[]	11
