Q	U	V
{$V$}	{[mm$^3$]}	0.00594198
{$d_v$}	{[mm]}	0.224721
{$S_c$}	{[mm$^2$]}	0.322398
{$S_o$}	{[mm$^2$]}	0.193355
{$S_l/S_o$}	[]	0.667389
{$\Psi$}	[]	0.492092
{$\eta$}	[]	0.526154
{med($\theta_e$)}	{[$^\circ$]}	64.95015
{$\Upsilon$}	[]	9
{$\Xi$}	[]	8
