Q	U	V
{$V$}	{[mm$^3$]}	0.00531264
{$d_v$}	{[mm]}	0.216490
{$S_c$}	{[mm$^2$]}	0.290675
{$S_o$}	{[mm$^2$]}	0.173567
{$S_l/S_o$}	[]	0.674714
{$\Psi$}	[]	0.506543
{$\eta$}	[]	0.556051
{med($\theta_e$)}	{[$^\circ$]}	65.49345
{$\Upsilon$}	[]	13
{$\Xi$}	[]	13
