Q	U	V
{$V$}	{[mm$^3$]}	0.0126546
{$d_v$}	{[mm]}	0.289123
{$S_c$}	{[mm$^2$]}	0.437753
{$S_o$}	{[mm$^2$]}	0.286866
{$S_l/S_o$}	[]	0.525984
{$\Psi$}	[]	0.599912
{$\eta$}	[]	0.625741
{med($\theta_e$)}	{[$^\circ$]}	77.14155
{$\Upsilon$}	[]	12
{$\Xi$}	[]	16
