Q	U	V
{$V$}	{[mm$^3$]}	0.00308736
{$d_v$}	{[mm]}	0.180660
{$S_c$}	{[mm$^2$]}	0.180612
{$S_o$}	{[mm$^2$]}	0.103581
{$S_l/S_o$}	[]	0.743679
{$\Psi$}	[]	0.567713
{$\eta$}	[]	0.618525
{med($\theta_e$)}	{[$^\circ$]}	
{$\Upsilon$}	[]	17
{$\Xi$}	[]	8
