Q	U	V
{$V$}	{[mm$^3$]}	0.00654283
{$d_v$}	{[mm]}	0.232054
{$S_c$}	{[mm$^2$]}	0.272955
{$S_o$}	{[mm$^2$]}	0.181512
{$S_l/S_o$}	[]	0.503785
{$\Psi$}	[]	0.619779
{$\eta$}	[]	0.655819
{med($\theta_e$)}	{[$^\circ$]}	
{$\Upsilon$}	[]	16
{$\Xi$}	[]	6
