Q	U	V
{$V$}	{[mm$^3$]}	0.00166361
{$d_v$}	{[mm]}	0.147011
{$S_c$}	{[mm$^2$]}	0.123014
{$S_o$}	{[mm$^2$]}	0.0697706
{$S_l/S_o$}	[]	0.763121
{$\Psi$}	[]	0.551947
{$\eta$}	[]	0.660211
{med($\theta_e$)}	{[$^\circ$]}	55.5244
{$\Upsilon$}	[]	15
{$\Xi$}	[]	3
