Q	U	V
{$V$}	{[mm$^3$]}	0.00872773
{$d_v$}	{[mm]}	0.255447
{$S_c$}	{[mm$^2$]}	0.408194
{$S_o$}	{[mm$^2$]}	0.238178
{$S_l/S_o$}	[]	0.713819
{$\Psi$}	[]	0.50221
{$\eta$}	[]	0.532318
{med($\theta_e$)}	{[$^\circ$]}	85.8072
{$\Upsilon$}	[]	9
{$\Xi$}	[]	10
