Q	U	V
{$V$}	{[mm$^3$]}	0.0132887
{$d_v$}	{[mm]}	0.293874
{$S_c$}	{[mm$^2$]}	0.4502
{$S_o$}	{[mm$^2$]}	0.310911
{$S_l/S_o$}	[]	0.448003
{$\Psi$}	[]	0.602653
{$\eta$}	[]	0.674949
{med($\theta_e$)}	{[$^\circ$]}	65.9844
{$\Upsilon$}	[]	13
{$\Xi$}	[]	15
