Q	U	V
{$V$}	{[mm$^3$]}	0.00263257
{$d_v$}	{[mm]}	0.171314
{$S_c$}	{[mm$^2$]}	0.16197
{$S_o$}	{[mm$^2$]}	0.0913883
{$S_l/S_o$}	[]	0.772328
{$\Psi$}	[]	0.56925
{$\eta$}	[]	0.601480
{med($\theta_e$)}	{[$^\circ$]}	57.99425
{$\Upsilon$}	[]	12
{$\Xi$}	[]	10
