Q	U	V
{$V$}	{[mm$^3$]}	0.00163868
{$d_v$}	{[mm]}	0.146273
{$S_c$}	{[mm$^2$]}	0.135644
{$S_o$}	{[mm$^2$]}	0.0688581
{$S_l/S_o$}	[]	0.969906
{$\Psi$}	[]	0.495541
{$\eta$}	[]	0.572400
{med($\theta_e$)}	{[$^\circ$]}	
{$\Upsilon$}	[]	14
{$\Xi$}	[]	10
