Q	U	V
{$V$}	{[mm$^3$]}	0.00399338
{$d_v$}	{[mm]}	0.196840
{$S_c$}	{[mm$^2$]}	0.192621
{$S_o$}	{[mm$^2$]}	0.120598
{$S_l/S_o$}	[]	0.597216
{$\Psi$}	[]	0.631938
{$\eta$}	[]	0.698216
{med($\theta_e$)}	{[$^\circ$]}	64.4753
{$\Upsilon$}	[]	12
{$\Xi$}	[]	6
