Q	U	V
{$V$}	{[mm$^3$]}	0.0099413
{$d_v$}	{[mm]}	0.266777
{$S_c$}	{[mm$^2$]}	0.447803
{$S_o$}	{[mm$^2$]}	0.268592
{$S_l/S_o$}	[]	0.667224
{$\Psi$}	[]	0.499297
{$\eta$}	[]	0.555539
{med($\theta_e$)}	{[$^\circ$]}	73.0919
{$\Upsilon$}	[]	15
{$\Xi$}	[]	7
