Q	U	V
{$V$}	{[mm$^3$]}	0.00389364
{$d_v$}	{[mm]}	0.195188
{$S_c$}	{[mm$^2$]}	0.2684
{$S_o$}	{[mm$^2$]}	0.145332
{$S_l/S_o$}	[]	0.846806
{$\Psi$}	[]	0.445936
{$\eta$}	[]	0.498674
{med($\theta_e$)}	{[$^\circ$]}	72.90465
{$\Upsilon$}	[]	11
{$\Xi$}	[]	4
