Q	U	V
{$V$}	{[mm$^3$]}	0.0105801
{$d_v$}	{[mm]}	0.272373
{$S_c$}	{[mm$^2$]}	0.439584
{$S_o$}	{[mm$^2$]}	0.266486
{$S_l/S_o$}	[]	0.649558
{$\Psi$}	[]	0.530195
{$\eta$}	[]	0.547515
{med($\theta_e$)}	{[$^\circ$]}	61.04085
{$\Upsilon$}	[]	15
{$\Xi$}	[]	15
