Q	U	V
{$V$}	{[mm$^3$]}	0.00295793
{$d_v$}	{[mm]}	0.178100
{$S_c$}	{[mm$^2$]}	0.17912
{$S_o$}	{[mm$^2$]}	0.101818
{$S_l/S_o$}	[]	0.759217
{$\Psi$}	[]	0.556329
{$\eta$}	[]	0.569473
{med($\theta_e$)}	{[$^\circ$]}	74.9761
{$\Upsilon$}	[]	16
{$\Xi$}	[]	9
