Q	U	V
{$V$}	{[mm$^3$]}	0.0054765
{$d_v$}	{[mm]}	0.218693
{$S_c$}	{[mm$^2$]}	0.271779
{$S_o$}	{[mm$^2$]}	0.179449
{$S_l/S_o$}	[]	0.514519
{$\Psi$}	[]	0.552845
{$\eta$}	[]	0.627399
{med($\theta_e$)}	{[$^\circ$]}	56.1935
{$\Upsilon$}	[]	16
{$\Xi$}	[]	15
