Q	U	V
{$V$}	{[mm$^3$]}	0.00800101
{$d_v$}	{[mm]}	0.248151
{$S_c$}	{[mm$^2$]}	0.437996
{$S_o$}	{[mm$^2$]}	0.26811
{$S_l/S_o$}	[]	0.633643
{$\Psi$}	[]	0.441683
{$\eta$}	[]	0.459143
{med($\theta_e$)}	{[$^\circ$]}	
{$\Upsilon$}	[]	12
{$\Xi$}	[]	10
