Q	U	V
{$V$}	{[mm$^3$]}	0.00861017
{$d_v$}	{[mm]}	0.254295
{$S_c$}	{[mm$^2$]}	0.348159
{$S_o$}	{[mm$^2$]}	0.237277
{$S_l/S_o$}	[]	0.467310
{$\Psi$}	[]	0.583509
{$\eta$}	[]	0.608182
{med($\theta_e$)}	{[$^\circ$]}	59.5035
{$\Upsilon$}	[]	12
{$\Xi$}	[]	12
