Q	U	V
{$V$}	{[mm$^3$]}	0.00330466
{$d_v$}	{[mm]}	0.184803
{$S_c$}	{[mm$^2$]}	0.154099
{$S_o$}	{[mm$^2$]}	0.109994
{$S_l/S_o$}	[]	0.400976
{$\Psi$}	[]	0.696256
{$\eta$}	[]	0.720543
{med($\theta_e$)}	{[$^\circ$]}	57.3972
{$\Upsilon$}	[]	18
{$\Xi$}	[]	7
