Q	U	V
{$V$}	{[mm$^3$]}	0.0106597
{$d_v$}	{[mm]}	0.273054
{$S_c$}	{[mm$^2$]}	0.472609
{$S_o$}	{[mm$^2$]}	0.300839
{$S_l/S_o$}	[]	0.570970
{$\Psi$}	[]	0.495616
{$\eta$}	[]	0.520269
{med($\theta_e$)}	{[$^\circ$]}	57.7048
{$\Upsilon$}	[]	19
{$\Xi$}	[]	10
