Q	U	V
{$V$}	{[mm$^3$]}	0.00593367
{$d_v$}	{[mm]}	0.224616
{$S_c$}	{[mm$^2$]}	0.237799
{$S_o$}	{[mm$^2$]}	0.164025
{$S_l/S_o$}	[]	0.449773
{$\Psi$}	[]	0.666535
{$\eta$}	[]	0.680137
{med($\theta_e$)}	{[$^\circ$]}	69.8344
{$\Upsilon$}	[]	11
{$\Xi$}	[]	8
