Q	U	V
{$V$}	{[mm$^3$]}	0.00725886
{$d_v$}	{[mm]}	0.240228
{$S_c$}	{[mm$^2$]}	0.27843
{$S_o$}	{[mm$^2$]}	0.184455
{$S_l/S_o$}	[]	0.509474
{$\Psi$}	[]	0.651149
{$\eta$}	[]	0.667493
{med($\theta_e$)}	{[$^\circ$]}	57.0199
{$\Upsilon$}	[]	16
{$\Xi$}	[]	7
