Q	U	V
{$V$}	{[mm$^3$]}	0.0153418
{$d_v$}	{[mm]}	0.308290
{$S_c$}	{[mm$^2$]}	0.470435
{$S_o$}	{[mm$^2$]}	0.33188
{$S_l/S_o$}	[]	0.417485
{$\Psi$}	[]	0.6347
{$\eta$}	[]	0.661575
{med($\theta_e$)}	{[$^\circ$]}	57.96775
{$\Upsilon$}	[]	12
{$\Xi$}	[]	15
