Q	U	V
{$V$}	{[mm$^3$]}	0.00351959
{$d_v$}	{[mm]}	0.188726
{$S_c$}	{[mm$^2$]}	0.239888
{$S_o$}	{[mm$^2$]}	0.137099
{$S_l/S_o$}	[]	0.749743
{$\Psi$}	[]	0.466448
{$\eta$}	[]	0.535750
{med($\theta_e$)}	{[$^\circ$]}	69.5581
{$\Upsilon$}	[]	11
{$\Xi$}	[]	9
