Q	U	V
{$V$}	{[mm$^3$]}	0.00853537
{$d_v$}	{[mm]}	0.253556
{$S_c$}	{[mm$^2$]}	0.499734
{$S_o$}	{[mm$^2$]}	0.229221
{$S_l/S_o$}	[]	1.180141
{$\Psi$}	[]	0.404166
{$\eta$}	[]	0.432912
{med($\theta_e$)}	{[$^\circ$]}	59.6277
{$\Upsilon$}	[]	14
{$\Xi$}	[]	17
