Q	U	V
{$V$}	{[mm$^3$]}	0.00246395
{$d_v$}	{[mm]}	0.167576
{$S_c$}	{[mm$^2$]}	0.184966
{$S_o$}	{[mm$^2$]}	0.0990005
{$S_l/S_o$}	[]	0.868334
{$\Psi$}	[]	0.476958
{$\eta$}	[]	0.496079
{med($\theta_e$)}	{[$^\circ$]}	82.33625
{$\Upsilon$}	[]	15
{$\Xi$}	[]	7
