Q	U	V
{$V$}	{[mm$^3$]}	0.00488634
{$d_v$}	{[mm]}	0.210537
{$S_c$}	{[mm$^2$]}	0.219952
{$S_o$}	{[mm$^2$]}	0.134726
{$S_l/S_o$}	[]	0.632588
{$\Psi$}	[]	0.633109
{$\eta$}	[]	0.670087
{med($\theta_e$)}	{[$^\circ$]}	53.35915
{$\Upsilon$}	[]	13
{$\Xi$}	[]	15
