Q	U	V
{$V$}	{[mm$^3$]}	0.00673401
{$d_v$}	{[mm]}	0.234292
{$S_c$}	{[mm$^2$]}	0.284088
{$S_o$}	{[mm$^2$]}	0.176045
{$S_l/S_o$}	[]	0.613724
{$\Psi$}	[]	0.607035
{$\eta$}	[]	0.639418
{med($\theta_e$)}	{[$^\circ$]}	65.4092
{$\Upsilon$}	[]	14
{$\Xi$}	[]	13
