Q	U	V
{$V$}	{[mm$^3$]}	0.00397795
{$d_v$}	{[mm]}	0.196586
{$S_c$}	{[mm$^2$]}	0.155011
{$S_o$}	{[mm$^2$]}	0.111267
{$S_l/S_o$}	[]	0.393144
{$\Psi$}	[]	0.783239
{$\eta$}	[]	0.810646
{med($\theta_e$)}	{[$^\circ$]}	61.6917
{$\Upsilon$}	[]	12
{$\Xi$}	[]	8
