Q	U	V
{$V$}	{[mm$^3$]}	0.0110504
{$d_v$}	{[mm]}	0.276350
{$S_c$}	{[mm$^2$]}	0.400042
{$S_o$}	{[mm$^2$]}	0.257448
{$S_l/S_o$}	[]	0.553875
{$\Psi$}	[]	0.599741
{$\eta$}	[]	0.619855
{med($\theta_e$)}	{[$^\circ$]}	52.7541
{$\Upsilon$}	[]	14
{$\Xi$}	[]	9
