Q	U	V
{$V$}	{[mm$^3$]}	0.00642052
{$d_v$}	{[mm]}	0.230599
{$S_c$}	{[mm$^2$]}	0.269468
{$S_o$}	{[mm$^2$]}	0.169069
{$S_l/S_o$}	[]	0.593834
{$\Psi$}	[]	0.619951
{$\eta$}	[]	0.628457
{med($\theta_e$)}	{[$^\circ$]}	50.5771
{$\Upsilon$}	[]	16
{$\Xi$}	[]	3
