Q	U	V
{$V$}	{[mm$^3$]}	0.001495
{$d_v$}	{[mm]}	0.141867
{$S_c$}	{[mm$^2$]}	0.0934442
{$S_o$}	{[mm$^2$]}	0.0606561
{$S_l/S_o$}	[]	0.540557
{$\Psi$}	[]	0.676642
{$\eta$}	[]	0.701130
{med($\theta_e$)}	{[$^\circ$]}	58.37505
{$\Upsilon$}	[]	16
{$\Xi$}	[]	5
