Q	U	V
{$V$}	{[mm$^3$]}	0.00575555
{$d_v$}	{[mm]}	0.222346
{$S_c$}	{[mm$^2$]}	0.241863
{$S_o$}	{[mm$^2$]}	0.14808
{$S_l/S_o$}	[]	0.633327
{$\Psi$}	[]	0.642154
{$\eta$}	[]	0.678413
{med($\theta_e$)}	{[$^\circ$]}	57.9669
{$\Upsilon$}	[]	13
{$\Xi$}	[]	7
