Q	U	V
{$V$}	{[mm$^3$]}	0.00462273
{$d_v$}	{[mm]}	0.206681
{$S_c$}	{[mm$^2$]}	0.238853
{$S_o$}	{[mm$^2$]}	0.138369
{$S_l/S_o$}	[]	0.726203
{$\Psi$}	[]	0.561848
{$\eta$}	[]	0.594617
{med($\theta_e$)}	{[$^\circ$]}	59.2947
{$\Upsilon$}	[]	12
{$\Xi$}	[]	12
