Q	U	V
{$V$}	{[mm$^3$]}	0.00878473
{$d_v$}	{[mm]}	0.256002
{$S_c$}	{[mm$^2$]}	0.405184
{$S_o$}	{[mm$^2$]}	0.255915
{$S_l/S_o$}	[]	0.583276
{$\Psi$}	[]	0.508141
{$\eta$}	[]	0.520102
{med($\theta_e$)}	{[$^\circ$]}	56.2529
{$\Upsilon$}	[]	17
{$\Xi$}	[]	15
