Q	U	V
{$V$}	{[mm$^3$]}	0.00308024
{$d_v$}	{[mm]}	0.180521
{$S_c$}	{[mm$^2$]}	0.218109
{$S_o$}	{[mm$^2$]}	0.125741
{$S_l/S_o$}	[]	0.734589
{$\Psi$}	[]	0.46939
{$\eta$}	[]	0.493886
{med($\theta_e$)}	{[$^\circ$]}	98.88925
{$\Upsilon$}	[]	15
{$\Xi$}	[]	10
