Q	U	V
{$V$}	{[mm$^3$]}	0.00537795
{$d_v$}	{[mm]}	0.217373
{$S_c$}	{[mm$^2$]}	0.251008
{$S_o$}	{[mm$^2$]}	0.178424
{$S_l/S_o$}	[]	0.406806
{$\Psi$}	[]	0.591391
{$\eta$}	[]	0.614068
{med($\theta_e$)}	{[$^\circ$]}	94.0356
{$\Upsilon$}	[]	12
{$\Xi$}	[]	8
