Q	U	V
{$V$}	{[mm$^3$]}	0.00287362
{$d_v$}	{[mm]}	0.176391
{$S_c$}	{[mm$^2$]}	0.224421
{$S_o$}	{[mm$^2$]}	0.123144
{$S_l/S_o$}	[]	0.822427
{$\Psi$}	[]	0.435552
{$\eta$}	[]	0.446063
{med($\theta_e$)}	{[$^\circ$]}	
{$\Upsilon$}	[]	17
{$\Xi$}	[]	13
