Q	U	V
{$V$}	{[mm$^3$]}	0.00590992
{$d_v$}	{[mm]}	0.224316
{$S_c$}	{[mm$^2$]}	0.29672
{$S_o$}	{[mm$^2$]}	0.158162
{$S_l/S_o$}	[]	0.876051
{$\Psi$}	[]	0.532752
{$\eta$}	[]	0.572907
{med($\theta_e$)}	{[$^\circ$]}	65.5897
{$\Upsilon$}	[]	15
{$\Xi$}	[]	11
