Q	U	V
{$V$}	{[mm$^3$]}	0.00287243
{$d_v$}	{[mm]}	0.176367
{$S_c$}	{[mm$^2$]}	0.206638
{$S_o$}	{[mm$^2$]}	0.10706
{$S_l/S_o$}	[]	0.930114
{$\Psi$}	[]	0.472905
{$\eta$}	[]	0.525199
{med($\theta_e$)}	{[$^\circ$]}	
{$\Upsilon$}	[]	19
{$\Xi$}	[]	8
