Q	U	V
{$V$}	{[mm$^3$]}	0.00173248
{$d_v$}	{[mm]}	0.149013
{$S_c$}	{[mm$^2$]}	0.155773
{$S_o$}	{[mm$^2$]}	0.0551314
{$S_l/S_o$}	[]	1.825486
{$\Psi$}	[]	0.447821
{$\eta$}	[]	0.498873
{med($\theta_e$)}	{[$^\circ$]}	
{$\Upsilon$}	[]	25
{$\Xi$}	[]	8
