Q	U	V
{$V$}	{[mm$^3$]}	0.00206853
{$d_v$}	{[mm]}	0.158084
{$S_c$}	{[mm$^2$]}	0.123196
{$S_o$}	{[mm$^2$]}	0.0671842
{$S_l/S_o$}	[]	0.833705
{$\Psi$}	[]	0.637278
{$\eta$}	[]	0.661608
{med($\theta_e$)}	{[$^\circ$]}	55.40105
{$\Upsilon$}	[]	15
{$\Xi$}	[]	10
