Q	U	V
{$V$}	{[mm$^3$]}	0.00093927
{$d_v$}	{[mm]}	0.121506
{$S_c$}	{[mm$^2$]}	0.0759196
{$S_o$}	{[mm$^2$]}	0.0426551
{$S_l/S_o$}	[]	0.779848
{$\Psi$}	[]	0.610929
{$\eta$}	[]	0.666766
{med($\theta_e$)}	{[$^\circ$]}	55.0899
{$\Upsilon$}	[]	18
{$\Xi$}	[]	5
