Q	U	V
{$V$}	{[mm$^3$]}	0.00642884
{$d_v$}	{[mm]}	0.230698
{$S_c$}	{[mm$^2$]}	0.232081
{$S_o$}	{[mm$^2$]}	0.150136
{$S_l/S_o$}	[]	0.545805
{$\Psi$}	[]	0.720443
{$\eta$}	[]	0.761083
{med($\theta_e$)}	{[$^\circ$]}	51.82945
{$\Upsilon$}	[]	18
{$\Xi$}	[]	6
