Q	U	V
{$V$}	{[mm$^3$]}	0.0114422
{$d_v$}	{[mm]}	0.279578
{$S_c$}	{[mm$^2$]}	0.387094
{$S_o$}	{[mm$^2$]}	0.27588
{$S_l/S_o$}	[]	0.403125
{$\Psi$}	[]	0.634367
{$\eta$}	[]	0.645580
{med($\theta_e$)}	{[$^\circ$]}	57.2557
{$\Upsilon$}	[]	17
{$\Xi$}	[]	15
