Q	U	V
{$V$}	{[mm$^3$]}	0.00263732
{$d_v$}	{[mm]}	0.171417
{$S_c$}	{[mm$^2$]}	0.203885
{$S_o$}	{[mm$^2$]}	0.0875129
{$S_l/S_o$}	[]	1.329771
{$\Psi$}	[]	0.452766
{$\eta$}	[]	0.480438
{med($\theta_e$)}	{[$^\circ$]}	62.3892
{$\Upsilon$}	[]	18
{$\Xi$}	[]	5
