Q	U	V
{$V$}	{[mm$^3$]}	0.00504902
{$d_v$}	{[mm]}	0.212848
{$S_c$}	{[mm$^2$]}	0.240022
{$S_o$}	{[mm$^2$]}	0.156431
{$S_l/S_o$}	[]	0.534363
{$\Psi$}	[]	0.592977
{$\eta$}	[]	0.655432
{med($\theta_e$)}	{[$^\circ$]}	65.83805
{$\Upsilon$}	[]	18
{$\Xi$}	[]	9
