Q	U	V
{$V$}	{[mm$^3$]}	0.0131569
{$d_v$}	{[mm]}	0.292899
{$S_c$}	{[mm$^2$]}	0.588032
{$S_o$}	{[mm$^2$]}	0.314709
{$S_l/S_o$}	[]	0.868494
{$\Psi$}	[]	0.458338
{$\eta$}	[]	0.485355
{med($\theta_e$)}	{[$^\circ$]}	80.35725
{$\Upsilon$}	[]	12
{$\Xi$}	[]	5
