Q	U	V
{$V$}	{[mm$^3$]}	0.0139561
{$d_v$}	{[mm]}	0.298714
{$S_c$}	{[mm$^2$]}	0.494244
{$S_o$}	{[mm$^2$]}	0.33546
{$S_l/S_o$}	[]	0.473332
{$\Psi$}	[]	0.567177
{$\eta$}	[]	0.582779
{med($\theta_e$)}	{[$^\circ$]}	58.35675
{$\Upsilon$}	[]	18
{$\Xi$}	[]	14
