Q	U	V
{$V$}	{[mm$^3$]}	0.00412994
{$d_v$}	{[mm]}	0.199059
{$S_c$}	{[mm$^2$]}	0.190868
{$S_o$}	{[mm$^2$]}	0.110487
{$S_l/S_o$}	[]	0.727515
{$\Psi$}	[]	0.652199
{$\eta$}	[]	0.665334
{med($\theta_e$)}	{[$^\circ$]}	52.71215
{$\Upsilon$}	[]	21
{$\Xi$}	[]	7
