Q	U	V
{$V$}	{[mm$^3$]}	0.00195572
{$d_v$}	{[mm]}	0.155156
{$S_c$}	{[mm$^2$]}	0.125528
{$S_o$}	{[mm$^2$]}	0.0762145
{$S_l/S_o$}	[]	0.647036
{$\Psi$}	[]	0.602487
{$\eta$}	[]	0.672029
{med($\theta_e$)}	{[$^\circ$]}	
{$\Upsilon$}	[]	15
{$\Xi$}	[]	7
