Q	U	V
{$V$}	{[mm$^3$]}	0.0185408
{$d_v$}	{[mm]}	0.328380
{$S_c$}	{[mm$^2$]}	0.582192
{$S_o$}	{[mm$^2$]}	0.425
{$S_l/S_o$}	[]	0.369864
{$\Psi$}	[]	0.581885
{$\eta$}	[]	0.613980
{med($\theta_e$)}	{[$^\circ$]}	76.4392
{$\Upsilon$}	[]	17
{$\Xi$}	[]	14
