Q	U	V
{$V$}	{[mm$^3$]}	0.00293774
{$d_v$}	{[mm]}	0.177694
{$S_c$}	{[mm$^2$]}	0.137669
{$S_o$}	{[mm$^2$]}	0.083753
{$S_l/S_o$}	[]	0.643750
{$\Psi$}	[]	0.720538
{$\eta$}	[]	0.772113
{med($\theta_e$)}	{[$^\circ$]}	55.5201
{$\Upsilon$}	[]	20
{$\Xi$}	[]	7
