Q	U	V
{$V$}	{[mm$^3$]}	0.00714962
{$d_v$}	{[mm]}	0.239017
{$S_c$}	{[mm$^2$]}	0.276866
{$S_o$}	{[mm$^2$]}	0.179897
{$S_l/S_o$}	[]	0.539025
{$\Psi$}	[]	0.648241
{$\eta$}	[]	0.650087
{med($\theta_e$)}	{[$^\circ$]}	77.65945
{$\Upsilon$}	[]	11
{$\Xi$}	[]	7
