Q	U	V
{$V$}	{[mm$^3$]}	0.00130738
{$d_v$}	{[mm]}	0.135665
{$S_c$}	{[mm$^2$]}	0.094613
{$S_o$}	{[mm$^2$]}	0.0539113
{$S_l/S_o$}	[]	0.754975
{$\Psi$}	[]	0.611131
{$\eta$}	[]	0.680828
{med($\theta_e$)}	{[$^\circ$]}	70.8095
{$\Upsilon$}	[]	16
{$\Xi$}	[]	5
