Q	U	V
{$V$}	{[mm$^3$]}	0.0101586
{$d_v$}	{[mm]}	0.268707
{$S_c$}	{[mm$^2$]}	0.364832
{$S_o$}	{[mm$^2$]}	0.25725
{$S_l/S_o$}	[]	0.418200
{$\Psi$}	[]	0.621747
{$\eta$}	[]	0.647147
{med($\theta_e$)}	{[$^\circ$]}	59.2089
{$\Upsilon$}	[]	13
{$\Xi$}	[]	10
