Q	U	V
{$V$}	{[mm$^3$]}	0.0107333
{$d_v$}	{[mm]}	0.273681
{$S_c$}	{[mm$^2$]}	0.392172
{$S_o$}	{[mm$^2$]}	0.272961
{$S_l/S_o$}	[]	0.436733
{$\Psi$}	[]	0.600016
{$\eta$}	[]	0.621498
{med($\theta_e$)}	{[$^\circ$]}	54.893
{$\Upsilon$}	[]	19
{$\Xi$}	[]	7
