Q	U	V
{$V$}	{[mm$^3$]}	0.00643002
{$d_v$}	{[mm]}	0.230713
{$S_c$}	{[mm$^2$]}	0.361192
{$S_o$}	{[mm$^2$]}	0.214398
{$S_l/S_o$}	[]	0.684680
{$\Psi$}	[]	0.462971
{$\eta$}	[]	0.560306
{med($\theta_e$)}	{[$^\circ$]}	66.9923
{$\Upsilon$}	[]	11
{$\Xi$}	[]	12
