Q	U	V
{$V$}	{[mm$^3$]}	0.00906615
{$d_v$}	{[mm]}	0.258707
{$S_c$}	{[mm$^2$]}	0.479726
{$S_o$}	{[mm$^2$]}	0.266067
{$S_l/S_o$}	[]	0.803027
{$\Psi$}	[]	0.438301
{$\eta$}	[]	0.466839
{med($\theta_e$)}	{[$^\circ$]}	
{$\Upsilon$}	[]	13
{$\Xi$}	[]	10
