Q	U	V
{$V$}	{[mm$^3$]}	0.0138658
{$d_v$}	{[mm]}	0.298068
{$S_c$}	{[mm$^2$]}	0.59441
{$S_o$}	{[mm$^2$]}	0.345738
{$S_l/S_o$}	[]	0.719250
{$\Psi$}	[]	0.469564
{$\eta$}	[]	0.505166
{med($\theta_e$)}	{[$^\circ$]}	71.4246
{$\Upsilon$}	[]	12
{$\Xi$}	[]	9
