Q	U	V
{$V$}	{[mm$^3$]}	0.00589805
{$d_v$}	{[mm]}	0.224166
{$S_c$}	{[mm$^2$]}	0.317221
{$S_o$}	{[mm$^2$]}	0.187067
{$S_l/S_o$}	[]	0.695761
{$\Psi$}	[]	0.497654
{$\eta$}	[]	0.505364
{med($\theta_e$)}	{[$^\circ$]}	100.302
{$\Upsilon$}	[]	12
{$\Xi$}	[]	10
