Q	U	V
{$V$}	{[mm$^3$]}	0.00627091
{$d_v$}	{[mm]}	0.228794
{$S_c$}	{[mm$^2$]}	0.290561
{$S_o$}	{[mm$^2$]}	0.204423
{$S_l/S_o$}	[]	0.421371
{$\Psi$}	[]	0.565979
{$\eta$}	[]	0.587443
{med($\theta_e$)}	{[$^\circ$]}	68.6768
{$\Upsilon$}	[]	15
{$\Xi$}	[]	11
