Q	U	V
{$V$}	{[mm$^3$]}	0.00831806
{$d_v$}	{[mm]}	0.251386
{$S_c$}	{[mm$^2$]}	0.367499
{$S_o$}	{[mm$^2$]}	0.205538
{$S_l/S_o$}	[]	0.787986
{$\Psi$}	[]	0.540227
{$\eta$}	[]	0.591052
{med($\theta_e$)}	{[$^\circ$]}	64.9253
{$\Upsilon$}	[]	14
{$\Xi$}	[]	10
