Q	U	V
{$V$}	{[mm$^3$]}	0.00225021
{$d_v$}	{[mm]}	0.162583
{$S_c$}	{[mm$^2$]}	0.133887
{$S_o$}	{[mm$^2$]}	0.0899485
{$S_l/S_o$}	[]	0.488485
{$\Psi$}	[]	0.620242
{$\eta$}	[]	0.640303
{med($\theta_e$)}	{[$^\circ$]}	66.5182
{$\Upsilon$}	[]	17
{$\Xi$}	[]	7
