Q	U	V
{$V$}	{[mm$^3$]}	0.00818863
{$d_v$}	{[mm]}	0.250075
{$S_c$}	{[mm$^2$]}	0.295622
{$S_o$}	{[mm$^2$]}	0.200532
{$S_l/S_o$}	[]	0.474189
{$\Psi$}	[]	0.664592
{$\eta$}	[]	0.700147
{med($\theta_e$)}	{[$^\circ$]}	70.02685
{$\Upsilon$}	[]	14
{$\Xi$}	[]	8
