Q	U	V
{$V$}	{[mm$^3$]}	0.00569974
{$d_v$}	{[mm]}	0.221625
{$S_c$}	{[mm$^2$]}	0.247228
{$S_o$}	{[mm$^2$]}	0.119116
{$S_l/S_o$}	[]	1.075523
{$\Psi$}	[]	0.624151
{$\eta$}	[]	0.641202
{med($\theta_e$)}	{[$^\circ$]}	66.012
{$\Upsilon$}	[]	20
{$\Xi$}	[]	8
