Q	U	V
{$V$}	{[mm$^3$]}	0.00997811
{$d_v$}	{[mm]}	0.267106
{$S_c$}	{[mm$^2$]}	0.359671
{$S_o$}	{[mm$^2$]}	0.227884
{$S_l/S_o$}	[]	0.578307
{$\Psi$}	[]	0.623176
{$\eta$}	[]	0.656625
{med($\theta_e$)}	{[$^\circ$]}	57.6094
{$\Upsilon$}	[]	16
{$\Xi$}	[]	10
