Q	U	V
{$V$}	{[mm$^3$]}	0.0072078
{$d_v$}	{[mm]}	0.239663
{$S_c$}	{[mm$^2$]}	0.301501
{$S_o$}	{[mm$^2$]}	0.198541
{$S_l/S_o$}	[]	0.518583
{$\Psi$}	[]	0.5985
{$\eta$}	[]	0.671348
{med($\theta_e$)}	{[$^\circ$]}	57.63005
{$\Upsilon$}	[]	18
{$\Xi$}	[]	5
