Q	U	V
{$V$}	{[mm$^3$]}	0.00470704
{$d_v$}	{[mm]}	0.207930
{$S_c$}	{[mm$^2$]}	0.235296
{$S_o$}	{[mm$^2$]}	0.131837
{$S_l/S_o$}	[]	0.784749
{$\Psi$}	[]	0.577256
{$\eta$}	[]	0.636339
{med($\theta_e$)}	{[$^\circ$]}	73.3292
{$\Upsilon$}	[]	18
{$\Xi$}	[]	10
