Q	U	V
{$V$}	{[mm$^3$]}	0.00247583
{$d_v$}	{[mm]}	0.167845
{$S_c$}	{[mm$^2$]}	0.13737
{$S_o$}	{[mm$^2$]}	0.0832498
{$S_l/S_o$}	[]	0.650094
{$\Psi$}	[]	0.644277
{$\eta$}	[]	0.687774
{med($\theta_e$)}	{[$^\circ$]}	56.81095
{$\Upsilon$}	[]	12
{$\Xi$}	[]	10
