Q	U	V
{$V$}	{[mm$^3$]}	0.0088821
{$d_v$}	{[mm]}	0.256944
{$S_c$}	{[mm$^2$]}	0.386279
{$S_o$}	{[mm$^2$]}	0.217126
{$S_l/S_o$}	[]	0.779055
{$\Psi$}	[]	0.536941
{$\eta$}	[]	0.577769
{med($\theta_e$)}	{[$^\circ$]}	
{$\Upsilon$}	[]	19
{$\Xi$}	[]	5
