Q	U	V
{$V$}	{[mm$^3$]}	0.00190229
{$d_v$}	{[mm]}	0.153730
{$S_c$}	{[mm$^2$]}	0.103247
{$S_o$}	{[mm$^2$]}	0.0685172
{$S_l/S_o$}	[]	0.506877
{$\Psi$}	[]	0.719103
{$\eta$}	[]	0.736241
{med($\theta_e$)}	{[$^\circ$]}	50.0441
{$\Upsilon$}	[]	17
{$\Xi$}	[]	9
