Q	U	V
{$V$}	{[mm$^3$]}	0.0132472
{$d_v$}	{[mm]}	0.293568
{$S_c$}	{[mm$^2$]}	0.539028
{$S_o$}	{[mm$^2$]}	0.342909
{$S_l/S_o$}	[]	0.571927
{$\Psi$}	[]	0.502291
{$\eta$}	[]	0.545686
{med($\theta_e$)}	{[$^\circ$]}	56.0398
{$\Upsilon$}	[]	13
{$\Xi$}	[]	17
