Q	U	V
{$V$}	{[mm$^3$]}	0.0087966
{$d_v$}	{[mm]}	0.256117
{$S_c$}	{[mm$^2$]}	0.307671
{$S_o$}	{[mm$^2$]}	0.213141
{$S_l/S_o$}	[]	0.443509
{$\Psi$}	[]	0.669793
{$\eta$}	[]	0.711052
{med($\theta_e$)}	{[$^\circ$]}	64.9809
{$\Upsilon$}	[]	11
{$\Xi$}	[]	8
