Q	U	V
{$V$}	{[mm$^3$]}	0.00156505
{$d_v$}	{[mm]}	0.144049
{$S_c$}	{[mm$^2$]}	0.10819
{$S_o$}	{[mm$^2$]}	0.0664689
{$S_l/S_o$}	[]	0.627679
{$\Psi$}	[]	0.602535
{$\eta$}	[]	0.618418
{med($\theta_e$)}	{[$^\circ$]}	60.9737
{$\Upsilon$}	[]	15
{$\Xi$}	[]	8
