Q	U	V
{$V$}	{[mm$^3$]}	0.0041715
{$d_v$}	{[mm]}	0.199724
{$S_c$}	{[mm$^2$]}	0.204268
{$S_o$}	{[mm$^2$]}	0.126581
{$S_l/S_o$}	[]	0.613733
{$\Psi$}	[]	0.613496
{$\eta$}	[]	0.671265
{med($\theta_e$)}	{[$^\circ$]}	64.9036
{$\Upsilon$}	[]	13
{$\Xi$}	[]	8
