Q	U	V
{$V$}	{[mm$^3$]}	0.00668414
{$d_v$}	{[mm]}	0.233713
{$S_c$}	{[mm$^2$]}	0.398039
{$S_o$}	{[mm$^2$]}	0.217483
{$S_l/S_o$}	[]	0.830207
{$\Psi$}	[]	0.431111
{$\eta$}	[]	0.468504
{med($\theta_e$)}	{[$^\circ$]}	
{$\Upsilon$}	[]	16
{$\Xi$}	[]	6
