Q	U	V
{$V$}	{[mm$^3$]}	0.00472604
{$d_v$}	{[mm]}	0.208209
{$S_c$}	{[mm$^2$]}	0.198418
{$S_o$}	{[mm$^2$]}	0.138759
{$S_l/S_o$}	[]	0.429947
{$\Psi$}	[]	0.686385
{$\eta$}	[]	0.744776
{med($\theta_e$)}	{[$^\circ$]}	55.52275
{$\Upsilon$}	[]	14
{$\Xi$}	[]	5
