Q	U	V
{$V$}	{[mm$^3$]}	0.00749872
{$d_v$}	{[mm]}	0.242845
{$S_c$}	{[mm$^2$]}	0.410197
{$S_o$}	{[mm$^2$]}	0.256341
{$S_l/S_o$}	[]	0.600201
{$\Psi$}	[]	0.451665
{$\eta$}	[]	0.500055
{med($\theta_e$)}	{[$^\circ$]}	81.0805
{$\Upsilon$}	[]	13
{$\Xi$}	[]	8
