Q	U	V
{$V$}	{[mm$^3$]}	0.00178236
{$d_v$}	{[mm]}	0.150429
{$S_c$}	{[mm$^2$]}	0.112999
{$S_o$}	{[mm$^2$]}	0.064673
{$S_l/S_o$}	[]	0.747236
{$\Psi$}	[]	0.629129
{$\eta$}	[]	0.667651
{med($\theta_e$)}	{[$^\circ$]}	66.34495
{$\Upsilon$}	[]	14
{$\Xi$}	[]	6
