Q	U	V
{$V$}	{[mm$^3$]}	0.0143847
{$d_v$}	{[mm]}	0.301741
{$S_c$}	{[mm$^2$]}	0.672778
{$S_o$}	{[mm$^2$]}	0.392813
{$S_l/S_o$}	[]	0.712718
{$\Psi$}	[]	0.425154
{$\eta$}	[]	0.449682
{med($\theta_e$)}	{[$^\circ$]}	82.0945
{$\Upsilon$}	[]	17
{$\Xi$}	[]	19
