Q	U	V
{$V$}	{[mm$^3$]}	0.0105706
{$d_v$}	{[mm]}	0.272291
{$S_c$}	{[mm$^2$]}	0.373032
{$S_o$}	{[mm$^2$]}	0.222296
{$S_l/S_o$}	[]	0.678087
{$\Psi$}	[]	0.624412
{$\eta$}	[]	0.680958
{med($\theta_e$)}	{[$^\circ$]}	56.22395
{$\Upsilon$}	[]	15
{$\Xi$}	[]	12
