Q	U	V
{$V$}	{[mm$^3$]}	0.00316929
{$d_v$}	{[mm]}	0.182245
{$S_c$}	{[mm$^2$]}	0.180821
{$S_o$}	{[mm$^2$]}	0.101423
{$S_l/S_o$}	[]	0.782840
{$\Psi$}	[]	0.577045
{$\eta$}	[]	0.669889
{med($\theta_e$)}	{[$^\circ$]}	71.78995
{$\Upsilon$}	[]	13
{$\Xi$}	[]	10
