Q	U	V
{$V$}	{[mm$^3$]}	0.00534945
{$d_v$}	{[mm]}	0.216989
{$S_c$}	{[mm$^2$]}	0.23972
{$S_o$}	{[mm$^2$]}	0.17859
{$S_l/S_o$}	[]	0.342292
{$\Psi$}	[]	0.617048
{$\eta$}	[]	0.704885
{med($\theta_e$)}	{[$^\circ$]}	
{$\Upsilon$}	[]	12
{$\Xi$}	[]	11
