Q	U	V
{$V$}	{[mm$^3$]}	0.00598117
{$d_v$}	{[mm]}	0.225214
{$S_c$}	{[mm$^2$]}	0.390991
{$S_o$}	{[mm$^2$]}	0.171893
{$S_l/S_o$}	[]	1.274619
{$\Psi$}	[]	0.407544
{$\eta$}	[]	0.430555
{med($\theta_e$)}	{[$^\circ$]}	
{$\Upsilon$}	[]	15
{$\Xi$}	[]	5
