Q	U	V
{$V$}	{[mm$^3$]}	0.0148668
{$d_v$}	{[mm]}	0.305075
{$S_c$}	{[mm$^2$]}	0.496406
{$S_o$}	{[mm$^2$]}	0.333555
{$S_l/S_o$}	[]	0.488228
{$\Psi$}	[]	0.589014
{$\eta$}	[]	0.614843
{med($\theta_e$)}	{[$^\circ$]}	79.5788
{$\Upsilon$}	[]	14
{$\Xi$}	[]	10
