Q	U	V
{$V$}	{[mm$^3$]}	0.0123221
{$d_v$}	{[mm]}	0.286569
{$S_c$}	{[mm$^2$]}	0.609321
{$S_o$}	{[mm$^2$]}	0.398707
{$S_l/S_o$}	[]	0.528243
{$\Psi$}	[]	0.42341
{$\eta$}	[]	0.466337
{med($\theta_e$)}	{[$^\circ$]}	49.9087
{$\Upsilon$}	[]	12
{$\Xi$}	[]	11
