Q	U	V
{$V$}	{[mm$^3$]}	0.00430212
{$d_v$}	{[mm]}	0.201788
{$S_c$}	{[mm$^2$]}	0.191139
{$S_o$}	{[mm$^2$]}	0.119517
{$S_l/S_o$}	[]	0.599262
{$\Psi$}	[]	0.669252
{$\eta$}	[]	0.673290
{med($\theta_e$)}	{[$^\circ$]}	61.7485
{$\Upsilon$}	[]	17
{$\Xi$}	[]	7
