Q	U	V
{$V$}	{[mm$^3$]}	0.00242714
{$d_v$}	{[mm]}	0.166737
{$S_c$}	{[mm$^2$]}	0.194119
{$S_o$}	{[mm$^2$]}	0.0801353
{$S_l/S_o$}	[]	1.422391
{$\Psi$}	[]	0.449931
{$\eta$}	[]	0.525837
{med($\theta_e$)}	{[$^\circ$]}	71.6601
{$\Upsilon$}	[]	17
{$\Xi$}	[]	9
