Q	U	V
{$V$}	{[mm$^3$]}	0.00752485
{$d_v$}	{[mm]}	0.243127
{$S_c$}	{[mm$^2$]}	0.287098
{$S_o$}	{[mm$^2$]}	0.195979
{$S_l/S_o$}	[]	0.464943
{$\Psi$}	[]	0.646824
{$\eta$}	[]	0.667786
{med($\theta_e$)}	{[$^\circ$]}	54.6047
{$\Upsilon$}	[]	19
{$\Xi$}	[]	11
