Q	U	V
{$V$}	{[mm$^3$]}	0.00858524
{$d_v$}	{[mm]}	0.254049
{$S_c$}	{[mm$^2$]}	0.344257
{$S_o$}	{[mm$^2$]}	0.227748
{$S_l/S_o$}	[]	0.511570
{$\Psi$}	[]	0.588983
{$\eta$}	[]	0.613899
{med($\theta_e$)}	{[$^\circ$]}	51.90035
{$\Upsilon$}	[]	17
{$\Xi$}	[]	13
