Q	U	V
{$V$}	{[mm$^3$]}	0.0060821
{$d_v$}	{[mm]}	0.226474
{$S_c$}	{[mm$^2$]}	0.260271
{$S_o$}	{[mm$^2$]}	0.164921
{$S_l/S_o$}	[]	0.578156
{$\Psi$}	[]	0.6191
{$\eta$}	[]	0.635199
{med($\theta_e$)}	{[$^\circ$]}	59.038
{$\Upsilon$}	[]	16
{$\Xi$}	[]	7
