Q	U	V
{$V$}	{[mm$^3$]}	0.0044553
{$d_v$}	{[mm]}	0.204155
{$S_c$}	{[mm$^2$]}	0.23278
{$S_o$}	{[mm$^2$]}	0.133354
{$S_l/S_o$}	[]	0.745579
{$\Psi$}	[]	0.562501
{$\eta$}	[]	0.622850
{med($\theta_e$)}	{[$^\circ$]}	59.6965
{$\Upsilon$}	[]	13
{$\Xi$}	[]	7
