Q	U	V
{$V$}	{[mm$^3$]}	0.00419881
{$d_v$}	{[mm]}	0.200159
{$S_c$}	{[mm$^2$]}	0.195947
{$S_o$}	{[mm$^2$]}	0.123946
{$S_l/S_o$}	[]	0.580906
{$\Psi$}	[]	0.642337
{$\eta$}	[]	0.677765
{med($\theta_e$)}	{[$^\circ$]}	53.40505
{$\Upsilon$}	[]	18
{$\Xi$}	[]	8
