Q	U	V
{$V$}	{[mm$^3$]}	0.00867192
{$d_v$}	{[mm]}	0.254901
{$S_c$}	{[mm$^2$]}	0.456342
{$S_o$}	{[mm$^2$]}	0.21459
{$S_l/S_o$}	[]	1.126576
{$\Psi$}	[]	0.447305
{$\eta$}	[]	0.478597
{med($\theta_e$)}	{[$^\circ$]}	75.40015
{$\Upsilon$}	[]	13
{$\Xi$}	[]	5
