Q	U	V
{$V$}	{[mm$^3$]}	0.0102845
{$d_v$}	{[mm]}	0.269812
{$S_c$}	{[mm$^2$]}	0.347338
{$S_o$}	{[mm$^2$]}	0.247841
{$S_l/S_o$}	[]	0.401455
{$\Psi$}	[]	0.658447
{$\eta$}	[]	0.701567
{med($\theta_e$)}	{[$^\circ$]}	57.8576
{$\Upsilon$}	[]	15
{$\Xi$}	[]	12
