Q	U	V
{$V$}	{[mm$^3$]}	0.0136996
{$d_v$}	{[mm]}	0.296872
{$S_c$}	{[mm$^2$]}	0.451614
{$S_o$}	{[mm$^2$]}	0.321965
{$S_l/S_o$}	[]	0.402680
{$\Psi$}	[]	0.613087
{$\eta$}	[]	0.639940
{med($\theta_e$)}	{[$^\circ$]}	67.76905
{$\Upsilon$}	[]	16
{$\Xi$}	[]	5
