Q	U	V
{$V$}	{[mm$^3$]}	0.00957082
{$d_v$}	{[mm]}	0.263421
{$S_c$}	{[mm$^2$]}	0.339704
{$S_o$}	{[mm$^2$]}	0.214772
{$S_l/S_o$}	[]	0.581696
{$\Psi$}	[]	0.641726
{$\eta$}	[]	0.680033
{med($\theta_e$)}	{[$^\circ$]}	66.1393
{$\Upsilon$}	[]	11
{$\Xi$}	[]	8
