Q	U	V
{$V$}	{[mm$^3$]}	0.00466073
{$d_v$}	{[mm]}	0.207245
{$S_c$}	{[mm$^2$]}	0.218742
{$S_o$}	{[mm$^2$]}	0.141067
{$S_l/S_o$}	[]	0.550625
{$\Psi$}	[]	0.616862
{$\eta$}	[]	0.627223
{med($\theta_e$)}	{[$^\circ$]}	62.9396
{$\Upsilon$}	[]	18
{$\Xi$}	[]	9
