Q	U	V
{$V$}	{[mm$^3$]}	0.00637896
{$d_v$}	{[mm]}	0.230100
{$S_c$}	{[mm$^2$]}	0.23151
{$S_o$}	{[mm$^2$]}	0.164812
{$S_l/S_o$}	[]	0.404691
{$\Psi$}	[]	0.718479
{$\eta$}	[]	0.732111
{med($\theta_e$)}	{[$^\circ$]}	58.3652
{$\Upsilon$}	[]	16
{$\Xi$}	[]	6
