Q	U	V
{$V$}	{[mm$^3$]}	0.00837031
{$d_v$}	{[mm]}	0.251911
{$S_c$}	{[mm$^2$]}	0.378014
{$S_o$}	{[mm$^2$]}	0.213378
{$S_l/S_o$}	[]	0.771570
{$\Psi$}	[]	0.527397
{$\eta$}	[]	0.604700
{med($\theta_e$)}	{[$^\circ$]}	63.2658
{$\Upsilon$}	[]	13
{$\Xi$}	[]	10
