Q	U	V
{$V$}	{[mm$^3$]}	0.00626616
{$d_v$}	{[mm]}	0.228736
{$S_c$}	{[mm$^2$]}	0.329409
{$S_o$}	{[mm$^2$]}	0.183247
{$S_l/S_o$}	[]	0.797623
{$\Psi$}	[]	0.49898
{$\eta$}	[]	0.544293
{med($\theta_e$)}	{[$^\circ$]}	103.07
{$\Upsilon$}	[]	16
{$\Xi$}	[]	11
