Q	U	V
{$V$}	{[mm$^3$]}	0.0103866
{$d_v$}	{[mm]}	0.270702
{$S_c$}	{[mm$^2$]}	0.551443
{$S_o$}	{[mm$^2$]}	0.335037
{$S_l/S_o$}	[]	0.645917
{$\Psi$}	[]	0.417477
{$\eta$}	[]	0.458033
{med($\theta_e$)}	{[$^\circ$]}	70.3806
{$\Upsilon$}	[]	12
{$\Xi$}	[]	6
