Q	U	V
{$V$}	{[mm$^3$]}	0.0100434
{$d_v$}	{[mm]}	0.267687
{$S_c$}	{[mm$^2$]}	0.425047
{$S_o$}	{[mm$^2$]}	0.257665
{$S_l/S_o$}	[]	0.649611
{$\Psi$}	[]	0.529624
{$\eta$}	[]	0.559693
{med($\theta_e$)}	{[$^\circ$]}	57.5373
{$\Upsilon$}	[]	16
{$\Xi$}	[]	12
