Q	U	V
{$V$}	{[mm$^3$]}	0.00187142
{$d_v$}	{[mm]}	0.152894
{$S_c$}	{[mm$^2$]}	0.115668
{$S_o$}	{[mm$^2$]}	0.0671375
{$S_l/S_o$}	[]	0.722852
{$\Psi$}	[]	0.634919
{$\eta$}	[]	0.671813
{med($\theta_e$)}	{[$^\circ$]}	64.22935
{$\Upsilon$}	[]	15
{$\Xi$}	[]	6
