Q	U	V
{$V$}	{[mm$^3$]}	0.0104222
{$d_v$}	{[mm]}	0.271011
{$S_c$}	{[mm$^2$]}	0.368182
{$S_o$}	{[mm$^2$]}	0.228514
{$S_l/S_o$}	[]	0.611201
{$\Psi$}	[]	0.626702
{$\eta$}	[]	0.674536
{med($\theta_e$)}	{[$^\circ$]}	56.0471
{$\Upsilon$}	[]	20
{$\Xi$}	[]	11
