Q	U	V
{$V$}	{[mm$^3$]}	0.00557744
{$d_v$}	{[mm]}	0.220028
{$S_c$}	{[mm$^2$]}	0.296648
{$S_o$}	{[mm$^2$]}	0.162594
{$S_l/S_o$}	[]	0.824471
{$\Psi$}	[]	0.512703
{$\eta$}	[]	0.543570
{med($\theta_e$)}	{[$^\circ$]}	63.0788
{$\Upsilon$}	[]	20
{$\Xi$}	[]	16
