Q	U	V
{$V$}	{[mm$^3$]}	0.0115586
{$d_v$}	{[mm]}	0.280523
{$S_c$}	{[mm$^2$]}	0.36431
{$S_o$}	{[mm$^2$]}	0.265397
{$S_l/S_o$}	[]	0.372698
{$\Psi$}	[]	0.678604
{$\eta$}	[]	0.752639
{med($\theta_e$)}	{[$^\circ$]}	60.08755
{$\Upsilon$}	[]	14
{$\Xi$}	[]	8
