Q	U	V
{$V$}	{[mm$^3$]}	0.00350772
{$d_v$}	{[mm]}	0.188513
{$S_c$}	{[mm$^2$]}	0.170834
{$S_o$}	{[mm$^2$]}	0.11134
{$S_l/S_o$}	[]	0.534345
{$\Psi$}	[]	0.653521
{$\eta$}	[]	0.689160
{med($\theta_e$)}	{[$^\circ$]}	56.60365
{$\Upsilon$}	[]	12
{$\Xi$}	[]	6
