Q	U	V
{$V$}	{[mm$^3$]}	0.00267175
{$d_v$}	{[mm]}	0.172160
{$S_c$}	{[mm$^2$]}	0.130421
{$S_o$}	{[mm$^2$]}	0.0662461
{$S_l/S_o$}	[]	0.968735
{$\Psi$}	[]	0.713949
{$\eta$}	[]	0.721779
{med($\theta_e$)}	{[$^\circ$]}	62.3151
{$\Upsilon$}	[]	12
{$\Xi$}	[]	1
