Q	U	V
{$V$}	{[mm$^3$]}	0.0134324
{$d_v$}	{[mm]}	0.294930
{$S_c$}	{[mm$^2$]}	0.545609
{$S_o$}	{[mm$^2$]}	0.362294
{$S_l/S_o$}	[]	0.505984
{$\Psi$}	[]	0.500847
{$\eta$}	[]	0.529876
{med($\theta_e$)}	{[$^\circ$]}	54.802
{$\Upsilon$}	[]	16
{$\Xi$}	[]	16
