Q	U	V
{$V$}	{[mm$^3$]}	0.010402
{$d_v$}	{[mm]}	0.270836
{$S_c$}	{[mm$^2$]}	0.473239
{$S_o$}	{[mm$^2$]}	0.272198
{$S_l/S_o$}	[]	0.738584
{$\Psi$}	[]	0.486947
{$\eta$}	[]	0.513525
{med($\theta_e$)}	{[$^\circ$]}	72.3747
{$\Upsilon$}	[]	12
{$\Xi$}	[]	10
