Q	U	V
{$V$}	{[mm$^3$]}	0.00388058
{$d_v$}	{[mm]}	0.194969
{$S_c$}	{[mm$^2$]}	0.204708
{$S_o$}	{[mm$^2$]}	0.120878
{$S_l/S_o$}	[]	0.693509
{$\Psi$}	[]	0.583374
{$\eta$}	[]	0.642613
{med($\theta_e$)}	{[$^\circ$]}	67.1821
{$\Upsilon$}	[]	12
{$\Xi$}	[]	3
