Q	U	V
{$V$}	{[mm$^3$]}	0.00547294
{$d_v$}	{[mm]}	0.218646
{$S_c$}	{[mm$^2$]}	0.194305
{$S_o$}	{[mm$^2$]}	0.130488
{$S_l/S_o$}	[]	0.489064
{$\Psi$}	[]	0.772943
{$\eta$}	[]	0.794612
{med($\theta_e$)}	{[$^\circ$]}	58.12635
{$\Upsilon$}	[]	12
{$\Xi$}	[]	10
