Q	U	V
{$V$}	{[mm$^3$]}	0.00973587
{$d_v$}	{[mm]}	0.264926
{$S_c$}	{[mm$^2$]}	0.376311
{$S_o$}	{[mm$^2$]}	0.294395
{$S_l/S_o$}	[]	0.278252
{$\Psi$}	[]	0.585941
{$\eta$}	[]	0.628762
{med($\theta_e$)}	{[$^\circ$]}	66.3534
{$\Upsilon$}	[]	14
{$\Xi$}	[]	9
