Q	U	V
{$V$}	{[mm$^3$]}	0.0081447
{$d_v$}	{[mm]}	0.249627
{$S_c$}	{[mm$^2$]}	0.399806
{$S_o$}	{[mm$^2$]}	0.245476
{$S_l/S_o$}	[]	0.628697
{$\Psi$}	[]	0.489649
{$\eta$}	[]	0.553809
{med($\theta_e$)}	{[$^\circ$]}	59.6259
{$\Upsilon$}	[]	16
{$\Xi$}	[]	12
