Q	U	V
{$V$}	{[mm$^3$]}	0.00498965
{$d_v$}	{[mm]}	0.212010
{$S_c$}	{[mm$^2$]}	0.239473
{$S_o$}	{[mm$^2$]}	0.140034
{$S_l/S_o$}	[]	0.710106
{$\Psi$}	[]	0.589668
{$\eta$}	[]	0.614750
{med($\theta_e$)}	{[$^\circ$]}	45.0457
{$\Upsilon$}	[]	16
{$\Xi$}	[]	10
