Q	U	V
{$V$}	{[mm$^3$]}	0.00281069
{$d_v$}	{[mm]}	0.175094
{$S_c$}	{[mm$^2$]}	0.138162
{$S_o$}	{[mm$^2$]}	0.0878581
{$S_l/S_o$}	[]	0.572558
{$\Psi$}	[]	0.697115
{$\eta$}	[]	0.725713
{med($\theta_e$)}	{[$^\circ$]}	50.2673
{$\Upsilon$}	[]	15
{$\Xi$}	[]	11
