Q	U	V
{$V$}	{[mm$^3$]}	0.00754266
{$d_v$}	{[mm]}	0.243319
{$S_c$}	{[mm$^2$]}	0.317421
{$S_o$}	{[mm$^2$]}	0.211754
{$S_l/S_o$}	[]	0.499008
{$\Psi$}	[]	0.585956
{$\eta$}	[]	0.641344
{med($\theta_e$)}	{[$^\circ$]}	64.0981
{$\Upsilon$}	[]	14
{$\Xi$}	[]	10
