Q	U	V
{$V$}	{[mm$^3$]}	0.0112665
{$d_v$}	{[mm]}	0.278140
{$S_c$}	{[mm$^2$]}	0.457716
{$S_o$}	{[mm$^2$]}	0.270916
{$S_l/S_o$}	[]	0.689513
{$\Psi$}	[]	0.530983
{$\eta$}	[]	0.578193
{med($\theta_e$)}	{[$^\circ$]}	52.63775
{$\Upsilon$}	[]	20
{$\Xi$}	[]	15
