Q	U	V
{$V$}	{[mm$^3$]}	0.00377845
{$d_v$}	{[mm]}	0.193244
{$S_c$}	{[mm$^2$]}	0.197779
{$S_o$}	{[mm$^2$]}	0.113913
{$S_l/S_o$}	[]	0.736229
{$\Psi$}	[]	0.593171
{$\eta$}	[]	0.658154
{med($\theta_e$)}	{[$^\circ$]}	54.85895
{$\Upsilon$}	[]	14
{$\Xi$}	[]	8
