Q	U	V
{$V$}	{[mm$^3$]}	0.0121262
{$d_v$}	{[mm]}	0.285042
{$S_c$}	{[mm$^2$]}	0.415203
{$S_o$}	{[mm$^2$]}	0.292009
{$S_l/S_o$}	[]	0.421884
{$\Psi$}	[]	0.614762
{$\eta$}	[]	0.634805
{med($\theta_e$)}	{[$^\circ$]}	53.554
{$\Upsilon$}	[]	18
{$\Xi$}	[]	5
