Q	U	V
{$V$}	{[mm$^3$]}	0.00497303
{$d_v$}	{[mm]}	0.211775
{$S_c$}	{[mm$^2$]}	0.204929
{$S_o$}	{[mm$^2$]}	0.135256
{$S_l/S_o$}	[]	0.515119
{$\Psi$}	[]	0.687535
{$\eta$}	[]	0.739154
{med($\theta_e$)}	{[$^\circ$]}	62.8779
{$\Upsilon$}	[]	12
{$\Xi$}	[]	6
