Q	U	V
{$V$}	{[mm$^3$]}	0.00179779
{$d_v$}	{[mm]}	0.150862
{$S_c$}	{[mm$^2$]}	0.113609
{$S_o$}	{[mm$^2$]}	0.0654265
{$S_l/S_o$}	[]	0.736437
{$\Psi$}	[]	0.629357
{$\eta$}	[]	0.691245
{med($\theta_e$)}	{[$^\circ$]}	56.9983
{$\Upsilon$}	[]	16
{$\Xi$}	[]	5
