Q	U	V
{$V$}	{[mm$^3$]}	0.0024877
{$d_v$}	{[mm]}	0.168112
{$S_c$}	{[mm$^2$]}	0.138172
{$S_o$}	{[mm$^2$]}	0.081706
{$S_l/S_o$}	[]	0.691088
{$\Psi$}	[]	0.642583
{$\eta$}	[]	0.693352
{med($\theta_e$)}	{[$^\circ$]}	46.19795
{$\Upsilon$}	[]	17
{$\Xi$}	[]	7
