Q	U	V
{$V$}	{[mm$^3$]}	0.00406819
{$d_v$}	{[mm]}	0.198062
{$S_c$}	{[mm$^2$]}	0.17015
{$S_o$}	{[mm$^2$]}	0.102972
{$S_l/S_o$}	[]	0.652391
{$\Psi$}	[]	0.724302
{$\eta$}	[]	0.752753
{med($\theta_e$)}	{[$^\circ$]}	56.7845
{$\Upsilon$}	[]	16
{$\Xi$}	[]	9
