Q	U	V
{$V$}	{[mm$^3$]}	0.00374521
{$d_v$}	{[mm]}	0.192675
{$S_c$}	{[mm$^2$]}	0.198191
{$S_o$}	{[mm$^2$]}	0.112514
{$S_l/S_o$}	[]	0.761479
{$\Psi$}	[]	0.588461
{$\eta$}	[]	0.642416
{med($\theta_e$)}	{[$^\circ$]}	49.50875
{$\Upsilon$}	[]	13
{$\Xi$}	[]	6
