Q	U	V
{$V$}	{[mm$^3$]}	0.00694775
{$d_v$}	{[mm]}	0.236746
{$S_c$}	{[mm$^2$]}	0.322007
{$S_o$}	{[mm$^2$]}	0.22838
{$S_l/S_o$}	[]	0.409961
{$\Psi$}	[]	0.546825
{$\eta$}	[]	0.592031
{med($\theta_e$)}	{[$^\circ$]}	61.1126
{$\Upsilon$}	[]	13
{$\Xi$}	[]	9
