Q	U	V
{$V$}	{[mm$^3$]}	0.00386989
{$d_v$}	{[mm]}	0.194790
{$S_c$}	{[mm$^2$]}	0.166442
{$S_o$}	{[mm$^2$]}	0.108989
{$S_l/S_o$}	[]	0.527145
{$\Psi$}	[]	0.716177
{$\eta$}	[]	0.716892
{med($\theta_e$)}	{[$^\circ$]}	56.4696
{$\Upsilon$}	[]	13
{$\Xi$}	[]	7
