Q	U	V
{$V$}	{[mm$^3$]}	0.00714487
{$d_v$}	{[mm]}	0.238964
{$S_c$}	{[mm$^2$]}	0.362161
{$S_o$}	{[mm$^2$]}	0.191908
{$S_l/S_o$}	[]	0.887159
{$\Psi$}	[]	0.49535
{$\eta$}	[]	0.550349
{med($\theta_e$)}	{[$^\circ$]}	77.2061
{$\Upsilon$}	[]	15
{$\Xi$}	[]	7
