Q	U	V
{$V$}	{[mm$^3$]}	0.00650008
{$d_v$}	{[mm]}	0.231547
{$S_c$}	{[mm$^2$]}	0.320971
{$S_o$}	{[mm$^2$]}	0.193558
{$S_l/S_o$}	[]	0.658268
{$\Psi$}	[]	0.524764
{$\eta$}	[]	0.631150
{med($\theta_e$)}	{[$^\circ$]}	73.0762
{$\Upsilon$}	[]	11
{$\Xi$}	[]	10
