Q	U	V
{$V$}	{[mm$^3$]}	0.0066307
{$d_v$}	{[mm]}	0.233088
{$S_c$}	{[mm$^2$]}	0.257145
{$S_o$}	{[mm$^2$]}	0.147298
{$S_l/S_o$}	[]	0.745747
{$\Psi$}	[]	0.663762
{$\eta$}	[]	0.687624
{med($\theta_e$)}	{[$^\circ$]}	58.5024
{$\Upsilon$}	[]	16
{$\Xi$}	[]	11
