Q	U	V
{$V$}	{[mm$^3$]}	0.0110349
{$d_v$}	{[mm]}	0.276221
{$S_c$}	{[mm$^2$]}	0.422597
{$S_o$}	{[mm$^2$]}	0.251969
{$S_l/S_o$}	[]	0.677179
{$\Psi$}	[]	0.567201
{$\eta$}	[]	0.610679
{med($\theta_e$)}	{[$^\circ$]}	63.5901
{$\Upsilon$}	[]	17
{$\Xi$}	[]	5
