Q	U	V
{$V$}	{[mm$^3$]}	0.0201462
{$d_v$}	{[mm]}	0.337597
{$S_c$}	{[mm$^2$]}	0.509553
{$S_o$}	{[mm$^2$]}	0.371367
{$S_l/S_o$}	[]	0.372101
{$\Psi$}	[]	0.702679
{$\eta$}	[]	0.710505
{med($\theta_e$)}	{[$^\circ$]}	59.2811
{$\Upsilon$}	[]	15
{$\Xi$}	[]	11
