Q	U	V
{$V$}	{[mm$^3$]}	0.0015698
{$d_v$}	{[mm]}	0.144194
{$S_c$}	{[mm$^2$]}	0.0940145
{$S_o$}	{[mm$^2$]}	0.0522575
{$S_l/S_o$}	[]	0.799062
{$\Psi$}	[]	0.694788
{$\eta$}	[]	0.741602
{med($\theta_e$)}	{[$^\circ$]}	49.7843
{$\Upsilon$}	[]	14
{$\Xi$}	[]	6
