Q	U	V
{$V$}	{[mm$^3$]}	0.00372858
{$d_v$}	{[mm]}	0.192390
{$S_c$}	{[mm$^2$]}	0.190808
{$S_o$}	{[mm$^2$]}	0.114794
{$S_l/S_o$}	[]	0.662177
{$\Psi$}	[]	0.60942
{$\eta$}	[]	0.679846
{med($\theta_e$)}	{[$^\circ$]}	53.96805
{$\Upsilon$}	[]	15
{$\Xi$}	[]	5
