Q	U	V
{$V$}	{[mm$^3$]}	0.00583986
{$d_v$}	{[mm]}	0.223426
{$S_c$}	{[mm$^2$]}	0.257511
{$S_o$}	{[mm$^2$]}	0.152565
{$S_l/S_o$}	[]	0.687877
{$\Psi$}	[]	0.609008
{$\eta$}	[]	0.649751
{med($\theta_e$)}	{[$^\circ$]}	65.30705
{$\Upsilon$}	[]	16
{$\Xi$}	[]	8
