Q	U	V
{$V$}	{[mm$^3$]}	0.00946039
{$d_v$}	{[mm]}	0.262404
{$S_c$}	{[mm$^2$]}	0.323792
{$S_o$}	{[mm$^2$]}	0.21716
{$S_l/S_o$}	[]	0.491030
{$\Psi$}	[]	0.668073
{$\eta$}	[]	0.691280
{med($\theta_e$)}	{[$^\circ$]}	55.33335
{$\Upsilon$}	[]	16
{$\Xi$}	[]	6
