Q	U	V
{$V$}	{[mm$^3$]}	0.00700237
{$d_v$}	{[mm]}	0.237364
{$S_c$}	{[mm$^2$]}	0.349494
{$S_o$}	{[mm$^2$]}	0.185845
{$S_l/S_o$}	[]	0.880567
{$\Psi$}	[]	0.506455
{$\eta$}	[]	0.591635
{med($\theta_e$)}	{[$^\circ$]}	78.49695
{$\Upsilon$}	[]	11
{$\Xi$}	[]	11
