Q	U	V
{$V$}	{[mm$^3$]}	0.00402069
{$d_v$}	{[mm]}	0.197288
{$S_c$}	{[mm$^2$]}	0.204884
{$S_o$}	{[mm$^2$]}	0.127735
{$S_l/S_o$}	[]	0.603977
{$\Psi$}	[]	0.59682
{$\eta$}	[]	0.636053
{med($\theta_e$)}	{[$^\circ$]}	
{$\Upsilon$}	[]	18
{$\Xi$}	[]	8
