Q	U	V
{$V$}	{[mm$^3$]}	0.00424987
{$d_v$}	{[mm]}	0.200967
{$S_c$}	{[mm$^2$]}	0.189214
{$S_o$}	{[mm$^2$]}	0.0969643
{$S_l/S_o$}	[]	0.951378
{$\Psi$}	[]	0.670576
{$\eta$}	[]	0.727631
{med($\theta_e$)}	{[$^\circ$]}	50.03245
{$\Upsilon$}	[]	16
{$\Xi$}	[]	8
