Q	U	V
{$V$}	{[mm$^3$]}	0.00615691
{$d_v$}	{[mm]}	0.227399
{$S_c$}	{[mm$^2$]}	0.257943
{$S_o$}	{[mm$^2$]}	0.16179
{$S_l/S_o$}	[]	0.594307
{$\Psi$}	[]	0.629799
{$\eta$}	[]	0.673405
{med($\theta_e$)}	{[$^\circ$]}	59.1583
{$\Upsilon$}	[]	17
{$\Xi$}	[]	9
