Q	U	V
{$V$}	{[mm$^3$]}	0.00521289
{$d_v$}	{[mm]}	0.215126
{$S_c$}	{[mm$^2$]}	0.247887
{$S_o$}	{[mm$^2$]}	0.154735
{$S_l/S_o$}	[]	0.602010
{$\Psi$}	[]	0.58652
{$\eta$}	[]	0.634075
{med($\theta_e$)}	{[$^\circ$]}	72.80575
{$\Upsilon$}	[]	13
{$\Xi$}	[]	6
