Q	U	V
{$V$}	{[mm$^3$]}	0.00314555
{$d_v$}	{[mm]}	0.181788
{$S_c$}	{[mm$^2$]}	0.164442
{$S_o$}	{[mm$^2$]}	0.105912
{$S_l/S_o$}	[]	0.552629
{$\Psi$}	[]	0.631348
{$\eta$}	[]	0.673307
{med($\theta_e$)}	{[$^\circ$]}	58.4289
{$\Upsilon$}	[]	16
{$\Xi$}	[]	9
