Q	U	V
{$V$}	{[mm$^3$]}	0.00319898
{$d_v$}	{[mm]}	0.182812
{$S_c$}	{[mm$^2$]}	0.213689
{$S_o$}	{[mm$^2$]}	0.120431
{$S_l/S_o$}	[]	0.774369
{$\Psi$}	[]	0.491333
{$\eta$}	[]	0.516021
{med($\theta_e$)}	{[$^\circ$]}	65.1997
{$\Upsilon$}	[]	17
{$\Xi$}	[]	7
