Q	U	V
{$V$}	{[mm$^3$]}	0.00364309
{$d_v$}	{[mm]}	0.190908
{$S_c$}	{[mm$^2$]}	0.219795
{$S_o$}	{[mm$^2$]}	0.131097
{$S_l/S_o$}	[]	0.676583
{$\Psi$}	[]	0.52093
{$\eta$}	[]	0.560768
{med($\theta_e$)}	{[$^\circ$]}	63.5948
{$\Upsilon$}	[]	13
{$\Xi$}	[]	11
