Q	U	V
{$V$}	{[mm$^3$]}	0.00720899
{$d_v$}	{[mm]}	0.239676
{$S_c$}	{[mm$^2$]}	0.415219
{$S_o$}	{[mm$^2$]}	0.210212
{$S_l/S_o$}	[]	0.975239
{$\Psi$}	[]	0.434633
{$\eta$}	[]	0.462041
{med($\theta_e$)}	{[$^\circ$]}	90.7786
{$\Upsilon$}	[]	18
{$\Xi$}	[]	10
