Q	U	V
{$V$}	{[mm$^3$]}	0.012809
{$d_v$}	{[mm]}	0.290295
{$S_c$}	{[mm$^2$]}	0.46872
{$S_o$}	{[mm$^2$]}	0.313346
{$S_l/S_o$}	[]	0.495854
{$\Psi$}	[]	0.564825
{$\eta$}	[]	0.617531
{med($\theta_e$)}	{[$^\circ$]}	62.5935
{$\Upsilon$}	[]	17
{$\Xi$}	[]	11
