Q	U	V
{$V$}	{[mm$^3$]}	0.0143681
{$d_v$}	{[mm]}	0.301625
{$S_c$}	{[mm$^2$]}	0.615
{$S_o$}	{[mm$^2$]}	0.273512
{$S_l/S_o$}	[]	1.248530
{$\Psi$}	[]	0.464738
{$\eta$}	[]	0.492553
{med($\theta_e$)}	{[$^\circ$]}	65.8655
{$\Upsilon$}	[]	13
{$\Xi$}	[]	12
