Q	U	V
{$V$}	{[mm$^3$]}	0.00206616
{$d_v$}	{[mm]}	0.158024
{$S_c$}	{[mm$^2$]}	0.135243
{$S_o$}	{[mm$^2$]}	0.0743159
{$S_l/S_o$}	[]	0.819839
{$\Psi$}	[]	0.580068
{$\eta$}	[]	0.605161
{med($\theta_e$)}	{[$^\circ$]}	
{$\Upsilon$}	[]	18
{$\Xi$}	[]	8
