Q	U	V
{$V$}	{[mm$^3$]}	0.00149262
{$d_v$}	{[mm]}	0.141792
{$S_c$}	{[mm$^2$]}	0.108325
{$S_o$}	{[mm$^2$]}	0.056824
{$S_l/S_o$}	[]	0.906325
{$\Psi$}	[]	0.583071
{$\eta$}	[]	0.662464
{med($\theta_e$)}	{[$^\circ$]}	57.109
{$\Upsilon$}	[]	16
{$\Xi$}	[]	7
