Q	U	V
{$V$}	{[mm$^3$]}	0.010497
{$d_v$}	{[mm]}	0.271658
{$S_c$}	{[mm$^2$]}	0.414944
{$S_o$}	{[mm$^2$]}	0.231504
{$S_l/S_o$}	[]	0.792384
{$\Psi$}	[]	0.558734
{$\eta$}	[]	0.595820
{med($\theta_e$)}	{[$^\circ$]}	54.6313
{$\Upsilon$}	[]	18
{$\Xi$}	[]	12
