Q	U	V
{$V$}	{[mm$^3$]}	0.0106906
{$d_v$}	{[mm]}	0.273318
{$S_c$}	{[mm$^2$]}	0.450063
{$S_o$}	{[mm$^2$]}	0.286953
{$S_l/S_o$}	[]	0.568421
{$\Psi$}	[]	0.521449
{$\eta$}	[]	0.606813
{med($\theta_e$)}	{[$^\circ$]}	68.7704
{$\Upsilon$}	[]	15
{$\Xi$}	[]	14
