Q	U	V
{$V$}	{[mm$^3$]}	0.00193673
{$d_v$}	{[mm]}	0.154652
{$S_c$}	{[mm$^2$]}	0.144313
{$S_o$}	{[mm$^2$]}	0.0747591
{$S_l/S_o$}	[]	0.930374
{$\Psi$}	[]	0.520665
{$\eta$}	[]	0.601909
{med($\theta_e$)}	{[$^\circ$]}	52.0321
{$\Upsilon$}	[]	12
{$\Xi$}	[]	6
