Q	U	V
{$V$}	{[mm$^3$]}	0.00199491
{$d_v$}	{[mm]}	0.156186
{$S_c$}	{[mm$^2$]}	0.159701
{$S_o$}	{[mm$^2$]}	0.0793675
{$S_l/S_o$}	[]	1.012171
{$\Psi$}	[]	0.479872
{$\eta$}	[]	0.498864
{med($\theta_e$)}	{[$^\circ$]}	
{$\Upsilon$}	[]	17
{$\Xi$}	[]	5
