Q	U	V
{$V$}	{[mm$^3$]}	0.00252332
{$d_v$}	{[mm]}	0.168911
{$S_c$}	{[mm$^2$]}	0.149844
{$S_o$}	{[mm$^2$]}	0.0905339
{$S_l/S_o$}	[]	0.655115
{$\Psi$}	[]	0.598172
{$\eta$}	[]	0.629164
{med($\theta_e$)}	{[$^\circ$]}	72.59805
{$\Upsilon$}	[]	13
{$\Xi$}	[]	2
