Q	U	V
{$V$}	{[mm$^3$]}	0.00330348
{$d_v$}	{[mm]}	0.184781
{$S_c$}	{[mm$^2$]}	0.198959
{$S_o$}	{[mm$^2$]}	0.111144
{$S_l/S_o$}	[]	0.790101
{$\Psi$}	[]	0.53914
{$\eta$}	[]	0.632090
{med($\theta_e$)}	{[$^\circ$]}	74.4552
{$\Upsilon$}	[]	13
{$\Xi$}	[]	8
