Q	U	V
{$V$}	{[mm$^3$]}	0.00198422
{$d_v$}	{[mm]}	0.155906
{$S_c$}	{[mm$^2$]}	0.106847
{$S_o$}	{[mm$^2$]}	0.0652274
{$S_l/S_o$}	[]	0.638069
{$\Psi$}	[]	0.714686
{$\eta$}	[]	0.782347
{med($\theta_e$)}	{[$^\circ$]}	50.31145
{$\Upsilon$}	[]	18
{$\Xi$}	[]	7
