Q	U	V
{$V$}	{[mm$^3$]}	0.00274656
{$d_v$}	{[mm]}	0.173752
{$S_c$}	{[mm$^2$]}	0.169668
{$S_o$}	{[mm$^2$]}	0.0786113
{$S_l/S_o$}	[]	1.158316
{$\Psi$}	[]	0.558998
{$\eta$}	[]	0.570899
{med($\theta_e$)}	{[$^\circ$]}	54.8746
{$\Upsilon$}	[]	16
{$\Xi$}	[]	4
