Q	U	V
{$V$}	{[mm$^3$]}	0.00766259
{$d_v$}	{[mm]}	0.244601
{$S_c$}	{[mm$^2$]}	0.372321
{$S_o$}	{[mm$^2$]}	0.184696
{$S_l/S_o$}	[]	1.015858
{$\Psi$}	[]	0.504836
{$\eta$}	[]	0.563127
{med($\theta_e$)}	{[$^\circ$]}	68.5542
{$\Upsilon$}	[]	14
{$\Xi$}	[]	10
