Q	U	V
{$V$}	{[mm$^3$]}	0.00181323
{$d_v$}	{[mm]}	0.151293
{$S_c$}	{[mm$^2$]}	0.167649
{$S_o$}	{[mm$^2$]}	0.0772329
{$S_l/S_o$}	[]	1.170694
{$\Psi$}	[]	0.428929
{$\eta$}	[]	0.474105
{med($\theta_e$)}	{[$^\circ$]}	83.80625
{$\Upsilon$}	[]	14
{$\Xi$}	[]	1
