Q	U	V
{$V$}	{[mm$^3$]}	0.0036134
{$d_v$}	{[mm]}	0.190388
{$S_c$}	{[mm$^2$]}	0.1906
{$S_o$}	{[mm$^2$]}	0.119571
{$S_l/S_o$}	[]	0.594032
{$\Psi$}	[]	0.597455
{$\eta$}	[]	0.651207
{med($\theta_e$)}	{[$^\circ$]}	53.8755
{$\Upsilon$}	[]	11
{$\Xi$}	[]	10
