Q	U	V
{$V$}	{[mm$^3$]}	0.00621747
{$d_v$}	{[mm]}	0.228142
{$S_c$}	{[mm$^2$]}	0.317756
{$S_o$}	{[mm$^2$]}	0.188409
{$S_l/S_o$}	[]	0.686522
{$\Psi$}	[]	0.514596
{$\eta$}	[]	0.534961
{med($\theta_e$)}	{[$^\circ$]}	58.6559
{$\Upsilon$}	[]	9
{$\Xi$}	[]	8
