Q	U	V
{$V$}	{[mm$^3$]}	0.00335454
{$d_v$}	{[mm]}	0.185728
{$S_c$}	{[mm$^2$]}	0.250019
{$S_o$}	{[mm$^2$]}	0.107562
{$S_l/S_o$}	[]	1.324418
{$\Psi$}	[]	0.433444
{$\eta$}	[]	0.548810
{med($\theta_e$)}	{[$^\circ$]}	
{$\Upsilon$}	[]	17
{$\Xi$}	[]	5
