Q	U	V
{$V$}	{[mm$^3$]}	0.00189279
{$d_v$}	{[mm]}	0.153474
{$S_c$}	{[mm$^2$]}	0.108843
{$S_o$}	{[mm$^2$]}	0.0684518
{$S_l/S_o$}	[]	0.590068
{$\Psi$}	[]	0.679859
{$\eta$}	[]	0.737853
{med($\theta_e$)}	{[$^\circ$]}	57.3757
{$\Upsilon$}	[]	18
{$\Xi$}	[]	8
