Q	U	V
{$V$}	{[mm$^3$]}	0.00573893
{$d_v$}	{[mm]}	0.222132
{$S_c$}	{[mm$^2$]}	0.245783
{$S_o$}	{[mm$^2$]}	0.163909
{$S_l/S_o$}	[]	0.499509
{$\Psi$}	[]	0.630695
{$\eta$}	[]	0.677496
{med($\theta_e$)}	{[$^\circ$]}	58.553
{$\Upsilon$}	[]	13
{$\Xi$}	[]	10
