Q	U	V
{$V$}	{[mm$^3$]}	0.00672332
{$d_v$}	{[mm]}	0.234168
{$S_c$}	{[mm$^2$]}	0.221437
{$S_o$}	{[mm$^2$]}	0.149357
{$S_l/S_o$}	[]	0.482602
{$\Psi$}	[]	0.777959
{$\eta$}	[]	0.792921
{med($\theta_e$)}	{[$^\circ$]}	46.6688
{$\Upsilon$}	[]	21
{$\Xi$}	[]	8
