Q	U	V
{$V$}	{[mm$^3$]}	0.00214097
{$d_v$}	{[mm]}	0.159908
{$S_c$}	{[mm$^2$]}	0.125912
{$S_o$}	{[mm$^2$]}	0.078352
{$S_l/S_o$}	[]	0.607004
{$\Psi$}	[]	0.638005
{$\eta$}	[]	0.696716
{med($\theta_e$)}	{[$^\circ$]}	63.59975
{$\Upsilon$}	[]	16
{$\Xi$}	[]	6
