Q	U	V
{$V$}	{[mm$^3$]}	0.0128565
{$d_v$}	{[mm]}	0.290653
{$S_c$}	{[mm$^2$]}	0.50424
{$S_o$}	{[mm$^2$]}	0.307413
{$S_l/S_o$}	[]	0.640269
{$\Psi$}	[]	0.526335
{$\eta$}	[]	0.574437
{med($\theta_e$)}	{[$^\circ$]}	52.89955
{$\Upsilon$}	[]	16
{$\Xi$}	[]	8
