Q	U	V
{$V$}	{[mm$^3$]}	0.00203647
{$d_v$}	{[mm]}	0.157263
{$S_c$}	{[mm$^2$]}	0.122633
{$S_o$}	{[mm$^2$]}	0.0746774
{$S_l/S_o$}	[]	0.642170
{$\Psi$}	[]	0.633571
{$\eta$}	[]	0.644849
{med($\theta_e$)}	{[$^\circ$]}	59.7671
{$\Upsilon$}	[]	18
{$\Xi$}	[]	8
