Q	U	V
{$V$}	{[mm$^3$]}	0.00304224
{$d_v$}	{[mm]}	0.179776
{$S_c$}	{[mm$^2$]}	0.17868
{$S_o$}	{[mm$^2$]}	0.107393
{$S_l/S_o$}	[]	0.663796
{$\Psi$}	[]	0.568247
{$\eta$}	[]	0.592109
{med($\theta_e$)}	{[$^\circ$]}	56.8607
{$\Upsilon$}	[]	13
{$\Xi$}	[]	9
