Q	U	V
{$V$}	{[mm$^3$]}	0.00525326
{$d_v$}	{[mm]}	0.215680
{$S_c$}	{[mm$^2$]}	0.291747
{$S_o$}	{[mm$^2$]}	0.173911
{$S_l/S_o$}	[]	0.677565
{$\Psi$}	[]	0.500915
{$\eta$}	[]	0.559235
{med($\theta_e$)}	{[$^\circ$]}	74.58185
{$\Upsilon$}	[]	10
{$\Xi$}	[]	7
