Q	U	V
{$V$}	{[mm$^3$]}	0.0190158
{$d_v$}	{[mm]}	0.331161
{$S_c$}	{[mm$^2$]}	0.741258
{$S_o$}	{[mm$^2$]}	0.451056
{$S_l/S_o$}	[]	0.643384
{$\Psi$}	[]	0.464791
{$\eta$}	[]	0.533940
{med($\theta_e$)}	{[$^\circ$]}	70.63075
{$\Upsilon$}	[]	11
{$\Xi$}	[]	20
