Q	U	V
{$V$}	{[mm$^3$]}	0.0039542
{$d_v$}	{[mm]}	0.196194
{$S_c$}	{[mm$^2$]}	0.176318
{$S_o$}	{[mm$^2$]}	0.115616
{$S_l/S_o$}	[]	0.525031
{$\Psi$}	[]	0.685846
{$\eta$}	[]	0.692777
{med($\theta_e$)}	{[$^\circ$]}	51.1388
{$\Upsilon$}	[]	18
{$\Xi$}	[]	7
