Q	U	V
{$V$}	{[mm$^3$]}	0.00172417
{$d_v$}	{[mm]}	0.148774
{$S_c$}	{[mm$^2$]}	0.12917
{$S_o$}	{[mm$^2$]}	0.0706014
{$S_l/S_o$}	[]	0.829567
{$\Psi$}	[]	0.538322
{$\eta$}	[]	0.563581
{med($\theta_e$)}	{[$^\circ$]}	72.697
{$\Upsilon$}	[]	22
{$\Xi$}	[]	4
