Q	U	V
{$V$}	{[mm$^3$]}	0.00318354
{$d_v$}	{[mm]}	0.182517
{$S_c$}	{[mm$^2$]}	0.18975
{$S_o$}	{[mm$^2$]}	0.119686
{$S_l/S_o$}	[]	0.585398
{$\Psi$}	[]	0.551539
{$\eta$}	[]	0.595325
{med($\theta_e$)}	{[$^\circ$]}	52.90645
{$\Upsilon$}	[]	14
{$\Xi$}	[]	10
