Q	U	V
{$V$}	{[mm$^3$]}	0.00146768
{$d_v$}	{[mm]}	0.140997
{$S_c$}	{[mm$^2$]}	0.123855
{$S_o$}	{[mm$^2$]}	0.0648528
{$S_l/S_o$}	[]	0.909786
{$\Psi$}	[]	0.504264
{$\eta$}	[]	0.546646
{med($\theta_e$)}	{[$^\circ$]}	67.0006
{$\Upsilon$}	[]	14
{$\Xi$}	[]	9
