Q	U	V
{$V$}	{[mm$^3$]}	0.00289262
{$d_v$}	{[mm]}	0.176779
{$S_c$}	{[mm$^2$]}	0.189948
{$S_o$}	{[mm$^2$]}	0.0870956
{$S_l/S_o$}	[]	1.180914
{$\Psi$}	[]	0.516865
{$\eta$}	[]	0.524330
{med($\theta_e$)}	{[$^\circ$]}	
{$\Upsilon$}	[]	14
{$\Xi$}	[]	5
