Q	U	V
{$V$}	{[mm$^3$]}	0.00489347
{$d_v$}	{[mm]}	0.210639
{$S_c$}	{[mm$^2$]}	0.265378
{$S_o$}	{[mm$^2$]}	0.172313
{$S_l/S_o$}	[]	0.540093
{$\Psi$}	[]	0.525247
{$\eta$}	[]	0.569584
{med($\theta_e$)}	{[$^\circ$]}	73.45105
{$\Upsilon$}	[]	16
{$\Xi$}	[]	14
