Q	U	V
{$V$}	{[mm$^3$]}	0.00501577
{$d_v$}	{[mm]}	0.212380
{$S_c$}	{[mm$^2$]}	0.218144
{$S_o$}	{[mm$^2$]}	0.128871
{$S_l/S_o$}	[]	0.692731
{$\Psi$}	[]	0.64958
{$\eta$}	[]	0.683489
{med($\theta_e$)}	{[$^\circ$]}	55.4153
{$\Upsilon$}	[]	13
{$\Xi$}	[]	8
