Q	U	V
{$V$}	{[mm$^3$]}	0.0175243
{$d_v$}	{[mm]}	0.322266
{$S_c$}	{[mm$^2$]}	0.665363
{$S_o$}	{[mm$^2$]}	0.325136
{$S_l/S_o$}	[]	1.046414
{$\Psi$}	[]	0.490365
{$\eta$}	[]	0.541243
{med($\theta_e$)}	{[$^\circ$]}	81.98165
{$\Upsilon$}	[]	12
{$\Xi$}	[]	13
