Q	U	V
{$V$}	{[mm$^3$]}	0.00192723
{$d_v$}	{[mm]}	0.154399
{$S_c$}	{[mm$^2$]}	0.177035
{$S_o$}	{[mm$^2$]}	0.0846067
{$S_l/S_o$}	[]	1.092447
{$\Psi$}	[]	0.423039
{$\eta$}	[]	0.467586
{med($\theta_e$)}	{[$^\circ$]}	96.45425
{$\Upsilon$}	[]	15
{$\Xi$}	[]	6
