Q	U	V
{$V$}	{[mm$^3$]}	0.00093452
{$d_v$}	{[mm]}	0.121301
{$S_c$}	{[mm$^2$]}	0.0778252
{$S_o$}	{[mm$^2$]}	0.0436472
{$S_l/S_o$}	[]	0.783051
{$\Psi$}	[]	0.593959
{$\eta$}	[]	0.648663
{med($\theta_e$)}	{[$^\circ$]}	56.0758
{$\Upsilon$}	[]	16
{$\Xi$}	[]	5
