Q	U	V
{$V$}	{[mm$^3$]}	0.0150426
{$d_v$}	{[mm]}	0.306273
{$S_c$}	{[mm$^2$]}	0.582404
{$S_o$}	{[mm$^2$]}	0.372822
{$S_l/S_o$}	[]	0.562150
{$\Psi$}	[]	0.50599
{$\eta$}	[]	0.521282
{med($\theta_e$)}	{[$^\circ$]}	65.3558
{$\Upsilon$}	[]	13
{$\Xi$}	[]	8
