Q	U	V
{$V$}	{[mm$^3$]}	0.00434249
{$d_v$}	{[mm]}	0.202417
{$S_c$}	{[mm$^2$]}	0.24386
{$S_o$}	{[mm$^2$]}	0.152206
{$S_l/S_o$}	[]	0.602171
{$\Psi$}	[]	0.527841
{$\eta$}	[]	0.555265
{med($\theta_e$)}	{[$^\circ$]}	81.26375
{$\Upsilon$}	[]	17
{$\Xi$}	[]	6
