Q	U	V
{$V$}	{[mm$^3$]}	0.0171717
{$d_v$}	{[mm]}	0.320090
{$S_c$}	{[mm$^2$]}	0.710985
{$S_o$}	{[mm$^2$]}	0.436616
{$S_l/S_o$}	[]	0.628399
{$\Psi$}	[]	0.452723
{$\eta$}	[]	0.469737
{med($\theta_e$)}	{[$^\circ$]}	80.2841
{$\Upsilon$}	[]	10
{$\Xi$}	[]	17
