Q	U	V
{$V$}	{[mm$^3$]}	0.00311586
{$d_v$}	{[mm]}	0.181215
{$S_c$}	{[mm$^2$]}	0.180928
{$S_o$}	{[mm$^2$]}	0.0928972
{$S_l/S_o$}	[]	0.947615
{$\Psi$}	[]	0.570204
{$\eta$}	[]	0.586742
{med($\theta_e$)}	{[$^\circ$]}	62.1345
{$\Upsilon$}	[]	17
{$\Xi$}	[]	8
