Q	U	V
{$V$}	{[mm$^3$]}	0.0109601
{$d_v$}	{[mm]}	0.275595
{$S_c$}	{[mm$^2$]}	0.344597
{$S_o$}	{[mm$^2$]}	0.282949
{$S_l/S_o$}	[]	0.217877
{$\Psi$}	[]	0.69244
{$\eta$}	[]	0.752212
{med($\theta_e$)}	{[$^\circ$]}	63.4251
{$\Upsilon$}	[]	13
{$\Xi$}	[]	7
