Q	U	V
{$V$}	{[mm$^3$]}	0.00206378
{$d_v$}	{[mm]}	0.157963
{$S_c$}	{[mm$^2$]}	0.129418
{$S_o$}	{[mm$^2$]}	0.0337445
{$S_l/S_o$}	[]	2.835232
{$\Psi$}	[]	0.60571
{$\eta$}	[]	0.624667
{med($\theta_e$)}	{[$^\circ$]}	54.0647
{$\Upsilon$}	[]	15
{$\Xi$}	[]	5
