Q	U	V
{$V$}	{[mm$^3$]}	0.00536726
{$d_v$}	{[mm]}	0.217229
{$S_c$}	{[mm$^2$]}	0.27722
{$S_o$}	{[mm$^2$]}	0.156439
{$S_l/S_o$}	[]	0.772065
{$\Psi$}	[]	0.534763
{$\eta$}	[]	0.591173
{med($\theta_e$)}	{[$^\circ$]}	
{$\Upsilon$}	[]	21
{$\Xi$}	[]	11
