Q	U	V
{$V$}	{[mm$^3$]}	0.00356471
{$d_v$}	{[mm]}	0.189529
{$S_c$}	{[mm$^2$]}	0.179503
{$S_o$}	{[mm$^2$]}	0.147945
{$S_l/S_o$}	[]	0.213309
{$\Psi$}	[]	0.628678
{$\eta$}	[]	0.654184
{med($\theta_e$)}	{[$^\circ$]}	63.58565
{$\Upsilon$}	[]	15
{$\Xi$}	[]	8
