Q	U	V
{$V$}	{[mm$^3$]}	0.00661883
{$d_v$}	{[mm]}	0.232949
{$S_c$}	{[mm$^2$]}	0.405488
{$S_o$}	{[mm$^2$]}	0.217644
{$S_l/S_o$}	[]	0.863079
{$\Psi$}	[]	0.42043
{$\eta$}	[]	0.436087
{med($\theta_e$)}	{[$^\circ$]}	66.1275
{$\Upsilon$}	[]	14
{$\Xi$}	[]	14
