Q	U	V
{$V$}	{[mm$^3$]}	0.00827294
{$d_v$}	{[mm]}	0.250931
{$S_c$}	{[mm$^2$]}	0.287677
{$S_o$}	{[mm$^2$]}	0.188667
{$S_l/S_o$}	[]	0.524787
{$\Psi$}	[]	0.687626
{$\eta$}	[]	0.714082
{med($\theta_e$)}	{[$^\circ$]}	54.4908
{$\Upsilon$}	[]	16
{$\Xi$}	[]	14
