Q	U	V
{$V$}	{[mm$^3$]}	0.00414419
{$d_v$}	{[mm]}	0.199288
{$S_c$}	{[mm$^2$]}	0.215502
{$S_o$}	{[mm$^2$]}	0.117162
{$S_l/S_o$}	[]	0.839351
{$\Psi$}	[]	0.578974
{$\eta$}	[]	0.617720
{med($\theta_e$)}	{[$^\circ$]}	56.1321
{$\Upsilon$}	[]	15
{$\Xi$}	[]	9
