Q	U	V
{$V$}	{[mm$^3$]}	0.00269669
{$d_v$}	{[mm]}	0.172694
{$S_c$}	{[mm$^2$]}	0.140882
{$S_o$}	{[mm$^2$]}	0.0917716
{$S_l/S_o$}	[]	0.535137
{$\Psi$}	[]	0.665042
{$\eta$}	[]	0.736659
{med($\theta_e$)}	{[$^\circ$]}	63.60685
{$\Upsilon$}	[]	9
{$\Xi$}	[]	11
