Q	U	V
{$V$}	{[mm$^3$]}	0.00732298
{$d_v$}	{[mm]}	0.240933
{$S_c$}	{[mm$^2$]}	0.246363
{$S_o$}	{[mm$^2$]}	0.194716
{$S_l/S_o$}	[]	0.265243
{$\Psi$}	[]	0.740231
{$\eta$}	[]	0.796025
{med($\theta_e$)}	{[$^\circ$]}	54.6613
{$\Upsilon$}	[]	15
{$\Xi$}	[]	8
