Q	U	V
{$V$}	{[mm$^3$]}	0.00400526
{$d_v$}	{[mm]}	0.197035
{$S_c$}	{[mm$^2$]}	0.232718
{$S_o$}	{[mm$^2$]}	0.136225
{$S_l/S_o$}	[]	0.708335
{$\Psi$}	[]	0.524093
{$\eta$}	[]	0.537002
{med($\theta_e$)}	{[$^\circ$]}	
{$\Upsilon$}	[]	16
{$\Xi$}	[]	8
