Q	U	V
{$V$}	{[mm$^3$]}	0.0155817
{$d_v$}	{[mm]}	0.309888
{$S_c$}	{[mm$^2$]}	0.58259
{$S_o$}	{[mm$^2$]}	0.37518
{$S_l/S_o$}	[]	0.552828
{$\Psi$}	[]	0.517842
{$\eta$}	[]	0.532416
{med($\theta_e$)}	{[$^\circ$]}	67.8256
{$\Upsilon$}	[]	13
{$\Xi$}	[]	15
