Q	U	V
{$V$}	{[mm$^3$]}	0.00763528
{$d_v$}	{[mm]}	0.244310
{$S_c$}	{[mm$^2$]}	0.331847
{$S_o$}	{[mm$^2$]}	0.188702
{$S_l/S_o$}	[]	0.758577
{$\Psi$}	[]	0.565062
{$\eta$}	[]	0.595371
{med($\theta_e$)}	{[$^\circ$]}	60.4878
{$\Upsilon$}	[]	15
{$\Xi$}	[]	7
