Q	U	V
{$V$}	{[mm$^3$]}	0.00453248
{$d_v$}	{[mm]}	0.205327
{$S_c$}	{[mm$^2$]}	0.233638
{$S_o$}	{[mm$^2$]}	0.15075
{$S_l/S_o$}	[]	0.549837
{$\Psi$}	[]	0.566889
{$\eta$}	[]	0.654872
{med($\theta_e$)}	{[$^\circ$]}	68.2286
{$\Upsilon$}	[]	11
{$\Xi$}	[]	11
