Q	U	V
{$V$}	{[mm$^3$]}	0.0059966
{$d_v$}	{[mm]}	0.225408
{$S_c$}	{[mm$^2$]}	0.23861
{$S_o$}	{[mm$^2$]}	0.149146
{$S_l/S_o$}	[]	0.599842
{$\Psi$}	[]	0.668958
{$\eta$}	[]	0.713654
{med($\theta_e$)}	{[$^\circ$]}	49.3636
{$\Upsilon$}	[]	17
{$\Xi$}	[]	4
