Q	U	V
{$V$}	{[mm$^3$]}	0.0130655
{$d_v$}	{[mm]}	0.292219
{$S_c$}	{[mm$^2$]}	0.494185
{$S_o$}	{[mm$^2$]}	0.291001
{$S_l/S_o$}	[]	0.698224
{$\Psi$}	[]	0.542848
{$\eta$}	[]	0.562318
{med($\theta_e$)}	{[$^\circ$]}	80.1594
{$\Upsilon$}	[]	14
{$\Xi$}	[]	16
