Q	U	V
{$V$}	{[mm$^3$]}	0.00715318
{$d_v$}	{[mm]}	0.239056
{$S_c$}	{[mm$^2$]}	0.396389
{$S_o$}	{[mm$^2$]}	0.203844
{$S_l/S_o$}	[]	0.944570
{$\Psi$}	[]	0.452927
{$\eta$}	[]	0.492713
{med($\theta_e$)}	{[$^\circ$]}	74.8775
{$\Upsilon$}	[]	14
{$\Xi$}	[]	12
