Q	U	V
{$V$}	{[mm$^3$]}	0.00750822
{$d_v$}	{[mm]}	0.242948
{$S_c$}	{[mm$^2$]}	0.275614
{$S_o$}	{[mm$^2$]}	0.173072
{$S_l/S_o$}	[]	0.592482
{$\Psi$}	[]	0.672782
{$\eta$}	[]	0.707359
{med($\theta_e$)}	{[$^\circ$]}	59.035
{$\Upsilon$}	[]	16
{$\Xi$}	[]	9
