Q	U	V
{$V$}	{[mm$^3$]}	0.0149416
{$d_v$}	{[mm]}	0.305586
{$S_c$}	{[mm$^2$]}	0.471157
{$S_o$}	{[mm$^2$]}	0.336997
{$S_l/S_o$}	[]	0.398104
{$\Psi$}	[]	0.622658
{$\eta$}	[]	0.651354
{med($\theta_e$)}	{[$^\circ$]}	68.8106
{$\Upsilon$}	[]	12
{$\Xi$}	[]	10
