Q	U	V
{$V$}	{[mm$^3$]}	0.00267175
{$d_v$}	{[mm]}	0.172160
{$S_c$}	{[mm$^2$]}	0.157768
{$S_o$}	{[mm$^2$]}	0.0974757
{$S_l/S_o$}	[]	0.618537
{$\Psi$}	[]	0.590195
{$\eta$}	[]	0.609027
{med($\theta_e$)}	{[$^\circ$]}	56.2036
{$\Upsilon$}	[]	15
{$\Xi$}	[]	5
