Q	U	V
{$V$}	{[mm$^3$]}	0.00812688
{$d_v$}	{[mm]}	0.249445
{$S_c$}	{[mm$^2$]}	0.383053
{$S_o$}	{[mm$^2$]}	0.224497
{$S_l/S_o$}	[]	0.706272
{$\Psi$}	[]	0.510318
{$\eta$}	[]	0.547107
{med($\theta_e$)}	{[$^\circ$]}	77.03075
{$\Upsilon$}	[]	13
{$\Xi$}	[]	12
