Q	U	V
{$V$}	{[mm$^3$]}	0.00171824
{$d_v$}	{[mm]}	0.148603
{$S_c$}	{[mm$^2$]}	0.129648
{$S_o$}	{[mm$^2$]}	0.061258
{$S_l/S_o$}	[]	1.116426
{$\Psi$}	[]	0.535107
{$\eta$}	[]	0.559415
{med($\theta_e$)}	{[$^\circ$]}	69.4062
{$\Upsilon$}	[]	12
{$\Xi$}	[]	3
