Q	U	V
{$V$}	{[mm$^3$]}	0.00252689
{$d_v$}	{[mm]}	0.168991
{$S_c$}	{[mm$^2$]}	0.120827
{$S_o$}	{[mm$^2$]}	0.0726722
{$S_l/S_o$}	[]	0.662630
{$\Psi$}	[]	0.742525
{$\eta$}	[]	0.775986
{med($\theta_e$)}	{[$^\circ$]}	55.9189
{$\Upsilon$}	[]	13
{$\Xi$}	[]	11
