Q	U	V
{$V$}	{[mm$^3$]}	0.00614385
{$d_v$}	{[mm]}	0.227238
{$S_c$}	{[mm$^2$]}	0.295775
{$S_o$}	{[mm$^2$]}	0.187625
{$S_l/S_o$}	[]	0.576416
{$\Psi$}	[]	0.548466
{$\eta$}	[]	0.663045
{med($\theta_e$)}	{[$^\circ$]}	56.10245
{$\Upsilon$}	[]	13
{$\Xi$}	[]	5
