Q	U	V
{$V$}	{[mm$^3$]}	0.00241527
{$d_v$}	{[mm]}	0.166465
{$S_c$}	{[mm$^2$]}	0.204546
{$S_o$}	{[mm$^2$]}	0.107839
{$S_l/S_o$}	[]	0.896772
{$\Psi$}	[]	0.425602
{$\eta$}	[]	0.502083
{med($\theta_e$)}	{[$^\circ$]}	
{$\Upsilon$}	[]	14
{$\Xi$}	[]	12
