Q	U	V
{$V$}	{[mm$^3$]}	0.0180931
{$d_v$}	{[mm]}	0.325715
{$S_c$}	{[mm$^2$]}	0.552424
{$S_o$}	{[mm$^2$]}	0.393021
{$S_l/S_o$}	[]	0.405584
{$\Psi$}	[]	0.603328
{$\eta$}	[]	0.648040
{med($\theta_e$)}	{[$^\circ$]}	72.7393
{$\Upsilon$}	[]	11
{$\Xi$}	[]	17
