Q	U	V
{$V$}	{[mm$^3$]}	0.00543138
{$d_v$}	{[mm]}	0.218091
{$S_c$}	{[mm$^2$]}	0.3101
{$S_o$}	{[mm$^2$]}	0.149587
{$S_l/S_o$}	[]	1.073041
{$\Psi$}	[]	0.481862
{$\eta$}	[]	0.505414
{med($\theta_e$)}	{[$^\circ$]}	78.67325
{$\Upsilon$}	[]	15
{$\Xi$}	[]	6
