Q	U	V
{$V$}	{[mm$^3$]}	0.00280356
{$d_v$}	{[mm]}	0.174946
{$S_c$}	{[mm$^2$]}	0.166277
{$S_o$}	{[mm$^2$]}	0.0995082
{$S_l/S_o$}	[]	0.670988
{$\Psi$}	[]	0.578263
{$\eta$}	[]	0.616622
{med($\theta_e$)}	{[$^\circ$]}	56.5493
{$\Upsilon$}	[]	18
{$\Xi$}	[]	5
