Q	U	V
{$V$}	{[mm$^3$]}	0.00404801
{$d_v$}	{[mm]}	0.197734
{$S_c$}	{[mm$^2$]}	0.159279
{$S_o$}	{[mm$^2$]}	0.0982144
{$S_l/S_o$}	[]	0.621748
{$\Psi$}	[]	0.771176
{$\eta$}	[]	0.780436
{med($\theta_e$)}	{[$^\circ$]}	53.8967
{$\Upsilon$}	[]	17
{$\Xi$}	[]	3
