Q	U	V
{$V$}	{[mm$^3$]}	0.00932027
{$d_v$}	{[mm]}	0.261102
{$S_c$}	{[mm$^2$]}	0.365116
{$S_o$}	{[mm$^2$]}	0.236618
{$S_l/S_o$}	[]	0.543061
{$\Psi$}	[]	0.586596
{$\eta$}	[]	0.617475
{med($\theta_e$)}	{[$^\circ$]}	73.1093
{$\Upsilon$}	[]	15
{$\Xi$}	[]	5
