Q	U	V
{$V$}	{[mm$^3$]}	0.0129289
{$d_v$}	{[mm]}	0.291198
{$S_c$}	{[mm$^2$]}	0.483357
{$S_o$}	{[mm$^2$]}	0.299078
{$S_l/S_o$}	[]	0.616157
{$\Psi$}	[]	0.551134
{$\eta$}	[]	0.610656
{med($\theta_e$)}	{[$^\circ$]}	62.49985
{$\Upsilon$}	[]	12
{$\Xi$}	[]	13
