Q	U	V
{$V$}	{[mm$^3$]}	0.00599067
{$d_v$}	{[mm]}	0.225333
{$S_c$}	{[mm$^2$]}	0.230951
{$S_o$}	{[mm$^2$]}	0.153523
{$S_l/S_o$}	[]	0.504341
{$\Psi$}	[]	0.690687
{$\eta$}	[]	0.749388
{med($\theta_e$)}	{[$^\circ$]}	50.4884
{$\Upsilon$}	[]	15
{$\Xi$}	[]	9
