Q	U	V
{$V$}	{[mm$^3$]}	0.00555844
{$d_v$}	{[mm]}	0.219778
{$S_c$}	{[mm$^2$]}	0.270334
{$S_o$}	{[mm$^2$]}	0.171375
{$S_l/S_o$}	[]	0.577441
{$\Psi$}	[]	0.561331
{$\eta$}	[]	0.589867
{med($\theta_e$)}	{[$^\circ$]}	71.4615
{$\Upsilon$}	[]	12
{$\Xi$}	[]	11
