Q	U	V
{$V$}	{[mm$^3$]}	0.00470348
{$d_v$}	{[mm]}	0.207877
{$S_c$}	{[mm$^2$]}	0.255251
{$S_o$}	{[mm$^2$]}	0.133213
{$S_l/S_o$}	[]	0.916112
{$\Psi$}	[]	0.531859
{$\eta$}	[]	0.558544
{med($\theta_e$)}	{[$^\circ$]}	
{$\Upsilon$}	[]	18
{$\Xi$}	[]	6
