Q	U	V
{$V$}	{[mm$^3$]}	0.00500865
{$d_v$}	{[mm]}	0.212279
{$S_c$}	{[mm$^2$]}	0.327728
{$S_o$}	{[mm$^2$]}	0.175826
{$S_l/S_o$}	[]	0.863934
{$\Psi$}	[]	0.431967
{$\eta$}	[]	0.441665
{med($\theta_e$)}	{[$^\circ$]}	113.31
{$\Upsilon$}	[]	18
{$\Xi$}	[]	5
