Q	U	V
{$V$}	{[mm$^3$]}	0.00467735
{$d_v$}	{[mm]}	0.207492
{$S_c$}	{[mm$^2$]}	0.26238
{$S_o$}	{[mm$^2$]}	0.131879
{$S_l/S_o$}	[]	0.989551
{$\Psi$}	[]	0.51549
{$\eta$}	[]	0.553998
{med($\theta_e$)}	{[$^\circ$]}	72.7741
{$\Upsilon$}	[]	15
{$\Xi$}	[]	17
