Q	U	V
{$V$}	{[mm$^3$]}	0.00693113
{$d_v$}	{[mm]}	0.236557
{$S_c$}	{[mm$^2$]}	0.337287
{$S_o$}	{[mm$^2$]}	0.20252
{$S_l/S_o$}	[]	0.665450
{$\Psi$}	[]	0.521219
{$\eta$}	[]	0.582116
{med($\theta_e$)}	{[$^\circ$]}	71.8706
{$\Upsilon$}	[]	9
{$\Xi$}	[]	19
