Q	U	V
{$V$}	{[mm$^3$]}	0.00872417
{$d_v$}	{[mm]}	0.255412
{$S_c$}	{[mm$^2$]}	0.373138
{$S_o$}	{[mm$^2$]}	0.225847
{$S_l/S_o$}	[]	0.652172
{$\Psi$}	[]	0.549242
{$\eta$}	[]	0.563515
{med($\theta_e$)}	{[$^\circ$]}	49.38805
{$\Upsilon$}	[]	15
{$\Xi$}	[]	18
