Q	U	V
{$V$}	{[mm$^3$]}	0.00546107
{$d_v$}	{[mm]}	0.218487
{$S_c$}	{[mm$^2$]}	0.359048
{$S_o$}	{[mm$^2$]}	0.19875
{$S_l/S_o$}	[]	0.806531
{$\Psi$}	[]	0.417686
{$\eta$}	[]	0.726209
{med($\theta_e$)}	{[$^\circ$]}	
{$\Upsilon$}	[]	17
{$\Xi$}	[]	14
