Q	U	V
{$V$}	{[mm$^3$]}	0.00761153
{$d_v$}	{[mm]}	0.244057
{$S_c$}	{[mm$^2$]}	0.395051
{$S_o$}	{[mm$^2$]}	0.22854
{$S_l/S_o$}	[]	0.728586
{$\Psi$}	[]	0.473673
{$\eta$}	[]	0.530795
{med($\theta_e$)}	{[$^\circ$]}	65.46075
{$\Upsilon$}	[]	10
{$\Xi$}	[]	17
