Q	U	V
{$V$}	{[mm$^3$]}	0.014184
{$d_v$}	{[mm]}	0.300331
{$S_c$}	{[mm$^2$]}	0.524651
{$S_o$}	{[mm$^2$]}	0.324396
{$S_l/S_o$}	[]	0.617316
{$\Psi$}	[]	0.540107
{$\eta$}	[]	0.595226
{med($\theta_e$)}	{[$^\circ$]}	52.8289
{$\Upsilon$}	[]	16
{$\Xi$}	[]	13
