Q	U	V
{$V$}	{[mm$^3$]}	0.00557031
{$d_v$}	{[mm]}	0.219935
{$S_c$}	{[mm$^2$]}	0.281847
{$S_o$}	{[mm$^2$]}	0.173791
{$S_l/S_o$}	[]	0.621758
{$\Psi$}	[]	0.539167
{$\eta$}	[]	0.587159
{med($\theta_e$)}	{[$^\circ$]}	67.5656
{$\Upsilon$}	[]	15
{$\Xi$}	[]	8
