Q	U	V
{$V$}	{[mm$^3$]}	0.0158738
{$d_v$}	{[mm]}	0.311813
{$S_c$}	{[mm$^2$]}	0.542533
{$S_o$}	{[mm$^2$]}	0.347009
{$S_l/S_o$}	[]	0.563455
{$\Psi$}	[]	0.563005
{$\eta$}	[]	0.584783
{med($\theta_e$)}	{[$^\circ$]}	69.949
{$\Upsilon$}	[]	13
{$\Xi$}	[]	15
