Q	U	V
{$V$}	{[mm$^3$]}	0.00935945
{$d_v$}	{[mm]}	0.261467
{$S_c$}	{[mm$^2$]}	0.324727
{$S_o$}	{[mm$^2$]}	0.225724
{$S_l/S_o$}	[]	0.438602
{$\Psi$}	[]	0.661403
{$\eta$}	[]	0.680184
{med($\theta_e$)}	{[$^\circ$]}	61.012
{$\Upsilon$}	[]	13
{$\Xi$}	[]	9
