Q	U	V
{$V$}	{[mm$^3$]}	0.00766378
{$d_v$}	{[mm]}	0.244614
{$S_c$}	{[mm$^2$]}	0.317573
{$S_o$}	{[mm$^2$]}	0.219513
{$S_l/S_o$}	[]	0.446716
{$\Psi$}	[]	0.591928
{$\eta$}	[]	0.635322
{med($\theta_e$)}	{[$^\circ$]}	72.2832
{$\Upsilon$}	[]	10
{$\Xi$}	[]	20
