Q	U	V
{$V$}	{[mm$^3$]}	0.0134668
{$d_v$}	{[mm]}	0.295181
{$S_c$}	{[mm$^2$]}	0.562059
{$S_o$}	{[mm$^2$]}	0.326756
{$S_l/S_o$}	[]	0.720118
{$\Psi$}	[]	0.487018
{$\eta$}	[]	0.515211
{med($\theta_e$)}	{[$^\circ$]}	62.8234
{$\Upsilon$}	[]	11
{$\Xi$}	[]	10
