Q	U	V
{$V$}	{[mm$^3$]}	0.0138801
{$d_v$}	{[mm]}	0.298170
{$S_c$}	{[mm$^2$]}	0.522887
{$S_o$}	{[mm$^2$]}	0.345372
{$S_l/S_o$}	[]	0.513982
{$\Psi$}	[]	0.53416
{$\eta$}	[]	0.556663
{med($\theta_e$)}	{[$^\circ$]}	57.49235
{$\Upsilon$}	[]	16
{$\Xi$}	[]	32
