Q	U	V
{$V$}	{[mm$^3$]}	0.00986531
{$d_v$}	{[mm]}	0.266095
{$S_c$}	{[mm$^2$]}	0.430224
{$S_o$}	{[mm$^2$]}	0.257638
{$S_l/S_o$}	[]	0.669878
{$\Psi$}	[]	0.517047
{$\eta$}	[]	0.577811
{med($\theta_e$)}	{[$^\circ$]}	65.21195
{$\Upsilon$}	[]	12
{$\Xi$}	[]	18
