Q	U	V
{$V$}	{[mm$^3$]}	0.0104139
{$d_v$}	{[mm]}	0.270939
{$S_c$}	{[mm$^2$]}	0.477403
{$S_o$}	{[mm$^2$]}	0.26105
{$S_l/S_o$}	[]	0.828780
{$\Psi$}	[]	0.483068
{$\eta$}	[]	0.527010
{med($\theta_e$)}	{[$^\circ$]}	78.0219
{$\Upsilon$}	[]	15
{$\Xi$}	[]	13
