Q	U	V
{$V$}	{[mm$^3$]}	0.00318829
{$d_v$}	{[mm]}	0.182608
{$S_c$}	{[mm$^2$]}	0.222338
{$S_o$}	{[mm$^2$]}	0.11552
{$S_l/S_o$}	[]	0.924671
{$\Psi$}	[]	0.471168
{$\eta$}	[]	0.506036
{med($\theta_e$)}	{[$^\circ$]}	74.4011
{$\Upsilon$}	[]	12
{$\Xi$}	[]	14
