Q	U	V
{$V$}	{[mm$^3$]}	0.00256013
{$d_v$}	{[mm]}	0.169728
{$S_c$}	{[mm$^2$]}	0.134862
{$S_o$}	{[mm$^2$]}	0.0879866
{$S_l/S_o$}	[]	0.532756
{$\Psi$}	[]	0.671072
{$\eta$}	[]	0.699902
{med($\theta_e$)}	{[$^\circ$]}	57.60405
{$\Upsilon$}	[]	15
{$\Xi$}	[]	7
