Q	U	V
{$V$}	{[mm$^3$]}	0.0107773
{$d_v$}	{[mm]}	0.274055
{$S_c$}	{[mm$^2$]}	0.476835
{$S_o$}	{[mm$^2$]}	0.279658
{$S_l/S_o$}	[]	0.705065
{$\Psi$}	[]	0.49483
{$\eta$}	[]	0.552099
{med($\theta_e$)}	{[$^\circ$]}	56.00485
{$\Upsilon$}	[]	17
{$\Xi$}	[]	10
