Q	U	V
{$V$}	{[mm$^3$]}	0.00843562
{$d_v$}	{[mm]}	0.252565
{$S_c$}	{[mm$^2$]}	0.285526
{$S_o$}	{[mm$^2$]}	0.206724
{$S_l/S_o$}	[]	0.381194
{$\Psi$}	[]	0.701859
{$\eta$}	[]	0.721244
{med($\theta_e$)}	{[$^\circ$]}	79.24915
{$\Upsilon$}	[]	10
{$\Xi$}	[]	7
