Q	U	V
{$V$}	{[mm$^3$]}	0.00435318
{$d_v$}	{[mm]}	0.202583
{$S_c$}	{[mm$^2$]}	0.257906
{$S_o$}	{[mm$^2$]}	0.151395
{$S_l/S_o$}	[]	0.703530
{$\Psi$}	[]	0.499912
{$\eta$}	[]	0.577362
{med($\theta_e$)}	{[$^\circ$]}	57.2264
{$\Upsilon$}	[]	15
{$\Xi$}	[]	19
