Q	U	V
{$V$}	{[mm$^3$]}	0.00631247
{$d_v$}	{[mm]}	0.229298
{$S_c$}	{[mm$^2$]}	0.279309
{$S_o$}	{[mm$^2$]}	0.177369
{$S_l/S_o$}	[]	0.574734
{$\Psi$}	[]	0.591378
{$\eta$}	[]	0.593339
{med($\theta_e$)}	{[$^\circ$]}	61.0711
{$\Upsilon$}	[]	19
{$\Xi$}	[]	5
