Q	U	V
{$V$}	{[mm$^3$]}	0.002667
{$d_v$}	{[mm]}	0.172058
{$S_c$}	{[mm$^2$]}	0.199847
{$S_o$}	{[mm$^2$]}	0.104693
{$S_l/S_o$}	[]	0.908886
{$\Psi$}	[]	0.465374
{$\eta$}	[]	0.599033
{med($\theta_e$)}	{[$^\circ$]}	83.7116
{$\Upsilon$}	[]	16
{$\Xi$}	[]	11
