Q	U	V
{$V$}	{[mm$^3$]}	0.00631722
{$d_v$}	{[mm]}	0.229355
{$S_c$}	{[mm$^2$]}	0.384864
{$S_o$}	{[mm$^2$]}	0.206155
{$S_l/S_o$}	[]	0.866867
{$\Psi$}	[]	0.429399
{$\eta$}	[]	0.501291
{med($\theta_e$)}	{[$^\circ$]}	63.8129
{$\Upsilon$}	[]	12
{$\Xi$}	[]	7
