Q	U	V
{$V$}	{[mm$^3$]}	0.0169294
{$d_v$}	{[mm]}	0.318577
{$S_c$}	{[mm$^2$]}	0.760821
{$S_o$}	{[mm$^2$]}	0.49828
{$S_l/S_o$}	[]	0.526895
{$\Psi$}	[]	0.419079
{$\eta$}	[]	0.609317
{med($\theta_e$)}	{[$^\circ$]}	82.1363
{$\Upsilon$}	[]	7
{$\Xi$}	[]	18
