Q	U	V
{$V$}	{[mm$^3$]}	0.00605954
{$d_v$}	{[mm]}	0.226194
{$S_c$}	{[mm$^2$]}	0.28412
{$S_o$}	{[mm$^2$]}	0.170874
{$S_l/S_o$}	[]	0.662746
{$\Psi$}	[]	0.565729
{$\eta$}	[]	0.603868
{med($\theta_e$)}	{[$^\circ$]}	60.4395
{$\Upsilon$}	[]	16
{$\Xi$}	[]	9
