Q	U	V
{$V$}	{[mm$^3$]}	0.00266819
{$d_v$}	{[mm]}	0.172084
{$S_c$}	{[mm$^2$]}	0.146246
{$S_o$}	{[mm$^2$]}	0.0847347
{$S_l/S_o$}	[]	0.725928
{$\Psi$}	[]	0.636128
{$\eta$}	[]	0.681212
{med($\theta_e$)}	{[$^\circ$]}	53.6422
{$\Upsilon$}	[]	14
{$\Xi$}	[]	5
