Q	U	V
{$V$}	{[mm$^3$]}	0.00521645
{$d_v$}	{[mm]}	0.215175
{$S_c$}	{[mm$^2$]}	0.298823
{$S_o$}	{[mm$^2$]}	0.170968
{$S_l/S_o$}	[]	0.747830
{$\Psi$}	[]	0.486766
{$\eta$}	[]	0.566948
{med($\theta_e$)}	{[$^\circ$]}	67.8303
{$\Upsilon$}	[]	10
{$\Xi$}	[]	6
