Q	U	V
{$V$}	{[mm$^3$]}	0.00829669
{$d_v$}	{[mm]}	0.251171
{$S_c$}	{[mm$^2$]}	0.417958
{$S_o$}	{[mm$^2$]}	0.237307
{$S_l/S_o$}	[]	0.761254
{$\Psi$}	[]	0.474193
{$\eta$}	[]	0.487245
{med($\theta_e$)}	{[$^\circ$]}	79.473
{$\Upsilon$}	[]	15
{$\Xi$}	[]	9
