Q	U	V
{$V$}	{[mm$^3$]}	0.0045408
{$d_v$}	{[mm]}	0.205452
{$S_c$}	{[mm$^2$]}	0.241918
{$S_o$}	{[mm$^2$]}	0.132695
{$S_l/S_o$}	[]	0.823113
{$\Psi$}	[]	0.548156
{$\eta$}	[]	0.591878
{med($\theta_e$)}	{[$^\circ$]}	59.35375
{$\Upsilon$}	[]	15
{$\Xi$}	[]	7
