Q	U	V
{$V$}	{[mm$^3$]}	0.00172892
{$d_v$}	{[mm]}	0.148911
{$S_c$}	{[mm$^2$]}	0.113334
{$S_o$}	{[mm$^2$]}	0.0662988
{$S_l/S_o$}	[]	0.709443
{$\Psi$}	[]	0.614668
{$\eta$}	[]	0.692429
{med($\theta_e$)}	{[$^\circ$]}	61.2125
{$\Upsilon$}	[]	15
{$\Xi$}	[]	11
