Q	U	V
{$V$}	{[mm$^3$]}	0.00694062
{$d_v$}	{[mm]}	0.236665
{$S_c$}	{[mm$^2$]}	0.294699
{$S_o$}	{[mm$^2$]}	0.182165
{$S_l/S_o$}	[]	0.617759
{$\Psi$}	[]	0.597087
{$\eta$}	[]	0.621366
{med($\theta_e$)}	{[$^\circ$]}	73.3152
{$\Upsilon$}	[]	10
{$\Xi$}	[]	12
