Q	U	V
{$V$}	{[mm$^3$]}	0.00164699
{$d_v$}	{[mm]}	0.146520
{$S_c$}	{[mm$^2$]}	0.117817
{$S_o$}	{[mm$^2$]}	0.0650877
{$S_l/S_o$}	[]	0.810127
{$\Psi$}	[]	0.572449
{$\eta$}	[]	0.593471
{med($\theta_e$)}	{[$^\circ$]}	50.14255
{$\Upsilon$}	[]	17
{$\Xi$}	[]	8
