Q	U	V
{$V$}	{[mm$^3$]}	0.0164639
{$d_v$}	{[mm]}	0.315630
{$S_c$}	{[mm$^2$]}	0.62384
{$S_o$}	{[mm$^2$]}	0.355494
{$S_l/S_o$}	[]	0.754854
{$\Psi$}	[]	0.501687
{$\eta$}	[]	0.524179
{med($\theta_e$)}	{[$^\circ$]}	64.3748
{$\Upsilon$}	[]	11
{$\Xi$}	[]	17
