Q	U	V
{$V$}	{[mm$^3$]}	0.0071793
{$d_v$}	{[mm]}	0.239347
{$S_c$}	{[mm$^2$]}	0.297106
{$S_o$}	{[mm$^2$]}	0.189922
{$S_l/S_o$}	[]	0.564358
{$\Psi$}	[]	0.605751
{$\eta$}	[]	0.632825
{med($\theta_e$)}	{[$^\circ$]}	51.21995
{$\Upsilon$}	[]	17
{$\Xi$}	[]	12
