Q	U	V
{$V$}	{[mm$^3$]}	0.00347922
{$d_v$}	{[mm]}	0.188001
{$S_c$}	{[mm$^2$]}	0.179882
{$S_o$}	{[mm$^2$]}	0.107853
{$S_l/S_o$}	[]	0.667844
{$\Psi$}	[]	0.617283
{$\eta$}	[]	0.670045
{med($\theta_e$)}	{[$^\circ$]}	52.84645
{$\Upsilon$}	[]	17
{$\Xi$}	[]	13
