Q	U	V
{$V$}	{[mm$^3$]}	0.00184767
{$d_v$}	{[mm]}	0.152245
{$S_c$}	{[mm$^2$]}	0.162058
{$S_o$}	{[mm$^2$]}	0.100062
{$S_l/S_o$}	[]	0.619576
{$\Psi$}	[]	0.449328
{$\eta$}	[]	0.545011
{med($\theta_e$)}	{[$^\circ$]}	76.3086
{$\Upsilon$}	[]	14
{$\Xi$}	[]	8
