Q	U	V
{$V$}	{[mm$^3$]}	0.00597998
{$d_v$}	{[mm]}	0.225199
{$S_c$}	{[mm$^2$]}	0.355662
{$S_o$}	{[mm$^2$]}	0.200047
{$S_l/S_o$}	[]	0.777892
{$\Psi$}	[]	0.447967
{$\eta$}	[]	0.470121
{med($\theta_e$)}	{[$^\circ$]}	92.0788
{$\Upsilon$}	[]	11
{$\Xi$}	[]	6
