Q	U	V
{$V$}	{[mm$^3$]}	0.00770297
{$d_v$}	{[mm]}	0.245030
{$S_c$}	{[mm$^2$]}	0.318038
{$S_o$}	{[mm$^2$]}	0.198035
{$S_l/S_o$}	[]	0.605969
{$\Psi$}	[]	0.593076
{$\eta$}	[]	0.619533
{med($\theta_e$)}	{[$^\circ$]}	61.4419
{$\Upsilon$}	[]	11
{$\Xi$}	[]	8
