Q	U	V
{$V$}	{[mm$^3$]}	0.00193198
{$d_v$}	{[mm]}	0.154526
{$S_c$}	{[mm$^2$]}	0.12845
{$S_o$}	{[mm$^2$]}	0.0807113
{$S_l/S_o$}	[]	0.591475
{$\Psi$}	[]	0.584008
{$\eta$}	[]	0.667172
{med($\theta_e$)}	{[$^\circ$]}	50.2131
{$\Upsilon$}	[]	15
{$\Xi$}	[]	5
