Q	U	V
{$V$}	{[mm$^3$]}	0.00478541
{$d_v$}	{[mm]}	0.209077
{$S_c$}	{[mm$^2$]}	0.230428
{$S_o$}	{[mm$^2$]}	0.134957
{$S_l/S_o$}	[]	0.707418
{$\Psi$}	[]	0.595975
{$\eta$}	[]	0.637757
{med($\theta_e$)}	{[$^\circ$]}	54.52985
{$\Upsilon$}	[]	14
{$\Xi$}	[]	13
