Q	U	V
{$V$}	{[mm$^3$]}	0.00201153
{$d_v$}	{[mm]}	0.156618
{$S_c$}	{[mm$^2$]}	0.171345
{$S_o$}	{[mm$^2$]}	0.0882049
{$S_l/S_o$}	[]	0.942579
{$\Psi$}	[]	0.449742
{$\eta$}	[]	0.499144
{med($\theta_e$)}	{[$^\circ$]}	57.15045
{$\Upsilon$}	[]	16
{$\Xi$}	[]	8
