Q	U	V
{$V$}	{[mm$^3$]}	0.00199372
{$d_v$}	{[mm]}	0.156155
{$S_c$}	{[mm$^2$]}	0.116374
{$S_o$}	{[mm$^2$]}	0.0664717
{$S_l/S_o$}	[]	0.750730
{$\Psi$}	[]	0.65827
{$\eta$}	[]	0.680216
{med($\theta_e$)}	{[$^\circ$]}	121.633
{$\Upsilon$}	[]	12
{$\Xi$}	[]	7
