Q	U	V
{$V$}	{[mm$^3$]}	0.00576387
{$d_v$}	{[mm]}	0.222453
{$S_c$}	{[mm$^2$]}	0.250729
{$S_o$}	{[mm$^2$]}	0.153314
{$S_l/S_o$}	[]	0.635395
{$\Psi$}	[]	0.620044
{$\eta$}	[]	0.635164
{med($\theta_e$)}	{[$^\circ$]}	66.7619
{$\Upsilon$}	[]	13
{$\Xi$}	[]	7
