Q	U	V
{$V$}	{[mm$^3$]}	0.009705
{$d_v$}	{[mm]}	0.264646
{$S_c$}	{[mm$^2$]}	0.442971
{$S_o$}	{[mm$^2$]}	0.266911
{$S_l/S_o$}	[]	0.659621
{$\Psi$}	[]	0.496713
{$\eta$}	[]	0.515108
{med($\theta_e$)}	{[$^\circ$]}	68.163
{$\Upsilon$}	[]	16
{$\Xi$}	[]	9
