Q	U	V
{$V$}	{[mm$^3$]}	0.0152076
{$d_v$}	{[mm]}	0.307388
{$S_c$}	{[mm$^2$]}	0.635656
{$S_o$}	{[mm$^2$]}	0.372556
{$S_l/S_o$}	[]	0.706203
{$\Psi$}	[]	0.466984
{$\eta$}	[]	0.489285
{med($\theta_e$)}	{[$^\circ$]}	57.846
{$\Upsilon$}	[]	14
{$\Xi$}	[]	12
