Q	U	V
{$V$}	{[mm$^3$]}	0.00779796
{$d_v$}	{[mm]}	0.246033
{$S_c$}	{[mm$^2$]}	0.386462
{$S_o$}	{[mm$^2$]}	0.247551
{$S_l/S_o$}	[]	0.561141
{$\Psi$}	[]	0.492075
{$\eta$}	[]	0.510314
{med($\theta_e$)}	{[$^\circ$]}	62.95715
{$\Upsilon$}	[]	10
{$\Xi$}	[]	10
