Q	U	V
{$V$}	{[mm$^3$]}	0.00365734
{$d_v$}	{[mm]}	0.191156
{$S_c$}	{[mm$^2$]}	0.229415
{$S_o$}	{[mm$^2$]}	0.131247
{$S_l/S_o$}	[]	0.747964
{$\Psi$}	[]	0.500387
{$\eta$}	[]	0.552030
{med($\theta_e$)}	{[$^\circ$]}	68.6133
{$\Upsilon$}	[]	9
{$\Xi$}	[]	8
