Q	U	V
{$V$}	{[mm$^3$]}	0.00866242
{$d_v$}	{[mm]}	0.254808
{$S_c$}	{[mm$^2$]}	0.339652
{$S_o$}	{[mm$^2$]}	0.208846
{$S_l/S_o$}	[]	0.626328
{$\Psi$}	[]	0.600541
{$\eta$}	[]	0.621872
{med($\theta_e$)}	{[$^\circ$]}	75.1177
{$\Upsilon$}	[]	18
{$\Xi$}	[]	13
