Q	U	V
{$V$}	{[mm$^3$]}	0.0109696
{$d_v$}	{[mm]}	0.275675
{$S_c$}	{[mm$^2$]}	0.404365
{$S_o$}	{[mm$^2$]}	0.255863
{$S_l/S_o$}	[]	0.580397
{$\Psi$}	[]	0.590434
{$\eta$}	[]	0.633687
{med($\theta_e$)}	{[$^\circ$]}	57.3035
{$\Upsilon$}	[]	18
{$\Xi$}	[]	15
