Q	U	V
{$V$}	{[mm$^3$]}	0.00455386
{$d_v$}	{[mm]}	0.205649
{$S_c$}	{[mm$^2$]}	0.23756
{$S_o$}	{[mm$^2$]}	0.152263
{$S_l/S_o$}	[]	0.560195
{$\Psi$}	[]	0.559282
{$\eta$}	[]	0.620294
{med($\theta_e$)}	{[$^\circ$]}	66.5203
{$\Upsilon$}	[]	13
{$\Xi$}	[]	7
