Q	U	V
{$V$}	{[mm$^3$]}	0.00427481
{$d_v$}	{[mm]}	0.201360
{$S_c$}	{[mm$^2$]}	0.176838
{$S_o$}	{[mm$^2$]}	0.116348
{$S_l/S_o$}	[]	0.519906
{$\Psi$}	[]	0.72031
{$\eta$}	[]	0.744778
{med($\theta_e$)}	{[$^\circ$]}	52.2648
{$\Upsilon$}	[]	13
{$\Xi$}	[]	7
