Q	U	V
{$V$}	{[mm$^3$]}	0.0106419
{$d_v$}	{[mm]}	0.272902
{$S_c$}	{[mm$^2$]}	0.481024
{$S_o$}	{[mm$^2$]}	0.285522
{$S_l/S_o$}	[]	0.684718
{$\Psi$}	[]	0.486404
{$\eta$}	[]	0.531554
{med($\theta_e$)}	{[$^\circ$]}	61.2428
{$\Upsilon$}	[]	11
{$\Xi$}	[]	10
