Q	U	V
{$V$}	{[mm$^3$]}	0.00745835
{$d_v$}	{[mm]}	0.242409
{$S_c$}	{[mm$^2$]}	0.280683
{$S_o$}	{[mm$^2$]}	0.187937
{$S_l/S_o$}	[]	0.493495
{$\Psi$}	[]	0.657703
{$\eta$}	[]	0.691061
{med($\theta_e$)}	{[$^\circ$]}	51.5402
{$\Upsilon$}	[]	15
{$\Xi$}	[]	12
