Q	U	V
{$V$}	{[mm$^3$]}	0.0101669
{$d_v$}	{[mm]}	0.268780
{$S_c$}	{[mm$^2$]}	0.448815
{$S_o$}	{[mm$^2$]}	0.258666
{$S_l/S_o$}	[]	0.735114
{$\Psi$}	[]	0.50568
{$\eta$}	[]	0.513833
{med($\theta_e$)}	{[$^\circ$]}	60.3429
{$\Upsilon$}	[]	14
{$\Xi$}	[]	14
