Q	U	V
{$V$}	{[mm$^3$]}	0.0132032
{$d_v$}	{[mm]}	0.293242
{$S_c$}	{[mm$^2$]}	0.482526
{$S_o$}	{[mm$^2$]}	0.320921
{$S_l/S_o$}	[]	0.503566
{$\Psi$}	[]	0.559864
{$\eta$}	[]	0.622060
{med($\theta_e$)}	{[$^\circ$]}	55.44235
{$\Upsilon$}	[]	15
{$\Xi$}	[]	19
