Q	U	V
{$V$}	{[mm$^3$]}	0.0145082
{$d_v$}	{[mm]}	0.302602
{$S_c$}	{[mm$^2$]}	0.559039
{$S_o$}	{[mm$^2$]}	0.373487
{$S_l/S_o$}	[]	0.496810
{$\Psi$}	[]	0.514578
{$\eta$}	[]	0.539497
{med($\theta_e$)}	{[$^\circ$]}	68.6859
{$\Upsilon$}	[]	10
{$\Xi$}	[]	12
