Q	U	V
{$V$}	{[mm$^3$]}	0.0135013
{$d_v$}	{[mm]}	0.295433
{$S_c$}	{[mm$^2$]}	0.523702
{$S_o$}	{[mm$^2$]}	0.339747
{$S_l/S_o$}	[]	0.541447
{$\Psi$}	[]	0.523581
{$\eta$}	[]	0.563910
{med($\theta_e$)}	{[$^\circ$]}	60.6648
{$\Upsilon$}	[]	20
{$\Xi$}	[]	22
