Q	U	V
{$V$}	{[mm$^3$]}	0.00891416
{$d_v$}	{[mm]}	0.257253
{$S_c$}	{[mm$^2$]}	0.364717
{$S_o$}	{[mm$^2$]}	0.23761
{$S_l/S_o$}	[]	0.534940
{$\Psi$}	[]	0.570053
{$\eta$}	[]	0.604214
{med($\theta_e$)}	{[$^\circ$]}	61.4968
{$\Upsilon$}	[]	12
{$\Xi$}	[]	5
