Q	U	V
{$V$}	{[mm$^3$]}	0.0110136
{$d_v$}	{[mm]}	0.276043
{$S_c$}	{[mm$^2$]}	0.430535
{$S_o$}	{[mm$^2$]}	0.270916
{$S_l/S_o$}	[]	0.589183
{$\Psi$}	[]	0.556026
{$\eta$}	[]	0.592621
{med($\theta_e$)}	{[$^\circ$]}	51.2368
{$\Upsilon$}	[]	18
{$\Xi$}	[]	5
