Q	U	V
{$V$}	{[mm$^3$]}	0.00331535
{$d_v$}	{[mm]}	0.185002
{$S_c$}	{[mm$^2$]}	0.248177
{$S_o$}	{[mm$^2$]}	0.120076
{$S_l/S_o$}	[]	1.066833
{$\Psi$}	[]	0.433254
{$\eta$}	[]	0.446335
{med($\theta_e$)}	{[$^\circ$]}	77.1425
{$\Upsilon$}	[]	12
{$\Xi$}	[]	8
