Q	U	V
{$V$}	{[mm$^3$]}	0.00421544
{$d_v$}	{[mm]}	0.200423
{$S_c$}	{[mm$^2$]}	0.185478
{$S_o$}	{[mm$^2$]}	0.1191
{$S_l/S_o$}	[]	0.557330
{$\Psi$}	[]	0.680383
{$\eta$}	[]	0.769137
{med($\theta_e$)}	{[$^\circ$]}	66.26145
{$\Upsilon$}	[]	12
{$\Xi$}	[]	15
