Q	U	V
{$V$}	{[mm$^3$]}	0.00245801
{$d_v$}	{[mm]}	0.167441
{$S_c$}	{[mm$^2$]}	0.148914
{$S_o$}	{[mm$^2$]}	0.0793071
{$S_l/S_o$}	[]	0.877688
{$\Psi$}	[]	0.591477
{$\eta$}	[]	0.598130
{med($\theta_e$)}	{[$^\circ$]}	
{$\Upsilon$}	[]	12
{$\Xi$}	[]	8
