Q	U	V
{$V$}	{[mm$^3$]}	0.0101859
{$d_v$}	{[mm]}	0.268947
{$S_c$}	{[mm$^2$]}	0.449175
{$S_o$}	{[mm$^2$]}	0.258832
{$S_l/S_o$}	[]	0.735392
{$\Psi$}	[]	0.505904
{$\eta$}	[]	0.536268
{med($\theta_e$)}	{[$^\circ$]}	75.6147
{$\Upsilon$}	[]	11
{$\Xi$}	[]	17
