Q	U	V
{$V$}	{[mm$^3$]}	0.0024687
{$d_v$}	{[mm]}	0.167683
{$S_c$}	{[mm$^2$]}	0.12995
{$S_o$}	{[mm$^2$]}	0.0797426
{$S_l/S_o$}	[]	0.629618
{$\Psi$}	[]	0.679757
{$\eta$}	[]	0.721295
{med($\theta_e$)}	{[$^\circ$]}	51.9017
{$\Upsilon$}	[]	12
{$\Xi$}	[]	10
