Q	U	V
{$V$}	{[mm$^3$]}	0.0165732
{$d_v$}	{[mm]}	0.316327
{$S_c$}	{[mm$^2$]}	0.529925
{$S_o$}	{[mm$^2$]}	0.336972
{$S_l/S_o$}	[]	0.572608
{$\Psi$}	[]	0.593208
{$\eta$}	[]	0.638502
{med($\theta_e$)}	{[$^\circ$]}	58.06115
{$\Upsilon$}	[]	16
{$\Xi$}	[]	14
