Q	U	V
{$V$}	{[mm$^3$]}	0.00353978
{$d_v$}	{[mm]}	0.189086
{$S_c$}	{[mm$^2$]}	0.172184
{$S_o$}	{[mm$^2$]}	0.102556
{$S_l/S_o$}	[]	0.678927
{$\Psi$}	[]	0.652342
{$\eta$}	[]	0.683565
{med($\theta_e$)}	{[$^\circ$]}	
{$\Upsilon$}	[]	19
{$\Xi$}	[]	7
