Q	U	V
{$V$}	{[mm$^3$]}	0.0124729
{$d_v$}	{[mm]}	0.287733
{$S_c$}	{[mm$^2$]}	0.440468
{$S_o$}	{[mm$^2$]}	0.289579
{$S_l/S_o$}	[]	0.521063
{$\Psi$}	[]	0.590493
{$\eta$}	[]	0.668680
{med($\theta_e$)}	{[$^\circ$]}	62.89775
{$\Upsilon$}	[]	12
{$\Xi$}	[]	23
