Q	U	V
{$V$}	{[mm$^3$]}	0.00469754
{$d_v$}	{[mm]}	0.207790
{$S_c$}	{[mm$^2$]}	0.219222
{$S_o$}	{[mm$^2$]}	0.133364
{$S_l/S_o$}	[]	0.643787
{$\Psi$}	[]	0.618748
{$\eta$}	[]	0.661745
{med($\theta_e$)}	{[$^\circ$]}	58.9202
{$\Upsilon$}	[]	15
{$\Xi$}	[]	7
