Q	U	V
{$V$}	{[mm$^3$]}	0.00588024
{$d_v$}	{[mm]}	0.223940
{$S_c$}	{[mm$^2$]}	0.239071
{$S_o$}	{[mm$^2$]}	0.155997
{$S_l/S_o$}	[]	0.532536
{$\Psi$}	[]	0.659003
{$\eta$}	[]	0.675310
{med($\theta_e$)}	{[$^\circ$]}	69.1909
{$\Upsilon$}	[]	16
{$\Xi$}	[]	11
