Q	U	V
{$V$}	{[mm$^3$]}	0.00517964
{$d_v$}	{[mm]}	0.214668
{$S_c$}	{[mm$^2$]}	0.252537
{$S_o$}	{[mm$^2$]}	0.165818
{$S_l/S_o$}	[]	0.522977
{$\Psi$}	[]	0.573269
{$\eta$}	[]	0.586429
{med($\theta_e$)}	{[$^\circ$]}	61.6273
{$\Upsilon$}	[]	11
{$\Xi$}	[]	13
