Q	U	V
{$V$}	{[mm$^3$]}	0.00845818
{$d_v$}	{[mm]}	0.252790
{$S_c$}	{[mm$^2$]}	0.307334
{$S_o$}	{[mm$^2$]}	0.204919
{$S_l/S_o$}	[]	0.499783
{$\Psi$}	[]	0.653218
{$\eta$}	[]	0.664108
{med($\theta_e$)}	{[$^\circ$]}	57.6112
{$\Upsilon$}	[]	12
{$\Xi$}	[]	5
