Q	U	V
{$V$}	{[mm$^3$]}	0.00568431
{$d_v$}	{[mm]}	0.221425
{$S_c$}	{[mm$^2$]}	0.355504
{$S_o$}	{[mm$^2$]}	0.154666
{$S_l/S_o$}	[]	1.298527
{$\Psi$}	[]	0.43327
{$\eta$}	[]	0.489092
{med($\theta_e$)}	{[$^\circ$]}	71.2438
{$\Upsilon$}	[]	15
{$\Xi$}	[]	5
