Q	U	V
{$V$}	{[mm$^3$]}	0.00644902
{$d_v$}	{[mm]}	0.230940
{$S_c$}	{[mm$^2$]}	0.250808
{$S_o$}	{[mm$^2$]}	0.163681
{$S_l/S_o$}	[]	0.532298
{$\Psi$}	[]	0.668044
{$\eta$}	[]	0.695428
{med($\theta_e$)}	{[$^\circ$]}	62.8905
{$\Upsilon$}	[]	14
{$\Xi$}	[]	13
