Q	U	V
{$V$}	{[mm$^3$]}	0.00392807
{$d_v$}	{[mm]}	0.195761
{$S_c$}	{[mm$^2$]}	0.230125
{$S_o$}	{[mm$^2$]}	0.13044
{$S_l/S_o$}	[]	0.764221
{$\Psi$}	[]	0.523166
{$\eta$}	[]	0.578425
{med($\theta_e$)}	{[$^\circ$]}	67.52675
{$\Upsilon$}	[]	12
{$\Xi$}	[]	5
