Q	U	V
{$V$}	{[mm$^3$]}	0.00292943
{$d_v$}	{[mm]}	0.177526
{$S_c$}	{[mm$^2$]}	0.183003
{$S_o$}	{[mm$^2$]}	0.0937474
{$S_l/S_o$}	[]	0.952086
{$\Psi$}	[]	0.541022
{$\eta$}	[]	0.613066
{med($\theta_e$)}	{[$^\circ$]}	71.8056
{$\Upsilon$}	[]	15
{$\Xi$}	[]	7
