Q	U	V
{$V$}	{[mm$^3$]}	0.0170612
{$d_v$}	{[mm]}	0.319402
{$S_c$}	{[mm$^2$]}	0.66434
{$S_o$}	{[mm$^2$]}	0.418706
{$S_l/S_o$}	[]	0.586650
{$\Psi$}	[]	0.482429
{$\eta$}	[]	0.542373
{med($\theta_e$)}	{[$^\circ$]}	66.82535
{$\Upsilon$}	[]	11
{$\Xi$}	[]	25
