Q	U	V
{$V$}	{[mm$^3$]}	0.00622934
{$d_v$}	{[mm]}	0.228287
{$S_c$}	{[mm$^2$]}	0.245828
{$S_o$}	{[mm$^2$]}	0.136448
{$S_l/S_o$}	[]	0.801624
{$\Psi$}	[]	0.66601
{$\eta$}	[]	0.697695
{med($\theta_e$)}	{[$^\circ$]}	52.886
{$\Upsilon$}	[]	18
{$\Xi$}	[]	7
