Q	U	V
{$V$}	{[mm$^3$]}	0.0023084
{$d_v$}	{[mm]}	0.163972
{$S_c$}	{[mm$^2$]}	0.183911
{$S_o$}	{[mm$^2$]}	0.092301
{$S_l/S_o$}	[]	0.992514
{$\Psi$}	[]	0.459287
{$\eta$}	[]	0.587436
{med($\theta_e$)}	{[$^\circ$]}	81.3942
{$\Upsilon$}	[]	9
{$\Xi$}	[]	8
