Q	U	V
{$V$}	{[mm$^3$]}	0.00321442
{$d_v$}	{[mm]}	0.183105
{$S_c$}	{[mm$^2$]}	0.164011
{$S_o$}	{[mm$^2$]}	0.114616
{$S_l/S_o$}	[]	0.430961
{$\Psi$}	[]	0.642214
{$\eta$}	[]	0.688442
{med($\theta_e$)}	{[$^\circ$]}	64.1078
{$\Upsilon$}	[]	12
{$\Xi$}	[]	6
