Q	U	V
{$V$}	{[mm$^3$]}	0.0111727
{$d_v$}	{[mm]}	0.277366
{$S_c$}	{[mm$^2$]}	0.467243
{$S_o$}	{[mm$^2$]}	0.298385
{$S_l/S_o$}	[]	0.565906
{$\Psi$}	[]	0.517265
{$\eta$}	[]	0.539621
{med($\theta_e$)}	{[$^\circ$]}	97.35775
{$\Upsilon$}	[]	15
{$\Xi$}	[]	10
