Q	U	V
{$V$}	{[mm$^3$]}	0.00321323
{$d_v$}	{[mm]}	0.183083
{$S_c$}	{[mm$^2$]}	0.142973
{$S_o$}	{[mm$^2$]}	0.112995
{$S_l/S_o$}	[]	0.265304
{$\Psi$}	[]	0.736531
{$\eta$}	[]	0.768761
{med($\theta_e$)}	{[$^\circ$]}	67.7913
{$\Upsilon$}	[]	12
{$\Xi$}	[]	8
