Q	U	V
{$V$}	{[mm$^3$]}	0.00404444
{$d_v$}	{[mm]}	0.197676
{$S_c$}	{[mm$^2$]}	0.25071
{$S_o$}	{[mm$^2$]}	0.142101
{$S_l/S_o$}	[]	0.764308
{$\Psi$}	[]	0.489649
{$\eta$}	[]	0.506170
{med($\theta_e$)}	{[$^\circ$]}	
{$\Upsilon$}	[]	15
{$\Xi$}	[]	3
