Q	U	V
{$V$}	{[mm$^3$]}	0.00649415
{$d_v$}	{[mm]}	0.231477
{$S_c$}	{[mm$^2$]}	0.389496
{$S_o$}	{[mm$^2$]}	0.194406
{$S_l/S_o$}	[]	1.003518
{$\Psi$}	[]	0.432178
{$\eta$}	[]	0.487787
{med($\theta_e$)}	{[$^\circ$]}	87.3372
{$\Upsilon$}	[]	5
{$\Xi$}	[]	2
