Q	U	V
{$V$}	{[mm$^3$]}	0.000819338
{$d_v$}	{[mm]}	0.116097
{$S_c$}	{[mm$^2$]}	0.0650344
{$S_o$}	{[mm$^2$]}	0.0347843
{$S_l/S_o$}	[]	0.869648
{$\Psi$}	[]	0.651103
{$\eta$}	[]	0.683761
{med($\theta_e$)}	{[$^\circ$]}	78.5852
{$\Upsilon$}	[]	16
{$\Xi$}	[]	5
