Q	U	V
{$V$}	{[mm$^3$]}	0.00505021
{$d_v$}	{[mm]}	0.212865
{$S_c$}	{[mm$^2$]}	0.260594
{$S_o$}	{[mm$^2$]}	0.160821
{$S_l/S_o$}	[]	0.620398
{$\Psi$}	[]	0.546252
{$\eta$}	[]	0.619208
{med($\theta_e$)}	{[$^\circ$]}	94.1286
{$\Upsilon$}	[]	8
{$\Xi$}	[]	9
