Q	U	V
{$V$}	{[mm$^3$]}	0.00353622
{$d_v$}	{[mm]}	0.189023
{$S_c$}	{[mm$^2$]}	0.226629
{$S_o$}	{[mm$^2$]}	0.118476
{$S_l/S_o$}	[]	0.912868
{$\Psi$}	[]	0.495292
{$\eta$}	[]	0.516929
{med($\theta_e$)}	{[$^\circ$]}	
{$\Upsilon$}	[]	16
{$\Xi$}	[]	3
