Q	U	V
{$V$}	{[mm$^3$]}	0.00511314
{$d_v$}	{[mm]}	0.213745
{$S_c$}	{[mm$^2$]}	0.214425
{$S_o$}	{[mm$^2$]}	0.141917
{$S_l/S_o$}	[]	0.510918
{$\Psi$}	[]	0.669371
{$\eta$}	[]	0.682472
{med($\theta_e$)}	{[$^\circ$]}	60.04365
{$\Upsilon$}	[]	12
{$\Xi$}	[]	7
