Q	U	V
{$V$}	{[mm$^3$]}	0.00742985
{$d_v$}	{[mm]}	0.242099
{$S_c$}	{[mm$^2$]}	0.318064
{$S_o$}	{[mm$^2$]}	0.200179
{$S_l/S_o$}	[]	0.588898
{$\Psi$}	[]	0.578926
{$\eta$}	[]	0.607925
{med($\theta_e$)}	{[$^\circ$]}	72.6426
{$\Upsilon$}	[]	12
{$\Xi$}	[]	9
