Q	U	V
{$V$}	{[mm$^3$]}	0.00578999
{$d_v$}	{[mm]}	0.222789
{$S_c$}	{[mm$^2$]}	0.296691
{$S_o$}	{[mm$^2$]}	0.175409
{$S_l/S_o$}	[]	0.691424
{$\Psi$}	[]	0.525571
{$\eta$}	[]	0.608242
{med($\theta_e$)}	{[$^\circ$]}	59.069
{$\Upsilon$}	[]	14
{$\Xi$}	[]	9
