Q	U	V
{$V$}	{[mm$^3$]}	0.013183
{$d_v$}	{[mm]}	0.293093
{$S_c$}	{[mm$^2$]}	0.559754
{$S_o$}	{[mm$^2$]}	0.344162
{$S_l/S_o$}	[]	0.626426
{$\Psi$}	[]	0.482129
{$\eta$}	[]	0.500402
{med($\theta_e$)}	{[$^\circ$]}	70.2706
{$\Upsilon$}	[]	17
{$\Xi$}	[]	8
