Q	U	V
{$V$}	{[mm$^3$]}	0.00448974
{$d_v$}	{[mm]}	0.204679
{$S_c$}	{[mm$^2$]}	0.265377
{$S_o$}	{[mm$^2$]}	0.159104
{$S_l/S_o$}	[]	0.667947
{$\Psi$}	[]	0.495947
{$\eta$}	[]	0.529466
{med($\theta_e$)}	{[$^\circ$]}	85.23175
{$\Upsilon$}	[]	13
{$\Xi$}	[]	7
