Q	U	V
{$V$}	{[mm$^3$]}	0.00881204
{$d_v$}	{[mm]}	0.256267
{$S_c$}	{[mm$^2$]}	0.351126
{$S_o$}	{[mm$^2$]}	0.219421
{$S_l/S_o$}	[]	0.600239
{$\Psi$}	[]	0.587587
{$\eta$}	[]	0.647306
{med($\theta_e$)}	{[$^\circ$]}	54.59455
{$\Upsilon$}	[]	12
{$\Xi$}	[]	10
