Q	U	V
{$V$}	{[mm$^3$]}	0.00845462
{$d_v$}	{[mm]}	0.252754
{$S_c$}	{[mm$^2$]}	0.334349
{$S_o$}	{[mm$^2$]}	0.216765
{$S_l/S_o$}	[]	0.542449
{$\Psi$}	[]	0.60027
{$\eta$}	[]	0.614358
{med($\theta_e$)}	{[$^\circ$]}	50.3787
{$\Upsilon$}	[]	13
{$\Xi$}	[]	2
