Q	U	V
{$V$}	{[mm$^3$]}	0.00683019
{$d_v$}	{[mm]}	0.235403
{$S_c$}	{[mm$^2$]}	0.31945
{$S_o$}	{[mm$^2$]}	0.183953
{$S_l/S_o$}	[]	0.736585
{$\Psi$}	[]	0.544966
{$\eta$}	[]	0.581747
{med($\theta_e$)}	{[$^\circ$]}	68.3302
{$\Upsilon$}	[]	11
{$\Xi$}	[]	10
