Q	U	V
{$V$}	{[mm$^3$]}	0.00559881
{$d_v$}	{[mm]}	0.220309
{$S_c$}	{[mm$^2$]}	0.240914
{$S_o$}	{[mm$^2$]}	0.156437
{$S_l/S_o$}	[]	0.540007
{$\Psi$}	[]	0.632925
{$\eta$}	[]	0.671065
{med($\theta_e$)}	{[$^\circ$]}	52.6167
{$\Upsilon$}	[]	19
{$\Xi$}	[]	13
