Q	U	V
{$V$}	{[mm$^3$]}	0.0232787
{$d_v$}	{[mm]}	0.354258
{$S_c$}	{[mm$^2$]}	0.943675
{$S_o$}	{[mm$^2$]}	0.599646
{$S_l/S_o$}	[]	0.573720
{$\Psi$}	[]	0.417799
{$\eta$}	[]	0.482197
{med($\theta_e$)}	{[$^\circ$]}	81.0098
{$\Upsilon$}	[]	7
{$\Xi$}	[]	22
