Q	U	V
{$V$}	{[mm$^3$]}	0.00521764
{$d_v$}	{[mm]}	0.215192
{$S_c$}	{[mm$^2$]}	0.276786
{$S_o$}	{[mm$^2$]}	0.166803
{$S_l/S_o$}	[]	0.659359
{$\Psi$}	[]	0.525601
{$\eta$}	[]	0.600265
{med($\theta_e$)}	{[$^\circ$]}	59.1639
{$\Upsilon$}	[]	16
{$\Xi$}	[]	6
