Q	U	V
{$V$}	{[mm$^3$]}	0.0119778
{$d_v$}	{[mm]}	0.283874
{$S_c$}	{[mm$^2$]}	0.40322
{$S_o$}	{[mm$^2$]}	0.282049
{$S_l/S_o$}	[]	0.429610
{$\Psi$}	[]	0.627856
{$\eta$}	[]	0.648914
{med($\theta_e$)}	{[$^\circ$]}	64.71945
{$\Upsilon$}	[]	12
{$\Xi$}	[]	15
