Q	U	V
{$V$}	{[mm$^3$]}	0.00733011
{$d_v$}	{[mm]}	0.241011
{$S_c$}	{[mm$^2$]}	0.319011
{$S_o$}	{[mm$^2$]}	0.196281
{$S_l/S_o$}	[]	0.625277
{$\Psi$}	[]	0.57203
{$\eta$}	[]	0.602973
{med($\theta_e$)}	{[$^\circ$]}	54.65145
{$\Upsilon$}	[]	12
{$\Xi$}	[]	5
