Q	U	V
{$V$}	{[mm$^3$]}	0.00177761
{$d_v$}	{[mm]}	0.150295
{$S_c$}	{[mm$^2$]}	0.106747
{$S_o$}	{[mm$^2$]}	0.0684058
{$S_l/S_o$}	[]	0.560496
{$\Psi$}	[]	0.664792
{$\eta$}	[]	0.706253
{med($\theta_e$)}	{[$^\circ$]}	59.439
{$\Upsilon$}	[]	13
{$\Xi$}	[]	6
