Q	U	V
{$V$}	{[mm$^3$]}	0.0158144
{$d_v$}	{[mm]}	0.311423
{$S_c$}	{[mm$^2$]}	0.535979
{$S_o$}	{[mm$^2$]}	0.361613
{$S_l/S_o$}	[]	0.482190
{$\Psi$}	[]	0.568466
{$\eta$}	[]	0.616972
{med($\theta_e$)}	{[$^\circ$]}	61.3928
{$\Upsilon$}	[]	13
{$\Xi$}	[]	14
