Q	U	V
{$V$}	{[mm$^3$]}	0.0175315
{$d_v$}	{[mm]}	0.322310
{$S_c$}	{[mm$^2$]}	0.550048
{$S_o$}	{[mm$^2$]}	0.351496
{$S_l/S_o$}	[]	0.564877
{$\Psi$}	[]	0.59333
{$\eta$}	[]	0.614828
{med($\theta_e$)}	{[$^\circ$]}	60.9843
{$\Upsilon$}	[]	9
{$\Xi$}	[]	15
