Q	U	V
{$V$}	{[mm$^3$]}	0.014095
{$d_v$}	{[mm]}	0.299701
{$S_c$}	{[mm$^2$]}	0.596958
{$S_o$}	{[mm$^2$]}	0.403614
{$S_l/S_o$}	[]	0.479032
{$\Psi$}	[]	0.472698
{$\eta$}	[]	0.516040
{med($\theta_e$)}	{[$^\circ$]}	72.1283
{$\Upsilon$}	[]	9
{$\Xi$}	[]	12
