Q	U	V
{$V$}	{[mm$^3$]}	0.00386514
{$d_v$}	{[mm]}	0.194710
{$S_c$}	{[mm$^2$]}	0.177084
{$S_o$}	{[mm$^2$]}	0.115309
{$S_l/S_o$}	[]	0.535734
{$\Psi$}	[]	0.672587
{$\eta$}	[]	0.715372
{med($\theta_e$)}	{[$^\circ$]}	66.5278
{$\Upsilon$}	[]	15
{$\Xi$}	[]	17
