Q	U	V
{$V$}	{[mm$^3$]}	0.0115325
{$d_v$}	{[mm]}	0.280312
{$S_c$}	{[mm$^2$]}	0.538536
{$S_o$}	{[mm$^2$]}	0.325861
{$S_l/S_o$}	[]	0.652656
{$\Psi$}	[]	0.458372
{$\eta$}	[]	0.471595
{med($\theta_e$)}	{[$^\circ$]}	64.4269
{$\Upsilon$}	[]	15
{$\Xi$}	[]	5
