Q	U	V
{$V$}	{[mm$^3$]}	0.00393757
{$d_v$}	{[mm]}	0.195919
{$S_c$}	{[mm$^2$]}	0.200627
{$S_o$}	{[mm$^2$]}	0.129053
{$S_l/S_o$}	[]	0.554609
{$\Psi$}	[]	0.601054
{$\eta$}	[]	0.627019
{med($\theta_e$)}	{[$^\circ$]}	66.6478
{$\Upsilon$}	[]	13
{$\Xi$}	[]	9
