Q	U	V
{$V$}	{[mm$^3$]}	0.0156814
{$d_v$}	{[mm]}	0.310548
{$S_c$}	{[mm$^2$]}	0.580526
{$S_o$}	{[mm$^2$]}	0.351657
{$S_l/S_o$}	[]	0.650830
{$\Psi$}	[]	0.521898
{$\eta$}	[]	0.562120
{med($\theta_e$)}	{[$^\circ$]}	64.97795
{$\Upsilon$}	[]	13
{$\Xi$}	[]	6
