Q	U	V
{$V$}	{[mm$^3$]}	0.00951738
{$d_v$}	{[mm]}	0.262930
{$S_c$}	{[mm$^2$]}	0.416018
{$S_o$}	{[mm$^2$]}	0.24519
{$S_l/S_o$}	[]	0.696717
{$\Psi$}	[]	0.522056
{$\eta$}	[]	0.592912
{med($\theta_e$)}	{[$^\circ$]}	62.58735
{$\Upsilon$}	[]	16
{$\Xi$}	[]	19
