Q	U	V
{$V$}	{[mm$^3$]}	0.0023179
{$d_v$}	{[mm]}	0.164197
{$S_c$}	{[mm$^2$]}	0.144953
{$S_o$}	{[mm$^2$]}	0.0862388
{$S_l/S_o$}	[]	0.680833
{$\Psi$}	[]	0.584324
{$\eta$}	[]	0.810877
{med($\theta_e$)}	{[$^\circ$]}	58.929
{$\Upsilon$}	[]	17
{$\Xi$}	[]	10
