Q	U	V
{$V$}	{[mm$^3$]}	0.00239508
{$d_v$}	{[mm]}	0.166000
{$S_c$}	{[mm$^2$]}	0.16027
{$S_o$}	{[mm$^2$]}	0.10247
{$S_l/S_o$}	[]	0.564068
{$\Psi$}	[]	0.540147
{$\eta$}	[]	0.590482
{med($\theta_e$)}	{[$^\circ$]}	64.3086
{$\Upsilon$}	[]	9
{$\Xi$}	[]	7
