Q	U	V
{$V$}	{[mm$^3$]}	0.0118626
{$d_v$}	{[mm]}	0.282961
{$S_c$}	{[mm$^2$]}	0.473623
{$S_o$}	{[mm$^2$]}	0.290886
{$S_l/S_o$}	[]	0.628208
{$\Psi$}	[]	0.531094
{$\eta$}	[]	0.572117
{med($\theta_e$)}	{[$^\circ$]}	71.4601
{$\Upsilon$}	[]	10
{$\Xi$}	[]	9
