Q	U	V
{$V$}	{[mm$^3$]}	0.010047
{$d_v$}	{[mm]}	0.267719
{$S_c$}	{[mm$^2$]}	0.4197
{$S_o$}	{[mm$^2$]}	0.23894
{$S_l/S_o$}	[]	0.756508
{$\Psi$}	[]	0.5365
{$\eta$}	[]	0.555125
{med($\theta_e$)}	{[$^\circ$]}	93.2571
{$\Upsilon$}	[]	13
{$\Xi$}	[]	6
