Q	U	V
{$V$}	{[mm$^3$]}	0.00156505
{$d_v$}	{[mm]}	0.144049
{$S_c$}	{[mm$^2$]}	0.109478
{$S_o$}	{[mm$^2$]}	0.0614023
{$S_l/S_o$}	[]	0.782963
{$\Psi$}	[]	0.595447
{$\eta$}	[]	0.691184
{med($\theta_e$)}	{[$^\circ$]}	51.4621
{$\Upsilon$}	[]	12
{$\Xi$}	[]	5
