Q	U	V
{$V$}	{[mm$^3$]}	0.00970381
{$d_v$}	{[mm]}	0.264635
{$S_c$}	{[mm$^2$]}	0.484704
{$S_o$}	{[mm$^2$]}	0.278258
{$S_l/S_o$}	[]	0.741923
{$\Psi$}	[]	0.453909
{$\eta$}	[]	0.489282
{med($\theta_e$)}	{[$^\circ$]}	72.7128
{$\Upsilon$}	[]	12
{$\Xi$}	[]	8
