Q	U	V
{$V$}	{[mm$^3$]}	0.005543
{$d_v$}	{[mm]}	0.219575
{$S_c$}	{[mm$^2$]}	0.30618
{$S_o$}	{[mm$^2$]}	0.17072
{$S_l/S_o$}	[]	0.793463
{$\Psi$}	[]	0.494695
{$\eta$}	[]	0.545548
{med($\theta_e$)}	{[$^\circ$]}	72.15795
{$\Upsilon$}	[]	12
{$\Xi$}	[]	17
