Q	U	V
{$V$}	{[mm$^3$]}	0.0122141
{$d_v$}	{[mm]}	0.285729
{$S_c$}	{[mm$^2$]}	0.483551
{$S_o$}	{[mm$^2$]}	0.305928
{$S_l/S_o$}	[]	0.580604
{$\Psi$}	[]	0.530415
{$\eta$}	[]	0.581422
{med($\theta_e$)}	{[$^\circ$]}	58.0544
{$\Upsilon$}	[]	14
{$\Xi$}	[]	17
