Q	U	V
{$V$}	{[mm$^3$]}	0.00301493
{$d_v$}	{[mm]}	0.179236
{$S_c$}	{[mm$^2$]}	0.162819
{$S_o$}	{[mm$^2$]}	0.089417
{$S_l/S_o$}	[]	0.820895
{$\Psi$}	[]	0.619865
{$\eta$}	[]	0.650145
{med($\theta_e$)}	{[$^\circ$]}	58.4463
{$\Upsilon$}	[]	16
{$\Xi$}	[]	12
