Q	U	V
{$V$}	{[mm$^3$]}	0.0033581
{$d_v$}	{[mm]}	0.185794
{$S_c$}	{[mm$^2$]}	0.194106
{$S_o$}	{[mm$^2$]}	0.117073
{$S_l/S_o$}	[]	0.657991
{$\Psi$}	[]	0.558694
{$\eta$}	[]	0.675296
{med($\theta_e$)}	{[$^\circ$]}	111.5315
{$\Upsilon$}	[]	17
{$\Xi$}	[]	14
