Q	U	V
{$V$}	{[mm$^3$]}	0.00298049
{$d_v$}	{[mm]}	0.178551
{$S_c$}	{[mm$^2$]}	0.15772
{$S_o$}	{[mm$^2$]}	0.106373
{$S_l/S_o$}	[]	0.482707
{$\Psi$}	[]	0.635023
{$\eta$}	[]	0.675621
{med($\theta_e$)}	{[$^\circ$]}	65.16545
{$\Upsilon$}	[]	17
{$\Xi$}	[]	16
