Q	U	V
{$V$}	{[mm$^3$]}	0.0148526
{$d_v$}	{[mm]}	0.304978
{$S_c$}	{[mm$^2$]}	0.570121
{$S_o$}	{[mm$^2$]}	0.360895
{$S_l/S_o$}	[]	0.579742
{$\Psi$}	[]	0.512529
{$\eta$}	[]	0.553495
{med($\theta_e$)}	{[$^\circ$]}	77.9727
{$\Upsilon$}	[]	9
{$\Xi$}	[]	5
