Q	U	V
{$V$}	{[mm$^3$]}	0.00512027
{$d_v$}	{[mm]}	0.213844
{$S_c$}	{[mm$^2$]}	0.213896
{$S_o$}	{[mm$^2$]}	0.138946
{$S_l/S_o$}	[]	0.539418
{$\Psi$}	[]	0.671651
{$\eta$}	[]	0.715165
{med($\theta_e$)}	{[$^\circ$]}	54.85915
{$\Upsilon$}	[]	12
{$\Xi$}	[]	23
