Q	U	V
{$V$}	{[mm$^3$]}	0.00435555
{$d_v$}	{[mm]}	0.202620
{$S_c$}	{[mm$^2$]}	0.278936
{$S_o$}	{[mm$^2$]}	0.151838
{$S_l/S_o$}	[]	0.837063
{$\Psi$}	[]	0.46239
{$\eta$}	[]	0.521715
{med($\theta_e$)}	{[$^\circ$]}	60.051
{$\Upsilon$}	[]	14
{$\Xi$}	[]	7
