Q	U	V
{$V$}	{[mm$^3$]}	0.0141377
{$d_v$}	{[mm]}	0.300004
{$S_c$}	{[mm$^2$]}	0.691438
{$S_o$}	{[mm$^2$]}	0.445541
{$S_l/S_o$}	[]	0.551907
{$\Psi$}	[]	0.408931
{$\eta$}	[]	0.456084
{med($\theta_e$)}	{[$^\circ$]}	81.2705
{$\Upsilon$}	[]	17
{$\Xi$}	[]	14
