Q	U	V
{$V$}	{[mm$^3$]}	0.00434843
{$d_v$}	{[mm]}	0.202509
{$S_c$}	{[mm$^2$]}	0.205287
{$S_o$}	{[mm$^2$]}	0.118632
{$S_l/S_o$}	[]	0.730452
{$\Psi$}	[]	0.627592
{$\eta$}	[]	0.650066
{med($\theta_e$)}	{[$^\circ$]}	64.4769
{$\Upsilon$}	[]	13
{$\Xi$}	[]	1
