Q	U	V
{$V$}	{[mm$^3$]}	0.0050229
{$d_v$}	{[mm]}	0.212480
{$S_c$}	{[mm$^2$]}	0.299907
{$S_o$}	{[mm$^2$]}	0.179705
{$S_l/S_o$}	[]	0.668885
{$\Psi$}	[]	0.472934
{$\eta$}	[]	0.496421
{med($\theta_e$)}	{[$^\circ$]}	86.6854
{$\Upsilon$}	[]	15
{$\Xi$}	[]	16
