Q	U	V
{$V$}	{[mm$^3$]}	0.00735504
{$d_v$}	{[mm]}	0.241284
{$S_c$}	{[mm$^2$]}	0.296561
{$S_o$}	{[mm$^2$]}	0.185228
{$S_l/S_o$}	[]	0.601059
{$\Psi$}	[]	0.616728
{$\eta$}	[]	0.659648
{med($\theta_e$)}	{[$^\circ$]}	60.3901
{$\Upsilon$}	[]	14
{$\Xi$}	[]	14
