Q	U	V
{$V$}	{[mm$^3$]}	0.00113757
{$d_v$}	{[mm]}	0.129517
{$S_c$}	{[mm$^2$]}	0.130114
{$S_o$}	{[mm$^2$]}	0.0587157
{$S_l/S_o$}	[]	1.216000
{$\Psi$}	[]	0.405022
{$\eta$}	[]	0.599309
{med($\theta_e$)}	{[$^\circ$]}	
{$\Upsilon$}	[]	21
{$\Xi$}	[]	7
