Q	U	V
{$V$}	{[mm$^3$]}	0.00622816
{$d_v$}	{[mm]}	0.228273
{$S_c$}	{[mm$^2$]}	0.357935
{$S_o$}	{[mm$^2$]}	0.217878
{$S_l/S_o$}	[]	0.642823
{$\Psi$}	[]	0.457355
{$\eta$}	[]	0.499934
{med($\theta_e$)}	{[$^\circ$]}	59.625
{$\Upsilon$}	[]	12
{$\Xi$}	[]	10
