Q	U	V
{$V$}	{[mm$^3$]}	0.00215997
{$d_v$}	{[mm]}	0.160380
{$S_c$}	{[mm$^2$]}	0.127011
{$S_o$}	{[mm$^2$]}	0.0785343
{$S_l/S_o$}	[]	0.617268
{$\Psi$}	[]	0.636221
{$\eta$}	[]	0.654976
{med($\theta_e$)}	{[$^\circ$]}	63.3927
{$\Upsilon$}	[]	13
{$\Xi$}	[]	8
