Q	U	V
{$V$}	{[mm$^3$]}	0.00737404
{$d_v$}	{[mm]}	0.241492
{$S_c$}	{[mm$^2$]}	0.359284
{$S_o$}	{[mm$^2$]}	0.185445
{$S_l/S_o$}	[]	0.937415
{$\Psi$}	[]	0.509937
{$\eta$}	[]	0.515314
{med($\theta_e$)}	{[$^\circ$]}	78.93965
{$\Upsilon$}	[]	13
{$\Xi$}	[]	9
