Q	U	V
{$V$}	{[mm$^3$]}	0.00338541
{$d_v$}	{[mm]}	0.186296
{$S_c$}	{[mm$^2$]}	0.19847
{$S_o$}	{[mm$^2$]}	0.105512
{$S_l/S_o$}	[]	0.881018
{$\Psi$}	[]	0.549368
{$\eta$}	[]	0.610213
{med($\theta_e$)}	{[$^\circ$]}	57.29725
{$\Upsilon$}	[]	11
{$\Xi$}	[]	4
