Q	U	V
{$V$}	{[mm$^3$]}	0.00948176
{$d_v$}	{[mm]}	0.262601
{$S_c$}	{[mm$^2$]}	0.375588
{$S_o$}	{[mm$^2$]}	0.254827
{$S_l/S_o$}	[]	0.473894
{$\Psi$}	[]	0.576809
{$\eta$}	[]	0.586480
{med($\theta_e$)}	{[$^\circ$]}	56.8137
{$\Upsilon$}	[]	16
{$\Xi$}	[]	5
