Q	U	V
{$V$}	{[mm$^3$]}	0.0111715
{$d_v$}	{[mm]}	0.277356
{$S_c$}	{[mm$^2$]}	0.479356
{$S_o$}	{[mm$^2$]}	0.288948
{$S_l/S_o$}	[]	0.658970
{$\Psi$}	[]	0.504158
{$\eta$}	[]	0.542816
{med($\theta_e$)}	{[$^\circ$]}	78.6421
{$\Upsilon$}	[]	11
{$\Xi$}	[]	13
