Q	U	V
{$V$}	{[mm$^3$]}	0.00493978
{$d_v$}	{[mm]}	0.211302
{$S_c$}	{[mm$^2$]}	0.2026
{$S_o$}	{[mm$^2$]}	0.131979
{$S_l/S_o$}	[]	0.535093
{$\Psi$}	[]	0.692335
{$\eta$}	[]	0.716362
{med($\theta_e$)}	{[$^\circ$]}	59.2163
{$\Upsilon$}	[]	11
{$\Xi$}	[]	9
