Q	U	V
{$V$}	{[mm$^3$]}	0.00979762
{$d_v$}	{[mm]}	0.265485
{$S_c$}	{[mm$^2$]}	0.364384
{$S_o$}	{[mm$^2$]}	0.244297
{$S_l/S_o$}	[]	0.491562
{$\Psi$}	[]	0.607676
{$\eta$}	[]	0.653286
{med($\theta_e$)}	{[$^\circ$]}	68.01135
{$\Upsilon$}	[]	13
{$\Xi$}	[]	16
