Q	U	V
{$V$}	{[mm$^3$]}	0.0086363
{$d_v$}	{[mm]}	0.254552
{$S_c$}	{[mm$^2$]}	0.406123
{$S_o$}	{[mm$^2$]}	0.238425
{$S_l/S_o$}	[]	0.703357
{$\Psi$}	[]	0.501239
{$\eta$}	[]	0.555280
{med($\theta_e$)}	{[$^\circ$]}	
{$\Upsilon$}	[]	16
{$\Xi$}	[]	7
