Q	U	V
{$V$}	{[mm$^3$]}	0.00345072
{$d_v$}	{[mm]}	0.187487
{$S_c$}	{[mm$^2$]}	0.27233
{$S_o$}	{[mm$^2$]}	0.106135
{$S_l/S_o$}	[]	1.565883
{$\Psi$}	[]	0.405504
{$\eta$}	[]	0.417732
{med($\theta_e$)}	{[$^\circ$]}	
{$\Upsilon$}	[]	11
{$\Xi$}	[]	1
