Q	U	V
{$V$}	{[mm$^3$]}	0.00839525
{$d_v$}	{[mm]}	0.252161
{$S_c$}	{[mm$^2$]}	0.383591
{$S_o$}	{[mm$^2$]}	0.22654
{$S_l/S_o$}	[]	0.693259
{$\Psi$}	[]	0.520761
{$\eta$}	[]	0.564489
{med($\theta_e$)}	{[$^\circ$]}	60.2349
{$\Upsilon$}	[]	11
{$\Xi$}	[]	15
