Q	U	V
{$V$}	{[mm$^3$]}	0.00721018
{$d_v$}	{[mm]}	0.239690
{$S_c$}	{[mm$^2$]}	0.332873
{$S_o$}	{[mm$^2$]}	0.166332
{$S_l/S_o$}	[]	1.001257
{$\Psi$}	[]	0.542213
{$\eta$}	[]	0.558751
{med($\theta_e$)}	{[$^\circ$]}	55.37785
{$\Upsilon$}	[]	16
{$\Xi$}	[]	12
