Q	U	V
{$V$}	{[mm$^3$]}	0.00316336
{$d_v$}	{[mm]}	0.182131
{$S_c$}	{[mm$^2$]}	0.221315
{$S_o$}	{[mm$^2$]}	0.120221
{$S_l/S_o$}	[]	0.840901
{$\Psi$}	[]	0.470875
{$\eta$}	[]	0.534614
{med($\theta_e$)}	{[$^\circ$]}	60.639
{$\Upsilon$}	[]	13
{$\Xi$}	[]	11
