Q	U	V
{$V$}	{[mm$^3$]}	0.00468804
{$d_v$}	{[mm]}	0.207650
{$S_c$}	{[mm$^2$]}	0.286807
{$S_o$}	{[mm$^2$]}	0.167297
{$S_l/S_o$}	[]	0.714358
{$\Psi$}	[]	0.472304
{$\eta$}	[]	0.496581
{med($\theta_e$)}	{[$^\circ$]}	52.004
{$\Upsilon$}	[]	17
{$\Xi$}	[]	10
