Q	U	V
{$V$}	{[mm$^3$]}	0.00430093
{$d_v$}	{[mm]}	0.201769
{$S_c$}	{[mm$^2$]}	0.229379
{$S_o$}	{[mm$^2$]}	0.14434
{$S_l/S_o$}	[]	0.589158
{$\Psi$}	[]	0.557578
{$\eta$}	[]	0.600805
{med($\theta_e$)}	{[$^\circ$]}	
{$\Upsilon$}	[]	12
{$\Xi$}	[]	23
