Q	U	V
{$V$}	{[mm$^3$]}	0.00151874
{$d_v$}	{[mm]}	0.142614
{$S_c$}	{[mm$^2$]}	0.13019
{$S_o$}	{[mm$^2$]}	0.0755531
{$S_l/S_o$}	[]	0.723159
{$\Psi$}	[]	0.49079
{$\eta$}	[]	0.521638
{med($\theta_e$)}	{[$^\circ$]}	78.284
{$\Upsilon$}	[]	13
{$\Xi$}	[]	9
