facetNormals:0,facetNormals:1,facetNormals:2,FacetCenters:0,FacetCenters:1,FacetCenters:2,FacetIds,relFacetSize,absFacetSize,cellPairingIds,interplanarAngles,angleWeights
0.0680999,-0.328219,-0.892985,2.94669,6.57899,8.0936,1,0.0725273,0.0104048,8,33.7146,0.0582267
0.281571,0.189574,-0.916857,2.95311,6.61756,8.08939,2,0.0486368,0.00697745,13,66.9615,0.0441194
0.0512215,0.714115,-0.667836,2.90348,6.66908,8.11148,3,0.0317021,0.00454799,19,69.3803,0.0239359
0.617315,0.564944,-0.533964,2.9098,6.6826,8.15828,4,0.0143331,0.00205623,26,47.9709,0.0347692
0.672025,-0.540581,-0.443644,2.95882,6.55784,8.18528,5,0.0228653,0.00328027,34,76.2775,0.0781613
-0.775037,0.366839,-0.437898,2.8518,6.66732,8.14766,6,0.0847443,0.0121574,43,68.374,0.0830778
-0.77286,-0.537501,-0.244233,2.85581,6.58092,8.13068,7,0.0972206,0.0139473,53,95.0072,0.0730865
0.21406,0.893025,-0.22379,2.94117,6.6784,8.17086,8,0.0736544,0.0105665,64,119.242,0.0631827
0.201295,0.928473,0.178481,2.94732,6.67973,8.19255,9,0.0559712,0.00802964,76,83.6199,0.0855358
-0.34658,-0.875659,0.181579,2.92419,6.55112,8.19049,10,0.104231,0.014953,89,127.832,0.0338681
-0.68965,-0.21691,0.675214,2.94696,6.5843,8.26006,11,0.0220922,0.00316936,103,126.526,0.0554709
-0.347611,-0.486738,0.77452,2.91158,6.56881,8.21493,12,0.0449095,0.00644273,118,168.201,0.0826853
-0.137598,0.148604,0.927515,2.89143,6.64495,8.23334,13,0.0961522,0.013794,18,37.2338,0.0383846
,,,,,,,,,25,37.4472,0.0221413
,,,,,,,,,33,58.6378,0.0311067
,,,,,,,,,42,74.4211,0.0618032
,,,,,,,,,52,95.7694,0.0648373
,,,,,,,,,63,61.9358,0.0585866
,,,,,,,,,75,85.81,0.0520469
,,,,,,,,,88,117.3,0.0663248
,,,,,,,,,102,152.056,0.0303834
,,,,,,,,,117,160.217,0.0466989
,,,,,,,,,133,158.063,0.0645979
,,,,,,,,,32,35.4562,0.019741
,,,,,,,,,41,93.3406,0.0265682
,,,,,,,,,51,56.9059,0.0461427
,,,,,,,,,62,105.866,0.0478131
,,,,,,,,,74,30.4055,0.0443257
,,,,,,,,,87,54.1607,0.0404777
,,,,,,,,,101,144.485,0.0486172
,,,,,,,,,116,131.452,0.0260388
,,,,,,,,,132,157.107,0.0371674
,,,,,,,,,149,124.043,0.0476828
,,,,,,,,,50,68.9156,0.0176207
,,,,,,,,,61,92.2413,0.0245192
,,,,,,,,,73,132.349,0.024983
,,,,,,,,,86,36.3017,0.0239965
,,,,,,,,,100,54.7727,0.022822
,,,,,,,,,115,147.798,0.0252008
,,,,,,,,,131,157.745,0.0173863
,,,,,,,,,148,158.392,0.0217307
,,,,,,,,,166,121.775,0.0249474
,,,,,,,,,72,124.2,0.0360136
,,,,,,,,,85,97.3374,0.0370232
,,,,,,,,,99,105.152,0.0348972
,,,,,,,,,114,118.393,0.0324672
,,,,,,,,,130,80.102,0.0375035
,,,,,,,,,147,132.304,0.0224721
,,,,,,,,,165,109.326,0.0303024
,,,,,,,,,184,129.388,0.036945
,,,,,,,,,98,57.0895,0.0905547
,,,,,,,,,113,73.4197,0.0788111
,,,,,,,,,129,83.4335,0.067416
,,,,,,,,,146,98.2263,0.0934829
,,,,,,,,,164,80.3744,0.0350478
,,,,,,,,,183,105.28,0.0587075
,,,,,,,,,203,105.547,0.0900885
,,,,,,,,,128,129.991,0.0838124
,,,,,,,,,145,137.96,0.0710424
,,,,,,,,,163,41.9092,0.100604
,,,,,,,,,182,59.7494,0.0360032
,,,,,,,,,202,68.9972,0.0614385
,,,,,,,,,223,102.514,0.0966834
,,,,,,,,,162,24.367,0.0636066
,,,,,,,,,181,171.6,0.0863147
,,,,,,,,,201,121.78,0.0339895
,,,,,,,,,222,137.542,0.0557975
,,,,,,,,,244,96.6757,0.0834129
,,,,,,,,,200,156.524,0.0728321
,,,,,,,,,221,103.283,0.0316801
,,,,,,,,,243,113.927,0.0498339
,,,,,,,,,266,72.5093,0.0707551
,,,,,,,,,242,54.4548,0.0364572
,,,,,,,,,265,42.9185,0.0627725
,,,,,,,,,289,84.5817,0.100029
,,,,,,,,,288,26.2421,0.0296157
,,,,,,,,,313,42.8132,0.0359292
,,,,,,,,,338,41.6793,0.0612235
