"cellPairingIds","interplanarAngles","angleWeights"
8,51.752,0.0222287
13,59.856,0.0372586
19,70.3003,0.036894
34,58.7717,0.0366903
18,68.1186,0.0378407
42,80.5149,0.0372546
52,124.318,0.0233401
63,92.3609,0.031258
75,113.661,0.0311182
117,129.419,0.0350162
32,71.3055,0.117037
62,81.9534,0.0404905
101,97.7363,0.0825765
61,81.9569,0.111607
100,93.1919,0.0701593
115,59.7867,0.0808066
131,75.7353,0.0551117
129,46.998,0.0694262
163,41.4798,0.0350532
202,54.3963,0.0372734
162,27.2612,0.0511422
201,63.7328,0.042653
222,58.8358,0.0625941
221,44.0235,0.0423932
242,39.1025,0.0460603
265,54.8116,0.0702169
288,38.4313,0.0499717
