"cellPairingIds","interplanarAngles","angleWeights"
8,84.8136,0.0279026
13,26.6544,0.0793889
19,62.5485,0.120956
26,128.017,0.0135915
34,87.7938,0.00733676
33,55.732,0.0102403
42,31.3366,0.00623528
32,74.33,0.109859
51,76.0318,0.00729209
62,24.087,0.0291066
50,127.28,0.014269
73,73.0789,0.0333026
115,66.7798,0.246299
72,75.1839,0.00504759
99,29.5084,0.0089085
130,93.4841,0.0144158
98,82.4699,0.00632671
113,53.8372,0.00571505
146,138.743,0.00757045
183,97.2233,0.00734694
163,104.66,0.0341134
202,45.3071,0.0300007
181,98.067,0.0216307
265,65.5125,0.135779
