Q	U	V
{$V$}	{[mm$^3$]}	0.00655352
{$d_v$}	{[mm]}	0.232180
{$S_c$}	{[mm$^2$]}	0.266935
{$S_o$}	{[mm$^2$]}	0.168424
{$S_l/S_o$}	[]	0.584899
{$\Psi$}	[]	0.634447
{$\eta$}	[]	0.660850
{med($\theta_e$)}	{[$^\circ$]}	66.63045
{$\Upsilon$}	[]	12
{$\Xi$}	[]	9
