"cellPairingIds","interplanarAngles","angleWeights"
8,46.4103,0.033463
13,77.6779,0.0222859
19,108.427,0.0331674
64,113.64,0.0308488
18,85.5458,0.0467083
42,82.1445,0.140174
75,105.493,0.111678
88,94.2124,0.0416424
32,78.2619,0.0461343
41,28.8361,0.0360572
51,36.0925,0.0452047
50,54.6093,0.0768492
86,51.6298,0.089726
100,93.2351,0.108452
72,43.703,0.0743039
85,43.7717,0.0241265
99,84.5141,0.0581297
98,49.5126,0.0279049
146,102.276,0.0404431
128,53.7214,0.0252649
163,82.4232,0.0189696
162,54.752,0.074565
181,60.7491,0.0351237
200,37.8045,0.0376698
