"cellPairingIds","interplanarAngles","angleWeights"
8,43.8673,0.0305571
13,31.7784,0.053733
19,55.9583,0.0149084
34,52.7738,0.0441992
89,144.359,0.0450343
18,28.5226,0.0436807
52,49.6913,0.0407603
102,101.574,0.0377527
41,51.8121,0.0684127
51,66.9642,0.07817
62,66.6357,0.095982
74,60.993,0.0814658
61,26.1425,0.0163243
100,41.2912,0.0101736
131,155.389,0.0164369
72,27.104,0.0536726
99,72.9748,0.0552061
114,55.6951,0.017964
130,40.3703,0.0512385
129,40.2691,0.0185727
128,39.8851,0.0718629
182,56.0923,0.0713603
223,83.1519,0.100363
181,70.8183,0.0582259
244,63.1881,0.0846004
200,40.1657,0.0182724
221,123.751,0.0187186
243,32.2254,0.0186298
266,76.9692,0.0202539
265,27.0797,0.0570543
289,56.4715,0.0756264
313,55.3221,0.0839047
338,45.1489,0.0821492
