facetNormals:0,facetNormals:1,facetNormals:2,FacetCenters:0,FacetCenters:1,FacetCenters:2,FacetIds,relFacetSize,absFacetSize,cellPairingIds,interplanarAngles,angleWeights
-0.174929,-0.0122257,-0.964551,4.70112,7.13201,4.43101,1,0.0279018,0.00466753,8,30.1601,0.0366542
0.198738,0.322981,-0.891609,4.74109,7.17858,4.43505,2,0.0534075,0.00893423,13,71.9992,0.0159689
0.820521,0.290969,-0.462071,4.78757,7.15684,4.45405,3,0.0111852,0.00187111,19,68.0103,0.0374625
0.706732,-0.382221,-0.479405,4.79549,7.1296,4.48229,4,0.0569906,0.00953363,26,50.3892,0.0456269
-0.809459,0.155203,-0.470006,4.61732,7.16013,4.49391,5,0.125098,0.0209268,34,66.8268,0.0284642
-0.165738,0.897829,-0.376285,4.70399,7.2163,4.48378,6,0.0290498,0.00485958,43,93.9618,0.0463834
0.0531322,0.905927,0.0426796,4.715,7.21793,4.53242,7,0.137384,0.0229822,53,108.397,0.0300341
-0.82977,0.202195,0.458919,4.61323,7.12536,4.58427,8,0.0325193,0.00543997,64,126.125,0.0397413
0.866524,0.0874159,0.421525,4.80181,7.13451,4.58507,9,0.0690344,0.0115484,76,129.802,0.0286357
0.655946,-0.502314,0.523924,4.78763,7.15139,4.56236,10,0.0294093,0.00491972,89,130.169,0.0206645
-0.456084,-0.465277,0.730227,4.63486,7.11583,4.60547,11,0.0164084,0.00274488,103,130.992,0.039066
-0.161561,0.686478,0.668422,4.68293,7.17487,4.5997,12,0.0651236,0.0108942,118,157.839,0.0427687
-0.118046,0.243487,0.930421,4.7016,7.1289,4.62421,13,0.0915488,0.0153147,18,45.5261,0.0184967
,,,,,,,,,25,60.6417,0.0551409
,,,,,,,,,33,70.404,0.0748567
,,,,,,,,,42,51.735,0.0376311
,,,,,,,,,52,72.472,0.0769147
,,,,,,,,,63,122.793,0.0404245
,,,,,,,,,75,100.783,0.0602237
,,,,,,,,,88,121.766,0.0379314
,,,,,,,,,102,160.172,0.0251041
,,,,,,,,,117,115.571,0.0586865
,,,,,,,,,133,145.572,0.0674602
,,,,,,,,,32,41.5435,0.0187003
,,,,,,,,,41,115.449,0.0205345
,,,,,,,,,51,72.1017,0.0161515
,,,,,,,,,62,71.2736,0.0206863
,,,,,,,,,74,150.789,0.0166452
,,,,,,,,,87,55.3898,0.0192513
,,,,,,,,,101,81.0523,0.0162066
,,,,,,,,,116,151.42,0.0133025
,,,,,,,,,132,104.617,0.0190914
,,,,,,,,,149,118.516,0.0199349
,,,,,,,,,50,117.221,0.0783069
,,,,,,,,,61,107.635,0.0384835
,,,,,,,,,73,112.784,0.080562
,,,,,,,,,86,166.955,0.0414098
,,,,,,,,,100,65.3961,0.062437
,,,,,,,,,115,63.7805,0.0387976
,,,,,,,,,131,122.693,0.0254806
,,,,,,,,,148,140.058,0.0607862
,,,,,,,,,166,133.368,0.0702496
,,,,,,,,,72,61.2707,0.0471505
,,,,,,,,,85,84.8392,0.130953
,,,,,,,,,99,58.0088,0.05162
,,,,,,,,,114,164.813,0.0889708
,,,,,,,,,130,157.118,0.0476229
,,,,,,,,,147,92.8546,0.0290116
,,,,,,,,,165,94.7811,0.0856561
,,,,,,,,,184,109.307,0.105726
,,,,,,,,,98,28.4882,0.0479588
,,,,,,,,,113,81.2058,0.0306868
,,,,,,,,,129,103.543,0.0408922
,,,,,,,,,146,141.576,0.0292285
,,,,,,,,,164,129.67,0.0209714
,,,,,,,,,183,65.9133,0.0401776
,,,,,,,,,203,96.7176,0.0441046
,,,,,,,,,128,79.6219,0.0525904
,,,,,,,,,145,80.6227,0.0918933
,,,,,,,,,163,116.592,0.0484477
,,,,,,,,,182,117.794,0.0293156
,,,,,,,,,202,43.3566,0.0883616
,,,,,,,,,223,73.2282,0.109878
,,,,,,,,,162,122.78,0.0442121
,,,,,,,,,181,115.304,0.0308863
,,,,,,,,,201,49.2398,0.0218114
,,,,,,,,,222,52.0297,0.043378
,,,,,,,,,244,52.3256,0.0479915
,,,,,,,,,200,38.0573,0.041247
,,,,,,,,,221,97.7733,0.0265147
,,,,,,,,,243,77.6072,0.067022
,,,,,,,,,266,70.6146,0.0787133
,,,,,,,,,242,70.6559,0.0210644
,,,,,,,,,265,96.0749,0.0405201
,,,,,,,,,289,72.3303,0.0445177
,,,,,,,,,288,75.2326,0.0262124
,,,,,,,,,313,49.172,0.027829
,,,,,,,,,338,30.8704,0.0761077
