facetNormals:0,facetNormals:1,facetNormals:2,FacetCenters:0,FacetCenters:1,FacetCenters:2,FacetIds,relFacetSize,absFacetSize,cellPairingIds,interplanarAngles,angleWeights
0.201265,-0.0940281,-0.885982,3.75077,5.20064,4.42619,1,0.0331079,0.00585199,8,42.4521,0.0269403
-0.435331,-0.341063,-0.806672,3.72975,5.15075,4.42498,2,0.0227097,0.00401405,13,48.5978,0.0196674
-0.152131,-0.740425,-0.624489,3.73618,5.15285,4.42317,3,0.0139885,0.00247254,19,86.3672,0.00930615
-0.798355,0.487767,-0.29725,3.77117,5.24176,4.48628,4,0.00541397,0.000956946,26,98.5595,0.0473189
-0.900465,-0.30721,-0.0259069,3.67826,5.21839,4.49081,5,0.0829037,0.0146537,34,92.0132,0.0499535
0.894538,0.182521,0.217832,3.81806,5.28038,4.53868,6,0.101698,0.0179757,43,91.2014,0.0354311
0.900845,-0.310738,0.258965,3.84187,5.20075,4.48723,7,0.038105,0.00673524,53,133.165,0.0554602
-0.654936,0.507992,0.468965,3.68435,5.31936,4.53602,8,0.170716,0.0301749,64,105.425,0.044337
0.118676,-0.891404,0.39039,3.76013,5.13733,4.47457,9,0.0670923,0.0118589,76,106.6,0.0251422
0.676915,-0.520329,0.500474,3.82633,5.19357,4.50144,10,0.0202662,0.00358215,89,119.634,0.041882
0.263464,0.806286,0.468166,3.7692,5.36112,4.55381,11,0.0569834,0.0100721,103,113.87,0.0245268
0.435048,-0.670817,0.58278,3.79711,5.18402,4.52618,12,0.0194783,0.0034429,118,135.449,0.0538921
-0.184825,-0.604554,0.733723,3.71802,5.20796,4.55123,13,0.144781,0.0255907,134,145.105,0.0332739
0.365298,0.0829193,0.893205,3.76462,5.29288,4.56355,14,0.0334416,0.00591097,18,30.9383,0.0173128
,,,,,,,,,25,63.9936,0.00874349
,,,,,,,,,33,56.2123,0.035653
,,,,,,,,,42,133.113,0.0371284
,,,,,,,,,52,120.838,0.0284586
,,,,,,,,,63,106.623,0.0400868
,,,,,,,,,75,93.7408,0.0339334
,,,,,,,,,88,122.561,0.0214185
,,,,,,,,,102,144.076,0.0324765
,,,,,,,,,117,116.43,0.0209703
,,,,,,,,,133,108.798,0.039261
,,,,,,,,,150,163.402,0.0270501
,,,,,,,,,32,93.2204,0.00780657
,,,,,,,,,41,65.9286,0.023938
,,,,,,,,,51,116.266,0.0245942
,,,,,,,,,62,94.0682,0.0204645
,,,,,,,,,74,127.572,0.0258582
,,,,,,,,,87,65.5291,0.0231503
,,,,,,,,,101,91.7868,0.0165521
,,,,,,,,,116,168.07,0.0224628
,,,,,,,,,132,86.0654,0.0162832
,,,,,,,,,149,88.9415,0.0255121
,,,,,,,,,167,135.277,0.0197258
,,,,,,,,,50,51.8816,0.0101642
,,,,,,,,,61,138.482,0.0102806
,,,,,,,,,73,167.872,0.00948089
,,,,,,,,,86,47.5271,0.0104951
,,,,,,,,,100,132.131,0.0100194
,,,,,,,,,115,166.082,0.00854516
,,,,,,,,,131,87.3617,0.00988844
,,,,,,,,,148,150.793,0.00847291
,,,,,,,,,166,112.604,0.0104376
,,,,,,,,,185,122.918,0.00931922
,,,,,,,,,72,166.11,0.0913443
,,,,,,,,,85,140.232,0.0522118
,,,,,,,,,99,62.2856,0.111608
,,,,,,,,,114,80.3214,0.0741646
,,,,,,,,,130,119.418,0.0325704
,,,,,,,,,147,122.618,0.0675421
,,,,,,,,,165,102.31,0.0315451
,,,,,,,,,184,68.8134,0.105434
,,,,,,,,,204,114.177,0.0476587
,,,,,,,,,98,29.6454,0.055438
,,,,,,,,,113,115.94,0.127464
,,,,,,,,,129,88.2251,0.0808478
,,,,,,,,,146,48.1638,0.0337973
,,,,,,,,,164,57.7819,0.0730407
,,,,,,,,,183,64.9171,0.0326947
,,,,,,,,,203,97.3217,0.119474
,,,,,,,,,224,53.8346,0.0503324
,,,,,,,,,128,131.766,0.0623034
,,,,,,,,,145,59.9347,0.0486048
,,,,,,,,,163,22.7751,0.0264597
,,,,,,,,,182,83.5163,0.0456701
,,,,,,,,,202,39.7401,0.0257791
,,,,,,,,,223,77.2318,0.0603313
,,,,,,,,,245,56.0163,0.0356213
,,,,,,,,,162,111.85,0.0963274
,,,,,,,,,181,120.12,0.0362312
,,,,,,,,,201,60.3398,0.0854458
,,,,,,,,,222,111.963,0.034967
,,,,,,,,,244,80.1343,0.156682
,,,,,,,,,267,76.089,0.0559276
,,,,,,,,,200,40.338,0.0311293
,,,,,,,,,221,122.097,0.061626
,,,,,,,,,243,25.2731,0.0301915
,,,,,,,,,266,32.2035,0.0916933
,,,,,,,,,290,70.4249,0.0446352
,,,,,,,,,242,90.4115,0.0298988
,,,,,,,,,265,17.2337,0.0198645
,,,,,,,,,289,54.495,0.0355554
,,,,,,,,,314,47.2105,0.0252378
,,,,,,,,,288,99.2093,0.0290326
,,,,,,,,,313,101.847,0.0817796
,,,,,,,,,339,51.7265,0.042148
,,,,,,,,,338,38.2283,0.0343371
,,,,,,,,,365,49.3838,0.0246178
,,,,,,,,,392,55.0247,0.0543333
