facetNormals:0,facetNormals:1,facetNormals:2,FacetCenters:0,FacetCenters:1,FacetCenters:2,FacetIds,relFacetSize,absFacetSize,cellPairingIds,interplanarAngles,angleWeights
-0.101473,-0.919943,-0.0149556,6.21552,5.31955,5.95964,1,0.0369788,0.00490695,8,62.7254,0.0497906
0.633897,-0.507873,-0.52729,6.32047,5.41609,5.86744,2,0.0761864,0.0101096,13,156.601,0.0301053
-0.247089,0.922809,-0.150752,6.25005,5.51192,5.86258,3,0.0253865,0.00336869,19,91.0886,0.0572151
0.900788,-0.0791654,-0.162002,6.30103,5.43746,5.89916,4,0.12637,0.0167687,26,160.512,0.0485459
0.309985,0.874115,0.255301,6.28608,5.51524,5.91524,5,0.0706433,0.00937409,34,147.596,0.0178724
-0.330299,0.871841,0.332236,6.28496,5.54224,5.88608,6,0.0117839,0.00156368,43,64.4539,0.0439087
-0.684665,-0.339835,0.541854,6.16911,5.37238,5.98959,7,0.0540349,0.00717021,53,119.843,0.0490124
-0.402323,0.515938,0.709072,6.19325,5.46467,5.99992,8,0.0726557,0.00964113,64,91.347,0.0651683
0.541997,-0.0500503,0.75282,6.26641,5.39309,5.98077,9,0.274178,0.0363824,18,125.646,0.0380831
,,,,,,,,,25,38.4579,0.0950616
,,,,,,,,,33,114.213,0.0733102
,,,,,,,,,42,149.678,0.0204108
,,,,,,,,,52,127.086,0.0632266
,,,,,,,,,63,162.476,0.0743792
,,,,,,,,,75,91.7814,0.11924
,,,,,,,,,32,107.773,0.0422794
,,,,,,,,,41,41.983,0.0373506
,,,,,,,,,51,29.139,0.0160962
,,,,,,,,,62,104.45,0.0345437
,,,,,,,,,74,59.8524,0.0376261
,,,,,,,,,87,109.074,0.0464702
,,,,,,,,,50,78.9964,0.0906252
,,,,,,,,,61,117.538,0.0215575
,,,,,,,,,73,141.93,0.0757006
,,,,,,,,,86,125.773,0.0922644
,,,,,,,,,100,64.2898,0.173002
,,,,,,,,,72,38.5564,0.0201985
,,,,,,,,,85,114.304,0.0612329
,,,,,,,,,99,56.8653,0.0716354
,,,,,,,,,114,69.2602,0.112341
,,,,,,,,,98,83.1947,0.0193483
,,,,,,,,,113,31.0266,0.0202788
,,,,,,,,,129,88.2888,0.0225966
,,,,,,,,,128,57.6023,0.0619769
,,,,,,,,,145,86.4535,0.0902778
,,,,,,,,,162,71.1269,0.114871
