Q	U	V
{$V$}	{[mm$^3$]}	0.0107654
{$d_v$}	{[mm]}	0.273954
{$S_c$}	{[mm$^2$]}	0.380644
{$S_o$}	{[mm$^2$]}	0.264909
{$S_l/S_o$}	[]	0.436886
{$\Psi$}	[]	0.61942
{$\eta$}	[]	0.661413
{med($\theta_e$)}	{[$^\circ$]}	61.14025
{$\Upsilon$}	[]	12
{$\Xi$}	[]	12
