facetNormals:0,facetNormals:1,facetNormals:2,FacetCenters:0,FacetCenters:1,FacetCenters:2,FacetIds,relFacetSize,absFacetSize,cellPairingIds,interplanarAngles,angleWeights
-0.05193,0.0961327,-0.97349,2.95341,6.87688,5.73398,1,0.0391554,0.0131605,8,60.7126,0.034983
0.696584,-0.330999,-0.530688,3.01592,6.74546,5.8148,2,0.0316142,0.0106258,13,41.5955,0.0218983
-0.052409,0.72421,-0.66836,2.96361,6.93363,5.80199,3,0.0151995,0.00510867,19,52.8766,0.0607895
-0.739918,-0.217592,-0.561345,2.88825,6.77237,5.78961,4,0.135849,0.0456599,26,54.1381,0.0405433
-0.60962,0.584775,-0.483532,2.90012,6.93229,5.77699,5,0.0420332,0.0141277,34,89.4762,0.0253878
0.872022,0.363898,-0.019276,3.03206,6.89858,5.82906,6,0.0187834,0.00631325,43,102.174,0.0402541
-0.877367,-0.357291,0.217788,2.91177,6.68054,5.89848,7,0.0414162,0.0139203,53,107.655,0.0457698
-0.588074,-0.715644,0.253802,2.9288,6.65399,5.89176,8,0.0550733,0.0185106,64,101.192,0.0306985
-0.465861,0.819673,0.298975,2.99558,6.91236,5.94051,9,0.0252459,0.00848536,76,106.196,0.0475833
-0.872348,0.260105,0.345507,2.90094,6.82582,5.94603,10,0.0606346,0.0203798,89,112.944,0.0524101
0.266494,0.800882,0.437879,3.03733,6.93344,5.91675,11,0.079231,0.0266302,103,119.475,0.030857
-0.493728,0.631412,0.577974,2.98919,6.87885,5.93822,12,0.025461,0.00855765,118,141.634,0.0542374
-0.479318,0.219591,0.80937,2.91067,6.83964,5.94668,13,0.0882172,0.0296506,134,143.687,0.0462683
0.0799893,-0.636717,0.707154,3.00201,6.66437,5.97854,14,0.0565392,0.0190033,151,169.472,0.0475753
0.224958,-0.0988204,0.927638,3.03401,6.76619,6.02246,15,0.0606085,0.020371,18,85.1277,0.020529
,,,,,,,,,25,99.3766,0.051292
,,,,,,,,,33,113.381,0.0360867
,,,,,,,,,42,55.808,0.0235655
,,,,,,,,,52,131.963,0.0358574
,,,,,,,,,63,109.996,0.0401696
,,,,,,,,,75,144.57,0.0280734
,,,,,,,,,88,164.208,0.0415597
,,,,,,,,,102,110.506,0.045195
,,,,,,,,,117,158.316,0.0282059
,,,,,,,,,133,157.606,0.0465474
,,,,,,,,,150,96.9908,0.040553
,,,,,,,,,168,109.702,0.0415536
,,,,,,,,,32,74.1965,0.02734
,,,,,,,,,41,35.8474,0.0223258
,,,,,,,,,51,75.6782,0.0168024
,,,,,,,,,62,111.934,0.0222378
,,,,,,,,,74,133.889,0.0238239
,,,,,,,,,87,64.631,0.0189749
,,,,,,,,,101,89.8112,0.0243061
,,,,,,,,,116,73.0628,0.0255059
,,,,,,,,,132,84.3002,0.0190354
,,,,,,,,,149,111.981,0.0259311
,,,,,,,,,167,174.43,0.0239582
,,,,,,,,,186,137.961,0.024304
,,,,,,,,,50,50.1255,0.0642016
,,,,,,,,,61,142.328,0.0330035
,,,,,,,,,73,49.2982,0.0634794
,,,,,,,,,86,60.6978,0.0783737
,,,,,,,,,100,90.0901,0.042579
,,,,,,,,,115,64.8365,0.0838456
,,,,,,,,,131,132.883,0.100088
,,,,,,,,,148,95.8767,0.0428845
,,,,,,,,,166,99.2091,0.10697
,,,,,,,,,185,110.406,0.0798467
,,,,,,,,,205,136.652,0.0838206
,,,,,,,,,72,109.659,0.0259641
,,,,,,,,,85,76.5157,0.0417224
,,,,,,,,,99,101.271,0.0476777
,,,,,,,,,114,50.0049,0.0315452
,,,,,,,,,130,56.951,0.0496488
,,,,,,,,,147,84.1617,0.0549269
,,,,,,,,,165,66.0304,0.0317125
,,,,,,,,,184,88.2168,0.0569373
,,,,,,,,,204,145.178,0.0482188
,,,,,,,,,225,133.543,0.04964
,,,,,,,,,98,168.211,0.0258452
,,,,,,,,,113,149.011,0.0280127
,,,,,,,,,129,96.988,0.0215404
,,,,,,,,,146,136.974,0.0286817
,,,,,,,,,164,55.0056,0.0303675
,,,,,,,,,183,103.115,0.0216183
,,,,,,,,,203,112.793,0.0309721
,,,,,,,,,224,101.218,0.0281986
,,,,,,,,,246,80.9713,0.0286788
,,,,,,,,,128,27.6528,0.0472782
,,,,,,,,,145,79.1497,0.0313698
,,,,,,,,,163,37.8149,0.0492158
,,,,,,,,,182,117.347,0.0543974
,,,,,,,,,202,69.6867,0.0315353
,,,,,,,,,223,56.4914,0.0563685
,,,,,,,,,245,70.4033,0.0478103
,,,,,,,,,268,87.5444,0.0492072
,,,,,,,,,162,104.432,0.0346212
,,,,,,,,,181,63.6843,0.0577203
,,,,,,,,,201,132.65,0.0649794
,,,,,,,,,222,90.8951,0.0348229
,,,,,,,,,244,69.153,0.067812
,,,,,,,,,267,50.115,0.0557966
,,,,,,,,,291,79.1261,0.0577084
,,,,,,,,,200,41.3539,0.035649
,,,,,,,,,221,45.155,0.0382909
,,,,,,,,,243,19.6693,0.025353
,,,,,,,,,266,47.515,0.0392572
,,,,,,,,,290,111.603,0.0349057
,,,,,,,,,315,84.4655,0.0356444
,,,,,,,,,242,82.1077,0.0686965
,,,,,,,,,265,34.3217,0.0358628
,,,,,,,,,289,36.6165,0.0718704
,,,,,,,,,314,89.4494,0.0585153
,,,,,,,,,340,83.9449,0.0606216
,,,,,,,,,288,48.1269,0.0385378
,,,,,,,,,313,64.0072,0.0834829
,,,,,,,,,339,101.368,0.0659888
,,,,,,,,,366,64.9053,0.0686797
,,,,,,,,,338,27.9612,0.0395167
,,,,,,,,,365,91.9924,0.0351107
,,,,,,,,,393,67.5135,0.0358583
,,,,,,,,,392,64.7002,0.068912
,,,,,,,,,421,47.9144,0.071852
,,,,,,,,,450,36.4717,0.0585032
