Q	U	V
{$V$}	{[mm$^3$]}	0.0113639
{$d_v$}	{[mm]}	0.278939
{$S_c$}	{[mm$^2$]}	0.360516
{$S_o$}	{[mm$^2$]}	0.274286
{$S_l/S_o$}	[]	0.314380
{$\Psi$}	[]	0.678023
{$\eta$}	[]	0.684033
{med($\theta_e$)}	{[$^\circ$]}	66.8966
{$\Upsilon$}	[]	16
{$\Xi$}	[]	14
