"cellPairingIds","interplanarAngles","angleWeights"
13,79.9287,0.0135561
26,41.7813,0.0122606
43,98.9315,0.0127905
64,68.8485,0.0117427
76,124.986,0.0147469
89,89.145,0.0104771
62,72.2232,0.0377508
74,61.2331,0.0176262
101,78.5435,0.0620446
114,33.2661,0.0242365
147,64.2236,0.0193999
204,61.8431,0.0456316
128,78.2041,0.0163535
145,80.8564,0.0263985
202,46.2805,0.0507926
223,72.7803,0.0494929
181,42.7975,0.019694
222,49.515,0.0200272
244,55.4285,0.019822
266,93.4047,0.0367903
290,40.969,0.0391977
242,74.7052,0.0264581
289,72.4399,0.1017
314,107.481,0.122497
339,54.019,0.0279341
338,28.7077,0.111258
392,62.184,0.127621
