facetNormals:0,facetNormals:1,facetNormals:2,FacetCenters:0,FacetCenters:1,FacetCenters:2,FacetIds,relFacetSize,absFacetSize,cellPairingIds,interplanarAngles,angleWeights
-0.585347,0.422912,-0.63277,3.11173,3.56353,7.32966,1,0.0288208,0.00713197,8,52.3451,0.0389551
-0.778378,-0.380013,-0.430617,3.01146,3.52233,7.31236,2,0.0600816,0.0148677,13,116.482,0.0359662
0.847695,-0.225789,-0.306351,3.29569,3.50236,7.37469,3,0.0478227,0.0118342,19,48.4969,0.0215457
-0.98034,-0.0493927,-0.120543,2.98768,3.53443,7.35271,4,0.0172032,0.0042571,26,76.3585,0.030329
-0.892642,-0.300039,0.274207,3.00333,3.52842,7.38411,5,0.0320037,0.0079196,34,125.353,0.0392191
-0.0970432,-0.897826,0.335529,3.14002,3.46352,7.39247,6,0.0613555,0.015183,43,83.9015,0.0488155
-0.0479409,0.833052,0.448414,3.12814,3.61709,7.38497,7,0.159402,0.0394456,53,93.9401,0.027153
-0.543489,0.25746,0.7773,3.07396,3.58285,7.38964,8,0.0256676,0.00635168,64,106.02,0.0273171
-0.102682,0.500754,0.84224,3.0713,3.61099,7.35829,9,0.0259624,0.00642464,76,146.417,0.0410563
0.0692049,-0.576542,0.788036,3.18115,3.46345,7.42537,10,0.071345,0.017655,89,124.169,0.0414431
-0.264089,-0.260184,0.899628,3.15051,3.50023,7.42841,11,0.0737368,0.0182468,103,155.436,0.0397341
0.337675,-0.211306,0.882037,3.22375,3.51886,7.43446,12,0.0639489,0.0158247,18,119.463,0.0532558
,,,,,,,,,25,29.3616,0.0267478
,,,,,,,,,33,43.2771,0.041762
,,,,,,,,,42,73.0143,0.0607119
,,,,,,,,,52,121.029,0.0872697
,,,,,,,,,63,90.5735,0.0359688
,,,,,,,,,75,119.76,0.0362574
,,,,,,,,,88,100.596,0.0652306
,,,,,,,,,102,95.0567,0.0662125
,,,,,,,,,117,126.919,0.0619549
,,,,,,,,,32,148.431,0.0253039
,,,,,,,,,41,148.005,0.0383458
,,,,,,,,,51,88.8692,0.0537504
,,,,,,,,,62,114.578,0.0735726
,,,,,,,,,74,145.988,0.0334056
,,,,,,,,,87,120.028,0.0336543
,,,,,,,,,101,93.3136,0.0572623
,,,,,,,,,116,119.173,0.0580175
,,,,,,,,,132,85.9354,0.0547225
,,,,,,,,,50,27.9493,0.0223776
,,,,,,,,,61,84.0334,0.026872
,,,,,,,,,73,92.9493,0.0310549
,,,,,,,,,86,63.9788,0.0205998
,,,,,,,,,100,91.5054,0.0206941
,,,,,,,,,115,97.978,0.027722
,,,,,,,,,131,80.2293,0.0278978
,,,,,,,,,148,116.49,0.0271127
,,,,,,,,,72,61.6969,0.0420656
,,,,,,,,,85,95.1992,0.0533052
,,,,,,,,,99,49.8893,0.0284876
,,,,,,,,,114,79.7255,0.0286683
,,,,,,,,,130,70.0686,0.0441864
,,,,,,,,,147,54.0353,0.0446348
,,,,,,,,,165,89.7684,0.0426586
,,,,,,,,,98,130.512,0.0886058
,,,,,,,,,113,85.0075,0.0361938
,,,,,,,,,129,99.523,0.036486
,,,,,,,,,146,34.6969,0.0659743
,,,,,,,,,164,53.2332,0.0669788
,,,,,,,,,183,60.9384,0.0626254
,,,,,,,,,128,50.7459,0.0442154
,,,,,,,,,145,31.028,0.0446522
,,,,,,,,,163,98.0742,0.0985715
,,,,,,,,,182,77.5114,0.100831
,,,,,,,,,202,77.1881,0.0912787
,,,,,,,,,162,29.8975,0.0258142
,,,,,,,,,181,63.6834,0.0377529
,,,,,,,,,201,35.7765,0.0380797
,,,,,,,,,222,61.9219,0.036632
,,,,,,,,,200,67.5745,0.0380709
,,,,,,,,,221,46.9396,0.0384033
,,,,,,,,,243,50.8192,0.0369313
,,,,,,,,,242,28.039,0.0725212
,,,,,,,,,265,27.5067,0.0674448
,,,,,,,,,288,36.2627,0.068495
