facetNormals:0,facetNormals:1,facetNormals:2,FacetCenters:0,FacetCenters:1,FacetCenters:2,FacetIds,relFacetSize,absFacetSize,cellPairingIds,interplanarAngles,angleWeights
-0.25281,-0.0557923,-0.908294,4.17303,5.26425,6.33579,1,0.0526902,0.0112686,8,48.0349,0.0616968
0.229141,-0.631274,-0.698984,4.19678,5.18287,6.37181,2,0.0744172,0.0159152,13,60.123,0.053882
0.427556,0.577576,-0.659811,4.26955,5.34905,6.3874,3,0.0551289,0.0117901,19,39.4652,0.0407298
-0.73467,-0.314684,-0.559244,4.11717,5.2144,6.37986,4,0.0331948,0.0070992,26,61.4325,0.026027
0.105983,0.80074,-0.570354,4.25683,5.33333,6.35026,5,0.0172818,0.00369596,34,87.9958,0.085827
0.826826,-0.414903,-0.239398,4.30347,5.24272,6.47262,6,0.231276,0.0494619,43,119.452,0.0590986
0.460403,0.797949,0.32176,4.30674,5.37028,6.54053,7,0.0672816,0.0143892,53,99.4188,0.0508198
-0.837993,-0.28436,0.41719,4.13637,5.18114,6.48206,8,0.0490776,0.010496,64,106.943,0.0288433
-0.819041,0.195416,0.515071,4.16903,5.22865,6.52772,9,0.0198565,0.00424661,76,134.735,0.05911
0.130457,-0.634149,0.701013,4.24908,5.1846,6.55509,10,0.0673112,0.0143955,89,138.599,0.0673269
-0.416147,-0.0120609,0.866079,4.2461,5.27165,6.57546,11,0.0932234,0.0199372,18,78.1271,0.0633371
,,,,,,,,,25,63.5464,0.0459106
,,,,,,,,,33,94.9399,0.0280496
,,,,,,,,,42,48.089,0.112603
,,,,,,,,,52,131.207,0.0706698
,,,,,,,,,63,108.705,0.0591477
,,,,,,,,,75,134.537,0.0313484
,,,,,,,,,88,93.7056,0.0706861
,,,,,,,,,102,138.083,0.0827655
,,,,,,,,,32,97.6614,0.0414383
,,,,,,,,,41,23.5761,0.0263145
,,,,,,,,,51,73.0464,0.0890348
,,,,,,,,,62,62.1026,0.060602
,,,,,,,,,74,146.707,0.0519276
,,,,,,,,,87,126.824,0.0291968
,,,,,,,,,101,146.137,0.060614
,,,,,,,,,116,143.783,0.0692851
,,,,,,,,,50,90.6461,0.0227299
,,,,,,,,,61,111.591,0.0580568
,,,,,,,,,73,143.919,0.0444562
,,,,,,,,,86,60.3696,0.0396031
,,,,,,,,,100,74.8165,0.0248489
,,,,,,,,,115,108.044,0.0444627
,,,,,,,,,131,100.749,0.0489571
,,,,,,,,,72,96.567,0.0321604
,,,,,,,,,85,58.4947,0.0275
,,,,,,,,,99,124.971,0.0255623
,,,,,,,,,114,103.274,0.0184799
,,,,,,,,,130,161.308,0.0275024
,,,,,,,,,147,125.201,0.0291582
,,,,,,,,,98,91.6855,0.104239
,,,,,,,,,113,136.202,0.0809726
,,,,,,,,,129,159.175,0.036573
,,,,,,,,,146,77.1267,0.104274
,,,,,,,,,164,126.517,0.132884
,,,,,,,,,128,120.079,0.0567556
,,,,,,,,,145,93.2989,0.0306634
,,,,,,,,,163,103.691,0.0672964
,,,,,,,,,182,85.2623,0.0781561
,,,,,,,,,162,28.8707,0.0282737
,,,,,,,,,181,67.0877,0.0567661
,,,,,,,,,201,40.6313,0.0643029
,,,,,,,,,200,82.0485,0.0306665
,,,,,,,,,221,34.1924,0.0327395
,,,,,,,,,242,52.3209,0.078176
