facetNormals:0,facetNormals:1,facetNormals:2,FacetCenters:0,FacetCenters:1,FacetCenters:2,FacetIds,relFacetSize,absFacetSize,cellPairingIds,interplanarAngles,angleWeights
-0.357642,-0.520603,-0.720687,6.7271,4.54878,5.80586,1,0.0320796,0.00938495,8,63.629,0.0565681
0.542537,-0.0962719,-0.748775,6.8533,4.68,5.81041,2,0.239053,0.0699355,13,76.9839,0.0350906
-0.5293,0.646335,-0.495043,6.82585,4.77671,5.83015,3,0.0387254,0.0113292,19,106.333,0.0208988
0.0583166,0.917496,-0.32686,6.85636,4.86691,5.82649,4,0.0154975,0.00453382,26,92.2418,0.0291018
0.917517,-0.331418,-0.164456,6.90646,4.71533,5.84846,5,0.0266299,0.00779064,34,68.5995,0.0224605
0.490847,-0.850846,-0.10844,6.83054,4.58204,5.92704,6,0.0172793,0.0050551,43,59.3753,0.0411677
0.015968,-0.934755,0.0336449,6.78562,4.52771,5.88656,7,0.0574407,0.0168044,53,57.9541,0.0246372
-0.778881,-0.572188,0.113309,6.7205,4.56639,5.89184,8,0.0199977,0.00585038,64,117.195,0.0192667
-0.588481,0.686581,0.395956,6.83485,4.73524,5.9632,9,0.0137677,0.00402777,76,136.018,0.0210841
-0.219843,0.857811,0.432263,6.83123,4.74372,5.96841,10,0.0157021,0.00459368,89,93.782,0.0405784
-0.52158,-0.425202,0.64792,6.75326,4.56789,5.92771,11,0.0552033,0.0161498,103,132.231,0.0437591
0.789711,-0.108193,0.553586,6.88889,4.70653,5.93423,12,0.0688122,0.0201311,118,114.13,0.0459156
0.402591,-0.523721,0.702842,6.81347,4.56879,5.93564,13,0.080738,0.0236201,134,173.065,0.0463643
0.287612,0.444339,0.774075,6.86058,4.81051,5.90992,14,0.0835826,0.0244523,151,123.449,0.0292644
-0.146438,-0.213879,0.946235,6.80344,4.59585,5.95998,15,0.0269035,0.00787067,18,88.6489,0.0666533
,,,,,,,,,25,78.035,0.0291079
,,,,,,,,,33,44.78,0.0479215
,,,,,,,,,42,62.1348,0.0322291
,,,,,,,,,52,85.1546,0.092625
,,,,,,,,,63,120.001,0.036908
,,,,,,,,,75,137.986,0.0260359
,,,,,,,,,88,125.006,0.0294686
,,,,,,,,,102,146.86,0.089694
,,,,,,,,,117,88.4533,0.106863
,,,,,,,,,133,106.684,0.120708
,,,,,,,,,150,122.339,0.123859
,,,,,,,,,168,147.281,0.048364
,,,,,,,,,32,40.1757,0.0221363
,,,,,,,,,41,130.072,0.0315584
,,,,,,,,,51,141.984,0.0238962
,,,,,,,,,62,133.844,0.0462619
,,,,,,,,,74,90.8281,0.0263753
,,,,,,,,,87,54.3113,0.0203135
,,,,,,,,,101,61.4852,0.0223442
,,,,,,,,,116,110.622,0.045519
,,,,,,,,,132,143.955,0.04956
,,,,,,,,,149,163.817,0.0523442
,,,,,,,,,167,105.82,0.0529282
,,,,,,,,,186,123.74,0.0317497
,,,,,,,,,50,101.765,0.0195928
,,,,,,,,,61,138,0.01634
,,,,,,,,,73,161.917,0.0244093
,,,,,,,,,86,129.775,0.0174623
,,,,,,,,,100,61.0524,0.0145815
,,,,,,,,,115,48.8309,0.0155991
,,,,,,,,,131,133.926,0.0242009
,,,,,,,,,148,104.317,0.0252976
,,,,,,,,,166,136.863,0.0260036
,,,,,,,,,185,79.2007,0.0261469
,,,,,,,,,205,122.48,0.0196663
,,,,,,,,,72,39.887,0.020959
,,,,,,,,,85,69.8434,0.0363894
,,,,,,,,,99,124.383,0.0228422
,,,,,,,,,114,148.49,0.0181512
,,,,,,,,,130,124.852,0.0197555
,,,,,,,,,147,118.728,0.0359282
,,,,,,,,,165,45.7957,0.0383995
,,,,,,,,,184,63.3931,0.0400501
,,,,,,,,,204,90.6593,0.040391
,,,,,,,,,225,103.046,0.026766
,,,,,,,,,98,30.1384,0.0265668
,,,,,,,,,113,84.4955,0.0185394
,,,,,,,,,129,159.87,0.0153249
,,,,,,,,,146,155.289,0.016453
,,,,,,,,,164,87.7959,0.0263201
,,,,,,,,,183,64.0513,0.0276224
,,,,,,,,,203,53.4992,0.0284664
,,,,,,,,,224,110.255,0.0286382
,,,,,,,,,246,89.5574,0.0210432
,,,,,,,,,128,54.6848,0.029667
,,,,,,,,,145,133.686,0.0222116
,,,,,,,,,163,149.077,0.0246624
,,,,,,,,,182,61.9509,0.0562997
,,,,,,,,,202,81.6163,0.0626143
,,,,,,,,,223,54.8393,0.0671253
,,,,,,,,,245,116.011,0.0680886
,,,,,,,,,268,75.5245,0.036644
,,,,,,,,,162,83.4023,0.016308
,,,,,,,,,181,106.393,0.0175915
,,,,,,,,,201,37.3139,0.0293597
,,,,,,,,,222,121.289,0.0309895
,,,,,,,,,244,85.9839,0.0320557
,,,,,,,,,267,115.341,0.0322738
,,,,,,,,,291,68.902,0.0229422
,,,,,,,,,200,23.8789,0.0146714
,,,,,,,,,221,72.874,0.0220389
,,,,,,,,,243,109.502,0.0229447
,,,,,,,,,266,109.523,0.023524
,,,,,,,,,290,61.4566,0.0236412
,,,,,,,,,315,71.0822,0.0182143
,,,,,,,,,242,88.1327,0.0244497
,,,,,,,,,265,91.6255,0.0255696
,,,,,,,,,289,104.249,0.0262911
,,,,,,,,,314,45.0761,0.0264376
,,,,,,,,,340,74.5376,0.0198303
,,,,,,,,,288,90.456,0.061261
,,,,,,,,,313,58.7011,0.0655725
,,,,,,,,,339,79.3034,0.0664914
,,,,,,,,,366,31.6236,0.0361763
,,,,,,,,,338,35.3294,0.0742996
,,,,,,,,,365,48.1155,0.0754816
,,,,,,,,,393,63.0631,0.0386831
,,,,,,,,,392,61.8205,0.0821357
,,,,,,,,,421,40.6368,0.0403587
,,,,,,,,,450,49.6794,0.0407049
