Q	U	V
{$V$}	{[mm$^3$]}	0.0155912
{$d_v$}	{[mm]}	0.309951
{$S_c$}	{[mm$^2$]}	0.624534
{$S_o$}	{[mm$^2$]}	0.360231
{$S_l/S_o$}	[]	0.733704
{$\Psi$}	[]	0.48326
{$\eta$}	[]	0.530311
{med($\theta_e$)}	{[$^\circ$]}	71.8192
{$\Upsilon$}	[]	12
{$\Xi$}	[]	11
