facetNormals:0,facetNormals:1,facetNormals:2,FacetCenters:0,FacetCenters:1,FacetCenters:2,FacetIds,relFacetSize,absFacetSize,cellPairingIds,interplanarAngles,angleWeights
0.828786,0.271942,-0.43458,3.28495,7.0202,4.44537,1,0.0454205,0.0117873,8,36.7035,0.0630292
0.894836,-0.00251008,0.0883478,3.29,7.03969,4.50698,2,0.102936,0.0267134,13,63.6263,0.0759128
0.0526368,0.835722,-0.246087,3.1885,7.09298,4.46536,3,0.230973,0.0599412,19,76.1658,0.0462983
0.477503,-0.819085,-0.113939,3.257,7.00149,4.42335,4,0.0472107,0.0122519,26,160.412,0.0478476
-0.936149,-0.14107,0.152192,3.07201,7.01099,4.42486,5,0.0505487,0.0131182,34,64.3011,0.0363071
0.615161,0.527636,0.550585,3.30152,7.02935,4.61137,6,0.0302396,0.00784765,43,146.409,0.0741972
-0.694914,0.236359,0.632175,3.14748,7.02906,4.57336,7,0.202483,0.0525474,18,88.3014,0.142406
,,,,,,,,,25,60.7718,0.0647323
,,,,,,,,,33,162.856,0.0678019
,,,,,,,,,42,47.2714,0.0467464
,,,,,,,,,52,130.575,0.136486
,,,,,,,,,32,139.246,0.0783971
,,,,,,,,,41,104.153,0.0829449
,,,,,,,,,51,66.7293,0.0534778
,,,,,,,,,62,89.6353,0.215792
,,,,,,,,,50,112.392,0.0488227
,,,,,,,,,61,102.416,0.0368658
,,,,,,,,,73,130.23,0.0765687
,,,,,,,,,72,127.086,0.0378415
,,,,,,,,,85,39.8222,0.080901
,,,,,,,,,98,87.2647,0.0526206
