"cellPairingIds","interplanarAngles","angleWeights"
8,53.0827,0.0510401
13,56.0934,0.0329802
19,83.0079,0.0265625
26,62.5912,0.04961
43,98.5624,0.0465971
53,85.1421,0.0441759
18,37.636,0.0382061
25,34.6465,0.029851
42,42.7528,0.0323846
51,51.1369,0.024034
62,68.4298,0.0356609
87,90.6484,0.0401611
101,71.7327,0.038165
50,60.7157,0.0293561
61,32.1392,0.0204359
100,60.2253,0.0310312
166,72.315,0.0331811
99,62.4168,0.052482
184,72.8333,0.0790657
129,44.7724,0.0337783
128,116.133,0.049122
163,51.8152,0.0576655
182,49.7277,0.0385101
268,73.9875,0.0693728
244,76.9465,0.0661059
267,36.8908,0.018209
291,67.8445,0.0641393
200,37.3005,0.0704266
221,48.2105,0.0438116
266,52.3506,0.0925169
315,77.0131,0.0887103
242,30.7524,0.0414468
366,45.9108,0.0471681
392,53.6466,0.0206137
421,63.2781,0.108878
450,34.8433,0.0204185
