facetNormals:0,facetNormals:1,facetNormals:2,FacetCenters:0,FacetCenters:1,FacetCenters:2,FacetIds,relFacetSize,absFacetSize,cellPairingIds,interplanarAngles,angleWeights
-0.410036,0.733166,-0.478339,5.7948,6.45815,4.01705,1,0.0431482,0.00314342,8,128.691,0.0425568
0.243315,-0.873012,-0.328753,5.84063,6.34795,4.10203,2,0.0419814,0.00305842,13,57.1624,0.0594938
-0.923366,-0.0123041,-0.287086,5.7622,6.40683,4.04368,3,0.0957761,0.00697745,19,85.2525,0.0442471
-0.908021,-0.391865,0.0123113,5.77098,6.39142,4.07425,4,0.0454034,0.00330772,26,40.3615,0.0598331
-0.0788646,0.963985,0.0534799,5.83715,6.47858,4.09441,5,0.0975573,0.00710722,34,62.4182,0.0278212
-0.940402,0.21789,0.214752,5.78115,6.40966,4.10682,6,0.020529,0.00149557,43,126.929,0.0491983
-0.445198,-0.774641,0.367226,5.78664,6.36841,4.10606,7,0.0572218,0.00416871,53,48.2413,0.063886
-0.478857,0.751333,0.297736,5.81062,6.46422,4.1038,8,0.123004,0.00896103,64,162.395,0.0469178
0.636774,-0.542433,0.496409,5.88774,6.37293,4.13899,9,0.0514091,0.00374524,76,95.0221,0.0358711
0.579534,0.570594,0.551641,5.89215,6.45787,4.14864,10,0.0306944,0.00223614,89,93.7738,0.0434377
-0.741982,-0.0899141,0.628073,5.78016,6.41345,4.1488,11,0.0437311,0.00318588,103,133.506,0.0418894
0.731666,-0.0563253,0.65453,5.911,6.42718,4.14489,12,0.040702,0.00296521,118,118.185,0.0370163
0.310664,0.159909,0.902897,5.88748,6.43438,4.15716,13,0.0324104,0.00236115,134,113.673,0.0602733
-0.190035,-0.00104647,0.937404,5.83874,6.39795,4.17073,14,0.0999378,0.00728065,18,97.3672,0.0583752
,,,,,,,,,25,82.9445,0.0436254
,,,,,,,,,33,160.141,0.0587019
,,,,,,,,,42,120.902,0.0275742
,,,,,,,,,52,61.3,0.0484309
,,,,,,,,,63,163.946,0.062598
,,,,,,,,,75,60.2524,0.0462194
,,,,,,,,,88,124.637,0.0354615
,,,,,,,,,102,109.135,0.0428384
,,,,,,,,,117,89.2735,0.0413318
,,,,,,,,,133,112.744,0.0365802
,,,,,,,,,150,112.542,0.0591256
,,,,,,,,,32,28.6031,0.0616033
,,,,,,,,,41,87.2094,0.0966585
,,,,,,,,,51,32.7836,0.0338109
,,,,,,,,,62,70.2812,0.0716413
,,,,,,,,,74,67.5137,0.107696
,,,,,,,,,87,140.308,0.0669057
,,,,,,,,,101,137.487,0.0464898
,,,,,,,,,116,57.5967,0.0600455
,,,,,,,,,132,155.141,0.0571267
,,,,,,,,,149,125.828,0.0484316
,,,,,,,,,167,95.8099,0.0978127
,,,,,,,,,50,108.593,0.0619672
,,,,,,,,,61,37.9594,0.028274
,,,,,,,,,73,41.7914,0.0506321
,,,,,,,,,86,81.0803,0.0663248
,,,,,,,,,100,111.945,0.04822
,,,,,,,,,115,139.86,0.0366274
,,,,,,,,,131,42.0761,0.0445515
,,,,,,,,,148,130.703,0.0429243
,,,,,,,,,166,110.391,0.0378221
,,,,,,,,,185,78.753,0.0624395
,,,,,,,,,72,72.0207,0.0339202
,,,,,,,,,85,137.691,0.0721339
,,,,,,,,,99,31.2479,0.108813
,,,,,,,,,114,125.456,0.0673351
,,,,,,,,,130,55.8896,0.0466967
,,,,,,,,,147,89.671,0.0603912
,,,,,,,,,165,94.6364,0.0574395
,,,,,,,,,184,79.0628,0.0486562
,,,,,,,,,204,86.0322,0.0987332
,,,,,,,,,98,69.8712,0.0302172
,,,,,,,,,113,43.1304,0.0351856
,,,,,,,,,129,129.389,0.0293413
,,,,,,,,,146,108.117,0.024603
,,,,,,,,,164,32.632,0.0279413
,,,,,,,,,183,125.145,0.0272924
,,,,,,,,,203,93.7973,0.0251364
,,,,,,,,,224,66.3264,0.0340612
,,,,,,,,,128,106.616,0.0781077
,,,,,,,,,145,70.1537,0.05416
,,,,,,,,,163,121.601,0.039956
,,,,,,,,,182,48.0331,0.049575
,,,,,,,,,202,92.5188,0.0475684
,,,,,,,,,223,85.745,0.041382
,,,,,,,,,245,62.2883,0.0727747
,,,,,,,,,162,128.169,0.072512
,,,,,,,,,181,70.0201,0.0491292
,,,,,,,,,201,58.8243,0.0645226
,,,,,,,,,222,102.365,0.0611645
,,,,,,,,,244,74.6855,0.0513029
,,,,,,,,,267,65.7303,0.110278
,,,,,,,,,200,69.5894,0.0384386
,,,,,,,,,221,96.7686,0.0472603
,,,,,,,,,243,30.823,0.0454332
,,,,,,,,,266,53.5652,0.0397566
,,,,,,,,,290,68.2405,0.0678932
,,,,,,,,,242,98.0793,0.036071
,,,,,,,,,265,38.8139,0.0349968
,,,,,,,,,289,36.0365,0.0315291
,,,,,,,,,314,64.3836,0.0469644
,,,,,,,,,288,97.5857,0.0421622
,,,,,,,,,313,70.0688,0.0372291
,,,,,,,,,339,38.591,0.0608397
,,,,,,,,,338,31.7802,0.036086
,,,,,,,,,365,59.6959,0.0578452
,,,,,,,,,392,31.78,0.048947
