facetNormals:0,facetNormals:1,facetNormals:2,FacetCenters:0,FacetCenters:1,FacetCenters:2,FacetIds,relFacetSize,absFacetSize,cellPairingIds,interplanarAngles,angleWeights
0.0126649,-0.779999,-0.586584,5.02496,4.69764,7.70185,1,0.0376032,0.00459158,8,113.446,0.0431135
0.262051,0.815753,-0.44107,5.03969,4.77503,7.73555,2,0.050516,0.00616832,13,94.4558,0.0326699
0.84011,0.356512,-0.330456,5.06723,4.75834,7.73192,3,0.028881,0.00352655,19,123.374,0.0364338
-0.375428,0.866998,-0.263252,5.04895,4.78871,7.79281,4,0.0353349,0.00431461,26,37.9503,0.0324971
-0.221871,-0.942927,-0.0222707,5.04367,4.79133,7.81433,5,0.028612,0.0034937,34,96.8648,0.00883536
0.985037,0.166211,-0.00107166,5.07019,4.76458,7.75126,6,0.00500576,0.000611235,43,143.548,0.039723
0.0216382,0.986153,0.00938781,5.04232,4.79078,7.79213,7,0.0420961,0.00514019,53,72.5379,0.0660344
0.862581,-0.416501,0.0919893,5.05712,4.70537,7.81875,8,0.270727,0.0330574,64,58.6087,0.043325
0.291721,-0.874129,0.322476,4.9678,4.63784,7.91819,9,0.0511005,0.00623969,76,81.2611,0.0247282
-0.887661,-0.222565,0.0451539,5.00113,4.7108,7.78767,10,0.0184211,0.00224933,89,96.6704,0.0364654
0.587997,-0.367299,0.690181,5.00342,4.68522,7.93565,11,0.0353944,0.00432188,103,152.474,0.0591258
0.245827,0.46157,0.792135,4.99265,4.73956,7.93811,12,0.138261,0.0168825,118,116.959,0.0352681
-0.139457,-0.160743,0.93152,4.93126,4.68257,7.95159,13,0.0332061,0.00405467,18,45.4025,0.0367508
,,,,,,,,,25,39.9096,0.0415832
,,,,,,,,,33,151.108,0.0365323
,,,,,,,,,42,65.8282,0.0091089
,,,,,,,,,52,32.0192,0.0459233
,,,,,,,,,63,99.5779,0.0851446
,,,,,,,,,75,145.876,0.0508066
,,,,,,,,,88,119.447,0.0269973
,,,,,,,,,102,118.509,0.0416244
,,,,,,,,,117,84.2552,0.0739962
,,,,,,,,,133,128.924,0.0400716
,,,,,,,,,32,85.1378,0.0317836
,,,,,,,,,41,123.218,0.0287458
,,,,,,,,,51,23.7998,0.00853262
,,,,,,,,,62,67.4836,0.0342583
,,,,,,,,,74,54.2434,0.0521939
,,,,,,,,,87,100.527,0.0369044
,,,,,,,,,101,160.828,0.0224945
,,,,,,,,,116,81.8285,0.0318077
,,,,,,,,,132,83.1858,0.0477811
,,,,,,,,,149,121.334,0.0308929
,,,,,,,,,50,140.035,0.03162
,,,,,,,,,61,103.302,0.00876922
,,,,,,,,,73,29.2164,0.0384203
,,,,,,,,,86,138.712,0.062511
,,,,,,,,,100,173.985,0.0417799
,,,,,,,,,115,81.7852,0.0242171
,,,,,,,,,131,138.707,0.0353646
,,,,,,,,,148,83.8733,0.0562852
,,,,,,,,,166,110.764,0.0342374
,,,,,,,,,72,112.811,0.00852078
,,,,,,,,,85,167.993,0.0340683
,,,,,,,,,99,77.6577,0.0517543
,,,,,,,,,114,37.3174,0.036684
,,,,,,,,,130,62.8002,0.0224125
,,,,,,,,,147,77.7878,0.0316439
,,,,,,,,,165,123.485,0.0474123
,,,,,,,,,184,79.9375,0.0307383
,,,,,,,,,98,79.1665,0.00894755
,,,,,,,,,113,35.7298,0.00982977
,,,,,,,,,129,81.6448,0.0091183
,,,,,,,,,146,174.723,0.0078723
,,,,,,,,,164,58.0313,0.00877105
,,,,,,,,,183,70.4037,0.00966172
,,,,,,,,,203,99.9594,0.00870001
,,,,,,,,,128,114.339,0.0728625
,,,,,,,,,145,152.298,0.0461633
,,,,,,,,,163,105.285,0.0256276
,,,,,,,,,182,110.821,0.0384555
,,,,,,,,,202,60.0156,0.0645413
,,,,,,,,,223,99.3289,0.0371263
,,,,,,,,,162,46.6116,0.0859733
,,,,,,,,,181,139.339,0.034495
,,,,,,,,,201,39.7589,0.0626041
,,,,,,,,,222,84.1769,0.183042
,,,,,,,,,244,87.9839,0.0591564
,,,,,,,,,200,93.1938,0.0270801
,,,,,,,,,221,41.5144,0.0418215
,,,,,,,,,243,94.7237,0.0746213
,,,,,,,,,266,64.5951,0.0402542
,,,,,,,,,242,117.151,0.0242311
,,,,,,,,,265,109.141,0.0325106
,,,,,,,,,289,76.6852,0.0236965
,,,,,,,,,288,55.8147,0.0563607
,,,,,,,,,313,48.4529,0.0342654
,,,,,,,,,338,46.0543,0.0535509
