"cellPairingIds","interplanarAngles","angleWeights"
18,46.1859,0.0217125
25,65.5703,0.0394769
42,69.8107,0.0142862
52,53.2683,0.065548
63,92.2604,0.0271883
51,28.1358,0.0107539
74,96.7947,0.0167301
73,103.103,0.0570676
86,55.9763,0.0256098
100,62.8382,0.0348574
131,66.9867,0.0251451
148,102.569,0.0192726
166,80.1131,0.0379861
98,56.9161,0.0160799
113,114.742,0.0119454
146,70.4926,0.0160332
183,101.221,0.010357
145,55.5922,0.0537257
163,32.9965,0.131083
223,76.2284,0.0615377
222,52.6743,0.0157887
266,36.1488,0.0364758
265,131.991,0.0238136
289,54.6983,0.0608602
288,40.5599,0.0156109
313,87.3372,0.0259766
338,112.638,0.0197573
