Q	U	V
{$V$}	{[mm$^3$]}	0.00612247
{$d_v$}	{[mm]}	0.226974
{$S_c$}	{[mm$^2$]}	0.364304
{$S_o$}	{[mm$^2$]}	0.194879
{$S_l/S_o$}	[]	0.869386
{$\Psi$}	[]	0.444261
{$\eta$}	[]	0.465910
{med($\theta_e$)}	{[$^\circ$]}	101.5043
{$\Upsilon$}	[]	15
{$\Xi$}	[]	6
