Q	U	V
{$V$}	{[mm$^3$]}	0.00242952
{$d_v$}	{[mm]}	0.166792
{$S_c$}	{[mm$^2$]}	0.193442
{$S_o$}	{[mm$^2$]}	0.0645745
{$S_l/S_o$}	[]	1.995641
{$\Psi$}	[]	0.451801
{$\eta$}	[]	0.521231
{med($\theta_e$)}	{[$^\circ$]}	73.9481
{$\Upsilon$}	[]	19
{$\Xi$}	[]	7
