facetNormals:0,facetNormals:1,facetNormals:2,FacetCenters:0,FacetCenters:1,FacetCenters:2,FacetIds,relFacetSize,absFacetSize,cellPairingIds,interplanarAngles,angleWeights
-0.137891,0.272112,-0.927767,6.98229,3.88681,6.30517,1,0.0263479,0.00672156,8,43.6411,0.0349239
-0.0776255,-0.441405,-0.849837,6.96809,3.79781,6.30495,2,0.0517767,0.0132087,13,27.0522,0.022594
-0.481257,-0.0263639,-0.862422,6.93804,3.86943,6.29024,3,0.0197764,0.00504513,19,35.4542,0.0245108
0.386542,0.490271,-0.751259,7.02904,3.93364,6.32178,4,0.0229132,0.00584535,26,76.7909,0.0367492
0.791547,-0.271795,-0.422918,7.0521,3.83574,6.33577,5,0.0607195,0.0154901,34,46.2712,0.0386456
-0.355774,0.798704,-0.418089,6.9786,3.96264,6.36417,6,0.0724716,0.0184881,43,108.112,0.0388402
-0.1492,-0.935719,0.0584024,6.96999,3.77538,6.43674,7,0.073859,0.0188421,53,82.6094,0.0463689
-0.687415,0.627722,0.158414,6.98013,3.95729,6.48459,8,0.193101,0.0492617,64,106.929,0.0346279
-0.844988,0.140771,0.465764,6.91283,3.87106,6.45293,9,0.050497,0.0128822,76,116.712,0.0336536
-0.76382,-0.393226,0.459098,6.91203,3.79918,6.44047,10,0.0465654,0.0118792,89,146.213,0.0279608
-0.323458,-0.551677,0.745762,6.98825,3.81688,6.53874,11,0.0297842,0.0075982,103,165.595,0.0349925
0.0889766,-0.49013,0.829857,7.01572,3.8442,6.55637,12,0.0520795,0.0132859,118,156.512,0.0360121
0.195091,0.113639,0.902565,7.09692,3.95552,6.57019,13,0.0568729,0.0145088,18,34.538,0.0286209
,,,,,,,,,25,65.309,0.0317679
,,,,,,,,,33,62.3607,0.0558927
,,,,,,,,,42,88.1308,0.0604007
,,,,,,,,,52,65.7249,0.0608772
,,,,,,,,,63,113.265,0.0816582
,,,,,,,,,75,114.761,0.0511288
,,,,,,,,,88,99.6759,0.049033
,,,,,,,,,102,112.76,0.0378153
,,,,,,,,,117,122.22,0.0519277
,,,,,,,,,133,158.615,0.0542053
,,,,,,,,,32,62.2765,0.0212295
,,,,,,,,,41,90.559,0.0298354
,,,,,,,,,51,57.765,0.0310733
,,,,,,,,,62,87.1824,0.031199
,,,,,,,,,74,79.0222,0.0358783
,,,,,,,,,87,89.9251,0.0284218
,,,,,,,,,101,91.0703,0.0277622
,,,,,,,,,116,119.162,0.0237698
,,,,,,,,,132,141.234,0.0286669
,,,,,,,,,149,162.22,0.0293477
,,,,,,,,,50,57.6268,0.0332711
,,,,,,,,,61,53.1204,0.034818
,,,,,,,,,73,127.172,0.0349758
,,,,,,,,,86,94.7867,0.0409654
,,,,,,,,,100,129.631,0.0315228
,,,,,,,,,115,151.093,0.0307134
,,,,,,,,,131,174.85,0.0259007
,,,,,,,,,148,151.306,0.0318246
,,,,,,,,,166,127,0.0326658
,,,,,,,,,72,110.743,0.066077
,,,,,,,,,85,82.8029,0.0666478
,,,,,,,,,99,151.989,0.0923881
,,,,,,,,,114,171.421,0.0551384
,,,,,,,,,130,139.244,0.0527088
,,,,,,,,,147,117.228,0.0399648
,,,,,,,,,165,99.3414,0.0560686
,,,,,,,,,184,107.213,0.0587332
,,,,,,,,,98,141.364,0.0731587
,,,,,,,,,113,42.0384,0.10539
,,,,,,,,,129,76.6422,0.0595208
,,,,,,,,,146,104.368,0.0566995
,,,,,,,,,164,132.02,0.0422178
,,,,,,,,,183,145.178,0.0606062
,,,,,,,,,203,113.254,0.0637316
,,,,,,,,,128,122.039,0.106849
,,,,,,,,,145,88.6659,0.0599835
,,,,,,,,,163,56.6237,0.0571192
,,,,,,,,,182,49.3117,0.04245
,,,,,,,,,202,57.4914,0.061086
,,,,,,,,,223,95.3746,0.0642624
,,,,,,,,,162,36.1994,0.0800583
,,,,,,,,,181,67.5701,0.0750362
,,,,,,,,,201,90.3589,0.0516082
,,,,,,,,,222,105.053,0.0820343
,,,,,,,,,244,84.762,0.0878668
,,,,,,,,,200,32.1783,0.0484516
,,,,,,,,,221,55.4683,0.0374686
,,,,,,,,,243,75.121,0.051276
,,,,,,,,,266,72.5837,0.0534956
,,,,,,,,,242,32.578,0.0363306
,,,,,,,,,265,57.5581,0.0491683
,,,,,,,,,289,75.9072,0.0512056
,,,,,,,,,288,25.1829,0.0378958
,,,,,,,,,313,53.2166,0.0390946
,,,,,,,,,338,37.8906,0.0543707
