"cellPairingIds","interplanarAngles","angleWeights"
8,52.5376,0.075074
13,54.1633,0.0696402
34,98.556,0.0693042
53,111.542,0.0303076
42,63.6422,0.154383
52,59.0578,0.0278599
63,116.75,0.039931
75,77.3062,0.048743
32,45.6908,0.0462161
41,45.3868,0.0686508
51,110.166,0.133037
74,107.307,0.0383398
50,36.1007,0.0347743
61,73.5184,0.0460678
115,60.3754,0.0419654
99,94.8404,0.0301187
130,40.6116,0.0596725
129,62.3064,0.0462434
146,91.4127,0.103004
164,62.7368,0.0901406
128,68.791,0.0179958
145,34.6182,0.019592
162,79.5131,0.0248815
181,81.2312,0.035368
201,88.5069,0.0337159
221,51.2182,0.0397897
242,41.4339,0.075667
