facetNormals:0,facetNormals:1,facetNormals:2,FacetCenters:0,FacetCenters:1,FacetCenters:2,FacetIds,relFacetSize,absFacetSize,cellPairingIds,interplanarAngles,angleWeights
0.0569729,-0.119172,-0.882396,2.93482,4.90887,5.09516,1,0.21405,0.023504,8,53.7166,0.09618
0.14847,0.689775,-0.662854,2.94675,4.98808,5.10792,2,0.062025,0.00681073,13,52.3883,0.0308344
0.729499,0.284237,-0.599988,2.9329,4.9517,5.15043,3,0.0166139,0.00182431,19,68.3254,0.0518389
-0.78773,-0.440852,-0.35334,2.95744,4.89363,5.08062,4,0.0294905,0.00323824,26,82.1795,0.12655
-0.546638,0.727325,-0.263864,2.98114,4.99557,5.1046,5,0.0898292,0.00986381,34,68.6564,0.038368
0.386801,-0.884465,-0.219941,3.00867,4.8429,5.11888,6,0.0210726,0.0023139,43,93.1943,0.0554956
-0.965001,0.120062,-0.0237156,2.9644,4.98414,5.1554,7,0.0318806,0.00350068,53,94.1224,0.0350397
0.0713264,-0.955348,0.20484,2.98507,4.83664,5.13327,8,0.0190817,0.00209529,64,98.5666,0.0114493
0.704358,-0.622543,0.27717,3.0017,4.95188,5.14455,9,0.00588195,0.000645874,76,104.577,0.0521913
-0.487359,-0.788632,0.325043,2.96385,4.84666,5.13015,10,0.0297188,0.00326331,89,128.375,0.0169092
0.624072,-0.2762,0.684221,2.96928,4.93904,5.16256,11,0.0088023,0.000966547,103,139.528,0.212716
-0.610579,-0.153893,0.713129,2.93687,4.92357,5.15855,12,0.211398,0.0232128,18,42.6738,0.0262078
,,,,,,,,,25,101.483,0.0399746
,,,,,,,,,33,49.5148,0.0733816
,,,,,,,,,42,115.118,0.0314577
,,,,,,,,,52,92.723,0.0421145
,,,,,,,,,63,145.774,0.0291848
,,,,,,,,,75,122.413,0.0107449
,,,,,,,,,88,150.997,0.0401838
,,,,,,,,,102,126.113,0.0154167
,,,,,,,,,117,136.631,0.0959097
,,,,,,,,,32,120.685,0.021254
,,,,,,,,,41,92.0683,0.0280415
,,,,,,,,,51,80.4078,0.0185795
,,,,,,,,,62,133.102,0.0218441
,,,,,,,,,74,110.754,0.0177625
,,,,,,,,,87,79.8367,0.008688
,,,,,,,,,101,143.08,0.021313
,,,,,,,,,116,92.0303,0.0115077
,,,,,,,,,132,167.754,0.0308066
,,,,,,,,,50,77.2167,0.0444035
,,,,,,,,,61,80.2258,0.0245808
,,,,,,,,,73,40.6326,0.030639
,,,,,,,,,86,72.0547,0.0231708
,,,,,,,,,100,113.467,0.00980772
,,,,,,,,,115,49.6393,0.0296042
,,,,,,,,,131,130.757,0.0135579
,,,,,,,,,148,71.2237,0.0517603
,,,,,,,,,72,148.148,0.0341371
,,,,,,,,,85,47.6236,0.0470596
,,,,,,,,,99,148.098,0.031477
,,,,,,,,,114,168.864,0.0110409
,,,,,,,,,130,114.975,0.0446618
,,,,,,,,,147,142.117,0.0160335
,,,,,,,,,165,87.8591,0.126082
,,,,,,,,,98,119.499,0.0253736
,,,,,,,,,113,31.4443,0.0200278
,,,,,,,,,129,38.2422,0.00919681
,,,,,,,,,146,63.2682,0.0246598
,,,,,,,,,164,69.4929,0.0124176
,,,,,,,,,183,105.828,0.0383249
,,,,,,,,,128,101.402,0.0238739
,,,,,,,,,145,142.966,0.00993153
,,,,,,,,,163,67.3564,0.0307617
,,,,,,,,,182,133.883,0.0137956
,,,,,,,,,202,53.2396,0.0554055
,,,,,,,,,162,43.0374,0.00899208
,,,,,,,,,181,35.3236,0.0232409
,,,,,,,,,201,61.7207,0.0120473
,,,,,,,,,222,74.469,0.0350038
,,,,,,,,,200,75.7023,0.00982026
,,,,,,,,,221,32.2316,0.00705173
,,,,,,,,,243,98.4249,0.0114454
,,,,,,,,,242,81.7595,0.0135818
,,,,,,,,,265,45.8712,0.0521116
,,,,,,,,,288,80.6479,0.0169009
