facetNormals:0,facetNormals:1,facetNormals:2,FacetCenters:0,FacetCenters:1,FacetCenters:2,FacetIds,relFacetSize,absFacetSize,cellPairingIds,interplanarAngles,angleWeights
0.625925,-0.0291485,-0.731411,6.84212,4.83996,5.44722,1,0.117429,0.0330923,8,81.4017,0.0960632
-0.616597,-0.00644188,-0.712991,6.69552,4.86635,5.44933,2,0.0812754,0.0229039,13,73.0057,0.0514902
-0.290215,0.671487,-0.652345,6.75046,4.93606,5.44144,3,0.0329744,0.00929239,19,45.7246,0.138517
0.912209,0.29595,-0.119559,6.88001,4.85257,5.52328,4,0.168838,0.0475796,26,111.468,0.113854
-0.528823,0.798331,-0.022762,6.71277,4.96479,5.53488,5,0.11049,0.0311369,34,79.5127,0.0310927
0.80423,-0.272047,0.46686,6.88504,4.78376,5.60851,6,0.0179186,0.00504957,43,121.763,0.0910561
-0.0421718,0.737747,0.589926,6.80651,4.95203,5.63405,7,0.0743566,0.0209542,53,173.318,0.105191
-0.533492,0.0143729,0.793021,6.75116,4.87911,5.6535,8,0.0952636,0.0268459,18,46.1789,0.0469148
,,,,,,,,,25,121.731,0.109729
,,,,,,,,,33,68.0744,0.0936574
,,,,,,,,,42,154.888,0.0293635
,,,,,,,,,52,116.619,0.0776622
,,,,,,,,,63,105.221,0.0877153
,,,,,,,,,32,89.2752,0.0551733
,,,,,,,,,41,41.3857,0.0507909
,,,,,,,,,51,139.362,0.0232195
,,,,,,,,,62,82.3863,0.0456879
,,,,,,,,,74,112.124,0.048991
,,,,,,,,,50,105.245,0.13357
,,,,,,,,,61,50.3661,0.0323987
,,,,,,,,,73,83.1282,0.103244
,,,,,,,,,86,128.67,0.121802
,,,,,,,,,72,134.727,0.0308363
,,,,,,,,,85,48.694,0.0888917
,,,,,,,,,99,72.4856,0.102313
,,,,,,,,,98,87.4478,0.0288781
,,,,,,,,,113,93.8838,0.0301636
,,,,,,,,,128,56.3426,0.0835216
