"cellPairingIds","interplanarAngles","angleWeights"
8,42.2403,0.0382353
13,67.9368,0.0491184
19,115.611,0.0382598
26,48.3193,0.119243
34,118.348,0.130331
33,51.6774,0.0359428
42,77.7417,0.0368888
52,79.3572,0.0269327
32,50.7255,0.0251395
51,116.332,0.0469183
50,143.653,0.0359644
61,105.701,0.0369116
86,74.3638,0.0171547
100,97.0661,0.0377334
131,78.4247,0.0235349
85,65.7416,0.0516475
99,79.3373,0.0246656
130,59.4234,0.0567707
98,60.0779,0.0536234
129,34.8218,0.124419
145,44.5686,0.0553756
163,32.9842,0.0371438
182,56.0307,0.0293713
181,51.3862,0.0207889
201,53.7543,0.0181071
221,42.5118,0.04267
242,46.232,0.0309602
