Q	U	V
{$V$}	{[mm$^3$]}	0.00517133
{$d_v$}	{[mm]}	0.214553
{$S_c$}	{[mm$^2$]}	0.261086
{$S_o$}	{[mm$^2$]}	0.160407
{$S_l/S_o$}	[]	0.627647
{$\Psi$}	[]	0.553905
{$\eta$}	[]	0.565155
{med($\theta_e$)}	{[$^\circ$]}	54.95865
{$\Upsilon$}	[]	15
{$\Xi$}	[]	8
