facetNormals:0,facetNormals:1,facetNormals:2,FacetCenters:0,FacetCenters:1,FacetCenters:2,FacetIds,relFacetSize,absFacetSize,cellPairingIds,interplanarAngles,angleWeights
-0.535479,-0.177371,-0.805034,4.9651,3.92937,6.56639,1,0.0190674,0.00402865,8,65.2039,0.0231247
0.421597,-0.561743,-0.644993,5.01448,3.85278,6.54048,2,0.0293754,0.00620656,13,32.2692,0.0275781
-0.635048,-0.581156,-0.454683,4.95194,3.81787,6.55664,3,0.049811,0.0105243,19,33.6085,0.0267211
-0.901847,-0.0528669,-0.388552,4.93419,3.84034,6.56002,4,0.0446395,0.00943162,26,47.4277,0.0321529
-0.486508,0.542126,-0.549651,4.98601,3.90837,6.54173,5,0.102487,0.0216539,34,103.98,0.0287896
0.783509,-0.542069,-0.118505,5.00375,3.90991,6.60693,6,0.0587402,0.0124109,43,85.4613,0.0334374
-0.0123955,-0.899111,0.118705,4.97463,3.8345,6.64524,7,0.135726,0.0286768,53,87.725,0.0335252
-0.662736,0.617028,0.259225,4.96501,3.9368,6.67452,8,0.138673,0.0292993,64,139.7,0.0269036
0.658441,0.583631,0.298776,5.05926,4.00674,6.67391,9,0.0456744,0.00965027,76,146.204,0.0216172
0.385794,-0.372837,0.819199,5.01374,3.91048,6.7298,10,0.024954,0.00527239,89,131.213,0.0308451
-0.190655,-0.128838,0.911578,5.0001,3.86687,6.72304,11,0.080679,0.0170462,18,67.7181,0.0369563
,,,,,,,,,25,96.1157,0.0354335
,,,,,,,,,33,100.269,0.0456627
,,,,,,,,,42,39.0228,0.0391649
,,,,,,,,,52,60.6988,0.0482977
,,,,,,,,,63,152.026,0.048481
,,,,,,,,,75,105.914,0.035755
,,,,,,,,,88,99.6349,0.0269848
,,,,,,,,,102,131.663,0.0430692
,,,,,,,,,32,35.4289,0.0470837
,,,,,,,,,41,74.0708,0.0670393
,,,,,,,,,51,97.9118,0.0539083
,,,,,,,,,62,57.3467,0.0728765
,,,,,,,,,74,93.4754,0.0732946
,,,,,,,,,87,170.875,0.0476531
,,,,,,,,,101,114.861,0.0332504
,,,,,,,,,116,103.813,0.061594
,,,,,,,,,50,45.9747,0.0621909
,,,,,,,,,61,132.011,0.0507282
,,,,,,,,,73,89.1913,0.067183
,,,,,,,,,86,59.9131,0.0675381
,,,,,,,,,100,144.158,0.045151
,,,,,,,,,115,132.172,0.0320126
,,,,,,,,,131,100.938,0.0574771
,,,,,,,,,72,134.12,0.0746786
,,,,,,,,,85,131.336,0.116788
,,,,,,,,,99,53.2338,0.117865
,,,,,,,,,114,101.438,0.0631883
,,,,,,,,,130,160.073,0.0401356
,,,,,,,,,147,123.87,0.0902847
,,,,,,,,,98,57.8331,0.0819945
,,,,,,,,,113,167.977,0.0825241
,,,,,,,,,129,79.3992,0.0513898
,,,,,,,,,146,64.328,0.0350276
,,,,,,,,,164,101.993,0.0679835
,,,,,,,,,128,127.14,0.137184
,,,,,,,,,145,126.174,0.0683483
,,,,,,,,,163,61.2148,0.0421572
,,,,,,,,,182,74.6026,0.101201
,,,,,,,,,162,89.9218,0.0687159
,,,,,,,,,181,107.241,0.0422968
,,,,,,,,,201,71.3513,0.102009
,,,,,,,,,200,72.0003,0.0322748
,,,,,,,,,221,85.297,0.0583279
,,,,,,,,,242,38.4273,0.0381181
