"cellPairingIds","interplanarAngles","angleWeights"
8,61.6773,0.148342
13,101.029,0.130887
34,102.692,0.0562534
18,109.632,0.116885
33,95.071,0.10382
42,161.239,0.0534989
52,94.8462,0.0990939
41,67.8854,0.0949578
51,82.4466,0.051044
72,102.927,0.0483851
85,66.8359,0.0828707
98,87.5041,0.0473329
