Q	U	V
{$V$}	{[mm$^3$]}	0.00905665
{$d_v$}	{[mm]}	0.258617
{$S_c$}	{[mm$^2$]}	0.397363
{$S_o$}	{[mm$^2$]}	0.232089
{$S_l/S_o$}	[]	0.712115
{$\Psi$}	[]	0.52878
{$\eta$}	[]	0.561046
{med($\theta_e$)}	{[$^\circ$]}	54.8723
{$\Upsilon$}	[]	12
{$\Xi$}	[]	6
