Q	U	V
{$V$}	{[mm$^3$]}	0.00322154
{$d_v$}	{[mm]}	0.183241
{$S_c$}	{[mm$^2$]}	0.162126
{$S_o$}	{[mm$^2$]}	0.102102
{$S_l/S_o$}	[]	0.587883
{$\Psi$}	[]	0.65064
{$\eta$}	[]	0.673359
{med($\theta_e$)}	{[$^\circ$]}	47.8194
{$\Upsilon$}	[]	20
{$\Xi$}	[]	8
