facetNormals:0,facetNormals:1,facetNormals:2,FacetCenters:0,FacetCenters:1,FacetCenters:2,FacetIds,relFacetSize,absFacetSize,cellPairingIds,interplanarAngles,angleWeights
-0.0458282,0.245315,-0.917569,6.65255,5.17404,4.74448,1,0.160692,0.0493107,8,47.0955,0.0935716
0.483753,-0.294785,-0.787217,6.79384,5.15719,4.76664,2,0.0660026,0.0202539,13,79.6477,0.0492881
0.246812,-0.831411,-0.413538,6.69937,5.11805,4.79175,3,0.0291081,0.00893227,19,43.5617,0.0608115
-0.442741,0.68945,-0.523891,6.62069,5.25487,4.80162,4,0.0375017,0.011508,26,72.1607,0.112406
-0.759733,-0.434561,-0.38133,6.55823,5.08932,4.78602,5,0.0864336,0.0265234,34,64.1181,0.107526
0.446342,0.777282,-0.233487,6.72947,5.24704,4.81586,6,0.0807951,0.0247932,43,106.295,0.0382107
-0.723548,-0.658431,0.147788,6.56713,5.07644,4.8285,7,0.0216834,0.00665387,53,82.526,0.112078
-0.654893,0.695871,0.0893765,6.56154,5.25048,4.878,8,0.0860469,0.0264048,64,126.645,0.0657517
-0.418947,-0.782111,0.418638,6.56545,5.07251,4.87494,9,0.0413319,0.0126833,76,101.838,0.0603138
-0.0887231,0.860584,0.440942,6.63076,5.25949,4.89396,10,0.0371239,0.011392,89,120.946,0.0384634
-0.803983,-0.065812,0.539813,6.54441,5.1616,4.91738,11,0.0218462,0.00670384,103,146.846,0.0566873
-0.163827,0.255608,0.903417,6.61988,5.21248,4.93235,12,0.0344137,0.0105604,18,42.2272,0.0403995
,,,,,,,,,25,90.3038,0.0478282
,,,,,,,,,33,86.2369,0.0748489
,,,,,,,,,42,79.0528,0.0726535
,,,,,,,,,52,106.483,0.0326429
,,,,,,,,,63,129.518,0.0747035
,,,,,,,,,75,108.485,0.050832
,,,,,,,,,88,133.12,0.0475198
,,,,,,,,,102,147.561,0.032827
,,,,,,,,,117,159.497,0.0452396
,,,,,,,,,32,119.903,0.0327761
,,,,,,,,,41,68.8156,0.04355
,,,,,,,,,51,119.596,0.0427976
,,,,,,,,,62,71.1124,0.0248531
,,,,,,,,,74,147.434,0.0435008
,,,,,,,,,87,66.6416,0.0341594
,,,,,,,,,101,170.334,0.032631
,,,,,,,,,116,113.171,0.0249597
,,,,,,,,,132,133.173,0.0315394
,,,,,,,,,50,75.2411,0.0523081
,,,,,,,,,61,59.2473,0.0512263
,,,,,,,,,73,102.669,0.0274787
,,,,,,,,,86,39.2416,0.0522371
,,,,,,,,,100,126.915,0.0393238
,,,,,,,,,115,64.8325,0.0373119
,,,,,,,,,131,88.3137,0.0276091
,,,,,,,,,148,104.019,0.0358914
,,,,,,,,,72,131.665,0.0835193
,,,,,,,,,85,34.3895,0.0346694
,,,,,,,,,99,79.8758,0.0862399
,,,,,,,,,114,57.8416,0.0559222
,,,,,,,,,130,120.802,0.0519395
,,,,,,,,,147,62.1032,0.0348772
,,,,,,,,,165,111.34,0.0492275
,,,,,,,,,98,161.538,0.0341908
,,,,,,,,,113,75.1576,0.0833384
,,,,,,,,,129,169.224,0.0546876
,,,,,,,,,146,54.1804,0.0508727
,,,,,,,,,164,126.602,0.034393
,,,,,,,,,183,95.5503,0.0482682
,,,,,,,,,128,88.2576,0.0346382
,,,,,,,,,145,24.964,0.0284444
,,,,,,,,,163,117.074,0.0273766
,,,,,,,,,182,42.7817,0.0217645
,,,,,,,,,202,84.9044,0.0266041
,,,,,,,,,162,104.294,0.0558411
,,,,,,,,,181,41.6497,0.0518694
,,,,,,,,,201,55.4004,0.0348456
,,,,,,,,,222,66.4202,0.0491645
,,,,,,,,,200,118.278,0.0391151
,,,,,,,,,221,49.8273,0.0285842
,,,,,,,,,243,74.6872,0.0375569
,,,,,,,,,242,74.4466,0.0275061
,,,,,,,,,265,46.8559,0.0357175
,,,,,,,,,288,49.3548,0.0267263
