"cellPairingIds","interplanarAngles","angleWeights"
51,46.7931,0.0297711
62,132.36,0.0341279
74,29.1231,0.0329045
87,63.8225,0.0222328
101,85.3303,0.0363285
132,56.4741,0.0462545
98,116.505,0.0370251
146,46.6593,0.0396294
164,63.1181,0.0503421
145,103.865,0.0260432
182,77.1483,0.0642013
202,162.715,0.0664953
245,72.6572,0.0386028
162,39.0491,0.0253246
222,41.8307,0.0620035
243,64.9188,0.0325565
242,36.6013,0.0724579
265,79.7203,0.0753934
314,74.6341,0.0414422
339,62.4951,0.0533042
365,102.29,0.054876
