Q	U	V
{$V$}	{[mm$^3$]}	0.00962425
{$d_v$}	{[mm]}	0.263910
{$S_c$}	{[mm$^2$]}	0.347458
{$S_o$}	{[mm$^2$]}	0.231249
{$S_l/S_o$}	[]	0.502528
{$\Psi$}	[]	0.629738
{$\eta$}	[]	0.641470
{med($\theta_e$)}	{[$^\circ$]}	67.7122
{$\Upsilon$}	[]	12
{$\Xi$}	[]	10
