facetNormals:0,facetNormals:1,facetNormals:2,FacetCenters:0,FacetCenters:1,FacetCenters:2,FacetIds,relFacetSize,absFacetSize,cellPairingIds,interplanarAngles,angleWeights
0.546255,-0.316146,-0.730142,3.41771,5.04145,5.99979,1,0.0603519,0.0210334,8,34.0273,0.0795454
0.823982,0.111614,-0.488131,3.44529,5.07563,5.99572,2,0.11664,0.0406506,13,109.562,0.0862686
-0.748631,0.500365,-0.349294,3.33627,5.12195,6.01064,3,0.151196,0.0526938,19,80.224,0.0709378
-0.547259,-0.743264,-0.305838,3.29627,4.92767,6.00351,4,0.0860274,0.0299816,26,47.8471,0.05561
0.5572,-0.784791,-0.1019,3.42628,4.92261,6.06375,5,0.0515589,0.0179689,34,100.806,0.0344182
0.272117,0.923156,0.042606,3.40853,5.18749,6.08885,6,0.0240736,0.00838994,43,103.056,0.0542079
-0.543265,-0.780494,0.22317,3.2984,4.92363,6.11864,7,0.0491992,0.0171466,53,147.561,0.0346306
-0.189325,0.716994,0.642459,3.30664,5.06188,6.13429,8,0.0242819,0.00846256,64,117.115,0.0358773
-0.126248,-0.594376,0.739546,3.38467,4.94947,6.16677,9,0.0255258,0.00889607,76,171.36,0.0580827
-0.670456,0.293555,0.6538,3.33901,5.09414,6.14809,10,0.055978,0.019509,89,107.611,0.0302846
0.384153,-0.342098,0.823993,3.38096,4.97836,6.17244,11,0.020214,0.00704482,18,114.793,0.131689
,,,,,,,,,25,114.219,0.0990217
,,,,,,,,,33,63.1651,0.0715086
,,,,,,,,,42,70.7359,0.03991
,,,,,,,,,52,133.114,0.0692068
,,,,,,,,,63,114.318,0.040196
,,,,,,,,,75,125.153,0.0418854
,,,,,,,,,88,152.431,0.07565
,,,,,,,,,102,97.5995,0.0344565
,,,,,,,,,32,81.1416,0.10966
,,,,,,,,,41,145.918,0.0768958
,,,,,,,,,51,74.8405,0.041534
,,,,,,,,,62,93.7547,0.0742406
,,,,,,,,,74,73.0616,0.0418438
,,,,,,,,,87,119.928,0.0436777
,,,,,,,,,101,63.6682,0.0817057
,,,,,,,,,116,142.728,0.0356604
,,,,,,,,,50,70.7972,0.0644756
,,,,,,,,,61,154.874,0.0376198
,,,,,,,,,73,31.5757,0.0625983
,,,,,,,,,86,130.991,0.0378737
,,,,,,,,,100,72.1885,0.0393699
,,,,,,,,,115,93.0776,0.0678234
,,,,,,,,,131,102.72,0.0327359
,,,,,,,,,72,128.247,0.0328221
,,,,,,,,,85,72.3225,0.0503514
,,,,,,,,,99,140.585,0.0330152
,,,,,,,,,114,69.7424,0.0341464
,,,,,,,,,130,134.909,0.0536777
,,,,,,,,,147,64.917,0.0290419
,,,,,,,,,98,155.879,0.0323285
,,,,,,,,,113,47.5682,0.0241773
,,,,,,,,,129,126.737,0.0247784
,,,,,,,,,146,82.9273,0.033668
,,,,,,,,,164,100.851,0.0219756
,,,,,,,,,128,109.086,0.0325159
,,,,,,,,,145,41.7481,0.0336126
,,,,,,,,,163,72.9529,0.0523702
,,,,,,,,,182,75.2109,0.0286548
,,,,,,,,,162,85.55,0.0248883
,,,,,,,,,181,38.1285,0.0338713
,,,,,,,,,201,77.1866,0.022062
,,,,,,,,,200,65.2226,0.035063
,,,,,,,,,221,34.7193,0.0225615
,,,,,,,,,242,79.0707,0.0297023
