Q	U	V
{$V$}	{[mm$^3$]}	0.00558812
{$d_v$}	{[mm]}	0.220169
{$S_c$}	{[mm$^2$]}	0.265962
{$S_o$}	{[mm$^2$]}	0.158174
{$S_l/S_o$}	[]	0.681452
{$\Psi$}	[]	0.572587
{$\eta$}	[]	0.632538
{med($\theta_e$)}	{[$^\circ$]}	61.2004
{$\Upsilon$}	[]	12
{$\Xi$}	[]	7
