facetNormals:0,facetNormals:1,facetNormals:2,FacetCenters:0,FacetCenters:1,FacetCenters:2,FacetIds,relFacetSize,absFacetSize,cellPairingIds,interplanarAngles,angleWeights
-0.254053,-0.0633506,-0.951207,3.98927,6.71035,6.62303,1,0.0100234,0.00180865,8,39.9559,0.0187375
0.390141,0.100669,-0.881438,4.0272,6.66135,6.58978,2,0.143451,0.0258848,13,35.5867,0.0158178
-0.439303,0.462448,-0.733141,3.9286,6.72088,6.58308,3,0.0374913,0.00676504,19,55.9172,0.0176152
-0.324789,-0.805201,-0.420295,3.94116,6.56016,6.62144,4,0.0726123,0.0131024,26,47.3193,0.0144545
-0.801863,-0.355209,-0.457783,3.89323,6.60643,6.63832,5,0.0259078,0.00467489,34,82.0128,0.0180242
0.588445,-0.70413,-0.247236,4.06011,6.58546,6.64036,6,0.0893241,0.0161179,43,63.949,0.0183455
-0.944986,-0.0300482,-0.184384,3.8916,6.65353,6.6198,7,0.108088,0.0195037,53,125.529,0.0167003
0.024743,-0.740525,0.628215,4.01474,6.59164,6.6583,8,0.0500206,0.00902588,64,155.196,0.0171685
0.298206,-0.346243,0.861858,3.98943,6.59849,6.69514,9,0.0597883,0.0107884,76,140.222,0.0181718
-0.386631,-0.059557,0.861205,3.99477,6.65907,6.60832,10,0.0971436,0.0175289,18,56.3857,0.0594462
,,,,,,,,,25,79.978,0.0964191
,,,,,,,,,33,86.717,0.0438891
,,,,,,,,,42,65.8646,0.110095
,,,,,,,,,52,102.948,0.123284
,,,,,,,,,63,131.079,0.0741764
,,,,,,,,,75,135.835,0.0844
,,,,,,,,,88,177.629,0.115841
,,,,,,,,,32,85.1991,0.0494503
,,,,,,,,,41,56.9993,0.0306414
,,,,,,,,,51,115.863,0.052815
,,,,,,,,,62,55.0371,0.0556721
,,,,,,,,,74,149.563,0.042859
,,,,,,,,,87,166.817,0.0460845
,,,,,,,,,101,122.146,0.0541024
,,,,,,,,,50,39.264,0.0381897
,,,,,,,,,61,58.4439,0.0801059
,,,,,,,,,73,63.9121,0.0868676
,,,,,,,,,86,69.7582,0.0592355
,,,,,,,,,100,101.046,0.0655793
,,,,,,,,,115,101.918,0.0831054
,,,,,,,,,72,96.6303,0.0401659
,,,,,,,,,85,26.5023,0.0417972
,,,,,,,,,99,92.6472,0.0341355
,,,,,,,,,114,121.949,0.0361507
,,,,,,,,,130,93.8643,0.0409062
,,,,,,,,,98,122.311,0.0978141
,,,,,,,,,113,65.6482,0.0641294
,,,,,,,,,129,77.1492,0.0716311
,,,,,,,,,146,116.314,0.0930699
,,,,,,,,,128,97.1805,0.0683913
,,,,,,,,,145,117.254,0.0769899
,,,,,,,,,163,76.7809,0.102324
,,,,,,,,,162,31.8186,0.0544701
,,,,,,,,,181,51.2156,0.0660376
,,,,,,,,,200,45.4286,0.07402
