Q	U	V
{$V$}	{[mm$^3$]}	0.010459
{$d_v$}	{[mm]}	0.271330
{$S_c$}	{[mm$^2$]}	0.329717
{$S_o$}	{[mm$^2$]}	0.258855
{$S_l/S_o$}	[]	0.273752
{$\Psi$}	[]	0.70146
{$\eta$}	[]	0.720576
{med($\theta_e$)}	{[$^\circ$]}	62.2445
{$\Upsilon$}	[]	11
{$\Xi$}	[]	10
