"cellPairingIds","interplanarAngles","angleWeights"
50,55.2607,0.0361322
100,84.373,0.0740374
115,39.1308,0.0466406
99,41.0038,0.0299145
114,115.06,0.0376766
130,69.5635,0.0290061
165,48.6058,0.0393183
184,81.3981,0.0385218
162,91.8192,0.0519235
222,58.6885,0.0550936
267,87.0615,0.0353564
200,111.013,0.0492464
266,163.538,0.0848187
290,135.479,0.0467366
289,73.2535,0.0507004
338,43.1504,0.0936183
365,43.9749,0.0492894
392,38.0724,0.0480441
