"cellPairingIds","interplanarAngles","angleWeights"
8,76.8539,0.102583
26,38.9109,0.0619232
34,42.4779,0.0225358
43,35.4467,0.0424854
53,59.1741,0.0282279
25,34.8946,0.0714739
33,82.6233,0.0693419
42,86.6602,0.0234488
63,103.726,0.0296752
75,64.2771,0.0772852
88,72.8707,0.0163605
61,73.6223,0.0205691
100,79.0612,0.0528829
166,159.4,0.041003
99,25.307,0.0249383
98,31.5191,0.0177194
203,117.841,0.0188525
128,68.2278,0.0210582
223,90.6604,0.031049
181,59.6028,0.0115207
222,47.7129,0.0263749
244,62.7454,0.022678
200,36.8732,0.015142
243,62.0664,0.0582893
266,91.6097,0.0428514
265,39.3308,0.0153047
338,40.0897,0.0441802
