"cellPairingIds","interplanarAngles","angleWeights"
8,35.4828,0.0639448
13,52.2706,0.0522622
19,66.7126,0.0588305
64,113.779,0.0529462
18,60.9553,0.0482104
42,56.2841,0.0278481
52,42.3273,0.0785803
75,137.582,0.0487918
133,116.459,0.0324625
32,84.8943,0.0452449
41,35.5195,0.0260751
51,40.1959,0.0253776
74,98.2379,0.0114824
86,35.3497,0.0117711
100,53.2932,0.0457566
72,51.7315,0.0186855
99,80.1278,0.00988119
147,58.3831,0.0334018
165,40.5542,0.0291317
98,39.7996,0.031859
183,65.8877,0.0282637
224,85.8668,0.0230274
163,56.4415,0.0812441
223,87.5977,0.038046
245,100.967,0.0493991
162,36.3871,0.0115151
201,41.1366,0.0127101
221,60.9697,0.0641898
266,68.3501,0.0293656
290,81.7147,0.0356981
289,40.4597,0.0329082
314,56.1045,0.0410731
288,41.2747,0.0847304
339,38.1646,0.0503839
365,25.9679,0.0412608
392,64.5564,0.0260945
