facetNormals:0,facetNormals:1,facetNormals:2,FacetCenters:0,FacetCenters:1,FacetCenters:2,FacetIds,relFacetSize,absFacetSize,cellPairingIds,interplanarAngles,angleWeights
-0.177809,0.386255,-0.874031,4.1336,6.21398,6.2226,1,0.0342253,0.00637505,8,49.4821,0.0551877
0.518959,0.00228967,-0.783624,4.19134,6.14288,6.23263,2,0.142414,0.026527,13,25.1812,0.0294985
-0.577196,0.284127,-0.756133,4.10109,6.14254,6.21621,3,0.0259188,0.00482783,19,70.0007,0.0386973
-0.319152,-0.693916,-0.614594,4.12089,6.0141,6.26039,4,0.0445136,0.00829141,26,42.485,0.0244144
-0.770797,0.0748201,-0.627594,4.09618,6.16637,6.23046,5,0.0189751,0.00353443,34,82.1698,0.0352537
0.456596,-0.675569,-0.539572,4.18596,6.02296,6.26644,6,0.0363459,0.00677004,43,57.7209,0.0396029
-0.815483,-0.209453,-0.511837,4.07418,6.14564,6.26438,7,0.0469853,0.00875182,53,48.1576,0.0158043
-0.79484,0.462209,-0.369014,4.19525,6.15363,6.35259,8,0.0102744,0.00191377,64,83.1324,0.0215501
-0.639942,-0.692365,-0.307662,4.10971,6.01233,6.34213,9,0.015726,0.00292923,76,84.8881,0.051888
-0.945687,-0.139653,0.0358834,4.08251,6.08059,6.31538,10,0.107222,0.019972,89,67.9424,0.0340977
-0.612523,0.722839,0.0478635,4.15402,6.14885,6.35126,11,0.0339711,0.0063277,103,105.972,0.0495489
0.955123,-0.0343896,0.0840943,4.18112,6.12778,6.31084,12,0.0897181,0.0167115,118,130.048,0.0219578
-0.0099932,-0.934885,0.28913,4.12763,6.00374,6.37377,13,0.0161641,0.00301084,134,130.698,0.0453569
0.696581,-0.601037,0.292814,4.18471,6.03841,6.37056,14,0.0672199,0.0125209,151,130.162,0.0119614
-0.503594,-0.689718,0.511696,4.10797,6.03515,6.38327,15,0.00724709,0.00134989,169,102.369,0.0452911
0.434741,0.729251,0.464336,4.17162,6.22895,6.31351,16,0.0669316,0.0124672,18,71.6582,0.043856
,,,,,,,,,25,70.0497,0.0678268
,,,,,,,,,33,84.3672,0.0334882
,,,,,,,,,42,44.2536,0.0579119
,,,,,,,,,52,91.398,0.0706588
,,,,,,,,,63,97.5445,0.019166
,,,,,,,,,75,95.7011,0.0283243
,,,,,,,,,88,125.273,0.122338
,,,,,,,,,102,113.373,0.0548568
,,,,,,,,,117,61.5427,0.110085
,,,,,,,,,133,104.732,0.0290329
,,,,,,,,,150,81.7214,0.0913311
,,,,,,,,,168,135.195,0.0137923
,,,,,,,,,187,98.6368,0.0910647
,,,,,,,,,32,62.3436,0.0327616
,,,,,,,,,41,18.0867,0.02191
,,,,,,,,,51,92.8051,0.0302593
,,,,,,,,,62,35.3159,0.0334084
,,,,,,,,,74,27.9176,0.0147154
,,,,,,,,,87,65.6926,0.019575
,,,,,,,,,101,59.7085,0.0417463
,,,,,,,,,116,56.2878,0.0294037
,,,,,,,,,132,130.98,0.0402188
,,,,,,,,,149,119.504,0.0199109
,,,,,,,,,167,145.954,0.0374122
,,,,,,,,,186,107.196,0.0113271
,,,,,,,,,206,114.266,0.0373674
,,,,,,,,,50,53.6073,0.0266078
,,,,,,,,,61,46.9223,0.0400172
,,,,,,,,,73,41.7937,0.0457161
,,,,,,,,,86,80.5343,0.0166952
,,,,,,,,,100,26.0127,0.0232412
,,,,,,,,,115,66.3191,0.0629099
,,,,,,,,,131,111.147,0.0385343
,,,,,,,,,148,110.711,0.0595042
,,,,,,,,,166,60.3771,0.0237162
,,,,,,,,,185,89.1046,0.0535596
,,,,,,,,,205,70.5595,0.0124648
,,,,,,,,,226,168.662,0.0534678
,,,,,,,,,72,93.7567,0.0249332
,,,,,,,,,85,17.9938,0.0270329
,,,,,,,,,99,27.14,0.0133306
,,,,,,,,,114,50.067,0.0171984
,,,,,,,,,130,43.1248,0.0322439
,,,,,,,,,147,58.3517,0.0243494
,,,,,,,,,165,145.861,0.031325
,,,,,,,,,184,104.467,0.0174571
,,,,,,,,,204,142.708,0.0295957
,,,,,,,,,225,89.1093,0.0104884
,,,,,,,,,247,126.367,0.0295677
,,,,,,,,,98,87.3034,0.0409864
,,,,,,,,,113,119.435,0.0160201
,,,,,,,,,129,69.3763,0.0219533
,,,,,,,,,146,112.425,0.054289
,,,,,,,,,164,148.85,0.0351184
,,,,,,,,,183,63.8144,0.0517338
,,,,,,,,,203,60.5117,0.0223766
,,,,,,,,,224,53.1542,0.0471809
,,,,,,,,,246,92.36,0.0120846
,,,,,,,,,269,125.148,0.0471097
,,,,,,,,,128,40.6866,0.0168616
,,,,,,,,,145,32.4778,0.0235648
,,,,,,,,,163,33.9297,0.0653388
,,,,,,,,,182,69.7453,0.0394322
,,,,,,,,,202,149.522,0.0616727
,,,,,,,,,223,86.6721,0.0240533
,,,,,,,,,245,128.486,0.0553101
,,,,,,,,,268,72.607,0.0125573
,,,,,,,,,292,141.377,0.0552122
,,,,,,,,,162,72.0897,0.0124286
,,,,,,,,,181,44.682,0.0187519
,,,,,,,,,201,31.2765,0.015777
,,,,,,,,,222,147.998,0.0184373
,,,,,,,,,244,123.197,0.0125632
,,,,,,,,,267,169.166,0.0178243
,,,,,,,,,291,96.2476,0.0084992
,,,,,,,,,316,100.811,0.0178141
,,,,,,,,,200,43.266,0.027429
,,,,,,,,,221,97.5253,0.0214994
,,,,,,,,,243,130.131,0.0267612
,,,,,,,,,266,54.4184,0.015942
,,,,,,,,,290,97.1826,0.0254889
,,,,,,,,,315,49.4122,0.00992184
,,,,,,,,,341,164.767,0.0254681
,,,,,,,,,242,58.0656,0.0515953
,,,,,,,,,265,167.32,0.0976923
,,,,,,,,,289,80.756,0.0280931
,,,,,,,,,314,127.66,0.0826345
,,,,,,,,,340,51.6491,0.0135765
,,,,,,,,,367,122.421,0.0824163
,,,,,,,,,288,131.732,0.049282
,,,,,,,,,313,134.942,0.0219053
,,,,,,,,,339,157.645,0.0451331
,,,,,,,,,366,100.098,0.0119458
,,,,,,,,,394,72.0403,0.045068
,,,,,,,,,338,87.1356,0.0273929
,,,,,,,,,365,39.9043,0.0768564
,,,,,,,,,393,115.701,0.0134109
,,,,,,,,,422,62.4653,0.0766676
,,,,,,,,,392,47.3967,0.0260613
,,,,,,,,,421,35.0309,0.0100074
,,,,,,,,,451,125.644,0.0260396
,,,,,,,,,450,77.1618,0.0130836
,,,,,,,,,481,89.97,0.0670755
,,,,,,,,,512,120.18,0.0130781
