"cellPairingIds","interplanarAngles","angleWeights"
13,66.5631,0.063437
19,81.5282,0.0310031
26,71.424,0.0337461
34,112.047,0.0201085
43,95.6009,0.0611387
53,87.2918,0.0636964
32,54.1272,0.0365871
51,121.958,0.0223178
87,54.6747,0.0713958
101,80.1344,0.0807456
50,43.4898,0.024271
86,70.4462,0.0366733
100,44.5234,0.0327895
148,94.4957,0.04059
99,30.8233,0.0405744
98,45.1817,0.0220265
146,70.0281,0.0215745
164,36.6918,0.0219307
183,81.8821,0.0237462
128,75.148,0.0879565
202,63.6548,0.114442
222,50.4961,0.123743
200,49.4753,0.0643081
243,88.9968,0.0884093
266,62.4162,0.0109737
242,39.9053,0.0758986
289,41.8029,0.0111726
288,63.8433,0.111902
313,38.4019,0.0112673
338,40.77,0.011728
