"cellPairingIds","interplanarAngles","angleWeights"
8,45.3401,0.0383021
13,52.2152,0.0256075
19,58.3576,0.0385824
26,93.7869,0.0254862
34,109.54,0.0193803
18,57.2967,0.0481379
42,75.7948,0.0300106
63,58.1561,0.0877714
32,54.876,0.0485816
74,86.0082,0.0410914
101,56.1954,0.0457933
50,37.8676,0.0481466
100,56.1597,0.0506039
115,64.509,0.114879
72,146.23,0.0215284
85,23.2473,0.0364223
114,32.2046,0.03023
98,127.056,0.0251145
113,47.1472,0.0271121
203,64.53,0.0226526
224,94.2219,0.0276276
145,25.3722,0.0378113
202,39.2544,0.0395297
223,66.9671,0.0397605
181,91.4979,0.080277
267,66.462,0.0700902
200,33.3161,0.0475858
243,34.5138,0.03234
290,52.6344,0.0438114
314,37.7749,0.0849718
338,39.248,0.0337554
365,33.1819,0.0461353
392,50.0208,0.04645
