"cellPairingIds","interplanarAngles","angleWeights"
8,53.032,0.0499952
19,127.029,0.0339871
26,124.996,0.0528829
34,59.0095,0.0343463
43,54.8381,0.0418855
18,31.8947,0.116322
25,98.2716,0.0513706
52,69.6519,0.071849
32,80.0177,0.0555006
62,84.1729,0.0801955
87,102.763,0.124048
101,79.4397,0.0711616
50,43.72,0.0544242
115,99.6995,0.0401251
72,103.632,0.055351
99,90.3801,0.032509
114,115.554,0.118797
130,105.629,0.0694016
98,49.8837,0.043419
113,39.9252,0.0244103
128,63.279,0.0279911
145,46.2623,0.0747237
162,33.6027,0.031931
200,38.8201,0.0668198
