Q	U	V
{$V$}	{[mm$^3$]}	0.00226921
{$d_v$}	{[mm]}	0.163039
{$S_c$}	{[mm$^2$]}	0.167477
{$S_o$}	{[mm$^2$]}	0.0851684
{$S_l/S_o$}	[]	0.966422
{$\Psi$}	[]	0.49863
{$\eta$}	[]	0.607074
{med($\theta_e$)}	{[$^\circ$]}	98.937
{$\Upsilon$}	[]	14
{$\Xi$}	[]	6
