"cellPairingIds","interplanarAngles","angleWeights"
265,153.82,0.00932414
314,163.705,0.00548291
340,61.7055,0.0475148
365,32.779,0.00349434
393,131.1,0.00801039
422,97.0251,0.0078152
450,128.742,0.00500064
481,90.0191,0.00492387
512,39.0023,0.0239502
