Q	U	V
{$V$}	{[mm$^3$]}	0.0075486
{$d_v$}	{[mm]}	0.243382
{$S_c$}	{[mm$^2$]}	0.322594
{$S_o$}	{[mm$^2$]}	0.210945
{$S_l/S_o$}	[]	0.529280
{$\Psi$}	[]	0.576862
{$\eta$}	[]	0.625117
{med($\theta_e$)}	{[$^\circ$]}	55.08775
{$\Upsilon$}	[]	12
{$\Xi$}	[]	10
