Q	U	V
{$V$}	{[mm$^3$]}	0.00286293
{$d_v$}	{[mm]}	0.176172
{$S_c$}	{[mm$^2$]}	0.197303
{$S_o$}	{[mm$^2$]}	0.117762
{$S_l/S_o$}	[]	0.675439
{$\Psi$}	[]	0.494187
{$\eta$}	[]	0.527032
{med($\theta_e$)}	{[$^\circ$]}	69.1607
{$\Upsilon$}	[]	17
{$\Xi$}	[]	7
