facetNormals:0,facetNormals:1,facetNormals:2,FacetCenters:0,FacetCenters:1,FacetCenters:2,FacetIds,relFacetSize,absFacetSize,cellPairingIds,interplanarAngles,angleWeights
0.101513,0.336686,-0.917491,5.41914,5.52751,6.63626,1,0.0128828,0.00113349,8,45.3213,0.015988
0.451155,-0.321898,-0.80276,5.34675,5.4606,6.75933,2,0.0210655,0.00185344,13,71.2794,0.0210518
0.0319811,-0.731408,-0.587511,5.34428,5.46039,6.74215,3,0.0575346,0.00506216,19,74.0295,0.0175563
0.798675,-0.433538,-0.358593,5.37362,5.4696,6.77344,4,0.0275511,0.00242407,26,65.3924,0.0198025
-0.737006,0.563262,-0.311151,5.39014,5.53339,6.63585,5,0.0427818,0.00376414,34,54.1811,0.0213492
0.800719,0.379933,-0.375172,5.49649,5.52777,6.61795,6,0.0622763,0.00547936,43,56.9636,0.0181438
-0.358579,0.869207,-0.296284,5.38999,5.53248,6.63682,7,0.0306678,0.00269829,53,97.3439,0.015283
-0.962416,-0.212138,-0.0492525,5.30852,5.44722,6.70245,8,0.0187823,0.00165256,64,110.644,0.0145097
-0.740327,-0.634883,0.0539083,5.32495,5.42011,6.71945,9,0.0166068,0.00146115,76,99.3193,0.0127628
-0.939699,0.272012,0.167988,5.32628,5.48313,6.69594,10,0.012645,0.00111256,89,78.3033,0.0105084
0.701891,0.70398,0.118631,5.4853,5.54859,6.64086,11,0.00887305,0.000780691,103,117.932,0.0150167
0.439496,-0.844321,0.230045,5.43383,5.40759,6.72304,12,0.0179978,0.00158353,118,127.365,0.0121519
-0.840551,-0.18035,0.481115,5.32082,5.40659,6.71778,13,0.0114996,0.00101179,134,113.098,0.020247
-0.572671,0.567161,0.556197,5.33057,5.4764,6.72232,14,0.0472651,0.00415859,151,150.487,0.0172979
0.364921,-0.43802,0.780226,5.43382,5.41705,6.73606,15,0.0263174,0.00231552,169,154.3,0.0213866
-0.162937,-0.695363,0.675298,5.36414,5.39386,6.73627,16,0.0629194,0.00553593,188,110.399,0.0233796
0.151249,0.710848,0.638772,5.44274,5.51964,6.6861,17,0.126234,0.0111066,208,127.251,0.0232134
0.535105,0.236302,0.775744,5.44878,5.46447,6.72238,18,0.117175,0.0103096,229,135.989,0.0179162
0.0049166,0.394065,0.90647,5.40714,5.46446,6.74204,19,0.0294051,0.0025872,18,38.0076,0.0308395
,,,,,,,,,25,34.2497,0.0238757
,,,,,,,,,33,106.06,0.0282305
,,,,,,,,,42,54.8786,0.031482
,,,,,,,,,52,102.23,0.0249755
,,,,,,,,,63,109.82,0.0198585
,,,,,,,,,75,100.455,0.0185723
,,,,,,,,,88,131.878,0.0158036
,,,,,,,,,102,90.3039,0.0124866
,,,,,,,,,117,72.6168,0.0194112
,,,,,,,,,133,137.399,0.0148776
,,,,,,,,,150,158.275,0.0291425
,,,,,,,,,168,109.89,0.0234004
,,,,,,,,,187,114.117,0.0315635
,,,,,,,,,207,135.513,0.0361058
,,,,,,,,,228,118.855,0.035711
,,,,,,,,,250,152.122,0.0245463
,,,,,,,,,32,52.8892,0.0372598
,,,,,,,,,41,105.973,0.0490734
,,,,,,,,,51,92.0211,0.0598116
,,,,,,,,,62,120.749,0.0400093
,,,,,,,,,74,80.4724,0.0283196
,,,,,,,,,87,63.507,0.0257742
,,,,,,,,,101,110.592,0.0207332
,,,,,,,,,116,126.739,0.015375
,,,,,,,,,132,57.3118,0.0274186
,,,,,,,,,149,101.075,0.019168
,,,,,,,,,167,145.759,0.0518967
,,,,,,,,,186,98.0069,0.0361151
,,,,,,,,,206,83.363,0.0601066
,,,,,,,,,227,168.608,0.079043
,,,,,,,,,249,132.103,0.0771752
,,,,,,,,,272,152.184,0.0389192
,,,,,,,,,50,138.988,0.0335173
,,,,,,,,,61,49.6041,0.0382017
,,,,,,,,,73,125.332,0.029026
,,,,,,,,,86,133.128,0.0223369
,,,,,,,,,100,110.576,0.0207227
,,,,,,,,,115,163.273,0.0173342
,,,,,,,,,131,77.4312,0.0134231
,,,,,,,,,148,48.4483,0.0217726
,,,,,,,,,166,142.707,0.0162264
,,,,,,,,,185,160.66,0.0348107
,,,,,,,,,205,77.6717,0.0269201
,,,,,,,,,226,94.2298,0.0383218
,,,,,,,,,248,116.139,0.0452304
,,,,,,,,,271,87.1767,0.0446125
,,,,,,,,,295,120.629,0.0284479
,,,,,,,,,72,105.99,0.0507204
,,,,,,,,,85,28.6987,0.0357258
,,,,,,,,,99,51.1848,0.0261042
,,,,,,,,,114,79.6774,0.0239261
,,,,,,,,,130,35.2064,0.0195204
,,,,,,,,,147,99.2638,0.0146978
,,,,,,,,,165,155.389,0.0253368
,,,,,,,,,184,67.5417,0.0181268
,,,,,,,,,204,53.6077,0.0449118
,,,,,,,,,225,143.341,0.0325881
,,,,,,,,,247,120.06,0.0509324
,,,,,,,,,270,84.5345,0.0639055
,,,,,,,,,294,121.923,0.062679
,,,,,,,,,319,93.7773,0.0348541
,,,,,,,,,98,80.642,0.0410973
,,,,,,,,,113,151.268,0.0288605
,,,,,,,,,129,155.327,0.0262214
,,,,,,,,,146,138.197,0.0210216
,,,,,,,,,164,35.4438,0.015533
,,,,,,,,,183,93.3564,0.0279253
,,,,,,,,,203,166.535,0.0194143
,,,,,,,,,224,118.64,0.0537421
,,,,,,,,,246,100.341,0.0369992
,,,,,,,,,269,133.237,0.0625962
,,,,,,,,,293,80.6348,0.0834053
,,,,,,,,,318,75.937,0.0813284
,,,,,,,,,344,101.302,0.039948
,,,,,,,,,128,79.6181,0.0232967
,,,,,,,,,145,108.3,0.0215462
,,,,,,,,,163,57.6492,0.0179067
,,,,,,,,,182,70.77,0.0137638
,,,,,,,,,202,173.74,0.0226835
,,,,,,,,,223,89.8764,0.016727
,,,,,,,,,245,56.4509,0.0371991
,,,,,,,,,268,141.231,0.0283265
,,,,,,,,,292,140.349,0.0412364
,,,,,,,,,317,66.891,0.049347
,,,,,,,,,343,103.053,0.0486125
,,,,,,,,,370,85.7515,0.0300232
,,,,,,,,,162,28.8088,0.0176277
,,,,,,,,,181,31.1295,0.0151144
,,,,,,,,,201,147.233,0.0120524
,,,,,,,,,222,105.313,0.0183817
,,,,,,,,,244,32.0958,0.0142652
,,,,,,,,,267,65.3226,0.0268822
,,,,,,,,,291,108.13,0.0219204
,,,,,,,,,316,73.7706,0.028929
,,,,,,,,,342,110.082,0.0326993
,,,,,,,,,369,129,0.0323752
,,,,,,,,,397,97.8359,0.0229229
,,,,,,,,,200,56.7177,0.0143576
,,,,,,,,,221,169.078,0.0115662
,,,,,,,,,243,76.5134,0.0172744
,,,,,,,,,266,37.5677,0.0135892
,,,,,,,,,290,84.3683,0.024578
,,,,,,,,,315,86.9639,0.0203637
,,,,,,,,,341,51.4352,0.0262779
,,,,,,,,,368,124.026,0.0293522
,,,,,,,,,396,122.104,0.0290908
,,,,,,,,,425,102.257,0.0212261
,,,,,,,,,242,116.806,0.0104284
,,,,,,,,,265,128.419,0.0148539
,,,,,,,,,289,32.8351,0.0120451
,,,,,,,,,314,36.0537,0.0199521
,,,,,,,,,340,110.187,0.0170823
,,,,,,,,,367,85.4494,0.0210579
,,,,,,,,,395,80.4987,0.0229873
,,,,,,,,,424,108.641,0.0228267
,,,,,,,,,454,74.9446,0.017685
,,,,,,,,,288,105.295,0.0118862
,,,,,,,,,313,131.993,0.010017
,,,,,,,,,339,86.2982,0.0149412
,,,,,,,,,366,87.6104,0.0132715
,,,,,,,,,394,122.159,0.0155528
,,,,,,,,,423,45.218,0.0165806
,,,,,,,,,453,49.3256,0.0164969
,,,,,,,,,484,66.8904,0.0136325
,,,,,,,,,338,96.3362,0.0140329
,,,,,,,,,365,128.931,0.026069
,,,,,,,,,393,41.4111,0.0213767
,,,,,,,,,422,45.8158,0.0279894
,,,,,,,,,452,114.091,0.031504
,,,,,,,,,483,76.9942,0.031203
,,,,,,,,,515,97.2426,0.0223289
,,,,,,,,,392,47.9093,0.0184985
,,,,,,,,,421,81.078,0.0160055
,,,,,,,,,451,52.6646,0.0194452
,,,,,,,,,482,86.8735,0.0210789
,,,,,,,,,514,97.1527,0.0209438
,,,,,,,,,547,68.2448,0.0165334
,,,,,,,,,450,91.4198,0.0338095
,,,,,,,,,481,85.5594,0.0539802
,,,,,,,,,513,44.8433,0.0687779
,,,,,,,,,546,74.2005,0.0673594
,,,,,,,,,580,41.5081,0.0362549
,,,,,,,,,512,35.6289,0.0371119
,,,,,,,,,545,74.986,0.0435544
,,,,,,,,,579,42.0623,0.0429813
,,,,,,,,,614,55.8315,0.0277757
,,,,,,,,,578,95.2838,0.08398
,,,,,,,,,613,73.4293,0.0818747
,,,,,,,,,649,69.6838,0.0400793
,,,,,,,,,648,37.6378,0.121536
,,,,,,,,,685,25.9595,0.0476991
,,,,,,,,,722,33.7018,0.0470125
