Q	U	V
{$V$}	{[mm$^3$]}	0.00663308
{$d_v$}	{[mm]}	0.233116
{$S_c$}	{[mm$^2$]}	0.25907
{$S_o$}	{[mm$^2$]}	0.162279
{$S_l/S_o$}	[]	0.596448
{$\Psi$}	[]	0.658987
{$\eta$}	[]	0.672367
{med($\theta_e$)}	{[$^\circ$]}	95.76015
{$\Upsilon$}	[]	14
{$\Xi$}	[]	11
