"cellPairingIds","interplanarAngles","angleWeights"
18,60.5038,0.0156724
25,41.6218,0.0624706
63,87.6252,0.0815886
75,102.124,0.0306643
32,69.6944,0.013508
41,41.0177,0.0154552
51,35.9754,0.0134509
87,120.72,0.0110334
50,69.9797,0.059157
73,60.7175,0.0234809
86,108.665,0.044483
166,77.1579,0.0506826
72,46.619,0.0580772
85,48.4503,0.0300656
130,63.8644,0.0237588
184,83.3518,0.0961225
129,102.503,0.0231753
146,34.6113,0.0193307
223,36.1512,0.0277108
162,30.8241,0.0255858
244,100.681,0.0625793
267,80.1193,0.0429537
200,86.435,0.0147014
221,68.6168,0.0257462
290,91.426,0.0229171
242,21.2518,0.021087
289,104.771,0.0222637
313,101.776,0.0635475
339,89.8266,0.0434076
392,25.3739,0.0487067
