facetNormals:0,facetNormals:1,facetNormals:2,FacetCenters:0,FacetCenters:1,FacetCenters:2,FacetIds,relFacetSize,absFacetSize,cellPairingIds,interplanarAngles,angleWeights
0.592423,0.318058,-0.660775,3.94777,4.90071,5.18881,1,0.10161,0.0265886,8,57.0819,0.0812763
-0.276153,0.553963,-0.713015,3.83916,4.9088,5.15569,2,0.0677237,0.0177214,13,103.272,0.028033
-0.88321,0.25871,-0.345354,3.77254,4.8763,5.18157,3,0.0162594,0.00425463,19,69.1905,0.056275
-0.310143,0.863807,-0.362423,3.84345,4.95565,5.23987,4,0.0389132,0.0101825,26,64.8719,0.0606139
0.653183,-0.641659,-0.308634,3.98263,4.82664,5.29701,5,0.0431887,0.0113013,34,127.439,0.0613225
-0.668547,-0.695851,-0.093472,3.80333,4.78844,5.28813,6,0.0439117,0.0114905,43,92.6001,0.0585046
-0.428655,0.871145,0.0981638,3.82359,4.95673,5.25492,7,0.0410782,0.010749,53,102,0.0960131
0.521946,-0.64553,0.435282,3.93348,4.77513,5.34734,8,0.0910004,0.0238122,64,158.779,0.122847
-0.81417,-0.147754,0.454535,3.80085,4.83434,5.32261,9,0.155306,0.0406391,76,89.7813,0.132528
0.441974,0.553762,0.657541,3.93882,4.89778,5.3494,10,0.19049,0.0498459,18,46.9604,0.026223
,,,,,,,,,25,28.0095,0.0494265
,,,,,,,,,33,110.25,0.0527425
,,,,,,,,,42,98.4306,0.0532782
,,,,,,,,,52,54.8122,0.0511382
,,,,,,,,,63,156.575,0.0776553
,,,,,,,,,75,101.722,0.0943183
,,,,,,,,,88,108.138,0.0999226
,,,,,,,,,32,50.0714,0.0229355
,,,,,,,,,41,132.063,0.0236247
,,,,,,,,,51,62.318,0.0237316
,,,,,,,,,62,53.5382,0.0232973
,,,,,,,,,74,147.642,0.0275893
,,,,,,,,,87,55.6316,0.029437
,,,,,,,,,101,119.937,0.0299614
,,,,,,,,,50,132.569,0.0409396
,,,,,,,,,61,112.096,0.0412616
,,,,,,,,,73,28.0439,0.0399664
,,,,,,,,,86,161.522,0.0545149
,,,,,,,,,100,92.452,0.0622333
,,,,,,,,,115,83.8031,0.0646249
,,,,,,,,,72,87.6345,0.0435472
,,,,,,,,,85,157.205,0.042107
,,,,,,,,,99,46.7306,0.0585769
,,,,,,,,,114,129.259,0.0675833
,,,,,,,,,130,106.776,0.0704131
,,,,,,,,,98,110.336,0.0424477
,,,,,,,,,113,86.242,0.0592383
,,,,,,,,,129,48.6539,0.0684653
,,,,,,,,,146,142.381,0.0713711
,,,,,,,,,128,144.358,0.0566047
,,,,,,,,,145,73.2896,0.0649715
,,,,,,,,,163,67.7283,0.0675826
,,,,,,,,,162,98.5603,0.114759
,,,,,,,,,181,79.8653,0.123164
,,,,,,,,,200,99.0019,0.171108
