facetNormals:0,facetNormals:1,facetNormals:2,FacetCenters:0,FacetCenters:1,FacetCenters:2,FacetIds,relFacetSize,absFacetSize,cellPairingIds,interplanarAngles,angleWeights
0.571592,-0.110487,-0.770924,4.45819,3.79495,7.02089,1,0.0198677,0.00257041,8,69.9296,0.0285842
-0.403084,-0.610139,-0.625132,4.2815,3.73713,7.02957,2,0.0509275,0.00658879,13,58.8881,0.02132
0.109213,-0.874351,-0.427993,4.35845,3.73149,7.00837,3,0.0230012,0.00297581,19,40.9725,0.0280548
0.89112,0.200785,-0.26901,4.47421,3.8656,7.11207,4,0.0477185,0.00617362,26,60.9903,0.0237106
0.7418,0.617415,-0.130319,4.4782,3.88324,7.13067,5,0.0293966,0.00380321,34,82.1936,0.0186417
0.474206,0.859042,0.0611445,4.4476,3.91503,7.14676,6,0.0175583,0.00227162,43,88.9412,0.0362142
0.385881,-0.819158,0.380762,4.39924,3.77407,7.09851,7,0.204326,0.0264348,53,161.472,0.0345487
-0.765663,-0.00830545,0.562086,4.27688,3.81913,7.13433,8,0.132338,0.0171213,64,116.076,0.0286038
0.291046,0.647136,0.654938,4.41399,3.92582,7.18764,9,0.0510519,0.00660489,76,165.78,0.0195881
-0.559772,0.352402,0.741118,4.30627,3.92001,7.15565,10,0.0193162,0.00249904,89,129.543,0.0338962
0.0391848,-0.435571,0.86419,4.36755,3.84224,7.19166,11,0.11533,0.0149209,18,36.5571,0.0316899
,,,,,,,,,25,110.014,0.0492708
,,,,,,,,,33,129.365,0.0372764
,,,,,,,,,42,142.812,0.0261134
,,,,,,,,,52,83.5456,0.0815331
,,,,,,,,,63,92.3634,0.0735506
,,,,,,,,,75,172.764,0.0509896
,,,,,,,,,88,118.273,0.0280089
,,,,,,,,,102,108.151,0.070655
,,,,,,,,,32,87.7329,0.0310404
,,,,,,,,,41,114.991,0.0258086
,,,,,,,,,51,138.877,0.0199145
,,,,,,,,,62,51.7734,0.0413479
,,,,,,,,,74,109.914,0.0391908
,,,,,,,,,87,149.418,0.0317139
,,,,,,,,,101,134.864,0.0209982
,,,,,,,,,116,89.0788,0.0383533
,,,,,,,,,50,27.8377,0.036381
,,,,,,,,,61,51.8265,0.0256708
,,,,,,,,,73,85.2804,0.0773683
,,,,,,,,,86,157.42,0.0701443
,,,,,,,,,100,76.5992,0.0493289
,,,,,,,,,115,131.552,0.0275003
,,,,,,,,,131,108.001,0.0675059
,,,,,,,,,72,24.0741,0.0219851
,,,,,,,,,85,106.34,0.0513984
,,,,,,,,,99,134.323,0.048107
,,,,,,,,,114,55.6887,0.0373096
,,,,,,,,,130,107.707,0.0233134
,,,,,,,,,147,111.943,0.0468512
,,,,,,,,,98,121.002,0.0323377
,,,,,,,,,113,111.078,0.0310031
,,,,,,,,,129,39.3632,0.0261297
,,,,,,,,,146,85.1485,0.0183953
,,,,,,,,,164,108.539,0.0304767
,,,,,,,,,128,94.5877,0.160635
,,,,,,,,,145,100.228,0.0816925
,,,,,,,,,163,103.18,0.0352956
,,,,,,,,,182,42.542,0.147439
,,,,,,,,,162,81.2258,0.0736802
,,,,,,,,,181,26.797,0.0337117
,,,,,,,,,201,60.0454,0.12325
,,,,,,,,,200,54.976,0.0280277
,,,,,,,,,221,71.58,0.0707747
,,,,,,,,,242,61.0961,0.0330902
