"cellPairingIds","interplanarAngles","angleWeights"
8,23.3595,0.0209001
13,78.1251,0.0350385
26,68.6062,0.011288
34,57.0676,0.0461101
33,82.5946,0.00816591
42,64.98,0.0179993
52,43.1441,0.0214207
88,59.934,0.0197902
41,59.5296,0.00969427
51,67.8456,0.0275853
87,42.9644,0.0128738
116,94.6912,0.037977
149,88.468,0.0277261
85,86.7646,0.0114381
165,114.122,0.0110318
184,129.577,0.010404
204,126.487,0.0118702
113,40.3063,0.0458075
129,42.2453,0.0141195
146,70.7059,0.0410329
164,55.1431,0.0513376
163,55.3597,0.0645295
202,37.865,0.0672449
181,31.8433,0.059514
201,42.2077,0.083956
221,52.0566,0.0164191
242,60.4009,0.0691985
265,44.5546,0.0534269
314,54.0411,0.0812064
313,41.0601,0.0518276
339,77.205,0.134725
365,26.5544,0.0855539
392,71.97,0.0582823
