"cellPairingIds","interplanarAngles","angleWeights"
8,33.8577,0.0221543
13,62.025,0.0325723
19,43.2191,0.0255906
26,89.2635,0.0269496
34,80.8059,0.0238804
64,101.677,0.028623
25,26.496,0.0331061
42,53.4761,0.0302991
51,54.7799,0.0538584
87,45.1288,0.0859931
50,112.395,0.0450975
61,71.9233,0.0371152
86,29.7897,0.038873
148,113.601,0.0381846
114,85.0524,0.0554501
130,66.2904,0.0229395
165,65.4592,0.0412916
184,54.7716,0.0474024
98,29.9463,0.0334836
113,64.4026,0.0350592
129,79.4416,0.0438535
164,69.7768,0.0455836
224,54.4793,0.0385986
128,39.1236,0.0349076
245,49.476,0.038415
222,96.7589,0.0360118
267,79.8185,0.0405033
316,88.0483,0.0534261
200,38.9204,0.0241408
221,36.6605,0.0666695
242,38.8921,0.024656
289,39.7736,0.0224793
340,44.8121,0.0200569
339,45.2796,0.0552368
366,59.0898,0.0426732
394,51.9273,0.0824269
338,31.5142,0.0398242
393,31.002,0.032805
422,53.9594,0.0521343
421,19.9631,0.0365482
481,26.9217,0.0621044
512,37.3742,0.0466593
