"cellPairingIds","interplanarAngles","angleWeights"
8,99.9108,0.0312775
13,108.716,0.0936883
19,41.6788,0.0504087
26,83.5355,0.0666936
53,61.1228,0.0954993
18,100.971,0.0295032
33,57.2177,0.0261678
42,105.731,0.0273032
88,79.9096,0.0281245
32,92.0924,0.0459545
51,36.7389,0.0652416
62,73.4859,0.0417928
73,40.988,0.030219
86,39.7972,0.046386
99,80.7238,0.0598289
114,79.0764,0.0378843
130,85.2008,0.0538261
147,75.0106,0.0629396
98,69.5687,0.0375112
146,51.2134,0.0588608
164,87.317,0.0699341
128,49.1611,0.0421494
145,49.1936,0.0299339
182,60.6122,0.0436699
162,16.0782,0.0457175
221,27.925,0.0475118
242,65.9752,0.0755881
