"cellPairingIds","interplanarAngles","angleWeights"
8,31.4753,0.0361511
13,71.3359,0.0533088
19,78.2542,0.0292816
26,83.2576,0.137557
25,96.6699,0.0187309
33,93.207,0.0377269
42,62.6303,0.0115712
75,116.908,0.0187945
88,85.8007,0.0387081
32,61.8024,0.0224796
41,63.2584,0.0568076
62,50.5827,0.0302283
74,39.3016,0.0287161
73,45.4454,0.0206296
100,33.174,0.0167514
72,74.0291,0.0151448
99,71.0878,0.0428546
147,86.3567,0.105243
146,62.1711,0.0153005
164,121.682,0.0144058
128,27.1595,0.0257645
145,42.5352,0.0207067
182,36.6719,0.0400317
201,33.7927,0.037422
200,79.1784,0.0311107
221,61.4567,0.0276223
242,98.0903,0.113251
