"cellPairingIds","interplanarAngles","angleWeights"
41,23.0417,0.0359086
51,72.778,0.0321482
62,102.437,0.0179466
87,56.8164,0.029746
72,64.2801,0.0543604
99,33.4861,0.0561916
114,63.7132,0.0478291
165,62.6703,0.0751106
98,119.143,0.0216132
113,42.2899,0.0474976
164,47.4561,0.0480351
224,82.4157,0.0309654
145,86.9506,0.0205002
223,78.3126,0.0234986
245,100.999,0.017572
268,100.301,0.0175681
201,55.8307,0.0494594
222,66.6637,0.0626109
243,50.8204,0.0524022
266,52.7241,0.0488928
315,102.018,0.0287201
288,87.1238,0.0635482
339,43.0551,0.0317874
366,67.8432,0.0317746
393,70.8287,0.0367313
421,53.5495,0.0349718
450,38.1687,0.0232842
