Q	U	V
{$V$}	{[mm$^3$]}	0.0102239
{$d_v$}	{[mm]}	0.269281
{$S_c$}	{[mm$^2$]}	0.340495
{$S_o$}	{[mm$^2$]}	0.257408
{$S_l/S_o$}	[]	0.322783
{$\Psi$}	[]	0.669039
{$\eta$}	[]	0.724184
{med($\theta_e$)}	{[$^\circ$]}	55.05865
{$\Upsilon$}	[]	14
{$\Xi$}	[]	12
