Q	U	V
{$V$}	{[mm$^3$]}	0.00715555
{$d_v$}	{[mm]}	0.239083
{$S_c$}	{[mm$^2$]}	0.381626
{$S_o$}	{[mm$^2$]}	0.227979
{$S_l/S_o$}	[]	0.673952
{$\Psi$}	[]	0.470553
{$\eta$}	[]	0.552046
{med($\theta_e$)}	{[$^\circ$]}	69.4402
{$\Upsilon$}	[]	12
{$\Xi$}	[]	11
