facetNormals:0,facetNormals:1,facetNormals:2,FacetCenters:0,FacetCenters:1,FacetCenters:2,FacetIds,relFacetSize,absFacetSize,cellPairingIds,interplanarAngles,angleWeights
0.0697402,-0.044423,-0.984618,7.30486,3.52061,6.78256,1,0.04469,0.00273033,8,26.7467,0.0567563
0.400833,0.242973,-0.861386,7.361,3.55336,6.79544,2,0.0777485,0.00475003,13,30.5455,0.0441161
-0.135821,0.418047,-0.873959,7.32635,3.53657,6.82687,3,0.0435568,0.00266109,19,35.8746,0.0544002
0.0752624,-0.603999,-0.75776,7.2779,3.47687,6.79172,4,0.0695014,0.00424617,26,43.6366,0.0442102
-0.551976,-0.340203,-0.736295,7.22774,3.50412,6.80118,5,0.0437405,0.00267232,34,48.3895,0.0520826
-0.674742,0.0921491,-0.705298,7.23854,3.5085,6.79641,6,0.0624056,0.00381266,43,61.477,0.0458341
0.827306,0.291165,-0.420652,7.38807,3.57441,6.82442,7,0.0470383,0.0028738,53,54.8843,0.0499763
0.521839,-0.64997,-0.492624,7.34343,3.49399,6.79703,8,0.0566811,0.00346292,64,74.5025,0.0225924
-0.267039,0.883232,-0.320695,7.32564,3.57475,6.80683,9,0.0151174,0.000923592,76,78.9507,0.0143422
0.109917,-0.976769,-0.139075,7.24977,3.46964,6.80373,10,0.0085417,0.000521854,89,88.1999,0.0199014
0.611598,0.754608,-0.0213537,7.37949,3.59116,6.84535,11,0.012801,0.000782073,103,86.3499,0.0446657
0.519482,-0.843232,0.0115608,7.34275,3.49407,6.82142,12,0.0446414,0.00272736,118,97.5172,0.0375937
-0.900729,-0.376012,0.0817565,7.22392,3.48588,6.83984,13,0.0324422,0.00198205,134,99.0406,0.0482947
0.908064,-0.218532,0.225695,7.39681,3.5531,6.85942,14,0.052532,0.00320943,151,111.178,0.0173172
-0.494918,-0.773518,0.357038,7.22498,3.48148,6.85523,15,0.0107393,0.000656115,169,120.691,0.0729934
0.296707,-0.744202,0.553317,7.30779,3.48573,6.85541,16,0.19907,0.0121621,188,141.611,0.0096921
-0.562791,-0.284328,0.734213,7.31433,3.54484,6.85415,17,0.00543545,0.000332078,208,132.609,0.0127974
-0.665115,0.36395,0.588532,7.28283,3.53958,6.85047,18,0.00746793,0.000456252,229,137.602,0.0143431
0.604743,0.133589,0.767906,7.38286,3.57196,6.89479,19,0.00854234,0.000521892,251,155.346,0.0145834
-0.186448,0.424202,0.853024,7.32281,3.54048,6.88251,20,0.00871338,0.000532343,274,166.622,0.0176182
0.0569146,-0.148252,0.979025,7.2936,3.51156,6.86401,21,0.0109718,0.000670321,18,33.5042,0.0558339
,,,,,,,,,25,55.7718,0.073394
,,,,,,,,,33,69.9201,0.0559846
,,,,,,,,,42,68.0451,0.0692373
,,,,,,,,,52,36.7108,0.0586145
,,,,,,,,,63,59.9417,0.065564
,,,,,,,,,75,66.3814,0.0253129
,,,,,,,,,88,94.3283,0.0153924
,,,,,,,,,102,62.0278,0.0219826
,,,,,,,,,117,90.3902,0.0567171
,,,,,,,,,133,122.977,0.0457812
,,,,,,,,,150,82.8996,0.0626998
,,,,,,,,,168,135.901,0.0188718
,,,,,,,,,187,124.332,0.111823
,,,,,,,,,207,167.647,0.0101606
,,,,,,,,,228,136.711,0.013627
,,,,,,,,,250,113.554,0.0153934
,,,,,,,,,273,137.909,0.0156705
,,,,,,,,,297,151.718,0.0192299
,,,,,,,,,32,65.1533,0.0535522
,,,,,,,,,41,53.1021,0.0436485
,,,,,,,,,51,38.8861,0.0513048
,,,,,,,,,62,66.6608,0.0452307
,,,,,,,,,74,84.6729,0.0492598
,,,,,,,,,87,44.1421,0.0224448
,,,,,,,,,101,108.1,0.0142825
,,,,,,,,,116,74.684,0.0197868
,,,,,,,,,132,116.555,0.0440924
,,,,,,,,,149,96.3696,0.0371868
,,,,,,,,,167,115.991,0.0476252
,,,,,,,,,186,126.121,0.0172303
,,,,,,,,,206,151.237,0.0714748
,,,,,,,,,227,136.266,0.00966483
,,,,,,,,,249,106.831,0.0127499
,,,,,,,,,272,136.272,0.0142834
,,,,,,,,,296,124.864,0.0145217
,,,,,,,,,321,162.494,0.0175283
,,,,,,,,,50,40.7977,0.0536909
,,,,,,,,,61,63.3104,0.0657627
,,,,,,,,,73,77.4672,0.056105
,,,,,,,,,86,31.1768,0.06244
,,,,,,,,,100,109.092,0.0248332
,,,,,,,,,115,43.1773,0.0152137
,,,,,,,,,131,114.632,0.0216199
,,,,,,,,,148,55.9051,0.0543642
,,,,,,,,,166,84.1297,0.0442358
,,,,,,,,,185,88.2013,0.0598368
,,,,,,,,,205,80.418,0.0186039
,,,,,,,,,226,86.817,0.103031
,,,,,,,,,248,116.995,0.0100824
,,,,,,,,,271,140.118,0.0134867
,,,,,,,,,295,130.056,0.0152147
,,,,,,,,,320,166.29,0.0154854
,,,,,,,,,346,132.24,0.0189518
,,,,,,,,,72,26.5559,0.051432
,,,,,,,,,85,104.937,0.0453295
,,,,,,,,,99,71.857,0.0493771
,,,,,,,,,114,85.0289,0.0224691
,,,,,,,,,130,67.4165,0.0142924
,,,,,,,,,147,127.372,0.0198057
,,,,,,,,,165,90.4944,0.0441864
,,,,,,,,,184,53.9952,0.0372536
,,,,,,,,,204,128.984,0.0477348
,,,,,,,,,225,73.5674,0.0172446
,,,,,,,,,247,109.444,0.071722
,,,,,,,,,270,98.0655,0.00966934
,,,,,,,,,294,101.642,0.0127577
,,,,,,,,,319,167.424,0.0142933
,,,,,,,,,345,134.663,0.0145319
,,,,,,,,,372,136.158,0.0175431
,,,,,,,,,98,104.247,0.0536431
,,,,,,,,,113,93.8994,0.0594058
,,,,,,,,,129,59.3837,0.0243388
,,,,,,,,,146,93.8933,0.0150266
,,,,,,,,,164,110.146,0.0212442
,,,,,,,,,183,116.703,0.0520496
,,,,,,,,,203,57.5368,0.042691
,,,,,,,,,224,147.219,0.0570447
,,,,,,,,,246,89.3568,0.0183251
,,,,,,,,,269,133.66,0.0950229
,,,,,,,,,293,99.9715,0.00999992
,,,,,,,,,318,85.9031,0.0133396
,,,,,,,,,344,165.724,0.0150276
,,,,,,,,,371,117.315,0.0152917
,,,,,,,,,399,139.787,0.0186625
,,,,,,,,,128,61.4787,0.0514115
,,,,,,,,,145,79.6236,0.0228811
,,,,,,,,,163,98.0344,0.014458
,,,,,,,,,182,38.9774,0.0201251
,,,,,,,,,202,79.2692,0.0458086
,,,,,,,,,223,158.93,0.0384
,,,,,,,,,245,50.6452,0.0496336
,,,,,,,,,268,144.979,0.0174863
,,,,,,,,,292,102.437,0.0760959
,,,,,,,,,317,155.589,0.00974485
,,,,,,,,,343,137.822,0.0128895
,,,,,,,,,370,76.9805,0.0144589
,,,,,,,,,398,114.366,0.0147032
,,,,,,,,,427,115.012,0.0177933
,,,,,,,,,162,125.963,0.0238687
,,,,,,,,,181,37.6771,0.0148461
,,,,,,,,,201,99.8422,0.0208852
,,,,,,,,,222,31.9786,0.049946
,,,,,,,,,244,106.284,0.0412655
,,,,,,,,,267,57.1452,0.0545277
,,,,,,,,,291,85.8756,0.0180573
,,,,,,,,,316,67.1576,0.0882382
,,,,,,,,,342,120.145,0.00991966
,,,,,,,,,369,160.056,0.0131971
,,,,,,,,,397,99.0071,0.0148471
,,,,,,,,,426,147.56,0.0151048
,,,,,,,,,456,111.775,0.0183849
,,,,,,,,,200,150.915,0.0109157
,,,,,,,,,221,57.4944,0.0138631
,,,,,,,,,243,156.485,0.0225862
,,,,,,,,,266,97.0717,0.0206243
,,,,,,,,,290,122.758,0.0234783
,,,,,,,,,315,133.748,0.0125577
,,,,,,,,,341,163.932,0.0281008
,,,,,,,,,368,110.837,0.00799596
,,,,,,,,,396,70.6716,0.00999725
,,,,,,,,,425,107.498,0.0109163
,,,,,,,,,455,80.8439,0.0110549
,,,,,,,,,486,118.352,0.0127152
,,,,,,,,,242,133.743,0.0102463
,,,,,,,,,265,26.6073,0.0143397
,,,,,,,,,289,74.6803,0.0135229
,,,,,,,,,314,72.8121,0.0146941
,,,,,,,,,340,48.2346,0.00951526
,,,,,,,,,367,45.0758,0.0163805
,,,,,,,,,395,83.2004,0.00664341
,,,,,,,,,424,122.394,0.00796881
,,,,,,,,,454,100.044,0.00854202
,,,,,,,,,485,125.053,0.00862669
,,,,,,,,,517,89.1326,0.00960544
,,,,,,,,,288,109.35,0.0198966
,,,,,,,,,313,151.508,0.0183582
,,,,,,,,,339,65.6006,0.0205856
,,,,,,,,,366,159.058,0.0116799
,,,,,,,,,394,114.476,0.0240551
,,,,,,,,,423,127.656,0.00763078
,,,,,,,,,453,98.9276,0.00943285
,,,,,,,,,484,61.7091,0.0102468
,,,,,,,,,516,78.5108,0.0103689
,,,,,,,,,549,95.8352,0.011816
,,,,,,,,,338,98.8887,0.0375765
,,,,,,,,,365,46.2099,0.0482663
,,,,,,,,,393,65.8485,0.0173135
,,,,,,,,,422,35.1982,0.0729286
,,,,,,,,,452,92.6379,0.00969095
,,,,,,,,,483,132.775,0.0127954
,,,,,,,,,515,77.5664,0.0143405
,,,,,,,,,548,117.549,0.0145808
,,,,,,,,,582,80.2777,0.0176144
,,,,,,,,,392,139.654,0.0401123
,,,,,,,,,421,37.4801,0.0161368
,,,,,,,,,451,86.5246,0.0557921
,,,,,,,,,482,44.6948,0.00931093
,,,,,,,,,514,57.1206,0.0121411
,,,,,,,,,547,123.417,0.0135237
,,,,,,,,,581,85.284,0.0137372
,,,,,,,,,616,85.0087,0.0163979
,,,,,,,,,450,102.183,0.0178329
,,,,,,,,,481,53.4663,0.0831277
,,,,,,,,,513,107.731,0.00985157
,,,,,,,,,546,126.663,0.0130769
,,,,,,,,,580,43.0006,0.0146951
,,,,,,,,,615,94.2721,0.0149475
,,,,,,,,,651,71.3322,0.0181523
,,,,,,,,,512,49.2377,0.0203792
,,,,,,,,,545,37.0922,0.00721778
,,,,,,,,,579,74.181,0.00880972
,,,,,,,,,614,97.5945,0.00951565
,,,,,,,,,650,85.8803,0.00962084
,,,,,,,,,687,63.4981,0.0108543
,,,,,,,,,578,61.4149,0.010582
,,,,,,,,,613,98.7741,0.0143958
,,,,,,,,,649,58.2883,0.0163817
,,,,,,,,,686,83.867,0.016696
,,,,,,,,,724,46.1571,0.0207974
,,,,,,,,,648,40.8208,0.00629162
,,,,,,,,,685,78.7981,0.00664361
,,,,,,,,,723,49.4627,0.00669471
,,,,,,,,,762,40.5891,0.00726956
,,,,,,,,,722,84.039,0.00796909
,,,,,,,,,761,33.1105,0.00804273
,,,,,,,,,801,59.4142,0.00888697
,,,,,,,,,800,51.2863,0.00862701
,,,,,,,,,841,38.4376,0.00960584
,,,,,,,,,882,37.7163,0.00971305
