Q	U	V
{$V$}	{[mm$^3$]}	0.00580661
{$d_v$}	{[mm]}	0.223002
{$S_c$}	{[mm$^2$]}	0.264544
{$S_o$}	{[mm$^2$]}	0.164829
{$S_l/S_o$}	[]	0.604960
{$\Psi$}	[]	0.590565
{$\eta$}	[]	0.612866
{med($\theta_e$)}	{[$^\circ$]}	64.4059
{$\Upsilon$}	[]	12
{$\Xi$}	[]	8
