facetNormals:0,facetNormals:1,facetNormals:2,FacetCenters:0,FacetCenters:1,FacetCenters:2,FacetIds,relFacetSize,absFacetSize,cellPairingIds,interplanarAngles,angleWeights
-0.197681,0.052825,-0.902728,3.95339,5.32472,6.89402,1,0.146492,0.0342483,8,27.2756,0.0517563
-0.355432,0.466909,-0.796378,3.95934,5.31823,6.88592,2,0.0314304,0.00734813,13,57.2143,0.104709
0.597182,0.408717,-0.645142,4.02562,5.38834,6.91778,3,0.0814718,0.0190473,19,54.5824,0.0159499
-0.601898,0.671583,-0.420083,3.89495,5.43997,6.95257,4,0.00843412,0.00197182,26,74.0822,0.047329
-0.593289,-0.719479,-0.179227,3.95372,5.23049,6.91037,5,0.0282238,0.00659845,34,87.0566,0.072164
0.818126,-0.443439,-0.25592,4.08727,5.21656,6.94507,6,0.0478736,0.0111924,43,59.7411,0.108366
-0.883655,0.274331,-0.291711,3.87757,5.41962,6.97726,7,0.0859873,0.020103,53,79.2499,0.0821841
0.338889,-0.849795,-0.308601,4.03822,5.17974,6.92996,8,0.0571126,0.0133524,64,124.091,0.169396
0.789962,0.37585,0.402441,4.04479,5.34528,7.01638,9,0.200789,0.0469424,76,151.799,0.114692
-0.184626,0.194198,0.902668,3.94072,5.36904,7.0253,10,0.0942355,0.0220313,18,59.1101,0.0453613
,,,,,,,,,25,28.8445,0.0132994
,,,,,,,,,33,88.9218,0.0297409
,,,,,,,,,42,107.937,0.0379473
,,,,,,,,,52,45.3474,0.0460342
,,,,,,,,,63,106.512,0.0405469
,,,,,,,,,75,116.551,0.0543528
,,,,,,,,,88,127.155,0.0471387
,,,,,,,,,32,78.8777,0.0152858
,,,,,,,,,41,125.357,0.0419241
,,,,,,,,,51,59.6741,0.0603091
,,,,,,,,,62,103.99,0.0836687
,,,,,,,,,74,86.684,0.0671514
,,,,,,,,,87,66.9355,0.115912
,,,,,,,,,101,132.204,0.0873901
,,,,,,,,,50,93.0823,0.0129873
,,,,,,,,,61,135.32,0.0143416
,,,,,,,,,73,29.6685,0.0153615
,,,,,,,,,86,132.185,0.0146977
,,,,,,,,,100,114.161,0.0161883
,,,,,,,,,115,98.4496,0.0154825
,,,,,,,,,72,97.5534,0.0355117
,,,,,,,,,85,65.6963,0.0424983
,,,,,,,,,99,59.4773,0.0377784
,,,,,,,,,114,152.516,0.0494909
,,,,,,,,,130,102.397,0.0434378
,,,,,,,,,98,145.316,0.0615045
,,,,,,,,,113,38.124,0.0520866
,,,,,,,,,129,66.0928,0.0773135
,,,,,,,,,146,121.009,0.063492
,,,,,,,,,128,118.195,0.0686368
,,,,,,,,,145,139.686,0.12041
,,,,,,,,,163,92.9428,0.0899227
,,,,,,,,,162,100.904,0.0889298
,,,,,,,,,181,123.831,0.0711212
,,,,,,,,,200,71.3194,0.12827
