facetNormals:0,facetNormals:1,facetNormals:2,FacetCenters:0,FacetCenters:1,FacetCenters:2,FacetIds,relFacetSize,absFacetSize,cellPairingIds,interplanarAngles,angleWeights
-0.177257,-0.51686,-0.81835,6.71955,7.50348,5.52187,1,0.0354737,0.00347939,8,33.644,0.0346572
-0.52371,-0.713051,-0.413969,6.68719,7.55077,5.56165,2,0.0338774,0.00332282,13,39.3891,0.0414254
0.165409,-0.878636,-0.385803,6.75996,7.48644,5.52927,3,0.0497769,0.0048823,19,49.3163,0.0459895
-0.844227,-0.266468,-0.415329,6.66342,7.55689,5.54883,4,0.0653666,0.0064114,26,101.031,0.0231706
0.376751,0.744595,-0.344209,6.7511,7.63718,5.60489,5,0.0172039,0.00168742,34,97.8702,0.0445364
0.945697,-0.121919,0.0292306,6.80646,7.55526,5.57833,6,0.0598187,0.00586724,43,87.4708,0.0317986
-0.969911,0.136961,0.0714688,6.64503,7.62954,5.59203,7,0.0288135,0.00282614,53,109.698,0.0363737
-0.811851,0.485783,0.267517,6.66674,7.61289,5.5893,8,0.0373206,0.00366054,64,77.0779,0.0264906
0.111582,-0.937486,0.301448,6.77653,7.47235,5.57296,9,0.0211378,0.00207328,76,89.1211,0.0392296
-0.801549,-0.378716,0.394911,6.65507,7.5769,5.60613,10,0.0438749,0.00430341,89,93.3082,0.0355416
0.500303,-0.729165,0.420098,6.7712,7.56233,5.60728,11,0.0356098,0.00349274,103,131.14,0.0291802
0.841481,0.188082,0.479378,6.79591,7.59336,5.61998,12,0.0247833,0.00243084,118,121.169,0.0270093
-0.72428,0.204679,0.644117,6.67234,7.6058,5.62888,13,0.0218061,0.00213882,134,143.693,0.0200084
-0.434943,0.459312,0.768872,6.67358,7.70777,5.66784,14,0.0139338,0.00136668,151,104.603,0.05972
-0.179856,-0.617103,0.721696,6.70538,7.57578,5.63132,15,0.188689,0.0185073,169,144.505,0.0373576
0.536163,0.0354931,0.826704,6.76951,7.61332,5.64153,16,0.0394528,0.00386967,188,172.556,0.045194
0.181903,0.400993,0.871324,6.73459,7.62784,5.63946,17,0.0622518,0.00610588,18,42.6476,0.0403162
,,,,,,,,,25,32.667,0.0446264
,,,,,,,,,33,131.631,0.0228194
,,,,,,,,,42,116.821,0.0432569
,,,,,,,,,52,66.6187,0.031141
,,,,,,,,,63,91.907,0.0355157
,,,,,,,,,75,59.916,0.0260326
,,,,,,,,,88,56.2727,0.0382334
,,,,,,,,,102,84.9599,0.034722
,,,,,,,,,117,143.363,0.0286254
,,,,,,,,,133,91.9709,0.0265333
,,,,,,,,,150,115.457,0.019746
,,,,,,,,,168,75.5563,0.0574417
,,,,,,,,,187,132.313,0.0364532
,,,,,,,,,207,141.078,0.043877
,,,,,,,,,32,74.4841,0.0565164
,,,,,,,,,41,121.488,0.0255702
,,,,,,,,,51,74.2423,0.0543378
,,,,,,,,,62,108.809,0.0364993
,,,,,,,,,74,133.939,0.042658
,,,,,,,,,87,41.2229,0.0296744
,,,,,,,,,101,87.1,0.0466399
,,,,,,,,,116,53.9256,0.0415181
,,,,,,,,,132,102.689,0.033091
,,,,,,,,,149,124.627,0.0303268
,,,,,,,,,167,142.79,0.0217728
,,,,,,,,,186,75.6006,0.0787731
,,,,,,,,,206,105.802,0.0440176
,,,,,,,,,227,133.835,0.0553198
,,,,,,,,,50,115.033,0.0272387
,,,,,,,,,61,146.516,0.0624697
,,,,,,,,,73,38.4012,0.0399966
,,,,,,,,,86,62.4397,0.0475136
,,,,,,,,,100,88.2019,0.0319454
,,,,,,,,,115,49.7179,0.0525067
,,,,,,,,,131,114.865,0.0461037
,,,,,,,,,148,174.112,0.0359401
,,,,,,,,,166,72.6179,0.0327027
,,,,,,,,,185,94.3907,0.022971
,,,,,,,,,205,88.9974,0.0970965
,,,,,,,,,226,146.657,0.0492064
,,,,,,,,,248,130.682,0.0637712
,,,,,,,,,72,72.7439,0.0267224
,,,,,,,,,85,108.959,0.0215442
,,,,,,,,,99,92.34,0.0235512
,,,,,,,,,114,148.132,0.018969
,,,,,,,,,130,145.261,0.0247162
,,,,,,,,,147,124.381,0.0231995
,,,,,,,,,165,70.8546,0.0203095
,,,,,,,,,184,112.498,0.0192335
,,,,,,,,,204,95.524,0.0153971
,,,,,,,,,225,152.763,0.0315327
,,,,,,,,,247,93.6158,0.0239598
,,,,,,,,,270,85.6272,0.0269577
,,,,,,,,,98,174.031,0.0388931
,,,,,,,,,113,150.854,0.0459643
,,,,,,,,,129,76.0057,0.0312374
,,,,,,,,,146,139.149,0.0506211
,,,,,,,,,164,52.0532,0.0446435
,,,,,,,,,183,33.2711,0.0350466
,,,,,,,,,203,136.993,0.0319612
,,,,,,,,,224,117.927,0.0226027
,,,,,,,,,246,94.5886,0.0908393
,,,,,,,,,269,55.9333,0.0475467
,,,,,,,,,293,80.8184,0.061011
,,,,,,,,,128,25.2898,0.0325199
,,,,,,,,,145,102.766,0.0243859
,,,,,,,,,163,37.737,0.0347838
,,,,,,,,,182,125.261,0.0318532
,,,,,,,,,202,141.297,0.0266469
,,,,,,,,,223,37.046,0.0248248
,,,,,,,,,245,56.5002,0.018784
,,,,,,,,,268,81.4264,0.049993
,,,,,,,,,292,118.098,0.0333041
,,,,,,,,,317,93.542,0.0393936
,,,,,,,,,162,118.528,0.0269893
,,,,,,,,,181,53.1373,0.0403332
,,,,,,,,,201,132.316,0.0364451
,,,,,,,,,222,118.549,0.0297865
,,,,,,,,,244,28.0279,0.0275279
,,,,,,,,,267,36.9869,0.0202916
,,,,,,,,,291,87.6293,0.0623158
,,,,,,,,,316,101.718,0.0383571
,,,,,,,,,342,73.0263,0.046665
,,,,,,,,,200,66.427,0.0285304
,,,,,,,,,221,26.7996,0.0265285
,,,,,,,,,243,86.3598,0.0228159
,,,,,,,,,266,94.588,0.0214668
,,,,,,,,,290,104.518,0.0167959
,,,,,,,,,315,35.8846,0.0380168
,,,,,,,,,341,73.6084,0.0275272
,,,,,,,,,368,95.514,0.0315595
,,,,,,,,,242,87.5249,0.0393127
,,,,,,,,,265,125.531,0.0316747
,,,,,,,,,289,38.0194,0.0291329
,,,,,,,,,314,60.3294,0.0211506
,,,,,,,,,340,45.0293,0.0711951
,,,,,,,,,367,97.0067,0.0415465
,,,,,,,,,395,87.1912,0.0514723
,,,,,,,,,288,59.8411,0.0292261
,,,,,,,,,313,104.389,0.0270486
,,,,,,,,,339,103.619,0.02003
,,,,,,,,,366,45.5001,0.0599128
,,,,,,,,,394,52.3483,0.0374329
,,,,,,,,,423,80.0798,0.0453043
,,,,,,,,,338,105.562,0.0231996
,,,,,,,,,365,84.803,0.0178384
,,,,,,,,,393,85.274,0.0438121
,,,,,,,,,422,28.5853,0.030443
,,,,,,,,,452,47.8618,0.0354525
,,,,,,,,,392,23.5351,0.0170029
,,,,,,,,,421,60.6806,0.0390942
,,,,,,,,,451,81.0815,0.0280877
,,,,,,,,,482,58.0654,0.0322984
,,,,,,,,,450,68.6908,0.0259512
,,,,,,,,,481,64.7518,0.0205942
,,,,,,,,,513,37.1254,0.0227708
,,,,,,,,,512,59.8719,0.0652603
,,,,,,,,,545,68.3128,0.0936175
,,,,,,,,,578,30.1819,0.0482969
