facetNormals:0,facetNormals:1,facetNormals:2,FacetCenters:0,FacetCenters:1,FacetCenters:2,FacetIds,relFacetSize,absFacetSize,cellPairingIds,interplanarAngles,angleWeights
0.125221,0.0270303,-0.978447,7.31124,4.24454,5.72292,1,0.0261439,0.00480823,8,22.6495,0.036683
0.294323,0.354549,-0.863609,7.31622,4.25149,5.76028,2,0.0614578,0.011303,13,43.3431,0.0351887
-0.0860737,0.664466,-0.70719,7.27718,4.29453,5.78178,3,0.0538024,0.00989502,19,51.841,0.0182496
-0.13321,-0.709765,-0.636473,7.25988,4.14982,5.71618,4,0.014017,0.00257793,26,42.2355,0.0299409
0.734366,0.149631,-0.635718,7.33941,4.2219,5.79499,5,0.0350281,0.00644216,34,61.8735,0.0237085
0.427372,-0.761051,-0.428658,7.29807,4.11641,5.75018,6,0.0216882,0.00398877,43,64.7786,0.0221342
-0.702251,0.457934,-0.495804,7.26314,4.27952,5.74722,7,0.0191909,0.00352947,53,77.6043,0.0346872
0.5826,0.769464,-0.114597,7.3166,4.33042,5.85607,8,0.0515245,0.00947609,64,70.445,0.0385666
0.847918,-0.43052,-0.233961,7.35012,4.16474,5.79315,9,0.0734836,0.0135147,76,82.7291,0.0418739
0.962539,-0.000521501,0.000311519,7.36848,4.2379,5.84774,10,0.105123,0.0193336,89,89.257,0.0385607
-0.0750521,0.965485,0.00440208,7.30484,4.3398,5.90791,11,0.0734407,0.0135068,103,102.066,0.0302718
0.480295,-0.816227,0.245165,7.32088,4.12431,5.82891,12,0.0359476,0.00661128,118,120.03,0.037847
0.625729,-0.506566,0.561496,7.35763,4.21478,5.94681,13,0.0685192,0.0126017,134,128.674,0.0302833
-0.541108,0.579994,0.557955,7.2462,4.32674,5.93254,14,0.03598,0.00661724,151,121.62,0.0276185
0.301597,0.712606,0.564857,7.3167,4.32684,5.90065,15,0.0292695,0.00538307,169,155.731,0.0348411
-0.497114,-0.146447,0.839041,7.287,4.25506,5.95836,16,0.0522094,0.00960205,18,30.5768,0.0573759
,,,,,,,,,25,74.0575,0.0228276
,,,,,,,,,33,31.7292,0.0446231
,,,,,,,,,42,76.2558,0.032062
,,,,,,,,,52,66.2584,0.0292485
,,,,,,,,,63,55.1784,0.0560545
,,,,,,,,,75,71.8272,0.0669349
,,,,,,,,,88,72.5304,0.0775676
,,,,,,,,,102,70.5003,0.0669171
,,,,,,,,,117,112.067,0.0453622
,,,,,,,,,133,119.997,0.0647967
,,,,,,,,,150,117.306,0.045388
,,,,,,,,,168,98.9811,0.0396537
,,,,,,,,,187,162.937,0.0564574
,,,,,,,,,32,90.6135,0.02224
,,,,,,,,,41,59.5088,0.0424313
,,,,,,,,,51,104.634,0.0309146
,,,,,,,,,62,41.0699,0.0282907
,,,,,,,,,74,55.0667,0.0526388
,,,,,,,,,87,101.708,0.0621214
,,,,,,,,,101,95.1037,0.0711765
,,,,,,,,,116,46.8774,0.0621061
,,,,,,,,,132,142.598,0.043099
,,,,,,,,,149,145.448,0.0602755
,,,,,,,,,167,87.7324,0.0431223
,,,,,,,,,186,87.0469,0.0379134
,,,,,,,,,206,132.405,0.052994
,,,,,,,,,50,77.7582,0.020022
,,,,,,,,,61,36.1265,0.0170286
,,,,,,,,,73,84.8545,0.0162009
,,,,,,,,,86,126.067,0.0220386
,,,,,,,,,100,68.7591,0.0235432
,,,,,,,,,115,97.9437,0.0247358
,,,,,,,,,131,136.668,0.023541
,,,,,,,,,148,67.5699,0.0201694
,,,,,,,,,166,94.9294,0.0232731
,,,,,,,,,185,138.087,0.0201745
,,,,,,,,,205,169.068,0.0189561
,,,,,,,,,226,112.538,0.0221006
,,,,,,,,,72,60.3697,0.0267894
,,,,,,,,,85,97.9262,0.0247965
,,,,,,,,,99,49.8542,0.0417043
,,,,,,,,,114,42.7269,0.0474417
,,,,,,,,,130,41.6727,0.052547
,,,,,,,,,147,84.7821,0.0474328
,,,,,,,,,165,85.5423,0.0354819
,,,,,,,,,184,88.4101,0.0463575
,,,,,,,,,204,134.27,0.0354977
,,,,,,,,,225,91.8856,0.0318909
,,,,,,,,,247,161.738,0.0419269
,,,,,,,,,98,117.416,0.0203633
,,,,,,,,,113,107.709,0.0305268
,,,,,,,,,129,33.9113,0.0334916
,,,,,,,,,146,63.9104,0.0359579
,,,,,,,,,164,144.72,0.0334872
,,,,,,,,,183,40.6853,0.027054
,,,,,,,,,203,64.4106,0.0329477
,,,,,,,,,224,165.217,0.0270632
,,,,,,,,,246,134.724,0.0249149
,,,,,,,,,269,118.709,0.0306459
,,,,,,,,,128,89.997,0.0279656
,,,,,,,,,145,135.181,0.0304337
,,,,,,,,,163,136.171,0.0324566
,,,,,,,,,182,58.5132,0.03043
,,,,,,,,,202,150.907,0.025023
,,,,,,,,,223,173.45,0.0299838
,,,,,,,,,245,67.0081,0.0250309
,,,,,,,,,268,100.218,0.0231821
,,,,,,,,,292,98.017,0.0280655
,,,,,,,,,162,78.5137,0.0605754
,,,,,,,,,181,53.2042,0.0691542
,,,,,,,,,201,42.0712,0.0605608
,,,,,,,,,222,113.316,0.0423491
,,,,,,,,,244,95.3881,0.0588189
,,,,,,,,,267,85.918,0.0423716
,,,,,,,,,291,44.9223,0.0373319
,,,,,,,,,316,121.335,0.0518647
,,,,,,,,,200,30.0039,0.086501
,,,,,,,,,221,120.429,0.0734621
,,,,,,,,,243,42.9445,0.048278
,,,,,,,,,266,50.0455,0.0709146
,,,,,,,,,290,152.063,0.0483072
,,,,,,,,,315,101.261,0.041864
,,,,,,,,,341,125.059,0.0610461
,,,,,,,,,242,94.4759,0.0864713
,,,,,,,,,265,60.561,0.053575
,,,,,,,,,289,50.3601,0.0829632
,,,,,,,,,314,123.924,0.0536109
,,,,,,,,,340,71.6636,0.0457897
,,,,,,,,,367,120.247,0.0697684
,,,,,,,,,288,150.314,0.0482688
,,,,,,,,,313,124.149,0.0708947
,,,,,,,,,339,50.0506,0.048298
,,,,,,,,,366,43.9573,0.041857
,,,,,,,,,394,96.0339,0.0610313
,,,,,,,,,338,27.507,0.0471557
,,,,,,,,,365,128.958,0.0359638
,,,,,,,,,393,108.56,0.0322666
,,,,,,,,,422,84.8574,0.0425787
,,,,,,,,,392,109.586,0.0471836
,,,,,,,,,421,81.1358,0.0410174
,,,,,,,,,451,75.9958,0.0592627
,,,,,,,,,450,52.5252,0.0322797
,,,,,,,,,481,47.0049,0.0426014
,,,,,,,,,512,76.5566,0.0375101
