facetNormals:0,facetNormals:1,facetNormals:2,FacetCenters:0,FacetCenters:1,FacetCenters:2,FacetIds,relFacetSize,absFacetSize,cellPairingIds,interplanarAngles,angleWeights
0.00946108,0.617549,-0.754202,5.63343,5.13883,3.73382,1,0.0384683,0.0125174,8,70.2903,0.0333481
-0.700976,-0.250013,-0.641929,5.54261,5.01336,3.84155,2,0.0294309,0.00957667,13,51.7475,0.0418059
0.670352,0.105207,-0.666684,5.71111,5.11026,3.75992,3,0.0457776,0.0148958,19,83.7706,0.0529112
0.282382,-0.625299,-0.640056,5.65462,5.00636,3.79337,4,0.0847191,0.0275672,26,34.8695,0.041724
0.449885,0.750157,-0.400192,5.69722,5.17165,3.7909,5,0.0455818,0.0148321,34,111.211,0.0466852
-0.267412,-0.878116,-0.274337,5.62113,5.02916,3.83137,6,0.059366,0.0193174,43,100.525,0.0377645
-0.753935,-0.576315,-0.249666,5.54743,5.0223,3.81304,7,0.037086,0.0120676,53,57.0551,0.058914
-0.721834,0.56155,-0.208606,5.57252,5.13883,3.84441,8,0.125749,0.0409183,64,130.719,0.0515967
0.564645,-0.693736,0.214671,5.66474,4.99562,3.8707,9,0.0783288,0.0254878,76,54.2384,0.0366389
-0.0631231,0.952594,0.056792,5.62957,5.19479,3.86955,10,0.0349756,0.0113809,89,97.5503,0.0410349
-0.897264,0.216087,0.332269,5.54671,5.08749,3.93849,11,0.0439686,0.0143072,103,151.489,0.0371541
-0.45646,-0.621423,0.584088,5.58266,5.00291,3.95036,12,0.0359267,0.0116904,118,105.924,0.0477991
-0.281797,0.508281,0.748765,5.60044,5.13626,3.96273,13,0.0631059,0.0205344,134,146.569,0.0423805
0.0892706,-0.104968,0.940643,5.60136,5.01319,3.97414,14,0.0471784,0.0153516,18,94.1857,0.0358277
,,,,,,,,,25,66.3957,0.0436856
,,,,,,,,,33,105.083,0.0357676
,,,,,,,,,42,51.7377,0.0393526
,,,,,,,,,52,30.2799,0.032818
,,,,,,,,,63,57.1932,0.0476983
,,,,,,,,,75,113.477,0.0427857
,,,,,,,,,88,104.187,0.0319645
,,,,,,,,,102,67.968,0.03526
,,,,,,,,,117,83.9385,0.032356
,,,,,,,,,133,116.125,0.0401411
,,,,,,,,,150,133.246,0.0362489
,,,,,,,,,32,51.9429,0.0594381
,,,,,,,,,41,44.9758,0.0456795
,,,,,,,,,51,95.5883,0.0516937
,,,,,,,,,62,115.345,0.040976
,,,,,,,,,74,108.676,0.0671207
,,,,,,,,,87,79.304,0.0577844
,,,,,,,,,101,88.7377,0.0396541
,,,,,,,,,116,149.053,0.0448549
,,,,,,,,,132,145.769,0.0402583
,,,,,,,,,149,134.736,0.0530629
,,,,,,,,,167,129.753,0.0464675
,,,,,,,,,50,95.4605,0.0592728
,,,,,,,,,61,43.7682,0.069812
,,,,,,,,,73,70.5049,0.0515889
,,,,,,,,,86,118.609,0.101235
,,,,,,,,,100,58.1212,0.0813987
,,,,,,,,,115,136.399,0.0495109
,,,,,,,,,131,130.78,0.0578917
,,,,,,,,,148,97.2264,0.0504565
,,,,,,,,,166,170.302,0.0723325
,,,,,,,,,185,124.967,0.0606063
,,,,,,,,,72,136.569,0.0515687
,,,,,,,,,85,135.358,0.0408974
,,,,,,,,,99,78.4935,0.06691
,,,,,,,,,114,113.462,0.0576281
,,,,,,,,,130,43.8462,0.0395805
,,,,,,,,,147,113.387,0.0447607
,,,,,,,,,165,166.634,0.0401824
,,,,,,,,,184,92.8375,0.0529311
,,,,,,,,,204,116.99,0.0463664
,,,,,,,,,98,34.3479,0.0456527
,,,,,,,,,113,105.678,0.0806549
,,,,,,,,,129,63.0584,0.0675416
,,,,,,,,,146,155.718,0.0440179
,,,,,,,,,164,92.4983,0.0505201
,,,,,,,,,183,56.7951,0.0447637
,,,,,,,,,203,129.4,0.0611788
,,,,,,,,,224,102.025,0.0525751
,,,,,,,,,128,72.7687,0.0572793
,,,,,,,,,145,95.0522,0.0503385
,,,,,,,,,163,123.325,0.0359999
,,,,,,,,,182,60.8405,0.0402351
,,,,,,,,,202,54.1095,0.0364972
,,,,,,,,,223,106.709,0.0467173
,,,,,,,,,245,105.013,0.0415278
,,,,,,,,,162,167.35,0.0965296
,,,,,,,,,181,50.6638,0.054729
,,,,,,,,,201,40.496,0.0651554
,,,,,,,,,222,98.9599,0.0558866
,,,,,,,,,244,68.0296,0.0840382
,,,,,,,,,267,111.002,0.0686143
,,,,,,,,,200,141.063,0.0483581
,,,,,,,,,221,130.434,0.0563218
,,,,,,,,,243,70.3818,0.0492597
,,,,,,,,,266,113.738,0.0698981
,,,,,,,,,290,68.1725,0.0588879
,,,,,,,,,242,72.5476,0.0389598
,,,,,,,,,265,124.952,0.0354448
,,,,,,,,,289,53.0824,0.0450068
,,,,,,,,,314,93.2917,0.0401707
,,,,,,,,,288,60.3523,0.0395429
,,,,,,,,,313,48.8773,0.051827
,,,,,,,,,339,77.0006,0.045517
,,,,,,,,,338,74.1692,0.0457867
,,,,,,,,,365,51.3857,0.0407909
,,,,,,,,,392,46.0128,0.053992
