Q	U	V
{$V$}	{[mm$^3$]}	0.00669364
{$d_v$}	{[mm]}	0.233823
{$S_c$}	{[mm$^2$]}	0.326126
{$S_o$}	{[mm$^2$]}	0.194803
{$S_l/S_o$}	[]	0.674132
{$\Psi$}	[]	0.526672
{$\eta$}	[]	0.573055
{med($\theta_e$)}	{[$^\circ$]}	75.8457
{$\Upsilon$}	[]	9
{$\Xi$}	[]	10
