"cellPairingIds","interplanarAngles","angleWeights"
8,49.1191,0.0631176
13,39.5234,0.069863
19,69.6781,0.0643443
34,103.643,0.015088
43,104.751,0.0376694
53,66.2873,0.0285626
64,132.449,0.0754434
18,42.5749,0.0937682
42,85.9919,0.0159671
52,59.4164,0.0436727
51,64.8405,0.0163669
73,40.8537,0.0442564
100,78.3374,0.107483
98,91.0073,0.0136366
113,130.18,0.0122255
146,73.9655,0.0164692
145,67.047,0.0492389
163,63.4567,0.0476457
162,89.102,0.0347545
181,124.767,0.0339531
200,48.6839,0.12993
