Q	U	V
{$V$}	{[mm$^3$]}	0.00320611
{$d_v$}	{[mm]}	0.182948
{$S_c$}	{[mm$^2$]}	0.210536
{$S_o$}	{[mm$^2$]}	0.124354
{$S_l/S_o$}	[]	0.693038
{$\Psi$}	[]	0.499432
{$\eta$}	[]	0.523635
{med($\theta_e$)}	{[$^\circ$]}	48.4148
{$\Upsilon$}	[]	17
{$\Xi$}	[]	8
