"cellPairingIds","interplanarAngles","angleWeights"
8,34.8861,0.0482044
13,54.3069,0.0111081
19,60.7098,0.0108854
34,59.7287,0.0658854
43,87.597,0.00906198
33,32.759,0.0853908
42,55.6694,0.0929024
52,113.964,0.00943955
75,56.5621,0.0585145
32,48.9421,0.00638033
62,34.8143,0.00570722
61,66.1575,0.0122122
73,70.8837,0.00564785
131,42.0145,0.00462731
85,117.868,0.00987001
114,57.7089,0.0801956
130,28.6397,0.0566562
129,37.2004,0.0867856
164,70.792,0.00717258
163,115.212,0.00893841
182,86.6592,0.0042627
223,53.9349,0.00617461
245,29.4814,0.00414436
200,66.1512,0.0434231
221,94.4957,0.00686127
243,26.1383,0.057221
265,60.4641,0.0441366
314,103.735,0.00634416
340,27.9479,0.0532807
288,95.4907,0.00687885
313,41.8266,0.00497505
423,74.6423,0.00244628
453,76.8771,0.00609397
393,49.2285,0.0756693
483,39.1775,0.0279118
392,48.4868,0.00481459
482,35.2601,0.0029749
450,95.8908,0.00674838
513,26.1416,0.00240683
545,90.6828,0.00361498
579,55.2366,0.0313099
648,76.2272,0.00334181
