facetNormals:0,facetNormals:1,facetNormals:2,FacetCenters:0,FacetCenters:1,FacetCenters:2,FacetIds,relFacetSize,absFacetSize,cellPairingIds,interplanarAngles,angleWeights
0.269529,0.0464681,-0.945086,3.42298,6.30189,7.64656,1,0.0240767,0.00300307,8,25.5325,0.0224096
0.130444,0.453084,-0.870389,3.43734,6.36318,7.6496,2,0.0209584,0.00261413,13,53.8751,0.0320981
-0.256066,-0.614142,-0.692742,3.36668,6.22326,7.65834,3,0.0481344,0.00600377,19,54.4673,0.0407456
-0.561686,0.300227,-0.732851,3.34776,6.32905,7.67253,4,0.132429,0.0165178,26,42.9701,0.034233
0.344888,-0.613629,-0.674352,3.45727,6.24801,7.66519,5,0.0592091,0.00738511,34,32.2687,0.0297121
0.62215,-0.304343,-0.711682,3.45721,6.25354,7.66786,6,0.0387914,0.00483842,43,48.0713,0.0376242
0.751403,0.421551,-0.436998,3.4944,6.34164,7.69479,7,0.086033,0.0107308,53,57.9524,0.0288124
0.202773,0.850531,-0.441409,3.41904,6.40484,7.69308,8,0.0358672,0.00447369,64,83.5619,0.0305483
-0.835651,0.408583,-0.333582,3.32204,6.37214,7.73078,9,0.0417777,0.00521089,76,98.7195,0.026917
-0.687662,0.697462,-0.00724239,3.32239,6.36506,7.74395,10,0.030517,0.00380636,89,78.9009,0.0259887
0.927808,-0.315088,0.0524611,3.52418,6.27836,7.74017,11,0.0282306,0.00352118,103,98.5624,0.034915
-0.0740304,-0.960604,0.0815213,3.37041,6.19361,7.71986,12,0.0634997,0.00792027,118,131.482,0.0154767
-0.805966,0.320773,0.464419,3.31265,6.35733,7.77133,13,0.0114035,0.00142235,134,104.456,0.035592
0.493416,-0.751989,0.355026,3.46193,6.2266,7.74062,14,0.0682199,0.00850902,151,114.673,0.0174098
0.26304,0.732163,0.516923,3.42046,6.3935,7.73922,15,0.0136344,0.00170061,169,132.267,0.017664
-0.0545219,-0.756123,0.643545,3.39982,6.20263,7.75121,16,0.0139488,0.00173983,188,137.255,0.0331744
-0.746256,-0.359184,0.5152,3.30889,6.2468,7.76291,17,0.0533232,0.00665096,18,72.16,0.0292019
,,,,,,,,,25,43.1994,0.0361895
,,,,,,,,,33,68.4835,0.0309584
,,,,,,,,,42,55.0809,0.0272137
,,,,,,,,,52,45.5758,0.0337058
,,,,,,,,,63,34.8153,0.0264571
,,,,,,,,,75,67.9986,0.0279136
,,,,,,,,,88,76.1188,0.0248502
,,,,,,,,,102,93.9786,0.0240569
,,,,,,,,,117,122.613,0.0315151
,,,,,,,,,133,111.946,0.0147704
,,,,,,,,,150,127.702,0.0320657
,,,,,,,,,168,95.205,0.0165211
,,,,,,,,,187,157.563,0.0167499
,,,,,,,,,207,137.208,0.0300901
,,,,,,,,,32,59.942,0.0706057
,,,,,,,,,41,36.1887,0.0531005
,,,,,,,,,51,56.9219,0.0429608
,,,,,,,,,62,99.2134,0.0617311
,,,,,,,,,74,106.581,0.0411051
,,,,,,,,,87,78.198,0.0447313
,,,,,,,,,101,105.235,0.0373526
,,,,,,,,,116,94.8942,0.0355886
,,,,,,,,,132,53.5003,0.0547597
,,,,,,,,,149,109.298,0.0184387
,,,,,,,,,167,84.4679,0.0564436
,,,,,,,,,186,167.258,0.0212497
,,,,,,,,,206,88.049,0.0216296
,,,,,,,,,227,86.648,0.0505961
,,,,,,,,,50,82.9446,0.0818315
,,,,,,,,,61,85.1971,0.0600059
,,,,,,,,,73,88.4872,0.104304
,,,,,,,,,86,60.7314,0.0564465
,,,,,,,,,100,29.3259,0.0635174
,,,,,,,,,115,50.8084,0.0496034
,,,,,,,,,131,133.365,0.04654
,,,,,,,,,148,109.06,0.0858396
,,,,,,,,,166,77.3845,0.0209988
,,,,,,,,,185,144.371,0.0900509
,,,,,,,,,205,109.77,0.0247234
,,,,,,,,,226,133.779,0.0252392
,,,,,,,,,248,94.0109,0.0760319
,,,,,,,,,72,24.4478,0.0468733
,,,,,,,,,85,71.7339,0.0701441
,,,,,,,,,99,99.3009,0.0446729
,,,,,,,,,114,109.022,0.048989
,,,,,,,,,130,133.751,0.0402756
,,,,,,,,,147,60.0211,0.0382322
,,,,,,,,,165,57.3177,0.0612794
,,,,,,,,,184,145.239,0.0191238
,,,,,,,,,204,65.4118,0.0633959
,,,,,,,,,225,140.954,0.0221648
,,,,,,,,,247,89.338,0.0225785
,,,,,,,,,270,113.847,0.0561122
,,,,,,,,,98,47.3334,0.0534726
,,,,,,,,,113,79.249,0.0372721
,,,,,,,,,129,114.493,0.0402292
,,,,,,,,,146,130.751,0.0341603
,,,,,,,,,164,49.2724,0.0326789
,,,,,,,,,183,78.692,0.0481615
,,,,,,,,,203,162.051,0.0176256
,,,,,,,,,224,72.8485,0.0494592
,,,,,,,,,246,117.413,0.020177
,,,,,,,,,269,105.373,0.0205193
,,,,,,,,,293,138.16,0.0449111
,,,,,,,,,128,41.9444,0.0506277
,,,,,,,,,145,108.942,0.0562435
,,,,,,,,,163,103.415,0.0450531
,,,,,,,,,182,55.1708,0.0425115
,,,,,,,,,202,122.087,0.0730686
,,,,,,,,,223,135.101,0.0201378
,,,,,,,,,245,96.2313,0.0760979
,,,,,,,,,268,71.8962,0.0235385
,,,,,,,,,292,131.85,0.0240056
,,,,,,,,,317,174.111,0.0658393
,,,,,,,,,162,70.3607,0.0385975
,,,,,,,,,181,61.5545,0.0329765
,,,,,,,,,201,96.153,0.031594
,,,,,,,,,222,156.428,0.0458414
,,,,,,,,,244,95.6928,0.0173051
,,,,,,,,,267,137.319,0.0470156
,,,,,,,,,291,60.6882,0.0197581
,,,,,,,,,316,164.425,0.0200861
,,,,,,,,,342,135.743,0.042887
,,,,,,,,,200,27.0508,0.0352703
,,,,,,,,,221,161.876,0.0336934
,,,,,,,,,243,111.993,0.0503977
,,,,,,,,,266,48.0771,0.0179165
,,,,,,,,,290,151.283,0.0518206
,,,,,,,,,315,95.7887,0.0205592
,,,,,,,,,341,119.11,0.0209146
,,,,,,,,,368,71.5529,0.0468496
,,,,,,,,,242,153.237,0.0293293
,,,,,,,,,265,130.867,0.0412229
,,,,,,,,,289,36.5132,0.0166029
,,,,,,,,,314,156.169,0.04217
,,,,,,,,,340,69.1233,0.0188479
,,,,,,,,,367,120.513,0.0191462
,,,,,,,,,395,74.2748,0.0388182
,,,,,,,,,288,75.4556,0.0390849
,,,,,,,,,313,148.643,0.016245
,,,,,,,,,339,41.2499,0.0399352
,,,,,,,,,366,87.4691,0.018388
,,,,,,,,,394,76.8842,0.0186718
,,,,,,,,,423,125.236,0.0369166
,,,,,,,,,338,102.79,0.0193348
,,,,,,,,,365,40.1358,0.0657753
,,,,,,,,,393,138.908,0.0224487
,,,,,,,,,422,35.4926,0.0228732
,,,,,,,,,452,62.0323,0.0579682
,,,,,,,,,392,119.882,0.0195406
,,,,,,,,,421,73.3767,0.0124196
,,,,,,,,,451,84.1179,0.0125484
,,,,,,,,,482,40.8904,0.0187889
,,,,,,,,,450,105.23,0.0227267
,,,,,,,,,481,36.7767,0.0231618
,,,,,,,,,513,84.8415,0.0598587
,,,,,,,,,512,104.674,0.0137898
,,,,,,,,,545,102.228,0.0217162
,,,,,,,,,578,48.4096,0.0221131
