facetNormals:0,facetNormals:1,facetNormals:2,FacetCenters:0,FacetCenters:1,FacetCenters:2,FacetIds,relFacetSize,absFacetSize,cellPairingIds,interplanarAngles,angleWeights
-0.0741619,-0.0793166,-0.855956,6.29369,6.67623,4.76739,1,0.195565,0.0536349,8,49.4955,0.055795
-0.530286,0.516011,-0.644162,6.27738,6.76048,4.76638,2,0.0325393,0.00892412,13,98.5933,0.0611285
-0.834325,-0.426217,0.258154,6.21545,6.57295,4.85272,3,0.0362259,0.00993521,19,105.024,0.0219548
0.719061,-0.625024,0.253213,6.32229,6.55124,4.87717,4,0.0116302,0.00318967,26,113.681,0.150148
0.635899,0.630685,0.26456,6.40949,6.73311,4.84798,5,0.12185,0.0334181,34,127.95,0.0507171
-0.0725506,0.814063,0.537106,6.33303,6.69667,4.89337,6,0.0291367,0.00799094,43,116.925,0.0389667
-0.220253,-0.779699,0.534351,6.28458,6.5419,4.90063,7,0.0216392,0.0059347,53,133.206,0.162685
-0.600266,0.311953,0.689909,6.25499,6.69136,4.88535,8,0.13927,0.0381957,64,139.657,0.0856511
0.3937,-0.46397,0.752214,6.34196,6.58342,4.90913,9,0.0548332,0.0150384,76,145.036,0.0617942
0.603674,0.0103503,0.728095,6.37833,6.64362,4.89856,10,0.0366944,0.0100637,18,86.6202,0.0342838
,,,,,,,,,25,153.692,0.0171358
,,,,,,,,,33,101.47,0.0513625
,,,,,,,,,42,83.2629,0.0307441
,,,,,,,,,52,131.407,0.0259928
,,,,,,,,,63,87.8918,0.0527532
,,,,,,,,,75,169.324,0.040842
,,,,,,,,,88,147.638,0.0344922
,,,,,,,,,32,106.255,0.0176076
,,,,,,,,,41,143.662,0.0558482
,,,,,,,,,51,98.9453,0.0322969
,,,,,,,,,62,46.0983,0.027094
,,,,,,,,,74,54.4486,0.0574963
,,,,,,,,,87,86.1297,0.0436284
,,,,,,,,,101,110.381,0.0364587
,,,,,,,,,50,81.8793,0.0212338
,,,,,,,,,61,116.155,0.0166246
,,,,,,,,,73,60.9723,0.0151291
,,,,,,,,,86,118.323,0.0214677
,,,,,,,,,100,36.8173,0.0191902
,,,,,,,,,115,48.9806,0.0176624
,,,,,,,,,72,48.1472,0.047028
,,,,,,,,,85,122.758,0.0367517
,,,,,,,,,99,90.1551,0.129979
,,,,,,,,,114,80.0102,0.0756316
,,,,,,,,,130,48.6967,0.0564033
,,,,,,,,,98,110.457,0.0248344
,,,,,,,,,113,45.0114,0.0481913
,,,,,,,,,129,90.1359,0.0380531
,,,,,,,,,146,67.3861,0.0324817
,,,,,,,,,128,74.0542,0.0374583
,,,,,,,,,145,43.8673,0.031032
,,,,,,,,,163,74.325,0.027224
,,,,,,,,,162,81.5174,0.0786861
,,,,,,,,,181,80.9864,0.0580848
,,,,,,,,,200,31.4683,0.0439664
