facetNormals:0,facetNormals:1,facetNormals:2,FacetCenters:0,FacetCenters:1,FacetCenters:2,FacetIds,relFacetSize,absFacetSize,cellPairingIds,interplanarAngles,angleWeights
0.220407,-0.66434,-0.638414,4.18383,6.76645,6.03886,1,0.167958,0.0408493,8,83.4107,0.0722901
-0.565892,0.337016,-0.711126,4.18943,6.82594,6.05692,2,0.0460566,0.0112015,13,75.2057,0.0714
-0.831054,-0.361146,-0.269299,4.10158,6.77627,6.08982,3,0.0453364,0.0110263,19,114.79,0.0622155
-0.454059,0.785114,-0.365378,4.11479,6.83376,6.03069,4,0.0381789,0.00928555,26,46.0043,0.131778
0.546854,-0.771335,0.016713,4.22454,6.79032,6.09792,5,0.108422,0.0263695,34,146.467,0.0740273
-0.430848,0.867848,0.163642,4.20719,6.76573,6.10497,6,0.0474762,0.0115468,43,60.4774,0.0203415
-0.106495,-0.957049,0.234437,4.16743,6.76447,6.11856,7,0.0108263,0.00263308,53,105.83,0.0671631
-0.648447,-0.415819,0.605434,4.09238,6.75407,6.14548,8,0.0419738,0.0102085,64,95.3857,0.0815497
-0.264715,-0.624878,0.694064,4.14477,6.77544,6.18115,9,0.0538473,0.0130963,76,89.0897,0.0458863
0.302469,-0.608439,0.714331,4.21487,6.77979,6.17832,10,0.026573,0.00646286,89,100.148,0.0645977
0.707222,-0.144478,0.64816,4.29366,6.79999,6.14709,11,0.0399888,0.00972573,103,114.815,0.0248044
0.289958,-0.199442,0.922622,4.20955,6.75857,6.17576,12,0.013391,0.00325685,18,53.8831,0.0456936
,,,,,,,,,25,34.4678,0.0417494
,,,,,,,,,33,129.359,0.0646504
,,,,,,,,,42,63.8396,0.0467556
,,,,,,,,,52,116.524,0.0175316
,,,,,,,,,63,102.388,0.0439205
,,,,,,,,,75,126.099,0.0496482
,,,,,,,,,88,157.711,0.0337015
,,,,,,,,,102,165.366,0.0428088
,,,,,,,,,117,157.994,0.0207492
,,,,,,,,,32,77.9983,0.0414509
,,,,,,,,,41,101.642,0.0639375
,,,,,,,,,51,89.9649,0.0463816
,,,,,,,,,62,66.6715,0.0174787
,,,,,,,,,74,55.3925,0.0435903
,,,,,,,,,87,73.6212,0.0492267
,,,,,,,,,101,103.908,0.0335067
,,,,,,,,,116,140.744,0.042495
,,,,,,,,,132,116.562,0.0206752
,,,,,,,,,50,158.445,0.0564722
,,,,,,,,,61,31.7305,0.042323
,,,,,,,,,73,144.476,0.0168691
,,,,,,,,,86,105.328,0.0399865
,,,,,,,,,100,131.104,0.0446792
,,,,,,,,,115,155.335,0.0313359
,,,,,,,,,131,135.054,0.0390629
,,,,,,,,,148,130.366,0.0198276
,,,,,,,,,72,166.163,0.0660363
,,,,,,,,,85,43.1399,0.0196868
,,,,,,,,,99,91.4689,0.0605188
,,,,,,,,,114,67.6661,0.0719573
,,,,,,,,,130,46.0839,0.0426846
,,,,,,,,,147,56.3002,0.058428
,,,,,,,,,165,69.448,0.0238379
,,,,,,,,,98,140.027,0.0176319
,,,,,,,,,113,88.9532,0.0445557
,,,,,,,,,129,109.262,0.0504614
,,,,,,,,,146,123.981,0.0340743
,,,,,,,,,164,109.871,0.043412
,,,,,,,,,183,98.7157,0.0208899
,,,,,,,,,128,51.162,0.0172129
,,,,,,,,,145,34.9088,0.018028
,,,,,,,,,163,42.7445,0.0153847
,,,,,,,,,182,77.0841,0.0170395
,,,,,,,,,202,67.3874,0.0119729
,,,,,,,,,162,26.4243,0.0471749
,,,,,,,,,181,59.562,0.0325433
,,,,,,,,,201,90.3678,0.0409573
,,,,,,,,,222,62.0476,0.0203043
,,,,,,,,,200,33.7275,0.0355852
,,,,,,,,,221,67.9893,0.0458947
,,,,,,,,,243,44.1104,0.0214482
,,,,,,,,,242,36.902,0.0319289
,,,,,,,,,265,26.9093,0.017808
,,,,,,,,,288,29.7281,0.0200634
