facetNormals:0,facetNormals:1,facetNormals:2,FacetCenters:0,FacetCenters:1,FacetCenters:2,FacetIds,relFacetSize,absFacetSize,cellPairingIds,interplanarAngles,angleWeights
0.209702,-0.123902,-0.949203,5.71838,5.40453,7.64291,1,0.0241623,0.00525138,8,28.4497,0.0359059
-0.241175,-0.262475,-0.885413,5.67459,5.35629,7.5272,2,0.0698598,0.0151832,13,31.6013,0.0233608
0.372878,-0.576404,-0.712177,5.76538,5.35601,7.61862,3,0.0226107,0.00491417,19,42.9181,0.0332205
0.798876,-0.091461,-0.546724,5.78753,5.34685,7.4908,4,0.0531434,0.0115501,26,77.8356,0.030939
-0.759403,0.437487,-0.43802,5.61883,5.34436,7.45191,5,0.0429989,0.00934528,34,62.7433,0.0336294
0.499342,-0.786441,-0.242124,5.76553,5.26961,7.56344,6,0.0552944,0.0120176,43,80.4244,0.0283113
-0.625868,-0.712057,-0.21216,5.61449,5.28565,7.53291,7,0.0341807,0.00742876,53,113.666,0.0260213
-0.918665,0.254037,0.164726,5.59032,5.31356,7.59178,8,0.0281903,0.00612683,64,106.04,0.0435745
-0.142208,0.931098,0.117819,5.70372,5.38149,7.54303,9,0.221651,0.0481731,76,86.4248,0.0371178
0.933965,-0.146231,0.163658,5.80257,5.31987,7.57422,10,0.0800275,0.017393,89,127.224,0.0201937
-0.377278,-0.658092,0.610785,5.73302,5.24949,7.68843,11,0.0173449,0.0037697,103,138.838,0.0326227
-0.0564053,0.72568,0.652673,5.73394,5.35428,7.69852,12,0.0502005,0.0109105,118,167.315,0.0305683
-0.379667,0.0112598,0.880388,5.73338,5.31152,7.71316,13,0.0415966,0.00904053,134,153.327,0.0137222
0.119772,-0.186808,0.958349,5.72158,5.33469,7.71508,14,0.00958201,0.00208253,18,42.8725,0.034164
,,,,,,,,,25,70.132,0.0603657
,,,,,,,,,33,60.8056,0.0532328
,,,,,,,,,42,70.9161,0.0617296
,,,,,,,,,52,55.4627,0.0459025
,,,,,,,,,63,89.4396,0.0401707
,,,,,,,,,75,110.305,0.106236
,,,,,,,,,88,111.242,0.0745988
,,,,,,,,,102,107.342,0.02779
,,,,,,,,,117,143.983,0.0584206
,,,,,,,,,133,139.019,0.0521447
,,,,,,,,,150,151.919,0.0168525
,,,,,,,,,32,39.7064,0.031724
,,,,,,,,,41,103.326,0.029637
,,,,,,,,,51,31.4852,0.0320967
,,,,,,,,,62,70.0324,0.0272172
,,,,,,,,,74,129.321,0.0250941
,,,,,,,,,87,135.841,0.0410354
,,,,,,,,,101,70.5513,0.0352594
,,,,,,,,,116,101.76,0.0196308
,,,,,,,,,132,159.217,0.0311784
,,,,,,,,,149,144.803,0.0292966
,,,,,,,,,167,123.015,0.0134599
,,,,,,,,,50,115.305,0.0475359
,,,,,,,,,61,49.8704,0.0541976
,,,,,,,,,73,109.729,0.0416032
,,,,,,,,,86,154.258,0.0368391
,,,,,,,,,100,106.567,0.0857316
,,,,,,,,,115,44.0918,0.0638718
,,,,,,,,,131,127.398,0.0261537
,,,,,,,,,148,119.511,0.05163
,,,,,,,,,166,147.426,0.0466664
,,,,,,,,,185,115.46,0.0162365
,,,,,,,,,72,130.88,0.0483776
,,,,,,,,,85,74.3539,0.038086
,,,,,,,,,99,38.9887,0.0340544
,,,,,,,,,114,60.0915,0.0720253
,,,,,,,,,130,154.007,0.0559407
,,,,,,,,,147,106.37,0.0247187
,,,,,,,,,165,85.5436,0.0463214
,,,,,,,,,184,95.6434,0.0422861
,,,,,,,,,204,127.931,0.0156717
,,,,,,,,,98,71.3618,0.0422464
,,,,,,,,,113,138.602,0.0373426
,,,,,,,,,129,155.559,0.0885089
,,,,,,,,,146,54.0803,0.0654007
,,,,,,,,,164,78.85,0.0264065
,,,,,,,,,183,143.548,0.0526245
,,,,,,,,,203,116.487,0.0474773
,,,,,,,,,224,91.5323,0.0163336
,,,,,,,,,128,67.5311,0.0308979
,,,,,,,,,145,130.508,0.0592279
,,,,,,,,,163,123.553,0.0479019
,,,,,,,,,182,52.5621,0.0230123
,,,,,,,,,202,130.745,0.0406699
,,,,,,,,,223,87.3651,0.0375258
,,,,,,,,,245,98.7435,0.014968
,,,,,,,,,162,65.1,0.0500191
,,,,,,,,,181,159.316,0.0416937
,,,,,,,,,201,72.707,0.021476
,,,,,,,,,222,68.6887,0.0361055
,,,,,,,,,244,57.6207,0.0336058
,,,,,,,,,267,89.9772,0.0143025
,,,,,,,,,200,105.913,0.117596
,,,,,,,,,221,121.799,0.0321722
,,,,,,,,,243,34.955,0.0818607
,,,,,,,,,266,79.3502,0.0700476
,,,,,,,,,290,94.7952,0.0183699
,,,,,,,,,242,99.6217,0.0285105
,,,,,,,,,265,93.177,0.0616982
,,,,,,,,,289,103.334,0.0547404
,,,,,,,,,314,71.7201,0.0171148
,,,,,,,,,288,93.4708,0.0257818
,,,,,,,,,313,43.8378,0.0244815
,,,,,,,,,339,46.2,0.0123444
,,,,,,,,,338,49.8683,0.0454953
,,,,,,,,,365,59.8405,0.0160924
,,,,,,,,,392,32.4265,0.015576
