facetNormals:0,facetNormals:1,facetNormals:2,FacetCenters:0,FacetCenters:1,FacetCenters:2,FacetIds,relFacetSize,absFacetSize,cellPairingIds,interplanarAngles,angleWeights
0.629408,-0.111635,-0.67728,5.73034,7.14308,4.08879,1,0.0761762,0.0202979,8,69.0871,0.0964333
-0.133346,-0.798288,-0.445884,5.5557,7.05083,4.10579,2,0.131367,0.035004,13,65.973,0.0804562
0.588811,-0.742655,0.133719,5.67625,7.06327,4.16279,3,0.0852459,0.0227145,19,80.0832,0.0780821
0.366318,0.855408,-0.020989,5.7037,7.24496,4.1171,4,0.0800859,0.0213396,26,110.388,0.0661374
0.239656,-0.527627,0.772164,5.62626,7.07794,4.19869,5,0.0584364,0.0155709,34,158.596,0.0905608
-0.424459,-0.132172,0.808104,5.55114,7.09256,4.18841,6,0.111643,0.0297482,43,120.481,0.0976669
0.273236,0.280597,0.878671,5.67928,7.17488,4.20586,7,0.136049,0.0362514,18,59.0609,0.103396
,,,,,,,,,25,147.126,0.0995081
,,,,,,,,,33,87.1121,0.0808902
,,,,,,,,,42,103.448,0.120704
,,,,,,,,,52,137.198,0.133667
,,,,,,,,,32,118.302,0.0825853
,,,,,,,,,41,46.4887,0.06934
,,,,,,,,,51,92.838,0.0966748
,,,,,,,,,62,85.6405,0.104816
,,,,,,,,,50,114.999,0.0675694
,,,,,,,,,61,109.425,0.0932673
,,,,,,,,,73,68.9462,0.100822
,,,,,,,,,72,48.3295,0.0767172
,,,,,,,,,85,50.087,0.0817564
,,,,,,,,,98,51.1151,0.122643
