Q	U	V
{$V$}	{[mm$^3$]}	0.0138646
{$d_v$}	{[mm]}	0.298059
{$S_c$}	{[mm$^2$]}	0.433089
{$S_o$}	{[mm$^2$]}	0.285695
{$S_l/S_o$}	[]	0.515914
{$\Psi$}	[]	0.644434
{$\eta$}	[]	0.650492
{med($\theta_e$)}	{[$^\circ$]}	72.19285
{$\Upsilon$}	[]	10
{$\Xi$}	[]	9
