Q	U	V
{$V$}	{[mm$^3$]}	0.00554063
{$d_v$}	{[mm]}	0.219543
{$S_c$}	{[mm$^2$]}	0.209044
{$S_o$}	{[mm$^2$]}	0.156153
{$S_l/S_o$}	[]	0.338713
{$\Psi$}	[]	0.724357
{$\eta$}	[]	0.749579
{med($\theta_e$)}	{[$^\circ$]}	59.5325
{$\Upsilon$}	[]	16
{$\Xi$}	[]	8
