Q	U	V
{$V$}	{[mm$^3$]}	0.00650602
{$d_v$}	{[mm]}	0.231618
{$S_c$}	{[mm$^2$]}	0.344577
{$S_o$}	{[mm$^2$]}	0.183177
{$S_l/S_o$}	[]	0.881115
{$\Psi$}	[]	0.489112
{$\eta$}	[]	0.531701
{med($\theta_e$)}	{[$^\circ$]}	66.3122
{$\Upsilon$}	[]	11
{$\Xi$}	[]	2
