"cellPairingIds","interplanarAngles","angleWeights"
8,33.0559,0.0109806
13,49.5195,0.0159796
19,60.8626,0.0116867
26,57.4762,0.0126149
34,79.475,0.0135842
43,49.3113,0.0108786
53,58.3205,0.00702846
64,87.5669,0.0143169
89,97.2346,0.0139314
208,148.268,0.0164742
229,138.407,0.0146516
33,26.7176,0.018118
75,55.4121,0.0218483
32,36.6293,0.0303032
101,69.0702,0.0841612
116,65.2535,0.0520491
167,89.1174,0.0188322
61,36.7628,0.0227091
115,43.0432,0.0286781
72,22.4772,0.0264979
114,40.1004,0.0294366
129,33.9809,0.0353168
146,39.04,0.0436351
203,50.6613,0.0322708
269,66.7549,0.0441786
128,20.0579,0.0083995
202,40.8908,0.0178661
317,75.1739,0.0183675
370,94.7203,0.0222084
162,41.1044,0.0103115
222,26.2765,0.00940495
243,29.9875,0.029502
266,23.6851,0.0367373
314,39.7865,0.0181915
367,55.2637,0.0742384
339,69.8726,0.016051
366,50.2345,0.0353453
453,58.7222,0.0576905
338,33.3763,0.0273459
452,42.8215,0.0239715
451,39.0555,0.0464241
482,37.3237,0.0285384
450,26.3309,0.0160823
481,45.5277,0.0182853
546,58.5402,0.0195229
579,36.5778,0.0580962
578,47.3433,0.0374698
613,67.1264,0.102867
649,59.4451,0.0578961
685,34.3043,0.0324968
722,43.0066,0.0724354
