facetNormals:0,facetNormals:1,facetNormals:2,FacetCenters:0,FacetCenters:1,FacetCenters:2,FacetIds,relFacetSize,absFacetSize,cellPairingIds,interplanarAngles,angleWeights
0.108249,0.232049,-0.950304,2.95087,3.77475,3.85733,1,0.0156368,0.00322768,8,35.4628,0.0285185
-0.392923,0.459961,-0.736255,2.95794,3.77527,3.85274,2,0.161864,0.0334114,13,41.6231,0.0252143
0.581322,-0.213032,-0.722337,3.04416,3.72264,3.83802,3,0.0650696,0.0134314,19,47.2447,0.0259692
0.114894,0.844557,-0.46248,2.93575,3.85287,3.94527,4,0.0765564,0.0158025,26,83.3574,0.0279938
-0.514667,-0.712102,-0.34562,2.95188,3.64074,3.89001,5,0.133466,0.0275497,34,91.6728,0.0198387
0.444812,0.802245,0.27552,2.95349,3.85616,4.019,6,0.0271287,0.00559982,43,114.704,0.0286097
-0.886153,-0.0656628,0.287223,2.88118,3.77643,3.99504,7,0.167944,0.0346665,53,145.85,0.0218079
-0.623651,-0.310949,0.699015,2.91464,3.74516,4.04445,8,0.0360254,0.00743624,64,162.638,0.0261318
-0.0108385,-0.467185,0.803423,2.94496,3.72152,4.03573,9,0.079471,0.0164041,18,76.9032,0.0928238
,,,,,,,,,25,42.2665,0.103948
,,,,,,,,,33,81.7467,0.1463
,,,,,,,,,42,90.5417,0.0464691
,,,,,,,,,52,83.1252,0.164848
,,,,,,,,,63,116.022,0.0589341
,,,,,,,,,75,154.918,0.106603
,,,,,,,,,32,76.1439,0.0703472
,,,,,,,,,41,83.4689,0.0874864
,,,,,,,,,51,97.0187,0.0382926
,,,,,,,,,62,142.903,0.0937976
,,,,,,,,,74,148.566,0.0463754
,,,,,,,,,87,123.428,0.0715529
,,,,,,,,,50,123.153,0.0973009
,,,,,,,,,61,49.6603,0.0400612
,,,,,,,,,73,108.684,0.105171
,,,,,,,,,86,133.391,0.048995
,,,,,,,,,100,148.365,0.0779865
,,,,,,,,,72,171.97,0.0450919
,,,,,,,,,85,62.7605,0.148733
,,,,,,,,,99,71.1688,0.0567365
,,,,,,,,,114,86.0413,0.0996228
,,,,,,,,,98,114.275,0.0467119
,,,,,,,,,113,110.707,0.0309504
,,,,,,,,,129,100.24,0.0404494
,,,,,,,,,128,32.9089,0.0593251
,,,,,,,,,145,71.8036,0.107889
,,,,,,,,,162,38.9324,0.0495769
