"cellPairingIds","interplanarAngles","angleWeights"
8,45.107,0.117468
13,43.2592,0.0187081
19,67.6492,0.105375
53,106.922,0.00833726
25,76.9773,0.0975793
33,32.1938,0.0716316
52,74.2063,0.055928
63,107.534,0.00828489
102,54.1436,0.106625
32,49.3368,0.0181199
51,33.8582,0.0179681
74,118.83,0.00603713
61,52.1365,0.0855334
73,27.1413,0.0530305
115,25.2835,0.0451491
148,33.8726,0.0793343
99,110.597,0.00797506
114,31.8043,0.0467761
147,36.7119,0.0710843
184,60.6673,0.0557331
113,116.401,0.00818699
183,37.8488,0.0765039
163,19.7585,0.0335786
182,25.8337,0.0555938
223,45.836,0.0457405
162,80.2477,0.00780519
222,141.241,0.00812621
244,118.996,0.00802027
266,67.5019,0.0483754
265,23.6102,0.0425013
289,51.029,0.0397547
313,43.4057,0.0748448
338,67.8362,0.0640602
