Q	U	V
{$V$}	{[mm$^3$]}	0.00924071
{$d_v$}	{[mm]}	0.260357
{$S_c$}	{[mm$^2$]}	0.316831
{$S_o$}	{[mm$^2$]}	0.22493
{$S_l/S_o$}	[]	0.408576
{$\Psi$}	[]	0.67214
{$\eta$}	[]	0.694702
{med($\theta_e$)}	{[$^\circ$]}	63.1134
{$\Upsilon$}	[]	12
{$\Xi$}	[]	9
