"cellPairingIds","interplanarAngles","angleWeights"
8,69.8641,0.0435787
13,48.3538,0.105945
19,51.5739,0.0609894
26,85.3744,0.0788747
43,84.2117,0.0207205
64,141.554,0.105741
18,112.246,0.039997
75,72.3584,0.0399679
51,28.2011,0.0246778
62,46.4285,0.0198743
87,163.776,0.0868658
116,125.438,0.0988185
50,42.4411,0.0461028
73,55.659,0.0174601
85,77.8315,0.0186722
114,92.0447,0.0677899
130,66.7485,0.0677528
98,24.7076,0.0126032
164,99.3667,0.025544
145,132.714,0.0198671
163,45.1139,0.0198639
182,92.8781,0.0204324
200,88.276,0.0866678
221,43.2326,0.0986408
