facetNormals:0,facetNormals:1,facetNormals:2,FacetCenters:0,FacetCenters:1,FacetCenters:2,FacetIds,relFacetSize,absFacetSize,cellPairingIds,interplanarAngles,angleWeights
0.444163,-0.0186929,-0.840772,2.9655,3.7483,6.95896,1,0.0294678,0.0101136,8,31.5417,0.0210981
0.80596,0.15569,-0.508676,2.96152,3.76605,6.98011,2,0.0164311,0.0056393,13,68.4606,0.0442782
-0.31344,-0.729768,-0.550753,2.888,3.67186,7.00061,3,0.0890182,0.0305518,19,74.9818,0.0494689
-0.12783,0.861493,-0.363287,2.93278,3.83878,7.0303,4,0.153985,0.0528491,26,112.932,0.0444955
-0.901003,-0.254075,-0.0569714,2.82484,3.70762,7.08032,5,0.0908015,0.0311638,34,108.826,0.0270812
-0.542693,-0.816785,0.0909712,2.84717,3.66107,7.14657,6,0.0250522,0.00859813,43,86.8641,0.0399147
0.262235,-0.90361,0.100072,2.9672,3.79723,7.03866,7,0.0618372,0.021223,53,105.031,0.0291123
0.617086,-0.39559,0.615595,2.98922,3.74294,7.16784,8,0.0287653,0.0098725,64,143.794,0.0448645
-0.62119,0.512894,0.551527,2.8435,3.78319,7.18459,9,0.0939553,0.0322462,76,124.819,0.0394152
-0.190613,-0.788783,0.550023,2.92982,3.70736,7.14435,10,0.0595006,0.0204211,89,110.824,0.0359866
0.550541,0.445894,0.674208,2.99255,3.80931,7.19397,11,0.0462086,0.0158592,103,131.38,0.0348809
0.140818,0.550148,0.789216,2.97054,3.8136,7.19367,12,0.0427301,0.0146653,18,95.2919,0.0277417
,,,,,,,,,25,76.2955,0.0296938
,,,,,,,,,33,144.435,0.0278268
,,,,,,,,,42,129.961,0.0198459
,,,,,,,,,52,88.7606,0.0259634
,,,,,,,,,63,82.3771,0.0209152
,,,,,,,,,75,138.066,0.0279707
,,,,,,,,,88,125.982,0.0257511
,,,,,,,,,102,79.619,0.0242421
,,,,,,,,,117,102.443,0.0237353
,,,,,,,,,32,115.215,0.112817
,,,,,,,,,41,56.5838,0.089901
,,,,,,,,,51,41.2122,0.0391005
,,,,,,,,,62,55.1852,0.0729789
,,,,,,,,,74,105.278,0.0434804
,,,,,,,,,87,120.813,0.0914201
,,,,,,,,,101,69.4594,0.0713261
,,,,,,,,,116,156.874,0.0608371
,,,,,,,,,132,159.511,0.0577428
,,,,,,,,,50,95.382,0.114239
,,,,,,,,,61,135.894,0.0430935
,,,,,,,,,73,161.823,0.0882394
,,,,,,,,,86,135.415,0.0484752
,,,,,,,,,100,69.6153,0.116703
,,,,,,,,,115,157.55,0.0858344
,,,,,,,,,131,85.723,0.0710856
,,,,,,,,,148,79.3709,0.0668968
,,,,,,,,,72,41.5443,0.0392698
,,,,,,,,,85,90.8,0.0735712
,,,,,,,,,99,123.123,0.0436899
,,,,,,,,,114,64.2382,0.0923515
,,,,,,,,,130,68.242,0.0718918
,,,,,,,,,147,134.926,0.0612482
,,,,,,,,,165,109.982,0.058113
,,,,,,,,,98,49.5284,0.0356582
,,,,,,,,,113,87.3111,0.0267807
,,,,,,,,,129,91.8855,0.039557
,,,,,,,,,146,34.282,0.0352589
,,,,,,,,,164,128.656,0.0324899
,,,,,,,,,183,118.301,0.0315859
,,,,,,,,,128,50.1067,0.0392653
,,,,,,,,,145,128.192,0.0745855
,,,,,,,,,163,39.2992,0.0606464
,,,,,,,,,182,101.916,0.0528926
,,,,,,,,,202,114.48,0.050538
,,,,,,,,,162,105.307,0.0440456
,,,,,,,,,181,55.3887,0.0387818
,,,,,,,,,201,51.842,0.0354578
,,,,,,,,,222,67.5704,0.0343839
,,,,,,,,,200,88.9704,0.07286
,,,,,,,,,221,74.2887,0.0619495
,,,,,,,,,243,48.4203,0.058744
,,,,,,,,,242,95.1358,0.0520189
,,,,,,,,,265,91.6053,0.0497398
,,,,,,,,,288,25.963,0.0444013
