"cellPairingIds","interplanarAngles","angleWeights"
8,75.7705,0.0455643
13,58.9944,0.0500893
19,107.315,0.0343842
53,72.4704,0.0309349
64,85.8428,0.0669952
76,71.1023,0.0489369
103,110.961,0.0698833
18,48.1709,0.0414726
25,57.6574,0.0300923
33,60.1484,0.0549993
42,41.6366,0.0606559
41,56.6524,0.0617308
74,36.9725,0.0289929
132,90.9768,0.0606985
61,36.4801,0.0423324
73,22.9018,0.0317311
100,56.9953,0.0381526
166,91.8253,0.0213551
72,50.8473,0.116639
165,73.416,0.0948355
184,82.4921,0.0314683
203,90.0476,0.033242
145,42.1591,0.0576099
182,51.4857,0.0394582
223,76.0486,0.0263333
222,54.8794,0.0346783
200,38.869,0.0569415
221,58.697,0.0499027
242,67.7735,0.0391435
265,99.6456,0.0590145
289,89.5134,0.0261928
313,31.4118,0.0245969
338,53.6134,0.0311978
