facetNormals:0,facetNormals:1,facetNormals:2,FacetCenters:0,FacetCenters:1,FacetCenters:2,FacetIds,relFacetSize,absFacetSize,cellPairingIds,interplanarAngles,angleWeights
-0.32289,-0.310067,-0.838495,6.0522,4.01226,5.56134,1,0.0304703,0.0070333,8,50.0922,0.0447748
-0.238988,0.482472,-0.769252,6.04077,4.09962,5.57459,2,0.0843946,0.0194804,13,66.1211,0.0314562
0.625461,0.147875,-0.748131,6.11515,4.11342,5.58482,3,0.032508,0.00750365,19,89.3328,0.0393429
0.59268,0.614688,-0.468393,6.12564,4.08688,5.60598,4,0.0555055,0.0128121,26,44.3579,0.0311843
-0.277047,-0.860981,-0.365633,6.04546,4.08676,5.59569,5,0.0319326,0.00737085,34,98.0105,0.0493047
0.0447101,0.917507,-0.207727,6.06734,4.18065,5.63943,6,0.129112,0.0298024,43,69.7592,0.0358436
0.378581,-0.86953,-0.204746,6.12834,4.04808,5.70831,7,0.0435177,0.010045,53,97.4084,0.0530926
0.870174,-0.180969,-0.136728,6.16308,4.05324,5.65565,8,0.206135,0.0475811,64,73.3891,0.0374938
-0.509822,-0.770224,0.17641,6.05461,4.0818,5.62451,9,0.0487253,0.011247,76,90.5561,0.0259792
0.182394,-0.918487,0.280165,6.12406,4.09512,5.71957,10,0.0226419,0.00522632,89,126.789,0.0228673
0.625641,0.747722,0.152494,6.1461,4.05993,5.64465,11,0.0183008,0.00422428,103,124.654,0.0192504
-0.425595,-0.168108,0.846087,6.06971,4.11428,5.69006,12,0.0140696,0.00324762,18,57.5159,0.0469365
,,,,,,,,,25,55.7064,0.0669673
,,,,,,,,,33,94.2526,0.0463338
,,,,,,,,,42,47.9941,0.102071
,,,,,,,,,52,112.764,0.0574246
,,,,,,,,,63,103.011,0.119758
,,,,,,,,,75,115.885,0.0617812
,,,,,,,,,88,139.922,0.0357048
,,,,,,,,,102,84.1818,0.030079
,,,,,,,,,117,134.251,0.0241184
,,,,,,,,,32,32.2899,0.0410022
,,,,,,,,,41,91.6115,0.0322177
,,,,,,,,,51,69.9112,0.0519388
,,,,,,,,,62,74.1482,0.0372157
,,,,,,,,,74,45.6682,0.0561595
,,,,,,,,,87,127.511,0.0389978
,,,,,,,,,101,103.885,0.0266925
,,,,,,,,,116,66.5187,0.0234181
,,,,,,,,,132,166.903,0.0196393
,,,,,,,,,50,123.339,0.0405415
,,,,,,,,,61,41.4227,0.0776355
,,,,,,,,,73,103.103,0.048786
,,,,,,,,,86,57.6568,0.0874607
,,,,,,,,,100,159.572,0.0518949
,,,,,,,,,115,128.125,0.0321636
,,,,,,,,,131,37.8377,0.027526
,,,,,,,,,148,143.379,0.0224489
,,,,,,,,,72,142.242,0.0512018
,,,,,,,,,85,40.6032,0.0368358
,,,,,,,,,99,92.3045,0.0552989
,,,,,,,,,114,36.2427,0.0385809
,,,,,,,,,130,48.0178,0.0264965
,,,,,,,,,147,155.053,0.0232671
,,,,,,,,,165,92.8531,0.019533
,,,,,,,,,98,143.905,0.065095
,,,,,,,,,113,96.6948,0.158776
,,,,,,,,,129,149.89,0.0707504
,,,,,,,,,146,165.889,0.0385275
,,,,,,,,,164,42.7602,0.0320577
,,,,,,,,,183,112.661,0.0253742
,,,,,,,,,128,53.8407,0.071864
,,,,,,,,,145,61.1231,0.0459745
,,,,,,,,,163,31.296,0.0297863
,,,,,,,,,182,117.665,0.025766
,,,,,,,,,202,101.633,0.0212643
,,,,,,,,,162,112.85,0.0788196
,,,,,,,,,181,70.9679,0.0408021
,,,,,,,,,201,64.0538,0.0336171
,,,,,,,,,222,121.784,0.0263414
,,,,,,,,,200,43.7572,0.0309171
,,,,,,,,,221,159.288,0.0266079
,,,,,,,,,243,56.7678,0.0218345
,,,,,,,,,242,123.328,0.0202412
,,,,,,,,,265,70.5013,0.0173549
,,,,,,,,,288,106.082,0.0159087
