Q	U	V
{$V$}	{[mm$^3$]}	0.00910771
{$d_v$}	{[mm]}	0.259102
{$S_c$}	{[mm$^2$]}	0.360947
{$S_o$}	{[mm$^2$]}	0.234106
{$S_l/S_o$}	[]	0.541810
{$\Psi$}	[]	0.584315
{$\eta$}	[]	0.626602
{med($\theta_e$)}	{[$^\circ$]}	92.2746
{$\Upsilon$}	[]	13
{$\Xi$}	[]	10
