facetNormals:0,facetNormals:1,facetNormals:2,FacetCenters:0,FacetCenters:1,FacetCenters:2,FacetIds,relFacetSize,absFacetSize,cellPairingIds,interplanarAngles,angleWeights
0.00348385,-0.282819,-0.887274,3.67328,4.78514,7.29821,1,0.111353,0.0283371,8,37.1185,0.0420537
-0.509257,0.0438569,-0.83622,3.65248,4.74546,7.31432,2,0.0259216,0.00659654,13,48.5017,0.0811223
0.708728,-0.334548,-0.56077,3.74812,4.79693,7.34365,3,0.0638013,0.0162362,19,72.9844,0.0723038
-0.86625,0.164516,-0.346858,3.61227,4.82888,7.33705,4,0.0535315,0.0136227,26,88.3912,0.121635
0.898049,-0.193118,0.0379923,3.77889,4.79977,7.41054,5,0.134009,0.0341026,34,96.2011,0.0316784
-0.0572083,-0.897581,0.397356,3.71777,4.72863,7.41029,6,0.0184658,0.00469919,43,115.656,0.0618887
0.487161,-0.555545,0.616219,3.74139,4.75052,7.42902,7,0.042853,0.0109052,53,150.243,0.0419582
0.0449353,0.705375,0.650769,3.75456,4.87514,7.45559,8,0.0258491,0.00657809,64,135.985,0.14277
-0.607637,-0.0455928,0.729752,3.65891,4.80745,7.41402,9,0.198884,0.0506122,76,129.044,0.0484169
-0.293491,-0.488071,0.807987,3.69366,4.72294,7.41615,10,0.0309335,0.00787197,18,84.3289,0.0368653
,,,,,,,,,25,37.3287,0.0349294
,,,,,,,,,33,123.52,0.0434405
,,,,,,,,,42,110.819,0.0215675
,,,,,,,,,52,146.659,0.0323032
,,,,,,,,,63,124.707,0.0258853
,,,,,,,,,75,108.964,0.0458654
,,,,,,,,,88,124.417,0.0282067
,,,,,,,,,32,121.307,0.058217
,,,,,,,,,41,39.8912,0.0864459
,,,,,,,,,51,87.7674,0.0286419
,,,,,,,,,62,78.455,0.0512699
,,,,,,,,,74,127.925,0.036792
,,,,,,,,,87,154.167,0.0966104
,,,,,,,,,101,121.505,0.0416657
,,,,,,,,,50,160.847,0.0765029
,,,,,,,,,61,104.67,0.0274594
,,,,,,,,,73,142.905,0.0476007
,,,,,,,,,86,99.3951,0.0348635
,,,,,,,,,100,72.8418,0.0843574
,,,,,,,,,115,96.5176,0.0392095
,,,,,,,,,72,81.2793,0.032459
,,,,,,,,,85,50.0322,0.0649398
,,,,,,,,,99,94.6197,0.0433386
,,,,,,,,,114,125.629,0.160125
,,,,,,,,,130,98.7732,0.0502644
,,,,,,,,,98,40.8464,0.0258099
,,,,,,,,,113,113.528,0.0215424
,,,,,,,,,129,66.9732,0.033794
,,,,,,,,,146,37.0328,0.0231263
,,,,,,,,,128,88.0757,0.0322468
,,,,,,,,,145,78.7148,0.0705128
,,,,,,,,,163,48.8326,0.0359305
,,,,,,,,,162,62.9466,0.0457518
,,,,,,,,,181,79.7898,0.0281637
,,,,,,,,,200,32.7715,0.0535397
