"cellPairingIds","interplanarAngles","angleWeights"
8,37.8076,0.0173668
13,24.3514,0.0207956
19,34.2904,0.018493
64,70.8616,0.0154222
18,37.5716,0.0561025
25,58.7849,0.0419956
33,57.7925,0.0301501
42,38.0512,0.0560122
52,35.3361,0.0361902
88,52.4129,0.0302874
102,62.3973,0.0294669
133,72.9811,0.0391473
87,89.9475,0.0398645
116,54.8751,0.0409129
132,75.7824,0.0838669
186,142.243,0.0722345
50,30.8483,0.0337146
86,37.1985,0.0433396
100,44.5782,0.0321828
72,32.5289,0.0421906
99,34.6386,0.0308367
204,88.087,0.0338304
203,68.8313,0.0621924
224,95.3165,0.0701997
163,26.1819,0.0300029
182,27.0882,0.0291976
202,53.3658,0.0460174
162,30.2326,0.0295503
267,72.4053,0.0435312
291,85.3093,0.0442488
315,72.0994,0.0326814
265,45.6857,0.0368784
289,36.7121,0.0320073
367,68.6955,0.0340072
288,26.3086,0.0356691
393,96.0903,0.057349
422,45.3427,0.0561598
392,82.272,0.0455863
451,56.7507,0.0455932
450,46.3316,0.0506848
481,71.8734,0.0497536
512,63.9566,0.0506933
