Q	U	V
{$V$}	{[mm$^3$]}	0.00164105
{$d_v$}	{[mm]}	0.146344
{$S_c$}	{[mm$^2$]}	0.119991
{$S_o$}	{[mm$^2$]}	0.0655366
{$S_l/S_o$}	[]	0.830901
{$\Psi$}	[]	0.560725
{$\eta$}	[]	0.668378
{med($\theta_e$)}	{[$^\circ$]}	75.0921
{$\Upsilon$}	[]	13
{$\Xi$}	[]	8
