facetNormals:0,facetNormals:1,facetNormals:2,FacetCenters:0,FacetCenters:1,FacetCenters:2,FacetIds,relFacetSize,absFacetSize,cellPairingIds,interplanarAngles,angleWeights
0.0492157,0.360637,-0.914868,5.30811,7.58084,7.26362,1,0.0446963,0.00624986,8,56.592,0.0180351
-0.443682,-0.415479,-0.768069,5.26589,7.49954,7.29918,2,0.0112967,0.00157961,13,39.8678,0.0412009
-0.582632,0.204451,-0.758935,5.28863,7.57782,7.29613,3,0.0382126,0.00534325,19,40.3592,0.0417267
-0.391232,0.709264,-0.539676,5.30232,7.62805,7.31061,4,0.0391271,0.00547113,26,86.9378,0.0324804
-0.240665,-0.861242,-0.408978,5.23858,7.51635,7.32654,5,0.0255086,0.00356686,34,63.6486,0.0192123
-0.770761,0.551983,-0.29871,5.28655,7.60471,7.33088,6,0.0122359,0.00171094,43,77.91,0.0566262
-0.926414,-0.0583908,-0.29222,5.23349,7.51359,7.31514,7,0.0772433,0.0108009,53,103.217,0.0561234
0.438126,-0.872543,-0.0793291,5.27016,7.49303,7.32287,8,0.0754005,0.0105432,64,120.512,0.0562208
-0.49371,-0.795593,0.180918,5.18395,7.58236,7.36866,9,0.075753,0.0105925,76,108.898,0.0473105
0.793062,-0.539336,0.169562,5.28422,7.62732,7.32211,10,0.0502495,0.00702636,89,81.2252,0.0343731
-0.583407,0.782224,0.115631,5.26347,7.58579,7.35386,11,0.0279238,0.00390457,103,111.963,0.027824
-0.925876,-0.019478,0.339544,5.24661,7.5451,7.39078,12,0.0201991,0.00282443,118,105.045,0.0475557
-0.761337,0.442747,0.404302,5.25762,7.5799,7.38534,13,0.050806,0.00710418,134,141.098,0.051426
0.545898,-0.450516,0.665455,5.25287,7.607,7.39924,14,0.0605415,0.00846549,151,102.387,0.0261692
0.0548898,0.803698,0.544217,5.32305,7.66064,7.38289,15,0.0185005,0.00258692,169,139.14,0.0488837
-0.5278,0.102119,0.788969,5.26835,7.56868,7.42214,16,0.0539367,0.00754195,18,37.8733,0.0174381
,,,,,,,,,25,72.0758,0.0175316
,,,,,,,,,33,36.0485,0.0156587
,,,,,,,,,42,69.4304,0.0117475
,,,,,,,,,52,46.2013,0.0197107
,,,,,,,,,63,76.1881,0.0196494
,,,,,,,,,75,63.9204,0.0196613
,,,,,,,,,88,105.692,0.0184464
,,,,,,,,,102,99.2649,0.0160858
,,,,,,,,,117,80.582,0.0144897
,,,,,,,,,133,99.5017,0.0184835
,,,,,,,,,150,126.509,0.0190405
,,,,,,,,,168,144.608,0.0140278
,,,,,,,,,187,116.294,0.0186808
,,,,,,,,,32,34.741,0.0386645
,,,,,,,,,41,73.4203,0.0305942
,,,,,,,,,51,35.8129,0.0185363
,,,,,,,,,62,38.0676,0.0511306
,,,,,,,,,74,112.933,0.0507204
,,,,,,,,,87,90.7561,0.0507999
,,,,,,,,,101,137.364,0.0434121
,,,,,,,,,116,64.62,0.0322679
,,,,,,,,,132,73.2718,0.0264283
,,,,,,,,,149,76.1317,0.0436185
,,,,,,,,,167,164.337,0.0468527
,,,,,,,,,186,107.164,0.0249308
,,,,,,,,,206,106.826,0.0447331
,,,,,,,,,50,108.014,0.0308832
,,,,,,,,,61,27.9956,0.018642
,,,,,,,,,73,59.6411,0.0519429
,,,,,,,,,86,141.624,0.0515195
,,,,,,,,,100,120.333,0.0516016
,,,,,,,,,115,145.828,0.0439963
,,,,,,,,,131,41.1086,0.0325895
,,,,,,,,,148,80.0932,0.0266436
,,,,,,,,,166,65.3304,0.0442082
,,,,,,,,,185,160.663,0.0475338
,,,,,,,,,205,74.3751,0.0251224
,,,,,,,,,226,99.0936,0.0453536
,,,,,,,,,72,99.8813,0.0165386
,,,,,,,,,85,65.768,0.038352
,,,,,,,,,99,45.2219,0.0381207
,,,,,,,,,114,38.8774,0.0381656
,,,,,,,,,130,77.6836,0.0338391
,,,,,,,,,147,126.93,0.0266616
,,,,,,,,,165,84.0385,0.0225455
,,,,,,,,,184,112.42,0.0339644
,,,,,,,,,204,90.9316,0.0358937
,,,,,,,,,225,166.1,0.0214466
,,,,,,,,,247,107.583,0.0346364
,,,,,,,,,98,37.335,0.0211254
,,,,,,,,,113,144.799,0.021055
,,,,,,,,,129,96.826,0.0210687
,,,,,,,,,146,172.416,0.0196797
,,,,,,,,,164,29.8794,0.0170157
,,,,,,,,,183,52.1596,0.01524
,,,,,,,,,203,42.4778,0.019722
,,,,,,,,,224,154.041,0.0203574
,,,,,,,,,246,75.6952,0.0147298
,,,,,,,,,269,76.1289,0.0199467
,,,,,,,,,128,110.366,0.0763108
,,,,,,,,,145,60.9268,0.0764909
,,,,,,,,,163,142.581,0.0608887
,,,,,,,,,182,61.1781,0.041019
,,,,,,,,,202,37.6834,0.0320239
,,,,,,,,,223,53.4733,0.0612955
,,,,,,,,,245,135.462,0.0678802
,,,,,,,,,268,105.75,0.0298513
,,,,,,,,,292,74.2338,0.0635196
,,,,,,,,,162,60.2517,0.0755763
,,,,,,,,,181,32.5052,0.0603078
,,,,,,,,,201,169.775,0.0407546
,,,,,,,,,222,115.475,0.0318625
,,,,,,,,,244,142.384,0.0607068
,,,,,,,,,267,52.489,0.0671589
,,,,,,,,,291,139.152,0.029711
,,,,,,,,,316,114.171,0.0628876
,,,,,,,,,200,85.7875,0.0604202
,,,,,,,,,221,109.537,0.0408059
,,,,,,,,,243,55.4074,0.0318939
,,,,,,,,,266,83.989,0.0608208
,,,,,,,,,290,76.9432,0.0672984
,,,,,,,,,315,127.786,0.0297383
,,,,,,,,,341,69.2833,0.0630099
,,,,,,,,,242,154.657,0.0358986
,,,,,,,,,265,133.906,0.0288152
,,,,,,,,,289,145.093,0.0505262
,,,,,,,,,314,33.5292,0.0549175
,,,,,,,,,340,108.322,0.0270441
,,,,,,,,,367,111.44,0.0520279
,,,,,,,,,288,54.4027,0.0234415
,,,,,,,,,313,28.4528,0.0360396
,,,,,,,,,339,128.474,0.0382195
,,,,,,,,,366,46.3355,0.0222558
,,,,,,,,,394,59.2954,0.0367972
,,,,,,,,,338,29.3031,0.028906
,,,,,,,,,365,106.41,0.0302917
,,,,,,,,,393,82.9128,0.0193125
,,,,,,,,,422,36.7457,0.0293913
,,,,,,,,,392,111.565,0.0552482
,,,,,,,,,421,55.4664,0.0271241
,,,,,,,,,451,34.1096,0.0523246
,,,,,,,,,450,88.1775,0.0283406
,,,,,,,,,481,78.1228,0.0570486
,,,,,,,,,512,58.6794,0.0275509
