Q	U	V
{$V$}	{[mm$^3$]}	0.00356709
{$d_v$}	{[mm]}	0.189571
{$S_c$}	{[mm$^2$]}	0.269603
{$S_o$}	{[mm$^2$]}	0.143809
{$S_l/S_o$}	[]	0.874730
{$\Psi$}	[]	0.418763
{$\eta$}	[]	0.445811
{med($\theta_e$)}	{[$^\circ$]}	
{$\Upsilon$}	[]	12
{$\Xi$}	[]	3
