facetNormals:0,facetNormals:1,facetNormals:2,FacetCenters:0,FacetCenters:1,FacetCenters:2,FacetIds,relFacetSize,absFacetSize,cellPairingIds,interplanarAngles,angleWeights
0.324996,-0.204265,-0.879799,5.84744,5.92839,6.82331,1,0.114821,0.0183606,8,38.5011,0.0363773
0.42431,0.420908,-0.780034,5.90016,5.9808,6.85082,2,0.0216122,0.00345592,13,54.2227,0.0339675
-0.260608,-0.775617,-0.542346,5.79792,5.88242,6.86143,3,0.019932,0.00318724,19,40.3997,0.0926118
0.812121,-0.304213,-0.435786,5.93557,5.92636,6.90264,4,0.0776015,0.0124089,26,85.3775,0.108046
0.316723,0.856962,-0.163575,5.90605,5.99932,6.93171,5,0.102025,0.0163144,34,64.0832,0.114897
0.310025,-0.905661,-0.136281,5.89776,5.87804,6.94087,6,0.114972,0.0183846,43,85.0035,0.0567604
-0.327698,-0.928751,0.000993088,5.79817,5.87637,6.90889,7,0.0376979,0.00602811,53,91.9941,0.0315168
0.813616,0.502958,0.221046,5.90551,5.99517,6.97536,8,0.0182652,0.00292071,64,107.471,0.0764098
-0.562455,-0.750579,0.287859,5.77629,5.88136,6.96338,9,0.0572558,0.00915553,76,130.04,0.0191138
-0.895428,0.283626,0.294227,5.71973,5.93814,6.99989,10,0.0104246,0.00166695,89,90.4603,0.0268865
0.574651,-0.705956,0.384842,5.80543,5.88271,6.96109,11,0.0152259,0.0024347,103,131.24,0.0565291
-0.0849461,0.842515,0.46933,5.89619,6.00433,6.99592,12,0.0374941,0.00599553,118,156.598,0.0644927
-0.530524,0.472772,0.676999,5.7868,5.9883,7.02694,13,0.0448389,0.00716999,134,122.193,0.0768904
0.225785,-0.54556,0.777614,5.81534,5.92237,7.01439,14,0.0577972,0.0092421,151,118.555,0.0856378
0.617883,0.186179,0.670254,5.92981,5.95496,7.01805,15,0.0682827,0.0109188,169,160.412,0.0226531
-0.44542,-0.105349,0.874434,5.83885,5.92479,7.03214,16,0.0125662,0.0020094,188,162.394,0.0392511
-0.0695911,0.0862135,0.983033,5.88386,5.94395,7.04918,17,0.0236715,0.00378522,18,90.8312,0.0207381
,,,,,,,,,25,54.3059,0.0338086
,,,,,,,,,33,46.9436,0.0356687
,,,,,,,,,42,98.6773,0.0363849
,,,,,,,,,52,123.257,0.0274737
,,,,,,,,,63,66.5118,0.0197982
,,,,,,,,,75,143.912,0.0313796
,,,,,,,,,88,120.442,0.0140649
,,,,,,,,,102,111.346,0.0178655
,,,,,,,,,117,92.8628,0.0274194
,,,,,,,,,133,125.072,0.0291663
,,,,,,,,,150,140.505,0.0314604
,,,,,,,,,168,101.5,0.0328326
,,,,,,,,,187,160.709,0.0158921
,,,,,,,,,207,141.429,0.0225951
,,,,,,,,,32,74.1226,0.0317173
,,,,,,,,,41,136.281,0.0333488
,,,,,,,,,51,42.8771,0.033974
,,,,,,,,,62,33.6051,0.0260765
,,,,,,,,,74,138.521,0.0190622
,,,,,,,,,87,53.5191,0.02957
,,,,,,,,,101,98.7031,0.0136894
,,,,,,,,,116,78.7615,0.0172639
,,,,,,,,,132,158.767,0.0260276
,,,,,,,,,149,128.184,0.0275966
,,,,,,,,,167,93.4353,0.0296417
,,,,,,,,,186,137.088,0.0308567
,,,,,,,,,206,106.579,0.0154143
,,,,,,,,,227,126.812,0.0216414
,,,,,,,,,50,85.6835,0.088153
,,,,,,,,,61,51.3059,0.0926606
,,,,,,,,,73,89.0424,0.0507446
,,,,,,,,,86,64.4191,0.0295703
,,,,,,,,,100,111.817,0.0658939
,,,,,,,,,115,170.318,0.01838
,,,,,,,,,131,57.6157,0.0254569
,,,,,,,,,148,124.322,0.0505597
,,,,,,,,,166,155.922,0.0568369
,,,,,,,,,185,89.3677,0.066251
,,,,,,,,,205,80.2409,0.0726445
,,,,,,,,,226,137.899,0.0216298
,,,,,,,,,248,122.165,0.0362771
,,,,,,,,,72,136.934,0.108112
,,,,,,,,,85,169.872,0.0550537
,,,,,,,,,99,44.2625,0.0309835
,,,,,,,,,114,162.495,0.0733488
,,,,,,,,,130,95.5702,0.0189163
,,,,,,,,,147,121.989,0.0264974
,,,,,,,,,165,46.5191,0.0548361
,,,,,,,,,184,82.0255,0.0622984
,,,,,,,,,204,125.265,0.0737915
,,,,,,,,,225,73.4762,0.0818113
,,,,,,,,,247,114.123,0.0223763
,,,,,,,,,270,96.8153,0.0384273
,,,,,,,,,98,39.0625,0.0567787
,,,,,,,,,113,104.233,0.0315225
,,,,,,,,,129,60.5674,0.076443
,,,,,,,,,146,127.137,0.0191159
,,,,,,,,,164,36.8094,0.0268906
,,,,,,,,,183,155.723,0.0565473
,,,,,,,,,203,136.197,0.0645164
,,,,,,,,,224,60.9703,0.076924
,,,,,,,,,246,94.3604,0.0856795
,,,,,,,,,269,99.7644,0.022656
,,,,,,,,,293,104.137,0.0392599
,,,,,,,,,128,139.346,0.0246076
,,,,,,,,,145,24.1495,0.0454626
,,,,,,,,,163,88.2086,0.0163327
,,,,,,,,,182,61.279,0.0216909
,,,,,,,,,202,142.276,0.0375957
,,,,,,,,,223,105.884,0.0409595
,,,,,,,,,245,63.206,0.0456323
,,,,,,,,,268,114.138,0.0485771
,,,,,,,,,292,75.4212,0.0188492
,,,,,,,,,317,93.3121,0.0290818
,,,,,,,,,162,143.224,0.0276953
,,,,,,,,,181,122.616,0.0132735
,,,,,,,,,201,78.252,0.0166076
,,,,,,,,,222,61.1664,0.024564
,,,,,,,,,244,92.6298,0.0259568
,,,,,,,,,267,85.1407,0.0277582
,,,,,,,,,291,35.4044,0.0288209
,,,,,,,,,316,103.251,0.0148889
,,,,,,,,,342,77.8724,0.0206199
,,,,,,,,,200,67.1208,0.0176378
,,,,,,,,,221,70.8898,0.0240549
,,,,,,,,,243,118.243,0.0453141
,,,,,,,,,266,81.7351,0.0502922
,,,,,,,,,290,58.091,0.0575252
,,,,,,,,,315,108.81,0.0622849
,,,,,,,,,341,53.1072,0.0206091
,,,,,,,,,368,74.6205,0.0334951
,,,,,,,,,242,128.2,0.0123758
,,,,,,,,,265,61.6086,0.0163135
,,,,,,,,,289,33.2028,0.0169163
,,,,,,,,,314,97.6609,0.0176633
,,,,,,,,,340,109.338,0.0180877
,,,,,,,,,367,49.8614,0.0113956
,,,,,,,,,395,67.2845,0.0144747
,,,,,,,,,288,118.939,0.0216571
,,,,,,,,,313,112.941,0.0227325
,,,,,,,,,339,32.463,0.0241023
,,,,,,,,,366,58.4176,0.0248996
,,,,,,,,,394,80.8608,0.0137687
,,,,,,,,,423,73.513,0.0185318
,,,,,,,,,338,36.7749,0.0408389
,,,,,,,,,365,96.9185,0.0454827
,,,,,,,,,393,62.2843,0.0484076
,,,,,,,,,422,67.9016,0.0188236
,,,,,,,,,452,55.6858,0.029021
,,,,,,,,,392,81.0711,0.0505
,,,,,,,,,421,76.4483,0.0541315
,,,,,,,,,451,36.5204,0.0196308
,,,,,,,,,482,40.0538,0.0309852
,,,,,,,,,450,52.0122,0.0626039
,,,,,,,,,481,48.6319,0.0206439
,,,,,,,,,513,43.4096,0.0335871
,,,,,,,,,512,71.508,0.021226
,,,,,,,,,545,46.641,0.0351557
,,,,,,,,,578,25.4663,0.0164172
