Q	U	V
{$V$}	{[mm$^3$]}	0.0028475
{$d_v$}	{[mm]}	0.175855
{$S_c$}	{[mm$^2$]}	0.210298
{$S_o$}	{[mm$^2$]}	0.124234
{$S_l/S_o$}	[]	0.692757
{$\Psi$}	[]	0.461982
{$\eta$}	[]	0.490927
{med($\theta_e$)}	{[$^\circ$]}	65.14425
{$\Upsilon$}	[]	10
{$\Xi$}	[]	10
