Q	U	V
{$V$}	{[mm$^3$]}	0.00404444
{$d_v$}	{[mm]}	0.197676
{$S_c$}	{[mm$^2$]}	0.235337
{$S_o$}	{[mm$^2$]}	0.128006
{$S_l/S_o$}	[]	0.838484
{$\Psi$}	[]	0.521634
{$\eta$}	[]	0.604027
{med($\theta_e$)}	{[$^\circ$]}	54.9966
{$\Upsilon$}	[]	13
{$\Xi$}	[]	8
