"cellPairingIds","interplanarAngles","angleWeights"
8,31.4101,0.048982
13,39.2078,0.0461763
19,64.8541,0.0630267
34,54.0278,0.0707545
18,35.6284,0.0308427
25,73.0162,0.0375478
88,61.0187,0.0167369
150,94.221,0.0280206
51,77.6553,0.0382551
87,64.4664,0.0497887
101,57.8415,0.0163965
61,68.3528,0.0491389
73,53.9522,0.0335291
86,34.3054,0.0335731
185,69.8852,0.0321145
98,27.0979,0.0355974
129,56.7926,0.0796045
183,55.0869,0.0448171
128,71.1752,0.0266474
202,47.2192,0.0314591
223,53.6585,0.0157527
292,76.9632,0.0168589
244,54.2136,0.0157624
267,41.9047,0.025746
369,73.1369,0.0262954
200,97.1701,0.0210925
243,55.8255,0.0615101
315,48.7736,0.0324893
341,70.1897,0.0228383
368,79.0154,0.0619119
314,78.5476,0.0155633
395,41.032,0.0175268
424,78.0904,0.0157623
422,33.0973,0.0186787
451,42.7687,0.0117328
514,67.6222,0.015629
546,44.3276,0.0253921
512,66.4479,0.0146932
545,30.6128,0.0247374
578,77.9152,0.0187156
613,60.7553,0.0167173
648,57.7937,0.0310713
