facetNormals:0,facetNormals:1,facetNormals:2,FacetCenters:0,FacetCenters:1,FacetCenters:2,FacetIds,relFacetSize,absFacetSize,cellPairingIds,interplanarAngles,angleWeights
-0.319884,-0.190745,-0.884358,4.04202,5.84227,4.79863,1,0.212642,0.0492202,8,68.8163,0.0181403
0.603459,0.33944,-0.668994,4.14894,5.87595,4.86697,2,0.00947429,0.00219301,13,95.549,0.0448738
-0.173047,0.932267,-0.038915,4.05914,5.94892,4.85804,3,0.0250836,0.00580611,19,75.1303,0.098938
-0.885689,0.271632,0.00381737,4.01566,5.90181,4.85915,4,0.0644665,0.0149221,26,72.3856,0.166547
-0.1113,-0.902071,-0.0643643,4.13703,5.74497,4.84299,5,0.136876,0.0316826,34,108.2,0.0886508
0.511063,-0.745877,0.298733,4.19733,5.74414,4.86812,6,0.0559983,0.0129619,43,148.848,0.0941979
0.334803,0.640586,0.632794,4.0756,5.93164,4.89562,7,0.0604992,0.0140038,53,137.161,0.0461521
0.306138,-0.515995,0.789544,4.18036,5.80149,4.9405,8,0.0258851,0.00599163,64,126.1,0.154575
-0.282594,-0.431584,0.808379,4.08495,5.80633,4.93101,9,0.121419,0.0281048,76,130.762,0.109106
-0.481807,0.166081,0.826148,4.02308,5.86936,4.91955,10,0.0733783,0.0169849,18,74.8973,0.0137537
,,,,,,,,,25,119.916,0.0165206
,,,,,,,,,33,112.118,0.0177219
,,,,,,,,,42,99.0764,0.0162066
,,,,,,,,,52,90.2388,0.016383
,,,,,,,,,63,122.902,0.0138714
,,,,,,,,,75,158.3,0.017577
,,,,,,,,,88,147.371,0.0167818
,,,,,,,,,32,62.4705,0.036115
,,,,,,,,,41,161.33,0.0423975
,,,,,,,,,51,151.668,0.0346474
,,,,,,,,,62,55.6321,0.0354636
,,,,,,,,,74,126.878,0.0254781
,,,,,,,,,87,115.021,0.0415778
,,,,,,,,,101,77.0741,0.0373869
,,,,,,,,,50,100.008,0.0876508
,,,,,,,,,61,137.857,0.0599348
,,,,,,,,,73,97.7564,0.0624199
,,,,,,,,,86,116.387,0.0369384
,,,,,,,,,100,81.1848,0.084218
,,,,,,,,,115,58.1155,0.0686343
,,,,,,,,,72,46.549,0.07948
,,,,,,,,,85,138.525,0.0839101
,,,,,,,,,99,65.0904,0.0435368
,,,,,,,,,114,65.0389,0.128685
,,,,,,,,,130,99.7224,0.0955388
,,,,,,,,,98,97.3896,0.0581618
,,,,,,,,,113,34.6088,0.0354046
,,,,,,,,,129,62.689,0.076647
,,,,,,,,,146,97.6665,0.0635209
,,,,,,,,,128,73.4364,0.0362573
,,,,,,,,,145,81.2301,0.0807588
,,,,,,,,,163,59.8859,0.0663193
,,,,,,,,,162,35.4733,0.0426729
,,,,,,,,,181,64.1907,0.03827
,,,,,,,,,200,38.1202,0.0914747
