Q	U	V
{$V$}	{[mm$^3$]}	0.0088061
{$d_v$}	{[mm]}	0.256209
{$S_c$}	{[mm$^2$]}	0.503339
{$S_o$}	{[mm$^2$]}	0.268827
{$S_l/S_o$}	[]	0.872353
{$\Psi$}	[]	0.409713
{$\eta$}	[]	0.463884
{med($\theta_e$)}	{[$^\circ$]}	75.6405
{$\Upsilon$}	[]	10
{$\Xi$}	[]	7
