Q	U	V
{$V$}	{[mm$^3$]}	0.00220746
{$d_v$}	{[mm]}	0.161547
{$S_c$}	{[mm$^2$]}	0.128833
{$S_o$}	{[mm$^2$]}	0.0770877
{$S_l/S_o$}	[]	0.671252
{$\Psi$}	[]	0.636383
{$\eta$}	[]	0.655675
{med($\theta_e$)}	{[$^\circ$]}	53.9832
{$\Upsilon$}	[]	15
{$\Xi$}	[]	9
