"cellPairingIds","interplanarAngles","angleWeights"
8,34.6667,0.0218467
19,26.1269,0.0270472
34,75.7337,0.05048
25,59.6299,0.013567
33,58.8683,0.0197244
42,81.6303,0.0176847
63,54.2882,0.00359445
75,70.3796,0.0147552
61,83.919,0.0209447
73,22.0851,0.0233676
100,34.4249,0.0169573
131,48.3388,0.0257736
148,90.2316,0.02698
72,45.5527,0.0404285
99,48.1162,0.00405851
130,27.4847,0.0515372
184,62.052,0.05951
183,58.2801,0.0502463
203,52.7599,0.0441479
145,32.0938,0.0271307
182,28.9539,0.0599292
162,110.291,0.0037955
181,47.7001,0.00405003
244,89.3476,0.00409312
291,128.895,0.0040376
316,123.888,0.00401418
369,113.41,0.00394241
221,56.6495,0.0304286
315,47.6867,0.0268546
289,43.612,0.0577383
288,49.2672,0.091269
339,31.053,0.0422797
366,54.2794,0.0585986
338,53.8622,0.0835365
365,34.0332,0.0456265
422,29.9068,0.0596116
452,34.8063,0.0405611
451,39.2608,0.051218
450,50.8125,0.0356815
513,22.1916,0.0267741
545,57.4924,0.0325068
579,77.5514,0.0364706
578,28.2936,0.0310484
613,21.4368,0.0346449
648,31.936,0.0272159
