Q	U	V
{$V$}	{[mm$^3$]}	0.00308855
{$d_v$}	{[mm]}	0.180684
{$S_c$}	{[mm$^2$]}	0.221433
{$S_o$}	{[mm$^2$]}	0.121399
{$S_l/S_o$}	[]	0.824010
{$\Psi$}	[]	0.463175
{$\eta$}	[]	0.490333
{med($\theta_e$)}	{[$^\circ$]}	60.4458
{$\Upsilon$}	[]	17
{$\Xi$}	[]	7
