"cellPairingIds","interplanarAngles","angleWeights"
8,78.0463,0.0310997
13,103.085,0.0529485
19,47.452,0.0495619
26,50.4053,0.0427073
34,103.516,0.0324965
18,59.1894,0.0576073
25,67.1429,0.053621
52,97.8301,0.0468168
51,90.4148,0.0625906
62,125.425,0.123587
87,95.7623,0.0171099
50,38.8874,0.100909
73,76.0739,0.106587
72,98.6972,0.0487668
85,75.6567,0.0792368
114,110.085,0.0158794
129,55.1033,0.0142183
145,60.0594,0.0160137
