"cellPairingIds","interplanarAngles","angleWeights"
8,41.526,0.0287513
19,131.55,0.0369135
64,59.977,0.047673
76,62.9201,0.044447
18,42.8758,0.0288666
25,111.998,0.0282921
33,82.6644,0.038027
42,59.1821,0.0302732
88,85.4381,0.0325162
41,40.3394,0.0558569
51,29.5598,0.0405872
62,61.7913,0.0435673
50,58.3614,0.0537449
86,41.2573,0.0486197
100,140.214,0.0464237
131,74.1775,0.0482466
85,38.6864,0.0684552
147,53.2785,0.0856281
98,40.8889,0.0468527
146,84.8988,0.0481925
163,92.6537,0.0524526
182,25.342,0.0597781
223,69.9222,0.0301239
162,106.186,0.0691865
201,57.2957,0.0733148
222,64.8673,0.0777589
244,65.4939,0.0332143
200,31.2876,0.0590004
243,42.9142,0.07229
266,59.4639,0.0321746
289,57.4621,0.0306722
313,52.3575,0.0330398
338,29.4895,0.0339133
