facetNormals:0,facetNormals:1,facetNormals:2,FacetCenters:0,FacetCenters:1,FacetCenters:2,FacetIds,relFacetSize,absFacetSize,cellPairingIds,interplanarAngles,angleWeights
0.585003,-0.203151,-0.752201,5.88836,6.95212,5.88275,1,0.0311054,0.00501629,8,37.8578,0.0398035
0.914048,0.129713,-0.32515,5.88231,6.96301,5.90547,2,0.0552543,0.00891071,13,61.1813,0.0485555
-0.0397476,-0.869719,-0.392254,5.83914,6.92603,5.90093,3,0.110604,0.0178368,19,92.5888,0.0509025
-0.647514,-0.658779,-0.269372,5.7495,6.95057,5.9073,4,0.140015,0.0225797,26,62.6496,0.025601
0.675393,0.666685,-0.236869,5.7715,6.94105,5.92629,5,0.0217517,0.00350784,34,97.818,0.0199215
-0.168043,0.934983,-0.211721,5.76508,6.9679,5.92111,6,0.014653,0.00236305,43,59.1802,0.0306935
0.714137,-0.672489,0.0836784,5.88685,6.91738,5.94946,7,0.0302923,0.00488515,53,92.56,0.0273809
0.173808,-0.854157,0.421888,5.83853,6.92622,5.97827,8,0.0244529,0.00394345,64,75.6686,0.0207224
0.898503,-0.0632098,0.399882,5.82282,6.95081,5.93898,9,0.0155363,0.0025055,76,90.6013,0.0339848
0.536103,-0.563181,0.582244,5.82723,6.94215,5.99033,10,0.0374517,0.00603973,89,95.3211,0.0481657
0.617917,0.596686,0.435082,5.84139,6.97963,5.95123,11,0.106671,0.0172026,103,156.466,0.0440456
-0.291726,0.465505,0.794623,5.79961,6.9611,6.01668,12,0.0754217,0.012163,18,91.3245,0.0736936
,,,,,,,,,25,128.768,0.0792386
,,,,,,,,,33,35.3535,0.0312151
,,,,,,,,,42,87.8029,0.0231633
,,,,,,,,,52,56.0381,0.0391314
,,,,,,,,,63,95.3941,0.0339023
,,,,,,,,,75,44.9176,0.0242532
,,,,,,,,,88,76.1465,0.0446437
,,,,,,,,,102,57.9063,0.0727995
,,,,,,,,,117,119.433,0.0637818
,,,,,,,,,32,39.9515,0.123584
,,,,,,,,,41,123.371,0.036354
,,,,,,,,,51,141.115,0.0258777
,,,,,,,,,62,56.1493,0.047559
,,,,,,,,,74,51.9086,0.0400511
,,,,,,,,,87,98.4074,0.0272455
,,,,,,,,,101,74.9977,0.0559561
,,,,,,,,,116,140.961,0.108602
,,,,,,,,,132,139.836,0.0896859
,,,,,,,,,50,149.716,0.0376538
,,,,,,,,,61,118.727,0.0265296
,,,,,,,,,73,92.5371,0.0498084
,,,,,,,,,86,68.8292,0.0416345
,,,,,,,,,100,133.097,0.0279691
,,,,,,,,,115,98.1785,0.0590961
,,,,,,,,,131,169.305,0.12109
,,,,,,,,,148,110.915,0.0980349
,,,,,,,,,72,53.9678,0.0175103
,,,,,,,,,85,89.1572,0.0253212
,,,,,,,,,99,125.645,0.0230233
,,,,,,,,,114,60.8195,0.018126
,,,,,,,,,130,99.1627,0.02752
,,,,,,,,,147,40.8815,0.036135
,,,,,,,,,165,94.5468,0.0337655
,,,,,,,,,98,143.124,0.0197517
,,,,,,,,,113,166.68,0.018325
,,,,,,,,,129,107.897,0.0150817
,,,,,,,,,146,141.503,0.0210645
,,,,,,,,,164,67.281,0.0257665
,,,,,,,,,183,70.3594,0.0245386
,,,,,,,,,128,39.6711,0.0270611
,,,,,,,,,145,42.2984,0.0205387
,,,,,,,,,163,32.0796,0.0334937
,,,,,,,,,182,85.3761,0.047185
,,,,,,,,,202,118.574,0.0432241
,,,,,,,,,162,66.6101,0.0190005
,,,,,,,,,181,29.3588,0.0295875
,,,,,,,,,201,103.565,0.0397855
,,,,,,,,,222,96.9425,0.0369319
,,,,,,,,,200,38.4107,0.021962
,,,,,,,,,221,43.2239,0.0271224
,,,,,,,,,243,88.4221,0.0257652
,,,,,,,,,242,74.5895,0.0554391
,,,,,,,,,265,87.306,0.0500503
,,,,,,,,,288,61.5435,0.0883651
