facetNormals:0,facetNormals:1,facetNormals:2,FacetCenters:0,FacetCenters:1,FacetCenters:2,FacetIds,relFacetSize,absFacetSize,cellPairingIds,interplanarAngles,angleWeights
0.0997055,-0.196684,-0.954994,5.82522,4.36572,5.38475,1,0.029355,0.00384326,8,40.8189,0.0478101
0.211261,0.455473,-0.815681,5.86308,4.4137,5.40813,2,0.128759,0.0168576,13,29.3864,0.0211917
0.434728,-0.503735,-0.742369,5.83966,4.33195,5.39225,3,0.0165808,0.00217082,19,34.4148,0.0247078
0.134647,-0.705726,-0.675592,5.8433,4.32658,5.40082,4,0.0213309,0.00279272,26,36.5402,0.0372804
-0.334113,-0.565379,-0.725154,5.77531,4.32224,5.39808,5,0.0510678,0.00668597,34,62.1992,0.029266
0.837289,0.0124482,-0.349487,5.90606,4.38736,5.42368,6,0.0291775,0.00382002,43,88.2944,0.0457444
-0.513193,0.716759,-0.22902,5.78617,4.44654,5.4514,7,0.103569,0.0135596,53,69.0362,0.0423511
-0.869004,-0.00942996,-0.447762,5.71849,4.364,5.42844,8,0.075996,0.00994966,64,74.8815,0.04
0.489199,-0.795431,-0.0352466,5.84837,4.30988,5.44056,9,0.0627579,0.00821649,76,92.818,0.0298354
0.223352,0.929644,-0.119526,5.83114,4.45313,5.44429,10,0.0303317,0.00397114,89,89.7225,0.0368889
-0.290717,-0.908052,0.151864,5.77745,4.30173,5.4698,11,0.049625,0.00649707,103,117.72,0.0269136
0.570683,0.69878,0.383702,5.82741,4.44806,5.4566,12,0.0248471,0.00325307,118,118.615,0.03015
-0.516362,-0.62158,0.556328,5.80552,4.35112,5.52615,13,0.0309893,0.00405723,134,123.971,0.0185619
0.610679,-0.333849,0.697644,5.81977,4.32186,5.49506,14,0.0135718,0.00177687,151,136.123,0.0379728
-0.73339,0.210734,0.5966,5.76906,4.40201,5.52033,15,0.0537531,0.00703755,169,162.95,0.039871
-0.350258,0.0534702,0.917174,5.75129,4.38452,5.50936,16,0.0621273,0.00813393,188,147.054,0.0325635
-0.047722,-0.353799,0.908936,5.77082,4.32151,5.50412,17,0.0365595,0.00478649,18,60.6558,0.0293785
,,,,,,,,,25,74.1448,0.0365987
,,,,,,,,,33,73.6751,0.0731308
,,,,,,,,,42,57.449,0.0475745
,,,,,,,,,52,62.3495,0.114798
,,,,,,,,,63,79.0824,0.0955794
,,,,,,,,,75,104.903,0.0843858
,,,,,,,,,88,52.0068,0.0490976
,,,,,,,,,102,130.362,0.0716394
,,,,,,,,,117,82.2976,0.0416558
,,,,,,,,,133,154.196,0.0499555
,,,,,,,,,150,128.852,0.0245554
,,,,,,,,,168,126.021,0.0758438
,,,,,,,,,187,147.897,0.0838138
,,,,,,,,,207,167.347,0.056949
,,,,,,,,,32,21.3701,0.0186583
,,,,,,,,,41,45.9697,0.0250337
,,,,,,,,,51,46.9791,0.0211453
,,,,,,,,,62,117.136,0.0285853
,,,,,,,,,74,92.389,0.0272223
,,,,,,,,,87,46.6488,0.0262313
,,,,,,,,,101,107.101,0.021441
,,,,,,,,,116,76.8912,0.0248565
,,,,,,,,,132,113.438,0.0198893
,,,,,,,,,149,109.369,0.021603
,,,,,,,,,167,94.9202,0.0149262
,,,,,,,,,186,153.997,0.025344
,,,,,,,,,206,151.337,0.0261757
,,,,,,,,,227,122.097,0.0228146
,,,,,,,,,50,28.9929,0.0300923
,,,,,,,,,61,67.6654,0.0246447
,,,,,,,,,73,117.893,0.0353759
,,,,,,,,,86,78.5041,0.0333118
,,,,,,,,,100,45.0554,0.0318398
,,,,,,,,,115,125.015,0.0250473
,,,,,,,,,131,58.3875,0.0298368
,,,,,,,,,148,134.32,0.0229552
,,,,,,,,,166,90.3975,0.0252686
,,,,,,,,,185,99.0872,0.0165889
,,,,,,,,,205,132.922,0.0305419
,,,,,,,,,226,136.599,0.031758
,,,,,,,,,248,112.646,0.0269422
,,,,,,,,,72,92.1534,0.0371369
,,,,,,,,,85,94.3574,0.0684059
,,,,,,,,,99,49.5618,0.0610866
,,,,,,,,,114,70.0571,0.0563125
,,,,,,,,,130,123.01,0.0380586
,,,,,,,,,147,58.0097,0.050336
,,,,,,,,,165,154.26,0.0334292
,,,,,,,,,184,82.786,0.038572
,,,,,,,,,204,122.724,0.0214445
,,,,,,,,,225,108.886,0.0523761
,,,,,,,,,247,126.955,0.0560573
,,,,,,,,,270,117.635,0.0426126
,,,,,,,,,98,114.348,0.0455287
,,,,,,,,,113,130.087,0.042166
,,,,,,,,,129,60.9284,0.0398349
,,,,,,,,,146,74.0433,0.0297435
,,,,,,,,,164,110.569,0.0367484
,,,,,,,,,183,66.6617,0.0268388
,,,,,,,,,203,135.461,0.0300561
,,,,,,,,,224,72.8719,0.0185263
,,,,,,,,,246,158.894,0.037824
,,,,,,,,,269,133.413,0.039707
,,,,,,,,,293,114.114,0.032454
,,,,,,,,,128,52.5243,0.0876654
,,,,,,,,,145,162.81,0.0781565
,,,,,,,,,163,48.7115,0.0469217
,,,,,,,,,182,127.592,0.0670993
,,,,,,,,,202,82.2698,0.0400789
,,,,,,,,,223,110.159,0.0477046
,,,,,,,,,245,142.541,0.0239988
,,,,,,,,,268,63.7072,0.0707739
,,,,,,,,,292,89.4866,0.0776656
,,,,,,,,,317,119.447,0.0540422
,,,,,,,,,162,116.094,0.0687455
,,,,,,,,,181,99.1221,0.0433582
,,,,,,,,,201,78.1888,0.0600425
,,,,,,,,,222,134.712,0.0374499
,,,,,,,,,244,77.6291,0.0440259
,,,,,,,,,267,150.672,0.0230307
,,,,,,,,,291,67.1183,0.062968
,,,,,,,,,316,96.3794,0.0683654
,,,,,,,,,342,112.295,0.049369
,,,,,,,,,200,134.045,0.0408973
,,,,,,,,,221,50.431,0.0554241
,,,,,,,,,243,108.465,0.0355996
,,,,,,,,,266,75.973,0.0414908
,,,,,,,,,290,54.1209,0.0223174
,,,,,,,,,315,127.214,0.0579076
,,,,,,,,,341,105.543,0.062441
,,,,,,,,,368,75.6586,0.0462033
,,,,,,,,,242,175.38,0.0376507
,,,,,,,,,265,39.2809,0.0273169
,,,,,,,,,289,143.479,0.030657
,,,,,,,,,314,105.726,0.0187528
,,,,,,,,,340,92.4076,0.0387805
,,,,,,,,,367,98.3848,0.0407625
,,,,,,,,,395,118.447,0.0331557
,,,,,,,,,288,141.635,0.0331141
,,,,,,,,,313,32.4804,0.0381531
,,,,,,,,,339,75.9133,0.0213144
,,,,,,,,,366,83.0935,0.0516066
,,,,,,,,,394,78.2966,0.0551768
,,,,,,,,,423,59.8758,0.0421019
,,,,,,,,,338,122.413,0.0275804
,,,,,,,,,365,66.6512,0.0175549
,,,,,,,,,393,92.5566,0.0339849
,,,,,,,,,422,78.6689,0.0354974
,,,,,,,,,452,85.5491,0.0295863
,,,,,,,,,392,73.1461,0.0188766
,,,,,,,,,421,52.4145,0.0393138
,,,,,,,,,451,46.9996,0.0413521
,,,,,,,,,482,38.4568,0.0335447
,,,,,,,,,450,96.1347,0.0216719
,,,,,,,,,481,65.0892,0.0222772
,,,,,,,,,513,41.2879,0.0197952
,,,,,,,,,512,31.1176,0.0576377
,,,,,,,,,545,57.8946,0.0435196
,,,,,,,,,578,30.0087,0.0460313
