"cellPairingIds","interplanarAngles","angleWeights"
8,25.9349,0.0684596
13,39.635,0.106236
34,73.3553,0.0387174
76,144.278,0.024794
18,36.2495,0.0797016
25,47.6092,0.0254088
33,42.7003,0.0742483
42,79.736,0.034528
63,94.6114,0.0586693
62,64.3773,0.135174
74,84.291,0.0843842
101,106.424,0.0261287
50,41.1611,0.0285032
61,35.322,0.0197717
72,72.904,0.0405033
99,72.2213,0.0782958
114,83.0553,0.0869982
147,83.9246,0.0333216
165,89.9404,0.0607374
146,141.582,0.0182858
183,79.924,0.0312911
128,42.5117,0.0840636
163,42.4784,0.0260979
162,34.0591,0.0663533
181,50.1659,0.0233809
200,45.7004,0.0241008
221,22.2816,0.0309508
243,36.4465,0.0532961
265,65.8995,0.0215229
288,14.7291,0.0268246
