Q	U	V
{$V$}	{[mm$^3$]}	0.00611297
{$d_v$}	{[mm]}	0.226856
{$S_c$}	{[mm$^2$]}	0.281825
{$S_o$}	{[mm$^2$]}	0.171022
{$S_l/S_o$}	[]	0.647887
{$\Psi$}	[]	0.573684
{$\eta$}	[]	0.619271
{med($\theta_e$)}	{[$^\circ$]}	54.3893
{$\Upsilon$}	[]	15
{$\Xi$}	[]	9
