"cellPairingIds","interplanarAngles","angleWeights"
8,51.9524,0.0428989
13,60.8224,0.0441591
26,79.145,0.0210273
53,89.6791,0.0201789
76,101.598,0.0383061
89,95.7619,0.0448903
134,144.094,0.0627213
18,60.2636,0.0512496
25,43.8175,0.022425
42,53.5427,0.0457687
75,64.8079,0.0146121
88,86.4686,0.0435303
32,46.9866,0.0227646
41,28.7382,0.0228524
62,46.0166,0.0722548
61,30.1496,0.0216148
73,41.638,0.0256932
85,40.1673,0.0258052
99,28.8425,0.0141502
98,57.0513,0.0618177
129,41.3526,0.0142637
183,58.327,0.049546
203,54.035,0.0589377
128,58.42,0.0245392
202,49.5244,0.0778851
201,44.1978,0.0220315
222,82.6323,0.0223425
200,40.0243,0.0140388
266,42.8799,0.0157345
289,58.5095,0.0552775
314,57.5379,0.0640804
288,95.1773,0.0572157
339,71.6698,0.0849156
338,36.1178,0.0733681
365,60.9342,0.0897282
392,46.4217,0.126126
