Q	U	V
{$V$}	{[mm$^3$]}	0.00914928
{$d_v$}	{[mm]}	0.259495
{$S_c$}	{[mm$^2$]}	0.351947
{$S_o$}	{[mm$^2$]}	0.223467
{$S_l/S_o$}	[]	0.574939
{$\Psi$}	[]	0.601079
{$\eta$}	[]	0.630416
{med($\theta_e$)}	{[$^\circ$]}	52.1936
{$\Upsilon$}	[]	17
{$\Xi$}	[]	9
