facetNormals:0,facetNormals:1,facetNormals:2,FacetCenters:0,FacetCenters:1,FacetCenters:2,FacetIds,relFacetSize,absFacetSize,cellPairingIds,interplanarAngles,angleWeights
-0.058314,0.498233,-0.829252,3.23377,4.60872,4.05795,1,0.10488,0.0152719,8,31.1714,0.0398092
0.402725,0.650547,-0.626059,3.26762,4.62296,4.07427,2,0.024567,0.00357728,13,78.7684,0.0583361
0.605291,-0.495839,-0.559438,3.28009,4.49855,4.04638,3,0.040405,0.0058835,19,64.4226,0.103754
0.536037,0.787271,-0.045817,3.27955,4.6423,4.13026,4,0.102651,0.0149474,26,83.6636,0.0945075
0.906782,0.339156,0.015113,3.31547,4.57572,4.11728,5,0.0860019,0.012523,34,97.0845,0.0103917
-0.91316,-0.364659,-0.0131341,3.21096,4.50739,4.12561,6,0.00546667,0.000796019,43,142.508,0.08014
0.296738,-0.850039,0.371645,3.30161,4.50029,4.12159,7,0.064844,0.00944214,53,126.463,0.0783316
0.749166,-0.472861,0.316693,3.29703,4.50467,4.12737,8,0.0625086,0.00910207,64,83.9252,0.0908416
-0.332109,0.804357,0.388747,3.15841,4.67404,4.1715,9,0.0801175,0.0116662,76,136.06,0.032037
-0.511984,-0.0478733,0.826258,3.17495,4.60568,4.19649,10,0.0189061,0.00275297,89,147.208,0.116637
0.16811,0.022762,0.949366,3.2429,4.5975,4.20615,11,0.131362,0.0191281,18,73.4142,0.0305556
,,,,,,,,,25,36.6081,0.0396458
,,,,,,,,,33,52.9784,0.038217
,,,,,,,,,42,127.868,0.00894327
,,,,,,,,,52,133.773,0.0356337
,,,,,,,,,63,102.681,0.0352716
,,,,,,,,,75,81.0773,0.0376034
,,,,,,,,,88,141.659,0.021368
,,,,,,,,,102,122.47,0.0413928
,,,,,,,,,32,92.5164,0.0579859
,,,,,,,,,41,66.4412,0.0549797
,,,,,,,,,51,112.67,0.00963037
,,,,,,,,,62,65.1866,0.0497871
,,,,,,,,,74,55.6392,0.0490831
,,,,,,,,,87,153.067,0.0537185
,,,,,,,,,101,143.081,0.0257591
,,,,,,,,,116,118.36,0.061801
,,,,,,,,,50,35.4205,0.0935919
,,,,,,,,,61,145.848,0.0103805
,,,,,,,,,73,124.583,0.0794807
,,,,,,,,,86,89.0547,0.0777015
,,,,,,,,,100,61.2299,0.0899953
,,,,,,,,,115,112.157,0.0319311
,,,,,,,,,131,85.9757,0.115246
,,,,,,,,,72,178.732,0.0102799
,,,,,,,,,85,90.8264,0.0739391
,,,,,,,,,99,54.9045,0.072397
,,,,,,,,,114,91.3954,0.0829555
,,,,,,,,,130,119.779,0.0309978
,,,,,,,,,147,79.2292,0.103949
,,,,,,,,,98,87.9583,0.0100833
,,,,,,,,,113,123.887,0.0100541
,,,,,,,,,129,89.7037,0.010235
,,,,,,,,,146,60.3022,0.00848105
,,,,,,,,,164,100.589,0.0104965
,,,,,,,,,128,35.9383,0.0636549
,,,,,,,,,145,133.395,0.0716761
,,,,,,,,,163,78.0767,0.0292763
,,,,,,,,,182,65.9138,0.0868276
,,,,,,,,,162,124.356,0.070226
,,,,,,,,,181,96.2232,0.0290314
,,,,,,,,,201,62.722,0.0847087
,,,,,,,,,200,60.785,0.0305928
,,,,,,,,,221,68.8573,0.0995313
,,,,,,,,,242,42.0204,0.0330548
