"cellPairingIds","interplanarAngles","angleWeights"
34,90.1473,0.0336878
43,81.0136,0.0324497
53,69.798,0.0226137
76,138.906,0.0128987
98,81.9761,0.125228
146,91.4077,0.0182831
128,44.7477,0.0444009
163,139.781,0.0179122
181,137.648,0.0144442
