"cellPairingIds","interplanarAngles","angleWeights"
8,40.8635,0.0716565
13,34.6914,0.0568329
19,55.3138,0.0522808
26,48.9377,0.0712331
76,93.4478,0.105798
25,25.269,0.048735
52,44.2095,0.0500604
88,95.9128,0.0922203
32,79.1195,0.0413922
41,29.4515,0.0524382
51,50.3376,0.0417701
87,53.1973,0.0388396
61,93.0933,0.0392578
73,44.8243,0.0397648
86,32.1265,0.0558599
114,33.759,0.0450656
130,77.7661,0.0915201
165,64.0866,0.0310386
113,98.706,0.0565502
129,56.5651,0.0369543
203,52.6929,0.0362729
128,38.1036,0.0576081
163,86.7327,0.0646314
223,130.351,0.0367053
244,102.671,0.0500047
221,35.2261,0.0418644
243,49.7556,0.0257104
266,69.3395,0.0340424
265,34.7863,0.0361906
289,115.686,0.0552126
288,25.3999,0.0294857
313,62.4035,0.040992
338,85.8129,0.0253787
