Q	U	V
{$V$}	{[mm$^3$]}	0.00592536
{$d_v$}	{[mm]}	0.224512
{$S_c$}	{[mm$^2$]}	0.278319
{$S_o$}	{[mm$^2$]}	0.16957
{$S_l/S_o$}	[]	0.641322
{$\Psi$}	[]	0.568964
{$\eta$}	[]	0.641311
{med($\theta_e$)}	{[$^\circ$]}	63.63615
{$\Upsilon$}	[]	15
{$\Xi$}	[]	12
