facetNormals:0,facetNormals:1,facetNormals:2,FacetCenters:0,FacetCenters:1,FacetCenters:2,FacetIds,relFacetSize,absFacetSize,cellPairingIds,interplanarAngles,angleWeights
-0.471521,0.0298107,-0.832022,4.62581,5.56138,7.38186,1,0.0336897,0.0136776,8,60.9855,0.0284721
0.314315,-0.543403,-0.738024,4.67598,5.57783,7.39269,2,0.0246538,0.0100091,13,55.5975,0.0463284
-0.400152,-0.765355,-0.426491,4.57578,5.50717,7.46382,3,0.0741428,0.0301009,19,39.7089,0.0305273
-0.905037,0.0846947,-0.34384,4.53587,5.56085,7.47519,4,0.0279077,0.0113301,26,71.4962,0.0494007
0.0821908,0.841549,-0.350486,4.66832,5.60575,7.45655,5,0.0925698,0.037582,34,105.683,0.0376458
0.730204,-0.589714,-0.13995,4.71309,5.57382,7.46667,6,0.0426545,0.0173171,43,95.9943,0.0375484
-0.41579,-0.812551,0.32279,4.58469,5.55002,7.5412,7,0.0424052,0.0172159,53,83.095,0.0236917
-0.88328,0.212391,0.372438,4.49971,5.54854,7.55991,8,0.0182698,0.00741729,64,107.826,0.0552774
0.0468402,0.893431,0.342739,4.68666,5.59118,7.59853,9,0.153881,0.0624734,76,100.428,0.0373604
-0.536938,0.57809,0.521915,4.56683,5.5741,7.59152,10,0.0419287,0.0170225,89,134.852,0.05424
0.139976,-0.638549,0.639499,4.67361,5.51751,7.61578,11,0.139071,0.0564609,18,49.5983,0.0370033
,,,,,,,,,25,94.6739,0.02618
,,,,,,,,,33,101.236,0.0389375
,,,,,,,,,42,44.7261,0.0312471
,,,,,,,,,52,85.5595,0.03118
,,,,,,,,,63,134.596,0.0209871
,,,,,,,,,75,141.229,0.0424987
,,,,,,,,,88,161.283,0.0310503
,,,,,,,,,102,95.2438,0.0418828
,,,,,,,,,32,61.6874,0.0405516
,,,,,,,,,41,126.749,0.082338
,,,,,,,,,51,76.1483,0.0541541
,,,,,,,,,62,45.7597,0.0539528
,,,,,,,,,74,88.0579,0.0293158
,,,,,,,,,87,156.881,0.10007
,,,,,,,,,101,119.608,0.0535655
,,,,,,,,,116,79.5369,0.096721
,,,,,,,,,50,82.4161,0.0428862
,,,,,,,,,61,135.935,0.0337401
,,,,,,,,,73,77.9455,0.0336619
,,,,,,,,,86,43.7454,0.022083
,,,,,,,,,100,95.2113,0.0472468
,,,,,,,,,115,67.2547,0.0335107
,,,,,,,,,131,116.795,0.0464868
,,,,,,,,,72,116.473,0.0583995
,,,,,,,,,85,159.698,0.0581655
,,,,,,,,,99,91.5554,0.0305168
,,,,,,,,,114,43.5485,0.115599
,,,,,,,,,130,72.565,0.0577156
,,,,,,,,,147,153.638,0.111153
,,,,,,,,,98,81.8412,0.0425295
,,,,,,,,,113,151.957,0.0255822
,,,,,,,,,129,126.487,0.0667942
,,,,,,,,,146,153.879,0.0422885
,,,,,,,,,164,63.3485,0.0652853
,,,,,,,,,128,70.6537,0.0255372
,,,,,,,,,145,133.187,0.0664882
,,,,,,,,,163,94.8859,0.0421656
,,,,,,,,,182,41.1101,0.064993
,,,,,,,,,162,72.9356,0.0326618
,,,,,,,,,181,31.5596,0.0254501
,,,,,,,,,201,91.3457,0.0322968
,,,,,,,,,200,42.3115,0.065901
,,,,,,,,,221,113.172,0.146102
,,,,,,,,,242,97.3407,0.0644318
