Q	U	V
{$V$}	{[mm$^3$]}	0.00356946
{$d_v$}	{[mm]}	0.189613
{$S_c$}	{[mm$^2$]}	0.184254
{$S_o$}	{[mm$^2$]}	0.106375
{$S_l/S_o$}	[]	0.732118
{$\Psi$}	[]	0.613012
{$\eta$}	[]	0.647541
{med($\theta_e$)}	{[$^\circ$]}	52.2644
{$\Upsilon$}	[]	18
{$\Xi$}	[]	6
