facetNormals:0,facetNormals:1,facetNormals:2,FacetCenters:0,FacetCenters:1,FacetCenters:2,FacetIds,relFacetSize,absFacetSize,cellPairingIds,interplanarAngles,angleWeights
-0.232617,0.657835,-0.682528,3.76387,5.54819,4.37047,1,0.134171,0.00864759,8,96.6767,0.0298159
-0.0174186,-0.740449,-0.553942,3.74708,5.47617,4.40314,2,0.0167714,0.00108096,13,100.078,0.110677
0.914469,-0.163751,-0.229997,3.79751,5.51514,4.39137,3,0.0941849,0.00607042,19,51.3376,0.0394571
-0.787457,0.579446,-0.0476382,3.73375,5.54475,4.40554,4,0.0231296,0.00149075,26,68.315,0.129081
-0.343518,0.808116,0.388556,3.7379,5.55104,4.42419,5,0.124364,0.00801553,34,102.905,0.132553
-0.667719,0.146931,0.676331,3.70394,5.4916,4.45221,6,0.130975,0.00844161,43,166.688,0.0993673
0.410337,-0.520691,0.700863,3.77271,5.46546,4.45421,7,0.0789007,0.00508532,53,118.065,0.151814
0.627628,0.250099,0.664916,3.7863,5.52032,4.4401,8,0.1748,0.0112663,18,74.7569,0.0284727
,,,,,,,,,25,115.444,0.0194439
,,,,,,,,,33,155.42,0.0295569
,,,,,,,,,42,122.036,0.0297352
,,,,,,,,,52,90.6318,0.0276628
,,,,,,,,,63,130.076,0.0306063
,,,,,,,,,32,149.123,0.0371387
,,,,,,,,,41,125.666,0.107191
,,,,,,,,,51,149.155,0.109574
,,,,,,,,,62,71.0848,0.085868
,,,,,,,,,74,65.2332,0.122412
,,,,,,,,,50,39.9763,0.0390049
,,,,,,,,,61,52.064,0.0393161
,,,,,,,,,73,134.19,0.0357725
,,,,,,,,,86,114.243,0.0408534
,,,,,,,,,72,48.582,0.127584
,,,,,,,,,85,108.205,0.096548
,,,,,,,,,99,74.3944,0.145331
,,,,,,,,,98,82.3492,0.0984774
,,,,,,,,,113,85.7618,0.149747
,,,,,,,,,128,49.5487,0.108725
