Q	U	V
{$V$}	{[mm$^3$]}	0.00444105
{$d_v$}	{[mm]}	0.203937
{$S_c$}	{[mm$^2$]}	0.240735
{$S_o$}	{[mm$^2$]}	0.130405
{$S_l/S_o$}	[]	0.846057
{$\Psi$}	[]	0.542753
{$\eta$}	[]	0.577901
{med($\theta_e$)}	{[$^\circ$]}	47.2948
{$\Upsilon$}	[]	11
{$\Xi$}	[]	9
