Q	U	V
{$V$}	{[mm$^3$]}	0.00797608
{$d_v$}	{[mm]}	0.247893
{$S_c$}	{[mm$^2$]}	0.312793
{$S_o$}	{[mm$^2$]}	0.207729
{$S_l/S_o$}	[]	0.505774
{$\Psi$}	[]	0.617192
{$\eta$}	[]	0.673043
{med($\theta_e$)}	{[$^\circ$]}	59.93035
{$\Upsilon$}	[]	14
{$\Xi$}	[]	9
