"cellPairingIds","interplanarAngles","angleWeights"
8,50.5864,0.0346298
13,36.1689,0.112762
19,55.9656,0.0640239
43,98.9853,0.088428
103,148.863,0.0502852
52,71.654,0.037547
117,107.071,0.0284
32,58.1698,0.0914476
41,64.4522,0.0655109
62,84.4133,0.150951
74,74.3655,0.062953
132,174.48,0.0657781
50,27.7664,0.0454224
148,125.129,0.0455507
99,31.9494,0.0370848
165,116.111,0.0380475
202,91.5932,0.0566797
222,103.212,0.0371703
