facetNormals:0,facetNormals:1,facetNormals:2,FacetCenters:0,FacetCenters:1,FacetCenters:2,FacetIds,relFacetSize,absFacetSize,cellPairingIds,interplanarAngles,angleWeights
0.36659,0.178883,-0.863605,3.75854,5.17668,3.88432,1,0.066563,0.00408244,8,52.9714,0.0505844
-0.472504,0.0923537,-0.807683,3.75887,5.16272,3.88381,2,0.0407922,0.00250186,13,46.6517,0.0182172
-0.258628,0.60688,-0.732332,3.75353,5.17668,3.88506,3,0.0105526,0.000647215,19,55.3344,0.102545
0.243174,-0.671586,-0.638554,3.7191,5.09905,3.89383,4,0.223205,0.0136896,26,34.2407,0.0543174
0.51949,0.623448,-0.543098,3.7645,5.18903,3.89209,5,0.0458773,0.00281375,34,86.8228,0.0120266
-0.832702,0.398955,-0.330956,3.69263,5.14739,3.87897,6,0.00661051,0.000405436,43,65.0992,0.0304825
0.224002,0.942711,-0.167538,3.7908,5.19658,3.90311,7,0.0197675,0.00121238,53,79.1882,0.0506199
0.555166,0.780614,0.194574,3.76326,5.21253,3.94142,8,0.0408383,0.00250469,64,115.053,0.0352613
-0.712496,0.606749,0.280811,3.71595,5.14961,3.95243,9,0.0239831,0.00147093,76,122.137,0.0629573
0.252258,-0.796426,0.521475,3.69365,5.0757,3.96441,10,0.0597222,0.00366288,89,108.175,0.102457
0.705881,-0.2007,0.580946,3.77124,5.15019,3.95064,11,0.222373,0.0136386,103,142.337,0.0257134
-0.285497,0.422913,0.789105,3.72354,5.13791,3.96898,12,0.0159344,0.00097729,118,138.279,0.0361705
0.304983,-0.0276564,0.939102,3.77875,5.14637,3.94498,13,0.0248322,0.00152301,18,33.8453,0.0167676
,,,,,,,,,25,67.9071,0.0689781
,,,,,,,,,33,74.1502,0.0431856
,,,,,,,,,42,40.8535,0.0113773
,,,,,,,,,52,82.7592,0.0266302
,,,,,,,,,63,112.207,0.0408152
,,,,,,,,,75,79.5974,0.0302067
,,,,,,,,,88,131.528,0.0484746
,,,,,,,,,102,158.938,0.0689383
,,,,,,,,,117,121.63,0.0229169
,,,,,,,,,133,167.047,0.0308714
,,,,,,,,,32,90.1717,0.0201525
,,,,,,,,,41,48.1827,0.0171585
,,,,,,,,,51,43.6232,0.00812885
,,,,,,,,,62,48.9212,0.0137598
,,,,,,,,,74,78.7676,0.0167715
,,,,,,,,,87,68.89,0.0146564
,,,,,,,,,101,163.45,0.0179361
,,,,,,,,,116,142.287,0.0201491
,,,,,,,,,132,105.492,0.0126968
,,,,,,,,,149,143.576,0.0148112
,,,,,,,,,50,86.6649,0.0761109
,,,,,,,,,61,106.004,0.0128407
,,,,,,,,,73,120.042,0.0363185
,,,,,,,,,86,123.252,0.0690441
,,,,,,,,,100,144.286,0.0433123
,,,,,,,,,115,73.801,0.0942312
,,,,,,,,,131,94.1264,0.222788
,,,,,,,,,148,162.225,0.0297454
,,,,,,,,,166,122.389,0.0446923
,,,,,,,,,72,90.2459,0.0115559
,,,,,,,,,85,34.1024,0.0276299
,,,,,,,,,99,45.4658,0.0432114
,,,,,,,,,114,98.7031,0.0314994
,,,,,,,,,130,132.42,0.0518922
,,,,,,,,,147,94.6402,0.0760623
,,,,,,,,,165,109.958,0.0236534
,,,,,,,,,184,112.482,0.032223
,,,,,,,,,98,75.2836,0.00990774
,,,,,,,,,113,102.974,0.0113791
,,,,,,,,,129,39.2238,0.0103643
,,,,,,,,,146,136.473,0.0119035
,,,,,,,,,164,159.536,0.0128393
,,,,,,,,,183,80.9302,0.00934442
,,,,,,,,,203,126.463,0.0104414
,,,,,,,,,128,30.561,0.0266401
,,,,,,,,,145,67.6505,0.0216722
,,,,,,,,,163,143.82,0.0297034
,,,,,,,,,182,98.0203,0.0363075
,,,,,,,,,202,77.3394,0.0176452
,,,,,,,,,223,96.805,0.0220123
,,,,,,,,,162,82.0117,0.0302193
,,,,,,,,,181,113.263,0.0485072
,,,,,,,,,201,67.626,0.0690041
,,,,,,,,,222,69.2668,0.0229242
,,,,,,,,,244,69.9855,0.0308846
,,,,,,,,,200,122.466,0.034223
,,,,,,,,,221,120.313,0.0432966
,,,,,,,,,243,42.0665,0.0191473
,,,,,,,,,266,88.2407,0.0244003
,,,,,,,,,242,45.9529,0.0941568
,,,,,,,,,265,89.8353,0.0251568
,,,,,,,,,289,52.76,0.0350788
,,,,,,,,,288,78.7213,0.029738
,,,,,,,,,313,34.0076,0.0446755
,,,,,,,,,338,46.2151,0.0194123
