Q	U	V
{$V$}	{[mm$^3$]}	0.0116394
{$d_v$}	{[mm]}	0.281175
{$S_c$}	{[mm$^2$]}	0.405879
{$S_o$}	{[mm$^2$]}	0.261101
{$S_l/S_o$}	[]	0.554490
{$\Psi$}	[]	0.611939
{$\eta$}	[]	0.644810
{med($\theta_e$)}	{[$^\circ$]}	57.0598
{$\Upsilon$}	[]	14
{$\Xi$}	[]	11
