"cellPairingIds","interplanarAngles","angleWeights"
18,94.0003,0.00904806
25,91.1495,0.00739471
63,141.905,0.00802339
88,113.825,0.00802038
102,145.587,0.00910574
117,151.675,0.00947022
150,105.612,0.00919198
74,72.5383,0.032283
116,69.041,0.061876
86,61.6986,0.0179575
115,52.3814,0.0179424
148,84.6036,0.0272884
201,63.0974,0.0330295
222,57.6948,0.0383887
265,43.6163,0.0383198
288,51.5459,0.0890104
339,46.0202,0.0692958
365,73.039,0.0979986
