Q	U	V
{$V$}	{[mm$^3$]}	0.0192972
{$d_v$}	{[mm]}	0.332786
{$S_c$}	{[mm$^2$]}	0.511265
{$S_o$}	{[mm$^2$]}	0.387775
{$S_l/S_o$}	[]	0.318458
{$\Psi$}	[]	0.68051
{$\eta$}	[]	0.688324
{med($\theta_e$)}	{[$^\circ$]}	57.0391
{$\Upsilon$}	[]	13
{$\Xi$}	[]	13
