"cellPairingIds","interplanarAngles","angleWeights"
8,37.9593,0.0825354
13,42.8369,0.0603984
19,75.3904,0.0680506
34,86.1483,0.0720305
43,89.3206,0.132108
25,84.6691,0.0616846
33,40.4087,0.0324581
52,83.4452,0.110058
51,57.2257,0.0504025
62,61.1488,0.0739273
50,104.107,0.029951
61,89.2601,0.055622
86,129.037,0.0688869
100,95.993,0.0633827
85,72.42,0.0380771
99,65.2913,0.0343478
98,89.2728,0.0921396
129,95.6808,0.0668216
128,63.822,0.135297
145,99.3022,0.115583
162,46.0372,0.0869318
