facetNormals:0,facetNormals:1,facetNormals:2,FacetCenters:0,FacetCenters:1,FacetCenters:2,FacetIds,relFacetSize,absFacetSize,cellPairingIds,interplanarAngles,angleWeights
-0.0158317,0.545324,-0.729441,6.1016,4.02609,5.13014,1,0.0622173,0.0104697,8,52.7637,0.07046
-0.708611,0.064765,-0.679817,6.01295,4.03208,5.11408,2,0.0812203,0.0136675,13,92.6584,0.0292098
0.623219,-0.619978,-0.420575,6.10431,3.95938,5.13685,3,0.0190849,0.00321154,19,88.8939,0.0372365
0.263274,-0.729326,-0.57421,6.08982,3.96429,5.13424,4,0.0265688,0.00447091,26,62.3033,0.0245362
0.74614,0.616226,-0.121588,6.08551,4.04704,5.13475,5,0.0152813,0.00257147,34,113.073,0.049361
-0.11505,-0.941573,-0.224386,6.05928,3.95176,5.16975,6,0.040908,0.00688385,43,68.9112,0.0644288
-0.815608,0.496846,-0.040352,6.01362,4.05156,5.16945,7,0.0668034,0.0112414,53,51.9421,0.0333028
0.130755,0.950084,-0.0312209,6.08439,4.05312,5.15792,8,0.0227364,0.003826,64,133.279,0.0239857
0.339417,-0.923567,0.154915,6.10728,3.94125,5.22488,9,0.0148566,0.00250001,76,153.757,0.0379712
0.0641747,-0.86528,0.442743,6.17759,3.90931,5.23447,10,0.0273233,0.00459786,89,142.429,0.0713885
-0.515489,-0.677802,0.464553,6.09781,3.941,5.22146,11,0.0837309,0.0140899,103,148.465,0.034822
0.495459,-0.64296,0.555368,6.21724,3.93487,5.26316,12,0.0241767,0.00406836,118,104.382,0.0460492
-0.582994,0.444938,0.649051,6.06307,4.02972,5.20511,13,0.0365509,0.00615066,134,88.5424,0.0514772
-0.124655,0.785234,0.558871,6.05254,4.05043,5.19396,14,0.0438992,0.00738719,151,138.856,0.0806898
-0.576045,-0.267976,0.70371,6.08557,3.97574,5.24359,15,0.114763,0.019312,169,111.428,0.0276064
0.554458,0.372459,0.711684,6.18281,4.00082,5.23323,16,0.0177386,0.00298499,188,146.377,0.0302948
0.0985379,-0.0588284,0.983621,6.20492,3.9453,5.28003,17,0.020022,0.00336922,18,101.784,0.0309073
,,,,,,,,,25,80.5093,0.0400398
,,,,,,,,,33,115.034,0.0257229
,,,,,,,,,42,79.6048,0.054411
,,,,,,,,,52,47.3314,0.0733098
,,,,,,,,,63,90.6005,0.0355275
,,,,,,,,,75,114.445,0.0251186
,,,,,,,,,88,114.827,0.0408906
,,,,,,,,,102,89.6656,0.0824565
,,,,,,,,,117,142.734,0.0372617
,,,,,,,,,133,89.9586,0.0504143
,,,,,,,,,150,104.579,0.0569936
,,,,,,,,,168,95.3848,0.0951214
,,,,,,,,,187,152.576,0.0291179
,,,,,,,,,207,139.614,0.0321247
,,,,,,,,,32,24.1828,0.0222135
,,,,,,,,,41,81.8891,0.0169726
,,,,,,,,,51,50.3268,0.0260273
,,,,,,,,,62,149.109,0.0296883
,,,,,,,,,74,121.92,0.0207513
,,,,,,,,,87,42.2105,0.0167074
,,,,,,,,,101,65.7257,0.0224729
,,,,,,,,,116,95.8543,0.0310847
,,,,,,,,,132,60.3717,0.0213311
,,,,,,,,,149,162.894,0.0250763
,,,,,,,,,167,147.592,0.0266039
,,,,,,,,,186,121.944,0.0327273
,,,,,,,,,206,101.196,0.0183872
,,,,,,,,,227,109.101,0.0195422
,,,,,,,,,50,101.224,0.0194028
,,,,,,,,,61,33.3893,0.0322149
,,,,,,,,,73,126.913,0.0380175
,,,,,,,,,86,133.78,0.0245037
,,,,,,,,,100,45.4698,0.019057
,,,,,,,,,115,65.2326,0.0269408
,,,,,,,,,131,84.3667,0.040338
,,,,,,,,,148,72.809,0.0253164
,,,,,,,,,166,154.193,0.0307706
,,,,,,,,,185,171.11,0.033103
,,,,,,,,,205,113.195,0.0431484
,,,,,,,,,226,124.568,0.0212738
,,,,,,,,,248,121.269,0.0228354
,,,,,,,,,72,132.215,0.0222507
,,,,,,,,,85,108.608,0.0248729
,,,,,,,,,99,42.7862,0.0182779
,,,,,,,,,114,110.153,0.0150659
,,,,,,,,,130,124.577,0.0196005
,,,,,,,,,147,155.194,0.0258456
,,,,,,,,,165,95.6268,0.0187263
,,,,,,,,,184,104.536,0.021552
,,,,,,,,,204,70.0813,0.0226708
,,,,,,,,,225,137.387,0.0269712
,,,,,,,,,247,54.2116,0.0164185
,,,,,,,,,270,94.8896,0.0173333
,,,,,,,,,98,113.058,0.0507429
,,,,,,,,,113,164.802,0.0292281
,,,,,,,,,129,34.9535,0.0217971
,,,,,,,,,146,41.7847,0.0327633
,,,,,,,,,164,51.1386,0.054963
,,,,,,,,,183,63.7662,0.0303918
,,,,,,,,,203,121.41,0.0386069
,,,,,,,,,224,153.861,0.0423508
,,,,,,,,,246,79.9864,0.0603161
,,,,,,,,,269,127.122,0.0247466
,,,,,,,,,293,100.545,0.0268852
,,,,,,,,,128,66.437,0.0339261
,,,,,,,,,145,141.192,0.0243074
,,,,,,,,,163,122.488,0.0387837
,,,,,,,,,182,85.9847,0.0743154
,,,,,,,,,202,142.511,0.0355041
,,,,,,,,,223,44.2662,0.0472496
,,,,,,,,,245,59.659,0.0529819
,,,,,,,,,268,70.112,0.0844492
,,,,,,,,,292,108.49,0.0280334
,,,,,,,,,317,99.074,0.0308098
,,,,,,,,,162,151.245,0.0179707
,,,,,,,,,181,152.294,0.0248197
,,,,,,,,,201,141.247,0.035762
,,,,,,,,,222,126.656,0.0234344
,,,,,,,,,244,69.6863,0.0280342
,,,,,,,,,267,40.1969,0.0299573
,,,,,,,,,291,112.756,0.0379536
,,,,,,,,,316,64.4356,0.019929
,,,,,,,,,342,94.4494,0.021293
,,,,,,,,,200,23.5421,0.0192476
,,,,,,,,,221,57.2294,0.0252356
,,,,,,,,,243,30.0464,0.0184039
,,,,,,,,,266,121.401,0.0211262
,,,,,,,,,290,134.704,0.0222001
,,,,,,,,,315,80.1846,0.0263075
,,,,,,,,,341,92.6853,0.0161702
,,,,,,,,,368,75.909,0.0170568
,,,,,,,,,242,36.5483,0.0412016
,,,,,,,,,265,29.477,0.0256539
,,,,,,,,,289,98.1383,0.0312706
,,,,,,,,,314,117.698,0.0336824
,,,,,,,,,340,56.7414,0.0441381
,,,,,,,,,367,88.2886,0.0215116
,,,,,,,,,395,59.284,0.0231096
,,,,,,,,,288,62.6444,0.0375198
,,,,,,,,,313,71.5618,0.0508879
,,,,,,,,,339,102.768,0.0575995
,,,,,,,,,366,28.8534,0.0968214
,,,,,,,,,394,102.67,0.0292752
,,,,,,,,,423,62.3343,0.0323163
,,,,,,,,,338,102.865,0.0291031
,,,,,,,,,365,105.551,0.031181
,,,,,,,,,393,72.6729,0.0399395
,,,,,,,,,422,63.3562,0.0204632
,,,,,,,,,452,49.4712,0.021904
,,,,,,,,,392,34.456,0.0398895
,,,,,,,,,421,43.5147,0.0554437
,,,,,,,,,451,71.4311,0.0238854
,,,,,,,,,482,55.1066,0.0258718
,,,,,,,,,450,73.9547,0.0635061
,,,,,,,,,481,49.0969,0.0252673
,,,,,,,,,513,59.3075,0.027501
,,,,,,,,,512,84.9399,0.0307278
,,,,,,,,,545,46.0856,0.0340955
,,,,,,,,,578,40.7029,0.0188113
