"cellPairingIds","interplanarAngles","angleWeights"
8,37.6517,0.0407335
19,57.676,0.0260398
26,55.9984,0.0284192
43,84.8647,0.0198365
53,102.487,0.0307957
76,118.117,0.0288237
89,118.618,0.0289605
25,79.8795,0.0459906
42,42.4209,0.0693423
52,55.5343,0.029627
117,134.071,0.080701
50,34.6876,0.0308821
100,52.5666,0.0476166
148,84.4619,0.0381035
114,53.4678,0.0562247
147,83.5006,0.0350776
225,110.331,0.0483627
98,21.6936,0.0248241
113,41.4555,0.044756
183,115.748,0.0528486
203,66.6336,0.0255018
128,21.8821,0.0239951
181,29.3724,0.0385258
244,39.9193,0.0246278
291,86.8304,0.0556742
243,46.3499,0.0858448
315,63.5522,0.107562
242,57.2498,0.035696
340,65.8001,0.049546
366,49.9817,0.0499516
338,72.3376,0.026894
393,39.0563,0.0687747
421,50.1007,0.02871
