Q	U	V
{$V$}	{[mm$^3$]}	0.00363477
{$d_v$}	{[mm]}	0.190762
{$S_c$}	{[mm$^2$]}	0.252582
{$S_o$}	{[mm$^2$]}	0.128221
{$S_l/S_o$}	[]	0.969896
{$\Psi$}	[]	0.452619
{$\eta$}	[]	0.482279
{med($\theta_e$)}	{[$^\circ$]}	81.1308
{$\Upsilon$}	[]	10
{$\Xi$}	[]	7
