"cellPairingIds","interplanarAngles","angleWeights"
8,80.8924,0.0665049
13,52.828,0.0506954
19,79.4407,0.0288605
26,66.9149,0.0753946
34,125.049,0.0704514
53,86.5452,0.0945819
18,37.5778,0.0532839
25,157.637,0.0296813
52,103.185,0.086607
41,27.6374,0.0588426
62,130.217,0.061593
61,48.077,0.0304424
73,96.7502,0.032093
85,114.44,0.102318
99,68.2191,0.127524
98,50.7904,0.093422
113,61.7044,0.113995
128,90.3037,0.141187
