Q	U	V
{$V$}	{[mm$^3$]}	0.0168724
{$d_v$}	{[mm]}	0.318219
{$S_c$}	{[mm$^2$]}	0.52282
{$S_o$}	{[mm$^2$]}	0.38514
{$S_l/S_o$}	[]	0.357480
{$\Psi$}	[]	0.608485
{$\eta$}	[]	0.646486
{med($\theta_e$)}	{[$^\circ$]}	68.967
{$\Upsilon$}	[]	10
{$\Xi$}	[]	12
