Q	U	V
{$V$}	{[mm$^3$]}	0.00772671
{$d_v$}	{[mm]}	0.245282
{$S_c$}	{[mm$^2$]}	0.397764
{$S_o$}	{[mm$^2$]}	0.2277
{$S_l/S_o$}	[]	0.746877
{$\Psi$}	[]	0.475177
{$\eta$}	[]	0.490213
{med($\theta_e$)}	{[$^\circ$]}	70.18355
{$\Upsilon$}	[]	11
{$\Xi$}	[]	8
