Q	U	V
{$V$}	{[mm$^3$]}	0.00565937
{$d_v$}	{[mm]}	0.221101
{$S_c$}	{[mm$^2$]}	0.250669
{$S_o$}	{[mm$^2$]}	0.169076
{$S_l/S_o$}	[]	0.482582
{$\Psi$}	[]	0.612673
{$\eta$}	[]	0.695926
{med($\theta_e$)}	{[$^\circ$]}	63.5086
{$\Upsilon$}	[]	13
{$\Xi$}	[]	9
