facetNormals:0,facetNormals:1,facetNormals:2,FacetCenters:0,FacetCenters:1,FacetCenters:2,FacetIds,relFacetSize,absFacetSize,cellPairingIds,interplanarAngles,angleWeights
-0.212411,-0.259107,-0.870641,4.80864,2.98767,5.54062,1,0.192712,0.0652745,8,42.9064,0.0940843
0.461948,-0.0962394,-0.840681,4.84934,3.10083,5.52383,2,0.0622338,0.0210795,13,61.6223,0.129903
-0.714526,-0.592379,-0.126415,4.76534,2.90379,5.64251,3,0.0979717,0.0331845,19,85.0788,0.0420482
0.633288,0.603101,-0.423295,4.84638,3.17346,5.59037,4,0.0235986,0.00799321,26,88.1212,0.0682672
0.0709159,0.900876,-0.319072,4.79972,3.19338,5.55568,5,0.0414808,0.0140502,34,126.296,0.0824176
0.149074,-0.57935,0.739211,4.78853,2.98973,5.74193,6,0.0524176,0.0177547,43,135.579,0.206114
0.811767,0.0734875,0.519966,4.87458,3.02675,5.68281,7,0.221519,0.0750318,53,122.199,0.0919305
-0.634291,0.0365409,0.671821,4.76651,2.95249,5.71575,8,0.0603629,0.0204459,18,100.643,0.0761166
,,,,,,,,,25,50.9288,0.0342209
,,,,,,,,,33,76.5881,0.049781
,,,,,,,,,42,122.815,0.0569055
,,,,,,,,,52,94.258,0.0971688
,,,,,,,,,63,165.065,0.0612841
,,,,,,,,,32,146.198,0.0380355
,,,,,,,,,41,127.3,0.0582843
,,,,,,,,,51,80.747,0.0682953
,,,,,,,,,62,139.563,0.135857
,,,,,,,,,74,66.4086,0.0747007
,,,,,,,,,50,39.0304,0.0300829
,,,,,,,,,61,127.928,0.0325452
,,,,,,,,,73,68.8905,0.0426533
,,,,,,,,,86,137.658,0.0339317
,,,,,,,,,72,145.076,0.0463123
,,,,,,,,,85,92.6065,0.0698767
,,,,,,,,,99,104.804,0.0491715
,,,,,,,,,98,59.7761,0.084775
,,,,,,,,,113,64.331,0.0561104
,,,,,,,,,128,100.498,0.0948733
