Q	U	V
{$V$}	{[mm$^3$]}	0.0102085
{$d_v$}	{[mm]}	0.269146
{$S_c$}	{[mm$^2$]}	0.419848
{$S_o$}	{[mm$^2$]}	0.256093
{$S_l/S_o$}	[]	0.639436
{$\Psi$}	[]	0.542042
{$\eta$}	[]	0.560927
{med($\theta_e$)}	{[$^\circ$]}	62.77605
{$\Upsilon$}	[]	13
{$\Xi$}	[]	12
