facetNormals:0,facetNormals:1,facetNormals:2,FacetCenters:0,FacetCenters:1,FacetCenters:2,FacetIds,relFacetSize,absFacetSize,cellPairingIds,interplanarAngles,angleWeights
0.305185,0.204134,-0.905525,6.80515,6.00709,7.10764,1,0.0336817,0.00740605,8,39.3524,0.0563804
-0.173189,-0.234576,-0.903129,6.7044,5.97139,7.12448,2,0.172901,0.0380182,13,34.7529,0.0131997
0.0537079,0.697112,-0.705141,6.7613,6.05852,7.1185,3,0.00820821,0.00180485,19,71.7823,0.0357647
-0.756732,-0.0671741,-0.595904,6.59834,5.98073,7.16916,4,0.0381222,0.00838245,26,75.4024,0.0536674
-0.343224,0.850103,-0.178016,6.63805,6.09273,7.21134,5,0.13198,0.0290202,34,57.3055,0.0353671
0.410849,0.852015,-0.237985,6.76104,6.08451,7.16664,6,0.0372301,0.00818627,43,114.617,0.0225647
-0.845438,0.42401,0.250426,6.58398,6.06055,7.25649,7,0.0169652,0.00373036,53,100.036,0.0413059
0.386321,-0.885266,0.113507,6.60748,6.01638,7.23452,8,0.0533915,0.0117399,64,94.1364,0.0224395
0.784969,-0.563988,0.214477,6.64985,6.01652,7.24542,9,0.016824,0.00369932,76,88.5257,0.0188161
0.54003,0.767643,0.327457,6.76254,6.07667,7.2236,10,0.0130544,0.00287045,89,100.978,0.0417255
0.655231,0.489701,0.53171,6.75374,6.06896,7.25342,11,0.0548165,0.0120532,103,138.474,0.0441899
0.299435,-0.490921,0.760435,6.70038,5.97135,7.27753,12,0.0642282,0.0141227,118,146.819,0.0465988
-0.755318,-0.0523961,0.614013,6.59355,5.99057,7.26038,13,0.0755865,0.0166202,134,169.053,0.0347694
-0.457447,-0.279355,0.82647,6.63469,5.95134,7.28452,14,0.0359296,0.00790031,18,60.5038,0.0156724
,,,,,,,,,25,41.6218,0.0624706
,,,,,,,,,33,88.6552,0.149694
,,,,,,,,,42,93.4737,0.0612676
,,,,,,,,,52,101.128,0.0308986
,,,,,,,,,63,87.6252,0.0815886
,,,,,,,,,75,102.124,0.0306643
,,,,,,,,,88,127.121,0.0242759
,,,,,,,,,102,139.93,0.0832421
,,,,,,,,,117,133.558,0.0936631
,,,,,,,,,133,116.406,0.105188
,,,,,,,,,150,130.059,0.0594957
,,,,,,,,,32,69.6944,0.013508
,,,,,,,,,41,41.0177,0.0154552
,,,,,,,,,51,35.9754,0.0134509
,,,,,,,,,62,85.656,0.0110636
,,,,,,,,,74,134.46,0.0142289
,,,,,,,,,87,120.72,0.0110334
,,,,,,,,,101,70.2701,0.010079
,,,,,,,,,116,89.9032,0.0142784
,,,,,,,,,132,155.63,0.0145562
,,,,,,,,,149,121.797,0.0148083
,,,,,,,,,167,145.083,0.0133635
,,,,,,,,,50,69.9797,0.059157
,,,,,,,,,61,103.905,0.0376709
,,,,,,,,,73,60.7175,0.0234809
,,,,,,,,,86,108.665,0.044483
,,,,,,,,,100,135.68,0.0233453
,,,,,,,,,115,133.064,0.0194488
,,,,,,,,,131,153.849,0.04497
,,,,,,,,,148,134.636,0.0478459
,,,,,,,,,166,77.1579,0.0506826
,,,,,,,,,185,97.708,0.0369934
,,,,,,,,,72,46.619,0.0580772
,,,,,,,,,85,48.4503,0.0300656
,,,,,,,,,99,175.435,0.0760269
,,,,,,,,,114,148.342,0.0298438
,,,,,,,,,130,63.8644,0.0237588
,,,,,,,,,147,83.9043,0.0774606
,,,,,,,,,165,137.408,0.0864065
,,,,,,,,,184,83.3518,0.0961225
,,,,,,,,,204,104.324,0.0564826
,,,,,,,,,98,92.7438,0.0233089
,,,,,,,,,113,131.018,0.0438697
,,,,,,,,,129,102.503,0.0231753
,,,,,,,,,146,34.6113,0.0193307
,,,,,,,,,164,53.9587,0.0443433
,,,,,,,,,183,120.805,0.047137
,,,,,,,,,203,121.804,0.0498879
,,,,,,,,,224,130.394,0.0365683
,,,,,,,,,128,135.061,0.0257487
,,,,,,,,,145,151.224,0.0168943
,,,,,,,,,163,92.892,0.0147551
,,,,,,,,,182,102.904,0.0259111
,,,,,,,,,202,106.882,0.0268407
,,,,,,,,,223,36.1512,0.0277108
,,,,,,,,,245,60.454,0.0230477
,,,,,,,,,162,30.8241,0.0255858
,,,,,,,,,181,116.66,0.0209793
,,,,,,,,,201,97.2678,0.0540946
,,,,,,,,,222,46.6402,0.0583106
,,,,,,,,,244,100.681,0.0625793
,,,,,,,,,267,80.1193,0.0429537
,,,,,,,,,200,86.435,0.0147014
,,,,,,,,,221,68.6168,0.0257462
,,,,,,,,,243,44.3469,0.0266637
,,,,,,,,,266,116.567,0.0275222
,,,,,,,,,290,91.426,0.0229171
,,,,,,,,,242,21.2518,0.021087
,,,,,,,,,265,87.9524,0.0216986
,,,,,,,,,289,104.771,0.0222637
,,,,,,,,,314,101.239,0.0191507
,,,,,,,,,288,67.2213,0.0591503
,,,,,,,,,313,101.776,0.0635475
,,,,,,,,,339,89.8266,0.0434076
,,,,,,,,,338,73.3381,0.069446
,,,,,,,,,365,47.9805,0.0460811
,,,,,,,,,392,25.3739,0.0487067
