facetNormals:0,facetNormals:1,facetNormals:2,FacetCenters:0,FacetCenters:1,FacetCenters:2,FacetIds,relFacetSize,absFacetSize,cellPairingIds,interplanarAngles,angleWeights
0.0540624,-0.116972,-0.988237,6.95546,5.73972,7.29506,1,0.0162411,0.00456279,8,19.9963,0.016826
-0.120273,0.178684,-0.961464,6.92752,5.76834,7.29346,2,0.0174547,0.00490374,13,35.2083,0.0226999
-0.0637824,-0.647243,-0.736465,6.90916,5.67937,7.31302,3,0.0376877,0.010588,19,37.4293,0.0286089
0.588517,-0.290862,-0.704579,7.07384,5.78856,7.35136,4,0.119961,0.033702,26,60.7245,0.0275159
-0.440881,0.633548,-0.57324,6.87563,5.78891,7.3419,5,0.0899844,0.0252803,34,75.0512,0.0214294
-0.635643,-0.684334,-0.202382,6.83232,5.67145,7.35985,6,0.0314887,0.00884649,43,92.3292,0.0278899
0.646994,-0.691416,0.15657,7.03716,5.71831,7.42042,7,0.0986376,0.0277114,53,129.657,0.0242996
0.428323,-0.515823,0.715601,7.11255,5.80624,7.48552,8,0.0482306,0.01355,64,133.359,0.0186478
-0.720474,0.285984,0.60947,6.89565,5.83041,7.47256,9,0.0218919,0.00615034,76,134.989,0.0266119
-0.161442,-0.589411,0.751529,6.94363,5.731,7.46235,10,0.073627,0.0206849,89,147.833,0.0245614
0.440952,0.257562,0.813805,7.14385,5.90912,7.51067,11,0.0503615,0.0141486,103,163.79,0.0290336
-0.274253,-0.0277451,0.89701,6.9819,5.81552,7.49671,12,0.136733,0.0384141,18,51.6921,0.0238592
,,,,,,,,,25,54.227,0.0304751
,,,,,,,,,33,40.7741,0.0292379
,,,,,,,,,42,80.9105,0.0224596
,,,,,,,,,52,111.846,0.0296607
,,,,,,,,,63,149.407,0.0256328
,,,,,,,,,75,117.474,0.0194231
,,,,,,,,,88,147.898,0.0282194
,,,,,,,,,102,146.508,0.0259243
,,,,,,,,,117,154.482,0.0309575
,,,,,,,,,32,44.9517,0.0573561
,,,,,,,,,41,87.559,0.0531252
,,,,,,,,,51,47.6527,0.0343105
,,,,,,,,,62,72.0299,0.0545376
,,,,,,,,,74,103.228,0.0423123
,,,,,,,,,87,127.367,0.0276959
,,,,,,,,,101,99.7813,0.0498557
,,,,,,,,,116,147.278,0.0431125
,,,,,,,,,132,132.691,0.0590888
,,,,,,,,,50,92.4667,0.102833
,,,,,,,,,61,92.0204,0.0498835
,,,,,,,,,73,59.3233,0.108259
,,,,,,,,,86,96.2061,0.0688
,,,,,,,,,100,170.517,0.0370267
,,,,,,,,,115,119.06,0.0912491
,,,,,,,,,131,114.849,0.0709409
,,,,,,,,,148,150.347,0.127799
,,,,,,,,,72,92.3267,0.0466522
,,,,,,,,,85,151.775,0.0941125
,,,,,,,,,99,169.117,0.0628007
,,,,,,,,,114,80.9297,0.0352162
,,,,,,,,,130,141.919,0.080988
,,,,,,,,,147,122.605,0.0645797
,,,,,,,,,165,117.09,0.108539
,,,,,,,,,98,88.1123,0.0477378
,,,,,,,,,113,93.9214,0.0381017
,,,,,,,,,129,81.5233,0.0258277
,,,,,,,,,146,67.5251,0.0441118
,,,,,,,,,164,132.579,0.0387493
,,,,,,,,,183,89.2477,0.051189
,,,,,,,,,128,37.5874,0.064784
,,,,,,,,,145,126.916,0.0358313
,,,,,,,,,163,63.0914,0.0843167
,,,,,,,,,182,75.2592,0.0666788
,,,,,,,,,202,91.1332,0.114603
,,,,,,,,,162,91.1837,0.0301147
,,,,,,,,,181,35.565,0.0582824
,,,,,,,,,201,47.3453,0.049273
,,,,,,,,,222,54.1653,0.0713083
,,,,,,,,,200,64.8592,0.033749
,,,,,,,,,221,74.5765,0.0305179
,,,,,,,,,243,37.2713,0.0377412
,,,,,,,,,242,65.3189,0.0598115
,,,,,,,,,265,36.0668,0.0957145
,,,,,,,,,288,48.1166,0.0736108
