"cellPairingIds","interplanarAngles","angleWeights"
8,53.2304,0.0373885
13,81.155,0.027856
19,88.1543,0.0594179
26,69.0257,0.0589707
34,57.8635,0.0383305
64,78.9592,0.0498759
25,77.0861,0.0485737
75,69.039,0.0420042
88,103.977,0.0325989
133,81.589,0.040841
32,28.3421,0.0336247
41,66.5325,0.033481
101,73.9922,0.0251076
115,58.4621,0.0481704
72,49.9549,0.0498564
130,120.408,0.0478761
165,52.2647,0.0724719
204,51.5928,0.0963793
129,60.5021,0.0431968
183,37.7506,0.0436114
243,71.9834,0.0592043
266,60.1153,0.056215
289,61.0544,0.0405555
314,95.287,0.0491724
340,50.5254,0.043065
338,100.718,0.0569192
365,25.8416,0.0754841
392,100.816,0.0706915
421,37.099,0.0587198
450,68.1684,0.0786838
