"cellPairingIds","interplanarAngles","angleWeights"
8,48.9763,0.0223712
13,37.8364,0.0558945
19,31.7492,0.0378391
26,90.0904,0.0334949
53,78.7382,0.0246163
18,55.13,0.0264765
33,43.3195,0.020107
41,95.2294,0.0436216
74,59.5738,0.0296801
50,107.869,0.0317852
73,59.0122,0.0430245
86,76.1927,0.0236802
115,50.7518,0.0285784
85,92.5889,0.037495
99,150.573,0.0219024
147,133.352,0.0306814
225,96.586,0.0402057
294,97.5484,0.0187479
163,42.2104,0.0331121
202,33.6596,0.0289995
268,53.247,0.0600477
181,71.2977,0.0203304
201,26.869,0.0230621
244,52.7441,0.0235641
267,38.9466,0.0264586
265,26.3773,0.0216299
289,32.398,0.0284095
339,42.0017,0.0404353
453,75.688,0.0195912
338,38.4584,0.0253277
393,37.7947,0.0305948
392,24.6399,0.0420044
421,60.7183,0.0461842
450,71.3859,0.0587891
546,61.7935,0.0219891
579,42.6654,0.0230827
