"cellPairingIds","interplanarAngles","angleWeights"
8,35.2198,0.0506882
19,27.7082,0.0273788
26,41.4632,0.0361283
34,33.9596,0.0357307
18,56.5029,0.0534667
33,72.0953,0.0575964
42,28.2272,0.0565925
117,49.7753,0.0921717
150,75.0127,0.0848849
168,101.183,0.074729
207,101.014,0.0217142
41,41.4329,0.037518
62,33.9788,0.0249409
87,26.9558,0.0401094
167,65.9818,0.0474555
50,33.7097,0.0292754
61,49.6001,0.0290138
205,93.6342,0.0331368
85,23.8678,0.0258039
147,48.5029,0.0273934
225,124.819,0.0468772
246,77.1701,0.04621
145,44.2841,0.0270039
182,65.4238,0.0200216
223,59.8109,0.0266244
343,123.776,0.0252114
266,31.8782,0.0446498
290,46.6235,0.055527
366,79.1704,0.0307459
453,147.151,0.0267265
365,60.4216,0.0756518
452,52.7826,0.0210568
483,72.8097,0.0507335
392,45.4717,0.0539459
514,64.4238,0.0399529
546,51.9251,0.0484445
545,44.6258,0.0199908
579,85.6535,0.0449576
648,45.1873,0.0182101
