"cellPairingIds","interplanarAngles","angleWeights"
13,46.3629,0.0439035
53,68.8936,0.0350011
103,124.539,0.0339065
118,135.069,0.0655062
151,145.455,0.050176
74,86.4039,0.0273171
186,112.359,0.0357572
206,135.372,0.0460138
201,50.9863,0.0320993
222,114.619,0.0230825
316,97.1612,0.0363293
288,66.487,0.0311763
394,59.4589,0.0614296
338,40.7206,0.0333134
422,60.7582,0.0351515
421,23.2407,0.048888
451,58.2161,0.0703178
512,48.2152,0.0529514
