Q	U	V
{$V$}	{[mm$^3$]}	0.00828838
{$d_v$}	{[mm]}	0.251087
{$S_c$}	{[mm$^2$]}	0.367001
{$S_o$}	{[mm$^2$]}	0.231513
{$S_l/S_o$}	[]	0.585228
{$\Psi$}	[]	0.539672
{$\eta$}	[]	0.610579
{med($\theta_e$)}	{[$^\circ$]}	61.7397
{$\Upsilon$}	[]	11
{$\Xi$}	[]	13
