facetNormals:0,facetNormals:1,facetNormals:2,FacetCenters:0,FacetCenters:1,FacetCenters:2,FacetIds,relFacetSize,absFacetSize,cellPairingIds,interplanarAngles,angleWeights
0.332732,-0.224368,-0.906729,4.27553,4.24396,6.82656,1,0.00683927,0.00044851,8,38.6042,0.0107265
-0.25637,-0.498974,-0.81889,4.25445,4.22381,6.84512,2,0.0248512,0.00162971,13,61.7241,0.0132615
0.115446,0.726886,-0.644202,4.27868,4.31433,6.86997,3,0.217499,0.0142633,19,30.4873,0.0128539
0.705538,0.0424686,-0.668254,4.34196,4.2537,6.86014,4,0.1066,0.00699071,26,82.6473,0.0125308
-0.81123,-0.422225,-0.329241,4.20329,4.24685,6.87589,5,0.0746687,0.00489668,34,63.9735,0.012973
-0.273067,-0.812631,-0.34201,4.2547,4.20684,6.87511,6,0.125758,0.00824706,43,64.8995,0.0114861
0.92494,-0.279185,-0.040086,4.351,4.22943,6.89291,7,0.0358299,0.00234968,53,103.624,0.0109272
-0.193514,0.958084,-0.0559021,4.22988,4.31312,6.89404,8,0.0271625,0.00178128,64,83.187,0.0111948
0.854602,0.459891,0.073543,4.36136,4.31165,6.91261,9,0.0308258,0.00202151,76,103.967,0.00693442
0.322648,0.921796,0.151152,4.33806,4.34299,6.93281,10,0.00703224,0.000461165,89,70.7021,0.0122091
0.542853,-0.809084,0.0468805,4.30439,4.21232,6.88467,11,0.0568269,0.00372663,103,84.0246,0.00902287
0.962817,0.0696147,0.223291,4.3769,4.27482,6.90955,12,0.0132547,0.000869228,118,127.012,0.010668
-0.0792328,-0.572722,0.721089,4.21269,4.25755,6.88849,13,0.0242352,0.00158931,18,81.9931,0.0446059
,,,,,,,,,25,69.0542,0.0403061
,,,,,,,,,33,44.4903,0.0372912
,,,,,,,,,42,34.4429,0.0415013
,,,,,,,,,52,93.8827,0.0293474
,,,,,,,,,63,113.19,0.0259555
,,,,,,,,,75,121.78,0.0275179
,,,,,,,,,88,132.795,0.0109624
,,,,,,,,,102,76.4928,0.0345801
,,,,,,,,,117,118.178,0.0172885
,,,,,,,,,133,108.059,0.0245393
,,,,,,,,,32,55.2123,0.143077
,,,,,,,,,41,101.434,0.111172
,,,,,,,,,51,116.434,0.159369
,,,,,,,,,62,94.2645,0.0615246
,,,,,,,,,74,42.1375,0.0482938
,,,,,,,,,87,66.107,0.0539984
,,,,,,,,,101,50.8776,0.013624
,,,,,,,,,116,125.618,0.0901104
,,,,,,,,,132,88.941,0.0249868
,,,,,,,,,149,169.887,0.043611
,,,,,,,,,50,113.056,0.0878221
,,,,,,,,,61,89.912,0.11539
,,,,,,,,,73,44.7918,0.053633
,,,,,,,,,86,93.5211,0.0432935
,,,,,,,,,100,52.7267,0.0478226
,,,,,,,,,115,80.0693,0.0131941
,,,,,,,,,131,70.4622,0.0741342
,,,,,,,,,148,56.4213,0.0235778
,,,,,,,,,166,128.699,0.039492
,,,,,,,,,72,40.9844,0.0937021
,,,,,,,,,85,131.213,0.0484237
,,,,,,,,,99,103.933,0.0398343
,,,,,,,,,114,164.515,0.0436368
,,,,,,,,,130,136.842,0.0128539
,,,,,,,,,147,96.9178,0.0645374
,,,,,,,,,165,156.617,0.0225131
,,,,,,,,,184,85.6154,0.0365933
,,,,,,,,,98,90.7695,0.0557703
,,,,,,,,,113,141.441,0.0446755
,,,,,,,,,129,134.733,0.0495146
,,,,,,,,,146,167.03,0.0133197
,,,,,,,,,164,56.7824,0.0782808
,,,,,,,,,183,115.649,0.0239818
,,,,,,,,,203,73.6302,0.0406388
,,,,,,,,,128,117.985,0.0308999
,,,,,,,,,145,45.5461,0.03314
,,,,,,,,,163,87.8999,0.011757
,,,,,,,,,182,39.6642,0.0439494
,,,,,,,,,202,25.8607,0.0193509
,,,,,,,,,223,86.2982,0.0289135
,,,,,,,,,162,73.4687,0.0288784
,,,,,,,,,181,32.9098,0.0111721
,,,,,,,,,201,157.585,0.0367561
,,,,,,,,,222,97.8271,0.0178158
,,,,,,,,,244,129.346,0.0256155
,,,,,,,,,200,42.3558,0.011452
,,,,,,,,,221,84.24,0.0399699
,,,,,,,,,243,25.3798,0.0185382
,,,,,,,,,266,108.006,0.027136
,,,,,,,,,242,125.776,0.0125157
,,,,,,,,,265,65.3384,0.0091892
,,,,,,,,,289,119.12,0.0109013
,,,,,,,,,288,60.4395,0.0214957
,,,,,,,,,313,59.7511,0.0339792
,,,,,,,,,338,87.1925,0.0171369
