Q	U	V
{$V$}	{[mm$^3$]}	0.0118899
{$d_v$}	{[mm]}	0.283178
{$S_c$}	{[mm$^2$]}	0.621691
{$S_o$}	{[mm$^2$]}	0.323108
{$S_l/S_o$}	[]	0.924097
{$\Psi$}	[]	0.405224
{$\eta$}	[]	0.438382
{med($\theta_e$)}	{[$^\circ$]}	67.7182
{$\Upsilon$}	[]	6
{$\Xi$}	[]	5
