"cellPairingIds","interplanarAngles","angleWeights"
19,90.1915,0.0897092
26,76.202,0.0322881
25,87.5479,0.0862285
41,34.2675,0.0296126
62,48.1656,0.0287444
50,35.304,0.0322924
61,72.5821,0.126573
73,41.042,0.0312626
85,28.3746,0.0193009
98,80.1328,0.0347891
