Q	U	V
{$V$}	{[mm$^3$]}	0.0163963
{$d_v$}	{[mm]}	0.315197
{$S_c$}	{[mm$^2$]}	0.587009
{$S_o$}	{[mm$^2$]}	0.369066
{$S_l/S_o$}	[]	0.590526
{$\Psi$}	[]	0.531704
{$\eta$}	[]	0.553656
{med($\theta_e$)}	{[$^\circ$]}	59.1146
{$\Upsilon$}	[]	13
{$\Xi$}	[]	12
