"cellPairingIds","interplanarAngles","angleWeights"
8,80.8333,0.0451741
13,75.3961,0.0426535
19,70.5202,0.0297906
43,80.5925,0.0362412
64,93.0185,0.0436292
89,97.5601,0.0507616
18,47.2204,0.081123
25,84.2409,0.0445438
42,55.8543,0.063987
63,40.7507,0.0829572
41,37.4123,0.0662499
51,47.9421,0.0590447
87,87.074,0.0762731
73,43.6626,0.0358344
86,94.338,0.0425796
115,55.4738,0.0412796
72,45.0897,0.0543609
114,55.1928,0.068634
165,63.8344,0.0574526
113,36.2939,0.0600104
183,38.839,0.0519545
163,63.8078,0.0547935
182,50.2593,0.0712328
181,64.2465,0.0723085
222,51.8547,0.0638005
221,47.1963,0.106769
243,81.6361,0.0648421
242,89.8077,0.0965494
265,71.2627,0.0609255
288,93.2399,0.0819564
