Q	U	V
{$V$}	{[mm$^3$]}	0.0069525
{$d_v$}	{[mm]}	0.236800
{$S_c$}	{[mm$^2$]}	0.328341
{$S_o$}	{[mm$^2$]}	0.19267
{$S_l/S_o$}	[]	0.704163
{$\Psi$}	[]	0.536521
{$\eta$}	[]	0.547020
{med($\theta_e$)}	{[$^\circ$]}	76.7646
{$\Upsilon$}	[]	20
{$\Xi$}	[]	6
