"cellPairingIds","interplanarAngles","angleWeights"
8,39.9377,0.100774
13,87.0677,0.0542031
19,117.387,0.0226327
26,46.6443,0.0635353
34,67.9079,0.0147504
64,114.765,0.0418345
25,110.451,0.0219323
42,49.3379,0.0144497
88,110.733,0.0471225
32,59.7469,0.0184772
87,46.1279,0.0295502
73,43.0963,0.0229117
100,80.1376,0.0167855
115,73.2543,0.0180239
72,74.7668,0.0133295
114,76.0625,0.0321225
147,62.9337,0.0624242
146,87.6599,0.0126434
164,62.2447,0.0146897
145,74.3851,0.0427979
163,34.3276,0.0518883
202,70.1106,0.111636
221,69.709,0.0413499
243,39.4482,0.0401811
242,81.6598,0.049775
265,69.0571,0.0480912
288,38.5274,0.102292
