"cellPairingIds","interplanarAngles","angleWeights"
8,36.7608,0.0504909
13,39.3548,0.0354964
26,46.1956,0.0534486
34,70.376,0.0386959
18,62.1364,0.0477951
25,46.7568,0.0626236
42,52.9648,0.0537829
75,64.2318,0.0564694
88,92.0182,0.0426292
32,35.4716,0.0410935
41,77.0569,0.0504371
62,64.1383,0.0399364
74,49.1766,0.05357
73,43.7424,0.0497869
100,66.9188,0.0473466
72,54.9126,0.0571517
99,114.819,0.108638
130,84.8831,0.0447185
184,131.197,0.0887363
146,43.8468,0.0339039
128,43.5059,0.0693577
145,59.7379,0.0458171
202,34.6739,0.0281461
222,40.5141,0.034298
244,58.5346,0.0989135
200,71.1756,0.0349522
243,77.4973,0.0273492
265,117.941,0.0236331
289,100.54,0.0429791
338,37.97,0.03203
