facetNormals:0,facetNormals:1,facetNormals:2,FacetCenters:0,FacetCenters:1,FacetCenters:2,FacetIds,relFacetSize,absFacetSize,cellPairingIds,interplanarAngles,angleWeights
-0.384915,-0.414012,-0.797627,4.21579,5.65081,7.43036,1,0.0329851,0.0116191,8,69.6742,0.024924
-0.0147866,0.643317,-0.746332,4.23439,5.71314,7.4304,2,0.0200292,0.00705532,13,45.3053,0.047147
0.343898,-0.538286,-0.709623,4.34135,5.58731,7.50432,3,0.0826186,0.0291026,19,91.6912,0.0528954
0.670326,0.445239,-0.51993,4.38064,5.69392,7.50503,4,0.133444,0.0470059,26,94.5147,0.0458658
-0.150597,0.871175,-0.289751,4.25835,5.73895,7.50034,5,0.0752512,0.0265074,34,103.64,0.0265873
0.926418,-0.300776,-0.00940706,4.43062,5.6176,7.56315,6,0.0222681,0.00784399,43,104.897,0.0312907
-0.475968,0.845019,0.0982485,4.28391,5.71497,7.53402,7,0.0297619,0.0104837,53,69.667,0.0399393
-0.323894,-0.859021,0.201848,4.40189,5.69216,7.5053,8,0.0506092,0.0178272,64,122.247,0.0500287
-0.537951,0.480422,0.64149,4.25306,5.68908,7.5933,9,0.103515,0.0364635,76,139.494,0.0485879
0.5187,-0.242133,0.768143,4.37054,5.57244,7.65629,10,0.0922012,0.032478,18,79.0797,0.032242
,,,,,,,,,25,45.2599,0.0348305
,,,,,,,,,33,31.8329,0.0316376
,,,,,,,,,42,102.037,0.0210894
,,,,,,,,,52,60.205,0.0239443
,,,,,,,,,63,138.943,0.0287
,,,,,,,,,75,99.7905,0.0335641
,,,,,,,,,88,141.298,0.0329094
,,,,,,,,,32,66.8368,0.102053
,,,,,,,,,41,110.778,0.078763
,,,,,,,,,51,58.41,0.0350809
,,,,,,,,,62,137.689,0.04376
,,,,,,,,,74,76.6138,0.0627686
,,,,,,,,,87,167.238,0.091894
,,,,,,,,,101,104.977,0.0871473
,,,,,,,,,50,60.5991,0.0962343
,,,,,,,,,61,58.185,0.0381672
,,,,,,,,,73,89.6258,0.0486691
,,,,,,,,,86,141.473,0.0733863
,,,,,,,,,100,121.285,0.11659
,,,,,,,,,115,100.007,0.109053
,,,,,,,,,72,116.109,0.0343666
,,,,,,,,,85,30.7563,0.042654
,,,,,,,,,99,150.092,0.0605179
,,,,,,,,,114,69.5562,0.087149
,,,,,,,,,130,125.032,0.0828683
,,,,,,,,,98,137.141,0.0254754
,,,,,,,,,113,92.7286,0.0309279
,,,,,,,,,129,133.643,0.0366518
,,,,,,,,,146,54.178,0.0358725
,,,,,,,,,128,127.035,0.0374818
,,,,,,,,,145,39.5966,0.0462316
,,,,,,,,,163,113.745,0.0449985
,,,,,,,,,162,96.8979,0.0679818
,,,,,,,,,181,77.4908,0.0653486
,,,,,,,,,200,83.954,0.0975313
