facetNormals:0,facetNormals:1,facetNormals:2,FacetCenters:0,FacetCenters:1,FacetCenters:2,FacetIds,relFacetSize,absFacetSize,cellPairingIds,interplanarAngles,angleWeights
0.286069,-0.399069,-0.83511,5.26196,7.33496,5.39833,1,0.0711381,0.0132716,8,34.249,0.0373299
0.388657,0.164641,-0.890477,5.2292,7.38661,5.37423,2,0.0253041,0.00472074,13,51.9186,0.0425371
0.16268,0.437642,-0.842725,5.25388,7.41306,5.39593,3,0.0303392,0.0056601,19,30.7402,0.0499926
-0.205053,-0.554831,-0.785567,5.17548,7.31177,5.40013,4,0.0385375,0.00718957,26,56.0645,0.0788619
-0.558514,-0.0596745,-0.791156,5.11543,7.35456,5.41182,5,0.088467,0.0165044,34,79.739,0.0825369
-0.386404,0.637409,-0.639967,5.16119,7.4144,5.42257,6,0.0982856,0.0183362,43,68.4957,0.0898981
-0.519274,-0.761293,-0.216634,5.13134,7.27769,5.48489,7,0.122096,0.0227784,53,46.9966,0.040535
0.733955,-0.617491,-0.234796,5.29399,7.32316,5.43067,8,0.0283423,0.00528755,64,62.6929,0.0858788
0.404757,-0.849729,0.0432839,5.22541,7.29204,5.47824,9,0.108325,0.0202091,76,77.5511,0.0360199
0.934288,0.244755,-0.0386303,5.3167,7.40747,5.4195,10,0.0241152,0.00449893,89,126.184,0.0575837
-0.301986,-0.45337,0.745616,5.16645,7.33955,5.49596,11,0.0483678,0.00902351,18,21.1069,0.0275939
,,,,,,,,,25,56.9505,0.0305493
,,,,,,,,,33,60.0322,0.0393523
,,,,,,,,,42,57.1861,0.0402465
,,,,,,,,,52,98.2743,0.0419204
,,,,,,,,,63,66.2014,0.0267372
,,,,,,,,,75,91.3041,0.041025
,,,,,,,,,88,62.6364,0.0246953
,,,,,,,,,102,160.161,0.0332258
,,,,,,,,,32,65.9668,0.0339504
,,,,,,,,,41,53.9772,0.0451832
,,,,,,,,,51,37.0489,0.046366
,,,,,,,,,62,104.937,0.0486016
,,,,,,,,,74,87.1666,0.0293068
,,,,,,,,,87,112.168,0.0474022
,,,,,,,,,101,71.7479,0.0268715
,,,,,,,,,116,169.917,0.0372887
,,,,,,,,,50,36.2816,0.0536878
,,,,,,,,,61,76.3298,0.0553661
,,,,,,,,,73,41.3281,0.058584
,,,,,,,,,86,67.1837,0.0326628
,,,,,,,,,100,67.5072,0.0568501
,,,,,,,,,115,108.21,0.0296664
,,,,,,,,,131,107.448,0.0428967
,,,,,,,,,72,44.1382,0.0931182
,,,,,,,,,85,56.5086,0.102596
,,,,,,,,,99,101.274,0.0429308
,,,,,,,,,114,103.254,0.0973941
,,,,,,,,,130,122.641,0.0378994
,,,,,,,,,147,116.101,0.0625419
,,,,,,,,,98,99.03,0.108905
,,,,,,,,,113,122.899,0.0439972
,,,,,,,,,129,141.631,0.103061
,,,,,,,,,146,100.944,0.0387281
,,,,,,,,,164,135.718,0.0648312
,,,,,,,,,128,81.397,0.0460054
,,,,,,,,,145,61.3725,0.114799
,,,,,,,,,163,136.444,0.0402756
,,,,,,,,,182,67.0797,0.0692877
,,,,,,,,,162,29.2704,0.0449292
,,,,,,,,,181,55.2787,0.0260584
,,,,,,,,,201,97.3568,0.0357412
,,,,,,,,,200,79.337,0.0394484
,,,,,,,,,221,70.1601,0.0668753
,,,,,,,,,242,118.21,0.0321841
