facetNormals:0,facetNormals:1,facetNormals:2,FacetCenters:0,FacetCenters:1,FacetCenters:2,FacetIds,relFacetSize,absFacetSize,cellPairingIds,interplanarAngles,angleWeights
0.429258,0.47756,-0.717309,4.54321,4.14205,6.98814,1,0.0684903,0.0164822,8,52.6775,0.041638
0.583101,-0.375862,-0.707767,4.57181,4.00517,6.99659,2,0.0299111,0.00719809,13,28.7106,0.0751111
0.722699,0.102476,-0.649169,4.60027,4.07677,7.01004,3,0.083149,0.0200098,19,80.0954,0.067244
0.445447,-0.732391,-0.443889,4.5525,3.95195,7.0631,4,0.0660422,0.015893,26,90.6497,0.0295592
0.714951,-0.683675,-0.0122633,4.5634,3.95858,7.08901,5,0.0188465,0.0045354,34,51.421,0.0197746
0.715368,0.681459,0.0536617,4.58835,4.17305,7.07925,6,0.0115554,0.00278081,43,88.7413,0.0959998
-0.592302,0.712625,0.0925344,4.42317,4.10611,7.05693,7,0.160443,0.0386104,53,71.2727,0.0645873
0.941709,0.0649118,0.191698,4.63429,4.05295,7.12279,8,0.0611052,0.0147049,64,139.117,0.0458312
0.0312332,-0.843911,0.408976,4.51973,3.91064,7.13781,9,0.0344379,0.00828746,76,93.0298,0.0564688
0.278704,0.644095,0.664145,4.54522,4.13561,7.13038,10,0.0480372,0.0115601,89,139.701,0.0971065
-0.174956,0.0922681,0.934922,4.51557,4.04013,7.16549,11,0.166796,0.0401395,18,29.5304,0.0439957
,,,,,,,,,25,27.4244,0.0411741
,,,,,,,,,33,45.8822,0.0231234
,,,,,,,,,42,82.7933,0.0166706
,,,,,,,,,52,137.34,0.0504221
,,,,,,,,,63,65.9499,0.0401625
,,,,,,,,,75,87.1679,0.0320153
,,,,,,,,,88,125.027,0.0368666
,,,,,,,,,102,147.46,0.0507257
,,,,,,,,,32,55.4317,0.0736148
,,,,,,,,,41,61.9393,0.0307282
,,,,,,,,,51,55.1727,0.020291
,,,,,,,,,62,117.15,0.109533
,,,,,,,,,74,53.2641,0.0704428
,,,,,,,,,87,111.062,0.048704
,,,,,,,,,101,99.9889,0.0608943
,,,,,,,,,116,140.849,0.110976
,,,,,,,,,50,30.2891,0.0293246
,,,,,,,,,61,102.348,0.0196693
,,,,,,,,,73,156.893,0.0935691
,,,,,,,,,86,72.0311,0.0634779
,,,,,,,,,100,60.1782,0.0452697
,,,,,,,,,115,133.528,0.0556189
,,,,,,,,,131,127.417,0.0946201
,,,,,,,,,72,87.371,0.0143267
,,,,,,,,,85,171.775,0.0337308
,,,,,,,,,99,48.8897,0.0288079
,,,,,,,,,114,50.1935,0.0243611
,,,,,,,,,130,105.114,0.0270719
,,,,,,,,,147,102.19,0.0338664
,,,,,,,,,98,85.8379,0.0215582
,,,,,,,,,113,40.1765,0.0194355
,,,,,,,,,129,124.871,0.0173045
,,,,,,,,,146,45.1769,0.0186295
,,,,,,,,,164,90.7339,0.0216135
,,,,,,,,,128,123.4,0.0885035
,,,,,,,,,145,131.768,0.0567045
,,,,,,,,,163,66.7373,0.0739373
,,,,,,,,,182,73.2889,0.163558
,,,,,,,,,162,86.6361,0.0440499
,,,,,,,,,181,62.3726,0.0537889
,,,,,,,,,201,88.7267,0.0894432
,,,,,,,,,200,106.879,0.0401163
,,,,,,,,,221,70.5191,0.0570888
,,,,,,,,,242,46.8415,0.074592
