facetNormals:0,facetNormals:1,facetNormals:2,FacetCenters:0,FacetCenters:1,FacetCenters:2,FacetIds,relFacetSize,absFacetSize,cellPairingIds,interplanarAngles,angleWeights
-0.320114,-0.429634,-0.815666,6.68768,5.4304,4.68011,1,0.0420704,0.00827401,8,71.0847,0.0266104
0.708668,0.0122614,-0.660279,6.69256,5.50995,4.7961,2,0.0194595,0.0038271,13,36.6503,0.0431304
-0.521647,0.150346,-0.812278,6.68182,5.5026,4.66767,3,0.0442451,0.00870171,19,29.0273,0.0482833
-0.142907,-0.77538,-0.528479,6.70781,5.43417,4.69408,4,0.056649,0.0111412,26,41.3771,0.0454073
-0.834649,-0.110089,-0.488123,6.6451,5.44541,4.73641,5,0.0493192,0.00969963,34,80.2611,0.0566988
-0.606442,0.675847,-0.312329,6.70859,5.57938,4.7145,6,0.0869229,0.0170952,43,87.8878,0.0419251
-0.178555,0.862853,-0.427602,6.75448,5.60046,4.7057,7,0.0417808,0.00821706,53,102.775,0.0525845
0.287065,0.858223,-0.311509,6.78552,5.60622,4.72034,8,0.0701047,0.0137875,64,69.7861,0.0131481
0.298602,-0.940866,-0.0298674,6.70244,5.38754,4.81564,9,0.00779161,0.00153238,76,99.1552,0.0530423
-0.848848,0.343961,0.337794,6.64159,5.52686,4.78652,10,0.0717562,0.0141123,89,103.441,0.0327826
0.305974,-0.729538,0.528829,6.76833,5.49689,4.73534,11,0.0268541,0.00528141,103,142.358,0.0238464
0.716467,-0.0137111,0.629991,6.72781,5.4765,4.72486,12,0.0166388,0.00327236,118,117.137,0.0630438
-0.557433,-0.0603824,0.770663,6.67621,5.47908,4.8261,13,0.125718,0.0247251,134,165.163,0.0304462
0.0926755,0.541766,0.8192,6.73479,5.58822,4.82962,14,0.023855,0.00469157,18,79.7441,0.0270306
,,,,,,,,,25,74.9875,0.0289681
,,,,,,,,,33,106.678,0.0279076
,,,,,,,,,42,103.38,0.0317999
,,,,,,,,,52,79.8997,0.0265522
,,,,,,,,,63,63.0867,0.0304631
,,,,,,,,,75,76.7171,0.0111277
,,,,,,,,,88,150.176,0.0306162
,,,,,,,,,102,98.8169,0.0225664
,,,,,,,,,117,84.3123,0.0179389
,,,,,,,,,133,168.49,0.0337023
,,,,,,,,,150,119.364,0.0214342
,,,,,,,,,32,65.3176,0.0496846
,,,,,,,,,41,30.9566,0.0466446
,,,,,,,,,51,44.2807,0.058641
,,,,,,,,,62,53.4233,0.0429777
,,,,,,,,,74,75.6141,0.0542509
,,,,,,,,,87,106.434,0.0132499
,,,,,,,,,101,76.6554,0.0547384
,,,,,,,,,116,138.738,0.0334227
,,,,,,,,,132,162.192,0.0241833
,,,,,,,,,149,111.701,0.0654543
,,,,,,,,,167,131,0.0309975
,,,,,,,,,50,59.9458,0.0527306
,,,,,,,,,61,107.384,0.0685941
,,,,,,,,,73,116.689,0.048092
,,,,,,,,,86,126.617,0.0626626
,,,,,,,,,100,41.4452,0.013699
,,,,,,,,,115,110.462,0.0633139
,,,,,,,,,131,74.4279,0.036436
,,,,,,,,,148,117.965,0.0257225
,,,,,,,,,166,108.084,0.0781041
,,,,,,,,,185,157.687,0.0335725
,,,,,,,,,72,51.3043,0.0629316
,,,,,,,,,85,73.997,0.0452381
,,,,,,,,,99,101.27,0.0579031
,,,,,,,,,114,97.8385,0.0134572
,,,,,,,,,130,57.8346,0.0584588
,,,,,,,,,147,117.892,0.0347739
,,,,,,,,,165,166.801,0.0248829
,,,,,,,,,184,84.0755,0.0708457
,,,,,,,,,204,124.002,0.0321564
,,,,,,,,,98,28.6934,0.0564352
,,,,,,,,,113,56.7998,0.0776131
,,,,,,,,,129,148.392,0.0143013
,,,,,,,,,146,46.7961,0.0786147
,,,,,,,,,164,157.431,0.0410318
,,,,,,,,,183,134.354,0.027931
,,,,,,,,,203,86.4579,0.102781
,,,,,,,,,224,86.7267,0.0374361
,,,,,,,,,128,28.6671,0.0523577
,,,,,,,,,145,151.794,0.0131339
,,,,,,,,,163,71.4659,0.0528116
,,,,,,,,,182,167.6,0.0326943
,,,,,,,,,202,115.965,0.0237996
,,,,,,,,,223,107.591,0.0627181
,,,,,,,,,245,84.022,0.03037
,,,,,,,,,162,138.919,0.0140245
,,,,,,,,,181,93.2953,0.0709208
,,,,,,,,,201,140.526,0.0388329
,,,,,,,,,222,90.147,0.0268944
,,,,,,,,,244,119.699,0.0900143
,,,,,,,,,267,75.5016,0.0355971
,,,,,,,,,200,127.522,0.0140569
,,,,,,,,,221,35.8238,0.0120786
,,,,,,,,,243,77.2461,0.0106132
,,,,,,,,,266,98.1025,0.0146738
,,,,,,,,,290,121.327,0.0117465
,,,,,,,,,242,110.942,0.0390821
,,,,,,,,,265,115.438,0.0270137
,,,,,,,,,289,39.9967,0.0913643
,,,,,,,,,314,66.4742,0.0358063
,,,,,,,,,288,51.728,0.0205468
,,,,,,,,,313,71.9473,0.0442551
,,,,,,,,,339,85.948,0.0252658
,,,,,,,,,338,84.5127,0.0293881
,,,,,,,,,365,52.3426,0.0196039
,,,,,,,,,392,54.4262,0.0401008
