facetNormals:0,facetNormals:1,facetNormals:2,FacetCenters:0,FacetCenters:1,FacetCenters:2,FacetIds,relFacetSize,absFacetSize,cellPairingIds,interplanarAngles,angleWeights
-0.0496954,-0.00785426,-0.919633,6.37448,6.59029,5.40517,1,0.212718,0.0414461,8,55.5258,0.0281547
-0.272245,0.762509,-0.545106,6.3976,6.63869,5.40991,2,0.015075,0.00293722,13,51.2716,0.0351626
-0.7423,0.293138,-0.580868,6.24109,6.67782,5.44521,3,0.0191653,0.00373418,19,67.4319,0.0864673
0.766062,-0.378609,-0.40096,6.45094,6.56814,5.42902,4,0.0542621,0.0105724,26,75.3507,0.0989877
-0.904349,-0.159559,-0.187139,6.24306,6.63557,5.45357,5,0.0645016,0.0125675,34,108.115,0.0792232
0.70773,0.547031,0.245952,6.4563,6.63562,5.4789,6,0.0486758,0.009484,43,116.304,0.136201
0.378052,-0.755528,0.401058,6.41794,6.53538,5.4889,7,0.100169,0.0195169,53,113.999,0.0815379
-0.343321,-0.812717,0.424262,6.3329,6.55167,5.48716,8,0.0504352,0.0098268,64,119.722,0.134707
-0.721821,-0.375189,0.522204,6.26929,6.60931,5.50917,9,0.0985608,0.0192036,76,152.256,0.120478
0.482866,0.0525166,0.812494,6.41441,6.60864,5.52908,10,0.0840367,0.0163737,18,39.6102,0.0168759
,,,,,,,,,25,107.607,0.0235949
,,,,,,,,,33,75.6607,0.0244384
,,,,,,,,,42,84.2721,0.0230205
,,,,,,,,,52,169.542,0.0262061
,,,,,,,,,63,142.445,0.023212
,,,,,,,,,75,113.367,0.0261503
,,,,,,,,,88,125.331,0.0255642
,,,,,,,,,32,118.65,0.028326
,,,,,,,,,41,37.5708,0.0295504
,,,,,,,,,51,123.683,0.0275021
,,,,,,,,,62,142.776,0.0321747
,,,,,,,,,74,103.759,0.0277759
,,,,,,,,,87,82.6244,0.0320906
,,,,,,,,,101,150.717,0.0312124
,,,,,,,,,50,129.053,0.0589404
,,,,,,,,,61,74.3351,0.0513173
,,,,,,,,,73,61.9683,0.0703922
,,,,,,,,,86,97.8004,0.0522787
,,,,,,,,,100,132.828,0.069991
,,,,,,,,,115,88.4451,0.0659443
,,,,,,,,,72,152.809,0.0554822
,,,,,,,,,85,109.766,0.0784725
,,,,,,,,,99,66.8456,0.0566077
,,,,,,,,,114,47.2549,0.0779742
,,,,,,,,,130,132.304,0.0729846
,,,,,,,,,98,93.1119,0.0655152
,,,,,,,,,113,129.954,0.0495399
,,,,,,,,,129,130.941,0.0651676
,,,,,,,,,146,49.5016,0.0616453
,,,,,,,,,128,44.3757,0.0670903
,,,,,,,,,145,75.9147,0.0993582
,,,,,,,,,163,58.0298,0.0913963
,,,,,,,,,162,35.0971,0.0667257
,,,,,,,,,181,81.5452,0.0630378
,,,,,,,,,200,86.4889,0.0907211
