facetNormals:0,facetNormals:1,facetNormals:2,FacetCenters:0,FacetCenters:1,FacetCenters:2,FacetIds,relFacetSize,absFacetSize,cellPairingIds,interplanarAngles,angleWeights
0.551553,-0.127989,-0.78916,6.22567,6.91882,5.78856,1,0.020951,0.00401387,8,29.9002,0.0238207
0.276553,0.279619,-0.899503,6.17346,6.94107,5.78736,2,0.0276013,0.00528797,13,63.5051,0.0305154
-0.27102,0.470372,-0.79367,6.15389,6.9621,5.79145,3,0.056148,0.0107571,19,76.2423,0.0277692
-0.138199,0.821221,-0.516618,6.13162,7.00803,5.84332,4,0.0411663,0.00788682,26,52.9507,0.0306101
0.589877,0.651537,-0.413731,6.25491,7.00611,5.84129,5,0.0567945,0.0108809,34,84.5307,0.031026
-0.668106,-0.433718,-0.507391,6.09498,6.88966,5.82895,6,0.0597671,0.0114504,43,115.91,0.0324846
-0.768865,0.570786,-0.111489,6.11173,6.98777,5.87024,7,0.0722695,0.0138457,53,100.107,0.0275192
-0.559668,-0.80324,-0.0491744,6.13375,6.85035,5.87835,8,0.0400867,0.00767997,64,122.632,0.0205636
-0.994189,-0.0700937,-0.0218632,6.05706,6.93081,5.88515,9,0.0201904,0.00386816,76,90.2092,0.0237453
-0.0404814,-0.972144,0.133787,6.13883,6.85365,5.95206,10,0.0273999,0.00524938,89,127.353,0.0170323
-0.910832,-0.360664,0.163554,6.09926,6.88232,5.94166,11,0.0143485,0.00274895,103,125.392,0.0306227
-0.591729,-0.671419,0.391684,6.1044,6.8801,5.94579,12,0.0568812,0.0108975,118,129.327,0.0321381
-0.477067,0.795268,0.297175,6.10959,7.00194,5.9513,13,0.0689613,0.0132119,134,152.637,0.0243868
-0.838342,-0.0814985,0.495418,6.09363,6.91679,5.98971,14,0.0291708,0.00558866,151,87.6563,0.0162185
0.819446,-0.133444,0.544393,6.22187,6.95025,5.98155,15,0.01323,0.00253466,169,115.891,0.0275612
0.196811,0.791338,0.532672,6.18453,7.02151,5.95703,16,0.0402651,0.00771417,188,97.8935,0.0303902
0.688506,0.354074,0.588113,6.23395,6.97576,5.94896,17,0.0553095,0.0105964,208,161.925,0.0107316
-0.428412,-0.139331,0.882989,6.1275,6.8937,6.02566,18,0.0072132,0.00138193,229,127.25,0.0277559
0.289365,0.320942,0.881659,6.17905,6.94292,6.01525,19,0.0411078,0.00787561,18,35.2942,0.0370094
,,,,,,,,,25,47.0025,0.0330459
,,,,,,,,,33,41.2066,0.0371488
,,,,,,,,,42,80.667,0.0377631
,,,,,,,,,52,87.138,0.0399462
,,,,,,,,,63,110.382,0.0326925
,,,,,,,,,75,106.312,0.0233212
,,,,,,,,,88,114.73,0.0275002
,,,,,,,,,102,120.841,0.0188815
,,,,,,,,,117,137.202,0.0371673
,,,,,,,,,133,100.661,0.0394236
,,,,,,,,,150,136.883,0.0283643
,,,,,,,,,168,107.95,0.0178865
,,,,,,,,,187,102.284,0.0327517
,,,,,,,,,207,104.538,0.0368254
,,,,,,,,,228,167.945,0.0114374
,,,,,,,,,250,130.287,0.033027
,,,,,,,,,32,27.7757,0.0475039
,,,,,,,,,41,59.437,0.0564694
,,,,,,,,,51,65.28,0.0579011
,,,,,,,,,62,52.4199,0.0631968
,,,,,,,,,74,101.45,0.046777
,,,,,,,,,87,74.6453,0.0297007
,,,,,,,,,101,125.804,0.0368279
,,,,,,,,,116,93.1572,0.0228562
,,,,,,,,,132,119.763,0.0565122
,,,,,,,,,149,73.4009,0.0618985
,,,,,,,,,167,102.559,0.0383944
,,,,,,,,,186,138.675,0.0214142
,,,,,,,,,206,96.3682,0.0468983
,,,,,,,,,227,121.381,0.0557256
,,,,,,,,,249,133.014,0.0127841
,,,,,,,,,272,131.63,0.047465
,,,,,,,,,50,45.4976,0.0477338
,,,,,,,,,61,90.1065,0.0487528
,,,,,,,,,73,47.9652,0.0524538
,,,,,,,,,86,125.431,0.0406193
,,,,,,,,,100,84.6478,0.0270928
,,,,,,,,,115,153.566,0.0329011
,,,,,,,,,131,105.176,0.0212799
,,,,,,,,,148,134.578,0.0477644
,,,,,,,,,166,53.6626,0.0515562
,,,,,,,,,185,102.484,0.0341457
,,,,,,,,,205,121.204,0.0200245
,,,,,,,,,226,68.652,0.0407107
,,,,,,,,,248,96.5209,0.0472012
,,,,,,,,,271,121.764,0.0122755
,,,,,,,,,295,103.946,0.041137
,,,,,,,,,72,120.583,0.0582429
,,,,,,,,,85,92.1738,0.0636043
,,,,,,,,,99,151.04,0.0469999
,,,,,,,,,114,130.047,0.0297903
,,,,,,,,,130,138.326,0.0369659
,,,,,,,,,147,150.526,0.0229093
,,,,,,,,,165,178.281,0.0568378
,,,,,,,,,184,83.0916,0.0622894
,,,,,,,,,204,142.45,0.0385444
,,,,,,,,,225,79.7751,0.0214608
,,,,,,,,,247,64.2336,0.0471223
,,,,,,,,,270,65.3769,0.0560422
,,,,,,,,,294,137.4,0.0128006
,,,,,,,,,319,89.0974,0.0476944
,,,,,,,,,98,69.2417,0.0654264
,,,,,,,,,113,36.1778,0.0479874
,,,,,,,,,129,41.4461,0.0301841
,,,,,,,,,146,65.761,0.0375741
,,,,,,,,,164,43.3599,0.0231414
,,,,,,,,,183,58.0808,0.0582884
,,,,,,,,,203,101.094,0.0640359
,,,,,,,,,224,68.1096,0.0392061
,,,,,,,,,246,144.763,0.0216644
,,,,,,,,,269,144.084,0.0481151
,,,,,,,,,293,173.311,0.057452
,,,,,,,,,318,96.216,0.0128728
,,,,,,,,,344,147.248,0.0487117
,,,,,,,,,128,91.3757,0.0515689
,,,,,,,,,145,40.8625,0.0315629
,,,,,,,,,163,124.676,0.0397349
,,,,,,,,,182,60.1748,0.0239433
,,,,,,,,,202,88.293,0.0636586
,,,,,,,,,223,32.9737,0.0705767
,,,,,,,,,245,54.8156,0.0415645
,,,,,,,,,268,143.252,0.0223656
,,,,,,,,,292,75.1295,0.0517164
,,,,,,,,,317,114.779,0.0626622
,,,,,,,,,343,80.883,0.0131172
,,,,,,,,,370,98.3579,0.0524063
,,,,,,,,,162,51.0881,0.0268548
,,,,,,,,,181,34.1263,0.0325508
,,,,,,,,,201,35.6182,0.0211328
,,,,,,,,,222,27.2628,0.0470295
,,,,,,,,,244,113.878,0.0507012
,,,,,,,,,267,57.8091,0.0337685
,,,,,,,,,291,112.869,0.0198942
,,,,,,,,,316,143.956,0.0401757
,,,,,,,,,342,137.146,0.0464835
,,,,,,,,,369,71.5032,0.0122264
,,,,,,,,,397,118.762,0.0405908
,,,,,,,,,200,83.8164,0.023249
,,,,,,,,,221,20.5282,0.0167754
,,,,,,,,,243,49.9394,0.0298022
,,,,,,,,,266,64.8847,0.0312357
,,,,,,,,,290,31.7528,0.0238637
,,,,,,,,,315,145.661,0.0159854
,,,,,,,,,341,105.702,0.0268948
,,,,,,,,,368,138.168,0.029582
,,,,,,,,,396,65.0797,0.0106291
,,,,,,,,,425,109.669,0.0270802
,,,,,,,,,242,65.1864,0.0188341
,,,,,,,,,265,40.5472,0.0369843
,,,,,,,,,289,138.293,0.0392177
,,,,,,,,,314,79.2238,0.0282576
,,,,,,,,,340,79.996,0.017844
,,,,,,,,,367,137.563,0.0326095
,,,,,,,,,395,107.894,0.0366457
,,,,,,,,,424,73.8425,0.01142
,,,,,,,,,454,102.32,0.0328824
,,,,,,,,,288,29.4156,0.0229163
,,,,,,,,,313,78.2898,0.0237545
,,,,,,,,,339,25.7712,0.0192355
,,,,,,,,,366,128.158,0.0137666
,,,,,,,,,394,112.972,0.0211575
,,,,,,,,,423,133.005,0.0227859
,,,,,,,,,453,53.5537,0.00960023
,,,,,,,,,484,103.951,0.0212721
,,,,,,,,,338,98.1741,0.0623414
,,,,,,,,,365,38.7177,0.0385643
,,,,,,,,,393,100.819,0.021467
,,,,,,,,,422,117.485,0.0471521
,,,,,,,,,452,115.894,0.0560843
,,,,,,,,,483,44.3138,0.0128028
,,,,,,,,,515,92.4725,0.047725
,,,,,,,,,392,59.5438,0.0409989
,,,,,,,,,421,110.29,0.0222008
,,,,,,,,,451,42.9978,0.0508437
,,,,,,,,,482,82.2369,0.0613855
,,,,,,,,,514,68.3608,0.0130603
,,,,,,,,,547,66.6357,0.0515103
,,,,,,,,,450,114.765,0.0182039
,,,,,,,,,481,87.9283,0.0338316
,,,,,,,,,513,109.344,0.0381964
,,,,,,,,,546,33.4777,0.0115663
,,,,,,,,,580,79.9128,0.0341255
,,,,,,,,,512,69.056,0.0199161
,,,,,,,,,545,29.8612,0.0213525
,,,,,,,,,579,81.3374,0.00933617
,,,,,,,,,614,46.2359,0.0200176
,,,,,,,,,578,39.6661,0.0466033
,,,,,,,,,613,73.404,0.0122346
,,,,,,,,,649,35.2947,0.0406821
,,,,,,,,,648,79.5383,0.012762
,,,,,,,,,685,29.4369,0.0471627
,,,,,,,,,722,51.2044,0.0122729
