Q	U	V
{$V$}	{[mm$^3$]}	0.00495759
{$d_v$}	{[mm]}	0.211555
{$S_c$}	{[mm$^2$]}	0.21748
{$S_o$}	{[mm$^2$]}	0.13084
{$S_l/S_o$}	[]	0.662183
{$\Psi$}	[]	0.646515
{$\eta$}	[]	0.672292
{med($\theta_e$)}	{[$^\circ$]}	70.12775
{$\Upsilon$}	[]	12
{$\Xi$}	[]	6
