Q	U	V
{$V$}	{[mm$^3$]}	0.00663783
{$d_v$}	{[mm]}	0.233172
{$S_c$}	{[mm$^2$]}	0.404187
{$S_o$}	{[mm$^2$]}	0.215474
{$S_l/S_o$}	[]	0.875804
{$\Psi$}	[]	0.42259
{$\eta$}	[]	0.442152
{med($\theta_e$)}	{[$^\circ$]}	55.9177
{$\Upsilon$}	[]	13
{$\Xi$}	[]	9
