Q	U	V
{$V$}	{[mm$^3$]}	0.00189041
{$d_v$}	{[mm]}	0.153410
{$S_c$}	{[mm$^2$]}	0.14956
{$S_o$}	{[mm$^2$]}	0.0800048
{$S_l/S_o$}	[]	0.869388
{$\Psi$}	[]	0.494355
{$\eta$}	[]	0.541966
{med($\theta_e$)}	{[$^\circ$]}	
{$\Upsilon$}	[]	14
{$\Xi$}	[]	6
