"cellPairingIds","interplanarAngles","angleWeights"
8,103.937,0.0675966
13,45.9357,0.0262918
19,120.673,0.0426941
26,67.7024,0.0395942
34,120.049,0.0629719
43,75.4975,0.062019
64,112.924,0.0483813
25,40.5379,0.0679751
52,84.9442,0.1349
88,101.45,0.0481227
102,94.1196,0.168634
41,27.3513,0.0251344
62,38.2638,0.0326222
101,67.0042,0.0227163
61,46.3728,0.0633003
131,81.7853,0.0686869
99,33.6009,0.0224439
114,79.0934,0.044602
130,49.4327,0.0320074
129,61.4165,0.0766611
164,73.5835,0.142522
163,46.5074,0.045227
162,61.2041,0.0250197
181,25.672,0.0204957
201,56.7379,0.0294632
221,55.3898,0.0847061
242,49.1476,0.0484784
