"cellPairingIds","interplanarAngles","angleWeights"
8,45.0164,0.0612148
13,37.9551,0.0637819
19,97.2437,0.0720012
26,82.6995,0.0691563
43,135.31,0.0463198
18,54.7426,0.051719
42,43.2321,0.0639169
52,143.932,0.0396105
63,71.8521,0.0266814
41,69.3117,0.057276
51,49.5469,0.0667208
101,69.9946,0.0565504
116,75.1299,0.0402903
50,50.607,0.063818
73,46.3557,0.0438624
100,55.4071,0.0567273
114,46.447,0.0549464
130,58.3016,0.0607352
113,70.4368,0.0301824
164,49.7758,0.0473262
183,51.3707,0.0454756
128,86.1523,0.0234014
145,57.8843,0.0394811
223,65.7013,0.0549256
222,60.5342,0.0228187
244,52.5038,0.0328516
200,49.6442,0.0542783
266,62.566,0.0767102
242,26.8172,0.0419719
289,64.687,0.0884844
288,18.5065,0.031425
313,51.5743,0.0542359
338,38.1671,0.0518193
