facetNormals:0,facetNormals:1,facetNormals:2,FacetCenters:0,FacetCenters:1,FacetCenters:2,FacetIds,relFacetSize,absFacetSize,cellPairingIds,interplanarAngles,angleWeights
-0.478215,-0.0941269,-0.768504,6.02625,6.30846,5.33238,1,0.176607,0.0609631,8,61.761,0.0290048
0.402152,0.320248,-0.842397,6.1746,6.37066,5.27036,2,0.0157998,0.00545397,13,83.7227,0.0789538
0.736667,0.0996181,-0.593789,6.23624,6.33708,5.28533,3,0.0508415,0.0175501,19,61.1327,0.0498262
0.0121089,0.725674,-0.655518,6.07895,6.39128,5.33323,4,0.0290047,0.0100122,26,56.6033,0.0914547
-0.501102,0.725179,-0.410895,6.02953,6.39692,5.33572,5,0.0617039,0.0212997,34,93.6949,0.0882413
0.664984,-0.664135,-0.258079,6.20088,6.23757,5.3378,6,0.0588137,0.020302,43,61.1648,0.0416576
-0.964792,0.126259,0.0289496,5.91161,6.3166,5.44348,7,0.0236138,0.00815128,53,94.3717,0.091853
0.0919254,0.95343,-0.0871615,6.12599,6.41252,5.37415,8,0.062067,0.021425,64,95.9148,0.0777763
-0.5551,0.707271,0.377799,5.98927,6.38361,5.45134,9,0.0498691,0.0172144,76,128.806,0.137433
0.04758,0.734716,0.572532,6.07289,6.3897,5.44867,10,0.112483,0.0388282,89,159.46,0.0477364
0.654765,0.363946,0.641903,6.20585,6.35486,5.44677,11,0.027598,0.00952662,103,169.789,0.080626
0.352233,0.118504,0.885993,6.11051,6.34788,5.49324,12,0.0522368,0.0180317,18,28.0857,0.0241078
,,,,,,,,,25,35.1168,0.0204564
,,,,,,,,,33,66.8804,0.0251578
,,,,,,,,,42,73.5641,0.0249082
,,,,,,,,,52,112.779,0.0189322
,,,,,,,,,63,64.0247,0.0251878
,,,,,,,,,75,109.104,0.0239968
,,,,,,,,,88,104.334,0.0277077
,,,,,,,,,102,99.511,0.0200952
,,,,,,,,,117,126.708,0.0242614
,,,,,,,,,32,59.6284,0.0369371
,,,,,,,,,41,93.2787,0.0557485
,,,,,,,,,51,51.5222,0.0545378
,,,,,,,,,62,140.568,0.0322491
,,,,,,,,,74,76.4464,0.0558962
,,,,,,,,,87,127.341,0.0503506
,,,,,,,,,101,105.138,0.07003
,,,,,,,,,116,81.5794,0.035776
,,,,,,,,,132,106.186,0.0515297
,,,,,,,,,50,33.8913,0.0394605
,,,,,,,,,61,108.644,0.03885
,,,,,,,,,73,86.3285,0.0260331
,,,,,,,,,86,37.1107,0.0395344
,,,,,,,,,100,74.2512,0.0366773
,,,,,,,,,115,79.9971,0.0461176
,,,,,,,,,131,98.8687,0.0282839
,,,,,,,,,148,121.469,0.037299
,,,,,,,,,72,138.4,0.0602242
,,,,,,,,,85,53.5001,0.0341561
,,,,,,,,,99,43.2638,0.0618849
,,,,,,,,,114,47.9038,0.0551589
,,,,,,,,,130,72.4369,0.0796918
,,,,,,,,,147,109.987,0.0381382
,,,,,,,,,165,119.113,0.056577
,,,,,,,,,98,140.578,0.0336978
,,,,,,,,,113,125.894,0.0603966
,,,,,,,,,129,170.107,0.0539734
,,,,,,,,,146,131.648,0.0772407
,,,,,,,,,164,88.329,0.0375677
,,,,,,,,,183,94.4792,0.0553305
,,,,,,,,,128,88.2148,0.0342115
,,,,,,,,,145,47.9551,0.0320509
,,,,,,,,,163,85.9935,0.0390332
,,,,,,,,,182,126.2,0.0254509
,,,,,,,,,202,108.659,0.0325247
,,,,,,,,,162,50.9941,0.0553035
,,,,,,,,,181,43.1016,0.0799941
,,,,,,,,,201,68.2735,0.0382073
,,,,,,,,,222,85.7713,0.0567292
,,,,,,,,,200,38.7329,0.069102
,,,,,,,,,221,81.846,0.0355322
,,,,,,,,,243,76.2306,0.0510255
,,,,,,,,,242,43.6219,0.0443216
,,,,,,,,,265,47.0037,0.0713424
,,,,,,,,,288,27.2699,0.0361154
