Q	U	V
{$V$}	{[mm$^3$]}	0.00530551
{$d_v$}	{[mm]}	0.216393
{$S_c$}	{[mm$^2$]}	0.262903
{$S_o$}	{[mm$^2$]}	0.153622
{$S_l/S_o$}	[]	0.711363
{$\Psi$}	[]	0.559551
{$\eta$}	[]	0.583459
{med($\theta_e$)}	{[$^\circ$]}	58.56305
{$\Upsilon$}	[]	14
{$\Xi$}	[]	10
