Q	U	V
{$V$}	{[mm$^3$]}	0.00876692
{$d_v$}	{[mm]}	0.255829
{$S_c$}	{[mm$^2$]}	0.43019
{$S_o$}	{[mm$^2$]}	0.256072
{$S_l/S_o$}	[]	0.679957
{$\Psi$}	[]	0.477957
{$\eta$}	[]	0.540724
{med($\theta_e$)}	{[$^\circ$]}	72.3883
{$\Upsilon$}	[]	13
{$\Xi$}	[]	7
