"cellPairingIds","interplanarAngles","angleWeights"
8,38.7084,0.0345341
13,88.7996,0.0226491
26,90.748,0.0404105
34,74.0316,0.0451731
33,104.161,0.0462261
42,54.0783,0.0525657
75,72.1542,0.0493424
117,75.6671,0.0503383
32,36.8187,0.0239317
41,119.209,0.0271534
51,77.1763,0.0292236
74,61.9481,0.022165
101,63.4211,0.0217107
50,96.1311,0.0446834
115,59.0223,0.0316335
131,64.1163,0.0423869
166,54.7705,0.0360458
114,78.396,0.0622832
147,83.8736,0.053664
204,82.9178,0.0775203
113,37.8544,0.0432877
183,35.6126,0.076653
181,25.3443,0.0286183
222,29.7094,0.0417658
243,68.5098,0.0699863
290,48.691,0.0867033
265,42.2318,0.0401813
289,21.071,0.0312333
313,32.6844,0.0416714
339,23.4278,0.0708598
338,55.2647,0.0475793
365,67.868,0.0898257
392,45.4795,0.0547566
