Q	U	V
{$V$}	{[mm$^3$]}	0.00407057
{$d_v$}	{[mm]}	0.198100
{$S_c$}	{[mm$^2$]}	0.223332
{$S_o$}	{[mm$^2$]}	0.123017
{$S_l/S_o$}	[]	0.815456
{$\Psi$}	[]	0.552039
{$\eta$}	[]	0.616392
{med($\theta_e$)}	{[$^\circ$]}	72.8998
{$\Upsilon$}	[]	11
{$\Xi$}	[]	6
