Q	U	V
{$V$}	{[mm$^3$]}	0.0161683
{$d_v$}	{[mm]}	0.313729
{$S_c$}	{[mm$^2$]}	0.52
{$S_o$}	{[mm$^2$]}	0.330155
{$S_l/S_o$}	[]	0.575018
{$\Psi$}	[]	0.594644
{$\eta$}	[]	0.643162
{med($\theta_e$)}	{[$^\circ$]}	56.253
{$\Upsilon$}	[]	15
{$\Xi$}	[]	14
