"cellPairingIds","interplanarAngles","angleWeights"
13,59.3939,0.00810067
19,34.4383,0.0197007
26,40.1394,0.0351762
34,43.4928,0.0280319
18,49.8513,0.00863738
33,21.3616,0.0481751
102,60.1642,0.0642875
32,62.9617,0.00736726
41,70.6984,0.00881801
62,85.7771,0.0089844
116,76.1258,0.00924199
132,81.722,0.00387154
149,89.3308,0.00621075
61,62.8265,0.0208495
73,29.6571,0.0258952
86,50.914,0.0158501
72,43.0921,0.0390146
130,64.2261,0.0261801
147,64.9185,0.0758519
225,86.8603,0.0295959
113,59.249,0.0208311
146,31.6511,0.022006
128,28.8693,0.0258668
202,56.7083,0.00620437
317,84.5366,0.11175
181,60.9078,0.0165096
342,65.2778,0.0299199
314,34.8956,0.0285905
340,64.0339,0.018657
395,73.8096,0.0324048
313,58.9327,0.0164499
366,54.138,0.0349821
338,75.2061,0.00474195
422,35.0623,0.0055035
452,70.7395,0.00641274
421,66.529,0.0122857
451,57.2131,0.0118457
482,77.6914,0.0170486
450,38.127,0.0327137
513,48.6566,0.127737
545,67.0726,0.0378054
578,41.763,0.0339277
