facetNormals:0,facetNormals:1,facetNormals:2,FacetCenters:0,FacetCenters:1,FacetCenters:2,FacetIds,relFacetSize,absFacetSize,cellPairingIds,interplanarAngles,angleWeights
-0.571088,-0.072771,-0.782799,5.63775,3.48232,6.62602,1,0.0976331,0.0130811,8,43.0511,0.0508197
-0.194574,-0.673534,-0.683736,5.6055,3.45138,6.65664,2,0.0343496,0.00460225,13,84.3147,0.090009
0.717328,-0.225726,-0.622377,5.72214,3.49527,6.64056,3,0.0834894,0.0111861,19,88.9435,0.0365694
0.537549,0.677764,-0.477792,5.72474,3.58282,6.65027,4,0.0224981,0.00301436,26,70.3806,0.075169
-0.045956,0.854773,-0.448777,5.66773,3.59278,6.65531,5,0.0611086,0.0081875,34,44.8265,0.0116921
-0.854653,-0.467238,-0.210369,5.61075,3.40647,6.68869,6,0.00621839,0.000833157,43,110.157,0.112486
0.711446,-0.662372,-0.0412872,5.72615,3.4409,6.71163,7,0.132668,0.0177752,53,63.9105,0.0580503
-0.864691,-0.301269,0.152121,5.60786,3.43511,6.70683,8,0.0413044,0.00553408,64,118.361,0.0373567
0.352411,0.882812,0.23874,5.68105,3.60407,6.70595,9,0.0230971,0.00309461,76,115.635,0.0304497
0.272507,-0.850719,0.407589,5.67813,3.4053,6.74363,10,0.0180376,0.00241673,89,102.906,0.0917621
-0.34903,-0.683238,0.585783,5.63827,3.43741,6.76819,11,0.086557,0.0115971,103,133.987,0.0702422
0.119167,0.685522,0.700515,5.72267,3.5321,6.75814,12,0.0548532,0.00734937,118,156.766,0.0783121
0.45727,0.448556,0.74797,5.69037,3.52515,6.75993,13,0.0653748,0.00875909,18,62.7292,0.0486737
,,,,,,,,,25,104.017,0.0271885
,,,,,,,,,33,105.94,0.0439785
,,,,,,,,,42,50.1864,0.0105304
,,,,,,,,,52,69.3548,0.0545702
,,,,,,,,,63,72.9086,0.0375073
,,,,,,,,,75,149.434,0.0276213
,,,,,,,,,88,75.4675,0.0236541
,,,,,,,,,102,82.2438,0.0491817
,,,,,,,,,117,175.468,0.042245
,,,,,,,,,133,159.367,0.0450361
,,,,,,,,,32,56.6748,0.0354449
,,,,,,,,,41,86.7554,0.070567
,,,,,,,,,51,112.782,0.0115747
,,,,,,,,,62,43.7933,0.102484
,,,,,,,,,74,135.561,0.0552669
,,,,,,,,,87,95.7028,0.036184
,,,,,,,,,101,81.9735,0.029666
,,,,,,,,,116,119.272,0.0849955
,,,,,,,,,132,121.616,0.0662075
,,,,,,,,,149,104.381,0.0733299
,,,,,,,,,50,36.3733,0.032888
,,,,,,,,,61,133.317,0.00974368
,,,,,,,,,73,92.788,0.0384721
,,,,,,,,,86,143.955,0.0291296
,,,,,,,,,100,45.9259,0.0227937
,,,,,,,,,115,130.086,0.0200225
,,,,,,,,,131,167.296,0.0357135
,,,,,,,,,148,78.533,0.0319088
,,,,,,,,,166,78.5946,0.0334759
,,,,,,,,,72,106.014,0.0112881
,,,,,,,,,85,128.109,0.0836753
,,,,,,,,,99,108.593,0.0492917
,,,,,,,,,114,48.2089,0.0335234
,,,,,,,,,130,166.454,0.0278536
,,,,,,,,,147,152.944,0.07164
,,,,,,,,,165,73.8077,0.0578122
,,,,,,,,,184,88.3908,0.0631698
,,,,,,,,,98,107.396,0.01188
,,,,,,,,,113,23.5738,0.0108094
,,,,,,,,,129,141.46,0.0097987
,,,,,,,,,146,85.378,0.00924843
,,,,,,,,,164,59.0772,0.0116032
,,,,,,,,,183,125.369,0.0111705
,,,,,,,,,203,140.549,0.0113566
,,,,,,,,,128,117.851,0.0629959
,,,,,,,,,145,111.139,0.0393444
,,,,,,,,,163,39.1788,0.0317575
,,,,,,,,,182,78.9468,0.104763
,,,,,,,,,202,114.49,0.0776154
,,,,,,,,,223,90.1597,0.0875886
,,,,,,,,,162,125.973,0.029627
,,,,,,,,,181,84.7962,0.0251098
,,,,,,,,,201,48.2396,0.0559229
,,,,,,,,,222,102.797,0.0471243
,,,,,,,,,244,117.124,0.0506241
,,,,,,,,,200,125.416,0.0202562
,,,,,,,,,221,128.298,0.036464
,,,,,,,,,243,32.6877,0.0325066
,,,,,,,,,266,40.3344,0.0341344
,,,,,,,,,242,40.1102,0.029854
,,,,,,,,,265,105.875,0.0271481
,,,,,,,,,289,87.1618,0.0282741
,,,,,,,,,288,95.9996,0.0671511
,,,,,,,,,313,91.6833,0.0744893
,,,,,,,,,338,24.3304,0.0596536
