facetNormals:0,facetNormals:1,facetNormals:2,FacetCenters:0,FacetCenters:1,FacetCenters:2,FacetIds,relFacetSize,absFacetSize,cellPairingIds,interplanarAngles,angleWeights
0.545769,0.298543,-0.740482,4.70948,3.85661,5.37712,1,0.196356,0.0213512,8,61.2073,0.0620254
-0.354652,0.675555,-0.599369,4.661,3.90063,5.38832,2,0.0368296,0.00400476,13,57.4885,0.055405
0.634205,-0.585574,-0.452936,4.77422,3.80209,5.43739,3,0.0322528,0.00350709,19,106.253,0.0142972
0.262584,-0.915384,0.178647,4.66112,3.81043,5.43719,4,0.0074187,0.000806691,26,60.8818,0.0136104
0.416341,0.900398,0.0389358,4.67773,3.91693,5.41157,5,0.00704953,0.000766548,34,99.7499,0.109938
-0.61549,0.729864,0.0520993,4.66244,3.89646,5.46519,6,0.0763403,0.00830106,43,123.975,0.0633445
-0.72841,0.534168,0.3993,4.66693,3.88214,5.51749,7,0.0377635,0.00410631,53,86.3693,0.168418
0.594633,0.511545,0.564582,4.73773,3.8824,5.51421,8,0.14744,0.0160323,64,99.8765,0.0989526
0.700392,-0.334322,0.60138,4.75062,3.79911,5.53011,9,0.0661424,0.00719215,76,158.69,0.0641894
-0.480047,-0.601033,0.565555,4.66536,3.79178,5.46262,10,0.0383657,0.00417178,89,154.758,0.0661897
-0.167024,-0.23297,0.909464,4.67294,3.81965,5.5077,11,0.0398036,0.00432814,18,111.656,0.0343896
,,,,,,,,,25,150.547,0.0123498
,,,,,,,,,33,63.0015,0.0118339
,,,,,,,,,42,42.8522,0.0496879
,,,,,,,,,52,66.6452,0.0372907
,,,,,,,,,63,102.547,0.0589372
,,,,,,,,,75,151.189,0.0473138
,,,,,,,,,88,128.349,0.037582
,,,,,,,,,102,134.047,0.0382589
,,,,,,,,,32,48.8402,0.0120628
,,,,,,,,,41,106.87,0.0115702
,,,,,,,,,51,154.507,0.0453471
,,,,,,,,,62,173.03,0.0347913
,,,,,,,,,74,100.9,0.0529277
,,,,,,,,,87,67.415,0.0433614
,,,,,,,,,101,102.956,0.0350447
,,,,,,,,,116,114.226,0.0356326
,,,,,,,,,50,137.389,0.00722941
,,,,,,,,,61,152.321,0.0135232
,,,,,,,,,73,129.519,0.0124012
,,,,,,,,,86,103.038,0.0141266
,,,,,,,,,100,51.1002,0.013341
,,,,,,,,,115,55.4101,0.0124332
,,,,,,,,,131,68.9491,0.0125064
,,,,,,,,,72,64.8815,0.0129072
,,,,,,,,,85,78.6327,0.0118811
,,,,,,,,,99,40.4471,0.0134557
,,,,,,,,,114,89.1774,0.0127411
,,,,,,,,,130,139.34,0.0119106
,,,,,,,,,147,104.93,0.0119777
,,,,,,,,,98,24.5409,0.0505308
,,,,,,,,,113,87.7188,0.100595
,,,,,,,,,129,133.294,0.0708764
,,,,,,,,,146,97.1575,0.051067
,,,,,,,,,164,91.2476,0.0523251
,,,,,,,,,128,86.0618,0.0601269
,,,,,,,,,145,117.559,0.0480775
,,,,,,,,,163,74.3446,0.0380622
,,,,,,,,,182,67.5016,0.0387567
,,,,,,,,,162,51.9391,0.0913187
,,,,,,,,,181,107.249,0.0608876
,,,,,,,,,201,71.3324,0.0626846
,,,,,,,,,200,77.3784,0.0485627
,,,,,,,,,221,57.1512,0.049699
,,,,,,,,,242,36.2124,0.0390714
