Q	U	V
{$V$}	{[mm$^3$]}	0.0201747
{$d_v$}	{[mm]}	0.337756
{$S_c$}	{[mm$^2$]}	0.721058
{$S_o$}	{[mm$^2$]}	0.51178
{$S_l/S_o$}	[]	0.408922
{$\Psi$}	[]	0.497033
{$\eta$}	[]	0.506639
{med($\theta_e$)}	{[$^\circ$]}	73.389
{$\Upsilon$}	[]	15
{$\Xi$}	[]	14
