"cellPairingIds","interplanarAngles","angleWeights"
8,60.332,0.0947378
13,52.6416,0.062957
19,72.3488,0.0930253
26,71.2418,0.0619956
43,87.6606,0.124851
18,102.837,0.0470841
25,81.5123,0.0620945
42,38.9499,0.0502758
41,42.8414,0.0372949
61,75.6494,0.0497894
73,36.8883,0.0737539
86,72.3293,0.0268833
115,61.0478,0.0950326
85,53.5365,0.0528011
114,43.5454,0.0412457
145,57.582,0.0620179
163,40.5577,0.128493
181,63.1633,0.0318252
200,51.4428,0.0764031
