facetNormals:0,facetNormals:1,facetNormals:2,FacetCenters:0,FacetCenters:1,FacetCenters:2,FacetIds,relFacetSize,absFacetSize,cellPairingIds,interplanarAngles,angleWeights
-0.17033,0.555873,-0.774097,3.56529,6.49125,7.43069,1,0.022275,0.00239702,8,64.1055,0.029755
0.73843,0.0794154,-0.641429,3.66233,6.44827,7.41872,2,0.0447983,0.00482074,13,87.0629,0.0299342
0.54394,-0.568208,-0.590753,3.65986,6.38713,7.4333,3,0.0456207,0.00490924,19,51.6638,0.0247085
-0.674862,-0.0904808,-0.642939,3.5701,6.38754,7.45589,4,0.0277388,0.00298497,26,29.4245,0.00918784
-0.273813,0.865938,-0.398098,3.55143,6.48231,7.44942,5,0.00578751,0.000622794,34,55.7124,0.0328762
0.639416,0.635264,-0.371323,3.65707,6.48625,7.44209,6,0.0627314,0.00675053,43,101.546,0.0213069
0.946941,-0.218361,-0.120068,3.66897,6.42663,7.46533,7,0.0204194,0.00219733,53,81.1795,0.0177481
-0.958393,0.124698,0.113805,3.50761,6.41978,7.49829,8,0.0147503,0.00158728,64,100.417,0.0356228
0.842337,0.352499,0.284023,3.65375,6.44559,7.47723,9,0.0888852,0.00956494,76,149.274,0.0372163
0.307296,-0.838651,0.369173,3.63016,6.36446,7.50118,10,0.113038,0.0121641,89,79.0872,0.0313605
0.134191,0.886067,0.376599,3.61346,6.51257,7.47929,11,0.0529626,0.00569931,103,91.3803,0.0341948
-0.412151,0.652967,0.588833,3.56632,6.48794,7.49008,12,0.0735552,0.00791527,118,112.049,0.0236912
-0.637522,0.175443,0.727976,3.54467,6.44069,7.51739,13,0.0252996,0.00272249,134,119.665,0.0328634
0.129329,0.41399,0.871224,3.59113,6.50925,7.46308,14,0.0626385,0.00674053,151,149.997,0.0376539
-0.0813413,-0.160191,0.950094,3.58372,6.40646,7.53402,15,0.121625,0.013088,18,40.3725,0.0452058
,,,,,,,,,25,95.8159,0.0342625
,,,,,,,,,33,82.802,0.0102507
,,,,,,,,,42,37.3184,0.0522695
,,,,,,,,,52,37.833,0.0280523
,,,,,,,,,63,143.817,0.0221933
,,,,,,,,,75,60.098,0.0595721
,,,,,,,,,88,94.6255,0.0641667
,,,,,,,,,102,94.3348,0.0485395
,,,,,,,,,117,131.4,0.0556831
,,,,,,,,,133,163.175,0.0323371
,,,,,,,,,150,116.789,0.0522372
,,,,,,,,,168,135.968,0.0654787
,,,,,,,,,32,86.0073,0.0345003
,,,,,,,,,41,114.582,0.0102719
,,,,,,,,,51,77.583,0.052825
,,,,,,,,,62,42.5085,0.0282116
,,,,,,,,,74,133.535,0.0222928
,,,,,,,,,87,84.5038,0.0602948
,,,,,,,,,101,63.4076,0.0650059
,,,,,,,,,116,133.064,0.0490183
,,,,,,,,,132,170.834,0.0563141
,,,,,,,,,149,154.96,0.0325488
,,,,,,,,,167,135.22,0.0527921
,,,,,,,,,186,122.744,0.0663529
,,,,,,,,,50,67.0306,0.00957688
,,,,,,,,,61,105.91,0.0384678
,,,,,,,,,73,126.241,0.0235229
,,,,,,,,,86,51.8997,0.0192593
,,,,,,,,,100,150.963,0.0422824
,,,,,,,,,115,114.05,0.0445463
,,,,,,,,,131,116.97,0.0364088
,,,,,,,,,148,100.103,0.0402854
,,,,,,,,,166,93.3414,0.0264631
,,,,,,,,,185,138.717,0.0384503
,,,,,,,,,205,126.724,0.0451747
,,,,,,,,,72,57.2567,0.0105973
,,,,,,,,,85,114.365,0.00901881
,,,,,,,,,99,70.3125,0.00831321
,,,,,,,,,114,92.325,0.0108674
,,,,,,,,,130,177.337,0.0110113
,,,,,,,,,147,52.9626,0.0104348
,,,,,,,,,165,62.5509,0.0107307
,,,,,,,,,184,87.8445,0.0094201
,,,,,,,,,204,91.4105,0.010596
,,,,,,,,,225,121.059,0.0110492
,,,,,,,,,98,57.6077,0.03081
,,,,,,,,,113,127.374,0.0238846
,,,,,,,,,129,45.182,0.0735526
,,,,,,,,,146,120.161,0.0806858
,,,,,,,,,164,57.5218,0.0574346
,,,,,,,,,183,94.0816,0.0677135
,,,,,,,,,203,126.222,0.0360573
,,,,,,,,,224,88.6602,0.062685
,,,,,,,,,246,122.508,0.0827713
,,,,,,,,,128,174.458,0.017128
,,,,,,,,,145,42.8422,0.0332096
,,,,,,,,,163,62.989,0.0345904
,,,,,,,,,182,96.7349,0.0294749
,,,,,,,,,202,129.403,0.0319651
,,,,,,,,,223,139.241,0.0225991
,,,,,,,,,245,94.3655,0.0307988
,,,,,,,,,268,99.4911,0.0349681
,,,,,,,,,162,141.77,0.0253019
,,,,,,,,,181,112.313,0.0260955
,,,,,,,,,201,88.5013,0.0230743
,,,,,,,,,222,54.8951,0.0245729
,,,,,,,,,244,41.5955,0.0186356
,,,,,,,,,267,88.3769,0.0238778
,,,,,,,,,291,79.8324,0.0263099
,,,,,,,,,200,85.7758,0.0995173
,,,,,,,,,221,55.0639,0.0663753
,,,,,,,,,243,86.8985,0.0804968
,,,,,,,,,266,106.583,0.0393881
,,,,,,,,,290,57.3337,0.0734887
,,,,,,,,,315,80.9863,0.102709
,,,,,,,,,242,126.805,0.0721298
,,,,,,,,,265,119.132,0.0891195
,,,,,,,,,289,94.4832,0.0413455
,,,,,,,,,314,89.1361,0.0806089
,,,,,,,,,340,60.5053,0.117175
,,,,,,,,,288,37.8841,0.061583
,,,,,,,,,313,68.9061,0.0342422
,,,,,,,,,339,41.1577,0.0573956
,,,,,,,,,366,77.4058,0.0737919
,,,,,,,,,338,32.4392,0.0376495
,,,,,,,,,365,39.4236,0.0676594
,,,,,,,,,393,58.6592,0.0916706
,,,,,,,,,392,49.2773,0.036042
,,,,,,,,,421,41.2083,0.0418863
,,,,,,,,,450,37.064,0.0826904
