Q	U	V
{$V$}	{[mm$^3$]}	0.00445055
{$d_v$}	{[mm]}	0.204082
{$S_c$}	{[mm$^2$]}	0.250143
{$S_o$}	{[mm$^2$]}	0.128265
{$S_l/S_o$}	[]	0.950205
{$\Psi$}	[]	0.523084
{$\eta$}	[]	0.558493
{med($\theta_e$)}	{[$^\circ$]}	71.9133
{$\Upsilon$}	[]	15
{$\Xi$}	[]	9
