"cellPairingIds","interplanarAngles","angleWeights"
13,47.4196,0.0311873
26,102.647,0.0214386
34,133.293,0.0297323
64,94.4971,0.0219148
89,93.2984,0.027021
32,69.9638,0.0306573
41,100.191,0.0372311
101,62.5961,0.106602
116,88.7834,0.0580631
50,31.8341,0.0211868
115,88.5213,0.0336468
72,47.3475,0.0351761
130,111.679,0.0417341
165,89.535,0.0257284
129,96.2611,0.0364768
183,81.6201,0.0386757
203,61.151,0.0942611
221,37.3152,0.0324786
266,65.583,0.044235
242,60.6921,0.0698102
265,36.4752,0.0467533
288,76.3833,0.0342105
313,65.8544,0.0715123
338,43.0105,0.0475106
