"cellPairingIds","interplanarAngles","angleWeights"
8,77.1128,0.0955675
13,38.3147,0.0394995
26,49.0525,0.0767391
53,58.4076,0.056354
18,76.1757,0.0475821
25,27.9814,0.0775931
33,97.6786,0.114538
42,48.7102,0.0763142
52,48.715,0.0346088
32,69.7016,0.0360481
74,63.6146,0.0353388
87,87.8999,0.0301701
73,35.7834,0.0280751
100,58.7842,0.0399732
72,110.717,0.0638118
99,61.048,0.0624536
147,68.3671,0.096994
98,31.7032,0.0279059
146,45.9935,0.0649231
164,112.808,0.0681064
145,47.3154,0.0243763
163,60.6862,0.032058
162,112.003,0.0391029
201,60.1527,0.0665613
200,77.2142,0.0485637
221,111.367,0.0503231
242,69.9523,0.099585
