"cellPairingIds","interplanarAngles","angleWeights"
8,41.0218,0.0653481
13,41.6034,0.0657231
19,43.761,0.042804
34,56.5479,0.0208798
53,72.9893,0.0714475
18,36.2941,0.0402156
25,65.4786,0.0302912
33,45.5619,0.0175435
52,41.3353,0.0466288
117,91.3714,0.0549703
62,48.0373,0.0468194
74,52.0211,0.0424455
101,53.6826,0.0402336
116,58.3502,0.0273384
50,37.116,0.0153703
61,52.4,0.0152431
100,32.4509,0.0398432
114,36.8186,0.0203722
165,84.4129,0.0199047
113,70.3236,0.0177817
129,73.6832,0.0201493
224,135.637,0.0104915
163,26.3168,0.0466529
202,62.8766,0.0680997
223,67.5884,0.0582141
201,31.6336,0.028281
244,78.7377,0.0516025
267,112.188,0.0162818
243,90.1482,0.0973034
290,104.136,0.0182448
242,42.393,0.0272816
289,45.9801,0.0483695
313,48.8706,0.0308663
338,52.3952,0.0718203
365,36.6725,0.0178689
392,38.5861,0.0171067
