"cellPairingIds","interplanarAngles","angleWeights"
8,59.267,0.0894491
13,50.308,0.0226622
19,89.2736,0.145932
43,112.078,0.11153
53,130.373,0.132126
25,41.7203,0.0799539
42,77.5659,0.0566137
63,116.592,0.0756245
32,84.2001,0.0220003
62,114.223,0.0210227
87,58.3926,0.0142462
50,35.1937,0.0627169
61,61.991,0.0749819
100,98.185,0.0303762
72,27.5994,0.0473911
114,102.158,0.0245791
113,58.7445,0.0711614
129,110.224,0.0262627
128,40.0256,0.0908273
145,82.409,0.0285436
162,106.725,0.0297296
