"cellPairingIds","interplanarAngles","angleWeights"
50,74.2256,0.0228746
61,86.6565,0.0306576
73,77.0054,0.0181052
100,62.6975,0.0327227
148,117.723,0.0402145
166,159.415,0.0416343
72,36.456,0.0285407
85,29.3726,0.0173455
130,31.4075,0.0325546
129,65.6928,0.045702
146,45.056,0.0509703
164,32.7973,0.0644004
163,36.3099,0.0236779
202,50.621,0.0257719
221,78.6246,0.0742425
266,108.414,0.0752945
242,46.6417,0.0892239
265,51.9402,0.0842631
289,95.5802,0.0907476
313,74.3929,0.144339
338,76.6079,0.131787
