"cellPairingIds","interplanarAngles","angleWeights"
8,28.4301,0.0249817
13,38.4763,0.0240692
26,42.4281,0.0301736
34,67.4636,0.0207949
43,81.5934,0.021634
18,37.3466,0.0410591
25,32.9305,0.0419743
52,63.4387,0.0344449
88,78.8917,0.0504396
32,26.4075,0.0394606
41,37.2281,0.0572495
74,64.9553,0.0503957
87,72.9355,0.0189998
86,45.5705,0.0517816
115,66.9889,0.0480486
72,44.3614,0.0416505
114,64.6273,0.0226107
98,129.225,0.0269604
129,75.9131,0.0168993
164,131.312,0.0404081
183,75.3234,0.0430926
203,116.697,0.0418868
163,50.0388,0.0384319
182,46.3703,0.0437019
162,66.3034,0.0214581
181,42.2036,0.0653019
200,103.9,0.0207888
243,46.0682,0.0230291
266,87.7315,0.0226801
242,53.3042,0.07312
289,68.9247,0.0781095
313,42.3144,0.103468
338,52.0185,0.123105
