Q	U	V
{$V$}	{[mm$^3$]}	0.00974894
{$d_v$}	{[mm]}	0.265045
{$S_c$}	{[mm$^2$]}	0.461711
{$S_o$}	{[mm$^2$]}	0.277222
{$S_l/S_o$}	[]	0.665492
{$\Psi$}	[]	0.47799
{$\eta$}	[]	0.537678
{med($\theta_e$)}	{[$^\circ$]}	78.70745
{$\Upsilon$}	[]	11
{$\Xi$}	[]	14
