"cellPairingIds","interplanarAngles","angleWeights"
18,59.5556,0.0274462
42,43.6277,0.0384717
88,129.77,0.0282204
102,44.7901,0.0403799
32,66.4845,0.0211117
51,29.4668,0.0336592
101,141.989,0.0255416
132,58.5975,0.037599
149,102.127,0.0271096
115,76.637,0.0215669
166,52.4376,0.0226742
205,78.1396,0.0129859
164,50.4164,0.0554343
183,44.4579,0.0619017
242,135.224,0.0363879
340,25.4727,0.0145367
288,56.4636,0.0669959
366,135.561,0.0172055
338,95.313,0.0428589
393,120.916,0.0177822
421,40.3053,0.0150315
