"cellPairingIds","interplanarAngles","angleWeights"
18,100.487,0.03666
25,129.304,0.0317472
33,56.7427,0.100033
42,44.1346,0.0649005
88,151.721,0.0370404
117,112.472,0.0198152
32,37.3387,0.0213993
41,69.5644,0.0396379
62,36.3403,0.0268429
101,89.192,0.0236803
116,49.4011,0.0286286
115,52.307,0.0215284
72,50.6729,0.0748566
85,38.4253,0.0500681
147,84.8488,0.05666
204,51.7507,0.0604653
183,94.5206,0.0185775
224,62.6542,0.0455583
246,75.9331,0.0727355
182,50.6531,0.0336989
242,65.1484,0.0288601
265,54.8306,0.0152864
340,75.6106,0.0394668
339,59.2453,0.0381095
366,73.9596,0.0554363
393,52.8579,0.0204891
450,48.8475,0.0590738
