Q	U	V
{$V$}	{[mm$^3$]}	0.00205903
{$d_v$}	{[mm]}	0.157842
{$S_c$}	{[mm$^2$]}	0.110361
{$S_o$}	{[mm$^2$]}	0.0661212
{$S_l/S_o$}	[]	0.669071
{$\Psi$}	[]	0.709213
{$\eta$}	[]	0.721905
{med($\theta_e$)}	{[$^\circ$]}	52.3594
{$\Upsilon$}	[]	15
{$\Xi$}	[]	7
