facetNormals:0,facetNormals:1,facetNormals:2,FacetCenters:0,FacetCenters:1,FacetCenters:2,FacetIds,relFacetSize,absFacetSize,cellPairingIds,interplanarAngles,angleWeights
-0.625814,0.155535,-0.720289,5.59188,6.47701,7.70656,1,0.0981167,0.0180365,8,73.7861,0.0780807
0.527826,0.343883,-0.751991,5.70063,6.47163,7.72183,2,0.06484,0.0119193,13,71.561,0.0958975
0.277989,-0.523389,-0.765547,5.69727,6.40503,7.68749,3,0.0937765,0.0172386,19,62.4592,0.0593799
0.2331,0.692366,-0.666914,5.69052,6.52994,7.70661,4,0.0425722,0.00782591,26,105.267,0.0589763
0.798988,-0.370778,-0.42813,5.77815,6.40536,7.75031,5,0.0421585,0.00774986,34,85.8152,0.0431946
0.0252409,-0.923668,-0.317065,5.66855,6.40251,7.72947,6,0.0276931,0.00509073,43,113.531,0.0508368
0.935885,0.0851888,-0.27068,5.73685,6.47933,7.76032,7,0.0343057,0.00630631,53,96.3581,0.067511
0.340279,0.900278,0.0419461,5.67887,6.55893,7.77835,8,0.0514592,0.00945958,64,50.5223,0.0686113
-0.568111,0.759958,-0.163988,5.62309,6.52818,7.84679,9,0.0527488,0.00969663,76,80.1124,0.0903799
-0.742604,-0.527951,0.309422,5.59117,6.41423,7.78193,10,0.0837741,0.0153999,89,118.636,0.0625662
0.0846526,-0.89149,0.35314,5.6956,6.38353,7.78932,11,0.0459259,0.0084424,103,88.7645,0.0397262
-0.167139,0.920753,0.315459,5.616,6.55312,7.80947,12,0.024905,0.0045782,118,68.1323,0.0728655
-0.930269,-0.0425655,0.308614,5.5612,6.47707,7.78335,13,0.0579512,0.010653,134,115.792,0.0358489
-0.176907,0.479187,0.822709,5.62599,6.53091,7.85671,14,0.0219309,0.00403148,18,55.1702,0.0766688
,,,,,,,,,25,27.2554,0.0513979
,,,,,,,,,33,50.1077,0.0510953
,,,,,,,,,42,93.942,0.0388103
,,,,,,,,,52,40.7461,0.044871
,,,,,,,,,63,61.0353,0.0573798
,,,,,,,,,75,84.85,0.0581727
,,,,,,,,,88,148.656,0.0731009
,,,,,,,,,102,123.955,0.0537681
,,,,,,,,,117,90.5211,0.0359873
,,,,,,,,,133,140.045,0.0612024
,,,,,,,,,150,125.175,0.0327759
,,,,,,,,,32,77.1504,0.0585597
,,,,,,,,,41,38.3158,0.0581672
,,,,,,,,,51,39.1744,0.042759
,,,,,,,,,62,63.477,0.0502345
,,,,,,,,,74,115.991,0.0664529
,,,,,,,,,87,117.479,0.0675186
,,,,,,,,,101,100.326,0.0884935
,,,,,,,,,116,76.3592,0.0616563
,,,,,,,,,132,143.634,0.0393575
,,,,,,,,,149,119.839,0.0716344
,,,,,,,,,167,172.642,0.0355483
,,,,,,,,,50,77.1741,0.0423644
,,,,,,,,,61,115.905,0.0335573
,,,,,,,,,73,61.765,0.0379945
,,,,,,,,,86,44.9283,0.0465958
,,,,,,,,,100,58.1156,0.0471173
,,,,,,,,,115,141.507,0.0564551
,,,,,,,,,131,151.025,0.0441855
,,,,,,,,,148,66.5874,0.0314257
,,,,,,,,,166,117.769,0.0490853
,,,,,,,,,185,105.634,0.0289489
,,,,,,,,,72,58.6058,0.033428
,,,,,,,,,85,29.6874,0.0378289
,,,,,,,,,99,94.857,0.0463469
,,,,,,,,,114,134.885,0.0468628
,,,,,,,,,130,124.225,0.0560902
,,,,,,,,,147,74.8118,0.0439616
,,,,,,,,,165,129.102,0.0313123
,,,,,,,,,184,153.468,0.0488092
,,,,,,,,,204,135.053,0.0288526
,,,,,,,,,98,88.155,0.0306468
,,,,,,,,,113,152.699,0.0360081
,,,,,,,,,129,134.927,0.0363188
,,,,,,,,,146,66.7678,0.0416259
,,,,,,,,,164,40.6367,0.0345517
,,,,,,,,,183,171.736,0.0262251
,,,,,,,,,203,94.9092,0.037477
,,,,,,,,,224,138.446,0.0244774
,,,,,,,,,128,65.9596,0.0411671
,,,,,,,,,145,116.662,0.0415736
,,,,,,,,,163,151.083,0.0486778
,,,,,,,,,182,95.6271,0.0392743
,,,,,,,,,202,99.7392,0.0288591
,,,,,,,,,223,176.651,0.0430983
,,,,,,,,,245,111.522,0.0267568
,,,,,,,,,162,58.5505,0.052096
,,,,,,,,,181,140.473,0.0637557
,,,,,,,,,201,144.929,0.0485353
,,,,,,,,,222,34.3658,0.0335652
,,,,,,,,,244,111.21,0.0545126
,,,,,,,,,267,64.2213,0.0307547
,,,,,,,,,200,91.8605,0.0647361
,,,,,,,,,221,147.703,0.0491014
,,,,,,,,,243,38.6188,0.033835
,,,,,,,,,266,61.859,0.0552277
,,,,,,,,,290,69.2901,0.030981
,,,,,,,,,242,56.0672,0.0593277
,,,,,,,,,265,106.154,0.0383955
,,,,,,,,,289,31.0466,0.0685102
,,,,,,,,,314,81.7974,0.0347616
,,,,,,,,,288,139.568,0.0322962
,,,,,,,,,313,85.8598,0.0512425
,,,,,,,,,339,99.3617,0.0296859
,,,,,,,,,338,77.2603,0.034838
,,,,,,,,,365,40.2111,0.0233235
,,,,,,,,,392,65.2278,0.0318199
