Q	U	V
{$V$}	{[mm$^3$]}	0.00336879
{$d_v$}	{[mm]}	0.185991
{$S_c$}	{[mm$^2$]}	0.257781
{$S_o$}	{[mm$^2$]}	0.123525
{$S_l/S_o$}	[]	1.086873
{$\Psi$}	[]	0.421582
{$\eta$}	[]	0.458529
{med($\theta_e$)}	{[$^\circ$]}	58.17935
{$\Upsilon$}	[]	9
{$\Xi$}	[]	8
