"cellPairingIds","interplanarAngles","angleWeights"
8,45.2936,0.0468337
13,88.8211,0.0772266
19,62.9139,0.0380832
34,63.4209,0.0338386
18,127.206,0.066837
33,41.8495,0.0323264
42,68.5648,0.0316807
63,65.1168,0.0486175
32,49.519,0.0503324
74,141.996,0.0821997
87,33.0935,0.0338368
101,48.1017,0.068063
116,112.959,0.057635
61,69.9292,0.027419
115,33.6608,0.0357122
148,50.1989,0.0485158
72,76.5671,0.025553
85,20.9522,0.0357862
99,27.0122,0.0355389
98,59.193,0.0349965
183,36.249,0.0418311
203,37.0603,0.0391314
128,39.5535,0.0568892
223,44.3032,0.0696172
201,35.142,0.0435587
244,75.0682,0.0686875
291,46.4254,0.0207107
200,23.505,0.0265341
221,105.723,0.0247858
290,31.9322,0.025137
341,68.3287,0.0267931
265,46.4146,0.0647828
289,88.0008,0.0585293
314,37.3093,0.0401273
366,32.4679,0.0187023
394,50.9161,0.039809
338,46.5169,0.103139
392,81.2136,0.0521373
421,57.0601,0.0221874
451,66.1318,0.0598046
481,37.7567,0.0407227
512,31.4771,0.0198229
