facetNormals:0,facetNormals:1,facetNormals:2,FacetCenters:0,FacetCenters:1,FacetCenters:2,FacetIds,relFacetSize,absFacetSize,cellPairingIds,interplanarAngles,angleWeights
0.227913,-0.384391,-0.888519,4.85093,4.15775,7.5359,1,0.00996152,0.000626549,8,42.8648,0.0138486
0.0617619,0.31559,-0.921235,4.83765,4.18931,7.55521,2,0.0227102,0.0014284,13,21.7336,0.0112958
0.5606,-0.268847,-0.764487,4.87524,4.16395,7.54237,3,0.0130427,0.000820345,19,35.6137,0.0177335
-0.316819,-0.549254,-0.709657,4.83302,4.13135,7.55373,4,0.080679,0.00507446,26,70.2052,0.0151523
-0.805152,-0.396134,-0.408967,4.84913,4.14334,7.59772,5,0.0316385,0.00198996,34,82.6482,0.0181212
0.500487,0.768514,-0.344415,4.86182,4.198,7.57323,6,0.100182,0.00630113,43,99.1635,0.0181044
-0.944777,0.211325,-0.158881,4.87887,4.15626,7.62497,7,0.0991668,0.00623729,53,124.326,0.0140511
-0.645548,0.718873,0.139601,4.87245,4.21697,7.64901,8,0.0238371,0.00149928,64,66.115,0.0096557
0.0731833,-1.00513,-0.00315052,4.84581,4.13019,7.64667,9,0.0093681,0.000589225,76,82.6229,0.0139206
0.987273,0.150343,0.0445296,4.85409,4.16107,7.59323,10,0.0231025,0.00145307,89,68.0597,0.0162706
0.374024,-0.882967,0.0756301,4.85045,4.10599,7.64375,11,0.0443758,0.0027911,103,104.407,0.0166073
-0.902865,-0.325169,0.181052,4.86941,4.15227,7.6449,12,0.0498939,0.00313817,118,76.0187,0.018989
0.888264,-0.346885,0.118056,4.86784,4.1325,7.60843,13,0.202518,0.0127378,134,95.8634,0.00798102
-0.179673,-0.85126,0.433328,4.89262,4.12377,7.63108,14,0.00665743,0.000418732,151,107.461,0.0103832
0.727945,-0.249262,0.628184,4.85394,4.11762,7.65429,15,0.0108422,0.000681938,18,47.1372,0.0165694
,,,,,,,,,25,60.2447,0.0354434
,,,,,,,,,33,77.8809,0.026441
,,,,,,,,,42,51.8305,0.0370268
,,,,,,,,,52,80.6995,0.0369569
,,,,,,,,,63,86.4854,0.02326
,,,,,,,,,75,108.363,0.0132645
,,,,,,,,,88,86.0377,0.0229046
,,,,,,,,,102,110.274,0.0300445
,,,,,,,,,117,109.953,0.0312131
,,,,,,,,,133,100.035,0.0408405
,,,,,,,,,150,135.717,0.0102965
,,,,,,,,,168,129.188,0.0146772
,,,,,,,,,32,56.8659,0.0224552
,,,,,,,,,41,91.9001,0.0184709
,,,,,,,,,51,69.5512,0.0230805
,,,,,,,,,62,118.75,0.0230533
,,,,,,,,,74,133.477,0.0168602
,,,,,,,,,87,71.5878,0.0109041
,,,,,,,,,101,60.9038,0.0166727
,,,,,,,,,116,65.7536,0.02016
,,,,,,,,,132,125.378,0.0206796
,,,,,,,,,149,58.0555,0.0245071
,,,,,,,,,167,102.245,0.00881525
,,,,,,,,,186,90.3008,0.011841
,,,,,,,,,50,35.6181,0.0454526
,,,,,,,,,61,111.141,0.0893789
,,,,,,,,,73,71.5161,0.0889726
,,,,,,,,,86,108.149,0.036801
,,,,,,,,,100,56.3733,0.016787
,,,,,,,,,115,116.667,0.0359194
,,,,,,,,,131,70.0189,0.057258
,,,,,,,,,148,68.7947,0.0616574
,,,,,,,,,166,101.012,0.115389
,,,,,,,,,185,76.434,0.0122999
,,,,,,,,,205,124.802,0.0191154
,,,,,,,,,72,125.905,0.0480897
,,,,,,,,,85,39.9231,0.0479719
,,,,,,,,,99,79.3505,0.0271892
,,,,,,,,,114,69.9616,0.0144559
,,,,,,,,,130,152.284,0.0267049
,,,,,,,,,147,88.931,0.03694
,,,,,,,,,165,35.7347,0.0387225
,,,,,,,,,184,131.354,0.0547272
,,,,,,,,,204,71.4665,0.0110002
,,,,,,,,,225,139.449,0.0161499
,,,,,,,,,98,105.43,0.0996717
,,,,,,,,,113,79.0724,0.0385109
,,,,,,,,,129,138.091,0.017134
,,,,,,,,,146,52.6359,0.0375465
,,,,,,,,,164,123.305,0.0615069
,,,,,,,,,183,143.007,0.0666125
,,,,,,,,,203,81.6119,0.134051
,,,,,,,,,224,159.758,0.0124852
,,,,,,,,,246,92.5675,0.0195667
,,,,,,,,,128,39.4417,0.0384353
,,,,,,,,,145,106.514,0.017119
,,,,,,,,,163,157.805,0.0374746
,,,,,,,,,182,125.797,0.0613143
,,,,,,,,,202,37.947,0.0663866
,,,,,,,,,223,171.075,0.133139
,,,,,,,,,245,94.7516,0.0124772
,,,,,,,,,268,149.566,0.0195472
,,,,,,,,,162,141.527,0.0134502
,,,,,,,,,181,122.41,0.023464
,,,,,,,,,201,157.198,0.0310143
,,,,,,,,,222,66.8783,0.0322612
,,,,,,,,,244,149.269,0.0426536
,,,,,,,,,267,117.319,0.010408
,,,,,,,,,291,125.378,0.0149049
,,,,,,,,,200,94.4977,0.0133306
,,,,,,,,,221,19.3509,0.0154703
,,,,,,,,,243,74.6702,0.0157744
,,,,,,,,,266,64.7353,0.0179078
,,,,,,,,,290,30.8305,0.00778351
,,,,,,,,,315,72.4511,0.0100514
,,,,,,,,,242,75.5536,0.0303858
,,,,,,,,,265,162.728,0.0315816
,,,,,,,,,289,30.212,0.0414738
,,,,,,,,,314,107.123,0.0103363
,,,,,,,,,340,44.4213,0.0147582
,,,,,,,,,288,92.2505,0.0469733
,,,,,,,,,313,45.5326,0.0727997
,,,,,,,,,339,39.9032,0.0115779
,,,,,,,,,366,55.595,0.0174265
,,,,,,,,,338,135.372,0.0800629
,,,,,,,,,365,56.9627,0.0117474
,,,,,,,,,393,118.473,0.0178134
,,,,,,,,,392,78.459,0.0128911
,,,,,,,,,421,32.2458,0.0205824
,,,,,,,,,450,68.5148,0.00824944
