"cellPairingIds","interplanarAngles","angleWeights"
8,33.3009,0.0547368
13,42.1018,0.0881618
19,67.1357,0.0491388
34,91.2036,0.0939143
64,120.395,0.0956802
18,43.0138,0.0478956
25,54.5135,0.03346
33,53.0492,0.0492575
41,83.3165,0.0747662
51,53.4534,0.0754289
50,48.8227,0.0446773
86,40.1278,0.0377336
100,81.5006,0.045313
72,109.437,0.0788628
99,37.284,0.0591135
147,75.7031,0.108425
129,130.056,0.0808655
146,44.7975,0.0417667
164,104.01,0.109824
162,73.355,0.0602316
201,54.2836,0.0749524
200,94.5442,0.0421123
221,59.853,0.112247
242,61.0963,0.0488157
