"cellPairingIds","interplanarAngles","angleWeights"
8,90.5755,0.104286
13,68.4961,0.0784269
43,81.7005,0.030967
53,82.7224,0.0325943
18,109.09,0.069541
25,49.4356,0.0657656
33,66.3153,0.0761903
52,126.739,0.0294797
88,116.562,0.121256
41,70.9167,0.0613995
51,32.5937,0.0608278
74,28.5209,0.0281918
50,35.5638,0.0584376
115,94.0812,0.0817378
72,50.4791,0.065855
130,116.161,0.0984856
113,30.0986,0.0290957
146,113.131,0.0970229
128,95.7746,0.0181775
163,40.0001,0.0323097
181,104.038,0.0340852
