facetNormals:0,facetNormals:1,facetNormals:2,FacetCenters:0,FacetCenters:1,FacetCenters:2,FacetIds,relFacetSize,absFacetSize,cellPairingIds,interplanarAngles,angleWeights
0.524077,0.0383257,-0.819813,5.21134,3.91317,7.14003,1,0.097475,0.0243731,8,56.9519,0.11885
0.0530229,0.750809,-0.525698,5.23554,4.02739,7.24622,2,0.152234,0.0380652,13,39.7248,0.0681663
0.653741,-0.52969,-0.501861,5.21568,3.85466,7.16513,3,0.0524082,0.0131044,19,50.1635,0.0790883
0.963725,0.00763923,-0.122817,5.31574,3.99997,7.28284,4,0.0665374,0.0166373,26,66.5609,0.0558369
0.586739,-0.782453,-0.127489,5.24317,3.85957,7.23103,5,0.0391242,0.0097828,34,111.367,0.0450738
-0.651601,0.729114,0.0410866,5.173,4.04436,7.34783,6,0.0293147,0.00732997,43,74.5757,0.0529287
0.834169,-0.482467,0.199798,5.2866,3.9297,7.29746,7,0.0363272,0.0090834,53,129.902,0.05274
-0.566139,0.682338,0.416289,5.18002,4.04023,7.37326,8,0.0361496,0.009039,64,102.801,0.0944946
0.495884,-0.626857,0.54181,5.25081,3.9205,7.3484,9,0.091691,0.0229268,76,103.264,0.0526047
0.630387,0.271992,0.678808,5.29907,4.0523,7.39202,10,0.0360226,0.00900725,89,142.858,0.0804581
-0.328318,-0.609644,0.68153,5.16052,3.87063,7.32647,11,0.0684997,0.017128,103,153.354,0.056862
-0.10362,0.00402441,0.977156,5.19811,3.99741,7.40922,12,0.0401384,0.0100364,18,96.3324,0.0779733
,,,,,,,,,25,82.1776,0.0926012
,,,,,,,,,33,122.712,0.0622501
,,,,,,,,,42,56.8558,0.0491625
,,,,,,,,,52,117.918,0.0586571
,,,,,,,,,63,72.9648,0.0584254
,,,,,,,,,75,145.339,0.114449
,,,,,,,,,88,97.729,0.0582594
,,,,,,,,,102,159.121,0.0944847
,,,,,,,,,117,124.9,0.063527
,,,,,,,,,32,43.7455,0.0586336
,,,,,,,,,41,26.8598,0.0448023
,,,,,,,,,51,150.29,0.0375985
,,,,,,,,,62,43.3929,0.0429105
,,,,,,,,,74,168.535,0.0427864
,,,,,,,,,87,66.0312,0.0666952
,,,,,,,,,101,94.4037,0.0426973
,,,,,,,,,116,104.216,0.0593832
,,,,,,,,,132,125.59,0.0454599
,,,,,,,,,50,53.1149,0.0492748
,,,,,,,,,61,131.289,0.0406986
,,,,,,,,,73,35.7801,0.0469961
,,,,,,,,,86,128.432,0.0468472
,,,,,,,,,100,64.3182,0.0771149
,,,,,,,,,115,55.8746,0.0467404
,,,,,,,,,131,115.392,0.0675043
,,,,,,,,,148,103.313,0.0500714
,,,,,,,,,72,172.983,0.0335165
,,,,,,,,,85,29.8961,0.0376739
,,,,,,,,,99,162.073,0.0375781
,,,,,,,,,114,41.5828,0.0548459
,,,,,,,,,130,85.7534,0.0375094
,,,,,,,,,147,78.1061,0.049803
,,,,,,,,,165,101.217,0.0396248
,,,,,,,,,98,157.074,0.0324464
,,,,,,,,,113,22.8353,0.0323753
,,,,,,,,,129,143.319,0.0444259
,,,,,,,,,146,101.263,0.0323243
,,,,,,,,,164,102.3,0.0410583
,,,,,,,,,183,83.3962,0.0338831
,,,,,,,,,128,138.172,0.0362381
,,,,,,,,,145,29.8357,0.0520375
,,,,,,,,,163,56.0784,0.0361742
,,,,,,,,,182,80.584,0.0474764
,,,,,,,,,202,83.6561,0.0381378
,,,,,,,,,162,120.703,0.0518551
,,,,,,,,,181,83.2419,0.036086
,,,,,,,,,201,86.7709,0.0473244
,,,,,,,,,222,60.8933,0.0380397
,,,,,,,,,200,56.8439,0.0517243
,,,,,,,,,221,51.1405,0.0784166
,,,,,,,,,243,59.9233,0.0558347
,,,,,,,,,242,84.5039,0.0472155
,,,,,,,,,265,50.8424,0.0379693
,,,,,,,,,288,43.0614,0.050617
