"cellPairingIds","interplanarAngles","angleWeights"
13,96.5371,0.0786721
26,93.6427,0.0482162
34,90.079,0.124579
43,135.833,0.0406178
53,164.235,0.0485001
76,132.037,0.0378915
62,51.3054,0.0293383
74,77.3166,0.0332403
72,29.3065,0.0391829
99,73.4317,0.0262379
113,82.9364,0.0393701
146,108.068,0.0320795
128,49.9213,0.0238137
163,53.7537,0.0209357
181,63.7217,0.0228498
