"cellPairingIds","interplanarAngles","angleWeights"
8,24.7018,0.0127746
13,58.5814,0.0178018
19,80.6123,0.0184631
26,58.3594,0.0153602
34,71.5644,0.0118967
18,36.4141,0.0318882
42,76.1561,0.0168798
32,80.5452,0.138098
51,102.969,0.0269279
74,92.9559,0.071678
87,94.9746,0.113092
50,116.118,0.0618422
73,72.5822,0.0548661
100,75.5281,0.146407
115,96.3528,0.150653
72,28.4008,0.0217084
85,63.1249,0.0342851
130,72.6346,0.0568867
113,61.6778,0.0239039
146,80.0498,0.0273727
163,35.5103,0.0509299
162,80.4574,0.0738535
181,89.4841,0.0749186
200,83.3441,0.121375
