"cellPairingIds","interplanarAngles","angleWeights"
8,54.2141,0.0260935
13,47.6661,0.0297583
19,63.0308,0.0264667
26,83.5088,0.0224418
43,133.598,0.00986491
25,42.8328,0.066781
42,39.648,0.0595877
52,148.627,0.0127291
75,58.8275,0.0420109
117,98.4426,0.0606424
32,55.4384,0.0975166
41,43.0173,0.0587163
74,52.0272,0.0510224
61,42.1525,0.0615705
86,61.1912,0.0420549
131,47.5742,0.0664915
85,85.0432,0.011793
99,43.8934,0.0327281
130,28.5358,0.0488639
129,25.3968,0.0398874
164,32.6429,0.0593571
183,66.0195,0.0563148
163,68.4821,0.0129409
202,65.2158,0.012573
223,68.7474,0.0117278
245,57.9686,0.0128097
181,38.9619,0.0434157
201,57.4667,0.0410104
244,46.708,0.0322309
243,41.3096,0.0403572
289,43.4051,0.0477639
288,58.339,0.0604036
313,55.3026,0.0448687
339,58.4793,0.0662891
365,21.3668,0.0625173
392,33.8068,0.0460246
