facetNormals:0,facetNormals:1,facetNormals:2,FacetCenters:0,FacetCenters:1,FacetCenters:2,FacetIds,relFacetSize,absFacetSize,cellPairingIds,interplanarAngles,angleWeights
0.639918,0.10029,-0.737395,6.8884,3.83163,5.95592,1,0.0147187,0.00356595,8,46.0206,0.0226703
0.166704,0.663849,-0.616348,6.84994,3.81144,5.97908,2,0.049309,0.0119463,13,85.7462,0.0256903
-0.65915,-0.0920141,-0.678352,6.86517,3.84995,5.94727,3,0.100912,0.0244482,19,69.3645,0.0258877
0.208483,-0.827528,-0.367463,6.90183,3.78684,5.97503,4,0.107342,0.0260061,26,41.6812,0.0213825
0.795062,0.501092,-0.19627,6.86917,3.79384,6.0074,5,0.0390724,0.0094662,34,117.759,0.0234324
-0.872624,0.385849,-0.109424,6.80107,3.87139,6.02776,6,0.0574345,0.0139148,43,71.7821,0.0217478
0.772299,-0.565292,0.187497,6.99073,3.79992,6.02982,7,0.0416277,0.0100853,53,126.541,0.0218217
-0.652605,-0.711747,0.106794,6.78073,3.80889,6.01856,8,0.0421743,0.0102177,64,130.755,0.0239679
-0.273624,-0.784599,0.497278,6.82159,3.79879,6.0418,9,0.0644984,0.0156262,76,98.8248,0.0207036
0.181375,0.839877,0.471788,6.81937,3.80674,6.09231,10,0.0348907,0.00845309,89,76.9648,0.0219394
0.844458,-0.0532699,0.439363,6.8864,3.79999,6.06407,11,0.0430672,0.010434,103,116.706,0.0210066
0.241723,-0.624132,0.707418,6.87861,3.82456,6.07117,12,0.0366738,0.00888509,118,145.78,0.0236573
-0.536048,0.449744,0.638613,6.73699,3.88637,6.07222,13,0.0602423,0.0145951,134,129.66,0.0253922
0.138485,0.0781299,0.944111,6.79719,3.85875,6.08657,14,0.0923912,0.0223839,18,73.6001,0.0662472
,,,,,,,,,25,109.673,0.067576
,,,,,,,,,33,48.4819,0.0435979
,,,,,,,,,42,78.3834,0.0530625
,,,,,,,,,52,113.771,0.0451439
,,,,,,,,,63,136.315,0.0454634
,,,,,,,,,75,168.16,0.05589
,,,,,,,,,88,70.7948,0.0408653
,,,,,,,,,102,100.856,0.0459772
,,,,,,,,,117,154.564,0.042063
,,,,,,,,,133,102.201,0.0542301
,,,,,,,,,150,125.091,0.0643008
,,,,,,,,,32,77.7072,0.104027
,,,,,,,,,41,118.62,0.056333
,,,,,,,,,51,47.7272,0.0732043
,,,,,,,,,62,129.077,0.0589412
,,,,,,,,,74,62.7172,0.059487
,,,,,,,,,87,95.2857,0.078697
,,,,,,,,,101,123.701,0.051853
,,,,,,,,,116,159.7,0.0603697
,,,,,,,,,132,128.949,0.0537966
,,,,,,,,,149,97.7403,0.0754453
,,,,,,,,,167,144.305,0.0964636
,,,,,,,,,50,101.431,0.0572909
,,,,,,,,,61,121.108,0.0748302
,,,,,,,,,73,51.8378,0.0599907
,,,,,,,,,86,62.7234,0.0605562
,,,,,,,,,100,62.9271,0.0805792
,,,,,,,,,115,155.774,0.0526635
,,,,,,,,,131,86.2014,0.0614712
,,,,,,,,,148,70.1715,0.0546695
,,,,,,,,,166,144.726,0.0771734
,,,,,,,,,185,115.482,0.099307
,,,,,,,,,72,121.297,0.0465066
,,,,,,,,,85,71.7025,0.0403096
,,,,,,,,,99,163.969,0.0405641
,,,,,,,,,114,139.628,0.0486644
,,,,,,,,,130,59.8656,0.0368633
,,,,,,,,,147,52.4017,0.0409726
,,,,,,,,,165,106.108,0.0378351
,,,,,,,,,184,111.015,0.0474011
,,,,,,,,,204,92.2475,0.0549193
,,,,,,,,,98,166.983,0.04827
,,,,,,,,,113,72.3328,0.0486354
,,,,,,,,,129,97.313,0.0607618
,,,,,,,,,146,83.0343,0.0434102
,,,,,,,,,164,151.612,0.0492239
,,,,,,,,,183,124.457,0.0447642
,,,,,,,,,203,51.0918,0.0588049
,,,,,,,,,224,102.181,0.0708348
,,,,,,,,,128,94.9427,0.0418992
,,,,,,,,,145,69.8429,0.0505986
,,,,,,,,,163,104.926,0.0379626
,,,,,,,,,182,34.6773,0.0423352
,,,,,,,,,202,44.9538,0.038994
,,,,,,,,,223,126.417,0.0492343
,,,,,,,,,245,75.1184,0.0573953
,,,,,,,,,162,32.8791,0.0510004
,,,,,,,,,181,134.353,0.0381883
,,,,,,,,,201,120.224,0.0426161
,,,,,,,,,222,67.5034,0.0392322
,,,,,,,,,244,83.8924,0.0496146
,,,,,,,,,267,92.7828,0.0579128
,,,,,,,,,200,119.956,0.0452845
,,,,,,,,,221,88.1865,0.0516478
,,,,,,,,,243,34.7001,0.0467599
,,,,,,,,,266,83.0267,0.0622978
,,,,,,,,,290,66.4595,0.0759653
,,,,,,,,,242,70.2564,0.0385501
,,,,,,,,,265,98.8338,0.03576
,,,,,,,,,289,51.2064,0.0441886
,,,,,,,,,314,55.1592,0.0506528
,,,,,,,,,288,53.8142,0.0396142
,,,,,,,,,313,102.536,0.0502271
,,,,,,,,,339,54.6906,0.0587491
,,,,,,,,,338,87.4223,0.0455923
,,,,,,,,,365,45.5795,0.0525059
,,,,,,,,,392,51.5634,0.072931
