facetNormals:0,facetNormals:1,facetNormals:2,FacetCenters:0,FacetCenters:1,FacetCenters:2,FacetIds,relFacetSize,absFacetSize,cellPairingIds,interplanarAngles,angleWeights
-0.12391,0.563998,-0.752358,7.0916,5.76667,6.00039,1,0.0567,0.0265953,8,87.1938,0.0363544
-0.261762,-0.740053,-0.571589,6.98902,5.72392,6.10826,2,0.0267542,0.0125491,13,47.2926,0.0370035
-0.712857,0.595834,-0.261059,7.05043,5.76478,6.06724,3,0.0274633,0.0128817,19,106.094,0.0387436
0.402523,-0.818433,-0.339712,7.19977,5.60886,6.12902,4,0.029425,0.0138019,26,95.1476,0.0453197
0.858602,-0.320154,-0.273256,7.19715,5.68797,6.08862,5,0.0377441,0.0177039,34,111.418,0.0261238
-0.595282,-0.779544,-0.0345419,6.98088,5.69625,6.1233,6,0.0169716,0.00796057,43,81.6739,0.0625412
-0.915945,-0.158658,-0.139678,6.97939,5.68349,6.14957,7,0.0697241,0.0327042,53,77.3317,0.0765366
0.770414,0.507078,-0.00173648,7.19001,5.75171,6.10356,8,0.117721,0.0552174,64,60.0152,0.07261
0.0345832,0.944063,0.103301,7.12701,5.78775,6.0784,9,0.100931,0.047342,76,102.107,0.0601881
-0.78981,0.171477,0.51152,7.05776,5.71343,6.18096,10,0.0641333,0.0300819,89,142.566,0.0346422
-0.141722,-0.911403,0.31608,7.07237,5.58711,6.16611,11,0.0249399,0.0116981,103,124.237,0.0475098
0.842231,-0.119296,0.456552,7.16274,5.72294,6.15951,12,0.0408833,0.0191764,118,92.5119,0.0389573
0.29663,0.749151,0.567178,7.12928,5.77353,6.12507,13,0.0296722,0.0139178,134,167.388,0.0563856
0.332592,-0.56628,0.715101,7.13843,5.61861,6.2481,14,0.0560746,0.0263019,151,120.532,0.0402028
-0.337299,0.260298,0.872501,7.03123,5.74599,6.22042,15,0.0311419,0.0146072,169,145.994,0.0406686
0.142631,-0.0424125,0.963119,7.10041,5.68876,6.2461,16,0.0317044,0.014871,18,96.4414,0.0271041
,,,,,,,,,25,42.7055,0.0280261
,,,,,,,,,33,79.5527,0.0313129
,,,,,,,,,42,37.8555,0.0207686
,,,,,,,,,52,61.3952,0.0386701
,,,,,,,,,63,130.021,0.0435997
,,,,,,,,,75,146.191,0.0422967
,,,,,,,,,88,103.229,0.0377574
,,,,,,,,,102,55.8913,0.0258152
,,,,,,,,,117,114.795,0.032343
,,,,,,,,,133,178.046,0.0281378
,,,,,,,,,150,94.6681,0.0362249
,,,,,,,,,168,129.763,0.0287818
,,,,,,,,,187,126.017,0.0290198
,,,,,,,,,32,136.908,0.0284103
,,,,,,,,,41,142.436,0.0317932
,,,,,,,,,51,91.8823,0.0209789
,,,,,,,,,62,49.0243,0.0394054
,,,,,,,,,74,106.085,0.0445366
,,,,,,,,,87,56.1477,0.0431779
,,,,,,,,,101,54.8323,0.038458
,,,,,,,,,116,123.88,0.0261408
,,,,,,,,,132,148.064,0.0328558
,,,,,,,,,149,84.7598,0.028525
,,,,,,,,,167,144.329,0.0368694
,,,,,,,,,186,79.6863,0.0291871
,,,,,,,,,206,113.723,0.0294319
,,,,,,,,,50,41.1803,0.0330694
,,,,,,,,,61,64.5736,0.021527
,,,,,,,,,73,102.075,0.0413848
,,,,,,,,,86,96.673,0.0470817
,,,,,,,,,100,149.121,0.0455659
,,,,,,,,,115,132.76,0.0403411
,,,,,,,,,131,52.2091,0.0269974
,,,,,,,,,148,72.5633,0.0342204
,,,,,,,,,166,135.704,0.0295481
,,,,,,,,,185,67.9724,0.0385966
,,,,,,,,,205,133.058,0.0302591
,,,,,,,,,226,104.349,0.0305222
,,,,,,,,,72,105.582,0.0234148
,,,,,,,,,85,140.89,0.0489758
,,,,,,,,,99,55.4943,0.057161
,,,,,,,,,114,109.329,0.0549421
,,,,,,,,,130,162.61,0.0475209
,,,,,,,,,147,84.8471,0.0300342
,,,,,,,,,165,46.4039,0.039251
,,,,,,,,,184,98.5537,0.0332249
,,,,,,,,,204,72.999,0.0451186
,,,,,,,,,225,131.183,0.0341266
,,,,,,,,,247,97.8413,0.0344616
,,,,,,,,,98,43.0894,0.0272985
,,,,,,,,,113,160.606,0.0296663
,,,,,,,,,129,144.582,0.0290573
,,,,,,,,,146,70.1461,0.0268405
,,,,,,,,,164,34.9938,0.0201983
,,,,,,,,,183,116.592,0.0239861
,,,,,,,,,203,143.778,0.0215928
,,,,,,,,,224,76.7284,0.0260569
,,,,,,,,,246,91.9402,0.0219701
,,,,,,,,,269,95.1052,0.0221084
,,,,,,,,,128,155.016,0.0875776
,,,,,,,,,145,102.667,0.0824743
,,,,,,,,,163,45.9829,0.066812
,,,,,,,,,182,75.4496,0.0367386
,,,,,,,,,202,154.089,0.0515436
,,,,,,,,,223,120.476,0.0416286
,,,,,,,,,245,110.169,0.0621589
,,,,,,,,,268,80.8095,0.043054
,,,,,,,,,292,106.386,0.0435886
,,,,,,,,,162,54.8053,0.108682
,,,,,,,,,181,126.312,0.0830318
,,,,,,,,,201,129.49,0.0411598
,,,,,,,,,222,48.7083,0.0606897
,,,,,,,,,244,48.0582,0.0473976
,,,,,,,,,267,92.0579,0.0759647
,,,,,,,,,291,98.3069,0.0492541
,,,,,,,,,316,84.4644,0.0499551
,,,,,,,,,200,78.1014,0.0784306
,,,,,,,,,221,153.981,0.0399967
,,,,,,,,,243,92.2697,0.0581943
,,,,,,,,,266,34.0238,0.0458617
,,,,,,,,,290,119.136,0.0720952
,,,,,,,,,315,69.4302,0.0475977
,,,,,,,,,341,86.0137,0.048252
,,,,,,,,,242,82.7724,0.0359138
,,,,,,,,,265,119.316,0.0499346
,,,,,,,,,289,78.7229,0.0405728
,,,,,,,,,314,89.6298,0.0598339
,,,,,,,,,340,35.3662,0.0419256
,,,,,,,,,367,66.4301,0.0424324
,,,,,,,,,288,81.8359,0.0309807
,,,,,,,,,313,124.6,0.027101
,,,,,,,,,339,42.7625,0.0345246
,,,,,,,,,366,84.767,0.027698
,,,,,,,,,394,70.1361,0.0279182
,,,,,,,,,338,63.8392,0.034387
,,,,,,,,,365,44.0089,0.0472889
,,,,,,,,,393,84.9075,0.0353538
,,,,,,,,,422,53.0998,0.0357135
,,,,,,,,,392,85.2022,0.0388086
,,,,,,,,,421,51.9405,0.0303893
,,,,,,,,,451,54.5611,0.0306547
,,,,,,,,,450,67.2644,0.0400445
,,,,,,,,,481,36.5429,0.0405066
,,,,,,,,,512,34.3566,0.0314207
