Q	U	V
{$V$}	{[mm$^3$]}	0.0174673
{$d_v$}	{[mm]}	0.321916
{$S_c$}	{[mm$^2$]}	0.659564
{$S_o$}	{[mm$^2$]}	0.43084
{$S_l/S_o$}	[]	0.530879
{$\Psi$}	[]	0.493603
{$\eta$}	[]	0.516394
{med($\theta_e$)}	{[$^\circ$]}	69.8788
{$\Upsilon$}	[]	10
{$\Xi$}	[]	14
