"cellPairingIds","interplanarAngles","angleWeights"
8,51.1132,0.0473342
13,38.9563,0.0316608
19,59.3286,0.0615465
26,78.518,0.0208176
18,70.8388,0.0416958
33,43.0118,0.0247313
75,88.4789,0.0594701
32,90.5953,0.0523431
51,58.2074,0.0103803
74,85.1931,0.0240387
87,118.228,0.0366654
50,71.1195,0.0281245
61,122.059,0.0123458
86,154.069,0.0380769
100,146.899,0.0837754
114,82.778,0.0228702
113,36.4772,0.00966239
162,52.6536,0.0290431
