facetNormals:0,facetNormals:1,facetNormals:2,FacetCenters:0,FacetCenters:1,FacetCenters:2,FacetIds,relFacetSize,absFacetSize,cellPairingIds,interplanarAngles,angleWeights
0.045663,-0.559181,-0.801386,4.49003,5.59567,4.00631,1,0.0118334,0.0010395,8,79.8229,0.0215604
0.115067,0.669112,-0.665363,4.53383,5.64709,4.04175,2,0.121125,0.0106402,13,34.3473,0.00825632
0.583266,-0.3522,-0.720314,4.58282,5.60519,4.03431,3,0.00633987,0.000556924,19,101.364,0.0162332
0.698424,0.667459,-0.189154,4.59673,5.63651,4.06862,4,0.0258415,0.00227004,26,74.9911,0.0213532
0.89853,-0.051026,-0.204989,4.62063,5.59191,4.07891,5,0.109219,0.00959429,34,101.013,0.0133746
0.895694,0.434794,-0.0201185,4.616,5.59409,4.05906,6,0.0153775,0.00135084,43,102.105,0.0148924
-0.938409,0.321145,-0.0235931,4.46021,5.63473,4.06689,7,0.0200845,0.00176432,53,123.567,0.0206149
-0.609936,0.735481,0.100504,4.46517,5.62852,4.04509,8,0.0799316,0.00702157,64,129.86,0.0116163
0.725659,0.442199,0.506954,4.63006,5.62235,4.12777,9,0.011407,0.00100204,76,90.2491,0.0196908
0.135236,-0.782771,0.559053,4.58863,5.55874,4.12247,10,0.0586036,0.00514802,89,163.271,0.0215659
0.122144,0.722982,0.641135,4.55449,5.64582,4.10864,11,0.121472,0.0106707,103,104.933,0.0211052
-0.328561,-0.596265,0.705813,4.50839,5.55973,4.10016,12,0.0974962,0.00856453,118,128.316,0.0206805
-0.559435,-0.117619,0.785412,4.50103,5.59929,4.11921,13,0.0819497,0.00719886,18,70.7515,0.0120491
,,,,,,,,,25,45.764,0.0425955
,,,,,,,,,33,76.4458,0.114864
,,,,,,,,,42,64.5116,0.0272904
,,,,,,,,,52,82.5308,0.0344557
,,,,,,,,,63,67.1221,0.0963084
,,,,,,,,,75,87.4365,0.0208503
,,,,,,,,,88,162.401,0.0789898
,,,,,,,,,102,85.5882,0.121298
,,,,,,,,,117,166.486,0.108034
,,,,,,,,,133,136.124,0.0977588
,,,,,,,,,32,71.5724,0.0101818
,,,,,,,,,41,41.0948,0.0119841
,,,,,,,,,51,67.1274,0.00897819
,,,,,,,,,62,130.853,0.00963755
,,,,,,,,,74,136.168,0.0117479
,,,,,,,,,87,95.7125,0.00815003
,,,,,,,,,101,92.864,0.0114419
,,,,,,,,,116,131.921,0.0120508
,,,,,,,,,132,120.265,0.0119056
,,,,,,,,,149,152.022,0.0117692
,,,,,,,,,50,45.9057,0.0417944
,,,,,,,,,61,20.2757,0.0192813
,,,,,,,,,73,116.553,0.0226022
,,,,,,,,,86,87.2184,0.0390563
,,,,,,,,,100,43.543,0.0158274
,,,,,,,,,115,123.931,0.0358672
,,,,,,,,,131,62.2396,0.0426169
,,,,,,,,,148,142.024,0.0408545
,,,,,,,,,166,130.243,0.0392927
,,,,,,,,,72,31.1401,0.0269593
,,,,,,,,,85,158.967,0.0339296
,,,,,,,,,99,133.122,0.0923078
,,,,,,,,,114,54.8719,0.0206565
,,,,,,,,,130,87.0044,0.0762784
,,,,,,,,,147,93.7351,0.11502
,,,,,,,,,165,116.897,0.103025
,,,,,,,,,184,137.178,0.0936393
,,,,,,,,,98,135.148,0.0174186
,,,,,,,,,113,103.821,0.0257929
,,,,,,,,,129,32.3964,0.0130979
,,,,,,,,,146,103.783,0.0243624
,,,,,,,,,164,64.9393,0.0272992
,,,,,,,,,183,125.546,0.0265651
,,,,,,,,,203,125.956,0.0258958
,,,,,,,,,128,32.2435,0.0321025
,,,,,,,,,145,124.137,0.0145502
,,,,,,,,,163,113.968,0.0299162
,,,,,,,,,182,83.915,0.0344697
,,,,,,,,,202,84.0895,0.0333075
,,,,,,,,,223,60.9028,0.0322621
,,,,,,,,,162,94.0067,0.0199648
,,,,,,,,,181,130.171,0.0676258
,,,,,,,,,201,56.1184,0.0964178
,,,,,,,,,222,100.222,0.0878444
,,,,,,,,,244,69.0537,0.0809281
,,,,,,,,,200,87.8888,0.0190968
,,,,,,,,,221,40.4543,0.0208555
,,,,,,,,,243,98.5507,0.0204243
,,,,,,,,,266,93.5669,0.0200264
,,,,,,,,,242,101.646,0.0790634
,,,,,,,,,265,30.955,0.0732048
,,,,,,,,,289,61.137,0.0683377
,,,,,,,,,288,91.1218,0.108171
,,,,,,,,,313,68.2776,0.0978715
,,,,,,,,,338,31.9518,0.0890495
