facetNormals:0,facetNormals:1,facetNormals:2,FacetCenters:0,FacetCenters:1,FacetCenters:2,FacetIds,relFacetSize,absFacetSize,cellPairingIds,interplanarAngles,angleWeights
-0.319282,0.0422378,-0.878916,6.49756,3.37669,5.30623,1,0.10344,0.0140592,8,47.1159,0.0893644
0.433538,0.00127223,-0.847142,6.5474,3.37127,5.28797,2,0.0786607,0.0106913,13,57.2721,0.0706991
0.412345,0.564762,-0.687172,6.53284,3.4728,5.31301,3,0.0537015,0.00729896,19,36.6852,0.0264371
-0.695981,0.405263,-0.57077,6.49604,3.4297,5.34016,4,0.0151552,0.00205986,26,53.526,0.0226671
-0.739531,-0.534523,-0.38375,6.48688,3.32711,5.327,5,0.0127281,0.00172997,34,95.5331,0.0996996
0.895815,0.141967,-0.222693,6.52651,3.35774,5.39144,6,0.0962205,0.013078,43,74.248,0.0334265
-0.593537,-0.774787,-0.105451,6.49071,3.30599,5.35808,7,0.0199341,0.00270939,53,74.3211,0.0590613
-0.248783,0.919446,-0.142646,6.50716,3.48703,5.38468,8,0.0413297,0.00561741,64,118.278,0.0249012
0.818396,-0.517502,0.174241,6.57853,3.30917,5.33401,9,0.0141543,0.00192381,76,91.1051,0.135078
-0.900686,0.0303412,0.348496,6.46575,3.37528,5.40889,10,0.194597,0.0264491,89,133.466,0.0518403
0.529141,0.611081,0.555904,6.53147,3.48515,5.37675,11,0.034587,0.00470097,103,140.803,0.0246595
-0.207985,0.330475,0.904841,6.4981,3.45604,5.40727,12,0.0139983,0.00190261,18,35.2815,0.0638279
,,,,,,,,,25,78.8096,0.0254141
,,,,,,,,,33,89.7691,0.0219109
,,,,,,,,,42,49.5001,0.086559
,,,,,,,,,52,100.421,0.0318076
,,,,,,,,,63,89.1152,0.054188
,,,,,,,,,75,77.2555,0.0239915
,,,,,,,,,88,138.219,0.112034
,,,,,,,,,102,104.944,0.0480476
,,,,,,,,,117,155.929,0.0237671
,,,,,,,,,32,69.8038,0.0236392
,,,,,,,,,41,110.705,0.0205788
,,,,,,,,,51,48.8437,0.0689317
,,,,,,,,,62,129.32,0.0290754
,,,,,,,,,74,56.9691,0.0467103
,,,,,,,,,87,94.432,0.0224036
,,,,,,,,,101,128.812,0.0841741
,,,,,,,,,116,79.1347,0.0420751
,,,,,,,,,132,122.625,0.0222078
,,,,,,,,,50,58.0481,0.013836
,,,,,,,,,61,118.425,0.026186
,,,,,,,,,73,80.5391,0.0172193
,,,,,,,,,86,48.7238,0.022178
,,,,,,,,,100,154.803,0.0146377
,,,,,,,,,115,62.5112,0.0281205
,,,,,,,,,131,116.885,0.0210756
,,,,,,,,,148,104.148,0.0145538
,,,,,,,,,72,134.929,0.0224823
,,,,,,,,,85,23.1447,0.0155362
,,,,,,,,,99,105.373,0.0194625
,,,,,,,,,114,113.959,0.0134034
,,,,,,,,,130,57.3419,0.0238934
,,,,,,,,,147,163.531,0.0186083
,,,,,,,,,165,112.293,0.013333
,,,,,,,,,98,132.399,0.0330262
,,,,,,,,,113,93.8608,0.0578227
,,,,,,,,,129,47.4914,0.0246783
,,,,,,,,,146,167.251,0.12877
,,,,,,,,,164,61.5153,0.0508836
,,,,,,,,,183,111.74,0.0244409
,,,,,,,,,128,125.546,0.0268959
,,,,,,,,,145,96.132,0.0165542
,,,,,,,,,163,59.9954,0.0361637
,,,,,,,,,182,151.473,0.0252915
,,,,,,,,,202,103.632,0.0164471
,,,,,,,,,162,138.008,0.0210869
,,,,,,,,,181,77.447,0.0681791
,,,,,,,,,201,68.1985,0.0376589
,,,,,,,,,222,76.1927,0.0209133
,,,,,,,,,200,136.723,0.0263891
,,,,,,,,,221,77.2099,0.0200879
,,,,,,,,,243,100.914,0.0140759
,,,,,,,,,242,106.191,0.0587347
,,,,,,,,,265,57.4242,0.0261179
,,,,,,,,,288,52.025,0.0199303
