"cellPairingIds","interplanarAngles","angleWeights"
8,40.3041,0.0103998
19,95.036,0.0079224
26,56.8585,0.0154273
43,110.559,0.014546
64,77.7724,0.0126859
76,57.3757,0.0139113
151,73.2859,0.0147066
25,64.6602,0.00977807
33,37.2463,0.0244705
50,88.9103,0.0140975
73,66.7491,0.0133579
86,49.0574,0.0137108
131,78.8387,0.0136529
148,72.4192,0.0138418
147,56.0703,0.0844565
225,69.1483,0.0786979
270,88.1635,0.106001
145,69.9644,0.0364099
202,40.9807,0.0677125
245,44.6497,0.0425193
292,63.4074,0.0435431
201,54.662,0.0722472
222,42.6245,0.0778702
316,58.0043,0.0475301
200,32.699,0.032678
266,26.6831,0.0365559
290,44.8208,0.0297631
289,33.211,0.0489907
340,40.2905,0.0505796
394,84.6314,0.046842
423,67.8995,0.0851511
422,29.966,0.0491428
392,46.9433,0.0427186
421,47.8021,0.0605163
451,69.7133,0.0437522
482,55.1642,0.0754632
481,40.3474,0.0343651
545,42.0072,0.0793007
578,59.2708,0.0527933
