"cellPairingIds","interplanarAngles","angleWeights"
8,49.8052,0.0524513
13,89.9355,0.0688937
26,105.209,0.0591029
34,84.7813,0.072956
53,86.0718,0.0734468
18,71.1037,0.0776655
25,55.076,0.0208997
63,61.662,0.0835009
32,56.6122,0.023096
41,68.8656,0.0931962
62,46.8222,0.0709011
73,73.4187,0.0203765
86,67.0886,0.0235862
100,51.3774,0.0216145
72,77.4419,0.100788
85,45.3883,0.0605742
130,64.2959,0.0519696
147,76.382,0.067886
113,95.5227,0.151115
164,46.1347,0.086822
145,65.4286,0.0585757
163,55.405,0.0442163
162,68.3584,0.0962141
201,89.8927,0.0875179
200,49.1292,0.0504916
221,68.4368,0.0653859
242,32.716,0.0479892
