Q	U	V
{$V$}	{[mm$^3$]}	0.0072838
{$d_v$}	{[mm]}	0.240503
{$S_c$}	{[mm$^2$]}	0.408403
{$S_o$}	{[mm$^2$]}	0.20255
{$S_l/S_o$}	[]	1.016307
{$\Psi$}	[]	0.444939
{$\eta$}	[]	0.476015
{med($\theta_e$)}	{[$^\circ$]}	93.49305
{$\Upsilon$}	[]	8
{$\Xi$}	[]	8
