"cellPairingIds","interplanarAngles","angleWeights"
8,53.0606,0.0806906
13,34.6841,0.0489882
34,43.9816,0.0631206
53,80.724,0.0668932
18,73.4207,0.0614404
25,82.6039,0.0749085
33,88.1512,0.115869
52,53.8515,0.0990447
63,75.9661,0.0924894
32,34.5539,0.0467952
51,45.4372,0.0506955
87,67.8516,0.0365811
50,65.1115,0.0728638
100,79.0275,0.0409665
85,64.3536,0.0955013
114,119.881,0.0507845
130,108.728,0.110304
113,82.9717,0.0701178
129,38.5085,0.0439249
146,95.384,0.0823663
128,74.514,0.0790349
163,97.6574,0.0949505
181,64.9533,0.0889095
200,70.6727,0.0506283
