facetNormals:0,facetNormals:1,facetNormals:2,FacetCenters:0,FacetCenters:1,FacetCenters:2,FacetIds,relFacetSize,absFacetSize,cellPairingIds,interplanarAngles,angleWeights
-0.544494,0.204592,-0.759792,3.4758,3.48054,4.59822,1,0.0651738,0.0239469,8,58.1484,0.027926
0.294464,0.636919,-0.696693,3.5463,3.50125,4.59946,2,0.0177701,0.00652928,13,88.6226,0.0640865
0.356011,-0.691503,-0.468826,3.56632,3.36433,4.62723,3,0.0630349,0.023161,19,34.4436,0.0206694
-0.92253,0.12874,-0.330858,3.37994,3.49382,4.71061,4,0.0122823,0.00451291,26,61.367,0.0407992
-0.0395681,0.919391,-0.310131,3.49104,3.45477,4.71045,5,0.0296939,0.0109105,34,45.6911,0.0647619
-0.679069,0.635427,-0.174704,3.42285,3.51903,4.70903,6,0.0643551,0.0236461,43,76.6508,0.0316742
-0.557726,-0.768762,-0.084583,3.51547,3.3567,4.68822,7,0.0209208,0.00768694,53,98.3006,0.0435686
0.407066,0.891787,0.128165,3.53055,3.51701,4.73662,8,0.0327215,0.0120229,64,115.935,0.0965262
0.728374,0.518446,0.11405,3.56847,3.48983,4.71447,9,0.186006,0.0683443,76,98.3942,0.0276531
-0.0269406,0.880882,0.437388,3.47198,3.52245,4.75088,10,0.0175497,0.0064483,89,163.166,0.0710694
0.653283,-0.404232,0.592337,3.56359,3.34011,4.78314,11,0.0781376,0.0287102,103,98.6477,0.0346017
-0.484104,0.528633,0.675823,3.41784,3.35927,4.83343,12,0.0235532,0.00865418,118,112.774,0.0755007
-0.502534,-0.0313096,0.821391,3.40344,3.4395,4.82944,13,0.0897165,0.0329646,134,158.447,0.0545381
0.22137,-0.292155,0.888385,3.5076,3.3672,4.83827,14,0.0468866,0.0172276,18,90.5724,0.0277244
,,,,,,,,,25,87.6046,0.0145252
,,,,,,,,,33,34.6432,0.0222343
,,,,,,,,,42,69.5794,0.0278501
,,,,,,,,,52,129.124,0.0192172
,,,,,,,,,63,52.2444,0.0230321
,,,,,,,,,75,58.5321,0.0324409
,,,,,,,,,88,75.2074,0.0176592
,,,,,,,,,102,119.873,0.0289552
,,,,,,,,,117,106.502,0.020257
,,,,,,,,,133,140.983,0.0296645
,,,,,,,,,150,141.126,0.0257724
,,,,,,,,,32,106.992,0.0205588
,,,,,,,,,41,124.891,0.0403705
,,,,,,,,,51,134.214,0.0636882
,,,,,,,,,62,64.5069,0.0314151
,,,,,,,,,74,126.325,0.04308
,,,,,,,,,87,100.75,0.0941601
,,,,,,,,,101,157.218,0.0274554
,,,,,,,,,116,74.5693,0.0697784
,,,,,,,,,132,162.819,0.0342928
,,,,,,,,,149,128.307,0.0740454
,,,,,,,,,167,98.9424,0.0537746
,,,,,,,,,50,74.4412,0.017377
,,,,,,,,,61,35.0153,0.0206278
,,,,,,,,,73,61.9287,0.0154778
,,,,,,,,,86,108.07,0.0178605
,,,,,,,,,100,136.192,0.0230431
,,,,,,,,,115,90.3803,0.014451
,,,,,,,,,131,152.517,0.0212279
,,,,,,,,,148,72.6096,0.0161453
,,,,,,,,,166,78.6263,0.0216067
,,,,,,,,,185,124.331,0.0194655
,,,,,,,,,72,43.6179,0.0406374
,,,,,,,,,85,135.328,0.024547
,,,,,,,,,99,37.2666,0.0311343
,,,,,,,,,114,61.8839,0.0512123
,,,,,,,,,130,45.025,0.0220609
,,,,,,,,,147,128.095,0.043034
,,,,,,,,,165,72.0032,0.0262695
,,,,,,,,,184,106.367,0.0446198
,,,,,,,,,204,126.329,0.0363603
,,,,,,,,,98,96.0425,0.0315765
,,,,,,,,,113,73.3629,0.0433842
,,,,,,,,,129,102.535,0.0956254
,,,,,,,,,146,57.3984,0.0275787
,,,,,,,,,164,151.143,0.0705798
,,,,,,,,,183,54.1041,0.0344852
,,,,,,,,,203,78.7498,0.0749485
,,,,,,,,,224,122.691,0.0542493
,,,,,,,,,128,168.401,0.0255231
,,,,,,,,,145,161.385,0.0376113
,,,,,,,,,163,138.182,0.0190875
,,,,,,,,,182,96.4367,0.0330048
,,,,,,,,,202,101.891,0.0221591
,,,,,,,,,223,75.1869,0.0339296
,,,,,,,,,245,88.3747,0.0289321
,,,,,,,,,162,29.7699,0.0556527
,,,,,,,,,181,31.3535,0.0228462
,,,,,,,,,201,91.1138,0.0461266
,,,,,,,,,222,68.2456,0.0273905
,,,,,,,,,244,97.6752,0.0479533
,,,,,,,,,267,93.4133,0.0385438
,,,,,,,,,200,56.6917,0.0320733
,,,,,,,,,221,67.5546,0.110047
,,,,,,,,,243,90.0944,0.041812
,,,,,,,,,266,109.411,0.121048
,,,,,,,,,290,82.631,0.0748945
,,,,,,,,,242,96.8963,0.0286619
,,,,,,,,,265,36.9792,0.020113
,,,,,,,,,289,68.6413,0.0293568
,,,,,,,,,314,82.3879,0.0255398
,,,,,,,,,288,97.7958,0.0361958
,,,,,,,,,313,79.4637,0.0835277
,,,,,,,,,339,32.1937,0.0586064
,,,,,,,,,338,34.5392,0.0373112
,,,,,,,,,365,69.0332,0.0313553
,,,,,,,,,392,47.3245,0.0615872
