facetNormals:0,facetNormals:1,facetNormals:2,FacetCenters:0,FacetCenters:1,FacetCenters:2,FacetIds,relFacetSize,absFacetSize,cellPairingIds,interplanarAngles,angleWeights
-0.601021,0.277198,-0.682742,5.61806,5.83265,6.64107,1,0.0122682,0.00138467,8,78.5447,0.020412
0.375472,-0.375488,-0.733445,5.62993,5.81907,6.66647,2,0.0607158,0.0068528,13,47.6681,0.0125095
-0.578281,-0.472704,-0.556402,5.62232,5.77746,6.64686,3,0.0127604,0.00144023,19,98.119,0.0163309
0.81473,0.0444816,-0.509895,5.6755,5.8036,6.6526,4,0.0244168,0.00275584,26,87.25,0.0144083
0.665695,0.569402,-0.419744,5.69792,5.77985,6.55838,5,0.0174528,0.00196984,34,50.0121,0.0203057
-0.387999,0.871524,-0.172248,5.62235,5.90971,6.56472,6,0.0588821,0.00664584,43,109.758,0.0110266
0.0324694,-0.990155,0.0361428,5.65991,5.71518,6.56744,7,0.0100132,0.00113016,53,116.926,0.0172037
0.896698,0.407439,-0.00275301,5.73528,5.82807,6.64019,8,0.0287831,0.00324866,64,143.406,0.0223326
0.713795,-0.631563,0.20546,5.71808,5.72433,6.59156,9,0.124323,0.014032,76,130.922,0.0172878
0.776894,0.45459,0.398853,5.72284,5.86312,6.64944,10,0.0292598,0.00330246,89,91.8191,0.0197107
-0.0357805,0.871276,0.428191,5.66847,5.90873,6.63134,11,0.0501102,0.00565578,103,72.0945,0.0204013
-0.753142,0.460207,0.429525,5.60666,5.86313,6.6249,12,0.0605278,0.00683159,118,137.634,0.0223554
0.103793,-0.749245,0.594326,5.67099,5.72981,6.64358,13,0.125751,0.0141931,134,117.103,0.0140035
0.383874,0.705329,0.575213,5.69326,5.87831,6.66005,14,0.0163106,0.00184093,151,102.172,0.0221426
-0.481508,0.247563,0.810656,5.61579,5.83099,6.6595,15,0.113481,0.0128083,169,132.67,0.0211857
-0.124133,-0.215508,0.936,5.65974,5.78771,6.66961,16,0.0775695,0.00875502,188,135.48,0.00935121
0.15636,0.247424,0.94935,5.6465,5.79449,6.70378,17,0.0075549,0.000852698,18,64.0937,0.0210887
,,,,,,,,,25,40.4292,0.0348276
,,,,,,,,,33,66.9765,0.0271122
,,,,,,,,,42,113.256,0.0597849
,,,,,,,,,52,66.5323,0.0171913
,,,,,,,,,63,77.9809,0.0390528
,,,,,,,,,75,66.3278,0.0815869
,,,,,,,,,88,101.093,0.0394892
,,,,,,,,,102,138.091,0.0549055
,,,,,,,,,117,150.114,0.0606217
,,,,,,,,,133,97.6265,0.0818919
,,,,,,,,,150,127.347,0.0257136
,,,,,,,,,168,169.644,0.079107
,,,,,,,,,187,138.048,0.0681156
,,,,,,,,,207,144.298,0.0134377
,,,,,,,,,32,103.452,0.0167612
,,,,,,,,,41,117.702,0.0147422
,,,,,,,,,51,95.8332,0.0209752
,,,,,,,,,62,62.3019,0.0112211
,,,,,,,,,74,140.675,0.0176819
,,,,,,,,,87,104.577,0.0231452
,,,,,,,,,101,165.087,0.0177708
,,,,,,,,,116,134.078,0.020341
,,,,,,,,,132,91.3164,0.0210773
,,,,,,,,,149,92.337,0.0231697
,,,,,,,,,167,162.099,0.0143187
,,,,,,,,,186,108.602,0.0229412
,,,,,,,,,206,112.634,0.0219156
,,,,,,,,,227,142.657,0.00949073
,,,,,,,,,50,33.2375,0.0203556
,,,,,,,,,61,101.723,0.0345193
,,,,,,,,,73,92.1641,0.0142022
,,,,,,,,,86,37.672,0.0264208
,,,,,,,,,100,61.4252,0.0408171
,,,,,,,,,115,61.651,0.0266198
,,,,,,,,,131,102.903,0.0328345
,,,,,,,,,148,149.308,0.0347966
,,,,,,,,,166,105.787,0.0408933
,,,,,,,,,185,86.9342,0.019557
,,,,,,,,,205,147.909,0.0401869
,,,,,,,,,226,129.124,0.0371422
,,,,,,,,,248,111.201,0.0115394
,,,,,,,,,72,70.7627,0.026925
,,,,,,,,,85,125.365,0.0127255
,,,,,,,,,99,29.8161,0.0217297
,,,,,,,,,114,88.2261,0.0306087
,,,,,,,,,130,50.477,0.0218641
,,,,,,,,,147,71.9392,0.0258888
,,,,,,,,,165,116.109,0.0270934
,,,,,,,,,184,130.511,0.0306515
,,,,,,,,,204,64.3251,0.0168624
,,,,,,,,,225,123.297,0.0302529
,,,,,,,,,247,129.487,0.0284945
,,,,,,,,,270,99.1535,0.0105451
,,,,,,,,,98,156.567,0.0171158
,,,,,,,,,113,89.541,0.0386655
,,,,,,,,,129,155.898,0.0799148
,,,,,,,,,146,88.4359,0.0390933
,,,,,,,,,164,42.0359,0.0541431
,,,,,,,,,183,49.395,0.0596936
,,,,,,,,,203,148.56,0.0802075
,,,,,,,,,224,67.4843,0.0255451
,,,,,,,,,246,73.8444,0.0775341
,,,,,,,,,269,108.692,0.0669461
,,,,,,,,,293,90.509,0.0133916
,,,,,,,,,128,112.548,0.0148577
,,,,,,,,,145,47.2615,0.0185337
,,,,,,,,,163,114.87,0.0149204
,,,,,,,,,182,151.754,0.0166912
,,,,,,,,,202,118.519,0.0171837
,,,,,,,,,223,36.4864,0.0185494
,,,,,,,,,245,132.784,0.0124087
,,,,,,,,,268,103.858,0.0184027
,,,,,,,,,292,75.3276,0.0177369
,,,,,,,,,317,102.05,0.00861207
,,,,,,,,,162,66.5484,0.0467441
,,,,,,,,,181,24.7301,0.0290195
,,,,,,,,,201,70.3516,0.036564
,,,,,,,,,222,120.386,0.0390138
,,,,,,,,,244,103.044,0.0468441
,,,,,,,,,267,49.6417,0.020822
,,,,,,,,,291,110.302,0.0459194
,,,,,,,,,316,102.207,0.0419866
,,,,,,,,,342,75.8979,0.0119684
,,,,,,,,,200,68.6549,0.0473708
,,,,,,,,,221,121,0.0714296
,,,,,,,,,243,140.644,0.0814171
,,,,,,,,,266,44.4616,0.125033
,,,,,,,,,290,93.1708,0.0288379
,,,,,,,,,315,110.541,0.118655
,,,,,,,,,341,75.2874,0.0955328
,,,,,,,,,368,81.0673,0.0142442
,,,,,,,,,242,55.694,0.0369463
,,,,,,,,,265,102.222,0.0394494
,,,,,,,,,289,91.3864,0.0474735
,,,,,,,,,314,29.276,0.0209454
,,,,,,,,,340,86.3086,0.046524
,,,,,,,,,367,79.1845,0.0424915
,,,,,,,,,395,51.2198,0.0120091
,,,,,,,,,288,50.0873,0.0548285
,,,,,,,,,313,115.48,0.0716633
,,,,,,,,,339,28.0223,0.0246106
,,,,,,,,,366,52.2302,0.0695215
,,,,,,,,,394,76.6362,0.0608871
,,,,,,,,,423,50.2993,0.0131302
,,,,,,,,,338,100.23,0.0817209
,,,,,,,,,365,73.0573,0.0256967
,,,,,,,,,393,30.4651,0.0789473
,,,,,,,,,422,65.3593,0.0679972
,,,,,,,,,452,65.5331,0.0134331
,,,,,,,,,392,98.8848,0.0288759
,,,,,,,,,421,74.7707,0.119301
,,,,,,,,,451,40.8348,0.0959513
,,,,,,,,,482,65.5812,0.0142535
,,,,,,,,,450,61.7295,0.0285218
,,,,,,,,,481,69.262,0.0269537
,,,,,,,,,513,37.299,0.0103266
,,,,,,,,,512,35.8555,0.0921502
,,,,,,,,,545,38.7229,0.0141667
,,,,,,,,,578,32.008,0.0137688
