facetNormals:0,facetNormals:1,facetNormals:2,FacetCenters:0,FacetCenters:1,FacetCenters:2,FacetIds,relFacetSize,absFacetSize,cellPairingIds,interplanarAngles,angleWeights
0.349397,-0.201438,-0.895269,3.87351,5.17976,7.49905,1,0.104604,0.00989921,8,39.2328,0.0558124
-0.163886,-0.603435,-0.772546,3.81803,5.13717,7.51057,2,0.0380598,0.0036018,13,32.6241,0.063411
0.153586,-0.679408,-0.698258,3.84478,5.15002,7.50425,3,0.0454951,0.00430545,19,30.0147,0.0950533
0.553283,-0.550473,-0.588574,3.90089,5.1405,7.53733,4,0.0871009,0.00824282,26,30.3843,0.0599792
0.752453,-0.00875337,-0.637489,3.9175,5.1664,7.54256,5,0.0420433,0.00397878,34,59.0004,0.0830051
-0.476907,-0.609146,-0.603209,3.8083,5.10336,7.55177,6,0.0687993,0.00651085,43,68.5163,0.0241586
0.0717636,-0.977015,-0.150271,3.8633,5.08453,7.5631,7,0.0136563,0.00129237,53,65.0712,0.0540809
0.892694,0.372379,-0.191192,3.92422,5.22086,7.54038,8,0.0364674,0.0034511,64,76.0287,0.0793183
0.960646,0.0509684,0.10713,3.9298,5.19761,7.58874,9,0.0638774,0.00604506,76,143.198,0.0364539
-0.684638,0.443808,0.452149,3.88526,5.22803,7.46323,10,0.0220731,0.0020889,89,117.179,0.0402493
-0.740219,-0.552233,0.326025,3.80367,5.12044,7.58289,11,0.0249188,0.0023582,103,98.6992,0.0284837
-0.229246,-0.913595,0.279057,3.8437,5.06875,7.58976,12,0.0164865,0.00156021,118,122.671,0.0825253
0.0256945,-0.641836,0.73026,3.83845,5.11204,7.63226,13,0.0681426,0.0064487,134,142.624,0.062584
-0.0219101,-0.337168,0.928479,3.84243,5.12052,7.63638,14,0.0446485,0.00422533,151,133.962,0.0932806
0.348011,-0.115957,0.906349,3.88732,5.15942,7.63918,15,0.0841694,0.0079654,169,151.891,0.0368696
0.121132,0.274202,0.941016,3.92204,5.1422,7.58403,16,0.0223787,0.00211782,18,19.4622,0.0414466
,,,,,,,,,25,44.227,0.0529726
,,,,,,,,,33,67.5414,0.0399525
,,,,,,,,,42,20.753,0.0490082
,,,,,,,,,52,45.2168,0.0201003
,,,,,,,,,63,103.172,0.0372466
,,,,,,,,,75,106.359,0.0476992
,,,,,,,,,88,122.998,0.0279414
,,,,,,,,,102,77.982,0.0301183
,,,,,,,,,117,67.5232,0.023007
,,,,,,,,,133,100.796,0.0488406
,,,,,,,,,150,121.305,0.0410917
,,,,,,,,,168,135.008,0.0524174
,,,,,,,,,187,158.344,0.028185
,,,,,,,,,32,25.5343,0.0597705
,,,,,,,,,41,54.3701,0.0437011
,,,,,,,,,51,38.06,0.0547714
,,,,,,,,,62,37.0905,0.0210069
,,,,,,,,,74,88.9624,0.0404841
,,,,,,,,,87,87.7122,0.0531415
,,,,,,,,,101,141.739,0.0297246
,,,,,,,,,116,87.9915,0.0322005
,,,,,,,,,132,66.2231,0.0242025
,,,,,,,,,149,94.1786,0.0545621
,,,,,,,,,167,115.701,0.0450679
,,,,,,,,,186,121.275,0.0590647
,,,,,,,,,206,147.858,0.0300004
,,,,,,,,,50,34.3073,0.0567119
,,,,,,,,,61,63.5932,0.0768759
,,,,,,,,,73,46.5757,0.0236107
,,,,,,,,,86,65.3841,0.0514103
,,,,,,,,,100,62.2611,0.073703
,,,,,,,,,115,167.211,0.0352207
,,,,,,,,,131,108.101,0.0387512
,,,,,,,,,148,77.2568,0.0277252
,,,,,,,,,166,93.7562,0.0764642
,,,,,,,,,185,112.718,0.0590352
,,,,,,,,,205,106.851,0.0856101
,,,,,,,,,226,131.348,0.0356086
,,,,,,,,,72,88.1626,0.052192
,,,,,,,,,85,80.6771,0.0206161
,,,,,,,,,99,35.632,0.0390573
,,,,,,,,,114,46.7489,0.0507099
,,,,,,,,,130,151.344,0.0289482
,,,,,,,,,147,141.889,0.0312914
,,,,,,,,,165,110.695,0.0236853
,,,,,,,,,184,117.344,0.0520019
,,,,,,,,,204,128.412,0.0433068
,,,,,,,,,225,109.061,0.0560761
,,,,,,,,,247,121.653,0.0292097
,,,,,,,,,98,47.9217,0.0227891
,,,,,,,,,113,123.741,0.0476681
,,,,,,,,,129,125.678,0.0662471
,,,,,,,,,146,103.69,0.033423
,,,,,,,,,164,59.1451,0.0365862
,,,,,,,,,183,58.9195,0.026599
,,,,,,,,,203,93.7127,0.0684694
,,,,,,,,,224,110.802,0.0541533
,,,,,,,,,246,132.018,0.0757122
,,,,,,,,,269,144.876,0.0337722
,,,,,,,,,128,106.102,0.0198712
,,,,,,,,,145,89.8182,0.0225019
,,,,,,,,,163,126.559,0.0168733
,,,,,,,,,182,63.2148,0.0176434
,,,,,,,,,202,31.0421,0.0149385
,,,,,,,,,223,57.41,0.0227528
,,,,,,,,,245,78.9123,0.0209154
,,,,,,,,,268,89.8777,0.0234998
,,,,,,,,,292,114.16,0.0169619
,,,,,,,,,162,26.2332,0.0464287
,,,,,,,,,181,125.368,0.0275006
,,,,,,,,,201,164.117,0.0296068
,,,,,,,,,222,128.141,0.0227073
,,,,,,,,,244,111.773,0.0475095
,,,,,,,,,267,109.341,0.0401454
,,,,,,,,,291,84.3924,0.0508873
,,,,,,,,,316,88.2153,0.0277365
,,,,,,,,,200,130.52,0.032809
,,,,,,,,,221,137.984,0.0358517
,,,,,,,,,243,104.426,0.0262087
,,,,,,,,,266,85.7233,0.0659411
,,,,,,,,,290,86.329,0.0525595
,,,,,,,,,315,63.2827,0.0726327
,,,,,,,,,341,76.007,0.0331453
,,,,,,,,,242,63.3966,0.0234098
,,,,,,,,,265,97.6718,0.0188751
,,,,,,,,,289,88.2476,0.033345
,,,,,,,,,314,71.9761,0.0295416
,,,,,,,,,340,82.4346,0.0349744
,,,,,,,,,367,59.74,0.0222249
,,,,,,,,,288,37.3153,0.019844
,,,,,,,,,313,52.9796,0.0364927
,,,,,,,,,339,58.5337,0.0319859
,,,,,,,,,366,83.8901,0.0384533
,,,,,,,,,394,86.1048,0.0235805
,,,,,,,,,338,34.8301,0.0265496
,,,,,,,,,365,53.8812,0.0240811
,,,,,,,,,393,73.1095,0.0275723
,,,,,,,,,422,90.9262,0.018986
,,,,,,,,,392,21.5333,0.0539487
,,,,,,,,,421,38.4012,0.0753128
,,,,,,,,,451,57.6258,0.0336925
,,,,,,,,,450,25.3577,0.0583465
,,,,,,,,,481,37.0686,0.029814
,,,,,,,,,512,26.6254,0.0353568
