Q	U	V
{$V$}	{[mm$^3$]}	0.00238677
{$d_v$}	{[mm]}	0.165807
{$S_c$}	{[mm$^2$]}	0.139413
{$S_o$}	{[mm$^2$]}	0.0814148
{$S_l/S_o$}	[]	0.712379
{$\Psi$}	[]	0.619519
{$\eta$}	[]	0.674190
{med($\theta_e$)}	{[$^\circ$]}	58.0407
{$\Upsilon$}	[]	17
{$\Xi$}	[]	10
