facetNormals:0,facetNormals:1,facetNormals:2,FacetCenters:0,FacetCenters:1,FacetCenters:2,FacetIds,relFacetSize,absFacetSize,cellPairingIds,interplanarAngles,angleWeights
-0.0790041,-0.248868,-0.945391,6.92474,3.53198,7.27436,1,0.028757,0.0113459,8,33.6373,0.0469258
-0.55338,0.00982792,-0.788243,6.85654,3.52324,7.31632,2,0.127447,0.0502834,13,48.9255,0.0432009
0.640923,-0.32786,-0.610798,7.01388,3.52718,7.28307,3,0.086796,0.0342447,19,76.5265,0.038572
0.535386,0.636015,-0.439472,6.98017,3.65417,7.3254,4,0.0585582,0.0231037,26,74.1765,0.031953
-0.500278,0.727768,-0.427303,6.85712,3.66255,7.34753,5,0.0359482,0.0141831,34,57.8682,0.0307521
-0.711185,-0.576083,-0.324782,6.79753,3.45519,7.40402,6,0.0330447,0.0130375,43,95.1211,0.0221098
0.000389403,0.975487,-0.165203,6.94763,3.66417,7.3598,7,0.0179586,0.00708544,53,87.5562,0.0238484
-0.201429,-0.932293,0.218964,6.83634,3.42258,7.42578,8,0.0203712,0.00803733,64,126.46,0.0242249
0.340433,0.842021,0.349953,6.98149,3.64352,7.40899,9,0.0209268,0.00825652,76,116.327,0.0416797
-0.487691,0.76926,0.276166,6.84434,3.65342,7.42362,10,0.0756949,0.0298649,89,115.501,0.0366361
0.891292,-0.0516285,0.370913,7.02526,3.58992,7.39917,11,0.050462,0.0199094,103,108.044,0.0434179
0.643491,-0.573422,0.402907,6.96852,3.46946,7.38999,12,0.0885752,0.0349467,118,167.045,0.0385612
-0.0785531,0.09511,0.919178,6.8611,3.54308,7.45949,13,0.0585085,0.0230841,18,82.1903,0.103265
,,,,,,,,,25,86.4305,0.0802458
,,,,,,,,,33,48.9284,0.0560786
,,,,,,,,,42,46.4967,0.0524818
,,,,,,,,,52,81.5765,0.0314812
,,,,,,,,,63,94.2769,0.0351277
,,,,,,,,,75,119.103,0.0359505
,,,,,,,,,88,86.2627,0.0949788
,,,,,,,,,102,147.59,0.072298
,,,,,,,,,117,137.843,0.104514
,,,,,,,,,133,139.59,0.0801991
,,,,,,,,,32,63.0009,0.0699342
,,,,,,,,,41,108.784,0.05084
,,,,,,,,,51,94.2886,0.047866
,,,,,,,,,62,103.538,0.0297597
,,,,,,,,,74,87.3438,0.0329978
,,,,,,,,,87,107.193,0.0337229
,,,,,,,,,101,144.711,0.0808662
,,,,,,,,,116,66.6594,0.06382
,,,,,,,,,132,66.7672,0.0876766
,,,,,,,,,149,137.25,0.0698988
,,,,,,,,,50,65.4841,0.0445485
,,,,,,,,,61,131.441,0.0422484
,,,,,,,,,73,41.8313,0.0274874
,,,,,,,,,86,150.007,0.0302271
,,,,,,,,,100,51.96,0.0308344
,,,,,,,,,115,83.1473,0.0660328
,,,,,,,,,131,71.9728,0.0542095
,,,,,,,,,148,102.737,0.0705048
,,,,,,,,,166,116.235,0.0585333
,,,,,,,,,72,85.4661,0.0344353
,,,,,,,,,85,36.4943,0.0239517
,,,,,,,,,99,134.362,0.0260056
,,,,,,,,,114,72.1346,0.0264538
,,,,,,,,,130,42.7379,0.0487463
,,,,,,,,,147,132.597,0.0419862
,,,,,,,,,165,167.529,0.0511409
,,,,,,,,,184,108.204,0.0445341
,,,,,,,,,98,121.959,0.0232705
,,,,,,,,,113,50.1321,0.0252045
,,,,,,,,,129,152.816,0.0256254
,,,,,,,,,146,101.61,0.0460056
,,,,,,,,,164,140.513,0.0399369
,,,,,,,,,183,106.224,0.0481326
,,,,,,,,,203,109.285,0.0422354
,,,,,,,,,128,167.616,0.019089
,,,,,,,,,145,37.5281,0.0193294
,,,,,,,,,163,41.5618,0.0290299
,,,,,,,,,182,96.6817,0.0264899
,,,,,,,,,202,131.657,0.0298626
,,,,,,,,,223,93.6931,0.0274819
,,,,,,,,,162,144.656,0.0206453
,,,,,,,,,181,126.841,0.0321029
,,,,,,,,,201,93.0405,0.0290252
,,,,,,,,,222,58.0145,0.0331243
,,,,,,,,,244,81.8656,0.0302204
,,,,,,,,,200,51.3684,0.0327887
,,,,,,,,,221,65.531,0.0295847
,,,,,,,,,243,97.6183,0.033855
,,,,,,,,,266,65.4528,0.0308275
,,,,,,,,,242,113.843,0.060555
,,,,,,,,,265,135.3,0.08163
,,,,,,,,,289,65.5518,0.0660012
,,,,,,,,,288,35.0959,0.0642948
,,,,,,,,,313,72.7412,0.0541882
,,,,,,,,,338,72.5054,0.0704687
