facetNormals:0,facetNormals:1,facetNormals:2,FacetCenters:0,FacetCenters:1,FacetCenters:2,FacetIds,relFacetSize,absFacetSize,cellPairingIds,interplanarAngles,angleWeights
-0.588155,0.270495,-0.718934,7.12456,4.20077,6.64909,1,0.0703379,0.00734037,8,84.3204,0.100779
0.500954,-0.446051,-0.707486,7.23757,4.16741,6.66772,2,0.177673,0.0185418,13,23.1089,0.0383657
-0.655096,-0.116398,-0.734384,7.13189,4.21108,6.64142,3,0.0263763,0.00275259,19,78.1094,0.0417707
0.0771424,-0.765909,-0.626462,7.23458,4.13541,6.6881,4,0.0297059,0.00310007,26,112.766,0.0719851
0.170161,-0.947867,0.00564591,7.24556,4.11613,6.74819,5,0.0737113,0.00769241,34,89.5685,0.0719797
-0.476813,-0.812635,0.0747499,7.12219,4.12817,6.70902,6,0.0736999,0.00769122,43,142.518,0.05471
0.784951,-0.524939,0.188625,7.31761,4.20045,6.73946,7,0.0447642,0.00467153,53,136.776,0.0476501
0.920347,0.148213,0.248969,7.29805,4.18983,6.76714,8,0.0360288,0.00375992,64,101.953,0.0204979
0.12252,0.823422,0.476984,7.20627,4.25289,6.70358,9,0.011997,0.00125199,76,65.5102,0.0803326
-0.879619,0.23329,0.276787,7.10296,4.20014,6.72995,10,0.0936382,0.00977196,89,155.111,0.0254895
0.566012,0.143224,0.788092,7.29095,4.18836,6.77982,11,0.015565,0.00162435,103,141.8,0.0630073
0.0291259,-0.557913,0.786205,7.2283,4.13045,6.7821,12,0.0570605,0.00595476,118,124.324,0.0672492
-0.272938,-0.0858613,0.927418,7.18418,4.16642,6.78457,13,0.0644204,0.00672283,18,75.413,0.0459336
,,,,,,,,,25,31.6705,0.0509014
,,,,,,,,,33,57.5298,0.104195
,,,,,,,,,42,85.5976,0.104184
,,,,,,,,,52,58.2561,0.0715114
,,,,,,,,,63,76.5499,0.0599092
,,,,,,,,,75,133.458,0.0224764
,,,,,,,,,88,142.993,0.122641
,,,,,,,,,102,110.694,0.0286226
,,,,,,,,,117,108.142,0.0863798
,,,,,,,,,133,142.889,0.0945567
,,,,,,,,,32,59.5335,0.0279423
,,,,,,,,,41,90.3175,0.0388506
,,,,,,,,,51,67.9215,0.038849
,,,,,,,,,62,128.316,0.0331939
,,,,,,,,,74,147.121,0.0304561
,,,,,,,,,87,123.617,0.0164926
,,,,,,,,,101,68.4773,0.0411588
,,,,,,,,,116,173.782,0.0195773
,,,,,,,,,132,123.787,0.0360763
,,,,,,,,,149,120.787,0.037428
,,,,,,,,,50,39.6831,0.0423461
,,,,,,,,,61,54.9439,0.0423443
,,,,,,,,,73,68.8752,0.0357126
,,,,,,,,,86,101.963,0.0325633
,,,,,,,,,100,165.054,0.0170915
,,,,,,,,,115,116.412,0.0451032
,,,,,,,,,131,125.101,0.020427
,,,,,,,,,148,93.7719,0.0390712
,,,,,,,,,166,123.831,0.0406617
,,,,,,,,,72,40.7492,0.0737056
,,,,,,,,,85,47.0215,0.0557014
,,,,,,,,,99,88.9192,0.0484004
,,,,,,,,,114,145.007,0.0206355
,,,,,,,,,130,113.771,0.0824884
,,,,,,,,,147,92.1232,0.0257027
,,,,,,,,,165,54.5875,0.0643258
,,,,,,,,,184,87.5363,0.0687534
,,,,,,,,,98,85.8157,0.0556982
,,,,,,,,,113,126.36,0.0483979
,,,,,,,,,129,139.729,0.0206351
,,,,,,,,,146,73.8196,0.0824812
,,,,,,,,,164,110.679,0.025702
,,,,,,,,,183,56.8669,0.0643215
,,,,,,,,,203,72.9321,0.0687484
,,,,,,,,,128,41.8983,0.0399243
,,,,,,,,,145,105.448,0.0189227
,,,,,,,,,163,146.151,0.0605718
,,,,,,,,,182,56.7562,0.0230985
,,,,,,,,,202,60.0249,0.0501699
,,,,,,,,,223,89.6467,0.052823
,,,,,,,,,162,67.5478,0.0180003
,,,,,,,,,181,140.293,0.052036
,,,,,,,,,201,38.7192,0.0217386
,,,,,,,,,222,81.3566,0.0441688
,,,,,,,,,244,92.021,0.0462122
,,,,,,,,,200,76.2868,0.0212691
,,,,,,,,,221,53.2389,0.0135501
,,,,,,,,,243,95.0106,0.0198257
,,,,,,,,,266,68.7024,0.0202272
,,,,,,,,,242,105.31,0.026693
,,,,,,,,,265,86.1352,0.0709103
,,,,,,,,,289,58.9076,0.0763288
,,,,,,,,,288,53.9885,0.0244583
,,,,,,,,,313,53.6582,0.0250722
,,,,,,,,,338,34.7539,0.0605175
