facetNormals:0,facetNormals:1,facetNormals:2,FacetCenters:0,FacetCenters:1,FacetCenters:2,FacetIds,relFacetSize,absFacetSize,cellPairingIds,interplanarAngles,angleWeights
-0.401678,0.245624,-0.766133,6.77521,5.29681,3.72449,1,0.0425445,0.0119356,8,103.937,0.0675966
0.931891,0.1049,-0.18474,6.98813,5.34185,3.6744,2,0.164407,0.0461236,13,45.9357,0.0262918
-0.547535,0.778759,-0.271294,6.82612,5.35191,3.76207,3,0.0190242,0.00533714,19,120.673,0.0426941
0.820059,-0.534118,-0.0151256,6.97043,5.25431,3.72527,4,0.0428448,0.0120199,26,67.7024,0.0395942
-0.710146,0.656066,0.147144,6.8482,5.36851,3.75513,5,0.0370266,0.0103876,34,120.049,0.0629719
0.183514,-0.891337,0.161211,6.88165,5.21517,3.76135,6,0.121133,0.0339833,43,75.4975,0.062019
-0.0139754,0.914486,0.0315262,6.8982,5.39468,3.72446,7,0.114373,0.0320866,53,101.134,0.0233622
-0.53712,0.499609,0.666413,6.8623,5.36661,3.76809,8,0.0161021,0.00451736,64,112.924,0.0483813
-0.575203,-0.484824,0.58059,6.79443,5.22998,3.77886,9,0.0560743,0.0157313,76,112.939,0.0339082
-0.129359,0.649769,0.725644,6.89583,5.31579,3.79821,10,0.0281865,0.00790757,89,157.52,0.0683005
0.118586,-0.0784886,0.887801,6.8748,5.29609,3.81751,11,0.173084,0.0485576,18,113.577,0.0341023
,,,,,,,,,25,40.5379,0.0679751
,,,,,,,,,33,131.563,0.0604412
,,,,,,,,,42,86.9025,0.139491
,,,,,,,,,52,84.9442,0.1349
,,,,,,,,,63,127.088,0.0293315
,,,,,,,,,75,139.841,0.0836262
,,,,,,,,,88,101.45,0.0481227
,,,,,,,,,102,94.1196,0.168634
,,,,,,,,,32,152.687,0.0263488
,,,,,,,,,41,27.3513,0.0251344
,,,,,,,,,51,156.403,0.0328839
,,,,,,,,,62,38.2638,0.0326222
,,,,,,,,,74,59.1973,0.0174416
,,,,,,,,,87,103.534,0.0284099
,,,,,,,,,101,67.0042,0.0227163
,,,,,,,,,116,114.346,0.0342805
,,,,,,,,,50,167.639,0.0397238
,,,,,,,,,61,46.3728,0.0633003
,,,,,,,,,73,123.962,0.0623375
,,,,,,,,,86,137.694,0.0234072
,,,,,,,,,100,103.779,0.0485749
,,,,,,,,,115,118.854,0.0340032
,,,,,,,,,131,81.7853,0.0686869
,,,,,,,,,72,139.902,0.0567168
,,,,,,,,,85,46.634,0.0559426
,,,,,,,,,99,33.6009,0.0224439
,,,,,,,,,114,79.0934,0.044602
,,,,,,,,,130,49.4327,0.0320074
,,,,,,,,,147,90.3306,0.0610033
,,,,,,,,,98,163.9,0.117656
,,,,,,,,,113,118.458,0.0284256
,,,,,,,,,129,61.4165,0.0766611
,,,,,,,,,146,122.35,0.0457317
,,,,,,,,,164,73.5835,0.142522
,,,,,,,,,128,57.6428,0.0282298
,,,,,,,,,145,118.656,0.0752535
,,,,,,,,,163,46.5074,0.045227
,,,,,,,,,182,93.1661,0.137732
,,,,,,,,,162,61.2041,0.0250197
,,,,,,,,,181,25.672,0.0204957
,,,,,,,,,201,56.7379,0.0294632
,,,,,,,,,200,78.8422,0.0375154
,,,,,,,,,221,55.3898,0.0847061
,,,,,,,,,242,49.1476,0.0484784
