Q	U	V
{$V$}	{[mm$^3$]}	0.00311586
{$d_v$}	{[mm]}	0.181215
{$S_c$}	{[mm$^2$]}	0.191508
{$S_o$}	{[mm$^2$]}	0.116761
{$S_l/S_o$}	[]	0.640171
{$\Psi$}	[]	0.538703
{$\eta$}	[]	0.576148
{med($\theta_e$)}	{[$^\circ$]}	65.31125
{$\Upsilon$}	[]	12
{$\Xi$}	[]	9
