facetNormals:0,facetNormals:1,facetNormals:2,FacetCenters:0,FacetCenters:1,FacetCenters:2,FacetIds,relFacetSize,absFacetSize,cellPairingIds,interplanarAngles,angleWeights
-0.378515,-0.226839,-0.820115,4.39444,6.18067,6.09514,1,0.136773,0.028752,8,84.9865,0.0453809
0.746186,-0.539447,-0.291016,4.45541,6.11865,6.10932,2,0.0272035,0.00571866,13,57.838,0.0556197
-0.86712,0.294782,-0.256197,4.33683,6.19543,6.14154,3,0.0349076,0.00733819,19,113.509,0.0473978
0.72224,0.645157,-0.0719075,4.37195,6.23956,6.19198,4,0.0286659,0.00602608,26,90.9237,0.0683909
-0.0501206,0.919712,-0.213944,4.39343,6.26221,6.21402,5,0.045595,0.00958489,34,66.2664,0.0880883
-0.76394,-0.573187,0.0733307,4.33245,6.16434,6.15729,6,0.0649642,0.0136567,43,82.2939,0.163705
-0.0235582,-0.898498,0.12129,4.42887,6.16512,6.19629,7,0.203846,0.0428521,53,133.312,0.064822
0.657716,-0.416353,0.557396,4.46866,6.19613,6.22101,8,0.0424767,0.00892937,64,128.618,0.09294
-0.118673,0.797721,0.510676,4.40953,6.2754,6.25096,9,0.0703836,0.0147959,76,128.378,0.112616
-0.354982,-0.125079,0.860754,4.36682,6.21276,6.24644,10,0.0957112,0.0201202,89,167.242,0.0984339
0.233243,0.106824,0.910859,4.43968,6.21679,6.24982,11,0.0768829,0.0161622,18,142.8,0.0305777
,,,,,,,,,25,76.945,0.0279155
,,,,,,,,,33,121.072,0.0340761
,,,,,,,,,42,107.762,0.0383487
,,,,,,,,,52,60.4587,0.0480012
,,,,,,,,,63,53.2499,0.0331662
,,,,,,,,,75,136.396,0.0392404
,,,,,,,,,88,119.586,0.0423656
,,,,,,,,,102,99.3626,0.0401874
,,,,,,,,,32,116.888,0.0314803
,,,,,,,,,41,65.7474,0.0395418
,,,,,,,,,51,58.5956,0.0454131
,,,,,,,,,62,108.628,0.0596076
,,,,,,,,,74,156.637,0.0383219
,,,,,,,,,87,76.8051,0.0466691
,,,,,,,,,101,86.7649,0.0511572
,,,,,,,,,116,116.683,0.0480147
,,,,,,,,,50,51.4275,0.0352008
,,,,,,,,,61,175.119,0.039779
,,,,,,,,,73,133.424,0.0502634
,,,,,,,,,86,79.694,0.0342308
,,,,,,,,,100,64.9687,0.0407394
,,,,,,,,,115,115.934,0.0441182
,,,,,,,,,131,79.22,0.0417611
,,,,,,,,,72,123.853,0.0535829
,,,,,,,,,85,172.95,0.0745215
,,,,,,,,,99,126.235,0.0439806
,,,,,,,,,114,45.7054,0.0553402
,,,,,,,,,130,108.468,0.0617659
,,,,,,,,,147,96.9526,0.0572426
,,,,,,,,,98,51.4081,0.0985282
,,,,,,,,,113,104.069,0.0513671
,,,,,,,,,129,111.098,0.0675654
,,,,,,,,,146,63.1809,0.0773958
,,,,,,,,,164,100.978,0.0704228
,,,,,,,,,128,60.6045,0.0703038
,,,,,,,,,145,138.86,0.104638
,,,,,,,,,163,74.6777,0.130261
,,,,,,,,,182,89.399,0.111654
,,,,,,,,,162,97.8952,0.0529799
,,,,,,,,,181,70.6254,0.0588401
,,,,,,,,,201,47.1075,0.0547209
,,,,,,,,,200,64.794,0.0811163
,,,,,,,,,221,54.6457,0.0734898
,,,,,,,,,242,39.3073,0.08527
