facetNormals:0,facetNormals:1,facetNormals:2,FacetCenters:0,FacetCenters:1,FacetCenters:2,FacetIds,relFacetSize,absFacetSize,cellPairingIds,interplanarAngles,angleWeights
0.140427,-0.0223199,-0.968838,6.90162,6.04081,5.67311,1,0.0499794,0.0116982,8,37.9799,0.0248118
-0.472013,-0.138979,-0.842483,6.85553,6.05505,5.66851,2,0.0165021,0.00386249,13,25.848,0.0323942
0.011097,0.392136,-0.902701,6.8494,6.06748,5.66489,3,0.0239628,0.00560876,19,27.4887,0.0560413
0.410356,-0.364545,-0.807737,6.90687,6.00886,5.68463,4,0.0637765,0.0149276,26,49.4393,0.0253465
0.128024,0.733257,-0.64614,6.86722,6.1039,5.70167,5,0.0169785,0.003974,34,53.5528,0.0624454
0.774411,0.32465,-0.474306,6.94205,6.06229,5.72977,6,0.0831965,0.019473,43,90.33,0.0588643
-0.855783,0.265111,-0.124882,6.80267,6.06118,5.71662,7,0.0715909,0.0167566,53,66.6185,0.0632073
0.427992,-0.818832,-0.309998,6.93944,5.94095,5.76322,8,0.0859572,0.0201192,64,93.5284,0.0540944
-0.496004,0.81349,-0.0313364,6.84952,6.12817,5.73771,9,0.0589477,0.0137973,76,102.996,0.0387315
-0.670713,-0.662854,0.134568,6.81591,5.95456,5.7498,10,0.0316162,0.00740011,89,109.851,0.0570109
0.786134,0.368454,0.439421,6.96674,6.04106,5.83998,11,0.0663447,0.0155287,103,146.982,0.0150606
-0.555335,-0.284935,0.758637,6.79243,5.98421,5.73795,12,0.00886614,0.00207521,118,135.173,0.0655062
0.138708,0.641163,0.685446,6.92954,6.1096,5.80254,13,0.095028,0.0222423,134,141.935,0.0317639
0.477382,-0.105381,0.856126,6.98977,6.02638,5.81599,14,0.0232794,0.0054488,18,43.1343,0.0195447
,,,,,,,,,25,55.6604,0.0262198
,,,,,,,,,33,66.5934,0.0167369
,,,,,,,,,42,90.6733,0.0275413
,,,,,,,,,52,57.6447,0.0268216
,,,,,,,,,63,79.5198,0.0276885
,,,,,,,,,75,80.8773,0.0257856
,,,,,,,,,88,71.4708,0.0216854
,,,,,,,,,102,146.589,0.0264301
,,,,,,,,,117,110.612,0.0115349
,,,,,,,,,133,142.264,0.0281208
,,,,,,,,,150,165.674,0.0193134
,,,,,,,,,32,52.0783,0.0348365
,,,,,,,,,41,25.9653,0.0198749
,,,,,,,,,51,53.5422,0.0372086
,,,,,,,,,62,76.5429,0.0359069
,,,,,,,,,74,92.1813,0.0374778
,,,,,,,,,87,68.6378,0.0340742
,,,,,,,,,101,114.503,0.0272626
,,,,,,,,,116,104.726,0.0352087
,,,,,,,,,132,146.116,0.0129433
,,,,,,,,,149,113.061,0.0382742
,,,,,,,,,167,146.466,0.0236162
,,,,,,,,,50,71.393,0.0268177
,,,,,,,,,61,51.791,0.0722035
,,,,,,,,,73,113.126,0.0674582
,,,,,,,,,86,40.4241,0.073224
,,,,,,,,,100,120.663,0.0612671
,,,,,,,,,115,98.7983,0.0422751
,,,,,,,,,131,100.101,0.0650353
,,,,,,,,,148,140.172,0.015568
,,,,,,,,,166,142.034,0.0763272
,,,,,,,,,185,118.352,0.0341087
,,,,,,,,,72,47.3809,0.0282017
,,,,,,,,,85,79.3011,0.0274476
,,,,,,,,,99,111.069,0.028356
,,,,,,,,,114,53.9291,0.0263636
,,,,,,,,,130,134.567,0.0220928
,,,,,,,,,147,84.8024,0.0270377
,,,,,,,,,165,142.693,0.0116491
,,,,,,,,,184,87.2419,0.0288096
,,,,,,,,,204,125.865,0.0196359
,,,,,,,,,98,126.379,0.0769586
,,,,,,,,,113,76.9238,0.0845543
,,,,,,,,,129,96.5673,0.0690037
,,,,,,,,,146,150.359,0.0458199
,,,,,,,,,164,56.3508,0.0738211
,,,,,,,,,183,158.645,0.0160246
,,,,,,,,,203,90.5974,0.0887195
,,,,,,,,,224,94.2577,0.0363794
,,,,,,,,,128,128.157,0.0781191
,,,,,,,,,145,41.679,0.064657
,,,,,,,,,163,63.7236,0.0438619
,,,,,,,,,182,135.7,0.0688681
,,,,,,,,,202,69.9293,0.0157782
,,,,,,,,,223,92.2922,0.0816611
,,,,,,,,,245,127.54,0.0351342
,,,,,,,,,162,159.234,0.0699352
,,,,,,,,,181,76.6725,0.0462288
,,,,,,,,,201,96.142,0.0748882
,,,,,,,,,222,104.489,0.0160743
,,,,,,,,,244,137.172,0.0902653
,,,,,,,,,267,88.4966,0.0366367
,,,,,,,,,200,103.421,0.0411577
,,,,,,,,,221,96.4349,0.0624278
,,,,,,,,,243,88.7834,0.0154139
,,,,,,,,,266,61.5194,0.0727606
,,,,,,,,,290,111.821,0.0333775
,,,,,,,,,242,140.225,0.0428246
,,,,,,,,,265,44.8499,0.0138487
,,,,,,,,,289,118.108,0.0474467
,,,,,,,,,314,98.2731,0.0268148
,,,,,,,,,288,102.579,0.0156419
,,,,,,,,,313,45.553,0.0781372
,,,,,,,,,339,42.0229,0.0344654
,,,,,,,,,338,73.7843,0.016219
,,,,,,,,,365,64.6672,0.0128415
,,,,,,,,,392,51.2493,0.0373974
