Q	U	V
{$V$}	{[mm$^3$]}	0.00353622
{$d_v$}	{[mm]}	0.189023
{$S_c$}	{[mm$^2$]}	0.200602
{$S_o$}	{[mm$^2$]}	0.107659
{$S_l/S_o$}	[]	0.863309
{$\Psi$}	[]	0.559554
{$\eta$}	[]	0.596215
{med($\theta_e$)}	{[$^\circ$]}	93.0307
{$\Upsilon$}	[]	10
{$\Xi$}	[]	6
