facetNormals:0,facetNormals:1,facetNormals:2,FacetCenters:0,FacetCenters:1,FacetCenters:2,FacetIds,relFacetSize,absFacetSize,cellPairingIds,interplanarAngles,angleWeights
-0.0643817,-0.109534,-0.966023,7.18866,6.12571,6.31601,1,0.0465508,0.00766687,8,30.9199,0.0258584
-0.472473,0.189772,-0.839839,7.2039,6.19981,6.29194,2,0.0179011,0.00294829,13,35.7056,0.0553497
0.0397166,-0.641696,-0.721195,7.16076,6.02871,6.30579,3,0.0682501,0.0112407,19,43.4346,0.0309208
0.626955,-0.0936403,-0.750915,7.22344,6.08748,6.29168,4,0.0231484,0.00381251,26,56.6245,0.0282172
-0.257637,0.722299,-0.607609,7.2065,6.26926,6.31566,5,0.0202442,0.00333419,34,65.333,0.042002
0.418739,0.689707,-0.507305,7.21242,6.248,6.30444,6,0.038263,0.00630187,43,66.9553,0.0227174
-0.0514279,-0.938316,-0.276984,7.15577,6.05353,6.29124,7,0.0150248,0.00247457,53,82.555,0.0529268
0.930987,-0.132836,-0.171925,7.24257,6.07516,6.31926,8,0.0613267,0.0101004,64,96.1987,0.0321536
-0.496111,-0.809566,0.231286,7.08172,6.03522,6.35324,9,0.0245582,0.00404471,76,136.449,0.069465
0.6588,-0.14667,0.665714,7.22815,6.1459,6.34612,10,0.136806,0.0225319,89,143.176,0.0503093
0.245815,0.622123,0.687588,7.15629,6.19033,6.37049,11,0.0547279,0.00901362,103,140.342,0.0631512
-0.360809,-0.377295,0.824765,7.11742,6.04739,6.3802,12,0.0981534,0.0161657,118,178.644,0.0685033
0.056758,0.131673,0.968046,7.15146,6.19292,6.37882,13,0.129638,0.0213512,18,60.6464,0.0283629
,,,,,,,,,25,70.8469,0.0201893
,,,,,,,,,33,36.8345,0.0190007
,,,,,,,,,42,67.4415,0.024391
,,,,,,,,,52,85.2991,0.0163373
,,,,,,,,,63,109.971,0.0277129
,,,,,,,,,75,96.7901,0.0207078
,,,,,,,,,88,164.731,0.0316595
,,,,,,,,,102,127.654,0.0269779
,,,,,,,,,117,128.273,0.0302798
,,,,,,,,,133,147.973,0.0314582
,,,,,,,,,32,48.7079,0.0345712
,,,,,,,,,41,92.1537,0.0312261
,,,,,,,,,51,93.7412,0.0490354
,,,,,,,,,62,32.3281,0.024628
,,,,,,,,,74,74.5405,0.0646034
,,,,,,,,,87,69.349,0.0361196
,,,,,,,,,101,113.132,0.091068
,,,,,,,,,116,162.79,0.0607456
,,,,,,,,,132,112.904,0.0805149
,,,,,,,,,149,145.627,0.0894223
,,,,,,,,,50,76.3379,0.0215991
,,,,,,,,,61,51.8251,0.0288457
,,,,,,,,,73,74.1088,0.0182222
,,,,,,,,,86,39.4705,0.0336102
,,,,,,,,,100,115.201,0.0238325
,,,,,,,,,115,94.5018,0.0395968
,,,,,,,,,131,116.488,0.0325352
,,,,,,,,,148,147.635,0.0374618
,,,,,,,,,166,137.029,0.0392824
,,,,,,,,,72,41.4889,0.0264789
,,,,,,,,,85,121.175,0.0172483
,,,,,,,,,99,104.319,0.03044
,,,,,,,,,114,128.672,0.0221935
,,,,,,,,,130,137.164,0.0352693
,,,,,,,,,147,91.939,0.0295555
,,,,,,,,,165,135.459,0.0335654
,,,,,,,,,184,122.023,0.0350197
,,,,,,,,,98,124.448,0.021577
,,,,,,,,,113,64.9745,0.0471242
,,,,,,,,,129,161.53,0.0299157
,,,,,,,,,146,100.394,0.0598006
,,,,,,,,,164,78.4414,0.0450378
,,,,,,,,,183,153.108,0.0550615
,,,,,,,,,203,113.808,0.0590865
,,,,,,,,,128,82.3683,0.0241364
,,,,,,,,,145,41.1351,0.0186435
,,,,,,,,,163,94.9817,0.0270761
,,,,,,,,,182,146.849,0.0235769
,,,,,,,,,202,81.3313,0.0260605
,,,,,,,,,223,114.305,0.0269287
,,,,,,,,,162,114.95,0.0350719
,,,,,,,,,181,55.1128,0.0846893
,,,,,,,,,201,88.2506,0.0578397
,,,,,,,,,222,117.272,0.0754881
,,,,,,,,,244,98.0543,0.0832642
,,,,,,,,,200,93.3495,0.0416413
,,,,,,,,,221,119.848,0.033903
,,,,,,,,,243,44.9406,0.0392868
,,,,,,,,,266,84.6518,0.0412938
,,,,,,,,,242,54.4739,0.0781805
,,,,,,,,,265,66.6542,0.114301
,,,,,,,,,289,44.4273,0.133126
,,,,,,,,,288,74.9155,0.0702732
,,,,,,,,,313,35.7912,0.0769645
,,,,,,,,,338,40.3244,0.11172
