facetNormals:0,facetNormals:1,facetNormals:2,FacetCenters:0,FacetCenters:1,FacetCenters:2,FacetIds,relFacetSize,absFacetSize,cellPairingIds,interplanarAngles,angleWeights
0.173383,-0.474607,-0.832269,4.10554,4.85306,4.39427,1,0.0351986,0.00817375,8,53.7528,0.05135
0.190295,0.384801,-0.820048,4.1132,4.94375,4.39475,2,0.094893,0.0220358,13,33.6815,0.0480743
-0.380292,-0.492503,-0.738347,4.03828,4.84223,4.4049,3,0.075803,0.0176028,19,84.5716,0.0221071
-0.710503,0.441587,-0.508159,4.05559,4.89378,4.41494,4,0.0161138,0.00374191,26,43.4961,0.05378
0.755827,-0.21512,-0.51917,4.18167,4.89405,4.43026,5,0.113917,0.0264534,34,97.1597,0.0274829
-0.326745,0.834492,-0.400802,4.11169,4.96672,4.458,6,0.0225417,0.00523458,43,58.1177,0.0366933
0.339679,-0.909854,-0.0105181,4.09345,4.77132,4.50073,7,0.0383206,0.00889873,53,94.7664,0.0413816
-0.786799,-0.516832,0.2249,4.02099,4.82233,4.49769,8,0.0501996,0.0116572,64,123.372,0.0265427
0.551013,0.747007,0.3208,4.18979,4.98729,4.50957,9,0.0213037,0.0049471,76,127.124,0.039255
-0.859363,0.0789216,0.469676,4.02263,4.87048,4.53492,10,0.044368,0.010303,89,145.776,0.0560808
-0.40376,0.771839,0.404912,4.08555,4.94704,4.51507,11,0.137881,0.0320183,18,67.3908,0.0842805
,,,,,,,,,25,60.1139,0.0275494
,,,,,,,,,33,56.0559,0.103538
,,,,,,,,,42,49.7103,0.0364296
,,,,,,,,,52,107.936,0.0545944
,,,,,,,,,63,126.512,0.0656628
,,,,,,,,,75,81.8271,0.0347957
,,,,,,,,,88,124.746,0.0604651
,,,,,,,,,102,97.2286,0.112417
,,,,,,,,,32,63.0785,0.0265778
,,,,,,,,,41,77.177,0.0910313
,,,,,,,,,51,89.444,0.0347498
,,,,,,,,,62,69.6131,0.0509065
,,,,,,,,,74,65.4897,0.0604
,,,,,,,,,87,149.171,0.03326
,,,,,,,,,101,93.5562,0.055974
,,,,,,,,,116,124.515,0.0978246
,,,,,,,,,50,113.54,0.0282338
,,,,,,,,,61,33.1702,0.0187933
,,,,,,,,,73,132.135,0.0226875
,,,,,,,,,86,76.7884,0.0243965
,,,,,,,,,100,103.515,0.0183488
,,,,,,,,,115,64.9778,0.0236414
,,,,,,,,,131,63.3346,0.0288553
,,,,,,,,,72,103.662,0.037636
,,,,,,,,,85,59.961,0.0573494
,,,,,,,,,99,131.185,0.0696893
,,,,,,,,,114,84.4647,0.0358947
,,,,,,,,,130,169.658,0.0638629
,,,,,,,,,147,138.867,0.124758
,,,,,,,,,98,155.268,0.0283858
,,,,,,,,,113,106.154,0.0311126
,,,,,,,,,129,70.9464,0.0219052
,,,,,,,,,146,80.5478,0.0298949
,,,,,,,,,164,49.3971,0.0387485
,,,,,,,,,128,77.6774,0.0434631
,,,,,,,,,145,121.322,0.0273838
,,,,,,,,,163,112.726,0.0411232
,,,,,,,,,182,154.728,0.0599732
,,,,,,,,,162,141.846,0.029913
,,,,,,,,,181,38.8106,0.047104
,,,,,,,,,201,89.3941,0.0736021
,,,,,,,,,200,105.872,0.0287857
,,,,,,,,,221,59.1344,0.0369052
,,,,,,,,,242,50.6767,0.0671335
