Q	U	V
{$V$}	{[mm$^3$]}	0.00815063
{$d_v$}	{[mm]}	0.249688
{$S_c$}	{[mm$^2$]}	0.375867
{$S_o$}	{[mm$^2$]}	0.242017
{$S_l/S_o$}	[]	0.553060
{$\Psi$}	[]	0.521088
{$\eta$}	[]	0.560371
{med($\theta_e$)}	{[$^\circ$]}	72.6268
{$\Upsilon$}	[]	18
{$\Xi$}	[]	7
