Q	U	V
{$V$}	{[mm$^3$]}	0.0023274
{$d_v$}	{[mm]}	0.164421
{$S_c$}	{[mm$^2$]}	0.147004
{$S_o$}	{[mm$^2$]}	0.0781368
{$S_l/S_o$}	[]	0.881367
{$\Psi$}	[]	0.577744
{$\eta$}	[]	0.674804
{med($\theta_e$)}	{[$^\circ$]}	53.83175
{$\Upsilon$}	[]	14
{$\Xi$}	[]	9
