facetNormals:0,facetNormals:1,facetNormals:2,FacetCenters:0,FacetCenters:1,FacetCenters:2,FacetIds,relFacetSize,absFacetSize,cellPairingIds,interplanarAngles,angleWeights
-0.197717,0.618549,-0.698775,6.5898,6.76636,4.05956,1,0.0791482,0.0209073,8,88.0224,0.0473329
0.0059695,-0.693923,-0.661095,6.57191,6.65893,4.07868,2,0.0337617,0.00891826,13,82.9478,0.0450645
0.579124,-0.390802,-0.672303,6.6464,6.69113,4.07141,3,0.0314997,0.00832076,19,35.4329,0.041249
0.3876,0.574057,-0.685461,6.66455,6.72069,4.03798,4,0.0278928,0.00736799,26,65.0909,0.0738341
-0.79463,-0.173209,-0.467995,6.52296,6.67844,4.09098,5,0.0691886,0.0182764,34,99.3337,0.0238739
-0.594204,-0.744371,-0.271503,6.55164,6.60124,4.15601,6,0.014057,0.0037132,43,92.217,0.036058
0.965536,0.052726,-0.174632,6.72084,6.70125,4.16397,7,0.0233472,0.00616725,53,54.6836,0.0612334
0.050045,0.965847,0.0752435,6.65661,6.72938,4.09894,8,0.0499316,0.0131896,64,61.9077,0.0735969
0.618451,0.714522,-0.158465,6.69701,6.74666,4.10081,9,0.0687734,0.0181667,76,94.4162,0.0426185
-0.926964,-0.274507,0.121717,6.5253,6.64742,4.15986,10,0.0291601,0.00770275,89,122.174,0.0433164
0.895156,-0.316587,0.167319,6.70756,6.67283,4.20334,11,0.0298175,0.00787639,103,126.418,0.0452843
-0.60741,-0.646629,0.382452,6.54236,6.6204,4.17807,12,0.031715,0.00837761,118,74.3826,0.0456824
-0.717706,0.561653,0.342446,6.54813,6.72254,4.16629,13,0.0321068,0.00848113,134,162.215,0.0421575
0.333847,-0.751489,0.474345,6.64644,6.60346,4.222,14,0.0287302,0.00758918,151,130.298,0.0687382
-0.508198,-0.248934,0.760148,6.56896,6.64055,4.22925,15,0.0607483,0.0160469,169,131.154,0.0465485
0.513639,0.104703,0.826955,6.6742,6.73177,4.21755,16,0.0329691,0.00870891,188,102.713,0.0989077
-0.183129,0.474212,0.741722,6.60246,6.73668,4.20522,17,0.131816,0.0348196,18,39.3025,0.0325915
,,,,,,,,,25,86.494,0.0305479
,,,,,,,,,33,61.8102,0.0453796
,,,,,,,,,42,43.1545,0.0198495
,,,,,,,,,52,84.8447,0.0276048
,,,,,,,,,63,140.718,0.0402846
,,,,,,,,,75,114.948,0.04529
,,,,,,,,,88,83.5761,0.0312926
,,,,,,,,,102,82.8873,0.0316672
,,,,,,,,,117,78.017,0.0327063
,,,,,,,,,133,131.674,0.0329135
,,,,,,,,,150,76.6632,0.0310434
,,,,,,,,,168,111.496,0.0434021
,,,,,,,,,187,131.051,0.0333607
,,,,,,,,,207,162.185,0.0537551
,,,,,,,,,32,60.7995,0.0295868
,,,,,,,,,41,94.9097,0.0432905
,,,,,,,,,51,82.2607,0.0194391
,,,,,,,,,62,46.4879,0.0268176
,,,,,,,,,74,115.105,0.0386297
,,,,,,,,,87,78.4851,0.0432089
,,,,,,,,,101,122.771,0.0302848
,,,,,,,,,116,55.4878,0.0306355
,,,,,,,,,132,112.349,0.031607
,,,,,,,,,149,156.454,0.0318004
,,,,,,,,,167,79.4759,0.0300513
,,,,,,,,,186,140.41,0.0414872
,,,,,,,,,206,108.385,0.0322177
,,,,,,,,,227,154.98,0.0508484
,,,,,,,,,50,95.4369,0.0397577
,,,,,,,,,61,119.246,0.0186932
,,,,,,,,,73,56.8076,0.0254184
,,,,,,,,,86,56.4625,0.0357917
,,,,,,,,,100,35.6762,0.0396888
,,,,,,,,,115,129.214,0.0285124
,,,,,,,,,131,86.9168,0.0288231
,,,,,,,,,148,157.342,0.0296814
,,,,,,,,,166,101.583,0.0298518
,,,,,,,,,185,132.682,0.0283053
,,,,,,,,,205,158.79,0.0382315
,,,,,,,,,226,108.811,0.0302193
,,,,,,,,,248,110.521,0.0460428
,,,,,,,,,72,38.413,0.0233666
,,,,,,,,,85,138.886,0.0349132
,,,,,,,,,99,105.436,0.0580035
,,,,,,,,,114,126.996,0.0689804
,,,,,,,,,130,37.3123,0.0410285
,,,,,,,,,147,144.314,0.0416748
,,,,,,,,,165,62.7065,0.0434933
,,,,,,,,,184,69.9785,0.0438603
,,,,,,,,,204,113.635,0.040601
,,,,,,,,,225,84.1132,0.0646943
,,,,,,,,,247,152.283,0.0446582
,,,,,,,,,270,109.651,0.0907458
,,,,,,,,,98,125.531,0.0175484
,,,,,,,,,113,143.182,0.0219379
,,,,,,,,,129,154.47,0.0233428
,,,,,,,,,146,41.5599,0.0189695
,,,,,,,,,164,110.967,0.0191065
,,,,,,,,,183,39.4891,0.0194799
,,,,,,,,,203,95.033,0.0195532
,,,,,,,,,224,75.6999,0.0188776
,,,,,,,,,246,72.5857,0.0228309
,,,,,,,,,269,128.804,0.0197102
,,,,,,,,,293,120.02,0.0254048
,,,,,,,,,128,84.8172,0.0318172
,,,,,,,,,145,45.2819,0.0348601
,,,,,,,,,163,166.436,0.0259319
,,,,,,,,,182,30.2464,0.0261886
,,,,,,,,,202,136.391,0.0268953
,,,,,,,,,223,139.107,0.0270352
,,,,,,,,,245,77.6267,0.0257605
,,,,,,,,,268,133.125,0.0337308
,,,,,,,,,292,68.2155,0.0273362
,,,,,,,,,317,108.567,0.0396684
,,,,,,,,,162,40.2773,0.0578571
,,,,,,,,,181,108.656,0.0368183
,,,,,,,,,201,105.401,0.037338
,,,,,,,,,222,131.924,0.0387911
,,,,,,,,,244,55.6916,0.0390828
,,,,,,,,,267,136.993,0.0364737
,,,,,,,,,291,103.12,0.0548114
,,,,,,,,,316,78.5187,0.039715
,,,,,,,,,342,54.6513,0.0724277
,,,,,,,,,200,147.646,0.0409551
,,,,,,,,,221,70.9919,0.0415992
,,,,,,,,,243,166.02,0.0434109
,,,,,,,,,266,95.9573,0.0437766
,,,,,,,,,290,116.485,0.0405292
,,,,,,,,,315,132.428,0.0645122
,,,,,,,,,341,73.8198,0.0445713
,,,,,,,,,368,82.7964,0.0903879
,,,,,,,,,242,140.273,0.0294851
,,,,,,,,,265,33.2655,0.0303839
,,,,,,,,,289,54.3574,0.0305626
,,,,,,,,,314,92.8157,0.0289436
,,,,,,,,,340,46.814,0.0394052
,,,,,,,,,367,115.068,0.0309479
,,,,,,,,,395,81.4766,0.0477558
,,,,,,,,,288,107.173,0.030737
,,,,,,,,,313,144.376,0.0309198
,,,,,,,,,339,47.6874,0.0292637
,,,,,,,,,366,105.81,0.040001
,,,,,,,,,394,53.2347,0.0313142
,,,,,,,,,423,102.657,0.0486337
,,,,,,,,,338,77.4903,0.0319097
,,,,,,,,,365,59.566,0.0301489
,,,,,,,,,393,33.8473,0.0416734
,,,,,,,,,422,93.8445,0.0323299
,,,,,,,,,452,84.1682,0.0511284
,,,,,,,,,392,122.696,0.0303248
,,,,,,,,,421,58.2687,0.0420103
,,,,,,,,,451,91.6019,0.0325323
,,,,,,,,,482,41.8821,0.0516364
,,,,,,,,,450,65.1555,0.0390107
,,,,,,,,,481,58.5429,0.030704
,,,,,,,,,513,94.4122,0.0471777
,,,,,,,,,512,68.4035,0.0427416
,,,,,,,,,545,50.7773,0.083168
,,,,,,,,,578,49.7411,0.0527457
