facetNormals:0,facetNormals:1,facetNormals:2,FacetCenters:0,FacetCenters:1,FacetCenters:2,FacetIds,relFacetSize,absFacetSize,cellPairingIds,interplanarAngles,angleWeights
0.132601,0.458208,-0.830338,5.81719,3.40235,4.10763,1,0.0866147,0.0140091,8,48.9175,0.0532246
0.664814,0.640072,-0.269162,5.84857,3.39222,4.16817,2,0.0384154,0.00621333,13,101.324,0.110227
-0.920894,-0.287885,-0.0865567,5.7562,3.25161,4.19917,3,0.15154,0.0245102,19,103.448,0.123746
-0.838553,0.374663,0.33506,5.77152,3.37534,4.23921,4,0.216603,0.0350336,26,134.576,0.0354728
0.578001,-0.439427,0.625557,5.83178,3.34048,4.28489,5,0.0223036,0.00360741,34,130.313,0.0563609
0.227592,0.263792,0.906546,5.83103,3.31506,4.35477,6,0.0417707,0.00675603,18,146.128,0.061293
,,,,,,,,,25,115.72,0.0652571
,,,,,,,,,33,94.0692,0.0282219
,,,,,,,,,42,85.3218,0.0400228
,,,,,,,,,32,47.8662,0.178322
,,,,,,,,,41,119.695,0.0388843
,,,,,,,,,51,112.762,0.0654898
,,,,,,,,,50,117.989,0.0404428
,,,,,,,,,61,77.1149,0.0700355
,,,,,,,,,72,51.2395,0.0290799
