facetNormals:0,facetNormals:1,facetNormals:2,FacetCenters:0,FacetCenters:1,FacetCenters:2,FacetIds,relFacetSize,absFacetSize,cellPairingIds,interplanarAngles,angleWeights
0.464013,-0.265836,-0.804004,5.10387,6.12295,6.62714,1,0.0154961,0.00427434,8,43.2687,0.0259073
0.237111,0.409715,-0.847689,5.27126,6.20077,6.46765,2,0.0789524,0.0217778,13,76.7177,0.0185104
-0.54542,0.380554,-0.708793,5.21406,6.11952,6.58998,3,0.0229807,0.00633886,19,89.5767,0.0150459
-0.832141,0.0850609,-0.517103,5.1681,6.15003,6.50704,4,0.0146212,0.00403303,26,78.9523,0.0234084
0.488287,0.795475,-0.200945,5.31416,6.26862,6.55426,5,0.0478308,0.0131934,34,91.0555,0.0216852
-0.00826174,0.931128,-0.291052,5.2388,6.27325,6.53524,6,0.0361061,0.00995928,43,92.8274,0.0238328
-0.694032,-0.646773,-0.129969,5.08204,5.97619,6.56625,7,0.0515848,0.0142288,53,52.6218,0.0163315
0.724387,-0.66877,-0.082114,5.34011,6.1598,6.56869,8,0.0172622,0.00476151,64,69.4117,0.0201845
0.265729,-0.916445,0.0527712,5.17167,6.00828,6.5865,9,0.0289407,0.00798282,76,60.093,0.0213676
0.942968,-0.219308,0.0365816,5.33949,6.17052,6.5801,10,0.034403,0.00948953,89,100.505,0.0174089
-0.172277,-0.874713,0.404133,5.19271,6.10918,6.55545,11,0.0198604,0.00547819,103,151.253,0.0264358
-0.576914,0.609066,0.487192,5.16302,6.20517,6.62564,12,0.0899077,0.0247996,118,154.211,0.0187756
-0.756558,-0.0023178,0.626059,5.07783,6.05078,6.63846,13,0.0238161,0.00656928,134,104.222,0.0257945
0.626605,-0.202072,0.715301,5.29083,6.12164,6.65891,14,0.0769028,0.0212124,151,146.172,0.018303
-0.0457028,0.648932,0.748308,5.25784,6.21438,6.63624,15,0.0223519,0.00616542,169,116.614,0.0252894
0.270685,-0.44151,0.827325,5.18638,6.02137,6.66465,16,0.0687187,0.018955,188,176.784,0.0209972
-0.494509,0.220495,0.829481,5.1131,6.08164,6.66216,17,0.0325538,0.00897946,208,155.887,0.0256324
-0.0776601,0.307194,0.912856,5.21103,6.17098,6.64542,18,0.0741096,0.020442,18,48.3271,0.0355994
,,,,,,,,,25,73.2053,0.0246732
,,,,,,,,,33,48.682,0.0595719
,,,,,,,,,42,48.6114,0.0495515
,,,,,,,,,52,110.093,0.0623997
,,,,,,,,,63,91.9472,0.0283303
,,,,,,,,,75,112.643,0.0423555
,,,,,,,,,88,83.7304,0.0479236
,,,,,,,,,102,141.311,0.0317374
,,,,,,,,,117,108.588,0.0840746
,,,,,,,,,133,138.225,0.0365936
,,,,,,,,,150,124.939,0.0779141
,,,,,,,,,168,113.203,0.0348403
,,,,,,,,,187,149.679,0.0734809
,,,,,,,,,207,139.385,0.0460997
,,,,,,,,,228,135.258,0.0764544
,,,,,,,,,32,26.8532,0.0178717
,,,,,,,,,41,78.8893,0.0310454
,,,,,,,,,51,53.4159,0.0280856
,,,,,,,,,62,76.0397,0.0317963
,,,,,,,,,74,127.955,0.0197152
,,,,,,,,,87,124.874,0.0256186
,,,,,,,,,101,131.479,0.027555
,,,,,,,,,116,123.518,0.0213069
,,,,,,,,,132,77.6842,0.036605
,,,,,,,,,149,91.9205,0.0233909
,,,,,,,,,167,168.417,0.0353868
,,,,,,,,,186,105.56,0.022662
,,,,,,,,,206,161.964,0.034443
,,,,,,,,,227,104.085,0.0269422
,,,,,,,,,249,121.289,0.0350826
,,,,,,,,,50,104.479,0.0223962
,,,,,,,,,61,75.7241,0.0208138
,,,,,,,,,73,51.2249,0.0227844
,,,,,,,,,86,129.377,0.0158323
,,,,,,,,,100,110.321,0.0194274
,,,,,,,,,115,149.659,0.020521
,,,,,,,,,131,98.3642,0.0168428
,,,,,,,,,148,72.9358,0.0251521
,,,,,,,,,166,71.5497,0.0181188
,,,,,,,,,185,161.854,0.0245709
,,,,,,,,,205,107.531,0.0176784
,,,,,,,,,226,136.013,0.0241121
,,,,,,,,,248,89.9218,0.0201792
,,,,,,,,,271,113.656,0.0244238
,,,,,,,,,72,31.3896,0.0411495
,,,,,,,,,85,154.806,0.0496369
,,,,,,,,,99,99.862,0.0253688
,,,,,,,,,114,131.943,0.0360617
,,,,,,,,,130,72.4688,0.0400206
,,,,,,,,,147,157.137,0.0280669
,,,,,,,,,165,83.4973,0.0624424
,,,,,,,,,184,122.016,0.0317988
,,,,,,,,,204,89.9085,0.0589789
,,,,,,,,,225,68.7237,0.0304665
,,,,,,,,,247,114.421,0.056403
,,,,,,,,,270,104.247,0.0387407
,,,,,,,,,294,88.5708,0.0581386
,,,,,,,,,98,126.729,0.0424793
,,,,,,,,,113,128.802,0.0233574
,,,,,,,,,129,159.083,0.0321287
,,,,,,,,,146,103.624,0.035234
,,,,,,,,,164,167.053,0.0256254
,,,,,,,,,183,62.9723,0.0515215
,,,,,,,,,203,100.715,0.0287007
,,,,,,,,,224,115.046,0.0491405
,,,,,,,,,246,66.4294,0.0276109
,,,,,,,,,269,133.389,0.0473392
,,,,,,,,,293,91.8993,0.0342381
,,,,,,,,,318,88.7242,0.0485558
,,,,,,,,,128,93.6031,0.025868
,,,,,,,,,145,63.9787,0.0370789
,,,,,,,,,163,123.896,0.0412773
,,,,,,,,,182,47.5361,0.0286792
,,,,,,,,,202,93.5087,0.0655564
,,,,,,,,,223,61.7405,0.0325871
,,,,,,,,,245,115.254,0.0617494
,,,,,,,,,268,120.736,0.0311894
,,,,,,,,,292,90.6029,0.0589316
,,,,,,,,,317,84.386,0.0399171
,,,,,,,,,343,106.541,0.060829
,,,,,,,,,162,32.0829,0.0216255
,,,,,,,,,181,30.3947,0.0229893
,,,,,,,,,201,63.8357,0.0184704
,,,,,,,,,222,154.359,0.0289635
,,,,,,,,,244,127.983,0.0200163
,,,,,,,,,267,56.5381,0.0281955
,,,,,,,,,291,122.602,0.0194801
,,,,,,,,,316,63.9922,0.027593
,,,,,,,,,342,125.84,0.0225611
,,,,,,,,,369,110.62,0.028002
,,,,,,,,,200,60.6724,0.0314363
,,,,,,,,,221,33.8167,0.0235558
,,,,,,,,,243,137.705,0.0437867
,,,,,,,,,266,100.181,0.0261295
,,,,,,,,,290,65.2172,0.0420549
,,,,,,,,,315,126.781,0.0252231
,,,,,,,,,341,56.1026,0.0407286
,,,,,,,,,368,107.821,0.0306411
,,,,,,,,,396,105.965,0.0416259
,,,,,,,,,242,87.3308,0.025183
,,,,,,,,,265,134.585,0.049764
,,,,,,,,,289,136.49,0.0281469
,,,,,,,,,314,45.3986,0.0475391
,,,,,,,,,340,99.469,0.027098
,,,,,,,,,367,66.1511,0.0458513
,,,,,,,,,395,120.309,0.0334529
,,,,,,,,,424,96.5758,0.0469917
,,,,,,,,,288,104.42,0.0325342
,,,,,,,,,313,66.3642,0.0216591
,,,,,,,,,339,67.9086,0.0315683
,,,,,,,,,366,105.376,0.0210327
,,,,,,,,,394,45.14,0.030815
,,,,,,,,,423,76.4272,0.0246701
,,,,,,,,,453,83.1025,0.0313259
,,,,,,,,,338,39.0283,0.037657
,,,,,,,,,365,98.2961,0.0828983
,,,,,,,,,393,35.185,0.0358029
,,,,,,,,,422,91.3316,0.077898
,,,,,,,,,452,31.0005,0.0478002
,,,,,,,,,483,43.7957,0.0812478
,,,,,,,,,392,91.5471,0.036369
,,,,,,,,,421,58.9957,0.0230608
,,,,,,,,,451,70.8648,0.0353728
,,,,,,,,,482,23.3717,0.0275077
,,,,,,,,,514,48.4366,0.0360477
,,,,,,,,,450,67.0743,0.0346367
,,,,,,,,,481,26.3067,0.0725808
,,,,,,,,,513,75.6353,0.0457438
,,,,,,,,,546,54.7454,0.0754804
,,,,,,,,,512,70.6786,0.033732
,,,,,,,,,545,36.8067,0.0265051
,,,,,,,,,579,22.3731,0.0343451
,,,,,,,,,578,61.923,0.044179
,,,,,,,,,613,50.6048,0.0713124
,,,,,,,,,648,25.5805,0.0452367
