Q	U	V
{$V$}	{[mm$^3$]}	0.0052402
{$d_v$}	{[mm]}	0.215501
{$S_c$}	{[mm$^2$]}	0.254835
{$S_o$}	{[mm$^2$]}	0.151085
{$S_l/S_o$}	[]	0.686700
{$\Psi$}	[]	0.57252
{$\eta$}	[]	0.625000
{med($\theta_e$)}	{[$^\circ$]}	49.2033
{$\Upsilon$}	[]	17
{$\Xi$}	[]	9
