facetNormals:0,facetNormals:1,facetNormals:2,FacetCenters:0,FacetCenters:1,FacetCenters:2,FacetIds,relFacetSize,absFacetSize,cellPairingIds,interplanarAngles,angleWeights
0.480478,-0.0862242,-0.758504,4.75985,3.44277,5.67394,1,0.0587634,0.00752564,8,100.803,0.0877178
-0.611453,0.677657,-0.253226,4.64472,3.46707,5.68932,2,0.172921,0.0221455,13,129.03,0.0377911
-0.681912,0.674239,0.229867,4.66714,3.48339,5.76941,3,0.0278512,0.00356681,19,84.0419,0.0924916
0.840763,0.259306,0.384578,4.76775,3.43138,5.7702,4,0.2171,0.0278034,26,152.343,0.0820477
-0.640212,0.461387,0.563232,4.64424,3.42736,5.809,5,0.135894,0.0174036,34,113.506,0.0611861
0.554443,0.116913,0.804757,4.73613,3.36817,5.85237,6,0.0638171,0.00817286,43,152.253,0.0448948
-0.235657,-0.267629,0.899534,4.678,3.32949,5.86354,7,0.0363224,0.0046517,18,29.1649,0.0479753
,,,,,,,,,25,118.626,0.192509
,,,,,,,,,33,52.3078,0.152188
,,,,,,,,,42,119.818,0.0932281
,,,,,,,,,52,106.809,0.0600345
,,,,,,,,,32,109.116,0.0493689
,,,,,,,,,41,23.448,0.046228
,,,,,,,,,51,96.7612,0.0387785
,,,,,,,,,62,78.6969,0.0315277
,,,,,,,,,50,102.533,0.167157
,,,,,,,,,61,31.4823,0.0986391
,,,,,,,,,73,85.1589,0.0622328
,,,,,,,,,72,80.8193,0.0868492
,,,,,,,,,85,55.3024,0.0573233
,,,,,,,,,98,53.8388,0.0462952
