facetNormals:0,facetNormals:1,facetNormals:2,FacetCenters:0,FacetCenters:1,FacetCenters:2,FacetIds,relFacetSize,absFacetSize,cellPairingIds,interplanarAngles,angleWeights
-0.631152,-0.185082,-0.694283,5.85212,3.51886,3.76782,1,0.162417,0.0503978,8,57.6595,0.106826
0.0741083,-0.745729,-0.556335,5.91905,3.50654,3.76489,2,0.0795863,0.0246955,13,43.6609,0.0339722
-0.576585,0.52796,-0.596592,5.88256,3.59478,3.76487,3,0.0189701,0.00588639,19,71.5397,0.050608
-0.266525,0.841087,-0.405458,5.8936,3.59329,3.80561,4,0.0299738,0.00930082,26,129.574,0.0551772
0.738753,0.63186,0.0131539,5.89321,3.59543,3.85369,5,0.0332338,0.0103124,34,107.845,0.0872558
0.237404,0.911097,-0.0604346,5.89694,3.61006,3.84281,6,0.0596512,0.0185097,43,56.7193,0.0655433
-0.90069,-0.31209,0.170079,5.78981,3.49318,3.91107,7,0.0410556,0.0127395,53,118.411,0.0673648
0.717131,-0.621815,0.142944,5.91398,3.50508,3.82523,8,0.0424951,0.0131862,64,128.881,0.0615921
0.937812,-0.0250153,-0.0341562,5.95502,3.54368,3.78262,9,0.0380015,0.0117918,76,84.9409,0.0308159
-0.313979,-0.838084,0.390247,5.85842,3.47583,3.88358,10,0.0170228,0.00528216,89,159.465,0.0787789
0.568198,0.497412,0.576078,5.90887,3.57882,3.88617,11,0.0520006,0.0161357,103,106.177,0.0564683
-0.264228,0.856313,0.386474,5.85851,3.60468,3.85934,12,0.034175,0.0106045,118,92.6384,0.0686068
-0.65214,0.483304,0.525311,5.82883,3.58242,3.8945,13,0.0434884,0.0134944,134,130.753,0.106016
0.234289,-0.487276,0.743794,5.85166,3.49933,3.91695,14,0.0786902,0.0244175,18,96.5399,0.0306374
,,,,,,,,,25,117.709,0.0435469
,,,,,,,,,33,117.841,0.046888
,,,,,,,,,42,135.514,0.0681917
,,,,,,,,,52,85.4708,0.054168
,,,,,,,,,63,60.781,0.0554061
,,,,,,,,,75,82.9752,0.0514407
,,,,,,,,,88,65.0353,0.0280467
,,,,,,,,,102,137.093,0.062902
,,,,,,,,,117,163.457,0.047817
,,,,,,,,,133,140.969,0.0562436
,,,,,,,,,150,92.2076,0.0791358
,,,,,,,,,32,28.445,0.023235
,,,,,,,,,41,96.0161,0.0241533
,,,,,,,,,51,65.8093,0.0287858
,,,,,,,,,62,74.5865,0.0259498
,,,,,,,,,74,151.182,0.0262306
,,,,,,,,,87,125.306,0.0253071
,,,,,,,,,101,120.982,0.0179438
,,,,,,,,,116,115.947,0.027799
,,,,,,,,,132,67.0729,0.0243975
,,,,,,,,,149,70.4751,0.0264168
,,,,,,,,,167,157.605,0.0305704
,,,,,,,,,50,69.5896,0.0315197
,,,,,,,,,61,37.4233,0.039899
,,,,,,,,,73,95.5785,0.0346502
,,,,,,,,,86,145.933,0.0351527
,,,,,,,,,100,106.385,0.0335136
,,,,,,,,,115,145.302,0.0217138
,,,,,,,,,131,87.9276,0.0380278
,,,,,,,,,148,48.0113,0.0319368
,,,,,,,,,166,66.9675,0.035488
,,,,,,,,,185,150.077,0.0434117
,,,,,,,,,72,35.1172,0.0426858
,,,,,,,,,85,156.055,0.0367329
,,,,,,,,,99,81.4486,0.0372981
,,,,,,,,,114,42.1584,0.0354581
,,,,,,,,,130,142.83,0.0225138
,,,,,,,,,147,36.5682,0.0405512
,,,,,,,,,165,68.2911,0.0336978
,,,,,,,,,184,100.387,0.0376758
,,,,,,,,,204,98.0392,0.0467312
,,,,,,,,,98,123.819,0.0486366
,,,,,,,,,113,116.56,0.0496324
,,,,,,,,,129,76.8222,0.0464265
,,,,,,,,,146,159.304,0.026487
,,,,,,,,,164,51.8723,0.0555638
,,,,,,,,,183,41.076,0.0434544
,,,,,,,,,203,73.8473,0.0503034
,,,,,,,,,224,119.963,0.0678606
,,,,,,,,,128,117.387,0.041763
,,,,,,,,,145,157.98,0.0394696
,,,,,,,,,163,49.7584,0.0240668
,,,,,,,,,182,128.223,0.0458845
,,,,,,,,,202,87.7881,0.0373007
,,,,,,,,,223,55.8247,0.042237
,,,,,,,,,245,85.6486,0.0539589
,,,,,,,,,162,40.6951,0.0401229
,,,,,,,,,181,67.9551,0.0243082
,,,,,,,,,201,78.5797,0.0467698
,,,,,,,,,222,135.374,0.0378836
,,,,,,,,,244,138.316,0.042986
,,,,,,,,,267,49.1492,0.0551874
,,,,,,,,,200,108.236,0.023513
,,,,,,,,,221,55.8339,0.0439123
,,,,,,,,,243,107.954,0.0359868
,,,,,,,,,266,134.983,0.0405602
,,,,,,,,,290,76.1595,0.0512521
,,,,,,,,,242,113.546,0.0256492
,,,,,,,,,265,120.519,0.0227258
,,,,,,,,,289,89.7141,0.024468
,,,,,,,,,314,45.8741,0.0279905
,,,,,,,,,288,57.471,0.0412442
,,,,,,,,,313,79.1747,0.0473651
,,,,,,,,,339,68.5612,0.0626202
,,,,,,,,,338,33.2415,0.0382733
,,,,,,,,,365,102.335,0.047654
,,,,,,,,,392,89.8433,0.0560182
