Q	U	V
{$V$}	{[mm$^3$]}	0.00422018
{$d_v$}	{[mm]}	0.200498
{$S_c$}	{[mm$^2$]}	0.249463
{$S_o$}	{[mm$^2$]}	0.126744
{$S_l/S_o$}	[]	0.968243
{$\Psi$}	[]	0.50625
{$\eta$}	[]	0.543932
{med($\theta_e$)}	{[$^\circ$]}	92.32
{$\Upsilon$}	[]	12
{$\Xi$}	[]	8
