Q	U	V
{$V$}	{[mm$^3$]}	0.00611535
{$d_v$}	{[mm]}	0.226886
{$S_c$}	{[mm$^2$]}	0.270881
{$S_o$}	{[mm$^2$]}	0.184049
{$S_l/S_o$}	[]	0.471787
{$\Psi$}	[]	0.597017
{$\eta$}	[]	0.653516
{med($\theta_e$)}	{[$^\circ$]}	69.9761
{$\Upsilon$}	[]	9
{$\Xi$}	[]	8
