facetNormals:0,facetNormals:1,facetNormals:2,FacetCenters:0,FacetCenters:1,FacetCenters:2,FacetIds,relFacetSize,absFacetSize,cellPairingIds,interplanarAngles,angleWeights
-0.143153,-0.25349,-0.931407,5.33365,4.53832,6.42866,1,0.158183,0.0219796,8,26.0999,0.102475
-0.409485,0.0949664,-0.883233,5.33572,4.61861,6.42256,2,0.0757851,0.0105304,13,62.0106,0.0541744
0.493434,0.480519,-0.683847,5.43517,4.67018,6.42706,3,0.032684,0.00454147,19,52.2814,0.0420969
-0.475115,0.501366,-0.688577,5.33466,4.66918,6.43469,4,0.0242791,0.0033736,26,87.3038,0.012231
0.682077,0.636,-0.326624,5.46895,4.70116,6.4709,5,0.00636145,0.000883928,34,58.3487,0.114316
0.0457202,-0.909619,-0.283965,5.37519,4.48471,6.47263,6,0.0894973,0.0124357,43,84.6157,0.0561022
0.0129686,0.916676,-0.347874,5.39376,4.70125,6.45076,7,0.0340978,0.00473791,53,69.061,0.0525867
-0.521658,-0.835208,-0.0619509,5.34111,4.48784,6.54276,8,0.0315352,0.00438184,64,87.3227,0.143002
-0.746901,0.58243,-0.0902798,5.25477,4.61155,6.49883,9,0.13048,0.0181303,76,88.2439,0.0174606
0.625279,-0.764562,0.0801639,5.31113,4.48289,6.51024,10,0.00924029,0.00128394,89,130.369,0.0370382
0.00930366,0.889445,0.425676,5.37575,4.70054,6.49533,11,0.0209747,0.00291445,103,111.854,0.135333
-0.195246,-0.721034,0.599879,5.29517,4.50778,6.54254,12,0.118251,0.0164311,118,150.915,0.0963032
-0.223315,0.532574,0.772364,5.29657,4.62195,6.55443,13,0.0692236,0.00961867,18,61.8722,0.0456713
,,,,,,,,,25,26.9595,0.0367763
,,,,,,,,,33,85.8716,0.0117376
,,,,,,,,,42,81.0173,0.0820724
,,,,,,,,,52,66.0731,0.0470338
,,,,,,,,,63,78.7062,0.0445377
,,,,,,,,,75,61.7224,0.0958809
,,,,,,,,,88,114.337,0.0164722
,,,,,,,,,102,107.828,0.032856
,,,,,,,,,117,123.582,0.0923712
,,,,,,,,,133,124.932,0.0723559
,,,,,,,,,32,59.7166,0.0278615
,,,,,,,,,41,25.5144,0.01065
,,,,,,,,,51,103.766,0.0478818
,,,,,,,,,62,43.9848,0.0333759
,,,,,,,,,74,130.063,0.0320993
,,,,,,,,,87,91.6717,0.0522739
,,,,,,,,,101,96.7876,0.0144074
,,,,,,,,,116,81.535,0.0255518
,,,,,,,,,132,156.546,0.051213
,,,,,,,,,149,114.117,0.044403
,,,,,,,,,50,76.8221,0.0100814
,,,,,,,,,61,107.658,0.0381962
,,,,,,,,,73,43.5646,0.0283627
,,,,,,,,,86,97.658,0.0274355
,,,,,,,,,100,40.174,0.0409403
,,,,,,,,,115,139.563,0.013386
,,,,,,,,,131,81.1234,0.0225063
,,,,,,,,,148,136.858,0.0402867
,,,,,,,,,166,99.7147,0.0359495
,,,,,,,,,72,118.83,0.0118786
,,,,,,,,,85,43.2719,0.0107225
,,,,,,,,,99,152.75,0.0105872
,,,,,,,,,114,96.6904,0.0121314
,,,,,,,,,130,95.0362,0.00753527
,,,,,,,,,147,63.6168,0.00976213
,,,,,,,,,165,146.309,0.0120734
,,,,,,,,,184,93.9638,0.0116521
,,,,,,,,,98,141.732,0.0493815
,,,,,,,,,113,36.8271,0.0466373
,,,,,,,,,129,126.374,0.106171
,,,,,,,,,146,42.1137,0.0167511
,,,,,,,,,164,171.133,0.0339847
,,,,,,,,,183,58.5709,0.101884
,,,,,,,,,203,140.898,0.0780656
,,,,,,,,,128,140.901,0.0327664
,,,,,,,,,145,53.4474,0.0540665
,,,,,,,,,163,137.872,0.0145403
,,,,,,,,,182,46.354,0.0259727
,,,,,,,,,202,158.189,0.0529325
,,,,,,,,,223,76.7577,0.0456899
,,,,,,,,,162,95.5769,0.0507941
,,,,,,,,,181,71.6742,0.0142926
,,,,,,,,,201,142.712,0.025193
,,,,,,,,,222,45.1302,0.0497919
,,,,,,,,,244,113.286,0.0433308
,,,,,,,,,200,167.248,0.0172584
,,,,,,,,,221,59.7492,0.0361399
,,,,,,,,,243,111.109,0.124065
,,,,,,,,,266,63.6507,0.090457
,,,,,,,,,242,130.924,0.0128289
,,,,,,,,,265,59.819,0.0171411
,,,,,,,,,289,120.491,0.0163042
,,,,,,,,,288,114.234,0.0356296
,,,,,,,,,313,32.6859,0.0321945
,,,,,,,,,338,82.3546,0.0873267
