"cellPairingIds","interplanarAngles","angleWeights"
99,115.824,0.0514317
130,87.0996,0.0245255
184,155.326,0.0243671
270,111.084,0.0103366
244,64.0536,0.0224974
291,83.2867,0.0639859
342,115.156,0.00998461
289,94.8447,0.0152022
340,73.8797,0.027057
395,52.08,0.00823149
421,26.4546,0.0268643
545,63.4449,0.0107609
