"cellPairingIds","interplanarAngles","angleWeights"
8,50.9379,0.0501972
13,39.3457,0.0191839
19,44.5854,0.0323011
18,84.6816,0.0239684
25,92.4978,0.048654
33,48.7781,0.0871568
42,66.4136,0.121066
32,40.6257,0.0189542
51,113.466,0.0247124
74,66.8414,0.0249222
50,109.713,0.044423
86,95.5237,0.0527518
148,91.3194,0.040127
72,72.8112,0.0978715
85,33.4408,0.0474673
130,71.9872,0.022089
165,103.458,0.0631268
98,53.996,0.0560115
113,80.209,0.150075
129,60.1326,0.0642712
164,75.8705,0.0345794
145,31.1438,0.0378663
163,50.7743,0.018901
201,53.9129,0.0349915
222,85.4922,0.0813869
200,28.4976,0.0197578
221,51.4222,0.0266851
243,63.4589,0.0472082
265,37.595,0.0209725
288,47.8711,0.0289498
