facetNormals:0,facetNormals:1,facetNormals:2,FacetCenters:0,FacetCenters:1,FacetCenters:2,FacetIds,relFacetSize,absFacetSize,cellPairingIds,interplanarAngles,angleWeights
-0.342164,0.104193,-0.895296,6.89572,4.12145,6.37099,1,0.0329741,0.0133801,8,50.9379,0.0501972
0.431843,-0.0824389,-0.785447,6.99098,4.14453,6.37735,2,0.105086,0.0426414,13,39.3457,0.0191839
-0.804811,-0.17665,-0.527895,6.86662,4.1062,6.38634,3,0.0135269,0.00548889,19,44.5854,0.0323011
-0.729284,0.481437,-0.403424,6.88844,4.15241,6.4168,4,0.031655,0.0128449,26,88.5035,0.045706
0.826644,0.359336,-0.30083,7.05835,4.1728,6.47659,5,0.074454,0.0302118,34,107.446,0.0535752
0.624978,-0.71112,-0.0159268,7.02162,4.05216,6.53244,6,0.142779,0.0579364,43,119.363,0.0338811
0.961071,0.0765085,0.157415,7.0877,4.18876,6.46792,7,0.0348394,0.014137,53,103.301,0.0545708
-0.52738,-0.682407,0.353006,6.86535,4.03636,6.52752,8,0.158157,0.0641767,64,150.485,0.0367369
0.738898,-0.00512032,0.622309,7.0757,4.16567,6.60518,9,0.0414691,0.0168272,76,150.267,0.0186153
0.479482,0.366986,0.787006,7.0601,4.22008,6.61634,10,0.0129682,0.00526221,89,156.71,0.0246424
0.0175641,-0.319201,0.912275,6.93429,4.08687,6.6635,11,0.0196719,0.0079824,103,135.204,0.0411709
-0.143998,0.443983,0.843091,6.98077,4.18616,6.63181,12,0.054791,0.022233,18,84.6816,0.0239684
,,,,,,,,,25,92.4978,0.048654
,,,,,,,,,33,48.7781,0.0871568
,,,,,,,,,42,66.4136,0.121066
,,,,,,,,,52,71.082,0.0523298
,,,,,,,,,63,122.343,0.126272
,,,,,,,,,75,101.226,0.0594701
,,,,,,,,,88,119.624,0.0230873
,,,,,,,,,102,141.679,0.03314
,,,,,,,,,117,151.319,0.0720274
,,,,,,,,,32,40.6257,0.0189542
,,,,,,,,,41,127.803,0.0228943
,,,,,,,,,51,113.466,0.0247124
,,,,,,,,,62,155.532,0.0194874
,,,,,,,,,74,66.8414,0.0249222
,,,,,,,,,87,167.316,0.0203996
,,,,,,,,,101,153.168,0.0132416
,,,,,,,,,116,117.674,0.0160306
,,,,,,,,,132,115.609,0.0216971
,,,,,,,,,50,109.713,0.044423
,,,,,,,,,61,150.313,0.0518209
,,,,,,,,,73,140.697,0.0331709
,,,,,,,,,86,95.5237,0.0527518
,,,,,,,,,100,148.451,0.0359035
,,,,,,,,,115,120.914,0.0183989
,,,,,,,,,131,125.065,0.0242646
,,,,,,,,,148,91.3194,0.040127
,,,,,,,,,72,72.8112,0.0978715
,,,,,,,,,85,33.4408,0.0474673
,,,,,,,,,99,152.767,0.101246
,,,,,,,,,114,62.6493,0.0532688
,,,,,,,,,130,71.9872,0.022089
,,,,,,,,,147,114.069,0.0311211
,,,,,,,,,165,103.458,0.0631268
,,,,,,,,,98,53.996,0.0560115
,,,,,,,,,113,80.209,0.150075
,,,,,,,,,129,60.1326,0.0642712
,,,,,,,,,146,88.404,0.0237769
,,,,,,,,,164,75.8705,0.0345794
,,,,,,,,,183,117.346,0.0791922
,,,,,,,,,128,123.578,0.0571005
,,,,,,,,,145,31.1438,0.0378663
,,,,,,,,,163,50.7743,0.018901
,,,,,,,,,182,81.7155,0.0251455
,,,,,,,,,202,88.2779,0.0425946
,,,,,,,,,162,100.658,0.0657092
,,,,,,,,,181,104.119,0.0239709
,,,,,,,,,201,53.9129,0.0349915
,,,,,,,,,222,85.4922,0.0813869
,,,,,,,,,200,28.4976,0.0197578
,,,,,,,,,221,51.4222,0.0266851
,,,,,,,,,243,63.4589,0.0472082
,,,,,,,,,242,50.5525,0.0156316
,,,,,,,,,265,37.595,0.0209725
,,,,,,,,,288,47.8711,0.0289498
