"cellPairingIds","interplanarAngles","angleWeights"
18,66.611,0.0490542
33,57.5814,0.0407753
42,33.0408,0.0414142
63,55.3602,0.0476846
75,90.7599,0.0308601
32,48.2019,0.0333009
41,28.853,0.0394958
87,120.214,0.0301216
101,43.5585,0.0600127
73,34.8311,0.0222853
100,86.8286,0.0237824
115,82.7708,0.0391967
185,108.41,0.0365067
205,71.0272,0.0330937
72,45.3923,0.0343881
130,23.5788,0.0480718
184,63.1012,0.036149
113,71.578,0.0391752
203,39.2695,0.0366503
245,86.1799,0.0299523
268,37.9529,0.0276156
317,62.6358,0.0252736
162,50.382,0.0295996
222,29.6775,0.0270305
244,85.726,0.041477
267,61.278,0.0522778
290,37.7323,0.0327207
289,54.4246,0.0526114
340,91.4316,0.0593433
367,33.4715,0.0773368
338,61.0827,0.0258039
365,64.1324,0.0296097
483,35.1031,0.0272282
451,36.8835,0.0505267
514,63.7315,0.0419444
547,70.9562,0.0370177
513,34.5698,0.0452766
546,49.5356,0.0530226
580,57.1276,0.0453866
512,78.7585,0.0567044
545,42.3574,0.0401422
614,57.3436,0.0402286
649,69.25,0.0477617
685,42.4814,0.0354441
722,36.0372,0.0400211
