facetNormals:0,facetNormals:1,facetNormals:2,FacetCenters:0,FacetCenters:1,FacetCenters:2,FacetIds,relFacetSize,absFacetSize,cellPairingIds,interplanarAngles,angleWeights
0.0529931,-0.453008,-0.873264,5.16049,7.08723,3.96189,1,0.0313036,0.00801692,8,46.4553,0.0472855
-0.443177,0.129597,-0.837259,5.0918,7.14646,3.95856,2,0.096609,0.0247418,13,25.3013,0.042141
0.446185,-0.480484,-0.707685,5.16351,7.06353,3.99426,3,0.0644557,0.0165072,19,75.8563,0.0221346
-0.328262,0.669193,-0.637439,5.15896,7.2386,3.91076,4,0.01712,0.00438448,26,77.4528,0.020456
0.513891,0.615312,-0.522547,5.2145,7.18496,3.94838,5,0.0151917,0.00389062,34,24.8653,0.021142
0.0599341,-0.78518,-0.606377,5.20386,7.11019,3.93061,6,0.0159608,0.00408761,43,56.0288,0.0365855
-0.77668,-0.188783,-0.566965,5.10304,7.15272,3.94836,7,0.0440116,0.0112715,53,35.8157,0.0372544
-0.315111,-0.759824,-0.510755,5.12324,7.07327,3.97039,8,0.0459989,0.0117804,64,65.6586,0.0466043
0.560277,-0.771861,-0.00912408,5.20317,7.05126,4.06001,9,0.0911634,0.0233472,76,71.6112,0.0185357
-0.600124,-0.783535,0.0187234,5.13146,7.10197,3.96758,10,0.0131657,0.00337178,89,118.936,0.016306
-0.379281,0.904861,0.0436722,5.06847,7.20698,4.04249,11,0.0110242,0.00282333,103,115.924,0.0307457
0.43712,0.818938,0.0605193,5.19321,7.15845,4.04687,12,0.0302074,0.00773619,118,114.691,0.0436381
-0.85654,0.387544,0.19994,5.03857,7.12972,4.08148,13,0.0720134,0.0184428,134,76.2567,0.0192063
-0.0962534,-0.957106,0.22583,5.14591,7.04849,4.01013,14,0.0138529,0.00354775,151,91.483,0.0179934
-0.419963,-0.795138,0.415922,5.07013,7.00142,4.08511,15,0.0126252,0.00323335,169,135.961,0.0141402
0.619224,0.515293,0.571141,5.24212,7.14624,3.9775,16,0.0091328,0.00233893,188,133.093,0.0289278
0.486713,-0.109832,0.83867,5.18029,7.09777,4.14411,17,0.0268872,0.00688587,208,165.245,0.045903
-0.251953,0.303582,0.818814,5.10869,7.12076,4.11428,18,0.0860218,0.0220304,229,127.273,0.0408385
-0.0442774,-0.406769,0.857478,5.13176,7.07385,4.12844,19,0.058726,0.0150399,18,68.8714,0.0773229
,,,,,,,,,25,35.2395,0.0290858
,,,,,,,,,33,71.5542,0.0262548
,,,,,,,,,42,66.4704,0.0273956
,,,,,,,,,52,32.019,0.0604736
,,,,,,,,,63,59.5757,0.0623234
,,,,,,,,,75,111.936,0.0938072
,,,,,,,,,88,80.9328,0.0231734
,,,,,,,,,102,74.6364,0.0197901
,,,,,,,,,117,98.9424,0.0460241
,,,,,,,,,133,73.4082,0.0825174
,,,,,,,,,150,106.635,0.0242312
,,,,,,,,,168,106.255,0.0223321
,,,,,,,,,187,136.583,0.016688
,,,,,,,,,207,177.415,0.0420668
,,,,,,,,,228,127.96,0.0910085
,,,,,,,,,250,145.764,0.0730481
,,,,,,,,,32,91.0231,0.0270542
,,,,,,,,,41,70.8116,0.0245881
,,,,,,,,,51,29.6709,0.025586
,,,,,,,,,62,81.1534,0.052307
,,,,,,,,,74,51.1518,0.0536852
,,,,,,,,,87,47.0227,0.0755177
,,,,,,,,,101,84.2472,0.0218653
,,,,,,,,,116,132.074,0.0188282
,,,,,,,,,132,105.595,0.0411362
,,,,,,,,,149,139.955,0.0680253
,,,,,,,,,167,74.3527,0.0228046
,,,,,,,,,186,95.9854,0.0211147
,,,,,,,,,206,113.212,0.0159987
,,,,,,,,,227,110.102,0.0379456
,,,,,,,,,249,162.82,0.0736933
,,,,,,,,,272,118.057,0.0614576
,,,,,,,,,50,52.1286,0.0160983
,,,,,,,,,61,99.363,0.0165201
,,,,,,,,,73,59.3458,0.0246511
,,,,,,,,,86,94.7995,0.024953
,,,,,,,,,100,137.948,0.0288266
,,,,,,,,,115,110.514,0.0148847
,,,,,,,,,131,43.1969,0.013412
,,,,,,,,,148,66.3526,0.0218542
,,,,,,,,,166,64.0121,0.0276635
,,,,,,,,,185,140.974,0.0153141
,,,,,,,,,205,132.732,0.014533
,,,,,,,,,226,103.282,0.0119114
,,,,,,,,,248,143.349,0.0209197
,,,,,,,,,271,105.357,0.0285567
,,,,,,,,,295,149.667,0.0265114
,,,,,,,,,72,98.1889,0.0155668
,,,,,,,,,85,103.507,0.0225869
,,,,,,,,,99,113.036,0.0228401
,,,,,,,,,114,101.517,0.0260434
,,,,,,,,,130,147.909,0.0141063
,,,,,,,,,147,68.8538,0.0127767
,,,,,,,,,165,38.4773,0.0202163
,,,,,,,,,184,109.444,0.0250904
,,,,,,,,,204,143.125,0.0144914
,,,,,,,,,225,166.631,0.0137901
,,,,,,,,,247,69.1183,0.0114076
,,,,,,,,,270,105.892,0.0194141
,,,,,,,,,294,115.216,0.025823
,,,,,,,,,319,142.48,0.0241389
,,,,,,,,,98,62.7816,0.0234262
,,,,,,,,,113,22.7542,0.0236987
,,,,,,,,,129,47.1119,0.0271656
,,,,,,,,,146,54.6308,0.0144292
,,,,,,,,,164,141.105,0.013041
,,,,,,,,,183,134.977,0.020886
,,,,,,,,,203,119.947,0.0261303
,,,,,,,,,224,51.6891,0.0148323
,,,,,,,,,246,69.3693,0.0140984
,,,,,,,,,269,136.66,0.0116179
,,,,,,,,,293,113.913,0.0200309
,,,,,,,,,318,146.122,0.0269258
,,,,,,,,,344,102.428,0.0250999
,,,,,,,,,128,44.4136,0.0449833
,,,,,,,,,145,107.706,0.0593638
,,,,,,,,,163,51.4077,0.0202684
,,,,,,,,,182,84.096,0.0176319
,,,,,,,,,202,125.425,0.0358258
,,,,,,,,,223,59.4515,0.0546335
,,,,,,,,,245,82.4392,0.0210729
,,,,,,,,,268,75.6598,0.0196218
,,,,,,,,,292,158.769,0.0151267
,,,,,,,,,317,150.555,0.0333813
,,,,,,,,,343,111.46,0.0582306
,,,,,,,,,370,113.75,0.0503151
,,,,,,,,,162,63.3256,0.0611453
,,,,,,,,,181,35.8318,0.020472
,,,,,,,,,201,128.374,0.0177858
,,,,,,,,,222,151.41,0.036467
,,,,,,,,,244,97.8235,0.0561389
,,,,,,,,,267,47.8342,0.0212932
,,,,,,,,,291,56.8863,0.0198126
,,,,,,,,,316,156.73,0.0152398
,,,,,,,,,342,121.826,0.0339374
,,,,,,,,,369,130.325,0.0599438
,,,,,,,,,397,97.1773,0.0515891
,,,,,,,,,200,73.4389,0.0230086
,,,,,,,,,221,166.621,0.0196698
,,,,,,,,,243,115.913,0.0453785
,,,,,,,,,266,148.402,0.0804647
,,,,,,,,,290,43.5765,0.024051
,,,,,,,,,315,66.6436,0.0221789
,,,,,,,,,341,93.409,0.0166024
,,,,,,,,,368,67.9247,0.0415267
,,,,,,,,,396,116.215,0.088518
,,,,,,,,,425,71.9135,0.0714348
,,,,,,,,,242,119.715,0.0120002
,,,,,,,,,265,169.48,0.0183387
,,,,,,,,,289,76.9574,0.0222616
,,,,,,,,,314,33.6518,0.0135006
,,,,,,,,,340,25.4865,0.0128898
,,,,,,,,,367,141.669,0.0107846
,,,,,,,,,395,101.395,0.0176761
,,,,,,,,,424,94.5601,0.0228364
,,,,,,,,,454,67.3388,0.0215093
,,,,,,,,,288,50.7643,0.0161533
,,,,,,,,,313,43.5397,0.0191212
,,,,,,,,,339,147.637,0.0122777
,,,,,,,,,366,123.853,0.0117705
,,,,,,,,,394,74.6732,0.00998977
,,,,,,,,,423,104.957,0.015637
,,,,,,,,,453,62.9445,0.0195438
,,,,,,,,,484,109.653,0.0185636
,,,,,,,,,338,92.8807,0.0425616
,,,,,,,,,365,152.083,0.0189949
,,,,,,,,,393,151.447,0.0178077
,,,,,,,,,422,37.6611,0.0140253
,,,,,,,,,452,78.978,0.0284508
,,,,,,,,,483,77.1506,0.0447133
,,,,,,,,,515,109.882,0.0398941
,,,,,,,,,392,104.845,0.023236
,,,,,,,,,421,81.8668,0.021484
,,,,,,,,,451,103.185,0.0162099
,,,,,,,,,482,108.124,0.0391552
,,,,,,,,,514,55.3118,0.0783967
,,,,,,,,,547,86.7527,0.0646945
,,,,,,,,,450,23.8469,0.0132106
,,,,,,,,,481,115.744,0.0110082
,,,,,,,,,513,75.1165,0.0182849
,,,,,,,,,546,95.2,0.0238629
,,,,,,,,,580,51.2796,0.0224176
,,,,,,,,,512,116.218,0.0105987
,,,,,,,,,545,76.1313,0.0171823
,,,,,,,,,579,76.8422,0.0220188
,,,,,,,,,614,42.0783,0.0207825
,,,,,,,,,578,41.3169,0.0136344
,,,,,,,,,613,58.5666,0.0165125
,,,,,,,,,649,74.374,0.0158073
,,,,,,,,,648,53.2461,0.040969
,,,,,,,,,685,36.8154,0.0368863
,,,,,,,,,722,46.9231,0.0698003
