Q	U	V
{$V$}	{[mm$^3$]}	0.00391264
{$d_v$}	{[mm]}	0.195505
{$S_c$}	{[mm$^2$]}	0.239663
{$S_o$}	{[mm$^2$]}	0.166127
{$S_l/S_o$}	[]	0.442649
{$\Psi$}	[]	0.501029
{$\eta$}	[]	0.516813
{med($\theta_e$)}	{[$^\circ$]}	79.7677
{$\Upsilon$}	[]	15
{$\Xi$}	[]	9
