Q	U	V
{$V$}	{[mm$^3$]}	0.00339491
{$d_v$}	{[mm]}	0.186470
{$S_c$}	{[mm$^2$]}	0.172392
{$S_o$}	{[mm$^2$]}	0.109513
{$S_l/S_o$}	[]	0.574169
{$\Psi$}	[]	0.633655
{$\eta$}	[]	0.663940
{med($\theta_e$)}	{[$^\circ$]}	64.1942
{$\Upsilon$}	[]	14
{$\Xi$}	[]	9
