"cellPairingIds","interplanarAngles","angleWeights"
32,85.142,0.018159
87,79.6044,0.0935358
101,105.347,0.0453409
149,113.338,0.0844928
186,118.537,0.0408873
100,96.9812,0.0178902
115,101.605,0.0148675
185,93.3122,0.0177133
290,105.437,0.0828045
315,60.2006,0.0395493
289,44.1654,0.0416202
314,70.1614,0.0426609
392,65.3789,0.075638
421,60.1074,0.037837
450,65.5256,0.0386952
