"cellPairingIds","interplanarAngles","angleWeights"
18,26.4775,0.0421847
33,57.1343,0.0421987
42,40.9054,0.00916706
63,69.5298,0.0220402
88,70.2227,0.0470078
41,38.8833,0.0771695
101,44.1661,0.0949294
99,107.655,0.0288809
130,44.1768,0.095
165,99.2491,0.058964
113,55.6266,0.00833238
146,94.5626,0.0104259
203,72.1658,0.00958006
224,100.109,0.00987663
269,91.4253,0.00899137
222,83.5598,0.0258841
316,69.3089,0.0210512
265,123.155,0.0687986
314,29.168,0.0744272
424,63.2463,0.11644
422,67.4155,0.0335145
483,86.127,0.0665721
392,31.8036,0.045653
451,101.482,0.0313745
481,116.244,0.0347964
546,39.4334,0.0718283
613,86.7897,0.0418571
