"cellPairingIds","interplanarAngles","angleWeights"
8,44.892,0.0261546
19,61.308,0.0206687
26,42.3822,0.0127978
34,101.447,0.0326369
64,92.2566,0.0311745
18,45.2154,0.0610681
25,26.1175,0.0318963
42,78.0001,0.0734779
32,47.3339,0.0377028
51,46.1634,0.113881
87,68.2076,0.0978624
101,72.1046,0.0595002
100,40.3925,0.0396906
72,108.755,0.0186869
85,56.9076,0.0175418
114,124.101,0.0181981
147,95.728,0.0167192
165,134.16,0.0173664
98,65.2615,0.105169
113,37.7423,0.0521176
146,70.9114,0.0712198
128,75.3994,0.0440909
182,76.3541,0.063265
181,37.2253,0.0367472
201,75.8328,0.0392382
200,73.0627,0.0646064
243,50.1484,0.0867936
242,65.267,0.0491665
265,44.2916,0.0552186
288,57.7629,0.0610416
