Q	U	V
{$V$}	{[mm$^3$]}	0.00250907
{$d_v$}	{[mm]}	0.168592
{$S_c$}	{[mm$^2$]}	0.159908
{$S_o$}	{[mm$^2$]}	0.094437
{$S_l/S_o$}	[]	0.693277
{$\Psi$}	[]	0.558413
{$\eta$}	[]	0.566528
{med($\theta_e$)}	{[$^\circ$]}	
{$\Upsilon$}	[]	14
{$\Xi$}	[]	7
