"cellPairingIds","interplanarAngles","angleWeights"
8,26.8582,0.0104556
13,41.0536,0.0140289
26,97.0958,0.0122816
34,95.9818,0.0146685
43,77.4636,0.0158302
76,90.2426,0.0137561
18,29.3221,0.0209451
75,92.8755,0.02298
88,97.3923,0.0203428
133,84.7915,0.0243536
32,29.3106,0.0478615
41,79.3407,0.0298295
87,77.0158,0.0522047
50,51.6601,0.0322224
100,66.2678,0.0600029
131,96.8088,0.0456594
72,41.8592,0.0328778
147,47.6266,0.028959
98,53.8141,0.0822125
113,36.193,0.0425484
164,43.5666,0.0469867
128,53.3275,0.0540555
163,49.663,0.0599329
181,77.5341,0.0356832
201,31.009,0.0362076
267,68.5748,0.0342175
221,83.1035,0.0495957
266,75.3754,0.0801718
290,57.2889,0.0459361
289,57.6558,0.0552044
314,86.0674,0.0364822
339,56.5528,0.0370304
392,63.3883,0.0517733
