facetNormals:0,facetNormals:1,facetNormals:2,FacetCenters:0,FacetCenters:1,FacetCenters:2,FacetIds,relFacetSize,absFacetSize,cellPairingIds,interplanarAngles,angleWeights
0.377169,-0.0390392,-0.902725,6.77521,6.55605,5.85102,1,0.0206149,0.00267482,8,36.5129,0.011636
0.19338,0.538651,-0.799934,6.78366,6.56487,5.87187,2,0.00810561,0.00105171,13,28.4521,0.0179826
0.344075,-0.504194,-0.77585,6.764,6.53355,5.85935,3,0.0159464,0.00206907,19,56.3848,0.0203932
-0.537918,0.100449,-0.822094,6.73448,6.49935,5.88112,4,0.0201761,0.00261788,26,56.7987,0.0331171
-0.400761,-0.492779,-0.713477,6.67202,6.48122,5.90985,5,0.0841518,0.0109188,34,90.2012,0.0302135
-0.0196815,-0.978717,0.0378327,6.65124,6.4575,5.97568,6,0.0565384,0.00733594,43,127.334,0.0258628
-0.86367,-0.310454,0.284653,6.56546,6.49657,6.0437,7,0.0346949,0.00450171,53,87.541,0.0370352
0.612901,-0.69562,0.241576,6.75093,6.49037,5.96377,8,0.182011,0.0236162,64,92.9836,0.0317886
0.796897,0.448767,0.369226,6.76846,6.58085,5.97941,9,0.0694105,0.0090061,76,114.998,0.031376
-0.0911918,-0.862536,0.446298,6.64698,6.47509,6.03072,10,0.0656403,0.00851692,89,110.423,0.0340256
0.705741,0.0843553,0.65774,6.75168,6.55169,6.02459,11,0.097364,0.0126331,103,131.571,0.0252364
-0.0187089,-0.666631,0.735637,6.67335,6.4804,6.04463,12,0.0325287,0.00422064,118,157.329,0.0182605
-0.540091,0.340706,0.731229,6.62146,6.5391,6.05762,13,0.0163887,0.00212645,134,156.731,0.0205713
-0.383787,-0.350532,0.833967,6.60869,6.52699,6.08993,14,0.0205279,0.00266352,18,64.6592,0.010748
,,,,,,,,,25,51.2716,0.011565
,,,,,,,,,33,75.9686,0.0147869
,,,,,,,,,42,125.625,0.0141785
,,,,,,,,,52,126.482,0.0131411
,,,,,,,,,63,118.484,0.0155201
,,,,,,,,,75,84.0551,0.0145161
,,,,,,,,,88,151.015,0.0144294
,,,,,,,,,102,111.186,0.0149653
,,,,,,,,,117,166.887,0.0129774
,,,,,,,,,133,121.989,0.0108466
,,,,,,,,,150,164.226,0.0116221
,,,,,,,,,32,65.6419,0.0178136
,,,,,,,,,41,45.2307,0.0268121
,,,,,,,,,51,61.7773,0.0248765
,,,,,,,,,62,112.4,0.0218501
,,,,,,,,,74,66.6947,0.0293237
,,,,,,,,,87,104.181,0.0259346
,,,,,,,,,101,86.5917,0.0256593
,,,,,,,,,116,108.922,0.0274045
,,,,,,,,,132,104.237,0.0214013
,,,,,,,,,149,164.821,0.0161645
,,,,,,,,,167,128.383,0.0179494
,,,,,,,,,50,37.0788,0.0325484
,,,,,,,,,61,97.055,0.0297395
,,,,,,,,,73,77.871,0.0255147
,,,,,,,,,86,129.213,0.0363255
,,,,,,,,,100,134.866,0.0312643
,,,,,,,,,115,114.828,0.0308651
,,,,,,,,,131,162.457,0.0334256
,,,,,,,,,148,132.436,0.0249048
,,,,,,,,,166,106.755,0.0180862
,,,,,,,,,185,122.007,0.0203505
,,,,,,,,,72,60.3327,0.0676353
,,,,,,,,,85,71.1861,0.0491329
,,,,,,,,,99,94.7132,0.115092
,,,,,,,,,114,148.574,0.0760736
,,,,,,,,,130,81.1618,0.0737522
,,,,,,,,,147,149.09,0.0902771
,,,,,,,,,165,101.485,0.0469204
,,,,,,,,,184,120.679,0.0274344
,,,,,,,,,204,106.619,0.0330046
,,,,,,,,,98,69.3733,0.0430017
,,,,,,,,,113,43.7584,0.0862766
,,,,,,,,,129,117.152,0.0623167
,,,,,,,,,146,25.4487,0.0607503
,,,,,,,,,164,94.3263,0.0715363
,,,,,,,,,183,45.5945,0.0412974
,,,,,,,,,203,108.08,0.0254114
,,,,,,,,,224,66.6097,0.0301199
,,,,,,,,,128,105.41,0.0582805
,,,,,,,,,145,139.67,0.0462645
,,,,,,,,,163,59.6514,0.0453955
,,,,,,,,,182,118.814,0.0511595
,,,,,,,,,202,63.043,0.0335769
,,,,,,,,,223,52.4267,0.0222617
,,,,,,,,,245,44.1366,0.0257942
,,,,,,,,,162,73.6852,0.100496
,,,,,,,,,181,45.7658,0.0964846
,,,,,,,,,201,54.9546,0.126864
,,,,,,,,,222,48.5305,0.0551933
,,,,,,,,,244,114.884,0.0300698
,,,,,,,,,267,77.1065,0.0368946
,,,,,,,,,200,107.854,0.0674728
,,,,,,,,,221,28.0272,0.0810445
,,,,,,,,,243,92.4846,0.0442976
,,,,,,,,,266,90.4494,0.0265165
,,,,,,,,,290,99.2158,0.031685
,,,,,,,,,242,80.4677,0.0784151
,,,,,,,,,265,20.8662,0.0435003
,,,,,,,,,289,85.049,0.0262287
,,,,,,,,,314,42.2487,0.031275
,,,,,,,,,288,64.4697,0.0487652
,,,,,,,,,313,82.142,0.028055
,,,,,,,,,339,74.8872,0.0339069
,,,,,,,,,338,70.5551,0.021796
,,,,,,,,,365,28.884,0.025171
,,,,,,,,,392,43.0034,0.0182262
