"cellPairingIds","interplanarAngles","angleWeights"
8,46.5514,0.0543812
13,29.4172,0.0499084
26,62.5469,0.0272748
53,61.4696,0.0349947
18,66.2838,0.0795175
25,25.2599,0.0267771
33,87.8433,0.034243
42,28.8125,0.0620937
88,98.0448,0.0997665
62,37.9936,0.0446462
74,54.051,0.0439312
101,125.913,0.0856797
116,106.744,0.0794987
50,77.4287,0.017979
61,28.1172,0.0235172
185,142.403,0.0254001
99,47.3992,0.0253871
204,98.2608,0.0320229
146,72.1225,0.0657886
224,135.668,0.0551593
128,30.838,0.0323234
182,86.6172,0.0481851
245,91.6651,0.0439078
267,87.2932,0.0432161
242,42.4513,0.0997369
314,70.2269,0.0830011
339,48.8509,0.0771874
