facetNormals:0,facetNormals:1,facetNormals:2,FacetCenters:0,FacetCenters:1,FacetCenters:2,FacetIds,relFacetSize,absFacetSize,cellPairingIds,interplanarAngles,angleWeights
0.415483,0.217118,-0.803308,4.44954,7.09622,7.85317,1,0.102348,0.0323286,8,53.8898,0.0867401
-0.1032,-0.45934,-0.82667,4.43896,7.04324,7.80518,2,0.0752628,0.0237733,13,60.0432,0.0858833
-0.482128,0.483229,-0.672948,4.34731,7.12585,7.80481,3,0.073982,0.0233687,19,68.2812,0.0597237
0.719361,-0.593743,-0.196855,4.50612,6.98916,7.87674,4,0.0421639,0.0133183,26,49.1399,0.0535303
0.936458,0.143379,-0.212296,4.52018,7.06467,7.89743,5,0.0362432,0.0114481,34,49.3799,0.0493754
0.461188,0.806077,-0.273325,4.49663,7.12585,7.86404,6,0.0325358,0.0102771,43,74.6179,0.0299443
0.948147,-0.208057,0.133244,4.51216,7.02381,7.88511,7,0.0175377,0.00553963,53,98.363,0.0501733
-0.656495,0.721996,0.0199575,4.40447,7.05958,7.93938,8,0.0332322,0.0104971,64,95.1403,0.0370074
-0.273535,0.92206,0.209856,4.40226,7.14611,7.90619,9,0.0225873,0.00713466,76,110.985,0.053534
0.199421,-0.908062,0.257756,4.41624,6.98828,7.90607,10,0.0362466,0.0114492,89,96.9642,0.0574348
0.783922,0.0655418,0.558617,4.49544,7.08487,7.90788,11,0.0399178,0.0126088,103,132.704,0.034294
-0.8615,0.229365,0.37627,4.40803,7.01061,7.92556,12,0.0205979,0.00650625,118,138.836,0.056494
-0.270562,0.439769,0.833665,4.40234,7.0936,7.97772,13,0.0390147,0.0123236,134,112.713,0.0981604
0.350376,0.490871,0.741027,4.46816,7.08479,7.96125,14,0.094302,0.0297872,151,153.207,0.115996
-0.0187425,-0.0994276,0.919768,4.41072,7.04545,7.97525,15,0.133845,0.0422777,18,65.0893,0.0746169
,,,,,,,,,25,66.5273,0.0540486
,,,,,,,,,33,89.1938,0.0489259
,,,,,,,,,42,102.027,0.0454317
,,,,,,,,,52,96.9277,0.0284467
,,,,,,,,,63,107.576,0.0461063
,,,,,,,,,75,127.399,0.0347467
,,,,,,,,,88,78.4702,0.048929
,,,,,,,,,102,128.613,0.0521672
,,,,,,,,,117,110.84,0.0323439
,,,,,,,,,133,157.722,0.0513899
,,,,,,,,,150,164.116,0.0837135
,,,,,,,,,168,144.064,0.096348
,,,,,,,,,32,123.269,0.0537147
,,,,,,,,,41,104.903,0.0486521
,,,,,,,,,51,67.7675,0.0451955
,,,,,,,,,62,133.57,0.0283539
,,,,,,,,,74,45.8243,0.0458631
,,,,,,,,,87,62.4647,0.0346084
,,,,,,,,,101,139.998,0.0486552
,,,,,,,,,116,141.343,0.0518561
,,,,,,,,,132,72.8844,0.032224
,,,,,,,,,149,103.414,0.0510879
,,,,,,,,,167,118.031,0.0829152
,,,,,,,,,186,137.887,0.095292
,,,,,,,,,50,47.0751,0.03898
,,,,,,,,,61,95.7861,0.0367294
,,,,,,,,,73,33.4468,0.0247718
,,,,,,,,,86,166.532,0.037169
,,,,,,,,,100,146.834,0.0294163
,,,,,,,,,115,46.6042,0.038982
,,,,,,,,,131,63.176,0.0410101
,,,,,,,,,148,154.125,0.0276757
,,,,,,,,,166,131.535,0.0405282
,,,,,,,,,185,101.737,0.0582731
,,,,,,,,,205,98.8369,0.0641267
,,,,,,,,,72,49.8926,0.0342896
,,,,,,,,,85,29.2735,0.0236374
,,,,,,,,,99,122.956,0.0346725
,,,,,,,,,114,100.155,0.0278303
,,,,,,,,,130,89.8879,0.0362449
,,,,,,,,,147,48.1536,0.0379918
,,,,,,,,,165,155.335,0.0262674
,,,,,,,,,184,112.694,0.0375779
,,,,,,,,,204,74.9298,0.052362
,,,,,,,,,225,104.641,0.0570407
,,,,,,,,,98,75.771,0.0227906
,,,,,,,,,113,73.1581,0.0328803
,,,,,,,,,129,54.0299,0.0266638
,,,,,,,,,146,139.524,0.0342911
,,,,,,,,,164,73.7297,0.0358507
,,,,,,,,,183,109.667,0.0252257
,,,,,,,,,203,89.8885,0.0354819
,,,,,,,,,224,67.4479,0.0483798
,,,,,,,,,246,112.319,0.0523468
,,,,,,,,,128,143.626,0.0229591
,,,,,,,,,145,116.027,0.0197447
,,,,,,,,,163,64.1372,0.0236382
,,,,,,,,,182,31.7274,0.024369
,,,,,,,,,202,149.202,0.018945
,,,,,,,,,223,104.277,0.024198
,,,,,,,,,245,69.4362,0.0295751
,,,,,,,,,268,82.0452,0.0310119
,,,,,,,,,162,27.8562,0.0268948
,,,,,,,,,181,146.078,0.034674
,,,,,,,,,201,118.974,0.0362695
,,,,,,,,,222,38.5465,0.0254324
,,,,,,,,,244,57.6764,0.0358921
,,,,,,,,,267,81.4169,0.0491455
,,,,,,,,,291,92.6099,0.0532445
,,,,,,,,,200,151.896,0.0278313
,,,,,,,,,221,92.2186,0.02885
,,,,,,,,,243,56.4754,0.0215468
,,,,,,,,,266,47.3153,0.0286107
,,,,,,,,,290,56.9976,0.0364452
,,,,,,,,,315,83.2878,0.0386519
,,,,,,,,,242,75.0074,0.0379937
,,,,,,,,,265,107.652,0.0262683
,,,,,,,,,289,104.596,0.0375797
,,,,,,,,,314,101.569,0.0523656
,,,,,,,,,340,68.7452,0.0570449
,,,,,,,,,288,118.824,0.0271738
,,,,,,,,,313,72.632,0.0394611
,,,,,,,,,339,38.5629,0.056092
,,,,,,,,,366,56.5124,0.0614953
,,,,,,,,,338,46.9594,0.0269614
,,,,,,,,,365,84.4406,0.0338107
,,,,,,,,,393,67.7235,0.0357015
,,,,,,,,,392,37.9452,0.0551943
,,,,,,,,,421,36.6352,0.0604181
,,,,,,,,,450,44.9021,0.110647
