"cellPairingIds","interplanarAngles","angleWeights"
18,52.0045,0.0699636
25,95.7834,0.0313895
63,98.7748,0.0568013
75,93.0307,0.145038
88,140.151,0.0291697
32,102.007,0.0262777
74,52.2612,0.0420125
73,104.244,0.0237231
86,123.958,0.0241738
115,116.084,0.0172283
128,23.2658,0.0358419
163,80.59,0.0224329
162,38.2736,0.0609607
181,83.3297,0.0228355
200,64.2562,0.0302289
