"cellPairingIds","interplanarAngles","angleWeights"
8,55.4424,0.0223771
13,92.1597,0.0231537
19,81.267,0.0230112
26,32.1011,0.0221562
34,41.7283,0.0200982
53,51.739,0.0200638
18,41.5918,0.0768335
42,57.8486,0.0510696
88,92.9023,0.044375
32,79.3341,0.0848633
62,50.179,0.111709
101,66.3284,0.0475368
50,86.1636,0.0728437
73,69.4832,0.108469
100,78.8339,0.0544528
131,87.0484,0.0739731
99,28.0636,0.049722
114,34.1838,0.0498964
113,39.7584,0.0404311
146,111.306,0.0362288
183,46.0201,0.0401096
163,49.2662,0.0541364
182,57.8678,0.0935753
162,40.6467,0.0404068
222,43.1374,0.039973
244,68.8286,0.0287907
221,91.8792,0.0504237
266,82.9891,0.0288491
242,59.4542,0.0439153
265,84.8516,0.0358606
289,63.8581,0.0265941
313,62.7953,0.0335379
338,36.0635,0.0286273
