Q	U	V
{$V$}	{[mm$^3$]}	0.0053732
{$d_v$}	{[mm]}	0.217309
{$S_c$}	{[mm$^2$]}	0.243667
{$S_o$}	{[mm$^2$]}	0.155991
{$S_l/S_o$}	[]	0.562058
{$\Psi$}	[]	0.608849
{$\eta$}	[]	0.648044
{med($\theta_e$)}	{[$^\circ$]}	67.42845
{$\Upsilon$}	[]	18
{$\Xi$}	[]	9
