Q	U	V
{$V$}	{[mm$^3$]}	0.00372264
{$d_v$}	{[mm]}	0.192287
{$S_c$}	{[mm$^2$]}	0.213099
{$S_o$}	{[mm$^2$]}	0.120054
{$S_l/S_o$}	[]	0.775026
{$\Psi$}	[]	0.545092
{$\eta$}	[]	0.605127
{med($\theta_e$)}	{[$^\circ$]}	64.9644
{$\Upsilon$}	[]	12
{$\Xi$}	[]	5
