Q	U	V
{$V$}	{[mm$^3$]}	0.0131688
{$d_v$}	{[mm]}	0.292988
{$S_c$}	{[mm$^2$]}	0.475501
{$S_o$}	{[mm$^2$]}	0.3291
{$S_l/S_o$}	[]	0.444853
{$\Psi$}	[]	0.567149
{$\eta$}	[]	0.606646
{med($\theta_e$)}	{[$^\circ$]}	73.96655
{$\Upsilon$}	[]	12
{$\Xi$}	[]	10
