"cellPairingIds","interplanarAngles","angleWeights"
8,44.7089,0.0988219
13,39.1379,0.020113
19,64.4596,0.0626712
43,71.5121,0.0257333
53,66.5979,0.0620573
18,67.9128,0.0211691
25,84.7456,0.0742062
42,46.9867,0.0573217
75,53.3074,0.0762237
41,31.1637,0.0199341
62,38.8222,0.0131614
87,94.1601,0.0189685
61,81.4262,0.0429508
86,65.0579,0.0513587
131,89.2641,0.0408032
148,86.3698,0.0249166
85,44.1744,0.0254411
114,74.657,0.0623209
130,58.9278,0.035622
129,49.7571,0.043619
183,79.0984,0.022674
224,68.4462,0.0569871
128,35.2995,0.023599
163,47.7123,0.0185574
182,94.6626,0.0210918
201,84.5719,0.0405421
200,99.1486,0.0326517
290,48.7342,0.0756331
242,65.3061,0.0276413
314,78.6648,0.0396066
288,32.5934,0.0220611
339,69.8101,0.0532673
365,52.7542,0.0290704
