Q	U	V
{$V$}	{[mm$^3$]}	0.0124967
{$d_v$}	{[mm]}	0.287916
{$S_c$}	{[mm$^2$]}	0.477178
{$S_o$}	{[mm$^2$]}	0.284469
{$S_l/S_o$}	[]	0.677434
{$\Psi$}	[]	0.545759
{$\eta$}	[]	0.566677
{med($\theta_e$)}	{[$^\circ$]}	63.404
{$\Upsilon$}	[]	12
{$\Xi$}	[]	6
