Q	U	V
{$V$}	{[mm$^3$]}	0.00695487
{$d_v$}	{[mm]}	0.236826
{$S_c$}	{[mm$^2$]}	0.281152
{$S_o$}	{[mm$^2$]}	0.183612
{$S_l/S_o$}	[]	0.531229
{$\Psi$}	[]	0.626713
{$\eta$}	[]	0.669837
{med($\theta_e$)}	{[$^\circ$]}	58.38065
{$\Upsilon$}	[]	14
{$\Xi$}	[]	10
