facetNormals:0,facetNormals:1,facetNormals:2,FacetCenters:0,FacetCenters:1,FacetCenters:2,FacetIds,relFacetSize,absFacetSize,cellPairingIds,interplanarAngles,angleWeights
-0.222263,-0.706904,-0.603958,3.26388,6.93574,6.67646,1,0.0496101,0.0102455,8,94.4952,0.0700852
-0.212277,0.659046,-0.581123,3.29399,6.96667,6.66952,2,0.119339,0.0246459,13,112.233,0.057524
0.792437,0.476361,-0.271984,3.37651,6.98008,6.63529,3,0.068442,0.0141347,19,76.9755,0.0461102
0.823647,-0.466351,-0.0966652,3.33307,6.94571,6.63389,4,0.0430716,0.00889516,26,60.5879,0.0619011
-0.592629,-0.677038,0.278413,3.16527,6.9404,6.6631,5,0.0822881,0.0169942,34,115.805,0.039299
-0.716591,0.626087,0.201043,3.16059,7.01545,6.70987,6,0.0325365,0.00671946,43,87.8107,0.0408015
-0.942665,0.0326795,0.249664,3.20958,6.98291,6.73846,7,0.0346493,0.00715578,53,163.747,0.0678777
0.434978,0.731393,0.438708,3.27892,7.00802,6.68968,8,0.107439,0.0221884,64,96.9824,0.0666034
0.458554,-0.52866,0.63138,3.25488,6.94871,6.69606,9,0.101304,0.0209213,76,113.665,0.0546885
-0.374674,-0.10149,0.85083,3.18485,6.99001,6.71756,10,0.0609251,0.0125823,18,69.5922,0.0869927
,,,,,,,,,25,119.692,0.0632978
,,,,,,,,,33,124.497,0.0974092
,,,,,,,,,42,59.3711,0.0511323
,,,,,,,,,52,85.0204,0.0537055
,,,,,,,,,63,81.0429,0.113077
,,,,,,,,,75,162.52,0.109584
,,,,,,,,,88,124.745,0.0806676
,,,,,,,,,32,60.1191,0.0528708
,,,,,,,,,41,162.954,0.0747291
,,,,,,,,,51,110.241,0.0441057
,,,,,,,,,62,148.215,0.0460071
,,,,,,,,,74,51.5492,0.0836172
,,,,,,,,,87,93.7987,0.0816919
,,,,,,,,,101,129.777,0.0644652
,,,,,,,,,50,102.85,0.0565458
,,,,,,,,,61,167.001,0.0370701
,,,,,,,,,73,151.496,0.0384041
,,,,,,,,,86,91.5869,0.0614916
,,,,,,,,,100,51.0953,0.060444
,,,,,,,,,115,112.71,0.0504659
,,,,,,,,,72,86.4475,0.046634
,,,,,,,,,85,48.7414,0.0487649
,,,,,,,,,99,134.392,0.0931965
,,,,,,,,,114,72.8378,0.0908111
,,,,,,,,,130,53.1999,0.0700132
,,,,,,,,,98,38.1595,0.0335597
,,,,,,,,,113,75.419,0.0499472
,,,,,,,,,129,125.524,0.0492538
,,,,,,,,,146,65.582,0.0424194
,,,,,,,,,128,107.224,0.0523996
,,,,,,,,,145,108.506,0.0516369
,,,,,,,,,163,51.9589,0.0441752
,,,,,,,,,162,84.2892,0.104281
,,,,,,,,,181,81.2592,0.0777569
,,,,,,,,,200,61.615,0.0760893
