Q	U	V
{$V$}	{[mm$^3$]}	0.00373689
{$d_v$}	{[mm]}	0.192532
{$S_c$}	{[mm$^2$]}	0.253327
{$S_o$}	{[mm$^2$]}	0.132926
{$S_l/S_o$}	[]	0.905775
{$\Psi$}	[]	0.459702
{$\eta$}	[]	0.501759
{med($\theta_e$)}	{[$^\circ$]}	81.8979
{$\Upsilon$}	[]	15
{$\Xi$}	[]	6
