facetNormals:0,facetNormals:1,facetNormals:2,FacetCenters:0,FacetCenters:1,FacetCenters:2,FacetIds,relFacetSize,absFacetSize,cellPairingIds,interplanarAngles,angleWeights
-0.146843,0.0167709,-0.944019,3.10405,5.26734,4.64195,1,0.0490876,0.0188385,8,41.9834,0.0481318
0.091106,-0.591623,-0.74195,3.08925,5.26958,4.62075,2,0.0472125,0.018119,13,47.0303,0.0478923
0.583091,0.0904698,-0.744493,3.15936,5.26398,4.66051,3,0.0467538,0.0179429,19,69.8896,0.0414946
0.648757,-0.547993,-0.444181,3.14696,5.22134,4.67541,4,0.0359359,0.0137913,26,57.0261,0.0257642
-0.654051,0.570255,-0.418958,3.01806,5.32824,4.74437,5,0.0174656,0.00670286,34,81.5207,0.0232751
-0.182577,0.963266,-0.101596,3.06572,5.34914,4.79463,6,0.0152539,0.00585405,43,81.1092,0.0539162
-0.178853,-0.929317,-0.138307,3.05209,5.23617,4.68854,7,0.0597986,0.0229491,53,109.317,0.0788375
0.794796,0.462619,0.199683,3.15395,5.30869,4.77645,8,0.200125,0.0768027,64,111.338,0.0645007
-0.477721,-0.731166,0.417928,3.026,5.28518,4.81168,9,0.0940235,0.0360838,76,111.186,0.0382522
-0.654484,0.532294,0.463342,3.01671,5.30087,4.81055,10,0.0313354,0.0120257,18,52.4468,0.0469821
,,,,,,,,,25,38.7154,0.0408096
,,,,,,,,,33,95.3793,0.0254985
,,,,,,,,,42,122.955,0.023058
,,,,,,,,,52,45.7587,0.0527654
,,,,,,,,,63,112.924,0.0764009
,,,,,,,,,75,85.0921,0.0628605
,,,,,,,,,88,141.524,0.0376693
,,,,,,,,,32,43.5918,0.0406373
,,,,,,,,,41,91.1185,0.0254311
,,,,,,,,,51,86.5514,0.0230029
,,,,,,,,,62,95.393,0.0524777
,,,,,,,,,74,66.4892,0.0757992
,,,,,,,,,87,135.482,0.0624527
,,,,,,,,,101,137.901,0.0375225
,,,,,,,,,50,126.61,0.0235066
,,,,,,,,,61,129.525,0.0214169
,,,,,,,,,73,60.2628,0.0448933
,,,,,,,,,86,78.9136,0.0609307
,,,,,,,,,100,95.8691,0.0519981
,,,,,,,,,115,178.503,0.0334784
,,,,,,,,,72,41.5048,0.016285
,,,,,,,,,85,112.658,0.027035
,,,,,,,,,99,112,0.0321274
,,,,,,,,,114,107.438,0.029459
,,,,,,,,,130,54.5816,0.0224296
,,,,,,,,,98,154.162,0.0243073
,,,,,,,,,113,72.4157,0.0283471
,,,,,,,,,129,133.716,0.0262492
,,,,,,,,,146,51.9163,0.0205192
,,,,,,,,,128,131.781,0.0920823
,,,,,,,,,145,40.2178,0.0731036
,,,,,,,,,163,118.674,0.0411222
,,,,,,,,,162,134.135,0.127938
,,,,,,,,,181,101.554,0.0541864
,,,,,,,,,200,82.7808,0.0470053
