"cellPairingIds","interplanarAngles","angleWeights"
8,26.456,0.0350399
19,65.8022,0.0303666
89,138.062,0.0284335
118,141.009,0.0142129
25,73.2118,0.0552606
33,47.4757,0.00969928
102,151.645,0.0491765
50,94.0486,0.00930298
73,61.5282,0.0486461
166,100.915,0.0166901
85,43.9352,0.00947319
147,131.259,0.00911317
184,145.057,0.00690035
225,92.6925,0.00919057
223,119.308,0.017246
313,29.4862,0.0160889
366,41.5749,0.0384001
421,55.5153,0.0163317
