"cellPairingIds","interplanarAngles","angleWeights"
8,36.0024,0.0664403
13,95.3094,0.0738024
19,71.8206,0.0275687
26,88.1269,0.0400312
43,95.6497,0.0272628
25,55.3969,0.0343231
33,61.6935,0.0560462
42,69.817,0.0931529
41,141.09,0.0611957
62,93.8645,0.0356627
74,93.1151,0.0586398
101,101.708,0.0487336
116,101.565,0.102785
61,74.3448,0.0312921
73,36.8243,0.0196991
72,32.8539,0.0483923
99,56.1887,0.0351074
98,94.262,0.0308986
113,66.3006,0.04678
129,40.3167,0.0580397
146,68.757,0.0402526
164,57.3393,0.0711619
163,48.2286,0.0229095
162,30.0771,0.0399214
201,46.1616,0.0457204
221,29.4479,0.0564175
242,40.6038,0.0394655
