Q	U	V
{$V$}	{[mm$^3$]}	0.00978456
{$d_v$}	{[mm]}	0.265367
{$S_c$}	{[mm$^2$]}	0.312889
{$S_o$}	{[mm$^2$]}	0.228927
{$S_l/S_o$}	[]	0.366763
{$\Psi$}	[]	0.707057
{$\eta$}	[]	0.748048
{med($\theta_e$)}	{[$^\circ$]}	68.5491
{$\Upsilon$}	[]	11
{$\Xi$}	[]	6
