facetNormals:0,facetNormals:1,facetNormals:2,FacetCenters:0,FacetCenters:1,FacetCenters:2,FacetIds,relFacetSize,absFacetSize,cellPairingIds,interplanarAngles,angleWeights
0.0749841,-0.46498,-0.838688,4.87344,4.30367,7.36876,1,0.137482,0.0402482,8,59.5079,0.055281
0.0129195,0.492766,-0.837671,4.93835,4.3405,7.436,2,0.034596,0.0101281,13,90.131,0.0489886
-0.474493,0.719697,-0.438897,4.90517,4.34692,7.43788,3,0.0298044,0.00872532,19,54.0274,0.104652
0.674824,0.153915,-0.677488,4.96469,4.36578,7.39779,4,0.0844795,0.0247317,26,39.4137,0.0937395
0.280538,-0.856276,-0.35993,4.91292,4.23412,7.43868,5,0.0711136,0.0208187,34,55.7089,0.078159
0.767376,-0.539968,-0.261414,5.01505,4.29809,7.45585,6,0.0545996,0.0159842,43,123.302,0.113237
0.223724,0.904247,0.109284,4.95715,4.40146,7.45111,7,0.0962615,0.0281809,53,76.0962,0.0476256
-0.561422,-0.780672,0.115706,4.8367,4.22709,7.50061,8,0.0288014,0.00843171,64,135.724,0.0672208
-0.576792,0.704314,0.362616,4.84425,4.40836,7.40213,9,0.044486,0.0130234,76,92.7342,0.0346882
-0.0665706,-0.822457,0.502898,4.89968,4.23045,7.54185,10,0.0198481,0.00581059,89,112.116,0.035815
-0.681392,-0.405581,0.590948,4.84017,4.23451,7.50266,11,0.0205893,0.00602759,103,108.76,0.10661
0.548066,-0.434516,0.639456,4.98405,4.28451,7.53132,12,0.0870607,0.0254873,118,139.152,0.0635886
-0.684092,0.262856,0.633548,4.81486,4.32499,7.42074,13,0.0413591,0.012108,134,174.122,0.0323589
-0.0923181,0.558524,0.802681,4.91404,4.33471,7.42812,14,0.0183375,0.00536837,151,157.838,0.0434557
0.153223,0.190456,0.948871,4.96049,4.32792,7.50202,15,0.0258064,0.0075549,18,40.3843,0.0320219
,,,,,,,,,25,46.1566,0.049089
,,,,,,,,,33,97.1154,0.0465472
,,,,,,,,,42,92.251,0.0423547
,,,,,,,,,52,66.9493,0.050899
,,,,,,,,,63,121.287,0.0314339
,,,,,,,,,75,87.8424,0.0389226
,,,,,,,,,88,151.758,0.0252246
,,,,,,,,,102,137.061,0.0258151
,,,,,,,,,117,143.738,0.0495156
,,,,,,,,,133,115.815,0.0376765
,,,,,,,,,150,114.662,0.0239699
,,,,,,,,,168,137.221,0.0295616
,,,,,,,,,32,84.6154,0.0440632
,,,,,,,,,41,129.057,0.0420043
,,,,,,,,,51,132.618,0.0385599
,,,,,,,,,62,56.8091,0.0455161
,,,,,,,,,74,111.689,0.0292943
,,,,,,,,,87,49.0367,0.0356944
,,,,,,,,,101,146.675,0.023828
,,,,,,,,,116,103.785,0.0243543
,,,,,,,,,132,158.585,0.0444066
,,,,,,,,,149,75.4317,0.0346437
,,,,,,,,,167,84.3539,0.0227053
,,,,,,,,,186,111.806,0.0276616
,,,,,,,,,50,71.2956,0.0772225
,,,,,,,,,61,49.568,0.0663298
,,,,,,,,,73,76.237,0.0899865
,,,,,,,,,86,127.991,0.0429575
,,,,,,,,,100,123.693,0.0582816
,,,,,,,,,115,123.181,0.032144
,,,,,,,,,131,164.413,0.0331093
,,,,,,,,,148,98.1584,0.0857507
,,,,,,,,,166,155.007,0.0555314
,,,,,,,,,185,123.145,0.030134
,,,,,,,,,205,122.516,0.0395356
,,,,,,,,,72,35.2587,0.0617719
,,,,,,,,,85,145.597,0.0817983
,,,,,,,,,99,60.0386,0.0409983
,,,,,,,,,114,160.347,0.0547331
,,,,,,,,,130,57.4428,0.0310343
,,,,,,,,,147,93.3796,0.0319331
,,,,,,,,,165,71.244,0.0782833
,,,,,,,,,184,133.332,0.0523006
,,,,,,,,,204,146.319,0.0291566
,,,,,,,,,225,119.048,0.0378701
,,,,,,,,,98,112.198,0.0696778
,,,,,,,,,113,92.4016,0.0377105
,,,,,,,,,129,164.045,0.0490267
,,,,,,,,,146,73.8663,0.029113
,,,,,,,,,164,118.414,0.0299025
,,,,,,,,,183,58.0821,0.067111
,,,,,,,,,203,151.917,0.0470659
,,,,,,,,,224,127.488,0.0274544
,,,,,,,,,246,104.149,0.0350476
,,,,,,,,,128,154.353,0.0443372
,,,,,,,,,145,53.4396,0.0608507
,,,,,,,,,163,140.93,0.0329104
,,,,,,,,,182,119.349,0.0339229
,,,,,,,,,202,103.031,0.0914302
,,,,,,,,,223,80.2495,0.0578589
,,,,,,,,,245,51.6088,0.0308065
,,,,,,,,,268,70.2733,0.0407013
,,,,,,,,,162,101.183,0.0349654
,,,,,,,,,181,37.9868,0.0235009
,,,,,,,,,201,36.74,0.0240127
,,,,,,,,,222,83.3992,0.0432837
,,,,,,,,,244,74.4093,0.0339565
,,,,,,,,,267,107.832,0.0224081
,,,,,,,,,291,97.5637,0.0272218
,,,,,,,,,200,112.248,0.0274493
,,,,,,,,,221,70.615,0.0281501
,,,,,,,,,243,114.852,0.0588838
,,,,,,,,,266,31.4945,0.0428656
,,,,,,,,,290,39.9656,0.02597
,,,,,,,,,315,66.0456,0.0326642
,,,,,,,,,242,44.9675,0.0202119
,,,,,,,,,265,45.4469,0.0323264
,,,,,,,,,289,80.9057,0.0268236
,,,,,,,,,314,92.9925,0.0190629
,,,,,,,,,340,70.8669,0.0224384
,,,,,,,,,288,78.8852,0.0333028
,,,,,,,,,313,39.9976,0.0274924
,,,,,,,,,339,71.3444,0.0193983
,,,,,,,,,366,66.9706,0.0229045
,,,,,,,,,338,95.2509,0.0560779
,,,,,,,,,365,76.3292,0.0302942
,,,,,,,,,393,49.0997,0.0398118
,,,,,,,,,392,40.9652,0.0254093
,,,,,,,,,421,54.8563,0.0317821
,,,,,,,,,450,27.4768,0.0214401
