"cellPairingIds","interplanarAngles","angleWeights"
8,29.4552,0.0205229
13,49.3804,0.023401
26,91.0945,0.0227686
34,69.258,0.0217025
103,161.126,0.0199191
25,26.147,0.0405106
33,67.5487,0.0624083
42,66.3905,0.0550026
52,65.5239,0.0299889
88,111.8,0.0491713
51,52.8978,0.0820472
87,77.74,0.0713949
116,89.117,0.118623
132,126.14,0.0612986
61,49.3551,0.0453793
73,39.8885,0.0268809
130,46.3227,0.0643865
165,93.2982,0.0571409
98,48.4429,0.0325762
113,33.5186,0.0338394
164,53.4352,0.084929
128,24.2222,0.0223633
163,76.3786,0.0304383
182,56.0431,0.0371206
201,35.6197,0.0387698
200,96.3499,0.0512632
221,56.1473,0.073567
243,49.6405,0.0465624
242,82.3517,0.0717842
265,49.797,0.0458418
