Q	U	V
{$V$}	{[mm$^3$]}	0.00889397
{$d_v$}	{[mm]}	0.257059
{$S_c$}	{[mm$^2$]}	0.380355
{$S_o$}	{[mm$^2$]}	0.232049
{$S_l/S_o$}	[]	0.639115
{$\Psi$}	[]	0.54579
{$\eta$}	[]	0.565204
{med($\theta_e$)}	{[$^\circ$]}	50.1843
{$\Upsilon$}	[]	17
{$\Xi$}	[]	13
