Q	U	V
{$V$}	{[mm$^3$]}	0.0168997
{$d_v$}	{[mm]}	0.318391
{$S_c$}	{[mm$^2$]}	0.643777
{$S_o$}	{[mm$^2$]}	0.415633
{$S_l/S_o$}	[]	0.548907
{$\Psi$}	[]	0.494692
{$\eta$}	[]	0.508530
{med($\theta_e$)}	{[$^\circ$]}	67.0799
{$\Upsilon$}	[]	14
{$\Xi$}	[]	13
