facetNormals:0,facetNormals:1,facetNormals:2,FacetCenters:0,FacetCenters:1,FacetCenters:2,FacetIds,relFacetSize,absFacetSize,cellPairingIds,interplanarAngles,angleWeights
0.356183,-0.452859,-0.702416,4.50244,6.44981,8.01968,1,0.0601123,0.0159219,8,48.752,0.0252217
0.299027,0.303794,-0.87162,4.51214,6.55701,8.01485,2,0.0159588,0.00422701,13,55.5454,0.0369335
-0.522811,-0.388693,-0.73099,4.39104,6.42099,7.99125,3,0.0266554,0.0070602,19,88.7052,0.066936
-0.629373,0.382826,-0.593608,4.48463,6.51195,8.02615,4,0.0755072,0.0199996,26,98.7413,0.0583477
0.00678908,0.855703,-0.365355,4.57488,6.60417,8.05111,5,0.0566838,0.0150138,34,71.8804,0.0296882
0.896146,0.276284,-0.103188,4.60103,6.56215,8.04286,6,0.0197117,0.00522104,43,131.976,0.0678549
-0.743964,0.618163,0.0626855,4.43411,6.56395,8.05341,7,0.0778868,0.0206299,53,102.598,0.0357689
-0.888904,-0.39742,0.0811108,4.36587,6.42985,8.03797,8,0.0254589,0.0067433,64,155.369,0.0644275
-0.711532,0.396196,0.519371,4.44537,6.5278,8.10196,9,0.0694102,0.0183847,76,82.6031,0.0503464
0.698165,-0.479667,0.499532,4.60035,6.47686,8.11279,10,0.0433101,0.0114716,89,93.9409,0.0783403
0.0161545,-0.734528,0.564091,4.48348,6.40073,8.09539,11,0.112434,0.0297804,103,163.999,0.053918
-0.200928,0.342951,0.898554,4.48735,6.54535,8.11944,12,0.0488811,0.0129471,118,141.729,0.0722663
0.238784,0.383271,0.862892,4.57121,6.56642,8.12117,13,0.0905807,0.0239921,18,67.555,0.0199646
,,,,,,,,,25,60.9661,0.0263487
,,,,,,,,,33,49.9894,0.0249057
,,,,,,,,,42,61.1388,0.0176378
,,,,,,,,,52,95.4491,0.0264899
,,,,,,,,,63,118.836,0.0196193
,,,,,,,,,75,125.565,0.025951
,,,,,,,,,88,112.97,0.0233235
,,,,,,,,,102,142.184,0.0279504
,,,,,,,,,117,140.83,0.0240619
,,,,,,,,,133,126.666,0.0271366
,,,,,,,,,32,48.4716,0.0394014
,,,,,,,,,41,94.3488,0.0362597
,,,,,,,,,51,122.805,0.0226636
,,,,,,,,,62,83.7786,0.039718
,,,,,,,,,74,54.1797,0.0260434
,,,,,,,,,87,99.8415,0.0385186
,,,,,,,,,101,124.379,0.0330005
,,,,,,,,,116,98.5783,0.0430941
,,,,,,,,,132,135.406,0.0344984
,,,,,,,,,149,161.546,0.0411897
,,,,,,,,,50,52.1453,0.0647553
,,,,,,,,,61,116.409,0.0312622
,,,,,,,,,73,43.2736,0.0766785
,,,,,,,,,86,67.136,0.0380787
,,,,,,,,,100,71.4186,0.0723304
,,,,,,,,,115,171.268,0.0550463
,,,,,,,,,131,135.61,0.0903429
,,,,,,,,,148,107.249,0.0593444
,,,,,,,,,166,124.041,0.0823599
,,,,,,,,,72,71.3854,0.0292513
,,,,,,,,,85,56.2542,0.0656149
,,,,,,,,,99,114.412,0.0351366
,,,,,,,,,114,80.7517,0.0624048
,,,,,,,,,130,130.005,0.0491026
,,,,,,,,,147,165.529,0.0753698
,,,,,,,,,165,92.2687,0.0524941
,,,,,,,,,184,89.0942,0.0697311
,,,,,,,,,98,123.324,0.0314612
,,,,,,,,,113,172.914,0.0222197
,,,,,,,,,129,129.673,0.0307039
,,,,,,,,,146,61.5772,0.0270927
,,,,,,,,,164,106.396,0.0335427
,,,,,,,,,183,101.073,0.0280942
,,,,,,,,,203,75.4495,0.0323776
,,,,,,,,,128,63.6254,0.0383744
,,,,,,,,,145,30.4861,0.0734046
,,,,,,,,,163,145.4,0.0556662
,,,,,,,,,182,118.667,0.0920249
,,,,,,,,,202,63.9789,0.0600655
,,,,,,,,,223,83.1026,0.0837555
,,,,,,,,,162,56.7725,0.0372536
,,,,,,,,,181,113.912,0.0320676
,,,,,,,,,201,69.0697,0.0415169
,,,,,,,,,222,83.1084,0.0334802
,,,,,,,,,244,108.034,0.0397465
,,,,,,,,,200,116.739,0.0533385
,,,,,,,,,221,90.6108,0.0858325
,,,,,,,,,243,38.2287,0.0573642
,,,,,,,,,266,62.7924,0.0785948
,,,,,,,,,242,44.8848,0.0625325
,,,,,,,,,265,81.4246,0.0459273
,,,,,,,,,289,64.394,0.0586009
,,,,,,,,,288,73.9441,0.0681386
,,,,,,,,,313,76.5986,0.100331
,,,,,,,,,338,26.1689,0.0634967
