"cellPairingIds","interplanarAngles","angleWeights"
8,42.3655,0.0524572
13,70.938,0.0387241
19,26.9927,0.053279
18,96.5328,0.0421132
25,61.4763,0.0599127
33,37.7497,0.0344474
52,34.1688,0.0691197
63,94.0458,0.0864177
32,81.6494,0.0426412
51,31.622,0.0384869
74,82.8324,0.0545487
116,76.8365,0.0428454
50,33.1173,0.0347999
61,54.2706,0.052831
115,96.2282,0.0195917
131,94.6424,0.0614056
85,63.3804,0.0377182
130,74.9538,0.0157776
164,68.0305,0.0531448
128,68.9926,0.110444
145,55.1816,0.0812897
163,72.9199,0.0204839
162,49.2405,0.106318
201,107.672,0.0895584
200,53.2487,0.0203375
221,112.633,0.0693808
242,96,0.0196347
