facetNormals:0,facetNormals:1,facetNormals:2,FacetCenters:0,FacetCenters:1,FacetCenters:2,FacetIds,relFacetSize,absFacetSize,cellPairingIds,interplanarAngles,angleWeights
0.219398,-0.0582233,-0.93634,5.34949,7.28421,5.20142,1,0.0425549,0.00773576,8,35.5178,0.0291175
-0.161703,-0.501958,-0.830878,5.34598,7.28901,5.23772,2,0.0221297,0.00402281,13,53.4789,0.0396261
-0.615013,-0.213402,-0.729602,5.26978,7.28921,5.21507,3,0.0370744,0.00673952,19,71.3122,0.0319381
-0.753152,0.293287,-0.509753,5.26529,7.35014,5.26208,4,0.0255611,0.00464658,26,47.8736,0.0255068
0.185723,-0.773214,-0.593098,5.35738,7.29047,5.17802,5,0.0182111,0.00331048,34,73.3982,0.0416501
-0.699304,-0.547131,-0.418405,5.24723,7.28008,5.24404,6,0.040783,0.00741368,43,46.0523,0.0546574
0.797601,-0.212875,-0.482796,5.44699,7.30326,5.23244,7,0.0763795,0.0138845,53,86.0715,0.0626255
-0.454965,-0.816594,-0.122288,5.30229,7.23614,5.27043,8,0.118528,0.0215465,64,73.7905,0.0455229
0.7128,-0.655999,-0.071191,5.42867,7.23934,5.2678,9,0.0489361,0.00889576,76,89.8031,0.0482931
0.938412,0.0317045,0.214506,5.46204,7.33553,5.28662,10,0.05582,0.0101471,89,113.614,0.0365008
0.414948,-0.699971,0.544253,5.37872,7.23308,5.31948,11,0.0319548,0.00580885,103,141.313,0.0528094
0.174824,0.53793,0.783955,5.38079,7.37308,5.33928,12,0.0695751,0.0126476,118,159.645,0.0547343
-0.513892,0.129958,0.786425,5.26628,7.31902,5.32771,13,0.0766807,0.0139393,134,162.543,0.0663435
-0.0174848,-0.150658,0.936204,5.33968,7.30493,5.34478,14,0.150442,0.0273479,18,32.3653,0.0277159
,,,,,,,,,25,64.9535,0.0237219
,,,,,,,,,33,29.3583,0.0199801
,,,,,,,,,42,40.4227,0.0286911
,,,,,,,,,52,66.251,0.0343167
,,,,,,,,,63,50.9038,0.0372961
,,,,,,,,,75,73.3947,0.0304772
,,,,,,,,,88,111.403,0.0316943
,,,,,,,,,102,100.04,0.0261498
,,,,,,,,,117,176.592,0.033579
,,,,,,,,,133,132.919,0.034347
,,,,,,,,,150,138.536,0.0385838
,,,,,,,,,32,34.2283,0.0302596
,,,,,,,,,41,60.102,0.0244247
,,,,,,,,,51,27.3979,0.0388404
,,,,,,,,,62,95.699,0.0499185
,,,,,,,,,74,53.8878,0.0564819
,,,,,,,,,87,105.039,0.0421873
,,,,,,,,,101,141.831,0.0445558
,,,,,,,,,116,121.694,0.0343248
,,,,,,,,,132,147.172,0.0483726
,,,,,,,,,149,107.928,0.0499827
,,,,,,,,,167,133.654,0.0594887
,,,,,,,,,50,93.8905,0.021269
,,,,,,,,,61,51.841,0.0314258
,,,,,,,,,73,117.153,0.0383035
,,,,,,,,,86,79.4139,0.0420532
,,,,,,,,,100,138.295,0.0335814
,,,,,,,,,115,151.24,0.0350651
,,,,,,,,,131,148.224,0.0284025
,,,,,,,,,148,113.851,0.0373867
,,,,,,,,,166,88.4653,0.0383413
,,,,,,,,,185,124.112,0.0436976
,,,,,,,,,72,56.2249,0.0251789
,,,,,,,,,85,50.8418,0.02941
,,,,,,,,,99,48.5221,0.0315715
,,,,,,,,,114,44.9601,0.0265441
,,,,,,,,,130,88.6478,0.0274626
,,,,,,,,,147,72.2854,0.0232003
,,,,,,,,,165,152.215,0.0288665
,,,,,,,,,184,134.75,0.0294323
,,,,,,,,,204,118.022,0.0324894
,,,,,,,,,98,104.769,0.0531738
,,,,,,,,,113,28.1225,0.0606855
,,,,,,,,,129,96.6107,0.0444891
,,,,,,,,,146,143.847,0.0471312
,,,,,,,,,164,98.0715,0.0358332
,,,,,,,,,183,141.694,0.0514232
,,,,,,,,,203,92.5109,0.0532466
,,,,,,,,,224,108.609,0.0641703
,,,,,,,,,128,98.291,0.0928966
,,,,,,,,,145,36.9304,0.0596528
,,,,,,,,,163,46.1443,0.064501
,,,,,,,,,182,76.5848,0.0450585
,,,,,,,,,202,112.485,0.0728187
,,,,,,,,,223,154.296,0.0765298
,,,,,,,,,245,118.578,0.101319
,,,,,,,,,162,76.0929,0.0692722
,,,,,,,,,181,121.844,0.0758969
,,,,,,,,,201,69.9606,0.0503385
,,,,,,,,,222,132.412,0.0876818
,,,,,,,,,244,87.9804,0.0931191
,,,,,,,,,267,88.9429,0.132592
,,,,,,,,,200,47.4337,0.0521518
,,,,,,,,,221,41.1318,0.038663
,,,,,,,,,243,107.61,0.0574584
,,,,,,,,,266,123.433,0.0597445
,,,,,,,,,290,88.7735,0.0738501
,,,,,,,,,242,59.1181,0.040643
,,,,,,,,,265,67.9675,0.0619431
,,,,,,,,,289,109.801,0.0646082
,,,,,,,,,314,78.6584,0.0814272
,,,,,,,,,288,82.5517,0.0437951
,,,,,,,,,313,82.3366,0.0451108
,,,,,,,,,339,49.1132,0.052713
,,,,,,,,,338,49.4039,0.0729553
,,,,,,,,,365,44.8634,0.0951473
,,,,,,,,,392,36.2181,0.101584
