"cellPairingIds","interplanarAngles","angleWeights"
8,87.5405,0.070837
13,51.1885,0.0303375
19,97.8511,0.0996864
43,52.6092,0.0627598
118,99.4185,0.0930795
25,69.4218,0.0796788
75,48.0777,0.0402714
133,109.133,0.075401
32,72.202,0.0318512
62,85.1752,0.0268109
149,121.136,0.0311448
100,72.6543,0.048202
166,162.595,0.108968
223,46.9605,0.0663161
266,93.3266,0.0466025
