"cellPairingIds","interplanarAngles","angleWeights"
8,35.4275,0.0360864
19,38.0531,0.0396272
26,57.4555,0.0831782
34,78.2123,0.0270516
76,52.4442,0.018864
18,37.8887,0.0383263
25,39.8665,0.0245353
42,73.2205,0.0190517
52,67.1209,0.0226447
32,40.0753,0.0423448
62,86.1949,0.0370118
116,66.6982,0.020206
149,56.3267,0.0549575
206,66.8488,0.0168191
115,73.2791,0.0151384
226,81.5802,0.0134912
72,28.3373,0.027174
130,62.8183,0.0189234
98,21.0061,0.0187212
146,90.5103,0.0128554
183,105.025,0.0287082
246,72.913,0.0287734
182,52.6094,0.0148019
268,61.0527,0.0378417
265,56.9742,0.0196549
367,122.865,0.00981374
313,30.6142,0.0170252
366,33.8815,0.0204508
394,74.1292,0.0100003
393,98.703,0.127492
422,95.489,0.0169656
451,43.9517,0.0145555
512,78.2131,0.0169884
