"cellPairingIds","interplanarAngles","angleWeights"
8,82.8441,0.0180042
13,53.009,0.0494934
19,85.2028,0.0179232
43,62.0115,0.018615
53,115.351,0.0221093
18,71.6828,0.0250281
25,25.8245,0.0132373
33,40.524,0.0188965
41,73.7397,0.0568765
62,75.9634,0.0262244
101,94.2236,0.110636
50,59.0012,0.0188073
86,46.0422,0.0153301
99,79.4554,0.0234703
130,64.2259,0.0454475
128,137.849,0.0158334
163,96.5515,0.0234996
182,107.864,0.0227197
181,100.877,0.0293567
201,56.9893,0.0281495
242,53.7798,0.0670202
