Q	U	V
{$V$}	{[mm$^3$]}	0.00440543
{$d_v$}	{[mm]}	0.203390
{$S_c$}	{[mm$^2$]}	0.200546
{$S_o$}	{[mm$^2$]}	0.124398
{$S_l/S_o$}	[]	0.612132
{$\Psi$}	[]	0.648031
{$\eta$}	[]	0.685459
{med($\theta_e$)}	{[$^\circ$]}	53.8912
{$\Upsilon$}	[]	19
{$\Xi$}	[]	6
