Q	U	V
{$V$}	{[mm$^3$]}	0.0110136
{$d_v$}	{[mm]}	0.276043
{$S_c$}	{[mm$^2$]}	0.441223
{$S_o$}	{[mm$^2$]}	0.28098
{$S_l/S_o$}	[]	0.570300
{$\Psi$}	[]	0.542557
{$\eta$}	[]	0.598219
{med($\theta_e$)}	{[$^\circ$]}	67.6433
{$\Upsilon$}	[]	11
{$\Xi$}	[]	14
