facetNormals:0,facetNormals:1,facetNormals:2,FacetCenters:0,FacetCenters:1,FacetCenters:2,FacetIds,relFacetSize,absFacetSize,cellPairingIds,interplanarAngles,angleWeights
-0.403512,0.112607,-0.886529,2.8094,6.48207,6.52336,1,0.0270191,0.00286532,8,29.3973,0.017062
-0.173616,0.551981,-0.810449,2.79288,6.53326,6.56634,2,0.0124675,0.00132215,13,27.6948,0.0381162
-0.764934,0.103432,-0.590394,2.8159,6.51545,6.53023,3,0.0646814,0.00685933,19,52.118,0.0224546
-0.680141,0.645177,-0.271272,2.78808,6.56202,6.59836,4,0.0192094,0.00203712,26,72.9454,0.0423606
-0.400126,-0.851256,-0.240973,2.82258,6.43296,6.56454,5,0.098012,0.010394,34,72.4369,0.0291137
-0.0900573,0.961593,-0.163809,2.80671,6.57173,6.63012,6,0.0315604,0.00334691,43,124.022,0.010486
0.93341,0.187726,0.2012,2.87727,6.55053,6.62268,7,0.00650535,0.00068988,53,68.2276,0.043572
-0.954935,-0.16905,0.015272,2.7664,6.49032,6.62405,8,0.112483,0.0119286,64,102.82,0.0309036
-0.141753,-0.961328,0.185173,2.89014,6.42772,6.64425,9,0.0360926,0.00382754,76,80.3048,0.0318257
-0.729982,0.607995,0.227529,2.78971,6.56413,6.64056,10,0.0387124,0.00410538,89,105.765,0.0394286
0.201734,-0.942418,0.079054,2.86912,6.42794,6.59891,11,0.0729193,0.00773294,103,106.515,0.0192362
0.555019,0.775083,0.149196,2.87966,6.55595,6.64256,12,0.0149344,0.00158376,118,91.3558,0.0288125
-0.31703,0.882765,0.282061,2.82185,6.57756,6.64767,13,0.0308608,0.00327273,134,105.578,0.0178188
0.000225133,0.907167,0.410939,2.83002,6.5797,6.64206,14,0.0132925,0.00140965,151,143.575,0.0386059
0.157922,-0.638503,0.705276,2.8325,6.46468,6.6881,15,0.0675917,0.00716796,169,140.787,0.0401756
0.210973,0.502966,0.791805,2.85953,6.5413,6.69504,16,0.0783042,0.008304,188,177.232,0.0132506
0.368025,-0.13278,0.915455,2.86849,6.49875,6.70358,17,0.00877766,0.000930853,208,141.005,0.0402096
-0.23445,-0.246437,0.91263,2.86569,6.47997,6.69979,18,0.0785631,0.00833146,18,46.317,0.0209054
,,,,,,,,,25,44.425,0.015121
,,,,,,,,,33,102.247,0.0221211
,,,,,,,,,42,45.8743,0.0178741
,,,,,,,,,52,103.213,0.00854964
,,,,,,,,,63,86.4323,0.022447
,,,,,,,,,75,131.762,0.0185331
,,,,,,,,,88,73.3987,0.0188608
,,,,,,,,,102,130.024,0.0212942
,,,,,,,,,117,77.3422,0.0135899
,,,,,,,,,133,71.2379,0.0177601
,,,,,,,,,150,80.2673,0.0128668
,,,,,,,,,168,172.192,0.0210519
,,,,,,,,,187,114.741,0.0215102
,,,,,,,,,207,152.468,0.0103022
,,,,,,,,,228,149.417,0.0215199
,,,,,,,,,32,38.0195,0.0296217
,,,,,,,,,41,67.553,0.0779326
,,,,,,,,,51,73.8333,0.0424217
,,,,,,,,,62,149.326,0.0118217
,,,,,,,,,74,41.68,0.0821334
,,,,,,,,,87,95.9905,0.0463318
,,,,,,,,,101,59.1406,0.0484357
,,,,,,,,,116,108.518,0.0685538
,,,,,,,,,132,117.465,0.024266
,,,,,,,,,149,79.8776,0.0417851
,,,,,,,,,167,98.8537,0.022053
,,,,,,,,,186,130.065,0.0661046
,,,,,,,,,206,128.123,0.0708439
,,,,,,,,,227,149.748,0.0154576
,,,,,,,,,249,113.999,0.0709497
,,,,,,,,,50,102.909,0.032123
,,,,,,,,,61,40.5803,0.0238826
,,,,,,,,,73,126.756,0.00971925
,,,,,,,,,86,55.4893,0.0328149
,,,,,,,,,100,126.486,0.0250739
,,,,,,,,,115,29.8321,0.0256775
,,,,,,,,,131,144.331,0.0304083
,,,,,,,,,148,84.9982,0.0168043
,,,,,,,,,166,42.1528,0.0236795
,,,,,,,,,185,60.8345,0.0157124
,,,,,,,,,205,139.034,0.0299166
,,,,,,,,,226,92.0633,0.0308506
,,,,,,,,,248,126.97,0.0120494
,,,,,,,,,271,105.068,0.0308707
,,,,,,,,,72,141.371,0.0477462
,,,,,,,,,85,128.003,0.0122009
,,,,,,,,,99,56.3154,0.10475
,,,,,,,,,114,30.1651,0.0527574
,,,,,,,,,130,107.188,0.0555026
,,,,,,,,,147,41.5697,0.0836238
,,,,,,,,,165,168.414,0.0259194
,,,,,,,,,184,136.738,0.0469413
,,,,,,,,,204,154.3,0.0234102
,,,,,,,,,225,70.642,0.0800078
,,,,,,,,,247,138.887,0.0870567
,,,,,,,,,270,105.285,0.0161123
,,,,,,,,,294,84.924,0.0872165
,,,,,,,,,98,86.1807,0.0107872
,,,,,,,,,113,94.7732,0.0492908
,,,,,,,,,129,166.43,0.0336747
,,,,,,,,,146,50.1563,0.0347724
,,,,,,,,,164,171.696,0.0440537
,,,,,,,,,183,44.7838,0.0202747
,,,,,,,,,203,29.9666,0.0312067
,,,,,,,,,224,34.3974,0.0187064
,,,,,,,,,246,141.93,0.0430292
,,,,,,,,,269,69.1685,0.0449883
,,,,,,,,,293,108.583,0.0137352
,,,,,,,,,318,112.516,0.0450309
,,,,,,,,,128,167.097,0.0122994
,,,,,,,,,145,106.632,0.0110238
,,,,,,,,,163,123.267,0.0111389
,,,,,,,,,182,88.3382,0.0119451
,,,,,,,,,202,42.3834,0.00906293
,,,,,,,,,223,94.4197,0.0107456
,,,,,,,,,245,74.8557,0.00873554
,,,,,,,,,268,79.598,0.0118684
,,,,,,,,,292,61.2065,0.0120127
,,,,,,,,,317,58.7367,0.00747258
,,,,,,,,,343,94.9317,0.0120158
,,,,,,,,,162,71.7347,0.0546496
,,,,,,,,,181,50.8825,0.0576008
,,,,,,,,,201,91.9626,0.0884798
,,,,,,,,,222,134.74,0.0263679
,,,,,,,,,244,80.4372,0.0484334
,,,,,,,,,267,98.7713,0.0237754
,,,,,,,,,291,91.9664,0.0844418
,,,,,,,,,316,107.113,0.092332
,,,,,,,,,342,109.041,0.0162845
,,,,,,,,,369,72.7909,0.0925118
,,,,,,,,,200,117.011,0.0373566
,,,,,,,,,221,21.1697,0.0482855
,,,,,,,,,243,146.523,0.0211269
,,,,,,,,,266,140.858,0.0332723
,,,,,,,,,290,143.903,0.0194294
,,,,,,,,,315,40.8123,0.0470575
,,,,,,,,,341,112.685,0.0494105
,,,,,,,,,368,75.5951,0.0141211
,,,,,,,,,396,62.8838,0.0494619
,,,,,,,,,242,138.023,0.0505749
,,,,,,,,,265,83.9077,0.0215538
,,,,,,,,,289,29.5548,0.0343436
,,,,,,,,,314,48.4812,0.0197899
,,,,,,,,,340,111.352,0.0492293
,,,,,,,,,367,69.3032,0.0518105
,,,,,,,,,395,98.3415,0.0143105
,,,,,,,,,424,76.0753,0.0518671
,,,,,,,,,288,130.557,0.0247913
,,,,,,,,,313,157.271,0.0433676
,,,,,,,,,339,148.645,0.0224861
,,,,,,,,,366,42.3369,0.0701545
,,,,,,,,,394,113.373,0.0755159
,,,,,,,,,423,73.604,0.0156691
,,,,,,,,,453,74.1584,0.0756361
,,,,,,,,,338,54.3866,0.0201282
,,,,,,,,,365,37.2856,0.0140657
,,,,,,,,,393,108.939,0.0244636
,,,,,,,,,422,47.6427,0.0250846
,,,,,,,,,452,75.6597,0.0110567
,,,,,,,,,483,101.351,0.0250978
,,,,,,,,,392,19.9942,0.0185815
,,,,,,,,,421,116.048,0.0423744
,,,,,,,,,451,50.3863,0.044273
,,,,,,,,,482,88.5705,0.0136678
,,,,,,,,,514,83.1245,0.0443143
,,,,,,,,,450,107.535,0.0222161
,,,,,,,,,481,35.277,0.022727
,,,,,,,,,513,75.0471,0.0105733
,,,,,,,,,546,81.0187,0.0227379
,,,,,,,,,512,73.0314,0.0725546
,,,,,,,,,545,34.783,0.0155376
,,,,,,,,,579,35.5726,0.0726656
,,,,,,,,,578,39.7704,0.0157858
,,,,,,,,,613,54.0916,0.0784334
,,,,,,,,,648,36.2541,0.015791
