"cellPairingIds","interplanarAngles","angleWeights"
8,74.9552,0.0782576
13,51.5469,0.0561898
19,67.788,0.0349721
26,66.8388,0.0363197
34,75.6469,0.0363461
43,116.317,0.0957154
42,75.7954,0.030209
52,45.3607,0.0623555
102,66.7754,0.0462268
32,47.6804,0.0255088
51,24.7806,0.0262321
50,49.9517,0.0204338
61,56.5599,0.0204421
86,49.3694,0.0317667
100,46.893,0.0257236
85,151.022,0.0324759
99,46.0233,0.0328747
204,90.4909,0.0349151
129,28.2028,0.0264593
146,38.6638,0.0252387
164,64.208,0.0274971
182,51.4769,0.0518086
223,59.3346,0.0886742
245,86.9052,0.0865406
162,69.2345,0.0491286
222,72.2814,0.0317429
267,49.599,0.0894311
200,28.4383,0.0338091
243,46.8834,0.025708
242,33.8617,0.0355221
265,27.6466,0.0245542
288,33.4318,0.0266866
313,36.3405,0.0592675
338,28.7814,0.0339588
365,43.7081,0.0336412
392,33.893,0.109576
