Q	U	V
{$V$}	{[mm$^3$]}	0.0043888
{$d_v$}	{[mm]}	0.203134
{$S_c$}	{[mm$^2$]}	0.224693
{$S_o$}	{[mm$^2$]}	0.122352
{$S_l/S_o$}	[]	0.836447
{$\Psi$}	[]	0.576933
{$\eta$}	[]	0.596863
{med($\theta_e$)}	{[$^\circ$]}	84.7889
{$\Upsilon$}	[]	11
{$\Xi$}	[]	7
