facetNormals:0,facetNormals:1,facetNormals:2,FacetCenters:0,FacetCenters:1,FacetCenters:2,FacetIds,relFacetSize,absFacetSize,cellPairingIds,interplanarAngles,angleWeights
0.412895,0.131992,-0.876152,5.23459,7.36026,3.76876,1,0.0413288,0.00502388,8,31.3336,0.0259684
-0.0497293,0.387158,-0.899859,5.21381,7.38988,3.76538,2,0.018932,0.00230135,13,37.569,0.0467646
0.0491594,-0.378838,-0.892098,5.22902,7.30028,3.76211,3,0.0538467,0.00654554,19,29.8024,0.0155443
0.64459,-0.281735,-0.698311,5.23793,7.36165,3.77083,4,0.00957227,0.00116359,26,76.8482,0.0541332
-0.75538,-0.0214649,-0.604947,5.16319,7.33988,3.79198,5,0.078433,0.00953423,34,60.8839,0.0350179
0.157047,-0.782956,-0.579616,5.24218,7.31553,3.82012,6,0.030379,0.00369283,43,59.1934,0.0385499
-0.224091,0.776078,-0.545706,5.22314,7.44417,3.80026,7,0.0361212,0.00439085,53,84.4664,0.053437
-0.302262,-0.842429,-0.373703,5.22463,7.26684,3.8107,8,0.0755796,0.00918737,64,116.906,0.0244059
-0.891023,-0.401139,0.013054,5.16426,7.32866,3.84159,9,0.0173156,0.00210487,76,79.6976,0.0365027
0.767444,-0.525313,0.0959719,5.23423,7.42769,3.86799,10,0.0326858,0.00397325,89,70.538,0.0187043
0.792963,0.549337,0.0960831,5.27162,7.35961,3.8165,11,0.0120873,0.00146932,103,102.991,0.0686876
-0.730837,0.617167,-0.0115126,5.18596,7.423,3.86332,12,0.203205,0.0247014,118,95.3667,0.0109609
0.422532,0.775145,0.417818,5.29747,7.27216,3.79587,13,0.00631829,0.000768045,134,157.042,0.0398199
-0.712298,-0.179899,0.634441,5.18303,7.33904,3.88405,14,0.0384172,0.00466996,151,110.427,0.0126033
0.649256,0.165405,0.711418,5.27604,7.3214,3.84737,15,0.0074354,0.000903838,169,136.45,0.0495397
0.0619508,-0.64127,0.704625,5.18382,7.33305,3.88537,16,0.0618221,0.00751502,18,46.6317,0.0280144
,,,,,,,,,25,59.9236,0.0127154
,,,,,,,,,33,52.8329,0.0305016
,,,,,,,,,42,77.4301,0.0233269
,,,,,,,,,52,32.9188,0.0248431
,,,,,,,,,63,88.4847,0.0302793
,,,,,,,,,75,97.3568,0.0180878
,,,,,,,,,88,110.95,0.0239765
,,,,,,,,,102,84.7635,0.0147545
,,,,,,,,,117,72.277,0.034637
,,,,,,,,,133,95.8043,0.00947458
,,,,,,,,,150,129.462,0.0253644
,,,,,,,,,168,129.4,0.0106774
,,,,,,,,,187,160.989,0.0289872
,,,,,,,,,32,37.6724,0.0162549
,,,,,,,,,41,57.0698,0.063855
,,,,,,,,,51,30.9294,0.0388435
,,,,,,,,,62,78.9205,0.0432378
,,,,,,,,,74,47.3534,0.0628885
,,,,,,,,,87,84.1587,0.0262046
,,,,,,,,,101,80.4124,0.0406789
,,,,,,,,,116,105.717,0.0197428
,,,,,,,,,132,106.229,0.085134
,,,,,,,,,149,132.933,0.0113095
,,,,,,,,,167,124.447,0.0448418
,,,,,,,,,186,134.558,0.0130665
,,,,,,,,,206,114.39,0.0575594
,,,,,,,,,50,93.4908,0.0170622
,,,,,,,,,61,42.0239,0.0145575
,,,,,,,,,73,88.934,0.015134
,,,,,,,,,86,71.5994,0.0169924
,,,,,,,,,100,119.056,0.012329
,,,,,,,,,115,51.598,0.0148079
,,,,,,,,,131,72.48,0.0106838
,,,,,,,,,148,132.199,0.0182833
,,,,,,,,,166,104.219,0.00761212
,,,,,,,,,185,152.248,0.0153259
,,,,,,,,,205,97.4076,0.00836959
,,,,,,,,,226,106.668,0.0165777
,,,,,,,,,72,74.9005,0.0437951
,,,,,,,,,85,59.2315,0.0494629
,,,,,,,,,99,59.7851,0.0769799
,,,,,,,,,114,44.5811,0.0283684
,,,,,,,,,130,133.807,0.0461424
,,,,,,,,,147,135.464,0.0209466
,,,,,,,,,165,53.8871,0.113181
,,,,,,,,,184,128.501,0.0116945
,,,,,,,,,204,80.3126,0.0515734
,,,,,,,,,225,167.728,0.0135831
,,,,,,,,,247,119.799,0.0691439
,,,,,,,,,98,109.844,0.0330022
,,,,,,,,,113,30.011,0.0433383
,,,,,,,,,129,80.0525,0.0220583
,,,,,,,,,146,58.924,0.0314902
,,,,,,,,,164,112.189,0.0172937
,,,,,,,,,183,128.788,0.0528561
,,,,,,,,,203,144.308,0.0104609
,,,,,,,,,224,110.712,0.0339285
,,,,,,,,,246,117.141,0.0119468
,,,,,,,,,269,83.6986,0.0407391
,,,,,,,,,128,113.838,0.048881
,,,,,,,,,145,97.1618,0.0234094
,,,,,,,,,163,133.904,0.0343177
,,,,,,,,,182,78.0177,0.0181133
,,,,,,,,,202,45.8963,0.0613389
,,,,,,,,,223,72.9682,0.0107553
,,,,,,,,,245,110.166,0.0372338
,,,,,,,,,268,115.182,0.0123323
,,,,,,,,,292,164.315,0.0455996
,,,,,,,,,162,50.5405,0.028176
,,,,,,,,,181,78.892,0.0456356
,,,,,,,,,201,141.747,0.0208415
,,,,,,,,,222,108.52,0.110179
,,,,,,,,,244,171.483,0.0116617
,,,,,,,,,267,82.0779,0.050941
,,,,,,,,,291,129.387,0.0135389
,,,,,,,,,316,73.8111,0.0680121
,,,,,,,,,200,121.092,0.0226384
,,,,,,,,,221,167.709,0.0142366
,,,,,,,,,243,64.4319,0.031912
,,,,,,,,,266,135.602,0.00925832
,,,,,,,,,290,41.0737,0.0238717
,,,,,,,,,315,131.721,0.0104035
,,,,,,,,,341,76.9149,0.0270538
,,,,,,,,,242,68.7025,0.0176483
,,,,,,,,,265,172.226,0.0563135
,,,,,,,,,289,92.688,0.0105896
,,,,,,,,,314,115.538,0.0353205
,,,,,,,,,340,58.3337,0.0121149
,,,,,,,,,367,59.5759,0.0427627
,,,,,,,,,288,105.101,0.0228174
,,,,,,,,,313,32.223,0.00829869
,,,,,,,,,339,129.827,0.0183889
,,,,,,,,,366,44.6428,0.00920713
,,,,,,,,,394,104.737,0.0202211
,,,,,,,,,338,79.8422,0.0122555
,,,,,,,,,365,64.3311,0.064618
,,,,,,,,,393,114.024,0.0143459
,,,,,,,,,422,119.457,0.0948021
,,,,,,,,,392,100.657,0.0108518
,,,,,,,,,421,42.848,0.00683148
,,,,,,,,,451,100.91,0.0114649
,,,,,,,,,450,92.4692,0.0124594
,,,,,,,,,481,55.9976,0.0473873
,,,,,,,,,512,62.1804,0.0132743
