Q	U	V
{$V$}	{[mm$^3$]}	0.00781459
{$d_v$}	{[mm]}	0.246208
{$S_c$}	{[mm$^2$]}	0.373155
{$S_o$}	{[mm$^2$]}	0.22085
{$S_l/S_o$}	[]	0.689631
{$\Psi$}	[]	0.510347
{$\eta$}	[]	0.549999
{med($\theta_e$)}	{[$^\circ$]}	51.0152
{$\Upsilon$}	[]	13
{$\Xi$}	[]	9
