Q	U	V
{$V$}	{[mm$^3$]}	0.00587905
{$d_v$}	{[mm]}	0.223925
{$S_c$}	{[mm$^2$]}	0.344468
{$S_o$}	{[mm$^2$]}	0.189812
{$S_l/S_o$}	[]	0.814785
{$\Psi$}	[]	0.457306
{$\eta$}	[]	0.505313
{med($\theta_e$)}	{[$^\circ$]}	68.8144
{$\Upsilon$}	[]	11
{$\Xi$}	[]	8
