"cellPairingIds","interplanarAngles","angleWeights"
8,61.8951,0.0668275
13,97.8052,0.0774751
19,80.4976,0.0486584
26,40.345,0.0509216
18,53.113,0.0758528
33,47.3708,0.0502157
42,74.1178,0.0746136
52,79.4641,0.0788592
63,78.9477,0.0788505
75,87.225,0.0495611
32,139.103,0.0532738
51,26.7717,0.0881379
50,103.742,0.0392132
61,133.665,0.0526595
73,85.7339,0.0547394
86,138.192,0.0547353
100,126.441,0.0388129
115,73.1746,0.0202162
85,36.6542,0.0576204
113,28.0451,0.0922113
145,86.6736,0.0567601
163,65.024,0.0242022
162,32.8664,0.0567557
200,55.7744,0.0204856
