facetNormals:0,facetNormals:1,facetNormals:2,FacetCenters:0,FacetCenters:1,FacetCenters:2,FacetIds,relFacetSize,absFacetSize,cellPairingIds,interplanarAngles,angleWeights
0.184453,-0.585725,-0.752065,3.25413,4.49806,5.51525,1,0.0325852,0.00882236,8,67.2837,0.0365268
0.630855,0.371285,-0.609245,3.27843,4.60352,5.59081,2,0.0415531,0.0112504,13,101.34,0.0204303
-0.0134491,0.864068,-0.43109,3.24857,4.73348,5.48916,3,0.0148798,0.00402867,19,47.1044,0.048928
0.787816,-0.387278,-0.328958,3.3385,4.49777,5.6247,4,0.0981589,0.0265763,26,101.212,0.0513844
-0.949432,0.140048,-0.0997354,3.1975,4.64822,5.49884,5,0.121455,0.0328836,34,53.32,0.0432907
-0.250742,-0.911369,-0.0834871,3.27007,4.489,5.51984,6,0.0644725,0.0174558,43,77.4668,0.027705
-0.864125,-0.427263,-0.152604,3.20915,4.58908,5.46322,7,0.0240961,0.00652397,53,109.714,0.0369608
0.764312,0.540486,0.181792,3.34417,4.64366,5.6394,8,0.0426938,0.0115592,64,126.372,0.0466304
-0.870152,0.180799,0.388298,3.21534,4.697,5.54591,9,0.0819557,0.0221893,76,114.952,0.0134083
0.714857,0.0441064,0.678167,3.35329,4.57829,5.65609,10,0.00844074,0.00228531,89,129.635,0.05574
-0.621022,-0.104177,0.710935,3.26464,4.55511,5.65208,11,0.1926,0.052146,103,158.746,0.0459244
0.169039,0.578192,0.729025,3.30549,4.68263,5.63616,12,0.0777543,0.0210518,18,51.3068,0.0219128
,,,,,,,,,25,51.6778,0.0583888
,,,,,,,,,33,121.944,0.0619212
,,,,,,,,,42,119.55,0.0505356
,,,,,,,,,52,131.081,0.0305036
,,,,,,,,,63,50.955,0.0421157
,,,,,,,,,75,141.055,0.0551461
,,,,,,,,,88,86.6937,0.0140313
,,,,,,,,,102,162.706,0.0683581
,,,,,,,,,117,97.839,0.0541615
,,,,,,,,,32,102.985,0.0258422
,,,,,,,,,41,79.064,0.0265116
,,,,,,,,,51,144.724,0.0241792
,,,,,,,,,62,108.033,0.0183983
,,,,,,,,,74,65.741,0.0220683
,,,,,,,,,87,89.9673,0.0251867
,,,,,,,,,101,106.081,0.0107713
,,,,,,,,,116,115.037,0.0276253
,,,,,,,,,132,78.4381,0.0249793
,,,,,,,,,50,148.277,0.108571
,,,,,,,,,61,78.1366,0.0778269
,,,,,,,,,73,120.553,0.0386937
,,,,,,,,,86,68.1292,0.0595058
,,,,,,,,,100,166.28,0.0893284
,,,,,,,,,115,69.5543,0.0155448
,,,,,,,,,131,140.075,0.130042
,,,,,,,,,148,111.892,0.0867732
,,,,,,,,,72,82.5476,0.0842318
,,,,,,,,,85,34.5295,0.040214
,,,,,,,,,99,136.562,0.063179
,,,,,,,,,114,29.7142,0.0978702
,,,,,,,,,130,141.054,0.0157845
,,,,,,,,,147,56.6232,0.148969
,,,,,,,,,165,99.6032,0.0948113
,,,,,,,,,98,48.0743,0.035081
,,,,,,,,,113,140.617,0.0513702
,,,,,,,,,129,88.6931,0.0721703
,,,,,,,,,146,107.155,0.0149272
,,,,,,,,,164,77.7439,0.0966062
,,,,,,,,,183,134.608,0.0704932
,,,,,,,,,128,170.958,0.0308057
,,,,,,,,,145,49.447,0.0372424
,,,,,,,,,163,140.243,0.0125021
,,,,,,,,,182,59.3406,0.0428334
,,,,,,,,,202,123.123,0.0367908
,,,,,,,,,162,122.488,0.0561414
,,,,,,,,,181,42.497,0.0140949
,,,,,,,,,201,116.332,0.0698941
,,,,,,,,,222,50.4501,0.0551213
,,,,,,,,,200,111.508,0.0153052
,,,,,,,,,221,30.01,0.114983
,,,,,,,,,243,74.797,0.0797997
,,,,,,,,,242,87.9447,0.0161727
,,,,,,,,,265,46.6142,0.0152283
,,,,,,,,,288,66.8513,0.110784
