Q	U	V
{$V$}	{[mm$^3$]}	0.0104092
{$d_v$}	{[mm]}	0.270898
{$S_c$}	{[mm$^2$]}	0.414327
{$S_o$}	{[mm$^2$]}	0.273951
{$S_l/S_o$}	[]	0.512413
{$\Psi$}	[]	0.556441
{$\eta$}	[]	0.585349
{med($\theta_e$)}	{[$^\circ$]}	68.265
{$\Upsilon$}	[]	13
{$\Xi$}	[]	9
