Q	U	V
{$V$}	{[mm$^3$]}	0.00410144
{$d_v$}	{[mm]}	0.198600
{$S_c$}	{[mm$^2$]}	0.28982
{$S_o$}	{[mm$^2$]}	0.132133
{$S_l/S_o$}	[]	1.193396
{$\Psi$}	[]	0.427543
{$\eta$}	[]	0.442074
{med($\theta_e$)}	{[$^\circ$]}	65.8596
{$\Upsilon$}	[]	13
{$\Xi$}	[]	9
