facetNormals:0,facetNormals:1,facetNormals:2,FacetCenters:0,FacetCenters:1,FacetCenters:2,FacetIds,relFacetSize,absFacetSize,cellPairingIds,interplanarAngles,angleWeights
-0.187288,0.0974579,-0.938393,3.29942,4.46285,7.59858,1,0.0516012,0.011836,8,35.261,0.0344366
0.350656,0.326374,-0.859966,3.35438,4.4711,7.60562,2,0.0258409,0.00592727,13,44.516,0.0377954
-0.436464,0.664134,-0.550498,3.2773,4.5145,7.63023,3,0.0298178,0.00683946,19,55.742,0.0708775
0.441806,-0.493277,-0.692086,3.40654,4.37153,7.63275,4,0.113144,0.0259525,26,51.4481,0.0385415
0.113916,0.787474,-0.563951,3.34377,4.48658,7.64952,5,0.0307572,0.00705495,34,62.611,0.0731926
-0.782571,-0.456039,-0.348843,3.24008,4.41192,7.66238,6,0.125853,0.0288677,43,81.5216,0.0337256
-0.435339,-0.874236,-0.153306,3.29051,4.35728,7.68797,7,0.0250483,0.00574547,53,74.74,0.0157274
-0.829279,0.532562,-0.045343,3.28668,4.48477,7.72636,8,0.00927752,0.00212803,64,100.594,0.044596
0.43487,0.851879,0.185273,3.3141,4.49109,7.69302,9,0.0392655,0.00900655,76,109.357,0.0247287
-0.131802,-0.942962,0.264057,3.34426,4.41235,7.71034,10,0.0162606,0.00372979,89,111.078,0.0509334
-0.671338,-0.554363,0.435221,3.27794,4.41002,7.73927,11,0.0502826,0.0115336,103,130.683,0.0561676
0.137953,0.649465,0.670339,3.28155,4.47931,7.72757,12,0.0616207,0.0141343,118,113.487,0.0484854
-0.680363,0.363966,0.564026,3.25343,4.46806,7.74226,13,0.0457245,0.0104881,134,133.393,0.0587894
0.116192,-0.743381,0.560125,3.35419,4.38801,7.7281,14,0.0683045,0.0156674,151,153.102,0.0246582
-0.0389907,-0.484481,0.86227,3.35263,4.35434,7.7359,15,0.0161997,0.00371582,18,55.6396,0.0276873
,,,,,,,,,25,51.3348,0.0420728
,,,,,,,,,33,35.4635,0.0280855
,,,,,,,,,42,97.4121,0.0428779
,,,,,,,,,52,108.336,0.0254385
,,,,,,,,,63,94.6056,0.0136532
,,,,,,,,,75,73.5739,0.0311692
,,,,,,,,,88,126.684,0.0199608
,,,,,,,,,102,145.602,0.0341379
,,,,,,,,,117,109.899,0.0364122
,,,,,,,,,133,130.005,0.0330205
,,,,,,,,,150,137.757,0.0374963
,,,,,,,,,168,159.609,0.0199148
,,,,,,,,,32,98.6607,0.0471973
,,,,,,,,,41,33.7743,0.0302802
,,,,,,,,,51,75.7655,0.0482127
,,,,,,,,,62,108.686,0.0272258
,,,,,,,,,74,39.0612,0.0141518
,,,,,,,,,87,73.0895,0.0338956
,,,,,,,,,101,138.38,0.0210448
,,,,,,,,,116,109.541,0.0374359
,,,,,,,,,132,89.8681,0.0401886
,,,,,,,,,149,75.7029,0.0360964
,,,,,,,,,167,160.116,0.0415133
,,,,,,,,,186,144.539,0.0209937
,,,,,,,,,50,86.7974,0.0483665
,,,,,,,,,61,82.5443,0.119161
,,,,,,,,,73,68.633,0.0410163
,,,,,,,,,86,129.233,0.0171489
,,,,,,,,,100,112.447,0.058299
,,,,,,,,,115,76.2994,0.0284348
,,,,,,,,,131,110.359,0.0696236
,,,,,,,,,148,143.168,0.0797874
,,,,,,,,,166,161.958,0.0651288
,,,,,,,,,185,88.0628,0.085184
,,,,,,,,,205,113.299,0.0283416
,,,,,,,,,72,105.41,0.0494334
,,,,,,,,,85,132.517,0.0276108
,,,,,,,,,99,68.6383,0.0142552
,,,,,,,,,114,49.5932,0.0344945
,,,,,,,,,130,160.171,0.0212741
,,,,,,,,,147,143.034,0.0381677
,,,,,,,,,165,80.674,0.0410332
,,,,,,,,,184,96.7137,0.0367763
,,,,,,,,,204,166.107,0.0424151
,,,,,,,,,225,154.63,0.0212219
,,,,,,,,,98,34.281,0.0417811
,,,,,,,,,113,63.8579,0.0172811
,,,,,,,,,129,147.043,0.0598562
,,,,,,,,,146,62.6193,0.0288002
,,,,,,,,,164,48.472,0.0718563
,,,,,,,,,183,134.16,0.0827333
,,,,,,,,,203,79.4599,0.0670784
,,,,,,,,,224,86.6825,0.0885502
,,,,,,,,,246,92.9439,0.0287046
,,,,,,,,,128,95.744,0.01354
,,,,,,,,,145,177.882,0.0305855
,,,,,,,,,163,30.5422,0.0197198
,,,,,,,,,182,42.4354,0.033439
,,,,,,,,,202,141.564,0.0356182
,,,,,,,,,223,96.5922,0.0323662
,,,,,,,,,245,56.3797,0.0366548
,,,,,,,,,268,71.6332,0.0196749
,,,,,,,,,162,84.9475,0.0150088
,,,,,,,,,181,114.539,0.0118144
,,,,,,,,,201,75.4189,0.0156648
,,,,,,,,,222,77.5246,0.016127
,,,,,,,,,244,39.0336,0.0154252
,,,,,,,,,267,124.011,0.0163362
,,,,,,,,,291,105.732,0.0117982
,,,,,,,,,200,147.481,0.0229975
,,,,,,,,,221,136.124,0.0440964
,,,,,,,,,243,36.6511,0.0479663
,,,,,,,,,266,82.6771,0.0422496
,,,,,,,,,290,121.609,0.0498654
,,,,,,,,,315,106.255,0.0229365
,,,,,,,,,242,40.9717,0.0245743
,,,,,,,,,265,119.115,0.0257312
,,,,,,,,,289,96.3592,0.0239899
,,,,,,,,,314,25.9214,0.0262679
,,,,,,,,,340,45.1559,0.0162301
,,,,,,,,,288,100.091,0.0553773
,,,,,,,,,313,57.4556,0.0478954
,,,,,,,,,339,50.7334,0.0579242
,,,,,,,,,366,45.9371,0.0245047
,,,,,,,,,338,54.7372,0.0524956
,,,,,,,,,365,95.9211,0.0647907
,,,,,,,,,393,73.964,0.0256549
,,,,,,,,,392,92.1538,0.0547789
,,,,,,,,,421,69.1618,0.0239236
,,,,,,,,,450,25.4157,0.0261884
