Q	U	V
{$V$}	{[mm$^3$]}	0.00189516
{$d_v$}	{[mm]}	0.153538
{$S_c$}	{[mm$^2$]}	0.167174
{$S_o$}	{[mm$^2$]}	0.0811097
{$S_l/S_o$}	[]	1.061085
{$\Psi$}	[]	0.443009
{$\eta$}	[]	0.458768
{med($\theta_e$)}	{[$^\circ$]}	88.7827
{$\Upsilon$}	[]	14
{$\Xi$}	[]	4
