"cellPairingIds","interplanarAngles","angleWeights"
8,37.4168,0.0295931
26,46.9212,0.0458839
34,51.6771,0.0437352
76,80.5827,0.0463189
18,32.0634,0.0422083
33,79.9354,0.0380633
52,80.8287,0.0333241
88,64.5102,0.0383621
117,73.5463,0.0322254
62,54.3381,0.0648058
87,55.5018,0.0413325
116,63.3379,0.0838952
132,96.5252,0.0607764
72,28.3587,0.0651669
85,27.1912,0.0555224
204,45.176,0.0320558
225,77.5059,0.029089
146,104.424,0.0660478
203,88.4616,0.0460372
246,59.6716,0.0282104
182,37.7825,0.0548367
245,40.9315,0.0286271
221,45.37,0.037038
243,85.0257,0.0317124
341,62.7498,0.035344
265,32.594,0.0531091
289,33.6457,0.0489089
339,47.8049,0.031826
394,90.3468,0.0624259
423,116.901,0.0378584
338,54.7597,0.0393543
422,54.4923,0.0486544
452,68.9724,0.0323119
421,74.3018,0.0245377
482,56.1239,0.0307074
450,52.9711,0.0194938
513,97.5328,0.0231964
545,55.0284,0.0216021
578,49.2709,0.0360902
