"cellPairingIds","interplanarAngles","angleWeights"
8,36.1808,0.0572081
13,49.6008,0.0826342
19,87.2516,0.0793676
43,114.876,0.17226
18,69.7122,0.0385424
33,56.9423,0.0272355
52,144.897,0.0508929
63,74.814,0.0383774
32,56.7678,0.047472
41,73.8105,0.0319098
101,93.7727,0.029144
116,92.3674,0.0441486
73,52.7748,0.0677109
100,61.7724,0.0445861
115,61.7181,0.028727
99,51.9873,0.0317967
147,69.4158,0.0299203
165,51.5182,0.0277317
128,124.268,0.0695308
145,40.9879,0.0639628
223,72.3039,0.0330989
222,38.5488,0.03937
244,59.993,0.0273072
200,25.8039,0.0280302
266,41.0445,0.0264045
242,25.5633,0.0274754
289,45.0835,0.0198988
288,37.9295,0.0365333
313,43.5106,0.0259117
338,39.2032,0.0242539
