"cellPairingIds","interplanarAngles","angleWeights"
8,78.2044,0.0566952
13,46.402,0.120526
19,76.9714,0.0224288
53,90.2519,0.116923
18,85.9092,0.0560242
25,65.6523,0.0184713
33,43.2436,0.0543857
52,108.879,0.0255676
62,56.7903,0.03359
74,69.9484,0.114105
50,77.4128,0.0220583
86,134.072,0.0221964
115,98.5024,0.0214618
85,98.671,0.032994
114,66.2476,0.102643
130,82.7413,0.0922202
128,51.0825,0.0333039
145,62.1407,0.0328221
163,84.6724,0.0316772
181,73.4467,0.094683
200,32.4499,0.0908895
