Q	U	V
{$V$}	{[mm$^3$]}	0.0172762
{$d_v$}	{[mm]}	0.320738
{$S_c$}	{[mm$^2$]}	0.561671
{$S_o$}	{[mm$^2$]}	0.356194
{$S_l/S_o$}	[]	0.576868
{$\Psi$}	[]	0.575397
{$\eta$}	[]	0.608246
{med($\theta_e$)}	{[$^\circ$]}	61.5565
{$\Upsilon$}	[]	15
{$\Xi$}	[]	12
