facetNormals:0,facetNormals:1,facetNormals:2,FacetCenters:0,FacetCenters:1,FacetCenters:2,FacetIds,relFacetSize,absFacetSize,cellPairingIds,interplanarAngles,angleWeights
-0.0114507,0.0888688,-0.971754,4.66349,3.74931,3.6291,1,0.0295276,0.00311003,8,42.2274,0.050464
0.193267,-0.549069,-0.770695,4.72003,3.69371,3.66706,2,0.173444,0.0182682,13,46.4351,0.0213599
-0.123108,0.746159,-0.597253,4.72334,3.75707,3.67631,3,0.0167317,0.00176229,19,81.4364,0.0347015
0.133898,-0.950692,-0.236377,4.7502,3.6433,3.74069,4,0.0420738,0.00443147,26,85.5456,0.0504444
-0.361202,-0.879055,-0.151192,4.64355,3.66897,3.72807,5,0.172981,0.0182195,34,81.8036,0.0459418
-0.860899,0.438158,-0.088669,4.59658,3.75508,3.67588,6,0.103448,0.0108958,43,109.244,0.0332759
0.898417,-0.209126,0.290377,4.82254,3.69943,3.73823,7,0.0381142,0.00401442,53,119.46,0.0299915
0.0548889,0.772794,0.53505,4.70617,3.71577,3.70898,8,0.0304703,0.00320932,64,149.737,0.0201145
0.387148,0.241744,0.868764,4.71323,3.67232,3.77118,9,0.0152522,0.00160646,76,153.304,0.0390926
-0.36288,0.149555,0.893644,4.6433,3.69585,3.77202,10,0.0578239,0.00609037,89,158.183,0.0400147
0.302633,-0.287785,0.868981,4.75761,3.67002,3.76867,11,0.0620541,0.00653593,18,88.349,0.0305193
,,,,,,,,,25,40.1382,0.0677201
,,,,,,,,,33,55.2795,0.173212
,,,,,,,,,42,111.188,0.129599
,,,,,,,,,52,86.0298,0.062495
,,,,,,,,,63,155.287,0.0518344
,,,,,,,,,75,140.131,0.0280387
,,,,,,,,,88,153.141,0.0867323
,,,,,,,,,102,119.125,0.0914055
,,,,,,,,,32,127.853,0.0239422
,,,,,,,,,41,124.193,0.0305121
,,,,,,,,,51,58.683,0.0288045
,,,,,,,,,62,118.179,0.0232548
,,,,,,,,,74,73.9856,0.0216016
,,,,,,,,,87,114.1,0.0159577
,,,,,,,,,101,113.661,0.0259536
,,,,,,,,,116,146.083,0.0263568
,,,,,,,,,50,30.112,0.0676847
,,,,,,,,,61,122.184,0.0598185
,,,,,,,,,73,74.8141,0.0399962
,,,,,,,,,86,156.512,0.035344
,,,,,,,,,100,113.27,0.0223884
,,,,,,,,,115,114.618,0.0487072
,,,,,,,,,131,83.4518,0.050147
,,,,,,,,,72,93.7344,0.12947
,,,,,,,,,85,101.44,0.062465
,,,,,,,,,99,149.42,0.0518137
,,,,,,,,,114,120.809,0.0280327
,,,,,,,,,130,98.2949,0.0866744
,,,,,,,,,147,89.2414,0.0913411
,,,,,,,,,98,161.734,0.0557046
,,,,,,,,,113,74.5111,0.0470748
,,,,,,,,,129,108.649,0.0265848
,,,,,,,,,146,71.6104,0.0741824
,,,,,,,,,164,119.722,0.0775746
,,,,,,,,,128,87.2889,0.0338663
,,,,,,,,,145,54.6167,0.0217862
,,,,,,,,,163,95.9473,0.0459444
,,,,,,,,,182,51.1857,0.0472233
,,,,,,,,,162,43.26,0.0203287
,,,,,,,,,181,51.3626,0.03991
,,,,,,,,,201,73.4116,0.0408715
,,,,,,,,,200,45.444,0.0241376
,,,,,,,,,221,31.9832,0.024486
,,,,,,,,,242,48.4869,0.0598644
