facetNormals:0,facetNormals:1,facetNormals:2,FacetCenters:0,FacetCenters:1,FacetCenters:2,FacetIds,relFacetSize,absFacetSize,cellPairingIds,interplanarAngles,angleWeights
-0.53409,-0.0109451,-0.832232,5.84188,3.10321,7.42619,1,0.049555,0.0079689,8,75.888,0.0785033
0.623201,0.267885,-0.682196,5.96036,3.13742,7.49337,2,0.188785,0.0303584,13,51.1878,0.0441678
-0.139172,0.716447,-0.646049,5.86727,3.21175,7.46812,3,0.0398371,0.00640617,19,34.4079,0.0323981
-0.723191,0.410739,-0.485343,5.83415,3.18307,7.47706,4,0.0240659,0.00387002,26,70.7845,0.0650295
0.298596,-0.741222,-0.564517,5.9651,3.04105,7.54272,5,0.0945567,0.0152056,34,54.2085,0.0437409
-0.543019,-0.730418,-0.310137,5.85805,3.01781,7.51648,6,0.0391478,0.00629533,43,93.7936,0.0403798
0.486555,-0.835681,-0.223233,5.92822,3.02322,7.5341,7,0.0340714,0.005479,53,117.937,0.0261487
0.927317,-0.33053,-0.0422043,5.96737,3.06502,7.52308,8,0.0177601,0.00285599,64,101.344,0.0361297
0.281381,-0.950773,0.0641668,5.93489,3.02094,7.53246,9,0.0284281,0.00457149,76,125.005,0.0522467
0.512752,-0.742475,0.337363,5.99993,3.03079,7.62973,10,0.0552477,0.00888433,89,142.623,0.0276651
0.798604,0.374834,0.395477,6.04238,3.11252,7.62724,11,0.0191889,0.00308574,103,110.538,0.0176768
-0.337071,-0.673507,0.636177,5.87469,3.03236,7.62803,12,0.010757,0.00172982,118,125.326,0.0584254
0.234344,0.793206,0.505058,5.96414,3.18143,7.58123,13,0.0711637,0.0114438,134,143.834,0.0658638
-0.0426401,0.149702,0.929511,5.96204,3.08622,7.65166,14,0.0981731,0.0157871,18,54.3953,0.0657911
,,,,,,,,,25,90.5915,0.0426899
,,,,,,,,,33,66.6785,0.126003
,,,,,,,,,42,110.404,0.0648482
,,,,,,,,,52,75.9589,0.0577248
,,,,,,,,,63,56.8664,0.032466
,,,,,,,,,75,97.4,0.049415
,,,,,,,,,88,96.7854,0.0854798
,,,,,,,,,102,69.3298,0.0348368
,,,,,,,,,117,150.376,0.0203541
,,,,,,,,,133,89.1406,0.103364
,,,,,,,,,150,133.192,0.129173
,,,,,,,,,32,40.9893,0.0300054
,,,,,,,,,41,102.592,0.0560571
,,,,,,,,,51,105.304,0.0394894
,,,,,,,,,62,122.674,0.0367294
,,,,,,,,,74,110.643,0.0245676
,,,,,,,,,87,141.868,0.0331792
,,,,,,,,,101,151.004,0.0462936
,,,,,,,,,116,95.9751,0.0259014
,,,,,,,,,132,151.768,0.0169398
,,,,,,,,,149,77.1931,0.0510799
,,,,,,,,,167,122.039,0.056676
,,,,,,,,,50,105.161,0.038367
,,,,,,,,,61,74.771,0.0298077
,,,,,,,,,73,127.879,0.0282077
,,,,,,,,,86,145.921,0.0204377
,,,,,,,,,100,130.797,0.0260658
,,,,,,,,,115,154.825,0.0335273
,,,,,,,,,131,131.389,0.0213525
,,,,,,,,,148,111.092,0.0148682
,,,,,,,,,166,95.4604,0.0359682
,,,,,,,,,185,113.289,0.0386559
,,,,,,,,,72,53.8969,0.0553712
,,,,,,,,,85,23.4601,0.050093
,,,,,,,,,99,55.5248,0.0299036
,,,,,,,,,114,39.2768,0.0437138
,,,,,,,,,130,57.024,0.0697448
,,,,,,,,,147,106.12,0.0319034
,,,,,,,,,165,87.6567,0.0193164
,,,,,,,,,184,147.885,0.0812091
,,,,,,,,,204,134.685,0.096331
,,,,,,,,,98,64.1939,0.0364336
,,,,,,,,,113,105.239,0.0244349
,,,,,,,,,129,56.8985,0.0329377
,,,,,,,,,146,80.1,0.0458248
,,,,,,,,,164,153.247,0.025754
,,,,,,,,,183,59.7418,0.0168766
,,,,,,,,,203,157.881,0.0505097
,,,,,,,,,224,114.407,0.0559749
,,,,,,,,,128,41.1081,0.0233492
,,,,,,,,,145,21.5562,0.030995
,,,,,,,,,163,33.7797,0.0421493
,,,,,,,,,182,90.7739,0.0245508
,,,,,,,,,202,74.7826,0.0163515
,,,,,,,,,223,133.463,0.0460806
,,,,,,,,,245,112.196,0.0505866
,,,,,,,,,162,54.217,0.0218621
,,,,,,,,,181,41.888,0.0268795
,,,,,,,,,201,50.9643,0.0184469
,,,,,,,,,222,96.906,0.0133986
,,,,,,,,,244,93.9741,0.028426
,,,,,,,,,267,97.9381,0.0300788
,,,,,,,,,200,24.3752,0.0375398
,,,,,,,,,221,96.3529,0.0229121
,,,,,,,,,243,53.2336,0.015608
,,,,,,,,,266,132.927,0.0406268
,,,,,,,,,290,95.8033,0.0440892
,,,,,,,,,242,73.4943,0.0284844
,,,,,,,,,265,55.2123,0.0180077
,,,,,,,,,289,108.64,0.0622037
,,,,,,,,,314,78.528,0.0707054
,,,,,,,,,288,106.459,0.0137858
,,,,,,,,,313,43.0908,0.0302272
,,,,,,,,,339,64.6809,0.0321029
,,,,,,,,,338,107.79,0.0186889
,,,,,,,,,365,57.0857,0.0193894
,,,,,,,,,392,50.7231,0.0825144
