"cellPairingIds","interplanarAngles","angleWeights"
13,38.5335,0.0165954
19,40.1334,0.0448922
26,80.5644,0.0514544
43,106.103,0.0576327
41,76.5136,0.0190569
51,55.105,0.0186862
62,123.652,0.0198448
74,79.0238,0.0190915
87,107.787,0.0149808
116,130.841,0.0177317
50,83.1668,0.0690021
73,87.1393,0.0805873
100,107.552,0.0347586
115,89.5244,0.0708262
114,36.5839,0.038567
113,37.2307,0.0793818
129,54.2879,0.0370783
163,60.02,0.108758
182,66.8131,0.0741305
162,53.089,0.0387089
201,65.9187,0.0646076
200,70.7265,0.0391303
221,78.0232,0.0335001
242,62.1951,0.06579
