facetNormals:0,facetNormals:1,facetNormals:2,FacetCenters:0,FacetCenters:1,FacetCenters:2,FacetIds,relFacetSize,absFacetSize,cellPairingIds,interplanarAngles,angleWeights
-0.482015,0.126942,-0.817883,5.68206,3.5886,7.33164,1,0.119498,0.00584125,8,31.9854,0.0892478
-0.208061,0.586464,-0.768792,5.70423,3.63008,7.34623,2,0.0712192,0.0034813,13,50.2786,0.136614
-0.267022,-0.645434,-0.664099,5.72525,3.52641,7.33501,3,0.159454,0.00779433,19,73.589,0.0571848
0.587387,-0.326631,-0.723624,5.79211,3.53187,7.34017,4,0.0375855,0.00183724,26,78.5006,0.142582
0.729233,0.166485,-0.632644,5.79332,3.60786,7.33943,5,0.176721,0.00863841,34,33.1515,0.0935477
-0.513014,0.624859,-0.571267,5.73393,3.63054,7.33132,6,0.0768573,0.0037569,43,57.1497,0.111094
-0.0464774,0.863949,-0.461401,5.74769,3.6688,7.37501,7,0.103794,0.00507361,53,67.5438,0.0179541
-0.719575,-0.653503,-0.11521,5.64934,3.55426,7.35942,8,0.00970619,0.000474454,64,100.954,0.0244364
0.667946,0.721657,-0.0623874,5.81064,3.66061,7.39787,9,0.0136097,0.000665264,76,88.9164,0.0376579
0.308843,0.938405,-0.0582847,5.78996,3.67301,7.40052,10,0.0223507,0.00109254,89,151.281,0.00423276
0.782961,-0.318416,0.495254,5.80166,3.57031,7.3635,11,0.00215454,0.000105317,103,136.883,0.00827555
0.58046,0.52283,0.561438,5.74358,3.58969,7.3812,12,0.00428619,0.000209516,118,123.356,0.0262557
-0.381733,-0.175108,0.752932,5.72116,3.59211,7.37577,13,0.014748,0.000720907,18,78.6511,0.0984611
,,,,,,,,,25,75.6227,0.0492039
,,,,,,,,,33,63.5042,0.101524
,,,,,,,,,42,21.2775,0.0739309
,,,,,,,,,52,26.082,0.084475
,,,,,,,,,63,98.6117,0.0170841
,,,,,,,,,75,70.0687,0.0228524
,,,,,,,,,88,57.1545,0.0340237
,,,,,,,,,102,138.921,0.00418254
,,,,,,,,,117,104.969,0.00808576
,,,,,,,,,133,134.92,0.0244359
,,,,,,,,,32,55.8353,0.060832
,,,,,,,,,41,82.8231,0.167644
,,,,,,,,,51,83.1946,0.103721
,,,,,,,,,62,104.636,0.12574
,,,,,,,,,74,42.9571,0.0182985
,,,,,,,,,87,129.395,0.0250789
,,,,,,,,,101,132.913,0.0392058
,,,,,,,,,116,110.616,0.00425163
,,,,,,,,,132,158.945,0.00834798
,,,,,,,,,149,110.064,0.0269989
,,,,,,,,,50,30.718,0.0619874
,,,,,,,,,61,95.4028,0.0504832
,,,,,,,,,73,88.5569,0.0551869
,,,,,,,,,86,97.4801,0.0154282
,,,,,,,,,100,78.0327,0.0199834
,,,,,,,,,115,94.8672,0.0280319
,,,,,,,,,131,77.7349,0.00407546
,,,,,,,,,148,104.388,0.00769487
,,,,,,,,,166,146.727,0.0211838
,,,,,,,,,72,84.5962,0.107125
,,,,,,,,,85,65.271,0.130778
,,,,,,,,,99,125.779,0.0184017
,,,,,,,,,114,47.9351,0.0252731
,,,,,,,,,130,64.4386,0.0396825
,,,,,,,,,147,77.6889,0.00425717
,,,,,,,,,165,80.5251,0.00836939
,,,,,,,,,184,158.137,0.0272241
,,,,,,,,,98,31.541,0.0883174
,,,,,,,,,113,88.4257,0.0172357
,,,,,,,,,129,81.5157,0.0231246
,,,,,,,,,146,61.9143,0.0346305
,,,,,,,,,164,155.656,0.00419157
,,,,,,,,,183,107.844,0.00811957
,,,,,,,,,203,113.748,0.0247474
,,,,,,,,,128,119.869,0.0177523
,,,,,,,,,145,49.9848,0.0240641
,,,,,,,,,163,31.9618,0.036781
,,,,,,,,,182,124.205,0.00422145
,,,,,,,,,202,79.8847,0.00823242
,,,,,,,,,223,124.675,0.0258264
,,,,,,,,,162,168.487,0.0113312
,,,,,,,,,181,148.821,0.0135347
,,,,,,,,,201,115.47,0.00352632
,,,,,,,,,222,151.055,0.00594646
,,,,,,,,,244,69.0038,0.0117074
,,,,,,,,,200,24.524,0.0169179
,,,,,,,,,221,74.2325,0.00372014
,,,,,,,,,243,39.6352,0.00651924
,,,,,,,,,266,120.279,0.014156
,,,,,,,,,242,95.0807,0.00393021
,,,,,,,,,265,47.9901,0.00719298
,,,,,,,,,289,112.47,0.0177704
,,,,,,,,,288,53.0852,0.00286761
,,,,,,,,,313,81.1617,0.00375981
,,,,,,,,,338,82.4071,0.00664203
