"cellPairingIds","interplanarAngles","angleWeights"
8,107.695,0.0225914
13,99.576,0.0226654
26,34.0778,0.0153487
34,107.323,0.0141202
53,130.967,0.0154241
64,119.139,0.0115049
76,99.0866,0.00963496
103,71.8231,0.0229266
18,35.0143,0.0677576
63,39.1855,0.0281911
74,70.129,0.0283064
87,56.4519,0.0174175
130,65.7946,0.0104916
165,59.4629,0.0284548
184,79.4155,0.0298088
113,25.8888,0.0161217
164,37.9371,0.0217242
183,119.24,0.0245027
162,95.3614,0.0127996
201,24.8033,0.0249721
267,45.0718,0.028297
200,33.7307,0.00854101
290,75.2404,0.0174139
289,34.5314,0.0138536
314,91.4436,0.01346
288,107.345,0.0531114
339,27.4009,0.0516988
338,56.1335,0.0832474
365,100.314,0.0708059
392,72.0714,0.0798286
