Q	U	V
{$V$}	{[mm$^3$]}	0.00362052
{$d_v$}	{[mm]}	0.190513
{$S_c$}	{[mm$^2$]}	0.188473
{$S_o$}	{[mm$^2$]}	0.114003
{$S_l/S_o$}	[]	0.653228
{$\Psi$}	[]	0.604991
{$\eta$}	[]	0.641938
{med($\theta_e$)}	{[$^\circ$]}	55.643
{$\Upsilon$}	[]	16
{$\Xi$}	[]	7
