"cellPairingIds","interplanarAngles","angleWeights"
8,20.1519,0.0434707
13,37.8834,0.077179
26,37.3589,0.0482406
89,113.204,0.0367843
18,38.7144,0.0737705
102,94.7556,0.0359917
32,33.8276,0.107267
41,73.7821,0.0886449
74,73.9715,0.0256238
87,76.352,0.0659737
116,116.759,0.056379
50,47.2873,0.0584964
86,42.6917,0.0223014
115,75.6564,0.0567779
130,50.4592,0.0510963
147,112.185,0.0392009
162,68.5857,0.0197335
181,38.8699,0.0211344
200,92.1471,0.0426485
221,130.869,0.0340296
242,121.739,0.0384216
