facetNormals:0,facetNormals:1,facetNormals:2,FacetCenters:0,FacetCenters:1,FacetCenters:2,FacetIds,relFacetSize,absFacetSize,cellPairingIds,interplanarAngles,angleWeights
-0.213853,-0.443298,-0.845135,5.56961,3.8598,4.38611,1,0.0375662,0.00977433,8,39.7667,0.0518004
0.436308,-0.388138,-0.757811,5.66574,3.85096,4.4124,2,0.0834026,0.0217005,13,72.1205,0.0152246
0.748282,0.16094,-0.624794,5.6271,3.88056,4.40487,3,0.00954681,0.00248398,19,42.8691,0.0360208
-0.796248,-0.328684,-0.450659,5.51539,3.88799,4.44238,4,0.0345976,0.00900194,26,78.6582,0.0514953
-0.838873,0.422714,-0.229526,5.46987,3.91794,4.49135,5,0.0818409,0.0212941,34,92.1872,0.0376776
-0.42185,0.836848,-0.288894,5.52999,3.95977,4.44681,6,0.0377896,0.00983246,43,88.3526,0.0303189
0.748866,-0.608039,0.097188,5.68375,3.79796,4.50704,7,0.0254157,0.00661289,53,116.74,0.0415574
-0.676154,0.59265,0.365613,5.46774,3.91696,4.57951,8,0.0464975,0.0120982,64,145.769,0.0601404
0.393473,0.783901,0.419483,5.58802,3.95026,4.52787,9,0.150697,0.0392098,76,148.121,0.0524938
0.683034,0.398592,0.584359,5.64944,3.8659,4.5784,10,0.0871075,0.0226645,89,133.784,0.03217
-0.540864,0.352888,0.735521,5.47681,3.86387,4.63304,11,0.0281294,0.00731897,103,110.128,0.0139709
-0.31572,-0.543721,0.756952,5.51825,3.82158,4.63162,12,0.00858115,0.00223272,118,130.904,0.0389561
0.459616,-0.316279,0.770317,5.61449,3.80252,4.60477,13,0.0404528,0.0105254,134,135.686,0.0112156
-0.0395586,-0.245412,0.959235,5.54785,3.80278,4.66982,14,0.00659179,0.00171512,18,38.7208,0.0171325
,,,,,,,,,25,82.4828,0.0489072
,,,,,,,,,33,112.641,0.0826143
,,,,,,,,,42,108.001,0.0520124
,,,,,,,,,52,58.1771,0.0389591
,,,,,,,,,63,149.744,0.0597076
,,,,,,,,,75,118.966,0.107378
,,,,,,,,,88,108.566,0.0852148
,,,,,,,,,102,173.461,0.0420698
,,,,,,,,,117,122.105,0.0155612
,,,,,,,,,133,106.632,0.0544807
,,,,,,,,,150,133.197,0.0122179
,,,,,,,,,32,112.472,0.0149644
,,,,,,,,,41,115.83,0.017099
,,,,,,,,,51,90.0284,0.0152428
,,,,,,,,,62,65.2008,0.0138799
,,,,,,,,,74,131.784,0.0158411
,,,,,,,,,87,80.5029,0.0179561
,,,,,,,,,101,77.5079,0.0172077
,,,,,,,,,116,146.612,0.0142555
,,,,,,,,,132,145.029,0.00903826
,,,,,,,,,149,101.557,0.0154479
,,,,,,,,,167,133.057,0.00779877
,,,,,,,,,50,47.7202,0.0486351
,,,,,,,,,61,78.4415,0.0361232
,,,,,,,,,73,117.844,0.0293042
,,,,,,,,,86,79.0758,0.0396745
,,,,,,,,,100,143.519,0.0562753
,,,,,,,,,115,168.948,0.0495248
,,,,,,,,,131,91.0114,0.03103
,,,,,,,,,148,84.6632,0.0137515
,,,,,,,,,166,131.207,0.0372968
,,,,,,,,,185,109.409,0.0110737
,,,,,,,,,72,35.3019,0.0517048
,,,,,,,,,85,165.472,0.0387863
,,,,,,,,,99,38.5713,0.0593025
,,,,,,,,,114,95.7988,0.106075
,,,,,,,,,130,124.503,0.0843921
,,,,,,,,,147,62.703,0.0418683
,,,,,,,,,165,98.3833,0.0155336
,,,,,,,,,184,139.183,0.0541433
,,,,,,,,,204,107.662,0.0122009
,,,,,,,,,98,153.762,0.0303914
,,,,,,,,,113,44.7866,0.0416937
,,,,,,,,,129,67.2426,0.0604264
,,,,,,,,,146,97.3518,0.0527115
,,,,,,,,,164,71.096,0.0322517
,,,,,,,,,183,124.063,0.0139863
,,,,,,,,,203,136.903,0.0390759
,,,,,,,,,224,118.642,0.0112255
,,,,,,,,,128,152.038,0.0328664
,,,,,,,,,145,98.616,0.0434956
,,,,,,,,,163,70.0079,0.03935
,,,,,,,,,182,125.282,0.0267038
,,,,,,,,,202,79.8734,0.0128304
,,,,,,,,,223,48.4722,0.0312178
,,,,,,,,,245,77.2014,0.0104685
,,,,,,,,,162,68.1055,0.0710672
,,,,,,,,,181,90.718,0.0606307
,,,,,,,,,201,27.3603,0.0350529
,,,,,,,,,222,79.8697,0.0144884
,,,,,,,,,244,103.568,0.043265
,,,,,,,,,267,76.041,0.0115467
,,,,,,,,,200,30.1915,0.1104
,,,,,,,,,221,66.9664,0.0474093
,,,,,,,,,243,104.091,0.0162377
,,,,,,,,,266,73.9257,0.0637836
,,,,,,,,,290,78.3566,0.0126311
,,,,,,,,,242,77.9433,0.042526
,,,,,,,,,265,89.4101,0.0156232
,,,,,,,,,289,46.9864,0.0552483
,,,,,,,,,314,63.4386,0.0122561
,,,,,,,,,288,56.2113,0.0131506
,,,,,,,,,313,77.192,0.0331839
,,,,,,,,,339,48.6855,0.0106807
,,,,,,,,,338,49.3301,0.0141588
,,,,,,,,,365,26.5808,0.00745605
,,,,,,,,,392,32.1073,0.0113363
