"cellPairingIds","interplanarAngles","angleWeights"
8,38.8278,0.0224948
13,27.4519,0.0300744
19,134.975,0.0260805
26,81.0669,0.0338164
34,45.0972,0.0351993
64,92.0651,0.0422802
25,113.446,0.0231073
33,45.9966,0.0289814
63,87.8749,0.0325051
51,27.5468,0.0451689
87,72.8585,0.0575335
101,50.8959,0.0268245
132,72.2957,0.0620496
73,30.0799,0.0274394
86,58.2148,0.0405639
100,115.829,0.0444974
131,86.1416,0.0444102
72,59.4683,0.054172
99,46.8647,0.0629681
165,63.5713,0.0804069
183,51.1621,0.088692
128,50.3102,0.0417848
182,64.1774,0.0458778
201,101.103,0.0999451
222,74.384,0.114991
200,35.1487,0.0361269
221,35.5781,0.127775
243,75.1441,0.153444
265,46.5521,0.037857
288,74.8593,0.152411
