facetNormals:0,facetNormals:1,facetNormals:2,FacetCenters:0,FacetCenters:1,FacetCenters:2,FacetIds,relFacetSize,absFacetSize,cellPairingIds,interplanarAngles,angleWeights
-0.374684,-0.533968,-0.684086,5.00418,6.28134,4.96516,1,0.113659,0.0304083,8,89.0806,0.0269723
0.893801,-0.156197,-0.38952,5.22083,6.31378,4.98875,2,0.0153018,0.00409381,13,106.599,0.0861515
0.804029,0.389699,-0.363771,5.1992,6.37607,5.0049,3,0.0693641,0.0185576,19,47.9105,0.0772787
0.130486,-0.920483,-0.242953,5.12794,6.24236,5.03089,4,0.0585407,0.0156619,26,137.414,0.0255374
0.47867,0.854515,0.0697822,5.16646,6.38833,5.08667,5,0.0143847,0.00384847,34,127.807,0.0271192
-0.00435947,0.972182,0.069087,5.03977,6.40218,5.11459,6,0.0153964,0.00411914,43,82.7324,0.0657941
0.391222,-0.848052,0.277377,5.13745,6.2427,5.07161,7,0.0462971,0.0123863,53,122.992,0.068032
0.814619,-0.221666,0.444814,5.16992,6.31392,5.10507,8,0.0485443,0.0129875,64,155.449,0.0413357
0.694331,0.530833,0.42908,5.15089,6.3821,5.12879,9,0.0252614,0.00675839,76,82.0491,0.124138
-0.571693,-0.536555,0.548997,4.96126,6.30492,5.10585,10,0.136746,0.0365848,89,131.691,0.0639392
-0.400124,0.540728,0.668944,4.9818,6.411,5.12574,11,0.044481,0.0119004,103,115.997,0.0779099
0.218055,-0.456202,0.820269,5.12909,6.28799,5.13329,12,0.0592681,0.0158565,118,154.913,0.0812321
0.177585,0.252658,0.920234,5.11289,6.37749,5.15382,13,0.0632008,0.0169087,18,32.9366,0.0250725
,,,,,,,,,25,68.0257,0.0242618
,,,,,,,,,33,74.0044,0.0148291
,,,,,,,,,42,100.941,0.0153489
,,,,,,,,,52,67.1159,0.0230013
,,,,,,,,,63,51.2742,0.0232689
,,,,,,,,,75,67.3301,0.0190589
,,,,,,,,,88,132.707,0.0275236
,,,,,,,,,102,138.6,0.0227704
,,,,,,,,,117,93.2146,0.0243237
,,,,,,,,,133,104.451,0.0246383
,,,,,,,,,32,100.279,0.0634944
,,,,,,,,,41,43.0275,0.023828
,,,,,,,,,51,68.1314,0.0251994
,,,,,,,,,62,97.1407,0.0555304
,,,,,,,,,74,63.7761,0.0571161
,,,,,,,,,87,49.5782,0.0370351
,,,,,,,,,101,160.143,0.0920407
,,,,,,,,,116,112.779,0.0542032
,,,,,,,,,132,108.883,0.0639199
,,,,,,,,,149,95.7312,0.0661392
,,,,,,,,,50,141.758,0.0230946
,,,,,,,,,61,166.917,0.0243806
,,,,,,,,,73,35.2756,0.0517039
,,,,,,,,,86,77.2565,0.0530759
,,,,,,,,,100,122.469,0.0352931
,,,,,,,,,115,71.8885,0.0819841
,,,,,,,,,131,141.404,0.0505515
,,,,,,,,,148,74.394,0.0589022
,,,,,,,,,166,117.658,0.0607815
,,,,,,,,,72,29.4369,0.0148734
,,,,,,,,,85,122.787,0.0219496
,,,,,,,,,99,75.6927,0.0221931
,,,,,,,,,114,31.416,0.0183311
,,,,,,,,,130,137.582,0.0260311
,,,,,,,,,147,70.0909,0.0217392
,,,,,,,,,165,103.957,0.0231506
,,,,,,,,,184,67.4758,0.0234355
,,,,,,,,,98,148.198,0.0231081
,,,,,,,,,113,101.682,0.0233782
,,,,,,,,,129,55.1191,0.0191321
,,,,,,,,,146,121.053,0.0276767
,,,,,,,,,164,51.6534,0.022875
,,,,,,,,,183,114.388,0.0244431
,,,,,,,,,203,70.9728,0.0247608
,,,,,,,,,128,47.335,0.0473941
,,,,,,,,,145,93.5974,0.0326873
,,,,,,,,,163,65.7063,0.0691743
,,,,,,,,,182,117.695,0.0453709
,,,,,,,,,202,41.812,0.0519857
,,,,,,,,,223,83.2923,0.0534442
,,,,,,,,,162,46.5634,0.0332304
,,,,,,,,,181,96.4482,0.0716523
,,,,,,,,,201,99.4257,0.0464239
,,,,,,,,,222,45.576,0.0533729
,,,,,,,,,244,57.4773,0.0549114
,,,,,,,,,200,118.607,0.0426449
,,,,,,,,,221,71.293,0.0322229
,,,,,,,,,243,73.8351,0.0354242
,,,,,,,,,266,46.3563,0.0360954
,,,,,,,,,242,70.3147,0.0671268
,,,,,,,,,265,51.7931,0.0826948
,,,,,,,,,289,73.2266,0.0864475
,,,,,,,,,288,76.4108,0.0508208
,,,,,,,,,313,42.2943,0.0522138
,,,,,,,,,338,43.5147,0.0611713
