"cellPairingIds","interplanarAngles","angleWeights"
8,56.2633,0.0423647
13,96.3872,0.0570665
19,34.9178,0.0584031
34,99.3642,0.0149907
76,78.926,0.0887496
89,129.342,0.0427096
134,104.526,0.141845
18,48.2257,0.0308029
88,45.7553,0.0381552
41,47.8753,0.0593123
51,109.935,0.0132331
74,26.5563,0.0250679
101,73.5927,0.049683
132,78.3714,0.0377759
61,65.4268,0.0133037
131,98.113,0.0313746
72,72.5965,0.0151413
147,82.1907,0.0439551
165,69.6319,0.0590024
164,49.7539,0.0122762
181,50.8179,0.0297301
222,58.7959,0.0250124
265,65.2838,0.0494653
314,45.0349,0.103583
288,75.4039,0.0309
339,84.3527,0.0458706
365,45.9567,0.0625061
