facetNormals:0,facetNormals:1,facetNormals:2,FacetCenters:0,FacetCenters:1,FacetCenters:2,FacetIds,relFacetSize,absFacetSize,cellPairingIds,interplanarAngles,angleWeights
0.25539,-0.0364368,-0.909911,6.5551,3.51199,4.62177,1,0.0472737,0.0053667,8,44.6617,0.0403841
0.713118,0.36424,-0.520511,6.61515,3.53915,4.64525,2,0.0352472,0.0040014,13,41.6789,0.0320055
0.405305,-0.638,-0.619271,6.58287,3.49421,4.61226,3,0.0241921,0.00274638,19,70.7854,0.0277903
0.0487456,-0.943097,-0.286096,6.69928,3.43069,4.51905,4,0.0196795,0.0022341,26,108.99,0.0394773
-0.959673,0.00952838,0.0553998,6.61565,3.5022,4.59191,5,0.0338884,0.00384714,34,112.885,0.079936
-0.238901,-0.839853,0.346267,6.66711,3.44455,4.57989,6,0.258624,0.02936,43,134.962,0.0310973
-0.81321,0.277322,0.485488,6.57388,3.5282,4.59811,7,0.0231692,0.00263025,53,127.128,0.0364504
0.18094,-0.68073,0.70191,6.72873,3.46066,4.62039,8,0.0296598,0.0033671,64,138.766,0.0743577
0.0970914,0.580418,0.747871,6.67954,3.55033,4.62533,9,0.174107,0.0197653,76,164.197,0.0610262
-0.493786,0.0809691,0.812534,6.60816,3.51781,4.62813,10,0.0860631,0.00977022,18,66.0401,0.0286916
,,,,,,,,,25,99.7649,0.0252572
,,,,,,,,,33,140.626,0.0345544
,,,,,,,,,42,137.038,0.0620392
,,,,,,,,,52,140.916,0.0279595
,,,,,,,,,63,120.658,0.032213
,,,,,,,,,75,96.8642,0.0586258
,,,,,,,,,88,144.893,0.0500119
,,,,,,,,,32,34.0771,0.0217037
,,,,,,,,,41,117.198,0.0282308
,,,,,,,,,51,75.8381,0.0442454
,,,,,,,,,62,146.829,0.0236696
,,,,,,,,,74,85.6932,0.0266484
,,,,,,,,,87,148.645,0.0424814
,,,,,,,,,101,144.064,0.0377677
,,,,,,,,,50,94.3299,0.0248995
,,,,,,,,,61,42.6834,0.0365759
,,,,,,,,,73,116.867,0.0212822
,,,,,,,,,86,62.7019,0.0236603
,,,,,,,,,100,143.683,0.035362
,,,,,,,,,115,110.704,0.032034
,,,,,,,,,72,74.557,0.0599246
,,,,,,,,,85,31.3777,0.0275219
,,,,,,,,,99,98.4969,0.0316334
,,,,,,,,,114,92.8956,0.056734
,,,,,,,,,130,55.4945,0.0486286
,,,,,,,,,98,81.9711,0.0425284
,,,,,,,,,113,34.3092,0.0532166
,,,,,,,,,129,106.354,0.208112
,,,,,,,,,146,68.3072,0.129149
,,,,,,,,,128,89.7171,0.0260158
,,,,,,,,,145,61.7104,0.0408961
,,,,,,,,,163,29.642,0.0365095
,,,,,,,,,162,81.039,0.0506852
,,,,,,,,,181,63.3334,0.044116
,,,,,,,,,200,48.0777,0.115188
