Q	U	V
{$V$}	{[mm$^3$]}	0.00600967
{$d_v$}	{[mm]}	0.225571
{$S_c$}	{[mm$^2$]}	0.27627
{$S_o$}	{[mm$^2$]}	0.18177
{$S_l/S_o$}	[]	0.519888
{$\Psi$}	[]	0.578608
{$\eta$}	[]	0.627784
{med($\theta_e$)}	{[$^\circ$]}	52.81015
{$\Upsilon$}	[]	17
{$\Xi$}	[]	10
