Q	U	V
{$V$}	{[mm$^3$]}	0.00620441
{$d_v$}	{[mm]}	0.227982
{$S_c$}	{[mm$^2$]}	0.341481
{$S_o$}	{[mm$^2$]}	0.190736
{$S_l/S_o$}	[]	0.790333
{$\Psi$}	[]	0.478172
{$\eta$}	[]	0.506749
{med($\theta_e$)}	{[$^\circ$]}	72.4166
{$\Upsilon$}	[]	19
{$\Xi$}	[]	10
