Q	U	V
{$V$}	{[mm$^3$]}	0.00777896
{$d_v$}	{[mm]}	0.245833
{$S_c$}	{[mm$^2$]}	0.446406
{$S_o$}	{[mm$^2$]}	0.239341
{$S_l/S_o$}	[]	0.865146
{$\Psi$}	[]	0.425306
{$\eta$}	[]	0.457716
{med($\theta_e$)}	{[$^\circ$]}	61.4648
{$\Upsilon$}	[]	14
{$\Xi$}	[]	6
