"cellPairingIds","interplanarAngles","angleWeights"
8,36.7703,0.0291255
19,59.7987,0.0332272
89,102.988,0.0287625
103,126.71,0.0159235
25,55.5447,0.0665278
42,30.7141,0.0569299
63,55.5126,0.033359
75,92.3949,0.0170298
88,58.907,0.0484508
117,124.31,0.0209486
61,45.8698,0.0750351
86,67.583,0.0388523
131,87.1735,0.0646637
226,119.141,0.0724377
113,29.6413,0.0353698
181,23.4631,0.0319012
222,104.178,0.0171107
267,54.669,0.0386171
316,99.2839,0.0347819
200,60.4252,0.0166416
243,32.0421,0.0114696
265,84.0256,0.0203643
288,97.0958,0.0207602
313,72.0224,0.0463996
394,64.6178,0.0541224
338,25.5925,0.0201675
365,53.864,0.0229073
422,56.2945,0.021501
451,39.6675,0.0502708
481,55.5223,0.0716246
