Q	U	V
{$V$}	{[mm$^3$]}	0.0123969
{$d_v$}	{[mm]}	0.287147
{$S_c$}	{[mm$^2$]}	0.600893
{$S_o$}	{[mm$^2$]}	0.359439
{$S_l/S_o$}	[]	0.671752
{$\Psi$}	[]	0.431084
{$\eta$}	[]	0.484727
{med($\theta_e$)}	{[$^\circ$]}	89.2162
{$\Upsilon$}	[]	14
{$\Xi$}	[]	16
