facetNormals:0,facetNormals:1,facetNormals:2,FacetCenters:0,FacetCenters:1,FacetCenters:2,FacetIds,relFacetSize,absFacetSize,cellPairingIds,interplanarAngles,angleWeights
0.0134064,-0.424157,-0.857226,5.53504,5.5245,5.08979,1,0.072212,0.0280653,8,47.4354,0.0490042
-0.364073,0.258579,-0.875295,5.47519,5.63721,5.06945,2,0.0370855,0.0144134,13,77.7564,0.0377937
-0.186193,0.747651,-0.604605,5.49124,5.68412,5.10963,3,0.0255946,0.0099474,19,48.078,0.0807022
0.351032,-0.810063,-0.285395,5.57991,5.48596,5.15522,4,0.0914548,0.0355441,26,69.1057,0.0899046
0.730937,0.33326,-0.538287,5.61316,5.62633,5.1342,5,0.119081,0.0462809,34,112.782,0.0340737
-0.185956,0.959246,-0.0546964,5.52874,5.73749,5.20393,6,0.0222974,0.00866594,43,77.6356,0.0192765
-0.127358,-0.947411,0.231769,5.56586,5.4666,5.19995,7,0.0111228,0.0043229,53,104.09,0.0845861
-0.859261,0.162601,0.146999,5.50078,5.67286,5.21167,8,0.102078,0.0396728,64,140.811,0.0235041
0.109531,0.884583,0.413966,5.58315,5.7654,5.27522,9,0.0140364,0.00545526,76,150.019,0.0230598
-0.443686,0.573376,0.651323,5.51453,5.69283,5.26135,10,0.0137206,0.00533255,89,137.09,0.105867
0.211391,-0.206759,0.811406,5.58298,5.60909,5.28709,11,0.198274,0.0770595,18,34.7924,0.0302868
,,,,,,,,,25,95.5049,0.0527718
,,,,,,,,,33,72.1526,0.0565573
,,,,,,,,,42,67.7823,0.0278502
,,,,,,,,,52,114.543,0.017113
,,,,,,,,,63,74.9535,0.0544053
,,,,,,,,,75,100.349,0.0203649
,,,,,,,,,88,105.772,0.0200305
,,,,,,,,,102,172.148,0.062484
,,,,,,,,,32,123.266,0.0399959
,,,,,,,,,41,62.4173,0.0421333
,,,,,,,,,51,35.0261,0.0238325
,,,,,,,,,62,148.884,0.0155067
,,,,,,,,,74,77.182,0.0409273
,,,,,,,,,87,66.0529,0.01813
,,,,,,,,,101,82.9287,0.0178645
,,,,,,,,,116,144.029,0.0453368
,,,,,,,,,50,81.0071,0.103455
,,,,,,,,,61,155.57,0.0358535
,,,,,,,,,73,43.9901,0.0198334
,,,,,,,,,86,125.287,0.0964749
,,,,,,,,,100,150.837,0.0243374
,,,,,,,,,115,153.056,0.0238614
,,,,,,,,,131,89.2763,0.125173
,,,,,,,,,72,76.9802,0.0375616
,,,,,,,,,85,124.123,0.0203452
,,,,,,,,,99,139.598,0.109926
,,,,,,,,,114,80.7951,0.0251126
,,,,,,,,,130,120.889,0.0246061
,,,,,,,,,147,114.866,0.148796
,,,,,,,,,98,158.854,0.0148419
,,,,,,,,,113,69.2321,0.0366001
,,,,,,,,,129,33.1195,0.0172278
,,,,,,,,,146,51.2577,0.0169879
,,,,,,,,,164,109.493,0.0400868
,,,,,,,,,128,90.6928,0.0200598
,,,,,,,,,145,141.455,0.0124109
,,,,,,,,,163,110.502,0.0122859
,,,,,,,,,182,65.1472,0.021064
,,,,,,,,,162,82.711,0.0246792
,,,,,,,,,181,48.7168,0.0241899
,,,,,,,,,201,97.1999,0.134771
,,,,,,,,,200,40.5091,0.0138767
,,,,,,,,,221,78.0213,0.0262168
,,,,,,,,,242,67.9375,0.0256652
