facetNormals:0,facetNormals:1,facetNormals:2,FacetCenters:0,FacetCenters:1,FacetCenters:2,FacetIds,relFacetSize,absFacetSize,cellPairingIds,interplanarAngles,angleWeights
0.628195,-0.367477,-0.639829,7.04522,5.75576,3.71039,1,0.0450629,0.00759821,8,63.8579,0.0460129
0.396608,0.632842,-0.623131,6.97696,5.87294,3.68248,2,0.0470038,0.00792547,13,95.5867,0.0389068
-0.341771,0.649199,-0.571311,6.99218,5.8212,3.67871,3,0.0342306,0.00577172,19,27.6332,0.0380192
0.819807,0.0422325,-0.531622,7.04418,5.82644,3.68321,4,0.0328798,0.00554397,26,55.8308,0.0704746
-0.155145,-0.782666,-0.506902,6.95261,5.74443,3.73305,5,0.161608,0.0272492,34,29.7446,0.0322283
0.425544,-0.780697,-0.436075,7.03127,5.72221,3.74147,6,0.025084,0.0042295,43,92.8124,0.0664837
0.520566,0.773369,0.136947,7.02107,5.83296,3.76504,7,0.126721,0.0213668,53,50.0818,0.0250958
0.500113,-0.854627,0.0193318,7.02198,5.78353,3.71182,8,0.0173903,0.00293224,64,66.9494,0.039098
0.80689,-0.326299,0.409272,7.02838,5.82069,3.77475,9,0.0345276,0.00582182,76,87.2262,0.0329884
0.782879,0.293853,0.527414,7.04647,5.79975,3.80644,10,0.0260172,0.00438684,89,116.117,0.0174917
0.343206,0.730984,0.579998,7.00284,5.82507,3.82605,11,0.010852,0.0018298,103,124.995,0.0348886
-0.36041,-0.478634,0.765209,6.90852,5.75805,3.86504,12,0.0284623,0.00479913,118,104.46,0.0639463
0.445863,-0.070643,0.838445,7.00073,5.7549,3.86495,13,0.110071,0.0185594,18,45.7347,0.039613
,,,,,,,,,25,44.0994,0.0386932
,,,,,,,,,33,105.193,0.0728261
,,,,,,,,,42,93.187,0.0327113
,,,,,,,,,52,48.2278,0.0685725
,,,,,,,,,63,111.595,0.0253878
,,,,,,,,,75,98.7001,0.0398112
,,,,,,,,,88,79.95,0.0334947
,,,,,,,,,102,75.7956,0.017633
,,,,,,,,,117,167.436,0.0354553
,,,,,,,,,133,114.925,0.0658764
,,,,,,,,,32,86.7882,0.0335416
,,,,,,,,,41,100.851,0.0564948
,,,,,,,,,51,115.962,0.0289521
,,,,,,,,,62,73.6998,0.053901
,,,,,,,,,74,143.134,0.0230635
,,,,,,,,,87,143.77,0.0343785
,,,,,,,,,101,114.287,0.029564
,,,,,,,,,116,88.3949,0.0164796
,,,,,,,,,132,133.732,0.0310811
,,,,,,,,,149,139.894,0.0522211
,,,,,,,,,50,83.2142,0.0546423
,,,,,,,,,61,55.5621,0.0284577
,,,,,,,,,73,65.1942,0.0522122
,,,,,,,,,86,67.9502,0.0227487
,,,,,,,,,100,62.7882,0.0336836
,,,,,,,,,115,67.2548,0.0290487
,,,,,,,,,131,89.7705,0.0163182
,,,,,,,,,148,139.474,0.030512
,,,,,,,,,166,95.1253,0.0506343
,,,,,,,,,72,35.0849,0.0434274
,,,,,,,,,85,148.013,0.142054
,,,,,,,,,99,51.6022,0.0314016
,,,,,,,,,114,94.8749,0.0568988
,,,,,,,,,130,131.462,0.044819
,,,,,,,,,147,168.013,0.0203383
,,,,,,,,,165,87.3397,0.0484004
,,,,,,,,,184,119.181,0.130951
,,,,,,,,,98,118.27,0.0418783
,,,,,,,,,113,27.2957,0.0205404
,,,,,,,,,129,63.8598,0.0290578
,,,,,,,,,146,97.409,0.0255421
,,,,,,,,,164,133.482,0.0151498
,,,,,,,,,183,96.7659,0.0266666
,,,,,,,,,203,97.356,0.0408571
,,,,,,,,,128,115.242,0.0305835
,,,,,,,,,145,75.7068,0.0542687
,,,,,,,,,163,40.6261,0.0431709
,,,,,,,,,182,28.4864,0.019992
,,,,,,,,,202,119.647,0.0464841
,,,,,,,,,223,70.9884,0.11781
,,,,,,,,,162,43.5563,0.0231306
,,,,,,,,,181,81.153,0.0208465
,,,,,,,,,201,116.662,0.0133643
,,,,,,,,,222,75.3399,0.0215895
,,,,,,,,,244,71.4798,0.0300353
,,,,,,,,,200,37.7671,0.0296743
,,,,,,,,,221,73.2377,0.0165138
,,,,,,,,,243,78.9882,0.031203
,,,,,,,,,266,37.5656,0.0525661
,,,,,,,,,242,36.5749,0.0153157
,,,,,,,,,265,91.1464,0.0271849
,,,,,,,,,289,35.071,0.0420865
,,,,,,,,,288,91.7643,0.015713
,,,,,,,,,313,51.6311,0.0197563
,,,,,,,,,338,56.2093,0.0452292
