Q	U	V
{$V$}	{[mm$^3$]}	0.00623647
{$d_v$}	{[mm]}	0.228374
{$S_c$}	{[mm$^2$]}	0.311946
{$S_o$}	{[mm$^2$]}	0.19777
{$S_l/S_o$}	[]	0.577317
{$\Psi$}	[]	0.525247
{$\eta$}	[]	0.582053
{med($\theta_e$)}	{[$^\circ$]}	53.2872
{$\Upsilon$}	[]	17
{$\Xi$}	[]	14
