facetNormals:0,facetNormals:1,facetNormals:2,FacetCenters:0,FacetCenters:1,FacetCenters:2,FacetIds,relFacetSize,absFacetSize,cellPairingIds,interplanarAngles,angleWeights
0.262119,0.145544,-0.884685,6.90491,5.40279,7.20183,1,0.177381,0.0484743,8,68.0966,0.0253788
-0.620427,-0.391513,-0.62882,6.81091,5.35446,7.2008,2,0.0136671,0.00373491,13,41.61,0.145891
0.801942,0.0805375,-0.496442,6.98614,5.41686,7.27257,3,0.123896,0.0338579,19,58.9803,0.0717661
-0.281387,0.777098,-0.473917,6.90652,5.48893,7.26952,4,0.0449828,0.0122928,26,76.0255,0.0309169
-0.741466,0.514022,-0.385264,6.84271,5.44855,7.29384,5,0.0169343,0.00462775,34,74.3671,0.0373224
0.85829,0.476445,0.0529652,7.00386,5.43636,7.35081,6,0.0208553,0.00569926,43,101.623,0.0873256
-0.648138,0.690558,0.124779,6.85454,5.4579,7.30602,7,0.0579199,0.0158282,53,103.946,0.0520606
0.713313,-0.542804,0.368691,7.02387,5.38766,7.36639,8,0.0305072,0.00833691,64,139.458,0.129579
-0.736381,0.20953,0.593627,6.80699,5.40806,7.23883,9,0.102072,0.027894,76,116.616,0.100682
0.170503,0.718896,0.627258,6.98386,5.48198,7.36406,10,0.0702887,0.0192083,89,157.291,0.0557136
-0.564013,-0.327778,0.739297,6.89069,5.38216,7.32581,11,0.0330466,0.00903088,103,149.211,0.0416878
-0.261705,-0.625004,0.709576,6.93652,5.36432,7.34553,12,0.0236194,0.00645465,118,121.847,0.0188
0.58012,0.244401,0.763327,6.98652,5.36778,7.36326,13,0.00992603,0.00271256,18,103.718,0.0246185
,,,,,,,,,25,79.4628,0.0209646
,,,,,,,,,33,58.091,0.0151263
,,,,,,,,,42,142.375,0.0165128
,,,,,,,,,52,86.6898,0.0221157
,,,,,,,,,63,119.551,0.0188773
,,,,,,,,,75,89.905,0.0241065
,,,,,,,,,88,146.584,0.0228845
,,,,,,,,,102,89.1957,0.019337
,,,,,,,,,117,92.3656,0.0173151
,,,,,,,,,133,168.139,0.0115
,,,,,,,,,32,85.4079,0.0660022
,,,,,,,,,41,112.94,0.029796
,,,,,,,,,51,41.1828,0.035701
,,,,,,,,,62,125.578,0.0789375
,,,,,,,,,74,67.8923,0.048959
,,,,,,,,,87,161.245,0.11193
,,,,,,,,,101,97.3121,0.0896928
,,,,,,,,,116,154.98,0.0521763
,,,,,,,,,132,131.259,0.0396752
,,,,,,,,,149,83.504,0.0183796
,,,,,,,,,50,32.2248,0.0246055
,,,,,,,,,61,83.6474,0.028498
,,,,,,,,,73,43.5256,0.0506381
,,,,,,,,,86,149.701,0.0363571
,,,,,,,,,100,84.4851,0.062446
,,,,,,,,,115,76.637,0.054858
,,,,,,,,,131,118.373,0.0381018
,,,,,,,,,148,143.186,0.0309747
,,,,,,,,,166,110.822,0.0162633
,,,,,,,,,72,115.282,0.0186913
,,,,,,,,,85,32.83,0.0262065
,,,,,,,,,99,177.537,0.0217791
,,,,,,,,,114,63.4374,0.0290491
,,,,,,,,,130,89.9128,0.027293
,,,,,,,,,147,92.0804,0.0223934
,,,,,,,,,165,114.595,0.0197258
,,,,,,,,,184,128.075,0.0125159
,,,,,,,,,98,103.59,0.0306679
,,,,,,,,,113,66.945,0.0247743
,,,,,,,,,129,121.721,0.0346341
,,,,,,,,,146,56.7743,0.0321664
,,,,,,,,,164,128.327,0.0255722
,,,,,,,,,183,120.175,0.0221514
,,,,,,,,,203,47.6875,0.0134504
,,,,,,,,,128,148.706,0.0399645
,,,,,,,,,145,41.2262,0.0739038
,,,,,,,,,163,59.9083,0.0635077
,,,,,,,,,182,75.7739,0.0420827
,,,,,,,,,202,100.664,0.0335552
,,,,,,,,,223,96.8042,0.0169477
,,,,,,,,,162,116.58,0.0469746
,,,,,,,,,181,92.2777,0.0425475
,,,,,,,,,201,87.1104,0.0317261
,,,,,,,,,222,64.1788,0.026625
,,,,,,,,,244,54.08,0.0149785
,,,,,,,,,200,64.9584,0.08325
,,,,,,,,,221,34.6771,0.0499285
,,,,,,,,,243,59.4607,0.0383619
,,,,,,,,,266,85.3833,0.0180926
,,,,,,,,,242,82.0645,0.0449566
,,,,,,,,,265,92.9445,0.0353575
,,,,,,,,,289,38.2164,0.0173955
,,,,,,,,,288,24.9528,0.0275488
,,,,,,,,,313,80.7373,0.0152665
,,,,,,,,,338,75.8647,0.0139779
