facetNormals:0,facetNormals:1,facetNormals:2,FacetCenters:0,FacetCenters:1,FacetCenters:2,FacetIds,relFacetSize,absFacetSize,cellPairingIds,interplanarAngles,angleWeights
-0.344932,-0.00271934,-0.916966,3.87345,7.34708,6.61781,1,0.0105841,0.00352934,8,50.5597,0.0155194
0.284882,-0.534105,-0.770789,3.98154,7.27677,6.63262,2,0.0290785,0.00969642,13,53.7587,0.0192116
0.517728,0.0735397,-0.79714,3.99928,7.34368,6.63006,3,0.103927,0.0346551,19,37.3952,0.0134501
-0.318749,-0.591512,-0.705056,3.87614,7.28611,6.62703,4,0.0184448,0.00615053,26,58.9803,0.016965
0.0248889,0.800328,-0.545045,3.94259,7.41496,6.74722,5,0.0427204,0.0142454,34,85.8334,0.0164875
0.152745,-0.929065,-0.128469,3.93565,7.26484,6.66811,6,0.0372826,0.0124321,43,93.3941,0.0150933
0.930689,-0.064532,-0.28814,4.06425,7.33943,6.683,7,0.0262968,0.00876885,53,65.2438,0.0157673
-0.643061,-0.693655,-0.18747,3.85543,7.28422,6.64695,8,0.0308995,0.0103036,64,100.963,0.0196755
0.471762,0.804442,0.00964253,3.98302,7.45109,6.72504,9,0.139513,0.0465216,76,117.918,0.0197657
-0.128882,0.751758,0.503399,3.86712,7.45078,6.78021,10,0.149163,0.0497394,89,134.425,0.0124755
0.890051,-0.0974,0.398379,4.01739,7.35155,6.72931,11,0.0151899,0.00506517,103,106.348,0.0190799
-0.712243,-0.215395,0.546132,3.79871,7.36501,6.75666,12,0.096702,0.032246,118,144.73,0.0191411
0.322165,-0.546779,0.713195,3.97385,7.34267,6.77565,13,0.0999418,0.0333263,18,39.3388,0.0454423
,,,,,,,,,25,36.3734,0.0225719
,,,,,,,,,33,90.0153,0.0346034
,,,,,,,,,42,46.697,0.0326734
,,,,,,,,,52,56.9638,0.0276178
,,,,,,,,,63,69.4469,0.0299613
,,,,,,,,,75,109.339,0.0481261
,,,,,,,,,88,157.295,0.0486692
,,,,,,,,,102,90.0886,0.0199555
,,,,,,,,,117,124.226,0.044712
,,,,,,,,,133,100.213,0.0450496
,,,,,,,,,32,67.622,0.0313293
,,,,,,,,,41,56.757,0.0605507
,,,,,,,,,51,82.8242,0.0548782
,,,,,,,,,62,40.5991,0.0419731
,,,,,,,,,74,104.779,0.0476359
,,,,,,,,,87,70.5736,0.119119
,,,,,,,,,101,118.276,0.122502
,,,,,,,,,116,81.6251,0.0265057
,,,,,,,,,132,158.716,0.100184
,,,,,,,,,149,119.049,0.101895
,,,,,,,,,50,95.9046,0.0257652
,,,,,,,,,61,50.2795,0.0246797
,,,,,,,,,73,93.3355,0.0216818
,,,,,,,,,86,37.262,0.0231003
,,,,,,,,,100,134.178,0.0325819
,,,,,,,,,115,148.452,0.0328299
,,,,,,,,,131,122.083,0.0166598
,,,,,,,,,148,91.9518,0.0309804
,,,,,,,,,166,107.662,0.0311421
,,,,,,,,,72,136.688,0.0398167
,,,,,,,,,85,82.1871,0.0325545
,,,,,,,,,99,120.14,0.0358609
,,,,,,,,,114,43.9555,0.0654112
,,,,,,,,,130,68.5246,0.0664185
,,,,,,,,,147,106.71,0.0224111
,,,,,,,,,165,123.065,0.0592609
,,,,,,,,,184,152.243,0.0598554
,,,,,,,,,98,75.0648,0.0308406
,,,,,,,,,113,51.5088,0.0337922
,,,,,,,,,129,139.766,0.0588409
,,,,,,,,,146,154.342,0.0596548
,,,,,,,,,164,79.1521,0.0215853
,,,,,,,,,183,88.6174,0.0538167
,,,,,,,,,203,59.1221,0.0543065
,,,,,,,,,128,122.056,0.0284129
,,,,,,,,,145,65.0326,0.0442524
,,,,,,,,,163,110.57,0.0447112
,,,,,,,,,182,41.2097,0.0192565
,,,,,,,,,202,153.471,0.0413492
,,,,,,,,,223,82.0068,0.0416378
,,,,,,,,,162,163.706,0.0505934
,,,,,,,,,181,127.214,0.051194
,,,,,,,,,201,127.822,0.0203674
,,,,,,,,,222,55.4281,0.0468339
,,,,,,,,,244,87.6092,0.0472045
,,,,,,,,,200,49.9162,0.144177
,,,,,,,,,221,67.7966,0.0273968
,,,,,,,,,243,125.839,0.114228
,,,,,,,,,266,108.397,0.116458
,,,,,,,,,242,89.1932,0.027572
,,,,,,,,,265,75.949,0.117336
,,,,,,,,,289,96.1552,0.119689
,,,,,,,,,288,115.92,0.0262556
,,,,,,,,,313,48.1563,0.0263716
,,,,,,,,,338,71.6226,0.0982952
