facetNormals:0,facetNormals:1,facetNormals:2,FacetCenters:0,FacetCenters:1,FacetCenters:2,FacetIds,relFacetSize,absFacetSize,cellPairingIds,interplanarAngles,angleWeights
-0.405753,0.325139,-0.800616,6.44781,6.37782,5.2463,1,0.0894721,0.0113964,8,40.5952,0.0316871
0.165012,0.668992,-0.703563,6.45217,6.42193,5.28386,2,0.0192528,0.00245231,13,87.3615,0.0191669
0.417155,-0.707063,-0.552889,6.48314,6.27648,5.26971,3,0.0107331,0.00136712,19,34.119,0.0564142
-0.714606,0.535547,-0.377345,6.4166,6.40167,5.27422,4,0.041194,0.00524705,26,71.8295,0.0291933
-0.402561,-0.755799,-0.465305,6.44364,6.29115,5.25055,5,0.0174422,0.00222169,34,62.2092,0.0443989
-0.131737,0.949316,-0.0825004,6.47213,6.45821,5.3233,6,0.0295251,0.00376074,43,105.892,0.0275818
0.3621,-0.894649,-0.223383,6.49982,6.28273,5.26433,7,0.0163039,0.0020767,53,124.112,0.0457763
0.33806,-0.91954,0.114867,6.54061,6.29891,5.35435,8,0.0307559,0.00391751,64,133.245,0.0161496
0.758954,-0.604906,0.17539,6.56713,6.32337,5.35514,9,0.00887581,0.00113055,76,120.913,0.0684594
-0.190255,-0.891155,0.327709,6.51527,6.3104,5.37963,10,0.0554393,0.00706154,89,96.1314,0.0707501
-0.783684,-0.485466,0.324485,6.43915,6.332,5.31066,11,0.0585074,0.00745234,103,94.4801,0.0314196
0.297335,0.879613,0.297339,6.51687,6.4581,5.35968,12,0.0190557,0.0024272,118,149.453,0.0403132
0.361945,-0.753967,0.523668,6.49779,6.29925,5.36609,13,0.026018,0.00331402,134,120.401,0.03948
0.456365,0.622139,0.617784,6.58155,6.39378,5.42976,14,0.0253281,0.00322614,151,162.834,0.031261
0.638255,-0.1921,0.698321,6.5411,6.31684,5.37537,15,0.0189391,0.00241235,169,110.167,0.127744
-0.612969,0.0646325,0.729499,6.46605,6.38799,5.37566,16,0.223231,0.0284339,188,123.186,0.0409587
0.145547,0.562911,0.80064,6.55405,6.42062,5.41218,17,0.0265583,0.00338284,18,90.893,0.0137826
,,,,,,,,,25,58.0051,0.0262413
,,,,,,,,,33,104.77,0.0183029
,,,,,,,,,42,44.868,0.0233073
,,,,,,,,,52,113.026,0.0176561
,,,,,,,,,63,131.227,0.0236814
,,,,,,,,,75,114.505,0.0121502
,,,,,,,,,88,154.14,0.0285803
,,,,,,,,,102,135.156,0.028972
,,,,,,,,,117,63.5052,0.0191537
,,,,,,,,,133,146.799,0.0221299
,,,,,,,,,150,86.651,0.0218765
,,,,,,,,,168,122.766,0.0190947
,,,,,,,,,187,127.395,0.0354484
,,,,,,,,,207,99.6118,0.0223231
,,,,,,,,,32,119.201,0.0170292
,,,,,,,,,41,49.713,0.0132889
,,,,,,,,,51,135.626,0.0157431
,,,,,,,,,62,22.3096,0.0129446
,,,,,,,,,74,41.8127,0.0159129
,,,,,,,,,87,48.4596,0.00971649
,,,,,,,,,101,67.3212,0.0179844
,,,,,,,,,116,99.7052,0.0181386
,,,,,,,,,132,133.341,0.0137318
,,,,,,,,,149,66.1724,0.015197
,,,,,,,,,167,127.17,0.0150771
,,,,,,,,,186,89.0415,0.0137014
,,,,,,,,,206,138.206,0.0204814
,,,,,,,,,227,142.788,0.0152878
,,,,,,,,,50,86.4509,0.0245076
,,,,,,,,,61,47.1968,0.0343968
,,,,,,,,,73,132.885,0.0233617
,,,,,,,,,86,144.38,0.0352178
,,,,,,,,,100,167.232,0.0146048
,,,,,,,,,115,119.687,0.0472666
,,,,,,,,,131,79.1966,0.0483474
,,,,,,,,,148,81.0897,0.0260575
,,,,,,,,,166,154.03,0.0318927
,,,,,,,,,185,103.645,0.031369
,,,,,,,,,205,151.502,0.0259483
,,,,,,,,,226,77.6915,0.069553
,,,,,,,,,248,96.2637,0.0322953
,,,,,,,,,72,131.898,0.0219295
,,,,,,,,,85,48.926,0.0168539
,,,,,,,,,99,58.2796,0.0222603
,,,,,,,,,114,85.8204,0.0117649
,,,,,,,,,130,50.7091,0.0265358
,,,,,,,,,147,56.0868,0.0268731
,,,,,,,,,165,166.23,0.0182133
,,,,,,,,,184,79.1831,0.020884
,,,,,,,,,204,167.757,0.0206582
,,,,,,,,,225,117.655,0.0181599
,,,,,,,,,247,98.7464,0.0323563
,,,,,,,,,270,152.657,0.0210559
,,,,,,,,,98,157.21,0.0210074
,,,,,,,,,113,167.652,0.030128
,,,,,,,,,129,136.545,0.0136486
,,,,,,,,,146,155.545,0.0385303
,,,,,,,,,164,114.134,0.0392455
,,,,,,,,,183,34.671,0.0231623
,,,,,,,,,203,148.189,0.0276608
,,,,,,,,,224,59.7137,0.027266
,,,,,,,,,246,110.424,0.0230759
,,,,,,,,,269,84.884,0.0521524
,,,,,,,,,293,61.8437,0.0279632
,,,,,,,,,128,19.8042,0.0213108
,,,,,,,,,145,37.3379,0.0114942
,,,,,,,,,163,46.9255,0.0251976
,,,,,,,,,182,85.3752,0.0255015
,,,,,,,,,202,140.54,0.0175727
,,,,,,,,,223,45.2162,0.0200461
,,,,,,,,,245,122.724,0.019838
,,,,,,,,,268,75.0335,0.017523
,,,,,,,,,292,117.902,0.0303884
,,,,,,,,,317,129.975,0.0202045
,,,,,,,,,162,31.1083,0.013776
,,,,,,,,,181,33.9077,0.0395634
,,,,,,,,,201,76.885,0.0403178
,,,,,,,,,222,134.508,0.0235317
,,,,,,,,,244,25.871,0.0281893
,,,,,,,,,267,110.838,0.0277794
,,,,,,,,,291,60.2431,0.0234426
,,,,,,,,,316,101.192,0.0540633
,,,,,,,,,342,112.686,0.0285034
,,,,,,,,,200,61.7431,0.0153018
,,,,,,,,,221,104.677,0.0154134
,,,,,,,,,243,105.334,0.0121107
,,,,,,,,,266,32.2974,0.0132362
,,,,,,,,,290,85.3884,0.0131451
,,,,,,,,,315,40.5819,0.012087
,,,,,,,,,341,113.552,0.0170728
,,,,,,,,,368,95.2693,0.0133051
,,,,,,,,,242,43.3618,0.0569321
,,,,,,,,,265,141.904,0.0283625
,,,,,,,,,289,35.8374,0.0354154
,,,,,,,,,314,117.286,0.0347708
,,,,,,,,,340,72.6608,0.0282332
,,,,,,,,,367,71.1969,0.0888202
,,,,,,,,,395,106.177,0.0359126
,,,,,,,,,288,126.26,0.0287482
,,,,,,,,,313,74.8339,0.0360187
,,,,,,,,,339,118.384,0.0353521
,,,,,,,,,366,101.02,0.0286153
,,,,,,,,,394,42.7206,0.0927149
,,,,,,,,,423,97.5788,0.0365331
,,,,,,,,,338,114.56,0.0219991
,,,,,,,,,365,25.934,0.0217487
,,,,,,,,,393,75.9531,0.0189972
,,,,,,,,,422,84.3602,0.0351139
,,,,,,,,,452,36.4001,0.02219
,,,,,,,,,392,88.8474,0.0256684
,,,,,,,,,421,38.881,0.0219212
,,,,,,,,,451,83.2097,0.0466042
,,,,,,,,,482,87.2096,0.0262854
,,,,,,,,,450,50.7922,0.0216725
,,,,,,,,,481,77.0749,0.0454943
,,,,,,,,,513,21.2948,0.0259286
,,,,,,,,,512,83.4117,0.0349159
,,,,,,,,,545,55.2939,0.0221107
,,,,,,,,,578,55.7946,0.0474691
