"cellPairingIds","interplanarAngles","angleWeights"
8,50.5597,0.0155194
19,37.3952,0.0134501
26,58.9803,0.016965
53,65.2438,0.0157673
18,39.3388,0.0454423
25,36.3734,0.0225719
33,90.0153,0.0346034
42,46.697,0.0326734
41,56.757,0.0605507
51,82.8242,0.0548782
116,81.6251,0.0265057
61,50.2795,0.0246797
86,37.262,0.0231003
99,120.14,0.0358609
114,43.9555,0.0654112
130,68.5246,0.0664185
147,106.71,0.0224111
165,123.065,0.0592609
113,51.5088,0.0337922
164,79.1521,0.0215853
203,59.1221,0.0543065
222,55.4281,0.0468339
244,87.6092,0.0472045
200,49.9162,0.144177
221,67.7966,0.0273968
242,89.1932,0.027572
265,75.949,0.117336
289,96.1552,0.119689
313,48.1563,0.0263716
338,71.6226,0.0982952
