facetNormals:0,facetNormals:1,facetNormals:2,FacetCenters:0,FacetCenters:1,FacetCenters:2,FacetIds,relFacetSize,absFacetSize,cellPairingIds,interplanarAngles,angleWeights
0.291842,-0.327763,-0.872902,4.94938,3.53625,5.21525,1,0.0280766,0.00584386,8,54.9779,0.0337047
0.396218,0.536573,-0.681572,4.99634,3.63295,5.24823,2,0.0421548,0.0087741,13,22.8659,0.0278692
0.588938,-0.452017,-0.653183,4.98501,3.5303,5.22905,3,0.0276649,0.00575816,19,56.428,0.0118178
-0.442642,-0.741143,-0.481504,4.83471,3.5197,5.23294,4,0.00748397,0.00155771,26,84.6887,0.0206469
-0.89505,-0.269435,-0.299782,4.78809,3.54993,5.24652,5,0.0163265,0.00339819,34,103.176,0.0420174
-0.154741,0.924515,-0.156413,4.88781,3.68294,5.29621,6,0.0834547,0.0173702,43,75.4218,0.0342066
0.474616,-0.807361,0.192478,4.96471,3.51232,5.28845,7,0.0437608,0.00910836,53,77.317,0.0461993
-0.221563,-0.907177,0.0368924,4.88364,3.49791,5.27362,8,0.130312,0.027123,64,115.578,0.0330335
-0.854629,-0.349594,0.317351,4.84415,3.55015,5.32265,9,0.0401159,0.00834971,76,124.799,0.0316774
-0.910606,0.27537,0.215189,4.79935,3.60542,5.29848,10,0.0363377,0.00756331,89,151.248,0.0338446
-0.690681,0.336966,0.598192,4.8369,3.63091,5.34587,11,0.0425951,0.00886573,103,107.491,0.0464927
0.790511,0.109651,0.548986,4.99918,3.60527,5.32792,12,0.135123,0.0281244,118,119.349,0.0301084
-0.156012,-0.645248,0.732373,4.85759,3.54112,5.34471,13,0.0324571,0.0067556,134,172.048,0.0286173
-0.336115,0.440025,0.810444,4.86364,3.65697,5.3616,14,0.0291791,0.00607333,151,123.932,0.0215034
0.425651,-0.260211,0.862621,4.94856,3.54069,5.38086,15,0.0174241,0.00362665,169,147.51,0.037068
-0.0860959,-0.169365,0.942665,4.9022,3.58246,5.3324,16,0.0545313,0.0113501,18,62.4612,0.0334063
,,,,,,,,,25,105.057,0.0127113
,,,,,,,,,33,108.361,0.0235371
,,,,,,,,,42,53.3199,0.0560152
,,,,,,,,,52,114.378,0.0429428
,,,,,,,,,63,132.289,0.0637024
,,,,,,,,,75,142.885,0.0411101
,,,,,,,,,88,112.751,0.0390307
,,,,,,,,,102,122.614,0.0423738
,,,,,,,,,117,90.1317,0.0642617
,,,,,,,,,133,164.239,0.0366757
,,,,,,,,,150,118.696,0.0344868
,,,,,,,,,168,126.025,0.0246567
,,,,,,,,,187,146.815,0.0475509
,,,,,,,,,32,66.559,0.0117809
,,,,,,,,,41,102.466,0.0205345
,,,,,,,,,51,115.655,0.0415546
,,,,,,,,,62,56.7241,0.0338992
,,,,,,,,,74,73.9519,0.0456404
,,,,,,,,,87,124.914,0.0327468
,,,,,,,,,101,146.184,0.0314137
,,,,,,,,,116,170.505,0.0335436
,,,,,,,,,132,86.5639,0.0459268
,,,,,,,,,149,106.56,0.02987
,,,,,,,,,167,162.609,0.0284018
,,,,,,,,,186,101.423,0.0213815
,,,,,,,,,206,128.341,0.0367073
,,,,,,,,,50,40.2813,0.0102633
,,,,,,,,,61,125.193,0.0137361
,,,,,,,,,73,71.7729,0.012782
,,,,,,,,,86,35.4377,0.014155
,,,,,,,,,100,59.861,0.0126146
,,,,,,,,,115,84.3231,0.0124117
,,,,,,,,,131,103.949,0.0127311
,,,,,,,,,148,136.585,0.0141824
,,,,,,,,,166,78.5094,0.0121633
,,,,,,,,,185,125.803,0.0119126
,,,,,,,,,205,114.656,0.0104706
,,,,,,,,,226,107.78,0.0131616
,,,,,,,,,72,93.9158,0.0273102
,,,,,,,,,85,106.399,0.0237807
,,,,,,,,,99,61.9302,0.0290174
,,,,,,,,,114,37.1436,0.0232078
,,,,,,,,,130,45.0573,0.0225302
,,,,,,,,,147,68.6473,0.0236052
,,,,,,,,,165,161.489,0.0291329
,,,,,,,,,184,84.4442,0.0217249
,,,,,,,,,204,93.6105,0.0209377
,,,,,,,,,225,125.603,0.0168574
,,,,,,,,,247,99.7527,0.0251293
,,,,,,,,,98,159.3,0.0574151
,,,,,,,,,113,155.813,0.101748
,,,,,,,,,129,105.028,0.0541854
,,,,,,,,,146,67.0232,0.0506301
,,,,,,,,,164,69.4521,0.0564025
,,,,,,,,,183,96.6634,0.103182
,,,,,,,,,203,136.995,0.0467372
,,,,,,,,,224,69.1463,0.0432398
,,,,,,,,,246,117.779,0.0288291
,,,,,,,,,269,108.548,0.0659617
,,,,,,,,,128,44.7702,0.0655192
,,,,,,,,,145,93.8259,0.0418592
,,,,,,,,,163,131.104,0.0397053
,,,,,,,,,182,121.371,0.0431701
,,,,,,,,,202,64.9371,0.066111
,,,,,,,,,223,51.5352,0.0372707
,,,,,,,,,245,112.478,0.0350124
,,,,,,,,,268,52.6409,0.0249242
,,,,,,,,,292,72.4447,0.0485559
,,,,,,,,,162,55.3961,0.0613465
,,,,,,,,,181,92.5222,0.0568286
,,,,,,,,,201,98.2494,0.0642038
,,,,,,,,,222,106.319,0.132674
,,,,,,,,,244,45.5479,0.0519699
,,,,,,,,,267,108.747,0.0476815
,,,,,,,,,291,79.2585,0.0307382
,,,,,,,,,316,76.6508,0.0768876
,,,,,,,,,200,38.0187,0.0381334
,,,,,,,,,221,45.8503,0.0413184
,,,,,,,,,243,124.795,0.0618651
,,,,,,,,,266,52.2149,0.0358824
,,,,,,,,,290,65.9462,0.0337844
,,,,,,,,,315,89.9441,0.0242956
,,,,,,,,,341,62.6096,0.0462258
,,,,,,,,,242,26.4493,0.0392184
,,,,,,,,,265,127.222,0.0572733
,,,,,,,,,289,82.7313,0.0342879
,,,,,,,,,314,51.0653,0.0323673
,,,,,,,,,340,106.351,0.023554
,,,,,,,,,367,75.5143,0.0436131
,,,,,,,,,288,101.04,0.064772
,,,,,,,,,313,70.0514,0.0368414
,,,,,,,,,339,25.1564,0.0346332
,,,,,,,,,366,82.0429,0.0247315
,,,,,,,,,394,52.7933,0.0478298
,,,,,,,,,338,77.4545,0.0523415
,,,,,,,,,365,76.1581,0.0479941
,,,,,,,,,393,35.94,0.0308678
,,,,,,,,,422,62.447,0.0777038
,,,,,,,,,392,68.0883,0.0307309
,,,,,,,,,421,41.8904,0.0226753
,,,,,,,,,451,31.1939,0.0406934
,,,,,,,,,450,63.1648,0.0218191
,,,,,,,,,481,40.4375,0.0380162
,,,,,,,,,512,31.0921,0.0264097
