Q	U	V
{$V$}	{[mm$^3$]}	0.00897235
{$d_v$}	{[mm]}	0.257812
{$S_c$}	{[mm$^2$]}	0.448495
{$S_o$}	{[mm$^2$]}	0.252177
{$S_l/S_o$}	[]	0.778493
{$\Psi$}	[]	0.465583
{$\eta$}	[]	0.496072
{med($\theta_e$)}	{[$^\circ$]}	87.4759
{$\Upsilon$}	[]	13
{$\Xi$}	[]	9
