facetNormals:0,facetNormals:1,facetNormals:2,FacetCenters:0,FacetCenters:1,FacetCenters:2,FacetIds,relFacetSize,absFacetSize,cellPairingIds,interplanarAngles,angleWeights
-0.0702649,-0.378027,-0.884661,4.75491,5.54976,5.26855,1,0.0407838,0.0114824,8,44.9802,0.0293258
0.556427,0.00512817,-0.794525,4.93653,5.7043,5.21501,2,0.0228939,0.00644563,13,39.3247,0.0284363
-0.670706,-0.265924,-0.655078,4.72434,5.58516,5.25787,3,0.0218279,0.00614549,19,58.2385,0.0157682
-0.752263,0.222623,-0.603455,4.75164,5.67682,5.22445,4,0.00977349,0.00275166,26,68.5568,0.0424886
-0.467903,0.577211,-0.586929,4.81638,5.71052,5.21309,5,0.0443422,0.0124842,34,81.142,0.0294019
0.581011,0.608129,-0.467581,4.9402,5.72759,5.24804,6,0.0229868,0.00647177,43,91.6401,0.0538221
0.900422,-0.255209,0.0668182,4.94804,5.62239,5.32204,7,0.0791145,0.0222741,53,113.558,0.0352929
-0.29045,0.940066,0.0507244,4.86051,5.74791,5.26933,8,0.0311051,0.00875742,64,119.513,0.0402388
0.873136,0.219842,0.356958,4.96547,5.67937,5.31929,9,0.0397083,0.0111796,76,84.8081,0.0395016
-0.575676,-0.733668,0.263608,4.73182,5.51607,5.33222,10,0.0382976,0.0107824,89,97.0232,0.053003
0.369949,-0.764365,0.423769,4.86986,5.52584,5.36138,11,0.0756766,0.0213062,103,137.819,0.0626226
-0.460277,0.645949,0.532388,4.79603,5.66907,5.34631,12,0.134811,0.037955,118,118.567,0.0395125
-0.680349,-0.225015,0.657135,4.74651,5.55502,5.38045,13,0.0383181,0.0107882,134,119.698,0.0191471
-0.378906,-0.489619,0.775263,4.77982,5.53477,5.38753,14,0.0125101,0.00352214,151,155.482,0.0256867
0.392873,0.119726,0.890427,4.92771,5.64504,5.37747,15,0.018747,0.0052781,169,167.662,0.0501805
0.0742135,0.56634,0.793716,4.88502,5.6847,5.35602,16,0.0652036,0.0183576,18,81.1204,0.0223482
,,,,,,,,,25,86.296,0.0136989
,,,,,,,,,33,76.8513,0.0301971
,,,,,,,,,42,41.6101,0.0229403
,,,,,,,,,52,60.6118,0.0355116
,,,,,,,,,63,101.902,0.0263752
,,,,,,,,,75,77.4997,0.029043
,,,,,,,,,88,124.58,0.028657
,,,,,,,,,102,98.4179,0.0351532
,,,,,,,,,117,136.829,0.0391408
,,,,,,,,,133,162.984,0.0286627
,,,,,,,,,150,149.512,0.0161793
,,,,,,,,,168,120.885,0.020614
,,,,,,,,,187,128.188,0.033889
,,,,,,,,,32,29.3591,0.0135016
,,,,,,,,,41,53.8132,0.0292548
,,,,,,,,,51,105.151,0.0223923
,,,,,,,,,62,129.355,0.0342156
,,,,,,,,,74,95.2833,0.0256535
,,,,,,,,,87,158.452,0.0281703
,,,,,,,,,101,64.3691,0.027807
,,,,,,,,,116,110.405,0.0338827
,,,,,,,,,132,103.152,0.0375722
,,,,,,,,,149,84.8121,0.0278124
,,,,,,,,,167,97.3399,0.0159048
,,,,,,,,,186,156.848,0.0201705
,,,,,,,,,206,139.103,0.0327067
,,,,,,,,,50,27.0494,0.0160167
,,,,,,,,,61,91.1746,0.0137155
,,,,,,,,,73,146.51,0.0173977
,,,,,,,,,86,65.9649,0.0148736
,,,,,,,,,100,149.183,0.0156861
,,,,,,,,,115,83.3755,0.0155728
,,,,,,,,,131,138.562,0.0173113
,,,,,,,,,148,79.7169,0.0182257
,,,,,,,,,166,86.1177,0.0155745
,,,,,,,,,185,107.287,0.0109738
,,,,,,,,,205,146.17,0.0128486
,,,,,,,,,226,114.98,0.016999
,,,,,,,,,72,67.166,0.0302777
,,,,,,,,,85,133.17,0.0568314
,,,,,,,,,99,45.9396,0.0365624
,,,,,,,,,114,122.381,0.0418975
,,,,,,,,,130,109.668,0.0410988
,,,,,,,,,147,163.814,0.055919
,,,,,,,,,165,72.2513,0.066734
,,,,,,,,,184,102.371,0.0411106
,,,,,,,,,204,126.618,0.0195147
,,,,,,,,,225,133.347,0.0263527
,,,,,,,,,247,100.811,0.0527865
,,,,,,,,,98,68.1041,0.0356232
,,,,,,,,,113,66.4233,0.0264367
,,,,,,,,,129,59.4261,0.0291176
,,,,,,,,,146,165.755,0.0287296
,,,,,,,,,164,119.379,0.0352625
,,,,,,,,,183,97.7234,0.0392765
,,,,,,,,,203,153.785,0.0287354
,,,,,,,,,224,157.241,0.0162024
,,,,,,,,,246,97.0169,0.0206516
,,,,,,,,,269,89.0014,0.0339906
,,,,,,,,,128,122.601,0.0446538
,,,,,,,,,145,33.9406,0.0528771
,,,,,,,,,163,110.168,0.0516113
,,,,,,,,,182,51.3215,0.0773573
,,,,,,,,,202,127.346,0.0997122
,,,,,,,,,223,124.086,0.0516299
,,,,,,,,,245,100.173,0.0216041
,,,,,,,,,268,65.4211,0.0303115
,,,,,,,,,292,91.5412,0.0714886
,,,,,,,,,162,91.7313,0.0348841
,,,,,,,,,181,122.224,0.0343286
,,,,,,,,,201,149.363,0.0440886
,,,,,,,,,222,35.3192,0.0505473
,,,,,,,,,244,88.8389,0.0343369
,,,,,,,,,267,108.546,0.0178437
,,,,,,,,,291,87.4129,0.0233943
,,,,,,,,,316,55.1082,0.042118
,,,,,,,,,200,127.379,0.0389902
,,,,,,,,,221,70.5395,0.0520863
,,,,,,,,,243,94.3289,0.0613469
,,,,,,,,,266,115.737,0.0390008
,,,,,,,,,290,99.6897,0.0190261
,,,,,,,,,315,43.6516,0.0254695
,,,,,,,,,341,60.0656,0.049358
,,,,,,,,,242,60.0241,0.0508577
,,,,,,,,,265,94.2496,0.0596496
,,,,,,,,,289,39.2204,0.0383078
,,,,,,,,,314,35.6071,0.0188597
,,,,,,,,,340,94.7858,0.0251721
,,,,,,,,,367,105.233,0.0482534
,,,,,,,,,288,118.919,0.0969371
,,,,,,,,,313,77.5601,0.0508758
,,,,,,,,,339,53.3084,0.0214709
,,,,,,,,,366,62.3993,0.0300499
,,,,,,,,,394,94.269,0.0700508
,,,,,,,,,338,56.1281,0.0596745
,,,,,,,,,365,73.393,0.0228956
,,,,,,,,,393,66.6972,0.0329166
,,,,,,,,,422,36.1558,0.0878951
,,,,,,,,,392,24.5525,0.0188621
,,,,,,,,,421,72.2348,0.0251765
,,,,,,,,,451,68.8109,0.0482697
,,,,,,,,,450,60.2447,0.0150063
,,,,,,,,,481,71.3701,0.0209926
,,,,,,,,,512,33.0527,0.0291213
