Q	U	V
{$V$}	{[mm$^3$]}	0.00841781
{$d_v$}	{[mm]}	0.252387
{$S_c$}	{[mm$^2$]}	0.373458
{$S_o$}	{[mm$^2$]}	0.237065
{$S_l/S_o$}	[]	0.575340
{$\Psi$}	[]	0.535848
{$\eta$}	[]	0.587266
{med($\theta_e$)}	{[$^\circ$]}	80.8254
{$\Upsilon$}	[]	7
{$\Xi$}	[]	10
