Q	U	V
{$V$}	{[mm$^3$]}	0.00553231
{$d_v$}	{[mm]}	0.219433
{$S_c$}	{[mm$^2$]}	0.255712
{$S_o$}	{[mm$^2$]}	0.155285
{$S_l/S_o$}	[]	0.646727
{$\Psi$}	[]	0.591567
{$\eta$}	[]	0.614300
{med($\theta_e$)}	{[$^\circ$]}	52.20815
{$\Upsilon$}	[]	14
{$\Xi$}	[]	6
