Q	U	V
{$V$}	{[mm$^3$]}	0.0132044
{$d_v$}	{[mm]}	0.293251
{$S_c$}	{[mm$^2$]}	0.502675
{$S_o$}	{[mm$^2$]}	0.318365
{$S_l/S_o$}	[]	0.578927
{$\Psi$}	[]	0.537456
{$\eta$}	[]	0.541620
{med($\theta_e$)}	{[$^\circ$]}	59.2187
{$\Upsilon$}	[]	11
{$\Xi$}	[]	9
