"cellPairingIds","interplanarAngles","angleWeights"
8,65.0871,0.0666567
26,71.306,0.0179722
34,81.9496,0.0544044
43,52.2415,0.0669631
53,67.5223,0.0456771
103,104.899,0.0787857
25,58.9061,0.0626898
33,67.08,0.019121
42,38.8243,0.0664978
75,76.3762,0.10612
50,28.0646,0.0176708
100,62.482,0.0729109
131,87.779,0.0441893
99,71.4883,0.016895
147,86.2271,0.0169558
98,57.1905,0.0668027
129,70.2764,0.0781133
183,117.589,0.0785638
202,78.4923,0.107744
201,59.6477,0.0396379
222,67.0809,0.0615747
221,83.7914,0.0621054
243,111.743,0.140574
288,60.3629,0.0623899
