Q	U	V
{$V$}	{[mm$^3$]}	0.0042095
{$d_v$}	{[mm]}	0.200329
{$S_c$}	{[mm$^2$]}	0.314006
{$S_o$}	{[mm$^2$]}	0.169043
{$S_l/S_o$}	[]	0.857551
{$\Psi$}	[]	0.401513
{$\eta$}	[]	0.446632
{med($\theta_e$)}	{[$^\circ$]}	83.46775
{$\Upsilon$}	[]	9
{$\Xi$}	[]	5
