"cellPairingIds","interplanarAngles","angleWeights"
8,48.904,0.0357227
13,68.5454,0.018458
26,29.2392,0.0313819
64,78.9168,0.087193
18,74.8099,0.0156528
25,25.7551,0.0272191
42,33.7155,0.0257293
75,65.7269,0.0472185
32,58.6002,0.0158925
41,85.8669,0.0147583
51,87.2059,0.0153728
62,74.8023,0.0149901
74,92.7698,0.017946
101,65.9394,0.0122478
149,104.867,0.0208462
61,30.0884,0.0263835
85,45.3261,0.0225229
114,76.1892,0.0399198
113,31.7547,0.0325707
129,64.821,0.0447596
164,48.7922,0.0129143
145,112.938,0.0416623
163,42.7478,0.0171562
202,95.1023,0.0318488
201,31.4986,0.0146829
244,77.1683,0.0734059
221,57.5372,0.0167376
243,37.5272,0.0829917
265,111.897,0.0215819
289,65.9846,0.025286
288,66.7976,0.0148939
313,69.3382,0.0165689
338,84.6503,0.0790023
