facetNormals:0,facetNormals:1,facetNormals:2,FacetCenters:0,FacetCenters:1,FacetCenters:2,FacetIds,relFacetSize,absFacetSize,cellPairingIds,interplanarAngles,angleWeights
0.20312,-0.324034,-0.892119,6.0371,3.37064,3.93219,1,0.0363878,0.0102431,8,42.2416,0.0319884
-0.426956,-0.0119372,-0.882801,5.91154,3.34293,3.95565,2,0.028538,0.00803335,13,54.6575,0.0405296
-0.6041,-0.479748,-0.565155,5.9296,3.33394,3.9526,3,0.0457353,0.0128743,19,61.2052,0.0459
0.240825,0.606316,-0.646865,5.92431,3.40629,3.9626,4,0.0621454,0.0174937,26,78.9303,0.0439169
-0.563751,0.579725,-0.542323,5.88613,3.43483,3.99007,5,0.0553744,0.0155877,34,45.7413,0.0459711
0.416495,-0.794874,-0.347037,6.01157,3.33898,3.96116,6,0.0624067,0.0175673,43,82.5277,0.0491737
-0.882862,0.0898831,-0.369684,5.89005,3.36072,3.98388,7,0.0758126,0.021341,53,110.05,0.0348479
-0.488064,0.839993,-0.0533003,5.89496,3.45851,4.01361,8,0.033433,0.00941128,64,80.1887,0.0196238
0.939122,0.209475,-0.0408171,5.98389,3.34774,3.98259,9,0.0134345,0.00378176,76,103.639,0.0224141
0.651528,0.705791,0.141057,5.99086,3.3725,3.98135,10,0.0161949,0.00455882,89,142.622,0.0277896
-0.227169,0.807003,0.498419,6.03923,3.37898,3.98761,11,0.0224781,0.0063275,103,115.583,0.0620581
0.00179505,-0.624011,0.650597,5.90974,3.37194,4.04275,12,0.210697,0.0593105,118,139.625,0.0362877
-0.731522,0.0155101,0.625913,5.91125,3.3759,4.04376,13,0.0361881,0.0101868,134,164.272,0.0422779
0.0592587,0.340866,0.878144,5.93442,3.43304,4.07351,14,0.0504429,0.0141995,18,35.5984,0.0351457
,,,,,,,,,25,59.2261,0.0391142
,,,,,,,,,33,41.736,0.0376649
,,,,,,,,,42,81.5885,0.0391658
,,,,,,,,,52,41.8549,0.0414667
,,,,,,,,,63,75.0963,0.0307922
,,,,,,,,,75,112.894,0.0182688
,,,,,,,,,88,115.582,0.0206636
,,,,,,,,,102,111.634,0.0251481
,,,,,,,,,117,129.948,0.0502675
,,,,,,,,,133,104.75,0.031911
,,,,,,,,,150,150.371,0.0364529
,,,,,,,,,32,94.6211,0.0526923
,,,,,,,,,41,66.6569,0.0500954
,,,,,,,,,51,69.2578,0.052786
,,,,,,,,,62,40.4923,0.0570526
,,,,,,,,,74,94.8103,0.0386283
,,,,,,,,,87,134.433,0.0207684
,,,,,,,,,101,150.988,0.0239198
,,,,,,,,,116,124.748,0.0301419
,,,,,,,,,132,94.6177,0.0751567
,,,,,,,,,149,84.9699,0.0404054
,,,,,,,,,167,140.416,0.0479739
,,,,,,,,,50,50.7026,0.0585648
,,,,,,,,,61,100.241,0.0622757
,,,,,,,,,73,84.7368,0.068302
,,,,,,,,,86,61.5202,0.0434765
,,,,,,,,,100,64.5958,0.0220929
,,,,,,,,,115,56.3996,0.0256941
,,,,,,,,,131,82.8081,0.0330147
,,,,,,,,,148,164.676,0.095981
,,,,,,,,,166,130.256,0.0457408
,,,,,,,,,185,113.596,0.055686
,,,,,,,,,72,122.795,0.0586806
,,,,,,,,,85,36.7176,0.0640014
,,,,,,,,,99,33.3838,0.0416932
,,,,,,,,,114,114.299,0.021623
,,,,,,,,,130,92.0997,0.0250606
,,,,,,,,,147,69.9483,0.0319761
,,,,,,,,,165,144.615,0.0876999
,,,,,,,,,184,84.9858,0.0437711
,,,,,,,,,204,109.849,0.0527937
,,,,,,,,,98,109.638,0.0684595
,,,,,,,,,113,155.593,0.0435403
,,,,,,,,,129,75.0657,0.0221094
,,,,,,,,,146,111.254,0.0257163
,,,,,,,,,164,165.628,0.0330515
,,,,,,,,,183,71.7951,0.0962924
,,,,,,,,,203,125.215,0.0458114
,,,,,,,,,224,127.356,0.0557906
,,,,,,,,,128,55.7736,0.0464027
,,,,,,,,,145,149.192,0.0228243
,,,,,,,,,163,127.172,0.0266887
,,,,,,,,,182,84.5633,0.0346751
,,,,,,,,,202,110.125,0.111504
,,,,,,,,,223,63.3055,0.0489911
,,,,,,,,,245,112.437,0.0605789
,,,,,,,,,162,107.401,0.019167
,,,,,,,,,181,73.5582,0.0218202
,,,,,,,,,201,36.565,0.0268823
,,,,,,,,,222,129.654,0.0577089
,,,,,,,,,244,68.9367,0.0347561
,,,,,,,,,267,76.7423,0.0402132
,,,,,,,,,200,36.256,0.0146861
,,,,,,,,,221,93.9458,0.0168176
,,,,,,,,,243,100.324,0.0252584
,,,,,,,,,266,139.897,0.0195946
,,,,,,,,,290,84.241,0.021218
,,,,,,,,,242,58.7039,0.0188261
,,,,,,,,,265,113.393,0.030078
,,,,,,,,,289,113.809,0.0223761
,,,,,,,,,314,63.9046,0.0245182
,,,,,,,,,288,101.794,0.0406224
,,,,,,,,,313,58.5022,0.0277311
,,,,,,,,,339,40.567,0.0310983
,,,,,,,,,338,62.8403,0.0617675
,,,,,,,,,365,65.0645,0.0813983
,,,,,,,,,392,55.7424,0.0421428
