facetNormals:0,facetNormals:1,facetNormals:2,FacetCenters:0,FacetCenters:1,FacetCenters:2,FacetIds,relFacetSize,absFacetSize,cellPairingIds,interplanarAngles,angleWeights
0.0990844,0.454584,-0.838632,3.6724,5.51846,6.04506,1,0.170694,0.0321334,8,65.7513,0.0565646
0.495268,-0.501298,-0.669857,3.72447,5.39492,6.05004,2,0.033899,0.00638154,13,54.4949,0.099946
0.799772,0.0131612,-0.538974,3.76535,5.48936,6.08524,3,0.0706596,0.0133018,19,79.5024,0.0510244
-0.186145,-0.726779,-0.61854,3.64016,5.36814,6.02748,4,0.0299954,0.00564667,26,34.8844,0.0270307
-0.0137214,0.881889,-0.454281,3.69502,5.62766,6.19464,5,0.0146775,0.00276306,34,54.7804,0.158213
0.657911,0.641589,-0.193905,3.76557,5.58382,6.18881,6,0.147432,0.0277544,43,63.0818,0.0745727
-0.240733,0.95473,-0.0207945,3.67407,5.61679,6.16465,7,0.0477076,0.00898103,53,101.856,0.0755951
0.873815,-0.413172,0.107781,3.81096,5.49671,6.22174,8,0.0485477,0.00913917,64,83.4149,0.147048
-0.83796,0.461824,0.0258041,3.65012,5.55174,6.16347,9,0.129156,0.0243139,76,85.6597,0.0277916
0.271194,0.852722,0.40911,3.7509,5.60398,6.27052,10,0.0151273,0.00284773,89,130.905,0.028796
-0.151669,0.340053,0.886228,3.7242,5.56644,6.26496,11,0.0157244,0.00296014,18,36.837,0.0458172
,,,,,,,,,25,43.4362,0.0318279
,,,,,,,,,33,98.6205,0.0204853
,,,,,,,,,42,81.555,0.0551235
,,,,,,,,,52,127.576,0.039635
,,,,,,,,,63,53.1041,0.039922
,,,,,,,,,75,135.506,0.0537029
,,,,,,,,,88,126.365,0.0209194
,,,,,,,,,102,153.89,0.0214834
,,,,,,,,,32,79.2495,0.0421134
,,,,,,,,,41,75.1357,0.0243061
,,,,,,,,,51,45.1264,0.0955332
,,,,,,,,,62,100.234,0.0569583
,,,,,,,,,74,47.3689,0.0575528
,,,,,,,,,87,137.258,0.0913454
,,,,,,,,,101,89.5401,0.0249196
,,,,,,,,,116,129.88,0.0257242
,,,,,,,,,50,111.745,0.0197103
,,,,,,,,,61,120.889,0.0498489
,,,,,,,,,73,131.635,0.0368327
,,,,,,,,,86,85.6966,0.0370804
,,,,,,,,,100,102.134,0.0486843
,,,,,,,,,115,164.813,0.0201117
,,,,,,,,,131,145.153,0.0206326
,,,,,,,,,72,46.2049,0.0266972
,,,,,,,,,85,28.9811,0.0224486
,,,,,,,,,99,116.155,0.0225403
,,,,,,,,,114,64.6174,0.0263595
,,,,,,,,,130,54.8174,0.014899
,,,,,,,,,147,96.0567,0.0151829
,,,,,,,,,98,60.3055,0.0720882
,,,,,,,,,113,71.5613,0.0730431
,,,,,,,,,129,106.812,0.137691
,,,,,,,,,146,45.6301,0.0274391
,,,,,,,,,164,93.3944,0.0284178
,,,,,,,,,128,129.331,0.048124
,,,,,,,,,145,47.0634,0.0696777
,,,,,,,,,163,40.179,0.0229708
,,,,,,,,,182,68.7743,0.0236528
,,,,,,,,,162,171.333,0.0705695
,,,,,,,,,181,94.2703,0.0230669
,,,,,,,,,201,100.945,0.0237547
,,,,,,,,,200,79.1596,0.0270825
,,,,,,,,,221,70.508,0.0280355
,,,,,,,,,242,49.7257,0.01542
