Q	U	V
{$V$}	{[mm$^3$]}	0.00708312
{$d_v$}	{[mm]}	0.238273
{$S_c$}	{[mm$^2$]}	0.27491
{$S_o$}	{[mm$^2$]}	0.190148
{$S_l/S_o$}	[]	0.445769
{$\Psi$}	[]	0.648799
{$\eta$}	[]	0.667935
{med($\theta_e$)}	{[$^\circ$]}	66.7771
{$\Upsilon$}	[]	10
{$\Xi$}	[]	12
