Q	U	V
{$V$}	{[mm$^3$]}	0.00453367
{$d_v$}	{[mm]}	0.205345
{$S_c$}	{[mm$^2$]}	0.218106
{$S_o$}	{[mm$^2$]}	0.131466
{$S_l/S_o$}	[]	0.659030
{$\Psi$}	[]	0.607365
{$\eta$}	[]	0.630744
{med($\theta_e$)}	{[$^\circ$]}	54.5166
{$\Upsilon$}	[]	11
{$\Xi$}	[]	4
