facetNormals:0,facetNormals:1,facetNormals:2,FacetCenters:0,FacetCenters:1,FacetCenters:2,FacetIds,relFacetSize,absFacetSize,cellPairingIds,interplanarAngles,angleWeights
-0.201288,-0.495085,-0.824881,6.92029,5.57375,4.01988,1,0.0315631,0.00531387,8,32.2697,0.0466578
-0.332631,0.0236031,-0.899817,6.94979,5.58639,3.92832,2,0.0894236,0.0150551,13,68.4924,0.0392807
-0.282129,0.607071,-0.727344,6.9557,5.66465,3.93768,3,0.0519938,0.00875353,19,49.1902,0.0224494
0.393984,-0.832107,-0.369158,7.00333,5.51885,3.97261,4,0.0174195,0.0029327,26,74.2396,0.0523279
0.809966,-0.0751839,-0.454019,7.04389,5.58367,3.98758,5,0.152953,0.0257507,34,74.9915,0.0432491
-0.78292,0.437729,-0.371215,6.87491,5.64546,3.9993,6,0.0686758,0.0115621,43,77.8873,0.0244006
0.778543,-0.601059,-0.07588,7.01711,5.53692,4.04863,7,0.0198876,0.00334821,53,50.2137,0.0419677
-0.764219,-0.535933,-0.223739,6.9172,5.54898,3.97754,8,0.0626049,0.01054,64,76.1683,0.0368986
0.337499,-0.879677,0.172746,7.00547,5.52304,4.02185,9,0.0444048,0.00747586,76,77.9661,0.0152124
-0.0568119,-0.932791,0.327698,6.98137,5.51969,4.00896,10,0.0100211,0.00168713,89,88.2596,0.0231855
-0.800625,-0.404904,0.402798,7.01696,5.53961,4.03779,11,0.0183224,0.0030847,103,144.576,0.0474642
0.34188,0.811484,0.349357,6.98803,5.66286,4.01591,12,0.0956532,0.0161039,118,84.7314,0.0317549
-0.337535,-0.787211,0.449029,6.97142,5.52174,4.01202,13,0.0319491,0.00537885,134,164.141,0.0378499
-0.0417042,0.591195,0.760071,7.02537,5.62892,4.04405,14,0.0472639,0.00795721,18,36.4886,0.0657553
,,,,,,,,,25,79.0087,0.029159
,,,,,,,,,33,81.1626,0.112862
,,,,,,,,,42,49.5177,0.0776883
,,,,,,,,,52,102.499,0.0325386
,,,,,,,,,63,61.2612,0.0736488
,,,,,,,,,75,108.289,0.0593422
,,,,,,,,,88,108.274,0.0180226
,,,,,,,,,102,96.43,0.0304132
,,,,,,,,,117,116.732,0.0924336
,,,,,,,,,133,109.537,0.0470782
,,,,,,,,,150,135.183,0.0618419
,,,,,,,,,32,110.775,0.0260961
,,,,,,,,,41,86.5092,0.0776065
,,,,,,,,,51,37.9577,0.0591817
,,,,,,,,,62,122.876,0.0287705
,,,,,,,,,74,86.7982,0.0568081
,,,,,,,,,87,142.866,0.0479006
,,,,,,,,,101,143.664,0.0168036
,,,,,,,,,116,108.775,0.0270962
,,,,,,,,,132,81.2738,0.0673684
,,,,,,,,,149,137.895,0.0395782
,,,,,,,,,167,101.023,0.0495162
,,,,,,,,,50,53.5281,0.031277
,,,,,,,,,61,123.8,0.0277901
,,,,,,,,,73,31.4362,0.0185719
,,,,,,,,,86,76.1782,0.0272554
,,,,,,,,,100,32.5196,0.0250229
,,,,,,,,,115,49.8924,0.012723
,,,,,,,,,131,97.4927,0.0178595
,,,,,,,,,148,135.438,0.0294719
,,,,,,,,,166,68.1965,0.0225462
,,,,,,,,,185,145.612,0.0254568
,,,,,,,,,72,123.453,0.0947906
,,,,,,,,,85,39.39,0.0351985
,,,,,,,,,99,122.248,0.0888449
,,,,,,,,,114,72.9886,0.0688277
,,,,,,,,,130,97.7663,0.0188099
,,,,,,,,,147,150.951,0.0327246
,,,,,,,,,165,86.2782,0.1177
,,,,,,,,,184,117.649,0.0528572
,,,,,,,,,204,118.129,0.0722132
,,,,,,,,,98,151.863,0.0308433
,,,,,,,,,113,61.3477,0.0655
,,,,,,,,,129,140.104,0.0539356
,,,,,,,,,146,120.331,0.0174901
,,,,,,,,,164,71.6815,0.0289271
,,,,,,,,,183,92.6264,0.0799501
,,,,,,,,,203,105.255,0.0436101
,,,,,,,,,224,89.4314,0.0559927
,,,,,,,,,128,105.678,0.030186
,,,,,,,,,145,34.5405,0.0274715
,,,,,,,,,163,59.7897,0.0133269
,,,,,,,,,182,115.033,0.0190729
,,,,,,,,,202,105.395,0.0329288
,,,,,,,,,223,79.3505,0.0245151
,,,,,,,,,245,117.939,0.0279953
,,,,,,,,,162,79.0358,0.0519571
,,,,,,,,,181,60.3656,0.0172768
,,,,,,,,,201,38.5029,0.0283482
,,,,,,,,,222,148.384,0.0756784
,,,,,,,,,244,51.3798,0.0423075
,,,,,,,,,267,119.462,0.0538634
,,,,,,,,,200,25.2493,0.016352
,,,,,,,,,221,80.4956,0.0259409
,,,,,,,,,243,126.369,0.0606529
,,,,,,,,,266,44.9042,0.037161
,,,,,,,,,290,115.87,0.0457898
,,,,,,,,,242,55.2475,0.0129561
,,,,,,,,,265,134.872,0.0181416
,,,,,,,,,289,19.883,0.0152568
,,,,,,,,,314,108.32,0.0165362
,,,,,,,,,288,119.698,0.0307538
,,,,,,,,,313,35.9588,0.0232889
,,,,,,,,,339,83.934,0.0264076
,,,,,,,,,338,130.693,0.0478993
,,,,,,,,,365,36.8098,0.0632667
,,,,,,,,,392,96.779,0.038126
