"cellPairingIds","interplanarAngles","angleWeights"
8,33.1452,0.109972
13,66.7677,0.029041
26,59.9866,0.046616
34,52.9014,0.0745718
43,68.7822,0.0445606
103,135.166,0.0351138
42,37.8607,0.0689465
52,51.7953,0.0424891
63,58.1334,0.0506218
88,54.3013,0.0632492
41,45.3771,0.0208826
87,46.3239,0.0224869
132,103.464,0.0182103
72,55.4643,0.0372264
114,58.1901,0.0317581
184,64.3361,0.0474093
204,69.7703,0.0367043
113,27.472,0.0415438
203,62.2991,0.076623
163,46.1011,0.0342952
182,45.8241,0.010927
202,83.1361,0.0232986
181,52.9156,0.039405
244,42.5168,0.0546411
316,44.2383,0.0466557
243,86.0478,0.0259639
290,37.8295,0.0419671
242,51.5209,0.0119344
340,57.7447,0.0109912
367,51.5784,0.0571763
288,47.6248,0.0102507
366,35.0067,0.00652147
338,114.528,0.0355621
365,88.5687,0.0291786
393,50.8747,0.00954708
422,93.6411,0.0319977
392,36.5782,0.0744434
451,40.603,0.096029
512,45.2311,0.0114893
