Q	U	V
{$V$}	{[mm$^3$]}	0.00711993
{$d_v$}	{[mm]}	0.238685
{$S_c$}	{[mm$^2$]}	0.339431
{$S_o$}	{[mm$^2$]}	0.196834
{$S_l/S_o$}	[]	0.724453
{$\Psi$}	[]	0.52729
{$\eta$}	[]	0.571775
{med($\theta_e$)}	{[$^\circ$]}	60.9208
{$\Upsilon$}	[]	16
{$\Xi$}	[]	9
