facetNormals:0,facetNormals:1,facetNormals:2,FacetCenters:0,FacetCenters:1,FacetCenters:2,FacetIds,relFacetSize,absFacetSize,cellPairingIds,interplanarAngles,angleWeights
0.392268,0.124454,-0.875233,4.77927,4.60106,6.00181,1,0.00837316,0.000725037,8,65.8765,0.0133123
-0.0124311,-0.786832,-0.551429,4.67833,4.56329,5.97692,2,0.0324598,0.00281072,13,55.3269,0.0105427
0.958121,-0.0290684,-0.1889,4.62384,4.6496,5.98929,3,0.0142299,0.00123217,19,98.7714,0.00764156
-0.104141,-0.998769,-0.0194493,4.73345,4.56104,6.0001,4,0.00702753,0.000608518,26,112.526,0.0154952
-0.812902,-0.508757,-0.0304899,4.63202,4.59433,5.98278,5,0.103705,0.00897986,34,121.167,0.0159664
-0.947674,0.117482,0.144288,4.61432,4.67554,5.99118,6,0.171412,0.0148427,43,133.661,0.0121572
-0.519506,-0.731443,0.418359,4.6525,4.58621,6.04581,7,0.0221816,0.00192072,53,113.416,0.0108388
-0.346352,0.846937,0.404555,4.65956,4.7383,6.02006,8,0.0153626,0.00133026,64,131.403,0.0132021
-0.675156,0.528888,0.49703,4.64363,4.73646,6.00911,9,0.0311894,0.00270071,76,124.33,0.0151551
0.186296,-0.752396,0.579715,4.70915,4.56339,6.03219,10,0.0797456,0.00690522,89,120.235,0.0156981
0.560375,-0.237061,0.75852,4.76283,4.63004,6.04819,11,0.125399,0.0108583,103,139.416,0.0159793
0.0361318,0.392332,0.884855,4.70499,4.69688,6.06066,12,0.174444,0.0151052,18,82.956,0.0197859
,,,,,,,,,25,34.2354,0.0115537
,,,,,,,,,33,62.3938,0.0494437
,,,,,,,,,42,99.9421,0.0545834
,,,,,,,,,52,68.3272,0.0263541
,,,,,,,,,63,157.038,0.020855
,,,,,,,,,75,135.711,0.031812
,,,,,,,,,88,73.1228,0.0461391
,,,,,,,,,102,104.801,0.0515705
,,,,,,,,,117,148.915,0.0547348
,,,,,,,,,32,93.9194,0.00940856
,,,,,,,,,41,143.994,0.0250258
,,,,,,,,,51,174.161,0.0262782
,,,,,,,,,62,125.057,0.0173375
,,,,,,,,,74,116.287,0.0147745
,,,,,,,,,87,141.331,0.0195433
,,,,,,,,,101,84.4866,0.0241503
,,,,,,,,,116,65.0658,0.0255593
,,,,,,,,,132,98.7485,0.0263133
,,,,,,,,,50,51.9931,0.0131631
,,,,,,,,,61,91.2673,0.0135015
,,,,,,,,,73,38.6469,0.0106735
,,,,,,,,,86,144.465,0.00964363
,,,,,,,,,100,118.012,0.0114705
,,,,,,,,,115,42.1459,0.0129168
,,,,,,,,,131,80.3534,0.0133092
,,,,,,,,,148,115.109,0.0135108
,,,,,,,,,72,40.3484,0.129227
,,,,,,,,,85,34.613,0.0365463
,,,,,,,,,99,99.6961,0.0267609
,,,,,,,,,114,73.8462,0.047956
,,,,,,,,,130,76.6984,0.0901607
,,,,,,,,,147,112.567,0.113525
,,,,,,,,,165,105.987,0.130079
,,,,,,,,,98,60.776,0.0392802
,,,,,,,,,113,59.7948,0.028198
,,,,,,,,,129,36.083,0.052776
,,,,,,,,,146,101.183,0.108851
,,,,,,,,,164,118.594,0.144839
,,,,,,,,,183,81.4222,0.172915
,,,,,,,,,128,105.839,0.0181529
,,,,,,,,,145,79.9147,0.0259254
,,,,,,,,,163,43.4078,0.0347088
,,,,,,,,,182,78.0318,0.0376954
,,,,,,,,,202,86.146,0.0393586
,,,,,,,,,162,27.0986,0.0205856
,,,,,,,,,181,118.848,0.0257622
,,,,,,,,,201,95.1898,0.0273719
,,,,,,,,,222,45.6226,0.0282383
,,,,,,,,,200,104.213,0.044841
,,,,,,,,,221,97.5538,0.0499541
,,,,,,,,,243,49.5515,0.0529175
,,,,,,,,,242,39.8602,0.0974923
,,,,,,,,,265,76.1452,0.109455
,,,,,,,,,288,50.5542,0.14591
