Q	U	V
{$V$}	{[mm$^3$]}	0.00341866
{$d_v$}	{[mm]}	0.186904
{$S_c$}	{[mm$^2$]}	0.191108
{$S_o$}	{[mm$^2$]}	0.108674
{$S_l/S_o$}	[]	0.758544
{$\Psi$}	[]	0.574261
{$\eta$}	[]	0.640816
{med($\theta_e$)}	{[$^\circ$]}	47.1108
{$\Upsilon$}	[]	12
{$\Xi$}	[]	9
