facetNormals:0,facetNormals:1,facetNormals:2,FacetCenters:0,FacetCenters:1,FacetCenters:2,FacetIds,relFacetSize,absFacetSize,cellPairingIds,interplanarAngles,angleWeights
0.332679,0.327577,-0.82833,3.00148,6.20066,5.30493,1,0.0747254,0.014161,8,26.7452,0.0165941
0.700252,0.0985135,-0.69927,3.03685,6.21517,5.33521,2,0.00933338,0.00176874,13,88.9715,0.113538
-0.563913,-0.619145,-0.491341,2.88439,6.14312,5.35405,3,0.236245,0.0447701,19,42.5725,0.0215868
0.880624,0.16964,-0.41436,3.0591,6.23616,5.37015,4,0.0126156,0.00239074,26,78.8406,0.0055259
-0.553449,0.814756,-0.120525,2.97985,6.16854,5.32363,5,0.00286903,0.000543701,34,86.1823,0.102327
0.851337,-0.43016,0.0985142,3.02789,6.16414,5.40899,6,0.162264,0.0307501,43,139.558,0.0207172
-0.819866,-0.403449,0.373607,2.88453,6.16154,5.47049,7,0.0120256,0.00227894,53,88.7206,0.0745351
0.855423,0.181527,0.390799,3.03682,6.26168,5.45907,8,0.0743458,0.014089,64,123.609,0.0201117
-0.341729,0.575868,0.711126,2.87769,6.15481,5.48136,9,0.0116195,0.00220197,76,138.013,0.0839868
0.249277,-0.638274,0.658676,2.95723,6.15121,5.48772,10,0.0958688,0.0181678,89,150.434,0.0472688
0.0625438,-0.0712766,0.975379,2.96881,6.17443,5.50061,11,0.0345675,0.00655078,18,96.6783,0.0179573
,,,,,,,,,25,20.0189,0.0107291
,,,,,,,,,33,103.061,0.00438893
,,,,,,,,,42,59.4389,0.0176514
,,,,,,,,,52,153.046,0.0105098
,,,,,,,,,63,68.8547,0.0165847
,,,,,,,,,75,134.414,0.0103517
,,,,,,,,,88,111.662,0.0170107
,,,,,,,,,102,131.46,0.0146982
,,,,,,,,,32,114.517,0.0239521
,,,,,,,,,41,97.9427,0.00566921
,,,,,,,,,51,106.354,0.192388
,,,,,,,,,62,56.5344,0.0228863
,,,,,,,,,74,147.78,0.1131
,,,,,,,,,87,122.763,0.0221496
,,,,,,,,,101,94.2892,0.13639
,,,,,,,,,116,119.627,0.0603104
,,,,,,,,,50,107.772,0.0046749
,,,,,,,,,61,47.8344,0.0234111
,,,,,,,,,73,165.75,0.0123136
,,,,,,,,,86,48.8895,0.0215709
,,,,,,,,,100,121.063,0.0120971
,,,,,,,,,115,99.9154,0.0222971
,,,,,,,,,131,111.904,0.018485
,,,,,,,,,72,151.161,0.00563837
,,,,,,,,,85,85.3148,0.00463279
,,,,,,,,,99,113.083,0.00552485
,,,,,,,,,114,53.7881,0.0046018
,,,,,,,,,130,141.429,0.00557133
,,,,,,,,,147,102.486,0.00529831
,,,,,,,,,98,121.006,0.0223918
,,,,,,,,,113,41.4271,0.101971
,,,,,,,,,129,120.018,0.0216861
,,,,,,,,,146,52.7506,0.120528
,,,,,,,,,164,78.9572,0.0569936
,,,,,,,,,128,131.664,0.0207026
,,,,,,,,,145,71.026,0.0118191
,,,,,,,,,163,71.4033,0.0213706
,,,,,,,,,182,69.3045,0.0178437
,,,,,,,,,162,84.4724,0.0200979
,,,,,,,,,181,67.0636,0.0837466
,,,,,,,,,201,63.3008,0.0471926
,,,,,,,,,200,89.0338,0.0207269
,,,,,,,,,221,48.7455,0.0173927
,,,,,,,,,242,40.9456,0.0508132
