Q	U	V
{$V$}	{[mm$^3$]}	0.0044838
{$d_v$}	{[mm]}	0.204589
{$S_c$}	{[mm$^2$]}	0.2272
{$S_o$}	{[mm$^2$]}	0.136531
{$S_l/S_o$}	[]	0.664091
{$\Psi$}	[]	0.578771
{$\eta$}	[]	0.635823
{med($\theta_e$)}	{[$^\circ$]}	49.9954
{$\Upsilon$}	[]	15
{$\Xi$}	[]	9
