"cellPairingIds","interplanarAngles","angleWeights"
8,43.0257,0.022231
13,34.9924,0.0165282
34,46.2262,0.0303817
18,70.1718,0.0217636
33,25.1238,0.0184579
42,54.8884,0.0544655
133,116.434,0.0406456
51,77.2102,0.0295153
62,67.7356,0.00514421
87,77.6357,0.0227867
149,129.287,0.0249231
72,44.3271,0.0237475
130,57.7024,0.0240414
184,114.232,0.0206815
113,48.1935,0.0824351
129,57.6069,0.0613601
146,91.8212,0.173073
203,150.532,0.0797745
128,98.9058,0.00579229
145,65.5752,0.0056558
182,73.4415,0.00552877
223,87.7089,0.00577875
162,39.6137,0.0451767
201,33.7296,0.0381712
244,117.467,0.0544264
289,59.7899,0.0831905
313,94.222,0.0375906
