facetNormals:0,facetNormals:1,facetNormals:2,FacetCenters:0,FacetCenters:1,FacetCenters:2,FacetIds,relFacetSize,absFacetSize,cellPairingIds,interplanarAngles,angleWeights
-0.173937,-0.531607,-0.730661,4.57888,4.25939,4.26561,1,0.160557,0.0370029,8,106.44,0.0350793
0.544454,0.723088,-0.314213,4.64467,4.30995,4.2946,2,0.0196907,0.00453802,13,47.5756,0.0707304
0.122709,-0.929522,-0.161172,4.63169,4.21601,4.3293,3,0.0453554,0.0104529,19,78.9026,0.0430973
0.610413,-0.746603,0.160897,4.6849,4.14415,4.38381,4,0.024889,0.00573606,26,79.3878,0.141576
-0.909886,-0.174942,0.126983,4.5241,4.22278,4.35848,5,0.126608,0.0291788,34,111.392,0.133205
-0.727278,0.5842,0.184945,4.53759,4.33236,4.31005,6,0.113815,0.0262304,43,149.056,0.142169
0.0166077,0.864825,0.393054,4.62343,4.39719,4.24753,7,0.127559,0.029398,53,148.023,0.0598134
-0.35319,0.507411,0.768837,4.56549,4.31288,4.3761,8,0.0367525,0.00847017,64,125.505,0.136207
0.149512,-0.297156,0.844423,4.62514,4.15549,4.43685,9,0.11827,0.0272572,76,125.026,0.0255586
0.459585,-0.298653,0.822004,4.69242,4.15805,4.44247,10,0.0138844,0.00319987,18,127.483,0.0274599
,,,,,,,,,25,105.991,0.0219868
,,,,,,,,,33,137.609,0.034081
,,,,,,,,,42,91.9908,0.0335731
,,,,,,,,,52,55.8603,0.0341152
,,,,,,,,,63,94.0628,0.0256429
,,,,,,,,,75,117.297,0.0337606
,,,,,,,,,88,103.689,0.0162855
,,,,,,,,,32,36.9876,0.0321407
,,,,,,,,,41,88.0358,0.0667859
,,,,,,,,,51,137.037,0.0648629
,,,,,,,,,62,163.177,0.0669175
,,,,,,,,,74,132.901,0.0406033
,,,,,,,,,87,79.4246,0.0655667
,,,,,,,,,101,77.6196,0.0212604
,,,,,,,,,50,116.247,0.0416002
,,,,,,,,,61,156.14,0.0408459
,,,,,,,,,73,128.032,0.0416512
,,,,,,,,,86,119.21,0.0296791
,,,,,,,,,100,59.6031,0.0411239
,,,,,,,,,115,48.8389,0.017825
,,,,,,,,,72,49.0405,0.119871
,,,,,,,,,85,97.5336,0.127082
,,,,,,,,,99,69.0283,0.056968
,,,,,,,,,114,88.4355,0.122297
,,,,,,,,,130,106.443,0.0250245
,,,,,,,,,98,51.2266,0.120296
,,,,,,,,,113,42.1604,0.0555629
,,,,,,,,,129,98.4051,0.116
,,,,,,,,,146,112.311,0.0247496
,,,,,,,,,128,38.3445,0.0570637
,,,,,,,,,145,84.8502,0.122739
,,,,,,,,,163,85.5738,0.0250429
,,,,,,,,,162,60.152,0.0560786
,,,,,,,,,181,70.9508,0.0201547
,,,,,,,,,200,18.2479,0.0248513
