"cellPairingIds","interplanarAngles","angleWeights"
8,29.9597,0.0404037
13,35.307,0.0260308
19,32.7433,0.041159
64,62.1249,0.0369122
18,62.119,0.0286012
33,48.4572,0.0497075
42,52.7029,0.0512095
52,66.052,0.0434898
63,86.0734,0.0506753
75,76.2447,0.0423032
32,31.8674,0.0289776
74,104.858,0.0299408
116,115.075,0.0262127
132,102.224,0.0338397
100,42.0649,0.043132
115,75.6079,0.0485959
148,92.6099,0.0648044
72,25.071,0.0545032
85,23.6234,0.0458425
98,45.3855,0.047117
129,81.0381,0.0457274
203,70.4387,0.0681287
246,95.45,0.0391712
128,36.6604,0.0466644
245,75.3137,0.0559508
268,97.6579,0.0344885
201,71.1837,0.0436312
267,64.4251,0.0684348
200,45.1109,0.0427841
266,60.2572,0.0532217
265,33.8118,0.0640223
289,39.3217,0.0617949
340,53.3624,0.0369913
288,51.1302,0.0524352
339,32.5553,0.0516458
366,47.8185,0.032803
393,43.1064,0.0456901
421,39.9185,0.0445443
450,33.0885,0.0450896
