Q	U	V
{$V$}	{[mm$^3$]}	0.00346972
{$d_v$}	{[mm]}	0.187830
{$S_c$}	{[mm$^2$]}	0.18748
{$S_o$}	{[mm$^2$]}	0.108332
{$S_l/S_o$}	[]	0.730606
{$\Psi$}	[]	0.591188
{$\eta$}	[]	0.643477
{med($\theta_e$)}	{[$^\circ$]}	73.62815
{$\Upsilon$}	[]	10
{$\Xi$}	[]	7
