Q	U	V
{$V$}	{[mm$^3$]}	0.0156992
{$d_v$}	{[mm]}	0.310665
{$S_c$}	{[mm$^2$]}	0.679447
{$S_o$}	{[mm$^2$]}	0.39169
{$S_l/S_o$}	[]	0.734655
{$\Psi$}	[]	0.446252
{$\eta$}	[]	0.479597
{med($\theta_e$)}	{[$^\circ$]}	76.3607
{$\Upsilon$}	[]	10
{$\Xi$}	[]	11
