"cellPairingIds","interplanarAngles","angleWeights"
8,71.0705,0.0317274
13,80.0281,0.0503196
19,81.3278,0.0637007
26,69.0607,0.0970777
43,97.746,0.065822
53,76.0313,0.0556792
18,44.9042,0.0245702
33,71.1589,0.0321256
75,76.961,0.027866
88,88.7574,0.0289595
32,35.5437,0.0401935
101,71.1697,0.0436959
73,52.6701,0.049507
115,74.6694,0.0534447
99,74.0693,0.0569174
114,44.2836,0.0681732
165,80.4309,0.0276734
128,76.2953,0.044522
163,80.2948,0.05493
182,33.3656,0.0274024
201,65.3474,0.0254707
222,30.1837,0.0228338
200,81.5066,0.055335
243,77.6552,0.0244534
266,66.6081,0.0751933
242,70.8669,0.0285674
289,34.1241,0.0837237
288,51.2452,0.0172929
313,55.7026,0.0330772
338,68.8443,0.0287635
