facetNormals:0,facetNormals:1,facetNormals:2,FacetCenters:0,FacetCenters:1,FacetCenters:2,FacetIds,relFacetSize,absFacetSize,cellPairingIds,interplanarAngles,angleWeights
0.297723,-0.0929396,-0.927573,4.89643,3.73159,4.59484,1,0.0667628,0.0166073,8,49.9151,0.0349549
-0.507605,-0.225159,-0.804396,4.79541,3.68698,4.58878,2,0.0236753,0.00588923,13,27.7523,0.0635184
0.348678,0.361205,-0.829728,4.90527,3.7374,4.59099,3,0.0605748,0.015068,19,67.6262,0.0531604
-0.206179,0.774136,-0.529356,4.83579,3.82078,4.62399,4,0.0441625,0.0109854,26,44.2913,0.0724406
0.502861,-0.660344,-0.506883,4.92054,3.63386,4.64819,5,0.0791739,0.0196945,34,45.3706,0.0575437
0.845181,-0.238541,-0.429333,4.95947,3.6828,4.66284,6,0.0505618,0.0125772,43,74.5123,0.0567956
-0.777258,0.208716,-0.544067,4.77963,3.74228,4.62652,7,0.0494179,0.0122927,53,86.6045,0.0337929
-0.913756,-0.186983,-0.336512,4.74189,3.68978,4.64794,8,0.0226215,0.00562711,64,98.1072,0.0398989
-0.688592,0.678961,-0.143591,4.78024,3.80928,4.64754,9,0.0284509,0.00707716,76,79.9463,0.0794497
0.184325,-0.931797,-0.0224635,4.89231,3.5993,4.70196,10,0.0980894,0.0243997,89,108.853,0.0879294
-0.686016,-0.601403,0.155577,4.77954,3.63225,4.71054,11,0.128748,0.032026,103,123.024,0.041978
-0.866002,0.372774,0.244762,4.75672,3.74539,4.68043,12,0.0306132,0.00761504,18,64.4317,0.0340445
,,,,,,,,,25,67.6986,0.0308253
,,,,,,,,,33,71.5301,0.0364508
,,,,,,,,,42,91.7965,0.0322498
,,,,,,,,,52,34.2165,0.0320135
,,,,,,,,,63,36.7446,0.0231364
,,,,,,,,,75,70.9332,0.0258443
,,,,,,,,,88,81.6848,0.038144
,,,,,,,,,102,66.6534,0.0399958
,,,,,,,,,117,80.4009,0.0267009
,,,,,,,,,32,45.993,0.0510828
,,,,,,,,,41,67.7328,0.0686367
,,,,,,,,,51,53.4343,0.0551172
,,,,,,,,,62,74.2448,0.0544305
,,,,,,,,,74,96.3847,0.0329412
,,,,,,,,,87,82.4673,0.0387171
,,,,,,,,,101,105.98,0.0748971
,,,,,,,,,116,130.721,0.0823871
,,,,,,,,,132,113.085,0.0406718
,,,,,,,,,50,111.783,0.0566989
,,,,,,,,,61,98.0628,0.047146
,,,,,,,,,73,49.1735,0.0466426
,,,,,,,,,86,76.5298,0.029918
,,,,,,,,,100,37.616,0.0346069
,,,,,,,,,115,145.013,0.0609043
,,,,,,,,,131,117.22,0.0657662
,,,,,,,,,148,68.8443,0.0361603
,,,,,,,,,72,32.6855,0.0617128
,,,,,,,,,85,105.526,0.0608531
,,,,,,,,,99,99.879,0.0351889
,,,,,,,,,114,139.392,0.0418597
,,,,,,,,,130,38.8747,0.0876225
,,,,,,,,,147,91.6997,0.098051
,,,,,,,,,165,148.265,0.044154
,,,,,,,,,98,119.883,0.0499833
,,,,,,,,,113,126.992,0.0312581
,,,,,,,,,129,135.557,0.0364126
,,,,,,,,,146,65.3269,0.0667277
,,,,,,,,,164,123.79,0.0726087
,,,,,,,,,183,166.514,0.0381364
,,,,,,,,,128,27.514,0.031036
,,,,,,,,,145,37.3424,0.0361116
,,,,,,,,,163,110.652,0.0657238
,,,,,,,,,182,68.9417,0.0714216
,,,,,,,,,202,49.245,0.0378063
,,,,,,,,,162,55.3911,0.0252035
,,,,,,,,,181,89.1874,0.0367644
,,,,,,,,,201,41.5309,0.0384817
,,,,,,,,,222,48.5583,0.0260175
,,,,,,,,,200,144.516,0.0441082
,,,,,,,,,221,87.3574,0.0466033
,,,,,,,,,243,31.2325,0.0294925
,,,,,,,,,242,60.691,0.111347
,,,,,,,,,265,123.623,0.0466631
,,,,,,,,,288,63.0915,0.0494649
