"cellPairingIds","interplanarAngles","angleWeights"
8,66.5307,0.107149
13,79.8975,0.131465
53,111.328,0.124392
18,30.9447,0.11085
25,67.2697,0.0434029
42,89.841,0.0327771
51,83.4317,0.0347429
74,71.6667,0.129409
61,34.3371,0.0233636
98,97.6992,0.0303574
113,80.3017,0.0342285
129,34.7485,0.0277165
128,31.8947,0.0841363
