"cellPairingIds","interplanarAngles","angleWeights"
8,48.9433,0.0350901
13,84.383,0.0545432
19,55.461,0.0767712
26,77.3658,0.0933019
34,86.5838,0.0433277
53,90.8399,0.0234654
18,85.9142,0.0283435
42,48.0665,0.024983
52,104.332,0.0379321
41,54.8483,0.0571388
62,45.7096,0.0617325
50,31.0093,0.0820153
86,118.162,0.0226804
115,84.0669,0.0753745
131,127.959,0.0445053
85,82.5817,0.116513
130,62.613,0.091247
98,106.259,0.0477447
113,33.8188,0.0184689
129,34.5278,0.0426443
145,89.5212,0.102193
163,58.1175,0.103552
162,37.961,0.0232635
201,47.6989,0.0192088
200,99.05,0.0822234
221,34.1515,0.0468075
242,71.6987,0.0470907
