Q	U	V
{$V$}	{[mm$^3$]}	0.0119801
{$d_v$}	{[mm]}	0.283893
{$S_c$}	{[mm$^2$]}	0.473776
{$S_o$}	{[mm$^2$]}	0.30727
{$S_l/S_o$}	[]	0.541888
{$\Psi$}	[]	0.534422
{$\eta$}	[]	0.597090
{med($\theta_e$)}	{[$^\circ$]}	69.1764
{$\Upsilon$}	[]	11
{$\Xi$}	[]	9
