"cellPairingIds","interplanarAngles","angleWeights"
13,80.6305,0.0313068
19,72.745,0.0244545
26,56.8512,0.0580301
43,98.5026,0.03375
32,133.222,0.0234088
62,51.107,0.0317902
101,154.231,0.0270262
50,61.8691,0.0357023
115,69.4805,0.0217621
85,105.991,0.0597132
130,67.8956,0.04486
163,109.928,0.0288278
