facetNormals:0,facetNormals:1,facetNormals:2,FacetCenters:0,FacetCenters:1,FacetCenters:2,FacetIds,relFacetSize,absFacetSize,cellPairingIds,interplanarAngles,angleWeights
-0.499926,-0.132441,-0.777474,5.45594,4.31575,7.16139,1,0.108577,0.0221827,8,82.9196,0.0784657
0.719419,-0.178892,-0.570616,5.63497,4.31653,7.1919,2,0.0614297,0.0125504,13,51.3379,0.0624615
-0.653076,0.601364,-0.419119,5.46079,4.47042,7.18835,3,0.0438411,0.00895691,19,90.7161,0.0305963
0.156333,0.944565,-0.246588,5.62771,4.37318,7.2257,4,0.0178071,0.00363807,26,115.85,0.0513165
0.931922,0.239982,-0.131495,5.60077,4.38678,7.21574,5,0.0335979,0.00686419,34,92.8769,0.0923472
0.272946,-0.897868,0.0340481,5.58912,4.20293,7.18256,6,0.0803385,0.0164135,43,106.226,0.0312163
-0.110147,0.92807,0.236235,5.53761,4.46495,7.23524,7,0.0182285,0.00372417,53,142.712,0.07687
0.683165,0.569203,0.39255,5.58873,4.41178,7.21794,8,0.0594959,0.0121553,64,150.329,0.0307767
0.237329,0.548479,0.776441,5.51135,4.43185,7.25197,9,0.0179294,0.00366306,76,107.27,0.0727176
-0.571729,-0.258186,0.764105,5.45997,4.32558,7.24403,10,0.054664,0.0111681,89,112.32,0.0713887
-0.571362,0.0827164,0.805226,5.45172,4.38319,7.24812,11,0.0531757,0.010864,103,139.558,0.142654
-0.029682,-0.218159,0.928402,5.56184,4.30112,7.25298,12,0.207907,0.0424762,18,111.611,0.051166
,,,,,,,,,25,84.7766,0.0276106
,,,,,,,,,33,39.3583,0.0434381
,,,,,,,,,42,67.4031,0.0696231
,,,,,,,,,52,114.926,0.0281144
,,,,,,,,,63,79.5031,0.0604473
,,,,,,,,,75,113.837,0.0277573
,,,,,,,,,88,150.022,0.0578497
,,,,,,,,,102,162.774,0.0570055
,,,,,,,,,117,125.008,0.0948379
,,,,,,,,,32,54.0895,0.025327
,,,,,,,,,41,115.412,0.038042
,,,,,,,,,51,142.61,0.0567263
,,,,,,,,,62,55.8665,0.0257504
,,,,,,,,,74,106.335,0.0504827
,,,,,,,,,87,99.0063,0.0254505
,,,,,,,,,101,96.0403,0.048658
,,,,,,,,,116,84.9631,0.0480593
,,,,,,,,,132,122.327,0.0724125
,,,,,,,,,50,65.0676,0.0232772
,,,,,,,,,61,151.232,0.0291526
,,,,,,,,,73,32.7944,0.0180154
,,,,,,,,,86,55.2578,0.0274103
,,,,,,,,,100,67.9467,0.0178681
,,,,,,,,,115,122.257,0.0268633
,,,,,,,,,131,102.364,0.0266799
,,,,,,,,,148,117.778,0.0328045
,,,,,,,,,72,87.8375,0.0473809
,,,,,,,,,85,84.5449,0.0236343
,,,,,,,,,99,40.1482,0.0429446
,,,,,,,,,114,74.726,0.0233814
,,,,,,,,,130,136.389,0.0416169
,,,,,,,,,147,129.994,0.0411782
,,,,,,,,,165,102.596,0.0578476
,,,,,,,,,98,160.883,0.0297149
,,,,,,,,,113,109.937,0.0683639
,,,,,,,,,129,115.855,0.0293162
,,,,,,,,,146,83.7058,0.0650599
,,,,,,,,,164,102.59,0.063994
,,,,,,,,,183,75.827,0.115894
,,,,,,,,,128,54.3775,0.0279069
,,,,,,,,,145,45.1337,0.0180777
,,,,,,,,,163,89.7674,0.0273401
,,,,,,,,,182,69.792,0.0271501
,,,,,,,,,202,88.7463,0.0335183
,,,,,,,,,162,35.1068,0.027555
,,,,,,,,,181,104.315,0.0569777
,,,,,,,,,201,91.6161,0.0561585
,,,,,,,,,222,76.2787,0.0925166
,,,,,,,,,200,70.9613,0.0270023
,,,,,,,,,221,56.5592,0.0268169
,,,,,,,,,243,50.5403,0.033012
,,,,,,,,,242,19.979,0.0539096
,,,,,,,,,265,33.9284,0.0865672
,,,,,,,,,288,37.8499,0.0846904
