Q	U	V
{$V$}	{[mm$^3$]}	0.0039067
{$d_v$}	{[mm]}	0.195406
{$S_c$}	{[mm$^2$]}	0.209234
{$S_o$}	{[mm$^2$]}	0.115725
{$S_l/S_o$}	[]	0.808028
{$\Psi$}	[]	0.573313
{$\eta$}	[]	0.633081
{med($\theta_e$)}	{[$^\circ$]}	56.75135
{$\Upsilon$}	[]	11
{$\Xi$}	[]	4
