Q	U	V
{$V$}	{[mm$^3$]}	0.00906853
{$d_v$}	{[mm]}	0.258730
{$S_c$}	{[mm$^2$]}	0.42628
{$S_o$}	{[mm$^2$]}	0.254903
{$S_l/S_o$}	[]	0.672322
{$\Psi$}	[]	0.493341
{$\eta$}	[]	0.563404
{med($\theta_e$)}	{[$^\circ$]}	66.98295
{$\Upsilon$}	[]	14
{$\Xi$}	[]	12
