facetNormals:0,facetNormals:1,facetNormals:2,FacetCenters:0,FacetCenters:1,FacetCenters:2,FacetIds,relFacetSize,absFacetSize,cellPairingIds,interplanarAngles,angleWeights
-0.198873,-0.158503,-0.957262,3.02619,5.56219,5.73069,1,0.0110687,0.00127557,8,29.7587,0.017266
0.288288,-0.26546,-0.886836,3.08297,5.48944,5.74061,2,0.0392311,0.00452103,13,49.1338,0.0214391
-0.802658,-0.319886,-0.435263,2.97913,5.53237,5.81029,3,0.339796,0.0391585,19,95.748,0.00646048
0.971758,-0.174031,-0.0705044,3.03672,5.57494,5.82821,4,0.00456143,0.000525664,26,90.0043,0.0169944
-0.703961,0.656882,0.0375572,2.95918,5.66117,5.8238,5,0.0365751,0.00421496,34,96.6328,0.0155515
0.359752,-0.902214,0.193,3.10651,5.448,5.82709,6,0.0261366,0.00301201,43,127.288,0.0140782
0.594587,0.640423,0.363786,3.052,5.52766,5.89296,7,0.0193355,0.00222824,53,119.826,0.0165557
-0.35071,0.797328,0.44396,2.958,5.62947,5.87754,8,0.0328306,0.00378343,64,109.979,0.0159312
-0.17573,-0.802533,0.511521,3.01357,5.45028,5.88944,9,0.0284131,0.00327435,76,120.128,0.0191585
0.546002,-0.622304,0.48894,3.07088,5.44212,5.85599,10,0.0711855,0.00820349,89,137.91,0.0169024
-0.420962,0.438968,0.765442,2.94877,5.62141,5.89155,11,0.035738,0.00411849,103,152.078,0.0159359
0.597085,-0.0173888,0.769214,3.04683,5.48909,5.90358,12,0.0284431,0.00327782,118,133.695,0.0154676
-0.402265,-0.321483,0.842716,2.96671,5.53108,5.92062,13,0.0256689,0.00295811,134,158.11,0.0181404
-0.085995,-0.0808697,0.957511,2.98663,5.53606,5.9255,14,0.0502356,0.0057892,18,75.2059,0.0703409
,,,,,,,,,25,66.094,0.00817262
,,,,,,,,,33,116.074,0.0378566
,,,,,,,,,42,79.6771,0.0313723
,,,,,,,,,52,110.487,0.0259039
,,,,,,,,,63,138.185,0.0357466
,,,,,,,,,75,108.083,0.032957
,,,,,,,,,88,96.8389,0.0505845
,,,,,,,,,102,165.261,0.0374032
,,,,,,,,,117,122.361,0.0329772
,,,,,,,,,133,144.339,0.0310329
,,,,,,,,,150,155.693,0.0440565
,,,,,,,,,32,136.417,0.00900202
,,,,,,,,,41,68.7049,0.0660417
,,,,,,,,,51,95.0394,0.0485397
,,,,,,,,,62,156.595,0.036589
,,,,,,,,,74,100.156,0.0598761
,,,,,,,,,87,79.2202,0.0524411
,,,,,,,,,101,119.072,0.117711
,,,,,,,,,116,98.2484,0.064674
,,,,,,,,,132,149.099,0.0524923
,,,,,,,,,149,86.4649,0.047732
,,,,,,,,,167,110.172,0.0875306
,,,,,,,,,50,147.135,0.00811127
,,,,,,,,,61,59.8013,0.00776729
,,,,,,,,,73,61.9403,0.00738149
,,,,,,,,,86,121.868,0.00800997
,,,,,,,,,100,94.021,0.00786088
,,,,,,,,,115,50.5692,0.00857349
,,,,,,,,,131,123.882,0.00809026
,,,,,,,,,148,56.7138,0.00786202
,,,,,,,,,166,113.795,0.00774632
,,,,,,,,,185,98.2492,0.00836345
,,,,,,,,,72,151.51,0.0304871
,,,,,,,,,85,89.0087,0.0252975
,,,,,,,,,99,33.3067,0.0346019
,,,,,,,,,114,114.334,0.0319816
,,,,,,,,,130,146.75,0.0483223
,,,,,,,,,147,49.369,0.0361517
,,,,,,,,,165,115.422,0.0320006
,,,,,,,,,184,83.7468,0.0301665
,,,,,,,,,204,87.3255,0.0423306
,,,,,,,,,98,108.258,0.0222275
,,,,,,,,,113,141.705,0.0291037
,,,,,,,,,129,37.5754,0.0272274
,,,,,,,,,146,26.4808,0.0382349
,,,,,,,,,164,114.387,0.0301924
,,,,,,,,,183,66.8638,0.0272411
,,,,,,,,,203,71.6449,0.0259007
,,,,,,,,,224,76.2658,0.034384
,,,,,,,,,128,59.9367,0.0243375
,,,,,,,,,145,118.162,0.0230114
,,,,,,,,,163,83.4398,0.0304108
,,,,,,,,,182,70.4757,0.0250942
,,,,,,,,,202,47.4245,0.0230213
,,,,,,,,,223,98.5199,0.0220565
,,,,,,,,,245,74.4116,0.0279234
,,,,,,,,,162,111.786,0.0304625
,,,,,,,,,181,120.042,0.0449366
,,,,,,,,,201,28.8156,0.0342227
,,,,,,,,,222,82.8671,0.0304798
,,,,,,,,,244,74.4473,0.0288114
,,,,,,,,,267,65.5246,0.0397096
,,,,,,,,,200,45.3809,0.040615
,,,,,,,,,221,83.1268,0.0316574
,,,,,,,,,243,71.28,0.0284281
,,,,,,,,,266,37.3526,0.0269714
,,,,,,,,,290,52.3905,0.0362968
,,,,,,,,,242,97.8733,0.047586
,,,,,,,,,265,40.4161,0.0406457
,,,,,,,,,289,65.5869,0.0377319
,,,,,,,,,314,59.4465,0.0589032
,,,,,,,,,288,69.7339,0.031676
,,,,,,,,,313,45.7884,0.0298779
,,,,,,,,,339,38.9405,0.0417645
,,,,,,,,,338,64.5294,0.0269849
,,,,,,,,,365,43.0521,0.0363213
,,,,,,,,,392,24.4275,0.0339767
