"cellPairingIds","interplanarAngles","angleWeights"
8,63.4676,0.0661885
13,53.2948,0.151355
26,45.5866,0.0873073
76,111.515,0.0548951
18,61.5664,0.0665566
25,77.3837,0.0320347
33,72.3502,0.050323
52,64.6699,0.0475838
102,108.049,0.0514561
32,41.0568,0.0440243
101,107.887,0.0551481
73,68.5017,0.0348366
100,57.349,0.0402524
115,94.1926,0.0291339
131,90.6965,0.0368678
99,54.4381,0.0433386
130,111.376,0.0435165
147,126.374,0.0633736
182,45.6479,0.0590899
181,61.2225,0.0335156
201,95.0958,0.0441764
200,61.3874,0.0493547
221,41.5162,0.0765631
242,78.0776,0.0443612
