"cellPairingIds","interplanarAngles","angleWeights"
8,36.2817,0.0784481
13,51.8144,0.088801
19,28.5774,0.0465527
26,33.2358,0.0433532
64,101.782,0.0637082
18,42.4637,0.0644498
42,46.1569,0.035479
75,101.224,0.0501218
88,90.4558,0.0752647
32,46.5159,0.0412376
74,104.079,0.0155407
101,111.236,0.0847436
132,166.08,0.0655923
50,38.4575,0.0277355
86,66.8665,0.0134107
99,61.003,0.0131315
114,85.0615,0.0330355
129,64.0398,0.0321182
146,48.0607,0.0408663
162,97.9433,0.0145385
222,77.6821,0.0152525
200,57.4553,0.0615925
221,38.9483,0.0227611
243,47.5706,0.0508101
242,36.2799,0.0268315
265,65.8936,0.0768275
288,30.1258,0.0245609
