"cellPairingIds","interplanarAngles","angleWeights"
8,47.8084,0.116033
13,50.2375,0.0246199
26,44.7962,0.0435928
53,138.961,0.0968973
18,31.6263,0.0237632
63,91.7125,0.0848565
75,84.2245,0.0954681
32,45.0203,0.0219457
41,85.5659,0.0177295
62,68.8125,0.0207149
87,80.1531,0.0235438
50,48.66,0.0358562
73,63.7982,0.0506064
85,101.724,0.0326835
99,173.528,0.0383055
147,74.8985,0.0401243
165,118.426,0.0312154
145,57.1408,0.0599981
202,47.6568,0.0418294
162,27.9652,0.0821242
201,102.106,0.0812797
222,60.9703,0.0515036
243,54.506,0.0552296
288,47.5311,0.0548464
