"cellPairingIds","interplanarAngles","angleWeights"
8,35.7056,0.07464
26,54.9563,0.0511232
34,101.2,0.0690356
43,106.824,0.0183978
76,109.663,0.115367
33,38.5548,0.0377053
52,91.8569,0.0163092
85,121.769,0.0148196
99,33.741,0.0488199
114,66.3239,0.0433698
130,110.617,0.0458888
98,30.4884,0.0160249
146,104.343,0.0598212
164,106.149,0.0534138
145,112.467,0.0172857
182,98.1425,0.0170675
162,33.7637,0.0921105
181,90.2136,0.104267
200,79.8914,0.0822039
221,36.0221,0.0705709
242,61.0808,0.0774927
