facetNormals:0,facetNormals:1,facetNormals:2,FacetCenters:0,FacetCenters:1,FacetCenters:2,FacetIds,relFacetSize,absFacetSize,cellPairingIds,interplanarAngles,angleWeights
0.48407,0.0267339,-0.826974,3.7066,6.23568,6.1504,1,0.0265985,0.0055348,8,54.5395,0.0268897
-0.288601,0.459513,-0.80937,3.64862,6.25685,6.15271,2,0.0271873,0.00565732,13,72.2876,0.0367842
-0.50096,-0.509077,-0.650358,3.63229,6.12801,6.22017,3,0.0596121,0.0124045,19,99.2276,0.0353021
-0.87045,-0.315966,-0.336587,3.59469,6.13066,6.28974,4,0.0524721,0.0109187,26,101.434,0.0365447
-0.912603,0.122485,-0.307181,3.59458,6.13877,6.30136,5,0.0583722,0.0121465,34,67.5794,0.029849
0.422853,0.851818,-0.150635,3.70712,6.275,6.25698,6,0.0340045,0.00707588,43,109.818,0.0258291
-0.846156,0.47599,-0.096486,3.58854,6.21258,6.28583,7,0.0251029,0.00522357,53,101.097,0.0315049
-0.476509,-0.855005,-0.0873175,3.61472,6.06793,6.34045,8,0.0386307,0.00803853,64,82.2789,0.0259403
-0.110543,0.959929,-0.186949,3.66149,6.27744,6.24661,9,0.0253138,0.00526747,76,125.449,0.0334679
-0.74482,-0.598008,0.200908,3.58828,6.10495,6.36952,10,0.0451208,0.00938902,89,107.329,0.0377166
-0.560485,0.796194,0.0340492,3.61662,6.26818,6.27718,11,0.0648047,0.013485,103,72.8568,0.0305963
0.919377,0.139972,0.21644,3.69662,6.14843,6.41373,12,0.0360082,0.00749283,118,143.769,0.0229007
-0.878081,-0.215909,0.405747,3.60981,6.12934,6.42555,13,0.0201056,0.00418371,134,119.127,0.0425425
0.00222408,0.753053,0.552692,3.64736,6.2416,6.35583,14,0.106205,0.0220998,151,101.628,0.0245012
0.639598,0.414113,0.61681,3.67827,6.19147,6.40845,15,0.0227104,0.00472573,169,118.133,0.0377848
0.446061,-0.316779,0.76485,3.67622,6.0588,6.45181,16,0.0652092,0.0135692,188,169.354,0.0372328
-0.633894,0.00400391,0.733585,3.60932,6.13566,6.44853,17,0.0620347,0.0129086,18,62.3351,0.0373434
,,,,,,,,,25,66.7858,0.0358169
,,,,,,,,,33,53.0718,0.0370966
,,,,,,,,,42,65.3507,0.0302162
,,,,,,,,,52,55.3139,0.0261036
,,,,,,,,,63,101.121,0.0319142
,,,,,,,,,75,49.3841,0.0262172
,,,,,,,,,88,103.525,0.0339302
,,,,,,,,,102,58.2156,0.0383048
,,,,,,,,,117,113.849,0.0309822
,,,,,,,,,133,100.392,0.0231163
,,,,,,,,,150,96.4301,0.0432923
,,,,,,,,,168,121.107,0.024748
,,,,,,,,,187,167.137,0.0383751
,,,,,,,,,207,115.65,0.0378059
,,,,,,,,,32,31.0005,0.0558147
,,,,,,,,,41,50.6431,0.0589856
,,,,,,,,,51,126.062,0.043306
,,,,,,,,,62,74.9743,0.0353287
,,,,,,,,,74,39.6621,0.0468809
,,,,,,,,,87,109.14,0.0355371
,,,,,,,,,101,54.5467,0.0513639
,,,,,,,,,116,98.9669,0.0621
,,,,,,,,,132,136.822,0.0448968
,,,,,,,,,149,72.6234,0.0300695
,,,,,,,,,167,145.534,0.0763624
,,,,,,,,,186,169.933,0.0328905
,,,,,,,,,206,128.03,0.0622851
,,,,,,,,,227,99.9347,0.0607993
,,,,,,,,,50,26.0737,0.0552651
,,,,,,,,,61,128.187,0.0412664
,,,,,,,,,73,49.9445,0.0339594
,,,,,,,,,86,42.4611,0.0444999
,,,,,,,,,100,98.5493,0.0341519
,,,,,,,,,115,36.8428,0.0485196
,,,,,,,,,131,76.4542,0.0579899
,,,,,,,,,148,167.184,0.0427084
,,,,,,,,,166,44.5443,0.0290718
,,,,,,,,,185,117.565,0.0702407
,,,,,,,,,205,157.94,0.0317006
,,,,,,,,,226,126.077,0.0581514
,,,,,,,,,248,71.4696,0.0568541
,,,,,,,,,72,104.581,0.0429745
,,,,,,,,,85,24.7332,0.0351077
,,,,,,,,,99,68.0242,0.0464926
,,,,,,,,,114,73.2147,0.0353135
,,,,,,,,,130,54.9022,0.0508981
,,,,,,,,,147,50.7338,0.0614205
,,,,,,,,,165,163.437,0.0445406
,,,,,,,,,184,47.4744,0.0299093
,,,,,,,,,204,95.0344,0.0753375
,,,,,,,,,225,139.395,0.0326989
,,,,,,,,,247,138.233,0.0616016
,,,,,,,,,270,67.9277,0.0601478
,,,,,,,,,98,86.2041,0.0288834
,,,,,,,,,113,165.641,0.0361703
,,,,,,,,,129,32.514,0.0290225
,,,,,,,,,146,155.412,0.0387818
,,,,,,,,,164,62.299,0.0446042
,,,,,,,,,183,58.8629,0.0349777
,,,,,,,,,203,130.23,0.02527
,,,,,,,,,224,51.5609,0.0515151
,,,,,,,,,246,55.8193,0.0272329
,,,,,,,,,269,102.53,0.0446996
,,,,,,,,,293,113.694,0.0439292
,,,,,,,,,128,89.722,0.0304311
,,,,,,,,,145,53.6974,0.0252079
,,,,,,,,,163,69.968,0.0322587
,,,,,,,,,182,26.597,0.0361879
,,,,,,,,,202,141.812,0.0295825
,,,,,,,,,223,51.5653,0.0223281
,,,,,,,,,245,70.5652,0.0406076
,,,,,,,,,268,114.96,0.0238468
,,,,,,,,,292,131.009,0.0362507
,,,,,,,,,317,60.3806,0.0357423
,,,,,,,,,162,141.01,0.0305856
,,,,,,,,,181,27.7774,0.0416243
,,,,,,,,,201,115.796,0.0484061
,,,,,,,,,222,127.921,0.0372734
,,,,,,,,,244,54.3549,0.0264468
,,,,,,,,,267,139.037,0.0566542
,,,,,,,,,291,137.714,0.0286046
,,,,,,,,,316,90.5264,0.0485185
,,,,,,,,,342,75.7468,0.0476121
,,,,,,,,,200,123.432,0.0324323
,,,,,,,,,221,31.2358,0.0364066
,,,,,,,,,243,90.4714,0.0297285
,,,,,,,,,266,100.996,0.0224111
,,,,,,,,,290,47.6514,0.0408832
,,,,,,,,,315,77.3371,0.0239416
,,,,,,,,,341,122.434,0.0364702
,,,,,,,,,368,93.7993,0.0359556
,,,,,,,,,242,93.1242,0.0532004
,,,,,,,,,265,141.068,0.0400527
,,,,,,,,,289,26.6465,0.0278164
,,,,,,,,,314,111.959,0.0633342
,,,,,,,,,340,128.84,0.0302136
,,,,,,,,,367,89.3217,0.0533362
,,,,,,,,,395,49.2984,0.0522428
,,,,,,,,,288,115.227,0.0462937
,,,,,,,,,313,69.7597,0.0306897
,,,,,,,,,339,47.3031,0.0804934
,,,,,,,,,366,90.466,0.033634
,,,,,,,,,394,121.315,0.0650063
,,,,,,,,,423,66.0496,0.0633894
,,,,,,,,,338,142.393,0.0258035
,,,,,,,,,365,75.2505,0.053782
,,,,,,,,,393,33.6162,0.0278536
,,,,,,,,,422,53.721,0.0463965
,,,,,,,,,452,117.221,0.045567
,,,,,,,,,392,86.3021,0.0338106
,,,,,,,,,421,114.361,0.0213288
,,,,,,,,,451,90.7959,0.0307349
,,,,,,,,,482,27.3615,0.0303687
,,,,,,,,,450,44.4076,0.0374193
,,,,,,,,,481,77.831,0.0808048
,,,,,,,,,513,63.2909,0.0783215
,,,,,,,,,512,47.2403,0.0336882
,,,,,,,,,545,87.0628,0.0332487
,,,,,,,,,578,72.309,0.0635824
