Q	U	V
{$V$}	{[mm$^3$]}	0.00370602
{$d_v$}	{[mm]}	0.192001
{$S_c$}	{[mm$^2$]}	0.2032
{$S_o$}	{[mm$^2$]}	0.116066
{$S_l/S_o$}	[]	0.750728
{$\Psi$}	[]	0.569944
{$\eta$}	[]	0.602431
{med($\theta_e$)}	{[$^\circ$]}	82.1522
{$\Upsilon$}	[]	12
{$\Xi$}	[]	7
