facetNormals:0,facetNormals:1,facetNormals:2,FacetCenters:0,FacetCenters:1,FacetCenters:2,FacetIds,relFacetSize,absFacetSize,cellPairingIds,interplanarAngles,angleWeights
0.435453,0.357154,-0.796462,5.63522,4.24303,5.17806,1,0.128517,0.0387784,8,48.3674,0.097103
-0.155244,0.783847,-0.500612,5.56394,4.29605,5.20318,2,0.0780297,0.0235445,13,79.0847,0.0517815
-0.121054,-0.725662,-0.613792,5.56846,4.11729,5.20978,3,0.0324225,0.00978308,19,101.459,0.0426549
-0.695018,-0.57,-0.39655,5.52432,4.13078,5.15447,4,0.0255709,0.0077157,26,64.7449,0.0633082
0.63179,-0.606439,-0.438227,5.64973,4.1164,5.23071,5,0.0419984,0.0126725,34,58.4889,0.0798507
0.933736,0.159204,-0.0246475,5.71712,4.24876,5.2794,6,0.0579183,0.0174761,43,118.664,0.0171077
-0.486577,-0.862042,-0.0696165,5.53948,4.11738,5.17539,7,0.0091638,0.00276506,53,92.8795,0.108607
0.63242,-0.724492,0.0802597,5.66075,4.11373,5.27728,8,0.0940382,0.0283748,64,136.369,0.0383636
0.166367,-0.727787,0.631311,5.64166,4.14793,5.3457,9,0.022547,0.00680328,76,113.617,0.0821788
0.617912,-0.411252,0.631635,5.66814,4.16002,5.38532,10,0.0604007,0.0182251,89,124.437,0.0316687
-0.551735,0.53062,0.617419,5.64323,4.27342,5.34847,11,0.0180594,0.00544921,103,108.684,0.0697989
0.0286788,0.658952,0.683987,5.66187,4.29657,5.34982,12,0.0479095,0.0144561,118,123.858,0.04888
0.276338,0.188432,0.874382,5.67795,4.24466,5.38596,13,0.0301791,0.00910617,18,105.586,0.0458102
,,,,,,,,,25,98.7158,0.0385189
,,,,,,,,,33,112.546,0.0546059
,,,,,,,,,42,90.5019,0.0664864
,,,,,,,,,52,127.169,0.0164014
,,,,,,,,,63,140.908,0.0852893
,,,,,,,,,75,171.737,0.034985
,,,,,,,,,88,143.055,0.0680927
,,,,,,,,,102,78.0197,0.0293305
,,,,,,,,,117,79.0851,0.0593678
,,,,,,,,,133,112.157,0.0435245
,,,,,,,,,32,38.0582,0.028592
,,,,,,,,,41,47.6079,0.0365944
,,,,,,,,,51,103.597,0.0415727
,,,,,,,,,62,40.1072,0.014289
,,,,,,,,,74,64.3721,0.0482198
,,,,,,,,,87,82.6095,0.0265977
,,,,,,,,,101,100.119,0.0421951
,,,,,,,,,116,137.728,0.0231977
,,,,,,,,,132,171.971,0.0386732
,,,,,,,,,149,142.007,0.0312606
,,,,,,,,,50,85.2096,0.0317877
,,,,,,,,,61,141.639,0.0354782
,,,,,,,,,73,28.453,0.0134924
,,,,,,,,,86,93.5321,0.0402084
,,,,,,,,,100,87.084,0.023964
,,,,,,,,,115,117.729,0.0359305
,,,,,,,,,131,99.7621,0.0211686
,,,,,,,,,148,135.582,0.0333447
,,,,,,,,,166,134.636,0.0276846
,,,,,,,,,72,57.0873,0.0486901
,,,,,,,,,85,75.3441,0.0150449
,,,,,,,,,99,31.7339,0.0580646
,,,,,,,,,114,73.6321,0.0293418
,,,,,,,,,130,67.6464,0.049546
,,,,,,,,,147,167.695,0.0252579
,,,,,,,,,165,137.064,0.0447596
,,,,,,,,,184,110.621,0.035121
,,,,,,,,,98,128.854,0.0158239
,,,,,,,,,113,58.8359,0.0716854
,,,,,,,,,129,88.5207,0.0324583
,,,,,,,,,146,57.5197,0.0591335
,,,,,,,,,164,118.589,0.0275336
,,,,,,,,,183,82.6727,0.0524406
,,,,,,,,,203,72.518,0.0396816
,,,,,,,,,128,71.0342,0.0167002
,,,,,,,,,145,58.8076,0.0130313
,,,,,,,,,163,89.4146,0.0159133
,,,,,,,,,182,103.749,0.0121582
,,,,,,,,,202,131.893,0.0153849
,,,,,,,,,223,112.651,0.0140587
,,,,,,,,,162,43.6096,0.0363731
,,,,,,,,,181,38.1718,0.0735562
,,,,,,,,,201,136.096,0.0303
,,,,,,,,,222,116.167,0.0634786
,,,,,,,,,244,83.1073,0.045694
,,,,,,,,,200,32.8128,0.0328365
,,,,,,,,,221,95.2622,0.0200553
,,,,,,,,,243,92.6528,0.0306634
,,,,,,,,,266,59.7689,0.0258107
,,,,,,,,,242,100.165,0.0278053
,,,,,,,,,265,78.8708,0.0534348
,,,,,,,,,289,44.967,0.0402483
,,,,,,,,,288,35.9863,0.0262311
,,,,,,,,,313,58.037,0.0225968
,,,,,,,,,338,34.833,0.0370314
