facetNormals:0,facetNormals:1,facetNormals:2,FacetCenters:0,FacetCenters:1,FacetCenters:2,FacetIds,relFacetSize,absFacetSize,cellPairingIds,interplanarAngles,angleWeights
0.125815,0.205921,-0.915093,5.67651,4.51558,7.83368,1,0.0628899,0.0153348,8,37.0939,0.049577
-0.0947232,-0.349188,-0.865242,5.66397,4.50208,7.84393,2,0.0409157,0.0099767,13,31.9322,0.0254779
0.628816,0.139393,-0.749592,5.69257,4.53555,7.83924,3,0.0159748,0.00389521,19,60.4049,0.0585208
0.752568,-0.312038,-0.439553,5.67131,4.52115,7.87441,4,0.0547193,0.0133425,26,82.2321,0.0740446
-0.527865,-0.721549,-0.370201,5.60486,4.43929,7.82135,5,0.0900093,0.0219474,34,66.0816,0.0682146
0.0856526,0.905267,-0.17259,5.68886,4.55793,7.84643,6,0.0745242,0.0181716,43,105.267,0.077889
-0.0438084,-0.943966,0.0391203,5.6404,4.45938,7.89828,7,0.102283,0.0249403,53,108.736,0.0358945
-0.815596,0.442026,0.312509,5.58822,4.50197,7.86747,8,0.0251143,0.00612374,64,136.764,0.0470547
-0.683224,-0.409577,0.538247,5.6895,4.52941,7.89795,9,0.0375898,0.00916572,76,141.643,0.0735376
0.439731,-0.321018,0.720739,5.70725,4.4805,7.94422,10,0.0885255,0.0215856,89,143.522,0.0821883
-0.25419,0.369866,0.840952,5.67065,4.4999,7.94439,11,0.118574,0.0289124,18,54.3399,0.0229782
,,,,,,,,,25,61.2188,0.0468213
,,,,,,,,,33,46.709,0.0562581
,,,,,,,,,42,101.624,0.0528277
,,,,,,,,,52,70.237,0.0584501
,,,,,,,,,63,112.241,0.0311243
,,,,,,,,,75,106.626,0.0391823
,,,,,,,,,88,130.769,0.055965
,,,,,,,,,102,158.666,0.0608383
,,,,,,,,,32,33.9155,0.0247299
,,,,,,,,,41,99.3283,0.0271339
,,,,,,,,,51,70.2285,0.0263099
,,,,,,,,,62,101.631,0.0276337
,,,,,,,,,74,135.118,0.0195281
,,,,,,,,,87,159.538,0.0224211
,,,,,,,,,101,110.217,0.0270655
,,,,,,,,,116,141.636,0.0281562
,,,,,,,,,50,90.6001,0.0680618
,,,,,,,,,61,99.5506,0.0631043
,,,,,,,,,73,73.7915,0.0712965
,,,,,,,,,86,168.855,0.0344275
,,,,,,,,,100,134.426,0.0445652
,,,,,,,,,115,82.1436,0.0676332
,,,,,,,,,131,140.04,0.074882
,,,,,,,,,72,135.112,0.0815381
,,,,,,,,,85,41.0894,0.0957546
,,,,,,,,,99,90.2486,0.0392712
,,,,,,,,,114,60.5825,0.0530323
,,,,,,,,,130,107.808,0.0892612
,,,,,,,,,147,118.776,0.102336
,,,,,,,,,98,171.191,0.0862246
,,,,,,,,,113,72.2403,0.0375682
,,,,,,,,,129,125.935,0.0499733
,,,,,,,,,146,116.831,0.0809237
,,,,,,,,,164,79.028,0.0915246
,,,,,,,,,128,113.509,0.0403268
,,,,,,,,,145,61.2308,0.0549757
,,,,,,,,,163,68.5821,0.0949084
,,,,,,,,,182,109.781,0.109828
,,,,,,,,,162,54.657,0.030111
,,,,,,,,,181,108.141,0.0391281
,,,,,,,,,201,47.2314,0.0414494
,,,,,,,,,200,75.3938,0.0527717
,,,,,,,,,221,58.7928,0.0570833
,,,,,,,,,242,64.1361,0.10137
