"cellPairingIds","interplanarAngles","angleWeights"
8,34.8943,0.0203471
13,87.3519,0.0117989
19,83.427,0.0181156
43,54.9207,0.0126219
64,59.1319,0.016965
25,53.5134,0.0501652
33,43.144,0.0700268
75,39.9664,0.0422334
32,136.289,0.0180047
51,87.2908,0.0208865
62,65.2616,0.0125679
74,44.8417,0.0199385
132,59.3641,0.0198045
149,71.1897,0.0123267
50,41.5497,0.0491784
61,72.1665,0.054571
115,102.246,0.0190865
205,114.244,0.0645189
114,34.1344,0.0415317
225,92.8419,0.10157
113,54.9726,0.0772911
146,42.1288,0.0223565
145,71.3463,0.0186017
223,55.0688,0.0132278
245,53.3956,0.0218373
181,40.3146,0.0212738
222,42.5937,0.0642921
290,66.7781,0.0391997
315,90.6032,0.0519665
265,53.162,0.0211213
289,67.7054,0.0128243
340,42.2519,0.0238639
338,20.5235,0.021494
392,25.8055,0.0211191
421,40.3183,0.0243408
450,41.4578,0.0886691
