facetNormals:0,facetNormals:1,facetNormals:2,FacetCenters:0,FacetCenters:1,FacetCenters:2,FacetIds,relFacetSize,absFacetSize,cellPairingIds,interplanarAngles,angleWeights
0.342605,0.47698,-0.745325,3.43431,4.45208,3.67992,1,0.07419,0.0140315,8,75.742,0.05867
-0.652873,-0.0942418,-0.651022,3.36829,4.38588,3.68341,2,0.0485199,0.00917656,13,79.3541,0.102048
0.440624,-0.71298,-0.481024,3.45855,4.3212,3.76608,3,0.163406,0.030905,19,56.8982,0.0844945
0.711447,0.604034,0.0632029,3.48009,4.43538,3.77071,4,0.0981234,0.018558,26,137.277,0.0551678
-0.768029,-0.547695,0.197933,3.36288,4.32261,3.7681,5,0.0439095,0.0083046,34,127.19,0.0486524
-0.802612,0.186331,0.486765,3.4282,4.39353,3.67269,6,0.0361938,0.00684533,43,124.78,0.0256696
-0.543316,0.400252,0.726492,3.41649,4.38933,3.83049,7,0.0155197,0.00293523,53,92.7224,0.0683565
0.34893,0.639157,0.627559,3.45102,4.43679,3.80604,8,0.0633735,0.0119858,64,167.416,0.0766056
-0.302729,-0.301283,0.84975,3.42984,4.33055,3.83851,9,0.0791838,0.014976,76,128.553,0.0698211
-0.00715935,0.260711,0.929771,3.42655,4.37108,3.83843,10,0.0659381,0.0124709,18,84.0605,0.0748229
,,,,,,,,,25,130.458,0.0649322
,,,,,,,,,33,61.6505,0.0460998
,,,,,,,,,42,77.6601,0.0414601
,,,,,,,,,52,99.7714,0.0235171
,,,,,,,,,63,141.432,0.0549608
,,,,,,,,,75,111.788,0.0601704
,,,,,,,,,88,134.312,0.0559037
,,,,,,,,,32,99.3965,0.122617
,,,,,,,,,41,92.6538,0.069219
,,,,,,,,,51,141.19,0.0592615
,,,,,,,,,62,155.833,0.028347
,,,,,,,,,74,130.541,0.0913276
,,,,,,,,,87,110.864,0.106675
,,,,,,,,,101,132.987,0.0939609
,,,,,,,,,50,163.556,0.0606698
,,,,,,,,,61,118.54,0.0528817
,,,,,,,,,73,96.1184,0.0268004
,,,,,,,,,86,41.4515,0.0770098
,,,,,,,,,100,112.724,0.087642
,,,,,,,,,115,76.4818,0.0788737
,,,,,,,,,72,48.5399,0.0396801
,,,,,,,,,85,69.0408,0.0229336
,,,,,,,,,99,122.207,0.0518759
,,,,,,,,,114,51.8928,0.0564925
,,,,,,,,,130,87.1215,0.0527151
,,,,,,,,,98,24.3827,0.0217242
,,,,,,,,,113,80.9623,0.0460739
,,,,,,,,,129,48.7198,0.0496797
,,,,,,,,,146,56.7345,0.0467347
,,,,,,,,,128,56.7834,0.0249334
,,,,,,,,,145,45.4783,0.0259527
,,,,,,,,,163,35.0658,0.0251256
,,,,,,,,,162,75.1008,0.0704019
,,,,,,,,,181,36.3534,0.0646304
,,,,,,,,,200,39.0028,0.0719565
