Q	U	V
{$V$}	{[mm$^3$]}	0.0100268
{$d_v$}	{[mm]}	0.267539
{$S_c$}	{[mm$^2$]}	0.440796
{$S_o$}	{[mm$^2$]}	0.276217
{$S_l/S_o$}	[]	0.595832
{$\Psi$}	[]	0.510138
{$\eta$}	[]	0.554894
{med($\theta_e$)}	{[$^\circ$]}	77.1099
{$\Upsilon$}	[]	9
{$\Xi$}	[]	5
