"cellPairingIds","interplanarAngles","angleWeights"
8,46.355,0.0314722
26,56.7709,0.103543
34,74.4456,0.0619843
18,33.4479,0.0273959
25,49.5481,0.019476
33,72.7416,0.0325247
42,114.971,0.0268665
52,89.0213,0.0262229
88,117.974,0.0222795
32,35.9183,0.0285838
62,67.0982,0.045926
116,64.8571,0.0551908
115,84.4222,0.0230588
131,65.1436,0.0303375
72,98.669,0.066204
85,46.4094,0.0624288
114,58.0038,0.0657745
129,52.0673,0.0461281
146,64.793,0.0341959
183,78.0862,0.0598936
203,55.6106,0.041027
145,79.0862,0.0442631
182,50.9955,0.0506284
202,62.1553,0.0567869
243,41.0148,0.0595419
242,95.1239,0.0377338
289,55.1614,0.0312136
288,77.1487,0.0716615
313,90.7393,0.0462269
338,41.2401,0.0513074
