Q	U	V
{$V$}	{[mm$^3$]}	0.00394945
{$d_v$}	{[mm]}	0.196116
{$S_c$}	{[mm$^2$]}	0.203723
{$S_o$}	{[mm$^2$]}	0.127764
{$S_l/S_o$}	[]	0.594526
{$\Psi$}	[]	0.59311
{$\eta$}	[]	0.616990
{med($\theta_e$)}	{[$^\circ$]}	66.7232
{$\Upsilon$}	[]	9
{$\Xi$}	[]	10
