facetNormals:0,facetNormals:1,facetNormals:2,FacetCenters:0,FacetCenters:1,FacetCenters:2,FacetIds,relFacetSize,absFacetSize,cellPairingIds,interplanarAngles,angleWeights
-0.0246732,0.271851,-0.949825,6.81802,3.17459,6.04379,1,0.0351209,0.00440498,8,39.8229,0.0371995
-0.605292,0.0152853,-0.750455,6.77047,3.13769,6.04102,2,0.0395395,0.00495916,13,50.6106,0.0520359
0.456966,-0.376759,-0.751437,6.84098,3.08179,6.07345,3,0.100382,0.0125902,19,32.8783,0.0541302
-0.169569,0.707023,-0.639148,6.83517,3.21851,6.09324,4,0.117995,0.0147993,26,67.3009,0.0431633
-0.553008,0.773687,-0.150806,6.79122,3.25065,6.11551,5,0.0559828,0.00702154,34,99.5631,0.0351814
0.625241,-0.727784,-0.0583814,6.85721,3.05089,6.1372,6,0.0352422,0.00442018,43,72.6179,0.0318604
0.858069,0.418961,-0.20602,6.77394,3.034,6.1625,7,0.0291538,0.00365656,53,94.2721,0.0423483
-0.655928,-0.710782,-0.110938,6.78836,3.04786,6.10558,8,0.0533209,0.00668768,64,84.4544,0.0396134
-0.982805,0.102394,-0.0446196,6.75381,3.13774,6.09693,9,0.0454238,0.00569719,76,94.883,0.0438091
-0.929919,-0.322913,0.0189352,6.7518,3.13841,6.10545,10,0.0582088,0.00730073,89,102.432,0.0362947
0.931085,0.0251661,0.196222,6.81325,3.08048,6.16269,11,0.0375496,0.00470958,103,140.418,0.0348158
-0.494742,-0.545733,0.638228,6.8154,3.05718,6.17532,12,0.0345158,0.00432908,118,154.986,0.0409371
0.199472,-0.58339,0.725726,6.85633,3.08319,6.17796,13,0.0490619,0.0061535,134,133.405,0.0514935
-0.653331,0.0243387,0.718452,6.79021,3.13669,6.182,14,0.0964613,0.0120985,18,72.2303,0.0567326
,,,,,,,,,25,50.5523,0.059231
,,,,,,,,,33,60.3205,0.0463459
,,,,,,,,,42,111.903,0.0372673
,,,,,,,,,52,112.362,0.0335615
,,,,,,,,,63,59.9965,0.0454075
,,,,,,,,,75,48.6649,0.0422779
,,,,,,,,,88,55.0601,0.0470913
,,,,,,,,,102,140.718,0.0385188
,,,,,,,,,117,101.529,0.0368573
,,,,,,,,,133,137.25,0.043789
,,,,,,,,,150,98.8024,0.0560884
,,,,,,,,,32,81.5306,0.108478
,,,,,,,,,41,117.885,0.071879
,,,,,,,,,51,48.9667,0.0521689
,,,,,,,,,62,65.4,0.0451847
,,,,,,,,,74,86.8354,0.0696469
,,,,,,,,,87,118.678,0.0625453
,,,,,,,,,101,109.697,0.073688
,,,,,,,,,116,72.8504,0.0546547
,,,,,,,,,132,122.428,0.0513688
,,,,,,,,,149,104.907,0.0659102
,,,,,,,,,167,155.779,0.0983827
,,,,,,,,,50,37.7354,0.0759372
,,,,,,,,,61,128.814,0.0542741
,,,,,,,,,73,72.6254,0.0467555
,,,,,,,,,86,109.876,0.0734503
,,,,,,,,,100,73.7738,0.0655957
,,,,,,,,,115,94.9791,0.0779592
,,,,,,,,,131,106.746,0.0569697
,,,,,,,,,148,138.796,0.0534086
,,,,,,,,,166,170.857,0.0693065
,,,,,,,,,185,110.622,0.106147
,,,,,,,,,72,166.509,0.0432547
,,,,,,,,,85,97.287,0.038341
,,,,,,,,,99,100.477,0.0546195
,,,,,,,,,114,48.632,0.0501536
,,,,,,,,,130,73.9842,0.0570741
,,,,,,,,,147,124.947,0.0449498
,,,,,,,,,165,105.125,0.0427033
,,,,,,,,,184,137.048,0.0522944
,,,,,,,,,204,73.108,0.070848
,,,,,,,,,98,74.9633,0.0319102
,,,,,,,,,113,83.0238,0.0424363
,,,,,,,,,129,136.213,0.0396904
,,,,,,,,,146,111.543,0.0439033
,,,,,,,,,164,52.8643,0.0363593
,,,,,,,,,183,86.9051,0.0348752
,,,,,,,,,203,56.3718,0.0410193
,,,,,,,,,224,120.09,0.0516236
,,,,,,,,,128,151.755,0.0376966
,,,,,,,,,145,144.971,0.0355141
,,,,,,,,,163,166.996,0.0388498
,,,,,,,,,182,34.2002,0.0328233
,,,,,,,,,202,145.501,0.031609
,,,,,,,,,223,103.856,0.0365743
,,,,,,,,,245,137.394,0.0447751
,,,,,,,,,162,53.2007,0.0490566
,,,,,,,,,181,29.1171,0.0556578
,,,,,,,,,201,134.575,0.0440666
,,,,,,,,,222,47.4526,0.0419054
,,,,,,,,,244,77.3315,0.0511029
,,,,,,,,,267,69.4774,0.0686785
,,,,,,,,,200,25.3604,0.0510277
,,,,,,,,,221,168.089,0.0411131
,,,,,,,,,243,65.3633,0.0392256
,,,,,,,,,266,107.814,0.0471728
,,,,,,,,,290,50.3944,0.0617632
,,,,,,,,,242,158.214,0.0456506
,,,,,,,,,265,47.4936,0.0433353
,,,,,,,,,289,88.9835,0.0532454
,,,,,,,,,314,50.1154,0.0726048
,,,,,,,,,288,112.107,0.0359689
,,,,,,,,,313,69.7692,0.0425406
,,,,,,,,,339,120.315,0.0540565
,,,,,,,,,338,42.6291,0.0405231
,,,,,,,,,365,35.738,0.0508401
,,,,,,,,,392,65.9568,0.0650422
