Q	U	V
{$V$}	{[mm$^3$]}	0.00923002
{$d_v$}	{[mm]}	0.260256
{$S_c$}	{[mm$^2$]}	0.336411
{$S_o$}	{[mm$^2$]}	0.223175
{$S_l/S_o$}	[]	0.507387
{$\Psi$}	[]	0.632532
{$\eta$}	[]	0.689005
{med($\theta_e$)}	{[$^\circ$]}	57.2359
{$\Upsilon$}	[]	13
{$\Xi$}	[]	9
