facetNormals:0,facetNormals:1,facetNormals:2,FacetCenters:0,FacetCenters:1,FacetCenters:2,FacetIds,relFacetSize,absFacetSize,cellPairingIds,interplanarAngles,angleWeights
-0.160807,-0.289508,-0.885894,7.14787,5.80698,5.11766,1,0.0478107,0.00766403,8,36.8814,0.0149343
-0.468303,0.240196,-0.839895,7.125,5.82261,5.1189,2,0.00884925,0.00141853,13,48.4282,0.0299472
-0.213229,0.500478,-0.824776,7.12644,5.81443,5.10425,3,0.0218015,0.00349477,19,57.9827,0.0625861
0.498058,0.339164,-0.742478,7.16468,5.76119,5.10052,4,0.0905785,0.0145197,26,48.6614,0.0307704
-0.72771,0.211294,-0.633364,7.11714,5.81983,5.13705,5,0.0226851,0.00363641,34,47.7183,0.0479181
-0.819396,-0.20702,-0.482644,7.15699,5.76332,5.2021,6,0.0480261,0.00769855,43,86.2437,0.0560897
0.938752,-0.0571122,-0.219281,7.21896,5.77062,5.15161,7,0.0678363,0.0108741,53,76.2781,0.0224665
0.093265,-0.95075,0.051497,7.18588,5.68355,5.22724,8,0.0146831,0.0023537,64,82.3891,0.0372226
-0.964685,0.0890495,0.00901896,7.08905,5.78314,5.20247,9,0.0304739,0.00488495,76,97.9036,0.0503067
-0.361847,0.882542,-0.0821872,7.09663,5.86895,5.16517,10,0.0530776,0.00850831,89,95.4179,0.0402995
-0.900363,-0.21931,0.33441,7.06461,5.8031,5.19246,11,0.0348279,0.0055829,103,116.878,0.0437353
-0.767754,0.256076,0.519979,7.09035,5.78645,5.25902,12,0.0403,0.00646007,118,130.023,0.0745942
0.817716,0.232279,0.429564,7.20583,5.77837,5.22334,13,0.169609,0.0271882,134,136.529,0.0582635
0.0739942,0.832797,0.450074,7.14923,5.85717,5.21996,14,0.0745656,0.0119528,151,144.681,0.0410133
0.0706801,-0.283564,0.924179,7.15038,5.75011,5.27581,15,0.0359082,0.00575606,18,21.2385,0.0125887
,,,,,,,,,25,60.144,0.0161233
,,,,,,,,,33,19.3659,0.0127319
,,,,,,,,,42,39.9631,0.0149448
,,,,,,,,,52,106.332,0.0156561
,,,,,,,,,63,109.421,0.011043
,,,,,,,,,75,60.9981,0.0137156
,,,,,,,,,88,61.6594,0.0151694
,,,,,,,,,102,84.8239,0.0141127
,,,,,,,,,117,90.9422,0.0145119
,,,,,,,,,133,136.779,0.0168209
,,,,,,,,,150,103.058,0.0158209
,,,,,,,,,168,155.964,0.0141992
,,,,,,,,,32,44.3217,0.0351441
,,,,,,,,,41,36.607,0.0222345
,,,,,,,,,51,60.796,0.0299893
,,,,,,,,,62,92.8773,0.032998
,,,,,,,,,74,124.706,0.0175479
,,,,,,,,,87,75.3048,0.0254183
,,,,,,,,,101,51.6709,0.0309077
,,,,,,,,,116,101.472,0.0268165
,,,,,,,,,132,98.2874,0.0282956
,,,,,,,,,149,115.992,0.0386366
,,,,,,,,,167,88.1792,0.0337385
,,,,,,,,,186,163.709,0.0271307
,,,,,,,,,50,79.0441,0.0362832
,,,,,,,,,61,97.4065,0.0627703
,,,,,,,,,73,48.5742,0.077575
,,,,,,,,,86,110.09,0.0252699
,,,,,,,,,100,119.555,0.0456047
,,,,,,,,,115,78.6524,0.0669333
,,,,,,,,,131,144.939,0.050311
,,,,,,,,,148,137.815,0.0557817
,,,,,,,,,166,79.4272,0.118091
,,,,,,,,,185,90.9379,0.0817957
,,,,,,,,,205,143.718,0.0514285
,,,,,,,,,72,26.7613,0.0308148
,,,,,,,,,85,125.683,0.0340002
,,,,,,,,,99,108.601,0.0178273
,,,,,,,,,114,41.6353,0.0260089
,,,,,,,,,130,57.9423,0.0317853
,,,,,,,,,147,65.9149,0.0274747
,,,,,,,,,165,72.6398,0.0290294
,,,,,,,,,184,150.422,0.0400179
,,,,,,,,,204,100.006,0.034787
,,,,,,,,,225,136.702,0.0278046
,,,,,,,,,98,133.886,0.0562376
,,,,,,,,,113,84.11,0.0224902
,,,,,,,,,129,35.4966,0.0372877
,,,,,,,,,146,80.5204,0.0504256
,,,,,,,,,164,49.5748,0.0403758
,,,,,,,,,183,69.6803,0.0438251
,,,,,,,,,203,176.726,0.074856
,,,,,,,,,224,119.159,0.0584231
,,,,,,,,,246,118.164,0.0410924
,,,,,,,,,128,81.8761,0.0241409
,,,,,,,,,145,167.284,0.0420554
,,,,,,,,,163,113.73,0.0595562
,,,,,,,,,182,162.233,0.0460257
,,,,,,,,,202,156.106,0.0505622
,,,,,,,,,223,44.1311,0.096912
,,,,,,,,,245,94.804,0.071042
,,,,,,,,,268,97.3722,0.0469592
,,,,,,,,,162,100.831,0.0198176
,,,,,,,,,181,163.249,0.0230028
,,,,,,,,,201,81.3498,0.0206573
,,,,,,,,,222,108.255,0.021524
,,,,,,,,,244,97.7232,0.0270265
,,,,,,,,,267,146.982,0.0245349
,,,,,,,,,291,69.5639,0.0208433
,,,,,,,,,200,62.5954,0.0387182
,,,,,,,,,221,26.7859,0.0325057
,,,,,,,,,243,34.4939,0.0347048
,,,,,,,,,266,145.921,0.051665
,,,,,,,,,290,89.5741,0.0432657
,,,,,,,,,315,95.1994,0.0329686
,,,,,,,,,242,83.6231,0.0420584
,,,,,,,,,265,59.958,0.0458146
,,,,,,,,,289,97.9551,0.0808529
,,,,,,,,,314,42.4074,0.0620129
,,,,,,,,,340,112.278,0.0428365
,,,,,,,,,288,31.3935,0.0373647
,,,,,,,,,313,133.301,0.0577892
,,,,,,,,,339,96.0598,0.0474793
,,,,,,,,,366,71.2084,0.0353598
,,,,,,,,,338,112.117,0.0651258
,,,,,,,,,365,64.6915,0.0523219
,,,,,,,,,393,67.7094,0.0379775
,,,,,,,,,392,60.3577,0.10359
,,,,,,,,,421,65.0842,0.0592685
,,,,,,,,,450,78.4023,0.0484733
