Q	U	V
{$V$}	{[mm$^3$]}	0.00646921
{$d_v$}	{[mm]}	0.231180
{$S_c$}	{[mm$^2$]}	0.265264
{$S_o$}	{[mm$^2$]}	0.1603
{$S_l/S_o$}	[]	0.654797
{$\Psi$}	[]	0.632956
{$\eta$}	[]	0.651411
{med($\theta_e$)}	{[$^\circ$]}	71.2084
{$\Upsilon$}	[]	15
{$\Xi$}	[]	7
