Q	U	V
{$V$}	{[mm$^3$]}	0.00825394
{$d_v$}	{[mm]}	0.250738
{$S_c$}	{[mm$^2$]}	0.345868
{$S_o$}	{[mm$^2$]}	0.204468
{$S_l/S_o$}	[]	0.691551
{$\Psi$}	[]	0.571059
{$\eta$}	[]	0.591220
{med($\theta_e$)}	{[$^\circ$]}	61.549
{$\Upsilon$}	[]	12
{$\Xi$}	[]	7
