Q	U	V
{$V$}	{[mm$^3$]}	0.00447786
{$d_v$}	{[mm]}	0.204499
{$S_c$}	{[mm$^2$]}	0.225918
{$S_o$}	{[mm$^2$]}	0.0966343
{$S_l/S_o$}	[]	1.337866
{$\Psi$}	[]	0.581541
{$\eta$}	[]	0.598801
{med($\theta_e$)}	{[$^\circ$]}	67.7492
{$\Upsilon$}	[]	7
{$\Xi$}	[]	7
