facetNormals:0,facetNormals:1,facetNormals:2,FacetCenters:0,FacetCenters:1,FacetCenters:2,FacetIds,relFacetSize,absFacetSize,cellPairingIds,interplanarAngles,angleWeights
-0.458442,-0.0931189,-0.853449,3.82412,3.45291,7.57992,1,0.017334,0.000976429,8,41.5753,0.0250972
0.128181,-0.464599,-0.856791,3.85644,3.46095,7.58346,2,0.0454548,0.00256049,13,65.6015,0.0255625
0.508106,-0.489904,-0.681741,3.8463,3.43701,7.59797,3,0.048663,0.00274121,19,66.8068,0.0283581
-0.00722325,-0.914864,-0.333667,3.87038,3.42037,7.62693,4,0.0779043,0.00438838,26,65.2932,0.0291469
-0.415826,0.817175,-0.330324,3.83334,3.50293,7.62102,5,0.09151,0.0051548,34,46.5673,0.0287389
-0.904587,-0.235541,-0.246242,3.79095,3.43647,7.63032,6,0.0840203,0.0047329,43,59.5855,0.0298902
-0.803834,0.515712,-0.186223,3.83243,3.50563,7.63131,7,0.108444,0.00610872,53,108.699,0.00779367
0.748156,0.620947,-0.111826,3.87801,3.5144,7.61142,8,0.00502693,0.000283169,64,96.569,0.0226345
-0.273496,-0.867225,0.369588,3.8184,3.40336,7.67275,9,0.0326045,0.00183663,76,122.208,0.0224122
0.535401,-0.729476,0.391188,3.89063,3.43481,7.67642,10,0.0316988,0.0017856,89,104.909,0.0287034
-0.644735,0.423302,0.583995,3.82511,3.49616,7.69931,11,0.083417,0.00469891,103,138.41,0.0284818
0.204155,-0.542583,0.775003,3.86938,3.44697,7.71004,12,0.0798086,0.00449565,118,110.294,0.0237303
-0.614673,-0.183644,0.736556,3.83954,3.47574,7.7167,13,0.037608,0.00211847,134,142.901,0.0227702
-0.0893473,-0.183594,0.966594,3.83997,3.45365,7.71403,14,0.0331741,0.00186871,18,24.6364,0.0470042
,,,,,,,,,25,42.1277,0.0574117
,,,,,,,,,33,99.0041,0.0607393
,,,,,,,,,42,77.5748,0.058994
,,,,,,,,,52,101.035,0.0640591
,,,,,,,,,63,95.7734,0.00905271
,,,,,,,,,75,86.9587,0.037972
,,,,,,,,,88,85.717,0.0373505
,,,,,,,,,102,145.067,0.0588446
,,,,,,,,,117,113.92,0.0579209
,,,,,,,,,133,130.574,0.0411608
,,,,,,,,,150,140.961,0.0383555
,,,,,,,,,32,45.3155,0.0599058
,,,,,,,,,41,113.832,0.063538
,,,,,,,,,51,100.715,0.0616307
,,,,,,,,,62,124.014,0.0671799
,,,,,,,,,74,80.8829,0.00911254
,,,,,,,,,87,87.9813,0.0390472
,,,,,,,,,101,67.9782,0.0383903
,,,,,,,,,116,169.389,0.0614676
,,,,,,,,,132,99.6256,0.0604605
,,,,,,,,,149,139.101,0.0424272
,,,,,,,,,167,129.33,0.0394528
,,,,,,,,,50,131.945,0.0841608
,,,,,,,,,61,71.1473,0.0808468
,,,,,,,,,73,115.227,0.0906718
,,,,,,,,,86,124.234,0.00944445
,,,,,,,,,100,45.3268,0.0459698
,,,,,,,,,115,56.2773,0.0450621
,,,,,,,,,131,127.803,0.0805665
,,,,,,,,,148,75.4789,0.078845
,,,,,,,,,166,94.4205,0.0507275
,,,,,,,,,185,99.2056,0.046533
,,,,,,,,,72,73.6616,0.0876054
,,,,,,,,,85,30.4857,0.0992601
,,,,,,,,,99,75.8444,0.00953034
,,,,,,,,,114,138.552,0.0480788
,,,,,,,,,130,170.643,0.0470868
,,,,,,,,,147,63.472,0.0872763
,,,,,,,,,165,146.251,0.0852597
,,,,,,,,,184,98.3217,0.0533079
,,,,,,,,,204,116.67,0.0486953
,,,,,,,,,98,46.1566,0.0946827
,,,,,,,,,113,147.233,0.0094863
,,,,,,,,,129,67.6593,0.0469787
,,,,,,,,,146,115.405,0.0460311
,,,,,,,,,164,68.6991,0.0837176
,,,,,,,,,183,105.354,0.0818603
,,,,,,,,,203,63.729,0.0519589
,,,,,,,,,224,96.8531,0.0475671
,,,,,,,,,128,105.866,0.00960847
,,,,,,,,,145,108.068,0.0501355
,,,,,,,,,163,156.464,0.0490577
,,,,,,,,,182,48.1692,0.0942984
,,,,,,,,,202,128.656,0.0919486
,,,,,,,,,223,73.9841,0.0558481
,,,,,,,,,245,102.183,0.0508062
,,,,,,,,,162,144.745,0.00871084
,,,,,,,,,181,95.7194,0.00867772
,,,,,,,,,201,107.507,0.00948243
,,,,,,,,,222,106.615,0.00945813
,,,,,,,,,244,133.355,0.00886845
,,,,,,,,,267,107.388,0.00873087
,,,,,,,,,200,49.3177,0.0321453
,,,,,,,,,221,88.4871,0.0468839
,,,,,,,,,243,42.435,0.0462957
,,,,,,,,,266,51.2895,0.034928
,,,,,,,,,290,56.0971,0.0328869
,,,,,,,,,242,116.499,0.0459401
,,,,,,,,,265,32.0956,0.0453752
,,,,,,,,,289,84.4576,0.0344015
,,,,,,,,,314,61.5332,0.0324197
,,,,,,,,,288,84.4045,0.0815729
,,,,,,,,,313,37.5962,0.0518429
,,,,,,,,,339,55.2789,0.0474699
,,,,,,,,,338,54.7956,0.0511246
,,,,,,,,,365,29.7064,0.046867
,,,,,,,,,392,33.937,0.0352522
