facetNormals:0,facetNormals:1,facetNormals:2,FacetCenters:0,FacetCenters:1,FacetCenters:2,FacetIds,relFacetSize,absFacetSize,cellPairingIds,interplanarAngles,angleWeights
0.218751,-0.264282,-0.894862,4.39314,3.57812,5.79672,1,0.0643753,0.0229816,8,52.0307,0.0896711
-0.283898,0.390239,-0.800581,4.37661,3.68011,5.82255,2,0.147714,0.052733,13,47.1727,0.052941
0.637901,0.322597,-0.635861,4.46894,3.68418,5.83493,3,0.044956,0.016049,19,78.1115,0.0328127
-0.862969,0.0955862,-0.455506,4.30183,3.63391,5.84436,4,0.0220176,0.00786014,26,78.6526,0.0226995
-0.734981,-0.613449,-0.204793,4.30641,3.64131,5.88943,5,0.0137791,0.00491904,34,112.092,0.071874
-0.497762,0.773527,0.0204706,4.36507,3.73341,5.89975,6,0.0813499,0.0290414,43,81.4475,0.040976
0.55794,-0.777798,0.210016,4.48408,3.6377,5.90109,7,0.0300525,0.0107285,53,128.663,0.0654339
0.127041,0.818313,0.406656,4.41856,3.72587,5.90986,8,0.0665279,0.02375,64,109.807,0.0504213
0.694863,0.569782,0.351791,4.48337,3.74208,5.91073,9,0.0414389,0.0147934,76,107.256,0.0373883
-0.602832,-0.678967,0.363915,4.31617,3.59273,5.90756,10,0.0263444,0.00940478,89,101.62,0.0606507
-0.017791,-0.841556,0.450088,4.3753,3.6495,5.92681,11,0.0573335,0.0204677,103,133.988,0.0301993
-0.835032,0.207762,0.460397,4.30276,3.63789,5.8771,12,0.0197267,0.00704228,118,118.31,0.039921
0.466098,-0.435048,0.737607,4.43412,3.66403,5.92777,13,0.028931,0.0103282,134,156.687,0.0714496
-0.311317,-0.105317,0.866195,4.3722,3.63921,5.91502,14,0.0802707,0.0286561,151,121.999,0.0551716
0.653421,0.0496936,0.681671,4.5002,3.67024,5.94435,15,0.0482703,0.0172322,18,59.5039,0.0689327
,,,,,,,,,25,45.0989,0.038323
,,,,,,,,,33,81.6296,0.0252068
,,,,,,,,,42,60.2494,0.104919
,,,,,,,,,52,133.455,0.0499439
,,,,,,,,,63,92.8107,0.0917384
,,,,,,,,,75,106.523,0.0647213
,,,,,,,,,88,114.912,0.0447142
,,,,,,,,,102,140.017,0.0826049
,,,,,,,,,117,93.1698,0.0348052
,,,,,,,,,133,168.349,0.0483853
,,,,,,,,,150,138.257,0.104017
,,,,,,,,,168,143.644,0.0727631
,,,,,,,,,32,104.194,0.0295586
,,,,,,,,,41,124.947,0.0210931
,,,,,,,,,51,95.2799,0.0579097
,,,,,,,,,62,91.7448,0.0360236
,,,,,,,,,74,84.3792,0.0536549
,,,,,,,,,87,64.093,0.0431259
,,,,,,,,,101,153.154,0.0332211
,,,,,,,,,116,128.543,0.0503959
,,,,,,,,,132,144.318,0.027421
,,,,,,,,,149,109.544,0.0352057
,,,,,,,,,167,152.103,0.0576339
,,,,,,,,,186,90.038,0.0465543
,,,,,,,,,50,45.8244,0.0169503
,,,,,,,,,61,56.7844,0.0346556
,,,,,,,,,73,132.69,0.0254151
,,,,,,,,,86,103.857,0.0330855
,,,,,,,,,100,138.207,0.0287563
,,,,,,,,,115,72.4274,0.0239875
,,,,,,,,,131,106.775,0.0318167
,,,,,,,,,148,56.3113,0.0208093
,,,,,,,,,166,144.66,0.0250052
,,,,,,,,,185,98.6086,0.0345566
,,,,,,,,,205,159.72,0.0302413
,,,,,,,,,72,97.1981,0.0235665
,,,,,,,,,85,88.5633,0.0188949
,,,,,,,,,99,138.709,0.0228297
,,,,,,,,,114,170.683,0.0206813
,,,,,,,,,130,34.9377,0.0180942
,,,,,,,,,147,62.1084,0.0222184
,,,,,,,,,165,65.7775,0.016225
,,,,,,,,,184,103.742,0.0186674
,,,,,,,,,204,82.6503,0.0235207
,,,,,,,,,225,134.63,0.0214384
,,,,,,,,,98,166.052,0.0438907
,,,,,,,,,113,47.0764,0.0731961
,,,,,,,,,129,83.399,0.0549081
,,,,,,,,,146,103.997,0.0398
,,,,,,,,,164,136.108,0.0672622
,,,,,,,,,183,49.2785,0.0317534
,,,,,,,,,203,128.093,0.0426825
,,,,,,,,,224,83.8562,0.0808067
,,,,,,,,,246,108.278,0.0605891
,,,,,,,,,128,122.082,0.0414023
,,,,,,,,,145,88.8853,0.0348389
,,,,,,,,,163,73.7538,0.0280765
,,,,,,,,,182,37.7966,0.0394345
,,,,,,,,,202,123.712,0.0238186
,,,,,,,,,223,37.9583,0.029481
,,,,,,,,,245,84.3024,0.0437321
,,,,,,,,,268,59.5881,0.0370427
,,,,,,,,,162,38.4128,0.0510684
,,,,,,,,,181,122.449,0.037743
,,,,,,,,,201,125.221,0.0615894
,,,,,,,,,222,73.8025,0.0304302
,,,,,,,,,244,89.7987,0.0403256
,,,,,,,,,267,74.6323,0.072756
,,,,,,,,,291,62.6427,0.0559473
,,,,,,,,,200,135.887,0.032211
,,,,,,,,,221,111.229,0.0481073
,,,,,,,,,243,108.568,0.0267291
,,,,,,,,,266,69.1108,0.0340733
,,,,,,,,,290,88.1803,0.0546601
,,,,,,,,,315,37.6816,0.0445945
,,,,,,,,,242,36.977,0.0361007
,,,,,,,,,265,56.2856,0.0225602
,,,,,,,,,289,72.7489,0.0275772
,,,,,,,,,314,50.6665,0.0396695
,,,,,,,,,340,101.195,0.0340858
,,,,,,,,,288,87.0937,0.0293536
,,,,,,,,,313,42.1639,0.0384565
,,,,,,,,,339,56.8143,0.0668904
,,,,,,,,,366,73.697,0.052413
,,,,,,,,,338,98.4612,0.0234582
,,,,,,,,,365,45.2188,0.0316703
,,,,,,,,,393,103.886,0.0280075
,,,,,,,,,392,53.3149,0.0425325
,,,,,,,,,421,31.5371,0.0361783
,,,,,,,,,450,64.1612,0.0602873
