Q	U	V
{$V$}	{[mm$^3$]}	0.00231908
{$d_v$}	{[mm]}	0.164225
{$S_c$}	{[mm$^2$]}	0.160156
{$S_o$}	{[mm$^2$]}	0.0864924
{$S_l/S_o$}	[]	0.851677
{$\Psi$}	[]	0.529035
{$\eta$}	[]	0.555046
{med($\theta_e$)}	{[$^\circ$]}	49.6436
{$\Upsilon$}	[]	12
{$\Xi$}	[]	2
