facetNormals:0,facetNormals:1,facetNormals:2,FacetCenters:0,FacetCenters:1,FacetCenters:2,FacetIds,relFacetSize,absFacetSize,cellPairingIds,interplanarAngles,angleWeights
-0.320106,-0.452192,-0.806884,6.79908,4.11638,6.96107,1,0.0192864,0.00417655,8,74.3635,0.0305882
0.489263,0.383782,-0.720297,6.84591,4.19315,6.94629,2,0.0738843,0.016,13,47.4196,0.0311873
0.189134,-0.855054,-0.379054,6.83451,4.07283,6.99434,3,0.0814414,0.0176365,19,88.9746,0.0190824
0.909823,-0.00793346,-0.377885,6.85957,4.16344,7.02198,4,0.0188827,0.00408913,26,102.647,0.0214386
0.771346,0.511823,-0.331685,6.77148,4.22333,7.06458,5,0.0241314,0.00522575,34,133.293,0.0297323
0.311796,0.884328,0.174004,6.82465,4.2264,7.00698,6,0.0648636,0.0140465,43,137.023,0.0301846
0.83813,0.375012,0.320419,6.83274,4.21896,7.09677,7,0.0694011,0.0150291,53,127.781,0.0235015
0.896701,-0.0533412,0.407076,6.88967,4.16019,7.07773,8,0.0300742,0.00651268,64,94.4971,0.0219148
-0.894359,0.125967,0.377314,6.67001,4.19975,7.1175,9,0.0253727,0.00549457,76,105.691,0.0342862
0.267549,-0.693358,0.594689,6.79242,4.09072,7.11028,10,0.154259,0.0334055,89,93.2984,0.027021
-0.666139,-0.422644,0.569014,6.69113,4.1211,7.1173,11,0.0451131,0.00976943,103,140.886,0.0226899
0.490129,-0.182254,0.834876,6.8384,4.15026,7.1074,12,0.0275519,0.00596648,118,158.346,0.0346917
-0.00711314,0.30926,0.861362,6.75248,4.22045,7.13433,13,0.172393,0.0373325,18,87.6386,0.077479
,,,,,,,,,25,40.3675,0.0300783
,,,,,,,,,33,29.7079,0.0363805
,,,,,,,,,42,66.1736,0.0690807
,,,,,,,,,52,69.5591,0.0715726
,,,,,,,,,63,82.3435,0.042748
,,,,,,,,,75,135.208,0.0377736
,,,,,,,,,88,128.477,0.0999138
,,,,,,,,,102,165.968,0.0560205
,,,,,,,,,117,117.407,0.0401366
,,,,,,,,,133,125.459,0.103437
,,,,,,,,,32,69.9638,0.0306573
,,,,,,,,,41,100.191,0.0372311
,,,,,,,,,51,146.989,0.0722133
,,,,,,,,,62,107.794,0.0749408
,,,,,,,,,74,86.2896,0.0439272
,,,,,,,,,87,116.714,0.0386913
,,,,,,,,,101,62.5961,0.106602
,,,,,,,,,116,88.7834,0.0580631
,,,,,,,,,132,94.1437,0.0411744
,,,,,,,,,149,132.701,0.110623
,,,,,,,,,50,31.8341,0.0211868
,,,,,,,,,61,77.0282,0.0292503
,,,,,,,,,73,48.2101,0.0296879
,,,,,,,,,86,47.0176,0.0231993
,,,,,,,,,100,173.06,0.0216518
,,,,,,,,,115,88.5213,0.0336468
,,,,,,,,,131,148.573,0.0266223
,,,,,,,,,148,82.1898,0.022408
,,,,,,,,,166,111.77,0.0340372
,,,,,,,,,72,47.3475,0.0351761
,,,,,,,,,85,40.039,0.035811
,,,,,,,,,99,56.9182,0.026777
,,,,,,,,,114,141.239,0.0247365
,,,,,,,,,130,111.679,0.0417341
,,,,,,,,,147,163.878,0.0314434
,,,,,,,,,165,89.535,0.0257284
,,,,,,,,,184,98.492,0.0423365
,,,,,,,,,98,45.6176,0.0670557
,,,,,,,,,113,71.1908,0.0410947
,,,,,,,,,129,96.2611,0.0364768
,,,,,,,,,146,118.007,0.091326
,,,,,,,,,164,121.337,0.0532149
,,,,,,,,,183,81.6201,0.0386757
,,,,,,,,,203,61.151,0.0942611
,,,,,,,,,128,26.0071,0.0419638
,,,,,,,,,145,127.649,0.0371599
,,,,,,,,,163,80.3748,0.0957324
,,,,,,,,,182,124.404,0.0546814
,,,,,,,,,202,50.4558,0.0394445
,,,,,,,,,223,64.2979,0.0989625
,,,,,,,,,162,132.735,0.0275241
,,,,,,,,,181,56.4364,0.0503351
,,,,,,,,,201,110.96,0.0360896
,,,,,,,,,222,35.6895,0.0287578
,,,,,,,,,244,68.7075,0.051214
,,,,,,,,,200,96.3002,0.0435777
,,,,,,,,,221,37.3152,0.0324786
,,,,,,,,,243,98.7266,0.0264174
,,,,,,,,,266,65.583,0.044235
,,,,,,,,,242,60.6921,0.0698102
,,,,,,,,,265,36.4752,0.0467533
,,,,,,,,,289,70.1425,0.162823
,,,,,,,,,288,76.3833,0.0342105
,,,,,,,,,313,65.8544,0.0715123
,,,,,,,,,338,43.0105,0.0475106
