Q	U	V
{$V$}	{[mm$^3$]}	0.00946989
{$d_v$}	{[mm]}	0.262492
{$S_c$}	{[mm$^2$]}	0.40976
{$S_o$}	{[mm$^2$]}	0.245465
{$S_l/S_o$}	[]	0.669321
{$\Psi$}	[]	0.528264
{$\eta$}	[]	0.551623
{med($\theta_e$)}	{[$^\circ$]}	57.2367
{$\Upsilon$}	[]	11
{$\Xi$}	[]	11
