Q	U	V
{$V$}	{[mm$^3$]}	0.00146412
{$d_v$}	{[mm]}	0.140883
{$S_c$}	{[mm$^2$]}	0.109423
{$S_o$}	{[mm$^2$]}	0.0612444
{$S_l/S_o$}	[]	0.786661
{$\Psi$}	[]	0.569849
{$\eta$}	[]	0.683440
{med($\theta_e$)}	{[$^\circ$]}	66.2188
{$\Upsilon$}	[]	11
{$\Xi$}	[]	7
