"cellPairingIds","interplanarAngles","angleWeights"
8,60.2355,0.0357059
13,81.906,0.106604
19,78.2805,0.0990145
26,93.1158,0.0289319
34,83.775,0.132112
64,72.3518,0.0502105
76,87.0842,0.0860965
89,90.6136,0.0617296
18,58.057,0.0311869
25,34.2137,0.0305029
63,75.185,0.0241909
51,65.4736,0.0860027
74,48.4038,0.04403
167,85.4251,0.0603994
50,28.7291,0.0254187
86,80.8027,0.0426789
185,113.122,0.0578856
147,42.7456,0.0220064
204,102.954,0.0239579
129,92.5295,0.0451199
203,95.4893,0.0380199
224,80.1108,0.0678184
267,47.5583,0.0387154
200,30.0724,0.0381553
266,37.3738,0.025874
242,16.4817,0.0444598
289,35.4432,0.0329516
314,106.822,0.0532176
339,105.701,0.0427797
392,78.5417,0.0320195
