facetNormals:0,facetNormals:1,facetNormals:2,FacetCenters:0,FacetCenters:1,FacetCenters:2,FacetIds,relFacetSize,absFacetSize,cellPairingIds,interplanarAngles,angleWeights
-0.138852,-0.204507,-0.881915,5.77531,4.27866,5.07821,1,0.126073,0.036573,8,55.8209,0.0172139
0.526871,0.380129,-0.750035,5.88489,4.35642,5.07836,2,0.0092376,0.00267978,13,47.0297,0.049853
0.275191,-0.739814,-0.554712,5.81286,4.24663,5.08688,3,0.0310694,0.00901305,19,61.2739,0.0267426
0.767878,0.0298213,-0.620962,5.89856,4.3575,5.06143,4,0.0149577,0.00433914,26,70.495,0.033438
-0.946883,-0.0962713,-0.163457,5.67045,4.31563,5.13151,5,0.0192751,0.00559161,34,74.7051,0.0458723
-0.364109,-0.893095,0.000208457,5.72257,4.23798,5.13141,6,0.0280368,0.00813332,43,101.98,0.087423
0.662003,0.678042,-0.0568147,5.86073,4.42895,5.14714,7,0.0669105,0.0194104,53,83.1394,0.0398817
0.605598,-0.771164,-0.0382579,5.77749,4.31851,5.13862,8,0.0236875,0.0068716,64,93.4665,0.0822099
-0.702943,0.639621,0.022048,5.69369,4.41706,5.181,9,0.0609903,0.017693,76,100.226,0.0237683
0.98055,-0.00875727,0.0285264,5.87052,4.34373,5.13781,10,0.013121,0.00380633,89,116.32,0.063669
0.833485,-0.327501,0.3955,5.87825,4.32505,5.16969,11,0.0425884,0.0123547,103,140.987,0.0350924
0.519962,0.603944,0.567624,5.85675,4.39095,5.17868,12,0.020383,0.005913,118,118.025,0.0988747
0.437913,-0.663223,0.558972,5.83228,4.26903,5.18898,13,0.0813293,0.0235932,134,130.066,0.050625
-0.61781,-0.0394737,0.763491,5.7091,4.31821,5.21375,14,0.0316713,0.00918768,151,147.876,0.0616501
-0.332667,0.425308,0.809844,5.75486,4.40659,5.21616,15,0.040801,0.0118361,169,128.438,0.115222
-0.32981,-0.447107,0.767129,5.69939,4.30833,5.19673,16,0.106091,0.0307764,188,153.497,0.0703833
0.39586,-0.15079,0.882076,5.83455,4.33407,5.21378,17,0.0488188,0.0141621,18,73.0047,0.014241
,,,,,,,,,25,25.9334,0.0114215
,,,,,,,,,33,115.523,0.0124896
,,,,,,,,,42,123.735,0.0138965
,,,,,,,,,52,46.4403,0.016234
,,,,,,,,,63,86.784,0.0132917
,,,,,,,,,75,98.7658,0.016045
,,,,,,,,,88,59.6475,0.0108421
,,,,,,,,,102,88.9379,0.0151821
,,,,,,,,,117,85.4043,0.0127135
,,,,,,,,,133,117.195,0.0165908
,,,,,,,,,150,159.427,0.0143033
,,,,,,,,,168,130.014,0.0150645
,,,,,,,,,187,167.927,0.0169954
,,,,,,,,,207,121.708,0.0155355
,,,,,,,,,32,55.9492,0.0201936
,,,,,,,,,41,96.08,0.0237907
,,,,,,,,,51,52.9665,0.0294753
,,,,,,,,,62,108.323,0.0424346
,,,,,,,,,74,36.7651,0.0268808
,,,,,,,,,87,137.749,0.0411674
,,,,,,,,,101,74.0239,0.0184502
,,,,,,,,,116,74.5082,0.0359282
,,,,,,,,,132,130.944,0.0246164
,,,,,,,,,149,71.2638,0.0449623
,,,,,,,,,167,126.52,0.0313675
,,,,,,,,,186,155.638,0.0352763
,,,,,,,,,206,101.714,0.0480632
,,,,,,,,,227,106.543,0.0379723
,,,,,,,,,50,131.201,0.0168442
,,,,,,,,,61,108.754,0.0195079
,,,,,,,,,73,53.0472,0.0244497
,,,,,,,,,86,61.2857,0.0183366
,,,,,,,,,100,124.678,0.0240237
,,,,,,,,,115,40.6847,0.0139793
,,,,,,,,,131,66.5656,0.0221396
,,,,,,,,,148,86.1561,0.0172539
,,,,,,,,,166,91.8276,0.0252682
,,,,,,,,,185,167.935,0.0203191
,,,,,,,,,205,140.84,0.0218903
,,,,,,,,,226,142.552,0.0262188
,,,,,,,,,248,104.88,0.0228992
,,,,,,,,,72,62.455,0.0228447
,,,,,,,,,85,138.144,0.0299286
,,,,,,,,,99,121.345,0.0212547
,,,,,,,,,114,49.1539,0.0292927
,,,,,,,,,130,169.767,0.0156135
,,,,,,,,,147,150.44,0.026539
,,,,,,,,,165,132.907,0.0198136
,,,,,,,,,184,118.115,0.0311643
,,,,,,,,,204,60.7371,0.0239651
,,,,,,,,,225,81.3309,0.0261816
,,,,,,,,,247,75.4405,0.0326231
,,,,,,,,,270,122.268,0.027638
,,,,,,,,,98,157.617,0.0395157
,,,,,,,,,113,60.3485,0.0256793
,,,,,,,,,129,110.113,0.0384147
,,,,,,,,,146,111.659,0.0178761
,,,,,,,,,164,90.6619,0.0338135
,,,,,,,,,183,140.542,0.023605
,,,,,,,,,203,62.4807,0.0416987
,,,,,,,,,224,74.0593,0.0297434
,,,,,,,,,246,105.986,0.0332355
,,,,,,,,,269,55.3381,0.0443525
,,,,,,,,,293,90.5635,0.035618
,,,,,,,,,128,97.3889,0.0349884
,,,,,,,,,145,92.0901,0.0638134
,,,,,,,,,163,46.4567,0.0219397
,,,,,,,,,182,70.6951,0.0520482
,,,,,,,,,202,39.0369,0.0312472
,,,,,,,,,223,101.986,0.0734186
,,,,,,,,,245,120.895,0.0429926
,,,,,,,,,268,88.6271,0.0506912
,,,,,,,,,292,128.934,0.082064
,,,,,,,,,317,83.2177,0.0564505
,,,,,,,,,162,170.404,0.0341224
,,,,,,,,,181,51.4829,0.0168876
,,,,,,,,,201,39.4126,0.0304428
,,,,,,,,,222,100.355,0.0219114
,,,,,,,,,244,37.6137,0.0366891
,,,,,,,,,267,112.745,0.0271037
,,,,,,,,,291,125.927,0.0299735
,,,,,,,,,316,82.8485,0.038728
,,,,,,,,,342,70.3893,0.0318978
,,,,,,,,,200,138.11,0.021596
,,,,,,,,,221,147.701,0.0501547
,,,,,,,,,243,87.9479,0.0305546
,,,,,,,,,266,141.185,0.0697065
,,,,,,,,,290,62.8864,0.0416924
,,,,,,,,,315,55.5273,0.0488935
,,,,,,,,,341,92.3695,0.0774536
,,,,,,,,,368,112.452,0.05423
,,,,,,,,,242,30.0335,0.0200613
,,,,,,,,,265,57.1431,0.015965
,,,,,,,,,289,61.7507,0.0225965
,,,,,,,,,314,127.25,0.018555
,,,,,,,,,340,108.743,0.0198565
,,,,,,,,,367,108.679,0.0233537
,,,,,,,,,395,64.4085,0.020683
,,,,,,,,,288,61.2928,0.0275706
,,,,,,,,,313,32.3834,0.055903
,,,,,,,,,339,101.999,0.0363274
,,,,,,,,,366,95.7984,0.0416755
,,,,,,,,,394,79.1255,0.0607784
,,,,,,,,,423,40.5214,0.0454913
,,,,,,,,,338,81.2613,0.0325966
,,,,,,,,,365,84.7321,0.0248032
,,,,,,,,,393,55.1955,0.0271851
,,,,,,,,,422,90.3756,0.034196
,,,,,,,,,452,49.9966,0.0287586
,,,,,,,,,392,78.9897,0.0455893
,,,,,,,,,421,88.4897,0.0543406
,,,,,,,,,451,50.8615,0.0920744
,,,,,,,,,482,36.2832,0.0610135
,,,,,,,,,450,32.4843,0.0356611
,,,,,,,,,481,29.8999,0.0487803
,,,,,,,,,513,63.1213,0.0384185
,,,,,,,,,512,54.0837,0.0589361
,,,,,,,,,545,57.0152,0.0444512
,,,,,,,,,578,48.551,0.0668677
