Q	U	V
{$V$}	{[mm$^3$]}	0.00472841
{$d_v$}	{[mm]}	0.208244
{$S_c$}	{[mm$^2$]}	0.250274
{$S_o$}	{[mm$^2$]}	0.147654
{$S_l/S_o$}	[]	0.695003
{$\Psi$}	[]	0.54435
{$\eta$}	[]	0.610243
{med($\theta_e$)}	{[$^\circ$]}	51.8639
{$\Upsilon$}	[]	13
{$\Xi$}	[]	6
