"cellPairingIds","interplanarAngles","angleWeights"
33,45.5241,0.0221204
63,106.688,0.0177394
168,140.44,0.0225827
99,141.64,0.0172976
184,119.632,0.0365497
225,131.445,0.0218715
244,87.2896,0.0259575
291,86.9077,0.017579
421,43.3412,0.0378295
