Q	U	V
{$V$}	{[mm$^3$]}	0.00363715
{$d_v$}	{[mm]}	0.190804
{$S_c$}	{[mm$^2$]}	0.182459
{$S_o$}	{[mm$^2$]}	0.129206
{$S_l/S_o$}	[]	0.412156
{$\Psi$}	[]	0.626844
{$\eta$}	[]	0.655303
{med($\theta_e$)}	{[$^\circ$]}	55.427
{$\Upsilon$}	[]	13
{$\Xi$}	[]	6
