"cellPairingIds","interplanarAngles","angleWeights"
13,95.0191,0.0430487
19,56.1101,0.0368134
26,98.8161,0.0480756
34,39.4419,0.0522456
43,45.3638,0.0338992
32,98.7383,0.0262326
41,42.0439,0.0314891
74,55.338,0.0217532
101,52.4342,0.0459862
73,58.1146,0.0225275
86,72.7942,0.0200381
100,43.3124,0.0382489
72,102.746,0.0361429
130,36.0845,0.0517686
147,53.4683,0.0436089
204,64.8362,0.0199634
98,30.1856,0.0274977
164,68.2943,0.0470126
145,91.4371,0.0351126
182,93.9302,0.0316158
245,98.2907,0.0170096
292,99.5539,0.0226882
162,39.0528,0.0294166
181,73.8411,0.0298241
222,30.2357,0.0275182
244,44.4323,0.0184045
243,45.217,0.0794957
341,117.523,0.0387146
368,90.1335,0.0655654
289,33.2483,0.0332116
314,59.1355,0.0249499
367,62.7507,0.0394234
395,52.4662,0.0676245
339,21.9277,0.0228861
338,34.5792,0.0303771
452,51.6278,0.0568275
482,46.427,0.0280961
481,24.8929,0.0178124
578,32.9826,0.0324171
