facetNormals:0,facetNormals:1,facetNormals:2,FacetCenters:0,FacetCenters:1,FacetCenters:2,FacetIds,relFacetSize,absFacetSize,cellPairingIds,interplanarAngles,angleWeights
-0.0554622,0.222721,-0.915571,4.29535,4.84953,5.69067,1,0.176928,0.0274742,8,41.0218,0.0653481
0.0617252,-0.435004,-0.862307,4.32124,4.81249,5.68806,2,0.0400749,0.00622304,13,41.6034,0.0657231
-0.514101,-0.265247,-0.785282,4.25436,4.8467,5.6884,3,0.0403573,0.00626689,19,43.761,0.042804
0.565595,0.465111,-0.650339,4.32422,4.90717,5.69956,4,0.0243472,0.00378075,26,55.5846,0.0211191
0.729436,-0.140173,-0.655531,4.38303,4.84026,5.67197,5,0.0112298,0.00174382,34,56.5479,0.0208798
-0.0974177,0.925462,-0.330103,4.28086,4.94422,5.73144,6,0.0110945,0.00172282,43,78.8928,0.0847791
-0.185323,-0.879444,-0.397917,4.30303,4.7383,5.70956,7,0.0557455,0.00865644,53,72.9893,0.0714475
-0.942429,0.183583,-0.193668,4.21073,4.88045,5.73683,8,0.0447617,0.00695082,64,74.6488,0.135352
0.885507,0.294997,-0.245265,4.40305,4.84956,5.73147,9,0.109598,0.017019,76,93.7598,0.0653955
-0.516122,-0.824499,-0.103175,4.2361,4.75528,5.7241,10,0.0401106,0.00622857,89,94.5944,0.0370162
-0.94144,-0.282848,0.0696037,4.20629,4.83189,5.74546,11,0.0206704,0.0032098,103,130.956,0.117082
0.377193,-0.772413,0.442626,4.37452,4.76331,5.79245,12,0.0874889,0.0135857,118,137.714,0.0906237
-0.438503,-0.596987,0.616222,4.25969,4.76341,5.79236,13,0.0609115,0.00945865,134,167.401,0.0188416
0.124136,-0.428169,0.88826,4.32876,4.76691,5.81423,14,0.00995064,0.00154519,18,36.2941,0.0402156
,,,,,,,,,25,65.4786,0.0302912
,,,,,,,,,33,45.5619,0.0175435
,,,,,,,,,42,97.4525,0.017378
,,,,,,,,,52,41.3353,0.0466288
,,,,,,,,,63,88.2487,0.0422888
,,,,,,,,,75,81.5136,0.0586897
,,,,,,,,,88,63.9475,0.0400927
,,,,,,,,,102,89.705,0.0272733
,,,,,,,,,117,91.3714,0.0549703
,,,,,,,,,133,108.685,0.0483436
,,,,,,,,,150,126.494,0.0159427
,,,,,,,,,32,84.1985,0.0303715
,,,,,,,,,41,79.4478,0.0175704
,,,,,,,,,51,86.1997,0.0174044
,,,,,,,,,62,48.0373,0.0468194
,,,,,,,,,74,52.0211,0.0424455
,,,,,,,,,87,111.233,0.058992
,,,,,,,,,101,53.6826,0.0402336
,,,,,,,,,116,58.3502,0.0273384
,,,,,,,,,132,110.913,0.0552354
,,,,,,,,,149,96.1158,0.0485485
,,,,,,,,,167,131.933,0.0159649
,,,,,,,,,50,37.116,0.0153703
,,,,,,,,,61,52.4,0.0152431
,,,,,,,,,73,105.366,0.0338918
,,,,,,,,,86,109.594,0.0315392
,,,,,,,,,100,32.4509,0.0398432
,,,,,,,,,115,129.418,0.0303014
,,,,,,,,,131,137.3,0.0223586
,,,,,,,,,148,117.264,0.0380934
,,,,,,,,,166,169.035,0.0347888
,,,,,,,,,185,136.548,0.0141274
,,,,,,,,,72,89.0858,0.0111617
,,,,,,,,,85,75.1878,0.0186938
,,,,,,,,,99,127.166,0.017955
,,,,,,,,,114,36.8186,0.0203722
,,,,,,,,,130,101.504,0.0175469
,,,,,,,,,147,135.196,0.0145532
,,,,,,,,,165,84.4129,0.0199047
,,,,,,,,,184,132.114,0.0189634
,,,,,,,,,204,116.006,0.0105516
,,,,,,,,,98,133.21,0.018506
,,,,,,,,,113,70.3236,0.0177817
,,,,,,,,,129,73.6832,0.0201493
,,,,,,,,,146,134.645,0.0173814
,,,,,,,,,164,101.442,0.0144391
,,,,,,,,,183,160.106,0.0196919
,,,,,,,,,203,138.558,0.0187702
,,,,,,,,,224,135.637,0.0104915
,,,,,,,,,128,84.6201,0.0496534
,,,,,,,,,145,110.098,0.0739018
,,,,,,,,,163,26.3168,0.0466529
,,,,,,,,,182,65.8998,0.0301581
,,,,,,,,,202,62.8766,0.0680997
,,,,,,,,,223,67.5884,0.0582141
,,,,,,,,,245,89.9946,0.0168869
,,,,,,,,,162,140.835,0.0635631
,,,,,,,,,181,68.2504,0.0423087
,,,,,,,,,201,31.6336,0.028281
,,,,,,,,,222,127.997,0.0592232
,,,,,,,,,244,78.7377,0.0516025
,,,,,,,,,267,112.188,0.0162818
,,,,,,,,,200,135.644,0.0587279
,,,,,,,,,221,169.196,0.034781
,,,,,,,,,243,90.1482,0.0973034
,,,,,,,,,266,140.311,0.0783039
,,,,,,,,,290,104.136,0.0182448
,,,,,,,,,242,42.393,0.0272816
,,,,,,,,,265,65.2127,0.0550038
,,,,,,,,,289,45.9801,0.0483695
,,,,,,,,,314,78.2899,0.0159455
,,,,,,,,,288,96.3765,0.0334401
,,,,,,,,,313,48.8706,0.0308663
,,,,,,,,,339,86.1322,0.0134341
,,,,,,,,,338,52.3952,0.0718203
,,,,,,,,,365,36.6725,0.0178689
,,,,,,,,,392,38.5861,0.0171067
