Q	U	V
{$V$}	{[mm$^3$]}	0.00766972
{$d_v$}	{[mm]}	0.244677
{$S_c$}	{[mm$^2$]}	0.438884
{$S_o$}	{[mm$^2$]}	0.233594
{$S_l/S_o$}	[]	0.878833
{$\Psi$}	[]	0.428536
{$\eta$}	[]	0.467117
{med($\theta_e$)}	{[$^\circ$]}	85.44955
{$\Upsilon$}	[]	12
{$\Xi$}	[]	8
