facetNormals:0,facetNormals:1,facetNormals:2,FacetCenters:0,FacetCenters:1,FacetCenters:2,FacetIds,relFacetSize,absFacetSize,cellPairingIds,interplanarAngles,angleWeights
-0.411873,0.00621013,-0.86231,5.50788,6.6257,6.98592,1,0.0624233,0.0118697,8,54.0395,0.0606715
0.363885,-0.383072,-0.801077,5.58962,6.56095,7.01634,2,0.0590152,0.0112216,13,52.4982,0.0491522
0.00758143,0.719497,-0.654841,5.55246,6.75804,7.10417,3,0.0405346,0.00770759,19,43.1672,0.0198813
-0.444227,0.667009,-0.585033,5.52457,6.71129,7.0971,4,0.0118235,0.00224822,26,50.0455,0.0615517
-0.931818,0.17894,-0.252401,5.45615,6.6551,7.05848,5,0.060704,0.0115428,34,96.3521,0.0670892
0.804456,0.478318,-0.261639,5.60734,6.68818,7.07252,6,0.072509,0.0137874,43,90.5905,0.036636
0.401292,0.882509,-0.174068,5.56547,6.7507,7.08635,7,0.025926,0.00492977,53,74.3533,0.0761266
-0.70714,0.621616,0.0602425,5.48162,6.72169,7.12983,8,0.0975385,0.0185468,64,151.84,0.0936109
0.7588,-0.0927968,0.566626,5.5904,6.65127,7.12337,9,0.187077,0.0355724,76,144.577,0.0821989
-0.14461,0.124373,0.906925,5.50653,6.67279,7.1745,10,0.120314,0.0228775,18,74.3588,0.0480596
,,,,,,,,,25,86.8997,0.0197002
,,,,,,,,,33,102.593,0.0598477
,,,,,,,,,42,69.991,0.0650699
,,,,,,,,,52,93.1901,0.0360255
,,,,,,,,,63,126.909,0.0735371
,,,,,,,,,75,98.962,0.0897257
,,,,,,,,,88,158.38,0.079188
,,,,,,,,,32,27.0623,0.0183071
,,,,,,,,,41,72.5177,0.0486102
,,,,,,,,,51,56.519,0.0519998
,,,,,,,,,62,38.3043,0.0316247
,,,,,,,,,74,63.9954,0.0572695
,,,,,,,,,87,117.821,0.0666319
,,,,,,,,,101,124.1,0.0606395
,,,,,,,,,50,45.6541,0.0197921
,,,,,,,,,61,83.1653,0.0203317
,,,,,,,,,73,58.3918,0.0162405
,,,,,,,,,86,42.1963,0.0210905
,,,,,,,,,100,140.685,0.0222413
,,,,,,,,,115,114.64,0.0215311
,,,,,,,,,72,128.808,0.0660834
,,,,,,,,,85,100.25,0.0363341
,,,,,,,,,99,35.4115,0.0748342
,,,,,,,,,114,158.073,0.0916642
,,,,,,,,,130,94.5323,0.0806941
,,,,,,,,,98,34.3262,0.0381951
,,,,,,,,,113,108.262,0.0831816
,,,,,,,,,129,63.1411,0.104511
,,,,,,,,,146,109.061,0.0904856
,,,,,,,,,128,74.1163,0.0409637
,,,,,,,,,145,82.3989,0.0455407
,,,,,,,,,163,96.677,0.0426594
,,,,,,,,,162,128.604,0.128224
,,,,,,,,,181,74.4628,0.107736
,,,,,,,,,200,63.5632,0.146445
