facetNormals:0,facetNormals:1,facetNormals:2,FacetCenters:0,FacetCenters:1,FacetCenters:2,FacetIds,relFacetSize,absFacetSize,cellPairingIds,interplanarAngles,angleWeights
0.292924,0.134702,-0.929091,5.51825,5.66235,7.29355,1,0.0358664,0.00553811,8,41.3457,0.0545399
0.549267,-0.424201,-0.636814,5.51528,5.6231,7.29924,2,0.113777,0.0175682,13,31.1255,0.0488588
0.580767,0.450358,-0.626876,5.5432,5.7043,7.32956,3,0.0766103,0.0118293,19,59.3688,0.023798
-0.136728,0.85839,-0.445395,5.45094,5.74705,7.3177,4,0.0178065,0.00274949,26,93.016,0.0479333
-0.139265,-0.935045,-0.126354,5.46829,5.57356,7.38614,5,0.0722364,0.011154,34,68.9722,0.0225512
0.975447,-0.112646,-0.083073,5.54212,5.6679,7.31669,6,0.0164458,0.00253938,43,114.121,0.047507
-0.555006,-0.774335,0.128602,5.45314,5.5785,7.40496,7,0.0703342,0.0108602,53,74.7678,0.0308086
0.393363,0.900542,-0.0187597,5.52561,5.7256,7.3884,8,0.027001,0.00416921,64,100.942,0.0461235
0.403166,0.775408,0.435742,5.54083,5.72364,7.40014,9,0.0645969,0.00997435,76,112.56,0.0447077
-0.264027,0.822264,0.427259,5.43395,5.73851,7.38685,10,0.0593338,0.00916168,89,120.72,0.0561321
0.540817,-0.483678,0.614514,5.55389,5.60349,7.43981,11,0.129049,0.0199264,103,146.001,0.0334961
-0.761553,-0.0278269,0.615483,5.39208,5.64321,7.42858,12,0.0314196,0.00485147,118,144.621,0.0540816
-0.360427,0.44345,0.797122,5.44842,5.67979,7.45314,13,0.109891,0.0169682,18,54.5919,0.0915657
,,,,,,,,,25,99.7377,0.0307937
,,,,,,,,,33,63.516,0.0883682
,,,,,,,,,42,46.7082,0.0287377
,,,,,,,,,52,93.6896,0.0869301
,,,,,,,,,63,99.5757,0.0436445
,,,,,,,,,75,114.742,0.082407
,,,,,,,,,88,147.559,0.0779941
,,,,,,,,,102,82.8868,0.120933
,,,,,,,,,117,149.925,0.0492412
,,,,,,,,,133,165.332,0.1118
,,,,,,,,,32,51.5714,0.0288966
,,,,,,,,,41,117.316,0.0743591
,,,,,,,,,51,53.3769,0.0270786
,,,,,,,,,62,144.043,0.0733382
,,,,,,,,,74,47.1428,0.0399292
,,,,,,,,,87,70.8017,0.0700925
,,,,,,,,,101,93.1328,0.0668742
,,,,,,,,,116,108.338,0.0961443
,,,,,,,,,132,152.675,0.0445629
,,,,,,,,,149,122.519,0.0902812
,,,,,,,,,50,141.332,0.0285703
,,,,,,,,,61,101.572,0.0170991
,,,,,,,,,73,133.48,0.0284183
,,,,,,,,,86,40.7177,0.0214604
,,,,,,,,,100,64.1144,0.0279174
,,,,,,,,,115,54.1139,0.0273924
,,,,,,,,,131,145.23,0.0312949
,,,,,,,,,148,101.693,0.0227307
,,,,,,,,,166,85.5155,0.030647
,,,,,,,,,72,91.2205,0.0267919
,,,,,,,,,85,31.1024,0.0712726
,,,,,,,,,99,162.582,0.0393089
,,,,,,,,,114,153.874,0.0682034
,,,,,,,,,130,148.801,0.0651525
,,,,,,,,,147,70.7289,0.0926251
,,,,,,,,,165,86.6676,0.0437917
,,,,,,,,,184,119.82,0.0871712
,,,,,,,,,98,119.385,0.0266582
,,,,,,,,,113,72.9606,0.0204412
,,,,,,,,,129,73.7232,0.026217
,,,,,,,,,146,113.965,0.0257534
,,,,,,,,,164,55.4802,0.0291737
,,,,,,,,,183,145.012,0.0215905
,,,,,,,,,203,118.944,0.0286099
,,,,,,,,,128,166.314,0.0390218
,,,,,,,,,145,144.907,0.0673435
,,,,,,,,,163,118.026,0.0643674
,,,,,,,,,182,80.3387,0.0910464
,,,,,,,,,202,56.2362,0.0434357
,,,,,,,,,223,92.4818,0.0857715
,,,,,,,,,162,27.8459,0.0380835
,,,,,,,,,181,48.4122,0.037113
,,,,,,,,,201,104.524,0.0446582
,,,,,,,,,222,110.436,0.0290432
,,,,,,,,,244,75.4236,0.0433505
,,,,,,,,,200,40.3289,0.0618536
,,,,,,,,,221,83.1491,0.086097
,,,,,,,,,243,93.6211,0.0422762
,,,,,,,,,266,55.2547,0.0813651
,,,,,,,,,242,107.661,0.0812916
,,,,,,,,,265,62.1337,0.0410837
,,,,,,,,,289,32.1198,0.0770602
,,,,,,,,,288,91.2414,0.0505353
,,,,,,,,,313,85.0522,0.118702
,,,,,,,,,338,38.4173,0.0488673
