facetNormals:0,facetNormals:1,facetNormals:2,FacetCenters:0,FacetCenters:1,FacetCenters:2,FacetIds,relFacetSize,absFacetSize,cellPairingIds,interplanarAngles,angleWeights
-0.186192,0.0467436,-0.937417,6.16831,6.29839,7.69224,1,0.0187257,0.0015975,8,45.2528,0.00970965
0.422501,0.450675,-0.771865,6.1715,6.31139,7.70096,2,0.00655403,0.000559128,13,51.0083,0.0291743
-0.830028,0.242423,-0.448755,6.09086,6.35544,7.67722,3,0.0660031,0.00563076,19,69.7663,0.0302501
-0.461267,0.821568,-0.208051,6.10405,6.41523,7.6758,4,0.0786604,0.00671057,26,86.8809,0.0262247
-0.849356,-0.477771,0.0905199,6.09747,6.3467,7.68564,5,0.043742,0.00373166,34,97.2868,0.0175769
-0.933245,0.00632699,0.313127,6.07936,6.3903,7.69869,6,0.0165609,0.00141282,43,126.064,0.0223534
0.708874,-0.511565,0.415244,6.21646,6.27789,7.75927,7,0.0277244,0.00236518,53,131.318,0.0325019
0.291762,0.68801,0.639039,6.19116,6.34099,7.78615,8,0.122968,0.0104905,64,120.827,0.03211
-0.208696,0.753175,0.591816,6.13087,6.38502,7.75392,9,0.112571,0.00960349,76,141.253,0.0155281
0.00666652,-0.634048,0.747262,6.22753,6.22238,7.78192,10,0.0132633,0.0011315,89,155.401,0.0322487
0.548723,0.0465189,0.777943,6.22382,6.28217,7.79887,11,0.116071,0.0099021,18,83.7445,0.011924
,,,,,,,,,25,69.3788,0.0120999
,,,,,,,,,33,131.73,0.0114
,,,,,,,,,42,130.585,0.00939139
,,,,,,,,,52,105.244,0.0106018
,,,,,,,,,63,93.5335,0.0124448
,,,,,,,,,75,102.244,0.0123869
,,,,,,,,,88,152.539,0.00877293
,,,,,,,,,102,111.651,0.0124075
,,,,,,,,,32,44.0699,0.071778
,,,,,,,,,41,54.8784,0.0526148
,,,,,,,,,51,48.4861,0.0264782
,,,,,,,,,62,162.407,0.0390472
,,,,,,,,,74,112.213,0.0858995
,,,,,,,,,87,84.5789,0.0832151
,,,,,,,,,101,121.199,0.022088
,,,,,,,,,116,148.685,0.0841531
,,,,,,,,,50,91.1877,0.0562205
,,,,,,,,,61,67.0396,0.0273613
,,,,,,,,,73,153.219,0.0409986
,,,,,,,,,86,71.7122,0.0959459
,,,,,,,,,100,51.2623,0.092609
,,,,,,,,,115,135.933,0.0226992
,,,,,,,,,131,114.183,0.0937722
,,,,,,,,,72,31.8943,0.0240257
,,,,,,,,,85,109.751,0.0339382
,,,,,,,,,99,122.613,0.0645296
,,,,,,,,,114,97.7278,0.0630028
,,,,,,,,,130,67.6387,0.0203547
,,,,,,,,,147,116.613,0.063539
,,,,,,,,,98,124.147,0.0207356
,,,,,,,,,113,94.0185,0.0291906
,,,,,,,,,129,66.4979,0.0288741
,,,,,,,,,146,76.5891,0.0147298
,,,,,,,,,164,106.61,0.0289862
,,,,,,,,,128,82.7425,0.0452473
,,,,,,,,,145,107.639,0.0444913
,,,,,,,,,163,47.6145,0.0179428
,,,,,,,,,182,41.7477,0.044758
,,,,,,,,,162,29.9187,0.11754
,,,,,,,,,181,87.428,0.023944
,,,,,,,,,201,42.6571,0.11942
,,,,,,,,,200,92.1891,0.0237306
,,,,,,,,,221,65.9418,0.114294
,,,,,,,,,242,53.5101,0.0238063
