facetNormals:0,facetNormals:1,facetNormals:2,FacetCenters:0,FacetCenters:1,FacetCenters:2,FacetIds,relFacetSize,absFacetSize,cellPairingIds,interplanarAngles,angleWeights
-0.507613,0.0947496,-0.822927,5.7006,4.81788,5.50579,1,0.00370235,0.00024966,8,77.6933,0.00723061
0.664777,-0.211066,-0.679366,5.76789,4.82346,5.4738,2,0.153763,0.0103687,13,85.6993,0.0051495
0.460229,-0.763672,-0.460665,5.73346,4.77845,5.47101,3,0.00845389,0.000570069,19,74.5205,0.00527693
0.449978,0.716905,-0.50569,5.73405,4.88048,5.47086,4,0.00918192,0.000619162,26,37.9642,0.00567127
-0.896812,-0.000932591,-0.339414,5.70574,4.80518,5.52645,5,0.0121129,0.000816808,34,91.1328,0.0065404
0.143014,-0.942957,-0.174158,5.74459,4.75474,5.50145,6,0.0280166,0.00188923,43,115.762,0.00563048
0.89437,-0.411459,-0.0917107,5.758,4.78131,5.50011,7,0.0117493,0.000792288,53,115.41,0.00635625
0.693557,-0.704174,-0.00818049,5.74643,4.76295,5.50162,8,0.0224454,0.00151355,64,73.1631,0.00695794
-0.601946,0.745309,0.126667,5.74202,4.89055,5.53826,9,0.05766,0.00388817,76,91.8922,0.00703495
-0.476084,-0.803759,0.238711,5.71275,4.77159,5.52727,10,0.0704405,0.00475,89,138.278,0.0058497
0.833713,-0.432951,0.306648,5.71932,4.75547,5.48525,11,0.0139277,0.00093918,103,127.881,0.00722072
0.843442,0.358606,0.20123,5.75798,4.86015,5.51618,12,0.145301,0.00979803,118,99.1894,0.00615291
-0.73243,-0.276163,0.606713,5.70047,4.81141,5.56099,13,0.0181979,0.00122714,134,100.224,0.00658864
-0.702495,0.182861,0.659969,5.70925,4.83389,5.55693,14,0.0298916,0.00201567,151,147.611,0.00692029
0.31814,-0.591726,0.71031,5.74667,4.78106,5.54747,15,0.0528904,0.00356654,169,175.297,0.00715901
0.54731,-0.0283904,0.803333,5.74063,4.84195,5.5567,16,0.107875,0.00727433,188,151.526,0.00675684
0.133654,0.175779,0.954357,5.71924,4.8382,5.54888,17,0.038613,0.00260378,18,37.0298,0.0160266
,,,,,,,,,25,59.2137,0.0173291
,,,,,,,,,33,113.04,0.0224568
,,,,,,,,,42,64.0942,0.0473971
,,,,,,,,,52,39.4189,0.0218305
,,,,,,,,,63,50.2603,0.0391726
,,,,,,,,,75,133.152,0.0838696
,,,,,,,,,88,109.218,0.0966189
,,,,,,,,,102,62.9687,0.0255418
,,,,,,,,,117,67.5901,0.149412
,,,,,,,,,133,150.685,0.0325443
,,,,,,,,,150,177.045,0.0500529
,,,,,,,,,168,98.8329,0.0787076
,,,,,,,,,187,100.708,0.126795
,,,,,,,,,207,128.721,0.0617255
,,,,,,,,,32,96.2329,0.00880288
,,,,,,,,,41,105.407,0.00995792
,,,,,,,,,51,27.103,0.0129885
,,,,,,,,,62,39.2818,0.00983283
,,,,,,,,,74,29.8086,0.0122819
,,,,,,,,,87,158.856,0.0147458
,,,,,,,,,101,72.8875,0.015096
,,,,,,,,,116,54.7022,0.0105214
,,,,,,,,,132,88.6845,0.0159781
,,,,,,,,,149,114.089,0.0115447
,,,,,,,,,167,141.167,0.0131802
,,,,,,,,,186,73.9619,0.0145777
,,,,,,,,,206,95.6743,0.0156791
,,,,,,,,,227,121.411,0.0138709
,,,,,,,,,50,104.241,0.0104457
,,,,,,,,,61,123.212,0.013831
,,,,,,,,,73,80.9201,0.0103082
,,,,,,,,,86,101.159,0.0130325
,,,,,,,,,100,77.9202,0.0158413
,,,,,,,,,115,163.423,0.0162462
,,,,,,,,,131,95.3177,0.0110675
,,,,,,,,,148,54.6825,0.0172724
,,,,,,,,,166,148.701,0.0122055
,,,,,,,,,185,122.431,0.0140485
,,,,,,,,,205,131.619,0.0156474
,,,,,,,,,226,100.839,0.0169234
,,,,,,,,,248,107.875,0.014836
,,,,,,,,,72,94.2111,0.0169134
,,,,,,,,,85,144.366,0.0119283
,,,,,,,,,99,130.741,0.0157345
,,,,,,,,,114,57.6275,0.0200201
,,,,,,,,,130,67.9772,0.0206712
,,,,,,,,,147,153.955,0.0129571
,,,,,,,,,165,156.484,0.0223617
,,,,,,,,,184,61.6339,0.0145446
,,,,,,,,,204,64.4437,0.0172398
,,,,,,,,,225,124.118,0.0197115
,,,,,,,,,247,144.959,0.0217802
,,,,,,,,,270,118.206,0.0184409
,,,,,,,,,98,56.3003,0.0165557
,,,,,,,,,113,37.0686,0.0249234
,,,,,,,,,129,149.946,0.0377101
,,,,,,,,,146,46.0948,0.0400886
,,,,,,,,,164,60.3418,0.0186059
,,,,,,,,,183,106.119,0.0469754
,,,,,,,,,203,87.0151,0.0220642
,,,,,,,,,224,114.064,0.0289237
,,,,,,,,,246,59.5929,0.0366299
,,,,,,,,,269,92.1191,0.0444809
,,,,,,,,,293,109.233,0.0324722
,,,,,,,,,128,21.2573,0.0154245
,,,,,,,,,145,153.708,0.0195209
,,,,,,,,,163,97.0479,0.0201394
,,,,,,,,,182,23.5553,0.0127461
,,,,,,,,,202,50.6435,0.0217406
,,,,,,,,,223,127.572,0.0142793
,,,,,,,,,245,141.968,0.0168683
,,,,,,,,,268,61.3921,0.0192274
,,,,,,,,,292,63.6014,0.0211906
,,,,,,,,,317,92.3856,0.0180165
,,,,,,,,,162,170.977,0.0323124
,,,,,,,,,181,75.7963,0.0340431
,,,,,,,,,201,25.6374,0.0171892
,,,,,,,,,222,69.1035,0.0388841
,,,,,,,,,244,108.987,0.0200997
,,,,,,,,,267,129.852,0.0256388
,,,,,,,,,291,49.1942,0.0315161
,,,,,,,,,316,65.8657,0.0371591
,,,,,,,,,342,92.302,0.0283887
,,,,,,,,,200,107.632,0.0634127
,,,,,,,,,221,145.359,0.022436
,,,,,,,,,243,103.712,0.0825583
,,,,,,,,,266,70.9797,0.0276647
,,,,,,,,,290,47.3163,0.0393722
,,,,,,,,,315,125.046,0.0551723
,,,,,,,,,341,105.355,0.0751513
,,,,,,,,,368,79.5657,0.0462524
,,,,,,,,,242,88.5404,0.0232569
,,,,,,,,,265,135.179,0.0948828
,,,,,,,,,289,41.4713,0.0289236
,,,,,,,,,314,68.609,0.0419722
,,,,,,,,,340,58.4181,0.0604168
,,,,,,,,,367,92.8109,0.0852285
,,,,,,,,,395,88.6106,0.0498823
,,,,,,,,,288,48.8945,0.0254188
,,,,,,,,,313,108.16,0.015779
,,,,,,,,,339,118.491,0.0190017
,,,,,,,,,366,40.0818,0.0220491
,,,,,,,,,394,41.9316,0.0246702
,,,,,,,,,423,70.1955,0.0204713
,,,,,,,,,338,129.788,0.0323449
,,,,,,,,,365,115.349,0.0495829
,,,,,,,,,393,77.4676,0.0775516
,,,,,,,,,422,47.7876,0.123822
,,,,,,,,,452,66.4123,0.0610123
,,,,,,,,,392,27.1651,0.022623
,,,,,,,,,421,68.0875,0.0270789
,,,,,,,,,451,84.377,0.0311424
,,,,,,,,,482,63.5188,0.0247374
,,,,,,,,,450,81.7832,0.0381962
,,,,,,,,,481,81.5315,0.0468119
,,,,,,,,,513,53.7623,0.0336971
,,,,,,,,,512,36.7784,0.0709799
,,,,,,,,,545,49.9388,0.0446378
,,,,,,,,,578,28.7933,0.0568699
