Q	U	V
{$V$}	{[mm$^3$]}	0.0058268
{$d_v$}	{[mm]}	0.223260
{$S_c$}	{[mm$^2$]}	0.258726
{$S_o$}	{[mm$^2$]}	0.154983
{$S_l/S_o$}	[]	0.669383
{$\Psi$}	[]	0.605244
{$\eta$}	[]	0.636040
{med($\theta_e$)}	{[$^\circ$]}	56.0952
{$\Upsilon$}	[]	13
{$\Xi$}	[]	11
