"cellPairingIds","interplanarAngles","angleWeights"
8,44.6286,0.0280033
13,56.8081,0.0335613
19,50.5871,0.0220129
26,96.545,0.0324172
43,75.9471,0.0129928
33,54.2471,0.0854909
52,119.659,0.0172965
63,83.5075,0.0613211
102,173.243,0.01111
32,30.3038,0.0491076
41,128.931,0.172912
62,41.8737,0.0192674
116,85.7689,0.0118913
73,25.606,0.0148076
99,31.0397,0.0873719
147,128.065,0.0117444
182,58.9705,0.0076182
201,97.7438,0.0111412
