"cellPairingIds","interplanarAngles","angleWeights"
8,60.4789,0.0120959
19,24.5252,0.00487684
89,100.431,0.014498
103,104.23,0.0138961
25,59.4231,0.00640071
42,46.4021,0.039483
75,85.8138,0.0111833
88,93.1291,0.045977
102,143.207,0.0496103
133,154.791,0.0463514
148,106.89,0.00687177
166,112.857,0.00694673
146,75.5882,0.0756265
164,108.386,0.0859847
224,123.767,0.0487307
200,41.2175,0.0129342
266,71.0265,0.0129637
289,76.1782,0.105598
314,77.2216,0.0590193
288,33.2128,0.10585
339,38.4726,0.0651436
338,32.8468,0.0920426
365,26.2617,0.0545307
392,28.6802,0.0596377
