"cellPairingIds","interplanarAngles","angleWeights"
13,126.138,0.211376
19,46.5487,0.0691729
34,64.1791,0.101381
53,85.648,0.0611398
32,169.331,0.0735476
41,79.9172,0.135889
62,50.4449,0.0603905
74,93.7038,0.0645325
50,96.0757,0.0585323
61,36.6558,0.0533916
73,140.216,0.0380452
85,97.8955,0.0498832
98,106.008,0.0461004
113,60.3192,0.0484755
128,63.8338,0.0354812
