facetNormals:0,facetNormals:1,facetNormals:2,FacetCenters:0,FacetCenters:1,FacetCenters:2,FacetIds,relFacetSize,absFacetSize,cellPairingIds,interplanarAngles,angleWeights
0.31786,-0.057198,-0.918439,6.26255,3.3025,5.25598,1,0.176045,0.0581325,8,32.9669,0.0315915
0.122738,-0.566718,-0.803373,6.16848,3.16968,5.2618,2,0.0173528,0.00573013,13,70.5075,0.0718648
-0.71527,-0.156942,-0.564906,6.16061,3.24689,5.3177,3,0.0451474,0.0149083,19,55.9623,0.0414544
0.165739,-0.851317,-0.476884,6.22004,3.16405,5.29141,4,0.0234933,0.00775782,26,50.8137,0.142532
0.897077,0.0461807,-0.334371,6.41536,3.30726,5.35388,5,0.119738,0.0395393,34,76.66,0.078067
-0.298497,0.82736,-0.390169,6.22821,3.38084,5.35984,6,0.0501539,0.0165615,43,83.4605,0.115072
0.302681,-0.874049,0.0473739,6.31686,3.14976,5.3577,7,0.0854699,0.0282234,53,111.151,0.13752
-0.544687,0.779893,0.130151,6.2288,3.39833,5.33552,8,0.112829,0.0372576,64,142.577,0.124568
-0.760111,-0.177648,0.553643,6.14895,3.22514,5.36339,9,0.096385,0.0318277,18,60.2295,0.0250698
,,,,,,,,,25,25.3901,0.0199615
,,,,,,,,,33,68.207,0.0303126
,,,,,,,,,42,101.623,0.0257844
,,,,,,,,,52,57.3978,0.0288485
,,,,,,,,,63,130.151,0.0300794
,,,,,,,,,75,117.471,0.0294106
,,,,,,,,,32,71.8958,0.0309047
,,,,,,,,,41,121.261,0.0655711
,,,,,,,,,51,70.0205,0.0475191
,,,,,,,,,62,97.1141,0.0590847
,,,,,,,,,74,77.4021,0.0644898
,,,,,,,,,87,72.9977,0.0614917
,,,,,,,,,50,73.5386,0.0392797
,,,,,,,,,61,126.595,0.0319979
,,,,,,,,,73,32.671,0.0368559
,,,,,,,,,86,149.201,0.038889
,,,,,,,,,100,104.601,0.0377783
,,,,,,,,,72,96.1688,0.0706959
,,,,,,,,,85,75.9626,0.0997427
,,,,,,,,,99,122.623,0.116181
,,,,,,,,,114,162.582,0.1068
,,,,,,,,,98,158.998,0.0632138
,,,,,,,,,113,34.9696,0.0694405
,,,,,,,,,129,98.4996,0.0659768
,,,,,,,,,128,160.911,0.0972619
,,,,,,,,,145,93.1412,0.0905999
,,,,,,,,,162,67.7761,0.103961
