facetNormals:0,facetNormals:1,facetNormals:2,FacetCenters:0,FacetCenters:1,FacetCenters:2,FacetIds,relFacetSize,absFacetSize,cellPairingIds,interplanarAngles,angleWeights
0.101741,-0.157705,-0.949048,7.20938,6.19046,5.06878,1,0.0326772,0.00597904,8,36.481,0.0247917
0.57127,0.193365,-0.777205,7.24108,6.25468,5.05814,2,0.0199721,0.00365435,13,44.504,0.0478646
-0.574072,0.0624957,-0.773977,7.1364,6.21599,5.07859,3,0.0894277,0.0163628,19,47.88,0.0367959
-0.166953,0.563272,-0.778027,7.18642,6.28674,5.07743,4,0.0421024,0.0077036,26,66.9303,0.0308665
-0.825422,0.188151,-0.51572,7.1184,6.2547,5.09569,5,0.0292459,0.00535121,34,63.4054,0.0191351
0.549172,0.649561,-0.499125,7.23859,6.29737,5.09732,6,0.0135286,0.00247536,43,71.8769,0.0408307
0.00374557,0.858152,-0.449353,7.18015,6.33661,5.12637,7,0.0544056,0.00995475,53,74.3569,0.0339998
-0.661213,0.586999,-0.439871,7.13426,6.29966,5.11296,8,0.035434,0.00648346,64,67.5512,0.0274493
0.8748,0.304967,-0.341191,7.30523,6.24922,5.08928,9,0.0236635,0.00432977,76,57.4483,0.0469842
0.837868,-0.31112,-0.394271,7.32885,6.19116,5.11502,10,0.083576,0.0152921,89,82.8223,0.0501058
0.448905,-0.81709,0.0648722,7.25515,6.14594,5.13643,11,0.107375,0.0196467,103,76.6548,0.0364201
-0.529877,-0.786885,-0.152105,7.15889,6.15779,5.12801,12,0.0411314,0.00752593,118,116.796,0.0311921
-0.571347,-0.624602,0.492629,7.15105,6.19887,5.18156,13,0.0298362,0.00545921,134,131.421,0.044823
-0.74128,-0.105049,0.574371,7.12393,6.23186,5.17898,14,0.0713387,0.013053,151,139.963,0.0408085
-0.103172,-0.493754,0.827029,7.19925,6.17122,5.17911,15,0.0543269,0.00994035,18,72.4995,0.0326519
,,,,,,,,,25,49.8645,0.0270924
,,,,,,,,,33,92.0178,0.0237353
,,,,,,,,,42,31.4991,0.0161306
,,,,,,,,,52,57.122,0.0292182
,,,,,,,,,63,85.4161,0.0255456
,,,,,,,,,75,31.9733,0.0216616
,,,,,,,,,88,41.0327,0.0322398
,,,,,,,,,102,87.0053,0.0336796
,,,,,,,,,117,110.865,0.0268881
,,,,,,,,,133,149.483,0.0239274
,,,,,,,,,150,163.524,0.0312073
,,,,,,,,,168,146.773,0.0292069
,,,,,,,,,32,38.8471,0.0572511
,,,,,,,,,41,22.4428,0.0440771
,,,,,,,,,51,83.268,0.0235018
,,,,,,,,,62,64.7333,0.0676529
,,,,,,,,,74,37.4858,0.0507567
,,,,,,,,,87,103.284,0.0374241
,,,,,,,,,101,101.948,0.0864029
,,,,,,,,,116,113.44,0.097583
,,,,,,,,,132,66.3125,0.0563467
,,,,,,,,,149,95.6019,0.0447441
,,,,,,,,,167,91.6078,0.0793655
,,,,,,,,,186,130.839,0.067592
,,,,,,,,,50,48.1315,0.0345159
,,,,,,,,,61,46.4444,0.0204773
,,,,,,,,,73,28.1927,0.0474698
,,,,,,,,,86,35.557,0.0384815
,,,,,,,,,100,72.3905,0.0302981
,,,,,,,,,115,90.5039,0.0559961
,,,,,,,,,131,130.001,0.0604874
,,,,,,,,,148,104.62,0.0416113
,,,,,,,,,166,132.064,0.0349235
,,,,,,,,,185,114.554,0.0529532
,,,,,,,,,205,163.248,0.0474398
,,,,,,,,,72,94.3219,0.0184996
,,,,,,,,,85,66.0304,0.0380422
,,,,,,,,,99,25.5714,0.032044
,,,,,,,,,114,119.959,0.0261602
,,,,,,,,,130,124.378,0.0433295
,,,,,,,,,147,127.015,0.0459707
,,,,,,,,,165,67.2859,0.0341851
,,,,,,,,,184,84.0867,0.0295381
,,,,,,,,,204,71.5597,0.0414848
,,,,,,,,,225,116.886,0.0380229
,,,,,,,,,98,34.8756,0.0216689
,,,,,,,,,113,75.8725,0.0195811
,,,,,,,,,129,29.3359,0.0172151
,,,,,,,,,146,61.8289,0.0232875
,,,,,,,,,164,110.091,0.0240296
,,,,,,,,,183,140.032,0.0203604
,,,,,,,,,203,178.057,0.0186161
,,,,,,,,,224,144.966,0.022744
,,,,,,,,,246,145.8,0.0216627
,,,,,,,,,128,43.0631,0.0429167
,,,,,,,,,145,64.0625,0.0329817
,,,,,,,,,163,95.2559,0.0659074
,,,,,,,,,182,143.601,0.0722188
,,,,,,,,,202,130.862,0.0468463
,,,,,,,,,223,143.182,0.038538
,,,,,,,,,245,112.583,0.061732
,,,,,,,,,268,147.992,0.0543662
,,,,,,,,,162,104.817,0.0283766
,,,,,,,,,181,125.719,0.0497678
,,,,,,,,,201,150.719,0.0532841
,,,,,,,,,222,92.6962,0.0380707
,,,,,,,,,244,102.27,0.032395
,,,,,,,,,267,79.124,0.0473495
,,,,,,,,,291,127.729,0.0428922
,,,,,,,,,200,36.7641,0.0368838
,,,,,,,,,221,82.4402,0.0387804
,,,,,,,,,243,133.39,0.0300429
,,,,,,,,,266,152.589,0.0263937
,,,,,,,,,290,160.19,0.0355386
,,,,,,,,,315,123.152,0.0329672
,,,,,,,,,242,48.5133,0.0939924
,,,,,,,,,265,98.528,0.0551306
,,,,,,,,,289,120.017,0.0439739
,,,,,,,,,314,152.129,0.076974
,,,,,,,,,340,105.878,0.0658496
,,,,,,,,,288,63.8851,0.0594787
,,,,,,,,,313,71.8031,0.0466968
,,,,,,,,,339,103.754,0.0857236
,,,,,,,,,366,63.0157,0.0721495
,,,,,,,,,338,40.146,0.0345849
,,,,,,,,,365,64.6556,0.0521785
,,,,,,,,,393,70.0606,0.0468171
,,,,,,,,,392,33.3406,0.0420751
,,,,,,,,,421,35.2545,0.0385182
,,,,,,,,,450,48.6954,0.0616813
