Q	U	V
{$V$}	{[mm$^3$]}	0.0090614
{$d_v$}	{[mm]}	0.258662
{$S_c$}	{[mm$^2$]}	0.342129
{$S_o$}	{[mm$^2$]}	0.236186
{$S_l/S_o$}	[]	0.448557
{$\Psi$}	[]	0.614362
{$\eta$}	[]	0.641986
{med($\theta_e$)}	{[$^\circ$]}	67.8218
{$\Upsilon$}	[]	13
{$\Xi$}	[]	12
