Q	U	V
{$V$}	{[mm$^3$]}	0.00930958
{$d_v$}	{[mm]}	0.261002
{$S_c$}	{[mm$^2$]}	0.325993
{$S_o$}	{[mm$^2$]}	0.212278
{$S_l/S_o$}	[]	0.535689
{$\Psi$}	[]	0.656492
{$\eta$}	[]	0.681067
{med($\theta_e$)}	{[$^\circ$]}	58.94115
{$\Upsilon$}	[]	19
{$\Xi$}	[]	13
