facetNormals:0,facetNormals:1,facetNormals:2,FacetCenters:0,FacetCenters:1,FacetCenters:2,FacetIds,relFacetSize,absFacetSize,cellPairingIds,interplanarAngles,angleWeights
-0.317373,-0.0560436,-0.92938,5.32335,7.44214,4.60196,1,0.0518066,0.00654529,8,34.3915,0.0566259
-0.0500275,0.437665,-0.830036,5.37576,7.48663,4.60304,2,0.0624337,0.00788793,13,49.4484,0.0295437
0.387818,-0.465792,-0.788936,5.40325,7.38724,4.61861,3,0.0206638,0.00261069,19,41.3373,0.0679846
0.0769557,-0.602031,-0.767686,5.3747,7.36244,4.63156,4,0.0988546,0.0124894,26,71.9769,0.0751441
0.72702,-0.352892,-0.546459,5.45557,7.39097,4.65863,5,0.136744,0.0172763,34,69.832,0.0623867
-0.0883419,-0.923777,-0.266446,5.33399,7.32628,4.69296,6,0.0783974,0.0099048,43,50.2837,0.0628705
-0.892948,-0.0504817,-0.338865,5.28943,7.4019,4.65404,7,0.0799432,0.0101001,53,56.1506,0.0422953
-0.601811,-0.699743,-0.330184,5.30594,7.34797,4.69421,8,0.0357347,0.00451476,64,103.596,0.0301223
0.707259,-0.670903,0.0417071,5.45426,7.34217,4.74216,9,0.0212344,0.00268277,76,144.462,0.0205855
0.66499,0.359692,0.563172,5.44293,7.41144,4.72228,10,0.0128447,0.00162281,89,93.3579,0.0426105
-0.554343,-0.751236,0.295309,5.30574,7.34173,4.75756,11,0.036187,0.0045719,103,128.527,0.015739
0.414662,0.763551,0.460742,5.42591,7.40251,4.7415,12,0.00927902,0.00117232,118,137.506,0.0745756
0.039272,-0.574321,0.774068,5.37501,7.34719,4.76983,13,0.133052,0.0168099,18,62.5065,0.0310507
,,,,,,,,,25,66.2838,0.076532
,,,,,,,,,33,73.3435,0.0857267
,,,,,,,,,42,101.361,0.0695108
,,,,,,,,,52,70.2398,0.0701118
,,,,,,,,,63,90.1294,0.0454535
,,,,,,,,,75,113.365,0.0316905
,,,,,,,,,88,112.8,0.021306
,,,,,,,,,102,126.411,0.0458177
,,,,,,,,,117,94.2817,0.0161568
,,,,,,,,,133,171.209,0.0849876
,,,,,,,,,32,19.8231,0.0341824
,,,,,,,,,41,25.3027,0.0359024
,,,,,,,,,51,50.8657,0.0327069
,,,,,,,,,62,93.3405,0.0328393
,,,,,,,,,74,68.7762,0.0261857
,,,,,,,,,87,55.2094,0.0209452
,,,,,,,,,101,112.172,0.015842
,,,,,,,,,116,95.7761,0.0263061
,,,,,,,,,132,124.795,0.0128071
,,,,,,,,,149,109.981,0.0357721
,,,,,,,,,50,43.9002,0.114752
,,,,,,,,,61,37.0702,0.0874455
,,,,,,,,,73,76.2911,0.0883988
,,,,,,,,,86,49.0717,0.0524936
,,,,,,,,,100,63.4834,0.0349594
,,,,,,,,,115,130.381,0.0227353
,,,,,,,,,131,78.9967,0.05298
,,,,,,,,,148,144.288,0.0169656
,,,,,,,,,166,105.071,0.113432
,,,,,,,,,72,64.3734,0.0996587
,,,,,,,,,85,118.569,0.100899
,,,,,,,,,99,90.6089,0.0566621
,,,,,,,,,114,40.0965,0.0367604
,,,,,,,,,130,86.9598,0.0234835
,,,,,,,,,147,108.258,0.0572292
,,,,,,,,,165,103.241,0.0173788
,,,,,,,,,184,101.758,0.134873
,,,,,,,,,98,76.4845,0.0791628
,,,,,,,,,113,33.6789,0.0490924
,,,,,,,,,129,54.5662,0.0334175
,,,,,,,,,146,126.474,0.0220729
,,,,,,,,,164,45.3629,0.0495175
,,,,,,,,,183,155.602,0.016594
,,,,,,,,,203,69.8505,0.0986613
,,,,,,,,,128,43.0938,0.0493914
,,,,,,,,,145,130.965,0.0335557
,,,,,,,,,163,152.919,0.0221332
,,,,,,,,,182,62.4718,0.0498217
,,,,,,,,,202,126.914,0.016628
,,,,,,,,,223,106.911,0.0998765
,,,,,,,,,162,88.1994,0.0266392
,,,,,,,,,181,155.048,0.0188969
,,,,,,,,,201,37.4728,0.0359594
,,,,,,,,,222,166.141,0.0147325
,,,,,,,,,244,82.5468,0.0563383
,,,,,,,,,200,74.0686,0.0160068
,,,,,,,,,221,82.5274,0.0267638
,,,,,,,,,243,102.016,0.0129146
,,,,,,,,,266,61.7598,0.0366238
,,,,,,,,,242,120.789,0.0189596
,,,,,,,,,265,29.1336,0.0107745
,,,,,,,,,289,73.6851,0.0234277
,,,,,,,,,288,133.87,0.0147706
,,,,,,,,,313,47.4916,0.0568989
,,,,,,,,,338,93.9645,0.0173482
