Q	U	V
{$V$}	{[mm$^3$]}	0.0112344
{$d_v$}	{[mm]}	0.277876
{$S_c$}	{[mm$^2$]}	0.462896
{$S_o$}	{[mm$^2$]}	0.284956
{$S_l/S_o$}	[]	0.624447
{$\Psi$}	[]	0.524043
{$\eta$}	[]	0.577866
{med($\theta_e$)}	{[$^\circ$]}	58.3937
{$\Upsilon$}	[]	14
{$\Xi$}	[]	14
