"cellPairingIds","interplanarAngles","angleWeights"
8,57.5981,0.0109593
19,72.4614,0.00980111
34,99.8829,0.0103173
103,124.304,0.0102674
151,122.398,0.0107291
25,55.3819,0.0473369
42,80.3204,0.0624198
61,132.332,0.0373088
131,132.334,0.0433662
205,142.236,0.0433219
226,119.69,0.052629
164,28.2839,0.0556954
183,45.2556,0.0451058
288,34.3153,0.0542705
366,69.3134,0.0702517
394,73.8161,0.0984986
393,37.6803,0.0542011
512,26.3188,0.0982703
