Q	U	V
{$V$}	{[mm$^3$]}	0.011751
{$d_v$}	{[mm]}	0.282071
{$S_c$}	{[mm$^2$]}	0.504524
{$S_o$}	{[mm$^2$]}	0.308381
{$S_l/S_o$}	[]	0.636041
{$\Psi$}	[]	0.495434
{$\eta$}	[]	0.594469
{med($\theta_e$)}	{[$^\circ$]}	97.3907
{$\Upsilon$}	[]	13
{$\Xi$}	[]	12
