"cellPairingIds","interplanarAngles","angleWeights"
25,44.8155,0.0601576
63,84.8136,0.0381044
75,138.004,0.0775463
86,110.524,0.0369336
100,162.504,0.0728468
148,121.765,0.0468054
162,86.5845,0.04283
222,30.1196,0.0322729
243,74.9313,0.0566971
