Q	U	V
{$V$}	{[mm$^3$]}	0.00384258
{$d_v$}	{[mm]}	0.194331
{$S_c$}	{[mm$^2$]}	0.213309
{$S_o$}	{[mm$^2$]}	0.123564
{$S_l/S_o$}	[]	0.726304
{$\Psi$}	[]	0.55619
{$\eta$}	[]	0.624320
{med($\theta_e$)}	{[$^\circ$]}	63.47285
{$\Upsilon$}	[]	8
{$\Xi$}	[]	4
