"cellPairingIds","interplanarAngles","angleWeights"
13,30.4065,0.021934
19,80.0526,0.0555606
53,123.479,0.0228522
118,160.806,0.0571708
32,107.598,0.0233382
41,39.5127,0.0228407
62,119.834,0.0207908
149,141.799,0.0236176
73,41.9198,0.0487681
86,44.1394,0.0243806
85,106.29,0.0466449
114,106.817,0.0299552
184,115.017,0.0637687
128,40.9442,0.021614
145,53.6076,0.0265254
162,49.6237,0.0171789
244,66.5756,0.0246857
266,41.3788,0.0313059
