facetNormals:0,facetNormals:1,facetNormals:2,FacetCenters:0,FacetCenters:1,FacetCenters:2,FacetIds,relFacetSize,absFacetSize,cellPairingIds,interplanarAngles,angleWeights
-0.0662264,-0.0844705,-0.948074,6.98658,3.28872,5.25235,1,0.182653,0.0187721,8,37.9649,0.182729
0.143812,-0.633712,-0.7276,7.04215,3.24208,5.27272,2,0.182805,0.0187877,13,49.7521,0.0830007
0.684053,-0.179342,-0.661391,7.11007,3.29067,5.27244,3,0.0537018,0.00551917,19,55.4888,0.0325925
-0.828835,-0.180428,-0.48244,7.00268,3.27367,5.28629,4,0.0178926,0.0018389,26,63.6404,0.0773545
-0.769127,0.378596,-0.403344,6.92317,3.32195,5.278,5,0.0490674,0.00504287,34,85.4765,0.0878877
-0.0231369,-0.973294,0.0110553,6.99316,3.22333,5.32952,6,0.0578655,0.00594709,43,84.0916,0.0599709
0.604132,-0.768018,-0.0753024,7.11237,3.23532,5.31409,7,0.0358749,0.00368702,53,113.233,0.0929432
-0.323381,-0.776598,0.475388,6.99,3.22821,5.33413,8,0.0623299,0.00640592,64,117.237,0.0601964
0.368495,-0.765442,0.495426,7.08523,3.23428,5.35834,9,0.0360364,0.00370362,76,112.245,0.0732383
-0.826008,-0.177847,0.435739,6.95046,3.25172,5.30497,10,0.0458017,0.00470724,89,127.454,0.028582
-0.403665,0.673205,0.557432,7.02954,3.2938,5.30925,11,0.0155041,0.00159342,103,135.481,0.043687
0.551781,-0.408543,0.702948,7.08958,3.23518,5.34961,12,0.0248106,0.0025499,118,148.7,0.0708904
-0.359393,-0.209214,0.883203,6.9337,3.24475,5.31057,13,0.0439798,0.00452,134,173.435,0.0214092
0.119093,0.183246,0.948559,7.02668,3.25262,5.30974,14,0.011371,0.00116865,18,42.7829,0.0830163
,,,,,,,,,25,68.6767,0.0325949
,,,,,,,,,33,93.5394,0.0773681
,,,,,,,,,42,50.4014,0.0879053
,,,,,,,,,52,48.9101,0.0599791
,,,,,,,,,63,83.9261,0.0929628
,,,,,,,,,75,79.3323,0.0602047
,,,,,,,,,88,110.391,0.0732505
,,,,,,,,,102,161.422,0.0285839
,,,,,,,,,117,100.411,0.0436913
,,,,,,,,,133,126.146,0.0709018
,,,,,,,,,150,146.207,0.0214103
,,,,,,,,,32,103.185,0.0268419
,,,,,,,,,41,110.9,0.0512801
,,,,,,,,,51,80.7576,0.055706
,,,,,,,,,62,50.7189,0.0430145
,,,,,,,,,74,115.064,0.0576951
,,,,,,,,,87,86.2863,0.0431304
,,,,,,,,,101,153.159,0.0494381
,,,,,,,,,116,145.208,0.0240614
,,,,,,,,,132,90.8556,0.0339405
,,,,,,,,,149,146.97,0.048357
,,,,,,,,,167,127.884,0.018768
,,,,,,,,,50,34.2983,0.0262229
,,,,,,,,,61,78.4981,0.0273334
,,,,,,,,,73,109.919,0.0238767
,,,,,,,,,86,79.069,0.0278038
,,,,,,,,,100,115.05,0.0239124
,,,,,,,,,115,56.9096,0.0257327
,,,,,,,,,131,93.4063,0.0166129
,,,,,,,,,148,138.917,0.0207912
,,,,,,,,,166,95.4493,0.0254366
,,,,,,,,,185,128.351,0.0139051
,,,,,,,,,72,112.645,0.0531045
,,,,,,,,,85,141.341,0.0414467
,,,,,,,,,99,105.007,0.0549091
,,,,,,,,,114,146.068,0.0415542
,,,,,,,,,130,64.1846,0.0473783
,,,,,,,,,147,68.0798,0.0235629
,,,,,,,,,165,157.911,0.0329568
,,,,,,,,,184,99.9007,0.0463845
,,,,,,,,,204,116.038,0.0184633
,,,,,,,,,98,39.838,0.0442908
,,,,,,,,,113,35.2175,0.0600148
,,,,,,,,,129,39.2055,0.0444137
,,,,,,,,,146,77.7099,0.0511317
,,,,,,,,,164,133.037,0.0244557
,,,,,,,,,183,65.7693,0.0347302
,,,,,,,,,203,76.5109,0.0499761
,,,,,,,,,224,100.371,0.019007
,,,,,,,,,128,67.3112,0.0455391
,,,,,,,,,145,36.6577,0.0359555
,,,,,,,,,163,115.101,0.0402351
,,,,,,,,,182,148.312,0.0216512
,,,,,,,,,202,51.9016,0.0293341
,,,,,,,,,223,97.3834,0.039516
,,,,,,,,,245,98.452,0.0172686
,,,,,,,,,162,41.5823,0.045669
,,,,,,,,,181,48.1921,0.0528026
,,,,,,,,,201,97.8636,0.0248315
,,,,,,,,,222,60.1196,0.0354931
,,,,,,,,,244,42.2203,0.0515711
,,,,,,,,,267,73.3109,0.0192333
,,,,,,,,,200,87.0799,0.0403364
,,,,,,,,,221,114.185,0.0216805
,,,,,,,,,243,26.5651,0.029388
,,,,,,,,,266,61.0113,0.0396138
,,,,,,,,,290,67.0311,0.0172872
,,,,,,,,,242,60.0746,0.0231663
,,,,,,,,,265,94.7168,0.0321861
,,,,,,,,,289,39.2271,0.0448723
,,,,,,,,,314,72.2343,0.0182189
,,,,,,,,,288,96.4288,0.0190831
,,,,,,,,,313,58.1066,0.0229261
,,,,,,,,,339,49.8674,0.0131197
,,,,,,,,,338,58.0211,0.0317243
,,,,,,,,,365,46.5624,0.0155948
,,,,,,,,,392,37.2271,0.01807
