Q	U	V
{$V$}	{[mm$^3$]}	0.00514402
{$d_v$}	{[mm]}	0.214175
{$S_c$}	{[mm$^2$]}	0.243232
{$S_o$}	{[mm$^2$]}	0.165136
{$S_l/S_o$}	[]	0.472919
{$\Psi$}	[]	0.592468
{$\eta$}	[]	0.606372
{med($\theta_e$)}	{[$^\circ$]}	64.0908
{$\Upsilon$}	[]	15
{$\Xi$}	[]	7
