"cellPairingIds","interplanarAngles","angleWeights"
8,59.4295,0.0242336
13,65.206,0.063726
19,68.749,0.0711713
43,97.9723,0.0684744
64,153.036,0.164819
18,47.7293,0.0194668
25,53.6122,0.0201094
33,50.1387,0.0180701
42,41.1517,0.0210418
41,34.4143,0.0335942
62,50.1081,0.0404721
61,57.3902,0.0492367
86,87.5557,0.0701701
100,111.445,0.0688228
72,46.471,0.038577
85,55.8629,0.0348688
99,76.1254,0.0503444
113,56.5315,0.0830032
128,97.3883,0.0675471
145,92.5269,0.0662978
162,46.3642,0.159547
