Q	U	V
{$V$}	{[mm$^3$]}	0.0116821
{$d_v$}	{[mm]}	0.281519
{$S_c$}	{[mm$^2$]}	0.594519
{$S_o$}	{[mm$^2$]}	0.383774
{$S_l/S_o$}	[]	0.549138
{$\Psi$}	[]	0.418793
{$\eta$}	[]	0.445619
{med($\theta_e$)}	{[$^\circ$]}	63.376
{$\Upsilon$}	[]	10
{$\Xi$}	[]	15
