facetNormals:0,facetNormals:1,facetNormals:2,FacetCenters:0,FacetCenters:1,FacetCenters:2,FacetIds,relFacetSize,absFacetSize,cellPairingIds,interplanarAngles,angleWeights
0.3179,0.100461,-0.908808,7.14779,6.82254,4.13323,1,0.0165499,0.00370337,8,53.696,0.0279772
-0.454064,-0.27157,-0.786802,7.10972,6.81061,4.15895,2,0.090389,0.0202264,13,65.6835,0.0278595
0.02824,0.876947,-0.299877,7.13851,6.86175,4.1982,3,0.0879868,0.0196889,19,89.1773,0.0280421
-0.865933,-0.206618,-0.340317,7.14273,6.83527,4.24957,4,0.0917605,0.0205333,26,97.6738,0.0150313
-0.506438,-0.830424,-0.129382,7.07407,6.75909,4.25061,5,0.013768,0.00308087,34,49.7127,0.0177996
0.895019,0.141497,-0.337205,7.20974,6.83202,4.15552,6,0.0192536,0.00430838,43,89.0339,0.0276227
-0.683138,0.659443,-0.183433,7.12211,6.8459,4.25347,7,0.0834675,0.0186776,53,84.7246,0.0250433
0.874973,0.324094,0.247355,7.19258,6.8561,4.24648,8,0.0514447,0.0115118,64,90.4832,0.0271927
0.850854,-0.352589,0.267267,7.18473,6.81059,4.25548,9,0.0761864,0.0170483,76,113.144,0.0250102
-0.44642,0.793023,0.337923,7.10727,6.85241,4.28179,10,0.0511667,0.0114496,89,125.265,0.0224624
0.412478,0.392246,0.782936,7.08762,6.79527,4.24227,11,0.0349477,0.00782027,103,151.623,0.0283103
-0.504253,0.311497,0.764965,7.06912,6.79542,4.31144,12,0.097826,0.0218906,18,90.9797,0.0891717
,,,,,,,,,25,37.4847,0.0910695
,,,,,,,,,33,53.2026,0.0238961
,,,,,,,,,42,101.293,0.0317451
,,,,,,,,,52,72.519,0.0867905
,,,,,,,,,63,137.978,0.0655703
,,,,,,,,,75,123.425,0.0826822
,,,,,,,,,88,107.615,0.065344
,,,,,,,,,102,172.45,0.0504064
,,,,,,,,,117,119.909,0.0939606
,,,,,,,,,32,96.7319,0.089834
,,,,,,,,,41,140.668,0.0238102
,,,,,,,,,51,73.7755,0.0315937
,,,,,,,,,62,46.7833,0.0856676
,,,,,,,,,74,74.7952,0.0649273
,,,,,,,,,87,114.257,0.0816625
,,,,,,,,,101,49.7575,0.0647055
,,,,,,,,,116,82.2623,0.0500256
,,,,,,,,,132,88.114,0.0926459
,,,,,,,,,50,45.6141,0.0239434
,,,,,,,,,61,138.44,0.0318287
,,,,,,,,,73,55.8249,0.0874177
,,,,,,,,,86,171.056,0.0659277
,,,,,,,,,100,145.681,0.0832513
,,,,,,,,,115,83.3142,0.0656989
,,,,,,,,,131,139.803,0.0506174
,,,,,,,,,148,83.0277,0.0946962
,,,,,,,,,72,123.755,0.0160551
,,,,,,,,,85,100.807,0.023637
,,,,,,,,,99,141.791,0.0217225
,,,,,,,,,114,100.574,0.0233214
,,,,,,,,,130,119.994,0.0216976
,,,,,,,,,147,132.03,0.0197538
,,,,,,,,,165,96.1832,0.0241387
,,,,,,,,,98,119.208,0.0312895
,,,,,,,,,113,36.9789,0.0280203
,,,,,,,,,129,47.9094,0.0307389
,,,,,,,,,146,115.313,0.0279789
,,,,,,,,,164,80.1148,0.0248285
,,,,,,,,,183,135.313,0.0321747
,,,,,,,,,128,117.385,0.0636557
,,,,,,,,,145,158.484,0.0796609
,,,,,,,,,163,35.3247,0.0634424
,,,,,,,,,182,100.26,0.0492673
,,,,,,,,,202,64.0458,0.0900782
,,,,,,,,,162,41.2209,0.0614174
,,,,,,,,,181,93.0589,0.0513054
,,,,,,,,,201,43.1502,0.0416211
,,,,,,,,,222,99.3047,0.0674296
,,,,,,,,,200,127.686,0.0612189
,,,,,,,,,221,62.9675,0.0479158
,,,,,,,,,243,111.122,0.0856607
,,,,,,,,,242,65.3781,0.0415298
,,,,,,,,,265,38.9448,0.0671904
,,,,,,,,,288,56.786,0.0514981
