facetNormals:0,facetNormals:1,facetNormals:2,FacetCenters:0,FacetCenters:1,FacetCenters:2,FacetIds,relFacetSize,absFacetSize,cellPairingIds,interplanarAngles,angleWeights
-0.159584,-0.561688,-0.720665,4.06188,4.8402,4.96227,1,0.0433918,0.0120013,8,69.7,0.0383385
0.325636,0.401295,-0.816273,4.10528,4.93933,4.98371,2,0.0343395,0.00949756,13,64.4047,0.033117
-0.244788,0.448902,-0.844669,4.00313,4.89519,4.89739,3,0.0267765,0.00740582,19,81.0404,0.0559719
0.771756,0.232713,-0.547606,4.11195,4.89882,4.94194,4,0.0788247,0.0218012,26,71.9148,0.0557246
0.753947,-0.531876,-0.12439,4.08486,4.87238,5.00695,5,0.0778514,0.021532,34,106.794,0.0726449
-0.496103,0.78191,-0.150675,3.97907,4.95727,5.03151,6,0.222947,0.0616623,43,149.954,0.0236012
0.167005,0.905982,0.358058,4.07066,4.98501,5.05769,7,0.0162086,0.00448295,53,107.365,0.0290209
0.573622,-0.477919,0.617692,4.05585,4.86288,5.08678,8,0.0218008,0.00602963,64,89.9663,0.048896
-0.123374,-0.732592,0.597583,4.03993,4.86773,5.10905,9,0.0559995,0.0154883,76,150.643,0.063574
0.604924,0.507459,0.549903,4.12222,4.94496,5.14315,10,0.118856,0.0328729,89,115.95,0.056247
-0.514297,-0.171136,0.784133,3.98862,4.90592,5.16172,11,0.0799255,0.0221057,18,34.0986,0.0300901
,,,,,,,,,25,32.7635,0.0478384
,,,,,,,,,33,81.4576,0.0476576
,,,,,,,,,42,72.3236,0.0595125
,,,,,,,,,52,82.4372,0.0220224
,,,,,,,,,63,122.95,0.0266699
,,,,,,,,,75,153.169,0.0425728
,,,,,,,,,88,92.9749,0.0532842
,,,,,,,,,102,162.072,0.0480392
,,,,,,,,,32,66.8616,0.039974
,,,,,,,,,41,110.255,0.0398477
,,,,,,,,,51,49.6543,0.0478108
,,,,,,,,,62,86.2765,0.0201935
,,,,,,,,,74,156.392,0.0240338
,,,,,,,,,87,148.589,0.0362296
,,,,,,,,,101,113.891,0.0437066
,,,,,,,,,116,130.661,0.0401141
,,,,,,,,,50,54.5505,0.078335
,,,,,,,,,61,97.4408,0.11647
,,,,,,,,,73,81.4229,0.0268882
,,,,,,,,,86,90.411,0.0341552
,,,,,,,,,100,129.656,0.06548
,,,,,,,,,115,72.3811,0.094787
,,,,,,,,,131,158.814,0.0793713
,,,,,,,,,72,151.991,0.115404
,,,,,,,,,85,115.8,0.026831
,,,,,,,,,99,47.4708,0.0340629
,,,,,,,,,114,75.4969,0.0651417
,,,,,,,,,130,82.4456,0.0940797
,,,,,,,,,147,116.376,0.0788748
,,,,,,,,,98,51.9454,0.0302201
,,,,,,,,,113,145.735,0.0397178
,,,,,,,,,129,132.27,0.0895148
,,,,,,,,,146,89.1224,0.155051
,,,,,,,,,164,89.7962,0.117668
,,,,,,,,,128,96.9577,0.0185933
,,,,,,,,,145,119.942,0.0251405
,,,,,,,,,163,37.1851,0.0285269
,,,,,,,,,182,87.5771,0.0269515
,,,,,,,,,162,45.4205,0.0313838
,,,,,,,,,181,61.5528,0.0368436
,,,,,,,,,201,72.9308,0.0342574
,,,,,,,,,200,97.3763,0.07613
,,,,,,,,,221,43.6681,0.0658567
,,,,,,,,,242,87.923,0.0955784
