"cellPairingIds","interplanarAngles","angleWeights"
18,62.4638,0.0364094
33,91.1628,0.0210271
42,45.3113,0.110824
63,65.0993,0.05721
102,80.4197,0.0437506
41,105.716,0.014707
51,50.5513,0.0339439
101,44.8457,0.0373049
132,115.83,0.0296695
99,86.2948,0.0172388
114,46.4519,0.0170477
165,54.1838,0.0185885
146,46.32,0.119559
164,36.9319,0.0402385
162,58.5436,0.0349887
201,89.2802,0.0300229
267,91.1701,0.0420775
243,55.5021,0.0410361
290,94.5463,0.0409571
242,35.3607,0.04505
265,116.567,0.079313
288,134.283,0.0343689
339,52.9726,0.0343135
365,85.9959,0.051141
