facetNormals:0,facetNormals:1,facetNormals:2,FacetCenters:0,FacetCenters:1,FacetCenters:2,FacetIds,relFacetSize,absFacetSize,cellPairingIds,interplanarAngles,angleWeights
0.118216,-0.552189,-0.807205,5.54079,5.13721,4.43197,1,0.00808464,0.00115541,8,54.427,0.0128552
0.334913,0.317755,-0.863476,5.532,5.25559,4.35974,2,0.0313601,0.00448179,13,41.5484,0.0136012
0.678327,-0.142979,-0.707621,5.55582,5.21759,4.37612,3,0.0428175,0.00611921,19,88.3324,0.0138153
0.479161,0.707453,-0.448043,5.57244,5.278,4.41296,4,0.047449,0.00678111,26,49.8189,0.015204
0.810047,-0.297352,-0.441017,5.6004,5.20524,4.4372,5,0.127333,0.0181976,34,68.5188,0.0144938
0.884993,-0.423889,-0.0190431,5.61604,5.17764,4.50751,6,0.0699353,0.00999471,43,52.4441,0.01406
0.380776,-0.888889,-0.0567503,5.54606,5.11381,4.47035,7,0.0538909,0.00770174,53,123.653,0.015238
-0.436589,0.820364,0.00336833,5.52315,5.29099,4.45536,8,0.132289,0.0189059,64,142.283,0.0144038
0.216519,0.845221,0.367502,5.56024,5.29799,4.48115,9,0.0659574,0.00942621,76,124.749,0.0141063
0.605368,0.026233,0.731394,5.60142,5.22285,4.54459,10,0.0552826,0.00790064,89,145.39,0.015255
-0.474878,0.0966649,0.827922,5.52482,5.20961,4.53707,11,0.134888,0.0192774,18,35.182,0.0362039
,,,,,,,,,25,35.1776,0.0377622
,,,,,,,,,33,54.008,0.0503257
,,,,,,,,,42,79.3168,0.0433026
,,,,,,,,,52,96.4118,0.0396482
,,,,,,,,,63,82.9585,0.0507011
,,,,,,,,,75,88.5314,0.0425089
,,,,,,,,,88,116.88,0.0400188
,,,,,,,,,102,153.856,0.050889
,,,,,,,,,32,55.5298,0.0450144
,,,,,,,,,41,19.6489,0.0640854
,,,,,,,,,51,46.0798,0.0531154
,,,,,,,,,62,63.6747,0.0477202
,,,,,,,,,74,116.853,0.0646953
,,,,,,,,,87,104.45,0.0519262
,,,,,,,,,101,96.7547,0.0482581
,,,,,,,,,116,165.929,0.0650016
,,,,,,,,,50,66.3285,0.0691355
,,,,,,,,,61,81.9437,0.0565384
,,,,,,,,,73,116.772,0.0504652
,,,,,,,,,86,65.6507,0.0698458
,,,,,,,,,100,53.9883,0.0551928
,,,,,,,,,115,91.1924,0.0510671
,,,,,,,,,131,124.942,0.070203
,,,,,,,,,72,26.4785,0.0902838
,,,,,,,,,85,50.4452,0.0757305
,,,,,,,,,99,131.7,0.129764
,,,,,,,,,114,105.036,0.0869008
,,,,,,,,,130,79.9879,0.0770941
,,,,,,,,,147,146.873,0.131002
,,,,,,,,,98,41.2436,0.0608736
,,,,,,,,,113,143.606,0.091499
,,,,,,,,,129,100.772,0.0678881
,,,,,,,,,146,56.7799,0.0617516
,,,,,,,,,164,120.439,0.0921129
,,,,,,,,,128,174.233,0.0765836
,,,,,,,,,145,138.77,0.0593167
,,,,,,,,,163,79.6253,0.0545778
,,,,,,,,,182,109.731,0.0770132
,,,,,,,,,162,46.9949,0.0880261
,,,,,,,,,181,105.799,0.0779785
,,,,,,,,,201,71.0566,0.133576
,,,,,,,,,200,62.0086,0.06015
,,,,,,,,,221,71.8352,0.0885942
,,,,,,,,,242,69.399,0.0784239
