"cellPairingIds","interplanarAngles","angleWeights"
8,58.649,0.0536104
13,53.5337,0.0396495
19,71.4884,0.0638698
26,64.232,0.0599038
43,93.0192,0.0746256
53,97.7534,0.0648513
18,54.4215,0.0398581
42,69.5052,0.0452843
52,43.0415,0.075368
41,86.0338,0.0432351
51,28.3159,0.0349033
73,72.7663,0.0973523
86,82.3336,0.0813561
100,59.2042,0.0761581
72,95.7984,0.0496943
99,35.2206,0.0750287
98,98.6747,0.0594184
113,112.552,0.0530519
146,99.8168,0.017569
203,88.5242,0.0128118
145,101.491,0.091963
163,49.0012,0.0207883
162,47.4917,0.0775578
201,34.688,0.0744505
244,69.8804,0.0140334
200,76.578,0.0196223
221,33.8476,0.0700738
266,63.2619,0.0138701
289,57.0109,0.00914685
313,39.097,0.0137674
