"cellPairingIds","interplanarAngles","angleWeights"
8,29.9847,0.0292625
13,94.8343,0.103311
26,101.319,0.0873807
53,64.985,0.0925307
18,85.2708,0.027736
25,48.4241,0.0276993
42,28.2515,0.0176703
63,83.7816,0.0268947
88,81.7446,0.0185949
41,74.9032,0.0750471
101,53.3398,0.034148
116,74.898,0.0363496
61,39.4393,0.0311084
86,42.0589,0.0785194
100,43.2795,0.0905311
99,92.9134,0.0691913
147,62.5479,0.0341585
129,69.8629,0.0317098
146,71.5431,0.0200714
183,102.329,0.0189975
162,40.0669,0.0824677
201,119.859,0.0349182
221,105.107,0.0371077
243,81.4252,0.0317071
242,75.3936,0.0221069
265,53.2965,0.0200703
288,40.9419,0.0208112
