facetNormals:0,facetNormals:1,facetNormals:2,FacetCenters:0,FacetCenters:1,FacetCenters:2,FacetIds,relFacetSize,absFacetSize,cellPairingIds,interplanarAngles,angleWeights
0.562977,0.18849,-0.754841,4.05066,4.98529,5.37137,1,0.0328164,0.00377301,8,85.0178,0.0526756
-0.519432,-0.534756,-0.628686,3.96161,4.91773,5.3931,2,0.13341,0.0153386,13,73.492,0.0326908
-0.541002,0.525893,-0.626756,3.98798,4.9886,5.39132,3,0.0325661,0.00374423,19,57.7641,0.026758
-0.179536,0.747253,-0.615476,3.99914,5.00275,5.39136,4,0.022588,0.00259701,26,80.5938,0.0389903
0.199764,-0.894068,-0.273033,4.01702,4.89466,5.41964,5,0.0480256,0.00552166,34,96.5453,0.0267708
-0.840211,0.332258,-0.400362,3.96455,5.00504,5.43159,6,0.0226062,0.00259911,43,43.1804,0.0357312
0.833925,-0.335016,-0.359771,4.0534,4.93439,5.37658,7,0.0392142,0.00450858,53,53.95,0.0503964
0.399135,0.840891,-0.206123,4.03967,5.01269,5.42392,8,0.108544,0.0124797,64,108.472,0.0427585
-0.725214,0.64063,0.00917451,3.97527,5.00338,5.48218,9,0.061343,0.00705281,76,134.576,0.0246896
-0.256538,-0.816974,0.482172,3.96632,4.87716,5.50248,10,0.019789,0.0022752,89,157.346,0.0529707
-0.792239,-0.116109,0.470555,3.95454,4.93036,5.51014,11,0.137283,0.0157839,103,107.612,0.0439851
-0.0807763,0.815921,0.516519,3.98959,5.01077,5.46933,12,0.0666782,0.00766621,118,142.679,0.0293128
-0.555552,0.430098,0.687869,3.92651,4.96977,5.47504,13,0.0264851,0.00304508,134,130.416,0.0247187
-0.0608427,0.44317,0.878277,3.97628,4.98211,5.51393,14,0.0198264,0.0022795,18,65.6871,0.0523527
,,,,,,,,,25,85.1848,0.0386346
,,,,,,,,,33,54.1483,0.0706267
,,,,,,,,,42,58.0175,0.0386613
,,,,,,,,,52,91.6894,0.0606122
,,,,,,,,,63,124.561,0.119699
,,,,,,,,,75,88.2784,0.0840426
,,,,,,,,,88,73.8231,0.0344656
,,,,,,,,,102,78.6804,0.135319
,,,,,,,,,117,139.546,0.0889162
,,,,,,,,,133,112.949,0.0441963
,,,,,,,,,150,142.011,0.0345223
,,,,,,,,,32,24.9161,0.0266745
,,,,,,,,,41,115.735,0.0388131
,,,,,,,,,51,24.76,0.0266872
,,,,,,,,,62,115.038,0.0355823
,,,,,,,,,74,67.6573,0.0501007
,,,,,,,,,87,40.3374,0.0425455
,,,,,,,,,101,127.971,0.0246184
,,,,,,,,,116,85.4277,0.0526441
,,,,,,,,,132,80.9776,0.0437597
,,,,,,,,,149,84.3103,0.0292125
,,,,,,,,,167,107.114,0.0246474
,,,,,,,,,50,124.708,0.030725
,,,,,,,,,61,48.4376,0.0225971
,,,,,,,,,73,100.802,0.0286647
,,,,,,,,,86,43.2625,0.0373942
,,,,,,,,,100,50.7162,0.033018
,,,,,,,,,115,152.879,0.021096
,,,,,,,,,131,104.836,0.0387931
,,,,,,,,,148,71.275,0.0337446
,,,,,,,,,166,90.1322,0.0243818
,,,,,,,,,185,101.801,0.0211173
,,,,,,,,,72,112.111,0.0307419
,,,,,,,,,85,52.4213,0.0431749
,,,,,,,,,99,132.509,0.0665888
,,,,,,,,,114,141.123,0.0538735
,,,,,,,,,130,54.3492,0.0280287
,,,,,,,,,147,101.891,0.0711581
,,,,,,,,,165,163.167,0.0558353
,,,,,,,,,184,136.636,0.0341418
,,,,,,,,,204,133.467,0.0280662
,,,,,,,,,98,134.283,0.0286793
,,,,,,,,,113,88.3846,0.0374192
,,,,,,,,,129,31.1408,0.0330374
,,,,,,,,,146,104.852,0.021104
,,,,,,,,,164,61.4481,0.03882
,,,,,,,,,183,82.067,0.0337649
,,,,,,,,,203,69.8778,0.0243924
,,,,,,,,,224,99.0527,0.0211252
,,,,,,,,,128,82.1973,0.0576139
,,,,,,,,,145,151.43,0.0478437
,,,,,,,,,163,96.8646,0.0263039
,,,,,,,,,182,151.628,0.0610032
,,,,,,,,,202,124.146,0.0493847
,,,,,,,,,223,153.912,0.0316166
,,,,,,,,,245,122.68,0.026337
,,,,,,,,,162,74.4479,0.0783864
,,,,,,,,,181,161.556,0.033475
,,,,,,,,,201,125.236,0.121234
,,,,,,,,,222,53.6642,0.0826096
,,,,,,,,,244,90.1137,0.0425805
,,,,,,,,,267,79.7417,0.0335285
,,,,,,,,,200,110.492,0.0299244
,,,,,,,,,221,55.8526,0.0847962
,,,,,,,,,243,51.3226,0.0638994
,,,,,,,,,266,43.9742,0.0369968
,,,,,,,,,290,69.3674,0.0299672
,,,,,,,,,242,54.8858,0.0345916
,,,,,,,,,265,114.626,0.0305201
,,,,,,,,,289,82.6979,0.0226526
,,,,,,,,,314,85.4386,0.0198077
,,,,,,,,,288,76.3551,0.0897601
,,,,,,,,,313,38.5796,0.0444038
,,,,,,,,,339,63.3896,0.0346488
,,,,,,,,,338,37.9735,0.0379115
,,,,,,,,,365,30.8301,0.0305646
,,,,,,,,,392,31.2466,0.0226771
