"cellPairingIds","interplanarAngles","angleWeights"
8,93.2603,0.0409502
13,43.0578,0.0588418
34,124.309,0.0744235
53,161.397,0.0451459
76,133.346,0.0684852
89,126.372,0.0715499
18,62.0269,0.0458137
33,49.9913,0.0474306
42,90.5361,0.0547362
52,54.9684,0.0400372
63,94.2673,0.0370601
41,68.6548,0.0732161
116,107.587,0.0878437
85,52.4985,0.0594975
99,86.2816,0.0531523
147,61.5254,0.0939873
113,38.7016,0.0625004
128,41.4411,0.0440389
181,44.8734,0.0582582
201,66.3005,0.0604612
242,40.6347,0.111224
