Q	U	V
{$V$}	{[mm$^3$]}	0.00369177
{$d_v$}	{[mm]}	0.191754
{$S_c$}	{[mm$^2$]}	0.176159
{$S_o$}	{[mm$^2$]}	0.107865
{$S_l/S_o$}	[]	0.633143
{$\Psi$}	[]	0.655746
{$\eta$}	[]	0.697262
{med($\theta_e$)}	{[$^\circ$]}	42.3046
{$\Upsilon$}	[]	18
{$\Xi$}	[]	9
