"cellPairingIds","interplanarAngles","angleWeights"
8,32.5642,0.0137882
19,27.7226,0.0136133
26,31.5093,0.0143985
34,75.1947,0.00624055
18,27.6382,0.0222451
25,43.835,0.0453154
42,75.0363,0.00918678
52,45.6297,0.0319383
75,59.8011,0.0433574
62,27.5215,0.0181395
87,39.918,0.0213301
50,36.7402,0.0526494
73,53.3831,0.0310152
86,34.528,0.0544211
72,82.5869,0.00945375
99,60.8227,0.0695926
147,56.3788,0.0146802
225,83.5544,0.0944937
129,74.0066,0.00902685
146,46.5865,0.00918606
164,65.3432,0.0062929
183,42.6581,0.00932578
128,48.9208,0.0362082
145,57.832,0.0300853
245,90.8348,0.0290987
292,81.7796,0.0410299
291,77.2114,0.100357
316,77.5911,0.095189
243,61.3871,0.0466382
290,48.8861,0.0382855
242,25.3655,0.0140447
265,60.0082,0.0512251
340,75.5418,0.0731786
366,60.2996,0.0156952
365,46.1792,0.0443094
393,113.186,0.0830964
450,106.291,0.0598368
481,61.6556,0.0579604
512,60.0722,0.148836
