Q	U	V
{$V$}	{[mm$^3$]}	0.0127734
{$d_v$}	{[mm]}	0.290025
{$S_c$}	{[mm$^2$]}	0.494977
{$S_o$}	{[mm$^2$]}	0.310038
{$S_l/S_o$}	[]	0.596504
{$\Psi$}	[]	0.533872
{$\eta$}	[]	0.575215
{med($\theta_e$)}	{[$^\circ$]}	66.70525
{$\Upsilon$}	[]	12
{$\Xi$}	[]	7
