"cellPairingIds","interplanarAngles","angleWeights"
8,35.5462,0.0166904
13,39.2703,0.0375015
19,38.4979,0.0433836
43,72.7624,0.042696
53,87.8333,0.0344558
52,86.7471,0.0198801
63,94.5271,0.0178882
102,65.079,0.0032395
168,141.399,0.0221669
32,35.7259,0.0599478
51,42.2565,0.0493344
74,64.4826,0.0441428
61,65.7706,0.060044
73,46.9151,0.0744215
148,93.5042,0.0604693
113,47.8079,0.044195
146,28.1412,0.0302043
183,39.4471,0.049687
202,101.036,0.0591418
268,80.0078,0.116023
181,25.4658,0.0281756
201,68.153,0.00359975
222,62.8331,0.044425
244,37.6015,0.0210341
267,57.3094,0.0289447
265,38.5652,0.0303116
313,58.7922,0.00332969
339,90.9731,0.00348026
366,104.966,0.00374523
365,28.6068,0.0312035
393,67.9088,0.0853295
392,34.4547,0.0175194
450,60.499,0.0420909
