"cellPairingIds","interplanarAngles","angleWeights"
8,50.4941,0.0614113
13,50.8371,0.0233446
19,44.0136,0.0206443
26,61.8629,0.0371396
34,52.0573,0.0982647
53,93.3136,0.0457157
25,29.8272,0.0199029
42,32.6285,0.0834664
88,69.0715,0.0500934
102,83.7568,0.0734995
41,30.5945,0.0180889
62,29.3789,0.0138263
74,89.2897,0.0199079
50,52.7937,0.0164242
100,59.4137,0.0202591
131,73.4085,0.0218525
85,36.9365,0.0177258
114,33.3399,0.0359112
113,93.9745,0.0569102
146,60.4863,0.0721726
128,87.4171,0.0194689
145,54.6463,0.0222767
182,87.6747,0.0242184
202,78.5774,0.02032
181,98.9052,0.0391337
222,63.2301,0.0368759
244,99.3941,0.0506064
221,38.3218,0.0786021
242,80.2708,0.0645981
289,33.8862,0.0623268
288,85.737,0.0586686
313,62.8584,0.103228
338,63.8108,0.056789
