facetNormals:0,facetNormals:1,facetNormals:2,FacetCenters:0,FacetCenters:1,FacetCenters:2,FacetIds,relFacetSize,absFacetSize,cellPairingIds,interplanarAngles,angleWeights
-0.241063,0.171077,-0.926693,3.74965,3.41415,6.45753,1,0.0274267,0.0117313,8,37.1695,0.0315519
-0.344031,-0.423743,-0.796007,3.74568,3.30519,6.49253,2,0.0371376,0.0158849,13,54.0346,0.0213875
0.341007,-0.49106,-0.79018,3.81401,3.38121,6.53073,3,0.0175279,0.00749724,19,54.3923,0.0431155
0.61259,0.00384095,-0.750879,3.85329,3.38309,6.49161,4,0.100744,0.0430913,26,43.3401,0.0260149
-0.822803,0.17154,-0.501438,3.72955,3.48203,6.54535,5,0.0247414,0.0105827,34,43.6345,0.0348376
-0.113844,0.781371,-0.562756,3.77212,3.43655,6.61631,6,0.0477362,0.0204183,43,101.285,0.0282883
0.965647,-0.135018,-0.0752441,3.88386,3.35471,6.58916,7,0.0292057,0.0124922,53,72.4718,0.0430353
-0.410614,0.841997,-0.0340829,3.73867,3.54888,6.62685,8,0.0998735,0.0427191,64,74.8339,0.023208
-0.855437,0.486497,0.0418555,3.69767,3.52021,6.63626,9,0.0201141,0.00860347,76,106.775,0.0411111
0.340468,-0.890307,0.0360393,3.82044,3.26549,6.60536,10,0.0820489,0.0350949,89,105.436,0.0255727
0.397628,0.828255,0.3214,3.82702,3.55422,6.65087,11,0.0239535,0.0102457,103,138.801,0.0409401
0.604189,-0.525938,0.485516,3.82859,3.36728,6.63328,12,0.0807034,0.0345194,118,99.2064,0.0229805
-0.865988,0.163651,0.419389,3.70005,3.47875,6.69257,13,0.0197748,0.00845833,134,132.601,0.036336
0.769234,0.239001,0.528515,3.86093,3.44518,6.61479,14,0.0538186,0.02302,151,165.024,0.0405422
-0.000652807,-0.101981,0.928877,3.7773,3.42619,6.70296,15,0.0776969,0.0332335,18,41.1831,0.0238155
,,,,,,,,,25,65.671,0.0542696
,,,,,,,,,33,49.8143,0.0296978
,,,,,,,,,42,80.403,0.0417751
,,,,,,,,,52,103.173,0.0326975
,,,,,,,,,63,102.019,0.0541425
,,,,,,,,,75,86.6936,0.026095
,,,,,,,,,88,75.4401,0.0511316
,,,,,,,,,102,142.329,0.0291229
,,,,,,,,,117,114.261,0.0508674
,,,,,,,,,133,96.4153,0.0258077
,,,,,,,,,150,147.775,0.0439485
,,,,,,,,,168,140.502,0.0502545
,,,,,,,,,32,33.5401,0.0298605
,,,,,,,,,41,88.144,0.0205191
,,,,,,,,,51,88.6785,0.0256409
,,,,,,,,,62,61.9913,0.0219078
,,,,,,,,,74,124.535,0.029822
,,,,,,,,,87,125.278,0.0187322
,,,,,,,,,101,56.2705,0.0288851
,,,,,,,,,116,122.987,0.020243
,,,,,,,,,132,85.0147,0.0288006
,,,,,,,,,149,136.98,0.0185837
,,,,,,,,,167,106.597,0.0264435
,,,,,,,,,186,137.634,0.0286031
,,,,,,,,,50,97.6869,0.0397264
,,,,,,,,,61,67.7482,0.064778
,,,,,,,,,73,46.9007,0.0452837
,,,,,,,,,86,104.192,0.100307
,,,,,,,,,100,125.448,0.0335332
,,,,,,,,,115,78.8921,0.0904403
,,,,,,,,,131,89.6701,0.0387044
,,,,,,,,,148,89.7768,0.0896168
,,,,,,,,,166,153.273,0.0330603
,,,,,,,,,185,85.3744,0.0701579
,,,,,,,,,205,140.452,0.0877319
,,,,,,,,,72,57.4999,0.032591
,,,,,,,,,85,144.579,0.0267888
,,,,,,,,,99,57.0219,0.0396583
,,,,,,,,,114,37.3518,0.0221891
,,,,,,,,,130,118.883,0.0380185
,,,,,,,,,147,111.314,0.024341
,,,,,,,,,165,154.993,0.0378722
,,,,,,,,,184,56.2779,0.021981
,,,,,,,,,204,155.345,0.0338988
,,,,,,,,,225,121.859,0.0375314
,,,,,,,,,98,100.517,0.0362396
,,,,,,,,,113,37.2167,0.0645971
,,,,,,,,,129,61.62,0.0283027
,,,,,,,,,146,144.684,0.0603567
,,,,,,,,,164,63.5056,0.0318999
,,,,,,,,,183,145.999,0.0599888
,,,,,,,,,203,90.5785,0.0279651
,,,,,,,,,224,102.253,0.0505952
,,,,,,,,,246,131.665,0.0591383
,,,,,,,,,128,123.624,0.0451952
,,,,,,,,,145,158.282,0.023822
,,,,,,,,,163,61.4187,0.0430777
,,,,,,,,,182,74.9008,0.0263201
,,,,,,,,,202,47.58,0.04289
,,,,,,,,,223,158.801,0.0235824
,,,,,,,,,245,44.6063,0.0378639
,,,,,,,,,268,93.5606,0.0424535
,,,,,,,,,162,34.6623,0.0334846
,,,,,,,,,181,174.934,0.090088
,,,,,,,,,201,55.0139,0.0386397
,,,,,,,,,222,143.681,0.0892709
,,,,,,,,,244,58.4234,0.0330131
,,,,,,,,,267,98.4452,0.0699457
,,,,,,,,,291,97.6929,0.0874004
,,,,,,,,,200,140.298,0.032308
,,,,,,,,,221,85.4383,0.0218666
,,,,,,,,,243,144.636,0.0322023
,,,,,,,,,266,29.3497,0.019943
,,,,,,,,,290,123.202,0.0292838
,,,,,,,,,315,90.6335,0.0319556
,,,,,,,,,242,129.49,0.0370814
,,,,,,,,,265,39.2955,0.0813706
,,,,,,,,,289,117.191,0.0318689
,,,,,,,,,314,85.7463,0.065001
,,,,,,,,,340,82.0002,0.0798136
,,,,,,,,,288,92.472,0.0369422
,,,,,,,,,313,94.4678,0.0216645
,,,,,,,,,339,44.0763,0.0331518
,,,,,,,,,366,76.4039,0.0366179
,,,,,,,,,338,116.342,0.031766
,,,,,,,,,365,48.6943,0.0645745
,,,,,,,,,393,54.8258,0.0791716
,,,,,,,,,392,115.538,0.0289225
,,,,,,,,,421,65.8297,0.0315259
,,,,,,,,,450,58.8235,0.0635901
