facetNormals:0,facetNormals:1,facetNormals:2,FacetCenters:0,FacetCenters:1,FacetCenters:2,FacetIds,relFacetSize,absFacetSize,cellPairingIds,interplanarAngles,angleWeights
-0.507719,0.447631,-0.693862,4.46599,5.82598,6.71867,1,0.00712239,0.000555709,8,97.5568,0.00536918
0.895182,0.322575,-0.265439,4.4222,5.84317,6.72202,2,0.0043086,0.000336169,13,119.925,0.0127695
0.656298,-0.652232,-0.235586,4.47583,5.76915,6.7157,3,0.061648,0.00480995,19,68.8186,0.0128216
-0.875569,-0.433123,-0.136619,4.31009,5.79899,6.67065,4,0.0641691,0.00500665,26,72.5453,0.0105505
-0.949164,-0.0229204,0.266517,4.30411,5.83553,6.70142,5,0.0203405,0.00158702,34,96.3276,0.0130187
-0.683832,-0.660174,0.224869,4.34254,5.75966,6.70822,6,0.0756264,0.00590059,43,114.312,0.0105001
0.745677,0.532737,0.365519,4.50125,5.83494,6.7663,7,0.0199713,0.00155822,53,140.014,0.0137373
0.0104302,-0.824433,0.483695,4.41921,5.75863,6.7566,8,0.192813,0.0150438,64,148.514,0.0126404
0.807524,-0.0621068,0.507981,4.50277,5.8249,6.76131,9,0.0561163,0.00437835,76,85.276,0.0135841
-0.416631,0.633068,0.601923,4.36929,5.84746,6.75368,10,0.146438,0.0114255,89,108.281,0.00901497
-0.586798,-0.102009,0.800942,4.36471,5.79992,6.77326,11,0.0122773,0.000957913,103,127.914,0.0116627
0.164519,0.304218,0.917882,4.46349,5.83678,6.78528,12,0.0321707,0.00251005,118,138.716,0.00777658
-0.0314536,-0.124888,0.978258,4.4588,5.80616,6.8037,13,0.0085631,0.000668117,18,62.2173,0.00805428
,,,,,,,,,25,155.586,0.00807501
,,,,,,,,,33,162.254,0.00711093
,,,,,,,,,42,156.492,0.00815272
,,,,,,,,,52,40.3905,0.00708803
,,,,,,,,,63,114.061,0.00842885
,,,,,,,,,75,53.0273,0.00800275
,,,,,,,,,88,110.098,0.00837091
,,,,,,,,,102,141.42,0.00637867
,,,,,,,,,117,89.8956,0.00759941
,,,,,,,,,133,109.671,0.00573273
,,,,,,,,,32,106.023,0.0628833
,,,,,,,,,41,135.431,0.0305884
,,,,,,,,,51,94.3778,0.0679255
,,,,,,,,,62,86.6037,0.0301691
,,,,,,,,,74,61.8484,0.0934252
,,,,,,,,,87,60.4048,0.0587522
,,,,,,,,,101,153.663,0.0867681
,,,,,,,,,116,122.16,0.0204767
,,,,,,,,,132,109.115,0.0422785
,,,,,,,,,149,100.374,0.0150374
,,,,,,,,,50,34.1901,0.0308895
,,,,,,,,,61,27.5764,0.0694282
,,,,,,,,,73,163.6,0.0304619
,,,,,,,,,86,72.6055,0.0962917
,,,,,,,,,100,142.643,0.0598731
,,,,,,,,,115,89.4983,0.0892353
,,,,,,,,,131,62.8961,0.0206112
,,,,,,,,,148,114.5,0.0428559
,,,,,,,,,166,93.0638,0.0151098
,,,,,,,,,72,41.2537,0.0320585
,,,,,,,,,85,129.782,0.0201542
,,,,,,,,,99,81.5875,0.0367989
,,,,,,,,,114,131.904,0.0298582
,,,,,,,,,130,55.4428,0.0357195
,,,,,,,,,147,38.2693,0.0153123
,,,,,,,,,165,85.1665,0.024923
,,,,,,,,,184,72.4477,0.0120523
,,,,,,,,,98,143.978,0.0315982
,,,,,,,,,113,46.2282,0.108641
,,,,,,,,,129,115.159,0.0644267
,,,,,,,,,146,89.8591,0.0997421
,,,,,,,,,164,48.2854,0.0211252
,,,,,,,,,183,96.4086,0.0451395
,,,,,,,,,203,70.3593,0.0153843
,,,,,,,,,128,105.663,0.0361937
,,,,,,,,,145,36.8558,0.0294585
,,,,,,,,,163,75.0336,0.0351489
,,,,,,,,,182,101.667,0.0152065
,,,,,,,,,202,50.1405,0.0246439
,,,,,,,,,223,74.046,0.0119867
,,,,,,,,,162,70.4818,0.0869319
,,,,,,,,,181,104.723,0.166456
,,,,,,,,,201,60.8056,0.0230848
,,,,,,,,,222,78.0038,0.0551411
,,,,,,,,,244,52.3749,0.0163979
,,,,,,,,,200,94.3383,0.0811394
,,,,,,,,,221,93.6444,0.0201469
,,,,,,,,,243,51.7757,0.0408962
,,,,,,,,,266,59.4631,0.0148588
,,,,,,,,,242,46.7402,0.0226553
,,,,,,,,,265,44.5477,0.0527523
,,,,,,,,,289,56.801,0.0161801
,,,,,,,,,288,51.6394,0.0177722
,,,,,,,,,313,34.1816,0.0100892
,,,,,,,,,338,27.9732,0.0135259
