Q	U	V
{$V$}	{[mm$^3$]}	0.00863867
{$d_v$}	{[mm]}	0.254575
{$S_c$}	{[mm$^2$]}	0.42472
{$S_o$}	{[mm$^2$]}	0.241973
{$S_l/S_o$}	[]	0.755237
{$\Psi$}	[]	0.479379
{$\eta$}	[]	0.518038
{med($\theta_e$)}	{[$^\circ$]}	79.3457
{$\Upsilon$}	[]	13
{$\Xi$}	[]	10
