Q	U	V
{$V$}	{[mm$^3$]}	0.00237964
{$d_v$}	{[mm]}	0.165642
{$S_c$}	{[mm$^2$]}	0.141866
{$S_o$}	{[mm$^2$]}	0.0840749
{$S_l/S_o$}	[]	0.687376
{$\Psi$}	[]	0.607594
{$\eta$}	[]	0.668016
{med($\theta_e$)}	{[$^\circ$]}	51.2875
{$\Upsilon$}	[]	11
{$\Xi$}	[]	7
