facetNormals:0,facetNormals:1,facetNormals:2,FacetCenters:0,FacetCenters:1,FacetCenters:2,FacetIds,relFacetSize,absFacetSize,cellPairingIds,interplanarAngles,angleWeights
0.168319,0.225531,-0.923359,4.88514,6.92289,5.03644,1,0.0520177,0.00822449,8,47.1253,0.0562788
0.457626,-0.441394,-0.693733,4.89989,6.87711,5.09563,2,0.0613002,0.00969216,13,33.894,0.0462368
-0.345311,0.414075,-0.796321,4.87999,6.94781,5.01173,3,0.0416123,0.0065793,19,53.664,0.0678476
-0.310443,-0.491182,-0.7781,4.84041,6.8583,4.95948,4,0.0975269,0.0154199,26,94.8366,0.0242541
-0.955585,-0.200015,-0.136161,4.79693,6.88242,5.02164,5,0.0158137,0.0025003,34,75.7701,0.0563638
-0.837526,0.394105,-0.307016,4.81565,6.93675,4.96436,6,0.0615024,0.00972411,43,103.326,0.0595267
-0.871632,0.397071,0.172601,4.82324,6.95111,5.02302,7,0.0695695,0.0109996,53,122.424,0.0411733
-0.798221,-0.456987,0.282155,4.82284,6.8435,5.05324,8,0.0340704,0.00538686,64,107.05,0.0603789
-0.226141,0.812933,0.450539,4.85904,6.97098,5.04061,9,0.0719429,0.0113749,76,135.756,0.0567796
-0.733489,0.13829,0.633034,4.83351,6.87992,5.06956,10,0.0625014,0.00988206,89,141.408,0.0492827
-0.40802,0.364266,0.820011,4.88153,6.89673,5.09375,11,0.0468209,0.00740283,103,169.793,0.0677187
-0.258935,-0.0803097,0.918836,4.88199,6.90115,5.0926,12,0.0969959,0.015336,18,76.4751,0.049573
,,,,,,,,,25,47.742,0.0752821
,,,,,,,,,33,105.928,0.0251416
,,,,,,,,,42,112.032,0.0614011
,,,,,,,,,52,139.257,0.0651736
,,,,,,,,,63,113.384,0.043798
,,,,,,,,,75,149.411,0.0661965
,,,,,,,,,88,155.173,0.061895
,,,,,,,,,102,171.095,0.0530911
,,,,,,,,,117,143.054,0.0751234
,,,,,,,,,32,55.9113,0.0583346
,,,,,,,,,41,67.9696,0.022918
,,,,,,,,,51,42.0061,0.049639
,,,,,,,,,62,69.4882,0.0520759
,,,,,,,,,74,98.5953,0.0374656
,,,,,,,,,87,86.5142,0.0527269
,,,,,,,,,101,101.867,0.0499612
,,,,,,,,,116,112.403,0.0440632
,,,,,,,,,132,137.159,0.0582393
,,,,,,,,,50,58.4529,0.0272147
,,,,,,,,,61,71.1925,0.0754343
,,,,,,,,,73,93.5634,0.0812094
,,,,,,,,,86,74.3064,0.0504992
,,,,,,,,,100,137.026,0.0828038
,,,,,,,,,115,110.496,0.0761811
,,,,,,,,,131,136.15,0.063268
,,,,,,,,,148,129.768,0.0972607
,,,,,,,,,72,37.4362,0.0251586
,,,,,,,,,85,40.455,0.0257698
,,,,,,,,,99,30.6647,0.0216013
,,,,,,,,,114,90.4768,0.0259282
,,,,,,,,,130,52.5184,0.0252411
,,,,,,,,,147,77.7967,0.0236423
,,,,,,,,,165,81.5733,0.0271939
,,,,,,,,,98,28.5738,0.0652877
,,,,,,,,,113,64.643,0.0438495
,,,,,,,,,129,66.5341,0.0663142
,,,,,,,,,146,60.1907,0.0619978
,,,,,,,,,164,75.9397,0.0531667
,,,,,,,,,183,95.9524,0.075275
,,,,,,,,,128,53.0386,0.0457403
,,,,,,,,,145,50.0592,0.0707363
,,,,,,,,,163,32.4819,0.0658463
,,,,,,,,,182,48.0073,0.0559721
,,,,,,,,,202,67.7924,0.0810247
,,,,,,,,,162,93.9795,0.0462418
,,,,,,,,,181,41.8943,0.0441008
,,,,,,,,,201,65.6768,0.0394408
,,,,,,,,,222,56.9509,0.0504278
,,,,,,,,,200,52.9929,0.0668906
,,,,,,,,,221,36.5087,0.0567249
,,,,,,,,,243,63.6146,0.0826118
,,,,,,,,,242,25.7714,0.0535366
,,,,,,,,,265,35.7974,0.0760186
,,,,,,,,,288,28.5006,0.0631559
