facetNormals:0,facetNormals:1,facetNormals:2,FacetCenters:0,FacetCenters:1,FacetCenters:2,FacetIds,relFacetSize,absFacetSize,cellPairingIds,interplanarAngles,angleWeights
-0.209355,0.0909242,-0.918392,5.89798,5.06297,7.51645,1,0.0483408,0.00630322,8,29.8467,0.00986717
-0.658961,0.195245,-0.720161,5.8661,5.07624,7.52057,2,0.00549433,0.000716413,13,66.5631,0.063437
0.584092,0.619518,-0.470504,6.00326,5.1199,7.57237,3,0.0922436,0.0120278,19,81.5282,0.0310031
-0.101016,0.977674,-0.0294518,5.96128,5.13837,7.60747,4,0.022819,0.0029754,26,71.424,0.0337461
-0.745623,0.640536,-0.0906478,5.88964,5.13965,7.55493,5,0.0259204,0.0033798,34,112.047,0.0201085
0.287495,-0.925272,0.227834,6.00048,4.95837,7.61967,6,0.0126946,0.00165526,43,95.6009,0.0611387
-0.458586,-0.853445,0.118202,5.91335,4.97092,7.58249,7,0.0831529,0.0108424,53,87.2918,0.0636964
-0.932063,0.239471,0.188437,5.87282,5.0737,7.58015,8,0.093349,0.0121719,64,115.59,0.0528284
0.454817,0.750714,0.399946,5.98537,5.11838,7.62614,9,0.0582344,0.00759326,76,141.904,0.0577788
0.756432,0.0282903,0.627895,6.03902,5.04591,7.63508,10,0.0717964,0.00936162,89,147.361,0.0604063
0.414501,-0.542728,0.700901,6.01796,4.98894,7.64341,11,0.0804981,0.0104963,103,135.424,0.0765212
-0.499891,-0.102385,0.800747,5.9514,5.06144,7.62654,12,0.183484,0.0239247,118,174.009,0.0107661
0.149254,-0.022217,0.98696,5.99213,5.03939,7.64494,13,0.0060576,0.000789858,18,85.5639,0.0103709
,,,,,,,,,25,73.4606,0.00885626
,,,,,,,,,33,46.0771,0.00906678
,,,,,,,,,42,122.624,0.00766931
,,,,,,,,,52,87.0245,0.0103076
,,,,,,,,,63,57.4483,0.0103778
,,,,,,,,,75,117.351,0.0100413
,,,,,,,,,88,164.874,0.0102075
,,,,,,,,,102,155.136,0.0102866
,,,,,,,,,117,106.424,0.0106692
,,,,,,,,,133,144.929,0.00576223
,,,,,,,,,32,54.1272,0.0365871
,,,,,,,,,41,89.7637,0.040469
,,,,,,,,,51,121.958,0.0223178
,,,,,,,,,62,153.836,0.0874627
,,,,,,,,,74,120.539,0.092793
,,,,,,,,,87,54.6747,0.0713958
,,,,,,,,,101,80.1344,0.0807456
,,,,,,,,,116,116.442,0.0859715
,,,,,,,,,132,142.435,0.122768
,,,,,,,,,149,113.736,0.0113686
,,,,,,,,,50,43.4898,0.024271
,,,,,,,,,61,163.904,0.0163136
,,,,,,,,,73,145.562,0.0358107
,,,,,,,,,86,70.4462,0.0366733
,,,,,,,,,100,44.5234,0.0327895
,,,,,,,,,115,93.9873,0.0346312
,,,,,,,,,131,128.053,0.0355582
,,,,,,,,,148,94.4957,0.04059
,,,,,,,,,166,93.8468,0.00957373
,,,,,,,,,72,147.394,0.0170425
,,,,,,,,,85,102.921,0.0395213
,,,,,,,,,99,30.8233,0.0405744
,,,,,,,,,114,83.6396,0.0358734
,,,,,,,,,130,128.383,0.0380895
,,,,,,,,,147,138.209,0.0392139
,,,,,,,,,165,75.5076,0.0454239
,,,,,,,,,184,102.599,0.00982022
,,,,,,,,,98,45.1817,0.0220265
,,,,,,,,,113,117.231,0.0223498
,,,,,,,,,129,119.498,0.0208451
,,,,,,,,,146,70.0281,0.0215745
,,,,,,,,,164,36.6918,0.0219307
,,,,,,,,,183,81.8821,0.0237462
,,,,,,,,,203,73.1338,0.00820157
,,,,,,,,,128,75.148,0.0879565
,,,,,,,,,145,148.416,0.0684978
,,,,,,,,,163,108.012,0.0770585
,,,,,,,,,182,68.1194,0.081804
,,,,,,,,,202,63.6548,0.114442
,,,,,,,,,223,86.0473,0.0112926
,,,,,,,,,162,100.279,0.0717245
,,,,,,,,,181,126.967,0.0811663
,,,,,,,,,201,113.604,0.0864486
,,,,,,,,,222,50.4961,0.123743
,,,,,,,,,244,87.5681,0.0113769
,,,,,,,,,200,49.4753,0.0643081
,,,,,,,,,221,86.2697,0.0675798
,,,,,,,,,243,88.9968,0.0884093
,,,,,,,,,266,62.4162,0.0109737
,,,,,,,,,242,39.9053,0.0758986
,,,,,,,,,265,82.5083,0.103208
,,,,,,,,,289,41.8029,0.0111726
,,,,,,,,,288,63.8433,0.111902
,,,,,,,,,313,38.4019,0.0112673
,,,,,,,,,338,40.77,0.011728
