Q	U	V
{$V$}	{[mm$^3$]}	0.00896997
{$d_v$}	{[mm]}	0.257789
{$S_c$}	{[mm$^2$]}	0.298168
{$S_o$}	{[mm$^2$]}	0.190989
{$S_l/S_o$}	[]	0.561179
{$\Psi$}	[]	0.700192
{$\eta$}	[]	0.717139
{med($\theta_e$)}	{[$^\circ$]}	60.3753
{$\Upsilon$}	[]	12
{$\Xi$}	[]	9
