Q	U	V
{$V$}	{[mm$^3$]}	0.00504665
{$d_v$}	{[mm]}	0.212815
{$S_c$}	{[mm$^2$]}	0.345058
{$S_o$}	{[mm$^2$]}	0.177024
{$S_l/S_o$}	[]	0.949216
{$\Psi$}	[]	0.412345
{$\eta$}	[]	0.436480
{med($\theta_e$)}	{[$^\circ$]}	
{$\Upsilon$}	[]	14
{$\Xi$}	[]	7
