Q	U	V
{$V$}	{[mm$^3$]}	0.00286412
{$d_v$}	{[mm]}	0.176197
{$S_c$}	{[mm$^2$]}	0.18339
{$S_o$}	{[mm$^2$]}	0.128232
{$S_l/S_o$}	[]	0.430142
{$\Psi$}	[]	0.531826
{$\eta$}	[]	0.550744
{med($\theta_e$)}	{[$^\circ$]}	57.54
{$\Upsilon$}	[]	17
{$\Xi$}	[]	10
