Q	U	V
{$V$}	{[mm$^3$]}	0.00359796
{$d_v$}	{[mm]}	0.190116
{$S_c$}	{[mm$^2$]}	0.242452
{$S_o$}	{[mm$^2$]}	0.132943
{$S_l/S_o$}	[]	0.823729
{$\Psi$}	[]	0.468341
{$\eta$}	[]	0.480367
{med($\theta_e$)}	{[$^\circ$]}	82.4588
{$\Upsilon$}	[]	15
{$\Xi$}	[]	11
