Q	U	V
{$V$}	{[mm$^3$]}	0.00254114
{$d_v$}	{[mm]}	0.169308
{$S_c$}	{[mm$^2$]}	0.214963
{$S_o$}	{[mm$^2$]}	0.107043
{$S_l/S_o$}	[]	1.008193
{$\Psi$}	[]	0.418928
{$\eta$}	[]	0.438896
{med($\theta_e$)}	{[$^\circ$]}	
{$\Upsilon$}	[]	20
{$\Xi$}	[]	5
