Q	U	V
{$V$}	{[mm$^3$]}	0.00103902
{$d_v$}	{[mm]}	0.125663
{$S_c$}	{[mm$^2$]}	0.0930374
{$S_o$}	{[mm$^2$]}	0.0480384
{$S_l/S_o$}	[]	0.936730
{$\Psi$}	[]	0.533223
{$\eta$}	[]	0.642001
{med($\theta_e$)}	{[$^\circ$]}	55.7484
{$\Upsilon$}	[]	16
{$\Xi$}	[]	3
