Q	U	V
{$V$}	{[mm$^3$]}	0.00963138
{$d_v$}	{[mm]}	0.263975
{$S_c$}	{[mm$^2$]}	0.52293
{$S_o$}	{[mm$^2$]}	0.296368
{$S_l/S_o$}	[]	0.764462
{$\Psi$}	[]	0.418632
{$\eta$}	[]	0.457465
{med($\theta_e$)}	{[$^\circ$]}	85.61335
{$\Upsilon$}	[]	11
{$\Xi$}	[]	10
