Q	U	V
{$V$}	{[mm$^3$]}	0.00746191
{$d_v$}	{[mm]}	0.242447
{$S_c$}	{[mm$^2$]}	0.457227
{$S_o$}	{[mm$^2$]}	0.229343
{$S_l/S_o$}	[]	0.993638
{$\Psi$}	[]	0.40388
{$\eta$}	[]	0.410824
{med($\theta_e$)}	{[$^\circ$]}	108.5245
{$\Upsilon$}	[]	13
{$\Xi$}	[]	8
