Q	U	V
{$V$}	{[mm$^3$]}	0.00522358
{$d_v$}	{[mm]}	0.215273
{$S_c$}	{[mm$^2$]}	0.25453
{$S_o$}	{[mm$^2$]}	0.160109
{$S_l/S_o$}	[]	0.589729
{$\Psi$}	[]	0.571993
{$\eta$}	[]	0.605999
{med($\theta_e$)}	{[$^\circ$]}	56.6015
{$\Upsilon$}	[]	14
{$\Xi$}	[]	6
