Q	U	V
{$V$}	{[mm$^3$]}	0.0039827
{$d_v$}	{[mm]}	0.196665
{$S_c$}	{[mm$^2$]}	0.274219
{$S_o$}	{[mm$^2$]}	0.147662
{$S_l/S_o$}	[]	0.857072
{$\Psi$}	[]	0.443103
{$\eta$}	[]	0.467524
{med($\theta_e$)}	{[$^\circ$]}	78.6164
{$\Upsilon$}	[]	13
{$\Xi$}	[]	6
