Q	U	V
{$V$}	{[mm$^3$]}	0.0048246
{$d_v$}	{[mm]}	0.209646
{$S_c$}	{[mm$^2$]}	0.326382
{$S_o$}	{[mm$^2$]}	0.170424
{$S_l/S_o$}	[]	0.915118
{$\Psi$}	[]	0.423057
{$\eta$}	[]	0.483290
{med($\theta_e$)}	{[$^\circ$]}	86.7801
{$\Upsilon$}	[]	11
{$\Xi$}	[]	5
