Q	U	V
{$V$}	{[mm$^3$]}	0.00757947
{$d_v$}	{[mm]}	0.243714
{$S_c$}	{[mm$^2$]}	0.396332
{$S_o$}	{[mm$^2$]}	0.253224
{$S_l/S_o$}	[]	0.565144
{$\Psi$}	[]	0.470816
{$\eta$}	[]	0.503992
{med($\theta_e$)}	{[$^\circ$]}	77.6743
{$\Upsilon$}	[]	19
{$\Xi$}	[]	10
