Q	U	V
{$V$}	{[mm$^3$]}	0.000736217
{$d_v$}	{[mm]}	0.112030
{$S_c$}	{[mm$^2$]}	0.0714506
{$S_o$}	{[mm$^2$]}	0.0412472
{$S_l/S_o$}	[]	0.732253
{$\Psi$}	[]	0.551843
{$\eta$}	[]	1.001899
{med($\theta_e$)}	{[$^\circ$]}	
{$\Upsilon$}	[]	29
{$\Xi$}	[]	9
