Q	U	V
{$V$}	{[mm$^3$]}	0.00472485
{$d_v$}	{[mm]}	0.208192
{$S_c$}	{[mm$^2$]}	0.328145
{$S_o$}	{[mm$^2$]}	0.174756
{$S_l/S_o$}	[]	0.877732
{$\Psi$}	[]	0.414964
{$\eta$}	[]	0.470414
{med($\theta_e$)}	{[$^\circ$]}	65.2834
{$\Upsilon$}	[]	14
{$\Xi$}	[]	8
