Q	U	V
{$V$}	{[mm$^3$]}	0.00327379
{$d_v$}	{[mm]}	0.184226
{$S_c$}	{[mm$^2$]}	0.256953
{$S_o$}	{[mm$^2$]}	0.134823
{$S_l/S_o$}	[]	0.905854
{$\Psi$}	[]	0.414952
{$\eta$}	[]	0.457936
{med($\theta_e$)}	{[$^\circ$]}	
{$\Upsilon$}	[]	13
{$\Xi$}	[]	12
