Q	U	V
{$V$}	{[mm$^3$]}	0.000807464
{$d_v$}	{[mm]}	0.115534
{$S_c$}	{[mm$^2$]}	0.0710065
{$S_o$}	{[mm$^2$]}	0.0380249
{$S_l/S_o$}	[]	0.867368
{$\Psi$}	[]	0.590566
{$\eta$}	[]	0.670637
{med($\theta_e$)}	{[$^\circ$]}	61.4205
{$\Upsilon$}	[]	16
{$\Xi$}	[]	2
