Q	U	V
{$V$}	{[mm$^3$]}	0.00294962
{$d_v$}	{[mm]}	0.177933
{$S_c$}	{[mm$^2$]}	0.170925
{$S_o$}	{[mm$^2$]}	0.0970702
{$S_l/S_o$}	[]	0.760839
{$\Psi$}	[]	0.58191
{$\eta$}	[]	0.667544
{med($\theta_e$)}	{[$^\circ$]}	59.907
{$\Upsilon$}	[]	15
{$\Xi$}	[]	5
