Q	U	V
{$V$}	{[mm$^3$]}	0.00175505
{$d_v$}	{[mm]}	0.149657
{$S_c$}	{[mm$^2$]}	0.12441
{$S_o$}	{[mm$^2$]}	0.0729027
{$S_l/S_o$}	[]	0.706521
{$\Psi$}	[]	0.565573
{$\eta$}	[]	0.602324
{med($\theta_e$)}	{[$^\circ$]}	56.49945
{$\Upsilon$}	[]	16
{$\Xi$}	[]	6
