Q	U	V
{$V$}	{[mm$^3$]}	0.0052402
{$d_v$}	{[mm]}	0.215501
{$S_c$}	{[mm$^2$]}	0.276754
{$S_o$}	{[mm$^2$]}	0.166178
{$S_l/S_o$}	[]	0.665407
{$\Psi$}	[]	0.527176
{$\eta$}	[]	0.581585
{med($\theta_e$)}	{[$^\circ$]}	72.0473
{$\Upsilon$}	[]	10
{$\Xi$}	[]	14
