Q	U	V
{$V$}	{[mm$^3$]}	0.00178236
{$d_v$}	{[mm]}	0.150429
{$S_c$}	{[mm$^2$]}	0.135532
{$S_o$}	{[mm$^2$]}	0.0677898
{$S_l/S_o$}	[]	0.999298
{$\Psi$}	[]	0.524533
{$\eta$}	[]	0.640406
{med($\theta_e$)}	{[$^\circ$]}	96.0167
{$\Upsilon$}	[]	14
{$\Xi$}	[]	12
