Q	U	V
{$V$}	{[mm$^3$]}	0.000942833
{$d_v$}	{[mm]}	0.121659
{$S_c$}	{[mm$^2$]}	0.0852533
{$S_o$}	{[mm$^2$]}	0.0402037
{$S_l/S_o$}	[]	1.120534
{$\Psi$}	[]	0.545418
{$\eta$}	[]	0.602012
{med($\theta_e$)}	{[$^\circ$]}	77.29285
{$\Upsilon$}	[]	19
{$\Xi$}	[]	6
