Q	U	V
{$V$}	{[mm$^3$]}	0.00699287
{$d_v$}	{[mm]}	0.237257
{$S_c$}	{[mm$^2$]}	0.410188
{$S_o$}	{[mm$^2$]}	0.229241
{$S_l/S_o$}	[]	0.789331
{$\Psi$}	[]	0.431127
{$\eta$}	[]	0.491138
{med($\theta_e$)}	{[$^\circ$]}	81.1882
{$\Upsilon$}	[]	12
{$\Xi$}	[]	8
