Q	U	V
{$V$}	{[mm$^3$]}	0.00600729
{$d_v$}	{[mm]}	0.225542
{$S_c$}	{[mm$^2$]}	0.265235
{$S_o$}	{[mm$^2$]}	0.166209
{$S_l/S_o$}	[]	0.595792
{$\Psi$}	[]	0.602521
{$\eta$}	[]	0.638626
{med($\theta_e$)}	{[$^\circ$]}	50.6483
{$\Upsilon$}	[]	15
{$\Xi$}	[]	10
