Q	U	V
{$V$}	{[mm$^3$]}	0.014811
{$d_v$}	{[mm]}	0.304693
{$S_c$}	{[mm$^2$]}	0.636439
{$S_o$}	{[mm$^2$]}	0.369731
{$S_l/S_o$}	[]	0.721357
{$\Psi$}	[]	0.458265
{$\eta$}	[]	0.499963
{med($\theta_e$)}	{[$^\circ$]}	61.83595
{$\Upsilon$}	[]	12
{$\Xi$}	[]	3
