Q	U	V
{$V$}	{[mm$^3$]}	0.00544088
{$d_v$}	{[mm]}	0.218218
{$S_c$}	{[mm$^2$]}	0.297116
{$S_o$}	{[mm$^2$]}	0.184053
{$S_l/S_o$}	[]	0.614296
{$\Psi$}	[]	0.503505
{$\eta$}	[]	0.549287
{med($\theta_e$)}	{[$^\circ$]}	79.2169
{$\Upsilon$}	[]	17
{$\Xi$}	[]	9
