Q	U	V
{$V$}	{[mm$^3$]}	0.00166124
{$d_v$}	{[mm]}	0.146942
{$S_c$}	{[mm$^2$]}	0.120463
{$S_o$}	{[mm$^2$]}	0.0697718
{$S_l/S_o$}	[]	0.726528
{$\Psi$}	[]	0.5631
{$\eta$}	[]	0.623279
{med($\theta_e$)}	{[$^\circ$]}	84.1857
{$\Upsilon$}	[]	19
{$\Xi$}	[]	9
