Q	U	V
{$V$}	{[mm$^3$]}	0.00289143
{$d_v$}	{[mm]}	0.176755
{$S_c$}	{[mm$^2$]}	0.245649
{$S_o$}	{[mm$^2$]}	0.121985
{$S_l/S_o$}	[]	1.013764
{$\Psi$}	[]	0.399556
{$\eta$}	[]	0.426519
{med($\theta_e$)}	{[$^\circ$]}	
{$\Upsilon$}	[]	15
{$\Xi$}	[]	2
