Q	U	V
{$V$}	{[mm$^3$]}	0.00547294
{$d_v$}	{[mm]}	0.218646
{$S_c$}	{[mm$^2$]}	0.37909
{$S_o$}	{[mm$^2$]}	0.204563
{$S_l/S_o$}	[]	0.853170
{$\Psi$}	[]	0.396177
{$\eta$}	[]	0.422641
{med($\theta_e$)}	{[$^\circ$]}	85.01475
{$\Upsilon$}	[]	16
{$\Xi$}	[]	13
