Q	U	V
{$V$}	{[mm$^3$]}	0.00628278
{$d_v$}	{[mm]}	0.228938
{$S_c$}	{[mm$^2$]}	0.358238
{$S_o$}	{[mm$^2$]}	0.207944
{$S_l/S_o$}	[]	0.722762
{$\Psi$}	[]	0.459636
{$\eta$}	[]	0.535312
{med($\theta_e$)}	{[$^\circ$]}	70.85715
{$\Upsilon$}	[]	14
{$\Xi$}	[]	12
