Q	U	V
{$V$}	{[mm$^3$]}	0.00129313
{$d_v$}	{[mm]}	0.135170
{$S_c$}	{[mm$^2$]}	0.0983334
{$S_o$}	{[mm$^2$]}	0.0519648
{$S_l/S_o$}	[]	0.892308
{$\Psi$}	[]	0.583729
{$\eta$}	[]	0.717902
{med($\theta_e$)}	{[$^\circ$]}	74.1603
{$\Upsilon$}	[]	12
{$\Xi$}	[]	4
