Q	U	V
{$V$}	{[mm$^3$]}	0.00307074
{$d_v$}	{[mm]}	0.180336
{$S_c$}	{[mm$^2$]}	0.214139
{$S_o$}	{[mm$^2$]}	0.122672
{$S_l/S_o$}	[]	0.745622
{$\Psi$}	[]	0.477108
{$\eta$}	[]	0.566973
{med($\theta_e$)}	{[$^\circ$]}	68.584
{$\Upsilon$}	[]	13
{$\Xi$}	[]	13
