Q	U	V
{$V$}	{[mm$^3$]}	0.0110658
{$d_v$}	{[mm]}	0.276479
{$S_c$}	{[mm$^2$]}	0.497144
{$S_o$}	{[mm$^2$]}	0.30403
{$S_l/S_o$}	[]	0.635181
{$\Psi$}	[]	0.483048
{$\eta$}	[]	0.505495
{med($\theta_e$)}	{[$^\circ$]}	
{$\Upsilon$}	[]	13
{$\Xi$}	[]	19
