Q	U	V
{$V$}	{[mm$^3$]}	0.0020151
{$d_v$}	{[mm]}	0.156711
{$S_c$}	{[mm$^2$]}	0.158997
{$S_o$}	{[mm$^2$]}	0.0932642
{$S_l/S_o$}	[]	0.704802
{$\Psi$}	[]	0.485243
{$\eta$}	[]	0.547193
{med($\theta_e$)}	{[$^\circ$]}	64.0063
{$\Upsilon$}	[]	13
{$\Xi$}	[]	9
