Q	U	V
{$V$}	{[mm$^3$]}	0.00877167
{$d_v$}	{[mm]}	0.255875
{$S_c$}	{[mm$^2$]}	0.459817
{$S_o$}	{[mm$^2$]}	0.274878
{$S_l/S_o$}	[]	0.672804
{$\Psi$}	[]	0.447322
{$\eta$}	[]	0.537020
{med($\theta_e$)}	{[$^\circ$]}	61.096
{$\Upsilon$}	[]	10
{$\Xi$}	[]	9
