Q	U	V
{$V$}	{[mm$^3$]}	0.00291874
{$d_v$}	{[mm]}	0.177310
{$S_c$}	{[mm$^2$]}	0.230851
{$S_o$}	{[mm$^2$]}	0.128123
{$S_l/S_o$}	[]	0.801792
{$\Psi$}	[]	0.427841
{$\eta$}	[]	0.481319
{med($\theta_e$)}	{[$^\circ$]}	
{$\Upsilon$}	[]	10
{$\Xi$}	[]	17
