Q	U	V
{$V$}	{[mm$^3$]}	0.00701306
{$d_v$}	{[mm]}	0.237485
{$S_c$}	{[mm$^2$]}	0.268227
{$S_o$}	{[mm$^2$]}	0.196474
{$S_l/S_o$}	[]	0.365204
{$\Psi$}	[]	0.660572
{$\eta$}	[]	0.671841
{med($\theta_e$)}	{[$^\circ$]}	55.927
{$\Upsilon$}	[]	17
{$\Xi$}	[]	9
