Q	U	V
{$V$}	{[mm$^3$]}	0.00495403
{$d_v$}	{[mm]}	0.211505
{$S_c$}	{[mm$^2$]}	0.166918
{$S_o$}	{[mm$^2$]}	0.144262
{$S_l/S_o$}	[]	0.157048
{$\Psi$}	[]	0.841951
{$\eta$}	[]	0.853617
{med($\theta_e$)}	{[$^\circ$]}	60.9732
{$\Upsilon$}	[]	14
{$\Xi$}	[]	7
