Q	U	V
{$V$}	{[mm$^3$]}	0.00362527
{$d_v$}	{[mm]}	0.190596
{$S_c$}	{[mm$^2$]}	0.237307
{$S_o$}	{[mm$^2$]}	0.130187
{$S_l/S_o$}	[]	0.822816
{$\Psi$}	[]	0.480914
{$\eta$}	[]	0.521055
{med($\theta_e$)}	{[$^\circ$]}	60.3682
{$\Upsilon$}	[]	12
{$\Xi$}	[]	7
