Q	U	V
{$V$}	{[mm$^3$]}	0.00683375
{$d_v$}	{[mm]}	0.235444
{$S_c$}	{[mm$^2$]}	0.304319
{$S_o$}	{[mm$^2$]}	0.202773
{$S_l/S_o$}	[]	0.500787
{$\Psi$}	[]	0.572261
{$\eta$}	[]	0.595392
{med($\theta_e$)}	{[$^\circ$]}	70.1963
{$\Upsilon$}	[]	15
{$\Xi$}	[]	9
