Q	U	V
{$V$}	{[mm$^3$]}	0.00129669
{$d_v$}	{[mm]}	0.135294
{$S_c$}	{[mm$^2$]}	0.124033
{$S_o$}	{[mm$^2$]}	0.0631703
{$S_l/S_o$}	[]	0.963470
{$\Psi$}	[]	0.463629
{$\eta$}	[]	0.469635
{med($\theta_e$)}	{[$^\circ$]}	
{$\Upsilon$}	[]	16
{$\Xi$}	[]	4
