Q	U	V
{$V$}	{[mm$^3$]}	0.00460136
{$d_v$}	{[mm]}	0.206362
{$S_c$}	{[mm$^2$]}	0.248008
{$S_o$}	{[mm$^2$]}	0.148029
{$S_l/S_o$}	[]	0.675401
{$\Psi$}	[]	0.539439
{$\eta$}	[]	0.572711
{med($\theta_e$)}	{[$^\circ$]}	72.4897
{$\Upsilon$}	[]	12
{$\Xi$}	[]	4
