Q	U	V
{$V$}	{[mm$^3$]}	0.0110908
{$d_v$}	{[mm]}	0.276687
{$S_c$}	{[mm$^2$]}	0.602574
{$S_o$}	{[mm$^2$]}	0.35215
{$S_l/S_o$}	[]	0.711129
{$\Psi$}	[]	0.399131
{$\eta$}	[]	0.442605
{med($\theta_e$)}	{[$^\circ$]}	58.0423
{$\Upsilon$}	[]	12
{$\Xi$}	[]	19
