Q	U	V
{$V$}	{[mm$^3$]}	0.0166088
{$d_v$}	{[mm]}	0.316553
{$S_c$}	{[mm$^2$]}	0.63145
{$S_o$}	{[mm$^2$]}	0.451905
{$S_l/S_o$}	[]	0.397307
{$\Psi$}	[]	0.498545
{$\eta$}	[]	0.519278
{med($\theta_e$)}	{[$^\circ$]}	60.3598
{$\Upsilon$}	[]	15
{$\Xi$}	[]	17
