Q	U	V
{$V$}	{[mm$^3$]}	0.00204241
{$d_v$}	{[mm]}	0.157416
{$S_c$}	{[mm$^2$]}	0.194742
{$S_o$}	{[mm$^2$]}	0.0982696
{$S_l/S_o$}	[]	0.981712
{$\Psi$}	[]	0.399748
{$\eta$}	[]	0.448502
{med($\theta_e$)}	{[$^\circ$]}	
{$\Upsilon$}	[]	15
{$\Xi$}	[]	4
