Q	U	V
{$V$}	{[mm$^3$]}	0.00223952
{$d_v$}	{[mm]}	0.162325
{$S_c$}	{[mm$^2$]}	0.119672
{$S_o$}	{[mm$^2$]}	0.0813468
{$S_l/S_o$}	[]	0.471133
{$\Psi$}	[]	0.691717
{$\eta$}	[]	0.754676
{med($\theta_e$)}	{[$^\circ$]}	70.5643
{$\Upsilon$}	[]	12
{$\Xi$}	[]	11
