Q	U	V
{$V$}	{[mm$^3$]}	0.00323579
{$d_v$}	{[mm]}	0.183510
{$S_c$}	{[mm$^2$]}	0.256436
{$S_o$}	{[mm$^2$]}	0.128295
{$S_l/S_o$}	[]	0.998800
{$\Psi$}	[]	0.412565
{$\eta$}	[]	0.420054
{med($\theta_e$)}	{[$^\circ$]}	
{$\Upsilon$}	[]	15
{$\Xi$}	[]	7
