Q	U	V
{$V$}	{[mm$^3$]}	0.00303749
{$d_v$}	{[mm]}	0.179682
{$S_c$}	{[mm$^2$]}	0.154478
{$S_o$}	{[mm$^2$]}	0.103708
{$S_l/S_o$}	[]	0.489548
{$\Psi$}	[]	0.65659
{$\eta$}	[]	0.666781
{med($\theta_e$)}	{[$^\circ$]}	51.664
{$\Upsilon$}	[]	17
{$\Xi$}	[]	11
