Q	U	V
{$V$}	{[mm$^3$]}	0.00286412
{$d_v$}	{[mm]}	0.176197
{$S_c$}	{[mm$^2$]}	0.212392
{$S_o$}	{[mm$^2$]}	0.107401
{$S_l/S_o$}	[]	0.977561
{$\Psi$}	[]	0.459205
{$\eta$}	[]	0.488032
{med($\theta_e$)}	{[$^\circ$]}	90.04685
{$\Upsilon$}	[]	14
{$\Xi$}	[]	14
