Q	U	V
{$V$}	{[mm$^3$]}	0.00320136
{$d_v$}	{[mm]}	0.182857
{$S_c$}	{[mm$^2$]}	0.203898
{$S_o$}	{[mm$^2$]}	0.120422
{$S_l/S_o$}	[]	0.693196
{$\Psi$}	[]	0.515182
{$\eta$}	[]	0.541256
{med($\theta_e$)}	{[$^\circ$]}	85.0219
{$\Upsilon$}	[]	17
{$\Xi$}	[]	7
