Q	U	V
{$V$}	{[mm$^3$]}	0.00284987
{$d_v$}	{[mm]}	0.175904
{$S_c$}	{[mm$^2$]}	0.244824
{$S_o$}	{[mm$^2$]}	0.112718
{$S_l/S_o$}	[]	1.172004
{$\Psi$}	[]	0.397051
{$\eta$}	[]	0.420298
{med($\theta_e$)}	{[$^\circ$]}	
{$\Upsilon$}	[]	13
{$\Xi$}	[]	7
