Q	U	V
{$V$}	{[mm$^3$]}	0.00557862
{$d_v$}	{[mm]}	0.220044
{$S_c$}	{[mm$^2$]}	0.245776
{$S_o$}	{[mm$^2$]}	0.175527
{$S_l/S_o$}	[]	0.400218
{$\Psi$}	[]	0.618912
{$\eta$}	[]	0.668999
{med($\theta_e$)}	{[$^\circ$]}	52.87635
{$\Upsilon$}	[]	13
{$\Xi$}	[]	7
