Q	U	V
{$V$}	{[mm$^3$]}	0.00313486
{$d_v$}	{[mm]}	0.181582
{$S_c$}	{[mm$^2$]}	0.162744
{$S_o$}	{[mm$^2$]}	0.10044
{$S_l/S_o$}	[]	0.620311
{$\Psi$}	[]	0.636489
{$\eta$}	[]	0.686477
{med($\theta_e$)}	{[$^\circ$]}	49.94
{$\Upsilon$}	[]	16
{$\Xi$}	[]	10
