Q	U	V
{$V$}	{[mm$^3$]}	0.00242002
{$d_v$}	{[mm]}	0.166574
{$S_c$}	{[mm$^2$]}	0.174644
{$S_o$}	{[mm$^2$]}	0.0959394
{$S_l/S_o$}	[]	0.820357
{$\Psi$}	[]	0.499125
{$\eta$}	[]	0.606394
{med($\theta_e$)}	{[$^\circ$]}	83.7442
{$\Upsilon$}	[]	17
{$\Xi$}	[]	7
