Q	U	V
{$V$}	{[mm$^3$]}	0.00605241
{$d_v$}	{[mm]}	0.226105
{$S_c$}	{[mm$^2$]}	0.324877
{$S_o$}	{[mm$^2$]}	0.188707
{$S_l/S_o$}	[]	0.721595
{$\Psi$}	[]	0.494368
{$\eta$}	[]	0.580115
{med($\theta_e$)}	{[$^\circ$]}	69.3475
{$\Upsilon$}	[]	9
{$\Xi$}	[]	13
