Q	U	V
{$V$}	{[mm$^3$]}	0.00385801
{$d_v$}	{[mm]}	0.194590
{$S_c$}	{[mm$^2$]}	0.221862
{$S_o$}	{[mm$^2$]}	0.1386
{$S_l/S_o$}	[]	0.600736
{$\Psi$}	[]	0.536179
{$\eta$}	[]	0.600364
{med($\theta_e$)}	{[$^\circ$]}	68.9692
{$\Upsilon$}	[]	9
{$\Xi$}	[]	10
