Q	U	V
{$V$}	{[mm$^3$]}	0.00821832
{$d_v$}	{[mm]}	0.250377
{$S_c$}	{[mm$^2$]}	0.36322
{$S_o$}	{[mm$^2$]}	0.212063
{$S_l/S_o$}	[]	0.712793
{$\Psi$}	[]	0.542213
{$\eta$}	[]	0.571119
{med($\theta_e$)}	{[$^\circ$]}	63.54565
{$\Upsilon$}	[]	15
{$\Xi$}	[]	3
