Q	U	V
{$V$}	{[mm$^3$]}	0.00143919
{$d_v$}	{[mm]}	0.140079
{$S_c$}	{[mm$^2$]}	0.120178
{$S_o$}	{[mm$^2$]}	0.0610695
{$S_l/S_o$}	[]	0.967889
{$\Psi$}	[]	0.512946
{$\eta$}	[]	0.546485
{med($\theta_e$)}	{[$^\circ$]}	
{$\Upsilon$}	[]	18
{$\Xi$}	[]	6
