Q	U	V
{$V$}	{[mm$^3$]}	0.00163393
{$d_v$}	{[mm]}	0.146132
{$S_c$}	{[mm$^2$]}	0.1413
{$S_o$}	{[mm$^2$]}	0.0742998
{$S_l/S_o$}	[]	0.901755
{$\Psi$}	[]	0.474786
{$\eta$}	[]	0.574515
{med($\theta_e$)}	{[$^\circ$]}	77.12875
{$\Upsilon$}	[]	18
{$\Xi$}	[]	8
