Q	U	V
{$V$}	{[mm$^3$]}	0.0106502
{$d_v$}	{[mm]}	0.272973
{$S_c$}	{[mm$^2$]}	0.541638
{$S_o$}	{[mm$^2$]}	0.274966
{$S_l/S_o$}	[]	0.969836
{$\Psi$}	[]	0.432195
{$\eta$}	[]	0.448816
{med($\theta_e$)}	{[$^\circ$]}	
{$\Upsilon$}	[]	10
{$\Xi$}	[]	2
