Q	U	V
{$V$}	{[mm$^3$]}	0.00333791
{$d_v$}	{[mm]}	0.185421
{$S_c$}	{[mm$^2$]}	0.195979
{$S_o$}	{[mm$^2$]}	0.112485
{$S_l/S_o$}	[]	0.742268
{$\Psi$}	[]	0.551135
{$\eta$}	[]	0.622725
{med($\theta_e$)}	{[$^\circ$]}	59.0125
{$\Upsilon$}	[]	11
{$\Xi$}	[]	5
