Q	U	V
{$V$}	{[mm$^3$]}	0.00523426
{$d_v$}	{[mm]}	0.215420
{$S_c$}	{[mm$^2$]}	0.303914
{$S_o$}	{[mm$^2$]}	0.205455
{$S_l/S_o$}	[]	0.479224
{$\Psi$}	[]	0.479701
{$\eta$}	[]	0.525053
{med($\theta_e$)}	{[$^\circ$]}	67.56455
{$\Upsilon$}	[]	15
{$\Xi$}	[]	21
