Q	U	V
{$V$}	{[mm$^3$]}	0.00278219
{$d_v$}	{[mm]}	0.174500
{$S_c$}	{[mm$^2$]}	0.221793
{$S_o$}	{[mm$^2$]}	0.111923
{$S_l/S_o$}	[]	0.981657
{$\Psi$}	[]	0.431315
{$\eta$}	[]	0.463509
{med($\theta_e$)}	{[$^\circ$]}	62.965
{$\Upsilon$}	[]	12
{$\Xi$}	[]	5
