Q	U	V
{$V$}	{[mm$^3$]}	0.00344597
{$d_v$}	{[mm]}	0.187401
{$S_c$}	{[mm$^2$]}	0.190562
{$S_o$}	{[mm$^2$]}	0.109828
{$S_l/S_o$}	[]	0.735095
{$\Psi$}	[]	0.578969
{$\eta$}	[]	0.615453
{med($\theta_e$)}	{[$^\circ$]}	57.2371
{$\Upsilon$}	[]	14
{$\Xi$}	[]	4
