Q	U	V
{$V$}	{[mm$^3$]}	0.00749041
{$d_v$}	{[mm]}	0.242755
{$S_c$}	{[mm$^2$]}	0.480371
{$S_o$}	{[mm$^2$]}	0.292379
{$S_l/S_o$}	[]	0.642974
{$\Psi$}	[]	0.385399
{$\eta$}	[]	0.423541
{med($\theta_e$)}	{[$^\circ$]}	90.8944
{$\Upsilon$}	[]	15
{$\Xi$}	[]	25
