Q	U	V
{$V$}	{[mm$^3$]}	0.00384614
{$d_v$}	{[mm]}	0.194391
{$S_c$}	{[mm$^2$]}	0.159924
{$S_o$}	{[mm$^2$]}	0.105581
{$S_l/S_o$}	[]	0.514704
{$\Psi$}	[]	0.742313
{$\eta$}	[]	0.763957
{med($\theta_e$)}	{[$^\circ$]}	54.539
{$\Upsilon$}	[]	16
{$\Xi$}	[]	7
