Q	U	V
{$V$}	{[mm$^3$]}	0.00589211
{$d_v$}	{[mm]}	0.224091
{$S_c$}	{[mm$^2$]}	0.288033
{$S_o$}	{[mm$^2$]}	0.174678
{$S_l/S_o$}	[]	0.648937
{$\Psi$}	[]	0.547716
{$\eta$}	[]	0.580187
{med($\theta_e$)}	{[$^\circ$]}	57.11715
{$\Upsilon$}	[]	13
{$\Xi$}	[]	11
