Q	U	V
{$V$}	{[mm$^3$]}	0.00924071
{$d_v$}	{[mm]}	0.260357
{$S_c$}	{[mm$^2$]}	0.4638
{$S_o$}	{[mm$^2$]}	0.286061
{$S_l/S_o$}	[]	0.621333
{$\Psi$}	[]	0.459152
{$\eta$}	[]	0.502191
{med($\theta_e$)}	{[$^\circ$]}	63.33665
{$\Upsilon$}	[]	13
{$\Xi$}	[]	11
