Q	U	V
{$V$}	{[mm$^3$]}	0.00215997
{$d_v$}	{[mm]}	0.160380
{$S_c$}	{[mm$^2$]}	0.200356
{$S_o$}	{[mm$^2$]}	0.0982212
{$S_l/S_o$}	[]	1.039845
{$\Psi$}	[]	0.403317
{$\eta$}	[]	0.656287
{med($\theta_e$)}	{[$^\circ$]}	74.8398
{$\Upsilon$}	[]	7
{$\Xi$}	[]	9
