Q	U	V
{$V$}	{[mm$^3$]}	0.0108675
{$d_v$}	{[mm]}	0.274817
{$S_c$}	{[mm$^2$]}	0.445116
{$S_o$}	{[mm$^2$]}	0.259271
{$S_l/S_o$}	[]	0.716798
{$\Psi$}	[]	0.533045
{$\eta$}	[]	0.586591
{med($\theta_e$)}	{[$^\circ$]}	79.47885
{$\Upsilon$}	[]	10
{$\Xi$}	[]	10
