Q	U	V
{$V$}	{[mm$^3$]}	0.00171586
{$d_v$}	{[mm]}	0.148535
{$S_c$}	{[mm$^2$]}	0.173352
{$S_o$}	{[mm$^2$]}	0.0780333
{$S_l/S_o$}	[]	1.221513
{$\Psi$}	[]	0.399831
{$\eta$}	[]	0.415878
{med($\theta_e$)}	{[$^\circ$]}	
{$\Upsilon$}	[]	13
{$\Xi$}	[]	7
