Q	U	V
{$V$}	{[mm$^3$]}	0.00926327
{$d_v$}	{[mm]}	0.260568
{$S_c$}	{[mm$^2$]}	0.438319
{$S_o$}	{[mm$^2$]}	0.266888
{$S_l/S_o$}	[]	0.642333
{$\Psi$}	[]	0.486635
{$\eta$}	[]	0.538740
{med($\theta_e$)}	{[$^\circ$]}	69.9398
{$\Upsilon$}	[]	13
{$\Xi$}	[]	7
