Q	U	V
{$V$}	{[mm$^3$]}	0.00277388
{$d_v$}	{[mm]}	0.174326
{$S_c$}	{[mm$^2$]}	0.138785
{$S_o$}	{[mm$^2$]}	0.0869577
{$S_l/S_o$}	[]	0.596006
{$\Psi$}	[]	0.687913
{$\eta$}	[]	0.700770
{med($\theta_e$)}	{[$^\circ$]}	57.31785
{$\Upsilon$}	[]	16
{$\Xi$}	[]	8
