Q	U	V
{$V$}	{[mm$^3$]}	0.0105944
{$d_v$}	{[mm]}	0.272495
{$S_c$}	{[mm$^2$]}	0.380191
{$S_o$}	{[mm$^2$]}	0.263998
{$S_l/S_o$}	[]	0.440128
{$\Psi$}	[]	0.613573
{$\eta$}	[]	0.650618
{med($\theta_e$)}	{[$^\circ$]}	55.0205
{$\Upsilon$}	[]	19
{$\Xi$}	[]	12
