Q	U	V
{$V$}	{[mm$^3$]}	0.00199372
{$d_v$}	{[mm]}	0.156155
{$S_c$}	{[mm$^2$]}	0.128477
{$S_o$}	{[mm$^2$]}	0.0728523
{$S_l/S_o$}	[]	0.763527
{$\Psi$}	[]	0.596259
{$\eta$}	[]	0.624205
{med($\theta_e$)}	{[$^\circ$]}	61.49625
{$\Upsilon$}	[]	17
{$\Xi$}	[]	7
