Q	U	V
{$V$}	{[mm$^3$]}	0.0164806
{$d_v$}	{[mm]}	0.315737
{$S_c$}	{[mm$^2$]}	0.608139
{$S_o$}	{[mm$^2$]}	0.422638
{$S_l/S_o$}	[]	0.438912
{$\Psi$}	[]	0.514987
{$\eta$}	[]	0.579220
{med($\theta_e$)}	{[$^\circ$]}	60.1108
{$\Upsilon$}	[]	16
{$\Xi$}	[]	27
