Q	U	V
{$V$}	{[mm$^3$]}	0.00326073
{$d_v$}	{[mm]}	0.183981
{$S_c$}	{[mm$^2$]}	0.265757
{$S_o$}	{[mm$^2$]}	0.143923
{$S_l/S_o$}	[]	0.846522
{$\Psi$}	[]	0.400138
{$\eta$}	[]	0.790421
{med($\theta_e$)}	{[$^\circ$]}	85.0476
{$\Upsilon$}	[]	11
{$\Xi$}	[]	7
