Q	U	V
{$V$}	{[mm$^3$]}	0.00559169
{$d_v$}	{[mm]}	0.220216
{$S_c$}	{[mm$^2$]}	0.333947
{$S_o$}	{[mm$^2$]}	0.202548
{$S_l/S_o$}	[]	0.648730
{$\Psi$}	[]	0.456214
{$\eta$}	[]	0.476318
{med($\theta_e$)}	{[$^\circ$]}	
{$\Upsilon$}	[]	12
{$\Xi$}	[]	9
