Q	U	V
{$V$}	{[mm$^3$]}	0.00745598
{$d_v$}	{[mm]}	0.242383
{$S_c$}	{[mm$^2$]}	0.424244
{$S_o$}	{[mm$^2$]}	0.236974
{$S_l/S_o$}	[]	0.790255
{$\Psi$}	[]	0.435049
{$\eta$}	[]	0.442189
{med($\theta_e$)}	{[$^\circ$]}	66.30675
{$\Upsilon$}	[]	13
{$\Xi$}	[]	3
