Q	U	V
{$V$}	{[mm$^3$]}	0.00361934
{$d_v$}	{[mm]}	0.190492
{$S_c$}	{[mm$^2$]}	0.215056
{$S_o$}	{[mm$^2$]}	0.127772
{$S_l/S_o$}	[]	0.683123
{$\Psi$}	[]	0.530093
{$\eta$}	[]	0.649766
{med($\theta_e$)}	{[$^\circ$]}	69.8874
{$\Upsilon$}	[]	11
{$\Xi$}	[]	10
