Q	U	V
{$V$}	{[mm$^3$]}	0.00232146
{$d_v$}	{[mm]}	0.164281
{$S_c$}	{[mm$^2$]}	0.18713
{$S_o$}	{[mm$^2$]}	0.0985223
{$S_l/S_o$}	[]	0.899367
{$\Psi$}	[]	0.453087
{$\eta$}	[]	0.496280
{med($\theta_e$)}	{[$^\circ$]}	77.9062
{$\Upsilon$}	[]	12
{$\Xi$}	[]	0
