Q	U	V
{$V$}	{[mm$^3$]}	0.00740135
{$d_v$}	{[mm]}	0.241790
{$S_c$}	{[mm$^2$]}	0.313503
{$S_o$}	{[mm$^2$]}	0.187922
{$S_l/S_o$}	[]	0.668261
{$\Psi$}	[]	0.585845
{$\eta$}	[]	0.597650
{med($\theta_e$)}	{[$^\circ$]}	59.6523
{$\Upsilon$}	[]	12
{$\Xi$}	[]	5
