Q	U	V
{$V$}	{[mm$^3$]}	0.0049279
{$d_v$}	{[mm]}	0.211132
{$S_c$}	{[mm$^2$]}	0.298216
{$S_o$}	{[mm$^2$]}	0.179954
{$S_l/S_o$}	[]	0.657179
{$\Psi$}	[]	0.4696
{$\eta$}	[]	0.567857
{med($\theta_e$)}	{[$^\circ$]}	70.4427
{$\Upsilon$}	[]	13
{$\Xi$}	[]	4
