Q	U	V
{$V$}	{[mm$^3$]}	0.000847837
{$d_v$}	{[mm]}	0.117428
{$S_c$}	{[mm$^2$]}	0.0805138
{$S_o$}	{[mm$^2$]}	0.0437569
{$S_l/S_o$}	[]	0.840025
{$\Psi$}	[]	0.538049
{$\eta$}	[]	0.856355
{med($\theta_e$)}	{[$^\circ$]}	94.08955
{$\Upsilon$}	[]	16
{$\Xi$}	[]	5
