Q	U	V
{$V$}	{[mm$^3$]}	0.00245208
{$d_v$}	{[mm]}	0.167306
{$S_c$}	{[mm$^2$]}	0.140449
{$S_o$}	{[mm$^2$]}	0.0860771
{$S_l/S_o$}	[]	0.631665
{$\Psi$}	[]	0.626117
{$\eta$}	[]	0.643552
{med($\theta_e$)}	{[$^\circ$]}	95.711
{$\Upsilon$}	[]	17
{$\Xi$}	[]	9
