Q	U	V
{$V$}	{[mm$^3$]}	0.00247701
{$d_v$}	{[mm]}	0.167871
{$S_c$}	{[mm$^2$]}	0.128509
{$S_o$}	{[mm$^2$]}	0.0880775
{$S_l/S_o$}	[]	0.459045
{$\Psi$}	[]	0.68892
{$\eta$}	[]	0.730013
{med($\theta_e$)}	{[$^\circ$]}	58.04675
{$\Upsilon$}	[]	17
{$\Xi$}	[]	5
