Q	U	V
{$V$}	{[mm$^3$]}	0.0104175
{$d_v$}	{[mm]}	0.270970
{$S_c$}	{[mm$^2$]}	0.503306
{$S_o$}	{[mm$^2$]}	0.316137
{$S_l/S_o$}	[]	0.592050
{$\Psi$}	[]	0.458312
{$\eta$}	[]	0.496229
{med($\theta_e$)}	{[$^\circ$]}	85.5471
{$\Upsilon$}	[]	11
{$\Xi$}	[]	12
