Q	U	V
{$V$}	{[mm$^3$]}	0.00427362
{$d_v$}	{[mm]}	0.201341
{$S_c$}	{[mm$^2$]}	0.215462
{$S_o$}	{[mm$^2$]}	0.136068
{$S_l/S_o$}	[]	0.583488
{$\Psi$}	[]	0.591077
{$\eta$}	[]	0.636999
{med($\theta_e$)}	{[$^\circ$]}	47.326
{$\Upsilon$}	[]	18
{$\Xi$}	[]	8
