Q	U	V
{$V$}	{[mm$^3$]}	0.00178948
{$d_v$}	{[mm]}	0.150629
{$S_c$}	{[mm$^2$]}	0.122197
{$S_o$}	{[mm$^2$]}	0.0701142
{$S_l/S_o$}	[]	0.742828
{$\Psi$}	[]	0.583322
{$\eta$}	[]	0.623817
{med($\theta_e$)}	{[$^\circ$]}	61.37085
{$\Upsilon$}	[]	16
{$\Xi$}	[]	8
