Q	U	V
{$V$}	{[mm$^3$]}	0.00246395
{$d_v$}	{[mm]}	0.167576
{$S_c$}	{[mm$^2$]}	0.165779
{$S_o$}	{[mm$^2$]}	0.0928213
{$S_l/S_o$}	[]	0.786002
{$\Psi$}	[]	0.53216
{$\eta$}	[]	0.593620
{med($\theta_e$)}	{[$^\circ$]}	73.3596
{$\Upsilon$}	[]	12
{$\Xi$}	[]	2
