Q	U	V
{$V$}	{[mm$^3$]}	0.0161101
{$d_v$}	{[mm]}	0.313353
{$S_c$}	{[mm$^2$]}	0.744052
{$S_o$}	{[mm$^2$]}	0.41966
{$S_l/S_o$}	[]	0.772988
{$\Psi$}	[]	0.414584
{$\eta$}	[]	0.422690
{med($\theta_e$)}	{[$^\circ$]}	96.9155
{$\Upsilon$}	[]	11
{$\Xi$}	[]	17
