Q	U	V
{$V$}	{[mm$^3$]}	0.0010592
{$d_v$}	{[mm]}	0.126472
{$S_c$}	{[mm$^2$]}	0.0877896
{$S_o$}	{[mm$^2$]}	0.0470036
{$S_l/S_o$}	[]	0.867721
{$\Psi$}	[]	0.572391
{$\eta$}	[]	0.602566
{med($\theta_e$)}	{[$^\circ$]}	54.7212
{$\Upsilon$}	[]	15
{$\Xi$}	[]	3
