Q	U	V
{$V$}	{[mm$^3$]}	0.00348159
{$d_v$}	{[mm]}	0.188044
{$S_c$}	{[mm$^2$]}	0.219288
{$S_o$}	{[mm$^2$]}	0.126713
{$S_l/S_o$}	[]	0.730588
{$\Psi$}	[]	0.506587
{$\eta$}	[]	0.557386
{med($\theta_e$)}	{[$^\circ$]}	53.06
{$\Upsilon$}	[]	12
{$\Xi$}	[]	8
