Q	U	V
{$V$}	{[mm$^3$]}	0.00473316
{$d_v$}	{[mm]}	0.208314
{$S_c$}	{[mm$^2$]}	0.280179
{$S_o$}	{[mm$^2$]}	0.167042
{$S_l/S_o$}	[]	0.677297
{$\Psi$}	[]	0.486574
{$\eta$}	[]	0.541225
{med($\theta_e$)}	{[$^\circ$]}	103.1498
{$\Upsilon$}	[]	11
{$\Xi$}	[]	6
