Q	U	V
{$V$}	{[mm$^3$]}	0.00810076
{$d_v$}	{[mm]}	0.249178
{$S_c$}	{[mm$^2$]}	0.475641
{$S_o$}	{[mm$^2$]}	0.263044
{$S_l/S_o$}	[]	0.808218
{$\Psi$}	[]	0.410099
{$\eta$}	[]	0.449951
{med($\theta_e$)}	{[$^\circ$]}	72.3821
{$\Upsilon$}	[]	9
{$\Xi$}	[]	4
