Q	U	V
{$V$}	{[mm$^3$]}	0.00530551
{$d_v$}	{[mm]}	0.216393
{$S_c$}	{[mm$^2$]}	0.278437
{$S_o$}	{[mm$^2$]}	0.160404
{$S_l/S_o$}	[]	0.735848
{$\Psi$}	[]	0.528334
{$\eta$}	[]	0.551288
{med($\theta_e$)}	{[$^\circ$]}	
{$\Upsilon$}	[]	11
{$\Xi$}	[]	9
