Q	U	V
{$V$}	{[mm$^3$]}	0.00139762
{$d_v$}	{[mm]}	0.138717
{$S_c$}	{[mm$^2$]}	0.12445
{$S_o$}	{[mm$^2$]}	0.0679713
{$S_l/S_o$}	[]	0.830920
{$\Psi$}	[]	0.485753
{$\eta$}	[]	0.527171
{med($\theta_e$)}	{[$^\circ$]}	57.3658
{$\Upsilon$}	[]	18
{$\Xi$}	[]	7
