Q	U	V
{$V$}	{[mm$^3$]}	0.00839643
{$d_v$}	{[mm]}	0.252173
{$S_c$}	{[mm$^2$]}	0.441954
{$S_o$}	{[mm$^2$]}	0.280547
{$S_l/S_o$}	[]	0.575330
{$\Psi$}	[]	0.452033
{$\eta$}	[]	0.503652
{med($\theta_e$)}	{[$^\circ$]}	58.7157
{$\Upsilon$}	[]	15
{$\Xi$}	[]	20
