Q	U	V
{$V$}	{[mm$^3$]}	0.00662001
{$d_v$}	{[mm]}	0.232963
{$S_c$}	{[mm$^2$]}	0.348836
{$S_o$}	{[mm$^2$]}	0.207329
{$S_l/S_o$}	[]	0.682524
{$\Psi$}	[]	0.488767
{$\eta$}	[]	0.508841
{med($\theta_e$)}	{[$^\circ$]}	56.3507
{$\Upsilon$}	[]	14
{$\Xi$}	[]	6
