Q	U	V
{$V$}	{[mm$^3$]}	0.00476285
{$d_v$}	{[mm]}	0.208748
{$S_c$}	{[mm$^2$]}	0.274112
{$S_o$}	{[mm$^2$]}	0.168516
{$S_l/S_o$}	[]	0.626623
{$\Psi$}	[]	0.499422
{$\eta$}	[]	0.508482
{med($\theta_e$)}	{[$^\circ$]}	94.98245
{$\Upsilon$}	[]	19
{$\Xi$}	[]	8
