Q	U	V
{$V$}	{[mm$^3$]}	0.0199954
{$d_v$}	{[mm]}	0.336752
{$S_c$}	{[mm$^2$]}	0.590289
{$S_o$}	{[mm$^2$]}	0.423596
{$S_l/S_o$}	[]	0.393519
{$\Psi$}	[]	0.60354
{$\eta$}	[]	0.634377
{med($\theta_e$)}	{[$^\circ$]}	57.5823
{$\Upsilon$}	[]	20
{$\Xi$}	[]	20
