Q	U	V
{$V$}	{[mm$^3$]}	0.00350059
{$d_v$}	{[mm]}	0.188386
{$S_c$}	{[mm$^2$]}	0.233177
{$S_o$}	{[mm$^2$]}	0.13809
{$S_l/S_o$}	[]	0.688587
{$\Psi$}	[]	0.478145
{$\eta$}	[]	0.561959
{med($\theta_e$)}	{[$^\circ$]}	90.3166
{$\Upsilon$}	[]	9
{$\Xi$}	[]	5
