Q	U	V
{$V$}	{[mm$^3$]}	0.00683613
{$d_v$}	{[mm]}	0.235471
{$S_c$}	{[mm$^2$]}	0.36105
{$S_o$}	{[mm$^2$]}	0.219709
{$S_l/S_o$}	[]	0.643310
{$\Psi$}	[]	0.482455
{$\eta$}	[]	0.512635
{med($\theta_e$)}	{[$^\circ$]}	64.6763
{$\Upsilon$}	[]	9
{$\Xi$}	[]	8
