Q	U	V
{$V$}	{[mm$^3$]}	0.00615454
{$d_v$}	{[mm]}	0.227370
{$S_c$}	{[mm$^2$]}	0.339941
{$S_o$}	{[mm$^2$]}	0.187606
{$S_l/S_o$}	[]	0.811994
{$\Psi$}	[]	0.477761
{$\eta$}	[]	0.538343
{med($\theta_e$)}	{[$^\circ$]}	100.495
{$\Upsilon$}	[]	9
{$\Xi$}	[]	10
