Q	U	V
{$V$}	{[mm$^3$]}	0.00293537
{$d_v$}	{[mm]}	0.177646
{$S_c$}	{[mm$^2$]}	0.219055
{$S_o$}	{[mm$^2$]}	0.117193
{$S_l/S_o$}	[]	0.869182
{$\Psi$}	[]	0.452591
{$\eta$}	[]	0.466340
{med($\theta_e$)}	{[$^\circ$]}	
{$\Upsilon$}	[]	17
{$\Xi$}	[]	7
