Q	U	V
{$V$}	{[mm$^3$]}	0.00361221
{$d_v$}	{[mm]}	0.190367
{$S_c$}	{[mm$^2$]}	0.265135
{$S_o$}	{[mm$^2$]}	0.139597
{$S_l/S_o$}	[]	0.899289
{$\Psi$}	[]	0.429404
{$\eta$}	[]	0.508560
{med($\theta_e$)}	{[$^\circ$]}	72.16245
{$\Upsilon$}	[]	9
{$\Xi$}	[]	10
