Q	U	V
{$V$}	{[mm$^3$]}	0.00818626
{$d_v$}	{[mm]}	0.250051
{$S_c$}	{[mm$^2$]}	0.44563
{$S_o$}	{[mm$^2$]}	0.253111
{$S_l/S_o$}	[]	0.760611
{$\Psi$}	[]	0.440792
{$\eta$}	[]	0.476142
{med($\theta_e$)}	{[$^\circ$]}	69.8214
{$\Upsilon$}	[]	13
{$\Xi$}	[]	17
