Q	U	V
{$V$}	{[mm$^3$]}	0.00614979
{$d_v$}	{[mm]}	0.227311
{$S_c$}	{[mm$^2$]}	0.387251
{$S_o$}	{[mm$^2$]}	0.218288
{$S_l/S_o$}	[]	0.774037
{$\Psi$}	[]	0.419178
{$\eta$}	[]	0.451162
{med($\theta_e$)}	{[$^\circ$]}	
{$\Upsilon$}	[]	15
{$\Xi$}	[]	17
