Q	U	V
{$V$}	{[mm$^3$]}	0.00758066
{$d_v$}	{[mm]}	0.243727
{$S_c$}	{[mm$^2$]}	0.424983
{$S_o$}	{[mm$^2$]}	0.253651
{$S_l/S_o$}	[]	0.675464
{$\Psi$}	[]	0.439121
{$\eta$}	[]	0.469816
{med($\theta_e$)}	{[$^\circ$]}	79.8974
{$\Upsilon$}	[]	12
{$\Xi$}	[]	10
