Q	U	V
{$V$}	{[mm$^3$]}	0.00548244
{$d_v$}	{[mm]}	0.218772
{$S_c$}	{[mm$^2$]}	0.26412
{$S_o$}	{[mm$^2$]}	0.168704
{$S_l/S_o$}	[]	0.565582
{$\Psi$}	[]	0.569288
{$\eta$}	[]	0.600488
{med($\theta_e$)}	{[$^\circ$]}	68.80515
{$\Upsilon$}	[]	16
{$\Xi$}	[]	14
