Q	U	V
{$V$}	{[mm$^3$]}	0.00118388
{$d_v$}	{[mm]}	0.131251
{$S_c$}	{[mm$^2$]}	0.0793267
{$S_o$}	{[mm$^2$]}	0.0482425
{$S_l/S_o$}	[]	0.644332
{$\Psi$}	[]	0.682239
{$\eta$}	[]	0.842726
{med($\theta_e$)}	{[$^\circ$]}	
{$\Upsilon$}	[]	16
{$\Xi$}	[]	11
