Q	U	V
{$V$}	{[mm$^3$]}	0.00346022
{$d_v$}	{[mm]}	0.187659
{$S_c$}	{[mm$^2$]}	0.263365
{$S_o$}	{[mm$^2$]}	0.133483
{$S_l/S_o$}	[]	0.973023
{$\Psi$}	[]	0.420077
{$\eta$}	[]	0.421966
{med($\theta_e$)}	{[$^\circ$]}	60.099
{$\Upsilon$}	[]	15
{$\Xi$}	[]	11
