Q	U	V
{$V$}	{[mm$^3$]}	0.00313723
{$d_v$}	{[mm]}	0.181628
{$S_c$}	{[mm$^2$]}	0.247544
{$S_o$}	{[mm$^2$]}	0.12931
{$S_l/S_o$}	[]	0.914345
{$\Psi$}	[]	0.418661
{$\eta$}	[]	0.446385
{med($\theta_e$)}	{[$^\circ$]}	82.7018
{$\Upsilon$}	[]	18
{$\Xi$}	[]	8
