Q	U	V
{$V$}	{[mm$^3$]}	0.00252332
{$d_v$}	{[mm]}	0.168911
{$S_c$}	{[mm$^2$]}	0.165693
{$S_o$}	{[mm$^2$]}	0.0930432
{$S_l/S_o$}	[]	0.780818
{$\Psi$}	[]	0.540955
{$\eta$}	[]	0.585595
{med($\theta_e$)}	{[$^\circ$]}	52.8328
{$\Upsilon$}	[]	14
{$\Xi$}	[]	4
