Q	U	V
{$V$}	{[mm$^3$]}	0.00376896
{$d_v$}	{[mm]}	0.193082
{$S_c$}	{[mm$^2$]}	0.280753
{$S_o$}	{[mm$^2$]}	0.152831
{$S_l/S_o$}	[]	0.837016
{$\Psi$}	[]	0.417165
{$\eta$}	[]	0.474848
{med($\theta_e$)}	{[$^\circ$]}	72.8025
{$\Upsilon$}	[]	14
{$\Xi$}	[]	18
