Q	U	V
{$V$}	{[mm$^3$]}	0.00371552
{$d_v$}	{[mm]}	0.192165
{$S_c$}	{[mm$^2$]}	0.188778
{$S_o$}	{[mm$^2$]}	0.114289
{$S_l/S_o$}	[]	0.651760
{$\Psi$}	[]	0.614534
{$\eta$}	[]	0.628156
{med($\theta_e$)}	{[$^\circ$]}	59.336
{$\Upsilon$}	[]	12
{$\Xi$}	[]	4
