Q	U	V
{$V$}	{[mm$^3$]}	0.0156565
{$d_v$}	{[mm]}	0.310384
{$S_c$}	{[mm$^2$]}	0.551768
{$S_o$}	{[mm$^2$]}	0.362104
{$S_l/S_o$}	[]	0.523783
{$\Psi$}	[]	0.548518
{$\eta$}	[]	0.586429
{med($\theta_e$)}	{[$^\circ$]}	56.9961
{$\Upsilon$}	[]	11
{$\Xi$}	[]	12
