Q	U	V
{$V$}	{[mm$^3$]}	0.00234283
{$d_v$}	{[mm]}	0.164784
{$S_c$}	{[mm$^2$]}	0.157605
{$S_o$}	{[mm$^2$]}	0.0882802
{$S_l/S_o$}	[]	0.785281
{$\Psi$}	[]	0.541263
{$\eta$}	[]	0.563346
{med($\theta_e$)}	{[$^\circ$]}	
{$\Upsilon$}	[]	17
{$\Xi$}	[]	9
