Q	U	V
{$V$}	{[mm$^3$]}	0.00190941
{$d_v$}	{[mm]}	0.153922
{$S_c$}	{[mm$^2$]}	0.188012
{$S_o$}	{[mm$^2$]}	0.0878711
{$S_l/S_o$}	[]	1.139634
{$\Psi$}	[]	0.395881
{$\eta$}	[]	0.414391
{med($\theta_e$)}	{[$^\circ$]}	
{$\Upsilon$}	[]	13
{$\Xi$}	[]	4
