Q	U	V
{$V$}	{[mm$^3$]}	0.00737642
{$d_v$}	{[mm]}	0.241518
{$S_c$}	{[mm$^2$]}	0.454564
{$S_o$}	{[mm$^2$]}	0.207887
{$S_l/S_o$}	[]	1.186592
{$\Psi$}	[]	0.403137
{$\eta$}	[]	0.468385
{med($\theta_e$)}	{[$^\circ$]}	85.5078
{$\Upsilon$}	[]	9
{$\Xi$}	[]	3
