Q	U	V
{$V$}	{[mm$^3$]}	0.00790127
{$d_v$}	{[mm]}	0.247115
{$S_c$}	{[mm$^2$]}	0.328355
{$S_o$}	{[mm$^2$]}	0.253641
{$S_l/S_o$}	[]	0.294566
{$\Psi$}	[]	0.584259
{$\eta$}	[]	0.624623
{med($\theta_e$)}	{[$^\circ$]}	63.068
{$\Upsilon$}	[]	13
{$\Xi$}	[]	10
