Q	U	V
{$V$}	{[mm$^3$]}	0.0101325
{$d_v$}	{[mm]}	0.268476
{$S_c$}	{[mm$^2$]}	0.504932
{$S_o$}	{[mm$^2$]}	0.259479
{$S_l/S_o$}	[]	0.945946
{$\Psi$}	[]	0.448465
{$\eta$}	[]	0.485770
{med($\theta_e$)}	{[$^\circ$]}	
{$\Upsilon$}	[]	14
{$\Xi$}	[]	15
