Q	U	V
{$V$}	{[mm$^3$]}	0.00380814
{$d_v$}	{[mm]}	0.193748
{$S_c$}	{[mm$^2$]}	0.202999
{$S_o$}	{[mm$^2$]}	0.119512
{$S_l/S_o$}	[]	0.698566
{$\Psi$}	[]	0.580941
{$\eta$}	[]	0.622841
{med($\theta_e$)}	{[$^\circ$]}	55.4139
{$\Upsilon$}	[]	14
{$\Xi$}	[]	9
