Q	U	V
{$V$}	{[mm$^3$]}	0.00875623
{$d_v$}	{[mm]}	0.255725
{$S_c$}	{[mm$^2$]}	0.386398
{$S_o$}	{[mm$^2$]}	0.246843
{$S_l/S_o$}	[]	0.565359
{$\Psi$}	[]	0.531693
{$\eta$}	[]	0.587855
{med($\theta_e$)}	{[$^\circ$]}	62.8901
{$\Upsilon$}	[]	14
{$\Xi$}	[]	19
