Q	U	V
{$V$}	{[mm$^3$]}	0.00324054
{$d_v$}	{[mm]}	0.183600
{$S_c$}	{[mm$^2$]}	0.245349
{$S_o$}	{[mm$^2$]}	0.128979
{$S_l/S_o$}	[]	0.902240
{$\Psi$}	[]	0.43163
{$\eta$}	[]	0.529063
{med($\theta_e$)}	{[$^\circ$]}	100.37205
{$\Upsilon$}	[]	16
{$\Xi$}	[]	14
