Q	U	V
{$V$}	{[mm$^3$]}	0.0083145
{$d_v$}	{[mm]}	0.251350
{$S_c$}	{[mm$^2$]}	0.417501
{$S_o$}	{[mm$^2$]}	0.22525
{$S_l/S_o$}	[]	0.853501
{$\Psi$}	[]	0.475391
{$\eta$}	[]	0.519929
{med($\theta_e$)}	{[$^\circ$]}	62.1664
{$\Upsilon$}	[]	11
{$\Xi$}	[]	13
