Q	U	V
{$V$}	{[mm$^3$]}	0.004219
{$d_v$}	{[mm]}	0.200480
{$S_c$}	{[mm$^2$]}	0.30587
{$S_o$}	{[mm$^2$]}	0.169989
{$S_l/S_o$}	[]	0.799352
{$\Psi$}	[]	0.412813
{$\eta$}	[]	0.426511
{med($\theta_e$)}	{[$^\circ$]}	80.1683
{$\Upsilon$}	[]	11
{$\Xi$}	[]	9
