Q	U	V
{$V$}	{[mm$^3$]}	0.00249364
{$d_v$}	{[mm]}	0.168246
{$S_c$}	{[mm$^2$]}	0.146894
{$S_o$}	{[mm$^2$]}	0.0917113
{$S_l/S_o$}	[]	0.601700
{$\Psi$}	[]	0.605391
{$\eta$}	[]	0.619093
{med($\theta_e$)}	{[$^\circ$]}	60.2374
{$\Upsilon$}	[]	16
{$\Xi$}	[]	7
