Q	U	V
{$V$}	{[mm$^3$]}	0.00492553
{$d_v$}	{[mm]}	0.211098
{$S_c$}	{[mm$^2$]}	0.314577
{$S_o$}	{[mm$^2$]}	0.166708
{$S_l/S_o$}	[]	0.886994
{$\Psi$}	[]	0.445033
{$\eta$}	[]	0.495475
{med($\theta_e$)}	{[$^\circ$]}	
{$\Upsilon$}	[]	16
{$\Xi$}	[]	13
