Q	U	V
{$V$}	{[mm$^3$]}	0.00495284
{$d_v$}	{[mm]}	0.211488
{$S_c$}	{[mm$^2$]}	0.265382
{$S_o$}	{[mm$^2$]}	0.156408
{$S_l/S_o$}	[]	0.696729
{$\Psi$}	[]	0.529479
{$\eta$}	[]	0.564692
{med($\theta_e$)}	{[$^\circ$]}	67.54
{$\Upsilon$}	[]	15
{$\Xi$}	[]	12
