Q	U	V
{$V$}	{[mm$^3$]}	0.00781577
{$d_v$}	{[mm]}	0.246221
{$S_c$}	{[mm$^2$]}	0.277979
{$S_o$}	{[mm$^2$]}	0.186582
{$S_l/S_o$}	[]	0.489849
{$\Psi$}	[]	0.685152
{$\eta$}	[]	0.724706
{med($\theta_e$)}	{[$^\circ$]}	56.66725
{$\Upsilon$}	[]	18
{$\Xi$}	[]	17
