Q	U	V
{$V$}	{[mm$^3$]}	0.00126226
{$d_v$}	{[mm]}	0.134086
{$S_c$}	{[mm$^2$]}	0.105879
{$S_o$}	{[mm$^2$]}	0.0649056
{$S_l/S_o$}	[]	0.631277
{$\Psi$}	[]	0.533466
{$\eta$}	[]	1.030176
{med($\theta_e$)}	{[$^\circ$]}	
{$\Upsilon$}	[]	16
{$\Xi$}	[]	10
