Q	U	V
{$V$}	{[mm$^3$]}	0.00741679
{$d_v$}	{[mm]}	0.241958
{$S_c$}	{[mm$^2$]}	0.449699
{$S_o$}	{[mm$^2$]}	0.245791
{$S_l/S_o$}	[]	0.829599
{$\Psi$}	[]	0.408984
{$\eta$}	[]	0.454626
{med($\theta_e$)}	{[$^\circ$]}	78.7837
{$\Upsilon$}	[]	13
{$\Xi$}	[]	2
