Q	U	V
{$V$}	{[mm$^3$]}	0.00535895
{$d_v$}	{[mm]}	0.217117
{$S_c$}	{[mm$^2$]}	0.262939
{$S_o$}	{[mm$^2$]}	0.174594
{$S_l/S_o$}	[]	0.506002
{$\Psi$}	[]	0.563225
{$\eta$}	[]	0.577868
{med($\theta_e$)}	{[$^\circ$]}	54.1534
{$\Upsilon$}	[]	17
{$\Xi$}	[]	11
