Q	U	V
{$V$}	{[mm$^3$]}	0.00376421
{$d_v$}	{[mm]}	0.193000
{$S_c$}	{[mm$^2$]}	0.235924
{$S_o$}	{[mm$^2$]}	0.132458
{$S_l/S_o$}	[]	0.781123
{$\Psi$}	[]	0.496015
{$\eta$}	[]	0.565877
{med($\theta_e$)}	{[$^\circ$]}	85.0574
{$\Upsilon$}	[]	13
{$\Xi$}	[]	6
