Q	U	V
{$V$}	{[mm$^3$]}	0.0172833
{$d_v$}	{[mm]}	0.320782
{$S_c$}	{[mm$^2$]}	0.519395
{$S_o$}	{[mm$^2$]}	0.382462
{$S_l/S_o$}	[]	0.358030
{$\Psi$}	[]	0.622402
{$\eta$}	[]	0.647688
{med($\theta_e$)}	{[$^\circ$]}	65.15725
{$\Upsilon$}	[]	16
{$\Xi$}	[]	23
