Q	U	V
{$V$}	{[mm$^3$]}	0.00324292
{$d_v$}	{[mm]}	0.183645
{$S_c$}	{[mm$^2$]}	0.218656
{$S_o$}	{[mm$^2$]}	0.116556
{$S_l/S_o$}	[]	0.875974
{$\Psi$}	[]	0.484559
{$\eta$}	[]	0.577400
{med($\theta_e$)}	{[$^\circ$]}	62.95685
{$\Upsilon$}	[]	12
{$\Xi$}	[]	6
