Q	U	V
{$V$}	{[mm$^3$]}	0.0218977
{$d_v$}	{[mm]}	0.347110
{$S_c$}	{[mm$^2$]}	0.8978
{$S_o$}	{[mm$^2$]}	0.497956
{$S_l/S_o$}	[]	0.802971
{$\Psi$}	[]	0.421603
{$\eta$}	[]	0.456412
{med($\theta_e$)}	{[$^\circ$]}	73.8693
{$\Upsilon$}	[]	10
{$\Xi$}	[]	26
