Q	U	V
{$V$}	{[mm$^3$]}	0.00216828
{$d_v$}	{[mm]}	0.160585
{$S_c$}	{[mm$^2$]}	0.147693
{$S_o$}	{[mm$^2$]}	0.0840851
{$S_l/S_o$}	[]	0.756471
{$\Psi$}	[]	0.548531
{$\eta$}	[]	0.753414
{med($\theta_e$)}	{[$^\circ$]}	68.32
{$\Upsilon$}	[]	18
{$\Xi$}	[]	14
