Q	U	V
{$V$}	{[mm$^3$]}	0.00548957
{$d_v$}	{[mm]}	0.218867
{$S_c$}	{[mm$^2$]}	0.325437
{$S_o$}	{[mm$^2$]}	0.179064
{$S_l/S_o$}	[]	0.817434
{$\Psi$}	[]	0.462427
{$\eta$}	[]	0.478538
{med($\theta_e$)}	{[$^\circ$]}	111.669
{$\Upsilon$}	[]	17
{$\Xi$}	[]	3
