Q	U	V
{$V$}	{[mm$^3$]}	0.00207209
{$d_v$}	{[mm]}	0.158175
{$S_c$}	{[mm$^2$]}	0.108413
{$S_o$}	{[mm$^2$]}	0.0692369
{$S_l/S_o$}	[]	0.565827
{$\Psi$}	[]	0.725006
{$\eta$}	[]	0.787012
{med($\theta_e$)}	{[$^\circ$]}	47.8801
{$\Upsilon$}	[]	17
{$\Xi$}	[]	6
