Q	U	V
{$V$}	{[mm$^3$]}	0.0039732
{$d_v$}	{[mm]}	0.196508
{$S_c$}	{[mm$^2$]}	0.267651
{$S_o$}	{[mm$^2$]}	0.142532
{$S_l/S_o$}	[]	0.877831
{$\Psi$}	[]	0.453255
{$\eta$}	[]	0.465969
{med($\theta_e$)}	{[$^\circ$]}	122.321
{$\Upsilon$}	[]	14
{$\Xi$}	[]	8
