Q	U	V
{$V$}	{[mm$^3$]}	0.00206141
{$d_v$}	{[mm]}	0.157902
{$S_c$}	{[mm$^2$]}	0.116277
{$S_o$}	{[mm$^2$]}	0.0806852
{$S_l/S_o$}	[]	0.441119
{$\Psi$}	[]	0.673648
{$\eta$}	[]	0.747543
{med($\theta_e$)}	{[$^\circ$]}	68.3872
{$\Upsilon$}	[]	16
{$\Xi$}	[]	9
