Q	U	V
{$V$}	{[mm$^3$]}	0.012106
{$d_v$}	{[mm]}	0.284884
{$S_c$}	{[mm$^2$]}	0.450073
{$S_o$}	{[mm$^2$]}	0.290369
{$S_l/S_o$}	[]	0.550004
{$\Psi$}	[]	0.566502
{$\eta$}	[]	0.586040
{med($\theta_e$)}	{[$^\circ$]}	65.00975
{$\Upsilon$}	[]	14
{$\Xi$}	[]	12
