Q	U	V
{$V$}	{[mm$^3$]}	0.00269194
{$d_v$}	{[mm]}	0.172593
{$S_c$}	{[mm$^2$]}	0.205792
{$S_o$}	{[mm$^2$]}	0.1052
{$S_l/S_o$}	[]	0.956198
{$\Psi$}	[]	0.454743
{$\eta$}	[]	0.523708
{med($\theta_e$)}	{[$^\circ$]}	78.1546
{$\Upsilon$}	[]	11
{$\Xi$}	[]	7
