Q	U	V
{$V$}	{[mm$^3$]}	0.0030743
{$d_v$}	{[mm]}	0.180405
{$S_c$}	{[mm$^2$]}	0.171941
{$S_o$}	{[mm$^2$]}	0.120014
{$S_l/S_o$}	[]	0.432675
{$\Psi$}	[]	0.59466
{$\eta$}	[]	0.648257
{med($\theta_e$)}	{[$^\circ$]}	77.034
{$\Upsilon$}	[]	13
{$\Xi$}	[]	5
