Q	U	V
{$V$}	{[mm$^3$]}	0.0126546
{$d_v$}	{[mm]}	0.289123
{$S_c$}	{[mm$^2$]}	0.459785
{$S_o$}	{[mm$^2$]}	0.350302
{$S_l/S_o$}	[]	0.312539
{$\Psi$}	[]	0.571165
{$\eta$}	[]	0.630756
{med($\theta_e$)}	{[$^\circ$]}	64.5269
{$\Upsilon$}	[]	12
{$\Xi$}	[]	8
