Q	U	V
{$V$}	{[mm$^3$]}	0.00405157
{$d_v$}	{[mm]}	0.197792
{$S_c$}	{[mm$^2$]}	0.283959
{$S_o$}	{[mm$^2$]}	0.151226
{$S_l/S_o$}	[]	0.877713
{$\Psi$}	[]	0.432823
{$\eta$}	[]	0.538532
{med($\theta_e$)}	{[$^\circ$]}	75.5545
{$\Upsilon$}	[]	10
{$\Xi$}	[]	8
