Q	U	V
{$V$}	{[mm$^3$]}	0.00973469
{$d_v$}	{[mm]}	0.264916
{$S_c$}	{[mm$^2$]}	0.358759
{$S_o$}	{[mm$^2$]}	0.255399
{$S_l/S_o$}	[]	0.404700
{$\Psi$}	[]	0.614558
{$\eta$}	[]	0.650877
{med($\theta_e$)}	{[$^\circ$]}	75.00555
{$\Upsilon$}	[]	8
{$\Xi$}	[]	12
