Q	U	V
{$V$}	{[mm$^3$]}	0.00522833
{$d_v$}	{[mm]}	0.215338
{$S_c$}	{[mm$^2$]}	0.361356
{$S_o$}	{[mm$^2$]}	0.211824
{$S_l/S_o$}	[]	0.705926
{$\Psi$}	[]	0.403142
{$\eta$}	[]	0.423339
{med($\theta_e$)}	{[$^\circ$]}	75.5965
{$\Upsilon$}	[]	11
{$\Xi$}	[]	6
