Q	U	V
{$V$}	{[mm$^3$]}	0.0120645
{$d_v$}	{[mm]}	0.284558
{$S_c$}	{[mm$^2$]}	0.603523
{$S_o$}	{[mm$^2$]}	0.382846
{$S_l/S_o$}	[]	0.576412
{$\Psi$}	[]	0.421499
{$\eta$}	[]	0.485728
{med($\theta_e$)}	{[$^\circ$]}	82.8082
{$\Upsilon$}	[]	12
{$\Xi$}	[]	5
