Q	U	V
{$V$}	{[mm$^3$]}	0.00767684
{$d_v$}	{[mm]}	0.244753
{$S_c$}	{[mm$^2$]}	0.349779
{$S_o$}	{[mm$^2$]}	0.226964
{$S_l/S_o$}	[]	0.541121
{$\Psi$}	[]	0.538037
{$\eta$}	[]	0.562775
{med($\theta_e$)}	{[$^\circ$]}	64.3028
{$\Upsilon$}	[]	12
{$\Xi$}	[]	9
