Q	U	V
{$V$}	{[mm$^3$]}	0.00771603
{$d_v$}	{[mm]}	0.245169
{$S_c$}	{[mm$^2$]}	0.436954
{$S_o$}	{[mm$^2$]}	0.271316
{$S_l/S_o$}	[]	0.610498
{$\Psi$}	[]	0.43216
{$\eta$}	[]	0.540222
{med($\theta_e$)}	{[$^\circ$]}	83.4157
{$\Upsilon$}	[]	15
{$\Xi$}	[]	20
