Q	U	V
{$V$}	{[mm$^3$]}	0.00271332
{$d_v$}	{[mm]}	0.173048
{$S_c$}	{[mm$^2$]}	0.223172
{$S_o$}	{[mm$^2$]}	0.125246
{$S_l/S_o$}	[]	0.781869
{$\Psi$}	[]	0.421546
{$\eta$}	[]	0.437420
{med($\theta_e$)}	{[$^\circ$]}	65.3433
{$\Upsilon$}	[]	11
{$\Xi$}	[]	7
