Q	U	V
{$V$}	{[mm$^3$]}	0.00193435
{$d_v$}	{[mm]}	0.154589
{$S_c$}	{[mm$^2$]}	0.136886
{$S_o$}	{[mm$^2$]}	0.0818211
{$S_l/S_o$}	[]	0.672991
{$\Psi$}	[]	0.548464
{$\eta$}	[]	0.611263
{med($\theta_e$)}	{[$^\circ$]}	67.19975
{$\Upsilon$}	[]	16
{$\Xi$}	[]	13
