Q	U	V
{$V$}	{[mm$^3$]}	0.00180254
{$d_v$}	{[mm]}	0.150995
{$S_c$}	{[mm$^2$]}	0.146664
{$S_o$}	{[mm$^2$]}	0.0805731
{$S_l/S_o$}	[]	0.820260
{$\Psi$}	[]	0.488372
{$\eta$}	[]	0.702272
{med($\theta_e$)}	{[$^\circ$]}	121.906
{$\Upsilon$}	[]	10
{$\Xi$}	[]	13
