Q	U	V
{$V$}	{[mm$^3$]}	0.00542663
{$d_v$}	{[mm]}	0.218027
{$S_c$}	{[mm$^2$]}	0.333972
{$S_o$}	{[mm$^2$]}	0.184781
{$S_l/S_o$}	[]	0.807394
{$\Psi$}	[]	0.447158
{$\eta$}	[]	0.460940
{med($\theta_e$)}	{[$^\circ$]}	105.968
{$\Upsilon$}	[]	14
{$\Xi$}	[]	6
