Q	U	V
{$V$}	{[mm$^3$]}	0.00351128
{$d_v$}	{[mm]}	0.188577
{$S_c$}	{[mm$^2$]}	0.18393
{$S_o$}	{[mm$^2$]}	0.0989806
{$S_l/S_o$}	[]	0.858243
{$\Psi$}	[]	0.607401
{$\eta$}	[]	0.643016
{med($\theta_e$)}	{[$^\circ$]}	75.8586
{$\Upsilon$}	[]	9
{$\Xi$}	[]	8
