Q	U	V
{$V$}	{[mm$^3$]}	0.00137744
{$d_v$}	{[mm]}	0.138046
{$S_c$}	{[mm$^2$]}	0.136954
{$S_o$}	{[mm$^2$]}	0.0629191
{$S_l/S_o$}	[]	1.176668
{$\Psi$}	[]	0.437144
{$\eta$}	[]	0.479409
{med($\theta_e$)}	{[$^\circ$]}	101.14395
{$\Upsilon$}	[]	13
{$\Xi$}	[]	9
