Q	U	V
{$V$}	{[mm$^3$]}	0.00341985
{$d_v$}	{[mm]}	0.186926
{$S_c$}	{[mm$^2$]}	0.203207
{$S_o$}	{[mm$^2$]}	0.11358
{$S_l/S_o$}	[]	0.789109
{$\Psi$}	[]	0.540195
{$\eta$}	[]	0.568696
{med($\theta_e$)}	{[$^\circ$]}	53.48745
{$\Upsilon$}	[]	15
{$\Xi$}	[]	9
