Q	U	V
{$V$}	{[mm$^3$]}	0.00142256
{$d_v$}	{[mm]}	0.139537
{$S_c$}	{[mm$^2$]}	0.123639
{$S_o$}	{[mm$^2$]}	0.0599319
{$S_l/S_o$}	[]	1.062991
{$\Psi$}	[]	0.494738
{$\eta$}	[]	0.544416
{med($\theta_e$)}	{[$^\circ$]}	
{$\Upsilon$}	[]	15
{$\Xi$}	[]	1
