Q	U	V
{$V$}	{[mm$^3$]}	0.00640271
{$d_v$}	{[mm]}	0.230385
{$S_c$}	{[mm$^2$]}	0.308157
{$S_o$}	{[mm$^2$]}	0.181066
{$S_l/S_o$}	[]	0.701904
{$\Psi$}	[]	0.541113
{$\eta$}	[]	0.610903
{med($\theta_e$)}	{[$^\circ$]}	
{$\Upsilon$}	[]	14
{$\Xi$}	[]	8
