Q	U	V
{$V$}	{[mm$^3$]}	0.00196879
{$d_v$}	{[mm]}	0.155501
{$S_c$}	{[mm$^2$]}	0.153982
{$S_o$}	{[mm$^2$]}	0.0849691
{$S_l/S_o$}	[]	0.812212
{$\Psi$}	[]	0.493341
{$\eta$}	[]	0.602665
{med($\theta_e$)}	{[$^\circ$]}	61.28895
{$\Upsilon$}	[]	12
{$\Xi$}	[]	8
