Q	U	V
{$V$}	{[mm$^3$]}	0.00250195
{$d_v$}	{[mm]}	0.168433
{$S_c$}	{[mm$^2$]}	0.215814
{$S_o$}	{[mm$^2$]}	0.107517
{$S_l/S_o$}	[]	1.007255
{$\Psi$}	[]	0.412975
{$\eta$}	[]	0.452779
{med($\theta_e$)}	{[$^\circ$]}	
{$\Upsilon$}	[]	13
{$\Xi$}	[]	6
