Q	U	V
{$V$}	{[mm$^3$]}	0.00217896
{$d_v$}	{[mm]}	0.160848
{$S_c$}	{[mm$^2$]}	0.16747
{$S_o$}	{[mm$^2$]}	0.0888921
{$S_l/S_o$}	[]	0.883969
{$\Psi$}	[]	0.485341
{$\eta$}	[]	0.503728
{med($\theta_e$)}	{[$^\circ$]}	
{$\Upsilon$}	[]	13
{$\Xi$}	[]	8
