Q	U	V
{$V$}	{[mm$^3$]}	0.00266344
{$d_v$}	{[mm]}	0.171981
{$S_c$}	{[mm$^2$]}	0.139931
{$S_o$}	{[mm$^2$]}	0.0856993
{$S_l/S_o$}	[]	0.632814
{$\Psi$}	[]	0.664047
{$\eta$}	[]	0.698436
{med($\theta_e$)}	{[$^\circ$]}	87.7705
{$\Upsilon$}	[]	11
{$\Xi$}	[]	6
