Q	U	V
{$V$}	{[mm$^3$]}	0.00261476
{$d_v$}	{[mm]}	0.170927
{$S_c$}	{[mm$^2$]}	0.139095
{$S_o$}	{[mm$^2$]}	0.0896353
{$S_l/S_o$}	[]	0.551788
{$\Psi$}	[]	0.659873
{$\eta$}	[]	0.687111
{med($\theta_e$)}	{[$^\circ$]}	63.2894
{$\Upsilon$}	[]	14
{$\Xi$}	[]	10
