Q	U	V
{$V$}	{[mm$^3$]}	0.0047486
{$d_v$}	{[mm]}	0.208540
{$S_c$}	{[mm$^2$]}	0.224757
{$S_o$}	{[mm$^2$]}	0.138427
{$S_l/S_o$}	[]	0.623650
{$\Psi$}	[]	0.607875
{$\eta$}	[]	0.652482
{med($\theta_e$)}	{[$^\circ$]}	71.40045
{$\Upsilon$}	[]	12
{$\Xi$}	[]	4
