Q	U	V
{$V$}	{[mm$^3$]}	0.00396607
{$d_v$}	{[mm]}	0.196391
{$S_c$}	{[mm$^2$]}	0.244723
{$S_o$}	{[mm$^2$]}	0.136775
{$S_l/S_o$}	[]	0.789238
{$\Psi$}	[]	0.495127
{$\eta$}	[]	0.578940
{med($\theta_e$)}	{[$^\circ$]}	97.0574
{$\Upsilon$}	[]	10
{$\Xi$}	[]	7
