Q	U	V
{$V$}	{[mm$^3$]}	0.018656
{$d_v$}	{[mm]}	0.329059
{$S_c$}	{[mm$^2$]}	0.530506
{$S_o$}	{[mm$^2$]}	0.382964
{$S_l/S_o$}	[]	0.385263
{$\Psi$}	[]	0.641219
{$\eta$}	[]	0.646730
{med($\theta_e$)}	{[$^\circ$]}	65.13415
{$\Upsilon$}	[]	12
{$\Xi$}	[]	25
