Q	U	V
{$V$}	{[mm$^3$]}	0.00719949
{$d_v$}	{[mm]}	0.239571
{$S_c$}	{[mm$^2$]}	0.275161
{$S_o$}	{[mm$^2$]}	0.18722
{$S_l/S_o$}	[]	0.469720
{$\Psi$}	[]	0.655287
{$\eta$}	[]	0.717216
{med($\theta_e$)}	{[$^\circ$]}	70.1637
{$\Upsilon$}	[]	11
{$\Xi$}	[]	6
