Q	U	V
{$V$}	{[mm$^3$]}	0.0067257
{$d_v$}	{[mm]}	0.234196
{$S_c$}	{[mm$^2$]}	0.24614
{$S_o$}	{[mm$^2$]}	0.178814
{$S_l/S_o$}	[]	0.376514
{$\Psi$}	[]	0.700047
{$\eta$}	[]	0.714756
{med($\theta_e$)}	{[$^\circ$]}	70.4957
{$\Upsilon$}	[]	15
{$\Xi$}	[]	6
