Q	U	V
{$V$}	{[mm$^3$]}	0.0120134
{$d_v$}	{[mm]}	0.284155
{$S_c$}	{[mm$^2$]}	0.410936
{$S_o$}	{[mm$^2$]}	0.295108
{$S_l/S_o$}	[]	0.392494
{$\Psi$}	[]	0.617287
{$\eta$}	[]	0.683009
{med($\theta_e$)}	{[$^\circ$]}	70.705
{$\Upsilon$}	[]	10
{$\Xi$}	[]	14
