Q	U	V
{$V$}	{[mm$^3$]}	0.00505971
{$d_v$}	{[mm]}	0.212998
{$S_c$}	{[mm$^2$]}	0.226216
{$S_o$}	{[mm$^2$]}	0.156583
{$S_l/S_o$}	[]	0.444703
{$\Psi$}	[]	0.630054
{$\eta$}	[]	0.670921
{med($\theta_e$)}	{[$^\circ$]}	62.39365
{$\Upsilon$}	[]	15
{$\Xi$}	[]	7
