Q	U	V
{$V$}	{[mm$^3$]}	0.00520933
{$d_v$}	{[mm]}	0.215077
{$S_c$}	{[mm$^2$]}	0.324639
{$S_o$}	{[mm$^2$]}	0.177839
{$S_l/S_o$}	[]	0.825466
{$\Psi$}	[]	0.447649
{$\eta$}	[]	0.483026
{med($\theta_e$)}	{[$^\circ$]}	
{$\Upsilon$}	[]	12
{$\Xi$}	[]	4
