Q	U	V
{$V$}	{[mm$^3$]}	0.00373333
{$d_v$}	{[mm]}	0.192471
{$S_c$}	{[mm$^2$]}	0.197243
{$S_o$}	{[mm$^2$]}	0.117352
{$S_l/S_o$}	[]	0.680781
{$\Psi$}	[]	0.590038
{$\eta$}	[]	0.638375
{med($\theta_e$)}	{[$^\circ$]}	66.4908
{$\Upsilon$}	[]	13
{$\Xi$}	[]	8
