Q	U	V
{$V$}	{[mm$^3$]}	0.00289974
{$d_v$}	{[mm]}	0.176924
{$S_c$}	{[mm$^2$]}	0.156147
{$S_o$}	{[mm$^2$]}	0.0942248
{$S_l/S_o$}	[]	0.657175
{$\Psi$}	[]	0.629781
{$\eta$}	[]	0.642472
{med($\theta_e$)}	{[$^\circ$]}	66.0904
{$\Upsilon$}	[]	10
{$\Xi$}	[]	1
