Q	U	V
{$V$}	{[mm$^3$]}	0.00675895
{$d_v$}	{[mm]}	0.234581
{$S_c$}	{[mm$^2$]}	0.312576
{$S_o$}	{[mm$^2$]}	0.19754
{$S_l/S_o$}	[]	0.582343
{$\Psi$}	[]	0.553072
{$\eta$}	[]	0.576612
{med($\theta_e$)}	{[$^\circ$]}	69.1344
{$\Upsilon$}	[]	16
{$\Xi$}	[]	13
