Q	U	V
{$V$}	{[mm$^3$]}	0.0162443
{$d_v$}	{[mm]}	0.314220
{$S_c$}	{[mm$^2$]}	0.536676
{$S_o$}	{[mm$^2$]}	0.398995
{$S_l/S_o$}	[]	0.345069
{$\Psi$}	[]	0.577971
{$\eta$}	[]	0.662213
{med($\theta_e$)}	{[$^\circ$]}	60.9419
{$\Upsilon$}	[]	15
{$\Xi$}	[]	18
