Q	U	V
{$V$}	{[mm$^3$]}	0.0103225
{$d_v$}	{[mm]}	0.270144
{$S_c$}	{[mm$^2$]}	0.370089
{$S_o$}	{[mm$^2$]}	0.265437
{$S_l/S_o$}	[]	0.394263
{$\Psi$}	[]	0.61949
{$\eta$}	[]	0.657223
{med($\theta_e$)}	{[$^\circ$]}	64.4355
{$\Upsilon$}	[]	12
{$\Xi$}	[]	11
