Q	U	V
{$V$}	{[mm$^3$]}	0.0185277
{$d_v$}	{[mm]}	0.328303
{$S_c$}	{[mm$^2$]}	0.504192
{$S_o$}	{[mm$^2$]}	0.399652
{$S_l/S_o$}	[]	0.261578
{$\Psi$}	[]	0.671587
{$\eta$}	[]	0.734639
{med($\theta_e$)}	{[$^\circ$]}	66.2468
{$\Upsilon$}	[]	16
{$\Xi$}	[]	14
