Q	U	V
{$V$}	{[mm$^3$]}	0.0137376
{$d_v$}	{[mm]}	0.297147
{$S_c$}	{[mm$^2$]}	0.635201
{$S_o$}	{[mm$^2$]}	0.356488
{$S_l/S_o$}	[]	0.781830
{$\Psi$}	[]	0.436697
{$\eta$}	[]	0.467302
{med($\theta_e$)}	{[$^\circ$]}	73.5451
{$\Upsilon$}	[]	10
{$\Xi$}	[]	29
