Q	U	V
{$V$}	{[mm$^3$]}	0.00553113
{$d_v$}	{[mm]}	0.219418
{$S_c$}	{[mm$^2$]}	0.279199
{$S_o$}	{[mm$^2$]}	0.158202
{$S_l/S_o$}	[]	0.764826
{$\Psi$}	[]	0.541726
{$\eta$}	[]	0.582996
{med($\theta_e$)}	{[$^\circ$]}	72.9004
{$\Upsilon$}	[]	10
{$\Xi$}	[]	4
