Q	U	V
{$V$}	{[mm$^3$]}	0.00702493
{$d_v$}	{[mm]}	0.237619
{$S_c$}	{[mm$^2$]}	0.328033
{$S_o$}	{[mm$^2$]}	0.207574
{$S_l/S_o$}	[]	0.580318
{$\Psi$}	[]	0.540748
{$\eta$}	[]	0.596047
{med($\theta_e$)}	{[$^\circ$]}	52.9791
{$\Upsilon$}	[]	14
{$\Xi$}	[]	11
