Q	U	V
{$V$}	{[mm$^3$]}	0.00920271
{$d_v$}	{[mm]}	0.259999
{$S_c$}	{[mm$^2$]}	0.515862
{$S_o$}	{[mm$^2$]}	0.290263
{$S_l/S_o$}	[]	0.777223
{$\Psi$}	[]	0.411681
{$\eta$}	[]	0.443636
{med($\theta_e$)}	{[$^\circ$]}	
{$\Upsilon$}	[]	16
{$\Xi$}	[]	18
