Q	U	V
{$V$}	{[mm$^3$]}	0.00933927
{$d_v$}	{[mm]}	0.261279
{$S_c$}	{[mm$^2$]}	0.39555
{$S_o$}	{[mm$^2$]}	0.257695
{$S_l/S_o$}	[]	0.534954
{$\Psi$}	[]	0.542198
{$\eta$}	[]	0.566212
{med($\theta_e$)}	{[$^\circ$]}	74.8023
{$\Upsilon$}	[]	14
{$\Xi$}	[]	4
