Q	U	V
{$V$}	{[mm$^3$]}	0.00680882
{$d_v$}	{[mm]}	0.235157
{$S_c$}	{[mm$^2$]}	0.326136
{$S_o$}	{[mm$^2$]}	0.209559
{$S_l/S_o$}	[]	0.556297
{$\Psi$}	[]	0.53268
{$\eta$}	[]	0.717701
{med($\theta_e$)}	{[$^\circ$]}	48.90085
{$\Upsilon$}	[]	12
{$\Xi$}	[]	18
