Q	U	V
{$V$}	{[mm$^3$]}	0.00158762
{$d_v$}	{[mm]}	0.144738
{$S_c$}	{[mm$^2$]}	0.131538
{$S_o$}	{[mm$^2$]}	0.067071
{$S_l/S_o$}	[]	0.961175
{$\Psi$}	[]	0.500339
{$\eta$}	[]	0.581935
{med($\theta_e$)}	{[$^\circ$]}	
{$\Upsilon$}	[]	18
{$\Xi$}	[]	7
