Q	U	V
{$V$}	{[mm$^3$]}	0.00417744
{$d_v$}	{[mm]}	0.199819
{$S_c$}	{[mm$^2$]}	0.249067
{$S_o$}	{[mm$^2$]}	0.146006
{$S_l/S_o$}	[]	0.705868
{$\Psi$}	[]	0.503626
{$\eta$}	[]	0.570557
{med($\theta_e$)}	{[$^\circ$]}	66.8395
{$\Upsilon$}	[]	15
{$\Xi$}	[]	9
