Q	U	V
{$V$}	{[mm$^3$]}	0.00479016
{$d_v$}	{[mm]}	0.209146
{$S_c$}	{[mm$^2$]}	0.282538
{$S_o$}	{[mm$^2$]}	0.158694
{$S_l/S_o$}	[]	0.780395
{$\Psi$}	[]	0.486378
{$\eta$}	[]	0.555108
{med($\theta_e$)}	{[$^\circ$]}	66.4649
{$\Upsilon$}	[]	15
{$\Xi$}	[]	11
