Q	U	V
{$V$}	{[mm$^3$]}	0.00174792
{$d_v$}	{[mm]}	0.149454
{$S_c$}	{[mm$^2$]}	0.158945
{$S_o$}	{[mm$^2$]}	0.0681498
{$S_l/S_o$}	[]	1.332289
{$\Psi$}	[]	0.441487
{$\eta$}	[]	0.477804
{med($\theta_e$)}	{[$^\circ$]}	
{$\Upsilon$}	[]	17
{$\Xi$}	[]	7
