Q	U	V
{$V$}	{[mm$^3$]}	0.005638
{$d_v$}	{[mm]}	0.220822
{$S_c$}	{[mm$^2$]}	0.373242
{$S_o$}	{[mm$^2$]}	0.162756
{$S_l/S_o$}	[]	1.293261
{$\Psi$}	[]	0.410434
{$\eta$}	[]	0.470277
{med($\theta_e$)}	{[$^\circ$]}	63.23775
{$\Upsilon$}	[]	8
{$\Xi$}	[]	18
