Q	U	V
{$V$}	{[mm$^3$]}	0.00338066
{$d_v$}	{[mm]}	0.186209
{$S_c$}	{[mm$^2$]}	0.18597
{$S_o$}	{[mm$^2$]}	0.112694
{$S_l/S_o$}	[]	0.650221
{$\Psi$}	[]	0.585745
{$\eta$}	[]	0.601258
{med($\theta_e$)}	{[$^\circ$]}	96.6534
{$\Upsilon$}	[]	12
{$\Xi$}	[]	8
