Q	U	V
{$V$}	{[mm$^3$]}	0.0100494
{$d_v$}	{[mm]}	0.267740
{$S_c$}	{[mm$^2$]}	0.367238
{$S_o$}	{[mm$^2$]}	0.235597
{$S_l/S_o$}	[]	0.558755
{$\Psi$}	[]	0.613239
{$\eta$}	[]	0.669560
{med($\theta_e$)}	{[$^\circ$]}	64.6194
{$\Upsilon$}	[]	16
{$\Xi$}	[]	11
