Q	U	V
{$V$}	{[mm$^3$]}	0.00266819
{$d_v$}	{[mm]}	0.172084
{$S_c$}	{[mm$^2$]}	0.198698
{$S_o$}	{[mm$^2$]}	0.0977363
{$S_l/S_o$}	[]	1.033001
{$\Psi$}	[]	0.468204
{$\eta$}	[]	0.513458
{med($\theta_e$)}	{[$^\circ$]}	
{$\Upsilon$}	[]	8
{$\Xi$}	[]	3
