Q	U	V
{$V$}	{[mm$^3$]}	0.00740017
{$d_v$}	{[mm]}	0.241777
{$S_c$}	{[mm$^2$]}	0.27449
{$S_o$}	{[mm$^2$]}	0.17934
{$S_l/S_o$}	[]	0.530556
{$\Psi$}	[]	0.66904
{$\eta$}	[]	0.700463
{med($\theta_e$)}	{[$^\circ$]}	52.8145
{$\Upsilon$}	[]	11
{$\Xi$}	[]	9
