Q	U	V
{$V$}	{[mm$^3$]}	0.00593248
{$d_v$}	{[mm]}	0.224601
{$S_c$}	{[mm$^2$]}	0.313957
{$S_o$}	{[mm$^2$]}	0.190681
{$S_l/S_o$}	[]	0.646504
{$\Psi$}	[]	0.504783
{$\eta$}	[]	0.626777
{med($\theta_e$)}	{[$^\circ$]}	65.8673
{$\Upsilon$}	[]	12
{$\Xi$}	[]	8
