Q	U	V
{$V$}	{[mm$^3$]}	0.00293299
{$d_v$}	{[mm]}	0.177598
{$S_c$}	{[mm$^2$]}	0.234147
{$S_o$}	{[mm$^2$]}	0.113842
{$S_l/S_o$}	[]	1.056772
{$\Psi$}	[]	0.423191
{$\eta$}	[]	0.511982
{med($\theta_e$)}	{[$^\circ$]}	
{$\Upsilon$}	[]	13
{$\Xi$}	[]	10
