Q	U	V
{$V$}	{[mm$^3$]}	0.004067
{$d_v$}	{[mm]}	0.198043
{$S_c$}	{[mm$^2$]}	0.289663
{$S_o$}	{[mm$^2$]}	0.129617
{$S_l/S_o$}	[]	1.234761
{$\Psi$}	[]	0.425377
{$\eta$}	[]	0.432858
{med($\theta_e$)}	{[$^\circ$]}	
{$\Upsilon$}	[]	11
{$\Xi$}	[]	4
