Q	U	V
{$V$}	{[mm$^3$]}	0.00162443
{$d_v$}	{[mm]}	0.145848
{$S_c$}	{[mm$^2$]}	0.129575
{$S_o$}	{[mm$^2$]}	0.0685557
{$S_l/S_o$}	[]	0.890069
{$\Psi$}	[]	0.515739
{$\eta$}	[]	0.640101
{med($\theta_e$)}	{[$^\circ$]}	
{$\Upsilon$}	[]	17
{$\Xi$}	[]	8
