Q	U	V
{$V$}	{[mm$^3$]}	0.00478303
{$d_v$}	{[mm]}	0.209043
{$S_c$}	{[mm$^2$]}	0.21698
{$S_o$}	{[mm$^2$]}	0.141285
{$S_l/S_o$}	[]	0.535761
{$\Psi$}	[]	0.632703
{$\eta$}	[]	0.679855
{med($\theta_e$)}	{[$^\circ$]}	52.74225
{$\Upsilon$}	[]	12
{$\Xi$}	[]	6
