Q	U	V
{$V$}	{[mm$^3$]}	0.000997455
{$d_v$}	{[mm]}	0.123965
{$S_c$}	{[mm$^2$]}	0.0627757
{$S_o$}	{[mm$^2$]}	0.0400598
{$S_l/S_o$}	[]	0.567050
{$\Psi$}	[]	0.76905
{$\eta$}	[]	0.791542
{med($\theta_e$)}	{[$^\circ$]}	73.1644
{$\Upsilon$}	[]	16
{$\Xi$}	[]	5
