Q	U	V
{$V$}	{[mm$^3$]}	0.0101942
{$d_v$}	{[mm]}	0.269020
{$S_c$}	{[mm$^2$]}	0.447464
{$S_o$}	{[mm$^2$]}	0.29754
{$S_l/S_o$}	[]	0.503878
{$\Psi$}	[]	0.508114
{$\eta$}	[]	0.570958
{med($\theta_e$)}	{[$^\circ$]}	60.4701
{$\Upsilon$}	[]	14
{$\Xi$}	[]	25
