Q	U	V
{$V$}	{[mm$^3$]}	0.00298524
{$d_v$}	{[mm]}	0.178646
{$S_c$}	{[mm$^2$]}	0.187445
{$S_o$}	{[mm$^2$]}	0.104703
{$S_l/S_o$}	[]	0.790254
{$\Psi$}	[]	0.534888
{$\eta$}	[]	0.606455
{med($\theta_e$)}	{[$^\circ$]}	68.7072
{$\Upsilon$}	[]	15
{$\Xi$}	[]	7
