Q	U	V
{$V$}	{[mm$^3$]}	0.00741085
{$d_v$}	{[mm]}	0.241893
{$S_c$}	{[mm$^2$]}	0.377574
{$S_o$}	{[mm$^2$]}	0.199356
{$S_l/S_o$}	[]	0.893969
{$\Psi$}	[]	0.486849
{$\eta$}	[]	0.541573
{med($\theta_e$)}	{[$^\circ$]}	62.27975
{$\Upsilon$}	[]	11
{$\Xi$}	[]	12
