Q	U	V
{$V$}	{[mm$^3$]}	0.011536
{$d_v$}	{[mm]}	0.280340
{$S_c$}	{[mm$^2$]}	0.555046
{$S_o$}	{[mm$^2$]}	0.312158
{$S_l/S_o$}	[]	0.778093
{$\Psi$}	[]	0.444828
{$\eta$}	[]	0.462482
{med($\theta_e$)}	{[$^\circ$]}	
{$\Upsilon$}	[]	12
{$\Xi$}	[]	10
