Q	U	V
{$V$}	{[mm$^3$]}	0.016401
{$d_v$}	{[mm]}	0.315227
{$S_c$}	{[mm$^2$]}	0.578685
{$S_o$}	{[mm$^2$]}	0.414676
{$S_l/S_o$}	[]	0.395511
{$\Psi$}	[]	0.539455
{$\eta$}	[]	0.576367
{med($\theta_e$)}	{[$^\circ$]}	69.7729
{$\Upsilon$}	[]	11
{$\Xi$}	[]	15
