Q	U	V
{$V$}	{[mm$^3$]}	0.00502409
{$d_v$}	{[mm]}	0.212497
{$S_c$}	{[mm$^2$]}	0.25013
{$S_o$}	{[mm$^2$]}	0.147143
{$S_l/S_o$}	[]	0.699911
{$\Psi$}	[]	0.56714
{$\eta$}	[]	0.619842
{med($\theta_e$)}	{[$^\circ$]}	67.5343
{$\Upsilon$}	[]	13
{$\Xi$}	[]	6
