Q	U	V
{$V$}	{[mm$^3$]}	0.00506565
{$d_v$}	{[mm]}	0.213081
{$S_c$}	{[mm$^2$]}	0.26389
{$S_o$}	{[mm$^2$]}	0.153498
{$S_l/S_o$}	[]	0.719175
{$\Psi$}	[]	0.540528
{$\eta$}	[]	0.600405
{med($\theta_e$)}	{[$^\circ$]}	57.3523
{$\Upsilon$}	[]	9
{$\Xi$}	[]	7
