Q	U	V
{$V$}	{[mm$^3$]}	0.00933095
{$d_v$}	{[mm]}	0.261202
{$S_c$}	{[mm$^2$]}	0.434557
{$S_o$}	{[mm$^2$]}	0.273146
{$S_l/S_o$}	[]	0.590933
{$\Psi$}	[]	0.493236
{$\eta$}	[]	0.515905
{med($\theta_e$)}	{[$^\circ$]}	119.6195
{$\Upsilon$}	[]	12
{$\Xi$}	[]	15
