Q	U	V
{$V$}	{[mm$^3$]}	0.0039257
{$d_v$}	{[mm]}	0.195722
{$S_c$}	{[mm$^2$]}	0.277835
{$S_o$}	{[mm$^2$]}	0.13804
{$S_l/S_o$}	[]	1.012714
{$\Psi$}	[]	0.433154
{$\eta$}	[]	0.435885
{med($\theta_e$)}	{[$^\circ$]}	
{$\Upsilon$}	[]	10
{$\Xi$}	[]	9
