Q	U	V
{$V$}	{[mm$^3$]}	0.00158999
{$d_v$}	{[mm]}	0.144810
{$S_c$}	{[mm$^2$]}	0.128884
{$S_o$}	{[mm$^2$]}	0.0671597
{$S_l/S_o$}	[]	0.919068
{$\Psi$}	[]	0.51115
{$\eta$}	[]	0.550128
{med($\theta_e$)}	{[$^\circ$]}	88.56535
{$\Upsilon$}	[]	13
{$\Xi$}	[]	6
