Q	U	V
{$V$}	{[mm$^3$]}	0.00837031
{$d_v$}	{[mm]}	0.251911
{$S_c$}	{[mm$^2$]}	0.302063
{$S_o$}	{[mm$^2$]}	0.201262
{$S_l/S_o$}	[]	0.500845
{$\Psi$}	[]	0.660006
{$\eta$}	[]	0.702698
{med($\theta_e$)}	{[$^\circ$]}	62.47445
{$\Upsilon$}	[]	14
{$\Xi$}	[]	19
