Q	U	V
{$V$}	{[mm$^3$]}	0.00786921
{$d_v$}	{[mm]}	0.246780
{$S_c$}	{[mm$^2$]}	0.349387
{$S_o$}	{[mm$^2$]}	0.231957
{$S_l/S_o$}	[]	0.506258
{$\Psi$}	[]	0.547602
{$\eta$}	[]	0.631243
{med($\theta_e$)}	{[$^\circ$]}	50.1137
{$\Upsilon$}	[]	17
{$\Xi$}	[]	8
