Q	U	V
{$V$}	{[mm$^3$]}	0.00686107
{$d_v$}	{[mm]}	0.235757
{$S_c$}	{[mm$^2$]}	0.336124
{$S_o$}	{[mm$^2$]}	0.200405
{$S_l/S_o$}	[]	0.677224
{$\Psi$}	[]	0.519492
{$\eta$}	[]	0.536704
{med($\theta_e$)}	{[$^\circ$]}	
{$\Upsilon$}	[]	15
{$\Xi$}	[]	7
