Q	U	V
{$V$}	{[mm$^3$]}	0.0117165
{$d_v$}	{[mm]}	0.281795
{$S_c$}	{[mm$^2$]}	0.577041
{$S_o$}	{[mm$^2$]}	0.332061
{$S_l/S_o$}	[]	0.737756
{$\Psi$}	[]	0.432324
{$\eta$}	[]	0.462988
{med($\theta_e$)}	{[$^\circ$]}	77.49965
{$\Upsilon$}	[]	11
{$\Xi$}	[]	22
