Q	U	V
{$V$}	{[mm$^3$]}	0.00931433
{$d_v$}	{[mm]}	0.261046
{$S_c$}	{[mm$^2$]}	0.399469
{$S_o$}	{[mm$^2$]}	0.275739
{$S_l/S_o$}	[]	0.448721
{$\Psi$}	[]	0.535923
{$\eta$}	[]	0.606718
{med($\theta_e$)}	{[$^\circ$]}	67.5326
{$\Upsilon$}	[]	15
{$\Xi$}	[]	20
