Q	U	V
{$V$}	{[mm$^3$]}	0.00223834
{$d_v$}	{[mm]}	0.162296
{$S_c$}	{[mm$^2$]}	0.173367
{$S_o$}	{[mm$^2$]}	0.0908257
{$S_l/S_o$}	[]	0.908788
{$\Psi$}	[]	0.477311
{$\eta$}	[]	0.561149
{med($\theta_e$)}	{[$^\circ$]}	106.95
{$\Upsilon$}	[]	12
{$\Xi$}	[]	7
