Q	U	V
{$V$}	{[mm$^3$]}	0.00319779
{$d_v$}	{[mm]}	0.182789
{$S_c$}	{[mm$^2$]}	0.165167
{$S_o$}	{[mm$^2$]}	0.108376
{$S_l/S_o$}	[]	0.524018
{$\Psi$}	[]	0.635517
{$\eta$}	[]	0.724558
{med($\theta_e$)}	{[$^\circ$]}	
{$\Upsilon$}	[]	12
{$\Xi$}	[]	7
