Q	U	V
{$V$}	{[mm$^3$]}	0.00262782
{$d_v$}	{[mm]}	0.171211
{$S_c$}	{[mm$^2$]}	0.16486
{$S_o$}	{[mm$^2$]}	0.094924
{$S_l/S_o$}	[]	0.736758
{$\Psi$}	[]	0.558598
{$\eta$}	[]	0.598229
{med($\theta_e$)}	{[$^\circ$]}	78.902
{$\Upsilon$}	[]	13
{$\Xi$}	[]	9
