Q	U	V
{$V$}	{[mm$^3$]}	0.00512977
{$d_v$}	{[mm]}	0.213977
{$S_c$}	{[mm$^2$]}	0.297122
{$S_o$}	{[mm$^2$]}	0.171762
{$S_l/S_o$}	[]	0.729847
{$\Psi$}	[]	0.484114
{$\eta$}	[]	0.557495
{med($\theta_e$)}	{[$^\circ$]}	63.9428
{$\Upsilon$}	[]	12
{$\Xi$}	[]	4
