Q	U	V
{$V$}	{[mm$^3$]}	0.00296505
{$d_v$}	{[mm]}	0.178242
{$S_c$}	{[mm$^2$]}	0.215599
{$S_o$}	{[mm$^2$]}	0.115506
{$S_l/S_o$}	[]	0.866561
{$\Psi$}	[]	0.462941
{$\eta$}	[]	0.508068
{med($\theta_e$)}	{[$^\circ$]}	82.49305
{$\Upsilon$}	[]	11
{$\Xi$}	[]	5
