Q	U	V
{$V$}	{[mm$^3$]}	0.00154606
{$d_v$}	{[mm]}	0.143464
{$S_c$}	{[mm$^2$]}	0.0789614
{$S_o$}	{[mm$^2$]}	0.0701382
{$S_l/S_o$}	[]	0.125797
{$\Psi$}	[]	0.81888
{$\eta$}	[]	0.867919
{med($\theta_e$)}	{[$^\circ$]}	61.1263
{$\Upsilon$}	[]	15
{$\Xi$}	[]	2
