Q	U	V
{$V$}	{[mm$^3$]}	0.00763766
{$d_v$}	{[mm]}	0.244336
{$S_c$}	{[mm$^2$]}	0.271082
{$S_o$}	{[mm$^2$]}	0.180126
{$S_l/S_o$}	[]	0.504958
{$\Psi$}	[]	0.691869
{$\eta$}	[]	0.701548
{med($\theta_e$)}	{[$^\circ$]}	57.771
{$\Upsilon$}	[]	13
{$\Xi$}	[]	13
