Q	U	V
{$V$}	{[mm$^3$]}	0.00772909
{$d_v$}	{[mm]}	0.245307
{$S_c$}	{[mm$^2$]}	0.416528
{$S_o$}	{[mm$^2$]}	0.230417
{$S_l/S_o$}	[]	0.807714
{$\Psi$}	[]	0.453864
{$\eta$}	[]	0.518599
{med($\theta_e$)}	{[$^\circ$]}	82.88445
{$\Upsilon$}	[]	9
{$\Xi$}	[]	15
