Q	U	V
{$V$}	{[mm$^3$]}	0.0018346
{$d_v$}	{[mm]}	0.151885
{$S_c$}	{[mm$^2$]}	0.118572
{$S_o$}	{[mm$^2$]}	0.0721747
{$S_l/S_o$}	[]	0.642847
{$\Psi$}	[]	0.611218
{$\eta$}	[]	0.682142
{med($\theta_e$)}	{[$^\circ$]}	58.90815
{$\Upsilon$}	[]	15
{$\Xi$}	[]	8
