Q	U	V
{$V$}	{[mm$^3$]}	0.00256013
{$d_v$}	{[mm]}	0.169728
{$S_c$}	{[mm$^2$]}	0.14628
{$S_o$}	{[mm$^2$]}	0.0847615
{$S_l/S_o$}	[]	0.725784
{$\Psi$}	[]	0.618691
{$\eta$}	[]	0.650837
{med($\theta_e$)}	{[$^\circ$]}	61.2234
{$\Upsilon$}	[]	12
{$\Xi$}	[]	6
