Q	U	V
{$V$}	{[mm$^3$]}	0.00220034
{$d_v$}	{[mm]}	0.161373
{$S_c$}	{[mm$^2$]}	0.198262
{$S_o$}	{[mm$^2$]}	0.0982215
{$S_l/S_o$}	[]	1.018519
{$\Psi$}	[]	0.41264
{$\eta$}	[]	0.502377
{med($\theta_e$)}	{[$^\circ$]}	
{$\Upsilon$}	[]	13
{$\Xi$}	[]	10
