Q	U	V
{$V$}	{[mm$^3$]}	0.001457
{$d_v$}	{[mm]}	0.140655
{$S_c$}	{[mm$^2$]}	0.108726
{$S_o$}	{[mm$^2$]}	0.0564427
{$S_l/S_o$}	[]	0.926308
{$\Psi$}	[]	0.571641
{$\eta$}	[]	0.636754
{med($\theta_e$)}	{[$^\circ$]}	54.11535
{$\Upsilon$}	[]	18
{$\Xi$}	[]	5
