Q	U	V
{$V$}	{[mm$^3$]}	0.0092419
{$d_v$}	{[mm]}	0.260368
{$S_c$}	{[mm$^2$]}	0.480404
{$S_o$}	{[mm$^2$]}	0.27294
{$S_l/S_o$}	[]	0.760108
{$\Psi$}	[]	0.443321
{$\eta$}	[]	0.482600
{med($\theta_e$)}	{[$^\circ$]}	
{$\Upsilon$}	[]	13
{$\Xi$}	[]	7
