Q	U	V
{$V$}	{[mm$^3$]}	0.00445292
{$d_v$}	{[mm]}	0.204118
{$S_c$}	{[mm$^2$]}	0.220779
{$S_o$}	{[mm$^2$]}	0.14668
{$S_l/S_o$}	[]	0.505175
{$\Psi$}	[]	0.592866
{$\eta$}	[]	0.600383
{med($\theta_e$)}	{[$^\circ$]}	61.9601
{$\Upsilon$}	[]	16
{$\Xi$}	[]	12
