Q	U	V
{$V$}	{[mm$^3$]}	0.00258982
{$d_v$}	{[mm]}	0.170382
{$S_c$}	{[mm$^2$]}	0.149935
{$S_o$}	{[mm$^2$]}	0.085405
{$S_l/S_o$}	[]	0.755576
{$\Psi$}	[]	0.608267
{$\eta$}	[]	0.657127
{med($\theta_e$)}	{[$^\circ$]}	69.3832
{$\Upsilon$}	[]	15
{$\Xi$}	[]	12
