Q	U	V
{$V$}	{[mm$^3$]}	0.0046156
{$d_v$}	{[mm]}	0.206574
{$S_c$}	{[mm$^2$]}	0.243412
{$S_o$}	{[mm$^2$]}	0.15249
{$S_l/S_o$}	[]	0.596249
{$\Psi$}	[]	0.550758
{$\eta$}	[]	0.578320
{med($\theta_e$)}	{[$^\circ$]}	48.82765
{$\Upsilon$}	[]	14
{$\Xi$}	[]	12
