Q	U	V
{$V$}	{[mm$^3$]}	0.00154131
{$d_v$}	{[mm]}	0.143317
{$S_c$}	{[mm$^2$]}	0.111403
{$S_o$}	{[mm$^2$]}	0.0606933
{$S_l/S_o$}	[]	0.835507
{$\Psi$}	[]	0.579225
{$\eta$}	[]	0.676994
{med($\theta_e$)}	{[$^\circ$]}	50.4444
{$\Upsilon$}	[]	14
{$\Xi$}	[]	7
