Q	U	V
{$V$}	{[mm$^3$]}	0.00564868
{$d_v$}	{[mm]}	0.220961
{$S_c$}	{[mm$^2$]}	0.259454
{$S_o$}	{[mm$^2$]}	0.168467
{$S_l/S_o$}	[]	0.540088
{$\Psi$}	[]	0.591183
{$\eta$}	[]	0.692497
{med($\theta_e$)}	{[$^\circ$]}	53.3801
{$\Upsilon$}	[]	15
{$\Xi$}	[]	19
