Q	U	V
{$V$}	{[mm$^3$]}	0.00434962
{$d_v$}	{[mm]}	0.202528
{$S_c$}	{[mm$^2$]}	0.242827
{$S_o$}	{[mm$^2$]}	0.144347
{$S_l/S_o$}	[]	0.682245
{$\Psi$}	[]	0.530666
{$\eta$}	[]	0.574644
{med($\theta_e$)}	{[$^\circ$]}	85.7728
{$\Upsilon$}	[]	12
{$\Xi$}	[]	6
