Q	U	V
{$V$}	{[mm$^3$]}	0.00178117
{$d_v$}	{[mm]}	0.150396
{$S_c$}	{[mm$^2$]}	0.121697
{$S_o$}	{[mm$^2$]}	0.0702106
{$S_l/S_o$}	[]	0.733314
{$\Psi$}	[]	0.583904
{$\eta$}	[]	0.627822
{med($\theta_e$)}	{[$^\circ$]}	
{$\Upsilon$}	[]	17
{$\Xi$}	[]	9
