Q	U	V
{$V$}	{[mm$^3$]}	0.000584224
{$d_v$}	{[mm]}	0.103719
{$S_c$}	{[mm$^2$]}	0.0533904
{$S_o$}	{[mm$^2$]}	0.0262796
{$S_l/S_o$}	[]	1.031629
{$\Psi$}	[]	0.633005
{$\eta$}	[]	1.011245
{med($\theta_e$)}	{[$^\circ$]}	
{$\Upsilon$}	[]	25
{$\Xi$}	[]	5
