Q	U	V
{$V$}	{[mm$^3$]}	0.00117557
{$d_v$}	{[mm]}	0.130943
{$S_c$}	{[mm$^2$]}	0.100017
{$S_o$}	{[mm$^2$]}	0.0532295
{$S_l/S_o$}	[]	0.878977
{$\Psi$}	[]	0.538571
{$\eta$}	[]	0.623709
{med($\theta_e$)}	{[$^\circ$]}	47.29065
{$\Upsilon$}	[]	18
{$\Xi$}	[]	6
