Q	U	V
{$V$}	{[mm$^3$]}	0.00261357
{$d_v$}	{[mm]}	0.170901
{$S_c$}	{[mm$^2$]}	0.16845
{$S_o$}	{[mm$^2$]}	0.0869943
{$S_l/S_o$}	[]	0.936334
{$\Psi$}	[]	0.544715
{$\eta$}	[]	0.587043
{med($\theta_e$)}	{[$^\circ$]}	
{$\Upsilon$}	[]	16
{$\Xi$}	[]	5
