Q	U	V
{$V$}	{[mm$^3$]}	0.00471416
{$d_v$}	{[mm]}	0.208034
{$S_c$}	{[mm$^2$]}	0.282115
{$S_o$}	{[mm$^2$]}	0.163344
{$S_l/S_o$}	[]	0.727122
{$\Psi$}	[]	0.481941
{$\eta$}	[]	0.556163
{med($\theta_e$)}	{[$^\circ$]}	61.14805
{$\Upsilon$}	[]	14
{$\Xi$}	[]	11
