Q	U	V
{$V$}	{[mm$^3$]}	0.00422375
{$d_v$}	{[mm]}	0.200555
{$S_c$}	{[mm$^2$]}	0.20643
{$S_o$}	{[mm$^2$]}	0.132392
{$S_l/S_o$}	[]	0.559233
{$\Psi$}	[]	0.61213
{$\eta$}	[]	0.625306
{med($\theta_e$)}	{[$^\circ$]}	59.2193
{$\Upsilon$}	[]	14
{$\Xi$}	[]	18
