Q	U	V
{$V$}	{[mm$^3$]}	0.0173462
{$d_v$}	{[mm]}	0.321170
{$S_c$}	{[mm$^2$]}	0.662318
{$S_o$}	{[mm$^2$]}	0.414562
{$S_l/S_o$}	[]	0.597633
{$\Psi$}	[]	0.489276
{$\eta$}	[]	0.507617
{med($\theta_e$)}	{[$^\circ$]}	69.2124
{$\Upsilon$}	[]	15
{$\Xi$}	[]	21
