Q	U	V
{$V$}	{[mm$^3$]}	0.00353622
{$d_v$}	{[mm]}	0.189023
{$S_c$}	{[mm$^2$]}	0.193693
{$S_o$}	{[mm$^2$]}	0.126623
{$S_l/S_o$}	[]	0.529683
{$\Psi$}	[]	0.579513
{$\eta$}	[]	0.604007
{med($\theta_e$)}	{[$^\circ$]}	63.1301
{$\Upsilon$}	[]	16
{$\Xi$}	[]	9
