Q	U	V
{$V$}	{[mm$^3$]}	0.00390195
{$d_v$}	{[mm]}	0.195326
{$S_c$}	{[mm$^2$]}	0.234727
{$S_o$}	{[mm$^2$]}	0.132889
{$S_l/S_o$}	[]	0.766339
{$\Psi$}	[]	0.510633
{$\eta$}	[]	0.563804
{med($\theta_e$)}	{[$^\circ$]}	64.9983
{$\Upsilon$}	[]	11
{$\Xi$}	[]	7
