Q	U	V
{$V$}	{[mm$^3$]}	0.00825275
{$d_v$}	{[mm]}	0.250726
{$S_c$}	{[mm$^2$]}	0.323646
{$S_o$}	{[mm$^2$]}	0.205921
{$S_l/S_o$}	[]	0.571700
{$\Psi$}	[]	0.61021
{$\eta$}	[]	0.617928
{med($\theta_e$)}	{[$^\circ$]}	57.54315
{$\Upsilon$}	[]	14
{$\Xi$}	[]	17
