Q	U	V
{$V$}	{[mm$^3$]}	0.0071793
{$d_v$}	{[mm]}	0.239347
{$S_c$}	{[mm$^2$]}	0.417816
{$S_o$}	{[mm$^2$]}	0.236099
{$S_l/S_o$}	[]	0.769664
{$\Psi$}	[]	0.430745
{$\eta$}	[]	0.469271
{med($\theta_e$)}	{[$^\circ$]}	95.25875
{$\Upsilon$}	[]	9
{$\Xi$}	[]	1
