Q	U	V
{$V$}	{[mm$^3$]}	0.00253045
{$d_v$}	{[mm]}	0.169070
{$S_c$}	{[mm$^2$]}	0.167079
{$S_o$}	{[mm$^2$]}	0.0951652
{$S_l/S_o$}	[]	0.755673
{$\Psi$}	[]	0.537478
{$\eta$}	[]	0.595737
{med($\theta_e$)}	{[$^\circ$]}	57.2677
{$\Upsilon$}	[]	9
{$\Xi$}	[]	6
