Q	U	V
{$V$}	{[mm$^3$]}	0.00401832
{$d_v$}	{[mm]}	0.197249
{$S_c$}	{[mm$^2$]}	0.206701
{$S_o$}	{[mm$^2$]}	0.14024
{$S_l/S_o$}	[]	0.473909
{$\Psi$}	[]	0.591341
{$\eta$}	[]	0.610442
{med($\theta_e$)}	{[$^\circ$]}	64.09165
{$\Upsilon$}	[]	15
{$\Xi$}	[]	9
