Q	U	V
{$V$}	{[mm$^3$]}	0.00211365
{$d_v$}	{[mm]}	0.159225
{$S_c$}	{[mm$^2$]}	0.177186
{$S_o$}	{[mm$^2$]}	0.089691
{$S_l/S_o$}	[]	0.975516
{$\Psi$}	[]	0.449514
{$\eta$}	[]	0.624609
{med($\theta_e$)}	{[$^\circ$]}	65.3228
{$\Upsilon$}	[]	11
{$\Xi$}	[]	8
