Q	U	V
{$V$}	{[mm$^3$]}	0.00281781
{$d_v$}	{[mm]}	0.175242
{$S_c$}	{[mm$^2$]}	0.196039
{$S_o$}	{[mm$^2$]}	0.107157
{$S_l/S_o$}	[]	0.829456
{$\Psi$}	[]	0.492133
{$\eta$}	[]	0.605415
{med($\theta_e$)}	{[$^\circ$]}	54.2595
{$\Upsilon$}	[]	18
{$\Xi$}	[]	10
