Q	U	V
{$V$}	{[mm$^3$]}	0.00401119
{$d_v$}	{[mm]}	0.197132
{$S_c$}	{[mm$^2$]}	0.235595
{$S_o$}	{[mm$^2$]}	0.134815
{$S_l/S_o$}	[]	0.747543
{$\Psi$}	[]	0.518203
{$\eta$}	[]	0.566425
{med($\theta_e$)}	{[$^\circ$]}	61.84285
{$\Upsilon$}	[]	13
{$\Xi$}	[]	10
