Q	U	V
{$V$}	{[mm$^3$]}	0.0129586
{$d_v$}	{[mm]}	0.291420
{$S_c$}	{[mm$^2$]}	0.397491
{$S_o$}	{[mm$^2$]}	0.293003
{$S_l/S_o$}	[]	0.356611
{$\Psi$}	[]	0.671216
{$\eta$}	[]	0.691870
{med($\theta_e$)}	{[$^\circ$]}	68.3373
{$\Upsilon$}	[]	14
{$\Xi$}	[]	3
