Q	U	V
{$V$}	{[mm$^3$]}	0.0153109
{$d_v$}	{[mm]}	0.308083
{$S_c$}	{[mm$^2$]}	0.592411
{$S_o$}	{[mm$^2$]}	0.364867
{$S_l/S_o$}	[]	0.623635
{$\Psi$}	[]	0.50334
{$\eta$}	[]	0.555364
{med($\theta_e$)}	{[$^\circ$]}	62.8129
{$\Upsilon$}	[]	11
{$\Xi$}	[]	12
