Q	U	V
{$V$}	{[mm$^3$]}	0.00993774
{$d_v$}	{[mm]}	0.266745
{$S_c$}	{[mm$^2$]}	0.467473
{$S_o$}	{[mm$^2$]}	0.267
{$S_l/S_o$}	[]	0.750835
{$\Psi$}	[]	0.478174
{$\eta$}	[]	0.527864
{med($\theta_e$)}	{[$^\circ$]}	72.20355
{$\Upsilon$}	[]	11
{$\Xi$}	[]	7
