Q	U	V
{$V$}	{[mm$^3$]}	0.00970975
{$d_v$}	{[mm]}	0.264689
{$S_c$}	{[mm$^2$]}	0.457926
{$S_o$}	{[mm$^2$]}	0.270341
{$S_l/S_o$}	[]	0.693883
{$\Psi$}	[]	0.480648
{$\eta$}	[]	0.507586
{med($\theta_e$)}	{[$^\circ$]}	71.8345
{$\Upsilon$}	[]	13
{$\Xi$}	[]	21
