Q	U	V
{$V$}	{[mm$^3$]}	0.0121891
{$d_v$}	{[mm]}	0.285534
{$S_c$}	{[mm$^2$]}	0.581474
{$S_o$}	{[mm$^2$]}	0.362068
{$S_l/S_o$}	[]	0.605980
{$\Psi$}	[]	0.440489
{$\eta$}	[]	0.493628
{med($\theta_e$)}	{[$^\circ$]}	73.8567
{$\Upsilon$}	[]	11
{$\Xi$}	[]	17
