Q	U	V
{$V$}	{[mm$^3$]}	0.00103664
{$d_v$}	{[mm]}	0.125567
{$S_c$}	{[mm$^2$]}	0.0943253
{$S_o$}	{[mm$^2$]}	0.0476898
{$S_l/S_o$}	[]	0.977893
{$\Psi$}	[]	0.525139
{$\eta$}	[]	0.623865
{med($\theta_e$)}	{[$^\circ$]}	95.9074
{$\Upsilon$}	[]	16
{$\Xi$}	[]	9
