Q	U	V
{$V$}	{[mm$^3$]}	0.00756403
{$d_v$}	{[mm]}	0.243548
{$S_c$}	{[mm$^2$]}	0.388617
{$S_o$}	{[mm$^2$]}	0.230702
{$S_l/S_o$}	[]	0.684498
{$\Psi$}	[]	0.47951
{$\eta$}	[]	0.543301
{med($\theta_e$)}	{[$^\circ$]}	51.84945
{$\Upsilon$}	[]	15
{$\Xi$}	[]	9
