Q	U	V
{$V$}	{[mm$^3$]}	0.00529245
{$d_v$}	{[mm]}	0.216215
{$S_c$}	{[mm$^2$]}	0.247235
{$S_o$}	{[mm$^2$]}	0.143869
{$S_l/S_o$}	[]	0.718473
{$\Psi$}	[]	0.594035
{$\eta$}	[]	0.622380
{med($\theta_e$)}	{[$^\circ$]}	97.37765
{$\Upsilon$}	[]	15
{$\Xi$}	[]	16
