Q	U	V
{$V$}	{[mm$^3$]}	0.00316573
{$d_v$}	{[mm]}	0.182176
{$S_c$}	{[mm$^2$]}	0.168919
{$S_o$}	{[mm$^2$]}	0.121071
{$S_l/S_o$}	[]	0.395206
{$\Psi$}	[]	0.617241
{$\eta$}	[]	0.682120
{med($\theta_e$)}	{[$^\circ$]}	78.1786
{$\Upsilon$}	[]	12
{$\Xi$}	[]	7
