Q	U	V
{$V$}	{[mm$^3$]}	0.0172904
{$d_v$}	{[mm]}	0.320825
{$S_c$}	{[mm$^2$]}	0.510094
{$S_o$}	{[mm$^2$]}	0.347211
{$S_l/S_o$}	[]	0.469118
{$\Psi$}	[]	0.633924
{$\eta$}	[]	0.635573
{med($\theta_e$)}	{[$^\circ$]}	60.2866
{$\Upsilon$}	[]	12
{$\Xi$}	[]	20
