Q	U	V
{$V$}	{[mm$^3$]}	0.0107701
{$d_v$}	{[mm]}	0.273994
{$S_c$}	{[mm$^2$]}	0.452336
{$S_o$}	{[mm$^2$]}	0.307711
{$S_l/S_o$}	[]	0.470003
{$\Psi$}	[]	0.521398
{$\eta$}	[]	0.545725
{med($\theta_e$)}	{[$^\circ$]}	58.89215
{$\Upsilon$}	[]	15
{$\Xi$}	[]	16
