Q	U	V
{$V$}	{[mm$^3$]}	0.00257913
{$d_v$}	{[mm]}	0.170147
{$S_c$}	{[mm$^2$]}	0.167831
{$S_o$}	{[mm$^2$]}	0.0989495
{$S_l/S_o$}	[]	0.696128
{$\Psi$}	[]	0.54191
{$\eta$}	[]	0.610859
{med($\theta_e$)}	{[$^\circ$]}	62.3862
{$\Upsilon$}	[]	16
{$\Xi$}	[]	6
