Q	U	V
{$V$}	{[mm$^3$]}	0.0108153
{$d_v$}	{[mm]}	0.274376
{$S_c$}	{[mm$^2$]}	0.530378
{$S_o$}	{[mm$^2$]}	0.292319
{$S_l/S_o$}	[]	0.814381
{$\Psi$}	[]	0.445921
{$\eta$}	[]	0.456163
{med($\theta_e$)}	{[$^\circ$]}	78.38055
{$\Upsilon$}	[]	11
{$\Xi$}	[]	12
