Q	U	V
{$V$}	{[mm$^3$]}	0.00467498
{$d_v$}	{[mm]}	0.207456
{$S_c$}	{[mm$^2$]}	0.199436
{$S_o$}	{[mm$^2$]}	0.127685
{$S_l/S_o$}	[]	0.561938
{$\Psi$}	[]	0.677954
{$\eta$}	[]	0.755636
{med($\theta_e$)}	{[$^\circ$]}	59.4236
{$\Upsilon$}	[]	13
{$\Xi$}	[]	8
