Q	U	V
{$V$}	{[mm$^3$]}	0.0018726
{$d_v$}	{[mm]}	0.152926
{$S_c$}	{[mm$^2$]}	0.174501
{$S_o$}	{[mm$^2$]}	0.0831792
{$S_l/S_o$}	[]	1.097892
{$\Psi$}	[]	0.421033
{$\eta$}	[]	0.448977
{med($\theta_e$)}	{[$^\circ$]}	66.55315
{$\Upsilon$}	[]	14
{$\Xi$}	[]	7
