Q	U	V
{$V$}	{[mm$^3$]}	0.0148158
{$d_v$}	{[mm]}	0.304726
{$S_c$}	{[mm$^2$]}	0.644204
{$S_o$}	{[mm$^2$]}	0.392666
{$S_l/S_o$}	[]	0.640590
{$\Psi$}	[]	0.452839
{$\eta$}	[]	0.473991
{med($\theta_e$)}	{[$^\circ$]}	
{$\Upsilon$}	[]	13
{$\Xi$}	[]	10
