Q	U	V
{$V$}	{[mm$^3$]}	0.00352078
{$d_v$}	{[mm]}	0.188747
{$S_c$}	{[mm$^2$]}	0.166233
{$S_o$}	{[mm$^2$]}	0.113053
{$S_l/S_o$}	[]	0.470399
{$\Psi$}	[]	0.673275
{$\eta$}	[]	0.707471
{med($\theta_e$)}	{[$^\circ$]}	57.0788
{$\Upsilon$}	[]	11
{$\Xi$}	[]	8
