Q	U	V
{$V$}	{[mm$^3$]}	0.00947939
{$d_v$}	{[mm]}	0.262579
{$S_c$}	{[mm$^2$]}	0.391883
{$S_o$}	{[mm$^2$]}	0.26361
{$S_l/S_o$}	[]	0.486601
{$\Psi$}	[]	0.552732
{$\eta$}	[]	0.615298
{med($\theta_e$)}	{[$^\circ$]}	49.46615
{$\Upsilon$}	[]	15
{$\Xi$}	[]	13
