Q	U	V
{$V$}	{[mm$^3$]}	0.0029698
{$d_v$}	{[mm]}	0.178338
{$S_c$}	{[mm$^2$]}	0.143675
{$S_o$}	{[mm$^2$]}	0.0849905
{$S_l/S_o$}	[]	0.690483
{$\Psi$}	[]	0.695432
{$\eta$}	[]	0.726696
{med($\theta_e$)}	{[$^\circ$]}	76.6768
{$\Upsilon$}	[]	15
{$\Xi$}	[]	5
