Q	U	V
{$V$}	{[mm$^3$]}	0.00683732
{$d_v$}	{[mm]}	0.235485
{$S_c$}	{[mm$^2$]}	0.249607
{$S_o$}	{[mm$^2$]}	0.164308
{$S_l/S_o$}	[]	0.519141
{$\Psi$}	[]	0.69794
{$\eta$}	[]	0.711022
{med($\theta_e$)}	{[$^\circ$]}	
{$\Upsilon$}	[]	13
{$\Xi$}	[]	10
