Q	U	V
{$V$}	{[mm$^3$]}	0.00371908
{$d_v$}	{[mm]}	0.192226
{$S_c$}	{[mm$^2$]}	0.214093
{$S_o$}	{[mm$^2$]}	0.128653
{$S_l/S_o$}	[]	0.664112
{$\Psi$}	[]	0.542216
{$\eta$}	[]	0.636499
{med($\theta_e$)}	{[$^\circ$]}	61.73645
{$\Upsilon$}	[]	12
{$\Xi$}	[]	5
