Q	U	V
{$V$}	{[mm$^3$]}	0.00891297
{$d_v$}	{[mm]}	0.257242
{$S_c$}	{[mm$^2$]}	0.390551
{$S_o$}	{[mm$^2$]}	0.228393
{$S_l/S_o$}	[]	0.709995
{$\Psi$}	[]	0.532298
{$\eta$}	[]	0.581985
{med($\theta_e$)}	{[$^\circ$]}	57.08495
{$\Upsilon$}	[]	12
{$\Xi$}	[]	14
