Q	U	V
{$V$}	{[mm$^3$]}	0.000993893
{$d_v$}	{[mm]}	0.123817
{$S_c$}	{[mm$^2$]}	0.0849809
{$S_o$}	{[mm$^2$]}	0.0473396
{$S_l/S_o$}	[]	0.795133
{$\Psi$}	[]	0.566747
{$\eta$}	[]	0.651828
{med($\theta_e$)}	{[$^\circ$]}	68.4879
{$\Upsilon$}	[]	18
{$\Xi$}	[]	3
