Q	U	V
{$V$}	{[mm$^3$]}	0.00761034
{$d_v$}	{[mm]}	0.244044
{$S_c$}	{[mm$^2$]}	0.455251
{$S_o$}	{[mm$^2$]}	0.236479
{$S_l/S_o$}	[]	0.925122
{$\Psi$}	[]	0.410994
{$\eta$}	[]	0.438519
{med($\theta_e$)}	{[$^\circ$]}	
{$\Upsilon$}	[]	14
{$\Xi$}	[]	5
