Q	U	V
{$V$}	{[mm$^3$]}	0.00195572
{$d_v$}	{[mm]}	0.155156
{$S_c$}	{[mm$^2$]}	0.158065
{$S_o$}	{[mm$^2$]}	0.0789544
{$S_l/S_o$}	[]	1.001978
{$\Psi$}	[]	0.478468
{$\eta$}	[]	0.553766
{med($\theta_e$)}	{[$^\circ$]}	61.91505
{$\Upsilon$}	[]	18
{$\Xi$}	[]	9
