Q	U	V
{$V$}	{[mm$^3$]}	0.00294131
{$d_v$}	{[mm]}	0.177765
{$S_c$}	{[mm$^2$]}	0.154107
{$S_o$}	{[mm$^2$]}	0.0968234
{$S_l/S_o$}	[]	0.591630
{$\Psi$}	[]	0.644202
{$\eta$}	[]	0.678081
{med($\theta_e$)}	{[$^\circ$]}	71.2612
{$\Upsilon$}	[]	12
{$\Xi$}	[]	9
