Q	U	V
{$V$}	{[mm$^3$]}	0.00282612
{$d_v$}	{[mm]}	0.175414
{$S_c$}	{[mm$^2$]}	0.203039
{$S_o$}	{[mm$^2$]}	0.1152
{$S_l/S_o$}	[]	0.762491
{$\Psi$}	[]	0.4761
{$\eta$}	[]	0.566921
{med($\theta_e$)}	{[$^\circ$]}	67.8483
{$\Upsilon$}	[]	14
{$\Xi$}	[]	7
