Q	U	V
{$V$}	{[mm$^3$]}	0.00406463
{$d_v$}	{[mm]}	0.198004
{$S_c$}	{[mm$^2$]}	0.284257
{$S_o$}	{[mm$^2$]}	0.156742
{$S_l/S_o$}	[]	0.813534
{$\Psi$}	[]	0.433298
{$\eta$}	[]	0.479643
{med($\theta_e$)}	{[$^\circ$]}	102.76495
{$\Upsilon$}	[]	8
{$\Xi$}	[]	8
