Q	U	V
{$V$}	{[mm$^3$]}	0.00344003
{$d_v$}	{[mm]}	0.187293
{$S_c$}	{[mm$^2$]}	0.192193
{$S_o$}	{[mm$^2$]}	0.114062
{$S_l/S_o$}	[]	0.684987
{$\Psi$}	[]	0.573396
{$\eta$}	[]	0.681913
{med($\theta_e$)}	{[$^\circ$]}	72.68915
{$\Upsilon$}	[]	10
{$\Xi$}	[]	8
