Q	U	V
{$V$}	{[mm$^3$]}	0.00237727
{$d_v$}	{[mm]}	0.165587
{$S_c$}	{[mm$^2$]}	0.133877
{$S_o$}	{[mm$^2$]}	0.0782458
{$S_l/S_o$}	[]	0.710980
{$\Psi$}	[]	0.643424
{$\eta$}	[]	0.686559
{med($\theta_e$)}	{[$^\circ$]}	66.1856
{$\Upsilon$}	[]	12
{$\Xi$}	[]	9
