Q	U	V
{$V$}	{[mm$^3$]}	0.00993418
{$d_v$}	{[mm]}	0.266713
{$S_c$}	{[mm$^2$]}	0.477585
{$S_o$}	{[mm$^2$]}	0.28143
{$S_l/S_o$}	[]	0.696994
{$\Psi$}	[]	0.467938
{$\eta$}	[]	0.495325
{med($\theta_e$)}	{[$^\circ$]}	78.2845
{$\Upsilon$}	[]	14
{$\Xi$}	[]	28
