Q	U	V
{$V$}	{[mm$^3$]}	0.0152979
{$d_v$}	{[mm]}	0.307996
{$S_c$}	{[mm$^2$]}	0.605486
{$S_o$}	{[mm$^2$]}	0.422314
{$S_l/S_o$}	[]	0.433734
{$\Psi$}	[]	0.492192
{$\eta$}	[]	0.517512
{med($\theta_e$)}	{[$^\circ$]}	72.8407
{$\Upsilon$}	[]	8
{$\Xi$}	[]	24
