Q	U	V
{$V$}	{[mm$^3$]}	0.00669245
{$d_v$}	{[mm]}	0.233810
{$S_c$}	{[mm$^2$]}	0.369886
{$S_o$}	{[mm$^2$]}	0.210788
{$S_l/S_o$}	[]	0.754777
{$\Psi$}	[]	0.464308
{$\eta$}	[]	0.501752
{med($\theta_e$)}	{[$^\circ$]}	83.09555
{$\Upsilon$}	[]	15
{$\Xi$}	[]	10
