Q	U	V
{$V$}	{[mm$^3$]}	0.00309092
{$d_v$}	{[mm]}	0.180730
{$S_c$}	{[mm$^2$]}	0.202203
{$S_o$}	{[mm$^2$]}	0.101906
{$S_l/S_o$}	[]	0.984211
{$\Psi$}	[]	0.507483
{$\eta$}	[]	0.561495
{med($\theta_e$)}	{[$^\circ$]}	82.3429
{$\Upsilon$}	[]	13
{$\Xi$}	[]	8
