Q	U	V
{$V$}	{[mm$^3$]}	0.00516302
{$d_v$}	{[mm]}	0.214438
{$S_c$}	{[mm$^2$]}	0.303834
{$S_o$}	{[mm$^2$]}	0.16693
{$S_l/S_o$}	[]	0.820128
{$\Psi$}	[]	0.475463
{$\eta$}	[]	0.528904
{med($\theta_e$)}	{[$^\circ$]}	81.3281
{$\Upsilon$}	[]	14
{$\Xi$}	[]	8
