Q	U	V
{$V$}	{[mm$^3$]}	0.00278456
{$d_v$}	{[mm]}	0.174550
{$S_c$}	{[mm$^2$]}	0.159934
{$S_o$}	{[mm$^2$]}	0.100427
{$S_l/S_o$}	[]	0.592540
{$\Psi$}	[]	0.598477
{$\eta$}	[]	0.605000
{med($\theta_e$)}	{[$^\circ$]}	
{$\Upsilon$}	[]	15
{$\Xi$}	[]	4
