Q	U	V
{$V$}	{[mm$^3$]}	0.00126463
{$d_v$}	{[mm]}	0.134170
{$S_c$}	{[mm$^2$]}	0.0869049
{$S_o$}	{[mm$^2$]}	0.043414
{$S_l/S_o$}	[]	1.001771
{$\Psi$}	[]	0.650752
{$\eta$}	[]	0.661445
{med($\theta_e$)}	{[$^\circ$]}	60.22595
{$\Upsilon$}	[]	20
{$\Xi$}	[]	3
