Q	U	V
{$V$}	{[mm$^3$]}	0.00189873
{$d_v$}	{[mm]}	0.153634
{$S_c$}	{[mm$^2$]}	0.133476
{$S_o$}	{[mm$^2$]}	0.0776805
{$S_l/S_o$}	[]	0.718269
{$\Psi$}	[]	0.55555
{$\eta$}	[]	0.564215
{med($\theta_e$)}	{[$^\circ$]}	58.5905
{$\Upsilon$}	[]	15
{$\Xi$}	[]	11
