Q	U	V
{$V$}	{[mm$^3$]}	0.00333554
{$d_v$}	{[mm]}	0.185377
{$S_c$}	{[mm$^2$]}	0.167115
{$S_o$}	{[mm$^2$]}	0.106024
{$S_l/S_o$}	[]	0.576200
{$\Psi$}	[]	0.64602
{$\eta$}	[]	0.671777
{med($\theta_e$)}	{[$^\circ$]}	
{$\Upsilon$}	[]	17
{$\Xi$}	[]	11
