Q	U	V
{$V$}	{[mm$^3$]}	0.00137744
{$d_v$}	{[mm]}	0.138046
{$S_c$}	{[mm$^2$]}	0.111326
{$S_o$}	{[mm$^2$]}	0.0613308
{$S_l/S_o$}	[]	0.815173
{$\Psi$}	[]	0.537778
{$\eta$}	[]	0.564083
{med($\theta_e$)}	{[$^\circ$]}	104.33785
{$\Upsilon$}	[]	23
{$\Xi$}	[]	8
