Q	U	V
{$V$}	{[mm$^3$]}	0.00467616
{$d_v$}	{[mm]}	0.207474
{$S_c$}	{[mm$^2$]}	0.24637
{$S_o$}	{[mm$^2$]}	0.150979
{$S_l/S_o$}	[]	0.631816
{$\Psi$}	[]	0.548895
{$\eta$}	[]	0.646946
{med($\theta_e$)}	{[$^\circ$]}	73.378
{$\Upsilon$}	[]	13
{$\Xi$}	[]	8
