Q	U	V
{$V$}	{[mm$^3$]}	0.0189766
{$d_v$}	{[mm]}	0.330933
{$S_c$}	{[mm$^2$]}	0.612322
{$S_o$}	{[mm$^2$]}	0.428867
{$S_l/S_o$}	[]	0.427767
{$\Psi$}	[]	0.561888
{$\eta$}	[]	0.585021
{med($\theta_e$)}	{[$^\circ$]}	58.9592
{$\Upsilon$}	[]	11
{$\Xi$}	[]	19
