Q	U	V
{$V$}	{[mm$^3$]}	0.00312061
{$d_v$}	{[mm]}	0.181307
{$S_c$}	{[mm$^2$]}	0.227456
{$S_o$}	{[mm$^2$]}	0.121587
{$S_l/S_o$}	[]	0.870726
{$\Psi$}	[]	0.454025
{$\eta$}	[]	0.500426
{med($\theta_e$)}	{[$^\circ$]}	
{$\Upsilon$}	[]	16
{$\Xi$}	[]	11
