Q	U	V
{$V$}	{[mm$^3$]}	0.000727905
{$d_v$}	{[mm]}	0.111607
{$S_c$}	{[mm$^2$]}	0.0569463
{$S_o$}	{[mm$^2$]}	0.032578
{$S_l/S_o$}	[]	0.747999
{$\Psi$}	[]	0.687177
{$\eta$}	[]	0.729526
{med($\theta_e$)}	{[$^\circ$]}	60.9261
{$\Upsilon$}	[]	24
{$\Xi$}	[]	4
