Q	U	V
{$V$}	{[mm$^3$]}	0.0114814
{$d_v$}	{[mm]}	0.279897
{$S_c$}	{[mm$^2$]}	0.517669
{$S_o$}	{[mm$^2$]}	0.323746
{$S_l/S_o$}	[]	0.598997
{$\Psi$}	[]	0.475439
{$\eta$}	[]	0.518965
{med($\theta_e$)}	{[$^\circ$]}	93.5023
{$\Upsilon$}	[]	10
{$\Xi$}	[]	12
