Q	U	V
{$V$}	{[mm$^3$]}	0.00270857
{$d_v$}	{[mm]}	0.172947
{$S_c$}	{[mm$^2$]}	0.197942
{$S_o$}	{[mm$^2$]}	0.105779
{$S_l/S_o$}	[]	0.871279
{$\Psi$}	[]	0.474722
{$\eta$}	[]	0.563362
{med($\theta_e$)}	{[$^\circ$]}	63.001
{$\Upsilon$}	[]	12
{$\Xi$}	[]	9
