Q	U	V
{$V$}	{[mm$^3$]}	0.00772553
{$d_v$}	{[mm]}	0.245269
{$S_c$}	{[mm$^2$]}	0.3599
{$S_o$}	{[mm$^2$]}	0.214411
{$S_l/S_o$}	[]	0.678552
{$\Psi$}	[]	0.525115
{$\eta$}	[]	0.592370
{med($\theta_e$)}	{[$^\circ$]}	65.3827
{$\Upsilon$}	[]	12
{$\Xi$}	[]	15
