Q	U	V
{$V$}	{[mm$^3$]}	0.00336641
{$d_v$}	{[mm]}	0.185947
{$S_c$}	{[mm$^2$]}	0.15484
{$S_o$}	{[mm$^2$]}	0.0999764
{$S_l/S_o$}	[]	0.548766
{$\Psi$}	[]	0.701529
{$\eta$}	[]	0.716720
{med($\theta_e$)}	{[$^\circ$]}	62.3834
{$\Upsilon$}	[]	15
{$\Xi$}	[]	5
