Q	U	V
{$V$}	{[mm$^3$]}	0.00147837
{$d_v$}	{[mm]}	0.141339
{$S_c$}	{[mm$^2$]}	0.102579
{$S_o$}	{[mm$^2$]}	0.0600177
{$S_l/S_o$}	[]	0.709146
{$\Psi$}	[]	0.611807
{$\eta$}	[]	0.685703
{med($\theta_e$)}	{[$^\circ$]}	56.0163
{$\Upsilon$}	[]	14
{$\Xi$}	[]	3
