Q	U	V
{$V$}	{[mm$^3$]}	0.00869567
{$d_v$}	{[mm]}	0.255134
{$S_c$}	{[mm$^2$]}	0.295779
{$S_o$}	{[mm$^2$]}	0.218097
{$S_l/S_o$}	[]	0.356181
{$\Psi$}	[]	0.691383
{$\eta$}	[]	0.704604
{med($\theta_e$)}	{[$^\circ$]}	72.10505
{$\Upsilon$}	[]	8
{$\Xi$}	[]	10
