Q	U	V
{$V$}	{[mm$^3$]}	0.0046156
{$d_v$}	{[mm]}	0.206574
{$S_c$}	{[mm$^2$]}	0.228965
{$S_o$}	{[mm$^2$]}	0.13379
{$S_l/S_o$}	[]	0.711376
{$\Psi$}	[]	0.585509
{$\eta$}	[]	0.627738
{med($\theta_e$)}	{[$^\circ$]}	69.7012
{$\Upsilon$}	[]	18
{$\Xi$}	[]	9
