Q	U	V
{$V$}	{[mm$^3$]}	0.00304699
{$d_v$}	{[mm]}	0.179869
{$S_c$}	{[mm$^2$]}	0.196349
{$S_o$}	{[mm$^2$]}	0.113159
{$S_l/S_o$}	[]	0.735160
{$\Psi$}	[]	0.51765
{$\eta$}	[]	0.578877
{med($\theta_e$)}	{[$^\circ$]}	73.899
{$\Upsilon$}	[]	15
{$\Xi$}	[]	10
