Q	U	V
{$V$}	{[mm$^3$]}	0.0116548
{$d_v$}	{[mm]}	0.281299
{$S_c$}	{[mm$^2$]}	0.491687
{$S_o$}	{[mm$^2$]}	0.32785
{$S_l/S_o$}	[]	0.499732
{$\Psi$}	[]	0.50559
{$\eta$}	[]	0.528662
{med($\theta_e$)}	{[$^\circ$]}	101.463
{$\Upsilon$}	[]	11
{$\Xi$}	[]	12
