Q	U	V
{$V$}	{[mm$^3$]}	0.00818863
{$d_v$}	{[mm]}	0.250075
{$S_c$}	{[mm$^2$]}	0.375997
{$S_o$}	{[mm$^2$]}	0.221739
{$S_l/S_o$}	[]	0.695674
{$\Psi$}	[]	0.522525
{$\eta$}	[]	0.555435
{med($\theta_e$)}	{[$^\circ$]}	62.701
{$\Upsilon$}	[]	12
{$\Xi$}	[]	8
