Q	U	V
{$V$}	{[mm$^3$]}	0.00339372
{$d_v$}	{[mm]}	0.186449
{$S_c$}	{[mm$^2$]}	0.205507
{$S_o$}	{[mm$^2$]}	0.11234
{$S_l/S_o$}	[]	0.829331
{$\Psi$}	[]	0.531424
{$\eta$}	[]	0.636703
{med($\theta_e$)}	{[$^\circ$]}	54.3991
{$\Upsilon$}	[]	10
{$\Xi$}	[]	21
