Q	U	V
{$V$}	{[mm$^3$]}	0.00687294
{$d_v$}	{[mm]}	0.235893
{$S_c$}	{[mm$^2$]}	0.33407
{$S_o$}	{[mm$^2$]}	0.18712
{$S_l/S_o$}	[]	0.785325
{$\Psi$}	[]	0.523289
{$\eta$}	[]	0.568860
{med($\theta_e$)}	{[$^\circ$]}	54.9924
{$\Upsilon$}	[]	13
{$\Xi$}	[]	11
