Q	U	V
{$V$}	{[mm$^3$]}	0.00741917
{$d_v$}	{[mm]}	0.241983
{$S_c$}	{[mm$^2$]}	0.419723
{$S_o$}	{[mm$^2$]}	0.238242
{$S_l/S_o$}	[]	0.761751
{$\Psi$}	[]	0.438287
{$\eta$}	[]	0.466517
{med($\theta_e$)}	{[$^\circ$]}	78.6366
{$\Upsilon$}	[]	9
{$\Xi$}	[]	5
