Q	U	V
{$V$}	{[mm$^3$]}	0.0111537
{$d_v$}	{[mm]}	0.277209
{$S_c$}	{[mm$^2$]}	0.445142
{$S_o$}	{[mm$^2$]}	0.258348
{$S_l/S_o$}	[]	0.723032
{$\Psi$}	[]	0.542332
{$\eta$}	[]	0.568717
{med($\theta_e$)}	{[$^\circ$]}	87.7295
{$\Upsilon$}	[]	13
{$\Xi$}	[]	7
