Q	U	V
{$V$}	{[mm$^3$]}	0.0158227
{$d_v$}	{[mm]}	0.311478
{$S_c$}	{[mm$^2$]}	0.661001
{$S_o$}	{[mm$^2$]}	0.408808
{$S_l/S_o$}	[]	0.616898
{$\Psi$}	[]	0.461108
{$\eta$}	[]	0.491350
{med($\theta_e$)}	{[$^\circ$]}	69.5727
{$\Upsilon$}	[]	10
{$\Xi$}	[]	22
