Q	U	V
{$V$}	{[mm$^3$]}	0.00683257
{$d_v$}	{[mm]}	0.235430
{$S_c$}	{[mm$^2$]}	0.300944
{$S_o$}	{[mm$^2$]}	0.165067
{$S_l/S_o$}	[]	0.823163
{$\Psi$}	[]	0.578613
{$\eta$}	[]	0.643688
{med($\theta_e$)}	{[$^\circ$]}	46.4381
{$\Upsilon$}	[]	10
{$\Xi$}	[]	14
