Q	U	V
{$V$}	{[mm$^3$]}	0.0115693
{$d_v$}	{[mm]}	0.280610
{$S_c$}	{[mm$^2$]}	0.405287
{$S_o$}	{[mm$^2$]}	0.270412
{$S_l/S_o$}	[]	0.498776
{$\Psi$}	[]	0.61037
{$\eta$}	[]	0.626669
{med($\theta_e$)}	{[$^\circ$]}	69.12735
{$\Upsilon$}	[]	14
{$\Xi$}	[]	13
