Q	U	V
{$V$}	{[mm$^3$]}	0.0149974
{$d_v$}	{[mm]}	0.305965
{$S_c$}	{[mm$^2$]}	0.717529
{$S_o$}	{[mm$^2$]}	0.383995
{$S_l/S_o$}	[]	0.868589
{$\Psi$}	[]	0.409879
{$\eta$}	[]	0.429187
{med($\theta_e$)}	{[$^\circ$]}	
{$\Upsilon$}	[]	12
{$\Xi$}	[]	7
