Q	U	V
{$V$}	{[mm$^3$]}	0.00371196
{$d_v$}	{[mm]}	0.192103
{$S_c$}	{[mm$^2$]}	0.215813
{$S_o$}	{[mm$^2$]}	0.127207
{$S_l/S_o$}	[]	0.696550
{$\Psi$}	[]	0.537207
{$\eta$}	[]	0.592754
{med($\theta_e$)}	{[$^\circ$]}	78.7238
{$\Upsilon$}	[]	12
{$\Xi$}	[]	5
