Q	U	V
{$V$}	{[mm$^3$]}	0.0100565
{$d_v$}	{[mm]}	0.267803
{$S_c$}	{[mm$^2$]}	0.435833
{$S_o$}	{[mm$^2$]}	0.236915
{$S_l/S_o$}	[]	0.839618
{$\Psi$}	[]	0.516966
{$\eta$}	[]	0.543070
{med($\theta_e$)}	{[$^\circ$]}	65.8226
{$\Upsilon$}	[]	19
{$\Xi$}	[]	12
