Q	U	V
{$V$}	{[mm$^3$]}	0.00185954
{$d_v$}	{[mm]}	0.152570
{$S_c$}	{[mm$^2$]}	0.147053
{$S_o$}	{[mm$^2$]}	0.07514
{$S_l/S_o$}	[]	0.957054
{$\Psi$}	[]	0.497295
{$\eta$}	[]	0.567282
{med($\theta_e$)}	{[$^\circ$]}	59.6461
{$\Upsilon$}	[]	15
{$\Xi$}	[]	10
