Q	U	V
{$V$}	{[mm$^3$]}	0.0027715
{$d_v$}	{[mm]}	0.174276
{$S_c$}	{[mm$^2$]}	0.203234
{$S_o$}	{[mm$^2$]}	0.104788
{$S_l/S_o$}	[]	0.939478
{$\Psi$}	[]	0.469495
{$\eta$}	[]	0.487808
{med($\theta_e$)}	{[$^\circ$]}	
{$\Upsilon$}	[]	14
{$\Xi$}	[]	4
