Q	U	V
{$V$}	{[mm$^3$]}	0.00344478
{$d_v$}	{[mm]}	0.187379
{$S_c$}	{[mm$^2$]}	0.247713
{$S_o$}	{[mm$^2$]}	0.131728
{$S_l/S_o$}	[]	0.880489
{$\Psi$}	[]	0.44529
{$\eta$}	[]	0.483245
{med($\theta_e$)}	{[$^\circ$]}	72.60495
{$\Upsilon$}	[]	12
{$\Xi$}	[]	12
