Q	U	V
{$V$}	{[mm$^3$]}	0.00279881
{$d_v$}	{[mm]}	0.174847
{$S_c$}	{[mm$^2$]}	0.163337
{$S_o$}	{[mm$^2$]}	0.0958752
{$S_l/S_o$}	[]	0.703642
{$\Psi$}	[]	0.588006
{$\eta$}	[]	0.639059
{med($\theta_e$)}	{[$^\circ$]}	66.3286
{$\Upsilon$}	[]	16
{$\Xi$}	[]	2
