Q	U	V
{$V$}	{[mm$^3$]}	0.00280475
{$d_v$}	{[mm]}	0.174971
{$S_c$}	{[mm$^2$]}	0.157138
{$S_o$}	{[mm$^2$]}	0.0982742
{$S_l/S_o$}	[]	0.598975
{$\Psi$}	[]	0.612067
{$\eta$}	[]	0.633838
{med($\theta_e$)}	{[$^\circ$]}	70.3954
{$\Upsilon$}	[]	15
{$\Xi$}	[]	8
