Q	U	V
{$V$}	{[mm$^3$]}	0.00704987
{$d_v$}	{[mm]}	0.237900
{$S_c$}	{[mm$^2$]}	0.275254
{$S_o$}	{[mm$^2$]}	0.179694
{$S_l/S_o$}	[]	0.531793
{$\Psi$}	[]	0.645958
{$\eta$}	[]	0.673164
{med($\theta_e$)}	{[$^\circ$]}	61.1431
{$\Upsilon$}	[]	11
{$\Xi$}	[]	10
