Q	U	V
{$V$}	{[mm$^3$]}	0.00431637
{$d_v$}	{[mm]}	0.202010
{$S_c$}	{[mm$^2$]}	0.299214
{$S_o$}	{[mm$^2$]}	0.15671
{$S_l/S_o$}	[]	0.909348
{$\Psi$}	[]	0.428464
{$\eta$}	[]	0.502065
{med($\theta_e$)}	{[$^\circ$]}	74.83685
{$\Upsilon$}	[]	10
{$\Xi$}	[]	8
