Q	U	V
{$V$}	{[mm$^3$]}	0.0057508
{$d_v$}	{[mm]}	0.222285
{$S_c$}	{[mm$^2$]}	0.237377
{$S_o$}	{[mm$^2$]}	0.157777
{$S_l/S_o$}	[]	0.504510
{$\Psi$}	[]	0.65393
{$\eta$}	[]	0.691272
{med($\theta_e$)}	{[$^\circ$]}	64.64535
{$\Upsilon$}	[]	13
{$\Xi$}	[]	13
