Q	U	V
{$V$}	{[mm$^3$]}	0.0116168
{$d_v$}	{[mm]}	0.280993
{$S_c$}	{[mm$^2$]}	0.511981
{$S_o$}	{[mm$^2$]}	0.304733
{$S_l/S_o$}	[]	0.680097
{$\Psi$}	[]	0.484494
{$\eta$}	[]	0.522467
{med($\theta_e$)}	{[$^\circ$]}	83.9958
{$\Upsilon$}	[]	11
{$\Xi$}	[]	8
