Q	U	V
{$V$}	{[mm$^3$]}	0.0128197
{$d_v$}	{[mm]}	0.290375
{$S_c$}	{[mm$^2$]}	0.529411
{$S_o$}	{[mm$^2$]}	0.36897
{$S_l/S_o$}	[]	0.434835
{$\Psi$}	[]	0.500353
{$\eta$}	[]	0.544114
{med($\theta_e$)}	{[$^\circ$]}	69.97515
{$\Upsilon$}	[]	12
{$\Xi$}	[]	23
