Q	U	V
{$V$}	{[mm$^3$]}	0.00526633
{$d_v$}	{[mm]}	0.215859
{$S_c$}	{[mm$^2$]}	0.259058
{$S_o$}	{[mm$^2$]}	0.156284
{$S_l/S_o$}	[]	0.657611
{$\Psi$}	[]	0.565057
{$\eta$}	[]	0.617564
{med($\theta_e$)}	{[$^\circ$]}	65.1957
{$\Upsilon$}	[]	12
{$\Xi$}	[]	7
