Q	U	V
{$V$}	{[mm$^3$]}	0.0138611
{$d_v$}	{[mm]}	0.298034
{$S_c$}	{[mm$^2$]}	0.600443
{$S_o$}	{[mm$^2$]}	0.355416
{$S_l/S_o$}	[]	0.689409
{$\Psi$}	[]	0.464741
{$\eta$}	[]	0.485430
{med($\theta_e$)}	{[$^\circ$]}	59.3682
{$\Upsilon$}	[]	17
{$\Xi$}	[]	18
