Q	U	V
{$V$}	{[mm$^3$]}	0.00420594
{$d_v$}	{[mm]}	0.200273
{$S_c$}	{[mm$^2$]}	0.264438
{$S_o$}	{[mm$^2$]}	0.144218
{$S_l/S_o$}	[]	0.833599
{$\Psi$}	[]	0.476507
{$\eta$}	[]	0.533392
{med($\theta_e$)}	{[$^\circ$]}	65.8675
{$\Upsilon$}	[]	14
{$\Xi$}	[]	10
