Q	U	V
{$V$}	{[mm$^3$]}	0.00505971
{$d_v$}	{[mm]}	0.212998
{$S_c$}	{[mm$^2$]}	0.303081
{$S_o$}	{[mm$^2$]}	0.182469
{$S_l/S_o$}	[]	0.661000
{$\Psi$}	[]	0.470265
{$\eta$}	[]	0.518990
{med($\theta_e$)}	{[$^\circ$]}	67.495
{$\Upsilon$}	[]	7
{$\Xi$}	[]	6
