Q	U	V
{$V$}	{[mm$^3$]}	0.0162989
{$d_v$}	{[mm]}	0.314572
{$S_c$}	{[mm$^2$]}	0.65318
{$S_o$}	{[mm$^2$]}	0.413309
{$S_l/S_o$}	[]	0.580367
{$\Psi$}	[]	0.475945
{$\eta$}	[]	0.519423
{med($\theta_e$)}	{[$^\circ$]}	72.4398
{$\Upsilon$}	[]	13
{$\Xi$}	[]	10
