Q	U	V
{$V$}	{[mm$^3$]}	0.001305
{$d_v$}	{[mm]}	0.135583
{$S_c$}	{[mm$^2$]}	0.109905
{$S_o$}	{[mm$^2$]}	0.0563392
{$S_l/S_o$}	[]	0.950773
{$\Psi$}	[]	0.525461
{$\eta$}	[]	0.575270
{med($\theta_e$)}	{[$^\circ$]}	
{$\Upsilon$}	[]	29
{$\Xi$}	[]	7
