Q	U	V
{$V$}	{[mm$^3$]}	0.00453961
{$d_v$}	{[mm]}	0.205434
{$S_c$}	{[mm$^2$]}	0.285419
{$S_o$}	{[mm$^2$]}	0.125018
{$S_l/S_o$}	[]	1.283023
{$\Psi$}	[]	0.46453
{$\eta$}	[]	0.477011
{med($\theta_e$)}	{[$^\circ$]}	82.8296
{$\Upsilon$}	[]	15
{$\Xi$}	[]	8
