Q	U	V
{$V$}	{[mm$^3$]}	0.00622934
{$d_v$}	{[mm]}	0.228287
{$S_c$}	{[mm$^2$]}	0.337649
{$S_o$}	{[mm$^2$]}	0.195215
{$S_l/S_o$}	[]	0.729626
{$\Psi$}	[]	0.484894
{$\eta$}	[]	0.519975
{med($\theta_e$)}	{[$^\circ$]}	79.39425
{$\Upsilon$}	[]	11
{$\Xi$}	[]	7
