Q	U	V
{$V$}	{[mm$^3$]}	0.00648702
{$d_v$}	{[mm]}	0.231392
{$S_c$}	{[mm$^2$]}	0.325841
{$S_o$}	{[mm$^2$]}	0.182762
{$S_l/S_o$}	[]	0.782871
{$\Psi$}	[]	0.516228
{$\eta$}	[]	0.588824
{med($\theta_e$)}	{[$^\circ$]}	60.2299
{$\Upsilon$}	[]	17
{$\Xi$}	[]	12
