Q	U	V
{$V$}	{[mm$^3$]}	0.00254351
{$d_v$}	{[mm]}	0.169360
{$S_c$}	{[mm$^2$]}	0.165673
{$S_o$}	{[mm$^2$]}	0.0924408
{$S_l/S_o$}	[]	0.792206
{$\Psi$}	[]	0.543903
{$\eta$}	[]	0.567520
{med($\theta_e$)}	{[$^\circ$]}	67.8168
{$\Upsilon$}	[]	15
{$\Xi$}	[]	8
