Q	U	V
{$V$}	{[mm$^3$]}	0.00565937
{$d_v$}	{[mm]}	0.221101
{$S_c$}	{[mm$^2$]}	0.273525
{$S_o$}	{[mm$^2$]}	0.156324
{$S_l/S_o$}	[]	0.749731
{$\Psi$}	[]	0.561478
{$\eta$}	[]	0.615370
{med($\theta_e$)}	{[$^\circ$]}	66.56675
{$\Upsilon$}	[]	11
{$\Xi$}	[]	6
