Q	U	V
{$V$}	{[mm$^3$]}	0.00683375
{$d_v$}	{[mm]}	0.235444
{$S_c$}	{[mm$^2$]}	0.33517
{$S_o$}	{[mm$^2$]}	0.212005
{$S_l/S_o$}	[]	0.580953
{$\Psi$}	[]	0.519587
{$\eta$}	[]	0.598741
{med($\theta_e$)}	{[$^\circ$]}	76.7115
{$\Upsilon$}	[]	8
{$\Xi$}	[]	14
