Q	U	V
{$V$}	{[mm$^3$]}	0.00595148
{$d_v$}	{[mm]}	0.224841
{$S_c$}	{[mm$^2$]}	0.360822
{$S_o$}	{[mm$^2$]}	0.208313
{$S_l/S_o$}	[]	0.732115
{$\Psi$}	[]	0.440157
{$\eta$}	[]	0.583817
{med($\theta_e$)}	{[$^\circ$]}	81.1379
{$\Upsilon$}	[]	7
{$\Xi$}	[]	5
