Q	U	V
{$V$}	{[mm$^3$]}	0.0134419
{$d_v$}	{[mm]}	0.294999
{$S_c$}	{[mm$^2$]}	0.445695
{$S_o$}	{[mm$^2$]}	0.316048
{$S_l/S_o$}	[]	0.410213
{$\Psi$}	[]	0.613414
{$\eta$}	[]	0.649738
{med($\theta_e$)}	{[$^\circ$]}	79.161
{$\Upsilon$}	[]	9
{$\Xi$}	[]	7
