Q	U	V
{$V$}	{[mm$^3$]}	0.00301374
{$d_v$}	{[mm]}	0.179213
{$S_c$}	{[mm$^2$]}	0.149928
{$S_o$}	{[mm$^2$]}	0.0961252
{$S_l/S_o$}	[]	0.559716
{$\Psi$}	[]	0.672985
{$\eta$}	[]	0.714169
{med($\theta_e$)}	{[$^\circ$]}	63.78265
{$\Upsilon$}	[]	13
{$\Xi$}	[]	7
