Q	U	V
{$V$}	{[mm$^3$]}	0.00101527
{$d_v$}	{[mm]}	0.124698
{$S_c$}	{[mm$^2$]}	0.0867284
{$S_o$}	{[mm$^2$]}	0.0546972
{$S_l/S_o$}	[]	0.585610
{$\Psi$}	[]	0.563262
{$\eta$}	[]	1.102426
{med($\theta_e$)}	{[$^\circ$]}	
{$\Upsilon$}	[]	22
{$\Xi$}	[]	10
