Q	U	V
{$V$}	{[mm$^3$]}	0.00837744
{$d_v$}	{[mm]}	0.251983
{$S_c$}	{[mm$^2$]}	0.361698
{$S_o$}	{[mm$^2$]}	0.219568
{$S_l/S_o$}	[]	0.647317
{$\Psi$}	[]	0.5515
{$\eta$}	[]	0.567921
{med($\theta_e$)}	{[$^\circ$]}	53.7122
{$\Upsilon$}	[]	15
{$\Xi$}	[]	17
