Q	U	V
{$V$}	{[mm$^3$]}	0.00377489
{$d_v$}	{[mm]}	0.193183
{$S_c$}	{[mm$^2$]}	0.236963
{$S_o$}	{[mm$^2$]}	0.135067
{$S_l/S_o$}	[]	0.754411
{$\Psi$}	[]	0.494774
{$\eta$}	[]	0.600828
{med($\theta_e$)}	{[$^\circ$]}	78.2025
{$\Upsilon$}	[]	9
{$\Xi$}	[]	10
