Q	U	V
{$V$}	{[mm$^3$]}	0.00804495
{$d_v$}	{[mm]}	0.248604
{$S_c$}	{[mm$^2$]}	0.41213
{$S_o$}	{[mm$^2$]}	0.251428
{$S_l/S_o$}	[]	0.639157
{$\Psi$}	[]	0.471121
{$\eta$}	[]	0.511135
{med($\theta_e$)}	{[$^\circ$]}	86.4213
{$\Upsilon$}	[]	9
{$\Xi$}	[]	11
