Q	U	V
{$V$}	{[mm$^3$]}	0.0076804
{$d_v$}	{[mm]}	0.244791
{$S_c$}	{[mm$^2$]}	0.323476
{$S_o$}	{[mm$^2$]}	0.191518
{$S_l/S_o$}	[]	0.689011
{$\Psi$}	[]	0.581966
{$\eta$}	[]	0.599581
{med($\theta_e$)}	{[$^\circ$]}	71.5706
{$\Upsilon$}	[]	11
{$\Xi$}	[]	6
