Q	U	V
{$V$}	{[mm$^3$]}	0.00335097
{$d_v$}	{[mm]}	0.185662
{$S_c$}	{[mm$^2$]}	0.192188
{$S_o$}	{[mm$^2$]}	0.106866
{$S_l/S_o$}	[]	0.798402
{$\Psi$}	[]	0.563471
{$\eta$}	[]	0.643864
{med($\theta_e$)}	{[$^\circ$]}	82.4059
{$\Upsilon$}	[]	10
{$\Xi$}	[]	8
