Q	U	V
{$V$}	{[mm$^3$]}	0.0116999
{$d_v$}	{[mm]}	0.281662
{$S_c$}	{[mm$^2$]}	0.438927
{$S_o$}	{[mm$^2$]}	0.2755
{$S_l/S_o$}	[]	0.593201
{$\Psi$}	[]	0.567823
{$\eta$}	[]	0.577053
{med($\theta_e$)}	{[$^\circ$]}	60.1935
{$\Upsilon$}	[]	14
{$\Xi$}	[]	9
