Q	U	V
{$V$}	{[mm$^3$]}	0.00766615
{$d_v$}	{[mm]}	0.244639
{$S_c$}	{[mm$^2$]}	0.365977
{$S_o$}	{[mm$^2$]}	0.204285
{$S_l/S_o$}	[]	0.791502
{$\Psi$}	[]	0.513746
{$\eta$}	[]	0.514841
{med($\theta_e$)}	{[$^\circ$]}	146.507
{$\Upsilon$}	[]	9
{$\Xi$}	[]	10
