Q	U	V
{$V$}	{[mm$^3$]}	0.00201391
{$d_v$}	{[mm]}	0.156680
{$S_c$}	{[mm$^2$]}	0.156396
{$S_o$}	{[mm$^2$]}	0.0812164
{$S_l/S_o$}	[]	0.925670
{$\Psi$}	[]	0.493119
{$\eta$}	[]	0.515263
{med($\theta_e$)}	{[$^\circ$]}	
{$\Upsilon$}	[]	11
{$\Xi$}	[]	8
