Q	U	V
{$V$}	{[mm$^3$]}	0.00945564
{$d_v$}	{[mm]}	0.262360
{$S_c$}	{[mm$^2$]}	0.405731
{$S_o$}	{[mm$^2$]}	0.271887
{$S_l/S_o$}	[]	0.492278
{$\Psi$}	[]	0.532975
{$\eta$}	[]	0.556539
{med($\theta_e$)}	{[$^\circ$]}	85.3766
{$\Upsilon$}	[]	12
{$\Xi$}	[]	18
