Q	U	V
{$V$}	{[mm$^3$]}	0.00340797
{$d_v$}	{[mm]}	0.186709
{$S_c$}	{[mm$^2$]}	0.176367
{$S_o$}	{[mm$^2$]}	0.111096
{$S_l/S_o$}	[]	0.587519
{$\Psi$}	[]	0.62096
{$\eta$}	[]	0.666037
{med($\theta_e$)}	{[$^\circ$]}	65.333
{$\Upsilon$}	[]	13
{$\Xi$}	[]	8
