Q	U	V
{$V$}	{[mm$^3$]}	0.00451586
{$d_v$}	{[mm]}	0.205076
{$S_c$}	{[mm$^2$]}	0.254716
{$S_o$}	{[mm$^2$]}	0.147903
{$S_l/S_o$}	[]	0.722183
{$\Psi$}	[]	0.518706
{$\eta$}	[]	0.604481
{med($\theta_e$)}	{[$^\circ$]}	64.9659
{$\Upsilon$}	[]	10
{$\Xi$}	[]	10
