Q	U	V
{$V$}	{[mm$^3$]}	0.00749872
{$d_v$}	{[mm]}	0.242845
{$S_c$}	{[mm$^2$]}	0.394081
{$S_o$}	{[mm$^2$]}	0.231831
{$S_l/S_o$}	[]	0.699863
{$\Psi$}	[]	0.470136
{$\eta$}	[]	0.546035
{med($\theta_e$)}	{[$^\circ$]}	64.8051
{$\Upsilon$}	[]	14
{$\Xi$}	[]	15
