Q	U	V
{$V$}	{[mm$^3$]}	0.00268482
{$d_v$}	{[mm]}	0.172440
{$S_c$}	{[mm$^2$]}	0.204938
{$S_o$}	{[mm$^2$]}	0.0998134
{$S_l/S_o$}	[]	1.053211
{$\Psi$}	[]	0.455832
{$\eta$}	[]	0.503991
{med($\theta_e$)}	{[$^\circ$]}	104.8745
{$\Upsilon$}	[]	11
{$\Xi$}	[]	9
