Q	U	V
{$V$}	{[mm$^3$]}	0.00608448
{$d_v$}	{[mm]}	0.226504
{$S_c$}	{[mm$^2$]}	0.31472
{$S_o$}	{[mm$^2$]}	0.182068
{$S_l/S_o$}	[]	0.728585
{$\Psi$}	[]	0.512124
{$\eta$}	[]	0.541297
{med($\theta_e$)}	{[$^\circ$]}	78.85
{$\Upsilon$}	[]	13
{$\Xi$}	[]	13
