Q	U	V
{$V$}	{[mm$^3$]}	0.00452892
{$d_v$}	{[mm]}	0.205273
{$S_c$}	{[mm$^2$]}	0.240113
{$S_o$}	{[mm$^2$]}	0.149316
{$S_l/S_o$}	[]	0.608086
{$\Psi$}	[]	0.551313
{$\eta$}	[]	0.675415
{med($\theta_e$)}	{[$^\circ$]}	77.12415
{$\Upsilon$}	[]	12
{$\Xi$}	[]	15
