Q	U	V
{$V$}	{[mm$^3$]}	0.00345072
{$d_v$}	{[mm]}	0.187487
{$S_c$}	{[mm$^2$]}	0.161876
{$S_o$}	{[mm$^2$]}	0.104139
{$S_l/S_o$}	[]	0.554422
{$\Psi$}	[]	0.682194
{$\eta$}	[]	0.735470
{med($\theta_e$)}	{[$^\circ$]}	56.6543
{$\Upsilon$}	[]	13
{$\Xi$}	[]	11
