Q	U	V
{$V$}	{[mm$^3$]}	0.0024022
{$d_v$}	{[mm]}	0.166164
{$S_c$}	{[mm$^2$]}	0.157017
{$S_o$}	{[mm$^2$]}	0.0882889
{$S_l/S_o$}	[]	0.778446
{$\Psi$}	[]	0.55243
{$\eta$}	[]	0.608381
{med($\theta_e$)}	{[$^\circ$]}	68.2559
{$\Upsilon$}	[]	15
{$\Xi$}	[]	6
