Q	U	V
{$V$}	{[mm$^3$]}	0.0149844
{$d_v$}	{[mm]}	0.305877
{$S_c$}	{[mm$^2$]}	0.458101
{$S_o$}	{[mm$^2$]}	0.312889
{$S_l/S_o$}	[]	0.464101
{$\Psi$}	[]	0.641627
{$\eta$}	[]	0.671190
{med($\theta_e$)}	{[$^\circ$]}	81.7332
{$\Upsilon$}	[]	9
{$\Xi$}	[]	24
