Q	U	V
{$V$}	{[mm$^3$]}	0.0111644
{$d_v$}	{[mm]}	0.277297
{$S_c$}	{[mm$^2$]}	0.404224
{$S_o$}	{[mm$^2$]}	0.279429
{$S_l/S_o$}	[]	0.446607
{$\Psi$}	[]	0.597612
{$\eta$}	[]	0.620688
{med($\theta_e$)}	{[$^\circ$]}	87.9381
{$\Upsilon$}	[]	8
{$\Xi$}	[]	5
