Q	U	V
{$V$}	{[mm$^3$]}	0.0173284
{$d_v$}	{[mm]}	0.321060
{$S_c$}	{[mm$^2$]}	0.583351
{$S_o$}	{[mm$^2$]}	0.406616
{$S_l/S_o$}	[]	0.434648
{$\Psi$}	[]	0.555128
{$\eta$}	[]	0.567254
{med($\theta_e$)}	{[$^\circ$]}	82.8158
{$\Upsilon$}	[]	10
{$\Xi$}	[]	13
