Q	U	V
{$V$}	{[mm$^3$]}	0.005581
{$d_v$}	{[mm]}	0.220075
{$S_c$}	{[mm$^2$]}	0.266756
{$S_o$}	{[mm$^2$]}	0.14732
{$S_l/S_o$}	[]	0.810725
{$\Psi$}	[]	0.570398
{$\eta$}	[]	0.619922
{med($\theta_e$)}	{[$^\circ$]}	54.4287
{$\Upsilon$}	[]	15
{$\Xi$}	[]	11
