Q	U	V
{$V$}	{[mm$^3$]}	0.00363952
{$d_v$}	{[mm]}	0.190845
{$S_c$}	{[mm$^2$]}	0.222555
{$S_o$}	{[mm$^2$]}	0.136501
{$S_l/S_o$}	[]	0.630428
{$\Psi$}	[]	0.514134
{$\eta$}	[]	0.829085
{med($\theta_e$)}	{[$^\circ$]}	
{$\Upsilon$}	[]	13
{$\Xi$}	[]	11
