Q	U	V
{$V$}	{[mm$^3$]}	0.00707124
{$d_v$}	{[mm]}	0.238140
{$S_c$}	{[mm$^2$]}	0.341368
{$S_o$}	{[mm$^2$]}	0.211861
{$S_l/S_o$}	[]	0.611283
{$\Psi$}	[]	0.521905
{$\eta$}	[]	0.641238
{med($\theta_e$)}	{[$^\circ$]}	
{$\Upsilon$}	[]	16
{$\Xi$}	[]	12
