Q	U	V
{$V$}	{[mm$^3$]}	0.00809601
{$d_v$}	{[mm]}	0.249129
{$S_c$}	{[mm$^2$]}	0.320964
{$S_o$}	{[mm$^2$]}	0.214072
{$S_l/S_o$}	[]	0.499327
{$\Psi$}	[]	0.607494
{$\eta$}	[]	0.658890
{med($\theta_e$)}	{[$^\circ$]}	77.8237
{$\Upsilon$}	[]	9
{$\Xi$}	[]	10
