Q	U	V
{$V$}	{[mm$^3$]}	0.00169449
{$d_v$}	{[mm]}	0.147915
{$S_c$}	{[mm$^2$]}	0.124913
{$S_o$}	{[mm$^2$]}	0.0851716
{$S_l/S_o$}	[]	0.466604
{$\Psi$}	[]	0.550262
{$\eta$}	[]	1.067391
{med($\theta_e$)}	{[$^\circ$]}	
{$\Upsilon$}	[]	11
{$\Xi$}	[]	13
