Q	U	V
{$V$}	{[mm$^3$]}	0.00172061
{$d_v$}	{[mm]}	0.148672
{$S_c$}	{[mm$^2$]}	0.116759
{$S_o$}	{[mm$^2$]}	0.0658603
{$S_l/S_o$}	[]	0.772828
{$\Psi$}	[]	0.594724
{$\eta$}	[]	0.674239
{med($\theta_e$)}	{[$^\circ$]}	56.38155
{$\Upsilon$}	[]	14
{$\Xi$}	[]	6
