Q	U	V
{$V$}	{[mm$^3$]}	0.00260763
{$d_v$}	{[mm]}	0.170772
{$S_c$}	{[mm$^2$]}	0.15353
{$S_o$}	{[mm$^2$]}	0.0905167
{$S_l/S_o$}	[]	0.696151
{$\Psi$}	[]	0.596744
{$\eta$}	[]	0.629510
{med($\theta_e$)}	{[$^\circ$]}	97.91645
{$\Upsilon$}	[]	10
{$\Xi$}	[]	11
