Q	U	V
{$V$}	{[mm$^3$]}	0.00309924
{$d_v$}	{[mm]}	0.180892
{$S_c$}	{[mm$^2$]}	0.224312
{$S_o$}	{[mm$^2$]}	0.11379
{$S_l/S_o$}	[]	0.971280
{$\Psi$}	[]	0.458284
{$\eta$}	[]	0.496282
{med($\theta_e$)}	{[$^\circ$]}	111.65
{$\Upsilon$}	[]	14
{$\Xi$}	[]	9
