Q	U	V
{$V$}	{[mm$^3$]}	0.0049754
{$d_v$}	{[mm]}	0.211808
{$S_c$}	{[mm$^2$]}	0.237941
{$S_o$}	{[mm$^2$]}	0.149261
{$S_l/S_o$}	[]	0.594127
{$\Psi$}	[]	0.592334
{$\eta$}	[]	0.666930
{med($\theta_e$)}	{[$^\circ$]}	57.3977
{$\Upsilon$}	[]	16
{$\Xi$}	[]	19
