Q	U	V
{$V$}	{[mm$^3$]}	0.00388651
{$d_v$}	{[mm]}	0.195068
{$S_c$}	{[mm$^2$]}	0.224759
{$S_o$}	{[mm$^2$]}	0.132144
{$S_l/S_o$}	[]	0.700864
{$\Psi$}	[]	0.531872
{$\eta$}	[]	0.638212
{med($\theta_e$)}	{[$^\circ$]}	81.7446
{$\Upsilon$}	[]	12
{$\Xi$}	[]	15
