Q	U	V
{$V$}	{[mm$^3$]}	0.00410975
{$d_v$}	{[mm]}	0.198734
{$S_c$}	{[mm$^2$]}	0.239906
{$S_o$}	{[mm$^2$]}	0.135036
{$S_l/S_o$}	[]	0.776608
{$\Psi$}	[]	0.517194
{$\eta$}	[]	0.600306
{med($\theta_e$)}	{[$^\circ$]}	78.5757
{$\Upsilon$}	[]	10
{$\Xi$}	[]	11
