Q	U	V
{$V$}	{[mm$^3$]}	0.00455623
{$d_v$}	{[mm]}	0.205685
{$S_c$}	{[mm$^2$]}	0.228055
{$S_o$}	{[mm$^2$]}	0.131824
{$S_l/S_o$}	[]	0.729996
{$\Psi$}	[]	0.582794
{$\eta$}	[]	0.640745
{med($\theta_e$)}	{[$^\circ$]}	69.6224
{$\Upsilon$}	[]	12
{$\Xi$}	[]	4
