Q	U	V
{$V$}	{[mm$^3$]}	0.00513689
{$d_v$}	{[mm]}	0.214076
{$S_c$}	{[mm$^2$]}	0.266778
{$S_o$}	{[mm$^2$]}	0.167372
{$S_l/S_o$}	[]	0.593923
{$\Psi$}	[]	0.539677
{$\eta$}	[]	0.607276
{med($\theta_e$)}	{[$^\circ$]}	68.3966
{$\Upsilon$}	[]	14
{$\Xi$}	[]	8
