Q	U	V
{$V$}	{[mm$^3$]}	0.00893079
{$d_v$}	{[mm]}	0.257413
{$S_c$}	{[mm$^2$]}	0.381011
{$S_o$}	{[mm$^2$]}	0.241219
{$S_l/S_o$}	[]	0.579523
{$\Psi$}	[]	0.546353
{$\eta$}	[]	0.564215
{med($\theta_e$)}	{[$^\circ$]}	73.7866
{$\Upsilon$}	[]	13
{$\Xi$}	[]	12
