Q	U	V
{$V$}	{[mm$^3$]}	0.00281544
{$d_v$}	{[mm]}	0.175193
{$S_c$}	{[mm$^2$]}	0.155287
{$S_o$}	{[mm$^2$]}	0.0836935
{$S_l/S_o$}	[]	0.855425
{$\Psi$}	[]	0.620936
{$\eta$}	[]	0.633735
{med($\theta_e$)}	{[$^\circ$]}	56.99
{$\Upsilon$}	[]	14
{$\Xi$}	[]	4
