Q	U	V
{$V$}	{[mm$^3$]}	0.00158287
{$d_v$}	{[mm]}	0.144594
{$S_c$}	{[mm$^2$]}	0.151865
{$S_o$}	{[mm$^2$]}	0.0729242
{$S_l/S_o$}	[]	1.082505
{$\Psi$}	[]	0.432504
{$\eta$}	[]	0.527058
{med($\theta_e$)}	{[$^\circ$]}	
{$\Upsilon$}	[]	17
{$\Xi$}	[]	6
