Q	U	V
{$V$}	{[mm$^3$]}	0.00880135
{$d_v$}	{[mm]}	0.256163
{$S_c$}	{[mm$^2$]}	0.458789
{$S_o$}	{[mm$^2$]}	0.270635
{$S_l/S_o$}	[]	0.695232
{$\Psi$}	[]	0.449335
{$\eta$}	[]	0.512950
{med($\theta_e$)}	{[$^\circ$]}	71.8509
{$\Upsilon$}	[]	10
{$\Xi$}	[]	13
