Q	U	V
{$V$}	{[mm$^3$]}	0.00552994
{$d_v$}	{[mm]}	0.219402
{$S_c$}	{[mm$^2$]}	0.340212
{$S_o$}	{[mm$^2$]}	0.181643
{$S_l/S_o$}	[]	0.872971
{$\Psi$}	[]	0.44451
{$\eta$}	[]	0.470771
{med($\theta_e$)}	{[$^\circ$]}	
{$\Upsilon$}	[]	13
{$\Xi$}	[]	4
