Q	U	V
{$V$}	{[mm$^3$]}	0.0078799
{$d_v$}	{[mm]}	0.246892
{$S_c$}	{[mm$^2$]}	0.452387
{$S_o$}	{[mm$^2$]}	0.257374
{$S_l/S_o$}	[]	0.757703
{$\Psi$}	[]	0.423306
{$\eta$}	[]	0.447305
{med($\theta_e$)}	{[$^\circ$]}	103.78935
{$\Upsilon$}	[]	11
{$\Xi$}	[]	12
