Q	U	V
{$V$}	{[mm$^3$]}	0.00856386
{$d_v$}	{[mm]}	0.253838
{$S_c$}	{[mm$^2$]}	0.326881
{$S_o$}	{[mm$^2$]}	0.213278
{$S_l/S_o$}	[]	0.532652
{$\Psi$}	[]	0.619262
{$\eta$}	[]	0.694794
{med($\theta_e$)}	{[$^\circ$]}	70.59455
{$\Upsilon$}	[]	10
{$\Xi$}	[]	21
