Q	U	V
{$V$}	{[mm$^3$]}	0.00479966
{$d_v$}	{[mm]}	0.209285
{$S_c$}	{[mm$^2$]}	0.241092
{$S_o$}	{[mm$^2$]}	0.141493
{$S_l/S_o$}	[]	0.703915
{$\Psi$}	[]	0.570744
{$\eta$}	[]	0.584457
{med($\theta_e$)}	{[$^\circ$]}	86.10575
{$\Upsilon$}	[]	11
{$\Xi$}	[]	8
