Q	U	V
{$V$}	{[mm$^3$]}	0.00336404
{$d_v$}	{[mm]}	0.185903
{$S_c$}	{[mm$^2$]}	0.188156
{$S_o$}	{[mm$^2$]}	0.104256
{$S_l/S_o$}	[]	0.804750
{$\Psi$}	[]	0.577041
{$\eta$}	[]	0.649886
{med($\theta_e$)}	{[$^\circ$]}	66.7476
{$\Upsilon$}	[]	10
{$\Xi$}	[]	13
