Q	U	V
{$V$}	{[mm$^3$]}	0.00872061
{$d_v$}	{[mm]}	0.255378
{$S_c$}	{[mm$^2$]}	0.459679
{$S_o$}	{[mm$^2$]}	0.242295
{$S_l/S_o$}	[]	0.897187
{$\Psi$}	[]	0.445719
{$\eta$}	[]	0.524451
{med($\theta_e$)}	{[$^\circ$]}	79.76155
{$\Upsilon$}	[]	10
{$\Xi$}	[]	19
