Q	U	V
{$V$}	{[mm$^3$]}	0.0130358
{$d_v$}	{[mm]}	0.291998
{$S_c$}	{[mm$^2$]}	0.535451
{$S_o$}	{[mm$^2$]}	0.331293
{$S_l/S_o$}	[]	0.616246
{$\Psi$}	[]	0.500253
{$\eta$}	[]	0.508676
{med($\theta_e$)}	{[$^\circ$]}	49.6389
{$\Upsilon$}	[]	15
{$\Xi$}	[]	8
