Q	U	V
{$V$}	{[mm$^3$]}	0.00861611
{$d_v$}	{[mm]}	0.254353
{$S_c$}	{[mm$^2$]}	0.396053
{$S_o$}	{[mm$^2$]}	0.227813
{$S_l/S_o$}	[]	0.738500
{$\Psi$}	[]	0.513182
{$\eta$}	[]	0.565636
{med($\theta_e$)}	{[$^\circ$]}	64.9789
{$\Upsilon$}	[]	11
{$\Xi$}	[]	15
