Q	U	V
{$V$}	{[mm$^3$]}	0.013335
{$d_v$}	{[mm]}	0.294215
{$S_c$}	{[mm$^2$]}	0.531621
{$S_o$}	{[mm$^2$]}	0.317402
{$S_l/S_o$}	[]	0.674914
{$\Psi$}	[]	0.511537
{$\eta$}	[]	0.528247
{med($\theta_e$)}	{[$^\circ$]}	76.287
{$\Upsilon$}	[]	13
{$\Xi$}	[]	10
