Q	U	V
{$V$}	{[mm$^3$]}	0.00362884
{$d_v$}	{[mm]}	0.190659
{$S_c$}	{[mm$^2$]}	0.281723
{$S_o$}	{[mm$^2$]}	0.160084
{$S_l/S_o$}	[]	0.759845
{$\Psi$}	[]	0.40536
{$\eta$}	[]	0.445136
{med($\theta_e$)}	{[$^\circ$]}	94.86605
{$\Upsilon$}	[]	11
{$\Xi$}	[]	11
