Q	U	V
{$V$}	{[mm$^3$]}	0.00189991
{$d_v$}	{[mm]}	0.153666
{$S_c$}	{[mm$^2$]}	0.145457
{$S_o$}	{[mm$^2$]}	0.0790372
{$S_l/S_o$}	[]	0.840361
{$\Psi$}	[]	0.510002
{$\eta$}	[]	0.561074
{med($\theta_e$)}	{[$^\circ$]}	61.8775
{$\Upsilon$}	[]	17
{$\Xi$}	[]	11
