Q	U	V
{$V$}	{[mm$^3$]}	0.00704868
{$d_v$}	{[mm]}	0.237886
{$S_c$}	{[mm$^2$]}	0.275379
{$S_o$}	{[mm$^2$]}	0.183749
{$S_l/S_o$}	[]	0.498669
{$\Psi$}	[]	0.645593
{$\eta$}	[]	0.647322
{med($\theta_e$)}	{[$^\circ$]}	55.59335
{$\Upsilon$}	[]	17
{$\Xi$}	[]	13
