Q	U	V
{$V$}	{[mm$^3$]}	0.00981662
{$d_v$}	{[mm]}	0.265657
{$S_c$}	{[mm$^2$]}	0.448551
{$S_o$}	{[mm$^2$]}	0.253244
{$S_l/S_o$}	[]	0.771221
{$\Psi$}	[]	0.494288
{$\eta$}	[]	0.547746
{med($\theta_e$)}	{[$^\circ$]}	101.0176
{$\Upsilon$}	[]	16
{$\Xi$}	[]	14
