Q	U	V
{$V$}	{[mm$^3$]}	0.00816607
{$d_v$}	{[mm]}	0.249845
{$S_c$}	{[mm$^2$]}	0.485713
{$S_o$}	{[mm$^2$]}	0.240905
{$S_l/S_o$}	[]	1.016201
{$\Psi$}	[]	0.403751
{$\eta$}	[]	0.415498
{med($\theta_e$)}	{[$^\circ$]}	68.7239
{$\Upsilon$}	[]	15
{$\Xi$}	[]	8
