Q	U	V
{$V$}	{[mm$^3$]}	0.00405632
{$d_v$}	{[mm]}	0.197869
{$S_c$}	{[mm$^2$]}	0.260991
{$S_o$}	{[mm$^2$]}	0.137826
{$S_l/S_o$}	[]	0.893627
{$\Psi$}	[]	0.471281
{$\eta$}	[]	0.508845
{med($\theta_e$)}	{[$^\circ$]}	
{$\Upsilon$}	[]	13
{$\Xi$}	[]	12
