Q	U	V
{$V$}	{[mm$^3$]}	0.014849
{$d_v$}	{[mm]}	0.304953
{$S_c$}	{[mm$^2$]}	0.569264
{$S_o$}	{[mm$^2$]}	0.363946
{$S_l/S_o$}	[]	0.564144
{$\Psi$}	[]	0.513218
{$\eta$}	[]	0.549473
{med($\theta_e$)}	{[$^\circ$]}	73.81665
{$\Upsilon$}	[]	10
{$\Xi$}	[]	20
