Q	U	V
{$V$}	{[mm$^3$]}	0.00786565
{$d_v$}	{[mm]}	0.246743
{$S_c$}	{[mm$^2$]}	0.434556
{$S_o$}	{[mm$^2$]}	0.237991
{$S_l/S_o$}	[]	0.825935
{$\Psi$}	[]	0.440144
{$\eta$}	[]	0.463846
{med($\theta_e$)}	{[$^\circ$]}	65.2108
{$\Upsilon$}	[]	17
{$\Xi$}	[]	12
