Q	U	V
{$V$}	{[mm$^3$]}	0.0135369
{$d_v$}	{[mm]}	0.295692
{$S_c$}	{[mm$^2$]}	0.507327
{$S_o$}	{[mm$^2$]}	0.326937
{$S_l/S_o$}	[]	0.551758
{$\Psi$}	[]	0.54143
{$\eta$}	[]	0.596144
{med($\theta_e$)}	{[$^\circ$]}	72.2664
{$\Upsilon$}	[]	10
{$\Xi$}	[]	20
