Q	U	V
{$V$}	{[mm$^3$]}	0.0064419
{$d_v$}	{[mm]}	0.230855
{$S_c$}	{[mm$^2$]}	0.317417
{$S_o$}	{[mm$^2$]}	0.198027
{$S_l/S_o$}	[]	0.602898
{$\Psi$}	[]	0.527469
{$\eta$}	[]	0.602687
{med($\theta_e$)}	{[$^\circ$]}	60.3771
{$\Upsilon$}	[]	11
{$\Xi$}	[]	8
