Q	U	V
{$V$}	{[mm$^3$]}	0.00324054
{$d_v$}	{[mm]}	0.183600
{$S_c$}	{[mm$^2$]}	0.196913
{$S_o$}	{[mm$^2$]}	0.112448
{$S_l/S_o$}	[]	0.751147
{$\Psi$}	[]	0.537801
{$\eta$}	[]	0.579946
{med($\theta_e$)}	{[$^\circ$]}	63.3873
{$\Upsilon$}	[]	13
{$\Xi$}	[]	6
