Q	U	V
{$V$}	{[mm$^3$]}	0.00688719
{$d_v$}	{[mm]}	0.236056
{$S_c$}	{[mm$^2$]}	0.436214
{$S_o$}	{[mm$^2$]}	0.234765
{$S_l/S_o$}	[]	0.858088
{$\Psi$}	[]	0.401309
{$\eta$}	[]	0.452104
{med($\theta_e$)}	{[$^\circ$]}	114.664
{$\Upsilon$}	[]	11
{$\Xi$}	[]	9
