Q	U	V
{$V$}	{[mm$^3$]}	0.0158583
{$d_v$}	{[mm]}	0.311711
{$S_c$}	{[mm$^2$]}	0.522536
{$S_o$}	{[mm$^2$]}	0.362524
{$S_l/S_o$}	[]	0.441383
{$\Psi$}	[]	0.58417
{$\eta$}	[]	0.630573
{med($\theta_e$)}	{[$^\circ$]}	61.9409
{$\Upsilon$}	[]	13
{$\Xi$}	[]	8
