Q	U	V
{$V$}	{[mm$^3$]}	0.0202139
{$d_v$}	{[mm]}	0.337974
{$S_c$}	{[mm$^2$]}	0.737791
{$S_o$}	{[mm$^2$]}	0.478752
{$S_l/S_o$}	[]	0.541071
{$\Psi$}	[]	0.486389
{$\eta$}	[]	0.509745
{med($\theta_e$)}	{[$^\circ$]}	64.9651
{$\Upsilon$}	[]	14
{$\Xi$}	[]	28
