Q	U	V
{$V$}	{[mm$^3$]}	0.00858286
{$d_v$}	{[mm]}	0.254026
{$S_c$}	{[mm$^2$]}	0.419244
{$S_o$}	{[mm$^2$]}	0.242603
{$S_l/S_o$}	[]	0.728107
{$\Psi$}	[]	0.483547
{$\eta$}	[]	0.537095
{med($\theta_e$)}	{[$^\circ$]}	75.1042
{$\Upsilon$}	[]	12
{$\Xi$}	[]	17
