Q	U	V
{$V$}	{[mm$^3$]}	0.00264919
{$d_v$}	{[mm]}	0.171674
{$S_c$}	{[mm$^2$]}	0.17184
{$S_o$}	{[mm$^2$]}	0.105988
{$S_l/S_o$}	[]	0.621316
{$\Psi$}	[]	0.53881
{$\eta$}	[]	0.553538
{med($\theta_e$)}	{[$^\circ$]}	67.31745
{$\Upsilon$}	[]	15
{$\Xi$}	[]	2
