Q	U	V
{$V$}	{[mm$^3$]}	0.0066877
{$d_v$}	{[mm]}	0.233754
{$S_c$}	{[mm$^2$]}	0.31735
{$S_o$}	{[mm$^2$]}	0.207932
{$S_l/S_o$}	[]	0.526220
{$\Psi$}	[]	0.540916
{$\eta$}	[]	0.591470
{med($\theta_e$)}	{[$^\circ$]}	82.7719
{$\Upsilon$}	[]	12
{$\Xi$}	[]	13
