Q	U	V
{$V$}	{[mm$^3$]}	0.00266344
{$d_v$}	{[mm]}	0.171981
{$S_c$}	{[mm$^2$]}	0.165457
{$S_o$}	{[mm$^2$]}	0.112865
{$S_l/S_o$}	[]	0.465973
{$\Psi$}	[]	0.561601
{$\eta$}	[]	1.045432
{med($\theta_e$)}	{[$^\circ$]}	
{$\Upsilon$}	[]	14
{$\Xi$}	[]	16
