Q	U	V
{$V$}	{[mm$^3$]}	0.00631603
{$d_v$}	{[mm]}	0.229341
{$S_c$}	{[mm$^2$]}	0.301898
{$S_o$}	{[mm$^2$]}	0.193344
{$S_l/S_o$}	[]	0.561455
{$\Psi$}	[]	0.547335
{$\eta$}	[]	0.585307
{med($\theta_e$)}	{[$^\circ$]}	73.53565
{$\Upsilon$}	[]	10
{$\Xi$}	[]	9
