Q	U	V
{$V$}	{[mm$^3$]}	0.00575199
{$d_v$}	{[mm]}	0.222300
{$S_c$}	{[mm$^2$]}	0.287921
{$S_o$}	{[mm$^2$]}	0.181194
{$S_l/S_o$}	[]	0.589021
{$\Psi$}	[]	0.539208
{$\eta$}	[]	0.606132
{med($\theta_e$)}	{[$^\circ$]}	83.5836
{$\Upsilon$}	[]	11
{$\Xi$}	[]	18
