Q	U	V
{$V$}	{[mm$^3$]}	0.00402069
{$d_v$}	{[mm]}	0.197288
{$S_c$}	{[mm$^2$]}	0.251299
{$S_o$}	{[mm$^2$]}	0.134653
{$S_l/S_o$}	[]	0.866271
{$\Psi$}	[]	0.486587
{$\eta$}	[]	0.524105
{med($\theta_e$)}	{[$^\circ$]}	
{$\Upsilon$}	[]	18
{$\Xi$}	[]	2
