Q	U	V
{$V$}	{[mm$^3$]}	0.00524614
{$d_v$}	{[mm]}	0.215583
{$S_c$}	{[mm$^2$]}	0.259396
{$S_o$}	{[mm$^2$]}	0.157157
{$S_l/S_o$}	[]	0.650553
{$\Psi$}	[]	0.562878
{$\eta$}	[]	0.611235
{med($\theta_e$)}	{[$^\circ$]}	51.4664
{$\Upsilon$}	[]	10
{$\Xi$}	[]	9
