Q	U	V
{$V$}	{[mm$^3$]}	0.00402901
{$d_v$}	{[mm]}	0.197424
{$S_c$}	{[mm$^2$]}	0.21727
{$S_o$}	{[mm$^2$]}	0.137904
{$S_l/S_o$}	[]	0.575516
{$\Psi$}	[]	0.563573
{$\eta$}	[]	0.602338
{med($\theta_e$)}	{[$^\circ$]}	66.3155
{$\Upsilon$}	[]	13
{$\Xi$}	[]	12
