Q	U	V
{$V$}	{[mm$^3$]}	0.0113389
{$d_v$}	{[mm]}	0.278735
{$S_c$}	{[mm$^2$]}	0.407804
{$S_o$}	{[mm$^2$]}	0.284043
{$S_l/S_o$}	[]	0.435712
{$\Psi$}	[]	0.598522
{$\eta$}	[]	0.604062
{med($\theta_e$)}	{[$^\circ$]}	65.817
{$\Upsilon$}	[]	11
{$\Xi$}	[]	7
