Q	U	V
{$V$}	{[mm$^3$]}	0.00330348
{$d_v$}	{[mm]}	0.184781
{$S_c$}	{[mm$^2$]}	0.242673
{$S_o$}	{[mm$^2$]}	0.124004
{$S_l/S_o$}	[]	0.956977
{$\Psi$}	[]	0.442022
{$\eta$}	[]	0.466817
{med($\theta_e$)}	{[$^\circ$]}	
{$\Upsilon$}	[]	14
{$\Xi$}	[]	4
