Q	U	V
{$V$}	{[mm$^3$]}	0.00417744
{$d_v$}	{[mm]}	0.199819
{$S_c$}	{[mm$^2$]}	0.230856
{$S_o$}	{[mm$^2$]}	0.134816
{$S_l/S_o$}	[]	0.712378
{$\Psi$}	[]	0.543354
{$\eta$}	[]	0.625762
{med($\theta_e$)}	{[$^\circ$]}	56.8005
{$\Upsilon$}	[]	13
{$\Xi$}	[]	13
