Q	U	V
{$V$}	{[mm$^3$]}	0.00286412
{$d_v$}	{[mm]}	0.176197
{$S_c$}	{[mm$^2$]}	0.176949
{$S_o$}	{[mm$^2$]}	0.0988014
{$S_l/S_o$}	[]	0.790956
{$\Psi$}	[]	0.551184
{$\eta$}	[]	0.633165
{med($\theta_e$)}	{[$^\circ$]}	61.257
{$\Upsilon$}	[]	13
{$\Xi$}	[]	11
