Q	U	V
{$V$}	{[mm$^3$]}	0.000913146
{$d_v$}	{[mm]}	0.120369
{$S_c$}	{[mm$^2$]}	0.0684163
{$S_o$}	{[mm$^2$]}	0.0397497
{$S_l/S_o$}	[]	0.721178
{$\Psi$}	[]	0.665301
{$\eta$}	[]	0.681482
{med($\theta_e$)}	{[$^\circ$]}	56.9294
{$\Upsilon$}	[]	21
{$\Xi$}	[]	4
