Q	U	V
{$V$}	{[mm$^3$]}	0.0118768
{$d_v$}	{[mm]}	0.283074
{$S_c$}	{[mm$^2$]}	0.508453
{$S_o$}	{[mm$^2$]}	0.308698
{$S_l/S_o$}	[]	0.647089
{$\Psi$}	[]	0.495108
{$\eta$}	[]	0.510283
{med($\theta_e$)}	{[$^\circ$]}	49.8465
{$\Upsilon$}	[]	15
{$\Xi$}	[]	21
