Q	U	V
{$V$}	{[mm$^3$]}	0.00693588
{$d_v$}	{[mm]}	0.236611
{$S_c$}	{[mm$^2$]}	0.316379
{$S_o$}	{[mm$^2$]}	0.180305
{$S_l/S_o$}	[]	0.754688
{$\Psi$}	[]	0.555918
{$\eta$}	[]	0.565180
{med($\theta_e$)}	{[$^\circ$]}	113.636
{$\Upsilon$}	[]	15
{$\Xi$}	[]	13
