Q	U	V
{$V$}	{[mm$^3$]}	0.00523901
{$d_v$}	{[mm]}	0.215485
{$S_c$}	{[mm$^2$]}	0.218395
{$S_o$}	{[mm$^2$]}	0.146835
{$S_l/S_o$}	[]	0.487350
{$\Psi$}	[]	0.667945
{$\eta$}	[]	0.709036
{med($\theta_e$)}	{[$^\circ$]}	53.062
{$\Upsilon$}	[]	14
{$\Xi$}	[]	14
