Q	U	V
{$V$}	{[mm$^3$]}	0.00298762
{$d_v$}	{[mm]}	0.178694
{$S_c$}	{[mm$^2$]}	0.178605
{$S_o$}	{[mm$^2$]}	0.0961265
{$S_l/S_o$}	[]	0.858020
{$\Psi$}	[]	0.561661
{$\eta$}	[]	0.624663
{med($\theta_e$)}	{[$^\circ$]}	75.3835
{$\Upsilon$}	[]	15
{$\Xi$}	[]	5
