Q	U	V
{$V$}	{[mm$^3$]}	0.00124682
{$d_v$}	{[mm]}	0.133537
{$S_c$}	{[mm$^2$]}	0.0926126
{$S_o$}	{[mm$^2$]}	0.0523399
{$S_l/S_o$}	[]	0.769445
{$\Psi$}	[]	0.604899
{$\eta$}	[]	0.654509
{med($\theta_e$)}	{[$^\circ$]}	57.5166
{$\Upsilon$}	[]	16
{$\Xi$}	[]	6
