Q	U	V
{$V$}	{[mm$^3$]}	0.00542782
{$d_v$}	{[mm]}	0.218043
{$S_c$}	{[mm$^2$]}	0.261908
{$S_o$}	{[mm$^2$]}	0.162613
{$S_l/S_o$}	[]	0.610622
{$\Psi$}	[]	0.570277
{$\eta$}	[]	0.614334
{med($\theta_e$)}	{[$^\circ$]}	
{$\Upsilon$}	[]	14
{$\Xi$}	[]	7
