Q	U	V
{$V$}	{[mm$^3$]}	0.0031408
{$d_v$}	{[mm]}	0.181697
{$S_c$}	{[mm$^2$]}	0.173532
{$S_o$}	{[mm$^2$]}	0.105819
{$S_l/S_o$}	[]	0.639895
{$\Psi$}	[]	0.597675
{$\eta$}	[]	0.656098
{med($\theta_e$)}	{[$^\circ$]}	56.8013
{$\Upsilon$}	[]	13
{$\Xi$}	[]	7
