Q	U	V
{$V$}	{[mm$^3$]}	0.00487566
{$d_v$}	{[mm]}	0.210383
{$S_c$}	{[mm$^2$]}	0.273084
{$S_o$}	{[mm$^2$]}	0.157398
{$S_l/S_o$}	[]	0.734990
{$\Psi$}	[]	0.509186
{$\eta$}	[]	0.564731
{med($\theta_e$)}	{[$^\circ$]}	
{$\Upsilon$}	[]	11
{$\Xi$}	[]	11
