Q	U	V
{$V$}	{[mm$^3$]}	0.00426293
{$d_v$}	{[mm]}	0.201173
{$S_c$}	{[mm$^2$]}	0.266256
{$S_o$}	{[mm$^2$]}	0.146479
{$S_l/S_o$}	[]	0.817708
{$\Psi$}	[]	0.477518
{$\eta$}	[]	0.502490
{med($\theta_e$)}	{[$^\circ$]}	
{$\Upsilon$}	[]	16
{$\Xi$}	[]	11
