Q	U	V
{$V$}	{[mm$^3$]}	0.00917302
{$d_v$}	{[mm]}	0.259720
{$S_c$}	{[mm$^2$]}	0.356857
{$S_o$}	{[mm$^2$]}	0.229578
{$S_l/S_o$}	[]	0.554404
{$\Psi$}	[]	0.593834
{$\eta$}	[]	0.628358
{med($\theta_e$)}	{[$^\circ$]}	73.1399
{$\Upsilon$}	[]	13
{$\Xi$}	[]	13
