Q	U	V
{$V$}	{[mm$^3$]}	0.00776471
{$d_v$}	{[mm]}	0.245683
{$S_c$}	{[mm$^2$]}	0.332111
{$S_o$}	{[mm$^2$]}	0.191602
{$S_l/S_o$}	[]	0.733338
{$\Psi$}	[]	0.570976
{$\eta$}	[]	0.592976
{med($\theta_e$)}	{[$^\circ$]}	54.999
{$\Upsilon$}	[]	10
{$\Xi$}	[]	12
