Q	U	V
{$V$}	{[mm$^3$]}	0.00255895
{$d_v$}	{[mm]}	0.169702
{$S_c$}	{[mm$^2$]}	0.18281
{$S_o$}	{[mm$^2$]}	0.0959354
{$S_l/S_o$}	[]	0.905553
{$\Psi$}	[]	0.494909
{$\eta$}	[]	0.524356
{med($\theta_e$)}	{[$^\circ$]}	
{$\Upsilon$}	[]	9
{$\Xi$}	[]	9
