Q	U	V
{$V$}	{[mm$^3$]}	0.0131593
{$d_v$}	{[mm]}	0.292917
{$S_c$}	{[mm$^2$]}	0.616059
{$S_o$}	{[mm$^2$]}	0.333364
{$S_l/S_o$}	[]	0.848007
{$\Psi$}	[]	0.437539
{$\eta$}	[]	0.457666
{med($\theta_e$)}	{[$^\circ$]}	79.9667
{$\Upsilon$}	[]	10
{$\Xi$}	[]	9
