Q	U	V
{$V$}	{[mm$^3$]}	0.00493147
{$d_v$}	{[mm]}	0.211183
{$S_c$}	{[mm$^2$]}	0.355471
{$S_o$}	{[mm$^2$]}	0.208527
{$S_l/S_o$}	[]	0.704676
{$\Psi$}	[]	0.394152
{$\eta$}	[]	0.540157
{med($\theta_e$)}	{[$^\circ$]}	97.3776
{$\Upsilon$}	[]	12
{$\Xi$}	[]	16
