Q	U	V
{$V$}	{[mm$^3$]}	0.0110516
{$d_v$}	{[mm]}	0.276360
{$S_c$}	{[mm$^2$]}	0.493987
{$S_o$}	{[mm$^2$]}	0.31968
{$S_l/S_o$}	[]	0.545255
{$\Psi$}	[]	0.485719
{$\eta$}	[]	0.508611
{med($\theta_e$)}	{[$^\circ$]}	79.12865
{$\Upsilon$}	[]	13
{$\Xi$}	[]	9
