Q	U	V
{$V$}	{[mm$^3$]}	0.00159237
{$d_v$}	{[mm]}	0.144882
{$S_c$}	{[mm$^2$]}	0.11997
{$S_o$}	{[mm$^2$]}	0.0591282
{$S_l/S_o$}	[]	1.028981
{$\Psi$}	[]	0.549677
{$\eta$}	[]	0.713169
{med($\theta_e$)}	{[$^\circ$]}	65.5374
{$\Upsilon$}	[]	13
{$\Xi$}	[]	9
