Q	U	V
{$V$}	{[mm$^3$]}	0.00536607
{$d_v$}	{[mm]}	0.217213
{$S_c$}	{[mm$^2$]}	0.320636
{$S_o$}	{[mm$^2$]}	0.174638
{$S_l/S_o$}	[]	0.836004
{$\Psi$}	[]	0.462285
{$\eta$}	[]	0.472826
{med($\theta_e$)}	{[$^\circ$]}	60.8458
{$\Upsilon$}	[]	15
{$\Xi$}	[]	9
