Q	U	V
{$V$}	{[mm$^3$]}	0.00373214
{$d_v$}	{[mm]}	0.192451
{$S_c$}	{[mm$^2$]}	0.250608
{$S_o$}	{[mm$^2$]}	0.137538
{$S_l/S_o$}	[]	0.822100
{$\Psi$}	[]	0.464296
{$\eta$}	[]	0.558131
{med($\theta_e$)}	{[$^\circ$]}	81.38185
{$\Upsilon$}	[]	10
{$\Xi$}	[]	7
