Q	U	V
{$V$}	{[mm$^3$]}	0.00320967
{$d_v$}	{[mm]}	0.183015
{$S_c$}	{[mm$^2$]}	0.18341
{$S_o$}	{[mm$^2$]}	0.095491
{$S_l/S_o$}	[]	0.920705
{$\Psi$}	[]	0.573722
{$\eta$}	[]	0.586418
{med($\theta_e$)}	{[$^\circ$]}	75.4382
{$\Upsilon$}	[]	15
{$\Xi$}	[]	14
