Q	U	V
{$V$}	{[mm$^3$]}	0.00532807
{$d_v$}	{[mm]}	0.216699
{$S_c$}	{[mm$^2$]}	0.365684
{$S_o$}	{[mm$^2$]}	0.19414
{$S_l/S_o$}	[]	0.883610
{$\Psi$}	[]	0.403421
{$\eta$}	[]	0.450487
{med($\theta_e$)}	{[$^\circ$]}	100.261
{$\Upsilon$}	[]	13
{$\Xi$}	[]	7
