Q	U	V
{$V$}	{[mm$^3$]}	0.0137067
{$d_v$}	{[mm]}	0.296924
{$S_c$}	{[mm$^2$]}	0.59645
{$S_o$}	{[mm$^2$]}	0.337037
{$S_l/S_o$}	[]	0.769687
{$\Psi$}	[]	0.464371
{$\eta$}	[]	0.495689
{med($\theta_e$)}	{[$^\circ$]}	79.0956
{$\Upsilon$}	[]	9
{$\Xi$}	[]	7
