Q	U	V
{$V$}	{[mm$^3$]}	0.00383783
{$d_v$}	{[mm]}	0.194251
{$S_c$}	{[mm$^2$]}	0.180239
{$S_o$}	{[mm$^2$]}	0.12042
{$S_l/S_o$}	[]	0.496753
{$\Psi$}	[]	0.657697
{$\eta$}	[]	0.712504
{med($\theta_e$)}	{[$^\circ$]}	52.83665
{$\Upsilon$}	[]	12
{$\Xi$}	[]	10
