Q	U	V
{$V$}	{[mm$^3$]}	0.00410738
{$d_v$}	{[mm]}	0.198696
{$S_c$}	{[mm$^2$]}	0.286964
{$S_o$}	{[mm$^2$]}	0.149019
{$S_l/S_o$}	[]	0.925687
{$\Psi$}	[]	0.432215
{$\eta$}	[]	0.449293
{med($\theta_e$)}	{[$^\circ$]}	
{$\Upsilon$}	[]	9
{$\Xi$}	[]	5
