Q	U	V
{$V$}	{[mm$^3$]}	0.00487566
{$d_v$}	{[mm]}	0.210383
{$S_c$}	{[mm$^2$]}	0.243436
{$S_o$}	{[mm$^2$]}	0.151833
{$S_l/S_o$}	[]	0.603314
{$\Psi$}	[]	0.5712
{$\eta$}	[]	0.645192
{med($\theta_e$)}	{[$^\circ$]}	64.39655
{$\Upsilon$}	[]	12
{$\Xi$}	[]	11
