Q	U	V
{$V$}	{[mm$^3$]}	0.00913146
{$d_v$}	{[mm]}	0.259327
{$S_c$}	{[mm$^2$]}	0.384464
{$S_o$}	{[mm$^2$]}	0.244151
{$S_l/S_o$}	[]	0.574698
{$\Psi$}	[]	0.549526
{$\eta$}	[]	0.640585
{med($\theta_e$)}	{[$^\circ$]}	91.2675
{$\Upsilon$}	[]	7
{$\Xi$}	[]	24
