Q	U	V
{$V$}	{[mm$^3$]}	0.00118863
{$d_v$}	{[mm]}	0.131426
{$S_c$}	{[mm$^2$]}	0.0832367
{$S_o$}	{[mm$^2$]}	0.0500886
{$S_l/S_o$}	[]	0.661789
{$\Psi$}	[]	0.651929
{$\eta$}	[]	0.703958
{med($\theta_e$)}	{[$^\circ$]}	59.62265
{$\Upsilon$}	[]	19
{$\Xi$}	[]	5
