Q	U	V
{$V$}	{[mm$^3$]}	0.00671738
{$d_v$}	{[mm]}	0.234099
{$S_c$}	{[mm$^2$]}	0.308123
{$S_o$}	{[mm$^2$]}	0.194301
{$S_l/S_o$}	[]	0.585802
{$\Psi$}	[]	0.558762
{$\eta$}	[]	0.612768
{med($\theta_e$)}	{[$^\circ$]}	56.5477
{$\Upsilon$}	[]	15
{$\Xi$}	[]	12
