Q	U	V
{$V$}	{[mm$^3$]}	0.00662595
{$d_v$}	{[mm]}	0.233033
{$S_c$}	{[mm$^2$]}	0.304707
{$S_o$}	{[mm$^2$]}	0.179327
{$S_l/S_o$}	[]	0.699170
{$\Psi$}	[]	0.559887
{$\eta$}	[]	0.582885
{med($\theta_e$)}	{[$^\circ$]}	
{$\Upsilon$}	[]	11
{$\Xi$}	[]	5
