Q	U	V
{$V$}	{[mm$^3$]}	0.00543851
{$d_v$}	{[mm]}	0.218186
{$S_c$}	{[mm$^2$]}	0.371939
{$S_o$}	{[mm$^2$]}	0.193338
{$S_l/S_o$}	[]	0.923776
{$\Psi$}	[]	0.402098
{$\eta$}	[]	0.453733
{med($\theta_e$)}	{[$^\circ$]}	71.3171
{$\Upsilon$}	[]	10
{$\Xi$}	[]	7
