Q	U	V
{$V$}	{[mm$^3$]}	0.00455979
{$d_v$}	{[mm]}	0.205738
{$S_c$}	{[mm$^2$]}	0.292126
{$S_o$}	{[mm$^2$]}	0.158416
{$S_l/S_o$}	[]	0.844044
{$\Psi$}	[]	0.455209
{$\eta$}	[]	0.571654
{med($\theta_e$)}	{[$^\circ$]}	75.7456
{$\Upsilon$}	[]	13
{$\Xi$}	[]	13
