Q	U	V
{$V$}	{[mm$^3$]}	0.0011732
{$d_v$}	{[mm]}	0.130855
{$S_c$}	{[mm$^2$]}	0.0951356
{$S_o$}	{[mm$^2$]}	0.0500758
{$S_l/S_o$}	[]	0.899832
{$\Psi$}	[]	0.565443
{$\eta$}	[]	0.614985
{med($\theta_e$)}	{[$^\circ$]}	74.7251
{$\Upsilon$}	[]	11
{$\Xi$}	[]	3
