Q	U	V
{$V$}	{[mm$^3$]}	0.00430093
{$d_v$}	{[mm]}	0.201769
{$S_c$}	{[mm$^2$]}	0.263654
{$S_o$}	{[mm$^2$]}	0.14089
{$S_l/S_o$}	[]	0.871346
{$\Psi$}	[]	0.485093
{$\eta$}	[]	0.507574
{med($\theta_e$)}	{[$^\circ$]}	
{$\Upsilon$}	[]	15
{$\Xi$}	[]	8
