Q	U	V
{$V$}	{[mm$^3$]}	0.00235471
{$d_v$}	{[mm]}	0.165062
{$S_c$}	{[mm$^2$]}	0.190246
{$S_o$}	{[mm$^2$]}	0.0920724
{$S_l/S_o$}	[]	1.066265
{$\Psi$}	[]	0.449911
{$\eta$}	[]	0.537346
{med($\theta_e$)}	{[$^\circ$]}	
{$\Upsilon$}	[]	13
{$\Xi$}	[]	8
