Q	U	V
{$V$}	{[mm$^3$]}	0.0178331
{$d_v$}	{[mm]}	0.324148
{$S_c$}	{[mm$^2$]}	0.571519
{$S_o$}	{[mm$^2$]}	0.404972
{$S_l/S_o$}	[]	0.411256
{$\Psi$}	[]	0.57757
{$\eta$}	[]	0.609479
{med($\theta_e$)}	{[$^\circ$]}	64.90515
{$\Upsilon$}	[]	11
{$\Xi$}	[]	14
