Q	U	V
{$V$}	{[mm$^3$]}	0.0094497
{$d_v$}	{[mm]}	0.262305
{$S_c$}	{[mm$^2$]}	0.387657
{$S_o$}	{[mm$^2$]}	0.247053
{$S_l/S_o$}	[]	0.569125
{$\Psi$}	[]	0.55759
{$\eta$}	[]	0.569209
{med($\theta_e$)}	{[$^\circ$]}	79.1541
{$\Upsilon$}	[]	13
{$\Xi$}	[]	13
