Q	U	V
{$V$}	{[mm$^3$]}	0.0202412
{$d_v$}	{[mm]}	0.338127
{$S_c$}	{[mm$^2$]}	0.851624
{$S_o$}	{[mm$^2$]}	0.525312
{$S_l/S_o$}	[]	0.621178
{$\Psi$}	[]	0.421755
{$\eta$}	[]	0.430702
{med($\theta_e$)}	{[$^\circ$]}	68.06785
{$\Upsilon$}	[]	11
{$\Xi$}	[]	16
