Q	U	V
{$V$}	{[mm$^3$]}	0.0077184
{$d_v$}	{[mm]}	0.245194
{$S_c$}	{[mm$^2$]}	0.381702
{$S_o$}	{[mm$^2$]}	0.225477
{$S_l/S_o$}	[]	0.692864
{$\Psi$}	[]	0.494817
{$\eta$}	[]	0.550304
{med($\theta_e$)}	{[$^\circ$]}	51.5131
{$\Upsilon$}	[]	9
{$\Xi$}	[]	9
