Q	U	V
{$V$}	{[mm$^3$]}	0.0061011
{$d_v$}	{[mm]}	0.226710
{$S_c$}	{[mm$^2$]}	0.284024
{$S_o$}	{[mm$^2$]}	0.157894
{$S_l/S_o$}	[]	0.798827
{$\Psi$}	[]	0.568505
{$\eta$}	[]	0.604340
{med($\theta_e$)}	{[$^\circ$]}	59.5126
{$\Upsilon$}	[]	12
{$\Xi$}	[]	18
