Q	U	V
{$V$}	{[mm$^3$]}	0.00532807
{$d_v$}	{[mm]}	0.216699
{$S_c$}	{[mm$^2$]}	0.211944
{$S_o$}	{[mm$^2$]}	0.156409
{$S_l/S_o$}	[]	0.355063
{$\Psi$}	[]	0.696054
{$\eta$}	[]	0.707862
{med($\theta_e$)}	{[$^\circ$]}	58.6827
{$\Upsilon$}	[]	15
{$\Xi$}	[]	6
