Q	U	V
{$V$}	{[mm$^3$]}	0.00845224
{$d_v$}	{[mm]}	0.252731
{$S_c$}	{[mm$^2$]}	0.346483
{$S_o$}	{[mm$^2$]}	0.22532
{$S_l/S_o$}	[]	0.537737
{$\Psi$}	[]	0.57914
{$\eta$}	[]	0.632077
{med($\theta_e$)}	{[$^\circ$]}	83.8519
{$\Upsilon$}	[]	11
{$\Xi$}	[]	7
