Q	U	V
{$V$}	{[mm$^3$]}	0.00572349
{$d_v$}	{[mm]}	0.221932
{$S_c$}	{[mm$^2$]}	0.292071
{$S_o$}	{[mm$^2$]}	0.199929
{$S_l/S_o$}	[]	0.460874
{$\Psi$}	[]	0.529789
{$\eta$}	[]	0.756251
{med($\theta_e$)}	{[$^\circ$]}	
{$\Upsilon$}	[]	13
{$\Xi$}	[]	14
