facetNormals:0,facetNormals:1,facetNormals:2,FacetCenters:0,FacetCenters:1,FacetCenters:2,FacetIds,relFacetSize,absFacetSize,cellPairingIds,interplanarAngles,angleWeights
0.535995,-0.060248,-0.805869,5.49749,4.60248,3.93962,1,0.118613,0.0206381,8,56.6937,0.0736437
-0.192178,0.509964,-0.812262,5.42356,4.68739,3.9587,2,0.0533988,0.00929108,13,69.1072,0.0493079
-0.456042,-0.520845,-0.681144,5.44524,4.62982,3.96446,3,0.0311229,0.0054152,19,34.4594,0.0901467
0.489926,0.500297,-0.679919,5.4914,4.67662,4.0002,4,0.0726992,0.0126493,26,26.7367,0.0446298
0.851732,-0.121399,-0.486675,5.53171,4.63039,3.99437,5,0.0274859,0.00478239,34,78.4456,0.0473544
-0.274348,0.806898,-0.478355,5.4144,4.71336,3.97372,6,0.0295824,0.00514716,43,99.8665,0.0354465
-0.756264,0.515032,-0.340224,5.43155,4.75903,4.02696,7,0.0208367,0.00362547,53,49.4359,0.0773292
0.736288,0.558744,-0.316575,5.49712,4.71724,4.05212,8,0.0573634,0.00998091,64,81.3671,0.0616983
0.819119,0.425037,0.335665,5.52054,4.68764,4.06338,9,0.0416926,0.00725427,76,123.107,0.105551
-0.658209,-0.630754,0.226828,5.50331,4.72238,4.10546,10,0.0950795,0.0165433,89,96.7541,0.0551576
0.541826,0.691874,0.44826,5.49112,4.73395,4.07003,11,0.0359337,0.00625226,103,132.884,0.0570499
0.126956,-0.324853,0.896307,5.49697,4.63162,4.03051,12,0.0375569,0.00653469,18,66.7301,0.0393254
,,,,,,,,,25,41.6597,0.0615719
,,,,,,,,,33,79.8902,0.0362915
,,,,,,,,,42,26.8694,0.0380728
,,,,,,,,,52,44.218,0.0299763
,,,,,,,,,63,65.2176,0.0553101
,,,,,,,,,75,102.831,0.0468251
,,,,,,,,,88,114.387,0.0683888
,,,,,,,,,102,96.8686,0.042959
,,,,,,,,,117,167.4,0.0440982
,,,,,,,,,32,91.2623,0.0435863
,,,,,,,,,41,89.6239,0.0291915
,,,,,,,,,51,88.1481,0.0303331
,,,,,,,,,62,71.0181,0.0249616
,,,,,,,,,74,115.679,0.0403523
,,,,,,,,,87,149.719,0.0356406
,,,,,,,,,101,58.6854,0.0468953
,,,,,,,,,116,162.31,0.0333557
,,,,,,,,,132,122.307,0.0340385
,,,,,,,,,50,44.5556,0.0398902
,,,,,,,,,61,51.4457,0.0420528
,,,,,,,,,73,82.8567,0.0323899
,,,,,,,,,86,26.2125,0.0641272
,,,,,,,,,100,66.2681,0.0529936
,,,,,,,,,115,149.775,0.0823967
,,,,,,,,,131,71.4185,0.0480951
,,,,,,,,,148,139.12,0.0495276
,,,,,,,,,72,95.8715,0.0284956
,,,,,,,,,85,124.108,0.0237038
,,,,,,,,,99,42.3809,0.0371643
,,,,,,,,,114,60.1776,0.0331305
,,,,,,,,,130,129.803,0.0426441
,,,,,,,,,147,80.5953,0.0311472
,,,,,,,,,165,107.675,0.0317417
,,,,,,,,,98,34.5487,0.024451
,,,,,,,,,113,65.2152,0.0390346
,,,,,,,,,129,92.5279,0.0346087
,,,,,,,,,146,118.414,0.0451249
,,,,,,,,,164,78.3195,0.0324502
,,,,,,,,,183,140.538,0.033096
,,,,,,,,,128,99.74,0.0305694
,,,,,,,,,145,122.479,0.0277865
,,,,,,,,,163,84.0069,0.0341823
,,,,,,,,,182,102.348,0.0263778
,,,,,,,,,202,127.248,0.026803
,,,,,,,,,162,40.0566,0.0482884
,,,,,,,,,181,171.987,0.0715558
,,,,,,,,,201,48.1048,0.0441875
,,,,,,,,,222,113.307,0.0453937
,,,,,,,,,200,142.422,0.0579667
,,,,,,,,,221,23.5042,0.0385995
,,,,,,,,,243,73.5924,0.0395168
,,,,,,,,,242,138.244,0.052156
,,,,,,,,,265,68.9422,0.0538448
,,,,,,,,,288,74.9849,0.0367274
