Q	U	V
{$V$}	{[mm$^3$]}	0.00277981
{$d_v$}	{[mm]}	0.174450
{$S_c$}	{[mm$^2$]}	0.174154
{$S_o$}	{[mm$^2$]}	0.0997117
{$S_l/S_o$}	[]	0.746575
{$\Psi$}	[]	0.548985
{$\eta$}	[]	0.608685
{med($\theta_e$)}	{[$^\circ$]}	60.0645
{$\Upsilon$}	[]	13
{$\Xi$}	[]	7
