facetNormals:0,facetNormals:1,facetNormals:2,FacetCenters:0,FacetCenters:1,FacetCenters:2,FacetIds,relFacetSize,absFacetSize,cellPairingIds,interplanarAngles,angleWeights
-0.066129,-0.495531,-0.850638,7.30677,7.55651,5.25536,1,0.0201597,0.00359037,8,28.1423,0.021435
0.341172,-0.247675,-0.883289,7.37867,7.57662,5.26019,2,0.0228824,0.00407527,13,49.1356,0.0353777
-0.0943177,0.30385,-0.879328,7.31295,7.60885,5.2495,3,0.144323,0.0257034,19,51.4974,0.0218691
-0.737904,-0.0085821,-0.645708,7.21685,7.56269,5.27119,4,0.0238951,0.00425563,26,51.1089,0.0172043
-0.734769,-0.55569,-0.332381,7.22391,7.54374,5.33324,5,0.0150046,0.00267226,34,94.0672,0.0275509
0.627164,0.668392,-0.357193,7.41344,7.66465,5.31431,6,0.0434989,0.00774698,43,91.5367,0.034608
0.921096,0.220379,-0.170055,7.45043,7.61084,5.35707,7,0.122156,0.0217554,53,114.224,0.0309865
0.16866,0.945128,-0.104097,7.35234,7.66072,5.32361,8,0.0669328,0.0119205,64,96.4656,0.0312917
-0.934988,0.113672,0.130668,7.21762,7.57947,5.36923,9,0.0698771,0.0124448,76,139.058,0.0312735
-0.409515,0.774861,0.439466,7.30783,7.65738,5.39139,10,0.0696959,0.0124126,89,155.603,0.0312243
0.0402805,0.781864,0.555336,7.34,7.64381,5.4234,11,0.0692101,0.0123261,103,144.754,0.0272161
-0.507978,0.356493,0.764811,7.27375,7.61224,5.41704,12,0.0418725,0.00745733,118,159.193,0.0230058
0.0313433,0.159271,0.953451,7.3805,7.61799,5.4703,13,0.0267877,0.00477078,18,43.0089,0.0395018
,,,,,,,,,25,70.4774,0.0233778
,,,,,,,,,33,79.1439,0.0181245
,,,,,,,,,42,67.7904,0.0299891
,,,,,,,,,52,64.2012,0.0385446
,,,,,,,,,63,95.135,0.0341052
,,,,,,,,,75,119.803,0.0344753
,,,,,,,,,88,138.6,0.0344532
,,,,,,,,,102,135.531,0.0343935
,,,,,,,,,117,166.45,0.0295929
,,,,,,,,,133,156.933,0.0246815
,,,,,,,,,32,46.1894,0.0410017
,,,,,,,,,41,77.8517,0.0271831
,,,,,,,,,51,60.1372,0.0668494
,,,,,,,,,62,81.7175,0.132317
,,,,,,,,,74,66.3114,0.0914526
,,,,,,,,,87,89.4958,0.0941631
,,,,,,,,,101,97.0401,0.0939984
,,,,,,,,,116,106.475,0.0935556
,,,,,,,,,132,124.095,0.0649121
,,,,,,,,,149,151.254,0.045188
,,,,,,,,,50,37.5299,0.0184339
,,,,,,,,,61,104.277,0.0308458
,,,,,,,,,73,127.299,0.0399714
,,,,,,,,,86,93.9573,0.0352175
,,,,,,,,,100,49.5786,0.0356123
,,,,,,,,,115,89.2988,0.0355887
,,,,,,,,,131,114.815,0.0355251
,,,,,,,,,148,97.261,0.0304268
,,,,,,,,,166,132.453,0.0252589
,,,,,,,,,72,137.784,0.0223126
,,,,,,,,,85,142.012,0.0267263
,,,,,,,,,99,130.524,0.0245138
,,,,,,,,,114,51.4471,0.0247044
,,,,,,,,,130,106.689,0.0246931
,,,,,,,,,147,133.632,0.0246624
,,,,,,,,,165,94.7014,0.0220925
,,,,,,,,,184,116.893,0.019235
,,,,,,,,,98,33.8927,0.0641532
,,,,,,,,,113,35.3638,0.0527295
,,,,,,,,,129,126.553,0.0536194
,,,,,,,,,146,83.8034,0.053566
,,,,,,,,,164,68.2758,0.0534219
,,,,,,,,,183,111.399,0.0426702
,,,,,,,,,203,103.027,0.0331567
,,,,,,,,,128,65.7708,0.0864804
,,,,,,,,,145,159.741,0.0889003
,,,,,,,,,163,107.34,0.0887535
,,,,,,,,,182,82.8493,0.0883586
,,,,,,,,,202,123.233,0.0623669
,,,,,,,,,223,96.0551,0.0439397
,,,,,,,,,162,93.988,0.0683733
,,,,,,,,,181,49.2897,0.0682864
,,,,,,,,,201,42.0824,0.0680524
,,,,,,,,,222,79.6034,0.0515167
,,,,,,,,,244,86.5278,0.0382621
,,,,,,,,,200,55.4743,0.0697864
,,,,,,,,,221,82.2058,0.069542
,,,,,,,,,243,48.9206,0.0523658
,,,,,,,,,266,82.9181,0.0387286
,,,,,,,,,242,27.6778,0.0694522
,,,,,,,,,265,31.8369,0.0523149
,,,,,,,,,289,56.0484,0.0387007
,,,,,,,,,288,43.7427,0.0521774
,,,,,,,,,313,45.1016,0.0386254
,,,,,,,,,338,36.0603,0.032673
