Q	U	V
{$V$}	{[mm$^3$]}	0.00863392
{$d_v$}	{[mm]}	0.254529
{$S_c$}	{[mm$^2$]}	0.492553
{$S_o$}	{[mm$^2$]}	0.293496
{$S_l/S_o$}	[]	0.678227
{$\Psi$}	[]	0.413209
{$\eta$}	[]	0.429531
{med($\theta_e$)}	{[$^\circ$]}	115.603
{$\Upsilon$}	[]	14
{$\Xi$}	[]	12
