facetNormals:0,facetNormals:1,facetNormals:2,FacetCenters:0,FacetCenters:1,FacetCenters:2,FacetIds,relFacetSize,absFacetSize,cellPairingIds,interplanarAngles,angleWeights
0.294739,0.175089,-0.924624,3.93101,4.86931,5.08873,1,0.0123138,0.00141079,8,52.5368,0.0134472
0.355333,-0.644483,-0.642555,3.93322,4.85764,5.09495,2,0.0148104,0.00169682,13,69.1589,0.0178239
-0.734148,-0.131027,-0.629022,3.87505,4.87917,5.11267,3,0.0322587,0.00369587,19,63.0107,0.0232884
-0.35333,0.756958,-0.422356,3.88333,4.89254,5.12184,4,0.214134,0.0245332,26,53.8564,0.0224411
0.896554,-0.0315913,-0.319166,3.99177,4.88689,5.1581,5,0.126381,0.0144795,34,101.517,0.019802
-0.967868,0.172075,-0.0661304,3.86341,4.89884,5.17297,6,0.0505308,0.0057893,43,95.105,0.00748926
0.153678,-0.978187,-0.0421903,3.92702,4.83251,5.1275,7,0.00538099,0.000616498,53,97.8197,0.0163889
0.518633,-0.800414,0.153941,3.88248,4.83321,5.10387,8,0.0244956,0.00280645,64,64.0706,0.0195208
0.618478,0.737244,-0.115225,3.96881,4.93806,5.18182,9,0.0470695,0.00539273,76,124.405,0.0193403
-0.833506,0.299638,0.369368,3.87668,4.91541,5.21723,10,0.0450429,0.00516055,89,117.746,0.0166383
0.607151,-0.433398,0.580923,3.85649,4.8579,5.04847,11,0.0256446,0.0029381,103,105.206,0.0219126
0.188089,0.809884,0.482191,3.93298,4.94571,5.22253,12,0.0993849,0.0113865,118,106.753,0.0203739
0.688757,0.34026,0.57989,3.98309,4.89442,5.23067,13,0.0589793,0.00675724,134,157.021,0.0152276
0.0636206,-0.325323,0.905242,3.83261,4.85116,5.06261,14,0.0199479,0.00228542,151,139.45,0.0193494
-0.082715,0.464736,0.848465,3.91889,4.91384,5.27708,15,0.0451413,0.00517182,18,76.1752,0.0203005
,,,,,,,,,25,111.961,0.0277046
,,,,,,,,,33,54.2119,0.0265137
,,,,,,,,,42,115.363,0.0229069
,,,,,,,,,52,42.6526,0.00789392
,,,,,,,,,63,50.4326,0.0184597
,,,,,,,,,75,101.041,0.0225313
,,,,,,,,,88,140.805,0.0222913
,,,,,,,,,102,82.4241,0.0187768
,,,,,,,,,117,144.551,0.0257791
,,,,,,,,,133,111.665,0.0236756
,,,,,,,,,150,111.776,0.0169995
,,,,,,,,,168,157.141,0.0223033
,,,,,,,,,32,62.2023,0.0560706
,,,,,,,,,41,119.207,0.0513982
,,,,,,,,,51,40.6209,0.0393784
,,,,,,,,,62,87.5172,0.00922345
,,,,,,,,,74,113.293,0.0278462
,,,,,,,,,87,120.379,0.0382815
,,,,,,,,,101,68.6855,0.0375937
,,,,,,,,,116,144.866,0.0285739
,,,,,,,,,132,125.724,0.0487077
,,,,,,,,,149,167.007,0.0417062
,,,,,,,,,167,127.573,0.0246518
,,,,,,,,,186,124.305,0.0376279
,,,,,,,,,50,103.356,0.15895
,,,,,,,,,61,57.1587,0.0817665
,,,,,,,,,73,146.873,0.0104982
,,,,,,,,,86,160.824,0.0439621
,,,,,,,,,100,64.6654,0.0771749
,,,,,,,,,115,66.0042,0.0744296
,,,,,,,,,131,152.911,0.0458038
,,,,,,,,,148,67.5939,0.13576
,,,,,,,,,166,104.837,0.0924852
,,,,,,,,,185,136.178,0.0364959
,,,,,,,,,205,88.5715,0.0745638
,,,,,,,,,72,155.263,0.0721958
,,,,,,,,,85,78.8713,0.0103225
,,,,,,,,,99,61.3445,0.0410372
,,,,,,,,,114,52.0142,0.0685924
,,,,,,,,,130,163.169,0.0664152
,,,,,,,,,147,65.5501,0.0426375
,,,,,,,,,165,90.6794,0.111269
,,,,,,,,,184,62.6068,0.0804258
,,,,,,,,,204,103.97,0.0344571
,,,,,,,,,225,112.893,0.066522
,,,,,,,,,98,108.774,0.00972624
,,,,,,,,,113,133.059,0.0329959
,,,,,,,,,129,119.081,0.0487388
,,,,,,,,,146,28.1273,0.0476293
,,,,,,,,,164,138.774,0.0340226
,,,,,,,,,183,94.5165,0.0669976
,,,,,,,,,203,132.972,0.0544292
,,,,,,,,,224,100.766,0.0286039
,,,,,,,,,246,83.7637,0.0476842
,,,,,,,,,128,26.5965,0.00882367
,,,,,,,,,145,130.299,0.00965789
,,,,,,,,,163,117.338,0.00961352
,,,,,,,,,182,58.2752,0.00889546
,,,,,,,,,202,145.353,0.0102092
,,,,,,,,,223,105.284,0.0098622
,,,,,,,,,245,72.3422,0.00847566
,,,,,,,,,268,121.522,0.00961576
,,,,,,,,,162,107.854,0.0322223
,,,,,,,,,181,131.577,0.0317336
,,,,,,,,,201,34.6729,0.0250569
,,,,,,,,,222,120.872,0.0393039
,,,,,,,,,244,79.2069,0.0346148
,,,,,,,,,267,62.3127,0.0219891
,,,,,,,,,291,107.641,0.0317579
,,,,,,,,,200,111.254,0.0460339
,,,,,,,,,221,90.6845,0.0332007
,,,,,,,,,243,45.0729,0.0638833
,,,,,,,,,266,49.1618,0.0523556
,,,,,,,,,290,109.04,0.0280207
,,,,,,,,,315,78.1211,0.0460852
,,,,,,,,,242,117.67,0.0326821
,,,,,,,,,265,73.368,0.0619906
,,,,,,,,,289,106.215,0.0510775
,,,,,,,,,314,78.5368,0.0276504
,,,,,,,,,340,55.9589,0.045092
,,,,,,,,,288,87.2681,0.0407694
,,,,,,,,,313,48.1145,0.0357465
,,,,,,,,,339,39.2836,0.0224404
,,,,,,,,,366,74.7633,0.032708
,,,,,,,,,338,42.2547,0.0740275
,,,,,,,,,365,78.4833,0.0332267
,,,,,,,,,393,34.406,0.0620837
,,,,,,,,,392,60.4183,0.0298126
,,,,,,,,,421,50.6003,0.0511407
,,,,,,,,,450,49.1993,0.0276689
