"cellPairingIds","interplanarAngles","angleWeights"
8,37.7496,0.107825
19,112.016,0.0379384
26,49.3483,0.0609314
34,91.1605,0.104196
43,63.2377,0.0353793
25,75.9081,0.0339363
33,64.5519,0.0512285
63,56.264,0.0601076
61,150.272,0.0335683
86,83.1856,0.029655
100,44.954,0.0255135
115,72.7044,0.0190952
131,112.167,0.0347084
85,36.5158,0.0259664
99,44.0818,0.0420619
147,86.9313,0.0530087
98,47.0989,0.0315491
164,57.8822,0.082986
182,67.8319,0.0325541
162,63.5773,0.0379294
181,78.8987,0.0252915
201,92.1138,0.0625732
200,33.0307,0.0222159
242,40.4459,0.0288773
