"cellPairingIds","interplanarAngles","angleWeights"
8,73.3556,0.0494404
13,31.8529,0.0938716
19,39.4173,0.0539963
53,106.632,0.0229946
25,66.3411,0.0397313
33,88.4854,0.0499405
52,45.9744,0.0206598
63,161.669,0.0199451
32,41.0924,0.0641209
51,28.951,0.0856048
74,86.5956,0.0246523
101,54.1476,0.109923
50,42.5788,0.0545934
115,64.7836,0.0589478
85,82.4809,0.0240666
130,37.3515,0.08461
147,79.1551,0.0898933
113,65.9439,0.0224633
129,30.4839,0.0499921
146,30.9693,0.0766271
128,136.614,0.0139538
182,37.0023,0.0253141
162,40.766,0.0204559
201,102.598,0.0242494
222,59.6918,0.0182684
200,33.0346,0.0574091
243,36.0827,0.0330847
242,92.2234,0.102341
265,30.6387,0.0429693
288,70.2756,0.0442913
