Q	U	V
{$V$}	{[mm$^3$]}	0.00226802
{$d_v$}	{[mm]}	0.163011
{$S_c$}	{[mm$^2$]}	0.180899
{$S_o$}	{[mm$^2$]}	0.0962693
{$S_l/S_o$}	[]	0.879093
{$\Psi$}	[]	0.461473
{$\eta$}	[]	0.514091
{med($\theta_e$)}	{[$^\circ$]}	101.139
{$\Upsilon$}	[]	9
{$\Xi$}	[]	4
