"cellPairingIds","interplanarAngles","angleWeights"
8,51.1579,0.0442365
26,90.6075,0.0454513
34,76.4203,0.048162
43,101.801,0.0112492
18,44.4802,0.094706
25,53.422,0.0643939
33,74.8444,0.0939993
52,116.793,0.0128978
32,29.5787,0.0673589
62,120.127,0.0130126
101,79.5018,0.0971152
50,33.15,0.0670007
86,109.381,0.0614863
115,92.9217,0.0654987
72,74.394,0.11369
99,80.243,0.0879296
98,103.589,0.0132118
113,38.5256,0.0986736
129,51.3623,0.104737
128,90.0823,0.0127768
145,58.2326,0.0128733
163,64.0752,0.0129416
162,33.5947,0.0824771
181,83.6127,0.0853607
