Q	U	V
{$V$}	{[mm$^3$]}	0.00223359
{$d_v$}	{[mm]}	0.162182
{$S_c$}	{[mm$^2$]}	0.16264
{$S_o$}	{[mm$^2$]}	0.086944
{$S_l/S_o$}	[]	0.870629
{$\Psi$}	[]	0.508073
{$\eta$}	[]	0.570084
{med($\theta_e$)}	{[$^\circ$]}	74.3371
{$\Upsilon$}	[]	11
{$\Xi$}	[]	9
