Q	U	V
{$V$}	{[mm$^3$]}	0.0067257
{$d_v$}	{[mm]}	0.234196
{$S_c$}	{[mm$^2$]}	0.321338
{$S_o$}	{[mm$^2$]}	0.181336
{$S_l/S_o$}	[]	0.772058
{$\Psi$}	[]	0.536225
{$\eta$}	[]	0.583526
{med($\theta_e$)}	{[$^\circ$]}	56.5674
{$\Upsilon$}	[]	14
{$\Xi$}	[]	11
