facetNormals:0,facetNormals:1,facetNormals:2,FacetCenters:0,FacetCenters:1,FacetCenters:2,FacetIds,relFacetSize,absFacetSize,cellPairingIds,interplanarAngles,angleWeights
-0.174261,-0.265503,-0.915258,3.47185,7.63226,8.03001,1,0.0647512,0.00619283,8,63.6307,0.0618501
-0.21431,0.721511,-0.629925,3.45091,7.68856,8.04975,2,0.0591978,0.0056617,13,87.1911,0.0239436
0.522176,0.71813,-0.357387,3.45655,7.64521,8.03862,3,0.0146873,0.0014047,19,93.5422,0.0365765
0.896137,0.25709,-0.183066,3.46151,7.62245,8.055,4,0.0254867,0.00243756,26,60.8069,0.0438401
-0.10394,-0.942201,-0.207919,3.45348,7.60273,8.0652,5,0.0331383,0.00316936,34,82.8734,0.079192
0.570459,-0.765022,-0.0120182,3.49769,7.60505,8.10229,6,0.101923,0.00974794,43,66.1049,0.0765446
-0.820582,-0.518541,-0.112309,3.42082,7.62667,8.08117,7,0.0935906,0.00895104,53,118.277,0.0445907
0.182318,0.932331,0.179636,3.45684,7.56739,8.06891,8,0.0340036,0.00325212,64,89.8563,0.0260655
-0.848836,0.511822,0.0105106,3.42224,7.6982,8.11528,9,0.0163169,0.00156056,76,127.765,0.0264484
0.851486,0.272075,0.391574,3.43483,7.60728,8.04515,10,0.0166182,0.00158937,89,109.935,0.0771383
-0.448474,0.832485,0.192125,3.43684,7.70073,8.12717,11,0.095386,0.00912275,103,90.8451,0.0752647
-0.719419,-0.592668,0.324306,3.43355,7.62941,8.13816,12,0.0898541,0.00859368,118,107.269,0.0613356
-0.131044,-0.782339,0.556331,3.45825,7.64957,8.101,13,0.0582623,0.00557223,134,117.726,0.0213202
-0.771037,0.248139,0.559663,3.41056,7.68026,8.15854,14,0.0127609,0.00122046,151,150.721,0.0542659
-0.214796,-0.0306192,0.944694,3.46233,7.65008,8.17743,15,0.0467032,0.00446671,18,47.7723,0.0235354
,,,,,,,,,25,83.3022,0.0356324
,,,,,,,,,33,123.561,0.0424908
,,,,,,,,,42,135.374,0.0748955
,,,,,,,,,52,97.6412,0.0725233
,,,,,,,,,63,56.7378,0.0431955
,,,,,,,,,75,55.9619,0.0255825
,,,,,,,,,88,104.069,0.0259512
,,,,,,,,,102,52.5606,0.0730561
,,,,,,,,,117,119.551,0.0713733
,,,,,,,,,133,158.84,0.0587263
,,,,,,,,,150,90.4904,0.0209959
,,,,,,,,,168,126.895,0.0522134
,,,,,,,,,32,37.8562,0.0186355
,,,,,,,,,41,134.982,0.0203536
,,,,,,,,,51,105.702,0.0256748
,,,,,,,,,62,144.427,0.0253901
,,,,,,,,,74,40.7972,0.020514
,,,,,,,,,87,94.8031,0.0154593
,,,,,,,,,101,57.6313,0.0155932
,,,,,,,,,116,71.3732,0.0254551
,,,,,,,,,132,166.159,0.0252477
,,,,,,,,,149,153.384,0.0234605
,,,,,,,,,167,116.77,0.0136565
,,,,,,,,,186,120.565,0.0223469
,,,,,,,,,50,108.812,0.0288132
,,,,,,,,,61,69.5551,0.0407768
,,,,,,,,,73,155.996,0.0400633
,,,,,,,,,86,66.2338,0.0291355
,,,,,,,,,100,132.068,0.0198961
,,,,,,,,,115,34.8056,0.0201184
,,,,,,,,,131,104.081,0.0402254
,,,,,,,,,148,155.977,0.0397099
,,,,,,,,,166,117.175,0.035461
,,,,,,,,,185,141.262,0.0170067
,,,,,,,,,205,113.914,0.0329772
,,,,,,,,,72,44.1976,0.0500151
,,,,,,,,,85,50.9664,0.048946
,,,,,,,,,99,175.04,0.0335654
,,,,,,,,,114,114.322,0.0218669
,,,,,,,,,130,116.75,0.0221357
,,,,,,,,,147,146.151,0.0491881
,,,,,,,,,165,53.7921,0.0484195
,,,,,,,,,184,47.5129,0.0422473
,,,,,,,,,204,106.416,0.0184263
,,,,,,,,,225,98.8825,0.0387684
,,,,,,,,,98,94.3086,0.0975791
,,,,,,,,,113,131.5,0.0509944
,,,,,,,,,129,157.801,0.0281304
,,,,,,,,,146,72.9626,0.0285769
,,,,,,,,,164,166.385,0.0985461
,,,,,,,,,183,87.6204,0.0955087
,,,,,,,,,203,56.0005,0.0741424
,,,,,,,,,224,132.634,0.022682
,,,,,,,,,246,96.858,0.064055
,,,,,,,,,128,133.744,0.0498835
,,,,,,,,,145,63.6479,0.027789
,,,,,,,,,163,157.935,0.0282247
,,,,,,,,,182,95.1871,0.0944798
,,,,,,,,,202,26.74,0.0916843
,,,,,,,,,223,61.5707,0.0718169
,,,,,,,,,245,62.7045,0.0224595
,,,,,,,,,268,84.7882,0.0623118
,,,,,,,,,162,70.2203,0.022052
,,,,,,,,,181,59.4739,0.0223255
,,,,,,,,,201,38.6186,0.0501349
,,,,,,,,,222,130.958,0.0493367
,,,,,,,,,244,134.225,0.0429439
,,,,,,,,,267,78.4055,0.0185576
,,,,,,,,,291,83.7518,0.0393542
,,,,,,,,,200,126.794,0.0164662
,,,,,,,,,221,32.266,0.0278669
,,,,,,,,,243,71.4801,0.0276185
,,,,,,,,,266,107.158,0.025494
,,,,,,,,,290,36.216,0.0143215
,,,,,,,,,315,79.4097,0.0241844
,,,,,,,,,242,94.882,0.028305
,,,,,,,,,265,132.191,0.0280488
,,,,,,,,,289,96.4729,0.0258602
,,,,,,,,,314,112.641,0.0144363
,,,,,,,,,340,79.1111,0.0245137
,,,,,,,,,288,96.5385,0.0925374
,,,,,,,,,313,121.295,0.0723393
,,,,,,,,,339,46.0026,0.0225104
,,,,,,,,,366,74.3477,0.0627047
,,,,,,,,,338,39.4494,0.0706891
,,,,,,,,,365,52.6752,0.022348
,,,,,,,,,393,59.9485,0.061461
,,,,,,,,,392,76.7724,0.0209363
,,,,,,,,,421,52.0402,0.0518463
,,,,,,,,,450,43.9768,0.0200449
