Q	U	V
{$V$}	{[mm$^3$]}	0.017212
{$d_v$}	{[mm]}	0.320340
{$S_c$}	{[mm$^2$]}	0.624887
{$S_o$}	{[mm$^2$]}	0.409836
{$S_l/S_o$}	[]	0.524725
{$\Psi$}	[]	0.515906
{$\eta$}	[]	0.537515
{med($\theta_e$)}	{[$^\circ$]}	71.167
{$\Upsilon$}	[]	10
{$\Xi$}	[]	9
