"cellPairingIds","interplanarAngles","angleWeights"
26,48.4936,0.0396592
34,49.308,0.0237715
64,107.158,0.0344914
50,42.7013,0.0832639
86,55.7967,0.0590427
100,121.91,0.0633395
72,51.6555,0.0424451
99,37.204,0.0859525
114,154.432,0.0953709
98,44.8323,0.0194257
113,74.1724,0.035104
129,122.514,0.0365794
146,119.471,0.0413145
183,90.7896,0.0353861
145,81.8133,0.0260391
163,75.9911,0.0283522
162,163.085,0.0648834
201,54.672,0.0428859
222,79.5729,0.0612213
200,37.5372,0.0898467
221,111.698,0.0451086
242,81.4359,0.0525334
265,58.8232,0.0829738
288,42.4744,0.0433076
