Q	U	V
{$V$}	{[mm$^3$]}	0.00883223
{$d_v$}	{[mm]}	0.256463
{$S_c$}	{[mm$^2$]}	0.453817
{$S_o$}	{[mm$^2$]}	0.259802
{$S_l/S_o$}	[]	0.746780
{$\Psi$}	[]	0.45532
{$\eta$}	[]	0.520289
{med($\theta_e$)}	{[$^\circ$]}	
{$\Upsilon$}	[]	14
{$\Xi$}	[]	12
