"cellPairingIds","interplanarAngles","angleWeights"
13,59.7461,0.0661377
26,48.9283,0.0438171
43,51.442,0.0349426
89,65.9223,0.0323645
18,65.0828,0.0661441
25,30.0085,0.0437051
33,53.4284,0.0438199
42,21.7612,0.0437072
75,57.8571,0.113629
32,47.5137,0.0382262
41,87.2704,0.038314
116,75.3565,0.0292603
61,31.852,0.0294802
100,70.6191,0.0503978
131,121.565,0.0238447
185,115.826,0.0401368
85,67.5198,0.0252535
99,45.3312,0.0392955
114,78.0347,0.0505506
130,60.3972,0.0205388
129,40.4599,0.0504007
163,28.643,0.0183539
182,56.2179,0.0209756
202,37.7653,0.0368623
162,53.1338,0.0875039
181,42.9854,0.0247929
244,39.4958,0.0330633
266,61.0066,0.0406852
290,49.1665,0.0922959
265,52.9614,0.0276107
289,43.3161,0.0186968
288,36.1053,0.0340047
339,115.781,0.0303668
338,71.1382,0.0382723
365,84.143,0.0807471
392,27.4937,0.033725
