"cellPairingIds","interplanarAngles","angleWeights"
13,31.8822,0.0636208
19,20.921,0.0329896
34,80.8257,0.0540044
76,116.682,0.0259161
32,34.299,0.0429711
41,29.2985,0.0560225
51,69.046,0.0871391
62,78.0535,0.0909248
116,70.4162,0.141741
50,20.9113,0.030822
100,51.8374,0.0270332
115,124.287,0.0216735
114,49.217,0.0316756
147,57.3171,0.0616218
98,35.3658,0.0724797
146,101.634,0.0291174
163,113.65,0.0295282
182,78.5388,0.106653
200,105.912,0.0220922
221,59.6581,0.0481345
242,141.045,0.0334191
