Q	U	V
{$V$}	{[mm$^3$]}	0.0093452
{$d_v$}	{[mm]}	0.261334
{$S_c$}	{[mm$^2$]}	0.496663
{$S_o$}	{[mm$^2$]}	0.295151
{$S_l/S_o$}	[]	0.682742
{$\Psi$}	[]	0.431998
{$\eta$}	[]	0.479142
{med($\theta_e$)}	{[$^\circ$]}	71.2581
{$\Upsilon$}	[]	13
{$\Xi$}	[]	8
