facetNormals:0,facetNormals:1,facetNormals:2,FacetCenters:0,FacetCenters:1,FacetCenters:2,FacetIds,relFacetSize,absFacetSize,cellPairingIds,interplanarAngles,angleWeights
0.449076,-0.136095,-0.877265,6.64905,4.12291,5.96041,1,0.00830386,0.00145455,8,59.7307,0.0143738
-0.479936,0.192147,-0.838683,6.55837,4.16489,5.99613,2,0.0534303,0.00935914,13,78.8049,0.0154283
-0.739619,0.0924894,-0.604231,6.53257,4.17555,6.02693,3,0.108629,0.019028,19,37.9074,0.0142015
0.804592,0.219555,-0.485832,6.68117,4.21766,6.03484,4,0.0490087,0.00858464,26,64.0296,0.0156478
-0.025729,0.749084,-0.608982,6.6363,4.2478,6.03951,5,0.135366,0.0237114,34,37.3711,0.0112169
0.761775,-0.452202,-0.425716,6.70554,4.18411,6.01334,6,0.0172783,0.00302656,43,81.4222,0.0150472
0.358284,0.876047,-0.113747,6.65928,4.26875,6.0957,7,0.0800671,0.014025,53,73.0692,0.0140079
0.588675,-0.766926,0.0993457,6.72116,4.19213,6.09242,8,0.0447423,0.00783731,64,79.2361,0.0127486
0.915801,-0.0503622,0.273879,6.70922,4.23553,6.12391,9,0.027432,0.00480513,76,143.416,0.0150501
-0.57355,-0.41276,0.636432,6.53751,4.16994,6.10794,10,0.0802353,0.0140544,89,121.01,0.0123589
0.508749,0.214417,0.790533,6.60949,4.25155,6.14444,11,0.0241544,0.00423101,103,140.649,0.0114639
-0.136249,-0.455682,0.871998,6.61956,4.22641,6.15084,12,0.0185065,0.00324169,118,121.856,0.0122275
0.26353,-0.501311,0.798739,6.64855,4.19584,6.13179,13,0.0231808,0.00406047,134,171.002,0.0134026
-0.329527,0.232701,0.902057,6.59095,4.23981,6.15173,14,0.0347229,0.00608226,18,21.5097,0.071629
,,,,,,,,,25,86.1715,0.0511241
,,,,,,,,,33,45.4882,0.0766184
,,,,,,,,,42,95.657,0.0261124
,,,,,,,,,52,84.3923,0.0640913
,,,,,,,,,63,122.41,0.0487019
,,,,,,,,,75,136.046,0.0362517
,,,,,,,,,88,111.134,0.0641451
,,,,,,,,,102,155.724,0.0332688
,,,,,,,,,117,140.353,0.027491
,,,,,,,,,133,157.725,0.0323336
,,,,,,,,,150,124.661,0.0420916
,,,,,,,,,32,107.678,0.0675443
,,,,,,,,,41,60.5018,0.120532
,,,,,,,,,51,111.655,0.0298144
,,,,,,,,,62,97.2376,0.0921863
,,,,,,,,,74,127.396,0.0633797
,,,,,,,,,87,157.328,0.0438025
,,,,,,,,,101,89.9071,0.0922977
,,,,,,,,,116,154.362,0.039521
,,,,,,,,,132,119.427,0.0316251
,,,,,,,,,149,140.399,0.0382081
,,,,,,,,,167,107.164,0.0526246
,,,,,,,,,50,61.8593,0.0719634
,,,,,,,,,61,40.584,0.0255491
,,,,,,,,,73,54.3804,0.0608013
,,,,,,,,,86,74.0999,0.0467785
,,,,,,,,,100,50.0918,0.0351751
,,,,,,,,,115,159.775,0.0608497
,,,,,,,,,131,85.5416,0.0323599
,,,,,,,,,148,131.345,0.0268674
,,,,,,,,,166,107.62,0.0314744
,,,,,,,,,185,133.15,0.0406472
,,,,,,,,,72,95.9919,0.030645
,,,,,,,,,85,38.9187,0.100619
,,,,,,,,,99,133.842,0.067255
,,,,,,,,,114,104.284,0.0456192
,,,,,,,,,130,137.954,0.100752
,,,,,,,,,147,111.012,0.0409939
,,,,,,,,,165,154.93,0.0325613
,,,,,,,,,184,156.736,0.0395831
,,,,,,,,,204,112.588,0.0552688
,,,,,,,,,98,94.5786,0.028423
,,,,,,,,,113,37.9796,0.0249295
,,,,,,,,,129,50.0732,0.0212022
,,,,,,,,,146,123.891,0.0284336
,,,,,,,,,164,92.7791,0.0201458
,,,,,,,,,183,105.992,0.0178713
,,,,,,,,,203,84.7889,0.019799
,,,,,,,,,224,139.659,0.0230746
,,,,,,,,,128,120.645,0.0574057
,,,,,,,,,145,73.9133,0.0408636
,,,,,,,,,163,134.861,0.0801511
,,,,,,,,,182,72.2522,0.0371127
,,,,,,,,,202,125.303,0.030064
,,,,,,,,,223,117.819,0.0359527
,,,,,,,,,245,91.0227,0.0484391
,,,,,,,,,162,49.4385,0.0340113
,,,,,,,,,181,87.3863,0.0574489
,,,,,,,,,201,76.826,0.0313723
,,,,,,,,,222,68.3665,0.026183
,,,,,,,,,244,49.4276,0.0305393
,,,,,,,,,267,107.128,0.039101
,,,,,,,,,200,111.266,0.0408854
,,,,,,,,,221,43.3077,0.025689
,,,,,,,,,243,81.7155,0.0221021
,,,,,,,,,266,58.8125,0.0251278
,,,,,,,,,290,94.0283,0.0306498
,,,,,,,,,242,82.3023,0.0371307
,,,,,,,,,265,29.6141,0.0300758
,,,,,,,,,289,52.7122,0.0359696
,,,,,,,,,314,44.7783,0.0484699
,,,,,,,,,288,56.9504,0.0209565
,,,,,,,,,313,45.8174,0.0236576
,,,,,,,,,339,51.3294,0.0284901
,,,,,,,,,338,23.9207,0.0205816
,,,,,,,,,365,42.3433,0.0241445
,,,,,,,,,392,57.7002,0.0278015
