Q	U	V
{$V$}	{[mm$^3$]}	0.0123138
{$d_v$}	{[mm]}	0.286504
{$S_c$}	{[mm$^2$]}	0.635446
{$S_o$}	{[mm$^2$]}	0.307458
{$S_l/S_o$}	[]	1.066773
{$\Psi$}	[]	0.40582
{$\eta$}	[]	0.432822
{med($\theta_e$)}	{[$^\circ$]}	77.0163
{$\Upsilon$}	[]	12
{$\Xi$}	[]	12
