Q	U	V
{$V$}	{[mm$^3$]}	0.0130465
{$d_v$}	{[mm]}	0.292078
{$S_c$}	{[mm$^2$]}	0.570057
{$S_o$}	{[mm$^2$]}	0.318148
{$S_l/S_o$}	[]	0.791798
{$\Psi$}	[]	0.470141
{$\eta$}	[]	0.472514
{med($\theta_e$)}	{[$^\circ$]}	79.0232
{$\Upsilon$}	[]	14
{$\Xi$}	[]	16
