facetNormals:0,facetNormals:1,facetNormals:2,FacetCenters:0,FacetCenters:1,FacetCenters:2,FacetIds,relFacetSize,absFacetSize,cellPairingIds,interplanarAngles,angleWeights
0.156346,0.0801481,-0.948205,6.85129,7.21073,5.41504,1,0.101006,0.0229157,8,41.2361,0.0577583
-0.515302,0.0464343,-0.827318,6.87739,7.16105,5.42189,2,0.0404421,0.00917527,13,44.3442,0.0476438
-0.432044,-0.341952,-0.816687,6.86244,7.17679,5.44777,3,0.0311742,0.00707261,19,46.9592,0.0543911
0.0644677,-0.65668,-0.725712,6.90209,7.14417,5.47859,4,0.0372157,0.00844328,26,63.6373,0.0502235
-0.45316,-0.661177,-0.576505,6.81919,7.0961,5.4704,5,0.0334206,0.00758227,34,89.5176,0.0823053
-0.282162,-0.911669,-0.131833,6.80863,7.0524,5.53813,6,0.0694473,0.0157558,43,77.2311,0.110747
0.908754,0.0862617,-0.048344,6.9274,7.16921,5.45797,7,0.122568,0.0278075,53,94.3243,0.094866
0.196398,-0.942935,0.0265695,6.90555,7.04902,5.5276,8,0.0894294,0.0202892,64,131.707,0.093337
0.0254419,0.651652,0.713202,6.9146,7.15688,5.51227,9,0.0867502,0.0196814,76,134.475,0.094705
0.52583,0.180469,0.790613,6.87965,7.13316,5.49212,10,0.0891437,0.0202244,89,155.847,0.0225757
-0.511938,-0.229418,0.81229,6.81332,7.21819,5.40478,11,0.012708,0.00288312,103,178.39,0.0622102
-0.161178,-0.105141,0.935049,6.84268,7.19841,5.43585,12,0.0449465,0.0101972,18,23.3755,0.0352085
,,,,,,,,,25,55.8925,0.0387619
,,,,,,,,,33,45.1251,0.0365976
,,,,,,,,,42,76.9584,0.0511168
,,,,,,,,,52,118.403,0.0608172
,,,,,,,,,63,100.229,0.0556968
,,,,,,,,,75,127.41,0.0551663
,,,,,,,,,88,166.404,0.0556413
,,,,,,,,,102,115.775,0.0193391
,,,,,,,,,117,138.29,0.0425755
,,,,,,,,,32,35.2232,0.0339281
,,,,,,,,,41,23.4022,0.0322583
,,,,,,,,,51,55.226,0.0430318
,,,,,,,,,62,115.143,0.049706
,,,,,,,,,74,76.8543,0.0462322
,,,,,,,,,87,149.022,0.0458661
,,,,,,,,,101,168.966,0.046194
,,,,,,,,,116,111.964,0.0180557
,,,,,,,,,132,134.402,0.0368144
,,,,,,,,,50,31.7686,0.0352162
,,,,,,,,,61,44.311,0.0484616
,,,,,,,,,73,87.6335,0.0570954
,,,,,,,,,86,49.5948,0.0525591
,,,,,,,,,100,174.716,0.0520864
,,,,,,,,,115,133.987,0.0525097
,,,,,,,,,131,119.163,0.0189464
,,,,,,,,,148,131.457,0.0407174
,,,,,,,,,72,32.0039,0.0451253
,,,,,,,,,85,119.247,0.0525205
,,,,,,,,,99,56.9292,0.0486575
,,,,,,,,,114,153.448,0.0482521
,,,,,,,,,130,148.47,0.0486151
,,,,,,,,,147,94.9802,0.0184141
,,,,,,,,,165,114.876,0.038336
,,,,,,,,,98,111.915,0.0886597
,,,,,,,,,113,30.3902,0.0781818
,,,,,,,,,129,138.313,0.0771404
,,,,,,,,,146,116.614,0.0780724
,,,,,,,,,164,74.9772,0.0214846
,,,,,,,,,183,88.8747,0.0545731
,,,,,,,,,128,83.7523,0.103409
,,,,,,,,,145,87.0896,0.101595
,,,,,,,,,163,58.9879,0.103217
,,,,,,,,,182,125.52,0.0230284
,,,,,,,,,202,103.299,0.0657734
,,,,,,,,,162,129.358,0.0880694
,,,,,,,,,181,92.8247,0.0892863
,,,,,,,,,201,81.6967,0.0222537
,,,,,,,,,222,84.2392,0.0598253
,,,,,,,,,200,41.9342,0.0879307
,,,,,,,,,221,64.0946,0.0221685
,,,,,,,,,243,49.8996,0.0592136
,,,,,,,,,242,69.6619,0.0222449
,,,,,,,,,265,46.465,0.0597612
,,,,,,,,,288,23.2056,0.0198139
