Q	U	V
{$V$}	{[mm$^3$]}	0.00326785
{$d_v$}	{[mm]}	0.184114
{$S_c$}	{[mm$^2$]}	0.252657
{$S_o$}	{[mm$^2$]}	0.146512
{$S_l/S_o$}	[]	0.724480
{$\Psi$}	[]	0.421497
{$\eta$}	[]	0.460708
{med($\theta_e$)}	{[$^\circ$]}	67.1411
{$\Upsilon$}	[]	13
{$\Xi$}	[]	12
