"cellPairingIds","interplanarAngles","angleWeights"
8,46.9608,0.0617927
13,76.9147,0.0762077
26,81.3047,0.020368
34,107.541,0.0423099
53,96.3753,0.0689692
64,121.567,0.0261795
18,31.823,0.0716407
75,99.958,0.0256184
51,90.3268,0.0467059
87,92.8392,0.0277984
101,116.781,0.142261
72,77.1502,0.0174261
99,110.09,0.0207257
130,89.3642,0.0232537
146,85.5449,0.0570045
162,25.7539,0.0267734
181,71.8986,0.118955
200,49.3352,0.0311476
