"cellPairingIds","interplanarAngles","angleWeights"
8,29.1188,0.00976484
13,49.9552,0.0139271
19,55.6489,0.0141713
26,51.4565,0.0419999
34,58.5949,0.057548
43,86.8423,0.0515078
103,117.475,0.00869076
18,21.4309,0.00654762
52,68.2181,0.00996618
62,62.7629,0.0143403
87,44.0616,0.0149361
132,85.1901,0.00604654
50,42.4993,0.013719
86,51.1452,0.0154067
148,122.863,0.00609212
226,83.6988,0.0130245
72,21.8178,0.0507538
99,23.4582,0.0550934
98,59.9444,0.0653256
113,28.5442,0.0853371
203,47.775,0.0638067
145,51.4739,0.068663
163,29.0443,0.0681728
223,46.5881,0.0564651
244,48.4134,0.0708197
267,26.1578,0.0665673
316,83.0803,0.0453762
200,41.9625,0.0841266
221,25.7146,0.0771643
243,62.9548,0.00907325
242,38.1749,0.0765457
289,53.3101,0.0665202
340,58.4535,0.0584656
288,50.1963,0.00897736
366,40.2608,0.0550158
393,45.713,0.00866316
422,78.9722,0.00824553
452,50.5698,0.0082304
392,30.207,0.0526968
421,86.8346,0.0496388
451,84.3013,0.0384732
482,93.1711,0.0381461
481,68.1943,0.0371828
545,27.7704,0.0353531
578,34.2502,0.0292974
