facetNormals:0,facetNormals:1,facetNormals:2,FacetCenters:0,FacetCenters:1,FacetCenters:2,FacetIds,relFacetSize,absFacetSize,cellPairingIds,interplanarAngles,angleWeights
-0.0374297,-0.58474,-0.715395,5.4958,7.11419,6.35812,1,0.0604955,0.00885733,8,58.0572,0.0382665
-0.6203,0.143157,-0.765376,5.43403,7.18011,6.32989,2,0.0279838,0.0040972,13,71.8394,0.0506845
-0.799939,0.223972,-0.540492,5.37581,7.15744,6.41431,3,0.0436117,0.00638532,19,72.5472,0.0824539
-0.898897,-0.211334,-0.14245,5.50179,7.14535,6.44038,4,0.129436,0.0189511,26,109.533,0.0381743
-0.814529,0.546794,0.0197672,5.41522,7.18177,6.43605,5,0.0278853,0.00408278,34,134.627,0.0480138
0.334144,0.889103,0.125807,5.46423,7.2165,6.39904,6,0.0398018,0.0058275,43,119.082,0.0889569
0.832742,0.470199,0.18396,5.508,7.16317,6.40533,7,0.167993,0.0245964,53,126.075,0.0248913
-0.769187,0.440105,0.430363,5.45913,7.15716,6.48919,8,0.0156693,0.00229419,64,111.496,0.04895
0.833697,-0.100777,0.502228,5.43673,7.12038,6.41457,9,0.0411051,0.00601832,76,161.663,0.077045
-0.178787,0.420883,0.854831,5.40679,7.16002,6.49193,10,0.106059,0.0155285,18,17.3084,0.0340921
,,,,,,,,,25,46.8311,0.0460185
,,,,,,,,,33,54.4177,0.0279345
,,,,,,,,,42,100.65,0.0328626
,,,,,,,,,52,127.489,0.0479759
,,,,,,,,,63,77.5918,0.0200896
,,,,,,,,,75,160.104,0.0332985
,,,,,,,,,88,120.038,0.0442834
,,,,,,,,,32,36.0427,0.0652412
,,,,,,,,,41,38.2822,0.0340189
,,,,,,,,,51,98.2442,0.0416197
,,,,,,,,,62,133.165,0.0692466
,,,,,,,,,74,60.4674,0.0230551
,,,,,,,,,87,172.27,0.0423213
,,,,,,,,,101,103.528,0.0618079
,,,,,,,,,50,47.9709,0.0458852
,,,,,,,,,61,124.433,0.0608822
,,,,,,,,,73,163.88,0.146215
,,,,,,,,,86,54.3021,0.0279544
,,,,,,,,,100,151.006,0.0623953
,,,,,,,,,115,93.1648,0.116587
,,,,,,,,,72,76.6879,0.0327946
,,,,,,,,,85,115.91,0.0478311
,,,,,,,,,99,25.061,0.0200641
,,,,,,,,,114,138.966,0.0332286
,,,,,,,,,130,65.6206,0.04416
,,,,,,,,,98,39.5501,0.064356
,,,,,,,,,113,78.4852,0.0224861
,,,,,,,,,129,74.3972,0.0404429
,,,,,,,,,146,62.9776,0.0578818
,,,,,,,,,128,111.68,0.0286649
,,,,,,,,,145,39.1226,0.0660491
,,,,,,,,,163,77.3801,0.130028
,,,,,,,,,162,119.145,0.0226894
,,,,,,,,,181,43.6867,0.0273045
,,,,,,,,,200,75.4788,0.0592477
