Q	U	V
{$V$}	{[mm$^3$]}	0.00404444
{$d_v$}	{[mm]}	0.197676
{$S_c$}	{[mm$^2$]}	0.187616
{$S_o$}	{[mm$^2$]}	0.124532
{$S_l/S_o$}	[]	0.506569
{$\Psi$}	[]	0.654314
{$\eta$}	[]	0.690330
{med($\theta_e$)}	{[$^\circ$]}	64.0767
{$\Upsilon$}	[]	15
{$\Xi$}	[]	7
