Q	U	V
{$V$}	{[mm$^3$]}	0.00335097
{$d_v$}	{[mm]}	0.185662
{$S_c$}	{[mm$^2$]}	0.190087
{$S_o$}	{[mm$^2$]}	0.114598
{$S_l/S_o$}	[]	0.658729
{$\Psi$}	[]	0.569699
{$\eta$}	[]	0.595996
{med($\theta_e$)}	{[$^\circ$]}	63.6044
{$\Upsilon$}	[]	15
{$\Xi$}	[]	6
