"cellPairingIds","interplanarAngles","angleWeights"
8,32.8726,0.00417391
34,79.5195,0.00504376
43,106.594,0.00519156
89,109.729,0.00526701
52,108.345,0.0172411
102,100.518,0.0181023
117,84.7898,0.0141721
98,95.1448,0.059944
164,94.2892,0.0718239
246,91.4989,0.0127179
202,111.253,0.0423768
245,92.2611,0.0659068
268,102.489,0.0137015
288,49.1345,0.047988
339,53.1134,0.0805565
366,42.0971,0.0142399
365,36.7512,0.0360583
450,29.9625,0.0129668
