"cellPairingIds","interplanarAngles","angleWeights"
13,38.9611,0.0507396
19,29.372,0.034852
43,82.176,0.013462
76,106.021,0.0184184
169,149.728,0.00997511
18,25.7299,0.0846726
88,122.692,0.0215539
187,145.723,0.0108282
62,49.6496,0.0146109
101,132.397,0.0206388
206,170.728,0.0105923
73,55.5057,0.0129155
226,157.228,0.00967187
292,125.049,0.00671217
367,50.4703,0.00775233
