facetNormals:0,facetNormals:1,facetNormals:2,FacetCenters:0,FacetCenters:1,FacetCenters:2,FacetIds,relFacetSize,absFacetSize,cellPairingIds,interplanarAngles,angleWeights
-0.0527967,-0.0572336,-0.945619,3.73742,5.07766,7.23202,1,0.154692,0.0186054,8,39.8858,0.00982617
0.303057,-0.586269,-0.751444,3.71827,5.02833,7.35264,2,0.00507424,0.000610299,13,52.0903,0.0295344
0.4038,0.600677,-0.664755,3.66788,5.079,7.37262,3,0.0163257,0.00196355,19,56.3981,0.126523
0.73408,-0.182745,-0.548939,3.81132,5.06211,7.267,4,0.107032,0.0128732,26,57.2673,0.0502355
-0.20295,-0.833359,-0.468473,3.72553,5.05281,7.24953,5,0.0299868,0.00360662,34,56.8474,0.0890769
-0.72738,0.378581,-0.513075,3.66419,5.10547,7.26357,6,0.0625468,0.00752273,43,65.9089,0.0496589
-0.593758,-0.709461,-0.3256,3.65225,5.07599,7.29706,7,0.0295768,0.00355731,53,97.4197,0.0188971
0.161587,0.965125,0.0595937,3.70321,5.10093,7.34669,8,0.0100632,0.00121034,64,100.473,0.14522
-0.262931,-0.897114,0.245256,3.71198,5.02725,7.32218,9,0.136841,0.0164584,76,108.62,0.0900685
-0.806612,-0.40141,0.382979,3.657,5.07142,7.3268,10,0.0635289,0.00764087,89,116.751,0.0534305
-0.592309,-0.603226,0.517184,3.68073,5.05758,7.36436,11,0.0322921,0.00388389,103,137.894,0.0518778
0.172304,-0.600338,0.75768,3.74856,5.03925,7.32435,12,0.0311646,0.00374829,118,153.753,0.0821404
0.0143281,0.466904,0.821031,3.74145,5.10001,7.2277,13,0.0559157,0.00672519,134,171.992,0.0994093
-0.0575108,-0.0170783,0.955374,3.73717,5.08984,7.22309,14,0.0732365,0.00880843,18,74.0707,0.00774213
,,,,,,,,,25,37.4498,0.00968914
,,,,,,,,,33,37.1465,0.00867974
,,,,,,,,,42,93.3685,0.00938695
,,,,,,,,,52,60.6571,0.00866236
,,,,,,,,,63,124.947,0.0067466
,,,,,,,,,75,74.2748,0.00978563
,,,,,,,,,88,107.652,0.00939786
,,,,,,,,,102,102.498,0.00877035
,,,,,,,,,117,99.6831,0.00872748
,,,,,,,,,133,159.753,0.00930415
,,,,,,,,,150,139.256,0.00949091
,,,,,,,,,32,53.0955,0.0283301
,,,,,,,,,41,106.396,0.0211414
,,,,,,,,,51,73.1995,0.0258929
,,,,,,,,,62,117.797,0.0210386
,,,,,,,,,74,51.0729,0.0124514
,,,,,,,,,87,148.298,0.0291711
,,,,,,,,,101,148.625,0.025976
,,,,,,,,,116,166.074,0.0216871
,,,,,,,,,132,145.442,0.0214268
,,,,,,,,,149,106.235,0.0252725
,,,,,,,,,167,135.292,0.0266995
,,,,,,,,,50,73.4323,0.0468483
,,,,,,,,,61,110.83,0.0789546
,,,,,,,,,73,97.9939,0.0463465
,,,,,,,,,86,95.6659,0.0183968
,,,,,,,,,100,100.441,0.120115
,,,,,,,,,115,142.815,0.0797327
,,,,,,,,,131,131.062,0.0496151
,,,,,,,,,148,101.293,0.0482735
,,,,,,,,,166,126.527,0.0734564
,,,,,,,,,185,129.039,0.0869665
,,,,,,,,,72,85.6022,0.0405383
,,,,,,,,,85,25.6202,0.0297804
,,,,,,,,,99,154.53,0.0150693
,,,,,,,,,114,43.4185,0.0491935
,,,,,,,,,130,70.5365,0.0407424
,,,,,,,,,147,66.8602,0.0310968
,,,,,,,,,165,83.3954,0.0305644
,,,,,,,,,184,147.273,0.039038
,,,,,,,,,204,116.79,0.042551
,,,,,,,,,98,69.6212,0.040162
,,,,,,,,,113,76.7553,0.017337
,,,,,,,,,129,107.057,0.0858524
,,,,,,,,,146,75.4283,0.063034
,,,,,,,,,164,93.7615,0.0425936
,,,,,,,,,183,141.309,0.0416011
,,,,,,,,,203,106.2,0.0590456
,,,,,,,,,224,119.419,0.0674709
,,,,,,,,,128,146.314,0.015017
,,,,,,,,,145,41.2442,0.0486404
,,,,,,,,,163,48.2767,0.0403623
,,,,,,,,,182,51.0331,0.0308748
,,,,,,,,,202,85.4194,0.03035
,,,,,,,,,223,130.941,0.0386889
,,,,,,,,,245,106.383,0.0421366
,,,,,,,,,162,160.596,0.0187477
,,,,,,,,,181,121.042,0.0173743
,,,,,,,,,201,131.758,0.0153446
,,,,,,,,,222,121.739,0.0152138
,,,,,,,,,244,57.1851,0.0170567
,,,,,,,,,267,88.0973,0.017695
,,,,,,,,,200,45.2504,0.0867731
,,,,,,,,,221,30.6837,0.0522532
,,,,,,,,,243,44.3096,0.0507673
,,,,,,,,,266,104.026,0.0793908
,,,,,,,,,290,73.3714,0.0954101
,,,,,,,,,242,18.891,0.042819
,,,,,,,,,265,65.9229,0.0418161
,,,,,,,,,289,82.8277,0.0594797
,,,,,,,,,314,63.433,0.0680382
,,,,,,,,,288,47.9379,0.0317183
,,,,,,,,,313,81.7403,0.0409404
,,,,,,,,,339,55.4175,0.0448212
,,,,,,,,,338,68.214,0.0400226
,,,,,,,,,365,39.6033,0.0437234
,,,,,,,,,392,30.9371,0.0634146
