"cellPairingIds","interplanarAngles","angleWeights"
8,87.6521,0.00863596
13,64.4781,0.0156902
19,87.1843,0.0155368
26,103.344,0.0172581
64,105.97,0.0165834
76,61.7746,0.0149167
103,109.686,0.0161528
118,103.442,0.0183905
18,34.6258,0.013007
33,65.2505,0.0140663
63,44.8918,0.0131646
117,97.7457,0.0133233
132,82.1588,0.0434863
50,21.8029,0.0508643
100,64.2191,0.0454181
99,70.6766,0.0552176
114,74.015,0.0641099
147,88.155,0.0816454
201,46.7857,0.0584197
222,73.8204,0.0453002
221,82.9432,0.0684671
266,54.4734,0.0831236
265,52.937,0.0380217
289,58.2832,0.0532821
288,57.4767,0.0616794
313,73.65,0.115205
338,62.6484,0.0733267
