"cellPairingIds","interplanarAngles","angleWeights"
8,43.4263,0.0294734
13,46.2684,0.0321094
34,42.207,0.0344639
43,65.8784,0.0733777
18,25.3645,0.0223537
25,36.3044,0.027169
33,52.1589,0.0217547
42,78.3204,0.02347
150,118.004,0.0179509
32,25.9872,0.0293933
62,66.7894,0.0409256
73,80.8715,0.0605845
86,43.7216,0.0375725
185,91.5764,0.0222254
72,59.404,0.0243582
114,75.3607,0.0239431
184,72.7136,0.0358501
204,108.943,0.0184659
98,82.9608,0.0448292
129,24.7184,0.0260374
146,69.8601,0.0254121
128,84.067,0.0587252
163,39.5091,0.04173
182,55.0524,0.0342916
201,63.0757,0.0254641
267,54.3165,0.0219702
200,56.6241,0.0249607
243,50.9411,0.0379106
266,76.2293,0.0396098
242,54.2853,0.0216422
265,27.8859,0.0365994
340,48.4006,0.0366458
339,67.2631,0.0173463
366,49.6086,0.0307822
338,79.6948,0.0799607
393,24.7814,0.0735126
392,60.3172,0.0265713
421,65.8975,0.0801826
451,53.4088,0.0772604
450,72.5844,0.0258188
481,40.7023,0.0255081
512,32.1021,0.071224
