facetNormals:0,facetNormals:1,facetNormals:2,FacetCenters:0,FacetCenters:1,FacetCenters:2,FacetIds,relFacetSize,absFacetSize,cellPairingIds,interplanarAngles,angleWeights
0.466578,-0.217486,-0.812538,6.12239,5.16677,7.84584,1,0.0241502,0.00362826,8,46.5407,0.0259118
-0.205746,-0.587857,-0.762412,6.0309,5.14489,7.81429,2,0.0279506,0.00419922,13,77.9283,0.0322064
-0.733149,-0.182273,-0.613075,5.98881,5.15294,7.8464,3,0.0483278,0.00726063,19,72.4047,0.0357152
-0.138708,0.744309,-0.631738,6.04264,5.23052,7.85667,4,0.0685348,0.0102965,26,42.8205,0.022255
0.363846,-0.811237,-0.432385,6.15294,5.1645,7.9027,5,0.0206356,0.00310024,34,31.0425,0.0164646
0.743119,-0.472442,-0.44969,6.15699,5.15133,7.90805,6,0.0124898,0.00187643,43,46.0097,0.0346907
0.833985,0.316319,-0.414424,6.14044,5.21949,7.89643,7,0.0615577,0.00924825,53,57.8036,0.0393056
0.484845,0.668112,-0.513687,6.08873,5.23213,7.88322,8,0.105532,0.0158548,64,95.7345,0.0375616
-0.627731,0.612235,-0.409842,6.04675,5.25011,7.91272,9,0.0844714,0.0126907,76,56.0859,0.0322623
0.825407,-0.463723,-0.0275029,6.18075,5.1744,7.95388,10,0.0485807,0.00729863,89,97.2154,0.0355423
0.00351099,0.967122,-0.112087,6.08925,5.25028,7.95448,11,0.0672791,0.0101078,103,151.068,0.0276139
-0.814568,0.144062,0.48959,6.09204,5.21955,7.98702,12,0.0322374,0.00484325,118,108.538,0.0220776
0.400202,0.814545,0.382444,6.09001,5.26432,8.00119,13,0.0203326,0.00305471,134,96.72,0.0380192
0.745636,0.385336,0.457435,6.1651,5.25247,8.01734,14,0.0893051,0.0134169,151,108.828,0.0332674
0.249261,-0.613251,0.66603,6.12767,5.18386,8.01435,15,0.0534431,0.00802913,18,40.7685,0.0354174
,,,,,,,,,25,85.7089,0.0397073
,,,,,,,,,33,41.2572,0.0237425
,,,,,,,,,42,61.2844,0.0172648
,,,,,,,,,52,92.4611,0.0384451
,,,,,,,,,63,96.0491,0.0441958
,,,,,,,,,75,85.0806,0.0420029
,,,,,,,,,88,82.3735,0.0354851
,,,,,,,,,102,120.315,0.0394938
,,,,,,,,,117,107.869,0.0299413
,,,,,,,,,133,151.587,0.0235406
,,,,,,,,,150,140.746,0.0425759
,,,,,,,,,168,102.404,0.0367047
,,,,,,,,,32,68.3897,0.0566843
,,,,,,,,,41,81.2578,0.0289219
,,,,,,,,,51,100.967,0.0198496
,,,,,,,,,62,115.703,0.0541464
,,,,,,,,,74,99.8801,0.0662958
,,,,,,,,,87,50.4297,0.0614811
,,,,,,,,,101,123.139,0.0484539
,,,,,,,,,116,96.6769,0.0562502
,,,,,,,,,132,73.1693,0.0386758
,,,,,,,,,149,134.899,0.0286229
,,,,,,,,,167,164.77,0.0627164
,,,,,,,,,186,121.642,0.0507569
,,,,,,,,,50,113.013,0.0317204
,,,,,,,,,61,100.079,0.021129
,,,,,,,,,73,66.8315,0.0648592
,,,,,,,,,86,38.0916,0.0831016
,,,,,,,,,100,32.8643,0.0756731
,,,,,,,,,115,118.265,0.0568579
,,,,,,,,,131,34.6086,0.0679012
,,,,,,,,,148,95.3927,0.043849
,,,,,,,,,166,71.4367,0.0313611
,,,,,,,,,185,96.4323,0.0775533
,,,,,,,,,205,169.959,0.0600553
,,,,,,,,,72,29.8235,0.0155611
,,,,,,,,,85,76.559,0.0309096
,,,,,,,,,99,98.5842,0.0345211
,,,,,,,,,114,124.926,0.0331685
,,,,,,,,,130,42.6799,0.028967
,,,,,,,,,147,139.765,0.031584
,,,,,,,,,165,131.117,0.0251636
,,,,,,,,,184,134.342,0.020483
,,,,,,,,,204,104.655,0.0335248
,,,,,,,,,225,71.1339,0.0297746
,,,,,,,,,98,47.5261,0.0207662
,,,,,,,,,113,73.3374,0.022336
,,,,,,,,,129,126.661,0.0217619
,,,,,,,,,146,25.5638,0.0198709
,,,,,,,,,164,114.807,0.0210684
,,,,,,,,,183,160.076,0.0180042
,,,,,,,,,203,105.45,0.0154742
,,,,,,,,,224,79.8632,0.0219147
,,,,,,,,,246,79.1078,0.0202476
,,,,,,,,,128,29.9492,0.0777583
,,,,,,,,,145,99.6763,0.0712168
,,,,,,,,,163,53.5778,0.0543047
,,,,,,,,,182,68.2201,0.0642914
,,,,,,,,,202,152.249,0.0423148
,,,,,,,,,223,63.4519,0.0305684
,,,,,,,,,245,53.8818,0.0728797
,,,,,,,,,268,106.488,0.0572141
,,,,,,,,,162,70.4301,0.0938344
,,,,,,,,,181,83.484,0.0665334
,,,,,,,,,201,41.8227,0.0821718
,,,,,,,,,222,126.064,0.0493879
,,,,,,,,,244,55.5413,0.034096
,,,,,,,,,267,65.5962,0.0967428
,,,,,,,,,291,133.719,0.0709539
,,,,,,,,,200,149.607,0.0616853
,,,,,,,,,221,47.5666,0.0749014
,,,,,,,,,243,64.6137,0.0466655
,,,,,,,,,266,84.5381,0.0327759
,,,,,,,,,290,116.971,0.086821
,,,,,,,,,315,152.32,0.0654668
,,,,,,,,,242,118.676,0.0564211
,,,,,,,,,265,145.757,0.0387565
,,,,,,,,,289,93.5595,0.0286671
,,,,,,,,,314,62.0615,0.062929
,,,,,,,,,340,57.9632,0.050896
,,,,,,,,,288,84.9986,0.0435888
,,,,,,,,,313,38.8914,0.0312278
,,,,,,,,,339,69.6252,0.076743
,,,,,,,,,366,136.837,0.0595682
,,,,,,,,,338,91.2957,0.024937
,,,,,,,,,365,110.908,0.0473737
,,,,,,,,,393,87.7971,0.040216
,,,,,,,,,392,33.2551,0.0331237
,,,,,,,,,421,99.0235,0.0294578
,,,,,,,,,450,73.5479,0.0668694
