Q	U	V
{$V$}	{[mm$^3$]}	0.00730161
{$d_v$}	{[mm]}	0.240698
{$S_c$}	{[mm$^2$]}	0.313754
{$S_o$}	{[mm$^2$]}	0.210703
{$S_l/S_o$}	[]	0.489082
{$\Psi$}	[]	0.580106
{$\eta$}	[]	0.610596
{med($\theta_e$)}	{[$^\circ$]}	61.8295
{$\Upsilon$}	[]	15
{$\Xi$}	[]	6
