Q	U	V
{$V$}	{[mm$^3$]}	0.00372264
{$d_v$}	{[mm]}	0.192287
{$S_c$}	{[mm$^2$]}	0.257191
{$S_o$}	{[mm$^2$]}	0.135974
{$S_l/S_o$}	[]	0.891472
{$\Psi$}	[]	0.451643
{$\eta$}	[]	0.508762
{med($\theta_e$)}	{[$^\circ$]}	
{$\Upsilon$}	[]	14
{$\Xi$}	[]	9
