"cellPairingIds","interplanarAngles","angleWeights"
8,46.8524,0.0424539
13,112.859,0.125921
26,108.991,0.0482347
34,68.3597,0.0729388
53,106.605,0.0894324
64,121.668,0.115443
18,105.43,0.0376688
25,45.3444,0.0314231
75,87.728,0.0366731
32,99.8564,0.0616892
41,41.9851,0.0421512
116,52.5438,0.0854809
100,47.7814,0.059063
131,102.618,0.0589097
99,41.6596,0.0370861
147,52.47,0.0408347
113,84.8583,0.0501443
129,74.1449,0.0573951
146,36.4186,0.0446381
164,122.828,0.0572504
201,62.7723,0.0669405
200,44.6448,0.0576218
221,77.1018,0.0805198
242,90.7725,0.0574759
