Q	U	V
{$V$}	{[mm$^3$]}	0.00533401
{$d_v$}	{[mm]}	0.216780
{$S_c$}	{[mm$^2$]}	0.299603
{$S_o$}	{[mm$^2$]}	0.167899
{$S_l/S_o$}	[]	0.784424
{$\Psi$}	[]	0.492766
{$\eta$}	[]	0.507966
{med($\theta_e$)}	{[$^\circ$]}	
{$\Upsilon$}	[]	15
{$\Xi$}	[]	13
