facetNormals:0,facetNormals:1,facetNormals:2,FacetCenters:0,FacetCenters:1,FacetCenters:2,FacetIds,relFacetSize,absFacetSize,cellPairingIds,interplanarAngles,angleWeights
0.576763,-0.205615,-0.750037,7.1171,6.17469,5.25086,1,0.034028,0.00963912,8,65.8253,0.0369679
-0.467808,-0.152432,-0.8264,6.96189,6.13879,5.1992,2,0.0404638,0.0114622,13,27.5344,0.0324493
0.38773,-0.618279,-0.654475,7.12299,6.16193,5.25585,3,0.0310105,0.00878435,19,56.1019,0.0369813
-0.192035,-0.680972,-0.655322,6.95571,6.13271,5.18006,4,0.0404959,0.0114713,26,69.1223,0.0308389
-0.0785548,0.688783,-0.703668,6.97563,6.25487,5.1964,5,0.0281963,0.00798716,34,68.0966,0.0361036
0.238063,0.804661,-0.510543,7.03445,6.24714,5.21135,6,0.0384489,0.0108914,43,98.3811,0.0451732
-0.471888,0.742335,-0.385657,6.90478,6.24594,5.22993,7,0.0671752,0.0190287,53,98.7116,0.04476
-0.838271,-0.274636,-0.381417,6.88537,6.1162,5.23873,8,0.06538,0.0185202,64,46.3852,0.0240484
0.969924,0.00521513,-0.126625,7.13347,6.18817,5.30028,9,0.018595,0.0052674,76,57.4798,0.0337239
0.749025,0.571889,-0.259069,7.08047,6.2357,5.2704,10,0.0334252,0.00946835,89,86.8251,0.0173098
-0.337225,-0.925796,-0.0761768,6.94549,6.11723,5.19717,11,0.0116072,0.00328796,103,119.113,0.0370691
-0.766701,-0.565239,0.173487,6.88702,6.11755,5.25675,12,0.0407071,0.0115311,118,69.2392,0.0249213
0.239535,-0.954781,-0.0045027,7.05681,6.13932,5.24818,13,0.0196599,0.00556906,134,126.868,0.0409707
-0.968096,0.0191973,0.000246056,6.86244,6.17682,5.26076,14,0.0514726,0.0145807,151,102.796,0.0412086
0.314309,0.876309,0.27938,7.09424,6.25596,5.31171,15,0.0522301,0.0147952,169,80.8541,0.0463834
0.690161,-0.49093,0.466862,7.01816,6.20445,5.28516,16,0.0728263,0.0206295,188,110.195,0.0354508
-0.195805,-0.808747,0.504887,6.96679,6.22089,5.18354,17,0.0369978,0.0104804,208,93.5574,0.0439934
0.709449,0.392848,0.514798,7.1217,6.21393,5.37052,18,0.062213,0.0176231,229,127.417,0.0272547
0.106124,-0.29,0.929034,6.99171,6.27832,5.21908,19,0.0227302,0.00643879,18,61.2333,0.035112
,,,,,,,,,25,37.5672,0.0404798
,,,,,,,,,33,57.2988,0.0332341
,,,,,,,,,42,78.5281,0.0394306
,,,,,,,,,52,62.5163,0.0505052
,,,,,,,,,63,35.8484,0.0499892
,,,,,,,,,75,111.834,0.0254805
,,,,,,,,,88,103.754,0.0366092
,,,,,,,,,102,67.6238,0.0180396
,,,,,,,,,117,71.1111,0.0405851
,,,,,,,,,133,87.7479,0.0264626
,,,,,,,,,150,61.1222,0.0453091
,,,,,,,,,168,123.172,0.0456002
,,,,,,,,,187,132.957,0.0520227
,,,,,,,,,207,102.484,0.0386533
,,,,,,,,,228,152.198,0.0490349
,,,,,,,,,250,145.201,0.0291088
,,,,,,,,,32,34.8873,0.0351241
,,,,,,,,,41,89.7506,0.0295365
,,,,,,,,,51,94.2325,0.0343314
,,,,,,,,,62,114.439,0.0424326
,,,,,,,,,74,84.2487,0.0420678
,,,,,,,,,87,61.6236,0.023249
,,,,,,,,,101,83.6246,0.0321726
,,,,,,,,,116,59.5119,0.0168918
,,,,,,,,,132,93.7055,0.0352033
,,,,,,,,,149,44.6792,0.0240639
,,,,,,,,,167,114.087,0.0387035
,,,,,,,,,186,129.245,0.0389157
,,,,,,,,,206,73.7317,0.0434987
,,,,,,,,,227,84.3655,0.0337406
,,,,,,,,,249,108.883,0.0413899
,,,,,,,,,272,113.819,0.0262325
,,,,,,,,,50,89.5686,0.0332449
,,,,,,,,,61,105.874,0.0394459
,,,,,,,,,73,100.083,0.0505302
,,,,,,,,,86,49.8222,0.0500136
,,,,,,,,,100,96.5026,0.0254869
,,,,,,,,,115,112.685,0.0366223
,,,,,,,,,131,38.5718,0.0180428
,,,,,,,,,148,63.3746,0.0406012
,,,,,,,,,166,50.2426,0.0264694
,,,,,,,,,185,79.3438,0.0453292
,,,,,,,,,205,153.678,0.0456205
,,,,,,,,,226,96.4128,0.0520492
,,,,,,,,,248,74.0796,0.0386679
,,,,,,,,,271,143.134,0.0490585
,,,,,,,,,295,117.21,0.0291171
,,,,,,,,,72,22.7477,0.032534
,,,,,,,,,85,30.2258,0.0397203
,,,,,,,,,99,81.2095,0.0394004
,,,,,,,,,114,89.0214,0.0224106
,,,,,,,,,130,57.5953,0.0305889
,,,,,,,,,147,124.833,0.0164448
,,,,,,,,,165,118.148,0.0333159
,,,,,,,,,184,133.822,0.0231667
,,,,,,,,,204,84.655,0.0364342
,,,,,,,,,225,66.5354,0.0366222
,,,,,,,,,247,138.991,0.0406529
,,,,,,,,,270,158.896,0.0320029
,,,,,,,,,294,98.9365,0.0388052
,,,,,,,,,319,153.02,0.0251699
,,,,,,,,,98,43.7145,0.0489058
,,,,,,,,,113,103.841,0.0484218
,,,,,,,,,129,71.8217,0.0250669
,,,,,,,,,146,36.5946,0.0357615
,,,,,,,,,164,144.104,0.0178313
,,,,,,,,,183,139.757,0.0395458
,,,,,,,,,203,137.157,0.0260168
,,,,,,,,,224,103.074,0.0440176
,,,,,,,,,246,48.1225,0.0442923
,,,,,,,,,269,119.591,0.0503273
,,,,,,,,,293,177.545,0.0377094
,,,,,,,,,318,76.3801,0.0475259
,,,,,,,,,344,135.205,0.0285703
,,,,,,,,,128,68.4666,0.0662654
,,,,,,,,,145,115.536,0.0291272
,,,,,,,,,163,79.5047,0.0446388
,,,,,,,,,182,121.699,0.0197941
,,,,,,,,,202,97.7068,0.0506943
,,,,,,,,,223,150.155,0.0304176
,,,,,,,,,245,59.5728,0.0582849
,,,,,,,,,268,65.0057,0.0587674
,,,,,,,,,292,159.522,0.0698867
,,,,,,,,,317,138.736,0.0477156
,,,,,,,,,343,105.187,0.064599
,,,,,,,,,370,131.548,0.033967
,,,,,,,,,162,144.592,0.0289548
,,,,,,,,,181,136.928,0.0442353
,,,,,,,,,201,53.4197,0.0197144
,,,,,,,,,222,38.1464,0.0501744
,,,,,,,,,244,86.1731,0.0302297
,,,,,,,,,267,29.9669,0.0575987
,,,,,,,,,291,130.827,0.0580699
,,,,,,,,,316,131.99,0.0689025
,,,,,,,,,342,78.0502,0.0472547
,,,,,,,,,369,166.857,0.0637572
,,,,,,,,,397,112.738,0.0337328
,,,,,,,,,200,37.1214,0.0238961
,,,,,,,,,221,109.474,0.0142927
,,,,,,,,,243,144.244,0.0255285
,,,,,,,,,266,76.3078,0.0191126
,,,,,,,,,290,172.438,0.0273203
,,,,,,,,,315,73.2474,0.0274258
,,,,,,,,,341,50.0273,0.0296256
,,,,,,,,,368,105.727,0.0247505
,,,,,,,,,396,48.3053,0.0286321
,,,,,,,,,425,90.9704,0.0204557
,,,,,,,,,242,142.116,0.0172308
,,,,,,,,,265,174.864,0.0367085
,,,,,,,,,289,112.324,0.0247578
,,,,,,,,,314,138.999,0.0405306
,,,,,,,,,340,45.639,0.0407634
,,,,,,,,,367,82.9969,0.0458202
,,,,,,,,,395,141.068,0.0351209
,,,,,,,,,424,48.4489,0.0434864
,,,,,,,,,454,109.986,0.0270592
,,,,,,,,,288,36.552,0.0180637
,,,,,,,,,313,34.3141,0.0145966
,,,,,,,,,339,71.1811,0.0189427
,,,,,,,,,366,167.714,0.0189934
,,,,,,,,,394,78.7657,0.020023
,,,,,,,,,423,36.1878,0.0176706
,,,,,,,,,453,132.569,0.0195642
,,,,,,,,,484,80.3656,0.0153671
,,,,,,,,,338,68.1157,0.0265144
,,,,,,,,,365,38.7217,0.0454612
,,,,,,,,,393,136.962,0.0457543
,,,,,,,,,422,100.501,0.0522234
,,,,,,,,,452,42.4937,0.0387639
,,,,,,,,,483,136.685,0.0492132
,,,,,,,,,515,75.1002,0.0291715
,,,,,,,,,392,105.22,0.0284524
,,,,,,,,,421,142.852,0.0285669
,,,,,,,,,451,48.409,0.0309615
,,,,,,,,,482,41.008,0.0256761
,,,,,,,,,514,102.674,0.029878
,,,,,,,,,547,71.9802,0.0210839
,,,,,,,,,450,107.78,0.0518486
,,,,,,,,,481,136.339,0.0603153
,,,,,,,,,513,79.3509,0.0430511
,,,,,,,,,546,136.903,0.0563355
,,,,,,,,,580,96.5465,0.0315347
,,,,,,,,,512,95.0564,0.0608322
,,,,,,,,,545,131.689,0.0433138
,,,,,,,,,579,40.3945,0.0567862
,,,,,,,,,614,87.6644,0.0316755
,,,,,,,,,578,58.0856,0.0490678
,,,,,,,,,613,54.6767,0.0671026
,,,,,,,,,649,46.6997,0.0346467
,,,,,,,,,648,102.146,0.0464011
,,,,,,,,,685,44.2271,0.0281599
,,,,,,,,,722,62.1283,0.0332955
