facetNormals:0,facetNormals:1,facetNormals:2,FacetCenters:0,FacetCenters:1,FacetCenters:2,FacetIds,relFacetSize,absFacetSize,cellPairingIds,interplanarAngles,angleWeights
-0.249656,0.304973,-0.845146,7.37985,3.79091,7.66698,1,0.0324971,0.00530866,8,57.9643,0.0410955
-0.823812,-0.294487,-0.434688,7.26191,3.77085,7.74113,2,0.0558809,0.00912857,13,100.77,0.0586658
-0.128928,-0.852192,-0.0907414,7.32905,3.78587,7.78437,3,0.301252,0.0492117,19,80.1379,0.0570298
0.176243,0.915922,0.101145,7.33309,3.80977,7.79104,4,0.232698,0.038013,26,100.357,0.0394625
-0.759913,-0.554135,0.215929,7.25346,3.76791,7.81789,5,0.0502283,0.00820517,34,118.729,0.0364602
0.908198,0.0547263,0.252221,7.3835,3.76773,7.80006,6,0.0415242,0.0067833,43,164.826,0.0405615
0.44373,-0.165126,0.791681,7.36828,3.74069,7.85812,7,0.0539494,0.00881305,53,133.32,0.0270112
-0.483093,-0.127254,0.830367,7.29261,3.74108,7.88482,8,0.02311,0.00377519,64,165.072,0.0151231
0.0575257,-0.188681,0.964237,7.35225,3.76585,7.82534,9,0.00985456,0.00160982,18,62.0656,0.0942743
,,,,,,,,,25,120.045,0.0901201
,,,,,,,,,33,42.47,0.052904
,,,,,,,,,42,161.354,0.0476445
,,,,,,,,,52,137.187,0.0548982
,,,,,,,,,63,85.4862,0.0326976
,,,,,,,,,75,115.305,0.0167545
,,,,,,,,,32,177.717,0.262574
,,,,,,,,,41,48.8224,0.0861008
,,,,,,,,,51,103.183,0.0729878
,,,,,,,,,62,89.1635,0.0915107
,,,,,,,,,74,83.4789,0.0429269
,,,,,,,,,87,85.5703,0.0190848
,,,,,,,,,50,133.191,0.0826223
,,,,,,,,,61,74.5685,0.0704728
,,,,,,,,,73,89.5342,0.0875914
,,,,,,,,,86,97.4389,0.0420444
,,,,,,,,,100,94.046,0.0189084
,,,,,,,,,72,136.972,0.0454634
,,,,,,,,,85,94.817,0.0520224
,,,,,,,,,99,48.7204,0.0316553
,,,,,,,,,114,73.5434,0.0164765
,,,,,,,,,98,47.031,0.0469283
,,,,,,,,,113,104.965,0.029694
,,,,,,,,,129,72.1318,0.0159289
,,,,,,,,,128,58.7278,0.0323587
,,,,,,,,,145,25.411,0.016665
,,,,,,,,,162,33.3292,0.0138172
