facetNormals:0,facetNormals:1,facetNormals:2,FacetCenters:0,FacetCenters:1,FacetCenters:2,FacetIds,relFacetSize,absFacetSize,cellPairingIds,interplanarAngles,angleWeights
-0.0486503,-0.420998,-0.873063,7.16011,4.33631,5.15205,1,0.0652962,0.0131961,8,41.3073,0.026979
0.576667,-0.534427,-0.600533,7.28272,4.37612,5.12361,2,0.017002,0.00343602,13,28.9609,0.0811141
-0.0993545,-0.789788,-0.560455,7.14357,4.3148,5.17333,3,0.107046,0.0216335,19,45.1698,0.038459
-0.583293,-0.680942,-0.412638,7.11524,4.35,5.15968,4,0.0272565,0.00550841,26,75.9844,0.0753362
-0.103737,-0.946276,0.200202,7.10272,4.29539,5.28979,5,0.0890247,0.0179915,34,92.964,0.0715971
0.861515,-0.421489,0.211693,7.26351,4.33599,5.22507,6,0.0792439,0.0160149,43,107.646,0.0646837
-0.700952,0.61565,0.057146,7.04413,4.37713,5.27132,7,0.0640825,0.0129508,53,93.9207,0.0566588
-0.868036,-0.284383,0.257636,7.02715,4.33649,5.27535,8,0.0500395,0.0101128,64,137.287,0.0277816
0.367922,0.828809,0.3842,7.17916,4.40338,5.30539,9,0.0176444,0.00356586,76,124.845,0.0662303
0.823064,0.153068,0.499466,7.25869,4.38644,5.2595,10,0.0671916,0.0135791,89,146.827,0.0382034
-0.151662,0.805722,0.526509,7.11016,4.3922,5.28573,11,0.0270004,0.00545666,103,117.629,0.0654869
0.439083,-0.490912,0.712371,7.18601,4.32234,5.3255,12,0.0656788,0.0132734,118,143.205,0.0622982
-0.394283,0.0110759,0.853907,7.09004,4.34959,5.33839,13,0.0595634,0.0120375,18,43.2645,0.0293433
,,,,,,,,,25,73.6216,0.0209412
,,,,,,,,,33,70.2213,0.0285512
,,,,,,,,,42,52.2473,0.0279971
,,,,,,,,,52,146.103,0.0268739
,,,,,,,,,63,122.414,0.0253804
,,,,,,,,,75,118.271,0.0173172
,,,,,,,,,88,84.4735,0.0271372
,,,,,,,,,102,149.93,0.0208652
,,,,,,,,,117,84.7541,0.0270116
,,,,,,,,,133,143.297,0.0264531
,,,,,,,,,32,30.6055,0.0434496
,,,,,,,,,41,47.0332,0.097207
,,,,,,,,,51,82.2677,0.0910703
,,,,,,,,,62,119.54,0.080171
,,,,,,,,,74,79.6212,0.0681989
,,,,,,,,,87,160.989,0.0302952
,,,,,,,,,101,120.565,0.0825607
,,,,,,,,,116,165.027,0.0431236
,,,,,,,,,132,93.3481,0.0814087
,,,,,,,,,149,119.302,0.0765385
,,,,,,,,,50,49.6018,0.041735
,,,,,,,,,61,108.205,0.0405615
,,,,,,,,,73,92.1085,0.0382457
,,,,,,,,,86,50.6728,0.0352903
,,,,,,,,,100,164.683,0.0214216
,,,,,,,,,115,145.234,0.0387812
,,,,,,,,,131,134.782,0.0271278
,,,,,,,,,148,103.023,0.0385251
,,,,,,,,,166,98.0441,0.037399
,,,,,,,,,72,68.3912,0.08385
,,,,,,,,,85,123.242,0.074522
,,,,,,,,,99,63.5839,0.0640676
,,,,,,,,,114,141.096,0.0294516
,,,,,,,,,130,97.8935,0.0765824
,,,,,,,,,147,132.577,0.0414341
,,,,,,,,,165,53.4824,0.0755902
,,,,,,,,,184,77.286,0.0713733
,,,,,,,,,98,158.016,0.0708613
,,,,,,,,,113,127.963,0.0613432
,,,,,,,,,129,87.0981,0.0288623
,,,,,,,,,146,38.4066,0.0727218
,,,,,,,,,164,112.02,0.0402773
,,,,,,,,,183,39.4322,0.0718265
,,,,,,,,,203,100.199,0.0680085
,,,,,,,,,128,59.6597,0.056197
,,,,,,,,,145,72.6621,0.0276701
,,,,,,,,,163,119.896,0.0656003
,,,,,,,,,182,46.0178,0.0379929
,,,,,,,,,202,128.888,0.0648709
,,,,,,,,,223,67.8137,0.0617404
,,,,,,,,,162,119.207,0.0260894
,,,,,,,,,181,132.857,0.0573608
,,,,,,,,,201,87.6349,0.035075
,,,,,,,,,222,93.6115,0.0568024
,,,,,,,,,244,51.2223,0.0543877
,,,,,,,,,200,49.6513,0.0279493
,,,,,,,,,221,31.9447,0.021342
,,,,,,,,,243,88.2986,0.0278161
,,,,,,,,,266,78.0261,0.0272242
,,,,,,,,,242,74.0215,0.0385213
,,,,,,,,,265,47.2454,0.0664266
,,,,,,,,,289,83.5081,0.063148
,,,,,,,,,288,95.2843,0.0382686
,,,,,,,,,313,55.5606,0.0371572
,,,,,,,,,338,61.9064,0.0624718
