"cellPairingIds","interplanarAngles","angleWeights"
8,31.7303,0.0168475
13,44.501,0.0169674
26,89.3122,0.0349465
43,85.2336,0.0430528
53,85.0763,0.0231669
64,98.0411,0.0380364
89,102.532,0.034653
18,22.1753,0.0127391
52,66.9593,0.0233704
32,34.2253,0.0223641
41,69.9109,0.0209391
51,54.3386,0.0217905
62,81.1531,0.0236018
101,87.4333,0.0174956
50,38.2691,0.069477
115,53.2647,0.0420292
114,52.2391,0.0661738
130,27.3258,0.0372634
98,36.7091,0.0982075
146,103.045,0.040048
203,68.7142,0.0820846
182,69.3249,0.0813618
223,82.1115,0.115465
245,96.1969,0.0463403
162,50.8208,0.0337136
201,50.6167,0.0310284
222,42.036,0.0296637
267,51.2002,0.0240864
200,57.5366,0.0407973
243,41.497,0.0593939
265,77.2826,0.0350128
289,57.2212,0.0426472
339,37.7096,0.0367516
338,87.9703,0.0633975
365,28.9053,0.0348525
392,80.5158,0.0424097
