Q	U	V
{$V$}	{[mm$^3$]}	0.0108889
{$d_v$}	{[mm]}	0.274997
{$S_c$}	{[mm$^2$]}	0.410431
{$S_o$}	{[mm$^2$]}	0.258194
{$S_l/S_o$}	[]	0.589623
{$\Psi$}	[]	0.578851
{$\eta$}	[]	0.595435
{med($\theta_e$)}	{[$^\circ$]}	68.5978
{$\Upsilon$}	[]	14
{$\Xi$}	[]	12
