facetNormals:0,facetNormals:1,facetNormals:2,FacetCenters:0,FacetCenters:1,FacetCenters:2,FacetIds,relFacetSize,absFacetSize,cellPairingIds,interplanarAngles,angleWeights
-0.34376,0.190024,-0.896545,4.8535,5.76379,7.99873,1,0.0826464,0.0213727,8,45.2273,0.0786762
0.0773509,0.731999,-0.609191,4.81878,5.89426,8.05698,2,0.07507,0.0194134,13,62.0793,0.0294796
0.259051,-0.606161,-0.73101,4.90301,5.72068,8.0521,3,0.0179392,0.00463916,19,49.3201,0.0647284
-0.529641,-0.532593,-0.589142,4.87031,5.84141,8.0981,4,0.0531955,0.0137566,26,77.2858,0.0834178
0.767813,-0.173653,-0.563878,4.92069,5.71902,8.01141,5,0.0842037,0.0217754,34,77.8727,0.0279073
0.0648761,-0.877721,-0.436208,4.83954,5.81791,8.09849,6,0.016788,0.00434146,43,81.1539,0.0268921
-0.238776,-0.916475,-0.267942,4.90676,5.81486,8.09742,7,0.0160587,0.00415285,53,101.607,0.0334526
-0.522972,-0.791123,0.248166,4.82373,5.62892,8.11699,8,0.0209704,0.00542303,64,126.541,0.0709751
0.627791,-0.674327,0.234313,4.90379,5.6507,8.09735,9,0.0621923,0.0160832,76,148.922,0.0798399
0.687232,0.140142,0.678997,4.9025,5.73187,8.14406,10,0.0772177,0.0199688,89,139.137,0.097883
0.323627,0.476395,0.772415,4.83819,5.87099,8.16003,11,0.120007,0.0310344,18,88.6807,0.0289584
,,,,,,,,,25,94.5229,0.0622675
,,,,,,,,,33,72.6575,0.079375
,,,,,,,,,42,113.333,0.0274397
,,,,,,,,,52,124.017,0.0264577
,,,,,,,,,63,145.374,0.032783
,,,,,,,,,75,130.325,0.0680271
,,,,,,,,,88,106.051,0.0761287
,,,,,,,,,102,96.0355,0.0923629
,,,,,,,,,32,49.0131,0.0268304
,,,,,,,,,41,41.2732,0.0295772
,,,,,,,,,51,26.178,0.0173445
,,,,,,,,,62,44.6239,0.016947
,,,,,,,,,74,80.2952,0.0193367
,,,,,,,,,87,64.6871,0.0278463
,,,,,,,,,101,114.814,0.0291145
,,,,,,,,,116,144.238,0.0312126
,,,,,,,,,50,88.8827,0.0652006
,,,,,,,,,61,42.6121,0.0255217
,,,,,,,,,73,34.7025,0.02467
,,,,,,,,,86,53.8417,0.030082
,,,,,,,,,100,97.0515,0.0573431
,,,,,,,,,115,154.152,0.0629941
,,,,,,,,,131,163.136,0.0737153
,,,,,,,,,72,61.8872,0.0279947
,,,,,,,,,85,82.3484,0.0269733
,,,,,,,,,99,115.196,0.0335783
,,,,,,,,,114,59.515,0.0715432
,,,,,,,,,130,82.6788,0.0805595
,,,,,,,,,147,106.808,0.0989669
,,,,,,,,,98,20.4631,0.0164153
,,,,,,,,,113,55.0075,0.0186476
,,,,,,,,,129,55.3902,0.0264392
,,,,,,,,,146,112.995,0.0275799
,,,,,,,,,164,140.863,0.0294555
,,,,,,,,,128,35.7109,0.0181888
,,,,,,,,,145,64.3301,0.0255263
,,,,,,,,,163,119.591,0.026588
,,,,,,,,,182,139.476,0.0283269
,,,,,,,,,162,73.5879,0.0313649
,,,,,,,,,181,108.382,0.0329833
,,,,,,,,,201,112.041,0.0357021
,,,,,,,,,200,57.6897,0.0688953
,,,,,,,,,221,86.0616,0.081927
,,,,,,,,,242,30.1106,0.0939707
