"cellPairingIds","interplanarAngles","angleWeights"
13,38.677,0.0326016
19,90.3868,0.0732738
34,79.3197,0.060958
43,45.688,0.0432852
18,53.4056,0.0257475
25,94.5298,0.0458445
63,40.5895,0.0316994
75,89.216,0.0470408
32,127.204,0.045007
62,41.1064,0.0315717
87,48.4558,0.0461594
61,50.8303,0.125784
86,131.456,0.0669958
115,58.8345,0.0517662
98,78.479,0.0574537
129,118.979,0.135218
146,59.1794,0.0453003
145,48.9896,0.0709557
162,55.9479,0.0695817
181,140.819,0.0344221
200,122.335,0.0532966
