"cellPairingIds","interplanarAngles","angleWeights"
8,76.5379,0.0239163
13,47.1237,0.0733319
19,155.429,0.0611472
26,141.937,0.107029
43,113.697,0.132723
64,96.2876,0.0487996
25,99.2961,0.0194897
42,63.2645,0.0211456
52,50.3639,0.0235351
62,85.4626,0.0698622
74,122.756,0.0524121
87,69.683,0.0366685
50,38.9689,0.0530785
61,41.3847,0.045803
86,34.5947,0.0458781
99,43.984,0.0676308
114,63.0956,0.0435199
98,40.454,0.0768455
113,40.7755,0.0562468
128,59.4238,0.0770571
162,79.7259,0.0385581
