"cellPairingIds","interplanarAngles","angleWeights"
8,49.1402,0.0247233
19,53.4694,0.0322346
26,59.9041,0.0255003
34,95.3971,0.0295188
43,82.2455,0.022665
53,80.9715,0.0242662
118,90.8303,0.0327506
25,46.943,0.038444
42,59.1956,0.0346429
75,55.5283,0.0424469
50,77.5323,0.040356
100,59.6639,0.0707523
185,59.1261,0.0760753
226,91.3724,0.0732308
184,40.0069,0.041168
247,61.572,0.0457706
98,60.485,0.0307322
129,62.2435,0.0588653
164,58.3998,0.023598
246,45.2002,0.0332716
128,30.8578,0.0250802
182,28.6947,0.0190039
181,24.0543,0.0301675
201,43.5572,0.0201169
222,41.3679,0.0341715
244,45.5612,0.0380443
290,49.1674,0.0935292
315,75.0746,0.0404064
265,45.1367,0.0392905
289,21.5942,0.0444989
288,24.6922,0.0238023
366,42.871,0.0199453
338,57.8982,0.0537971
393,51.6496,0.0336793
422,87.8462,0.0619359
451,56.6842,0.075949
450,96.8839,0.0420882
481,53.9877,0.0979097
512,105.13,0.0412028
