"cellPairingIds","interplanarAngles","angleWeights"
8,35.5732,0.0321056
19,41.8812,0.0244542
26,61.2502,0.0396645
34,56.4683,0.0471849
43,123.141,0.0403549
53,147.238,0.0435153
18,36.4242,0.0482851
42,46.3268,0.0457696
63,142.823,0.0423088
51,59.8267,0.092968
74,113.752,0.079722
87,83.9262,0.0407333
101,108.901,0.147056
50,33.603,0.0280801
61,52.3439,0.0316514
72,85.4428,0.0628424
85,71.7808,0.0512827
130,89.5982,0.083636
146,74.1831,0.125971
128,39.0919,0.0579081
163,85.1671,0.0867657
162,40.4308,0.0363963
181,87.3729,0.102822
200,71.113,0.0460153
