facetNormals:0,facetNormals:1,facetNormals:2,FacetCenters:0,FacetCenters:1,FacetCenters:2,FacetIds,relFacetSize,absFacetSize,cellPairingIds,interplanarAngles,angleWeights
0.23801,-0.348813,-0.876163,6.52252,4.61121,4.28944,1,0.0646327,0.0145824,8,33.1922,0.0563157
0.464948,0.155638,-0.835917,6.52632,4.68842,4.28614,2,0.0498951,0.0112573,13,42.2945,0.0626315
-0.167556,-0.793642,-0.521285,6.43426,4.64146,4.22718,3,0.0607505,0.0137065,19,68.7483,0.081226
-0.705504,-0.532484,-0.364342,6.37763,4.64952,4.31095,4,0.109282,0.0246562,26,77.2927,0.0699624
-0.87112,-0.129653,-0.423671,6.33379,4.72509,4.34353,5,0.0762501,0.0172035,34,68.7065,0.0858851
0.781221,0.462427,-0.36655,6.54789,4.70635,4.33596,6,0.127961,0.0288705,43,99.9297,0.026554
-0.102403,0.956952,-0.219822,6.39148,4.7847,4.27538,7,0.0167095,0.00376999,53,103.692,0.0460938
-0.713206,0.632731,-0.190187,6.35699,4.77358,4.24483,8,0.0358195,0.00808158,64,83.0638,0.0258009
0.911449,-0.257716,0.219842,6.54717,4.61647,4.30471,9,0.0161175,0.00363641,76,109.748,0.0660274
0.438413,0.839341,0.144212,6.45385,4.76103,4.29192,10,0.0674836,0.0152256,89,109.17,0.0322062
0.345075,-0.584705,0.675669,6.51156,4.58357,4.34014,11,0.0214464,0.00483873,18,75.4766,0.0547903
,,,,,,,,,25,96.5905,0.0685103
,,,,,,,,,33,94.3022,0.0603194
,,,,,,,,,42,38.5892,0.0717954
,,,,,,,,,52,72.6636,0.025035
,,,,,,,,,63,94.5137,0.0417016
,,,,,,,,,75,77.7526,0.0243645
,,,,,,,,,88,76.6761,0.0573716
,,,,,,,,,102,122.252,0.0299985
,,,,,,,,,32,37.56,0.0780902
,,,,,,,,,41,60.102,0.0676235
,,,,,,,,,51,108.967,0.082387
,,,,,,,,,62,131.26,0.0262099
,,,,,,,,,74,107.605,0.0450668
,,,,,,,,,87,93.8398,0.025476
,,,,,,,,,101,151.909,0.0639403
,,,,,,,,,116,86.6474,0.0317014
,,,,,,,,,50,26.2536,0.0898256
,,,,,,,,,61,135.172,0.117886
,,,,,,,,,73,112.24,0.0289868
,,,,,,,,,86,75.3202,0.0539543
,,,,,,,,,100,129.069,0.0280918
,,,,,,,,,115,152.029,0.0834409
,,,,,,,,,131,101.226,0.0358561
,,,,,,,,,72,127.705,0.0955583
,,,,,,,,,85,86.5378,0.0274119
,,,,,,,,,99,49.2814,0.0487418
,,,,,,,,,114,153.942,0.0266101
,,,,,,,,,130,126.12,0.0715995
,,,,,,,,,147,123.088,0.0334769
,,,,,,,,,98,62.7126,0.0295591
,,,,,,,,,113,101.814,0.0559712
,,,,,,,,,129,57.4436,0.0286289
,,,,,,,,,146,43.7186,0.0883654
,,,,,,,,,164,105.364,0.0367358
,,,,,,,,,128,41.3632,0.0227884
,,,,,,,,,145,113.86,0.0164081
,,,,,,,,,163,39.7882,0.0267864
,,,,,,,,,182,141.829,0.0187839
,,,,,,,,,162,154.738,0.0222315
,,,,,,,,,181,78.1662,0.0467988
,,,,,,,,,201,143.088,0.0268292
,,,,,,,,,200,76.6546,0.0260203
,,,,,,,,,221,48.7791,0.0184039
,,,,,,,,,242,105.296,0.0325487
