"cellPairingIds","interplanarAngles","angleWeights"
8,39.3943,0.144099
13,103.465,0.0497049
19,94.8015,0.0805694
43,102.232,0.0586687
18,121.581,0.0526424
52,67.1924,0.0628054
63,91.2532,0.151094
32,37.0818,0.0408696
41,41.712,0.0429921
51,49.5631,0.0429196
74,79.4912,0.0505115
50,32.3294,0.0642963
73,161.335,0.0467417
72,41.4266,0.0695202
85,129.849,0.0495388
98,98.1666,0.0494426
113,50.9917,0.0915611
128,62.3587,0.0597959
