Q	U	V
{$V$}	{[mm$^3$]}	0.00372621
{$d_v$}	{[mm]}	0.192349
{$S_c$}	{[mm$^2$]}	0.194637
{$S_o$}	{[mm$^2$]}	0.120335
{$S_l/S_o$}	[]	0.617460
{$\Psi$}	[]	0.597178
{$\eta$}	[]	0.623792
{med($\theta_e$)}	{[$^\circ$]}	55.99965
{$\Upsilon$}	[]	15
{$\Xi$}	[]	8
