Q	U	V
{$V$}	{[mm$^3$]}	0.00489822
{$d_v$}	{[mm]}	0.210707
{$S_c$}	{[mm$^2$]}	0.235933
{$S_o$}	{[mm$^2$]}	0.146808
{$S_l/S_o$}	[]	0.607085
{$\Psi$}	[]	0.591182
{$\eta$}	[]	0.635871
{med($\theta_e$)}	{[$^\circ$]}	56.3179
{$\Upsilon$}	[]	14
{$\Xi$}	[]	11
