Q	U	V
{$V$}	{[mm$^3$]}	0.00155912
{$d_v$}	{[mm]}	0.143867
{$S_c$}	{[mm$^2$]}	0.123186
{$S_o$}	{[mm$^2$]}	0.063751
{$S_l/S_o$}	[]	0.932299
{$\Psi$}	[]	0.527848
{$\eta$}	[]	0.617479
{med($\theta_e$)}	{[$^\circ$]}	59.4358
{$\Upsilon$}	[]	13
{$\Xi$}	[]	2
