facetNormals:0,facetNormals:1,facetNormals:2,FacetCenters:0,FacetCenters:1,FacetCenters:2,FacetIds,relFacetSize,absFacetSize,cellPairingIds,interplanarAngles,angleWeights
0.148097,0.495742,-0.825308,6.22408,6.69712,5.53018,1,0.037438,0.00263642,8,36.9708,0.0399504
0.615633,0.092842,-0.760655,6.28626,6.63321,5.5503,2,0.0428242,0.00301573,13,76.4777,0.0427699
0.254986,-0.691996,-0.639249,6.27638,6.60825,5.5596,3,0.0498725,0.00351207,19,100.272,0.0222024
-0.895717,-0.136599,-0.0517714,6.22648,6.65082,5.61673,4,0.0157805,0.00111128,26,78.9935,0.0306176
0.826362,-0.399429,-0.309935,6.29053,6.61456,5.58259,5,0.0258992,0.00182385,34,40.0688,0.0596855
0.619611,0.646458,-0.378613,6.25827,6.70231,5.5661,6,0.147099,0.0103588,43,111.66,0.0478789
0.161745,-0.955884,-0.119613,6.27858,6.58369,5.59893,7,0.0663957,0.00467565,53,60.1627,0.0474417
-0.215638,0.937746,-0.0409664,6.22417,6.6974,5.57949,8,0.0647407,0.0045591,64,79.9249,0.0587681
0.703877,0.599205,0.286421,6.28098,6.66892,5.64413,9,0.136589,0.0096187,76,75.9652,0.0447612
0.926138,0.336901,0.0854228,6.29559,6.65609,5.61574,10,0.0556459,0.00391864,89,132.892,0.0255581
0.596234,-0.518188,0.585694,6.26894,6.59945,5.66759,11,0.0194016,0.00136628,103,117.646,0.0151344
0.752113,-0.0604646,0.640762,6.28647,6.5949,5.66076,12,0.00948421,0.000667887,118,159.107,0.0493027
0.117426,-0.677331,0.68183,6.27348,6.60366,5.66547,13,0.0721766,0.00508275,134,112.896,0.018431
0.600845,0.28585,0.734667,6.23501,6.6352,5.6961,14,0.0122246,0.00086087,151,111.931,0.0494355
0.0475463,0.579734,0.788805,6.23324,6.69419,5.65819,15,0.0727487,0.00512304,169,144.348,0.0298946
-0.179724,0.0863828,0.959536,6.22526,6.65798,5.68846,16,0.0248812,0.00175216,18,52.8778,0.0460804
,,,,,,,,,25,126.03,0.0230626
,,,,,,,,,33,42.0227,0.0322776
,,,,,,,,,42,40.2416,0.0663363
,,,,,,,,,52,83.9131,0.0520664
,,,,,,,,,63,90.8795,0.0515497
,,,,,,,,,75,73.4421,0.065205
,,,,,,,,,88,56.5153,0.0484003
,,,,,,,,,102,97.5232,0.0267046
,,,,,,,,,117,91.766,0.0155292
,,,,,,,,,133,122.348,0.0537545
,,,,,,,,,150,99.5943,0.0190198
,,,,,,,,,168,122.45,0.0539124
,,,,,,,,,187,149.789,0.0314751
,,,,,,,,,32,96.5329,0.0239749
,,,,,,,,,41,43.5511,0.0340934
,,,,,,,,,51,92.859,0.0744899
,,,,,,,,,62,35.1845,0.05696
,,,,,,,,,74,136.138,0.0563422
,,,,,,,,,87,116.286,0.0730664
,,,,,,,,,101,93.0631,0.0526013
,,,,,,,,,116,81.8409,0.0279356
,,,,,,,,,132,100.496,0.0159376
,,,,,,,,,149,86.1899,0.0589866
,,,,,,,,,167,122.112,0.0196361
,,,,,,,,,186,159.049,0.0591768
,,,,,,,,,206,138.737,0.0331994
,,,,,,,,,50,139.604,0.0196116
,,,,,,,,,61,134.982,0.0285032
,,,,,,,,,73,90.5243,0.0255002
,,,,,,,,,86,85.5922,0.0253757
,,,,,,,,,100,145.887,0.0282923
,,,,,,,,,115,168.586,0.0245881
,,,,,,,,,131,123.577,0.0174047
,,,,,,,,,148,141.042,0.0118478
,,,,,,,,,166,93.1285,0.0258986
,,,,,,,,,185,133.155,0.0137768
,,,,,,,,,205,100.534,0.0259352
,,,,,,,,,226,83.5766,0.0193124
,,,,,,,,,72,66.7913,0.0440438
,,,,,,,,,85,54.2749,0.0372631
,,,,,,,,,99,125.369,0.0369977
,,,,,,,,,114,74.3091,0.0435422
,,,,,,,,,130,50.9071,0.035347
,,,,,,,,,147,57.05,0.0221844
,,,,,,,,,165,62.2119,0.0138841
,,,,,,,,,184,80.4102,0.0381199
,,,,,,,,,204,80.7324,0.0166095
,,,,,,,,,225,117.387,0.0381992
,,,,,,,,,247,120.399,0.02538
,,,,,,,,,98,119.833,0.0914939
,,,,,,,,,113,58.5798,0.0899103
,,,,,,,,,129,40.5349,0.141649
,,,,,,,,,146,37.8585,0.0807463
,,,,,,,,,164,101.298,0.0342816
,,,,,,,,,183,78.9577,0.0178195
,,,,,,,,,203,131.462,0.0968379
,,,,,,,,,224,73.1749,0.0225733
,,,,,,,,,246,83.6381,0.0973515
,,,,,,,,,269,116.076,0.042563
,,,,,,,,,128,169.957,0.0655577
,,,,,,,,,145,121.447,0.0893556
,,,,,,,,,163,100.884,0.0605474
,,,,,,,,,182,57.1044,0.0300285
,,,,,,,,,202,83.8969,0.0165976
,,,,,,,,,223,51.7995,0.0691656
,,,,,,,,,245,105.819,0.0206476
,,,,,,,,,268,132.017,0.0694272
,,,,,,,,,292,103.681,0.0361976
,,,,,,,,,162,64.6947,0.0878445
,,,,,,,,,181,83.2052,0.0598498
,,,,,,,,,201,132.389,0.0298559
,,,,,,,,,222,104.9,0.0165447
,,,,,,,,,244,137.583,0.0682567
,,,,,,,,,267,83.4802,0.0205659
,,,,,,,,,291,57.937,0.0685115
,,,,,,,,,316,85.1104,0.0359471
,,,,,,,,,200,23.4509,0.0790763
,,,,,,,,,221,73.0825,0.0339769
,,,,,,,,,243,45.0588,0.0177368
,,,,,,,,,266,97.8464,0.0944458
,,,,,,,,,290,32.9825,0.0224408
,,,,,,,,,315,50.2274,0.0949343
,,,,,,,,,341,77.8208,0.0420944
,,,,,,,,,242,63.9205,0.0287716
,,,,,,,,,265,41.7172,0.0162062
,,,,,,,,,289,93.6634,0.0628423
,,,,,,,,,314,43.1337,0.0200455
,,,,,,,,,340,71.5561,0.0630582
,,,,,,,,,367,93.2748,0.0343868
,,,,,,,,,288,28.5534,0.0127404
,,,,,,,,,313,30.5059,0.0305824
,,,,,,,,,339,48.9273,0.0149988
,,,,,,,,,366,78.6344,0.0306334
,,,,,,,,,394,64.8179,0.0218023
,,,,,,,,,338,53.7927,0.0167654
,,,,,,,,,365,22.6715,0.0106814
,,,,,,,,,393,58.5539,0.0167807
,,,,,,,,,422,60.7224,0.0137335
,,,,,,,,,392,66.8134,0.020908
,,,,,,,,,421,80.8597,0.0724615
,,,,,,,,,451,52.7298,0.0370056
,,,,,,,,,450,37.1996,0.0209319
,,,,,,,,,481,50.2122,0.0163944
,,,,,,,,,512,33.7738,0.0370803
