facetNormals:0,facetNormals:1,facetNormals:2,FacetCenters:0,FacetCenters:1,FacetCenters:2,FacetIds,relFacetSize,absFacetSize,cellPairingIds,interplanarAngles,angleWeights
0.105087,-0.572327,-0.765501,6.16661,3.74019,7.39971,1,0.00591411,0.00070651,8,114.83,0.00798793
-0.285822,0.926157,-0.208702,6.15573,3.91507,7.4051,2,0.0123016,0.00146957,13,60.6611,0.00866545
0.870717,-0.422711,-0.169168,6.09415,3.85994,7.38119,3,0.0162037,0.00193572,19,95.0061,0.0109977
-0.958271,0.162848,-0.145572,6.08221,3.80531,7.38677,4,0.078311,0.00935517,26,49.9553,0.0108281
-0.0182101,-0.965116,-0.0626859,6.14352,3.69633,7.43296,5,0.0640325,0.00764944,34,66.5193,0.0100282
0.571072,-0.77118,0.167443,6.21708,3.72622,7.44589,6,0.0329488,0.00393613,43,134.957,0.00836245
0.0331015,0.95755,0.149254,6.1609,3.8116,7.40003,7,0.01427,0.00170472,53,81.8637,0.0103208
0.00925683,-0.856707,0.468216,6.15803,3.71336,7.49389,8,0.0404931,0.00483738,64,128.855,0.0113745
-0.815783,0.433774,0.339334,6.10903,3.85864,7.44666,9,0.148268,0.0177124,76,96.3205,0.0107814
-0.805471,-0.428133,0.344351,6.09379,3.72923,7.47536,10,0.0609114,0.00727658,89,146.847,0.0113997
0.42971,0.425593,0.772783,6.21004,3.84233,7.48334,11,0.157326,0.0187944,103,137.327,0.00903144
-0.0181696,-0.09684,0.974372,6.15176,3.81879,7.5028,12,0.019098,0.00228149,18,128.396,0.0139855
,,,,,,,,,25,62.1588,0.021263
,,,,,,,,,33,155.913,0.0206382
,,,,,,,,,42,160.859,0.0179146
,,,,,,,,,52,28.3336,0.0132129
,,,,,,,,,63,157.418,0.0188704
,,,,,,,,,75,54.6879,0.0227183
,,,,,,,,,88,104.263,0.0204692
,,,,,,,,,102,83.5045,0.0228189
,,,,,,,,,117,107.244,0.0149643
,,,,,,,,,32,155.475,0.0268514
,,,,,,,,,41,64.9315,0.0258627
,,,,,,,,,51,33.8492,0.0217239
,,,,,,,,,62,114.903,0.0151755
,,,,,,,,,74,72.3424,0.0231455
,,,,,,,,,87,169.548,0.0292146
,,,,,,,,,101,127.154,0.0255978
,,,,,,,,,116,86.2226,0.0293812
,,,,,,,,,132,98.3486,0.0175322
,,,,,,,,,50,97.8951,0.0704556
,,,,,,,,,61,136.738,0.0463825
,,,,,,,,,73,83.8267,0.024141
,,,,,,,,,86,103.042,0.0533829
,,,,,,,,,100,33.897,0.10249
,,,,,,,,,115,47.1262,0.0685239
,,,,,,,,,131,118.146,0.104571
,,,,,,,,,148,98.3753,0.0307074
,,,,,,,,,72,39.8521,0.0435093
,,,,,,,,,85,174.784,0.0233388
,,,,,,,,,99,32.4133,0.0496122
,,,,,,,,,114,116.515,0.0894391
,,,,,,,,,130,64.4838,0.062433
,,,,,,,,,147,119.471,0.0910195
,,,,,,,,,165,88.0211,0.0294211
,,,,,,,,,98,137.333,0.0199149
,,,,,,,,,113,38.4952,0.0363335
,,,,,,,,,129,140.853,0.0539162
,,,,,,,,,146,94.357,0.0427649
,,,,,,,,,164,87.2067,0.0544865
,,,,,,,,,183,76.2061,0.0241805
,,,,,,,,,128,142.405,0.0211031
,,,,,,,,,145,62.6153,0.0260343
,,,,,,,,,163,114.045,0.0231229
,,,,,,,,,182,55.637,0.0261666
,,,,,,,,,202,86.8551,0.0163347
,,,,,,,,,162,103.252,0.063613
,,,,,,,,,181,56.8502,0.0486466
,,,,,,,,,201,89.9283,0.0644085
,,,,,,,,,222,55.687,0.0259548
,,,,,,,,,200,52.1982,0.086349
,,,,,,,,,221,84.2784,0.152663
,,,,,,,,,243,71.6511,0.0338376
,,,,,,,,,242,105.906,0.0878212
,,,,,,,,,265,65.7871,0.0290788
,,,,,,,,,288,42.904,0.0340613
