"cellPairingIds","interplanarAngles","angleWeights"
33,127.123,0.00691221
88,62.4451,0.00627827
102,85.185,0.00430544
133,144.351,0.00645744
147,113.971,0.010038
165,30.7094,0.0631334
184,55.057,0.0450105
242,104.584,0.00875433
289,94.3122,0.0271555
288,105.85,0.00966818
313,128.711,0.00910667
338,36.0693,0.0384203
