facetNormals:0,facetNormals:1,facetNormals:2,FacetCenters:0,FacetCenters:1,FacetCenters:2,FacetIds,relFacetSize,absFacetSize,cellPairingIds,interplanarAngles,angleWeights
-0.110227,-0.228348,-0.934718,7.66747,4.48634,4.98678,1,0.0680813,0.00609249,8,60.4018,0.0417252
0.653828,0.295853,-0.642242,7.72723,4.50924,5.02141,2,0.0300803,0.00269183,13,42.8596,0.0689341
-0.405681,-0.728631,-0.521008,7.63825,4.42418,5.0252,3,0.0698085,0.00624705,19,50.6607,0.0828385
-0.800924,-0.299873,-0.474775,7.5935,4.49849,5.01628,4,0.105764,0.00946463,26,58.3019,0.079053
0.541233,-0.672851,-0.422938,7.72513,4.44738,5.01939,5,0.0942405,0.00843343,34,85.7337,0.0771841
-0.856009,-0.414052,0.128139,7.5925,4.46436,5.08608,6,0.0890968,0.00797313,43,95.3119,0.0500955
0.625947,-0.729798,0.198647,7.69953,4.43371,5.08587,7,0.0396268,0.00354614,53,113.918,0.0850752
0.881101,-0.107792,0.318613,7.75414,4.50522,5.11975,8,0.113375,0.0101458,64,94.0226,0.052666
0.148833,-0.92878,0.280696,7.70662,4.42478,5.09357,9,0.0429427,0.00384287,76,116.316,0.0542401
0.291206,-0.728998,0.596685,7.70543,4.44803,5.13848,10,0.045076,0.00403378,89,136.425,0.0337157
0.764268,0.131556,0.625749,7.73504,4.53382,5.15815,11,0.0224058,0.00200506,103,157.104,0.0296441
0.392008,-0.0399944,0.910606,7.69922,4.54257,5.17825,12,0.018947,0.00169554,118,133.443,0.076892
-0.254308,-0.43705,0.828017,7.6568,4.47419,5.1539,13,0.0883221,0.0079038,18,98.8809,0.0420439
,,,,,,,,,25,109.049,0.046839
,,,,,,,,,33,62.5802,0.0456043
,,,,,,,,,42,145.824,0.044976
,,,,,,,,,52,86.0113,0.0341998
,,,,,,,,,63,68.0461,0.0475458
,,,,,,,,,75,112.236,0.0353787
,,,,,,,,,88,115.478,0.0360821
,,,,,,,,,102,81.8084,0.025682
,,,,,,,,,117,110.866,0.0232495
,,,,,,,,,133,152.31,0.0448767
,,,,,,,,,32,34.7009,0.0841045
,,,,,,,,,41,58.7111,0.0802052
,,,,,,,,,51,51.8976,0.078282
,,,,,,,,,62,79.5971,0.0505557
,,,,,,,,,74,118.668,0.0864111
,,,,,,,,,87,60.8539,0.0531749
,,,,,,,,,101,83.9521,0.0547801
,,,,,,,,,116,138.328,0.0339235
,,,,,,,,,132,128.272,0.0298046
,,,,,,,,,149,90.5878,0.0779815
,,,,,,,,,50,91.8837,0.0996702
,,,,,,,,,61,37.0634,0.0967175
,,,,,,,,,73,113.102,0.0576527
,,,,,,,,,86,153.366,0.109437
,,,,,,,,,100,88.4457,0.0610838
,,,,,,,,,115,107.992,0.0632116
,,,,,,,,,131,166.72,0.0369779
,,,,,,,,,148,139.165,0.0321369
,,,,,,,,,166,93.5269,0.0962592
,,,,,,,,,72,105.008,0.0915965
,,,,,,,,,85,37.8094,0.0557933
,,,,,,,,,99,62.7899,0.102926
,,,,,,,,,114,51.5617,0.0590005
,,,,,,,,,130,65.3282,0.0609833
,,,,,,,,,147,86.3812,0.0362041
,,,,,,,,,165,98.8059,0.0315507
,,,,,,,,,184,101.988,0.0911854
,,,,,,,,,98,102.768,0.0548558
,,,,,,,,,113,137.651,0.0997803
,,,,,,,,,129,71.8668,0.0579532
,,,,,,,,,146,82.1616,0.059865
,,,,,,,,,164,131.099,0.035807
,,,,,,,,,183,102.27,0.0312488
,,,,,,,,,203,57.165,0.0887077
,,,,,,,,,128,41.4998,0.0587273
,,,,,,,,,145,30.9226,0.0412182
,,,,,,,,,163,30.6492,0.0421761
,,,,,,,,,182,58.8074,0.0286259
,,,,,,,,,202,62.1244,0.0256363
,,,,,,,,,223,70.0974,0.0547081
,,,,,,,,,162,69.7331,0.0622915
,,,,,,,,,181,55.6088,0.0645057
,,,,,,,,,201,23.9942,0.0374171
,,,,,,,,,222,46.8618,0.032468
,,,,,,,,,244,84.5531,0.0992926
,,,,,,,,,200,23.4595,0.0439835
,,,,,,,,,221,80.1575,0.0294472
,,,,,,,,,243,68.8705,0.0262931
,,,,,,,,,266,50.911,0.0577884
,,,,,,,,,242,59.4093,0.0299329
,,,,,,,,,265,45.4245,0.0266796
,,,,,,,,,289,39.4589,0.0596891
,,,,,,,,,288,29.0717,0.0205318
,,,,,,,,,313,74.0129,0.035744
,,,,,,,,,338,45.7448,0.0312008
