Q	U	V
{$V$}	{[mm$^3$]}	0.00612366
{$d_v$}	{[mm]}	0.226989
{$S_c$}	{[mm$^2$]}	0.265233
{$S_o$}	{[mm$^2$]}	0.172309
{$S_l/S_o$}	[]	0.539287
{$\Psi$}	[]	0.610282
{$\eta$}	[]	0.620488
{med($\theta_e$)}	{[$^\circ$]}	54.5754
{$\Upsilon$}	[]	19
{$\Xi$}	[]	7
