facetNormals:0,facetNormals:1,facetNormals:2,FacetCenters:0,FacetCenters:1,FacetCenters:2,FacetIds,relFacetSize,absFacetSize,cellPairingIds,interplanarAngles,angleWeights
0.0116022,-0.34672,-0.893363,4.77124,6.17083,6.61887,1,0.0476438,0.00521522,8,54.4835,0.0332371
0.785271,-0.165292,-0.522382,4.80936,6.19559,6.6267,2,0.0255202,0.00279351,13,38.708,0.0443415
0.346306,-0.738694,-0.517626,4.76512,6.16478,6.62156,3,0.0414673,0.00453912,19,53.8146,0.0226553
-0.719392,-0.510596,-0.433804,4.60064,6.18576,6.5789,4,0.0148609,0.00162672,26,64.9801,0.0726342
-0.121107,-0.935779,-0.0675935,4.67235,6.15673,6.61413,5,0.152761,0.0167216,34,110.614,0.0513417
0.870114,0.378384,0.233498,4.82312,6.22493,6.64933,6,0.0556618,0.00609289,43,144.113,0.0683825
0.520402,0.47348,0.663484,4.78766,6.24198,6.67178,7,0.121092,0.0132551,53,145.219,0.0646944
-0.417039,0.642129,0.605393,4.69165,6.24006,6.64604,8,0.10075,0.0110284,64,127.527,0.0716031
-0.464521,-0.357499,0.75977,4.69953,6.18362,6.67733,9,0.144037,0.0157666,76,161.8,0.0546077
-0.0568612,0.0541736,0.970984,4.7305,6.1859,6.66886,10,0.0639557,0.00700076,18,44.0944,0.0315956
,,,,,,,,,25,105.649,0.0187837
,,,,,,,,,33,83.9873,0.0437342
,,,,,,,,,42,57.7869,0.0349955
,,,,,,,,,52,91.0023,0.042156
,,,,,,,,,63,143.352,0.0407248
,,,,,,,,,75,139.874,0.0433583
,,,,,,,,,88,126.959,0.0364827
,,,,,,,,,32,68.2094,0.0218804
,,,,,,,,,41,41.5245,0.0652282
,,,,,,,,,51,96.0222,0.0475273
,,,,,,,,,62,123.299,0.0617788
,,,,,,,,,74,171.254,0.0587528
,,,,,,,,,87,108.231,0.0643955
,,,,,,,,,101,126.686,0.0503129
,,,,,,,,,50,50.2833,0.0270868
,,,,,,,,,61,163.378,0.0234587
,,,,,,,,,73,161.96,0.026473
,,,,,,,,,86,107.621,0.0259013
,,,,,,,,,100,78.5592,0.0269421
,,,,,,,,,115,115.215,0.0241178
,,,,,,,,,72,120.939,0.0815933
,,,,,,,,,85,127.03,0.135096
,,,,,,,,,99,129.819,0.12142
,,,,,,,,,114,68.0422,0.148271
,,,,,,,,,130,96.8204,0.0901632
,,,,,,,,,98,33.62,0.0762666
,,,,,,,,,113,88.7108,0.0717073
,,,,,,,,,129,112.714,0.0802945
,,,,,,,,,146,78.01,0.0595212
,,,,,,,,,128,58.8221,0.109989
,,,,,,,,,145,84.2428,0.131572
,,,,,,,,,163,47.1825,0.0837031
,,,,,,,,,162,63.0763,0.118566
,,,,,,,,,181,47.1777,0.0782432
,,,,,,,,,200,37.1824,0.0885798
