Q	U	V
{$V$}	{[mm$^3$]}	0.00371077
{$d_v$}	{[mm]}	0.192083
{$S_c$}	{[mm$^2$]}	0.217565
{$S_o$}	{[mm$^2$]}	0.124805
{$S_l/S_o$}	[]	0.743239
{$\Psi$}	[]	0.532768
{$\eta$}	[]	0.598070
{med($\theta_e$)}	{[$^\circ$]}	98.5962
{$\Upsilon$}	[]	12
{$\Xi$}	[]	9
