facetNormals:0,facetNormals:1,facetNormals:2,FacetCenters:0,FacetCenters:1,FacetCenters:2,FacetIds,relFacetSize,absFacetSize,cellPairingIds,interplanarAngles,angleWeights
0.312304,0.277952,-0.870945,7.24351,6.93288,5.12352,1,0.084929,0.0128988,8,59.8101,0.0648523
-0.646214,0.209385,-0.715039,7.11771,6.97885,5.10925,2,0.0524527,0.00796636,13,76.0486,0.11016
-0.529186,-0.522173,-0.614321,7.15223,6.85777,5.13514,3,0.156717,0.0238017,19,30.5085,0.0810846
0.736819,0.250557,-0.588013,7.26023,6.92201,5.12882,4,0.0775732,0.0117816,26,77.6892,0.0447688
-0.755721,0.532366,-0.333512,7.09719,7.01033,5.16728,5,0.0303957,0.0046164,34,77.7643,0.0619396
0.741579,-0.537125,-0.122685,7.1748,6.93983,5.14904,6,0.0487449,0.00740323,43,103.716,0.0371936
-0.968632,0.174588,-0.0326029,7.07748,6.9876,5.18886,7,0.0238106,0.00361628,53,54.9638,0.0589334
0.667551,0.684244,-0.15942,7.17678,7.00628,5.1323,8,0.0451221,0.00685301,64,66.1017,0.0606831
0.0481906,0.94624,-0.109329,7.1828,7.00367,5.1817,9,0.0472064,0.00716956,76,121.838,0.0860098
-0.839618,-0.472105,0.115981,7.09789,6.87821,5.22208,10,0.0871185,0.0132313,89,72.8517,0.0230397
1.00568,-0.0237067,0.0239513,7.0853,7.01011,5.10979,11,0.0133276,0.00202416,103,102.604,0.0351946
-0.601009,0.728613,0.253745,7.11409,6.98962,5.23211,12,0.0221964,0.00337112,118,107.628,0.0122394
0.797747,-0.189009,0.559082,7.07269,7.03222,5.08636,13,0.00659491,0.00100161,134,109.092,0.0211932
0.576604,0.397872,0.69067,7.1435,7.01528,5.19156,14,0.0121072,0.0018388,151,118.925,0.0567975
-0.134539,0.649133,0.661283,7.11946,6.98937,5.2278,15,0.0426653,0.00647988,169,158.527,0.0097909
-0.0441749,-0.0595515,0.991792,7.27106,6.92066,5.19267,16,0.00519489,0.000788984,18,45.0579,0.0785987
,,,,,,,,,25,90.1922,0.0625864
,,,,,,,,,33,30.1271,0.038488
,,,,,,,,,42,123.58,0.0505309
,,,,,,,,,52,45.0806,0.0327531
,,,,,,,,,63,100.496,0.0485121
,,,,,,,,,75,74.8926,0.0496915
,,,,,,,,,88,67.8489,0.0654806
,,,,,,,,,102,132.618,0.0212547
,,,,,,,,,117,68.117,0.0311929
,,,,,,,,,133,167.33,0.0117167
,,,,,,,,,150,143.82,0.0196734
,,,,,,,,,168,105.705,0.0470555
,,,,,,,,,187,134.958,0.00945351
,,,,,,,,,32,99.7631,0.103778
,,,,,,,,,41,69.8287,0.0509161
,,,,,,,,,51,92.3539,0.0743608
,,,,,,,,,62,62.3018,0.0413402
,,,,,,,,,74,130.954,0.0700698
,,,,,,,,,87,119.464,0.0725571
,,,,,,,,,101,48.5338,0.111985
,,,,,,,,,116,123.423,0.0245661
,,,,,,,,,132,103.382,0.0388853
,,,,,,,,,149,134.177,0.0126572
,,,,,,,,,167,171.04,0.0224778
,,,,,,,,,186,138.277,0.067071
,,,,,,,,,206,125.34,0.0100564
,,,,,,,,,50,103.719,0.0436772
,,,,,,,,,61,57.5159,0.0598695
,,,,,,,,,73,132.649,0.0364371
,,,,,,,,,86,36.7895,0.0570563
,,,,,,,,,100,68.7697,0.0586947
,,,,,,,,,115,148.296,0.0820692
,,,,,,,,,131,42.7296,0.0227472
,,,,,,,,,148,115.42,0.0345164
,,,,,,,,,166,77.367,0.0121563
,,,,,,,,,185,82.9112,0.0209453
,,,,,,,,,205,110.867,0.055052
,,,,,,,,,226,130.548,0.00973768
,,,,,,,,,72,152.52,0.0374431
,,,,,,,,,85,30.2691,0.0267031
,,,,,,,,,99,95.2439,0.036323
,,,,,,,,,114,57.4863,0.0369802
,,,,,,,,,130,68.8185,0.0450673
,,,,,,,,,147,142.131,0.0185303
,,,,,,,,,165,37.9908,0.0256569
,,,,,,,,,184,155.868,0.0108383
,,,,,,,,,204,118.028,0.0173168
,,,,,,,,,225,75.7373,0.0355002
,,,,,,,,,247,109.676,0.00887326
,,,,,,,,,98,152.651,0.0319933
,,,,,,,,,113,80.5453,0.0468636
,,,,,,,,,129,121.402,0.0479633
,,,,,,,,,146,115.317,0.0625125
,,,,,,,,,164,35.6302,0.0209321
,,,,,,,,,183,163.923,0.030503
,,,,,,,,,203,47.0598,0.011618
,,,,,,,,,224,81.8301,0.0193967
,,,,,,,,,246,127.747,0.0455029
,,,,,,,,,269,97.6586,0.00938915
,,,,,,,,,128,123.154,0.031172
,,,,,,,,,145,82.5312,0.0316547
,,,,,,,,,163,40.4486,0.0373994
,,,,,,,,,182,171.121,0.0170896
,,,,,,,,,202,43.2857,0.0229752
,,,,,,,,,223,147.475,0.010329
,,,,,,,,,245,121.874,0.0160522
,,,,,,,,,268,76.0633,0.030564
,,,,,,,,,292,89.9967,0.00852897
,,,,,,,,,162,41.0504,0.0461407
,,,,,,,,,181,163.602,0.0594518
,,,,,,,,,201,48.0969,0.0205774
,,,,,,,,,222,86.5587,0.0297555
,,,,,,,,,244,70.9381,0.0115079
,,,,,,,,,267,54.9856,0.0190917
,,,,,,,,,291,74.0787,0.0438593
,,,,,,,,,316,103.704,0.00931711
,,,,,,,,,200,122.697,0.0612329
,,,,,,,,,221,88.602,0.0207866
,,,,,,,,,243,47.2855,0.0301951
,,,,,,,,,266,102.294,0.011573
,,,,,,,,,290,69.489,0.0192717
,,,,,,,,,315,53.1605,0.0448211
,,,,,,,,,341,100.135,0.00935978
,,,,,,,,,242,148.278,0.0231185
,,,,,,,,,265,78.4449,0.0353788
,,,,,,,,,289,122.39,0.0122616
,,,,,,,,,314,128.324,0.0212598
,,,,,,,,,340,97.387,0.0572789
,,,,,,,,,367,79.2347,0.0098051
,,,,,,,,,288,128.724,0.0166549
,,,,,,,,,313,34.7779,0.00882362
,,,,,,,,,339,53.6318,0.0126881
,,,,,,,,,366,98.2287,0.0203107
,,,,,,,,,394,91.1027,0.00747583
,,,,,,,,,338,119.325,0.0101686
,,,,,,,,,365,82.9189,0.0156681
,,,,,,,,,393,38.0002,0.0292011
,,,,,,,,,422,76.0297,0.00841931
,,,,,,,,,392,37.8416,0.0085387
,,,,,,,,,421,81.3533,0.011424
,,,,,,,,,451,57.4837,0.00581177
,,,,,,,,,450,46.213,0.0188619
,,,,,,,,,481,49.4688,0.00727029
,,,,,,,,,512,47.9997,0.00926205
