"cellPairingIds","interplanarAngles","angleWeights"
8,51.7282,0.0125268
13,51.1883,0.0429817
19,40.9716,0.0290159
43,60.9831,0.0270077
89,108.299,0.0467183
118,112.62,0.0627814
18,72.5937,0.0121701
25,76.0197,0.0107104
33,37.049,0.00548916
52,94.6577,0.0104243
88,121.885,0.0138345
150,104.158,0.012776
41,75.7668,0.00796089
51,28.2384,0.0330199
116,80.8574,0.0421146
73,20.8646,0.0197768
72,87.5114,0.00767499
99,75.6606,0.00723446
114,106.426,0.00786011
204,102.951,0.00821578
225,128.395,0.00862551
113,33.1601,0.0233111
129,46.2912,0.0313526
164,57.6911,0.0351816
183,59.9213,0.0146611
163,37.6105,0.0339207
223,60.6992,0.0312219
162,32.7649,0.0251071
243,19.169,0.0153518
315,51.1945,0.0570214
289,34.4146,0.119298
314,48.3591,0.0845828
340,59.6241,0.165536
288,19.0256,0.0162159
313,40.8063,0.0609485
338,48.4494,0.0177964
393,36.4935,0.0185702
421,36.0349,0.116424
450,59.9879,0.0831282
