Q	U	V
{$V$}	{[mm$^3$]}	0.00302443
{$d_v$}	{[mm]}	0.179424
{$S_c$}	{[mm$^2$]}	0.191502
{$S_o$}	{[mm$^2$]}	0.1081
{$S_l/S_o$}	[]	0.771526
{$\Psi$}	[]	0.528129
{$\eta$}	[]	0.590918
{med($\theta_e$)}	{[$^\circ$]}	64.6744
{$\Upsilon$}	[]	12
{$\Xi$}	[]	8
