facetNormals:0,facetNormals:1,facetNormals:2,FacetCenters:0,FacetCenters:1,FacetCenters:2,FacetIds,relFacetSize,absFacetSize,cellPairingIds,interplanarAngles,angleWeights
0.141383,-0.496481,-0.834542,5.96307,5.51714,5.69094,1,0.0168657,0.00100136,8,32.5629,0.0210374
0.630464,-0.36946,-0.628704,6.00544,5.5335,5.70057,2,0.0279511,0.00165952,13,61.1826,0.0224137
0.263733,0.491779,-0.801357,5.9683,5.56892,5.70212,3,0.0334012,0.00198311,19,98.0092,0.0130781
-0.48007,0.750924,-0.369967,5.87072,5.57268,5.74194,4,0.0106797,0.000634078,26,95.6541,0.0217917
0.301047,0.867511,-0.351199,5.98564,5.5976,5.72335,5,0.0307824,0.00182763,34,82.0048,0.00820124
0.965306,-0.151423,0.0930902,6.02823,5.54645,5.73518,6,0.00541789,0.000321674,43,108.097,0.0222822
0.579797,0.794152,-0.0150497,5.97172,5.6104,5.74098,7,0.0328236,0.00194882,53,56.8128,0.0260377
0.502797,-0.818998,-0.0468653,5.96732,5.50668,5.71754,8,0.0570784,0.00338888,64,75.5813,0.0198888
-0.730045,-0.655134,-0.0211987,5.95495,5.5714,5.75644,9,0.0242324,0.00143874,76,112.834,0.020976
0.813691,0.427354,0.329068,6.00908,5.58002,5.74869,10,0.0277352,0.00164671,89,76.57,0.0303265
-0.0527035,-0.917864,0.275045,5.92831,5.50777,5.73591,11,0.150219,0.00891885,103,95.7979,0.0184906
-0.631252,-0.643178,0.392452,5.88091,5.53568,5.75892,12,0.0204621,0.00121488,118,138.041,0.00467209
-0.690788,0.563325,0.403307,5.85891,5.59843,5.76714,13,0.00271163,0.000160996,134,137.26,0.024216
0.431789,0.73459,0.481237,5.96197,5.60743,5.76673,14,0.0429222,0.0025484,151,100.499,0.0281652
0.550641,-0.523347,0.61391,5.94186,5.52683,5.76532,15,0.0853424,0.00506699,169,163.594,0.0188878
-0.224789,0.700638,0.660152,5.89771,5.60061,5.76084,16,0.021461,0.00127419,188,132.45,0.023737
0.552975,0.125811,0.791753,5.95372,5.5816,5.78688,17,0.0400566,0.00237826,208,129.261,0.0298817
-0.227488,-0.334118,0.88266,5.88288,5.54143,5.78309,18,0.130916,0.00777278,229,161.299,0.027886
-0.149022,0.198854,0.948244,5.89009,5.56783,5.77451,19,0.0804592,0.00477706,18,58.7459,0.030434
,,,,,,,,,25,111.936,0.0154544
,,,,,,,,,33,84.5453,0.0292985
,,,,,,,,,42,50.1723,0.00907645
,,,,,,,,,52,85.0622,0.030192
,,,,,,,,,63,45.5909,0.0375259
,,,,,,,,,75,102.512,0.0259592
,,,,,,,,,88,80.9376,0.0278427
,,,,,,,,,102,81.736,0.0471322
,,,,,,,,,117,115.444,0.0236273
,,,,,,,,,133,162.049,0.00494365
,,,,,,,,,150,108.654,0.0338554
,,,,,,,,,168,80.5525,0.0421103
,,,,,,,,,187,148.859,0.0242798
,,,,,,,,,207,102.027,0.0329264
,,,,,,,,,228,127.903,0.0460667
,,,,,,,,,250,143.908,0.041489
,,,,,,,,,32,55.1,0.0161845
,,,,,,,,,41,34.8918,0.0320384
,,,,,,,,,51,83.6795,0.00932346
,,,,,,,,,62,54.6559,0.0331099
,,,,,,,,,74,104.334,0.0421418
,,,,,,,,,87,121.299,0.0280875
,,,,,,,,,101,80.2731,0.0303056
,,,,,,,,,116,137.031,0.0546507
,,,,,,,,,132,146.163,0.0253775
,,,,,,,,,149,103.828,0.00501604
,,,,,,,,,167,84.6265,0.0375678
,,,,,,,,,186,129.3,0.0480116
,,,,,,,,,206,104.625,0.0261317
,,,,,,,,,227,116.663,0.0364274
,,,,,,,,,249,169.336,0.0532232
,,,,,,,,,272,137.115,0.0472057
,,,,,,,,,50,47.8353,0.0158577
,,,,,,,,,61,130.215,0.00718883
,,,,,,,,,73,70.0641,0.0161158
,,,,,,,,,86,154.644,0.0179928
,,,,,,,,,100,98.1145,0.0148255
,,,,,,,,,115,101.726,0.0154213
,,,,,,,,,131,145.776,0.0199416
,,,,,,,,,148,110.045,0.0140344
,,,,,,,,,166,50.1136,0.00432509
,,,,,,,,,185,79.8579,0.0171037
,,,,,,,,,205,159.783,0.0189837
,,,,,,,,,226,65.8816,0.0142621
,,,,,,,,,248,119.579,0.0168633
,,,,,,,,,271,119.988,0.0197483
,,,,,,,,,295,97.8961,0.0188565
,,,,,,,,,72,82.4644,0.00921406
,,,,,,,,,85,26.0261,0.0317703
,,,,,,,,,99,125.007,0.0399953
,,,,,,,,,114,144.031,0.0271175
,,,,,,,,,130,58.5941,0.0291795
,,,,,,,,,147,164.406,0.0510946
,,,,,,,,,165,156.443,0.024583
,,,,,,,,,184,81.6855,0.0049842
,,,,,,,,,204,51.551,0.0358525
,,,,,,,,,225,121.648,0.0452452
,,,,,,,,,247,71.5053,0.0252901
,,,,,,,,,270,90.1466,0.0348124
,,,,,,,,,294,134.446,0.0498447
,,,,,,,,,319,102.304,0.0445288
,,,,,,,,,98,63.012,0.00930062
,,,,,,,,,113,50.1615,0.00989642
,,,,,,,,,129,129.111,0.0088558
,,,,,,,,,146,38.3566,0.009065
,,,,,,,,,164,83.0659,0.0104586
,,,,,,,,,183,119.523,0.00856735
,,,,,,,,,203,138.084,0.00361431
,,,,,,,,,224,68.6064,0.00962133
,,,,,,,,,246,45.8358,0.0101889
,,,,,,,,,269,105.643,0.00865165
,,,,,,,,,293,52.0059,0.0095448
,,,,,,,,,318,95.2285,0.0104052
,,,,,,,,,344,95.1096,0.0101522
,,,,,,,,,128,112.244,0.0416791
,,,,,,,,,145,167.852,0.0278812
,,,,,,,,,163,32.8823,0.0300656
,,,,,,,,,182,144.015,0.0538752
,,,,,,,,,202,155.946,0.025209
,,,,,,,,,223,87.5708,0.00500942
,,,,,,,,,245,30.8158,0.0371997
,,,,,,,,,268,96.3117,0.047412
,,,,,,,,,292,64.6545,0.0259531
,,,,,,,,,317,64.7452,0.0360812
,,,,,,,,,343,115.468,0.0524874
,,,,,,,,,370,86.5954,0.046626
,,,,,,,,,162,79.5956,0.0340212
,,,,,,,,,181,87.3335,0.0373308
,,,,,,,,,201,39.5119,0.0827242
,,,,,,,,,222,78.35,0.0301247
,,,,,,,,,244,151.542,0.0051773
,,,,,,,,,267,115.616,0.0489983
,,,,,,,,,291,43.9386,0.0684058
,,,,,,,,,316,138.995,0.0311935
,,,,,,,,,342,81.538,0.047076
,,,,,,,,,369,82.749,0.0794967
,,,,,,,,,397,107.412,0.0667815
,,,,,,,,,200,156.896,0.0258658
,,,,,,,,,221,47.6745,0.0417327
,,,,,,,,,243,25.0207,0.0221882
,,,,,,,,,266,82.415,0.00487746
,,,,,,,,,290,147.159,0.0309765
,,,,,,,,,315,94.3176,0.0377469
,,,,,,,,,341,108.572,0.0227626
,,,,,,,,,368,121.757,0.030197
,,,,,,,,,396,67.3857,0.0408952
,,,,,,,,,425,92.4781,0.0372469
,,,,,,,,,242,111.584,0.046825
,,,,,,,,,265,133.405,0.0235499
,,,,,,,,,289,101.391,0.00494025
,,,,,,,,,314,30.4416,0.0336966
,,,,,,,,,340,63.4351,0.0418649
,,,,,,,,,367,69.7671,0.024198
,,,,,,,,,395,36.5005,0.0327762
,,,,,,,,,424,92.2638,0.0457731
,,,,,,,,,454,73.2519,0.0412508
,,,,,,,,,288,39.1441,0.036018
,,,,,,,,,313,113.191,0.0053271
,,,,,,,,,339,126.961,0.066767
,,,,,,,,,366,48.5716,0.108847
,,,,,,,,,394,118.295,0.0375564
,,,,,,,,,423,85.5111,0.0632478
,,,,,,,,,453,52.9407,0.139904
,,,,,,,,,484,84.7459,0.104791
,,,,,,,,,338,76.0385,0.00478866
,,,,,,,,,365,125.324,0.0277128
,,,,,,,,,393,76.1425,0.0330096
,,,,,,,,,422,92.9294,0.0209496
,,,,,,,,,452,97.1566,0.0270872
,,,,,,,,,483,42.3796,0.0353923
,,,,,,,,,515,69.4446,0.0326267
,,,,,,,,,392,71.1316,0.005101
,,,,,,,,,421,116.582,0.00525625
,,,,,,,,,451,32.442,0.00481489
,,,,,,,,,482,89.5067,0.00507941
,,,,,,,,,514,69.9961,0.0053132
,,,,,,,,,547,51.4714,0.00524644
,,,,,,,,,450,81.0468,0.0571176
,,,,,,,,,481,40.5272,0.0286147
,,,,,,,,,513,41.6439,0.0414399
,,,,,,,,,546,85.1028,0.0646486
,,,,,,,,,580,55.8821,0.0559806
,,,,,,,,,512,95.0613,0.0342973
,,,,,,,,,545,40.3706,0.0545224
,,,,,,,,,579,51.4077,0.103327
,,,,,,,,,614,65.5682,0.0828289
,,,,,,,,,578,59.6455,0.0279482
,,,,,,,,,613,65.385,0.0368767
,,,,,,,,,649,34.4791,0.033884
,,,,,,,,,648,55.8305,0.0613437
,,,,,,,,,685,43.4226,0.0534854
,,,,,,,,,722,32.2952,0.0996652
