facetNormals:0,facetNormals:1,facetNormals:2,FacetCenters:0,FacetCenters:1,FacetCenters:2,FacetIds,relFacetSize,absFacetSize,cellPairingIds,interplanarAngles,angleWeights
-0.461208,-0.0234278,-0.869931,3.38987,6.3442,5.56259,1,0.0299307,0.00192213,8,32.5397,0.0216313
-0.285225,0.491857,-0.794518,3.38543,6.34814,5.58176,2,0.0169354,0.00108758,13,32.1156,0.0453796
-0.541867,-0.488976,-0.614414,3.3657,6.29758,5.57582,3,0.0937899,0.00602314,19,74.9298,0.01734
0.68035,0.168764,-0.645808,3.4175,6.33947,5.65587,4,0.0122056,0.000783837,26,64.3223,0.0398051
0.0651606,-0.847092,-0.493815,3.39346,6.26634,5.59109,5,0.0594025,0.0038148,34,100.984,0.0296326
0.653884,0.638547,-0.163573,3.41876,6.31007,5.68544,6,0.0293404,0.00188423,43,93.2106,0.0169268
0.702816,-0.612379,-0.294137,3.41355,6.28742,5.6373,7,0.0118001,0.000757797,53,52.1361,0.0208191
-0.967914,-0.0675852,-0.169484,3.34917,6.29598,5.63747,8,0.0159604,0.00102497,64,59.1658,0.0231369
-0.696347,-0.67539,-0.185798,3.37749,6.27151,5.66138,9,0.0188567,0.00121097,76,83.4421,0.0247153
-0.149306,-0.969455,-0.0215953,3.39783,6.27421,5.6585,10,0.0210477,0.00135167,89,76.9516,0.0534166
-0.747386,0.590063,0.134526,3.37174,6.35388,5.65373,11,0.248079,0.0159315,103,112.263,0.0195095
0.161669,0.905804,0.305794,3.42708,6.29193,5.69651,12,0.0144711,0.000929324,118,69.2264,0.0217085
-0.909114,-0.387546,0.0937921,3.37802,6.3132,5.69392,13,0.0170302,0.00109367,134,127.278,0.0155936
0.803237,-0.486943,0.254628,3.41259,6.29681,5.68401,14,0.0105433,0.000677084,151,97.1648,0.0329249
-0.541343,-0.694252,0.444992,3.39292,6.2701,5.70385,15,0.0365847,0.00234945,169,94.2233,0.0402618
-0.798564,-0.239752,0.51138,3.36023,6.30022,5.68627,16,0.0614842,0.00394849,188,139.018,0.0122781
0.132958,0.61997,0.756383,3.43985,6.27003,5.73197,17,0.00772311,0.000495975,208,125.595,0.0319498
-0.271585,-0.482285,0.795728,3.38779,6.2918,5.7103,18,0.0342612,0.00220023,229,119.437,0.0226519
-0.53217,0.052786,0.830192,3.37999,6.32788,5.71335,19,0.0182209,0.00117013,18,64.437,0.0286902
,,,,,,,,,25,64.4201,0.0141866
,,,,,,,,,33,92.5603,0.0263566
,,,,,,,,,42,73.5069,0.0214752
,,,,,,,,,52,106.295,0.0139089
,,,,,,,,,63,66.9039,0.0164334
,,,,,,,,,75,89.1664,0.0178445
,,,,,,,,,88,115.793,0.0187689
,,,,,,,,,102,65.0381,0.0317063
,,,,,,,,,117,80.4936,0.0156065
,,,,,,,,,133,90.3447,0.0169827
,,,,,,,,,150,134.879,0.0129959
,,,,,,,,,168,124.122,0.023153
,,,,,,,,,187,108.073,0.0265561
,,,,,,,,,207,110.262,0.0106084
,,,,,,,,,228,146.75,0.0226666
,,,,,,,,,250,119.962,0.0175546
,,,,,,,,,32,93.429,0.0216002
,,,,,,,,,41,43.3005,0.0727367
,,,,,,,,,51,129.719,0.0446979
,,,,,,,,,62,83.8859,0.0209628
,,,,,,,,,74,45.242,0.0272787
,,,,,,,,,87,29.3054,0.0314003
,,,,,,,,,101,52.6246,0.0343801
,,,,,,,,,116,87.8886,0.136118
,,,,,,,,,132,140.951,0.0250735
,,,,,,,,,149,48.748,0.0288262
,,,,,,,,,167,112.385,0.0189557
,,,,,,,,,186,67.5494,0.0526372
,,,,,,,,,206,75.3666,0.0742763
,,,,,,,,,227,153.123,0.0142711
,,,,,,,,,249,96.5768,0.0501886
,,,,,,,,,272,105.232,0.0305137
,,,,,,,,,50,76.397,0.0202503
,,,,,,,,,61,41.9388,0.0172395
,,,,,,,,,73,52.6846,0.0119994
,,,,,,,,,86,126.657,0.0138327
,,,,,,,,,100,119.793,0.0148191
,,,,,,,,,115,105.585,0.0154511
,,,,,,,,,131,122.744,0.0232665
,,,,,,,,,148,85.9434,0.0132421
,,,,,,,,,166,141.892,0.0142198
,,,,,,,,,185,71.139,0.0113137
,,,,,,,,,205,145.287,0.0183044
,,,,,,,,,226,168.651,0.0203678
,,,,,,,,,248,108.173,0.00946024
,,,,,,,,,271,147.602,0.017999
,,,,,,,,,295,160.879,0.0146186
,,,,,,,,,72,117.233,0.0392796
,,,,,,,,,85,42.3594,0.019689
,,,,,,,,,99,85.3851,0.0251606
,,,,,,,,,114,50.4149,0.0286263
,,,,,,,,,130,31.4892,0.0310823
,,,,,,,,,147,130.597,0.095853
,,,,,,,,,165,162.313,0.0232727
,,,,,,,,,184,76.8017,0.0264714
,,,,,,,,,204,69.2335,0.0179081
,,,,,,,,,225,69.9032,0.0452815
,,,,,,,,,247,96.06,0.0604254
,,,,,,,,,270,156.584,0.0136691
,,,,,,,,,294,90.1263,0.0434576
,,,,,,,,,319,120.283,0.0278876
,,,,,,,,,98,82.6159,0.0168311
,,,,,,,,,113,135.149,0.0206745
,,,,,,,,,129,159.01,0.0229584
,,,,,,,,,146,141.523,0.0245117
,,,,,,,,,164,98.6262,0.0524746
,,,,,,,,,183,45.2229,0.0193824
,,,,,,,,,203,158.448,0.0215513
,,,,,,,,,224,78.9856,0.0155123
,,,,,,,,,246,161.803,0.0325645
,,,,,,,,,269,146.685,0.0397243
,,,,,,,,,293,66.93,0.0122276
,,,,,,,,,318,133.168,0.0316104
,,,,,,,,,344,119.397,0.0224808
,,,,,,,,,128,127.719,0.0135685
,,,,,,,,,145,91.2558,0.0145163
,,,,,,,,,163,58.9196,0.0151222
,,,,,,,,,182,170.151,0.0225286
,,,,,,,,,202,124.075,0.0129998
,,,,,,,,,223,116.252,0.0139408
,,,,,,,,,245,34.0899,0.0111363
,,,,,,,,,268,95.1295,0.0178446
,,,,,,,,,292,126.213,0.0198001
,,,,,,,,,317,121.821,0.00933592
,,,,,,,,,343,97.8611,0.0175542
,,,,,,,,,370,132.371,0.0143239
,,,,,,,,,162,39.4574,0.0172881
,,,,,,,,,181,77.2244,0.0181544
,,,,,,,,,201,45.7706,0.0299913
,,,,,,,,,222,106.393,0.0151793
,,,,,,,,,244,24.43,0.016478
,,,,,,,,,267,145.26,0.0126982
,,,,,,,,,291,59.339,0.022225
,,,,,,,,,316,43.1838,0.0253423
,,,,,,,,,342,107.899,0.0104093
,,,,,,,,,369,80.3157,0.0217764
,,,,,,,,,397,67.5895,0.0170159
,,,,,,,,,200,38.0856,0.0198921
,,,,,,,,,221,84.1435,0.0350493
,,,,,,,,,243,144.655,0.0163753
,,,,,,,,,266,26.5153,0.017897
,,,,,,,,,290,106.796,0.0135246
,,,,,,,,,315,38.4367,0.0248864
,,,,,,,,,341,49.8449,0.0288618
,,,,,,,,,368,131.963,0.0109581
,,,,,,,,,396,67.4594,0.0243253
,,,,,,,,,425,79.3252,0.0185333
,,,,,,,,,242,119.412,0.0388033
,,,,,,,,,265,162.825,0.0171505
,,,,,,,,,289,58.4641,0.018827
,,,,,,,,,314,68.7131,0.0140491
,,,,,,,,,340,39.7346,0.0267219
,,,,,,,,,367,69.2102,0.03136
,,,,,,,,,395,131.15,0.0112999
,,,,,,,,,424,58.9215,0.0260761
,,,,,,,,,454,89.3877,0.0195325
,,,,,,,,,288,60.8085,0.0273469
,,,,,,,,,313,60.9617,0.0318725
,,,,,,,,,339,155.758,0.0202269
,,,,,,,,,366,86.6883,0.0637657
,,,,,,,,,394,56.1351,0.0985449
,,,,,,,,,423,67.1752,0.0149799
,,,,,,,,,453,88.4357,0.0602073
,,,,,,,,,484,55.3058,0.0339483
,,,,,,,,,338,119.183,0.0156467
,,,,,,,,,365,104.317,0.0121988
,,,,,,,,,393,127.353,0.0207389
,,,,,,,,,422,101.55,0.023428
,,,,,,,,,452,31.6834,0.0100713
,,,,,,,,,483,104.633,0.0203477
,,,,,,,,,515,76.9844,0.0161309
,,,,,,,,,392,122.398,0.0130237
,,,,,,,,,421,34.9202,0.0232415
,,,,,,,,,451,26.7762,0.0266726
,,,,,,,,,482,107.228,0.010627
,,,,,,,,,514,58.1027,0.0227514
,,,,,,,,,547,56.4908,0.0176054
,,,,,,,,,450,89.0126,0.0163692
,,,,,,,,,481,114.482,0.0179999
,,,,,,,,,513,90.1489,0.00891549
,,,,,,,,,546,76.5564,0.0161245
,,,,,,,,,580,104.57,0.0133574
,,,,,,,,,512,31.0835,0.0458735
,,,,,,,,,545,99.8054,0.0127539
,,,,,,,,,579,29.0405,0.0353848
,,,,,,,,,614,50.4051,0.0243262
,,,,,,,,,578,82.1421,0.0137225
,,,,,,,,,613,38.7467,0.0440025
,,,,,,,,,649,29.9574,0.028111
,,,,,,,,,648,73.809,0.0126049
,,,,,,,,,685,52.7542,0.0108481
,,,,,,,,,722,35.4587,0.0237898
