facetNormals:0,facetNormals:1,facetNormals:2,FacetCenters:0,FacetCenters:1,FacetCenters:2,FacetIds,relFacetSize,absFacetSize,cellPairingIds,interplanarAngles,angleWeights
-0.284686,0.221327,-0.917172,6.73595,5.85952,8.33816,1,0.0134136,0.00101877,8,25.2271,0.0226812
-0.558933,-0.0164107,-0.705574,6.70836,5.83899,8.34426,2,0.0733824,0.00557345,13,66.1274,0.0107641
0.0679418,-0.760791,-0.637252,6.76964,5.76965,8.23951,3,0.00898865,0.000682694,19,53.8587,0.0228613
0.494132,0.553647,-0.641344,6.79156,5.8718,8.20829,4,0.0773243,0.00587284,26,50.6636,0.0184718
-0.123454,0.871572,-0.413878,6.71399,5.9016,8.29902,5,0.0296546,0.00225229,34,68.3638,0.0119496
-0.560899,-0.690008,-0.374706,6.72917,5.79007,8.28653,6,0.0107737,0.000818274,43,92.3356,0.0234856
0.579495,-0.719312,-0.310776,6.78863,5.7974,8.24022,7,0.0942772,0.00716042,53,60.8635,0.00646467
-0.745581,0.649439,-0.133871,6.69,5.89349,8.3197,8,0.00425854,0.000323439,64,109.003,0.02225
0.957846,0.00465894,0.0392308,6.7742,5.8565,8.25047,9,0.065205,0.00495237,76,126.587,0.00807227
0.57796,-0.760843,0.273523,6.69522,5.88509,8.3418,10,0.00577332,0.000438488,89,137.454,0.0182435
0.190563,-0.794278,0.512573,6.74049,5.76266,8.31772,11,0.0285087,0.00216526,103,104.843,0.0243991
0.2347,0.845478,0.396182,6.76185,5.87235,8.28187,12,0.134792,0.0102376,118,159.808,0.0249441
0.575227,-0.0943382,0.783598,6.75848,5.81904,8.32848,13,0.177682,0.0134951,134,162.725,0.0226205
0.281293,0.0734604,0.938424,6.71809,5.83869,8.34908,14,0.07213,0.00547832,18,61.7313,0.0160156
,,,,,,,,,25,79.0822,0.0753018
,,,,,,,,,33,66.6762,0.0422397
,,,,,,,,,42,47.2931,0.018789
,,,,,,,,,52,96.0726,0.0825278
,,,,,,,,,63,56.1377,0.00804992
,,,,,,,,,75,130.728,0.0690525
,,,,,,,,,88,124.248,0.0107045
,,,,,,,,,102,121.618,0.0410642
,,,,,,,,,117,119.332,0.0950296
,,,,,,,,,133,173.086,0.103868
,,,,,,,,,150,158.086,0.0727508
,,,,,,,,,32,88.7631,0.0161051
,,,,,,,,,41,114.922,0.0137957
,,,,,,,,,51,40.8906,0.00980058
,,,,,,,,,62,35.9642,0.0164125
,,,,,,,,,74,117.573,0.00577911
,,,,,,,,,87,87.8044,0.0157993
,,,,,,,,,101,63.3259,0.00703082
,,,,,,,,,116,72.3662,0.0136679
,,,,,,,,,132,156.726,0.0168534
,,,,,,,,,149,113.572,0.0171117
,,,,,,,,,167,130.508,0.0159853
,,,,,,,,,50,43.9408,0.0428687
,,,,,,,,,61,116.268,0.0189124
,,,,,,,,,73,84.753,0.0849634
,,,,,,,,,86,85.4872,0.00807249
,,,,,,,,,100,61.357,0.0707494
,,,,,,,,,115,108.61,0.0107444
,,,,,,,,,131,135.475,0.0416584
,,,,,,,,,148,69.5463,0.0982735
,,,,,,,,,166,106.406,0.107755
,,,,,,,,,185,115.985,0.0746369
,,,,,,,,,72,113.686,0.0158053
,,,,,,,,,85,126.95,0.0451176
,,,,,,,,,99,42.6824,0.00744757
,,,,,,,,,114,98.0401,0.0407682
,,,,,,,,,130,151.266,0.00966501
,,,,,,,,,147,171.595,0.0290704
,,,,,,,,,165,54.4899,0.048614
,,,,,,,,,184,120.178,0.0508265
,,,,,,,,,204,112.072,0.0420297
,,,,,,,,,98,72.1833,0.0193376
,,,,,,,,,113,88.7954,0.00610425
,,,,,,,,,129,126.88,0.0184921
,,,,,,,,,146,84.1156,0.00751799
,,,,,,,,,164,74.4721,0.0156378
,,,,,,,,,183,158.353,0.0199527
,,,,,,,,,203,125.793,0.0203157
,,,,,,,,,224,126.216,0.0187473
,,,,,,,,,128,151.875,0.00814898
,,,,,,,,,145,54.7273,0.0770913
,,,,,,,,,163,34.6076,0.0108804
,,,,,,,,,182,56.2252,0.043779
,,,,,,,,,202,129.379,0.110952
,,,,,,,,,223,80.4644,0.12319
,,,,,,,,,245,100.926,0.0817298
,,,,,,,,,162,138.497,0.00799492
,,,,,,,,,181,165.871,0.00490156
,,,,,,,,,201,139.032,0.00741017
,,,,,,,,,222,70.4747,0.00825623
,,,,,,,,,244,127.635,0.00831772
,,,,,,,,,267,107.064,0.00804226
,,,,,,,,,200,53.9433,0.0106074
,,,,,,,,,221,77.5731,0.0396721
,,,,,,,,,243,74.6519,0.0878925
,,,,,,,,,266,51.6215,0.0954004
,,,,,,,,,290,71.0021,0.0684929
,,,,,,,,,242,26.9044,0.00960211
,,,,,,,,,265,114.663,0.0110724
,,,,,,,,,289,50.4102,0.0111833
,,,,,,,,,314,68.1515,0.0106909
,,,,,,,,,288,117.157,0.0470635
,,,,,,,,,313,51.5062,0.049134
,,,,,,,,,339,59.8198,0.0408657
,,,,,,,,,338,67.1119,0.153294
,,,,,,,,,365,58.0925,0.0939731
,,,,,,,,,392,21.9011,0.102607
