facetNormals:0,facetNormals:1,facetNormals:2,FacetCenters:0,FacetCenters:1,FacetCenters:2,FacetIds,relFacetSize,absFacetSize,cellPairingIds,interplanarAngles,angleWeights
-0.252174,-0.160647,-0.946383,5.04842,6.37625,7.10386,1,0.0177535,0.00114522,8,49.5766,0.0190108
-0.0619099,0.581459,-0.705141,5.02103,6.40964,7.10637,2,0.0204598,0.0013198,13,43.1638,0.0271619
0.460197,-0.111286,-0.843963,5.07094,6.38915,7.11456,3,0.057785,0.00372752,19,20.3921,0.0157758
-0.311556,-0.478015,-0.808907,5.0306,6.39083,7.11549,4,0.0141946,0.000915648,26,41.7358,0.0277043
0.0119284,-0.727026,-0.635502,5.01283,6.38394,7.14131,5,0.0630355,0.00406621,34,65.5568,0.0178854
0.472284,-0.749203,-0.424945,5.03609,6.39111,7.18543,6,0.0180193,0.00116237,43,77.0859,0.0110636
0.777743,-0.504958,-0.354174,5.08159,6.38087,7.15265,7,0.00803559,0.000518349,53,96.1178,0.0238549
0.892084,-0.406827,-0.0588673,5.10478,6.40198,7.14588,8,0.0363462,0.00234457,64,98.0351,0.0111744
0.446124,-0.881019,0.177766,5.06543,6.36141,7.17388,9,0.00815303,0.000525925,76,76.3577,0.0323254
-0.500587,-0.804725,0.0354049,4.99762,6.3777,7.16051,10,0.18038,0.0116357,89,96.9171,0.0248664
0.0963362,-0.938407,0.257113,5.03074,6.35992,7.16928,11,0.0414886,0.0026763,103,135.564,0.0317418
0.760163,-0.20254,0.551063,5.09165,6.41056,7.19062,12,0.149669,0.00965467,118,121.456,0.0199137
0.605131,-0.614539,0.484435,5.0495,6.42597,7.22249,13,0.0226723,0.00146252,134,99.7738,0.0133543
-0.87485,-0.121151,0.428439,4.94437,6.40818,7.18061,14,0.0107023,0.000690372,151,117.5,0.0131361
-0.730182,0.0701519,0.660712,4.95179,6.42877,7.23176,15,0.0104248,0.000672472,169,132.528,0.00823966
-0.517348,0.315061,0.790149,4.96342,6.43378,7.24658,16,0.00536476,0.000346063,188,120.487,0.0302645
-0.365874,-0.558979,0.711753,4.99885,6.38786,7.20627,17,0.102489,0.00661121,208,150.894,0.0223981
0.174861,-0.325795,0.901693,5.04788,6.41669,7.22471,18,0.0303339,0.00195674,229,172.023,0.025331
0.365213,0.0917391,0.908372,5.06259,6.42286,7.21491,19,0.0441934,0.00285077,18,55.5144,0.0302198
,,,,,,,,,25,69.8929,0.0167609
,,,,,,,,,33,88.4036,0.0308926
,,,,,,,,,42,100.58,0.0191622
,,,,,,,,,52,95.8082,0.0115392
,,,,,,,,,63,106.15,0.0261816
,,,,,,,,,75,136.365,0.0116598
,,,,,,,,,88,122.118,0.0367511
,,,,,,,,,102,144.913,0.027405
,,,,,,,,,117,128.974,0.0359986
,,,,,,,,,133,144.355,0.0215093
,,,,,,,,,150,110.737,0.0140534
,,,,,,,,,168,114.839,0.0138121
,,,,,,,,,187,112.02,0.00850059
,,,,,,,,,207,154.078,0.0341102
,,,,,,,,,228,159.476,0.0244371
,,,,,,,,,250,132.607,0.0279704
,,,,,,,,,32,51.7909,0.0227908
,,,,,,,,,41,48.2115,0.0602961
,,,,,,,,,51,46.0813,0.0274719
,,,,,,,,,62,42.0728,0.0141092
,,,,,,,,,74,57.8721,0.0446242
,,,,,,,,,87,80.9148,0.0142899
,,,,,,,,,101,100.719,0.0875297
,,,,,,,,,116,94.1352,0.0482992
,,,,,,,,,132,95.7246,0.0833787
,,,,,,,,,149,93.7121,0.0325668
,,,,,,,,,167,142.212,0.0180598
,,,,,,,,,186,160.663,0.0176631
,,,,,,,,,206,167.332,0.00981802
,,,,,,,,,227,138.442,0.0739024
,,,,,,,,,249,133.091,0.0397836
,,,,,,,,,272,129.774,0.0500834
,,,,,,,,,50,26.1798,0.0231714
,,,,,,,,,61,55.2162,0.0158799
,,,,,,,,,73,73.1051,0.0102619
,,,,,,,,,86,92.1128,0.020416
,,,,,,,,,100,81.9933,0.0103572
,,,,,,,,,115,56.95,0.0263182
,,,,,,,,,131,77.4338,0.0211523
,,,,,,,,,148,128.032,0.02593
,,,,,,,,,166,107.021,0.0174587
,,,,,,,,,185,90.9488,0.0122035
,,,,,,,,,205,110.391,0.0120211
,,,,,,,,,226,129.627,0.00778662
,,,,,,,,,248,101.615,0.0249357
,,,,,,,,,271,130.625,0.0193394
,,,,,,,,,295,156.465,0.0214876
,,,,,,,,,72,30.1384,0.0280269
,,,,,,,,,85,51.1367,0.0142541
,,,,,,,,,99,68.7476,0.0461071
,,,,,,,,,114,56.6378,0.0144386
,,,,,,,,,130,52.5747,0.0934234
,,,,,,,,,147,56.5833,0.0500412
,,,,,,,,,165,102.065,0.0887096
,,,,,,,,,184,81.1999,0.0333496
,,,,,,,,,204,101.848,0.018298
,,,,,,,,,225,120.202,0.0178909
,,,,,,,,,247,140.079,0.00988799
,,,,,,,,,270,93.0582,0.0780602
,,,,,,,,,294,110.792,0.040958
,,,,,,,,,319,132.343,0.051959
,,,,,,,,,98,23.2124,0.0111147
,,,,,,,,,113,38.8781,0.0240937
,,,,,,,,,129,36.2164,0.0112265
,,,,,,,,,146,67.8372,0.0327655
,,,,,,,,,164,48.2702,0.0251259
,,,,,,,,,183,72.9535,0.032166
,,,,,,,,,203,56.2145,0.0200798
,,,,,,,,,224,121.545,0.0134288
,,,,,,,,,246,134.372,0.0132082
,,,,,,,,,269,146.564,0.00826796
,,,,,,,,,293,93.3758,0.0306498
,,,,,,,,,318,93.3835,0.0226085
,,,,,,,,,344,106.99,0.0256004
,,,,,,,,,128,19.319,0.0131614
,,,,,,,,,145,42.9616,0.00809388
,,,,,,,,,163,89.727,0.0153858
,,,,,,,,,182,61.861,0.0134635
,,,,,,,,,202,58.4887,0.0152523
,,,,,,,,,223,51.6395,0.0118657
,,,,,,,,,245,142.301,0.00917919
,,,,,,,,,268,148.7,0.0090756
,,,,,,,,,292,148.352,0.00643401
,,,,,,,,,317,105.22,0.0149027
,,,,,,,,,343,91.1163,0.0127054
,,,,,,,,,370,94.9371,0.0135986
,,,,,,,,,162,40.8126,0.0133185
,,,,,,,,,181,97.4799,0.0605015
,,,,,,,,,201,61.885,0.0387476
,,,,,,,,,222,39.4889,0.0584888
,,,,,,,,,244,38.4131,0.0279252
,,,,,,,,,267,141.671,0.0165356
,,,,,,,,,291,137.841,0.0162025
,,,,,,,,,316,130.584,0.00934952
,,,,,,,,,342,98.4491,0.053662
,,,,,,,,,369,75.761,0.033069
,,,,,,,,,397,75.9179,0.0398875
,,,,,,,,,200,58.8711,0.0156009
,,,,,,,,,221,21.0778,0.013628
,,,,,,,,,243,50.307,0.0154637
,,,,,,,,,266,25.2817,0.0119933
,,,,,,,,,290,102.155,0.00925534
,,,,,,,,,315,105.823,0.00915003
,,,,,,,,,341,111.61,0.00647133
,,,,,,,,,368,62.2696,0.0151045
,,,,,,,,,396,57.5058,0.0128518
,,,,,,,,,425,75.7075,0.0137664
,,,,,,,,,242,39.4487,0.0674609
,,,,,,,,,265,102.556,0.163596
,,,,,,,,,289,77.1422,0.0402816
,,,,,,,,,314,53.7412,0.0202058
,,,,,,,,,340,69.2011,0.0197105
,,,,,,,,,367,87.9719,0.0104196
,,,,,,,,,395,44.6886,0.13071
,,,,,,,,,424,77.0856,0.0519342
,,,,,,,,,454,103.929,0.0709933
,,,,,,,,,288,64.454,0.064968
,,,,,,,,,313,38.2513,0.0293214
,,,,,,,,,339,81.6388,0.0170154
,,,,,,,,,366,87.999,0.0166628
,,,,,,,,,394,98.4078,0.00950098
,,,,,,,,,423,45.22,0.0590665
,,,,,,,,,453,54.4208,0.035045
,,,,,,,,,484,79.0488,0.0427983
,,,,,,,,,338,26.3471,0.0393794
,,,,,,,,,365,115.398,0.0199762
,,,,,,,,,393,102.496,0.019492
,,,,,,,,,422,91.2978,0.0103582
,,,,,,,,,452,75.9694,0.121665
,,,,,,,,,483,41.9841,0.0504441
,,,,,,,,,515,36.4606,0.0682379
,,,,,,,,,392,104.76,0.0145408
,,,,,,,,,421,99.721,0.0142825
,,,,,,,,,451,97.2275,0.00867648
,,,,,,,,,482,61.0839,0.0371307
,,,,,,,,,514,39.5967,0.0259494
,,,,,,,,,547,51.5643,0.0299695
,,,,,,,,,450,19.5242,0.0105618
,,,,,,,,,481,39.6074,0.00714696
,,,,,,,,,513,43.7025,0.0193808
,,,,,,,,,546,73.4308,0.0158223
,,,,,,,,,580,86.5218,0.0172317
,,,,,,,,,512,20.2886,0.007084
,,,,,,,,,545,43.5729,0.0189247
,,,,,,,,,579,62.435,0.015517
,,,,,,,,,614,69.5023,0.0168702
,,,,,,,,,578,53.6861,0.0101958
,,,,,,,,,613,57.6379,0.0091171
,,,,,,,,,649,55.2732,0.00956803
,,,,,,,,,648,36.9855,0.0468125
,,,,,,,,,685,61.2545,0.061757
,,,,,,,,,722,27.1076,0.035975
