Q	U	V
{$V$}	{[mm$^3$]}	0.00415369
{$d_v$}	{[mm]}	0.199440
{$S_c$}	{[mm$^2$]}	0.242114
{$S_o$}	{[mm$^2$]}	0.116339
{$S_l/S_o$}	[]	1.081108
{$\Psi$}	[]	0.516123
{$\eta$}	[]	0.542236
{med($\theta_e$)}	{[$^\circ$]}	74.7149
{$\Upsilon$}	[]	15
{$\Xi$}	[]	4
