Q	U	V
{$V$}	{[mm$^3$]}	0.00750466
{$d_v$}	{[mm]}	0.242909
{$S_c$}	{[mm$^2$]}	0.336745
{$S_o$}	{[mm$^2$]}	0.199676
{$S_l/S_o$}	[]	0.686457
{$\Psi$}	[]	0.550474
{$\eta$}	[]	0.574693
{med($\theta_e$)}	{[$^\circ$]}	75.316
{$\Upsilon$}	[]	8
{$\Xi$}	[]	5
