"cellPairingIds","interplanarAngles","angleWeights"
13,64.6506,0.0446883
19,85.9426,0.0711357
26,74.8094,0.057076
34,72.7074,0.0509282
43,82.7528,0.12951
41,28.6946,0.0297752
51,24.1297,0.0280112
87,54.5842,0.0398389
50,68.105,0.0395798
73,142.526,0.0646565
115,74.3008,0.070112
114,70.5644,0.0493965
130,98.1875,0.0564151
98,91.8568,0.047519
113,76.9853,0.0333914
129,36.2306,0.044724
128,35.3652,0.0554515
163,112.356,0.126156
162,56.0446,0.0516825
181,90.9501,0.0594165
200,86.8317,0.108204
