"cellPairingIds","interplanarAngles","angleWeights"
8,39.2368,0.0468257
26,77.7976,0.0369971
43,98.9205,0.0540777
53,106.64,0.0441757
64,94.956,0.0374967
89,104.585,0.0458776
52,83.3152,0.0676271
88,130.061,0.0883136
102,130.61,0.0552725
85,50.9625,0.0488751
99,35.6089,0.0406417
130,84.5229,0.0588352
163,58.1948,0.118212
162,47.0368,0.0412454
181,63.8544,0.0793376
200,92.4646,0.0601088
221,40.3055,0.0427252
242,95.1452,0.0850007
