facetNormals:0,facetNormals:1,facetNormals:2,FacetCenters:0,FacetCenters:1,FacetCenters:2,FacetIds,relFacetSize,absFacetSize,cellPairingIds,interplanarAngles,angleWeights
-0.534974,-0.00429576,-0.821101,3.46998,6.10623,7.51106,1,0.0220696,0.00200131,8,66.8085,0.0391686
0.488922,0.319645,-0.777191,3.51377,6.10246,7.49443,2,0.17391,0.0157704,13,68.6558,0.0267357
0.216916,0.753162,-0.564992,3.4934,6.0964,7.49816,3,0.0339039,0.00307446,19,110.726,0.0243743
0.858962,0.459209,-0.146033,3.49726,6.13174,7.5458,4,0.0272164,0.00246802,26,44.2991,0.0338513
-0.93956,0.120799,-0.219019,3.43496,6.13889,7.53819,5,0.0726181,0.00658513,34,118.94,0.00971481
0.593781,-0.757518,0.182938,3.49433,6.06703,7.51924,6,0.0062282,0.000564783,43,149.144,0.035866
0.862592,0.108716,0.432252,3.54636,6.08015,7.57477,7,0.0956761,0.00867606,53,138.036,0.0391407
0.23665,0.607848,0.676885,3.48915,6.1426,7.58494,8,0.172815,0.0156711,64,136.764,0.00729403
0.0984272,-0.577456,0.803562,3.49402,6.08738,7.5344,9,0.00436899,0.000396187,76,121.708,0.0361442
-0.390258,-0.198243,0.861459,3.52215,6.09634,7.46887,10,0.0997729,0.00904757,18,33.2134,0.0567453
,,,,,,,,,25,44.7324,0.0470669
,,,,,,,,,33,105.369,0.102455
,,,,,,,,,42,95.6636,0.0120257
,,,,,,,,,52,82.6632,0.123441
,,,,,,,,,63,103.675,0.173361
,,,,,,,,,75,141.916,0.00852385
,,,,,,,,,88,169.487,0.1268
,,,,,,,,,32,49.7624,0.0301943
,,,,,,,,,41,89.334,0.0462259
,,,,,,,,,51,125.158,0.0105233
,,,,,,,,,62,88.4869,0.0500663
,,,,,,,,,74,81.9807,0.0566867
,,,,,,,,,87,154.552,0.00774051
,,,,,,,,,101,140.527,0.05061
,,,,,,,,,50,138.717,0.0395936
,,,,,,,,,61,81.9299,0.0101367
,,,,,,,,,73,40.4466,0.0423778
,,,,,,,,,86,65.5258,0.0470266
,,,,,,,,,100,107.713,0.00752932
,,,,,,,,,115,125.456,0.0427667
,,,,,,,,,72,136.368,0.0114725
,,,,,,,,,85,160.888,0.0825675
,,,,,,,,,99,108.974,0.102264
,,,,,,,,,114,110.477,0.00824211
,,,,,,,,,130,80.5628,0.0840568
,,,,,,,,,98,57.657,0.0116951
,,,,,,,,,113,102.294,0.0120231
,,,,,,,,,129,48.7104,0.00513551
,,,,,,,,,146,85.3931,0.0117245
,,,,,,,,,128,51.93,0.123164
,,,,,,,,,145,67.5014,0.0083564
,,,,,,,,,163,89.1339,0.0976816
,,,,,,,,,162,76.6269,0.00852253
,,,,,,,,,181,65.9449,0.126508
,,,,,,,,,200,36.9107,0.00837141
