facetNormals:0,facetNormals:1,facetNormals:2,FacetCenters:0,FacetCenters:1,FacetCenters:2,FacetIds,relFacetSize,absFacetSize,cellPairingIds,interplanarAngles,angleWeights
0.141465,0.320813,-0.880886,5.21375,3.71279,7.38206,1,0.0796595,0.0215634,8,69.6584,0.0595677
-0.497204,-0.55173,-0.650069,5.20282,3.58237,7.4802,2,0.0475696,0.0128769,13,78.5404,0.0577225
-0.890425,-0.133052,-0.402321,5.14317,3.63558,7.50813,3,0.0452589,0.0122514,19,71.9045,0.0726603
-0.836611,0.36684,-0.324878,5.14104,3.70274,7.46806,4,0.0667917,0.0180802,26,67.7628,0.0839591
0.873534,-0.222249,-0.331898,5.30798,3.58988,7.44715,5,0.0887493,0.024024,34,101.985,0.0729078
-0.703916,-0.664408,-0.136547,5.17507,3.62032,7.41626,6,0.0672112,0.0181938,43,69.2025,0.0797864
0.872831,0.442089,-0.0737906,5.30377,3.66627,7.5199,7,0.0799138,0.0216323,53,88.2454,0.0731002
0.818736,0.464469,0.268384,5.27714,3.70492,7.51253,8,0.0675389,0.0182825,64,85.1945,0.0540837
-0.227099,0.924324,0.212233,5.17611,3.7689,7.51342,9,0.0409395,0.0110821,76,136.104,0.0410317
-0.738449,-0.386018,0.490889,5.14102,3.68983,7.55259,10,0.0276324,0.00747995,89,106.485,0.0780029
0.258015,0.709597,0.593119,5.23816,3.69083,7.65174,11,0.0764138,0.0206848,103,160.931,0.0202702
0.0738046,-0.542197,0.802123,5.18967,3.70863,7.57033,12,0.0116126,0.00314348,18,36.9663,0.0463855
,,,,,,,,,25,63.6494,0.0555652
,,,,,,,,,33,95.8085,0.0619396
,,,,,,,,,42,33.4187,0.0557098
,,,,,,,,,52,130.575,0.0596386
,,,,,,,,,63,150.134,0.0558221
,,,,,,,,,75,123.77,0.0440062
,,,,,,,,,88,74.1301,0.0349582
,,,,,,,,,102,162.811,0.0586365
,,,,,,,,,117,105.678,0.018668
,,,,,,,,,32,30.1392,0.0539563
,,,,,,,,,41,130.465,0.059947
,,,,,,,,,51,36.9738,0.0540927
,,,,,,,,,62,146.445,0.0577891
,,,,,,,,,74,158.619,0.0541985
,,,,,,,,,87,90.3667,0.042991
,,,,,,,,,101,57.5719,0.0343144
,,,,,,,,,116,126.469,0.0568476
,,,,,,,,,132,109.288,0.0184828
,,,,,,,,,50,139.156,0.0762206
,,,,,,,,,61,65.7325,0.0670008
,,,,,,,,,73,124.884,0.0727659
,,,,,,,,,86,129.353,0.0671632
,,,,,,,,,100,60.8796,0.0507637
,,,,,,,,,115,70.2592,0.039092
,,,,,,,,,131,99.1629,0.0712795
,,,,,,,,,148,123.619,0.0197853
,,,,,,,,,72,116.702,0.076493
,,,,,,,,,85,43.0519,0.0841001
,,,,,,,,,99,56.2095,0.0767048
,,,,,,,,,114,120.418,0.0560319
,,,,,,,,,130,141.027,0.0421433
,,,,,,,,,147,98.0517,0.0821209
,,,,,,,,,165,94.9977,0.0205379
,,,,,,,,,98,159.44,0.0730141
,,,,,,,,,113,164.395,0.0673747
,,,,,,,,,129,120.46,0.0508844
,,,,,,,,,146,41.3899,0.0391636
,,,,,,,,,164,141.454,0.0715177
,,,,,,,,,183,77.9127,0.0198036
,,,,,,,,,128,20.4031,0.0732071
,,,,,,,,,145,78.2561,0.0541422
,,,,,,,,,163,153.801,0.0410653
,,,,,,,,,182,58.2926,0.0781246
,,,,,,,,,202,104.247,0.0202785
,,,,,,,,,162,71.6602,0.0509781
,,,,,,,,,181,133.544,0.039219
,,,,,,,,,201,41.8544,0.0717028
,,,,,,,,,222,88.5609,0.0198178
,,,,,,,,,200,95.1662,0.0329948
,,,,,,,,,221,39.4337,0.053315
,,,,,,,,,243,111.542,0.0180931
,,,,,,,,,242,100.756,0.0405877
,,,,,,,,,265,54.2567,0.0163529
,,,,,,,,,288,83.2206,0.0201613
