facetNormals:0,facetNormals:1,facetNormals:2,FacetCenters:0,FacetCenters:1,FacetCenters:2,FacetIds,relFacetSize,absFacetSize,cellPairingIds,interplanarAngles,angleWeights
-0.064447,-0.39287,-0.877096,4.19718,4.72659,8.33586,1,0.0622296,0.0105808,8,47.3584,0.0527993
-0.278529,0.35667,-0.866575,4.15379,4.85691,8.34411,2,0.0458511,0.00779596,13,75.2263,0.0583148
0.093722,0.747878,-0.61415,4.18967,4.91175,8.36853,3,0.0548634,0.00932831,19,62.6229,0.0691693
-0.820399,0.167663,-0.50992,4.06902,4.8123,8.41948,4,0.077851,0.0132368,26,40.0143,0.0744135
-0.673653,-0.240409,-0.663273,4.08838,4.79896,8.39596,5,0.0925298,0.0157326,34,64.8941,0.0851036
0.765001,0.143764,-0.570205,4.27262,4.816,8.37213,6,0.134567,0.0228801,43,75.8061,0.0407808
-0.811111,-0.49631,0.0257499,4.03008,4.77193,8.52398,7,0.0303277,0.00515655,53,90.3758,0.0537361
-0.74141,0.606941,-0.210319,4.06179,4.89236,8.4505,8,0.0472826,0.00803936,64,137.331,0.0924318
0.0974097,0.879858,0.375058,4.16164,4.90683,8.506,9,0.179596,0.0305362,76,147.827,0.0628645
-0.457014,0.355971,0.769358,4.06468,4.83412,8.58536,10,0.0635124,0.0107989,89,150.936,0.00915279
0.0257531,-0.0840738,0.985782,4.15553,4.8138,8.55374,11,0.00493966,0.000839879,18,35.6004,0.049954
,,,,,,,,,25,40.3737,0.0577121
,,,,,,,,,33,44.801,0.0613176
,,,,,,,,,42,69.3719,0.0683971
,,,,,,,,,52,88.3619,0.0365077
,,,,,,,,,63,50.8684,0.0465559
,,,,,,,,,75,92.3372,0.0730519
,,,,,,,,,88,115.981,0.0532556
,,,,,,,,,102,157.119,0.0089185
,,,,,,,,,32,67.7019,0.0643664
,,,,,,,,,41,80.0167,0.0688838
,,,,,,,,,51,55.6448,0.0779474
,,,,,,,,,62,120.041,0.0390623
,,,,,,,,,74,57.4183,0.0507917
,,,,,,,,,87,62.1401,0.0840508
,,,,,,,,,101,105.429,0.0588719
,,,,,,,,,116,133.79,0.0090633
,,,,,,,,,50,27.2024,0.0845581
,,,,,,,,,61,109.305,0.0986372
,,,,,,,,,73,52.3951,0.0436508
,,,,,,,,,86,31.8133,0.0588331
,,,,,,,,,100,97.5377,0.108618
,,,,,,,,,115,87.4319,0.0699545
,,,,,,,,,131,123.667,0.00928987
,,,,,,,,,72,100.511,0.109658
,,,,,,,,,85,45.6505,0.0456824
,,,,,,,,,99,58.9863,0.0625846
,,,,,,,,,114,124.11,0.122134
,,,,,,,,,130,107.853,0.0753231
,,,,,,,,,147,132.4,0.00937864
,,,,,,,,,98,140.332,0.0494995
,,,,,,,,,113,112.354,0.0699774
,,,,,,,,,129,90.7937,0.153854
,,,,,,,,,146,142.49,0.0862953
,,,,,,,,,164,125.495,0.00952951
,,,,,,,,,128,71.589,0.0369532
,,,,,,,,,145,123.595,0.0518925
,,,,,,,,,163,76.5023,0.0410525
,,,,,,,,,182,87.1859,0.00849559
,,,,,,,,,162,66.0451,0.0748574
,,,,,,,,,181,65.4131,0.0542088
,,,,,,,,,201,106.605,0.00894484
,,,,,,,,,200,52.9983,0.0938393
,,,,,,,,,221,71.7319,0.00961487
,,,,,,,,,242,41.2396,0.0091664
