"cellPairingIds","interplanarAngles","angleWeights"
8,110.745,0.0572402
19,146.816,0.0242665
26,92.3057,0.0529407
53,71.1661,0.0215183
89,139.427,0.0331977
25,41.9819,0.0343869
33,49.4687,0.147913
50,80.6148,0.0327873
131,65.3618,0.0239618
99,130.459,0.0279621
147,124.196,0.0515117
201,71.3793,0.0212783
