Q	U	V
{$V$}	{[mm$^3$]}	0.00236064
{$d_v$}	{[mm]}	0.165200
{$S_c$}	{[mm$^2$]}	0.130971
{$S_o$}	{[mm$^2$]}	0.0845129
{$S_l/S_o$}	[]	0.549716
{$\Psi$}	[]	0.654629
{$\eta$}	[]	0.703047
{med($\theta_e$)}	{[$^\circ$]}	74.4074
{$\Upsilon$}	[]	11
{$\Xi$}	[]	5
