Q	U	V
{$V$}	{[mm$^3$]}	0.00690619
{$d_v$}	{[mm]}	0.236273
{$S_c$}	{[mm$^2$]}	0.307317
{$S_o$}	{[mm$^2$]}	0.189702
{$S_l/S_o$}	[]	0.619999
{$\Psi$}	[]	0.570676
{$\eta$}	[]	0.623607
{med($\theta_e$)}	{[$^\circ$]}	62.33485
{$\Upsilon$}	[]	11
{$\Xi$}	[]	11
