Q	U	V
{$V$}	{[mm$^3$]}	0.00525801
{$d_v$}	{[mm]}	0.215745
{$S_c$}	{[mm$^2$]}	0.289046
{$S_o$}	{[mm$^2$]}	0.171474
{$S_l/S_o$}	[]	0.685655
{$\Psi$}	[]	0.5059
{$\eta$}	[]	0.548664
{med($\theta_e$)}	{[$^\circ$]}	77.21785
{$\Upsilon$}	[]	14
{$\Xi$}	[]	7
