"cellPairingIds","interplanarAngles","angleWeights"
8,71.9601,0.0358191
13,54.1772,0.0202095
26,108.516,0.0573095
53,98.2891,0.0966362
103,127.013,0.0769287
118,168.279,0.0992963
18,101.782,0.0155799
33,48.4715,0.0311016
63,133.754,0.0399175
75,77.4997,0.0249961
74,45.8927,0.0214522
114,66.076,0.0338555
184,75.5261,0.069903
162,84.4751,0.0445707
222,34.4417,0.0986906
243,74.5445,0.039861
266,51.7608,0.0451283
338,48.8052,0.101467
