Q	U	V
{$V$}	{[mm$^3$]}	0.0014665
{$d_v$}	{[mm]}	0.140960
{$S_c$}	{[mm$^2$]}	0.109466
{$S_o$}	{[mm$^2$]}	0.0567706
{$S_l/S_o$}	[]	0.928216
{$\Psi$}	[]	0.570243
{$\eta$}	[]	0.635011
{med($\theta_e$)}	{[$^\circ$]}	43.211
{$\Upsilon$}	[]	17
{$\Xi$}	[]	5
