facetNormals:0,facetNormals:1,facetNormals:2,FacetCenters:0,FacetCenters:1,FacetCenters:2,FacetIds,relFacetSize,absFacetSize,cellPairingIds,interplanarAngles,angleWeights
-0.121417,-0.388323,-0.851328,5.36033,3.48558,7.4095,1,0.0820493,0.0133572,8,50.6722,0.0617772
0.462048,0.184935,-0.830081,5.39808,3.48703,7.43595,2,0.0495378,0.00806449,13,53.0153,0.0242192
-0.573392,0.32479,-0.71445,5.31298,3.48724,7.45114,3,0.0142063,0.00231271,19,47.1761,0.0547691
0.630949,-0.249861,-0.723152,5.43603,3.52148,7.40034,4,0.041103,0.00669134,26,24.6836,0.0232186
-0.297368,-0.697073,-0.635931,5.35906,3.41911,7.45327,5,0.0135227,0.00220142,34,51.0206,0.0545369
-0.830468,-0.281792,-0.435756,5.34226,3.48977,7.43937,6,0.040842,0.00664885,43,47.6649,0.0432189
-0.0818079,-0.934958,-0.296542,5.38018,3.40247,7.47814,7,0.0293356,0.00477568,53,56.2184,0.0486257
0.405454,-0.850199,-0.274674,5.42024,3.45872,7.44875,8,0.034551,0.00562472,64,68.4756,0.0657066
0.745693,-0.584967,-0.236771,5.4612,3.40444,7.5194,9,0.0547929,0.00891999,76,84.8602,0.0508687
-0.671422,0.651111,-0.298724,5.34456,3.55784,7.46895,10,0.0368607,0.00600073,89,101.665,0.0593346
0.708345,0.655672,-0.180074,5.45165,3.51885,7.52326,11,0.0464698,0.00756503,103,117.096,0.0470835
-0.0997574,0.978987,0.0655581,5.38688,3.61181,7.46019,12,0.0330143,0.00537455,118,106.854,0.100278
0.935821,0.0830198,0.133608,5.46636,3.49686,7.52238,13,0.128919,0.0209874,134,96.3763,0.0202401
0.640668,-0.662332,0.331275,5.44787,3.47677,7.50331,14,0.0115439,0.00187929,151,134.518,0.094724
0.436432,0.767297,0.316485,5.42002,3.55782,7.5359,15,0.11203,0.0182379,169,106.675,0.0782802
-0.865347,0.290486,0.296098,5.34878,3.58003,7.42565,16,0.0748423,0.0121839,188,150.803,0.0221331
-0.356092,0.313896,0.847085,5.38435,3.59482,7.48079,17,0.0127919,0.00208245,18,65.6286,0.0220804
,,,,,,,,,25,28.237,0.0449279
,,,,,,,,,33,74.147,0.0212457
,,,,,,,,,42,94.4851,0.0447716
,,,,,,,,,52,87.8675,0.0368495
,,,,,,,,,63,74.2283,0.0407089
,,,,,,,,,75,62.7503,0.052033
,,,,,,,,,88,86.4917,0.0422692
,,,,,,,,,102,51.0019,0.0479548
,,,,,,,,,117,85.1599,0.0396224
,,,,,,,,,133,68.4843,0.0715733
,,,,,,,,,150,96.1452,0.0187244
,,,,,,,,,168,84.8896,0.0686984
,,,,,,,,,187,129.59,0.059616
,,,,,,,,,207,149.485,0.0203332
,,,,,,,,,32,85.6135,0.0211147
,,,,,,,,,41,65.5204,0.013856
,,,,,,,,,51,43.0109,0.0210801
,,,,,,,,,62,92.6897,0.0191425
,,,,,,,,,74,109.121,0.0201341
,,,,,,,,,87,118.181,0.0225627
,,,,,,,,,101,31.9326,0.0205085
,,,,,,,,,116,93.8783,0.0217602
,,,,,,,,,132,69.97,0.0198647
,,,,,,,,,149,130.998,0.0255924
,,,,,,,,,167,149.391,0.0127375
,,,,,,,,,186,104.431,0.0252151
,,,,,,,,,206,66.0261,0.0238798
,,,,,,,,,227,108.474,0.013462
,,,,,,,,,50,62.9339,0.0203502
,,,,,,,,,61,98.1966,0.0409721
,,,,,,,,,73,66.0371,0.0342364
,,,,,,,,,86,46.735,0.0375433
,,,,,,,,,100,35.5837,0.0469708
,,,,,,,,,115,112.353,0.0388664
,,,,,,,,,131,64.8827,0.0436219
,,,,,,,,,148,111.28,0.0366173
,,,,,,,,,166,59.8202,0.0623326
,,,,,,,,,185,70.1242,0.0180253
,,,,,,,,,205,98.9836,0.0601408
,,,,,,,,,226,151.044,0.0530637
,,,,,,,,,248,161.97,0.0195115
,,,,,,,,,72,41.953,0.0203181
,,,,,,,,,85,27.3831,0.018512
,,,,,,,,,99,48.2185,0.0194377
,,,,,,,,,114,69.6182,0.0216919
,,,,,,,,,130,93.7923,0.0197865
,,,,,,,,,147,124.713,0.0209491
,,,,,,,,,165,135.377,0.0191865
,,,,,,,,,184,116.652,0.0244778
,,,,,,,,,204,86.4188,0.0124552
,,,,,,,,,225,158.964,0.0241324
,,,,,,,,,247,98.0813,0.0229065
,,,,,,,,,270,132.711,0.0131471
,,,,,,,,,98,61.452,0.0341455
,,,,,,,,,113,88.6549,0.037434
,,,,,,,,,129,111.542,0.0467999
,,,,,,,,,146,58.3658,0.0387494
,,,,,,,,,164,136.249,0.0434745
,,,,,,,,,183,103.264,0.0365133
,,,,,,,,,203,157.539,0.062032
,,,,,,,,,224,120.714,0.0180001
,,,,,,,,,246,141.289,0.0598609
,,,,,,,,,269,57.2943,0.0528457
,,,,,,,,,293,99.8001,0.0194819
,,,,,,,,,128,29.1777,0.0317305
,,,,,,,,,145,54.6627,0.0382126
,,,,,,,,,163,118.779,0.0326705
,,,,,,,,,182,129.719,0.0359663
,,,,,,,,,202,162.658,0.0310665
,,,,,,,,,223,101.975,0.0477954
,,,,,,,,,245,60.9091,0.0165681
,,,,,,,,,268,156.578,0.0464961
,,,,,,,,,292,107.792,0.0421499
,,,,,,,,,317,122.644,0.0178153
,,,,,,,,,162,25.5547,0.042379
,,,,,,,,,181,140.539,0.0356685
,,,,,,,,,201,103.249,0.0396337
,,,,,,,,,222,157.008,0.0337652
,,,,,,,,,244,73.0044,0.0544967
,,,,,,,,,267,40.3803,0.0173058
,,,,,,,,,291,127.674,0.0528138
,,,,,,,,,316,136.164,0.0472767
,,,,,,,,,342,132.522,0.0186711
,,,,,,,,,200,147.712,0.0440726
,,,,,,,,,221,78.7396,0.0502893
,,,,,,,,,243,133.451,0.0412028
,,,,,,,,,266,48.2206,0.0769015
,,,,,,,,,290,34.6692,0.0190701
,,,,,,,,,315,102.504,0.0735925
,,,,,,,,,341,160.803,0.0632672
,,,,,,,,,368,133.231,0.0207415
,,,,,,,,,242,89.6964,0.0411113
,,,,,,,,,265,44.9899,0.0348317
,,,,,,,,,289,131.239,0.0573297
,,,,,,,,,314,177.306,0.0175817
,,,,,,,,,340,83.0115,0.0554703
,,,,,,,,,367,43.6534,0.0493942
,,,,,,,,,395,78.4784,0.0189927
,,,,,,,,,288,54.7109,0.0386031
,,,,,,,,,313,41.9235,0.0683151
,,,,,,,,,339,92.3911,0.0184937
,,,,,,,,,366,34.8906,0.0656911
,,,,,,,,,394,120.331,0.0573382
,,,,,,,,,423,102.045,0.0200614
,,,,,,,,,338,90.2033,0.052567
,,,,,,,,,365,135.651,0.0171063
,,,,,,,,,393,38.0407,0.0509995
,,,,,,,,,422,65.6566,0.0458176
,,,,,,,,,452,65.4197,0.0184392
,,,,,,,,,392,50.6789,0.0211904
,,,,,,,,,421,54.6855,0.119883
,,,,,,,,,451,145.02,0.094705
,,,,,,,,,482,102.154,0.0232744
,,,,,,,,,450,97.7452,0.020931
,,,,,,,,,481,133.657,0.0200026
,,,,,,,,,513,99.4076,0.0121359
,,,,,,,,,512,93.891,0.089736
,,,,,,,,,545,67.1545,0.0229619
,,,,,,,,,578,45.7558,0.0218493
