facetNormals:0,facetNormals:1,facetNormals:2,FacetCenters:0,FacetCenters:1,FacetCenters:2,FacetIds,relFacetSize,absFacetSize,cellPairingIds,interplanarAngles,angleWeights
0.0320011,-0.894576,-0.354306,7.12993,7.37235,7.08004,1,0.0229101,0.0035768,8,62.3448,0.0211407
-0.846085,-0.395525,-0.324922,7.14248,7.24114,7.1498,2,0.019625,0.00306392,13,84.4623,0.0223431
-0.974338,-0.148708,0.0289135,7.10149,7.26168,7.13095,3,0.0218034,0.00340402,19,140.005,0.0297046
0.541699,0.802831,0.0396123,7.22971,7.26963,7.1019,4,0.0422283,0.00659282,26,70.4503,0.024362
-0.835393,-0.476327,0.228498,7.15048,7.17765,7.14851,5,0.0260105,0.00406083,34,56.2655,0.0335104
-0.462693,-0.757418,0.400956,7.16789,7.18166,7.14777,6,0.0623673,0.00973698,43,137.684,0.0423834
0.417484,0.491409,0.680443,7.188,7.25198,7.15269,7,0.282528,0.0441091,53,147.243,0.0172931
-0.301723,0.5976,0.73402,7.12665,7.2913,7.16845,8,0.013888,0.00216825,64,100.793,0.0415837
-0.467508,-0.133906,0.75119,7.15019,7.21604,7.15968,9,0.224874,0.035108,18,26.3459,0.0206569
,,,,,,,,,25,145.373,0.0267966
,,,,,,,,,33,32.8674,0.022371
,,,,,,,,,42,54.3899,0.0298554
,,,,,,,,,52,146.018,0.0367007
,,,,,,,,,63,102.916,0.0162655
,,,,,,,,,75,76.6426,0.0360995
,,,,,,,,,32,132.527,0.0287583
,,,,,,,,,41,23.8511,0.0237218
,,,,,,,,,51,53.2162,0.032311
,,,,,,,,,62,119.857,0.0404827
,,,,,,,,,74,76.641,0.016968
,,,,,,,,,87,55.7078,0.0397525
,,,,,,,,,50,149.545,0.0321922
,,,,,,,,,61,153.228,0.050359
,,,,,,,,,73,44.5427,0.0734747
,,,,,,,,,86,68.9801,0.0209019
,,,,,,,,,100,112.433,0.0711042
,,,,,,,,,72,29.3695,0.0367106
,,,,,,,,,85,117.466,0.0476354
,,,,,,,,,99,82.0904,0.0181077
,,,,,,,,,114,44.9503,0.0466276
,,,,,,,,,98,108.688,0.102179
,,,,,,,,,113,91.1085,0.0227174
,,,,,,,,,129,44.7518,0.0976516
,,,,,,,,,128,44.2436,0.0264747
,,,,,,,,,145,72.6497,0.250425
,,,,,,,,,162,46.4579,0.0261604
