facetNormals:0,facetNormals:1,facetNormals:2,FacetCenters:0,FacetCenters:1,FacetCenters:2,FacetIds,relFacetSize,absFacetSize,cellPairingIds,interplanarAngles,angleWeights
-0.193233,-0.0598012,-0.928249,3.20193,4.00015,7.99447,1,0.0371472,0.00297664,8,27.8495,0.0150748
0.125982,0.281815,-0.937907,3.22082,3.98374,7.98079,2,0.00945609,0.000757726,13,68.3887,0.0471635
0.798584,-0.144139,-0.520328,3.21263,3.99885,7.94372,3,0.0645755,0.0051745,19,65.4369,0.0245135
0.712283,0.35519,-0.59359,3.18841,4.02146,7.89987,4,0.0182923,0.00146578,26,60.8389,0.0140651
0.348857,0.701944,-0.61458,3.18296,4.00209,7.89398,5,0.00867482,0.000695122,34,69.1154,0.0320661
-0.0131179,0.891824,-0.413399,3.15694,4.03364,7.90496,6,0.0282078,0.00226032,43,80.2789,0.0429412
0.62308,-0.705247,-0.252661,3.20417,3.9537,7.94884,7,0.0508768,0.00407681,53,59.3113,0.0411923
-0.745785,0.483039,-0.380839,3.19383,3.96039,7.97113,8,0.046226,0.00370413,64,64.4776,0.0161123
-0.939874,-0.150707,-0.226069,3.19279,3.93895,7.97309,9,0.0102871,0.000824316,76,56.6731,0.0347687
-0.533128,-0.708323,-0.387415,3.17736,3.95604,7.98222,10,0.0326765,0.0026184,89,90.1401,0.0555851
-0.533872,0.804791,0.0617099,3.11016,4.03343,7.96006,11,0.110364,0.00884354,103,108.844,0.0605138
0.556291,0.747002,0.147806,3.18559,4.00718,7.94897,12,0.163122,0.0130711,118,86.3239,0.0228752
-0.553516,-0.807271,0.10265,3.16645,4.00898,8.02776,13,0.0165259,0.00132424,134,121.827,0.0205827
0.888559,-0.232875,0.363153,3.21509,3.95625,7.97187,14,0.0142351,0.00114067,151,107.478,0.00823522
-0.521125,-0.712946,0.460576,3.19611,3.96836,7.99003,15,0.00463093,0.000371081,169,144.248,0.0567703
0.0208395,-0.482876,0.810778,3.13976,3.95909,8.01058,16,0.120341,0.00964304,188,147.573,0.0429022
-0.27934,0.308321,0.876293,3.13049,3.98085,8.01148,17,0.0507673,0.00406804,18,54.8487,0.0164965
,,,,,,,,,25,40.4038,0.0124673
,,,,,,,,,33,33.7051,0.00904862
,,,,,,,,,42,48.9544,0.014164
,,,,,,,,,52,83.032,0.015948
,,,,,,,,,63,65.2676,0.0157005
,,,,,,,,,75,86.9647,0.0098541
,,,,,,,,,88,84.1977,0.0146676
,,,,,,,,,102,83.8924,0.0174196
,,,,,,,,,117,81.2301,0.0178759
,,,,,,,,,133,113.887,0.0120291
,,,,,,,,,150,107.562,0.0113636
,,,,,,,,,168,135.26,0.00621714
,,,,,,,,,187,163.555,0.0175344
,,,,,,,,,207,143.523,0.0159426
,,,,,,,,,32,30.2887,0.0285089
,,,,,,,,,41,58.8141,0.015295
,,,,,,,,,51,85.3952,0.0392643
,,,,,,,,,62,38.9288,0.0569134
,,,,,,,,,74,120.077,0.0538813
,,,,,,,,,87,130.397,0.017747
,,,,,,,,,101,97.5207,0.0433945
,,,,,,,,,116,128.009,0.0814773
,,,,,,,,,132,73.4029,0.0925235
,,,,,,,,,149,113.551,0.0263169
,,,,,,,,,167,54.4061,0.0233278
,,,,,,,,,186,125.172,0.00864211
,,,,,,,,,206,111.645,0.0840496
,,,,,,,,,227,140.686,0.0568449
,,,,,,,,,50,29.2824,0.0117686
,,,,,,,,,61,55.5036,0.0221929
,,,,,,,,,73,69.217,0.0269096
,,,,,,,,,86,97.9994,0.0262121
,,,,,,,,,100,127.31,0.0131686
,,,,,,,,,115,114.697,0.0234547
,,,,,,,,,131,97.8385,0.0313831
,,,,,,,,,148,52.2049,0.0328958
,,,,,,,,,166,139.398,0.0173643
,,,,,,,,,185,70.0501,0.0160107
,,,,,,,,,205,155.213,0.00739079
,,,,,,,,,226,132.897,0.0317574
,,,,,,,,,248,129.267,0.0268942
,,,,,,,,,72,26.6064,0.013269
,,,,,,,,,85,97.245,0.0148223
,,,,,,,,,99,71.0343,0.0146082
,,,,,,,,,114,107.604,0.00941241
,,,,,,,,,130,117.508,0.01371
,,,,,,,,,147,69.2984,0.0160853
,,,,,,,,,165,48.0777,0.0164736
,,,,,,,,,184,147.075,0.0113774
,,,,,,,,,204,94.4696,0.0107802
,,,,,,,,,225,166.663,0.00603837
,,,,,,,,,247,151.978,0.0161831
,,,,,,,,,270,115.737,0.0148177
,,,,,,,,,98,123.786,0.0362934
,,,,,,,,,113,51.0055,0.0350361
,,,,,,,,,129,91.7051,0.0150761
,,,,,,,,,146,119.237,0.0302782
,,,,,,,,,164,42.6944,0.0449316
,,,,,,,,,183,49.8477,0.0480983
,,,,,,,,,203,141.304,0.0208416
,,,,,,,,,224,112.364,0.0189215
,,,,,,,,,246,146.81,0.00795575
,,,,,,,,,269,145.649,0.0457029
,,,,,,,,,293,95.031,0.0362655
,,,,,,,,,128,138.834,0.04844
,,,,,,,,,145,116.289,0.0171138
,,,,,,,,,163,73.6584,0.0397944
,,,,,,,,,182,166.22,0.0696469
,,,,,,,,,202,103.695,0.0775623
,,,,,,,,,223,78.0535,0.0249481
,,,,,,,,,245,49.417,0.0222459
,,,,,,,,,268,86.353,0.00848916
,,,,,,,,,292,80.6971,0.0715178
,,,,,,,,,317,130.423,0.050822
,,,,,,,,,162,40.9599,0.0168291
,,,,,,,,,181,77.465,0.0382879
,,,,,,,,,201,35.3137,0.0651597
,,,,,,,,,222,96.9512,0.0720377
,,,,,,,,,244,90.9776,0.0243475
,,,,,,,,,267,163.063,0.0217671
,,,,,,,,,291,97.8279,0.0084185
,,,,,,,,,316,127.664,0.0667945
,,,,,,,,,342,88.5621,0.0483903
,,,,,,,,,200,42.7204,0.015648
,,,,,,,,,221,67.2239,0.01882
,,,,,,,,,243,136.463,0.0193537
,,,,,,,,,266,50.0182,0.0126807
,,,,,,,,,290,155.9,0.0119433
,,,,,,,,,315,59.5986,0.00638675
,,,,,,,,,341,98.0991,0.018954
,,,,,,,,,368,88.9147,0.0171076
,,,,,,,,,242,109.293,0.0504236
,,,,,,,,,265,165.409,0.0544464
,,,,,,,,,289,29.695,0.0219505
,,,,,,,,,314,118.055,0.0198311
,,,,,,,,,340,51.1552,0.0081122
,,,,,,,,,367,88.945,0.0513971
,,,,,,,,,395,115.833,0.0397609
,,,,,,,,,288,69.921,0.131654
,,,,,,,,,313,111.421,0.0287472
,,,,,,,,,339,131.982,0.0252175
,,,,,,,,,366,106.09,0.00888888
,,,,,,,,,394,112.51,0.115136
,,,,,,,,,423,61.2629,0.0695442
,,,,,,,,,338,164.831,0.0300114
,,,,,,,,,365,66.3263,0.0261851
,,,,,,,,,393,143.435,0.00900618
,,,,,,,,,422,104.926,0.138503
,,,,,,,,,452,77.086,0.0774351
,,,,,,,,,392,105.915,0.0152952
,,,,,,,,,421,21.6197,0.00723458
,,,,,,,,,451,60.2123,0.029061
,,,,,,,,,482,90.2597,0.024935
,,,,,,,,,450,97.5795,0.00698841
,,,,,,,,,481,62.8532,0.0254587
,,,,,,,,,513,90.1065,0.0222354
,,,,,,,,,512,41.2493,0.00891866
,,,,,,,,,545,70.0687,0.00848763
,,,,,,,,,578,52.628,0.0714096
