Q	U	V
{$V$}	{[mm$^3$]}	0.00430568
{$d_v$}	{[mm]}	0.201843
{$S_c$}	{[mm$^2$]}	0.198793
{$S_o$}	{[mm$^2$]}	0.0989917
{$S_l/S_o$}	[]	1.008178
{$\Psi$}	[]	0.643839
{$\eta$}	[]	0.684486
{med($\theta_e$)}	{[$^\circ$]}	57.7311
{$\Upsilon$}	[]	13
{$\Xi$}	[]	7
