facetNormals:0,facetNormals:1,facetNormals:2,FacetCenters:0,FacetCenters:1,FacetCenters:2,FacetIds,relFacetSize,absFacetSize,cellPairingIds,interplanarAngles,angleWeights
0.630595,0.0698425,-0.757636,5.16197,3.90528,4.44807,1,0.00564576,0.000407639,8,48.6412,0.0101434
0.184288,0.716535,-0.603371,5.12418,3.92383,4.46167,2,0.049877,0.00360125,13,72.968,0.0101718
0.461351,-0.871747,-0.0742455,5.14619,3.84348,4.45069,3,0.0512889,0.00370319,19,53.0066,0.00960066
0.748541,0.602618,-0.0781176,5.15739,3.89332,4.4442,4,0.0320565,0.00231456,26,90.851,0.00950628
0.011731,-0.992913,-0.062493,5.11512,3.81614,4.43242,5,0.0300633,0.00217065,34,114.758,0.0100938
-0.340169,-0.909537,0.171679,5.07264,3.82638,4.45386,6,0.0475813,0.00343549,43,63.7609,0.00843293
0.889772,0.364275,0.207014,5.16924,3.88398,4.42994,7,0.0166551,0.00120254,53,80.0538,0.00984964
0.721336,-0.593638,0.322971,5.14991,3.84281,4.43516,8,0.0385668,0.00278462,64,115.544,0.0104552
-0.293662,0.835143,0.372812,5.08675,3.92606,4.49669,9,0.07058,0.00509606,76,75.6581,0.00984992
0.880803,-0.165952,0.400613,5.16178,3.88613,4.49722,10,0.0385753,0.00278524,89,89.7114,0.00888003
0.635515,0.459833,0.564989,5.14414,3.92083,4.4906,11,0.0207899,0.00150108,103,120.222,0.0105555
0.0264728,-0.772954,0.589039,5.09067,3.82998,4.45573,12,0.0809711,0.00584632,118,156.926,0.0108866
-0.737842,-0.357844,0.51466,5.02265,3.87866,4.46043,13,0.151804,0.0109606,134,157.373,0.010271
-0.651491,0.302658,0.660597,5.03655,3.91772,4.48319,14,0.0568201,0.00410256,151,107.662,0.0103277
0.475887,-0.431492,0.745839,5.1333,3.86413,4.4831,15,0.0604942,0.00436784,169,124.009,0.00894151
0.275434,-0.0182788,0.947631,5.12174,3.92587,4.47379,16,0.0214815,0.00155102,188,137.815,0.0104001
-0.103023,0.381418,0.894509,5.06573,3.93138,4.48488,17,0.0658682,0.00475586,18,121.602,0.0505731
,,,,,,,,,25,47.9186,0.0390288
,,,,,,,,,33,134.994,0.0375147
,,,,,,,,,42,150.327,0.0487021
,,,,,,,,,52,71.3611,0.0249716
,,,,,,,,,63,121.09,0.0434987
,,,,,,,,,75,69.6207,0.0584494
,,,,,,,,,88,102.215,0.0435041
,,,,,,,,,102,83.4232,0.0293472
,,,,,,,,,117,167.01,0.0617295
,,,,,,,,,133,139.507,0.0750842
,,,,,,,,,150,108.899,0.0531227
,,,,,,,,,168,135.606,0.054675
,,,,,,,,,187,124.529,0.0300295
,,,,,,,,,207,107.801,0.056768
,,,,,,,,,32,100.525,0.0394537
,,,,,,,,,41,27.155,0.0379071
,,,,,,,,,51,50.2872,0.0493656
,,,,,,,,,62,85.4261,0.0251449
,,,,,,,,,74,32.3083,0.0440272
,,,,,,,,,87,159.72,0.0594076
,,,,,,,,,101,57.5321,0.0440328
,,,,,,,,,116,99.002,0.0295868
,,,,,,,,,132,48.0894,0.0627993
,,,,,,,,,149,93.9921,0.0766729
,,,,,,,,,167,129.459,0.053913
,,,,,,,,,186,56.2909,0.0555125
,,,,,,,,,206,85.7323,0.0302805
,,,,,,,,,227,117.489,0.0576714
,,,,,,,,,50,127.554,0.0310279
,,,,,,,,,61,149.139,0.0383057
,,,,,,,,,73,23.5294,0.0219211
,,,,,,,,,86,80.5188,0.0350116
,,,,,,,,,100,74.0607,0.0440886
,,,,,,,,,115,56.0939,0.0350151
,,,,,,,,,131,40.5055,0.0252222
,,,,,,,,,148,121.661,0.0459295
,,,,,,,,,166,149.971,0.0529347
,,,,,,,,,185,112.29,0.0409884
,,,,,,,,,205,87.7092,0.0419064
,,,,,,,,,226,82.687,0.0257246
,,,,,,,,,248,84.9583,0.0431251
,,,,,,,,,72,25.1167,0.0368461
,,,,,,,,,85,111.851,0.0214351
,,,,,,,,,99,54.0255,0.0337882
,,,,,,,,,114,153.59,0.0421661
,,,,,,,,,130,81.1622,0.0337915
,,,,,,,,,147,120.242,0.024581
,,,,,,,,,165,40.9121,0.0438469
,,,,,,,,,184,70.9447,0.0501874
,,,,,,,,,204,111.093,0.0393216
,,,,,,,,,225,66.6986,0.0401657
,,,,,,,,,247,92.2083,0.025058
,,,,,,,,,270,116.612,0.0412839
,,,,,,,,,98,128.102,0.0246736
,,,,,,,,,113,68.9565,0.0426024
,,,,,,,,,129,128.967,0.0568424
,,,,,,,,,146,94.7343,0.0426076
,,,,,,,,,164,124.315,0.0289364
,,,,,,,,,183,33.9613,0.0599399
,,,,,,,,,203,45.8657,0.072453
,,,,,,,,,224,86.4406,0.0517919
,,,,,,,,,246,68.3183,0.0532663
,,,,,,,,,269,84.9534,0.0295996
,,,,,,,,,293,99.4484,0.0552509
,,,,,,,,,128,59.5655,0.0232638
,,,,,,,,,145,82.6959,0.0269506
,,,,,,,,,163,33.3879,0.0232653
,,,,,,,,,182,26.6254,0.0184942
,,,,,,,,,202,98.182,0.0276275
,,,,,,,,,223,135.602,0.030017
,,,,,,,,,245,110.28,0.0257596
,,,,,,,,,268,64.2455,0.0261192
,,,,,,,,,292,63.4039,0.0187629
,,,,,,,,,317,76.0131,0.0265875
,,,,,,,,,162,128.202,0.0498786
,,,,,,,,,181,27.1808,0.038571
,,,,,,,,,201,67.3542,0.0270163
,,,,,,,,,222,45.9452,0.0522478
,,,,,,,,,244,99.2351,0.0615072
,,,,,,,,,267,116.888,0.0459469
,,,,,,,,,291,30.2714,0.0471036
,,,,,,,,,316,58.0977,0.0275935
,,,,,,,,,342,90.7017,0.0486489
,,,,,,,,,200,105.24,0.0498857
,,,,,,,,,221,63.9337,0.0321189
,,,,,,,,,243,117.673,0.0754193
,,,,,,,,,266,83.2259,0.0963587
,,,,,,,,,290,42.5719,0.062957
,,,,,,,,,315,103.582,0.0651491
,,,,,,,,,341,74.2634,0.032938
,,,,,,,,,368,43.4183,0.0681428
,,,,,,,,,242,41.5931,0.0270184
,,,,,,,,,265,66.0419,0.0522556
,,,,,,,,,289,113.85,0.0615181
,,,,,,,,,314,112.032,0.045953
,,,,,,,,,340,35.2116,0.04711
,,,,,,,,,367,49.8143,0.0275957
,,,,,,,,,395,77.7125,0.0486557
,,,,,,,,,288,90.3539,0.033085
,,,,,,,,,313,111.478,0.0365712
,,,,,,,,,339,84.015,0.0304415
,,,,,,,,,366,56.4857,0.030945
,,,,,,,,,394,42.6283,0.02113
,,,,,,,,,423,49.3913,0.0316045
,,,,,,,,,338,53.4729,0.10561
,,,,,,,,,365,81.6409,0.0667791
,,,,,,,,,393,34.8369,0.0692507
,,,,,,,,,422,52.84,0.0339548
,,,,,,,,,452,76.0393,0.072643
,,,,,,,,,392,41.066,0.0826896
,,,,,,,,,421,78.6759,0.0865128
,,,,,,,,,451,72.2692,0.037637
,,,,,,,,,482,65.0144,0.0918726
,,,,,,,,,450,86.893,0.0585996
,,,,,,,,,481,62.7515,0.0311764
,,,,,,,,,513,35.8572,0.0610105
,,,,,,,,,512,29.4835,0.0317046
,,,,,,,,,545,61.8882,0.063067
,,,,,,,,,578,32.6882,0.0323973
