facetNormals:0,facetNormals:1,facetNormals:2,FacetCenters:0,FacetCenters:1,FacetCenters:2,FacetIds,relFacetSize,absFacetSize,cellPairingIds,interplanarAngles,angleWeights
-0.42491,0.0386771,-0.870052,5.21562,7.55658,5.64164,1,0.047404,0.00613206,8,35.5359,0.0355038
-0.278009,0.592927,-0.719924,5.21917,7.62864,5.68605,2,0.0283795,0.00367109,13,67.9407,0.0448123
0.398856,-0.616546,-0.625757,5.29134,7.42003,5.68303,3,0.0424893,0.0054963,19,68.7529,0.0621376
0.65743,0.107414,-0.70894,5.28474,7.52216,5.65513,4,0.0901601,0.0116629,26,30.4657,0.048073
-0.667801,-0.346964,-0.633852,5.22087,7.4548,5.67684,5,0.0487611,0.00630761,34,75.8569,0.055777
0.451688,0.733018,-0.452744,5.28136,7.62001,5.69944,6,0.0677424,0.00876298,43,54.9445,0.0396088
-0.740468,-0.588055,-0.298917,5.20945,7.48632,5.67767,7,0.0340153,0.00440012,53,68.972,0.0713502
-0.916492,-0.294415,0.0492884,5.21965,7.51178,5.70739,8,0.144186,0.0186515,64,98.529,0.0238737
0.215851,0.961852,0.101029,5.26906,7.61104,5.73134,9,0.0159543,0.00206381,76,107.552,0.0490364
-0.187638,-0.85541,0.373372,5.2942,7.5786,5.70687,10,0.0507851,0.00656942,89,107.44,0.0460073
-0.260241,0.782078,0.480308,5.22098,7.62133,5.7446,11,0.0446905,0.00578105,103,167.949,0.0358346
0.234889,-0.113072,0.881069,5.28051,7.61437,5.73182,12,0.0288046,0.00372609,18,91.584,0.0340298
,,,,,,,,,25,65.587,0.0431703
,,,,,,,,,33,62.8973,0.0358777
,,,,,,,,,42,47.877,0.0400012
,,,,,,,,,52,85.699,0.0309428
,,,,,,,,,63,87.2661,0.0474246
,,,,,,,,,75,63.0172,0.0204257
,,,,,,,,,88,141.374,0.0364116
,,,,,,,,,102,78.1734,0.0347145
,,,,,,,,,117,149.02,0.0285905
,,,,,,,,,32,47.0385,0.0577589
,,,,,,,,,41,68.7402,0.0454097
,,,,,,,,,51,89.2963,0.0522232
,,,,,,,,,62,74.5876,0.037783
,,,,,,,,,74,103.36,0.0656365
,,,,,,,,,87,126.611,0.023198
,,,,,,,,,101,76.2109,0.0462683
,,,,,,,,,116,164.418,0.0435621
,,,,,,,,,132,115.952,0.0343336
,,,,,,,,,50,91.6127,0.0632921
,,,,,,,,,61,42.5941,0.0773599
,,,,,,,,,73,110.513,0.049395
,,,,,,,,,86,135.527,0.110945
,,,,,,,,,100,79.6253,0.0271112
,,,,,,,,,115,121.213,0.0649726
,,,,,,,,,131,117.436,0.0597595
,,,,,,,,,148,122.659,0.0436605
,,,,,,,,,72,106.322,0.0567055
,,,,,,,,,85,24.4869,0.0400748
,,,,,,,,,99,43.9364,0.0728767
,,,,,,,,,114,123.766,0.0240422
,,,,,,,,,130,78.5819,0.0497525
,,,,,,,,,147,115.359,0.0466372
,,,,,,,,,165,138.404,0.0362156
,,,,,,,,,98,130.786,0.0452895
,,,,,,,,,113,134.064,0.0921774
,,,,,,,,,129,38.2702,0.0258262
,,,,,,,,,146,162.008,0.0580507
,,,,,,,,,164,75.1224,0.0538534
,,,,,,,,,183,114.854,0.0404216
,,,,,,,,,128,28.8753,0.0550448
,,,,,,,,,145,140.26,0.0217208
,,,,,,,,,163,55.8226,0.040742
,,,,,,,,,182,115.735,0.0386289
,,,,,,,,,202,114.013,0.0311938
,,,,,,,,,162,119.893,0.0287297
,,,,,,,,,181,61.1897,0.0751137
,,,,,,,,,201,88.0102,0.0682324
,,,,,,,,,222,99.0008,0.0480167
,,,,,,,,,200,151.056,0.0242807
,,,,,,,,,221,38.033,0.0235142
,,,,,,,,,243,88.0516,0.0205348
,,,,,,,,,242,119.038,0.0475433
,,,,,,,,,265,64.1344,0.0367597
,,,,,,,,,288,71.8101,0.0350307
