"cellPairingIds","interplanarAngles","angleWeights"
8,55.2726,0.0891552
13,68.5728,0.0168522
19,53.4189,0.116781
26,58.872,0.0252307
18,72.9701,0.0160107
25,73.7755,0.0856027
52,86.8107,0.0890882
41,104.348,0.011004
62,88.7998,0.0168498
87,70.6674,0.0171085
50,47.6786,0.0249378
73,134.64,0.116666
86,75.8808,0.0597211
99,86.756,0.0209136
114,125.545,0.0258095
128,77.4813,0.061397
145,46.2966,0.138559
162,91.4653,0.0649766
