Q	U	V
{$V$}	{[mm$^3$]}	0.00411925
{$d_v$}	{[mm]}	0.198887
{$S_c$}	{[mm$^2$]}	0.235005
{$S_o$}	{[mm$^2$]}	0.134477
{$S_l/S_o$}	[]	0.747548
{$\Psi$}	[]	0.528793
{$\eta$}	[]	0.604051
{med($\theta_e$)}	{[$^\circ$]}	71.1251
{$\Upsilon$}	[]	16
{$\Xi$}	[]	5
