facetNormals:0,facetNormals:1,facetNormals:2,FacetCenters:0,FacetCenters:1,FacetCenters:2,FacetIds,relFacetSize,absFacetSize,cellPairingIds,interplanarAngles,angleWeights
0.156495,-0.217995,-0.88899,3.49096,6.14143,4.23643,1,0.074853,0.0223213,8,54.3229,0.0550502
-0.603755,0.106442,-0.698633,3.43671,6.09928,4.21049,2,0.0435332,0.0129817,13,56.0311,0.0671339
0.745691,0.340238,-0.518101,3.44972,6.12933,4.29567,3,0.060858,0.018148,19,64.4507,0.0735159
0.242668,-0.902843,-0.163453,3.48497,6.04515,4.24551,4,0.0722256,0.0215378,26,69.4753,0.0898558
0.783622,-0.579088,-0.078047,3.5631,6.08781,4.25769,5,0.11238,0.033512,34,98.8694,0.0427413
0.515963,0.82745,0.0451415,3.53364,6.18423,4.28804,6,0.02991,0.00891923,43,98.5681,0.0484642
0.906579,-0.10035,0.335442,3.5524,6.11782,4.32209,7,0.0358319,0.0106852,53,101.572,0.0674059
0.829821,0.438871,0.241568,3.57562,6.20111,4.28014,8,0.0613065,0.0182817,64,131.83,0.101187
-0.675748,-0.284033,0.619112,3.4196,6.12139,4.33665,9,0.156108,0.0465516,76,132.146,0.0418526
0.340872,0.727501,0.573479,3.49852,6.23799,4.32741,10,0.0290467,0.00866179,89,124.813,0.0405544
0.495173,-0.362482,0.757353,3.55714,6.13424,4.37228,11,0.027811,0.00829329,18,93.3099,0.050758
,,,,,,,,,25,98.3706,0.0543235
,,,,,,,,,33,121.908,0.0627563
,,,,,,,,,42,106.321,0.0354581
,,,,,,,,,52,151.306,0.0393089
,,,,,,,,,63,133.753,0.0509133
,,,,,,,,,75,93.5215,0.068081
,,,,,,,,,88,125.212,0.0348443
,,,,,,,,,102,163.047,0.0339397
,,,,,,,,,32,92.5872,0.0660563
,,,,,,,,,41,63.1737,0.0789576
,,,,,,,,,51,47.2202,0.0401081
,,,,,,,,,62,60.2165,0.0451062
,,,,,,,,,74,46.8381,0.0610814
,,,,,,,,,87,171.991,0.0875751
,,,,,,,,,101,77.6577,0.0393244
,,,,,,,,,116,98.9146,0.0381762
,,,,,,,,,50,38.5289,0.0879358
,,,,,,,,,61,132.779,0.042302
,,,,,,,,,73,73.9007,0.0479001
,,,,,,,,,86,104.758,0.0663196
,,,,,,,,,100,90.55,0.0987589
,,,,,,,,,115,135.47,0.0414312
,,,,,,,,,131,69.5231,0.0401586
,,,,,,,,,72,94.711,0.0472456
,,,,,,,,,85,38.6073,0.0543383
,,,,,,,,,99,66.536,0.0793341
,,,,,,,,,114,116.151,0.130683
,,,,,,,,,130,101.898,0.046162
,,,,,,,,,147,55.5628,0.0445878
,,,,,,,,,98,65.071,0.0326043
,,,,,,,,,113,32.0272,0.040205
,,,,,,,,,129,126.394,0.0502015
,,,,,,,,,146,33.4754,0.0294721
,,,,,,,,,164,90.6176,0.0288223
,,,,,,,,,128,33.084,0.0452288
,,,,,,,,,145,113.81,0.0582854
,,,,,,,,,163,63.4759,0.0320845
,,,,,,,,,182,38.6982,0.031316
,,,,,,,,,162,125.18,0.0880385
,,,,,,,,,181,39.2741,0.0394176
,,,,,,,,,201,62.6033,0.038264
,,,,,,,,,200,94.9627,0.0489798
,,,,,,,,,221,75.3065,0.0472112
,,,,,,,,,242,69.3442,0.0284154
