Q	U	V
{$V$}	{[mm$^3$]}	0.00235708
{$d_v$}	{[mm]}	0.165117
{$S_c$}	{[mm$^2$]}	0.173733
{$S_o$}	{[mm$^2$]}	0.0928731
{$S_l/S_o$}	[]	0.870649
{$\Psi$}	[]	0.493005
{$\eta$}	[]	0.603743
{med($\theta_e$)}	{[$^\circ$]}	72.1115
{$\Upsilon$}	[]	9
{$\Xi$}	[]	9
