Q	U	V
{$V$}	{[mm$^3$]}	0.00151399
{$d_v$}	{[mm]}	0.142465
{$S_c$}	{[mm$^2$]}	0.102028
{$S_o$}	{[mm$^2$]}	0.0580448
{$S_l/S_o$}	[]	0.757746
{$\Psi$}	[]	0.624952
{$\eta$}	[]	0.676061
{med($\theta_e$)}	{[$^\circ$]}	52.0706
{$\Upsilon$}	[]	17
{$\Xi$}	[]	5
