Q	U	V
{$V$}	{[mm$^3$]}	0.00674707
{$d_v$}	{[mm]}	0.234444
{$S_c$}	{[mm$^2$]}	0.329429
{$S_o$}	{[mm$^2$]}	0.197354
{$S_l/S_o$}	[]	0.669229
{$\Psi$}	[]	0.524162
{$\eta$}	[]	0.530199
{med($\theta_e$)}	{[$^\circ$]}	79.2794
{$\Upsilon$}	[]	11
{$\Xi$}	[]	11
