"cellPairingIds","interplanarAngles","angleWeights"
130,31.9294,0.0147715
165,55.31,0.0168782
204,138.372,0.0376964
225,140.371,0.039538
265,24.4594,0.0113806
314,152.238,0.0181329
365,151.581,0.0214138
393,123.884,0.0219958
450,64.7602,0.0784755
