Q	U	V
{$V$}	{[mm$^3$]}	0.0152124
{$d_v$}	{[mm]}	0.307421
{$S_c$}	{[mm$^2$]}	0.547562
{$S_o$}	{[mm$^2$]}	0.346808
{$S_l/S_o$}	[]	0.578862
{$\Psi$}	[]	0.542229
{$\eta$}	[]	0.548605
{med($\theta_e$)}	{[$^\circ$]}	69.12725
{$\Upsilon$}	[]	11
{$\Xi$}	[]	14
