"cellPairingIds","interplanarAngles","angleWeights"
8,84.4896,0.0380023
19,68.4476,0.0676294
26,74.3455,0.111007
18,88.5108,0.0344888
25,124.802,0.0310177
33,112.575,0.0377906
63,61.1465,0.0267845
88,124.416,0.0270492
102,126.8,0.0166985
117,83.9567,0.0395283
32,39.3541,0.0572501
74,51.0918,0.0443212
50,105.203,0.0669618
61,42.2023,0.0737604
86,86.164,0.0387487
131,68.7561,0.0206791
72,74.5646,0.128545
85,35.0522,0.0760044
130,63.1699,0.0508547
98,46.1339,0.084885
164,55.8476,0.0242698
163,41.6078,0.0422563
182,76.5159,0.0214679
201,70.2579,0.0187079
242,55.8529,0.0188367
265,55.5856,0.0540523
288,51.1468,0.0241449
