facetNormals:0,facetNormals:1,facetNormals:2,FacetCenters:0,FacetCenters:1,FacetCenters:2,FacetIds,relFacetSize,absFacetSize,cellPairingIds,interplanarAngles,angleWeights
-0.0655272,0.19833,-0.95878,3.23564,5.04715,8.26777,1,0.0300573,0.00455111,8,42.6268,0.0380708
-0.0738613,-0.496474,-0.824596,3.24963,4.97495,8.27831,2,0.0519104,0.00785997,13,49.8202,0.0432513
-0.740825,-0.137403,-0.62363,3.15926,5.04888,8.31388,3,0.0770913,0.0116727,19,67.8715,0.0371006
-0.739286,-0.48941,-0.430714,3.16157,5.02926,8.31936,4,0.048455,0.00733677,26,90.7716,0.0165036
0.618254,-0.667693,-0.167619,3.22021,4.95014,8.25966,5,0.0113745,0.00172226,34,58.3321,0.0437373
0.78663,0.267016,-0.527166,3.29542,5.03712,8.30143,6,0.0802713,0.0121542,43,50.7626,0.037201
-0.54073,0.65356,-0.449243,3.15791,5.15656,8.31503,7,0.0487991,0.00738887,53,63.7555,0.0326997
0.544821,0.75514,-0.3278,3.25716,5.12814,8.33869,8,0.0358514,0.00542842,64,82.1017,0.0381124
0.905413,0.370533,-0.123918,3.28756,5.0883,8.3498,9,0.0520653,0.00788343,76,90.8318,0.024713
0.515494,0.821349,0.149248,3.23072,5.13917,8.35103,10,0.0209822,0.00317701,89,121.031,0.0352545
-0.616586,-0.600817,0.424221,3.16381,5.01887,8.40253,11,0.0426248,0.006454,103,111.944,0.0399804
0.0907132,0.819634,0.54044,3.20116,5.1527,8.40168,12,0.0596845,0.00903708,118,142.47,0.00999682
-0.0448597,-0.74374,0.653727,3.19024,4.95314,8.30756,13,0.00599543,0.000907793,134,115.673,0.0405224
-0.759419,0.283262,0.543091,3.13934,5.10273,8.41037,14,0.0621673,0.00941301,151,133.11,0.0453759
0.537626,0.352866,0.702254,3.22081,5.04859,8.34345,15,0.0925372,0.0140114,169,170.325,0.0183954
-0.100394,-0.18899,0.965452,3.18638,5.04375,8.43321,16,0.0132532,0.00200673,18,47.5575,0.0620432
,,,,,,,,,25,46.6859,0.0501232
,,,,,,,,,33,61.6578,0.0186602
,,,,,,,,,42,75.1116,0.0630483
,,,,,,,,,52,84.6804,0.0503067
,,,,,,,,,63,98.7425,0.0424117
,,,,,,,,,75,98.9839,0.0519878
,,,,,,,,,88,126.918,0.029885
,,,,,,,,,102,90.3698,0.0468116
,,,,,,,,,117,154.528,0.0555267
,,,,,,,,,133,100.021,0.0107494
,,,,,,,,,150,124.419,0.0565778
,,,,,,,,,168,149.74,0.0665105
,,,,,,,,,187,136.71,0.0211155
,,,,,,,,,32,23.5856,0.0595073
,,,,,,,,,41,106.811,0.019824
,,,,,,,,,51,107.583,0.0786492
,,,,,,,,,62,50.9897,0.059766
,,,,,,,,,74,108.286,0.0489422
,,,,,,,,,87,131.922,0.0621537
,,,,,,,,,101,127.775,0.0329864
,,,,,,,,,116,72.9789,0.0548965
,,,,,,,,,132,122.41,0.0672802
,,,,,,,,,149,106.31,0.0111256
,,,,,,,,,167,78.8221,0.0688296
,,,,,,,,,186,161.796,0.084111
,,,,,,,,,206,121.249,0.022618
,,,,,,,,,50,93.6521,0.0184241
,,,,,,,,,61,120.019,0.0604312
,,,,,,,,,73,73.2045,0.0486264
,,,,,,,,,86,130.44,0.0412111
,,,,,,,,,100,145.114,0.0501953
,,,,,,,,,115,151.186,0.0292838
,,,,,,,,,131,53.164,0.0453533
,,,,,,,,,148,136.161,0.0534867
,,,,,,,,,166,83.2057,0.0106706
,,,,,,,,,185,78.6733,0.0544613
,,,,,,,,,205,158.392,0.0636048
,,,,,,,,,226,104.808,0.0208136
,,,,,,,,,72,64.1859,0.0199255
,,,,,,,,,85,141.532,0.0184488
,,,,,,,,,99,97.0696,0.0172698
,,,,,,,,,114,68.5853,0.0186702
,,,,,,,,,130,106.295,0.0147519
,,,,,,,,,147,93.3022,0.0179571
,,,,,,,,,165,129.621,0.0191075
,,,,,,,,,184,66.9379,0.00785208
,,,,,,,,,204,146.143,0.0192305
,,,,,,,,,225,91.3611,0.0202588
,,,,,,,,,247,96.1301,0.0122422
,,,,,,,,,98,90.8505,0.0606981
,,,,,,,,,113,34.2303,0.0495655
,,,,,,,,,129,25.3904,0.0631624
,,,,,,,,,146,55.5443,0.0332684
,,,,,,,,,164,156.982,0.0556819
,,,,,,,,,183,89.6863,0.0684638
,,,,,,,,,203,126.384,0.0111575
,,,,,,,,,224,147.33,0.0700688
,,,,,,,,,246,80.9769,0.0859689
,,,,,,,,,269,131.007,0.0227503
,,,,,,,,,128,68.571,0.0413351
,,,,,,,,,145,101.688,0.0503793
,,,,,,,,,163,78.298,0.0293464
,,,,,,,,,182,105.736,0.0455034
,,,,,,,,,202,75.0692,0.0536956
,,,,,,,,,223,142.567,0.0106789
,,,,,,,,,245,67.936,0.0546779
,,,,,,,,,268,114.262,0.0639005
,,,,,,,,,292,121.997,0.0208452
,,,,,,,,,162,33.2916,0.0424633
,,,,,,,,,181,28.3782,0.0264717
,,,,,,,,,201,168.581,0.0389458
,,,,,,,,,222,59.6903,0.0447952
,,,,,,,,,244,144.879,0.0102729
,,,,,,,,,267,113.1,0.0454768
,,,,,,,,,291,69.5015,0.0516805
,,,,,,,,,316,121.763,0.0193524
,,,,,,,,,200,38.9359,0.0299106
,,,,,,,,,221,151.719,0.0468744
,,,,,,,,,243,70.855,0.0556152
,,,,,,,,,266,113.977,0.0107527
,,,,,,,,,290,132.495,0.0566696
,,,,,,,,,315,55.6001,0.0666376
,,,,,,,,,341,106.721,0.0211283
,,,,,,,,,242,142.596,0.0281215
,,,,,,,,,265,34.1421,0.0310491
,,,,,,,,,289,123.476,0.00932605
,,,,,,,,,314,94.6597,0.031375
,,,,,,,,,340,44.0234,0.034208
,,,,,,,,,367,93.7164,0.0162453
,,,,,,,,,288,109.709,0.0497323
,,,,,,,,,313,37.7862,0.0105122
,,,,,,,,,339,55.6429,0.0505738
,,,,,,,,,366,105.589,0.0583652
,,,,,,,,,394,51.9463,0.0202196
,,,,,,,,,338,105.451,0.0108963
,,,,,,,,,365,61.6499,0.0609006
,,,,,,,,,393,40.159,0.0725657
,,,,,,,,,422,68.4733,0.0216901
,,,,,,,,,392,79.3681,0.0109362
,,,,,,,,,421,79.4679,0.0112612
,,,,,,,,,451,37.6384,0.00825603
,,,,,,,,,450,85.4897,0.0743713
,,,,,,,,,481,55.4595,0.0218486
,,,,,,,,,512,53.7098,0.0231858
