Q	U	V
{$V$}	{[mm$^3$]}	0.0185408
{$d_v$}	{[mm]}	0.328380
{$S_c$}	{[mm$^2$]}	0.543029
{$S_o$}	{[mm$^2$]}	0.3989
{$S_l/S_o$}	[]	0.361316
{$\Psi$}	[]	0.62385
{$\eta$}	[]	0.659957
{med($\theta_e$)}	{[$^\circ$]}	69.851
{$\Upsilon$}	[]	17
{$\Xi$}	[]	12
