facetNormals:0,facetNormals:1,facetNormals:2,FacetCenters:0,FacetCenters:1,FacetCenters:2,FacetIds,relFacetSize,absFacetSize,cellPairingIds,interplanarAngles,angleWeights
0.442986,-0.0393008,-0.868505,3.24749,7.63347,5.05206,1,0.020883,0.0032956,8,68.5291,0.0200619
-0.649891,0.0969066,-0.74408,3.148,7.68166,4.92713,2,0.0193029,0.00304625,13,51.9944,0.0319287
-0.21904,0.482579,-0.793847,3.23147,7.61905,4.99474,3,0.0677792,0.0106964,19,67.6016,0.0282452
-0.600529,-0.300275,-0.711518,3.13071,7.65942,4.94203,4,0.0436252,0.00688463,26,60.2329,0.023265
-0.252152,-0.694802,-0.643975,3.17362,7.608,4.9371,5,0.0262605,0.00414425,34,77.1297,0.0195634
-0.539883,-0.665558,-0.492622,3.17346,7.60501,4.94423,6,0.0184006,0.00290386,43,94.6827,0.0188568
-0.799205,0.469491,-0.338383,3.12786,7.66179,5.00046,7,0.017189,0.00271265,53,76.7364,0.0338305
-0.0922625,0.894594,-0.334907,3.26166,7.62216,5.00479,8,0.0890281,0.0140498,64,69.0646,0.0191769
0.0694354,-0.932026,-0.318823,3.2525,7.57893,4.95804,9,0.0177286,0.0027978,76,106.43,0.0266279
-0.894153,-0.344916,-0.133006,3.1495,7.66077,5.00074,10,0.0367333,0.00579699,89,86.4572,0.0211603
0.136746,-0.967663,0.0456157,3.29125,7.57255,4.95339,11,0.0214451,0.00338431,103,130.57,0.0252852
-0.904105,0.225495,0.229923,3.11697,7.70023,5.00718,12,0.0320392,0.0050562,118,107.224,0.02662
0.184817,-0.852068,0.460903,3.25595,7.58511,4.99997,13,0.0367032,0.00579224,134,127.068,0.0329059
-0.462924,-0.722755,0.454169,3.17353,7.62674,5.01479,14,0.0775588,0.0122398,151,131.031,0.0346983
-0.13911,0.737388,0.607952,3.17609,7.70929,5.02803,15,0.102524,0.0161797,169,111.911,0.0236447
0.492718,-0.499812,0.685133,3.25719,7.62235,5.02835,16,0.0272482,0.00430011,188,128.052,0.0241782
0.408251,0.00469163,0.879441,3.23804,7.65498,5.04335,17,0.0287081,0.00453051,208,151.699,0.0317444
-0.274902,-0.40478,0.838038,3.18569,7.65657,5.05272,18,0.0661495,0.0104392,18,34.6127,0.0300483
,,,,,,,,,25,23.4965,0.0267637
,,,,,,,,,33,53.7295,0.0222505
,,,,,,,,,42,48.2875,0.018841
,,,,,,,,,52,33.5131,0.0181847
,,,,,,,,,63,65.4474,0.0317269
,,,,,,,,,75,84.04,0.0184823
,,,,,,,,,88,47.681,0.0253072
,,,,,,,,,102,102.886,0.0203177
,,,,,,,,,117,62.6068,0.0240913
,,,,,,,,,133,123.872,0.0253001
,,,,,,,,,150,96.3808,0.0309123
,,,,,,,,,168,107.639,0.0324889
,,,,,,,,,187,154.454,0.0225975
,,,,,,,,,207,162.758,0.0230843
,,,,,,,,,228,120.17,0.0298851
,,,,,,,,,32,53.8016,0.0530838
,,,,,,,,,41,75.698,0.0378546
,,,,,,,,,51,78.498,0.0289437
,,,,,,,,,62,44.6313,0.0274234
,,,,,,,,,74,38.4077,0.076964
,,,,,,,,,87,102.991,0.0281057
,,,,,,,,,101,81.5949,0.0476451
,,,,,,,,,116,124.815,0.0325815
,,,,,,,,,132,82.1997,0.0435109
,,,,,,,,,149,150.287,0.0476198
,,,,,,,,,167,130.988,0.07234
,,,,,,,,,186,95.9966,0.0816075
,,,,,,,,,206,162.534,0.0388701
,,,,,,,,,227,148.054,0.040333
,,,,,,,,,249,149.782,0.0669544
,,,,,,,,,50,31.4386,0.0327855
,,,,,,,,,61,25.2591,0.0258838
,,,,,,,,,73,53.0898,0.0246612
,,,,,,,,,86,88.4695,0.0585567
,,,,,,,,,100,61.2262,0.0252116
,,,,,,,,,115,39.0424,0.0398837
,,,,,,,,,131,79.4044,0.0287549
,,,,,,,,,148,70.6152,0.0369452
,,,,,,,,,166,100.938,0.039866
,,,,,,,,,185,79.5763,0.055841
,,,,,,,,,205,127.141,0.0612065
,,,,,,,,,226,131.301,0.0335446
,,,,,,,,,248,156.873,0.0346285
,,,,,,,,,271,109.036,0.0525765
,,,,,,,,,72,19.0811,0.0216389
,,,,,,,,,85,84.4694,0.0207778
,,,,,,,,,99,113.998,0.0405577
,,,,,,,,,114,30.3517,0.0211671
,,,,,,,,,130,54.5033,0.0306263
,,,,,,,,,147,50.6221,0.0236097
,,,,,,,,,165,94.68,0.0288635
,,,,,,,,,184,75.0994,0.0306159
,,,,,,,,,204,69.9461,0.0392361
,,,,,,,,,225,156.581,0.0418115
,,,,,,,,,247,103.115,0.0267452
,,,,,,,,,270,135.036,0.0274298
,,,,,,,,,294,101.466,0.0375959
,,,,,,,,,98,72.9678,0.0177742
,,,,,,,,,113,113.655,0.0304979
,,,,,,,,,129,40.7132,0.0180584
,,,,,,,,,146,35.5843,0.0245191
,,,,,,,,,164,55.5017,0.0198065
,,,,,,,,,183,76.2952,0.023376
,,,,,,,,,203,75.7315,0.0245124
,,,,,,,,,224,58.1007,0.0297445
,,,,,,,,,246,138.516,0.0312014
,,,,,,,,,269,106.223,0.021967
,,,,,,,,,293,133.255,0.0224267
,,,,,,,,,318,89.7024,0.0287922
,,,,,,,,,128,50.1277,0.0288147
,,,,,,,,,145,113.285,0.0174546
,,,,,,,,,163,51.2425,0.0234192
,,,,,,,,,182,126.856,0.0190826
,,,,,,,,,202,37.5687,0.0223743
,,,,,,,,,223,136.314,0.0234131
,,,,,,,,,245,97.3777,0.0281412
,,,,,,,,,268,74.6879,0.0294419
,,,,,,,,,292,152.735,0.0210801
,,,,,,,,,317,130.525,0.0215031
,,,,,,,,,343,105.377,0.0272874
,,,,,,,,,162,140.707,0.029569
,,,,,,,,,181,101.273,0.052008
,,,,,,,,,201,162.123,0.0345643
,,,,,,,,,222,76.9395,0.0471208
,,,,,,,,,244,170.576,0.0519778
,,,,,,,,,267,144.215,0.0828986
,,,,,,,,,291,59.608,0.0953008
,,,,,,,,,316,140.095,0.0417257
,,,,,,,,,342,110.64,0.0434162
,,,,,,,,,369,131.527,0.0759022
,,,,,,,,,200,71.5873,0.0239151
,,,,,,,,,221,21.8281,0.0194105
,,,,,,,,,243,111.428,0.0228264
,,,,,,,,,266,47.3325,0.0239087
,,,,,,,,,290,58.8039,0.0288602
,,,,,,,,,315,159.069,0.0302298
,,,,,,,,,341,73.0966,0.0214809
,,,,,,,,,368,105.534,0.0219203
,,,,,,,,,396,84.5515,0.0279629
,,,,,,,,,242,77.4664,0.0270804
,,,,,,,,,265,41.0735,0.0342261
,,,,,,,,,289,85.9535,0.0367183
,,,,,,,,,314,50.0893,0.0498546
,,,,,,,,,340,103.038,0.0540876
,,,,,,,,,367,112.248,0.0312877
,,,,,,,,,395,121.032,0.0322286
,,,,,,,,,424,73.036,0.0472361
,,,,,,,,,288,110.664,0.0256929
,,,,,,,,,313,25.5064,0.0270723
,,,,,,,,,339,46.2629,0.0335998
,,,,,,,,,366,138.243,0.0354707
,,,,,,,,,394,52.6405,0.0240008
,,,,,,,,,423,84.4706,0.0245507
,,,,,,,,,453,65.5919,0.0323897
,,,,,,,,,338,105.52,0.034213
,,,,,,,,,365,67.2782,0.0453461
,,,,,,,,,393,62.2321,0.0488216
,,,,,,,,,422,115.19,0.0294501
,,,,,,,,,452,100.266,0.0302823
,,,,,,,,,483,67.9301,0.0431695
,,,,,,,,,392,39.4385,0.0498269
,,,,,,,,,421,113.108,0.054055
,,,,,,,,,451,30.5845,0.0312768
,,,,,,,,,482,60.0912,0.0322171
,,,,,,,,,514,44.693,0.0472112
,,,,,,,,,450,101.841,0.0883111
,,,,,,,,,481,62.1918,0.0403282
,,,,,,,,,513,77.2973,0.0419052
,,,,,,,,,546,31.8527,0.0714012
,,,,,,,,,512,91.2443,0.0430538
,,,,,,,,,545,59.0681,0.044856
,,,,,,,,,579,74.5766,0.0804148
,,,,,,,,,578,32.5797,0.0279591
,,,,,,,,,613,47.6629,0.0385974
,,,,,,,,,648,48.5482,0.0400395
