Q	U	V
{$V$}	{[mm$^3$]}	0.00511196
{$d_v$}	{[mm]}	0.213729
{$S_c$}	{[mm$^2$]}	0.225503
{$S_o$}	{[mm$^2$]}	0.135591
{$S_l/S_o$}	[]	0.663112
{$\Psi$}	[]	0.63639
{$\eta$}	[]	0.654723
{med($\theta_e$)}	{[$^\circ$]}	59.0113
{$\Upsilon$}	[]	10
{$\Xi$}	[]	7
