"cellPairingIds","interplanarAngles","angleWeights"
8,46.2621,0.0370757
19,65.1152,0.0734052
43,48.6823,0.0183924
89,65.9805,0.0467264
25,52.654,0.0451668
33,29.3778,0.0316366
42,27.379,0.0339581
88,76.8105,0.033629
102,103.279,0.0334243
50,26.7793,0.0547643
73,72.8807,0.0201863
100,56.6711,0.035551
166,58.4137,0.100949
185,82.3826,0.123704
72,29.3586,0.0391114
204,85.8235,0.0569717
146,67.3411,0.0422025
224,81.5272,0.0649702
145,46.0692,0.0145189
182,59.3491,0.0174469
202,50.2514,0.0174898
243,42.7878,0.0279593
266,41.6641,0.0341959
242,85.9064,0.0413812
314,89.9032,0.063776
395,45.3679,0.00775675
288,68.4152,0.0413101
366,127.426,0.0370505
394,106.015,0.049092
423,94.9927,0.00774581
338,66.3064,0.0570006
422,40.2659,0.0494329
392,43.1707,0.108714
421,27.0402,0.0491965
451,33.4129,0.0729586
450,29.739,0.0540409
513,60.4521,0.00829075
512,24.8019,0.0434548
545,73.3252,0.00759044
