facetNormals:0,facetNormals:1,facetNormals:2,FacetCenters:0,FacetCenters:1,FacetCenters:2,FacetIds,relFacetSize,absFacetSize,cellPairingIds,interplanarAngles,angleWeights
0.370119,0.160883,-0.850654,5.3541,7.19908,4.43758,1,0.0195542,0.00192198,8,44.6881,0.0189458
0.451277,-0.543561,-0.675735,5.3987,7.1372,4.47137,2,0.0183742,0.00180599,13,87.0512,0.0193689
0.270151,-0.928538,-0.113511,5.39655,7.11377,4.45216,3,0.0191871,0.0018859,19,92.2396,0.0325922
-0.349493,-0.849961,-0.271368,5.38813,7.12865,4.48611,4,0.0978031,0.00961305,26,62.6549,0.0244783
0.879774,0.434304,-0.0342054,5.30792,7.17894,4.44577,5,0.0327168,0.00321573,34,72.9712,0.0249999
-0.0154799,0.917726,-0.133826,5.36284,7.21716,4.47273,6,0.0346493,0.00340567,43,119.544,0.0285844
-0.850963,0.394439,0.231623,5.32857,7.23015,4.50852,7,0.0531111,0.00522028,53,128.981,0.0346198
-0.783814,-0.47231,0.225928,5.35185,7.1574,4.49695,8,0.150818,0.0148239,64,85.5681,0.0251756
0.901805,0.188363,0.343893,5.4329,7.17933,4.51788,9,0.0353332,0.00347289,76,95.2896,0.0286032
0.387419,0.80297,0.421036,5.41781,7.24401,4.51856,10,0.0532413,0.00523308,89,111.338,0.0312954
0.682893,-0.101299,0.663637,5.4389,7.17469,4.51116,11,0.0783256,0.0076986,103,135.156,0.0170235
-0.459435,0.55133,0.680551,5.33936,7.24305,4.49275,12,0.0150728,0.00148151,118,137.615,0.033665
0.214255,0.200374,0.922596,5.3913,7.19856,4.54453,13,0.120933,0.0118865,18,42.3632,0.0187719
,,,,,,,,,25,58.6296,0.0309363
,,,,,,,,,33,78.9431,0.0235323
,,,,,,,,,42,117.264,0.024014
,,,,,,,,,52,143.065,0.0273027
,,,,,,,,,63,105.719,0.0327575
,,,,,,,,,75,85.6931,0.0241761
,,,,,,,,,88,124.513,0.0273199
,,,,,,,,,102,95.2221,0.0297657
,,,,,,,,,117,179.742,0.0165606
,,,,,,,,,133,132.193,0.0319013
,,,,,,,,,32,38.9493,0.0320807
,,,,,,,,,41,99.7399,0.0241886
,,,,,,,,,51,158.644,0.0246978
,,,,,,,,,62,131.428,0.0281902
,,,,,,,,,74,77.3388,0.0340433
,,,,,,,,,87,88.2233,0.0248694
,,,,,,,,,101,135.841,0.0282085
,,,,,,,,,116,77.4116,0.0308235
,,,,,,,,,132,137.791,0.0168829
,,,,,,,,,149,104.304,0.0331196
,,,,,,,,,50,135.184,0.0490317
,,,,,,,,,61,146.166,0.0511702
,,,,,,,,,73,96.2452,0.0688395
,,,,,,,,,86,47.167,0.118658
,,,,,,,,,100,127.115,0.0519121
,,,,,,,,,115,170.618,0.0689488
,,,,,,,,,131,111.255,0.0869874
,,,,,,,,,148,121.325,0.0261202
,,,,,,,,,166,122.289,0.108145
,,,,,,,,,72,64.6741,0.0336553
,,,,,,,,,85,128.103,0.040491
,,,,,,,,,99,167.216,0.0537695
,,,,,,,,,114,26.571,0.0339747
,,,,,,,,,130,45.771,0.0405287
,,,,,,,,,147,55.3808,0.0461547
,,,,,,,,,165,101.166,0.0206377
,,,,,,,,,184,75.1264,0.0515008
,,,,,,,,,98,67.4149,0.0419383
,,,,,,,,,113,121.095,0.0563521
,,,,,,,,,129,82.8909,0.0349879
,,,,,,,,,146,42.4729,0.0419789
,,,,,,,,,164,102.506,0.0480448
,,,,,,,,,183,62.6125,0.0210073
,,,,,,,,,203,86.354,0.0538653
,,,,,,,,,128,54.1738,0.0785578
,,,,,,,,,145,130.219,0.0424354
,,,,,,,,,163,84.9067,0.0531761
,,,,,,,,,182,120.342,0.0632998
,,,,,,,,,202,36.7053,0.0234816
,,,,,,,,,223,83.2207,0.0738076
,,,,,,,,,162,140.782,0.0572533
,,,,,,,,,181,129.232,0.0787001
,,,,,,,,,201,111.955,0.103105
,,,,,,,,,222,74.2235,0.0274066
,,,,,,,,,244,93.401,0.134232
,,,,,,,,,200,48.2653,0.0424769
,,,,,,,,,221,28.8279,0.0486983
,,,,,,,,,243,94.5075,0.0211313
,,,,,,,,,266,54.8391,0.0546881
,,,,,,,,,242,60.6596,0.0633922
,,,,,,,,,265,55.5777,0.0234943
,,,,,,,,,289,48.5112,0.0739333
,,,,,,,,,288,85.0304,0.0252807
,,,,,,,,,313,37.2161,0.095074
,,,,,,,,,338,48.0629,0.0268048
