"cellPairingIds","interplanarAngles","angleWeights"
8,53.9351,0.0356416
13,52.9075,0.0374796
26,46.6914,0.0514506
53,78.8047,0.0978972
76,95.5376,0.0436881
18,30.1099,0.0243411
42,34.2423,0.0305297
88,82.1331,0.026816
41,70.3112,0.0308054
51,62.1461,0.0318683
62,28.7779,0.0240186
87,45.3888,0.0372958
99,66.5096,0.0625178
114,81.2865,0.051105
147,62.3587,0.0618312
98,63.6039,0.0300241
146,53.143,0.0362483
183,59.6603,0.0530214
145,23.8931,0.0347946
202,32.723,0.0343459
181,81.7482,0.0514169
201,113.106,0.143849
222,169.277,0.0932688
221,30.3826,0.0950221
243,38.1617,0.0699602
265,99.107,0.0427415
288,64.9382,0.0917489
