facetNormals:0,facetNormals:1,facetNormals:2,FacetCenters:0,FacetCenters:1,FacetCenters:2,FacetIds,relFacetSize,absFacetSize,cellPairingIds,interplanarAngles,angleWeights
-0.831941,0.0154896,-0.408838,6.93909,3.74053,5.45813,1,0.208022,0.0630591,8,86.7478,0.03841
0.10253,-0.860402,-0.362045,7.02497,3.57731,5.48339,2,0.0211584,0.00641387,13,121.2,0.0903543
0.602254,0.748622,-0.0658602,7.04976,3.77677,5.56726,3,0.0577103,0.0174941,19,165.944,0.0532268
0.934396,0.0737281,0.218521,7.13223,3.73754,5.57656,4,0.0305177,0.00925101,26,83.4242,0.116396
-0.154518,0.917551,0.105998,7.00186,3.86194,5.50384,5,0.0808049,0.0244949,34,158.231,0.0413645
0.905404,-0.311897,0.210714,7.11887,3.65787,5.56331,6,0.0229655,0.00696168,43,73.8823,0.142333
-0.506734,-0.712113,0.399269,6.97682,3.65348,5.58318,7,0.108173,0.0327913,53,136.662,0.0758674
0.500625,-0.615321,0.549971,7.09311,3.63468,5.6052,8,0.0463938,0.0140636,64,71.244,0.0429707
-0.680304,0.223603,0.675186,7.01678,3.81144,5.57165,9,0.0239601,0.00726316,76,112.13,0.149682
0.0146423,0.510178,0.80054,7.01874,3.76634,5.61476,10,0.116898,0.035436,18,128.139,0.0309643
,,,,,,,,,25,92.9648,0.0249905
,,,,,,,,,33,163.605,0.0335356
,,,,,,,,,42,71.9766,0.0220249
,,,,,,,,,52,62.5333,0.0353938
,,,,,,,,,63,65.1008,0.0290625
,,,,,,,,,75,123.237,0.0224722
,,,,,,,,,88,144.661,0.0358313
,,,,,,,,,32,49.3711,0.0399235
,,,,,,,,,41,49.4059,0.0673324
,,,,,,,,,51,71.6101,0.0328561
,,,,,,,,,62,159.114,0.0752663
,,,,,,,,,74,102.132,0.051437
,,,,,,,,,87,107.612,0.0338615
,,,,,,,,,101,68.303,0.0772727
,,,,,,,,,50,93.4074,0.0443033
,,,,,,,,,61,22.9411,0.0262084
,,,,,,,,,73,118.322,0.0476051
,,,,,,,,,86,54.2628,0.0368172
,,,,,,,,,100,119.862,0.0268442
,,,,,,,,,115,75.6651,0.0484
,,,,,,,,,72,116.084,0.035766
,,,,,,,,,85,126.304,0.0925074
,,,,,,,,,99,130.216,0.0589447
,,,,,,,,,114,65.5254,0.0369606
,,,,,,,,,130,51.7279,0.0955569
,,,,,,,,,98,99.3186,0.0378874
,,,,,,,,,113,36.4741,0.0307228
,,,,,,,,,129,124.27,0.0234523
,,,,,,,,,146,88.5954,0.0383892
,,,,,,,,,128,64.1722,0.0649371
,,,,,,,,,145,61.236,0.0392306
,,,,,,,,,163,93.2107,0.112367
,,,,,,,,,162,96.4567,0.0316002
,,,,,,,,,181,81.6121,0.0664252
,,,,,,,,,200,46.38,0.0397689
