facetNormals:0,facetNormals:1,facetNormals:2,FacetCenters:0,FacetCenters:1,FacetCenters:2,FacetIds,relFacetSize,absFacetSize,cellPairingIds,interplanarAngles,angleWeights
0.311264,-0.181746,-0.919458,5.70121,4.14565,4.11362,1,0.0439383,0.0073072,8,25.7904,0.0591359
0.235204,0.243404,-0.883328,5.68861,4.19316,4.10583,2,0.0904061,0.0150351,13,31.8822,0.0636208
0.00102676,-0.598966,-0.773544,5.657,4.04128,4.14877,3,0.115247,0.0191662,19,20.921,0.0329896
0.540421,-0.387369,-0.734459,5.75089,4.06271,4.15748,4,0.026409,0.00439197,26,37.3329,0.0401751
0.440618,-0.683297,-0.55789,5.74853,4.03646,4.17422,5,0.0370057,0.00615426,34,80.8257,0.0540044
-0.863806,0.0266407,-0.465819,5.57796,4.11798,4.13817,6,0.0700536,0.0116503,43,103.626,0.0554349
-0.894081,-0.327205,0.00292063,5.55471,4.0375,4.24034,7,0.0750798,0.0124862,53,97.9873,0.0383451
-0.866576,0.420593,-0.228737,5.58507,4.1861,4.13789,8,0.0340151,0.00565692,64,71.5612,0.0339695
0.873553,-0.369478,0.0461542,5.77599,4.09201,4.22318,9,0.0276877,0.00460463,76,116.682,0.0259161
0.0771484,0.871802,0.30003,5.72608,4.07534,4.2668,10,0.018378,0.00305638,89,93.9649,0.0709412
0.13095,-0.91879,0.298345,5.66682,3.99713,4.27762,11,0.184055,0.0306094,18,54.4751,0.101326
,,,,,,,,,25,43.3417,0.0408771
,,,,,,,,,33,62.5402,0.0525154
,,,,,,,,,42,76.6279,0.0789391
,,,,,,,,,52,108.953,0.0820332
,,,,,,,,,63,83.8334,0.0494316
,,,,,,,,,75,85.2259,0.0423924
,,,,,,,,,88,92.2709,0.0305465
,,,,,,,,,102,119.663,0.121253
,,,,,,,,,32,34.299,0.0429711
,,,,,,,,,41,29.2985,0.0560225
,,,,,,,,,51,69.046,0.0871391
,,,,,,,,,62,78.0535,0.0909248
,,,,,,,,,74,94.4928,0.0525269
,,,,,,,,,87,78.4193,0.0446487
,,,,,,,,,101,146.43,0.0317008
,,,,,,,,,116,70.4162,0.141741
,,,,,,,,,50,20.9113,0.030822
,,,,,,,,,61,97.9789,0.0383578
,,,,,,,,,73,112.343,0.0390739
,,,,,,,,,86,118.183,0.0297333
,,,,,,,,,100,51.8374,0.0270332
,,,,,,,,,115,124.287,0.0216735
,,,,,,,,,131,77.5901,0.0461904
,,,,,,,,,72,98.2516,0.0484289
,,,,,,,,,85,100.557,0.0495761
,,,,,,,,,99,123.697,0.0354474
,,,,,,,,,114,49.217,0.0316756
,,,,,,,,,130,143.052,0.0245593
,,,,,,,,,147,57.3171,0.0616218
,,,,,,,,,98,35.3658,0.0724797
,,,,,,,,,113,26.9653,0.0457944
,,,,,,,,,129,147.459,0.0396889
,,,,,,,,,146,101.634,0.0291174
,,,,,,,,,164,106.796,0.101482
,,,,,,,,,128,47.5251,0.0468188
,,,,,,,,,145,136.887,0.0404561
,,,,,,,,,163,113.65,0.0295282
,,,,,,,,,182,78.5388,0.106653
,,,,,,,,,162,169.029,0.030527
,,,,,,,,,181,75.3808,0.0238631
,,,,,,,,,201,126.063,0.0574187
,,,,,,,,,200,105.912,0.0220922
,,,,,,,,,221,59.6581,0.0481345
,,,,,,,,,242,141.045,0.0334191
