Q	U	V
{$V$}	{[mm$^3$]}	0.00871586
{$d_v$}	{[mm]}	0.255331
{$S_c$}	{[mm$^2$]}	0.375977
{$S_o$}	{[mm$^2$]}	0.241795
{$S_l/S_o$}	[]	0.554941
{$\Psi$}	[]	0.544749
{$\eta$}	[]	0.559159
{med($\theta_e$)}	{[$^\circ$]}	84.6276
{$\Upsilon$}	[]	10
{$\Xi$}	[]	14
