Q	U	V
{$V$}	{[mm$^3$]}	0.00161493
{$d_v$}	{[mm]}	0.145563
{$S_c$}	{[mm$^2$]}	0.126124
{$S_o$}	{[mm$^2$]}	0.0683287
{$S_l/S_o$}	[]	0.845842
{$\Psi$}	[]	0.527783
{$\eta$}	[]	0.624710
{med($\theta_e$)}	{[$^\circ$]}	93.7337
{$\Upsilon$}	[]	14
{$\Xi$}	[]	8
