"cellPairingIds","interplanarAngles","angleWeights"
33,93.6173,0.0218843
88,115.304,0.058731
117,134.712,0.0682316
150,125.02,0.0939314
130,104.175,0.0210529
147,82.1229,0.0217783
165,71.3219,0.022159
242,59.4361,0.0579739
314,70.7539,0.0803183
288,50.4708,0.0672119
339,60.7504,0.0920096
365,73.5147,0.0992099
