Q	U	V
{$V$}	{[mm$^3$]}	0.00791314
{$d_v$}	{[mm]}	0.247239
{$S_c$}	{[mm$^2$]}	0.326343
{$S_o$}	{[mm$^2$]}	0.204757
{$S_l/S_o$}	[]	0.593806
{$\Psi$}	[]	0.588449
{$\eta$}	[]	0.673233
{med($\theta_e$)}	{[$^\circ$]}	56.46305
{$\Upsilon$}	[]	17
{$\Xi$}	[]	10
