Q	U	V
{$V$}	{[mm$^3$]}	0.0036039
{$d_v$}	{[mm]}	0.190221
{$S_c$}	{[mm$^2$]}	0.189845
{$S_o$}	{[mm$^2$]}	0.117631
{$S_l/S_o$}	[]	0.613903
{$\Psi$}	[]	0.598779
{$\eta$}	[]	0.605668
{med($\theta_e$)}	{[$^\circ$]}	62.66445
{$\Upsilon$}	[]	18
{$\Xi$}	[]	7
