facetNormals:0,facetNormals:1,facetNormals:2,FacetCenters:0,FacetCenters:1,FacetCenters:2,FacetIds,relFacetSize,absFacetSize,cellPairingIds,interplanarAngles,angleWeights
0.272369,-0.0609293,-0.932334,7.40833,3.70693,4.87446,1,0.0492844,0.0063763,8,39.9365,0.0388702
0.265112,-0.661606,-0.652998,7.39506,3.60085,4.92482,2,0.0320895,0.00415166,13,74.5534,0.0849136
-0.803784,-0.117555,-0.49103,7.33,3.71069,4.94995,3,0.306472,0.0396507,19,63.9133,0.0160384
-0.117467,0.818701,-0.541619,7.35399,3.74997,4.9094,4,0.00957763,0.00123913,26,75.9611,0.0439316
0.28179,0.875381,-0.21397,7.3697,3.77588,4.93514,5,0.0396276,0.00512693,34,109.016,0.0395245
-0.559442,-0.763347,0.216661,7.33139,3.6294,4.98891,6,0.0329912,0.00426833,43,146.081,0.0552568
-0.720462,0.108244,0.599998,7.29383,3.72906,5.03558,7,0.0628764,0.0081348,53,100.02,0.0543265
0.821385,0.310104,0.3945,7.35439,3.75153,4.95551,8,0.060518,0.00782968,64,120.576,0.0420493
-0.0180462,-0.788816,0.560055,7.36471,3.61234,5.00879,9,0.0366666,0.00474385,76,115.578,0.0458453
0.484285,0.653917,0.538496,7.34563,3.7819,4.99063,10,0.0428548,0.00554446,89,145.364,0.0504225
0.217012,-0.238908,0.900957,7.34348,3.66306,5.04558,11,0.0516145,0.00667777,103,151.183,0.0347525
0.104372,0.365447,0.900722,7.32691,3.74769,5.04592,12,0.0268389,0.00347235,18,78.3474,0.0580959
,,,,,,,,,25,103.255,0.0147522
,,,,,,,,,33,113.554,0.0354624
,,,,,,,,,42,76.7415,0.0325341
,,,,,,,,,52,135.832,0.0424925
,,,,,,,,,63,105.268,0.0419402
,,,,,,,,,75,80.6854,0.0342257
,,,,,,,,,88,134.056,0.036699
,,,,,,,,,102,113.76,0.0395747
,,,,,,,,,117,148.098,0.0292302
,,,,,,,,,32,73.6529,0.0185748
,,,,,,,,,41,104.496,0.0701807
,,,,,,,,,51,61.9742,0.0595699
,,,,,,,,,62,72.3417,0.104345
,,,,,,,,,74,167.043,0.101077
,,,,,,,,,87,100.525,0.0654971
,,,,,,,,,101,142.069,0.075195
,,,,,,,,,116,130.398,0.0883496
,,,,,,,,,132,127.829,0.0493555
,,,,,,,,,50,31.0796,0.0154268
,,,,,,,,,61,134.82,0.0148455
,,,,,,,,,73,99.3578,0.0166231
,,,,,,,,,86,93.3901,0.0165379
,,,,,,,,,100,171.886,0.015188
,,,,,,,,,115,78.8339,0.0156562
,,,,,,,,,131,138.539,0.0161571
,,,,,,,,,148,101.998,0.0141174
,,,,,,,,,72,162.081,0.0360062
,,,,,,,,,85,105.4,0.0486155
,,,,,,,,,99,62.5806,0.0478939
,,,,,,,,,114,153.199,0.0380897
,,,,,,,,,130,49.8805,0.0411781
,,,,,,,,,147,112.155,0.0448337
,,,,,,,,,165,80.233,0.0320029
,,,,,,,,,98,60.5573,0.0432757
,,,,,,,,,113,130.811,0.042703
,,,,,,,,,129,38.6577,0.034732
,,,,,,,,,146,133.609,0.0372817
,,,,,,,,,164,73.9964,0.0402532
,,,,,,,,,183,98.6164,0.0295987
,,,,,,,,,128,110.727,0.0616746
,,,,,,,,,145,73.2196,0.046321
,,,,,,,,,163,87.2011,0.0509699
,,,,,,,,,182,66.625,0.0566916
,,,,,,,,,202,56.8326,0.0376197
,,,,,,,,,162,92.369,0.0456655
,,,,,,,,,181,30.0454,0.0501774
,,,,,,,,,201,60.0712,0.0557128
,,,,,,,,,222,53.9029,0.0371862
,,,,,,,,,200,103.66,0.03952
,,,,,,,,,221,41.9101,0.0428751
,,,,,,,,,243,76.906,0.0309923
,,,,,,,,,242,62.3036,0.0468286
,,,,,,,,,265,35.7121,0.0330066
,,,,,,,,,288,37.0362,0.0353146
