"cellPairingIds","interplanarAngles","angleWeights"
8,50.2294,0.0173428
19,56.5124,0.017851
34,91.828,0.0179896
64,121.72,0.0176296
25,82.1886,0.0422191
33,46.858,0.0569571
42,93.7648,0.0430028
50,76.3547,0.0628313
100,79.6265,0.0439601
72,126.931,0.0645829
114,121.363,0.0601719
129,104.522,0.0448104
