facetNormals:0,facetNormals:1,facetNormals:2,FacetCenters:0,FacetCenters:1,FacetCenters:2,FacetIds,relFacetSize,absFacetSize,cellPairingIds,interplanarAngles,angleWeights
-0.508592,0.152963,-0.837782,3.73782,5.38189,8.14819,1,0.042872,0.00238742,8,57.4221,0.0428847
0.212328,-0.464106,-0.840551,3.8131,5.31427,8.14664,2,0.0428973,0.00238883,13,33.2267,0.0734224
-0.406736,-0.400327,-0.797271,3.74703,5.30814,8.16891,3,0.255467,0.0142262,19,80.2854,0.045049
0.68181,-0.229302,-0.649387,3.83206,5.3123,8.15746,4,0.0474588,0.00264284,26,28.7502,0.0331378
-0.318613,0.59131,-0.723102,3.74372,5.39369,8.1545,5,0.027006,0.00150389,34,75.5119,0.0228905
0.632174,0.473626,-0.589204,3.82193,5.36514,8.17744,6,0.0156135,0.000869469,43,39.3617,0.00952081
-0.651918,0.641319,-0.401375,3.72582,5.39969,8.16566,7,0.00535501,0.000298205,53,72.5422,0.0208042
-0.445678,-0.845358,-0.233198,3.71286,5.22949,8.24592,8,0.0137345,0.000764838,64,100.908,0.0330977
0.900447,0.293988,-0.272146,3.83055,5.34531,8.15817,9,0.0269527,0.00150092,76,81.7926,0.0594163
0.325786,0.898412,-0.198728,3.77587,5.40141,8.1729,10,0.096753,0.0053879,89,50.953,0.0720195
-0.907674,-0.0273433,-0.139199,3.68513,5.33016,8.22929,11,0.224971,0.012528,103,106.392,0.0307596
0.783568,0.596001,-0.0376643,3.81359,5.3728,8.14826,12,0.0239836,0.00133558,118,75.7865,0.0357433
-0.284304,0.943882,0.0578541,3.72506,5.40809,8.2032,13,0.0306472,0.00170666,134,166.091,0.0141499
0.464884,0.0812311,0.812926,3.83103,5.29309,8.19294,14,0.00847327,0.000471852,18,37.0432,0.0734595
,,,,,,,,,25,33.2422,0.0450629
,,,,,,,,,33,74.1097,0.0331454
,,,,,,,,,42,64.9917,0.0228941
,,,,,,,,,52,95.7671,0.00952143
,,,,,,,,,63,59.3095,0.0208072
,,,,,,,,,75,72.9907,0.0331052
,,,,,,,,,88,100.854,0.0594405
,,,,,,,,,102,94.0007,0.0720552
,,,,,,,,,117,94.6521,0.0307661
,,,,,,,,,133,124.289,0.035752
,,,,,,,,,150,132.317,0.0141513
,,,,,,,,,32,69.5349,0.080047
,,,,,,,,,41,60.9832,0.0488482
,,,,,,,,,51,88.6347,0.0294283
,,,,,,,,,62,70.403,0.0104901
,,,,,,,,,74,42.9794,0.0260676
,,,,,,,,,87,106.038,0.048761
,,,,,,,,,101,110.408,0.140351
,,,,,,,,,116,56.9605,0.239251
,,,,,,,,,132,123.083,0.0438504
,,,,,,,,,149,108.571,0.0547289
,,,,,,,,,167,160.679,0.0164025
,,,,,,,,,50,82.9885,0.0344236
,,,,,,,,,61,42.4166,0.0234967
,,,,,,,,,73,109.992,0.00962409
,,,,,,,,,86,87.5103,0.0213038
,,,,,,,,,100,40.7767,0.0343803
,,,,,,,,,115,81.1722,0.0636811
,,,,,,,,,131,125.912,0.0783824
,,,,,,,,,148,63.7658,0.0318643
,,,,,,,,,166,117.904,0.0372438
,,,,,,,,,185,104.597,0.0143793
,,,,,,,,,72,58.7399,0.0197871
,,,,,,,,,85,27.1345,0.00893776
,,,,,,,,,99,101.241,0.0182087
,,,,,,,,,114,85.0615,0.0269794
,,,,,,,,,130,53.639,0.0422259
,,,,,,,,,147,65.6606,0.0482233
,,,,,,,,,165,82.3164,0.0254052
,,,,,,,,,184,51.4853,0.0287117
,,,,,,,,,204,137.862,0.0128993
,,,,,,,,,98,82.5205,0.00797485
,,,,,,,,,113,124.19,0.0146139
,,,,,,,,,129,26.5451,0.0197728
,,,,,,,,,146,38.9039,0.0268879
,,,,,,,,,164,123.885,0.0292004
,,,,,,,,,183,34.5307,0.0189139
,,,,,,,,,203,76.1326,0.0206875
,,,,,,,,,224,99.1071,0.0109851
,,,,,,,,,128,99.255,0.00770564
,,,,,,,,,145,107.09,0.00893483
,,,,,,,,,163,62.9349,0.0101483
,,,,,,,,,182,46.6287,0.010461
,,,,,,,,,202,96.6228,0.00875518
,,,,,,,,,223,38.9031,0.009117
,,,,,,,,,245,127.946,0.00656256
,,,,,,,,,162,127.217,0.0181965
,,,,,,,,,181,153.371,0.0240545
,,,,,,,,,201,59.3939,0.0258886
,,,,,,,,,222,150.594,0.0174666
,,,,,,,,,244,134.821,0.0189684
,,,,,,,,,267,120.223,0.0104807
,,,,,,,,,200,50.5265,0.0421607
,,,,,,,,,221,150.428,0.0481382
,,,,,,,,,243,23.4105,0.0253816
,,,,,,,,,266,89.6618,0.0286815
,,,,,,,,,290,76.1825,0.0128932
,,,,,,,,,242,109.045,0.135312
,,,,,,,,,265,33.8967,0.0384388
,,,,,,,,,289,39.4877,0.0465495
,,,,,,,,,314,86.0702,0.0155819
,,,,,,,,,288,142.941,0.0433461
,,,,,,,,,313,75.6921,0.0539456
,,,,,,,,,339,128.48,0.0163314
,,,,,,,,,338,69.6945,0.026909
,,,,,,,,,365,65.6338,0.0125224
,,,,,,,,,392,90.5225,0.013276
