"cellPairingIds","interplanarAngles","angleWeights"
13,54.2689,0.0205434
34,61.2882,0.0328145
43,40.0154,0.0348863
51,75.4795,0.0188213
62,86.1207,0.0194851
87,40.1362,0.0189082
101,51.0909,0.025562
72,28.0934,0.0250112
85,62.8329,0.026197
99,32.6053,0.029884
98,90.0927,0.0301949
113,53.3789,0.0352005
146,69.4446,0.0478071
164,46.722,0.0338423
183,49.9829,0.0238926
224,90.4272,0.0392501
128,56.6448,0.0375956
145,105.073,0.0304191
223,36.8273,0.0469919
245,68.0309,0.0422515
267,42.015,0.0527474
200,52.2849,0.0483716
266,116.316,0.0437714
315,38.5629,0.0290775
265,33.4825,0.0359151
340,35.6742,0.0484863
288,57.8817,0.0274162
339,56.4401,0.0497551
365,113.239,0.0308607
393,59.3293,0.024061
422,34.3877,0.0344519
392,45.8664,0.0733154
421,140.008,0.0438653
450,143.008,0.0397068
481,113.688,0.0790538
512,37.8697,0.0458569
