facetNormals:0,facetNormals:1,facetNormals:2,FacetCenters:0,FacetCenters:1,FacetCenters:2,FacetIds,relFacetSize,absFacetSize,cellPairingIds,interplanarAngles,angleWeights
-0.201621,0.530813,-0.763507,7.33016,7.16903,7.3154,1,0.113974,0.0240952,8,75.4987,0.0526928
0.777952,-0.0687923,-0.551642,7.41309,7.08769,7.29636,2,0.0342678,0.00724453,13,31.821,0.0508291
-0.586546,0.67465,-0.423621,7.2512,7.22908,7.38599,3,0.032708,0.00691477,19,73.3094,0.0724266
-0.874493,-0.274642,-0.305866,7.24164,7.13428,7.38133,4,0.0530779,0.0112212,26,52.2497,0.0718947
-0.884048,0.27806,-0.321696,7.22333,7.1373,7.34555,5,0.0525085,0.0111008,34,76.6763,0.0219175
0.892812,0.341501,-0.284801,7.44743,7.14566,7.34156,6,0.0121246,0.00256325,43,51.1933,0.0341868
0.382484,0.877062,-0.267107,7.3897,7.23584,7.42294,7,0.0201093,0.0042513,53,48.5867,0.0636832
-0.0302685,0.960914,-0.122938,7.32428,7.25163,7.44603,8,0.0441861,0.00934137,64,76.6405,0.0553902
0.684789,0.707823,0.0275596,7.34947,7.23561,7.40025,9,0.0365851,0.00773443,76,105.132,0.114184
0.900005,0.245195,0.246702,7.4379,7.17241,7.46412,10,0.114395,0.0241842,89,134.829,0.0657076
-0.447141,-0.701381,0.469716,7.35908,7.15408,7.50904,11,0.0461596,0.00975857,103,99.2492,0.0766211
-0.877863,-0.098631,0.353863,7.23878,7.18153,7.45807,12,0.0577082,0.0122,118,86.7306,0.0485928
0.298229,0.819708,0.422255,7.32242,7.24847,7.47863,13,0.030879,0.00652812,134,165.57,0.0308404
0.0663264,-0.710626,0.669473,7.42561,7.12059,7.49044,14,0.0178329,0.00377004,151,120.5,0.0586123
0.0119075,0.384771,0.860764,7.29638,7.19065,7.49568,15,0.0394499,0.00834007,18,106.524,0.0334697
,,,,,,,,,25,122.226,0.0416474
,,,,,,,,,33,124.362,0.041471
,,,,,,,,,42,29.7281,0.0179116
,,,,,,,,,52,66.1175,0.0253453
,,,,,,,,,63,91.35,0.0386
,,,,,,,,,75,60.1537,0.0353885
,,,,,,,,,88,53.6213,0.0527376
,,,,,,,,,102,127.713,0.0393345
,,,,,,,,,117,163.261,0.043001
,,,,,,,,,133,93.5462,0.0324853
,,,,,,,,,150,106.697,0.0234582
,,,,,,,,,168,123.076,0.0366767
,,,,,,,,,32,61.4256,0.0404745
,,,,,,,,,41,29.7676,0.0403078
,,,,,,,,,51,100.076,0.0176912
,,,,,,,,,62,60.7284,0.0249061
,,,,,,,,,74,41.4996,0.0375904
,,,,,,,,,87,86.2235,0.0345381
,,,,,,,,,101,119.29,0.0508708
,,,,,,,,,116,115.706,0.0382866
,,,,,,,,,132,71.5161,0.0417518
,,,,,,,,,149,78.0067,0.0317672
,,,,,,,,,167,145.934,0.0230814
,,,,,,,,,186,96.8983,0.0357639
,,,,,,,,,50,32.9861,0.0527916
,,,,,,,,,61,144.787,0.0197399
,,,,,,,,,73,120.948,0.029168
,,,,,,,,,86,102.32,0.0482256
,,,,,,,,,100,147.358,0.0433146
,,,,,,,,,115,175.796,0.0725114
,,,,,,,,,131,61.5326,0.0493776
,,,,,,,,,148,41.7029,0.0552963
,,,,,,,,,166,131.058,0.0390437
,,,,,,,,,185,94.0998,0.0266964
,,,,,,,,,205,114.605,0.0452603
,,,,,,,,,72,128.023,0.0197002
,,,,,,,,,85,90.4898,0.0290813
,,,,,,,,,99,69.4663,0.0479892
,,,,,,,,,114,115.588,0.0431238
,,,,,,,,,130,148.474,0.0719782
,,,,,,,,,147,86.9928,0.0491298
,,,,,,,,,165,47.1558,0.0549857
,,,,,,,,,184,100.396,0.0388886
,,,,,,,,,204,119.424,0.0266238
,,,,,,,,,225,101.249,0.045052
,,,,,,,,,98,43.6396,0.015128
,,,,,,,,,113,69.6525,0.0190279
,,,,,,,,,129,30.6679,0.0182131
,,,,,,,,,146,31.9038,0.0219253
,,,,,,,,,164,144.173,0.0192047
,,,,,,,,,183,165.33,0.0200389
,,,,,,,,,203,63.8546,0.0174122
,,,,,,,,,224,112.539,0.0144349
,,,,,,,,,246,96.2946,0.0185484
,,,,,,,,,128,26.183,0.0276397
,,,,,,,,,145,26.5736,0.0259532
,,,,,,,,,163,59.0199,0.0342057
,,,,,,,,,182,163.878,0.0280143
,,,,,,,,,202,123.138,0.0298255
,,,,,,,,,223,41.5738,0.0243568
,,,,,,,,,245,143.034,0.0189028
,,,,,,,,,268,83.1264,0.0266394
,,,,,,,,,162,46.6059,0.040028
,,,,,,,,,181,79.025,0.0637487
,,,,,,,,,201,140.868,0.0451513
,,,,,,,,,222,96.9564,0.0500499
,,,,,,,,,244,39.3112,0.0363531
,,,,,,,,,267,143.985,0.0254105
,,,,,,,,,291,73.239,0.0416839
,,,,,,,,,200,33.0673,0.0554398
,,,,,,,,,221,147.043,0.0408184
,,,,,,,,,243,134.848,0.0447807
,,,,,,,,,266,33.514,0.0334908
,,,,,,,,,290,117.095,0.023978
,,,,,,,,,315,70.8846,0.0379635
,,,,,,,,,242,119.833,0.0657773
,,,,,,,,,265,142.347,0.0767159
,,,,,,,,,289,52.1645,0.048631
,,,,,,,,,314,86.9272,0.0308557
,,,,,,,,,340,69.5812,0.0586678
,,,,,,,,,288,46.3104,0.0512919
,,,,,,,,,313,123.425,0.0370039
,,,,,,,,,339,33.0833,0.0257267
,,,,,,,,,366,81.7582,0.0425418
,,,,,,,,,338,102.095,0.0402309
,,,,,,,,,365,74.5059,0.0272462
,,,,,,,,,393,73.4108,0.0468634
,,,,,,,,,392,107.175,0.0226089
,,,,,,,,,421,41.6866,0.0346422
,,,,,,,,,450,70.7887,0.0245626
