facetNormals:0,facetNormals:1,facetNormals:2,FacetCenters:0,FacetCenters:1,FacetCenters:2,FacetIds,relFacetSize,absFacetSize,cellPairingIds,interplanarAngles,angleWeights
0.0395174,0.0951633,-1.00107,3.96882,3.63091,7.09971,1,0.00475278,0.000407704,8,36.6332,0.00878647
0.307325,-0.429712,-0.806473,3.98036,3.58332,7.11855,2,0.0580746,0.00498177,13,39.771,0.00834935
0.620263,0.230803,-0.695234,3.98115,3.62547,7.10744,3,0.0343213,0.00294416,19,39.8584,0.00925573
-0.307275,0.597084,-0.708872,3.92467,3.67224,7.13367,4,0.176088,0.0151052,26,48.9705,0.00846255
-0.717103,0.0921781,-0.670062,3.87758,3.61704,7.12373,5,0.0385624,0.00330797,34,66.751,0.00811014
0.366622,-0.778995,-0.443968,3.96188,3.55772,7.11709,6,0.0276232,0.00236958,43,70.6291,0.00888769
-0.331183,-0.825159,-0.419296,3.93633,3.51706,7.15013,7,0.0683665,0.00586463,53,69.7703,0.00845231
-0.685844,-0.574305,-0.426096,3.89532,3.55182,7.1318,8,0.0381413,0.00327185,64,62.3591,0.00795151
0.820446,0.385384,-0.391466,3.9705,3.58831,7.1092,9,0.0243183,0.00208608,76,70.7923,0.0088212
-0.865396,-0.274963,-0.386714,3.86501,3.59337,7.15286,10,0.0612621,0.0052552,89,96.7262,0.00818608
-0.962147,0.0507435,0.080684,3.84589,3.64393,7.19722,11,0.0294866,0.00252943,103,98.5276,0.00862384
-0.52925,-0.831015,0.0471459,3.91688,3.50968,7.21524,12,0.0464856,0.00398764,118,96.5885,0.00782631
-0.0933589,0.963667,0.202002,3.94571,3.72098,7.19832,13,0.0221509,0.00190015,134,122.386,0.00915125
-0.774794,-0.382408,0.460173,3.88336,3.5685,7.24166,14,0.122759,0.0105305,151,114.392,0.00762024
-0.427641,0.755433,0.463479,3.88162,3.69726,7.21503,15,0.0192102,0.0016479,169,135.645,0.00858076
-0.606529,0.281693,0.697304,3.86951,3.65245,7.2355,16,0.0440988,0.00378289,18,45.1954,0.0431447
,,,,,,,,,25,76.4426,0.0873431
,,,,,,,,,33,72.8404,0.0463486
,,,,,,,,,42,30.4062,0.0374386
,,,,,,,,,52,51.4261,0.0628017
,,,,,,,,,63,66.5831,0.0460432
,,,,,,,,,75,65.0038,0.0342815
,,,,,,,,,88,80.0708,0.0596258
,,,,,,,,,102,114.231,0.0391137
,,,,,,,,,117,80.5323,0.0516379
,,,,,,,,,133,129.436,0.0320697
,,,,,,,,,150,118.125,0.0788479
,,,,,,,,,168,151.006,0.0288705
,,,,,,,,,187,159.034,0.0501308
,,,,,,,,,32,61.9974,0.0574459
,,,,,,,,,41,87.4358,0.0363185
,,,,,,,,,51,67.4702,0.0306101
,,,,,,,,,62,96.3499,0.0457002
,,,,,,,,,74,105.973,0.0361306
,,,,,,,,,87,23.369,0.0284667
,,,,,,,,,101,110.475,0.043995
,,,,,,,,,116,133.699,0.0317208
,,,,,,,,,132,125.727,0.0394879
,,,,,,,,,149,88.547,0.0269247
,,,,,,,,,167,161.059,0.0536446
,,,,,,,,,186,115.936,0.024633
,,,,,,,,,206,149.127,0.0386005
,,,,,,,,,50,38.7773,0.0632691
,,,,,,,,,61,106.148,0.0477549
,,,,,,,,,73,95.6018,0.0984929
,,,,,,,,,86,79.887,0.0627013
,,,,,,,,,100,74.632,0.0427349
,,,,,,,,,115,67.0435,0.0908997
,,,,,,,,,131,73.461,0.0505144
,,,,,,,,,148,112.398,0.0735537
,,,,,,,,,166,61.4945,0.0393515
,,,,,,,,,185,109.334,0.144665
,,,,,,,,,205,74.6774,0.0346413
,,,,,,,,,226,98.5179,0.0705334
,,,,,,,,,72,92.2342,0.0321887
,,,,,,,,,85,62.8374,0.0493108
,,,,,,,,,99,42.1276,0.0383507
,,,,,,,,,114,107.366,0.029827
,,,,,,,,,130,28.5784,0.0473313
,,,,,,,,,147,47.7703,0.0334193
,,,,,,,,,165,73.7959,0.0421549
,,,,,,,,,184,88.7997,0.0281385
,,,,,,,,,204,77.3083,0.0586888
,,,,,,,,,225,86.1142,0.0256451
,,,,,,,,,247,90.3807,0.0411452
,,,,,,,,,98,42.0125,0.039348
,,,,,,,,,113,66.3447,0.0320411
,,,,,,,,,129,79.4951,0.0258656
,,,,,,,,,146,85.8846,0.0380772
,,,,,,,,,164,117.199,0.0285245
,,,,,,,,,183,63.0933,0.0346539
,,,,,,,,,203,155.908,0.0245862
,,,,,,,,,224,101.587,0.0450983
,,,,,,,,,246,176.096,0.0226611
,,,,,,,,,269,143.403,0.0339686
,,,,,,,,,128,25.4265,0.0489652
,,,,,,,,,145,116.006,0.0358755
,,,,,,,,,163,45.8624,0.0646196
,,,,,,,,,182,75.1905,0.0412025
,,,,,,,,,202,29.8227,0.0553417
,,,,,,,,,223,150.83,0.0334605
,,,,,,,,,245,66.7938,0.0878229
,,,,,,,,,268,134.336,0.0299928
,,,,,,,,,292,109.942,0.0536144
,,,,,,,,,162,129.116,0.0297002
,,,,,,,,,181,20.4601,0.0470128
,,,,,,,,,201,51.5006,0.0332602
,,,,,,,,,222,32.9469,0.0419021
,,,,,,,,,244,125.962,0.0280256
,,,,,,,,,267,55.1022,0.0581999
,,,,,,,,,291,110.285,0.0255513
,,,,,,,,,316,92.5692,0.0409043
,,,,,,,,,200,133,0.0348162
,,,,,,,,,221,147.087,0.0266543
,,,,,,,,,243,142.528,0.0319319
,,,,,,,,,266,77.2385,0.0231841
,,,,,,,,,290,175.213,0.0405949
,,,,,,,,,315,104.371,0.0214646
,,,,,,,,,341,133.947,0.0313491
,,,,,,,,,242,34.386,0.0398113
,,,,,,,,,265,46.6482,0.0528606
,,,,,,,,,289,105.588,0.0325371
,,,,,,,,,314,51.7833,0.0817349
,,,,,,,,,340,90.9953,0.0292488
,,,,,,,,,367,79.2552,0.0512825
,,,,,,,,,288,60.4143,0.0360843
,,,,,,,,,313,80.6703,0.0252977
,,,,,,,,,339,36.2599,0.0475514
,,,,,,,,,366,59.1998,0.0232641
,,,,,,,,,394,45.5533,0.0353419
,,,,,,,,,338,139.507,0.0300044
,,,,,,,,,365,39.0805,0.0674352
,,,,,,,,,393,113.022,0.0271859
,,,,,,,,,422,82.7789,0.0452607
,,,,,,,,,392,102.117,0.0375298
,,,,,,,,,421,27.7233,0.020576
,,,,,,,,,451,60.6101,0.0294893
,,,,,,,,,450,74.6053,0.0332217
,,,,,,,,,481,43.7604,0.0648878
,,,,,,,,,512,33.2214,0.0267623
