Q	U	V
{$V$}	{[mm$^3$]}	0.00386039
{$d_v$}	{[mm]}	0.194630
{$S_c$}	{[mm$^2$]}	0.233354
{$S_o$}	{[mm$^2$]}	0.132572
{$S_l/S_o$}	[]	0.760206
{$\Psi$}	[]	0.509984
{$\eta$}	[]	0.568540
{med($\theta_e$)}	{[$^\circ$]}	58.7247
{$\Upsilon$}	[]	11
{$\Xi$}	[]	9
