"cellPairingIds","interplanarAngles","angleWeights"
13,51.8058,0.0797661
19,139.337,0.0433104
34,51.8275,0.0291871
53,161.163,0.0105854
32,149.923,0.0576924
51,61.1056,0.0350805
74,145.576,0.0112722
86,23.7248,0.0100739
113,134.945,0.00905477
