"cellPairingIds","interplanarAngles","angleWeights"
8,61.358,0.0280903
13,75.2789,0.0164895
34,33.9009,0.0175897
43,62.7278,0.0320895
64,91.6851,0.0216684
18,45.5668,0.0247832
25,44.7363,0.0776877
33,54.8969,0.0651893
63,84.3298,0.0519336
75,117.105,0.0386766
32,52.0247,0.0263732
62,42.8579,0.0278449
132,60.9809,0.0238249
167,74.1147,0.0238286
50,34.726,0.0774751
166,72.9326,0.0536286
185,68.9271,0.0690197
99,38.4025,0.0518386
184,60.1924,0.0473605
98,38.853,0.0311333
129,103.508,0.0212281
146,48.4069,0.0204081
246,105.854,0.0288809
163,46.9191,0.0428972
202,44.3281,0.0800574
162,50.1175,0.0335501
201,36.1004,0.0415656
244,50.8812,0.039952
221,40.5079,0.0326174
315,52.7089,0.0417992
265,43.445,0.034047
340,68.9377,0.0387348
313,32.7185,0.0386364
366,46.9625,0.0550174
365,40.6387,0.0539252
393,84.7455,0.0666842
392,55.7437,0.0440608
421,57.6866,0.0522254
450,76.1892,0.0667127
