facetNormals:0,facetNormals:1,facetNormals:2,FacetCenters:0,FacetCenters:1,FacetCenters:2,FacetIds,relFacetSize,absFacetSize,cellPairingIds,interplanarAngles,angleWeights
-0.578213,-0.523675,-0.598381,4.0605,3.43788,7.885,1,0.0906568,0.0136207,8,21.9402,0.0636123
-0.712023,-0.631736,-0.26498,4.00036,3.46531,7.98054,2,0.0489959,0.00736138,13,46.1462,0.105991
-0.915994,-0.310329,0.0540594,3.98762,3.4973,8.00373,3,0.127569,0.0191666,19,100.615,0.0720208
0.802622,-0.511595,-0.0395094,4.13968,3.41492,7.90159,4,0.0597402,0.00897566,26,80.0528,0.0582617
-0.303237,-0.681883,0.615257,4.04371,3.43328,7.99876,5,0.0429235,0.00644903,34,174.984,0.0827548
0.562106,0.576955,0.531305,4.04357,3.47247,7.93328,6,0.0761199,0.0114366,43,110.307,0.0664604
0.497268,-0.598869,0.606153,4.10258,3.42668,7.98861,7,0.052459,0.00788169,53,132.789,0.089173
0.521992,-0.235016,0.79178,4.0619,3.48038,8.05689,8,0.0877371,0.013182,64,134.239,0.00956713
-0.14069,0.468639,0.865372,4.08299,3.41742,7.86352,9,0.00505003,0.000758741,18,29.3875,0.0707996
,,,,,,,,,25,104.635,0.0538373
,,,,,,,,,33,59.596,0.0457591
,,,,,,,,,42,161.755,0.0596178
,,,,,,,,,52,98.041,0.0506684
,,,,,,,,,63,116.649,0.0628782
,,,,,,,,,75,115.65,0.00915632
,,,,,,,,,32,128.829,0.0813735
,,,,,,,,,41,56.0926,0.064234
,,,,,,,,,51,135.373,0.0953468
,,,,,,,,,62,104.352,0.0743456
,,,,,,,,,74,112.515,0.103969
,,,,,,,,,87,88.2016,0.00971546
,,,,,,,,,50,84.9468,0.0499545
,,,,,,,,,61,81.5549,0.0669427
,,,,,,,,,73,43.5167,0.0558634
,,,,,,,,,86,56.9277,0.0710812
,,,,,,,,,100,114.111,0.00931282
,,,,,,,,,72,104.709,0.0548931
,,,,,,,,,85,48.6418,0.0472146
,,,,,,,,,99,58.8295,0.0576453
,,,,,,,,,114,74.5878,0.00903686
,,,,,,,,,98,74.3976,0.0621124
,,,,,,,,,113,52.1501,0.0815167
,,,,,,,,,129,47.2567,0.00947168
,,,,,,,,,128,24.0506,0.0656595
,,,,,,,,,145,79.785,0.00921315
,,,,,,,,,162,58.9073,0.00955036
