facetNormals:0,facetNormals:1,facetNormals:2,FacetCenters:0,FacetCenters:1,FacetCenters:2,FacetIds,relFacetSize,absFacetSize,cellPairingIds,interplanarAngles,angleWeights
0.120869,-0.20141,-0.958408,7.55735,6.28766,5.47275,1,0.0385416,0.00316869,8,22.9586,0.0405355
-0.102937,-0.502501,-0.84245,7.56147,6.27494,5.48224,2,0.0427469,0.00351442,13,28.1442,0.0316888
0.566681,-0.159017,-0.78813,7.55673,6.2985,5.51031,3,0.0269051,0.00221199,19,42.2403,0.0683993
-0.430275,0.212408,-0.829067,7.53376,6.36022,5.47371,4,0.303575,0.0249584,26,45.3272,0.0298343
0.249112,-0.787492,-0.503182,7.56281,6.24382,5.51407,5,0.0243363,0.0020008,34,66.4509,0.0513914
-0.458808,-0.798644,-0.286861,7.54177,6.22597,5.50481,6,0.0770949,0.00633834,43,98.858,0.034125
-0.356899,0.876699,-0.0786595,7.52881,6.44476,5.53131,7,0.0306165,0.00251713,53,87.5124,0.0439431
-0.940292,-0.225991,-0.114611,7.48644,6.30353,5.51676,8,0.0511055,0.00420162,64,121.804,0.0500371
-0.78404,-0.299161,0.491756,7.49381,6.30603,5.54921,9,0.0713044,0.00586227,76,129.073,0.0528406
-0.754667,0.415755,0.447536,7.49401,6.3992,5.54653,10,0.0840077,0.00690667,18,45.0413,0.0330244
,,,,,,,,,25,47.6891,0.0749412
,,,,,,,,,33,33.6614,0.0310152
,,,,,,,,,42,43.4977,0.0549986
,,,,,,,,,52,111.118,0.0356788
,,,,,,,,,63,71.3659,0.046554
,,,,,,,,,75,101.012,0.0534504
,,,,,,,,,88,122.056,0.0566617
,,,,,,,,,32,66.4944,0.0494293
,,,,,,,,,41,45.8233,0.0255563
,,,,,,,,,51,84.3705,0.0398893
,,,,,,,,,62,107.418,0.0286411
,,,,,,,,,74,115.116,0.0352516
,,,,,,,,,87,145.061,0.0390685
,,,,,,,,,101,152.417,0.0407569
,,,,,,,,,50,81.1386,0.0450603
,,,,,,,,,61,73.2965,0.122963
,,,,,,,,,73,63.5688,0.0556232
,,,,,,,,,86,61.046,0.0874835
,,,,,,,,,100,98.2622,0.115484
,,,,,,,,,115,87.4125,0.131598
,,,,,,,,,72,45.066,0.0369946
,,,,,,,,,85,143.634,0.0271175
,,,,,,,,,99,89.9149,0.0329716
,,,,,,,,,114,102.722,0.0362876
,,,,,,,,,130,142.063,0.0377397
,,,,,,,,,98,124.111,0.0438278
,,,,,,,,,113,46.6593,0.0614659
,,,,,,,,,129,60.8125,0.0740867
,,,,,,,,,146,97.0017,0.080403
,,,,,,,,,128,80.8883,0.0382925
,,,,,,,,,145,91.3107,0.0428389
,,,,,,,,,163,49.5234,0.0448775
,,,,,,,,,162,37.796,0.0595384
,,,,,,,,,181,53.3529,0.0635505
,,,,,,,,,200,43.2896,0.0771366
