Q	U	V
{$V$}	{[mm$^3$]}	0.00699287
{$d_v$}	{[mm]}	0.237257
{$S_c$}	{[mm$^2$]}	0.330493
{$S_o$}	{[mm$^2$]}	0.205776
{$S_l/S_o$}	[]	0.606081
{$\Psi$}	[]	0.535088
{$\eta$}	[]	0.578463
{med($\theta_e$)}	{[$^\circ$]}	63.6816
{$\Upsilon$}	[]	10
{$\Xi$}	[]	11
