"cellPairingIds","interplanarAngles","angleWeights"
8,71.4658,0.0676632
13,30.5993,0.0470132
53,155.14,0.0631016
64,59.3078,0.068062
89,96.2601,0.0491478
18,52.0596,0.05944
25,61.3188,0.07715
33,47.8065,0.0709887
63,104.18,0.0877153
41,92.8124,0.0485948
51,82.1656,0.0331146
87,65.3,0.0597475
101,79.0944,0.0458994
50,21.1759,0.0598215
73,29.988,0.0681332
86,45.5545,0.071275
72,23.0013,0.0364149
85,37.8511,0.0632826
98,43.9033,0.039336
146,28.2894,0.03488
128,38.8825,0.0762434
163,54.5232,0.0587869
202,53.2666,0.0427159
223,48.5246,0.0821633
201,90.9319,0.0589336
222,51.1581,0.04393
200,86.6257,0.0657521
221,48.258,0.063238
266,79.8546,0.096442
289,39.7082,0.0648567
288,51.3683,0.03668
313,70.3093,0.0624093
338,36.6506,0.0458327
