"cellPairingIds","interplanarAngles","angleWeights"
8,90.4574,0.0843645
13,44.5865,0.0647687
19,77.9667,0.0718585
34,74.9208,0.013088
43,88.5043,0.0664927
25,67.1084,0.0855298
52,138.045,0.0780346
63,54.8639,0.0608429
88,73.851,0.0458418
51,47.9394,0.0128588
62,51.6205,0.0609717
61,77.6406,0.0131157
115,75.7297,0.0418811
98,75.358,0.0129253
146,104.932,0.0115785
128,107.155,0.050964
163,117.906,0.0399999
181,38.8883,0.0349393
