"cellPairingIds","interplanarAngles","angleWeights"
8,127.475,0.0242195
13,93.6507,0.0270174
19,48.0948,0.0246467
26,85.3514,0.0283658
43,93.1,0.0195808
18,88.9673,0.0795285
25,134.38,0.06198
88,84.4644,0.0388699
102,83.3689,0.0815196
41,30.3134,0.152934
116,83.7109,0.12514
73,89.6066,0.0385867
86,84.2909,0.0670314
115,94.8237,0.0399823
85,33.7623,0.0485529
147,76.9001,0.160472
128,26.4579,0.0393459
182,58.4754,0.0453547
181,48.2375,0.0407981
201,41.0657,0.0904885
242,26.2319,0.0472952
