"cellPairingIds","interplanarAngles","angleWeights"
8,58.6466,0.0271489
13,76.7315,0.0363968
19,67.2537,0.0349777
26,79.9603,0.0339379
64,108.443,0.0267216
25,27.1314,0.0523704
75,119.445,0.0358063
32,61.8468,0.102713
41,69.1995,0.0942348
74,36.1751,0.0989051
87,153.032,0.0538528
101,59.0966,0.0877143
86,37.4709,0.0890838
100,145.011,0.0508031
114,85.3824,0.0486387
162,160.607,0.0498537
181,75.4008,0.0775784
200,98.6972,0.0468414
