Q	U	V
{$V$}	{[mm$^3$]}	0.00147243
{$d_v$}	{[mm]}	0.141149
{$S_c$}	{[mm$^2$]}	0.102617
{$S_o$}	{[mm$^2$]}	0.0556053
{$S_l/S_o$}	[]	0.845454
{$\Psi$}	[]	0.609941
{$\eta$}	[]	0.674237
{med($\theta_e$)}	{[$^\circ$]}	64.8537
{$\Upsilon$}	[]	9
{$\Xi$}	[]	3
