"cellPairingIds","interplanarAngles","angleWeights"
8,72.7422,0.0182731
13,24.5031,0.00655252
19,94.4083,0.013625
34,112.42,0.0160794
76,93.6024,0.0160163
25,85.756,0.032964
42,41.2292,0.0522652
133,96.736,0.104911
32,92.1765,0.00779885
101,71.7658,0.00852762
116,113.735,0.00919898
131,82.6864,0.0339108
166,85.8001,0.0354596
146,142.39,0.0372516
203,57.0346,0.0588297
242,50.7563,0.0539632
289,96.1518,0.057994
313,52.3184,0.115142
