"cellPairingIds","interplanarAngles","angleWeights"
8,39.0338,0.0442978
13,65.4152,0.0459588
34,92.8608,0.0349956
53,69.9883,0.0414572
76,89.8598,0.0331382
18,37.7951,0.101691
63,57.252,0.0819913
75,75.3274,0.0402019
41,45.9053,0.0898865
51,68.255,0.0631541
87,86.7454,0.0415653
72,54.5419,0.0557365
114,86.5422,0.0382178
204,71.5608,0.0975636
146,143.112,0.0412332
183,67.597,0.0338419
224,98.2588,0.06685
162,37.8835,0.0378484
181,57.0255,0.0505087
201,43.6109,0.0160982
221,34.23,0.0133696
290,63.2132,0.0431348
242,41.6688,0.0146684
265,100.33,0.0321019
314,85.512,0.0603847
339,58.9139,0.0169835
365,34.7121,0.0457512
