"cellPairingIds","interplanarAngles","angleWeights"
8,84.5493,0.0221269
13,87.8619,0.0462865
76,76.4841,0.0417471
18,163.875,0.0302554
42,172.918,0.0205978
52,143.556,0.0308141
88,131.004,0.0282477
102,153.667,0.025277
117,134.345,0.0241727
51,22.7194,0.0400646
62,44.7088,0.112823
101,60.1217,0.08466
98,31.5343,0.0410503
146,47.6961,0.0366181
164,19.6262,0.031777
183,39.7647,0.0300511
265,32.6042,0.0496798
288,21.2195,0.0411704
