Q	U	V
{$V$}	{[mm$^3$]}	0.005486
{$d_v$}	{[mm]}	0.218819
{$S_c$}	{[mm$^2$]}	0.318182
{$S_o$}	{[mm$^2$]}	0.1796
{$S_l/S_o$}	[]	0.771615
{$\Psi$}	[]	0.472765
{$\eta$}	[]	0.500097
{med($\theta_e$)}	{[$^\circ$]}	60.4547
{$\Upsilon$}	[]	12
{$\Xi$}	[]	9
