facetNormals:0,facetNormals:1,facetNormals:2,FacetCenters:0,FacetCenters:1,FacetCenters:2,FacetIds,relFacetSize,absFacetSize,cellPairingIds,interplanarAngles,angleWeights
0.390617,0.531002,-0.703451,6.32939,6.86445,5.48557,1,0.067748,0.0153969,8,43.5923,0.0670681
-0.319191,0.655858,-0.655651,6.27167,6.87894,5.49994,2,0.0664018,0.015091,13,86.3967,0.0552501
-0.735391,-0.162412,-0.61468,6.25465,6.80343,5.53578,3,0.0466452,0.0106009,19,107.972,0.0366625
-0.170424,-0.893878,-0.356172,6.33627,6.68853,5.55707,4,0.0251313,0.00571152,26,69.0877,0.0448831
-0.568838,0.766007,-0.216203,6.25224,6.92061,5.57746,5,0.0335575,0.00762653,34,122.101,0.089181
-0.772683,-0.573733,-0.152503,6.26606,6.73693,5.56919,6,0.130451,0.0296473,43,54.6799,0.049739
0.502701,0.820607,0.12925,6.35519,6.94592,5.6111,7,0.0392938,0.00893019,53,109.793,0.0535912
-0.766063,0.456289,0.366398,6.23545,6.84979,5.63144,8,0.0443283,0.0100744,64,161.446,0.0668635
-0.54744,-0.649751,0.46213,6.26117,6.76247,5.60957,9,0.0660018,0.015,76,115.365,0.050499
0.631024,-0.416621,0.604109,6.35536,6.71694,5.66467,10,0.040251,0.00914772,89,101.43,0.0575351
0.643724,0.131235,0.721522,6.36294,6.80324,5.70117,11,0.049998,0.0113629,103,112.2,0.0727956
0.133648,0.389672,0.863982,6.3098,6.87844,5.69433,12,0.078656,0.0178759,18,56.1391,0.0547971
,,,,,,,,,25,108.136,0.0364625
,,,,,,,,,33,30.6193,0.0445838
,,,,,,,,,42,91.7788,0.0880068
,,,,,,,,,52,72.0809,0.0493716
,,,,,,,,,63,71.2729,0.0531649
,,,,,,,,,75,125.765,0.0662012
,,,,,,,,,88,156.537,0.0501203
,,,,,,,,,102,128.247,0.057044
,,,,,,,,,117,112.125,0.0720113
,,,,,,,,,32,58.9877,0.032664
,,,,,,,,,41,63.3344,0.0390335
,,,,,,,,,51,37.1354,0.0687188
,,,,,,,,,62,128.098,0.0426551
,,,,,,,,,74,73.6354,0.0454572
,,,,,,,,,87,76.214,0.0546604
,,,,,,,,,101,144.685,0.0432128
,,,,,,,,,116,171.513,0.0482634
,,,,,,,,,132,138.107,0.0585617
,,,,,,,,,50,122.295,0.0287395
,,,,,,,,,61,42.7824,0.0421437
,,,,,,,,,73,155.766,0.0306559
,,,,,,,,,86,115.652,0.032077
,,,,,,,,,100,57.379,0.0364019
,,,,,,,,,115,86.9878,0.0309429
,,,,,,,,,131,120.502,0.0334494
,,,,,,,,,148,136.531,0.0380919
,,,,,,,,,72,88.015,0.0533828
,,,,,,,,,85,70.6535,0.0361998
,,,,,,,,,99,41.5242,0.0381982
,,,,,,,,,114,107.608,0.0444932
,,,,,,,,,130,148.66,0.0366007
,,,,,,,,,147,116.211,0.0401603
,,,,,,,,,165,87.8169,0.0470443
,,,,,,,,,98,158.278,0.0603956
,,,,,,,,,113,73.0238,0.0661711
,,,,,,,,,129,39.6804,0.0876547
,,,,,,,,,146,111.177,0.0615198
,,,,,,,,,164,135.892,0.0722895
,,,,,,,,,183,119.452,0.0981388
,,,,,,,,,128,87.7536,0.0416595
,,,,,,,,,145,142.863,0.0492606
,,,,,,,,,163,86.7416,0.0397666
,,,,,,,,,182,56.3843,0.0440043
,,,,,,,,,202,57.5542,0.0524069
,,,,,,,,,162,71.7344,0.0530362
,,,,,,,,,181,118.988,0.0421913
,,,,,,,,,201,100.343,0.0469927
,,,,,,,,,222,64.8611,0.0567013
,,,,,,,,,200,77.3855,0.050006
,,,,,,,,,221,96.3408,0.0568959
,,,,,,,,,243,85.4823,0.0717754
,,,,,,,,,242,33.5146,0.0445981
,,,,,,,,,265,61.3664,0.0532514
,,,,,,,,,288,35.483,0.0611351
