facetNormals:0,facetNormals:1,facetNormals:2,FacetCenters:0,FacetCenters:1,FacetCenters:2,FacetIds,relFacetSize,absFacetSize,cellPairingIds,interplanarAngles,angleWeights
0.264898,-0.0363754,-0.921822,5.43529,6.88256,5.09107,1,0.0791481,0.00524292,8,29.7021,0.0312145
0.084737,0.429609,-0.888315,5.45663,6.86336,5.09718,2,0.0194408,0.0012878,13,25.5302,0.0782519
0.0800142,-0.410841,-0.856315,5.43774,6.83615,5.10055,3,0.0773758,0.00512552,19,50.5579,0.014744
-0.21069,-0.683678,-0.69192,5.46943,6.8241,5.10066,4,0.00812917,0.000538492,26,67.6868,0.0234998
-0.153851,-0.896111,-0.401818,5.48527,6.81368,5.12285,5,0.0137983,0.000914029,34,69.6933,0.0299018
0.0702164,-0.932679,-0.297702,5.44146,6.80354,5.12486,6,0.0184328,0.00122102,43,63.8465,0.0872669
0.409374,0.796734,-0.356215,5.47778,6.87767,5.12006,7,0.0972417,0.00644148,53,68.4784,0.0432796
0.450529,-0.844465,-0.21164,5.44727,6.80424,5.13437,8,0.0297827,0.00197286,64,87.4271,0.0237699
0.962844,0.00806515,0.230095,5.50706,6.83431,5.13579,9,0.013985,0.000926391,76,101.667,0.0329605
0.157727,0.953711,0.216258,5.46368,6.89127,5.16816,10,0.0208142,0.00137877,89,89.8355,0.0381514
0.856187,-0.389092,0.258475,5.49654,6.82811,5.13716,11,0.0251331,0.00166486,103,96.6188,0.066048
0.562218,0.769004,0.249395,5.44842,6.90429,5.16184,12,0.0566687,0.00375384,118,101.95,0.0777351
0.203902,-0.900105,0.303579,5.45146,6.80929,5.17836,13,0.0763718,0.00505901,134,116.781,0.0554443
0.511052,-0.560914,0.632431,5.47124,6.82788,5.19428,14,0.0426663,0.0028263,151,130.57,0.102276
0.518323,0.101412,0.786499,5.44482,6.85,5.1821,15,0.144499,0.00957192,169,169.264,0.0387706
-0.271316,0.215418,0.901821,5.42731,6.79393,5.12094,16,0.0256733,0.00170065,18,51.2416,0.0310742
,,,,,,,,,25,72.0929,0.0114645
,,,,,,,,,33,92.3911,0.0161407
,,,,,,,,,42,97.7021,0.0189234
,,,,,,,,,52,43.4228,0.0324034
,,,,,,,,,63,98.0893,0.0235253
,,,,,,,,,75,96.9915,0.0162676
,,,,,,,,,88,76.3819,0.0201041
,,,,,,,,,102,109.612,0.0219235
,,,,,,,,,117,80.7674,0.02895
,,,,,,,,,133,131.62,0.0309924
,,,,,,,,,150,140.924,0.0267109
,,,,,,,,,168,130.646,0.0342708
,,,,,,,,,187,139.871,0.0221266
,,,,,,,,,32,25.4564,0.0147126
,,,,,,,,,41,42.3759,0.0234202
,,,,,,,,,51,46.5224,0.0297729
,,,,,,,,,62,89.3479,0.0861787
,,,,,,,,,74,52.8511,0.0430103
,,,,,,,,,87,97.5087,0.0236885
,,,,,,,,,101,126.711,0.032804
,,,,,,,,,116,89.5669,0.0379419
,,,,,,,,,132,121.08,0.0654228
,,,,,,,,,149,82.1701,0.0768705
,,,,,,,,,167,106.679,0.055003
,,,,,,,,,186,138.251,0.100784
,,,,,,,,,206,163.407,0.0385543
,,,,,,,,,50,21.088,0.0102309
,,,,,,,,,61,31.9581,0.0112825
,,,,,,,,,73,113.625,0.015004
,,,,,,,,,86,49.8659,0.0127722
,,,,,,,,,100,111.905,0.0102818
,,,,,,,,,115,147.872,0.0116919
,,,,,,,,,131,95.5108,0.0122849
,,,,,,,,,148,146.449,0.0142187
,,,,,,,,,166,67.9911,0.0146942
,,,,,,,,,185,99.4714,0.0136564
,,,,,,,,,205,140.041,0.0153924
,,,,,,,,,226,137.961,0.0123484
,,,,,,,,,72,14.5082,0.0157824
,,,,,,,,,85,131.409,0.0241674
,,,,,,,,,99,37.5579,0.0188592
,,,,,,,,,114,104.585,0.013891
,,,,,,,,,130,168.763,0.0165952
,,,,,,,,,147,83.3018,0.0178157
,,,,,,,,,165,153.475,0.0221929
,,,,,,,,,184,47.4382,0.0233737
,,,,,,,,,204,80.0366,0.0208529
,,,,,,,,,225,121.115,0.0251912
,,,,,,,,,247,122.336,0.0179496
,,,,,,,,,98,130.008,0.030991
,,,,,,,,,113,23.5165,0.0227719
,,,,,,,,,129,90.4961,0.0159037
,,,,,,,,,146,165.856,0.0195512
,,,,,,,,,164,68.8082,0.0212677
,,,,,,,,,183,141.081,0.0278173
,,,,,,,,,203,36.8156,0.0296978
,,,,,,,,,224,67.5182,0.0257437
,,,,,,,,,246,108.323,0.0326949
,,,,,,,,,269,121.004,0.0214588
,,,,,,,,,128,115.916,0.0455994
,,,,,,,,,145,70.496,0.0244532
,,,,,,,,,163,38.4913,0.0342889
,,,,,,,,,182,93.1446,0.0399426
,,,,,,,,,202,37.4081,0.0716073
,,,,,,,,,223,142.378,0.0855523
,,,,,,,,,245,119.091,0.0593096
,,,,,,,,,268,89.1955,0.116251
,,,,,,,,,292,106.255,0.0406219
,,,,,,,,,162,67.0576,0.0190328
,,,,,,,,,181,143.455,0.0245036
,,,,,,,,,201,46.376,0.027261
,,,,,,,,,222,117.713,0.039045
,,,,,,,,,244,34.1962,0.0428537
,,,,,,,,,267,53.933,0.0350789
,,,,,,,,,291,91.146,0.0493864
,,,,,,,,,316,121.515,0.0275758
,,,,,,,,,200,77.6754,0.0167295
,,,,,,,,,221,24.1995,0.0179705
,,,,,,,,,243,51.6459,0.0224336
,,,,,,,,,266,74.3838,0.0236409
,,,,,,,,,290,49.6577,0.0210653
,,,,,,,,,315,43.4531,0.0255018
,,,,,,,,,341,93.1163,0.0181067
,,,,,,,,,242,100.746,0.0227706
,,,,,,,,,265,26.0908,0.0304457
,,,,,,,,,289,142.219,0.0327129
,,,,,,,,,314,108.939,0.0279791
,,,,,,,,,340,68.1965,0.036387
,,,,,,,,,367,68.0518,0.0229898
,,,,,,,,,288,75.1211,0.0348222
,,,,,,,,,313,50.4583,0.03782
,,,,,,,,,339,31.7487,0.0316326
,,,,,,,,,366,48.8837,0.0428186
,,,,,,,,,394,95.0547,0.0254003
,,,,,,,,,338,121.638,0.0650612
,,,,,,,,,365,89.1928,0.0486806
,,,,,,,,,393,52.6827,0.0814104
,,,,,,,,,422,75.5098,0.0353373
,,,,,,,,,392,33.4148,0.0547472
,,,,,,,,,421,74.0347,0.0999286
,,,,,,,,,451,88.501,0.0384285
,,,,,,,,,450,41.0807,0.0658802
,,,,,,,,,481,70.9897,0.0320571
,,,,,,,,,512,49.8204,0.0436002
