Q	U	V
{$V$}	{[mm$^3$]}	0.00476641
{$d_v$}	{[mm]}	0.208800
{$S_c$}	{[mm$^2$]}	0.207501
{$S_o$}	{[mm$^2$]}	0.138733
{$S_l/S_o$}	[]	0.495686
{$\Psi$}	[]	0.660072
{$\eta$}	[]	0.697100
{med($\theta_e$)}	{[$^\circ$]}	61.11965
{$\Upsilon$}	[]	14
{$\Xi$}	[]	7
