"cellPairingIds","interplanarAngles","angleWeights"
13,62.1643,0.017583
19,126.688,0.0181756
26,53.2748,0.0184918
32,145.809,0.0885364
41,41.535,0.0965813
62,28.2813,0.0601945
50,172.656,0.117653
73,146.3,0.067758
148,135.646,0.0338554
85,38.5766,0.0723715
165,39.8109,0.0349692
202,48.0153,0.0286899
