facetNormals:0,facetNormals:1,facetNormals:2,FacetCenters:0,FacetCenters:1,FacetCenters:2,FacetIds,relFacetSize,absFacetSize,cellPairingIds,interplanarAngles,angleWeights
0.0245388,-0.695101,-0.635662,7.01469,7.00521,7.66617,1,0.101406,0.0258347,8,56.3366,0.107675
-0.546907,-0.020613,-0.784587,6.94954,6.98512,7.58774,2,0.114771,0.0292397,13,53.0904,0.0377682
0.635718,-0.103472,-0.726845,6.98767,7.04466,7.67529,3,0.0232055,0.00591196,19,103.782,0.00936647
-0.46161,0.736555,-0.473671,6.99396,7.04847,7.59715,4,0.00490999,0.0012509,26,46.1278,0.078117
-0.680375,-0.556971,-0.416904,6.95945,6.90935,7.6281,5,0.0635275,0.0161846,34,162.407,0.115661
0.117129,0.832425,0.4256,7.0325,7.04429,7.66231,6,0.134581,0.0342865,43,116.295,0.0422695
-0.863239,0.151963,0.446419,6.87672,6.96959,7.67993,7,0.0266994,0.00680208,53,76.4261,0.0504677
-0.609478,-0.657394,0.359339,6.99803,6.90256,7.67535,8,0.0335932,0.0085584,64,81.4546,0.0986798
0.00175488,-0.737689,0.597623,7.01664,6.90008,7.70422,9,0.0960968,0.0244821,76,157.853,0.0627268
-0.388122,0.658935,0.593632,6.965,7.03407,7.68217,10,0.0454072,0.0115682,89,115.072,0.0788656
0.648994,-0.0666043,0.698033,7.10872,6.93184,7.70114,11,0.0645236,0.0164384,103,133.237,0.0700014
-0.367699,0.0703385,0.87923,6.95272,6.94299,7.73525,12,0.0534488,0.0136169,18,76.0015,0.0386054
,,,,,,,,,25,49.9839,0.00941711
,,,,,,,,,33,40.2312,0.0817855
,,,,,,,,,42,117.424,0.123889
,,,,,,,,,52,82.7515,0.0433209
,,,,,,,,,63,85.969,0.0519738
,,,,,,,,,75,120.039,0.104607
,,,,,,,,,88,106.761,0.0650705
,,,,,,,,,102,170.415,0.0826064
,,,,,,,,,117,122.427,0.0729329
,,,,,,,,,32,91.5128,0.00810506
,,,,,,,,,41,94.3616,0.0339937
,,,,,,,,,51,110.537,0.0395853
,,,,,,,,,62,158.528,0.0248301
,,,,,,,,,74,128.246,0.0274495
,,,,,,,,,87,112.776,0.0373836
,,,,,,,,,101,142.55,0.0307143
,,,,,,,,,116,95.4354,0.0341347
,,,,,,,,,132,161.5,0.032361
,,,,,,,,,50,83.9635,0.00911546
,,,,,,,,,61,67.4653,0.00947433
,,,,,,,,,73,72.1206,0.00829461
,,,,,,,,,86,112.968,0.00856772
,,,,,,,,,100,151.666,0.00934263
,,,,,,,,,115,66.4236,0.00886174
,,,,,,,,,131,135.905,0.00912556
,,,,,,,,,148,101.891,0.00899378
,,,,,,,,,72,141.823,0.0863121
,,,,,,,,,85,70.6869,0.0375973
,,,,,,,,,99,47.8232,0.0439472
,,,,,,,,,114,79.9937,0.0764894
,,,,,,,,,130,111.837,0.0529603
,,,,,,,,,147,138.419,0.0640217
,,,,,,,,,165,99.6298,0.058054
,,,,,,,,,98,76.5622,0.0445588
,,,,,,,,,113,120.78,0.0537658
,,,,,,,,,129,113.697,0.112129
,,,,,,,,,146,34.0588,0.0679039
,,,,,,,,,164,69.338,0.0872269
,,,,,,,,,183,64.3553,0.0765112
,,,,,,,,,128,51.865,0.0297522
,,,,,,,,,145,80.5596,0.0417884
,,,,,,,,,163,42.6697,0.0336265
,,,,,,,,,182,105.98,0.0377699
,,,,,,,,,202,39.9493,0.0356103
,,,,,,,,,162,40.3646,0.0497833
,,,,,,,,,181,88.9774,0.0386169
,,,,,,,,,201,96.2796,0.0441832
,,,,,,,,,222,57.653,0.0412563
,,,,,,,,,200,98.2573,0.061673
,,,,,,,,,221,58.9819,0.077207
,,,,,,,,,243,58.583,0.0686915
,,,,,,,,,242,82.6334,0.0533033
,,,,,,,,,265,39.7775,0.049101
,,,,,,,,,288,66.0654,0.0584664
