facetNormals:0,facetNormals:1,facetNormals:2,FacetCenters:0,FacetCenters:1,FacetCenters:2,FacetIds,relFacetSize,absFacetSize,cellPairingIds,interplanarAngles,angleWeights
0.244325,0.176774,-0.939313,3.80541,4.96669,5.3174,1,0.013058,0.00182737,8,43.6457,0.0167875
-0.473548,0.134343,-0.833701,3.67143,5.08406,5.29513,2,0.023499,0.0032885,13,51.366,0.0243064
-0.203989,-0.530033,-0.791728,3.74476,5.0251,5.29505,3,0.175394,0.024545,19,68.7352,0.0199912
-0.663619,-0.373824,-0.616133,3.6629,5.08547,5.29754,4,0.0426209,0.00596447,26,99.1701,0.0144439
-0.644145,-0.74937,-0.141492,3.67952,4.97967,5.38081,5,0.0161589,0.00226132,34,59.3737,0.0191328
0.294573,0.827685,-0.257441,3.77723,4.94109,5.40899,6,0.0357764,0.00500663,43,78.8833,0.0228269
0.940428,-0.220785,0.00744298,3.86239,5.00601,5.37719,7,0.0906236,0.0126821,53,106.535,0.0233891
-0.0932362,-0.936137,0.0818333,3.77011,4.96041,5.38808,8,0.112,0.0156736,64,91.2632,0.0151541
0.573163,0.705252,0.303998,3.80291,5.03528,5.38127,9,0.0180518,0.0025262,76,140.444,0.022951
-0.661503,-0.480049,0.523605,3.68497,5.01283,5.44477,10,0.0946904,0.0132512,89,137.815,0.0213076
0.365975,-0.491328,0.766179,3.80392,5.02707,5.483,11,0.0578639,0.0080976,103,147.326,0.0159602
-0.502346,0.287725,0.787753,3.73625,5.10396,5.50717,12,0.0205211,0.00287176,118,154.986,0.0218497
0.179551,-0.153709,0.943618,3.78564,5.06473,5.50241,13,0.0668763,0.00935882,18,43.396,0.0414452
,,,,,,,,,25,34.9209,0.0302949
,,,,,,,,,33,70.5184,0.0191497
,,,,,,,,,42,77.8647,0.0283662
,,,,,,,,,52,120.964,0.0373206
,,,,,,,,,63,99.4326,0.0388474
,,,,,,,,,75,117.62,0.0204183
,,,,,,,,,88,101.525,0.0376536
,,,,,,,,,102,157.594,0.0334242
,,,,,,,,,117,113.685,0.0219093
,,,,,,,,,133,161.354,0.0347778
,,,,,,,,,32,30.6358,0.0685775
,,,,,,,,,41,48.805,0.0295916
,,,,,,,,,51,109.31,0.0594303
,,,,,,,,,62,94.9187,0.119502
,,,,,,,,,74,60.6909,0.136705
,,,,,,,,,87,141.567,0.0327344
,,,,,,,,,101,91.5251,0.122985
,,,,,,,,,116,116.122,0.0870193
,,,,,,,,,132,135.015,0.0367432
,,,,,,,,,149,137.808,0.0968315
,,,,,,,,,50,35.64,0.0234335
,,,,,,,,,61,112.712,0.0388999
,,,,,,,,,73,125.245,0.0579755
,,,,,,,,,86,67.0048,0.0617452
,,,,,,,,,100,152.312,0.0253617
,,,,,,,,,115,71.8749,0.0587831
,,,,,,,,,131,123.559,0.0490863
,,,,,,,,,148,105.724,0.0277035
,,,,,,,,,166,132.439,0.0520621
,,,,,,,,,72,147.829,0.0222626
,,,,,,,,,85,117.239,0.0274274
,,,,,,,,,99,37.2874,0.0282431
,,,,,,,,,114,169.54,0.017053
,,,,,,,,,130,42.731,0.0276068
,,,,,,,,,147,88.5935,0.025263
,,,,,,,,,165,90.2049,0.0180806
,,,,,,,,,184,97.9309,0.0260287
,,,,,,,,,98,84.0049,0.0513004
,,,,,,,,,113,162.25,0.05423
,,,,,,,,,129,39.7702,0.0239959
,,,,,,,,,146,144.895,0.0519317
,,,,,,,,,164,123.532,0.0442152
,,,,,,,,,183,97.2298,0.0260818
,,,,,,,,,203,110.87,0.0466153
,,,,,,,,,128,82.4657,0.100184
,,,,,,,,,145,65.3858,0.0301065
,,,,,,,,,163,123.11,0.0926124
,,,,,,,,,182,61.0752,0.07063
,,,,,,,,,202,124.146,0.0334644
,,,,,,,,,223,77.0986,0.0769597
,,,,,,,,,162,139.565,0.0310922
,,,,,,,,,181,52.8214,0.10262
,,,,,,,,,201,58.1735,0.0763053
,,,,,,,,,222,99.8578,0.0346867
,,,,,,,,,244,77.1453,0.0837467
,,,,,,,,,200,126.902,0.0303228
,,,,,,,,,221,84.1284,0.0275186
,,,,,,,,,243,80.5093,0.0192074
,,,,,,,,,266,72.4322,0.0284296
,,,,,,,,,242,65.496,0.0718322
,,,,,,,,,265,50.2597,0.0337319
,,,,,,,,,289,61.6002,0.0783892
,,,,,,,,,288,73.1278,0.0302974
,,,,,,,,,313,25.0949,0.0620445
,,,,,,,,,338,50.1853,0.0314054
