Q	U	V
{$V$}	{[mm$^3$]}	0.00347447
{$d_v$}	{[mm]}	0.187916
{$S_c$}	{[mm$^2$]}	0.224988
{$S_o$}	{[mm$^2$]}	0.130957
{$S_l/S_o$}	[]	0.718030
{$\Psi$}	[]	0.49308
{$\eta$}	[]	0.554247
{med($\theta_e$)}	{[$^\circ$]}	82.1869
{$\Upsilon$}	[]	11
{$\Xi$}	[]	9
