Q	U	V
{$V$}	{[mm$^3$]}	0.00456454
{$d_v$}	{[mm]}	0.205810
{$S_c$}	{[mm$^2$]}	0.2763
{$S_o$}	{[mm$^2$]}	0.155546
{$S_l/S_o$}	[]	0.776323
{$\Psi$}	[]	0.481616
{$\eta$}	[]	0.555295
{med($\theta_e$)}	{[$^\circ$]}	53.65405
{$\Upsilon$}	[]	12
{$\Xi$}	[]	9
