Q	U	V
{$V$}	{[mm$^3$]}	0.00125751
{$d_v$}	{[mm]}	0.133918
{$S_c$}	{[mm$^2$]}	0.103222
{$S_o$}	{[mm$^2$]}	0.053278
{$S_l/S_o$}	[]	0.937423
{$\Psi$}	[]	0.545824
{$\eta$}	[]	0.657541
{med($\theta_e$)}	{[$^\circ$]}	79.1356
{$\Upsilon$}	[]	19
{$\Xi$}	[]	7
