Q	U	V
{$V$}	{[mm$^3$]}	0.00655708
{$d_v$}	{[mm]}	0.232222
{$S_c$}	{[mm$^2$]}	0.24793
{$S_o$}	{[mm$^2$]}	0.16705
{$S_l/S_o$}	[]	0.484166
{$\Psi$}	[]	0.683327
{$\eta$}	[]	0.688497
{med($\theta_e$)}	{[$^\circ$]}	58.3306
{$\Upsilon$}	[]	16
{$\Xi$}	[]	10
