"cellPairingIds","interplanarAngles","angleWeights"
8,28.2579,0.0538546
13,69.2071,0.0449914
19,79.4419,0.153917
34,47.8574,0.137046
53,138.188,0.0263565
42,53.5626,0.0494335
52,33.2896,0.0405139
63,121.799,0.0196565
32,28.3527,0.0433138
41,66.6782,0.0156693
74,111.568,0.018338
50,73.009,0.0207946
61,73.8253,0.122584
100,79.8749,0.0785733
131,65.4114,0.0330479
148,65.0877,0.0469237
99,49.1973,0.0125733
147,50.3125,0.0140863
98,52.8216,0.0745644
129,44.2254,0.0739274
146,43.9454,0.0845586
128,112.375,0.0226985
163,49.0038,0.0614257
162,124.771,0.0226391
181,119.227,0.0235457
201,74.1773,0.0162065
200,22.9656,0.0609927
221,72.0204,0.0280676
243,40.0955,0.0374809
288,32.099,0.0226181
