facetNormals:0,facetNormals:1,facetNormals:2,FacetCenters:0,FacetCenters:1,FacetCenters:2,FacetIds,relFacetSize,absFacetSize,cellPairingIds,interplanarAngles,angleWeights
0.338736,0.0345356,-0.926393,5.55702,4.37853,7.6145,1,0.0182769,0.00428868,8,65.2247,0.0228097
-0.657482,0.262151,-0.663918,5.49639,4.3763,7.62825,2,0.0303322,0.00711747,13,45.2228,0.0250217
0.537265,0.616728,-0.499913,5.58985,4.41847,7.67173,3,0.0396562,0.00930536,19,40.9607,0.0332398
0.636708,-0.473823,-0.571908,5.60214,4.29657,7.70212,4,0.183323,0.0430169,26,93.7471,0.0215573
-0.830312,0.466435,-0.218188,5.49942,4.41831,7.67097,5,0.026273,0.00616497,34,88.7735,0.0206003
-0.331438,-0.901872,-0.177094,5.51255,4.17134,7.77643,6,0.0236004,0.00553784,43,98.0414,0.0238588
0.453251,-0.814321,0.280423,5.55305,4.20429,7.90016,7,0.0343494,0.00806011,53,117.138,0.0266165
0.0251372,-0.851828,0.444543,5.5225,4.1812,7.88936,8,0.0489536,0.011487,64,133.461,0.0221437
-0.469991,-0.682971,0.519819,5.45068,4.24478,7.97098,9,0.0280856,0.00659031,76,99.0652,0.0279732
0.846916,-0.0758686,0.46993,5.57069,4.24543,7.92318,10,0.0595843,0.0139815,89,105.191,0.0322626
0.595903,0.569833,0.50975,5.60099,4.35595,7.84035,11,0.137414,0.0322442,103,128.528,0.0304934
-0.149681,0.722605,0.605845,5.49762,4.3476,7.8688,12,0.0919628,0.0215791,118,130.334,0.0239419
0.479433,-0.0996037,0.845141,5.57406,4.26128,7.91446,13,0.0346961,0.00814145,18,81.3238,0.0343732
,,,,,,,,,25,99.8948,0.0520521
,,,,,,,,,33,30.9633,0.0281571
,,,,,,,,,42,84.0028,0.0265462
,,,,,,,,,52,137.617,0.0322161
,,,,,,,,,63,124.996,0.0374562
,,,,,,,,,75,103.094,0.0291657
,,,,,,,,,88,160.495,0.0402001
,,,,,,,,,102,128.13,0.049695
,,,,,,,,,117,97.0913,0.0456182
,,,,,,,,,133,162.183,0.0323677
,,,,,,,,,32,69.0194,0.065207
,,,,,,,,,41,93.021,0.0316062
,,,,,,,,,51,133.588,0.0295906
,,,,,,,,,62,115.312,0.0368126
,,,,,,,,,74,142.817,0.0438172
,,,,,,,,,87,174.413,0.0328828
,,,,,,,,,101,79.2755,0.0476194
,,,,,,,,,116,63.3526,0.0615498
,,,,,,,,,132,86.0931,0.055416
,,,,,,,,,149,103.989,0.0370107
,,,,,,,,,50,130.829,0.0459593
,,,,,,,,,61,70.5933,0.0418173
,,,,,,,,,73,57.321,0.057858
,,,,,,,,,86,79.8697,0.0772728
,,,,,,,,,100,106.566,0.048709
,,,,,,,,,115,71.1905,0.089937
,,,,,,,,,131,101.072,0.157083
,,,,,,,,,148,147.095,0.122483
,,,,,,,,,166,97.8734,0.0583489
,,,,,,,,,72,96.4255,0.0248651
,,,,,,,,,85,149.269,0.0297732
,,,,,,,,,99,123.271,0.0341942
,,,,,,,,,114,92.5023,0.0271491
,,,,,,,,,130,152.392,0.0364665
,,,,,,,,,147,111.052,0.0441119
,,,,,,,,,165,69.3392,0.0408698
,,,,,,,,,184,131.227,0.0299027
,,,,,,,,,98,55.7961,0.027978
,,,,,,,,,113,43.5013,0.0318473
,,,,,,,,,129,44.6919,0.0256484
,,,,,,,,,146,108.138,0.0338094
,,,,,,,,,164,147.831,0.0402824
,,,,,,,,,183,139.503,0.0375614
,,,,,,,,,203,103.251,0.0280923
,,,,,,,,,128,27.5057,0.0403714
,,,,,,,,,145,59.1121,0.0309033
,,,,,,,,,163,52.3603,0.0435772
,,,,,,,,,182,93.0981,0.0549604
,,,,,,,,,202,121.562,0.0500168
,,,,,,,,,223,55.7207,0.0345219
,,,,,,,,,162,31.6065,0.0356933
,,,,,,,,,181,71.5958,0.0537484
,,,,,,,,,201,105.17,0.0721897
,,,,,,,,,222,112.418,0.0638948
,,,,,,,,,244,59.7754,0.0406098
,,,,,,,,,200,96.1561,0.0381765
,,,,,,,,,221,115.226,0.0466389
,,,,,,,,,243,96.6527,0.0430299
,,,,,,,,,266,72.8388,0.0310428
,,,,,,,,,242,41.8967,0.0831247
,,,,,,,,,265,83.6176,0.0723147
,,,,,,,,,289,31.3084,0.0438552
,,,,,,,,,288,46.9838,0.110185
,,,,,,,,,313,45.8288,0.0554032
,,,,,,,,,338,66.7395,0.0503833
