Q	U	V
{$V$}	{[mm$^3$]}	0.00459304
{$d_v$}	{[mm]}	0.206237
{$S_c$}	{[mm$^2$]}	0.264743
{$S_o$}	{[mm$^2$]}	0.149144
{$S_l/S_o$}	[]	0.775083
{$\Psi$}	[]	0.504731
{$\eta$}	[]	0.600099
{med($\theta_e$)}	{[$^\circ$]}	71.0197
{$\Upsilon$}	[]	13
{$\Xi$}	[]	8
