"cellPairingIds","interplanarAngles","angleWeights"
8,75.963,0.0308866
13,67.8327,0.0237318
19,49.9548,0.0235117
103,68.5301,0.016467
118,127.155,0.0313291
18,84.9116,0.0444602
25,35.995,0.0436941
33,72.6845,0.0496645
52,60.1177,0.0677277
133,76.6653,0.0814758
41,29.3771,0.033449
116,62.0369,0.0372968
132,109.279,0.0196684
206,93.6747,0.0303866
166,82.7163,0.0445849
85,27.2724,0.0451076
130,61.7643,0.0372154
147,58.9196,0.0408914
204,70.9642,0.0489267
163,36.2075,0.0465106
223,94.6374,0.0698923
289,61.3827,0.0526065
314,45.4893,0.0505817
339,36.0058,0.0576221
394,38.8813,0.036406
338,99.8245,0.0246157
422,65.172,0.0194179
392,78.2544,0.0795088
451,97.1117,0.0440708
481,48.6161,0.0426408
