"cellPairingIds","interplanarAngles","angleWeights"
8,64.0686,0.0228913
13,64.8319,0.0864695
19,37.055,0.0821261
18,118.333,0.0196279
25,51.9586,0.019395
33,117.995,0.0189287
42,76.2709,0.0185986
63,65.1962,0.0194138
88,150.495,0.0216255
32,98.9792,0.0514413
41,24.9585,0.0482862
51,109.328,0.0461944
62,40.0495,0.0435542
87,93.6534,0.0559463
101,90.9534,0.0708131
61,33.5856,0.0449251
85,33.7175,0.0402548
130,86.7573,0.0624863
113,50.8171,0.0450258
129,59.5338,0.0483234
163,53.9124,0.0547838
162,73.2322,0.0542412
181,88.72,0.0681034
200,40.3961,0.0759419
