Q	U	V
{$V$}	{[mm$^3$]}	0.00551331
{$d_v$}	{[mm]}	0.219182
{$S_c$}	{[mm$^2$]}	0.370956
{$S_o$}	{[mm$^2$]}	0.200007
{$S_l/S_o$}	[]	0.854715
{$\Psi$}	[]	0.406852
{$\eta$}	[]	0.433127
{med($\theta_e$)}	{[$^\circ$]}	
{$\Upsilon$}	[]	11
{$\Xi$}	[]	7
