Q	U	V
{$V$}	{[mm$^3$]}	0.0126178
{$d_v$}	{[mm]}	0.288843
{$S_c$}	{[mm$^2$]}	0.537803
{$S_o$}	{[mm$^2$]}	0.342785
{$S_l/S_o$}	[]	0.568922
{$\Psi$}	[]	0.48736
{$\eta$}	[]	0.527602
{med($\theta_e$)}	{[$^\circ$]}	91.06435
{$\Upsilon$}	[]	9
{$\Xi$}	[]	7
