Q	U	V
{$V$}	{[mm$^3$]}	0.00516658
{$d_v$}	{[mm]}	0.214487
{$S_c$}	{[mm$^2$]}	0.273757
{$S_o$}	{[mm$^2$]}	0.179945
{$S_l/S_o$}	[]	0.521337
{$\Psi$}	[]	0.527944
{$\eta$}	[]	0.556596
{med($\theta_e$)}	{[$^\circ$]}	77.66
{$\Upsilon$}	[]	11
{$\Xi$}	[]	11
