"cellPairingIds","interplanarAngles","angleWeights"
18,65.8735,0.0977216
25,62.893,0.0522199
33,47.3124,0.0485906
42,131.968,0.103214
88,79.7489,0.0642335
102,56.0769,0.0929523
207,140.059,0.0654977
51,95.0631,0.0701639
74,79.1124,0.017988
101,36.7409,0.0496724
50,22.8712,0.0293595
61,102.015,0.0431612
148,34.1846,0.030205
147,35.732,0.0389576
165,39.7345,0.0289541
113,37.5907,0.0181659
183,104.861,0.0422906
203,37.7702,0.0385
293,85.8558,0.0518487
181,78.7919,0.0164129
342,57.9965,0.0164943
395,73.0586,0.0397354
288,48.094,0.0404604
423,97.3504,0.0491244
338,82.9161,0.0278458
452,95.9872,0.0342173
482,57.6524,0.0316926
