"cellPairingIds","interplanarAngles","angleWeights"
13,53.0904,0.0377682
19,103.782,0.00936647
53,76.4261,0.0504677
64,81.4546,0.0986798
76,157.853,0.0627268
32,91.5128,0.00810506
51,110.537,0.0395853
87,112.776,0.0373836
116,95.4354,0.0341347
61,67.4653,0.00947433
115,66.4236,0.00886174
146,34.0588,0.0679039
164,69.338,0.0872269
183,64.3553,0.0765112
162,40.3646,0.0497833
181,88.9774,0.0386169
222,57.653,0.0412563
221,58.9819,0.077207
243,58.583,0.0686915
265,39.7775,0.049101
288,66.0654,0.0584664
