Q	U	V
{$V$}	{[mm$^3$]}	0.00720543
{$d_v$}	{[mm]}	0.239637
{$S_c$}	{[mm$^2$]}	0.248607
{$S_o$}	{[mm$^2$]}	0.166011
{$S_l/S_o$}	[]	0.497533
{$\Psi$}	[]	0.725678
{$\eta$}	[]	0.738668
{med($\theta_e$)}	{[$^\circ$]}	50.1979
{$\Upsilon$}	[]	15
{$\Xi$}	[]	12
