"cellPairingIds","interplanarAngles","angleWeights"
19,67.2692,0.0454062
26,53.9298,0.0251334
34,96.7344,0.0436959
43,125.229,0.0406587
53,103.531,0.0362185
64,93.404,0.0320469
73,116.399,0.111911
86,40.2859,0.0836756
72,87.5132,0.0400153
114,64.085,0.0300217
130,115.463,0.03894
98,54.4691,0.102065
146,59.2852,0.113918
128,108.72,0.0688588
163,46.5223,0.0953487
182,71.4485,0.0606103
162,48.5349,0.0473221
201,49.6686,0.0512451
200,100.771,0.0584893
221,70.2999,0.0432747
242,51.2528,0.0646019
