facetNormals:0,facetNormals:1,facetNormals:2,FacetCenters:0,FacetCenters:1,FacetCenters:2,FacetIds,relFacetSize,absFacetSize,cellPairingIds,interplanarAngles,angleWeights
-0.319144,0.498869,-0.741567,4.66851,5.31475,4.45132,1,0.0820939,0.00887398,8,39.1262,0.0829466
-0.697731,-0.0173678,-0.676129,4.63097,5.22149,4.42049,2,0.0838173,0.00906027,13,48.0429,0.061045
-0.885117,0.387525,-0.20318,4.61111,5.26485,4.46337,3,0.0485873,0.00525206,19,113.377,0.0332123
0.941617,-0.108766,0.00291196,4.64664,5.17463,4.39841,4,0.0208171,0.00225023,26,108.932,0.0424631
-0.269582,-0.929429,-0.105054,4.6479,5.14739,4.44752,5,0.0286381,0.00309565,34,66.6393,0.0578316
0.335147,0.91866,-0.0225883,4.7214,5.36635,4.50995,6,0.0446389,0.00482526,43,82.5352,0.0722331
-0.9492,-0.014009,0.236424,4.63254,5.27811,4.54912,7,0.0644872,0.00697077,53,60.337,0.066435
-0.70638,0.657964,0.129734,4.63674,5.3235,4.50994,8,0.0557929,0.00603096,64,75.6774,0.0263442
-0.188418,0.892169,0.36976,4.67276,5.35012,4.52245,9,0.0156895,0.00169596,76,123.649,0.081616
-0.548891,-0.629628,0.504712,4.63764,5.16891,4.51421,10,0.0811437,0.00877126,89,99.2582,0.0774116
-0.73716,0.155004,0.622755,4.63095,5.25842,4.54816,11,0.0732346,0.00791633,103,109.658,0.0940841
0.11513,0.578358,0.750394,4.69567,5.31159,4.559,12,0.110176,0.0119095,118,161.161,0.0386797
0.0139809,-0.553591,0.807741,4.66542,5.2049,4.54772,13,0.0253001,0.00273483,134,146.5,0.0455878
0.0583404,-0.0656338,0.968034,4.66203,5.22198,4.52664,14,0.0315555,0.00341101,18,38.7549,0.0615153
,,,,,,,,,25,135.509,0.033351
,,,,,,,,,33,73.0817,0.0426902
,,,,,,,,,42,104.285,0.0582535
,,,,,,,,,52,58.0778,0.0728925
,,,,,,,,,63,65.4193,0.0669924
,,,,,,,,,75,98.0583,0.0264314
,,,,,,,,,88,86.8167,0.0824588
,,,,,,,,,102,84.527,0.0781694
,,,,,,,,,117,130.13,0.0952059
,,,,,,,,,133,125.031,0.038868
,,,,,,,,,150,137.293,0.0458496
,,,,,,,,,32,159.421,0.0291464
,,,,,,,,,41,95.9854,0.036036
,,,,,,,,,51,86.2034,0.0465295
,,,,,,,,,62,35.4693,0.0554193
,,,,,,,,,74,27.3973,0.0519414
,,,,,,,,,87,63.2436,0.0237196
,,,,,,,,,101,81.6888,0.0607804
,,,,,,,,,116,52.6091,0.0584176
,,,,,,,,,132,91.839,0.0674356
,,,,,,,,,149,113.852,0.033274
,,,,,,,,,167,106.574,0.0382616
,,,,,,,,,50,99.5485,0.0241092
,,,,,,,,,61,76.5539,0.0283931
,,,,,,,,,73,164.04,0.031474
,,,,,,,,,86,142.895,0.030321
,,,,,,,,,100,107.044,0.0178932
,,,,,,,,,115,118.887,0.0331338
,,,,,,,,,131,139.95,0.032419
,,,,,,,,,148,86.9783,0.0350177
,,,,,,,,,166,85.3207,0.0228407
,,,,,,,,,185,85.9612,0.0250854
,,,,,,,,,72,171.547,0.0348915
,,,,,,,,,85,75.1496,0.0396625
,,,,,,,,,99,117.291,0.0378487
,,,,,,,,,114,148.567,0.0202726
,,,,,,,,,130,44.2794,0.0423349
,,,,,,,,,147,90.6482,0.0411749
,,,,,,,,,165,134.177,0.0454598
,,,,,,,,,184,63.4641,0.0268658
,,,,,,,,,204,93.4187,0.0300261
,,,,,,,,,98,110.577,0.052758
,,,,,,,,,113,67.4885,0.0495965
,,,,,,,,,129,38.9881,0.0232183
,,,,,,,,,146,144.152,0.0575941
,,,,,,,,,164,97.1341,0.0554682
,,,,,,,,,183,53.6779,0.0635357
,,,,,,,,,203,123.028,0.0322959
,,,,,,,,,224,93.7757,0.0369739
,,,,,,,,,128,43.4344,0.0598258
,,,,,,,,,145,74.7148,0.0252385
,,,,,,,,,163,47.163,0.0718629
,,,,,,,,,182,27.9319,0.0685831
,,,,,,,,,202,86.3138,0.0813559
,,,,,,,,,223,78.839,0.0363422
,,,,,,,,,245,79.4315,0.0423754
,,,,,,,,,162,36.7346,0.0244917
,,,,,,,,,181,87.6528,0.0661217
,,,,,,,,,201,42.3555,0.0633349
,,,,,,,,,222,64.7479,0.0740745
,,,,,,,,,244,106.4,0.0348135
,,,,,,,,,267,87.5064,0.0403115
,,,,,,,,,200,106.435,0.0262948
,,,,,,,,,221,58.1523,0.0258426
,,,,,,,,,243,34.7313,0.0274675
,,,,,,,,,266,101.849,0.0193681
,,,,,,,,,290,72.4504,0.0209584
,,,,,,,,,242,49.3528,0.0769866
,,,,,,,,,265,92.9917,0.093457
,,,,,,,,,289,38.4454,0.0385733
,,,,,,,,,314,58.3419,0.0454401
,,,,,,,,,288,59.5951,0.087985
,,,,,,,,,313,64.8421,0.037608
,,,,,,,,,339,54.6486,0.0441064
,,,,,,,,,338,72.0816,0.0411507
,,,,,,,,,365,41.4644,0.0490598
,,,,,,,,,392,30.6345,0.0280837
