facetNormals:0,facetNormals:1,facetNormals:2,FacetCenters:0,FacetCenters:1,FacetCenters:2,FacetIds,relFacetSize,absFacetSize,cellPairingIds,interplanarAngles,angleWeights
0.597157,0.305724,-0.726802,7.66336,4.63348,7.61905,1,0.0050587,0.000278096,8,22.8688,0.00929948
0.382628,0.625417,-0.657,7.64772,4.67059,7.61364,2,0.0575157,0.00316186,13,89.1368,0.00894063
-0.755087,0.00934552,-0.636716,7.63245,4.63904,7.77132,3,0.0384339,0.00211286,19,48.4872,0.0097252
-0.0866872,0.727812,-0.646771,7.59926,4.7039,7.63438,4,0.125439,0.00689587,26,101.444,0.00489488
-0.589653,-0.613237,-0.478837,7.55901,4.67792,7.68292,5,0.00474135,0.00026065,34,24.072,0.00738064
0.865371,0.185102,-0.438036,7.6707,4.62825,7.64377,6,0.0136426,0.000749984,43,37.245,0.00922107
0.761307,0.59102,-0.190115,7.65205,4.67989,7.65556,7,0.0520422,0.00286095,53,59.7004,0.00819343
0.184605,0.966564,-0.122603,7.60083,4.73799,7.68935,8,0.021543,0.0011843,64,127.679,0.0065402
-0.729957,-0.643641,-0.0594632,7.57585,4.64682,7.71893,9,0.00924885,0.000508444,76,116.268,0.00948798
-0.896892,0.309571,-0.0348348,7.56001,4.69205,7.70479,10,0.0762561,0.00419208,89,50.4522,0.00905572
0.977906,0.16822,0.0143356,7.64029,4.6646,7.69729,11,0.0431489,0.00237206,103,76.1657,0.0088231
0.340866,0.853274,0.322145,7.60595,4.72611,7.72127,12,0.0344848,0.00189576,118,72.7837,0.00964141
0.879569,0.140099,0.389973,7.64874,4.65266,7.69092,13,0.102467,0.00563299,134,159.062,0.00926241
-0.808143,-0.0816142,0.544771,7.56496,4.67881,7.73854,14,0.0548031,0.00301273,151,96.1553,0.00876793
0.421522,0.532258,0.713992,7.61037,4.70256,7.74027,15,0.0328679,0.00180687,169,96.5255,0.0097511
0.687719,-0.0241995,0.707509,7.63111,4.64833,7.74112,16,0.134668,0.00740321,188,138.819,0.00569871
-0.399079,0.351983,0.830058,7.58302,4.69064,7.75671,17,0.00652414,0.000358656,208,121.631,0.00513409
-0.091977,0.506537,0.841688,7.58598,4.69098,7.75962,18,0.00521177,0.00028651,18,82.005,0.0460774
,,,,,,,,,25,28.3473,0.0788689
,,,,,,,,,33,107.847,0.00876051
,,,,,,,,,42,40.9084,0.022054
,,,,,,,,,52,35.6535,0.0546422
,,,,,,,,,63,39.279,0.0313453
,,,,,,,,,75,132.04,0.0159352
,,,,,,,,,88,97.789,0.0655732
,,,,,,,,,102,61.2466,0.0493071
,,,,,,,,,117,61.8368,0.0431175
,,,,,,,,,133,79.8943,0.0736762
,,,,,,,,,150,138.236,0.0561267
,,,,,,,,,168,88.5186,0.0418311
,,,,,,,,,187,102.894,0.0806055
,,,,,,,,,207,119.495,0.011719
,,,,,,,,,228,106.224,0.00955749
,,,,,,,,,32,59.9111,0.0588397
,,,,,,,,,41,39.469,0.00844134
,,,,,,,,,51,112.472,0.0201372
,,,,,,,,,62,117.515,0.0442147
,,,,,,,,,74,93.0606,0.02761
,,,,,,,,,87,52.7435,0.0149098
,,,,,,,,,101,41.5077,0.0511086
,,,,,,,,,116,139.554,0.0406552
,,,,,,,,,132,118.203,0.0363524
,,,,,,,,,149,161.574,0.0559004
,,,,,,,,,167,74.2273,0.0451816
,,,,,,,,,186,142.098,0.0354337
,,,,,,,,,206,174.262,0.0598009
,,,,,,,,,227,103.29,0.0111548
,,,,,,,,,249,118.28,0.00917885
,,,,,,,,,50,95.1408,0.00913732
,,,,,,,,,61,69.1838,0.0246088
,,,,,,,,,73,59.518,0.0735641
,,,,,,,,,86,37.7194,0.0367709
,,,,,,,,,100,112.629,0.0172275
,,,,,,,,,115,69.4632,0.094851
,,,,,,,,,131,88.323,0.0642105
,,,,,,,,,148,66.2637,0.0540975
,,,,,,,,,166,103.787,0.112795
,,,,,,,,,185,110.941,0.0762802
,,,,,,,,,205,96.6149,0.0520877
,,,,,,,,,226,123.666,0.12989
,,,,,,,,,248,104.793,0.0124032
,,,,,,,,,271,100.016,0.0100077
,,,,,,,,,72,115.437,0.00703704
,,,,,,,,,85,138.685,0.0086909
,,,,,,,,,99,131.612,0.00777214
,,,,,,,,,114,26.261,0.00626896
,,,,,,,,,130,67.4338,0.0089276
,,,,,,,,,147,135.135,0.00854386
,,,,,,,,,165,157.551,0.0083365
,,,,,,,,,184,146.476,0.00906331
,,,,,,,,,204,73.8412,0.00872761
,,,,,,,,,225,162.401,0.00828722
,,,,,,,,,247,139.207,0.00916018
,,,,,,,,,270,113.123,0.00549168
,,,,,,,,,294,133.205,0.00496544
,,,,,,,,,98,28.6199,0.0216181
,,,,,,,,,113,66.3771,0.0167058
,,,,,,,,,129,138.835,0.0110241
,,,,,,,,,146,138.632,0.0231445
,,,,,,,,,164,27.254,0.0207307
,,,,,,,,,183,71.0758,0.0195507
,,,,,,,,,203,50.0663,0.0240792
,,,,,,,,,224,170.718,0.0218467
,,,,,,,,,246,81.0985,0.0192818
,,,,,,,,,269,73.2577,0.0247753
,,,,,,,,,293,131.396,0.00882703
,,,,,,,,,318,111.34,0.00754224
,,,,,,,,,128,41.0085,0.030472
,,,,,,,,,145,164.918,0.0157064
,,,,,,,,,163,121.925,0.0618642
,,,,,,,,,182,30.3601,0.0471801
,,,,,,,,,202,42.7341,0.0414822
,,,,,,,,,223,44.7538,0.0690264
,,,,,,,,,245,142.974,0.053387
,,,,,,,,,268,58.9144,0.0402901
,,,,,,,,,292,67.262,0.0750727
,,,,,,,,,317,105.178,0.0115947
,,,,,,,,,343,85.898,0.00947469
,,,,,,,,,162,140.83,0.0129416
,,,,,,,,,181,81.5766,0.0335951
,,,,,,,,,201,69.703,0.028738
,,,,,,,,,222,28.5445,0.0265192
,,,,,,,,,244,74.9735,0.0356011
,,,,,,,,,267,107.7,0.0309282
,,,,,,,,,291,58.8955,0.0260269
,,,,,,,,,316,89.0151,0.037144
,,,,,,,,,342,80.2979,0.0100152
,,,,,,,,,369,67.816,0.00839305
,,,,,,,,,200,60.3818,0.0164969
,,,,,,,,,221,148.27,0.0152326
,,,,,,,,,243,149.404,0.0145858
,,,,,,,,,266,142.83,0.0169663
,,,,,,,,,290,50.2276,0.0158267
,,,,,,,,,315,136.146,0.0144356
,,,,,,,,,341,123.312,0.0173089
,,,,,,,,,368,89.082,0.00765115
,,,,,,,,,396,108.732,0.00666678
,,,,,,,,,242,151.179,0.0551127
,,,,,,,,,265,93.2738,0.0474924
,,,,,,,,,289,145.315,0.0874395
,,,,,,,,,314,42.8689,0.0637738
,,,,,,,,,340,104.749,0.0459364
,,,,,,,,,367,133.83,0.097374
,,,,,,,,,395,62.1048,0.0120199
,,,,,,,,,424,77.0469,0.00975671
,,,,,,,,,288,60.1118,0.0383334
,,,,,,,,,313,22.8288,0.060726
,,,,,,,,,339,145.12,0.0482827
,,,,,,,,,366,58.4242,0.0373132
,,,,,,,,,394,46.1448,0.0653568
,,,,,,,,,423,109.037,0.0113345
,,,,,,,,,453,89.571,0.0093002
,,,,,,,,,338,54.8533,0.0516028
,,,,,,,,,365,100.26,0.0423321
,,,,,,,,,393,30.3513,0.033657
,,,,,,,,,422,62.6373,0.0549089
,,,,,,,,,452,63.2767,0.0109724
,,,,,,,,,483,45.6118,0.00905503
,,,,,,,,,392,122.42,0.0714123
,,,,,,,,,421,40.9294,0.049771
,,,,,,,,,451,23.8887,0.116381
,,,,,,,,,482,88.6853,0.0122672
,,,,,,,,,514,70.6218,0.00991902
,,,,,,,,,450,89.7103,0.0410915
,,,,,,,,,481,100.045,0.0779035
,,,,,,,,,513,39.3229,0.0116602
,,,,,,,,,546,59.3787,0.00951834
,,,,,,,,,512,36.454,0.0528395
,,,,,,,,,545,50.968,0.0108872
,,,,,,,,,579,31.1681,0.00899692
,,,,,,,,,578,71.7778,0.0124453
,,,,,,,,,613,57.7251,0.0100352
,,,,,,,,,648,20.0857,0.00579457
