Q	U	V
{$V$}	{[mm$^3$]}	0.00429737
{$d_v$}	{[mm]}	0.201713
{$S_c$}	{[mm$^2$]}	0.206021
{$S_o$}	{[mm$^2$]}	0.132439
{$S_l/S_o$}	[]	0.555592
{$\Psi$}	[]	0.620451
{$\eta$}	[]	0.688639
{med($\theta_e$)}	{[$^\circ$]}	51.42505
{$\Upsilon$}	[]	14
{$\Xi$}	[]	6
