Q	U	V
{$V$}	{[mm$^3$]}	0.00604292
{$d_v$}	{[mm]}	0.225987
{$S_c$}	{[mm$^2$]}	0.245621
{$S_o$}	{[mm$^2$]}	0.167015
{$S_l/S_o$}	[]	0.470652
{$\Psi$}	[]	0.653206
{$\eta$}	[]	0.698189
{med($\theta_e$)}	{[$^\circ$]}	79.6057
{$\Upsilon$}	[]	10
{$\Xi$}	[]	7
