Q	U	V
{$V$}	{[mm$^3$]}	0.00353265
{$d_v$}	{[mm]}	0.188959
{$S_c$}	{[mm$^2$]}	0.230452
{$S_o$}	{[mm$^2$]}	0.118097
{$S_l/S_o$}	[]	0.951379
{$\Psi$}	[]	0.486748
{$\eta$}	[]	0.534415
{med($\theta_e$)}	{[$^\circ$]}	85.0396
{$\Upsilon$}	[]	9
{$\Xi$}	[]	3
