Q	U	V
{$V$}	{[mm$^3$]}	0.00275844
{$d_v$}	{[mm]}	0.174002
{$S_c$}	{[mm$^2$]}	0.168848
{$S_o$}	{[mm$^2$]}	0.0975584
{$S_l/S_o$}	[]	0.730738
{$\Psi$}	[]	0.563331
{$\eta$}	[]	0.620700
{med($\theta_e$)}	{[$^\circ$]}	58.53205
{$\Upsilon$}	[]	14
{$\Xi$}	[]	7
