"cellPairingIds","interplanarAngles","angleWeights"
8,33.0271,0.033298
13,92.4534,0.103782
19,55.8058,0.0915609
26,81.8773,0.0585711
34,102.099,0.0210823
25,40.3411,0.0313548
33,83.0918,0.0262849
52,31.7896,0.0218455
41,64.7354,0.0566622
51,85.5664,0.0208297
101,43.8422,0.0926524
116,52.2235,0.0280669
61,81.1412,0.0202863
73,59.9276,0.0375012
185,83.4039,0.0628561
205,76.8666,0.0858068
85,66.8399,0.0304717
114,31.3297,0.0336015
130,42.7335,0.0548526
165,49.8138,0.0422499
184,52.2065,0.0544353
164,77.0126,0.013619
224,56.5993,0.0190764
145,39.0744,0.0266724
202,44.1011,0.0318472
268,60.272,0.039159
243,24.6231,0.0352818
242,40.3251,0.0276156
289,29.831,0.0868431
313,44.7364,0.0275094
339,71.5311,0.024974
338,49.9839,0.0589866
393,44.8187,0.0610193
392,85.2087,0.0651667
421,69.1065,0.0901714
450,54.7105,0.0676567
