"cellPairingIds","interplanarAngles","angleWeights"
8,45.0988,0.0467643
13,32.8555,0.0547869
103,129.255,0.0163507
18,76.5973,0.136179
88,90.7916,0.0621755
117,162.832,0.0199005
62,101.962,0.02702
87,76.3105,0.00878567
101,164.901,0.0772071
132,102.644,0.021223
145,62.1966,0.00682038
163,78.9329,0.021858
200,116.449,0.00815914
243,30.0374,0.00638046
265,91.8596,0.0179022
