"cellPairingIds","interplanarAngles","angleWeights"
18,82.8811,0.0526908
25,34.7396,0.0226098
33,67.8724,0.0586627
52,61.5226,0.0586269
102,116.561,0.0333985
117,124.109,0.0232312
32,66.2664,0.0251843
41,82.8603,0.0798382
74,60.0518,0.0550003
87,98.464,0.0738676
61,43.0944,0.0284174
86,113.683,0.0230247
115,94.4134,0.0228898
131,107.564,0.0197355
85,74.136,0.0943068
114,81.0826,0.0861647
165,102.471,0.0273282
146,57.9314,0.0718397
164,67.3482,0.0478411
202,62.932,0.0273204
162,54.6335,0.0579305
181,47.4874,0.0451225
222,93.6231,0.0236694
243,56.8609,0.0265924
242,52.6136,0.0340132
265,80.6937,0.0235269
288,38.4313,0.0202073
