Q	U	V
{$V$}	{[mm$^3$]}	0.00469041
{$d_v$}	{[mm]}	0.207684
{$S_c$}	{[mm$^2$]}	0.241061
{$S_o$}	{[mm$^2$]}	0.136988
{$S_l/S_o$}	[]	0.759723
{$\Psi$}	[]	0.562123
{$\eta$}	[]	0.573353
{med($\theta_e$)}	{[$^\circ$]}	
{$\Upsilon$}	[]	15
{$\Xi$}	[]	5
