Q	U	V
{$V$}	{[mm$^3$]}	0.00936183
{$d_v$}	{[mm]}	0.261489
{$S_c$}	{[mm$^2$]}	0.392076
{$S_o$}	{[mm$^2$]}	0.245994
{$S_l/S_o$}	[]	0.593844
{$\Psi$}	[]	0.547883
{$\eta$}	[]	0.588054
{med($\theta_e$)}	{[$^\circ$]}	59.77805
{$\Upsilon$}	[]	12
{$\Xi$}	[]	10
