Q	U	V
{$V$}	{[mm$^3$]}	0.00174911
{$d_v$}	{[mm]}	0.149488
{$S_c$}	{[mm$^2$]}	0.143722
{$S_o$}	{[mm$^2$]}	0.068794
{$S_l/S_o$}	[]	1.089165
{$\Psi$}	[]	0.488471
{$\eta$}	[]	0.542042
{med($\theta_e$)}	{[$^\circ$]}	77.02785
{$\Upsilon$}	[]	11
{$\Xi$}	[]	9
