Q	U	V
{$V$}	{[mm$^3$]}	0.0041715
{$d_v$}	{[mm]}	0.199724
{$S_c$}	{[mm$^2$]}	0.219252
{$S_o$}	{[mm$^2$]}	0.138996
{$S_l/S_o$}	[]	0.577398
{$\Psi$}	[]	0.571569
{$\eta$}	[]	0.607602
{med($\theta_e$)}	{[$^\circ$]}	64.22785
{$\Upsilon$}	[]	10
{$\Xi$}	[]	7
