"cellPairingIds","interplanarAngles","angleWeights"
8,69.1771,0.0325673
13,80.0412,0.0639995
19,32.7259,0.0675852
26,82.5346,0.063262
43,78.9609,0.0772568
18,111.052,0.0285572
52,50.3521,0.0309251
75,65.7577,0.0265223
88,70.526,0.025306
41,31.3333,0.0497042
87,133.347,0.0442016
116,92.7995,0.0832865
50,81.0096,0.0518402
73,72.4424,0.0608768
86,61.862,0.0441763
131,100.016,0.0894633
147,68.2276,0.0820418
128,34.2732,0.0481133
163,40.7882,0.0459677
181,47.3909,0.0357598
201,78.8511,0.0643691
200,25.1361,0.0368698
221,89.2564,0.0680574
242,82.7925,0.0605856
