facetNormals:0,facetNormals:1,facetNormals:2,FacetCenters:0,FacetCenters:1,FacetCenters:2,FacetIds,relFacetSize,absFacetSize,cellPairingIds,interplanarAngles,angleWeights
-0.211295,-0.587193,-0.757705,6.57635,4.84564,6.46694,1,0.0450806,0.0031413,8,43.5612,0.0110495
-0.770819,-0.145328,-0.598888,6.53606,4.91163,6.43804,2,0.00629636,0.000438742,13,46.7713,0.0586193
0.531834,-0.381373,-0.708692,6.58329,4.88381,6.43709,3,0.0837805,0.00583798,19,78.1848,0.0522937
0.542385,0.395289,-0.718363,6.55677,4.97098,6.41469,4,0.0622546,0.00433802,26,102.287,0.0164256
0.176322,0.856367,-0.442636,6.5253,4.99621,6.44121,5,0.0100423,0.000699768,34,32.29,0.0284573
-0.368277,-0.855355,-0.308997,6.57587,4.82713,6.4874,6,0.0207908,0.00144874,43,87.5174,0.0644166
0.910225,0.0617869,-0.356678,6.61204,4.88988,6.47306,7,0.112798,0.00785995,53,60.4433,0.0153384
-0.901813,-0.297077,-0.130795,6.52689,4.95311,6.46676,8,0.00924137,0.000643956,64,114.983,0.0652783
0.803185,0.549737,-0.113833,6.58699,4.96835,6.47631,9,0.118265,0.00824095,76,107.307,0.0272012
1.00088,0.0402549,0.0768893,6.54376,4.96141,6.53677,10,0.0194766,0.00135717,89,143.212,0.0547134
0.482129,0.812317,0.249783,6.54875,5.00501,6.49198,11,0.0695814,0.00484856,103,166.908,0.0168088
0.0283742,0.703196,0.696857,6.56452,4.98066,6.53461,12,0.0103303,0.000719834,118,109.674,0.0505828
-0.476571,-0.300005,0.787724,6.57446,4.85989,6.53967,13,0.0576148,0.0040147,134,137.468,0.0659527
0.0553213,-0.0704008,0.951429,6.5691,4.89453,6.5478,14,0.122816,0.00855802,18,85.7891,0.0117125
,,,,,,,,,25,92.6767,0.0114361
,,,,,,,,,33,89.7203,0.00773992
,,,,,,,,,42,52.2194,0.00966557
,,,,,,,,,52,120.937,0.011927
,,,,,,,,,63,30.3039,0.00748977
,,,,,,,,,75,130.715,0.0119562
,,,,,,,,,88,146.149,0.00951631
,,,,,,,,,102,131.526,0.0115478
,,,,,,,,,117,123.636,0.00782397
,,,,,,,,,133,93.6484,0.0113521
,,,,,,,,,150,129.683,0.0119786
,,,,,,,,,32,46.9968,0.0714311
,,,,,,,,,41,85.0925,0.0179349
,,,,,,,,,51,68.3414,0.0333144
,,,,,,,,,62,40.986,0.0961475
,,,,,,,,,74,107.214,0.0166465
,,,,,,,,,87,71.6129,0.09808
,,,,,,,,,101,61.4975,0.0316058
,,,,,,,,,116,104.149,0.0760237
,,,,,,,,,132,141.428,0.0183927
,,,,,,,,,149,138.289,0.0682766
,,,,,,,,,167,132.097,0.0996103
,,,,,,,,,50,38.6778,0.0172948
,,,,,,,,,61,109.116,0.0311715
,,,,,,,,,73,36.478,0.0802295
,,,,,,,,,86,122.958,0.0160937
,,,,,,,,,100,40.3018,0.0815706
,,,,,,,,,115,59.3472,0.0296707
,,,,,,,,,131,65.1835,0.0657144
,,,,,,,,,148,102.289,0.0177202
,,,,,,,,,166,172.114,0.0598449
,,,,,,,,,185,136.484,0.0826264
,,,,,,,,,72,133.399,0.0135431
,,,,,,,,,85,67.2464,0.0184427
,,,,,,,,,99,112.241,0.00962521
,,,,,,,,,114,46.357,0.0185127
,,,,,,,,,130,79.648,0.0132519
,,,,,,,,,147,45.5886,0.0175515
,,,,,,,,,165,72.0735,0.0101843
,,,,,,,,,184,136.613,0.0171035
,,,,,,,,,204,120.242,0.0185665
,,,,,,,,,98,106.803,0.0351101
,,,,,,,,,113,48.2152,0.0127953
,,,,,,,,,129,139.473,0.0353646
,,,,,,,,,146,115.656,0.0201123
,,,,,,,,,164,172.077,0.0320154
,,,,,,,,,183,148.352,0.0138025
,,,,,,,,,203,78.5433,0.0305554
,,,,,,,,,224,105.726,0.0355616
,,,,,,,,,128,147.583,0.0170831
,,,,,,,,,145,32.9344,0.115467
,,,,,,,,,163,25.7893,0.0332176
,,,,,,,,,182,65.3002,0.0860693
,,,,,,,,,202,100.649,0.0189272
,,,,,,,,,223,140.631,0.0762716
,,,,,,,,,245,108.263,0.117594
,,,,,,,,,162,158.314,0.0171432
,,,,,,,,,181,163.792,0.012535
,,,,,,,,,201,139.187,0.0163158
,,,,,,,,,222,110.063,0.00975554
,,,,,,,,,244,63.3783,0.0159279
,,,,,,,,,267,99.6425,0.0171893
,,,,,,,,,200,33.8855,0.0334453
,,,,,,,,,221,32.7405,0.0876147
,,,,,,,,,243,70.1196,0.0190009
,,,,,,,,,266,132.198,0.0774827
,,,,,,,,,290,96.2883,0.120498
,,,,,,,,,242,57.0117,0.0304343
,,,,,,,,,265,83.6362,0.0135002
,,,,,,,,,289,116.134,0.029112
,,,,,,,,,314,82.4773,0.0336214
,,,,,,,,,288,38.3454,0.0179898
,,,,,,,,,313,107.006,0.0630352
,,,,,,,,,339,77.1832,0.0888339
,,,,,,,,,338,70.2261,0.0175194
,,,,,,,,,365,49.4684,0.0190576
,,,,,,,,,392,36.4616,0.0784346
