facetNormals:0,facetNormals:1,facetNormals:2,FacetCenters:0,FacetCenters:1,FacetCenters:2,FacetIds,relFacetSize,absFacetSize,cellPairingIds,interplanarAngles,angleWeights
-0.640853,0.641264,-0.399683,5.54297,7.32307,6.6407,1,0.0144729,0.00261344,8,44.5934,0.0245706
0.0170902,0.930553,-0.224437,5.63044,7.37507,6.73331,2,0.0812771,0.0146766,13,94.3298,0.0189318
-0.599209,-0.762559,-0.0805717,5.54404,7.15265,6.70984,3,0.0273614,0.00494078,19,45.3682,0.0276696
-0.930752,0.192901,0.130841,5.5353,7.25835,6.74615,4,0.31379,0.0566625,26,158.59,0.0261949
0.326178,-0.812681,0.346928,5.62005,7.20191,6.843,5,0.137815,0.024886,34,82.9973,0.0250308
0.249964,0.762189,0.531306,5.71176,7.35842,6.84881,6,0.0925335,0.0167092,43,120.641,0.017888
0.719197,0.31184,0.576685,5.73067,7.30054,6.87588,7,0.0234125,0.00422771,53,63.6144,0.0165153
-0.278263,0.761779,0.573874,5.62386,7.33478,6.88084,8,0.0192289,0.00347226,64,72.375,0.0202357
-0.50633,0.411211,0.734368,5.61044,7.3186,6.87737,9,0.0336243,0.0060717,76,100.828,0.0205772
-0.435327,-0.189645,0.845175,5.60231,7.24648,6.88815,10,0.0355867,0.00642605,18,138.869,0.0409405
,,,,,,,,,25,81.5975,0.129112
,,,,,,,,,33,156.748,0.102251
,,,,,,,,,42,49.822,0.0865408
,,,,,,,,,52,79.2962,0.0363532
,,,,,,,,,63,52.7818,0.0311001
,,,,,,,,,75,77.1473,0.0475692
,,,,,,,,,88,113.737,0.0495001
,,,,,,,,,32,64.6299,0.0503339
,,,,,,,,,41,64.3825,0.0456581
,,,,,,,,,51,145.735,0.0422345
,,,,,,,,,62,139.043,0.0252334
,,,,,,,,,74,118.437,0.0225854
,,,,,,,,,87,94.1603,0.0301713
,,,,,,,,,101,69.0467,0.0309367
,,,,,,,,,50,117.333,0.191517
,,,,,,,,,61,91,0.142921
,,,,,,,,,73,124.866,0.0435739
,,,,,,,,,86,59.6947,0.0362373
,,,,,,,,,100,46.672,0.0607399
,,,,,,,,,115,58.9919,0.0639238
,,,,,,,,,72,112.963,0.110724
,,,,,,,,,85,78.597,0.0400254
,,,,,,,,,99,123.079,0.033749
,,,,,,,,,114,105.328,0.0540592
,,,,,,,,,130,70.4643,0.0565667
,,,,,,,,,98,39.3684,0.0373699
,,,,,,,,,113,31.3926,0.0318411
,,,,,,,,,129,52.3674,0.0493251
,,,,,,,,,146,77.8893,0.0514042
,,,,,,,,,128,67.6043,0.0211155
,,,,,,,,,145,78.6828,0.0276043
,,,,,,,,,163,82.9877,0.0282436
,,,,,,,,,162,26.2015,0.0244662
,,,,,,,,,181,61.3564,0.0249671
,,,,,,,,,200,36.7346,0.0345777
