Q	U	V
{$V$}	{[mm$^3$]}	0.015704
{$d_v$}	{[mm]}	0.310697
{$S_c$}	{[mm$^2$]}	0.588177
{$S_o$}	{[mm$^2$]}	0.386433
{$S_l/S_o$}	[]	0.522067
{$\Psi$}	[]	0.515604
{$\eta$}	[]	0.546871
{med($\theta_e$)}	{[$^\circ$]}	65.709
{$\Upsilon$}	[]	15
{$\Xi$}	[]	16
