"cellPairingIds","interplanarAngles","angleWeights"
13,62.6288,0.112784
19,58.5045,0.0584091
34,52.4349,0.042105
32,67.5479,0.0560336
41,44.1716,0.0821546
51,114.608,0.0408564
74,42.9483,0.0557841
116,97.3851,0.0367329
61,84.3485,0.0305529
86,61.5597,0.0381966
185,109.485,0.0413217
72,96.7422,0.0369606
130,97.3973,0.0674072
147,64.5363,0.0335532
146,38.7425,0.0368474
224,71.7136,0.0324361
201,103.397,0.0281235
267,129.109,0.0411859
291,78.1439,0.0205767
316,100.442,0.0354401
242,73.9776,0.0334598
289,35.9301,0.0436336
314,50.9045,0.0537367
313,54.4965,0.0263947
394,50.693,0.0266567
392,33.8937,0.0375813
451,41.8581,0.0327381
450,56.3963,0.0214507
481,47.1461,0.0381147
512,27.5195,0.0197804
