facetNormals:0,facetNormals:1,facetNormals:2,FacetCenters:0,FacetCenters:1,FacetCenters:2,FacetIds,relFacetSize,absFacetSize,cellPairingIds,interplanarAngles,angleWeights
-0.525224,-0.333623,-0.747701,6.13945,4.17973,5.15912,1,0.150892,0.0532311,8,90.835,0.0377576
0.807788,-0.335024,-0.399716,6.23686,4.1423,5.15016,2,0.0215786,0.0076124,13,29.2911,0.0596319
-0.799772,0.0370869,-0.569643,6.20512,4.13161,5.12273,3,0.0371583,0.0131085,19,123.256,0.0331489
0.267957,0.945157,0.0941387,6.20109,4.28126,5.25478,4,0.0186197,0.00656856,26,61.1988,0.114982
-0.805427,-0.482029,0.181623,6.12168,4.1791,5.26941,5,0.092878,0.032765,34,71.5616,0.0671573
-0.914806,0.220703,0.151895,6.15736,4.28706,5.21085,6,0.0431899,0.0152363,43,85.1899,0.0260837
-0.272966,-0.835229,0.456405,6.19911,4.14017,5.32163,7,0.0142757,0.00503612,53,159.124,0.0968553
0.564312,0.580369,0.50334,6.25544,4.2173,5.26855,8,0.0713159,0.0251585,64,122.487,0.145125
-0.264176,0.745908,0.510915,6.14717,4.25925,5.30078,9,0.139782,0.0493115,76,113.364,0.0865349
0.0880872,-0.628963,0.710395,6.17531,4.14923,5.34804,10,0.0606619,0.0214,18,117.126,0.0273023
,,,,,,,,,25,98.3513,0.0199903
,,,,,,,,,33,127.665,0.0350208
,,,,,,,,,42,162.394,0.0287787
,,,,,,,,,52,97.4296,0.0171834
,,,,,,,,,63,86.2331,0.0331322
,,,,,,,,,75,137.48,0.0373859
,,,,,,,,,88,90.1302,0.0318335
,,,,,,,,,32,103.895,0.0248082
,,,,,,,,,41,56.1836,0.0530804
,,,,,,,,,51,45.7745,0.0399477
,,,,,,,,,62,94.2825,0.0206269
,,,,,,,,,74,139.907,0.0488592
,,,,,,,,,87,93.2267,0.0587098
,,,,,,,,,101,122.164,0.0460865
,,,,,,,,,50,133.905,0.0310206
,,,,,,,,,61,91.3541,0.0260213
,,,,,,,,,73,147.006,0.0161609
,,,,,,,,,86,37.4202,0.0295296
,,,,,,,,,100,42.7775,0.032862
,,,,,,,,,115,122.406,0.0284935
,,,,,,,,,72,43.7784,0.0589616
,,,,,,,,,85,41.8324,0.0247476
,,,,,,,,,99,134.861,0.0806811
,,,,,,,,,114,93.4366,0.111602
,,,,,,,,,130,66.6383,0.0733901
,,,,,,,,,98,81.7952,0.0214586
,,,,,,,,,113,110.062,0.0537986
,,,,,,,,,129,57.3881,0.0659901
,,,,,,,,,146,97.0504,0.0504561
,,,,,,,,,128,115.683,0.0237894
,,,,,,,,,145,109.917,0.0259057
,,,,,,,,,163,28.9642,0.0231124
,,,,,,,,,162,52.9482,0.0944459
,,,,,,,,,181,87.3341,0.0655588
,,,,,,,,,200,98.2936,0.0846066
