Q	U	V
{$V$}	{[mm$^3$]}	0.00766853
{$d_v$}	{[mm]}	0.244665
{$S_c$}	{[mm$^2$]}	0.312001
{$S_o$}	{[mm$^2$]}	0.211409
{$S_l/S_o$}	[]	0.475817
{$\Psi$}	[]	0.602749
{$\eta$}	[]	0.665334
{med($\theta_e$)}	{[$^\circ$]}	51.1933
{$\Upsilon$}	[]	15
{$\Xi$}	[]	12
