"cellPairingIds","interplanarAngles","angleWeights"
8,31.153,0.01136
13,77.0742,0.0267459
19,54.9378,0.0194491
53,67.6923,0.0179446
64,97.0266,0.0281855
76,121.062,0.0197584
118,131.406,0.0276297
25,39.7768,0.0134378
63,38.5189,0.012702
32,56.0243,0.0420559
62,45.9962,0.0184904
101,83.717,0.0435292
73,88.0396,0.0146823
86,58.4329,0.023744
131,65.3114,0.0176469
163,59.8946,0.0148578
182,40.5742,0.011498
202,35.3341,0.018439
201,91.1837,0.0163994
244,95.7055,0.0371849
267,91.9395,0.0380159
200,35.5149,0.0474759
266,60.6886,0.150492
265,40.9423,0.0432457
289,66.3686,0.0459199
288,59.0847,0.0233697
339,47.3346,0.0244763
338,67.4704,0.114874
365,45.0478,0.123193
392,58.6434,0.147695
