facetNormals:0,facetNormals:1,facetNormals:2,FacetCenters:0,FacetCenters:1,FacetCenters:2,FacetIds,relFacetSize,absFacetSize,cellPairingIds,interplanarAngles,angleWeights
-0.192002,-0.409969,-0.865325,4.82766,3.64364,7.79276,1,0.0321848,0.00641844,8,87.7136,0.0178711
-0.251065,0.846683,-0.388875,4.8426,3.66971,7.92856,2,0.0123698,0.00246684,13,43.2086,0.0502165
-0.798423,-0.253024,-0.509304,4.74576,3.68827,7.8356,3,0.114195,0.0227733,19,110.561,0.0395458
0.613394,0.640171,-0.0863256,4.85785,3.72315,7.97582,4,0.0512722,0.0102249,26,54.9864,0.0423523
0.0163477,-0.946772,-0.179114,4.86617,3.61147,7.90425,5,0.0619106,0.0123465,34,50.5434,0.0337249
-0.478737,-0.835194,-0.203823,4.81766,3.6001,7.86668,6,0.0354197,0.00706356,43,64.3287,0.0282528
-0.787442,-0.592971,-0.0264543,4.75495,3.63234,7.9382,7,0.0251769,0.00502089,53,99.881,0.0227005
0.979492,-0.137594,0.0395665,4.88991,3.63983,7.88445,8,0.0175336,0.00349664,64,103.108,0.0504224
-0.861358,0.245383,0.318124,4.74024,3.75506,7.93004,9,0.116355,0.0232041,76,100.318,0.0418141
0.484509,-0.711789,0.423702,4.90051,3.63084,7.93993,10,0.0596652,0.0118987,89,94.615,0.0418987
-0.0801295,-0.83036,0.499474,4.82049,3.6124,7.93606,11,0.0600109,0.0119677,103,110.164,0.0332505
-0.6308,-0.318553,0.669635,4.78544,3.66909,7.99748,12,0.0343892,0.00685805,118,122.72,0.0399452
0.784691,-0.23143,0.530288,4.90156,3.67304,8.00085,13,0.0526369,0.0104971,134,155.25,0.0435184
-0.0973856,0.671128,0.709756,4.82819,3.75948,8.00272,14,0.0671728,0.0133959,151,162.667,0.0248304
0.460315,0.308229,0.801482,4.84286,3.69266,8.03601,15,0.0202119,0.00403074,169,137.827,0.0299122
-0.507676,0.383157,0.760082,4.7837,3.7698,7.99182,16,0.0279393,0.00557178,18,78.7657,0.0223217
,,,,,,,,,25,60.6291,0.0199311
,,,,,,,,,33,142.329,0.0206197
,,,,,,,,,42,122.322,0.018336
,,,,,,,,,52,108.002,0.0165891
,,,,,,,,,63,113.298,0.0145059
,,,,,,,,,75,70.8865,0.0223622
,,,,,,,,,88,163.762,0.0204913
,,,,,,,,,102,159.214,0.0205116
,,,,,,,,,117,113.311,0.0181949
,,,,,,,,,133,129.561,0.020032
,,,,,,,,,150,70.4693,0.0208923
,,,,,,,,,168,100.187,0.0153471
,,,,,,,,,187,80.5941,0.0171477
,,,,,,,,,32,134.108,0.0707697
,,,,,,,,,41,70.3462,0.0802914
,,,,,,,,,51,43.6993,0.0540689
,,,,,,,,,62,34.9572,0.0412576
,,,,,,,,,74,142.264,0.0303997
,,,,,,,,,87,60.1576,0.115265
,,,,,,,,,101,116.691,0.0783787
,,,,,,,,,116,88.816,0.0786764
,,,,,,,,,132,75.2359,0.0528599
,,,,,,,,,149,151.27,0.0720591
,,,,,,,,,167,118.12,0.0845883
,,,,,,,,,186,153.365,0.0343449
,,,,,,,,,206,94.6477,0.0448946
,,,,,,,,,50,132.557,0.0560914
,,,,,,,,,61,157.653,0.0418966
,,,,,,,,,73,168.355,0.0337708
,,,,,,,,,86,54.7192,0.0261312
,,,,,,,,,100,118.095,0.0711792
,,,,,,,,,115,103.189,0.0551512
,,,,,,,,,131,136.076,0.0552984
,,,,,,,,,148,138.415,0.0411669
,,,,,,,,,166,70.6756,0.0519456
,,,,,,,,,185,69.3328,0.0581552
,,,,,,,,,205,61.7735,0.0289941
,,,,,,,,,226,98.5813,0.0361692
,,,,,,,,,72,30.2205,0.0450601
,,,,,,,,,85,54.394,0.0357966
,,,,,,,,,99,81.6099,0.0273278
,,,,,,,,,114,109.343,0.0808189
,,,,,,,,,130,49.0657,0.0607672
,,,,,,,,,147,42.0872,0.060946
,,,,,,,,,165,79.4771,0.0442172
,,,,,,,,,184,81.6182,0.0568984
,,,,,,,,,204,143.874,0.0644345
,,,,,,,,,225,117.109,0.0304747
,,,,,,,,,247,122.075,0.0385029
,,,,,,,,,98,25.2504,0.0294326
,,,,,,,,,113,111.821,0.023456
,,,,,,,,,129,81.231,0.0543076
,,,,,,,,,146,72.9948,0.0444513
,,,,,,,,,164,48.8116,0.0445469
,,,,,,,,,183,63.2254,0.0348968
,,,,,,,,,203,107.624,0.0423451
,,,,,,,,,224,132.982,0.0463823
,,,,,,,,,246,131.972,0.0257371
,,,,,,,,,269,103.755,0.0312379
,,,,,,,,,128,135.043,0.0206714
,,,,,,,,,145,55.9811,0.0413964
,,,,,,,,,163,88.2234,0.0354113
,,,,,,,,,182,55.5581,0.0354719
,,,,,,,,,202,45.9155,0.0290707
,,,,,,,,,223,120.969,0.0340617
,,,,,,,,,245,110.566,0.0366261
,,,,,,,,,268,126.127,0.0224228
,,,,,,,,,292,81.0254,0.0264863
,,,,,,,,,162,156.816,0.030475
,,,,,,,,,181,51.6604,0.0271027
,,,,,,,,,201,86.6926,0.0271382
,,,,,,,,,222,124.621,0.0232255
,,,,,,,,,244,31.6646,0.026305
,,,,,,,,,267,99.4561,0.0278086
,,,,,,,,,291,62.8453,0.0187777
,,,,,,,,,316,122.001,0.0215459
,,,,,,,,,200,120.084,0.0788813
,,,,,,,,,221,88.502,0.0791828
,,,,,,,,,243,42.8657,0.053088
,,,,,,,,,266,127.492,0.0724836
,,,,,,,,,290,59.4418,0.085174
,,,,,,,,,315,94.0803,0.0344411
,,,,,,,,,341,34.8425,0.045059
,,,,,,,,,242,35.0518,0.0598376
,,,,,,,,,265,77.3348,0.0436309
,,,,,,,,,289,34.6558,0.0559311
,,,,,,,,,314,103.766,0.0631968
,,,,,,,,,340,68.4638,0.030195
,,,,,,,,,367,101.933,0.0380575
,,,,,,,,,288,46.6723,0.043723
,,,,,,,,,313,65.4301,0.0560826
,,,,,,,,,339,101.787,0.0633902
,,,,,,,,,366,83.4846,0.0302391
,,,,,,,,,394,83.9143,0.0381275
,,,,,,,,,338,93.9971,0.0415999
,,,,,,,,,365,70.2516,0.0454898
,,,,,,,,,393,81.0145,0.0254599
,,,,,,,,,422,42.8695,0.0308305
,,,,,,,,,392,81.3077,0.0590231
,,,,,,,,,421,41.1836,0.0292082
,,,,,,,,,451,94.9861,0.036503
,,,,,,,,,450,40.1656,0.0310738
,,,,,,,,,481,29.5862,0.0394642
,,,,,,,,,512,59.2581,0.0234555
