"cellPairingIds","interplanarAngles","angleWeights"
51,38.3338,0.116902
62,120.211,0.025147
74,59.2535,0.0957855
101,103.433,0.0173812
113,29.5506,0.0805597
129,51.1947,0.0705336
146,72.6482,0.0168049
128,155.526,0.0229226
145,150.126,0.0220315
163,123.582,0.0110231
162,38.0721,0.062253
200,43.0858,0.0158336
