facetNormals:0,facetNormals:1,facetNormals:2,FacetCenters:0,FacetCenters:1,FacetCenters:2,FacetIds,relFacetSize,absFacetSize,cellPairingIds,interplanarAngles,angleWeights
-0.228931,0.439137,-0.851316,3.65991,4.44357,8.29282,1,0.0119052,0.000957094,8,80.6634,0.0135241
0.708085,-0.306787,-0.523705,3.72028,4.3595,8.35543,2,0.0156524,0.00125834,13,48.0706,0.0211751
-0.691258,-0.173432,-0.648423,3.61818,4.38775,8.31407,3,0.0956585,0.00769025,19,45.7615,0.0184439
0.237509,0.83698,-0.407553,3.686,4.46679,8.3134,4,0.0409161,0.00328936,26,74.6288,0.0172517
-0.961264,-0.170033,-0.131261,3.61862,4.35248,8.33884,5,0.0313149,0.00251749,34,85.2752,0.0170401
0.614738,0.731726,0.120347,3.71652,4.46119,8.3506,6,0.0299639,0.00240888,43,100.815,0.0197905
-0.874363,-0.337053,0.273141,3.62076,4.32703,8.36082,7,0.0586104,0.00471185,53,63.4246,0.0139335
-0.763133,0.597092,0.0116803,3.61871,4.42202,8.32812,8,0.0167949,0.00135019,64,96.9685,0.0141472
-0.809149,0.279568,0.501026,3.61,4.41463,8.3475,9,0.0174296,0.00140121,76,123.381,0.0183214
-0.527223,-0.729923,0.389805,3.66712,4.27849,8.37457,10,0.0397371,0.00319457,89,90.0739,0.0203175
-0.280224,0.802597,0.490827,3.69231,4.44606,8.36984,11,0.0692492,0.00556713,103,133.207,0.0198256
-0.541903,-0.366957,0.737272,3.66021,4.31037,8.4018,12,0.0592319,0.00476181,118,163.507,0.0214613
0.35648,-0.190363,0.857488,3.73004,4.3254,8.40958,13,0.108763,0.00874379,134,121.1,0.0214816
-0.405673,0.288439,0.842772,3.65456,4.38246,8.4001,14,0.109816,0.00882839,151,123.952,0.0213652
0.157362,0.471865,0.821721,3.69675,4.42359,8.39006,15,0.10402,0.00836245,18,96.1764,0.0269028
,,,,,,,,,25,81.9911,0.0226429
,,,,,,,,,33,127.543,0.0208721
,,,,,,,,,42,80.5316,0.0205632
,,,,,,,,,52,136.359,0.0247067
,,,,,,,,,63,143.841,0.0162035
,,,,,,,,,75,174.686,0.0164933
,,,,,,,,,88,112.728,0.0224585
,,,,,,,,,102,140.039,0.0255335
,,,,,,,,,117,135.632,0.0247615
,,,,,,,,,133,98.9969,0.0273665
,,,,,,,,,150,153.525,0.0273995
,,,,,,,,,168,121.171,0.0272104
,,,,,,,,,32,92.7908,0.0573163
,,,,,,,,,41,34.8232,0.0471837
,,,,,,,,,51,132.741,0.0456337
,,,,,,,,,62,58.9019,0.0726859
,,,,,,,,,74,63.5147,0.0285732
,,,,,,,,,87,78.7797,0.0294866
,,,,,,,,,101,75.4013,0.0561494
,,,,,,,,,116,106.192,0.0803392
,,,,,,,,,132,92.403,0.0731618
,,,,,,,,,149,147.395,0.101791
,,,,,,,,,167,109.582,0.102249
,,,,,,,,,186,141.414,0.0996642
,,,,,,,,,50,109.58,0.0354774
,,,,,,,,,61,39.9536,0.0345939
,,,,,,,,,73,129.865,0.0481904
,,,,,,,,,86,70.3061,0.0238146
,,,,,,,,,100,99.8106,0.0244457
,,,,,,,,,115,161.705,0.040318
,,,,,,,,,131,64.5573,0.0514392
,,,,,,,,,148,141.024,0.0483992
,,,,,,,,,166,117.756,0.0594628
,,,,,,,,,185,102.18,0.0596189
,,,,,,,,,205,83.9401,0.0587307
,,,,,,,,,72,140.411,0.0306245
,,,,,,,,,85,26.2914,0.0408201
,,,,,,,,,99,48.6552,0.0218638
,,,,,,,,,114,47.1455,0.0223946
,,,,,,,,,130,53.1383,0.0350268
,,,,,,,,,147,85.9389,0.0431274
,,,,,,,,,165,59.9306,0.0409698
,,,,,,,,,184,116.929,0.0486288
,,,,,,,,,204,76.1801,0.0487332
,,,,,,,,,225,111.02,0.048138
,,,,,,,,,98,143.041,0.0396548
,,,,,,,,,113,91.8918,0.021525
,,,,,,,,,129,104.087,0.0220393
,,,,,,,,,146,149.141,0.0341653
,,,,,,,,,164,59.9077,0.0418287
,,,,,,,,,183,122.693,0.039796
,,,,,,,,,203,78.4357,0.046984
,,,,,,,,,224,86.1624,0.0470814
,,,,,,,,,246,54.2238,0.0465257
,,,,,,,,,128,60.2606,0.0261084
,,,,,,,,,145,39.2169,0.0268689
,,,,,,,,,163,31.8523,0.0473628
,,,,,,,,,182,83.494,0.0634872
,,,,,,,,,202,33.8788,0.0589195
,,,,,,,,,223,90.8246,0.0761728
,,,,,,,,,245,59.3054,0.0764293
,,,,,,,,,268,94.416,0.0749756
,,,,,,,,,162,34.698,0.0171064
,,,,,,,,,181,91.744,0.0236107
,,,,,,,,,201,42.724,0.0270334
,,,,,,,,,222,77.7284,0.0261696
,,,,,,,,,244,114.141,0.0290968
,,,,,,,,,267,58.778,0.0291341
,,,,,,,,,291,79.3978,0.0289204
,,,,,,,,,200,64.5751,0.0242309
,,,,,,,,,221,44.2857,0.0278496
,,,,,,,,,243,43.8432,0.0269337
,,,,,,,,,266,84.6324,0.0300445
,,,,,,,,,290,31.1225,0.0300843
,,,,,,,,,315,64.0923,0.0298564
,,,,,,,,,242,104.845,0.0504974
,,,,,,,,,265,29.612,0.0475644
,,,,,,,,,289,72.1397,0.0582077
,,,,,,,,,314,69.7843,0.0583574
,,,,,,,,,340,96.5239,0.057506
,,,,,,,,,288,76.9079,0.06385
,,,,,,,,,313,79.5862,0.0846208
,,,,,,,,,339,37.8346,0.0849374
,,,,,,,,,366,38.4977,0.0831458
,,,,,,,,,338,57.0073,0.0766957
,,,,,,,,,365,40.3534,0.0769558
,,,,,,,,,393,68.4775,0.0754821
,,,,,,,,,392,55.6789,0.109287
,,,,,,,,,421,42.5407,0.106339
,,,,,,,,,450,35.5649,0.106839
