Q	U	V
{$V$}	{[mm$^3$]}	0.00265988
{$d_v$}	{[mm]}	0.171905
{$S_c$}	{[mm$^2$]}	0.158646
{$S_o$}	{[mm$^2$]}	0.0951212
{$S_l/S_o$}	[]	0.667830
{$\Psi$}	[]	0.585189
{$\eta$}	[]	0.640596
{med($\theta_e$)}	{[$^\circ$]}	63.1169
{$\Upsilon$}	[]	13
{$\Xi$}	[]	9
