"cellPairingIds","interplanarAngles","angleWeights"
8,69.416,0.0905616
13,76.0961,0.120363
19,38.6534,0.0249253
26,99.1494,0.0577298
64,60.1045,0.0669234
103,127.773,0.0227244
18,40.1437,0.0892049
25,76.7701,0.0232441
42,42.9763,0.0708722
63,65.977,0.0940131
41,29.7535,0.0571756
51,51.1573,0.087905
86,72.4272,0.0251798
100,36.8781,0.021312
115,58.5573,0.0252318
72,55.1329,0.0490443
165,106.451,0.0188015
98,44.2392,0.0536982
113,59.2788,0.0925705
183,119.892,0.0212435
128,31.956,0.0660087
202,90.5686,0.0194476
181,45.2596,0.137977
222,105.848,0.0229357
200,47.9178,0.0691795
243,79.74,0.0196821
265,75.8428,0.0229789
