facetNormals:0,facetNormals:1,facetNormals:2,FacetCenters:0,FacetCenters:1,FacetCenters:2,FacetIds,relFacetSize,absFacetSize,cellPairingIds,interplanarAngles,angleWeights
-0.540871,0.262011,-0.749146,7.36489,5.44255,5.3094,1,0.0576216,0.0058051,8,39.0367,0.0120637
-0.163942,0.779222,-0.604882,7.37583,5.47775,5.32882,2,0.00673708,0.000678729,13,98.4977,0.026924
0.551524,-0.67696,-0.448952,7.39731,5.37347,5.50499,3,0.0175659,0.00176968,19,27.7857,0.0552241
-0.813,0.355722,-0.386398,7.33057,5.4582,5.40061,4,0.0530181,0.00534132,26,38.4227,0.0240732
-0.400351,0.80119,-0.427583,7.34823,5.46539,5.37262,5,0.0152149,0.00153283,34,81.6637,0.0244731
-0.544963,-0.76875,-0.0508177,7.33371,5.39207,5.45321,6,0.0155358,0.00156515,43,132.956,0.0337042
0.69763,-0.661938,0.110496,7.3944,5.37951,5.48444,7,0.0238179,0.00239954,53,66.3436,0.0842502
-0.176024,0.897498,-0.0297462,7.35351,5.47429,5.41578,8,0.156637,0.0157804,64,120.769,0.0697622
0.958281,0.050558,-0.0441387,7.42325,5.43864,5.41314,9,0.0883845,0.00890431,76,103.387,0.0570813
0.436044,0.82803,0.263353,7.39253,5.47815,5.42711,10,0.0565511,0.00569725,89,144.194,0.0402357
0.895757,0.0729251,0.402739,7.43096,5.44805,5.36244,11,0.0309095,0.00311398,103,88.2781,0.0532546
-0.707939,0.322686,0.586446,7.34991,5.40539,5.52875,12,0.0495029,0.00498718,118,96.7659,0.0532407
-0.725708,-0.171134,0.609556,7.3186,5.40184,5.52799,13,0.049479,0.00498477,134,178.782,0.0352146
0.556047,-0.275388,0.741765,7.38508,5.36167,5.52854,14,0.025355,0.0025544,151,131.926,0.0780108
0.429428,0.521316,0.714509,7.37835,5.43102,5.53534,15,0.120731,0.0121631,169,142.701,0.0195744
-0.0284346,-0.147441,0.972819,7.35256,5.36414,5.56309,16,0.0117897,0.00118776,18,110.657,0.00973896
,,,,,,,,,25,48.2727,0.011955
,,,,,,,,,33,17.1004,0.00933893
,,,,,,,,,42,120.5,0.0093985
,,,,,,,,,52,136.059,0.0105032
,,,,,,,,,63,35.3661,0.0129185
,,,,,,,,,75,95.4364,0.0125198
,,,,,,,,,88,64.7664,0.0120398
,,,,,,,,,102,109.803,0.0110629
,,,,,,,,,117,89.2487,0.0118601
,,,,,,,,,133,113.44,0.0118594
,,,,,,,,,150,141.273,0.0106455
,,,,,,,,,168,95.6253,0.012762
,,,,,,,,,187,135.219,0.00857441
,,,,,,,,,32,122.867,0.0263887
,,,,,,,,,41,125.887,0.0163061
,,,,,,,,,51,74.8169,0.0164886
,,,,,,,,,62,34.5026,0.0202197
,,,,,,,,,74,140.302,0.0315893
,,,,,,,,,87,56.9703,0.0293072
,,,,,,,,,101,117.334,0.0268055
,,,,,,,,,116,74.1648,0.0224012
,,,,,,,,,132,155.749,0.0259305
,,,,,,,,,149,126.169,0.0259272
,,,,,,,,,167,80.2939,0.0207537
,,,,,,,,,186,116.906,0.0306695
,,,,,,,,,206,111.399,0.0141095
,,,,,,,,,50,36.1465,0.0236444
,,,,,,,,,61,78.0432,0.0240301
,,,,,,,,,73,154.453,0.0328695
,,,,,,,,,86,57.6551,0.0792215
,,,,,,,,,100,143.152,0.0662785
,,,,,,,,,115,99.8961,0.0547276
,,,,,,,,,131,154.163,0.0390518
,,,,,,,,,148,60.5429,0.0512002
,,,,,,,,,166,71.6412,0.0511874
,,,,,,,,,185,153.358,0.0343045
,,,,,,,,,205,117.524,0.0736802
,,,,,,,,,226,115.172,0.0192899
,,,,,,,,,72,113.67,0.0153736
,,,,,,,,,85,153.113,0.0185683
,,,,,,,,,99,27.9508,0.0277357
,,,,,,,,,114,109.884,0.0259608
,,,,,,,,,130,67.0495,0.0239784
,,,,,,,,,147,118.901,0.020392
,,,,,,,,,165,72.473,0.0232758
,,,,,,,,,184,96.4401,0.0232732
,,,,,,,,,204,142.398,0.0190177
,,,,,,,,,225,93.5111,0.0270241
,,,,,,,,,247,122.347,0.0132851
,,,,,,,,,98,82.2576,0.0188053
,,,,,,,,,113,133.325,0.0282678
,,,,,,,,,129,128.059,0.0264264
,,,,,,,,,146,165.34,0.0243752
,,,,,,,,,164,127.416,0.0206782
,,,,,,,,,183,83.2582,0.0236495
,,,,,,,,,203,56.9187,0.0236468
,,,,,,,,,224,98.127,0.0192664
,,,,,,,,,246,136.326,0.0275291
,,,,,,,,,269,85.0963,0.0134059
,,,,,,,,,128,144.391,0.0413485
,,,,,,,,,145,47.3371,0.0375239
,,,,,,,,,163,103.194,0.0335186
,,,,,,,,,182,49.3423,0.0269043
,,,,,,,,,202,132.956,0.0321616
,,,,,,,,,223,110.445,0.0321565
,,,,,,,,,245,45.8413,0.0245624
,,,,,,,,,268,87.9857,0.0397867
,,,,,,,,,292,78.7893,0.0157722
,,,,,,,,,162,97.9771,0.113005
,,,,,,,,,181,42.2446,0.0831002
,,,,,,,,,201,96.6399,0.0516306
,,,,,,,,,222,63.5736,0.0752303
,,,,,,,,,244,92.8606,0.0752027
,,,,,,,,,267,114.508,0.0436451
,,,,,,,,,291,65.6448,0.13636
,,,,,,,,,316,99.9901,0.0219288
,,,,,,,,,200,61.3271,0.0689719
,,,,,,,,,221,26.819,0.0458015
,,,,,,,,,243,137.314,0.0634617
,,,,,,,,,266,142.198,0.0634421
,,,,,,,,,290,58.4434,0.0394056
,,,,,,,,,315,64.5192,0.102056
,,,,,,,,,341,94.7098,0.0208043
,,,,,,,,,242,54.4225,0.0399715
,,,,,,,,,265,83.1516,0.0527928
,,,,,,,,,289,108.534,0.0527792
,,,,,,,,,314,77.1073,0.0350121
,,,,,,,,,340,32.3966,0.0770239
,,,,,,,,,367,82.693,0.0195116
,,,,,,,,,288,112.969,0.0380566
,,,,,,,,,313,116.085,0.0380495
,,,,,,,,,339,35.3584,0.0278581
,,,,,,,,,366,42.8025,0.0492182
,,,,,,,,,394,68.4823,0.0170689
,,,,,,,,,338,29.58,0.0494909
,,,,,,,,,365,92.8901,0.0335341
,,,,,,,,,393,72.802,0.0702156
,,,,,,,,,422,55.51,0.0190439
,,,,,,,,,392,84.0993,0.0335286
,,,,,,,,,421,87.9011,0.0701916
,,,,,,,,,451,47.6305,0.0190421
,,,,,,,,,450,48.8876,0.0419087
,,,,,,,,,481,38.3641,0.0160953
,,,,,,,,,512,51.232,0.0214816
