"cellPairingIds","interplanarAngles","angleWeights"
8,42.8466,0.0294813
13,36.0819,0.0153704
19,31.5066,0.0273332
26,73.0836,0.0254047
64,114.521,0.0263828
33,36.0403,0.0491804
42,42.0418,0.0258031
75,85.6474,0.0529831
32,35.5478,0.0205355
62,59.0132,0.0213358
74,74.9559,0.024099
87,98.6429,0.0199944
50,100.188,0.0434801
73,53.7708,0.054362
148,147.727,0.04646
166,109.879,0.0662146
72,37.9106,0.0226254
130,55.2792,0.0467898
165,61.738,0.0411503
129,48.8243,0.023398
146,37.1558,0.0251294
128,91.4944,0.0893296
223,58.0428,0.0753248
162,27.2162,0.0697399
244,85.2655,0.126555
200,40.3663,0.0502188
221,26.2262,0.0573972
266,88.2081,0.0609001
242,23.4225,0.0690718
265,38.4187,0.0502587
288,48.5239,0.0574492
313,79.802,0.0910317
338,82.3127,0.0609587
