"cellPairingIds","interplanarAngles","angleWeights"
13,52.4115,0.0111832
19,27.3767,0.0847863
18,41.3334,0.0109809
42,52.9148,0.0791219
32,56.6521,0.0112501
51,38.7781,0.0113527
61,86.5655,0.0956046
73,40.0768,0.0185374
86,60.0335,0.0690666
131,61.4382,0.029304
72,53.3278,0.113438
113,35.8239,0.0731234
129,64.3356,0.0607352
182,57.7799,0.0130197
202,78.1519,0.0179233
162,86.6351,0.0488187
201,22.8063,0.0267804
222,42.922,0.0612475
243,58.8028,0.0523105
288,30.7641,0.0277983
