"cellPairingIds","interplanarAngles","angleWeights"
18,23.3544,0.0199965
33,102.593,0.0297499
52,166.585,0.041204
63,80.5221,0.0257532
75,106.222,0.0259262
62,165.454,0.0324355
74,60.8401,0.0220308
85,75.5465,0.069275
114,60.9475,0.0347987
128,112.845,0.0508861
145,84.6842,0.0515661
162,48.188,0.0294523
