"cellPairingIds","interplanarAngles","angleWeights"
18,37.8751,0.0193655
25,91.4977,0.0185663
33,74.3796,0.0256259
63,91.6006,0.026339
102,89.4892,0.0209829
32,61.324,0.0240976
41,37.4199,0.0375093
50,48.2978,0.0346229
86,133.939,0.0359373
115,43.7943,0.0268595
185,77.2697,0.029517
130,45.7887,0.0446573
147,44.3121,0.0440924
165,47.9476,0.063375
201,138.024,0.0462466
222,143.725,0.0679224
267,113.539,0.0556036
265,31.0556,0.0414471
314,38.7901,0.0365111
288,31.1354,0.0409601
365,38.0342,0.0481342
