"cellPairingIds","interplanarAngles","angleWeights"
8,70.3429,0.047425
13,50.0228,0.0301601
19,32.72,0.0284055
34,54.4348,0.0359303
53,90.3724,0.0465219
64,55.0183,0.0334458
33,58.6645,0.0422294
52,42.9738,0.0466431
63,68.8207,0.13803
75,93.7549,0.0639032
102,57.6216,0.030308
117,73.784,0.101044
51,23.4059,0.0389838
74,46.0075,0.0517725
61,62.115,0.0361015
100,33.2097,0.033594
115,84.9163,0.0242254
114,37.7911,0.0307755
165,39.2283,0.0373952
113,61.2782,0.0714768
146,31.6751,0.0294931
128,37.7803,0.0457692
182,50.128,0.0210091
223,44.0657,0.0383424
245,82.112,0.0399356
268,83.6227,0.0192212
181,59.1167,0.0362715
244,37.0292,0.0841309
267,74.4392,0.0922021
200,114.563,0.0277981
243,57.5398,0.0534478
290,137.381,0.0519491
315,114.858,0.0216286
314,65.658,0.0325083
288,54.4596,0.0277349
366,50.2436,0.015728
393,70.6495,0.0247017
392,40.9102,0.0663226
450,39.1377,0.0243767
