"cellPairingIds","interplanarAngles","angleWeights"
50,118.621,0.0277598
86,50.1447,0.0273106
100,60.9387,0.0252069
115,134.932,0.00687779
166,120.19,0.0221819
85,91.6214,0.067554
114,132.919,0.0850817
130,63.8885,0.00851229
147,102.313,0.0793115
184,120.786,0.0582632
145,43.474,0.0541969
182,32.4965,0.0517964
162,40.5361,0.0809986
244,71.1503,0.056319
221,50.1536,0.0615127
266,83.3115,0.0480497
289,70.6292,0.00790291
313,62.7756,0.0461534
