facetNormals:0,facetNormals:1,facetNormals:2,FacetCenters:0,FacetCenters:1,FacetCenters:2,FacetIds,relFacetSize,absFacetSize,cellPairingIds,interplanarAngles,angleWeights
0.31543,0.117869,-0.891812,5.46667,4.83893,4.72231,1,0.0284842,0.0053186,8,37.6173,0.0360808
-0.0962607,-0.344596,-0.898214,5.47141,4.81749,4.7232,2,0.0492029,0.00918721,13,78.6722,0.0436733
-0.590363,-0.589854,-0.489952,5.48699,4.72611,4.80176,3,0.0935678,0.0174711,19,55.7939,0.0338941
0.609998,-0.589684,-0.435161,5.52487,4.73018,4.78776,4,0.0418408,0.00781256,26,91.2792,0.041642
0.125621,0.937827,0.19142,5.44932,4.8839,4.82252,5,0.0773916,0.0144506,34,82.4733,0.024116
0.933831,-0.275675,0.155794,5.52977,4.75259,4.81957,6,0.0209094,0.00390422,43,128.886,0.0231906
-0.892445,0.141464,0.354333,5.51357,4.81357,4.85109,7,0.0195562,0.00365156,53,86.0576,0.05126
0.825811,0.362553,0.270798,5.50589,4.78898,4.85084,8,0.255779,0.0477594,64,121.638,0.0418448
0.565546,-0.333128,0.689953,5.45371,4.73905,4.95656,9,0.0788118,0.0147158,76,135.852,0.0252616
-0.307434,0.586904,0.718387,5.39196,4.8001,4.93777,10,0.022694,0.00423744,89,138.441,0.0239608
0.23005,0.303627,0.912095,5.46244,4.75616,4.92824,11,0.0206772,0.00386087,18,41.5547,0.0644923
,,,,,,,,,25,54.5001,0.0452242
,,,,,,,,,33,122.916,0.0601589
,,,,,,,,,42,98.1303,0.0293473
,,,,,,,,,52,107.431,0.0279883
,,,,,,,,,63,119.452,0.08253
,,,,,,,,,75,127.412,0.0605832
,,,,,,,,,88,149.956,0.0310614
,,,,,,,,,102,171.85,0.0291178
,,,,,,,,,32,77.4239,0.0578243
,,,,,,,,,41,140.525,0.0847144
,,,,,,,,,51,119.165,0.0341805
,,,,,,,,,62,73.3057,0.0323509
,,,,,,,,,74,156.242,0.137014
,,,,,,,,,87,121.057,0.0855582
,,,,,,,,,101,123.114,0.0365284
,,,,,,,,,116,142.787,0.0338697
,,,,,,,,,50,127.447,0.0543162
,,,,,,,,,61,45.0375,0.0278841
,,,,,,,,,73,147.67,0.0266543
,,,,,,,,,86,78.9491,0.0719173
,,,,,,,,,100,74.5967,0.0546619
,,,,,,,,,115,155.249,0.0294271
,,,,,,,,,131,117.529,0.0276768
,,,,,,,,,72,96.7209,0.0329236
,,,,,,,,,85,84.5872,0.0312228
,,,,,,,,,99,56.964,0.118829
,,,,,,,,,114,96.8283,0.0780952
,,,,,,,,,130,46.5087,0.0350964
,,,,,,,,,147,59.2251,0.0326351
,,,,,,,,,98,148.635,0.0202102
,,,,,,,,,113,39.7973,0.0386585
,,,,,,,,,129,39.2223,0.0330503
,,,,,,,,,146,110.468,0.0217652
,,,,,,,,,164,73.7204,0.0207926
,,,,,,,,,128,130.186,0.0363345
,,,,,,,,,145,109.424,0.0313367
,,,,,,,,,163,49.8224,0.0210086
,,,,,,,,,182,80.3492,0.0201011
,,,,,,,,,162,53.5243,0.120496
,,,,,,,,,181,80.402,0.0416891
,,,,,,,,,201,54.004,0.0382613
,,,,,,,,,200,82.2019,0.0352404
,,,,,,,,,221,45.6276,0.0327595
,,,,,,,,,242,37.8542,0.0216387
