facetNormals:0,facetNormals:1,facetNormals:2,FacetCenters:0,FacetCenters:1,FacetCenters:2,FacetIds,relFacetSize,absFacetSize,cellPairingIds,interplanarAngles,angleWeights
0.271031,-0.191289,-0.90353,7.07086,6.16423,5.90732,1,0.0495944,0.0106023,8,56.2519,0.0487305
-0.035868,0.644372,-0.718924,7.06518,6.30899,5.938,2,0.0478962,0.0102393,13,52.9508,0.0532982
-0.512281,0.168702,-0.818537,7.04319,6.22857,5.91466,3,0.0575998,0.0123137,19,61.5128,0.0599231
-0.604777,-0.471987,-0.565831,7.01152,6.11745,5.97774,4,0.0756856,0.0161801,26,73.1561,0.0170723
-0.445896,0.669423,-0.581928,7.0246,6.31869,5.95736,5,0.0103108,0.00220426,34,75.8346,0.0245569
-0.855938,-0.107811,-0.492959,7.01448,6.13139,5.94313,6,0.0163186,0.00348859,43,79.349,0.0310035
0.415692,0.845415,-0.245999,7.05786,6.30263,5.99543,7,0.0225503,0.00482081,53,57.5634,0.0402322
0.921188,0.0848506,-0.296735,7.11934,6.18948,5.94933,8,0.0338434,0.00723507,64,75.7512,0.0453726
0.370483,-0.892626,0.0464178,7.04684,6.07654,6.03892,9,0.0418131,0.00893883,76,71.3711,0.0548245
0.875014,-0.400001,0.0197007,7.10444,6.14375,5.98097,10,0.0612877,0.0131021,89,106.502,0.0691325
0.817224,0.109622,0.516301,7.06187,6.22934,6.07547,11,0.114072,0.0243863,103,109.158,0.059623
0.702399,0.515536,0.443317,7.07695,6.26318,6.03511,12,0.0747352,0.0159769,118,101.823,0.0385183
0.779207,-0.327461,0.519623,7.09982,6.15708,6.02703,13,0.0314863,0.00673115,134,117.941,0.0525151
0.246026,-0.632035,0.690853,7.02402,6.10739,6.09713,14,0.0558014,0.0119292,151,128.845,0.0336053
0.42569,-0.279992,0.84796,7.02407,6.15245,6.13602,15,0.0254124,0.00543268,18,40.9244,0.0523018
,,,,,,,,,25,82.2402,0.0586665
,,,,,,,,,33,25.4961,0.0169687
,,,,,,,,,42,70.8037,0.0243432
,,,,,,,,,52,41.2986,0.0306636
,,,,,,,,,63,75.5024,0.0396618
,,,,,,,,,75,131.7,0.0446485
,,,,,,,,,88,109.04,0.0537707
,,,,,,,,,102,110.546,0.0674653
,,,,,,,,,117,90.7103,0.0583788
,,,,,,,,,133,129.719,0.0379951
,,,,,,,,,150,167.393,0.0515475
,,,,,,,,,168,147.417,0.0332064
,,,,,,,,,32,42.0981,0.0654157
,,,,,,,,,41,32.8351,0.0174907
,,,,,,,,,51,32.2424,0.025432
,,,,,,,,,62,82.1092,0.0324115
,,,,,,,,,74,103.029,0.0426357
,,,,,,,,,87,113.512,0.048453
,,,,,,,,,101,124.321,0.0593865
,,,,,,,,,116,149.628,0.0765475
,,,,,,,,,132,131.56,0.0650581
,,,,,,,,,149,154.763,0.0407158
,,,,,,,,,167,147.249,0.0566863
,,,,,,,,,186,171.628,0.0352659
,,,,,,,,,50,72.6012,0.0181492
,,,,,,,,,61,26.5244,0.0268483
,,,,,,,,,73,123.422,0.0347476
,,,,,,,,,86,117.614,0.0467723
,,,,,,,,,100,79.3167,0.053867
,,,,,,,,,115,112.533,0.0677299
,,,,,,,,,131,154.656,0.0909962
,,,,,,,,,148,170.447,0.0752074
,,,,,,,,,166,130.219,0.0444717
,,,,,,,,,185,105.162,0.06424
,,,,,,,,,205,129.916,0.0380493
,,,,,,,,,72,52.8027,0.012637
,,,,,,,,,85,57.1926,0.0141512
,,,,,,,,,99,100.833,0.0158061
,,,,,,,,,114,145.302,0.0165424
,,,,,,,,,130,134.482,0.017652
,,,,,,,,,147,127.763,0.0189122
,,,,,,,,,165,103.47,0.0181215
,,,,,,,,,184,151.918,0.0155346
,,,,,,,,,204,166.565,0.0174055
,,,,,,,,,225,152.444,0.0146696
,,,,,,,,,98,109.672,0.0189349
,,,,,,,,,113,132.435,0.0220197
,,,,,,,,,129,104.688,0.0234753
,,,,,,,,,146,138.448,0.0257744
,,,,,,,,,164,177.657,0.0285525
,,,,,,,,,183,154.31,0.0267879
,,,,,,,,,203,154.232,0.0214962
,,,,,,,,,224,120.14,0.0252523
,,,,,,,,,246,139.928,0.0198746
,,,,,,,,,128,56.095,0.0270661
,,,,,,,,,145,130.517,0.0292992
,,,,,,,,,163,88.7327,0.0329696
,,,,,,,,,182,71.1925,0.0376564
,,,,,,,,,202,49.4531,0.0346465
,,,,,,,,,223,94.7952,0.0262794
,,,,,,,,,245,129.691,0.0321202
,,,,,,,,,268,106.176,0.0238959
,,,,,,,,,162,74.4643,0.0374085
,,,,,,,,,181,34.9525,0.0436069
,,,,,,,,,201,49.8898,0.0521999
,,,,,,,,,222,53.9257,0.0465892
,,,,,,,,,244,56.2284,0.0326223
,,,,,,,,,267,91.9493,0.0421332
,,,,,,,,,291,83.0218,0.0290281
,,,,,,,,,200,42.8935,0.0497112
,,,,,,,,,221,75.9272,0.0611952
,,,,,,,,,243,100.932,0.0536243
,,,,,,,,,266,50.9264,0.0359223
,,,,,,,,,290,42.793,0.047805
,,,,,,,,,315,62.1606,0.0316122
,,,,,,,,,242,43.2932,0.0797356
,,,,,,,,,265,63.6787,0.0673467
,,,,,,,,,289,30.4554,0.0416005
,,,,,,,,,314,58.8656,0.058416
,,,,,,,,,340,58.2328,0.0359277
,,,,,,,,,288,25.3572,0.0903058
,,,,,,,,,313,25.7791,0.0493507
,,,,,,,,,339,58.7602,0.0749426
,,,,,,,,,366,38.3269,0.0415651
,,,,,,,,,338,51.1172,0.0443062
,,,,,,,,,365,80.6821,0.0638952
,,,,,,,,,393,56.727,0.0379281
,,,,,,,,,392,37.929,0.0402572
,,,,,,,,,421,28.3244,0.0281252
,,,,,,,,,450,25.0696,0.0349214
