Q	U	V
{$V$}	{[mm$^3$]}	0.00410856
{$d_v$}	{[mm]}	0.198715
{$S_c$}	{[mm$^2$]}	0.238285
{$S_o$}	{[mm$^2$]}	0.133093
{$S_l/S_o$}	[]	0.790365
{$\Psi$}	[]	0.520612
{$\eta$}	[]	0.551864
{med($\theta_e$)}	{[$^\circ$]}	75.17685
{$\Upsilon$}	[]	18
{$\Xi$}	[]	6
