Q	U	V
{$V$}	{[mm$^3$]}	0.00588617
{$d_v$}	{[mm]}	0.224015
{$S_c$}	{[mm$^2$]}	0.385275
{$S_o$}	{[mm$^2$]}	0.209807
{$S_l/S_o$}	[]	0.836331
{$\Psi$}	[]	0.4092
{$\eta$}	[]	0.454514
{med($\theta_e$)}	{[$^\circ$]}	117.218
{$\Upsilon$}	[]	9
{$\Xi$}	[]	9
