"cellPairingIds","interplanarAngles","angleWeights"
8,57.5698,0.0352447
13,76.7371,0.0136814
26,55.5655,0.012431
34,79.1348,0.0199932
43,67.3228,0.0444251
53,116.774,0.0524119
64,76.1143,0.00526564
89,111.361,0.0482681
18,26.1598,0.0145221
102,67.6295,0.0606572
74,43.7722,0.0167878
116,70.3106,0.0163386
85,39.1353,0.0142148
114,25.168,0.00420611
130,66.7037,0.0138019
98,37.3566,0.0250487
146,43.4167,0.0237943
164,40.3478,0.0262261
163,38.9596,0.0688718
162,156.206,0.0056694
201,72.529,0.13903
222,56.4239,0.197675
200,68.0462,0.00549691
243,120.417,0.00568539
242,55.8364,0.0785698
265,67.7009,0.0943961
288,43.938,0.149326
