"cellPairingIds","interplanarAngles","angleWeights"
8,41.2293,0.158224
43,64.4115,0.132024
64,87.8548,0.178063
76,100.882,0.0092323
33,54.9965,0.027076
63,69.8857,0.0286156
75,61.8026,0.14567
88,122.13,0.00912706
99,41.6847,0.0155497
130,81.7619,0.00719795
145,69.3942,0.123166
163,119.16,0.00902376
182,158.087,0.00953938
162,67.8027,0.0292041
181,103.897,0.0073024
201,50.7347,0.00763643
221,110.418,0.00972099
242,59.4665,0.00486453
