facetNormals:0,facetNormals:1,facetNormals:2,FacetCenters:0,FacetCenters:1,FacetCenters:2,FacetIds,relFacetSize,absFacetSize,cellPairingIds,interplanarAngles,angleWeights
0.087741,0.307854,-0.876671,5.05416,5.50019,4.92298,1,0.224544,0.0248077,8,61.0088,0.144504
0.306112,-0.599769,-0.670172,5.06782,5.39813,4.93008,2,0.106531,0.0117696,13,53.6551,0.0805556
-0.503933,-0.309889,-0.773787,5.06096,5.4665,4.98462,3,0.0490819,0.00542258,19,57.5517,0.0601116
-0.23338,-0.554131,-0.780881,5.09499,5.5018,4.98623,4,0.0347006,0.00383373,26,49.2394,0.0429332
0.698686,-0.163196,-0.66945,5.11729,5.43972,4.93643,5,0.0237358,0.00262233,34,55.4369,0.028916
0.854522,0.247358,-0.422373,5.04942,5.49808,4.92599,6,0.015453,0.00170725,43,103.647,0.157009
0.565021,-0.795182,0.0224,5.07255,5.36638,4.9783,7,0.120705,0.0133355,53,113.916,0.0139027
-0.920255,0.0453713,0.349053,5.00607,5.4717,4.94127,8,0.00717343,0.000792522,64,129.62,0.0177352
0.653999,-0.488874,0.569688,5.05232,5.42075,4.96655,9,0.00923217,0.00101997,76,167.272,0.0454754
-0.251998,-0.412457,0.804802,5.01458,5.5377,4.92771,10,0.0252996,0.0027951,89,125.949,0.148339
0.333766,0.448264,0.801486,5.08554,5.49129,4.99345,11,0.110753,0.012236,103,160.006,0.0189078
-0.0172358,0.00330168,0.991578,5.01459,5.55317,4.94939,12,0.00986944,0.00109038,18,53.5192,0.0672019
,,,,,,,,,25,33.1135,0.0523493
,,,,,,,,,33,35.3486,0.0388218
,,,,,,,,,42,64.9396,0.0269908
,,,,,,,,,52,46.7736,0.113176
,,,,,,,,,63,125.446,0.0134417
,,,,,,,,,75,83.2229,0.0169918
,,,,,,,,,88,114.448,0.0408887
,,,,,,,,,102,139.306,0.108601
,,,,,,,,,117,135.481,0.0180652
,,,,,,,,,32,21.4331,0.0406569
,,,,,,,,,41,76.9088,0.0319976
,,,,,,,,,51,100.843,0.0235055
,,,,,,,,,62,93.3567,0.0697867
,,,,,,,,,74,79.2141,0.0125174
,,,,,,,,,87,129.657,0.0155411
,,,,,,,,,101,113.727,0.0333887
,,,,,,,,,116,166.99,0.0680197
,,,,,,,,,132,141.847,0.0164343
,,,,,,,,,50,62.2616,0.0281895
,,,,,,,,,61,90.394,0.0213834
,,,,,,,,,73,72.3682,0.0539046
,,,,,,,,,86,94.8999,0.0118891
,,,,,,,,,100,109.441,0.0145842
,,,,,,,,,115,111.633,0.0292636
,,,,,,,,,131,171.403,0.0528442
,,,,,,,,,148,142.182,0.015368
,,,,,,,,,72,29.6984,0.0187191
,,,,,,,,,85,57.8481,0.0396706
,,,,,,,,,99,156.114,0.0110172
,,,,,,,,,114,80.8511,0.0132937
,,,,,,,,,130,134.659,0.0244927
,,,,,,,,,147,113.121,0.0390933
,,,,,,,,,165,134.029,0.0139418
,,,,,,,,,98,73.266,0.0273983
,,,,,,,,,113,161.961,0.00979836
,,,,,,,,,129,78.3905,0.0115587
,,,,,,,,,146,135.313,0.0191867
,,,,,,,,,164,86.5702,0.0271217
,,,,,,,,,183,116.3,0.0120456
,,,,,,,,,128,124.768,0.0135421
,,,,,,,,,145,37.4695,0.0171524
,,,,,,,,,163,77.1564,0.0418314
,,,,,,,,,182,99.0469,0.115515
,,,,,,,,,202,89.4169,0.0182469
,,,,,,,,,162,115.685,0.00807363
,,,,,,,,,181,57.7111,0.0111776
,,,,,,,,,201,90.4196,0.0134741
,,,,,,,,,222,68.2473,0.00830819
,,,,,,,,,200,57.9989,0.0135278
,,,,,,,,,221,62.065,0.0170436
,,,,,,,,,243,56.0096,0.00954017
,,,,,,,,,242,65.7986,0.04119
,,,,,,,,,265,30.6449,0.0141996
,,,,,,,,,288,35.34,0.0181238
