Q	U	V
{$V$}	{[mm$^3$]}	0.00800695
{$d_v$}	{[mm]}	0.248212
{$S_c$}	{[mm$^2$]}	0.381386
{$S_o$}	{[mm$^2$]}	0.2401
{$S_l/S_o$}	[]	0.588446
{$\Psi$}	[]	0.507494
{$\eta$}	[]	0.516354
{med($\theta_e$)}	{[$^\circ$]}	
{$\Upsilon$}	[]	14
{$\Xi$}	[]	11
