facetNormals:0,facetNormals:1,facetNormals:2,FacetCenters:0,FacetCenters:1,FacetCenters:2,FacetIds,relFacetSize,absFacetSize,cellPairingIds,interplanarAngles,angleWeights
0.123429,-0.545658,-0.77216,6.01993,3.4708,4.79021,1,0.0323966,0.0117347,8,82.7062,0.0493976
0.241595,0.64464,-0.555621,6.08621,3.58314,4.84189,2,0.103946,0.0376513,13,103.916,0.0349091
-0.604896,0.673795,-0.290423,6.04206,3.56061,4.86248,3,0.037844,0.0137078,19,59.8627,0.0536387
0.869944,-0.319797,-0.22652,6.12112,3.49562,4.93094,4,0.155786,0.0564287,26,51.942,0.0519329
-0.21679,-0.93232,-0.109209,5.99968,3.42707,4.91574,5,0.130825,0.0473873,34,119.646,0.0500405
-0.890628,0.27523,0.253166,6.03764,3.48117,4.92194,6,0.109888,0.0398035,43,142.304,0.0442516
-0.617004,0.167431,0.734658,6.00906,3.50127,5.02879,7,0.0697901,0.0252793,53,104.027,0.0303654
-0.00614088,-0.631361,0.735244,6.06829,3.48293,5.0224,8,0.0285739,0.01035,64,162.264,0.0390926
0.174251,0.555784,0.781599,6.11958,3.59949,5.03576,9,0.0492776,0.0178493,76,120.178,0.0312591
0.344265,-0.275982,0.8379,6.10722,3.49791,5.0505,10,0.0301987,0.0109386,18,57.6954,0.0554867
,,,,,,,,,25,81.1489,0.124693
,,,,,,,,,33,134.061,0.115847
,,,,,,,,,42,102.051,0.106834
,,,,,,,,,52,121.434,0.0835106
,,,,,,,,,63,162.347,0.0448256
,,,,,,,,,75,92.2526,0.0668593
,,,,,,,,,88,131.974,0.0468007
,,,,,,,,,32,138.156,0.0608951
,,,,,,,,,41,120.527,0.0587059
,,,,,,,,,51,44.8981,0.0562992
,,,,,,,,,62,72.8761,0.0490762
,,,,,,,,,74,133.573,0.032562
,,,,,,,,,87,87.3976,0.0428105
,,,,,,,,,101,135.072,0.0335918
,,,,,,,,,50,81.5991,0.142218
,,,,,,,,,61,176.739,0.128872
,,,,,,,,,73,144.524,0.096396
,,,,,,,,,86,88.1397,0.0482904
,,,,,,,,,100,102.62,0.074872
,,,,,,,,,115,77.345,0.0505906
,,,,,,,,,72,95.6223,0.119446
,,,,,,,,,85,96.2762,0.0910229
,,,,,,,,,99,56.9158,0.0469034
,,,,,,,,,114,133.071,0.0715896
,,,,,,,,,130,84.2651,0.0490704
,,,,,,,,,98,33.8147,0.0853648
,,,,,,,,,113,88.9081,0.0453543
,,,,,,,,,129,78.007,0.0680425
,,,,,,,,,146,100.739,0.0473774
,,,,,,,,,128,62.3343,0.0405468
,,,,,,,,,145,53.8683,0.0577669
,,,,,,,,,163,67.2293,0.0421561
,,,,,,,,,162,76.3649,0.0361728
,,,,,,,,,181,30.8149,0.0293638
,,,,,,,,,200,52.5334,0.0374481
