facetNormals:0,facetNormals:1,facetNormals:2,FacetCenters:0,FacetCenters:1,FacetCenters:2,FacetIds,relFacetSize,absFacetSize,cellPairingIds,interplanarAngles,angleWeights
-0.568172,0.111698,-0.800574,3.42468,3.47398,4.92721,1,0.0357032,0.00339147,8,32.1834,0.0292958
-0.488809,0.612714,-0.59631,3.40986,3.52643,4.96686,2,0.0248383,0.00235941,13,68.4268,0.0567424
-0.00295797,0.906741,-0.305601,3.47767,3.53827,4.98908,3,0.138154,0.0131234,19,30.9826,0.058412
-0.889922,0.00562858,-0.399993,3.38004,3.46247,4.99491,4,0.160492,0.0152452,26,86.6917,0.0424129
0.439414,0.846188,-0.264261,3.53322,3.53453,5.00737,5,0.0522281,0.00496119,34,61.1457,0.0401976
-0.835102,-0.507549,-0.0613123,3.37948,3.39218,5.03399,6,0.0459865,0.00436829,43,112.401,0.0382824
0.535917,0.804529,0.195794,3.50694,3.53526,5.05811,7,0.0412633,0.00391963,53,99.2382,0.0535569
-0.309794,0.772149,0.522218,3.43956,3.5309,5.079,8,0.107126,0.010176,64,176.479,0.00671016
0.549262,-0.169339,0.801757,3.50146,3.44779,5.14667,9,0.00370306,0.000351757,76,91.1287,0.0445119
-0.708933,0.369561,0.57869,3.38269,3.48338,5.0902,10,0.0590909,0.00561309,89,111.044,0.0414071
-0.456281,-0.5262,0.682594,3.40412,3.41263,5.106,11,0.0492801,0.00468116,103,135.124,0.0514316
0.329844,0.594894,0.706846,3.51768,3.50133,5.11051,12,0.0919294,0.00873245,118,121.454,0.0238464
-0.392635,-0.0764676,0.905498,3.42393,3.44316,5.13678,13,0.0179015,0.00170047,134,126.365,0.0206534
-0.218985,0.294463,0.924049,3.44316,3.47003,5.14777,14,0.014529,0.00138012,18,38.329,0.0421064
,,,,,,,,,25,45.2107,0.0430188
,,,,,,,,,33,61.7471,0.0336659
,,,,,,,,,42,82.0255,0.032255
,,,,,,,,,52,83.2465,0.0310101
,,,,,,,,,63,71.1144,0.0403265
,,,,,,,,,75,151.072,0.00644523
,,,,,,,,,88,76.4404,0.0349751
,,,,,,,,,102,121.822,0.0330291
,,,,,,,,,117,103.055,0.0391096
,,,,,,,,,133,113.894,0.0208069
,,,,,,,,,150,105.614,0.0183338
,,,,,,,,,32,81.9974,0.148488
,,,,,,,,,41,26.5725,0.0758004
,,,,,,,,,51,117.941,0.0690041
,,,,,,,,,62,44.9365,0.0635467
,,,,,,,,,74,54.8248,0.120678
,,,,,,,,,87,115.085,0.0072128
,,,,,,,,,101,80.2243,0.0827768
,,,,,,,,,116,137.174,0.0726468
,,,,,,,,,132,69.91,0.110398
,,,,,,,,,149,111.353,0.0316959
,,,,,,,,,167,90.8878,0.0262929
,,,,,,,,,50,106.896,0.0788095
,,,,,,,,,61,36.815,0.0714889
,,,,,,,,,73,124.908,0.0656481
,,,,,,,,,86,85.7423,0.128488
,,,,,,,,,100,147.352,0.0072391
,,,,,,,,,115,65.3578,0.0863784
,,,,,,,,,131,82.1437,0.0754062
,,,,,,,,,148,126.768,0.116899
,,,,,,,,,166,90.7836,0.0322102
,,,,,,,,,185,100.277,0.0266459
,,,,,,,,,72,143.645,0.048909
,,,,,,,,,85,27.6372,0.0461027
,,,,,,,,,99,67.0319,0.0702208
,,,,,,,,,114,96.6961,0.00691578
,,,,,,,,,130,98.9385,0.055448
,,,,,,,,,147,148.894,0.0507113
,,,,,,,,,165,61.607,0.0666118
,,,,,,,,,184,119.112,0.0266638
,,,,,,,,,204,95.322,0.0227339
,,,,,,,,,98,153.982,0.0434971
,,,,,,,,,113,99.8907,0.0643494
,,,,,,,,,129,115.898,0.00685419
,,,,,,,,,146,67.5535,0.0517216
,,,,,,,,,164,50.5867,0.0475764
,,,,,,,,,183,130.258,0.0613057
,,,,,,,,,203,71.274,0.0257709
,,,,,,,,,224,91.3676,0.0220816
,,,,,,,,,128,54.8748,0.0595781
,,,,,,,,,145,71.1043,0.00679622
,,,,,,,,,163,88.1929,0.0485936
,,,,,,,,,182,123.739,0.0449168
,,,,,,,,,202,34.8758,0.0569598
,,,,,,,,,223,95.563,0.02497
,,,,,,,,,245,72.1575,0.021491
,,,,,,,,,162,83.0189,0.00715867
,,,,,,,,,181,33.6323,0.0761676
,,,,,,,,,201,84.5182,0.0675061
,,,,,,,,,222,41.0866,0.0989477
,,,,,,,,,244,56.5875,0.0306766
,,,,,,,,,267,37.2156,0.0255877
,,,,,,,,,200,89.2939,0.00696937
,,,,,,,,,221,66.3601,0.0068885
,,,,,,,,,243,48.0312,0.00711935
,,,,,,,,,266,57.5989,0.0061367
,,,,,,,,,290,54.4174,0.00590189
,,,,,,,,,242,57.0123,0.0537414
,,,,,,,,,265,65.9179,0.0719399
,,,,,,,,,289,37.5962,0.0274784
,,,,,,,,,314,35.5054,0.0233234
,,,,,,,,,288,88.8647,0.0641641
,,,,,,,,,313,29.828,0.0262627
,,,,,,,,,339,53.5743,0.0224417
,,,,,,,,,338,61.3869,0.0299674
,,,,,,,,,365,39.175,0.0250923
,,,,,,,,,392,23.8484,0.0160399
