Q	U	V
{$V$}	{[mm$^3$]}	0.00486141
{$d_v$}	{[mm]}	0.210178
{$S_c$}	{[mm$^2$]}	0.283032
{$S_o$}	{[mm$^2$]}	0.15633
{$S_l/S_o$}	[]	0.810478
{$\Psi$}	[]	0.490332
{$\eta$}	[]	0.522411
{med($\theta_e$)}	{[$^\circ$]}	78.1674
{$\Upsilon$}	[]	12
{$\Xi$}	[]	6
