Q	U	V
{$V$}	{[mm$^3$]}	0.00393876
{$d_v$}	{[mm]}	0.195939
{$S_c$}	{[mm$^2$]}	0.273035
{$S_o$}	{[mm$^2$]}	0.138306
{$S_l/S_o$}	[]	0.974137
{$\Psi$}	[]	0.441746
{$\eta$}	[]	0.507107
{med($\theta_e$)}	{[$^\circ$]}	98.6943
{$\Upsilon$}	[]	11
{$\Xi$}	[]	10
