facetNormals:0,facetNormals:1,facetNormals:2,FacetCenters:0,FacetCenters:1,FacetCenters:2,FacetIds,relFacetSize,absFacetSize,cellPairingIds,interplanarAngles,angleWeights
-0.050704,0.285395,-0.94177,3.87087,6.97845,8.41234,1,0.0353945,0.00495053,8,35.7724,0.0586452
0.504948,0.366131,-0.733748,3.9129,6.95484,8.36203,2,0.170928,0.0239072,13,28.9176,0.0430922
-0.0393008,0.702668,-0.683307,3.88467,7.00994,8.41592,3,0.0550686,0.00770229,19,77.2685,0.0210262
0.507708,-0.692078,-0.46181,3.91379,6.84515,8.35482,4,0.0149552,0.00209174,26,39.42,0.053073
-0.611085,0.415032,-0.621733,3.85823,6.97674,8.41391,5,0.106033,0.0148306,34,91.6213,0.0169202
1.00383,0.0687703,-0.00341955,3.84731,6.91573,8.34078,6,0.0111175,0.00155497,43,90.3207,0.0469667
0.294668,0.890047,0.259552,3.88255,7.06796,8.48736,7,0.0697817,0.00976016,53,146.391,0.0389019
-0.28278,-0.60348,0.633708,3.90303,6.91382,8.36178,8,0.0431809,0.00603959,64,120.953,0.0445292
0.832415,-0.343806,0.376259,3.94335,6.91374,8.42376,9,0.0600188,0.00839466,76,110.837,0.0394046
-0.732322,0.365839,0.509073,3.8286,7.01016,8.45123,10,0.0444395,0.00621563,89,149.279,0.0466152
0.512357,-0.400596,0.73128,3.9174,6.96091,8.48401,11,0.0682524,0.00954627,103,152.434,0.0291611
-0.205954,0.106215,0.952565,3.85609,7.01145,8.52639,12,0.0247945,0.00346793,18,38.5473,0.0833001
,,,,,,,,,25,68.6434,0.027504
,,,,,,,,,33,71.204,0.130878
,,,,,,,,,42,56.5175,0.020877
,,,,,,,,,52,72.3393,0.0991039
,,,,,,,,,63,159.348,0.0689446
,,,,,,,,,75,88.8803,0.0888421
,,,,,,,,,88,131.026,0.0705395
,,,,,,,,,102,116.773,0.0975518
,,,,,,,,,117,144.027,0.0433069
,,,,,,,,,32,101.505,0.0235224
,,,,,,,,,41,38.5702,0.0724896
,,,,,,,,,51,89.3493,0.0185001
,,,,,,,,,62,62.7808,0.0615582
,,,,,,,,,74,159.68,0.0484056
,,,,,,,,,87,123.712,0.0574373
,,,,,,,,,101,93.76,0.0491864
,,,,,,,,,116,146.587,0.0609558
,,,,,,,,,132,126.216,0.0341935
,,,,,,,,,50,109.256,0.0262132
,,,,,,,,,61,61.7868,0.0127539
,,,,,,,,,73,128.19,0.0246315
,,,,,,,,,86,91.1869,0.0222161
,,,,,,,,,100,59.2229,0.0239441
,,,,,,,,,115,156.261,0.0223792
,,,,,,,,,131,77.9179,0.0245345
,,,,,,,,,148,130.296,0.0186571
,,,,,,,,,72,126.86,0.0201248
,,,,,,,,,85,88.2943,0.0841701
,,,,,,,,,99,122.086,0.0613697
,,,,,,,,,114,159.952,0.0766506
,,,,,,,,,130,72.3092,0.0626302
,,,,,,,,,147,171.292,0.0830479
,,,,,,,,,165,116.497,0.0401909
,,,,,,,,,98,68.6653,0.0191793
,,,,,,,,,113,110.73,0.0176824
,,,,,,,,,129,34.3658,0.01876
,,,,,,,,,146,137.202,0.0177855
,,,,,,,,,164,60.5417,0.0191204
,,,,,,,,,183,101.858,0.0153515
,,,,,,,,,128,120.642,0.0533493
,,,,,,,,,145,87.7703,0.0645331
,,,,,,,,,163,75.0485,0.0542993
,,,,,,,,,182,90.949,0.0690086
,,,,,,,,,202,72.8584,0.0365885
,,,,,,,,,162,76.4355,0.0502262
,,,,,,,,,181,69.6073,0.0438012
,,,,,,,,,201,51.4986,0.0528962
,,,,,,,,,222,48.4666,0.031501
,,,,,,,,,200,125.309,0.0510674
,,,,,,,,,221,28.5115,0.0638714
,,,,,,,,,243,80.9535,0.035092
,,,,,,,,,242,99.1172,0.05383
,,,,,,,,,265,44.4524,0.0318299
,,,,,,,,,288,55.1296,0.0363748
