"cellPairingIds","interplanarAngles","angleWeights"
13,67.5849,0.0604727
34,60.7079,0.0596776
134,106.611,0.0150305
51,78.0317,0.124847
62,47.8815,0.0165419
116,88.5428,0.0176521
167,130.676,0.0173057
98,68.648,0.0164818
113,42.469,0.102278
224,144.425,0.01724
128,80.6032,0.016072
182,68.8845,0.00914801
201,110.431,0.0171181
267,114.96,0.0167921
339,75.6258,0.00937688
