facetNormals:0,facetNormals:1,facetNormals:2,FacetCenters:0,FacetCenters:1,FacetCenters:2,FacetIds,relFacetSize,absFacetSize,cellPairingIds,interplanarAngles,angleWeights
0.199924,-0.876918,-0.289613,4.50556,5.02995,6.32682,1,0.0440798,0.00785872,8,61.8825,0.0468094
-0.688126,-0.495598,-0.451941,4.48493,5.05646,6.32713,2,0.0498995,0.00889629,13,110.841,0.0421654
-0.912266,0.231948,-0.212066,4.44674,5.12557,6.30151,3,0.0404104,0.00720452,19,151.119,0.0570668
-0.324053,0.895357,-0.170982,4.45694,5.17561,6.26231,4,0.0809028,0.0144237,26,50.414,0.0559659
-0.549354,-0.790965,0.0133577,4.54806,4.97469,6.35421,5,0.076629,0.0136617,34,69.6096,0.0432437
-0.554003,-0.645055,0.467622,4.48573,5.03185,6.37208,6,0.0424388,0.00756616,43,101.443,0.0396312
-0.917381,-0.107049,0.324502,4.45225,5.06414,6.36825,7,0.0359982,0.0064179,53,111.565,0.074444
0.786004,0.478343,0.232187,4.58611,5.05812,6.32335,8,0.239252,0.0426547,64,159.504,0.0583835
0.0649746,0.821973,0.494864,4.48306,5.14248,6.34887,9,0.0864296,0.015409,76,130.045,0.0385985
-0.631942,0.30527,0.656035,4.4461,5.095,6.38112,10,0.0343296,0.00612042,18,48.971,0.0446564
,,,,,,,,,25,98.8782,0.0617269
,,,,,,,,,33,34.3609,0.0604409
,,,,,,,,,42,58.3306,0.0458678
,,,,,,,,,52,55.1408,0.041824
,,,,,,,,,63,165.508,0.0825765
,,,,,,,,,75,136.992,0.0632703
,,,,,,,,,88,90.8022,0.0406755
,,,,,,,,,32,54.6882,0.0538987
,,,,,,,,,41,70.1952,0.0529156
,,,,,,,,,51,74.0939,0.0413997
,,,,,,,,,62,38.1069,0.0380769
,,,,,,,,,74,135.702,0.0691424
,,,,,,,,,87,88.3673,0.0550718
,,,,,,,,,101,56.7543,0.0371226
,,,,,,,,,50,124.853,0.0787079
,,,,,,,,,61,120.607,0.0556733
,,,,,,,,,73,81.135,0.049826
,,,,,,,,,86,81.6145,0.120917
,,,,,,,,,100,47.3511,0.0835749
,,,,,,,,,115,66.8126,0.0482045
,,,,,,,,,72,28.5704,0.0546251
,,,,,,,,,85,51.0296,0.0489847
,,,,,,,,,99,152.009,0.116079
,,,,,,,,,114,137.17,0.0812348
,,,,,,,,,130,82.8936,0.0474167
,,,,,,,,,98,39.8778,0.0389541
,,,,,,,,,113,133.632,0.0720901
,,,,,,,,,129,111.025,0.0569258
,,,,,,,,,146,60.4369,0.0379559
,,,,,,,,,128,138.608,0.0625804
,,,,,,,,,145,89.2096,0.0508268
,,,,,,,,,163,36.095,0.0351441
,,,,,,,,,162,52.2125,0.126986
,,,,,,,,,181,102.567,0.0600437
,,,,,,,,,200,54.6494,0.0491407
