"cellPairingIds","interplanarAngles","angleWeights"
8,35.196,0.0632607
13,36.7929,0.0231672
34,76.9207,0.0927987
64,67.5716,0.0491476
25,31.4668,0.0335204
42,81.7853,0.0895992
75,68.5204,0.0482354
41,39.4826,0.0147601
51,65.8588,0.0259622
62,72.9635,0.0245517
74,53.8452,0.0247065
87,85.667,0.020795
61,83.6911,0.040321
100,80.9299,0.0290936
115,81.6581,0.021756
166,94.9625,0.0329235
85,38.262,0.0266137
114,46.6392,0.0222555
113,53.391,0.123658
146,50.2634,0.0366401
164,52.9523,0.0846162
128,95.0845,0.0970916
145,32.7979,0.0558259
202,66.2233,0.102699
201,47.1893,0.0725919
222,48.3803,0.105463
243,97.4919,0.0584956
266,107.088,0.0470089
242,38.3649,0.0303202
289,56.3731,0.0304275
288,62.1818,0.0756813
313,65.3245,0.0575025
338,82.2754,0.0763537
