Q	U	V
{$V$}	{[mm$^3$]}	0.00184173
{$d_v$}	{[mm]}	0.152081
{$S_c$}	{[mm$^2$]}	0.11842
{$S_o$}	{[mm$^2$]}	0.0703147
{$S_l/S_o$}	[]	0.684143
{$\Psi$}	[]	0.613587
{$\eta$}	[]	0.684236
{med($\theta_e$)}	{[$^\circ$]}	64.65685
{$\Upsilon$}	[]	12
{$\Xi$}	[]	6
