Q	U	V
{$V$}	{[mm$^3$]}	0.00432349
{$d_v$}	{[mm]}	0.202121
{$S_c$}	{[mm$^2$]}	0.231377
{$S_o$}	{[mm$^2$]}	0.140076
{$S_l/S_o$}	[]	0.651796
{$\Psi$}	[]	0.554694
{$\eta$}	[]	0.595215
{med($\theta_e$)}	{[$^\circ$]}	54.0298
{$\Upsilon$}	[]	14
{$\Xi$}	[]	8
