facetNormals:0,facetNormals:1,facetNormals:2,FacetCenters:0,FacetCenters:1,FacetCenters:2,FacetIds,relFacetSize,absFacetSize,cellPairingIds,interplanarAngles,angleWeights
0.245976,0.494129,-0.778571,7.44354,7.63761,6.40157,1,0.041226,0.0125448,8,83.2336,0.0333261
-0.115957,-0.733776,-0.644364,7.41257,7.51156,6.39893,2,0.0279669,0.00851018,13,58.3176,0.054525
-0.647526,0.43431,-0.539274,7.3728,7.58163,6.40895,3,0.0804901,0.0244927,19,43.0667,0.0643372
0.748262,0.056284,-0.573826,7.46346,7.49758,6.40118,4,0.14642,0.0445546,26,99.596,0.0522326
-0.758366,-0.4507,-0.332955,7.38604,7.58353,6.46706,5,0.0712569,0.0216831,34,82.4717,0.0526119
0.832781,-0.395614,-0.137691,7.48315,7.50108,6.47087,6,0.0726866,0.0221181,43,72.1464,0.0444061
0.750052,0.57829,0.237068,7.46528,7.56266,6.51713,7,0.0481178,0.014642,53,154.875,0.0393623
-0.557625,-0.584072,0.517717,7.39774,7.53088,6.56044,8,0.0376597,0.0114596,64,84.2388,0.0550084
-0.0910009,0.853678,0.396676,7.41811,7.65433,6.50457,9,0.0826338,0.025145,76,95.7222,0.0363995
0.818452,0.195135,0.502178,7.48904,7.54256,6.50461,10,0.0325847,0.00991534,89,125.557,0.0550281
0.568381,-0.208697,0.714953,7.46785,7.49858,6.55335,11,0.0827229,0.0251721,18,83.602,0.0415106
,,,,,,,,,25,74.9199,0.0469636
,,,,,,,,,33,46.9328,0.0401685
,,,,,,,,,42,72.0549,0.0403924
,,,,,,,,,52,133.761,0.0353739
,,,,,,,,,63,80.2566,0.0320975
,,,,,,,,,75,159.558,0.0417902
,,,,,,,,,88,125.654,0.0300997
,,,,,,,,,102,113.913,0.0418016
,,,,,,,,,32,99.683,0.103877
,,,,,,,,,41,57.9112,0.0755926
,,,,,,,,,51,136.103,0.0763896
,,,,,,,,,62,113.048,0.0602296
,,,,,,,,,74,100.889,0.0513117
,,,,,,,,,87,76.0743,0.0815479
,,,,,,,,,101,140.428,0.0463896
,,,,,,,,,116,161.9,0.0815912
,,,,,,,,,50,116.811,0.0958615
,,,,,,,,,61,39.4593,0.0971469
,,,,,,,,,73,60.2426,0.0724322
,,,,,,,,,86,145.55,0.0599102
,,,,,,,,,100,106.095,0.105645
,,,,,,,,,115,68.766,0.0533064
,,,,,,,,,131,89.7868,0.105718
,,,,,,,,,72,117.613,0.0719646
,,,,,,,,,85,170.656,0.0574447
,,,,,,,,,99,55.3888,0.0492765
,,,,,,,,,114,120.144,0.0765248
,,,,,,,,,130,161.431,0.0447197
,,,,,,,,,147,130.61,0.0765629
,,,,,,,,,98,66.4797,0.0579038
,,,,,,,,,113,109.916,0.0496139
,,,,,,,,,129,122.073,0.0773417
,,,,,,,,,146,54.1277,0.0449975
,,,,,,,,,164,58.4135,0.0773807
,,,,,,,,,128,132.548,0.0422512
,,,,,,,,,145,55.7648,0.06082
,,,,,,,,,163,27.8593,0.0388564
,,,,,,,,,182,58.7064,0.0608441
,,,,,,,,,162,105.505,0.0517395
,,,,,,,,,181,109.282,0.0349389
,,,,,,,,,201,78.7651,0.051757
,,,,,,,,,200,71.6782,0.046739
,,,,,,,,,221,86.524,0.0826783
,,,,,,,,,242,31.4093,0.0467532
