Q	U	V
{$V$}	{[mm$^3$]}	0.00210534
{$d_v$}	{[mm]}	0.159016
{$S_c$}	{[mm$^2$]}	0.101363
{$S_o$}	{[mm$^2$]}	0.0696948
{$S_l/S_o$}	[]	0.454384
{$\Psi$}	[]	0.783705
{$\eta$}	[]	0.814641
{med($\theta_e$)}	{[$^\circ$]}	59.0024
{$\Upsilon$}	[]	11
{$\Xi$}	[]	5
