facetNormals:0,facetNormals:1,facetNormals:2,FacetCenters:0,FacetCenters:1,FacetCenters:2,FacetIds,relFacetSize,absFacetSize,cellPairingIds,interplanarAngles,angleWeights
-0.365422,-0.494385,-0.656924,7.24601,3.69206,7.24719,1,0.0217251,0.00187355,8,78.1334,0.0183494
-0.211612,0.682389,-0.672091,7.22437,3.76364,7.22021,2,0.0158816,0.00136961,13,61.1789,0.0293565
-0.70103,0.394639,-0.550742,7.18874,3.75537,7.24005,3,0.0452523,0.0039025,19,58.5089,0.0344173
-0.950747,-0.125942,-0.0640182,7.16284,3.69897,7.29221,4,0.0827772,0.00713859,26,135.85,0.0375201
0.399065,0.872497,0.0665071,7.28673,3.77011,7.25273,5,0.137454,0.0118538,34,131.195,0.0332611
-0.254047,0.870933,0.369528,7.19658,3.7701,7.29124,6,0.0709185,0.00611591,43,85.4494,0.0163608
-0.881475,-0.082074,0.444456,7.17674,3.66768,7.31465,7,0.0131209,0.00113153,53,167.256,0.0246867
0.460583,0.674369,0.556183,7.34065,3.72041,7.25714,8,0.0285833,0.00246498,64,89.8302,0.0284919
-0.603034,-0.415147,0.643918,7.19752,3.64551,7.35042,9,0.041381,0.00356864,76,141.623,0.0379385
0.574714,-0.074868,0.780076,7.29412,3.66036,7.33189,10,0.149538,0.0128959,89,114.801,0.0136818
0.0726942,-0.455974,0.867097,7.24161,3.61727,7.35767,11,0.00998506,0.000861098,103,131.451,0.028951
-0.386647,0.375604,0.82874,7.22114,3.70591,7.3414,12,0.0433792,0.00374096,118,151.659,0.0354329
0.0193216,0.329324,0.923352,7.21863,3.70452,7.34464,13,0.0960142,0.00828013,18,34.534,0.0235116
,,,,,,,,,25,80.3358,0.0266501
,,,,,,,,,33,60.3807,0.0284733
,,,,,,,,,42,65.4182,0.0259515
,,,,,,,,,52,99.9679,0.0143699
,,,,,,,,,63,90.6555,0.0204183
,,,,,,,,,75,127.974,0.0229538
,,,,,,,,,88,136.985,0.0287136
,,,,,,,,,102,160.675,0.0122612
,,,,,,,,,117,103.044,0.0232508
,,,,,,,,,133,114.572,0.027255
,,,,,,,,,32,45.9067,0.0585156
,,,,,,,,,41,88.2926,0.0680886
,,,,,,,,,51,70.5329,0.0552501
,,,,,,,,,62,69.3383,0.0203433
,,,,,,,,,74,112.142,0.0350362
,,,,,,,,,87,95.7794,0.0432302
,,,,,,,,,101,155.487,0.0694792
,,,,,,,,,116,137.706,0.0163602
,,,,,,,,,132,92.2085,0.044296
,,,,,,,,,149,114.216,0.061513
,,,,,,,,,50,122.27,0.103328
,,,,,,,,,61,83.4019,0.0763903
,,,,,,,,,73,30.5537,0.0226514
,,,,,,,,,86,126.016,0.0424934
,,,,,,,,,100,51.4218,0.0551781
,,,,,,,,,115,128.927,0.106565
,,,,,,,,,131,94.0809,0.0178205
,,,,,,,,,148,73.6661,0.0569263
,,,,,,,,,166,97.2512,0.0889057
,,,,,,,,,72,43.5267,0.0935634
,,,,,,,,,85,114.417,0.0239552
,,,,,,,,,99,31.6195,0.0473253
,,,,,,,,,114,126.674,0.0636115
,,,,,,,,,130,76.6435,0.143241
,,,,,,,,,147,109.229,0.0186177
,,,,,,,,,165,76.0922,0.0659463
,,,,,,,,,184,67.7899,0.113056
,,,,,,,,,98,70.9521,0.0221448
,,,,,,,,,113,45.7122,0.0407446
,,,,,,,,,129,88.2253,0.0522652
,,,,,,,,,146,85.3576,0.0962095
,,,,,,,,,164,95.6758,0.0175054
,,,,,,,,,183,40.9378,0.0538312
,,,,,,,,,203,49.5538,0.08158
,,,,,,,,,128,102.638,0.0179857
,,,,,,,,,145,28.12,0.0199243
,,,,,,,,,163,99.1897,0.0241251
,,,,,,,,,182,68.3684,0.0113402
,,,,,,,,,202,46.1598,0.0201478
,,,,,,,,,223,67.8423,0.0230869
,,,,,,,,,162,101.956,0.0338117
,,,,,,,,,181,47.5505,0.0479929
,,,,,,,,,201,77.6108,0.0148
,,,,,,,,,222,56.7106,0.0344602
,,,,,,,,,244,39.7792,0.0440522
,,,,,,,,,200,78.629,0.0648236
,,,,,,,,,221,42.7099,0.0160881
,,,,,,,,,243,50.6733,0.0423566
,,,,,,,,,266,62.1778,0.0578356
,,,,,,,,,242,37.9982,0.0187201
,,,,,,,,,265,65.6489,0.06725
,,,,,,,,,289,42.1249,0.116943
,,,,,,,,,288,57.6817,0.0162335
,,,,,,,,,313,47.4088,0.018089
,,,,,,,,,338,24.5909,0.0597592
