facetNormals:0,facetNormals:1,facetNormals:2,FacetCenters:0,FacetCenters:1,FacetCenters:2,FacetIds,relFacetSize,absFacetSize,cellPairingIds,interplanarAngles,angleWeights
-0.0328729,-0.628211,-0.740108,5.3009,6.09827,5.60868,1,0.00628093,0.000842219,8,98.4206,0.0119286
-0.764211,0.540189,-0.238943,5.23801,6.12599,5.54262,2,0.118319,0.0158656,13,60.658,0.0108782
0.67024,-0.685325,-0.0660018,5.24973,6.11799,5.55986,3,0.0405804,0.00544149,19,126.036,0.010663
-0.757746,0.512595,0.356676,5.23302,6.12095,5.60469,4,0.0352711,0.00472955,26,125.54,0.0119791
0.726059,0.623055,0.181833,5.34084,6.14745,5.54319,5,0.129122,0.0173141,34,100.487,0.0113643
0.95177,-0.0324575,0.218689,5.35462,6.07819,5.56717,6,0.0596049,0.00799251,43,85.8244,0.0118082
-0.749412,-0.508899,0.371675,5.23139,6.01622,5.58173,7,0.0984127,0.0131963,53,104.549,0.0108079
0.673763,-0.369159,0.606043,5.31932,6.05262,5.61369,8,0.0387027,0.00518971,64,140.224,0.0114241
0.635268,0.356196,0.662568,5.33065,6.09292,5.62511,9,0.063065,0.00845648,76,136.309,0.0114045
-0.490612,0.134406,0.837967,5.2448,6.08307,5.63007,10,0.0618927,0.00829928,18,159.036,0.0604337
,,,,,,,,,25,35.6413,0.0543426
,,,,,,,,,33,106.156,0.123485
,,,,,,,,,42,147.633,0.0792743
,,,,,,,,,52,77.2329,0.107452
,,,,,,,,,63,155.366,0.0583266
,,,,,,,,,75,118.336,0.0822762
,,,,,,,,,88,74.8589,0.0812721
,,,,,,,,,32,159.323,0.0377399
,,,,,,,,,41,87.0819,0.0617531
,,,,,,,,,51,46.546,0.0482864
,,,,,,,,,62,100.909,0.0574651
,,,,,,,,,74,45.0229,0.0396194
,,,,,,,,,87,81.616,0.0493838
,,,,,,,,,101,120.372,0.0490203
,,,,,,,,,50,99.993,0.0554071
,,,,,,,,,61,133.451,0.0443174
,,,,,,,,,73,62.7934,0.0519303
,,,,,,,,,86,120.22,0.0369073
,,,,,,,,,100,93.7045,0.0452402
,,,,,,,,,115,39.7976,0.0449349
,,,,,,,,,72,41.6911,0.0815601
,,,,,,,,,85,146.331,0.111695
,,,,,,,,,99,67.1937,0.0595547
,,,,,,,,,114,33.0581,0.0847411
,,,,,,,,,130,97.2271,0.0836763
,,,,,,,,,98,130.038,0.0742433
,,,,,,,,,113,34.731,0.0469317
,,,,,,,,,129,39.909,0.0612861
,,,,,,,,,146,107.502,0.0607272
,,,,,,,,,128,95.4987,0.0555567
,,,,,,,,,145,115.24,0.07687
,,,,,,,,,163,50.4857,0.0759928
,,,,,,,,,162,43.569,0.0479678
,,,,,,,,,181,82.3514,0.0476248
,,,,,,,,,200,72.4266,0.0624733
