facetNormals:0,facetNormals:1,facetNormals:2,FacetCenters:0,FacetCenters:1,FacetCenters:2,FacetIds,relFacetSize,absFacetSize,cellPairingIds,interplanarAngles,angleWeights
0.345162,-0.409133,-0.817659,6.56154,3.7203,7.51712,1,0.0174182,0.00320415,8,42.9409,0.0189229
0.86262,-0.0802999,-0.449783,6.58228,3.71729,7.57779,2,0.020712,0.00381005,13,45.955,0.029313
0.139598,-0.91148,-0.287629,6.53514,3.69607,7.5944,3,0.0924387,0.0170044,19,76.2135,0.0262498
0.903915,0.336729,-0.0622307,6.56528,3.75264,7.65713,4,0.0532484,0.00979524,26,78.3377,0.0317353
-0.490795,-0.801164,-0.0334474,6.47493,3.71191,7.61935,5,0.178249,0.0327895,34,106.492,0.0287335
-0.882236,0.242861,-0.177668,6.41816,3.79105,7.65513,6,0.0820074,0.0150855,43,118.957,0.0270761
-0.00629631,0.934046,0.0720924,6.53109,3.7119,7.61078,7,0.060773,0.0111794,53,118.031,0.029447
0.548798,0.614503,0.452053,6.53938,3.78167,7.67226,8,0.0951692,0.0175067,64,82.1784,0.0230769
0.712586,-0.521783,0.403922,6.54126,3.72175,7.71313,9,0.0341813,0.00628778,76,153.988,0.0268494
-0.686091,0.21195,0.631482,6.44592,3.76997,7.73571,10,0.0585533,0.0107711,89,155.476,0.0260044
-0.144216,0.712703,0.625498,6.50921,3.77541,7.68546,11,0.0512844,0.00943395,103,110.148,0.0208876
0.625309,-0.144413,0.739258,6.54991,3.75504,7.67998,12,0.0260828,0.00479803,118,127.302,0.0238777
-0.0326971,-0.391012,0.879265,6.49803,3.72956,7.73808,13,0.0379522,0.00698143,18,69.9679,0.0338414
,,,,,,,,,25,34.168,0.0298236
,,,,,,,,,33,112.014,0.0371118
,,,,,,,,,42,140.353,0.0330714
,,,,,,,,,52,97.0891,0.0308948
,,,,,,,,,63,76.0767,0.0340201
,,,,,,,,,75,59.9368,0.0257942
,,,,,,,,,88,163.048,0.0305999
,,,,,,,,,102,119.635,0.0295071
,,,,,,,,,117,76.7828,0.0230892
,,,,,,,,,133,114.669,0.0267988
,,,,,,,,,32,100.044,0.0675724
,,,,,,,,,41,42.3292,0.121742
,,,,,,,,,51,109.019,0.0869111
,,,,,,,,,62,164.731,0.0733335
,,,,,,,,,74,132.522,0.0937841
,,,,,,,,,87,60.7135,0.049908
,,,,,,,,,101,120.63,0.0716937
,,,,,,,,,116,156.503,0.0659694
,,,,,,,,,132,89.6189,0.0406857
,,,,,,,,,149,83.8936,0.0538113
,,,,,,,,,50,141.514,0.0820007
,,,,,,,,,61,141.448,0.0645704
,,,,,,,,,73,70.3616,0.0567624
,,,,,,,,,86,42.0185,0.0682885
,,,,,,,,,100,61.8224,0.0416358
,,,,,,,,,115,129.513,0.055775
,,,,,,,,,131,85.6263,0.052248
,,,,,,,,,148,60.1775,0.0350144
,,,,,,,,,166,103.416,0.0443175
,,,,,,,,,72,73.8084,0.112333
,,,,,,,,,85,148.088,0.090642
,,,,,,,,,99,151.547,0.124087
,,,,,,,,,114,86.5597,0.0573627
,,,,,,,,,130,80.6665,0.08815
,,,,,,,,,147,125.304,0.0796519
,,,,,,,,,165,103.569,0.0455067
,,,,,,,,,184,70.6518,0.06258
,,,,,,,,,98,75.4363,0.0698112
,,,,,,,,,113,118.296,0.0880994
,,,,,,,,,129,156.022,0.0482512
,,,,,,,,,146,52.3419,0.0683235
,,,,,,,,,164,77.7837,0.0631051
,,,,,,,,,183,141.898,0.0395778
,,,,,,,,,203,104.343,0.0518901
,,,,,,,,,128,46.7618,0.0741777
,,,,,,,,,145,120.57,0.0437537
,,,,,,,,,163,73.9412,0.0596425
,,,,,,,,,182,37.6252,0.055627
,,,,,,,,,202,95.3511,0.0365003
,,,,,,,,,223,109.535,0.046725
,,,,,,,,,162,73.9049,0.0502976
,,,,,,,,,181,87.5011,0.0725004
,,,,,,,,,201,44.6213,0.0666518
,,,,,,,,,222,50.223,0.0409442
,,,,,,,,,244,81.1472,0.0542644
,,,,,,,,,200,111.769,0.0431647
,,,,,,,,,221,103.787,0.0410216
,,,,,,,,,243,30.4586,0.0295879
,,,,,,,,,266,55.0351,0.0359682
,,,,,,,,,242,45.314,0.0546783
,,,,,,,,,265,89.5593,0.0360895
,,,,,,,,,289,57.4929,0.0460538
,,,,,,,,,288,73.3334,0.034579
,,,,,,,,,313,72.6099,0.0436223
,,,,,,,,,338,43.2969,0.0309175
