facetNormals:0,facetNormals:1,facetNormals:2,FacetCenters:0,FacetCenters:1,FacetCenters:2,FacetIds,relFacetSize,absFacetSize,cellPairingIds,interplanarAngles,angleWeights
-0.0238421,0.156682,-0.960362,6.13893,5.24757,6.829,1,0.0230359,0.00898767,8,47.9756,0.0275632
-0.299416,-0.547505,-0.737254,6.14943,5.19181,6.81173,2,0.0343052,0.0133845,13,40.5659,0.0296536
-0.242163,0.704417,-0.630379,6.1183,5.28056,6.82709,3,0.0416061,0.016233,19,66.2769,0.0378191
-0.870449,0.257392,-0.33026,6.01049,5.23339,6.91831,4,0.105565,0.0411872,26,73.3796,0.0334683
0.750831,-0.395296,-0.349129,6.04883,5.21142,6.97859,5,0.0611714,0.0238666,34,104.48,0.0363294
-0.486237,-0.790301,0.120248,6.05219,5.13273,7.00114,6,0.0859009,0.033515,43,119.522,0.0259351
0.844083,-0.166243,0.432906,6.18089,5.22725,6.96291,7,0.0296692,0.0115757,53,91.0653,0.0408144
0.516637,0.767555,0.130005,6.20146,5.26041,6.89403,8,0.178832,0.0697728,18,80.7452,0.0376046
,,,,,,,,,25,67.0904,0.0517827
,,,,,,,,,33,73.6819,0.0439584
,,,,,,,,,42,57.1956,0.0490299
,,,,,,,,,52,121.127,0.0318192
,,,,,,,,,63,138.011,0.0575673
,,,,,,,,,32,50.4412,0.0596877
,,,,,,,,,41,105.561,0.0495265
,,,,,,,,,51,124.318,0.0560597
,,,,,,,,,62,129.234,0.0346381
,,,,,,,,,74,68.5361,0.0675065
,,,,,,,,,50,136.23,0.0774583
,,,,,,,,,61,78.5045,0.0947232
,,,,,,,,,73,171.691,0.0463201
,,,,,,,,,86,109.085,0.132761
,,,,,,,,,72,96.3304,0.0714571
,,,,,,,,,85,51.6457,0.0399581
,,,,,,,,,99,87.3854,0.0911604
,,,,,,,,,98,104.59,0.044105
,,,,,,,,,113,164.442,0.116055
,,,,,,,,,128,66.0855,0.0508947
