Q	U	V
{$V$}	{[mm$^3$]}	0.00111857
{$d_v$}	{[mm]}	0.128792
{$S_c$}	{[mm$^2$]}	0.0964172
{$S_o$}	{[mm$^2$]}	0.0537464
{$S_l/S_o$}	[]	0.793929
{$\Psi$}	[]	0.54047
{$\eta$}	[]	0.578933
{med($\theta_e$)}	{[$^\circ$]}	72.1213
{$\Upsilon$}	[]	19
{$\Xi$}	[]	5
