Q	U	V
{$V$}	{[mm$^3$]}	0.00819101
{$d_v$}	{[mm]}	0.250100
{$S_c$}	{[mm$^2$]}	0.343472
{$S_o$}	{[mm$^2$]}	0.220088
{$S_l/S_o$}	[]	0.560612
{$\Psi$}	[]	0.572116
{$\eta$}	[]	0.625175
{med($\theta_e$)}	{[$^\circ$]}	66.7342
{$\Upsilon$}	[]	12
{$\Xi$}	[]	12
