"cellPairingIds","interplanarAngles","angleWeights"
8,67.9121,0.0217114
13,34.2735,0.0562259
19,106.26,0.0481332
26,111.641,0.0407309
34,55.8316,0.0625414
53,97.9001,0.0505877
103,96.9031,0.0705411
18,39.1777,0.0215277
25,40.3101,0.0202257
102,72.8274,0.0217418
117,105.455,0.0233413
132,88.3773,0.0686387
50,109.779,0.0357979
100,77.1544,0.0435056
131,77.8158,0.0482831
148,113.148,0.0569498
166,82.135,0.0415442
185,110.559,0.0423442
99,24.7117,0.0371381
114,44.4463,0.0373675
113,51.4467,0.0544527
146,25.8417,0.0717245
183,78.5823,0.0782899
162,64.4143,0.0455011
181,36.6751,0.0564319
267,72.7479,0.0442323
290,62.074,0.0445581
265,70.8898,0.0824473
314,65.1365,0.0549886
288,36.4274,0.0708636
338,39.6322,0.057237
365,46.3519,0.0587668
392,37.496,0.0425028
