"cellPairingIds","interplanarAngles","angleWeights"
8,71.6518,0.0101798
53,89.3868,0.0915723
76,93.162,0.00801944
118,164.845,0.0497678
63,53.6088,0.0104652
133,102.292,0.00954858
181,127.239,0.00819552
244,98.1231,0.0574244
289,92.7145,0.00762248
