"cellPairingIds","interplanarAngles","angleWeights"
8,34.8965,0.066472
19,25.4401,0.113916
34,154.17,0.0267521
18,43.8219,0.0168716
42,120.051,0.020748
61,136.973,0.0238482
73,89.0482,0.0822214
86,66.4863,0.0634513
113,107.953,0.0225418
128,30.7335,0.0685289
