"cellPairingIds","interplanarAngles","angleWeights"
18,33.209,0.0360452
63,95.5002,0.0329049
75,112.753,0.053634
88,125.766,0.0256179
102,168.761,0.0637473
87,84.2186,0.041936
101,105.282,0.0226059
116,157.898,0.0478746
181,36.6225,0.0213293
201,87.5532,0.0424887
221,75.9996,0.0848184
242,61.549,0.031075
