"cellPairingIds","interplanarAngles","angleWeights"
13,105.696,0.0093219
26,63.2005,0.058413
34,52.5493,0.0902879
32,112.173,0.00978697
41,142.146,0.00936182
51,110.9,0.00992329
62,120.901,0.0098817
87,84.1734,0.00335851
101,104.327,0.00580864
50,33.1894,0.0831821
73,41.8463,0.156197
72,91.0986,0.0941779
85,50.8484,0.0905607
99,85.7946,0.0366648
113,70.0338,0.0471025
129,94.4184,0.00496149
128,72.6503,0.0461799
163,50.5642,0.0130919
162,47.0272,0.00458278
181,43.6157,0.0107974
200,35.0484,0.00366385
