Q	U	V
{$V$}	{[mm$^3$]}	0.00813876
{$d_v$}	{[mm]}	0.249567
{$S_c$}	{[mm$^2$]}	0.232138
{$S_o$}	{[mm$^2$]}	0.203436
{$S_l/S_o$}	[]	0.141086
{$\Psi$}	[]	0.842901
{$\eta$}	[]	0.869487
{med($\theta_e$)}	{[$^\circ$]}	57.8493
{$\Upsilon$}	[]	14
{$\Xi$}	[]	8
