"cellPairingIds","interplanarAngles","angleWeights"
13,50.149,0.0374864
43,54.4639,0.0452507
53,48.7065,0.0380591
64,105.999,0.11539
18,48.0403,0.0393837
25,27.6061,0.0768183
42,67.1343,0.134937
32,25.0091,0.0337968
62,22.5127,0.0267488
61,87.2759,0.0861458
73,24.605,0.0399818
115,69.9208,0.0593122
72,72.085,0.0806554
114,33.8061,0.0808492
129,74.8977,0.167459
146,60.798,0.0888647
128,65.014,0.0270391
163,63.4579,0.0405578
162,60.8141,0.0424618
181,60.935,0.0346837
200,58.9088,0.0891001
