facetNormals:0,facetNormals:1,facetNormals:2,FacetCenters:0,FacetCenters:1,FacetCenters:2,FacetIds,relFacetSize,absFacetSize,cellPairingIds,interplanarAngles,angleWeights
-0.228055,0.541489,-0.789994,3.86932,6.4059,7.2089,1,0.0145415,0.0016511,8,51.1137,0.0253682
-0.650737,-0.183283,-0.698062,3.84928,6.31777,7.21417,2,0.0993015,0.0112751,13,114.166,0.0187653
0.732548,-0.506812,-0.101458,3.88707,6.31254,7.24984,3,0.026447,0.0030029,19,50.1093,0.025377
0.329299,0.861307,-0.273409,3.90378,6.42043,7.26402,4,0.0995715,0.0113057,26,45.8753,0.0233285
-0.824831,0.390169,-0.339059,3.86346,6.36863,7.20087,5,0.0589504,0.00669345,34,78.5722,0.0258273
-0.970486,-0.112578,-0.0384353,3.818,6.34623,7.29457,6,0.115355,0.0130978,43,101.552,0.023845
-0.87545,-0.359938,0.250363,3.83447,6.29206,7.3443,7,0.0661962,0.00751617,53,88.0191,0.0206958
0.660843,0.682729,0.235029,3.9144,6.39699,7.27839,8,0.0358815,0.00407413,64,126.467,0.0246444
0.719016,0.164396,0.617786,3.85955,6.31219,7.23164,9,0.0807379,0.00916729,76,100.611,0.0258056
-0.0706121,0.666522,0.699584,3.88278,6.40108,7.35654,10,0.114493,0.013,89,142.27,0.0175173
-0.249298,-0.148716,0.935546,3.87436,6.28739,7.37941,11,0.0220242,0.00250071,103,142.08,0.0189452
0.189948,0.07321,0.963539,3.87118,6.31161,7.3005,12,0.0271746,0.0030855,18,111.054,0.0417695
,,,,,,,,,25,101.185,0.0994363
,,,,,,,,,33,42.0949,0.0739816
,,,,,,,,,42,44.3881,0.106728
,,,,,,,,,52,61.027,0.0794377
,,,,,,,,,63,139.126,0.052715
,,,,,,,,,75,173.678,0.0890627
,,,,,,,,,88,126.845,0.106358
,,,,,,,,,102,119.144,0.0360524
,,,,,,,,,117,147.78,0.0426717
,,,,,,,,,32,101.205,0.0417934
,,,,,,,,,41,151.586,0.0365131
,,,,,,,,,51,137.858,0.0430289
,,,,,,,,,62,123.484,0.0377943
,,,,,,,,,74,82.52,0.0304502
,,,,,,,,,87,63.8085,0.0398429
,,,,,,,,,101,122.017,0.0429687
,,,,,,,,,116,103.309,0.0240338
,,,,,,,,,132,89.722,0.0268059
,,,,,,,,,50,80.3374,0.0740564
,,,,,,,,,61,115.58,0.106884
,,,,,,,,,73,135.075,0.079524
,,,,,,,,,86,38.0441,0.052753
,,,,,,,,,100,76.9174,0.0891711
,,,,,,,,,115,67.3027,0.106512
,,,,,,,,,131,119.643,0.0360701
,,,,,,,,,148,98.3674,0.0426966
,,,,,,,,,72,36.0403,0.0780265
,,,,,,,,,85,58.5852,0.0623635
,,,,,,,,,99,112.095,0.0446101
,,,,,,,,,114,142.038,0.068145
,,,,,,,,,130,85.0668,0.0778285
,,,,,,,,,147,100.246,0.0320678
,,,,,,,,,165,118.323,0.0372006
,,,,,,,,,98,23.1083,0.0841202
,,,,,,,,,113,139.454,0.054737
,,,,,,,,,129,141.877,0.0949909
,,,,,,,,,146,92.0204,0.114923
,,,,,,,,,164,76.5528,0.0369867
,,,,,,,,,183,103.796,0.043987
,,,,,,,,,128,143.005,0.0465375
,,,,,,,,,145,124.53,0.0727475
,,,,,,,,,163,90.1775,0.08389
,,,,,,,,,182,58.1571,0.0330518
,,,,,,,,,202,87.1113,0.0385314
,,,,,,,,,162,38.9294,0.049683
,,,,,,,,,181,52.8407,0.0546394
,,,,,,,,,201,92.7738,0.0272948
,,,,,,,,,222,65.3544,0.0309269
,,,,,,,,,200,58.2145,0.0946975
,,,,,,,,,221,66.6012,0.0346079
,,,,,,,,,243,38.2711,0.0406629
,,,,,,,,,242,52.8611,0.0369422
,,,,,,,,,265,41.9634,0.043924
,,,,,,,,,288,29.0639,0.0243298
