Q	U	V
{$V$}	{[mm$^3$]}	0.00268244
{$d_v$}	{[mm]}	0.172389
{$S_c$}	{[mm$^2$]}	0.196364
{$S_o$}	{[mm$^2$]}	0.106672
{$S_l/S_o$}	[]	0.840820
{$\Psi$}	[]	0.475454
{$\eta$}	[]	0.559497
{med($\theta_e$)}	{[$^\circ$]}	43.5175
{$\Upsilon$}	[]	10
{$\Xi$}	[]	10
