"cellPairingIds","interplanarAngles","angleWeights"
13,33.6512,0.0231826
19,65.8359,0.0393245
26,44.6594,0.0777241
43,91.8729,0.0828494
41,51.0158,0.023917
62,67.4178,0.0243812
74,39.4228,0.0239692
50,75.047,0.0414854
61,39.2265,0.0312204
73,135.752,0.042902
100,114.045,0.0400288
72,41.5691,0.0513691
99,82.8747,0.0873331
147,83.5387,0.0920734
129,145.638,0.0491543
164,107.807,0.05323
128,34.1639,0.0938573
145,58.9224,0.0860389
163,38.4401,0.0912883
181,55.4454,0.0857691
201,66.751,0.0928517
200,44.2713,0.079193
221,87.6782,0.0851931
242,52.045,0.0903368
