Q	U	V
{$V$}	{[mm$^3$]}	0.00689313
{$d_v$}	{[mm]}	0.236124
{$S_c$}	{[mm$^2$]}	0.30492
{$S_o$}	{[mm$^2$]}	0.177656
{$S_l/S_o$}	[]	0.716351
{$\Psi$}	[]	0.574437
{$\eta$}	[]	0.605437
{med($\theta_e$)}	{[$^\circ$]}	
{$\Upsilon$}	[]	12
{$\Xi$}	[]	7
