"cellPairingIds","interplanarAngles","angleWeights"
8,83.3615,0.0584202
13,105.377,0.0370688
19,29.6644,0.0337703
26,66.2195,0.0662572
43,75.6679,0.0448749
18,96.6848,0.0488275
33,58.2362,0.116332
63,82.832,0.113597
62,101.892,0.0389908
74,148.699,0.0535834
87,117.422,0.0456923
50,50.6778,0.0474146
61,40.127,0.043346
73,61.4666,0.0353582
86,79.4355,0.046954
99,45.1268,0.147528
98,29.8747,0.063522
113,67.7708,0.114181
129,43.6431,0.0834653
145,43.1991,0.0581638
162,54.7705,0.0979597
