Q	U	V
{$V$}	{[mm$^3$]}	0.00364665
{$d_v$}	{[mm]}	0.190970
{$S_c$}	{[mm$^2$]}	0.19053
{$S_o$}	{[mm$^2$]}	0.111681
{$S_l/S_o$}	[]	0.706020
{$\Psi$}	[]	0.601335
{$\eta$}	[]	0.639931
{med($\theta_e$)}	{[$^\circ$]}	52.80705
{$\Upsilon$}	[]	12
{$\Xi$}	[]	8
