Q	U	V
{$V$}	{[mm$^3$]}	0.00614029
{$d_v$}	{[mm]}	0.227194
{$S_c$}	{[mm$^2$]}	0.239729
{$S_o$}	{[mm$^2$]}	0.173413
{$S_l/S_o$}	[]	0.382417
{$\Psi$}	[]	0.67643
{$\eta$}	[]	0.688482
{med($\theta_e$)}	{[$^\circ$]}	63.0575
{$\Upsilon$}	[]	14
{$\Xi$}	[]	11
