Q	U	V
{$V$}	{[mm$^3$]}	0.00248651
{$d_v$}	{[mm]}	0.168086
{$S_c$}	{[mm$^2$]}	0.15785
{$S_o$}	{[mm$^2$]}	0.0831488
{$S_l/S_o$}	[]	0.898404
{$\Psi$}	[]	0.562298
{$\eta$}	[]	0.654146
{med($\theta_e$)}	{[$^\circ$]}	65.98895
{$\Upsilon$}	[]	9
{$\Xi$}	[]	4
