facetNormals:0,facetNormals:1,facetNormals:2,FacetCenters:0,FacetCenters:1,FacetCenters:2,FacetIds,relFacetSize,absFacetSize,cellPairingIds,interplanarAngles,angleWeights
0.0950871,-0.292759,-0.90148,6.38299,3.69549,8.18742,1,0.0470582,0.00967629,8,58.327,0.0566224
-0.708539,0.117434,-0.650518,6.31813,3.74227,8.21767,2,0.0710661,0.0146129,13,63.2907,0.0721174
-0.78071,-0.427316,-0.408719,6.29912,3.68465,8.28754,3,0.154267,0.031721,19,51.824,0.0287078
0.0063627,-0.908219,-0.337112,6.3908,3.58129,8.2314,4,0.0206539,0.00424693,26,59.6564,0.0473964
0.833397,0.0547643,-0.431782,6.42006,3.63811,8.24347,5,0.0477396,0.00981641,34,97.4354,0.0562265
-0.785816,0.536633,-0.125906,6.26587,3.78656,8.29797,6,0.0698318,0.0143591,43,91.1507,0.0452635
-0.36842,0.855197,-0.295855,6.32653,3.82136,8.25028,7,0.0436006,0.00896533,53,106.667,0.040841
0.73971,0.567104,0.181655,6.36721,3.75494,8.33916,8,0.0360749,0.00741786,64,88.8688,0.0274482
0.905091,-0.328237,0.181626,6.42588,3.64729,8.30967,9,0.0193745,0.00398387,76,86.0483,0.0446914
-0.191933,-0.935087,0.212216,6.3602,3.58712,8.29551,10,0.0425513,0.00874956,89,134.754,0.0488905
0.617549,0.285017,0.697238,6.3711,3.73074,8.38767,11,0.0508712,0.0104603,103,125.527,0.0602216
-0.184785,-0.564201,0.752088,6.3236,3.65807,8.37791,12,0.0836095,0.0171921,118,150.95,0.0315163
-0.477859,-0.00567678,0.861461,6.3017,3.73437,8.39164,13,0.0236916,0.00487157,134,176.778,0.0328597
-0.0424601,0.295887,0.921507,6.30746,3.74008,8.37935,14,0.0252432,0.00519062,18,35.8882,0.0973062
,,,,,,,,,25,83.3856,0.0320059
,,,,,,,,,33,109.437,0.0571129
,,,,,,,,,42,41.0251,0.0704435
,,,,,,,,,52,54.1922,0.054044
,,,,,,,,,63,128.727,0.0478566
,,,,,,,,,75,147.195,0.0304481
,,,,,,,,,88,96.78,0.0532305
,,,,,,,,,102,155.322,0.0592963
,,,,,,,,,117,117.211,0.0768292
,,,,,,,,,133,103.477,0.0355364
,,,,,,,,,150,124.716,0.0372537
,,,,,,,,,32,56.6998,0.0364303
,,,,,,,,,41,122.708,0.0729149
,,,,,,,,,51,62.3919,0.0961428
,,,,,,,,,62,87.4177,0.0679862
,,,,,,,,,74,164.018,0.0584755
,,,,,,,,,87,131.882,0.0344255
,,,,,,,,,101,61.1109,0.0667038
,,,,,,,,,116,158.72,0.0765118
,,,,,,,,,132,85.2344,0.108444
,,,,,,,,,149,88.6103,0.0410752
,,,,,,,,,167,119.689,0.0433869
,,,,,,,,,50,83.6259,0.0288334
,,,,,,,,,61,118.937,0.031879
,,,,,,,,,73,135.863,0.0280298
,,,,,,,,,86,128.411,0.0262684
,,,,,,,,,100,75.1888,0.0199937
,,,,,,,,,115,34.9506,0.0278094
,,,,,,,,,131,121.282,0.0293795
,,,,,,,,,148,73.8819,0.0331249
,,,,,,,,,166,107.582,0.0220687
,,,,,,,,,185,128.142,0.0227191
,,,,,,,,,72,129.262,0.0567101
,,,,,,,,,85,98.2906,0.0455763
,,,,,,,,,99,50.4018,0.0410955
,,,,,,,,,114,44.4221,0.027563
,,,,,,,,,130,109.229,0.0449964
,,,,,,,,,147,75.5051,0.0492557
,,,,,,,,,165,124.451,0.0607767
,,,,,,,,,184,146.293,0.0316677
,,,,,,,,,204,117.251,0.0330243
,,,,,,,,,98,33.0947,0.0536832
,,,,,,,,,113,109.204,0.0475735
,,,,,,,,,129,165.445,0.0303332
,,,,,,,,,146,113.727,0.0528804
,,,,,,,,,164,116.702,0.0588623
,,,,,,,,,183,105.919,0.0761021
,,,,,,,,,203,73.7882,0.03538
,,,,,,,,,224,85.3042,0.0370819
,,,,,,,,,128,80.1503,0.0394823
,,,,,,,,,145,134.244,0.0268278
,,,,,,,,,163,145.963,0.0430696
,,,,,,,,,182,101.52,0.0469561
,,,,,,,,,202,132.871,0.0573135
,,,,,,,,,223,94.9868,0.030701
,,,,,,,,,245,90.239,0.0319744
,,,,,,,,,162,56.2903,0.0252098
,,,,,,,,,181,133.034,0.0390464
,,,,,,,,,201,36.337,0.042214
,,,,,,,,,222,110.592,0.0504026
,,,,,,,,,244,102.357,0.0286004
,,,,,,,,,267,70.7182,0.0297024
,,,,,,,,,200,79.6727,0.0266258
,,,,,,,,,221,51.6573,0.0280616
,,,,,,,,,243,80.5247,0.0314591
,,,,,,,,,266,106.503,0.0213167
,,,,,,,,,290,88.0789,0.0219229
,,,,,,,,,242,104.413,0.0463408
,,,,,,,,,265,39.5341,0.0563993
,,,,,,,,,289,73.1129,0.0304368
,,,,,,,,,314,94.4177,0.0316879
,,,,,,,,,288,74.4968,0.0632554
,,,,,,,,,313,71.5345,0.0323277
,,,,,,,,,339,42.0568,0.0337427
,,,,,,,,,338,38.4351,0.0369213
,,,,,,,,,365,54.8844,0.0387785
,,,,,,,,,392,31.6477,0.0244428
