"cellPairingIds","interplanarAngles","angleWeights"
8,96.1858,0.0503474
13,39.1345,0.0329114
43,115.982,0.0702881
76,170.19,0.026023
52,75.7956,0.0497449
88,91.4508,0.0225719
62,84.3908,0.0326529
101,141.937,0.0182397
163,71.87,0.0258611
