Q	U	V
{$V$}	{[mm$^3$]}	0.00452417
{$d_v$}	{[mm]}	0.205201
{$S_c$}	{[mm$^2$]}	0.303226
{$S_o$}	{[mm$^2$]}	0.16631
{$S_l/S_o$}	[]	0.823258
{$\Psi$}	[]	0.436258
{$\eta$}	[]	0.464462
{med($\theta_e$)}	{[$^\circ$]}	
{$\Upsilon$}	[]	12
{$\Xi$}	[]	9
