facetNormals:0,facetNormals:1,facetNormals:2,FacetCenters:0,FacetCenters:1,FacetCenters:2,FacetIds,relFacetSize,absFacetSize,cellPairingIds,interplanarAngles,angleWeights
-0.234137,0.0255578,-0.955546,6.64152,4.11862,6.50692,1,0.0220797,0.00343441,8,34.0652,0.026611
-0.331243,-0.511254,-0.770626,6.63589,4.10189,6.51647,2,0.0334826,0.00520808,13,32.3162,0.0226247
-0.568947,0.377559,-0.704374,6.6422,4.16521,6.5129,3,0.0231973,0.00360825,19,62.0471,0.0287244
0.191281,-0.787119,-0.537154,6.68301,3.98017,6.56654,4,0.0410901,0.00639141,26,55.2429,0.0295886
-0.0908078,0.799876,-0.518629,6.66991,4.23725,6.54615,5,0.044837,0.00697423,34,69.4366,0.0375539
0.749115,-0.237754,-0.533562,6.70814,4.07597,6.54848,6,0.12553,0.0195256,43,88.0684,0.025185
0.113312,0.95073,-0.0355964,6.70768,4.248,6.62636,7,0.0293068,0.00455857,53,59.3911,0.022697
-0.943709,-0.00522493,-0.286038,6.61525,4.14576,6.56226,8,0.0233498,0.00363197,64,69.3819,0.0392714
-0.634324,-0.688515,-0.211035,6.62895,3.992,6.6226,9,0.177394,0.027593,76,72.9813,0.0377029
-0.771199,0.558893,-0.0843098,6.62604,4.20145,6.56455,10,0.128936,0.0200554,89,102.48,0.0337628
0.467998,-0.85039,0.0793408,6.71263,3.94592,6.7278,11,0.0717034,0.0111532,103,84.0691,0.021608
-0.970154,-0.134191,0.128999,6.62307,4.10989,6.58576,12,0.0211561,0.00329076,18,56.0461,0.0274067
,,,,,,,,,25,37.9382,0.0368983
,,,,,,,,,33,88.7325,0.0383367
,,,,,,,,,42,72.2432,0.0528645
,,,,,,,,,52,121.815,0.0312559
,,,,,,,,,63,56.4262,0.0275129
,,,,,,,,,75,39.7538,0.0563325
,,,,,,,,,88,87.8834,0.0531602
,,,,,,,,,102,76.7913,0.0456489
,,,,,,,,,117,72.5774,0.0259289
,,,,,,,,,32,91.6621,0.0296537
,,,,,,,,,41,40.064,0.0305757
,,,,,,,,,51,98.6493,0.0391583
,,,,,,,,,62,70.1241,0.0258966
,,,,,,,,,74,40.4262,0.0232733
,,,,,,,,,87,74.6264,0.0410293
,,,,,,,,,101,40.8828,0.0393203
,,,,,,,,,116,132.318,0.035054
,,,,,,,,,132,64.9426,0.0221298
,,,,,,,,,50,113.315,0.0428819
,,,,,,,,,61,48.0639,0.0619137
,,,,,,,,,73,139.445,0.0342123
,,,,,,,,,86,91.3604,0.029778
,,,,,,,,,100,55.0773,0.0667247
,,,,,,,,,115,125.688,0.0623197
,,,,,,,,,131,40.8274,0.0522424
,,,,,,,,,148,98.9421,0.0279313
,,,,,,,,,72,88.8333,0.0660736
,,,,,,,,,85,33.0973,0.0354455
,,,,,,,,,99,75.9117,0.0307078
,,,,,,,,,114,114.677,0.0715815
,,,,,,,,,130,52.2308,0.0665362
,,,,,,,,,147,144.989,0.0551734
,,,,,,,,,165,95.2246,0.0287478
,,,,,,,,,98,97.7136,0.0475195
,,,,,,,,,113,126.187,0.0393754
,,,,,,,,,129,102.601,0.147022
,,,,,,,,,146,137.124,0.12721
,,,,,,,,,164,56.514,0.0912717
,,,,,,,,,183,144.47,0.0362097
,,,,,,,,,128,96.1804,0.0259914
,,,,,,,,,145,141.437,0.0503032
,,,,,,,,,163,60.797,0.0477583
,,,,,,,,,182,144.355,0.0416077
,,,,,,,,,202,104.82,0.0245733
,,,,,,,,,162,45.5613,0.0412677
,,,,,,,,,181,37.4051,0.0395392
,,,,,,,,,201,118.612,0.0352278
,,,,,,,,,222,25.4859,0.0221989
,,,,,,,,,200,82.3483,0.149332
,,,,,,,,,221,73.0869,0.102127
,,,,,,,,,243,44.1196,0.0378038
,,,,,,,,,242,154.846,0.0921567
,,,,,,,,,265,45.4763,0.0363482
,,,,,,,,,288,110.04,0.0326723
