facetNormals:0,facetNormals:1,facetNormals:2,FacetCenters:0,FacetCenters:1,FacetCenters:2,FacetIds,relFacetSize,absFacetSize,cellPairingIds,interplanarAngles,angleWeights
-0.25218,0.223271,-0.902532,4.73869,4.74436,4.21275,1,0.0128561,0.000863732,8,110.054,0.0219163
0.78576,-0.566753,-0.00515418,4.81672,4.70764,4.22398,2,0.0742274,0.00498694,13,117.867,0.0228985
0.918559,0.117703,0.251176,4.82926,4.77018,4.24655,3,0.104627,0.00702933,19,110.543,0.0228925
-0.337784,-0.870295,0.240131,4.72473,4.67643,4.24418,4,0.104377,0.00701254,26,97.2195,0.0208909
-0.818653,0.292128,0.43116,4.66503,4.7982,4.26184,5,0.0557059,0.00374258,34,98.7251,0.017603
-0.358484,0.796139,0.456655,4.69163,4.82928,4.26073,6,0.0279073,0.00187494,43,141.44,0.0220862
0.545588,-0.628484,0.504269,4.78899,4.69525,4.26714,7,0.0783081,0.0052611,53,124.438,0.0220502
0.349675,0.643389,0.654148,4.79515,4.81603,4.27805,8,0.0774101,0.00520077,64,122.699,0.0201166
-0.0205314,0.659354,0.740839,4.73112,4.82701,4.28234,9,0.0462186,0.00310518,76,133.155,0.0222407
-0.498987,-0.349505,0.769464,4.69651,4.72445,4.28676,10,0.0823643,0.00553362,89,157.379,0.0181432
0.101072,-0.563639,0.808296,4.7543,4.70542,4.30004,11,0.0308167,0.00207041,103,141.627,0.0217392
-0.262944,0.155941,0.936044,4.72648,4.77203,4.30509,12,0.0703447,0.00472608,118,152.426,0.0202014
0.0380667,0.184305,0.967363,4.74182,4.77889,4.30632,13,0.0471279,0.00316627,18,45.3116,0.0868437
,,,,,,,,,25,75.9585,0.0867575
,,,,,,,,,33,149.63,0.0636466
,,,,,,,,,42,140.371,0.0405638
,,,,,,,,,52,33.9251,0.0762131
,,,,,,,,,63,95.6256,0.0757853
,,,,,,,,,75,114.179,0.0569664
,,,,,,,,,88,102.017,0.0780844
,,,,,,,,,102,65.7157,0.0435521
,,,,,,,,,117,108.316,0.0722339
,,,,,,,,,133,94.778,0.0576518
,,,,,,,,,32,112.396,0.104502
,,,,,,,,,41,130.878,0.072703
,,,,,,,,,51,97.3456,0.0440619
,,,,,,,,,62,53.6191,0.0895743
,,,,,,,,,74,53.4385,0.0889839
,,,,,,,,,87,75.0948,0.0641148
,,,,,,,,,101,108.976,0.0921704
,,,,,,,,,116,76.0261,0.0476103
,,,,,,,,,132,89.2761,0.0841273
,,,,,,,,,149,71.5262,0.0649844
,,,,,,,,,50,82.2684,0.0726426
,,,,,,,,,61,119.114,0.0440397
,,,,,,,,,73,58.9536,0.0894826
,,,,,,,,,86,123.396,0.0888934
,,,,,,,,,100,114.005,0.0640678
,,,,,,,,,115,45.9732,0.0920733
,,,,,,,,,131,47.0592,0.0475844
,,,,,,,,,148,79.199,0.0840464
,,,,,,,,,166,86.437,0.0649361
,,,,,,,,,72,40.8715,0.0371856
,,,,,,,,,85,115.927,0.065101
,,,,,,,,,99,78.8808,0.0647886
,,,,,,,,,114,56.6702,0.0505207
,,,,,,,,,130,47.9213,0.0664615
,,,,,,,,,147,83.9615,0.0396815
,,,,,,,,,165,45.9414,0.0621753
,,,,,,,,,184,62.6188,0.0510591
,,,,,,,,,98,119.056,0.0411498
,,,,,,,,,113,44.8769,0.0410247
,,,,,,,,,129,27.037,0.0348013
,,,,,,,,,146,74.8948,0.0416892
,,,,,,,,,164,96.817,0.0292899
,,,,,,,,,183,48.2671,0.0399611
,,,,,,,,,203,53.7026,0.0350559
,,,,,,,,,128,83.0097,0.0778565
,,,,,,,,,145,93.0888,0.0581288
,,,,,,,,,163,69.4379,0.080285
,,,,,,,,,182,32.055,0.0442282
,,,,,,,,,202,76.0778,0.0741131
,,,,,,,,,223,65.8242,0.0588427
,,,,,,,,,162,22.2245,0.0578796
,,,,,,,,,181,83.805,0.0798104
,,,,,,,,,201,78.0468,0.0440838
,,,,,,,,,222,50.0619,0.0737085
,,,,,,,,,244,37.7918,0.0585873
,,,,,,,,,200,68.9398,0.0592111
,,,,,,,,,221,76.7568,0.036978
,,,,,,,,,243,34.8431,0.0557849
,,,,,,,,,266,31.0633,0.0466688
,,,,,,,,,242,37.7678,0.044852
,,,,,,,,,265,34.4473,0.0758814
,,,,,,,,,289,46.8939,0.0599519
,,,,,,,,,288,48.829,0.0428581
,,,,,,,,,313,45.6935,0.0372656
,,,,,,,,,338,17.75,0.056442
