"cellPairingIds","interplanarAngles","angleWeights"
8,32.759,0.044492
13,34.3721,0.0590356
19,29.8479,0.0487504
26,55.9704,0.0564626
34,56.7109,0.0600722
43,38.4404,0.072226
53,61.5122,0.130385
33,26.6651,0.0329322
42,29.479,0.0341282
51,73.2323,0.0420801
74,34.7613,0.0676261
87,67.3968,0.0494188
101,75.4596,0.0283989
116,111.043,0.0597858
50,43.4509,0.0352086
73,28.7198,0.0407552
166,125.588,0.0272559
72,36.8872,0.0407562
147,61.0717,0.0571485
184,88.1541,0.0295094
164,44.1944,0.0608491
128,55.8292,0.0855162
223,143.206,0.0333088
245,111.849,0.0236411
181,51.4508,0.0385456
267,74.794,0.0276829
200,46.144,0.031856
221,76.1467,0.0774888
243,57.9187,0.0559756
290,73.1815,0.024055
314,34.3197,0.0176838
288,42.4972,0.0696569
313,49.0131,0.0387815
338,38.0491,0.0325253
365,73.9747,0.0232437
392,80.5129,0.0183649
