"cellPairingIds","interplanarAngles","angleWeights"
8,84.1682,0.00572006
13,43.043,0.073809
19,120.171,0.0337441
34,65.5905,0.0729395
43,57.0994,0.0537117
18,115.415,0.0058596
25,49.8903,0.00535485
33,55.0526,0.00583881
41,92.37,0.10007
62,34.2147,0.0691805
74,44.1218,0.0191319
50,85.3065,0.0383446
61,100.827,0.0390117
100,45.2863,0.0144525
131,114.134,0.0283751
99,96.41,0.0189121
114,63.8714,0.0186174
98,49.4322,0.0684161
164,51.017,0.0517668
128,40.2712,0.0174404
182,47.1066,0.0412791
162,112.077,0.0104179
201,50.3249,0.0161189
221,103.949,0.0159043
