facetNormals:0,facetNormals:1,facetNormals:2,FacetCenters:0,FacetCenters:1,FacetCenters:2,FacetIds,relFacetSize,absFacetSize,cellPairingIds,interplanarAngles,angleWeights
0.0534339,0.37774,-0.861924,7.0945,7.79701,5.9745,1,0.0561906,0.0155834,8,55.4484,0.035927
0.329563,-0.449642,-0.762423,7.16777,7.66,5.93219,2,0.0264048,0.00732287,13,43.4488,0.0423837
-0.466103,0.691474,-0.496284,7.06122,7.81097,5.98756,3,0.0340236,0.0094358,19,47.7946,0.0576305
0.638284,0.617759,-0.407736,7.09531,7.8425,6.07209,4,0.0591461,0.016403,26,91.6777,0.0748204
-0.709289,-0.584825,-0.269599,7.03424,7.77588,6.10107,5,0.11193,0.0310417,34,76.1326,0.0742776
0.709323,0.661323,0.0787775,7.1016,7.81462,6.07269,6,0.109536,0.0303776,43,120.277,0.0336406
-0.820413,-0.438443,0.295063,7.07654,7.7349,6.09114,7,0.0240065,0.00665774,53,103.792,0.0261835
-0.930198,0.180398,0.278902,6.99981,7.82291,6.11861,8,0.0170685,0.00473362,64,96.3946,0.0388171
-0.677394,0.605146,0.341401,7.00542,7.86001,6.10182,9,0.0296498,0.0082228,76,108.592,0.0848566
0.855303,-0.0215535,0.368351,7.14639,7.70235,6.08214,10,0.173232,0.0480425,89,97.4941,0.0429055
0.0272813,0.827632,0.502561,7.1273,7.7504,5.97611,11,0.0347012,0.0096237,103,152.116,0.059233
0.348724,-0.163705,0.866355,7.106,7.76161,6.11904,12,0.0626238,0.0173675,118,154.326,0.0576957
-0.304631,-0.0437573,0.891366,7.05932,7.79086,6.1286,13,0.0592837,0.0164412,18,95.3933,0.0297339
,,,,,,,,,25,74.709,0.0365102
,,,,,,,,,33,74.963,0.0427296
,,,,,,,,,42,97.7329,0.042552
,,,,,,,,,52,108.876,0.0251486
,,,,,,,,,63,130.053,0.0207341
,,,,,,,,,75,145.534,0.0279334
,,,,,,,,,88,89.3013,0.0458248
,,,,,,,,,102,144.66,0.0299898
,,,,,,,,,117,121.807,0.0371469
,,,,,,,,,133,148.611,0.0365364
,,,,,,,,,32,69.5095,0.0431978
,,,,,,,,,41,86.2991,0.0521846
,,,,,,,,,51,84.6781,0.05192
,,,,,,,,,62,94.0697,0.0281505
,,,,,,,,,74,64.0187,0.0227328
,,,,,,,,,87,53.1487,0.0316865
,,,,,,,,,101,131.281,0.0568764
,,,,,,,,,116,70.7336,0.0343591
,,,,,,,,,132,140.084,0.044092
,,,,,,,,,149,111.181,0.0432345
,,,,,,,,,50,138.759,0.0773951
,,,,,,,,,61,29.3186,0.0768145
,,,,,,,,,73,163.557,0.0341514
,,,,,,,,,86,128.125,0.0264919
,,,,,,,,,100,102.034,0.0394989
,,,,,,,,,115,65.1627,0.0881838
,,,,,,,,,131,70.0018,0.04374
,,,,,,,,,148,104.485,0.0608353
,,,,,,,,,166,129.392,0.0592148
,,,,,,,,,72,167.809,0.11072
,,,,,,,,,85,35.7485,0.0395338
,,,,,,,,,99,59.5825,0.0296202
,,,,,,,,,114,87.8718,0.046881
,,,,,,,,,130,140.984,0.135992
,,,,,,,,,147,133.507,0.0529779
,,,,,,,,,165,115.09,0.0803132
,,,,,,,,,184,89.9143,0.0775128
,,,,,,,,,98,153.349,0.0393818
,,,,,,,,,113,122.654,0.0295347
,,,,,,,,,129,93.2423,0.0466673
,,,,,,,,,146,46.7112,0.13421
,,,,,,,,,164,49.9635,0.0527052
,,,,,,,,,183,77.0114,0.0796882
,,,,,,,,,203,100.983,0.0769305
,,,,,,,,,128,37.3415,0.0199515
,,,,,,,,,145,65.6031,0.0265314
,,,,,,,,,163,129.938,0.0421691
,,,,,,,,,182,104.518,0.0283797
,,,,,,,,,202,87.4414,0.0347079
,,,,,,,,,223,54.6746,0.0341743
,,,,,,,,,162,29.4641,0.0216651
,,,,,,,,,181,139.226,0.0310752
,,,,,,,,,201,73.9768,0.022882
,,,,,,,,,222,96.8863,0.0268255
,,,,,,,,,244,55.7598,0.0265057
,,,,,,,,,200,121.083,0.0506333
,,,,,,,,,221,45.9162,0.0319772
,,,,,,,,,243,92.4615,0.0402451
,,,,,,,,,266,58.053,0.0395295
,,,,,,,,,242,77.8041,0.05782
,,,,,,,,,265,45.3292,0.0919921
,,,,,,,,,289,85.5126,0.0883366
,,,,,,,,,288,70.3115,0.044657
,,,,,,,,,313,63.7894,0.0437775
,,,,,,,,,338,41.1576,0.060908
