Q	U	V
{$V$}	{[mm$^3$]}	0.00685157
{$d_v$}	{[mm]}	0.235648
{$S_c$}	{[mm$^2$]}	0.340141
{$S_o$}	{[mm$^2$]}	0.186202
{$S_l/S_o$}	[]	0.826731
{$\Psi$}	[]	0.512883
{$\eta$}	[]	0.525250
{med($\theta_e$)}	{[$^\circ$]}	60.744
{$\Upsilon$}	[]	13
{$\Xi$}	[]	10
