facetNormals:0,facetNormals:1,facetNormals:2,FacetCenters:0,FacetCenters:1,FacetCenters:2,FacetIds,relFacetSize,absFacetSize,cellPairingIds,interplanarAngles,angleWeights
0.0627808,-0.0705918,-0.9854,5.05493,6.9051,5.62235,1,0.0163642,0.00301585,8,23.5534,0.0158386
-0.0544127,0.310545,-0.930131,5.02361,6.9169,5.63309,2,0.0153458,0.00282816,13,31.638,0.022705
0.0807466,-0.563093,-0.780666,5.08992,6.83011,5.64561,3,0.0370682,0.00683153,19,47.5449,0.022989
-0.558942,0.341386,-0.72017,4.93884,6.96011,5.66886,4,0.0386263,0.00711867,26,54.1244,0.0219321
0.210616,0.72489,-0.609801,5.02922,6.97699,5.64973,5,0.0332432,0.00612659,34,65.8745,0.0205084
0.650415,0.623968,-0.409811,5.04881,6.9796,5.69348,6,0.0274637,0.00506144,43,70.822,0.0236674
-0.866765,0.251794,-0.398923,4.88169,6.95332,5.72449,7,0.0427434,0.00787744,53,71.6492,0.0274596
0.916143,0.227294,-0.268278,5.13926,6.88521,5.69094,8,0.0852869,0.015718,64,92.1246,0.0285293
-0.285714,0.922114,-0.0482636,4.96825,6.9998,5.74251,9,0.111182,0.0204904,76,95.6378,0.0238608
0.835344,0.512979,0.113867,5.13132,6.94041,5.75244,10,0.0440326,0.00811504,89,99.828,0.0272504
0.441067,0.856679,0.133534,5.01445,6.99893,5.76472,11,0.0814052,0.0150027,103,101.967,0.0253585
0.813652,-0.454679,0.287596,5.10929,6.8256,5.74717,12,0.0563066,0.0103771,118,112.772,0.0185098
-0.664942,0.667812,0.293603,4.89321,6.98876,5.81541,13,0.0213029,0.00392604,134,112.948,0.0187774
0.820085,0.37448,0.413997,5.1104,6.93841,5.8092,14,0.0220255,0.00405921,151,122.309,0.0223683
0.790839,-0.0650513,0.58408,5.09484,6.87064,5.80417,15,0.0353317,0.00651149,169,141.472,0.0200558
0.376931,0.488312,0.755642,4.96043,6.96824,5.81604,16,0.0258982,0.00477293,188,158.55,0.0207607
0.215629,-0.167286,0.949064,5.07666,6.87282,5.84062,17,0.0283877,0.00523174,208,174.862,0.0242556
-0.0867428,0.152863,0.96095,5.04221,6.935,5.84466,18,0.0468474,0.0086338,18,54.7981,0.0217057
,,,,,,,,,25,32.5035,0.0219651
,,,,,,,,,33,34.9835,0.0209983
,,,,,,,,,42,56.2981,0.0196896
,,,,,,,,,52,59.1897,0.0225836
,,,,,,,,,63,73.7138,0.0260113
,,,,,,,,,75,68.5724,0.0269691
,,,,,,,,,88,89.5307,0.0227596
,,,,,,,,,102,82.9152,0.0258235
,,,,,,,,,117,118.219,0.0241183
,,,,,,,,,133,91.7451,0.0178402
,,,,,,,,,150,108.764,0.0180886
,,,,,,,,,168,128.812,0.0213977
,,,,,,,,,187,126.639,0.019272
,,,,,,,,,207,167.383,0.0199221
,,,,,,,,,228,151.309,0.0231186
,,,,,,,,,32,69.7891,0.0378312
,,,,,,,,,41,84.8047,0.0350517
,,,,,,,,,51,88.7363,0.0315512
,,,,,,,,,62,83.999,0.0397041
,,,,,,,,,74,80.5626,0.0516764
,,,,,,,,,87,122.717,0.0555995
,,,,,,,,,101,108.997,0.0402514
,,,,,,,,,116,125.904,0.0509405
,,,,,,,,,132,84.0781,0.0447055
,,,,,,,,,149,133.718,0.0270566
,,,,,,,,,167,119.224,0.0276322
,,,,,,,,,186,111.932,0.0361791
,,,,,,,,,206,152.325,0.0304924
,,,,,,,,,227,131.278,0.0321524
,,,,,,,,,249,153.336,0.041388
,,,,,,,,,50,52.9691,0.0357331
,,,,,,,,,61,81.3713,0.0321023
,,,,,,,,,73,26.7625,0.0405807
,,,,,,,,,86,104.63,0.0531714
,,,,,,,,,100,57.2322,0.057334
,,,,,,,,,115,112.898,0.0411527
,,,,,,,,,131,93.0413,0.0523926
,,,,,,,,,148,149.378,0.04582
,,,,,,,,,166,66.1709,0.0274608
,,,,,,,,,185,130.618,0.028054
,,,,,,,,,205,157.306,0.0369056
,,,,,,,,,226,128.273,0.0310068
,,,,,,,,,248,153.609,0.0327249
,,,,,,,,,271,128.453,0.0423415
,,,,,,,,,72,29.1401,0.0300783
,,,,,,,,,85,75.2858,0.0373994
,,,,,,,,,99,56.8078,0.0478395
,,,,,,,,,114,47.167,0.0511829
,,,,,,,,,130,60.0329,0.0378847
,,,,,,,,,147,47.9327,0.0472082
,,,,,,,,,165,110.636,0.0418049
,,,,,,,,,184,80.0807,0.0259662
,,,,,,,,,204,78.5125,0.0264959
,,,,,,,,,225,104.337,0.0342556
,,,,,,,,,247,91.6606,0.0291146
,,,,,,,,,270,133.084,0.0306242
,,,,,,,,,294,121.368,0.0388899
,,,,,,,,,98,104.411,0.0334408
,,,,,,,,,113,29.2591,0.0415482
,,,,,,,,,129,64.6782,0.044047
,,,,,,,,,146,33.2934,0.0338282
,,,,,,,,,164,37.2473,0.0410711
,,,,,,,,,183,82.4051,0.0369197
,,,,,,,,,203,98.006,0.0239941
,,,,,,,,,224,52.5407,0.0244458
,,,,,,,,,246,76.096,0.0309048
,,,,,,,,,269,75.6004,0.0266579
,,,,,,,,,293,111.168,0.027918
,,,,,,,,,318,111.523,0.0346275
,,,,,,,,,128,130.572,0.0569467
,,,,,,,,,145,58.4502,0.0617481
,,,,,,,,,163,131.109,0.0433784
,,,,,,,,,182,103.24,0.0560544
,,,,,,,,,202,166.116,0.0485964
,,,,,,,,,223,49.9037,0.0284344
,,,,,,,,,245,142.984,0.0290709
,,,,,,,,,268,164.044,0.0386858
,,,,,,,,,292,121.656,0.0322538
,,,,,,,,,317,128.573,0.0341169
,,,,,,,,,343,106.244,0.0447014
,,,,,,,,,162,92.3696,0.096528
,,,,,,,,,181,28.4651,0.0580795
,,,,,,,,,201,53.8598,0.0833009
,,,,,,,,,222,53.8301,0.067831
,,,,,,,,,244,123.609,0.0340907
,,,,,,,,,267,41.8316,0.0350097
,,,,,,,,,291,55.111,0.0499646
,,,,,,,,,316,74.6376,0.0397315
,,,,,,,,,342,95.6312,0.042597
,,,,,,,,,369,108.396,0.0604759
,,,,,,,,,200,76.1178,0.0630822
,,,,,,,,,221,45.6309,0.0939917
,,,,,,,,,243,134.909,0.0747547
,,,,,,,,,266,33.9308,0.0357551
,,,,,,,,,290,84.553,0.0367673
,,,,,,,,,315,109.259,0.053623
,,,,,,,,,341,71.0544,0.0420106
,,,,,,,,,368,105.911,0.0452276
,,,,,,,,,396,82.7378,0.0659193
,,,,,,,,,242,30.9731,0.0571516
,,,,,,,,,265,60.1461,0.0494189
,,,,,,,,,289,100.616,0.028714
,,,,,,,,,314,19.2491,0.0293632
,,,,,,,,,340,44.4811,0.0392052
,,,,,,,,,367,47.4156,0.0326141
,,,,,,,,,395,78.0147,0.0345203
,,,,,,,,,424,83.1266,0.0453964
,,,,,,,,,288,89.5311,0.0665687
,,,,,,,,,313,70.658,0.0337689
,,,,,,,,,339,40.1341,0.0346703
,,,,,,,,,366,67.222,0.0492763
,,,,,,,,,394,43.7467,0.039295
,,,,,,,,,423,85.311,0.0420957
,,,,,,,,,453,76.5512,0.0594705
,,,,,,,,,338,142.146,0.030911
,,,,,,,,,365,50.4587,0.0316647
,,,,,,,,,393,28.9466,0.0434187
,,,,,,,,,422,71.4955,0.0354782
,,,,,,,,,452,57.0125,0.0377455
,,,,,,,,,483,81.7773,0.0511433
,,,,,,,,,392,100.216,0.0216582
,,,,,,,,,421,114.145,0.0265798
,,,,,,,,,451,72.0135,0.0233769
,,,,,,,,,482,88.6155,0.0243402
,,,,,,,,,514,62.7241,0.0292878
,,,,,,,,,450,27.6292,0.0271351
,,,,,,,,,481,33.7294,0.0238053
,,,,,,,,,513,58.8273,0.0248051
,,,,,,,,,546,66.6611,0.0299635
,,,,,,,,,512,42.5818,0.0298882
,,,,,,,,,545,40.8737,0.0314813
,,,,,,,,,579,59.8993,0.0402827
,,,,,,,,,578,41.9218,0.0270858
,,,,,,,,,613,36.2899,0.0333563
,,,,,,,,,648,25.9108,0.0353529
