Q	U	V
{$V$}	{[mm$^3$]}	0.00547294
{$d_v$}	{[mm]}	0.218646
{$S_c$}	{[mm$^2$]}	0.373871
{$S_o$}	{[mm$^2$]}	0.189518
{$S_l/S_o$}	[]	0.972747
{$\Psi$}	[]	0.401707
{$\eta$}	[]	0.461798
{med($\theta_e$)}	{[$^\circ$]}	77.1445
{$\Upsilon$}	[]	12
{$\Xi$}	[]	11
