"cellPairingIds","interplanarAngles","angleWeights"
8,72.8697,0.0540357
43,121.648,0.0222824
53,103.593,0.0479272
89,88.2914,0.0261499
18,33.4409,0.0482563
52,150.997,0.0322036
102,103.606,0.0409584
51,27.0469,0.0345942
62,120.087,0.0212338
116,117.497,0.0247173
98,99.3151,0.0254866
164,110.412,0.0306759
128,34.8988,0.0299302
182,101.894,0.01969
201,71.3111,0.0373501
