facetNormals:0,facetNormals:1,facetNormals:2,FacetCenters:0,FacetCenters:1,FacetCenters:2,FacetIds,relFacetSize,absFacetSize,cellPairingIds,interplanarAngles,angleWeights
-0.344915,0.0212153,-0.91017,4.29099,5.70405,8.3152,1,0.0949523,0.0150683,8,23.7909,0.0392447
-0.0538682,0.301061,-0.941038,4.32289,5.72761,8.31217,2,0.0247337,0.00392507,13,51.6038,0.0303054
0.411096,-0.357815,-0.816088,4.36367,5.70853,8.43647,3,0.0180299,0.00286123,19,59.2613,0.0605403
0.539374,0.342361,-0.724534,4.42358,5.72488,8.28533,4,0.0444361,0.00705172,26,49.415,0.0443676
-0.116442,0.74947,-0.620203,4.33593,5.74517,8.31861,5,0.0289466,0.00459364,34,95.2274,0.0664331
0.85318,0.400215,-0.219687,4.44498,5.73179,8.31256,6,0.0510885,0.00810742,43,70.4775,0.103464
-0.537654,0.779089,-0.119126,4.28836,5.76378,8.35435,7,0.113651,0.0180358,53,101.283,0.0676915
0.135542,0.955715,0.176266,4.38588,5.77962,8.35416,8,0.0525922,0.00834605,64,91.1656,0.0973401
-0.792881,-0.387067,0.311807,4.29598,5.63484,8.35018,9,0.0998511,0.0158457,76,136.586,0.0707946
0.856591,-0.0390106,0.414511,4.42539,5.7227,8.40582,10,0.0564362,0.00895606,89,122.232,0.0475976
0.611523,0.680102,0.340978,4.41963,5.75262,8.3805,11,0.0317588,0.00503992,103,130.437,0.0398077
0.0962097,0.719734,0.662066,4.37649,5.76187,8.41393,12,0.0251826,0.00399632,118,111.352,0.0812264
-0.607153,0.448911,0.621407,4.24238,5.71166,8.41927,13,0.0709676,0.0112621,134,139.938,0.0844644
-0.302178,0.149983,0.920885,4.32212,5.71352,8.44677,14,0.0760629,0.0120707,18,48.918,0.0208564
,,,,,,,,,25,37.7421,0.0317788
,,,,,,,,,33,32.729,0.0266748
,,,,,,,,,42,72.9172,0.0333308
,,,,,,,,,52,66.554,0.040626
,,,,,,,,,63,83.2242,0.0336446
,,,,,,,,,75,113.366,0.0396467
,,,,,,,,,88,118.381,0.0343939
,,,,,,,,,102,98.8782,0.0278094
,,,,,,,,,117,115.039,0.0249561
,,,,,,,,,133,115.522,0.0366827
,,,,,,,,,150,146.067,0.0373289
,,,,,,,,,32,43.2443,0.0256517
,,,,,,,,,41,78.5965,0.0222198
,,,,,,,,,51,65.9614,0.0266535
,,,,,,,,,62,115.467,0.0311225
,,,,,,,,,74,116.529,0.0268537
,,,,,,,,,87,118.765,0.0305445
,,,,,,,,,101,88.2942,0.027329
,,,,,,,,,116,106.386,0.0230016
,,,,,,,,,132,141.845,0.0210143
,,,,,,,,,149,162.923,0.0287545
,,,,,,,,,167,164.948,0.0291501
,,,,,,,,,50,47.1905,0.0350566
,,,,,,,,,61,35.9822,0.0475307
,,,,,,,,,73,86.0774,0.0638915
,,,,,,,,,86,73.2859,0.0481714
,,,,,,,,,100,150.415,0.0615022
,,,,,,,,,115,80.7212,0.0497223
,,,,,,,,,131,70.4425,0.0370428
,,,,,,,,,148,101.017,0.032147
,,,,,,,,,166,131.346,0.054652
,,,,,,,,,185,145.299,0.056099
,,,,,,,,,72,69.1877,0.0369548
,,,,,,,,,85,39.5851,0.0461412
,,,,,,,,,99,52.0532,0.0373409
,,,,,,,,,114,115.254,0.044882
,,,,,,,,,130,114.439,0.0382662
,,,,,,,,,147,76.2669,0.0302876
,,,,,,,,,165,82.9838,0.0269338
,,,,,,,,,184,88.6995,0.0411207
,,,,,,,,,204,116.154,0.0419345
,,,,,,,,,98,97.515,0.0704903
,,,,,,,,,113,61.0633,0.0518295
,,,,,,,,,129,173.602,0.0675932
,,,,,,,,,146,47.3713,0.0536294
,,,,,,,,,164,40.4255,0.0391687
,,,,,,,,,183,76.332,0.0337361
,,,,,,,,,203,120.121,0.0594093
,,,,,,,,,224,114.935,0.0611231
,,,,,,,,,128,45.9662,0.0719087
,,,,,,,,,145,84.3697,0.106305
,,,,,,,,,163,126.486,0.0754206
,,,,,,,,,182,80.0786,0.0496448
,,,,,,,,,202,62.6898,0.0412297
,,,,,,,,,223,49.8041,0.0873753
,,,,,,,,,245,79.556,0.0911334
,,,,,,,,,162,117.39,0.0688963
,,,,,,,,,181,80.6466,0.0544465
,,,,,,,,,201,34.1139,0.0396028
,,,,,,,,,222,32.0114,0.0340576
,,,,,,,,,244,61.6082,0.0604136
,,,,,,,,,267,74.0341,0.0621867
,,,,,,,,,200,126.876,0.0721136
,,,,,,,,,221,134.638,0.0481902
,,,,,,,,,243,99.2891,0.0402214
,,,,,,,,,266,56.7763,0.0829675
,,,,,,,,,290,59.2913,0.0863486
,,,,,,,,,242,46.6098,0.0406451
,,,,,,,,,265,69.4338,0.0348256
,,,,,,,,,289,107.496,0.0628732
,,,,,,,,,314,82.8028,0.0647959
,,,,,,,,,288,36.1929,0.028091
,,,,,,,,,313,81.2077,0.0438806
,,,,,,,,,339,76.023,0.0448085
,,,,,,,,,338,45.2855,0.0371742
,,,,,,,,,365,44.399,0.037838
,,,,,,,,,392,30.8882,0.073427
