Q	U	V
{$V$}	{[mm$^3$]}	0.0104175
{$d_v$}	{[mm]}	0.270970
{$S_c$}	{[mm$^2$]}	0.404792
{$S_o$}	{[mm$^2$]}	0.269407
{$S_l/S_o$}	[]	0.502530
{$\Psi$}	[]	0.569851
{$\eta$}	[]	0.599824
{med($\theta_e$)}	{[$^\circ$]}	77.72335
{$\Upsilon$}	[]	10
{$\Xi$}	[]	7
