Q	U	V
{$V$}	{[mm$^3$]}	0.00546582
{$d_v$}	{[mm]}	0.218551
{$S_c$}	{[mm$^2$]}	0.23847
{$S_o$}	{[mm$^2$]}	0.161013
{$S_l/S_o$}	[]	0.481061
{$\Psi$}	[]	0.629246
{$\eta$}	[]	0.698356
{med($\theta_e$)}	{[$^\circ$]}	58.75825
{$\Upsilon$}	[]	12
{$\Xi$}	[]	14
