facetNormals:0,facetNormals:1,facetNormals:2,FacetCenters:0,FacetCenters:1,FacetCenters:2,FacetIds,relFacetSize,absFacetSize,cellPairingIds,interplanarAngles,angleWeights
-0.101579,0.114041,-0.949118,6.48919,3.61473,8.38738,1,0.0259132,0.00168073,8,42.9398,0.0223482
0.580785,0.086986,-0.769401,6.49605,3.56516,8.37475,2,0.0196454,0.0012742,13,53.1026,0.0346381
0.329883,-0.590442,-0.696734,6.51253,3.61649,8.41742,3,0.0522204,0.00338701,19,73.6291,0.0131439
0.906541,0.197949,-0.35707,6.48802,3.58131,8.38945,4,0.00880501,0.000571093,26,70.6605,0.0360406
-0.414298,-0.79854,-0.379054,6.51249,3.56429,8.36992,5,0.0591625,0.00383728,34,75.3319,0.0333417
0.536411,0.787554,-0.213216,6.5037,3.54638,8.42143,6,0.0467406,0.0030316,43,79.2243,0.0278999
-0.866308,0.414258,-0.0395069,6.47106,3.62437,8.34631,7,0.0302164,0.00195984,53,74.3721,0.0237729
-0.0646479,0.972259,-0.14506,6.56757,3.55075,8.41141,8,0.0219592,0.00142428,64,91.0691,0.036762
0.0221146,-0.984838,-0.101984,6.567,3.55215,8.34865,9,0.0632364,0.00410152,76,102.038,0.0412472
-0.599688,-0.729407,0.179589,6.49733,3.56779,8.37495,10,0.101032,0.00655295,89,86.9193,0.0280761
-0.947825,-0.271404,0.0151568,6.46528,3.6016,8.33976,11,0.030633,0.00198686,103,111.716,0.0389022
0.127884,-0.934935,0.238758,6.55879,3.55437,8.36421,12,0.0779988,0.00505901,118,114.79,0.0249399
0.731158,-0.598668,0.266837,6.58422,3.5584,8.37446,13,0.024037,0.00155904,134,122.553,0.036133
0.858331,-0.000614016,0.431681,6.52781,3.56483,8.39793,14,0.059663,0.00386974,151,125.975,0.0292808
-0.718778,-0.0111901,0.653702,6.49176,3.59952,8.40022,15,0.0336545,0.00218283,169,148.13,0.0313153
0.0202759,-0.607209,0.765545,6.55064,3.56784,8.41971,16,0.039563,0.00256606,188,138.255,0.0406439
0.0971712,0.551642,0.784105,6.5482,3.61092,8.41136,17,0.0941834,0.00610874,18,43.981,0.0285502
,,,,,,,,,25,31.7348,0.01216
,,,,,,,,,33,91.1179,0.0294963
,,,,,,,,,42,54.8518,0.0276636
,,,,,,,,,52,117.999,0.0238104
,,,,,,,,,63,80.4234,0.020738
,,,,,,,,,75,89.6627,0.0299778
,,,,,,,,,88,126.233,0.0328946
,,,,,,,,,102,127.861,0.0239386
,,,,,,,,,117,101.681,0.0313858
,,,,,,,,,133,79.8638,0.0216205
,,,,,,,,,150,79.6974,0.0295582
,,,,,,,,,168,168.439,0.0248089
,,,,,,,,,187,131.762,0.0262541
,,,,,,,,,207,122.335,0.0325098
,,,,,,,,,32,63.4874,0.0150692
,,,,,,,,,41,50.8151,0.0554751
,,,,,,,,,51,98.4604,0.0493288
,,,,,,,,,62,122.604,0.0382818
,,,,,,,,,74,121.114,0.0309174
,,,,,,,,,87,46.6737,0.0572029
,,,,,,,,,101,83.3726,0.0688529
,,,,,,,,,116,99.8009,0.0386144
,,,,,,,,,132,63.0841,0.062558
,,,,,,,,,149,64.6147,0.0329207
,,,,,,,,,167,91.0598,0.0556941
,,,,,,,,,186,136.64,0.0409305
,,,,,,,,,206,100.207,0.0450189
,,,,,,,,,227,153.856,0.067188
,,,,,,,,,50,114.228,0.0153287
,,,,,,,,,61,42.2767,0.0148185
,,,,,,,,,73,136.163,0.0136364
,,,,,,,,,86,79.074,0.0125699
,,,,,,,,,100,98.0851,0.0154577
,,,,,,,,,115,141.911,0.0161983
,,,,,,,,,131,159.519,0.0136784
,,,,,,,,,148,99.1798,0.0158237
,,,,,,,,,166,62.6159,0.0128887
,,,,,,,,,185,49.2251,0.0153454
,,,,,,,,,205,156.697,0.0139582
,,,,,,,,,226,112.712,0.0144043
,,,,,,,,,248,94.9516,0.0161045
,,,,,,,,,72,143.912,0.0522231
,,,,,,,,,85,87.368,0.0400023
,,,,,,,,,99,136.243,0.03203
,,,,,,,,,114,32.4401,0.0611317
,,,,,,,,,130,35.6134,0.0746257
,,,,,,,,,147,51.1612,0.0403656
,,,,,,,,,165,50.6029,0.0672873
,,,,,,,,,184,85.5726,0.0341851
,,,,,,,,,204,123.579,0.0594117
,,,,,,,,,225,86.4377,0.0429034
,,,,,,,,,247,78.7399,0.0474173
,,,,,,,,,270,145.794,0.072674
,,,,,,,,,98,97.9642,0.0367045
,,,,,,,,,113,37.6171,0.0298803
,,,,,,,,,129,140.113,0.0537514
,,,,,,,,,146,174.615,0.0639131
,,,,,,,,,164,138.888,0.0370102
,,,,,,,,,183,139.12,0.0584532
,,,,,,,,,203,98.1652,0.0317475
,,,,,,,,,224,66.9115,0.0524171
,,,,,,,,,246,124.235,0.0391325
,,,,,,,,,269,131.357,0.0428533
,,,,,,,,,293,70.1572,0.0624761
,,,,,,,,,128,60.6197,0.0254344
,,,,,,,,,145,116.393,0.0408929
,,,,,,,,,163,76.844,0.0465198
,,,,,,,,,182,41.6521,0.0304233
,,,,,,,,,202,122.856,0.0435585
,,,,,,,,,223,160.936,0.0267748
,,,,,,,,,245,145.491,0.040116
,,,,,,,,,268,50.6399,0.0318429
,,,,,,,,,292,108.584,0.0342638
,,,,,,,,,317,82.9689,0.0457539
,,,,,,,,,162,165.404,0.0325984
,,,,,,,,,181,137.349,0.0360771
,,,,,,,,,201,102.171,0.0255809
,,,,,,,,,222,173.065,0.0342702
,,,,,,,,,244,133.676,0.0229512
,,,,,,,,,267,97.2048,0.0321028
,,,,,,,,,291,93.5481,0.0265771
,,,,,,,,,316,136.875,0.0282426
,,,,,,,,,342,63.9889,0.0356147
,,,,,,,,,200,43.8256,0.0777862
,,,,,,,,,221,75.4829,0.0412727
,,,,,,,,,243,21.119,0.0698461
,,,,,,,,,266,53.4923,0.0348334
,,,,,,,,,290,91.4717,0.0613977
,,,,,,,,,315,94.2637,0.0439296
,,,,,,,,,341,57.4771,0.0486739
,,,,,,,,,368,130.603,0.075668
,,,,,,,,,242,35.7611,0.047012
,,,,,,,,,265,46.1527,0.0880338
,,,,,,,,,289,87.1987,0.0388347
,,,,,,,,,314,118.225,0.0750226
,,,,,,,,,340,53.4184,0.0504903
,,,,,,,,,367,52.7802,0.0568602
,,,,,,,,,395,110.2,0.0974877
,,,,,,,,,288,81.8447,0.0439897
,,,,,,,,,313,122.94,0.0269371
,,,,,,,,,339,148.395,0.0404815
,,,,,,,,,366,43.5644,0.0320727
,,,,,,,,,394,80.6126,0.03453
,,,,,,,,,423,104.004,0.0462298
,,,,,,,,,338,41.402,0.036749
,,,,,,,,,365,76.809,0.0676098
,,,,,,,,,393,85.4749,0.0470207
,,,,,,,,,422,37.6631,0.0524978
,,,,,,,,,452,109.695,0.0853305
,,,,,,,,,392,38.0286,0.0342681
,,,,,,,,,421,111.16,0.0280441
,,,,,,,,,451,52.62,0.0299049
,,,,,,,,,482,93.0275,0.0382994
,,,,,,,,,450,111.014,0.0430343
,,,,,,,,,481,68.2304,0.0475772
,,,,,,,,,513,62.9142,0.0730503
,,,,,,,,,512,58.7484,0.0363703
,,,,,,,,,545,62.2086,0.0495892
,,,,,,,,,578,73.5129,0.0557201
