facetNormals:0,facetNormals:1,facetNormals:2,FacetCenters:0,FacetCenters:1,FacetCenters:2,FacetIds,relFacetSize,absFacetSize,cellPairingIds,interplanarAngles,angleWeights
-0.197441,-0.662263,-0.715175,6.9443,4.0903,4.54812,1,0.00847191,0.00132046,8,49.2907,0.016088
0.57962,-0.399072,-0.674638,7.01506,4.1208,4.56601,2,0.159265,0.0248236,13,45.2044,0.0142673
-0.756591,-0.168876,-0.588119,6.92454,4.13341,4.54249,3,0.0451601,0.0070388,19,133.579,0.0139168
0.622208,0.733006,0.0738442,7.04554,4.24065,4.62613,4,0.0389496,0.00607082,26,53.6455,0.0155134
-0.830855,-0.462314,-0.134028,6.9198,4.09639,4.62693,5,0.0918844,0.0143214,34,134.704,0.0119451
-0.403172,0.827359,0.288717,7.01884,4.18501,4.54455,6,0.0202449,0.00315543,43,82.3542,0.0151188
0.771335,-0.576362,0.140732,7.04024,4.09164,4.65612,7,0.0701825,0.0109389,53,72.8678,0.0135977
0.168275,-0.870686,0.366714,6.98165,4.06658,4.68495,8,0.0344272,0.00536593,64,89.346,0.0144914
-0.913864,-0.115153,0.343324,6.92812,4.12171,4.63122,9,0.0500608,0.00780265,76,146.63,0.015681
0.620099,0.28839,0.689789,7.03193,4.1866,4.68954,10,0.105203,0.0163972,89,144.953,0.0155718
-0.229457,0.293513,0.891001,6.96912,4.15647,4.69743,11,0.0961517,0.0149865,18,88.452,0.0703673
,,,,,,,,,25,88.8843,0.0625919
,,,,,,,,,33,102.755,0.116536
,,,,,,,,,42,143.782,0.0359234
,,,,,,,,,52,52.1456,0.0974307
,,,,,,,,,63,77.8058,0.0566161
,,,,,,,,,75,138.288,0.0761773
,,,,,,,,,88,103.498,0.126708
,,,,,,,,,102,154.709,0.119911
,,,,,,,,,32,132.836,0.0418256
,,,,,,,,,41,32.7844,0.0605571
,,,,,,,,,51,90.2738,0.0279569
,,,,,,,,,62,126.937,0.0549571
,,,,,,,,,74,102.113,0.0390699
,,,,,,,,,87,57.8529,0.0474843
,,,,,,,,,101,167.72,0.0631934
,,,,,,,,,116,115.191,0.0614559
,,,,,,,,,50,159.225,0.0547084
,,,,,,,,,61,66.0949,0.026642
,,,,,,,,,73,85.8538,0.0500967
,,,,,,,,,86,123.18,0.036549
,,,,,,,,,100,131.465,0.0438117
,,,,,,,,,115,46.2129,0.0568511
,,,,,,,,,131,81.4677,0.055441
,,,,,,,,,72,95.3412,0.0331793
,,,,,,,,,85,114.89,0.0795804
,,,,,,,,,99,76.5985,0.0500876
,,,,,,,,,114,35.7007,0.064811
,,,,,,,,,130,142.604,0.0980935
,,,,,,,,,147,93.9865,0.0939696
,,,,,,,,,98,142.753,0.0314249
,,,,,,,,,113,137.489,0.0254965
,,,,,,,,,129,66.8811,0.0288305
,,,,,,,,,146,78.4405,0.0339555
,,,,,,,,,164,50.4955,0.0334474
,,,,,,,,,128,42.9754,0.0461943
,,,,,,,,,145,128.098,0.0584381
,,,,,,,,,163,64.35,0.0841962
,,,,,,,,,182,103.586,0.0811398
,,,,,,,,,162,85.5992,0.0407976
,,,,,,,,,181,83.4575,0.0518776
,,,,,,,,,201,87.9858,0.0507009
,,,,,,,,,200,112.349,0.0678399
,,,,,,,,,221,59.5019,0.0658416
,,,,,,,,,242,53.5779,0.100474
