"cellPairingIds","interplanarAngles","angleWeights"
8,75.996,0.112612
13,57.1358,0.0313202
19,110.381,0.0357189
34,101.086,0.0696669
18,103.979,0.0350448
25,147.114,0.0406455
52,94.4138,0.129143
63,135.406,0.112642
75,89.3179,0.0961202
51,73.318,0.0294041
62,75.028,0.0324764
61,34.8266,0.0332481
86,38.3089,0.0357219
98,86.4144,0.0756582
113,47.6862,0.0696785
129,93.1149,0.0629817
145,36.3702,0.0789865
162,53.7549,0.0724917
