"cellPairingIds","interplanarAngles","angleWeights"
26,85.3397,0.056536
34,71.9271,0.0491065
53,81.456,0.0411847
50,48.7769,0.0398604
86,88.4654,0.0315651
166,35.2,0.0505565
72,63.9526,0.031926
85,41.9948,0.0490039
99,127.779,0.0283773
184,71.504,0.0428473
98,42.4047,0.0433227
113,150.264,0.0263745
129,27.665,0.0349094
183,47.8107,0.0328378
145,39.9611,0.0564025
223,76.7492,0.0662303
245,88.21,0.0621676
222,116.863,0.0290955
244,90.1055,0.0334094
267,101.944,0.0323432
243,37.3688,0.039841
290,53.8541,0.0461925
365,32.8198,0.0426337
392,107.424,0.0525827
