"cellPairingIds","interplanarAngles","angleWeights"
18,23.9455,0.0526967
33,34.1725,0.0622201
42,69.5615,0.0604959
52,51.715,0.0595673
88,125.519,0.0455996
41,35.2427,0.0546905
101,116.897,0.0414203
85,24.8467,0.0621275
130,151.625,0.0470849
204,53.8383,0.0661679
98,51.4809,0.0604083
113,32.4669,0.0493764
146,130.866,0.0460908
183,37.8735,0.0585802
128,23.5416,0.0487561
202,57.9108,0.0577091
245,40.068,0.0631759
292,71.7244,0.0497055
222,35.846,0.0475582
265,125.621,0.0445026
314,141.017,0.0476846
367,111.084,0.039587
422,36.8344,0.0484611
481,41.2474,0.0522585
