facetNormals:0,facetNormals:1,facetNormals:2,FacetCenters:0,FacetCenters:1,FacetCenters:2,FacetIds,relFacetSize,absFacetSize,cellPairingIds,interplanarAngles,angleWeights
-0.419198,-0.400865,-0.802521,6.99154,5.67063,6.43321,1,0.010819,0.000815125,8,80.6116,0.0118432
0.561223,0.378619,-0.674645,7.05548,5.67036,6.44327,2,0.0130815,0.000985582,13,70.3234,0.0112447
0.688966,-0.361808,-0.583154,7.02263,5.74564,6.46756,3,0.0117052,0.000881892,19,103.955,0.00883879
0.809978,0.430724,-0.346448,7.05937,5.668,6.45726,4,0.0074713,0.000562901,26,67.3418,0.0179894
-0.858909,0.399515,-0.212339,6.95096,5.7199,6.46195,5,0.0533417,0.00401885,34,44.3743,0.0199177
-0.826265,-0.431399,-0.192271,6.96188,5.6563,6.45936,6,0.12526,0.00943734,43,60.5304,0.0188215
0.0759411,-0.951279,-0.150964,7.03096,5.62636,6.44885,7,0.0722962,0.00544692,53,128.841,0.0188157
0.928394,0.289203,0.129717,7.06074,5.69022,6.48087,8,0.0721276,0.00543422,64,100.13,0.0135519
-0.724984,0.604904,0.290942,6.95778,5.73834,6.4734,9,0.0181319,0.00136609,76,134.775,0.0191558
0.0993697,0.900254,0.338745,7.01185,5.75014,6.47311,10,0.0834907,0.00629034,89,113.164,0.0186519
0.740027,-0.495155,0.319995,7.06861,5.62609,6.47328,11,0.067577,0.00509137,103,82.7753,0.0138148
-0.835065,-0.296061,0.431187,6.94959,5.67678,6.49139,12,0.019105,0.0014394,118,140.982,0.0163571
0.853177,0.0142313,0.49097,7.06653,5.66244,6.50193,13,0.0335106,0.00252474,134,118.627,0.0139318
-0.417715,0.80395,0.402699,6.97341,5.7611,6.45887,14,0.0195592,0.00147362,151,158.31,0.0146339
0.239755,0.698599,0.666035,7.01066,5.74838,6.48059,15,0.0226045,0.00170306,169,106.534,0.0175551
0.0177503,-0.702901,0.687015,7.02538,5.6083,6.49653,16,0.0465168,0.00350466,188,122.159,0.0201353
-0.213568,-0.293396,0.888305,7.00079,5.66302,6.52021,17,0.144963,0.0109218,18,46.2164,0.0123551
,,,,,,,,,25,24.714,0.0095107
,,,,,,,,,33,101.66,0.0210104
,,,,,,,,,42,123.145,0.023689
,,,,,,,,,52,103.509,0.0221543
,,,,,,,,,63,54.6088,0.0221464
,,,,,,,,,75,113.341,0.0151981
,,,,,,,,,88,79.5211,0.022619
,,,,,,,,,102,89.2421,0.0219198
,,,,,,,,,117,157.753,0.0155296
,,,,,,,,,133,80.6428,0.0188173
,,,,,,,,,150,102.291,0.0156776
,,,,,,,,,168,93.0321,0.0165723
,,,,,,,,,187,139.993,0.0204203
,,,,,,,,,207,154.859,0.0239974
,,,,,,,,,32,50.6806,0.00912086
,,,,,,,,,41,130.45,0.0191977
,,,,,,,,,51,108.983,0.0214098
,,,,,,,,,62,58.955,0.0201483
,,,,,,,,,74,61.2159,0.0201417
,,,,,,,,,87,157.557,0.0142264
,,,,,,,,,101,118.924,0.0205319
,,,,,,,,,116,56.9047,0.0199541
,,,,,,,,,132,138.682,0.0145165
,,,,,,,,,149,71.9675,0.0173501
,,,,,,,,,167,147.54,0.0146457
,,,,,,,,,186,119.482,0.0154237
,,,,,,,,,206,98.0635,0.0187039
,,,,,,,,,227,126.803,0.0216614
,,,,,,,,,50,118.213,0.0131068
,,,,,,,,,61,147.653,0.0141015
,,,,,,,,,73,108.2,0.013543
,,,,,,,,,86,30.1792,0.0135401
,,,,,,,,,100,116.181,0.0105822
,,,,,,,,,115,68.2819,0.0137153
,,,,,,,,,131,72.7415,0.013455
,,,,,,,,,148,170.605,0.0107418
,,,,,,,,,166,56.9077,0.0122184
,,,,,,,,,185,97.7777,0.0108124
,,,,,,,,,205,74.2729,0.0112306
,,,,,,,,,226,123.097,0.0128747
,,,,,,,,,248,130.18,0.0142102
,,,,,,,,,72,51.2614,0.074821
,,,,,,,,,85,116.14,0.0613891
,,,,,,,,,99,138.151,0.0613283
,,,,,,,,,114,33.1991,0.0270641
,,,,,,,,,130,77.5497,0.0650947
,,,,,,,,,147,168.917,0.0596214
,,,,,,,,,165,57.9642,0.0281336
,,,,,,,,,184,150.447,0.0411621
,,,,,,,,,204,51.857,0.028623
,,,,,,,,,225,94.0537,0.031753
,,,,,,,,,247,117.587,0.049696
,,,,,,,,,270,97.5504,0.0779867
,,,,,,,,,98,65.819,0.0916786
,,,,,,,,,113,169.097,0.0915429
,,,,,,,,,129,72.5399,0.0316782
,,,,,,,,,146,125.59,0.100197
,,,,,,,,,164,120.673,0.0877913
,,,,,,,,,183,38.4131,0.0331534
,,,,,,,,,203,149.283,0.0528755
,,,,,,,,,224,94.8091,0.0338351
,,,,,,,,,246,131.527,0.0382978
,,,,,,,,,269,80.3724,0.0678404
,,,,,,,,,293,81.6743,0.134393
,,,,,,,,,128,103.682,0.0722118
,,,,,,,,,145,134.951,0.0289924
,,,,,,,,,163,164.427,0.0774913
,,,,,,,,,182,58.406,0.069857
,,,,,,,,,202,80.744,0.0302232
,,,,,,,,,223,91.3775,0.0457945
,,,,,,,,,245,153.503,0.0307887
,,,,,,,,,268,141.013,0.0344406
,,,,,,,,,292,53.4,0.0566098
,,,,,,,,,317,82.0155,0.0964772
,,,,,,,,,162,118.359,0.0289788
,,,,,,,,,181,65.29,0.0773943
,,,,,,,,,201,50.9034,0.0697782
,,,,,,,,,222,146.382,0.0302085
,,,,,,,,,244,27.0805,0.0457607
,,,,,,,,,267,96.0826,0.0307734
,,,,,,,,,291,58.4146,0.0344214
,,,,,,,,,316,95.8136,0.056558
,,,,,,,,,342,100.274,0.0963269
,,,,,,,,,200,53.2917,0.0297934
,,,,,,,,,221,142.63,0.0285921
,,,,,,,,,243,55.4745,0.0186057
,,,,,,,,,266,118.7,0.0235314
,,,,,,,,,290,22.299,0.0188185
,,,,,,,,,315,63.2325,0.0201226
,,,,,,,,,341,104.195,0.0260929
,,,,,,,,,368,75.5982,0.0322321
,,,,,,,,,242,106.76,0.0746957
,,,,,,,,,265,102.329,0.0310947
,,,,,,,,,289,73.9056,0.0478255
,,,,,,,,,314,31.3616,0.0316936
,,,,,,,,,340,24.0324,0.0355768
,,,,,,,,,367,114.772,0.0597461
,,,,,,,,,395,89.0394,0.105956
,,,,,,,,,288,110.953,0.0297884
,,,,,,,,,313,32.9718,0.0448036
,,,,,,,,,339,128.062,0.0303376
,,,,,,,,,366,87.281,0.0338771
,,,,,,,,,394,51.3414,0.0551032
,,,,,,,,,423,72.6012,0.0921819
,,,,,,,,,338,121.37,0.0243357
,,,,,,,,,365,73.0728,0.0193294
,,,,,,,,,393,97.025,0.0207079
,,,,,,,,,422,59.6448,0.0270856
,,,,,,,,,452,46.718,0.0337606
,,,,,,,,,392,98.6758,0.0247011
,,,,,,,,,421,56.4228,0.0269977
,,,,,,,,,451,69.277,0.0389568
,,,,,,,,,482,74.6702,0.0544371
,,,,,,,,,450,42.2667,0.0209719
,,,,,,,,,481,107.671,0.0275389
,,,,,,,,,513,77.1828,0.0344678
,,,,,,,,,512,91.7123,0.0304244
,,,,,,,,,545,69.4195,0.0391104
,,,,,,,,,578,30.5071,0.0704327
