"cellPairingIds","interplanarAngles","angleWeights"
162,32.742,0.0912717
244,130.44,0.0106007
369,114.829,0.0714637
266,157.995,0.0101958
368,162.664,0.0455225
396,133.86,0.0563722
482,36.4583,0.00949269
514,58.1034,0.00988961
648,53.6649,0.0399937
