Q	U	V
{$V$}	{[mm$^3$]}	0.00248414
{$d_v$}	{[mm]}	0.168032
{$S_c$}	{[mm$^2$]}	0.16063
{$S_o$}	{[mm$^2$]}	0.090365
{$S_l/S_o$}	[]	0.777569
{$\Psi$}	[]	0.552215
{$\eta$}	[]	0.622499
{med($\theta_e$)}	{[$^\circ$]}	60.8249
{$\Upsilon$}	[]	11
{$\Xi$}	[]	8
