"cellPairingIds","interplanarAngles","angleWeights"
8,45.8814,0.0512272
13,31.4834,0.0473869
26,51.3991,0.0681238
43,78.6299,0.0667922
18,34.1704,0.0520055
25,42.7949,0.0573479
52,103.203,0.0763494
88,77.1656,0.0856541
32,38.7752,0.0525778
41,32.1985,0.0695071
74,60.5107,0.0228905
86,44.7944,0.0238692
115,39.7273,0.0872176
85,121.589,0.121125
99,34.6613,0.0268366
128,148.68,0.0266275
163,167.4,0.140335
182,67.5369,0.0344337
202,103.637,0.0562451
181,43.7529,0.027676
201,104.262,0.0172272
222,77.1808,0.021374
265,74.8432,0.0611377
288,36.7962,0.0261288
