Q	U	V
{$V$}	{[mm$^3$]}	0.0158714
{$d_v$}	{[mm]}	0.311797
{$S_c$}	{[mm$^2$]}	0.673722
{$S_o$}	{[mm$^2$]}	0.418091
{$S_l/S_o$}	[]	0.611424
{$\Psi$}	[]	0.453329
{$\eta$}	[]	0.510322
{med($\theta_e$)}	{[$^\circ$]}	90.909
{$\Upsilon$}	[]	14
{$\Xi$}	[]	11
