Q	U	V
{$V$}	{[mm$^3$]}	0.000762341
{$d_v$}	{[mm]}	0.113340
{$S_c$}	{[mm$^2$]}	0.047286
{$S_o$}	{[mm$^2$]}	0.0392994
{$S_l/S_o$}	[]	0.203224
{$\Psi$}	[]	0.853462
{$\eta$}	[]	0.864397
{med($\theta_e$)}	{[$^\circ$]}	45.348
{$\Upsilon$}	[]	27
{$\Xi$}	[]	6
