facetNormals:0,facetNormals:1,facetNormals:2,FacetCenters:0,FacetCenters:1,FacetCenters:2,FacetIds,relFacetSize,absFacetSize,cellPairingIds,interplanarAngles,angleWeights
-0.0520145,0.191614,-0.884262,3.40563,4.03812,7.65565,1,0.18004,0.0483801,8,71.7655,0.117242
-0.214057,-0.782182,-0.455128,3.37797,3.92931,7.68582,2,0.086923,0.0233579,13,78.8522,0.0559013
0.767135,-0.502817,-0.348514,3.51595,3.96425,7.69137,3,0.0330874,0.00889121,19,68.8272,0.0610865
0.864001,0.302429,-0.347778,3.52497,4.08229,7.68471,4,0.0367834,0.00988442,26,81.5036,0.0761941
0.73968,0.602223,-0.0577113,3.51225,4.09025,7.759,5,0.0483222,0.0129851,34,104.516,0.103739
-0.588579,-0.755563,0.118822,3.32765,3.93105,7.7742,6,0.0728611,0.0195792,43,95.8152,0.0377345
0.28942,0.875576,0.272563,3.41671,4.01104,7.88326,7,0.0210759,0.00566349,53,121.294,0.149914
0.499416,-0.77437,0.322545,3.47246,3.93769,7.79426,8,0.128424,0.0345101,64,113.225,0.0390174
-0.375745,0.689001,0.561395,3.35937,4.04342,7.87077,9,0.0218795,0.00587944,76,134.368,0.0987686
0.0141745,-0.832805,0.523896,3.3801,3.93542,7.86724,10,0.0680503,0.0182864,89,173.305,0.0372647
0.0135452,-0.100464,0.955138,3.37534,4.05283,7.74417,11,0.0207832,0.00558484,103,146.794,0.0701441
0.46717,0.129603,0.810468,3.4641,4.02501,7.79309,12,0.043557,0.0117046,18,64.8558,0.0479301
,,,,,,,,,25,106.801,0.0516921
,,,,,,,,,33,132.743,0.062114
,,,,,,,,,42,42.3856,0.0792733
,,,,,,,,,52,166.874,0.0339259
,,,,,,,,,63,67.1874,0.103675
,,,,,,,,,75,142.723,0.0349593
,,,,,,,,,88,63.3851,0.0763375
,,,,,,,,,102,113.701,0.0335456
,,,,,,,,,117,130.489,0.0580335
,,,,,,,,,32,48.8755,0.0348376
,,,,,,,,,41,72.3212,0.0392793
,,,,,,,,,51,96.8546,0.0455086
,,,,,,,,,62,109.388,0.0257498
,,,,,,,,,74,46.444,0.0526182
,,,,,,,,,87,151.283,0.0263408
,,,,,,,,,101,75.1753,0.0445255
,,,,,,,,,116,106.773,0.0255301
,,,,,,,,,132,89.3349,0.0376071
,,,,,,,,,50,25.9655,0.0417706
,,,,,,,,,61,145.447,0.0488867
,,,,,,,,,73,63.5063,0.0267975
,,,,,,,,,86,84.8911,0.0571872
,,,,,,,,,100,109.249,0.0274382
,,,,,,,,,115,115.962,0.0477542
,,,,,,,,,131,111.902,0.0265597
,,,,,,,,,148,79.9762,0.0398847
,,,,,,,,,72,166.63,0.0581072
,,,,,,,,,85,37.8433,0.0293505
,,,,,,,,,99,97.115,0.070222
,,,,,,,,,114,83.4861,0.0301208
,,,,,,,,,130,123.669,0.056514
,,,,,,,,,147,96.607,0.0290654
,,,,,,,,,165,65.3191,0.045816
,,,,,,,,,98,149.485,0.0326945
,,,,,,,,,113,69.5325,0.0929739
,,,,,,,,,129,104.472,0.0336533
,,,,,,,,,146,43.9978,0.0703736
,,,,,,,,,164,78.7134,0.0323412
,,,,,,,,,183,107.666,0.054521
,,,,,,,,,128,118.334,0.0362094
,,,,,,,,,145,45.7432,0.0214702
,,,,,,,,,163,127.98,0.032184
,,,,,,,,,182,78.9965,0.0209285
,,,,,,,,,202,58.8631,0.0284067
,,,,,,,,,162,124.985,0.0373891
,,,,,,,,,181,31.2847,0.0889612
,,,,,,,,,201,65.2463,0.0357766
,,,,,,,,,222,64.6764,0.065051
,,,,,,,,,200,107.469,0.0331126
,,,,,,,,,221,60.1073,0.0213173
,,,,,,,,,243,66.1305,0.0291277
,,,,,,,,,242,51.8169,0.0318416
,,,,,,,,,265,69.6417,0.053116
,,,,,,,,,288,32.2201,0.0281396
