"cellPairingIds","interplanarAngles","angleWeights"
8,54.5781,0.036673
13,89.8559,0.0432972
19,119.669,0.0450188
26,51.6398,0.0443392
34,113.398,0.0324672
18,67.7916,0.0728766
33,68.186,0.075878
63,88.8615,0.0871711
32,33.8043,0.115384
74,93.9772,0.13699
61,80.308,0.061084
86,81.4788,0.155846
100,105.13,0.0515675
72,111.683,0.0598395
85,51.7571,0.0532865
99,99.7182,0.147994
98,70.0262,0.0370186
129,67.2953,0.0357404
128,82.1818,0.0586196
145,40.0768,0.0332949
162,49.3982,0.0554779
