Q	U	V
{$V$}	{[mm$^3$]}	0.002762
{$d_v$}	{[mm]}	0.174077
{$S_c$}	{[mm$^2$]}	0.147168
{$S_o$}	{[mm$^2$]}	0.0958955
{$S_l/S_o$}	[]	0.534671
{$\Psi$}	[]	0.646874
{$\eta$}	[]	0.670307
{med($\theta_e$)}	{[$^\circ$]}	57.6638
{$\Upsilon$}	[]	13
{$\Xi$}	[]	7
