facetNormals:0,facetNormals:1,facetNormals:2,FacetCenters:0,FacetCenters:1,FacetCenters:2,FacetIds,relFacetSize,absFacetSize,cellPairingIds,interplanarAngles,angleWeights
0.322389,0.389404,-0.831961,7.12319,7.33295,4.76926,1,0.132647,0.0135148,8,92.4994,0.0253041
-0.406594,-0.745394,-0.457232,7.0749,7.26605,4.85325,2,0.0139861,0.00142497,13,92.9752,0.072463
-0.868857,-0.176746,-0.361264,7.18458,7.18484,4.82725,3,0.0498466,0.00507862,19,69.3031,0.0351699
-0.453525,0.84711,-0.183832,7.08911,7.36953,4.80758,4,0.0202724,0.00206545,26,61.5827,0.0283572
0.184585,0.966865,-0.0242237,7.10925,7.31055,4.84057,5,0.0158755,0.00161747,34,96.8181,0.107674
0.858244,-0.308053,0.32276,7.17717,7.20855,4.84766,6,0.0906138,0.00923218,43,94.0603,0.0837853
-0.691173,0.674928,0.128819,7.06474,7.3536,4.8203,7,0.0612304,0.00623845,53,76.6155,0.124244
0.930916,0.194008,0.188932,7.1722,7.26393,4.84318,8,0.116841,0.0119044,64,85.1012,0.100589
0.502129,0.693372,0.423665,7.11615,7.35702,4.85603,9,0.0810105,0.00825374,76,122.76,0.0250996
-0.577157,0.499055,0.640854,7.08608,7.32039,4.8693,10,0.0138612,0.00141225,89,106.844,0.0722609
0.566822,0.358108,0.721128,7.15067,7.26929,4.87907,11,0.0496556,0.00505916,103,129.074,0.123543
-0.039821,0.392596,0.878971,7.09374,7.31926,4.89295,12,0.115608,0.0117787,18,45.2343,0.0218433
,,,,,,,,,25,112.628,0.0165525
,,,,,,,,,33,145.728,0.014871
,,,,,,,,,42,106.627,0.024232
,,,,,,,,,52,107.394,0.0227709
,,,,,,,,,63,130.686,0.0249818
,,,,,,,,,75,173.222,0.0238539
,,,,,,,,,88,116.606,0.0139234
,,,,,,,,,102,150.581,0.0218249
,,,,,,,,,117,136.892,0.0249533
,,,,,,,,,32,70.6248,0.0288228
,,,,,,,,,41,110.006,0.0240814
,,,,,,,,,51,150.727,0.0643141
,,,,,,,,,62,62.2337,0.0549552
,,,,,,,,,74,169.066,0.0698808
,,,,,,,,,87,141.116,0.0617177
,,,,,,,,,101,79.0177,0.0216908
,,,,,,,,,116,149.983,0.0497509
,,,,,,,,,132,112.454,0.0696586
,,,,,,,,,50,39.8257,0.0178066
,,,,,,,,,61,138.572,0.0331324
,,,,,,,,,73,25.3671,0.03046
,,,,,,,,,86,107.967,0.0345502
,,,,,,,,,100,72.4516,0.0324295
,,,,,,,,,115,54.4546,0.0164647
,,,,,,,,,131,95.1386,0.0287907
,,,,,,,,,148,78.43,0.0344958
,,,,,,,,,72,98.8936,0.0270176
,,,,,,,,,85,57.0555,0.0252137
,,,,,,,,,99,68.1787,0.027953
,,,,,,,,,114,36.8276,0.0265484
,,,,,,,,,130,68.4445,0.0148002
,,,,,,,,,147,63.447,0.0240591
,,,,,,,,,165,68.2886,0.0279174
,,,,,,,,,98,143.676,0.0730791
,,,,,,,,,113,31.4336,0.10207
,,,,,,,,,129,67.4654,0.0855435
,,,,,,,,,146,117.312,0.0240444
,,,,,,,,,164,50.2601,0.0641549
,,,,,,,,,183,82.0698,0.101596
,,,,,,,,,128,121.106,0.0803523
,,,,,,,,,145,79.1338,0.0697451
,,,,,,,,,163,32.5803,0.0226052
,,,,,,,,,182,93.4159,0.0548389
,,,,,,,,,202,64.4006,0.0800586
,,,,,,,,,162,42.5697,0.0956814
,,,,,,,,,181,109.306,0.0247825
,,,,,,,,,201,39.8042,0.0696929
,,,,,,,,,222,77.3124,0.116221
,,,,,,,,,200,69.8587,0.0236721
,,,,,,,,,221,26.9448,0.0615711
,,,,,,,,,243,47.2586,0.0952652
,,,,,,,,,242,71.3528,0.0216726
,,,,,,,,,265,35.4365,0.0247544
,,,,,,,,,288,37.5781,0.0694718
