Q	U	V
{$V$}	{[mm$^3$]}	0.00700356
{$d_v$}	{[mm]}	0.237378
{$S_c$}	{[mm$^2$]}	0.365546
{$S_o$}	{[mm$^2$]}	0.2073
{$S_l/S_o$}	[]	0.763367
{$\Psi$}	[]	0.48427
{$\eta$}	[]	0.542676
{med($\theta_e$)}	{[$^\circ$]}	50.3018
{$\Upsilon$}	[]	13
{$\Xi$}	[]	11
