Q	U	V
{$V$}	{[mm$^3$]}	0.00373689
{$d_v$}	{[mm]}	0.192532
{$S_c$}	{[mm$^2$]}	0.213736
{$S_o$}	{[mm$^2$]}	0.125379
{$S_l/S_o$}	[]	0.704719
{$\Psi$}	[]	0.544854
{$\eta$}	[]	0.603703
{med($\theta_e$)}	{[$^\circ$]}	78.9959
{$\Upsilon$}	[]	16
{$\Xi$}	[]	9
