facetNormals:0,facetNormals:1,facetNormals:2,FacetCenters:0,FacetCenters:1,FacetCenters:2,FacetIds,relFacetSize,absFacetSize,cellPairingIds,interplanarAngles,angleWeights
-0.329328,-0.152578,-0.896528,3.91777,6.50395,8.00337,1,0.059415,0.0116673,8,44.7306,0.0785995
0.227986,-0.606847,-0.727035,4.05388,6.44449,8.03309,2,0.116081,0.0227947,13,57.1671,0.0445311
-0.845013,0.368683,-0.323939,3.86894,6.58008,8.03897,3,0.0356105,0.0069928,19,75.6878,0.0163914
-0.984978,-0.0592469,0.10719,3.8583,6.55069,8.09885,4,0.00950713,0.00186691,26,97.9701,0.0458394
0.0611137,0.902195,-0.0405887,4.00807,6.61046,8.13649,5,0.0373137,0.00732725,34,120.759,0.0593575
0.857894,-0.321874,0.266099,4.14366,6.49759,8.14493,6,0.0593002,0.0116447,43,107.133,0.0613749
-0.538811,0.697801,0.3849,3.91808,6.60371,8.13002,7,0.0634684,0.0124632,53,103.837,0.0710507
-0.336096,-0.765904,0.506034,3.98428,6.45682,8.13154,8,0.0883537,0.0173499,64,149.657,0.0525765
0.660284,0.378211,0.589013,4.12043,6.57439,8.20033,9,0.0471497,0.00925875,76,131.213,0.0914889
-0.24192,-0.40053,0.841299,3.99104,6.50656,8.17552,10,0.198815,0.0390412,18,100.954,0.0545014
,,,,,,,,,25,106.003,0.0175749
,,,,,,,,,33,124.867,0.056474
,,,,,,,,,42,77.734,0.078499
,,,,,,,,,52,151.842,0.0820663
,,,,,,,,,63,88.781,0.100337
,,,,,,,,,75,122.761,0.0670607
,,,,,,,,,88,116.865,0.146579
,,,,,,,,,32,36.8886,0.0150076
,,,,,,,,,41,70.5778,0.0364422
,,,,,,,,,51,175.732,0.0444988
,,,,,,,,,62,51.2894,0.045623
,,,,,,,,,74,99.7816,0.0507617
,,,,,,,,,87,130.39,0.0405756
,,,,,,,,,101,103.26,0.0604021
,,,,,,,,,50,97.5469,0.0151533
,,,,,,,,,61,147.352,0.0163871
,,,,,,,,,73,56.2382,0.0165371
,,,,,,,,,86,63.6503,0.017167
,,,,,,,,,100,129.664,0.0158236
,,,,,,,,,115,68.3711,0.0181465
,,,,,,,,,72,106.74,0.0458052
,,,,,,,,,85,48.1455,0.0469972
,,,,,,,,,99,145.825,0.0524687
,,,,,,,,,114,65.7556,0.041659
,,,,,,,,,130,118.089,0.0628345
,,,,,,,,,98,129.548,0.0613136
,,,,,,,,,113,84.2873,0.0709686
,,,,,,,,,129,49.0745,0.0525315
,,,,,,,,,146,80.9016,0.0913528
,,,,,,,,,128,99.7085,0.0738716
,,,,,,,,,145,81.6229,0.0541054
,,,,,,,,,163,79.1277,0.0962202
,,,,,,,,,162,103.12,0.061487
,,,,,,,,,181,30.145,0.12234
,,,,,,,,,200,78.5233,0.0762229
