Q	U	V
{$V$}	{[mm$^3$]}	0.0108841
{$d_v$}	{[mm]}	0.274957
{$S_c$}	{[mm$^2$]}	0.445319
{$S_o$}	{[mm$^2$]}	0.255846
{$S_l/S_o$}	[]	0.740574
{$\Psi$}	[]	0.533345
{$\eta$}	[]	0.556201
{med($\theta_e$)}	{[$^\circ$]}	80.4328
{$\Upsilon$}	[]	13
{$\Xi$}	[]	9
