Q	U	V
{$V$}	{[mm$^3$]}	0.00594554
{$d_v$}	{[mm]}	0.224766
{$S_c$}	{[mm$^2$]}	0.345558
{$S_o$}	{[mm$^2$]}	0.200721
{$S_l/S_o$}	[]	0.721584
{$\Psi$}	[]	0.459294
{$\eta$}	[]	0.534498
{med($\theta_e$)}	{[$^\circ$]}	69.67545
{$\Upsilon$}	[]	10
{$\Xi$}	[]	9
