"cellPairingIds","interplanarAngles","angleWeights"
19,93.8821,0.0278917
26,52.6482,0.0426039
34,56.4637,0.0829398
50,126.844,0.0246087
61,132.392,0.034222
86,30.3714,0.0121746
131,82.5918,0.0313251
72,67.0472,0.0593824
147,80.5678,0.051171
165,89.9427,0.0483
184,105.893,0.040159
113,127.899,0.0171403
129,27.2898,0.0641835
183,67.3289,0.107656
162,112.414,0.0145991
201,89.2552,0.0163815
222,111.71,0.0160756
244,82.0099,0.0150595
243,47.3335,0.0514291
313,48.9464,0.0617731
338,54.1242,0.0576373
