"cellPairingIds","interplanarAngles","angleWeights"
8,30.0084,0.0265614
19,69.8605,0.0322269
26,79.0191,0.0334364
34,78.4969,0.0282546
53,86.4367,0.0218723
64,127.402,0.0278739
76,135.166,0.0243333
118,107.251,0.0334941
25,52.2184,0.0511754
42,66.5693,0.0418355
117,110.357,0.0459707
100,66.556,0.0562816
148,69.9378,0.0660752
114,50.8567,0.0600767
130,62.2176,0.0457342
164,42.0843,0.0512406
183,99.7998,0.0512905
203,73.0114,0.0620712
181,64.2025,0.0265408
244,55.7502,0.0378243
200,35.2155,0.0359276
243,40.3456,0.0500497
265,64.0287,0.0396822
289,84.3066,0.0458422
340,58.4495,0.04633
288,71.72,0.0575851
313,59.1541,0.0715341
366,47.1585,0.072729
393,67.3777,0.0728296
421,45.6135,0.0966705
