facetNormals:0,facetNormals:1,facetNormals:2,FacetCenters:0,FacetCenters:1,FacetCenters:2,FacetIds,relFacetSize,absFacetSize,cellPairingIds,interplanarAngles,angleWeights
0.373112,-0.581153,-0.643314,5.06982,7.93013,5.72456,1,0.0586867,0.00879743,8,78.5056,0.0335833
0.365419,0.639668,-0.653906,5.1517,7.935,5.65206,2,0.0235218,0.00352604,13,55.1305,0.0601275
-0.482648,-0.399102,-0.719466,5.11738,7.8488,5.61894,3,0.061641,0.00924029,19,99.141,0.0615749
-0.36338,0.665015,-0.587955,5.11838,7.92271,5.62527,4,0.0647622,0.00970818,26,107.874,0.0411487
0.251773,0.909482,-0.237395,5.18604,7.93918,5.6666,5,0.0316811,0.00474916,34,82.1258,0.0815724
-0.71602,-0.654609,-0.0189573,5.11536,7.80764,5.69287,6,0.133717,0.0200449,43,111.088,0.0404962
-0.920368,-0.25919,0.21805,5.08396,7.8701,5.70597,7,0.0309141,0.00463418,53,62.9193,0.0607093
0.788022,-0.459291,0.241726,5.21052,7.82086,5.7533,8,0.0628762,0.00942547,64,102.532,0.0485269
0.781963,0.456982,0.349786,5.22128,7.90079,5.74184,9,0.0413657,0.00620093,76,96.3596,0.0570735
-0.357996,-0.692978,0.575955,5.17389,7.84365,5.73877,10,0.0555466,0.00832672,89,164.191,0.0803884
-0.192891,0.751328,0.559557,5.14567,7.92127,5.743,11,0.127558,0.0191216,103,105.533,0.0452004
0.409508,-0.244449,0.836714,5.21114,7.86054,5.76595,12,0.0367542,0.00550964,18,87.6332,0.0340503
,,,,,,,,,25,44.2235,0.0345096
,,,,,,,,,33,30.1322,0.0269985
,,,,,,,,,42,134.336,0.0400063
,,,,,,,,,52,131.864,0.026716
,,,,,,,,,63,100.157,0.034236
,,,,,,,,,75,68.5759,0.0299903
,,,,,,,,,88,174.519,0.0330488
,,,,,,,,,102,87.31,0.0397194
,,,,,,,,,117,125.72,0.0286856
,,,,,,,,,32,68.6564,0.063163
,,,,,,,,,41,109.753,0.0418519
,,,,,,,,,51,47.9041,0.084383
,,,,,,,,,62,65.3085,0.0411771
,,,,,,,,,74,114.339,0.0622525
,,,,,,,,,87,151.187,0.0495079
,,,,,,,,,101,87.8328,0.0584353
,,,,,,,,,116,131.905,0.0831167
,,,,,,,,,132,139.839,0.0460503
,,,,,,,,,50,45.6103,0.0425481
,,,,,,,,,61,100.149,0.0872616
,,,,,,,,,73,87.9362,0.0418508
,,,,,,,,,86,144.185,0.0638053
,,,,,,,,,100,101.516,0.050485
,,,,,,,,,115,136.036,0.0598015
,,,,,,,,,131,74.7862,0.0859081
,,,,,,,,,148,150.415,0.0468945
,,,,,,,,,72,144.754,0.0512256
,,,,,,,,,85,122.961,0.0312929
,,,,,,,,,99,107.539,0.0421329
,,,,,,,,,114,55.9161,0.0358814
,,,,,,,,,130,155.291,0.0403491
,,,,,,,,,147,57.3652,0.0507561
,,,,,,,,,165,109.826,0.0340296
,,,,,,,,,98,29.9513,0.0502182
,,,,,,,,,113,107.031,0.0855332
,,,,,,,,,129,156.762,0.063185
,,,,,,,,,146,42.0118,0.0784888
,,,,,,,,,164,113.113,0.130565
,,,,,,,,,183,99.178,0.0576598
,,,,,,,,,128,126.737,0.0414491
,,,,,,,,,145,143.143,0.0353842
,,,,,,,,,163,48.1282,0.0397215
,,,,,,,,,182,83.5848,0.049767
,,,,,,,,,202,97.9781,0.0335821
,,,,,,,,,162,57.6014,0.0499016
,,,,,,,,,181,78.9474,0.0589846
,,,,,,,,,201,113.635,0.0842324
,,,,,,,,,222,45.476,0.0463908
,,,,,,,,,200,114.82,0.0474187
,,,,,,,,,221,65.2868,0.0624723
,,,,,,,,,243,57.5892,0.0389239
,,,,,,,,,242,98.0159,0.077392
,,,,,,,,,265,57.2834,0.0442374
,,,,,,,,,288,77.107,0.0570657
