facetNormals:0,facetNormals:1,facetNormals:2,FacetCenters:0,FacetCenters:1,FacetCenters:2,FacetIds,relFacetSize,absFacetSize,cellPairingIds,interplanarAngles,angleWeights
0.711049,-0.0277218,-0.630188,5.98048,4.39288,6.36479,1,0.100067,0.0264481,8,81.5132,0.100811
-0.309944,-0.707773,-0.526736,5.91645,4.32684,6.34717,2,0.101565,0.0268439,13,33.9446,0.0297947
0.669588,-0.567674,-0.459062,5.99047,4.37209,6.39252,3,0.0175031,0.00462611,19,107.695,0.0243329
-0.840365,-0.199627,-0.485227,5.80689,4.39307,6.36676,4,0.0138504,0.0036607,26,125.464,0.0383439
-0.946675,0.0888753,-0.218316,5.8303,4.38744,6.38965,5,0.0237157,0.00626811,34,133.694,0.0445707
-0.767345,-0.59129,0.188514,5.81436,4.33216,6.43731,6,0.0286704,0.00757765,43,124.304,0.077425
-0.352685,-0.781578,0.466045,5.88091,4.32207,6.45962,7,0.0631385,0.0166877,53,156.627,0.0739585
-0.838145,0.258275,0.350762,5.9397,4.40795,6.37953,8,0.0586547,0.0155026,64,83.7588,0.107492
0.606523,-0.518515,0.548392,6.00273,4.35587,6.48342,9,0.116108,0.0306875,76,74.6528,0.0419698
0.760989,0.358542,0.460097,6.05067,4.46957,6.46868,10,0.0265534,0.00701812,89,161.246,0.0695384
-0.486942,-0.0832452,0.813233,5.87376,4.38625,6.52554,11,0.0532827,0.0140827,103,112.094,0.0280715
0.325509,0.0679049,0.918408,5.98678,4.41809,6.50973,12,0.0163256,0.0043149,18,61.919,0.0298602
,,,,,,,,,25,44.8028,0.0243766
,,,,,,,,,33,67.7452,0.0384526
,,,,,,,,,42,52.8729,0.0447176
,,,,,,,,,52,62.8104,0.0778692
,,,,,,,,,63,97.0088,0.0743638
,,,,,,,,,75,96.9689,0.108351
,,,,,,,,,88,144.724,0.0421
,,,,,,,,,102,104.216,0.0698965
,,,,,,,,,117,133.845,0.0281297
,,,,,,,,,32,103.351,0.015464
,,,,,,,,,41,127.186,0.0201412
,,,,,,,,,51,105.708,0.0217363
,,,,,,,,,62,90.3802,0.0274082
,,,,,,,,,74,158.207,0.0269608
,,,,,,,,,87,62.1063,0.0304203
,,,,,,,,,101,84.2719,0.0210987
,,,,,,,,,116,133.775,0.0263502
,,,,,,,,,132,104.496,0.0168939
,,,,,,,,,50,23.8852,0.0174877
,,,,,,,,,61,46.6303,0.0186778
,,,,,,,,,73,76.466,0.0227174
,,,,,,,,,86,58.9561,0.0224093
,,,,,,,,,100,134.496,0.0247486
,,,,,,,,,115,169.607,0.018205
,,,,,,,,,131,88.1019,0.0219858
,,,,,,,,,148,139.219,0.0149865
,,,,,,,,,72,48.916,0.0259587
,,,,,,,,,85,80.1626,0.0344801
,,,,,,,,,99,36.5975,0.0337751
,,,,,,,,,114,141.573,0.0393864
,,,,,,,,,130,147.508,0.0250544
,,,,,,,,,147,72.7008,0.0328224
,,,,,,,,,165,121.834,0.0193387
,,,,,,,,,98,31.568,0.0394342
,,,,,,,,,113,53.3426,0.0385148
,,,,,,,,,129,93.3261,0.0459855
,,,,,,,,,146,138.545,0.0275713
,,,,,,,,,164,52.1518,0.0372807
,,,,,,,,,183,96.9593,0.0208046
,,,,,,,,,128,73.7985,0.0608141
,,,,,,,,,145,61.7725,0.0817965
,,,,,,,,,163,110.924,0.0373844
,,,,,,,,,182,48.4605,0.0577934
,,,,,,,,,202,74.1628,0.0259432
,,,,,,,,,162,119.469,0.0779374
,,,,,,,,,181,115.075,0.0365571
,,,,,,,,,201,41.6221,0.0558398
,,,,,,,,,222,85.8444,0.025542
,,,,,,,,,200,55.3401,0.043222
,,,,,,,,,221,77.8571,0.0730446
,,,,,,,,,243,45.2441,0.0286262
,,,,,,,,,242,91.648,0.0354435
,,,,,,,,,265,42.1248,0.0202197
,,,,,,,,,288,51.1716,0.0249934
