Q	U	V
{$V$}	{[mm$^3$]}	0.00556556
{$d_v$}	{[mm]}	0.219872
{$S_c$}	{[mm$^2$]}	0.260618
{$S_o$}	{[mm$^2$]}	0.151408
{$S_l/S_o$}	[]	0.721296
{$\Psi$}	[]	0.582754
{$\eta$}	[]	0.628326
{med($\theta_e$)}	{[$^\circ$]}	73.38235
{$\Upsilon$}	[]	11
{$\Xi$}	[]	8
