Q	U	V
{$V$}	{[mm$^3$]}	0.00293537
{$d_v$}	{[mm]}	0.177646
{$S_c$}	{[mm$^2$]}	0.208482
{$S_o$}	{[mm$^2$]}	0.110403
{$S_l/S_o$}	[]	0.888373
{$\Psi$}	[]	0.475544
{$\eta$}	[]	0.525297
{med($\theta_e$)}	{[$^\circ$]}	
{$\Upsilon$}	[]	11
{$\Xi$}	[]	9
