facetNormals:0,facetNormals:1,facetNormals:2,FacetCenters:0,FacetCenters:1,FacetCenters:2,FacetIds,relFacetSize,absFacetSize,cellPairingIds,interplanarAngles,angleWeights
-0.0412832,0.19877,-0.88709,6.54259,4.72261,7.10394,1,0.137082,0.0244831,8,58.3686,0.119498
-0.681042,-0.400151,-0.587648,6.48993,4.62655,7.11426,2,0.105912,0.0189161,13,72.6261,0.0293713
0.071464,-0.853513,-0.498078,6.58907,4.68004,7.05562,3,0.0164477,0.00293759,19,67.9126,0.0934857
0.873196,0.170398,-0.374856,6.5953,4.70862,7.1113,4,0.0709283,0.0126679,26,84.2098,0.0503195
0.707178,0.658645,0.0146451,6.58557,4.74844,7.12209,5,0.0308156,0.0055037,34,109.007,0.12765
0.885788,-0.329342,0.208298,6.60052,4.6392,7.13207,6,0.119433,0.0213308,43,102.915,0.0230807
-0.930567,-0.110897,0.240279,6.50853,4.6987,7.15196,7,0.0126012,0.00225059,53,125.797,0.0998134
0.749574,0.181608,0.587599,6.58723,4.73158,7.14441,8,0.0784776,0.0140162,64,142.187,0.0919472
-0.478829,-0.457293,0.701709,6.53129,4.66847,7.1528,9,0.069172,0.0123542,76,152.164,0.0586721
0.448607,0.0145792,0.872311,6.55461,4.70062,7.1953,10,0.0373234,0.00666601,18,53.109,0.0284736
,,,,,,,,,25,117.752,0.0849599
,,,,,,,,,33,142.389,0.0477408
,,,,,,,,,42,128.561,0.112267
,,,,,,,,,52,55.6867,0.0225227
,,,,,,,,,63,166.566,0.090154
,,,,,,,,,75,84.1549,0.0836873
,,,,,,,,,88,148.553,0.0551959
,,,,,,,,,32,83.7778,0.0267032
,,,,,,,,,41,122.813,0.0214478
,,,,,,,,,51,75.4639,0.0289136
,,,,,,,,,62,95.4792,0.0142698
,,,,,,,,,74,114.22,0.0271956
,,,,,,,,,87,89.6056,0.0265762
,,,,,,,,,101,115.266,0.0228333
,,,,,,,,,50,39.0867,0.0429647
,,,,,,,,,61,46.8227,0.0890009
,,,,,,,,,73,170.627,0.0214004
,,,,,,,,,86,60.1994,0.0745122
,,,,,,,,,100,144.585,0.0700391
,,,,,,,,,115,85.9302,0.0489098
,,,,,,,,,72,63.8273,0.0489907
,,,,,,,,,85,141.09,0.0178877
,,,,,,,,,99,45.3739,0.044254
,,,,,,,,,114,132.465,0.0426368
,,,,,,,,,130,69.0107,0.0337587
,,,,,,,,,98,141.995,0.0227971
,,,,,,,,,113,39.2557,0.0947175
,,,,,,,,,129,97.841,0.0876054
,,,,,,,,,146,52.7774,0.0568735
,,,,,,,,,128,127.919,0.0217155
,,,,,,,,,145,44.5732,0.0213187
,,,,,,,,,163,102.751,0.0188412
,,,,,,,,,162,91.8159,0.0735315
,,,,,,,,,181,26.4687,0.0505877
,,,,,,,,,200,65.6232,0.0484854
