facetNormals:0,facetNormals:1,facetNormals:2,FacetCenters:0,FacetCenters:1,FacetCenters:2,FacetIds,relFacetSize,absFacetSize,cellPairingIds,interplanarAngles,angleWeights
0.366683,-0.0211299,-0.907741,4.40654,6.82767,6.82267,1,0.0839629,0.0132975,8,56.9084,0.0339159
-0.265969,0.62444,-0.693497,4.31653,6.84077,6.8185,2,0.0212497,0.0033654,13,25.9357,0.0240849
0.471695,0.392214,-0.785341,4.37359,6.80614,6.82361,3,0.0140588,0.00222655,19,48.5136,0.0675536
0.527022,0.635499,-0.486813,4.30527,6.79572,6.88726,4,0.0565096,0.00894965,26,52.0241,0.0861491
0.696423,-0.576884,-0.348585,4.45787,6.79139,6.86912,5,0.0884523,0.0140085,34,98.1163,0.0838442
0.439235,-0.765381,0.339235,4.43246,6.80482,6.88243,6,0.0837259,0.01326,43,92.1381,0.0390195
0.778021,0.480461,0.342396,4.47531,6.87689,6.9188,7,0.0254153,0.00402512,53,135.15,0.127162
-0.542134,-0.582857,0.522988,4.33648,6.80482,6.89296,8,0.261919,0.0414812,64,123.003,0.0758968
0.284786,0.640073,0.669536,4.46541,6.86961,6.94483,9,0.0692446,0.0109665,76,135.74,0.0345487
0.36698,-0.0686362,0.90916,4.44444,6.83438,6.94247,10,0.0217489,0.00344447,18,46.6266,0.016922
,,,,,,,,,25,50.2848,0.0308854
,,,,,,,,,33,108.841,0.0342671
,,,,,,,,,42,154.79,0.0338965
,,,,,,,,,52,98.7639,0.0231466
,,,,,,,,,63,129.066,0.0393102
,,,,,,,,,75,98.5855,0.0325198
,,,,,,,,,88,143.939,0.0214964
,,,,,,,,,32,22.8507,0.022516
,,,,,,,,,41,67.0891,0.0242615
,,,,,,,,,51,112.426,0.0240751
,,,,,,,,,62,72.874,0.0181035
,,,,,,,,,74,160.563,0.0266853
,,,,,,,,,87,98.3618,0.0233723
,,,,,,,,,101,125.433,0.0170781
,,,,,,,,,50,79.4474,0.0689616
,,,,,,,,,61,117.618,0.0674767
,,,,,,,,,73,54.1048,0.0350615
,,,,,,,,,86,176.08,0.0929624
,,,,,,,,,100,75.604,0.0622323
,,,,,,,,,115,108.11,0.0314093
,,,,,,,,,72,46.6334,0.0860242
,,,,,,,,,85,81.1674,0.0394851
,,,,,,,,,99,104.019,0.132245
,,,,,,,,,114,115.498,0.0776787
,,,,,,,,,130,91.3085,0.0349133
,,,,,,,,,98,84.3956,0.0389938
,,,,,,,,,113,64.6591,0.12689
,,,,,,,,,129,98.6432,0.0757998
,,,,,,,,,146,55.8103,0.0345286
,,,,,,,,,128,124.203,0.0463345
,,,,,,,,,145,36.7304,0.037183
,,,,,,,,,163,54.0175,0.0234396
,,,,,,,,,162,101.075,0.109532
,,,,,,,,,181,70.2362,0.0401629
,,,,,,,,,200,45.3536,0.0331012
