facetNormals:0,facetNormals:1,facetNormals:2,FacetCenters:0,FacetCenters:1,FacetCenters:2,FacetIds,relFacetSize,absFacetSize,cellPairingIds,interplanarAngles,angleWeights
0.859959,-0.0192118,-0.409756,7.09791,3.40182,5.90601,1,0.0893616,0.0123188,8,81.4485,0.051181
0.00150359,0.890828,-0.372462,7.02377,3.49819,5.87494,2,0.0358596,0.00494337,13,153.05,0.0892721
-0.855996,0.386398,0.160124,6.90509,3.41567,5.96206,3,0.0891827,0.0122942,19,155.768,0.0803517
-0.89386,-0.309742,0.180731,6.90773,3.34798,5.99487,4,0.0729922,0.0100622,26,103.706,0.0704763
-0.171998,-0.9129,0.206083,6.98866,3.28953,6.01028,5,0.0581806,0.0080204,34,121.479,0.0694436
-0.476928,0.837804,0.143186,6.96986,3.47856,5.95446,6,0.0567863,0.0078282,43,127.833,0.064131
-0.338088,0.642511,0.65329,6.94165,3.44729,5.9648,7,0.0500108,0.00689416,53,71.2686,0.0871504
0.605716,-0.50126,0.569712,7.05763,3.3088,6.00704,8,0.0850459,0.0117239,64,117.926,0.0312943
-0.210068,-0.697931,0.669921,6.94192,3.29095,5.99633,9,0.0189685,0.00261487,76,136.172,0.0521388
-0.339937,0.0100331,0.899935,6.96721,3.36454,6.01801,10,0.0368071,0.00507399,89,86.9994,0.107049
0.427944,0.433199,0.759346,7.03685,3.42555,6.0168,11,0.133464,0.0183985,18,72.0642,0.0511516
,,,,,,,,,25,111.749,0.0480924
,,,,,,,,,33,165.687,0.0443711
,,,,,,,,,42,42.6372,0.0439595
,,,,,,,,,52,69.6121,0.0417691
,,,,,,,,,63,134.562,0.0504479
,,,,,,,,,75,155.757,0.0248122
,,,,,,,,,88,110.596,0.0363272
,,,,,,,,,102,83.6638,0.0565304
,,,,,,,,,32,42.6949,0.0802793
,,,,,,,,,41,100.97,0.0704206
,,,,,,,,,51,35.6097,0.0693895
,,,,,,,,,62,46.3507,0.0640848
,,,,,,,,,74,132.166,0.0870652
,,,,,,,,,87,88.9424,0.0312833
,,,,,,,,,101,61.3849,0.0521083
,,,,,,,,,116,94.7842,0.10692
,,,,,,,,,50,58.8726,0.0647502
,,,,,,,,,61,78.1546,0.0638774
,,,,,,,,,73,76.3955,0.0593546
,,,,,,,,,86,107.629,0.0785594
,,,,,,,,,100,56.5878,0.0301118
,,,,,,,,,115,59.992,0.0489371
,,,,,,,,,131,113.878,0.094372
,,,,,,,,,72,134.784,0.057475
,,,,,,,,,85,115.068,0.0537872
,,,,,,,,,99,59.3621,0.0690937
,,,,,,,,,114,30.5383,0.0286095
,,,,,,,,,130,75.14,0.0450892
,,,,,,,,,147,109.724,0.0810357
,,,,,,,,,98,33.5747,0.0531836
,,,,,,,,,113,131.519,0.0681008
,,,,,,,,,129,113.752,0.0284378
,,,,,,,,,146,71.3791,0.0446642
,,,,,,,,,164,73.6173,0.0796733
,,,,,,,,,128,99.3866,0.0629841
,,,,,,,,,145,86.4276,0.0275048
,,,,,,,,,163,40.9857,0.0424049
,,,,,,,,,182,48.5157,0.0727582
,,,,,,,,,162,51.0487,0.0310186
,,,,,,,,,181,71.1518,0.0513782
,,,,,,,,,201,59.8497,0.103891
,,,,,,,,,200,45.5211,0.0250351
,,,,,,,,,221,83.0581,0.0332162
,,,,,,,,,242,54.6157,0.0577012
