facetNormals:0,facetNormals:1,facetNormals:2,FacetCenters:0,FacetCenters:1,FacetCenters:2,FacetIds,relFacetSize,absFacetSize,cellPairingIds,interplanarAngles,angleWeights
0.263395,-0.505342,-0.80475,4.5019,5.38032,6.27487,1,0.0179086,0.0047455,8,76.3497,0.0269819
0.0643284,0.656734,-0.661539,4.47853,5.53754,6.37543,2,0.0546911,0.0144923,13,87.0112,0.0249847
-0.707311,0.390714,-0.538904,4.35509,5.50291,6.42754,3,0.0413054,0.0109453,19,30.4075,0.0260182
0.056474,-0.838349,-0.475217,4.44222,5.33131,6.34484,4,0.0475511,0.0126003,26,69.4685,0.0223643
0.82515,0.34848,-0.364313,4.53505,5.47255,6.31527,5,0.0297714,0.00788897,34,81.2318,0.0220471
-0.879792,-0.146609,-0.376745,4.27825,5.38977,6.3927,6,0.0286734,0.007598,43,44.3752,0.0207832
0.78844,-0.512318,-0.279331,4.55974,5.41424,6.36539,7,0.0247571,0.00656026,53,64.2125,0.0220522
0.960287,-0.0256934,-0.191741,4.56092,5.47047,6.35609,8,0.0286904,0.00760252,64,87.9448,0.030283
-0.574477,-0.737001,0.232458,4.30856,5.35105,6.46886,9,0.0979957,0.0259673,76,69.9669,0.0216589
0.710965,-0.644637,0.223846,4.45132,5.3507,6.43392,10,0.0273959,0.00725949,89,133.858,0.024426
-0.82648,0.152829,0.438301,4.30063,5.47494,6.46169,11,0.0384013,0.0101757,103,82.8142,0.0288963
0.436434,-0.732142,0.454535,4.45683,5.35369,6.43533,12,0.0747722,0.0198135,118,154.015,0.026363
-0.174854,0.808075,0.499046,4.36128,5.49388,6.49694,13,0.0499381,0.0132328,134,105.742,0.0212338
0.675318,-0.211053,0.679738,4.4687,5.43939,6.46871,14,0.0260754,0.00690956,151,158.414,0.0116235
-0.58986,0.479625,0.63275,4.34137,5.50717,6.47507,15,0.00860387,0.00227989,169,116.382,0.0280408
0.724731,0.331575,0.559053,4.49887,5.48868,6.44144,16,0.0645764,0.0171118,188,118.459,0.0193486
-0.129584,-0.490962,0.838024,4.39648,5.41526,6.51509,17,0.0210405,0.0055754,208,134.07,0.0244927
0.418932,0.157965,0.877506,4.4693,5.49016,6.48637,18,0.0387327,0.0102636,229,153.582,0.0267405
-0.0379604,0.151176,0.960978,4.42659,5.50468,6.49832,19,0.0527601,0.0139806,18,51.2862,0.047065
,,,,,,,,,25,104.942,0.0508718
,,,,,,,,,33,54.6348,0.0385551
,,,,,,,,,42,83.8862,0.0376222
,,,,,,,,,52,96.3236,0.034085
,,,,,,,,,63,79.1851,0.0376369
,,,,,,,,,75,138.585,0.0702024
,,,,,,,,,88,124.814,0.0365055
,,,,,,,,,102,105.907,0.0451209
,,,,,,,,,117,146.59,0.0631742
,,,,,,,,,133,77.8899,0.0522066
,,,,,,,,,150,126.463,0.0353139
,,,,,,,,,168,98.8098,0.0148686
,,,,,,,,,187,96.6576,0.0592241
,,,,,,,,,207,165.192,0.0303896
,,,,,,,,,228,119.253,0.0453489
,,,,,,,,,250,126.328,0.0537082
,,,,,,,,,32,96.8239,0.0442087
,,,,,,,,,41,105.51,0.0346026
,,,,,,,,,51,35.2441,0.0338493
,,,,,,,,,62,129.603,0.0309587
,,,,,,,,,74,128.013,0.0338612
,,,,,,,,,87,90.4225,0.0581151
,,,,,,,,,101,156.144,0.0329426
,,,,,,,,,116,63.6887,0.0398004
,,,,,,,,,132,153.508,0.0532143
,,,,,,,,,149,79.529,0.0452134
,,,,,,,,,167,166.451,0.0319692
,,,,,,,,,186,74.0735,0.0142413
,,,,,,,,,206,136.365,0.0503836
,,,,,,,,,227,125.435,0.0278795
,,,,,,,,,249,137.681,0.0399777
,,,,,,,,,272,117.182,0.0463353
,,,,,,,,,50,94.4497,0.0366171
,,,,,,,,,61,74.3419,0.0357746
,,,,,,,,,73,50.1472,0.0325614
,,,,,,,,,86,79.8347,0.0357879
,,,,,,,,,100,59.2724,0.0640317
,,,,,,,,,115,60.1,0.0347634
,,,,,,,,,131,114.75,0.0424892
,,,,,,,,,148,63.0621,0.0581328
,,,,,,,,,166,172.607,0.0487154
,,,,,,,,,185,96.5446,0.0336811
,,,,,,,,,205,140.438,0.0145712
,,,,,,,,,226,122.34,0.0547712
,,,,,,,,,248,89.6344,0.0291726
,,,,,,,,,271,123.565,0.0426913
,,,,,,,,,295,128.541,0.0500204
,,,,,,,,,72,133.107,0.0292121
,,,,,,,,,85,52.7728,0.0270337
,,,,,,,,,99,25.7338,0.0292209
,,,,,,,,,114,151.148,0.0456686
,,,,,,,,,130,72.8833,0.0285343
,,,,,,,,,147,149.33,0.0335401
,,,,,,,,,165,93.7202,0.0425865
,,,,,,,,,184,92.7309,0.0373037
,,,,,,,,,204,75.593,0.0278011
,,,,,,,,,225,125.11,0.0133497
,,,,,,,,,247,57.2037,0.0407541
,,,,,,,,,270,127.999,0.0246558
,,,,,,,,,294,85.1196,0.0336659
,,,,,,,,,319,110.439,0.0380641
,,,,,,,,,98,122.717,0.0265717
,,,,,,,,,113,144.158,0.0286819
,,,,,,,,,129,55.6629,0.0443655
,,,,,,,,,146,130.158,0.0280201
,,,,,,,,,164,53.9899,0.0328319
,,,,,,,,,183,118.611,0.0414512
,,,,,,,,,203,99.3959,0.0364296
,,,,,,,,,224,149.591,0.0273127
,,,,,,,,,246,77.318,0.0132361
,,,,,,,,,269,162.079,0.0397132
,,,,,,,,,293,97.8597,0.0242709
,,,,,,,,,318,139.226,0.0329524
,,,,,,,,,344,111.85,0.0371545
,,,,,,,,,128,30.9723,0.0265791
,,,,,,,,,145,98.542,0.0395281
,,,,,,,,,163,31.0314,0.0260098
,,,,,,,,,182,156.451,0.0301054
,,,,,,,,,202,51.3153,0.037198
,,,,,,,,,223,136.865,0.0331032
,,,,,,,,,245,62.0749,0.0253992
,,,,,,,,,268,156.176,0.0127698
,,,,,,,,,292,75.11,0.0357923
,,,,,,,,,317,95.0574,0.022748
,,,,,,,,,343,89.7474,0.0302067
,,,,,,,,,370,113.176,0.0337006
,,,,,,,,,162,127.736,0.0443859
,,,,,,,,,181,47.161,0.0280282
,,,,,,,,,201,161.706,0.0328431
,,,,,,,,,222,68.2422,0.041469
,,,,,,,,,244,107.493,0.0364434
,,,,,,,,,267,56.9907,0.0273205
,,,,,,,,,291,136.265,0.0132379
,,,,,,,,,316,52.5224,0.0397296
,,,,,,,,,342,106.493,0.0242771
,,,,,,,,,369,76.2125,0.0329637
,,,,,,,,,397,103.622,0.0371688
,,,,,,,,,200,82.8141,0.0428208
,,,,,,,,,221,59.4432,0.0551795
,,,,,,,,,243,64.9032,0.0848231
,,,,,,,,,266,114.058,0.0661609
,,,,,,,,,290,94.5165,0.0411905
,,,,,,,,,315,82.0055,0.0158189
,,,,,,,,,341,124.485,0.0778511
,,,,,,,,,368,48.0211,0.0346428
,,,,,,,,,396,99.2881,0.0555208
,,,,,,,,,425,81.7956,0.0685913
,,,,,,,,,242,129.011,0.0319782
,,,,,,,,,265,21.7764,0.0400996
,,,,,,,,,289,124.098,0.0353816
,,,,,,,,,314,37.3772,0.0267193
,,,,,,,,,340,127.022,0.0130951
,,,,,,,,,367,63.5939,0.0384709
,,,,,,,,,395,64.7467,0.0238012
,,,,,,,,,424,66.1562,0.0320925
,,,,,,,,,454,84.577,0.036065
,,,,,,,,,288,107.371,0.0507424
,,,,,,,,,313,57.8782,0.0434163
,,,,,,,,,339,108.328,0.0310601
,,,,,,,,,366,26.6285,0.014058
,,,,,,,,,394,109.186,0.0481622
,,,,,,,,,423,64.5337,0.0271856
,,,,,,,,,453,86.1614,0.0385663
,,,,,,,,,484,58.9721,0.0444499
,,,,,,,,,338,118.22,0.0598825
,,,,,,,,,365,36.869,0.0386665
,,,,,,,,,393,109.63,0.015432
,,,,,,,,,422,69.6094,0.0693013
,,,,,,,,,452,43.743,0.03284
,,,,,,,,,483,60.6765,0.0510309
,,,,,,,,,515,70.7821,0.0618665
,,,,,,,,,392,86.9393,0.0342611
,,,,,,,,,421,32.4023,0.0146787
,,,,,,,,,451,63.4507,0.0563216
,,,,,,,,,482,87.3266,0.0296067
,,,,,,,,,514,58.8362,0.0436274
,,,,,,,,,547,49.6772,0.0513103
,,,,,,,,,450,94.1047,0.0129385
,,,,,,,,,481,33.1761,0.0371499
,,,,,,,,,513,52.4628,0.0232889
,,,,,,,,,546,28.9162,0.031168
,,,,,,,,,580,51.4188,0.0349015
,,,,,,,,,512,84.9188,0.0151846
,,,,,,,,,545,67.4792,0.0122134
,,,,,,,,,579,66.7977,0.0140801
,,,,,,,,,614,43.1125,0.014795
,,,,,,,,,578,77.1716,0.0317395
,,,,,,,,,613,28.0265,0.048422
,,,,,,,,,649,53.7918,0.0580733
,,,,,,,,,648,51.3005,0.0272682
,,,,,,,,,685,39.505,0.0300837
,,,,,,,,,722,27.429,0.0446711
