facetNormals:0,facetNormals:1,facetNormals:2,FacetCenters:0,FacetCenters:1,FacetCenters:2,FacetIds,relFacetSize,absFacetSize,cellPairingIds,interplanarAngles,angleWeights
-0.443197,-0.194697,-0.808628,5.2941,6.12615,4.75658,1,0.0725735,0.0176718,8,71.8999,0.102081
0.46519,-0.666143,-0.426911,5.36817,6.05286,4.85962,2,0.172023,0.0418878,13,44.1995,0.0319973
-0.92112,0.0727935,-0.333466,5.23478,6.13705,4.78622,3,0.0205228,0.00499734,19,63.8064,0.065492
-0.55345,-0.780496,-0.000972198,5.3321,6.07214,4.85211,4,0.0596697,0.0145297,26,98.8021,0.0824083
0.319788,0.812025,-0.210669,5.32438,6.17999,4.80896,5,0.0953264,0.0232121,34,82.5979,0.0413077
-0.758863,0.59723,0.125895,5.24133,6.19901,4.83771,6,0.02887,0.0070299,43,99.8618,0.0263021
-0.376055,0.88395,0.188696,5.278,6.21612,4.90141,7,0.0160616,0.00391102,53,134.839,0.0648118
0.870491,0.00670663,0.270403,5.38554,6.10301,4.88048,8,0.0585499,0.014257,64,70.3144,0.060216
-0.931309,-0.246387,0.184657,5.25083,6.10336,4.85492,9,0.0514545,0.0125293,76,146.912,0.0420092
0.667845,0.552005,0.458102,5.36486,6.13177,4.82951,10,0.02956,0.0071979,89,104.732,0.0954754
-0.613809,-0.26967,0.685555,5.30662,6.10582,4.94423,11,0.139496,0.0339674,18,111.786,0.0366707
,,,,,,,,,25,72.5819,0.0886049
,,,,,,,,,33,111.517,0.122673
,,,,,,,,,42,154.18,0.0494423
,,,,,,,,,52,159.998,0.02938
,,,,,,,,,63,70.0808,0.0873644
,,,,,,,,,75,112.736,0.0792147
,,,,,,,,,88,106.309,0.0504506
,,,,,,,,,102,116.928,0.154061
,,,,,,,,,32,61.1649,0.0305413
,,,,,,,,,41,100.796,0.0337744
,,,,,,,,,51,42.9254,0.0239911
,,,,,,,,,62,68.7968,0.0180202
,,,,,,,,,74,174.633,0.0303925
,,,,,,,,,87,36.1205,0.0293424
,,,,,,,,,101,139.103,0.0242261
,,,,,,,,,116,70.324,0.0357814
,,,,,,,,,50,160.665,0.0733967
,,,,,,,,,61,92.846,0.0389128
,,,,,,,,,73,120.967,0.0253103
,,,,,,,,,86,123.965,0.0591045
,,,,,,,,,100,41.0701,0.0552584
,,,,,,,,,115,148.656,0.0395347
,,,,,,,,,131,53.2051,0.0835855
,,,,,,,,,72,75.7128,0.0443181
,,,,,,,,,85,50.608,0.0274912
,,,,,,,,,99,73.907,0.0725434
,,,,,,,,,114,127.557,0.066834
,,,,,,,,,130,50.0255,0.0451266
,,,,,,,,,147,130.552,0.113257
,,,,,,,,,98,28.6006,0.0206402
,,,,,,,,,113,134.529,0.0386717
,,,,,,,,,129,52.4005,0.0369873
,,,,,,,,,146,97.1897,0.0292109
,,,,,,,,,164,65.2436,0.0478393
,,,,,,,,,128,107.638,0.025208
,,,,,,,,,145,79.9681,0.0244813
,,,,,,,,,163,70.3126,0.0208138
,,,,,,,,,182,82.5441,0.0288064
,,,,,,,,,162,148.506,0.0547734
,,,,,,,,,181,37.4848,0.0392858
,,,,,,,,,201,113.658,0.0824806
,,,,,,,,,200,134.463,0.0375487
,,,,,,,,,221,35.6095,0.0751786
,,,,,,,,,242,105.094,0.0487826
