Q	U	V
{$V$}	{[mm$^3$]}	0.00193079
{$d_v$}	{[mm]}	0.154494
{$S_c$}	{[mm$^2$]}	0.13444
{$S_o$}	{[mm$^2$]}	0.0789445
{$S_l/S_o$}	[]	0.702969
{$\Psi$}	[]	0.557758
{$\eta$}	[]	0.601449
{med($\theta_e$)}	{[$^\circ$]}	53.8649
{$\Upsilon$}	[]	16
{$\Xi$}	[]	9
