facetNormals:0,facetNormals:1,facetNormals:2,FacetCenters:0,FacetCenters:1,FacetCenters:2,FacetIds,relFacetSize,absFacetSize,cellPairingIds,interplanarAngles,angleWeights
-0.0449113,0.430742,-0.885596,6.20063,4.73585,8.0669,1,0.00532225,0.000300026,8,46.0169,0.0087632
0.491018,0.693415,-0.420479,6.22028,4.73857,8.07225,2,0.0247914,0.00139754,13,53.6064,0.00995502
-0.579859,0.71111,-0.253437,6.17059,4.74857,8.10509,3,0.0768454,0.00433193,19,81.1572,0.0090644
-0.966138,0.136608,-0.0517653,6.14648,4.70124,8.08947,4,0.0305317,0.00172114,26,104.523,0.0100047
-0.504133,-0.831621,-0.105843,6.17139,4.6382,8.04673,5,0.0832309,0.0046919,34,94.2689,0.00882935
-0.940064,-0.292075,-0.0128127,6.14467,4.6909,8.09075,6,0.0258888,0.00145941,43,69.2215,0.00811458
0.781345,0.588397,-0.143852,6.24179,4.75351,8.0933,7,0.0170708,0.000962317,53,64.4025,0.00814632
0.0452589,0.986981,0.00257949,6.19733,4.75798,8.10351,8,0.0173554,0.000978356,64,124.227,0.0100477
0.16646,-0.932786,0.137338,6.22529,4.62169,8.02602,9,0.0896106,0.00505153,76,87.1725,0.00708284
0.913219,0.378769,0.0834355,6.2512,4.73064,8.08508,10,0.010584,0.000596643,89,102.321,0.00999736
0.964554,-0.00449704,0.182063,6.2514,4.70313,8.08642,11,0.0822214,0.00463498,103,122.4,0.00986164
0.681338,-0.658182,0.22626,6.2427,4.63949,8.06177,12,0.0670449,0.00377946,118,143.465,0.0100938
-0.338871,-0.73583,0.520577,6.17764,4.64356,8.06636,13,0.0975588,0.00549959,134,127.976,0.00991346
0.79382,-0.166803,0.549843,6.25358,4.68304,8.08131,14,0.0721746,0.00406863,151,96.8435,0.00354582
-0.0298895,0.841467,0.543743,6.15347,4.75668,8.13616,15,0.00265849,0.000149864,169,132.358,0.00898301
-0.67499,-0.167233,0.684964,6.15425,4.69803,8.12209,16,0.0287754,0.00162213,188,172.476,0.00998772
0.0380694,-0.309002,0.927986,6.1927,4.7151,8.13906,17,0.080937,0.00456258,208,142.667,0.00925237
0.315892,0.136071,0.917135,6.21455,4.71486,8.13018,18,0.035373,0.00199405,18,69.5744,0.0374885
,,,,,,,,,25,112.729,0.0273638
,,,,,,,,,33,147.219,0.0382035
,,,,,,,,,42,134.895,0.0253283
,,,,,,,,,52,24.6041,0.0202192
,,,,,,,,,63,41.1282,0.0204174
,,,,,,,,,75,133.329,0.038838
,,,,,,,,,88,44.0555,0.0148348
,,,,,,,,,102,64.9546,0.0380961
,,,,,,,,,117,103.592,0.0361979
,,,,,,,,,133,168.804,0.0395361
,,,,,,,,,150,87.3521,0.036906
,,,,,,,,,168,69.0222,0.00480203
,,,,,,,,,187,142.63,0.0266353
,,,,,,,,,207,129.144,0.0379566
,,,,,,,,,228,98.4326,0.0291517
,,,,,,,,,32,43.8755,0.0437006
,,,,,,,,,41,106.998,0.0799108
,,,,,,,,,51,68.6844,0.0387298
,,,,,,,,,62,89.8903,0.0279359
,,,,,,,,,74,44.1396,0.0283157
,,,,,,,,,87,150.681,0.0827385
,,,,,,,,,101,107.33,0.0186055
,,,,,,,,,116,130.645,0.0794425
,,,,,,,,,132,173.12,0.0716114
,,,,,,,,,149,120.026,0.0859721
,,,,,,,,,167,140.353,0.0744368
,,,,,,,,,186,59.9412,0.00513918
,,,,,,,,,206,83.8909,0.0418717
,,,,,,,,,227,120.793,0.0788382
,,,,,,,,,249,109.996,0.0484457
,,,,,,,,,50,66.6445,0.0446752
,,,,,,,,,61,25.3957,0.0280193
,,,,,,,,,73,133.672,0.0218981
,,,,,,,,,86,84.5931,0.0221308
,,,,,,,,,100,108.404,0.0455454
,,,,,,,,,115,149.448,0.015719
,,,,,,,,,131,169.131,0.0445285
,,,,,,,,,148,142.984,0.0419567
,,,,,,,,,166,77.7322,0.0465083
,,,,,,,,,185,148.702,0.042911
,,,,,,,,,205,83.2165,0.00489109
,,,,,,,,,226,51.4921,0.0296276
,,,,,,,,,248,97.6324,0.0443379
,,,,,,,,,271,110.43,0.0327745
,,,,,,,,,72,41.7787,0.0394933
,,,,,,,,,85,153.832,0.0283309
,,,,,,,,,99,150.823,0.0287217
,,,,,,,,,114,43.6868,0.086303
,,,,,,,,,130,143.899,0.0187799
,,,,,,,,,147,121.505,0.0827231
,,,,,,,,,165,79.1147,0.0742662
,,,,,,,,,184,39.4234,0.0898271
,,,,,,,,,204,109.479,0.0773095
,,,,,,,,,225,139.203,0.0051524
,,,,,,,,,247,64.7797,0.0427655
,,,,,,,,,270,81.6192,0.082068
,,,,,,,,,294,112.681,0.0496464
,,,,,,,,,98,158.334,0.0205748
,,,,,,,,,113,109.886,0.0207801
,,,,,,,,,129,83.0409,0.0401719
,,,,,,,,,146,173.344,0.0150253
,,,,,,,,,164,159.945,0.0393786
,,,,,,,,,183,118.068,0.0373538
,,,,,,,,,203,56.2409,0.0409191
,,,,,,,,,224,136.913,0.0381083
,,,,,,,,,246,103.159,0.00482183
,,,,,,,,,269,45.4103,0.0272559
,,,,,,,,,293,87.4678,0.0392296
,,,,,,,,,318,111.183,0.0298968
,,,,,,,,,128,50.9236,0.0172119
,,,,,,,,,145,117.601,0.0286784
,,,,,,,,,163,19.5399,0.0130666
,,,,,,,,,182,41.6784,0.0282719
,,,,,,,,,202,83.2882,0.0272128
,,,,,,,,,223,144.249,0.0290572
,,,,,,,,,245,62.7893,0.0276111
,,,,,,,,,268,66.5998,0.00460052
,,,,,,,,,292,138.643,0.021429
,,,,,,,,,317,107.163,0.0281949
,,,,,,,,,343,78.386,0.0230283
,,,,,,,,,162,164.775,0.0290789
,,,,,,,,,181,64.9291,0.0131492
,,,,,,,,,201,87.6548,0.0286609
,,,,,,,,,222,129.972,0.0275731
,,,,,,,,,244,141.082,0.0294684
,,,,,,,,,267,97.5543,0.027982
,,,,,,,,,291,32.9972,0.00461071
,,,,,,,,,316,101.595,0.0216518
,,,,,,,,,342,108.125,0.0285819
,,,,,,,,,369,81.0259,0.0232858
,,,,,,,,,200,101.528,0.018932
,,,,,,,,,221,78.3512,0.0857571
,,,,,,,,,243,35.5774,0.0767025
,,,,,,,,,266,40.4619,0.0934159
,,,,,,,,,290,67.222,0.079953
,,,,,,,,,315,138.184,0.00516378
,,,,,,,,,341,81.5265,0.0435623
,,,,,,,,,368,63.2357,0.0850533
,,,,,,,,,396,86.8449,0.0507234
,,,,,,,,,242,23.3218,0.0187539
,,,,,,,,,265,66.0816,0.018282
,,,,,,,,,289,124.761,0.0190963
,,,,,,,,,314,43.2971,0.0184609
,,,,,,,,,340,70.204,0.00424957
,,,,,,,,,367,130.008,0.0154758
,,,,,,,,,395,90.286,0.0187201
,,,,,,,,,424,64.6206,0.016293
,,,,,,,,,288,42.8123,0.0738616
,,,,,,,,,313,104.006,0.0892359
,,,,,,,,,339,25.7303,0.0768711
,,,,,,,,,366,86.1313,0.00515044
,,,,,,,,,394,123.269,0.0426311
,,,,,,,,,423,77.5547,0.0815742
,,,,,,,,,453,60.664,0.0494652
,,,,,,,,,338,66.6845,0.0794735
,,,,,,,,,365,35.7033,0.0695152
,,,,,,,,,393,117.527,0.00511419
,,,,,,,,,422,101.827,0.040268
,,,,,,,,,452,62.5624,0.0733389
,,,,,,,,,483,69.5591,0.0463118
,,,,,,,,,392,81.4698,0.0829685
,,,,,,,,,421,109.74,0.00517593
,,,,,,,,,451,41.0936,0.0444424
,,,,,,,,,482,42.2625,0.088474
,,,,,,,,,514,73.3493,0.0519205
,,,,,,,,,450,82.1066,0.00512809
,,,,,,,,,481,97.89,0.0411462
,,,,,,,,,513,51.8885,0.0763051
,,,,,,,,,546,40.274,0.0474772
,,,,,,,,,512,75.0797,0.0048673
,,,,,,,,,545,75.6332,0.00514789
,,,,,,,,,579,52.0513,0.00494531
,,,,,,,,,578,46.1726,0.0424564
,,,,,,,,,613,65.7802,0.0317349
,,,,,,,,,648,31.0873,0.0492302
