facetNormals:0,facetNormals:1,facetNormals:2,FacetCenters:0,FacetCenters:1,FacetCenters:2,FacetIds,relFacetSize,absFacetSize,cellPairingIds,interplanarAngles,angleWeights
-0.29413,-0.135965,-0.921213,4.92044,6.83491,7.2707,1,0.0199484,0.00215232,8,37.3515,0.0279815
0.244072,-0.429441,-0.8244,5.03318,6.77243,7.308,2,0.0468465,0.0050545,13,42.8603,0.028546
-0.722048,-0.473437,-0.459641,4.89473,6.8061,7.31594,3,0.050168,0.00541287,19,53.9818,0.0319003
-0.208439,-0.86134,-0.416789,5.00013,6.74469,7.35937,4,0.0795807,0.00858635,26,74.2807,0.0304743
-0.0494677,-0.977907,-0.123305,4.96173,6.75559,7.38118,5,0.0645177,0.00696113,34,74.2954,0.0335286
-0.431786,-0.883861,-0.0139678,4.97842,6.74453,7.40354,6,0.10503,0.0113322,43,84.6819,0.029332
-0.886622,0.37477,0.132308,4.90587,6.82414,7.45407,7,0.0553847,0.00597572,53,112.747,0.0340513
0.840125,-0.437937,0.192677,5.08112,6.77296,7.41007,8,0.116204,0.0125378,64,104.034,0.0284132
-0.79937,-0.149172,0.526237,4.89548,6.81145,7.43665,9,0.0493577,0.00532544,76,111.474,0.0317622
-0.230832,-0.766142,0.56746,4.97784,6.75884,7.49278,10,0.0778911,0.00840404,89,128.611,0.027866
0.195463,-0.676806,0.689619,5.03921,6.75814,7.4917,11,0.0462052,0.0049853,103,165.629,0.0312857
0.30154,0.367046,0.844838,5.02411,6.83166,7.52017,12,0.0724768,0.00781987,18,64.4117,0.0484504
,,,,,,,,,25,45.2485,0.0589759
,,,,,,,,,33,57.5052,0.0542801
,,,,,,,,,42,72.412,0.0647933
,,,,,,,,,52,121.393,0.0507591
,,,,,,,,,63,75.3959,0.0667739
,,,,,,,,,75,127.36,0.0480693
,,,,,,,,,88,101.946,0.0585056
,,,,,,,,,102,104.06,0.0465236
,,,,,,,,,117,146.922,0.056909
,,,,,,,,,32,38.4814,0.0615406
,,,,,,,,,41,54.8777,0.0564451
,,,,,,,,,51,40.0475,0.0679023
,,,,,,,,,62,64.9809,0.0526474
,,,,,,,,,74,121.055,0.0700806
,,,,,,,,,87,64.6305,0.0497595
,,,,,,,,,101,73.746,0.0610287
,,,,,,,,,116,98.2091,0.0481051
,,,,,,,,,132,145.342,0.0592934
,,,,,,,,,50,20.7127,0.0712619
,,,,,,,,,61,27.1709,0.0905513
,,,,,,,,,73,101.711,0.0653138
,,,,,,,,,86,82.6094,0.0944671
,,,,,,,,,100,85.4179,0.0609271
,,,,,,,,,115,60.6057,0.0787268
,,,,,,,,,131,74.6976,0.0584651
,,,,,,,,,148,140.378,0.0758628
,,,,,,,,,72,23.9332,0.0799339
,,,,,,,,,85,110.7,0.0596034
,,,,,,,,,99,67.6421,0.0829698
,,,,,,,,,114,82.7561,0.0559286
,,,,,,,,,130,44.4856,0.0705765
,,,,,,,,,147,54.3418,0.0538471
,,,,,,,,,165,119.984,0.068266
,,,,,,,,,98,87.0173,0.0725253
,,,,,,,,,113,88.6969,0.110335
,,,,,,,,,129,60.4705,0.0671561
,,,,,,,,,146,37.179,0.0894474
,,,,,,,,,164,58.6779,0.0641773
,,,,,,,,,183,119.285,0.0857685
,,,,,,,,,128,160.139,0.0750158
,,,,,,,,,145,39.855,0.0521978
,,,,,,,,,163,90.4441,0.0647376
,,,,,,,,,182,110.517,0.0503802
,,,,,,,,,202,91.0961,0.0627883
,,,,,,,,,162,122.623,0.0692861
,,,,,,,,,181,74.6578,0.0932663
,,,,,,,,,201,51.4874,0.0661198
,,,,,,,,,222,74.1857,0.0892735
,,,,,,,,,200,51.0402,0.0604253
,,,,,,,,,221,71.2065,0.0477294
,,,,,,,,,243,80.8806,0.0587237
,,,,,,,,,242,26.5929,0.0580029
,,,,,,,,,265,82.2265,0.0750864
,,,,,,,,,288,65.7039,0.0564332
