facetNormals:0,facetNormals:1,facetNormals:2,FacetCenters:0,FacetCenters:1,FacetCenters:2,FacetIds,relFacetSize,absFacetSize,cellPairingIds,interplanarAngles,angleWeights
-0.253818,-0.244903,-0.935676,6.49146,5.37494,7.75202,1,0.0328885,0.00134017,8,21.8269,0.028396
-0.564437,-0.0964842,-0.787993,6.51326,5.41273,7.68901,2,0.0249834,0.00101804,13,56.0088,0.0424643
-0.0659334,0.63475,-0.725581,6.53923,5.46083,7.68755,3,0.0599069,0.00244113,19,56.7755,0.0498736
0.648608,-0.190022,-0.693062,6.60738,5.38088,7.70004,4,0.103139,0.0042028,26,33.2744,0.01611
-0.66067,-0.458531,-0.594115,6.49959,5.38834,7.71135,5,0.0106677,0.000434695,34,76.4821,0.045899
0.689241,0.395551,-0.528971,6.58218,5.42555,7.6885,6,0.0759411,0.00309451,43,79.4219,0.0147689
0.424556,0.74622,-0.505992,6.56405,5.45952,7.68998,7,0.00952254,0.000388032,53,43.766,0.0588198
-0.238995,-0.818221,-0.473598,6.55437,5.35504,7.72408,8,0.278059,0.0113306,64,61.8699,0.0526927
-0.923814,0.145283,-0.279166,6.49471,5.41882,7.72805,9,0.132448,0.00539709,76,123.234,0.0144705
0.435865,0.843481,0.233682,6.59994,5.38734,7.7408,10,0.00927592,0.000377983,89,75.1329,0.0129536
-0.869588,-0.463164,0.0859378,6.49355,5.36512,7.76716,11,0.00806504,0.000328641,103,96.2264,0.0219032
-0.6468,-0.581398,0.440634,6.49263,5.36832,7.76394,12,0.016419,0.000669056,118,150,0.00457377
-0.00204405,0.648259,0.744583,6.5838,5.3902,7.74657,13,0.00245778,0.000100152,134,131.464,0.00790011
-0.541364,0.0776161,0.829793,6.50206,5.40526,7.75972,14,0.00448923,0.000182931,151,150.725,0.00597734
0.231125,-0.258244,0.930637,6.49375,5.41173,7.76419,15,0.00328741,0.000133958,169,173.228,0.0147704
0.357652,0.234871,0.878501,6.5045,5.3764,7.7783,16,0.00952382,0.000388084,18,54.4147,0.0352614
,,,,,,,,,25,77.8564,0.0402234
,,,,,,,,,33,24.6329,0.0149513
,,,,,,,,,42,90.6391,0.0375977
,,,,,,,,,52,84.853,0.0137892
,,,,,,,,,63,51.8284,0.0458474
,,,,,,,,,75,40.0789,0.0420373
,,,,,,,,,88,122.486,0.0135288
,,,,,,,,,102,60.9486,0.0121937
,,,,,,,,,117,85.5335,0.0198154
,,,,,,,,,133,132.374,0.0044753
,,,,,,,,,150,111.564,0.00761088
,,,,,,,,,168,150.135,0.00581028
,,,,,,,,,187,164.404,0.0137906
,,,,,,,,,32,68.7199,0.0757915
,,,,,,,,,41,79.0462,0.0181104
,,,,,,,,,51,50.2832,0.0669777
,,,,,,,,,62,32.4275,0.016433
,,,,,,,,,74,99.7748,0.0985759
,,,,,,,,,87,67.8418,0.082499
,,,,,,,,,101,69.0965,0.0160644
,,,,,,,,,116,108.234,0.0142162
,,,,,,,,,132,133.301,0.025774
,,,,,,,,,149,97.7497,0.00472185
,,,,,,,,,167,122.581,0.00835255
,,,,,,,,,186,152.921,0.00623279
,,,,,,,,,206,122.831,0.0164349
,,,,,,,,,50,85.8306,0.0193355
,,,,,,,,,61,36.9543,0.0874748
,,,,,,,,,73,59.8699,0.0174353
,,,,,,,,,86,69.6227,0.150467
,,,,,,,,,100,117.3,0.115971
,,,,,,,,,115,92.3935,0.017021
,,,,,,,,,131,124.015,0.0149603
,,,,,,,,,148,130.618,0.0283284
,,,,,,,,,166,132.085,0.00480116
,,,,,,,,,185,167.983,0.00860397
,,,,,,,,,205,117.642,0.00637173
,,,,,,,,,226,116.461,0.0174375
,,,,,,,,,72,109.745,0.0187075
,,,,,,,,,85,108.857,0.0100626
,,,,,,,,,99,33.3495,0.0205471
,,,,,,,,,114,43.3503,0.0197451
,,,,,,,,,130,146.323,0.00992324
,,,,,,,,,147,41.9153,0.00918556
,,,,,,,,,165,63.686,0.0129328
,,,,,,,,,184,138.41,0.00399511
,,,,,,,,,204,99.9047,0.00631919
,,,,,,,,,225,126.254,0.00502598
,,,,,,,,,247,152.41,0.0100634
,,,,,,,,,98,25.9474,0.016923
,,,,,,,,,113,104.804,0.1193
,,,,,,,,,129,117.597,0.0965333
,,,,,,,,,146,56.8484,0.0165325
,,,,,,,,,164,151.286,0.0145815
,,,,,,,,,183,167.556,0.0270004
,,,,,,,,,203,98.4723,0.00476147
,,,,,,,,,224,145.447,0.00847733
,,,,,,,,,246,117.322,0.00630201
,,,,,,,,,269,97.7188,0.0169251
,,,,,,,,,128,119.086,0.0184145
,,,,,,,,,145,98.4276,0.0177676
,,,,,,,,,163,44.3964,0.00939761
,,,,,,,,,182,140.299,0.0087334
,,,,,,,,,202,163.464,0.0120541
,,,,,,,,,223,83.8077,0.00390713
,,,,,,,,,245,126.694,0.00610186
,,,,,,,,,268,124.847,0.00488753
,,,,,,,,,292,96.9247,0.00952318
,,,,,,,,,162,75.7584,0.179429
,,,,,,,,,181,161.652,0.0179529
,,,,,,,,,201,55.5103,0.0156754
,,,,,,,,,222,63.6747,0.0310071
,,,,,,,,,244,156.457,0.0048725
,,,,,,,,,267,109.727,0.00883582
,,,,,,,,,291,107.096,0.00649799
,,,,,,,,,316,136.721,0.0184168
,,,,,,,,,200,111.217,0.0173376
,,,,,,,,,221,42.4614,0.0152043
,,,,,,,,,243,65.7998,0.0292162
,,,,,,,,,266,96.663,0.00482601
,,,,,,,,,290,73.2363,0.00868413
,,,,,,,,,315,121.808,0.00641558
,,,,,,,,,341,124.6,0.0177699
,,,,,,,,,242,140.822,0.0086282
,,,,,,,,,265,134.6,0.0118546
,,,,,,,,,289,41.7742,0.00388594
,,,,,,,,,314,88.6193,0.00605032
,,,,,,,,,340,84.0658,0.0048544
,,,,,,,,,367,54.1709,0.00939824
,,,,,,,,,288,25.5943,0.0108168
,,,,,,,,,313,103.896,0.00376745
,,,,,,,,,339,59.0058,0.00576789
,,,,,,,,,366,90.0815,0.0046709
,,,,,,,,,394,110.871,0.00873394
,,,,,,,,,338,92.8278,0.00427556
,,,,,,,,,365,46.1972,0.00705069
,,,,,,,,,393,64.8993,0.00547801
,,,,,,,,,422,88.8444,0.0120551
,,,,,,,,,392,46.9886,0.00317649
,,,,,,,,,421,57.6188,0.0028127
,,,,,,,,,451,33.3709,0.00390724
,,,,,,,,,450,50.552,0.00379545
,,,,,,,,,481,55.2462,0.00610212
,,,,,,,,,512,30.0955,0.00488769
