Q	U	V
{$V$}	{[mm$^3$]}	0.00286293
{$d_v$}	{[mm]}	0.176172
{$S_c$}	{[mm$^2$]}	0.194922
{$S_o$}	{[mm$^2$]}	0.1063
{$S_l/S_o$}	[]	0.833697
{$\Psi$}	[]	0.500223
{$\eta$}	[]	0.547352
{med($\theta_e$)}	{[$^\circ$]}	75.405
{$\Upsilon$}	[]	14
{$\Xi$}	[]	6
