"cellPairingIds","interplanarAngles","angleWeights"
25,126.227,0.0248983
33,148.534,0.0249571
42,69.0658,0.0212382
75,60.527,0.0245775
50,29.6134,0.0494854
61,142.723,0.036732
100,169.925,0.0480148
114,147.582,0.0482339
129,28.5352,0.0360379
