Q	U	V
{$V$}	{[mm$^3$]}	0.00541119
{$d_v$}	{[mm]}	0.217820
{$S_c$}	{[mm$^2$]}	0.327236
{$S_o$}	{[mm$^2$]}	0.188109
{$S_l/S_o$}	[]	0.739608
{$\Psi$}	[]	0.455496
{$\eta$}	[]	0.482710
{med($\theta_e$)}	{[$^\circ$]}	77.1996
{$\Upsilon$}	[]	16
{$\Xi$}	[]	11
