facetNormals:0,facetNormals:1,facetNormals:2,FacetCenters:0,FacetCenters:1,FacetCenters:2,FacetIds,relFacetSize,absFacetSize,cellPairingIds,interplanarAngles,angleWeights
0.644613,0.540496,-0.460952,3.2543,7.96741,4.81738,1,0.00435729,0.000465543,8,71.4181,0.00818914
-0.431177,0.419398,-0.747396,3.21373,7.9346,4.77248,2,0.0679101,0.00725568,13,98.6089,0.00843073
-0.00101426,-0.746999,-0.582289,3.24334,7.97228,4.86115,3,0.129419,0.0138275,19,123.319,0.00823513
-0.628403,-0.575441,-0.451327,3.16171,7.87258,4.8382,4,0.0748436,0.00799647,26,110.277,0.00851295
-0.887142,0.26945,-0.234896,3.14024,7.89405,4.84068,5,0.183972,0.019656,34,79.822,0.00749112
-0.50066,0.845484,-0.0710267,3.23675,7.98843,4.79491,6,0.0266794,0.00285049,43,79.3892,0.0084924
0.0353064,0.730061,0.553984,3.22431,7.94836,4.86525,7,0.166556,0.0177953,53,154.967,0.00746299
-0.296144,-0.631234,0.673385,3.17257,7.84578,4.91231,8,0.0259818,0.00277596,64,128.065,0.00812101
-0.411349,0.165058,0.862614,3.17654,7.878,4.92289,9,0.0596156,0.00636948,18,82.2619,0.0890783
,,,,,,,,,25,66.6303,0.0712085
,,,,,,,,,33,43.0008,0.0992016
,,,,,,,,,42,48.7198,0.0383087
,,,,,,,,,52,98.0413,0.0964817
,,,,,,,,,63,133.516,0.0375842
,,,,,,,,,75,115.334,0.0634931
,,,,,,,,,32,40.6105,0.0948406
,,,,,,,,,41,94.026,0.151948
,,,,,,,,,51,129.198,0.0442391
,,,,,,,,,62,177.73,0.145658
,,,,,,,,,74,85.0182,0.0432757
,,,,,,,,,87,132.891,0.0816295
,,,,,,,,,50,56.5423,0.106401
,,,,,,,,,61,98.4663,0.0393366
,,,,,,,,,73,141.526,0.103278
,,,,,,,,,86,74.7768,0.038573
,,,,,,,,,100,103.974,0.0663673
,,,,,,,,,72,43.042,0.0466008
,,,,,,,,,85,87.696,0.174832
,,,,,,,,,99,94.0537,0.0455331
,,,,,,,,,114,77.1196,0.0900506
,,,,,,,,,98,51.6803,0.0459917
,,,,,,,,,113,116.981,0.026326
,,,,,,,,,129,72.6932,0.0368621
,,,,,,,,,128,96.3451,0.0449514
,,,,,,,,,145,48.9729,0.0878036
,,,,,,,,,162,50.4577,0.0361908
