Q	U	V
{$V$}	{[mm$^3$]}	0.00553469
{$d_v$}	{[mm]}	0.219465
{$S_c$}	{[mm$^2$]}	0.263473
{$S_o$}	{[mm$^2$]}	0.148495
{$S_l/S_o$}	[]	0.774289
{$\Psi$}	[]	0.574306
{$\eta$}	[]	0.615771
{med($\theta_e$)}	{[$^\circ$]}	81.6174
{$\Upsilon$}	[]	15
{$\Xi$}	[]	12
