facetNormals:0,facetNormals:1,facetNormals:2,FacetCenters:0,FacetCenters:1,FacetCenters:2,FacetIds,relFacetSize,absFacetSize,cellPairingIds,interplanarAngles,angleWeights
0.0879149,-0.334173,-0.931514,7.07449,7.66441,4.64607,1,0.0132771,0.0017464,8,22.1093,0.0145744
0.08225,-0.662826,-0.738105,7.08914,7.68805,4.64579,2,0.0161527,0.00212464,13,37.3835,0.0199681
0.58011,-0.498082,-0.579807,7.13263,7.67178,4.64875,3,0.0402539,0.00529477,19,54.3596,0.0245072
-0.507246,-0.713164,-0.386659,6.96234,7.72344,4.69583,4,0.158952,0.0209076,26,47.1432,0.0186701
-0.0196093,-0.905169,-0.393216,6.95337,7.76913,4.72278,5,0.0314412,0.0041356,34,107.026,0.0176637
-0.791646,0.550174,0.0291259,6.89767,7.78862,4.71508,6,0.0263788,0.00346972,43,111.092,0.0152262
0.582904,0.786011,0.153207,7.09674,7.75301,4.71326,7,0.0178459,0.00234736,53,100.798,0.0192994
0.909756,-0.119794,0.32324,7.09655,7.72202,4.71475,8,0.0353198,0.00464577,64,112.829,0.0228323
0.809396,0.392576,0.332419,7.11775,7.72964,4.69911,9,0.081448,0.0107132,76,154.063,0.0210146
-0.193183,0.681999,0.67777,6.97859,7.76602,4.7526,10,0.0503669,0.00662499,89,121.643,0.0250759
-0.0592678,-0.583516,0.725966,7.03006,7.71166,4.74743,11,0.225207,0.0296225,103,162.067,0.0141933
-0.354492,0.178796,0.908627,6.94533,7.75608,4.76432,12,0.0152454,0.0020053,118,162.971,0.0146162
0.102368,0.11526,0.976513,7.03588,7.71395,4.72725,13,0.0162556,0.00213817,18,32.4772,0.0230544
,,,,,,,,,25,41.2208,0.0293254
,,,,,,,,,33,25.2652,0.0213414
,,,,,,,,,42,118.037,0.0200364
,,,,,,,,,52,126.475,0.0169572
,,,,,,,,,63,94.997,0.0221676
,,,,,,,,,75,117.377,0.026959
,,,,,,,,,88,172.638,0.0244608
,,,,,,,,,102,99.5381,0.0301434
,,,,,,,,,117,146.002,0.015686
,,,,,,,,,133,143.273,0.016204
,,,,,,,,,32,71.9057,0.0642394
,,,,,,,,,41,45.1962,0.0353059
,,,,,,,,,51,144.149,0.0318717
,,,,,,,,,62,98.6033,0.0247288
,,,,,,,,,74,64.6288,0.0376258
,,,,,,,,,87,84.9339,0.0538792
,,,,,,,,,101,153.848,0.0447461
,,,,,,,,,116,100.595,0.0682997
,,,,,,,,,132,149.701,0.0221151
,,,,,,,,,149,126.495,0.023159
,,,,,,,,,50,31.2344,0.0524981
,,,,,,,,,61,90.1283,0.0452484
,,,,,,,,,73,165.022,0.0320892
,,,,,,,,,86,122.565,0.0577969
,,,,,,,,,100,153.208,0.107707
,,,,,,,,,115,133.884,0.076495
,,,,,,,,,131,79.3186,0.186366
,,,,,,,,,148,108.372,0.0278223
,,,,,,,,,166,122.751,0.0294949
,,,,,,,,,72,121.253,0.0286884
,,,,,,,,,85,143.227,0.0227685
,,,,,,,,,99,92.1788,0.0332678
,,,,,,,,,114,122.021,0.0453688
,,,,,,,,,130,155.38,0.0387149
,,,,,,,,,147,74.6489,0.0551789
,,,,,,,,,165,121.553,0.0205341
,,,,,,,,,184,120.163,0.021431
,,,,,,,,,98,91.4725,0.0212892
,,,,,,,,,113,145.868,0.0302015
,,,,,,,,,129,116.664,0.0398509
,,,,,,,,,146,54.6037,0.0346239
,,,,,,,,,164,106.322,0.0472259
,,,,,,,,,183,64.915,0.0193232
,,,,,,,,,203,89.3501,0.0201154
,,,,,,,,,128,59.7351,0.0237113
,,,,,,,,,145,28.9389,0.029277
,,,,,,,,,163,57.1242,0.0263541
,,,,,,,,,182,114.407,0.0330712
,,,,,,,,,202,85.7311,0.0164435
,,,,,,,,,223,72.1669,0.0170137
,,,,,,,,,162,31.3533,0.0492726
,,,,,,,,,181,92.3045,0.0415222
,,,,,,,,,201,73.9756,0.061063
,,,,,,,,,222,92.9838,0.0212978
,,,,,,,,,244,65.7537,0.0222643
,,,,,,,,,200,69.0249,0.0622431
,,,,,,,,,221,92.2872,0.119631
,,,,,,,,,243,84.853,0.0256834
,,,,,,,,,266,61.478,0.0271021
,,,,,,,,,242,83.3793,0.0823227
,,,,,,,,,265,33.9948,0.0234061
,,,,,,,,,289,41.9851,0.0245786
,,,,,,,,,288,51.4829,0.0285576
,,,,,,,,,313,46.4591,0.0303225
,,,,,,,,,338,27.2352,0.0157343
