Q	U	V
{$V$}	{[mm$^3$]}	0.00242952
{$d_v$}	{[mm]}	0.166792
{$S_c$}	{[mm$^2$]}	0.187683
{$S_o$}	{[mm$^2$]}	0.0982898
{$S_l/S_o$}	[]	0.909486
{$\Psi$}	[]	0.465664
{$\eta$}	[]	0.474428
{med($\theta_e$)}	{[$^\circ$]}	
{$\Upsilon$}	[]	13
{$\Xi$}	[]	8
