Q	U	V
{$V$}	{[mm$^3$]}	0.00155674
{$d_v$}	{[mm]}	0.143793
{$S_c$}	{[mm$^2$]}	0.100918
{$S_o$}	{[mm$^2$]}	0.0537296
{$S_l/S_o$}	[]	0.878257
{$\Psi$}	[]	0.643664
{$\eta$}	[]	0.650555
{med($\theta_e$)}	{[$^\circ$]}	59.5626
{$\Upsilon$}	[]	15
{$\Xi$}	[]	3
