Q	U	V
{$V$}	{[mm$^3$]}	0.00897116
{$d_v$}	{[mm]}	0.257800
{$S_c$}	{[mm$^2$]}	0.409894
{$S_o$}	{[mm$^2$]}	0.248828
{$S_l/S_o$}	[]	0.647299
{$\Psi$}	[]	0.509384
{$\eta$}	[]	0.541128
{med($\theta_e$)}	{[$^\circ$]}	93.7219
{$\Upsilon$}	[]	10
{$\Xi$}	[]	13
