facetNormals:0,facetNormals:1,facetNormals:2,FacetCenters:0,FacetCenters:1,FacetCenters:2,FacetIds,relFacetSize,absFacetSize,cellPairingIds,interplanarAngles,angleWeights
-0.508027,0.550758,-0.615626,4.60738,7.61448,4.60126,1,0.0453304,0.00438657,8,73.6947,0.0587203
0.63361,0.379673,-0.605646,4.69131,7.58193,4.57348,2,0.0833368,0.0080644,13,103.71,0.0320311
-0.0526814,-0.863186,-0.376617,4.59531,7.50845,4.66128,3,0.0247653,0.00239651,19,76.9067,0.0215286
-0.731245,-0.578858,-0.259916,4.57111,7.50555,4.67216,4,0.0141164,0.00136603,26,41.7618,0.025733
0.00613876,0.931216,-0.334697,4.64906,7.60613,4.59816,5,0.0179659,0.00173854,34,112.882,0.0414403
0.965141,-0.0195182,-0.208955,4.7297,7.52723,4.62798,6,0.0381651,0.00369319,43,33.0796,0.0337057
-0.567101,0.792589,-0.118817,4.57236,7.60744,4.6209,7,0.0268263,0.00259594,53,58.6919,0.0557885
-0.922937,0.226088,0.173259,4.55763,7.57611,4.6761,8,0.0725194,0.00701761,64,87.1032,0.0526357
0.528596,0.801502,0.202723,4.68318,7.62426,4.65717,9,0.062748,0.00607205,76,120.832,0.0645204
0.892601,0.271825,0.297184,4.71894,7.5551,4.68048,10,0.111885,0.010827,89,64.4366,0.05351
-0.279426,0.871785,0.345421,4.58295,7.60727,4.66749,11,0.0652914,0.00631817,103,82.2386,0.0495515
0.160841,0.869521,0.435485,4.64013,7.61976,4.70247,12,0.0546395,0.0052874,118,94.6832,0.0247926
-0.617942,0.137893,0.760578,4.57263,7.54709,4.69791,13,0.0170622,0.00165109,134,143.813,0.0499775
-0.0273134,-0.430321,0.855098,4.64614,7.54728,4.72917,14,0.0556863,0.0053887,151,115.27,0.035325
-0.495494,-0.318724,0.782291,4.60335,7.5494,4.71661,15,0.0289378,0.00280027,169,140.708,0.0362134
0.478705,0.0589358,0.863806,4.69952,7.51721,4.72656,16,0.0301496,0.00291754,188,111.287,0.060961
-0.0552531,0.341326,0.904961,4.60808,7.53069,4.72608,17,0.0930439,0.00900375,18,98.4895,0.0381836
,,,,,,,,,25,124.641,0.0241432
,,,,,,,,,33,53.6575,0.0295594
,,,,,,,,,42,39.244,0.0523541
,,,,,,,,,52,89.1713,0.0405874
,,,,,,,,,63,130.883,0.0775527
,,,,,,,,,75,56.5654,0.0715916
,,,,,,,,,88,58.4974,0.0955237
,,,,,,,,,102,93.3893,0.0732186
,,,,,,,,,117,79.7034,0.0660038
,,,,,,,,,133,147.791,0.0283251
,,,,,,,,,150,139.788,0.0667618
,,,,,,,,,168,166.276,0.0429587
,,,,,,,,,187,102.061,0.0442797
,,,,,,,,,207,119.346,0.0879232
,,,,,,,,,32,45.8516,0.0179826
,,,,,,,,,41,136.591,0.0208247
,,,,,,,,,51,87.25,0.0300386
,,,,,,,,,62,131.162,0.0257546
,,,,,,,,,74,103.442,0.0369219
,,,,,,,,,87,149.321,0.035514
,,,,,,,,,101,115.221,0.0405542
,,,,,,,,,116,160.111,0.0359099
,,,,,,,,,132,173.117,0.0340827
,,,,,,,,,149,113.547,0.0202044
,,,,,,,,,167,86.7735,0.0342837
,,,,,,,,,186,89.5908,0.0266895
,,,,,,,,,206,115.477,0.0271935
,,,,,,,,,227,133.806,0.0391185
,,,,,,,,,50,118.459,0.0158102
,,,,,,,,,61,132.023,0.0206097
,,,,,,,,,73,90.7971,0.0184986
,,,,,,,,,86,57.7515,0.0236326
,,,,,,,,,100,161.928,0.0230478
,,,,,,,,,115,159.372,0.0250698
,,,,,,,,,131,114.317,0.0232138
,,,,,,,,,148,140.289,0.0224363
,,,,,,,,,166,79.5148,0.0154501
,,,,,,,,,185,87.1059,0.0225232
,,,,,,,,,205,68.76,0.018976
,,,,,,,,,226,129.455,0.0192294
,,,,,,,,,248,114.731,0.0245136
,,,,,,,,,72,86.6164,0.0244311
,,,,,,,,,85,37.1515,0.0215198
,,,,,,,,,99,81.1601,0.0287975
,,,,,,,,,114,45.4041,0.0279339
,,,,,,,,,130,80.5477,0.0309604
,,,,,,,,,147,44.1708,0.0281782
,,,,,,,,,165,47.0221,0.0270406
,,,,,,,,,184,97.6255,0.0175024
,,,,,,,,,204,136.472,0.027167
,,,,,,,,,225,125.421,0.0221686
,,,,,,,,,247,103.665,0.0225152
,,,,,,,,,270,89.1261,0.0301166
,,,,,,,,,98,123.695,0.0315066
,,,,,,,,,113,167.497,0.0500108
,,,,,,,,,129,62.1906,0.0474623
,,,,,,,,,146,34.8144,0.0569158
,,,,,,,,,164,111.799,0.048172
,,,,,,,,,183,87.2172,0.0449401
,,,,,,,,,203,140.852,0.0235818
,,,,,,,,,224,101.999,0.0452902
,,,,,,,,,246,131.069,0.032917
,,,,,,,,,269,73.3262,0.0336871
,,,,,,,,,293,105.089,0.0541279
,,,,,,,,,128,44.0128,0.0391647
,,,,,,,,,145,71.1415,0.0375843
,,,,,,,,,163,109.825,0.0432763
,,,,,,,,,182,32.7015,0.038028
,,,,,,,,,202,55.6378,0.035985
,,,,,,,,,223,67.6568,0.0208581
,,,,,,,,,245,117.022,0.0362092
,,,,,,,,,268,93.8507,0.027842
,,,,,,,,,292,109.698,0.028391
,,,,,,,,,317,78.2099,0.0416454
,,,,,,,,,162,106.647,0.0672808
,,,,,,,,,181,138.726,0.0880006
,,,,,,,,,201,56.9925,0.0687158
,,,,,,,,,222,82.5411,0.0623224
,,,,,,,,,244,39.903,0.0276249
,,,,,,,,,267,85.2827,0.0629978
,,,,,,,,,291,56.5944,0.0413682
,,,,,,,,,316,106.965,0.0425919
,,,,,,,,,342,72.27,0.0815095
,,,,,,,,,200,38.6998,0.0804037
,,,,,,,,,221,49.6969,0.0639945
,,,,,,,,,243,25.8814,0.0584137
,,,,,,,,,266,93.6566,0.0268291
,,,,,,,,,290,101.415,0.0590067
,,,,,,,,,315,111.922,0.0396089
,,,,,,,,,341,60.6804,0.0407293
,,,,,,,,,368,63.2538,0.0749503
,,,,,,,,,242,84.5977,0.0824618
,,,,,,,,,265,58.1509,0.0734228
,,,,,,,,,289,107.292,0.0296091
,,,,,,,,,314,83.0935,0.074362
,,,,,,,,,340,108.005,0.0459827
,,,,,,,,,367,43.7343,0.0474996
,,,,,,,,,395,70.7734,0.101599
,,,,,,,,,288,26.449,0.0594924
,,,,,,,,,313,54.9855,0.0270544
,,,,,,,,,339,94.4158,0.0601076
,,,,,,,,,366,82.1537,0.040102
,,,,,,,,,394,77.1074,0.0412508
,,,,,,,,,423,48.7022,0.0767355
,,,,,,,,,338,68.8642,0.0260041
,,,,,,,,,365,90.3754,0.0551579
,,,,,,,,,393,90.959,0.0378367
,,,,,,,,,422,58.8518,0.0388578
,,,,,,,,,452,44.4217,0.0688483
,,,,,,,,,392,50.1004,0.026121
,,,,,,,,,421,27.8088,0.0214671
,,,,,,,,,451,67.8395,0.0217919
,,,,,,,,,482,36.6167,0.0288364
,,,,,,,,,450,29.0818,0.0380846
,,,,,,,,,481,42.3505,0.0391193
,,,,,,,,,513,47.3591,0.0696734
,,,,,,,,,512,64.3261,0.0295313
,,,,,,,,,545,48.6709,0.0441457
,,,,,,,,,578,36.0018,0.045542
