"cellPairingIds","interplanarAngles","angleWeights"
8,70.8431,0.0607385
13,29.5059,0.0704492
19,135.557,0.0615224
34,39.1623,0.0710154
18,50.5471,0.0818935
25,77.6156,0.0700742
33,18.9428,0.069952
52,69.7085,0.0400176
63,83.0465,0.062764
51,53.7354,0.101746
74,72.9169,0.0731888
87,86.5714,0.105995
61,169.276,0.0841183
73,35.1268,0.0403564
115,71.6536,0.0753461
85,58.3532,0.0403159
99,66.4553,0.0635008
129,50.8312,0.107281
146,114.784,0.0900956
128,75.9994,0.0378196
163,57.1451,0.0416831
162,48.4911,0.07601
181,65.3767,0.0669604
200,65.0574,0.0934112
