"cellPairingIds","interplanarAngles","angleWeights"
8,63.0467,0.0148
19,56.1445,0.0201959
26,29.451,0.00878074
89,41.4841,0.0185173
118,70.4875,0.0175766
169,89.9442,0.0175672
25,53.6425,0.0344094
42,49.3133,0.0319855
52,59.4584,0.0274883
63,40.589,0.0368207
75,56.8493,0.0272143
102,89.3515,0.0298059
50,61.2243,0.0132661
100,46.594,0.0534959
248,92.2809,0.0491502
247,62.9876,0.0120789
270,78.9389,0.0118041
113,39.1227,0.0884281
146,38.6152,0.0350443
164,77.8501,0.0564961
183,52.8939,0.0616026
203,93.6679,0.0485656
128,37.7464,0.0608883
145,24.9619,0.0384463
202,35.597,0.0468429
343,65.0842,0.0277881
222,26.7942,0.0824571
368,94.6266,0.0356768
396,66.9304,0.027508
265,79.9692,0.0340666
289,56.4232,0.0296631
454,52.7384,0.0283071
313,32.5622,0.0437123
483,76.7387,0.031555
515,64.8115,0.0434318
548,65.4086,0.0345557
451,45.4524,0.0387634
547,71.1496,0.0365201
578,37.0405,0.0360295
613,75.9201,0.0277173
649,82.5916,0.0364797
686,74.9263,0.030006
648,43.1879,0.0263118
761,40.3011,0.0229476
800,40.6934,0.0286439
