Q	U	V
{$V$}	{[mm$^3$]}	0.00227396
{$d_v$}	{[mm]}	0.163153
{$S_c$}	{[mm$^2$]}	0.188687
{$S_o$}	{[mm$^2$]}	0.09813
{$S_l/S_o$}	[]	0.922827
{$\Psi$}	[]	0.443198
{$\eta$}	[]	0.466873
{med($\theta_e$)}	{[$^\circ$]}	
{$\Upsilon$}	[]	12
{$\Xi$}	[]	2
