"cellPairingIds","interplanarAngles","angleWeights"
8,65.4832,0.0630757
13,25.7909,0.0660406
19,43.9378,0.0569161
26,49.2781,0.0401046
25,87.9729,0.066098
33,69.8971,0.044456
42,71.4438,0.0250052
75,70.2491,0.0310388
133,109.971,0.0942976
32,59.4831,0.0693612
41,34.3152,0.0459087
62,44.5999,0.0604108
116,97.935,0.074736
100,96.4461,0.0294694
131,95.4313,0.0632592
166,120.267,0.0811656
72,22.5635,0.020378
85,34.739,0.0379565
98,36.9686,0.0228084
203,125.554,0.026894
182,73.8433,0.0557289
223,127.713,0.0691728
266,46.155,0.034003
313,69.6479,0.0886238
