Q	U	V
{$V$}	{[mm$^3$]}	0.00463223
{$d_v$}	{[mm]}	0.206822
{$S_c$}	{[mm$^2$]}	0.321768
{$S_o$}	{[mm$^2$]}	0.159953
{$S_l/S_o$}	[]	1.011641
{$\Psi$}	[]	0.417639
{$\eta$}	[]	0.493902
{med($\theta_e$)}	{[$^\circ$]}	84.9631
{$\Upsilon$}	[]	15
{$\Xi$}	[]	7
