facetNormals:0,facetNormals:1,facetNormals:2,FacetCenters:0,FacetCenters:1,FacetCenters:2,FacetIds,relFacetSize,absFacetSize,cellPairingIds,interplanarAngles,angleWeights
0.0584934,-0.209953,-0.956101,4.18465,6.46613,5.34665,1,0.0285227,0.00543285,8,33.6731,0.0193698
-0.355312,0.170339,-0.889717,4.15139,6.50005,5.40005,2,0.014664,0.00279312,13,36.4756,0.025488
0.300202,-0.661927,-0.629041,4.15125,6.42853,5.35172,3,0.023037,0.00438795,19,44.3751,0.0403057
-0.478842,-0.574161,-0.611121,4.1351,6.37456,5.31715,4,0.0686767,0.0130811,26,64.2045,0.0453222
0.868291,0.0710655,-0.388168,4.21671,6.43339,5.29976,5,0.110269,0.0210033,34,86.9729,0.0451472
-0.617163,-0.705925,0.0663451,4.08312,6.37121,5.36937,6,0.108228,0.0206146,43,76.7271,0.0396697
0.660394,-0.650238,-0.0352062,4.176,6.34375,5.30715,7,0.0651187,0.0124034,53,131.43,0.0291465
0.671352,-0.0524369,0.723281,4.19538,6.41016,5.37196,8,0.0297981,0.00567577,64,150.556,0.0364505
-0.507114,0.32634,0.772967,4.06007,6.47999,5.39523,9,0.0504816,0.00961545,76,146.162,0.0458417
0.4597,0.357639,0.776546,4.16538,6.46788,5.38012,10,0.116705,0.0222293,89,150.853,0.0306089
-0.4318,-0.105434,0.879331,4.05555,6.41843,5.40433,11,0.0330243,0.00629029,103,147.426,0.0424801
-0.0555858,-0.325515,0.882442,4.10746,6.401,5.40059,12,0.0831869,0.015845,18,68.6679,0.0179207
,,,,,,,,,25,49.0307,0.0241677
,,,,,,,,,33,86.9765,0.0258857
,,,,,,,,,42,87.493,0.0258285
,,,,,,,,,52,110.367,0.0239376
,,,,,,,,,63,157.904,0.0196554
,,,,,,,,,75,118.278,0.0227264
,,,,,,,,,88,147.129,0.0260543
,,,,,,,,,102,132.433,0.0203098
,,,,,,,,,117,153.545,0.0249329
,,,,,,,,,32,48.0291,0.0345009
,,,,,,,,,41,60.0428,0.0381118
,,,,,,,,,51,74.5792,0.037988
,,,,,,,,,62,43.1121,0.0340338
,,,,,,,,,74,103.312,0.0259849
,,,,,,,,,87,155.058,0.0316367
,,,,,,,,,101,129.001,0.0384785
,,,,,,,,,116,130.332,0.027141
,,,,,,,,,132,113.168,0.0360818
,,,,,,,,,50,103.779,0.0846391
,,,,,,,,,61,43.3277,0.084031
,,,,,,,,,73,84.9628,0.0668504
,,,,,,,,,86,140.222,0.0415626
,,,,,,,,,100,116.13,0.05819
,,,,,,,,,115,163.783,0.0864693
,,,,,,,,,131,106.491,0.0446014
,,,,,,,,,148,110.981,0.0752386
,,,,,,,,,72,133.031,0.109239
,,,,,,,,,85,52.3053,0.0818822
,,,,,,,,,99,71.5398,0.0469176
,,,,,,,,,114,140.085,0.069257
,,,,,,,,,130,82.3566,0.113395
,,,,,,,,,147,140.369,0.0508266
,,,,,,,,,165,117.427,0.0948321
,,,,,,,,,98,86.7706,0.0813129
,,,,,,,,,113,110.764,0.0467301
,,,,,,,,,129,81.6466,0.0688493
,,,,,,,,,146,122.083,0.112307
,,,,,,,,,164,64.4639,0.0506067
,,,,,,,,,183,68.6365,0.0940694
,,,,,,,,,128,60.4522,0.0408866
,,,,,,,,,145,129.17,0.0568735
,,,,,,,,,163,87.2181,0.0835939
,,,,,,,,,182,105.718,0.0438238
,,,,,,,,,202,80.5227,0.0730522
,,,,,,,,,162,77.9955,0.0374754
,,,,,,,,,181,27.4167,0.0474746
,,,,,,,,,201,68.8296,0.0313284
,,,,,,,,,222,48.4155,0.0438786
,,,,,,,,,200,59.4415,0.0704776
,,,,,,,,,221,26.5274,0.0399282
,,,,,,,,,243,49.1605,0.0628332
,,,,,,,,,242,62.161,0.051481
,,,,,,,,,265,53.5574,0.0971357
,,,,,,,,,288,26.0154,0.0472793
