facetNormals:0,facetNormals:1,facetNormals:2,FacetCenters:0,FacetCenters:1,FacetCenters:2,FacetIds,relFacetSize,absFacetSize,cellPairingIds,interplanarAngles,angleWeights
0.600126,-0.112119,-0.76107,3.44558,7.44119,4.08475,1,0.0469136,0.00359832,8,34.9458,0.0573718
0.606331,0.439806,-0.586168,3.44413,7.46989,4.10058,2,0.0738302,0.00566285,13,62.1962,0.00661321
-0.215473,-0.709713,-0.658414,3.44176,7.49794,4.14243,3,0.00355734,0.000272851,19,101.349,0.0333501
-0.764008,0.398935,-0.419407,3.4202,7.52362,4.11478,4,0.0258705,0.00198429,26,60.0395,0.0189991
0.319839,0.793236,-0.498432,3.42755,7.53555,4.112,5,0.0119115,0.000913626,34,95.1223,0.0338452
-0.767344,-0.411503,-0.433142,3.42432,7.50856,4.12877,6,0.0264713,0.00203038,43,48.8364,0.0573168
0.460107,-0.765414,-0.326916,3.43884,7.41257,4.10742,7,0.0736485,0.00564891,53,84.679,0.0495078
0.272376,0.908273,-0.0318228,3.4113,7.53556,4.14285,8,0.0524057,0.00401957,64,129.196,0.0248625
-0.975036,0.00985393,0.0198567,3.42171,7.53743,4.14675,9,0.0169128,0.00129723,76,50.7807,0.0637179
0.920828,-0.26228,-0.0114133,3.45599,7.45251,4.10803,10,0.0992794,0.00761483,89,79.8092,0.0488569
0.779344,0.505484,0.317414,3.44625,7.48792,4.1478,11,0.0509682,0.00390931,103,109.786,0.0272742
0.12799,0.879135,0.39298,3.38626,7.52994,4.18665,12,0.0192257,0.00147463,118,118.891,0.027757
-0.379356,-0.787429,0.416588,3.42418,7.45335,4.17841,13,0.0197091,0.00151171,134,81.9424,0.0381877
0.640076,-0.612472,0.418861,3.41468,7.47074,4.15135,14,0.0321987,0.00246967,151,153.416,0.0170497
-0.802385,-0.221053,0.532796,3.39396,7.45918,4.20119,15,0.0104179,0.000799065,169,105.934,0.0501473
0.363717,-0.570006,0.717842,3.42673,7.39354,4.1633,16,0.0538597,0.00413109,188,149.203,0.0110105
-0.455488,-0.390768,0.797471,3.41743,7.50992,4.19045,17,0.00623719,0.000478399,208,115.248,0.0528297
0.435119,0.240313,0.842688,3.42013,7.52113,4.13836,18,0.0604532,0.00463682,229,121.803,0.0638819
0.283856,-0.18635,0.90317,3.41663,7.45446,4.16883,19,0.10008,0.00767624,18,93.4546,0.00678763
,,,,,,,,,25,92.637,0.0383152
,,,,,,,,,33,27.5271,0.0205135
,,,,,,,,,42,115.098,0.0389701
,,,,,,,,,52,81.4827,0.0737392
,,,,,,,,,63,49.7333,0.0612999
,,,,,,,,,75,130.18,0.0275211
,,,,,,,,,88,60.4134,0.0846841
,,,,,,,,,102,56.9798,0.0603051
,,,,,,,,,117,75.3361,0.0305072
,,,,,,,,,133,152.995,0.0311126
,,,,,,,,,150,97.8187,0.0448413
,,,,,,,,,168,162.423,0.0182593
,,,,,,,,,187,118.735,0.0622832
,,,,,,,,,207,164.664,0.0115026
,,,,,,,,,228,97.6849,0.0664754
,,,,,,,,,250,118.596,0.0849741
,,,,,,,,,32,80.455,0.00625463
,,,,,,,,,41,108.02,0.00547853
,,,,,,,,,51,39.6551,0.00627183
,,,,,,,,,62,45.6503,0.00678686
,,,,,,,,,74,136.482,0.00666242
,,,,,,,,,87,78.6702,0.00587827
,,,,,,,,,101,90.2869,0.00686856
,,,,,,,,,116,139.08,0.0066505
,,,,,,,,,132,160.871,0.00600379
,,,,,,,,,149,67.5765,0.00602687
,,,,,,,,,167,88.7633,0.00640684
,,,,,,,,,186,91.2292,0.00530367
,,,,,,,,,206,98.6127,0.00667387
,,,,,,,,,227,98.6918,0.00453065
,,,,,,,,,249,147.586,0.00671928
,,,,,,,,,272,123.169,0.00687046
,,,,,,,,,50,72.7653,0.0163124
,,,,,,,,,61,49.632,0.0261675
,,,,,,,,,73,124.763,0.0382907
,,,,,,,,,86,79.3805,0.0346405
,,,,,,,,,100,37.612,0.0204539
,,,,,,,,,115,151.082,0.0410453
,,,,,,,,,131,124.054,0.0343206
,,,,,,,,,148,84.57,0.0220586
,,,,,,,,,166,102.383,0.0223733
,,,,,,,,,185,165.42,0.0286898
,,,,,,,,,205,71.4472,0.0148542
,,,,,,,,,226,148.546,0.0349523
,,,,,,,,,248,98.5579,0.0100511
,,,,,,,,,271,128.987,0.0362347
,,,,,,,,,295,136.422,0.0411133
,,,,,,,,,72,111.7,0.0164299
,,,,,,,,,85,108.393,0.0205064
,,,,,,,,,99,28.7473,0.019411
,,,,,,,,,114,108.976,0.0139783
,,,,,,,,,130,84.4207,0.021271
,,,,,,,,,147,59.581,0.0193102
,,,,,,,,,165,55.6634,0.0147096
,,,,,,,,,184,174.203,0.0148489
,,,,,,,,,204,120.332,0.0173899
,,,,,,,,,225,135.484,0.0111148
,,,,,,,,,247,135.277,0.0195086
,,,,,,,,,270,149.711,0.0081873
,,,,,,,,,294,95.3456,0.0199017
,,,,,,,,,319,122.073,0.0212892
,,,,,,,,,98,83.574,0.0389448
,,,,,,,,,113,128.073,0.0351749
,,,,,,,,,129,39.1503,0.0206391
,,,,,,,,,146,129.612,0.0417979
,,,,,,,,,164,171.237,0.0348451
,,,,,,,,,183,131.841,0.0222741
,,,,,,,,,203,62.5075,0.0225951
,,,,,,,,,224,116.187,0.0290554
,,,,,,,,,246,60.318,0.0149516
,,,,,,,,,269,111.756,0.0354965
,,,,,,,,,293,80.2185,0.0100956
,,,,,,,,,318,146.979,0.0368199
,,,,,,,,,344,124.562,0.0418684
,,,,,,,,,128,128.321,0.0612372
,,,,,,,,,145,119.921,0.0275085
,,,,,,,,,163,46.384,0.0845645
,,,,,,,,,182,98.1341,0.0602444
,,,,,,,,,202,143.483,0.0304917
,,,,,,,,,223,71.5134,0.0310964
,,,,,,,,,245,47.7693,0.0448077
,,,,,,,,,268,113.461,0.0182538
,,,,,,,,,292,66.8326,0.0622185
,,,,,,,,,317,100.39,0.0115004
,,,,,,,,,343,106.177,0.0664017
,,,,,,,,,370,91.3752,0.0848536
,,,,,,,,,162,106.142,0.0255726
,,,,,,,,,181,89.1831,0.0686001
,,,,,,,,,201,44.7629,0.0516769
,,,,,,,,,222,27.0498,0.0281311
,,,,,,,,,244,154.884,0.0286451
,,,,,,,,,267,115.161,0.0398891
,,,,,,,,,291,117.731,0.0173807
,,,,,,,,,316,118.156,0.0531227
,,,,,,,,,342,122.183,0.0111476
,,,,,,,,,369,70.4925,0.0561425
,,,,,,,,,397,97.5752,0.0687903
,,,,,,,,,200,164.675,0.028902
,,,,,,,,,221,141.437,0.0253978
,,,,,,,,,243,96.5655,0.0179952
,,,,,,,,,266,66.9061,0.0182042
,,,,,,,,,290,130.589,0.0221769
,,,,,,,,,315,34.8686,0.0128936
,,,,,,,,,341,111.085,0.0257421
,,,,,,,,,368,62.0587,0.00911347
,,,,,,,,,396,115.126,0.0264311
,,,,,,,,,425,106.081,0.0289357
,,,,,,,,,242,51.7872,0.0673567
,,,,,,,,,265,97.2389,0.0322132
,,,,,,,,,289,99.1575,0.032889
,,,,,,,,,314,37.4144,0.0486266
,,,,,,,,,340,136.552,0.0188571
,,,,,,,,,367,59.7124,0.069834
,,,,,,,,,395,109.948,0.011737
,,,,,,,,,424,69.5035,0.0751476
,,,,,,,,,454,71.0553,0.0996781
,,,,,,,,,288,45.4599,0.0279198
,,,,,,,,,313,126.207,0.028426
,,,,,,,,,339,70.4311,0.0394654
,,,,,,,,,366,125.836,0.0172998
,,,,,,,,,394,76.6706,0.052374
,,,,,,,,,423,107.792,0.0111143
,,,,,,,,,453,40.7057,0.055307
,,,,,,,,,484,64.1021,0.06754
,,,,,,,,,338,127.847,0.0194644
,,,,,,,,,365,107.858,0.0240758
,,,,,,,,,393,95.2389,0.0135133
,,,,,,,,,422,100.371,0.0283364
,,,,,,,,,452,95.234,0.00941876
,,,,,,,,,483,51.0002,0.0291735
,,,,,,,,,515,75.9578,0.0322551
,,,,,,,,,392,64.1329,0.0244513
,,,,,,,,,421,42.9448,0.0136308
,,,,,,,,,451,50.3011,0.028858
,,,,,,,,,482,32.7548,0.00947568
,,,,,,,,,514,90.196,0.0297266
,,,,,,,,,547,63.6066,0.0329326
,,,,,,,,,450,99.2123,0.0157424
,,,,,,,,,481,24.0318,0.0403031
,,,,,,,,,513,73.253,0.0104501
,,,,,,,,,546,59.6594,0.0420178
,,,,,,,,,580,44.5235,0.0487221
,,,,,,,,,512,77.1566,0.0174588
,,,,,,,,,545,27.2609,0.00780284
,,,,,,,,,579,87.2299,0.017773
,,,,,,,,,614,72.0009,0.0188714
,,,,,,,,,578,50.2373,0.0111797
,,,,,,,,,613,49.5314,0.0569663
,,,,,,,,,649,25.645,0.070031
,,,,,,,,,648,67.103,0.0113077
,,,,,,,,,685,46.428,0.0117426
,,,,,,,,,722,27.1742,0.0753758
