"cellPairingIds","interplanarAngles","angleWeights"
8,48.6262,0.0262572
13,36.2208,0.0514056
19,36.6196,0.094999
43,119.173,0.0312199
18,46.5547,0.0218906
42,48.1771,0.0253611
52,105.445,0.0171646
88,93.0072,0.00946414
32,64.1805,0.0551776
41,36.3202,0.0498765
51,56.1386,0.0480795
87,59.4617,0.045371
116,65.2913,0.0546911
73,106.599,0.0325721
86,39.9725,0.0478863
131,63.9177,0.106863
166,57.8382,0.0467764
72,26.1389,0.0724721
114,32.6517,0.0664893
129,47.0477,0.0633337
146,85.2129,0.0123794
163,36.1132,0.0100393
223,75.7244,0.0233194
245,81.9604,0.0302366
268,90.1212,0.0195336
201,44.9752,0.0475195
244,26.9025,0.0302439
200,110.903,0.012192
221,55.1069,0.0753296
315,62.1636,0.0297562
340,79.1307,0.0101424
313,66.2832,0.0464263
339,58.6769,0.0852568
366,69.8892,0.0335003
392,31.2082,0.0421057
450,46.878,0.0311908
