"cellPairingIds","interplanarAngles","angleWeights"
8,103.612,0.0183613
13,83.6815,0.0279012
19,122.796,0.0243456
34,88.7775,0.0249608
53,102.502,0.0242746
76,124.695,0.0284353
134,121.228,0.0248451
151,153.417,0.0161924
18,78.4863,0.032863
25,46.583,0.0280397
117,72.9793,0.030561
51,18.1665,0.0623831
132,92.5246,0.0709222
115,45.7268,0.0610909
148,57.2103,0.0517215
113,32.9089,0.0467626
183,88.395,0.0545791
246,81.6176,0.0238397
291,57.5401,0.023213
265,59.0838,0.0744782
314,71.3855,0.0643362
340,61.6057,0.0269895
393,29.1729,0.0249895
450,32.5106,0.0237342
