Q	U	V
{$V$}	{[mm$^3$]}	0.00285937
{$d_v$}	{[mm]}	0.176099
{$S_c$}	{[mm$^2$]}	0.230137
{$S_o$}	{[mm$^2$]}	0.119113
{$S_l/S_o$}	[]	0.932090
{$\Psi$}	[]	0.423329
{$\eta$}	[]	0.460404
{med($\theta_e$)}	{[$^\circ$]}	
{$\Upsilon$}	[]	12
{$\Xi$}	[]	7
