"cellPairingIds","interplanarAngles","angleWeights"
8,42.7439,0.0775546
13,63.0732,0.0884362
19,93.0084,0.0370838
34,96.2371,0.101465
43,59.5965,0.0412521
25,129.384,0.0330018
52,55.1517,0.0362627
102,82.0211,0.0656551
117,101.285,0.0648113
41,24.0525,0.0450929
51,39.0512,0.0861739
62,70.2942,0.0384764
74,38.2001,0.061264
61,35.1959,0.03668
148,119.375,0.0338969
72,29.2623,0.0482521
99,19.9835,0.0393038
130,36.35,0.0383466
146,48.7193,0.0644914
183,119.154,0.0807044
128,63.0617,0.0341806
145,51.1623,0.0315053
163,79.9372,0.0334544
182,73.5438,0.0376249
223,80.4937,0.0259079
181,25.6324,0.0494455
200,28.9768,0.0440363
266,49.4657,0.0318316
265,84.6382,0.056356
289,47.7417,0.0338224
288,28.6317,0.0692953
313,37.2881,0.0380911
338,39.8308,0.0378056
