facetNormals:0,facetNormals:1,facetNormals:2,FacetCenters:0,FacetCenters:1,FacetCenters:2,FacetIds,relFacetSize,absFacetSize,cellPairingIds,interplanarAngles,angleWeights
-0.146028,0.00502983,-0.948124,4.32491,7.45114,4.52526,1,0.0311257,0.00821696,8,43.2963,0.0386702
-0.70991,0.26011,-0.600131,4.30613,7.47204,4.57006,2,0.0510422,0.0134748,13,84.4991,0.0190813
0.838308,0.389007,-0.219175,4.49879,7.5215,4.67232,3,0.0137577,0.00363193,19,60.9594,0.0273845
-0.0957888,-0.855691,-0.472087,4.32331,7.34557,4.60116,4,0.0244462,0.00645361,26,76.2428,0.0322442
0.702928,-0.527506,-0.33759,4.44443,7.47626,4.67572,5,0.033446,0.00882951,34,68.2291,0.0334551
-0.622584,0.711828,-0.269337,4.27039,7.51777,4.60819,6,0.0361614,0.00954635,43,72.285,0.0478829
-0.694803,-0.623095,-0.189488,4.25213,7.37777,4.62897,7,0.103726,0.027383,53,106.135,0.0548244
-0.255929,0.862909,0.311831,4.36006,7.5421,4.68513,8,0.229761,0.0606553,64,112.413,0.028581
-0.477384,-0.741108,0.451727,4.29353,7.33393,4.72257,9,0.0264209,0.00697492,76,121.871,0.0366417
0.61489,-0.621107,0.420046,4.41893,7.41466,4.73738,10,0.0445338,0.0117566,89,113.105,0.0381034
-0.813704,-0.190328,0.513817,4.24384,7.41589,4.72096,11,0.0491136,0.0129656,103,137.503,0.0315027
-0.114914,-0.618266,0.737419,4.37471,7.35543,4.71782,12,0.031889,0.00841846,118,147.116,0.0261718
-0.332647,0.258989,0.887324,4.42235,7.45917,4.74946,13,0.0225782,0.00596049,134,159.534,0.040738
0.34499,-0.267934,0.858727,4.38154,7.41678,4.75983,14,0.0589397,0.0155597,18,113.283,0.0216736
,,,,,,,,,25,82.194,0.033059
,,,,,,,,,33,118.5,0.0404117
,,,,,,,,,42,33.7962,0.0423322
,,,,,,,,,52,61.0552,0.0684173
,,,,,,,,,63,76.2211,0.0835284
,,,,,,,,,75,97.5097,0.0348187
,,,,,,,,,88,155.265,0.0475664
,,,,,,,,,102,76.5788,0.0500593
,,,,,,,,,117,123.901,0.0392538
,,,,,,,,,133,103.974,0.0313077
,,,,,,,,,150,153.179,0.0547074
,,,,,,,,,32,109.394,0.0176067
,,,,,,,,,41,59.1857,0.0194959
,,,,,,,,,51,101.487,0.0199321
,,,,,,,,,62,149.998,0.0242932
,,,,,,,,,74,86.6553,0.0259609
,,,,,,,,,87,146.827,0.0180937
,,,,,,,,,101,78.6163,0.0210213
,,,,,,,,,116,158.817,0.0214944
,,,,,,,,,132,122.787,0.0192224
,,,,,,,,,149,113.536,0.0170974
,,,,,,,,,167,90.2023,0.0223082
,,,,,,,,,50,53.9977,0.0282465
,,,,,,,,,61,115.937,0.0291715
,,,,,,,,,73,42.5244,0.0395672
,,,,,,,,,86,157.011,0.0441906
,,,,,,,,,100,61.3317,0.0253952
,,,,,,,,,115,73.259,0.0315651
,,,,,,,,,131,90.1047,0.0326439
,,,,,,,,,148,78.3651,0.0276759
,,,,,,,,,166,129.12,0.0234751
,,,,,,,,,185,102.773,0.0345586
,,,,,,,,,72,141.274,0.0347507
,,,,,,,,,85,96.1301,0.0505821
,,,,,,,,,99,145.647,0.058392
,,,,,,,,,114,95.9782,0.0295213
,,,,,,,,,130,47.3895,0.0382016
,,,,,,,,,147,134.301,0.0397931
,,,,,,,,,165,90.225,0.0326489
,,,,,,,,,184,136.421,0.026958
,,,,,,,,,204,84.0552,0.0426754
,,,,,,,,,98,87.5473,0.0536271
,,,,,,,,,113,42.5871,0.062488
,,,,,,,,,129,111.186,0.0305331
,,,,,,,,,146,169.685,0.0399133
,,,,,,,,,164,76.0385,0.0416539
,,,,,,,,,183,126.525,0.0338911
,,,,,,,,,203,80.9185,0.0277993
,,,,,,,,,224,132.237,0.0448227
,,,,,,,,,128,117.505,0.142927
,,,,,,,,,145,41.3744,0.0421145
,,,,,,,,,163,97.4548,0.0623138
,,,,,,,,,182,51.1046,0.0666628
,,,,,,,,,202,69.3587,0.048781
,,,,,,,,,223,96.0368,0.0370843
,,,,,,,,,245,104.871,0.0751675
,,,,,,,,,162,113.515,0.047392
,,,,,,,,,181,127.503,0.0746069
,,,,,,,,,201,77.3751,0.080928
,,,,,,,,,222,107.276,0.0560049
,,,,,,,,,244,51.2818,0.0411161
,,,,,,,,,267,93.2306,0.0938138
,,,,,,,,,200,68.2126,0.0331655
,,,,,,,,,221,38.393,0.0343585
,,,,,,,,,243,28.1836,0.0288985
,,,,,,,,,266,67.7992,0.0243489
,,,,,,,,,290,63.7706,0.0364861
,,,,,,,,,242,100.068,0.0467117
,,,,,,,,,265,48.4685,0.0371653
,,,,,,,,,289,89.56,0.0299647
,,,,,,,,,314,37.6942,0.050734
,,,,,,,,,288,51.6356,0.0386699
,,,,,,,,,313,45.347,0.0309351
,,,,,,,,,339,77.0687,0.0535799
,,,,,,,,,338,55.9971,0.0264378
,,,,,,,,,365,35.5951,0.0413862
,,,,,,,,,392,52.3744,0.0326494
