facetNormals:0,facetNormals:1,facetNormals:2,FacetCenters:0,FacetCenters:1,FacetCenters:2,FacetIds,relFacetSize,absFacetSize,cellPairingIds,interplanarAngles,angleWeights
-0.336973,-0.0612126,-0.917827,7.13078,6.13138,4.48834,1,0.0155566,0.00371696,8,43.2786,0.0276012
-0.522315,-0.625627,-0.51613,7.08882,6.04602,4.59433,2,0.12226,0.0292116,13,47.6675,0.0260017
-0.890343,-0.0443145,-0.361643,7.04486,6.11971,4.61215,3,0.079134,0.0189076,19,57.6108,0.02425
-0.533338,0.719473,-0.417013,7.08347,6.22235,4.61239,4,0.0549668,0.0131333,26,111.57,0.0283194
0.94994,-0.0854745,0.0314061,7.17636,6.10149,4.64069,5,0.157686,0.0376761,34,109.478,0.0261223
0.803833,0.554851,0.0155417,7.15109,6.18104,4.63543,6,0.0814226,0.0194544,43,87.3631,0.0239796
-0.905492,-0.187609,0.297259,7.02942,6.11021,4.73399,7,0.0522935,0.0124945,53,147.045,0.026471
0.708495,0.284911,0.579353,7.08098,6.07525,4.63568,8,0.0887082,0.0211951,64,131.988,0.0228527
0.333068,-0.666013,0.609015,7.12577,6.04348,4.72822,9,0.043037,0.0102829,76,125.449,0.0172528
-0.537957,0.205143,0.78793,7.05483,6.09421,4.76215,10,0.0193642,0.0046267,89,125.43,0.0230489
-0.186659,-0.619904,0.699699,7.08506,6.07327,4.76317,11,0.0444624,0.0106235,18,42.9367,0.0960794
,,,,,,,,,25,87.3729,0.0758376
,,,,,,,,,33,119.9,0.137731
,,,,,,,,,42,145.327,0.0977473
,,,,,,,,,52,62.2078,0.0732543
,,,,,,,,,63,156.397,0.102816
,,,,,,,,,75,94.4264,0.0636636
,,,,,,,,,88,105.655,0.0334331
,,,,,,,,,102,82.2387,0.0652099
,,,,,,,,,32,51.3342,0.0648727
,,,,,,,,,41,158.361,0.105382
,,,,,,,,,51,142.535,0.080262
,,,,,,,,,62,40.8323,0.062973
,,,,,,,,,74,157.666,0.083648
,,,,,,,,,87,121.772,0.0557528
,,,,,,,,,101,78.6394,0.0311146
,,,,,,,,,116,93.7126,0.0569351
,,,,,,,,,50,128.062,0.0815178
,,,,,,,,,61,92.1376,0.0656288
,,,,,,,,,73,76.5012,0.0535968
,,,,,,,,,86,115.957,0.0678755
,,,,,,,,,100,163.406,0.0482758
,,,,,,,,,115,83.6917,0.0286391
,,,,,,,,,131,132.665,0.0491597
,,,,,,,,,72,39.7563,0.107392
,,,,,,,,,85,154.237,0.0785405
,,,,,,,,,99,43.1941,0.113542
,,,,,,,,,114,64.6912,0.0676189
,,,,,,,,,130,122.752,0.0344926
,,,,,,,,,147,96.4603,0.0693659
,,,,,,,,,98,150.685,0.0636852
,,,,,,,,,113,38.1247,0.0849094
,,,,,,,,,129,95.6393,0.0563104
,,,,,,,,,146,108.746,0.0312875
,,,,,,,,,164,121.253,0.0575167
,,,,,,,,,128,124.159,0.0657987
,,,,,,,,,145,89.7305,0.0472158
,,,,,,,,,163,43.9132,0.0282627
,,,,,,,,,182,57.8069,0.0480611
,,,,,,,,,162,64.3563,0.0579564
,,,,,,,,,181,81.7764,0.0317891
,,,,,,,,,201,83.9371,0.059235
,,,,,,,,,200,79.9354,0.0267103
,,,,,,,,,221,32.1003,0.0437381
,,,,,,,,,242,55.6748,0.0269787
