Q	U	V
{$V$}	{[mm$^3$]}	0.00784902
{$d_v$}	{[mm]}	0.246569
{$S_c$}	{[mm$^2$]}	0.381717
{$S_o$}	{[mm$^2$]}	0.225607
{$S_l/S_o$}	[]	0.691955
{$\Psi$}	[]	0.500364
{$\eta$}	[]	0.555029
{med($\theta_e$)}	{[$^\circ$]}	58.57485
{$\Upsilon$}	[]	16
{$\Xi$}	[]	9
