Q	U	V
{$V$}	{[mm$^3$]}	0.00289856
{$d_v$}	{[mm]}	0.176900
{$S_c$}	{[mm$^2$]}	0.208303
{$S_o$}	{[mm$^2$]}	0.103625
{$S_l/S_o$}	[]	1.010162
{$\Psi$}	[]	0.471965
{$\eta$}	[]	0.522436
{med($\theta_e$)}	{[$^\circ$]}	61.2963
{$\Upsilon$}	[]	10
{$\Xi$}	[]	3
