facetNormals:0,facetNormals:1,facetNormals:2,FacetCenters:0,FacetCenters:1,FacetCenters:2,FacetIds,relFacetSize,absFacetSize,cellPairingIds,interplanarAngles,angleWeights
0.611596,-0.543197,-0.486772,3.95251,5.22475,4.96047,1,0.0539286,0.00815502,8,115.94,0.0250963
-0.478335,0.687779,-0.523489,3.73883,5.29188,4.82345,2,0.0163532,0.00247291,13,61.7324,0.0158204
0.87281,0.387352,-0.249687,3.96149,5.27516,4.90491,3,0.00926993,0.00140179,19,42.8356,0.0438241
0.97482,-0.07458,-0.101451,3.95358,5.23764,4.92655,4,0.0369086,0.00558126,26,66.622,0.0584535
-0.0944738,-0.927501,0.179615,3.84459,5.19398,5.01891,5,0.0638073,0.00964886,34,86.8669,0.0594491
-0.554601,-0.774572,0.0654811,3.77913,5.20689,4.97539,6,0.0662286,0.010015,43,49.5891,0.0264667
0.303147,-0.919015,0.162502,3.84637,5.18955,5.01215,7,0.0175366,0.00265187,53,105.372,0.0695217
0.372569,0.889673,-0.0245449,3.87064,5.29962,4.91353,8,0.0978,0.0147892,64,137.259,0.079188
-0.165076,0.946734,0.12859,3.8245,5.29406,4.92856,9,0.148957,0.0225251,76,69.3,0.0465848
0.838357,-0.0743966,0.470029,3.95909,5.21687,5.00951,10,0.0410014,0.00620017,89,119.729,0.0549926
0.326833,0.802665,0.471833,3.8709,5.26511,5.02994,11,0.0560994,0.00848328,103,170.869,0.071803
-0.514803,0.555796,0.605976,3.79438,5.26341,5.00849,12,0.1074,0.0162409,118,124.698,0.0274837
-0.295205,-0.177107,0.915811,3.83325,5.21209,5.07006,13,0.0184409,0.00278861,18,91.1974,0.0118325
,,,,,,,,,25,118.578,0.0226644
,,,,,,,,,33,137.071,0.0260341
,,,,,,,,,42,108.654,0.0262297
,,,,,,,,,52,152.798,0.0169242
,,,,,,,,,63,62.0639,0.028021
,,,,,,,,,75,46.2132,0.0294709
,,,,,,,,,88,137.156,0.023381
,,,,,,,,,102,81.2244,0.0253243
,,,,,,,,,117,71.0454,0.0283845
,,,,,,,,,133,118.422,0.0173344
,,,,,,,,,32,29.1501,0.0148181
,,,,,,,,,41,121.281,0.0161881
,,,,,,,,,51,148.134,0.0162635
,,,,,,,,,62,97.8313,0.0121286
,,,,,,,,,74,44.7833,0.0169347
,,,,,,,,,87,78.5159,0.0174537
,,,,,,,,,101,52.0184,0.0151211
,,,,,,,,,116,60.5831,0.0159107
,,,,,,,,,132,113.731,0.0170668
,,,,,,,,,149,125.076,0.0123378
,,,,,,,,,50,92.5269,0.0467659
,,,,,,,,,61,121.436,0.047401
,,,,,,,,,73,68.8779,0.0237763
,,,,,,,,,86,71.6016,0.0535921
,,,,,,,,,100,104.87,0.0591588
,,,,,,,,,115,35.1123,0.0388474
,,,,,,,,,131,77.4429,0.0445241
,,,,,,,,,148,129.363,0.0549376
,,,,,,,,,166,112.465,0.0245938
,,,,,,,,,72,30.3253,0.0649954
,,,,,,,,,85,23.7234,0.0275119
,,,,,,,,,99,160.737,0.0772286
,,,,,,,,,114,155.76,0.0893434
,,,,,,,,,130,85.3484,0.0499231
,,,,,,,,,147,137.487,0.0597056
,,,,,,,,,165,112.874,0.080054
,,,,,,,,,184,67.4219,0.0286125
,,,,,,,,,98,53.7278,0.0277305
,,,,,,,,,113,166.899,0.0789759
,,,,,,,,,129,133.162,0.0916903
,,,,,,,,,146,114.146,0.0506474
,,,,,,,,,164,145.024,0.0607446
,,,,,,,,,183,96.5278,0.081933
,,,,,,,,,203,67.2775,0.028849
,,,,,,,,,128,138.461,0.0297405
,,,,,,,,,145,160.93,0.031379
,,,,,,,,,163,65.0587,0.0245661
,,,,,,,,,182,125.472,0.0267205
,,,,,,,,,202,126.66,0.0301502
,,,,,,,,,223,76.6243,0.0179774
,,,,,,,,,162,33.7735,0.118076
,,,,,,,,,181,75.3894,0.0577794
,,,,,,,,,201,30.0279,0.0713001
,,,,,,,,,222,72.0928,0.102376
,,,,,,,,,244,107.893,0.0310307
,,,,,,,,,200,99.1347,0.0643029
,,,,,,,,,221,36.7474,0.0815034
,,,,,,,,,243,42.8951,0.12481
,,,,,,,,,266,90.0711,0.0328188
,,,,,,,,,242,62.7155,0.0473766
,,,,,,,,,265,101.604,0.0593465
,,,,,,,,,289,77.9967,0.0254399
,,,,,,,,,288,53.9184,0.0737016
,,,,,,,,,313,78.4398,0.0277574
,,,,,,,,,338,50.1262,0.0314771
