Q	U	V
{$V$}	{[mm$^3$]}	0.0033106
{$d_v$}	{[mm]}	0.184914
{$S_c$}	{[mm$^2$]}	0.172821
{$S_o$}	{[mm$^2$]}	0.105087
{$S_l/S_o$}	[]	0.644552
{$\Psi$}	[]	0.621573
{$\eta$}	[]	0.632649
{med($\theta_e$)}	{[$^\circ$]}	56.2474
{$\Upsilon$}	[]	17
{$\Xi$}	[]	8
