"cellPairingIds","interplanarAngles","angleWeights"
8,71.7655,0.117242
13,78.8522,0.0559013
19,68.8272,0.0610865
34,104.516,0.103739
43,95.8152,0.0377345
64,113.225,0.0390174
18,64.8558,0.0479301
42,42.3856,0.0792733
63,67.1874,0.103675
102,113.701,0.0335456
32,48.8755,0.0348376
62,109.388,0.0257498
74,46.444,0.0526182
116,106.773,0.0255301
73,63.5063,0.0267975
129,104.472,0.0336533
164,78.7134,0.0323412
145,45.7432,0.0214702
182,78.9965,0.0209285
201,65.2463,0.0357766
221,60.1073,0.0213173
