"cellPairingIds","interplanarAngles","angleWeights"
8,39.7497,0.0469094
13,56.9629,0.0230358
43,67.2469,0.0665793
18,94.0517,0.0216638
25,41.4514,0.0650916
33,37.6742,0.0603391
42,53.4764,0.0487622
52,101.608,0.0562782
88,121.817,0.0307374
32,91.3136,0.026698
62,50.1773,0.0250866
74,38.7533,0.0155319
87,57.7581,0.0133603
116,72.5238,0.0198683
61,31.3083,0.0847187
86,104.317,0.0297736
148,71.7631,0.0676796
72,62.3973,0.0768414
130,95.7881,0.0399365
184,84.9027,0.0527288
183,59.3787,0.0502002
203,96.3796,0.0436688
163,41.3408,0.0381161
182,49.8873,0.0455781
162,26.6277,0.0140886
222,76.4705,0.023979
221,29.1948,0.0175664
243,79.6013,0.0191689
242,34.6531,0.0272441
289,58.5692,0.0286323
288,98.2584,0.0361652
313,67.1485,0.0326474
338,80.4839,0.0386527
