"cellPairingIds","interplanarAngles","angleWeights"
18,42.8683,0.0342119
42,33.352,0.122914
133,136.056,0.0556462
150,93.8805,0.01923
149,110.274,0.0251943
167,63.797,0.0135643
72,57.559,0.0294953
130,33.8632,0.0241152
184,104.293,0.0228631
146,91.1696,0.0612496
203,159.367,0.0537702
224,97.4688,0.0190009
289,72.1388,0.038224
314,164.912,0.0166132
392,101.552,0.0160092
