facetNormals:0,facetNormals:1,facetNormals:2,FacetCenters:0,FacetCenters:1,FacetCenters:2,FacetIds,relFacetSize,absFacetSize,cellPairingIds,interplanarAngles,angleWeights
-0.866389,-0.000348717,-0.475297,6.01264,6.12216,6.48316,1,0.00815821,0.00133638,8,121.217,0.0148753
0.568652,0.723001,-0.0447319,5.95617,6.13433,6.46784,2,0.084211,0.0137944,13,66.0751,0.0158804
-0.388432,-0.835638,-0.0705945,6.00692,6.12232,6.44475,3,0.297111,0.0486691,19,102.238,0.0117966
0.254704,-0.950434,-0.0297288,6.07374,6.09565,6.46806,4,0.0212929,0.00348794,26,60.1029,0.0127815
-0.805832,-0.331253,0.451974,5.97098,6.1722,6.5426,5,0.0294984,0.00483207,34,175.074,0.0156329
0.798663,-0.0508458,0.510508,6.11262,6.1679,6.52077,6,0.186589,0.0305648,43,120.779,0.0142337
0.247928,-0.739418,0.587316,6.07424,6.12797,6.52655,7,0.0557556,0.0091332,53,110.206,0.0143195
-0.0622486,0.519945,0.799317,6.0435,6.22076,6.56749,8,0.0585017,0.00958304,64,101.444,0.0146144
-0.263919,-0.241888,0.868924,6.02225,6.15871,6.55687,9,0.0700496,0.0114747,18,164.941,0.131228
,,,,,,,,,25,126.637,0.0339911
,,,,,,,,,33,142.588,0.0436919
,,,,,,,,,42,63.1695,0.116048
,,,,,,,,,52,117.841,0.0670908
,,,,,,,,,63,69.7374,0.0690406
,,,,,,,,,75,114.859,0.0764803
,,,,,,,,,32,39.9577,0.0397379
,,,,,,,,,41,52.0456,0.0536684
,,,,,,,,,51,110.259,0.229223
,,,,,,,,,62,57.8517,0.0938916
,,,,,,,,,74,121.903,0.0977552
,,,,,,,,,87,73.7322,0.11337
,,,,,,,,,50,84.289,0.0247328
,,,,,,,,,61,75.3351,0.0382238
,,,,,,,,,73,38.8525,0.0308169
,,,,,,,,,86,124.572,0.0312219
,,,,,,,,,100,81.4937,0.0326586
,,,,,,,,,72,115.153,0.0509431
,,,,,,,,,85,71.087,0.0385835
,,,,,,,,,99,75.2245,0.0392205
,,,,,,,,,114,41.9957,0.0415146
,,,,,,,,,98,54.7067,0.0858561
,,,,,,,,,113,68.5366,0.0890754
,,,,,,,,,129,74.0523,0.101859
,,,,,,,,,128,85.7239,0.0570956
,,,,,,,,,145,47.1687,0.0620905
,,,,,,,,,162,49.3338,0.063757
