facetNormals:0,facetNormals:1,facetNormals:2,FacetCenters:0,FacetCenters:1,FacetCenters:2,FacetIds,relFacetSize,absFacetSize,cellPairingIds,interplanarAngles,angleWeights
0.303177,-0.226093,-0.915856,4.52435,7.25187,6.87158,1,0.0140234,0.00288227,8,35.3113,0.0223407
0.0578202,0.313437,-0.90697,4.54038,7.2248,6.89021,2,0.0549051,0.0112848,13,57.4662,0.0205023
-0.478621,0.292519,-0.798377,4.44306,7.27389,6.89238,3,0.0381092,0.00783271,19,49.3382,0.0266379
-0.327772,-0.610165,-0.607231,4.44604,7.17641,6.94073,4,0.26514,0.054495,26,90.9251,0.0175133
-0.256019,0.891117,-0.287778,4.51895,7.29704,6.95335,5,0.0233159,0.00479219,34,68.3178,0.0232574
0.857596,0.404186,-0.203481,4.60934,7.25676,6.94627,6,0.0680986,0.0139965,43,79.6887,0.0221781
0.60089,0.755969,-0.177869,4.57224,7.30252,6.94463,7,0.0529955,0.0108923,53,107.379,0.0238792
-0.748315,-0.545952,0.19281,4.56218,7.24551,6.96084,8,0.0803511,0.0165148,64,78.5784,0.0158166
0.223783,-0.943666,0.0981907,4.54605,7.18247,6.96473,9,0.0181357,0.00372749,76,69.4418,0.0198259
0.884121,-0.403737,0.022976,4.60585,7.23005,7.00102,10,0.0338195,0.00695101,89,106.464,0.0114889
0.124147,0.970967,0.10321,4.53456,7.31556,6.94785,11,0.00973029,0.0019999,103,91.5255,0.0175514
0.90869,-0.139179,0.363637,4.61992,7.20498,6.96078,12,0.0234514,0.00482005,118,146.83,0.0141718
-0.0264393,0.648263,0.686882,4.48815,7.27779,6.97338,13,0.0143234,0.00294393,134,110.931,0.0209834
0.526293,-0.483108,0.672766,4.58793,7.1699,6.95331,14,0.0416602,0.00856255,18,32.839,0.0449907
,,,,,,,,,25,67.3831,0.0909717
,,,,,,,,,33,55.7305,0.0327319
,,,,,,,,,42,67.2272,0.0607943
,,,,,,,,,52,62.6959,0.0539334
,,,,,,,,,63,115.338,0.0652345
,,,,,,,,,75,113.382,0.0272654
,,,,,,,,,88,95.9118,0.0418567
,,,,,,,,,102,76.6862,0.016531
,,,,,,,,,117,109.734,0.0328652
,,,,,,,,,133,117.635,0.0227198
,,,,,,,,,150,140.81,0.0473743
,,,,,,,,,32,58.9782,0.0666401
,,,,,,,,,41,49.6766,0.0289312
,,,,,,,,,51,97.8839,0.04887
,,,,,,,,,62,85.4777,0.0443362
,,,,,,,,,74,87.2357,0.0516987
,,,,,,,,,87,119.029,0.024576
,,,,,,,,,101,126.151,0.0358364
,,,,,,,,,116,81.485,0.0155024
,,,,,,,,,132,142.566,0.0290353
,,,,,,,,,149,112.05,0.0208212
,,,,,,,,,167,166.318,0.0398057
,,,,,,,,,50,108.589,0.0428625
,,,,,,,,,61,116.904,0.108365
,,,,,,,,,73,127.468,0.0883349
,,,,,,,,,86,58.0404,0.123328
,,,,,,,,,100,60.451,0.0339493
,,,,,,,,,115,93.6747,0.0599873
,,,,,,,,,131,140.125,0.0187717
,,,,,,,,,148,118.444,0.0430915
,,,,,,,,,166,157.483,0.0271786
,,,,,,,,,185,108.462,0.0720064
,,,,,,,,,72,77.7848,0.034738
,,,,,,,,,85,53.2016,0.0323841
,,,,,,,,,99,112.426,0.0361438
,,,,,,,,,114,168.24,0.0204021
,,,,,,,,,130,128.904,0.0276022
,,,,,,,,,147,32.7389,0.0137305
,,,,,,,,,165,118.729,0.0233835
,,,,,,,,,184,65.0603,0.0177454
,,,,,,,,,204,142.803,0.0298985
,,,,,,,,,98,25.823,0.0596052
,,,,,,,,,113,169.351,0.0737192
,,,,,,,,,129,102.804,0.0286433
,,,,,,,,,146,51.2275,0.0451943
,,,,,,,,,164,59.9514,0.0170276
,,,,,,,,,183,47.3848,0.0348883
,,,,,,,,,203,83.7604,0.0236685
,,,,,,,,,224,82.8045,0.0516952
,,,,,,,,,128,164.826,0.0638674
,,,,,,,,,145,128.54,0.0270237
,,,,,,,,,163,76.5555,0.0412896
,,,,,,,,,182,35.1507,0.0164418
,,,,,,,,,202,67.203,0.0325146
,,,,,,,,,223,67.7033,0.0225516
,,,,,,,,,245,100.079,0.0466491
,,,,,,,,,162,66.5746,0.0295923
,,,,,,,,,181,118.346,0.047603
,,,,,,,,,201,130.36,0.0173585
,,,,,,,,,222,124.805,0.0363064
,,,,,,,,,244,103.039,0.0243128
,,,,,,,,,267,90.0224,0.0548711
,,,,,,,,,200,52.1815,0.0236104
,,,,,,,,,221,156.268,0.0126653
,,,,,,,,,243,67.3963,0.0204539
,,,,,,,,,266,126.683,0.0160057
,,,,,,,,,290,48.0286,0.0252706
,,,,,,,,,242,107.006,0.0151125
,,,,,,,,,265,25.439,0.027697
,,,,,,,,,289,107.049,0.0201238
,,,,,,,,,314,44.8985,0.0373326
,,,,,,,,,288,89.1047,0.0137539
,,,,,,,,,313,41.4525,0.0115883
,,,,,,,,,339,110.249,0.0157759
,,,,,,,,,338,81.6575,0.0177846
,,,,,,,,,365,35.4673,0.0300097
,,,,,,,,,392,81.6271,0.0213175
