Q	U	V
{$V$}	{[mm$^3$]}	0.00170042
{$d_v$}	{[mm]}	0.148088
{$S_c$}	{[mm$^2$]}	0.137098
{$S_o$}	{[mm$^2$]}	0.0749155
{$S_l/S_o$}	[]	0.830035
{$\Psi$}	[]	0.502524
{$\eta$}	[]	0.554401
{med($\theta_e$)}	{[$^\circ$]}	83.632
{$\Upsilon$}	[]	13
{$\Xi$}	[]	4
