facetNormals:0,facetNormals:1,facetNormals:2,FacetCenters:0,FacetCenters:1,FacetCenters:2,FacetIds,relFacetSize,absFacetSize,cellPairingIds,interplanarAngles,angleWeights
-0.0877887,0.626102,-0.714386,6.41921,6.21673,6.69578,1,0.0244465,0.00231757,8,86.2077,0.0176972
-0.0788729,-0.701831,-0.692784,6.39417,6.1384,6.62283,2,0.0138684,0.00131474,13,55.6881,0.041104
-0.71671,-0.0054714,-0.640047,6.30589,6.22592,6.66405,3,0.129007,0.0122301,19,89.8348,0.0229703
-0.509596,-0.668907,-0.527444,6.3502,6.1517,6.65015,4,0.0216622,0.00205362,26,116.279,0.0270382
0.17235,-0.918665,-0.25371,6.38271,6.13548,6.6451,5,0.0302446,0.00286724,34,64.3259,0.0343207
-0.672083,0.632411,0.0998221,6.40241,6.22564,6.74863,6,0.0575763,0.00545833,43,112.261,0.0331883
-0.543699,-0.807551,-0.143166,6.36892,6.13378,6.67035,7,0.0516617,0.00489762,53,139.299,0.0332935
-0.392998,-0.855511,0.298333,6.3622,6.14261,6.7044,8,0.0521753,0.00494631,64,111.95,0.0369862
-0.874954,-0.273749,0.359076,6.28531,6.22323,6.71599,9,0.0759382,0.00719907,76,147.468,0.0348341
0.591143,-0.596695,0.51169,6.40322,6.15467,6.71306,10,0.0605714,0.00574227,89,177.76,0.0347038
0.0848614,-0.667272,0.704068,6.40122,6.18671,6.73514,11,0.0597905,0.00566824,103,134.819,0.0348831
-0.62379,-0.406076,0.652381,6.36931,6.18445,6.73304,12,0.0608689,0.00577047,118,112.207,0.0304163
-0.637656,0.163366,0.710289,6.31901,6.27953,6.75134,13,0.0402435,0.00381515,134,146.553,0.0276452
0.513538,-0.273205,0.795585,6.3974,6.21421,6.76323,14,0.0318069,0.00301535,151,137.24,0.0327535
-0.278166,-0.0660429,0.933511,6.36505,6.2407,6.76993,15,0.0496113,0.00470324,169,131.928,0.0245573
0.252396,0.111775,0.947784,6.37185,6.23597,6.77112,16,0.0246691,0.00233868,18,57.9988,0.0250444
,,,,,,,,,25,26.9912,0.0169105
,,,,,,,,,33,32.6317,0.0190168
,,,,,,,,,42,120.06,0.0223526
,,,,,,,,,52,43.269,0.0218667
,,,,,,,,,63,64.2324,0.0219123
,,,,,,,,,75,89.2722,0.0234535
,,,,,,,,,88,88.9598,0.0225693
,,,,,,,,,102,91.5554,0.0225145
,,,,,,,,,117,96.9075,0.0225898
,,,,,,,,,133,125.507,0.0206281
,,,,,,,,,150,114.216,0.019315
,,,,,,,,,168,126.789,0.0216771
,,,,,,,,,187,140.628,0.0177552
,,,,,,,,,32,42.2114,0.0370955
,,,,,,,,,41,87.2971,0.0490013
,,,,,,,,,51,62.3202,0.0796185
,,,,,,,,,62,59.0892,0.0737784
,,,,,,,,,74,84.2305,0.0743006
,,,,,,,,,87,65.0724,0.0956017
,,,,,,,,,101,142.314,0.0824369
,,,,,,,,,116,122.869,0.0817107
,,,,,,,,,132,88.0873,0.082712
,,,,,,,,,149,89.9075,0.0613492
,,,,,,,,,167,157.631,0.0510318
,,,,,,,,,186,115.087,0.0716635
,,,,,,,,,206,146.186,0.0414182
,,,,,,,,,50,46.605,0.0252439
,,,,,,,,,61,98.3111,0.0314804
,,,,,,,,,73,23.9344,0.030525
,,,,,,,,,86,51.1325,0.0306141
,,,,,,,,,100,63.2701,0.0337087
,,,,,,,,,115,100.147,0.0319118
,,,,,,,,,131,88.1181,0.0318024
,,,,,,,,,148,75.5347,0.0319529
,,,,,,,,,166,99.5189,0.0281642
,,,,,,,,,185,120.64,0.0257722
,,,,,,,,,205,108.434,0.0301568
,,,,,,,,,226,135.867,0.0230681
,,,,,,,,,72,143.443,0.0396574
,,,,,,,,,85,44.0912,0.0381531
,,,,,,,,,99,47.7998,0.0382923
,,,,,,,,,114,89.4242,0.0432598
,,,,,,,,,130,56.8977,0.0403444
,,,,,,,,,147,61.5692,0.0401697
,,,,,,,,,165,84.0107,0.0404102
,,,,,,,,,184,117.991,0.0345349
,,,,,,,,,204,81.7089,0.0310061
,,,,,,,,,225,103.71,0.0375796
,,,,,,,,,247,108.265,0.0271738
,,,,,,,,,98,100.062,0.0544589
,,,,,,,,,113,105.639,0.0547429
,,,,,,,,,129,60.4477,0.0654946
,,,,,,,,,146,142.428,0.0590359
,,,,,,,,,164,116.886,0.0586625
,,,,,,,,,183,75.6593,0.0591768
,,,,,,,,,203,47.8888,0.0473743
,,,,,,,,,224,118.642,0.0409769
,,,,,,,,,246,74.7499,0.0532979
,,,,,,,,,269,90.271,0.0345395
,,,,,,,,,128,27.5202,0.0519173
,,,,,,,,,145,48.2307,0.0614906
,,,,,,,,,163,84.8304,0.0557629
,,,,,,,,,182,65.8557,0.0554297
,,,,,,,,,202,53.9104,0.0558887
,,,,,,,,,223,83.1849,0.0452433
,,,,,,,,,245,100.245,0.0393729
,,,,,,,,,268,85.7662,0.0506158
,,,,,,,,,292,111.956,0.0333928
,,,,,,,,,162,45.1998,0.0618529
,,,,,,,,,181,63.6705,0.0560607
,,,,,,,,,201,38.9807,0.055724
,,,,,,,,,222,36.3594,0.0561878
,,,,,,,,,244,70.2782,0.0454392
,,,,,,,,,267,73.9404,0.0395211
,,,,,,,,,291,62.5604,0.050861
,,,,,,,,,316,84.8248,0.0334994
,,,,,,,,,200,100.119,0.0673899
,,,,,,,,,221,67.8658,0.0669038
,,,,,,,,,243,23.8619,0.0675736
,,,,,,,,,266,36.3194,0.0526076
,,,,,,,,,290,95.2539,0.0448347
,,,,,,,,,315,51.6323,0.0600145
,,,,,,,,,341,84.7525,0.0372404
,,,,,,,,,242,32.4024,0.0601784
,,,,,,,,,265,77.7002,0.0607198
,,,,,,,,,289,96.6912,0.048358
,,,,,,,,,314,25.6649,0.0417109
,,,,,,,,,340,68.4541,0.0545462
,,,,,,,,,367,54.2333,0.0350595
,,,,,,,,,288,45.3465,0.0603249
,,,,,,,,,313,69.0625,0.0481073
,,,,,,,,,339,35.0093,0.0415241
,,,,,,,,,366,44.5298,0.0542274
,,,,,,,,,394,50.2898,0.0349275
,,,,,,,,,338,33.98,0.0484526
,,,,,,,,,365,71.4932,0.0417812
,,,,,,,,,393,33.1166,0.0546666
,,,,,,,,,422,64.8338,0.0351091
,,,,,,,,,392,78.3331,0.0355313
,,,,,,,,,421,28.6571,0.0444391
,,,,,,,,,451,56.2926,0.030588
,,,,,,,,,450,50.0476,0.0387624
,,,,,,,,,481,28.7316,0.027787
,,,,,,,,,512,33.1215,0.0329526
