Q	U	V
{$V$}	{[mm$^3$]}	0.00152943
{$d_v$}	{[mm]}	0.142948
{$S_c$}	{[mm$^2$]}	0.11746
{$S_o$}	{[mm$^2$]}	0.059914
{$S_l/S_o$}	[]	0.960477
{$\Psi$}	[]	0.54653
{$\eta$}	[]	0.572254
{med($\theta_e$)}	{[$^\circ$]}	68.0175
{$\Upsilon$}	[]	13
{$\Xi$}	[]	1
