Q	U	V
{$V$}	{[mm$^3$]}	0.00398388
{$d_v$}	{[mm]}	0.196684
{$S_c$}	{[mm$^2$]}	0.256514
{$S_o$}	{[mm$^2$]}	0.136656
{$S_l/S_o$}	[]	0.877078
{$\Psi$}	[]	0.473781
{$\eta$}	[]	0.525289
{med($\theta_e$)}	{[$^\circ$]}	
{$\Upsilon$}	[]	11
{$\Xi$}	[]	9
