"cellPairingIds","interplanarAngles","angleWeights"
8,27.0024,0.0826691
13,50.3651,0.0827834
34,125.567,0.0776584
43,113.313,0.105411
53,143.761,0.0459201
64,160.744,0.0942187
18,49.4733,0.0672153
33,45.5261,0.0457971
52,97.5032,0.0814033
41,65.7427,0.0458321
87,134.515,0.0746561
132,104.374,0.0678498
85,72.769,0.0520137
165,97.3666,0.0460907
98,30.019,0.0765403
113,25.1661,0.0394395
128,51.8557,0.0455269
202,84.2127,0.0823357
162,29.5148,0.0433051
222,61.392,0.0409238
243,37.725,0.0753448
