facetNormals:0,facetNormals:1,facetNormals:2,FacetCenters:0,FacetCenters:1,FacetCenters:2,FacetIds,relFacetSize,absFacetSize,cellPairingIds,interplanarAngles,angleWeights
0.111935,0.337977,-0.887534,3.4036,4.44328,8.13712,1,0.151133,0.0210189,8,39.2732,0.126308
-0.512281,0.24229,-0.769349,3.30911,4.47775,8.15904,2,0.108488,0.0150881,13,72.1526,0.177438
0.919607,0.0457012,-0.176184,3.46749,4.40295,8.18923,3,0.214829,0.0298774,19,105.379,0.00553776
-0.981265,-0.00621444,0.157883,3.49024,4.34836,8.17757,4,0.00282056,0.00039227,26,80.4375,0.116241
-0.162,0.939338,0.164146,3.32027,4.51009,8.25452,5,0.0944376,0.013134,34,111.047,0.0920621
-0.0563084,0.722104,0.64254,3.33819,4.52066,8.24529,6,0.0661911,0.00920556,43,120.906,0.113917
0.537917,0.337666,0.733301,3.43286,4.48338,8.26962,7,0.0914076,0.0127126,18,111.238,0.144171
,,,,,,,,,25,66.4331,0.00549817
,,,,,,,,,33,78.4977,0.100977
,,,,,,,,,42,108.302,0.0822188
,,,,,,,,,52,144.849,0.0992182
,,,,,,,,,32,177.027,0.00556801
,,,,,,,,,41,98.5603,0.1312
,,,,,,,,,51,98.3612,0.101201
,,,,,,,,,62,65.2382,0.128247
,,,,,,,,,50,79.2664,0.00547752
,,,,,,,,,61,80.8992,0.00541056
,,,,,,,,,73,115.439,0.00547226
,,,,,,,,,72,32.1506,0.0778308
,,,,,,,,,85,68.0719,0.0928979
,,,,,,,,,98,43.1992,0.076782
