Q	U	V
{$V$}	{[mm$^3$]}	0.00322748
{$d_v$}	{[mm]}	0.183353
{$S_c$}	{[mm$^2$]}	0.236753
{$S_o$}	{[mm$^2$]}	0.119305
{$S_l/S_o$}	[]	0.984435
{$\Psi$}	[]	0.446099
{$\eta$}	[]	0.522135
{med($\theta_e$)}	{[$^\circ$]}	
{$\Upsilon$}	[]	13
{$\Xi$}	[]	3
