facetNormals:0,facetNormals:1,facetNormals:2,FacetCenters:0,FacetCenters:1,FacetCenters:2,FacetIds,relFacetSize,absFacetSize,cellPairingIds,interplanarAngles,angleWeights
0.531508,0.343755,-0.75206,6.26878,5.37978,7.17039,1,0.0343679,0.00403721,8,65.9712,0.0222362
0.242751,-0.687476,-0.669493,6.25916,5.3202,7.21077,2,0.0164348,0.00193061,13,36.341,0.00779249
0.768545,-0.205204,-0.599089,6.28509,5.37556,7.17124,3,0.00439444,0.000516216,19,31.7582,0.040008
0.129043,0.687582,-0.674611,6.17767,5.39873,7.12746,4,0.0478627,0.00562244,26,91.8477,0.0193106
-0.832595,0.15158,-0.478176,6.10999,5.39687,7.15325,5,0.0134276,0.00157735,34,89.4961,0.0348836
0.198433,-0.923822,-0.293398,6.25335,5.31828,7.20612,6,0.0354149,0.0041602,43,107.17,0.0583979
-0.391424,-0.844135,-0.286787,6.16392,5.33143,7.18929,7,0.19414,0.0228057,53,39.1561,0.0207518
0.569343,0.758957,-0.243488,6.24379,5.37594,7.14493,8,0.0148632,0.00174598,64,90.4397,0.0095544
-0.544724,0.787481,-0.0154248,6.20082,5.41582,7.17328,9,0.00554844,0.000651777,76,76.8913,0.044164
0.704111,-0.677683,-0.103454,6.28009,5.34209,7.19454,10,0.0617709,0.00725625,89,147.331,0.0352408
-0.560642,-0.730974,0.356526,6.22625,5.3683,7.19838,11,0.0361592,0.00424763,103,84.4471,0.0478419
0.870823,-0.2694,0.367975,6.30597,5.37397,7.26587,12,0.0786937,0.00924417,118,139.364,0.0454203
-0.0750793,-0.80814,0.550032,6.25236,5.36879,7.2135,13,0.0669512,0.00786478,134,133.606,0.0353978
0.205737,-0.587234,0.768105,6.22005,5.34287,7.29372,14,0.0364913,0.00428664,151,111.051,0.0418534
0.541395,-0.069564,0.809044,6.28551,5.40775,7.29948,15,0.0535076,0.00628555,18,42.329,0.00693465
,,,,,,,,,25,89.388,0.024468
,,,,,,,,,33,89.1773,0.0147798
,,,,,,,,,42,26.0694,0.022451
,,,,,,,,,52,45.3504,0.0303043
,,,,,,,,,63,103.148,0.0156095
,,,,,,,,,75,134.405,0.0082961
,,,,,,,,,88,43.4584,0.0259622
,,,,,,,,,102,82.4931,0.0225984
,,,,,,,,,117,81.1175,0.027191
,,,,,,,,,133,79.9647,0.0263913
,,,,,,,,,150,93.5502,0.0226628
,,,,,,,,,168,112.033,0.0251461
,,,,,,,,,32,68.0202,0.0080498
,,,,,,,,,41,113.406,0.00662178
,,,,,,,,,51,58.2921,0.0078187
,,,,,,,,,62,87.387,0.00859434
,,,,,,,,,74,63.9938,0.00678332
,,,,,,,,,87,126.78,0.00490447
,,,,,,,,,101,40.6767,0.00820516
,,,,,,,,,116,120.177,0.0078365
,,,,,,,,,132,59.0054,0.00832404
,,,,,,,,,149,103.106,0.00824754
,,,,,,,,,167,100.627,0.00784424
,,,,,,,,,186,93.2045,0.00812185
,,,,,,,,,50,70.2408,0.0209717
,,,,,,,,,61,115.349,0.0407085
,,,,,,,,,73,117.535,0.076793
,,,,,,,,,86,37.0693,0.0226826
,,,,,,,,,100,58.8402,0.00994412
,,,,,,,,,115,108.643,0.0539346
,,,,,,,,,131,148.15,0.0411958
,,,,,,,,,148,109.64,0.0595227
,,,,,,,,,166,169.339,0.0558202
,,,,,,,,,185,158.752,0.0414105
,,,,,,,,,205,123.518,0.050528
,,,,,,,,,72,99.876,0.0194723
,,,,,,,,,85,69.2652,0.025118
,,,,,,,,,99,104.759,0.014109
,,,,,,,,,114,51.4369,0.00785225
,,,,,,,,,130,132.026,0.0220599
,,,,,,,,,147,78.8604,0.0195831
,,,,,,,,,165,170.292,0.0229408
,,,,,,,,,184,109.811,0.022369
,,,,,,,,,204,130.78,0.0196315
,,,,,,,,,225,153.389,0.0214679
,,,,,,,,,98,35.2914,0.0599025
,,,,,,,,,113,122.221,0.0209387
,,,,,,,,,129,151.296,0.00959382
,,,,,,,,,146,35.0336,0.0450192
,,,,,,,,,164,61.9596,0.0357832
,,,,,,,,,183,71.1825,0.048847
,,,,,,,,,203,53.991,0.0463253
,,,,,,,,,224,68.5306,0.035945
,,,,,,,,,246,93.9,0.0426207
,,,,,,,,,128,146.325,0.0276124
,,,,,,,,,145,118.653,0.0107885
,,,,,,,,,163,70.0725,0.0937217
,,,,,,,,,182,40.2339,0.0609637
,,,,,,,,,202,103.226,0.111992
,,,,,,,,,223,54.5387,0.099566
,,,,,,,,,245,78.3174,0.061435
,,,,,,,,,268,113.915,0.0838931
,,,,,,,,,162,71.909,0.00808044
,,,,,,,,,181,95.2609,0.0239609
,,,,,,,,,201,173.211,0.0210668
,,,,,,,,,222,77.9061,0.0250038
,,,,,,,,,244,145.349,0.024326
,,,,,,,,,267,122.173,0.0211228
,,,,,,,,,291,86.4946,0.0232641
,,,,,,,,,200,166.636,0.0101823
,,,,,,,,,221,106.947,0.00962064
,,,,,,,,,243,137.331,0.010366
,,,,,,,,,266,130.036,0.0102476
,,,,,,,,,290,128.272,0.0096323
,,,,,,,,,315,112.799,0.0100543
,,,,,,,,,242,86.2357,0.0456159
,,,,,,,,,265,38.3436,0.0692129
,,,,,,,,,289,62.9681,0.0642568
,,,,,,,,,314,61.5113,0.0458793
,,,,,,,,,340,68.94,0.0573431
,,,,,,,,,288,99.4904,0.0495503
,,,,,,,,,313,31.1407,0.0469575
,,,,,,,,,339,52.9918,0.0363245
,,,,,,,,,366,87.8739,0.0431551
,,,,,,,,,338,68.404,0.0723491
,,,,,,,,,365,50.3536,0.0498612
,,,,,,,,,393,34.7883,0.0637015
,,,,,,,,,392,24.5442,0.0472366
,,,,,,,,,421,61.2277,0.0594792
,,,,,,,,,450,36.6847,0.0433908
