facetNormals:0,facetNormals:1,facetNormals:2,FacetCenters:0,FacetCenters:1,FacetCenters:2,FacetIds,relFacetSize,absFacetSize,cellPairingIds,interplanarAngles,angleWeights
0.329102,0.12156,-0.901015,3.62434,6.46939,7.58828,1,0.0710485,0.0125655,8,28.9905,0.0582904
-0.0346048,0.448055,-0.878138,3.65056,6.519,7.61118,2,0.0494166,0.00873969,13,47.1453,0.0729238
-0.0178439,0.757932,-0.618313,3.6534,6.55982,7.64932,3,0.0749007,0.0132467,19,56.0856,0.075019
0.452529,-0.691793,-0.50946,3.61263,6.41234,7.61431,4,0.0794594,0.014053,26,45.2387,0.0775841
0.866915,0.113871,-0.392094,3.75025,6.53155,7.68098,5,0.0854438,0.0151114,34,92.1883,0.0545387
-0.793218,0.517,-0.180481,3.483,6.45985,7.63015,6,0.044255,0.00782682,43,88.6764,0.0577482
0.461241,-0.859138,0.0283796,3.67815,6.42358,7.69407,7,0.0486423,0.00860275,53,110.001,0.0699936
-0.464701,-0.832978,0.0689051,3.50997,6.38354,7.68281,8,0.0689696,0.0121978,64,80.545,0.0468874
0.826405,-0.529488,0.0571007,3.73725,6.45846,7.69839,9,0.0349889,0.00618804,76,102.767,0.059853
0.0678147,-0.970128,0.126447,3.56802,6.37529,7.67542,10,0.0517054,0.00914448,89,121.344,0.0313434
-0.964037,-0.00565708,0.196306,3.47432,6.42881,7.67591,11,0.0201068,0.00355604,103,84.6875,0.0627845
0.900419,0.277573,0.268974,3.77073,6.55704,7.79049,12,0.0562426,0.00994692,118,154.25,0.0215197
0.00453632,-0.402165,0.901894,3.62369,6.52058,7.58103,13,0.0126802,0.00224259,18,23.7714,0.0595466
,,,,,,,,,25,82.6974,0.0609363
,,,,,,,,,33,67.2638,0.062618
,,,,,,,,,42,63.9482,0.0466936
,,,,,,,,,52,116.264,0.0490264
,,,,,,,,,63,116.278,0.0575784
,,,,,,,,,75,109.015,0.0409697
,,,,,,,,,88,124.509,0.0505351
,,,,,,,,,102,98.3871,0.0285835
,,,,,,,,,117,98.5069,0.0526091
,,,,,,,,,133,176.529,0.0201818
,,,,,,,,,32,103.229,0.0771127
,,,,,,,,,41,70.4778,0.0798256
,,,,,,,,,51,56.7082,0.055637
,,,,,,,,,62,135.179,0.058981
,,,,,,,,,74,135.356,0.0718129
,,,,,,,,,87,117.988,0.0476968
,,,,,,,,,101,148.12,0.0611783
,,,,,,,,,116,96.4704,0.0317031
,,,,,,,,,132,88.3259,0.0642444
,,,,,,,,,149,153.23,0.0216887
,,,,,,,,,50,56.5214,0.082343
,,,,,,,,,61,131.867,0.0568483
,,,,,,,,,73,33.6432,0.0603441
,,,,,,,,,86,69.1278,0.0738438
,,,,,,,,,100,41.845,0.0485843
,,,,,,,,,115,47.9839,0.0626461
,,,,,,,,,131,123.865,0.0320928
,,,,,,,,,148,85.273,0.065865
,,,,,,,,,166,100.771,0.0218703
,,,,,,,,,72,127.168,0.0583092
,,,,,,,,,85,71.8693,0.0619928
,,,,,,,,,99,124.932,0.0763279
,,,,,,,,,114,47.7248,0.0496474
,,,,,,,,,130,96.1858,0.0644248
,,,,,,,,,147,165.651,0.0325532
,,,,,,,,,165,41.1777,0.067834
,,,,,,,,,184,114.705,0.0220832
,,,,,,,,,98,150.103,0.0463451
,,,,,,,,,113,94.6344,0.053915
,,,,,,,,,129,172.524,0.0390802
,,,,,,,,,146,127.709,0.047691
,,,,,,,,,164,40.0095,0.0276508
,,,,,,,,,183,130.971,0.0495339
,,,,,,,,,203,113.156,0.0197123
,,,,,,,,,128,57.3542,0.0570493
,,,,,,,,,145,29.1402,0.0407011
,,,,,,,,,163,24.8169,0.0501271
,,,,,,,,,182,116.899,0.0284525
,,,,,,,,,202,78.8732,0.0521671
,,,,,,,,,223,67.207,0.0201164
,,,,,,,,,162,86.2828,0.0464256
,,,,,,,,,181,33.1398,0.0591026
,,,,,,,,,201,60.2952,0.0311364
,,,,,,,,,222,132.337,0.0619593
,,,,,,,,,244,65.2727,0.021422
,,,,,,,,,200,53.2455,0.0417355
,,,,,,,,,221,143.996,0.025538
,,,,,,,,,243,50.5207,0.0431401
,,,,,,,,,266,73.9641,0.0186144
,,,,,,,,,242,92.0828,0.0289542
,,,,,,,,,265,100.445,0.0538786
,,,,,,,,,289,58.6042,0.0203659
,,,,,,,,,288,147.917,0.0296233
,,,,,,,,,313,79.626,0.0155524
,,,,,,,,,338,81.9777,0.0206947
