facetNormals:0,facetNormals:1,facetNormals:2,FacetCenters:0,FacetCenters:1,FacetCenters:2,FacetIds,relFacetSize,absFacetSize,cellPairingIds,interplanarAngles,angleWeights
-0.578065,-0.341078,-0.697895,7.14912,4.47192,6.30442,1,0.0594002,0.0168648,8,84.0896,0.0621148
0.0795719,0.724318,-0.550361,7.15429,4.54757,6.29585,2,0.0650894,0.0184801,13,95.1879,0.0420265
0.746547,0.174581,-0.582861,7.21459,4.48298,6.32542,3,0.0325161,0.0092319,19,47.5666,0.0715073
-0.791828,0.317752,-0.370016,7.08677,4.52342,6.31899,4,0.0898132,0.0254996,26,82.8793,0.0186561
0.358666,-0.916616,-0.0184226,7.18755,4.40983,6.31661,5,0.0110658,0.00314178,34,42.1321,0.0941586
-0.47676,-0.766382,-0.176885,7.12548,4.41333,6.37647,6,0.226973,0.0644418,43,133.609,0.0349363
0.928246,0.344906,0.010243,7.22092,4.48342,6.34048,7,0.0247451,0.00702558,53,126.857,0.0567059
0.963611,-0.11006,0.0645429,7.22458,4.44143,6.40232,8,0.0542454,0.0154012,64,105.714,0.0241841
0.72103,-0.671545,0.103248,7.23314,4.43201,6.33555,9,0.0151828,0.00431068,76,139.882,0.0608046
0.64177,0.688039,0.141687,7.1998,4.52692,6.30993,10,0.062277,0.0176816,89,141.775,0.0556986
0.787902,-0.229215,0.515762,7.19288,4.43333,6.48531,11,0.0524312,0.0148862,103,151.297,0.0369943
0.168563,0.585834,0.754171,7.20333,4.52916,6.37647,12,0.026862,0.0076266,118,138.484,0.0623931
0.480189,-0.330887,0.755199,7.17718,4.42094,6.5032,13,0.0657036,0.0186544,18,54.8244,0.0433675
,,,,,,,,,25,64.1117,0.0754782
,,,,,,,,,33,134.068,0.0189157
,,,,,,,,,42,126.171,0.101167
,,,,,,,,,52,69.4086,0.035858
,,,,,,,,,63,92.4901,0.0591747
,,,,,,,,,75,122.483,0.0246222
,,,,,,,,,88,57.1393,0.0636522
,,,,,,,,,102,115.943,0.0580786
,,,,,,,,,117,88.5326,0.0380294
,,,,,,,,,133,135.093,0.0653951
,,,,,,,,,32,110.933,0.0477461
,,,,,,,,,41,82.8217,0.0165122
,,,,,,,,,51,115.879,0.0568831
,,,,,,,,,62,38.4218,0.0281033
,,,,,,,,,74,44.9485,0.0406597
,,,,,,,,,87,67.7773,0.0207001
,,,,,,,,,101,55.6814,0.0427247
,,,,,,,,,116,74.6193,0.0401392
,,,,,,,,,132,103.086,0.0294198
,,,,,,,,,149,98.7291,0.0435029
,,,,,,,,,50,128.381,0.0197039
,,,,,,,,,61,76.5161,0.1287
,,,,,,,,,73,133.094,0.0388001
,,,,,,,,,86,155.393,0.0676385
,,,,,,,,,100,153.219,0.0259746
,,,,,,,,,115,112.735,0.0735524
,,,,,,,,,131,169.969,0.0662102
,,,,,,,,,148,104.538,0.0413551
,,,,,,,,,166,149.531,0.0758895
,,,,,,,,,72,53.8021,0.0211027
,,,,,,,,,85,89.0247,0.0152928
,,,,,,,,,99,62.2667,0.0183818
,,,,,,,,,114,26.578,0.0128014
,,,,,,,,,130,115.489,0.0187924
,,,,,,,,,147,59.5743,0.0182746
,,,,,,,,,165,120.911,0.0156745
,,,,,,,,,184,60.5653,0.0189415
,,,,,,,,,98,141.085,0.0446251
,,,,,,,,,113,115.614,0.0875635
,,,,,,,,,129,80.3567,0.0284617
,,,,,,,,,146,168.756,0.0977369
,,,,,,,,,164,109.067,0.0851847
,,,,,,,,,183,137.992,0.0480386
,,,,,,,,,203,97.1305,0.101907
,,,,,,,,,128,27.0671,0.0339866
,,,,,,,,,145,63.4373,0.0188189
,,,,,,,,,163,27.6738,0.0354175
,,,,,,,,,182,46.7538,0.0336221
,,,,,,,,,202,67.581,0.0257601
,,,,,,,,,223,68.953,0.0359506
,,,,,,,,,162,36.3742,0.0237252
,,,,,,,,,181,53.3688,0.0579844
,,,,,,,,,201,29.7701,0.0533229
,,,,,,,,,222,81.0509,0.0359311
,,,,,,,,,244,53.7909,0.0594272
,,,,,,,,,200,89.0691,0.0244137
,,,,,,,,,221,36.1555,0.023547
,,,,,,,,,243,101.65,0.0194003
,,,,,,,,,266,46.8569,0.0246658
,,,,,,,,,242,62.8356,0.0569316
,,,,,,,,,265,47.9411,0.0375343
,,,,,,,,,289,78.0804,0.0639444
,,,,,,,,,288,65.6509,0.035524
,,,,,,,,,313,24.1693,0.0583218
,,,,,,,,,338,60.4272,0.0381336
