facetNormals:0,facetNormals:1,facetNormals:2,FacetCenters:0,FacetCenters:1,FacetCenters:2,FacetIds,relFacetSize,absFacetSize,cellPairingIds,interplanarAngles,angleWeights
-0.0959161,0.75811,-0.60315,4.34429,6.50997,6.90955,1,0.0663965,0.00999433,8,42.6132,0.0384827
0.579629,0.600878,-0.482077,4.3744,6.49372,6.97761,2,0.0270926,0.00407812,13,100.993,0.0363429
-0.656193,-0.617795,-0.372072,4.30782,6.45033,6.94034,3,0.0250185,0.00376591,19,30.7369,0.0828413
0.0020607,0.949369,-0.137949,4.37345,6.52373,7.0473,4,0.110114,0.0165748,26,102.644,0.0945543
0.836292,-0.342189,-0.23337,4.39548,6.47899,6.97178,5,0.164181,0.0247133,34,60.3161,0.0757712
0.0144429,0.887735,0.350545,4.35596,6.53902,7.13322,6,0.0882282,0.0132805,43,141.325,0.0834501
0.513906,-0.825346,0.114493,4.38163,6.441,7.04387,7,0.112291,0.0169027,53,137.055,0.0678958
-0.248953,-0.919715,0.009386,4.34006,6.44274,7.02991,8,0.0694643,0.0104561,64,150.165,0.0269645
-0.391967,-0.779758,0.470294,4.33134,6.45765,7.1279,9,0.0169174,0.00254649,76,118.962,0.061944
0.844046,-0.136213,0.449491,4.3925,6.50561,7.13871,10,0.0580512,0.00873815,89,123.26,0.0568862
-0.234355,0.0314026,0.90321,4.30935,6.50746,7.16543,11,0.049759,0.00748997,18,127.497,0.0260143
,,,,,,,,,25,46.3705,0.0434859
,,,,,,,,,33,64.1966,0.0465103
,,,,,,,,,42,66.102,0.0414554
,,,,,,,,,52,105.565,0.0436531
,,,,,,,,,63,139.783,0.0389816
,,,,,,,,,75,164.83,0.0208288
,,,,,,,,,88,78.1832,0.0369436
,,,,,,,,,102,127.857,0.0350833
,,,,,,,,,32,125.002,0.0407731
,,,,,,,,,41,105.982,0.0434205
,,,,,,,,,51,137.696,0.0389828
,,,,,,,,,62,82.1681,0.0409201
,,,,,,,,,74,38.4044,0.0367875
,,,,,,,,,87,54.3086,0.0201855
,,,,,,,,,101,132.555,0.0349671
,,,,,,,,,116,102.8,0.033296
,,,,,,,,,50,108.964,0.131819
,,,,,,,,,61,29.8234,0.0979635
,,,,,,,,,73,148.211,0.111192
,,,,,,,,,86,163.168,0.0851883
,,,,,,,,,100,147.933,0.0293289
,,,,,,,,,115,101.806,0.0760234
,,,,,,,,,131,96.1057,0.0685439
,,,,,,,,,72,114.789,0.114777
,,,,,,,,,85,41.3848,0.133367
,,,,,,,,,99,83.2624,0.0976242
,,,,,,,,,114,100.634,0.0306741
,,,,,,,,,130,44.0787,0.0857743
,,,,,,,,,147,118.632,0.0763717
,,,,,,,,,98,137.152,0.098816
,,,,,,,,,113,153.895,0.0777299
,,,,,,,,,129,124.281,0.028391
,,,,,,,,,146,86.9638,0.070027
,,,,,,,,,164,67.4961,0.0636312
,,,,,,,,,128,47.3325,0.0858322
,,,,,,,,,145,59.2673,0.0294048
,,,,,,,,,163,50.8011,0.0765358
,,,,,,,,,182,92.6929,0.0689601
,,,,,,,,,162,29.8709,0.0272084
,,,,,,,,,181,95.0259,0.063247
,,,,,,,,,201,87.5558,0.0579832
,,,,,,,,,200,90.7918,0.0261997
,,,,,,,,,221,57.8792,0.0252501
,,,,,,,,,242,76.9326,0.0535862
