facetNormals:0,facetNormals:1,facetNormals:2,FacetCenters:0,FacetCenters:1,FacetCenters:2,FacetIds,relFacetSize,absFacetSize,cellPairingIds,interplanarAngles,angleWeights
-0.53493,0.191339,-0.790115,6.14402,5.67134,7.62383,1,0.0131693,0.00106892,8,32.8968,0.0151866
-0.100081,0.527629,-0.806656,6.15563,5.67552,7.60184,2,0.0179337,0.00145563,13,56.2487,0.0139784
-0.383807,-0.701669,-0.590285,6.21015,5.66032,7.5067,3,0.0148933,0.00120886,19,98.9592,0.0182816
0.31534,-0.89698,-0.242502,6.22416,5.65955,7.52235,4,0.0298813,0.00242539,26,77.2155,0.022257
-0.311285,-0.889522,-0.272003,6.19822,5.68606,7.50819,5,0.0718114,0.00582876,34,91.7642,0.0111632
0.641113,0.726735,-0.220376,6.14813,5.67854,7.52179,6,0.00968742,0.000786304,43,117.43,0.0203956
0.897176,-0.365432,-0.140504,6.24805,5.67407,7.52967,7,0.0451952,0.00366838,53,72.8406,0.02475
-0.787735,-0.586742,0.0340889,6.15538,5.70387,7.56028,8,0.205177,0.0166537,64,99.3071,0.0213934
-0.389349,-0.870003,0.249157,6.17942,5.70569,7.60133,9,0.056971,0.0046242,76,90.2217,0.0119775
0.0607961,0.963665,0.196904,6.13325,5.68506,7.59007,10,0.0109835,0.000891506,89,127.629,0.0203389
0.119358,-0.861494,0.44536,6.22006,5.67602,7.61352,11,0.0446434,0.00362359,103,146.723,0.0231474
0.805099,-0.408916,0.354985,6.27404,5.69564,7.57473,12,0.0955243,0.00775347,118,102.785,0.0179609
-0.139808,0.778552,0.545017,6.17182,5.72361,7.62934,13,0.0282336,0.00229165,134,124.394,0.0153331
0.5413,0.661162,0.47323,6.16975,5.68563,7.61604,14,0.0183477,0.00148924,151,96.3951,0.012119
-0.746322,0.0308629,0.648458,6.14486,5.73969,7.6074,15,0.0112238,0.00091101,169,158.025,0.011567
0.340762,-0.511628,0.777272,6.23078,5.69184,7.64124,16,0.0103123,0.000837028,188,150.892,0.0197033
0.605723,0.29297,0.726254,6.22836,5.71185,7.62821,17,0.0391057,0.00317411,208,173.212,0.0207465
0.590586,-0.0888302,0.784991,6.25878,5.72823,7.61637,18,0.0488573,0.00396563,229,118.496,0.0158454
-0.394389,0.129991,0.859322,6.16967,5.73512,7.62879,19,0.0198866,0.00161414,251,140.5,0.00752219
0.0836859,0.270663,0.961836,6.13738,5.67565,7.45158,20,0.00526465,0.000427319,18,81.3817,0.0162727
,,,,,,,,,25,108.977,0.0224148
,,,,,,,,,33,103.306,0.0287
,,,,,,,,,42,58.9298,0.0125796
,,,,,,,,,52,100.279,0.0256781
,,,,,,,,,63,105.732,0.0329843
,,,,,,,,,75,130.581,0.02728
,,,,,,,,,88,68.916,0.0136234
,,,,,,,,,102,150.698,0.0255883
,,,,,,,,,117,128.295,0.030198
,,,,,,,,,133,90.9149,0.0219347
,,,,,,,,,150,95.2772,0.0181383
,,,,,,,,,168,116.794,0.0138067
,,,,,,,,,187,165.814,0.0130948
,,,,,,,,,207,120.843,0.0245903
,,,,,,,,,228,140.655,0.0262368
,,,,,,,,,250,129.245,0.0188597
,,,,,,,,,273,131.31,0.00813977
,,,,,,,,,32,48.0909,0.0198788
,,,,,,,,,41,21.9752,0.0246702
,,,,,,,,,51,129.314,0.0117391
,,,,,,,,,62,90.294,0.0224038
,,,,,,,,,74,44.7421,0.0277708
,,,,,,,,,87,51.2609,0.0236136
,,,,,,,,,101,146.383,0.0126431
,,,,,,,,,116,72.2701,0.0223354
,,,,,,,,,132,103.896,0.025769
,,,,,,,,,149,148.523,0.0195002
,,,,,,,,,167,168.373,0.016441
,,,,,,,,,186,96.8919,0.0128008
,,,,,,,,,206,103.539,0.0121866
,,,,,,,,,227,151.731,0.0215713
,,,,,,,,,249,129.808,0.022828
,,,,,,,,,272,118.116,0.0170315
,,,,,,,,,296,142.411,0.00777937
,,,,,,,,,50,37.2941,0.042202
,,,,,,,,,61,113.975,0.0146314
,,,,,,,,,73,47.8339,0.0359764
,,,,,,,,,86,73.7648,0.0521653
,,,,,,,,,100,51.8477,0.0392014
,,,,,,,,,115,157.44,0.0160628
,,,,,,,,,131,42.8973,0.0358003
,,,,,,,,,148,55.84,0.0455225
,,,,,,,,,166,158.109,0.0290341
,,,,,,,,,185,124.084,0.0227354
,,,,,,,,,205,115.659,0.0163183
,,,,,,,,,226,67.1313,0.0153331
,,,,,,,,,248,104.784,0.0338768
,,,,,,,,,271,85.5228,0.0370827
,,,,,,,,,295,118.674,0.0238803
,,,,,,,,,320,117.194,0.00895208
,,,,,,,,,72,143.741,0.0170718
,,,,,,,,,85,84.9811,0.055476
,,,,,,,,,99,38.1752,0.106387
,,,,,,,,,114,31.1157,0.0635361
,,,,,,,,,130,164.111,0.0190529
,,,,,,,,,147,50.6254,0.0550584
,,,,,,,,,165,89.0026,0.0819877
,,,,,,,,,184,147.795,0.0405317
,,,,,,,,,204,157.526,0.0292278
,,,,,,,,,225,88.3178,0.0194134
,,,,,,,,,247,81.8613,0.0180348
,,,,,,,,,270,131.754,0.0506366
,,,,,,,,,294,109.21,0.0581512
,,,,,,,,,319,104.008,0.0311475
,,,,,,,,,345,122.499,0.00981011
,,,,,,,,,98,69.5075,0.015955
,,,,,,,,,113,164,0.0185013
,,,,,,,,,129,163.091,0.0165591
,,,,,,,,,146,44.7197,0.0102948
,,,,,,,,,164,131.834,0.0159202
,,,,,,,,,183,81.6067,0.0175909
,,,,,,,,,203,68.1016,0.0144253
,,,,,,,,,224,41.8396,0.0126799
,,,,,,,,,246,127.536,0.0103992
,,,,,,,,,269,109.246,0.00999012
,,,,,,,,,293,63.3591,0.0155281
,,,,,,,,,318,81.7253,0.0161689
,,,,,,,,,344,111.508,0.0130283
,,,,,,,,,371,87.7924,0.00682192
,,,,,,,,,128,121.112,0.0740738
,,,,,,,,,145,93.9479,0.0504044
,,,,,,,,,163,109.706,0.0176723
,,,,,,,,,182,67.9339,0.0449176
,,,,,,,,,202,30.0792,0.0613595
,,,,,,,,,223,121.158,0.0347554
,,,,,,,,,245,79.299,0.0260998
,,,,,,,,,268,142.87,0.017982
,,,,,,,,,292,66.7141,0.016793
,,,,,,,,,317,69.8189,0.0419305
,,,,,,,,,343,62.0846,0.0469549
,,,,,,,,,370,123.975,0.0276199
,,,,,,,,,398,99.3209,0.00943075
,,,,,,,,,162,31.4904,0.0891796
,,,,,,,,,181,128.778,0.0208509
,,,,,,,,,201,63.6246,0.073331
,,,,,,,,,222,113.626,0.130358
,,,,,,,,,244,110.336,0.0496369
,,,,,,,,,267,146.249,0.0336833
,,,,,,,,,291,52.4944,0.0212834
,,,,,,,,,316,86.5707,0.0196377
,,,,,,,,,342,129.91,0.065691
,,,,,,,,,369,113.487,0.0789216
,,,,,,,,,397,73.6728,0.0362588
,,,,,,,,,426,101.231,0.0102659
,,,,,,,,,200,146.868,0.0184165
,,,,,,,,,221,32.2651,0.0500594
,,,,,,,,,243,82.1388,0.0713742
,,,,,,,,,266,120.979,0.0377561
,,,,,,,,,290,133.966,0.0277564
,,,,,,,,,315,64.1241,0.0187531
,,,,,,,,,341,58.7752,0.0174636
,,,,,,,,,368,108.518,0.0463773
,,,,,,,,,396,87.4683,0.0526031
,,,,,,,,,425,74.2914,0.029482
,,,,,,,,,455,91.6482,0.00963861
,,,,,,,,,242,139.78,0.0176297
,,,,,,,,,265,106.728,0.0197017
,,,,,,,,,289,26.2384,0.0158148
,,,,,,,,,314,37.5416,0.0137412
,,,,,,,,,340,83.3992,0.0111024
,,,,,,,,,367,109.083,0.0106374
,,,,,,,,,395,61.7257,0.0171501
,,,,,,,,,424,83.8063,0.0179351
,,,,,,,,,454,73.2855,0.0141512
,,,,,,,,,485,62.5621,0.00711765
,,,,,,,,,288,50.2311,0.060849
,,,,,,,,,313,118.279,0.034591
,,,,,,,,,339,107.955,0.026007
,,,,,,,,,366,79.6813,0.0179379
,,,,,,,,,394,31.274,0.0167545
,,,,,,,,,423,81.4784,0.0416915
,,,,,,,,,453,58.9837,0.0466554
,,,,,,,,,484,76.1241,0.027516
,,,,,,,,,516,77.9118,0.0094186
,,,,,,,,,338,104.76,0.043585
,,,,,,,,,365,69.4013,0.0307829
,,,,,,,,,393,113.538,0.0200874
,,,,,,,,,422,37.8253,0.0186151
,,,,,,,,,452,49.3573,0.0554935
,,,,,,,,,483,34.3139,0.064649
,,,,,,,,,515,94.0642,0.0329198
,,,,,,,,,548,72.1548,0.00997932
,,,,,,,,,392,42.0263,0.0222416
,,,,,,,,,421,59.5324,0.0160623
,,,,,,,,,451,91.345,0.0151069
,,,,,,,,,482,55.4588,0.032792
,,,,,,,,,514,73.0576,0.0357868
,,,,,,,,,547,47.0476,0.0233361
,,,,,,,,,581,41.3321,0.0088745
,,,,,,,,,450,94.5537,0.0139277
,,,,,,,,,481,77.2265,0.0132036
,,,,,,,,,513,26.5235,0.0249768
,,,,,,,,,546,48.9718,0.0266772
,,,,,,,,,580,72.5778,0.0190862
,,,,,,,,,615,46.0755,0.00818168
,,,,,,,,,512,76.194,0.0107488
,,,,,,,,,545,88.3661,0.0174417
,,,,,,,,,579,86.1492,0.0182542
,,,,,,,,,614,25.0026,0.0143491
,,,,,,,,,650,54.9493,0.00716737
,,,,,,,,,578,50.7302,0.0163208
,,,,,,,,,613,28.7635,0.0170301
,,,,,,,,,649,60.4095,0.0135818
,,,,,,,,,686,50.0794,0.00697065
,,,,,,,,,648,22.5589,0.043441
,,,,,,,,,685,63.3867,0.0263654
,,,,,,,,,723,33.4244,0.00927998
,,,,,,,,,722,62.8142,0.0282674
,,,,,,,,,761,37.8998,0.00950508
,,,,,,,,,800,30.0062,0.00832531
