Q	U	V
{$V$}	{[mm$^3$]}	0.0041905
{$d_v$}	{[mm]}	0.200027
{$S_c$}	{[mm$^2$]}	0.308094
{$S_o$}	{[mm$^2$]}	0.151649
{$S_l/S_o$}	[]	1.031626
{$\Psi$}	[]	0.407986
{$\eta$}	[]	0.446620
{med($\theta_e$)}	{[$^\circ$]}	
{$\Upsilon$}	[]	16
{$\Xi$}	[]	7
