facetNormals:0,facetNormals:1,facetNormals:2,FacetCenters:0,FacetCenters:1,FacetCenters:2,FacetIds,relFacetSize,absFacetSize,cellPairingIds,interplanarAngles,angleWeights
0.204282,0.420455,-0.806547,6.79125,4.15081,7.73066,1,0.0534226,0.0124064,8,64.5792,0.0379398
-0.603273,-0.196498,-0.738164,6.74077,4.05548,7.72351,2,0.0294149,0.00683104,13,65.873,0.0873819
0.11538,-0.597781,-0.732342,6.79947,3.97157,7.76452,3,0.239845,0.0556993,19,52.2448,0.0233883
-0.410531,0.81315,-0.378032,6.74996,4.18167,7.74256,4,0.0149714,0.00347681,26,102.289,0.0307599
0.329729,-0.902302,-0.14776,6.80525,3.91799,7.86905,5,0.0215978,0.00501568,34,99.2139,0.0525924
-0.896696,-0.259753,-0.186342,6.73572,4.02017,7.81079,6,0.0517877,0.0120267,43,42.6708,0.0424259
0.226258,0.894635,-0.301273,6.78302,4.1944,7.80931,7,0.0351836,0.0081707,53,85.7755,0.0600751
-0.863666,0.408678,-0.0873952,6.72249,4.13243,7.76956,8,0.0686202,0.0159357,64,106.982,0.0404058
0.775362,-0.540836,0.244043,6.85102,3.94116,7.8751,9,0.0324895,0.00754506,76,81.4634,0.0804837
0.811421,0.458769,0.277797,6.84616,4.09687,7.83067,10,0.163104,0.0378777,89,157.964,0.0353638
-0.538892,-0.359452,0.69045,6.78301,4.12934,7.86171,11,0.0264297,0.00613778,18,50.5953,0.052403
,,,,,,,,,25,67.5279,0.0198431
,,,,,,,,,33,84.696,0.0249074
,,,,,,,,,42,38.0643,0.0375192
,,,,,,,,,52,95.4597,0.0320416
,,,,,,,,,63,57.249,0.0411782
,,,,,,,,,75,124.745,0.0308758
,,,,,,,,,88,145.982,0.0498412
,,,,,,,,,102,97.102,0.0278425
,,,,,,,,,32,105.855,0.0281835
,,,,,,,,,41,42.2084,0.0396273
,,,,,,,,,51,78.0139,0.0851826
,,,,,,,,,62,108.155,0.0613653
,,,,,,,,,74,107.841,0.10671
,,,,,,,,,87,75.4217,0.057227
,,,,,,,,,101,114.495,0.194167
,,,,,,,,,116,113.045,0.0476127
,,,,,,,,,50,148.033,0.0176842
,,,,,,,,,61,75.9866,0.0232278
,,,,,,,,,73,38.574,0.0210048
,,,,,,,,,86,40.4649,0.0245799
,,,,,,,,,100,152.02,0.0204974
,,,,,,,,,115,93.8903,0.0274254
,,,,,,,,,131,110.833,0.0191149
,,,,,,,,,72,92.0908,0.0304829
,,,,,,,,,85,136.828,0.0267654
,,,,,,,,,99,133.388,0.0328548
,,,,,,,,,114,41.7849,0.025947
,,,,,,,,,130,101.436,0.0381446
,,,,,,,,,147,87.2203,0.0237707
,,,,,,,,,98,114.221,0.0419006
,,,,,,,,,113,41.4537,0.0590274
,,,,,,,,,129,130.227,0.0399291
,,,,,,,,,146,166.025,0.0786142
,,,,,,,,,164,60.1987,0.0349981
,,,,,,,,,128,77.8182,0.0465167
,,,,,,,,,145,113.765,0.0337829
,,,,,,,,,163,57.2826,0.0578814
,,,,,,,,,182,135.146,0.0301847
,,,,,,,,,162,166.798,0.0440993
,,,,,,,,,181,125.173,0.0965995
,,,,,,,,,201,73.4875,0.0381612
,,,,,,,,,200,61.7954,0.0541855
,,,,,,,,,221,93.407,0.029148
,,,,,,,,,242,116.464,0.0454883
