Q	U	V
{$V$}	{[mm$^3$]}	0.00368702
{$d_v$}	{[mm]}	0.191672
{$S_c$}	{[mm$^2$]}	0.211464
{$S_o$}	{[mm$^2$]}	0.127736
{$S_l/S_o$}	[]	0.655477
{$\Psi$}	[]	0.545797
{$\eta$}	[]	0.638695
{med($\theta_e$)}	{[$^\circ$]}	69.62745
{$\Upsilon$}	[]	11
{$\Xi$}	[]	5
