"cellPairingIds","interplanarAngles","angleWeights"
8,30.3515,0.0229736
13,43.4653,0.0384336
26,62.0091,0.0121852
34,52.0918,0.0396029
18,59.1258,0.0185605
25,38.4458,0.0254644
33,56.5029,0.00909705
32,74.1047,0.0459535
51,54.3116,0.0280895
87,70.2542,0.0441441
101,55.3766,0.0455231
50,78.1288,0.012852
73,50.0727,0.095217
115,88.1406,0.135881
148,104.087,0.0269389
72,83.7244,0.0109113
85,44.8638,0.0123217
99,44.3188,0.012692
113,63.6558,0.0455092
129,23.6814,0.0456936
128,81.8497,0.0870857
202,78.4943,0.0247098
162,60.9501,0.110789
201,96.1078,0.0246356
222,92.9092,0.0262456
200,85.4907,0.121193
221,53.5271,0.0246895
242,53.8617,0.025115
265,94.6128,0.0267904
288,75.2394,0.0143723
