"cellPairingIds","interplanarAngles","angleWeights"
8,33.4917,0.077714
13,34.8859,0.0571536
26,107.335,0.0165546
103,135.469,0.062624
18,47.0304,0.0940826
25,33.6785,0.116046
33,126.812,0.0186781
52,76.2554,0.160739
88,166.607,0.0290918
32,31.6926,0.075493
132,113.597,0.0728354
73,58.4699,0.113141
100,52.202,0.0445308
115,151.59,0.0270334
148,128.009,0.0853397
130,51.3642,0.0122081
165,67.4442,0.0176556
163,98.9081,0.0289057
200,101.055,0.0207413
243,76.8594,0.0435926
265,32.4446,0.0266848
