Q	U	V
{$V$}	{[mm$^3$]}	0.00146768
{$d_v$}	{[mm]}	0.140997
{$S_c$}	{[mm$^2$]}	0.135218
{$S_o$}	{[mm$^2$]}	0.06486
{$S_l/S_o$}	[]	1.084767
{$\Psi$}	[]	0.461889
{$\eta$}	[]	0.481625
{med($\theta_e$)}	{[$^\circ$]}	
{$\Upsilon$}	[]	17
{$\Xi$}	[]	6
