"cellPairingIds","interplanarAngles","angleWeights"
8,51.1818,0.0324368
13,54.047,0.0458347
19,62.0637,0.0354337
34,63.6699,0.0578956
89,97.1025,0.0468614
18,52.6669,0.0406219
52,58.0403,0.0392018
63,66.6685,0.0303841
102,130.655,0.0414263
51,71.9976,0.0904114
74,79.1144,0.0418405
101,47.6061,0.0537573
61,40.3611,0.0572583
131,41.2519,0.046443
129,45.9053,0.0847187
146,80.369,0.0711386
164,73.9407,0.0944953
128,23.5524,0.0403355
182,124.006,0.0624244
181,62.5174,0.0371792
201,138.109,0.0426944
222,40.8857,0.0375868
244,71.6384,0.0267091
267,38.9719,0.0190276
342,65.7201,0.0234084
200,49.5735,0.0516921
221,89.5801,0.0630088
266,33.6185,0.0334571
368,52.7957,0.0284347
289,25.8165,0.0311116
288,102.544,0.0560776
394,57.4729,0.0595052
423,96.2953,0.0294576
422,45.3096,0.0500298
452,36.0165,0.0269325
392,37.6625,0.0173008
482,33.4591,0.0208484
513,28.2479,0.0158529
578,48.826,0.0276987
