facetNormals:0,facetNormals:1,facetNormals:2,FacetCenters:0,FacetCenters:1,FacetCenters:2,FacetIds,relFacetSize,absFacetSize,cellPairingIds,interplanarAngles,angleWeights
0.245744,0.143276,-0.928699,6.06491,4.67887,6.80534,1,0.0321229,0.00238835,8,22.8748,0.0258094
0.00304094,0.442538,-0.880634,6.05253,4.70481,6.79665,2,0.02157,0.00160374,13,45.3073,0.01008
0.0800134,-0.583809,-0.799366,6.09854,4.60791,6.81696,3,0.0059779,0.00044446,19,32.3913,0.0358261
0.458043,0.56091,-0.654005,6.08862,4.67037,6.80565,4,0.0404945,0.00301079,26,82.9995,0.0587358
-0.819837,-0.299417,-0.384712,6.01254,4.64846,6.85908,5,0.342429,0.0254598,34,62.6144,0.0502741
0.802957,-0.4169,-0.312286,6.10921,4.61304,6.84746,6,0.115587,0.00859396,43,109.815,0.0513179
-0.0509201,-0.92142,0.17754,6.06531,4.58445,6.90404,7,0.127514,0.00948073,53,121.12,0.0112818
-0.945504,-0.15526,0.262917,5.98231,4.65844,6.93863,8,0.00684247,0.000508741,64,146.459,0.0172605
-0.724184,-0.140817,0.635398,5.98446,4.65695,6.95558,9,0.0118006,0.000877383,76,141.88,0.0271395
-0.265585,-0.706131,0.62893,6.02558,4.59805,6.96589,10,0.0234947,0.00174684,89,125.813,0.0239203
0.559556,0.101498,0.730056,6.06419,4.63071,6.90894,11,0.0190547,0.00141672,103,148.797,0.0099977
0.0988381,0.255081,0.949119,6.0416,4.6216,6.96781,12,0.00592012,0.000440164,18,62.9024,0.0093614
,,,,,,,,,25,30.8595,0.0281471
,,,,,,,,,33,77.4797,0.0405836
,,,,,,,,,42,84.3447,0.0363556
,,,,,,,,,52,127.534,0.0368984
,,,,,,,,,63,108.031,0.0103893
,,,,,,,,,75,130.567,0.0152553
,,,,,,,,,88,153.61,0.0224913
,,,,,,,,,102,130.827,0.0202345
,,,,,,,,,117,137.928,0.00929039
,,,,,,,,,32,76.1495,0.0104179
,,,,,,,,,41,63.8996,0.0117507
,,,,,,,,,51,54.1057,0.0113679
,,,,,,,,,62,65.1672,0.0114204
,,,,,,,,,74,101.409,0.00638104
,,,,,,,,,87,120.013,0.00793576
,,,,,,,,,101,96.5787,0.00953082
,,,,,,,,,116,130.6,0.0091007
,,,,,,,,,132,156.52,0.00594887
,,,,,,,,,50,108.275,0.0724243
,,,,,,,,,61,68.7705,0.0599769
,,,,,,,,,73,135.699,0.0614685
,,,,,,,,,86,135.551,0.0117068
,,,,,,,,,100,150.42,0.0182755
,,,,,,,,,115,165.782,0.0297364
,,,,,,,,,131,100.479,0.025915
,,,,,,,,,148,116.654,0.01033
,,,,,,,,,72,116.92,0.172834
,,,,,,,,,85,73.8494,0.185829
,,,,,,,,,99,40.5133,0.0134168
,,,,,,,,,114,65.0718,0.022815
,,,,,,,,,130,78.4732,0.0439723
,,,,,,,,,147,150.731,0.0361005
,,,,,,,,,165,123.685,0.011639
,,,,,,,,,98,71.3379,0.121258
,,,,,,,,,113,144.747,0.0129201
,,,,,,,,,129,140.707,0.021415
,,,,,,,,,146,97.0434,0.0390516
,,,,,,,,,164,78.3407,0.032716
,,,,,,,,,183,110.002,0.0112634
,,,,,,,,,128,75.2401,0.012988
,,,,,,,,,145,72.218,0.0216021
,,,,,,,,,163,32.8036,0.0396785
,,,,,,,,,182,89.4994,0.0331549
,,,,,,,,,202,94.4216,0.0113149
,,,,,,,,,162,25.4351,0.00866224
,,,,,,,,,181,57.3778,0.0105983
,,,,,,,,,201,112.568,0.0100691
,,,,,,,,,222,83.1836,0.00634797
,,,,,,,,,200,43.6999,0.0157104
,,,,,,,,,221,87.1779,0.0145749
,,,,,,,,,243,58.9831,0.00788467
,,,,,,,,,242,74.7634,0.021043
,,,,,,,,,265,66.2612,0.00945723
,,,,,,,,,288,32.1274,0.00903358
