Q	U	V
{$V$}	{[mm$^3$]}	0.00592061
{$d_v$}	{[mm]}	0.224452
{$S_c$}	{[mm$^2$]}	0.257243
{$S_o$}	{[mm$^2$]}	0.166185
{$S_l/S_o$}	[]	0.547932
{$\Psi$}	[]	0.61525
{$\eta$}	[]	0.651645
{med($\theta_e$)}	{[$^\circ$]}	59.4521
{$\Upsilon$}	[]	16
{$\Xi$}	[]	13
