facetNormals:0,facetNormals:1,facetNormals:2,FacetCenters:0,FacetCenters:1,FacetCenters:2,FacetIds,relFacetSize,absFacetSize,cellPairingIds,interplanarAngles,angleWeights
0.278166,-0.381051,-0.838945,5.62744,4.42879,5.73711,1,0.0566894,0.00551223,8,63.7225,0.0515136
-0.0881471,0.577275,-0.79069,5.59685,4.47694,5.73358,2,0.0472039,0.0045899,13,39.5967,0.033118
-0.122848,-0.790489,-0.530043,5.58339,4.46906,5.75803,3,0.0233917,0.00227451,19,55.8428,0.0872344
0.748446,0.332136,-0.531537,5.68844,4.46044,5.78642,4,0.189152,0.0183923,26,97.5178,0.0298657
-0.500639,0.763558,-0.365197,5.57074,4.47795,5.75474,5,0.0202731,0.00197127,34,90.2964,0.0457782
0.151741,0.905237,-0.355008,5.62892,4.50642,5.77926,6,0.0383893,0.00373281,43,95.7933,0.0672816
-0.884864,0.149098,-0.253139,5.55743,4.46378,5.76991,7,0.0827415,0.00804543,53,118.303,0.0538291
-0.28771,0.928477,0.0116767,5.59597,4.47807,5.77878,8,0.0512436,0.0049827,64,79.7375,0.0619963
0.270959,-0.845395,0.283349,5.59352,4.52005,5.81069,9,0.0683994,0.00665086,76,116.185,0.0293092
-0.52823,-0.557902,0.559398,5.62252,4.46463,5.82914,10,0.0197637,0.00192173,89,155.75,0.0505423
-0.470722,0.625555,0.577282,5.6,4.49429,5.82454,11,0.045598,0.00443375,103,141.954,0.0331669
0.218901,0.710246,0.630632,5.68234,4.45986,5.84705,12,0.0234405,0.00227925,118,133.16,0.0414765
0.425177,0.0791926,0.861525,5.6977,4.44621,5.86826,13,0.032701,0.0031797,134,170.395,0.0500308
-0.126219,0.371585,0.899465,5.65632,4.4847,5.85689,14,0.044772,0.00435343,18,91.6038,0.0312818
,,,,,,,,,25,55.3169,0.0755531
,,,,,,,,,33,36.8328,0.0283643
,,,,,,,,,42,35.2591,0.0423427
,,,,,,,,,52,66.583,0.0601133
,,,,,,,,,63,54.7036,0.0491408
,,,,,,,,,75,143.46,0.0558586
,,,,,,,,,88,140.209,0.0278619
,,,,,,,,,102,93.2281,0.046387
,,,,,,,,,117,96.4677,0.0313254
,,,,,,,,,133,135.252,0.0386363
,,,,,,,,,150,120.223,0.0459558
,,,,,,,,,32,94.4543,0.0416346
,,,,,,,,,41,111.673,0.021721
,,,,,,,,,51,125.324,0.0290702
,,,,,,,,,62,81.9679,0.0364724
,,,,,,,,,74,139.07,0.0321209
,,,,,,,,,87,57.1719,0.0348613
,,,,,,,,,101,76.7262,0.0214252
,,,,,,,,,116,142.712,0.030921
,,,,,,,,,132,170.519,0.0234161
,,,,,,,,,149,128.153,0.0272739
,,,,,,,,,167,143.292,0.0307288
,,,,,,,,,50,85.6377,0.0366212
,,,,,,,,,61,51.1286,0.063825
,,,,,,,,,73,121.694,0.115124
,,,,,,,,,86,84.7497,0.0806406
,,,,,,,,,100,104.553,0.100468
,,,,,,,,,115,161.145,0.035788
,,,,,,,,,131,118.383,0.073482
,,,,,,,,,148,86.1115,0.0417119
,,,,,,,,,166,96.9215,0.0557618
,,,,,,,,,185,117.959,0.0724056
,,,,,,,,,72,39.674,0.0265339
,,,,,,,,,85,44.9142,0.0325668
,,,,,,,,,99,27.3974,0.0290524
,,,,,,,,,114,164.874,0.0312761
,,,,,,,,,130,113.044,0.0200151
,,,,,,,,,147,58.3101,0.0280673
,,,,,,,,,165,77.8084,0.021742
,,,,,,,,,184,119.515,0.0250292
,,,,,,,,,204,88.9054,0.0279088
,,,,,,,,,98,84.3356,0.0524456
,,,,,,,,,113,34.046,0.0438947
,,,,,,,,,129,154.069,0.0491776
,,,,,,,,,146,146.93,0.0260937
,,,,,,,,,164,72.3711,0.0416843
,,,,,,,,,183,61.8686,0.0291078
,,,,,,,,,203,100.301,0.0353176
,,,,,,,,,224,90.1244,0.0413357
,,,,,,,,,128,64.5091,0.0632902
,,,,,,,,,145,120.237,0.07489
,,,,,,,,,163,74.1086,0.0319062
,,,,,,,,,182,66.3599,0.0587948
,,,,,,,,,202,105.8,0.0365317
,,,,,,,,,223,130.399,0.0468758
,,,,,,,,,245,93.7976,0.0581037
,,,,,,,,,162,161.602,0.0585915
,,,,,,,,,181,112.9,0.0285256
,,,,,,,,,201,40.1282,0.0482562
,,,,,,,,,222,50.4111,0.0321668
,,,,,,,,,244,92.3693,0.0399243
,,,,,,,,,267,65.7492,0.0477897
,,,,,,,,,200,56.6387,0.0306664
,,,,,,,,,221,122.935,0.0547184
,,,,,,,,,243,113.517,0.0349155
,,,,,,,,,266,71.0064,0.0442477
,,,,,,,,,290,95.8666,0.0541193
,,,,,,,,,242,76.0676,0.0275753
,,,,,,,,,265,99.8899,0.0214456
,,,,,,,,,289,76.5455,0.0246372
,,,,,,,,,314,67.1261,0.0274223
,,,,,,,,,288,41.9342,0.0309636
,,,,,,,,,313,68.2974,0.0380873
,,,,,,,,,339,31.8192,0.0451812
,,,,,,,,,338,42.5118,0.027307
,,,,,,,,,365,32.8563,0.0307708
,,,,,,,,,392,37.4846,0.0377961
