facetNormals:0,facetNormals:1,facetNormals:2,FacetCenters:0,FacetCenters:1,FacetCenters:2,FacetIds,relFacetSize,absFacetSize,cellPairingIds,interplanarAngles,angleWeights
0.163584,-0.342407,-0.904543,5.1688,7.07588,4.92922,1,0.0361288,0.00292605,8,38.3409,0.0540141
-0.460102,-0.225722,-0.820838,5.11529,7.09281,4.94049,2,0.106968,0.0086633,13,35.3711,0.0362678
0.610395,0.0234355,-0.762238,5.20108,7.09297,4.93735,3,0.036408,0.00294866,19,34.0263,0.0329935
0.271331,0.219182,-0.908701,5.19119,7.07758,4.93818,4,0.030359,0.00245876,26,103.091,0.0599311
-0.936898,0.198973,-0.00949538,5.07548,7.12172,5.03777,5,0.175659,0.0142265,34,102.432,0.0639948
0.518681,0.82688,0.00867932,5.17322,7.14176,5.01163,6,0.279815,0.0226621,43,123.529,0.0269955
-0.519975,0.807524,0.186308,5.09099,7.15351,5.05131,7,0.0215482,0.00174518,53,137.737,0.0561627
0.0936918,0.83959,0.478202,5.13219,7.1399,5.1103,8,0.126071,0.0102104,64,127.866,0.0183323
0.609294,0.540455,0.565675,5.2007,7.10475,5.11962,9,0.0122822,0.000994733,18,68.9482,0.0543255
,,,,,,,,,25,52.6383,0.047295
,,,,,,,,,33,64.8478,0.132966
,,,,,,,,,42,117.244,0.15477
,,,,,,,,,52,95.8176,0.0358705
,,,,,,,,,63,131.719,0.115736
,,,,,,,,,75,154.577,0.0220344
,,,,,,,,,32,24.7538,0.0331094
,,,,,,,,,41,126.763,0.0603148
,,,,,,,,,51,69.792,0.0644324
,,,,,,,,,62,117.446,0.0270731
,,,,,,,,,74,107.658,0.0564994
,,,,,,,,,87,92.7578,0.018368
,,,,,,,,,50,102.511,0.0517705
,,,,,,,,,61,70.6963,0.054775
,,,,,,,,,73,98.0521,0.0252058
,,,,,,,,,86,103.782,0.0489341
,,,,,,,,,100,103.801,0.017489
,,,,,,,,,72,110.113,0.215828
,,,,,,,,,85,46.415,0.0383874
,,,,,,,,,99,85.3898,0.14679
,,,,,,,,,114,119.567,0.0229591
,,,,,,,,,98,65.262,0.0400149
,,,,,,,,,113,37.9727,0.173825
,,,,,,,,,129,37.5099,0.0235316
,,,,,,,,,128,40.8542,0.0368055
,,,,,,,,,145,76.5897,0.0156463
,,,,,,,,,162,35.7386,0.0223838
