"cellPairingIds","interplanarAngles","angleWeights"
8,72.8301,0.0775837
13,86.8855,0.0891787
19,26.7948,0.0616827
26,114.517,0.0486983
34,53.423,0.0571531
53,90.8396,0.077794
33,59.341,0.0386978
42,47.9232,0.0438529
75,79.1025,0.0544992
41,68.5776,0.0413815
62,47.4106,0.0347924
74,63.9323,0.0606602
61,52.2802,0.0382757
86,78.1268,0.0465466
100,78.2395,0.0461434
148,99.026,0.0631979
85,80.107,0.0262722
114,114.63,0.0384702
130,82.3696,0.0204113
147,93.6553,0.0476148
165,120.16,0.0496379
129,48.894,0.0435607
128,46.1893,0.0329132
163,33.996,0.0186675
202,60.6536,0.0404492
222,51.9397,0.0802197
221,34.9937,0.0740219
243,69.718,0.0790294
265,39.8224,0.028049
288,54.7663,0.130527
