"cellPairingIds","interplanarAngles","angleWeights"
61,87.6259,0.0518995
73,110.308,0.0594987
148,116.4,0.0627726
185,131.517,0.0502084
98,130.952,0.0642163
146,118.655,0.0743761
224,83.9801,0.0535267
163,43.7309,0.0910395
202,60.4652,0.0817337
265,45.1562,0.0989347
314,67.9183,0.0709514
365,66.296,0.0651688
