"cellPairingIds","interplanarAngles","angleWeights"
13,65.8906,0.0469261
19,26.9343,0.0913404
26,83.4358,0.0421753
32,82.6373,0.0558303
41,141.464,0.032601
62,42.7469,0.0510461
132,125.873,0.0300279
50,79.2257,0.0492322
61,54.8475,0.027173
73,103.884,0.108365
100,79.2033,0.0893145
72,59.1418,0.0201761
99,37.6607,0.0428597
165,91.0846,0.0280089
113,35.594,0.0251122
129,80.5945,0.024723
164,38.8754,0.026644
145,39.471,0.0776692
163,43.6668,0.0240934
202,84.5038,0.0406189
201,49.4791,0.0884941
222,62.0056,0.0385202
200,44.955,0.0230026
221,57.7229,0.0838422
242,58.1007,0.0246566
265,41.4579,0.0181103
288,47.4931,0.0422456
