Q	U	V
{$V$}	{[mm$^3$]}	0.00346972
{$d_v$}	{[mm]}	0.187830
{$S_c$}	{[mm$^2$]}	0.16509
{$S_o$}	{[mm$^2$]}	0.0954484
{$S_l/S_o$}	[]	0.729626
{$\Psi$}	[]	0.671366
{$\eta$}	[]	0.697965
{med($\theta_e$)}	{[$^\circ$]}	78.0954
{$\Upsilon$}	[]	9
{$\Xi$}	[]	8
