Q	U	V
{$V$}	{[mm$^3$]}	0.00582561
{$d_v$}	{[mm]}	0.223245
{$S_c$}	{[mm$^2$]}	0.294177
{$S_o$}	{[mm$^2$]}	0.180759
{$S_l/S_o$}	[]	0.627454
{$\Psi$}	[]	0.532234
{$\eta$}	[]	0.555737
{med($\theta_e$)}	{[$^\circ$]}	77.82465
{$\Upsilon$}	[]	11
{$\Xi$}	[]	13
