"cellPairingIds","interplanarAngles","angleWeights"
8,34.0207,0.0165853
19,57.7315,0.021785
26,75.4475,0.0226622
34,70.272,0.0245865
76,104.594,0.0215608
25,71.372,0.0276811
42,48.8914,0.0323675
52,89.0614,0.0155601
75,125.181,0.03372
86,61.4862,0.0618838
100,76.9855,0.0655107
115,79.5284,0.0450214
72,83.8122,0.0679026
85,89.5314,0.0207906
130,61.6432,0.0489362
147,70.4528,0.0691434
98,42.6881,0.0223989
145,104.35,0.0230383
182,51.6545,0.0225322
162,31.8822,0.103203
181,46.4947,0.0601083
201,90.3952,0.0937687
221,83.5313,0.102355
242,73.6828,0.0598197
