facetNormals:0,facetNormals:1,facetNormals:2,FacetCenters:0,FacetCenters:1,FacetCenters:2,FacetIds,relFacetSize,absFacetSize,cellPairingIds,interplanarAngles,angleWeights
0.147646,0.259459,-0.848597,7.57928,7.62914,4.71999,1,0.10202,0.0226126,8,54.746,0.0808022
-0.561873,-0.191644,-0.733964,7.52326,7.59647,4.74095,2,0.0668908,0.0148263,13,48.4957,0.0392022
0.700703,-0.245082,-0.642859,7.68486,7.53012,4.75712,3,0.0242627,0.00537781,19,73.1599,0.0274663
0.447365,-0.74761,-0.452201,7.68732,7.49806,4.81079,4,0.0158694,0.00351743,26,38.552,0.0442963
0.73336,0.248195,-0.617526,7.67819,7.58756,4.75275,5,0.0282897,0.00627041,34,86.1632,0.0702316
-0.930526,0.205758,-0.167628,7.47977,7.64648,4.79312,6,0.053547,0.0118687,43,59.4904,0.124271
0.683185,0.646,-0.201083,7.64806,7.67647,4.85344,7,0.158938,0.0352285,53,90.0709,0.034224
0.853977,-0.49515,-0.00151507,7.68833,7.50465,4.91116,8,0.0205607,0.00455726,64,73.6739,0.0596813
0.977116,0.0235343,-0.116101,7.71758,7.57115,4.86133,9,0.0421776,0.00934863,76,79.373,0.070793
-0.39394,0.878706,0.0118563,7.55495,7.68693,4.86665,10,0.0542025,0.012014,89,87.487,0.033669
0.90676,0.334574,0.21405,7.69704,7.61768,4.93045,11,0.0201614,0.00446875,103,78.2688,0.0716621
0.279323,0.935476,0.122545,7.60174,7.7067,4.87536,12,0.0552282,0.0122413,118,119.227,0.0335219
0.404013,-0.829768,0.322631,7.68177,7.48862,4.89349,13,0.020056,0.0044454,134,112.516,0.0538291
0.162462,0.708152,0.637038,7.61086,7.67969,4.99975,14,0.0365596,0.00810342,151,126.053,0.121276
0.651979,-0.138913,0.653262,7.65775,7.57272,4.98527,15,0.149494,0.0331352,18,82.2443,0.0356092
,,,,,,,,,25,76.023,0.0256528
,,,,,,,,,33,90.3909,0.0397628
,,,,,,,,,42,48.4018,0.0594797
,,,,,,,,,52,113.373,0.0941553
,,,,,,,,,63,114.323,0.0314533
,,,,,,,,,75,120.266,0.0517344
,,,,,,,,,88,87.2105,0.0598819
,,,,,,,,,102,141.437,0.0309839
,,,,,,,,,117,117.311,0.0605026
,,,,,,,,,133,109.283,0.0308594
,,,,,,,,,150,139.591,0.0472787
,,,,,,,,,168,158.396,0.0924258
,,,,,,,,,32,35.2281,0.0191883
,,,,,,,,,41,29.0666,0.0261219
,,,,,,,,,51,128.744,0.0333941
,,,,,,,,,62,61.5605,0.0420988
,,,,,,,,,74,41.9711,0.0222588
,,,,,,,,,87,38.7747,0.0308049
,,,,,,,,,101,121.848,0.0335206
,,,,,,,,,116,64.6787,0.0220227
,,,,,,,,,132,96.6758,0.0337142
,,,,,,,,,149,73.1028,0.0219597
,,,,,,,,,167,119.638,0.0291681
,,,,,,,,,186,85.5613,0.0417495
,,,,,,,,,50,64.2864,0.0203328
,,,,,,,,,61,121.36,0.0244829
,,,,,,,,,73,95.252,0.0288574
,,,,,,,,,86,39.0128,0.017913
,,,,,,,,,100,60.7536,0.0230617
,,,,,,,,,115,152.502,0.0245508
,,,,,,,,,131,86.5351,0.0177597
,,,,,,,,,148,130.7,0.0246545
,,,,,,,,,166,46.9437,0.0177187
,,,,,,,,,185,141.744,0.0221319
,,,,,,,,,205,83.7262,0.0286929
,,,,,,,,,72,123.423,0.0370208
,,,,,,,,,85,34.4161,0.0480304
,,,,,,,,,99,58.9444,0.0238138
,,,,,,,,,114,35.4441,0.0338651
,,,,,,,,,130,94.699,0.0371762
,,,,,,,,,147,51.0844,0.0235437
,,,,,,,,,165,68.2331,0.0374145
,,,,,,,,,184,96.4574,0.0234717
,,,,,,,,,204,95.9071,0.0318974
,,,,,,,,,225,87.5041,0.0475763
,,,,,,,,,98,120.278,0.0801059
,,,,,,,,,113,159.771,0.0297125
,,,,,,,,,129,158.302,0.0471871
,,,,,,,,,146,54.1789,0.0538728
,,,,,,,,,164,147.827,0.0292933
,,,,,,,,,183,95.3019,0.0543746
,,,,,,,,,203,129.423,0.0291819
,,,,,,,,,224,96.8953,0.043452
,,,,,,,,,246,145.553,0.0788506
,,,,,,,,,128,73.8591,0.0364111
,,,,,,,,,145,41.7459,0.0666643
,,,,,,,,,163,71.3491,0.0808372
,,,,,,,,,182,33.6239,0.0357835
,,,,,,,,,202,35.4693,0.0819724
,,,,,,,,,223,110.219,0.0356175
,,,,,,,,,245,61.7074,0.0594453
,,,,,,,,,268,75.5243,0.154071
,,,,,,,,,162,32.1134,0.027645
,,,,,,,,,181,144.249,0.0298125
,,,,,,,,,201,51.4972,0.0203591
,,,,,,,,,222,103.385,0.0299656
,,,,,,,,,244,38.4909,0.0203052
,,,,,,,,,267,102.895,0.0263195
,,,,,,,,,291,47.321,0.0361495
,,,,,,,,,200,112.688,0.0474399
,,,,,,,,,221,26.8874,0.0272817
,,,,,,,,,243,73.1505,0.0478286
,,,,,,,,,266,69.4503,0.0271851
,,,,,,,,,290,83.8767,0.0391682
,,,,,,,,,315,52.602,0.0657927
,,,,,,,,,242,93.6492,0.0293905
,,,,,,,,,265,41.1589,0.0547105
,,,,,,,,,289,159.947,0.0292784
,,,,,,,,,314,52.553,0.0436663
,,,,,,,,,340,114.389,0.079559
,,,,,,,,,288,52.5345,0.0295392
,,,,,,,,,313,80.6172,0.0201085
,,,,,,,,,339,57.0267,0.0259901
,,,,,,,,,366,42.1927,0.0355309
,,,,,,,,,338,130.429,0.029426
,,,,,,,,,365,34.2488,0.0439954
,,,,,,,,,393,81.7222,0.0806584
,,,,,,,,,392,109.57,0.0259024
,,,,,,,,,421,49.7623,0.0353672
,,,,,,,,,450,61.9782,0.0587512
