"cellPairingIds","interplanarAngles","angleWeights"
8,68.2674,0.0140221
19,71.6213,0.015173
26,71.2031,0.0130718
53,83.7475,0.0152894
103,126.666,0.0158596
25,29.7103,0.0590122
33,105.271,0.0363108
52,40.4576,0.0366587
73,47.7345,0.0457263
86,38.059,0.0906247
148,97.9391,0.115165
85,120.404,0.0308037
114,53.3736,0.0505046
147,82.0424,0.0368432
165,130.098,0.0518739
182,77.9071,0.0372014
202,98.6879,0.0525867
222,62.8631,0.122228
221,52.276,0.0703368
243,78.3281,0.157412
288,76.9343,0.0730211
