Q	U	V
{$V$}	{[mm$^3$]}	0.00441374
{$d_v$}	{[mm]}	0.203518
{$S_c$}	{[mm$^2$]}	0.248319
{$S_o$}	{[mm$^2$]}	0.141147
{$S_l/S_o$}	[]	0.759294
{$\Psi$}	[]	0.524017
{$\eta$}	[]	0.565808
{med($\theta_e$)}	{[$^\circ$]}	80.4581
{$\Upsilon$}	[]	15
{$\Xi$}	[]	10
