Q	U	V
{$V$}	{[mm$^3$]}	0.00535538
{$d_v$}	{[mm]}	0.217069
{$S_c$}	{[mm$^2$]}	0.306549
{$S_o$}	{[mm$^2$]}	0.176857
{$S_l/S_o$}	[]	0.733316
{$\Psi$}	[]	0.482886
{$\eta$}	[]	0.546816
{med($\theta_e$)}	{[$^\circ$]}	
{$\Upsilon$}	[]	13
{$\Xi$}	[]	13
