Q	U	V
{$V$}	{[mm$^3$]}	0.0018726
{$d_v$}	{[mm]}	0.152926
{$S_c$}	{[mm$^2$]}	0.121266
{$S_o$}	{[mm$^2$]}	0.0739903
{$S_l/S_o$}	[]	0.638945
{$\Psi$}	[]	0.605864
{$\eta$}	[]	0.646991
{med($\theta_e$)}	{[$^\circ$]}	51.3911
{$\Upsilon$}	[]	20
{$\Xi$}	[]	9
