"cellPairingIds","interplanarAngles","angleWeights"
8,99.835,0.0593897
13,111.73,0.0691752
19,71.7648,0.0742311
26,115.971,0.0404792
18,24.344,0.0643819
25,147.102,0.0687393
42,50.7076,0.0547456
63,85.8483,0.0662249
41,37.2815,0.042738
51,35.7081,0.0629549
50,151.275,0.0446154
86,103.318,0.0852256
100,67.9293,0.124179
72,42.3407,0.0382667
99,66.9239,0.0435424
114,83.4638,0.0518526
113,37.9396,0.064716
162,69.091,0.116209
