"cellPairingIds","interplanarAngles","angleWeights"
18,69.9396,0.032899
25,84.3988,0.0487696
33,38.2406,0.0412693
42,61.7295,0.0655723
52,109.931,0.0262138
63,113.347,0.0650419
32,48.4742,0.0387416
62,66.1666,0.0230121
73,102.714,0.029794
86,39.7493,0.0926725
72,83.8836,0.0694792
99,90.5222,0.068884
130,42.7158,0.0676354
98,70.7108,0.0353237
146,99.5904,0.172282
128,114.392,0.0351692
163,158.754,0.0348408
181,76.3737,0.168668
