facetNormals:0,facetNormals:1,facetNormals:2,FacetCenters:0,FacetCenters:1,FacetCenters:2,FacetIds,relFacetSize,absFacetSize,cellPairingIds,interplanarAngles,angleWeights
-0.404529,-0.495374,-0.725339,3.31566,6.22416,6.2713,1,0.0286274,0.00689735,8,43.9117,0.0306259
0.269056,-0.699736,-0.586194,3.41158,6.19255,6.28119,2,0.0329243,0.00793262,13,78.5921,0.0233863
-0.236639,0.714263,-0.611518,3.24622,6.33991,6.36009,3,0.0197674,0.00476265,19,66.5041,0.0304642
-0.766805,0.409393,-0.350026,3.22527,6.32146,6.33445,4,0.0325529,0.00784314,26,116.192,0.0311334
0.348578,0.878954,-0.223003,3.26345,6.3641,6.40539,5,0.0341202,0.00822077,34,111.8,0.0308094
0.960685,0.108516,-0.127106,3.23438,6.26109,6.49417,6,0.0333514,0.00803553,43,135.588,0.0253515
0.827894,0.53769,0.117877,3.31862,6.31315,6.45621,7,0.0227483,0.00548088,53,90.8007,0.0294162
0.681545,-0.700403,0.116576,3.3804,6.20093,6.36943,8,0.0302497,0.00728822,64,140.781,0.0227427
0.296105,0.910454,0.230106,3.2679,6.37767,6.42471,9,0.0188648,0.0045452,76,60.8384,0.0514835
-0.694891,-0.605741,0.18981,3.26204,6.25338,6.40251,10,0.255375,0.0615287,89,125.16,0.0414309
0.849803,-0.21896,0.423798,3.47312,6.23935,6.35918,11,0.0749536,0.0180589,103,150.29,0.0294105
0.786819,0.209544,0.567048,3.4393,6.27367,6.41314,12,0.0302375,0.00728528,118,169.714,0.0395299
0.489433,0.589123,0.60522,3.33754,6.32561,6.47422,13,0.0638447,0.0153824,18,102.836,0.0247032
,,,,,,,,,25,108.814,0.0327376
,,,,,,,,,33,114.987,0.0335116
,,,,,,,,,42,73.9183,0.0331365
,,,,,,,,,52,103.607,0.0269063
,,,,,,,,,63,49.7531,0.0315304
,,,,,,,,,75,137.629,0.0239862
,,,,,,,,,88,81.9371,0.0583286
,,,,,,,,,102,81.728,0.0457516
,,,,,,,,,117,106.446,0.0315238
,,,,,,,,,133,133.149,0.0434445
,,,,,,,,,32,40.7884,0.0245979
,,,,,,,,,41,43.6399,0.0250324
,,,,,,,,,51,94.3735,0.0248225
,,,,,,,,,62,83.0851,0.0211533
,,,,,,,,,74,140.17,0.0239101
,,,,,,,,,87,62.5895,0.0193055
,,,,,,,,,101,114.905,0.0366944
,,,,,,,,,116,130.738,0.0312842
,,,,,,,,,132,113.478,0.0239063
,,,,,,,,,149,93.9459,0.030188
,,,,,,,,,50,79.1988,0.0333182
,,,,,,,,,61,135.144,0.0329473
,,,,,,,,,73,119.303,0.0267815
,,,,,,,,,86,157.191,0.0313591
,,,,,,,,,100,85.952,0.0238869
,,,,,,,,,115,75.6613,0.057745
,,,,,,,,,131,166.947,0.0453918
,,,,,,,,,148,140.362,0.0313525
,,,,,,,,,166,112.223,0.04312
,,,,,,,,,72,61.0462,0.0337314
,,,,,,,,,85,40.4573,0.0272973
,,,,,,,,,99,114.997,0.0320686
,,,,,,,,,114,27.0235,0.0242964
,,,,,,,,,130,153.316,0.0601976
,,,,,,,,,147,89.4397,0.0468936
,,,,,,,,,165,69.8542,0.0320618
,,,,,,,,,184,54.2957,0.044473
,,,,,,,,,98,30.1011,0.0270479
,,,,,,,,,113,54.013,0.0317249
,,,,,,,,,129,68.3642,0.0240986
,,,,,,,,,146,145.619,0.0589978
,,,,,,,,,164,38.9752,0.0461624
,,,,,,,,,183,43.0927,0.0317182
,,,,,,,,,203,61.2945,0.0438147
,,,,,,,,,128,78.1226,0.0259682
,,,,,,,,,145,38.9039,0.0206254
,,,,,,,,,163,159.882,0.0417754
,,,,,,,,,182,48.9895,0.0349035
,,,,,,,,,202,32.6154,0.0259637
,,,,,,,,,223,35.1723,0.0335445
,,,,,,,,,162,114.967,0.0232377
,,,,,,,,,181,91.6832,0.0540921
,,,,,,,,,201,35.3873,0.0431037
,,,,,,,,,222,62.191,0.0302436
,,,,,,,,,244,90.5068,0.0410499
,,,,,,,,,200,140.353,0.0351342
,,,,,,,,,221,81.0191,0.030143
,,,,,,,,,243,55.4392,0.0232341
,,,,,,,,,266,31.3849,0.0291241
,,,,,,,,,242,114.3,0.115892
,,,,,,,,,265,127.31,0.0540726
,,,,,,,,,289,129.313,0.102151
,,,,,,,,,288,26.8038,0.0430913
,,,,,,,,,313,55.1637,0.0689546
,,,,,,,,,338,28.4358,0.0410387
