facetNormals:0,facetNormals:1,facetNormals:2,FacetCenters:0,FacetCenters:1,FacetCenters:2,FacetIds,relFacetSize,absFacetSize,cellPairingIds,interplanarAngles,angleWeights
-0.210301,-0.110277,-0.951948,6.69673,3.49891,5.2798,1,0.0377583,0.00382927,8,36.6742,0.0476658
-0.407377,0.445868,-0.771673,6.70846,3.57305,5.2827,2,0.0646223,0.00655369,13,72.5336,0.0217094
0.780134,0.157595,-0.477756,6.7427,3.45413,5.31099,3,0.0152342,0.00154498,19,31.493,0.0562903
-0.666273,-0.12502,-0.685756,6.68437,3.48568,5.28121,4,0.110548,0.0112112,26,70.3838,0.05892
-0.703751,-0.655914,-0.103326,6.68581,3.41759,5.34546,5,0.134047,0.0135944,34,86.3525,0.0439884
-0.533827,0.799827,-0.0378218,6.66748,3.5691,5.3353,6,0.0526807,0.00534263,43,96.3282,0.026244
-0.31911,-0.88555,0.2848,6.67438,3.47914,5.37523,7,0.0201111,0.00203957,53,115.926,0.0222081
-0.387245,0.800023,0.439702,6.7093,3.47665,5.35093,8,0.01573,0.00159526,64,107.854,0.0222075
-0.742842,0.498015,0.41841,6.70854,3.45029,5.33923,9,0.0157293,0.0015952,76,106.489,0.042035
-0.860599,0.00310672,0.477692,6.68329,3.43802,5.34221,10,0.0474042,0.00480751,89,144.642,0.00714837
0.725813,-0.0343398,0.680284,6.74219,3.48004,5.2702,11,0.00394789,0.000400377,103,143.269,0.0465004
0.120181,0.667492,0.702999,6.70332,3.56732,5.37045,12,0.0605103,0.00613667,118,140.27,0.060238
-0.403971,-0.105766,0.857455,6.68978,3.478,5.40108,13,0.148868,0.0150975,134,147.165,0.0300044
0.239319,-0.432148,0.844262,6.77238,3.40836,5.38745,14,0.0248926,0.00252449,18,82.3476,0.0246559
,,,,,,,,,25,37.9734,0.0815648
,,,,,,,,,33,85.5251,0.0872044
,,,,,,,,,42,50.229,0.0580436
,,,,,,,,,52,120.191,0.0306756
,,,,,,,,,63,79.6156,0.0253013
,,,,,,,,,75,77.962,0.0253004
,,,,,,,,,88,90.989,0.0546901
,,,,,,,,,102,148.986,0.00744118
,,,,,,,,,117,107.876,0.0624987
,,,,,,,,,133,125.617,0.0901229
,,,,,,,,,150,169.241,0.0359408
,,,,,,,,,32,103.691,0.0267781
,,,,,,,,,41,132.175,0.027359
,,,,,,,,,51,107.75,0.0236339
,,,,,,,,,62,125.073,0.0173362
,,,,,,,,,74,114.799,0.0154781
,,,,,,,,,87,139.884,0.0154778
,,,,,,,,,101,169.75,0.0230582
,,,,,,,,,116,75.214,0.00627073
,,,,,,,,,132,98.6842,0.0243404
,,,,,,,,,149,146.878,0.0276398
,,,,,,,,,167,108.277,0.018901
,,,,,,,,,50,48.2094,0.121168
,,,,,,,,,61,72.3334,0.0713568
,,,,,,,,,73,82.2412,0.0340312
,,,,,,,,,86,98.6334,0.0275411
,,,,,,,,,100,81.1945,0.0275401
,,,,,,,,,115,75.014,0.0663547
,,,,,,,,,131,170.201,0.00762353
,,,,,,,,,148,133.268,0.0782106
,,,,,,,,,166,109.41,0.126878
,,,,,,,,,185,136.518,0.0406352
,,,,,,,,,72,98.9606,0.0756361
,,,,,,,,,85,35.361,0.0349749
,,,,,,,,,99,108.073,0.0281559
,,,,,,,,,114,80.791,0.0281549
,,,,,,,,,130,54.4102,0.0700396
,,,,,,,,,147,125.449,0.00766989
,,,,,,,,,165,129.019,0.0833813
,,,,,,,,,184,73.3067,0.141069
,,,,,,,,,204,88.317,0.041988
,,,,,,,,,98,125.435,0.0291095
,,,,,,,,,113,29.5742,0.0242262
,,,,,,,,,129,34.9272,0.0242255
,,,,,,,,,146,62.0597,0.0499033
,,,,,,,,,164,117.388,0.00734532
,,,,,,,,,183,61.8754,0.0563247
,,,,,,,,,203,83.8313,0.077822
,,,,,,,,,224,122.467,0.0338095
,,,,,,,,,128,118.122,0.0176528
,,,,,,,,,145,95.0104,0.0176524
,,,,,,,,,163,65.0762,0.028241
,,,,,,,,,182,90.4366,0.00660014
,,,,,,,,,202,116.54,0.0301887
,,,,,,,,,223,60.1544,0.0354351
,,,,,,,,,245,55.3621,0.0222478
,,,,,,,,,162,27.2989,0.0157297
,,,,,,,,,181,56.0009,0.0236217
,,,,,,,,,201,90.5467,0.00631168
,,,,,,,,,222,34.6787,0.0249691
,,,,,,,,,244,61.6673,0.0284535
,,,,,,,,,267,93.9714,0.019278
,,,,,,,,,200,30.1116,0.0236209
,,,,,,,,,221,106.044,0.00631163
,,,,,,,,,243,56.1468,0.0249683
,,,,,,,,,266,49.9304,0.0284524
,,,,,,,,,290,92.3585,0.0192775
,,,,,,,,,242,107.817,0.00728876
,,,,,,,,,265,75.8858,0.0531614
,,,,,,,,,289,36.2628,0.0719099
,,,,,,,,,314,78.2542,0.0326436
,,,,,,,,,288,56.0826,0.00741218
,,,,,,,,,313,71.9758,0.0076918
,,,,,,,,,339,38.4147,0.00681495
,,,,,,,,,338,58.7259,0.0860456
,,,,,,,,,365,69.5513,0.0352742
,,,,,,,,,392,43.8347,0.042653
