facetNormals:0,facetNormals:1,facetNormals:2,FacetCenters:0,FacetCenters:1,FacetCenters:2,FacetIds,relFacetSize,absFacetSize,cellPairingIds,interplanarAngles,angleWeights
-0.23346,-0.0520523,-0.942444,4.44687,6.21248,7.586,1,0.0349961,0.0101526,8,37.4222,0.0489195
0.31289,0.235192,-0.878589,4.52301,6.22178,7.60317,2,0.0812419,0.0235687,13,75.7968,0.0470554
0.831241,-0.0864863,-0.440253,4.56905,6.18278,7.64225,3,0.0717951,0.0208281,19,39.3508,0.0234022
-0.674038,0.330967,-0.636788,4.45902,6.24082,7.62493,4,0.0175786,0.00509964,26,46.1192,0.0526839
-0.701745,-0.432351,-0.486892,4.38369,6.189,7.63508,5,0.106523,0.0309028,34,61.3122,0.034769
0.415596,-0.693603,-0.548554,4.55724,6.149,7.64035,6,0.0345448,0.0100216,43,72.0748,0.0481015
-0.105261,-0.929066,-0.228224,4.49197,6.23958,7.69626,7,0.0768986,0.0223087,53,74.2912,0.0370417
-0.756858,0.57545,-0.111706,4.3754,6.26391,7.67257,8,0.0393413,0.0114131,64,108.126,0.0592853
0.0356616,0.901694,0.24118,4.48408,6.2598,7.71671,9,0.193777,0.0562157,76,98.7611,0.0418035
-0.494338,-0.768758,0.316933,4.38999,6.16068,7.71475,10,0.0518987,0.0150561,89,115.631,0.0288079
0.712351,0.635669,0.226331,4.44443,6.22048,7.68656,11,0.0244794,0.00710159,103,138.061,0.0339977
-0.301667,-0.367741,0.827599,4.404,6.22406,7.75649,12,0.0330547,0.00958934,18,46.4005,0.0762269
,,,,,,,,,25,63.2381,0.0289033
,,,,,,,,,33,83.3567,0.0921804
,,,,,,,,,42,61.4708,0.0484768
,,,,,,,,,52,93.1537,0.0790106
,,,,,,,,,63,90.2071,0.0530117
,,,,,,,,,75,89.2773,0.114485
,,,,,,,,,88,131.286,0.0633368
,,,,,,,,,102,79.404,0.0376225
,,,,,,,,,117,171.485,0.0469905
,,,,,,,,,32,109.377,0.0282422
,,,,,,,,,41,111.511,0.0857772
,,,,,,,,,51,45.4968,0.0466456
,,,,,,,,,62,84.1077,0.0742592
,,,,,,,,,74,134.137,0.0508296
,,,,,,,,,87,100.086,0.104772
,,,,,,,,,101,121.98,0.0602467
,,,,,,,,,116,61.8323,0.0365102
,,,,,,,,,132,130.31,0.0452679
,,,,,,,,,50,47.2363,0.0301773
,,,,,,,,,61,99.5964,0.0233004
,,,,,,,,,73,95.5235,0.0286158
,,,,,,,,,86,35.0364,0.0242996
,,,,,,,,,100,82.4514,0.0322331
,,,,,,,,,115,97.4231,0.026262
,,,,,,,,,131,115.368,0.0204628
,,,,,,,,,148,118.288,0.0229515
,,,,,,,,,72,72.8817,0.0521708
,,,,,,,,,85,50.4511,0.0893184
,,,,,,,,,99,68.4439,0.0574609
,,,,,,,,,114,126.533,0.137474
,,,,,,,,,130,55.4678,0.0697935
,,,,,,,,,147,160.407,0.0398102
,,,,,,,,,165,92.0234,0.0504534
,,,,,,,,,98,39.4807,0.0476734
,,,,,,,,,113,134.224,0.0367873
,,,,,,,,,129,144.486,0.0586364
,,,,,,,,,146,80.6285,0.0414798
,,,,,,,,,164,106.295,0.0286538
,,,,,,,,,183,110.346,0.0337833
,,,,,,,,,128,117.782,0.0520525
,,,,,,,,,145,175.745,0.110104
,,,,,,,,,163,41.8138,0.0619724
,,,,,,,,,182,139.418,0.0371369
,,,,,,,,,202,78.4128,0.0462353
,,,,,,,,,162,58.6706,0.065404
,,,,,,,,,181,96.4257,0.0447559
,,,,,,,,,201,102.208,0.0301799
,,,,,,,,,222,94.7547,0.035925
,,,,,,,,,200,134.592,0.0818704
,,,,,,,,,221,44.5473,0.0434676
,,,,,,,,,243,99.2127,0.0564757
,,,,,,,,,242,144.122,0.0332673
,,,,,,,,,265,41.2618,0.0403868
,,,,,,,,,288,106.203,0.028128
