Q	U	V
{$V$}	{[mm$^3$]}	0.00704275
{$d_v$}	{[mm]}	0.237820
{$S_c$}	{[mm$^2$]}	0.307283
{$S_o$}	{[mm$^2$]}	0.201121
{$S_l/S_o$}	[]	0.527851
{$\Psi$}	[]	0.578239
{$\eta$}	[]	0.590475
{med($\theta_e$)}	{[$^\circ$]}	66.93795
{$\Upsilon$}	[]	12
{$\Xi$}	[]	11
