"cellPairingIds","interplanarAngles","angleWeights"
8,49.9116,0.0314632
13,55.7191,0.0576854
26,50.1942,0.054558
34,56.7926,0.0693294
18,101.188,0.0332943
42,53.5556,0.0368682
52,38.534,0.0262888
63,142.052,0.0338553
88,94.8192,0.0335596
41,62.7609,0.0603097
74,45.9721,0.0662703
116,72.2473,0.0834959
72,47.1943,0.0731552
147,72.5528,0.0770991
184,82.1357,0.0664498
98,63.1532,0.0483565
203,68.45,0.0897365
163,57.2344,0.0428195
223,80.7601,0.0453327
181,110.293,0.0673297
201,44.3143,0.0871159
242,99.2765,0.0851846
265,78.1822,0.0612353
289,59.579,0.0723703
288,26.2274,0.0771777
313,67.1277,0.0957442
338,42.0224,0.0665082
