facetNormals:0,facetNormals:1,facetNormals:2,FacetCenters:0,FacetCenters:1,FacetCenters:2,FacetIds,relFacetSize,absFacetSize,cellPairingIds,interplanarAngles,angleWeights
0.0433652,-0.0512309,-0.976641,5.72121,5.59203,5.98134,1,0.0297396,0.00715184,8,37.8343,0.0365808
-0.102324,-0.61815,-0.739306,5.77494,5.57614,6.01487,2,0.0475098,0.0114253,13,31.1046,0.0263021
-0.413949,0.178087,-0.864187,5.67083,5.64111,5.99103,3,0.023577,0.00566985,19,36.3234,0.0434141
0.527363,-0.339601,-0.745712,5.75452,5.52478,6.01267,4,0.080368,0.0193271,26,55.9218,0.0177721
-0.614955,0.480195,-0.608073,5.68388,5.66282,6.00052,5,0.0126725,0.00304752,34,46.3776,0.0264772
-0.668141,-0.197182,-0.704435,5.63994,5.57974,6.02747,6,0.0238598,0.00573785,43,72.6804,0.0422579
-0.86061,-0.313024,-0.310325,5.62453,5.52086,6.05994,7,0.0729755,0.0175493,53,55.5642,0.0317652
0.737224,0.331039,-0.533513,5.76934,5.60524,5.99211,8,0.0340869,0.0081973,64,78.5169,0.0435194
0.317116,-0.881789,-0.128403,5.75243,5.47074,6.09281,9,0.0810944,0.0195018,76,85.6231,0.0240576
-0.198834,0.932013,-0.131308,5.71229,5.66265,6.01561,10,0.0201985,0.00485738,89,95.3193,0.045287
0.889343,0.364456,0.11027,5.62882,5.50273,6.04364,11,0.0948983,0.0228214,103,125.616,0.0425206
-0.087944,-0.712987,0.568122,5.69264,5.47617,6.12521,12,0.0745669,0.017932,118,113.464,0.023367
0.344984,0.846928,0.363674,5.69728,5.63626,6.03418,13,0.0192435,0.00462772,134,126.384,0.023279
-0.611865,-0.497633,0.581594,5.67751,5.49077,6.15315,14,0.0191245,0.0045991,151,127.018,0.0231032
0.551605,0.567158,0.590538,5.66202,5.60968,6.07502,15,0.0188882,0.00454228,169,136.148,0.0249412
0.626652,-0.0927004,0.732933,5.62864,5.52968,6.0214,16,0.0214762,0.00516463,188,144.173,0.0477825
-0.293525,0.532358,0.732905,5.65646,5.59026,6.11735,17,0.12149,0.0292162,18,52.7906,0.0315147
,,,,,,,,,25,41.4987,0.0597174
,,,,,,,,,33,77.0001,0.0200082
,,,,,,,,,42,42.2179,0.0317663
,,,,,,,,,52,56.9539,0.0575514
,,,,,,,,,63,83.0003,0.0396943
,,,,,,,,,75,48.4836,0.0599168
,,,,,,,,,88,119.474,0.0283459
,,,,,,,,,102,115.107,0.0633194
,,,,,,,,,117,88.0814,0.0580399
,,,,,,,,,133,150.208,0.0273921
,,,,,,,,,150,93.6077,0.0272713
,,,,,,,,,168,151.855,0.0270302
,,,,,,,,,187,125.763,0.0295807
,,,,,,,,,207,155.677,0.0683074
,,,,,,,,,32,67.3552,0.0364584
,,,,,,,,,41,26.1292,0.0164846
,,,,,,,,,51,28.2928,0.0237175
,,,,,,,,,62,52.8825,0.0356395
,,,,,,,,,74,76.8423,0.0278742
,,,,,,,,,87,101.092,0.0365327
,,,,,,,,,101,67.3036,0.0217574
,,,,,,,,,116,115.004,0.0377702
,,,,,,,,,132,130.653,0.0358262
,,,,,,,,,149,108.62,0.021191
,,,,,,,,,167,110.723,0.0211186
,,,,,,,,,186,131.508,0.0209738
,,,,,,,,,206,164.381,0.0224776
,,,,,,,,,227,116.705,0.0394903
,,,,,,,,,50,92.0174,0.021893
,,,,,,,,,61,75.6103,0.0367956
,,,,,,,,,73,97.0804,0.0764935
,,,,,,,,,86,44.3975,0.0478703
,,,,,,,,,100,52.3921,0.0807296
,,,,,,,,,115,110.185,0.0322834
,,,,,,,,,131,73.7998,0.0870308
,,,,,,,,,148,104.795,0.0773588
,,,,,,,,,166,113.141,0.0310519
,,,,,,,,,185,127.962,0.0308968
,,,,,,,,,205,110.83,0.0305877
,,,,,,,,,226,101.277,0.0338948
,,,,,,,,,248,161.932,0.0967404
,,,,,,,,,72,40.5603,0.0165532
,,,,,,,,,85,53.5974,0.021595
,,,,,,,,,99,88.2042,0.0184762
,,,,,,,,,114,125.278,0.0219197
,,,,,,,,,130,46.9441,0.015574
,,,,,,,,,147,117.302,0.0223593
,,,,,,,,,165,134.388,0.0216634
,,,,,,,,,184,91.5657,0.0152816
,,,,,,,,,204,102.896,0.0152439
,,,,,,,,,225,115.86,0.0151683
,,,,,,,,,247,156.017,0.0159395
,,,,,,,,,270,90.579,0.0229511
,,,,,,,,,98,26.7619,0.0359617
,,,,,,,,,113,100.937,0.0280708
,,,,,,,,,129,86.7915,0.0368712
,,,,,,,,,146,87.5,0.021877
,,,,,,,,,164,140.895,0.0381322
,,,,,,,,,183,102.789,0.0361518
,,,,,,,,,203,132.1,0.0213045
,,,,,,,,,224,84.2515,0.0212313
,,,,,,,,,246,156.414,0.0210849
,,,,,,,,,269,162.776,0.0226053
,,,,,,,,,293,116.786,0.0398862
,,,,,,,,,128,127.695,0.0464684
,,,,,,,,,145,87.3079,0.076821
,,,,,,,,,163,94.9262,0.0316396
,,,,,,,,,182,167.621,0.0825054
,,,,,,,,,202,82.0448,0.0737626
,,,,,,,,,223,135.169,0.0304559
,,,,,,,,,245,58.0173,0.0303066
,,,,,,,,,268,151.074,0.0300092
,,,,,,,,,292,141.96,0.0331859
,,,,,,,,,317,98.8386,0.0911811
,,,,,,,,,162,89.3504,0.0479984
,,,,,,,,,181,75.5787,0.0253661
,,,,,,,,,201,40.0173,0.0501575
,,,,,,,,,222,132.92,0.0467863
,,,,,,,,,244,69.0553,0.0245995
,,,,,,,,,267,167.408,0.0245021
,,,,,,,,,291,73.0103,0.0243073
,,,,,,,,,316,87.5399,0.0263504
,,,,,,,,,342,117.879,0.0532369
,,,,,,,,,200,162.555,0.0323416
,,,,,,,,,221,93.3524,0.087455
,,,,,,,,,243,52.4573,0.0776938
,,,,,,,,,266,137.301,0.0311057
,,,,,,,,,290,79.4251,0.0309501
,,,,,,,,,315,115.433,0.0306399
,,,,,,,,,341,78.2653,0.033959
,,,,,,,,,368,136.807,0.0972648
,,,,,,,,,242,80.8266,0.0333077
,,,,,,,,,265,144.988,0.0317867
,,,,,,,,,289,44.6954,0.0197095
,,,,,,,,,314,116.356,0.0196468
,,,,,,,,,340,68.9337,0.0195214
,,,,,,,,,367,109.249,0.0208177
,,,,,,,,,395,59.9797,0.0346382
,,,,,,,,,288,108.11,0.083513
,,,,,,,,,313,46.4836,0.0319984
,,,,,,,,,339,134.239,0.0318337
,,,,,,,,,366,37.0386,0.0315057
,,,,,,,,,394,49.8462,0.0350257
,,,,,,,,,423,89.142,0.10656
,,,,,,,,,338,118.318,0.0305921
,,,,,,,,,365,34.5706,0.0304415
,,,,,,,,,393,97.4595,0.0301415
,,,,,,,,,422,61.2047,0.0333478
,,,,,,,,,452,85.8819,0.0924133
,,,,,,,,,392,115.885,0.0191838
,,,,,,,,,421,24.3185,0.0190642
,,,,,,,,,451,64.9138,0.0202986
,,,,,,,,,482,48.8916,0.0332244
,,,,,,,,,450,106.594,0.0190056
,,,,,,,,,481,84.6221,0.0202322
,,,,,,,,,513,68.5694,0.0330469
,,,,,,,,,512,40.6236,0.0200992
,,,,,,,,,545,52.458,0.0326935
,,,,,,,,,578,70.766,0.0365001
