Q	U	V
{$V$}	{[mm$^3$]}	0.00317404
{$d_v$}	{[mm]}	0.182336
{$S_c$}	{[mm$^2$]}	0.193009
{$S_o$}	{[mm$^2$]}	0.10628
{$S_l/S_o$}	[]	0.816043
{$\Psi$}	[]	0.541146
{$\eta$}	[]	0.553021
{med($\theta_e$)}	{[$^\circ$]}	73.9164
{$\Upsilon$}	[]	15
{$\Xi$}	[]	3
