"cellPairingIds","interplanarAngles","angleWeights"
8,30.2724,0.0337732
13,56.9273,0.0975798
19,33.7324,0.119934
26,78.5271,0.107242
43,117.36,0.0896638
25,57.4797,0.0353341
33,50.4133,0.0341435
133,109.353,0.00687343
32,46.416,0.111856
51,26.0915,0.0435393
62,90.2577,0.0850706
74,61.9102,0.0924049
87,43.1965,0.0680605
116,87.4323,0.0306761
131,81.7155,0.0325855
166,96.9271,0.00805047
85,86.552,0.092322
130,68.0308,0.0184649
184,101.573,0.00798701
113,39.7546,0.0435929
129,28.224,0.037299
164,73.6352,0.0223633
128,41.0339,0.0852756
163,72.5344,0.0178619
181,95.3869,0.0181647
201,83.1342,0.0307028
221,46.2218,0.0274414
242,86.1354,0.013016
289,59.6745,0.00587004
313,38.9366,0.00676247
