facetNormals:0,facetNormals:1,facetNormals:2,FacetCenters:0,FacetCenters:1,FacetCenters:2,FacetIds,relFacetSize,absFacetSize,cellPairingIds,interplanarAngles,angleWeights
0.13844,-0.143468,-0.96423,4.82126,6.58207,5.21009,1,0.0199746,0.00362603,8,35.7925,0.0310637
-0.289704,-0.496946,-0.751612,4.79096,6.57634,5.2744,2,0.0698318,0.0126767,13,52.0285,0.0286577
-0.368689,0.521504,-0.748936,4.74441,6.63049,5.23462,3,0.0506959,0.00920295,19,54.4064,0.033754
0.0782797,0.703886,-0.674968,4.83052,6.68173,5.25005,4,0.108831,0.0197564,26,42.6886,0.0313736
0.742874,-0.213778,-0.592673,4.90209,6.59544,5.254,5,0.0730772,0.0132659,34,68.1013,0.0274881
0.673541,0.601303,-0.363453,4.95581,6.6839,5.32092,6,0.0440626,0.00799878,43,68.0195,0.0175404
-0.35131,-0.86934,-0.297014,4.76427,6.53734,5.30667,7,0.0156351,0.00283828,53,63.716,0.022775
0.55893,-0.763097,-0.248439,4.8674,6.54013,5.27603,8,0.0264886,0.00480855,64,85.308,0.0298646
-0.760745,-0.587838,-0.102521,4.73454,6.53765,5.28203,9,0.059153,0.0107382,76,94.9446,0.0317205
-0.444375,0.842059,-0.104784,4.78872,6.65107,5.33777,10,0.0769997,0.0139779,89,103.789,0.0181012
0.530221,-0.711516,0.421049,4.841,6.51588,5.28826,11,0.0165491,0.0030042,103,118.482,0.0184217
-0.919792,0.062869,0.33651,4.74697,6.57903,5.33857,12,0.0170928,0.0031029,118,115.676,0.0310429
0.29823,0.861115,0.345965,4.9212,6.68862,5.3926,13,0.0696221,0.0126387,134,136.819,0.0303654
-0.107282,0.756521,0.591582,4.83356,6.69651,5.39128,14,0.0632877,0.0114888,151,147.535,0.0260517
-0.526103,0.426961,0.700735,4.73971,6.65603,5.36401,15,0.0374439,0.00679728,169,155.685,0.0285896
-0.183615,-0.257014,0.895682,4.74945,6.60477,5.34399,16,0.0502718,0.00912597,18,63.8508,0.0587447
,,,,,,,,,25,81.6267,0.085075
,,,,,,,,,33,68.594,0.0714176
,,,,,,,,,42,103.866,0.0540319
,,,,,,,,,52,35.5886,0.0255498
,,,,,,,,,63,64.1201,0.0384082
,,,,,,,,,75,49.8888,0.0640503
,,,,,,,,,88,103.456,0.0732408
,,,,,,,,,102,97.1986,0.0267571
,,,,,,,,,117,91.0918,0.0274634
,,,,,,,,,133,147.071,0.0697268
,,,,,,,,,150,149.681,0.0663989
,,,,,,,,,168,129.47,0.0487487
,,,,,,,,,187,123.206,0.058459
,,,,,,,,,32,28.8157,0.0691706
,,,,,,,,,41,86.502,0.059863
,,,,,,,,,51,69.3749,0.047147
,,,,,,,,,62,96.0121,0.0238994
,,,,,,,,,74,115.735,0.0347962
,,,,,,,,,87,86.9461,0.0545989
,,,,,,,,,101,43.7149,0.0611386
,,,,,,,,,116,155.815,0.0249527
,,,,,,,,,132,82.8713,0.0255658
,,,,,,,,,149,85.216,0.0586704
,,,,,,,,,167,90.5406,0.0562963
,,,,,,,,,186,96.4739,0.0430736
,,,,,,,,,206,142.05,0.050483
,,,,,,,,,50,71.1621,0.0874405
,,,,,,,,,61,40.7577,0.0627283
,,,,,,,,,73,117.139,0.0273422
,,,,,,,,,86,109.901,0.0426071
,,,,,,,,,100,115.292,0.0766465
,,,,,,,,,115,47.8689,0.0901892
,,,,,,,,,131,140.693,0.0287295
,,,,,,,,,148,105.394,0.0295453
,,,,,,,,,166,65.4681,0.0849192
,,,,,,,,,185,82.4141,0.080034
,,,,,,,,,205,102.945,0.0557178
,,,,,,,,,226,149.406,0.0687749
,,,,,,,,,72,51.7289,0.0549765
,,,,,,,,,85,83.9546,0.025759
,,,,,,,,,99,40.3879,0.0388831
,,,,,,,,,114,113.711,0.065382
,,,,,,,,,130,118.697,0.0749872
,,,,,,,,,147,71.9491,0.0269867
,,,,,,,,,165,159.624,0.0277054
,,,,,,,,,184,100.166,0.0713078
,,,,,,,,,204,128.974,0.067831
,,,,,,,,,225,160.939,0.0495162
,,,,,,,,,247,131.442,0.0595663
,,,,,,,,,98,132.88,0.0230804
,,,,,,,,,113,89.5241,0.0330868
,,,,,,,,,129,151.705,0.0505047
,,,,,,,,,146,74.7571,0.0560506
,,,,,,,,,164,103.536,0.0240612
,,,,,,,,,183,137.478,0.0246308
,,,,,,,,,203,51.3209,0.0539691
,,,,,,,,,224,79.7336,0.0519536
,,,,,,,,,246,111.799,0.0404845
,,,,,,,,,269,130.779,0.0469628
,,,,,,,,,128,55.7888,0.0196636
,,,,,,,,,145,31.7393,0.0247329
,,,,,,,,,163,125.329,0.0259924
,,,,,,,,,182,71.4565,0.0160791
,,,,,,,,,202,79.9453,0.0163315
,,,,,,,,,223,175.778,0.0255357
,,,,,,,,,245,146.843,0.0250754
,,,,,,,,,268,114.297,0.0220592
,,,,,,,,,292,88.6561,0.023852
,,,,,,,,,162,87.039,0.0365916
,,,,,,,,,181,157.412,0.0394173
,,,,,,,,,201,40.1033,0.0203711
,,,,,,,,,222,132.276,0.0207779
,,,,,,,,,244,127.201,0.0383764
,,,,,,,,,267,146.081,0.0373462
,,,,,,,,,291,146.395,0.0310276
,,,,,,,,,316,97.9847,0.0346958
,,,,,,,,,200,99.0826,0.0669067
,,,,,,,,,221,91.7062,0.0258626
,,,,,,,,,243,48.5392,0.0265219
,,,,,,,,,266,144.635,0.063962
,,,,,,,,,290,116.971,0.0611506
,,,,,,,,,315,85.2887,0.045859
,,,,,,,,,341,77.4877,0.054352
,,,,,,,,,242,159.096,0.027243
,,,,,,,,,265,63.0258,0.0279755
,,,,,,,,,289,53.4273,0.0731253
,,,,,,,,,314,47.7197,0.0694736
,,,,,,,,,340,56.1636,0.0503858
,,,,,,,,,367,104.559,0.0608293
,,,,,,,,,288,113.913,0.0168166
,,,,,,,,,313,108.823,0.0267417
,,,,,,,,,339,111.385,0.0262374
,,,,,,,,,366,107.488,0.0229534
,,,,,,,,,394,60.267,0.024901
,,,,,,,,,338,96.2261,0.0274471
,,,,,,,,,365,68.6476,0.0269161
,,,,,,,,,393,38.7035,0.0234712
,,,,,,,,,422,60.8425,0.0255115
,,,,,,,,,392,28.9645,0.0663039
,,,,,,,,,421,61.5117,0.0486975
,,,,,,,,,451,87.9079,0.0583854
,,,,,,,,,450,32.5474,0.0470505
,,,,,,,,,481,67.2352,0.0560338
,,,,,,,,,512,48.4108,0.0429199
