"cellPairingIds","interplanarAngles","angleWeights"
8,55.1906,0.105966
13,56.2729,0.0744361
19,77.3545,0.0461651
43,107.806,0.0905813
18,95.6876,0.103727
33,45.6488,0.0730321
42,36.6953,0.0438369
52,101.213,0.138005
32,71.1784,0.045735
41,89.9836,0.0565291
74,83.1292,0.0565918
87,76.8354,0.0510614
132,92.3017,0.0705353
73,71.3046,0.0513596
86,38.7265,0.0386139
72,37.6393,0.0324032
114,69.0899,0.042308
147,76.3466,0.0323512
98,89.0509,0.0409589
146,79.0398,0.0267334
164,68.9272,0.0249813
128,72.2911,0.0654627
163,39.1493,0.0457861
202,82.8131,0.0848698
222,32.9037,0.0549159
221,55.2811,0.0304832
243,50.6383,0.0496932
242,36.6507,0.026698
265,61.3732,0.0403641
288,56.9412,0.036499
