facetNormals:0,facetNormals:1,facetNormals:2,FacetCenters:0,FacetCenters:1,FacetCenters:2,FacetIds,relFacetSize,absFacetSize,cellPairingIds,interplanarAngles,angleWeights
0.111184,-0.44863,-0.860878,6.57167,3.92344,7.76481,1,0.111121,0.0224648,8,32.2129,0.111712
-0.414662,-0.322073,-0.823952,6.48392,3.93317,7.77877,2,0.112308,0.0227049,13,77.5198,0.0588655
-0.145124,0.714195,-0.626691,6.52958,4.06528,7.75771,3,0.0400375,0.00809419,19,73.2231,0.0249749
0.626291,0.532296,-0.51413,6.59656,4.03195,7.77339,4,0.0140684,0.00284414,26,63.3292,0.0966782
-0.818073,-0.29891,-0.449141,6.39252,3.86472,7.88929,5,0.0855578,0.0172968,34,52.4449,0.0500675
0.651583,-0.690783,-0.232158,6.56673,3.86297,7.86396,6,0.0323134,0.00653265,43,99.1723,0.136661
-0.9013,0.290222,-0.0954655,6.3875,3.95398,7.93292,7,0.177445,0.0358733,53,84.7997,0.0536521
0.948687,0.0701115,-0.0118835,6.59706,3.96034,7.83921,8,0.0353631,0.00714919,64,81.3574,0.120478
0.27285,-0.872136,0.324348,6.4805,3.81402,7.95816,9,0.131557,0.0265962,76,107.482,0.0273964
0.526688,-0.507204,0.670649,6.45541,3.85436,8.0379,10,0.0156242,0.00315867,89,161.282,0.0339548
-0.414786,0.449138,0.765513,6.39405,3.92599,8.0555,11,0.0200391,0.0040512,103,137.706,0.04348
0.219057,-0.166996,0.928218,6.43228,3.87781,8.06321,12,0.0270278,0.00546408,18,68.3467,0.0590308
,,,,,,,,,25,90.4548,0.0250046
,,,,,,,,,33,32.7146,0.0971248
,,,,,,,,,42,81.3539,0.050187
,,,,,,,,,52,67.2931,0.137556
,,,,,,,,,63,115.912,0.0537893
,,,,,,,,,75,96.0284,0.121173
,,,,,,,,,88,128.815,0.0274321
,,,,,,,,,102,129.08,0.0340098
,,,,,,,,,117,147.957,0.0435702
,,,,,,,,,32,48.9902,0.0208208
,,,,,,,,,41,78.5667,0.0545486
,,,,,,,,,51,118.09,0.0357632
,,,,,,,,,62,64.2152,0.0653336
,,,,,,,,,74,95.0289,0.0375554
,,,,,,,,,87,158.259,0.0613914
,,,,,,,,,101,154.25,0.022477
,,,,,,,,,116,96.0209,0.0267097
,,,,,,,,,132,141.941,0.0322708
,,,,,,,,,50,117.626,0.0241635
,,,,,,,,,61,80.2966,0.0196024
,,,,,,,,,73,113.027,0.0260699
,,,,,,,,,86,46.2684,0.020129
,,,,,,,,,100,119.303,0.0254186
,,,,,,,,,115,107.23,0.0148055
,,,,,,,,,131,115.86,0.0165311
,,,,,,,,,148,117.19,0.0185048
,,,,,,,,,72,103.417,0.0469099
,,,,,,,,,85,41.9634,0.11545
,,,,,,,,,99,148.127,0.0500425
,,,,,,,,,114,96.5382,0.103684
,,,,,,,,,130,126.656,0.0264231
,,,,,,,,,147,98.3096,0.0324725
,,,,,,,,,165,125.145,0.0410788
,,,,,,,,,98,145.379,0.0546711
,,,,,,,,,113,52.0074,0.0337696
,,,,,,,,,129,41.9551,0.0518831
,,,,,,,,,146,56.3217,0.0210637
,,,,,,,,,164,142.347,0.0247373
,,,,,,,,,183,87.4204,0.0294352
,,,,,,,,,128,157.027,0.0589734
,,,,,,,,,145,125.052,0.151094
,,,,,,,,,163,136.589,0.0287196
,,,,,,,,,182,62.4578,0.0360113
,,,,,,,,,202,111.287,0.0469104
,,,,,,,,,162,77.8698,0.0557424
,,,,,,,,,181,61.1031,0.0216729
,,,,,,,,,201,113.464,0.0255818
,,,,,,,,,222,78.4088,0.0306387
,,,,,,,,,200,33.359,0.0279312
,,,,,,,,,221,105.67,0.0347803
,,,,,,,,,243,57.3532,0.0448428
,,,,,,,,,242,86.0403,0.0175584
,,,,,,,,,265,31.0994,0.0198016
,,,,,,,,,288,54.9538,0.0230146
