"cellPairingIds","interplanarAngles","angleWeights"
61,48.0362,0.0590746
86,125.958,0.0267339
115,57.4627,0.066675
131,83.8342,0.088097
113,101.821,0.0230741
129,46.8558,0.0386878
146,87.9046,0.0477758
162,87.6826,0.0215862
201,141.587,0.0264816
200,103.059,0.041809
221,117.738,0.0493308
242,29.2626,0.0651276
