"cellPairingIds","interplanarAngles","angleWeights"
8,66.8816,0.0545112
13,46.3145,0.0629073
19,38.2839,0.0696303
18,105.852,0.0661792
25,94.0452,0.0736612
33,125.771,0.040757
42,83.6186,0.0309092
75,96.5567,0.0656684
88,113.858,0.0625515
32,53.5877,0.0898698
41,56.5726,0.0452751
62,53.4714,0.0908592
74,72.4398,0.0731665
73,45.0058,0.105583
115,72.1237,0.0833087
72,98.619,0.0254262
99,56.2089,0.0433039
113,99.274,0.0323522
129,30.4674,0.033309
164,72.8399,0.0256334
128,37.3584,0.0832538
163,61.6242,0.0841582
182,58.8464,0.0497186
201,39.1481,0.0439085
200,51.7684,0.0732285
221,48.9698,0.0456898
242,33.7888,0.0441588
