Q	U	V
{$V$}	{[mm$^3$]}	0.00647871
{$d_v$}	{[mm]}	0.231293
{$S_c$}	{[mm$^2$]}	0.331446
{$S_o$}	{[mm$^2$]}	0.190474
{$S_l/S_o$}	[]	0.740112
{$\Psi$}	[]	0.507065
{$\eta$}	[]	0.523919
{med($\theta_e$)}	{[$^\circ$]}	85.98995
{$\Upsilon$}	[]	12
{$\Xi$}	[]	7
