facetNormals:0,facetNormals:1,facetNormals:2,FacetCenters:0,FacetCenters:1,FacetCenters:2,FacetIds,relFacetSize,absFacetSize,cellPairingIds,interplanarAngles,angleWeights
-0.689023,-0.273716,-0.663697,4.71052,4.62691,7.20315,1,0.0135221,0.00206696,8,103.036,0.0227346
0.457575,0.728518,-0.447532,4.81049,4.78078,7.25932,2,0.0713327,0.0109037,13,17.223,0.0153517
-0.829983,-0.354092,-0.414145,4.71299,4.62895,7.19888,3,0.0177538,0.0027138,19,110.501,0.0245872
0.877514,0.013215,-0.408211,4.83546,4.66513,7.2213,4,0.135314,0.0206837,26,66.0125,0.0162727
0.0703782,-0.916609,-0.28096,4.80695,4.58412,7.22755,5,0.0204281,0.00312258,34,31.2469,0.0226713
-0.897192,0.0957445,-0.347346,4.70456,4.6678,7.22134,6,0.0701042,0.0107159,43,57.7371,0.0184479
-0.966117,0.0221845,0.203465,4.68085,4.69218,7.28524,7,0.0290189,0.00443575,53,98.9745,0.0186667
-0.423006,0.803785,0.333998,4.72613,4.8054,7.31095,8,0.0301296,0.00460554,64,75.9819,0.0208662
-0.336888,-0.853783,0.345664,4.75495,4.56428,7.26135,9,0.045671,0.00698115,76,63.8436,0.0189914
-0.694916,-0.607693,0.325181,4.70555,4.60525,7.27296,10,0.0318896,0.00487456,89,148.112,0.0233243
0.798294,-0.187833,0.423938,4.85794,4.66646,7.30569,11,0.0847849,0.01296,103,88.9157,0.0209859
-0.7069,0.0570032,0.682443,4.70741,4.7264,7.33021,12,0.0468397,0.00715979,118,110.894,0.0195411
-0.0521322,-0.556963,0.810336,4.78673,4.60618,7.32552,13,0.0352171,0.00538319,134,102.82,0.0186163
-0.40962,-0.257417,0.859526,4.7273,4.67982,7.34024,14,0.0298688,0.00456566,151,137.73,0.0238369
0.115595,-0.0167106,0.961923,4.79912,4.71774,7.35369,15,0.100496,0.0153616,18,118.026,0.0284313
,,,,,,,,,25,50.752,0.0934184
,,,,,,,,,33,123.155,0.0317606
,,,,,,,,,42,101.401,0.0707131
,,,,,,,,,52,122.671,0.0412548
,,,,,,,,,63,75.0225,0.042365
,,,,,,,,,75,168.154,0.0556877
,,,,,,,,,88,162.706,0.0440752
,,,,,,,,,102,87.5216,0.0774792
,,,,,,,,,117,127.98,0.0565479
,,,,,,,,,133,146.069,0.0471541
,,,,,,,,,150,142.579,0.0421065
,,,,,,,,,168,114.507,0.0834396
,,,,,,,,,32,125.933,0.0313891
,,,,,,,,,41,66.3732,0.0189973
,,,,,,,,,51,27.0921,0.0283324
,,,,,,,,,62,43.6266,0.0220297
,,,,,,,,,74,94.2884,0.0223424
,,,,,,,,,87,63.2183,0.0255683
,,,,,,,,,101,47.4386,0.0228091
,,,,,,,,,116,147.335,0.0293597
,,,,,,,,,132,73.1105,0.0257482
,,,,,,,,,149,95.583,0.0236068
,,,,,,,,,167,85.5983,0.0222703
,,,,,,,,,186,120.508,0.0301765
,,,,,,,,,50,79.8269,0.0354972
,,,,,,,,,61,133.507,0.0923586
,,,,,,,,,73,166.783,0.0477891
,,,,,,,,,86,122.039,0.0492852
,,,,,,,,,100,118.16,0.0682921
,,,,,,,,,115,142.401,0.051615
,,,,,,,,,131,54.0195,0.104249
,,,,,,,,,148,160.528,0.0695903
,,,,,,,,,166,113.753,0.0558885
,,,,,,,,,185,138.383,0.0489356
,,,,,,,,,205,108.105,0.115335
,,,,,,,,,72,93.2884,0.0316372
,,,,,,,,,85,98.8159,0.0239772
,,,,,,,,,99,157.644,0.024348
,,,,,,,,,114,45.42,0.0282294
,,,,,,,,,130,63.7079,0.0249034
,,,,,,,,,147,82.9291,0.0329235
,,,,,,,,,165,108.088,0.0284488
,,,,,,,,,184,72.8459,0.0258573
,,,,,,,,,204,92.0774,0.0242624
,,,,,,,,,225,105.365,0.0339542
,,,,,,,,,98,33.2771,0.0410468
,,,,,,,,,113,68.6618,0.0421457
,,,,,,,,,129,83.9195,0.0553094
,,,,,,,,,146,61.4441,0.0438378
,,,,,,,,,164,170.95,0.0767488
,,,,,,,,,183,64.9677,0.0561579
,,,,,,,,,203,107.61,0.0468826
,,,,,,,,,224,87.3368,0.0418899
,,,,,,,,,246,117.973,0.0825931
,,,,,,,,,128,58.8439,0.0295638
,,,,,,,,,145,67.1021,0.0354886
,,,,,,,,,163,41.4879,0.0303866
,,,,,,,,,182,139.104,0.0432387
,,,,,,,,,202,32.1348,0.035836
,,,,,,,,,223,77.9573,0.0318189
,,,,,,,,,245,54.5522,0.0294377
,,,,,,,,,268,84.984,0.0450339
,,,,,,,,,162,116.824,0.0363071
,,,,,,,,,181,95.2027,0.0309846
,,,,,,,,,201,112.859,0.0444598
,,,,,,,,,222,53.0335,0.0366708
,,,,,,,,,244,99.3597,0.0324753
,,,,,,,,,267,74.6023,0.0299986
,,,,,,,,,291,73.9699,0.0463601
,,,,,,,,,200,25.6477,0.0375559
,,,,,,,,,221,87.5964,0.0593643
,,,,,,,,,243,63.8536,0.046248
,,,,,,,,,266,36.8104,0.0397685
,,,,,,,,,290,47.3923,0.0361171
,,,,,,,,,315,71.1007,0.0628016
,,,,,,,,,242,109.576,0.046347
,,,,,,,,,265,45.2218,0.0379452
,,,,,,,,,289,48.5315,0.0334708
,,,,,,,,,314,41.7171,0.0308461
,,,,,,,,,340,75.1773,0.0484158
,,,,,,,,,288,108.327,0.0603428
,,,,,,,,,313,63.435,0.0497638
,,,,,,,,,339,84.5969,0.0441751
,,,,,,,,,366,55.7693,0.0919745
,,,,,,,,,338,54.838,0.0402053
,,,,,,,,,365,27.45,0.0364769
,,,,,,,,,393,53.0118,0.0638977
,,,,,,,,,392,27.5301,0.0323232
,,,,,,,,,421,34.8759,0.0521568
,,,,,,,,,450,34.9105,0.0460507
