facetNormals:0,facetNormals:1,facetNormals:2,FacetCenters:0,FacetCenters:1,FacetCenters:2,FacetIds,relFacetSize,absFacetSize,cellPairingIds,interplanarAngles,angleWeights
0.386175,-0.270514,-0.848414,5.07469,3.6712,5.73893,1,0.0584188,0.00866413,8,67.8512,0.0162854
0.0655486,0.749486,-0.633301,5.07069,3.76281,5.87546,2,0.00946151,0.00140324,13,93.3467,0.0495088
-0.853127,0.0704383,-0.349037,5.10577,3.78545,5.89335,3,0.042957,0.00637098,19,58.3234,0.0400968
-0.16466,-0.894316,-0.382458,5.03718,3.58088,5.70635,4,0.0305237,0.00452698,26,43.3792,0.0903333
0.876133,-0.109393,-0.35882,5.10777,3.66882,5.77341,5,0.199105,0.0295294,34,102.307,0.0120393
-0.252748,0.935274,-0.173256,5.10071,3.76968,5.85041,6,0.00671119,0.00099534,43,83.3181,0.0528666
-0.491225,-0.815449,-0.0908903,5.03978,3.62166,5.76647,7,0.0482781,0.00716014,53,129.885,0.0311238
-0.897629,0.297776,0.206655,5.09686,3.76284,5.88334,8,0.0212126,0.00314605,64,90.6263,0.0778556
0.84635,-0.127836,0.43802,5.1228,3.72803,5.86731,9,0.116675,0.0173041,76,131.544,0.0863951
-0.463316,-0.499029,0.676518,5.03651,3.63953,5.82029,10,0.165791,0.0245885,18,76.1311,0.0155074
,,,,,,,,,25,116.896,0.0144453
,,,,,,,,,33,77.511,0.0180646
,,,,,,,,,42,34.8655,0.00785249
,,,,,,,,,52,128.529,0.0158222
,,,,,,,,,63,87.9854,0.0130862
,,,,,,,,,75,109.635,0.0175036
,,,,,,,,,88,151.918,0.0179014
,,,,,,,,,32,76.6242,0.0356884
,,,,,,,,,41,135.639,0.0706675
,,,,,,,,,51,67.9222,0.0116087
,,,,,,,,,62,63.5798,0.0454624
,,,,,,,,,74,37.0079,0.0284007
,,,,,,,,,87,173.955,0.0627946
,,,,,,,,,101,81.9681,0.0682343
,,,,,,,,,50,84.4579,0.0529325
,,,,,,,,,61,138.623,0.0110031
,,,,,,,,,73,26.4132,0.0374008
,,,,,,,,,86,101.938,0.0250303
,,,,,,,,,100,101.713,0.0483883
,,,,,,,,,115,73.8216,0.0515555
,,,,,,,,,72,106.193,0.0129847
,,,,,,,,,85,109.789,0.0777127
,,,,,,,,,99,165.487,0.0383404
,,,,,,,,,114,49.2376,0.147131
,,,,,,,,,130,130.496,0.180927
,,,,,,,,,98,131.428,0.0117842
,,,,,,,,,113,60.4712,0.0101965
,,,,,,,,,129,115.632,0.0126923
,,,,,,,,,146,119.615,0.0129002
,,,,,,,,,128,78.8302,0.0294745
,,,,,,,,,145,112.462,0.0682963
,,,,,,,,,163,51.3717,0.0747802
,,,,,,,,,162,139.45,0.0358985
,,,,,,,,,181,64.0168,0.0376127
,,,,,,,,,200,91.9873,0.136963
