facetNormals:0,facetNormals:1,facetNormals:2,FacetCenters:0,FacetCenters:1,FacetCenters:2,FacetIds,relFacetSize,absFacetSize,cellPairingIds,interplanarAngles,angleWeights
-0.151599,0.705064,-0.509685,3.72588,5.92067,5.71218,1,0.0307664,0.00527386,8,99.3863,0.0540451
-0.374689,-0.690651,-0.569701,3.71723,5.86672,5.64123,2,0.22207,0.0380664,13,84.5828,0.0384117
0.765658,-0.113783,-0.53947,3.8196,5.8824,5.62865,3,0.0511132,0.00876164,19,128.354,0.0204252
0.685279,-0.690455,-0.106788,3.82349,5.85278,5.67863,4,0.0152869,0.00262043,26,89.2505,0.0296008
-0.912727,-0.290777,-0.152748,3.69305,5.94721,5.73025,5,0.0285204,0.00488887,34,105.847,0.0509998
0.887651,0.0748272,0.281496,3.82297,5.90313,5.73281,6,0.14897,0.0255359,43,134.309,0.0430602
-0.537535,-0.747809,0.296334,3.66001,5.87273,5.74381,7,0.0717178,0.0122936,53,107.245,0.0378487
-0.828663,-0.192563,0.482472,3.59936,5.95452,5.76336,8,0.0491668,0.008428,64,172.535,0.0213451
0.266983,-0.719911,0.618002,3.79116,5.84743,5.74355,9,0.0163411,0.00280114,76,96.822,0.0241391
-0.524169,0.29954,0.771968,3.63689,5.97948,5.8065,10,0.0198609,0.00340449,89,89.404,0.0309769
-0.0592181,0.566991,0.784474,3.71522,5.99199,5.81637,11,0.0311903,0.00534653,103,156.634,0.0458288
-0.122323,-0.599901,0.765032,3.71059,5.8751,5.78725,12,0.0897854,0.0153907,118,145.507,0.0417938
0.24278,-0.313162,0.90369,3.76045,5.92807,5.81278,13,0.0651425,0.0111665,18,83.7911,0.0830995
,,,,,,,,,25,72.7957,0.0286048
,,,,,,,,,33,48.0098,0.0505488
,,,,,,,,,42,126.919,0.178319
,,,,,,,,,52,54.2142,0.108421
,,,,,,,,,63,79.7676,0.0805088
,,,,,,,,,75,87.298,0.0304422
,,,,,,,,,88,118.255,0.0364609
,,,,,,,,,102,150.152,0.0546981
,,,,,,,,,117,88.5349,0.127871
,,,,,,,,,133,113.999,0.100735
,,,,,,,,,32,44.2981,0.023535
,,,,,,,,,41,129.597,0.0366119
,,,,,,,,,51,53.9063,0.0761116
,,,,,,,,,62,122.195,0.0596873
,,,,,,,,,74,161.064,0.0501211
,,,,,,,,,87,92.9008,0.0247648
,,,,,,,,,101,157.116,0.0286063
,,,,,,,,,116,125.634,0.0387404
,,,,,,,,,132,118.287,0.0651421
,,,,,,,,,149,106.601,0.0572813
,,,,,,,,,50,115.48,0.0199049
,,,,,,,,,61,54.8344,0.0277285
,,,,,,,,,73,82.9429,0.025202
,,,,,,,,,86,120.545,0.0233225
,,,,,,,,,100,50.4632,0.0157965
,,,,,,,,,115,132.542,0.0172763
,,,,,,,,,131,122.925,0.0205178
,,,,,,,,,148,74.9694,0.0261257
,,,,,,,,,166,72.7667,0.0247628
,,,,,,,,,72,164.903,0.0478751
,,,,,,,,,85,45.0681,0.0408112
,,,,,,,,,99,38.8704,0.0361001
,,,,,,,,,114,97.739,0.0207775
,,,,,,,,,130,73.2853,0.0234157
,,,,,,,,,147,104.193,0.0297957
,,,,,,,,,165,79.7442,0.0432898
,,,,,,,,,184,106.295,0.0396719
,,,,,,,,,98,119.837,0.0968227
,,,,,,,,,113,132.235,0.0739325
,,,,,,,,,129,67.1825,0.0294516
,,,,,,,,,146,104.263,0.035049
,,,,,,,,,164,76.5521,0.0515809
,,,,,,,,,183,86.1236,0.112042
,,,,,,,,,203,61.0326,0.0906465
,,,,,,,,,128,39.281,0.0583389
,,,,,,,,,145,52.6901,0.0266174
,,,,,,,,,163,72.4101,0.0311073
,,,,,,,,,182,99.801,0.0434737
,,,,,,,,,202,38.5795,0.079741
,,,,,,,,,223,67.0996,0.0682722
,,,,,,,,,162,77.0787,0.0245296
,,,,,,,,,181,38.5938,0.0282929
,,,,,,,,,201,70.3856,0.0381678
,,,,,,,,,222,52.3041,0.0635393
,,,,,,,,,244,72.1932,0.0560383
,,,,,,,,,200,82.7744,0.0179299
,,,,,,,,,221,86.3521,0.0214462
,,,,,,,,,243,25.4574,0.0276499
,,,,,,,,,266,29.2279,0.026128
,,,,,,,,,242,31.9401,0.0242685
,,,,,,,,,265,60.3527,0.0325268
,,,,,,,,,289,60.4744,0.0304409
,,,,,,,,,288,73.6646,0.0462975
,,,,,,,,,313,57.2973,0.0421832
,,,,,,,,,338,28.5224,0.0755041
