facetNormals:0,facetNormals:1,facetNormals:2,FacetCenters:0,FacetCenters:1,FacetCenters:2,FacetIds,relFacetSize,absFacetSize,cellPairingIds,interplanarAngles,angleWeights
0.187477,-0.679764,-0.667076,4.43954,5.23165,7.05851,1,0.0332789,0.0106806,8,31.9799,0.0279316
-0.319278,-0.768855,-0.51366,4.39371,5.13879,7.03716,2,0.0240649,0.00772342,13,67.0944,0.0501535
-0.790953,-0.47452,-0.285609,4.26182,5.19462,6.9918,3,0.101745,0.0326543,19,50.1219,0.0447606
0.624214,-0.648798,-0.00340362,4.50473,5.15276,7.07104,4,0.0683385,0.0219326,26,123.09,0.0280724
-0.580035,0.737866,-0.158713,4.26973,5.31486,6.98756,5,0.0242747,0.00779074,34,74.4536,0.0401144
0.953286,0.0260102,-0.134173,4.47739,5.21764,7.0407,6,0.0504837,0.0162023,43,108.283,0.0475526
0.803444,0.396429,0.245935,4.39523,5.23674,7.05037,7,0.0832669,0.0267238,53,59.5346,0.0230086
-0.184653,-0.951455,0.189116,4.36195,5.09624,7.05184,8,0.0175825,0.00564294,64,142.091,0.0319055
0.117252,0.949116,0.183817,4.33283,5.28772,7.0295,9,0.030641,0.00983395,76,75.8706,0.0307083
0.80525,-0.457205,0.341615,4.50146,5.12758,7.09271,10,0.0285064,0.00914887,89,101.72,0.0510673
-0.539491,-0.480132,0.618741,4.34431,5.15884,7.11109,11,0.10971,0.0352106,103,176.015,0.0542752
-0.163665,0.632386,0.708995,4.39177,5.29272,7.11014,12,0.147056,0.0471964,118,104.052,0.0305364
0.557836,-0.256143,0.764055,4.46433,5.17925,7.12769,13,0.0282115,0.00905425,134,134.092,0.0399986
-0.177603,-0.0207477,0.94666,4.39906,5.21377,7.14988,14,0.0501187,0.0160851,18,36.0088,0.0389236
,,,,,,,,,25,69.9961,0.0355952
,,,,,,,,,33,108.834,0.0241693
,,,,,,,,,42,105.733,0.0325931
,,,,,,,,,52,139.167,0.0373386
,,,,,,,,,63,44.13,0.0203192
,,,,,,,,,75,154.747,0.0269577
,,,,,,,,,88,94.8153,0.026098
,,,,,,,,,102,76.0941,0.0394717
,,,,,,,,,117,147.816,0.0413613
,,,,,,,,,133,112.936,0.0259738
,,,,,,,,,150,116.032,0.0325167
,,,,,,,,,32,102.279,0.0817611
,,,,,,,,,41,80.3559,0.0391975
,,,,,,,,,51,141.529,0.0674836
,,,,,,,,,62,175.123,0.0915834
,,,,,,,,,74,55.2476,0.0299835
,,,,,,,,,87,129.303,0.0470982
,,,,,,,,,101,122.891,0.0445352
,,,,,,,,,116,58.6442,0.105578
,,,,,,,,,132,113.631,0.120275
,,,,,,,,,149,124.638,0.0441746
,,,,,,,,,167,97.4151,0.0671567
,,,,,,,,,50,168.652,0.0358241
,,,,,,,,,61,48.1361,0.0580696
,,,,,,,,,73,73.0772,0.0750677
,,,,,,,,,86,55.6699,0.027969
,,,,,,,,,100,128.284,0.0423109
,,,,,,,,,115,26.0837,0.040231
,,,,,,,,,131,91.8308,0.0842178
,,,,,,,,,148,126.384,0.0933133
,,,,,,,,,166,54.5494,0.0399365
,,,,,,,,,185,96.6618,0.0578274
,,,,,,,,,72,123.988,0.032785
,,,,,,,,,85,103.907,0.0375906
,,,,,,,,,99,131.672,0.0203936
,,,,,,,,,114,49.4095,0.0270888
,,,,,,,,,130,156.055,0.0262209
,,,,,,,,,147,98.868,0.0397534
,,,,,,,,,165,60.7043,0.0416707
,,,,,,,,,184,132.797,0.0260955
,,,,,,,,,204,93.9105,0.0327076
,,,,,,,,,98,33.8315,0.0628576
,,,,,,,,,113,103.757,0.0260813
,,,,,,,,,129,83.1536,0.0381356
,,,,,,,,,146,41.6803,0.0364377
,,,,,,,,,164,131.745,0.0691485
,,,,,,,,,183,104.643,0.075164
,,,,,,,,,203,63.4014,0.0361959
,,,,,,,,,224,108.661,0.0503005
,,,,,,,,,128,121.476,0.0290342
,,,,,,,,,145,55.253,0.0447972
,,,,,,,,,163,53.1654,0.0424724
,,,,,,,,,182,122.261,0.0946769
,,,,,,,,,202,70.8666,0.106328
,,,,,,,,,223,54.0514,0.0421442
,,,,,,,,,245,84.7501,0.0625739
,,,,,,,,,162,157.732,0.0223437
,,,,,,,,,181,68.8966,0.0217498
,,,,,,,,,201,44.1825,0.0303077
,,,,,,,,,222,117.352,0.0314095
,,,,,,,,,244,72.8617,0.0216635
,,,,,,,,,267,75.9123,0.0260324
,,,,,,,,,200,106.733,0.0295352
,,,,,,,,,221,115.947,0.0479031
,,,,,,,,,243,40.738,0.0507149
,,,,,,,,,266,92.237,0.0293761
,,,,,,,,,290,81.8196,0.038031
,,,,,,,,,242,90.2158,0.0452542
,,,,,,,,,265,100.826,0.0477555
,,,,,,,,,289,31.2127,0.0283582
,,,,,,,,,314,78.4821,0.0363421
,,,,,,,,,288,75.8998,0.125667
,,,,,,,,,313,71.5624,0.0448819
,,,,,,,,,339,40.9954,0.0688052
,,,,,,,,,338,72.2256,0.0473411
,,,,,,,,,365,42.2828,0.0747586
,,,,,,,,,392,48.1844,0.0361016
