"cellPairingIds","interplanarAngles","angleWeights"
8,47.7536,0.0261359
26,66.6637,0.0236946
64,104.057,0.02269
118,145.432,0.0229989
33,78.546,0.0738637
75,90.5657,0.0649062
133,163.652,0.0674994
184,98.2213,0.053313
266,92.9589,0.0484835
