facetNormals:0,facetNormals:1,facetNormals:2,FacetCenters:0,FacetCenters:1,FacetCenters:2,FacetIds,relFacetSize,absFacetSize,cellPairingIds,interplanarAngles,angleWeights
-0.238092,0.0874739,-0.91289,7.1242,6.04645,8.10285,1,0.0542503,0.0166084,8,44.0584,0.0451381
0.299385,-0.386481,-0.840051,7.13731,6.00813,8.06801,2,0.0386467,0.0118314,13,55.5553,0.0259587
0.642668,0.13329,-0.731996,7.15091,6.07999,8.04103,3,0.0170613,0.00522319,19,57.0228,0.0720674
-0.101125,-0.754164,-0.589743,7.14381,5.987,8.0999,4,0.107311,0.0328525,26,40.0165,0.068894
-0.77164,0.0944494,-0.543817,7.02187,6.07504,8.11126,5,0.094366,0.0288895,34,78.5313,0.0535677
-0.681818,-0.687076,-0.0885998,7.04265,5.98575,8.20758,6,0.0529021,0.0161956,43,92.0375,0.0456363
0.00804217,-0.975279,-0.0594926,7.10985,5.98716,8.15381,7,0.039383,0.0120568,53,74.0409,0.0454518
-0.966949,-0.179536,-0.0459699,6.99844,6.04888,8.251,8,0.0391089,0.0119729,64,79.1894,0.0528385
-0.60268,0.748832,0.0416414,7.04367,6.12924,8.23054,9,0.0514984,0.0157659,76,87.2272,0.0735162
0.501041,0.793658,-0.102031,7.13987,6.11612,8.10763,10,0.114002,0.0349008,89,105.024,0.0587584
-0.110753,0.880031,0.371982,7.05156,6.12491,8.21724,11,0.0640837,0.0196188,103,121.132,0.0458144
-0.394675,-0.690093,0.55799,7.0323,5.99345,8.22047,12,0.039649,0.0121383,118,130.244,0.0350755
0.803508,0.291542,0.473605,7.18185,6.0372,8.18935,13,0.0259156,0.00793387,134,106.671,0.0432781
-0.809818,-0.270594,0.476401,7.00933,6.02663,8.25944,14,0.0359976,0.0110204,151,141.638,0.039713
-0.388199,-0.107554,0.874453,7.03766,6.04817,8.25281,15,0.0313202,0.00958846,18,37.7269,0.0236721
,,,,,,,,,25,36.0398,0.0568276
,,,,,,,,,33,78.1527,0.0548359
,,,,,,,,,42,81.7328,0.0446645
,,,,,,,,,52,63.1252,0.0390114
,,,,,,,,,63,100.933,0.0388764
,,,,,,,,,75,122.672,0.0441564
,,,,,,,,,88,94.4388,0.0577247
,,,,,,,,,102,137.186,0.048216
,,,,,,,,,117,109.827,0.0391414
,,,,,,,,,133,106.513,0.0310259
,,,,,,,,,150,124.486,0.0372751
,,,,,,,,,168,149.858,0.0345998
,,,,,,,,,32,73.6666,0.0294416
,,,,,,,,,41,95.2438,0.0288978
,,,,,,,,,51,119.11,0.0258014
,,,,,,,,,62,94.8533,0.0238084
,,,,,,,,,74,129.194,0.0237581
,,,,,,,,,87,109.644,0.025631
,,,,,,,,,101,57.2254,0.0296806
,,,,,,,,,116,103.838,0.026948
,,,,,,,,,132,142.156,0.0238568
,,,,,,,,,149,77.4617,0.0205763
,,,,,,,,,167,160.339,0.0231503
,,,,,,,,,186,162.735,0.0220895
,,,,,,,,,50,68.9864,0.100423
,,,,,,,,,61,46.9004,0.0708678
,,,,,,,,,73,35.081,0.0576196
,,,,,,,,,86,74.0605,0.0573258
,,,,,,,,,100,124.78,0.0695971
,,,,,,,,,115,130.398,0.110555
,,,,,,,,,131,160.322,0.0802462
,,,,,,,,,148,75.679,0.0579039
,,,,,,,,,166,128.096,0.0417488
,,,,,,,,,185,89.695,0.0539107
,,,,,,,,,205,115.247,0.0484884
,,,,,,,,,72,56.4683,0.0677969
,,,,,,,,,85,94.0806,0.055573
,,,,,,,,,99,36.1562,0.0552996
,,,,,,,,,114,55.7954,0.0666331
,,,,,,,,,130,106.619,0.103259
,,,,,,,,,147,92.1171,0.0763311
,,,,,,,,,165,93.9874,0.0558373
,,,,,,,,,184,156.474,0.0406637
,,,,,,,,,204,68.4812,0.052115
,,,,,,,,,225,101.759,0.0470308
,,,,,,,,,98,45.1459,0.0451523
,,,,,,,,,113,34.7076,0.0449716
,,,,,,,,,129,96.5868,0.0521908
,,,,,,,,,146,163.064,0.0722683
,,,,,,,,,164,126.959,0.0579585
,,,,,,,,,183,42.7008,0.0453267
,,,,,,,,,203,146.288,0.0347888
,,,,,,,,,224,42.9295,0.0428426
,,,,,,,,,246,73.799,0.039346
,,,,,,,,,128,79.8184,0.0392455
,,,,,,,,,145,141.686,0.0446331
,,,,,,,,,163,145.905,0.0585421
,,,,,,,,,182,159.674,0.0487849
,,,,,,,,,202,47.8676,0.0395156
,,,,,,,,,223,108.694,0.0312605
,,,,,,,,,245,76.1284,0.0376143
,,,,,,,,,268,86.9686,0.0348919
,,,,,,,,,162,61.8843,0.0444566
,,,,,,,,,181,132.026,0.0582387
,,,,,,,,,201,94.1182,0.0485741
,,,,,,,,,222,59.8789,0.0393771
,,,,,,,,,244,152.201,0.0311738
,,,,,,,,,267,32.737,0.0374888
,,,,,,,,,291,68.0397,0.0347839
,,,,,,,,,200,71.5085,0.0709474
,,,,,,,,,221,36.7754,0.0571059
,,,,,,,,,243,105.878,0.0448035
,,,,,,,,,266,105.182,0.0344798
,,,,,,,,,290,71.0644,0.0423749
,,,,,,,,,315,78.1744,0.0389511
,,,,,,,,,242,48.2215,0.0820466
,,,,,,,,,265,151.048,0.0588355
,,,,,,,,,289,50.5953,0.0422309
,,,,,,,,,314,136.457,0.0547174
,,,,,,,,,340,113.957,0.0491399
,,,,,,,,,288,112.403,0.0489885
,,,,,,,,,313,68.5474,0.0369062
,,,,,,,,,339,88.2468,0.0460997
,,,,,,,,,366,72.8133,0.0420761
,,,,,,,,,338,105.526,0.031344
,,,,,,,,,365,35.598,0.0377352
,,,,,,,,,393,40.0916,0.0349959
,,,,,,,,,392,121.834,0.0301357
,,,,,,,,,421,85.6801,0.0283627
,,,,,,,,,450,36.1552,0.0334964
