Q	U	V
{$V$}	{[mm$^3$]}	0.0195857
{$d_v$}	{[mm]}	0.334436
{$S_c$}	{[mm$^2$]}	0.80086
{$S_o$}	{[mm$^2$]}	0.527048
{$S_l/S_o$}	[]	0.519520
{$\Psi$}	[]	0.438753
{$\eta$}	[]	0.468558
{med($\theta_e$)}	{[$^\circ$]}	77.1396
{$\Upsilon$}	[]	11
{$\Xi$}	[]	19
