facetNormals:0,facetNormals:1,facetNormals:2,FacetCenters:0,FacetCenters:1,FacetCenters:2,FacetIds,relFacetSize,absFacetSize,cellPairingIds,interplanarAngles,angleWeights
0.188413,0.0686929,-0.960345,5.24656,7.44669,6.82678,1,0.0249725,0.00247595,8,41.2906,0.0161902
-0.330286,-0.383755,-0.854918,5.20287,7.36781,6.85722,2,0.0119779,0.00118758,13,41.8492,0.0206433
-0.480572,0.253333,-0.832849,5.2111,7.42702,6.84029,3,0.0175933,0.00174433,19,30.7074,0.0308258
0.591448,-0.190978,-0.759838,5.24668,7.42928,6.83917,4,0.0402631,0.00399197,26,54.6348,0.0425841
0.259948,-0.739526,-0.57763,5.27227,7.38116,6.85216,5,0.144472,0.014324,34,63.7963,0.0418816
-0.74411,-0.064746,-0.576135,5.21538,7.44266,6.84524,6,0.129709,0.0128603,43,47.2455,0.0354911
0.261245,0.751093,-0.575972,5.27231,7.53094,6.8834,7,0.0613194,0.00607965,53,58.208,0.0371156
0.843431,0.364919,-0.334829,5.31335,7.46988,6.85977,8,0.0722457,0.00716296,64,71.8454,0.0307902
-0.619328,0.638404,-0.384249,5.21441,7.46577,6.85488,9,0.040142,0.00397997,76,64.2878,0.0189881
0.876565,-0.358496,-0.293039,5.31438,7.41954,6.85694,10,0.0153174,0.00151868,89,73.5711,0.0298418
0.0464864,0.954201,-0.204925,5.26897,7.51394,6.8799,11,0.0370699,0.00367538,103,92.9456,0.0269462
-0.449664,-0.856647,-0.098444,5.2228,7.42707,6.8643,12,0.0292586,0.00290091,118,120.946,0.015562
-0.0793009,0.793703,0.550285,5.24696,7.51421,6.88159,13,0.0113028,0.00112064,134,128.663,0.0391469
0.151596,-0.712211,0.568306,5.25118,7.50455,6.8679,14,0.0905343,0.00897622,151,125.993,0.0317894
0.553844,0.337169,0.710079,5.18087,7.40246,6.83861,15,0.0437255,0.00433526,18,38.4714,0.0142524
,,,,,,,,,25,57.2576,0.0184632
,,,,,,,,,33,44.3557,0.0221217
,,,,,,,,,42,35.4874,0.0219306
,,,,,,,,,52,83.0598,0.0200411
,,,,,,,,,63,97.8279,0.0205489
,,,,,,,,,75,72.5889,0.0184504
,,,,,,,,,88,84.256,0.0134434
,,,,,,,,,102,102.271,0.0181056
,,,,,,,,,117,54.4775,0.0169974
,,,,,,,,,133,141.054,0.0116306
,,,,,,,,,150,106.627,0.0211567
,,,,,,,,,168,164.21,0.0188046
,,,,,,,,,32,72.0877,0.0244869
,,,,,,,,,41,79.9593,0.0313669
,,,,,,,,,51,28.9187,0.0309841
,,,,,,,,,62,56.1098,0.0273419
,,,,,,,,,74,92.0046,0.028296
,,,,,,,,,87,36.0062,0.0244644
,,,,,,,,,101,105.777,0.0163767
,,,,,,,,,116,66.3292,0.0238619
,,,,,,,,,132,85.1911,0.0219737
,,,,,,,,,149,103.144,0.0137633
,,,,,,,,,167,142.286,0.0294615
,,,,,,,,,186,143.856,0.0250911
,,,,,,,,,50,39.845,0.0629754
,,,,,,,,,61,89.3792,0.061451
,,,,,,,,,73,62.2555,0.0486089
,,,,,,,,,86,44.6062,0.0517086
,,,,,,,,,100,101.908,0.0402024
,,,,,,,,,115,33.705,0.0221922
,,,,,,,,,131,89.9419,0.0386006
,,,,,,,,,148,91.6538,0.0338899
,,,,,,,,,166,130.406,0.0176506
,,,,,,,,,185,103.141,0.055738
,,,,,,,,,205,107.025,0.0419229
,,,,,,,,,72,78.2374,0.136693
,,,,,,,,,85,99.3203,0.0860963
,,,,,,,,,99,81.3772,0.0963232
,,,,,,,,,114,115.837,0.0628272
,,,,,,,,,130,46.6809,0.0276982
,,,,,,,,,147,127.2,0.0590008
,,,,,,,,,165,52.7259,0.0486621
,,,,,,,,,184,168.745,0.0209653
,,,,,,,,,204,74.6667,0.111313
,,,,,,,,,225,123.409,0.0671328
,,,,,,,,,98,84.4977,0.0832722
,,,,,,,,,113,119.786,0.0928021
,,,,,,,,,129,45.4752,0.0613099
,,,,,,,,,146,119.481,0.0273992
,,,,,,,,,164,88.6513,0.0576607
,,,,,,,,,183,60.8542,0.0477469
,,,,,,,,,203,109.785,0.0207936
,,,,,,,,,224,116.892,0.106638
,,,,,,,,,246,158.346,0.0654033
,,,,,,,,,128,44.305,0.0663357
,,,,,,,,,145,55.4884,0.0485206
,,,,,,,,,163,82.4131,0.0245118
,,,,,,,,,182,28.0274,0.0462063
,,,,,,,,,202,137.516,0.0396149
,,,,,,,,,223,74.2376,0.0190873
,,,,,,,,,245,155.1,0.0731166
,,,,,,,,,268,90.6706,0.0510491
,,,,,,,,,162,99.7653,0.0516086
,,,,,,,,,181,43.2174,0.0252759
,,,,,,,,,201,61.4979,0.0489983
,,,,,,,,,222,133.846,0.0416496
,,,,,,,,,244,87.672,0.0195474
,,,,,,,,,267,110.902,0.0803626
,,,,,,,,,291,67.9939,0.0544787
,,,,,,,,,200,133.333,0.0221737
,,,,,,,,,221,45.8739,0.0385448
,,,,,,,,,243,104.164,0.0338469
,,,,,,,,,266,68.4833,0.017639
,,,,,,,,,290,148.976,0.0556218
,,,,,,,,,315,115.467,0.0418572
,,,,,,,,,242,104.424,0.0216776
,,,,,,,,,265,93.4615,0.0201079
,,,,,,,,,289,122.439,0.0130074
,,,,,,,,,314,75.9905,0.0262018
,,,,,,,,,340,80.5492,0.0226873
,,,,,,,,,288,149.433,0.0327043
,,,,,,,,,313,47.3989,0.0173235
,,,,,,,,,339,150.955,0.0526017
,,,,,,,,,366,77.5868,0.0401236
,,,,,,,,,338,137.828,0.0163063
,,,,,,,,,365,57.2457,0.0442248
,,,,,,,,,393,130.538,0.0350582
,,,,,,,,,392,107.192,0.0200966
,,,,,,,,,421,48.7465,0.0179624
,,,,,,,,,450,73.8291,0.0589701
