facetNormals:0,facetNormals:1,facetNormals:2,FacetCenters:0,FacetCenters:1,FacetCenters:2,FacetIds,relFacetSize,absFacetSize,cellPairingIds,interplanarAngles,angleWeights
-0.000655043,0.205471,-0.966332,6.84291,3.8529,7.91763,1,0.0130399,0.00155353,8,54.4283,0.0228354
-0.31442,-0.595461,-0.707118,6.78041,3.75834,7.93917,2,0.0917805,0.0109344,13,53.5832,0.0238341
0.625155,-0.34671,-0.667926,6.87504,3.77851,7.94671,3,0.138393,0.0164877,19,63.4517,0.0162681
-0.792359,-0.285031,-0.50989,6.82637,3.81219,7.95476,4,0.0216207,0.00257582,26,48.2746,0.0170276
0.302918,0.769826,-0.491171,6.8626,3.88062,7.93994,5,0.0245287,0.00292227,34,96.7766,0.019254
-0.653317,-0.712263,-0.0343348,6.80295,3.72549,8.03216,6,0.0367824,0.00438213,43,98.5842,0.0136977
-0.203411,-0.9672,-0.0544663,6.74423,3.75204,8.00684,7,0.0144255,0.00171861,53,108.264,0.0222143
-0.851613,-0.386295,0.226735,6.75368,3.72327,8.05908,8,0.0749375,0.0089278,64,107.095,0.0233518
0.79756,0.410995,0.379632,6.90092,3.82608,8.04114,9,0.111621,0.0132982,76,137.171,0.0240105
0.356165,-0.685335,0.576814,6.84349,3.71746,8.09076,10,0.151303,0.0180257,18,59.6848,0.110367
,,,,,,,,,25,35.8208,0.0349972
,,,,,,,,,33,102.687,0.0387116
,,,,,,,,,42,46.1832,0.0525176
,,,,,,,,,52,45.4218,0.0249323
,,,,,,,,,63,68.951,0.0825082
,,,,,,,,,75,143.423,0.100733
,,,,,,,,,88,96.8196,0.114254
,,,,,,,,,32,93.3307,0.0373988
,,,,,,,,,41,74.5639,0.0416716
,,,,,,,,,51,98.4198,0.058118
,,,,,,,,,62,75.3728,0.0261276
,,,,,,,,,74,125.742,0.0972277
,,,,,,,,,87,83.8243,0.123574
,,,,,,,,,101,85.4386,0.14456
,,,,,,,,,50,102.749,0.0229831
,,,,,,,,,61,39.1614,0.0272335
,,,,,,,,,73,61.5219,0.017305
,,,,,,,,,86,45.0436,0.0335591
,,,,,,,,,100,169.396,0.0362248
,,,,,,,,,115,113.671,0.0378349
,,,,,,,,,72,141.615,0.0294311
,,,,,,,,,85,144.929,0.0181669
,,,,,,,,,99,136.07,0.0369597
,,,,,,,,,114,66.6485,0.0402193
,,,,,,,,,130,139.289,0.0422139
,,,,,,,,,98,30.6394,0.0207235
,,,,,,,,,113,27.727,0.0493445
,,,,,,,,,129,151.348,0.0553315
,,,,,,,,,146,75.359,0.0591782
,,,,,,,,,128,55.8627,0.0241937
,,,,,,,,,145,127.004,0.0255491
,,,,,,,,,163,54.1389,0.0263397
,,,,,,,,,162,143.329,0.0896727
,,,,,,,,,181,84.2947,0.100232
,,,,,,,,,200,76.3662,0.128467
