"cellPairingIds","interplanarAngles","angleWeights"
8,39.6103,0.0518306
13,35.4394,0.0731114
43,87.0201,0.089021
18,70.917,0.0533476
25,36.6111,0.0512762
52,105.606,0.0613476
63,101.378,0.0561555
102,154.417,0.0364532
32,51.185,0.0720132
41,37.6187,0.0916367
51,60.5705,0.040537
62,91.3424,0.093592
50,70.8628,0.0856907
86,73.2862,0.0772259
72,58.5249,0.0445388
99,68.0449,0.100247
114,57.2429,0.0529005
130,49.9602,0.0816448
98,43.3211,0.0449957
129,43.9311,0.0306189
145,70.1225,0.0535463
182,51.1027,0.0516207
181,39.8637,0.0739244
201,102.974,0.0478945
200,43.7959,0.0445327
221,36.6701,0.0335488
242,70.296,0.0431927
