"cellPairingIds","interplanarAngles","angleWeights"
42,45.7261,0.0802525
52,98.8232,0.0195999
63,156.526,0.0625163
75,158.01,0.03951
98,94.0997,0.0185107
113,139.194,0.0526375
129,155.514,0.0353206
145,78.6147,0.0149539
162,27.9644,0.0313999
