Q	U	V
{$V$}	{[mm$^3$]}	0.00302561
{$d_v$}	{[mm]}	0.179448
{$S_c$}	{[mm$^2$]}	0.142785
{$S_o$}	{[mm$^2$]}	0.0883793
{$S_l/S_o$}	[]	0.615593
{$\Psi$}	[]	0.708506
{$\eta$}	[]	0.736457
{med($\theta_e$)}	{[$^\circ$]}	59.7801
{$\Upsilon$}	[]	14
{$\Xi$}	[]	7
