facetNormals:0,facetNormals:1,facetNormals:2,FacetCenters:0,FacetCenters:1,FacetCenters:2,FacetIds,relFacetSize,absFacetSize,cellPairingIds,interplanarAngles,angleWeights
-0.400564,-0.0881753,-0.872394,4.69136,5.09538,5.33474,1,0.0958323,0.00867194,8,41.4598,0.0521701
-0.614466,0.492759,-0.575473,4.66419,5.12253,5.35798,2,0.0358407,0.00324325,13,54.5812,0.043084
-0.146215,0.734736,-0.63678,4.73604,5.13946,5.33267,3,0.0277886,0.00251461,19,89.9395,0.111391
-0.0368187,0.953598,-0.0805939,4.76148,5.15466,5.37867,4,0.132982,0.0120336,26,84.6064,0.0423828
-0.476354,0.86616,0.028458,4.68635,5.14347,5.4053,5,0.0272079,0.00246206,34,95.9922,0.124192
-0.537459,-0.671828,0.425397,4.71042,5.05046,5.45762,6,0.176391,0.0159618,43,118.977,0.127331
-0.243144,0.73798,0.545181,4.73645,5.1313,5.46203,7,0.189674,0.0171638,53,151.584,0.0207947
0.736548,-0.14241,0.625441,4.79555,5.07169,5.48827,8,0.0116627,0.00105537,64,165.731,0.0170316
0.376991,0.326736,0.841699,4.79914,5.09386,5.51444,9,0.00934633,0.000845757,76,153.257,0.0219432
0.259031,-0.338222,0.880471,4.79689,5.05734,5.50106,10,0.0123901,0.00112119,18,31.4339,0.0313051
,,,,,,,,,25,54.7711,0.0564635
,,,,,,,,,33,43.2064,0.0309333
,,,,,,,,,42,105.208,0.0595762
,,,,,,,,,52,77.5691,0.0602892
,,,,,,,,,63,157.888,0.0175987
,,,,,,,,,75,125.557,0.0148263
,,,,,,,,,88,150.755,0.0184144
,,,,,,,,,32,36.4577,0.0459708
,,,,,,,,,41,44.9669,0.0274951
,,,,,,,,,51,136.624,0.0480132
,,,,,,,,,62,75.6937,0.0484752
,,,,,,,,,74,129.482,0.0164299
,,,,,,,,,87,111.401,0.013988
,,,,,,,,,101,151.736,0.0171386
,,,,,,,,,50,27.3511,0.0451733
,,,,,,,,,61,135.459,0.151641
,,,,,,,,,73,42.6366,0.156347
,,,,,,,,,86,103.183,0.0214447
,,,,,,,,,100,75.8005,0.0174652
,,,,,,,,,115,115.483,0.0226682
,,,,,,,,,72,109.305,0.0471439
,,,,,,,,,85,34.8256,0.0475893
,,,,,,,,,99,118.199,0.0163269
,,,,,,,,,114,82.4354,0.0139132
,,,,,,,,,130,113.861,0.0170266
,,,,,,,,,98,98.4072,0.182792
,,,,,,,,,113,92.0864,0.0218788
,,,,,,,,,129,93.9122,0.017752
,,,,,,,,,146,60.4803,0.0231539
,,,,,,,,,128,86.4876,0.0219742
,,,,,,,,,145,49.0779,0.0178148
,,,,,,,,,163,79.6103,0.0232608
,,,,,,,,,162,37.5581,0.0103768
,,,,,,,,,181,34.2538,0.0120154
,,,,,,,,,200,40.4534,0.0106551
