Q	U	V
{$V$}	{[mm$^3$]}	0.00495521
{$d_v$}	{[mm]}	0.211521
{$S_c$}	{[mm$^2$]}	0.198995
{$S_o$}	{[mm$^2$]}	0.136007
{$S_l/S_o$}	[]	0.463123
{$\Psi$}	[]	0.706345
{$\eta$}	[]	0.719315
{med($\theta_e$)}	{[$^\circ$]}	75.63235
{$\Upsilon$}	[]	10
{$\Xi$}	[]	9
