facetNormals:0,facetNormals:1,facetNormals:2,FacetCenters:0,FacetCenters:1,FacetCenters:2,FacetIds,relFacetSize,absFacetSize,cellPairingIds,interplanarAngles,angleWeights
-0.0580491,0.150246,-0.958947,6.21632,6.194,6.89336,1,0.0579393,0.00612323,8,37.3118,0.0498649
0.250676,0.617211,-0.694732,6.21611,6.17302,6.94445,2,0.0437657,0.00462531,13,66.6716,0.0601963
0.193275,-0.804474,-0.532923,6.24548,6.12593,6.93091,3,0.0626363,0.00661963,19,62.1241,0.0216835
0.494543,0.774089,-0.379944,6.22417,6.19621,6.93296,4,0.0133375,0.00140955,26,64.0232,0.0673957
-0.555923,0.716763,-0.275033,6.19166,6.08417,7.11347,5,0.080541,0.00851185,34,95.7882,0.0537726
-0.11616,-0.971094,-0.0449955,6.22086,6.10001,7.01983,6,0.050165,0.00530161,43,102.294,0.0717948
0.931362,-0.281182,0.110991,6.2604,6.1347,7.01577,7,0.0943599,0.00997229,53,91.5205,0.0924833
0.695189,0.669219,0.0888425,6.24844,6.20064,6.98626,8,0.229038,0.0242055,64,117.313,0.0689034
0.440593,-0.795227,0.293175,6.19819,6.09875,7.10216,9,0.0849855,0.00898157,76,107.531,0.0258464
-0.0262687,0.877026,0.438614,6.20713,6.10603,7.05673,10,0.0166332,0.00175785,89,137.103,0.0619501
0.617474,0.20694,0.71158,6.23499,6.16627,7.08246,11,0.0665574,0.00703402,103,133.068,0.022245
-0.283753,0.523313,0.776856,6.22469,6.10315,6.9513,12,0.0137649,0.00145472,18,94.7136,0.0515277
,,,,,,,,,25,25.204,0.0204446
,,,,,,,,,33,57.208,0.0567135
,,,,,,,,,42,129.328,0.0467474
,,,,,,,,,52,91.0449,0.0597967
,,,,,,,,,63,55.7011,0.0734888
,,,,,,,,,75,129.438,0.0577773
,,,,,,,,,88,75.9006,0.0241052
,,,,,,,,,102,103.19,0.0528073
,,,,,,,,,117,107.792,0.020943
,,,,,,,,,32,109.383,0.0219921
,,,,,,,,,41,125.183,0.0704692
,,,,,,,,,51,35.6712,0.0557112
,,,,,,,,,62,68.8907,0.075293
,,,,,,,,,74,118.247,0.0983706
,,,,,,,,,87,52.7784,0.0721192
,,,,,,,,,101,168.022,0.026286
,,,,,,,,,116,116.687,0.0645374
,,,,,,,,,132,157.494,0.0225699
,,,,,,,,,50,65.9221,0.0228852
,,,,,,,,,61,144.474,0.0210724
,,,,,,,,,73,78.0967,0.0233715
,,,,,,,,,86,30.7227,0.0252071
,,,,,,,,,100,122.42,0.0230565
,,,,,,,,,115,59.2028,0.0148041
,,,,,,,,,131,78.2541,0.0222219
,,,,,,,,,148,91.7905,0.0135478
,,,,,,,,,72,131.845,0.0618233
,,,,,,,,,85,143.89,0.0869045
,,,,,,,,,99,85.7065,0.119174
,,,,,,,,,114,171.534,0.0827036
,,,,,,,,,130,55.8025,0.0275722
,,,,,,,,,147,115.294,0.0728846
,,,,,,,,,165,69.8758,0.0235116
,,,,,,,,,98,80.4003,0.0655051
,,,,,,,,,113,140.743,0.0823034
,,,,,,,,,129,40.808,0.0630896
,,,,,,,,,146,154.712,0.0249828
,,,,,,,,,164,108.823,0.0572101
,,,,,,,,,183,122.17,0.0216023
,,,,,,,,,128,60.3672,0.133656
,,,,,,,,,145,44.5564,0.0894277
,,,,,,,,,163,103.387,0.0282811
,,,,,,,,,182,50.8848,0.0780569
,,,,,,,,,202,109.836,0.0240251
,,,,,,,,,162,102.468,0.123971
,,,,,,,,,181,50.2659,0.031014
,,,,,,,,,201,47.5437,0.103142
,,,,,,,,,222,76.4649,0.0259691
,,,,,,,,,200,128.274,0.0278212
,,,,,,,,,221,69.9359,0.074651
,,,,,,,,,243,109.587,0.0236924
,,,,,,,,,242,59.7007,0.0266151
,,,,,,,,,265,32.7825,0.0150637
,,,,,,,,,288,59.0247,0.022812
