"cellPairingIds","interplanarAngles","angleWeights"
13,52.9508,0.0532982
19,61.5128,0.0599231
43,79.349,0.0310035
53,57.5634,0.0402322
76,71.3711,0.0548245
32,42.0981,0.0654157
41,32.8351,0.0174907
51,32.2424,0.025432
62,82.1092,0.0324115
61,26.5244,0.0268483
100,79.3167,0.053867
115,112.533,0.0677299
185,105.162,0.06424
72,52.8027,0.012637
85,57.1926,0.0141512
165,103.47,0.0181215
183,154.31,0.0267879
224,120.14,0.0252523
246,139.928,0.0198746
128,56.095,0.0270661
202,49.4531,0.0346465
181,34.9525,0.0436069
201,49.8898,0.0521999
222,53.9257,0.0465892
200,42.8935,0.0497112
266,50.9264,0.0359223
290,42.793,0.047805
242,43.2932,0.0797356
289,30.4554,0.0416005
288,25.3572,0.0903058
313,25.7791,0.0493507
366,38.3269,0.0415651
393,56.727,0.0379281
392,37.929,0.0402572
421,28.3244,0.0281252
450,25.0696,0.0349214
