Q	U	V
{$V$}	{[mm$^3$]}	0.00135844
{$d_v$}	{[mm]}	0.137409
{$S_c$}	{[mm$^2$]}	0.112148
{$S_o$}	{[mm$^2$]}	0.0608309
{$S_l/S_o$}	[]	0.843603
{$\Psi$}	[]	0.528915
{$\eta$}	[]	0.571242
{med($\theta_e$)}	{[$^\circ$]}	74.9477
{$\Upsilon$}	[]	13
{$\Xi$}	[]	7
