Q	U	V
{$V$}	{[mm$^3$]}	0.0172928
{$d_v$}	{[mm]}	0.320840
{$S_c$}	{[mm$^2$]}	0.542482
{$S_o$}	{[mm$^2$]}	0.382791
{$S_l/S_o$}	[]	0.417175
{$\Psi$}	[]	0.596132
{$\eta$}	[]	0.633584
{med($\theta_e$)}	{[$^\circ$]}	80.7881
{$\Upsilon$}	[]	7
{$\Xi$}	[]	12
