"cellPairingIds","interplanarAngles","angleWeights"
19,62.0071,0.0114556
26,119.856,0.0457036
43,107.158,0.0413365
64,120.168,0.0516918
73,108.445,0.012757
100,118.934,0.0135977
131,122.527,0.0131887
85,44.5342,0.0770728
114,84.5536,0.123025
147,47.5539,0.0960687
182,55.7807,0.0786112
221,73.7049,0.126992
