"cellPairingIds","interplanarAngles","angleWeights"
8,58.7056,0.104528
26,48.7713,0.0623054
34,132.538,0.033193
43,134.553,0.0354444
53,119.016,0.106322
33,85.6,0.0781408
42,82.8974,0.0372103
72,161.75,0.0299783
99,106.09,0.0791386
130,136.802,0.0626032
98,31.2837,0.021968
146,44.4663,0.0332774
128,59.6534,0.0403237
163,38.5977,0.0355405
181,57.048,0.107192
