facetNormals:0,facetNormals:1,facetNormals:2,FacetCenters:0,FacetCenters:1,FacetCenters:2,FacetIds,relFacetSize,absFacetSize,cellPairingIds,interplanarAngles,angleWeights
-0.123029,0.181813,-0.89285,3.5956,3.32621,6.13329,1,0.132808,0.0474408,8,55.205,0.152637
0.18285,-0.605724,-0.705363,3.62178,3.22181,6.12381,2,0.179427,0.0640938,13,50.2311,0.0267862
0.000819375,0.860954,-0.471388,3.6011,3.36846,6.1321,3,0.0148952,0.00532079,19,74.8777,0.122187
-0.906975,0.00922781,-0.118902,3.49531,3.27704,6.17415,4,0.11314,0.0404151,26,59.0078,0.0752784
-0.689626,0.61722,-0.294246,3.50895,3.36246,6.16272,5,0.0525255,0.0187629,34,99.2574,0.0816241
0.839544,-0.46419,-0.0510598,3.6954,3.30593,6.1609,6,0.0589175,0.0210462,43,100.166,0.0527397
0.522402,-0.826952,-0.0622363,3.67787,3.2177,6.19588,7,0.0329029,0.0117534,53,93.4062,0.0228783
-0.841098,-0.51582,0.0713861,3.51616,3.25302,6.20571,8,0.0125173,0.00447136,64,92.8334,0.0350159
-0.734992,0.599767,0.273668,3.72584,3.30859,6.17032,9,0.0201665,0.00720377,76,115.568,0.0368147
-0.3527,0.666445,0.617433,3.61762,3.33744,6.22514,10,0.0213692,0.00763337,89,146.44,0.0605915
0.559962,-0.386168,0.653863,3.65912,3.24247,6.24836,11,0.0392491,0.0140204,103,137.615,0.094809
-0.414282,-0.526158,0.671053,3.51733,3.21964,6.23668,12,0.0737172,0.0263328,118,169.925,0.0353182
-0.0120501,-0.291188,0.946088,3.53561,3.24193,6.28597,13,0.0203673,0.00727548,134,155.774,0.0820994
0.18393,0.20906,0.918993,3.58919,3.28779,6.26747,14,0.059414,0.0212235,18,101.715,0.027507
,,,,,,,,,25,95.7976,0.138774
,,,,,,,,,33,108.528,0.0812622
,,,,,,,,,42,58.8637,0.0887068
,,,,,,,,,52,46.4118,0.0556085
,,,,,,,,,63,83.3657,0.023402
,,,,,,,,,75,137.587,0.0362579
,,,,,,,,,88,168.123,0.03819
,,,,,,,,,102,98.0313,0.064409
,,,,,,,,,117,104.86,0.104501
,,,,,,,,,133,121.717,0.036582
,,,,,,,,,150,144.55,0.0892684
,,,,,,,,,32,85.9606,0.0263247
,,,,,,,,,41,45.3813,0.0232089
,,,,,,,,,51,113.426,0.0237788
,,,,,,,,,62,135.164,0.0205069
,,,,,,,,,74,119.52,0.0136031
,,,,,,,,,87,66.4788,0.0171346
,,,,,,,,,101,72.827,0.0175543
,,,,,,,,,116,133.735,0.0215951
,,,,,,,,,132,145.802,0.0247829
,,,,,,,,,149,135.805,0.0172067
,,,,,,,,,167,105.574,0.023819
,,,,,,,,,50,41.4228,0.0717437
,,,,,,,,,61,149.815,0.0774848
,,,,,,,,,73,121.918,0.05098
,,,,,,,,,86,34.071,0.0225408
,,,,,,,,,100,44.9139,0.0342315
,,,,,,,,,115,73.5387,0.0359486
,,,,,,,,,131,133.049,0.0582803
,,,,,,,,,148,70.3875,0.0892699
,,,,,,,,,166,96.6103,0.0345202
,,,,,,,,,185,108.186,0.077913
,,,,,,,,,72,155.722,0.0555382
,,,,,,,,,85,153.572,0.0404606
,,,,,,,,,99,75.4925,0.0202168
,,,,,,,,,114,33.8272,0.0291437
,,,,,,,,,130,60.0226,0.0303791
,,,,,,,,,147,153.068,0.044927
,,,,,,,,,165,104.885,0.0613427
,,,,,,,,,184,117.896,0.0293527
,,,,,,,,,204,106.715,0.0557578
,,,,,,,,,98,28.736,0.042225
,,,,,,,,,113,119.664,0.0206479
,,,,,,,,,129,163.496,0.0300481
,,,,,,,,,146,132.872,0.0313631
,,,,,,,,,164,47.1894,0.047113
,,,,,,,,,183,98.7045,0.0654917
,,,,,,,,,203,85.3715,0.0302703
,,,,,,,,,224,89.3509,0.0591648
,,,,,,,,,128,91.0209,0.0181353
,,,,,,,,,145,157.958,0.0250064
,,,,,,,,,163,144.106,0.0259105
,,,,,,,,,182,51.8553,0.0357969
,,,,,,,,,202,79.0236,0.0454982
,,,,,,,,,223,79.5718,0.0251601
,,,,,,,,,245,98.1849,0.0423518
,,,,,,,,,162,70.3549,0.0154468
,,,,,,,,,181,90.1803,0.0157871
,,,,,,,,,201,103.956,0.0189812
,,,,,,,,,222,44.6013,0.0214007
,,,,,,,,,244,76.5447,0.0155053
,,,,,,,,,267,101.965,0.0206781
,,,,,,,,,200,30.6358,0.0207504
,,,,,,,,,221,119.89,0.0266434
,,,,,,,,,243,79.3761,0.0316694
,,,,,,,,,266,84.5327,0.0202664
,,,,,,,,,290,75.2304,0.0301122
,,,,,,,,,242,93.1884,0.0276722
,,,,,,,,,265,76.8756,0.0331335
,,,,,,,,,289,65.8748,0.0208562
,,,,,,,,,314,46.6945,0.031433
,,,,,,,,,288,62.7201,0.0512248
,,,,,,,,,313,39.1532,0.026818
,,,,,,,,,339,46.5436,0.0472709
,,,,,,,,,338,32.325,0.0319164
,,,,,,,,,365,61.7783,0.0657973
,,,,,,,,,392,31.9781,0.0303355
