Q	U	V
{$V$}	{[mm$^3$]}	0.00294605
{$d_v$}	{[mm]}	0.177861
{$S_c$}	{[mm$^2$]}	0.18353
{$S_o$}	{[mm$^2$]}	0.106801
{$S_l/S_o$}	[]	0.718430
{$\Psi$}	[]	0.541507
{$\eta$}	[]	0.561843
{med($\theta_e$)}	{[$^\circ$]}	84.3418
{$\Upsilon$}	[]	13
{$\Xi$}	[]	7
