facetNormals:0,facetNormals:1,facetNormals:2,FacetCenters:0,FacetCenters:1,FacetCenters:2,FacetIds,relFacetSize,absFacetSize,cellPairingIds,interplanarAngles,angleWeights
0.129279,0.180692,-0.96006,4.54137,5.02526,7.28598,1,0.0135883,0.000747716,8,26.6943,0.0226454
0.407947,-0.171693,-0.883814,4.58469,4.99649,7.30568,2,0.0679095,0.00373683,13,45.181,0.0239134
0.453994,-0.469717,-0.743124,4.60683,4.95335,7.33469,3,0.0995803,0.00547956,19,69.1323,0.00838618
-0.167838,-0.814448,-0.538013,4.55125,4.929,7.34002,4,0.00606447,0.000333707,26,78.6503,0.0236985
0.247598,-0.871077,-0.324949,4.59377,4.92094,7.36801,5,0.0925851,0.00509464,34,77.4994,0.00966325
-0.666776,-0.597907,-0.422302,4.55421,4.94552,7.37029,6,0.00749755,0.000412564,43,51.1058,0.0244197
0.662601,0.555784,-0.428082,4.62724,5.02828,7.35528,7,0.120364,0.00662321,53,54.6966,0.0218461
0.292868,0.858572,-0.383087,4.57122,5.04824,7.32196,8,0.055689,0.00306438,64,67.9863,0.0220411
0.942263,-0.0401282,-0.256722,4.66293,4.97789,7.38001,9,0.0583199,0.00320914,76,104.429,0.00843163
0.473162,-0.85609,0.155927,4.63116,4.91905,7.40173,10,0.00611213,0.000336329,89,94.3096,0.00849973
0.961797,0.162544,0.237541,4.66786,4.99475,7.41412,11,0.00618396,0.000340282,103,93.2319,0.018464
0.069754,0.948626,0.244768,4.59162,5.04556,7.39612,12,0.0287966,0.00158458,118,128.611,0.0165453
-0.803429,0.0883691,0.526204,4.59243,4.93487,7.41389,13,0.0211474,0.00116367,134,109.44,0.0114451
0.241085,0.814763,0.527459,4.59183,5.02868,7.41467,14,0.00988585,0.000543984,151,112.732,0.00894652
-0.148799,0.82937,0.531108,4.6116,5.03809,7.41747,15,0.00666854,0.000366947,169,119.642,0.0186421
-0.442245,0.670886,0.565519,4.6085,5.02769,7.40926,16,0.0296814,0.00163326,188,149.846,0.0100886
-0.441971,-0.498558,0.712273,4.59544,4.93497,7.42175,17,0.00802238,0.000441444,208,132.231,0.0194264
0.100181,0.561133,0.792635,4.61195,5.01155,7.43742,18,0.0340602,0.00187422,229,135.99,0.0212622
0.439269,-0.556669,0.679317,4.62842,4.94186,7.42436,19,0.0488497,0.00268803,251,131.938,0.0223151
0.615942,0.0137157,0.752868,4.64052,4.98667,7.43776,20,0.0623734,0.00343219,18,19.3713,0.0807506
,,,,,,,,,25,56.0405,0.0111346
,,,,,,,,,33,55.5654,0.0783504
,,,,,,,,,42,77.9763,0.0135042
,,,,,,,,,52,54.5492,0.0868296
,,,,,,,,,63,71.3885,0.0611951
,,,,,,,,,75,50.2199,0.0627504
,,,,,,,,,88,78.0812,0.0112149
,,,,,,,,,102,81.0423,0.0113357
,,,,,,,,,117,111.179,0.0404434
,,,,,,,,,133,147.947,0.0322515
,,,,,,,,,150,120.904,0.0172592
,,,,,,,,,168,133.084,0.0121445
,,,,,,,,,187,144.982,0.0413081
,,,,,,,,,207,138.697,0.0143496
,,,,,,,,,228,141.574,0.0453666
,,,,,,,,,250,109.601,0.0568239
,,,,,,,,,273,115.666,0.0650238
,,,,,,,,,32,43.8951,0.0114327
,,,,,,,,,41,36.7208,0.0959554
,,,,,,,,,51,72.6621,0.0139452
,,,,,,,,,62,67.9867,0.10899
,,,,,,,,,74,89.1557,0.0714311
,,,,,,,,,87,48.7696,0.0735593
,,,,,,,,,101,59.2516,0.0115173
,,,,,,,,,116,79.3382,0.0116448
,,,,,,,,,132,127.814,0.0446743
,,,,,,,,,149,146.668,0.0348862
,,,,,,,,,167,132.242,0.0179861
,,,,,,,,,186,149.807,0.0125
,,,,,,,,,206,164.348,0.0457317
,,,,,,,,,227,120.914,0.0148485
,,,,,,,,,249,146.671,0.050759
,,,,,,,,,272,92.5905,0.0655456
,,,,,,,,,296,107.303,0.0767029
,,,,,,,,,50,27.8271,0.0113833
,,,,,,,,,61,32.6113,0.00670529
,,,,,,,,,73,110.426,0.0115471
,,,,,,,,,86,123.783,0.0109378
,,,,,,,,,100,89.251,0.0109865
,,,,,,,,,115,57.0255,0.0060882
,,,,,,,,,131,115.088,0.00612363
,,,,,,,,,148,160.328,0.010019
,,,,,,,,,166,103.33,0.00942587
,,,,,,,,,185,175.775,0.00751739
,,,,,,,,,205,161.634,0.00635218
,,,,,,,,,226,142.923,0.0100712
,,,,,,,,,248,84.2359,0.00690736
,,,,,,,,,271,158.596,0.0102958
,,,,,,,,,295,89.1652,0.0107895
,,,,,,,,,320,122.635,0.0110542
,,,,,,,,,72,58.8382,0.0138718
,,,,,,,,,85,101.24,0.104663
,,,,,,,,,99,125.553,0.0695465
,,,,,,,,,114,68.0396,0.0715623
,,,,,,,,,130,31.539,0.0114672
,,,,,,,,,147,88.8514,0.0115936
,,,,,,,,,165,160.109,0.0439297
,,,,,,,,,184,118.79,0.0344305
,,,,,,,,,204,148.616,0.0178642
,,,,,,,,,225,166.513,0.012441
,,,,,,,,,247,158.183,0.0449518
,,,,,,,,,270,84.2877,0.0147654
,,,,,,,,,294,140.189,0.0498
,,,,,,,,,319,66.752,0.0639553
,,,,,,,,,345,96.3848,0.0745341
,,,,,,,,,98,128.387,0.0141158
,,,,,,,,,113,124.114,0.0132158
,,,,,,,,,129,120.821,0.0132869
,,,,,,,,,146,82.3522,0.00673432
,,,,,,,,,164,147.545,0.00677769
,,,,,,,,,183,137.505,0.0118975
,,,,,,,,,203,74.1606,0.0110703
,,,,,,,,,224,151.549,0.00852764
,,,,,,,,,246,129.023,0.00705879
,,,,,,,,,269,110.773,0.0119712
,,,,,,,,,293,72.4007,0.00775109
,,,,,,,,,318,139.678,0.0122898
,,,,,,,,,344,104.712,0.0129999
,,,,,,,,,371,139.902,0.013386
,,,,,,,,,128,28.4819,0.076147
,,,,,,,,,145,40.9913,0.0785702
,,,,,,,,,163,103.864,0.0116335
,,,,,,,,,182,49.7512,0.0117635
,,,,,,,,,202,60.3638,0.0464743
,,,,,,,,,223,139.575,0.0359743
,,,,,,,,,245,66.373,0.018271
,,,,,,,,,268,81.9258,0.012637
,,,,,,,,,292,99.853,0.0476198
,,,,,,,,,317,158.365,0.0150422
,,,,,,,,,343,87.6314,0.0530956
,,,,,,,,,370,109.04,0.0694949
,,,,,,,,,398,84.2864,0.0821671
,,,,,,,,,162,69.3233,0.0569741
,,,,,,,,,181,132.28,0.0110153
,,,,,,,,,201,70.4856,0.0111318
,,,,,,,,,222,39.9786,0.0379628
,,,,,,,,,244,112.341,0.0306542
,,,,,,,,,267,54.7714,0.016791
,,,,,,,,,291,61.697,0.0119108
,,,,,,,,,316,76.2584,0.0387236
,,,,,,,,,342,149.835,0.0140244
,,,,,,,,,369,77.5377,0.0422684
,,,,,,,,,397,129.075,0.0520457
,,,,,,,,,426,95.7664,0.058842
,,,,,,,,,200,62.9576,0.0110646
,,,,,,,,,221,31.2671,0.0111822
,,,,,,,,,243,92.0999,0.0385556
,,,,,,,,,266,161.826,0.0310396
,,,,,,,,,290,86.5362,0.016906
,,,,,,,,,315,108.557,0.0119686
,,,,,,,,,341,127.813,0.0393407
,,,,,,,,,368,127.422,0.0141046
,,,,,,,,,396,97.9271,0.0430047
,,,,,,,,,425,74.1686,0.0531664
,,,,,,,,,455,66.0133,0.0602786
,,,,,,,,,242,69.209,0.00614783
,,,,,,,,,265,139.607,0.0100839
,,,,,,,,,289,113.032,0.00948333
,,,,,,,,,314,120.395,0.0075539
,,,,,,,,,340,135,0.00637822
,,,,,,,,,367,135.604,0.0101368
,,,,,,,,,395,70.1045,0.00693817
,,,,,,,,,424,108.659,0.0103644
,,,,,,,,,454,35.655,0.0108648
,,,,,,,,,485,65.6632,0.0111333
,,,,,,,,,288,73.538,0.0101815
,,,,,,,,,313,130.854,0.00956957
,,,,,,,,,339,60.8146,0.00760851
,,,,,,,,,366,83.2314,0.00641711
,,,,,,,,,394,100.63,0.0102354
,,,,,,,,,423,110.127,0.00698422
,,,,,,,,,453,67.4522,0.0104674
,,,,,,,,,484,59.9706,0.0109782
,,,,,,,,,516,37.6305,0.0112523
,,,,,,,,,338,80.4853,0.0243862
,,,,,,,,,365,20.7038,0.0147188
,,,,,,,,,393,22.1028,0.0108293
,,,,,,,,,422,39.5637,0.0292323
,,,,,,,,,452,110.115,0.0125488
,,,,,,,,,483,40.1169,0.031208
,,,,,,,,,515,110.081,0.0362336
,,,,,,,,,548,75.4368,0.039402
,,,,,,,,,392,80.7011,0.0134733
,,,,,,,,,421,60.5499,0.0101397
,,,,,,,,,451,41.2796,0.024698
,,,,,,,,,482,43.1887,0.0116321
,,,,,,,,,514,65.7869,0.0260937
,,,,,,,,,547,92.7024,0.0295168
,,,,,,,,,581,95.9642,0.0315858
,,,,,,,,,450,22.5428,0.00796456
,,,,,,,,,481,41.2969,0.0148317
,,,,,,,,,513,98.0781,0.00885716
,,,,,,,,,546,22.902,0.015324
,,,,,,,,,580,89.3781,0.0164439
,,,,,,,,,615,55.0905,0.0170667
,,,,,,,,,512,19.4965,0.0108903
,,,,,,,,,545,88.1967,0.00728308
,,,,,,,,,579,26.3419,0.0111534
,,,,,,,,,614,99.7867,0.0117351
,,,,,,,,,650,70.7424,0.0120489
,,,,,,,,,578,74.0226,0.0126309
,,,,,,,,,613,35.5603,0.0317204
,,,,,,,,,649,100.967,0.0369262
,,,,,,,,,686,80.2082,0.0402223
,,,,,,,,,648,75.3679,0.0129861
,,,,,,,,,685,53.6816,0.0137815
,,,,,,,,,723,74.2728,0.0142163
,,,,,,,,,722,73.6372,0.0401359
,,,,,,,,,761,45.4623,0.0440604
,,,,,,,,,800,35.8458,0.0547894
