Q	U	V
{$V$}	{[mm$^3$]}	0.0051737
{$d_v$}	{[mm]}	0.214586
{$S_c$}	{[mm$^2$]}	0.260356
{$S_o$}	{[mm$^2$]}	0.161719
{$S_l/S_o$}	[]	0.609928
{$\Psi$}	[]	0.555628
{$\eta$}	[]	0.652414
{med($\theta_e$)}	{[$^\circ$]}	69.97535
{$\Upsilon$}	[]	13
{$\Xi$}	[]	8
