Q	U	V
{$V$}	{[mm$^3$]}	0.00306124
{$d_v$}	{[mm]}	0.180149
{$S_c$}	{[mm$^2$]}	0.240035
{$S_o$}	{[mm$^2$]}	0.12986
{$S_l/S_o$}	[]	0.848414
{$\Psi$}	[]	0.424758
{$\eta$}	[]	0.447860
{med($\theta_e$)}	{[$^\circ$]}	
{$\Upsilon$}	[]	12
{$\Xi$}	[]	7
