facetNormals:0,facetNormals:1,facetNormals:2,FacetCenters:0,FacetCenters:1,FacetCenters:2,FacetIds,relFacetSize,absFacetSize,cellPairingIds,interplanarAngles,angleWeights
0.0211964,0.706824,-0.624391,3.60391,4.81033,4.23191,1,0.127592,0.0458907,8,96.0757,0.100284
0.0421952,-0.69046,-0.630509,3.66426,4.71715,4.29623,2,0.082605,0.0297103,13,69.8831,0.0377221
0.860421,0.0166366,-0.4587,3.70738,4.76395,4.25371,3,0.0221328,0.00796044,19,94.0661,0.0618312
0.695489,-0.52067,-0.46046,3.6242,4.69809,4.22532,4,0.0408019,0.0146751,26,43.6171,0.0419431
-0.604018,0.704563,-0.284692,3.60812,4.83368,4.29685,5,0.0250965,0.0090264,34,83.6728,0.123951
-0.925284,-0.0632423,-0.263539,3.48866,4.73423,4.2638,6,0.120511,0.0433439,43,46.2332,0.103022
0.573796,0.752367,-0.12648,3.70811,4.82859,4.31753,7,0.0863873,0.0310707,53,125.199,0.0312005
0.549282,-0.810929,-0.0454529,3.62966,4.66871,4.31916,8,0.0177733,0.00639249,64,138.705,0.0609378
-0.219295,-0.932548,0.0246854,3.57528,4.65665,4.30251,9,0.0400274,0.0143966,76,127.477,0.0610139
-0.769838,-0.465264,0.327009,3.6614,4.75848,4.38141,10,0.0400932,0.0144202,89,155.772,0.0821401
0.365953,-0.618334,0.619945,3.59501,4.68016,4.37704,11,0.0605651,0.0217833,103,96.2732,0.110389
-0.36395,0.524666,0.743355,3.59696,4.79552,4.42078,12,0.0972745,0.0349865,18,69.8764,0.0349115
,,,,,,,,,25,42.4411,0.0546232
,,,,,,,,,33,111.464,0.0384971
,,,,,,,,,42,79.0908,0.098021
,,,,,,,,,52,117.713,0.0844538
,,,,,,,,,63,48.1955,0.0292527
,,,,,,,,,75,46.3547,0.0539248
,,,,,,,,,88,84.7108,0.0539844
,,,,,,,,,102,86.6764,0.0698886
,,,,,,,,,117,157.323,0.0893416
,,,,,,,,,32,33.3519,0.0286983
,,,,,,,,,41,113.495,0.0235217
,,,,,,,,,51,135.995,0.0373973
,,,,,,,,,62,52.6922,0.0352375
,,,,,,,,,74,59.8697,0.0197149
,,,,,,,,,87,103.334,0.0285044
,,,,,,,,,101,151.483,0.028521
,,,,,,,,,116,88.7482,0.0324186
,,,,,,,,,132,132.482,0.0360607
,,,,,,,,,50,133.402,0.0310777
,,,,,,,,,61,121.069,0.0609633
,,,,,,,,,73,85.9941,0.0554256
,,,,,,,,,86,31.1405,0.0247608
,,,,,,,,,100,70.0396,0.040411
,,,,,,,,,115,118.133,0.0404444
,,,,,,,,,131,71.8286,0.0487569
,,,,,,,,,148,154.347,0.0574897
,,,,,,,,,72,50.9717,0.0415419
,,,,,,,,,85,76.2971,0.0388939
,,,,,,,,,99,159.273,0.0208094
,,,,,,,,,114,124.853,0.0308504
,,,,,,,,,130,87.2799,0.0308699
,,,,,,,,,147,154.75,0.0354878
,,,,,,,,,165,66.5951,0.0398992
,,,,,,,,,98,126.322,0.100635
,,,,,,,,,113,118.08,0.030978
,,,,,,,,,129,73.9546,0.0600946
,,,,,,,,,146,44.7323,0.0601687
,,,,,,,,,164,120.391,0.0806155
,,,,,,,,,183,83.4563,0.107653
,,,,,,,,,128,107.997,0.0294812
,,,,,,,,,145,155.219,0.0547066
,,,,,,,,,163,155.763,0.054768
,,,,,,,,,182,111.61,0.0712075
,,,,,,,,,202,84.363,0.0915082
,,,,,,,,,162,47.5118,0.0246163
,,,,,,,,,181,93.6917,0.0246287
,,,,,,,,,201,43.5622,0.0274819
,,,,,,,,,222,133.316,0.0300552
,,,,,,,,,200,48.2476,0.0400603
,,,,,,,,,221,55.7615,0.0481997
,,,,,,,,,243,114.613,0.0567166
,,,,,,,,,242,76.7169,0.0482473
,,,,,,,,,265,72.6844,0.0567825
,,,,,,,,,288,89.8009,0.074651
