Q	U	V
{$V$}	{[mm$^3$]}	0.0031598
{$d_v$}	{[mm]}	0.182062
{$S_c$}	{[mm$^2$]}	0.199849
{$S_o$}	{[mm$^2$]}	0.108718
{$S_l/S_o$}	[]	0.838233
{$\Psi$}	[]	0.521061
{$\eta$}	[]	0.542254
{med($\theta_e$)}	{[$^\circ$]}	90.3631
{$\Upsilon$}	[]	12
{$\Xi$}	[]	11
