facetNormals:0,facetNormals:1,facetNormals:2,FacetCenters:0,FacetCenters:1,FacetCenters:2,FacetIds,relFacetSize,absFacetSize,cellPairingIds,interplanarAngles,angleWeights
-0.176538,-0.291135,-0.89926,3.92468,4.71769,4.59717,1,0.0921455,0.0173876,8,53.5353,0.052926
0.606899,-0.517589,-0.577313,3.89652,4.75701,4.67313,2,0.0371247,0.00700533,13,86.3056,0.0768166
0.918688,0.0333562,-0.256917,3.91871,4.81543,4.67207,3,0.0658603,0.0124277,19,64.6482,0.0819696
-0.292438,-0.916668,-0.0881905,3.901,4.67187,4.67089,4,0.0738176,0.0139292,26,79.6198,0.0908739
0.710611,-0.659833,-0.113996,3.93915,4.73225,4.66242,5,0.089637,0.0169142,34,107.221,0.102855
-0.793,0.457471,0.313948,3.90236,4.76986,4.67695,6,0.116381,0.0219607,43,117.714,0.0634658
0.72794,-0.438889,0.486119,4.02839,4.71223,4.72461,7,0.0484012,0.00913317,53,116.857,0.0916246
0.106185,-0.691928,0.671884,3.97675,4.69447,4.74291,8,0.0911096,0.0171921,64,137.921,0.0404095
-0.490331,0.431752,0.739775,3.93348,4.77085,4.70963,9,0.0258793,0.00488335,76,168.85,0.0309383
0.361503,0.258404,0.873744,3.95081,4.6903,4.61941,10,0.01859,0.00350787,89,157.387,0.0425611
-0.0865269,0.0258959,0.981909,3.91713,4.71992,4.64378,11,0.0276711,0.00522145,18,42.8891,0.0474835
,,,,,,,,,25,68.5512,0.0494033
,,,,,,,,,33,29.2756,0.052504
,,,,,,,,,42,160.68,0.0562925
,,,,,,,,,52,66.2502,0.0420196
,,,,,,,,,63,87.9191,0.0527537
,,,,,,,,,75,167.328,0.0304984
,,,,,,,,,88,115.714,0.0247744
,,,,,,,,,102,130.673,0.0317082
,,,,,,,,,32,107.451,0.0696123
,,,,,,,,,41,44.9048,0.0759308
,,,,,,,,,51,149.249,0.0841179
,,,,,,,,,62,55.5135,0.0557969
,,,,,,,,,74,96.0832,0.0764542
,,,,,,,,,87,131.653,0.0371577
,,,,,,,,,101,82.8631,0.0289956
,,,,,,,,,116,110.583,0.0389693
,,,,,,,,,50,64.4365,0.0809618
,,,,,,,,,61,103.3,0.0903367
,,,,,,,,,73,81.0882,0.0584667
,,,,,,,,,86,54.5342,0.0815571
,,,,,,,,,100,109.455,0.0383231
,,,,,,,,,115,116.3,0.0297003
,,,,,,,,,131,95.1203,0.040253
,,,,,,,,,72,162.483,0.101273
,,,,,,,,,85,38.1888,0.06286
,,,,,,,,,99,61.268,0.0903673
,,,,,,,,,114,138.134,0.040163
,,,,,,,,,130,90.7914,0.0307936
,,,,,,,,,147,101.413,0.0422878
,,,,,,,,,98,131.295,0.0683688
,,,,,,,,,113,101.661,0.102206
,,,,,,,,,129,31.021,0.0423429
,,,,,,,,,146,83.594,0.032059
,,,,,,,,,164,65.9626,0.0447114
,,,,,,,,,128,41.8627,0.0632183
,,,,,,,,,145,101.145,0.0337259
,,,,,,,,,163,53.2367,0.0268626
,,,,,,,,,182,65.3324,0.0352116
,,,,,,,,,162,81.2164,0.040309
,,,,,,,,,181,61.992,0.0308793
,,,,,,,,,201,48.6075,0.0424497
,,,,,,,,,200,53.1152,0.0216372
,,,,,,,,,221,36.7286,0.0267452
,,,,,,,,,242,30.4395,0.0222392
