"cellPairingIds","interplanarAngles","angleWeights"
18,45.2343,0.0218433
42,106.627,0.024232
63,130.686,0.0249818
41,110.006,0.0240814
51,150.727,0.0643141
74,169.066,0.0698808
116,149.983,0.0497509
99,68.1787,0.027953
147,63.447,0.0240591
113,31.4336,0.10207
164,50.2601,0.0641549
201,39.8042,0.0696929
