facetNormals:0,facetNormals:1,facetNormals:2,FacetCenters:0,FacetCenters:1,FacetCenters:2,FacetIds,relFacetSize,absFacetSize,cellPairingIds,interplanarAngles,angleWeights
-0.192119,-0.0594982,-0.948146,5.55307,3.98216,5.41764,1,0.0305245,0.00454703,8,38.6171,0.0440819
-0.721097,0.017513,-0.60898,5.55725,3.95687,5.41183,2,0.0793054,0.0118136,13,81.6579,0.0501506
0.898827,0.00216856,-0.323963,5.60792,4.09448,5.3326,3,0.140464,0.020924,19,80.6028,0.0392313
-0.0680574,0.953882,-0.209471,5.551,4.14632,5.29196,4,0.0548875,0.00817622,26,101.241,0.0402094
-0.474545,0.822989,0.23975,5.5271,4.15196,5.34804,5,0.0588961,0.00877336,34,110.428,0.0351877
0.0540069,0.942971,0.281535,5.58734,4.17531,5.3694,6,0.0415326,0.00618683,43,100.98,0.0375626
-0.859761,-0.122531,0.365345,5.5198,4.02954,5.40188,7,0.048819,0.00727224,53,130.478,0.0267235
0.850584,0.166316,0.472165,5.53226,3.90827,5.42228,8,0.0237643,0.00354001,64,137.075,0.0448301
0.568023,-0.461429,0.643122,5.59423,4.03365,5.40196,9,0.084372,0.0125683,76,130.048,0.0437543
-0.433728,0.528261,0.696686,5.53748,4.103,5.40957,10,0.0772248,0.0115037,89,148.262,0.0416922
0.659223,-0.0508285,0.718505,5.57043,3.96483,5.41312,11,0.0657461,0.00979376,18,119.989,0.101375
,,,,,,,,,25,77.9239,0.0648749
,,,,,,,,,33,76.8384,0.0675937
,,,,,,,,,42,102.028,0.0545153
,,,,,,,,,52,63.609,0.0604352
,,,,,,,,,63,164.539,0.0365701
,,,,,,,,,75,151.641,0.0817603
,,,,,,,,,88,96.3723,0.0782513
,,,,,,,,,102,172.474,0.071892
,,,,,,,,,32,89.4635,0.0789317
,,,,,,,,,41,122.46,0.0829934
,,,,,,,,,51,92.4723,0.0641093
,,,,,,,,,62,171.993,0.0724557
,,,,,,,,,74,49.5389,0.040651
,,,,,,,,,87,71.12,0.105421
,,,,,,,,,101,131.215,0.0996588
,,,,,,,,,116,67.3244,0.0895685
,,,,,,,,,50,36.8941,0.0568212
,,,,,,,,,61,29.8528,0.0472851
,,,,,,,,,73,98.4097,0.0516757
,,,,,,,,,86,89.8901,0.033168
,,,,,,,,,100,130.035,0.0665084
,,,,,,,,,115,66.075,0.0641677
,,,,,,,,,131,104.78,0.0598281
,,,,,,,,,72,32.1122,0.0487133
,,,,,,,,,85,64.6835,0.0533862
,,,,,,,,,99,99.1373,0.0338644
,,,,,,,,,114,121.244,0.069369
,,,,,,,,,130,32.3766,0.0668265
,,,,,,,,,147,100.991,0.0621329
,,,,,,,,,98,93.6503,0.044882
,,,,,,,,,113,69.8115,0.0302309
,,,,,,,,,129,103.452,0.0556642
,,,,,,,,,146,45.7802,0.0540151
,,,,,,,,,164,78.6157,0.0509068
,,,,,,,,,128,128.524,0.0319674
,,,,,,,,,145,102.384,0.0618504
,,,,,,,,,163,52.2702,0.0598211
,,,,,,,,,182,108.904,0.0560321
,,,,,,,,,162,42.3996,0.0370836
,,,,,,,,,181,87.1504,0.0363443
,,,,,,,,,201,22.3151,0.0349101
,,,,,,,,,200,92.5357,0.0806403
,,,,,,,,,221,25.3069,0.0739036
,,,,,,,,,242,78.6346,0.0710247
