facetNormals:0,facetNormals:1,facetNormals:2,FacetCenters:0,FacetCenters:1,FacetCenters:2,FacetIds,relFacetSize,absFacetSize,cellPairingIds,interplanarAngles,angleWeights
0.180029,-0.131731,-0.968768,5.09417,3.79236,4.63646,1,0.0204088,0.00337117,8,22.8198,0.029317
-0.210378,-0.0969699,-0.959839,5.04657,3.83077,4.62218,2,0.0520254,0.00859367,13,46.3012,0.0273569
-0.468628,0.267698,-0.818625,5.07291,3.88671,4.65504,3,0.0414781,0.00685145,19,31.0665,0.0298862
0.000194367,-0.584086,-0.770167,5.05462,3.75109,4.62852,4,0.0557971,0.00921668,26,23.4244,0.0258406
0.466174,-0.354729,-0.794883,5.10347,3.77546,4.62896,5,0.0352123,0.00581645,34,62.3894,0.0380114
0.0445366,0.773116,-0.548045,5.03859,3.9477,4.67297,6,0.276451,0.0456648,43,71.1805,0.0346199
-0.834885,-0.216607,-0.447332,4.92756,3.84749,4.64494,7,0.114003,0.0188312,53,56.8737,0.0256663
0.841174,-0.369915,-0.343534,5.10671,3.82357,4.62252,8,0.0345727,0.0057108,64,74.8764,0.0307349
0.934415,0.16249,-0.103894,5.13347,3.8732,4.65175,9,0.0622121,0.0102763,76,109.243,0.0243667
-0.835258,0.485501,0.107527,4.89945,3.95506,4.72917,10,0.0302292,0.00499332,89,149.447,0.0246715
0.181273,-0.167444,0.77628,5.08641,3.86809,4.70619,11,0.031185,0.00515121,18,27.5503,0.0461569
,,,,,,,,,25,33.5044,0.0538453
,,,,,,,,,33,44.1732,0.0419987
,,,,,,,,,42,61.867,0.0875708
,,,,,,,,,52,49.2684,0.0714462
,,,,,,,,,63,78.7702,0.0415404
,,,,,,,,,75,96.8654,0.0566646
,,,,,,,,,88,88.4817,0.0382394
,,,,,,,,,102,162.484,0.0389954
,,,,,,,,,32,59.99,0.0475837
,,,,,,,,,41,69.6121,0.0380893
,,,,,,,,,51,46.973,0.0721335
,,,,,,,,,62,42.7613,0.0608258
,,,,,,,,,74,102.732,0.0377119
,,,,,,,,,87,109.309,0.0497721
,,,,,,,,,101,62.956,0.0349713
,,,,,,,,,116,163.363,0.0356025
,,,,,,,,,50,30.8406,0.0431767
,,,,,,,,,61,91.8417,0.0928532
,,,,,,,,,73,59.9092,0.0749237
,,,,,,,,,86,59.5334,0.0426925
,,,,,,,,,100,90.914,0.0588302
,,,,,,,,,115,112.961,0.0392136
,,,,,,,,,131,129.426,0.040009
,,,,,,,,,72,78.7879,0.0624679
,,,,,,,,,85,87.4185,0.0538056
,,,,,,,,,99,34.6978,0.0348896
,,,,,,,,,114,60.7352,0.0449709
,,,,,,,,,130,132.387,0.032531
,,,,,,,,,147,126.034,0.0330765
,,,,,,,,,98,87.4811,0.161434
,,,,,,,,,113,93.7118,0.0614594
,,,,,,,,,129,75.6607,0.101568
,,,,,,,,,146,72.3759,0.054499
,,,,,,,,,164,135.04,0.0560475
,,,,,,,,,128,119.438,0.0530557
,,,,,,,,,145,146.033,0.0804967
,,,,,,,,,163,54.8264,0.047787
,,,,,,,,,182,125.743,0.0489735
,,,,,,,,,162,35.5459,0.0444459
,,,,,,,,,181,164.54,0.0322554
,,,,,,,,,201,93.7494,0.0327916
,,,,,,,,,200,140.219,0.0406879
,,,,,,,,,221,85.4595,0.0415448
,,,,,,,,,242,100.863,0.0306996
