facetNormals:0,facetNormals:1,facetNormals:2,FacetCenters:0,FacetCenters:1,FacetCenters:2,FacetIds,relFacetSize,absFacetSize,cellPairingIds,interplanarAngles,angleWeights
-0.137082,-0.57287,-0.768483,5.29248,6.54549,6.29897,1,0.0565545,0.00814574,8,42.48,0.0672174
-0.6955,-0.165332,-0.651418,5.20883,6.5704,6.33576,2,0.0828353,0.0119311,13,58.856,0.0515884
0.744414,-0.282915,-0.554086,5.35327,6.51542,6.34623,3,0.047424,0.00683064,19,96.2153,0.0778743
0.57957,0.642827,-0.449542,5.30804,6.60737,6.33378,4,0.124994,0.0180034,26,81.1993,0.0692406
-0.929821,0.115153,-0.101653,5.19737,6.59492,6.37812,5,0.0892639,0.012857,34,122.795,0.0456022
-0.0492163,0.955581,-0.0496861,5.25702,6.61634,6.33356,6,0.0382037,0.00550262,43,61.3718,0.0355786
-0.6299,-0.758027,0.0804774,5.31569,6.62277,6.32543,7,0.0259528,0.00373807,53,131.166,0.0415937
0.798808,0.47198,0.319535,5.35345,6.55687,6.39307,8,0.0328924,0.00473761,64,91.7559,0.0594904
-0.405852,-0.64551,0.590836,5.31714,6.61617,6.33038,9,0.0627478,0.00903778,76,171.297,0.0783416
0.281409,0.550611,0.749678,5.28263,6.5911,6.42359,10,0.127435,0.0183549,89,128.884,0.0413579
0.663655,-0.0742703,0.705088,5.29072,6.5168,6.389,11,0.0325985,0.00469528,103,160.748,0.0426037
-0.181969,0.635367,0.731458,5.22766,6.57729,6.45231,12,0.0341738,0.00492217,18,96.734,0.0603163
,,,,,,,,,25,103.271,0.0996387
,,,,,,,,,33,40.4244,0.0859296
,,,,,,,,,42,95.6599,0.0522909
,,,,,,,,,52,57.7038,0.0395228
,,,,,,,,,63,152.488,0.0470873
,,,,,,,,,75,89.7474,0.0714057
,,,,,,,,,88,145.557,0.100405
,,,,,,,,,102,165.324,0.0467854
,,,,,,,,,117,118.502,0.0483859
,,,,,,,,,32,58.196,0.0687599
,,,,,,,,,41,136.977,0.0619404
,,,,,,,,,51,107.496,0.0423174
,,,,,,,,,62,108.162,0.033547
,,,,,,,,,74,72.6396,0.0388436
,,,,,,,,,87,118.523,0.0540202
,,,,,,,,,101,112.558,0.069124
,,,,,,,,,116,82.4146,0.0386379
,,,,,,,,,132,138.882,0.0397231
,,,,,,,,,50,117.132,0.10415
,,,,,,,,,61,49.4037,0.0585209
,,,,,,,,,73,157.115,0.0429813
,,,,,,,,,86,49.409,0.0520799
,,,,,,,,,100,166.757,0.083552
,,,,,,,,,115,79.0502,0.126203
,,,,,,,,,131,88.7946,0.0517108
,,,,,,,,,148,91.5408,0.0536732
,,,,,,,,,72,79.7388,0.0535071
,,,,,,,,,85,58.2623,0.0402137
,,,,,,,,,99,141.214,0.0480713
,,,,,,,,,114,74.4976,0.0736932
,,,,,,,,,130,107.439,0.104987
,,,,,,,,,147,139.632,0.0477566
,,,,,,,,,165,79.5814,0.0494255
,,,,,,,,,98,137.393,0.0309086
,,,,,,,,,113,65.103,0.0353497
,,,,,,,,,129,132.653,0.0474921
,,,,,,,,,146,59.3227,0.0587844
,,,,,,,,,164,98.5706,0.0351792
,,,,,,,,,183,52.1356,0.0360766
,,,,,,,,,128,149.398,0.0290134
,,,,,,,,,145,33.8159,0.0367186
,,,,,,,,,163,123.78,0.0431233
,,,,,,,,,182,108.518,0.0288985
,,,,,,,,,202,108.427,0.0295013
,,,,,,,,,162,117.704,0.0431602
,,,,,,,,,181,40.5855,0.0522885
,,,,,,,,,201,40.894,0.0327448
,,,,,,,,,222,66.3382,0.0335209
,,,,,,,,,200,91.6321,0.0840902
,,,,,,,,,221,77.9736,0.0429064
,,,,,,,,,243,84.2127,0.0442487
,,,,,,,,,242,44.3847,0.0519165
,,,,,,,,,265,27.8572,0.0538948
,,,,,,,,,288,68.6984,0.0333676
