Q	U	V
{$V$}	{[mm$^3$]}	0.00545394
{$d_v$}	{[mm]}	0.218392
{$S_c$}	{[mm$^2$]}	0.317287
{$S_o$}	{[mm$^2$]}	0.202101
{$S_l/S_o$}	[]	0.569943
{$\Psi$}	[]	0.47225
{$\eta$}	[]	0.495025
{med($\theta_e$)}	{[$^\circ$]}	74.3476
{$\Upsilon$}	[]	21
{$\Xi$}	[]	13
