facetNormals:0,facetNormals:1,facetNormals:2,FacetCenters:0,FacetCenters:1,FacetCenters:2,FacetIds,relFacetSize,absFacetSize,cellPairingIds,interplanarAngles,angleWeights
0.495302,0.228388,-0.754711,6.42441,4.6053,3.98435,1,0.0504755,0.00549613,8,25.2561,0.0155498
0.490496,0.624581,-0.59923,6.4111,4.65006,4.01556,2,0.00919053,0.00100073,13,94.4421,0.0274286
-0.483982,-0.706912,-0.439537,6.34138,4.63865,3.99795,3,0.0188307,0.00205041,19,104.874,0.0770161
-0.834173,0.43176,-0.117018,6.33946,4.63518,4.08287,4,0.162416,0.017685,26,54.4796,0.0774418
0.860687,0.437078,0.00514419,6.43575,4.62096,4.03245,5,0.166271,0.0181048,34,89.3183,0.0364973
0.653135,-0.6737,0.21065,6.4283,4.59364,4.10758,6,0.028582,0.00311221,43,94.3401,0.0322547
0.767357,-0.402294,0.474077,6.42736,4.58963,4.12984,7,0.0236995,0.00258057,53,97.9066,0.0722577
0.185321,0.780918,0.520278,6.39134,4.64778,4.11681,8,0.127111,0.0138408,64,97.3105,0.0293551
0.737362,0.0450454,0.652268,6.43176,4.61514,4.13863,9,0.0206955,0.00225347,76,120.182,0.0164902
0.384556,-0.607663,0.684204,6.41441,4.56084,4.18135,10,0.0098549,0.00107307,89,143.631,0.0422535
-0.722508,0.304849,0.597574,6.31733,4.56254,4.14188,11,0.0363348,0.00395639,103,164.143,0.0588908
-0.361259,-0.0508612,0.898845,6.35168,4.58062,4.18463,12,0.0706733,0.0076954,18,115.707,0.0123523
,,,,,,,,,25,94.2245,0.0173967
,,,,,,,,,33,43.8934,0.0174183
,,,,,,,,,42,103.703,0.0139087
,,,,,,,,,52,99.3103,0.0132448
,,,,,,,,,63,73.7123,0.0171417
,,,,,,,,,75,90.0614,0.0127285
,,,,,,,,,88,127.481,0.00951113
,,,,,,,,,102,122.158,0.0146703
,,,,,,,,,117,140.771,0.0162658
,,,,,,,,,32,80.531,0.0337485
,,,,,,,,,41,141.536,0.03383
,,,,,,,,,51,85.8164,0.0227036
,,,,,,,,,62,108.095,0.0209864
,,,,,,,,,74,160.924,0.0328019
,,,,,,,,,87,135.379,0.0197191
,,,,,,,,,101,93.4362,0.0129385
,,,,,,,,,116,97.7779,0.0248057
,,,,,,,,,132,101.378,0.0297378
,,,,,,,,,50,125.442,0.164321
,,,,,,,,,61,160.936,0.0486097
,,,,,,,,,73,158.413,0.0413633
,,,,,,,,,86,82.275,0.142611
,,,,,,,,,100,136.085,0.036713
,,,,,,,,,115,134.901,0.0185823
,,,,,,,,,131,44.6077,0.0593845
,,,,,,,,,148,79.063,0.0984901
,,,,,,,,,72,73.1709,0.0487789
,,,,,,,,,85,59.278,0.0414858
,,,,,,,,,99,56.9535,0.144078
,,,,,,,,,114,46.2636,0.0368094
,,,,,,,,,130,85.8762,0.018607
,,,,,,,,,147,120.674,0.0596373
,,,,,,,,,165,110.539,0.0991873
,,,,,,,,,98,23.3389,0.0259128
,,,,,,,,,113,108.737,0.0466699
,,,,,,,,,129,51.6021,0.0240077
,,,,,,,,,146,32.5449,0.0146564
,,,,,,,,,164,125.56,0.0319955
,,,,,,,,,183,90.7581,0.0407028
,,,,,,,,,128,85.4645,0.0399504
,,,,,,,,,145,28.3059,0.0220959
,,,,,,,,,163,28.2072,0.013921
,,,,,,,,,182,113.853,0.0286875
,,,,,,,,,202,79.8176,0.0354959
,,,,,,,,,162,57.1588,0.0355956
,,,,,,,,,181,92.8552,0.0182917
,,,,,,,,,201,63.8866,0.0565149
,,,,,,,,,222,67.1045,0.09084
,,,,,,,,,200,44.1004,0.0133518
,,,,,,,,,221,97.6439,0.0263708
,,,,,,,,,243,70.595,0.0320157
,,,,,,,,,242,93.1765,0.0155046
,,,,,,,,,265,58.2297,0.0172977
,,,,,,,,,288,35.0843,0.0479945
