"cellPairingIds","interplanarAngles","angleWeights"
8,120.145,0.0219116
13,71.3012,0.035318
34,116.195,0.038795
64,106.717,0.036625
18,54.1506,0.0315689
42,118.912,0.0343182
75,132.01,0.032609
87,146.632,0.0749478
129,34.1655,0.0925502
