facetNormals:0,facetNormals:1,facetNormals:2,FacetCenters:0,FacetCenters:1,FacetCenters:2,FacetIds,relFacetSize,absFacetSize,cellPairingIds,interplanarAngles,angleWeights
-0.427074,0.319986,-0.814977,7.43756,7.68906,5.62007,1,0.0372337,0.00784817,8,34.2824,0.0200072
0.0415919,0.652543,-0.743415,7.49963,7.69654,5.73029,2,0.0136786,0.0028832,13,70.9185,0.0213159
-0.700505,-0.609129,-0.247493,7.34825,7.68564,5.73195,3,0.0149322,0.00314742,19,82.0807,0.060958
0.793249,0.338353,-0.442469,7.53336,7.68106,5.63268,4,0.168007,0.0354127,26,31.0789,0.0367841
-0.714853,0.534668,-0.4297,7.41928,7.70531,5.6443,5,0.0363452,0.00766089,34,72.4092,0.0296657
0.0882779,0.972528,-0.017233,7.4473,7.73353,5.706,6,0.0246545,0.0051967,43,96.5259,0.0332817
-0.138394,-0.891035,-0.153076,7.3598,7.68465,5.73639,7,0.0300881,0.006342,53,58.5017,0.0573154
-0.596225,0.754712,0.00807813,7.41099,7.71684,5.7363,8,0.12442,0.0262254,64,131.954,0.0520729
0.747055,-0.557095,0.143227,7.44626,7.7215,5.75923,9,0.0865775,0.0182489,76,135.281,0.0235072
0.287941,-0.878842,0.341319,7.36845,7.7005,5.81133,10,0.0171754,0.00362025,89,145.863,0.0472447
0.763964,0.0784589,0.586501,7.52951,7.71123,5.77973,11,0.0646184,0.0136203,103,140.226,0.0264466
0.395176,0.346314,0.836095,7.49299,7.74713,5.80652,12,0.0205058,0.00432224,118,154.751,0.0306406
0.0424129,-0.193452,0.933412,7.45361,7.69757,5.80719,13,0.0260312,0.00548689,18,104.779,0.0142779
,,,,,,,,,25,52.6107,0.0252976
,,,,,,,,,33,49.3782,0.0198766
,,,,,,,,,42,47.6744,0.0175952
,,,,,,,,,52,121.519,0.0188072
,,,,,,,,,63,60.9996,0.0246475
,,,,,,,,,75,118.048,0.0236247
,,,,,,,,,88,146.648,0.0152289
,,,,,,,,,102,111.655,0.0225779
,,,,,,,,,117,112.818,0.0164105
,,,,,,,,,133,150.03,0.0179337
,,,,,,,,,32,134.463,0.0274267
,,,,,,,,,41,72.8022,0.0211677
,,,,,,,,,51,133.844,0.0185995
,,,,,,,,,62,39.5451,0.019959
,,,,,,,,,74,92.7328,0.0266643
,,,,,,,,,87,104.018,0.0254713
,,,,,,,,,101,74.7474,0.0159754
,,,,,,,,,116,141.654,0.0242586
,,,,,,,,,132,137.076,0.0172807
,,,,,,,,,149,98.9671,0.018978
,,,,,,,,,50,101.778,0.0597621
,,,,,,,,,61,64.5567,0.042999
,,,,,,,,,73,112.799,0.0510362
,,,,,,,,,86,103.723,0.142965
,,,,,,,,,100,68.1091,0.11427
,,,,,,,,,115,103.31,0.0311648
,,,,,,,,,131,66.5288,0.0933375
,,,,,,,,,148,86.3639,0.0365505
,,,,,,,,,166,118.747,0.045078
,,,,,,,,,72,61.3265,0.0293796
,,,,,,,,,85,110.12,0.032922
,,,,,,,,,99,29.878,0.0562569
,,,,,,,,,114,163.033,0.0511977
,,,,,,,,,130,147.359,0.0233272
,,,,,,,,,147,142.174,0.0465231
,,,,,,,,,165,117.821,0.026219
,,,,,,,,,184,124.455,0.0303355
,,,,,,,,,98,168.754,0.0271016
,,,,,,,,,113,43.5193,0.0411541
,,,,,,,,,129,121.293,0.0383797
,,,,,,,,,146,150.162,0.0202463
,,,,,,,,,164,81.8597,0.0356913
,,,,,,,,,183,68.2573,0.0223896
,,,,,,,,,203,102.423,0.0253242
,,,,,,,,,128,132.224,0.0484578
,,,,,,,,,145,64.5126,0.0446567
,,,,,,,,,163,39.9701,0.0218678
,,,,,,,,,182,107.476,0.0410583
,,,,,,,,,202,122.95,0.0243895
,,,,,,,,,223,88.4491,0.027913
,,,,,,,,,162,162.459,0.102105
,,,,,,,,,181,151.364,0.0301841
,,,,,,,,,201,114.914,0.0850602
,,,,,,,,,222,88.0387,0.0352088
,,,,,,,,,244,100.278,0.0430546
,,,,,,,,,200,35.826,0.0286643
,,,,,,,,,221,47.8835,0.0740033
,,,,,,,,,243,76.2031,0.0331582
,,,,,,,,,266,72.3253,0.0400274
,,,,,,,,,242,68.3653,0.0271377
,,,,,,,,,265,84.411,0.0186934
,,,,,,,,,289,57.8302,0.0206957
,,,,,,,,,288,30.825,0.0311322
,,,,,,,,,313,52.2365,0.037112
,,,,,,,,,338,39.2013,0.0229405
