Q	U	V
{$V$}	{[mm$^3$]}	0.00313486
{$d_v$}	{[mm]}	0.181582
{$S_c$}	{[mm$^2$]}	0.172654
{$S_o$}	{[mm$^2$]}	0.102692
{$S_l/S_o$}	[]	0.681280
{$\Psi$}	[]	0.599956
{$\eta$}	[]	0.633608
{med($\theta_e$)}	{[$^\circ$]}	
{$\Upsilon$}	[]	12
{$\Xi$}	[]	5
