facetNormals:0,facetNormals:1,facetNormals:2,FacetCenters:0,FacetCenters:1,FacetCenters:2,FacetIds,relFacetSize,absFacetSize,cellPairingIds,interplanarAngles,angleWeights
-0.291602,0.095019,-0.921597,7.02142,7.81202,6.30884,1,0.0554216,0.0165667,8,49.0031,0.0340459
-0.669664,-0.502121,-0.521834,6.95036,7.76205,6.36316,2,0.0245696,0.00734439,13,89.1112,0.0635515
0.492919,-0.785464,-0.25266,7.10229,7.72101,6.35057,3,0.0744765,0.0222627,19,81.1118,0.0634041
0.703419,0.57312,-0.320154,7.13011,7.8652,6.35731,4,0.0740729,0.022142,26,54.621,0.0887947
-0.735538,0.409604,-0.263302,6.93284,7.86548,6.44887,5,0.223196,0.0667181,34,82.0032,0.0435752
-0.0972914,0.973729,-0.0123118,6.99876,7.94266,6.4335,6,0.0359013,0.0107317,43,116.403,0.0256249
0.235686,-0.908912,0.292646,7.15463,7.75596,6.39964,7,0.0166652,0.00498158,53,118.732,0.0740413
0.559173,0.703523,0.392427,7.06169,7.90106,6.52417,8,0.111502,0.0333303,64,146.21,0.0318571
0.636133,0.296811,0.693818,7.11556,7.82558,6.53674,9,0.022353,0.00668179,76,158.25,0.0450313
-0.0616583,-0.166518,0.90816,6.95678,7.82116,6.62602,10,0.0379219,0.0113357,18,78.0585,0.0369497
,,,,,,,,,25,128.575,0.0368998
,,,,,,,,,33,60.8135,0.0442664
,,,,,,,,,42,115.617,0.0291737
,,,,,,,,,52,81.3536,0.0198598
,,,,,,,,,63,164.597,0.0402665
,,,,,,,,,75,164.277,0.0234089
,,,,,,,,,88,112.481,0.0298193
,,,,,,,,,32,91.3971,0.0742742
,,,,,,,,,41,136.773,0.111686
,,,,,,,,,51,149.406,0.0484482
,,,,,,,,,62,36.8776,0.0272359
,,,,,,,,,74,113.52,0.0893036
,,,,,,,,,87,95.7398,0.0343856
,,,,,,,,,101,98.3434,0.050255
,,,,,,,,,50,103.514,0.111231
,,,,,,,,,61,58.388,0.0483625
,,,,,,,,,73,118.313,0.0272088
,,,,,,,,,86,44.6789,0.0890128
,,,,,,,,,100,65.3915,0.0343424
,,,,,,,,,115,118.846,0.0501627
,,,,,,,,,72,56.725,0.0618534
,,,,,,,,,85,135.869,0.0310146
,,,,,,,,,99,105.176,0.148712
,,,,,,,,,114,127.417,0.0406363
,,,,,,,,,130,108.72,0.064829
,,,,,,,,,98,161.273,0.0227636
,,,,,,,,,113,49.3004,0.0543144
,,,,,,,,,129,76.9211,0.0275516
,,,,,,,,,146,100.648,0.0368839
,,,,,,,,,128,114.034,0.0289965
,,,,,,,,,145,85.0834,0.0190945
,,,,,,,,,163,63.7459,0.0231547
,,,,,,,,,162,30.1651,0.0372403
,,,,,,,,,181,76.9589,0.0565955
,,,,,,,,,200,53.6412,0.0281267
