Q	U	V
{$V$}	{[mm$^3$]}	0.00453605
{$d_v$}	{[mm]}	0.205381
{$S_c$}	{[mm$^2$]}	0.23657
{$S_o$}	{[mm$^2$]}	0.13902
{$S_l/S_o$}	[]	0.701698
{$\Psi$}	[]	0.560157
{$\eta$}	[]	0.574756
{med($\theta_e$)}	{[$^\circ$]}	74.9576
{$\Upsilon$}	[]	13
{$\Xi$}	[]	9
