facetNormals:0,facetNormals:1,facetNormals:2,FacetCenters:0,FacetCenters:1,FacetCenters:2,FacetIds,relFacetSize,absFacetSize,cellPairingIds,interplanarAngles,angleWeights
-0.627369,-0.305548,-0.657239,7.15831,6.61076,4.24936,1,0.0415554,0.0116564,8,52.8899,0.0273111
-0.0246051,-0.878325,-0.428432,7.20144,6.64858,4.17592,2,0.0203392,0.00570521,13,20.678,0.0219685
-0.865569,-0.265933,-0.402107,7.16785,6.6264,4.21879,3,0.0149309,0.00418817,19,121.672,0.0555687
0.785647,0.449404,-0.241481,7.13031,6.72226,4.20296,4,0.0838417,0.0235179,26,135.06,0.0481592
0.967347,0.0184941,0.069475,7.10557,6.68138,4.24826,5,0.0572584,0.0160611,34,68.575,0.0678464
-0.826976,-0.222276,0.391155,7.03371,6.73315,4.25781,6,0.184703,0.0518097,43,163.941,0.0654629
0.629696,0.527245,0.505494,7.159,6.81429,4.26227,7,0.154145,0.0432382,53,158.304,0.0632636
0.547399,-0.0232052,0.779629,7.18585,6.65465,4.30361,8,0.132459,0.0371551,18,63.8305,0.0172204
,,,,,,,,,25,109.827,0.0327368
,,,,,,,,,33,94.222,0.0300161
,,,,,,,,,42,87.0106,0.0366433
,,,,,,,,,52,137.509,0.0359366
,,,,,,,,,63,110.558,0.0352636
,,,,,,,,,32,139.187,0.0253478
,,,,,,,,,41,154.88,0.0236855
,,,,,,,,,51,48.5348,0.0276284
,,,,,,,,,62,158.423,0.0272248
,,,,,,,,,74,145.831,0.0268368
,,,,,,,,,50,34.2018,0.0680459
,,,,,,,,,61,163.156,0.115331
,,,,,,,,,73,47.5623,0.108609
,,,,,,,,,86,74.9775,0.102687
,,,,,,,,,72,148.293,0.0874172
,,,,,,,,,85,45.6432,0.0835
,,,,,,,,,99,50.875,0.0799545
,,,,,,,,,98,119.004,0.168046
,,,,,,,,,113,99.1447,0.154278
,,,,,,,,,128,37.7548,0.142482
