Q	U	V
{$V$}	{[mm$^3$]}	0.0069715
{$d_v$}	{[mm]}	0.237015
{$S_c$}	{[mm$^2$]}	0.2632
{$S_o$}	{[mm$^2$]}	0.177156
{$S_l/S_o$}	[]	0.485696
{$\Psi$}	[]	0.670526
{$\eta$}	[]	0.691862
{med($\theta_e$)}	{[$^\circ$]}	65.5834
{$\Upsilon$}	[]	11
{$\Xi$}	[]	10
