Q	U	V
{$V$}	{[mm$^3$]}	0.00498015
{$d_v$}	{[mm]}	0.211876
{$S_c$}	{[mm$^2$]}	0.319777
{$S_o$}	{[mm$^2$]}	0.170434
{$S_l/S_o$}	[]	0.876251
{$\Psi$}	[]	0.441027
{$\eta$}	[]	0.497941
{med($\theta_e$)}	{[$^\circ$]}	90.4564
{$\Upsilon$}	[]	16
{$\Xi$}	[]	10
