"cellPairingIds","interplanarAngles","angleWeights"
8,29.2899,0.055225
13,61.9763,0.0650562
19,63.1983,0.0555496
26,63.1675,0.0397228
34,73.0323,0.0659747
32,38.197,0.105582
50,65.4942,0.051882
73,47.297,0.0525622
86,52.7491,0.0326844
115,42.6277,0.0920245
72,33.0954,0.0608647
99,31.5121,0.0264773
113,58.1217,0.0360347
163,36.8626,0.0562119
162,34.9752,0.0343814
181,54.7655,0.0340595
200,67.969,0.106877
