"cellPairingIds","interplanarAngles","angleWeights"
8,47.5834,0.0098668
13,137.142,0.0731866
43,102.129,0.0687214
18,165.282,0.00932653
42,128.576,0.00853654
52,137.232,0.00924994
75,114.372,0.00950116
102,68.1855,0.00987874
117,114.438,0.00887673
51,40.859,0.0339475
62,57.336,0.0489657
74,32.8117,0.0342805
132,77.828,0.0400516
113,22.4552,0.0255796
129,28.1983,0.0363815
202,41.7214,0.0386764
162,29.0006,0.0367642
222,65.1132,0.0288982
221,72.032,0.0864273
243,68.7207,0.0434838
288,50.0577,0.052703
