facetNormals:0,facetNormals:1,facetNormals:2,FacetCenters:0,FacetCenters:1,FacetCenters:2,FacetIds,relFacetSize,absFacetSize,cellPairingIds,interplanarAngles,angleWeights
0.227551,0.345067,-0.859309,6.42889,5.69881,4.07737,1,0.0588016,0.0186415,8,51.4985,0.0684882
-0.578323,0.15682,-0.757254,6.29558,5.70278,4.12077,2,0.0819957,0.0259946,13,64.0772,0.0563173
-0.119832,0.959546,-0.119051,6.32821,5.77418,4.17646,3,0.0540344,0.0171302,19,108.661,0.0662227
-0.719894,-0.561957,-0.0904527,6.31417,5.6742,4.23353,4,0.0757875,0.0240264,26,95.7993,0.0383798
0.717927,-0.640795,0.040789,6.41207,5.67854,4.17103,5,0.0284865,0.00903088,34,73.045,0.0701128
0.541182,0.759977,0.143045,6.41678,5.73398,4.18061,6,0.0868122,0.0275215,43,87.3607,0.0410971
0.958278,0.00754359,0.206693,6.49474,5.62943,4.13955,7,0.0315867,0.0100137,53,103.023,0.0584722
-0.651952,0.623386,0.316741,6.25999,5.6531,4.2029,8,0.0581465,0.0184338,64,122.544,0.0450828
-0.907033,0.0296317,0.352982,6.25131,5.62805,4.23524,9,0.0365544,0.0115886,76,122.379,0.0159619
0.590565,-0.6239,0.495066,6.37914,5.65442,4.23581,10,0.00923427,0.00292748,89,140.855,0.0393196
-0.612087,0.16787,0.752564,6.25421,5.61679,4.26772,11,0.0295344,0.00936309,103,120.344,0.0865916
0.613617,0.0922894,0.741653,6.405,5.64422,4.24669,12,0.164188,0.0520515,118,170.066,0.049342
-0.348827,-0.230435,0.879525,6.30092,5.60075,4.28607,13,0.0425042,0.0134748,18,70.7664,0.0651413
,,,,,,,,,25,63.4077,0.0787694
,,,,,,,,,33,125.991,0.0422831
,,,,,,,,,42,109.358,0.0843352
,,,,,,,,,52,138.547,0.0456052
,,,,,,,,,63,75.2564,0.0680418
,,,,,,,,,75,73.8271,0.050566
,,,,,,,,,88,148.26,0.0165992
,,,,,,,,,102,101.503,0.0434267
,,,,,,,,,117,165.011,0.109371
,,,,,,,,,133,122.151,0.0559866
,,,,,,,,,32,119.639,0.0630884
,,,,,,,,,41,138.77,0.0373057
,,,,,,,,,51,45.2565,0.0666093
,,,,,,,,,62,97.9558,0.0398679
,,,,,,,,,74,46.7188,0.0560151
,,,,,,,,,87,84.2469,0.0436079
,,,,,,,,,101,138.936,0.015773
,,,,,,,,,116,81.3152,0.038193
,,,,,,,,,132,94.4603,0.0813097
,,,,,,,,,149,107.418,0.0475808
,,,,,,,,,50,100.456,0.0414086
,,,,,,,,,61,163.281,0.0809261
,,,,,,,,,73,142.398,0.0445894
,,,,,,,,,86,84.088,0.0658052
,,,,,,,,,100,47.4429,0.0493203
,,,,,,,,,115,97.5348,0.0164627
,,,,,,,,,131,72.0639,0.0425047
,,,,,,,,,148,129.183,0.103706
,,,,,,,,,166,70.3142,0.0544635
,,,,,,,,,72,95.8477,0.0428968
,,,,,,,,,85,42.9113,0.0299566
,,,,,,,,,99,158.139,0.0382392
,,,,,,,,,114,134.363,0.03202
,,,,,,,,,130,27.904,0.0139473
,,,,,,,,,147,122.991,0.029001
,,,,,,,,,165,63.7705,0.0485496
,,,,,,,,,184,94.0898,0.0341114
,,,,,,,,,98,53.2301,0.0463199
,,,,,,,,,113,79.3838,0.069645
,,,,,,,,,129,117.042,0.0514461
,,,,,,,,,146,95.1329,0.0166929
,,,,,,,,,164,95.9314,0.0440743
,,,,,,,,,183,56.1578,0.113574
,,,,,,,,,203,105.012,0.0570676
,,,,,,,,,128,126.279,0.0409359
,,,,,,,,,145,146.497,0.0338895
,,,,,,,,,163,46.9498,0.0142907
,,,,,,,,,182,116.44,0.0305261
,,,,,,,,,202,38.4905,0.0529809
,,,,,,,,,223,99.2962,0.0362411
,,,,,,,,,162,39.1801,0.0448889
,,,,,,,,,181,130.621,0.0159375
,,,,,,,,,201,37.9594,0.0391721
,,,,,,,,,222,96.6841,0.0858793
,,,,,,,,,244,67.095,0.0491099
,,,,,,,,,200,113.139,0.014744
,,,,,,,,,221,30.5213,0.0326715
,,,,,,,,,243,108.069,0.059796
,,,,,,,,,266,49.1672,0.0393054
,,,,,,,,,242,95.505,0.0140695
,,,,,,,,,265,45.5053,0.0174851
,,,,,,,,,289,67.2635,0.0151723
,,,,,,,,,288,77.9927,0.0500633
,,,,,,,,,313,29.2182,0.0348518
,,,,,,,,,338,63.7169,0.0675273
