"cellPairingIds","interplanarAngles","angleWeights"
18,76.1311,0.0155074
33,77.511,0.0180646
42,34.8655,0.00785249
63,87.9854,0.0130862
75,109.635,0.0175036
41,135.639,0.0706675
74,37.0079,0.0284007
101,81.9681,0.0682343
114,49.2376,0.147131
130,130.496,0.180927
113,60.4712,0.0101965
129,115.632,0.0126923
162,139.45,0.0358985
181,64.0168,0.0376127
200,91.9873,0.136963
