Q	U	V
{$V$}	{[mm$^3$]}	0.00943426
{$d_v$}	{[mm]}	0.262162
{$S_c$}	{[mm$^2$]}	0.377821
{$S_o$}	{[mm$^2$]}	0.254298
{$S_l/S_o$}	[]	0.485741
{$\Psi$}	[]	0.571483
{$\eta$}	[]	0.626159
{med($\theta_e$)}	{[$^\circ$]}	73.889
{$\Upsilon$}	[]	14
{$\Xi$}	[]	8
