facetNormals:0,facetNormals:1,facetNormals:2,FacetCenters:0,FacetCenters:1,FacetCenters:2,FacetIds,relFacetSize,absFacetSize,cellPairingIds,interplanarAngles,angleWeights
-0.187072,-0.187511,-0.950283,6.90866,5.38102,7.63381,1,0.0516865,0.00687642,8,29.2463,0.08172
0.27774,-0.254428,-0.830382,6.92168,5.34974,7.6429,2,0.195069,0.0259521,13,34.2567,0.0284895
-0.677848,0.0093365,-0.711845,6.83231,5.34715,7.63897,3,0.0196642,0.00261615,19,65.1324,0.0408019
0.2184,0.732231,-0.615929,6.93826,5.43211,7.64947,4,0.0337042,0.00448404,26,65.1552,0.0281992
-0.292417,0.777764,-0.524496,6.87767,5.43887,7.64602,5,0.0193887,0.00257949,34,56.0391,0.026768
-0.908182,-0.0550543,-0.382788,6.84198,5.31111,7.67281,6,0.0180607,0.00240282,43,88.7203,0.0654118
0.897162,-0.361118,-0.127976,6.80812,5.36597,7.74563,7,0.0890623,0.0118489,53,73.0956,0.0655988
-0.6284,-0.728748,-0.023049,6.81737,5.27847,7.73054,8,0.0897588,0.0119416,64,92.8277,0.0639758
-0.632429,0.708286,0.0333992,6.83834,5.42508,7.70151,9,0.0839321,0.0111664,76,86.5581,0.0665239
-0.940527,0.212214,0.0829633,6.7969,5.35285,7.75156,10,0.0933099,0.012414,89,116.441,0.0269605
0.135407,0.941845,0.241256,6.88523,5.43566,7.71267,11,0.0182364,0.0024262,103,140.32,0.0207886
0.498622,0.612395,0.549801,6.87973,5.38331,7.73263,12,0.0130108,0.00173097,118,152.876,0.0290128
-0.256906,0.0858375,0.91774,6.92968,5.31719,7.65214,13,0.0201663,0.00268294,18,63.4623,0.0357269
,,,,,,,,,25,64.4608,0.0574773
,,,,,,,,,33,79.9448,0.0352715
,,,,,,,,,42,84.9243,0.0330605
,,,,,,,,,52,59.8088,0.122291
,,,,,,,,,63,88.0398,0.122946
,,,,,,,,,75,116.281,0.117365
,,,,,,,,,88,115.804,0.126236
,,,,,,,,,102,116.713,0.0333547
,,,,,,,,,117,122.689,0.0243945
,,,,,,,,,133,168.595,0.0365536
,,,,,,,,,32,72.0553,0.0248374
,,,,,,,,,41,53.1825,0.0195255
,,,,,,,,,51,23.8314,0.0188284
,,,,,,,,,62,122.867,0.0322155
,,,,,,,,,74,62.5911,0.0322608
,,,,,,,,,87,63.8566,0.0318633
,,,,,,,,,101,52.3971,0.032483
,,,,,,,,,116,105.306,0.0189234
,,,,,,,,,132,139.91,0.0156601
,,,,,,,,,149,120.567,0.0199121
,,,,,,,,,50,30.7614,0.0246165
,,,,,,,,,61,90.1709,0.0235187
,,,,,,,,,73,89.3811,0.0489021
,,,,,,,,,86,134.036,0.0490065
,,,,,,,,,100,67.2949,0.0480951
,,,,,,,,,115,96.1118,0.049521
,,,,,,,,,131,53.6803,0.0236672
,,,,,,,,,148,76.6117,0.0187742
,,,,,,,,,166,126.493,0.0252342
,,,,,,,,,72,64.1096,0.0187012
,,,,,,,,,85,119.779,0.0318448
,,,,,,,,,99,113.092,0.031889
,,,,,,,,,114,39.7023,0.0315006
,,,,,,,,,130,65.3522,0.0321061
,,,,,,,,,147,54.0409,0.0187949
,,,,,,,,,165,87.4465,0.015572
,,,,,,,,,184,111.164,0.0197698
,,,,,,,,,98,140.77,0.0300315
,,,,,,,,,113,49.2942,0.0300708
,,,,,,,,,129,56.1375,0.0297251
,,,,,,,,,146,31.9278,0.0302637
,,,,,,,,,164,106.006,0.0181482
,,,,,,,,,183,137.208,0.0151254
,,,,,,,,,203,97.4647,0.0190555
,,,,,,,,,128,108.482,0.0894092
,,,,,,,,,145,153.215,0.0864212
,,,,,,,,,163,170.477,0.0911366
,,,,,,,,,182,105.103,0.030274
,,,,,,,,,202,80.4441,0.0227047
,,,,,,,,,223,113.95,0.0328862
,,,,,,,,,162,97.5089,0.0867477
,,,,,,,,,181,62.1978,0.0914999
,,,,,,,,,201,145.321,0.030314
,,,,,,,,,222,146.492,0.0227272
,,,,,,,,,244,85.1587,0.0329334
,,,,,,,,,200,35.5711,0.0883729
,,,,,,,,,221,50.7974,0.0299627
,,,,,,,,,243,81.3965,0.0225292
,,,,,,,,,266,73.7819,0.0325192
,,,,,,,,,242,84.4101,0.03051
,,,,,,,,,265,108.365,0.0228372
,,,,,,,,,289,68.7259,0.0331649
,,,,,,,,,288,34.662,0.0151866
,,,,,,,,,313,73.456,0.0191529
,,,,,,,,,338,62.2273,0.0158169
