Q	U	V
{$V$}	{[mm$^3$]}	0.00545157
{$d_v$}	{[mm]}	0.218361
{$S_c$}	{[mm$^2$]}	0.356902
{$S_o$}	{[mm$^2$]}	0.176702
{$S_l/S_o$}	[]	1.019796
{$\Psi$}	[]	0.41971
{$\eta$}	[]	0.463766
{med($\theta_e$)}	{[$^\circ$]}	91.45345
{$\Upsilon$}	[]	9
{$\Xi$}	[]	2
