Q	U	V
{$V$}	{[mm$^3$]}	0.00361815
{$d_v$}	{[mm]}	0.190471
{$S_c$}	{[mm$^2$]}	0.219497
{$S_o$}	{[mm$^2$]}	0.107343
{$S_l/S_o$}	[]	1.044819
{$\Psi$}	[]	0.519254
{$\eta$}	[]	0.551880
{med($\theta_e$)}	{[$^\circ$]}	
{$\Upsilon$}	[]	15
{$\Xi$}	[]	3
