Q	U	V
{$V$}	{[mm$^3$]}	0.0080212
{$d_v$}	{[mm]}	0.248359
{$S_c$}	{[mm$^2$]}	0.420259
{$S_o$}	{[mm$^2$]}	0.232773
{$S_l/S_o$}	[]	0.805446
{$\Psi$}	[]	0.461098
{$\eta$}	[]	0.529921
{med($\theta_e$)}	{[$^\circ$]}	79.64235
{$\Upsilon$}	[]	9
{$\Xi$}	[]	15
