facetNormals:0,facetNormals:1,facetNormals:2,FacetCenters:0,FacetCenters:1,FacetCenters:2,FacetIds,relFacetSize,absFacetSize,cellPairingIds,interplanarAngles,angleWeights
0.0249741,0.359928,-0.920121,3.67695,3.76583,8.12971,1,0.00747705,0.00277024,8,61.4179,0.0139737
0.290744,-0.563686,-0.69681,3.81427,3.70603,8.10026,2,0.106576,0.0394861,13,50.6025,0.0133161
-0.659427,-0.0735799,-0.708385,3.64912,3.83761,8.12013,3,0.0607828,0.0225199,19,76.0823,0.0140382
-0.606043,-0.567587,-0.487197,3.70443,3.77435,8.10638,4,0.114605,0.042461,26,54.3904,0.0133434
-0.0483869,0.919769,-0.236204,3.70206,3.95926,8.09829,5,0.0619415,0.0229492,34,56.8044,0.0139004
0.657462,0.620422,-0.299495,3.81696,3.84109,8.10517,6,0.0986372,0.0365449,43,89.0856,0.0131999
0.875564,0.389542,0.159491,3.81973,3.87954,8.16257,7,0.0562646,0.0208459,53,79.8185,0.0108423
0.1211,0.96132,0.191791,3.71981,3.89149,8.17745,8,0.0197161,0.00730478,64,104.989,0.0108885
0.938286,-0.199785,0.220794,3.87919,3.74138,8.16955,9,0.0200249,0.00741921,76,147.4,0.0121613
-0.52812,-0.3973,0.704063,3.75486,3.72371,8.22941,10,0.0325596,0.0120633,89,135.829,0.0118875
-0.286692,0.325154,0.864492,3.69994,3.91743,8.20966,11,0.0289846,0.0107387,103,139.828,0.0132869
0.386325,0.169982,0.872398,3.8265,3.76355,8.24739,12,0.0595901,0.022078,18,67.9481,0.0774143
,,,,,,,,,25,57.8113,0.110445
,,,,,,,,,33,114.248,0.0783476
,,,,,,,,,42,86.7979,0.102453
,,,,,,,,,52,94.7719,0.0736481
,,,,,,,,,63,133.473,0.0332762
,,,,,,,,,75,75.5429,0.033715
,,,,,,,,,88,117.504,0.0498804
,,,,,,,,,102,162.493,0.0455746
,,,,,,,,,117,130.363,0.07644
,,,,,,,,,32,32.6755,0.0794356
,,,,,,,,,41,81.8048,0.0613567
,,,,,,,,,51,106.793,0.0752157
,,,,,,,,,62,139.688,0.0584365
,,,,,,,,,74,107.385,0.0297743
,,,,,,,,,87,142.739,0.0301251
,,,,,,,,,101,97.4335,0.0424044
,,,,,,,,,116,118.457,0.0392518
,,,,,,,,,132,160.24,0.0601805
,,,,,,,,,50,114.365,0.0804185
,,,,,,,,,61,131.267,0.106023
,,,,,,,,,73,152.48,0.0754752
,,,,,,,,,86,138.527,0.0336442
,,,,,,,,,100,126.433,0.0340929
,,,,,,,,,115,77.4154,0.0507118
,,,,,,,,,131,117.645,0.0462677
,,,,,,,,,148,144.087,0.0784101
,,,,,,,,,72,47.6857,0.0760964
,,,,,,,,,85,72.469,0.0589667
,,,,,,,,,99,27.5027,0.0299114
,,,,,,,,,114,107.49,0.0302654
,,,,,,,,,130,123.455,0.0426829
,,,,,,,,,147,83.2086,0.0394903
,,,,,,,,,165,94.2576,0.060743
,,,,,,,,,98,33.7133,0.0716555
,,,,,,,,,113,48.878,0.0328633
,,,,,,,,,129,62.9164,0.0332912
,,,,,,,,,146,151.038,0.0489583
,,,,,,,,,164,105.471,0.0448036
,,,,,,,,,183,83.8935,0.0742957
,,,,,,,,,128,57.8163,0.0292
,,,,,,,,,145,35.4637,0.0295374
,,,,,,,,,163,122.56,0.0412489
,,,,,,,,,182,89.1753,0.0382597
,,,,,,,,,202,54.7334,0.0578796
,,,,,,,,,162,92.1269,0.0198693
,,,,,,,,,181,109.021,0.0245601
,,,,,,,,,201,62.3245,0.0234684
,,,,,,,,,222,66.7728,0.0296291
,,,,,,,,,200,105.918,0.0247983
,,,,,,,,,221,98.6443,0.0236858
,,,,,,,,,243,56.889,0.0299765
,,,,,,,,,242,47.5023,0.0306682
,,,,,,,,,265,68.5212,0.0421104
,,,,,,,,,288,41.7995,0.0389997
