Q	U	V
{$V$}	{[mm$^3$]}	0.00674351
{$d_v$}	{[mm]}	0.234403
{$S_c$}	{[mm$^2$]}	0.403315
{$S_o$}	{[mm$^2$]}	0.207128
{$S_l/S_o$}	[]	0.947178
{$\Psi$}	[]	0.427987
{$\eta$}	[]	0.467444
{med($\theta_e$)}	{[$^\circ$]}	79.21
{$\Upsilon$}	[]	12
{$\Xi$}	[]	11
