Q	U	V
{$V$}	{[mm$^3$]}	0.00976675
{$d_v$}	{[mm]}	0.265206
{$S_c$}	{[mm$^2$]}	0.503914
{$S_o$}	{[mm$^2$]}	0.236116
{$S_l/S_o$}	[]	1.134180
{$\Psi$}	[]	0.438491
{$\eta$}	[]	0.468560
{med($\theta_e$)}	{[$^\circ$]}	79.844
{$\Upsilon$}	[]	10
{$\Xi$}	[]	17
