Q	U	V
{$V$}	{[mm$^3$]}	0.00393876
{$d_v$}	{[mm]}	0.195939
{$S_c$}	{[mm$^2$]}	0.21897
{$S_o$}	{[mm$^2$]}	0.133078
{$S_l/S_o$}	[]	0.645426
{$\Psi$}	[]	0.550815
{$\eta$}	[]	0.589898
{med($\theta_e$)}	{[$^\circ$]}	51.5346
{$\Upsilon$}	[]	13
{$\Xi$}	[]	10
