Q	U	V
{$V$}	{[mm$^3$]}	0.0022609
{$d_v$}	{[mm]}	0.162840
{$S_c$}	{[mm$^2$]}	0.168961
{$S_o$}	{[mm$^2$]}	0.0839768
{$S_l/S_o$}	[]	1.011996
{$\Psi$}	[]	0.493043
{$\eta$}	[]	0.551840
{med($\theta_e$)}	{[$^\circ$]}	
{$\Upsilon$}	[]	14
{$\Xi$}	[]	4
