"cellPairingIds","interplanarAngles","angleWeights"
8,41.6073,0.099432
13,27.1022,0.0179305
19,73.3734,0.047355
34,41.3791,0.0134752
18,62.388,0.0193002
25,78.673,0.0582779
33,42.1702,0.0360999
63,82.0697,0.0717916
150,90.931,0.0112195
207,128.757,0.0753633
51,22.9438,0.00862321
132,48.1114,0.0128546
227,81.5156,0.0169541
61,86.2418,0.0122983
86,29.0073,0.0400174
100,55.3125,0.0370225
115,30.8983,0.0355043
99,70.1368,0.0281445
147,42.061,0.0291076
184,68.964,0.0306777
204,55.0482,0.00903082
129,61.0783,0.0124838
183,32.7935,0.0103915
181,31.8528,0.0401032
244,40.5471,0.05312
200,45.4169,0.037096
243,60.4024,0.0238489
315,55.8076,0.055315
368,86.9481,0.0432516
289,51.3579,0.045451
340,35.1228,0.0519933
313,39.2767,0.0566583
339,30.4123,0.0104401
394,49.1157,0.0422246
452,43.5766,0.0254783
421,42.3316,0.0762027
451,36.6006,0.0456108
481,53.8459,0.00999405
513,82.7828,0.0103842
512,39.3716,0.0522026
545,93.5042,0.0649492
578,81.7167,0.0413251
