facetNormals:0,facetNormals:1,facetNormals:2,FacetCenters:0,FacetCenters:1,FacetCenters:2,FacetIds,relFacetSize,absFacetSize,cellPairingIds,interplanarAngles,angleWeights
-0.716003,0.172048,-0.644804,6.12161,5.49739,6.4484,1,0.0701122,0.00764794,8,96.0623,0.0342872
0.61622,-0.393219,-0.634054,6.09305,5.5536,6.44412,2,0.0226923,0.00247531,13,26.0433,0.096342
-0.656243,-0.260507,-0.645827,6.13902,5.42247,6.44875,3,0.153929,0.0167908,19,104.106,0.0220274
0.188762,-0.959732,-0.101867,6.1454,5.42476,6.44588,4,0.0130662,0.00142528,26,36.9686,0.0832832
-0.955149,0.196312,-0.0729284,6.09528,5.55559,6.48991,5,0.102547,0.011186,34,111.674,0.0414817
0.630108,0.688627,0.00736349,6.11402,5.54826,6.46689,6,0.0294541,0.00321289,43,142.339,0.0878091
0.952139,-0.128755,0.0656521,6.09135,5.56997,6.47108,7,0.117456,0.0128123,53,117.942,0.0184609
0.0824037,-0.912165,0.366876,6.14161,5.4162,6.46707,8,0.0106299,0.00115952,64,73.5833,0.0156473
-0.620405,0.638018,0.434319,6.10777,5.61119,6.50804,9,0.0088063,0.000960604,76,86.3276,0.0705246
-0.680738,-0.320542,0.578119,6.09767,5.45243,6.51654,10,0.070942,0.00773845,89,172.799,0.0805554
0.629487,-0.260043,0.661719,6.1397,5.45307,6.49728,11,0.094654,0.010325,103,143.16,0.0474542
0.174304,-0.195083,0.941412,6.1233,5.48587,6.52971,12,0.0358641,0.00391211,118,126.582,0.036828
0.0289344,0.294648,0.925936,6.12563,5.55247,6.52353,13,0.0249727,0.00272406,18,83.3308,0.0395535
,,,,,,,,,25,54.0781,0.0165836
,,,,,,,,,33,130.901,0.0371613
,,,,,,,,,42,82.8238,0.0256348
,,,,,,,,,52,50.2633,0.038036
,,,,,,,,,63,79.3256,0.0144778
,,,,,,,,,75,161.473,0.0126885
,,,,,,,,,88,135.956,0.0343856
,,,,,,,,,102,85.5941,0.0366081
,,,,,,,,,117,115.886,0.0277967
,,,,,,,,,133,136.746,0.0237779
,,,,,,,,,32,78.231,0.0240878
,,,,,,,,,41,48.2727,0.123091
,,,,,,,,,51,132,0.0494466
,,,,,,,,,62,133.445,0.133241
,,,,,,,,,74,93.2419,0.0198865
,,,,,,,,,87,92.3932,0.0166595
,,,,,,,,,101,80.0511,0.0971225
,,,,,,,,,116,148.254,0.117224
,,,,,,,,,132,135.913,0.0581741
,,,,,,,,,149,138.228,0.0429736
,,,,,,,,,50,112.067,0.0231791
,,,,,,,,,61,126.244,0.0181021
,,,,,,,,,73,71.7486,0.0235164
,,,,,,,,,86,28.3838,0.0117228
,,,,,,,,,100,142.606,0.0105214
,,,,,,,,,115,82.5962,0.022068
,,,,,,,,,131,71.1974,0.0229627
,,,,,,,,,148,82.5715,0.0191541
,,,,,,,,,166,112.877,0.0171561
,,,,,,,,,72,120.788,0.0457637
,,,,,,,,,85,176.08,0.109497
,,,,,,,,,99,107.153,0.019263
,,,,,,,,,114,44.8778,0.0162197
,,,,,,,,,130,54.0197,0.0838658
,,,,,,,,,147,138.978,0.0984428
,,,,,,,,,165,106.63,0.0531425
,,,,,,,,,184,92.2501,0.0401645
,,,,,,,,,98,55.2983,0.0470976
,,,,,,,,,113,128.517,0.0156219
,,,,,,,,,129,86.7979,0.0135587
,,,,,,,,,146,136.777,0.0416257
,,,,,,,,,164,75.4659,0.0449277
,,,,,,,,,183,91.1043,0.0323446
,,,,,,,,,203,75.4507,0.0270289
,,,,,,,,,128,76.6128,0.0194954
,,,,,,,,,145,132.505,0.0163842
,,,,,,,,,163,128.505,0.088457
,,,,,,,,,182,42.3109,0.104829
,,,,,,,,,202,74.4103,0.0549498
,,,,,,,,,223,86.9139,0.0411883
,,,,,,,,,162,119.006,0.00963254
,,,,,,,,,181,61.3831,0.0184893
,,,,,,,,,201,55.4129,0.0191133
,,,,,,,,,222,56.0989,0.0163992
,,,,,,,,,244,85.6157,0.0149122
,,,,,,,,,200,60.0638,0.0156677
,,,,,,,,,221,106.626,0.0161135
,,,,,,,,,243,79.5034,0.0141405
,,,,,,,,,266,53.5304,0.0130209
,,,,,,,,,242,87.6217,0.0811003
,,,,,,,,,265,58.2316,0.0476428
,,,,,,,,,289,62.8335,0.0369415
,,,,,,,,,288,32.4003,0.0520185
,,,,,,,,,313,53.097,0.0395191
,,,,,,,,,338,30.4002,0.0294435
