"cellPairingIds","interplanarAngles","angleWeights"
8,36.9971,0.049203
34,42.0018,0.07001
43,64.3075,0.0830123
76,115.187,0.0279243
52,41.0661,0.0586735
75,75.4606,0.0646378
88,148.512,0.0245049
102,90.9321,0.0591723
98,51.9816,0.0908828
146,113.316,0.0287622
163,160.506,0.0307403
182,78.6265,0.115979
200,99.4189,0.0323018
221,55.0858,0.141852
242,111.872,0.0308766
