Q	U	V
{$V$}	{[mm$^3$]}	0.00953282
{$d_v$}	{[mm]}	0.263072
{$S_c$}	{[mm$^2$]}	0.307775
{$S_o$}	{[mm$^2$]}	0.217561
{$S_l/S_o$}	[]	0.414661
{$\Psi$}	[]	0.706423
{$\eta$}	[]	0.742789
{med($\theta_e$)}	{[$^\circ$]}	66.643
{$\Upsilon$}	[]	13
{$\Xi$}	[]	11
