"cellPairingIds","interplanarAngles","angleWeights"
8,54.1855,0.0259175
13,40.3514,0.0504532
19,41.1855,0.0379881
26,51.0659,0.0640117
34,69.8982,0.0231157
18,28.858,0.0244031
42,118.182,0.0155234
75,64.1341,0.0302935
88,96.7745,0.0182411
102,83.471,0.0251444
41,36.5619,0.0555044
87,60.8309,0.0701915
50,75.0239,0.0407827
61,29.4437,0.0191722
73,49.3926,0.0457563
85,62.5515,0.0896615
114,60.2799,0.099517
184,68.8658,0.0574712
98,51.8675,0.0257788
146,113.544,0.0168073
183,77.0276,0.020184
269,102.769,0.0250108
223,67.1882,0.067867
292,78.1543,0.103318
221,52.8123,0.0766949
266,53.6588,0.0733666
290,45.2593,0.0271893
242,33.5291,0.0286949
265,38.118,0.0250335
314,61.6667,0.0170678
340,33.8143,0.0294113
339,37.9666,0.0229678
393,42.1454,0.0415855
422,68.1405,0.0489443
392,37.3282,0.02266
451,34.3302,0.0627911
450,39.108,0.0234245
481,33.9678,0.0255919
512,37.4498,0.0690349
