Q	U	V
{$V$}	{[mm$^3$]}	0.0078514
{$d_v$}	{[mm]}	0.246594
{$S_c$}	{[mm$^2$]}	0.370804
{$S_o$}	{[mm$^2$]}	0.231234
{$S_l/S_o$}	[]	0.603588
{$\Psi$}	[]	0.515194
{$\eta$}	[]	0.550585
{med($\theta_e$)}	{[$^\circ$]}	59.9795
{$\Upsilon$}	[]	16
{$\Xi$}	[]	15
