facetNormals:0,facetNormals:1,facetNormals:2,FacetCenters:0,FacetCenters:1,FacetCenters:2,FacetIds,relFacetSize,absFacetSize,cellPairingIds,interplanarAngles,angleWeights
0.178203,0.656264,-0.717501,6.98081,6.97834,6.07385,1,0.013132,0.000845098,8,63.6467,0.0249384
-0.67262,0.0836708,-0.676009,6.92435,6.921,6.09357,2,0.247043,0.0158981,13,79.9501,0.0240149
0.586873,-0.508928,-0.548346,6.9954,6.82099,6.11319,3,0.140214,0.00902332,19,96.623,0.0237882
-0.253195,-0.718647,-0.569075,6.9546,6.82522,6.10138,4,0.126172,0.00811966,26,99.1732,0.0211657
-0.852399,-0.373621,-0.336099,6.90958,6.83569,6.12702,5,0.0545167,0.00350836,34,45.4543,0.021983
0.763545,0.534502,-0.25551,6.99972,6.96875,6.08959,6,0.067431,0.00433944,43,33.677,0.0109721
0.283985,0.919906,-0.22049,6.9764,7.00173,6.12445,7,0.00942238,0.000606367,53,66.9108,0.017037
0.959833,0.148389,-0.157516,7.01328,6.90176,6.08482,8,0.0242473,0.00156041,64,80.1109,0.0207793
0.952686,-0.185945,-0.166494,7.01147,6.90054,6.09066,9,0.0497514,0.00320169,76,122.186,0.00886909
0.71393,-0.381442,0.544287,7.00474,6.93959,6.12086,10,0.00669556,0.000430885,89,139.771,0.00613434
-0.683996,-0.201669,0.687892,6.94216,6.83784,6.14509,11,0.00400186,0.000257535,103,109.504,0.0140151
0.508302,0.22956,0.775682,6.99666,6.89829,6.12632,12,0.0150254,0.000966945,18,94.1983,0.178894
,,,,,,,,,25,57.0719,0.167035
,,,,,,,,,33,35.6963,0.0893221
,,,,,,,,,42,108.668,0.105944
,,,,,,,,,52,87.878,0.0181524
,,,,,,,,,63,124,0.0441603
,,,,,,,,,75,125.226,0.0828232
,,,,,,,,,88,160.474,0.0130378
,,,,,,,,,102,91.3185,0.00787613
,,,,,,,,,117,157.846,0.0283279
,,,,,,,,,32,54.181,0.132823
,,,,,,,,,41,97.684,0.0785085
,,,,,,,,,51,69.874,0.0910667
,,,,,,,,,62,101.087,0.0176581
,,,,,,,,,74,52.1426,0.0413449
,,,,,,,,,87,37.2871,0.0734433
,,,,,,,,,101,70.1682,0.0127808
,,,,,,,,,116,135.85,0.00778162
,,,,,,,,,132,105.572,0.0271423
,,,,,,,,,50,44.1166,0.0761363
,,,,,,,,,61,118.04,0.0878902
,,,,,,,,,73,130.3,0.0175352
,,,,,,,,,86,106.134,0.0406774
,,,,,,,,,100,90.7855,0.0713632
,,,,,,,,,115,103.489,0.0127163
,,,,,,,,,131,94.4646,0.00775766
,,,,,,,,,148,144.005,0.026853
,,,,,,,,,72,143.094,0.06029
,,,,,,,,,85,121.57,0.0160677
,,,,,,,,,99,147.448,0.0335657
,,,,,,,,,114,134.797,0.0520251
,,,,,,,,,130,132.251,0.0119264
,,,,,,,,,147,64.1693,0.00745637
,,,,,,,,,165,145.57,0.023558
,,,,,,,,,98,36.7439,0.0165344
,,,,,,,,,113,26.3033,0.0356687
,,,,,,,,,129,45.2068,0.0572575
,,,,,,,,,146,77.6161,0.0121816
,,,,,,,,,164,147.303,0.00755532
,,,,,,,,,183,70.2093,0.0245749
,,,,,,,,,128,62.826,0.0135711
,,,,,,,,,145,81.9504,0.0158441
,,,,,,,,,163,106.161,0.00782831
,,,,,,,,,182,122.892,0.00561775
,,,,,,,,,202,78.7248,0.0115818
,,,,,,,,,162,19.5662,0.0326043
,,,,,,,,,181,55.5496,0.0104935
,,,,,,,,,201,144.614,0.00686989
,,,,,,,,,222,64.832,0.0185537
,,,,,,,,,200,46.5654,0.0118027
,,,,,,,,,221,138.309,0.00740785
,,,,,,,,,243,70.607,0.0230804
,,,,,,,,,242,92.1935,0.00500956
,,,,,,,,,265,41.5396,0.00926327
,,,,,,,,,288,81.5186,0.00632036
