"cellPairingIds","interplanarAngles","angleWeights"
8,57.5704,0.00865335
13,91.1765,0.00877073
19,116.744,0.0119661
34,106.676,0.0114156
53,47.0573,0.00747843
64,71.8113,0.00943485
76,67.1004,0.0103298
25,74.1249,0.0258723
52,68.363,0.0178973
75,69.8462,0.0163741
102,69.1695,0.0235911
32,58.8533,0.0269508
41,47.5069,0.0274297
51,35.934,0.0243106
50,41.5571,0.166368
73,49.7584,0.0418734
72,46.4698,0.0995984
85,72.899,0.0430411
130,113.542,0.051952
165,56.9662,0.0306591
204,75.4516,0.0297246
146,69.306,0.0417955
182,39.8221,0.0362071
202,59.6193,0.0198069
223,64.647,0.0408765
162,40.5493,0.0126219
181,46.6128,0.0142766
244,69.6121,0.0174248
221,43.5589,0.0304724
266,39.0176,0.0337136
289,91.5984,0.0488308
314,55.181,0.0210403
313,31.3525,0.0910873
338,55.7675,0.0295446
365,48.3203,0.0164214
392,69.9095,0.0286759
