"cellPairingIds","interplanarAngles","angleWeights"
50,129.119,0.0317784
115,162.681,0.0718816
131,157.537,0.0556695
205,116.743,0.0278548
130,43.8043,0.0397092
147,63.782,0.0342062
242,39.7709,0.0856283
340,59.1029,0.0337659
366,72.9473,0.0297026
