Q	U	V
{$V$}	{[mm$^3$]}	0.00795352
{$d_v$}	{[mm]}	0.247659
{$S_c$}	{[mm$^2$]}	0.279812
{$S_o$}	{[mm$^2$]}	0.197791
{$S_l/S_o$}	[]	0.414685
{$\Psi$}	[]	0.688638
{$\eta$}	[]	0.712600
{med($\theta_e$)}	{[$^\circ$]}	62.5523
{$\Upsilon$}	[]	13
{$\Xi$}	[]	12
