"cellPairingIds","interplanarAngles","angleWeights"
8,53.0537,0.0301225
19,59.4928,0.04582
26,40.3575,0.0839019
53,61.9753,0.0647026
64,92.7932,0.046939
52,37.779,0.0319887
63,63.6259,0.0315361
75,75.7041,0.0266251
50,88.0719,0.0595245
100,46.303,0.0381893
115,35.7739,0.0567059
99,43.802,0.0958717
130,111.013,0.129383
184,68.017,0.0414555
225,87.6021,0.0771336
98,48.5176,0.0181385
129,52.1144,0.016279
183,28.3253,0.0105826
128,51.7414,0.0739723
145,96.3228,0.0516329
202,53.3493,0.0190718
268,79.9428,0.0622956
291,65.5413,0.0606018
200,44.4234,0.0584297
243,69.7499,0.0170268
290,62.2078,0.0348998
289,91.7441,0.0400685
314,69.7549,0.0497439
340,131.079,0.0724661
365,45.0984,0.0162024
393,77.8555,0.0180453
421,52.6769,0.0331205
450,80.2048,0.0394657
