"cellPairingIds","interplanarAngles","angleWeights"
8,86.344,0.143767
13,52.5727,0.0744363
19,41.9477,0.0316063
18,73.1983,0.0781208
25,125.051,0.0322521
33,118.534,0.0851622
52,47.3922,0.0926815
88,87.7646,0.0937581
32,83.4992,0.0266779
62,95.5891,0.0579098
74,52.7023,0.0581795
87,61.7598,0.0349959
116,56.0618,0.0484795
50,49.7316,0.027453
61,29.9894,0.0265052
86,70.634,0.028254
72,47.238,0.0541562
130,84.401,0.062166
113,64.1092,0.0573645
146,108.711,0.0575091
183,87.5746,0.0220803
145,48.9891,0.0376454
163,51.0619,0.0660795
202,69.8744,0.0232375
201,21.9983,0.0539485
222,80.8311,0.0232808
221,45.99,0.0334194
243,66.4401,0.0184025
265,43.9502,0.0233046
288,67.038,0.021555
