"cellPairingIds","interplanarAngles","angleWeights"
8,30.0884,0.0748428
13,52.9017,0.0719855
19,45.2275,0.0540858
43,51.366,0.0509122
53,83.7907,0.0412534
18,66.2512,0.09393
25,35.7925,0.0656009
75,73.7091,0.0105289
102,109.668,0.0689151
150,111.266,0.0155118
74,44.2065,0.0464569
116,78.3674,0.0664851
61,29.2257,0.0369833
73,58.2638,0.0464598
185,95.4208,0.0143689
205,99.5035,0.0545041
98,37.4733,0.0354714
246,77.4736,0.0399761
128,79.4207,0.0366632
268,84.779,0.0512827
201,78.2549,0.039386
291,107.976,0.0414963
221,49.9431,0.0100632
290,56.7976,0.00669668
339,72.921,0.0145219
366,104.198,0.0567725
450,52.4216,0.0147994
