facetNormals:0,facetNormals:1,facetNormals:2,FacetCenters:0,FacetCenters:1,FacetCenters:2,FacetIds,relFacetSize,absFacetSize,cellPairingIds,interplanarAngles,angleWeights
0.0861864,-0.326923,-0.861033,4.65236,7.34572,9.07071,1,0.158208,0.021119,8,56.1999,0.103542
-0.402725,0.416445,-0.778278,4.61832,7.42083,9.0641,2,0.0769527,0.0102723,13,69.3706,0.0840411
-0.855081,0.0394091,-0.470221,4.55237,7.3774,9.10034,3,0.0572178,0.00763791,19,64.005,0.0186163
0.785169,0.329589,-0.515183,4.76417,7.42391,9.11898,4,0.00989,0.0013202,26,48.2822,0.0810296
-0.110814,-0.900192,-0.369463,4.65816,7.29993,9.11922,5,0.0544616,0.00726999,34,85.0208,0.0674856
0.690948,0.626063,-0.258774,4.73119,7.44205,9.10181,6,0.0428905,0.00572539,43,55.2016,0.0896187
0.832707,-0.242768,-0.413645,4.73621,7.37966,9.09176,7,0.0625157,0.00834512,53,80.2686,0.0632042
-0.884857,-0.383396,-0.119458,4.56163,7.34473,9.14793,8,0.0394903,0.00527149,64,58.8213,0.0680363
0.555427,-0.778483,-0.191247,4.67544,7.30666,9.10278,9,0.0433364,0.00578491,76,121.385,0.0470614
-0.770085,0.512505,0.267012,4.55722,7.41137,9.15126,10,0.027642,0.00368988,89,124.477,0.155225
-0.133242,0.919089,0.217817,4.64975,7.44664,9.1297,11,0.152351,0.0203371,103,107.831,0.0840917
-0.502459,-0.63254,0.50291,4.57444,7.32934,9.13892,12,0.0572647,0.00764417,118,159.721,0.0152789
0.106825,0.0701909,0.964421,4.65405,7.31989,9.15675,13,0.00802704,0.00107152,18,39.9184,0.0656339
,,,,,,,,,25,76.7083,0.0175274
,,,,,,,,,33,92.5761,0.0637825
,,,,,,,,,42,78.7064,0.055081
,,,,,,,,,52,97.0555,0.068987
,,,,,,,,,63,72.1069,0.0521952
,,,,,,,,,75,114.943,0.0554473
,,,,,,,,,88,70.2439,0.0406737
,,,,,,,,,102,73.2394,0.102256
,,,,,,,,,117,119.347,0.0656647
,,,,,,,,,133,144.078,0.0145376
,,,,,,,,,32,115.349,0.0168649
,,,,,,,,,41,75.9002,0.0558057
,,,,,,,,,51,118.055,0.0490289
,,,,,,,,,62,124.169,0.0597495
,,,,,,,,,74,32.8028,0.0467292
,,,,,,,,,87,115.876,0.0493189
,,,,,,,,,101,53.9678,0.0372759
,,,,,,,,,116,87.0632,0.0831917
,,,,,,,,,132,79.5704,0.0572412
,,,,,,,,,149,124.787,0.014079
,,,,,,,,,50,101.442,0.0167401
,,,,,,,,,61,23.6493,0.0160736
,,,,,,,,,73,34.6359,0.0170782
,,,,,,,,,86,141.759,0.0158184
,,,,,,,,,100,73.3534,0.0161047
,,,,,,,,,115,126.747,0.0145678
,,,,,,,,,131,84.7973,0.0185742
,,,,,,,,,148,155.544,0.016867
,,,,,,,,,166,113.743,0.00886167
,,,,,,,,,72,125.072,0.0479884
,,,,,,,,,85,72.7494,0.0582114
,,,,,,,,,99,59.1977,0.0457831
,,,,,,,,,114,41.9903,0.0482662
,,,,,,,,,130,120.225,0.0366714
,,,,,,,,,147,162.934,0.0802396
,,,,,,,,,165,61.8768,0.055828
,,,,,,,,,184,116.919,0.0139918
,,,,,,,,,98,55.2206,0.0508761
,,,,,,,,,113,150.765,0.0411202
,,,,,,,,,129,93.2876,0.0431123
,,,,,,,,,146,107.511,0.0336179
,,,,,,,,,164,62.446,0.0669368
,,,,,,,,,183,161.525,0.0490461
,,,,,,,,,203,98.0491,0.0135232
,,,,,,,,,128,129.53,0.0484042
,,,,,,,,,145,38.7773,0.0511885
,,,,,,,,,163,161.252,0.0383341
,,,,,,,,,182,117.564,0.0886534
,,,,,,,,,202,121.139,0.0597751
,,,,,,,,,223,110.475,0.0142273
,,,,,,,,,162,100.344,0.041324
,,,,,,,,,181,61.0384,0.0325205
,,,,,,,,,201,106.322,0.0627225
,,,,,,,,,222,47.3022,0.0467448
,,,,,,,,,244,104.497,0.0133421
,,,,,,,,,200,159.199,0.033754
,,,,,,,,,221,153.309,0.0674785
,,,,,,,,,243,82.7471,0.0493364
,,,,,,,,,266,100.921,0.0135452
,,,,,,,,,242,46.5336,0.0467938
,,,,,,,,,265,77.5806,0.0372858
,,,,,,,,,289,76.9675,0.0124412
,,,,,,,,,288,116.49,0.0832413
,,,,,,,,,313,73.7074,0.0152506
,,,,,,,,,338,65.2927,0.0140804
