facetNormals:0,facetNormals:1,facetNormals:2,FacetCenters:0,FacetCenters:1,FacetCenters:2,FacetIds,relFacetSize,absFacetSize,cellPairingIds,interplanarAngles,angleWeights
-0.0732869,0.334486,-0.898667,5.15804,5.72739,6.02488,1,0.0221206,0.00201477,8,53.3819,0.0242741
0.437418,-0.370003,-0.803077,5.16813,5.71982,5.93917,2,0.0268921,0.00244936,13,41.6845,0.0282936
-0.655938,0.164424,-0.616785,5.13157,5.71971,5.99089,3,0.0392456,0.00357452,19,35.0256,0.0255831
0.301475,0.669233,-0.614224,5.17523,5.72017,6.06794,4,0.0303308,0.00276255,26,61.0375,0.025349
-0.237443,-0.622743,-0.721347,5.11762,5.68784,5.96824,5,0.0296808,0.00270335,34,83.8946,0.0321383
0.445697,-0.754266,-0.428069,5.1525,5.67253,5.98455,6,0.0587395,0.00535005,43,73.0104,0.0327033
0.851375,-0.172877,-0.437999,5.20002,5.77368,5.93628,7,0.0626991,0.00571069,53,85.7677,0.0205325
-0.933241,-0.112008,-0.0398831,5.11599,5.72505,6.0028,8,0.0191572,0.00174485,64,74.6743,0.0236531
-0.209471,0.927789,0.092126,5.14319,5.74664,5.96178,9,0.0254138,0.00231471,76,102.667,0.0366462
-0.0400491,-0.952654,-0.12563,5.11449,5.66001,5.99272,10,0.106732,0.00972129,89,94.0717,0.0332266
0.97897,0.032919,0.00684798,5.18916,5.74856,5.96087,11,0.0667284,0.00607769,103,103.195,0.0110757
-0.661296,-0.726865,0.0234951,5.10076,5.70076,5.95736,12,0.00738721,0.000672834,118,82.7271,0.00719012
-0.655979,0.731055,0.190063,5.16908,5.76439,6.00231,13,0.00429271,0.000390984,134,117.632,0.0069949
-0.77852,0.123771,0.601785,5.16179,5.74253,6.12157,14,0.00415427,0.000378375,151,117.44,0.0352203
0.768606,0.279818,0.519243,5.1715,5.75494,5.99275,15,0.086365,0.00786621,169,145.539,0.0349944
0.561901,-0.078761,0.76584,5.15944,5.74299,6.00856,16,0.0837144,0.00762478,188,173.277,0.0349026
-0.0102765,-0.262419,0.921176,5.09399,5.69531,6.06383,17,0.082674,0.00753002,18,80.5934,0.0319151
,,,,,,,,,25,66.4315,0.0285081
,,,,,,,,,33,43.2347,0.0282177
,,,,,,,,,42,31.7686,0.0368936
,,,,,,,,,52,34.8002,0.0376401
,,,,,,,,,63,111.142,0.022375
,,,,,,,,,75,122.672,0.0261321
,,,,,,,,,88,62.6514,0.0429601
,,,,,,,,,102,64.8589,0.0383349
,,,,,,,,,117,92.3162,0.0115905
,,,,,,,,,133,136.011,0.00740361
,,,,,,,,,150,152.73,0.00719679
,,,,,,,,,168,101.119,0.0410135
,,,,,,,,,187,111.205,0.0407075
,,,,,,,,,207,133.226,0.0405833
,,,,,,,,,32,70.5888,0.034217
,,,,,,,,,41,56.3362,0.0337995
,,,,,,,,,51,99.8283,0.0470534
,,,,,,,,,62,110.835,0.0482745
,,,,,,,,,74,44.1025,0.0257466
,,,,,,,,,87,74.5411,0.0308503
,,,,,,,,,101,93.4442,0.0573891
,,,,,,,,,116,135.636,0.0494234
,,,,,,,,,132,70.5372,0.012434
,,,,,,,,,149,61.7605,0.00773893
,,,,,,,,,167,79.8579,0.00751324
,,,,,,,,,186,151.38,0.0539675
,,,,,,,,,206,168.185,0.0534388
,,,,,,,,,227,133.598,0.0532251
,,,,,,,,,50,92.7608,0.0300023
,,,,,,,,,61,96.6134,0.0400047
,,,,,,,,,73,63.8766,0.0408839
,,,,,,,,,86,111.624,0.0234826
,,,,,,,,,100,56.772,0.0276554
,,,,,,,,,115,128.456,0.0472377
,,,,,,,,,131,70.4994,0.0417049
,,,,,,,,,148,138.1,0.0118808
,,,,,,,,,166,79.4847,0.00752098
,,,,,,,,,185,123.327,0.00730765
,,,,,,,,,205,83.8061,0.0448948
,,,,,,,,,226,112.814,0.0445283
,,,,,,,,,248,144.302,0.0443798
,,,,,,,,,72,45.3781,0.0394352
,,,,,,,,,85,76.5989,0.0402893
,,,,,,,,,99,69.7289,0.0232852
,,,,,,,,,114,129.305,0.0273821
,,,,,,,,,130,42.7675,0.0464457
,,,,,,,,,147,105.55,0.0410864
,,,,,,,,,165,52.1215,0.0118301
,,,,,,,,,184,116.383,0.00750062
,,,,,,,,,204,109.574,0.00728842
,,,,,,,,,225,140.226,0.0441788
,,,,,,,,,247,132.867,0.0438239
,,,,,,,,,270,122.008,0.04368
,,,,,,,,,98,42.6874,0.0606547
,,,,,,,,,113,110.042,0.0288917
,,,,,,,,,129,153.322,0.035478
,,,,,,,,,146,36.4341,0.0757761
,,,,,,,,,164,64.6753,0.0624796
,,,,,,,,,183,75.2855,0.0131239
,,,,,,,,,203,161.506,0.00800073
,,,,,,,,,224,136.198,0.00775975
,,,,,,,,,246,95.5132,0.0699225
,,,,,,,,,269,91.109,0.0690377
,,,,,,,,,293,102.426,0.0686813
,,,,,,,,,128,145.875,0.0293475
,,,,,,,,,145,114.063,0.0361677
,,,,,,,,,163,78.5578,0.0789939
,,,,,,,,,182,30.0671,0.064651
,,,,,,,,,202,117.91,0.0132172
,,,,,,,,,223,142.106,0.00803529
,,,,,,,,,245,169.199,0.00779225
,,,,,,,,,268,66.3206,0.0726534
,,,,,,,,,292,80.2796,0.0716985
,,,,,,,,,317,113.182,0.0713142
,,,,,,,,,162,84.3895,0.0218464
,,,,,,,,,181,80.5155,0.0324839
,,,,,,,,,201,174.681,0.0297682
,,,,,,,,,222,41.0273,0.0106628
,,,,,,,,,244,56.2631,0.00701379
,,,,,,,,,267,42.4282,0.0068279
,,,,,,,,,291,147.572,0.0313585
,,,,,,,,,316,127.52,0.0311793
,,,,,,,,,342,89.8573,0.0311064
,,,,,,,,,200,164.84,0.0410527
,,,,,,,,,221,100.706,0.0368088
,,,,,,,,,243,124.623,0.011447
,,,,,,,,,266,29.3641,0.0073448
,,,,,,,,,290,69.4059,0.00714121
,,,,,,,,,315,80.8987,0.0392716
,,,,,,,,,341,97.5849,0.0389909
,,,,,,,,,368,99.8414,0.0388769
,,,,,,,,,242,94.3483,0.0821175
,,,,,,,,,265,40.7662,0.013818
,,,,,,,,,289,136.166,0.00825347
,,,,,,,,,314,99.7993,0.00799727
,,,,,,,,,340,112.901,0.0954746
,,,,,,,,,367,92.7315,0.0938324
,,,,,,,,,395,81.5936,0.0931753
,,,,,,,,,288,134.191,0.0133018
,,,,,,,,,313,129.007,0.0080665
,,,,,,,,,339,140.905,0.0078216
,,,,,,,,,366,36.2636,0.0752874
,,,,,,,,,394,53.6989,0.0742625
,,,,,,,,,423,90.7567,0.0738503
,,,,,,,,,338,95.4335,0.00543003
,,,,,,,,,365,63.2347,0.00531794
,,,,,,,,,393,137.263,0.0136103
,,,,,,,,,422,108.44,0.0135764
,,,,,,,,,452,76.5387,0.0135626
,,,,,,,,,392,43.8468,0.00422236
,,,,,,,,,421,101.965,0.0081789
,,,,,,,,,451,107.115,0.00816665
,,,,,,,,,482,90.5991,0.00816164
,,,,,,,,,450,105.159,0.00792723
,,,,,,,,,481,89.1713,0.00791573
,,,,,,,,,513,56.0979,0.00791103
,,,,,,,,,512,29.0197,0.0850191
,,,,,,,,,545,64.674,0.0844792
,,,,,,,,,578,37.9051,0.0831909
