"cellPairingIds","interplanarAngles","angleWeights"
19,87.0719,0.142885
25,51.4883,0.0714146
32,112.813,0.176477
41,116.475,0.115515
51,53.6768,0.0164595
50,31.2265,0.131013
73,66.8737,0.126756
72,76.3572,0.0159435
85,38.9326,0.0919148
99,59.4128,0.0852228
113,42.1304,0.0156661
