facetNormals:0,facetNormals:1,facetNormals:2,FacetCenters:0,FacetCenters:1,FacetCenters:2,FacetIds,relFacetSize,absFacetSize,cellPairingIds,interplanarAngles,angleWeights
0.417211,-0.020932,-0.88516,6.281,5.6201,5.7667,1,0.0211365,0.00394825,8,53.9087,0.0103174
0.346253,-0.804756,-0.463316,6.29777,5.55635,5.82519,2,0.00682425,0.00127475,13,75.6796,0.0380832
-0.61775,-0.48591,-0.54058,6.20395,5.59863,5.81113,3,0.192116,0.0358867,19,36.9144,0.0278313
0.847997,-0.0560029,-0.448564,6.25504,5.59659,5.78047,4,0.0407331,0.00760885,26,53.0875,0.0337256
0.426926,0.731376,-0.454302,6.25184,5.6968,5.76954,5,0.0833984,0.0155786,34,92.8143,0.0191382
-0.542332,0.783494,-0.221043,6.16561,5.71267,5.79727,6,0.0174851,0.00326617,43,73.47,0.0247063
0.451833,-0.836617,-0.067135,6.27965,5.5477,5.82568,7,0.029727,0.00555292,53,135.995,0.0276182
-0.882559,0.145355,0.34229,6.15192,5.64982,5.87142,8,0.0398332,0.00744074,64,101.178,0.0249805
0.577672,0.625091,0.465446,6.19732,5.5949,5.80563,9,0.0305335,0.00570358,76,104.447,0.0168377
0.448393,-0.710648,0.497552,6.27223,5.55141,5.85795,10,0.0139919,0.00261366,89,128.464,0.0342843
-0.279703,0.771234,0.51684,6.19649,5.71096,5.8535,11,0.0907092,0.0169443,103,143.797,0.0364989
0.163926,-0.017791,0.8521,6.2223,5.59771,5.88711,12,0.133605,0.0249571,18,63.1083,0.0131803
,,,,,,,,,25,54.9805,0.01169
,,,,,,,,,33,103.991,0.0126162
,,,,,,,,,42,137.601,0.00981702
,,,,,,,,,52,24.3221,0.0111003
,,,,,,,,,63,127.756,0.0116522
,,,,,,,,,75,122.649,0.0111553
,,,,,,,,,88,59.1259,0.00917406
,,,,,,,,,102,174.784,0.0126935
,,,,,,,,,117,112.108,0.0129853
,,,,,,,,,32,106.097,0.0672151
,,,,,,,,,41,114.045,0.116307
,,,,,,,,,51,85.4631,0.0320529
,,,,,,,,,62,79.6287,0.0514871
,,,,,,,,,74,71.5227,0.0659851
,,,,,,,,,87,170.318,0.0526924
,,,,,,,,,101,102.439,0.0260841
,,,,,,,,,116,121.361,0.123233
,,,,,,,,,132,131.932,0.157605
,,,,,,,,,50,55.3661,0.0547335
,,,,,,,,,61,115.496,0.0244673
,,,,,,,,,73,59.8462,0.0343704
,,,,,,,,,86,171.449,0.0402781
,,,,,,,,,100,74.6945,0.0349034
,,,,,,,,,115,77.8912,0.020829
,,,,,,,,,131,123.348,0.0562204
,,,,,,,,,148,106.883,0.0624322
,,,,,,,,,72,61.9598,0.0289091
,,,,,,,,,85,115.093,0.0438307
,,,,,,,,,99,117.57,0.0539151
,,,,,,,,,114,58.1223,0.0447012
,,,,,,,,,130,126.207,0.0239634
,,,,,,,,,147,76.9853,0.0869003
,,,,,,,,,165,113.317,0.102694
,,,,,,,,,98,161.786,0.0220189
,,,,,,,,,113,56.5145,0.0243024
,,,,,,,,,129,85.5528,0.0222364
,,,,,,,,,146,162.286,0.0155447
,,,,,,,,,164,47.4237,0.0293187
,,,,,,,,,183,110.059,0.0309232
,,,,,,,,,128,126.527,0.0340459
,,,,,,,,,145,108.486,0.0301248
,,,,,,,,,163,34.867,0.0190278
,,,,,,,,,182,150.739,0.0447791
,,,,,,,,,202,87.8008,0.0486331
,,,,,,,,,162,106.229,0.0345688
,,,,,,,,,181,110.578,0.0207094
,,,,,,,,,201,54.7557,0.0553573
,,,,,,,,,222,79.9952,0.0613696
,,,,,,,,,200,87.1933,0.01919
,,,,,,,,,221,53.3807,0.045688
,,,,,,,,,243,55.2276,0.0497072
,,,,,,,,,242,116.085,0.0242442
,,,,,,,,,265,52.9963,0.025331
,,,,,,,,,288,63.0934,0.108056
