"cellPairingIds","interplanarAngles","angleWeights"
8,26.5019,0.0504349
13,55.2783,0.0384371
19,83.2518,0.0156143
26,65.8041,0.0292425
18,36.3469,0.0633928
33,55.1357,0.0417451
42,51.4975,0.103687
63,80.0847,0.0459789
32,130.338,0.0166692
62,34.612,0.0576722
74,54.6346,0.0357934
50,107.717,0.0146689
73,140.248,0.0180614
100,116.892,0.0184993
131,90.5479,0.0191536
185,109.586,0.0131645
72,40.463,0.0416429
114,36.0956,0.0413067
113,43.7216,0.045855
129,45.6194,0.101024
224,75.7563,0.0314424
128,35.9162,0.0428931
182,72.0898,0.104626
201,78.0563,0.0496115
222,26.8153,0.0282924
267,67.1747,0.0227744
291,39.7308,0.0285332
290,42.3121,0.0312503
288,54.9014,0.0463192
339,73.8302,0.0331642
365,51.9454,0.0220548
393,24.2521,0.0274125
450,28.7333,0.0222009
