"cellPairingIds","interplanarAngles","angleWeights"
8,80.9095,0.0618013
13,38.6757,0.0352218
19,110.329,0.0386864
26,68.0261,0.0706563
25,71.5549,0.0452978
33,96.674,0.0963364
42,77.5131,0.107648
32,108.06,0.0291658
41,78.2632,0.0442656
62,44.1667,0.0371674
74,60.7671,0.0474811
61,135.337,0.0527496
73,105.149,0.0410464
86,138.621,0.0540004
100,105.155,0.0349672
72,36.4192,0.137709
99,53.174,0.146573
113,77.1238,0.174465
129,37.4271,0.0632444
128,37.2404,0.0897909
162,88.6369,0.065051
