Q	U	V
{$V$}	{[mm$^3$]}	0.00594792
{$d_v$}	{[mm]}	0.224796
{$S_c$}	{[mm$^2$]}	0.272838
{$S_o$}	{[mm$^2$]}	0.169672
{$S_l/S_o$}	[]	0.608032
{$\Psi$}	[]	0.581866
{$\eta$}	[]	0.597003
{med($\theta_e$)}	{[$^\circ$]}	61.0815
{$\Upsilon$}	[]	14
{$\Xi$}	[]	10
