"cellPairingIds","interplanarAngles","angleWeights"
8,73.1656,0.029639
19,79.0706,0.0427763
26,42.4335,0.0256204
34,53.2271,0.033478
43,46.1978,0.0335189
25,84.1831,0.0643366
42,71.2022,0.0453799
63,117.92,0.052507
75,76.8766,0.0463603
88,66.8945,0.0434901
73,81.5918,0.0859267
86,55.5917,0.115166
72,46.8907,0.0365922
85,29.077,0.036641
147,88.1433,0.0349633
146,62.1388,0.0522884
164,73.3012,0.0514393
128,100.881,0.0660517
182,106.728,0.0515359
162,68.4556,0.0679807
181,118.191,0.0619824
201,100.539,0.0607929
200,52.1791,0.0535943
242,42.673,0.0490246
