"cellPairingIds","interplanarAngles","angleWeights"
8,68.235,0.0277219
13,25.9588,0.0243279
19,123.214,0.0207829
34,60.4225,0.0260944
25,66.2229,0.0555451
33,39.7706,0.046853
42,104.805,0.121813
52,64.8559,0.0829326
75,87.7107,0.0379749
32,138.236,0.0434105
51,52.629,0.0755185
74,50.1516,0.0878361
132,108.209,0.0266691
73,49.4799,0.0414904
115,82.2252,0.0526254
148,110.184,0.0224679
85,33.4939,0.0364405
114,60.189,0.023971
113,19.5409,0.116249
129,42.3402,0.0349857
145,72.7159,0.030834
163,34.3932,0.0765882
162,56.9071,0.0374166
181,93.043,0.136032
222,59.8081,0.030435
200,43.0925,0.0365871
265,55.1252,0.0298839
