Q	U	V
{$V$}	{[mm$^3$]}	0.000972519
{$d_v$}	{[mm]}	0.122923
{$S_c$}	{[mm$^2$]}	0.0889727
{$S_o$}	{[mm$^2$]}	0.0475048
{$S_l/S_o$}	[]	0.872920
{$\Psi$}	[]	0.533531
{$\eta$}	[]	0.587167
{med($\theta_e$)}	{[$^\circ$]}	69.1468
{$\Upsilon$}	[]	23
{$\Xi$}	[]	3
