facetNormals:0,facetNormals:1,facetNormals:2,FacetCenters:0,FacetCenters:1,FacetCenters:2,FacetIds,relFacetSize,absFacetSize,cellPairingIds,interplanarAngles,angleWeights
0.0399857,0.47459,-0.853214,6.91788,5.70917,7.5402,1,0.105477,0.00593283,8,57.5691,0.0837278
0.592971,-0.258626,-0.702684,6.98742,5.65322,7.55826,2,0.0694145,0.00390438,13,71.8433,0.0610882
-0.115894,-0.65592,-0.720438,6.92727,5.64937,7.5431,3,0.0429944,0.00241833,19,37.4372,0.119358
0.561737,0.604828,-0.528577,6.9735,5.72324,7.57961,4,0.137445,0.00773092,26,75.8382,0.0929955
-0.857837,-0.183251,-0.41391,6.86862,5.67259,7.56024,5,0.0831552,0.00467726,34,47.2518,0.0187665
-0.0703947,0.964217,-0.24163,6.93412,5.75842,7.60639,6,0.0102995,0.00057932,43,93.2809,0.0572229
-0.963264,0.184318,0.122159,6.85853,5.7064,7.60512,7,0.0392613,0.00220835,53,80.0151,0.111428
-0.592332,0.752447,0.196654,6.89585,5.74656,7.61784,8,0.11809,0.00664224,64,124.265,0.0742212
0.744869,-0.0859771,0.610584,6.99121,5.69669,7.63987,9,0.0572548,0.00322044,76,101.999,0.0712714
0.658874,0.479623,0.528978,6.97253,5.73694,7.64777,10,0.0538183,0.00302714,89,155.667,0.0268696
0.281365,-0.657104,0.670104,6.98116,5.68059,7.6425,11,0.0153958,0.000865974,103,139.019,0.0236995
0.611054,-0.462979,0.627845,6.98085,5.68148,7.64816,12,0.0133495,0.000750873,118,119.982,0.0580862
-0.55027,0.347197,0.724747,6.91211,5.71881,7.66814,13,0.0400788,0.00225433,18,49.6179,0.0530996
,,,,,,,,,25,54.1656,0.092243
,,,,,,,,,33,100.601,0.0756661
,,,,,,,,,42,97.3232,0.0179375
,,,,,,,,,52,138.29,0.0501548
,,,,,,,,,63,137.102,0.0874341
,,,,,,,,,75,87.836,0.062751
,,,,,,,,,88,96.5002,0.0606295
,,,,,,,,,102,98.2378,0.0252019
,,,,,,,,,117,87.5233,0.0223925
,,,,,,,,,133,174.117,0.0508168
,,,,,,,,,32,94.8322,0.0654998
,,,,,,,,,41,57.0364,0.0566821
,,,,,,,,,51,117.416,0.0166181
,,,,,,,,,62,95.7569,0.0410432
,,,,,,,,,74,126.205,0.0630379
,,,,,,,,,87,119.682,0.0491104
,,,,,,,,,101,144.084,0.0478013
,,,,,,,,,116,95.0349,0.0226728
,,,,,,,,,132,103.045,0.0203732
,,,,,,,,,149,135.886,0.0414855
,,,,,,,,,50,113.161,0.10362
,,,,,,,,,61,46.5811,0.019163
,,,,,,,,,73,120.673,0.0610762
,,,,,,,,,86,88.8986,0.127034
,,,,,,,,,100,87.3586,0.0808361
,,,,,,,,,115,66.4437,0.0773495
,,,,,,,,,131,128.176,0.0276899
,,,,,,,,,148,106.056,0.0243353
,,,,,,,,,166,120.338,0.0620607
,,,,,,,,,72,90.9659,0.0183288
,,,,,,,,,85,39.2838,0.0533389
,,,,,,,,,99,72.265,0.0975902
,,,,,,,,,114,159.057,0.0678162
,,,,,,,,,130,157.724,0.0653451
,,,,,,,,,147,114.779,0.0259813
,,,,,,,,,165,136.676,0.0230057
,,,,,,,,,184,83.4087,0.0540883
,,,,,,,,,98,77.3303,0.0163182
,,,,,,,,,113,42.3741,0.0189465
,,,,,,,,,129,107.071,0.0174584
,,,,,,,,,146,72.6787,0.0172901
,,,,,,,,,164,146.62,0.0123423
,,,,,,,,,183,130.486,0.0116278
,,,,,,,,,203,78.2054,0.0163877
,,,,,,,,,128,40.6282,0.0589301
,,,,,,,,,145,133.576,0.0465808
,,,,,,,,,163,120.106,0.0454015
,,,,,,,,,182,108.689,0.0221182
,,,,,,,,,202,127.578,0.0199243
,,,,,,,,,223,44.8369,0.0396659
,,,,,,,,,162,114.089,0.0771191
,,,,,,,,,181,85.4926,0.0739394
,,,,,,,,,201,123.546,0.0272402
,,,,,,,,,222,127.286,0.0239873
,,,,,,,,,244,39.9693,0.0598462
,,,,,,,,,200,34.6865,0.0554834
,,,,,,,,,221,44.5452,0.0242664
,,,,,,,,,243,23.5611,0.0216508
,,,,,,,,,266,89.8304,0.0471513
,,,,,,,,,242,76.3474,0.0239424
,,,,,,,,,265,57.8256,0.0213926
,,,,,,,,,289,78.5814,0.0459433
,,,,,,,,,288,22.5178,0.0142998
,,,,,,,,,313,83.8228,0.022246
,,,,,,,,,338,92.4919,0.020028
