"cellPairingIds","interplanarAngles","angleWeights"
8,23.1924,0.0556162
13,50.8578,0.057388
19,67.5526,0.0623772
26,66.8068,0.0766861
34,104.791,0.00533801
25,51.663,0.0599313
33,51.6872,0.0730224
32,54.1335,0.0619938
51,88.3449,0.00533519
74,88.1285,0.0919275
50,78.6198,0.0851385
86,72.3511,0.105436
100,78.5847,0.0852975
72,138.273,0.00546299
114,75.6088,0.114517
130,83.9464,0.0189418
98,28.2283,0.00472698
113,90.9082,0.00553132
146,85.3193,0.00440356
128,67.8627,0.0285755
163,64.9978,0.0123008
162,53.7323,0.154532
181,76.3234,0.0197894
200,46.3156,0.0189497
