facetNormals:0,facetNormals:1,facetNormals:2,FacetCenters:0,FacetCenters:1,FacetCenters:2,FacetIds,relFacetSize,absFacetSize,cellPairingIds,interplanarAngles,angleWeights
0.206817,-0.433221,-0.855168,6.31421,3.63023,7.67687,1,0.104373,0.00987532,8,27.6916,0.113263
0.590207,-0.223951,-0.703935,6.36769,3.66513,7.68812,2,0.123809,0.0117143,13,34.9534,0.0392721
-0.377783,-0.455664,-0.78346,6.26326,3.61945,7.68431,3,0.0241863,0.00228841,19,100.208,0.0960451
-0.437074,0.797487,-0.314159,6.26847,3.73844,7.69614,4,0.0889481,0.0084159,26,76.8237,0.127627
-0.880386,-0.152788,-0.390417,6.2295,3.66019,7.71591,5,0.164213,0.0155371,34,49.5431,0.0221434
-0.0453982,-0.94614,-0.263239,6.29019,3.57492,7.71261,6,0.0123855,0.00117187,43,92.053,0.0571013
-0.765337,-0.599985,0.159341,6.21956,3.62579,7.77722,7,0.0393014,0.00371854,53,91.7918,0.055707
0.953642,0.0201621,0.255829,6.39032,3.65905,7.74901,8,0.0379923,0.00359468,64,86.9733,0.0528026
-0.330382,-0.874607,0.303645,6.26916,3.59885,7.78088,9,0.0353408,0.0033438,76,84.0043,0.0535569
0.402447,-0.800012,0.385804,6.35957,3.58303,7.76996,10,0.0360199,0.00340806,89,97.7616,0.0394778
-0.0643207,-0.820246,0.553555,6.30529,3.58137,7.77553,11,0.0243425,0.00230319,103,134.809,0.0493395
0.356099,0.756568,0.483471,6.34012,3.71377,7.71028,12,0.0323055,0.00305662,118,112.91,0.0396584
-0.331993,-0.637637,0.686498,6.27306,3.59341,7.74683,13,0.02448,0.0023162,134,133.708,0.0211487
0.0978728,-0.269306,0.935069,6.31373,3.6482,7.73418,14,0.0117664,0.00111329,18,62.3691,0.0404673
,,,,,,,,,25,103.697,0.103523
,,,,,,,,,33,103.202,0.141177
,,,,,,,,,42,66.518,0.0225184
,,,,,,,,,52,117.449,0.0596635
,,,,,,,,,63,66.1044,0.0581429
,,,,,,,,,75,103.24,0.0549861
,,,,,,,,,88,80.9447,0.0558046
,,,,,,,,,102,105.08,0.0406857
,,,,,,,,,117,109.15,0.0512408
,,,,,,,,,133,124.8,0.0408776
,,,,,,,,,150,125.741,0.0214905
,,,,,,,,,32,87.0959,0.0380313
,,,,,,,,,41,42.3082,0.0421626
,,,,,,,,,51,47.3121,0.016382
,,,,,,,,,62,63.1069,0.0299446
,,,,,,,,,74,125.993,0.0295566
,,,,,,,,,87,72.7987,0.0287185
,,,,,,,,,101,95.3794,0.0289402
,,,,,,,,,116,92.0972,0.0242642
,,,,,,,,,132,154.784,0.0276625
,,,,,,,,,149,97.173,0.0243323
,,,,,,,,,167,132.345,0.0158311
,,,,,,,,,50,65.7323,0.115392
,,,,,,,,,61,133.573,0.0217434
,,,,,,,,,73,101.809,0.0545154
,,,,,,,,,86,120.42,0.053243
,,,,,,,,,100,133.287,0.0505837
,,,,,,,,,115,175.352,0.0512756
,,,,,,,,,131,146.972,0.0382242
,,,,,,,,,148,71.4385,0.0473968
,,,,,,,,,166,127.263,0.0383935
,,,,,,,,,185,125.866,0.0207835
,,,,,,,,,72,72.5611,0.0230338
,,,,,,,,,85,42.9584,0.0634235
,,,,,,,,,99,168.169,0.0617079
,,,,,,,,,114,71.3867,0.058164
,,,,,,,,,130,113.734,0.0590806
,,,,,,,,,147,92.0249,0.0423998
,,,,,,,,,165,130.995,0.0539897
,,,,,,,,,184,82.788,0.0426082
,,,,,,,,,204,115.469,0.0219594
,,,,,,,,,98,54.6544,0.0188353
,,,,,,,,,113,97.6778,0.018681
,,,,,,,,,129,37.9013,0.0183427
,,,,,,,,,146,48.3503,0.0184329
,,,,,,,,,164,49.4912,0.0164177
,,,,,,,,,183,154.805,0.0179061
,,,,,,,,,203,63.3947,0.0164489
,,,,,,,,,224,89.7491,0.012068
,,,,,,,,,128,136.096,0.0386358
,,,,,,,,,145,31.4958,0.037216
,,,,,,,,,163,75.9388,0.0375892
,,,,,,,,,182,49.8911,0.030064
,,,,,,,,,202,133.023,0.0354617
,,,,,,,,,223,40.3933,0.0301686
,,,,,,,,,245,75.8459,0.0181107
,,,,,,,,,162,105.23,0.0366186
,,,,,,,,,181,61.0342,0.0369799
,,,,,,,,,201,86.2683,0.029673
,,,,,,,,,222,59.8897,0.0349189
,,,,,,,,,244,99.0157,0.0297749
,,,,,,,,,267,70.2024,0.0179681
,,,,,,,,,200,44.4819,0.0356771
,,,,,,,,,221,21.5375,0.0288283
,,,,,,,,,243,131.775,0.0337551
,,,,,,,,,266,26.3212,0.0289245
,,,,,,,,,290,59.5551,0.0176548
,,,,,,,,,242,29.2236,0.0290517
,,,,,,,,,265,107.004,0.0340618
,,,,,,,,,289,48.5709,0.0291494
,,,,,,,,,314,49.7956,0.0177384
,,,,,,,,,288,113.104,0.0277644
,,,,,,,,,313,20.318,0.0244111
,,,,,,,,,339,40.9745,0.0158645
,,,,,,,,,338,106.254,0.0278536
,,,,,,,,,365,72.5555,0.01725
,,,,,,,,,392,36.531,0.0158936
