facetNormals:0,facetNormals:1,facetNormals:2,FacetCenters:0,FacetCenters:1,FacetCenters:2,FacetIds,relFacetSize,absFacetSize,cellPairingIds,interplanarAngles,angleWeights
0.0875999,-0.241421,-0.903878,7.18257,5.81085,8.27166,1,0.070221,0.00473111,8,51.2588,0.0293039
0.492336,0.46118,-0.71497,7.2121,5.85812,8.29366,2,0.0185153,0.00124746,13,46.447,0.082769
0.750787,-0.0968803,-0.58794,7.22283,5.8084,8.30124,3,0.100777,0.00678983,19,89.263,0.0220862
-0.97741,-5.44273e-05,-0.10786,7.12372,5.81726,8.39038,4,0.0131038,0.000882864,26,84.2886,0.0446566
0.920509,0.345224,-0.105288,7.23749,5.84327,8.35234,5,0.0327381,0.00220572,34,99.2283,0.0654999
0.683819,0.702582,0.0422207,7.22143,5.8791,8.37625,6,0.0613737,0.00413503,43,84.0809,0.103343
-0.487556,-0.802136,0.0661124,7.17055,5.77495,8.35281,7,0.195611,0.0131792,53,84.6335,0.0560596
0.960262,-0.217926,0.055381,7.23614,5.78766,8.34185,8,0.0466515,0.00314313,64,107.977,0.0148136
-0.854182,-0.377746,0.336646,7.13376,5.81382,8.39573,9,0.00828016,0.000557873,76,128.793,0.047537
0.608679,0.526093,0.555094,7.18606,5.88854,8.43684,10,0.0359303,0.00242079,89,119.408,0.0773668
0.78274,-0.0516643,0.591023,7.21304,5.83736,8.41497,11,0.0861317,0.00580309,103,126.13,0.0800373
0.508475,-0.38018,0.755912,7.18263,5.82879,8.43644,12,0.0930441,0.00626881,118,146.573,0.0646503
-0.113283,-0.30742,0.91155,7.13762,5.85177,8.45574,13,0.0598985,0.00403564,18,37.7172,0.0312831
,,,,,,,,,25,114.713,0.0153465
,,,,,,,,,33,44.9634,0.0236533
,,,,,,,,,42,49.1855,0.0284483
,,,,,,,,,52,135.278,0.0338286
,,,,,,,,,63,69.9309,0.0265094
,,,,,,,,,75,148.878,0.011443
,,,,,,,,,88,81.2946,0.0244376
,,,,,,,,,102,93.6236,0.0304787
,,,,,,,,,117,118.663,0.0308847
,,,,,,,,,133,153.119,0.0282868
,,,,,,,,,32,135.339,0.023192
,,,,,,,,,41,40.6008,0.0494214
,,,,,,,,,51,63.4447,0.0762878
,,,,,,,,,62,111.271,0.133022
,,,,,,,,,74,41.3622,0.0637787
,,,,,,,,,87,147.507,0.015303
,,,,,,,,,101,85.1225,0.0529737
,,,,,,,,,116,74.9034,0.0928807
,,,,,,,,,132,91.565,0.0967564
,,,,,,,,,149,129.551,0.0751377
,,,,,,,,,50,156.024,0.0187162
,,,,,,,,,61,134.217,0.0215966
,,,,,,,,,73,59.5136,0.0245622
,,,,,,,,,86,166.89,0.0204605
,,,,,,,,,100,35.1135,0.0101479
,,,,,,,,,115,132.945,0.0192039
,,,,,,,,,131,149.109,0.022747
,,,,,,,,,148,126.58,0.0229723
,,,,,,,,,166,89.2529,0.0215034
,,,,,,,,,72,26.6021,0.0426994
,,,,,,,,,85,141.95,0.056089
,,,,,,,,,99,34.5791,0.0384756
,,,,,,,,,114,165.922,0.0132174
,,,,,,,,,130,44.9918,0.03426
,,,,,,,,,147,48.7375,0.0474434
,,,,,,,,,165,74.7202,0.0484344
,,,,,,,,,184,108.657,0.0423367
,,,,,,,,,98,165.536,0.0934325
,,,,,,,,,113,58.4871,0.0530094
,,,,,,,,,129,149.021,0.0145917
,,,,,,,,,146,32.4656,0.0453254
,,,,,,,,,164,57.0733,0.071675
,,,,,,,,,183,83.3304,0.0739612
,,,,,,,,,203,105.559,0.0606271
,,,,,,,,,128,108.19,0.075336
,,,,,,,,,145,37.4453,0.0158878
,,,,,,,,,163,137.863,0.0607093
,,,,,,,,,182,109.014,0.119601
,,,,,,,,,202,83.3843,0.126105
,,,,,,,,,223,66.594,0.0917132
,,,,,,,,,162,137.274,0.0140641
,,,,,,,,,181,58.7157,0.0405949
,,,,,,,,,201,34.7774,0.0605223
,,,,,,,,,222,50.9778,0.0621444
,,,,,,,,,244,89.4784,0.0524515
,,,,,,,,,200,123.23,0.0134587
,,,,,,,,,221,117.491,0.0151079
,,,,,,,,,243,92.1194,0.015207
,,,,,,,,,266,57.2837,0.0145491
,,,,,,,,,242,35.9327,0.0507076
,,,,,,,,,265,56.7467,0.0518413
,,,,,,,,,289,73.0951,0.044917
,,,,,,,,,288,26.932,0.0894546
,,,,,,,,,313,60.6741,0.0706588
,,,,,,,,,338,38.5007,0.0728797
