facetNormals:0,facetNormals:1,facetNormals:2,FacetCenters:0,FacetCenters:1,FacetCenters:2,FacetIds,relFacetSize,absFacetSize,cellPairingIds,interplanarAngles,angleWeights
-0.0611618,-0.156012,-0.968523,6.5315,7.83665,6.72272,1,0.0438278,0.00289337,8,36.714,0.0370058
-0.337647,0.380253,-0.835973,6.51363,7.88678,6.72394,2,0.0320215,0.00211396,13,30.7075,0.0625961
0.439256,-0.157533,-0.843466,6.57905,7.84019,6.72408,3,0.109477,0.00722735,19,33.6419,0.0421142
-0.595333,-0.122659,-0.774409,6.48836,7.85323,6.73036,4,0.0405296,0.00267564,26,33.9611,0.0606268
0.106709,-0.648963,-0.72805,6.56123,7.78112,6.74696,5,0.0983078,0.00648997,34,53.9861,0.0591322
-0.59059,-0.636738,-0.441482,6.48918,7.79519,6.76076,6,0.0908602,0.0059983,43,64.5569,0.0222386
-0.885521,-0.301936,-0.327645,6.46707,7.82286,6.75552,7,0.0148993,0.000983607,53,75.4498,0.0440425
-0.958283,0.0415128,-0.195768,6.46681,7.84464,6.76776,8,0.0442594,0.00292187,64,83.7181,0.0271236
-0.870345,0.461909,-0.129804,6.46454,7.8857,6.75328,9,0.0196387,0.00129649,76,93.4827,0.0509572
-0.425113,0.870703,-0.0535825,6.49871,7.91423,6.75572,10,0.0608568,0.00401758,89,98.9264,0.0628068
0.61612,0.731169,-0.00611826,6.58455,7.88415,6.75417,11,0.110777,0.00731317,103,93.4563,0.0416195
-0.309638,-0.875705,0.219002,6.53866,7.76413,6.79065,12,0.0396231,0.00261579,118,101.903,0.0312813
0.189555,-0.895086,0.336243,6.57356,7.75793,6.81323,13,0.0243195,0.00160549,134,128.448,0.0208758
0.797718,0.161611,0.53995,6.62025,7.81033,6.79597,14,0.0137008,0.000904486,151,117.691,0.0256628
0.668528,-0.510039,0.501738,6.6062,7.7731,6.80821,15,0.0181431,0.00119775,169,134.67,0.00900734
-0.0398758,-0.578671,0.801763,6.50016,7.79138,6.8067,16,0.00501946,0.000331369,188,138.524,0.0161114
-0.478438,-0.251037,0.812701,6.51765,7.78598,6.81231,17,0.00986979,0.000651572,208,154.536,0.0290189
0.393498,0.373676,0.802906,6.59323,7.84,6.79375,18,0.0216901,0.00143191,18,58.2097,0.0495499
,,,,,,,,,25,33.6637,0.0357767
,,,,,,,,,33,70.1597,0.0483078
,,,,,,,,,42,69.9799,0.0473541
,,,,,,,,,52,61.8187,0.0203363
,,,,,,,,,63,58.3244,0.0371588
,,,,,,,,,75,53.5306,0.024346
,,,,,,,,,88,56.8374,0.041963
,,,,,,,,,102,85.3951,0.0496818
,,,,,,,,,117,116.149,0.035419
,,,,,,,,,133,135.943,0.027644
,,,,,,,,,150,133.615,0.0191907
,,,,,,,,,168,151.137,0.0231625
,,,,,,,,,187,154.895,0.00867854
,,,,,,,,,207,129.961,0.0150888
,,,,,,,,,228,134.276,0.0258622
,,,,,,,,,32,64.3352,0.0591583
,,,,,,,,,41,36.1991,0.103592
,,,,,,,,,51,76.8743,0.0993037
,,,,,,,,,62,93.9034,0.026229
,,,,,,,,,74,106.141,0.0630351
,,,,,,,,,87,111.145,0.0333033
,,,,,,,,,101,107.334,0.0782279
,,,,,,,,,116,79.9646,0.110124
,,,,,,,,,132,101.461,0.0581867
,,,,,,,,,149,93.6209,0.0397981
,,,,,,,,,167,97.9662,0.0243539
,,,,,,,,,186,92.9876,0.0311276
,,,,,,,,,206,129.178,0.00959883
,,,,,,,,,227,155.51,0.0181072
,,,,,,,,,249,127.081,0.0362068
,,,,,,,,,50,53.1038,0.0573963
,,,,,,,,,61,36.4393,0.056055
,,,,,,,,,73,33.0549,0.0217888
,,,,,,,,,86,41.9285,0.0423125
,,,,,,,,,100,54.9411,0.0264574
,,,,,,,,,115,78.6644,0.0486555
,,,,,,,,,131,118.679,0.0593464
,,,,,,,,,148,82.5291,0.0400712
,,,,,,,,,166,105.934,0.0303985
,,,,,,,,,185,161.688,0.0204789
,,,,,,,,,205,138.68,0.0250656
,,,,,,,,,226,122.691,0.00893265
,,,,,,,,,248,109.06,0.0158739
,,,,,,,,,271,160.966,0.0282577
,,,,,,,,,72,45.3604,0.0944374
,,,,,,,,,85,69.5383,0.0258768
,,,,,,,,,99,89.2047,0.0610385
,,,,,,,,,114,107.803,0.0327375
,,,,,,,,,130,126.881,0.0751763
,,,,,,,,,147,115.529,0.104171
,,,,,,,,,165,66.335,0.0564813
,,,,,,,,,184,68.1264,0.0389928
,,,,,,,,,204,115.52,0.0240499
,,,,,,,,,225,87.7902,0.0306328
,,,,,,,,,247,102.639,0.00955125
,,,,,,,,,270,120.075,0.0179386
,,,,,,,,,294,145.659,0.035539
,,,,,,,,,98,27.0798,0.0256007
,,,,,,,,,113,48.9808,0.0595238
,,,,,,,,,129,73.3632,0.0322967
,,,,,,,,,146,107.208,0.0728918
,,,,,,,,,164,152.561,0.0998351
,,,,,,,,,183,46.1761,0.055182
,,,,,,,,,203,70.9768,0.0383691
,,,,,,,,,224,148.622,0.0238112
,,,,,,,,,246,107.797,0.0302466
,,,,,,,,,269,87.7382,0.00951337
,,,,,,,,,293,84.9547,0.0178054
,,,,,,,,,318,150.881,0.0350202
,,,,,,,,,128,21.9341,0.0222938
,,,,,,,,,145,46.8505,0.0169439
,,,,,,,,,163,82.1669,0.023938
,,,,,,,,,182,143.747,0.026266
,,,,,,,,,202,60.4296,0.0216556
,,,,,,,,,223,90.4604,0.0184781
,,,,,,,,,245,164.298,0.014275
,,,,,,,,,268,128.36,0.016362
,,,,,,,,,292,93.0773,0.00750915
,,,,,,,,,317,76.052,0.0118739
,,,,,,,,,343,138.939,0.0176646
,,,,,,,,,162,25.4344,0.0272057
,,,,,,,,,181,61.4511,0.0512478
,,,,,,,,,201,126.659,0.0632487
,,,,,,,,,222,76.5376,0.0418131
,,,,,,,,,244,107.354,0.0313906
,,,,,,,,,267,154.555,0.0209244
,,,,,,,,,291,142.455,0.0257363
,,,,,,,,,316,98.4747,0.00901638
,,,,,,,,,342,72.3949,0.0161403
,,,,,,,,,369,123.148,0.0291129
,,,,,,,,,200,36.1122,0.0296948
,,,,,,,,,221,102.008,0.0333628
,,,,,,,,,243,99.9227,0.0262613
,,,,,,,,,266,129.951,0.0217299
,,,,,,,,,290,135.278,0.016141
,,,,,,,,,315,155.083,0.0188613
,,,,,,,,,341,110.018,0.00799538
,,,,,,,,,368,78.404,0.0131372
,,,,,,,,,396,106.535,0.0206135
,,,,,,,,,242,66.1597,0.0785573
,,,,,,,,,265,133.938,0.0479964
,,,,,,,,,289,158.146,0.0347516
,,,,,,,,,314,103.877,0.0223663
,,,,,,,,,340,142.63,0.0279528
,,,,,,,,,367,123.488,0.00927401
,,,,,,,,,395,93.5557,0.016985
,,,,,,,,,424,82.9724,0.0319816
,,,,,,,,,288,155.818,0.0583687
,,,,,,,,,313,125.386,0.0398832
,,,,,,,,,339,49.5147,0.0243857
,,,,,,,,,366,87.8026,0.0311797
,,,,,,,,,394,118.575,0.00960377
,,,,,,,,,423,121.194,0.0181247
,,,,,,,,,453,56.5503,0.0362772
,,,,,,,,,338,30.8299,0.0301399
,,,,,,,,,365,106.856,0.0203612
,,,,,,,,,393,68.0347,0.0248895
,,,,,,,,,422,42.6415,0.00891018
,,,,,,,,,452,54.1105,0.0158031
,,,,,,,,,483,107.185,0.0280341
,,,,,,,,,392,78.6048,0.0175273
,,,,,,,,,421,38.0179,0.0207821
,,,,,,,,,451,36.0402,0.00832141
,,,,,,,,,482,64.651,0.0140411
,,,,,,,,,514,89.388,0.0229296
,,,,,,,,,450,41.0028,0.0156121
,,,,,,,,,481,71.4445,0.0073472
,,,,,,,,,513,89.0029,0.011474
,,,,,,,,,546,31.4122,0.0167937
,,,,,,,,,512,46.1932,0.00786344
,,,,,,,,,545,76.9392,0.0127847
,,,,,,,,,579,59.9398,0.0197587
,,,,,,,,,578,32.341,0.0066546
,,,,,,,,,613,64.569,0.00815233
,,,,,,,,,648,66.9395,0.0135664
