Q	U	V
{$V$}	{[mm$^3$]}	0.00588142
{$d_v$}	{[mm]}	0.223955
{$S_c$}	{[mm$^2$]}	0.295761
{$S_o$}	{[mm$^2$]}	0.17683
{$S_l/S_o$}	[]	0.672573
{$\Psi$}	[]	0.53276
{$\eta$}	[]	0.581307
{med($\theta_e$)}	{[$^\circ$]}	53.7412
{$\Upsilon$}	[]	15
{$\Xi$}	[]	8
