Q	U	V
{$V$}	{[mm$^3$]}	0.00870636
{$d_v$}	{[mm]}	0.255238
{$S_c$}	{[mm$^2$]}	0.37451
{$S_o$}	{[mm$^2$]}	0.231511
{$S_l/S_o$}	[]	0.617677
{$\Psi$}	[]	0.546485
{$\eta$}	[]	0.582652
{med($\theta_e$)}	{[$^\circ$]}	63.8922
{$\Upsilon$}	[]	9
{$\Xi$}	[]	6
