Q	U	V
{$V$}	{[mm$^3$]}	0.0094877
{$d_v$}	{[mm]}	0.262656
{$S_c$}	{[mm$^2$]}	0.411109
{$S_o$}	{[mm$^2$]}	0.264476
{$S_l/S_o$}	[]	0.554428
{$\Psi$}	[]	0.527191
{$\eta$}	[]	0.554770
{med($\theta_e$)}	{[$^\circ$]}	78.13035
{$\Upsilon$}	[]	14
{$\Xi$}	[]	12
