Q	U	V
{$V$}	{[mm$^3$]}	0.00231077
{$d_v$}	{[mm]}	0.164029
{$S_c$}	{[mm$^2$]}	0.115536
{$S_o$}	{[mm$^2$]}	0.0780705
{$S_l/S_o$}	[]	0.479893
{$\Psi$}	[]	0.731596
{$\eta$}	[]	0.768988
{med($\theta_e$)}	{[$^\circ$]}	58.2092
{$\Upsilon$}	[]	13
{$\Xi$}	[]	7
