facetNormals:0,facetNormals:1,facetNormals:2,FacetCenters:0,FacetCenters:1,FacetCenters:2,FacetIds,relFacetSize,absFacetSize,cellPairingIds,interplanarAngles,angleWeights
-0.828817,-0.0592734,-0.5041,6.10694,3.80428,8.03697,1,0.109364,0.0102118,8,78.0214,0.0269964
0.0157344,0.825631,-0.511669,6.12838,3.8164,8.04499,2,0.0153988,0.00143784,13,39.7984,0.0575485
-0.673692,0.579926,-0.411497,6.11686,3.82799,8.03306,3,0.0390479,0.00364605,19,44.957,0.113138
-0.576167,-0.731145,-0.301814,6.12182,3.69913,8.10056,4,0.117181,0.0109416,26,25.4976,0.0738571
-0.809618,-0.457885,-0.335998,6.12466,3.73459,8.04232,5,0.0557551,0.00520606,34,74.4589,0.0378748
-0.281849,0.937477,-0.159143,6.1454,3.82492,8.01507,6,0.0229033,0.00213857,43,93.3101,0.0293408
0.00871131,1.00275,-0.0205748,6.1389,3.79496,8.05363,7,0.0169432,0.00158205,53,144.802,0.0788202
0.824209,0.516668,0.13039,6.12234,3.68849,8.09066,8,0.0616125,0.005753,64,137.834,0.0436157
0.576417,0.707974,0.384821,6.11919,3.71185,8.08839,9,0.0272396,0.00254346,76,164.516,0.0449284
0.653335,0.138091,0.678916,6.15082,3.77026,8.09578,10,0.0282713,0.0026398,89,122.559,0.0893004
0.204007,0.749006,0.585208,6.12385,3.7951,8.12041,11,0.0754569,0.0070457,103,88.539,0.105776
-0.530403,0.242321,0.795102,6.11017,3.7547,8.17284,12,0.102415,0.00956292,118,99.8336,0.0733762
-0.290682,0.580297,0.731758,6.12707,3.79982,8.14491,13,0.0552088,0.00515506,18,44.4965,0.0220873
,,,,,,,,,25,118.822,0.0272205
,,,,,,,,,33,103.168,0.0241325
,,,,,,,,,42,27.9603,0.0184159
,,,,,,,,,52,30.6128,0.0161341
,,,,,,,,,63,66.9811,0.0246394
,,,,,,,,,75,65.6589,0.0196751
,,,,,,,,,88,103.954,0.0199378
,,,,,,,,,102,70.0533,0.0255778
,,,,,,,,,117,102.977,0.0267722
,,,,,,,,,133,83.9516,0.0240809
,,,,,,,,,32,84.712,0.0585766
,,,,,,,,,41,64.4274,0.0459293
,,,,,,,,,51,34.666,0.028872
,,,,,,,,,62,53.5205,0.0236322
,,,,,,,,,74,108.766,0.0478011
,,,,,,,,,87,98.0622,0.032092
,,,,,,,,,101,133.275,0.0327971
,,,,,,,,,116,86.6215,0.051464
,,,,,,,,,132,79.8218,0.0565392
,,,,,,,,,149,76.0335,0.0457429
,,,,,,,,,50,21.1377,0.075559
,,,,,,,,,61,119.303,0.0383174
,,,,,,,,,73,138.223,0.0296057
,,,,,,,,,86,158.238,0.0807615
,,,,,,,,,100,175.034,0.0442037
,,,,,,,,,115,137.068,0.0455526
,,,,,,,,,131,152.233,0.0918004
,,,,,,,,,148,96.6383,0.109302
,,,,,,,,,166,119.936,0.0750558
,,,,,,,,,72,98.6548,0.0324689
,,,,,,,,,85,117.582,0.0259887
,,,,,,,,,99,167.518,0.0585376
,,,,,,,,,114,159.904,0.0365986
,,,,,,,,,130,150.577,0.0375184
,,,,,,,,,147,137.141,0.0641268
,,,,,,,,,165,86.9834,0.0722028
,,,,,,,,,184,106.593,0.0554806
,,,,,,,,,98,18.9442,0.0194775
,,,,,,,,,113,76.2531,0.0333933
,,,,,,,,,129,63.3976,0.024884
,,,,,,,,,146,99.9216,0.0253058
,,,,,,,,,164,55.1073,0.0351405
,,,,,,,,,183,75.1803,0.037435
,,,,,,,,,203,58.3179,0.0323757
,,,,,,,,,128,57.9361,0.0265776
,,,,,,,,,145,44.6431,0.0208916
,,,,,,,,,163,82.1657,0.0211882
,,,,,,,,,182,40.5589,0.0276727
,,,,,,,,,202,77.0275,0.0290761
,,,,,,,,,223,54.886,0.025929
,,,,,,,,,162,23.5996,0.0377773
,,,,,,,,,181,41.6516,0.0387582
,,,,,,,,,201,48.5637,0.0678356
,,,,,,,,,222,102.429,0.076939
,,,,,,,,,244,80.6689,0.0582351
,,,,,,,,,200,38.7671,0.0277459
,,,,,,,,,221,24.979,0.0400289
,,,,,,,,,243,79.8713,0.0430335
,,,,,,,,,266,57.205,0.0364801
,,,,,,,,,242,46.7756,0.0411319
,,,,,,,,,265,76.0263,0.0443109
,,,,,,,,,289,65.4486,0.037394
,,,,,,,,,288,55.8146,0.0868933
,,,,,,,,,313,32.3194,0.063764
,,,,,,,,,338,24.6407,0.0717432
