Q	U	V
{$V$}	{[mm$^3$]}	0.0102441
{$d_v$}	{[mm]}	0.269458
{$S_c$}	{[mm$^2$]}	0.425853
{$S_o$}	{[mm$^2$]}	0.269228
{$S_l/S_o$}	[]	0.581756
{$\Psi$}	[]	0.535641
{$\eta$}	[]	0.573456
{med($\theta_e$)}	{[$^\circ$]}	81.3797
{$\Upsilon$}	[]	14
{$\Xi$}	[]	16
