"cellPairingIds","interplanarAngles","angleWeights"
8,26.4903,0.0305494
13,31.2302,0.038802
19,113.913,0.0259349
26,98.8697,0.0363985
43,62.5676,0.0272072
64,98.832,0.0262237
52,46.514,0.0396997
75,78.4118,0.0376397
102,74.1002,0.0360604
41,89.1599,0.111784
51,52.6984,0.0533838
62,53.7781,0.0548633
101,124.919,0.0793489
50,62.6185,0.0460149
100,70.3733,0.0308719
115,56.1797,0.0393874
130,42.8204,0.0699089
98,68.1023,0.0336527
146,81.7511,0.0415097
163,139.712,0.0423987
182,63.4013,0.0314938
245,42.7031,0.0311671
200,109.336,0.0400574
221,32.7218,0.0301833
242,117.384,0.0382735
314,110.727,0.0377921
339,37.4358,0.028879
