Q	U	V
{$V$}	{[mm$^3$]}	0.00545513
{$d_v$}	{[mm]}	0.218408
{$S_c$}	{[mm$^2$]}	0.290143
{$S_o$}	{[mm$^2$]}	0.177381
{$S_l/S_o$}	[]	0.635705
{$\Psi$}	[]	0.516506
{$\eta$}	[]	0.591498
{med($\theta_e$)}	{[$^\circ$]}	80.5072
{$\Upsilon$}	[]	12
{$\Xi$}	[]	11
