"cellPairingIds","interplanarAngles","angleWeights"
8,49.7879,0.0434446
13,53.7859,0.0400121
19,114.06,0.0472646
26,112.701,0.0465449
43,85.1638,0.0354923
33,91.525,0.0892243
52,67.0279,0.0558716
63,50.7676,0.0880956
32,108.612,0.0777898
51,74.7093,0.0581061
62,44.9382,0.0503201
50,83.8727,0.106982
61,42.1622,0.0747666
100,96.4805,0.0825932
115,68.2985,0.0472537
99,81.2314,0.101853
114,45.0464,0.0804203
98,87.4361,0.0490375
146,53.8649,0.0391894
128,52.8448,0.0605746
145,93.7614,0.0522872
163,77.5777,0.0354862
182,75.4325,0.0429752
162,52.7124,0.0795022
200,55.6144,0.0412376
221,24.5297,0.0517091
242,36.1099,0.035219
