Q	U	V
{$V$}	{[mm$^3$]}	0.0150331
{$d_v$}	{[mm]}	0.306208
{$S_c$}	{[mm$^2$]}	0.449877
{$S_o$}	{[mm$^2$]}	0.309579
{$S_l/S_o$}	[]	0.453190
{$\Psi$}	[]	0.654771
{$\eta$}	[]	0.715124
{med($\theta_e$)}	{[$^\circ$]}	58.50955
{$\Upsilon$}	[]	14
{$\Xi$}	[]	16
