"cellPairingIds","interplanarAngles","angleWeights"
8,61.9323,0.0333723
13,64.6368,0.0740396
19,71.2552,0.0513082
26,66.3213,0.0335678
34,77.4186,0.0760074
53,89.9425,0.0617047
25,25.7378,0.0268371
52,52.8719,0.0316143
63,65.3677,0.0294308
32,38.4871,0.0480696
51,46.4375,0.0691098
62,63.8983,0.0659086
149,102.427,0.0688367
73,39.5523,0.0472672
72,62.1367,0.0325162
99,115.896,0.0295827
130,116.745,0.0381033
147,61.0561,0.0260497
164,69.2158,0.0459678
183,75.1442,0.0322339
203,93.0651,0.0705345
128,83.8166,0.055952
163,76.8934,0.0969615
223,61.4697,0.0672031
181,60.4835,0.0789879
242,70.8526,0.0579883
289,42.3796,0.103434
288,23.4239,0.0258682
313,56.1162,0.0458469
338,33.0449,0.0321744
