"cellPairingIds","interplanarAngles","angleWeights"
8,36.3797,0.0548318
19,71.2178,0.0330191
26,77.5171,0.0797514
43,62.7113,0.0579594
33,75.0859,0.0689265
42,42.1687,0.0548394
52,85.2779,0.0520218
63,65.1505,0.037024
75,55.9703,0.0386105
50,76.8472,0.037656
73,68.7018,0.0319789
115,78.3386,0.035684
131,52.3806,0.0140835
148,55.7799,0.03728
72,54.0973,0.0797674
165,80.4126,0.110163
129,53.4485,0.0417922
183,127.091,0.0780985
224,115.615,0.0614395
128,44.1055,0.0384241
163,22.2352,0.0667038
162,50.7566,0.0305789
181,44.6904,0.0439012
267,48.2086,0.0399193
290,63.2991,0.0417698
242,43.2796,0.0182729
289,48.976,0.0663817
314,46.0409,0.0713425
288,51.4611,0.0186824
313,35.2524,0.0172278
338,59.2,0.0721257
365,98.5019,0.0780202
392,40.5487,0.0576817
