"cellPairingIds","interplanarAngles","angleWeights"
8,54.8947,0.0181639
13,79.9195,0.0156673
26,54.3381,0.012824
76,78.184,0.0190089
18,75.2612,0.048568
33,81.4777,0.0287839
42,58.0106,0.0643421
52,56.6046,0.0641767
62,114.617,0.04106
87,125.859,0.0249445
101,98.993,0.0551203
116,68.5929,0.034148
149,102.218,0.045057
72,48.2457,0.0259967
99,58.9669,0.0291799
130,69.5239,0.0309654
98,34.25,0.0517952
113,34.4052,0.0663552
129,46.6473,0.0285379
145,24.782,0.0285053
162,31.8473,0.0324203
181,104.311,0.112385
222,32.6318,0.0583759
243,34.9468,0.0269534
266,67.6865,0.030376
242,43.8604,0.0553585
265,98.6366,0.0659878
314,58.5208,0.0132349
313,65.1796,0.045216
339,42.4243,0.011534
338,44.4,0.0520663
365,60.211,0.0119346
392,28.9504,0.0125613
