"cellPairingIds","interplanarAngles","angleWeights"
8,64.833,0.046503
13,71.4464,0.0524793
19,89.2339,0.0249492
34,75.1712,0.0523458
53,88.7772,0.0458878
76,103.947,0.0379887
103,97.7863,0.0165532
169,114.112,0.038794
25,44.1038,0.0259679
42,55.8165,0.0570405
52,40.0206,0.0704681
32,34.1393,0.0277313
41,22.0305,0.0703777
74,56.3264,0.0562711
50,33.8114,0.0283805
73,44.2549,0.0305173
131,58.8666,0.0158157
185,75.0585,0.0304864
99,50.969,0.0590102
114,42.8783,0.0398756
147,42.7742,0.0241679
98,61.8357,0.0848134
183,35.4782,0.0177183
202,80.8616,0.018833
245,54.8662,0.117881
268,69.1494,0.0249957
162,36.7391,0.0349161
181,36.0236,0.0399367
200,48.8144,0.0301464
221,24.2554,0.0188427
266,31.3217,0.0239777
341,73.506,0.0306514
367,34.5644,0.0344536
313,28.3489,0.01724
339,45.1266,0.0256784
393,31.9388,0.0118126
422,80.5442,0.0158448
452,58.7885,0.0144396
392,42.3149,0.0362613
451,59.783,0.0266251
482,53.0652,0.0228833
450,49.5676,0.024975
513,55.7702,0.0405865
545,41.0266,0.0178055
578,36.9073,0.0288854
