Q	U	V
{$V$}	{[mm$^3$]}	0.00749872
{$d_v$}	{[mm]}	0.242845
{$S_c$}	{[mm$^2$]}	0.298922
{$S_o$}	{[mm$^2$]}	0.200283
{$S_l/S_o$}	[]	0.492498
{$\Psi$}	[]	0.619799
{$\eta$}	[]	0.646185
{med($\theta_e$)}	{[$^\circ$]}	73.4797
{$\Upsilon$}	[]	12
{$\Xi$}	[]	13
