Q	U	V
{$V$}	{[mm$^3$]}	0.00351959
{$d_v$}	{[mm]}	0.188726
{$S_c$}	{[mm$^2$]}	0.196987
{$S_o$}	{[mm$^2$]}	0.117335
{$S_l/S_o$}	[]	0.678843
{$\Psi$}	[]	0.568034
{$\eta$}	[]	0.604268
{med($\theta_e$)}	{[$^\circ$]}	55.7895
{$\Upsilon$}	[]	13
{$\Xi$}	[]	10
