"cellPairingIds","interplanarAngles","angleWeights"
8,59.873,0.0427016
13,44.9612,0.0391475
19,86.8827,0.0290341
18,102.116,0.142277
25,77.7555,0.062789
33,138.242,0.0438104
42,73.6767,0.0534848
52,86.0709,0.0859011
32,111.332,0.0553941
41,43.5649,0.0400774
87,88.8097,0.0321167
61,88.6181,0.0336464
100,105.473,0.0249786
85,105.002,0.0338243
99,53.0492,0.039625
114,48.6993,0.0213067
98,23.9134,0.0393147
113,78.0958,0.0473757
129,93.4014,0.0233618
128,60.525,0.071163
162,23.462,0.0318255
