"cellPairingIds","interplanarAngles","angleWeights"
8,37.3694,0.0190606
13,78.9632,0.0619069
19,83.5521,0.0237018
34,81.8124,0.0319069
18,110.704,0.0192094
42,110.115,0.0148708
52,31.6169,0.0193496
75,71.3516,0.0200464
102,82.1703,0.0190551
207,113.812,0.0159942
32,45.2135,0.0239323
41,33.6531,0.0693399
132,52.2352,0.0409291
227,113.155,0.0381509
50,29.7178,0.0247162
61,26.6566,0.0175523
86,29.9837,0.0192039
99,34.8733,0.0404698
165,37.5159,0.0432765
113,31.4523,0.0242583
129,60.8107,0.034769
203,47.5864,0.0175094
182,59.2878,0.0633266
292,49.5617,0.0646953
317,88.2795,0.0387079
222,58.2002,0.0288014
244,41.4681,0.0191526
291,52.5784,0.0377804
221,28.596,0.0714556
266,51.5037,0.0251568
313,46.1954,0.0236152
339,24.2624,0.060864
394,45.0227,0.0615171
393,25.2253,0.0402152
452,65.3251,0.0286556
392,25.2318,0.0237046
421,65.1001,0.0236083
450,76.2188,0.0608184
481,53.4065,0.0621274
513,75.755,0.0377737
545,52.6325,0.0375299
578,46.5272,0.0380243
