facetNormals:0,facetNormals:1,facetNormals:2,FacetCenters:0,FacetCenters:1,FacetCenters:2,FacetIds,relFacetSize,absFacetSize,cellPairingIds,interplanarAngles,angleWeights
-0.25959,0.209035,-0.932706,6.44539,5.97197,6.24272,1,0.0189356,0.00129003,8,31.9647,0.0299221
0.27652,0.280065,-0.895157,6.4639,5.94517,6.22894,2,0.0712772,0.00485589,13,45.7585,0.0265753
-0.341489,-0.523443,-0.739779,6.44715,5.92304,6.25189,3,0.0445485,0.00303495,19,54.8459,0.0257102
0.510592,-0.250078,-0.796506,6.4997,5.91607,6.24736,4,0.0400326,0.0027273,26,61.2223,0.0239733
0.323004,-0.583034,-0.723452,6.47994,5.91615,6.24538,5,0.0326629,0.00222522,34,46.5655,0.0123834
0.197042,0.765022,-0.613785,6.47976,5.98442,6.24957,6,0.00919998,0.000626766,43,65.8856,0.0300163
0.591992,0.617336,-0.444643,6.45143,5.94386,6.26266,7,0.0723593,0.00492961,53,78.1234,0.0177131
0.225681,-0.842555,-0.467976,6.51691,5.96394,6.31288,8,0.0166389,0.00113355,64,84.0216,0.032542
0.891971,-0.132052,-0.386347,6.53077,5.93509,6.28053,9,0.115626,0.00787721,76,49.5479,0.0287525
-0.862985,0.0701823,-0.40172,6.41784,5.96208,6.27674,10,0.0597063,0.00406761,89,63.3589,0.0336491
-0.222709,0.912024,-0.189687,6.43665,5.99221,6.29504,11,0.15091,0.010281,103,106.627,0.00751655
0.100355,-0.976702,0.0519274,6.46239,5.94508,6.30215,12,0.00468891,0.000319441,118,105.078,0.00607671
-0.402382,-0.889833,0.187255,6.39187,5.90167,6.23925,13,0.00361906,0.000246555,134,99.1652,0.00669181
-0.886969,0.0353365,0.420953,6.41416,5.93472,6.27928,14,0.00406401,0.000276869,151,99.8318,0.0319962
0.0754675,0.898949,0.356346,6.45456,5.99166,6.32774,15,0.103124,0.00702553,169,140.615,0.0144753
-0.0588935,-0.713212,0.650079,6.456,5.93369,6.31492,16,0.0117157,0.000798155,188,124.389,0.0236811
0.378422,0.656161,0.634306,6.51443,5.98586,6.31683,17,0.0316003,0.00215283,18,63.5917,0.0548288
,,,,,,,,,25,34.9714,0.0512697
,,,,,,,,,33,53.3911,0.0447973
,,,,,,,,,42,33.2422,0.0162965
,,,,,,,,,52,38.8018,0.0718142
,,,,,,,,,63,75.3169,0.0269796
,,,,,,,,,75,54.6127,0.0881899
,,,,,,,,,88,81.3344,0.0649807
,,,,,,,,,102,67.1536,0.0968232
,,,,,,,,,117,107.698,0.00879899
,,,,,,,,,133,122.896,0.00688836
,,,,,,,,,150,129.587,0.00768959
,,,,,,,,,168,92.8013,0.0842929
,,,,,,,,,187,147.568,0.0201237
,,,,,,,,,207,106.81,0.0437877
,,,,,,,,,32,54.8384,0.04217
,,,,,,,,,41,39.9712,0.0376909
,,,,,,,,,51,90.8083,0.0152505
,,,,,,,,,62,102.142,0.055146
,,,,,,,,,74,42.1995,0.0242284
,,,,,,,,,87,86.9629,0.0643169
,,,,,,,,,101,53.0892,0.0510255
,,,,,,,,,116,106.344,0.0687902
,,,,,,,,,132,62.5752,0.00848477
,,,,,,,,,149,61.1502,0.00669428
,,,,,,,,,167,91.6273,0.00744852
,,,,,,,,,186,144,0.0622191
,,,,,,,,,206,95.3609,0.0185524
,,,,,,,,,227,169.889,0.0369736
,,,,,,,,,50,22.8709,0.0359742
,,,,,,,,,61,66.0013,0.0149616
,,,,,,,,,73,57.8465,0.051547
,,,,,,,,,86,43.8408,0.0235073
,,,,,,,,,100,33.9659,0.0594738
,,,,,,,,,115,98.5092,0.0479291
,,,,,,,,,131,101.739,0.0632789
,,,,,,,,,148,74.6853,0.00839459
,,,,,,,,,166,97.8006,0.00663802
,,,,,,,,,185,145.996,0.00737893
,,,,,,,,,205,119.688,0.0576756
,,,,,,,,,226,112.988,0.0181266
,,,,,,,,,248,119.501,0.0353202
,,,,,,,,,72,86.4079,0.0143563
,,,,,,,,,85,80.717,0.0450088
,,,,,,,,,99,22.0194,0.0220468
,,,,,,,,,114,48.087,0.0509367
,,,,,,,,,130,91.7725,0.0422258
,,,,,,,,,147,119.675,0.0537024
,,,,,,,,,165,54.3066,0.00820059
,,,,,,,,,184,74.9881,0.00651613
,,,,,,,,,204,129.264,0.00722862
,,,,,,,,,225,142.558,0.049612
,,,,,,,,,247,94.4322,0.0172456
,,,,,,,,,270,137.735,0.0321228
,,,,,,,,,98,26.6615,0.0163244
,,,,,,,,,113,108.418,0.0118486
,,,,,,,,,129,71.471,0.0170438
,,,,,,,,,146,82.1621,0.0159433
,,,,,,,,,164,36.4981,0.0173427
,,,,,,,,,183,140.529,0.00621186
,,,,,,,,,203,151.589,0.00519466
,,,,,,,,,224,114.406,0.00563765
,,,,,,,,,246,60.0888,0.0168929
,,,,,,,,,269,171.359,0.0103065
,,,,,,,,,293,79.0813,0.014251
,,,,,,,,,128,100.779,0.0270562
,,,,,,,,,145,49.1679,0.0890134
,,,,,,,,,163,108.302,0.0654267
,,,,,,,,,182,56.058,0.0978167
,,,,,,,,,202,126.715,0.00880712
,,,,,,,,,223,155.291,0.00689335
,,,,,,,,,245,136.806,0.0076958
,,,,,,,,,268,61.8455,0.085045
,,,,,,,,,292,145.081,0.0201663
,,,,,,,,,317,68.6291,0.0439897
,,,,,,,,,162,59.4639,0.0290914
,,,,,,,,,181,93.9993,0.0260251
,,,,,,,,,201,140.344,0.029973
,,,,,,,,,222,32.4517,0.00731611
,,,,,,,,,244,54.5208,0.00594503
,,,,,,,,,267,116.042,0.00653248
,,,,,,,,,291,160.88,0.0286544
,,,,,,,,,316,72.7744,0.0137499
,,,,,,,,,342,141.399,0.0217994
,,,,,,,,,200,131.778,0.0787486
,,,,,,,,,221,105.166,0.130932
,,,,,,,,,243,78.1278,0.00901235
,,,,,,,,,266,108.763,0.00701844
,,,,,,,,,290,173.996,0.00785204
,,,,,,,,,315,101.461,0.109018
,,,,,,,,,341,102.762,0.0212757
,,,,,,,,,368,89.6553,0.0496354
,,,,,,,,,242,68.6786,0.085561
,,,,,,,,,265,100.81,0.00869498
,,,,,,,,,289,77.2434,0.00682446
,,,,,,,,,314,50.3133,0.00761004
,,,,,,,,,340,99.0227,0.0756267
,,,,,,,,,367,106.389,0.0195878
,,,,,,,,,395,124.589,0.0413275
,,,,,,,,,288,168.55,0.00909522
,,,,,,,,,313,142.684,0.0070686
,,,,,,,,,339,80.8325,0.00791488
,,,,,,,,,366,37.6584,0.122523
,,,,,,,,,394,145.229,0.0217434
,,,,,,,,,423,65.4052,0.0522579
,,,,,,,,,338,30.9538,0.0040851
,,,,,,,,,365,96.0416,0.00435416
,,,,,,,,,393,153.294,0.00896997
,,,,,,,,,422,40.3508,0.00669737
,,,,,,,,,452,125.926,0.00816612
,,,,,,,,,392,65.5536,0.00382865
,,,,,,,,,421,142.342,0.00699271
,,,,,,,,,451,35.7667,0.0055299
,,,,,,,,,482,128.933,0.00649435
,,,,,,,,,450,83.0785,0.00781985
,,,,,,,,,481,71.5444,0.00603468
,,,,,,,,,513,92.6838,0.00720182
,,,,,,,,,512,116.194,0.021041
,,,,,,,,,545,28.2111,0.0483766
,,,,,,,,,578,94.6791,0.0170939
