facetNormals:0,facetNormals:1,facetNormals:2,FacetCenters:0,FacetCenters:1,FacetCenters:2,FacetIds,relFacetSize,absFacetSize,cellPairingIds,interplanarAngles,angleWeights
0.340371,-0.352822,-0.780062,6.73777,3.57896,7.80813,1,0.101171,0.0127765,8,72.2772,0.0437469
-0.353395,0.528906,-0.745873,6.72372,3.67677,7.8072,2,0.027907,0.00352425,13,40.9601,0.0219228
0.747284,0.159127,-0.628042,6.73017,3.59855,7.80783,3,0.0122933,0.00155247,19,57.5008,0.0895761
-0.382258,-0.787857,-0.429345,6.68476,3.50508,7.87046,4,0.0803654,0.010149,26,41.7924,0.0972902
0.7651,-0.49625,-0.282348,6.76648,3.52273,7.88733,5,0.0936957,0.0118324,34,85.4309,0.0787462
-0.857238,-0.364362,-0.301355,6.64122,3.59016,7.90399,6,0.0644586,0.00814019,43,97.0862,0.0425578
-0.0797303,0.914508,-0.307373,6.72011,3.67745,7.83898,7,0.0269464,0.00340295,53,98.4718,0.0715315
-0.917627,0.0946131,-0.275662,6.65257,3.6021,7.85301,8,0.0553236,0.00698657,64,125.255,0.0893498
-0.662956,0.688254,0.051866,6.68645,3.6436,7.85821,9,0.0800019,0.0101031,76,86.4148,0.0675317
-0.405323,-0.886074,0.15109,6.69662,3.48693,7.95,10,0.0506804,0.0064002,89,123.652,0.0923254
-0.906246,-0.144601,0.302364,6.65156,3.56737,7.92719,11,0.0849019,0.0107219,103,101.672,0.0253496
0.222342,-0.701288,0.648559,6.71854,3.5482,8.00908,12,0.0144901,0.00182989,118,160.192,0.0843388
-0.316412,0.0472166,0.85516,6.69712,3.54726,7.98402,13,0.0723083,0.0091315,134,139.73,0.0499283
0.307898,0.353205,0.846567,6.70952,3.59973,7.95589,14,0.033142,0.00418536,18,72.6876,0.017068
,,,,,,,,,25,87.6848,0.0414281
,,,,,,,,,33,110.142,0.0430051
,,,,,,,,,42,69.5694,0.0389506
,,,,,,,,,52,38.6506,0.0274183
,,,,,,,,,63,52.0874,0.0370997
,,,,,,,,,75,53.3794,0.0413796
,,,,,,,,,88,116.952,0.035994
,,,,,,,,,102,88.8955,0.0420066
,,,,,,,,,117,166.093,0.0190756
,,,,,,,,,133,124.042,0.0402715
,,,,,,,,,150,125.695,0.0303001
,,,,,,,,,32,98.4281,0.0213247
,,,,,,,,,41,44.788,0.021735
,,,,,,,,,51,121.736,0.0206486
,,,,,,,,,62,73.0593,0.016884
,,,,,,,,,74,121.5,0.0201166
,,,,,,,,,87,116.239,0.0213118
,,,,,,,,,101,123.537,0.019787
,,,,,,,,,116,158.661,0.0214769
,,,,,,,,,132,111.326,0.0133016
,,,,,,,,,149,148.024,0.021014
,,,,,,,,,167,104.858,0.0179343
,,,,,,,,,50,76.3492,0.0865201
,,,,,,,,,61,38.7974,0.0715384
,,,,,,,,,73,126.233,0.0403602
,,,,,,,,,86,65.1518,0.0655337
,,,,,,,,,100,109.469,0.0801832
,,,,,,,,,115,34.9554,0.0621607
,,,,,,,,,131,69.4671,0.0825714
,,,,,,,,,148,78.5997,0.0245532
,,,,,,,,,166,108.558,0.0761243
,,,,,,,,,185,143.588,0.0469303
,,,,,,,,,72,114.662,0.0763747
,,,,,,,,,85,117.591,0.0418554
,,,,,,,,,99,136.907,0.0695693
,,,,,,,,,114,160.917,0.086309
,,,,,,,,,130,84.7004,0.0657801
,,,,,,,,,147,140.035,0.0890823
,,,,,,,,,165,69.0342,0.0250987
,,,,,,,,,184,125.565,0.0816243
,,,,,,,,,204,101.157,0.0489644
,,,,,,,,,98,100.471,0.0380051
,,,,,,,,,113,27.6118,0.0595427
,,,,,,,,,129,71.202,0.071394
,,,,,,,,,146,49.667,0.0567451
,,,,,,,,,164,38.6811,0.0732812
,,,,,,,,,183,97.8131,0.0236613
,,,,,,,,,203,90.2352,0.0681582
,,,,,,,,,224,133.142,0.0437761
,,,,,,,,,128,74.7972,0.036241
,,,,,,,,,145,44.0102,0.0403142
,,,,,,,,,163,149.736,0.0351852
,,,,,,,,,182,99.4093,0.040909
,,,,,,,,,202,154.706,0.018846
,,,,,,,,,223,102.708,0.0392616
,,,,,,,,,245,87.6598,0.0297248
,,,,,,,,,162,44.3256,0.0654125
,,,,,,,,,181,74.9535,0.0529003
,,,,,,,,,201,37.8513,0.0669932
,,,,,,,,,222,118.403,0.0229653
,,,,,,,,,244,86.1464,0.0626858
,,,,,,,,,267,121.192,0.0414519
,,,,,,,,,200,110.683,0.0620517
,,,,,,,,,221,56.0098,0.0823791
,,,,,,,,,243,129.453,0.0245362
,,,,,,,,,266,70.8518,0.0759608
,,,,,,,,,290,84.865,0.0468681
,,,,,,,,,242,55.3905,0.0634723
,,,,,,,,,265,49.4049,0.0225367
,,,,,,,,,289,76.1429,0.0595927
,,,,,,,,,314,108.952,0.0400764
,,,,,,,,,288,84.185,0.0247553
,,,,,,,,,313,52.3828,0.0781007
,,,,,,,,,339,94.548,0.0476741
,,,,,,,,,338,59.7466,0.0241423
,,,,,,,,,365,67.0643,0.0201642
,,,,,,,,,392,43.276,0.0454516
