facetNormals:0,facetNormals:1,facetNormals:2,FacetCenters:0,FacetCenters:1,FacetCenters:2,FacetIds,relFacetSize,absFacetSize,cellPairingIds,interplanarAngles,angleWeights
0.565441,-0.165463,-0.77404,5.08053,5.34319,7.97151,1,0.0386333,0.0175628,8,53.5716,0.0320347
-0.255418,-0.475205,-0.813375,5.02656,5.33743,7.93409,2,0.0273614,0.0124386,13,63.7666,0.0410791
-0.276325,0.413566,-0.825765,5.0029,5.41106,7.82357,3,0.0438556,0.0199369,19,31.5506,0.0391869
0.507458,0.362298,-0.757289,5.09777,5.4337,8.00725,4,0.0397567,0.0180735,26,85.4247,0.0466028
-0.72387,0.0562877,-0.637699,4.95862,5.44709,7.87691,5,0.0587149,0.026692,34,66.7275,0.0351912
0.275655,0.803531,-0.447047,5.0663,5.52516,7.95679,6,0.0323123,0.0146893,43,55.7096,0.0359261
0.957908,0.117318,-0.00863205,5.02509,5.39047,8.08554,7,0.0335735,0.0152626,53,123.889,0.0525799
-0.934055,-0.258061,0.0528765,4.91417,5.41309,8.00584,8,0.0822846,0.0374068,64,96.4725,0.0535696
-0.510788,-0.798647,-0.067767,4.9852,5.30498,7.98549,9,0.087335,0.0397027,76,96.5769,0.0400045
-0.128459,-0.939034,0.247907,5.05806,5.26785,8.0986,10,0.0414767,0.0188554,89,160.896,0.0544229
-0.561782,-0.151144,0.735828,4.99891,5.41135,8.14032,11,0.0920404,0.0418418,103,125.184,0.0407116
0.238636,0.567036,0.762657,5.03159,5.47035,8.17347,12,0.0430263,0.0195599,118,110.639,0.0442074
0.538525,0.142034,0.791872,5.07521,5.4538,8.14947,13,0.0516612,0.0234853,134,118.631,0.0419393
0.230621,-0.423747,0.844984,5.08357,5.33779,8.18692,14,0.0458641,0.02085,18,54.55,0.0336984
,,,,,,,,,25,70.8436,0.0324144
,,,,,,,,,33,44.143,0.0373278
,,,,,,,,,42,95.4282,0.0296315
,,,,,,,,,52,108.148,0.0301508
,,,,,,,,,63,70.3712,0.0410671
,,,,,,,,,75,52.4702,0.0416684
,,,,,,,,,88,73.1352,0.0329719
,,,,,,,,,102,114.742,0.0421828
,,,,,,,,,117,173.777,0.0334507
,,,,,,,,,133,153.98,0.0357751
,,,,,,,,,150,125.008,0.0342751
,,,,,,,,,32,47.8199,0.0417057
,,,,,,,,,41,36.39,0.0502089
,,,,,,,,,51,47.4899,0.0372093
,,,,,,,,,62,102.985,0.0380319
,,,,,,,,,74,83.3886,0.0572164
,,,,,,,,,87,98.3587,0.0583903
,,,,,,,,,101,126.185,0.042633
,,,,,,,,,116,124.71,0.0594055
,,,,,,,,,132,119.227,0.043437
,,,,,,,,,149,142.861,0.0474395
,,,,,,,,,167,177.053,0.0448374
,,,,,,,,,50,81.7524,0.0474108
,,,,,,,,,61,35.1923,0.03565
,,,,,,,,,73,55.5798,0.0364044
,,,,,,,,,86,129.655,0.0536108
,,,,,,,,,100,122.23,0.0546401
,,,,,,,,,115,128.112,0.0405985
,,,,,,,,,131,167.141,0.0555281
,,,,,,,,,148,105.138,0.0413269
,,,,,,,,,166,106.829,0.0449338
,,,,,,,,,185,135.125,0.0425926
,,,,,,,,,72,81.8958,0.0416846
,,,,,,,,,85,136.93,0.0427197
,,,,,,,,,99,47.9702,0.0685298
,,,,,,,,,114,66.3792,0.0702207
,,,,,,,,,130,97.1577,0.0486129
,,,,,,,,,147,94.4979,0.0716942
,,,,,,,,,165,131.48,0.049661
,,,,,,,,,184,161.427,0.0549627
,,,,,,,,,204,140.895,0.0515
,,,,,,,,,98,66.9874,0.0329309
,,,,,,,,,113,121.623,0.0464028
,,,,,,,,,129,145.537,0.0471719
,,,,,,,,,146,163.304,0.0363254
,,,,,,,,,164,132.235,0.0478323
,,,,,,,,,183,78.9384,0.0369075
,,,,,,,,,203,95.6459,0.0397576
,,,,,,,,,224,134.5,0.0379136
,,,,,,,,,128,171.149,0.0476891
,,,,,,,,,145,129.414,0.0485019
,,,,,,,,,163,104.414,0.037109
,,,,,,,,,182,128.392,0.0492003
,,,,,,,,,202,72.2352,0.0377167
,,,,,,,,,223,55.7619,0.0406982
,,,,,,,,,245,79.9478,0.038768
,,,,,,,,,162,42.5402,0.0847346
,,,,,,,,,181,66.7421,0.0551529
,,,,,,,,,201,48.5473,0.0868895
,,,,,,,,,222,110.235,0.0565059
,,,,,,,,,244,121.994,0.0634723
,,,,,,,,,267,93.7269,0.0588989
,,,,,,,,,200,30.9218,0.0562429
,,,,,,,,,221,66.3388,0.089626
,,,,,,,,,243,132.272,0.0576506
,,,,,,,,,266,118.721,0.0649202
,,,,,,,,,290,79.8252,0.0601437
,,,,,,,,,242,64.4382,0.0571842
,,,,,,,,,265,112.934,0.0422373
,,,,,,,,,289,90.3771,0.0460121
,,,,,,,,,314,52.6907,0.0435602
,,,,,,,,,288,68.1944,0.0586401
,,,,,,,,,313,73.4498,0.0661776
,,,,,,,,,339,52.45,0.0612214
,,,,,,,,,338,31.017,0.04695
,,,,,,,,,365,61.2084,0.0443999
,,,,,,,,,392,38.8965,0.0485904
