facetNormals:0,facetNormals:1,facetNormals:2,FacetCenters:0,FacetCenters:1,FacetCenters:2,FacetIds,relFacetSize,absFacetSize,cellPairingIds,interplanarAngles,angleWeights
0.854318,0.150449,-0.462476,7.41751,4.09029,8.89588,1,0.0131683,0.00142275,8,61.1345,0.0207598
0.109948,0.798161,-0.522835,7.30771,4.17676,8.88169,2,0.0490183,0.00529608,13,100.905,0.0229021
-0.325598,-0.780098,-0.466899,7.3045,3.99382,8.93262,3,0.0878065,0.00948688,19,22.0048,0.0116957
0.722249,0.503555,-0.456959,7.39532,4.1352,8.88925,4,0.0105194,0.00113654,26,134.198,0.0209341
-0.842589,-0.422593,-0.249164,7.24464,4.05806,8.89934,5,0.0510256,0.00551295,34,47.6544,0.0204395
0.48831,0.820432,-0.24096,7.35966,4.1703,8.91545,6,0.0456414,0.00493123,43,44.8644,0.0202266
0.77123,-0.544705,-0.209702,7.40655,4.00849,8.92746,7,0.0435924,0.00470985,53,109.584,0.0186564
-0.642282,0.685984,-0.267228,7.24807,4.15274,8.87137,8,0.0319874,0.00345601,64,164.328,0.0232735
-0.933472,-0.0013029,0.256397,7.24236,4.08802,8.93169,9,0.10005,0.0108096,76,44.9513,0.0223279
0.861897,0.288704,0.262734,7.41301,4.09298,8.94275,10,0.0733446,0.00792437,89,114.029,0.0184883
0.0262889,-0.716549,0.657484,7.32606,3.97893,8.98576,11,0.0310204,0.00335154,103,76.5588,0.0186234
0.653753,-0.436385,0.582353,7.37576,3.99029,8.98056,12,0.0317947,0.00343519,118,129.132,0.0207204
-0.440838,0.551232,0.676595,7.28118,4.15788,8.94869,13,0.0485824,0.00524899,134,87.4384,0.0209494
0.503174,0.0210707,0.84306,7.38802,4.04931,8.98405,14,0.0512072,0.00553257,151,117.065,0.0241012
-0.0677727,0.313905,0.912648,7.32179,4.07883,8.98833,15,0.141973,0.0153392,18,116.533,0.0629144
,,,,,,,,,25,40.8919,0.0173215
,,,,,,,,,33,108.663,0.0500018
,,,,,,,,,42,28.0717,0.0472696
,,,,,,,,,52,104.993,0.0461464
,,,,,,,,,63,48.9193,0.0387125
,,,,,,,,,75,104.814,0.065799
,,,,,,,,,88,78.0719,0.0587634
,,,,,,,,,102,167.657,0.0379958
,,,,,,,,,117,128.189,0.038571
,,,,,,,,,133,87.6959,0.0487994
,,,,,,,,,150,113.007,0.0500888
,,,,,,,,,168,104.589,0.0728753
,,,,,,,,,32,115.648,0.0187879
,,,,,,,,,41,40.0875,0.0645438
,,,,,,,,,51,136.216,0.0600626
,,,,,,,,,62,73.0871,0.0582607
,,,,,,,,,74,102.316,0.0468922
,,,,,,,,,87,78.5709,0.0935291
,,,,,,,,,101,133.462,0.0799267
,,,,,,,,,116,74.9818,0.0458448
,,,,,,,,,132,98.7887,0.0466848
,,,,,,,,,149,129.642,0.0625542
,,,,,,,,,167,127.24,0.0646889
,,,,,,,,,186,133.991,0.108505
,,,,,,,,,50,137.013,0.0174428
,,,,,,,,,61,26.2681,0.017098
,,,,,,,,,73,66.7615,0.0169488
,,,,,,,,,86,89.7839,0.0158322
,,,,,,,,,100,145.566,0.0190371
,,,,,,,,,115,46.353,0.0183998
,,,,,,,,,131,131.724,0.015711
,,,,,,,,,148,90.8079,0.0158085
,,,,,,,,,166,111.153,0.0172941
,,,,,,,,,185,90.6598,0.0174533
,,,,,,,,,205,108.714,0.0195874
,,,,,,,,,72,136.648,0.0481835
,,,,,,,,,85,112.929,0.047017
,,,,,,,,,99,70.5065,0.0393234
,,,,,,,,,114,39.9836,0.0675834
,,,,,,,,,130,172.068,0.0601824
,,,,,,,,,147,82.9245,0.0385841
,,,,,,,,,165,122.433,0.0391774
,,,,,,,,,184,91.8085,0.049774
,,,,,,,,,204,132.182,0.0511162
,,,,,,,,,225,108.733,0.0750705
,,,,,,,,,98,91.1891,0.0445934
,,,,,,,,,113,70.9777,0.0376136
,,,,,,,,,129,122.965,0.0626861
,,,,,,,,,146,50.3565,0.056268
,,,,,,,,,164,139.966,0.0369367
,,,,,,,,,183,100.716,0.03748
,,,,,,,,,203,85.5948,0.047066
,,,,,,,,,224,86.4517,0.0482644
,,,,,,,,,246,89.7274,0.0690762
,,,,,,,,,128,149.354,0.0368989
,,,,,,,,,145,145.647,0.060726
,,,,,,,,,163,60.3754,0.0546836
,,,,,,,,,182,73.1524,0.0362472
,,,,,,,,,202,49.077,0.0367704
,,,,,,,,,223,145.798,0.0459523
,,,,,,,,,245,77.8571,0.0470939
,,,,,,,,,268,116.302,0.0667036
,,,,,,,,,162,55.9068,0.0484762
,,,,,,,,,181,117.423,0.0445468
,,,,,,,,,201,136.037,0.0314965
,,,,,,,,,222,156.261,0.0318907
,,,,,,,,,244,59.8023,0.0385758
,,,,,,,,,267,123.821,0.0393772
,,,,,,,,,291,89.092,0.0522112
,,,,,,,,,200,143.635,0.0846406
,,,,,,,,,221,81.1449,0.0473576
,,,,,,,,,243,119.088,0.0482545
,,,,,,,,,266,51.881,0.0654052
,,,,,,,,,290,105.47,0.0677425
,,,,,,,,,315,71.5211,0.11738
,,,,,,,,,242,90.7139,0.0436004
,,,,,,,,,265,50.3604,0.0443596
,,,,,,,,,289,92.6672,0.058449
,,,,,,,,,314,44.6285,0.0603086
,,,,,,,,,340,72.7149,0.0967218
,,,,,,,,,288,41.4997,0.0314028
,,,,,,,,,313,87.6937,0.0378642
,,,,,,,,,339,54.6729,0.0386359
,,,,,,,,,366,66.6308,0.0509159
,,,,,,,,,338,98.0978,0.0384354
,,,,,,,,,365,32.4443,0.0392308
,,,,,,,,,393,68.2839,0.0519542
,,,,,,,,,392,67.9664,0.0498603
,,,,,,,,,421,29.8572,0.0723925
,,,,,,,,,450,38.6581,0.0752669
