"cellPairingIds","interplanarAngles","angleWeights"
8,87.5741,0.0594896
13,85.8808,0.0895232
19,52.5688,0.0585025
34,58.9818,0.0560298
43,83.0056,0.0623299
89,81.3126,0.0328804
18,31.6366,0.0467913
25,84.6153,0.0366374
63,57.5618,0.0330858
75,65.0117,0.0384538
62,72.477,0.0485308
87,53.0411,0.0491018
86,51.617,0.0327782
131,66.5949,0.024451
148,77.1689,0.0195249
98,36.5022,0.0366531
129,109.159,0.0369779
146,39.799,0.0417099
164,71.82,0.0240082
145,73.0472,0.0396209
162,95.273,0.0342246
222,41.1292,0.0184683
244,75.206,0.034212
200,82.0492,0.0455966
266,51.847,0.0399835
290,67.001,0.0279066
242,73.4854,0.0273668
314,53.3447,0.0305197
288,78.812,0.0154951
313,92.853,0.0252401
339,71.0184,0.0198243
338,40.3027,0.0200247
392,37.0248,0.0278982
