facetNormals:0,facetNormals:1,facetNormals:2,FacetCenters:0,FacetCenters:1,FacetCenters:2,FacetIds,relFacetSize,absFacetSize,cellPairingIds,interplanarAngles,angleWeights
0.372877,-0.621744,-0.624047,6.02417,7.97163,7.45108,1,0.0780394,0.0207493,8,94.6889,0.0500624
-0.839052,0.0466044,-0.429521,5.97724,7.96847,7.47064,2,0.0368513,0.00979809,13,98.9758,0.0792622
0.0391084,0.778143,-0.526957,6.04239,8.0386,7.43101,3,0.080524,0.0214099,19,77.5801,0.0214629
-0.646733,-0.725649,0.0160384,6.03533,8.00217,7.55063,4,0.0124425,0.00330823,26,55.4426,0.0376644
0.963459,-0.122582,-0.157718,6.09407,7.95869,7.51881,5,0.0248222,0.00659977,34,49.9969,0.037614
-0.0495078,-0.98508,-0.020232,5.9823,8.0379,7.52365,6,0.0247784,0.00658814,43,44.3382,0.10018
0.69187,-0.648258,0.019587,6.07855,7.95254,7.53326,7,0.139858,0.0371857,53,92.0865,0.0433924
0.780325,0.57725,-0.0546092,6.10056,8.01844,7.55137,8,0.0300508,0.00798998,64,147.795,0.0955879
-0.482829,0.766697,0.135987,6.01599,7.99596,7.53385,9,0.123318,0.0327881,76,129.833,0.0594998
0.320752,0.871513,0.274081,6.07205,8.04169,7.55879,10,0.0480781,0.0127831,89,103.43,0.0556846
0.750768,0.247645,0.543377,6.08285,7.98155,7.60927,11,0.0432853,0.0115088,103,113.628,0.0414708
-0.67002,-0.378194,0.561716,5.9653,7.96577,7.62021,12,0.0282385,0.00750811,118,86.0777,0.0343726
0.037603,-0.73334,0.650259,6.03771,7.96665,7.56111,13,0.0220401,0.00586006,134,111.4,0.0567557
0.256995,-0.212823,0.90518,6.05178,7.9459,7.62538,14,0.0445937,0.0118567,151,143.834,0.0407733
0.103389,0.375649,0.891538,6.03603,7.99687,7.64295,15,0.0275956,0.00733717,18,74.9974,0.0505628
,,,,,,,,,25,56.8328,0.0186036
,,,,,,,,,33,143.489,0.0296636
,,,,,,,,,42,89.7341,0.0296324
,,,,,,,,,52,133.772,0.0583325
,,,,,,,,,63,131.203,0.0331054
,,,,,,,,,75,63.7496,0.0567453
,,,,,,,,,88,112.265,0.0417227
,,,,,,,,,102,160.195,0.03981
,,,,,,,,,117,70.2847,0.0319751
,,,,,,,,,133,111.884,0.0275832
,,,,,,,,,150,132.436,0.0403545
,,,,,,,,,168,119.501,0.0315588
,,,,,,,,,32,130.875,0.0215544
,,,,,,,,,41,88.4272,0.0379469
,,,,,,,,,51,144.753,0.0378958
,,,,,,,,,62,123.145,0.102204
,,,,,,,,,74,56.2157,0.0437679
,,,,,,,,,87,54.0399,0.0974291
,,,,,,,,,101,53.1435,0.0602081
,,,,,,,,,116,94.0847,0.0563045
,,,,,,,,,132,133.474,0.0418136
,,,,,,,,,149,171.25,0.0346077
,,,,,,,,,167,134.194,0.0573997
,,,,,,,,,186,100.925,0.0411046
,,,,,,,,,50,124.129,0.016576
,,,,,,,,,61,38.8874,0.0165662
,,,,,,,,,73,88.5539,0.0228519
,,,,,,,,,86,167.993,0.0175984
,,,,,,,,,100,105.759,0.0226043
,,,,,,,,,115,152.567,0.0197688
,,,,,,,,,131,134.749,0.0193288
,,,,,,,,,148,39.2882,0.0172738
,,,,,,,,,166,57.0766,0.0159056
,,,,,,,,,185,89.8323,0.0194563
,,,,,,,,,205,110.106,0.0171516
,,,,,,,,,72,85.4949,0.0248003
,,,,,,,,,85,37.2278,0.0421615
,,,,,,,,,99,43.8644,0.0271874
,,,,,,,,,114,130.095,0.041326
,,,,,,,,,130,80.3947,0.0327407
,,,,,,,,,147,49.9561,0.0315512
,,,,,,,,,165,137.202,0.0264204
,,,,,,,,,184,88.6008,0.0233485
,,,,,,,,,204,82.0718,0.0318922
,,,,,,,,,225,95.217,0.0261355
,,,,,,,,,98,49.7934,0.0420984
,,,,,,,,,113,129.2,0.0271611
,,,,,,,,,129,144.31,0.0412654
,,,,,,,,,146,157.1,0.0327026
,,,,,,,,,164,107.979,0.0315158
,,,,,,,,,183,65.1891,0.0263956
,,,,,,,,,203,43.0256,0.0233292
,,,,,,,,,224,79.1832,0.0318561
,,,,,,,,,246,114.183,0.0261113
,,,,,,,,,128,79.7148,0.0494718
,,,,,,,,,145,162.448,0.131068
,,,,,,,,,163,111.577,0.0715574
,,,,,,,,,182,66.0327,0.06611
,,,,,,,,,202,103.272,0.0469895
,,,,,,,,,223,56.4434,0.0380793
,,,,,,,,,245,68.6209,0.0676251
,,,,,,,,,268,99.641,0.0460959
,,,,,,,,,162,86.2416,0.0483255
,,,,,,,,,181,38.3311,0.0369847
,,,,,,,,,201,41.4393,0.0354739
,,,,,,,,,222,146.45,0.0291165
,,,,,,,,,244,116.77,0.0254295
,,,,,,,,,267,88.2735,0.0359056
,,,,,,,,,291,74.7475,0.0287709
,,,,,,,,,200,51.6372,0.0691836
,,,,,,,,,221,96.4499,0.0640787
,,,,,,,,,243,82.7643,0.0459541
,,,,,,,,,266,123.193,0.0373965
,,,,,,,,,290,100.704,0.0655012
,,,,,,,,,315,66.2285,0.0450991
,,,,,,,,,242,49.311,0.045556
,,,,,,,,,265,115.051,0.0355795
,,,,,,,,,289,118.203,0.0302246
,,,,,,,,,314,81.0671,0.0462704
,,,,,,,,,340,50.0522,0.0350649
,,,,,,,,,288,108.599,0.0341792
,,,,,,,,,313,77.7301,0.029208
,,,,,,,,,339,46.9206,0.0439298
,,,,,,,,,366,45.4226,0.033704
,,,,,,,,,338,48.6403,0.0247572
,,,,,,,,,365,63.0331,0.0345797
,,,,,,,,,393,71.8025,0.0279134
,,,,,,,,,392,37.1366,0.0295
,,,,,,,,,421,71.162,0.0245069
,,,,,,,,,450,36.5922,0.0340934
