facetNormals:0,facetNormals:1,facetNormals:2,FacetCenters:0,FacetCenters:1,FacetCenters:2,FacetIds,relFacetSize,absFacetSize,cellPairingIds,interplanarAngles,angleWeights
-0.413873,-0.502443,-0.704527,7.07697,7.76732,6.49502,1,0.0762644,0.0149004,8,77.8988,0.0700593
-0.0993839,0.661014,-0.68652,7.08501,7.85245,6.4523,2,0.064788,0.0126582,13,98.5012,0.0318968
0.580494,0.563325,-0.546296,7.10996,7.85339,6.51178,3,0.0201654,0.00393988,19,43.5992,0.0324051
-0.292261,-0.903369,-0.128789,7.07339,7.72738,6.61454,4,0.0205734,0.00401961,26,87.2941,0.0385758
0.781357,-0.485015,-0.173261,7.096,7.75117,6.55419,5,0.0258173,0.00504415,34,56.0224,0.0277752
-0.95057,-0.28542,0.006751,7.01918,7.74136,6.57052,6,0.0169796,0.00331744,43,65.6457,0.104472
-0.924862,0.136152,-0.0806025,7.02413,7.7945,6.55155,7,0.165793,0.0323924,53,100.048,0.0693377
-0.749282,0.571438,0.265178,7.03417,7.84497,6.56746,8,0.0635645,0.0124192,64,77.6783,0.0249889
-0.724533,-0.476247,0.477654,7.0484,7.76373,6.6204,9,0.0149425,0.00291944,76,136.241,0.0513391
-0.119835,0.881191,0.401431,7.08496,7.87053,6.59552,10,0.0386931,0.00755981,89,89.0105,0.0657137
-0.214015,-0.725625,0.620212,7.0675,7.72507,6.65319,11,0.0577274,0.0112787,103,166.082,0.0860176
0.21711,0.629893,0.708843,7.09104,7.8259,6.62927,12,0.0986312,0.0192704,118,162.404,0.0558143
0.432074,0.242629,0.849549,7.10467,7.76348,6.62598,13,0.0440125,0.00859909,18,42.4856,0.0307574
,,,,,,,,,25,121.498,0.0312298
,,,,,,,,,33,108.149,0.0369217
,,,,,,,,,42,95.9649,0.0269073
,,,,,,,,,52,74.6993,0.0931681
,,,,,,,,,63,73.2615,0.0641704
,,,,,,,,,75,126.991,0.0242842
,,,,,,,,,88,70.0626,0.0484504
,,,,,,,,,102,160.605,0.0610543
,,,,,,,,,117,95.6546,0.0782053
,,,,,,,,,133,119.622,0.0524167
,,,,,,,,,32,130.564,0.0203674
,,,,,,,,,41,72.4787,0.022644
,,,,,,,,,51,137.676,0.0184359
,,,,,,,,,62,117.025,0.0359573
,,,,,,,,,74,105.66,0.0306176
,,,,,,,,,87,169.42,0.0171654
,,,,,,,,,101,77.4136,0.0265131
,,,,,,,,,116,155.926,0.0298897
,,,,,,,,,132,84.3413,0.0334847
,,,,,,,,,149,94.5772,0.0276584
,,,,,,,,,50,74.9984,0.022899
,,,,,,,,,61,55.7821,0.0186045
,,,,,,,,,73,79.8984,0.0366046
,,,,,,,,,86,110.689,0.0310856
,,,,,,,,,100,52.2668,0.0173116
,,,,,,,,,115,150.38,0.0268634
,,,,,,,,,131,47.0904,0.0303356
,,,,,,,,,148,140.94,0.0340454
,,,,,,,,,166,118.862,0.0280398
,,,,,,,,,72,130.682,0.0204859
,,,,,,,,,85,151.918,0.0446775
,,,,,,,,,99,172.641,0.0367203
,,,,,,,,,114,116.814,0.0189292
,,,,,,,,,130,130.3,0.0309703
,,,,,,,,,147,85.159,0.0356783
,,,,,,,,,165,106.508,0.0409229
,,,,,,,,,184,85.4677,0.0325444
,,,,,,,,,98,25.6165,0.0308043
,,,,,,,,,113,55.4558,0.0268002
,,,,,,,,,129,32.5821,0.015896
,,,,,,,,,146,98.0067,0.023602
,,,,,,,,,164,64.7137,0.0262408
,,,,,,,,,183,113.265,0.0289716
,,,,,,,,,203,119.066,0.0245052
,,,,,,,,,128,35.3245,0.0918963
,,,,,,,,,145,52.3975,0.0274142
,,,,,,,,,163,77.4809,0.0627432
,,,,,,,,,182,86.9307,0.085637
,,,,,,,,,202,100.872,0.123683
,,,,,,,,,223,118.127,0.0695593
,,,,,,,,,162,65.7892,0.0241969
,,,,,,,,,181,42.8906,0.0481042
,,,,,,,,,201,95.3822,0.0605055
,,,,,,,,,222,66.1382,0.0773072
,,,,,,,,,244,87.6079,0.0520117
,,,,,,,,,200,98.4,0.0215592
,,,,,,,,,221,34.624,0.02374
,,,,,,,,,243,97.0808,0.0259531
,,,,,,,,,266,91.3426,0.0223105
,,,,,,,,,242,112.469,0.0463315
,,,,,,,,,265,31.0017,0.0555816
,,,,,,,,,289,58.3836,0.0411817
,,,,,,,,,288,93.85,0.0728291
,,,,,,,,,313,74.4225,0.0499455
,,,,,,,,,338,27.4778,0.060865
