Q	U	V
{$V$}	{[mm$^3$]}	0.00196047
{$d_v$}	{[mm]}	0.155282
{$S_c$}	{[mm$^2$]}	0.112717
{$S_o$}	{[mm$^2$]}	0.0675126
{$S_l/S_o$}	[]	0.669570
{$\Psi$}	[]	0.67205
{$\eta$}	[]	0.728618
{med($\theta_e$)}	{[$^\circ$]}	89.7906
{$\Upsilon$}	[]	19
{$\Xi$}	[]	5
