Q	U	V
{$V$}	{[mm$^3$]}	0.00621272
{$d_v$}	{[mm]}	0.228084
{$S_c$}	{[mm$^2$]}	0.279175
{$S_o$}	{[mm$^2$]}	0.179375
{$S_l/S_o$}	[]	0.556376
{$\Psi$}	[]	0.585413
{$\eta$}	[]	0.618659
{med($\theta_e$)}	{[$^\circ$]}	58.87465
{$\Upsilon$}	[]	15
{$\Xi$}	[]	12
