Q	U	V
{$V$}	{[mm$^3$]}	0.00424156
{$d_v$}	{[mm]}	0.200836
{$S_c$}	{[mm$^2$]}	0.251983
{$S_o$}	{[mm$^2$]}	0.148319
{$S_l/S_o$}	[]	0.698926
{$\Psi$}	[]	0.502879
{$\eta$}	[]	0.566018
{med($\theta_e$)}	{[$^\circ$]}	79.83855
{$\Upsilon$}	[]	14
{$\Xi$}	[]	6
