facetNormals:0,facetNormals:1,facetNormals:2,FacetCenters:0,FacetCenters:1,FacetCenters:2,FacetIds,relFacetSize,absFacetSize,cellPairingIds,interplanarAngles,angleWeights
-0.640822,-0.069655,-0.69701,6.7705,7.73087,8.15836,1,0.0878069,0.0107115,8,89.5887,0.0311816
0.378731,0.788812,-0.436593,6.82134,7.84295,8.217,2,0.0189567,0.00231252,13,38.5872,0.0855291
-0.573877,0.553245,-0.572672,6.78638,7.78438,8.16449,3,0.0833665,0.0101698,19,64.3447,0.052662
-0.40881,0.848849,-0.290377,6.77828,7.84497,8.22264,4,0.037609,0.00458789,26,124.278,0.0262292
0.867462,0.452438,-0.0890998,6.84823,7.79006,8.21918,5,0.0154173,0.00188074,34,96.6376,0.0414897
0.111034,0.97864,-0.0446569,6.84156,7.83915,8.20063,6,0.027162,0.00331348,43,75.6821,0.0374371
-0.728998,0.597828,0.279277,6.73413,7.82999,8.25402,7,0.0237901,0.00290214,53,69.1599,0.0574612
-0.899648,-0.0734788,0.363021,6.77607,7.73104,8.16621,8,0.0427031,0.00520933,64,132.507,0.0453367
0.573796,0.728356,0.295233,6.83746,7.85008,8.26051,9,0.0305569,0.00372762,76,88.028,0.120866
-0.465857,-0.718377,0.454656,6.78568,7.71186,8.24118,10,0.193852,0.0236478,89,144.201,0.0294388
0.594464,-0.504998,0.573469,6.85038,7.72737,8.25123,11,0.0176838,0.00215723,103,169.545,0.0570572
0.775494,0.0067503,0.59852,6.86832,7.77303,8.28367,12,0.0422585,0.00515508,118,140.624,0.0302077
0.184631,-0.34934,0.901947,6.82784,7.75243,8.29724,13,0.0182416,0.00222528,134,136.17,0.0957779
0.0612867,0.455703,0.833245,6.79567,7.83226,8.29835,14,0.105341,0.0128504,18,60.7432,0.0308895
,,,,,,,,,25,48.2856,0.0252076
,,,,,,,,,33,41.0654,0.0170048
,,,,,,,,,42,30.1723,0.0223294
,,,,,,,,,52,85.6131,0.0211001
,,,,,,,,,63,125.848,0.0262573
,,,,,,,,,75,45.8381,0.023398
,,,,,,,,,88,173.337,0.0345361
,,,,,,,,,102,116.578,0.0182981
,,,,,,,,,117,87.7435,0.0261726
,,,,,,,,,133,128.499,0.0185923
,,,,,,,,,150,88.8372,0.0321312
,,,,,,,,,32,25.894,0.0518341
,,,,,,,,,41,101.757,0.0260222
,,,,,,,,,51,58.6625,0.0409741
,,,,,,,,,62,52.3763,0.0370168
,,,,,,,,,74,73.7169,0.0564769
,,,,,,,,,87,95.7326,0.0447217
,,,,,,,,,101,114.227,0.116592
,,,,,,,,,116,177.018,0.0291783
,,,,,,,,,132,144.631,0.0560866
,,,,,,,,,149,147.567,0.0299335
,,,,,,,,,167,106.176,0.0930742
,,,,,,,,,50,86.7271,0.0218695
,,,,,,,,,61,34.788,0.031543
,,,,,,,,,73,41.6471,0.0291445
,,,,,,,,,86,77.9649,0.0399945
,,,,,,,,,100,71.9057,0.0337182
,,,,,,,,,115,125.232,0.0629961
,,,,,,,,,131,151.425,0.0240563
,,,,,,,,,148,120.15,0.0397984
,,,,,,,,,166,130.767,0.0245673
,,,,,,,,,185,82.6635,0.0554287
,,,,,,,,,72,55.897,0.0196699
,,,,,,,,,85,113.603,0.0187097
,,,,,,,,,99,152.267,0.0226552
,,,,,,,,,114,33.0847,0.0204943
,,,,,,,,,130,143.913,0.0285629
,,,,,,,,,147,75.6268,0.0164729
,,,,,,,,,165,49.7022,0.0225922
,,,,,,,,,184,94.6401,0.016711
,,,,,,,,,204,78.5813,0.0268979
,,,,,,,,,98,59.5264,0.0253645
,,,,,,,,,113,101.303,0.0332041
,,,,,,,,,129,37.2855,0.0287597
,,,,,,,,,146,144.185,0.0476478
,,,,,,,,,164,118.388,0.0214213
,,,,,,,,,183,86.0826,0.0330688
,,,,,,,,,203,111.871,0.0218255
,,,,,,,,,224,63.7116,0.0431881
,,,,,,,,,128,41.7868,0.0305569
,,,,,,,,,145,84.0257,0.0267522
,,,,,,,,,163,87.7684,0.0423793
,,,,,,,,,182,127.167,0.0202874
,,,,,,,,,202,114.154,0.0304422
,,,,,,,,,223,95.4255,0.0206497
,,,,,,,,,245,60.5238,0.0388144
,,,,,,,,,162,119.248,0.0356231
,,,,,,,,,181,47.5209,0.0699886
,,,,,,,,,201,107.901,0.0250105
,,,,,,,,,222,120.302,0.0424796
,,,,,,,,,244,78.7445,0.0255633
,,,,,,,,,267,76.6454,0.0607709
,,,,,,,,,200,134.085,0.0527922
,,,,,,,,,221,81.2945,0.0224028
,,,,,,,,,243,48.9045,0.0354675
,,,,,,,,,266,82.9394,0.0228453
,,,,,,,,,290,48.5463,0.0473723
,,,,,,,,,242,68.3293,0.032411
,,,,,,,,,265,95.6804,0.0693903
,,,,,,,,,289,52.9603,0.0333454
,,,,,,,,,314,88.5763,0.136504
,,,,,,,,,288,32.3929,0.0249337
,,,,,,,,,313,32.5682,0.0179584
,,,,,,,,,339,72.0375,0.0302838
,,,,,,,,,338,45.1213,0.0254831
,,,,,,,,,365,53.8993,0.0603193
,,,,,,,,,392,49.8973,0.0310981
