"cellPairingIds","interplanarAngles","angleWeights"
8,22.1636,0.0486476
13,48.5633,0.0643075
26,66.7886,0.0167926
103,104.963,0.0493705
18,62.963,0.058185
25,70.6493,0.0511626
52,85.9538,0.065473
75,80.5773,0.0441501
102,89.754,0.0451678
117,105.119,0.0456803
32,36.1749,0.0687768
41,80.1864,0.0177998
51,48.4328,0.0654229
149,122.647,0.0733649
73,56.0058,0.0791972
166,102.147,0.0625412
72,58.3902,0.0168677
165,58.2631,0.0164244
183,105.05,0.0500252
203,91.7948,0.0597556
182,38.6003,0.0656993
223,74.2899,0.0853431
221,52.2311,0.0442529
243,45.8752,0.0447447
266,92.8552,0.0523726
313,70.9764,0.0538109
338,83.3004,0.0545398
