facetNormals:0,facetNormals:1,facetNormals:2,FacetCenters:0,FacetCenters:1,FacetCenters:2,FacetIds,relFacetSize,absFacetSize,cellPairingIds,interplanarAngles,angleWeights
-0.000142445,-0.171901,-0.963277,6.78042,4.31958,9.4458,1,0.0339789,0.00373835,8,43.7935,0.0412923
0.33348,0.450915,-0.792253,6.76714,4.39637,9.46918,2,0.0526173,0.00578895,13,52.0807,0.0125743
0.761803,-0.0581117,-0.593798,6.83265,4.33543,9.51716,3,0.00771462,0.000848761,19,53.7111,0.0465892
-0.402509,0.521975,-0.649383,6.77504,4.41226,9.47078,4,0.0740833,0.00815064,26,45.6581,0.0287981
0.0623082,-0.787826,-0.538303,6.80168,4.27203,9.4736,5,0.0249881,0.00274919,34,79.5016,0.0228332
0.326689,0.868035,-0.337637,6.76787,4.45416,9.50999,6,0.0171934,0.00189162,43,67.6384,0.0453247
-0.894244,-0.211021,-0.340952,6.71449,4.35241,9.48625,7,0.0680459,0.0074864,53,83.7608,0.0481281
-0.728416,-0.638089,0.00707058,6.74534,4.29695,9.51507,8,0.0824692,0.00907325,64,94.5605,0.0404403
-0.964704,0.00733659,0.0770014,6.70913,4.36898,9.54591,9,0.0499362,0.00549398,76,87.353,0.0369148
-0.269084,-0.928664,0.120058,6.75828,4.2877,9.53525,10,0.0404061,0.00444547,89,104.159,0.0466467
-0.75381,0.598935,0.134801,6.71448,4.43363,9.54434,11,0.0743748,0.0081827,103,125.703,0.0487301
0.373329,0.787696,0.437559,6.78961,4.43623,9.57064,12,0.0861149,0.00947435,118,110.813,0.0111911
-0.0174029,-0.854415,0.512057,6.76646,4.30199,9.57711,13,0.00669865,0.000736985,134,116.025,0.0397375
0.44275,-0.634487,0.531528,6.81705,4.29963,9.57013,14,0.0478463,0.00526405,151,151.165,0.0429627
0.461635,0.125464,0.830043,6.80938,4.36549,9.60469,15,0.0584045,0.00642565,169,133.721,0.0487832
-0.400502,-0.446069,0.758329,6.78231,4.32219,9.58963,16,0.0864475,0.00951095,188,163.92,0.0284511
-0.237207,0.298034,0.907347,6.74882,4.40558,9.60382,17,0.0244702,0.00269221,18,41.9745,0.0134563
,,,,,,,,,25,46.7314,0.0615319
,,,,,,,,,33,84.3109,0.0338844
,,,,,,,,,42,36.7309,0.0259178
,,,,,,,,,52,97.444,0.0593452
,,,,,,,,,63,124.783,0.0642448
,,,,,,,,,75,113.821,0.0512417
,,,,,,,,,88,129.661,0.0457102
,,,,,,,,,102,95.3574,0.0616322
,,,,,,,,,117,81.9228,0.065322
,,,,,,,,,133,145.478,0.0118843
,,,,,,,,,150,127.888,0.0501185
,,,,,,,,,168,118.736,0.05536
,,,,,,,,,187,175.553,0.0654175
,,,,,,,,,207,134.003,0.0334051
,,,,,,,,,32,86.8861,0.0139741
,,,,,,,,,41,63.4969,0.0117895
,,,,,,,,,51,65.3117,0.0106504
,,,,,,,,,62,119.469,0.0138581
,,,,,,,,,74,123.855,0.0141094
,,,,,,,,,87,146.517,0.0133646
,,,,,,,,,101,103.64,0.0129557
,,,,,,,,,116,137.099,0.0139792
,,,,,,,,,132,91.2867,0.0141607
,,,,,,,,,149,106.12,0.00717083
,,,,,,,,,167,86.3048,0.0132869
,,,,,,,,,186,99.2175,0.013629
,,,,,,,,,206,141.249,0.0141651
,,,,,,,,,227,140.695,0.0117309
,,,,,,,,,50,95.6261,0.0373711
,,,,,,,,,61,53.6863,0.0279095
,,,,,,,,,73,58.6929,0.0709364
,,,,,,,,,86,92.8443,0.0780516
,,,,,,,,,100,67.5391,0.059659
,,,,,,,,,115,120.268,0.0522916
,,,,,,,,,131,54.0184,0.0742288
,,,,,,,,,148,91.4765,0.0796473
,,,,,,,,,166,146.816,0.0122864
,,,,,,,,,185,169.701,0.058142
,,,,,,,,,205,138.055,0.0653162
,,,,,,,,,226,129.097,0.0797893
,,,,,,,,,248,111.802,0.0367889
,,,,,,,,,72,120.694,0.0203706
,,,,,,,,,85,71.7115,0.0365531
,,,,,,,,,99,60.6752,0.0383548
,,,,,,,,,114,96.6608,0.0333086
,,,,,,,,,130,45.7363,0.0308796
,,,,,,,,,147,129.507,0.0374081
,,,,,,,,,165,153.254,0.0387361
,,,,,,,,,184,65.4103,0.0105651
,,,,,,,,,204,74.403,0.0328304
,,,,,,,,,225,124.35,0.0350012
,,,,,,,,,247,95.0734,0.0387697
,,,,,,,,,270,141.657,0.0247265
,,,,,,,,,98,111.862,0.0274508
,,,,,,,,,113,146.195,0.0284546
,,,,,,,,,129,110.516,0.0255796
,,,,,,,,,146,166.369,0.0241224
,,,,,,,,,164,76.247,0.0279302
,,,,,,,,,183,46.884,0.0286639
,,,,,,,,,203,159.364,0.00964109
,,,,,,,,,224,129.2,0.0252966
,,,,,,,,,246,91.2443,0.0265662
,,,,,,,,,269,144.224,0.0286823
,,,,,,,,,293,97.4027,0.0201964
,,,,,,,,,128,34.3421,0.0745665
,,,,,,,,,145,28.3289,0.0576012
,,,,,,,,,163,65.5198,0.0507039
,,,,,,,,,182,58.2226,0.0710697
,,,,,,,,,202,132.784,0.0760215
,,,,,,,,,223,88.7514,0.0121966
,,,,,,,,,245,118.806,0.0561857
,,,,,,,,,268,140.292,0.0628576
,,,,,,,,,292,78.2005,0.0761508
,,,,,,,,,317,99.5578,0.0359959
,,,,,,,,,162,41.8095,0.0622059
,,,,,,,,,181,33.207,0.054238
,,,,,,,,,201,79.7289,0.0782131
,,,,,,,,,222,144.763,0.0842526
,,,,,,,,,244,54.4094,0.0123908
,,,,,,,,,267,84.5643,0.0605584
,,,,,,,,,291,116.258,0.0683814
,,,,,,,,,316,51.5799,0.0844115
,,,,,,,,,342,90.6596,0.0377418
,,,,,,,,,200,73.8663,0.0446685
,,,,,,,,,221,37.9445,0.0597533
,,,,,,,,,243,109.86,0.0632152
,,,,,,,,,266,87.0305,0.0118127
,,,,,,,,,290,115.482,0.0488689
,,,,,,,,,315,114.229,0.0538394
,,,,,,,,,341,61.8419,0.0633046
,,,,,,,,,368,71.5827,0.0328453
,,,,,,,,,242,110.854,0.052364
,,,,,,,,,265,145.107,0.0550038
,,,,,,,,,289,27.6716,0.0114921
,,,,,,,,,314,54.2825,0.0438126
,,,,,,,,,340,98.6933,0.0477661
,,,,,,,,,367,49.3876,0.0550714
,,,,,,,,,395,96.2279,0.030481
,,,,,,,,,288,74.754,0.0798154
,,,,,,,,,313,116.331,0.0122904
,,,,,,,,,339,134.72,0.0582315
,,,,,,,,,366,99.9512,0.0654292
,,,,,,,,,394,81.62,0.079958
,,,,,,,,,423,59.9111,0.0368247
,,,,,,,,,338,117.952,0.0124304
,,,,,,,,,365,96.3913,0.0615145
,,,,,,,,,393,47.2429,0.0696031
,,,,,,,,,422,100.33,0.0862809
,,,,,,,,,452,55.5299,0.038111
,,,,,,,,,392,30.4016,0.011752
,,,,,,,,,421,71.0596,0.0120188
,,,,,,,,,451,36.2741,0.0124338
,,,,,,,,,482,77.3859,0.010518
,,,,,,,,,450,50.9969,0.0526008
,,,,,,,,,481,55.8957,0.0615992
,,,,,,,,,513,78.2467,0.0323802
,,,,,,,,,512,65.1903,0.0697115
,,,,,,,,,545,43.7489,0.0344899
,,,,,,,,,578,46.8869,0.0381434
