facetNormals:0,facetNormals:1,facetNormals:2,FacetCenters:0,FacetCenters:1,FacetCenters:2,FacetIds,relFacetSize,absFacetSize,cellPairingIds,interplanarAngles,angleWeights
0.135234,-0.602599,-0.741274,4.53872,3.9665,7.01659,1,0.0277848,0.00325629,8,41.2129,0.0424169
0.473141,-0.0199318,-0.851372,4.55122,4.0405,7.00065,2,0.089605,0.0105014,13,37.899,0.0403468
-0.376214,-0.754309,-0.425005,4.4607,3.99051,7.11156,3,0.0736416,0.00863056,19,66.0322,0.044035
-0.811042,-0.195686,-0.504355,4.45987,4.04351,7.04386,4,0.106073,0.0124314,26,103.025,0.0236785
-0.690697,0.61276,-0.335906,4.47734,4.09628,7.05379,5,0.0206297,0.00241773,34,70.6746,0.0421406
-0.835836,-0.45915,-0.198836,4.47673,3.98634,7.07058,6,0.0871893,0.0102183,43,116.263,0.0152205
-0.881377,0.447496,0.0453299,4.44422,4.0225,7.16641,7,0.010481,0.00122834,53,59.5028,0.0381221
0.83693,-0.507434,-0.083679,4.58561,3.99471,7.08172,8,0.0607086,0.00711486,64,55.8104,0.0226925
0.101705,-0.980644,0.0915466,4.53509,3.9551,7.11512,9,0.0191777,0.00224756,76,116.778,0.0409185
0.55446,0.790979,0.0247752,4.56874,4.08294,7.05996,10,0.077599,0.00909436,89,81.304,0.0391035
0.843888,-0.411861,0.295067,4.58206,4.00143,7.13298,11,0.0659827,0.00773297,103,76.7289,0.0307412
0.487165,-0.756364,0.408513,4.54547,3.96368,7.14798,12,0.0344017,0.00403177,118,79.9347,0.0304493
-0.422452,-0.812593,0.359681,4.46556,3.97127,7.16676,13,0.0336791,0.00394709,134,173.684,0.0164757
-0.172151,0.666687,0.665115,4.55835,4.01638,7.19083,14,0.0117096,0.00137233,151,94.7057,0.0355822
0.101424,-0.695164,0.688665,4.50613,3.9831,7.19299,15,0.0494633,0.00579694,169,112.944,0.0260817
-0.529155,-0.402766,0.733091,4.43395,4.01614,7.20352,16,0.0245753,0.00288014,18,77.5116,0.0808428
,,,,,,,,,25,87.0091,0.0971459
,,,,,,,,,33,93.1759,0.0335379
,,,,,,,,,42,103.22,0.0883806
,,,,,,,,,52,118.808,0.0187669
,,,,,,,,,63,60.0795,0.0723793
,,,,,,,,,75,90.6102,0.0315936
,,,,,,,,,88,76.1415,0.083171
,,,,,,,,,102,80.6207,0.0760006
,,,,,,,,,117,96.096,0.0497161
,,,,,,,,,133,120.736,0.0489571
,,,,,,,,,150,135.132,0.0207125
,,,,,,,,,168,123.177,0.0637408
,,,,,,,,,187,153.974,0.0385718
,,,,,,,,,32,43.5446,0.0869309
,,,,,,,,,41,93.6842,0.0322304
,,,,,,,,,51,35.8596,0.0798448
,,,,,,,,,62,91.5477,0.0183503
,,,,,,,,,74,83.5941,0.0665526
,,,,,,,,,87,44.8609,0.0304307
,,,,,,,,,101,153.421,0.0755685
,,,,,,,,,116,98.1806,0.0696021
,,,,,,,,,132,76.7597,0.0468959
,,,,,,,,,149,48.2079,0.0462201
,,,,,,,,,167,142.9,0.0202062
,,,,,,,,,186,77.9721,0.0591781
,,,,,,,,,206,78.1845,0.0368524
,,,,,,,,,50,50.4688,0.0345415
,,,,,,,,,61,23.9372,0.0957084
,,,,,,,,,73,51.2057,0.019077
,,,,,,,,,86,124.127,0.0772212
,,,,,,,,,100,86.2437,0.0324826
,,,,,,,,,115,130.915,0.0896288
,,,,,,,,,131,141.659,0.0813571
,,,,,,,,,148,118.061,0.0519536
,,,,,,,,,166,70.4984,0.0511254
,,,,,,,,,185,110.463,0.0210909
,,,,,,,,,205,107.823,0.0674661
,,,,,,,,,226,81.7631,0.0399052
,,,,,,,,,72,67.7285,0.0333649
,,,,,,,,,85,26.8066,0.0139
,,,,,,,,,99,153.122,0.0307948
,,,,,,,,,114,136.177,0.0198772
,,,,,,,,,130,84.3545,0.0325942
,,,,,,,,,147,165.047,0.031432
,,,,,,,,,165,164.872,0.0257924
,,,,,,,,,184,109.767,0.0255866
,,,,,,,,,204,71.1433,0.0149394
,,,,,,,,,225,138.807,0.0291159
,,,,,,,,,247,97.5373,0.0224303
,,,,,,,,,98,57.1976,0.0187126
,,,,,,,,,113,118.045,0.0715783
,,,,,,,,,129,68.9118,0.03144
,,,,,,,,,146,152.055,0.0821151
,,,,,,,,,164,126.84,0.075118
,,,,,,,,,183,98.4314,0.0493368
,,,,,,,,,203,46.9197,0.0485894
,,,,,,,,,224,108.406,0.0206464
,,,,,,,,,246,84.1619,0.0631188
,,,,,,,,,269,60.0441,0.0383431
,,,,,,,,,128,175.141,0.0178759
,,,,,,,,,145,122.354,0.0135543
,,,,,,,,,163,98.0325,0.0184677
,,,,,,,,,182,159.911,0.0180887
,,,,,,,,,202,140.032,0.016067
,,,,,,,,,223,88.528,0.0159869
,,,,,,,,,245,59.5398,0.0110613
,,,,,,,,,268,112.292,0.0172969
,,,,,,,,,292,70.9677,0.0146949
,,,,,,,,,162,53.7541,0.0291477
,,,,,,,,,181,86.3394,0.0681225
,,,,,,,,,201,22.9165,0.0632359
,,,,,,,,,222,38.7137,0.043917
,,,,,,,,,244,88.2998,0.0433237
,,,,,,,,,267,124.899,0.0196324
,,,,,,,,,291,66.8442,0.0545121
,,,,,,,,,316,107.962,0.0349874
,,,,,,,,,200,138.54,0.0307547
,,,,,,,,,221,57.9812,0.029718
,,,,,,,,,243,32.1116,0.0246268
,,,,,,,,,266,36.1353,0.0244392
,,,,,,,,,290,130.087,0.0145408
,,,,,,,,,315,39.1799,0.0276392
,,,,,,,,,341,65.3806,0.0215435
,,,,,,,,,242,80.9601,0.071321
,,,,,,,,,265,109.457,0.04767
,,,,,,,,,289,155.927,0.0469718
,,,,,,,,,314,61.0077,0.0203486
,,,,,,,,,340,120.088,0.0604161
,,,,,,,,,367,128.381,0.0373287
,,,,,,,,,288,29.8933,0.0452245
,,,,,,,,,313,85.0063,0.0445956
,,,,,,,,,339,103.727,0.0198895
,,,,,,,,,366,53.5644,0.0565411
,,,,,,,,,394,93.7874,0.0358123
,,,,,,,,,338,55.136,0.0340366
,,,,,,,,,365,109.543,0.0174721
,,,,,,,,,393,28.2157,0.04058
,,,,,,,,,422,69.2599,0.0286699
,,,,,,,,,392,104.12,0.0173774
,,,,,,,,,421,37.3251,0.040073
,,,,,,,,,451,33.243,0.0284158
,,,,,,,,,450,91.3919,0.0189363
,,,,,,,,,481,70.8927,0.0158615
,,,,,,,,,512,41.33,0.0328362
