facetNormals:0,facetNormals:1,facetNormals:2,FacetCenters:0,FacetCenters:1,FacetCenters:2,FacetIds,relFacetSize,absFacetSize,cellPairingIds,interplanarAngles,angleWeights
0.383023,-0.129663,-0.832074,6.32364,3.78128,7.1952,1,0.10572,0.0199488,8,59.7621,0.0450031
-0.566887,-0.130527,-0.789861,6.23379,3.82414,7.20987,2,0.0285857,0.00539396,13,66.3006,0.0632913
-0.588217,0.228881,-0.74165,6.18792,3.79589,7.18616,3,0.0451651,0.00852238,19,47.9157,0.0718031
0.408248,0.617176,-0.634737,6.31067,3.84624,7.2088,4,0.0543625,0.0102579,26,66.5817,0.063313
-0.167957,0.730619,-0.621469,6.28001,3.90226,7.21752,5,0.0451871,0.00852654,34,53.1306,0.0367179
0.752482,0.511215,-0.394834,6.36133,3.95065,7.28861,6,0.0222171,0.00419223,43,62.5382,0.11759
0.90623,0.185746,-0.0882511,6.37438,3.86262,7.28011,7,0.132462,0.0249948,53,98.1688,0.018444
-0.725188,-0.648238,-0.0786395,6.27027,3.84532,7.26566,8,0.0101033,0.00190643,64,112.895,0.0690994
-0.958044,0.184575,-0.047246,6.24532,3.8902,7.29145,9,0.0513218,0.00968412,76,121.389,0.105452
-0.500978,0.74961,0.185637,6.2279,3.87088,7.28999,10,0.105186,0.0198479,89,120.55,0.0304792
0.0775642,0.872406,0.45844,6.27988,3.8583,7.29065,11,0.0178064,0.00335996,103,98.3878,0.042037
0.417857,-0.741043,0.465076,6.36723,3.85058,7.31049,12,0.0262342,0.00495023,118,125.176,0.0230203
-0.124059,-0.692652,0.675696,6.32776,3.86248,7.33896,13,0.0129164,0.00243724,134,147.449,0.0736832
-0.782007,0.30085,0.514727,6.26989,3.91949,7.3362,14,0.0565473,0.0106701,151,135.082,0.0547695
0.275489,0.423572,0.817358,6.31974,3.85015,7.30562,15,0.036958,0.00697375,18,21.4143,0.0350119
,,,,,,,,,25,78.5795,0.037469
,,,,,,,,,33,59.0881,0.0350185
,,,,,,,,,42,100.749,0.0250022
,,,,,,,,,52,120.91,0.0470236
,,,,,,,,,63,54.3576,0.0149298
,,,,,,,,,75,54.5076,0.0367192
,,,,,,,,,88,87.4912,0.0449544
,,,,,,,,,102,122.423,0.0219438
,,,,,,,,,117,122.248,0.0273595
,,,,,,,,,133,112.938,0.017793
,,,,,,,,,150,90.1498,0.0379746
,,,,,,,,,168,155.398,0.0322371
,,,,,,,,,32,66.9412,0.0493388
,,,,,,,,,41,39.9561,0.0451761
,,,,,,,,,51,91.9454,0.0297834
,,,,,,,,,62,118.016,0.067362
,,,,,,,,,74,69.2618,0.0165128
,,,,,,,,,87,47.6514,0.048047
,,,,,,,,,101,68.4986,0.0631951
,,,,,,,,,116,101.136,0.0255426
,,,,,,,,,132,143.633,0.0331899
,,,,,,,,,149,128.135,0.020088
,,,,,,,,,167,81.1642,0.0502193
,,,,,,,,,186,135.834,0.0406514
,,,,,,,,,50,35.0883,0.049352
,,,,,,,,,61,25.4056,0.031543
,,,,,,,,,73,53.3634,0.077088
,,,,,,,,,86,132.785,0.0170398
,,,,,,,,,100,105.046,0.0527984
,,,,,,,,,115,81.0066,0.0716794
,,,,,,,,,131,73.1663,0.026826
,,,,,,,,,148,128.001,0.0353899
,,,,,,,,,166,162.49,0.0208733
,,,,,,,,,185,118.694,0.0554334
,,,,,,,,,205,98.899,0.0440017
,,,,,,,,,72,59.3366,0.0297882
,,,,,,,,,85,87.5712,0.0673865
,,,,,,,,,99,108.59,0.0165142
,,,,,,,,,114,70.0128,0.0480595
,,,,,,,,,130,54.8193,0.0632167
,,,,,,,,,147,69.3515,0.0255461
,,,,,,,,,165,162.54,0.0331959
,,,,,,,,,184,162.329,0.0200901
,,,,,,,,,204,88.1291,0.0502329
,,,,,,,,,225,105.164,0.0406604
,,,,,,,,,98,28.2587,0.0380519
,,,,,,,,,113,150.953,0.0138901
,,,,,,,,,129,128.869,0.03101
,,,,,,,,,146,94.2128,0.0366855
,,,,,,,,,164,70.7421,0.0197687
,,,,,,,,,183,104.949,0.0240591
,,,,,,,,,203,137.583,0.0163357
,,,,,,,,,224,130.852,0.0319006
,,,,,,,,,246,83.9089,0.0277515
,,,,,,,,,128,148.193,0.0187746
,,,,,,,,,145,156.08,0.0739803
,,,,,,,,,163,112.775,0.117258
,,,,,,,,,182,77.9438,0.0313928
,,,,,,,,,202,77.1756,0.0437947
,,,,,,,,,223,109.373,0.0235376
,,,,,,,,,245,139.825,0.0792592
,,,,,,,,,268,73.3268,0.0577916
,,,,,,,,,162,52.6102,0.016883
,,,,,,,,,181,98.7868,0.0184358
,,,,,,,,,201,132.992,0.0128918
,,,,,,,,,222,81.4434,0.0145883
,,,,,,,,,244,59.3146,0.011338
,,,,,,,,,267,69.7842,0.0171436
,,,,,,,,,291,125.058,0.0158686
,,,,,,,,,200,47.3201,0.0689848
,,,,,,,,,221,86.1371,0.0264395
,,,,,,,,,243,126.18,0.0347203
,,,,,,,,,266,92.4609,0.0206386
,,,,,,,,,290,35.6629,0.053808
,,,,,,,,,315,103.83,0.0429713
,,,,,,,,,242,39.6944,0.0304569
,,,,,,,,,265,139.484,0.0419945
,,,,,,,,,289,111.672,0.0230075
,,,,,,,,,314,38.0478,0.0735528
,,,,,,,,,340,68.0089,0.0546974
,,,,,,,,,288,114.723,0.0212139
,,,,,,,,,313,108.382,0.0149722
,,,,,,,,,339,63.2348,0.0270841
,,,,,,,,,366,36.2984,0.0240334
,,,,,,,,,338,34.9061,0.0173101
,,,,,,,,,365,108.995,0.0358406
,,,,,,,,,393,78.7749,0.0306861
,,,,,,,,,392,75.7322,0.0210293
,,,,,,,,,421,76.1302,0.0191426
,,,,,,,,,450,69.3841,0.0447006
