"cellPairingIds","interplanarAngles","angleWeights"
8,46.0437,0.0950406
19,58.6888,0.0447648
34,121.294,0.0342942
53,134.108,0.148875
25,98.9852,0.040873
33,68.7072,0.0723173
42,113.126,0.0319627
52,111.925,0.0905472
75,104.755,0.0627729
73,42.5522,0.0437423
86,87.4558,0.0483999
72,48.7748,0.0308018
99,102.066,0.099769
114,96.5286,0.0584468
113,56.0393,0.0363879
128,79.0768,0.138137
145,62.5096,0.0698052
162,82.3,0.0824698
