"cellPairingIds","interplanarAngles","angleWeights"
8,23.4494,0.0213438
13,59.9412,0.042839
26,98.3455,0.0236521
34,65.468,0.0297015
43,57.7817,0.0138158
53,126.044,0.0468366
64,101.286,0.037511
33,86.6456,0.0186678
52,44.553,0.0119518
102,103.071,0.023047
117,89.8477,0.0255513
41,40.7344,0.0332674
74,68.008,0.109521
99,39.6337,0.0356289
147,43.9796,0.0257617
113,88.9255,0.0513988
129,57.0143,0.0403816
146,43.6581,0.0429873
145,108.668,0.0157539
202,56.8054,0.0154641
245,75.2434,0.0162494
181,54.4121,0.0913642
201,55.1734,0.0559017
244,54.9324,0.118317
291,72.9834,0.0714888
200,54.3307,0.0615262
290,74.4965,0.0632159
315,51.9832,0.0518236
340,64.5132,0.0561951
288,45.8737,0.0410069
313,40.5312,0.0520775
338,56.1951,0.0668919
365,43.9705,0.0587946
392,49.5288,0.084571
421,41.0608,0.0653517
450,45.1803,0.0576013
