"cellPairingIds","interplanarAngles","angleWeights"
8,44.497,0.0216832
13,43.3647,0.0197435
26,78.9157,0.0140267
76,100.745,0.0139681
18,79.4104,0.0808627
33,74.7868,0.0302942
52,64.7915,0.0343153
51,41.444,0.0771974
62,99.7825,0.0296978
101,88.8862,0.0264272
85,119.728,0.018411
99,46.8229,0.00522009
130,72.6199,0.017099
98,86.7457,0.0336375
146,87.0195,0.029502
224,52.2444,0.0506921
128,75.0404,0.00532766
163,158.632,0.0183101
245,80.603,0.0247246
181,109.911,0.00521194
314,79.4235,0.022415
