"cellPairingIds","interplanarAngles","angleWeights"
13,56.5708,0.034963
26,102.357,0.0326958
34,78.8306,0.0368112
43,70.5903,0.0262875
25,35.3313,0.0271572
42,66.3353,0.0303465
88,112.968,0.0302138
41,45.848,0.0935558
62,62.0341,0.0551124
87,84.1354,0.0251261
61,36.6723,0.103057
115,78.914,0.101543
99,56.8493,0.065913
114,46.978,0.0239334
98,31.9143,0.0598491
129,77.8621,0.0260666
146,62.489,0.167275
145,67.8885,0.0203093
162,35.3137,0.0225825
181,57.1612,0.0840552
200,56.2403,0.0259686
