facetNormals:0,facetNormals:1,facetNormals:2,FacetCenters:0,FacetCenters:1,FacetCenters:2,FacetIds,relFacetSize,absFacetSize,cellPairingIds,interplanarAngles,angleWeights
0.468927,-0.320707,-0.785249,5.94748,5.24,9.7741,1,0.0472748,0.0066525,8,67.6207,0.0565436
-0.536535,0.0771566,-0.80988,5.86128,5.27633,9.78591,2,0.0703331,0.00989725,13,58.2873,0.0589587
-0.472579,-0.384551,-0.754207,5.87607,5.25492,9.81537,3,0.0783138,0.0110203,19,80.4503,0.0439746
-0.470015,0.510252,-0.689334,5.82591,5.31357,9.79195,4,0.041105,0.00578429,26,47.9997,0.0531494
-0.119175,-0.804853,-0.556626,5.88869,5.18505,9.80254,5,0.0606911,0.00854043,34,42.6345,0.0279799
0.397427,-0.838765,-0.308137,5.95843,5.21049,9.81748,6,0.0198701,0.00279611,43,88.5656,0.0738537
0.221784,0.874082,-0.253486,5.88568,5.31881,9.81002,7,0.168701,0.0237396,53,41.3012,0.0315913
0.861746,-0.372591,-0.229358,5.95693,5.20867,9.79664,8,0.0237216,0.0033381,64,73.5704,0.0302558
0.490538,-0.792307,0.27713,5.94953,5.208,9.85383,9,0.0222469,0.00313057,76,104.301,0.0585747
0.711683,0.276591,0.609981,5.9456,5.26859,9.86852,10,0.0769732,0.0108316,89,160.149,0.0348716
-0.685724,0.381372,0.541567,5.80133,5.32312,9.87027,11,0.027624,0.00388725,103,147.504,0.0455897
-0.132844,0.7247,0.642056,5.83403,5.32254,9.88481,12,0.0440206,0.00619456,118,132.304,0.0402371
0.2976,0.50199,0.785885,5.88735,5.29665,9.90419,13,0.0350232,0.00492846,18,27.9444,0.0741092
,,,,,,,,,25,26.9175,0.0518861
,,,,,,,,,33,61.8909,0.0651573
,,,,,,,,,42,91.7073,0.0309861
,,,,,,,,,52,80.3046,0.0992767
,,,,,,,,,63,108.917,0.0354775
,,,,,,,,,75,125.394,0.0338019
,,,,,,,,,88,153.796,0.0735035
,,,,,,,,,102,92.5454,0.039668
,,,,,,,,,117,114.358,0.0541496
,,,,,,,,,133,142.559,0.0467612
,,,,,,,,,32,54.8574,0.0539126
,,,,,,,,,41,34.7175,0.0683854
,,,,,,,,,51,67.2203,0.0316977
,,,,,,,,,62,105.962,0.10697
,,,,,,,,,74,95.5718,0.0364134
,,,,,,,,,87,98.3048,0.0346505
,,,,,,,,,101,162.314,0.0776377
,,,,,,,,,116,104.475,0.0408417
,,,,,,,,,132,137.64,0.0563606
,,,,,,,,,149,167.454,0.0484008
,,,,,,,,,50,88.2741,0.0490138
,,,,,,,,,61,114.878,0.0267899
,,,,,,,,,73,55.6813,0.0661035
,,,,,,,,,86,117.542,0.0300826
,,,,,,,,,100,150.297,0.0288692
,,,,,,,,,115,129.961,0.0535913
,,,,,,,,,131,81.1421,0.0330424
,,,,,,,,,148,90.6218,0.0425129
,,,,,,,,,166,116.388,0.0378212
,,,,,,,,,72,34.0035,0.0299384
,,,,,,,,,85,129.618,0.0892677
,,,,,,,,,99,70.0645,0.0341107
,,,,,,,,,114,63.678,0.032559
,,,,,,,,,130,132.185,0.0678693
,,,,,,,,,147,124.082,0.037967
,,,,,,,,,165,163.73,0.0510288
,,,,,,,,,184,155.336,0.0444155
,,,,,,,,,98,128.23,0.0355526
,,,,,,,,,113,39.8456,0.0216257
,,,,,,,,,129,35.4928,0.0209914
,,,,,,,,,146,98.2481,0.0315863
,,,,,,,,,164,144.522,0.0231141
,,,,,,,,,183,153.928,0.0273809
,,,,,,,,,203,124.698,0.0253552
,,,,,,,,,128,94.8419,0.0415945
,,,,,,,,,145,135.9,0.0393099
,,,,,,,,,163,74.4779,0.105713
,,,,,,,,,182,87.1768,0.0474743
,,,,,,,,,202,61.1848,0.0698219
,,,,,,,,,223,70.5335,0.0580045
,,,,,,,,,162,45.8584,0.0229606
,,,,,,,,,181,66.9152,0.0362666
,,,,,,,,,201,158.488,0.0255245
,,,,,,,,,222,124.264,0.0308298
,,,,,,,,,244,96.7278,0.0282853
,,,,,,,,,200,71.6569,0.0345175
,,,,,,,,,221,121.802,0.0246456
,,,,,,,,,243,119.055,0.0295566
,,,,,,,,,266,92.0447,0.0272099
,,,,,,,,,242,93.2109,0.0406571
,,,,,,,,,265,58.604,0.0560096
,,,,,,,,,289,29.8127,0.0481417
,,,,,,,,,288,39.8616,0.033946
,,,,,,,,,313,63.7349,0.0308867
,,,,,,,,,338,29.9545,0.0390098
