Q	U	V
{$V$}	{[mm$^3$]}	0.00221578
{$d_v$}	{[mm]}	0.161749
{$S_c$}	{[mm$^2$]}	0.135178
{$S_o$}	{[mm$^2$]}	0.0884131
{$S_l/S_o$}	[]	0.528936
{$\Psi$}	[]	0.608036
{$\eta$}	[]	0.640600
{med($\theta_e$)}	{[$^\circ$]}	62.0943
{$\Upsilon$}	[]	17
{$\Xi$}	[]	7
