"cellPairingIds","interplanarAngles","angleWeights"
8,89.1358,0.0507885
13,58.9272,0.0367353
26,54.4257,0.0544294
34,44.1549,0.0425929
43,76.339,0.0362733
18,54.7236,0.0550647
33,96.306,0.107398
63,55.6925,0.11292
75,68.4346,0.0372674
88,123.329,0.10053
32,26.0397,0.0400913
62,49.9878,0.0384033
87,62.4665,0.029099
73,27.756,0.0395417
100,45.1152,0.029748
72,35.2957,0.0763373
130,54.6295,0.115872
98,97.8094,0.0448515
146,61.7307,0.072802
164,90.9346,0.0528339
145,54.8029,0.0288084
182,99.9411,0.043445
162,58.1663,0.039903
181,92.2182,0.122325
201,81.9884,0.0748151
221,92.9067,0.0319045
242,48.4832,0.0691673
