Q	U	V
{$V$}	{[mm$^3$]}	0.00694894
{$d_v$}	{[mm]}	0.236759
{$S_c$}	{[mm$^2$]}	0.283503
{$S_o$}	{[mm$^2$]}	0.180383
{$S_l/S_o$}	[]	0.571672
{$\Psi$}	[]	0.621163
{$\eta$}	[]	0.642857
{med($\theta_e$)}	{[$^\circ$]}	55.2451
{$\Upsilon$}	[]	15
{$\Xi$}	[]	11
