facetNormals:0,facetNormals:1,facetNormals:2,FacetCenters:0,FacetCenters:1,FacetCenters:2,FacetIds,relFacetSize,absFacetSize,cellPairingIds,interplanarAngles,angleWeights
-0.422701,-0.383729,-0.791835,2.91711,5.86796,7.01732,1,0.07166,0.0189912,8,78.5816,0.0785885
0.388851,0.522049,-0.692532,3.0339,5.92397,7.01728,2,0.0870001,0.0230566,13,50.8067,0.0961827
-0.0842625,-0.911676,-0.25328,2.9924,5.79728,7.0794,3,0.146221,0.0387511,19,74.186,0.0291529
-0.742564,0.587664,-0.214597,2.90179,5.98276,7.086,4,0.0182986,0.00484944,26,42.0786,0.042262
-0.892826,-0.29031,-0.27885,2.84042,5.85129,7.07767,5,0.0299678,0.00794201,34,93.6981,0.0321736
0.895155,-0.296694,-0.256367,3.11766,5.83996,7.03228,6,0.0207435,0.00549739,43,112.417,0.0276832
0.97347,0.118971,-0.113202,2.94616,5.8826,7.10697,7,0.0171552,0.00454644,53,120.674,0.0506483
0.0831954,0.954424,0.0988007,2.98118,5.82851,7.04384,8,0.0391646,0.0103793,64,77.4648,0.0459945
-0.953977,0.140418,0.178807,2.83021,5.92162,7.10929,9,0.0338654,0.00897493,76,128.257,0.0460093
-0.180884,0.86345,0.425918,2.96183,5.83701,7.05731,10,0.0338814,0.00897918,89,152.382,0.054207
0.586308,0.640848,0.440079,3.0579,5.81109,7.04267,11,0.0435904,0.0115522,103,108.369,0.056029
-0.675124,0.504679,0.495727,2.85675,5.92882,7.10971,12,0.045996,0.0121898,118,159.518,0.0330233
0.656599,0.134086,0.723026,3.09312,5.83439,7.11341,13,0.0214553,0.00568604,134,142.247,0.0558439
0.512131,-0.235368,0.773737,3.04816,5.8254,7.14428,14,0.045747,0.0121238,151,133.476,0.0244948
-0.336357,0.258971,0.891996,2.86635,5.87049,7.14943,15,0.0147721,0.00391486,169,125.154,0.0620761
-0.280778,-0.15767,0.91448,2.90738,5.84536,7.17088,16,0.0547533,0.0145106,18,111.664,0.109092
,,,,,,,,,25,79.596,0.0302374
,,,,,,,,,33,109.167,0.0445798
,,,,,,,,,42,66.4756,0.0334996
,,,,,,,,,52,56.4153,0.0286593
,,,,,,,,,63,59.6752,0.0540139
,,,,,,,,,75,116.884,0.0487533
,,,,,,,,,88,84.7334,0.0487699
,,,,,,,,,102,73.8272,0.0580803
,,,,,,,,,117,111.615,0.0601771
,,,,,,,,,133,100.789,0.0344218
,,,,,,,,,150,120.339,0.0599636
,,,,,,,,,168,130.787,0.0252558
,,,,,,,,,187,153.52,0.0672089
,,,,,,,,,32,117.006,0.0325266
,,,,,,,,,41,63.8158,0.0497413
,,,,,,,,,51,73.7363,0.0363327
,,,,,,,,,62,99.936,0.0307077
,,,,,,,,,74,170.42,0.0617814
,,,,,,,,,87,95.7243,0.054994
,,,,,,,,,101,160.986,0.0550151
,,,,,,,,,116,143.663,0.0671596
,,,,,,,,,132,124.696,0.069979
,,,,,,,,,149,112.654,0.0374199
,,,,,,,,,167,91.5468,0.0696905
,,,,,,,,,186,117.525,0.0268333
,,,,,,,,,206,93.9982,0.0796726
,,,,,,,,,50,54.5004,0.0227226
,,,,,,,,,61,145.717,0.0194445
,,,,,,,,,73,130.982,0.0177085
,,,,,,,,,86,59.2677,0.0249432
,,,,,,,,,100,37.7879,0.0237593
,,,,,,,,,115,54.65,0.0237632
,,,,,,,,,131,99.3257,0.0257765
,,,,,,,,,148,43.2555,0.0261814
,,,,,,,,,166,126.095,0.0197516
,,,,,,,,,185,137.442,0.0261409
,,,,,,,,,205,77.3208,0.0163473
,,,,,,,,,226,94.8997,0.02743
,,,,,,,,,72,132.094,0.0245167
,,,,,,,,,85,154.422,0.0218197
,,,,,,,,,99,113.685,0.0339545
,,,,,,,,,114,37.5861,0.0317976
,,,,,,,,,130,102.517,0.0318047
,,,,,,,,,147,150.774,0.0355177
,,,,,,,,,165,70.6058,0.036291
,,,,,,,,,184,148.905,0.025007
,,,,,,,,,204,130.164,0.0362132
,,,,,,,,,225,91.3982,0.0197894
,,,,,,,,,247,87.4977,0.038735
,,,,,,,,,98,26.2713,0.0187795
,,,,,,,,,113,104.397,0.0271219
,,,,,,,,,129,169.211,0.0257279
,,,,,,,,,146,123.42,0.0257325
,,,,,,,,,164,76.5163,0.0281101
,,,,,,,,,183,157.229,0.0285923
,,,,,,,,,203,67.8903,0.0210934
,,,,,,,,,224,69.3503,0.028544
,,,,,,,,,246,128.928,0.0172558
,,,,,,,,,269,117.603,0.030088
,,,,,,,,,128,78.8817,0.0238594
,,,,,,,,,145,164.335,0.0227739
,,,,,,,,,163,97.2217,0.0227775
,,,,,,,,,182,51.5935,0.0246208
,,,,,,,,,202,132.587,0.0249899
,,,,,,,,,223,53.9106,0.0190658
,,,,,,,,,245,66.0945,0.024953
,,,,,,,,,268,114.06,0.0158747
,,,,,,,,,292,114.414,0.026125
,,,,,,,,,162,85.6088,0.0363228
,,,,,,,,,181,25.5652,0.036332
,,,,,,,,,201,41.3592,0.0412592
,,,,,,,,,222,59.7481,0.0423063
,,,,,,,,,244,74.4813,0.0277232
,,,,,,,,,267,96.5763,0.0422007
,,,,,,,,,291,71.1554,0.0214526
,,,,,,,,,316,95.1299,0.0456652
,,,,,,,,,200,67.3508,0.0338734
,,,,,,,,,221,114.148,0.0381174
,,,,,,,,,243,33.0793,0.0390094
,,,,,,,,,266,119.65,0.0262684
,,,,,,,,,290,114.095,0.0389196
,,,,,,,,,315,57.7655,0.0205711
,,,,,,,,,341,64.5067,0.0418477
,,,,,,,,,242,48.2857,0.0381275
,,,,,,,,,265,36.6038,0.0390201
,,,,,,,,,289,71.5925,0.0262732
,,,,,,,,,314,87.9415,0.0389302
,,,,,,,,,340,46.6447,0.020574
,,,,,,,,,367,71.3233,0.0418599
,,,,,,,,,288,81.1949,0.0447609
,,,,,,,,,313,34.7108,0.0287566
,,,,,,,,,339,58.2893,0.0446427
,,,,,,,,,366,67.9375,0.0220662
,,,,,,,,,394,81.6692,0.0485383
,,,,,,,,,338,91.0218,0.0292614
,,,,,,,,,365,94.9625,0.0458712
,,,,,,,,,393,34.0936,0.0223623
,,,,,,,,,422,53.5461,0.0499941
,,,,,,,,,392,23.6958,0.0292108
,,,,,,,,,421,61.8928,0.0174972
,,,,,,,,,451,61.5252,0.0308298
,,,,,,,,,450,61.1035,0.0223327
,,,,,,,,,481,49.6507,0.0498466
,,,,,,,,,512,24.814,0.0232669
