"cellPairingIds","interplanarAngles","angleWeights"
13,74.3126,0.0813379
26,39.76,0.0693241
43,88.1389,0.0937926
64,107.265,0.0648977
62,64.7459,0.103333
87,96.0205,0.0693266
72,50.2784,0.0625271
85,79.9205,0.084688
114,127.035,0.0604044
130,50.187,0.0696155
98,39.2355,0.0817669
146,49.4454,0.0676295
183,72.7765,0.0362212
145,151.665,0.0781744
202,82.4218,0.0426928
200,115.911,0.0651531
243,95.9015,0.0354985
265,57.9385,0.0384916
