"cellPairingIds","interplanarAngles","angleWeights"
8,19.0035,0.0126713
13,44.6778,0.0169866
26,58.2663,0.015469
53,57.7175,0.0131623
76,76.0001,0.015472
89,76.8069,0.011034
134,122.587,0.00853926
18,43.8354,0.0387707
52,50.942,0.0376117
150,108.885,0.0119007
41,23.5822,0.0868052
62,53.7652,0.152921
149,70.6722,0.0554906
130,90.9927,0.0578608
165,56.3155,0.0387943
184,53.318,0.0420228
223,92.7459,0.0531466
245,82.6237,0.015438
201,28.5652,0.0183122
267,85.0219,0.0123327
242,27.6226,0.0231125
265,70.0842,0.0388135
340,84.3379,0.0507831
339,90.1118,0.010445
366,74.0544,0.0218876
338,34.1303,0.0309808
393,93.1671,0.035479
392,118.749,0.0131135
421,97.7379,0.0381601
450,44.9381,0.0138572
