"cellPairingIds","interplanarAngles","angleWeights"
8,43.0936,0.038567
13,30.3563,0.0476506
26,85.7751,0.0580207
34,67.7687,0.045159
18,56.4826,0.0267613
25,29.179,0.0360608
33,65.6772,0.0297472
63,69.6955,0.0328073
51,73.3355,0.0297774
74,102.145,0.039157
101,74.4444,0.039803
132,96.5203,0.0534776
50,45.1397,0.0525285
86,54.4905,0.0628863
72,101.081,0.0335214
99,83.0522,0.0458981
114,31.1209,0.0425983
147,51.8637,0.0584391
98,41.6297,0.0161489
129,102.165,0.0352313
146,79.8553,0.0380494
203,46.5667,0.010399
224,80.2769,0.0284565
163,39.3002,0.0187038
223,20.9231,0.00810724
245,51.2826,0.016045
201,47.7449,0.0715498
222,44.5039,0.0846526
221,36.7677,0.0638406
290,90.0602,0.0347406
265,53.0659,0.087731
314,50.3717,0.0374777
288,75.5509,0.140106
339,87.5683,0.0446001
365,66.131,0.0493628
392,35.0193,0.0103558
