facetNormals:0,facetNormals:1,facetNormals:2,FacetCenters:0,FacetCenters:1,FacetCenters:2,FacetIds,relFacetSize,absFacetSize,cellPairingIds,interplanarAngles,angleWeights
-0.0241995,-0.203406,-0.962494,3.68971,3.97082,6.00666,1,0.0138512,0.000914669,8,32.9472,0.00988654
0.490927,0.00280375,-0.870029,3.73337,3.98295,6.03315,2,0.00768644,0.000507578,13,30.5055,0.0120044
-0.500452,-0.31023,-0.789231,3.65297,3.97307,6.00679,3,0.0105921,0.000699456,19,54.956,0.0254512
0.476366,0.484204,-0.677528,3.73558,4.01411,6.04699,4,0.156606,0.0103415,26,52.0851,0.0221898
0.709387,-0.306612,-0.548375,3.76852,3.96601,6.07731,5,0.0557558,0.00368186,34,76.3166,0.0249997
-0.623556,0.598682,-0.335066,3.64313,4.01147,6.05661,6,0.128127,0.00846094,43,84.6648,0.00523345
0.591842,-0.794547,0.0586828,3.77921,3.96459,6.17048,7,0.00322621,0.000213044,53,100.528,0.0236906
0.0880436,0.965034,-0.0250758,3.70556,4.04868,6.09878,8,0.0817952,0.00540139,64,113.297,0.0223574
0.848016,0.390647,0.291654,3.79204,3.99349,6.13945,9,0.0579387,0.00382601,76,112.09,0.023802
-0.83596,0.373773,0.314267,3.64892,4.02403,6.11206,10,0.0845279,0.00558185,89,135.601,0.0255385
0.338021,0.731195,0.54913,3.74735,4.00683,6.16482,11,0.163477,0.0107953,103,162.116,0.0241291
-0.118541,0.442124,0.842303,3.71971,3.98789,6.18552,12,0.0935352,0.00617664,18,63.4228,0.00890833
,,,,,,,,,25,30.6302,0.0146537
,,,,,,,,,33,29.4281,0.0135104
,,,,,,,,,42,90.7996,0.0145028
,,,,,,,,,52,76.1543,0.00454483
,,,,,,,,,63,85.9885,0.0140524
,,,,,,,,,75,80.3583,0.0135723
,,,,,,,,,88,134.907,0.0140915
,,,,,,,,,102,108.546,0.0146825
,,,,,,,,,117,145.557,0.0142055
,,,,,,,,,32,81.1024,0.0198422
,,,,,,,,,41,79.3214,0.0178023
,,,,,,,,,51,64.6552,0.0195667
,,,,,,,,,62,95.638,0.00494595
,,,,,,,,,74,109.821,0.0187555
,,,,,,,,,87,143.652,0.01791
,,,,,,,,,101,86.7303,0.0188253
,,,,,,,,,116,149.767,0.0198952
,,,,,,,,,132,141.878,0.0190293
,,,,,,,,,50,51.8964,0.082234
,,,,,,,,,61,75.6888,0.140942
,,,,,,,,,73,98.61,0.00632218
,,,,,,,,,86,55.5412,0.107463
,,,,,,,,,100,65.073,0.0845841
,,,,,,,,,115,117.589,0.109794
,,,,,,,,,131,81.2044,0.159967
,,,,,,,,,148,116.688,0.117119
,,,,,,,,,72,120.219,0.0776997
,,,,,,,,,85,47.8378,0.00609948
,,,,,,,,,99,103.837,0.0663108
,,,,,,,,,114,69.6815,0.0568263
,,,,,,,,,130,163.571,0.0671913
,,,,,,,,,147,108.004,0.0831517
,,,,,,,,,165,138.613,0.0698653
,,,,,,,,,98,159.955,0.00629394
,,,,,,,,,113,53.7625,0.0998482
,,,,,,,,,129,115.656,0.0797945
,,,,,,,,,146,44.5408,0.101858
,,,,,,,,,164,87.2742,0.143659
,,,,,,,,,183,86.3628,0.108132
,,,,,,,,,128,138.104,0.00620758
,,,,,,,,,145,77.5908,0.00611208
,,,,,,,,,163,143.59,0.0062152
,,,,,,,,,182,111.123,0.00632754
,,,,,,,,,202,113.017,0.00623728
,,,,,,,,,162,62.0557,0.0678304
,,,,,,,,,181,72.691,0.0831391
,,,,,,,,,201,40.219,0.109035
,,,,,,,,,222,64.8382,0.0872721
,,,,,,,,,200,119.842,0.068752
,,,,,,,,,221,39.8194,0.0855552
,,,,,,,,,243,70.1862,0.0715543
,,,,,,,,,242,80.0367,0.111436
,,,,,,,,,265,55.2469,0.0888037
,,,,,,,,,288,37.0667,0.118989
