Q	U	V
{$V$}	{[mm$^3$]}	0.00337472
{$d_v$}	{[mm]}	0.186100
{$S_c$}	{[mm$^2$]}	0.20837
{$S_o$}	{[mm$^2$]}	0.120817
{$S_l/S_o$}	[]	0.724675
{$\Psi$}	[]	0.522165
{$\eta$}	[]	0.649374
{med($\theta_e$)}	{[$^\circ$]}	62.34655
{$\Upsilon$}	[]	15
{$\Xi$}	[]	7
