Q	U	V
{$V$}	{[mm$^3$]}	0.00147481
{$d_v$}	{[mm]}	0.141225
{$S_c$}	{[mm$^2$]}	0.133526
{$S_o$}	{[mm$^2$]}	0.0696819
{$S_l/S_o$}	[]	0.916222
{$\Psi$}	[]	0.469255
{$\eta$}	[]	0.505435
{med($\theta_e$)}	{[$^\circ$]}	68.9352
{$\Upsilon$}	[]	17
{$\Xi$}	[]	8
