facetNormals:0,facetNormals:1,facetNormals:2,FacetCenters:0,FacetCenters:1,FacetCenters:2,FacetIds,relFacetSize,absFacetSize,cellPairingIds,interplanarAngles,angleWeights
0.166239,0.408025,-0.839277,2.96056,4.71631,5.83043,1,0.028282,0.00678406,8,44.3766,0.0271886
0.765733,0.18859,-0.518564,2.93394,4.74911,5.88041,2,0.0261765,0.00627901,13,65.252,0.030076
-0.340909,-0.448851,-0.716916,2.94199,4.6356,5.77845,3,0.0321129,0.00770298,19,70.5106,0.0331431
0.52512,-0.594021,-0.547937,2.98217,4.65729,5.80833,4,0.0400219,0.00960012,26,63.8121,0.0127105
-0.790506,0.350476,-0.478868,2.8986,4.78546,5.87636,5,0.00819726,0.00196629,34,89.679,0.0368586
-0.933048,-0.0921719,-0.23574,2.92411,4.66292,5.82063,6,0.0529007,0.0126894,43,84.6258,0.0412344
-0.161765,0.904657,0.30533,2.93227,4.82669,5.97202,7,0.0760742,0.018248,53,99.7302,0.0203707
-0.707213,0.598986,0.33953,2.91042,4.82486,5.95434,8,0.0159179,0.00381826,64,128.669,0.0455503
-0.843128,-0.199764,0.413337,2.8651,4.73225,5.9434,9,0.116967,0.0280571,76,135.992,0.0449613
-0.204305,-0.874716,0.304835,2.94971,4.64967,5.85916,10,0.109594,0.0262886,89,120.295,0.0464986
0.701637,-0.457182,0.461474,3.03178,4.68193,5.89288,11,0.130652,0.0313398,103,155.542,0.0447166
0.197832,-0.561625,0.753393,2.97055,4.67839,5.93963,12,0.106747,0.0256055,18,88.2642,0.0288424
,,,,,,,,,25,50.857,0.0316513
,,,,,,,,,33,108.168,0.0124849
,,,,,,,,,42,131.919,0.0350229
,,,,,,,,,52,97.0128,0.0389505
,,,,,,,,,63,130.47,0.0197972
,,,,,,,,,75,172.163,0.0427793
,,,,,,,,,88,122.382,0.0422594
,,,,,,,,,102,76.4304,0.0436147
,,,,,,,,,117,112.381,0.0420432
,,,,,,,,,32,56.8642,0.0356338
,,,,,,,,,41,59.6489,0.0130606
,,,,,,,,,51,53.173,0.0399653
,,,,,,,,,62,130.181,0.0451618
,,,,,,,,,74,107.534,0.0212851
,,,,,,,,,87,84.7067,0.0503911
,,,,,,,,,101,73.6356,0.0496713
,,,,,,,,,116,114.733,0.0515543
,,,,,,,,,132,113.949,0.0493729
,,,,,,,,,50,112.263,0.0136075
,,,,,,,,,61,109.175,0.0455688
,,,,,,,,,73,147.785,0.0524502
,,,,,,,,,86,163.743,0.0227768
,,,,,,,,,100,126.517,0.0596379
,,,,,,,,,115,74.4366,0.0586323
,,,,,,,,,131,65.1572,0.0612741
,,,,,,,,,148,88.4713,0.0582169
,,,,,,,,,72,31.111,0.0141949
,,,,,,,,,85,71.8158,0.0147998
,,,,,,,,,99,51.5711,0.0108217
,,,,,,,,,114,65.1653,0.0153208
,,,,,,,,,130,108.083,0.0152536
,,,,,,,,,147,171.968,0.0154266
,,,,,,,,,165,138.782,0.0152253
,,,,,,,,,98,90.271,0.0624056
,,,,,,,,,113,56.6482,0.0244722
,,,,,,,,,129,40.3179,0.0728525
,,,,,,,,,146,77.4422,0.0713575
,,,,,,,,,164,141.288,0.0753091
,,,,,,,,,183,109.534,0.0707431
,,,,,,,,,128,37.3388,0.0263271
,,,,,,,,,145,84.9476,0.0921894
,,,,,,,,,163,136.397,0.0898084
,,,,,,,,,182,114.65,0.0961586
,,,,,,,,,202,109.475,0.0888374
,,,,,,,,,162,49.3751,0.0280223
,,,,,,,,,181,107.142,0.0277983
,,,,,,,,,201,130.535,0.0283784
,,,,,,,,,222,103.453,0.0277046
,,,,,,,,,200,58.7076,0.113161
,,,,,,,,,221,109.704,0.123432
,,,,,,,,,243,73.8258,0.111623
,,,,,,,,,242,64.0262,0.1192
,,,,,,,,,265,41.6635,0.108152
,,,,,,,,,288,35.9577,0.117496
