facetNormals:0,facetNormals:1,facetNormals:2,FacetCenters:0,FacetCenters:1,FacetCenters:2,FacetIds,relFacetSize,absFacetSize,cellPairingIds,interplanarAngles,angleWeights
-0.285883,0.4411,-0.810614,7.36174,5.56104,7.49917,1,0.0687685,0.0100682,8,55.991,0.0986626
-0.280298,-0.460585,-0.788601,7.38062,5.49191,7.52576,2,0.174533,0.0255529,13,95.2438,0.0413335
0.64025,-0.553534,-0.4239,7.47532,5.48732,7.51262,3,0.0295461,0.00432576,19,102.253,0.0402769
-0.268163,-0.928531,-0.162779,7.35215,5.45814,7.58229,4,0.028478,0.00416939,26,56.8582,0.0614833
0.283671,0.880644,-0.244367,7.45314,5.58142,7.5098,5,0.0555939,0.00813934,34,95.6821,0.0613327
0.850552,0.456273,0.0624523,7.51091,5.54166,7.55514,6,0.0553481,0.00810336,43,89.4256,0.0709622
-0.871753,-0.326268,0.118692,7.33456,5.43292,7.63407,7,0.0733005,0.0107317,53,82.192,0.0831559
-0.0605647,0.892063,0.35124,7.39725,5.57449,7.57835,8,0.105156,0.0153956,64,92.4425,0.050898
-0.300765,0.748712,0.563475,7.34453,5.53766,7.61232,9,0.0403996,0.00591479,76,122.074,0.0548283
-0.624272,-0.455816,0.586025,7.29614,5.47912,7.6032,10,0.0455872,0.0066743,89,115.097,0.0723124
-0.199346,0.46024,0.796618,7.36896,5.51996,7.64194,11,0.0762412,0.0111623,18,63.0535,0.050537
,,,,,,,,,25,47.6113,0.0489664
,,,,,,,,,33,108.655,0.0843271
,,,,,,,,,42,122.599,0.084044
,,,,,,,,,52,70.3779,0.103242
,,,,,,,,,63,136.975,0.13124
,,,,,,,,,75,138.571,0.0656118
,,,,,,,,,88,94.7799,0.0722921
,,,,,,,,,102,150.711,0.106124
,,,,,,,,,32,63.684,0.0290022
,,,,,,,,,41,102.902,0.0385854
,,,,,,,,,51,73.1408,0.0385261
,,,,,,,,,62,118.796,0.042116
,,,,,,,,,74,138.54,0.0461307
,,,,,,,,,87,155.23,0.0341308
,,,,,,,,,101,115.535,0.0358543
,,,,,,,,,116,143.911,0.0425879
,,,,,,,,,50,155.583,0.0376631
,,,,,,,,,61,134.287,0.0376065
,,,,,,,,,73,55.7643,0.0410196
,,,,,,,,,86,157.405,0.0448185
,,,,,,,,,100,137.074,0.0334071
,,,,,,,,,115,58.6047,0.0350565
,,,,,,,,,131,123.079,0.0414671
,,,,,,,,,72,47.2876,0.0554707
,,,,,,,,,85,128.88,0.063231
,,,,,,,,,99,42.0526,0.0727344
,,,,,,,,,114,62.3984,0.0467942
,,,,,,,,,130,141.033,0.0500957
,,,,,,,,,147,80.1507,0.0643007
,,,,,,,,,98,166.612,0.0630717
,,,,,,,,,113,66.0318,0.0725238
,,,,,,,,,129,82.6976,0.0467069
,,,,,,,,,146,138.47,0.0499957
,,,,,,,,,164,84.3151,0.064136
,,,,,,,,,128,102.595,0.086385
,,,,,,,,,145,84.7317,0.0520898
,,,,,,,,,163,33.1006,0.0562138
,,,,,,,,,182,82.3119,0.074742
,,,,,,,,,162,20.7578,0.058373
,,,,,,,,,181,100.073,0.0636018
,,,,,,,,,201,39.0336,0.0883941
,,,,,,,,,200,79.3334,0.0428369
,,,,,,,,,221,22.8996,0.0528137
,,,,,,,,,242,65.3045,0.0570577
