facetNormals:0,facetNormals:1,facetNormals:2,FacetCenters:0,FacetCenters:1,FacetCenters:2,FacetIds,relFacetSize,absFacetSize,cellPairingIds,interplanarAngles,angleWeights
0.0974111,-0.016876,-0.986839,3.33902,7.62659,5.41415,1,0.00572839,0.000539816,8,39.2148,0.00923109
-0.508132,-0.192637,-0.799762,3.35293,7.61354,5.35064,2,0.0237585,0.00223889,13,34.575,0.0100715
0.555953,0.262252,-0.75573,3.39901,7.64367,5.36652,3,0.0416479,0.0039247,19,57.5527,0.00969636
0.344114,0.757731,-0.503446,3.3917,7.65885,5.3875,4,0.0315518,0.00297329,26,54.3731,0.0108095
0.818538,-0.221918,-0.488313,3.41926,7.60868,5.38845,5,0.0956626,0.00901478,34,67.4695,0.00855432
0.89301,0.300334,-0.29746,3.43947,7.67463,5.40763,6,0.0168831,0.00159098,43,79.1487,0.00862901
-0.921565,0.167343,-0.278724,3.34333,7.62046,5.442,7,0.0174803,0.00164726,53,78.0386,0.00744918
-0.180406,-0.957353,-0.208968,3.36875,7.57756,5.3964,8,0.0106477,0.00100339,64,77.878,0.00827525
-0.448027,-0.849895,-0.238613,3.35822,7.59074,5.41906,9,0.0148997,0.00140407,76,87.2804,0.0102393
0.0888763,-0.96994,-0.021097,3.3955,7.57627,5.44588,10,0.0481753,0.0045398,89,78.1447,0.0107665
0.512277,-0.799137,-0.13369,3.41585,7.57903,5.42531,11,0.0893458,0.00841951,103,82.4716,0.00793983
0.862957,0.48572,-0.0537064,3.45692,7.67874,5.45084,12,0.0129324,0.00121868,118,84.7671,0.00693053
0.642533,0.762258,-0.0410696,3.30909,7.68596,5.54451,13,0.00877122,0.000826557,134,94.5085,0.0105464
-0.803532,-0.521998,0.00530925,3.33557,7.61086,5.44944,14,0.0663591,0.00625336,151,99.5884,0.00758784
0.703079,0.672829,0.225104,3.4504,7.67753,5.45469,15,0.0112346,0.0010587,169,114.583,0.0108154
0.767934,-0.127207,0.454934,3.42277,7.62531,5.48378,16,0.0965964,0.00910278,188,110.444,0.00901325
0.832846,0.326044,0.424117,3.44385,7.63404,5.48593,17,0.0211298,0.00199117,208,125.543,0.0101046
-0.347666,-0.727245,0.547363,3.38233,7.59223,5.50205,18,0.0428071,0.00403393,229,121.809,0.0100074
0.402677,0.705786,0.546388,3.41744,7.68289,5.48805,19,0.0395511,0.0037271,251,137.42,0.00752123
-0.30203,0.641171,0.69252,3.38093,7.65744,5.51306,20,0.0109475,0.00103164,274,147.374,0.00910801
-0.00612687,0.534554,0.815848,3.40423,7.6603,5.51772,21,0.0222134,0.00209328,18,73.2547,0.0302567
,,,,,,,,,25,85.0093,0.0271061
,,,,,,,,,33,88.9489,0.0380637
,,,,,,,,,42,106.65,0.0197393
,,,,,,,,,52,45.7827,0.0201415
,,,,,,,,,63,62.6094,0.0147051
,,,,,,,,,75,52.5369,0.0183141
,,,,,,,,,88,80.3098,0.031823
,,,,,,,,,102,89.9654,0.0375357
,,,,,,,,,117,120.669,0.0167482
,,,,,,,,,133,117.166,0.0128123
,,,,,,,,,150,57.0003,0.0349897
,,,,,,,,,168,133.671,0.0152554
,,,,,,,,,187,146.81,0.038137
,,,,,,,,,207,149.562,0.0223672
,,,,,,,,,228,97.3795,0.0305573
,,,,,,,,,250,145.21,0.0296851
,,,,,,,,,273,123.147,0.0149886
,,,,,,,,,297,142.913,0.02296
,,,,,,,,,32,35.5918,0.0359036
,,,,,,,,,41,36.5446,0.0580312
,,,,,,,,,51,33.7749,0.0240265
,,,,,,,,,62,105.713,0.0246251
,,,,,,,,,74,101.496,0.0169595
,,,,,,,,,87,107.603,0.0219475
,,,,,,,,,101,101.488,0.0446744
,,,,,,,,,116,79.1202,0.0568129
,,,,,,,,,132,47.8969,0.0197363
,,,,,,,,,149,52.7638,0.0144906
,,,,,,,,,167,129.015,0.0511766
,,,,,,,,,186,65.9069,0.0176958
,,,,,,,,,206,86.7517,0.0582018
,,,,,,,,,227,76.3224,0.0280358
,,,,,,,,,249,147.18,0.0422195
,,,,,,,,,272,90.2378,0.0405724
,,,,,,,,,296,122.815,0.0173377
,,,,,,,,,321,120.327,0.0289734
,,,,,,,,,50,67.8189,0.0474526
,,,,,,,,,61,44.567,0.0219962
,,,,,,,,,73,93.0154,0.0224969
,,,,,,,,,86,134.752,0.0159222
,,,,,,,,,100,134.764,0.020241
,,,,,,,,,115,137.065,0.0381305
,,,,,,,,,131,112.842,0.0466349
,,,,,,,,,148,44.1558,0.0183454
,,,,,,,,,166,32.4044,0.0137265
,,,,,,,,,185,136.381,0.0427685
,,,,,,,,,205,48.9169,0.0165694
,,,,,,,,,226,93.9997,0.0475667
,,,,,,,,,248,70.5791,0.0253099
,,,,,,,,,271,176.848,0.0363276
,,,,,,,,,295,65.2797,0.0351015
,,,,,,,,,320,88.0226,0.016255
,,,,,,,,,346,90.4708,0.0260716
,,,,,,,,,72,33.1443,0.0287009
,,,,,,,,,85,133.258,0.0295593
,,,,,,,,,99,80.1486,0.0191625
,,,,,,,,,114,93.6458,0.0257835
,,,,,,,,,130,71.7673,0.0640801
,,,,,,,,,147,45.1209,0.0923964
,,,,,,,,,165,49.9258,0.0227846
,,,,,,,,,184,67.2991,0.0160691
,,,,,,,,,204,125.495,0.0783609
,,,,,,,,,225,71.1225,0.0201078
,,,,,,,,,247,60.486,0.0961272
,,,,,,,,,270,65.4643,0.0346141
,,,,,,,,,294,114.174,0.0591471
,,,,,,,,,319,95.6192,0.0559642
,,,,,,,,,345,138.624,0.0196467
,,,,,,,,,372,123.154,0.0360547
,,,,,,,,,98,135.598,0.0171765
,,,,,,,,,113,113.116,0.0130593
,,,,,,,,,129,126.689,0.0158295
,,,,,,,,,146,102.337,0.0250037
,,,,,,,,,164,74.2409,0.0283997
,,,,,,,,,183,17.8825,0.014646
,,,,,,,,,203,34.2424,0.0115447
,,,,,,,,,224,157.7,0.0269178
,,,,,,,,,246,39.3643,0.0134915
,,,,,,,,,269,54.8967,0.0287426
,,,,,,,,,293,42.9781,0.0187693
,,,,,,,,,318,135.933,0.0242156
,,,,,,,,,344,64.9885,0.0236646
,,,,,,,,,371,106.811,0.0132824
,,,,,,,,,399,95.2159,0.0191849
,,,,,,,,,128,86.2139,0.0132342
,,,,,,,,,145,69.6024,0.0160872
,,,,,,,,,163,104.498,0.0256526
,,,,,,,,,182,127.368,0.0292399
,,,,,,,,,202,136.161,0.0148663
,,,,,,,,,223,117.692,0.0116811
,,,,,,,,,245,45.8977,0.0276714
,,,,,,,,,268,127.787,0.0136782
,,,,,,,,,292,166.244,0.0296035
,,,,,,,,,317,149.233,0.0191326
,,,,,,,,,343,87.2228,0.0248238
,,,,,,,,,370,115.058,0.0242451
,,,,,,,,,398,78.5268,0.0134633
,,,,,,,,,427,97.9781,0.0195647
,,,,,,,,,162,16.781,0.0124199
,,,,,,,,,181,19.1542,0.0174407
,,,,,,,,,201,42.8196,0.0190278
,,,,,,,,,222,128.083,0.0116794
,,,,,,,,,244,147.353,0.0096188
,,,,,,,,,267,47.6152,0.0183509
,,,,,,,,,291,145.28,0.0109333
,,,,,,,,,316,97.1509,0.0191811
,,,,,,,,,342,123.966,0.01416
,,,,,,,,,369,48.3981,0.0170536
,,,,,,,,,397,152.135,0.0167784
,,,,,,,,,426,135.488,0.0107955
,,,,,,,,,456,134.497,0.0143952
,,,,,,,,,200,35.0471,0.0227601
,,,,,,,,,221,59.5046,0.0255402
,,,,,,,,,243,143.25,0.0138465
,,,,,,,,,266,159.619,0.0110421
,,,,,,,,,290,32.2338,0.0243353
,,,,,,,,,315,162.027,0.0128102
,,,,,,,,,341,112.705,0.0258172
,,,,,,,,,368,140.072,0.0174761
,,,,,,,,,396,48.1735,0.0221053
,,,,,,,,,425,159.955,0.0216452
,,,,,,,,,455,125.875,0.0126215
,,,,,,,,,486,132.011,0.0178359
,,,,,,,,,242,28.1462,0.0625978
,,,,,,,,,265,114.021,0.0203909
,,,,,,,,,289,134.503,0.0148404
,,,,,,,,,314,62.2418,0.0558237
,,,,,,,,,340,127.684,0.0182202
,,,,,,,,,367,78.039,0.0642882
,,,,,,,,,395,105.097,0.0293755
,,,,,,,,,424,45.7026,0.0453328
,,,,,,,,,454,133.802,0.0434393
,,,,,,,,,485,133.404,0.0178408
,,,,,,,,,517,124.354,0.0304065
,,,,,,,,,288,86.3152,0.0225943
,,,,,,,,,313,106.678,0.0159742
,,,,,,,,,339,89.7002,0.0761557
,,,,,,,,,366,102.522,0.0199595
,,,,,,,,,394,59.8394,0.0928297
,,,,,,,,,423,83.3798,0.034177
,,,,,,,,,453,69.3171,0.0578819
,,,,,,,,,484,117.318,0.0548302
,,,,,,,,,516,143.108,0.0195051
,,,,,,,,,549,125.231,0.0355806
,,,,,,,,,338,20.488,0.0104529
,,,,,,,,,365,175.421,0.0216462
,,,,,,,,,393,21.5317,0.0120239
,,,,,,,,,422,49.8542,0.0228108
,,,,,,,,,452,29.5108,0.0160447
,,,,,,,,,483,134.949,0.0198637
,,,,,,,,,515,47.1061,0.0194915
,,,,,,,,,548,89.2072,0.0118575
,,,,,,,,,582,77.4287,0.0163474
,,,,,,,,,392,163.02,0.0154944
,,,,,,,,,421,16.5432,0.00985125
,,,,,,,,,451,65.1693,0.0160821
,,,,,,,,,482,39.121,0.0123965
,,,,,,,,,514,145.397,0.0145592
,,,,,,,,,547,37.581,0.0143582
,,,,,,,,,581,74.3791,0.00973927
,,,,,,,,,616,67.6538,0.0125765
,,,,,,,,,450,162.935,0.019216
,,,,,,,,,481,129.39,0.0786724
,,,,,,,,,513,151.96,0.0320533
,,,,,,,,,546,44.8518,0.0520425
,,,,,,,,,580,137.257,0.0495623
,,,,,,,,,615,95.3373,0.0187945
,,,,,,,,,651,106.777,0.0332848
,,,,,,,,,512,51.8139,0.0201282
,,,,,,,,,545,24.4006,0.0146695
,,,,,,,,,579,128.853,0.0177982
,,,,,,,,,614,25.7445,0.0174987
,,,,,,,,,650,67.7399,0.0110892
,,,,,,,,,687,56.4102,0.0149222
,,,,,,,,,578,27.5789,0.0346748
,,,,,,,,,613,85.1325,0.0593243
,,,,,,,,,649,57.9856,0.0561229
,,,,,,,,,686,89.9006,0.0196662
,,,,,,,,,724,70.1609,0.0361205
,,,,,,,,,648,107.78,0.0282937
,,,,,,,,,685,34.6641,0.0275443
,,,,,,,,,723,75.1602,0.0144226
,,,,,,,,,762,57.7502,0.0216581
,,,,,,,,,722,111.793,0.0411147
,,,,,,,,,761,88.945,0.017436
,,,,,,,,,801,86.3838,0.0292489
,,,,,,,,,800,43.029,0.0171485
,,,,,,,,,841,30.7777,0.0284488
,,,,,,,,,882,19.7662,0.0146668
