facetNormals:0,facetNormals:1,facetNormals:2,FacetCenters:0,FacetCenters:1,FacetCenters:2,FacetIds,relFacetSize,absFacetSize,cellPairingIds,interplanarAngles,angleWeights
0.05676,-0.396793,-0.861675,4.42058,7.47203,9.15915,1,0.130732,0.0251261,8,45.3348,0.0705718
-0.119774,0.321925,-0.910874,4.42376,7.54737,9.12927,2,0.0483309,0.00928898,13,42.6212,0.0414424
-0.500366,0.0370355,-0.853517,4.42762,7.56005,9.11812,3,0.0246242,0.00473265,19,39.8542,0.0956496
-0.566046,-0.381229,-0.673612,4.36899,7.50435,9.15026,4,0.0754124,0.0144939,26,78.141,0.0594903
-0.449242,0.648087,-0.545333,4.37969,7.58917,9.16145,5,0.0385064,0.00740076,34,48.997,0.0314978
-0.412261,-0.820967,-0.364199,4.38541,7.51546,9.15617,6,0.017906,0.00344145,43,65.0252,0.0693633
0.893464,-0.214266,-0.291323,4.50868,7.4997,9.16852,7,0.0472044,0.00907247,53,90.1135,0.0316426
-0.888239,0.370011,-0.226736,4.33089,7.54881,9.20378,8,0.0179996,0.00345945,64,104.84,0.0546474
0.502449,0.830265,-0.0742914,4.46162,7.61764,9.17573,9,0.0345435,0.00663909,76,63.2457,0.0838942
0.36402,-0.901744,-0.0440815,4.44729,7.39481,9.2175,10,0.0617654,0.011871,89,92.769,0.0806506
0.880076,0.227394,0.00168928,4.47642,7.53128,9.15979,11,0.0583121,0.0112073,103,111.834,0.052831
-0.915312,0.0313369,0.323731,4.31871,7.4879,9.23216,12,0.0331045,0.00636254,118,88.0482,0.0642366
-0.688224,-0.61962,0.204372,4.35327,7.40619,9.24085,13,0.0425792,0.00818351,134,117.166,0.0658107
-0.657909,0.692098,0.122753,4.35391,7.61586,9.2088,14,0.0439735,0.0084515,151,141.903,0.0620887
0.468188,0.577872,0.587212,4.41555,7.53,9.20069,15,0.040712,0.00782466,169,144.732,0.0412635
-0.0786,0.850228,0.489604,4.37776,7.61687,9.23134,16,0.024498,0.00470839,188,150.891,0.0315265
-0.450615,0.593976,0.649769,4.34691,7.60878,9.1937,17,0.0179245,0.00344501,18,28.2141,0.0326258
,,,,,,,,,25,53.2406,0.0589082
,,,,,,,,,33,35.5712,0.0428629
,,,,,,,,,42,83.0248,0.0261309
,,,,,,,,,52,84.5348,0.047761
,,,,,,,,,63,63.3251,0.0262304
,,,,,,,,,75,73.1421,0.0402903
,,,,,,,,,88,108.058,0.0542285
,,,,,,,,,102,92.1856,0.0528544
,,,,,,,,,117,100.675,0.0392943
,,,,,,,,,133,109.173,0.0452731
,,,,,,,,,150,78.3167,0.0460494
,,,,,,,,,168,116.037,0.0441955
,,,,,,,,,187,99.7851,0.0325148
,,,,,,,,,207,111.105,0.0261506
,,,,,,,,,32,27.245,0.0371258
,,,,,,,,,41,41.1982,0.030039
,,,,,,,,,51,60.1673,0.0207345
,,,,,,,,,62,102.487,0.0323651
,,,,,,,,,74,48.2551,0.0207971
,,,,,,,,,87,99.3918,0.0287523
,,,,,,,,,101,100.638,0.0352108
,,,,,,,,,116,118.787,0.0346263
,,,,,,,,,132,79.0404,0.0282415
,,,,,,,,,149,80.9937,0.0312031
,,,,,,,,,167,74.7915,0.0315699
,,,,,,,,,186,139.562,0.0306874
,,,,,,,,,206,110.864,0.0245609
,,,,,,,,,227,108.28,0.0207469
,,,,,,,,,50,65.9572,0.0509813
,,,,,,,,,61,33.3393,0.0289404
,,,,,,,,,73,104.27,0.0580638
,,,,,,,,,86,57.1321,0.0290626
,,,,,,,,,100,126.175,0.0473827
,,,,,,,,,115,79.6681,0.06791
,,,,,,,,,131,132.245,0.0657689
,,,,,,,,,148,71.9834,0.0460111
,,,,,,,,,166,57.5363,0.0544276
,,,,,,,,,185,88.3942,0.0555534
,,,,,,,,,205,165.793,0.0528776
,,,,,,,,,226,130.22,0.0369821
,,,,,,,,,248,115.553,0.0289645
,,,,,,,,,72,99.0016,0.0244448
,,,,,,,,,85,114.374,0.0424141
,,,,,,,,,99,36.4413,0.024532
,,,,,,,,,114,67.7808,0.0364175
,,,,,,,,,130,140.863,0.0474384
,,,,,,,,,147,106.596,0.0463835
,,,,,,,,,165,74.1115,0.0356018
,,,,,,,,,184,102.955,0.0404405
,,,,,,,,,204,42.8108,0.0410588
,,,,,,,,,225,99.8899,0.0395785
,,,,,,,,,247,70.2209,0.0299449
,,,,,,,,,270,75.7722,0.0244621
,,,,,,,,,98,95.2003,0.0259634
,,,,,,,,,113,81.4647,0.0179527
,,,,,,,,,129,153.623,0.023586
,,,,,,,,,146,50.9317,0.0277633
,,,,,,,,,164,127.764,0.0273987
,,,,,,,,,183,75.9085,0.0232411
,,,,,,,,,203,39.9936,0.0252102
,,,,,,,,,224,111.046,0.0254491
,,,,,,,,,246,160.238,0.0248725
,,,,,,,,,269,150.184,0.0206896
,,,,,,,,,293,123.436,0.0179153
,,,,,,,,,128,147.86,0.0260617
,,,,,,,,,145,71.8224,0.0398935
,,,,,,,,,163,55.5114,0.053512
,,,,,,,,,182,32.7222,0.0521736
,,,,,,,,,202,168.915,0.0389167
,,,,,,,,,223,126.341,0.0447727
,,,,,,,,,245,146.281,0.0455317
,,,,,,,,,268,82.234,0.0437185
,,,,,,,,,292,114.607,0.0322559
,,,,,,,,,317,138.977,0.0259828
,,,,,,,,,162,97.299,0.023667
,,,,,,,,,181,132.247,0.0278757
,,,,,,,,,201,140.962,0.0275081
,,,,,,,,,222,38.5304,0.0233198
,,,,,,,,,244,69.0177,0.0253029
,,,,,,,,,267,31.3709,0.0255436
,,,,,,,,,291,110.966,0.0249627
,,,,,,,,,316,73.6814,0.020752
,,,,,,,,,342,61.0857,0.017962
,,,,,,,,,200,126.42,0.0443072
,,,,,,,,,221,44.5143,0.0433857
,,,,,,,,,243,118.97,0.0338087
,,,,,,,,,266,161.521,0.0381427
,,,,,,,,,290,75.4799,0.0386922
,,,,,,,,,315,43.2841,0.0373749
,,,,,,,,,341,48.8768,0.0286661
,,,,,,,,,368,76.8812,0.023602
,,,,,,,,,242,82.5167,0.0599891
,,,,,,,,,265,113.412,0.0431056
,,,,,,,,,289,71.0885,0.0504083
,,,,,,,,,314,158.007,0.0513726
,,,,,,,,,340,114.092,0.0490761
,,,,,,,,,367,148.494,0.0350815
,,,,,,,,,395,139.157,0.0277856
,,,,,,,,,288,154.639,0.0422329
,,,,,,,,,313,149.961,0.0492189
,,,,,,,,,339,118.787,0.0501378
,,,,,,,,,366,50.7968,0.047948
,,,,,,,,,394,81.9693,0.0345013
,,,,,,,,,423,106.839,0.0274203
,,,,,,,,,338,42.7292,0.0372488
,,,,,,,,,365,44.7981,0.0377727
,,,,,,,,,393,103.849,0.0365163
,,,,,,,,,422,74.4016,0.0281583
,,,,,,,,,452,48.1118,0.0232567
,,,,,,,,,392,86.9212,0.0432651
,,,,,,,,,421,128.569,0.0416247
,,,,,,,,,451,113.531,0.0311016
,,,,,,,,,482,85.4207,0.0252286
,,,,,,,,,450,79.6441,0.04228
,,,,,,,,,481,42.3567,0.031466
,,,,,,,,,513,34.2198,0.0254678
,,,,,,,,,512,37.2907,0.0305892
,,,,,,,,,545,56.7509,0.0248904
,,,,,,,,,578,28.1133,0.0207019
