facetNormals:0,facetNormals:1,facetNormals:2,FacetCenters:0,FacetCenters:1,FacetCenters:2,FacetIds,relFacetSize,absFacetSize,cellPairingIds,interplanarAngles,angleWeights
-0.101169,0.558019,-0.811215,5.09109,3.50189,7.22009,1,0.0066044,0.000977127,8,50.3007,0.0124587
-0.642793,-0.0555642,-0.700014,5.04899,3.41926,7.14405,2,0.10969,0.0162287,13,91.1518,0.0114003
0.579394,-0.63042,-0.481816,5.11298,3.37095,7.16059,3,0.0416318,0.00615945,19,47.1663,0.0113218
-0.7496,0.52337,-0.362253,5.03953,3.47983,7.17615,4,0.0396257,0.00586266,26,114.881,0.0101522
0.380999,-0.902266,-0.158817,5.12063,3.36574,7.16797,5,0.0219356,0.00324539,34,51.9063,0.0115927
-0.300606,0.900955,-0.0591032,5.07844,3.51117,7.24416,6,0.0473749,0.00700915,43,113.105,0.0114324
-0.141112,-0.954761,-0.169942,5.08505,3.34421,7.18255,7,0.0425051,0.00628866,53,89.5634,0.0118545
-0.959821,-0.0995144,0.0422669,5.05995,3.44661,7.25868,8,0.0578117,0.00855329,64,90.3286,0.012179
-0.841495,0.353256,0.354796,5.02382,3.45202,7.25698,9,0.0781093,0.0115563,76,138.024,0.0106969
0.613025,-0.690086,0.341631,5.12123,3.36851,7.24307,10,0.0281254,0.00416117,89,128.375,0.010078
-0.654303,-0.634542,0.398664,5.14325,3.39373,7.30815,11,0.0212597,0.0031454,103,100.102,0.0109549
0.717772,0.469985,0.440136,5.1173,3.48639,7.27794,12,0.0320999,0.00474921,118,153.143,0.0122488
-0.143242,-0.79904,0.514238,5.07492,3.3611,7.26209,13,0.0842709,0.0124679,134,130.101,0.0121629
-0.643096,-0.223955,0.685615,5.11168,3.45341,7.33748,14,0.0768027,0.011363,151,134.288,0.00958513
0.668804,-0.043064,0.733404,5.06976,3.42685,7.14807,15,0.0174696,0.00258464,169,117.027,0.00818105
0.374748,0.437567,0.80155,5.14209,3.48985,7.33239,16,0.0107465,0.00158996,188,107.574,0.0112366
-0.358135,0.513297,0.760639,5.08435,3.49068,7.31294,17,0.0376283,0.00556714,208,167.958,0.0109815
0.130803,-0.366691,0.883069,5.11165,3.42219,7.32056,18,0.0325632,0.00481775,18,90.0076,0.0603559
,,,,,,,,,25,41.0187,0.0582195
,,,,,,,,,33,95.0774,0.03656
,,,,,,,,,42,78.2465,0.0661707
,,,,,,,,,52,73.644,0.0612684
,,,,,,,,,63,49.8492,0.075717
,,,,,,,,,75,72.9758,0.0912441
,,,,,,,,,88,129.409,0.044771
,,,,,,,,,102,79.2428,0.0356164
,,,,,,,,,117,150.076,0.0496656
,,,,,,,,,133,104.141,0.0953147
,,,,,,,,,150,93.3726,0.0903464
,,,,,,,,,168,174.166,0.0301391
,,,,,,,,,187,151.558,0.0195753
,,,,,,,,,207,110.654,0.0560344
,,,,,,,,,228,137.916,0.0502183
,,,,,,,,,32,127.617,0.040604
,,,,,,,,,41,27.3216,0.0287323
,,,,,,,,,51,139.758,0.044318
,,,,,,,,,62,51.2977,0.0420639
,,,,,,,,,74,122.777,0.0484055
,,,,,,,,,87,156.347,0.0543143
,,,,,,,,,101,49.6862,0.033571
,,,,,,,,,116,100.085,0.0281463
,,,,,,,,,132,95.602,0.0362497
,,,,,,,,,149,79.4433,0.0557311
,,,,,,,,,167,126.278,0.053995
,,,,,,,,,186,86.4003,0.0246116
,,,,,,,,,206,117.308,0.0170833
,,,,,,,,,227,158.042,0.0395289
,,,,,,,,,249,97.1807,0.0365433
,,,,,,,,,50,135.866,0.028239
,,,,,,,,,61,39.8656,0.0431552
,,,,,,,,,73,110.174,0.0410149
,,,,,,,,,86,46.6446,0.0470216
,,,,,,,,,100,44.4703,0.052578
,,,,,,,,,115,167.366,0.0328995
,,,,,,,,,131,89.1831,0.0276727
,,,,,,,,,148,118.434,0.035468
,,,,,,,,,166,121.739,0.0539046
,,,,,,,,,185,82.9588,0.0522787
,,,,,,,,,205,143.915,0.0242487
,,,,,,,,,226,110.646,0.0169077
,,,,,,,,,248,74.3347,0.0386012
,,,,,,,,,271,129.986,0.035749
,,,,,,,,,72,166.483,0.0299867
,,,,,,,,,85,30.8605,0.0289375
,,,,,,,,,99,107.151,0.0318038
,,,,,,,,,114,135.731,0.0342521
,,,,,,,,,130,34.796,0.0246478
,,,,,,,,,147,74.7325,0.0215924
,,,,,,,,,165,103.324,0.0260618
,,,,,,,,,184,52.1756,0.0348102
,,,,,,,,,204,99.112,0.0341248
,,,,,,,,,225,79.6446,0.0194495
,,,,,,,,,247,112.786,0.0144257
,,,,,,,,,270,137.482,0.0277148
,,,,,,,,,294,75.4574,0.0262132
,,,,,,,,,98,150.013,0.044808
,,,,,,,,,113,77.6641,0.0520755
,,,,,,,,,129,53.8054,0.0589782
,,,,,,,,,146,151.898,0.0352962
,,,,,,,,,164,114.898,0.029349
,,,,,,,,,183,78.582,0.0382695
,,,,,,,,,203,140.659,0.0606525
,,,,,,,,,224,93.053,0.0586018
,,,,,,,,,246,107.43,0.0255263
,,,,,,,,,269,75.5625,0.0175191
,,,,,,,,,293,55.9277,0.0419428
,,,,,,,,,318,117.347,0.0385968
,,,,,,,,,128,76.3566,0.0489906
,,,,,,,,,145,106.892,0.0550522
,,,,,,,,,163,57.7771,0.0338514
,,,,,,,,,182,49.7115,0.0283431
,,,,,,,,,202,131.391,0.0365769
,,,,,,,,,223,42.3727,0.0565082
,,,,,,,,,245,78.5458,0.0547241
,,,,,,,,,268,100.528,0.024762
,,,,,,,,,292,128.855,0.0171556
,,,,,,,,,317,126.103,0.0399183
,,,,,,,,,343,78.9312,0.0368758
,,,,,,,,,162,33.6253,0.0664449
,,,,,,,,,181,122.107,0.0378411
,,,,,,,,,201,42.5387,0.0310874
,,,,,,,,,222,140.348,0.0412795
,,,,,,,,,244,75.0953,0.0685776
,,,,,,,,,267,44.2547,0.0659676
,,,,,,,,,291,129.211,0.0268313
,,,,,,,,,316,112.792,0.018124
,,,,,,,,,342,70.0383,0.0455859
,,,,,,,,,369,93.1813,0.0416606
,,,,,,,,,200,131.486,0.0413585
,,,,,,,,,221,61.294,0.0334225
,,,,,,,,,243,107.366,0.0455008
,,,,,,,,,266,88.7381,0.0810732
,,,,,,,,,290,41.8066,0.0774505
,,,,,,,,,315,109.068,0.0285531
,,,,,,,,,341,82.6524,0.0188936
,,,,,,,,,368,38.7172,0.0507894
,,,,,,,,,396,85.5267,0.0459642
,,,,,,,,,242,79.8246,0.0242153
,,,,,,,,,265,73.7204,0.0299815
,,,,,,,,,289,47.4755,0.0421749
,,,,,,,,,314,90.3288,0.041173
,,,,,,,,,340,45.097,0.0215523
,,,,,,,,,367,78.0236,0.0155511
,,,,,,,,,395,108.891,0.0321901
,,,,,,,,,424,48.0544,0.030182
,,,,,,,,,288,128.137,0.0255787
,,,,,,,,,313,32.557,0.0339537
,,,,,,,,,339,29.5588,0.0333013
,,,,,,,,,366,96.8506,0.0191792
,,,,,,,,,394,101.948,0.0142765
,,,,,,,,,423,77.5144,0.0271691
,,,,,,,,,453,58.675,0.0257245
,,,,,,,,,338,105.782,0.0464909
,,,,,,,,,365,106.528,0.0452764
,,,,,,,,,393,35.2219,0.0226257
,,,,,,,,,422,29.623,0.0161023
,,,,,,,,,452,70.3781,0.034645
,,,,,,,,,483,70.5275,0.0323299
,,,,,,,,,392,47.81,0.0803637
,,,,,,,,,421,70.6866,0.0289398
,,,,,,,,,451,89.464,0.0190622
,,,,,,,,,482,88.0442,0.0520261
,,,,,,,,,514,38.2427,0.0469748
,,,,,,,,,450,85.0779,0.0284646
,,,,,,,,,481,77.2473,0.0188548
,,,,,,,,,513,48.0052,0.05051
,,,,,,,,,546,49.679,0.0457353
,,,,,,,,,512,33.3018,0.0133071
,,,,,,,,,545,72.3804,0.0238612
,,,,,,,,,579,38.4471,0.0227397
,,,,,,,,,578,43.946,0.0167184
,,,,,,,,,613,51.2415,0.01616
,,,,,,,,,648,62.6581,0.034913
