Q	U	V
{$V$}	{[mm$^3$]}	0.00407057
{$d_v$}	{[mm]}	0.198100
{$S_c$}	{[mm$^2$]}	0.195171
{$S_o$}	{[mm$^2$]}	0.118079
{$S_l/S_o$}	[]	0.652885
{$\Psi$}	[]	0.631692
{$\eta$}	[]	0.657787
{med($\theta_e$)}	{[$^\circ$]}	55.431
{$\Upsilon$}	[]	16
{$\Xi$}	[]	9
