Q	U	V
{$V$}	{[mm$^3$]}	0.00952926
{$d_v$}	{[mm]}	0.263039
{$S_c$}	{[mm$^2$]}	0.411532
{$S_o$}	{[mm$^2$]}	0.242669
{$S_l/S_o$}	[]	0.695857
{$\Psi$}	[]	0.528186
{$\eta$}	[]	0.533737
{med($\theta_e$)}	{[$^\circ$]}	99.6091
{$\Upsilon$}	[]	10
{$\Xi$}	[]	13
