facetNormals:0,facetNormals:1,facetNormals:2,FacetCenters:0,FacetCenters:1,FacetCenters:2,FacetIds,relFacetSize,absFacetSize,cellPairingIds,interplanarAngles,angleWeights
-0.191086,0.507322,-0.780853,3.25754,4.16208,8.66289,1,0.0254429,0.00346877,8,78.0253,0.0149996
0.616896,-0.375716,-0.638583,3.31276,4.11363,8.80873,2,0.0106345,0.00144986,13,40.5299,0.0199491
-0.678827,0.0536841,-0.707788,3.26418,4.11066,8.68997,3,0.0164065,0.00223679,19,73.2001,0.0392618
-0.943388,-0.0526392,-0.139393,3.25439,4.12103,8.80304,4,0.0859376,0.0117163,26,98.0098,0.025244
-0.107136,-0.884039,-0.383663,3.29858,4.14741,8.75282,5,0.0250483,0.00341497,34,48.2625,0.0293107
-0.36157,0.909586,-0.119731,3.23445,4.1883,8.74019,6,0.0345652,0.00471246,43,62.0732,0.0445955
0.386298,0.860106,-0.074995,3.28817,4.17273,8.76015,7,0.18038,0.0245921,53,109.794,0.0185466
-0.463958,-0.86784,-0.0442144,3.30609,4.17532,8.74489,8,0.0145915,0.00198934,64,57.985,0.0359139
-0.716398,0.676299,-0.0212663,3.22757,4.17414,8.76489,9,0.0610313,0.00832073,76,126.565,0.0243956
0.484389,-0.816091,0.0401165,3.31654,4.1318,8.78391,10,0.0234312,0.0031945,89,110.934,0.0410503
0.90068,0.134366,0.281471,3.33202,4.10194,8.87382,11,0.106191,0.0144775,103,106.137,0.0295795
-0.839758,-0.0588873,0.49821,3.2436,4.1013,8.87036,12,0.0353225,0.00481571,118,113.674,0.0428701
-0.44147,0.309547,0.76773,3.25644,4.1297,8.88536,13,0.136077,0.0185521,18,89.2106,0.0129045
,,,,,,,,,25,120.922,0.0189269
,,,,,,,,,33,56.8606,0.0149303
,,,,,,,,,42,120.907,0.0162649
,,,,,,,,,52,92.3228,0.0200849
,,,,,,,,,63,85.8892,0.0123027
,,,,,,,,,75,135.917,0.0181129
,,,,,,,,,88,50.7176,0.0146294
,,,,,,,,,102,69.2617,0.019333
,,,,,,,,,117,149.676,0.0163474
,,,,,,,,,133,166.341,0.0197274
,,,,,,,,,32,38.2928,0.0275529
,,,,,,,,,41,71.84,0.0198267
,,,,,,,,,51,66.9624,0.0222514
,,,,,,,,,62,100.104,0.0300774
,,,,,,,,,74,71.9577,0.0154459
,,,,,,,,,87,56.2528,0.0258611
,,,,,,,,,101,115.458,0.0192995
,,,,,,,,,116,149.116,0.0284219
,,,,,,,,,132,77.1138,0.022406
,,,,,,,,,149,104.268,0.0292825
,,,,,,,,,50,77.4592,0.0387903
,,,,,,,,,61,70.7885,0.0493009
,,,,,,,,,73,116.229,0.116413
,,,,,,,,,86,58.6455,0.0249472
,,,,,,,,,100,46.8887,0.0713741
,,,,,,,,,115,117.55,0.0368226
,,,,,,,,,131,169.816,0.0949966
,,,,,,,,,148,39.0182,0.0500664
,,,,,,,,,166,70.9016,0.105346
,,,,,,,,,72,138.8,0.0290471
,,,,,,,,,85,147.439,0.0439882
,,,,,,,,,99,29.1885,0.0184407
,,,,,,,,,114,122.469,0.035519
,,,,,,,,,130,44.744,0.0242128
,,,,,,,,,147,110.474,0.0405351
,,,,,,,,,165,92.9684,0.0293111
,,,,,,,,,184,124.934,0.0423086
,,,,,,,,,98,45.6807,0.0580136
,,,,,,,,,113,129.382,0.0205204
,,,,,,,,,129,25.5478,0.0441346
,,,,,,,,,146,169.931,0.0279295
,,,,,,,,,164,104.614,0.0521541
,,,,,,,,,183,78.6149,0.0349397
,,,,,,,,,203,67.8192,0.0551274
,,,,,,,,,128,171.862,0.026999
,,,,,,,,,145,70.799,0.0912038
,,,,,,,,,163,125.194,0.0414748
,,,,,,,,,182,60.6131,0.133682
,,,,,,,,,202,116.471,0.0590765
,,,,,,,,,223,87.5373,0.155127
,,,,,,,,,162,105.144,0.0235521
,,,,,,,,,181,59.0133,0.0179838
,,,,,,,,,201,125.627,0.0256575
,,,,,,,,,222,64.246,0.0206519
,,,,,,,,,244,96.0723,0.0263568
,,,,,,,,,200,164.007,0.033862
,,,,,,,,,221,126.627,0.0775132
,,,,,,,,,243,55.1242,0.0447471
,,,,,,,,,266,56.5716,0.0842679
,,,,,,,,,242,68.0847,0.0383913
,,,,,,,,,265,111.38,0.0281735
,,,,,,,,,289,119.268,0.0399785
,,,,,,,,,288,132.013,0.0530116
,,,,,,,,,313,99.0034,0.11929
,,,,,,,,,338,36.7832,0.0560863
