facetNormals:0,facetNormals:1,facetNormals:2,FacetCenters:0,FacetCenters:1,FacetCenters:2,FacetIds,relFacetSize,absFacetSize,cellPairingIds,interplanarAngles,angleWeights
-0.601142,0.308925,-0.710976,6.18971,6.87622,8.18564,1,0.166296,0.0109448,8,53.0519,0.0406287
-0.739611,-0.494281,-0.397485,6.17731,6.79236,8.18326,2,0.0231412,0.00152304,13,102.456,0.0154743
0.853837,0.374454,-0.270346,6.24071,6.86258,8.20551,3,0.00811468,0.000534068,19,62.6494,0.0979263
0.132362,0.885397,-0.33259,6.25547,6.94623,8.19866,4,0.0693955,0.00456727,26,134.158,0.0391246
0.879984,-0.39466,0.0115366,6.24292,6.86664,8.21656,5,0.0221703,0.00145914,34,88.2823,0.141966
-0.709155,-0.612563,0.292835,6.18129,6.79883,8.24019,6,0.123846,0.00815095,43,76.1201,0.0924944
-0.473403,0.759728,0.405163,6.19566,6.93129,8.25703,7,0.0640633,0.00421633,53,127.608,0.0287781
0.721731,0.511492,0.446266,6.26351,6.93521,8.24216,8,0.015752,0.00103672,64,155.177,0.078584
0.700187,0.0930538,0.653168,6.24085,6.8918,8.26165,9,0.051448,0.00338605,76,87.2589,0.115474
-0.753821,0.0989487,0.615805,6.17295,6.87117,8.27302,10,0.0884439,0.00582094,89,115.76,0.0407316
0.268516,0.677865,0.655355,6.24665,6.9388,8.26378,11,0.0232081,0.00152744,103,166.897,0.0627404
0.418762,-0.284118,0.837995,6.20295,6.86081,8.24134,12,0.0386638,0.00254466,18,138.569,0.0120159
,,,,,,,,,25,115.687,0.0347083
,,,,,,,,,33,119.332,0.0226454
,,,,,,,,,42,41.9999,0.0389959
,,,,,,,,,52,101.229,0.0340006
,,,,,,,,,63,176.956,0.0187447
,,,,,,,,,75,151.463,0.0319234
,,,,,,,,,88,73.9317,0.0366841
,,,,,,,,,102,146.243,0.0231746
,,,,,,,,,117,121.783,0.0289532
,,,,,,,,,32,54.7945,0.0145303
,,,,,,,,,41,50.1092,0.0118808
,,,,,,,,,51,163.551,0.0152314
,,,,,,,,,62,103.908,0.0144048
,,,,,,,,,74,44.405,0.0107114
,,,,,,,,,87,60.7654,0.0140183
,,,,,,,,,101,144.484,0.0148655
,,,,,,,,,116,71.2486,0.0120249
,,,,,,,,,132,88.5156,0.013414
,,,,,,,,,50,104.896,0.0336047
,,,,,,,,,61,141.484,0.0889495
,,,,,,,,,73,59.572,0.0666229
,,,,,,,,,86,64.9942,0.0256759
,,,,,,,,,100,92.6306,0.059089
,,,,,,,,,115,103.428,0.0777703
,,,,,,,,,131,63.4999,0.0347834
,,,,,,,,,148,120.524,0.0496596
,,,,,,,,,72,113.588,0.0376083
,,,,,,,,,85,138.68,0.0329409
,,,,,,,,,99,62.6933,0.018418
,,,,,,,,,114,50.7599,0.0309874
,,,,,,,,,130,137.46,0.0354535
,,,,,,,,,147,91.4348,0.0226773
,,,,,,,,,165,58.7157,0.0281812
,,,,,,,,,98,90.6545,0.0844449
,,,,,,,,,113,135.555,0.0279492
,,,,,,,,,129,112.554,0.0726965
,,,,,,,,,146,47.066,0.103193
,,,,,,,,,164,115.459,0.0390907
,,,,,,,,,183,82.6793,0.0589301
,,,,,,,,,128,76.4716,0.0252865
,,,,,,,,,145,89.7658,0.0570668
,,,,,,,,,163,44.8512,0.0743048
,,,,,,,,,182,47.2878,0.0340727
,,,,,,,,,202,94.4464,0.0482235
,,,,,,,,,162,27.6387,0.0241193
,,,,,,,,,181,103.034,0.0267413
,,,,,,,,,201,30.9552,0.0187666
,,,,,,,,,222,56.8154,0.0223844
,,,,,,,,,200,97.1026,0.065054
,,,,,,,,,221,43.9389,0.0319869
,,,,,,,,,243,30.1809,0.044149
,,,,,,,,,242,73.7607,0.036768
,,,,,,,,,265,79.6391,0.053806
,,,,,,,,,288,60.743,0.0290055
