facetNormals:0,facetNormals:1,facetNormals:2,FacetCenters:0,FacetCenters:1,FacetCenters:2,FacetIds,relFacetSize,absFacetSize,cellPairingIds,interplanarAngles,angleWeights
-0.302794,0.166595,-0.904417,3.61446,5.5512,9.24249,1,0.0673007,0.00585293,8,30.6695,0.091193
0.209186,0.158352,-0.935419,3.67755,5.56453,9.24413,2,0.141387,0.0122959,13,71.7766,0.06148
-0.0153318,-0.85176,-0.47894,3.60708,5.49332,9.2592,3,0.056586,0.0049211,19,66.2383,0.0213245
0.542979,0.67159,-0.485417,3.73992,5.60272,9.27607,4,0.0126694,0.00110182,26,92.9752,0.0552069
0.350846,-0.888194,-0.226534,3.65492,5.49398,9.27699,5,0.0467975,0.00406983,34,98.547,0.0548256
0.764554,-0.547639,-0.203746,3.73196,5.53025,9.29822,6,0.0462521,0.0040224,43,73.4193,0.0129788
-0.896517,-0.415804,-0.0793149,3.70751,5.50166,9.22534,7,0.00718191,0.000624588,53,67.6268,0.0695164
-0.632385,0.732873,-0.0482128,3.62792,5.59967,9.28104,8,0.0718831,0.00625144,64,101.758,0.00788817
-0.58639,-0.751888,0.274268,3.69651,5.50767,9.2793,9,0.00418961,0.000364358,76,121.646,0.0385228
0.933312,0.116982,0.256711,3.74635,5.56576,9.32976,10,0.0269842,0.00234673,89,102.175,0.093425
0.224842,0.88266,0.304119,3.70061,5.60075,9.32596,11,0.152698,0.0132797,103,127.186,0.0683785
0.477733,-0.784845,0.326379,3.72478,5.52203,9.30446,12,0.0694914,0.00604345,118,119.543,0.0254182
-0.138391,-0.892371,0.404199,3.68212,5.49589,9.27735,13,0.0156678,0.00136258,134,168.128,0.0138131
0.113271,-0.21702,0.95982,3.72128,5.52503,9.27282,14,0.00769638,0.00066933,151,141.377,0.0440723
-0.281722,0.108193,0.939808,3.72574,5.53879,9.26724,15,0.0327641,0.00284939,18,70.9483,0.0808243
,,,,,,,,,25,45.5511,0.023255
,,,,,,,,,33,81.2746,0.0703199
,,,,,,,,,42,73.6095,0.0697023
,,,,,,,,,52,100.722,0.0136695
,,,,,,,,,63,88.2433,0.0953094
,,,,,,,,,75,121.127,0.00813808
,,,,,,,,,88,91.5954,0.0453191
,,,,,,,,,102,96.0097,0.146825
,,,,,,,,,117,110.365,0.0931833
,,,,,,,,,133,124.785,0.0282095
,,,,,,,,,150,160.746,0.0145981
,,,,,,,,,168,163.807,0.0531999
,,,,,,,,,32,111.057,0.0207034
,,,,,,,,,41,26.3354,0.0512283
,,,,,,,,,51,54.034,0.0508998
,,,,,,,,,62,65.2337,0.0127461
,,,,,,,,,74,128.64,0.0633238
,,,,,,,,,87,57.7053,0.0078016
,,,,,,,,,101,104.395,0.0365424
,,,,,,,,,116,163.735,0.0825727
,,,,,,,,,132,58.008,0.0623782
,,,,,,,,,149,53.9792,0.0245406
,,,,,,,,,167,106.601,0.0135498
,,,,,,,,,186,123.894,0.0414994
,,,,,,,,,50,107.725,0.0199404
,,,,,,,,,61,81.1754,0.0198905
,,,,,,,,,73,137.793,0.00916721
,,,,,,,,,86,79.6673,0.0215421
,,,,,,,,,100,166.676,0.00629692
,,,,,,,,,115,61.5128,0.0172431
,,,,,,,,,131,53.3979,0.0233976
,,,,,,,,,148,116.176,0.0214316
,,,,,,,,,166,152.657,0.01401
,,,,,,,,,185,124.099,0.00957573
,,,,,,,,,205,123.273,0.018273
,,,,,,,,,72,32.0149,0.0465232
,,,,,,,,,85,85.7128,0.0124527
,,,,,,,,,99,154.966,0.0566891
,,,,,,,,,114,65.7499,0.00769071
,,,,,,,,,130,80.0475,0.0342306
,,,,,,,,,147,145.206,0.0716396
,,,,,,,,,165,34.2791,0.0559301
,,,,,,,,,184,47.7834,0.0234759
,,,,,,,,,204,89.1122,0.0132188
,,,,,,,,,225,114.896,0.0385431
,,,,,,,,,98,117.571,0.0124332
,,,,,,,,,113,159.757,0.0562871
,,,,,,,,,129,95.5565,0.00768326
,,,,,,,,,146,50.4673,0.0340836
,,,,,,,,,164,113.837,0.0709988
,,,,,,,,,183,39.0586,0.0555387
,,,,,,,,,203,71.5984,0.0234066
,,,,,,,,,224,89.4054,0.0131968
,,,,,,,,,246,119.39,0.0383569
,,,,,,,,,128,73.9268,0.0130591
,,,,,,,,,145,33.8858,0.00529207
,,,,,,,,,163,159.549,0.0113445
,,,,,,,,,182,128.504,0.0137186
,,,,,,,,,202,97.5994,0.0130184
,,,,,,,,,223,61.8303,0.00984911
,,,,,,,,,245,95.1082,0.00743025
,,,,,,,,,268,82.1865,0.0117813
,,,,,,,,,162,101.605,0.00791775
,,,,,,,,,181,123.158,0.0392386
,,,,,,,,,201,58.2295,0.0977501
,,,,,,,,,222,160.908,0.070667
,,,,,,,,,244,127.668,0.0257279
,,,,,,,,,267,106.767,0.0139041
,,,,,,,,,291,77.1883,0.0450119
,,,,,,,,,200,125.724,0.0072531
,,,,,,,,,221,138.366,0.00815547
,,,,,,,,,243,65.6101,0.00790277
,,,,,,,,,266,28.4632,0.00661134
,,,,,,,,,290,68.5122,0.00542569
,,,,,,,,,315,69.5853,0.00742924
,,,,,,,,,242,65.3046,0.0458636
,,,,,,,,,265,62.5772,0.0388735
,,,,,,,,,289,97.7325,0.0198248
,,,,,,,,,314,70.2269,0.0119768
,,,,,,,,,340,90.5369,0.0295946
,,,,,,,,,288,121.274,0.095515
,,,,,,,,,313,137.09,0.0284196
,,,,,,,,,339,82.3993,0.0146542
,,,,,,,,,366,70.3996,0.0539518
,,,,,,,,,338,37.4181,0.0255704
,,,,,,,,,365,56.1704,0.0138579
,,,,,,,,,393,84.7999,0.044532
,,,,,,,,,392,54.7262,0.0103222
,,,,,,,,,421,70.7289,0.0211985
,,,,,,,,,450,30.0109,0.0124648
