facetNormals:0,facetNormals:1,facetNormals:2,FacetCenters:0,FacetCenters:1,FacetCenters:2,FacetIds,relFacetSize,absFacetSize,cellPairingIds,interplanarAngles,angleWeights
-0.151053,-0.118329,-0.952056,4.11695,6.23815,7.00375,1,0.0487171,0.0110247,8,41.0034,0.0480921
0.515882,-0.0391836,-0.829777,4.17066,6.27777,7.01357,2,0.0474829,0.0107454,13,35.3981,0.0656731
-0.660414,0.0762487,-0.718936,4.04719,6.28296,7.03434,3,0.100733,0.022796,19,44.1383,0.0486518
-0.435028,-0.664844,-0.55995,4.02541,6.16957,7.10232,4,0.0485866,0.0109952,26,67.6574,0.038167
0.807956,0.17994,-0.532159,4.20057,6.2995,7.03623,5,0.0313729,0.00709971,34,89.5115,0.0461199
0.621782,0.703177,-0.194384,4.18297,6.35938,7.06173,6,0.0437856,0.00990871,43,71.4701,0.0516665
0.77409,-0.456409,-0.382739,4.20805,6.23704,7.08115,7,0.054996,0.0124456,53,69.6599,0.0581147
-0.940538,-0.0507991,-0.184813,3.97201,6.21647,7.15637,8,0.0720044,0.0162946,64,85.8443,0.0523938
-0.571902,-0.747684,0.113573,4.07173,6.16673,7.10251,9,0.0566707,0.0128246,76,81.0425,0.0643096
0.15401,-0.950388,-0.0595278,4.08226,6.15759,7.16032,10,0.0945815,0.0214039,89,119.303,0.0622442
0.652077,-0.552736,0.446807,4.14613,6.20098,7.18286,11,0.0861709,0.0195005,103,132.884,0.0126913
-0.451592,-0.360772,0.803749,4.04338,6.1931,7.19363,12,0.00729602,0.00165109,118,169.651,0.0301335
-0.00846588,0.190429,0.950867,4.05702,6.20807,7.2275,13,0.0218128,0.00493625,18,74.6869,0.0645423
,,,,,,,,,25,73.732,0.0480284
,,,,,,,,,33,27.783,0.0377823
,,,,,,,,,42,60.9947,0.0455593
,,,,,,,,,52,39.7045,0.050964
,,,,,,,,,63,110.575,0.0572274
,,,,,,,,,75,112.846,0.0516715
,,,,,,,,,88,79.8587,0.0632249
,,,,,,,,,102,90.7714,0.0612275
,,,,,,,,,117,156.202,0.0126485
,,,,,,,,,133,147.617,0.0298932
,,,,,,,,,32,47.8135,0.0655544
,,,,,,,,,41,98.1905,0.0478447
,,,,,,,,,51,103.384,0.0610393
,,,,,,,,,62,106.451,0.0711481
,,,,,,,,,74,37.0506,0.0839798
,,,,,,,,,87,75.0809,0.0725347
,,,,,,,,,101,97.9952,0.0975605
,,,,,,,,,116,147.212,0.0928847
,,,,,,,,,132,108.47,0.0136065
,,,,,,,,,149,134.323,0.0358604
,,,,,,,,,50,100.428,0.0381269
,,,,,,,,,61,132.473,0.0460613
,,,,,,,,,73,79.0092,0.051593
,,,,,,,,,86,54.1507,0.0580217
,,,,,,,,,100,42.2417,0.0523182
,,,,,,,,,115,50.3582,0.0641958
,,,,,,,,,131,100.222,0.0621376
,,,,,,,,,148,90.8186,0.0126869
,,,,,,,,,166,134.046,0.0301085
,,,,,,,,,72,39.0699,0.0365542
,,,,,,,,,85,38.9982,0.0399538
,,,,,,,,,99,135.24,0.0437037
,,,,,,,,,114,134.765,0.0403874
,,,,,,,,,130,90.8995,0.047117
,,,,,,,,,147,78.4764,0.0459987
,,,,,,,,,165,151.667,0.0118388
,,,,,,,,,184,120.099,0.0257336
,,,,,,,,,98,75.4776,0.0487547
,,,,,,,,,113,129.448,0.0544564
,,,,,,,,,129,173.725,0.0494018
,,,,,,,,,146,127.349,0.0598597
,,,,,,,,,164,94.3466,0.0580663
,,,,,,,,,183,136.706,0.0125078
,,,,,,,,,203,93.4655,0.0291192
,,,,,,,,,128,132.562,0.0623612
,,,,,,,,,145,99.0031,0.0558208
,,,,,,,,,163,52.331,0.0695506
,,,,,,,,,182,51.5349,0.0671411
,,,,,,,,,202,120.621,0.0128829
,,,,,,,,,223,118.874,0.0312364
,,,,,,,,,162,52.4325,0.0634239
,,,,,,,,,181,95.3028,0.081763
,,,,,,,,,201,136.161,0.0784532
,,,,,,,,,222,71.9447,0.0132495
,,,,,,,,,244,100.989,0.0334825
,,,,,,,,,200,47.6828,0.070875
,,,,,,,,,221,84.2836,0.0683746
,,,,,,,,,243,48.7191,0.0129277
,,,,,,,,,266,91.8414,0.0315008
,,,,,,,,,242,49.9136,0.0901805
,,,,,,,,,265,76.3431,0.013547
,,,,,,,,,289,104.795,0.03545
,,,,,,,,,288,73.9468,0.013453
,,,,,,,,,313,70.3809,0.0348132
,,,,,,,,,338,43.2431,0.0109346
