facetNormals:0,facetNormals:1,facetNormals:2,FacetCenters:0,FacetCenters:1,FacetCenters:2,FacetIds,relFacetSize,absFacetSize,cellPairingIds,interplanarAngles,angleWeights
-0.212101,0.0217933,-0.931409,6.8638,7.0195,7.58189,1,0.0365148,0.00978499,8,54.246,0.0273302
0.427553,-0.538552,-0.696755,6.97264,7.0691,7.56264,2,0.0218375,0.00585186,13,38.3766,0.0499051
-0.739627,-0.113952,-0.611413,6.80004,6.98493,7.61157,3,0.0788027,0.021117,19,39.8444,0.0391417
-0.548452,0.49976,-0.630185,6.80802,7.0327,7.62606,4,0.0421759,0.011302,26,71.63,0.03318
0.773112,0.33388,-0.481936,6.98294,7.0898,7.58877,5,0.0304033,0.00814727,34,81.4726,0.0460922
0.421446,0.804413,-0.219262,6.95627,7.14534,7.61493,6,0.0624799,0.0167429,43,69.5579,0.0261749
-0.30335,-0.87593,-0.30057,6.90549,6.96897,7.59549,7,0.0203986,0.00546628,53,78.8419,0.0309919
0.322271,-0.884351,-0.28958,6.98206,7.00016,7.59667,8,0.0269202,0.00721389,64,107.489,0.040443
0.794602,-0.496568,0.0978854,6.95179,7.02155,7.67532,9,0.0453183,0.0121441,76,81.7769,0.0534508
-0.862083,0.396942,0.0660085,6.79158,7.03165,7.6813,10,0.0996869,0.0267134,89,91.2003,0.0312076
-0.700179,0.677483,0.196656,6.77948,7.01919,7.69625,11,0.0272474,0.00730156,103,134.204,0.037487
0.818105,0.114757,0.511275,6.98551,7.03931,7.6653,12,0.0385124,0.0103203,118,119.243,0.0373005
-0.658247,0.331213,0.650101,6.73851,6.94578,7.73933,13,0.0381208,0.0102154,134,167.378,0.0568121
0.14522,0.17549,0.914217,6.86282,7.02187,7.73756,14,0.127916,0.0342782,18,79.5771,0.0341981
,,,,,,,,,25,93.8841,0.0287757
,,,,,,,,,33,59.1881,0.0254181
,,,,,,,,,42,96.2937,0.0323635
,,,,,,,,,52,54.6845,0.0210935
,,,,,,,,,63,32.1927,0.0241139
,,,,,,,,,75,54.2397,0.0294729
,,,,,,,,,88,132.43,0.0358267
,,,,,,,,,102,145.435,0.0242443
,,,,,,,,,117,94.1154,0.0278713
,,,,,,,,,133,161.599,0.027768
,,,,,,,,,150,136.534,0.0373062
,,,,,,,,,32,38.7181,0.0549448
,,,,,,,,,41,109.643,0.0438779
,,,,,,,,,51,107.356,0.0696984
,,,,,,,,,62,57.3574,0.0324081
,,,,,,,,,74,87.6232,0.040131
,,,,,,,,,87,130.476,0.0575439
,,,,,,,,,101,53.0984,0.088023
,,,,,,,,,116,70.512,0.0404934
,,,,,,,,,132,172.478,0.051739
,,,,,,,,,149,86.883,0.0513844
,,,,,,,,,167,138.926,0.0975252
,,,,,,,,,50,87.175,0.0353348
,,,,,,,,,61,70.1346,0.0503583
,,,,,,,,,73,94.9568,0.0274977
,,,,,,,,,86,117.067,0.0328639
,,,,,,,,,100,144.393,0.0436906
,,,,,,,,,115,47.1729,0.0592739
,,,,,,,,,131,51.7776,0.0331065
,,,,,,,,,148,138.977,0.040261
,,,,,,,,,166,82.9832,0.0400459
,,,,,,,,,185,128.269,0.063436
,,,,,,,,,72,39.4376,0.0409029
,,,,,,,,,85,113.837,0.0244158
,,,,,,,,,99,84.3878,0.0285559
,,,,,,,,,114,63.9558,0.0363919
,,,,,,,,,130,127.8,0.0465955
,,,,,,,,,147,115.152,0.0287389
,,,,,,,,,165,63.2423,0.0339808
,,,,,,,,,184,138.276,0.0338275
,,,,,,,,,204,107.161,0.0491295
,,,,,,,,,98,147.353,0.0307559
,,,,,,,,,113,123.821,0.0376279
,,,,,,,,,129,95.6092,0.052533
,,,,,,,,,146,93.7732,0.076815
,,,,,,,,,164,77.1336,0.0379464
,,,,,,,,,183,69.0181,0.0476522
,,,,,,,,,203,99.6271,0.0473512
,,,,,,,,,224,89.8752,0.0839533
,,,,,,,,,128,37.2477,0.02321
,,,,,,,,,145,79.6782,0.0281337
,,,,,,,,,163,96.5666,0.0338671
,,,,,,,,,182,117.028,0.0233307
,,,,,,,,,202,122.048,0.0266707
,,,,,,,,,223,107.368,0.0265762
,,,,,,,,,245,120.977,0.0351861
,,,,,,,,,162,44.0448,0.0337763
,,,,,,,,,181,133.759,0.0423924
,,,,,,,,,201,154.266,0.0270828
,,,,,,,,,222,89.1549,0.0316894
,,,,,,,,,244,135.761,0.0315561
,,,,,,,,,267,113.713,0.0444796
,,,,,,,,,200,167.684,0.06231
,,,,,,,,,221,158.887,0.0340327
,,,,,,,,,243,45.3591,0.0416391
,,,,,,,,,266,132.369,0.0414091
,,,,,,,,,290,82.3775,0.066926
,,,,,,,,,242,20.5352,0.042797
,,,,,,,,,265,132.629,0.0555601
,,,,,,,,,289,37.4837,0.0551514
,,,,,,,,,314,89.6923,0.112051
,,,,,,,,,288,114.115,0.031915
,,,,,,,,,313,33.641,0.0317797
,,,,,,,,,339,77.8562,0.0449252
,,,,,,,,,338,100.143,0.0383156
,,,,,,,,,365,48.5136,0.0592009
,,,,,,,,,392,53.0241,0.0587372
