facetNormals:0,facetNormals:1,facetNormals:2,FacetCenters:0,FacetCenters:1,FacetCenters:2,FacetIds,relFacetSize,absFacetSize,cellPairingIds,interplanarAngles,angleWeights
-0.608801,-0.182898,-0.721535,4.00191,3.6476,6.07164,1,0.0658211,0.0209785,8,97.6195,0.063053
0.769107,0.230689,-0.53674,4.13106,3.75033,6.09961,2,0.0605083,0.0192852,13,48.7621,0.0512295
-0.398072,-0.815369,-0.29588,4.00281,3.56623,6.16872,3,0.0419334,0.013365,19,38.8418,0.0402147
-0.750692,0.40623,-0.492526,3.98324,3.70912,6.10311,4,0.0289516,0.00922745,26,87.0148,0.0827488
0.573581,-0.661343,-0.382633,4.10027,3.62052,6.1386,5,0.111398,0.0355047,34,125.236,0.0186704
0.992832,-0.0450783,-0.0606775,4.11826,3.68275,6.10765,6,0.010878,0.00346704,43,74.1654,0.0854246
-0.606559,0.727811,-0.0172912,4.03552,3.70007,6.15009,7,0.121658,0.0387749,53,136.518,0.0303006
0.864957,0.411885,0.096931,4.11892,3.68214,6.11325,8,0.0196801,0.00627245,64,58.7088,0.0876203
-0.93387,0.0214476,0.129717,3.96352,3.64419,6.18955,9,0.131009,0.0417551,76,119.229,0.0606208
0.267201,-0.713593,0.577708,4.03601,3.57843,6.24806,10,0.0561821,0.0179064,89,124.957,0.0650374
-0.16621,-0.192917,0.91269,4.03169,3.64029,6.32885,11,0.0642722,0.0204848,18,111.341,0.0495368
,,,,,,,,,25,103.32,0.0391642
,,,,,,,,,33,57.6352,0.0784207
,,,,,,,,,42,35.2076,0.0184408
,,,,,,,,,52,108.429,0.0808198
,,,,,,,,,63,40.4003,0.0297003
,,,,,,,,,75,149.265,0.0827824
,,,,,,,,,88,106.946,0.058265
,,,,,,,,,102,136.352,0.0623335
,,,,,,,,,32,83.0791,0.0342537
,,,,,,,,,41,62.2801,0.0609307
,,,,,,,,,51,110.997,0.0172747
,,,,,,,,,62,112.554,0.0623692
,,,,,,,,,74,140.473,0.0267881
,,,,,,,,,87,69.4542,0.0635315
,,,,,,,,,101,70.5057,0.0480231
,,,,,,,,,116,92.9528,0.0507535
,,,,,,,,,50,122.855,0.0459588
,,,,,,,,,61,138.398,0.0158141
,,,,,,,,,73,35.5759,0.0467725
,,,,,,,,,86,123.935,0.0234321
,,,,,,,,,100,45.9764,0.0474231
,,,,,,,,,115,145.33,0.0382119
,,,,,,,,,131,115.576,0.0399208
,,,,,,,,,72,49.1279,0.0198205
,,,,,,,,,85,155.321,0.116302
,,,,,,,,,99,78.2948,0.0334507
,,,,,,,,,114,131.707,0.12041
,,,,,,,,,130,63.7444,0.0746935
,,,,,,,,,147,110.496,0.081514
,,,,,,,,,98,132.216,0.0199704
,,,,,,,,,113,29.5202,0.0140114
,,,,,,,,,129,175.407,0.020088
,,,,,,,,,146,74.0024,0.0182269
,,,,,,,,,164,102.967,0.0186068
,,,,,,,,,128,104.376,0.0338797
,,,,,,,,,145,49.5477,0.12616
,,,,,,,,,163,139.736,0.0768668
,,,,,,,,,182,93.5356,0.0841093
,,,,,,,,,162,149.989,0.0342198
,,,,,,,,,181,90.4233,0.0291494
,,,,,,,,,201,98.4933,0.0301334
,,,,,,,,,200,102.156,0.07864
,,,,,,,,,221,72.449,0.086237
,,,,,,,,,242,46.776,0.0599555
