Q	U	V
{$V$}	{[mm$^3$]}	0.00525564
{$d_v$}	{[mm]}	0.215713
{$S_c$}	{[mm$^2$]}	0.218233
{$S_o$}	{[mm$^2$]}	0.145693
{$S_l/S_o$}	[]	0.497896
{$\Psi$}	[]	0.669855
{$\eta$}	[]	0.711776
{med($\theta_e$)}	{[$^\circ$]}	53.9512
{$\Upsilon$}	[]	13
{$\Xi$}	[]	8
