"cellPairingIds","interplanarAngles","angleWeights"
8,29.1297,0.066785
19,46.1852,0.0311086
26,53.1312,0.0475908
43,62.0524,0.0434919
76,100.547,0.0747883
25,30.6825,0.0291125
63,81.6929,0.0473726
88,110.361,0.0642049
117,108.017,0.039099
61,25.6651,0.019928
73,35.4351,0.0236022
148,132.546,0.0233929
185,118.729,0.0337557
85,52.2916,0.0320144
130,105.566,0.046266
147,36.684,0.0273258
184,102.111,0.0280208
247,85.513,0.0476386
98,36.776,0.0243736
224,98.4674,0.0353561
245,127.781,0.0488471
268,135.422,0.0345061
292,103.91,0.0435317
181,31.596,0.0512639
222,33.1688,0.0338893
265,32.0865,0.0417123
289,30.4388,0.0356551
314,75.2943,0.0921634
340,61.6823,0.0516564
313,66.0568,0.0232408
394,56.3334,0.0352967
365,47.0259,0.0479587
421,41.3664,0.0299111
451,47.7106,0.0364648
450,33.5434,0.0615908
512,45.5377,0.0533734
