"cellPairingIds","interplanarAngles","angleWeights"
8,25.9771,0.0213225
13,55.2665,0.0307606
19,30.9676,0.0119996
26,50.0393,0.0303751
53,125.23,0.0237023
33,48.01,0.0386251
52,57.8256,0.026459
63,122.278,0.0284429
32,65.0466,0.0161512
74,72.4325,0.0481499
50,48.8527,0.0160443
86,134.374,0.0139673
100,68.0712,0.016379
115,70.1917,0.0135504
131,81.9658,0.0137813
85,23.9809,0.0419862
114,33.9279,0.0939917
128,150.06,0.0302246
145,31.3534,0.0443583
162,153.054,0.0502323
181,85.2326,0.030626
201,105.966,0.0318314
221,56.825,0.0479074
242,43.1618,0.0297459
