facetNormals:0,facetNormals:1,facetNormals:2,FacetCenters:0,FacetCenters:1,FacetCenters:2,FacetIds,relFacetSize,absFacetSize,cellPairingIds,interplanarAngles,angleWeights
0.244771,-0.450361,-0.845216,3.85303,5.02654,5.57633,1,0.0145253,0.00352485,8,44.067,0.0193289
-0.484086,-0.33164,-0.791352,3.84242,5.0999,5.72184,2,0.0288794,0.00700812,13,53.5671,0.0258665
0.781263,0.0862771,-0.448153,3.81734,5.059,5.60313,3,0.117996,0.028634,19,45.7766,0.0243107
-0.366266,-0.722078,-0.495695,3.79705,4.98712,5.64488,4,0.0744987,0.0180785,26,54.348,0.0237212
0.275668,-0.899901,-0.0848395,3.79971,4.97163,5.64771,5,0.0646509,0.0156887,34,65.5417,0.0193979
0.776783,-0.600795,0.0684187,3.8834,5.00327,5.61878,6,0.0291898,0.00708345,43,152.233,0.0207057
-0.275057,0.783171,0.512666,3.76796,5.17347,5.65319,7,0.0360408,0.00874598,53,134.96,0.0260891
-0.79603,0.134668,0.469531,3.72427,5.05919,5.6786,8,0.127957,0.0310512,64,101.184,0.0246904
0.575624,-0.455766,0.62884,3.83743,4.99818,5.6948,9,0.0822516,0.0199599,76,130.177,0.0265256
0.53117,0.483702,0.60451,3.85373,5.11959,5.6756,10,0.152588,0.0370284,18,93.355,0.0464019
,,,,,,,,,25,30.113,0.0416234
,,,,,,,,,33,75.5613,0.0399245
,,,,,,,,,42,103.775,0.0290337
,,,,,,,,,52,123.627,0.0320651
,,,,,,,,,63,91.9232,0.0471232
,,,,,,,,,75,131.026,0.0427491
,,,,,,,,,88,165.601,0.0485668
,,,,,,,,,32,98.4554,0.0913329
,,,,,,,,,41,78.1384,0.0835333
,,,,,,,,,51,53.9324,0.0468018
,,,,,,,,,62,115.288,0.0552163
,,,,,,,,,74,166.22,0.122775
,,,,,,,,,87,81.5469,0.0969336
,,,,,,,,,101,77.3663,0.133081
,,,,,,,,,50,48.8037,0.0692263
,,,,,,,,,61,82.907,0.0419449
,,,,,,,,,73,140.911,0.0485798
,,,,,,,,,86,92.4839,0.0941701
,,,,,,,,,100,102.168,0.0781834
,,,,,,,,,115,161.136,0.100117
,,,,,,,,,72,36.3753,0.0402202
,,,,,,,,,85,153.362,0.0462813
,,,,,,,,,99,115.536,0.0859003
,,,,,,,,,114,55.6483,0.0723968
,,,,,,,,,130,112.542,0.0908212
,,,,,,,,,98,132.522,0.0322555
,,,,,,,,,113,136.522,0.0475357
,,,,,,,,,129,36.5988,0.0430882
,,,,,,,,,146,79.8197,0.049005
,,,,,,,,,128,51.6676,0.0562407
,,,,,,,,,145,101.801,0.0501201
,,,,,,,,,163,53.6738,0.0583092
,,,,,,,,,162,104.387,0.100136
,,,,,,,,,181,94.8312,0.139192
,,,,,,,,,200,59.1493,0.106887
