Q	U	V
{$V$}	{[mm$^3$]}	0.00403732
{$d_v$}	{[mm]}	0.197560
{$S_c$}	{[mm$^2$]}	0.215756
{$S_o$}	{[mm$^2$]}	0.131577
{$S_l/S_o$}	[]	0.639770
{$\Psi$}	[]	0.568307
{$\eta$}	[]	0.601777
{med($\theta_e$)}	{[$^\circ$]}	63.37235
{$\Upsilon$}	[]	14
{$\Xi$}	[]	12
