Q	U	V
{$V$}	{[mm$^3$]}	0.00550619
{$d_v$}	{[mm]}	0.219087
{$S_c$}	{[mm$^2$]}	0.290799
{$S_o$}	{[mm$^2$]}	0.168233
{$S_l/S_o$}	[]	0.728549
{$\Psi$}	[]	0.518552
{$\eta$}	[]	0.573348
{med($\theta_e$)}	{[$^\circ$]}	70.8289
{$\Upsilon$}	[]	14
{$\Xi$}	[]	9
