facetNormals:0,facetNormals:1,facetNormals:2,FacetCenters:0,FacetCenters:1,FacetCenters:2,FacetIds,relFacetSize,absFacetSize,cellPairingIds,interplanarAngles,angleWeights
0.290834,0.0708235,-0.914654,3.07371,4.301,8.47136,1,0.0195064,0.00822255,8,43.0867,0.0291234
-0.413011,0.032531,-0.867638,3.02008,4.26052,8.46407,2,0.0574443,0.0242145,13,44.9895,0.0256129
0.836825,-0.138215,-0.464072,3.12306,4.24483,8.54469,3,0.0372849,0.0157167,19,81.801,0.0171301
-0.769612,-0.423017,-0.42379,2.93257,4.2425,8.58602,4,0.0152698,0.00643669,26,98.5256,0.0313026
-0.922928,0.129267,-0.136532,2.95119,4.25754,8.59823,5,0.0791936,0.0333824,34,70.2509,0.0238516
-0.387006,0.796301,-0.407991,3.02624,4.28756,8.62618,6,0.0306873,0.0129356,43,109.278,0.0281053
-0.557871,-0.772713,0.0955048,2.97856,4.17121,8.76364,7,0.0502619,0.0211869,53,79.9321,0.0302186
0.818983,-0.540291,0.0379719,3.14357,4.23014,8.63517,8,0.0670272,0.028254,64,100.87,0.0265036
-0.122529,0.937807,0.226637,3.03558,4.31484,8.6968,9,0.0413286,0.0174213,76,99.1188,0.030142
-0.649175,0.715928,0.0101805,3.014,4.3119,8.61487,10,0.0662798,0.0279389,89,104.514,0.0252358
0.38477,-0.839675,0.314628,3.08421,4.14086,8.80266,11,0.0357302,0.0150614,103,84.8619,0.0319749
0.495773,0.79963,0.130059,3.12004,4.32663,8.65544,12,0.0886216,0.0373566,118,129.345,0.0254946
-0.668368,0.529558,0.481842,3.04118,4.28985,8.71645,13,0.0367878,0.0155072,134,97.3258,0.0182822
0.780091,0.440434,0.414589,3.14154,4.32328,8.62314,14,0.0172026,0.00725142,151,123.847,0.0198737
-0.147327,-0.856392,0.464208,3.15448,4.18093,8.74426,15,0.0202551,0.00853814,169,104.367,0.015382
0.838611,-0.0431569,0.521365,3.13596,4.24532,8.79054,16,0.0126973,0.00535227,188,157.924,0.0197385
-0.468686,-0.363147,0.771889,2.98919,4.18391,8.84463,17,0.0199761,0.00842054,208,141.074,0.0284812
0.340018,-0.00206879,0.88082,3.07876,4.19622,8.85925,18,0.0527522,0.0222366,18,86.7604,0.0452195
,,,,,,,,,25,44.23,0.0241264
,,,,,,,,,33,56.1951,0.0665879
,,,,,,,,,42,54.8414,0.0400041
,,,,,,,,,52,82.3618,0.0536136
,,,,,,,,,63,114.319,0.0618668
,,,,,,,,,75,97.0968,0.0480717
,,,,,,,,,88,72.2966,0.0615465
,,,,,,,,,102,119.307,0.0440571
,,,,,,,,,117,108.621,0.0697056
,,,,,,,,,133,97.6151,0.044852
,,,,,,,,,150,134.699,0.0264765
,,,,,,,,,168,112.978,0.0299498
,,,,,,,,,187,147.345,0.0207975
,,,,,,,,,207,121.428,0.0296437
,,,,,,,,,228,175.29,0.0549983
,,,,,,,,,32,114.362,0.0216663
,,,,,,,,,41,142.955,0.0506999
,,,,,,,,,51,105.04,0.0336659
,,,,,,,,,62,115.891,0.0428116
,,,,,,,,,74,38.5515,0.0479158
,,,,,,,,,87,111.024,0.0392027
,,,,,,,,,101,133.815,0.0477235
,,,,,,,,,116,71.9674,0.036491
,,,,,,,,,132,74.5908,0.0524873
,,,,,,,,,149,154.698,0.0370347
,,,,,,,,,167,65.252,0.0235429
,,,,,,,,,186,103.376,0.0262499
,,,,,,,,,206,60.8289,0.0189434
,,,,,,,,,227,138.083,0.0260145
,,,,,,,,,249,97.8035,0.04369
,,,,,,,,,50,39.0287,0.025603
,,,,,,,,,61,81.9024,0.0203925
,,,,,,,,,73,39.9746,0.0234235
,,,,,,,,,86,115.875,0.0248732
,,,,,,,,,100,114.844,0.0223003
,,,,,,,,,115,78.217,0.0248212
,,,,,,,,,131,94.4766,0.0213958
,,,,,,,,,148,146.794,0.026051
,,,,,,,,,166,84.8234,0.0215816
,,,,,,,,,185,178.902,0.0161787
,,,,,,,,,205,73.1214,0.0174127
,,,,,,,,,226,151.636,0.0138652
,,,,,,,,,248,78.6241,0.0173088
,,,,,,,,,271,133.529,0.023684
,,,,,,,,,72,55.8214,0.044234
,,,,,,,,,85,63.542,0.0614948
,,,,,,,,,99,153.953,0.0726042
,,,,,,,,,114,77.1728,0.054313
,,,,,,,,,130,40.6848,0.0721635
,,,,,,,,,147,123.452,0.0492431
,,,,,,,,,165,114.568,0.0836427
,,,,,,,,,184,47.8132,0.0502384
,,,,,,,,,204,140.715,0.0282654
,,,,,,,,,225,92.3538,0.0322594
,,,,,,,,,247,156.039,0.0218856
,,,,,,,,,270,72.201,0.0319045
,,,,,,,,,294,119.236,0.0633235
,,,,,,,,,98,118.001,0.0381079
,,,,,,,,,113,142.825,0.0420999
,,,,,,,,,129,42.2557,0.0352218
,,,,,,,,,146,29.8498,0.0419513
,,,,,,,,,164,173.948,0.0330173
,,,,,,,,,183,64.9651,0.0455885
,,,,,,,,,203,59.5585,0.0334618
,,,,,,,,,224,97.1834,0.0220465
,,,,,,,,,246,147.983,0.0244031
,,,,,,,,,269,126.388,0.0179624
,,,,,,,,,293,116.456,0.0241995
,,,,,,,,,318,122.357,0.0388023
,,,,,,,,,128,92.1798,0.0574463
,,,,,,,,,145,132.945,0.0453596
,,,,,,,,,163,101.849,0.0571701
,,,,,,,,,182,60.2175,0.0417682
,,,,,,,,,202,165.825,0.0641443
,,,,,,,,,223,89.4085,0.0424821
,,,,,,,,,245,141.11,0.0256323
,,,,,,,,,268,33.3478,0.0288742
,,,,,,,,,292,113.975,0.0202731
,,,,,,,,,317,48.6596,0.0285896
,,,,,,,,,343,96.6014,0.0514769
,,,,,,,,,162,128.805,0.0511305
,,,,,,,,,181,165.343,0.0666514
,,,,,,,,,201,35.4222,0.0466126
,,,,,,,,,222,91.2942,0.0763264
,,,,,,,,,244,147.959,0.0475034
,,,,,,,,,267,64.5396,0.0273785
,,,,,,,,,291,68.1725,0.0311093
,,,,,,,,,316,41.2265,0.0213501
,,,,,,,,,342,99.5363,0.0307792
,,,,,,,,,369,70.2656,0.059039
,,,,,,,,,200,36.7387,0.0509115
,,,,,,,,,221,143.546,0.0383261
,,,,,,,,,243,38.9254,0.0563694
,,,,,,,,,266,43.7829,0.0389263
,,,,,,,,,290,64.6244,0.0242934
,,,,,,,,,315,135.2,0.0271863
,,,,,,,,,341,91.4942,0.0194263
,,,,,,,,,368,96.5631,0.0269338
,,,,,,,,,396,80.2172,0.0463469
,,,,,,,,,242,154.017,0.0464306
,,,,,,,,,265,74.0692,0.0758395
,,,,,,,,,289,30.2264,0.0473144
,,,,,,,,,314,101.296,0.0273156
,,,,,,,,,340,122.582,0.0310281
,,,,,,,,,367,126.632,0.0213118
,,,,,,,,,395,86.8233,0.0306997
,,,,,,,,,424,103.514,0.0587473
,,,,,,,,,288,118.327,0.0509276
,,,,,,,,,313,125.151,0.0362513
,,,,,,,,,339,86.3823,0.0232239
,,,,,,,,,366,32.754,0.0258539
,,,,,,,,,394,57.1647,0.0187363
,,,,,,,,,423,67.2382,0.0256255
,,,,,,,,,453,63.5955,0.0426039
,,,,,,,,,338,80.4239,0.0519928
,,,,,,,,,365,32.2581,0.0288124
,,,,,,,,,393,138.191,0.0329738
,,,,,,,,,422,61.423,0.0222121
,,,,,,,,,452,117.185,0.0326032
,,,,,,,,,483,71.7069,0.0661365
,,,,,,,,,392,95.2452,0.0234429
,,,,,,,,,421,97.8244,0.0261257
,,,,,,,,,451,110.065,0.0188786
,,,,,,,,,482,58.868,0.0258924
,,,,,,,,,514,77.7596,0.0433468
,,,,,,,,,450,107.947,0.0186045
,,,,,,,,,481,29.2427,0.0146105
,,,,,,,,,513,102.353,0.0184859
,,,,,,,,,546,47.5122,0.0259446
,,,,,,,,,512,80.8153,0.0156095
,,,,,,,,,545,39.6457,0.0201147
,,,,,,,,,579,67.1934,0.0292711
,,,,,,,,,578,88.5071,0.0155259
,,,,,,,,,613,37.0864,0.020468
,,,,,,,,,648,55.4419,0.0289787
