"cellPairingIds","interplanarAngles","angleWeights"
8,43.6807,0.0534915
13,36.9835,0.048891
19,66.4162,0.0635573
18,66.4678,0.0709297
25,97.556,0.106625
33,80.6639,0.0468274
42,72.1864,0.0139248
52,66.7545,0.0258303
102,75.8876,0.0834725
32,83.9659,0.0897848
87,75.6681,0.0545073
116,87.9999,0.072785
167,122.314,0.0409287
50,58.4119,0.0543647
86,68.8341,0.13497
100,49.6389,0.0733873
185,124.549,0.0507282
72,46.3553,0.0123717
99,43.3301,0.0515853
204,111.152,0.0315564
98,29.411,0.0101844
224,86.363,0.0121731
182,49.743,0.0260723
245,76.0716,0.020388
267,71.9147,0.0482998
290,87.5171,0.0371453
339,63.1199,0.0448144
