"cellPairingIds","interplanarAngles","angleWeights"
8,54.0082,0.0165897
13,19.3739,0.0112284
26,121.011,0.0158002
43,47.1034,0.0145189
25,44.3986,0.0836333
33,73.1974,0.102102
42,59.0529,0.0602737
52,98.2461,0.0650208
41,135.146,0.0259231
62,31.6227,0.0226443
101,62.4509,0.0202335
61,21.9431,0.0459439
73,102.296,0.0486514
72,64.928,0.0510131
114,42.7034,0.0508915
130,153.397,0.0422775
98,120.045,0.0397008
129,56.198,0.0378121
183,44.9597,0.0429329
203,90.7895,0.0647382
163,34.2119,0.0342011
223,65.0591,0.0702467
200,121.721,0.0327901
243,44.7739,0.0428467
266,85.6793,0.0645425
289,43.7211,0.0512892
338,51.6399,0.0810418
