facetNormals:0,facetNormals:1,facetNormals:2,FacetCenters:0,FacetCenters:1,FacetCenters:2,FacetIds,relFacetSize,absFacetSize,cellPairingIds,interplanarAngles,angleWeights
0.25771,-0.135985,-0.917556,4.6647,7.04964,8.39277,1,0.134795,0.013673,8,53.6895,0.0297153
0.508672,0.616814,-0.552269,4.66948,7.0959,8.40054,2,0.0166982,0.0016938,13,59.7806,0.131733
-0.660946,-0.190657,-0.661273,4.53831,7.01395,8.44007,3,0.128808,0.0130658,19,42.2843,0.105977
-0.0958052,-0.689691,-0.68037,4.60354,6.98464,8.42152,4,0.0873111,0.00885649,26,66.2658,0.0240326
-0.170453,0.771535,-0.574865,4.58663,6.99399,8.47699,5,0.0131923,0.00133818,34,104.805,0.0206226
-0.989291,0.0629061,-0.0213562,4.51074,6.99793,8.51798,6,0.0111654,0.00113258,43,84.1894,0.0546146
-0.346272,-0.893686,-0.0668619,4.54408,6.96174,8.48855,7,0.0342448,0.00347366,53,110.327,0.159104
-0.47401,0.810669,0.0905788,4.56036,7.0757,8.47824,8,0.194111,0.0196899,64,107.863,0.0865658
0.344782,0.86236,0.281351,4.63942,7.10131,8.44829,9,0.0637547,0.00646702,76,107.705,0.0610626
-0.0795067,-0.874271,0.417401,4.52721,6.96909,8.52923,10,0.0394718,0.00400386,89,146.634,0.115376
-0.685581,0.286795,0.604233,4.55618,7.01319,8.57517,11,0.100847,0.0102296,103,162.457,0.0418816
-0.0924832,0.379288,0.890941,4.56947,7.03992,8.55676,12,0.0247924,0.00251484,18,95.4837,0.0295639
,,,,,,,,,25,95.9705,0.0280348
,,,,,,,,,33,41.9039,0.0147397
,,,,,,,,,42,118.021,0.0133825
,,,,,,,,,52,137.696,0.0224497
,,,,,,,,,63,76.8287,0.0307511
,,,,,,,,,75,54.1753,0.0264649
,,,,,,,,,88,149.069,0.0234683
,,,,,,,,,102,122.901,0.0286522
,,,,,,,,,117,108.834,0.0199558
,,,,,,,,,32,46.0483,0.104076
,,,,,,,,,41,68.2363,0.0239334
,,,,,,,,,51,46.1025,0.0205496
,,,,,,,,,62,61.0698,0.0541052
,,,,,,,,,74,83.6966,0.154857
,,,,,,,,,87,128.652,0.0852928
,,,,,,,,,101,93.5097,0.0604265
,,,,,,,,,116,90.0696,0.113125
,,,,,,,,,132,130.301,0.0415814
,,,,,,,,,50,97.5306,0.0229213
,,,,,,,,,61,86.0839,0.019799
,,,,,,,,,73,42.0043,0.0491947
,,,,,,,,,86,128.785,0.120446
,,,,,,,,,100,150.129,0.0736962
,,,,,,,,,115,69.8102,0.0543658
,,,,,,,,,131,125.632,0.0935923
,,,,,,,,,148,155.094,0.0386188
,,,,,,,,,72,76.3013,0.0120945
,,,,,,,,,85,129.098,0.019047
,,,,,,,,,99,44.7949,0.0247056
,,,,,,,,,114,62.0226,0.0218611
,,,,,,,,,130,161.535,0.0197753
,,,,,,,,,147,90.5645,0.0233324
,,,,,,,,,165,102.38,0.0172211
,,,,,,,,,98,72.4168,0.0168402
,,,,,,,,,113,56.3755,0.0211162
,,,,,,,,,129,107.72,0.0190029
,,,,,,,,,146,89.1235,0.0174069
,,,,,,,,,164,43.9792,0.0201049
,,,,,,,,,183,84.2681,0.0153968
,,,,,,,,,128,128.674,0.0582187
,,,,,,,,,145,167.123,0.0445567
,,,,,,,,,163,33.2576,0.036673
,,,,,,,,,182,93.6952,0.051128
,,,,,,,,,202,113.09,0.0287619
,,,,,,,,,162,52.199,0.095984
,,,,,,,,,181,133.67,0.0656034
,,,,,,,,,201,47.3517,0.132735
,,,,,,,,,222,61.9165,0.0439689
,,,,,,,,,200,134.735,0.0487571
,,,,,,,,,221,78.774,0.0781216
,,,,,,,,,243,54.6703,0.0357015
,,,,,,,,,242,86.5529,0.0567367
,,,,,,,,,265,87.1124,0.0304555
,,,,,,,,,288,40.3033,0.0398002
