Q	U	V
{$V$}	{[mm$^3$]}	0.00283443
{$d_v$}	{[mm]}	0.175586
{$S_c$}	{[mm$^2$]}	0.23261
{$S_o$}	{[mm$^2$]}	0.121547
{$S_l/S_o$}	[]	0.913745
{$\Psi$}	[]	0.416389
{$\eta$}	[]	0.431568
{med($\theta_e$)}	{[$^\circ$]}	65.965
{$\Upsilon$}	[]	11
{$\Xi$}	[]	7
