facetNormals:0,facetNormals:1,facetNormals:2,FacetCenters:0,FacetCenters:1,FacetCenters:2,FacetIds,relFacetSize,absFacetSize,cellPairingIds,interplanarAngles,angleWeights
-0.682579,0.220681,-0.649673,3.16759,6.49259,6.163,1,0.0934697,0.016376,8,95.0301,0.105251
0.105386,-0.917936,-0.295808,3.26601,6.38765,6.15056,2,0.12043,0.0210996,13,116.43,0.041132
0.899254,0.315237,-0.193044,3.27496,6.49938,6.24001,3,0.0263676,0.00461965,19,131.889,0.060331
0.933523,-0.281261,-0.101354,3.30368,6.42164,6.17844,4,0.0445398,0.00780345,26,44.9808,0.0946328
-0.94361,-0.163163,-0.0762918,3.14024,6.48858,6.2223,5,0.0958252,0.0167887,34,70.4864,0.0380828
-0.669891,-0.723344,-0.0327453,3.17316,6.41895,6.21985,6,0.0239129,0.00418957,43,56.4547,0.0151958
-0.64223,0.746024,0.112536,3.14797,6.58158,6.23898,7,0.00827018,0.00144895,53,150.192,0.0556874
0.782353,-0.529831,0.26737,3.30177,6.40788,6.23264,8,0.0396572,0.006948,64,128.866,0.0606026
0.753683,0.542463,0.306539,3.27238,6.52495,6.29774,9,0.0448366,0.00785544,76,84.5859,0.0873117
-0.710844,-0.488155,0.444659,3.18065,6.45882,6.28175,10,0.0819149,0.0143516,89,99.1594,0.0753037
-0.116319,0.729405,0.594872,3.18512,6.57831,6.30486,11,0.0630499,0.0110464,103,92.6838,0.0361458
-0.603342,0.17258,0.761347,3.16554,6.52993,6.33274,12,0.022405,0.00392539,118,160.164,0.0815255
0.414098,-0.28923,0.838923,3.24594,6.47216,6.29238,13,0.0722881,0.012665,134,119.424,0.0453845
-0.261588,-0.210443,0.92027,3.19798,6.49807,6.3349,14,0.0299677,0.00525038,18,98.3817,0.043263
,,,,,,,,,25,66.017,0.0650293
,,,,,,,,,33,85.5139,0.106728
,,,,,,,,,42,50.9374,0.0399026
,,,,,,,,,52,144.832,0.0154775
,,,,,,,,,63,59.0671,0.0596664
,,,,,,,,,75,122.461,0.065345
,,,,,,,,,88,75.124,0.0975069
,,,,,,,,,102,158.792,0.0827677
,,,,,,,,,117,117.853,0.0377812
,,,,,,,,,133,86.3202,0.090346
,,,,,,,,,150,96.4414,0.0479929
,,,,,,,,,32,36.0664,0.0331251
,,,,,,,,,41,161.407,0.0413557
,,,,,,,,,51,149.235,0.0250803
,,,,,,,,,62,112.206,0.0125912
,,,,,,,,,74,59.4771,0.0316749
,,,,,,,,,87,33.8533,0.0332069
,,,,,,,,,101,158.714,0.0398938
,,,,,,,,,116,89.3476,0.0371846
,,,,,,,,,132,131.46,0.0242254
,,,,,,,,,149,82.8045,0.0386407
,,,,,,,,,167,120.209,0.0280526
,,,,,,,,,50,151.464,0.0608134
,,,,,,,,,61,115.652,0.0311186
,,,,,,,,,73,147.683,0.0139501
,,,,,,,,,86,27.6976,0.0419569
,,,,,,,,,100,57.1516,0.0446877
,,,,,,,,,115,126.926,0.0577041
,,,,,,,,,131,113.725,0.0522026
,,,,,,,,,148,135.427,0.0298131
,,,,,,,,,166,66.491,0.0551187
,,,,,,,,,185,106.846,0.0358288
,,,,,,,,,72,37.4162,0.0382745
,,,,,,,,,85,60.0136,0.0152263
,,,,,,,,,99,135.444,0.0560982
,,,,,,,,,114,151.184,0.0610894
,,,,,,,,,130,39.7598,0.0883257
,,,,,,,,,147,93.4381,0.0760568
,,,,,,,,,165,59.3578,0.0363184
,,,,,,,,,184,115.674,0.082409
,,,,,,,,,204,77.0453,0.045657
,,,,,,,,,98,96.6448,0.0122899
,,,,,,,,,113,98.8841,0.0298353
,,,,,,,,,129,160.15,0.0311907
,,,,,,,,,146,31.6475,0.037019
,,,,,,,,,164,120.1,0.0346747
,,,,,,,,,183,74.8469,0.0231344
,,,,,,,,,203,95.6833,0.0359376
,,,,,,,,,224,72.0799,0.0266001
,,,,,,,,,128,153.095,0.0136862
,,,,,,,,,145,92.6532,0.0139646
,,,,,,,,,163,81.4817,0.0150236
,,,,,,,,,182,43.1267,0.0146224
,,,,,,,,,202,51.9949,0.012081
,,,,,,,,,223,113.528,0.0148423
,,,,,,,,,245,83.2209,0.012963
,,,,,,,,,162,66.4163,0.0420881
,,,,,,,,,181,100.805,0.0534418
,,,,,,,,,201,109.993,0.0486896
,,,,,,,,,222,111.806,0.0286332
,,,,,,,,,244,43.1529,0.0512168
,,,,,,,,,267,80.8542,0.0341382
,,,,,,,,,200,134.437,0.0579525
,,,,,,,,,221,58.0799,0.0524058
,,,,,,,,,243,97.6074,0.0298793
,,,,,,,,,266,64.4928,0.0553453
,,,,,,,,,290,91.7476,0.0359244
,,,,,,,,,242,90.5519,0.0712549
,,,,,,,,,265,44.4644,0.0351861
,,,,,,,,,289,76.6194,0.076801
,,,,,,,,,314,42.7528,0.0438817
,,,,,,,,,288,46.0881,0.0330615
,,,,,,,,,313,75.0286,0.0673537
,,,,,,,,,339,62.82,0.0406259
,,,,,,,,,338,69.4622,0.0342077
,,,,,,,,,365,31.7183,0.0256403
,,,,,,,,,392,40.9443,0.0423704
