facetNormals:0,facetNormals:1,facetNormals:2,FacetCenters:0,FacetCenters:1,FacetCenters:2,FacetIds,relFacetSize,absFacetSize,cellPairingIds,interplanarAngles,angleWeights
-0.401765,-0.242168,-0.852114,7.03232,7.68129,7.63442,1,0.0216077,0.00142721,8,61.2994,0.0308799
0.356915,0.395192,-0.813686,7.09108,7.73075,7.67205,2,0.0540917,0.00357281,13,64.491,0.0315651
0.614758,-0.0507863,-0.754525,7.06943,7.71933,7.65297,3,0.0585437,0.00386687,19,51.9236,0.0327875
-0.113256,0.558531,-0.792553,7.08034,7.69696,7.65288,4,0.0679398,0.00448749,26,37.1705,0.0268838
-0.857709,-0.184193,-0.433213,7.00696,7.70205,7.6504,5,0.0355691,0.00234937,34,97.0754,0.0112828
0.604555,0.721769,-0.348984,7.1109,7.75435,7.69825,6,0.00763472,0.000504281,43,121.584,0.02413
0.737444,0.638061,0.0549063,7.1048,7.75748,7.7084,7,0.0273191,0.00180445,53,84.9219,0.0367871
-0.663456,0.710594,0.0126295,7.02104,7.75142,7.70163,8,0.123655,0.00816753,64,75.4576,0.0175549
-0.955172,0.259487,0.0916895,6.99964,7.7236,7.70541,9,0.0147823,0.000976386,76,71.801,0.035335
-0.852646,-0.434876,0.178485,7.01838,7.68683,7.66746,10,0.0968874,0.0063995,89,123.697,0.0228869
-0.337537,0.719935,0.576577,7.06403,7.77024,7.68641,11,0.0243272,0.00160684,103,154.488,0.0341358
0.361733,0.616741,0.648903,7.08468,7.75213,7.74751,12,0.0812377,0.00536583,118,153.977,0.00866831
0.611095,-0.127367,0.745422,7.10472,7.71131,7.68088,13,0.00542165,0.000358105,134,120.675,0.0301184
-0.554454,0.275771,0.749035,7.04784,7.72142,7.74732,14,0.0496901,0.00328208,151,119.673,0.0373366
-0.325826,-0.390096,0.800188,7.07808,7.72841,7.66104,15,0.137234,0.00906447,18,30.8907,0.0562297
,,,,,,,,,25,29.6245,0.06023
,,,,,,,,,33,91.5913,0.0429171
,,,,,,,,,42,36.4941,0.0133808
,,,,,,,,,52,60.293,0.0363032
,,,,,,,,,63,87.9545,0.0752611
,,,,,,,,,75,108.891,0.0232192
,,,,,,,,,88,131.02,0.0694242
,,,,,,,,,102,108.63,0.0335608
,,,,,,,,,117,99.5119,0.0649421
,,,,,,,,,133,117.65,0.00985548
,,,,,,,,,150,137.644,0.0517976
,,,,,,,,,168,178.568,0.0775978
,,,,,,,,,32,58.2934,0.0628927
,,,,,,,,,41,101.559,0.0442521
,,,,,,,,,51,52.3085,0.0135079
,,,,,,,,,62,66.5031,0.0372539
,,,,,,,,,74,118.593,0.0794651
,,,,,,,,,87,133.721,0.0236045
,,,,,,,,,101,132.148,0.072986
,,,,,,,,,116,135.191,0.0343717
,,,,,,,,,132,108.498,0.0680485
,,,,,,,,,149,100.969,0.00992423
,,,,,,,,,167,166.251,0.0537548
,,,,,,,,,186,148.09,0.0820746
,,,,,,,,,50,69.2996,0.0466927
,,,,,,,,,61,51.4201,0.0137269
,,,,,,,,,73,76.0816,0.0389686
,,,,,,,,,86,60.8695,0.0876965
,,,,,,,,,100,79.2832,0.0242815
,,,,,,,,,115,107.625,0.0798716
,,,,,,,,,131,90.9941,0.0358262
,,,,,,,,,148,102.923,0.0739961
,,,,,,,,,166,140.384,0.0100419
,,,,,,,,,185,113.403,0.0573993
,,,,,,,,,205,151.751,0.0908855
,,,,,,,,,72,120.614,0.0125711
,,,,,,,,,85,144.073,0.030903
,,,,,,,,,99,62.9435,0.0552466
,,,,,,,,,114,41.2021,0.0208849
,,,,,,,,,130,39.5904,0.0520351
,,,,,,,,,147,95.5464,0.0288932
,,,,,,,,,165,138.266,0.0494757
,,,,,,,,,184,149.974,0.00940911
,,,,,,,,,204,83.9467,0.0414602
,,,,,,,,,225,89.7118,0.0564954
,,,,,,,,,98,25.2252,0.0119342
,,,,,,,,,113,83.685,0.0143815
,,,,,,,,,129,115.022,0.010069
,,,,,,,,,146,155.788,0.0141541
,,,,,,,,,164,83.3416,0.011622
,,,,,,,,,183,63.184,0.0139577
,,,,,,,,,203,88.9805,0.00634063
,,,,,,,,,224,114.041,0.0132358
,,,,,,,,,246,142.761,0.0144647
,,,,,,,,,128,92.1223,0.0447513
,,,,,,,,,145,123.353,0.0191841
,,,,,,,,,163,160.507,0.0426206
,,,,,,,,,182,75.3818,0.0257365
,,,,,,,,,202,42.4456,0.0408881
,,,,,,,,,223,64.4008,0.00904772
,,,,,,,,,245,101.657,0.0352553
,,,,,,,,,268,118.743,0.0455672
,,,,,,,,,162,32.0372,0.0264077
,,,,,,,,,181,74.1258,0.108647
,,,,,,,,,201,38.9346,0.040656
,,,,,,,,,222,77.2956,0.0980557
,,,,,,,,,244,120.976,0.0103878
,,,,,,,,,267,52.6482,0.0708925
,,,,,,,,,291,93.1673,0.130091
,,,,,,,,,200,42.1142,0.025651
,,,,,,,,,221,54.8499,0.01839
,,,,,,,,,243,97.5425,0.0250131
,,,,,,,,,266,124.571,0.00793355
,,,,,,,,,290,46.1027,0.022786
,,,,,,,,,315,72.4995,0.0266897
,,,,,,,,,242,85.3439,0.0388897
,,,,,,,,,265,119.352,0.0883751
,,,,,,,,,289,110.57,0.0102687
,,,,,,,,,314,59.059,0.0656901
,,,,,,,,,340,50.2427,0.113584
,,,,,,,,,288,42.7799,0.0374421
,,,,,,,,,313,82.065,0.00886714
,,,,,,,,,339,31.075,0.0326632
,,,,,,,,,366,71.8196,0.0413283
,,,,,,,,,338,48.1608,0.0101649
,,,,,,,,,365,60.9563,0.0616632
,,,,,,,,,393,79.8823,0.10206
,,,,,,,,,392,78.7466,0.00977659
,,,,,,,,,421,60.9849,0.0104312
,,,,,,,,,450,43.1225,0.072962
