facetNormals:0,facetNormals:1,facetNormals:2,FacetCenters:0,FacetCenters:1,FacetCenters:2,FacetIds,relFacetSize,absFacetSize,cellPairingIds,interplanarAngles,angleWeights
0.287231,0.113724,-0.884618,6.91583,7.24677,6.76906,1,0.103448,0.0214694,8,51.5417,0.0880255
-0.454999,-0.247231,-0.816424,6.82249,7.21016,6.7693,2,0.0766047,0.0158984,13,37.6228,0.0508738
-0.0808857,0.599511,-0.772075,6.88291,7.27587,6.77162,3,0.033731,0.00700047,19,67.3868,0.0631926
-0.588088,0.580229,-0.512262,6.8349,7.30163,6.78932,4,0.0454905,0.009441,26,48.4673,0.0494132
0.897441,0.0565751,-0.389596,6.96039,7.20265,6.82515,5,0.0324588,0.00673642,34,62.4362,0.0778224
0.359849,-0.759956,-0.447788,6.93752,7.16191,6.79736,6,0.0623719,0.0129445,43,82.9082,0.0890581
-0.605573,-0.618117,-0.400799,6.80217,7.15339,6.82079,7,0.0781826,0.0162258,53,59.0569,0.0401774
0.823796,-0.430634,-0.324032,6.97834,7.22099,6.81503,8,0.0249298,0.00517389,64,83.7107,0.0561473
0.798763,0.496469,0.211328,6.87298,7.18859,6.88426,9,0.0385299,0.00799641,76,113.771,0.0403765
-0.828432,0.477187,0.2103,6.78429,7.28804,6.83616,10,0.0250834,0.00520575,89,88.1817,0.0383465
0.933222,-0.119693,0.254864,6.93632,7.1952,6.86863,11,0.0235353,0.00488447,103,103.533,0.0146761
0.361274,0.785555,0.461182,6.91103,7.24389,6.84284,12,0.00789833,0.0016392,118,101.298,0.0874407
0.500217,-0.801114,0.262873,6.91855,7.11888,6.87502,13,0.0757233,0.0157155,134,145.526,0.10355
-0.709772,-0.234575,0.549525,6.80366,7.1771,6.89638,14,0.103652,0.0215117,151,128.414,0.0254562
-0.337742,0.677884,0.622841,6.81099,7.24798,6.87018,15,0.0145138,0.00301217,18,56.8228,0.0468381
,,,,,,,,,25,54.7535,0.0570831
,,,,,,,,,33,96.3169,0.0455972
,,,,,,,,,42,64.9657,0.0687595
,,,,,,,,,52,34.9635,0.0773856
,,,,,,,,,63,90.2295,0.0376176
,,,,,,,,,75,134.978,0.0512716
,,,,,,,,,88,84.7093,0.0377921
,,,,,,,,,102,129.789,0.0360079
,,,,,,,,,117,140.888,0.0143202
,,,,,,,,,133,104.928,0.0761615
,,,,,,,,,150,94.3289,0.0880992
,,,,,,,,,168,123.44,0.024404
,,,,,,,,,32,33.9485,0.038738
,,,,,,,,,41,74.175,0.0330827
,,,,,,,,,51,98.5539,0.0437837
,,,,,,,,,62,90.7436,0.0471288
,,,,,,,,,74,94.4327,0.0286702
,,,,,,,,,87,85.762,0.0359711
,,,,,,,,,101,78.5428,0.0287715
,,,,,,,,,116,111.089,0.0277256
,,,,,,,,,132,84.8871,0.0127996
,,,,,,,,,149,138.817,0.046672
,,,,,,,,,167,123.896,0.0508984
,,,,,,,,,186,92.8107,0.0202951
,,,,,,,,,50,108.063,0.0378853
,,,,,,,,,61,117.193,0.0526102
,,,,,,,,,73,77.3636,0.0575156
,,,,,,,,,86,126.436,0.0322086
,,,,,,,,,100,108.024,0.0417218
,,,,,,,,,115,46.3894,0.0323365
,,,,,,,,,131,142.211,0.0310212
,,,,,,,,,148,89.5733,0.0134597
,,,,,,,,,166,159.678,0.0568366
,,,,,,,,,185,90.0127,0.0632306
,,,,,,,,,205,73.3638,0.0220065
,,,,,,,,,72,60.8742,0.0426975
,,,,,,,,,85,116.863,0.0458727
,,,,,,,,,99,29.3145,0.0282004
,,,,,,,,,114,45.4586,0.0352347
,,,,,,,,,130,146.333,0.0282984
,,,,,,,,,147,40.0312,0.027286
,,,,,,,,,165,78.6505,0.0127051
,,,,,,,,,184,71.7307,0.0454398
,,,,,,,,,204,161.923,0.0494364
,,,,,,,,,225,121.872,0.0200585
,,,,,,,,,98,61.6571,0.069388
,,,,,,,,,113,34.9364,0.0356218
,,,,,,,,,129,101.59,0.0476341
,,,,,,,,,146,144.05,0.0357782
,,,,,,,,,164,70.3247,0.0341751
,,,,,,,,,183,136.173,0.0140211
,,,,,,,,,203,44.0631,0.0684022
,,,,,,,,,224,111.45,0.0778801
,,,,,,,,,246,168.564,0.0235481
,,,,,,,,,128,96.2876,0.0378049
,,,,,,,,,145,162.21,0.0516203
,,,,,,,,,163,82.4639,0.0379812
,,,,,,,,,182,129.661,0.0361795
,,,,,,,,,202,162.08,0.0143472
,,,,,,,,,223,84.6663,0.0769333
,,,,,,,,,245,66.3753,0.0891336
,,,,,,,,,268,119.757,0.0244827
,,,,,,,,,162,66.6733,0.0302725
,,,,,,,,,181,172.825,0.0250064
,,,,,,,,,201,39.7525,0.0242125
,,,,,,,,,222,101.366,0.011996
,,,,,,,,,244,45.8777,0.0375104
,,,,,,,,,267,136.432,0.0401927
,,,,,,,,,291,143.104,0.0183465
,,,,,,,,,200,113.773,0.0303855
,,,,,,,,,221,38.0562,0.0292213
,,,,,,,,,243,34.7602,0.0131093
,,,,,,,,,266,86.5189,0.0510727
,,,,,,,,,290,129.368,0.0561773
,,,,,,,,,315,77.8837,0.0210851
,,,,,,,,,242,144.479,0.0242847
,,,,,,,,,265,79.6373,0.0120137
,,,,,,,,,289,140.584,0.0376839
,,,,,,,,,314,49.3506,0.040392
,,,,,,,,,340,40.0976,0.018388
,,,,,,,,,288,67.817,0.0118274
,,,,,,,,,313,48.7812,0.0359097
,,,,,,,,,339,123.127,0.0383605
,,,,,,,,,366,104.393,0.0179551
,,,,,,,,,338,109.923,0.0143046
,,,,,,,,,365,101.886,0.0146782
,,,,,,,,,393,43.4379,0.0102297
,,,,,,,,,392,91.4278,0.0875134
,,,,,,,,,421,124.774,0.0243588
,,,,,,,,,450,62.2945,0.0254623
