facetNormals:0,facetNormals:1,facetNormals:2,FacetCenters:0,FacetCenters:1,FacetCenters:2,FacetIds,relFacetSize,absFacetSize,cellPairingIds,interplanarAngles,angleWeights
-0.435663,-0.553284,-0.619307,4.10809,4.10337,6.08651,1,0.0215698,0.00259511,8,69.7967,0.0356259
0.262498,0.218264,-0.866889,4.13121,4.20325,6.08105,2,0.102273,0.0123047,13,118.055,0.0197672
0.127707,0.944678,-0.234639,4.13139,4.22877,6.10104,3,0.0182427,0.00219482,19,103.052,0.0355323
0.931733,-0.137625,-0.203,4.14094,4.10166,6.10724,4,0.100749,0.0121213,26,47.7445,0.0176224
-0.898628,-0.368014,-0.0282719,4.09129,4.06848,6.12159,5,0.0148963,0.00179221,34,134.758,0.0123271
0.117768,0.974632,0.0983962,4.1399,4.17799,6.10876,6,0.00862943,0.00103823,43,55.3294,0.0146698
-0.276956,-0.933123,0.176369,4.08761,4.09388,6.13516,7,0.0111144,0.0013372,53,152.655,0.0253966
0.545136,0.773788,0.237983,4.13464,4.24071,6.13888,8,0.0308742,0.00371454,64,84.9111,0.0309702
0.639791,-0.731645,0.0726621,4.14595,4.13585,6.13264,9,0.0548939,0.00660441,76,73.7249,0.0241481
0.187533,-0.922308,0.275845,4.12042,4.13469,6.12454,10,0.0274264,0.00329974,89,123.807,0.0327984
0.89901,-0.161344,0.329945,4.15362,4.13065,6.15249,11,0.0684113,0.00823072,103,144.23,0.0306975
-0.0439233,0.845406,0.458432,4.13175,4.20285,6.1408,12,0.0532178,0.00640275,118,113.486,0.0313856
0.591355,-0.485913,0.607989,4.13127,4.11928,6.18024,13,0.0575958,0.00692949,134,106.467,0.0327169
-0.689079,0.390727,0.549494,4.10039,4.16004,6.14427,14,0.0677076,0.00814606,151,124.7,0.0311896
-0.382016,0.293717,0.844517,4.09802,4.16773,6.1754,15,0.0562974,0.00677327,169,106.443,0.0270412
-0.0322631,-0.458193,0.843878,4.09753,4.12603,6.1782,16,0.0362318,0.00435913,188,151.963,0.0330373
0.324567,0.192416,0.882155,4.11922,4.15587,6.16816,17,0.0705392,0.00848674,18,61.0227,0.0309625
,,,,,,,,,25,64.2119,0.101505
,,,,,,,,,33,108.801,0.0260049
,,,,,,,,,42,80.0811,0.0159159
,,,,,,,,,52,117.76,0.0200499
,,,,,,,,,63,83.3259,0.0474301
,,,,,,,,,75,93.4559,0.071442
,,,,,,,,,88,115.349,0.0432536
,,,,,,,,,102,95.4066,0.0819833
,,,,,,,,,117,104.49,0.0700073
,,,,,,,,,133,121.651,0.0736917
,,,,,,,,,150,129.551,0.0814759
,,,,,,,,,168,148.003,0.0726202
,,,,,,,,,187,159.787,0.0535077
,,,,,,,,,207,135.495,0.0834925
,,,,,,,,,32,87.7818,0.0308918
,,,,,,,,,41,118.548,0.0164005
,,,,,,,,,51,19.568,0.0117165
,,,,,,,,,62,170.66,0.0138131
,,,,,,,,,74,38.9873,0.0229342
,,,,,,,,,87,130.903,0.0273847
,,,,,,,,,101,161.308,0.0219112
,,,,,,,,,116,96.9296,0.0288044
,,,,,,,,,132,43.5086,0.0271713
,,,,,,,,,149,123.251,0.027709
,,,,,,,,,167,80.7474,0.0287415
,,,,,,,,,186,88.1675,0.0275561
,,,,,,,,,206,132.314,0.024267
,,,,,,,,,227,89.0126,0.0289885
,,,,,,,,,50,146.543,0.025955
,,,,,,,,,61,92.6759,0.0158972
,,,,,,,,,73,99.9959,0.0200202
,,,,,,,,,86,67.9434,0.0472643
,,,,,,,,,100,43.4197,0.0710665
,,,,,,,,,115,74.9311,0.0431157
,,,,,,,,,131,32.0723,0.0814891
,,,,,,,,,148,105.658,0.0696466
,,,,,,,,,166,58.3313,0.0732921
,,,,,,,,,185,150.365,0.0809878
,,,,,,,,,205,127.308,0.0722322
,,,,,,,,,226,98.5929,0.0532967
,,,,,,,,,248,83.9861,0.08298
,,,,,,,,,72,119.178,0.0109282
,,,,,,,,,85,52.3283,0.0127304
,,,,,,,,,99,145.497,0.0200964
,,,,,,,,,114,108.966,0.0234335
,,,,,,,,,130,80.1435,0.0193065
,,,,,,,,,147,143.442,0.0244653
,,,,,,,,,165,107.717,0.023277
,,,,,,,,,184,112.917,0.0236705
,,,,,,,,,204,60.591,0.0244199
,,,,,,,,,225,77.0724,0.0235589
,,,,,,,,,247,79.2714,0.0211124
,,,,,,,,,270,114.56,0.024598
,,,,,,,,,98,161.345,0.00971553
,,,,,,,,,113,29.0541,0.0134887
,,,,,,,,,129,130.977,0.0149143
,,,,,,,,,146,151.411,0.0131282
,,,,,,,,,164,91.1309,0.0153257
,,,,,,,,,183,24.5618,0.0148508
,,,,,,,,,203,110.905,0.01501
,,,,,,,,,224,68.1683,0.0153079
,,,,,,,,,246,70.2374,0.014965
,,,,,,,,,269,112.799,0.013939
,,,,,,,,,293,70.7205,0.0153776
,,,,,,,,,128,149.404,0.0163448
,,,,,,,,,145,57.4777,0.0184859
,,,,,,,,,163,27.9097,0.0158184
,,,,,,,,,182,92.4008,0.0191221
,,,,,,,,,202,136.945,0.0183884
,,,,,,,,,223,65.7674,0.0186331
,,,,,,,,,245,94.6214,0.0190944
,,,,,,,,,268,91.1513,0.0185638
,,,,,,,,,292,51.9859,0.0170106
,,,,,,,,,317,96.8897,0.0192031
,,,,,,,,,162,102.142,0.0395206
,,,,,,,,,181,124.763,0.0290484
,,,,,,,,,201,62.0834,0.0425468
,,,,,,,,,222,38.1076,0.0390776
,,,,,,,,,244,84.5224,0.0401994
,,,,,,,,,267,86.4984,0.0424098
,,,,,,,,,291,76.595,0.0398785
,,,,,,,,,316,100.526,0.0333391
,,,,,,,,,342,55.1008,0.0429497
,,,,,,,,,200,31.5237,0.0365777
,,,,,,,,,221,40.7354,0.0609116
,,,,,,,,,243,130.819,0.0540428
,,,,,,,,,266,35.2464,0.0562124
,,,,,,,,,290,136.966,0.0606311
,,,,,,,,,315,114.83,0.0555868
,,,,,,,,,341,66.3321,0.0436519
,,,,,,,,,368,81.9487,0.0617408
,,,,,,,,,242,64.6086,0.0391553
,,,,,,,,,265,134.476,0.0361979
,,,,,,,,,289,40.7035,0.0371585
,,,,,,,,,314,110.946,0.0390392
,,,,,,,,,340,96.5985,0.0368841
,,,,,,,,,367,46.443,0.0312201
,,,,,,,,,395,82.2597,0.0394963
,,,,,,,,,288,91.5097,0.0598656
,,,,,,,,,313,31.3552,0.0625394
,,,,,,,,,339,122.368,0.0680576
,,,,,,,,,366,96.8231,0.061766
,,,,,,,,,394,69.7233,0.0473736
,,,,,,,,,423,53.6859,0.069459
,,,,,,,,,338,99.6687,0.0553203
,,,,,,,,,365,48.7053,0.0595946
,,,,,,,,,393,45.8296,0.0547143
,,,,,,,,,422,89.9431,0.043112
,,,,,,,,,452,53.2374,0.0606663
,,,,,,,,,392,106.222,0.0622437
,,,,,,,,,421,81.2349,0.0569392
,,,,,,,,,451,40.2648,0.0444816
,,,,,,,,,482,47.4026,0.0634138
,,,,,,,,,450,26.0647,0.0614776
,,,,,,,,,481,70.65,0.0472038
,,,,,,,,,513,68.6824,0.0690944
,,,,,,,,,512,50.8019,0.0440889
,,,,,,,,,545,43.4274,0.0626188
,,,,,,,,,578,45.5286,0.0478737
