facetNormals:0,facetNormals:1,facetNormals:2,FacetCenters:0,FacetCenters:1,FacetCenters:2,FacetIds,relFacetSize,absFacetSize,cellPairingIds,interplanarAngles,angleWeights
-0.76217,0.325883,-0.538092,5.17955,5.92856,5.39372,1,0.0203649,0.0030561,8,28.4788,0.0284469
-0.809086,-0.151092,-0.501102,5.1721,5.88083,5.42628,2,0.0471645,0.00707784,13,121.343,0.0161758
0.930674,0.139202,-0.292513,5.31191,5.96476,5.45948,3,0.0134161,0.00201331,19,85.3241,0.0209137
0.419442,0.840798,-0.229719,5.29647,6.01747,5.41258,4,0.0214928,0.00322536,26,30.0258,0.0197337
-0.968611,0.175293,-0.0942517,5.21932,5.89066,5.43768,5,0.0191404,0.00287234,34,38.4629,0.0362298
-0.59832,0.743642,-0.0794793,5.22686,5.97637,5.43879,6,0.163958,0.0246047,43,126.04,0.0198791
0.849289,0.462183,0.131337,5.32348,5.98323,5.45439,7,0.0194159,0.00291368,53,157.189,0.0274311
0.779322,-0.54137,0.215709,5.29236,5.87588,5.49452,8,0.0420062,0.00630374,64,67.2003,0.03306
-0.799307,-0.429339,0.20943,5.18415,5.86021,5.4622,9,0.0877805,0.013173,76,63.7574,0.0341882
-0.629662,0.572633,0.45495,5.19386,5.94898,5.49105,10,0.106431,0.0159718,89,98.3813,0.0191836
0.0244742,0.719512,0.663112,5.25921,5.97776,5.52192,11,0.0181317,0.00272097,103,134.351,0.0344385
0.127533,-0.720814,0.589392,5.2355,5.84563,5.50873,12,0.111475,0.0167287,118,127.529,0.0298108
0.421152,0.440973,0.76519,5.27856,5.95711,5.52578,13,0.0555992,0.00834361,18,131.358,0.02089
,,,,,,,,,25,112.141,0.0295292
,,,,,,,,,33,32.411,0.0272302
,,,,,,,,,42,63.5167,0.0732561
,,,,,,,,,52,151.051,0.0275078
,,,,,,,,,63,134.465,0.0444361
,,,,,,,,,75,47.4627,0.0613602
,,,,,,,,,88,77.8988,0.0653635
,,,,,,,,,102,119.246,0.0261937
,,,,,,,,,117,108.651,0.0662845
,,,,,,,,,133,147.009,0.0510357
,,,,,,,,,32,52.9287,0.0165201
,,,,,,,,,41,150.664,0.015775
,,,,,,,,,51,117.108,0.0248027
,,,,,,,,,62,31.9025,0.0158678
,,,,,,,,,74,52.2687,0.0203369
,,,,,,,,,87,160.488,0.0232749
,,,,,,,,,101,132.245,0.0238285
,,,,,,,,,116,94.2234,0.0154215
,,,,,,,,,132,99.5752,0.0239498
,,,,,,,,,149,76.2294,0.0216162
,,,,,,,,,50,104.361,0.0202485
,,,,,,,,,61,64.9301,0.0380038
,,,,,,,,,73,40.7852,0.0204016
,,,,,,,,,86,100.892,0.0284361
,,,,,,,,,100,145.732,0.0345308
,,,,,,,,,115,83.0564,0.0357635
,,,,,,,,,131,60.7297,0.0196697
,,,,,,,,,148,139.182,0.0360374
,,,,,,,,,166,66.879,0.0310015
,,,,,,,,,72,40.7582,0.034279
,,,,,,,,,85,141.391,0.0192771
,,,,,,,,,99,154.717,0.0262979
,,,,,,,,,114,42.4685,0.0314279
,,,,,,,,,130,45.625,0.0324457
,,,,,,,,,147,87.6361,0.0186224
,,,,,,,,,165,109.188,0.0326711
,,,,,,,,,184,114.599,0.0284773
,,,,,,,,,98,100.785,0.0347202
,,,,,,,,,113,161.924,0.0668781
,,,,,,,,,129,80.8174,0.114343
,,,,,,,,,146,33.9858,0.129075
,,,,,,,,,164,60.0711,0.0326525
,,,,,,,,,183,137.083,0.132716
,,,,,,,,,203,89.0752,0.0830393
,,,,,,,,,128,62.3956,0.0265568
,,,,,,,,,145,159.265,0.0317984
,,,,,,,,,163,102.907,0.0328407
,,,,,,,,,182,62.5395,0.0187518
,,,,,,,,,202,99.2512,0.0330716
,,,,,,,,,223,46.1028,0.0287811
,,,,,,,,,162,112.4,0.0568213
,,,,,,,,,181,138.428,0.0602377
,,,,,,,,,201,103.813,0.0253299
,,,,,,,,,222,47.593,0.0610191
,,,,,,,,,244,74.4941,0.0478562
,,,,,,,,,200,66.8899,0.0962103
,,,,,,,,,221,102.007,0.0300553
,,,,,,,,,243,67.7775,0.098219
,,,,,,,,,266,113.665,0.0680784
,,,,,,,,,242,42.3326,0.0309848
,,,,,,,,,265,104.359,0.108895
,,,,,,,,,289,69.1908,0.0730417
,,,,,,,,,288,97.7901,0.0311903
,,,,,,,,,313,29.3198,0.0273456
,,,,,,,,,338,78.2759,0.0741937
