"cellPairingIds","interplanarAngles","angleWeights"
8,29.1465,0.0410963
13,57.6396,0.0408252
19,34.7373,0.0429962
76,70.5361,0.0441243
89,82.9564,0.0492507
18,37.8958,0.0672399
25,51.48,0.0733388
33,53.2068,0.0293279
52,63.1784,0.032492
117,72.754,0.0570577
41,37.2093,0.0291895
74,37.7161,0.040028
116,74.6881,0.0922225
206,92.8515,0.0161883
61,30.0948,0.0560735
73,47.7793,0.0336682
100,32.9302,0.0682519
115,62.3149,0.0835736
165,37.3157,0.0270909
247,62.7635,0.012346
98,41.7007,0.0285917
129,20.9134,0.0501877
269,123.893,0.0151953
293,46.3218,0.0269706
202,51.4345,0.0297686
292,93.7755,0.0128737
201,42.6156,0.0480951
291,52.0761,0.0240983
316,88.1036,0.0139428
200,39.7288,0.0711391
266,55.1908,0.0400368
368,48.7618,0.0295026
242,64.9995,0.110964
289,24.9843,0.0448613
314,35.5378,0.0407581
340,78.7411,0.0336513
366,30.0139,0.0365529
422,49.4827,0.0155215
392,23.4397,0.0282047
421,65.1761,0.0246084
451,120.207,0.014112
482,55.8041,0.0237365
514,35.5654,0.0200854
450,44.1086,0.0233205
512,83.6689,0.0127735
578,93.3425,0.0125345
613,88.6578,0.0114367
648,34.9479,0.0170342
