Q	U	V
{$V$}	{[mm$^3$]}	0.00792621
{$d_v$}	{[mm]}	0.247375
{$S_c$}	{[mm$^2$]}	0.349261
{$S_o$}	{[mm$^2$]}	0.191708
{$S_l/S_o$}	[]	0.821838
{$\Psi$}	[]	0.550441
{$\eta$}	[]	0.621197
{med($\theta_e$)}	{[$^\circ$]}	67.7061
{$\Upsilon$}	[]	13
{$\Xi$}	[]	4
