"cellPairingIds","interplanarAngles","angleWeights"
8,25.9263,0.0403018
19,70.4829,0.0386349
26,91.7901,0.050549
34,42.9578,0.0760973
43,85.4457,0.0454031
53,86.5353,0.0472439
76,90.7766,0.0763445
18,46.9419,0.0300848
33,95.0027,0.0336115
42,22.0487,0.0432713
41,65.812,0.0354492
51,53.5343,0.0463657
87,69.3939,0.0431888
50,38.3202,0.0324441
73,34.6612,0.030244
85,64.7969,0.0370866
114,64.1318,0.0508479
147,84.09,0.0541359
129,111.074,0.0767768
146,72.2326,0.087752
203,123.066,0.0412103
128,49.23,0.0352761
182,69.0194,0.0482762
181,60.3834,0.0514895
201,71.4531,0.0503627
222,48.5436,0.0533223
221,64.9339,0.0745336
266,64.0674,0.0386814
265,36.7694,0.0935835
289,64.2425,0.0412827
288,54.7236,0.0899266
313,35.9731,0.0405552
338,37.1187,0.0424526
