facetNormals:0,facetNormals:1,facetNormals:2,FacetCenters:0,FacetCenters:1,FacetCenters:2,FacetIds,relFacetSize,absFacetSize,cellPairingIds,interplanarAngles,angleWeights
0.141265,-0.220634,-0.92664,6.92871,6.14692,6.60454,1,0.0400072,0.00291625,8,37.9808,0.0223612
0.322866,-0.730672,-0.590502,6.9263,6.09379,6.61646,2,0.015517,0.00113109,13,52.6731,0.0634119
0.823211,-0.180842,-0.426737,6.95209,6.15344,6.6248,3,0.152804,0.0111384,19,67.7913,0.0662223
-0.596105,-0.704309,-0.304891,6.866,6.10298,6.65252,4,0.192093,0.0140022,26,93.233,0.0197403
-0.495093,0.791226,-0.207827,6.86026,6.16415,6.6163,5,0.0131027,0.000955098,34,71.658,0.0124395
0.281188,-0.948023,-0.0552885,6.81038,6.13915,6.64267,6,0.00736474,0.000536839,43,97.6435,0.0168357
0.886075,0.380373,0.180101,6.96576,6.22045,6.67817,7,0.010661,0.000777114,53,95.5844,0.0220586
0.192955,-0.898086,0.342386,6.86662,6.09817,6.67328,8,0.0152271,0.00110995,64,108.537,0.0281911
-0.837888,-0.434043,0.303049,6.82512,6.13926,6.70201,9,0.0217633,0.0015864,76,120.961,0.0416558
-0.473949,-0.609612,0.593594,6.83963,6.12735,6.71692,10,0.0434461,0.00316692,89,167.245,0.0160301
-0.215191,0.416192,0.86662,6.91366,6.11167,6.70824,11,0.0100231,0.000730614,103,134.325,0.0668775
0.519297,-0.0935899,0.793213,6.92629,6.14951,6.70437,12,0.203668,0.014846,118,144.972,0.0310403
-0.0367122,-0.357769,0.920867,6.86661,6.13286,6.72596,13,0.025357,0.00184835,134,161.391,0.0170232
-0.321616,-0.0397969,0.935605,6.89327,6.11272,6.69506,14,0.0108118,0.000788108,18,46.1696,0.0281731
,,,,,,,,,25,58.6529,0.0287146
,,,,,,,,,33,130.369,0.014208
,,,,,,,,,42,33.9491,0.00998864
,,,,,,,,,52,95.7835,0.0126386
,,,,,,,,,63,57.9811,0.0153707
,,,,,,,,,75,97.7245,0.0181169
,,,,,,,,,88,93.4435,0.022867
,,,,,,,,,102,154.774,0.0121792
,,,,,,,,,117,104.212,0.0288371
,,,,,,,,,133,107.433,0.0192526
,,,,,,,,,150,129.621,0.012744
,,,,,,,,,32,104.718,0.170211
,,,,,,,,,41,120.757,0.0241358
,,,,,,,,,51,62.8801,0.0140522
,,,,,,,,,62,50.9534,0.0199314
,,,,,,,,,74,79.0987,0.0276945
,,,,,,,,,87,142.276,0.0381002
,,,,,,,,,101,125.417,0.067656
,,,,,,,,,116,131.956,0.0188122
,,,,,,,,,132,83.2412,0.174608
,,,,,,,,,149,112.572,0.0434961
,,,,,,,,,167,134.602,0.0201948
,,,,,,,,,50,102.352,0.0245321
,,,,,,,,,61,57.5125,0.0141856
,,,,,,,,,73,153.219,0.0202009
,,,,,,,,,86,64.3004,0.0282175
,,,,,,,,,100,42.2638,0.0390971
,,,,,,,,,115,55.8806,0.0708646
,,,,,,,,,131,116.627,0.0190521
,,,,,,,,,148,121.627,0.197711
,,,,,,,,,166,90.4115,0.0448002
,,,,,,,,,185,93.904,0.0204714
,,,,,,,,,72,157.961,0.00942942
,,,,,,,,,85,100.762,0.0117564
,,,,,,,,,99,159.369,0.0140853
,,,,,,,,,114,89.4907,0.0163574
,,,,,,,,,130,113.479,0.0201335
,,,,,,,,,147,74.2482,0.0113578
,,,,,,,,,165,122.989,0.0246215
,,,,,,,,,184,118.86,0.0172776
,,,,,,,,,204,94.0399,0.0118475
,,,,,,,,,98,97.1788,0.00871149
,,,,,,,,,113,24.0323,0.00992781
,,,,,,,,,129,80.6706,0.0110053
,,,,,,,,,146,64.7258,0.0125945
,,,,,,,,,164,121.032,0.0084907
,,,,,,,,,183,78.3277,0.0142154
,,,,,,,,,203,73.5088,0.0114143
,,,,,,,,,224,96.1135,0.00876142
,,,,,,,,,128,96.5067,0.0125414
,,,,,,,,,145,151.321,0.0143114
,,,,,,,,,163,124.776,0.0171208
,,,,,,,,,182,82.6451,0.0103322
,,,,,,,,,202,52.6167,0.0202614
,,,,,,,,,223,90.1634,0.0150109
,,,,,,,,,245,97.7877,0.0107359
,,,,,,,,,162,70.0259,0.0179178
,,,,,,,,,181,46.3314,0.0225507
,,,,,,,,,201,97.0527,0.0120888
,,,,,,,,,222,60.7853,0.0283358
,,,,,,,,,244,49.4918,0.0190279
,,,,,,,,,267,72.3674,0.0126451
,,,,,,,,,200,29.3252,0.0289998
,,,,,,,,,221,74.4174,0.0137251
,,,,,,,,,243,99.3935,0.0393245
,,,,,,,,,266,61.6603,0.0234231
,,,,,,,,,290,54.4696,0.0144467
,,,,,,,,,242,67.7904,0.0162884
,,,,,,,,,265,72.3213,0.0716154
,,,,,,,,,289,35.6804,0.0320237
,,,,,,,,,314,40.6139,0.0173148
,,,,,,,,,288,55.1206,0.0191059
,,,,,,,,,313,47.5753,0.0143671
,,,,,,,,,339,27.7253,0.0104025
,,,,,,,,,338,37.7337,0.0450991
,,,,,,,,,365,52.1468,0.0205336
,,,,,,,,,392,24.9354,0.0151598
