"cellPairingIds","interplanarAngles","angleWeights"
8,24.679,0.0504452
13,61.7198,0.0887551
19,53.4476,0.0293694
26,65.9405,0.0848326
34,94.5193,0.066069
25,51.6591,0.0252388
33,72.2776,0.0576023
75,108.375,0.0543172
41,85.5119,0.113586
51,58.8744,0.0822931
62,86.2809,0.0623899
74,54.805,0.0469814
61,52.2547,0.0286256
100,62.1184,0.030641
85,46.9173,0.0604259
114,177.833,0.0963871
147,87.234,0.0651941
113,28.6812,0.0397555
129,37.713,0.0728725
146,43.5319,0.0393209
128,94.7023,0.0344468
163,87.547,0.03412
182,40.6038,0.0443201
181,22.5362,0.0289309
200,48.4664,0.0432266
221,92.0626,0.0610174
243,64.0161,0.0827396
242,51.6925,0.0355899
265,24.3744,0.0420252
288,29.0517,0.0586507
