Q	U	V
{$V$}	{[mm$^3$]}	0.0051832
{$d_v$}	{[mm]}	0.214717
{$S_c$}	{[mm$^2$]}	0.216679
{$S_o$}	{[mm$^2$]}	0.157333
{$S_l/S_o$}	[]	0.377200
{$\Psi$}	[]	0.668445
{$\eta$}	[]	0.708864
{med($\theta_e$)}	{[$^\circ$]}	64.68065
{$\Upsilon$}	[]	13
{$\Xi$}	[]	9
