facetNormals:0,facetNormals:1,facetNormals:2,FacetCenters:0,FacetCenters:1,FacetCenters:2,FacetIds,relFacetSize,absFacetSize,cellPairingIds,interplanarAngles,angleWeights
0.158712,-0.241896,-0.894768,3.07419,4.70441,6.32238,1,0.108122,0.0251496,8,44.6867,0.0462063
0.50587,0.380131,-0.741285,3.12681,4.74264,6.34269,2,0.0293812,0.00683422,13,54.993,0.0465162
-0.613488,0.140103,-0.725929,3.00363,4.71085,6.35072,3,0.0296324,0.00689263,19,47.1628,0.050111
0.732053,-0.448136,-0.437381,3.07813,4.69632,6.34195,4,0.0326131,0.00758596,26,68.9106,0.143343
-0.160706,-0.848473,-0.129336,3.03812,4.65324,6.40918,5,0.2126,0.0494518,34,90.5574,0.0733715
-0.954087,0.0213364,-0.1651,2.93425,4.72516,6.36577,6,0.0555257,0.0129155,43,100.164,0.129885
0.0802832,0.900991,-0.0611939,3.06691,4.77479,6.4028,7,0.162617,0.0378254,53,120.101,0.102153
-0.816232,0.417467,0.242172,2.95935,4.72205,6.47298,8,0.0968088,0.0225182,64,124.177,0.0442149
0.264527,0.865945,0.396356,3.04763,4.78036,6.41288,9,0.0277895,0.00646398,76,141.175,0.0323641
-0.0773873,0.800327,0.583202,3.00803,4.77002,6.44308,10,0.0190302,0.00442653,18,72.5341,0.0295063
,,,,,,,,,25,56.0612,0.0309129
,,,,,,,,,33,111.214,0.0516276
,,,,,,,,,42,111.905,0.0384283
,,,,,,,,,52,60.9942,0.0497701
,,,,,,,,,63,117.99,0.0450806
,,,,,,,,,75,79.8855,0.0285632
,,,,,,,,,88,99.9477,0.0230992
,,,,,,,,,32,102.124,0.0310514
,,,,,,,,,41,84.9662,0.0520149
,,,,,,,,,51,40.4392,0.0386424
,,,,,,,,,62,81.988,0.0501299
,,,,,,,,,74,65.1084,0.0453756
,,,,,,,,,87,110.252,0.0286814
,,,,,,,,,101,106.045,0.0231764
,,,,,,,,,50,67.7027,0.0565512
,,,,,,,,,61,132.957,0.0410912
,,,,,,,,,73,111.368,0.0543302
,,,,,,,,,86,167.129,0.0487898
,,,,,,,,,100,112.721,0.0300087
,,,,,,,,,115,134.475,0.0240354
,,,,,,,,,72,79.3302,0.088054
,,,,,,,,,85,166.398,0.184279
,,,,,,,,,99,107.89,0.133038
,,,,,,,,,114,163.732,0.049154
,,,,,,,,,130,148.82,0.0349335
,,,,,,,,,98,93.086,0.0827845
,,,,,,,,,113,35.4979,0.0705733
,,,,,,,,,129,108.222,0.0370408
,,,,,,,,,146,90.3202,0.0283456
,,,,,,,,,128,69.8759,0.121366
,,,,,,,,,145,29.8544,0.0474674
,,,,,,,,,163,41.0453,0.0340731
,,,,,,,,,162,75.0634,0.0431831
,,,,,,,,,181,55.1284,0.0318078
,,,,,,,,,200,23.0005,0.0225905
