"cellPairingIds","interplanarAngles","angleWeights"
8,76.4612,0.0160291
19,29.6203,0.0207309
43,65.643,0.0549823
18,42.2244,0.0135443
25,85.7302,0.0126026
33,115.53,0.0190659
52,132.774,0.0202844
75,67.5204,0.0169542
150,72.1435,0.0182155
41,84.8554,0.030503
51,32.1209,0.0262636
132,55.6047,0.0232043
167,101.606,0.0283832
73,75.2216,0.0284496
100,48.8387,0.022305
131,51.6417,0.0218425
226,60.198,0.0255031
72,64.2015,0.0599031
85,31.9474,0.121196
99,47.8627,0.0228593
130,35.7704,0.0298511
113,32.3567,0.0203925
183,42.801,0.0370297
203,45.0148,0.0267432
163,48.0534,0.0329501
182,54.7302,0.0635614
268,47.4582,0.0317569
181,32.0111,0.0151875
244,25.8533,0.0155171
290,33.2921,0.0490611
341,54.4837,0.0530652
289,42.2033,0.0184506
340,55.2116,0.017625
424,46.8252,0.0247845
366,31.7066,0.0237408
394,31.1137,0.0505205
338,32.4921,0.0235779
365,83.8133,0.0413875
452,40.2332,0.0388534
482,53.7325,0.0276816
514,48.9332,0.0256746
547,38.2213,0.0137804
481,58.1328,0.0677478
513,53.5397,0.0559457
512,47.5649,0.0281292
579,37.7458,0.0241034
578,77.918,0.0612127
613,64.1433,0.0521912
648,55.2188,0.044895
685,25.2456,0.0178916
722,31.8702,0.0170311
