facetNormals:0,facetNormals:1,facetNormals:2,FacetCenters:0,FacetCenters:1,FacetCenters:2,FacetIds,relFacetSize,absFacetSize,cellPairingIds,interplanarAngles,angleWeights
-0.473081,-0.298996,-0.819154,4.76876,6.08339,7.75045,1,0.0555054,0.00636188,8,79.9405,0.0289598
0.472073,0.461654,-0.634919,4.87741,6.11893,7.77742,2,0.0195906,0.00224542,13,25.1605,0.0596407
-0.642847,-0.531189,-0.501622,4.70782,6.08449,7.79869,3,0.0644417,0.00738613,19,62.4832,0.0652759
0.451024,-0.665747,-0.568515,4.87623,6.06899,7.76255,4,0.079221,0.00908009,26,59.8853,0.032955
0.0192794,-0.941112,-0.261225,4.80787,6.04875,7.7952,5,0.0234343,0.00268598,34,89.6433,0.0391656
-0.543277,0.80589,0.0122728,4.70057,6.1634,7.90843,6,0.0302582,0.00346811,43,73.1363,0.0471338
-0.897414,0.398791,0.0275585,4.68591,6.13505,7.86669,7,0.0409565,0.00469432,53,112.707,0.0918986
0.239743,-0.737226,0.584536,4.82591,6.08911,7.87877,8,0.266889,0.0305901,64,151.37,0.047896
0.7356,-0.061987,0.628224,4.90204,6.15453,7.89289,9,0.0421214,0.00482784,76,152.471,0.0627473
0.0601375,0.129201,0.953161,4.79167,6.17294,7.94894,10,0.0721625,0.00827106,18,104.966,0.0300468
,,,,,,,,,25,72.8152,0.031413
,,,,,,,,,33,106.858,0.0213407
,,,,,,,,,42,83.047,0.0237829
,,,,,,,,,52,106.596,0.0265037
,,,,,,,,,63,132.277,0.0365017
,,,,,,,,,75,95.1841,0.026743
,,,,,,,,,88,125.858,0.0308154
,,,,,,,,,32,68.6521,0.0710711
,,,,,,,,,41,49.4092,0.0343699
,,,,,,,,,51,95.1552,0.0411804
,,,,,,,,,62,68.4453,0.0500826
,,,,,,,,,74,93.3813,0.103816
,,,,,,,,,87,143.173,0.050944
,,,,,,,,,101,128.622,0.0680839
,,,,,,,,,50,35.4454,0.0361694
,,,,,,,,,61,145.464,0.0437907
,,,,,,,,,73,135.15,0.053997
,,,,,,,,,86,73.8089,0.122176
,,,,,,,,,100,89.0465,0.0549997
,,,,,,,,,115,129.271,0.0755272
,,,,,,,,,72,144.406,0.0264126
,,,,,,,,,85,114.62,0.0298113
,,,,,,,,,99,54.8729,0.0430855
,,,,,,,,,114,95.5504,0.0301144
,,,,,,,,,130,113.103,0.0353794
,,,,,,,,,98,32.0606,0.0348037
,,,,,,,,,113,139.462,0.054354
,,,,,,,,,129,117.969,0.0352176
,,,,,,,,,146,84.9076,0.042638
,,,,,,,,,128,121.125,0.0710151
,,,,,,,,,145,134.506,0.0415308
,,,,,,,,,163,88.5582,0.0522551
,,,,,,,,,162,51.2349,0.0727596
,,,,,,,,,181,59.3996,0.113607
,,,,,,,,,200,47.1758,0.0531936
