facetNormals:0,facetNormals:1,facetNormals:2,FacetCenters:0,FacetCenters:1,FacetCenters:2,FacetIds,relFacetSize,absFacetSize,cellPairingIds,interplanarAngles,angleWeights
0.310683,0.457597,-0.798944,3.14176,4.08138,8.13998,1,0.0159529,0.0028665,8,74.7792,0.0289402
0.723656,-0.551859,-0.345507,3.13219,3.97424,8.17003,2,0.155677,0.0279728,13,53.1447,0.0209161
0.893076,0.315304,-0.174687,3.16447,4.0857,8.19455,3,0.0303621,0.0054556,19,107.121,0.01895
-0.964559,-0.0980712,-0.0828532,3.1212,4.06431,8.1668,4,0.0233336,0.00419269,26,61.4457,0.0287042
0.0973347,0.954595,0.0265449,3.10912,4.12248,8.20604,5,0.143025,0.0256993,34,125.653,0.0230337
0.0958575,-0.95791,0.183373,3.08829,3.9322,8.23304,6,0.0414163,0.00744189,43,136.968,0.0245338
-0.703058,-0.632274,0.229512,3.05281,3.96662,8.23476,7,0.0530903,0.00953952,53,135.424,0.0202439
-0.350255,-0.898198,0.202882,3.04872,3.91935,8.19923,8,0.0276926,0.00497594,64,100.38,0.0265315
-0.700471,0.604524,0.286088,3.0459,4.08459,8.25624,9,0.0787535,0.0141508,76,135.14,0.015765
-0.86676,-0.0871619,0.46389,3.03458,4.02074,8.26084,10,0.0155815,0.00279975,89,116.999,0.0274098
0.659253,-0.285725,0.614855,3.14997,4.01084,8.28407,11,0.0972544,0.0174751,103,125.117,0.0217415
-0.224076,0.426285,0.825962,3.09325,4.06745,8.29822,12,0.0341229,0.00613137,118,169.424,0.0249911
-0.299969,-0.29295,0.867123,3.08194,4.01171,8.3034,13,0.0576563,0.01036,18,55.3795,0.0508138
,,,,,,,,,25,130.507,0.0405842
,,,,,,,,,33,119.881,0.149083
,,,,,,,,,42,55.9143,0.0654266
,,,,,,,,,52,104.624,0.0791785
,,,,,,,,,63,79.6611,0.0470209
,,,,,,,,,75,175.126,0.104595
,,,,,,,,,88,140.32,0.0283277
,,,,,,,,,102,62.693,0.119718
,,,,,,,,,117,137.189,0.0559763
,,,,,,,,,133,112.249,0.0841477
,,,,,,,,,32,159.515,0.0263878
,,,,,,,,,41,65.5064,0.0500906
,,,,,,,,,51,105.263,0.035038
,,,,,,,,,62,157.755,0.0386312
,,,,,,,,,74,131.722,0.0289659
,,,,,,,,,87,121.327,0.0438273
,,,,,,,,,101,158.211,0.0205942
,,,,,,,,,116,64.5575,0.0462768
,,,,,,,,,132,103.182,0.0321328
,,,,,,,,,149,123.482,0.0397772
,,,,,,,,,50,101.718,0.0401216
,,,,,,,,,61,90.8238,0.02985
,,,,,,,,,73,40.3896,0.0324189
,,,,,,,,,86,64.7376,0.0253269
,,,,,,,,,100,51.0323,0.0360007
,,,,,,,,,115,32.9205,0.0186854
,,,,,,,,,131,135.72,0.0376372
,,,,,,,,,148,83.4644,0.0277152
,,,,,,,,,166,74.7688,0.0332221
,,,,,,,,,72,163.127,0.0642325
,,,,,,,,,85,135.476,0.0774364
,,,,,,,,,99,159.555,0.046401
,,,,,,,,,114,56.2499,0.101576
,,,,,,,,,130,99.4321,0.0281015
,,,,,,,,,147,102.228,0.11578
,,,,,,,,,165,63.672,0.0551
,,,,,,,,,184,108.008,0.0821829
,,,,,,,,,98,52.5097,0.0465323
,,,,,,,,,113,26.5037,0.0331918
,,,,,,,,,129,128.726,0.0542845
,,,,,,,,,146,84.9301,0.0226439
,,,,,,,,,164,60.9762,0.0580933
,,,,,,,,,183,107.282,0.0374175
,,,,,,,,,203,64.1965,0.0482053
,,,,,,,,,128,26.1167,0.036399
,,,,,,,,,145,79.2414,0.0634242
,,,,,,,,,163,36.5987,0.0240921
,,,,,,,,,182,98.8599,0.0686857
,,,,,,,,,202,85.2166,0.0415441
,,,,,,,,,223,50.5776,0.0552792
,,,,,,,,,162,104.543,0.0409764
,,,,,,,,,181,60.6899,0.0199423
,,,,,,,,,201,80.7054,0.0431099
,,,,,,,,,222,98.3526,0.0305733
,,,,,,,,,244,55.0115,0.0374147
,,,,,,,,,200,44.0355,0.0260157
,,,,,,,,,221,120.049,0.0870316
,,,,,,,,,243,45.332,0.0476149
,,,,,,,,,266,72.4617,0.0665734
,,,,,,,,,242,106.257,0.0268597
,,,,,,,,,265,55.0758,0.0213939
,,,,,,,,,289,43.6536,0.024533
,,,,,,,,,288,74.7172,0.0505202
,,,,,,,,,313,62.605,0.0723943
,,,,,,,,,338,44.3475,0.0428725
