"cellPairingIds","interplanarAngles","angleWeights"
8,57.6478,0.0177788
26,40.0793,0.065752
43,56.81,0.0461346
25,76.5578,0.018359
33,94.1036,0.0200915
42,103.957,0.0175301
52,110.203,0.0177812
63,79.1473,0.0192159
117,107.634,0.0176505
168,105.694,0.0177088
61,41.9774,0.0483012
86,37.6652,0.0636987
115,43.7871,0.0410594
72,49.2052,0.0624741
85,42.1883,0.0657843
98,84.3065,0.0444965
129,33.6959,0.0338557
146,39.2234,0.0371325
145,70.1898,0.0348048
202,64.5524,0.0452804
245,113.488,0.0549024
268,128.247,0.0456665
181,50.837,0.0456078
291,63.5735,0.0565009
200,39.0044,0.0301308
290,59.9892,0.0395607
314,40.3968,0.0441091
340,82.2637,0.0379437
393,69.8438,0.0448144
450,46.3914,0.0542187
