"cellPairingIds","interplanarAngles","angleWeights"
8,36.3461,0.0459778
13,73.9793,0.0818935
19,93.7053,0.0284786
26,79.3605,0.0413914
34,99.7322,0.0830993
18,60.3441,0.0760108
33,76.7917,0.0398332
41,135.144,0.0642424
51,75.4716,0.290681
62,55.3675,0.0651358
74,77.9178,0.0515572
87,75.7569,0.0342374
50,57.1485,0.0259949
61,88.5638,0.0379603
86,102.482,0.0236412
85,118.329,0.0366285
99,139.154,0.0319034
114,115.661,0.0242975
113,46.1505,0.0520325
145,24.5387,0.0244242
162,38.5894,0.0222289
