"cellPairingIds","interplanarAngles","angleWeights"
13,64.6941,0.0514779
19,60.6859,0.0449277
26,108.411,0.00588197
43,92.6541,0.00458897
53,90.0876,0.242087
64,108.587,0.033818
32,33.5891,0.027171
41,104.968,0.00541837
51,57.1189,0.0151008
61,63.3615,0.0144815
86,43.3941,0.0464923
115,48.2254,0.026607
72,99.2091,0.0046124
114,34.1905,0.00513607
147,53.8591,0.0045678
146,33.5178,0.014925
164,48.601,0.00994152
128,97.924,0.0046048
145,57.5198,0.00412194
163,117.764,0.00428743
268,48.018,0.00292961
181,28.1687,0.0513958
221,74.5253,0.0127417
315,70.9265,0.00653601
242,78.0259,0.0144679
340,81.1724,0.00696212
366,80.0033,0.00564268
