facetNormals:0,facetNormals:1,facetNormals:2,FacetCenters:0,FacetCenters:1,FacetCenters:2,FacetIds,relFacetSize,absFacetSize,cellPairingIds,interplanarAngles,angleWeights
0.308654,-0.428689,-0.823197,3.93088,5.14923,7.9589,1,0.0704105,0.00325163,8,61.7476,0.0966622
0.410461,0.559304,-0.68617,3.96246,5.20041,7.98308,2,0.154126,0.00711772,13,26.4531,0.0679385
0.458968,-0.710151,-0.506736,3.96095,5.13843,7.98661,3,0.0656343,0.00303106,19,86.2725,0.0793354
-0.571471,0.520996,-0.559306,3.89983,5.19777,7.96956,4,0.0908513,0.0041956,26,46.6869,0.0569822
0.861246,-0.352606,-0.28732,3.99831,5.16307,8.00947,5,0.0478555,0.00221002,34,112.487,0.100773
-0.275653,0.901862,-0.139754,3.92585,5.23234,8.02888,6,0.177175,0.00818212,43,74.7287,0.00538337
-0.251286,-0.943199,0.0901862,3.93285,5.16289,8.01886,7,0.00279868,0.000129246,53,116.755,0.0248445
-0.052779,-0.49989,0.702652,3.92047,5.16526,8.02155,8,0.0150833,0.000696564,64,98.541,0.0881958
0.851229,0.323381,0.321147,3.99962,5.20774,8.06003,9,0.118003,0.00544949,76,131.117,0.0441297
0.450524,0.620446,0.612707,3.96301,5.23761,8.08718,10,0.0321352,0.00148404,18,81.6969,0.0920636
,,,,,,,,,25,61.7622,0.114317
,,,,,,,,,33,68.1672,0.0730342
,,,,,,,,,42,58.4197,0.164849
,,,,,,,,,52,136.39,0.00549753
,,,,,,,,,63,158.323,0.0274776
,,,,,,,,,75,70.7963,0.133667
,,,,,,,,,88,83.3131,0.0531821
,,,,,,,,,32,111.765,0.076211
,,,,,,,,,41,34.4974,0.0553523
,,,,,,,,,51,137.796,0.0957851
,,,,,,,,,62,58.2294,0.00536844
,,,,,,,,,74,91.7014,0.0245296
,,,,,,,,,87,90.1023,0.0843515
,,,,,,,,,101,124.234,0.0431458
,,,,,,,,,50,123.658,0.0626896
,,,,,,,,,61,39.1529,0.120112
,,,,,,,,,73,115.194,0.00543008
,,,,,,,,,86,139.106,0.0258715
,,,,,,,,,100,122.682,0.102662
,,,,,,,,,115,107.194,0.0474772
,,,,,,,,,72,123.704,0.0753569
,,,,,,,,,85,84.5761,0.0052881
,,,,,,,,,99,94.8455,0.0229372
,,,,,,,,,114,55.931,0.0680953
,,,,,,,,,130,90.4078,0.0384507
,,,,,,,,,98,148.168,0.00551031
,,,,,,,,,113,130.461,0.0278
,,,,,,,,,129,89.2456,0.141658
,,,,,,,,,146,68.0516,0.0544031
,,,,,,,,,128,49.667,0.00472132
,,,,,,,,,145,121.175,0.00546768
,,,,,,,,,163,131.95,0.00514893
,,,,,,,,,162,88.6899,0.0267477
,,,,,,,,,181,83.4595,0.0205303
,,,,,,,,,200,34.5116,0.0505142
