Q	U	V
{$V$}	{[mm$^3$]}	0.0102845
{$d_v$}	{[mm]}	0.269812
{$S_c$}	{[mm$^2$]}	0.40212
{$S_o$}	{[mm$^2$]}	0.260905
{$S_l/S_o$}	[]	0.541251
{$\Psi$}	[]	0.568745
{$\eta$}	[]	0.598436
{med($\theta_e$)}	{[$^\circ$]}	54.615
{$\Upsilon$}	[]	17
{$\Xi$}	[]	7
