Q	U	V
{$V$}	{[mm$^3$]}	0.00334741
{$d_v$}	{[mm]}	0.185597
{$S_c$}	{[mm$^2$]}	0.217738
{$S_o$}	{[mm$^2$]}	0.124715
{$S_l/S_o$}	[]	0.745885
{$\Psi$}	[]	0.496999
{$\eta$}	[]	0.602403
{med($\theta_e$)}	{[$^\circ$]}	55.2703
{$\Upsilon$}	[]	12
{$\Xi$}	[]	9
