facetNormals:0,facetNormals:1,facetNormals:2,FacetCenters:0,FacetCenters:1,FacetCenters:2,FacetIds,relFacetSize,absFacetSize,cellPairingIds,interplanarAngles,angleWeights
0.418544,0.465312,-0.738168,7.35963,5.39237,5.66744,1,0.0292521,0.00641397,8,91.988,0.0473525
-0.842401,0.348207,-0.215548,7.25111,5.41701,5.75728,2,0.12421,0.0272349,13,123.148,0.0453852
-0.847506,-0.42207,-0.0661911,7.27068,5.35121,5.8064,3,0.101198,0.0221892,19,51.3298,0.0451394
0.830012,0.488895,-0.0103688,7.3776,5.39679,5.74703,4,0.0987979,0.021663,26,99.4193,0.0320891
0.649131,-0.660247,0.153234,7.38628,5.23502,5.78125,5,0.0355355,0.0077917,34,73.0873,0.0408692
0.441206,0.78972,0.374548,7.31686,5.43156,5.81832,6,0.0677915,0.0148643,43,135.913,0.035909
0.162253,-0.813058,0.483122,7.37135,5.22351,5.78448,7,0.0464883,0.0101933,53,145.409,0.024527
-0.76862,-0.0292929,0.595828,7.2721,5.32832,5.85708,8,0.0211161,0.00463002,64,85.8789,0.0451252
0.856425,0.0999406,0.456665,7.3879,5.32175,5.81587,9,0.0986628,0.0216333,76,113.113,0.0293279
0.427264,0.186788,0.866355,7.33566,5.34244,5.85053,10,0.0294041,0.0064473,89,138.223,0.0442755
0.0469931,-0.0108721,0.941833,7.29463,5.34127,5.88334,11,0.0910235,0.0199583,18,49.1699,0.111529
,,,,,,,,,25,125.714,0.110056
,,,,,,,,,33,157.097,0.0552612
,,,,,,,,,42,101.155,0.0877116
,,,,,,,,,52,125.656,0.0676551
,,,,,,,,,63,56.0574,0.0360957
,,,,,,,,,75,149.209,0.109972
,,,,,,,,,88,121.508,0.0475514
,,,,,,,,,102,106.196,0.105058
,,,,,,,,,32,173.878,0.0999834
,,,,,,,,,41,108.431,0.0526004
,,,,,,,,,51,141.977,0.0811927
,,,,,,,,,62,79.0063,0.0637096
,,,,,,,,,74,47.4602,0.0349412
,,,,,,,,,87,149.541,0.0999142
,,,,,,,,,101,122.25,0.045568
,,,,,,,,,116,96.2588,0.0958414
,,,,,,,,,50,76.2817,0.0522704
,,,,,,,,,61,37.488,0.0804092
,,,,,,,,,73,106.842,0.0632262
,,,,,,,,,86,134.629,0.0347953
,,,,,,,,,100,36.5627,0.0987303
,,,,,,,,,115,62.5466,0.0453201
,,,,,,,,,131,88.491,0.0947515
,,,,,,,,,72,101.145,0.0466288
,,,,,,,,,85,37.3212,0.0402806
,,,,,,,,,99,115.166,0.0264907
,,,,,,,,,114,52.3039,0.0522515
,,,,,,,,,130,71.9059,0.0321804
,,,,,,,,,147,78.1331,0.0511155
,,,,,,,,,98,114.496,0.0551543
,,,,,,,,,113,98.3956,0.0322018
,,,,,,,,,129,48.9127,0.0803644
,,,,,,,,,146,46.711,0.0410173
,,,,,,,,,164,66.7212,0.0777083
,,,,,,,,,128,78.4482,0.029041
,,,,,,,,,145,72.7062,0.0631985
,,,,,,,,,163,69.1513,0.0360233
,,,,,,,,,182,58.6002,0.0615442
,,,,,,,,,162,114.197,0.0347869
,,,,,,,,,181,79.0203,0.0245802
,,,,,,,,,201,55.0704,0.0342798
,,,,,,,,,200,35.6341,0.0453059
,,,,,,,,,221,59.3374,0.0946893
,,,,,,,,,242,25.9927,0.0444494
