Q	U	V
{$V$}	{[mm$^3$]}	0.00775878
{$d_v$}	{[mm]}	0.245621
{$S_c$}	{[mm$^2$]}	0.271821
{$S_o$}	{[mm$^2$]}	0.213935
{$S_l/S_o$}	[]	0.270578
{$\Psi$}	[]	0.697263
{$\eta$}	[]	0.749545
{med($\theta_e$)}	{[$^\circ$]}	53.0921
{$\Upsilon$}	[]	14
{$\Xi$}	[]	10
