"cellPairingIds","interplanarAngles","angleWeights"
8,80.2425,0.0166802
13,81.5559,0.0190108
19,88.4514,0.0198991
26,82.0297,0.01946
43,71.6007,0.00635978
64,86.803,0.0175903
89,102.126,0.0212918
103,87.7438,0.0174281
134,108.145,0.0226942
18,35.3543,0.0337965
33,36.6159,0.0352428
63,44.8366,0.0274419
88,47.319,0.0321029
168,88.7728,0.0163741
32,39.7956,0.050274
51,37.6579,0.0387554
101,53.8438,0.0420165
61,25.2715,0.0426355
131,60.0544,0.0701468
99,30.8254,0.0358723
114,37.9127,0.0395682
225,79.2822,0.0190447
146,51.301,0.0365446
164,69.99,0.0495844
203,47.212,0.0514124
246,80.6258,0.0174563
182,73.1397,0.00824808
245,50.2156,0.00845037
292,56.7442,0.00793525
291,49.9929,0.0165087
243,22.8981,0.0319856
315,74.1993,0.0172502
340,46.1146,0.0180886
313,63.3881,0.0975445
394,52.5059,0.0634986
365,32.5262,0.0541168
393,77.1317,0.0170942
421,42.3066,0.0211104
451,62.8912,0.066528
450,64.8901,0.0221313
481,47.7838,0.0778452
512,64.1257,0.0189155
