facetNormals:0,facetNormals:1,facetNormals:2,FacetCenters:0,FacetCenters:1,FacetCenters:2,FacetIds,relFacetSize,absFacetSize,cellPairingIds,interplanarAngles,angleWeights
0.349212,-0.650364,-0.58455,5.53634,7.95146,6.95495,1,0.049885,0.0087329,8,75.3922,0.0310739
0.814074,0.400137,-0.354511,5.58148,7.95661,7.0128,2,0.0225649,0.00395023,13,57.9475,0.0347164
-0.503874,-0.784908,-0.254147,5.51152,7.98608,6.99793,3,0.0266215,0.00466038,19,126.084,0.0428636
-0.781309,0.582302,-0.175302,5.46238,8.00378,7.0009,4,0.0375748,0.00657787,26,126.879,0.0668963
-0.417586,0.840575,-0.246571,5.46142,7.99188,6.98002,5,0.101513,0.017771,34,55.3759,0.0570671
0.909423,-0.296377,-0.00240356,5.5793,7.94416,7.02396,6,0.066665,0.0116704,43,134.068,0.0613034
-0.89844,0.385507,0.141014,5.39328,7.95161,7.07586,7,0.0795006,0.0139174,53,106.026,0.0573332
0.740932,0.584816,0.223333,5.54984,7.98535,7.07534,8,0.0673958,0.0117983,64,132.98,0.0491849
0.253774,0.925774,0.197927,5.53296,8.00141,7.03455,9,0.0485042,0.00849118,76,65.3489,0.041302
0.480311,-0.726049,0.439529,5.54336,7.87525,7.142,10,0.0352389,0.00616895,89,122.013,0.0354349
-0.866351,-0.105294,0.430609,5.40266,7.9215,7.12689,11,0.027476,0.00480996,103,94.3017,0.0634229
-0.46457,-0.639098,0.549822,5.45513,7.89326,7.13056,12,0.0870454,0.0152382,118,84.237,0.0328858
0.697064,-0.3254,0.618777,5.5497,7.87744,7.1313,13,0.0245276,0.00429381,134,149.817,0.0676689
0.139895,0.704254,0.631401,5.49629,7.97041,7.13914,14,0.105157,0.0184089,18,132.343,0.0244259
,,,,,,,,,25,110.704,0.0281967
,,,,,,,,,33,84.9124,0.0369225
,,,,,,,,,42,48.0603,0.0337171
,,,,,,,,,52,130.685,0.0351524
,,,,,,,,,63,36.6405,0.0338099
,,,,,,,,,75,57.9274,0.0308008
,,,,,,,,,88,93.3396,0.0275125
,,,,,,,,,102,161.74,0.0247794
,,,,,,,,,117,152.143,0.0358392
,,,,,,,,,133,76.9018,0.0235053
,,,,,,,,,150,79.3657,0.0371566
,,,,,,,,,32,91.1267,0.0311637
,,,,,,,,,41,114.343,0.0421811
,,,,,,,,,51,104.083,0.0380489
,,,,,,,,,62,83.1269,0.0398866
,,,,,,,,,74,161.475,0.038167
,,,,,,,,,87,162.736,0.0343758
,,,,,,,,,101,76.745,0.03033
,,,,,,,,,116,64.1814,0.027042
,,,,,,,,,132,50.1742,0.0407732
,,,,,,,,,149,105.377,0.0255317
,,,,,,,,,167,147.983,0.042487
,,,,,,,,,50,26.6199,0.0548478
,,,,,,,,,61,158.763,0.0480608
,,,,,,,,,73,22.7749,0.0510307
,,,,,,,,,86,106.796,0.0482494
,,,,,,,,,100,71.6122,0.0423457
,,,,,,,,,115,155.005,0.0363694
,,,,,,,,,131,55.907,0.0317415
,,,,,,,,,148,96.3592,0.0524909
,,,,,,,,,166,149.543,0.0296806
,,,,,,,,,185,78.4155,0.0553662
,,,,,,,,,72,132.6,0.0804786
,,,,,,,,,85,46.1182,0.0891684
,,,,,,,,,99,82.2392,0.0810088
,,,,,,,,,114,49.0477,0.0656433
,,,,,,,,,130,166.248,0.0523168
,,,,,,,,,147,79.809,0.0432466
,,,,,,,,,165,120.833,0.0937242
,,,,,,,,,184,138.467,0.039509
,,,,,,,,,204,65.968,0.103303
,,,,,,,,,98,170.43,0.0725192
,,,,,,,,,113,57.3933,0.0670284
,,,,,,,,,129,92.6941,0.0561528
,,,,,,,,,146,45.7463,0.0461062
,,,,,,,,,164,144.489,0.0389137
,,,,,,,,,183,104.749,0.0755041
,,,,,,,,,203,39.4782,0.035861
,,,,,,,,,224,95.2082,0.0815995
,,,,,,,,,128,115.252,0.0729494
,,,,,,,,,145,80.6792,0.0602495
,,,,,,,,,163,132.392,0.0488326
,,,,,,,,,182,33.8335,0.040838
,,,,,,,,,202,74.8468,0.0831021
,,,,,,,,,223,132.951,0.037489
,,,,,,,,,245,75.602,0.0905465
,,,,,,,,,162,35.5351,0.0564104
,,,,,,,,,181,88.2169,0.0462798
,,,,,,,,,201,130.043,0.0390372
,,,,,,,,,222,129.601,0.0759706
,,,,,,,,,244,60.9926,0.0359659
,,,,,,,,,267,44.9369,0.0821446
,,,,,,,,,200,118.992,0.0408209
,,,,,,,,,221,104.084,0.0350802
,,,,,,,,,243,129.549,0.0622956
,,,,,,,,,266,90.1112,0.0325801
,,,,,,,,,290,29.8935,0.0663871
,,,,,,,,,242,99.1186,0.030877
,,,,,,,,,265,59.0668,0.0501681
,,,,,,,,,289,28.8807,0.0289234
,,,,,,,,,314,100.293,0.0527882
,,,,,,,,,288,41.0426,0.0417678
,,,,,,,,,313,108.395,0.0259182
,,,,,,,,,339,85.282,0.0435682
,,,,,,,,,338,76.3451,0.0382711
,,,,,,,,,365,100.512,0.0952479
,,,,,,,,,392,74.0721,0.0397772
