facetNormals:0,facetNormals:1,facetNormals:2,FacetCenters:0,FacetCenters:1,FacetCenters:2,FacetIds,relFacetSize,absFacetSize,cellPairingIds,interplanarAngles,angleWeights
0.177477,-0.580702,-0.787024,4.33252,4.13535,9.35351,1,0.0232226,0.00212337,8,27.9078,0.0374672
-0.292761,-0.545512,-0.742843,4.28796,4.16378,9.33615,2,0.0969124,0.00886123,13,41.6842,0.0263656
0.763683,-0.280168,-0.54429,4.38151,4.1529,9.37039,3,0.0304924,0.00278809,19,70.2473,0.0303622
-0.802486,-0.049106,-0.563921,4.23846,4.20157,9.35172,4,0.0438407,0.00400859,26,49.0097,0.0350092
-0.422941,-0.832597,-0.291547,4.2852,4.13953,9.36932,5,0.0710912,0.00650026,34,46.4082,0.0351718
0.653023,-0.679361,-0.188368,4.36255,4.12858,9.39073,6,0.0724514,0.00662463,43,103.432,0.0198332
-0.851695,0.444643,-0.230273,4.22525,4.25512,9.36173,7,0.0173071,0.00158248,53,93.9424,0.0342556
-0.962611,-0.144222,-0.0261027,4.23627,4.19517,9.40909,8,0.0652609,0.00596716,64,70.1619,0.0346599
-0.799686,-0.536684,-0.206534,4.24093,4.18265,9.37479,9,0.0682961,0.00624469,76,122.206,0.0167406
0.278691,0.923247,0.0311503,4.33491,4.20701,9.39102,10,0.0130876,0.00119667,89,113.868,0.00881734
0.753398,0.594861,0.236194,4.33699,4.2035,9.41086,11,0.00544176,0.000497569,103,127.278,0.0275022
-0.872663,0.268535,0.354301,4.30948,4.1947,9.36983,12,0.0337155,0.00308279,118,143.51,0.0228761
-0.560718,0.731034,0.326812,4.25103,4.22553,9.43525,13,0.0225398,0.00206093,134,98.1557,0.0251127
-0.531982,-0.632267,0.521643,4.26506,4.14187,9.45985,14,0.0273377,0.00249964,151,86.1658,0.022989
0.604562,-0.600298,0.495996,4.34291,4.11792,9.45156,15,0.0227601,0.00208108,169,105.534,0.0222146
-0.769871,-0.411647,0.46464,4.24953,4.15563,9.45433,16,0.0212904,0.0019467,188,89.45,0.0192283
-0.142094,-0.811205,0.554465,4.30051,4.11351,9.46375,17,0.0164064,0.00150013,208,113.669,0.029669
0.0967164,-0.455199,0.848277,4.29665,4.16408,9.47122,18,0.0410696,0.00375522,229,135.625,0.0139454
-0.604549,-0.0379687,0.791496,4.27166,4.17973,9.46161,19,0.00996463,0.000911121,251,110.752,0.0253922
0.703592,-0.0966799,0.665581,4.35281,4.17171,9.4491,20,0.0280088,0.002561,274,148.977,0.0345184
0.273555,0.32632,0.847638,4.30308,4.1697,9.47169,21,0.0672106,0.00614543,298,160.411,0.0208014
-0.288885,0.280693,0.887544,4.26949,4.19095,9.47118,22,0.0188374,0.00172241,18,69.3628,0.0463891
,,,,,,,,,25,44.2155,0.060371
,,,,,,,,,33,32.8695,0.0820175
,,,,,,,,,42,69.9001,0.0829154
,,,,,,,,,52,79.2721,0.0293693
,,,,,,,,,63,66.206,0.0779979
,,,,,,,,,75,44.4187,0.0801259
,,,,,,,,,88,130.694,0.0230609
,,,,,,,,,102,138.914,0.0103049
,,,,,,,,,117,99.3703,0.0500268
,,,,,,,,,133,120.333,0.0365734
,,,,,,,,,150,83.1225,0.0426456
,,,,,,,,,168,103.217,0.0368628
,,,,,,,,,187,83.7091,0.0349112
,,,,,,,,,207,85.6846,0.0280622
,,,,,,,,,228,115.999,0.0576909
,,,,,,,,,250,113.886,0.0180712
,,,,,,,,,273,133.481,0.0434578
,,,,,,,,,297,165.423,0.0793739
,,,,,,,,,322,140.556,0.0315435
,,,,,,,,,32,107.695,0.0359681
,,,,,,,,,41,85.87,0.042679
,,,,,,,,,51,32.6905,0.0429209
,,,,,,,,,62,132.209,0.0220812
,,,,,,,,,74,135.567,0.0415644
,,,,,,,,,87,111.156,0.0421611
,,,,,,,,,101,93.8121,0.0183145
,,,,,,,,,116,73.1701,0.00923535
,,,,,,,,,132,167.137,0.0320231
,,,,,,,,,149,147.944,0.0259198
,,,,,,,,,167,122.441,0.028829
,,,,,,,,,186,68.0986,0.0260649
,,,,,,,,,206,138.55,0.0250738
,,,,,,,,,227,100.857,0.0213341
,,,,,,,,,249,105.955,0.0349994
,,,,,,,,,272,154.687,0.0150207
,,,,,,,,,296,77.7496,0.0291979
,,,,,,,,,321,111.739,0.0419519
,,,,,,,,,347,145.094,0.0232881
,,,,,,,,,50,55.4618,0.0542354
,,,,,,,,,61,114.041,0.0546266
,,,,,,,,,73,35.3365,0.0248171
,,,,,,,,,86,33.8342,0.0524481
,,,,,,,,,100,35.7973,0.0534017
,,,,,,,,,115,107.602,0.0201576
,,,,,,,,,131,142.191,0.00968176
,,,,,,,,,148,59.5573,0.0381172
,,,,,,,,,166,76.152,0.0297726
,,,,,,,,,185,80.1726,0.0336761
,,,,,,,,,205,139.428,0.0299641
,,,,,,,,,226,67.2224,0.0286617
,,,,,,,,,248,99.3745,0.0238773
,,,,,,,,,271,124.167,0.0424099
,,,,,,,,,295,87.6189,0.0162384
,,,,,,,,,320,168.07,0.0341805
,,,,,,,,,346,139.995,0.0530666
,,,,,,,,,373,107.164,0.026352
,,,,,,,,,72,68.5127,0.0717648
,,,,,,,,,85,86.6107,0.0278373
,,,,,,,,,99,55.8449,0.0680514
,,,,,,,,,114,28.6948,0.0696656
,,,,,,,,,130,161.587,0.0221056
,,,,,,,,,147,155.894,0.0101097
,,,,,,,,,165,87.4752,0.045739
,,,,,,,,,184,119.215,0.0342275
,,,,,,,,,204,51.1759,0.0394898
,,,,,,,,,225,84.078,0.034481
,,,,,,,,,247,56.5798,0.0327676
,,,,,,,,,270,53.7848,0.0266602
,,,,,,,,,294,84.4966,0.0520625
,,,,,,,,,319,86.6756,0.0174792
,,,,,,,,,345,115.579,0.0401853
,,,,,,,,,372,133.137,0.0690965
,,,,,,,,,400,112.851,0.0297831
,,,,,,,,,98,149.125,0.02794
,,,,,,,,,113,124.183,0.0686685
,,,,,,,,,129,97.2046,0.0703124
,,,,,,,,,146,119.111,0.0221703
,,,,,,,,,164,87.3834,0.0101232
,,,,,,,,,183,150.489,0.0460169
,,,,,,,,,203,169.733,0.0343829
,,,,,,,,,224,90.9836,0.0396968
,,,,,,,,,246,41.5311,0.0346387
,,,,,,,,,269,109.077,0.0329099
,,,,,,,,,293,68.2284,0.0267544
,,,,,,,,,318,76.781,0.0524229
,,,,,,,,,344,122.746,0.0175197
,,,,,,,,,371,64.6972,0.0403996
,,,,,,,,,399,102.849,0.0697327
,,,,,,,,,428,125.698,0.0299006
,,,,,,,,,128,37.6443,0.0273587
,,,,,,,,,145,59.7658,0.027616
,,,,,,,,,163,79.9729,0.0149045
,,,,,,,,,182,116.222,0.00828007
,,,,,,,,,202,36.1764,0.0228729
,,,,,,,,,223,41.1405,0.0195799
,,,,,,,,,245,86.9224,0.0211956
,,,,,,,,,268,156.921,0.0196625
,,,,,,,,,292,68.0225,0.0190932
,,,,,,,,,317,111.994,0.0168447
,,,,,,,,,343,120.149,0.024352
,,,,,,,,,370,71.2977,0.0126474
,,,,,,,,,398,145.815,0.0213943
,,,,,,,,,427,107.581,0.0275261
,,,,,,,,,457,80.0449,0.0180399
,,,,,,,,,162,27.2576,0.066744
,,,,,,,,,181,115.349,0.0218028
,,,,,,,,,201,148.099,0.0100458
,,,,,,,,,222,33.842,0.0444612
,,,,,,,,,244,63.4276,0.0335069
,,,,,,,,,267,51.7036,0.0385337
,,,,,,,,,291,121.976,0.0337498
,,,,,,,,,316,35.0499,0.0321065
,,,,,,,,,342,75.6678,0.026221
,,,,,,,,,369,93.0175,0.0504134
,,,,,,,,,397,54.2675,0.0172894
,,,,,,,,,426,135.91,0.0391956
,,,,,,,,,456,111.101,0.0662214
,,,,,,,,,487,76.9413,0.0292359
,,,,,,,,,200,139.695,0.0219658
,,,,,,,,,221,175.356,0.0100803
,,,,,,,,,243,60.1214,0.0451446
,,,,,,,,,266,90.6804,0.0338936
,,,,,,,,,290,46.9523,0.039046
,,,,,,,,,315,105.759,0.0341421
,,,,,,,,,341,40.5091,0.0324614
,,,,,,,,,368,63.6217,0.0264572
,,,,,,,,,396,90.4955,0.0512939
,,,,,,,,,425,69.7147,0.0173917
,,,,,,,,,455,132.543,0.0397257
,,,,,,,,,486,127.513,0.067749
,,,,,,,,,518,96.1551,0.0295299
,,,,,,,,,242,36.5243,0.0076872
,,,,,,,,,265,89.0446,0.0188558
,,,,,,,,,289,55.8985,0.0165598
,,,,,,,,,314,139.386,0.017701
,,,,,,,,,340,112.909,0.0166189
,,,,,,,,,367,127.442,0.0162104
,,,,,,,,,395,143.622,0.0145603
,,,,,,,,,424,113.14,0.0198497
,,,,,,,,,454,100.72,0.0113146
,,,,,,,,,485,82.1939,0.0178394
,,,,,,,,,517,63.8131,0.0219089
,,,,,,,,,550,77.3292,0.0154447
,,,,,,,,,288,115.318,0.00937101
,,,,,,,,,313,84.6794,0.00876692
,,,,,,,,,339,132.587,0.00907673
,,,,,,,,,366,77.2228,0.00878346
,,,,,,,,,394,137.012,0.008668
,,,,,,,,,423,117.86,0.00817274
,,,,,,,,,453,89.8536,0.00961016
,,,,,,,,,484,107.185,0.0070393
,,,,,,,,,516,49.117,0.00911298
,,,,,,,,,549,50.1868,0.0100683
,,,,,,,,,583,80.504,0.00844416
,,,,,,,,,338,33.1674,0.0270176
,,,,,,,,,365,59.9474,0.0301935
,,,,,,,,,393,122.099,0.0271752
,,,,,,,,,422,41.4549,0.0260996
,,,,,,,,,452,83.9423,0.0220722
,,,,,,,,,483,84.3126,0.037031
,,,,,,,,,515,35.1841,0.0153829
,,,,,,,,,548,115.085,0.0305984
,,,,,,,,,582,80.7567,0.0449049
,,,,,,,,,617,47.7409,0.0241704
,,,,,,,,,392,89.6064,0.024708
,,,,,,,,,421,129.711,0.0226494
,,,,,,,,,451,73.0033,0.0218973
,,,,,,,,,482,110.012,0.0189901
,,,,,,,,,514,96.6646,0.0291058
,,,,,,,,,547,54.203,0.0138197
,,,,,,,,,581,105.088,0.0249784
,,,,,,,,,616,67.0094,0.0337583
,,,,,,,,,652,46.3857,0.020523
,,,,,,,,,450,70.809,0.0248398
,,,,,,,,,481,19.2779,0.023938
,,,,,,,,,513,25.2138,0.0205062
,,,,,,,,,546,44.1092,0.0328254
,,,,,,,,,580,38.8503,0.0146055
,,,,,,,,,615,87.9499,0.0276692
,,,,,,,,,651,84.4085,0.0388666
,,,,,,,,,688,62.5401,0.0223052
,,,,,,,,,512,89.2868,0.0220007
,,,,,,,,,545,46.3102,0.0190679
,,,,,,,,,579,37.9182,0.0292888
,,,,,,,,,614,87.0899,0.0138608
,,,,,,,,,650,32.0243,0.0251131
,,,,,,,,,687,65.3572,0.0340048
,,,,,,,,,725,84.2018,0.0206138
,,,,,,,,,578,44.4464,0.018532
,,,,,,,,,613,57.9995,0.0280432
,,,,,,,,,649,30.555,0.0135755
,,,,,,,,,686,101.543,0.0241918
,,,,,,,,,724,87.0111,0.0323373
,,,,,,,,,763,57.4057,0.0199889
,,,,,,,,,648,30.7123,0.0234465
,,,,,,,,,685,55.8445,0.0123987
,,,,,,,,,723,68.9246,0.0206922
,,,,,,,,,762,79.8228,0.0263747
,,,,,,,,,802,71.5988,0.0175381
,,,,,,,,,722,49.1918,0.016038
,,,,,,,,,761,44.0682,0.0333045
,,,,,,,,,801,49.4268,0.0509846
,,,,,,,,,842,50.7098,0.0258282
,,,,,,,,,800,83.7794,0.0146996
,,,,,,,,,841,58.5608,0.0173561
,,,,,,,,,883,26.8808,0.0130343
,,,,,,,,,882,38.2482,0.03954
,,,,,,,,,925,67.6768,0.0225253
,,,,,,,,,968,34.1772,0.0294272
