facetNormals:0,facetNormals:1,facetNormals:2,FacetCenters:0,FacetCenters:1,FacetCenters:2,FacetIds,relFacetSize,absFacetSize,cellPairingIds,interplanarAngles,angleWeights
-0.135772,0.769075,-0.57978,5.726,3.70913,5.97826,1,0.0592588,0.0116694,8,45.933,0.0741413
0.581833,0.550421,-0.520886,5.79082,3.69902,6.00661,2,0.0990062,0.0194966,13,33.9311,0.0277131
-0.602831,0.746791,-0.247998,5.67269,3.70143,6.02301,3,0.0180855,0.00356146,19,104.05,0.0818754
0.826123,-0.366138,-0.292331,5.74371,3.64548,6.05994,4,0.132411,0.0260748,26,100.127,0.0441768
0.910834,0.174294,0.305962,5.81308,3.66861,6.07969,5,0.0352144,0.00693454,34,58.7187,0.0405981
0.362425,0.868485,0.224421,5.77172,3.74106,6.07868,6,0.0308754,0.00608009,43,144.681,0.06239
0.667111,-0.570501,0.417632,5.75018,3.57424,6.0848,7,0.0658706,0.0129715,53,75.2744,0.070424
-0.862041,0.374239,0.28012,5.67759,3.66046,6.06512,8,0.0867734,0.0170877,64,165.597,0.0572733
0.131805,-0.597302,0.752313,5.73614,3.55903,6.11642,9,0.0554166,0.0109128,76,103.451,0.0640459
0.343794,0.390031,0.813698,5.79116,3.69405,6.11798,10,0.0696744,0.0137205,89,123.602,0.0504068
-0.0945515,0.0323017,0.974477,5.72873,3.62278,6.13234,11,0.0438556,0.0086362,18,78.4589,0.0305842
,,,,,,,,,25,61.6121,0.113298
,,,,,,,,,33,59.9984,0.051951
,,,,,,,,,42,51.7689,0.0470714
,,,,,,,,,52,98.8827,0.0791088
,,,,,,,,,63,118.113,0.0924871
,,,,,,,,,75,134.038,0.0710593
,,,,,,,,,88,90.5671,0.08179
,,,,,,,,,102,125.601,0.0607857
,,,,,,,,,32,137.938,0.0318243
,,,,,,,,,41,120.741,0.0238976
,,,,,,,,,51,67.0179,0.0228099
,,,,,,,,,62,165.237,0.0283792
,,,,,,,,,74,41.3538,0.0299325
,,,,,,,,,87,137.807,0.027271
,,,,,,,,,101,97.0677,0.0287169
,,,,,,,,,116,99.5168,0.0256099
,,,,,,,,,50,49.7532,0.0556333
,,,,,,,,,61,95.2568,0.0500745
,,,,,,,,,73,46.293,0.0879759
,,,,,,,,,86,178.607,0.104841
,,,,,,,,,100,83.2862,0.078133
,,,,,,,,,115,96.05,0.0913045
,,,,,,,,,131,113.758,0.0658885
,,,,,,,,,72,54.3865,0.0329025
,,,,,,,,,85,47.9354,0.0458939
,,,,,,,,,99,131.477,0.050098
,,,,,,,,,114,74.9332,0.0430639
,,,,,,,,,130,48.072,0.0467837
,,,,,,,,,147,76.8478,0.0390628
,,,,,,,,,98,99.7936,0.0420437
,,,,,,,,,113,85.4379,0.0455451
,,,,,,,,,129,108.79,0.0396563
,,,,,,,,,146,46.2556,0.0427892
,,,,,,,,,164,77.0441,0.0362382
,,,,,,,,,128,134.792,0.0748909
,,,,,,,,,145,37.9836,0.0601931
,,,,,,,,,163,68.3264,0.0677191
,,,,,,,,,182,70.0137,0.0526546
,,,,,,,,,162,97.6405,0.0676375
,,,,,,,,,181,85.3034,0.0772895
,,,,,,,,,201,67.5674,0.0582643
,,,,,,,,,200,63.0378,0.0617329
,,,,,,,,,221,42.4028,0.0489629
,,,,,,,,,242,35.1918,0.0538292
