facetNormals:0,facetNormals:1,facetNormals:2,FacetCenters:0,FacetCenters:1,FacetCenters:2,FacetIds,relFacetSize,absFacetSize,cellPairingIds,interplanarAngles,angleWeights
-0.169102,-0.483113,-0.824508,5.9217,3.56962,8.66242,1,0.0492857,0.00457191,8,30.7754,0.0519424
-0.520947,-0.66696,-0.492646,5.84402,3.57267,8.69827,2,0.054902,0.0050929,13,88.7641,0.0138704
-0.927834,0.350746,-0.0404254,5.80435,3.62713,8.72968,3,0.0080709,0.000748685,19,54.6295,0.0669408
-0.15549,-0.964175,-0.0702952,5.90155,3.54464,8.72429,4,0.104305,0.00967572,26,102.592,0.0717156
0.932373,-0.231778,0.196206,5.99416,3.60448,8.72636,5,0.131613,0.0122089,34,126.243,0.0435081
0.867387,0.371376,0.291749,5.99263,3.67326,8.74454,6,0.038943,0.0036125,43,138.538,0.0238041
0.0189201,0.933636,0.319691,5.93884,3.70772,8.77573,7,0.0156914,0.00145559,53,98.3292,0.0314925
-0.890464,-0.0680116,0.388537,5.82575,3.61099,8.75341,8,0.0231389,0.00214645,64,123.241,0.0624857
-0.543678,0.762041,0.299031,5.86135,3.67148,8.77447,9,0.085343,0.00791672,76,152.88,0.0253244
0.399125,0.728724,0.515516,5.95412,3.69832,8.78529,10,0.01704,0.0015807,89,105.996,0.0546992
-0.319762,-0.56897,0.712327,5.85548,3.57543,8.78891,11,0.0614487,0.0057002,103,120.745,0.0686165
0.343089,-0.458412,0.780891,5.93893,3.59291,8.79492,12,0.112897,0.0104727,118,138.714,0.0520033
-0.324629,0.0138262,0.928644,5.87765,3.63618,8.81594,13,0.0550381,0.00510553,18,73.9155,0.014073
,,,,,,,,,25,37.6956,0.0719385
,,,,,,,,,33,116.456,0.0774823
,,,,,,,,,42,150.686,0.0455656
,,,,,,,,,52,144.825,0.024407
,,,,,,,,,63,70.533,0.0325566
,,,,,,,,,75,112.763,0.0668188
,,,,,,,,,88,171.885,0.0260079
,,,,,,,,,102,78.0968,0.0579911
,,,,,,,,,117,105.769,0.0738773
,,,,,,,,,133,107.993,0.0549699
,,,,,,,,,32,101.336,0.0149825
,,,,,,,,,41,168.617,0.0152091
,,,,,,,,,51,134.428,0.0133707
,,,,,,,,,62,72.3566,0.0106592
,,,,,,,,,74,35.5492,0.0119675
,,,,,,,,,87,38.8621,0.0147472
,,,,,,,,,101,98.0279,0.0109537
,,,,,,,,,116,85.9148,0.0142678
,,,,,,,,,132,122.09,0.0150648
,,,,,,,,,149,74.0431,0.0140774
,,,,,,,,,50,86.1357,0.116378
,,,,,,,,,61,122.07,0.0567122
,,,,,,,,,73,163.28,0.027279
,,,,,,,,,86,79.3204,0.0378756
,,,,,,,,,100,134.233,0.0938761
,,,,,,,,,115,146.776,0.0292944
,,,,,,,,,131,54.5819,0.0773365
,,,,,,,,,148,69.39,0.108431
,,,,,,,,,166,91.6735,0.0720552
,,,,,,,,,72,36.36,0.0601023
,,,,,,,,,85,98.0795,0.0280397
,,,,,,,,,99,140.627,0.0393582
,,,,,,,,,114,130.425,0.103544
,,,,,,,,,130,71.491,0.0301735
,,,,,,,,,147,91.6029,0.0837809
,,,,,,,,,165,52.3992,0.121539
,,,,,,,,,184,97.3653,0.0776178
,,,,,,,,,98,62.0824,0.0223694
,,,,,,,,,113,135.35,0.0290294
,,,,,,,,,129,95.9931,0.0534817
,,,,,,,,,146,37.3939,0.0237068
,,,,,,,,,164,107.117,0.0476732
,,,,,,,,,183,68.1987,0.0579103
,,,,,,,,,203,90.3251,0.0456124
,,,,,,,,,128,87.3845,0.0187009
,,,,,,,,,145,34.7695,0.0265088
,,,,,,,,,163,27.9283,0.0163379
,,,,,,,,,182,108.941,0.0249991
,,,,,,,,,202,100.359,0.0275532
,,,,,,,,,223,71.7789,0.0244205
,,,,,,,,,162,55.0345,0.0364069
,,,,,,,,,181,102.411,0.0196266
,,,,,,,,,201,50.3656,0.0336185
,,,,,,,,,222,88.2333,0.0384062
,,,,,,,,,244,47.3699,0.0325805
,,,,,,,,,200,59.1681,0.028408
,,,,,,,,,221,92.8208,0.0714511
,,,,,,,,,243,108.526,0.0972051
,,,,,,,,,266,61.2711,0.0669195
,,,,,,,,,242,100.678,0.0266812
,,,,,,,,,265,77.4684,0.0296108
,,,,,,,,,289,68.0729,0.0260232
,,,,,,,,,288,40.876,0.0795818
,,,,,,,,,313,37.1677,0.058067
,,,,,,,,,338,50.3848,0.0740004
