"cellPairingIds","interplanarAngles","angleWeights"
13,28.8584,0.0848084
19,87.9665,0.0660077
26,76.897,0.0381421
34,49.0602,0.0580972
76,89.5771,0.106343
103,91.9986,0.0598236
118,89.4814,0.0446112
41,58.4759,0.0367653
101,69.1594,0.0962899
50,99.4512,0.0327247
61,57.4772,0.0463978
100,67.5137,0.0129318
148,71.2997,0.0474923
114,79.4261,0.0113127
130,89.9171,0.0403034
183,48.2406,0.0432548
200,119.361,0.0139699
243,105.556,0.0126751
290,89.1161,0.0112666
315,91.4018,0.0133428
265,98.6021,0.0653175
289,68.8781,0.0475965
340,53.1584,0.0880131
338,29.8135,0.035308
365,33.7251,0.0307832
393,62.6646,0.0535498
450,32.2414,0.0350418
