facetNormals:0,facetNormals:1,facetNormals:2,FacetCenters:0,FacetCenters:1,FacetCenters:2,FacetIds,relFacetSize,absFacetSize,cellPairingIds,interplanarAngles,angleWeights
-0.362064,0.364243,-0.803184,5.00816,5.4718,7.75714,1,0.0392666,0.00416384,8,35.6875,0.0174444
-0.593799,-0.180358,-0.760151,4.91851,5.49683,7.75139,2,0.0112129,0.00118902,13,60.1892,0.0373492
-0.819344,-0.363557,-0.367098,4.84647,5.47755,7.72987,3,0.0356103,0.00377612,19,100.183,0.0509681
-0.173535,-0.938687,-0.144849,4.88525,5.45629,7.75101,4,0.0726043,0.00769898,26,126.406,0.052154
0.581636,-0.726199,0.0655495,4.9353,5.4672,7.78473,5,0.0776337,0.0082323,34,118.989,0.0546615
0.950421,-0.00183581,0.12195,5.00125,5.5796,7.74128,6,0.0899127,0.00953437,43,108.355,0.0626231
-0.595185,-0.669933,0.320189,4.83835,5.46793,7.7811,7,0.154555,0.0163891,53,109.597,0.0412652
-0.718158,-0.152537,0.643113,4.88827,5.44999,7.75331,8,0.0434781,0.00461044,64,139.465,0.0378764
0.797662,0.103607,0.584229,4.9648,5.52191,7.79731,9,0.0365812,0.00387909,76,158.631,0.0571199
0.63308,-0.144463,0.724624,4.9745,5.52237,7.79002,10,0.104744,0.011107,89,146.743,0.0543961
-0.0503575,-0.0390877,0.952113,4.93177,5.4869,7.79878,11,0.0884926,0.00938379,18,29.0253,0.0170554
,,,,,,,,,25,66.193,0.0194257
,,,,,,,,,33,106.779,0.0195956
,,,,,,,,,42,134.301,0.0199392
,,,,,,,,,52,75.6872,0.0209089
,,,,,,,,,63,92.0889,0.017828
,,,,,,,,,75,163.72,0.0171645
,,,,,,,,,88,160.616,0.0202573
,,,,,,,,,102,137.176,0.0199038
,,,,,,,,,32,54.9855,0.0477839
,,,,,,,,,41,105.182,0.0488248
,,,,,,,,,51,152.437,0.0510156
,,,,,,,,,62,48.2594,0.0578838
,,,,,,,,,74,64.4476,0.0391528
,,,,,,,,,87,160.14,0.0360892
,,,,,,,,,101,140.975,0.0531506
,,,,,,,,,116,108.55,0.0507844
,,,,,,,,,50,50.6302,0.0750348
,,,,,,,,,61,101.274,0.0803368
,,,,,,,,,73,41.7236,0.0987973
,,,,,,,,,86,79.3192,0.0543872
,,,,,,,,,100,109.493,0.0486503
,,,,,,,,,115,94.8371,0.0857618
,,,,,,,,,131,95.761,0.0797649
,,,,,,,,,72,51.0268,0.0833233
,,,,,,,,,85,79.5288,0.103353
,,,,,,,,,99,106.909,0.0557397
,,,,,,,,,114,62.5803,0.0497297
,,,,,,,,,130,54.9933,0.0891737
,,,,,,,,,147,86.0374,0.0827083
,,,,,,,,,98,125.183,0.113688
,,,,,,,,,113,130.215,0.0586133
,,,,,,,,,129,29.4918,0.0520044
,,,,,,,,,146,42.2331,0.0967632
,,,,,,,,,164,85.7149,0.089197
,,,,,,,,,128,37.6335,0.067865
,,,,,,,,,145,112.177,0.05916
,,,,,,,,,163,92.9717,0.124865
,,,,,,,,,182,66.5743,0.112546
,,,,,,,,,162,102.676,0.0397326
,,,,,,,,,181,87.9845,0.0614492
,,,,,,,,,201,45.3581,0.0583083
,,,,,,,,,200,19.2252,0.0542247
,,,,,,,,,221,57.3336,0.0517641
,,,,,,,,,242,44.3724,0.0959348
