facetNormals:0,facetNormals:1,facetNormals:2,FacetCenters:0,FacetCenters:1,FacetCenters:2,FacetIds,relFacetSize,absFacetSize,cellPairingIds,interplanarAngles,angleWeights
-0.682928,-0.084859,-0.689176,5.13966,5.48501,8.46464,1,0.0732041,0.00460121,8,32.3225,0.0334159
-0.751438,0.413962,-0.480831,5.12276,5.51774,8.49207,2,0.0216491,0.00136074,13,81.0134,0.0311663
0.118439,0.861047,-0.43826,5.16836,5.54493,8.4723,3,0.0197975,0.00124436,19,67.0265,0.0564092
-0.485185,0.842815,-0.167271,5.14042,5.54137,8.50454,4,0.0458825,0.00288393,26,46.2536,0.0886877
-0.781811,-0.569276,-0.105864,5.1329,5.45517,8.51886,5,0.112478,0.00706977,34,118.761,0.0735845
0.500078,0.840797,0.0677087,5.20747,5.53611,8.53758,6,0.0739689,0.00464929,43,59.7984,0.0709109
-0.917693,-0.245549,0.242598,5.12689,5.46391,8.53868,7,0.0687571,0.0043217,53,80.8896,0.0501847
-0.511083,-0.7508,0.378707,5.16326,5.4193,8.56526,8,0.0381791,0.00239973,64,168.525,0.0808239
0.78454,0.162131,0.542822,5.24473,5.47073,8.57632,9,0.0902144,0.00567038,76,92.2866,0.0821673
-0.484585,0.712366,0.447209,5.14468,5.52573,8.55681,10,0.0936318,0.00588518,89,109.478,0.0725968
-0.0415641,-0.771749,0.596151,5.20187,5.41933,8.58193,11,0.0719995,0.0045255,103,129.327,0.072585
-0.0632041,0.403594,0.889846,5.17846,5.49673,8.59612,12,0.0719763,0.00452404,118,126.015,0.0441314
-0.0900125,-0.275119,0.94173,5.17304,5.45286,8.60131,13,0.0315869,0.00198538,18,60.0335,0.0206819
,,,,,,,,,25,35.108,0.0294178
,,,,,,,,,33,65.1082,0.0363095
,,,,,,,,,42,93.5833,0.0334949
,,,,,,,,,52,60.7408,0.0329298
,,,,,,,,,63,96.458,0.0276305
,,,,,,,,,75,145.404,0.0349186
,,,,,,,,,88,62.2848,0.035167
,,,,,,,,,102,126.79,0.0332888
,,,,,,,,,117,102.797,0.0332863
,,,,,,,,,133,121.002,0.0256904
,,,,,,,,,32,39.464,0.0276602
,,,,,,,,,41,124.499,0.0336689
,,,,,,,,,51,37.8688,0.0312351
,,,,,,,,,62,116.54,0.0307431
,,,,,,,,,74,155.698,0.0260743
,,,,,,,,,87,90.3269,0.0324696
,,,,,,,,,101,67.605,0.0326843
,,,,,,,,,116,168.401,0.0310557
,,,,,,,,,132,93.0046,0.0310536
,,,,,,,,,149,133.511,0.0243397
,,,,,,,,,50,94.9456,0.0651776
,,,,,,,,,61,61.9732,0.0566348
,,,,,,,,,73,78.2079,0.0550377
,,,,,,,,,86,117.486,0.0416778
,,,,,,,,,100,110.525,0.0608282
,,,,,,,,,115,37.4244,0.061586
,,,,,,,,,131,139.281,0.0560479
,,,,,,,,,148,76.718,0.0560409
,,,,,,,,,166,110.831,0.0374157
,,,,,,,,,72,156.785,0.0892467
,,,,,,,,,85,29.335,0.085344
,,,,,,,,,99,34.7203,0.0570077
,,,,,,,,,114,144.152,0.100124
,,,,,,,,,130,94.4955,0.102193
,,,,,,,,,147,64.5064,0.0877979
,,,,,,,,,165,106.751,0.0877807
,,,,,,,,,184,82.3682,0.0493226
,,,,,,,,,98,132.451,0.0712678
,,,,,,,,,113,153.187,0.0503632
,,,,,,,,,129,53.4284,0.0812879
,,,,,,,,,146,66.0175,0.0826469
,,,,,,,,,164,131.108,0.0729709
,,,,,,,,,183,67.4645,0.072959
,,,,,,,,,203,102.71,0.0442694
,,,,,,,,,128,39.4274,0.0490962
,,,,,,,,,145,131.452,0.0780376
,,,,,,,,,163,66.5812,0.0792893
,,,,,,,,,182,67.108,0.070341
,,,,,,,,,202,79.5105,0.0703299
,,,,,,,,,223,66.9235,0.0432875
,,,,,,,,,162,109.452,0.0536523
,,,,,,,,,181,97.0851,0.054241
,,,,,,,,,201,30.6347,0.0498985
,,,,,,,,,222,86.0558,0.049893
,,,,,,,,,244,51.0695,0.0345715
,,,,,,,,,200,91.3374,0.0918913
,,,,,,,,,221,79.8859,0.0800843
,,,,,,,,,243,58.2299,0.0800699
,,,,,,,,,266,65.4602,0.0467908
,,,,,,,,,242,106.117,0.081403
,,,,,,,,,265,41.1139,0.0813882
,,,,,,,,,289,73.6772,0.0472379
,,,,,,,,,288,76.5906,0.0719879
,,,,,,,,,313,36.0514,0.04391
,,,,,,,,,338,40.5809,0.0439057
