Q	U	V
{$V$}	{[mm$^3$]}	0.00251857
{$d_v$}	{[mm]}	0.168805
{$S_c$}	{[mm$^2$]}	0.151029
{$S_o$}	{[mm$^2$]}	0.0860726
{$S_l/S_o$}	[]	0.754670
{$\Psi$}	[]	0.592734
{$\eta$}	[]	0.634097
{med($\theta_e$)}	{[$^\circ$]}	67.90505
{$\Upsilon$}	[]	15
{$\Xi$}	[]	8
