Q	U	V
{$V$}	{[mm$^3$]}	0.00552994
{$d_v$}	{[mm]}	0.219402
{$S_c$}	{[mm$^2$]}	0.237618
{$S_o$}	{[mm$^2$]}	0.15953
{$S_l/S_o$}	[]	0.489488
{$\Psi$}	[]	0.636432
{$\eta$}	[]	0.667378
{med($\theta_e$)}	{[$^\circ$]}	58.6714
{$\Upsilon$}	[]	16
{$\Xi$}	[]	9
