Q	U	V
{$V$}	{[mm$^3$]}	0.00555962
{$d_v$}	{[mm]}	0.219794
{$S_c$}	{[mm$^2$]}	0.269604
{$S_o$}	{[mm$^2$]}	0.163907
{$S_l/S_o$}	[]	0.644860
{$\Psi$}	[]	0.56293
{$\eta$}	[]	0.639516
{med($\theta_e$)}	{[$^\circ$]}	49.5211
{$\Upsilon$}	[]	14
{$\Xi$}	[]	5
