facetNormals:0,facetNormals:1,facetNormals:2,FacetCenters:0,FacetCenters:1,FacetCenters:2,FacetIds,relFacetSize,absFacetSize,cellPairingIds,interplanarAngles,angleWeights
-0.318762,0.701792,-0.563371,5.24755,4.71672,6.31612,1,0.0620079,0.0188044,8,54.4457,0.0898915
0.339004,0.878435,-0.0257303,5.33417,4.74006,6.44227,2,0.163344,0.0495353,13,102.378,0.063974
0.947938,0.098091,-0.0671075,5.37311,4.63624,6.45748,3,0.0660689,0.0200359,19,127.953,0.0299768
-0.381335,-0.89911,0.121473,5.30363,4.55074,6.48067,4,0.0197663,0.00599427,26,138.166,0.0612751
0.815802,-0.257104,0.423026,5.39458,4.63947,6.49447,5,0.0605593,0.0183651,34,92.3586,0.0880492
-0.902228,-0.266542,0.246283,5.21023,4.63232,6.41172,6,0.1518,0.0460347,43,162.973,0.0559333
0.291556,-0.864091,0.330284,5.34826,4.54384,6.48399,7,0.0509427,0.0154488,53,70.6861,0.031957
-0.679149,0.518159,0.480414,5.24401,4.71613,6.51016,8,0.0215252,0.0065277,64,138.453,0.0683214
-0.347749,-0.603989,0.674457,5.28708,4.59537,6.53128,9,0.0760664,0.0230677,18,62.9493,0.0940832
,,,,,,,,,25,174.166,0.0352651
,,,,,,,,,33,87.4605,0.0883596
,,,,,,,,,42,126.615,0.157361
,,,,,,,,,52,137.05,0.0776641
,,,,,,,,,63,76.6871,0.0380379
,,,,,,,,,75,136.788,0.103796
,,,,,,,,,32,119.139,0.0304289
,,,,,,,,,41,37.8637,0.0631943
,,,,,,,,,51,165.124,0.092067
,,,,,,,,,62,79.463,0.0575281
,,,,,,,,,74,131.892,0.0324713
,,,,,,,,,87,117.941,0.070716
,,,,,,,,,50,91.7416,0.0298045
,,,,,,,,,61,50.1232,0.034978
,,,,,,,,,73,42.3149,0.0284815
,,,,,,,,,86,98.8589,0.0206083
,,,,,,,,,100,37.4667,0.0313786
,,,,,,,,,72,127.376,0.0865789
,,,,,,,,,85,49.6107,0.0553363
,,,,,,,,,99,121.169,0.0317613
,,,,,,,,,114,80.2389,0.0674328
,,,,,,,,,98,87.0459,0.076285
,,,,,,,,,113,51.5277,0.0377041
,,,,,,,,,129,47.1985,0.101348
,,,,,,,,,128,120.823,0.0302632
,,,,,,,,,145,46.8557,0.0610197
,,,,,,,,,162,74.9241,0.0335551
