"cellPairingIds","interplanarAngles","angleWeights"
8,38.1845,0.0727876
13,67.7,0.115541
19,59.4259,0.091105
26,109.002,0.0982638
43,90.5089,0.111891
53,94.7001,0.0286608
76,141.285,0.0703321
25,28.4666,0.0602246
42,44.3333,0.0560758
52,81.682,0.0686558
63,63.958,0.0246798
41,45.8596,0.0932731
62,67.802,0.105466
87,61.7063,0.0793995
86,36.4077,0.0264853
114,32.8145,0.0708403
130,59.223,0.0614081
98,48.3856,0.0767363
113,66.5794,0.0256507
129,108.31,0.0619409
145,63.5679,0.077659
162,134.895,0.025753
181,91.7794,0.024391
201,95.9708,0.0239819
200,63.2938,0.0550727
221,46.4298,0.0530299
242,24.1005,0.0475612
