Q	U	V
{$V$}	{[mm$^3$]}	0.00845818
{$d_v$}	{[mm]}	0.252790
{$S_c$}	{[mm$^2$]}	0.307361
{$S_o$}	{[mm$^2$]}	0.183438
{$S_l/S_o$}	[]	0.675558
{$\Psi$}	[]	0.653161
{$\eta$}	[]	0.682523
{med($\theta_e$)}	{[$^\circ$]}	68.08335
{$\Upsilon$}	[]	14
{$\Xi$}	[]	9
