"cellPairingIds","interplanarAngles","angleWeights"
13,66.7413,0.0252838
19,54.5201,0.0543469
26,80.5072,0.0654032
43,103.856,0.0460512
32,82.5082,0.0239763
62,94.3664,0.0222111
132,88.8397,0.020113
50,81.7198,0.0573177
86,42.7623,0.0751989
148,69.9158,0.0350038
85,89.4313,0.0481667
99,62.957,0.0981595
114,54.6295,0.0719068
145,106.589,0.0491834
163,39.2625,0.0312784
202,132.346,0.0313647
162,42.3335,0.102477
222,54.4173,0.046928
200,84.7049,0.0398143
243,62.5999,0.0399542
265,93.4054,0.0272721
