"cellPairingIds","interplanarAngles","angleWeights"
8,35.6209,0.0243197
13,28.5106,0.0249719
34,142.703,0.0318298
43,70.5869,0.0309535
53,155.319,0.0331035
64,129.158,0.0355833
25,82.1493,0.0270796
33,45.6303,0.0501863
42,134.26,0.0473804
52,64.3742,0.0454645
62,42.2828,0.0477982
87,102.826,0.0598161
50,60.7264,0.0383932
61,56.1904,0.0367291
100,108.956,0.0418194
85,55.0746,0.0899822
114,95.4498,0.14472
113,33.307,0.0980859
129,85.9906,0.12361
145,65.7173,0.111367
162,56.3474,0.145324
