facetNormals:0,facetNormals:1,facetNormals:2,FacetCenters:0,FacetCenters:1,FacetCenters:2,FacetIds,relFacetSize,absFacetSize,cellPairingIds,interplanarAngles,angleWeights
-0.646038,-0.0261008,-0.717138,4.65364,4.67062,8.71941,1,0.130655,0.0219995,8,39.0219,0.0364479
-0.474094,0.597674,-0.628813,4.74368,4.75574,8.6861,2,0.0211779,0.00356592,13,78.964,0.0269604
0.369415,0.68417,-0.612861,4.78094,4.78562,8.70602,3,0.015031,0.00253091,19,110.451,0.0570644
0.869961,0.244444,-0.338617,4.907,4.71677,8.77393,4,0.0365038,0.00614649,26,42.0534,0.0796324
-0.898535,0.31494,-0.168737,4.61112,4.71571,8.78676,5,0.0572684,0.00964281,34,91.5761,0.0949631
0.231327,0.913516,-0.205919,4.82172,4.78229,8.73639,6,0.0745876,0.012559,43,120.105,0.0491437
0.665663,0.728984,0.0410767,4.81199,4.78992,8.77076,7,0.0302634,0.00509573,53,72.336,0.0945613
-0.546435,0.790402,0.0698772,4.6895,4.78967,8.77374,8,0.0740931,0.0124757,64,139.244,0.018452
0.900107,0.371174,0.186739,4.93084,4.72022,8.82242,9,0.00992697,0.0016715,76,143.057,0.0466542
0.606754,0.591274,0.479429,4.79934,4.75436,8.82763,10,0.0283971,0.00478149,89,94.4617,0.0989986
-0.391911,-0.728767,0.479764,4.65749,4.60866,8.80839,11,0.0796906,0.0134182,103,141.638,0.0801368
0.225885,-0.436598,0.839037,4.77814,4.65858,8.8534,12,0.0577916,0.0097309,118,130.615,0.141882
-0.0243488,0.446673,0.839229,4.77425,4.73966,8.84144,13,0.155219,0.0261357,134,112.836,0.0539161
-0.410652,-0.04405,0.879043,4.65221,4.69633,8.86144,14,0.0339663,0.00571923,18,50.7594,0.0175827
,,,,,,,,,25,93.2098,0.0268048
,,,,,,,,,33,41.1053,0.0309211
,,,,,,,,,42,53.6071,0.0329891
,,,,,,,,,52,84.4613,0.0249183
,,,,,,,,,63,43.7945,0.0329405
,,,,,,,,,75,109.2,0.0135177
,,,,,,,,,88,104.179,0.0242619
,,,,,,,,,102,125.673,0.033463
,,,,,,,,,117,158.688,0.0309969
,,,,,,,,,133,105.371,0.0372706
,,,,,,,,,150,113.599,0.0260892
,,,,,,,,,32,43.2267,0.0212939
,,,,,,,,,41,90.7809,0.0238122
,,,,,,,,,51,28.8234,0.02502
,,,,,,,,,62,42.6481,0.0200859
,,,,,,,,,74,71.9157,0.024992
,,,,,,,,,87,61.2549,0.0119571
,,,,,,,,,101,69.6686,0.0196572
,,,,,,,,,116,171.859,0.0252916
,,,,,,,,,132,139.263,0.0238571
,,,,,,,,,149,103.371,0.0274079
,,,,,,,,,167,138.537,0.0208399
,,,,,,,,,50,133.945,0.0445871
,,,,,,,,,61,57.9268,0.0490179
,,,,,,,,,73,38.7697,0.033092
,,,,,,,,,86,109.205,0.0489106
,,,,,,,,,100,32.0864,0.0156091
,,,,,,,,,115,57.1153,0.0319442
,,,,,,,,,131,137.594,0.0500715
,,,,,,,,,148,101.951,0.0447448
,,,,,,,,,166,102.343,0.0591071
,,,,,,,,,185,135.255,0.0351894
,,,,,,,,,72,82.9428,0.0647906
,,,,,,,,,85,113.141,0.0396002
,,,,,,,,,99,38.5944,0.0646033
,,,,,,,,,114,138.991,0.0169209
,,,,,,,,,130,117.859,0.0379676
,,,,,,,,,147,87.4175,0.0666441
,,,,,,,,,165,120.84,0.0575288
,,,,,,,,,184,88.6949,0.0836676
,,,,,,,,,204,77.2802,0.0426416
,,,,,,,,,98,31.6307,0.0430568
,,,,,,,,,113,51.284,0.0743395
,,,,,,,,,129,57.852,0.0175219
,,,,,,,,,146,51.7144,0.0411338
,,,,,,,,,164,157.96,0.0770547
,,,,,,,,,183,123.621,0.0651241
,,,,,,,,,203,75.5054,0.100758
,,,,,,,,,224,109.729,0.0466766
,,,,,,,,,128,76.9267,0.042974
,,,,,,,,,145,26.393,0.01495
,,,,,,,,,163,27.3076,0.0293006
,,,,,,,,,182,144.821,0.0438676
,,,,,,,,,202,97.9836,0.0397245
,,,,,,,,,223,68.5323,0.0506513
,,,,,,,,,245,106.302,0.0320081
,,,,,,,,,162,101.194,0.0175082
,,,,,,,,,181,79.6004,0.0410582
,,,,,,,,,201,110.873,0.0767899
,,,,,,,,,222,115.945,0.0649348
,,,,,,,,,244,62.3639,0.100306
,,,,,,,,,267,74.4401,0.0465794
,,,,,,,,,200,27.6131,0.0147112
,,,,,,,,,221,124.25,0.0176547
,,,,,,,,,243,78.1512,0.0169435
,,,,,,,,,266,71.4079,0.0186605
,,,,,,,,,290,103.32,0.0153637
,,,,,,,,,242,118.109,0.0418731
,,,,,,,,,265,72.7211,0.0380819
,,,,,,,,,289,45.2557,0.0480108
,,,,,,,,,314,81.1026,0.0309331
,,,,,,,,,288,47.1808,0.066997
,,,,,,,,,313,84.5335,0.105313
,,,,,,,,,339,48.5643,0.047631
,,,,,,,,,338,57.0036,0.0842245
,,,,,,,,,365,45.326,0.0427858
,,,,,,,,,392,37.9802,0.055736
