"cellPairingIds","interplanarAngles","angleWeights"
8,34.4845,0.0304535
13,37.3113,0.035061
19,60.8633,0.03481
43,115.046,0.0280916
53,78.9329,0.0275209
64,114.472,0.0271819
33,35.1167,0.0579236
63,48.6176,0.0374982
75,88.312,0.0368716
32,40.9291,0.067824
51,44.7789,0.0729516
74,63.1041,0.0447372
116,58.1917,0.0531726
73,71.7271,0.0458293
115,54.3859,0.0719913
131,46.832,0.0525975
99,37.6547,0.0481621
114,55.309,0.0471334
113,37.8485,0.046464
164,36.6695,0.0556298
224,54.9366,0.0654681
269,55.6374,0.0895288
145,114.839,0.033465
163,30.9689,0.0481673
202,78.7968,0.0150741
223,53.6907,0.0413398
162,76.2019,0.0326581
316,60.4627,0.0504678
243,40.2373,0.0148082
315,42.7146,0.0330395
341,78.514,0.0493394
242,50.6126,0.0557004
289,61.746,0.0614998
314,46.0776,0.0655659
339,31.0842,0.0490832
338,29.3454,0.0161713
393,33.9289,0.0149872
422,63.4674,0.017629
392,61.4284,0.0535315
451,59.1228,0.068608
481,31.9658,0.0737073
512,36.7967,0.0513843
