Q	U	V
{$V$}	{[mm$^3$]}	0.00499677
{$d_v$}	{[mm]}	0.212111
{$S_c$}	{[mm$^2$]}	0.246309
{$S_o$}	{[mm$^2$]}	0.134072
{$S_l/S_o$}	[]	0.837140
{$\Psi$}	[]	0.573848
{$\eta$}	[]	0.590636
{med($\theta_e$)}	{[$^\circ$]}	85.7311
{$\Upsilon$}	[]	15
{$\Xi$}	[]	7
