Q	U	V
{$V$}	{[mm$^3$]}	0.00228108
{$d_v$}	{[mm]}	0.163323
{$S_c$}	{[mm$^2$]}	0.141034
{$S_o$}	{[mm$^2$]}	0.0833027
{$S_l/S_o$}	[]	0.693030
{$\Psi$}	[]	0.594184
{$\eta$}	[]	0.648153
{med($\theta_e$)}	{[$^\circ$]}	93.3375
{$\Upsilon$}	[]	14
{$\Xi$}	[]	9
