facetNormals:0,facetNormals:1,facetNormals:2,FacetCenters:0,FacetCenters:1,FacetCenters:2,FacetIds,relFacetSize,absFacetSize,cellPairingIds,interplanarAngles,angleWeights
-0.37191,0.0919128,-0.904855,6.25452,3.93493,7.53587,1,0.0373436,0.0069007,8,27.8377,0.0326732
0.0301192,0.339634,-0.920444,6.29838,3.96174,7.52788,2,0.0290412,0.00536651,13,50.2368,0.0510021
0.0693929,-0.583691,-0.749282,6.27515,3.82992,7.5724,3,0.0804138,0.0148596,19,69.85,0.0260108
0.652996,-0.318772,-0.670684,6.34745,3.86953,7.58936,4,0.019955,0.00368748,26,57.2979,0.0334167
-0.114364,0.838044,-0.422597,6.25194,3.9706,7.64132,5,0.0302371,0.00558751,34,89.7698,0.0462975
0.702245,-0.587768,-0.35262,6.33325,3.85566,7.58413,6,0.0608996,0.0112536,43,47.381,0.0631487
-0.870353,-0.176142,-0.366557,6.17798,3.86323,7.65407,7,0.204378,0.0377669,53,91.1785,0.0227632
0.37647,0.907645,-0.0405741,6.2921,3.93882,7.61605,8,0.0163712,0.00302523,64,118.387,0.048163
0.664649,0.575606,0.25843,6.32686,3.93942,7.59368,9,0.0678092,0.0125304,76,117.083,0.0392016
0.939334,0.140232,0.100334,6.34957,3.89024,7.62856,10,0.0412542,0.00762335,89,95.7549,0.0225795
-0.803235,-0.375718,0.397809,6.15443,3.82119,7.73878,11,0.0161818,0.00299023,103,95.6005,0.047456
-0.205887,0.898167,0.277854,6.23662,3.96392,7.62138,12,0.0650789,0.0120259,118,127.898,0.0469748
0.410142,-0.761945,0.38608,6.2753,3.77879,7.69566,13,0.0633006,0.0116973,134,133.475,0.0356754
0.0449883,0.601201,0.77795,6.24865,3.81918,7.58459,14,0.03415,0.00631056,151,137.651,0.0133166
-0.334673,-0.110624,0.908136,6.22416,3.78315,7.64205,15,0.00810307,0.00149736,18,58.1326,0.0426716
,,,,,,,,,25,56.9939,0.0236556
,,,,,,,,,33,43.7724,0.0296271
,,,,,,,,,42,81.2762,0.039328
,,,,,,,,,52,74.5404,0.050856
,,,,,,,,,63,68.2985,0.0209388
,,,,,,,,,75,91.4241,0.040666
,,,,,,,,,88,91.0044,0.0340868
,,,,,,,,,102,122.884,0.0207832
,,,,,,,,,117,87.3852,0.0401608
,,,,,,,,,133,130.319,0.0398156
,,,,,,,,,150,121.901,0.0313891
,,,,,,,,,168,157.522,0.0126707
,,,,,,,,,32,38.8007,0.0319753
,,,,,,,,,41,101.561,0.0439487
,,,,,,,,,51,45.4141,0.0693093
,,,,,,,,,62,69.7224,0.115416
,,,,,,,,,74,120.352,0.0272041
,,,,,,,,,87,123.641,0.0735756
,,,,,,,,,101,95.796,0.0545322
,,,,,,,,,116,98.3559,0.0269421
,,,,,,,,,132,144.558,0.0719382
,,,,,,,,,149,78.2397,0.0708383
,,,,,,,,,167,173.198,0.0479406
,,,,,,,,,186,133.544,0.0147226
,,,,,,,,,50,93.5808,0.0240429
,,,,,,,,,61,24.5818,0.0300602
,,,,,,,,,73,106.282,0.03636
,,,,,,,,,86,90.9595,0.0179863
,,,,,,,,,100,85.1131,0.0308357
,,,,,,,,,115,57.9328,0.0268989
,,,,,,,,,131,134.326,0.0178714
,,,,,,,,,148,129.636,0.0305443
,,,,,,,,,166,74.4129,0.0303443
,,,,,,,,,185,134.655,0.0251904
,,,,,,,,,205,145.341,0.0115259
,,,,,,,,,72,117.183,0.0404102
,,,,,,,,,85,83.2458,0.0526804
,,,,,,,,,99,37.8003,0.0212416
,,,,,,,,,114,69.9438,0.0418242
,,,,,,,,,130,92.0503,0.0348968
,,,,,,,,,147,115.19,0.0210816
,,,,,,,,,165,43.6151,0.04129
,,,,,,,,,184,161.298,0.0409253
,,,,,,,,,204,79.4784,0.0320747
,,,,,,,,,225,118.409,0.012781
,,,,,,,,,98,113.666,0.0938378
,,,,,,,,,113,105.309,0.0258054
,,,,,,,,,129,87.6232,0.0641689
,,,,,,,,,146,54.6786,0.0491879
,,,,,,,,,164,120.462,0.0255695
,,,,,,,,,183,144.666,0.0629199
,,,,,,,,,203,49.8352,0.0620769
,,,,,,,,,224,128.112,0.0437607
,,,,,,,,,246,120.852,0.014303
,,,,,,,,,128,120.019,0.0303142
,,,,,,,,,145,151.62,0.101832
,,,,,,,,,163,163.355,0.0686511
,,,,,,,,,182,48.4364,0.0299892
,,,,,,,,,202,95.0172,0.0987223
,,,,,,,,,223,113.589,0.0966626
,,,,,,,,,245,117.065,0.0585215
,,,,,,,,,268,91.3541,0.0155881
,,,,,,,,,162,32.2573,0.0263748
,,,,,,,,,181,59.4898,0.0234404
,,,,,,,,,201,133.633,0.016276
,,,,,,,,,222,39.8724,0.0261613
,,,,,,,,,244,126.388,0.0260144
,,,,,,,,,267,56.7261,0.0221324
,,,,,,,,,291,105.949,0.0108405
,,,,,,,,,200,33.3652,0.0512989
,,,,,,,,,221,136.616,0.0261284
,,,,,,,,,243,59.1758,0.066416
,,,,,,,,,266,94.3725,0.0654774
,,,,,,,,,290,50.2298,0.0454237
,,,,,,,,,315,93.3024,0.0144763
,,,,,,,,,242,145.754,0.0232456
,,,,,,,,,265,92.4671,0.0504975
,,,,,,,,,289,69.4841,0.0499531
,,,,,,,,,314,77.4264,0.0373674
,,,,,,,,,340,104.871,0.0135456
,,,,,,,,,288,93.7728,0.0259189
,,,,,,,,,313,83.1134,0.0257747
,,,,,,,,,339,87.1563,0.0219586
,,,,,,,,,366,44.8133,0.0107987
,,,,,,,,,338,136.501,0.0641774
,,,,,,,,,365,37.9575,0.0447943
,,,,,,,,,393,76.311,0.0144117
,,,,,,,,,392,98.5892,0.0443653
,,,,,,,,,421,71.1886,0.014367
,,,,,,,,,450,49.3227,0.0130982
