"cellPairingIds","interplanarAngles","angleWeights"
8,55.6744,0.0387591
19,75.6196,0.0519051
34,71.6112,0.0194342
53,76.016,0.0454322
64,101.394,0.0482132
18,20.1393,0.0459794
25,95.0841,0.0744381
42,57.7038,0.0219184
32,99.0593,0.0657272
51,63.1616,0.0210952
62,58.3875,0.0502659
101,123.959,0.0506294
50,34.3009,0.0657933
100,80.4513,0.119406
115,88.1258,0.0874395
114,49.8425,0.0599722
130,60.7474,0.0506686
98,50.5042,0.0228472
113,30.5903,0.0239039
128,67.0954,0.0698119
145,123.386,0.0766014
163,85.8881,0.062049
162,85.1085,0.0899307
200,59.0438,0.0774488
