"cellPairingIds","interplanarAngles","angleWeights"
8,63.102,0.00918466
13,26.1673,0.00678036
103,112.911,0.0092363
18,86.2651,0.02088
25,45.6666,0.117704
33,100.21,0.0248149
52,41.5742,0.027616
117,77.7202,0.115255
41,24.8336,0.0126733
74,30.5027,0.00449036
132,133.987,0.0211488
50,107.073,0.0253106
61,41.5328,0.0237732
73,45.8643,0.0282313
100,71.9355,0.0501336
131,98.207,0.0636561
185,100.121,0.0957591
205,109.48,0.0794508
72,86.5738,0.0135379
99,34.0778,0.00464889
130,64.4228,0.0200884
184,78.9863,0.0215042
129,31.3768,0.0184147
146,60.0468,0.0191077
202,44.0197,0.0280881
245,65.5822,0.0262069
222,126.425,0.00545009
244,62.1858,0.00525497
267,120.102,0.00537522
200,30.3582,0.0330934
221,31.4244,0.0357788
242,24.1723,0.0384908
289,43.695,0.0400467
340,63.872,0.0437498
366,42.0172,0.0485691
365,27.8201,0.0941312
392,75.4083,0.0573517
421,43.5241,0.051073
450,39.3194,0.0652627
