"cellPairingIds","interplanarAngles","angleWeights"
8,36.5681,0.0143332
13,31.9948,0.0554823
26,36.5587,0.0489057
18,41.4099,0.0152883
25,36.5112,0.0154538
33,67.2929,0.014742
88,74.9669,0.0163405
41,65.1328,0.062154
51,29.033,0.0768385
74,46.6299,0.0211654
101,59.9822,0.105781
50,52.2761,0.0649845
115,110.168,0.114251
185,154.271,0.0742798
205,143.488,0.0431136
226,158.631,0.0225154
72,59.6128,0.0647749
114,62.1968,0.0326567
225,100.439,0.0379952
113,36.6307,0.0214611
129,36.3844,0.0363018
162,50.0815,0.0161866
181,40.3554,0.0232368
267,55.1252,0.0209446
291,85.8174,0.0173983
315,60.6398,0.0260228
314,46.5651,0.100487
450,61.9785,0.0409946
481,41.183,0.0219236
512,26.2364,0.0180685
