"cellPairingIds","interplanarAngles","angleWeights"
33,41.4451,0.0520384
75,138.503,0.0321454
88,63.8501,0.0834319
85,65.1102,0.0407479
114,129.878,0.0308901
130,74.1089,0.0754716
145,71.1083,0.0274475
163,122.44,0.0577688
200,154.423,0.039774
