"cellPairingIds","interplanarAngles","angleWeights"
8,34.7716,0.0174009
13,40.8188,0.0175146
19,43.713,0.0101736
26,38.2703,0.0167555
34,47.2737,0.0174295
53,42.4496,0.0156014
103,62.4203,0.012559
18,25.0928,0.123843
25,28.5942,0.0202949
102,52.6784,0.112628
168,71.613,0.0399193
51,73.3161,0.125305
87,46.3854,0.104285
101,44.0422,0.0287714
116,53.1122,0.117569
148,41.7664,0.0139999
205,54.3033,0.01518
72,25.638,0.0946316
99,30.3957,0.057837
184,51.9864,0.0464113
129,59.2581,0.101338
203,75.1598,0.0519789
269,159.615,0.0293757
222,28.798,0.0268587
244,30.3015,0.0385189
200,41.9296,0.0272894
341,113.415,0.0280503
242,40.595,0.0281208
367,80.1869,0.0164425
366,51.035,0.0392442
394,65.5393,0.0289294
338,24.6001,0.0241032
365,29.7364,0.024164
393,60.8085,0.0211837
392,42.3457,0.0332078
451,114.158,0.0222119
450,36.4052,0.0279087
481,81.7173,0.0222635
512,58.7384,0.0197089
