"cellPairingIds","interplanarAngles","angleWeights"
8,71.0207,0.0152419
26,103.885,0.0124834
34,87.8176,0.013863
53,96.3409,0.014477
42,78.2671,0.0821852
63,62.9874,0.109791
102,64.6888,0.0138633
72,94.3609,0.037502
99,125.624,0.0423625
147,123.168,0.0115433
164,108.423,0.0127132
201,38.7437,0.0132276
