"cellPairingIds","interplanarAngles","angleWeights"
13,28.9005,0.00439788
19,63.9998,0.00391503
26,40.9455,0.00854954
53,54.3098,0.00836853
18,36.8595,0.00812841
25,56.6639,0.00661951
42,35.3705,0.0718786
52,85.4529,0.0149913
32,87.9596,0.00390207
51,39.5312,0.00839503
74,69.3143,0.00830953
87,46.9121,0.00850894
149,70.3114,0.00763819
50,34.824,0.00685603
73,32.7233,0.00500114
85,61.7607,0.0162618
99,51.0521,0.100739
165,74.4362,0.0282556
225,73.0786,0.0702746
98,107.64,0.015924
129,48.7139,0.118898
164,53.1673,0.0815223
269,112.285,0.0233696
202,26.7991,0.0111746
292,55.1732,0.0104621
244,77.1611,0.0434146
267,44.6056,0.0543511
291,57.4654,0.0596667
221,25.3001,0.0937039
266,34.2261,0.0494721
313,42.5446,0.0415465
394,98.7741,0.0221966
516,71.3393,0.00605353
393,48.2433,0.023683
422,46.0951,0.0143925
515,41.788,0.0204204
548,77.9274,0.00527365
392,35.9264,0.0345112
514,60.6055,0.0193355
581,75.1207,0.00572297
450,70.141,0.0440487
546,37.2382,0.0212389
579,40.9721,0.022005
614,28.0547,0.0359593
650,80.638,0.00593611
686,43.7088,0.00510942
761,65.1363,0.0051856
800,54.3625,0.00570754
