"cellPairingIds","interplanarAngles","angleWeights"
8,99.959,0.0659491
13,82.6085,0.0434566
19,43.6335,0.0472412
26,101.122,0.0322876
43,51.9383,0.0724907
18,74.2629,0.0507526
33,62.4001,0.0361486
75,49.1524,0.104467
51,49.6699,0.0393186
62,112.88,0.0545402
74,37.4597,0.0495529
87,72.0335,0.0574032
101,62.9247,0.0375512
50,68.1442,0.0297015
73,41.528,0.0606369
85,102.352,0.0380297
114,81.6531,0.0393999
147,113.269,0.0298515
98,71.4016,0.061665
146,29.5603,0.0407965
163,82.3059,0.0574259
182,109.925,0.0612653
162,41.6976,0.0995088
181,53.9684,0.0519236
201,45.8932,0.0550425
221,54.2378,0.0649015
242,39.7724,0.0406212
