"cellPairingIds","interplanarAngles","angleWeights"
8,61.2209,0.11815
13,41.7353,0.0485217
19,51.9124,0.0940452
26,39.3374,0.0873099
18,33.5578,0.0599886
25,109.806,0.149395
52,70.9068,0.00765649
41,27.4203,0.050866
62,45.8693,0.00700507
50,78.8037,0.10327
61,28.7339,0.112413
86,70.2878,0.0443184
100,72.9846,0.0366097
85,33.4642,0.00748515
99,71.5906,0.0427638
128,62.4612,0.00682694
145,98.8052,0.00661246
162,39.7672,0.0243807
