"cellPairingIds","interplanarAngles","angleWeights"
8,52.7767,0.0236911
13,30.6774,0.0725838
19,65.9707,0.0481143
34,84.5595,0.0645461
43,61.7751,0.0221323
64,92.3159,0.0200673
18,64.0127,0.026537
33,26.7251,0.0208365
42,48.8991,0.0253814
63,53.2464,0.0261586
41,72.6747,0.0511248
87,75.0159,0.0220723
149,88.1731,0.0894407
61,24.9022,0.0556398
73,83.7812,0.0209808
115,53.3671,0.0431076
131,64.0371,0.0388461
99,46.8923,0.0497387
184,96.3164,0.046533
113,28.8483,0.0868722
146,42.1988,0.0558449
145,56.3889,0.0130359
182,62.1063,0.0199435
181,47.1506,0.0597507
244,112.775,0.0852829
267,45.9856,0.0796645
221,93.5195,0.0182511
243,84.8846,0.0165694
266,54.016,0.0211704
315,82.9153,0.0192587
242,41.0456,0.0389459
265,43.468,0.0320127
314,42.5854,0.0527755
340,61.2373,0.0438404
288,25.8597,0.0296012
393,43.4241,0.0323459
392,82.8229,0.071748
421,62.6517,0.0561813
450,36.2817,0.0536871
