facetNormals:0,facetNormals:1,facetNormals:2,FacetCenters:0,FacetCenters:1,FacetCenters:2,FacetIds,relFacetSize,absFacetSize,cellPairingIds,interplanarAngles,angleWeights
-0.477541,-0.506262,-0.615862,6.42672,4.64352,7.21774,1,0.0199556,0.00149381,8,38.0773,0.0163331
-0.0493037,-0.786771,-0.330245,6.47379,4.60859,7.2469,2,0.0138238,0.0010348,13,115.391,0.032354
0.23651,0.894202,-0.291055,6.48304,4.7149,7.15963,3,0.0854346,0.00639536,19,128.104,0.0296656
0.699902,0.661655,-0.175056,6.52904,4.7018,7.1777,4,0.0577805,0.00432526,26,100.214,0.0248436
0.90164,-0.354126,-0.145914,6.5359,4.64692,7.19324,5,0.0329032,0.00246302,34,115.711,0.0357507
-0.34893,0.892475,0.174545,6.42312,4.70529,7.22328,6,0.171479,0.0128363,43,126.518,0.0306665
0.859712,-0.23749,0.410099,6.5089,4.65081,7.24193,7,0.0661973,0.00495531,53,158.162,0.0317111
0.758303,0.491735,0.382308,6.52067,4.68141,7.22495,8,0.0771721,0.00577685,64,113.387,0.0291646
-0.564633,0.613245,0.523204,6.39847,4.68509,7.25924,9,0.0541562,0.00405395,76,106.233,0.0197225
-0.62593,0.189569,0.748944,6.3587,4.63767,7.29231,10,0.0194948,0.00145931,89,172.055,0.0229492
0.431414,0.480572,0.7532,6.48128,4.68439,7.27268,11,0.0269994,0.00202109,103,132.23,0.0329532
0.436986,-0.230931,0.835675,6.43801,4.62774,7.28756,12,0.0945105,0.00707474,118,132.891,0.0241868
-0.215564,0.340761,0.898034,6.4088,4.65165,7.29191,13,0.0306952,0.00229774,134,152.51,0.0222846
0.13998,0.381496,0.901341,6.43399,4.66429,7.29353,14,0.0252292,0.00188857,151,116.247,0.0290946
-0.149424,-0.210429,0.938161,6.41866,4.62031,7.29548,15,0.0536767,0.00401806,18,138.33,0.0237971
,,,,,,,,,25,126.465,0.02231
,,,,,,,,,33,70.2921,0.0194683
,,,,,,,,,42,153.13,0.025585
,,,,,,,,,52,89.3834,0.0228714
,,,,,,,,,63,131.025,0.0234474
,,,,,,,,,75,138.236,0.0220254
,,,,,,,,,88,115.482,0.0161767
,,,,,,,,,102,139.844,0.0182854
,,,,,,,,,117,98.0241,0.0241197
,,,,,,,,,133,131.186,0.0190626
,,,,,,,,,150,135.693,0.017861
,,,,,,,,,168,99.4748,0.0219855
,,,,,,,,,32,31.6398,0.0689376
,,,,,,,,,41,93.6786,0.0475093
,,,,,,,,,51,45.2672,0.114048
,,,,,,,,,62,97.7519,0.0745956
,,,,,,,,,74,57.7483,0.0810934
,,,,,,,,,87,74.0316,0.0662911
,,,,,,,,,101,101.76,0.0317457
,,,,,,,,,116,71.0426,0.0410318
,,,,,,,,,132,111.587,0.0897437
,,,,,,,,,149,90.4592,0.0451639
,,,,,,,,,167,83.2971,0.0389548
,,,,,,,,,186,121.756,0.0659307
,,,,,,,,,50,63.8731,0.0419295
,,,,,,,,,61,70.6623,0.086436
,,,,,,,,,73,67.1748,0.0617032
,,,,,,,,,86,34.764,0.0660831
,,,,,,,,,100,94.824,0.0559097
,,,,,,,,,115,117.124,0.0291534
,,,,,,,,,131,59.8334,0.0368021
,,,,,,,,,148,89.5924,0.0717162
,,,,,,,,,166,94.918,0.040092
,,,,,,,,,185,78.5216,0.0351225
,,,,,,,,,205,115.365,0.0556531
,,,,,,,,,72,133.443,0.0552123
,,,,,,,,,85,33.7697,0.0439574
,,,,,,,,,99,61.8321,0.0461358
,,,,,,,,,114,146.353,0.0409355
,,,,,,,,,130,139.51,0.0244834
,,,,,,,,,147,83.5671,0.0296604
,,,,,,,,,165,68.1587,0.0488126
,,,,,,,,,184,117.553,0.0317609
,,,,,,,,,204,98.3351,0.0285597
,,,,,,,,,225,101.934,0.0407978
,,,,,,,,,98,117.422,0.0955202
,,,,,,,,,113,75.3963,0.106441
,,,,,,,,,129,29.3416,0.0823156
,,,,,,,,,146,57.6435,0.0350095
,,,,,,,,,164,64.9072,0.0466533
,,,,,,,,,183,102.999,0.121859
,,,,,,,,,203,56.0064,0.0520698
,,,,,,,,,224,62.2126,0.0439867
,,,,,,,,,246,88.3017,0.0817606
,,,,,,,,,128,44.0891,0.0712646
,,,,,,,,,145,115.537,0.0595744
,,,,,,,,,163,106.425,0.0301195
,,,,,,,,,182,54.496,0.0383552
,,,,,,,,,202,35.7788,0.0778598
,,,,,,,,,223,83.9392,0.0419422
,,,,,,,,,245,65.7021,0.0365343
,,,,,,,,,268,71.2995,0.0592831
,,,,,,,,,162,85.6404,0.0636473
,,,,,,,,,181,95.5932,0.0311265
,,,,,,,,,201,29.0169,0.0400033
,,,,,,,,,222,55.6714,0.0849658
,,,,,,,,,244,68.9213,0.0439209
,,,,,,,,,267,48.8592,0.0380266
,,,,,,,,,291,81.4546,0.063315
,,,,,,,,,200,28.3117,0.0286694
,,,,,,,,,221,62.8756,0.0360341
,,,,,,,,,243,87.0681,0.0688564
,,,,,,,,,266,34.2806,0.0391823
,,,,,,,,,290,49.9218,0.0344224
,,,,,,,,,315,62.2304,0.0539154
,,,,,,,,,242,67.0182,0.0226414
,,,,,,,,,265,71.3586,0.0323224
,,,,,,,,,289,27.0015,0.0238453
,,,,,,,,,314,47.8471,0.0219943
,,,,,,,,,340,38.5839,0.0286017
,,,,,,,,,288,42.7838,0.0420003
,,,,,,,,,313,40.0932,0.028729
,,,,,,,,,339,19.86,0.0260843
,,,,,,,,,366,55.9142,0.0359274
,,,,,,,,,338,52.8206,0.0463401
,,,,,,,,,365,40.8336,0.0398268
,,,,,,,,,393,35.6869,0.0684676
,,,,,,,,,392,20.899,0.0276951
,,,,,,,,,421,33.0335,0.0390561
,,,,,,,,,450,39.3045,0.0343249
