facetNormals:0,facetNormals:1,facetNormals:2,FacetCenters:0,FacetCenters:1,FacetCenters:2,FacetIds,relFacetSize,absFacetSize,cellPairingIds,interplanarAngles,angleWeights
0.245828,-0.123689,-0.908587,5.69747,3.46801,5.39289,1,0.0645258,0.0158288,8,57.1158,0.0241315
-0.543423,-0.526332,-0.636104,5.62723,3.41108,5.40028,2,0.0148409,0.0036406,13,46.9224,0.055951
0.847903,0.024822,-0.46394,5.71923,3.39108,5.40024,3,0.0493879,0.0121153,19,87.0703,0.0471579
-0.836702,0.371841,-0.328955,5.62026,3.48544,5.45151,4,0.0371567,0.0091149,26,71.6123,0.055367
0.948748,0.173511,-0.0860803,5.69713,3.446,5.38755,5,0.0484851,0.0118938,34,80.9788,0.0664925
-0.37285,0.788823,-0.363093,5.64218,3.55557,5.43182,6,0.0685829,0.016824,43,98.4292,0.0793633
-0.648011,-0.663627,0.0573507,5.64888,3.38862,5.4499,7,0.103062,0.0252821,53,132.739,0.078534
-0.546844,0.643308,0.439417,5.66172,3.56377,5.51967,8,0.100311,0.0246072,64,96.7862,0.0430994
0.273994,-0.867741,0.310992,5.6638,3.37689,5.41403,9,0.0323555,0.0079371,76,118.87,0.0310347
0.630679,0.435715,0.6035,5.75264,3.58542,5.49846,10,0.0204306,0.00501181,89,152.645,0.0901923
-0.307592,-0.306244,0.817099,5.65946,3.43973,5.51005,11,0.149764,0.0367386,18,100.779,0.0228234
,,,,,,,,,25,60.8629,0.0212101
,,,,,,,,,33,125.232,0.0227256
,,,,,,,,,42,88.8715,0.0244014
,,,,,,,,,52,43.6207,0.0259456
,,,,,,,,,63,109.946,0.0258563
,,,,,,,,,75,83.3543,0.0203483
,,,,,,,,,88,172.449,0.0171928
,,,,,,,,,102,102.082,0.0270056
,,,,,,,,,32,125.602,0.042408
,,,,,,,,,41,24.9726,0.0489323
,,,,,,,,,51,98.0598,0.0574238
,,,,,,,,,62,131.259,0.0667763
,,,,,,,,,74,135.074,0.0661882
,,,,,,,,,87,85.8985,0.0390972
,,,,,,,,,101,73.6469,0.0289042
,,,,,,,,,116,136.37,0.0742804
,,,,,,,,,50,138.08,0.0420717
,,,,,,,,,61,37.9799,0.0481998
,,,,,,,,,73,72.1883,0.0546211
,,,,,,,,,86,53.3939,0.054227
,,,,,,,,,100,134.367,0.0345903
,,,,,,,,,115,126.47,0.0263646
,,,,,,,,,131,98.0013,0.0595412
,,,,,,,,,72,101.703,0.0568088
,,,,,,,,,85,144.752,0.0659461
,,,,,,,,,99,118.871,0.0653725
,,,,,,,,,114,84.9098,0.0388112
,,,,,,,,,130,48.8207,0.0287475
,,,,,,,,,147,117.616,0.0732546
,,,,,,,,,98,110.162,0.0823595
,,,,,,,,,113,52.1611,0.0814667
,,,,,,,,,129,171.832,0.0439681
,,,,,,,,,146,96.888,0.0314826
,,,,,,,,,164,118.975,0.094082
,,,,,,,,,128,93.0689,0.101668
,,,,,,,,,145,62.2472,0.0492495
,,,,,,,,,163,137.014,0.0341011
,,,,,,,,,182,58.4874,0.1221
,,,,,,,,,162,128.628,0.0489289
,,,,,,,,,181,77.5243,0.0339471
,,,,,,,,,201,67.976,0.120148
,,,,,,,,,200,91.0751,0.025046
,,,,,,,,,221,60.689,0.0532144
,,,,,,,,,242,79.4229,0.0359561
