Q	U	V
{$V$}	{[mm$^3$]}	0.00307786
{$d_v$}	{[mm]}	0.180475
{$S_c$}	{[mm$^2$]}	0.188459
{$S_o$}	{[mm$^2$]}	0.0979421
{$S_l/S_o$}	[]	0.924188
{$\Psi$}	[]	0.542958
{$\eta$}	[]	0.572809
{med($\theta_e$)}	{[$^\circ$]}	110.253
{$\Upsilon$}	[]	15
{$\Xi$}	[]	8
