facetNormals:0,facetNormals:1,facetNormals:2,FacetCenters:0,FacetCenters:1,FacetCenters:2,FacetIds,relFacetSize,absFacetSize,cellPairingIds,interplanarAngles,angleWeights
-0.054864,0.424888,-0.851081,5.08141,4.28895,7.99235,1,0.140957,0.0152442,8,53.7999,0.0720644
-0.384169,-0.380519,-0.808129,5.02709,4.1828,7.99945,2,0.0484061,0.00523501,13,32.2552,0.0383401
-0.577145,0.393572,-0.707973,5.01786,4.26304,7.99763,3,0.0221875,0.00239954,19,40.4852,0.0989928
0.559666,0.475705,-0.613499,5.13565,4.30618,8.01699,4,0.0762827,0.00824981,26,54.0292,0.0579781
-0.794754,0.0295532,-0.582127,4.99827,4.21613,8.00586,5,0.0364945,0.0039468,34,83.4532,0.107737
0.223162,-0.784563,-0.530249,5.11446,4.18944,8.01669,6,0.0871884,0.00942924,43,80.3087,0.0783314
0.689293,-0.50791,-0.483297,5.14598,4.21285,8.01475,7,0.0542353,0.00586543,53,82.9422,0.0333872
0.624893,0.676033,0.168474,5.13274,4.24647,8.08396,8,0.0189362,0.00204791,64,110.939,0.108446
0.61622,-0.765548,-0.0285517,5.08159,4.15624,8.05996,9,0.0881211,0.00953011,76,93.3493,0.0329802
-0.968991,-0.150187,0.0517105,5.00585,4.2011,8.06985,10,0.0186748,0.00201964,89,120.19,0.0559238
0.13614,-0.965145,0.0591423,5.07711,4.15554,8.11672,11,0.0348814,0.00377235,103,104.632,0.0659822
-0.692676,-0.699844,-0.0261594,5.00026,4.15146,8.06062,12,0.0430722,0.00465816,118,121.994,0.066789
-0.266014,-0.928699,0.131859,5.05909,4.16706,8.11553,13,0.0437624,0.00473281,134,134.157,0.0372896
-0.651286,-0.434239,0.589391,5.11551,4.33235,8.01487,14,0.0214869,0.00232377,18,48.24,0.030428
,,,,,,,,,25,83.8455,0.0592282
,,,,,,,,,33,37.084,0.0416147
,,,,,,,,,42,47.317,0.062251
,,,,,,,,,52,70.5057,0.0511552
,,,,,,,,,63,134.115,0.027223
,,,,,,,,,75,85.3412,0.0624871
,,,,,,,,,88,66.0474,0.0269518
,,,,,,,,,102,73.6578,0.0405456
,,,,,,,,,117,54.6935,0.0455836
,,,,,,,,,133,68.3983,0.0459672
,,,,,,,,,150,93.6627,0.0297626
,,,,,,,,,32,71.7202,0.0343764
,,,,,,,,,41,25.8129,0.027597
,,,,,,,,,51,93.6842,0.0353733
,,,,,,,,,62,105.15,0.0314918
,,,,,,,,,74,103.282,0.0204334
,,,,,,,,,87,130.629,0.0354495
,,,,,,,,,101,61.6649,0.0202802
,,,,,,,,,116,121.006,0.0271227
,,,,,,,,,132,81.6155,0.0292881
,,,,,,,,,149,108.353,0.029446
,,,,,,,,,167,102.582,0.0218316
,,,,,,,,,50,94.4755,0.0493699
,,,,,,,,,61,85.2573,0.0813718
,,,,,,,,,73,62.0749,0.0633969
,,,,,,,,,86,50.6453,0.0303407
,,,,,,,,,100,90.1084,0.0817757
,,,,,,,,,115,133.384,0.0300043
,,,,,,,,,131,116.653,0.0478724
,,,,,,,,,148,138.363,0.055057
,,,,,,,,,166,136.03,0.0556177
,,,,,,,,,185,174.029,0.0335295
,,,,,,,,,72,83.5252,0.0514525
,,,,,,,,,85,106.887,0.0436304
,,,,,,,,,99,128.541,0.0249345
,,,,,,,,,114,120.771,0.0516136
,,,,,,,,,130,40.53,0.0247068
,,,,,,,,,147,100.244,0.0356697
,,,,,,,,,165,55.845,0.0395114
,,,,,,,,,184,83.5943,0.0397993
,,,,,,,,,204,80.3625,0.0270485
,,,,,,,,,98,32.2937,0.0668726
,,,,,,,,,113,121.835,0.0311147
,,,,,,,,,129,38.0445,0.0876522
,,,,,,,,,146,97.5689,0.030761
,,,,,,,,,164,37.2475,0.0498281
,,,,,,,,,183,64.7779,0.0576597
,,,,,,,,,203,50.8141,0.0582749
,,,,,,,,,224,97.0607,0.0344772
,,,,,,,,,128,89.6297,0.0280714
,,,,,,,,,145,31.1364,0.0671452
,,,,,,,,,163,129.696,0.0277831
,,,,,,,,,182,54.6508,0.0424567
,,,,,,,,,202,96.4835,0.0480134
,,,,,,,,,223,76.4495,0.0484392
,,,,,,,,,245,122.19,0.0307796
,,,,,,,,,162,98.58,0.0311736
,,,,,,,,,181,139.456,0.0188046
,,,,,,,,,201,127.586,0.0245467
,,,,,,,,,222,170.94,0.0263069
,,,,,,,,,244,147.764,0.0264342
,,,,,,,,,267,130.968,0.0201311
,,,,,,,,,200,120.063,0.0308185
,,,,,,,,,221,31.2142,0.0499792
,,,,,,,,,243,83.4976,0.0578622
,,,,,,,,,266,55.4763,0.0584818
,,,,,,,,,290,95.1057,0.0345495
,,,,,,,,,242,89.0383,0.024326
,,,,,,,,,265,36.7533,0.0260536
,,,,,,,,,289,65.0359,0.0261784
,,,,,,,,,314,40.9414,0.0199824
,,,,,,,,,288,52.9449,0.0385465
,,,,,,,,,313,24.2735,0.0388204
,,,,,,,,,339,67.556,0.0265927
,,,,,,,,,338,30.1159,0.0434145
,,,,,,,,,365,39.9777,0.0286711
,,,,,,,,,392,46.7791,0.0288223
