facetNormals:0,facetNormals:1,facetNormals:2,FacetCenters:0,FacetCenters:1,FacetCenters:2,FacetIds,relFacetSize,absFacetSize,cellPairingIds,interplanarAngles,angleWeights
0.349959,0.0424418,-0.880427,3.46267,7.19159,7.934,1,0.0146058,0.000806956,8,48.3354,0.00713875
0.196705,0.768159,-0.59442,3.45741,7.23696,7.96036,2,0.00472377,0.000260983,13,78.52,0.0123465
-0.782508,-0.301167,-0.539281,3.3879,7.19968,7.92362,3,0.0106925,0.000590749,19,50.6679,0.0116662
0.614595,0.639495,-0.385022,3.47519,7.22375,7.97189,4,0.00971157,0.000536553,26,67.2076,0.0247745
-0.17652,-0.775495,-0.499449,3.42945,7.16052,7.94549,5,0.081549,0.00450549,34,85.9277,0.016872
-0.889389,0.0562752,-0.426381,3.38762,7.21783,7.9326,6,0.0199705,0.00110335,43,94.5252,0.0208152
-0.781196,0.539363,-0.202029,3.388,7.23871,7.96059,7,0.0362084,0.00200047,53,105.296,0.0157924
-0.981536,0.0942284,-0.10385,3.41095,7.20213,7.96504,8,0.0171887,0.000949658,64,100.232,0.0110835
-0.920408,0.333455,-0.159973,3.36965,7.24238,7.97216,9,0.00892997,0.000493371,76,77.9915,0.0250116
0.754747,-0.611364,0.052532,3.49195,7.16719,7.98554,10,0.0869769,0.00480537,89,122.885,0.026852
-0.617603,-0.680904,0.284495,3.41352,7.16737,7.99914,11,0.166205,0.00918265,103,144.16,0.0178834
-0.799162,-0.218068,0.531095,3.42325,7.17007,7.98693,12,0.0230574,0.0012739,118,119.757,0.0216384
-0.217168,0.825258,0.475811,3.39618,7.25492,8.01915,13,0.0417316,0.00230562,134,128.778,0.0224581
0.222042,0.540125,0.761962,3.4573,7.23956,8.03391,14,0.0485696,0.00268341,151,141.055,0.0186609
-0.418546,0.575657,0.694491,3.42228,7.26351,8.02312,15,0.0258329,0.00142724,169,117.876,0.0258346
0.622226,-0.147901,0.728405,3.48615,7.20061,8.02375,16,0.111735,0.0061732,188,166.317,0.0209688
-0.554747,0.030553,0.802626,3.40847,7.21291,8.03207,17,0.0371551,0.00205277,18,93.7554,0.00655268
,,,,,,,,,25,28.6384,0.00635596
,,,,,,,,,33,111.001,0.00893025
,,,,,,,,,42,82.8575,0.00764032
,,,,,,,,,52,66.6811,0.00835725
,,,,,,,,,63,93.4401,0.00741089
,,,,,,,,,75,80.0301,0.00617898
,,,,,,,,,88,111.442,0.00896087
,,,,,,,,,102,148.561,0.00918645
,,,,,,,,,117,131.05,0.00784113
,,,,,,,,,133,71.4284,0.00848687
,,,,,,,,,150,89.6595,0.00861013
,,,,,,,,,168,93.0802,0.00798704
,,,,,,,,,187,116.205,0.00906433
,,,,,,,,,207,125.572,0.00838189
,,,,,,,,,32,118.902,0.0101785
,,,,,,,,,41,46.7903,0.0189061
,,,,,,,,,51,22.6452,0.0139278
,,,,,,,,,62,54.7954,0.0165097
,,,,,,,,,74,36.3911,0.0131838
,,,,,,,,,87,44.4376,0.00973209
,,,,,,,,,101,116.64,0.0190439
,,,,,,,,,116,56.1097,0.0200924
,,,,,,,,,132,65.6404,0.0146099
,,,,,,,,,149,110.129,0.0170233
,,,,,,,,,167,141.34,0.0175266
,,,,,,,,,186,102.844,0.0151247
,,,,,,,,,206,149.797,0.0195173
,,,,,,,,,227,90.468,0.0166061
,,,,,,,,,50,116.99,0.0173562
,,,,,,,,,61,111.266,0.0130682
,,,,,,,,,73,93.5075,0.0153154
,,,,,,,,,86,121.646,0.012411
,,,,,,,,,100,107.652,0.00930439
,,,,,,,,,115,86.7895,0.0174722
,,,,,,,,,131,173.542,0.0183509
,,,,,,,,,148,151.367,0.0136668
,,,,,,,,,166,77.0893,0.0157564
,,,,,,,,,185,78.2834,0.0161866
,,,,,,,,,205,99.3674,0.0141163
,,,,,,,,,226,89.5487,0.01787
,,,,,,,,,248,131.908,0.0153983
,,,,,,,,,72,69.4086,0.0320839
,,,,,,,,,85,101.356,0.0501499
,,,,,,,,,99,80.6018,0.0283929
,,,,,,,,,114,90.9979,0.0160972
,,,,,,,,,130,69.853,0.0841755
,,,,,,,,,147,56.7913,0.109414
,,,,,,,,,165,87.2136,0.0359502
,,,,,,,,,184,156.159,0.0552101
,,,,,,,,,204,158.459,0.0608798
,,,,,,,,,225,140.382,0.0392365
,,,,,,,,,247,113.222,0.0942847
,,,,,,,,,270,110.873,0.0510506
,,,,,,,,,98,32.209,0.0257428
,,,,,,,,,113,19.6377,0.0184755
,,,,,,,,,129,22.4663,0.0123414
,,,,,,,,,146,139.257,0.0324827
,,,,,,,,,164,65.802,0.0356566
,,,,,,,,,183,60.9493,0.0214032
,,,,,,,,,203,87.8203,0.0270137
,,,,,,,,,224,121.247,0.0283034
,,,,,,,,,246,83.6575,0.0225265
,,,,,,,,,269,155.63,0.0338847
,,,,,,,,,293,80.8784,0.025978
,,,,,,,,,128,29.3767,0.0233113
,,,,,,,,,145,14.7076,0.0143266
,,,,,,,,,163,170.08,0.0511311
,,,,,,,,,182,86.4557,0.0594627
,,,,,,,,,202,65.2798,0.0281739
,,,,,,,,,223,56.8438,0.0387743
,,,,,,,,,245,92.2188,0.0414878
,,,,,,,,,268,58.9961,0.0301531
,,,,,,,,,292,139.277,0.0546932
,,,,,,,,,317,72.3227,0.0366756
,,,,,,,,,162,14.6691,0.0117536
,,,,,,,,,181,146.461,0.0287047
,,,,,,,,,201,57.5107,0.0311554
,,,,,,,,,222,43.4151,0.0196952
,,,,,,,,,244,75.5638,0.0243486
,,,,,,,,,267,104.989,0.0253915
,,,,,,,,,291,66.5138,0.0206424
,,,,,,,,,316,136.775,0.0297941
,,,,,,,,,342,61.3513,0.023504
,,,,,,,,,200,160.046,0.016197
,,,,,,,,,221,71.942,0.0169493
,,,,,,,,,243,53.6978,0.012874
,,,,,,,,,266,65.6916,0.0147118
,,,,,,,,,290,98.8287,0.0150862
,,,,,,,,,315,61.8025,0.013272
,,,,,,,,,341,140.184,0.0165382
,,,,,,,,,368,66.0942,0.0143992
,,,,,,,,,242,92.1373,0.114195
,,,,,,,,,265,117.499,0.0364516
,,,,,,,,,289,132.613,0.0564016
,,,,,,,,,314,97.5441,0.0623318
,,,,,,,,,340,130.745,0.0398346
,,,,,,,,,367,50.6133,0.0978134
,,,,,,,,,395,114.596,0.0520677
,,,,,,,,,288,33.1106,0.0404968
,,,,,,,,,313,108.121,0.0667127
,,,,,,,,,339,108.174,0.0751719
,,,,,,,,,366,86.1587,0.0447158
,,,,,,,,,394,94.6953,0.133632
,,,,,,,,,423,54.1493,0.0607332
,,,,,,,,,338,75.1568,0.0297033
,,,,,,,,,365,83.3472,0.03127
,,,,,,,,,393,53.8092,0.0243664
,,,,,,,,,422,94.6999,0.0382265
,,,,,,,,,452,26.0538,0.0284559
,,,,,,,,,392,35.8712,0.0448917
,,,,,,,,,421,22.6885,0.0319117
,,,,,,,,,451,84.5836,0.0607673
,,,,,,,,,482,56.4151,0.0393106
,,,,,,,,,450,38.4958,0.0337272
,,,,,,,,,481,48.7728,0.0677075
,,,,,,,,,513,57.4,0.0421024
,,,,,,,,,512,80.4274,0.0419638
,,,,,,,,,545,33.7425,0.0304764
,,,,,,,,,578,75.6236,0.0557662
