Q	U	V
{$V$}	{[mm$^3$]}	0.00228108
{$d_v$}	{[mm]}	0.163323
{$S_c$}	{[mm$^2$]}	0.127095
{$S_o$}	{[mm$^2$]}	0.0670668
{$S_l/S_o$}	[]	0.895051
{$\Psi$}	[]	0.65935
{$\eta$}	[]	0.697635
{med($\theta_e$)}	{[$^\circ$]}	84.8632
{$\Upsilon$}	[]	17
{$\Xi$}	[]	6
