Q	U	V
{$V$}	{[mm$^3$]}	0.00984987
{$d_v$}	{[mm]}	0.265957
{$S_c$}	{[mm$^2$]}	0.374837
{$S_o$}	{[mm$^2$]}	0.248426
{$S_l/S_o$}	[]	0.508848
{$\Psi$}	[]	0.592828
{$\eta$}	[]	0.610633
{med($\theta_e$)}	{[$^\circ$]}	52.9605
{$\Upsilon$}	[]	18
{$\Xi$}	[]	13
