"cellPairingIds","interplanarAngles","angleWeights"
13,30.0326,0.00619315
19,46.848,0.030965
34,93.3396,0.0125664
43,43.8935,0.029097
64,99.3462,0.0166688
32,28.5464,0.00717539
41,80.5929,0.00711755
51,112.162,0.00535769
74,42.1107,0.00650624
73,45.3847,0.0815377
86,34.1334,0.0407758
166,73.943,0.0978951
72,61.7213,0.017063
99,80.302,0.0389757
130,48.174,0.10666
129,29.7662,0.011741
146,101.568,0.0180097
145,100.804,0.0250237
182,94.5418,0.0270221
223,67.4768,0.0813781
181,56.9012,0.0442941
222,53.4023,0.0304113
244,80.1683,0.0407358
200,123.007,0.0278236
221,52.6442,0.0159665
242,115.42,0.0303164
265,21.4287,0.0602366
288,104.068,0.0230992
313,61.5998,0.0286062
338,76.4949,0.053841
