"cellPairingIds","interplanarAngles","angleWeights"
8,50.1839,0.0270316
13,51.1806,0.0178179
19,78.1796,0.0279864
43,110.653,0.0115355
18,46.1891,0.0392695
25,91.3259,0.197109
33,48.5477,0.105414
42,63.7234,0.0466319
51,40.1559,0.0246462
62,88.9323,0.0133049
50,91.9988,0.12159
73,128.041,0.0182587
100,70.939,0.0756918
115,73.2684,0.13071
72,65.4485,0.0406577
99,44.3686,0.0722443
130,79.9529,0.0828937
98,78.2659,0.0140568
113,48.9867,0.0387596
128,90.5901,0.0165601
145,71.2976,0.0155839
163,90.226,0.0170626
182,74.1578,0.0136784
181,66.1211,0.0753689
201,31.2534,0.0360126
200,29.7618,0.0586486
242,41.8879,0.0384767
