"cellPairingIds","interplanarAngles","angleWeights"
8,51.2488,0.0279831
13,79.8272,0.0767137
19,39.4391,0.0158492
26,112.048,0.0445777
25,57.001,0.0126174
33,136.641,0.025911
42,50.6828,0.0336465
52,121.867,0.0328759
75,91.5467,0.0256173
32,100.081,0.0176818
41,40.0886,0.0629196
74,46.9836,0.0576031
61,59.6361,0.0175194
86,78.6551,0.0148325
115,66.7918,0.0164784
131,72.3933,0.0172981
85,48.1291,0.0584304
99,72.6548,0.0373728
129,61.4577,0.0593111
146,27.0975,0.0896816
128,103.53,0.0538176
145,50.5937,0.0569578
182,102.152,0.11146
201,47.5155,0.0537204
200,56.8978,0.0488619
221,84.0913,0.0568489
242,48.8412,0.0841694
