"cellPairingIds","interplanarAngles","angleWeights"
8,29.8222,0.0422229
13,60.7966,0.0324384
26,30.8667,0.0293868
34,76.0232,0.0627217
43,108.609,0.113993
89,67.333,0.0246688
18,38.8566,0.023265
25,30.1283,0.00910049
33,36.8645,0.0216524
88,57.4767,0.0246512
32,28.8224,0.00854496
62,83.161,0.0356232
74,50.8582,0.0265682
87,63.3809,0.00840285
86,39.605,0.0095657
115,37.8627,0.00872516
130,62.5608,0.0196421
147,58.8277,0.0158636
184,52.7864,0.0288143
225,71.4439,0.0301668
98,54.9883,0.0758301
164,62.0343,0.022246
183,41.1928,0.0327496
224,47.1443,0.0612939
145,58.779,0.0103144
202,34.2894,0.0428013
317,62.0824,0.0461286
162,44.3394,0.00938796
181,35.7334,0.0283914
316,40.6624,0.0450975
341,60.6673,0.00965788
368,49.1035,0.00887988
289,38.366,0.0343799
367,42.3931,0.0310126
339,38.2979,0.0244448
366,53.511,0.0252161
365,51.2671,0.0377484
393,109.231,0.0396197
452,58.6042,0.025624
421,35.3901,0.0883019
451,53.1397,0.0623482
450,65.7662,0.0907436
512,65.3154,0.0690466
545,90.197,0.0424543
578,60.4842,0.0353745
