Q	U	V
{$V$}	{[mm$^3$]}	0.0165138
{$d_v$}	{[mm]}	0.315948
{$S_c$}	{[mm$^2$]}	0.545295
{$S_o$}	{[mm$^2$]}	0.37037
{$S_l/S_o$}	[]	0.472298
{$\Psi$}	[]	0.57511
{$\eta$}	[]	0.601550
{med($\theta_e$)}	{[$^\circ$]}	71.11875
{$\Upsilon$}	[]	12
{$\Xi$}	[]	13
