Q	U	V
{$V$}	{[mm$^3$]}	0.0184933
{$d_v$}	{[mm]}	0.328099
{$S_c$}	{[mm$^2$]}	0.584176
{$S_o$}	{[mm$^2$]}	0.39928
{$S_l/S_o$}	[]	0.463074
{$\Psi$}	[]	0.578918
{$\eta$}	[]	0.630668
{med($\theta_e$)}	{[$^\circ$]}	66.9202
{$\Upsilon$}	[]	13
{$\Xi$}	[]	15
