"cellPairingIds","interplanarAngles","angleWeights"
8,51.1526,0.0700341
13,100.702,0.0551516
19,53.2469,0.0903722
26,49.8904,0.0796135
43,154.789,0.0984534
53,127.189,0.0714394
18,63.307,0.053093
33,57.9759,0.0753935
42,44.3966,0.0643667
88,101.943,0.0244495
62,73.8021,0.0679661
101,67.5189,0.0223446
50,43.1553,0.0994993
86,77.25,0.087051
72,24.3662,0.0723699
99,106.481,0.0770247
114,58.1812,0.0591573
147,86.4295,0.0654663
129,46.1456,0.0521476
146,93.4626,0.0241227
128,54.9046,0.0945245
163,49.2945,0.0271895
181,75.3646,0.0246186
201,46.738,0.0598364
200,55.0289,0.0224513
221,37.997,0.0484649
242,45.0923,0.0233036
