facetNormals:0,facetNormals:1,facetNormals:2,FacetCenters:0,FacetCenters:1,FacetCenters:2,FacetIds,relFacetSize,absFacetSize,cellPairingIds,interplanarAngles,angleWeights
-0.259346,-0.00298416,-0.943185,3.67288,4.5072,8.75978,1,0.0261592,0.00775654,8,46.824,0.0336681
0.470026,0.228023,-0.819824,3.72334,4.51983,8.7649,2,0.0472235,0.0140024,13,57.2639,0.0279459
0.494064,-0.477866,-0.674406,3.73535,4.38022,8.7322,3,0.0299947,0.00889383,19,43.1784,0.0278642
-0.780366,0.260353,-0.523847,3.60356,4.53995,8.82758,4,0.029807,0.00883818,26,48.7903,0.0309141
-0.0617773,0.702501,-0.6325,3.66414,4.61065,8.79521,5,0.0377816,0.0112028,34,69.3101,0.0203787
0.042682,-0.908217,-0.368322,3.71778,4.39104,8.83017,6,0.0166906,0.00494898,43,53.6564,0.0440025
-0.563025,-0.636821,-0.428145,3.6318,4.46912,8.86909,7,0.138418,0.0410429,53,81.9123,0.0370429
0.541582,0.727909,-0.290211,3.70672,4.57563,8.80574,8,0.0634361,0.0188097,64,78.0867,0.0318216
-0.369126,0.888125,-0.10853,3.62494,4.60435,8.84071,9,0.0406126,0.0120422,76,113.139,0.0256265
0.845998,0.451233,0.162264,3.73179,4.53639,8.85204,10,0.025115,0.00744694,89,119.485,0.0234822
0.550779,0.735708,0.347833,3.71962,4.46558,8.79827,11,0.0213022,0.0063164,103,95.6433,0.0331807
-0.832781,0.371433,0.326594,3.57109,4.57645,8.92805,12,0.0453547,0.0134483,118,136.441,0.0252124
0.113658,0.674845,0.705089,3.68793,4.62067,8.96748,13,0.0243318,0.00721469,134,122.655,0.0138025
-0.663713,0.0303605,0.738187,3.62191,4.58718,8.9274,14,0.00937437,0.00277963,151,149.463,0.0245111
0.556503,0.368777,0.728438,3.70899,4.43221,8.86428,15,0.0230585,0.00683714,169,155.515,0.0316902
0.300279,-0.388071,0.823187,3.69385,4.43534,8.99174,16,0.0401875,0.0119161,188,133.673,0.0404396
-0.372028,0.413721,0.797256,3.63739,4.56156,9.00834,17,0.0890554,0.0264061,18,43.7554,0.0366871
,,,,,,,,,25,82.6045,0.0365463
,,,,,,,,,33,45.1305,0.0419782
,,,,,,,,,42,83.0783,0.024664
,,,,,,,,,52,93.6463,0.0704216
,,,,,,,,,63,44.6782,0.0541422
,,,,,,,,,75,82.7961,0.0436693
,,,,,,,,,88,67.1231,0.0327908
,,,,,,,,,102,81.483,0.0293603
,,,,,,,,,117,127.598,0.0462703
,,,,,,,,,133,112.838,0.0321159
,,,,,,,,,150,160.523,0.0156434
,,,,,,,,,168,105.181,0.0309866
,,,,,,,,,187,131.904,0.0434223
,,,,,,,,,207,140.966,0.0617192
,,,,,,,,,32,99.6036,0.0299006
,,,,,,,,,41,86.2074,0.0334408
,,,,,,,,,51,41.8654,0.021447
,,,,,,,,,62,69.905,0.0493052
,,,,,,,,,74,82.7693,0.0407306
,,,,,,,,,87,124.925,0.0345053
,,,,,,,,,101,84.3055,0.0273388
,,,,,,,,,116,109.382,0.024912
,,,,,,,,,132,150.18,0.0361091
,,,,,,,,,149,141.632,0.0268681
,,,,,,,,,167,151.474,0.0142844
,,,,,,,,,186,114.366,0.0260731
,,,,,,,,,206,103.879,0.0343509
,,,,,,,,,227,169.062,0.0448751
,,,,,,,,,50,52.4988,0.0333239
,,,,,,,,,61,94.6055,0.0213988
,,,,,,,,,73,57.565,0.0490513
,,,,,,,,,86,95.0076,0.0405572
,,,,,,,,,100,52.386,0.0343808
,,,,,,,,,115,131.442,0.0272606
,,,,,,,,,131,116.024,0.024847
,,,,,,,,,148,52.4669,0.0359728
,,,,,,,,,166,107.136,0.0267925
,,,,,,,,,185,81.7405,0.014263
,,,,,,,,,205,138.331,0.026002
,,,,,,,,,226,145.104,0.0342275
,,,,,,,,,248,91.185,0.0446647
,,,,,,,,,72,116.022,0.023153
,,,,,,,,,85,99.0477,0.0593606
,,,,,,,,,99,42.8595,0.0473577
,,,,,,,,,114,38.7201,0.039146
,,,,,,,,,130,79.8654,0.0301729
,,,,,,,,,147,73.6012,0.0272438
,,,,,,,,,165,83.3781,0.0412232
,,,,,,,,,184,88.7018,0.0296005
,,,,,,,,,204,115.469,0.0150216
,,,,,,,,,225,104.607,0.0286385
,,,,,,,,,247,153.413,0.0389474
,,,,,,,,,270,101.947,0.0530548
,,,,,,,,,98,40.304,0.0297891
,,,,,,,,,113,124.635,0.0264278
,,,,,,,,,129,145.489,0.0236583
,,,,,,,,,146,117.026,0.020054
,,,,,,,,,164,143.29,0.0187165
,,,,,,,,,183,121.268,0.0244014
,,,,,,,,,203,154.19,0.0197995
,,,,,,,,,224,109.661,0.0120057
,,,,,,,,,246,126.715,0.0193644
,,,,,,,,,269,86.2143,0.0235856
,,,,,,,,,293,135.933,0.0281124
,,,,,,,,,128,135.282,0.0870005
,,,,,,,,,145,109.75,0.0627995
,,,,,,,,,163,154.181,0.0425158
,,,,,,,,,182,172.637,0.0369222
,,,,,,,,,202,84.2405,0.0683225
,,,,,,,,,223,148.295,0.0413881
,,,,,,,,,245,87.6777,0.0175595
,,,,,,,,,268,156.14,0.0395315
,,,,,,,,,292,107.507,0.06229
,,,,,,,,,317,115.294,0.108381
,,,,,,,,,162,58.7672,0.0495212
,,,,,,,,,181,37.0258,0.0359837
,,,,,,,,,201,38.4687,0.0318942
,,,,,,,,,222,107.369,0.0528928
,,,,,,,,,244,68.163,0.0351726
,,,,,,,,,267,125.665,0.0163348
,,,,,,,,,291,67.616,0.0338227
,,,,,,,,,316,113.141,0.0492038
,,,,,,,,,342,98.176,0.0740937
,,,,,,,,,200,85.6824,0.0310368
,,,,,,,,,221,64.3073,0.0279461
,,,,,,,,,243,50.0608,0.0428529
,,,,,,,,,266,59.627,0.0304315
,,,,,,,,,290,78.488,0.0152327
,,,,,,,,,315,87.4204,0.0294157
,,,,,,,,,341,125.972,0.0403989
,,,,,,,,,368,63.6108,0.0557851
,,,,,,,,,242,26.6083,0.023052
,,,,,,,,,265,120.916,0.0323283
,,,,,,,,,289,57.3806,0.0247172
,,,,,,,,,314,116.307,0.0136527
,,,,,,,,,340,38.1706,0.0240428
,,,,,,,,,367,76.8194,0.0309118
,,,,,,,,,395,89.9202,0.0391805
,,,,,,,,,288,94.3271,0.0289889
,,,,,,,,,313,33.5875,0.0227164
,,,,,,,,,339,95.0825,0.0130194
,,,,,,,,,366,31.1221,0.0221456
,,,,,,,,,394,79.834,0.0278448
,,,,,,,,,423,66.7716,0.0343806
,,,,,,,,,338,66.0536,0.0316721
,,,,,,,,,365,33.182,0.0155373
,,,,,,,,,393,95.3098,0.0305733
,,,,,,,,,422,97.7618,0.042615
,,,,,,,,,452,39.7617,0.0601009
,,,,,,,,,392,61.5068,0.0135343
,,,,,,,,,421,31.7345,0.023678
,,,,,,,,,451,68.0057,0.0303113
,,,,,,,,,482,33.2323,0.0382208
,,,,,,,,,450,79.4567,0.0133296
,,,,,,,,,481,65.3748,0.0152025
,,,,,,,,,513,28.5671,0.0169631
,,,,,,,,,512,48.8071,0.0293034
,,,,,,,,,545,56.7796,0.036632
,,,,,,,,,578,65.6583,0.0553827
