"cellPairingIds","interplanarAngles","angleWeights"
8,42.0063,0.0383303
13,31.0578,0.056684
19,46.3217,0.0461996
34,72.2681,0.0713339
89,90.6401,0.0472174
25,25.8297,0.0402969
33,45.1851,0.0514228
102,86.9273,0.0410691
51,64.7804,0.114392
74,51.0587,0.0548902
101,66.6268,0.00869525
116,77.4422,0.0628855
132,62.14,0.0895402
50,56.5676,0.0666541
61,87.5851,0.0784598
73,53.3468,0.0568867
85,68.1659,0.0819028
114,39.0951,0.0147491
147,76.6936,0.0687935
184,68.5289,0.0542212
98,83.6119,0.100481
113,45.664,0.0685162
129,123.091,0.0152571
183,72.7152,0.132537
145,40.191,0.0142093
222,27.7801,0.0587495
243,152.418,0.0147125
266,86.1054,0.0130531
242,29.0993,0.00843581
265,34.4487,0.00878669
289,44.2715,0.00816667
313,24.1338,0.0428347
338,74.8656,0.0537292
