facetNormals:0,facetNormals:1,facetNormals:2,FacetCenters:0,FacetCenters:1,FacetCenters:2,FacetIds,relFacetSize,absFacetSize,cellPairingIds,interplanarAngles,angleWeights
-0.289926,0.0337838,-0.925231,6.9977,6.6481,7.10188,1,0.0236539,0.00798973,8,30.8298,0.0167872
-0.389035,-0.448342,-0.769595,6.9934,6.61456,7.10668,2,0.0130103,0.0043946,13,54.7277,0.0383457
0.465437,-0.405149,-0.747624,7.11408,6.57243,7.15798,3,0.101207,0.0341854,19,66.3339,0.0413864
0.505024,0.575321,-0.528882,7.10323,6.73663,7.17309,4,0.165326,0.0558434,26,58.2304,0.0379981
-0.879351,0.305801,-0.24474,6.89942,6.71172,7.21432,5,0.096545,0.0326107,34,80.6228,0.0248272
-0.625071,0.752807,0.0559116,7.01545,6.75408,7.30229,6,0.026123,0.00882376,43,104.951,0.0322605
-0.244238,0.863202,0.370638,6.9968,6.78264,7.29676,7,0.0507126,0.0171296,53,123.588,0.02044
0.653111,-0.649462,0.341473,7.12508,6.6036,7.2907,8,0.0179949,0.00607828,64,127.528,0.033608
0.889268,-0.0216818,0.325599,7.16314,6.66875,7.28277,9,0.0580275,0.0196003,76,141.32,0.0256633
0.288426,-0.626668,0.679195,7.13174,6.55979,7.3379,10,0.0280458,0.00947324,89,157.306,0.0309397
0.629932,0.0273238,0.755773,7.12948,6.66598,7.35549,11,0.0447117,0.0151026,103,170.939,0.0303961
0.26355,0.118245,0.94212,7.10771,6.66975,7.35562,12,0.042514,0.0143603,118,137.417,0.0382272
-0.315537,0.307855,0.848053,6.96882,6.69068,7.3582,13,0.0995774,0.033635,18,52.3171,0.0230567
,,,,,,,,,25,93.0036,0.0241224
,,,,,,,,,33,65.1391,0.0229306
,,,,,,,,,42,98.2916,0.0173698
,,,,,,,,,52,127.725,0.020708
,,,,,,,,,63,103.674,0.015102
,,,,,,,,,75,129.597,0.0212551
,,,,,,,,,88,112.097,0.017775
,,,,,,,,,102,151.283,0.0201557
,,,,,,,,,117,156.846,0.0199236
,,,,,,,,,133,135.973,0.0230138
,,,,,,,,,32,63.8608,0.125554
,,,,,,,,,41,112.042,0.0988211
,,,,,,,,,51,132.163,0.0415273
,,,,,,,,,62,141.905,0.0675683
,,,,,,,,,74,70.8858,0.0305568
,,,,,,,,,87,78.7427,0.0737628
,,,,,,,,,101,97.3245,0.0439207
,,,,,,,,,116,107.248,0.0620228
,,,,,,,,,132,131.23,0.059876
,,,,,,,,,149,167.802,0.100386
,,,,,,,,,50,98.9095,0.121903
,,,,,,,,,61,84.4713,0.0451172
,,,,,,,,,73,78.6819,0.0776168
,,,,,,,,,86,104.213,0.0324571
,,,,,,,,,100,72.5417,0.0859038
,,,,,,,,,115,129.593,0.0479564
,,,,,,,,,131,94.1242,0.0703875
,,,,,,,,,148,108.91,0.0676354
,,,,,,,,,166,118.971,0.124292
,,,,,,,,,72,35.6987,0.0411199
,,,,,,,,,85,65.4629,0.0664964
,,,,,,,,,99,154.924,0.0303357
,,,,,,,,,114,162.218,0.0724872
,,,,,,,,,130,131.008,0.0434652
,,,,,,,,,147,140.447,0.0611184
,,,,,,,,,165,116.696,0.0590327
,,,,,,,,,184,79.7288,0.0980378
,,,,,,,,,98,30.0771,0.0344831
,,,,,,,,,113,155.788,0.0213103
,,,,,,,,,129,126.635,0.0360272
,,,,,,,,,146,130.331,0.0270503
,,,,,,,,,164,110.063,0.0329783
,,,,,,,,,183,91.3674,0.0323614
,,,,,,,,,203,59.4313,0.0413883
,,,,,,,,,128,128.501,0.0265639
,,,,,,,,,145,97.1996,0.054124
,,,,,,,,,163,112.504,0.0361175
,,,,,,,,,182,80.9757,0.0475235
,,,,,,,,,202,66.1408,0.0462528
,,,,,,,,,223,44.9016,0.0672011
,,,,,,,,,162,40.6426,0.0274709
,,,,,,,,,181,29.5482,0.0219233
,,,,,,,,,201,47.6166,0.0256619
,,,,,,,,,222,64.4797,0.0252868
,,,,,,,,,244,97.1236,0.0304815
,,,,,,,,,200,57.6109,0.0378149
,,,,,,,,,221,30.2155,0.0505067
,,,,,,,,,243,54.7626,0.0490739
,,,,,,,,,266,90.7054,0.0733255
,,,,,,,,,242,44.6489,0.03447
,,,,,,,,,265,47.7192,0.0337966
,,,,,,,,,289,71.6004,0.0437652
,,,,,,,,,288,24.6825,0.0435852
,,,,,,,,,313,61.3822,0.0617133
,,,,,,,,,338,36.9978,0.0595875
