"cellPairingIds","interplanarAngles","angleWeights"
8,56.5167,0.0342958
13,33.3975,0.0283775
43,45.279,0.0376735
18,78.9395,0.0641113
25,93.064,0.0536229
33,55.5582,0.0269456
52,59.6732,0.144873
63,50.5746,0.0448952
32,27.5877,0.040437
51,50.9886,0.0261761
62,76.6158,0.0770199
87,74.743,0.0192872
50,119.052,0.0216245
61,31.0329,0.0242402
72,133.095,0.0167457
99,37.5393,0.0200525
165,61.1126,0.0271114
129,86.8123,0.0146259
164,37.8824,0.0301862
183,131.014,0.0313531
128,67.5038,0.050865
145,45.6154,0.0231736
163,34.8094,0.0202695
181,43.9231,0.0154544
222,52.114,0.0453575
200,58.5963,0.011338
221,61.9291,0.02138
266,63.3906,0.0138239
265,61.8863,0.019334
289,79.3441,0.0127354
288,102.789,0.0971279
313,51.4207,0.0269582
338,52.9563,0.027885
