facetNormals:0,facetNormals:1,facetNormals:2,FacetCenters:0,FacetCenters:1,FacetCenters:2,FacetIds,relFacetSize,absFacetSize,cellPairingIds,interplanarAngles,angleWeights
-0.579314,0.477452,-0.606879,4.38371,6.16915,9.35283,1,0.0099615,0.000988636,8,58.6787,0.0169946
-0.540965,-0.467399,-0.650634,4.25907,6.20478,9.33798,2,0.0578102,0.00573741,13,101.196,0.0111701
0.545115,-0.518581,-0.626039,4.45187,6.2386,9.28776,3,0.0127126,0.00126167,19,98.5214,0.0135424
-0.271127,-0.902281,-0.222854,4.36942,6.20301,9.36488,4,0.0211428,0.00209834,26,49.9682,0.0136109
0.0318399,0.881598,-0.285465,4.39226,6.19601,9.36646,5,0.0214801,0.00213181,34,146.078,0.0184978
0.816437,-0.50183,0.0972632,4.4429,6.22852,9.31982,6,0.129289,0.0128314,43,65.7927,0.0166879
-0.938502,-0.154954,0.146267,4.27948,6.20221,9.32293,7,0.0513854,0.00509978,53,63.7633,0.0129926
-0.270568,0.866734,0.273367,4.41389,6.25717,9.31866,8,0.0186753,0.00185344,64,91.4703,0.0164129
-0.763479,-0.351715,0.491842,4.24634,6.18698,9.37846,9,0.0465795,0.00462281,76,160.974,0.0179851
0.421606,-0.734256,0.493821,4.36138,6.163,9.36555,10,0.0924475,0.00917502,89,127.696,0.0173459
-0.214239,-0.775375,0.533146,4.32393,6.15872,9.37033,11,0.0670476,0.00665419,103,136.423,0.0191048
0.122323,-0.0395078,0.901543,4.36128,6.21219,9.39504,12,0.232593,0.0230839,18,67.9747,0.020842
,,,,,,,,,25,40.3337,0.030962
,,,,,,,,,33,105.767,0.0313221
,,,,,,,,,42,106.881,0.0798958
,,,,,,,,,52,58.5812,0.0544088
,,,,,,,,,63,118.445,0.0282307
,,,,,,,,,75,74.1329,0.0515907
,,,,,,,,,88,102.568,0.0711366
,,,,,,,,,102,81.9014,0.0620872
,,,,,,,,,117,136.098,0.092604
,,,,,,,,,32,60.9843,0.0158781
,,,,,,,,,41,106.721,0.0159723
,,,,,,,,,51,46.8832,0.023149
,,,,,,,,,62,123.712,0.0203826
,,,,,,,,,74,145.852,0.0151276
,,,,,,,,,87,124.63,0.0199739
,,,,,,,,,101,71.6869,0.0223516
,,,,,,,,,116,92.9408,0.0213728
,,,,,,,,,132,122.372,0.0241076
,,,,,,,,,50,145.576,0.0213102
,,,,,,,,,61,77.0015,0.0363425
,,,,,,,,,73,67.1591,0.0299589
,,,,,,,,,86,146.963,0.0198326
,,,,,,,,,100,63.905,0.0290841
,,,,,,,,,115,62.5018,0.0344149
,,,,,,,,,131,46.8591,0.0321481
,,,,,,,,,148,103.007,0.0387622
,,,,,,,,,72,119.823,0.0368397
,,,,,,,,,85,103.495,0.030296
,,,,,,,,,99,39.5991,0.0199797
,,,,,,,,,114,121.72,0.0294017
,,,,,,,,,130,148.495,0.0348605
,,,,,,,,,147,160.327,0.0325365
,,,,,,,,,165,109.964,0.0393283
,,,,,,,,,98,136.662,0.0735418
,,,,,,,,,113,133.545,0.0326363
,,,,,,,,,129,115.17,0.0684854
,,,,,,,,,146,36.3213,0.107808
,,,,,,,,,164,73.3696,0.0883026
,,,,,,,,,183,76.325,0.166196
,,,,,,,,,128,79.9272,0.0273944
,,,,,,,,,145,25.9246,0.0488645
,,,,,,,,,163,102.843,0.0660551
,,,,,,,,,182,64.5445,0.0581809
,,,,,,,,,202,88.484,0.0841746
,,,,,,,,,162,87.7546,0.0266612
,,,,,,,,,181,131.468,0.0310734
,,,,,,,,,201,120.782,0.0292135
,,,,,,,,,222,78.0288,0.0345745
,,,,,,,,,200,79.1775,0.0619471
,,,,,,,,,221,41.9976,0.05497
,,,,,,,,,243,65.7747,0.0776155
,,,,,,,,,242,38.3065,0.0777251
,,,,,,,,,265,53.911,0.132307
,,,,,,,,,288,56.499,0.10409
