facetNormals:0,facetNormals:1,facetNormals:2,FacetCenters:0,FacetCenters:1,FacetCenters:2,FacetIds,relFacetSize,absFacetSize,cellPairingIds,interplanarAngles,angleWeights
-0.1817,0.34951,-0.88479,5.04322,6.82525,6.99811,1,0.0533998,0.00922703,8,54.9774,0.0349198
-0.538824,-0.450386,-0.682408,4.99672,6.77489,7.02009,2,0.025942,0.00448256,13,42.3367,0.0261905
0.0407638,0.871098,-0.463285,5.10608,6.88749,7.0538,3,0.01735,0.00299793,19,90.8693,0.0556211
-0.000147516,-0.905226,-0.341484,5.05608,6.7807,7.03639,4,0.0580351,0.010028,26,61.5334,0.0261477
-0.919927,0.241805,-0.225613,5.00743,6.84464,7.05793,5,0.0173125,0.00299145,34,104.52,0.0803763
0.655885,-0.659858,-0.137247,5.12786,6.79449,7.07421,6,0.162435,0.0280674,43,81.878,0.0431339
-0.91699,-0.336583,-0.096444,4.96728,6.79064,7.06689,7,0.0361787,0.00625136,53,88.4593,0.0327618
0.931895,0.261659,-0.116708,5.17095,6.88659,7.05388,8,0.0236295,0.00408297,64,111.732,0.0117387
0.969081,0.0305646,0.215626,5.18146,6.85241,7.10132,9,0.00659413,0.00113941,76,85.753,0.0312941
-0.781908,0.5077,0.282163,4.97467,6.84548,7.11029,10,0.0221321,0.00382425,89,92.7748,0.0243916
0.501893,0.807577,0.268294,5.15037,6.89856,7.0984,11,0.0158056,0.00273107,103,129.619,0.0725865
-0.216995,-0.858701,0.377365,5.01612,6.78233,7.12277,12,0.113293,0.019576,118,131.705,0.0552829
-0.531335,-0.0325845,0.789979,4.9936,6.81148,7.15342,13,0.0573036,0.00990157,134,128.34,0.0684452
0.213684,0.481389,0.792294,5.11538,6.86515,7.14652,14,0.0952944,0.0164661,151,144.389,0.0231208
-0.140412,0.149166,0.970167,5.05609,6.82113,7.17674,15,0.0147546,0.00254947,18,95.8256,0.0207934
,,,,,,,,,25,47.4369,0.0358561
,,,,,,,,,33,55.6058,0.0207664
,,,,,,,,,42,87.6698,0.0447389
,,,,,,,,,52,42.2468,0.0302169
,,,,,,,,,63,124.471,0.0247318
,,,,,,,,,75,134.613,0.0105154
,,,,,,,,,88,89.9941,0.0238861
,,,,,,,,,102,147.646,0.0196432
,,,,,,,,,117,74.8642,0.0422171
,,,,,,,,,133,104.79,0.0357153
,,,,,,,,,150,159.501,0.0407819
,,,,,,,,,168,132.309,0.0188106
,,,,,,,,,32,131.283,0.0267138
,,,,,,,,,41,73.2836,0.0173312
,,,,,,,,,51,121.446,0.0313513
,,,,,,,,,62,107.155,0.0234529
,,,,,,,,,74,70.5871,0.0200086
,,,,,,,,,87,91.973,0.00955626
,,,,,,,,,101,73.0968,0.0194515
,,,,,,,,,116,52.0736,0.0165418
,,,,,,,,,132,168.529,0.0300917
,,,,,,,,,149,116.249,0.0266355
,,,,,,,,,167,86.2777,0.0293554
,,,,,,,,,186,109.401,0.0159474
,,,,,,,,,50,98.6172,0.0266693
,,,,,,,,,61,44.9364,0.0855166
,,,,,,,,,73,69.1661,0.0445717
,,,,,,,,,86,102.064,0.0335847
,,,,,,,,,100,96.0597,0.0118427
,,,,,,,,,115,126.143,0.032044
,,,,,,,,,131,149.4,0.0248448
,,,,,,,,,148,45.8756,0.0767529
,,,,,,,,,166,105.106,0.057667
,,,,,,,,,185,140.121,0.0721377
,,,,,,,,,205,119.083,0.0235277
,,,,,,,,,72,142.766,0.0312901
,,,,,,,,,85,35.2154,0.0234186
,,,,,,,,,99,143.656,0.0199837
,,,,,,,,,114,163.869,0.00955056
,,,,,,,,,130,35.166,0.0194279
,,,,,,,,,147,109.788,0.0165248
,,,,,,,,,165,95.6806,0.0300352
,,,,,,,,,184,71.0324,0.0265913
,,,,,,,,,204,106.165,0.0293016
,,,,,,,,,225,93.1725,0.0159315
,,,,,,,,,98,113.366,0.059177
,,,,,,,,,113,60.2784,0.0412573
,,,,,,,,,129,51.1579,0.0126738
,,,,,,,,,146,165.431,0.0389564
,,,,,,,,,164,105.003,0.0288081
,,,,,,,,,183,65.7056,0.133485
,,,,,,,,,203,119.08,0.0847199
,,,,,,,,,224,108.658,0.120119
,,,,,,,,,246,110.31,0.027052
,,,,,,,,,128,166.714,0.0285875
,,,,,,,,,145,160.625,0.0111551
,,,,,,,,,163,57.1294,0.0274636
,,,,,,,,,182,141.405,0.0219999
,,,,,,,,,202,61.4513,0.0548437
,,,,,,,,,223,63.1711,0.0443542
,,,,,,,,,245,117.721,0.0524461
,,,,,,,,,268,90.8841,0.0209608
,,,,,,,,,162,23.8145,0.0103109
,,,,,,,,,181,131.459,0.0228563
,,,,,,,,,201,47.7433,0.0189414
,,,,,,,,,222,120.116,0.0391032
,,,,,,,,,244,129.911,0.0334611
,,,,,,,,,267,75.4754,0.0378689
,,,,,,,,,291,102.246,0.0181661
,,,,,,,,,200,134.772,0.0101609
,,,,,,,,,221,54.5665,0.00930584
,,,,,,,,,243,99.3383,0.0124629
,,,,,,,,,266,111.421,0.0118273
,,,,,,,,,290,65.4493,0.0123347
,,,,,,,,,315,85.4761,0.00911471
,,,,,,,,,242,84.4376,0.0184414
,,,,,,,,,265,99.8124,0.0370303
,,,,,,,,,289,47.9212,0.0319315
,,,,,,,,,314,71.0537,0.0359215
,,,,,,,,,340,61.6068,0.0177056
,,,,,,,,,288,137.489,0.027741
,,,,,,,,,313,94.9399,0.0247771
,,,,,,,,,339,41.0739,0.0271141
,,,,,,,,,366,71.5343,0.015262
,,,,,,,,,338,61.2305,0.0761105
,,,,,,,,,365,100.108,0.103517
,,,,,,,,,393,73.665,0.026109
,,,,,,,,,392,56.7679,0.0715699
,,,,,,,,,421,27.7195,0.0234669
,,,,,,,,,450,30.781,0.0255528
