"cellPairingIds","interplanarAngles","angleWeights"
13,81.7477,0.0151546
19,47.4035,0.0641878
26,79.4488,0.0692683
34,47.1331,0.0419932
43,62.4039,0.0519557
18,79.1035,0.0135863
33,33.9949,0.0453443
63,60.0535,0.0501264
41,110.783,0.0160932
62,80.5572,0.0149368
74,118.581,0.0166571
87,79.5962,0.0154293
116,117.706,0.015885
50,41.6916,0.0852444
61,58.964,0.047376
115,89.6537,0.0950344
99,54.0128,0.117864
130,103.998,0.106612
98,41.8474,0.0403622
146,63.4308,0.0533145
163,76.2039,0.0704702
182,75.3864,0.0616779
162,65.7167,0.0896218
181,78.8578,0.13744
201,80.4084,0.107541
221,53.8487,0.0710412
242,30.55,0.0980945
