Q	U	V
{$V$}	{[mm$^3$]}	0.00378558
{$d_v$}	{[mm]}	0.193365
{$S_c$}	{[mm$^2$]}	0.190301
{$S_o$}	{[mm$^2$]}	0.123066
{$S_l/S_o$}	[]	0.546333
{$\Psi$}	[]	0.617255
{$\eta$}	[]	0.640659
{med($\theta_e$)}	{[$^\circ$]}	68.76975
{$\Upsilon$}	[]	13
{$\Xi$}	[]	11
