Q	U	V
{$V$}	{[mm$^3$]}	0.00629109
{$d_v$}	{[mm]}	0.229039
{$S_c$}	{[mm$^2$]}	0.320057
{$S_o$}	{[mm$^2$]}	0.196336
{$S_l/S_o$}	[]	0.630149
{$\Psi$}	[]	0.514921
{$\eta$}	[]	0.536770
{med($\theta_e$)}	{[$^\circ$]}	67.7907
{$\Upsilon$}	[]	14
{$\Xi$}	[]	6
