facetNormals:0,facetNormals:1,facetNormals:2,FacetCenters:0,FacetCenters:1,FacetCenters:2,FacetIds,relFacetSize,absFacetSize,cellPairingIds,interplanarAngles,angleWeights
-0.434626,-0.100829,-0.881664,4.72343,6.63006,6.12585,1,0.0406126,0.00267977,8,28.3067,0.0642094
-0.169377,0.2967,-0.904258,4.70524,6.66175,6.13343,2,0.153252,0.0101121,13,49.2633,0.0207776
0.287486,-0.487993,-0.806995,4.76282,6.59627,6.12602,3,0.0139597,0.000921114,19,35.5112,0.0152776
-0.771608,-0.401443,-0.480063,4.66309,6.66065,6.16743,4,0.00940844,0.000620804,26,37.5437,0.0319212
-0.873209,0.0238757,-0.4424,4.66596,6.66233,6.15738,5,0.026294,0.00173498,34,69.7282,0.0263807
0.280492,-0.826115,-0.419742,4.73349,6.59798,6.1347,6,0.019535,0.00128899,43,50.9592,0.0490815
-0.380094,-0.789059,-0.402975,4.71858,6.57729,6.15238,7,0.062013,0.00409185,53,75.6829,0.0606631
-0.237378,0.899219,-0.252937,4.68581,6.73092,6.20288,8,0.119817,0.00790596,64,59.3839,0.0380179
-0.876853,0.391172,-0.168935,4.66591,6.70754,6.19102,9,0.0357349,0.00235792,76,108.713,0.0109155
0.93282,0.285222,-0.138225,4.74193,6.69851,6.17871,10,0.00630504,0.00041603,89,107.329,0.00780616
0.769431,0.613927,-0.118528,4.71998,6.72762,6.19838,11,0.00431807,0.000284922,103,77.1641,0.0643513
-0.705962,-0.649399,0.179309,4.6768,6.604,6.20545,12,0.154882,0.0102197,118,120.325,0.00521025
0.197032,-0.791735,0.550297,4.7114,6.58478,6.20924,13,0.00278369,0.000183678,134,95.0319,0.0528792
-0.769701,-0.333073,0.51423,4.66441,6.64733,6.24999,14,0.0757623,0.00499908,151,114.902,0.0447511
-0.61738,0.14376,0.752067,4.67251,6.70021,6.25914,15,0.0498289,0.00328789,18,55.7586,0.0255886
,,,,,,,,,25,62.3486,0.0177285
,,,,,,,,,33,54.0985,0.0448867
,,,,,,,,,42,84.6698,0.0346528
,,,,,,,,,52,77.9435,0.0882969
,,,,,,,,,63,54.8987,0.134487
,,,,,,,,,75,63.7136,0.0579558
,,,,,,,,,88,86.893,0.0121118
,,,,,,,,,102,80.4497,0.00839947
,,,,,,,,,117,104.441,0.154063
,,,,,,,,,133,143.62,0.00546805
,,,,,,,,,150,117.117,0.101397
,,,,,,,,,168,124.085,0.0752052
,,,,,,,,,32,68.3426,0.0112409
,,,,,,,,,41,84.3926,0.0182372
,,,,,,,,,51,30.4923,0.0162833
,,,,,,,,,62,50.782,0.0227893
,,,,,,,,,74,108.591,0.025006
,,,,,,,,,87,108.604,0.0200766
,,,,,,,,,101,75.6624,0.00868666
,,,,,,,,,116,88.9883,0.00659588
,,,,,,,,,132,91.8318,0.0256111
,,,,,,,,,149,90.0639,0.00464176
,,,,,,,,,167,119.236,0.0235755
,,,,,,,,,186,151.792,0.0218094
,,,,,,,,,50,25.698,0.0138582
,,,,,,,,,61,70.7752,0.0127002
,,,,,,,,,73,32.9761,0.0163381
,,,,,,,,,86,93.3766,0.0174469
,,,,,,,,,100,51.6718,0.0148952
,,,,,,,,,115,141.681,0.00755028
,,,,,,,,,131,142.674,0.00591939
,,,,,,,,,148,42.0982,0.0177393
,,,,,,,,,166,95.7746,0.00429624
,,,,,,,,,185,60.5349,0.0167383
,,,,,,,,,205,86.6192,0.0158283
,,,,,,,,,72,94.7777,0.0224161
,,,,,,,,,85,58.6357,0.0369296
,,,,,,,,,99,68.8409,0.0431243
,,,,,,,,,114,27.1053,0.030296
,,,,,,,,,130,140.707,0.0101711
,,,,,,,,,147,128.533,0.00741795
,,,,,,,,,165,56.9133,0.044956
,,,,,,,,,184,116.795,0.00503439
,,,,,,,,,204,63.044,0.0390391
,,,,,,,,,225,77.4166,0.0344233
,,,,,,,,,98,40.0605,0.0297107
,,,,,,,,,113,138.911,0.033593
,,,,,,,,,129,121.859,0.0252608
,,,,,,,,,146,84.9451,0.00953319
,,,,,,,,,164,104.578,0.00707276
,,,,,,,,,183,73.8241,0.0346941
,,,,,,,,,203,59.864,0.00487298
,,,,,,,,,224,99.4624,0.031061
,,,,,,,,,246,129.648,0.0280667
,,,,,,,,,128,123.835,0.0817269
,,,,,,,,,145,84.3395,0.0453417
,,,,,,,,,163,123.476,0.0114463
,,,,,,,,,182,139.711,0.00807394
,,,,,,,,,202,41.1426,0.0885654
,,,,,,,,,223,69.77,0.0053282
,,,,,,,,,245,68.4647,0.0682016
,,,,,,,,,268,101.055,0.0552572
,,,,,,,,,162,50.1071,0.055051
,,,,,,,,,181,85.7718,0.0119797
,,,,,,,,,201,65.2941,0.00833573
,,,,,,,,,222,119.402,0.135111
,,,,,,,,,244,161.201,0.00544096
,,,,,,,,,267,105.091,0.0928279
,,,,,,,,,291,84.8194,0.0703859
,,,,,,,,,200,135.328,0.0107189
,,,,,,,,,221,115.394,0.00770509
,,,,,,,,,243,69.4009,0.0580714
,,,,,,,,,266,126.854,0.00516502
,,,,,,,,,290,61.4917,0.0485637
,,,,,,,,,315,60.6128,0.0416211
,,,,,,,,,242,21.4326,0.00512573
,,,,,,,,,265,154.612,0.0121168
,,,,,,,,,289,96.9959,0.0038622
,,,,,,,,,314,155.805,0.0116413
,,,,,,,,,340,131.245,0.0111937
,,,,,,,,,288,174.553,0.0084019
,,,,,,,,,313,114.182,0.00338512
,,,,,,,,,339,151.561,0.00817046
,,,,,,,,,366,119.211,0.00794743
,,,,,,,,,338,60.4428,0.00546908
,,,,,,,,,365,27.4544,0.101752
,,,,,,,,,393,60.1766,0.0754
,,,,,,,,,392,65.9192,0.00537006
,,,,,,,,,421,79.3796,0.00527281
,,,,,,,,,450,32.7232,0.0601181
