Q	U	V
{$V$}	{[mm$^3$]}	0.00836794
{$d_v$}	{[mm]}	0.251888
{$S_c$}	{[mm$^2$]}	0.34375
{$S_o$}	{[mm$^2$]}	0.215291
{$S_l/S_o$}	[]	0.596676
{$\Psi$}	[]	0.579856
{$\eta$}	[]	0.631159
{med($\theta_e$)}	{[$^\circ$]}	63.78225
{$\Upsilon$}	[]	13
{$\Xi$}	[]	6
