facetNormals:0,facetNormals:1,facetNormals:2,FacetCenters:0,FacetCenters:1,FacetCenters:2,FacetIds,relFacetSize,absFacetSize,cellPairingIds,interplanarAngles,angleWeights
-0.185888,0.00826536,-0.953068,6.20808,7.44179,7.15664,1,0.0683741,0.00536361,8,31.0098,0.0956665
-0.179246,-0.496393,-0.823441,6.19765,7.39257,7.1815,2,0.159222,0.0124902,13,56.7806,0.0719925
0.4961,-0.510577,-0.632895,6.2813,7.39956,7.17815,3,0.0760154,0.00596303,19,65.905,0.0651457
-0.0432424,-0.873901,-0.399183,6.20086,7.35213,7.22834,4,0.0622085,0.00487995,26,65.9581,0.0721854
0.00853611,0.866955,-0.388517,6.25742,7.4846,7.18983,5,0.0764467,0.00599686,34,97.7164,0.0168081
0.592919,-0.79047,0.0126929,6.26627,7.34985,7.2248,6,0.0095818,0.000751645,43,96.2783,0.0428567
0.0133403,-0.978164,0.0984651,6.24135,7.3483,7.23313,7,0.0312093,0.00244821,53,103.38,0.0168081
0.86242,-0.487384,0.0615781,6.2865,7.37114,7.23127,8,0.0095818,0.000751645,64,118.781,0.0726915
0.921857,-0.170133,0.30183,6.27774,7.40332,7.24817,9,0.077591,0.00608663,76,127.634,0.0862611
0.819175,0.218277,0.4349,6.28792,7.4408,7.22552,10,0.116822,0.00916414,89,152.112,0.0875176
0.119892,0.433932,0.833379,6.19682,7.40522,7.15706,11,0.121549,0.00953493,18,42.61,0.102903
,,,,,,,,,25,35.0275,0.0894634
,,,,,,,,,33,96.9203,0.103298
,,,,,,,,,42,73.4291,0.0180758
,,,,,,,,,52,65.2834,0.0521889
,,,,,,,,,63,87.8367,0.0180758
,,,,,,,,,75,109.993,0.104337
,,,,,,,,,88,131.157,0.134766
,,,,,,,,,102,175.173,0.137858
,,,,,,,,,32,42.3179,0.0684224
,,,,,,,,,41,102.283,0.0762304
,,,,,,,,,51,42.8866,0.0170184
,,,,,,,,,62,61.7194,0.0442507
,,,,,,,,,74,47.5825,0.0170184
,,,,,,,,,87,67.8842,0.0767951
,,,,,,,,,101,88.7563,0.0921012
,,,,,,,,,116,139.837,0.093535
,,,,,,,,,50,131.289,0.0685966
,,,,,,,,,61,46.0091,0.0166058
,,,,,,,,,73,30.4753,0.0415656
,,,,,,,,,86,67.5802,0.0166059
,,,,,,,,,100,90.706,0.0690535
,,,,,,,,,115,115.867,0.0811854
,,,,,,,,,131,141.921,0.0822974
,,,,,,,,,72,136.869,0.0170292
,,,,,,,,,85,161.564,0.0443235
,,,,,,,,,99,117.753,0.0170292
,,,,,,,,,114,105.936,0.0770146
,,,,,,,,,130,88.2741,0.0924171
,,,,,,,,,147,86.5955,0.0938608
,,,,,,,,,98,36.3672,0.0146621
,,,,,,,,,113,23.8032,0.0095818
,,,,,,,,,129,45.2706,0.0170572
,,,,,,,,,146,70.2169,0.0177109
,,,,,,,,,164,106.213,0.0177633
,,,,,,,,,128,59.5661,0.0146621
,,,,,,,,,145,77.5689,0.0445138
,,,,,,,,,163,99.8192,0.0492589
,,,,,,,,,182,111.466,0.0496661
,,,,,,,,,162,23.4781,0.0170572
,,,,,,,,,181,48.4803,0.0177109
,,,,,,,,,201,93.4624,0.0177633
,,,,,,,,,200,25.1627,0.0932484
,,,,,,,,,221,72.0014,0.0947184
,,,,,,,,,242,52.0214,0.119139
