Q	U	V
{$V$}	{[mm$^3$]}	0.00253876
{$d_v$}	{[mm]}	0.169255
{$S_c$}	{[mm$^2$]}	0.144484
{$S_o$}	{[mm$^2$]}	0.088125
{$S_l/S_o$}	[]	0.639535
{$\Psi$}	[]	0.622891
{$\eta$}	[]	0.650860
{med($\theta_e$)}	{[$^\circ$]}	59.9017
{$\Upsilon$}	[]	12
{$\Xi$}	[]	5
