"cellPairingIds","interplanarAngles","angleWeights"
8,34.2747,0.0290111
13,56.6915,0.0260397
19,60.3347,0.0154162
26,60.9119,0.0311801
34,64.204,0.0412374
18,36.3851,0.0281914
42,73.5964,0.0469069
52,53.0505,0.052171
41,81.5794,0.0302352
62,46.0781,0.043288
116,66.3353,0.0169986
132,80.5525,0.0333367
50,67.1578,0.016796
61,36.5049,0.0193364
100,45.6652,0.0194695
115,40.7326,0.0176528
99,28.8693,0.027565
114,44.9251,0.0538577
165,63.645,0.0422551
98,100.864,0.111756
146,53.7974,0.0623778
203,56.6549,0.0729406
182,54.3395,0.023516
223,96.5524,0.0865149
245,62.4363,0.116801
162,29.9588,0.0355841
222,52.4144,0.0301198
291,54.7959,0.0315167
200,43.0435,0.0637845
315,63.5403,0.071333
289,48.2887,0.0536423
340,71.9499,0.0518013
288,48.7285,0.0202347
339,56.5141,0.022579
366,68.8284,0.0208557
393,44.9508,0.0523092
392,50.2552,0.0750565
421,82.6944,0.0588825
450,73.5595,0.071501
