facetNormals:0,facetNormals:1,facetNormals:2,FacetCenters:0,FacetCenters:1,FacetCenters:2,FacetIds,relFacetSize,absFacetSize,cellPairingIds,interplanarAngles,angleWeights
0.0330546,-0.435598,-0.854076,6.92477,6.07531,8.05387,1,0.0694152,0.00540295,8,60.9345,0.0378335
0.297135,0.500471,-0.770792,6.95279,6.07887,8.11501,2,0.0260029,0.00202395,13,58.7118,0.0670399
0.780775,0.0272315,-0.536519,6.96562,6.09338,8.12659,3,0.0648218,0.00504543,19,98.7467,0.0544206
-0.242687,0.871707,-0.291601,6.97017,6.08405,8.17964,4,0.0447533,0.00348339,26,94.2323,0.0538178
0.450624,0.790026,-0.305947,6.9679,6.08756,8.14662,5,0.0439437,0.00342037,34,65.5321,0.0322254
0.905491,-0.281559,-0.281533,7.03591,6.10019,8.10688,6,0.0209834,0.00163325,43,93.7381,0.00943587
-0.972823,0.16812,-0.0510033,6.86251,6.09942,8.07396,7,0.00506198,0.000394001,53,63.5837,0.105137
0.217577,-0.945585,0.00581675,6.96113,6.06294,8.10559,8,0.216606,0.0168596,64,97.13,0.0429832
0.907438,-0.188496,0.265672,7.02735,6.11554,8.15646,9,0.0311296,0.00242298,76,136.604,0.0195649
-0.59122,0.608329,0.450947,6.89303,6.11217,8.16166,10,0.0113872,0.000886327,89,94.9785,0.020766
-0.444411,-0.761634,0.468586,6.93885,6.08211,8.13977,11,0.0122092,0.000950307,103,110.433,0.083209
-0.751365,-0.338547,0.527212,6.89469,6.09465,8.15409,12,0.103844,0.00808275,118,111.572,0.0811093
0.135042,-0.620974,0.717861,6.97645,6.08771,8.17453,13,0.0975419,0.0075922,18,43.9368,0.0371167
,,,,,,,,,25,50.1064,0.0328937
,,,,,,,,,33,34.3597,0.0326725
,,,,,,,,,42,68.8225,0.023225
,,,,,,,,,52,99.9883,0.00847428
,,,,,,,,,63,116.152,0.0464319
,,,,,,,,,75,91.8143,0.0283363
,,,,,,,,,88,103.639,0.0158384
,,,,,,,,,102,155.041,0.0166165
,,,,,,,,,117,147.74,0.0415913
,,,,,,,,,133,152.851,0.04106
,,,,,,,,,32,90.5912,0.0529498
,,,,,,,,,41,53.7705,0.052379
,,,,,,,,,51,24.8942,0.0317039
,,,,,,,,,62,140.952,0.00939064
,,,,,,,,,74,81.1796,0.0997826
,,,,,,,,,87,52.137,0.0420604
,,,,,,,,,101,138.983,0.0193714
,,,,,,,,,116,130.859,0.0205482
,,,,,,,,,132,161.393,0.079819
,,,,,,,,,149,109.053,0.0778849
,,,,,,,,,50,42.8767,0.0443448
,,,,,,,,,61,114.04,0.0285708
,,,,,,,,,73,64.9774,0.00909522
,,,,,,,,,86,162.296,0.0741802
,,,,,,,,,100,120.268,0.0367185
,,,,,,,,,115,53.5779,0.018155
,,,,,,,,,131,136.859,0.0191846
,,,,,,,,,148,106.651,0.0625498
,,,,,,,,,166,149.262,0.0613559
,,,,,,,,,72,73.3648,0.0284038
,,,,,,,,,85,107.798,0.00907822
,,,,,,,,,99,134.341,0.0730646
,,,,,,,,,114,78.8622,0.0364431
,,,,,,,,,130,85.2579,0.0180874
,,,,,,,,,147,170.592,0.0191092
,,,,,,,,,165,144.823,0.0617548
,,,,,,,,,184,134.897,0.0605907
,,,,,,,,,98,159.157,0.00815635
,,,,,,,,,113,61.2526,0.0382604
,,,,,,,,,129,32.9864,0.0250688
,,,,,,,,,146,151.304,0.0147629
,,,,,,,,,164,108.896,0.0154366
,,,,,,,,,183,139.282,0.0349122
,,,,,,,,,203,84.2497,0.0345371
,,,,,,,,,128,112.75,0.00989278
,,,,,,,,,145,166.825,0.00870796
,,,,,,,,,163,46.4431,0.00700847
,,,,,,,,,182,73.4988,0.00715675
,,,,,,,,,202,47.9998,0.0096534
,,,,,,,,,223,106.702,0.0096245
,,,,,,,,,162,66.22,0.054436
,,,,,,,,,181,138.786,0.0216369
,,,,,,,,,201,49.7368,0.0231155
,,,,,,,,,222,80.3142,0.140386
,,,,,,,,,244,48.1433,0.134511
,,,,,,,,,200,125.006,0.0166748
,,,,,,,,,221,98.0739,0.0175394
,,,,,,,,,243,120.444,0.0479001
,,,,,,,,,266,62.2557,0.0471968
,,,,,,,,,242,89.3593,0.0117839
,,,,,,,,,265,59.5712,0.0205238
,,,,,,,,,289,98.3577,0.0203936
,,,,,,,,,288,30.8388,0.0218495
,,,,,,,,,313,38.4929,0.021702
,,,,,,,,,338,58.704,0.100594
