Q	U	V
{$V$}	{[mm$^3$]}	0.00416794
{$d_v$}	{[mm]}	0.199668
{$S_c$}	{[mm$^2$]}	0.201547
{$S_o$}	{[mm$^2$]}	0.118136
{$S_l/S_o$}	[]	0.706059
{$\Psi$}	[]	0.621425
{$\eta$}	[]	0.649476
{med($\theta_e$)}	{[$^\circ$]}	58.6623
{$\Upsilon$}	[]	14
{$\Xi$}	[]	9
