facetNormals:0,facetNormals:1,facetNormals:2,FacetCenters:0,FacetCenters:1,FacetCenters:2,FacetIds,relFacetSize,absFacetSize,cellPairingIds,interplanarAngles,angleWeights
0.340923,-0.252982,-0.888015,4.3258,5.89075,9.53044,1,0.0570835,0.00373776,8,29.2246,0.0706047
0.225788,0.223535,-0.902718,4.32077,5.93644,9.5293,2,0.0925197,0.00605809,13,60.8927,0.0259305
-0.273912,0.527212,-0.787043,4.28978,5.9724,9.53164,3,0.0167754,0.00109844,19,20.3504,0.0543981
0.626358,-0.0985264,-0.760209,4.34246,5.90879,9.53528,4,0.051954,0.00340189,26,55.5416,0.0772069
-0.541415,-0.380577,-0.706569,4.27929,5.89982,9.53241,5,0.119243,0.00780792,34,85.6461,0.0367741
-0.895726,-0.0222911,-0.420829,4.23258,5.94465,9.5597,6,0.0271239,0.00177604,43,48.4739,0.0159808
0.637708,-0.717134,-0.286897,4.38016,5.86497,9.56581,7,0.0092909,0.000608358,53,98.2999,0.0491397
-0.826505,0.437177,-0.285435,4.23949,5.96805,9.57098,8,0.0431368,0.00282455,64,79.8104,0.0658375
-0.166234,-0.968101,0.0193341,4.3261,5.84602,9.5816,9,0.0777629,0.00509182,76,71.1712,0.0348823
0.700422,-0.67178,0.110849,4.40001,5.87036,9.58413,10,0.0251146,0.00164448,89,111.397,0.0228028
-0.0862137,0.971093,0.0860177,4.33621,5.94217,9.55494,11,0.014247,0.000932874,103,115.955,0.0560727
-0.962213,-0.0638019,0.120184,4.23093,5.92871,9.59074,12,0.0550971,0.0036077,118,101.502,0.0661257
-0.647688,-0.699352,0.164356,4.2633,5.87072,9.5923,13,0.0785717,0.00514479,134,85.8154,0.0389365
0.465101,-0.798323,0.326728,4.37057,5.85343,9.60094,14,0.0295443,0.00193453,151,117.726,0.0169586
-0.863951,-0.395251,0.293734,4.23245,5.91983,9.6171,15,0.00995853,0.000652073,169,115.686,0.0175005
0.477323,0.728439,0.445758,4.29664,5.89704,9.53211,16,0.0103344,0.000676686,188,144.928,0.0383474
-0.777376,-0.0291443,0.602391,4.29718,5.93603,9.56063,17,0.0288712,0.00189046,208,110.547,0.00501939
0.728429,-0.0337794,0.676137,4.35159,5.88961,9.55971,18,0.00262511,0.000171889,229,125.665,0.0384432
-0.330364,-0.623796,0.68778,4.28913,5.87869,9.62974,19,0.02898,0.00189758,251,122.689,0.040998
0.213126,-0.503297,0.810305,4.32857,5.86497,9.63146,20,0.031985,0.00209434,274,154.665,0.0361763
-0.313715,-0.176615,0.91379,4.31021,5.90811,9.58714,21,0.0264784,0.00173378,18,35.6884,0.0284012
,,,,,,,,,25,31.7422,0.0665418
,,,,,,,,,33,62.3102,0.104195
,,,,,,,,,42,79.4986,0.0419495
,,,,,,,,,52,75.3354,0.0168861
,,,,,,,,,63,79.6069,0.0588398
,,,,,,,,,75,106.777,0.0845019
,,,,,,,,,88,95.6532,0.0395054
,,,,,,,,,102,82.6416,0.0246917
,,,,,,,,,117,111.445,0.0690649
,,,,,,,,,133,119.153,0.0849772
,,,,,,,,,150,113.128,0.0447868
,,,,,,,,,168,125.2,0.0179816
,,,,,,,,,187,98.0917,0.0185921
,,,,,,,,,207,140.431,0.0440092
,,,,,,,,,228,118.455,0.00510536
,,,,,,,,,250,152.278,0.0441354
,,,,,,,,,273,148.304,0.0475362
,,,,,,,,,297,174.261,0.0411733
,,,,,,,,,32,67.4213,0.0253618
,,,,,,,,,41,58.1508,0.029413
,,,,,,,,,51,54.6477,0.0207299
,,,,,,,,,62,109.331,0.0119586
,,,,,,,,,74,45.0122,0.0241566
,,,,,,,,,87,119.705,0.0275974
,,,,,,,,,101,131.104,0.020115
,,,,,,,,,116,61.0004,0.0154081
,,,,,,,,,132,81.8812,0.0257199
,,,,,,,,,149,109.644,0.0276479
,,,,,,,,,167,146.455,0.0213999
,,,,,,,,,186,101.942,0.0124979
,,,,,,,,,206,95.8023,0.0127898
,,,,,,,,,227,106.56,0.0212207
,,,,,,,,,249,139.844,0.00453981
,,,,,,,,,272,143.347,0.02125
,,,,,,,,,296,175.984,0.0220081
,,,,,,,,,321,138.59,0.0205386
,,,,,,,,,50,75.7735,0.0723746
,,,,,,,,,61,104.112,0.0356407
,,,,,,,,,73,46.0472,0.0157629
,,,,,,,,,86,110.807,0.0471366
,,,,,,,,,100,91.3808,0.0622909
,,,,,,,,,115,64.2146,0.0338609
,,,,,,,,,131,102.826,0.0223618
,,,,,,,,,148,135.638,0.0534794
,,,,,,,,,166,118.83,0.0625488
,,,,,,,,,185,82.7997,0.0376681
,,,,,,,,,205,137.475,0.0167134
,,,,,,,,,226,96.6208,0.0172396
,,,,,,,,,248,165.275,0.0371165
,,,,,,,,,271,93.169,0.0049977
,,,,,,,,,295,133.238,0.0372063
,,,,,,,,,320,116.579,0.0395942
,,,,,,,,,346,153.988,0.0350788
,,,,,,,,,72,34.3937,0.0441949
,,,,,,,,,85,82.2732,0.0172386
,,,,,,,,,99,59.3283,0.0633547
,,,,,,,,,114,62.1189,0.0941362
,,,,,,,,,130,102.326,0.0414906
,,,,,,,,,147,113.888,0.0254529
,,,,,,,,,165,60.7058,0.0753694
,,,,,,,,,184,57.6765,0.0947264
,,,,,,,,,204,100.866,0.0473555
,,,,,,,,,225,64.7518,0.0183819
,,,,,,,,,247,153.909,0.0190204
,,,,,,,,,270,89.6184,0.046487
,,,,,,,,,294,153.195,0.00513713
,,,,,,,,,319,94.1892,0.0466279
,,,,,,,,,345,121.641,0.0504402
,,,,,,,,,372,115.45,0.0433343
,,,,,,,,,98,115.99,0.0138408
,,,,,,,,,113,28.4712,0.0333056
,,,,,,,,,129,80.3908,0.0402192
,,,,,,,,,146,132.967,0.0260806
,,,,,,,,,164,88.8539,0.0186814
,,,,,,,,,183,32.3446,0.036352
,,,,,,,,,203,56.6369,0.0403266
,,,,,,,,,224,123.561,0.0282824
,,,,,,,,,246,47.9713,0.0145683
,,,,,,,,,269,130.687,0.0149665
,,,,,,,,,293,62.9146,0.0279703
,,,,,,,,,318,162.006,0.00478693
,,,,,,,,,344,88.8029,0.0280213
,,,,,,,,,371,122.558,0.0293545
,,,,,,,,,399,95.8805,0.0267973
,,,,,,,,,128,140.788,0.0152889
,,,,,,,,,145,53.691,0.0165986
,,,,,,,,,163,23.5937,0.013564
,,,,,,,,,182,142.341,0.0112472
,,,,,,,,,202,128.23,0.0159005
,,,,,,,,,223,87.5545,0.0166169
,,,,,,,,,245,37.8232,0.0141363
,,,,,,,,,268,110.681,0.00961314
,,,,,,,,,292,110.669,0.00978492
,,,,,,,,,317,131.086,0.0140579
,,,,,,,,,343,72.7865,0.00409359
,,,,,,,,,370,87.7156,0.0140708
,,,,,,,,,398,74.3334,0.0143992
,,,,,,,,,427,109.944,0.0137553
,,,,,,,,,162,107.659,0.0554913
,,,,,,,,,181,161.245,0.0317463
,,,,,,,,,201,60.493,0.0214196
,,,,,,,,,222,39.4984,0.0483888
,,,,,,,,,244,78.8621,0.0556959
,,,,,,,,,267,149.641,0.0350695
,,,,,,,,,291,61.932,0.0161814
,,,,,,,,,316,102.272,0.0166742
,,,,,,,,,342,61.577,0.0345909
,,,,,,,,,369,146.408,0.00494904
,,,,,,,,,397,101.736,0.0346689
,,,,,,,,,426,131.047,0.0367331
,,,,,,,,,456,94.7047,0.0328145
,,,,,,,,,200,56.0422,0.0379672
,,,,,,,,,221,163.965,0.0240819
,,,,,,,,,243,76.4282,0.0644966
,,,,,,,,,266,33.9942,0.0781652
,,,,,,,,,290,43.1997,0.04282
,,,,,,,,,315,57.012,0.017656
,,,,,,,,,341,143.83,0.0182442
,,,,,,,,,368,79.9257,0.0421087
,,,,,,,,,396,94.4213,0.00507877
,,,,,,,,,425,46.0409,0.0422242
,,,,,,,,,455,60.8679,0.0453265
,,,,,,,,,486,75.549,0.0395052
,,,,,,,,,242,137.355,0.0181805
,,,,,,,,,265,130.602,0.0345023
,,,,,,,,,289,87.915,0.0380629
,,,,,,,,,314,20.2194,0.02715
,,,,,,,,,340,108.427,0.0142619
,,,,,,,,,367,96.3448,0.0146433
,,,,,,,,,395,118.47,0.0268622
,,,,,,,,,424,51.2623,0.00475337
,,,,,,,,,454,74.0901,0.0269092
,,,,,,,,,485,52.8025,0.0281365
,,,,,,,,,517,89.9877,0.0257785
,,,,,,,,,288,88.1119,0.0226397
,,,,,,,,,313,130.052,0.0241203
,,,,,,,,,339,145.164,0.0192238
,,,,,,,,,366,106.971,0.0117229
,,,,,,,,,394,42.6217,0.0119793
,,,,,,,,,423,84.6051,0.0190791
,,,,,,,,,453,92.2049,0.00443334
,,,,,,,,,484,122.491,0.0191027
,,,,,,,,,516,117.211,0.0197131
,,,,,,,,,549,93.9288,0.0185259
,,,,,,,,,338,42.9883,0.0647731
,,,,,,,,,365,112.037,0.0384635
,,,,,,,,,393,22.6542,0.0168682
,,,,,,,,,422,118.399,0.0174043
,,,,,,,,,452,30.685,0.0378886
,,,,,,,,,483,129.715,0.00501145
,,,,,,,,,515,62.6278,0.0379821
,,,,,,,,,548,94.5637,0.040474
,,,,,,,,,582,63.6956,0.0357677
,,,,,,,,,392,70.862,0.0429417
,,,,,,,,,421,23.1759,0.0176766
,,,,,,,,,451,141.962,0.0182663
,,,,,,,,,482,49.1176,0.0422264
,,,,,,,,,514,110.512,0.00508048
,,,,,,,,,547,36.8061,0.0423426
,,,,,,,,,581,68.4592,0.0454629
,,,,,,,,,616,59.8683,0.0396088
,,,,,,,,,450,89.4306,0.014896
,,,,,,,,,481,102.89,0.0153126
,,,,,,,,,513,98.4372,0.0292039
,,,,,,,,,546,52.987,0.00482179
,,,,,,,,,580,53.9006,0.0292594
,,,,,,,,,615,36.9312,0.0307162
,,,,,,,,,651,72.2366,0.0279274
,,,,,,,,,512,125.819,0.010143
,,,,,,,,,545,28.4725,0.014809
,,,,,,,,,579,114.964,0.00415496
,,,,,,,,,614,41.5027,0.0148233
,,,,,,,,,650,74.9239,0.0151882
,,,,,,,,,687,51.4065,0.0144736
,,,,,,,,,578,97.3875,0.0152206
,,,,,,,,,613,50.0683,0.00418672
,,,,,,,,,649,108.472,0.0152357
,,,,,,,,,686,84.2196,0.0156215
,,,,,,,,,724,82.2887,0.0148665
,,,,,,,,,648,99.2919,0.00481263
,,,,,,,,,685,44.6942,0.0289255
,,,,,,,,,723,69.4791,0.0303484
,,,,,,,,,762,34.1737,0.0276231
,,,,,,,,,722,75.4958,0.00481414
,,,,,,,,,761,42.1927,0.004852
,,,,,,,,,801,66.1259,0.00477665
,,,,,,,,,800,33.7587,0.0304084
,,,,,,,,,841,29.5203,0.0276728
,,,,,,,,,882,37.4128,0.0289723
