Q	U	V
{$V$}	{[mm$^3$]}	0.0076899
{$d_v$}	{[mm]}	0.244892
{$S_c$}	{[mm$^2$]}	0.385328
{$S_o$}	{[mm$^2$]}	0.221773
{$S_l/S_o$}	[]	0.737488
{$\Psi$}	[]	0.488953
{$\eta$}	[]	0.508777
{med($\theta_e$)}	{[$^\circ$]}	89.3832
{$\Upsilon$}	[]	12
{$\Xi$}	[]	7
