facetNormals:0,facetNormals:1,facetNormals:2,FacetCenters:0,FacetCenters:1,FacetCenters:2,FacetIds,relFacetSize,absFacetSize,cellPairingIds,interplanarAngles,angleWeights
-0.00301952,0.262445,-0.936668,5.62454,3.68746,5.60224,1,0.0543778,0.00699769,8,54.0585,0.0559711
0.202344,-0.585963,-0.765073,5.65374,3.64401,5.61507,2,0.0576606,0.00742013,13,60.4905,0.0555305
0.534598,-0.517755,-0.653397,5.69334,3.64772,5.63283,3,0.0567332,0.00730079,19,32.3908,0.0408338
0.19226,0.691418,-0.664702,5.68597,3.78539,5.61024,4,0.0326913,0.00420692,26,66.0546,0.0543256
-0.698086,-0.421622,-0.524608,5.58344,3.63866,5.63249,5,0.0542735,0.00698426,34,54.9656,0.0457725
0.794011,0.239838,-0.518536,5.72142,3.74384,5.62227,6,0.0395187,0.00508551,43,81.1792,0.0266694
0.935755,-0.21624,-0.220532,5.72807,3.68139,5.64371,7,0.0176671,0.00227351,53,81.5177,0.0562756
-0.973067,-0.0278743,-0.155689,5.57526,3.68878,5.65992,8,0.0583107,0.0075038,64,73.6987,0.0449179
-0.739369,0.646977,-0.10434,5.57089,3.6932,5.71029,9,0.0382616,0.00492375,76,99.5087,0.0498193
-0.906985,0.265273,0.24472,5.58787,3.73776,5.68894,10,0.045966,0.0059152,89,89.8935,0.0695789
-0.482215,0.787727,0.220435,5.6169,3.76467,5.69384,11,0.0965766,0.0124281,103,101.576,0.0547481
0.933097,0.0735735,0.217878,5.72811,3.72725,5.673,12,0.0551235,0.00709365,118,132.23,0.0374517
0.691943,0.0351011,0.690222,5.71026,3.75422,5.68978,13,0.0285614,0.00367547,134,112.308,0.0577902
0.397984,0.655684,0.555847,5.6689,3.75781,5.71302,14,0.0616594,0.00793473,151,143.288,0.017079
-0.187057,0.322315,0.908146,5.64359,3.75509,5.73638,15,0.0101304,0.00130364,18,20.8305,0.0571931
,,,,,,,,,25,81.5042,0.0417257
,,,,,,,,,33,57.9173,0.0559158
,,,,,,,,,42,64.3571,0.0468962
,,,,,,,,,52,60.0265,0.027047
,,,,,,,,,63,93.6292,0.0579838
,,,,,,,,,75,117.477,0.0459995
,,,,,,,,,88,123.19,0.0511534
,,,,,,,,,102,141.113,0.0722091
,,,,,,,,,117,91.2714,0.0563635
,,,,,,,,,133,115.108,0.0382007
,,,,,,,,,150,141.397,0.059593
,,,,,,,,,168,162.428,0.0172331
,,,,,,,,,32,79.3454,0.0414804
,,,,,,,,,41,78.718,0.0554761
,,,,,,,,,51,48.7211,0.0465865
,,,,,,,,,62,39.1964,0.0269437
,,,,,,,,,74,114.446,0.0575111
,,,,,,,,,87,132.582,0.0457015
,,,,,,,,,101,144.001,0.0507852
,,,,,,,,,116,149.429,0.0714775
,,,,,,,,,132,70.4566,0.0559168
,,,,,,,,,149,95.8818,0.0379949
,,,,,,,,,167,121.482,0.0590938
,,,,,,,,,186,152.239,0.0171911
,,,,,,,,,50,94.6577,0.0408043
,,,,,,,,,61,46.1272,0.0357822
,,,,,,,,,73,79.4199,0.022938
,,,,,,,,,86,96.1235,0.0418947
,,,,,,,,,100,67.1985,0.0352578
,,,,,,,,,115,99.2585,0.0382085
,,,,,,,,,131,70.8031,0.0488476
,,,,,,,,,148,84.7851,0.0410422
,,,,,,,,,166,108.37,0.0304871
,,,,,,,,,185,80.0316,0.0427284
,,,,,,,,,205,115.723,0.0154676
,,,,,,,,,72,113.84,0.0457355
,,,,,,,,,85,117.849,0.0266568
,,,,,,,,,99,36.0687,0.0562197
,,,,,,,,,114,71.8712,0.0448823
,,,,,,,,,130,65.474,0.0497755
,,,,,,,,,147,96.9325,0.0694935
,,,,,,,,,165,148.752,0.0546952
,,,,,,,,,184,155.065,0.0374269
,,,,,,,,,204,157.058,0.0577312
,,,,,,,,,225,120.403,0.0170739
,,,,,,,,,98,33.3171,0.0244179
,,,,,,,,,113,136.42,0.0471098
,,,,,,,,,129,113.011,0.03888
,,,,,,,,,146,145.131,0.0424992
,,,,,,,,,164,109.383,0.0560868
,,,,,,,,,183,46.6289,0.0460346
,,,,,,,,,203,77.9371,0.0331583
,,,,,,,,,224,78.4809,0.0481665
,,,,,,,,,246,124.373,0.0161268
,,,,,,,,,128,153.606,0.0271179
,,,,,,,,,145,146.172,0.0241726
,,,,,,,,,163,176.431,0.025524
,,,,,,,,,182,135.746,0.0298699
,,,,,,,,,202,31.2973,0.0267581
,,,,,,,,,223,59.5988,0.0218305
,,,,,,,,,245,83.3529,0.0274647
,,,,,,,,,268,117.39,0.012877
,,,,,,,,,162,42.5386,0.046205
,,,,,,,,,181,29.5613,0.0514076
,,,,,,,,,201,63.8233,0.0727167
,,,,,,,,,222,175.096,0.0566723
,,,,,,,,,244,144.178,0.0383423
,,,,,,,,,267,121.799,0.0599383
,,,,,,,,,291,88.126,0.0172619
,,,,,,,,,200,32.1342,0.0417615
,,,,,,,,,221,26.0033,0.0548091
,,,,,,,,,243,134.461,0.0451703
,,,,,,,,,266,125.487,0.0327075
,,,,,,,,,290,85.5902,0.0472211
,,,,,,,,,315,74.935,0.0160194
,,,,,,,,,242,40.9315,0.0622865
,,,,,,,,,265,145.538,0.05013
,,,,,,,,,289,118.08,0.0352315
,,,,,,,,,314,93.162,0.0526685
,,,,,,,,,340,60.1182,0.0166019
,,,,,,,,,288,112.144,0.0701864
,,,,,,,,,313,99.5374,0.0440852
,,,,,,,,,339,60.192,0.0752655
,,,,,,,,,366,54.2726,0.0183373
,,,,,,,,,338,31.8175,0.037627
,,,,,,,,,365,53.5606,0.0582086
,,,,,,,,,393,87.142,0.0171154
,,,,,,,,,392,42.5863,0.0390394
,,,,,,,,,421,58.0016,0.014956
,,,,,,,,,450,46.3627,0.0174017
