facetNormals:0,facetNormals:1,facetNormals:2,FacetCenters:0,FacetCenters:1,FacetCenters:2,FacetIds,relFacetSize,absFacetSize,cellPairingIds,interplanarAngles,angleWeights
-0.0980745,-0.0950632,-0.939494,4.26647,6.20598,8.18138,1,0.0810364,0.0201098,8,40.6172,0.0543416
-0.493446,0.40264,-0.735528,4.24974,6.27869,8.20111,2,0.0408762,0.0101437,13,77.4923,0.105112
0.11195,0.877254,-0.305194,4.30546,6.32688,8.25868,3,0.149541,0.0371097,19,80.355,0.0686264
-0.608616,0.741151,-0.176554,4.19365,6.31916,8.30309,4,0.0595126,0.0147685,26,70.0089,0.0877701
0.344373,-0.859417,-0.283498,4.29795,6.13111,8.24584,5,0.0957243,0.0237547,34,137.998,0.106992
0.698755,-0.103815,0.667276,4.30505,6.2221,8.36079,6,0.157409,0.0390622,43,130.736,0.0526672
-0.625538,0.203284,0.658458,4.15874,6.24421,8.41587,7,0.0390105,0.00968074,53,167.783,0.0312315
-0.102567,0.049345,0.985036,4.20409,6.22578,8.43224,8,0.0193432,0.00480016,18,54.9717,0.0642029
,,,,,,,,,25,39.8292,0.0484646
,,,,,,,,,33,109.047,0.0572889
,,,,,,,,,42,158.128,0.0648993
,,,,,,,,,52,95.9455,0.0399216
,,,,,,,,,63,132.682,0.0262599
,,,,,,,,,32,45.8077,0.0851415
,,,,,,,,,41,133.963,0.116728
,,,,,,,,,51,103.777,0.153374
,,,,,,,,,62,96.1086,0.0618787
,,,,,,,,,74,106.845,0.0342554
,,,,,,,,,50,147.519,0.0733949
,,,,,,,,,61,130.868,0.0863705
,,,,,,,,,73,62.7799,0.0471283
,,,,,,,,,86,94.4436,0.0291967
,,,,,,,,,72,81.4012,0.119051
,,,,,,,,,85,129.796,0.0554311
,,,,,,,,,99,111.827,0.0321831
,,,,,,,,,98,91.193,0.0625254
,,,,,,,,,113,52.955,0.0344527
,,,,,,,,,128,38.4448,0.0258625
