"cellPairingIds","interplanarAngles","angleWeights"
13,93.1173,0.0355552
19,114.861,0.0236733
26,132.922,0.024179
34,88.8375,0.0182882
43,89.2829,0.0278161
89,127.224,0.0331564
134,117.82,0.0377036
151,113.745,0.041621
32,44.6326,0.0351049
41,79.7383,0.0362284
74,61.4073,0.0717349
116,54.9407,0.0609588
50,36.1658,0.0239699
72,56.5279,0.0184647
85,74.1895,0.0282265
99,41.8809,0.036801
114,29.4008,0.0318999
165,51.7923,0.0347865
98,27.986,0.0205131
202,55.4324,0.0428469
245,44.0303,0.0485621
162,37.0593,0.0565432
201,44.2061,0.0625978
244,44.2379,0.0184256
243,26.4243,0.0519231
266,46.8864,0.0171094
313,43.025,0.0176253
366,60.6465,0.0812642
338,45.7691,0.0179064
365,30.3212,0.0718842
392,58.3139,0.0188326
421,41.202,0.0197617
450,54.9054,0.115365
