Q	U	V
{$V$}	{[mm$^3$]}	0.0159854
{$d_v$}	{[mm]}	0.312542
{$S_c$}	{[mm$^2$]}	0.621988
{$S_o$}	{[mm$^2$]}	0.39285
{$S_l/S_o$}	[]	0.583271
{$\Psi$}	[]	0.493383
{$\eta$}	[]	0.561164
{med($\theta_e$)}	{[$^\circ$]}	
{$\Upsilon$}	[]	15
{$\Xi$}	[]	8
