Q	U	V
{$V$}	{[mm$^3$]}	0.018365
{$d_v$}	{[mm]}	0.327339
{$S_c$}	{[mm$^2$]}	0.602615
{$S_o$}	{[mm$^2$]}	0.372213
{$S_l/S_o$}	[]	0.619006
{$\Psi$}	[]	0.558605
{$\eta$}	[]	0.577798
{med($\theta_e$)}	{[$^\circ$]}	87.30335
{$\Upsilon$}	[]	12
{$\Xi$}	[]	8
