"cellPairingIds","interplanarAngles","angleWeights"
8,73.673,0.0762001
13,44.5804,0.0391876
19,55.8784,0.0992234
26,62.6025,0.077059
34,68.9469,0.116358
25,74.6525,0.0633847
42,57.7909,0.0699663
63,88.119,0.0337953
41,71.3692,0.032185
51,41.6481,0.0374707
87,72.9778,0.034602
101,69.3283,0.0342448
50,70.7545,0.0639778
73,56.1215,0.0553987
86,93.0792,0.0376721
85,87.1752,0.0477332
130,61.3965,0.0600229
147,50.9766,0.0603253
113,123.966,0.039903
129,63.5941,0.0835005
128,42.8984,0.0313832
182,71.3131,0.052639
202,76.8166,0.0466651
162,94.3116,0.0366659
222,47.8013,0.0334189
200,41.5965,0.0690134
243,52.2213,0.0593881
242,44.0456,0.0679908
265,61.4675,0.0583437
288,54.4557,0.0586293
