Q	U	V
{$V$}	{[mm$^3$]}	0.0118709
{$d_v$}	{[mm]}	0.283027
{$S_c$}	{[mm$^2$]}	0.44822
{$S_o$}	{[mm$^2$]}	0.320048
{$S_l/S_o$}	[]	0.400477
{$\Psi$}	[]	0.561455
{$\eta$}	[]	0.622971
{med($\theta_e$)}	{[$^\circ$]}	75.91775
{$\Upsilon$}	[]	13
{$\Xi$}	[]	10
