facetNormals:0,facetNormals:1,facetNormals:2,FacetCenters:0,FacetCenters:1,FacetCenters:2,FacetIds,relFacetSize,absFacetSize,cellPairingIds,interplanarAngles,angleWeights
0.485614,-0.0706278,-0.826729,4.32757,7.32066,9.26506,1,0.0291202,0.00456281,8,78.7238,0.0241548
-0.699475,-0.325283,-0.606164,4.30516,7.33781,9.37569,2,0.0206361,0.00323346,13,53.5428,0.0194964
0.0088731,-0.768607,-0.605129,4.30761,7.261,9.32896,3,0.0146536,0.00229606,19,65.9479,0.0169223
0.183441,-0.931107,-0.28192,4.31308,7.22957,9.34354,4,0.0119265,0.00186875,26,50.4817,0.0419387
0.716007,-0.586816,-0.236292,4.33448,7.24315,9.30553,5,0.0749167,0.0117386,34,120.059,0.0448519
-0.843921,0.414069,0.0165569,4.21777,7.34849,9.33677,6,0.0975541,0.0152857,43,101.917,0.0351934
-0.286837,-0.910742,0.141095,4.26684,7.2508,9.36903,7,0.0444676,0.00696759,53,125.412,0.0392483
-0.976972,-0.0719802,0.0955185,4.20265,7.30296,9.37947,8,0.0601788,0.00942936,64,53.6531,0.041144
0.939577,0.11831,-0.115751,4.34204,7.31151,9.3042,9,0.0700803,0.0109808,76,86.0742,0.0297236
0.42722,-0.841524,0.245202,4.30467,7.21577,9.35356,10,0.0303526,0.00475593,89,139.421,0.033221
-0.647113,-0.499916,0.517144,4.25435,7.26475,9.38908,11,0.0386662,0.00605857,103,99.061,0.0399423
0.352444,0.851402,0.312485,4.28011,7.39337,9.33254,12,0.0635658,0.00996008,118,92.2036,0.0207963
0.817333,-0.0535559,0.52825,4.33779,7.28096,9.35604,13,0.0161733,0.00253418,134,104.896,0.0316739
0.559797,0.580449,0.575371,4.30363,7.34549,9.38169,14,0.0347186,0.00544002,151,141.341,0.0378053
-0.085064,0.570111,0.787652,4.25747,7.33753,9.37645,15,0.0538729,0.0084413,169,126.155,0.0425856
0.235239,-0.417817,0.833695,4.28429,7.25338,9.40151,16,0.0792156,0.0124122,188,153.925,0.0283455
-0.0740985,0.0679057,0.987982,4.26297,7.29118,9.38616,17,0.0276109,0.00432633,18,50.4896,0.0171378
,,,,,,,,,25,69.1653,0.0151165
,,,,,,,,,33,100.245,0.0323589
,,,,,,,,,42,61.1139,0.0340661
,,,,,,,,,52,64.2526,0.0281901
,,,,,,,,,63,47.7807,0.0307334
,,,,,,,,,75,131.937,0.0318837
,,,,,,,,,88,100.463,0.0245686
,,,,,,,,,102,71.4626,0.0269103
,,,,,,,,,117,138.314,0.0311573
,,,,,,,,,133,156.14,0.0181342
,,,,,,,,,150,162.945,0.025886
,,,,,,,,,168,129.06,0.0298414
,,,,,,,,,187,124.468,0.0327426
,,,,,,,,,207,125.744,0.0236194
,,,,,,,,,32,23.5411,0.0131501
,,,,,,,,,41,50.0341,0.0245126
,,,,,,,,,51,111.411,0.0254799
,,,,,,,,,62,49.5924,0.0220432
,,,,,,,,,74,90.6632,0.0235683
,,,,,,,,,87,90.7706,0.0242389
,,,,,,,,,101,58.232,0.019765
,,,,,,,,,116,86.0283,0.0212528
,,,,,,,,,132,151.988,0.0238168
,,,,,,,,,149,106.528,0.015376
,,,,,,,,,167,144.539,0.0206089
,,,,,,,,,186,163.513,0.0230402
,,,,,,,,,206,101.108,0.0247321
,,,,,,,,,227,132.051,0.019146
,,,,,,,,,50,38.0993,0.0205772
,,,,,,,,,61,125.842,0.0212545
,,,,,,,,,73,37.7445,0.0188085
,,,,,,,,,86,98.2085,0.0199076
,,,,,,,,,100,84.2376,0.020384
,,,,,,,,,115,34.7889,0.0171243
,,,,,,,,,131,77.8882,0.01823
,,,,,,,,,148,147.92,0.0200846
,,,,,,,,,166,86.9777,0.013729
,,,,,,,,,185,127.718,0.0177541
,,,,,,,,,205,142.685,0.0195295
,,,,,,,,,226,78.0497,0.0207317
,,,,,,,,,248,111.189,0.0166577
,,,,,,,,,72,161.358,0.0847498
,,,,,,,,,85,71.2966,0.0558091
,,,,,,,,,99,136.297,0.0667439
,,,,,,,,,114,46.2207,0.0724178
,,,,,,,,,130,37.2308,0.0432019
,,,,,,,,,147,108.425,0.0510067
,,,,,,,,,165,110.206,0.0687761
,,,,,,,,,184,58.1194,0.0266034
,,,,,,,,,204,94.5907,0.0474483
,,,,,,,,,225,128.583,0.0626756
,,,,,,,,,247,76.3647,0.0770062
,,,,,,,,,270,110.118,0.0403505
,,,,,,,,,98,98.409,0.0610892
,,,,,,,,,113,30.6306,0.0744383
,,,,,,,,,129,146.256,0.0815658
,,,,,,,,,146,140.259,0.0462997
,,,,,,,,,164,67.5294,0.0553815
,,,,,,,,,183,86.2219,0.076975
,,,,,,,,,203,140.12,0.0277465
,,,,,,,,,224,103.825,0.0512115
,,,,,,,,,246,69.5316,0.0694133
,,,,,,,,,269,113.305,0.0874336
,,,,,,,,,293,83.4188,0.0430401
,,,,,,,,,128,67.78,0.0511438
,,,,,,,,,145,115.304,0.0544105
,,,,,,,,,163,43.8733,0.0360787
,,,,,,,,,182,40.1437,0.0413644
,,,,,,,,,202,152.416,0.0523286
,,,,,,,,,223,96.7843,0.0237195
,,,,,,,,,245,129.487,0.0389929
,,,,,,,,,268,114.034,0.0487205
,,,,,,,,,292,62.3578,0.0569605
,,,,,,,,,317,84.0832,0.0340682
,,,,,,,,,162,176.739,0.0647532
,,,,,,,,,181,110.326,0.0403525
,,,,,,,,,201,41.1027,0.0470815
,,,,,,,,,222,113.101,0.061826
,,,,,,,,,244,140.874,0.0254948
,,,,,,,,,267,123.188,0.0440333
,,,,,,,,,291,82.9864,0.0568515
,,,,,,,,,316,97.2898,0.0683973
,,,,,,,,,342,80.4674,0.0378539
,,,,,,,,,200,72.905,0.042359
,,,,,,,,,221,141.963,0.0498359
,,,,,,,,,243,64.7687,0.0666643
,,,,,,,,,266,41.123,0.0262813
,,,,,,,,,290,56.0329,0.0464335
,,,,,,,,,315,96.3906,0.060917
,,,,,,,,,341,85.3057,0.0743685
,,,,,,,,,368,100.702,0.0396142
,,,,,,,,,242,73.3042,0.0340087
,,,,,,,,,265,121.044,0.0410865
,,,,,,,,,289,56.5557,0.0211023
,,,,,,,,,314,96.4328,0.0323891
,,,,,,,,,340,109.837,0.0388287
,,,,,,,,,367,45.5668,0.0438887
,,,,,,,,,395,80.8818,0.0289169
,,,,,,,,,288,121.515,0.0480837
,,,,,,,,,313,104.051,0.0228069
,,,,,,,,,339,111.732,0.0365862
,,,,,,,,,366,79.1744,0.0450201
,,,,,,,,,394,58.3848,0.0519667
,,,,,,,,,423,56.8844,0.0322165
,,,,,,,,,338,64.5494,0.0257858
,,,,,,,,,365,25.321,0.0449088
,,,,,,,,,393,42.3792,0.0583194
,,,,,,,,,422,90.7534,0.0705331
,,,,,,,,,452,69.3714,0.0384991
,,,,,,,,,392,40.8454,0.0220669
,,,,,,,,,421,70.5979,0.0248779
,,,,,,,,,451,45.6683,0.0268622
,,,,,,,,,482,61.7788,0.0203982
,,,,,,,,,450,40.3848,0.0422251
,,,,,,,,,481,67.2229,0.0482779
,,,,,,,,,513,54.849,0.0307595
,,,,,,,,,512,64.8831,0.0641314
,,,,,,,,,545,31.866,0.0365098
,,,,,,,,,578,35.4672,0.0409489
