"cellPairingIds","interplanarAngles","angleWeights"
41,23.6783,0.0231475
51,48.2991,0.0454943
62,105.399,0.0227764
74,121.77,0.0200708
132,147.411,0.0390258
186,133.649,0.035357
85,112.428,0.0201753
225,118.581,0.0294608
247,87.3078,0.0309102
183,101.87,0.0993633
246,86.3248,0.078598
128,21.6511,0.0177974
223,60.1838,0.0350573
292,101.119,0.030252
222,82.4477,0.0263804
244,42.8974,0.0290331
338,43.7678,0.0976204
393,29.6552,0.0611014
421,61.5928,0.0775035
451,78.888,0.0884091
512,54.4565,0.0573607
