Q	U	V
{$V$}	{[mm$^3$]}	0.00620085
{$d_v$}	{[mm]}	0.227938
{$S_c$}	{[mm$^2$]}	0.272957
{$S_o$}	{[mm$^2$]}	0.157519
{$S_l/S_o$}	[]	0.732851
{$\Psi$}	[]	0.597986
{$\eta$}	[]	0.622996
{med($\theta_e$)}	{[$^\circ$]}	58.1968
{$\Upsilon$}	[]	12
{$\Xi$}	[]	8
