Q	U	V
{$V$}	{[mm$^3$]}	0.00527464
{$d_v$}	{[mm]}	0.215972
{$S_c$}	{[mm$^2$]}	0.209266
{$S_o$}	{[mm$^2$]}	0.134079
{$S_l/S_o$}	[]	0.560766
{$\Psi$}	[]	0.700241
{$\eta$}	[]	0.735413
{med($\theta_e$)}	{[$^\circ$]}	55.6338
{$\Upsilon$}	[]	15
{$\Xi$}	[]	11
