"cellPairingIds","interplanarAngles","angleWeights"
8,46.0478,0.0197937
13,33.2929,0.00617677
19,94.5791,0.0137249
26,103.295,0.0199384
18,75.7233,0.00850869
25,65.5812,0.0350998
42,64.1359,0.110414
63,76.7415,0.131708
41,116.641,0.00853532
62,72.5686,0.00481847
74,109.571,0.0084056
116,98.0026,0.0082825
132,112.056,0.00799428
50,44.8056,0.0355575
61,20.5161,0.0318513
115,92.1695,0.0107373
85,80.576,0.0104392
130,75.2088,0.014199
113,76.4081,0.0952535
146,85.63,0.0135686
163,69.0282,0.00621883
182,41.2223,0.0100635
181,80.2432,0.0138436
222,52.7307,0.0659842
242,39.3456,0.0135128
265,40.7329,0.0127622
288,36.1413,0.05909
