Q	U	V
{$V$}	{[mm$^3$]}	0.00277744
{$d_v$}	{[mm]}	0.174401
{$S_c$}	{[mm$^2$]}	0.166508
{$S_o$}	{[mm$^2$]}	0.0936691
{$S_l/S_o$}	[]	0.777619
{$\Psi$}	[]	0.573868
{$\eta$}	[]	0.655290
{med($\theta_e$)}	{[$^\circ$]}	61.08535
{$\Upsilon$}	[]	15
{$\Xi$}	[]	8
