facetNormals:0,facetNormals:1,facetNormals:2,FacetCenters:0,FacetCenters:1,FacetCenters:2,FacetIds,relFacetSize,absFacetSize,cellPairingIds,interplanarAngles,angleWeights
0.169747,0.748201,-0.594218,4.9995,5.05192,5.57456,1,0.026352,0.0122756,8,89.7145,0.0349499
0.719947,-0.487663,-0.416216,5.02991,5.05229,5.50855,2,0.0518753,0.0241652,13,143.178,0.04848
-0.317582,-0.818197,0.026971,4.89111,5.03696,5.62018,3,0.302447,0.14089,19,52.6304,0.0416559
0.644557,0.69584,0.113417,4.99225,5.08432,5.6339,4,0.0993581,0.0462843,26,70.6716,0.0397713
0.363253,0.747864,0.516399,4.93763,5.1185,5.654,5,0.0810386,0.0377505,34,85.1311,0.0324959
-0.438345,0.638401,0.547182,4.8263,5.12573,5.65208,6,0.0423758,0.01974,18,79.1644,0.0885607
,,,,,,,,,25,85.1722,0.0681626
,,,,,,,,,33,109.703,0.0632575
,,,,,,,,,42,159.22,0.0466468
,,,,,,,,,32,156.802,0.149578
,,,,,,,,,41,146.102,0.127827
,,,,,,,,,51,116.259,0.0743363
,,,,,,,,,50,29.5784,0.0892682
,,,,,,,,,61,75.6988,0.0594124
,,,,,,,,,72,49.658,0.0556511
