facetNormals:0,facetNormals:1,facetNormals:2,FacetCenters:0,FacetCenters:1,FacetCenters:2,FacetIds,relFacetSize,absFacetSize,cellPairingIds,interplanarAngles,angleWeights
0.227022,0.42664,-0.845882,4.16205,4.39972,6.95337,1,0.0340055,0.0054689,8,62.2177,0.0380195
0.549003,-0.505433,-0.632832,4.17298,4.31899,7.01194,2,0.0431078,0.00693277,13,79.6515,0.0546364
-0.159958,-0.727469,-0.60888,4.09728,4.30297,7.01561,3,0.138916,0.0223409,19,94.3053,0.0413912
0.425164,-0.850556,-0.230298,4.17071,4.3102,7.0285,4,0.0528752,0.00850358,26,72.4016,0.0388674
0.95199,0.143282,-0.00746801,4.20554,4.34451,7.06935,5,0.0453514,0.00729358,34,115.922,0.0574975
-0.694451,-0.651155,-0.0351839,4.02822,4.31274,7.08449,6,0.185972,0.0299087,43,82.652,0.0432054
0.349539,0.824896,0.367246,4.14609,4.4081,7.09391,7,0.0592293,0.00952548,53,138.605,0.0202939
-0.803156,-0.19027,0.541227,4.01652,4.33608,7.16118,8,0.0144624,0.0023259,64,100.089,0.0522183
0.726296,0.313557,0.54714,4.17304,4.34859,7.13989,9,0.112439,0.0180828,76,151.124,0.0500399
-0.257015,0.046797,0.892139,4.07431,4.33763,7.19115,10,0.0946869,0.0152279,18,45.0357,0.0657976
,,,,,,,,,25,32.3123,0.0474945
,,,,,,,,,33,61.1203,0.0442012
,,,,,,,,,42,91.8367,0.0699918
,,,,,,,,,52,118.872,0.0498988
,,,,,,,,,63,135.37,0.0216585
,,,,,,,,,75,96.4665,0.0623221
,,,,,,,,,88,143.307,0.0592439
,,,,,,,,,32,42.7694,0.0765958
,,,,,,,,,41,105.786,0.0683792
,,,,,,,,,51,48.5895,0.159036
,,,,,,,,,62,160.786,0.0830491
,,,,,,,,,74,93.7833,0.0261975
,,,,,,,,,87,137.06,0.124283
,,,,,,,,,101,126.833,0.112614
,,,,,,,,,50,72.4135,0.0488251
,,,,,,,,,61,73.3732,0.0823397
,,,,,,,,,73,132.302,0.0558722
,,,,,,,,,86,108.367,0.0227125
,,,,,,,,,100,95.1154,0.0719264
,,,,,,,,,115,112.943,0.0678574
,,,,,,,,,72,145.314,0.0729203
,,,,,,,,,85,61.2609,0.0513696
,,,,,,,,,99,146.886,0.0219311
,,,,,,,,,114,37.7433,0.0646334
,,,,,,,,,130,105.863,0.0613287
,,,,,,,,,98,149.262,0.0898445
,,,,,,,,,113,45.194,0.0268378
,,,,,,,,,129,142.587,0.140145
,,,,,,,,,146,82.4325,0.125484
,,,,,,,,,128,104.478,0.0232482
,,,,,,,,,145,39.998,0.0775877
,,,,,,,,,163,72.1165,0.0728739
,,,,,,,,,162,111.43,0.0256284
,,,,,,,,,181,42.1385,0.0250923
,,,,,,,,,200,69.2953,0.102802
