facetNormals:0,facetNormals:1,facetNormals:2,FacetCenters:0,FacetCenters:1,FacetCenters:2,FacetIds,relFacetSize,absFacetSize,cellPairingIds,interplanarAngles,angleWeights
0.0842196,0.44664,-0.821474,5.72191,3.45463,7.12461,1,0.0309989,0.0128794,8,84.5809,0.0156156
0.331877,-0.78447,-0.499048,5.68782,3.33516,7.23566,2,0.0104365,0.00433615,13,89.1559,0.0405112
-0.39896,-0.746081,-0.462786,5.58072,3.36105,7.24511,3,0.0584459,0.0242831,19,63.08,0.041196
-0.690592,-0.0811222,-0.585133,5.67397,3.3784,7.18729,4,0.0613904,0.0255065,26,50.724,0.02812
-0.0271067,0.955306,-0.188073,5.71133,3.5534,7.28024,5,0.0257303,0.0106904,34,123.257,0.0431831
-0.489819,-0.823535,0.106243,5.63001,3.34382,7.25434,6,0.071148,0.0295605,43,79.15,0.0209806
-0.275344,0.913393,0.2559,5.63203,3.56212,7.31382,7,0.0158562,0.00658791,53,73.7645,0.0281835
0.247804,0.924168,0.21456,5.66558,3.54704,7.29633,8,0.025837,0.0107347,64,86.9659,0.0371896
-0.773225,0.525294,0.149071,5.58957,3.49474,7.29061,9,0.0464699,0.0193073,76,116.151,0.0382831
-0.89728,-0.191585,0.288271,5.60381,3.39661,7.29298,10,0.050042,0.0207914,89,71.5617,0.0388149
0.803068,0.492483,0.0095607,5.76425,3.51611,7.1942,11,0.0519011,0.0215638,103,109.146,0.0501411
0.86587,-0.239611,0.315386,5.74547,3.43276,7.28774,12,0.131092,0.0544659,118,163.289,0.0355162
-0.357863,-0.42933,0.782074,5.5916,3.39681,7.37591,13,0.0415748,0.0172735,134,137.742,0.0343387
0.365766,0.055518,0.858087,5.65824,3.4599,7.38861,14,0.0384852,0.0159898,151,122.652,0.045619
-0.102303,0.46415,0.833526,5.62203,3.5002,7.36753,15,0.0863398,0.0358724,18,44.0866,0.0177105
,,,,,,,,,25,81.897,0.0178401
,,,,,,,,,33,133.718,0.0148498
,,,,,,,,,42,63.1094,0.0182029
,,,,,,,,,52,163.642,0.0125878
,,,,,,,,,63,140.767,0.0148675
,,,,,,,,,75,142.673,0.0170449
,,,,,,,,,88,107.871,0.017271
,,,,,,,,,102,97.6985,0.0173785
,,,,,,,,,117,70.2305,0.0193338
,,,,,,,,,133,100.459,0.0166847
,,,,,,,,,150,112.323,0.0164201
,,,,,,,,,168,149.246,0.018622
,,,,,,,,,32,46.1773,0.059882
,,,,,,,,,41,130.891,0.0357306
,,,,,,,,,51,35.0955,0.0641744
,,,,,,,,,62,136.423,0.0249449
,,,,,,,,,74,159.836,0.0358333
,,,,,,,,,87,99.6114,0.0517744
,,,,,,,,,101,66.6554,0.0539185
,,,,,,,,,116,139.637,0.0549794
,,,,,,,,,132,109.906,0.080847
,,,,,,,,,149,83.7354,0.0485875
,,,,,,,,,167,130.435,0.0464103
,,,,,,,,,186,138.333,0.0697059
,,,,,,,,,50,86.6795,0.0362622
,,,,,,,,,61,66.9589,0.06591
,,,,,,,,,73,92.1505,0.0252028
,,,,,,,,,86,114.649,0.036368
,,,,,,,,,100,61.9785,0.0528982
,,,,,,,,,115,57.739,0.0551383
,,,,,,,,,131,134.505,0.0562484
,,,,,,,,,148,151.866,0.083621
,,,,,,,,,166,101.6,0.0495758
,,,,,,,,,185,153.382,0.0473113
,,,,,,,,,205,121.432,0.0717583
,,,,,,,,,72,147.668,0.037793
,,,,,,,,,85,30.1498,0.019621
,,,,,,,,,99,28.9451,0.0257836
,,,,,,,,,114,57.5479,0.0331214
,,,,,,,,,130,103.138,0.0339859
,,,,,,,,,147,60.8548,0.0344044
,,,,,,,,,165,109.638,0.0430173
,,,,,,,,,184,125.788,0.0317876
,,,,,,,,,204,97.4658,0.030841
,,,,,,,,,225,71.9606,0.0396457
,,,,,,,,,98,128.299,0.0259329
,,,,,,,,,113,155.419,0.0379079
,,,,,,,,,129,92.3877,0.05622
,,,,,,,,,146,47.3721,0.0587571
,,,,,,,,,164,151.466,0.0600193
,,,,,,,,,183,102.155,0.0922362
,,,,,,,,,203,48.6746,0.052482
,,,,,,,,,224,98.5359,0.049951
,,,,,,,,,246,105.267,0.0780111
,,,,,,,,,128,30.93,0.0196519
,,,,,,,,,145,38.5846,0.0236445
,,,,,,,,,163,81.1687,0.0240818
,,,,,,,,,182,75.6163,0.0242912
,,,,,,,,,202,113.603,0.0282904
,,,,,,,,,223,95.6502,0.0229568
,,,,,,,,,245,79.4125,0.022459
,,,,,,,,,268,45.4026,0.026792
,,,,,,,,,162,69.4491,0.0332096
,,,,,,,,,181,110.974,0.0340789
,,,,,,,,,201,44.7391,0.0344997
,,,,,,,,,222,86.2666,0.0431663
,,,,,,,,,244,109.694,0.0318688
,,,,,,,,,267,69.1548,0.0309175
,,,,,,,,,291,51.7538,0.0397722
,,,,,,,,,200,45.6715,0.0481898
,,,,,,,,,221,113.867,0.0490355
,,,,,,,,,243,146.131,0.0686163
,,,,,,,,,266,79.3752,0.0438862
,,,,,,,,,290,98.1726,0.0421023
,,,,,,,,,315,60.5057,0.0604203
,,,,,,,,,242,153.689,0.0509546
,,,,,,,,,265,134.348,0.0724337
,,,,,,,,,289,47.1425,0.0454171
,,,,,,,,,314,95.8418,0.0435092
,,,,,,,,,340,74.7223,0.0633606
,,,,,,,,,288,49.6854,0.0743614
,,,,,,,,,313,122.858,0.0461676
,,,,,,,,,339,68.035,0.0441975
,,,,,,,,,366,80.1655,0.0648307
,,,,,,,,,338,87.5163,0.0631287
,,,,,,,,,365,49.8217,0.0595021
,,,,,,,,,393,86.0405,0.10411
,,,,,,,,,392,54.9107,0.0399704
,,,,,,,,,421,57.9672,0.0561243
,,,,,,,,,450,38.3052,0.0532394
