Q	U	V
{$V$}	{[mm$^3$]}	0.0115764
{$d_v$}	{[mm]}	0.280667
{$S_c$}	{[mm$^2$]}	0.467714
{$S_o$}	{[mm$^2$]}	0.28189
{$S_l/S_o$}	[]	0.659207
{$\Psi$}	[]	0.529118
{$\eta$}	[]	0.553499
{med($\theta_e$)}	{[$^\circ$]}	96.3509
{$\Upsilon$}	[]	12
{$\Xi$}	[]	5
