Q	U	V
{$V$}	{[mm$^3$]}	0.0024497
{$d_v$}	{[mm]}	0.167252
{$S_c$}	{[mm$^2$]}	0.133104
{$S_o$}	{[mm$^2$]}	0.0804238
{$S_l/S_o$}	[]	0.655032
{$\Psi$}	[]	0.66024
{$\eta$}	[]	0.676663
{med($\theta_e$)}	{[$^\circ$]}	62.0831
{$\Upsilon$}	[]	13
{$\Xi$}	[]	5
