facetNormals:0,facetNormals:1,facetNormals:2,FacetCenters:0,FacetCenters:1,FacetCenters:2,FacetIds,relFacetSize,absFacetSize,cellPairingIds,interplanarAngles,angleWeights
-0.27071,0.759477,-0.561444,3.15457,4.38466,8.0729,1,0.0127712,0.0042532,8,49.4866,0.0182334
-0.760971,0.118885,-0.544646,3.10624,4.23939,8.01291,2,0.0318596,0.0106102,13,108.419,0.0103648
-0.180529,-0.839309,-0.499202,3.11818,4.18594,8.0249,3,0.00872144,0.00290449,19,72.1883,0.0155631
0.751053,0.622806,-0.0424235,3.19107,4.38113,8.1564,4,0.019917,0.00663293,26,110.231,0.0204486
-0.583242,-0.77137,-0.168241,3.0826,4.16907,8.1215,5,0.0512685,0.0170739,34,116.435,0.023905
0.832798,-0.39799,-0.203562,3.19723,4.2552,8.11294,6,0.186448,0.0620926,43,38.9163,0.022545
0.209755,0.902274,-0.160733,3.15058,4.42165,8.12743,7,0.0960555,0.0319893,53,138.729,0.0212108
0.103452,-0.9399,-0.0738279,3.12947,4.16146,8.20558,8,0.0625361,0.0208263,64,82.0871,0.0111269
0.521808,0.699029,0.456774,3.16177,4.3621,8.11809,9,0.00985773,0.00328291,76,58.6421,0.0192541
-0.551138,0.708529,0.347598,3.11264,4.31492,8.27069,10,0.039104,0.0130228,89,117.139,0.0215451
-0.692443,-0.525064,0.38104,3.04783,4.2222,8.26863,11,0.068835,0.022924,103,91.9337,0.0168373
-0.190403,0.492183,0.814919,3.14375,4.3531,8.32057,12,0.0247018,0.0082264,118,137.045,0.0230395
0.382498,-0.128175,0.867475,3.16368,4.27779,8.31744,13,0.117559,0.0391505,18,70.7092,0.0136942
,,,,,,,,,25,120.993,0.024511
,,,,,,,,,33,61.3634,0.0392982
,,,,,,,,,42,129.754,0.0544201
,,,,,,,,,52,87.7259,0.0478488
,,,,,,,,,63,99.668,0.0422133
,,,,,,,,,75,127.291,0.0150567
,,,,,,,,,88,69.748,0.035112
,,,,,,,,,102,73.3159,0.0435586
,,,,,,,,,117,105.22,0.0278278
,,,,,,,,,133,149.649,0.0501327
,,,,,,,,,32,131.066,0.0121309
,,,,,,,,,41,30.8703,0.014907
,,,,,,,,,51,72.3047,0.0166634
,,,,,,,,,62,139.969,0.015991
,,,,,,,,,74,31.0381,0.015308
,,,,,,,,,87,158.357,0.00925484
,,,,,,,,,101,134.388,0.014262
,,,,,,,,,116,66.5177,0.0154814
,,,,,,,,,132,144.56,0.0128913
,,,,,,,,,149,114.535,0.0162382
,,,,,,,,,50,161.928,0.0286888
,,,,,,,,,61,65.2648,0.0359894
,,,,,,,,,73,37.7197,0.0329929
,,,,,,,,,86,123.005,0.0302118
,,,,,,,,,100,32.8474,0.0131881
,,,,,,,,,115,89.2323,0.0263917
,,,,,,,,,131,158.676,0.0308947
,,,,,,,,,148,82.183,0.0220528
,,,,,,,,,166,79.4761,0.0340629
,,,,,,,,,72,98.9589,0.0804227
,,,,,,,,,85,149.029,0.0668543
,,,,,,,,,99,43.3401,0.0563445
,,,,,,,,,114,162.228,0.016536
,,,,,,,,,130,107.465,0.0443675
,,,,,,,,,147,36.9045,0.0587671
,,,,,,,,,165,115.196,0.0333399
,,,,,,,,,184,106.72,0.0713991
,,,,,,,,,98,99.8286,0.12679
,,,,,,,,,113,57.9851,0.0936585
,,,,,,,,,129,86.0956,0.0187254
,,,,,,,,,146,153.148,0.064649
,,,,,,,,,164,119.766,0.100548
,,,,,,,,,183,124.543,0.043624
,,,,,,,,,203,77.6781,0.144198
,,,,,,,,,128,155.978,0.0757535
,,,,,,,,,145,43.9275,0.0178805
,,,,,,,,,163,58.8744,0.055581
,,,,,,,,,182,139.686,0.0801984
,,,,,,,,,202,72.5869,0.0392977
,,,,,,,,,223,101.209,0.105725
,,,,,,,,,162,132.986,0.0170309
,,,,,,,,,181,145.083,0.048119
,,,,,,,,,201,64.055,0.0655345
,,,,,,,,,222,126.094,0.0354147
,,,,,,,,,244,83.9269,0.0816422
,,,,,,,,,200,67.2546,0.015746
,,,,,,,,,221,126.39,0.0172457
,,,,,,,,,243,49.8092,0.0140918
,,,,,,,,,266,57.4937,0.0181902
,,,,,,,,,242,81.0525,0.0498749
,,,,,,,,,265,37.9513,0.0302774
,,,,,,,,,289,90.0057,0.0586868
,,,,,,,,,288,78.483,0.0363567
,,,,,,,,,313,81.5761,0.0868286
,,,,,,,,,338,52.0649,0.0408252
