Q	U	V
{$V$}	{[mm$^3$]}	0.00422493
{$d_v$}	{[mm]}	0.200574
{$S_c$}	{[mm$^2$]}	0.263307
{$S_o$}	{[mm$^2$]}	0.154503
{$S_l/S_o$}	[]	0.704219
{$\Psi$}	[]	0.479993
{$\eta$}	[]	0.515615
{med($\theta_e$)}	{[$^\circ$]}	69.8329
{$\Upsilon$}	[]	14
{$\Xi$}	[]	5
