"cellPairingIds","interplanarAngles","angleWeights"
8,39.0478,0.0348663
13,46.0707,0.0351641
19,59.3302,0.118911
26,61.3739,0.0734499
34,79.9205,0.0760455
25,69.5137,0.0352757
42,103.401,0.0302219
63,91.6255,0.0328162
75,121.09,0.022971
88,119.267,0.0283553
117,153.474,0.0330002
32,47.3594,0.0355805
41,45.0196,0.0300207
62,68.1106,0.0335113
116,98.0803,0.0339624
115,63.6909,0.0666868
131,115.34,0.106204
72,31.0388,0.0554868
85,33.9815,0.0665895
98,31.7077,0.0687159
113,59.4746,0.0669261
129,68.6613,0.0357114
164,70.7526,0.0706401
182,45.8649,0.0896753
162,32.2989,0.039391
221,55.2058,0.0406489
243,57.4181,0.0396565
242,66.9923,0.06122
265,45.1388,0.0589965
288,30.9469,0.0879464
