Q	U	V
{$V$}	{[mm$^3$]}	0.0180409
{$d_v$}	{[mm]}	0.325402
{$S_c$}	{[mm$^2$]}	0.631486
{$S_o$}	{[mm$^2$]}	0.454031
{$S_l/S_o$}	[]	0.390843
{$\Psi$}	[]	0.526776
{$\eta$}	[]	0.574160
{med($\theta_e$)}	{[$^\circ$]}	63.29075
{$\Upsilon$}	[]	16
{$\Xi$}	[]	17
