facetNormals:0,facetNormals:1,facetNormals:2,FacetCenters:0,FacetCenters:1,FacetCenters:2,FacetIds,relFacetSize,absFacetSize,cellPairingIds,interplanarAngles,angleWeights
0.397417,0.61554,-0.666861,5.67582,3.72158,8.95541,1,0.0113569,0.00126119,8,37.7669,0.0210862
-0.0361254,0.924589,-0.316652,5.6141,3.75582,9.03321,2,0.14713,0.0163388,13,46.6859,0.0208011
0.918717,0.200882,-0.262003,5.73082,3.6852,9.03537,3,0.123503,0.0137151,19,54.0876,0.019704
0.399826,0.871754,0.19082,5.66237,3.75174,9.09309,4,0.0743476,0.00825631,26,117.284,0.0205227
0.573872,-0.697436,0.360515,5.70164,3.58708,9.1335,5,0.106371,0.0118125,34,82.7977,0.0171509
-0.237517,0.845846,0.454923,5.57013,3.76214,9.11255,6,0.0350144,0.00388835,43,81.3524,0.0198399
0.768093,0.291471,0.510703,5.72561,3.67134,9.14791,7,0.0784013,0.00870647,53,132.031,0.0166283
0.338492,-0.354241,0.854655,5.65031,3.6003,9.1863,8,0.031032,0.00344611,64,111.786,0.0213143
-0.137203,0.430943,0.843955,5.60292,3.69176,9.16541,9,0.172954,0.0192066,76,137.704,0.0190627
-0.0919526,-0.0529363,0.984734,5.61324,3.63203,9.18481,10,0.0592945,0.00658467,18,75.7193,0.134285
,,,,,,,,,25,40.1347,0.0987797
,,,,,,,,,33,145.07,0.123474
,,,,,,,,,42,48.0669,0.0565668
,,,,,,,,,52,85.1474,0.102293
,,,,,,,,,63,129.312,0.0512538
,,,,,,,,,75,81.6391,0.159
,,,,,,,,,88,111.655,0.0845248
,,,,,,,,,32,58.9454,0.0928192
,,,,,,,,,41,72.0447,0.114299
,,,,,,,,,51,99.9861,0.0545604
,,,,,,,,,62,48.1214,0.0959148
,,,,,,,,,74,89.0529,0.0496011
,,,,,,,,,87,106.188,0.144105
,,,,,,,,,101,111.42,0.0801221
,,,,,,,,,50,109.009,0.087522
,,,,,,,,,61,41.0847,0.0476077
,,,,,,,,,73,45.8694,0.0763206
,,,,,,,,,86,90.6178,0.0437875
,,,,,,,,,100,59.0264,0.103992
,,,,,,,,,115,83.7765,0.0659733
,,,,,,,,,72,125.757,0.052686
,,,,,,,,,85,63.3723,0.0902691
,,,,,,,,,99,38.5319,0.0480471
,,,,,,,,,114,94.622,0.131727
,,,,,,,,,130,69.3824,0.076144
,,,,,,,,,98,71.9563,0.048409
,,,,,,,,,113,89.4844,0.0329031
,,,,,,,,,129,34.464,0.0582384
,,,,,,,,,146,64.2933,0.0440289
,,,,,,,,,128,51.5011,0.0444646
,,,,,,,,,145,60.8448,0.107894
,,,,,,,,,163,64.2092,0.0675223
,,,,,,,,,162,56.3857,0.0526224
,,,,,,,,,181,31.802,0.0407417
,,,,,,,,,200,30.0492,0.0883126
