"cellPairingIds","interplanarAngles","angleWeights"
8,70.5341,0.0924914
13,32.3115,0.0631688
26,36.0549,0.0389909
53,89.9729,0.00833444
118,90.0195,0.122091
18,75.4739,0.0562881
25,25.4146,0.0226736
63,83.195,0.00820216
75,75.4469,0.0263831
102,78.4716,0.044167
117,88.3139,0.0698151
187,100.394,0.0407412
32,57.083,0.0203571
101,50.3749,0.0443618
116,67.3924,0.0361531
149,92.0632,0.0660304
167,75.1949,0.0413908
131,56.7667,0.018519
99,64.347,0.00731238
184,66.4324,0.0400626
162,30.1202,0.00679924
244,89.8725,0.00838237
266,107.445,0.0283432
315,114.908,0.0214776
341,83.8147,0.0201202
368,107.457,0.0276611
242,36.4225,0.0364731
314,41.9825,0.0418106
395,62.2802,0.0634037
288,25.532,0.0412917
423,69.4284,0.0478694
422,32.807,0.0382823
452,53.3622,0.0795395
392,39.8967,0.0605327
421,18.9512,0.0532397
450,25.7386,0.0359733
513,40.8228,0.0575042
545,41.0099,0.0508828
578,43.3328,0.0438712
