Q	U	V
{$V$}	{[mm$^3$]}	0.00272994
{$d_v$}	{[mm]}	0.173401
{$S_c$}	{[mm$^2$]}	0.139236
{$S_o$}	{[mm$^2$]}	0.0895108
{$S_l/S_o$}	[]	0.555522
{$\Psi$}	[]	0.678424
{$\eta$}	[]	0.716811
{med($\theta_e$)}	{[$^\circ$]}	57.3353
{$\Upsilon$}	[]	17
{$\Xi$}	[]	8
