"cellPairingIds","interplanarAngles","angleWeights"
8,26.9645,0.061199
13,129.905,0.050591
19,119.652,0.0402001
34,97.7026,0.0375542
64,80.2772,0.0829769
103,46.0869,0.109639
18,140.646,0.0358527
33,52.8984,0.0441308
52,100.929,0.0184
102,33.6512,0.0525503
117,43.4305,0.0579833
32,25.1555,0.0274519
62,67.6155,0.0173088
74,33.9579,0.0442178
101,49.8769,0.0408388
61,36.3402,0.0231005
100,70.9657,0.034828
115,33.6966,0.0337887
85,53.0398,0.0190323
147,31.4645,0.0580598
184,39.4981,0.0345205
129,35.0685,0.0328244
128,54.6405,0.0203785
223,32.9464,0.0164863
268,56.6094,0.0183072
181,47.3445,0.0633565
291,45.0527,0.0513754
200,54.9121,0.0596244
243,72.0147,0.0771739
290,38.5491,0.0666947
314,53.3826,0.0629846
340,68.9042,0.0468698
288,42.0545,0.0846736
313,62.8065,0.0394668
366,94.0265,0.0518005
365,69.9683,0.0828982
393,107.089,0.0570717
421,42.1845,0.0322066
450,69.4579,0.0511306
