facetNormals:0,facetNormals:1,facetNormals:2,FacetCenters:0,FacetCenters:1,FacetCenters:2,FacetIds,relFacetSize,absFacetSize,cellPairingIds,interplanarAngles,angleWeights
-0.0190175,-0.0353566,-0.966913,6.67364,7.71169,7.77335,1,0.0971984,0.0047993,8,34.5929,0.0301773
-0.00696549,0.520287,-0.816852,6.6748,7.75575,7.77455,2,0.0178614,0.000881929,13,33.6729,0.0990438
0.176176,-0.525387,-0.783764,6.69975,7.68317,7.78555,3,0.100961,0.00498506,19,45.1917,0.0323914
-0.718918,-0.0170205,-0.686469,6.63148,7.69265,7.7822,4,0.0194339,0.000959575,26,67.9253,0.00353703
0.891634,0.187654,-0.398463,6.70098,7.75131,7.77912,5,0.00180129,8.89412e-05,34,62.2002,0.0122447
0.479617,0.700179,-0.49324,6.68214,7.75222,7.77974,6,0.00653389,0.00032262,43,63.9955,0.0436688
-0.888363,0.0990711,-0.419433,6.617,7.71035,7.7999,7,0.0281602,0.00139045,53,69.9428,0.0337693
-0.432668,0.791991,-0.353093,6.64488,7.77255,7.80057,8,0.0204344,0.00100897,64,69.2728,0.0261809
-0.065297,-0.933634,-0.314293,6.6673,7.6292,7.81369,9,0.0151278,0.000746957,76,86.0712,0.0605495
-0.978336,0.103315,-0.0520936,6.61295,7.71858,7.82522,10,0.0439704,0.0021711,89,89.3584,0.00558407
-0.0762572,0.991906,-0.0459328,6.62759,7.77447,7.80561,11,0.00287461,0.000141938,103,90.9976,0.0945132
0.623394,-0.744747,0.0319046,6.72287,7.66015,7.82902,12,0.0919724,0.00454126,118,98.5248,0.100835
-0.732241,-0.615546,0.181363,6.63091,7.65754,7.84142,13,0.104754,0.00517235,134,119.772,0.0858303
-0.730128,0.420549,0.481199,6.62692,7.74194,7.84864,14,0.0768429,0.00379422,151,127.246,0.00932273
0.498765,0.636574,0.564245,6.66565,7.74076,7.8698,15,0.00489617,0.000241755,169,135.198,0.0845508
0.536269,-0.426587,0.70142,6.70912,7.67238,7.86572,16,0.0748156,0.00369412,188,151.588,0.0113227
-0.452326,0.106143,0.884647,6.67023,7.71679,7.87739,17,0.00601148,0.000296825,208,156.38,0.0550033
-0.1645,0.38079,0.888482,6.65375,7.71731,7.87555,18,0.0383535,0.00189376,229,151.217,0.0252373
0.354632,0.367918,0.848244,6.66077,7.69803,7.88127,19,0.0145013,0.000716019,251,161.469,0.0348434
-0.195438,-0.191705,0.939396,6.67809,7.70759,7.88202,20,0.0212263,0.00104808,274,162.544,0.0430502
0.302374,-0.0455123,0.934476,6.67974,7.68974,7.87942,21,0.0276479,0.00136515,18,66.8391,0.0303529
,,,,,,,,,25,54.6633,0.0186145
,,,,,,,,,33,64.3511,0.00327255
,,,,,,,,,42,36.5371,0.00956778
,,,,,,,,,52,65.2506,0.0218584
,,,,,,,,,63,41.4483,0.0190614
,,,,,,,,,75,103.83,0.0163813
,,,,,,,,,88,83.7954,0.0254035
,,,,,,,,,102,54.9347,0.00495221
,,,,,,,,,117,116.361,0.0299134
,,,,,,,,,133,119.428,0.030519
,,,,,,,,,150,100.371,0.0289854
,,,,,,,,,168,98.016,0.00768557
,,,,,,,,,187,147.239,0.028838
,,,,,,,,,207,133.344,0.00899543
,,,,,,,,,228,123.67,0.0243724
,,,,,,,,,250,121.698,0.0160069
,,,,,,,,,273,156,0.019399
,,,,,,,,,297,145.963,0.0217024
,,,,,,,,,32,63.8671,0.0325938
,,,,,,,,,41,67.1426,0.00353943
,,,,,,,,,51,83.711,0.0122735
,,,,,,,,,62,82.7152,0.0440374
,,,,,,,,,74,103.401,0.0339893
,,,,,,,,,87,40.0567,0.0263129
,,,,,,,,,101,101.332,0.0612605
,,,,,,,,,116,121.437,0.00559006
,,,,,,,,,132,59.3076,0.0962571
,,,,,,,,,149,86.795,0.102822
,,,,,,,,,167,141.286,0.087266
,,,,,,,,,186,136.697,0.00933942
,,,,,,,,,206,104.216,0.0859437
,,,,,,,,,227,149.783,0.0113473
,,,,,,,,,249,169.49,0.0555894
,,,,,,,,,272,146.83,0.02536
,,,,,,,,,296,135.507,0.0350777
,,,,,,,,,321,133.968,0.0434085
,,,,,,,,,50,112.019,0.00329699
,,,,,,,,,61,91.0645,0.00977973
,,,,,,,,,73,19.5734,0.0229971
,,,,,,,,,86,55.9128,0.0199216
,,,,,,,,,100,73.511,0.0170126
,,,,,,,,,115,41.1624,0.0269545
,,,,,,,,,131,85.9764,0.00500839
,,,,,,,,,148,118.259,0.0320876
,,,,,,,,,166,64.7829,0.0327854
,,,,,,,,,185,78.7971,0.0310222
,,,,,,,,,205,140.527,0.00782173
,,,,,,,,,226,151.877,0.0308534
,,,,,,,,,248,106.606,0.00918254
,,,,,,,,,271,120.73,0.0257966
,,,,,,,,,295,148.958,0.0166091
,,,,,,,,,320,121.006,0.0202906
,,,,,,,,,346,151.384,0.0228244
,,,,,,,,,72,39.2862,0.00282404
,,,,,,,,,85,128.136,0.00338599
,,,,,,,,,99,95.7447,0.00331074
,,,,,,,,,114,96.3262,0.00321926
,,,,,,,,,130,148.146,0.00346081
,,,,,,,,,147,82.0814,0.00221476
,,,,,,,,,165,65.3292,0.00353338
,,,,,,,,,184,150.252,0.00354168
,,,,,,,,,204,142.332,0.00352007
,,,,,,,,,225,69.7548,0.00263366
,,,,,,,,,247,83.0136,0.00351788
,,,,,,,,,270,137.777,0.00277198
,,,,,,,,,294,116.116,0.00344097
,,,,,,,,,319,87.25,0.00320453
,,,,,,,,,345,126.922,0.00332078
,,,,,,,,,372,96.5352,0.00338223
,,,,,,,,,98,98.8925,0.0106068
,,,,,,,,,113,56.7784,0.00990171
,,,,,,,,,129,123.154,0.00912611
,,,,,,,,,146,112.572,0.0113772
,,,,,,,,,164,45.8771,0.00399264
,,,,,,,,,183,104.461,0.012201
,,,,,,,,,203,155.785,0.0123006
,,,,,,,,,224,107.92,0.0120437
,,,,,,,,,246,65.1601,0.0055977
,,,,,,,,,269,113.736,0.0120182
,,,,,,,,,293,126.176,0.00626181
,,,,,,,,,318,105.086,0.0111656
,,,,,,,,,344,89.4513,0.0090087
,,,,,,,,,371,136.034,0.00999203
,,,,,,,,,399,111.12,0.0105699
,,,,,,,,,128,50.322,0.0236831
,,,,,,,,,145,84.2695,0.0196822
,,,,,,,,,163,22.1087,0.0343326
,,,,,,,,,182,79.1394,0.0052167
,,,,,,,,,202,131.915,0.0431184
,,,,,,,,,223,57.7182,0.0443879
,,,,,,,,,245,59.3475,0.0412162
,,,,,,,,,268,129.299,0.00834194
,,,,,,,,,292,147.092,0.0409188
,,,,,,,,,317,87.6012,0.00990789
,,,,,,,,,343,101.245,0.0324758
,,,,,,,,,370,130.45,0.0191441
,,,,,,,,,398,104.346,0.0242065
,,,,,,,,,427,133.24,0.0279017
,,,,,,,,,162,128.854,0.0173852
,,,,,,,,,181,56.7458,0.0279019
,,,,,,,,,201,30.12,0.00504019
,,,,,,,,,222,157.628,0.0334392
,,,,,,,,,244,104.405,0.0341977
,,,,,,,,,267,59.3711,0.0322837
,,,,,,,,,291,84.6482,0.00789956
,,,,,,,,,316,149.353,0.032101
,,,,,,,,,342,91.9287,0.00928999
,,,,,,,,,369,86.4378,0.026663
,,,,,,,,,397,99.6919,0.016964
,,,,,,,,,426,114.882,0.0208228
,,,,,,,,,456,121.428,0.0235
,,,,,,,,,200,90.9545,0.0225109
,,,,,,,,,221,157.24,0.00483119
,,,,,,,,,243,47.7877,0.0259821
,,,,,,,,,266,53.9632,0.0264377
,,,,,,,,,290,121.196,0.025279
,,,,,,,,,315,145.699,0.00739796
,,,,,,,,,341,81.5172,0.0251669
,,,,,,,,,368,110.631,0.00860394
,,,,,,,,,396,130.136,0.0216975
,,,,,,,,,425,130.369,0.0148079
,,,,,,,,,455,96.1506,0.0176655
,,,,,,,,,486,106.208,0.0195556
,,,,,,,,,242,79.4594,0.00539642
,,,,,,,,,265,135.988,0.0594965
,,,,,,,,,289,47.8779,0.061941
,,,,,,,,,314,39.9602,0.0559344
,,,,,,,,,340,117.701,0.0088112
,,,,,,,,,367,128.796,0.0553882
,,,,,,,,,395,65.5521,0.0105769
,,,,,,,,,424,80.827,0.0409703
,,,,,,,,,454,111.221,0.0218097
,,,,,,,,,485,82.7013,0.0286311
,,,,,,,,,517,111.132,0.0339491
,,,,,,,,,288,144.486,0.00557497
,,,,,,,,,313,125.499,0.00559567
,,,,,,,,,339,62.1974,0.0055419
,,,,,,,,,366,54.7005,0.00362244
,,,,,,,,,394,120.541,0.0055365
,,,,,,,,,423,84.2822,0.00388937
,,,,,,,,,453,69.032,0.00534836
,,,,,,,,,484,72.3552,0.00479809
,,,,,,,,,516,102.951,0.00506349
,,,,,,,,,549,96.5163,0.00520776
,,,,,,,,,338,89.5314,0.0979478
,,,,,,,,,365,142.998,0.0837297
,,,,,,,,,393,98.713,0.00929739
,,,,,,,,,422,44.9492,0.0825116
,,,,,,,,,452,110.044,0.0112853
,,,,,,,,,483,112.056,0.054133
,,,,,,,,,515,91.5404,0.0250525
,,,,,,,,,548,86.9309,0.0344921
,,,,,,,,,582,74.6944,0.0425153
,,,,,,,,,392,67.4013,0.0886533
,,,,,,,,,421,132.995,0.00935508
,,,,,,,,,451,90.173,0.087289
,,,,,,,,,482,64.011,0.0113705
,,,,,,,,,514,87.1662,0.0561491
,,,,,,,,,547,110.161,0.0254758
,,,,,,,,,581,63.0691,0.0352997
,,,,,,,,,616,91.4316,0.043749
,,,,,,,,,450,79.4575,0.00920578
,,,,,,,,,481,104.201,0.0758157
,,,,,,,,,513,34.3388,0.0111506
,,,,,,,,,546,41.9338,0.0511682
,,,,,,,,,580,71.5575,0.0243982
,,,,,,,,,615,57.2143,0.033264
,,,,,,,,,651,77.2991,0.0406647
,,,,,,,,,512,66.1037,0.00919086
,,,,,,,,,545,69.7449,0.00539681
,,,,,,,,,579,46.8172,0.00868378
,,,,,,,,,614,24.3399,0.00732062
,,,,,,,,,650,71.2253,0.00795695
,,,,,,,,,687,47.9715,0.00831911
,,,,,,,,,578,70.1532,0.0111288
,,,,,,,,,613,67.2036,0.0507107
,,,,,,,,,649,49.6893,0.0242937
,,,,,,,,,686,48.4911,0.0330701
,,,,,,,,,724,29.7549,0.0403753
,,,,,,,,,648,23.1613,0.0103938
,,,,,,,,,685,50.5277,0.00849951
,,,,,,,,,723,23.1363,0.00936945
,,,,,,,,,762,45.7895,0.0098757
,,,,,,,,,722,30.6433,0.0210454
,,,,,,,,,761,34.1727,0.0273281
,,,,,,,,,801,37.6636,0.0321325
,,,,,,,,,800,47.309,0.0172308
,,,,,,,,,841,24.9017,0.0190243
,,,,,,,,,882,30.6725,0.0240152
