facetNormals:0,facetNormals:1,facetNormals:2,FacetCenters:0,FacetCenters:1,FacetCenters:2,FacetIds,relFacetSize,absFacetSize,cellPairingIds,interplanarAngles,angleWeights
0.0637721,-0.100511,-0.968895,4.64398,6.08834,5.6904,1,0.0115254,0.00101947,8,34.0146,0.0120133
0.0691574,0.457968,-0.8551,4.63075,6.10962,5.67154,2,0.0125443,0.0011096,13,44.1234,0.0153582
0.706681,-0.0216497,-0.641875,4.66632,6.09114,5.67883,3,0.0230106,0.0020354,19,55.9554,0.00985617
-0.326223,0.660468,-0.640636,4.66581,6.13643,5.62467,4,0.0086093,0.000761534,26,60.552,0.00761745
0.0867548,0.811299,-0.572036,4.68362,6.1445,5.6251,5,0.00568861,0.000503185,34,71.4366,0.010945
0.332577,0.848196,-0.383107,4.73726,6.14377,5.61986,6,0.0104202,0.000921717,43,74.4348,0.00641754
0.771664,-0.614352,-0.155432,4.7105,6.06599,5.703,7,0.00444681,0.000393341,53,78.0285,0.013966
-0.371146,-0.875173,-0.134276,4.67955,6.10496,5.68466,8,0.017718,0.00156724,64,98.2853,0.0128379
-0.97923,-0.040716,0.0825679,4.62053,6.09255,5.65537,9,0.0144879,0.00128152,76,99.4865,0.0209468
0.778817,0.521618,0.154913,4.74986,6.1127,5.68024,10,0.11475,0.0101502,89,107.541,0.022099
-0.215563,0.912195,0.181057,4.70203,6.13659,5.67858,11,0.267617,0.0236721,103,104.222,0.0150691
0.392759,0.893383,0.178747,4.77302,6.14801,5.65708,12,0.0217597,0.00192475,118,103.438,0.0181035
-0.0835935,-0.916769,0.31761,4.67238,6.0474,5.7381,13,0.042175,0.00373058,134,110.921,0.015627
0.560573,-0.670996,0.462334,4.71802,6.06536,5.73353,14,0.0242612,0.00214602,151,124.599,0.0191138
-0.774561,-0.205659,0.515483,4.63447,6.07554,5.72053,15,0.0559556,0.00494954,169,135.514,0.0200901
0.622003,-0.00935464,0.732865,4.76766,6.09199,5.73008,16,0.0782072,0.0069178,188,153.208,0.0171559
-0.387655,0.369097,0.807455,4.69443,6.09508,5.7462,17,0.0335428,0.00296702,208,139.685,0.0178968
0.265915,-0.468951,0.820122,4.72424,6.06104,5.74384,18,0.0400214,0.00354008,18,50.7284,0.016237
,,,,,,,,,25,29.3249,0.0102108
,,,,,,,,,33,26.5711,0.00782756
,,,,,,,,,42,39.7427,0.011384
,,,,,,,,,52,95.619,0.00656603
,,,,,,,,,63,109.5,0.0146889
,,,,,,,,,75,99.4458,0.0134462
,,,,,,,,,88,80.01,0.0226162
,,,,,,,,,102,74.5045,0.0239652
,,,,,,,,,117,72.9152,0.0159142
,,,,,,,,,133,137.411,0.0193371
,,,,,,,,,150,133.647,0.0165377
,,,,,,,,,168,129.43,0.0204941
,,,,,,,,,187,128.971,0.0216207
,,,,,,,,,207,125.586,0.0182598
,,,,,,,,,228,160.139,0.0191014
,,,,,,,,,32,79.7195,0.0125304
,,,,,,,,,41,64.4155,0.00912209
,,,,,,,,,51,60.6514,0.0143446
,,,,,,,,,62,46.3312,0.00745327
,,,,,,,,,74,99.8699,0.0200205
,,,,,,,,,87,142.399,0.0177807
,,,,,,,,,101,61.0139,0.0383342
,,,,,,,,,116,108.436,0.0423775
,,,,,,,,,132,81.2894,0.0223677
,,,,,,,,,149,105.154,0.0297757
,,,,,,,,,167,83.0727,0.0236194
,,,,,,,,,186,163.801,0.0326108
,,,,,,,,,206,91.9133,0.0355589
,,,,,,,,,227,149.886,0.027296
,,,,,,,,,249,110.509,0.0292206
,,,,,,,,,50,26.0464,0.00685065
,,,,,,,,,61,43.736,0.00942858
,,,,,,,,,73,124.914,0.00586452
,,,,,,,,,86,113.313,0.0115879
,,,,,,,,,100,75.5463,0.0108005
,,,,,,,,,115,90.5436,0.0160169
,,,,,,,,,131,53.3125,0.0166819
,,,,,,,,,148,68.9806,0.0123373
,,,,,,,,,166,145.31,0.0142996
,,,,,,,,,185,162.77,0.0127088
,,,,,,,,,205,103.261,0.0149226
,,,,,,,,,226,136.311,0.0155111
,,,,,,,,,248,98.9447,0.0137018
,,,,,,,,,271,164.189,0.0141703
,,,,,,,,,72,18.0952,0.00735951
,,,,,,,,,85,110.138,0.00499164
,,,,,,,,,99,134.071,0.00861217
,,,,,,,,,114,99.705,0.0081695
,,,,,,,,,130,64.864,0.0108399
,,,,,,,,,147,49.5012,0.0111404
,,,,,,,,,165,48.3814,0.00901931
,,,,,,,,,184,163.982,0.010025
,,,,,,,,,204,140.475,0.00921626
,,,,,,,,,225,123.852,0.0103273
,,,,,,,,,247,112.907,0.0106058
,,,,,,,,,270,101.719,0.00972751
,,,,,,,,,294,147.687,0.00996133
,,,,,,,,,98,101.984,0.00623348
,,,,,,,,,113,149.115,0.0131227
,,,,,,,,,129,113.772,0.0121219
,,,,,,,,,146,46.8572,0.0191055
,,,,,,,,,164,47.8912,0.0200593
,,,,,,,,,183,33.264,0.014092
,,,,,,,,,203,164.415,0.0167115
,,,,,,,,,224,124.939,0.0145788
,,,,,,,,,246,131.948,0.0175687
,,,,,,,,,269,94.9414,0.0183901
,,,,,,,,,293,97.5137,0.0159008
,,,,,,,,,318,130.001,0.0165352
,,,,,,,,,128,73.5083,0.00710934
,,,,,,,,,145,139.201,0.00680495
,,,,,,,,,163,74.3164,0.00856182
,,,,,,,,,182,142.366,0.00874825
,,,,,,,,,202,106.029,0.00738451
,,,,,,,,,223,62.4769,0.00804534
,,,,,,,,,245,38.4964,0.00751601
,,,,,,,,,268,125.423,0.00823887
,,,,,,,,,292,67.2097,0.00841513
,,,,,,,,,317,132.33,0.00785259
,,,,,,,,,343,68.0812,0.00800425
,,,,,,,,,162,65.7395,0.015941
,,,,,,,,,181,147.161,0.0306963
,,,,,,,,,201,144.124,0.0332356
,,,,,,,,,222,177.546,0.019532
,,,,,,,,,244,32.2479,0.0249531
,,,,,,,,,267,70.4913,0.0204797
,,,,,,,,,291,64.1936,0.0269139
,,,,,,,,,316,110.359,0.0288908
,,,,,,,,,342,108.011,0.0231878
,,,,,,,,,369,77.6458,0.0245621
,,,,,,,,,200,145.607,0.0257275
,,,,,,,,,221,78.3942,0.0274877
,,,,,,,,,243,114.6,0.0173944
,,,,,,,,,266,81.2679,0.0215671
,,,,,,,,,290,119.799,0.018142
,,,,,,,,,315,30.2709,0.0230164
,,,,,,,,,341,125.437,0.024447
,,,,,,,,,368,63.0895,0.0202356
,,,,,,,,,396,100.359,0.0212744
,,,,,,,,,242,68.2573,0.160626
,,,,,,,,,265,31.9763,0.0365823
,,,,,,,,,289,122.28,0.0616802
,,,,,,,,,314,80.3076,0.0400539
,,,,,,,,,340,134.158,0.0752278
,,,,,,,,,367,49.5047,0.0930182
,,,,,,,,,395,89.0226,0.0519113
,,,,,,,,,424,84.4899,0.0593449
,,,,,,,,,288,36.3705,0.0402469
,,,,,,,,,313,144.916,0.0728666
,,,,,,,,,339,133.439,0.0444892
,,,,,,,,,366,85.4161,0.0925583
,,,,,,,,,394,90.6196,0.121042
,,,,,,,,,423,52.2299,0.0596137
,,,,,,,,,453,111.055,0.0696298
,,,,,,,,,338,145.379,0.0287079
,,,,,,,,,365,107.596,0.0229424
,,,,,,,,,393,114.751,0.0313342
,,,,,,,,,422,67.3724,0.0340465
,,,,,,,,,452,70.4378,0.0263959
,,,,,,,,,483,99.9302,0.0281915
,,,,,,,,,392,42.0569,0.030803
,,,,,,,,,421,63.2947,0.0480977
,,,,,,,,,451,78.3304,0.0547986
,,,,,,,,,482,93.0086,0.0373669
,,,,,,,,,514,45.6446,0.04107
,,,,,,,,,450,93.5208,0.033847
,,,,,,,,,481,43.1377,0.0370339
,,,,,,,,,513,95.4893,0.0281568
,,,,,,,,,546,29.7334,0.0302093
,,,,,,,,,512,96.3983,0.0652361
,,,,,,,,,545,46.0566,0.0419428
,,,,,,,,,579,70.4308,0.0466658
,,,,,,,,,578,68.111,0.0469492
,,,,,,,,,613,35.211,0.0529476
,,,,,,,,,648,66.0446,0.0364968
