"cellPairingIds","interplanarAngles","angleWeights"
26,86.291,0.0878803
34,73.1122,0.0970707
53,55.757,0.138304
64,66.3417,0.0461294
89,122.516,0.0580168
72,79.4224,0.0726912
85,43.8427,0.022262
99,91.6357,0.0935849
225,94.8458,0.0897201
164,59.4953,0.0509837
246,106.285,0.0993204
128,55.6643,0.0245274
268,95.4876,0.0242535
162,73.7035,0.0476542
267,81.8213,0.0493318
291,124.95,0.142917
221,83.5886,0.032268
266,49.9733,0.0227938
290,57.3026,0.028803
313,50.7425,0.0253615
366,56.2776,0.058813
392,31.1029,0.0231707
421,62.8661,0.0334625
450,62.6439,0.0482365
