"cellPairingIds","interplanarAngles","angleWeights"
8,43.2833,0.0431593
13,47.5389,0.0389612
19,35.5915,0.0227658
26,84.1631,0.0952185
43,69.0133,0.131351
25,26.7468,0.0177975
33,94.8513,0.0439288
42,59.121,0.0204294
52,58.2091,0.0503141
63,82.4783,0.0427673
41,58.5675,0.0395872
62,106.245,0.0446993
87,66.505,0.028383
116,79.2688,0.0139386
73,38.1808,0.0246119
99,79.0786,0.0933314
130,68.3579,0.0259171
147,80.9788,0.0176744
98,79.6323,0.029947
113,27.7,0.0271006
183,94.4363,0.0271716
145,78.3704,0.0582105
202,75.9551,0.12938
181,57.6001,0.0255084
222,90.2083,0.088997
221,51.0619,0.0150261
243,62.6126,0.0485677
242,51.0695,0.0117554
265,67.3725,0.0255712
288,59.1622,0.0175129
