facetNormals:0,facetNormals:1,facetNormals:2,FacetCenters:0,FacetCenters:1,FacetCenters:2,FacetIds,relFacetSize,absFacetSize,cellPairingIds,interplanarAngles,angleWeights
0.227154,0.14997,-0.934509,4.48476,5.40018,6.78997,1,0.0822506,0.00784061,8,44.022,0.0875121
-0.488822,0.205936,-0.812482,4.40007,5.39652,6.79852,2,0.0934929,0.00891229,13,62.5884,0.0289254
-0.412859,0.775027,-0.448876,4.4579,5.43036,6.84916,3,0.0175484,0.00167282,19,88.2993,0.0791394
-0.53039,-0.769862,-0.282661,4.39367,5.32709,6.84539,4,0.0762551,0.00726909,26,88.443,0.0438098
-0.912842,0.321391,-0.198266,4.37321,5.40909,6.85553,5,0.0298561,0.00284606,34,76.4815,0.0430994
0.0975266,0.978148,-0.059086,4.42597,5.45429,6.84558,6,0.0292001,0.00278353,43,113.47,0.0522686
0.350352,-0.759272,0.337349,4.46991,5.33589,6.92549,7,0.0383055,0.0036515,53,122.795,0.0918404
-0.896372,-0.15666,0.296961,4.37429,5.35467,6.90256,8,0.103962,0.00991023,64,93.2548,0.112007
0.375052,0.836237,0.282071,4.49971,5.43251,6.88222,9,0.175501,0.0167298,76,133.423,0.0125312
-0.731411,0.332244,0.588481,4.3767,5.40017,6.91175,10,0.00678226,0.000646525,89,137.488,0.0801813
-0.310945,0.535527,0.76753,4.43015,5.39136,6.94518,11,0.0782137,0.00745579,18,40.6402,0.0295503
,,,,,,,,,25,69.5968,0.0839987
,,,,,,,,,33,45.3616,0.0452592
,,,,,,,,,42,77.8096,0.0445014
,,,,,,,,,52,133.451,0.054345
,,,,,,,,,63,79.79,0.0984497
,,,,,,,,,75,104.967,0.121996
,,,,,,,,,88,93.0956,0.0126471
,,,,,,,,,102,112.185,0.0851735
,,,,,,,,,32,105.093,0.028531
,,,,,,,,,41,42.789,0.0221045
,,,,,,,,,51,39.9658,0.0219222
,,,,,,,,,62,174.091,0.0240699
,,,,,,,,,74,82.9806,0.0300281
,,,,,,,,,87,67.1884,0.0319064
,,,,,,,,,101,72.5004,0.00978335
,,,,,,,,,116,78.1996,0.0286653
,,,,,,,,,50,72.335,0.0429113
,,,,,,,,,61,145.021,0.0422294
,,,,,,,,,73,69.8509,0.0509946
,,,,,,,,,86,56.7856,0.0879785
,,,,,,,,,100,170.042,0.106316
,,,,,,,,,115,92.0145,0.0124566
,,,,,,,,,131,118.82,0.077222
,,,,,,,,,72,75.8962,0.0295245
,,,,,,,,,85,135.079,0.0335571
,,,,,,,,,99,41.4245,0.0463898
,,,,,,,,,114,97.8591,0.0510309
,,,,,,,,,130,48.0378,0.0110535
,,,,,,,,,147,71.8312,0.0432157
,,,,,,,,,98,145.121,0.0331387
,,,,,,,,,113,105.898,0.045594
,,,,,,,,,129,27.4661,0.0500696
,,,,,,,,,146,77.103,0.0110078
,,,,,,,,,164,62.5193,0.0425243
,,,,,,,,,128,96.3139,0.0559834
,,,,,,,,,145,118.184,0.0628853
,,,,,,,,,163,110.196,0.0115241
,,,,,,,,,182,106.774,0.0514252
,,,,,,,,,162,114.692,0.130575
,,,,,,,,,181,35.2594,0.0127338
,,,,,,,,,201,63.3946,0.0892681
,,,,,,,,,200,79.7749,0.0130598
,,,,,,,,,221,54.6081,0.108205
,,,,,,,,,242,29.2288,0.0124821
