facetNormals:0,facetNormals:1,facetNormals:2,FacetCenters:0,FacetCenters:1,FacetCenters:2,FacetIds,relFacetSize,absFacetSize,cellPairingIds,interplanarAngles,angleWeights
-0.255412,0.0190419,-0.930558,7.15219,5.33869,6.7507,1,0.0364414,0.00519836,8,35.0343,0.0242041
-0.411978,0.536778,-0.707109,7.13128,5.36473,6.75101,2,0.0181194,0.00258473,13,43.7605,0.0566836
-0.206115,-0.622702,-0.645594,7.14034,5.27443,6.76446,3,0.127514,0.0181899,19,65.5686,0.0293494
0.71963,-0.251152,-0.625686,7.22256,5.28229,6.75632,4,0.0245681,0.00350463,26,58.7134,0.0576901
0.406706,0.613927,-0.616306,7.15102,5.36289,6.75548,5,0.138376,0.0197392,34,88.3171,0.0346306
0.9235,0.170952,-0.279828,7.2478,5.33723,6.79778,6,0.0329912,0.00470618,43,80.8272,0.0457708
0.169759,-0.920964,-0.224671,7.15991,5.2769,6.78434,7,0.0615206,0.0087759,53,87.7619,0.0503145
0.0796278,0.947521,-0.0410159,7.15116,5.40345,6.84794,8,0.0812437,0.0115894,64,85.359,0.0503667
-0.513396,0.816644,0.0764197,7.07712,5.38999,6.81572,9,0.0815161,0.0116283,76,112.403,0.0102955
0.855278,-0.481332,0.147715,7.24132,5.29202,6.82473,10,0.00599451,0.000855116,89,118.199,0.0333665
0.95133,-0.0153515,0.216852,7.24759,5.32632,6.83638,11,0.03077,0.00438934,103,82.0453,0.034172
-0.818965,-0.51653,0.0748197,7.06313,5.31771,6.79697,12,0.0321686,0.00458885,118,106.317,0.0373916
-0.385449,-0.815263,0.37354,7.10136,5.34426,6.81373,13,0.0383925,0.00547669,134,99.0831,0.0366878
-0.875764,0.0260002,0.398505,7.06276,5.35757,6.82129,14,0.0369376,0.00526914,18,76.7032,0.0317301
,,,,,,,,,25,89.3384,0.0208567
,,,,,,,,,33,50.5019,0.032043
,,,,,,,,,42,95.4341,0.0233917
,,,,,,,,,52,115.476,0.0279939
,,,,,,,,,63,57.1841,0.0296305
,,,,,,,,,75,51.0123,0.0296485
,,,,,,,,,88,137.415,0.00900866
,,,,,,,,,102,125.418,0.022808
,,,,,,,,,117,89.5643,0.0231815
,,,,,,,,,133,124.636,0.0246196
,,,,,,,,,150,84.3364,0.0243125
,,,,,,,,,32,63.0015,0.0411985
,,,,,,,,,41,94.4283,0.132723
,,,,,,,,,51,97.3987,0.05242
,,,,,,,,,62,39.5385,0.082998
,,,,,,,,,74,131.46,0.0992511
,,,,,,,,,87,120.504,0.0994542
,,,,,,,,,101,88.2386,0.0114507
,,,,,,,,,116,111.319,0.0495768
,,,,,,,,,132,60.3508,0.0513763
,,,,,,,,,149,67.3496,0.0590162
,,,,,,,,,167,96.0233,0.0572821
,,,,,,,,,50,56.3952,0.0417276
,,,,,,,,,61,34.4682,0.0281633
,,,,,,,,,73,58.6533,0.0351136
,,,,,,,,,86,99.5064,0.0377274
,,,,,,,,,100,130.711,0.0377567
,,,,,,,,,115,48.855,0.00963751
,,,,,,,,,131,54.9401,0.0273215
,,,,,,,,,148,121.927,0.0278593
,,,,,,,,,166,108.558,0.0299626
,,,,,,,,,185,158.997,0.029509
,,,,,,,,,72,46.0607,0.0532795
,,,,,,,,,85,112.768,0.0851737
,,,,,,,,,99,45.6073,0.102378
,,,,,,,,,114,74.6829,0.102595
,,,,,,,,,130,92.3268,0.0114912
,,,,,,,,,147,74.9176,0.050345
,,,,,,,,,165,138.301,0.0522017
,,,,,,,,,184,161.232,0.060108
,,,,,,,,,204,129.331,0.0583101
,,,,,,,,,98,86.2211,0.0429499
,,,,,,,,,113,74.644,0.0469266
,,,,,,,,,129,112.044,0.0469719
,,,,,,,,,146,46.7652,0.0101456
,,,,,,,,,164,31.5177,0.0318419
,,,,,,,,,183,155.433,0.0325747
,,,,,,,,,203,128.837,0.0354875
,,,,,,,,,224,166.15,0.034853
,,,,,,,,,128,158.01,0.0700198
,,,,,,,,,145,156.783,0.0701208
,,,,,,,,,163,54.4811,0.0109246
,,,,,,,,,182,82.2388,0.0410224
,,,,,,,,,202,70.0005,0.0422468
,,,,,,,,,223,50.2199,0.0472797
,,,,,,,,,245,106.428,0.0461602
,,,,,,,,,162,37.5881,0.0813797
,,,,,,,,,181,114.654,0.0111652
,,,,,,,,,201,86.7711,0.0446351
,,,,,,,,,222,127.114,0.0460884
,,,,,,,,,244,151.77,0.0521439
,,,,,,,,,267,93.8459,0.0507855
,,,,,,,,,200,148.735,0.0111678
,,,,,,,,,221,120.861,0.0446761
,,,,,,,,,243,89.7347,0.0461322
,,,,,,,,,266,117.721,0.0521999
,,,,,,,,,290,57.4361,0.0508386
,,,,,,,,,242,28.2594,0.0100342
,,,,,,,,,265,117.214,0.0101058
,,,,,,,,,289,83.0081,0.0103699
,,,,,,,,,314,137.355,0.010315
,,,,,,,,,288,142.809,0.0314538
,,,,,,,,,313,106.666,0.0341612
,,,,,,,,,339,142.695,0.0335729
,,,,,,,,,338,36.2213,0.0350061
,,,,,,,,,365,38.2954,0.0343886
,,,,,,,,,392,60.3186,0.037651
