"cellPairingIds","interplanarAngles","angleWeights"
18,81.8621,0.0302842
25,50.6946,0.0289167
42,101.29,0.0770642
63,96.2153,0.0679274
88,109.416,0.0823538
32,78.5411,0.0179968
51,91.8795,0.0294468
62,95.8505,0.0301673
101,152.57,0.0301877
116,132.393,0.0288371
86,90.6097,0.0268337
131,126.296,0.0275945
146,61.8313,0.076442
163,59.1255,0.0814948
182,50.6296,0.0723477
181,39.4919,0.0674435
201,50.6554,0.0610551
242,40.8767,0.072465
