facetNormals:0,facetNormals:1,facetNormals:2,FacetCenters:0,FacetCenters:1,FacetCenters:2,FacetIds,relFacetSize,absFacetSize,cellPairingIds,interplanarAngles,angleWeights
0.0588207,-0.358968,-0.902676,3.93169,7.6623,5.90435,1,0.0172501,0.00574898,8,40.3165,0.023868
-0.340886,0.169175,-0.870458,3.93396,7.71149,5.87945,2,0.0387242,0.0129057,13,59.945,0.0221356
0.206896,0.577101,-0.731289,4.02793,7.72411,5.88193,3,0.0308817,0.010292,19,54.7499,0.0233721
-0.728027,-0.40141,-0.487498,3.85598,7.63682,5.94126,4,0.03623,0.0120744,26,81.2189,0.0292008
0.894269,-0.0545372,-0.0679228,4.08405,7.66514,5.98955,5,0.0950511,0.0316778,34,60.2478,0.0275912
-0.279503,-0.894272,-0.172276,3.88893,7.54095,6.01531,6,0.0688883,0.0229585,43,55.6554,0.0266671
0.460404,-0.804759,-0.231179,4.018,7.54861,6.05358,7,0.0587263,0.0195718,53,111.768,0.0276
-0.0267712,0.969367,0.000500578,3.97567,7.74019,5.95528,8,0.0689974,0.0229949,64,132.636,0.0300935
-0.563191,0.665024,0.398665,3.88423,7.67357,6.03391,9,0.1178,0.0392593,76,133.44,0.0227006
0.662905,0.303805,0.643203,4.03598,7.68731,6.05036,10,0.0331864,0.0110601,89,146.038,0.0215096
0.340606,0.665719,0.634322,4.00939,7.68844,6.04722,11,0.0285622,0.00951897,103,123.704,0.0198
-0.464383,-0.446913,0.730094,3.89108,7.54732,6.092,12,0.0232343,0.00774333,118,120.397,0.0226648
0.0347471,-0.580722,0.75176,3.9756,7.544,6.09885,13,0.0330337,0.0110092,134,179.472,0.0274132
-0.0509321,0.355591,0.90548,3.97645,7.63607,6.10611,14,0.0667239,0.0222372,18,42.9409,0.0343611
,,,,,,,,,25,48.6721,0.0374356
,,,,,,,,,33,107.378,0.0550293
,,,,,,,,,42,84.0414,0.0495787
,,,,,,,,,52,95.8078,0.0466725
,,,,,,,,,63,79.1965,0.049607
,,,,,,,,,75,92.6777,0.0582876
,,,,,,,,,88,142.664,0.0357421
,,,,,,,,,102,126.616,0.0328759
,,,,,,,,,117,126.693,0.029043
,,,,,,,,,133,147.836,0.0356533
,,,,,,,,,150,140.168,0.0490067
,,,,,,,,,32,91.6062,0.0333427
,,,,,,,,,41,76.2897,0.0466175
,,,,,,,,,51,119.52,0.0426458
,,,,,,,,,62,102.677,0.0404778
,,,,,,,,,74,53.2629,0.0426667
,,,,,,,,,87,91.5211,0.0489349
,,,,,,,,,101,99.7972,0.0319926
,,,,,,,,,116,90.5643,0.0296767
,,,,,,,,,132,162.827,0.0265177
,,,,,,,,,149,165.372,0.0319214
,,,,,,,,,167,120.192,0.0422219
,,,,,,,,,50,133.498,0.052463
,,,,,,,,,61,45.2429,0.047486
,,,,,,,,,73,83.7315,0.0448133
,,,,,,,,,86,113.313,0.0475119
,,,,,,,,,100,93.1827,0.0554164
,,,,,,,,,115,168.452,0.0346415
,,,,,,,,,131,150.735,0.0319424
,,,,,,,,,148,80.0881,0.0283121
,,,,,,,,,166,99.974,0.0345581
,,,,,,,,,185,125.643,0.046961
,,,,,,,,,72,102.789,0.0798821
,,,,,,,,,85,56.7039,0.0725984
,,,,,,,,,99,95.0595,0.0799554
,,,,,,,,,114,131.185,0.10521
,,,,,,,,,130,52.441,0.0491962
,,,,,,,,,147,75.1907,0.0439252
,,,,,,,,,165,120.226,0.037341
,,,,,,,,,184,89.2163,0.0490283
,,,,,,,,,204,98.3062,0.0784074
,,,,,,,,,98,46.1329,0.0634027
,,,,,,,,,113,158.492,0.0689428
,,,,,,,,,129,123.658,0.0869368
,,,,,,,,,146,127.804,0.0447937
,,,,,,,,,164,148.892,0.0403816
,,,,,,,,,183,64.2071,0.0347488
,,,,,,,,,203,65.1815,0.0446544
,,,,,,,,,224,119.698,0.0677888
,,,,,,,,,128,148.794,0.0634489
,,,,,,,,,145,165.525,0.0783788
,,,,,,,,,163,95.4336,0.0424079
,,,,,,,,,182,124.119,0.0384324
,,,,,,,,,202,91.4119,0.0332956
,,,,,,,,,223,70.0746,0.042283
,,,,,,,,,245,123.884,0.0624702
,,,,,,,,,162,44.7551,0.0870236
,,,,,,,,,181,72.9116,0.0448168
,,,,,,,,,201,47.9806,0.0404003
,,,,,,,,,222,116.435,0.0347626
,,,,,,,,,244,127.683,0.0446773
,,,,,,,,,267,68.4805,0.0678416
,,,,,,,,,200,84.7589,0.0517842
,,,,,,,,,221,57.582,0.0459767
,,,,,,,,,243,74.1184,0.0388133
,,,,,,,,,266,96.6862,0.0515981
,,,,,,,,,290,47.8767,0.085193
,,,,,,,,,242,28.7372,0.0307012
,,,,,,,,,265,88.4277,0.0273326
,,,,,,,,,289,69.0724,0.0331098
,,,,,,,,,314,46.1092,0.0443262
,,,,,,,,,288,89.5545,0.0256243
,,,,,,,,,313,83.7118,0.0306357
,,,,,,,,,339,33.8038,0.0400013
,,,,,,,,,338,31.1506,0.0272807
,,,,,,,,,365,56.3398,0.0344668
,,,,,,,,,392,59.323,0.0441898
