facetNormals:0,facetNormals:1,facetNormals:2,FacetCenters:0,FacetCenters:1,FacetCenters:2,FacetIds,relFacetSize,absFacetSize,cellPairingIds,interplanarAngles,angleWeights
-0.699713,-0.275221,-0.616782,3.17798,7.26983,5.33318,1,0.0537467,0.0152564,8,49.4053,0.0606262
-0.699494,0.512921,-0.427478,3.16089,7.34224,5.37009,2,0.0695253,0.0197353,13,112.595,0.0250894
0.488418,0.790379,-0.312848,3.27489,7.38339,5.37639,3,0.0163642,0.0046451,19,39.525,0.0636437
-0.42301,-0.802877,-0.340839,3.17892,7.15963,5.44667,4,0.0780083,0.0221433,26,121.894,0.0236587
0.849164,0.376958,-0.314445,3.26147,7.38477,5.35047,5,0.0151677,0.00430547,34,37.4793,0.0494207
-0.966137,-0.0466883,-0.0998562,3.14332,7.27547,5.42291,6,0.0457393,0.0129835,43,131.884,0.0263588
0.987115,-0.0779595,-0.0417842,3.27711,7.19286,5.54278,7,0.0174611,0.00495647,53,161.771,0.0458191
0.84674,0.31971,0.350066,3.31341,7.28912,5.51816,8,0.0399296,0.0113343,64,57.1844,0.0532744
-0.735174,-0.590093,0.261405,3.15111,7.15773,5.54667,9,0.0528104,0.0149907,76,148.828,0.0492347
0.502903,0.720329,0.42414,3.27598,7.35046,5.47513,10,0.0454217,0.0128933,89,114.502,0.0852565
-0.270725,0.60971,0.639219,3.20862,7.30042,5.51707,11,0.206066,0.0584934,103,153.981,0.0175198
0.446192,0.0322971,0.88692,3.31096,7.2771,5.52624,12,0.0104657,0.00297077,18,77.9762,0.0264927
,,,,,,,,,25,88.1794,0.0735229
,,,,,,,,,33,106.3,0.0249026
,,,,,,,,,42,42.3861,0.0551781
,,,,,,,,,52,138.035,0.0279121
,,,,,,,,,63,128.016,0.0507263
,,,,,,,,,75,83.9422,0.0600259
,,,,,,,,,88,99.9879,0.0549463
,,,,,,,,,102,75.1586,0.103971
,,,,,,,,,117,134.617,0.0181928
,,,,,,,,,32,140.617,0.0270533
,,,,,,,,,41,32.4928,0.0157432
,,,,,,,,,51,120.061,0.0241045
,,,,,,,,,62,63.4969,0.0168948
,,,,,,,,,74,54.1835,0.0232145
,,,,,,,,,87,161.079,0.024986
,,,,,,,,,101,44.4896,0.0240601
,,,,,,,,,116,80.4873,0.0303205
,,,,,,,,,132,92.0017,0.0127665
,,,,,,,,,50,125.688,0.0253972
,,,,,,,,,61,59.3745,0.0576665
,,,,,,,,,73,110.772,0.028535
,,,,,,,,,86,141.301,0.0528217
,,,,,,,,,100,42.8141,0.0629825
,,,,,,,,,115,171.64,0.0574134
,,,,,,,,,131,131.449,0.113174
,,,,,,,,,148,122.47,0.0184554
,,,,,,,,,72,147.747,0.0227809
,,,,,,,,,85,32.266,0.0162338
,,,,,,,,,99,39.9707,0.0219844
,,,,,,,,,114,165.488,0.0235668
,,,,,,,,,130,53.7933,0.0227413
,,,,,,,,,147,102.818,0.0282556
,,,,,,,,,165,83.3887,0.0123854
,,,,,,,,,98,168.957,0.0252738
,,,,,,,,,113,156.894,0.0426375
,,,,,,,,,129,41.5672,0.0490211
,,,,,,,,,146,126.32,0.0455799
,,,,,,,,,164,79.1407,0.0748619
,,,,,,,,,183,122.652,0.0170338
,,,,,,,,,128,34.1126,0.0242971
,,,,,,,,,145,135.424,0.0262447
,,,,,,,,,163,64.0848,0.0252251
,,,,,,,,,182,111.896,0.0321942
,,,,,,,,,202,65.972,0.0130872
,,,,,,,,,162,139.293,0.0454755
,,,,,,,,,181,31.7983,0.0424989
,,,,,,,,,201,77.8006,0.0668966
,,,,,,,,,222,43.5546,0.0165845
,,,,,,,,,200,135.777,0.0488381
,,,,,,,,,221,89.5981,0.0840742
,,,,,,,,,243,96.8107,0.0174694
,,,,,,,,,242,50.4302,0.0744359
,,,,,,,,,265,49.9278,0.0170117
,,,,,,,,,288,59.4986,0.0199197
