Q	U	V
{$V$}	{[mm$^3$]}	0.00462035
{$d_v$}	{[mm]}	0.206645
{$S_c$}	{[mm$^2$]}	0.236488
{$S_o$}	{[mm$^2$]}	0.138194
{$S_l/S_o$}	[]	0.711275
{$\Psi$}	[]	0.567272
{$\eta$}	[]	0.642472
{med($\theta_e$)}	{[$^\circ$]}	64.9918
{$\Upsilon$}	[]	10
{$\Xi$}	[]	11
