Q	U	V
{$V$}	{[mm$^3$]}	0.00274894
{$d_v$}	{[mm]}	0.173802
{$S_c$}	{[mm$^2$]}	0.137556
{$S_o$}	{[mm$^2$]}	0.0867567
{$S_l/S_o$}	[]	0.585537
{$\Psi$}	[]	0.689893
{$\eta$}	[]	0.713524
{med($\theta_e$)}	{[$^\circ$]}	56.8671
{$\Upsilon$}	[]	15
{$\Xi$}	[]	13
