Q	U	V
{$V$}	{[mm$^3$]}	0.0054575
{$d_v$}	{[mm]}	0.218440
{$S_c$}	{[mm$^2$]}	0.199223
{$S_o$}	{[mm$^2$]}	0.146115
{$S_l/S_o$}	[]	0.363467
{$\Psi$}	[]	0.752443
{$\eta$}	[]	0.759506
{med($\theta_e$)}	{[$^\circ$]}	57.7778
{$\Upsilon$}	[]	15
{$\Xi$}	[]	11
