facetNormals:0,facetNormals:1,facetNormals:2,FacetCenters:0,FacetCenters:1,FacetCenters:2,FacetIds,relFacetSize,absFacetSize,cellPairingIds,interplanarAngles,angleWeights
-0.0116582,-0.524462,-0.820524,7.47867,3.85143,8.17002,1,0.0399206,0.00709264,8,43.6807,0.0534915
-0.537317,-0.0358655,-0.790404,7.4269,3.91233,8.16433,2,0.0810414,0.0143985,13,36.9835,0.048891
-0.119578,-0.866301,-0.331184,7.46666,3.81408,8.24804,3,0.0630614,0.011204,19,66.4162,0.0635573
0.859141,-0.0641032,-0.428066,7.52651,3.88823,8.24065,4,0.155814,0.0276832,26,89.9274,0.0360878
0.383572,0.748485,-0.485327,7.49584,3.99274,8.17585,5,0.0329265,0.00585002,34,109.212,0.0127928
-0.311072,0.917031,-0.195866,7.45339,4.01078,8.19205,6,0.0076168,0.00135327,43,110.405,0.022188
-0.706402,0.672262,-0.0160612,7.40994,3.96466,8.21115,7,0.0153635,0.00272962,53,128.01,0.059791
0.541965,0.750692,0.205696,7.5217,3.96633,8.30574,8,0.119046,0.0211507,64,88.9501,0.0435877
0.793876,-0.468035,0.267011,7.52211,3.8469,8.36278,9,0.0479968,0.00852753,76,77.3549,0.0464587
-0.0102759,-0.903728,0.327977,7.48132,3.80957,8.31482,10,0.055558,0.00987092,89,104.92,0.05454
-0.890215,-0.037839,0.326871,7.42196,3.90086,8.22824,11,0.0860539,0.0152891,103,117.314,0.0257216
-0.173475,-0.469657,0.831082,7.51611,3.85563,8.30132,12,0.0189732,0.00337095,118,133.482,0.0314509
0.373862,-0.151244,0.887692,7.55332,3.8808,8.3288,13,0.025946,0.0046098,134,158.916,0.0344485
-0.132168,0.218317,0.925018,7.53964,3.97046,8.22438,14,0.0302958,0.00538262,18,66.4678,0.0709297
,,,,,,,,,25,97.556,0.106625
,,,,,,,,,33,80.6639,0.0468274
,,,,,,,,,42,72.1864,0.0139248
,,,,,,,,,52,66.7545,0.0258303
,,,,,,,,,63,122.001,0.0964343
,,,,,,,,,75,132.573,0.060288
,,,,,,,,,88,103.926,0.0659226
,,,,,,,,,102,75.8876,0.0834725
,,,,,,,,,117,126.107,0.0307478
,,,,,,,,,133,164.157,0.0393075
,,,,,,,,,150,136.703,0.0441041
,,,,,,,,,32,83.9659,0.0897848
,,,,,,,,,41,125.986,0.0432636
,,,,,,,,,51,138.539,0.0135919
,,,,,,,,,62,122.691,0.0247076
,,,,,,,,,74,152.02,0.0824481
,,,,,,,,,87,75.6681,0.0545073
,,,,,,,,,101,41.2941,0.0590724
,,,,,,,,,116,87.9999,0.072785
,,,,,,,,,132,80.3322,0.02917
,,,,,,,,,149,103.166,0.0367653
,,,,,,,,,167,122.314,0.0409287
,,,,,,,,,50,58.4119,0.0543647
,,,,,,,,,61,104.763,0.0145236
,,,,,,,,,73,133.271,0.0279693
,,,,,,,,,86,68.8341,0.13497
,,,,,,,,,100,49.6389,0.0733873
,,,,,,,,,115,95.6644,0.0819097
,,,,,,,,,131,171.213,0.110874
,,,,,,,,,148,120.568,0.0338273
,,,,,,,,,166,93.0003,0.0444845
,,,,,,,,,185,124.549,0.0507282
,,,,,,,,,72,46.3553,0.0123717
,,,,,,,,,85,75.3189,0.0209512
,,,,,,,,,99,43.3301,0.0515853
,,,,,,,,,114,100.851,0.0390584
,,,,,,,,,130,154.06,0.0413481
,,,,,,,,,147,124.986,0.047629
,,,,,,,,,165,150.677,0.0240742
,,,,,,,,,184,115.034,0.0290224
,,,,,,,,,204,111.152,0.0315564
,,,,,,,,,98,29.411,0.0101844
,,,,,,,,,113,59.2198,0.0143175
,,,,,,,,,129,140.217,0.0131472
,,,,,,,,,146,159.51,0.0133969
,,,,,,,,,164,79.0446,0.0139949
,,,,,,,,,183,124.252,0.0108699
,,,,,,,,,203,116.437,0.0117765
,,,,,,,,,224,86.363,0.0121731
,,,,,,,,,128,82.6391,0.0272149
,,,,,,,,,145,160.07,0.0232764
,,,,,,,,,163,130.224,0.0240708
,,,,,,,,,182,49.743,0.0260723
,,,,,,,,,202,102.607,0.0169786
,,,,,,,,,223,113.556,0.0192993
,,,,,,,,,245,76.0716,0.020388
,,,,,,,,,162,81.5435,0.0684114
,,,,,,,,,181,132.539,0.0757594
,,,,,,,,,201,119.527,0.0998963
,,,,,,,,,222,107.429,0.03273
,,,,,,,,,244,72.9155,0.0426061
,,,,,,,,,267,71.9147,0.0482998
,,,,,,,,,200,57.0025,0.0515013
,,,,,,,,,221,131.36,0.0616231
,,,,,,,,,243,70.9396,0.0271958
,,,,,,,,,266,49.7368,0.0336835
,,,,,,,,,290,87.5171,0.0371453
,,,,,,,,,242,80.5036,0.0675223
,,,,,,,,,265,41.4869,0.0282865
,,,,,,,,,289,63.1097,0.0353727
,,,,,,,,,314,83.3123,0.0392102
,,,,,,,,,288,61.183,0.0310913
,,,,,,,,,313,92.2875,0.0398707
,,,,,,,,,339,63.1199,0.0448144
,,,,,,,,,338,38.1505,0.0219184
,,,,,,,,,365,42.25,0.0233335
,,,,,,,,,392,37.8567,0.0279527
