facetNormals:0,facetNormals:1,facetNormals:2,FacetCenters:0,FacetCenters:1,FacetCenters:2,FacetIds,relFacetSize,absFacetSize,cellPairingIds,interplanarAngles,angleWeights
0.114648,-0.179728,-0.893351,4.20521,6.1871,7.82289,1,0.178465,0.029451,8,32.2605,0.0885945
-0.412403,-0.216689,-0.858492,4.13971,6.16117,7.81951,2,0.0589226,0.00972363,13,54.3554,0.106575
0.315252,0.632486,-0.670376,4.2252,6.2915,7.81022,3,0.0759718,0.0125372,19,72.0855,0.104585
-0.835785,0.172219,-0.446468,4.09905,6.21488,7.83345,4,0.0739653,0.012206,26,50.7587,0.0971144
0.773752,-0.366417,-0.458621,4.26619,6.20042,7.82654,5,0.0667071,0.0110083,34,61.8127,0.12121
0.13413,-0.912423,-0.265225,4.15575,6.12476,7.84831,6,0.0917688,0.015144,43,85.5351,0.0677098
-0.50073,0.765639,-0.295233,4.14993,6.28355,7.83005,7,0.0417807,0.00689482,53,77.592,0.0455216
0.713808,-0.681268,0.0106788,4.26069,6.16609,7.86787,8,0.026088,0.00430514,64,98.219,0.126104
0.650067,0.697959,0.0837272,4.26968,6.28834,7.89073,9,0.0974987,0.0160896,76,94.4648,0.0321172
-0.65139,-0.715319,0.138532,4.19358,6.21629,7.92184,10,0.0176464,0.00291209,89,99.1335,0.0184057
0.150797,-0.904213,0.362114,4.16636,6.12282,7.90349,11,0.00970323,0.00160127,103,101.143,0.0419505
0.834312,-0.359157,0.374537,4.27432,6.22554,7.89407,12,0.0237689,0.00392243,118,131.499,0.0637848
-0.771239,-0.0187421,0.550344,4.07584,6.16636,7.90226,13,0.0388318,0.00640818,18,71.0832,0.0663697
,,,,,,,,,25,42.7606,0.0655925
,,,,,,,,,33,80.656,0.0625736
,,,,,,,,,42,66.7436,0.0717659
,,,,,,,,,52,71.7495,0.0488927
,,,,,,,,,63,99.3096,0.0361642
,,,,,,,,,75,121.685,0.0734539
,,,,,,,,,88,71.3857,0.0271591
,,,,,,,,,102,100.602,0.0166625
,,,,,,,,,117,127.769,0.0338735
,,,,,,,,,133,99.3477,0.0468127
,,,,,,,,,32,81.1243,0.0749551
,,,,,,,,,41,70.2542,0.0710386
,,,,,,,,,51,112.454,0.0831264
,,,,,,,,,62,55.9484,0.0539123
,,,,,,,,,74,102.804,0.038839
,,,,,,,,,87,50.7369,0.0853995
,,,,,,,,,101,142.045,0.0286404
,,,,,,,,,116,143.036,0.0172086
,,,,,,,,,132,102.996,0.0362092
,,,,,,,,,149,132.525,0.0513943
,,,,,,,,,50,122.679,0.0701489
,,,,,,,,,61,99.3926,0.0819108
,,,,,,,,,73,42.5373,0.0533983
,,,,,,,,,86,139.132,0.0385716
,,,,,,,,,100,119.96,0.084117
,,,,,,,,,115,67.5541,0.0284947
,,,,,,,,,131,117.849,0.0171558
,,,,,,,,,148,168.237,0.0359766
,,,,,,,,,166,64.3094,0.050927
,,,,,,,,,72,53.088,0.0772563
,,,,,,,,,85,124.781,0.0513803
,,,,,,,,,99,33.733,0.0375075
,,,,,,,,,114,77.0215,0.0792159
,,,,,,,,,130,108.771,0.0279097
,,,,,,,,,147,72.8719,0.0169421
,,,,,,,,,165,50.6243,0.0350491
,,,,,,,,,184,156.225,0.0490882
,,,,,,,,,98,138.178,0.0574194
,,,,,,,,,113,41.0136,0.0406266
,,,,,,,,,129,128.491,0.094547
,,,,,,,,,146,55.6961,0.0296009
,,,,,,,,,164,37.6153,0.0175507
,,,,,,,,,183,68.8443,0.0377581
,,,,,,,,,203,104.801,0.0545717
,,,,,,,,,128,158.432,0.0321201
,,,,,,,,,145,78.4583,0.0584949
,,,,,,,,,163,106.218,0.0248129
,,,,,,,,,182,157.398,0.0157489
,,,,,,,,,202,148.27,0.0303001
,,,,,,,,,223,76.714,0.0402523
,,,,,,,,,162,90.6416,0.0411621
,,,,,,,,,181,88.5838,0.0210525
,,,,,,,,,201,41.5823,0.0141452
,,,,,,,,,222,29.4555,0.0248745
,,,,,,,,,244,124.664,0.0312091
,,,,,,,,,200,166.819,0.0298841
,,,,,,,,,221,122.191,0.0176499
,,,,,,,,,243,69.9163,0.0382202
,,,,,,,,,266,121.077,0.0555423
,,,,,,,,,242,51.5702,0.0125214
,,,,,,,,,265,104.145,0.0202551
,,,,,,,,,289,50.2665,0.0242657
,,,,,,,,,288,52.7483,0.0137807
,,,,,,,,,313,83.8581,0.0155267
,,,,,,,,,338,117.547,0.0294881
