Q	U	V
{$V$}	{[mm$^3$]}	0.00984987
{$d_v$}	{[mm]}	0.265957
{$S_c$}	{[mm$^2$]}	0.525397
{$S_o$}	{[mm$^2$]}	0.338653
{$S_l/S_o$}	[]	0.551432
{$\Psi$}	[]	0.422945
{$\eta$}	[]	0.494350
{med($\theta_e$)}	{[$^\circ$]}	96.0076
{$\Upsilon$}	[]	9
{$\Xi$}	[]	8
