Q	U	V
{$V$}	{[mm$^3$]}	0.00107464
{$d_v$}	{[mm]}	0.127083
{$S_c$}	{[mm$^2$]}	0.0858769
{$S_o$}	{[mm$^2$]}	0.0486232
{$S_l/S_o$}	[]	0.766171
{$\Psi$}	[]	0.590813
{$\eta$}	[]	0.649589
{med($\theta_e$)}	{[$^\circ$]}	62.9102
{$\Upsilon$}	[]	19
{$\Xi$}	[]	6
