facetNormals:0,facetNormals:1,facetNormals:2,FacetCenters:0,FacetCenters:1,FacetCenters:2,FacetIds,relFacetSize,absFacetSize,cellPairingIds,interplanarAngles,angleWeights
-0.298556,0.0989247,-0.906529,6.93349,6.59613,6.15621,1,0.0506567,0.00611563,8,28.3896,0.058361
0.171159,0.138361,-0.942692,6.91921,6.61476,6.16654,2,0.068829,0.0083095,13,47.522,0.0414136
0.17904,-0.503305,-0.803692,6.94436,6.56709,6.16589,3,0.035023,0.00422822,19,41.5028,0.0163056
-0.663891,-0.399615,-0.603588,6.85869,6.59172,6.16294,4,0.00971658,0.00117305,26,53.4773,0.0741452
0.132711,0.757466,-0.560496,6.93904,6.66946,6.18211,5,0.138248,0.0166902,34,71.1815,0.0639013
0.716426,0.387782,-0.524428,6.99947,6.63772,6.20352,6,0.0865236,0.0104457,43,71.0412,0.0476474
0.116352,-0.849799,-0.466879,6.95665,6.53616,6.20893,7,0.0449756,0.00542976,53,108.172,0.0749793
0.50269,-0.813238,0.0619685,6.99986,6.54545,6.23934,8,0.144231,0.0174125,64,123.334,0.0315245
0.880923,0.304659,0.315504,7.05595,6.60249,6.29593,9,0.0228822,0.0027625,76,108.795,0.0647999
-0.659539,-0.516471,0.492185,6.88574,6.5664,6.1977,10,0.0898996,0.0108533,89,112.46,0.0311657
-0.686537,0.237421,0.644788,6.85522,6.61759,6.18527,11,0.0225061,0.00271709,18,39.7124,0.0464238
,,,,,,,,,25,65.1172,0.0170292
,,,,,,,,,33,44.6009,0.0919027
,,,,,,,,,42,44.3514,0.0766686
,,,,,,,,,52,68.7612,0.0544024
,,,,,,,,,63,95.2521,0.0931875
,,,,,,,,,75,96.2974,0.0343461
,,,,,,,,,88,133.576,0.0779658
,,,,,,,,,102,137.432,0.0339207
,,,,,,,,,32,53.2331,0.0152127
,,,,,,,,,41,84.1882,0.0558878
,,,,,,,,,51,67.7136,0.0498627
,,,,,,,,,62,29.0612,0.0393802
,,,,,,,,,74,60.9103,0.0563603
,,,,,,,,,87,105.212,0.0276799
,,,,,,,,,101,105.699,0.0504081
,,,,,,,,,116,144.239,0.0274029
,,,,,,,,,50,93.2194,0.018157
,,,,,,,,,61,109.27,0.0174712
,,,,,,,,,73,55.4382,0.0159807
,,,,,,,,,86,92.8112,0.0182066
,,,,,,,,,100,158.131,0.0136408
,,,,,,,,,115,68.6666,0.0175376
,,,,,,,,,131,91.6985,0.0135732
,,,,,,,,,72,42.2215,0.106434
,,,,,,,,,85,113.232,0.067871
,,,,,,,,,99,129.836,0.141176
,,,,,,,,,114,79.4883,0.0392654
,,,,,,,,,130,144.705,0.108951
,,,,,,,,,147,107.158,0.0387104
,,,,,,,,,98,90.0808,0.0591859
,,,,,,,,,113,89.2418,0.108161
,,,,,,,,,129,52.2421,0.0361928
,,,,,,,,,146,171.469,0.0881793
,,,,,,,,,164,141.642,0.0357208
,,,,,,,,,128,39.6245,0.0685692
,,,,,,,,,145,108.423,0.0303323
,,,,,,,,,163,81.9807,0.059956
,,,,,,,,,182,127.9,0.03
,,,,,,,,,162,76.8416,0.0394981
,,,,,,,,,181,82.657,0.110761
,,,,,,,,,201,122.371,0.0389365
,,,,,,,,,200,127.577,0.0364793
,,,,,,,,,221,110.134,0.0226926
,,,,,,,,,242,46.6738,0.0359998
