"cellPairingIds","interplanarAngles","angleWeights"
8,92.687,0.00867565
13,116.186,0.00972127
19,43.6065,0.00576577
26,94.2419,0.0101558
53,103.065,0.00902589
64,73.3649,0.00998805
89,118.364,0.0100373
103,101.802,0.00846198
18,31.3894,0.0355524
52,77.7757,0.0394837
102,58.5904,0.0401783
41,119.688,0.0882782
62,52.4074,0.0773457
101,75.8985,0.0578943
86,63.9038,0.0106129
100,32.1064,0.0119686
72,39.1038,0.10368
99,41.9169,0.0519401
130,61.6942,0.0776934
113,42.722,0.0455127
146,24.4159,0.0641434
163,29.0654,0.0690977
182,62.5282,0.103194
202,87.8236,0.0354141
162,49.8818,0.0478307
181,63.1783,0.0396858
222,60.7174,0.0256653
243,35.66,0.0353477
265,89.2011,0.0306925
288,51.9289,0.0359718
