Q	U	V
{$V$}	{[mm$^3$]}	0.00633978
{$d_v$}	{[mm]}	0.229628
{$S_c$}	{[mm$^2$]}	0.250263
{$S_o$}	{[mm$^2$]}	0.160712
{$S_l/S_o$}	[]	0.557214
{$\Psi$}	[]	0.661917
{$\eta$}	[]	0.691289
{med($\theta_e$)}	{[$^\circ$]}	54.6312
{$\Upsilon$}	[]	18
{$\Xi$}	[]	12
