"cellPairingIds","interplanarAngles","angleWeights"
8,39.1113,0.0469636
13,29.6747,0.0382146
19,47.8016,0.0461163
26,77.2715,0.0402238
18,58.2163,0.0729908
33,89.7652,0.0806888
42,56.1139,0.134312
63,76.3052,0.0598679
32,41.256,0.0709643
74,47.733,0.0463427
87,49.6027,0.0472044
50,69.2297,0.0782195
73,75.9012,0.0530311
100,49.2795,0.0598774
131,93.9757,0.0771549
72,85.4903,0.0908002
85,30.6633,0.0453855
130,89.1168,0.0592935
113,110.059,0.0652599
146,82.0033,0.0839118
163,65.3885,0.0435966
182,54.681,0.045025
162,44.716,0.0413436
181,121.597,0.0472246
201,109.352,0.0489052
221,78.8319,0.0498658
242,39.2326,0.0586798
