"cellPairingIds","interplanarAngles","angleWeights"
8,69.7967,0.0356259
26,47.7445,0.0176224
76,73.7249,0.0241481
134,106.467,0.0327169
25,64.2119,0.101505
42,80.0811,0.0159159
88,115.349,0.0432536
150,129.551,0.0814759
61,92.6759,0.0158972
115,74.9311,0.0431157
131,32.0723,0.0814891
248,83.9861,0.08298
130,80.1435,0.0193065
204,60.591,0.0244199
224,68.1683,0.0153079
293,70.7205,0.0153776
242,64.6086,0.0391553
314,110.946,0.0390392
395,82.2597,0.0394963
423,53.6859,0.069459
513,68.6824,0.0690944
