facetNormals:0,facetNormals:1,facetNormals:2,FacetCenters:0,FacetCenters:1,FacetCenters:2,FacetIds,relFacetSize,absFacetSize,cellPairingIds,interplanarAngles,angleWeights
0.48035,-0.578716,-0.562831,6.5474,6.1719,7.75515,1,0.0633327,0.0193839,8,49.3437,0.0271783
0.869249,0.116828,-0.450373,6.57683,6.2434,7.79416,2,0.0173015,0.00529537,13,41.9193,0.0402811
0.148452,-0.950827,-0.0968045,6.54472,6.20406,7.70502,3,0.0295321,0.00903873,19,64.2465,0.0474801
0.948319,0.148864,-0.0404701,6.58098,6.24193,7.79431,4,0.0379748,0.0116227,26,135.221,0.0343578
-0.635266,0.724483,-0.134501,6.39356,6.42876,7.72361,5,0.023573,0.00721487,34,111.367,0.0942833
-0.851039,-0.170979,-0.0224979,6.42939,6.31539,7.77104,6,0.184399,0.0564381,43,115.057,0.0786135
0.046441,0.871714,-0.220276,6.47645,6.4042,7.71443,7,0.103613,0.0317123,53,87.1405,0.0293734
0.835186,0.107978,0.519386,6.56564,6.31471,7.77662,8,0.0191208,0.0058522,64,108.589,0.0472601
0.635972,0.589812,0.458244,6.55606,6.36298,7.82655,9,0.0376941,0.0115368,76,100.406,0.084166
0.293246,-0.286059,0.821002,6.5241,6.243,7.85725,10,0.125425,0.0383881,89,124.196,0.0474173
0.366856,0.405788,0.822233,6.53022,6.42357,7.79593,11,0.0378944,0.0115982,103,156.617,0.0869827
-0.141007,0.569131,0.73585,6.4706,6.37285,7.83297,12,0.138823,0.0424887,18,86.2989,0.0218198
,,,,,,,,,25,24.7961,0.0237722
,,,,,,,,,33,115.106,0.0199561
,,,,,,,,,42,151.114,0.0316348
,,,,,,,,,52,74.2185,0.0296517
,,,,,,,,,63,58.8452,0.0181657
,,,,,,,,,75,64.5684,0.0237169
,,,,,,,,,88,99.4336,0.0304083
,,,,,,,,,102,90.2363,0.0237565
,,,,,,,,,117,114.69,0.0307683
,,,,,,,,,32,89.8056,0.0332255
,,,,,,,,,41,144.929,0.0262182
,,,,,,,,,51,87.3787,0.0509107
,,,,,,,,,62,156.844,0.0459635
,,,,,,,,,74,91.7343,0.0232125
,,,,,,,,,87,122.569,0.0331176
,,,,,,,,,101,74.5743,0.0478075
,,,,,,,,,116,115.483,0.0331947
,,,,,,,,,132,134.101,0.0487034
,,,,,,,,,50,121.553,0.0290889
,,,,,,,,,61,175.402,0.0629796
,,,,,,,,,73,77.8051,0.0555794
,,,,,,,,,86,34.1102,0.0254348
,,,,,,,,,100,44.4902,0.0378339
,,,,,,,,,115,76.7347,0.0582985
,,,,,,,,,131,66.7188,0.0379346
,,,,,,,,,148,94.9993,0.0596361
,,,,,,,,,72,60.2042,0.0418022
,,,,,,,,,85,43.8502,0.0384079
,,,,,,,,,99,122.853,0.0211148
,,,,,,,,,114,92.3021,0.0290062
,,,,,,,,,130,124.371,0.039687
,,,,,,,,,147,92.9624,0.0290653
,,,,,,,,,165,63.8849,0.0403024
,,,,,,,,,98,103.584,0.132676
,,,,,,,,,113,149.586,0.0346487
,,,,,,,,,129,139.985,0.0625932
,,,,,,,,,146,105.964,0.149299
,,,,,,,,,164,117.81,0.0628691
,,,,,,,,,183,89.5695,0.158398
,,,,,,,,,128,88.8097,0.0322839
,,,,,,,,,145,59.9141,0.0552782
,,,,,,,,,163,120.285,0.11348
,,,,,,,,,182,77.6843,0.0554933
,,,,,,,,,202,67.2573,0.118661
,,,,,,,,,162,30.8995,0.0253715
,,,,,,,,,181,45.1326,0.0331829
,,,,,,,,,201,37.3018,0.0254168
,,,,,,,,,222,69.5095,0.033612
,,,,,,,,,200,64.0408,0.0579672
,,,,,,,,,221,28.7425,0.037794
,,,,,,,,,243,50.8125,0.0592895
,,,,,,,,,242,42.6421,0.0582038
,,,,,,,,,265,62.3987,0.131784
,,,,,,,,,288,32.4337,0.059537
