"cellPairingIds","interplanarAngles","angleWeights"
8,67.2097,0.0369805
13,52.3704,0.0171002
26,142.197,0.0408856
34,112.045,0.0326537
76,83.7445,0.0411358
89,110.913,0.0361791
18,48.5618,0.0200408
25,59.1827,0.0845034
33,85.676,0.0629814
32,82.8425,0.0231099
87,43.6052,0.0181297
101,61.8174,0.0212014
50,44.742,0.108095
86,54.489,0.0245377
100,57.3127,0.0585013
72,66.6496,0.0513851
99,29.0452,0.0223227
113,62.3563,0.0196219
164,47.462,0.0441644
162,92.5999,0.018997
201,72.0505,0.0208423
222,26.0037,0.0202038
267,60.9385,0.0218537
200,49.6913,0.0476447
243,70.0752,0.038706
290,50.3181,0.0452511
242,71.9926,0.0612447
314,45.8931,0.0708839
339,66.1172,0.0573456
365,35.6895,0.0527575
