facetNormals:0,facetNormals:1,facetNormals:2,FacetCenters:0,FacetCenters:1,FacetCenters:2,FacetIds,relFacetSize,absFacetSize,cellPairingIds,interplanarAngles,angleWeights
-0.427298,-0.0739805,-0.849058,4.78727,5.11344,8.61479,1,0.101898,0.00913612,8,46.7778,0.0424905
-0.0250134,-0.69294,-0.666765,4.79284,5.07489,8.62869,2,0.0268416,0.0024066,13,53.7594,0.118849
0.0743898,0.617116,-0.725294,4.86417,5.19458,8.63042,3,0.142565,0.0127823,19,42.208,0.0441245
-0.916117,-0.109189,-0.350224,4.73999,5.11778,8.659,4,0.028159,0.00252472,26,58.5396,0.0967053
-0.511246,0.74894,-0.385393,4.78702,5.20294,8.6594,5,0.0920161,0.00825011,34,49.2744,0.0655275
-0.8806,0.315757,-0.305262,4.73577,5.13046,8.66634,6,0.048291,0.00432974,43,105.265,0.0224244
0.605787,0.774751,-0.0806548,4.91486,5.21346,8.68416,7,0.0125985,0.00112957,53,91.2271,0.0404173
-0.798995,0.379174,0.39233,4.73707,5.15519,8.72001,8,0.025208,0.00226013,64,93.9713,0.0969551
-0.186848,-0.899145,0.246321,4.77096,5.06619,8.69917,9,0.0924696,0.00829077,76,85.8875,0.0320348
-0.913686,0.0659216,0.374388,4.73192,5.12071,8.72806,10,0.0190048,0.00170396,89,94.8703,0.00999436
-0.812219,-0.246034,0.525348,4.75633,5.0846,8.73838,11,0.00525488,0.00047115,103,104.396,0.0375137
-0.521154,-0.59189,0.588568,4.78426,5.07327,8.73364,12,0.0229884,0.00206113,118,145.398,0.137511
-0.00923078,0.446839,0.868393,4.83499,5.16892,8.72987,13,0.211392,0.0189533,18,86.6237,0.0451773
,,,,,,,,,25,69.5231,0.0274845
,,,,,,,,,33,105.244,0.0415599
,,,,,,,,,42,89.5906,0.0345045
,,,,,,,,,52,121.66,0.0171482
,,,,,,,,,63,122.813,0.0259991
,,,,,,,,,75,59.5529,0.041606
,,,,,,,,,88,106.631,0.0222534
,,,,,,,,,102,99.5612,0.00878909
,,,,,,,,,117,88.1388,0.024766
,,,,,,,,,133,161.018,0.0476347
,,,,,,,,,32,82.7792,0.047029
,,,,,,,,,41,41.6114,0.111844
,,,,,,,,,51,68.0895,0.0721445
,,,,,,,,,62,51.8943,0.0231511
,,,,,,,,,74,96.8357,0.0428409
,,,,,,,,,87,145.382,0.112179
,,,,,,,,,101,108.429,0.0335387
,,,,,,,,,116,128.483,0.0101362
,,,,,,,,,132,152.127,0.0395926
,,,,,,,,,149,112.352,0.170287
,,,,,,,,,50,57.561,0.0431218
,,,,,,,,,61,25.1314,0.0355743
,,,,,,,,,73,128.886,0.0174084
,,,,,,,,,86,54.5941,0.0266019
,,,,,,,,,100,78.7481,0.0431714
,,,,,,,,,115,44.3177,0.0226935
,,,,,,,,,131,53.4219,0.00885694
,,,,,,,,,148,69.7612,0.0253124
,,,,,,,,,166,110.941,0.0496979
,,,,,,,,,72,33.9454,0.0633403
,,,,,,,,,85,71.9273,0.0221625
,,,,,,,,,99,55.4044,0.0395744
,,,,,,,,,114,135.904,0.0922423
,,,,,,,,,130,67.5596,0.031503
,,,,,,,,,147,88.3385,0.009942
,,,,,,,,,165,114.604,0.0367865
,,,,,,,,,184,89.72,0.12822
,,,,,,,,,98,105.788,0.0199835
,,,,,,,,,113,42.3563,0.0331248
,,,,,,,,,129,102.002,0.0634474
,,,,,,,,,146,43.0939,0.0272754
,,,,,,,,,164,60.9325,0.00947836
,,,,,,,,,183,84.5265,0.0311488
,,,,,,,,,203,96.9244,0.0786214
,,,,,,,,,128,103.44,0.0168004
,,,,,,,,,145,152.164,0.0221756
,,,,,,,,,163,123.054,0.0151523
,,,,,,,,,182,137.403,0.00741637
,,,,,,,,,202,147.807,0.0162767
,,,,,,,,,223,73.6958,0.0237797
,,,,,,,,,162,95.9276,0.0396162
,,,,,,,,,181,19.6141,0.0216712
,,,,,,,,,201,37.9222,0.00869682
,,,,,,,,,222,63.63,0.0240471
,,,,,,,,,244,56.7933,0.0450445
,,,,,,,,,200,77.4994,0.0315295
,,,,,,,,,221,58.0368,0.00994463
,,,,,,,,,243,34.1243,0.0368225
,,,,,,,,,266,101.564,0.128659
,,,,,,,,,242,20.9285,0.00823325
,,,,,,,,,265,47.532,0.0208077
,,,,,,,,,289,67.9396,0.0348743
,,,,,,,,,288,26.614,0.00855434
,,,,,,,,,313,68.721,0.0102548
,,,,,,,,,338,74.8336,0.0414673
