"cellPairingIds","interplanarAngles","angleWeights"
8,54.6651,0.0215834
13,59.1019,0.0189542
19,48.1356,0.0231233
53,82.8291,0.0241521
151,156.623,0.0220702
18,62.2208,0.0427582
33,40.6336,0.0556292
52,68.0757,0.0257698
75,65.3066,0.0565661
168,124.491,0.0627416
32,42.7206,0.0492565
51,36.1603,0.0374116
87,74.9009,0.0414846
61,57.2667,0.058081
86,50.9861,0.111766
166,77.9747,0.0254473
85,31.0247,0.0251125
114,29.391,0.0534927
129,65.625,0.047572
164,43.7536,0.0431351
203,46.0104,0.0218701
145,35.605,0.0253017
268,58.0208,0.0264669
244,61.489,0.026699
267,69.5455,0.0496732
291,97.8474,0.0908208
221,26.4419,0.0486414
243,36.3455,0.0667509
266,82.0607,0.0232017
315,77.6608,0.060037
313,56.7208,0.0220934
338,52.3996,0.0251985
393,53.1185,0.0755228
392,49.5847,0.0198094
421,72.8872,0.0241778
450,30.443,0.0416021
