facetNormals:0,facetNormals:1,facetNormals:2,FacetCenters:0,FacetCenters:1,FacetCenters:2,FacetIds,relFacetSize,absFacetSize,cellPairingIds,interplanarAngles,angleWeights
-0.0595089,0.135596,-0.985111,4.40817,3.5792,8.28159,1,0.00567653,0.000384312,8,32.5793,0.00832766
0.451633,-0.00341959,-0.841733,4.3581,3.55051,8.2522,2,0.0156251,0.00105785,13,68.6683,0.0108364
-0.165822,-0.825912,-0.456039,4.34394,3.50476,8.25334,3,0.11906,0.00806063,19,88.9217,0.00831965
0.832186,0.443955,-0.00711191,4.34948,3.5735,8.26735,4,0.0155689,0.00105404,26,72.5334,0.0108234
-0.664943,0.678225,-0.158764,4.33259,3.57607,8.3011,5,0.116007,0.0078539,34,94.1318,0.00973794
-0.341499,-0.916576,-0.0342219,4.3696,3.49108,8.28712,6,0.0342251,0.00231711,43,98.1053,0.010495
-0.900467,-0.226531,0.157491,4.31622,3.53001,8.3035,7,0.0694325,0.00470072,53,115.011,0.00702965
-0.160457,-0.927354,0.30503,4.33329,3.50226,8.29523,8,0.00922976,0.000624874,64,110.006,0.0102781
-0.274678,0.808035,0.463876,4.37099,3.60506,8.33002,9,0.054275,0.00367453,76,127.802,0.00615876
-0.367078,-0.75272,0.534282,4.34787,3.51407,8.31343,10,0.00673053,0.000455671,89,124.413,0.00969939
0.785176,-0.326879,0.460248,4.3704,3.55817,8.299,11,0.033295,0.00225414,103,131.545,0.01007
0.375157,-0.740986,0.539582,4.39278,3.51182,8.32001,12,0.0445526,0.0030163,118,135.51,0.00925465
-0.642963,-0.107139,0.730179,4.38646,3.53321,8.32758,13,0.0250354,0.00169495,134,149.803,0.010388
0.119105,-0.605229,0.775675,4.36221,3.51856,8.34231,14,0.0611055,0.00413697,151,154.193,0.00880825
-0.333164,-0.309624,0.87645,4.34845,3.58191,8.30453,15,0.0196479,0.00133021,169,155.871,0.0109865
0.214402,0.229441,0.887088,4.40723,3.59346,8.3334,16,0.170131,0.0115182,188,175.6,0.00935179
-0.00158091,-0.180684,0.976439,4.37924,3.57679,8.33644,17,0.0265261,0.00179587,18,70.0778,0.0276248
,,,,,,,,,25,65.0333,0.0155969
,,,,,,,,,33,100.586,0.0275407
,,,,,,,,,42,97.5161,0.0214551
,,,,,,,,,52,126.766,0.0255095
,,,,,,,,,63,110.182,0.0116047
,,,,,,,,,75,123.881,0.0242647
,,,,,,,,,88,130.235,0.00940839
,,,,,,,,,102,91.9651,0.0212689
,,,,,,,,,117,107.355,0.0231361
,,,,,,,,,133,165.359,0.0192413
,,,,,,,,,150,129.1,0.0248865
,,,,,,,,,168,160.14,0.0174071
,,,,,,,,,187,136.37,0.0286216
,,,,,,,,,207,150.061,0.019666
,,,,,,,,,32,123.708,0.0275369
,,,,,,,,,41,114.156,0.117514
,,,,,,,,,51,27.8105,0.0531669
,,,,,,,,,62,72.9451,0.0877132
,,,,,,,,,74,46.4111,0.0171315
,,,,,,,,,87,153.589,0.0745607
,,,,,,,,,101,62.5331,0.0127408
,,,,,,,,,116,94.341,0.0520378
,,,,,,,,,132,71.33,0.0648415
,,,,,,,,,149,98.4567,0.0413714
,,,,,,,,,167,82.3499,0.0807617
,,,,,,,,,186,95.3825,0.0337296
,,,,,,,,,206,134.302,0.140086
,,,,,,,,,227,108.118,0.043386
,,,,,,,,,50,106.05,0.0274533
,,,,,,,,,61,138.449,0.021402
,,,,,,,,,73,163.343,0.0254345
,,,,,,,,,86,125.917,0.0115891
,,,,,,,,,100,82.0419,0.0241968
,,,,,,,,,115,133.372,0.00939817
,,,,,,,,,131,56.3814,0.0212167
,,,,,,,,,148,91.2636,0.0230744
,,,,,,,,,166,129.546,0.0191986
,,,,,,,,,185,100.796,0.0248152
,,,,,,,,,205,116.87,0.0173722
,,,,,,,,,226,72.0211,0.0285272
,,,,,,,,,248,95.4203,0.0196214
,,,,,,,,,72,114.385,0.0528563
,,,,,,,,,85,62.4042,0.0868709
,,,,,,,,,99,126.799,0.0170991
,,,,,,,,,114,45.3806,0.0739512
,,,,,,,,,130,111.542,0.0127229
,,,,,,,,,147,151.303,0.0517401
,,,,,,,,,165,151.436,0.06438
,,,,,,,,,184,75.3151,0.0411831
,,,,,,,,,204,129.951,0.080047
,,,,,,,,,225,97.7123,0.0336043
,,,,,,,,,247,98.1068,0.13795
,,,,,,,,,270,106.808,0.0431789
,,,,,,,,,98,56.4251,0.0458497
,,,,,,,,,113,22.5355,0.0145388
,,,,,,,,,129,134.192,0.0419789
,,,,,,,,,146,34.9398,0.0112489
,,,,,,,,,164,89.0482,0.0337537
,,,,,,,,,183,56.6726,0.0387119
,,,,,,,,,203,72.204,0.0289177
,,,,,,,,,224,59.8265,0.0438756
,,,,,,,,,246,67.645,0.0249644
,,,,,,,,,269,109.925,0.0569864
,,,,,,,,,293,82.1504,0.0298878
,,,,,,,,,128,64.3994,0.0162936
,,,,,,,,,145,81.365,0.0609251
,,,,,,,,,163,51.2798,0.0122715
,,,,,,,,,182,127.982,0.0450075
,,,,,,,,,202,95.2272,0.0542773
,,,,,,,,,223,38.8171,0.0368013
,,,,,,,,,245,80.6264,0.0650034
,,,,,,,,,268,56.876,0.0306286
,,,,,,,,,292,96.8256,0.0986178
,,,,,,,,,317,77.8939,0.0383868
,,,,,,,,,162,125.919,0.0157766
,,,,,,,,,181,20.6043,0.00778447
,,,,,,,,,201,70.6161,0.014453
,,,,,,,,,222,36.117,0.0152916
,,,,,,,,,244,63.9505,0.0134872
,,,,,,,,,267,37.4137,0.0160372
,,,,,,,,,291,51.5152,0.0125596
,,,,,,,,,316,88.559,0.0175096
,,,,,,,,,342,61.7066,0.0136945
,,,,,,,,,200,105.604,0.011976
,,,,,,,,,221,106.469,0.0412718
,,,,,,,,,243,117.988,0.0489356
,,,,,,,,,266,63.1954,0.0342653
,,,,,,,,,290,99.6848,0.0574881
,,,,,,,,,315,75.0222,0.0288514
,,,,,,,,,341,53.9443,0.0822959
,,,,,,,,,368,71.4176,0.0356357
,,,,,,,,,242,77.7559,0.0111975
,,,,,,,,,265,43.9499,0.0116944
,,,,,,,,,289,43.3718,0.0106089
,,,,,,,,,314,32.9328,0.0121255
,,,,,,,,,340,32.8945,0.0100264
,,,,,,,,,367,76.2272,0.0129488
,,,,,,,,,395,48.1387,0.0107368
,,,,,,,,,288,34.9435,0.0381098
,,,,,,,,,313,98.1236,0.0285804
,,,,,,,,,339,47.4282,0.0431038
,,,,,,,,,366,75.2572,0.0247126
,,,,,,,,,394,56.549,0.0556911
,,,,,,,,,423,58.1163,0.0295276
,,,,,,,,,338,76.1436,0.032057
,,,,,,,,,365,21.7482,0.0515325
,,,,,,,,,393,53.8181,0.0272698
,,,,,,,,,422,65.3259,0.0706135
,,,,,,,,,452,47.8382,0.0332535
,,,,,,,,,392,55.1253,0.0355186
,,,,,,,,,421,23.3489,0.0220169
,,,,,,,,,451,58.205,0.0436478
,,,,,,,,,482,41.0178,0.0257592
,,,,,,,,,450,32.2574,0.0297349
,,,,,,,,,481,51.9533,0.0899161
,,,,,,,,,513,28.2912,0.0369933
,,,,,,,,,512,46.8903,0.0352275
,,,,,,,,,545,21.5066,0.0225747
,,,,,,,,,578,28.0894,0.0458962
