facetNormals:0,facetNormals:1,facetNormals:2,FacetCenters:0,FacetCenters:1,FacetCenters:2,FacetIds,relFacetSize,absFacetSize,cellPairingIds,interplanarAngles,angleWeights
-0.0438204,-0.0777185,-0.967624,7.1079,3.63185,8.25393,1,0.0255019,0.00268971,8,33.9649,0.0153893
-0.427112,0.322631,-0.827226,7.02959,3.65481,8.25154,2,0.0110196,0.00116225,13,41.8338,0.0435294
-0.337775,-0.625052,-0.660196,7.04356,3.57903,8.29271,3,0.148519,0.0156644,19,49.1078,0.0427709
0.202701,-0.753048,-0.592612,7.14936,3.55424,8.31193,4,0.132485,0.0139734,26,52.8805,0.0326538
0.716749,-0.275646,-0.601474,7.1845,3.60677,8.28849,5,0.0453805,0.00478633,34,64.9494,0.0341778
-0.856762,-0.297159,-0.350773,6.99696,3.59703,8.32169,6,0.0518009,0.0054635,43,79.7361,0.0228759
-0.910021,0.307124,-0.157617,6.98235,3.65558,8.32434,7,0.0207402,0.0021875,53,89.0653,0.01964
-0.663924,-0.723523,0.0720487,7.01874,3.53692,8.36696,8,0.0159692,0.00168429,64,94.1201,0.0158687
-0.204554,-0.958815,0.157924,7.06895,3.50083,8.37762,9,0.0115178,0.0012148,76,111.109,0.0356787
0.79779,-0.400397,0.341721,7.1998,3.57104,8.36428,10,0.0593716,0.00626198,89,109.102,0.0368917
-0.900455,-0.0403466,0.363415,6.98631,3.62978,8.36946,11,0.0666668,0.00703142,103,142.144,0.0270666
-0.553316,-0.0823687,0.816365,7.01378,3.60045,8.40503,12,0.0288358,0.00304134,118,143.483,0.031609
-0.232122,-0.448856,0.832703,7.06774,3.54451,8.40962,13,0.041562,0.00438359,134,169.299,0.0294847
-0.127052,0.0112717,0.982242,7.06682,3.58279,8.41467,14,0.0349417,0.00368534,151,163.518,0.0347034
0.293504,-0.0432226,0.932535,7.1287,3.56708,8.41074,15,0.0542932,0.00572637,18,59.2401,0.0205169
,,,,,,,,,25,80.4152,0.0203468
,,,,,,,,,33,83.8784,0.0177331
,,,,,,,,,42,54.2126,0.0181732
,,,,,,,,,52,49.8652,0.0143923
,,,,,,,,,63,90.5588,0.0130405
,,,,,,,,,75,111.124,0.0112632
,,,,,,,,,88,143.049,0.018589
,,,,,,,,,102,85.7508,0.018913
,,,,,,,,,117,118.519,0.0159456
,,,,,,,,,133,139.937,0.0174204
,,,,,,,,,150,140.646,0.0167551
,,,,,,,,,168,160.827,0.0183207
,,,,,,,,,32,33.3561,0.140044
,,,,,,,,,41,69.7602,0.0695192
,,,,,,,,,51,41.4598,0.0768113
,,,,,,,,,62,76.5557,0.0363977
,,,,,,,,,74,48.8067,0.0288377
,,,,,,,,,87,54.1439,0.0213778
,,,,,,,,,101,105.313,0.0848311
,,,,,,,,,116,84.5548,0.0920253
,,,,,,,,,132,108.25,0.0482948
,,,,,,,,,149,101.651,0.0649486
,,,,,,,,,167,129.621,0.0565735
,,,,,,,,,186,136.441,0.0795176
,,,,,,,,,50,42.0634,0.0676043
,,,,,,,,,61,74.2828,0.0744804
,,,,,,,,,73,109.762,0.0358658
,,,,,,,,,86,67.5956,0.0285029
,,,,,,,,,100,52.8795,0.0211932
,,,,,,,,,115,73.8295,0.0819971
,,,,,,,,,131,112.71,0.0886997
,,,,,,,,,148,123.423,0.0473629
,,,,,,,,,166,102.255,0.0632742
,,,,,,,,,185,129.442,0.0552989
,,,,,,,,,205,118.72,0.0770222
,,,,,,,,,72,109.795,0.0483786
,,,,,,,,,85,132.558,0.0284692
,,,,,,,,,99,109.447,0.0236249
,,,,,,,,,114,88.6576,0.0183726
,,,,,,,,,130,59.2533,0.0514417
,,,,,,,,,147,154.112,0.0540017
,,,,,,,,,165,153.632,0.035264
,,,,,,,,,184,124.892,0.0433874
,,,,,,,,,204,135.15,0.0394828
,,,,,,,,,225,110.777,0.0494384
,,,,,,,,,98,38.1998,0.0296208
,,,,,,,,,113,37.5949,0.0244126
,,,,,,,,,129,65.2141,0.0188454
,,,,,,,,,146,137.429,0.0553285
,,,,,,,,,164,46.0363,0.0583011
,,,,,,,,,183,77.2614,0.0370481
,,,,,,,,,203,87.5694,0.04612
,,,,,,,,,224,104.372,0.0417329
,,,,,,,,,246,126.482,0.0530178
,,,,,,,,,128,67.2485,0.0180447
,,,,,,,,,145,97.9225,0.0148107
,,,,,,,,,163,166.049,0.0307416
,,,,,,,,,182,37.5677,0.0316379
,,,,,,,,,202,68.7211,0.024127
,,,,,,,,,223,93.4994,0.0276718
,,,,,,,,,245,92.1244,0.02603
,,,,,,,,,268,116.659,0.0300147
,,,,,,,,,162,30.6786,0.0133831
,,,,,,,,,181,103.228,0.0251688
,,,,,,,,,201,46.9512,0.0257664
,,,,,,,,,222,60.0975,0.0205551
,,,,,,,,,244,55.8147,0.0230732
,,,,,,,,,267,81.3327,0.0219203
,,,,,,,,,291,95.7422,0.0246795
,,,,,,,,,200,73.178,0.0192929
,,,,,,,,,221,73.1177,0.0196422
,,,,,,,,,243,70.9302,0.0164608
,,,,,,,,,266,50.9507,0.0180372
,,,,,,,,,290,80.0294,0.0173249
,,,,,,,,,315,82.3909,0.0190041
,,,,,,,,,242,128.482,0.062808
,,,,,,,,,265,97.8677,0.0388182
,,,,,,,,,289,72.5559,0.0488956
,,,,,,,,,314,75.9534,0.0439926
,,,,,,,,,340,52.4436,0.0567189
,,,,,,,,,288,33.907,0.0402584
,,,,,,,,,313,55.9712,0.0512027
,,,,,,,,,339,60.7121,0.0458515
,,,,,,,,,366,85.3951,0.0598471
,,,,,,,,,338,28.7403,0.0340486
,,,,,,,,,365,27.2759,0.0315965
,,,,,,,,,393,51.5323,0.0376664
,,,,,,,,,392,29.1784,0.0379654
,,,,,,,,,421,40.2222,0.0470822
,,,,,,,,,450,25.0376,0.0425192
