facetNormals:0,facetNormals:1,facetNormals:2,FacetCenters:0,FacetCenters:1,FacetCenters:2,FacetIds,relFacetSize,absFacetSize,cellPairingIds,interplanarAngles,angleWeights
0.343578,0.129833,-0.918432,5.02062,3.61795,7.81288,1,0.0153614,0.00231818,8,25.0773,0.0242035
0.703634,0.115262,-0.684936,5.06809,3.66664,7.90033,2,0.0570306,0.00860649,13,73.0177,0.00610407
-0.759025,0.300713,-0.551328,4.93615,3.54908,7.96309,3,0.00380877,0.000574781,19,52.1005,0.0248024
0.723661,-0.488527,-0.447403,5.06487,3.57498,7.92103,4,0.0643543,0.00971171,26,45.6377,0.0264715
0.758485,0.410969,-0.362923,5.05645,3.67415,7.89269,5,0.0956521,0.0144349,34,60.8104,0.0259559
0.939841,-0.210053,-0.194114,5.03595,3.56856,7.89351,6,0.0836432,0.0126226,43,80.7533,0.0207906
-0.287994,0.894386,-0.145858,5.04445,3.71769,7.93763,7,0.0321556,0.0048526,53,118.632,0.022991
0.0150288,-0.877455,0.373878,5.00589,3.50965,7.96823,8,0.0456787,0.00689338,64,129.913,0.016887
-0.928229,-0.060263,0.325164,4.98162,3.59414,7.99373,9,0.018749,0.00282941,76,148.338,0.0201873
-0.654222,-0.419717,0.591085,4.98142,3.54234,7.99451,10,0.0294343,0.00444193,89,107.274,0.0262314
0.748002,-0.270605,0.551029,5.04626,3.57065,7.99498,11,0.0897168,0.0135392,103,114.176,0.0125887
0.336802,0.654531,0.652346,5.06982,3.72627,8.00494,12,0.0106639,0.00160929,118,152.207,0.027832
-0.471863,0.295666,0.77276,5.00441,3.64893,8.00523,13,0.1479,0.0223195,134,138.567,0.0233706
0.287697,-0.412566,0.839557,4.97428,3.51765,7.99545,14,0.04883,0.00736893,18,97.1831,0.00714065
,,,,,,,,,25,38.4806,0.0604715
,,,,,,,,,33,26.2853,0.0714566
,,,,,,,,,42,37.5514,0.0678196
,,,,,,,,,52,89.9787,0.0411241
,,,,,,,,,63,111.565,0.0507273
,,,,,,,,,75,154.977,0.0282204
,,,,,,,,,88,161.129,0.0388286
,,,,,,,,,102,82.9327,0.0697335
,,,,,,,,,117,97.9433,0.0179681
,,,,,,,,,133,151.453,0.0823188
,,,,,,,,,150,115.736,0.0526126
,,,,,,,,,32,117.716,0.00719189
,,,,,,,,,41,105.864,0.00732583
,,,,,,,,,51,133.771,0.00728577
,,,,,,,,,62,52.676,0.00681081
,,,,,,,,,74,120.815,0.00703126
,,,,,,,,,87,58.5039,0.00633135
,,,,,,,,,101,87.3502,0.00674477
,,,,,,,,,116,178.423,0.00730732
,,,,,,,,,132,115.587,0.00561283
,,,,,,,,,149,88.7162,0.00742629
,,,,,,,,,167,146.641,0.00706636
,,,,,,,,,50,56.2222,0.0769422
,,,,,,,,,61,25.5453,0.0727418
,,,,,,,,,73,128.45,0.0428837
,,,,,,,,,86,73.0868,0.0534316
,,,,,,,,,100,144.575,0.029038
,,,,,,,,,115,123.793,0.0403935
,,,,,,,,,131,63.2727,0.074948
,,,,,,,,,148,112.411,0.0182961
,,,,,,,,,166,152.87,0.0896848
,,,,,,,,,185,87.9633,0.0555275
,,,,,,,,,72,40.7066,0.0892455
,,,,,,,,,85,76.8762,0.0481309
,,,,,,,,,99,122.898,0.0618303
,,,,,,,,,114,156.671,0.0313525
,,,,,,,,,130,165.112,0.0450161
,,,,,,,,,147,73.5697,0.0925894
,,,,,,,,,165,71.7875,0.0191886
,,,,,,,,,184,125.436,0.116172
,,,,,,,,,204,106.232,0.0646542
,,,,,,,,,98,117.424,0.0464529
,,,,,,,,,113,82.2814,0.0590884
,,,,,,,,,129,162.425,0.0306318
,,,,,,,,,146,131.963,0.043545
,,,,,,,,,164,46.6234,0.0865736
,,,,,,,,,183,86.8899,0.0189162
,,,,,,,,,203,134.477,0.106855
,,,,,,,,,224,78.3543,0.0616622
,,,,,,,,,128,158.452,0.0377424
,,,,,,,,,145,79.7952,0.0236869
,,,,,,,,,163,107.111,0.0307348
,,,,,,,,,182,125.769,0.0473429
,,,,,,,,,202,65.1345,0.0160163
,,,,,,,,,223,71.4838,0.052826
,,,,,,,,,245,128.107,0.0387762
,,,,,,,,,162,80.1685,0.0265858
,,,,,,,,,181,51.5331,0.0357999
,,,,,,,,,201,60.488,0.060536
,,,,,,,,,222,110.291,0.0172911
,,,,,,,,,244,88.5877,0.0697998
,,,,,,,,,267,43.2293,0.0472018
,,,,,,,,,200,31.0028,0.0229068
,,,,,,,,,221,121.544,0.0310162
,,,,,,,,,243,98.3028,0.0135952
,,,,,,,,,266,44.3234,0.0332792
,,,,,,,,,290,88.1694,0.0270946
,,,,,,,,,242,93.0379,0.0443261
,,,,,,,,,265,96.5447,0.0156558
,,,,,,,,,289,46.4037,0.0490974
,,,,,,,,,314,59.768,0.0367288
,,,,,,,,,288,62.8525,0.0190621
,,,,,,,,,313,90.4445,0.111685
,,,,,,,,,339,33.5288,0.0632403
,,,,,,,,,338,54.8985,0.0198935
,,,,,,,,,365,67.1021,0.0175049
,,,,,,,,,392,65.1979,0.0734199
