"cellPairingIds","interplanarAngles","angleWeights"
33,82.5713,0.050112
42,37.526,0.0406694
52,87.5481,0.00547745
75,65.8173,0.0392626
72,104.329,0.0488002
85,60.7453,0.00560319
99,80.1841,0.0750101
130,51.7288,0.0633742
225,87.0904,0.0559365
113,34.087,0.0556645
129,59.0005,0.0384528
183,39.532,0.0536303
145,101.515,0.00543525
182,79.6501,0.00538737
245,125.444,0.00569047
268,128.724,0.00554051
181,53.8479,0.0754584
222,58.2442,0.0870624
244,50.7644,0.0804665
221,32.091,0.0350606
243,47.2815,0.0512106
290,51.3877,0.053662
289,44.9472,0.0672256
340,41.6284,0.0561854
339,52.3348,0.0493333
338,58.3327,0.0762837
365,45.922,0.0886886
392,72.7921,0.0818537
421,28.6319,0.0589157
450,77.6578,0.0660508
