"cellPairingIds","interplanarAngles","angleWeights"
25,26.274,0.0109036
42,35.3685,0.0152602
52,60.7743,0.0139648
63,67.6067,0.0199153
75,75.2315,0.0122396
168,63.5103,0.0223714
73,66.7952,0.0127993
131,31.1752,0.0177269
205,45.3724,0.0195234
129,74.9715,0.0161186
146,58.025,0.0364877
203,38.2517,0.0290205
246,52.8363,0.0399396
128,33.2176,0.0273005
182,59.7351,0.0275425
292,63.2145,0.0265045
457,108.056,0.0028995
162,38.4903,0.0214028
316,37.695,0.0612245
200,37.7406,0.0229469
341,39.3439,0.0209105
289,69.363,0.0625111
314,52.506,0.0266085
367,69.4934,0.0758188
550,131.262,0.00312161
366,54.9628,0.106397
583,93.83,0.00309435
392,18.7756,0.0224045
421,34.3632,0.0733758
652,111.347,0.00305437
688,114.485,0.00286546
725,97.4606,0.00314486
763,96.4194,0.0030808
