"cellPairingIds","interplanarAngles","angleWeights"
19,69.3659,0.060552
43,90.8067,0.017872
64,82.61,0.0474781
73,119.619,0.0159098
86,32.5142,0.0477418
100,142.365,0.0357614
148,77.3646,0.0380132
128,111.902,0.0165605
145,84.1919,0.0148364
202,130.17,0.0152102
222,56.1073,0.0419514
243,110.689,0.0324105
