facetNormals:0,facetNormals:1,facetNormals:2,FacetCenters:0,FacetCenters:1,FacetCenters:2,FacetIds,relFacetSize,absFacetSize,cellPairingIds,interplanarAngles,angleWeights
0.583954,0.0549499,-0.775322,7.39851,5.9569,9.54249,1,0.0878725,0.015167,8,81.6312,0.0463778
-0.668795,-0.102703,-0.686974,7.32162,5.92025,9.56995,2,0.0315021,0.00543732,13,42.4533,0.0977564
0.647033,0.623866,-0.366473,7.41237,6.03628,9.61146,3,0.110146,0.0190113,19,47.3881,0.0481186
0.945896,-0.198077,-0.12935,7.46037,5.95214,9.64034,4,0.0331303,0.00571834,26,78.3947,0.0230868
-0.157441,0.906681,-0.298347,7.42321,5.95401,9.65193,5,0.0132891,0.00229372,34,96.3485,0.0571443
-0.524343,-0.746968,-0.314042,7.30685,5.88387,9.59225,6,0.0423388,0.00730775,43,124.799,0.0306876
-0.959001,-0.143841,-0.0380162,7.28537,5.90206,9.61925,7,0.0185898,0.00320864,53,64.1572,0.0647362
0.649851,-0.718352,-0.093378,7.41775,5.89309,9.59507,8,0.0512439,0.00884479,64,103.793,0.111485
0.299662,-0.777097,0.454225,7.39402,5.89771,9.67074,9,0.15245,0.0263131,76,109.927,0.0313986
0.0247468,0.847516,0.499198,7.3685,6.07159,9.69917,10,0.0191142,0.00329915,89,108.184,0.0714721
0.420648,0.469906,0.726632,7.40673,6.0286,9.72069,11,0.0602307,0.0103959,103,174.996,0.0722864
-0.618708,-0.130324,0.752656,7.29418,5.9688,9.70937,12,0.0613964,0.0105971,118,147.87,0.0481434
-0.472405,0.471155,0.719681,7.31849,6.03766,9.71321,13,0.0331538,0.00572241,134,151.702,0.0552478
-0.147532,-0.0131895,0.95568,7.33726,5.99294,9.72566,14,0.0402894,0.00695401,18,105.178,0.0489922
,,,,,,,,,25,123.829,0.0322957
,,,,,,,,,33,76.5396,0.0186927
,,,,,,,,,42,46.2857,0.0361253
,,,,,,,,,52,43.1897,0.0233818
,,,,,,,,,63,108.432,0.039018
,,,,,,,,,75,118.226,0.0522146
,,,,,,,,,88,118.077,0.0237923
,,,,,,,,,102,153.291,0.0413678
,,,,,,,,,117,95.4414,0.0416393
,,,,,,,,,133,103.87,0.0323069
,,,,,,,,,150,126.64,0.0353579
,,,,,,,,,32,55.5146,0.0509388
,,,,,,,,,41,52.3861,0.0237168
,,,,,,,,,51,137.454,0.061166
,,,,,,,,,62,137.663,0.0318108
,,,,,,,,,74,89.6033,0.0699462
,,,,,,,,,87,119.781,0.12789
,,,,,,,,,101,67.7383,0.0325754
,,,,,,,,,116,71.325,0.0778764
,,,,,,,,,132,142.548,0.0788442
,,,,,,,,,149,106.809,0.0509667
,,,,,,,,,167,118.918,0.0589982
,,,,,,,,,50,107.901,0.0189693
,,,,,,,,,61,109.066,0.0371727
,,,,,,,,,73,157.42,0.0238161
,,,,,,,,,86,35.8551,0.0402427
,,,,,,,,,100,65.8378,0.0544315
,,,,,,,,,115,102.585,0.0242421
,,,,,,,,,131,77.0133,0.0427472
,,,,,,,,,148,133.255,0.0430372
,,,,,,,,,166,131.438,0.0331421
,,,,,,,,,185,106.041,0.0363608
,,,,,,,,,72,122.452,0.0202289
,,,,,,,,,85,88.0522,0.0154988
,,,,,,,,,99,140.436,0.021105
,,,,,,,,,114,165.191,0.0244471
,,,,,,,,,130,49.7038,0.0156781
,,,,,,,,,147,81.1601,0.021774
,,,,,,,,,165,104.949,0.021849
,,,,,,,,,184,72.4137,0.0189732
,,,,,,,,,204,107.021,0.019986
,,,,,,,,,98,48.3706,0.0258358
,,,,,,,,,113,76.1295,0.0463676
,,,,,,,,,129,72.1478,0.0662723
,,,,,,,,,146,147.714,0.0263379
,,,,,,,,,164,149.455,0.0497242
,,,,,,,,,183,78.731,0.050117
,,,,,,,,,203,110.406,0.0371876
,,,,,,,,,224,103.186,0.0412887
,,,,,,,,,128,123.141,0.0272824
,,,,,,,,,145,102.092,0.0331387
,,,,,,,,,163,99.9273,0.0188484
,,,,,,,,,182,122.276,0.0284108
,,,,,,,,,202,52.2927,0.0285386
,,,,,,,,,223,67.9266,0.0238222
,,,,,,,,,245,83.4506,0.025441
,,,,,,,,,162,39.6786,0.0767046
,,,,,,,,,181,131.891,0.0278429
,,,,,,,,,201,98.1074,0.0553751
,,,,,,,,,222,113.323,0.0558626
,,,,,,,,,244,138.262,0.0402601
,,,,,,,,,267,100.756,0.0451111
,,,,,,,,,200,117.046,0.0339694
,,,,,,,,,221,84.282,0.086347
,,,,,,,,,243,73.9551,0.0875384
,,,,,,,,,266,101.198,0.0544633
,,,,,,,,,290,64.1427,0.0637349
,,,,,,,,,242,35.4286,0.0290192
,,,,,,,,,265,75.0223,0.0291525
,,,,,,,,,289,39.3308,0.0242485
,,,,,,,,,314,60.9359,0.0259277
,,,,,,,,,288,76.2124,0.060808
,,,,,,,,,313,54.7007,0.0427668
,,,,,,,,,339,47.7053,0.048282
,,,,,,,,,338,36.7903,0.043057
,,,,,,,,,365,31.2987,0.0486523
,,,,,,,,,392,37.6671,0.036375
