facetNormals:0,facetNormals:1,facetNormals:2,FacetCenters:0,FacetCenters:1,FacetCenters:2,FacetIds,relFacetSize,absFacetSize,cellPairingIds,interplanarAngles,angleWeights
0.44551,0.608752,-0.605374,6.17137,5.51652,7.99972,1,0.0745274,0.0124272,8,75.801,0.0869987
0.360472,-0.579389,-0.700638,6.19585,5.42775,8.02604,2,0.104483,0.0174221,13,103.962,0.086061
-0.270609,-0.73761,-0.567298,6.09582,5.3851,8.06333,3,0.101818,0.0169778,19,103.988,0.0737471
0.188004,-0.893801,-0.378578,6.14361,5.36399,8.12221,4,0.072983,0.0121696,26,67.915,0.00762355
-0.487892,0.850869,-0.095419,6.09153,5.45249,8.12105,5,0.00401724,0.000669859,34,33.1706,0.0434598
0.140282,0.934031,-0.272035,6.17707,5.53012,8.06425,6,0.0306733,0.00511466,43,148.084,0.0384625
-0.619369,-0.72449,0.118231,6.07919,5.39309,8.14572,7,0.0259196,0.00432199,53,134.042,0.025229
-0.931274,-0.30702,0.100823,6.05235,5.38759,8.14522,8,0.0151846,0.00253198,64,105.217,0.062008
0.626519,-0.691698,0.162809,6.22285,5.3803,8.14001,9,0.0530897,0.0088525,76,84.9763,0.0367523
0.839524,0.0347057,0.514854,6.24393,5.4486,8.13369,10,0.02439,0.00406693,89,75.0199,0.0586676
0.095558,0.812385,0.492842,6.18353,5.50874,8.12426,11,0.0483734,0.00806607,103,74.8217,0.0367139
0.726063,0.40225,0.527425,6.24223,5.4608,8.12481,12,0.0243562,0.0040613,118,128.223,0.0525694
-0.765417,0.159725,0.532549,6.07826,5.41661,8.17101,13,0.0406057,0.00677084,134,96.8067,0.0631844
0.198505,0.494638,0.830322,6.1702,5.44416,8.17757,14,0.0548381,0.00914403,151,112.766,0.0848749
0.376148,0.0183822,0.896507,6.14208,5.39433,8.20144,15,0.0985589,0.0164343,18,39.8831,0.103133
,,,,,,,,,25,28.366,0.0859372
,,,,,,,,,33,128.654,0.007737
,,,,,,,,,42,108.185,0.0474242
,,,,,,,,,52,83.0503,0.0415353
,,,,,,,,,63,103.708,0.0265157
,,,,,,,,,75,56.4149,0.0704052
,,,,,,,,,88,94.6546,0.039548
,,,,,,,,,102,146.801,0.0661299
,,,,,,,,,117,110.757,0.0395036
,,,,,,,,,133,143.273,0.0584829
,,,,,,,,,150,145.66,0.0719257
,,,,,,,,,168,121.945,0.101434
,,,,,,,,,32,30.7812,0.0850222
,,,,,,,,,41,117.533,0.00772951
,,,,,,,,,51,126.951,0.0471442
,,,,,,,,,62,46.9878,0.0413204
,,,,,,,,,74,63.8323,0.0264279
,,,,,,,,,87,74.3083,0.0697898
,,,,,,,,,101,124.789,0.0393531
,,,,,,,,,116,167.833,0.0655868
,,,,,,,,,132,146.247,0.0393091
,,,,,,,,,149,103.422,0.0580576
,,,,,,,,,167,158.497,0.0712836
,,,,,,,,,186,131.462,0.100162
,,,,,,,,,50,146.889,0.0076153
,,,,,,,,,61,136.548,0.0431933
,,,,,,,,,73,59.1928,0.0382536
,,,,,,,,,86,86.402,0.0251389
,,,,,,,,,100,43.9456,0.0614669
,,,,,,,,,115,94.0079,0.0365615
,,,,,,,,,131,161.37,0.0581829
,,,,,,,,,148,115.768,0.0365236
,,,,,,,,,166,121.468,0.0521799
,,,,,,,,,185,137.491,0.0626226
,,,,,,,,,205,107.251,0.0838643
,,,,,,,,,72,39.0465,0.00710407
,,,,,,,,,85,110.118,0.00695633
,,,,,,,,,99,79.111,0.00635358
,,,,,,,,,114,167.029,0.00746928
,,,,,,,,,130,116.229,0.00689827
,,,,,,,,,147,50.5808,0.0074184
,,,,,,,,,165,93.686,0.00689692
,,,,,,,,,184,60.5384,0.00731116
,,,,,,,,,204,75.418,0.00748607
,,,,,,,,,225,105.335,0.00771982
,,,,,,,,,98,147.449,0.0280968
,,,,,,,,,113,117.33,0.0203133
,,,,,,,,,129,130.317,0.038882
,,,,,,,,,146,89.4009,0.0271731
,,,,,,,,,164,47.1695,0.0375417
,,,,,,,,,183,69.78,0.0271522
,,,,,,,,,203,96.3632,0.0349475
,,,,,,,,,224,74.2048,0.0393413
,,,,,,,,,246,100.486,0.046786
,,,,,,,,,128,31.0452,0.0191503
,,,,,,,,,145,81.6375,0.034833
,,,,,,,,,163,120.773,0.0251315
,,,,,,,,,182,129.992,0.0337534
,,,,,,,,,202,135.94,0.0251136
,,,,,,,,,223,62.3747,0.0316416
,,,,,,,,,245,113.847,0.0352011
,,,,,,,,,268,98.6396,0.041045
,,,,,,,,,162,112.322,0.023615
,,,,,,,,,181,139.675,0.0187167
,,,,,,,,,201,107.86,0.0231138
,,,,,,,,,222,140.357,0.0187067
,,,,,,,,,244,39.7037,0.0221036
,,,,,,,,,267,105.078,0.0237836
,,,,,,,,,291,106.084,0.026315
,,,,,,,,,200,51.1349,0.0334244
,,,,,,,,,221,117.791,0.0506219
,,,,,,,,,243,73.6334,0.0333927
,,,,,,,,,266,124.167,0.046016
,,,,,,,,,290,95.0691,0.0539497
,,,,,,,,,315,66.3928,0.0690077
,,,,,,,,,242,67.3664,0.0324291
,,,,,,,,,265,22.5446,0.0243731
,,,,,,,,,289,112.906,0.030475
,,,,,,,,,314,51.0434,0.0337633
,,,,,,,,,340,35.7174,0.0391032
,,,,,,,,,288,45.6854,0.0323992
,,,,,,,,,313,69.3181,0.0441505
,,,,,,,,,339,28.2493,0.0514033
,,,,,,,,,366,57.9549,0.0648956
,,,,,,,,,338,103.084,0.0304486
,,,,,,,,,365,36.3979,0.0337309
,,,,,,,,,393,38.0218,0.0390598
,,,,,,,,,392,66.697,0.0466607
,,,,,,,,,421,77.9237,0.0575154
,,,,,,,,,450,30.3254,0.0704679
