Q	U	V
{$V$}	{[mm$^3$]}	0.00564275
{$d_v$}	{[mm]}	0.220884
{$S_c$}	{[mm$^2$]}	0.230591
{$S_o$}	{[mm$^2$]}	0.153139
{$S_l/S_o$}	[]	0.505763
{$\Psi$}	[]	0.664715
{$\eta$}	[]	0.698067
{med($\theta_e$)}	{[$^\circ$]}	55.0321
{$\Upsilon$}	[]	14
{$\Xi$}	[]	8
