facetNormals:0,facetNormals:1,facetNormals:2,FacetCenters:0,FacetCenters:1,FacetCenters:2,FacetIds,relFacetSize,absFacetSize,cellPairingIds,interplanarAngles,angleWeights
-0.375272,0.345419,-0.833723,6.77039,5.37982,8.42845,1,0.0759703,0.00548258,8,38.8173,0.0360235
-0.863691,0.116388,-0.465445,6.74146,5.37312,8.44556,2,0.0236092,0.00170382,13,34.7873,0.0444992
-0.114891,0.789593,-0.559262,6.79684,5.41131,8.44032,3,0.0314648,0.00227073,19,101.605,0.0177381
0.956142,0.263246,-0.0865462,6.90365,5.33943,8.53854,4,0.0100413,0.000724653,26,79.9634,0.0966232
0.540533,0.77848,-0.115837,6.838,5.40507,8.49137,5,0.132698,0.00957643,34,81.2342,0.0968414
-0.892939,-0.358179,0.0810396,6.75024,5.34262,8.48984,6,0.133524,0.00963606,43,148.052,0.00717101
0.747904,-0.463282,0.458042,6.88935,5.2719,8.55004,7,0.00376311,0.000271574,53,131.8,0.05248
0.851584,0.159896,0.44349,6.90226,5.31977,8.56424,8,0.0400854,0.00289286,64,103.432,0.0303755
0.412547,0.804136,0.4187,6.83067,5.4053,8.53081,9,0.0189827,0.00136993,76,120.949,0.10372
-0.56357,-0.442374,0.656054,6.8045,5.30923,8.55475,10,0.163407,0.0117927,89,116.022,0.0984395
0.0393015,0.616375,0.729126,6.81066,5.38998,8.5527,11,0.139782,0.0100877,103,109.117,0.0335699
-0.597486,0.234219,0.742862,6.76691,5.38012,8.55333,12,0.0215452,0.00155486,18,62.0353,0.0269768
,,,,,,,,,25,140.132,0.01409
,,,,,,,,,33,109.98,0.0400864
,,,,,,,,,42,43.5116,0.0401239
,,,,,,,,,52,158.708,0.00649152
,,,,,,,,,63,163.76,0.0297163
,,,,,,,,,75,117.71,0.0210447
,,,,,,,,,88,82.2213,0.0412575
,,,,,,,,,102,108.629,0.0403956
,,,,,,,,,117,78.2482,0.02253
,,,,,,,,,32,81.3188,0.0152241
,,,,,,,,,41,48.4256,0.0508679
,,,,,,,,,51,103.872,0.0509283
,,,,,,,,,62,137.093,0.00672225
,,,,,,,,,74,103.389,0.0352558
,,,,,,,,,87,68.6477,0.0236796
,,,,,,,,,101,133.49,0.0527687
,,,,,,,,,116,85.4169,0.0513669
,,,,,,,,,132,99.7428,0.0255769
,,,,,,,,,50,39.6545,0.0186698
,,,,,,,,,61,173.558,0.018678
,,,,,,,,,73,55.9045,0.00547455
,,,,,,,,,86,32.4208,0.0160597
,,,,,,,,,100,54.918,0.0131347
,,,,,,,,,115,137.42,0.01892
,,,,,,,,,131,81.7356,0.0187366
,,,,,,,,,148,125.964,0.0136984
,,,,,,,,,72,146.744,0.133109
,,,,,,,,,85,90.5716,0.00731867
,,,,,,,,,99,54.9735,0.0615713
,,,,,,,,,114,32.6782,0.0332141
,,,,,,,,,130,141.412,0.14646
,,,,,,,,,147,62.8294,0.136147
,,,,,,,,,165,103.995,0.0370713
,,,,,,,,,98,119.034,0.00731992
,,,,,,,,,113,146.287,0.0616598
,,,,,,,,,129,130.335,0.0332398
,,,,,,,,,146,40.346,0.146962
,,,,,,,,,164,102.315,0.136581
,,,,,,,,,183,57.4594,0.0371034
,,,,,,,,,128,37.4979,0.00688031
,,,,,,,,,145,82.5683,0.00628107
,,,,,,,,,163,85.0018,0.0073568
,,,,,,,,,182,85.2909,0.00732891
,,,,,,,,,202,102.763,0.00640714
,,,,,,,,,162,46.6464,0.0257645
,,,,,,,,,181,105.941,0.0643782
,,,,,,,,,201,60.6855,0.0623039
,,,,,,,,,222,98.5406,0.0280266
,,,,,,,,,200,108.907,0.0340141
,,,,,,,,,221,30.8474,0.0334261
,,,,,,,,,243,75.0113,0.0201829
,,,,,,,,,242,78.5969,0.150674
,,,,,,,,,265,40.9321,0.0380707
,,,,,,,,,288,45.067,0.0373356
