facetNormals:0,facetNormals:1,facetNormals:2,FacetCenters:0,FacetCenters:1,FacetCenters:2,FacetIds,relFacetSize,absFacetSize,cellPairingIds,interplanarAngles,angleWeights
-0.589094,-0.0726725,-0.739049,5.82465,6.25967,9.33232,1,0.0834828,0.0290293,8,72.2621,0.0884368
0.467405,-0.384702,-0.694847,5.91007,6.24387,9.37097,2,0.0940157,0.0326918,13,76.7371,0.0712619
0.220571,0.735828,-0.521351,5.92495,6.37801,9.37229,3,0.0621621,0.0216155,19,41.7704,0.0358176
-0.958468,-0.156636,-0.162541,5.76974,6.26417,9.45481,4,0.0227998,0.00792811,26,114.625,0.0690734
0.29044,0.89596,0.194341,5.90385,6.40576,9.49863,5,0.058906,0.0204832,34,131.983,0.102507
0.577132,-0.597156,0.383475,5.9223,6.23867,9.49057,6,0.132762,0.0461648,43,67.5188,0.0500335
-0.873209,-0.368789,0.25135,5.77915,6.23643,9.48326,7,0.035721,0.0124212,53,76.8616,0.0642717
-0.866888,0.157654,0.394092,5.76533,6.3176,9.51263,8,0.0522483,0.0181682,64,104.692,0.0443944
0.0159777,-0.884869,0.3887,5.86601,6.2123,9.49916,9,0.0302368,0.0105142,76,152.581,0.072766
0.736513,0.39016,0.456464,5.97553,6.34745,9.47553,10,0.0644876,0.0224241,89,103.033,0.0650406
-0.392964,0.715035,0.52327,5.8148,6.35718,9.52445,11,0.0532722,0.0185242,103,113.725,0.0368491
-0.393727,-0.288975,0.846637,5.8345,6.25389,9.54477,12,0.0236424,0.00822111,118,139.535,0.043878
-0.023793,0.2247,0.944886,5.89883,6.29648,9.54291,13,0.0297598,0.0103483,18,77.6987,0.0748405
,,,,,,,,,25,107.627,0.0366996
,,,,,,,,,33,112.836,0.0724304
,,,,,,,,,42,73.9527,0.110079
,,,,,,,,,52,119.202,0.0517716
,,,,,,,,,63,146.258,0.0671684
,,,,,,,,,75,84.99,0.0457574
,,,,,,,,,88,98.0752,0.0765012
,,,,,,,,,102,157.016,0.0680086
,,,,,,,,,117,137.223,0.0377833
,,,,,,,,,133,147.382,0.0452091
,,,,,,,,,32,105.346,0.0333628
,,,,,,,,,41,45.8389,0.0604903
,,,,,,,,,51,127.081,0.0846767
,,,,,,,,,62,130.81,0.0453703
,,,,,,,,,74,108.253,0.0567757
,,,,,,,,,87,161.344,0.0406842
,,,,,,,,,101,76.1248,0.0633035
,,,,,,,,,116,79.327,0.0573749
,,,,,,,,,132,144.733,0.0342561
,,,,,,,,,149,111.634,0.0402501
,,,,,,,,,50,118.393,0.0328751
,,,,,,,,,61,125.414,0.0389163
,,,,,,,,,73,27.8421,0.0278339
,,,,,,,,,86,38.6637,0.0317463
,,,,,,,,,100,86.3793,0.0259969
,,,,,,,,,115,154.028,0.0336888
,,,,,,,,,131,79.1544,0.0319328
,,,,,,,,,148,72.7736,0.0232135
,,,,,,,,,166,99.991,0.025819
,,,,,,,,,72,109.447,0.0816043
,,,,,,,,,85,124.575,0.0444732
,,,,,,,,,99,92.0953,0.0553778
,,,,,,,,,114,140.05,0.0399613
,,,,,,,,,130,44.4678,0.0615705
,,,,,,,,,147,47.6294,0.0559476
,,,,,,,,,165,102.83,0.0337421
,,,,,,,,,184,66.1329,0.0395424
,,,,,,,,,98,102.055,0.0562952
,,,,,,,,,113,120.14,0.0749859
,,,,,,,,,129,39.0473,0.0492556
,,,,,,,,,146,65.0175,0.0868087
,,,,,,,,,164,120.734,0.0760346
,,,,,,,,,183,72.423,0.0401371
,,,,,,,,,203,76.0375,0.0486208
,,,,,,,,,128,32.5476,0.0424321
,,,,,,,,,145,64.3664,0.0327509
,,,,,,,,,163,136.172,0.0459753
,,,,,,,,,182,77.1766,0.0427659
,,,,,,,,,202,46.2196,0.0284529
,,,,,,,,,223,79.3908,0.0324691
,,,,,,,,,162,90.0105,0.0383057
,,,,,,,,,181,115.652,0.0577263
,,,,,,,,,201,45.1687,0.0527553
,,,,,,,,,222,48.1515,0.0325541
,,,,,,,,,244,62.8149,0.0379206
,,,,,,,,,200,99.7809,0.04117
,,,,,,,,,221,117.705,0.0385775
,,,,,,,,,243,52.2426,0.0265361
,,,,,,,,,266,79.6903,0.0299964
,,,,,,,,,242,75.6422,0.0583458
,,,,,,,,,265,91.0038,0.0345998
,,,,,,,,,289,57.1015,0.0407255
,,,,,,,,,288,65.6169,0.0327502
,,,,,,,,,313,45.1223,0.038187
,,,,,,,,,338,38.3772,0.0263507
