Q	U	V
{$V$}	{[mm$^3$]}	0.00474147
{$d_v$}	{[mm]}	0.208435
{$S_c$}	{[mm$^2$]}	0.294615
{$S_o$}	{[mm$^2$]}	0.16018
{$S_l/S_o$}	[]	0.839275
{$\Psi$}	[]	0.463274
{$\eta$}	[]	0.514780
{med($\theta_e$)}	{[$^\circ$]}	79.24005
{$\Upsilon$}	[]	13
{$\Xi$}	[]	9
