"cellPairingIds","interplanarAngles","angleWeights"
13,56.6763,0.0415823
34,88.045,0.0667702
43,72.8754,0.0455731
76,103.062,0.0458914
32,25.4318,0.0324796
41,30.3586,0.0516169
51,51.9936,0.0685535
62,121.764,0.0463969
50,31.25,0.0377316
61,41.7606,0.0460476
86,67.0217,0.0386901
148,54.6653,0.0311268
166,122.493,0.0385023
185,112.224,0.0348994
85,113.348,0.057912
99,44.1306,0.0692935
146,130.019,0.0811093
224,91.8281,0.0803059
128,92.2954,0.060201
163,46.172,0.0518267
182,37.1846,0.0446031
223,65.606,0.0597477
244,62.852,0.0719382
242,35.8828,0.0449079
289,59.0634,0.060296
314,60.7169,0.0519043
313,30.9054,0.0507363
338,75.9789,0.0495514
365,61.3412,0.0437399
392,52.658,0.0598509
