facetNormals:0,facetNormals:1,facetNormals:2,FacetCenters:0,FacetCenters:1,FacetCenters:2,FacetIds,relFacetSize,absFacetSize,cellPairingIds,interplanarAngles,angleWeights
-0.347715,-0.400736,-0.806981,3.53937,5.64832,5.68703,1,0.145441,0.0334631,8,61.972,0.0536953
0.630982,-0.260863,-0.687065,3.66403,5.67498,5.70066,2,0.0329256,0.00757553,13,80.5001,0.127606
0.515282,0.463881,-0.638566,3.64977,5.75144,5.70018,3,0.113668,0.0261527,19,109.715,0.0683084
0.919558,0.114233,-0.0775357,3.6873,5.68259,5.74322,4,0.0446362,0.0102699,26,60.2813,0.0465755
-0.294377,-0.915722,0.0108709,3.53867,5.58198,5.75225,5,0.0277274,0.00637954,34,48.6172,0.0432699
-0.773458,-0.577821,-0.153188,3.47874,5.64205,5.74747,6,0.0254156,0.00584764,43,73.4844,0.0521337
0.434202,-0.87367,-0.086458,3.6322,5.58706,5.74379,7,0.0317588,0.00730709,53,121.135,0.116606
0.142147,0.912989,0.0582653,3.61464,5.78244,5.74529,8,0.0973133,0.0223899,64,113.513,0.124736
0.565928,-0.570193,0.488129,3.65953,5.64625,5.79969,9,0.109191,0.0251227,76,92.2121,0.043788
-0.618347,-0.489885,0.554243,3.51049,5.59854,5.76903,10,0.0257739,0.00593007,89,128.017,0.0429765
-0.482498,0.24496,0.795255,3.58912,5.68294,5.78373,11,0.0252135,0.00580112,103,177.638,0.0942667
0.307287,0.412906,0.790213,3.59489,5.65418,5.72315,12,0.0697314,0.0160438,118,139.542,0.0505714
0.174681,-0.235757,0.928554,3.59448,5.61105,5.78649,13,0.0306069,0.00704205,18,45.2427,0.0510606
,,,,,,,,,25,47.9131,0.0378968
,,,,,,,,,33,87.191,0.0301037
,,,,,,,,,42,104.186,0.0286872
,,,,,,,,,52,53.7276,0.0323317
,,,,,,,,,63,102.134,0.0492034
,,,,,,,,,75,79.2104,0.0505947
,,,,,,,,,88,133.528,0.0289141
,,,,,,,,,102,169.045,0.028558
,,,,,,,,,117,120.001,0.0447304
,,,,,,,,,133,119.624,0.0317239
,,,,,,,,,32,48.8861,0.0641007
,,,,,,,,,41,130.049,0.0445802
,,,,,,,,,51,128.118,0.0415425
,,,,,,,,,62,97.8651,0.0496464
,,,,,,,,,74,58.2231,0.104857
,,,,,,,,,87,108.735,0.111384
,,,,,,,,,101,171.942,0.0420199
,,,,,,,,,116,135.152,0.0412721
,,,,,,,,,132,100.024,0.0864367
,,,,,,,,,149,131.841,0.0482277
,,,,,,,,,50,114.868,0.0342063
,,,,,,,,,61,147.353,0.0323891
,,,,,,,,,73,70.3557,0.0371122
,,,,,,,,,86,74.4706,0.0612006
,,,,,,,,,100,61.475,0.0633681
,,,,,,,,,115,138.125,0.0326785
,,,,,,,,,131,122.256,0.0322244
,,,,,,,,,148,72.1727,0.0544305
,,,,,,,,,166,86.0928,0.0363136
,,,,,,,,,72,36.5762,0.0265212
,,,,,,,,,85,44.5622,0.0296065
,,,,,,,,,99,170.075,0.0431579
,,,,,,,,,114,66.4808,0.0442246
,,,,,,,,,130,46.6484,0.026715
,,,,,,,,,147,94.5644,0.0264107
,,,,,,,,,165,120.468,0.0396777
,,,,,,,,,184,79.2603,0.0290961
,,,,,,,,,98,79.0278,0.0282354
,,,,,,,,,113,135.582,0.0403047
,,,,,,,,,129,101.489,0.0412336
,,,,,,,,,146,44.1332,0.0255935
,,,,,,,,,164,83.2926,0.0253141
,,,,,,,,,183,130.386,0.0372532
,,,,,,,,,203,98.5257,0.0277707
,,,,,,,,,128,144.799,0.0478889
,,,,,,,,,145,40.3491,0.0492059
,,,,,,,,,163,83.2133,0.0284551
,,,,,,,,,182,121.501,0.0281102
,,,,,,,,,202,108.667,0.0436414
,,,,,,,,,223,77.8012,0.0311722
,,,,,,,,,162,118.232,0.102911
,,,,,,,,,181,124.289,0.0407539
,,,,,,,,,201,76.9295,0.0400501
,,,,,,,,,222,57.6879,0.0812452
,,,,,,,,,244,98.696,0.0465675
,,,,,,,,,200,77.2557,0.0417038
,,,,,,,,,221,91.5556,0.0409671
,,,,,,,,,243,68.5495,0.0851099
,,,,,,,,,266,41.4118,0.0478118
,,,,,,,,,242,48.1184,0.0254906
,,,,,,,,,265,87.12,0.0376367
,,,,,,,,,289,56.2121,0.0279833
,,,,,,,,,288,50.147,0.0370356
,,,,,,,,,313,50.4535,0.0276496
,,,,,,,,,338,41.2851,0.0425413
