facetNormals:0,facetNormals:1,facetNormals:2,FacetCenters:0,FacetCenters:1,FacetCenters:2,FacetIds,relFacetSize,absFacetSize,cellPairingIds,interplanarAngles,angleWeights
-0.855726,-0.26569,-0.431894,4.81872,7.72138,7.09418,1,0.00766563,0.00148576,8,96.7509,0.0148095
0.478217,-0.78891,-0.206266,5.02328,7.66214,7.21312,2,0.217563,0.0421682,13,152.001,0.0138436
0.966302,0.119767,-0.00815326,5.12644,7.77521,7.24072,3,0.071335,0.0138262,19,32.3936,0.0138907
-0.739389,-0.604835,-0.0210747,4.86782,7.6587,7.16664,4,0.0739187,0.014327,26,128.808,0.0142572
0.248758,0.864178,0.390705,5.0495,7.85077,7.28021,5,0.101751,0.0197214,34,65.3574,0.0145063
-0.802689,0.242692,0.502381,4.92636,7.74982,7.27778,6,0.1348,0.026127,43,150.901,0.0130627
0.654552,-0.104502,0.683664,5.09949,7.74715,7.33606,7,0.0441403,0.0085553,53,83.5568,0.0129997
-0.259396,-0.659048,0.667799,4.9196,7.645,7.24902,8,0.0427393,0.00828375,64,93.2325,0.0139288
-0.37657,-0.00906357,0.875458,4.96923,7.73127,7.30764,9,0.0761322,0.014756,18,66.3466,0.107442
,,,,,,,,,25,81.8583,0.110346
,,,,,,,,,33,133.96,0.138655
,,,,,,,,,42,137.284,0.166462
,,,,,,,,,52,73.5807,0.0733908
,,,,,,,,,63,73.7087,0.0714438
,,,,,,,,,75,113.103,0.112794
,,,,,,,,,32,147.736,0.0726039
,,,,,,,,,41,69.0933,0.0838705
,,,,,,,,,51,142.058,0.0932976
,,,,,,,,,62,48.4993,0.0545355
,,,,,,,,,74,110.699,0.053453
,,,,,,,,,87,113.639,0.0736556
,,,,,,,,,50,139.733,0.08563
,,,,,,,,,61,62.1653,0.0954801
,,,,,,,,,73,118.573,0.055274
,,,,,,,,,86,51.7102,0.0541623
,,,,,,,,,100,73.0513,0.0750091
,,,,,,,,,72,77.5681,0.115967
,,,,,,,,,85,68.6684,0.0615708
,,,,,,,,,99,113.014,0.0601946
,,,,,,,,,114,75.0834,0.0870968
,,,,,,,,,98,102.868,0.0665039
,,,,,,,,,113,66.2163,0.0649012
,,,,,,,,,129,37.4241,0.0973072
,,,,,,,,,128,67.4393,0.0434285
,,,,,,,,,145,67.1111,0.0558814
,,,,,,,,,162,42.1072,0.0547454
