Q	U	V
{$V$}	{[mm$^3$]}	0.00897116
{$d_v$}	{[mm]}	0.257800
{$S_c$}	{[mm$^2$]}	0.293083
{$S_o$}	{[mm$^2$]}	0.205721
{$S_l/S_o$}	[]	0.424663
{$\Psi$}	[]	0.712403
{$\eta$}	[]	0.746771
{med($\theta_e$)}	{[$^\circ$]}	57.4704
{$\Upsilon$}	[]	15
{$\Xi$}	[]	11
