Q	U	V
{$V$}	{[mm$^3$]}	0.00520458
{$d_v$}	{[mm]}	0.215012
{$S_c$}	{[mm$^2$]}	0.209761
{$S_o$}	{[mm$^2$]}	0.144353
{$S_l/S_o$}	[]	0.453111
{$\Psi$}	[]	0.692388
{$\eta$}	[]	0.714375
{med($\theta_e$)}	{[$^\circ$]}	59.4991
{$\Upsilon$}	[]	13
{$\Xi$}	[]	10
