"cellPairingIds","interplanarAngles","angleWeights"
8,40.9614,0.047248
13,31.1864,0.0247084
43,117.554,0.0337876
18,55.6591,0.0395297
42,51.9537,0.127264
52,124.546,0.0693386
88,137.64,0.16292
51,83.4765,0.0368122
62,140.113,0.0296479
87,82.9231,0.0340843
101,166.223,0.0393002
129,51.38,0.0840385
146,107.849,0.124915
163,35.132,0.0686354
200,97.8821,0.0982356
