Q	U	V
{$V$}	{[mm$^3$]}	0.0122556
{$d_v$}	{[mm]}	0.286052
{$S_c$}	{[mm$^2$]}	0.456387
{$S_o$}	{[mm$^2$]}	0.296725
{$S_l/S_o$}	[]	0.538081
{$\Psi$}	[]	0.563258
{$\eta$}	[]	0.593729
{med($\theta_e$)}	{[$^\circ$]}	57.0434
{$\Upsilon$}	[]	13
{$\Xi$}	[]	18
