facetNormals:0,facetNormals:1,facetNormals:2,FacetCenters:0,FacetCenters:1,FacetCenters:2,FacetIds,relFacetSize,absFacetSize,cellPairingIds,interplanarAngles,angleWeights
-0.0150571,-0.424253,-0.867063,4.89623,5.80241,8.6906,1,0.0583912,0.00813843,8,44.4539,0.0333177
-0.485071,0.148821,-0.853663,4.87268,5.78555,8.67085,2,0.0233088,0.00324872,13,50.7331,0.0728314
0.48929,0.232023,-0.806785,4.96719,5.87074,8.69983,3,0.0967602,0.0134862,19,54.9012,0.0764821
-0.0992977,0.469079,-0.855832,4.89149,5.86915,8.67217,4,0.110815,0.0154452,26,42.3898,0.0322706
-0.669346,-0.249637,-0.673768,4.82346,5.80163,8.66817,5,0.0222965,0.00310764,34,79.4511,0.0499897
-0.741257,0.473521,-0.417269,4.80841,5.85823,8.70761,6,0.0437018,0.00609106,43,35.0798,0.0303536
-0.236597,-0.812287,-0.488695,4.89489,5.85109,8.72639,7,0.0205069,0.0028582,53,39.3329,0.06252
0.54929,-0.567018,-0.571356,4.91674,5.81399,8.68555,8,0.067277,0.00937692,64,58.3608,0.0436932
-0.468131,-0.82685,-0.149044,4.87086,5.82732,8.72574,9,0.0349066,0.0048652,76,135.154,0.0790307
-0.123907,0.892539,0.320414,4.91135,5.93847,8.77609,10,0.122238,0.0170372,89,115.576,0.0739432
-0.83193,0.370158,0.293131,4.8235,5.87567,8.75479,11,0.100787,0.0140475,103,90.1389,0.0379888
0.114597,-0.862195,0.422493,4.94631,5.89214,8.7809,12,0.0281522,0.00392379,118,147.036,0.0221299
0.548676,0.383359,0.723955,4.97701,5.91749,8.81165,13,0.0136519,0.00190278,18,59.7635,0.0375678
,,,,,,,,,25,29.4192,0.0385161
,,,,,,,,,33,27.7909,0.0227914
,,,,,,,,,42,35.5864,0.0304022
,,,,,,,,,52,64.9342,0.0218182
,,,,,,,,,63,81.8666,0.0346223
,,,,,,,,,75,75.9881,0.0279524
,,,,,,,,,88,94.8679,0.0391519
,,,,,,,,,102,77.3275,0.0378614
,,,,,,,,,117,124.549,0.0255026
,,,,,,,,,133,147.644,0.0172188
,,,,,,,,,32,38.0397,0.103312
,,,,,,,,,41,80.4588,0.0362419
,,,,,,,,,51,84.9162,0.0602098
,,,,,,,,,62,84.5579,0.0338416
,,,,,,,,,74,50.8242,0.079369
,,,,,,,,,87,108.767,0.0513048
,,,,,,,,,101,96.9249,0.108017
,,,,,,,,,116,126.868,0.0987326
,,,,,,,,,132,121.066,0.0436148
,,,,,,,,,149,103.686,0.0239279
,,,,,,,,,50,56.9054,0.0371236
,,,,,,,,,61,46.8769,0.0626834
,,,,,,,,,73,86.3686,0.0346092
,,,,,,,,,86,79.8503,0.0837242
,,,,,,,,,100,103.098,0.0530899
,,,,,,,,,115,80.3818,0.116247
,,,,,,,,,131,89.672,0.105563
,,,,,,,,,148,145.039,0.0448982
,,,,,,,,,166,120.73,0.0243091
,,,,,,,,,72,46.4162,0.029528
,,,,,,,,,85,43.9792,0.0213643
,,,,,,,,,99,80.4453,0.033493
,,,,,,,,,114,48.956,0.0272117
,,,,,,,,,130,112.26,0.037714
,,,,,,,,,147,73.4905,0.0365151
,,,,,,,,,165,98.8528,0.0248845
,,,,,,,,,184,169.098,0.0169349
,,,,,,,,,98,90.3216,0.0279149
,,,,,,,,,113,117.444,0.0529854
,,,,,,,,,129,88.919,0.0388122
,,,,,,,,,146,65.8597,0.064385
,,,,,,,,,164,44.0239,0.0609677
,,,,,,,,,183,135.332,0.0342445
,,,,,,,,,203,123.319,0.0208047
,,,,,,,,,128,50.1714,0.0314327
,,,,,,,,,145,24.4801,0.0258358
,,,,,,,,,163,155.795,0.0351217
,,,,,,,,,182,105.33,0.0340797
,,,,,,,,,202,60.3924,0.0237289
,,,,,,,,,223,145.616,0.0163916
,,,,,,,,,162,71.5352,0.0459645
,,,,,,,,,181,144.338,0.0867879
,,,,,,,,,201,153.511,0.0806913
,,,,,,,,,222,70.7654,0.0396943
,,,,,,,,,244,110.063,0.022698
,,,,,,,,,200,142.296,0.0543055
,,,,,,,,,221,87.527,0.051854
,,,,,,,,,243,50.1215,0.0311677
,,,,,,,,,266,135.965,0.0196276
,,,,,,,,,242,54.7971,0.110481
,,,,,,,,,265,134.516,0.0457646
,,,,,,,,,289,57.536,0.0245608
,,,,,,,,,288,108.313,0.0440111
,,,,,,,,,313,96.2296,0.0240467
,,,,,,,,,338,87.7029,0.0183873
