"cellPairingIds","interplanarAngles","angleWeights"
8,54.617,0.0637272
13,58.2817,0.0443389
19,62.4886,0.121818
26,86.4257,0.0660054
43,80.3711,0.110547
25,38.9646,0.0590735
33,39.8099,0.0418947
32,40.8742,0.0420349
62,100.119,0.0406064
116,108.899,0.031952
167,79.215,0.0392095
186,101.576,0.0222532
50,71.5415,0.061026
100,48.9406,0.0341924
205,90.2532,0.0326875
85,131.852,0.0580606
99,38.0768,0.051849
114,38.9023,0.0276338
130,103.532,0.0169518
184,67.2283,0.0367822
163,51.5259,0.0189084
182,49.9188,0.0562138
181,67.8331,0.0181984
244,36.4466,0.0432038
243,38.1552,0.0208962
266,65.522,0.0249707
315,59.4381,0.0198437
242,38.5421,0.0167907
289,60.1895,0.0159108
367,49.9755,0.0137541
339,51.292,0.0535716
394,33.2084,0.02659
338,28.0486,0.0257367
393,32.1017,0.0203244
421,36.5106,0.0241585
451,46.6912,0.0244489
450,41.0285,0.0309531
481,35.4215,0.0314315
512,41.4181,0.0195128
