facetNormals:0,facetNormals:1,facetNormals:2,FacetCenters:0,FacetCenters:1,FacetCenters:2,FacetIds,relFacetSize,absFacetSize,cellPairingIds,interplanarAngles,angleWeights
-0.154309,-0.374856,-0.880073,5.51047,7.34375,9.28486,1,0.0173488,0.00490835,8,74.2049,0.031741
0.254446,0.681972,-0.622033,5.66036,7.39381,9.33967,2,0.186249,0.0526938,13,56.7307,0.00995493
-0.890646,-0.0717537,-0.406053,5.48735,7.36633,9.3557,3,0.00698009,0.00197481,19,89.0253,0.0276157
-0.508485,0.757698,-0.251301,5.56591,7.4394,9.41309,4,0.0676506,0.0191398,26,60.512,0.0093599
0.686988,-0.582098,-0.408345,5.7489,7.25913,9.326,5,0.00640875,0.00181317,34,48.4956,0.0135237
0.174006,-0.886273,-0.363289,5.75941,7.26176,9.34896,6,0.0110806,0.00313494,43,58.3579,0.0158117
-0.767178,-0.575129,-0.184478,5.48947,7.32859,9.36645,7,0.0145248,0.00410937,53,109.44,0.022158
0.964605,0.0597882,0.164637,5.78243,7.34688,9.42493,8,0.0306561,0.00867324,64,100.119,0.0180773
0.884033,-0.387177,0.200577,5.74712,7.35075,9.45606,9,0.0188695,0.00533858,76,128.396,0.026585
-0.112615,0.913574,0.290701,5.61671,7.45303,9.46867,10,0.056852,0.0160846,89,105.739,0.0260566
-0.8599,0.0817052,0.400289,5.50493,7.37125,9.43279,11,0.0523142,0.0148008,103,93.5896,0.0309159
-0.216957,-0.811698,0.449455,5.62667,7.31797,9.4708,12,0.141825,0.0401253,118,151.812,0.0233734
0.568738,0.399373,0.660698,5.73611,7.37108,9.47906,13,0.035808,0.0101308,134,136.739,0.0209133
-0.552527,0.324216,0.749038,5.50592,7.36919,9.41726,14,0.0263212,0.00744681,151,142.599,0.0256852
0.547479,-0.105078,0.805637,5.69068,7.37735,9.51819,15,0.0494436,0.0139886,18,91.4011,0.0134559
,,,,,,,,,25,53.1356,0.0992507
,,,,,,,,,33,88.0731,0.0123911
,,,,,,,,,42,111.008,0.0209168
,,,,,,,,,52,120.371,0.0269481
,,,,,,,,,63,78.7079,0.0526467
,,,,,,,,,75,99.9988,0.0342673
,,,,,,,,,88,63.4201,0.087113
,,,,,,,,,102,116.876,0.0816846
,,,,,,,,,117,166.829,0.16103
,,,,,,,,,133,89.6194,0.0600676
,,,,,,,,,150,114.104,0.046124
,,,,,,,,,168,117.524,0.0781427
,,,,,,,,,32,57.3948,0.0126545
,,,,,,,,,41,114.622,0.00668223
,,,,,,,,,51,86.6321,0.00856486
,,,,,,,,,62,33.4633,0.00942897
,,,,,,,,,74,165.194,0.0113711
,,,,,,,,,87,150.379,0.0101906
,,,,,,,,,101,95.0437,0.0124336
,,,,,,,,,116,50.2507,0.0123168
,,,,,,,,,132,85.7706,0.0133053
,,,,,,,,,149,148.621,0.0116828
,,,,,,,,,167,80.1977,0.0110341
,,,,,,,,,186,147.085,0.0122332
,,,,,,,,,50,137.303,0.0117083
,,,,,,,,,61,136.531,0.0190423
,,,,,,,,,73,89.9576,0.023915
,,,,,,,,,86,121.625,0.0421925
,,,,,,,,,100,148.243,0.0295084
,,,,,,,,,115,42.2375,0.061783
,,,,,,,,,131,63.7477,0.0590021
,,,,,,,,,148,133.225,0.0916054
,,,,,,,,,166,99.6814,0.0468291
,,,,,,,,,185,68.7324,0.0378974
,,,,,,,,,205,127.187,0.0571316
,,,,,,,,,72,35.4814,0.0081207
,,,,,,,,,85,96.957,0.00889346
,,,,,,,,,99,54.6623,0.0106013
,,,,,,,,,114,39.6132,0.0095679
,,,,,,,,,130,139.697,0.011519
,,,,,,,,,147,148.407,0.0114187
,,,,,,,,,165,81.4595,0.0122633
,,,,,,,,,184,96.7571,0.0108717
,,,,,,,,,204,153.773,0.0103077
,,,,,,,,,225,83.5806,0.0113468
,,,,,,,,,98,62.2052,0.0125711
,,,,,,,,,113,86.6935,0.0162777
,,,,,,,,,129,63.7716,0.0139623
,,,,,,,,,146,174.172,0.0185465
,,,,,,,,,164,113.358,0.0182877
,,,,,,,,,183,56.0274,0.0205553
,,,,,,,,,203,122.024,0.0169242
,,,,,,,,,224,133.099,0.0155958
,,,,,,,,,246,96.2774,0.018104
,,,,,,,,,128,147.217,0.0197107
,,,,,,,,,145,120.78,0.0164145
,,,,,,,,,163,121.513,0.0231382
,,,,,,,,,182,54.5707,0.0227369
,,,,,,,,,202,53.733,0.026351
,,,,,,,,,223,147.302,0.0206666
,,,,,,,,,245,84.0812,0.0187196
,,,,,,,,,268,122.091,0.0224536
,,,,,,,,,162,26.7952,0.0233603
,,,,,,,,,181,90.3722,0.0398331
,,,,,,,,,201,144.377,0.0386584
,,,,,,,,,222,101.348,0.0504148
,,,,,,,,,244,43.5576,0.0330324
,,,,,,,,,267,113.821,0.0283237
,,,,,,,,,291,47.0483,0.0378465
,,,,,,,,,200,114.525,0.0283346
,,,,,,,,,221,139.307,0.0277351
,,,,,,,,,243,76.9162,0.0333076
,,,,,,,,,266,59.4334,0.0247151
,,,,,,,,,290,118.51,0.021981
,,,,,,,,,315,44.7142,0.0273147
,,,,,,,,,242,71.7465,0.0544888
,,,,,,,,,265,129.613,0.0811673
,,,,,,,,,289,57.827,0.0439404
,,,,,,,,,314,52.7294,0.0359831
,,,,,,,,,340,85.3572,0.0528897
,,,,,,,,,288,70.6778,0.0764345
,,,,,,,,,313,102.138,0.0425152
,,,,,,,,,339,31.3384,0.0350217
,,,,,,,,,366,99.6829,0.0508384
,,,,,,,,,338,99.4876,0.0571794
,,,,,,,,,365,78.1181,0.0444019
,,,,,,,,,393,69.3896,0.0733246
,,,,,,,,,392,70.8442,0.0303403
,,,,,,,,,421,31.4197,0.0415354
,,,,,,,,,450,73.9552,0.0343541
