facetNormals:0,facetNormals:1,facetNormals:2,FacetCenters:0,FacetCenters:1,FacetCenters:2,FacetIds,relFacetSize,absFacetSize,cellPairingIds,interplanarAngles,angleWeights
-0.368823,-0.250306,-0.812345,5.15332,4.44595,6.32474,1,0.0793592,0.0102143,8,53.3692,0.0651606
0.476019,-0.164401,-0.820918,5.19013,4.43477,6.32684,2,0.0552717,0.00711401,13,91.1981,0.101636
0.810573,0.299061,-0.437076,5.203,4.50103,6.35544,3,0.141301,0.0181868,19,52.4936,0.0496187
-0.927946,-0.0402157,-0.230997,5.12502,4.44064,6.36333,4,0.0360926,0.00464547,26,66.1485,0.0687987
-0.0399883,-0.944054,-0.130948,5.1718,4.37862,6.37675,5,0.0607187,0.00781508,34,113.741,0.036513
0.986023,-0.123777,0.0473487,5.22489,4.44994,6.39767,6,0.0237112,0.00305187,43,142.835,0.0146827
0.780358,0.46187,0.406785,5.21843,4.50416,6.43431,7,0.00808974,0.00104123,53,133.595,0.0824022
0.790341,-0.281018,0.493047,5.21374,4.43031,6.4535,8,0.0856879,0.0110289,64,142.014,0.0288433
0.43332,0.762398,0.4576,5.19849,4.56487,6.4334,9,0.0176245,0.00226844,76,155.25,0.0169402
0.738752,0.232364,0.621752,5.2073,4.47612,6.45113,10,0.00948213,0.00122044,89,98.9483,0.092991
-0.41294,-0.662968,0.562538,5.12926,4.41789,6.44947,11,0.112277,0.0144512,103,145.713,0.07213
-0.054035,0.614083,0.750951,5.15784,4.51698,6.47307,12,0.066108,0.00850874,118,153.873,0.0424484
0.0304877,0.0354889,0.980742,5.1797,4.4622,6.46573,13,0.0289729,0.00372909,18,41.7697,0.0794612
,,,,,,,,,25,105.445,0.0436692
,,,,,,,,,33,74.6197,0.0578673
,,,,,,,,,42,61.9312,0.0331859
,,,,,,,,,52,92.2995,0.0141138
,,,,,,,,,63,88.9198,0.0671982
,,,,,,,,,75,108.022,0.0267266
,,,,,,,,,88,101.883,0.0161873
,,,,,,,,,102,126.344,0.0740769
,,,,,,,,,117,142.581,0.0602061
,,,,,,,,,133,147.377,0.0380174
,,,,,,,,,32,135.699,0.0574984
,,,,,,,,,41,106.188,0.0849384
,,,,,,,,,51,39.6654,0.0406082
,,,,,,,,,62,51.9685,0.0153033
,,,,,,,,,74,68.7736,0.106682
,,,,,,,,,87,66.6736,0.0313399
,,,,,,,,,101,65.6453,0.0177717
,,,,,,,,,116,146.689,0.125128
,,,,,,,,,132,101.551,0.0900745
,,,,,,,,,149,114.44,0.048086
,,,,,,,,,50,83.3759,0.0452736
,,,,,,,,,61,165.273,0.0286203
,,,,,,,,,73,151.59,0.013217
,,,,,,,,,86,153.857,0.0507914
,,,,,,,,,100,124.664,0.0236838
,,,,,,,,,115,151.899,0.0150186
,,,,,,,,,131,72.3125,0.0546254
,,,,,,,,,148,99.1593,0.0466927
,,,,,,,,,166,105.825,0.0321432
,,,,,,,,,72,85.6962,0.0341044
,,,,,,,,,85,123.299,0.0142773
,,,,,,,,,99,79.501,0.0710741
,,,,,,,,,114,147.634,0.0273192
,,,,,,,,,130,110.406,0.0164027
,,,,,,,,,147,51.7283,0.0788149
,,,,,,,,,165,136.826,0.0632988
,,,,,,,,,184,100.031,0.0392276
,,,,,,,,,98,42.2819,0.0120636
,,,,,,,,,113,30.1067,0.0371441
,,,,,,,,,129,68.8817,0.0202197
,,,,,,,,,146,42.446,0.0135469
,,,,,,,,,164,108.16,0.0391538
,,,,,,,,,183,95.5648,0.0349035
,,,,,,,,,203,85.7668,0.0260793
,,,,,,,,,128,44.686,0.0147838
,,,,,,,,,145,26.9367,0.0110894
,,,,,,,,,163,18.3716,0.00873077
,,,,,,,,,182,114.691,0.0150921
,,,,,,,,,202,55.4991,0.0144154
,,,,,,,,,223,63.2556,0.0126479
,,,,,,,,,162,68.429,0.0292357
,,,,,,,,,181,31.363,0.0170748
,,,,,,,,,201,81.5699,0.097197
,,,,,,,,,222,80.5641,0.0746352
,,,,,,,,,244,58.6045,0.0433038
,,,,,,,,,200,37.2671,0.0123304
,,,,,,,,,221,116.644,0.0304665
,,,,,,,,,243,34.8781,0.0278296
,,,,,,,,,266,59.7644,0.0219168
,,,,,,,,,242,96.5685,0.0174874
,,,,,,,,,265,53.8146,0.0165854
,,,,,,,,,289,48.9368,0.0142881
,,,,,,,,,288,87.6937,0.0832179
,,,,,,,,,313,56.938,0.04606
,,,,,,,,,338,37.5175,0.0402886
