facetNormals:0,facetNormals:1,facetNormals:2,FacetCenters:0,FacetCenters:1,FacetCenters:2,FacetIds,relFacetSize,absFacetSize,cellPairingIds,interplanarAngles,angleWeights
0.167502,-0.426385,-0.864375,5.93786,6.14808,6.89721,1,0.0698725,0.00587027,8,36.7142,0.0174288
-0.447318,-0.443906,-0.771459,5.89423,6.13677,6.91524,2,0.00995613,0.000836454,13,57.0985,0.0826962
-0.597203,0.0917132,-0.755865,5.87919,6.20201,6.91169,3,0.101285,0.00850936,19,70.9447,0.011024
-0.287032,0.613374,-0.72468,5.90498,6.2312,6.90908,4,0.00598407,0.000502745,26,27.1617,0.0364609
-0.0132807,-0.76645,-0.612577,5.92304,6.10257,6.93451,5,0.0246661,0.0020723,34,59.476,0.0266069
-0.751738,-0.36484,-0.536502,5.88929,6.14192,6.91477,6,0.0164321,0.00138052,43,76.2434,0.0743134
0.58165,0.628482,-0.458762,5.96081,6.22568,6.91944,7,0.0793571,0.0066671,53,99.118,0.0343431
-0.0849882,0.924362,-0.297615,5.90844,6.25228,6.93546,8,0.0227666,0.00191271,64,54.3255,0.0328827
-0.185206,-0.942581,-0.221596,5.90868,6.07968,6.98652,9,0.0215005,0.00180635,76,62.4442,0.0574118
-0.643543,-0.670526,-0.306284,5.89238,6.10185,6.96153,10,0.0487228,0.0040934,89,71.7186,0.0993601
0.937321,-0.234164,-0.0462353,5.98223,6.13749,6.98113,11,0.171909,0.0144427,103,65.2806,0.0688426
0.391096,-0.895892,0.0543626,5.94975,6.08216,7.00846,12,0.0678427,0.00569973,118,90.7363,0.0404251
0.923855,0.339285,0.0259829,5.96721,6.18712,6.96847,13,0.0284395,0.00238931,134,92.3973,0.0164925
-0.406587,-0.806399,0.36511,5.89644,6.0845,7.02307,14,0.00934971,0.000785506,151,122.383,0.0759455
0.474404,0.799791,0.287356,5.94842,6.20911,6.98072,15,0.0831747,0.00698783,169,117.921,0.0457458
0.754209,0.0940649,0.619341,5.96992,6.14956,7.04508,16,0.0340042,0.00285683,188,99.5982,0.0339306
0.600205,-0.543133,0.571184,5.96453,6.10964,7.0661,17,0.0224054,0.00188237,208,150.575,0.0141555
-0.613223,0.267937,0.712772,5.87271,6.14045,6.96957,18,0.00787549,0.000661651,18,32.8777,0.0181301
,,,,,,,,,25,65.1524,0.00747521
,,,,,,,,,33,33.1104,0.0141862
,,,,,,,,,42,22.7654,0.0123995
,,,,,,,,,52,101.036,0.0176926
,,,,,,,,,63,98.4515,0.0138538
,,,,,,,,,75,46.8022,0.01361
,,,,,,,,,88,32.5341,0.0165337
,,,,,,,,,102,106.874,0.0188222
,,,,,,,,,117,79.3159,0.017364
,,,,,,,,,133,126.54,0.0147489
,,,,,,,,,150,74.5701,0.00964339
,,,,,,,,,168,144.46,0.0177835
,,,,,,,,,187,151.331,0.0154025
,,,,,,,,,207,118.311,0.0137862
,,,,,,,,,228,113.896,0.00879442
,,,,,,,,,32,36.1073,0.0113005
,,,,,,,,,41,65.042,0.0396711
,,,,,,,,,51,31.3056,0.0282766
,,,,,,,,,62,86.5215,0.0889902
,,,,,,,,,74,67.5325,0.0371766
,,,,,,,,,87,78.4102,0.0354713
,,,,,,,,,101,54.1678,0.0657952
,,,,,,,,,116,125.709,0.127468
,,,,,,,,,132,112.125,0.0812575
,,,,,,,,,149,124.546,0.0444094
,,,,,,,,,167,96.5249,0.0171191
,,,,,,,,,186,116.972,0.0913408
,,,,,,,,,206,163.553,0.0509149
,,,,,,,,,227,151.188,0.0366937
,,,,,,,,,249,98.998,0.0146146
,,,,,,,,,50,91.318,0.00963151
,,,,,,,,,61,67.256,0.0087732
,,,,,,,,,73,55.1219,0.0111289
,,,,,,,,,86,33.4145,0.00947713
,,,,,,,,,100,111.881,0.00936238
,,,,,,,,,115,90.272,0.010659
,,,,,,,,,131,113.28,0.0115655
,,,,,,,,,148,136.225,0.0109981
,,,,,,,,,166,94.4576,0.00988764
,,,,,,,,,185,131.682,0.00729752
,,,,,,,,,205,81.2917,0.0111649
,,,,,,,,,226,128.669,0.0101772
,,,,,,,,,248,159.325,0.00944544
,,,,,,,,,271,100.467,0.00680072
,,,,,,,,,72,50.6163,0.0197242
,,,,,,,,,85,102.628,0.0376345
,,,,,,,,,99,123.291,0.0236783
,,,,,,,,,114,27.1662,0.0229748
,,,,,,,,,130,42.3097,0.0327516
,,,,,,,,,147,78.1223,0.0431421
,,,,,,,,,165,47.5711,0.0361785
,,,,,,,,,184,107.359,0.0264187
,,,,,,,,,204,65.2746,0.0135596
,,,,,,,,,225,146.383,0.0380486
,,,,,,,,,247,118.666,0.028592
,,,,,,,,,270,86.5548,0.0234815
,,,,,,,,,294,131.352,0.011939
,,,,,,,,,98,115.837,0.0272265
,,,,,,,,,113,96.7446,0.0190875
,,,,,,,,,129,52.051,0.0186277
,,,,,,,,,146,23.259,0.0245758
,,,,,,,,,164,128.232,0.0299968
,,,,,,,,,183,89.7826,0.0264562
,,,,,,,,,203,148.349,0.0208292
,,,,,,,,,224,65.315,0.0119181
,,,,,,,,,246,146.142,0.0274425
,,,,,,,,,269,163.516,0.022157
,,,,,,,,,293,124.661,0.0189594
,,,,,,,,,318,91.1317,0.0106478
,,,,,,,,,128,45.1354,0.0353823
,,,,,,,,,145,128.674,0.0338342
,,,,,,,,,163,133.57,0.0603764
,,,,,,,,,182,63.5022,0.108588
,,,,,,,,,202,112.274,0.0731495
,,,,,,,,,223,39.4382,0.0418728
,,,,,,,,,245,164.249,0.0167285
,,,,,,,,,268,46.8414,0.081221
,,,,,,,,,292,77.0362,0.0476084
,,,,,,,,,317,105.319,0.0349447
,,,,,,,,,343,122.855,0.014329
,,,,,,,,,162,145.25,0.0221154
,,,,,,,,,181,119.793,0.0310326
,,,,,,,,,201,107.425,0.0402082
,,,,,,,,,222,156.852,0.0340924
,,,,,,,,,244,76.2955,0.0252888
,,,,,,,,,267,149.659,0.0132556
,,,,,,,,,291,49.7157,0.0357481
,,,,,,,,,316,99.7269,0.0272732
,,,,,,,,,342,138.478,0.0225845
,,,,,,,,,369,84.7228,0.0117027
,,,,,,,,,200,31.8896,0.0298353
,,,,,,,,,221,86.5509,0.0382208
,,,,,,,,,243,38.0577,0.0326528
,,,,,,,,,266,120.778,0.0244879
,,,,,,,,,290,38.217,0.0130322
,,,,,,,,,315,160.669,0.0341686
,,,,,,,,,341,112.225,0.026344
,,,,,,,,,368,73.6942,0.0219437
,,,,,,,,,396,107.943,0.0115283
,,,,,,,,,242,117.159,0.0759264
,,,,,,,,,265,69.7,0.0567147
,,,,,,,,,289,149.488,0.0359153
,,,,,,,,,314,43.5786,0.0156888
,,,,,,,,,340,167.431,0.0614493
,,,,,,,,,367,140.296,0.0400542
,,,,,,,,,395,101.726,0.0306954
,,,,,,,,,424,90.1997,0.0135593
,,,,,,,,,288,52.6998,0.0972904
,,,,,,,,,313,34.4459,0.048805
,,,,,,,,,339,102.826,0.0177349
,,,,,,,,,366,74.9717,0.112108
,,,,,,,,,394,46.208,0.0567776
,,,,,,,,,423,46.1902,0.0396439
,,,,,,,,,453,135.155,0.015061
,,,,,,,,,338,86.5047,0.0400783
,,,,,,,,,365,52.2951,0.0164345
,,,,,,,,,393,122.741,0.0747304
,,,,,,,,,422,75.2516,0.0453021
,,,,,,,,,452,39.1323,0.0336859
,,,,,,,,,483,117.442,0.0141127
,,,,,,,,,392,131.841,0.0140729
,,,,,,,,,421,41.5515,0.0423861
,,,,,,,,,451,39.5038,0.0309739
,,,,,,,,,482,66.7472,0.0250644
,,,,,,,,,514,118.352,0.0123351
,,,,,,,,,450,140.628,0.0168098
,,,,,,,,,481,99.4238,0.0146667
,,,,,,,,,513,65.3506,0.0131937
,,,,,,,,,546,72.0505,0.00854951
,,,,,,,,,512,50.1863,0.048273
,,,,,,,,,545,89.1396,0.0353014
,,,,,,,,,579,82.2575,0.0143886
,,,,,,,,,578,38.9543,0.0270124
,,,,,,,,,613,89.7517,0.012789
,,,,,,,,,648,96.3103,0.0116544
