"cellPairingIds","interplanarAngles","angleWeights"
8,57.1236,0.00892585
19,90.7509,0.00615344
118,125.33,0.0400339
151,121.172,0.0391748
169,124.346,0.0319848
25,59.7532,0.00406432
88,86.9727,0.0078613
133,115.318,0.00921559
150,110.801,0.00996405
185,70.8295,0.00662966
226,112.782,0.00605054
289,38.876,0.0249066
314,55.4085,0.031251
392,71.3378,0.0751574
421,47.2943,0.0454457
450,75.162,0.0721855
481,65.6531,0.0510427
512,27.1774,0.0353478
