Q	U	V
{$V$}	{[mm$^3$]}	0.00857693
{$d_v$}	{[mm]}	0.253967
{$S_c$}	{[mm$^2$]}	0.375822
{$S_o$}	{[mm$^2$]}	0.235069
{$S_l/S_o$}	[]	0.598773
{$\Psi$}	[]	0.539167
{$\eta$}	[]	0.555281
{med($\theta_e$)}	{[$^\circ$]}	64.0879
{$\Upsilon$}	[]	13
{$\Xi$}	[]	12
