facetNormals:0,facetNormals:1,facetNormals:2,FacetCenters:0,FacetCenters:1,FacetCenters:2,FacetIds,relFacetSize,absFacetSize,cellPairingIds,interplanarAngles,angleWeights
0.228576,-0.276309,-0.901323,6.74429,6.95718,7.80336,1,0.0233289,0.00156094,8,41.4983,0.0289304
0.0774163,0.400285,-0.898172,6.75627,6.99616,7.79746,2,0.0380719,0.00254739,13,67.6337,0.0413706
-0.124814,0.710916,-0.646403,6.72531,7.05091,7.85667,3,0.182544,0.012214,19,66.7165,0.0242487
0.770568,0.483725,-0.370843,6.78521,7.041,7.84757,4,0.025244,0.00168907,26,54.2054,0.0188396
0.859451,0.151748,-0.445312,6.78248,7.0028,7.83474,5,0.0157993,0.00105713,34,50.8235,0.0339409
0.682707,-0.609185,-0.293383,6.76147,6.9467,7.82626,6,0.0622641,0.00416609,43,53.8902,0.0185358
0.0393035,-0.908528,-0.323767,6.73926,6.92289,7.82192,7,0.0153765,0.00102884,53,56.7355,0.0163415
0.92887,-0.158059,-0.299648,6.78694,6.98893,7.82342,8,0.0125751,0.000841399,64,100.165,0.0353899
-0.688921,0.671212,-0.194102,6.71071,7.03352,7.88015,9,0.0732706,0.00490253,76,110.33,0.0330748
0.018208,0.945297,0.0693068,6.74847,7.08166,7.91776,10,0.0568062,0.0038009,89,89.442,0.0385348
-0.858954,-0.463677,-0.0859574,6.69321,6.9603,7.85108,11,0.110671,0.00740501,103,121.913,0.0365896
-0.701447,-0.449106,0.517747,6.68848,7.00681,7.91707,12,0.0847819,0.00567276,118,146.826,0.0251187
-0.680257,0.00486577,0.715082,6.69521,7.05404,7.9474,13,0.0272061,0.00182036,18,26.4761,0.0630035
,,,,,,,,,25,52.7671,0.0303584
,,,,,,,,,33,56.9374,0.0223314
,,,,,,,,,42,85.6121,0.0472515
,,,,,,,,,52,94.2058,0.0219057
,,,,,,,,,63,73.4516,0.0189057
,,,,,,,,,75,66.258,0.0501075
,,,,,,,,,88,70.1481,0.0455894
,,,,,,,,,102,100.425,0.0566542
,,,,,,,,,117,136.278,0.0525471
,,,,,,,,,133,135.384,0.0317346
,,,,,,,,,32,59.2015,0.0443542
,,,,,,,,,41,72.3109,0.0290816
,,,,,,,,,51,110.671,0.0928559
,,,,,,,,,62,118.168,0.0283638
,,,,,,,,,74,92.0704,0.0235293
,,,,,,,,,87,43.5885,0.104569
,,,,,,,,,101,47.1275,0.0866481
,,,,,,,,,116,100.122,0.137799
,,,,,,,,,132,126.589,0.115787
,,,,,,,,,149,113.014,0.0473545
,,,,,,,,,50,20.646,0.0194349
,,,,,,,,,61,68.8779,0.0359234
,,,,,,,,,73,107.75,0.0191117
,,,,,,,,,86,39.4203,0.0167876
,,,,,,,,,100,98.0017,0.0375506
,,,,,,,,,115,61.4187,0.0349546
,,,,,,,,,131,152.544,0.0411106
,,,,,,,,,148,170.299,0.0389041
,,,,,,,,,166,144.254,0.0261883
,,,,,,,,,72,48.4077,0.0252033
,,,,,,,,,85,87.5707,0.015585
,,,,,,,,,99,20.4359,0.014004
,,,,,,,,,114,114.836,0.0259936
,,,,,,,,,130,82.0647,0.0247226
,,,,,,,,,147,143.354,0.0276511
,,,,,,,,,165,159.763,0.0266351
,,,,,,,,,184,158.925,0.0199899
,,,,,,,,,98,43.2768,0.0246625
,,,,,,,,,113,30.5273,0.0209242
,,,,,,,,,129,150.708,0.0673204
,,,,,,,,,146,129.856,0.05941
,,,,,,,,,164,107.22,0.0796927
,,,,,,,,,183,112.275,0.0717989
,,,,,,,,,203,135.566,0.0378665
,,,,,,,,,128,73.1203,0.0138354
,,,,,,,,,145,127.305,0.0254187
,,,,,,,,,163,164.204,0.0242019
,,,,,,,,,182,63.9538,0.0270015
,,,,,,,,,202,77.0079,0.0260318
,,,,,,,,,223,106.005,0.0196481
,,,,,,,,,162,135.154,0.0214661
,,,,,,,,,181,99.4111,0.0205918
,,,,,,,,,201,136.161,0.022584
,,,,,,,,,222,139.353,0.0219017
,,,,,,,,,244,150.213,0.0172
,,,,,,,,,200,49.145,0.0639964
,,,,,,,,,221,71.9943,0.0881686
,,,,,,,,,243,85.1535,0.078607
,,,,,,,,,266,69.8815,0.039679
,,,,,,,,,242,119.676,0.0750765
,,,,,,,,,265,115.58,0.0680302
,,,,,,,,,289,87.4411,0.0367916
,,,,,,,,,288,37.1218,0.0960119
,,,,,,,,,313,57.4332,0.0436755
,,,,,,,,,338,29.1658,0.0411934
