Q	U	V
{$V$}	{[mm$^3$]}	0.0123934
{$d_v$}	{[mm]}	0.287120
{$S_c$}	{[mm$^2$]}	0.379024
{$S_o$}	{[mm$^2$]}	0.260016
{$S_l/S_o$}	[]	0.457695
{$\Psi$}	[]	0.683299
{$\eta$}	[]	0.716854
{med($\theta_e$)}	{[$^\circ$]}	70.9008
{$\Upsilon$}	[]	13
{$\Xi$}	[]	14
