"cellPairingIds","interplanarAngles","angleWeights"
8,38.4571,0.0199172
13,37.9382,0.0363892
19,47.4767,0.0585208
64,70.1994,0.03253
76,73.7127,0.0491438
18,41.3488,0.018247
25,34.8118,0.0225171
33,33.0356,0.0216768
41,62.4472,0.0427259
62,52.2953,0.0376423
87,49.1596,0.0282995
50,49.4313,0.0768508
86,79.7053,0.0255483
115,97.2404,0.0687231
85,35.219,0.0558826
99,114.145,0.024472
184,63.6889,0.0773612
225,105.051,0.0422087
145,80.016,0.0335278
223,39.7901,0.0621611
245,77.4107,0.0732519
181,64.9052,0.0235838
222,70.2127,0.0227778
267,125.846,0.0273075
291,84.7059,0.0200718
200,71.1535,0.0354559
221,25.0848,0.0335233
290,44.7688,0.0445991
242,57.079,0.0514467
265,34.5524,0.0517812
288,43.7435,0.04776
339,38.6325,0.0732302
365,65.4162,0.0739099
392,57.9236,0.115164
421,49.7503,0.0456947
450,57.5991,0.0514173
