Q	U	V
{$V$}	{[mm$^3$]}	0.00569618
{$d_v$}	{[mm]}	0.221579
{$S_c$}	{[mm$^2$]}	0.282864
{$S_o$}	{[mm$^2$]}	0.172207
{$S_l/S_o$}	[]	0.642581
{$\Psi$}	[]	0.545292
{$\eta$}	[]	0.613217
{med($\theta_e$)}	{[$^\circ$]}	61.99125
{$\Upsilon$}	[]	14
{$\Xi$}	[]	11
