"cellPairingIds","interplanarAngles","angleWeights"
18,25.101,0.0285355
25,49.1258,0.0349357
33,100.997,0.0379376
42,86.0501,0.0492424
52,124.616,0.0376748
63,43.8504,0.0403418
88,133.305,0.0403476
117,79.7134,0.0289167
32,25.5985,0.0315776
74,47.0406,0.0359296
61,60.7852,0.0590611
86,67.5253,0.0467026
166,59.8173,0.0521803
320,100.958,0.022239
85,26.9191,0.0478424
130,41.9218,0.0522366
98,72.3814,0.0673374
129,32.3748,0.057883
203,49.4499,0.0921822
145,50.2227,0.0425325
163,35.6211,0.0517397
182,25.0253,0.0200967
222,37.5844,0.0365361
426,95.6916,0.024313
221,53.6036,0.0191625
266,47.7061,0.0512586
290,46.9361,0.0321021
315,31.3872,0.0429308
242,28.6574,0.0208328
265,91.662,0.0365408
367,30.652,0.0502332
339,20.8664,0.017422
394,48.9783,0.0198652
516,77.084,0.0139745
422,65.6948,0.0336648
548,71.0401,0.019637
421,30.842,0.0592938
581,63.8748,0.0257185
450,37.6127,0.0350793
615,61.139,0.0197925
650,60.329,0.0234374
686,61.2339,0.0230072
