Q	U	V
{$V$}	{[mm$^3$]}	0.00426412
{$d_v$}	{[mm]}	0.201192
{$S_c$}	{[mm$^2$]}	0.286752
{$S_o$}	{[mm$^2$]}	0.161114
{$S_l/S_o$}	[]	0.779808
{$\Psi$}	[]	0.44347
{$\eta$}	[]	0.504258
{med($\theta_e$)}	{[$^\circ$]}	62.6281
{$\Upsilon$}	[]	9
{$\Xi$}	[]	12
