facetNormals:0,facetNormals:1,facetNormals:2,FacetCenters:0,FacetCenters:1,FacetCenters:2,FacetIds,relFacetSize,absFacetSize,cellPairingIds,interplanarAngles,angleWeights
-0.0842928,-0.35738,-0.920607,6.21278,6.39884,6.14005,1,0.00705585,0.000720069,8,48.2759,0.0119522
0.669508,-0.290282,-0.647783,6.22048,6.37826,6.15341,2,0.0390512,0.00398529,13,72.4709,0.0116814
-0.906333,0.147129,-0.285975,6.11147,6.46233,6.14248,3,0.0339141,0.00346103,19,55.9597,0.0129673
0.470354,-0.774157,-0.321897,6.24779,6.3962,6.153,4,0.0799473,0.00815885,26,95.1506,0.0127255
0.746384,0.593683,-0.204536,6.1202,6.38358,6.15236,5,0.064773,0.00661027,34,89.3991,0.00981956
0.875961,-0.40796,0.0672278,6.28364,6.40598,6.18621,6,0.0161424,0.00164738,43,109.201,0.0118821
0.332354,0.921571,-0.0409946,6.12698,6.38361,6.1719,7,0.037603,0.0038375,53,83.6004,0.0135493
-0.716332,-0.596155,0.183045,6.13674,6.41963,6.15507,8,0.169992,0.0173482,64,130.743,0.0127847
-0.299213,0.820726,0.377478,6.15738,6.45962,6.20171,9,0.0679777,0.00693732,76,99.0548,0.0117436
-0.220555,-0.820053,0.506032,6.20147,6.37396,6.20025,10,0.0349908,0.00357091,89,140.742,0.0121093
0.656186,0.377276,0.597167,6.26705,6.4413,6.21216,11,0.0426694,0.00435454,103,149.705,0.0116911
0.259896,0.721477,0.602941,6.20856,6.43277,6.23,12,0.034078,0.00347775,118,117.524,0.0125012
0.127783,-0.649364,0.730984,6.25006,6.40407,6.22562,13,0.0547688,0.00558931,134,156.939,0.0126761
-0.135427,0.0352113,0.946412,6.1861,6.45356,6.21882,14,0.0623013,0.00635802,18,119.652,0.0363018
,,,,,,,,,25,37.102,0.0524719
,,,,,,,,,33,61.1067,0.0487259
,,,,,,,,,42,45.5968,0.0228425
,,,,,,,,,52,91.1047,0.0383135
,,,,,,,,,63,117.304,0.0635122
,,,,,,,,,75,137.361,0.0496055
,,,,,,,,,88,104.249,0.0369097
,,,,,,,,,102,93.4754,0.0407802
,,,,,,,,,117,116.586,0.0363955
,,,,,,,,,133,101.965,0.0455934
,,,,,,,,,150,139.89,0.0480095
,,,,,,,,,32,118.995,0.0476253
,,,,,,,,,41,124.45,0.0445189
,,,,,,,,,51,159.608,0.0218735
,,,,,,,,,62,99.3937,0.0356634
,,,,,,,,,74,56.1194,0.0565469
,,,,,,,,,87,71.9222,0.045252
,,,,,,,,,101,93.9489,0.0344441
,,,,,,,,,116,139.973,0.0377913
,,,,,,,,,132,108.767,0.0339958
,,,,,,,,,149,116.316,0.0418894
,,,,,,,,,167,98.9243,0.0439201
,,,,,,,,,50,92.61,0.0715646
,,,,,,,,,61,40.6782,0.0268612
,,,,,,,,,73,125.242,0.0511485
,,,,,,,,,86,85.8757,0.10875
,,,,,,,,,100,168.864,0.0734782
,,,,,,,,,115,67.2027,0.048677
,,,,,,,,,131,100.925,0.0556418
,,,,,,,,,148,132.237,0.0477866
,,,,,,,,,166,69.788,0.0650051
,,,,,,,,,185,115.476,0.0700298
,,,,,,,,,72,65.096,0.0258441
,,,,,,,,,85,32.838,0.0475827
,,,,,,,,,99,178.409,0.0938036
,,,,,,,,,114,78.3955,0.0663367
,,,,,,,,,130,141.536,0.0454365
,,,,,,,,,147,51.0157,0.0514476
,,,,,,,,,165,58.3706,0.0446598
,,,,,,,,,184,117.201,0.0593523
,,,,,,,,,204,107.059,0.0635131
,,,,,,,,,98,95.2915,0.0225881
,,,,,,,,,113,113.849,0.0294849
,,,,,,,,,129,128.319,0.0260894
,,,,,,,,,146,79.4468,0.0220927
,,,,,,,,,164,60.4181,0.0234234
,,,,,,,,,183,91.5852,0.0219074
,,,,,,,,,203,63.513,0.0249354
,,,,,,,,,224,94.2929,0.0256411
,,,,,,,,,128,148.612,0.0615835
,,,,,,,,,145,46.5735,0.0484211
,,,,,,,,,163,151.248,0.0362499
,,,,,,,,,182,55.0692,0.0399763
,,,,,,,,,202,40.5722,0.0357538
,,,,,,,,,223,127.301,0.0445909
,,,,,,,,,245,93.1384,0.0468992
,,,,,,,,,162,103.165,0.0971188
,,,,,,,,,181,38.0339,0.0580357
,,,,,,,,,201,129.761,0.0682161
,,,,,,,,,222,123.097,0.0567745
,,,,,,,,,244,62.7103,0.0828459
,,,,,,,,,267,74.0786,0.0911841
,,,,,,,,,200,116.247,0.0462004
,,,,,,,,,221,68.335,0.0524292
,,,,,,,,,243,36.9412,0.0453976
,,,,,,,,,266,108.339,0.0606625
,,,,,,,,,290,62.0535,0.0650158
,,,,,,,,,242,99.1725,0.0384505
,,,,,,,,,265,110.891,0.0345284
,,,,,,,,,289,26.2514,0.0427008
,,,,,,,,,314,59.506,0.0448129
,,,,,,,,,288,31.3972,0.0378928
,,,,,,,,,313,73.1623,0.0479679
,,,,,,,,,339,57.9413,0.0506496
,,,,,,,,,338,89.6755,0.0420141
,,,,,,,,,365,53.0628,0.0440572
,,,,,,,,,392,46.3101,0.0582927
