Q	U	V
{$V$}	{[mm$^3$]}	0.00864936
{$d_v$}	{[mm]}	0.254680
{$S_c$}	{[mm$^2$]}	0.397747
{$S_o$}	{[mm$^2$]}	0.278784
{$S_l/S_o$}	[]	0.426721
{$\Psi$}	[]	0.51231
{$\eta$}	[]	0.571667
{med($\theta_e$)}	{[$^\circ$]}	72.1839
{$\Upsilon$}	[]	12
{$\Xi$}	[]	11
