facetNormals:0,facetNormals:1,facetNormals:2,FacetCenters:0,FacetCenters:1,FacetCenters:2,FacetIds,relFacetSize,absFacetSize,cellPairingIds,interplanarAngles,angleWeights
-0.011492,-0.162502,-0.952493,6.37678,6.66034,9.28785,1,0.0431884,0.00403385,8,24.0542,0.0456086
0.0634793,-0.524159,-0.797089,6.3715,6.62675,9.29025,2,0.0483162,0.00451279,13,39.3369,0.0453607
-0.629754,-0.132489,-0.738298,6.30906,6.63142,9.30603,3,0.0477631,0.00446114,19,51.5871,0.0513276
0.158239,0.606312,-0.695402,6.39461,6.70855,9.3136,4,0.063247,0.00590735,26,53.8566,0.0537426
0.116363,-0.843825,-0.427816,6.34259,6.59105,9.32755,5,0.0711233,0.006643,34,61.4192,0.0191691
0.755934,-0.49781,-0.405573,6.42587,6.63514,9.30748,6,0.0123183,0.00115055,43,81.9474,0.0335538
-0.0740968,0.933744,-0.298106,6.36649,6.72085,9.32317,7,0.0274338,0.00256235,53,79.6731,0.0501641
0.936743,0.0426813,-0.192686,6.42318,6.66288,9.34443,8,0.0598271,0.00558793,64,81.4622,0.0692364
-0.777069,0.525217,-0.225524,6.30156,6.69191,9.36583,9,0.174453,0.0162942,76,120.077,0.053009
0.834401,-0.0957775,0.504393,6.42198,6.67291,9.37134,10,0.0686101,0.00640827,89,134.215,0.063923
0.283384,0.722294,0.543596,6.36118,6.71725,9.41418,11,0.122952,0.0114838,103,138.42,0.033867
0.650456,0.263365,0.69877,6.39333,6.69325,9.40811,12,0.027855,0.00260169,18,48.7057,0.0480381
,,,,,,,,,25,74.0101,0.0547825
,,,,,,,,,33,29.8197,0.0575422
,,,,,,,,,42,48.1897,0.0196315
,,,,,,,,,52,105.839,0.0349966
,,,,,,,,,63,77.9755,0.0534591
,,,,,,,,,75,99.0367,0.0756739
,,,,,,,,,88,108.607,0.056702
,,,,,,,,,102,151.221,0.0693715
,,,,,,,,,117,133.665,0.0353374
,,,,,,,,,32,68.6727,0.0544252
,,,,,,,,,41,67.6919,0.0571482
,,,,,,,,,51,96.5415,0.0195855
,,,,,,,,,62,81.4552,0.0348504
,,,,,,,,,74,118.913,0.0531188
,,,,,,,,,87,51.6439,0.0749939
,,,,,,,,,101,157.297,0.0563194
,,,,,,,,,116,136.72,0.0687996
,,,,,,,,,132,171.974,0.0351884
,,,,,,,,,50,102.67,0.0669543
,,,,,,,,,61,83.8276,0.0206205
,,,,,,,,,73,34.1233,0.0382684
,,,,,,,,,86,69.8902,0.0614895
,,,,,,,,,100,67.0353,0.0928366
,,,,,,,,,115,107.567,0.0658195
,,,,,,,,,131,83.2157,0.0835272
,,,,,,,,,148,103.94,0.0386763
,,,,,,,,,72,43.8731,0.0209996
,,,,,,,,,85,135.561,0.0395949
,,,,,,,,,99,80.1935,0.064988
,,,,,,,,,114,118.385,0.101049
,,,,,,,,,130,92.3244,0.0698441
,,,,,,,,,147,153.63,0.090117
,,,,,,,,,165,118.159,0.0400318
,,,,,,,,,98,114.218,0.0170023
,,,,,,,,,113,36.321,0.0204301
,,,,,,,,,129,142.337,0.0230117
,,,,,,,,,146,60.8129,0.0208866
,,,,,,,,,164,112.912,0.0223931
,,,,,,,,,183,85.4925,0.0170823
,,,,,,,,,128,88.3019,0.0376178
,,,,,,,,,145,49.5474,0.0474118
,,,,,,,,,163,108.252,0.0391953
,,,,,,,,,182,58.1516,0.0448584
,,,,,,,,,202,90.6232,0.0276428
,,,,,,,,,162,135.8,0.0890987
,,,,,,,,,181,43.4971,0.0639183
,,,,,,,,,201,77.8073,0.080489
,,,,,,,,,222,59.1669,0.0380119
,,,,,,,,,200,149.279,0.0984867
,,,,,,,,,221,87.7074,0.144243
,,,,,,,,,243,123.316,0.0480395
,,,,,,,,,242,61.5988,0.0880732
,,,,,,,,,265,26.2752,0.0396233
,,,,,,,,,288,36.4768,0.0454199
