Q	U	V
{$V$}	{[mm$^3$]}	0.00936183
{$d_v$}	{[mm]}	0.261489
{$S_c$}	{[mm$^2$]}	0.458158
{$S_o$}	{[mm$^2$]}	0.263121
{$S_l/S_o$}	[]	0.741245
{$\Psi$}	[]	0.468859
{$\eta$}	[]	0.516357
{med($\theta_e$)}	{[$^\circ$]}	88.01105
{$\Upsilon$}	[]	15
{$\Xi$}	[]	10
