"cellPairingIds","interplanarAngles","angleWeights"
8,68.3962,0.0688314
13,41.3757,0.0484466
19,53.1149,0.0124143
34,85.0898,0.050609
53,58.6213,0.00688688
64,45.2623,0.0342993
25,78.2373,0.0116735
42,37.731,0.0402065
88,62.931,0.0248229
51,55.7637,0.0322741
62,38.5623,0.0477353
87,45.8992,0.0247645
86,34.3367,0.00462236
115,73.924,0.00940651
248,99.1212,0.0102189
98,41.7525,0.0498333
146,83.1703,0.0219701
183,54.767,0.0447724
224,36.5942,0.0504422
145,67.3983,0.0339412
223,40.4118,0.0213705
245,50.2978,0.102157
343,53.1763,0.0973901
162,63.5881,0.00606271
291,74.7045,0.00511802
316,62.5919,0.00640853
342,105.327,0.00615348
266,40.8422,0.0151
315,44.097,0.012604
265,37.3443,0.0264908
395,41.0128,0.0190552
365,42.0353,0.0829382
452,47.6025,0.0341322
515,53.6317,0.0518081
421,37.5538,0.0103444
514,39.7756,0.0212629
546,59.2049,0.0997434
580,52.8955,0.059554
512,21.9192,0.0141967
579,48.6122,0.0166265
650,48.3944,0.0164441
578,96.5892,0.0266238
686,48.7338,0.0465851
685,36.126,0.029384
723,70.8804,0.0357992
722,55.4411,0.057902
761,27.2161,0.0895089
800,41.8168,0.0557481
