Q	U	V
{$V$}	{[mm$^3$]}	0.0116643
{$d_v$}	{[mm]}	0.281376
{$S_c$}	{[mm$^2$]}	0.420895
{$S_o$}	{[mm$^2$]}	0.282277
{$S_l/S_o$}	[]	0.491071
{$\Psi$}	[]	0.590948
{$\eta$}	[]	0.613685
{med($\theta_e$)}	{[$^\circ$]}	56.66075
{$\Upsilon$}	[]	16
{$\Xi$}	[]	13
