Q	U	V
{$V$}	{[mm$^3$]}	0.00226209
{$d_v$}	{[mm]}	0.162868
{$S_c$}	{[mm$^2$]}	0.125853
{$S_o$}	{[mm$^2$]}	0.064601
{$S_l/S_o$}	[]	0.948159
{$\Psi$}	[]	0.662156
{$\eta$}	[]	0.699530
{med($\theta_e$)}	{[$^\circ$]}	45.92515
{$\Upsilon$}	[]	16
{$\Xi$}	[]	5
