"cellPairingIds","interplanarAngles","angleWeights"
8,29.6373,0.0187701
13,25.3844,0.0209
19,38.7291,0.0237469
26,39.2341,0.00913969
43,75.6659,0.0370634
53,55.8262,0.0320981
64,68.4749,0.0416096
42,31.1925,0.0199955
52,71.1602,0.0225524
63,39.1778,0.0206123
88,60.7848,0.0224353
32,28.1763,0.0185042
41,38.202,0.00824106
116,76.6536,0.0260369
186,96.1338,0.0199701
100,41.669,0.0330821
131,60.0161,0.0306082
99,36.72,0.00955553
165,64.2478,0.0103378
225,100.166,0.00895729
113,37.5276,0.0358557
146,46.1765,0.0417582
203,63.1418,0.0394562
145,33.1133,0.066235
163,34.1302,0.0547129
245,97.8943,0.0634581
292,68.7692,0.0415966
222,63.4281,0.0541291
244,88.5626,0.0419321
221,58.3914,0.0685255
290,79.6433,0.0780606
289,46.168,0.0502361
367,61.8371,0.0411997
339,32.6332,0.0655575
366,45.1253,0.0348381
338,97.4821,0.0627771
393,63.2151,0.0392713
452,60.9643,0.0959105
451,35.0567,0.0389572
482,77.2486,0.0632906
450,32.1999,0.0371448
481,68.9806,0.0459702
513,44.1302,0.0841454
545,40.3241,0.0394717
578,58.9588,0.049588
