facetNormals:0,facetNormals:1,facetNormals:2,FacetCenters:0,FacetCenters:1,FacetCenters:2,FacetIds,relFacetSize,absFacetSize,cellPairingIds,interplanarAngles,angleWeights
0.583084,0.00220192,-0.793452,6.14072,5.57389,8.73738,1,0.0661399,0.00596997,8,23.0106,0.0471202
0.851807,-0.0148219,-0.50574,6.17042,5.59832,8.76482,2,0.0365962,0.00330327,13,30.0607,0.0582964
0.759014,0.375846,-0.49468,6.17591,5.61174,8.77697,3,0.052116,0.00470413,19,105.132,0.0635526
-0.86931,0.0549725,-0.336211,6.0786,5.59016,8.77685,4,0.0611601,0.00552048,26,56.081,0.037163
0.842296,-0.483414,-0.0560042,6.19547,5.55668,8.79971,5,0.0258415,0.00233252,34,67.4968,0.0304556
0.807155,0.543693,0.12842,6.18089,5.59399,8.84195,6,0.0197824,0.00178562,43,126.714,0.0854318
-0.729152,0.600647,0.179174,6.07841,5.60677,8.84511,7,0.120612,0.0108868,53,151.352,0.0332
-0.882257,0.0737535,0.418207,6.04617,5.49356,8.92645,8,0.0221623,0.00200043,64,109.793,0.0840855
0.0146123,0.864593,0.416458,6.12634,5.63943,8.83431,9,0.115395,0.0104159,76,121.522,0.028524
-0.186213,-0.806615,0.482668,6.09831,5.43211,8.9454,10,0.0181828,0.00164123,89,114.587,0.0960969
0.411615,0.338351,0.799515,6.12245,5.53874,8.92451,11,0.175658,0.0158554,103,172.773,0.0434001
-0.47395,0.00626531,0.851495,6.0642,5.47909,8.95407,12,0.0322962,0.00291514,18,23.5044,0.0429986
,,,,,,,,,25,128.138,0.045792
,,,,,,,,,33,38.623,0.0302926
,,,,,,,,,42,50.8105,0.0256821
,,,,,,,,,52,139.152,0.0561542
,,,,,,,,,63,173.644,0.0276065
,,,,,,,,,75,102.82,0.0555693
,,,,,,,,,88,114.305,0.0242948
,,,,,,,,,102,93.5382,0.0605728
,,,,,,,,,117,149.797,0.034312
,,,,,,,,,32,121.085,0.056277
,,,,,,,,,41,59.4259,0.034551
,,,,,,,,,51,38.5058,0.0286788
,,,,,,,,,62,116.195,0.0727829
,,,,,,,,,74,152.106,0.0310996
,,,,,,,,,87,82.0606,0.0718034
,,,,,,,,,101,136.631,0.0269597
,,,,,,,,,116,87.3187,0.0803831
,,,,,,,,,132,144.542,0.0398793
,,,,,,,,,50,144.558,0.0363319
,,,,,,,,,61,141.267,0.0298952
,,,,,,,,,73,47.4898,0.0811637
,,,,,,,,,86,46.4043,0.0325351
,,,,,,,,,100,96.7412,0.0799476
,,,,,,,,,115,92.8665,0.0280318
,,,,,,,,,131,132.671,0.0907301
,,,,,,,,,148,82.0357,0.0422709
,,,,,,,,,72,64.5833,0.0224096
,,,,,,,,,85,167.896,0.0425636
,,,,,,,,,99,147.375,0.0238609
,,,,,,,,,114,117.352,0.0422268
,,,,,,,,,130,77.2297,0.021346
,,,,,,,,,147,81.4868,0.0450548
,,,,,,,,,165,118.333,0.0287105
,,,,,,,,,98,104.665,0.0339899
,,,,,,,,,113,130.039,0.0209049
,,,,,,,,,129,55.3735,0.0337748
,,,,,,,,,146,124.063,0.0189489
,,,,,,,,,164,48.9911,0.0355601
,,,,,,,,,183,106.381,0.0245359
,,,,,,,,,128,35.9105,0.0374443
,,,,,,,,,145,50.7994,0.117946
,,,,,,,,,163,106.535,0.0316016
,,,,,,,,,182,87.1241,0.143022
,,,,,,,,,202,57.6132,0.0509497
,,,,,,,,,162,76.1449,0.0371834
,,,,,,,,,181,70.9238,0.0199763
,,,,,,,,,201,90.2334,0.0393589
,,,,,,,,,222,35.7188,0.0262864
,,,,,,,,,200,122.866,0.0314155
,,,,,,,,,221,46.7779,0.139288
,,,,,,,,,243,67.8201,0.0504678
,,,,,,,,,242,87.7384,0.0329545
,,,,,,,,,265,58.0491,0.0232666
,,,,,,,,,288,58.6013,0.0545609
