Q	U	V
{$V$}	{[mm$^3$]}	0.00635878
{$d_v$}	{[mm]}	0.229857
{$S_c$}	{[mm$^2$]}	0.296901
{$S_o$}	{[mm$^2$]}	0.18765
{$S_l/S_o$}	[]	0.582206
{$\Psi$}	[]	0.559056
{$\eta$}	[]	0.593801
{med($\theta_e$)}	{[$^\circ$]}	61.81785
{$\Upsilon$}	[]	17
{$\Xi$}	[]	13
