facetNormals:0,facetNormals:1,facetNormals:2,FacetCenters:0,FacetCenters:1,FacetCenters:2,FacetIds,relFacetSize,absFacetSize,cellPairingIds,interplanarAngles,angleWeights
-0.1342,-0.300377,-0.860188,5.32001,6.03546,7.10011,1,0.121885,0.0153593,8,61.1329,0.0327077
0.662865,0.209449,-0.678748,5.3371,6.09278,7.17061,2,0.0188881,0.00238018,13,48.9496,0.0895374
-0.577421,0.320854,-0.697323,5.30529,6.0921,7.1135,3,0.0707584,0.0089166,19,69.2261,0.0736049
0.739168,-0.578829,-0.285864,5.36465,6.00336,7.13043,4,0.0527213,0.00664366,26,54.9371,0.0590922
-0.730142,-0.575507,-0.282805,5.27499,6.00778,7.1391,5,0.0390001,0.00491458,34,77.3934,0.0962037
-0.940275,0.16612,-0.136711,5.27421,6.04783,7.17282,6,0.079461,0.0100133,43,96.1299,0.0698219
-0.623844,0.728749,-0.0473453,5.28776,6.08684,7.17413,7,0.0489239,0.00616514,53,68.5813,0.0744235
-0.205053,-0.937666,-0.0158998,5.30495,6.02679,7.19747,8,0.0535654,0.00675002,64,125.835,0.0303994
-0.279996,0.869445,0.354143,5.29945,6.09863,7.21783,9,0.0173653,0.00218828,76,111.289,0.0524009
0.690689,-0.511159,0.447308,5.35832,6.00749,7.18951,10,0.0333746,0.0042057,89,101.84,0.137448
-0.405148,-0.647155,0.488293,5.32811,6.00499,7.23073,11,0.157566,0.0198556,103,144.779,0.0527168
-0.399119,0.445054,0.736591,5.29518,6.06576,7.24087,12,0.0336314,0.00423805,118,135.354,0.0486371
0.137874,-0.422182,0.869903,5.32541,6.03527,7.25314,13,0.03038,0.00382832,18,80.2678,0.029817
,,,,,,,,,25,53.8281,0.0278122
,,,,,,,,,33,115.912,0.0254504
,,,,,,,,,42,121.933,0.0305212
,,,,,,,,,52,104.19,0.0272542
,,,,,,,,,63,110.166,0.0279282
,,,,,,,,,75,104.845,0.0180947
,,,,,,,,,88,87.1277,0.0241236
,,,,,,,,,102,146.649,0.0337326
,,,,,,,,,117,136.748,0.0241904
,,,,,,,,,133,128.249,0.0232938
,,,,,,,,,32,115.997,0.0604225
,,,,,,,,,41,62.2812,0.0502847
,,,,,,,,,51,41.7183,0.0748576
,,,,,,,,,62,47.1803,0.0578495
,,,,,,,,,74,100.711,0.060973
,,,,,,,,,87,78.1218,0.0278867
,,,,,,,,,101,160.067,0.0453561
,,,,,,,,,116,111.157,0.0976604
,,,,,,,,,132,98.8625,0.0455926
,,,,,,,,,149,151.143,0.0425089
,,,,,,,,,50,97.5761,0.0448344
,,,,,,,,,61,142.608,0.0633865
,,,,,,,,,73,157.274,0.0507517
,,,,,,,,,86,65.1623,0.05314
,,,,,,,,,100,147.566,0.0261254
,,,,,,,,,115,44.4608,0.0408743
,,,,,,,,,131,94.1564,0.079007
,,,,,,,,,148,145.06,0.0410662
,,,,,,,,,166,84.1554,0.0385475
,,,,,,,,,72,47.8021,0.0523207
,,,,,,,,,85,86.9608,0.043402
,,,,,,,,,99,41.9435,0.0451368
,,,,,,,,,114,114.586,0.0240306
,,,,,,,,,130,110.953,0.0359687
,,,,,,,,,147,52.9879,0.0625244
,,,,,,,,,165,100.818,0.0361173
,,,,,,,,,184,96.2733,0.0341545
,,,,,,,,,98,39.5727,0.0605608
,,,,,,,,,113,87.5728,0.0639927
,,,,,,,,,129,67.6529,0.0285018
,,,,,,,,,146,148.359,0.0470061
,,,,,,,,,164,76.3238,0.105645
,,,,,,,,,183,67.6123,0.0472602
,,,,,,,,,203,109.772,0.0439549
,,,,,,,,,128,126.982,0.0511396
,,,,,,,,,145,32.7334,0.0256324
,,,,,,,,,163,152.403,0.0396804
,,,,,,,,,182,106.14,0.0746647
,,,,,,,,,202,53.7752,0.0398613
,,,,,,,,,223,117.617,0.0374839
,,,,,,,,,162,144.274,0.0262278
,,,,,,,,,181,69.1781,0.0411255
,,,,,,,,,201,38.3675,0.079951
,,,,,,,,,222,112.411,0.0413198
,,,,,,,,,244,67.8332,0.0387708
,,,,,,,,,200,120.342,0.0228443
,,,,,,,,,221,108.131,0.0312828
,,,,,,,,,243,35.1853,0.0229042
,,,,,,,,,266,95.8543,0.0220988
,,,,,,,,,242,72.1315,0.0550821
,,,,,,,,,265,100.894,0.0335025
,,,,,,,,,289,42.2702,0.031807
,,,,,,,,,288,74.2513,0.0554313
,,,,,,,,,313,43.4979,0.0509386
,,,,,,,,,338,64.5723,0.0319231
