facetNormals:0,facetNormals:1,facetNormals:2,FacetCenters:0,FacetCenters:1,FacetCenters:2,FacetIds,relFacetSize,absFacetSize,cellPairingIds,interplanarAngles,angleWeights
-0.272127,0.0558324,-0.924245,4.2891,3.64401,7.7487,1,0.039495,0.00456037,8,45.498,0.0305531
0.233284,0.575847,-0.74251,4.31512,3.64491,7.70142,2,0.0249127,0.00287659,13,34.6245,0.0324467
-0.627953,0.399291,-0.627269,4.28356,3.6087,7.71108,3,0.0275332,0.00317918,19,43.5839,0.0375554
-0.775417,-0.268592,-0.524613,4.26924,3.62863,7.79786,4,0.0357974,0.00413342,26,76.7946,0.041019
0.564783,-0.658652,-0.437911,4.32011,3.55089,7.72602,5,0.0426654,0.00492645,34,74.314,0.0652597
-0.439863,-0.82115,-0.188406,4.24128,3.56608,7.77661,6,0.18772,0.0216755,43,88.6817,0.0618373
0.917363,0.0299798,-0.291424,4.34918,3.63211,7.74471,7,0.142384,0.0164406,53,129.494,0.051387
0.83033,0.292262,0.421261,4.31901,3.68432,7.83348,8,0.0735259,0.00848981,64,139.205,0.0596136
0.684898,-0.412718,0.533146,4.32616,3.58696,7.83835,9,0.121511,0.0140305,76,135.947,0.057428
-0.326511,-0.452797,0.802262,4.23109,3.59204,7.86216,10,0.105191,0.0121461,89,161.863,0.0403257
0.27127,0.247705,0.896387,4.28374,3.66454,7.87673,11,0.041192,0.00475632,18,54.3495,0.0261575
,,,,,,,,,25,86.719,0.0293793
,,,,,,,,,33,85.2679,0.0314572
,,,,,,,,,42,118.254,0.0439877
,,,,,,,,,52,61.3056,0.0424057
,,,,,,,,,63,87.0144,0.0372156
,,,,,,,,,75,120.607,0.041348
,,,,,,,,,88,170.253,0.0402846
,,,,,,,,,102,119.346,0.0310478
,,,,,,,,,32,41.6097,0.0311261
,,,,,,,,,41,111.259,0.0334683
,,,,,,,,,51,85.8762,0.0480228
,,,,,,,,,62,114.005,0.0461435
,,,,,,,,,74,134.776,0.0400638
,,,,,,,,,87,173.471,0.0448939
,,,,,,,,,101,120.235,0.043643
,,,,,,,,,116,132.233,0.0330053
,,,,,,,,,50,91.8949,0.0389308
,,,,,,,,,61,44.479,0.0601286
,,,,,,,,,73,127.156,0.0572111
,,,,,,,,,86,172.979,0.0481514
,,,,,,,,,100,138.394,0.0553026
,,,,,,,,,115,92.7744,0.0534167
,,,,,,,,,131,142.359,0.0383057
,,,,,,,,,72,66.0521,0.0695283
,,,,,,,,,85,48.0231,0.0656567
,,,,,,,,,99,84.4346,0.0539974
,,,,,,,,,114,62.922,0.0631554
,,,,,,,,,130,104.479,0.0607077
,,,,,,,,,147,115.308,0.0419158
,,,,,,,,,98,114.066,0.161939
,,,,,,,,,113,137.572,0.105665
,,,,,,,,,129,93.9428,0.147528
,,,,,,,,,146,66.9105,0.134829
,,,,,,,,,164,122.273,0.0675593
,,,,,,,,,128,46.4315,0.0969747
,,,,,,,,,145,60.1575,0.131122
,,,,,,,,,163,125.525,0.120994
,,,,,,,,,182,90.3039,0.0638981
,,,,,,,,,162,44.1753,0.0916155
,,,,,,,,,181,93.9369,0.0865531
,,,,,,,,,201,44.4161,0.0528022
,,,,,,,,,200,65.4034,0.112763
,,,,,,,,,221,52.9108,0.0615266
,,,,,,,,,242,56.8028,0.0592012
