facetNormals:0,facetNormals:1,facetNormals:2,FacetCenters:0,FacetCenters:1,FacetCenters:2,FacetIds,relFacetSize,absFacetSize,cellPairingIds,interplanarAngles,angleWeights
-0.182833,-0.250834,-0.919288,6.05402,3.85751,7.77128,1,0.0442318,0.0056209,8,39.9833,0.0565153
0.455408,-0.180222,-0.800011,6.08035,3.81266,7.7718,2,0.0782445,0.00994319,13,51.7059,0.0568884
-0.674785,0.348605,-0.589943,6.02819,3.88787,7.8063,3,0.0796918,0.0101271,19,59.752,0.0408174
-0.861644,-0.349707,-0.24442,6.09297,3.87222,7.83542,4,0.0378925,0.00481532,26,66.2487,0.0355657
-0.698011,-0.685316,-0.0918511,6.10872,3.80302,7.84596,5,0.029739,0.00377919,34,88.0883,0.0568305
-0.902817,0.30023,0.0640621,6.03204,3.85037,7.86395,6,0.079465,0.0100983,43,110.538,0.0329603
0.171729,0.952347,0.0651236,6.02672,3.90925,7.83233,7,0.0262668,0.00333794,53,125.419,0.0712563
0.788169,0.44499,0.306323,6.07145,3.87519,7.83947,8,0.183167,0.0232765,64,111.557,0.0428272
-0.299307,0.891872,0.188232,5.9909,3.92992,7.85242,9,0.041509,0.00527491,76,121.452,0.0162876
0.439813,-0.624658,0.627407,6.07369,3.73836,7.8581,10,0.0099816,0.00126845,89,151.535,0.0636
-0.0168749,-0.182263,0.958743,5.99894,3.84025,7.8965,11,0.113143,0.014378,18,83.5185,0.0789615
,,,,,,,,,25,98.5338,0.0510583
,,,,,,,,,33,97.5373,0.0430976
,,,,,,,,,42,125.27,0.07885
,,,,,,,,,52,99.2044,0.0393303
,,,,,,,,,63,87.8465,0.109649
,,,,,,,,,75,119.828,0.0542423
,,,,,,,,,88,101.764,0.0177046
,,,,,,,,,102,144.121,0.092512
,,,,,,,,,32,49.2406,0.0513626
,,,,,,,,,41,72.3629,0.0433143
,,,,,,,,,51,42.5057,0.0795782
,,,,,,,,,62,79.0179,0.0395107
,,,,,,,,,74,127.343,0.111063
,,,,,,,,,87,64.1822,0.0545859
,,,,,,,,,101,158.517,0.0177411
,,,,,,,,,116,131.155,0.093516
,,,,,,,,,50,23.918,0.0333243
,,,,,,,,,61,44.2047,0.0513154
,,,,,,,,,73,122.2,0.0310263
,,,,,,,,,86,171.913,0.0627944
,,,,,,,,,100,96.2238,0.0396184
,,,,,,,,,115,109.282,0.0158009
,,,,,,,,,131,99.5721,0.0567717
,,,,,,,,,72,63.466,0.0432807
,,,,,,,,,85,144.782,0.0278953
,,,,,,,,,99,160.186,0.0511701
,,,,,,,,,114,116.431,0.0346519
,,,,,,,,,130,86.2535,0.0149465
,,,,,,,,,147,87.0936,0.0470985
,,,,,,,,,98,81.6034,0.0394827
,,,,,,,,,113,127.79,0.110842
,,,,,,,,,129,53.0421,0.0545326
,,,,,,,,,146,125.276,0.0177354
,,,,,,,,,164,88.6497,0.0933597
,,,,,,,,,128,51.3296,0.0459449
,,,,,,,,,145,29.4566,0.032174
,,,,,,,,,163,119.938,0.014466
,,,,,,,,,182,96.9188,0.0426355
,,,,,,,,,162,76.203,0.0676804
,,,,,,,,,181,73.9687,0.0189315
,,,,,,,,,201,77.6627,0.139881
,,,,,,,,,200,126.99,0.0160933
,,,,,,,,,221,88.5949,0.0607358
,,,,,,,,,242,42.8023,0.0183448
