Q	U	V
{$V$}	{[mm$^3$]}	0.0173771
{$d_v$}	{[mm]}	0.321361
{$S_c$}	{[mm$^2$]}	0.57472
{$S_o$}	{[mm$^2$]}	0.405101
{$S_l/S_o$}	[]	0.418708
{$\Psi$}	[]	0.56452
{$\eta$}	[]	0.600607
{med($\theta_e$)}	{[$^\circ$]}	66.3789
{$\Upsilon$}	[]	15
{$\Xi$}	[]	15
