"cellPairingIds","interplanarAngles","angleWeights"
8,45.0101,0.0341948
13,46.444,0.0763199
19,59.9445,0.0776295
26,68.707,0.0387515
34,69.3258,0.0428352
53,101.015,0.0447711
18,57.8674,0.0436119
33,38.0899,0.0280645
117,123.341,0.0424173
51,54.1904,0.0587178
132,88.3705,0.134521
61,56.2751,0.05949
73,34.461,0.0637445
86,74.0793,0.0632908
99,60.8666,0.0348143
165,134.994,0.0496611
98,71.4927,0.0382391
146,32.1676,0.0331728
183,78.4879,0.0565728
128,57.6388,0.0397745
145,44.3725,0.0479203
163,74.4432,0.0344552
182,33.5855,0.0461075
162,27.8912,0.0476635
222,124.545,0.0599993
221,60.7396,0.0570543
243,100.803,0.0806899
242,43.9226,0.0389372
265,49.1039,0.0486657
288,73.832,0.0756796
