Q	U	V
{$V$}	{[mm$^3$]}	0.016255
{$d_v$}	{[mm]}	0.314289
{$S_c$}	{[mm$^2$]}	0.521879
{$S_o$}	{[mm$^2$]}	0.337969
{$S_l/S_o$}	[]	0.544162
{$\Psi$}	[]	0.594619
{$\eta$}	[]	0.624034
{med($\theta_e$)}	{[$^\circ$]}	63.9547
{$\Upsilon$}	[]	13
{$\Xi$}	[]	11
