facetNormals:0,facetNormals:1,facetNormals:2,FacetCenters:0,FacetCenters:1,FacetCenters:2,FacetIds,relFacetSize,absFacetSize,cellPairingIds,interplanarAngles,angleWeights
-0.371284,0.353651,-0.819988,6.36024,7.80298,6.99581,1,0.0122946,0.00109533,8,63.0906,0.0216541
0.0157746,-0.56642,-0.75555,6.39085,7.7225,6.98527,2,0.0907041,0.00808082,13,72.9135,0.0140876
0.735972,0.302128,-0.535207,6.41126,7.76564,7.02191,3,0.0164928,0.00146934,19,39.4021,0.0191206
-0.82692,0.361472,-0.352741,6.32337,7.81247,6.99837,4,0.0429873,0.00382974,26,104.729,0.00962385
0.771698,0.509904,0.151553,6.41714,7.79411,7.0758,5,0.00790635,0.000704376,34,103.036,0.0129756
-0.356359,-0.922855,0.0266223,6.40224,7.70064,7.03766,6,0.0137365,0.00122378,43,116.934,0.0194868
0.148564,-0.970337,0.0390787,6.43067,7.69554,7.03871,7,0.0469547,0.00418319,53,84.9098,0.0235442
-0.878201,-0.307354,0.166181,6.32928,7.78126,7.05452,8,0.276996,0.0246775,64,136.102,0.0180751
0.459581,-0.812415,0.266475,6.42214,7.70074,7.06375,9,0.0341142,0.00303923,76,113.611,0.0148554
-0.563418,-0.700259,0.422183,6.40452,7.7221,7.06684,10,0.0187635,0.00167164,89,146.842,0.0145963
0.524534,0.1819,0.812931,6.37371,7.80196,7.11593,11,0.0179584,0.00159991,103,157.678,0.0230233
0.00446467,-0.378831,0.834047,6.407,7.76413,7.11556,12,0.180757,0.0161036,18,74.3125,0.0279106
,,,,,,,,,25,86.9479,0.0583302
,,,,,,,,,33,116.224,0.0145449
,,,,,,,,,42,57.8762,0.0238596
,,,,,,,,,52,55.7311,0.0618774
,,,,,,,,,63,87.7734,0.136658
,,,,,,,,,75,73.1272,0.0495808
,,,,,,,,,88,85.7945,0.0310946
,,,,,,,,,102,139.691,0.0299809
,,,,,,,,,117,118.704,0.120794
,,,,,,,,,32,109.53,0.0238392
,,,,,,,,,41,44.5098,0.0106887
,,,,,,,,,51,125.82,0.014989
,,,,,,,,,62,102.553,0.0244112
,,,,,,,,,74,156.035,0.0311319
,,,,,,,,,87,93.0692,0.0222356
,,,,,,,,,101,153.512,0.017555
,,,,,,,,,116,89.6411,0.0171944
,,,,,,,,,132,129.403,0.0302275
,,,,,,,,,50,123.956,0.0133562
,,,,,,,,,61,92.887,0.02082
,,,,,,,,,73,120.797,0.0448835
,,,,,,,,,86,52.5813,0.0744246
,,,,,,,,,100,144.707,0.0380402
,,,,,,,,,115,86.1947,0.0261241
,,,,,,,,,131,133.347,0.0253335
,,,,,,,,,148,119.333,0.0694566
,,,,,,,,,72,143.078,0.0100362
,,,,,,,,,85,113.979,0.0135338
,,,,,,,,,99,155.993,0.0153739
,,,,,,,,,114,91.2099,0.0128375
,,,,,,,,,130,141.449,0.011125
,,,,,,,,,147,47.7197,0.0109791
,,,,,,,,,165,94.2292,0.01515
,,,,,,,,,98,29.8106,0.0212549
,,,,,,,,,113,50.0169,0.026175
,,,,,,,,,129,51.8756,0.0195863
,,,,,,,,,146,29.1475,0.0158612
,,,,,,,,,164,109.997,0.0155663
,,,,,,,,,183,65.8969,0.0255327
,,,,,,,,,128,79.183,0.0802978
,,,,,,,,,145,24.6096,0.0395175
,,,,,,,,,163,51.1242,0.0268125
,,,,,,,,,182,93.9612,0.0259803
,,,,,,,,,202,63.5504,0.074545
,,,,,,,,,162,96.8624,0.0607469
,,,,,,,,,181,33.7702,0.0351462
,,,,,,,,,201,114.204,0.03373
,,,,,,,,,222,73.14,0.218759
,,,,,,,,,200,64.0051,0.0242107
,,,,,,,,,221,71.0754,0.0235301
,,,,,,,,,243,53.2472,0.057396
,,,,,,,,,242,94.6768,0.0183521
,,,,,,,,,265,47.4711,0.0339979
,,,,,,,,,288,47.3087,0.0326709
