facetNormals:0,facetNormals:1,facetNormals:2,FacetCenters:0,FacetCenters:1,FacetCenters:2,FacetIds,relFacetSize,absFacetSize,cellPairingIds,interplanarAngles,angleWeights
0.00693073,-0.207239,-0.869799,7.23834,6.83508,7.86886,1,0.159392,0.028586,8,44.5113,0.0330685
-0.565147,-0.544045,-0.598005,7.20045,6.81808,7.87145,2,0.0184479,0.00330852,13,72.4114,0.0321733
-0.200647,0.81748,-0.500607,7.22393,6.89257,7.8806,3,0.0178925,0.0032089,19,85.4534,0.132203
0.621802,0.710227,-0.243712,7.33947,6.93151,7.90174,4,0.112938,0.0202547,26,76.2408,0.115123
0.5566,-0.751611,-0.0454348,7.32037,6.83408,7.94908,5,0.0900987,0.0161586,34,112.017,0.118408
-0.678984,0.614837,0.210286,7.22947,6.89314,7.93802,6,0.0941886,0.0168921,43,109.823,0.0894312
-0.872413,-0.173222,0.370184,7.19625,6.79913,7.9553,7,0.0621514,0.0111465,53,120.77,0.023539
-0.594734,-0.48065,0.6313,7.21067,6.76672,8.00355,8,0.0127079,0.00227907,64,153.781,0.0400911
-0.163287,0.599867,0.764627,7.27564,6.88153,8.00339,9,0.0229291,0.0041122,76,147.811,0.0833376
0.494589,0.105918,0.808176,7.34564,6.85071,8.02093,10,0.0564176,0.0101182,89,169.91,0.0818647
-0.14442,0.122826,0.958506,7.27253,6.82069,8.02936,11,0.055076,0.00987753,18,91.8974,0.0181659
,,,,,,,,,25,128.001,0.0317153
,,,,,,,,,33,82.4399,0.0306252
,,,,,,,,,42,94.7351,0.0308529
,,,,,,,,,52,67.3534,0.0284509
,,,,,,,,,63,76.9965,0.0150491
,,,,,,,,,75,135.332,0.0204459
,,,,,,,,,88,150.738,0.0278042
,,,,,,,,,102,125.407,0.0276383
,,,,,,,,,32,52.7568,0.030891
,,,,,,,,,41,140.085,0.0298559
,,,,,,,,,51,54.5694,0.0300723
,,,,,,,,,62,99.2631,0.0277858
,,,,,,,,,74,127.384,0.0148609
,,,,,,,,,87,81.6374,0.0201001
,,,,,,,,,101,116.541,0.0271686
,,,,,,,,,116,111.483,0.0270102
,,,,,,,,,50,101.157,0.100234
,,,,,,,,,61,92.2999,0.102715
,,,,,,,,,73,143.572,0.0801791
,,,,,,,,,86,153.484,0.0228452
,,,,,,,,,100,81.7319,0.0381192
,,,,,,,,,115,78.4692,0.0752463
,,,,,,,,,131,104.355,0.0740435
,,,,,,,,,72,164.89,0.0920983
,,,,,,,,,85,114.368,0.07356
,,,,,,,,,99,89.9044,0.0222741
,,,,,,,,,114,128.663,0.0365554
,,,,,,,,,130,79.7433,0.0693869
,,,,,,,,,147,103.672,0.0683628
,,,,,,,,,98,51.4957,0.0748875
,,,,,,,,,113,75.0098,0.0223943
,,,,,,,,,129,46.248,0.0368802
,,,,,,,,,146,96.4558,0.0705668
,,,,,,,,,164,65.8879,0.0695078
,,,,,,,,,128,28.9659,0.0211012
,,,,,,,,,145,70.2003,0.0334995
,,,,,,,,,163,99.4406,0.0591459
,,,,,,,,,182,60.7784,0.0584002
,,,,,,,,,162,72.6446,0.0163527
,,,,,,,,,181,79.9399,0.0207433
,,,,,,,,,201,49.2873,0.0206509
,,,,,,,,,200,50.2548,0.0326064
,,,,,,,,,221,30.4398,0.0323785
,,,,,,,,,242,39.7493,0.0557387
