"cellPairingIds","interplanarAngles","angleWeights"
13,63.6912,0.0211193
19,65.8292,0.0300386
26,45.9448,0.0322184
76,145.963,0.03408
41,41.0692,0.0344707
51,39.1318,0.0353931
101,125.047,0.0366104
50,100.711,0.066887
73,34.1017,0.0557499
86,68.3726,0.0667637
100,115,0.0597376
115,96.4237,0.0754427
148,101.172,0.0437312
72,71.1086,0.0837366
114,35.4972,0.0690247
129,63.2909,0.0728251
146,91.9843,0.0975922
224,65.2124,0.076511
163,67.1171,0.0714826
202,98.107,0.0423706
245,102.285,0.0594788
162,47.2495,0.0688934
222,37.8821,0.0484444
243,29.2072,0.044635
290,49.4004,0.0640395
314,85.5588,0.0824365
365,34.8139,0.0459931
