"cellPairingIds","interplanarAngles","angleWeights"
8,33.1795,0.0875975
13,39.2096,0.0442173
19,95.1703,0.11683
103,102.238,0.0286299
134,129.306,0.0210477
25,88.6889,0.0825807
42,74.3589,0.0159862
63,63.5492,0.0627431
117,97.0793,0.0259886
32,87.1076,0.0429017
41,38.4434,0.0259005
167,104.605,0.0160615
50,71.6995,0.040728
61,56.9407,0.0167511
100,30.4535,0.142153
115,67.7867,0.0985218
130,37.5679,0.0392924
204,83.3854,0.0157468
113,44.5144,0.0157415
129,44.3658,0.0173976
183,102.441,0.0116189
203,78.4602,0.0103794
222,62.5016,0.0253481
200,69.0511,0.126076
266,51.6832,0.0228927
289,54.4963,0.0213687
314,61.2166,0.0203659
338,87.6542,0.0138371
365,56.4626,0.0134096
392,51.7642,0.0117852
