"cellPairingIds","interplanarAngles","angleWeights"
8,58.5935,0.0233049
13,28.4249,0.0336582
19,107.769,0.0925268
76,127.173,0.0467888
18,54.7283,0.0155337
25,91.2119,0.0219909
33,41.291,0.0203837
52,27.4231,0.0152441
63,62.2607,0.0211
41,23.6641,0.0278865
87,50.4633,0.0209598
101,143.997,0.023343
149,77.4346,0.0329148
86,48.2674,0.0653955
115,63.4675,0.0417771
85,56.4121,0.0269666
114,32.6658,0.0308709
147,58.6334,0.0415739
128,42.4612,0.0282347
182,41.7461,0.0246341
181,97.2668,0.038675
201,64.9449,0.0446665
222,29.7323,0.0557077
221,35.8829,0.0278519
266,56.6243,0.0371544
265,92.5463,0.0375998
289,87.304,0.0453645
340,51.577,0.0391384
288,46.3746,0.0432385
313,75.4084,0.0538349
366,74.7102,0.0452857
393,48.6248,0.0566742
421,77.4426,0.0763795
