facetNormals:0,facetNormals:1,facetNormals:2,FacetCenters:0,FacetCenters:1,FacetCenters:2,FacetIds,relFacetSize,absFacetSize,cellPairingIds,interplanarAngles,angleWeights
-0.524237,-0.21877,-0.769266,6.88721,7.44136,8.32661,1,0.0445568,0.0123033,8,30.0413,0.0444334
-0.247794,-0.610993,-0.665397,6.93874,7.40059,8.3107,2,0.0443107,0.0122353,13,34.5586,0.0503046
-0.742127,0.258869,-0.549908,6.86994,7.49099,8.35256,3,0.057755,0.0159477,19,102.045,0.068091
0.660024,0.597814,-0.369675,7.01303,7.51382,8.34748,4,0.144317,0.0398496,26,88.9782,0.0286264
0.434659,-0.890818,-0.0648926,6.94728,7.35221,8.4276,5,0.0210871,0.00582269,34,68.5396,0.0469896
0.0306164,-0.950028,-0.191684,6.97665,7.37327,8.35055,6,0.0497035,0.0137244,43,119.734,0.045255
0.857075,-0.424844,0.132122,6.9974,7.39683,8.42157,7,0.0459754,0.012695,53,75.0629,0.062886
-0.613842,0.703696,-0.0821682,6.8684,7.49953,8.41609,8,0.106834,0.0294997,64,109.019,0.0491788
0.292956,-0.818985,0.425533,6.97439,7.37852,8.45522,9,0.0548706,0.0151512,76,122.461,0.0597398
-0.352933,0.497727,0.737725,6.89036,7.49528,8.50802,10,0.0906184,0.0250221,89,166.052,0.0544644
0.633598,0.020348,0.71761,6.98138,7.45583,8.4789,11,0.0700378,0.0193393,18,64.1609,0.0501474
,,,,,,,,,25,108.249,0.0678032
,,,,,,,,,33,58.9623,0.0285754
,,,,,,,,,42,39.545,0.0468524
,,,,,,,,,52,92.5797,0.0451277
,,,,,,,,,63,104.723,0.0626405
,,,,,,,,,75,80.8235,0.0490285
,,,,,,,,,88,142.089,0.0595181
,,,,,,,,,102,136.16,0.0542801
,,,,,,,,,32,98.1912,0.0824955
,,,,,,,,,41,122.895,0.0308943
,,,,,,,,,51,100.108,0.0534276
,,,,,,,,,62,152.105,0.0511964
,,,,,,,,,74,40.5852,0.074977
,,,,,,,,,87,135.581,0.0562759
,,,,,,,,,101,90.9305,0.0705472
,,,,,,,,,116,159.364,0.0633061
,,,,,,,,,50,103.382,0.0367974
,,,,,,,,,61,120.668,0.0739412
,,,,,,,,,73,73.6011,0.0697351
,,,,,,,,,86,87.0888,0.122778
,,,,,,,,,100,119.064,0.0795105
,,,,,,,,,115,103.03,0.111331
,,,,,,,,,131,79.7002,0.0943075
,,,,,,,,,72,25.1254,0.0296113
,,,,,,,,,85,39.2877,0.0289129
,,,,,,,,,99,162.559,0.035222
,,,,,,,,,114,30.4381,0.0304659
,,,,,,,,,130,132.68,0.0342128
,,,,,,,,,147,77.2009,0.0324147
,,,,,,,,,98,64.4043,0.0477668
,,,,,,,,,113,137.632,0.0678434
,,,,,,,,,129,41.2933,0.0521594
,,,,,,,,,146,132.326,0.064196
,,,,,,,,,164,98.5158,0.058144
,,,,,,,,,128,157.434,0.0642858
,,,,,,,,,145,45.5135,0.0500307
,,,,,,,,,163,116.775,0.0610016
,,,,,,,,,182,47.1182,0.0555112
,,,,,,,,,162,150.638,0.0725031
,,,,,,,,,181,55.6578,0.0980603
,,,,,,,,,201,118.885,0.0846083
,,,,,,,,,200,102.276,0.0683527
,,,,,,,,,221,59.2312,0.0615333
,,,,,,,,,242,69.8412,0.0790099
