"cellPairingIds","interplanarAngles","angleWeights"
25,72.8468,0.0599409
63,95.1595,0.0130867
75,72.6559,0.044711
50,35.7847,0.0638788
86,145.295,0.0115978
100,140.679,0.0310792
131,79.692,0.0558857
99,132.191,0.0132653
130,155.982,0.0796174
147,69.704,0.141739
162,56.451,0.0108807
181,37.7339,0.0120296
200,27.5239,0.0343864
221,101.976,0.0424153
242,102.774,0.0675718
