Q	U	V
{$V$}	{[mm$^3$]}	0.00155318
{$d_v$}	{[mm]}	0.143684
{$S_c$}	{[mm$^2$]}	0.114359
{$S_o$}	{[mm$^2$]}	0.0610674
{$S_l/S_o$}	[]	0.872669
{$\Psi$}	[]	0.567146
{$\eta$}	[]	0.637276
{med($\theta_e$)}	{[$^\circ$]}	71.096
{$\Upsilon$}	[]	18
{$\Xi$}	[]	6
