facetNormals:0,facetNormals:1,facetNormals:2,FacetCenters:0,FacetCenters:1,FacetCenters:2,FacetIds,relFacetSize,absFacetSize,cellPairingIds,interplanarAngles,angleWeights
-0.182175,-0.225995,-0.938348,6.48792,6.65056,7.22352,1,0.0342498,0.0096333,8,47.4316,0.0235016
0.293298,0.404037,-0.855874,6.57251,6.75302,7.30146,2,0.017888,0.0050313,13,30.2247,0.040788
-0.131924,-0.67569,-0.699049,6.45764,6.61496,7.26027,3,0.0504114,0.014179,19,31.4308,0.0289939
-0.484686,-0.556286,-0.650418,6.43527,6.60548,7.27306,4,0.0251365,0.00707005,26,65.3202,0.0449863
0.687599,0.282176,-0.626244,6.57904,6.70596,7.28491,5,0.065528,0.0184308,34,77.0754,0.04064
0.886822,-0.10246,-0.374115,6.61187,6.63508,7.31735,6,0.0499617,0.0140525,43,61.5385,0.0302385
-0.0223585,-0.952898,-0.258869,6.51157,6.5485,7.35279,7,0.0270683,0.00761338,53,78.9073,0.0510561
-0.269619,0.83946,-0.340157,6.47365,6.75191,7.29702,8,0.100248,0.0281963,64,108.757,0.0285874
0.482276,0.853123,0.0309272,6.6019,6.76615,7.38921,9,0.0245317,0.00689993,76,91.1804,0.0225061
0.0789319,-0.959911,0.237254,6.53385,6.55365,7.44729,10,0.0167595,0.00471388,89,109.266,0.0500336
0.894768,-0.285728,0.229019,6.62579,6.63963,7.4193,11,0.0928002,0.0261015,103,94.3217,0.044896
-0.734294,-0.503239,0.338895,6.42979,6.60596,7.40505,12,0.0651459,0.0183233,118,103.826,0.0350193
0.604305,-0.710718,0.298902,6.59308,6.5781,7.43521,13,0.0358242,0.0100761,134,92.3932,0.0336057
-0.345339,-0.857259,0.316207,6.47902,6.55383,7.3921,14,0.0329855,0.0092777,151,130.189,0.0216686
0.118353,0.87817,0.431169,6.53973,6.78308,7.41987,15,0.0158473,0.00445731,169,168.068,0.0462419
0.359672,0.156952,0.867274,6.56903,6.70065,7.49183,16,0.0711567,0.020014,18,72.854,0.0264061
,,,,,,,,,25,78.7723,0.0209017
,,,,,,,,,33,27.8252,0.0281041
,,,,,,,,,42,55.8135,0.026344
,,,,,,,,,52,100.004,0.0215408
,,,,,,,,,63,53.9373,0.0303589
,,,,,,,,,75,61.7612,0.0206896
,,,,,,,,,88,125.285,0.0173054
,,,,,,,,,102,92.9333,0.0299944
,,,,,,,,,117,138.672,0.0280688
,,,,,,,,,133,112.135,0.0238614
,,,,,,,,,150,137.913,0.0231966
,,,,,,,,,168,88.797,0.0168059
,,,,,,,,,187,127.437,0.0285891
,,,,,,,,,32,22.0411,0.033546
,,,,,,,,,41,80.56,0.0569842
,,,,,,,,,51,76.9919,0.0501856
,,,,,,,,,62,31.3278,0.0352234
,,,,,,,,,74,108.477,0.0670869
,,,,,,,,,87,133.459,0.0330031
,,,,,,,,,101,60.9659,0.0251558
,,,,,,,,,116,95.1456,0.0653325
,,,,,,,,,132,77.6427,0.0568393
,,,,,,,,,149,78.5039,0.0418841
,,,,,,,,,167,65.0838,0.0398778
,,,,,,,,,186,160.323,0.0241141
,,,,,,,,,206,144.438,0.059014
,,,,,,,,,50,94.9762,0.0363349
,,,,,,,,,61,97.8179,0.0334459
,,,,,,,,,73,43.1029,0.0260666
,,,,,,,,,86,97.1103,0.0401945
,,,,,,,,,100,139.056,0.0248304
,,,,,,,,,115,69.5167,0.0201105
,,,,,,,,,131,116.459,0.039558
,,,,,,,,,148,63.678,0.0362759
,,,,,,,,,166,95.4759,0.0295435
,,,,,,,,,185,62.8378,0.028531
,,,,,,,,,205,148.488,0.0194392
,,,,,,,,,226,151.874,0.0371497
,,,,,,,,,72,29.9461,0.0566958
,,,,,,,,,85,97.3102,0.038311
,,,,,,,,,99,73.2628,0.0792521
,,,,,,,,,114,54.5297,0.0356988
,,,,,,,,,130,112.258,0.0266922
,,,,,,,,,147,65.3972,0.0768153
,,,,,,,,,165,158.131,0.0653364
,,,,,,,,,184,88.3276,0.0463234
,,,,,,,,,204,135.521,0.0438818
,,,,,,,,,225,86.4585,0.0255223
,,,,,,,,,247,105.775,0.0682264
,,,,,,,,,98,79.4738,0.035113
,,,,,,,,,113,102.492,0.0666876
,,,,,,,,,129,69.7355,0.0329061
,,,,,,,,,146,85.245,0.0250995
,,,,,,,,,164,38.0327,0.0649537
,,,,,,,,,183,141.988,0.0565523
,,,,,,,,,203,58.3959,0.0417281
,,,,,,,,,224,110.863,0.0397364
,,,,,,,,,246,98.8243,0.0240623
,,,,,,,,,269,91.3418,0.0587047
,,,,,,,,,128,139.13,0.0426267
,,,,,,,,,145,149.188,0.0257376
,,,,,,,,,163,29.6419,0.0207015
,,,,,,,,,182,78.3406,0.0419116
,,,,,,,,,202,64.2836,0.0382455
,,,,,,,,,223,52.698,0.0308367
,,,,,,,,,245,39.6582,0.0297354
,,,,,,,,,268,167.728,0.0199908
,,,,,,,,,292,113.98,0.0392179
,,,,,,,,,162,51.5956,0.0394175
,,,,,,,,,181,165.556,0.0287179
,,,,,,,,,201,127.722,0.0963803
,,,,,,,,,222,112.175,0.078972
,,,,,,,,,244,158.478,0.0527853
,,,,,,,,,267,142.677,0.0496381
,,,,,,,,,291,53.142,0.0273682
,,,,,,,,,316,106.814,0.0832335
,,,,,,,,,200,142.685,0.0199141
,,,,,,,,,221,78.1384,0.0388052
,,,,,,,,,243,145.859,0.0356419
,,,,,,,,,266,108.555,0.0291215
,,,,,,,,,290,158.018,0.0281373
,,,,,,,,,315,31.9776,0.0192556
,,,,,,,,,341,69.0198,0.0364849
,,,,,,,,,242,65.3988,0.0283915
,,,,,,,,,265,57.6547,0.0266603
,,,,,,,,,289,34.498,0.0228358
,,,,,,,,,314,26.0286,0.0222262
,,,,,,,,,340,138.431,0.0162906
,,,,,,,,,367,84.9272,0.0271292
,,,,,,,,,288,118.232,0.0765521
,,,,,,,,,313,30.9503,0.0516931
,,,,,,,,,339,89.4927,0.048671
,,,,,,,,,366,92.7839,0.0270716
,,,,,,,,,394,58.8838,0.0805499
,,,,,,,,,338,89.0654,0.0462276
,,,,,,,,,365,31.6369,0.0437958
,,,,,,,,,393,114.062,0.0254932
,,,,,,,,,422,93.1089,0.0680188
,,,,,,,,,392,58.842,0.0343463
,,,,,,,,,421,116.036,0.0219741
,,,,,,,,,451,66.9554,0.0476559
,,,,,,,,,450,133.071,0.021409
,,,,,,,,,481,89.0461,0.0450756
,,,,,,,,,512,53.7763,0.0259216
