Q	U	V
{$V$}	{[mm$^3$]}	0.00474029
{$d_v$}	{[mm]}	0.208418
{$S_c$}	{[mm$^2$]}	0.233055
{$S_o$}	{[mm$^2$]}	0.135293
{$S_l/S_o$}	[]	0.722595
{$\Psi$}	[]	0.585548
{$\eta$}	[]	0.641128
{med($\theta_e$)}	{[$^\circ$]}	56.8426
{$\Upsilon$}	[]	17
{$\Xi$}	[]	9
