"cellPairingIds","interplanarAngles","angleWeights"
8,53.5777,0.0355974
13,79.6288,0.0193483
19,82.0185,0.0376872
26,97.4418,0.0195533
53,95.7951,0.0349018
64,100.035,0.0348973
18,48.0971,0.0293778
75,80.987,0.0908209
88,95.0822,0.09669
32,57.698,0.0307867
62,77.3066,0.0261088
101,70.8927,0.0294685
50,44.2195,0.0313091
61,48.7055,0.0804914
73,55.683,0.0760385
72,25.0575,0.0270039
99,99.8757,0.0293623
98,29.7412,0.0548146
113,105.022,0.0687697
128,117.409,0.0654929
163,48.462,0.0684735
182,85.5612,0.0240243
162,43.2336,0.0864266
201,49.359,0.0263695
200,81.5373,0.0916937
221,37.8484,0.0263669
242,57.3373,0.0268399
