facetNormals:0,facetNormals:1,facetNormals:2,FacetCenters:0,FacetCenters:1,FacetCenters:2,FacetIds,relFacetSize,absFacetSize,cellPairingIds,interplanarAngles,angleWeights
0.251826,-0.0795843,-0.914721,5.48783,5.85588,8.03079,1,0.161051,0.02964,8,55.7406,0.0380983
-0.537945,-0.463227,-0.686387,5.45928,5.85709,8.05009,2,0.0216045,0.0039761,13,42.0703,0.0319921
0.387712,-0.683371,-0.595558,5.52205,5.75689,8.05751,3,0.01776,0.00326856,19,72.8982,0.0691032
-0.81823,0.0620923,-0.529596,5.40307,5.90589,8.04282,4,0.0439888,0.00809572,26,86.9866,0.0919424
-0.838442,-0.438606,-0.246164,5.42062,5.86578,8.07902,5,0.0643353,0.0118403,34,70.8413,0.0850263
0.645292,0.691657,-0.213799,5.5322,5.94968,8.08727,6,0.0577603,0.0106302,43,93.4378,0.0503337
-0.879972,0.404186,-0.215507,5.40649,5.95461,8.06068,7,0.0298279,0.00548954,53,89.8776,0.0464237
-0.068205,0.960066,-0.104459,5.49024,6.00561,8.12615,8,0.0271207,0.00499129,64,61.1957,0.141731
0.913485,0.131216,-0.237872,5.56879,5.8988,8.11199,9,0.12655,0.0232902,76,107.527,0.0354843
-0.755291,0.617018,0.0444037,5.43126,5.94185,8.11411,10,0.0199387,0.00366953,89,106.479,0.0781646
0.591873,0.646593,0.389947,5.50523,5.95935,8.10126,11,0.0516054,0.00949747,103,128.44,0.0595599
-0.464846,0.719995,0.429771,5.47286,5.95051,8.14787,12,0.0365357,0.00672405,118,106.809,0.0229575
0.826361,0.172503,0.509243,5.55192,5.94979,8.14664,13,0.0123597,0.00227468,134,141.614,0.059556
-0.727329,-0.212755,0.614024,5.45191,5.92865,8.13169,14,0.0365328,0.00672351,151,162.915,0.09497
-0.3475,0.339933,0.842446,5.45042,5.89404,8.08115,15,0.0673397,0.0123932,169,151.709,0.0514544
0.203158,0.194036,0.925559,5.49028,5.91206,8.09043,16,0.0306183,0.00563501,18,57.9396,0.0194945
,,,,,,,,,25,36.5332,0.0289773
,,,,,,,,,33,31.5035,0.0323467
,,,,,,,,,42,122.944,0.0314468
,,,,,,,,,52,63.6982,0.0250588
,,,,,,,,,63,110.599,0.0240504
,,,,,,,,,75,114.41,0.0369081
,,,,,,,,,88,84.6429,0.0207382
,,,,,,,,,102,159.189,0.0304579
,,,,,,,,,117,113.562,0.0271529
,,,,,,,,,133,153.864,0.0157239
,,,,,,,,,150,85.9299,0.0271521
,,,,,,,,,168,124.846,0.0327136
,,,,,,,,,187,150.887,0.0253335
,,,,,,,,,32,92.6349,0.0253039
,,,,,,,,,41,82.7732,0.0278358
,,,,,,,,,51,95.7107,0.0271668
,,,,,,,,,62,120,0.0222638
,,,,,,,,,74,130.533,0.0214642
,,,,,,,,,87,64.3876,0.0311486
,,,,,,,,,101,140.334,0.0187864
,,,,,,,,,116,118.038,0.0264256
,,,,,,,,,132,169.111,0.0239015
,,,,,,,,,149,95.9512,0.0145757
,,,,,,,,,167,121.49,0.0239009
,,,,,,,,,186,154.954,0.0281071
,,,,,,,,,206,129.382,0.0224804
,,,,,,,,,50,34.2641,0.0522512
,,,,,,,,,61,113.115,0.0499426
,,,,,,,,,73,27.5199,0.0355501
,,,,,,,,,86,79.5965,0.0335541
,,,,,,,,,100,131.219,0.0652846
,,,,,,,,,115,48.4199,0.0274398
,,,,,,,,,131,133.98,0.0474937
,,,,,,,,,148,77.8263,0.0399174
,,,,,,,,,166,166.22,0.0192973
,,,,,,,,,185,74.3648,0.0399156
,,,,,,,,,205,98.5187,0.0532154
,,,,,,,,,226,133.008,0.0361055
,,,,,,,,,72,146.619,0.0608708
,,,,,,,,,85,50.7591,0.0407588
,,,,,,,,,99,110.933,0.0381564
,,,,,,,,,114,145.173,0.0853039
,,,,,,,,,130,68.3797,0.0304427
,,,,,,,,,147,159.018,0.0572715
,,,,,,,,,165,91.9467,0.0466048
,,,,,,,,,184,158.022,0.0207358
,,,,,,,,,204,54.6316,0.0466024
,,,,,,,,,225,93.9264,0.0658032
,,,,,,,,,247,120.732,0.0414906
,,,,,,,,,98,104.581,0.0393402
,,,,,,,,,113,46.8301,0.0369104
,,,,,,,,,129,37.7203,0.0793179
,,,,,,,,,146,94.2467,0.0296443
,,,,,,,,,164,36.7217,0.0545096
,,,,,,,,,183,83.4449,0.0447594
,,,,,,,,,203,55.3442,0.0203622
,,,,,,,,,224,142.237,0.0447572
,,,,,,,,,246,100.336,0.0621832
,,,,,,,,,269,85.8785,0.0400215
,,,,,,,,,128,60.6621,0.0284099
,,,,,,,,,145,137.723,0.0482769
,,,,,,,,,163,20.9578,0.0239008
,,,,,,,,,182,111.157,0.0378047
,,,,,,,,,202,50.3075,0.0328428
,,,,,,,,,223,141.667,0.0174774
,,,,,,,,,245,64.1615,0.0328416
,,,,,,,,,268,74.2673,0.0413431
,,,,,,,,,292,108.207,0.030218
,,,,,,,,,162,84.4946,0.0446685
,,,,,,,,,181,47.4427,0.0229816
,,,,,,,,,201,54.4778,0.0355555
,,,,,,,,,222,43.0707,0.0311319
,,,,,,,,,244,86.633,0.0169808
,,,,,,,,,267,103.397,0.0311309
,,,,,,,,,291,73.8414,0.038668
,,,,,,,,,316,85.3603,0.0287636
,,,,,,,,,200,131.749,0.0344497
,,,,,,,,,221,54.3616,0.0733141
,,,,,,,,,243,118.244,0.0567014
,,,,,,,,,266,45.6863,0.0225199
,,,,,,,,,290,154.415,0.0566979
,,,,,,,,,315,120.698,0.0879039
,,,,,,,,,341,90.567,0.049307
,,,,,,,,,242,91.882,0.0287639
,,,,,,,,,265,29.529,0.0257984
,,,,,,,,,289,120.956,0.01526
,,,,,,,,,314,62.1161,0.0257977
,,,,,,,,,340,57.5424,0.0307674
,,,,,,,,,367,89.5523,0.0241505
,,,,,,,,,288,67.0946,0.0427823
,,,,,,,,,313,32.3315,0.019943
,,,,,,,,,339,110.559,0.0427803
,,,,,,,,,366,68.4584,0.0584319
,,,,,,,,,394,49.1789,0.0384335
,,,,,,,,,338,92.4904,0.0184709
,,,,,,,,,365,61.3177,0.0365343
,,,,,,,,,393,34.5172,0.0473703
,,,,,,,,,422,61.4609,0.0333163
,,,,,,,,,392,109.757,0.0184705
,,,,,,,,,421,77.9315,0.0208859
,,,,,,,,,451,45.1363,0.0176105
,,,,,,,,,450,42.6533,0.0473678
,,,,,,,,,481,66.2953,0.0333151
,,,,,,,,,512,34.5252,0.0420962
