"cellPairingIds","interplanarAngles","angleWeights"
18,43.5322,0.023767
25,72.5283,0.0210962
33,61.8201,0.0257875
42,42.5539,0.0314742
102,111.582,0.0167206
32,73.7318,0.0284087
51,56.8346,0.051097
62,44.5781,0.0502455
74,80.1413,0.0447183
101,116.976,0.0500366
50,56.3993,0.0313444
100,75.3857,0.0379015
115,83.6502,0.0395069
114,83.625,0.056304
147,68.5526,0.0225692
113,49.7362,0.0829252
164,97.7586,0.0268084
128,71.9181,0.0807056
163,76.9341,0.0998611
202,73.2522,0.0221445
201,90.8238,0.0249418
222,35.507,0.0210005
200,34.8873,0.0895325
221,64.5842,0.0257808
242,90.3296,0.0265136
265,71.6185,0.0221038
314,47.7393,0.112975
288,81.7039,0.0137248
339,54.0059,0.027419
365,44.3165,0.0227295
