"cellPairingIds","interplanarAngles","angleWeights"
8,54.3443,0.0302801
13,69.7259,0.0269706
26,50.5883,0.032561
34,60.5681,0.0374036
53,75.6318,0.0196265
64,86.0319,0.0402127
18,30.1268,0.0386002
42,104.829,0.0642487
52,61.1387,0.0466118
88,114.055,0.0621245
102,161.571,0.063877
41,77.7901,0.0423852
62,41.2486,0.039206
87,95.695,0.05634
114,35.9904,0.0878467
113,46.6089,0.0298588
164,81.64,0.106775
145,102.787,0.0752072
163,54.3374,0.0637088
162,45.4129,0.0316222
201,67.4947,0.0297783
200,90.1638,0.125952
221,79.9838,0.133371
242,55.0917,0.101034
