"cellPairingIds","interplanarAngles","angleWeights"
33,42.1347,0.0463855
42,122.966,0.00920976
52,45.219,0.0705425
63,47.984,0.0526596
50,87.3366,0.0213697
61,34.1205,0.00747288
148,119.91,0.0225147
72,117.704,0.00929517
99,59.4173,0.0555797
165,75.6153,0.0550028
98,122.621,0.00998003
183,138.818,0.00950544
203,137.618,0.00667476
128,49.3195,0.0942545
223,54.1672,0.0180462
222,50.8915,0.064052
244,45.5175,0.0166037
338,54.0253,0.0165519
