facetNormals:0,facetNormals:1,facetNormals:2,FacetCenters:0,FacetCenters:1,FacetCenters:2,FacetIds,relFacetSize,absFacetSize,cellPairingIds,interplanarAngles,angleWeights
0.603383,-0.165836,-0.749712,3.65244,4.33005,6.98585,1,0.0380626,0.00594105,8,57.462,0.0582102
0.114455,0.624054,-0.716327,3.60163,4.3698,6.97347,2,0.123674,0.0193038,13,90.1343,0.0373569
-0.557815,0.537807,-0.564976,3.54765,4.35906,6.9655,3,0.0366768,0.00572474,19,79.5304,0.0234337
-0.588557,-0.482457,-0.595717,3.56499,4.27981,6.96702,4,0.0169277,0.00264218,26,100.087,0.016511
-0.874418,-0.0390087,-0.468612,3.5243,4.31264,6.95817,5,0.0105419,0.00164545,34,125.681,0.0280528
-0.906922,0.364521,-0.0662354,3.52656,4.35251,7.0004,6,0.0222115,0.00346691,43,55.4662,0.0243737
0.892269,-0.412884,0.0810039,3.72065,4.26678,7.13815,7,0.0179265,0.00279808,53,111.575,0.0421972
-0.0967731,0.954703,0.178434,3.61032,4.4032,7.11045,8,0.0473394,0.00738903,64,74.3857,0.0489746
0.740643,0.651909,0.104037,3.69395,4.37336,7.13233,9,0.0686575,0.0107165,76,83.6093,0.0527019
0.4373,0.87526,0.0164641,3.66022,4.39559,7.0848,10,0.08564,0.0133672,89,86.3879,0.0335528
0.362213,-0.775892,0.386064,3.61962,4.31628,7.1192,11,0.0299985,0.00468235,103,54.8583,0.0599275
0.934175,0.173416,0.00111446,3.69695,4.32907,7.11158,12,0.140822,0.0219804,118,149.534,0.0534218
-0.680025,0.536459,0.40987,3.58889,4.37843,7.12213,13,0.0895622,0.0139794,134,157.371,0.0533499
-0.69683,-0.193486,0.65539,3.61844,4.32809,7.18055,14,0.0891591,0.0139165,18,42.5058,0.0565755
,,,,,,,,,25,86.3865,0.0297794
,,,,,,,,,33,77.1522,0.0194279
,,,,,,,,,42,79.4822,0.0376595
,,,,,,,,,52,103.076,0.0313141
,,,,,,,,,63,60.7128,0.0684701
,,,,,,,,,75,63.9406,0.088297
,,,,,,,,,88,51.3787,0.101201
,,,,,,,,,102,143.156,0.048285
,,,,,,,,,117,76.364,0.131692
,,,,,,,,,133,92.291,0.10389
,,,,,,,,,150,135.838,0.103618
,,,,,,,,,32,64.0601,0.0231642
,,,,,,,,,41,39.7936,0.0163768
,,,,,,,,,51,38.0942,0.0276675
,,,,,,,,,62,144.021,0.0240823
,,,,,,,,,74,60.0971,0.0413315
,,,,,,,,,87,97.3259,0.0478123
,,,,,,,,,101,76.599,0.0513584
,,,,,,,,,116,158.395,0.0330032
,,,,,,,,,132,118.051,0.0581964
,,,,,,,,,149,61.6553,0.0520418
,,,,,,,,,167,95.2498,0.0519735
,,,,,,,,,50,32.1246,0.0129926
,,,,,,,,,61,65.1852,0.0192129
,,,,,,,,,73,113.11,0.0174128
,,,,,,,,,86,122.724,0.024938
,,,,,,,,,100,147.914,0.0271592
,,,,,,,,,115,136.804,0.0282679
,,,,,,,,,131,94.3487,0.0216427
,,,,,,,,,148,133.677,0.0302224
,,,,,,,,,166,96.3702,0.0284737
,,,,,,,,,185,83.1167,0.0284533
,,,,,,,,,72,33.6322,0.0142979
,,,,,,,,,85,144.976,0.0132765
,,,,,,,,,99,92.1431,0.0172439
,,,,,,,,,114,137.12,0.0182775
,,,,,,,,,130,115.891,0.018773
,,,,,,,,,147,120.078,0.0156013
,,,,,,,,,165,150.886,0.0196155
,,,,,,,,,184,66.3508,0.0188636
,,,,,,,,,204,71.3579,0.0188546
,,,,,,,,,98,176.957,0.0198403
,,,,,,,,,113,63.6808,0.0302363
,,,,,,,,,129,116.979,0.0335645
,,,,,,,,,146,94.7051,0.0352743
,,,,,,,,,164,133.799,0.0255243
,,,,,,,,,183,147.389,0.0383709
,,,,,,,,,203,33.2436,0.0355953
,,,,,,,,,224,57.1946,0.0355634
,,,,,,,,,128,118.95,0.0260053
,,,,,,,,,145,65.8703,0.02843
,,,,,,,,,163,88.2107,0.0296472
,,,,,,,,,182,43.2583,0.0224421
,,,,,,,,,202,35.6105,0.0318044
,,,,,,,,,223,147.253,0.0298736
,,,,,,,,,245,120.508,0.0298511
,,,,,,,,,162,53.995,0.0560395
,,,,,,,,,181,33.5248,0.0609741
,,,,,,,,,201,140.451,0.0367248
,,,,,,,,,222,85.3391,0.0708586
,,,,,,,,,244,45.8805,0.0619397
,,,,,,,,,267,90.0206,0.061843
,,,,,,,,,200,22.6215,0.0762142
,,,,,,,,,221,102.228,0.0417536
,,,,,,,,,243,31.3492,0.0923096
,,,,,,,,,266,96.7225,0.0777289
,,,,,,,,,290,126.358,0.0775767
,,,,,,,,,242,124.028,0.0444328
,,,,,,,,,265,52.9405,0.106508
,,,,,,,,,289,79.0004,0.0875572
,,,,,,,,,314,119.018,0.0873641
,,,,,,,,,288,76.7698,0.0494607
,,,,,,,,,313,124.077,0.0449434
,,,,,,,,,339,80.5353,0.0448925
,,,,,,,,,338,126.517,0.10949
,,,,,,,,,365,137.509,0.109188
,,,,,,,,,392,46.9272,0.0893602
