"cellPairingIds","interplanarAngles","angleWeights"
8,100.972,0.0272952
19,49.5982,0.041961
34,40.488,0.0290215
43,127.485,0.0206652
53,108.114,0.0399869
76,62.517,0.0416138
52,68.2528,0.022324
63,54.2496,0.0467016
50,39.4352,0.0964935
61,35.0676,0.0553811
86,77.3559,0.116175
166,75.8009,0.0549992
99,37.9448,0.086656
184,81.7071,0.0473613
146,43.4923,0.054778
203,71.7251,0.0347131
128,105.142,0.0301509
163,99.5246,0.0310667
182,94.1077,0.0254389
202,40.7454,0.0146346
201,52.0069,0.0627842
244,92.4632,0.0516567
265,96.3272,0.0227422
289,70.8146,0.0544043
288,59.0955,0.0195725
313,46.0063,0.0392127
338,66.4587,0.0183408
