"cellPairingIds","interplanarAngles","angleWeights"
8,89.3531,0.0429465
13,96.2389,0.0359616
19,26.6662,0.0347691
26,54.0915,0.0401648
34,105.149,0.0165767
64,65.1048,0.0242366
18,32.248,0.0622317
33,58.756,0.0759936
52,48.5465,0.101467
63,39.1779,0.0482397
51,49.4464,0.0188289
74,53.9693,0.0396001
116,70.7035,0.0670169
50,29.4003,0.0536614
100,64.1951,0.0285732
85,51.1887,0.0871988
114,82.363,0.0321191
130,62.6369,0.0293326
129,131.484,0.0150235
164,55.2284,0.0210793
128,31.812,0.0525242
163,75.2203,0.03248
202,65.5667,0.110625
201,59.9785,0.0510662
222,54.3806,0.050216
200,32.9814,0.01982
221,126.841,0.0352434
243,104.224,0.0348364
265,88.3451,0.0315824
288,35.7204,0.10435
