Q	U	V
{$V$}	{[mm$^3$]}	0.00392689
{$d_v$}	{[mm]}	0.195742
{$S_c$}	{[mm$^2$]}	0.184713
{$S_o$}	{[mm$^2$]}	0.121513
{$S_l/S_o$}	[]	0.520109
{$\Psi$}	[]	0.651657
{$\eta$}	[]	0.705641
{med($\theta_e$)}	{[$^\circ$]}	70.54995
{$\Upsilon$}	[]	10
{$\Xi$}	[]	8
