facetNormals:0,facetNormals:1,facetNormals:2,FacetCenters:0,FacetCenters:1,FacetCenters:2,FacetIds,relFacetSize,absFacetSize,cellPairingIds,interplanarAngles,angleWeights
-0.184993,0.134761,-0.933295,3.95377,5.59856,8.46107,1,0.0296413,0.00387862,8,30.6372,0.0289076
-0.00535144,0.590694,-0.781547,3.98807,5.63644,8.45962,2,0.0282092,0.00369122,13,56.8444,0.0253959
0.325524,-0.548384,-0.660869,4.0035,5.55714,8.50867,3,0.0222143,0.00290678,19,62.3608,0.0197935
0.39001,0.795752,-0.433653,4.03389,5.65327,8.49316,4,0.0148574,0.00194412,26,52.6104,0.0349229
-0.884749,0.156794,-0.422884,3.85815,5.57005,8.50576,5,0.0424945,0.00556048,34,51.3706,0.0347996
-0.638767,0.621617,-0.415825,3.89583,5.61615,8.4916,6,0.0421313,0.00551296,43,93.7608,0.0438045
0.917621,0.234354,-0.0838356,4.07501,5.609,8.53834,7,0.0838876,0.0109768,53,84.3224,0.0459368
-0.171233,0.936201,0.0718993,3.95613,5.65364,8.53177,8,0.102026,0.0133502,64,86.014,0.0348156
-0.490124,0.843843,0.148347,3.943,5.65282,8.53087,9,0.0421784,0.00551912,76,89.1472,0.0358372
-0.942953,-0.137759,0.152226,3.88224,5.54855,8.55937,10,0.0453078,0.00592861,89,122.849,0.0277503
0.797395,0.347039,0.43516,4.09332,5.56806,8.60787,11,0.026086,0.0034134,103,120.499,0.0205255
-0.725328,-0.26943,0.624451,3.90672,5.51947,8.59232,12,0.0156978,0.00205408,118,128.631,0.0354093
-0.55254,0.250343,0.781684,4.00623,5.53362,8.61953,13,0.0439643,0.00575281,134,157.29,0.0264143
0.528529,-0.241988,0.798035,4.08745,5.48679,8.62616,14,0.0238209,0.00311701,151,150.534,0.041021
-0.205932,-0.425181,0.855513,3.95137,5.49681,8.60753,15,0.0665829,0.00871249,169,154.781,0.051924
-0.0247937,0.226961,0.926799,3.99302,5.56768,8.60924,16,0.209154,0.0273681,18,77.7546,0.0248554
,,,,,,,,,25,33.4046,0.0194636
,,,,,,,,,33,63.9103,0.0339087
,,,,,,,,,42,43.7878,0.0337925
,,,,,,,,,52,77.6613,0.0422207
,,,,,,,,,63,57.8384,0.0441981
,,,,,,,,,75,66.5295,0.0338076
,,,,,,,,,88,101.922,0.0347701
,,,,,,,,,102,98.4122,0.0271061
,,,,,,,,,117,131.332,0.0201709
,,,,,,,,,133,118.336,0.0343671
,,,,,,,,,150,142.706,0.02583
,,,,,,,,,168,163.643,0.0396289
,,,,,,,,,187,129.131,0.0497134
,,,,,,,,,32,91.4439,0.0178059
,,,,,,,,,41,95.9486,0.0291764
,,,,,,,,,51,107.659,0.0290903
,,,,,,,,,62,75.0272,0.0351266
,,,,,,,,,74,134.709,0.0364847
,,,,,,,,,87,142.62,0.0291015
,,,,,,,,,101,112,0.0298119
,,,,,,,,,116,104.15,0.023995
,,,,,,,,,132,123.277,0.018396
,,,,,,,,,149,156.565,0.0295151
,,,,,,,,,167,104.214,0.0229896
,,,,,,,,,186,116.413,0.0333139
,,,,,,,,,206,148.2,0.0401628
,,,,,,,,,50,92.1588,0.022017
,,,,,,,,,61,63.9689,0.0219679
,,,,,,,,,73,51.7508,0.0252439
,,,,,,,,,86,46.5982,0.0259377
,,,,,,,,,100,64.7113,0.0219743
,,,,,,,,,115,124.801,0.022377
,,,,,,,,,131,65.4619,0.018932
,,,,,,,,,148,141.534,0.015266
,,,,,,,,,166,111.342,0.0222094
,,,,,,,,,185,109.959,0.0183006
,,,,,,,,,205,144.982,0.0242939
,,,,,,,,,226,104.198,0.027744
,,,,,,,,,72,30.8579,0.0423122
,,,,,,,,,85,141.572,0.0564125
,,,,,,,,,99,73.5829,0.059999
,,,,,,,,,114,59.112,0.0423359
,,,,,,,,,130,38.6647,0.0438561
,,,,,,,,,147,149.855,0.0323273
,,,,,,,,,165,70.1418,0.0229264
,,,,,,,,,184,78.4016,0.0432169
,,,,,,,,,204,149.298,0.0305286
,,,,,,,,,225,104.698,0.0518789
,,,,,,,,,247,110.658,0.0706374
,,,,,,,,,98,115.706,0.0560915
,,,,,,,,,113,45.2019,0.0596361
,,,,,,,,,129,36.9402,0.0421549
,,,,,,,,,146,61.4659,0.0436619
,,,,,,,,,164,119.749,0.0322217
,,,,,,,,,183,87.8803,0.0228732
,,,,,,,,,203,79.13,0.0430283
,,,,,,,,,224,147.599,0.0304344
,,,,,,,,,246,120.545,0.0516073
,,,,,,,,,269,104.085,0.0701349
,,,,,,,,,128,86.4464,0.0920719
,,,,,,,,,145,106.365,0.0561332
,,,,,,,,,163,172.806,0.0588374
,,,,,,,,,182,32.8699,0.0397967
,,,,,,,,,202,145.712,0.0264466
,,,,,,,,,223,123.111,0.0576927
,,,,,,,,,245,67.358,0.0371053
,,,,,,,,,268,112.817,0.0742402
,,,,,,,,,292,92.9851,0.119747
,,,,,,,,,162,20.1215,0.0596832
,,,,,,,,,181,87.2969,0.0627497
,,,,,,,,,201,76.311,0.0415488
,,,,,,,,,222,95.0262,0.0272091
,,,,,,,,,244,65.9284,0.0614493
,,,,,,,,,267,105.996,0.038624
,,,,,,,,,291,108.844,0.0805792
,,,,,,,,,316,71.8782,0.13715
,,,,,,,,,200,67.2414,0.0436872
,,,,,,,,,221,91.9954,0.0322354
,,,,,,,,,243,76.9998,0.0228801
,,,,,,,,,266,52.2423,0.0430529
,,,,,,,,,290,110.724,0.0304466
,,,,,,,,,315,97.8014,0.0516427
,,,,,,,,,341,68.7706,0.0702001
,,,,,,,,,242,141.405,0.0331093
,,,,,,,,,265,31.7302,0.0233169
,,,,,,,,,289,50.643,0.044626
,,,,,,,,,314,111.136,0.0312251
,,,,,,,,,340,66.0409,0.0539227
,,,,,,,,,367,81.6859,0.0744812
,,,,,,,,,288,114.446,0.0196005
,,,,,,,,,313,90.8073,0.0327437
,,,,,,,,,339,44.5038,0.0249021
,,,,,,,,,366,86.3488,0.0374858
,,,,,,,,,394,60.1283,0.0463866
,,,,,,,,,338,33.3875,0.023135
,,,,,,,,,365,79.424,0.0189245
,,,,,,,,,393,34.7765,0.0254058
,,,,,,,,,422,55.6451,0.0292037
,,,,,,,,,392,73.882,0.0308997
,,,,,,,,,421,45.6389,0.0529597
,,,,,,,,,451,32.6739,0.0726562
,,,,,,,,,450,45.4594,0.0350885
,,,,,,,,,481,44.5489,0.0427706
,,,,,,,,,512,41.2352,0.10101
