facetNormals:0,facetNormals:1,facetNormals:2,FacetCenters:0,FacetCenters:1,FacetCenters:2,FacetIds,relFacetSize,absFacetSize,cellPairingIds,interplanarAngles,angleWeights
-0.581521,-0.149493,-0.732013,3.96866,6.52019,8.51521,1,0.0503829,0.00787283,8,85.5359,0.0474192
0.599054,0.407381,-0.657584,4.09708,6.55537,8.53609,2,0.0447848,0.00699807,13,98.3134,0.066704
0.840552,0.0583615,-0.496753,4.0761,6.58935,8.51303,3,0.0986659,0.0154175,19,45.4546,0.0503572
-0.694855,-0.63673,-0.190286,3.93194,6.53988,8.53726,4,0.0503314,0.00786478,26,80.4263,0.0478291
-0.43039,-0.828923,0.300162,3.97685,6.50028,8.56371,5,0.0455216,0.0071132,34,122.303,0.0683088
0.503168,-0.719833,0.420202,4.08095,6.50518,8.59531,6,0.106035,0.0165691,43,128.259,0.0784594
0.0100144,0.736254,0.604825,4.01166,6.63526,8.59381,7,0.177214,0.0276914,53,104.357,0.0482213
-0.597827,0.17083,0.753275,3.93217,6.59047,8.59198,8,0.0462375,0.00722506,64,108.362,0.0621854
-0.416654,-0.348817,0.794372,3.98867,6.5369,8.62246,9,0.081209,0.0126897,76,147.736,0.0286805
0.106222,0.0700349,0.955008,4.04286,6.59075,8.63159,10,0.0200458,0.00313236,18,26.8278,0.0616063
,,,,,,,,,25,125.818,0.0473964
,,,,,,,,,33,145.697,0.0451502
,,,,,,,,,42,106.349,0.0629726
,,,,,,,,,52,95.6502,0.0715003
,,,,,,,,,63,145.113,0.0454996
,,,,,,,,,75,166.099,0.0577319
,,,,,,,,,88,124.642,0.0276952
,,,,,,,,,32,124.06,0.0666589
,,,,,,,,,41,125.649,0.0622999
,,,,,,,,,51,79.5826,0.102218
,,,,,,,,,62,105.499,0.126758
,,,,,,,,,74,155.126,0.062967
,,,,,,,,,87,144.374,0.0890904
,,,,,,,,,101,113.85,0.0333217
,,,,,,,,,50,35.3093,0.0478058
,,,,,,,,,61,88.2399,0.0682614
,,,,,,,,,73,130.158,0.0783969
,,,,,,,,,86,79.9865,0.0481977
,,,,,,,,,100,67.075,0.0621462
,,,,,,,,,115,108.904,0.0286722
,,,,,,,,,72,57.9926,0.0636975
,,,,,,,,,85,117.598,0.0724362
,,,,,,,,,99,69.1022,0.0458768
,,,,,,,,,114,41.5236,0.0583405
,,,,,,,,,130,78.8433,0.0278345
,,,,,,,,,98,106.971,0.132681
,,,,,,,,,113,96.4757,0.064395
,,,,,,,,,129,66.3936,0.0919763
,,,,,,,,,146,64.4659,0.0337174
,,,,,,,,,128,51.8134,0.0733397
,,,,,,,,,145,76.1545,0.111378
,,,,,,,,,163,46.6464,0.0360175
,,,,,,,,,162,33.0574,0.0589251
,,,,,,,,,181,44.7897,0.0279669
,,,,,,,,,200,41.9212,0.0321546
