"cellPairingIds","interplanarAngles","angleWeights"
25,69.2812,0.0233129
33,59.9393,0.0239017
42,30.0265,0.0168662
52,22.948,0.0183336
32,61.0675,0.0597899
41,101.252,0.0638216
87,53.8306,0.0487616
116,65.0489,0.0488301
50,115.275,0.210615
61,51.9259,0.0450449
100,52.6818,0.104305
85,60.1011,0.0609826
147,79.6661,0.117621
165,65.3589,0.0161296
184,77.3925,0.00643626
98,36.998,0.0295419
129,95.2842,0.038487
203,100.22,0.00578631
223,72.8842,0.00594968
221,90.9806,0.074956
243,131.252,0.0149618
266,125.54,0.00624185
288,64.9639,0.0149682
338,22.9161,0.00467998
