Q	U	V
{$V$}	{[mm$^3$]}	0.00425581
{$d_v$}	{[mm]}	0.201061
{$S_c$}	{[mm$^2$]}	0.307804
{$S_o$}	{[mm$^2$]}	0.17273
{$S_l/S_o$}	[]	0.781995
{$\Psi$}	[]	0.412602
{$\eta$}	[]	0.488246
{med($\theta_e$)}	{[$^\circ$]}	113.2835
{$\Upsilon$}	[]	15
{$\Xi$}	[]	10
