facetNormals:0,facetNormals:1,facetNormals:2,FacetCenters:0,FacetCenters:1,FacetCenters:2,FacetIds,relFacetSize,absFacetSize,cellPairingIds,interplanarAngles,angleWeights
-0.242898,0.0424856,-0.924362,5.84865,6.3446,5.31079,1,0.0348461,0.00299265,8,47.1283,0.027806
0.109511,-0.62507,-0.748485,5.85224,6.28029,5.30463,2,0.0231325,0.00198666,13,31.7532,0.0343582
-0.641462,0.27216,-0.669115,5.78342,6.35656,5.30898,3,0.0338837,0.00290999,19,61.6743,0.0405504
0.713518,0.053509,-0.664597,5.8842,6.31112,5.30048,4,0.0484879,0.00416423,26,59.7131,0.051616
0.116744,0.822749,-0.498734,5.83499,6.36117,5.31022,5,0.0995019,0.0085454,34,66.2202,0.0585044
-0.691006,-0.629431,-0.251274,5.80426,6.2872,5.35281,6,0.18222,0.0156493,43,96.046,0.0504845
0.612369,-0.727472,-0.0902278,5.89124,6.25845,5.39099,7,0.0915875,0.0078657,53,98.7902,0.0577864
0.956426,-0.198451,-0.105063,5.91031,6.29466,5.38863,8,0.16913,0.0145252,64,89.8167,0.0417283
-0.421399,-0.894815,0.0663237,5.84087,6.24654,5.38563,9,0.0519978,0.00446567,76,140.978,0.0217122
0.757961,-0.198687,0.571534,5.90111,6.30088,5.46985,10,0.0157687,0.00135425,89,136.24,0.0360145
-0.240625,-0.524011,0.740964,5.86393,6.26107,5.48526,11,0.037264,0.0032003,103,136.923,0.0119713
-0.0447159,0.588448,0.775506,5.84388,6.31667,5.41216,12,0.00722704,0.000620671,118,149.537,0.0113935
0.523489,0.345437,0.751624,5.89236,6.32654,5.38885,13,0.00681012,0.000584865,18,74.053,0.0274944
,,,,,,,,,25,55.5469,0.0313219
,,,,,,,,,33,97.7469,0.037538
,,,,,,,,,42,57.8197,0.0410533
,,,,,,,,,52,51.043,0.0369359
,,,,,,,,,63,71.4044,0.0406985
,,,,,,,,,75,61.5419,0.0320201
,,,,,,,,,88,103.402,0.0187537
,,,,,,,,,102,105.965,0.028545
,,,,,,,,,117,175.376,0.0110133
,,,,,,,,,133,138.654,0.0105225
,,,,,,,,,32,89.9052,0.0398911
,,,,,,,,,41,58.9621,0.0505525
,,,,,,,,,51,61.9231,0.0571418
,,,,,,,,,62,125.088,0.0494667
,,,,,,,,,74,128.996,0.0564568
,,,,,,,,,87,91.0531,0.0410304
,,,,,,,,,101,169.998,0.0215217
,,,,,,,,,116,122.254,0.0354935
,,,,,,,,,132,110.524,0.0119131
,,,,,,,,,149,141.949,0.0113409
,,,,,,,,,50,61.0045,0.0652023
,,,,,,,,,61,112.37,0.0765943
,,,,,,,,,73,60.595,0.0634071
,,,,,,,,,86,39.3743,0.0753684
,,,,,,,,,100,113.928,0.0501816
,,,,,,,,,115,80.8662,0.0237981
,,,,,,,,,131,139.019,0.0421414
,,,,,,,,,148,122.821,0.0125792
,,,,,,,,,166,96.458,0.0119429
,,,,,,,,,72,120.296,0.128717
,,,,,,,,,85,121.38,0.0953808
,,,,,,,,,99,89.9531,0.125292
,,,,,,,,,114,148.423,0.0683022
,,,,,,,,,130,112.521,0.0272232
,,,,,,,,,147,155.615,0.0542217
,,,,,,,,,165,84.4006,0.0134753
,,,,,,,,,184,91.7841,0.0127477
,,,,,,,,,98,86.4395,0.121904
,,,,,,,,,113,122.405,0.175431
,,,,,,,,,129,29.1745,0.0809079
,,,,,,,,,146,125.29,0.0290257
,,,,,,,,,164,70.0598,0.0618746
,,,,,,,,,183,124.508,0.0139027
,,,,,,,,,203,144.153,0.0131295
,,,,,,,,,128,37.993,0.118828
,,,,,,,,,145,65.881,0.0663348
,,,,,,,,,163,53.0302,0.0269052
,,,,,,,,,182,79.2681,0.0529744
,,,,,,,,,202,124.366,0.0133969
,,,,,,,,,223,89.9108,0.0126776
,,,,,,,,,162,103.808,0.0795413
,,,,,,,,,181,42.3376,0.0288479
,,,,,,,,,201,102.777,0.0610721
,,,,,,,,,222,104.581,0.0138618
,,,,,,,,,244,68.4563,0.013093
,,,,,,,,,200,96.1926,0.024199
,,,,,,,,,221,48.2759,0.0434149
,,,,,,,,,243,118.185,0.0126903
,,,,,,,,,266,119.636,0.012043
,,,,,,,,,242,67.7214,0.0221601
,,,,,,,,,265,71.9775,0.0099115
,,,,,,,,,289,37.0519,0.00951217
,,,,,,,,,288,72.3756,0.0121062
,,,,,,,,,313,74.2198,0.0115157
,,,,,,,,,338,36.9134,0.00701239
