"cellPairingIds","interplanarAngles","angleWeights"
8,50.0674,0.044988
19,54.5743,0.0509111
26,46.6327,0.0605322
64,105.22,0.0473919
18,30.8289,0.0276136
25,46.607,0.047512
52,64.9855,0.0623877
75,105.19,0.0444328
32,42.0894,0.0297372
62,50.8137,0.0349535
74,48.769,0.0287185
50,87.2039,0.0651921
61,63.7357,0.0659628
86,56.099,0.0508803
148,92.7507,0.0667114
72,59.3516,0.0830695
114,91.2058,0.0595314
147,72.0683,0.0681883
164,51.9853,0.069032
183,55.188,0.0855523
128,64.4979,0.0683271
145,76.2879,0.0671082
163,37.3137,0.0652834
223,53.7871,0.0249077
245,63.3576,0.0204339
222,55.697,0.0617944
244,59.7862,0.0215705
200,42.9727,0.0458822
221,92.2769,0.0519594
290,51.6961,0.0180455
314,34.8131,0.0179109
288,41.5337,0.0698523
339,72.3175,0.0187678
366,48.9414,0.0312978
338,53.7597,0.0239834
393,44.0951,0.0343007
392,29.4949,0.0123974
421,31.3765,0.0168547
450,26.8669,0.0146798
