facetNormals:0,facetNormals:1,facetNormals:2,FacetCenters:0,FacetCenters:1,FacetCenters:2,FacetIds,relFacetSize,absFacetSize,cellPairingIds,interplanarAngles,angleWeights
-0.249038,-0.275373,-0.886284,5.8051,5.4599,7.63878,1,0.168287,0.0134183,8,42.2691,0.048867
0.447282,-0.188077,-0.858241,5.8813,5.48298,7.62952,2,0.0285835,0.00227911,13,72.2141,0.0753441
0.47513,0.551712,-0.622089,5.86378,5.5333,7.64309,3,0.0485375,0.00387014,19,95.454,0.0197327
0.964642,-0.0523833,-0.153971,5.89656,5.48055,7.69708,4,0.0104809,0.000835691,26,57.7836,0.0852665
-0.875594,-0.366064,-0.200939,5.72983,5.42803,7.72007,5,0.0570984,0.00455274,34,75.5942,0.103938
0.645431,-0.679368,-0.230582,5.87919,5.43053,7.66887,6,0.0751878,0.0059951,43,78.9717,0.187081
-0.7973,0.535668,-0.143838,5.75998,5.51007,7.70542,7,0.210601,0.0167923,53,61.2545,0.123168
-0.371299,-0.89867,-0.127806,5.76762,5.39795,7.71971,8,0.097127,0.00774443,64,116.05,0.0963795
0.36072,0.89032,0.0810244,5.84248,5.54079,7.70418,9,0.0675262,0.00538421,76,116.599,0.0371563
-0.157086,0.951193,0.229704,5.80976,5.5542,7.70617,10,0.0208836,0.00166516,89,134.345,0.0805954
0.704516,0.562682,0.364113,5.87746,5.52296,7.67855,11,0.0529856,0.00422481,103,153.418,0.00830166
0.137656,-0.147482,0.926991,5.74558,5.47924,7.78273,12,0.0042558,0.000339337,118,173.221,0.00573926
0.174514,0.368579,0.912871,5.84768,5.52394,7.72575,13,0.00291941,0.000232779,18,47.1052,0.0359791
,,,,,,,,,25,53.5166,0.0153377
,,,,,,,,,33,99.0438,0.0380961
,,,,,,,,,42,49.7804,0.0414206
,,,,,,,,,52,110.409,0.0503354
,,,,,,,,,63,83.3105,0.0441687
,,,,,,,,,75,94.5648,0.0401653
,,,,,,,,,88,117.178,0.0241343
,,,,,,,,,102,96.1802,0.0371345
,,,,,,,,,117,139.035,0.00740854
,,,,,,,,,133,141.808,0.00529773
,,,,,,,,,32,55.9014,0.0172392
,,,,,,,,,41,122.05,0.052471
,,,,,,,,,51,85.3271,0.0589924
,,,,,,,,,62,89.6185,0.0788926
,,,,,,,,,74,129.13,0.0647282
,,,,,,,,,87,48.4635,0.0564785
,,,,,,,,,101,71.1116,0.0292026
,,,,,,,,,116,63.2829,0.0506641
,,,,,,,,,132,130.715,0.00782546
,,,,,,,,,149,107.105,0.00550755
,,,,,,,,,50,146.849,0.0177108
,,,,,,,,,61,42.7086,0.0183972
,,,,,,,,,73,144.657,0.019968
,,,,,,,,,86,107.683,0.0189201
,,,,,,,,,100,72.1642,0.0181453
,,,,,,,,,115,104.133,0.0139571
,,,,,,,,,131,51.3531,0.0175001
,,,,,,,,,148,90.1367,0.00605353
,,,,,,,,,166,89.5032,0.00456676
,,,,,,,,,72,106.77,0.0649063
,,,,,,,,,85,55.7013,0.0898394
,,,,,,,,,99,44.3972,0.071918
,,,,,,,,,114,134.721,0.061876
,,,,,,,,,130,105.493,0.0305819
,,,,,,,,,147,161.784,0.0549651
,,,,,,,,,165,105.944,0.0079212
,,,,,,,,,184,119.064,0.0055548
,,,,,,,,,98,154.411,0.110814
,,,,,,,,,113,64.9751,0.0847607
,,,,,,,,,129,114.833,0.0711513
,,,,,,,,,146,146.83,0.032688
,,,,,,,,,164,90.7027,0.0621637
,,,,,,,,,183,91.5463,0.00805563
,,,,,,,,,203,111.158,0.00562058
,,,,,,,,,128,100.096,0.132942
,,,,,,,,,145,79.0621,0.102263
,,,,,,,,,163,51.3084,0.0379991
,,,,,,,,,182,109.334,0.0846691
,,,,,,,,,202,110.461,0.00834301
,,,,,,,,,223,94.3119,0.00575899
,,,,,,,,,162,177.305,0.0796659
,,,,,,,,,181,148.176,0.0343759
,,,,,,,,,201,148.578,0.0685663
,,,,,,,,,222,92.2822,0.00815431
,,,,,,,,,244,121.525,0.00566844
,,,,,,,,,200,32.1608,0.0319012
,,,,,,,,,221,33.1763,0.0593787
,,,,,,,,,243,90.4098,0.00800697
,,,,,,,,,266,61.1506,0.00559685
,,,,,,,,,242,58.1746,0.0299592
,,,,,,,,,265,86.889,0.00707069
,,,,,,,,,289,57.4682,0.00512269
,,,,,,,,,288,67.6006,0.00787878
,,,,,,,,,313,47.0254,0.00553391
,,,,,,,,,338,30.6643,0.00346315
