Q	U	V
{$V$}	{[mm$^3$]}	0.0163321
{$d_v$}	{[mm]}	0.314785
{$S_c$}	{[mm$^2$]}	0.491736
{$S_o$}	{[mm$^2$]}	0.33621
{$S_l/S_o$}	[]	0.462586
{$\Psi$}	[]	0.633063
{$\eta$}	[]	0.696355
{med($\theta_e$)}	{[$^\circ$]}	54.3929
{$\Upsilon$}	[]	13
{$\Xi$}	[]	11
