Q	U	V
{$V$}	{[mm$^3$]}	0.00889991
{$d_v$}	{[mm]}	0.257116
{$S_c$}	{[mm$^2$]}	0.302125
{$S_o$}	{[mm$^2$]}	0.214959
{$S_l/S_o$}	[]	0.405501
{$\Psi$}	[]	0.687418
{$\eta$}	[]	0.717306
{med($\theta_e$)}	{[$^\circ$]}	55.2307
{$\Upsilon$}	[]	16
{$\Xi$}	[]	12
