"cellPairingIds","interplanarAngles","angleWeights"
8,63.9599,0.0585605
13,40.8837,0.0403947
19,88.2617,0.0434182
34,59.3108,0.03774
25,83.0231,0.0680062
42,93.3354,0.0550363
52,35.4887,0.0336015
75,56.4003,0.0771854
102,76.3147,0.0645002
32,104.004,0.0446749
51,42.6541,0.0386859
74,81.4612,0.0393292
101,61.7229,0.045226
50,33.2884,0.0716616
86,55.2066,0.0421897
100,57.8902,0.0528784
131,88.6374,0.0465998
99,28.69,0.0588342
147,86.2628,0.0677794
165,48.4633,0.0737726
98,72.3685,0.0255223
146,76.5311,0.0419242
203,81.7882,0.0322076
224,98.1272,0.0423791
182,68.5313,0.0273857
223,46.8374,0.0234525
181,43.9498,0.0426808
222,41.3444,0.0429126
221,37.0441,0.0507342
265,44.3904,0.05003
314,65.1696,0.0503561
288,77.6001,0.0474834
313,42.8944,0.0352329
339,55.7107,0.047777
365,39.4168,0.0506792
392,55.3089,0.0369624
