Q	U	V
{$V$}	{[mm$^3$]}	0.00967175
{$d_v$}	{[mm]}	0.264344
{$S_c$}	{[mm$^2$]}	0.403588
{$S_o$}	{[mm$^2$]}	0.250436
{$S_l/S_o$}	[]	0.611541
{$\Psi$}	[]	0.543938
{$\eta$}	[]	0.547608
{med($\theta_e$)}	{[$^\circ$]}	59.9171
{$\Upsilon$}	[]	15
{$\Xi$}	[]	7
