facetNormals:0,facetNormals:1,facetNormals:2,FacetCenters:0,FacetCenters:1,FacetCenters:2,FacetIds,relFacetSize,absFacetSize,cellPairingIds,interplanarAngles,angleWeights
-0.193766,-0.329584,-0.910701,7.00336,4.21523,6.54617,1,0.0168598,0.00247672,8,43.1734,0.0301259
-0.46311,0.325479,-0.784253,6.95288,4.2788,6.58101,2,0.141335,0.0207623,13,60.1253,0.0255954
0.72774,-0.325418,-0.56488,7.11327,4.23269,6.56,3,0.0531172,0.00780298,19,37.4519,0.014953
-0.413374,-0.739573,-0.484884,7.00773,4.19543,6.56002,4,0.0134337,0.00197343,26,92.7273,0.0269925
0.230268,0.898262,-0.323394,7.07385,4.31185,6.60384,5,0.06765,0.00993787,34,92.9992,0.0289784
-0.200159,0.927323,-0.237518,6.98996,4.33729,6.63348,6,0.103047,0.0151377,43,79.3465,0.0248145
0.538536,-0.809281,-0.0166338,7.10261,4.20318,6.59731,7,0.0469807,0.00690153,53,101.431,0.0260846
0.970507,0.0860427,-0.0281113,7.132,4.27848,6.65495,8,0.0576011,0.00846168,64,121.83,0.0150802
0.758362,-0.34182,0.524991,7.13831,4.23962,6.66873,9,0.0136404,0.00200379,76,138.073,0.0282039
0.685666,0.478694,0.445356,7.11277,4.30328,6.68596,10,0.0862101,0.0126644,89,119.474,0.0190408
-0.66415,-0.0914863,0.686443,6.88779,4.27569,6.69252,11,0.0218699,0.00321272,103,157.254,0.0263045
-0.171998,0.422512,0.837967,6.98437,4.31648,6.72261,12,0.0598088,0.00878599,18,89.9958,0.077215
,,,,,,,,,25,69.478,0.0245353
,,,,,,,,,33,62.4488,0.0915024
,,,,,,,,,42,52.1187,0.119192
,,,,,,,,,52,122.105,0.0705201
,,,,,,,,,63,115.066,0.0818459
,,,,,,,,,75,156.76,0.0248796
,,,,,,,,,88,123.894,0.107095
,,,,,,,,,102,106.305,0.0378786
,,,,,,,,,117,118.478,0.0840501
,,,,,,,,,32,77.0499,0.021444
,,,,,,,,,41,86.5379,0.0595092
,,,,,,,,,51,109.138,0.0701001
,,,,,,,,,62,45.5955,0.0498608
,,,,,,,,,74,43.2056,0.0552684
,,,,,,,,,87,67.5783,0.0217065
,,,,,,,,,101,84.3186,0.0657335
,,,,,,,,,116,153.822,0.0309831
,,,,,,,,,132,142.145,0.0562647
,,,,,,,,,50,128.952,0.0224161
,,,,,,,,,61,120.735,0.0237688
,,,,,,,,,73,66.1359,0.0208932
,,,,,,,,,86,118.306,0.0217864
,,,,,,,,,100,109.166,0.0135362
,,,,,,,,,115,157.328,0.0232452
,,,,,,,,,131,89.4276,0.0166438
,,,,,,,,,148,134.06,0.0219395
,,,,,,,,,72,25.9364,0.0816784
,,,,,,,,,85,128.744,0.0554519
,,,,,,,,,99,71.1135,0.0622225
,,,,,,,,,114,108.23,0.0227031
,,,,,,,,,130,61.5085,0.0758106
,,,,,,,,,147,119.018,0.0330541
,,,,,,,,,165,85.7814,0.0634882
,,,,,,,,,98,153.963,0.0645377
,,,,,,,,,113,96.4928,0.0738959
,,,,,,,,,129,128.092,0.0240917
,,,,,,,,,146,77.4785,0.0938796
,,,,,,,,,164,97.036,0.036082
,,,,,,,,,183,75.9068,0.075688
,,,,,,,,,128,61.4101,0.0517517
,,,,,,,,,145,44.9941,0.0211423
,,,,,,,,,163,91.5895,0.0608182
,,,,,,,,,182,108.438,0.0298462
,,,,,,,,,202,118.915,0.0526243
,,,,,,,,,162,43.816,0.0220574
,,,,,,,,,181,41.2685,0.06906
,,,,,,,,,201,135.909,0.0317029
,,,,,,,,,222,99.5399,0.0586842
,,,,,,,,,200,50.7088,0.023554
,,,,,,,,,221,96.8162,0.0168015
,,,,,,,,,243,79.8699,0.0222144
,,,,,,,,,242,102.288,0.0348891
,,,,,,,,,265,59.5932,0.0706227
,,,,,,,,,288,44.6926,0.0320283
