"cellPairingIds","interplanarAngles","angleWeights"
8,39.5093,0.0558042
13,57.9367,0.0591825
43,79.4363,0.080637
89,89.8671,0.0261049
134,97.4636,0.0456669
18,75.1755,0.0433033
42,74.3492,0.0314642
52,67.2546,0.0537712
75,62.2073,0.0531481
51,69.592,0.0325105
149,77.4146,0.0634192
167,96.8066,0.0369401
129,68.643,0.0377619
203,96.6689,0.0408875
269,108.467,0.0283632
145,49.8268,0.075206
182,62.2165,0.0256512
221,107.57,0.0255086
243,47.7718,0.0535776
341,107.255,0.044863
288,65.1423,0.0225468
339,32.2324,0.0206267
394,62.4507,0.020843
422,68.9401,0.0364435
392,49.3793,0.0481489
451,39.585,0.0493444
481,48.805,0.0316772
