facetNormals:0,facetNormals:1,facetNormals:2,FacetCenters:0,FacetCenters:1,FacetCenters:2,FacetIds,relFacetSize,absFacetSize,cellPairingIds,interplanarAngles,angleWeights
-0.166131,0.02904,-0.97035,4.36005,6.91326,9.49469,1,0.0192769,0.00470305,8,27.0867,0.0287979
-0.537565,-0.186261,-0.802423,4.31233,6.87918,9.51094,2,0.0569019,0.0138825,13,58.9894,0.0284314
0.560635,0.525597,-0.585434,4.41908,6.95699,9.54349,3,0.0541437,0.0132096,19,53.6755,0.024139
0.665915,-0.0619858,-0.696366,4.41655,6.88906,9.51716,4,0.032281,0.00787568,26,45.3226,0.0233718
-0.499189,0.586931,-0.589184,4.31161,6.97294,9.53943,5,0.0296757,0.00724006,34,88.2882,0.030489
0.433758,-0.858449,-0.129378,4.40241,6.82735,9.58105,6,0.0728757,0.0177797,43,92.6385,0.0324725
0.167996,0.938814,0.0439433,4.38872,7.0013,9.63876,7,0.102932,0.0251127,53,84.3344,0.0166401
-0.755781,-0.621853,0.0127054,4.29603,6.83512,9.60204,8,0.0146378,0.00357122,64,101.092,0.0330271
0.911464,-0.287688,0.0220338,4.44176,6.89078,9.65071,9,0.115197,0.0281048,76,101.798,0.0213398
0.836958,0.503492,0.0750712,4.40167,6.94018,9.63852,10,0.0238969,0.0058302,89,87.8673,0.0335936
-0.869114,0.333982,0.123317,4.28362,6.93235,9.65946,11,0.130553,0.0318514,103,93.6406,0.0250565
-0.406776,0.86747,0.15819,4.33557,6.99466,9.65864,12,0.0357858,0.00873076,118,138.506,0.0242254
0.722562,0.219987,0.631233,4.41339,6.90162,9.77306,13,0.0325917,0.00795148,134,148.14,0.0206241
0.337519,0.457601,0.806835,4.40952,6.97201,9.73934,14,0.0221737,0.00540979,151,134.633,0.0193106
-0.190456,0.604546,0.752041,4.34114,6.92933,9.7849,15,0.0193444,0.00471951,169,133.542,0.0181826
-0.541897,0.24084,0.79151,4.30734,6.91432,9.77284,16,0.0172058,0.00419774,18,85.746,0.0554885
,,,,,,,,,25,77.0797,0.0411928
,,,,,,,,,33,48.5321,0.0390079
,,,,,,,,,42,88.1668,0.0639057
,,,,,,,,,52,108.657,0.073289
,,,,,,,,,63,57.8801,0.0232854
,,,,,,,,,75,118.871,0.0761762
,,,,,,,,,88,128.812,0.0336584
,,,,,,,,,102,70.6539,0.0792587
,,,,,,,,,117,94.1931,0.0439385
,,,,,,,,,133,165.151,0.0414449
,,,,,,,,,150,160.3,0.0319119
,,,,,,,,,168,129.371,0.0288731
,,,,,,,,,187,113.549,0.0264221
,,,,,,,,,32,36.6411,0.040447
,,,,,,,,,41,66.5061,0.0383384
,,,,,,,,,51,98.1108,0.0621285
,,,,,,,,,62,52.4681,0.070961
,,,,,,,,,74,143.284,0.0230452
,,,,,,,,,87,67.9396,0.0736643
,,,,,,,,,101,43.197,0.0331588
,,,,,,,,,116,115.031,0.076543
,,,,,,,,,132,81.7092,0.043091
,,,,,,,,,149,80.8529,0.04069
,,,,,,,,,167,92.5611,0.0314625
,,,,,,,,,186,103.965,0.0285047
,,,,,,,,,206,132.103,0.0261133
,,,,,,,,,50,87.4608,0.0309235
,,,,,,,,,61,62.535,0.0447427
,,,,,,,,,73,88.5655,0.0491483
,,,,,,,,,86,120.074,0.0201421
,,,,,,,,,100,48.6819,0.0504301
,,,,,,,,,115,59.934,0.0274633
,,,,,,,,,131,139.092,0.0517629
,,,,,,,,,148,117.629,0.0339431
,,,,,,,,,166,88.3142,0.0324356
,,,,,,,,,185,112.549,0.0262893
,,,,,,,,,205,136.428,0.0241918
,,,,,,,,,226,166.107,0.0224472
,,,,,,,,,72,133.181,0.0421766
,,,,,,,,,85,61.5428,0.0460694
,,,,,,,,,99,89.71,0.0196051
,,,,,,,,,114,133.373,0.0471938
,,,,,,,,,130,100.093,0.0264746
,,,,,,,,,147,52.2901,0.048359
,,,,,,,,,165,48.9149,0.0324456
,,,,,,,,,184,129.203,0.0310654
,,,,,,,,,204,113.077,0.025382
,,,,,,,,,225,89.591,0.0234214
,,,,,,,,,247,93.2557,0.0217823
,,,,,,,,,98,142.873,0.0853347
,,,,,,,,,113,77.5765,0.0243788
,,,,,,,,,129,46.4315,0.0892746
,,,,,,,,,146,94.7605,0.0359917
,,,,,,,,,164,138.215,0.0935379
,,,,,,,,,183,177.61,0.0480007
,,,,,,,,,203,87.426,0.0450403
,,,,,,,,,224,111.483,0.0340018
,,,,,,,,,246,137.072,0.0305733
,,,,,,,,,269,124.541,0.0278389
,,,,,,,,,128,139.463,0.0256306
,,,,,,,,,145,97.3009,0.10872
,,,,,,,,,163,48.7564,0.0387886
,,,,,,,,,182,78.8788,0.115109
,,,,,,,,,202,35.689,0.0531079
,,,,,,,,,223,67.7632,0.0495076
,,,,,,,,,245,56.3819,0.0364873
,,,,,,,,,268,52.7321,0.0325682
,,,,,,,,,292,79.6374,0.0294832
,,,,,,,,,162,123.002,0.0259749
,,,,,,,,,181,170.144,0.0181549
,,,,,,,,,201,60.6395,0.026324
,,,,,,,,,222,104.003,0.020777
,,,,,,,,,244,134.463,0.0202022
,,,,,,,,,267,123.226,0.0176344
,,,,,,,,,291,103.36,0.0166652
,,,,,,,,,316,73.8144,0.0158182
,,,,,,,,,200,48.5746,0.0395827
,,,,,,,,,221,170.471,0.122395
,,,,,,,,,243,131.637,0.0546077
,,,,,,,,,266,49.6578,0.0508085
,,,,,,,,,290,78.151,0.0371891
,,,,,,,,,315,110.607,0.0331261
,,,,,,,,,341,125.254,0.0299397
,,,,,,,,,242,126.711,0.0403991
,,,,,,,,,265,83.4698,0.0286572
,,,,,,,,,289,37.7057,0.0275752
,,,,,,,,,314,53.6253,0.0230031
,,,,,,,,,340,77.9319,0.021381
,,,,,,,,,367,106.358,0.0200067
,,,,,,,,,288,43.3915,0.0561738
,,,,,,,,,313,121.037,0.0521616
,,,,,,,,,339,92.5357,0.0379088
,,,,,,,,,366,60.121,0.033696
,,,,,,,,,394,45.6772,0.0304045
,,,,,,,,,338,90.1938,0.0341141
,,,,,,,,,365,66.1681,0.0273813
,,,,,,,,,393,40.9947,0.0251135
,,,,,,,,,422,54.7306,0.0232385
,,,,,,,,,392,28.5037,0.0263918
,,,,,,,,,421,60.9505,0.0242786
,,,,,,,,,451,80.4776,0.0225218
,,,,,,,,,450,32.4598,0.0206627
,,,,,,,,,481,54.5697,0.0193764
,,,,,,,,,512,29.804,0.0182125
