facetNormals:0,facetNormals:1,facetNormals:2,FacetCenters:0,FacetCenters:1,FacetCenters:2,FacetIds,relFacetSize,absFacetSize,cellPairingIds,interplanarAngles,angleWeights
-0.237014,0.164292,-0.93272,5.17539,4.75159,7.33916,1,0.0455109,0.00569855,8,51.1823,0.0321529
0.330459,-0.445202,-0.802237,5.23535,4.70575,7.32593,2,0.0248571,0.00311243,13,30.7923,0.0618502
-0.623257,0.368756,-0.654112,5.09571,4.80917,7.41051,3,0.0964932,0.0120822,19,44.1477,0.0621903
-0.705065,-0.285183,-0.597475,5.14328,4.73098,7.36221,4,0.0981682,0.0122919,26,73.9377,0.0315297
0.808178,-0.16306,-0.515725,5.26415,4.72192,7.35749,5,0.0241199,0.00302012,34,87.0793,0.0609614
0.10859,-0.92038,-0.240781,5.27743,4.74994,7.36158,6,0.0922942,0.0115564,43,84.962,0.043702
-0.350563,-0.914771,-0.163339,5.31741,4.7949,7.2758,7,0.0420315,0.00526288,53,81.8163,0.0685158
0.648184,0.712211,-0.18538,5.22347,4.79765,7.39827,8,0.138551,0.0173483,64,108.897,0.0328091
0.539688,-0.82361,0.0520527,5.26714,4.705,7.3766,9,0.0256502,0.00321174,76,101.474,0.028556
-0.814293,-0.391948,0.338844,5.22775,4.81977,7.43927,10,0.0208051,0.00260506,89,98.1847,0.0145103
0.344237,0.90324,0.219326,5.31395,4.8128,7.27678,11,0.00863107,0.00108072,103,101.3,0.0455665
-0.553675,-0.768986,0.204044,5.23087,4.80888,7.39985,12,0.0456222,0.00571248,118,101.282,0.0109224
-0.817175,0.292665,0.460404,5.12259,4.82151,7.46239,13,0.00620587,0.000777054,134,140.57,0.0352466
0.562952,-0.567734,0.534472,5.25036,4.72701,7.41072,14,0.0287602,0.00360114,151,137.123,0.0196797
0.668003,0.33253,0.645754,5.23186,4.779,7.44329,15,0.0125542,0.00157194,18,80.6492,0.0395309
,,,,,,,,,25,66.6857,0.0396695
,,,,,,,,,33,37.3984,0.0244829
,,,,,,,,,42,46.8344,0.0391659
,,,,,,,,,52,64.1398,0.0312394
,,,,,,,,,63,87.2527,0.0421518
,,,,,,,,,75,58.442,0.0252474
,,,,,,,,,88,112.912,0.0226513
,,,,,,,,,102,118.709,0.0128131
,,,,,,,,,117,90.2609,0.0321807
,,,,,,,,,133,143.446,0.00993208
,,,,,,,,,150,89.3881,0.0266666
,,,,,,,,,168,117.566,0.0166827
,,,,,,,,,32,39.803,0.0973235
,,,,,,,,,41,103.808,0.0385929
,,,,,,,,,51,105.491,0.094347
,,,,,,,,,62,90.7091,0.0585564
,,,,,,,,,74,91.2031,0.113759
,,,,,,,,,87,134.473,0.0405273
,,,,,,,,,101,81.3693,0.0342298
,,,,,,,,,116,91.4773,0.0158449
,,,,,,,,,132,94.3627,0.0619529
,,,,,,,,,149,70.7525,0.0116617
,,,,,,,,,167,165.801,0.0443128
,,,,,,,,,186,138.042,0.0222177
,,,,,,,,,50,103.225,0.038725
,,,,,,,,,61,69.1397,0.0951406
,,,,,,,,,73,50.9128,0.0588611
,,,,,,,,,86,125.394,0.114915
,,,,,,,,,100,100.68,0.0406731
,,,,,,,,,115,58.8075,0.0343337
,,,,,,,,,131,131.191,0.0158671
,,,,,,,,,148,58.6476,0.0622942
,,,,,,,,,166,76.7617,0.0116738
,,,,,,,,,185,126.582,0.0444871
,,,,,,,,,205,175.626,0.0222614
,,,,,,,,,72,67.122,0.0382449
,,,,,,,,,85,92.9625,0.0306507
,,,,,,,,,99,58.1461,0.041087
,,,,,,,,,114,55.4651,0.0248615
,,,,,,,,,130,145.009,0.0223402
,,,,,,,,,147,88.9412,0.0127129
,,,,,,,,,165,116.957,0.0315563
,,,,,,,,,184,171.737,0.0098718
,,,,,,,,,204,73.0986,0.0262364
,,,,,,,,,225,80.8495,0.0165133
,,,,,,,,,98,27.5442,0.057759
,,,,,,,,,113,125.139,0.110788
,,,,,,,,,129,31.609,0.0401438
,,,,,,,,,146,78.0896,0.0339558
,,,,,,,,,164,153.148,0.0157859
,,,,,,,,,183,49.8454,0.0610611
,,,,,,,,,203,119.898,0.0116298
,,,,,,,,,224,60.3919,0.0438547
,,,,,,,,,246,114.311,0.0221019
,,,,,,,,,128,150.589,0.0644968
,,,,,,,,,145,55.4272,0.0318585
,,,,,,,,,163,52.1127,0.0278331
,,,,,,,,,182,176.68,0.0143213
,,,,,,,,,202,26.139,0.0437533
,,,,,,,,,223,93.3164,0.0108149
,,,,,,,,,245,75.7757,0.0341519
,,,,,,,,,268,131.067,0.0193337
,,,,,,,,,162,104.763,0.0432867
,,,,,,,,,181,156.77,0.0361777
,,,,,,,,,201,31.8408,0.0162498
,,,,,,,,,222,173.459,0.0686419
,,,,,,,,,244,114.958,0.0118796
,,,,,,,,,267,98.4462,0.0476328
,,,,,,,,,291,55.3586,0.0230223
,,,,,,,,,200,95.9719,0.022975
,,,,,,,,,221,124.013,0.012916
,,,,,,,,,243,68.8308,0.032838
,,,,,,,,,266,132.786,0.00999382
,,,,,,,,,290,32.5631,0.0271163
,,,,,,,,,315,82.9011,0.0168576
,,,,,,,,,242,125.831,0.0122007
,,,,,,,,,265,28.5959,0.0285778
,,,,,,,,,289,41.8202,0.0095601
,,,,,,,,,314,93.3836,0.0241443
,,,,,,,,,340,118.57,0.0156593
,,,,,,,,,288,151.016,0.0145159
,,,,,,,,,313,85.0506,0.00722026
,,,,,,,,,339,102.221,0.0132775
,,,,,,,,,366,46.6092,0.0102294
,,,,,,,,,338,70.2811,0.0109256
,,,,,,,,,365,75.4656,0.03528
,,,,,,,,,393,121.081,0.0196901
,,,,,,,,,392,113.72,0.0102089
,,,,,,,,,421,98.9743,0.0083059
,,,,,,,,,450,55.8755,0.0174787
