facetNormals:0,facetNormals:1,facetNormals:2,FacetCenters:0,FacetCenters:1,FacetCenters:2,FacetIds,relFacetSize,absFacetSize,cellPairingIds,interplanarAngles,angleWeights
0.363789,0.0824635,-0.896317,5.34343,3.5836,6.86871,1,0.0410708,0.00672532,8,44.8367,0.0369563
-0.321293,-0.207316,-0.901871,5.28734,3.53175,6.86946,2,0.0335912,0.00550054,13,48.7794,0.0501246
-0.353075,0.416189,-0.790844,5.307,3.61275,6.88414,3,0.0642989,0.0105289,19,23.7914,0.0294929
0.661364,-0.130594,-0.724137,5.38313,3.56999,6.88885,4,0.0230072,0.00376742,26,47.3027,0.0411142
0.61615,-0.542156,-0.509235,5.3568,3.55416,6.88881,5,0.0411578,0.00673956,34,36.4647,0.0357991
0.337835,0.641702,-0.655191,5.36815,3.62195,6.8956,6,0.0317267,0.00519524,43,55.2655,0.0470367
0.0559477,-0.723509,-0.641673,5.30823,3.49322,6.90427,7,0.0550304,0.0090112,53,95.7012,0.0423213
-0.574725,-0.727368,-0.198182,5.26775,3.49122,6.92541,8,0.0436505,0.00714774,64,93.2642,0.0598562
-0.84764,0.3914,-0.248438,5.25519,3.58488,6.92896,9,0.110312,0.0180635,76,65.8348,0.0171025
0.95822,0.190806,-0.026917,5.3367,3.61708,6.88929,10,0.0107999,0.00176848,89,75.6253,0.0386666
0.789451,0.528511,0.11181,5.39341,3.62333,6.93213,11,0.0365283,0.00598149,103,143.211,0.0471606
-0.821522,-0.186653,0.498534,5.25173,3.532,6.95962,12,0.0553706,0.00906691,118,110.497,0.0405501
0.671717,-0.272677,0.605881,5.30558,3.60502,6.88807,13,0.0400425,0.00655693,134,115.151,0.0466165
0.341978,0.617663,0.631754,5.34693,3.64086,6.96424,14,0.0538936,0.00882505,151,133.828,0.0420556
-0.335368,0.640886,0.654568,5.36115,3.60533,6.93463,15,0.0430889,0.00705578,169,174.665,0.0609179
-0.306174,-0.153071,0.887684,5.30868,3.54899,6.92837,16,0.117885,0.0193035,18,38.1317,0.0441286
,,,,,,,,,25,61.1483,0.0273096
,,,,,,,,,33,66.736,0.0369915
,,,,,,,,,42,68.6005,0.0326324
,,,,,,,,,52,41.4962,0.0417175
,,,,,,,,,63,56.378,0.0379658
,,,,,,,,,75,63.9744,0.0515
,,,,,,,,,88,109.725,0.0163448
,,,,,,,,,102,119.685,0.0349982
,,,,,,,,,117,98.8161,0.0418149
,,,,,,,,,133,139.686,0.0365342
,,,,,,,,,150,150.493,0.0413866
,,,,,,,,,168,130.093,0.0377518
,,,,,,,,,187,136.006,0.052284
,,,,,,,,,32,72.5666,0.0338885
,,,,,,,,,41,92.4987,0.0501893
,,,,,,,,,51,44.8369,0.0424885
,,,,,,,,,62,78.4357,0.0593047
,,,,,,,,,74,86.4168,0.0519999
,,,,,,,,,87,44.8065,0.0812427
,,,,,,,,,101,104.656,0.0184936
,,,,,,,,,116,99.2152,0.0465892
,,,,,,,,,132,101.149,0.0595017
,,,,,,,,,149,156.07,0.0493512
,,,,,,,,,167,113.52,0.0586382
,,,,,,,,,186,98.1274,0.0515993
,,,,,,,,,206,136.001,0.0832111
,,,,,,,,,50,27.5724,0.0295153
,,,,,,,,,61,50.5745,0.0266724
,,,,,,,,,73,51.5346,0.0324483
,,,,,,,,,86,98.6837,0.0301323
,,,,,,,,,100,116.856,0.0380736
,,,,,,,,,115,49.4776,0.0146996
,,,,,,,,,131,66.8462,0.0282324
,,,,,,,,,148,155.31,0.0325072
,,,,,,,,,166,87.4788,0.0292235
,,,,,,,,,185,109.441,0.0322478
,,,,,,,,,205,143.866,0.0299974
,,,,,,,,,226,151.259,0.0385004
,,,,,,,,,72,78.1465,0.0358321
,,,,,,,,,85,36.3566,0.0470937
,,,,,,,,,99,81.1319,0.0423675
,,,,,,,,,114,130.656,0.0599485
,,,,,,,,,130,57.9711,0.0171101
,,,,,,,,,147,81.0996,0.0387051
,,,,,,,,,165,134.174,0.0472178
,,,,,,,,,184,73.8926,0.0405924
,,,,,,,,,204,119.16,0.0466724
,,,,,,,,,225,160.362,0.0421012
,,,,,,,,,247,127.366,0.0610135
,,,,,,,,,98,91.5105,0.0402488
,,,,,,,,,113,124.974,0.0367455
,,,,,,,,,129,82.2351,0.0492801
,,,,,,,,,146,60.9533,0.0161144
,,,,,,,,,164,55.2724,0.0339586
,,,,,,,,,183,139.173,0.0403395
,,,,,,,,,203,111.94,0.0354028
,,,,,,,,,224,83.9264,0.0399407
,,,,,,,,,246,97.8918,0.036545
,,,,,,,,,269,147.391,0.0499975
,,,,,,,,,128,47.4247,0.0486843
,,,,,,,,,145,100.54,0.0734295
,,,,,,,,,163,94.0681,0.0180562
,,,,,,,,,182,116.259,0.0439099
,,,,,,,,,202,104.088,0.0552
,,,,,,,,,223,99.6816,0.046355
,,,,,,,,,245,155.206,0.0544561
,,,,,,,,,268,162.749,0.048333
,,,,,,,,,292,121.096,0.0750338
,,,,,,,,,162,74.0484,0.0625499
,,,,,,,,,181,137.595,0.0173156
,,,,,,,,,201,161.568,0.0397731
,,,,,,,,,222,56.7273,0.048817
,,,,,,,,,244,110.1,0.0417687
,,,,,,,,,267,149.147,0.0482342
,,,,,,,,,291,115.845,0.0433679
,,,,,,,,,316,82.906,0.0637102
,,,,,,,,,200,140.711,0.0196737
,,,,,,,,,221,122.025,0.0548828
,,,,,,,,,243,58.1237,0.0737318
,,,,,,,,,266,154.903,0.0587566
,,,,,,,,,290,102.947,0.0724105
,,,,,,,,,315,66.7201,0.0619712
,,,,,,,,,341,91.3042,0.113972
,,,,,,,,,242,23.9755,0.0166709
,,,,,,,,,265,150.926,0.0180744
,,,,,,,,,289,51.464,0.0170116
,,,,,,,,,314,62.4328,0.0179939
,,,,,,,,,340,103.136,0.017271
,,,,,,,,,367,111.876,0.019787
,,,,,,,,,288,137.596,0.0440178
,,,,,,,,,313,59.8516,0.0382047
,,,,,,,,,339,42.6047,0.0435435
,,,,,,,,,366,80.9276,0.0395383
,,,,,,,,,394,104.207,0.0557741
,,,,,,,,,338,102.418,0.0464753
,,,,,,,,,365,95.0279,0.0546221
,,,,,,,,,393,59.6717,0.0484638
,,,,,,,,,422,39.1117,0.0753495
,,,,,,,,,392,60.258,0.0459468
,,,,,,,,,421,90.2137,0.0415098
,,,,,,,,,451,65.4195,0.0597793
,,,,,,,,,450,41.2667,0.0478894
,,,,,,,,,481,66.3521,0.0739701
,,,,,,,,,512,50.8772,0.06311
