Q	U	V
{$V$}	{[mm$^3$]}	0.0106514
{$d_v$}	{[mm]}	0.272983
{$S_c$}	{[mm$^2$]}	0.551445
{$S_o$}	{[mm$^2$]}	0.316343
{$S_l/S_o$}	[]	0.743187
{$\Psi$}	[]	0.424541
{$\eta$}	[]	0.493369
{med($\theta_e$)}	{[$^\circ$]}	73.5333
{$\Upsilon$}	[]	17
{$\Xi$}	[]	18
