"cellPairingIds","interplanarAngles","angleWeights"
8,25.9592,0.018418
13,35.7722,0.0194499
26,62.7738,0.0162752
18,61.449,0.0570454
25,26.868,0.0466253
33,56.1899,0.0362859
75,43.3768,0.0375684
32,74.405,0.0538591
41,84.7041,0.0405215
62,50.4334,0.10368
74,77.6674,0.0836887
61,35.3988,0.0396631
73,101.25,0.0737313
100,43.0021,0.0361596
148,55.7442,0.0350824
99,63.4055,0.0454999
114,52.0545,0.0296151
98,71.6682,0.0613858
146,44.5367,0.0352211
164,67.5005,0.0285413
183,58.4979,0.0320185
128,87.3753,0.143992
182,43.9193,0.0427581
223,46.3522,0.0719687
162,114.509,0.0475347
244,66.5114,0.0617325
267,49.9318,0.0712206
243,51.5571,0.0296958
290,136.491,0.0387157
315,109.66,0.0320275
242,45.4983,0.0281777
265,37.6176,0.0315616
340,53.001,0.0342086
313,47.8334,0.0306359
366,48.1801,0.0278728
393,64.969,0.0311796
392,34.1406,0.0476395
421,59.811,0.0379006
450,58.2577,0.0412766
