Q	U	V
{$V$}	{[mm$^3$]}	0.00126344
{$d_v$}	{[mm]}	0.134128
{$S_c$}	{[mm$^2$]}	0.0818687
{$S_o$}	{[mm$^2$]}	0.0488782
{$S_l/S_o$}	[]	0.674953
{$\Psi$}	[]	0.69035
{$\eta$}	[]	0.705445
{med($\theta_e$)}	{[$^\circ$]}	54.5168
{$\Upsilon$}	[]	15
{$\Xi$}	[]	3
