Q	U	V
{$V$}	{[mm$^3$]}	0.0148538
{$d_v$}	{[mm]}	0.304986
{$S_c$}	{[mm$^2$]}	0.468739
{$S_o$}	{[mm$^2$]}	0.343469
{$S_l/S_o$}	[]	0.364720
{$\Psi$}	[]	0.623416
{$\eta$}	[]	0.640205
{med($\theta_e$)}	{[$^\circ$]}	54.3573
{$\Upsilon$}	[]	16
{$\Xi$}	[]	12
