"cellPairingIds","interplanarAngles","angleWeights"
8,48.741,0.0189511
19,32.823,0.0134227
43,64.1925,0.0178704
53,59.4801,0.017151
76,78.9818,0.0187254
18,63.3747,0.0216739
25,71.7907,0.0328596
42,63.2815,0.0686427
52,78.5227,0.0841018
75,78.6056,0.0900549
32,78.6713,0.0147337
41,65.9549,0.0217195
51,58.0529,0.0192281
149,119.092,0.0203578
50,38.3003,0.0329647
86,37.4893,0.0278004
99,41.6832,0.0707182
147,56.2955,0.0549202
184,89.5967,0.0863177
129,47.0102,0.0589165
203,111.058,0.0569772
145,66.1788,0.0699529
163,60.4106,0.079831
202,46.9412,0.045985
181,38.2975,0.0672328
201,35.0898,0.0419403
243,77.4858,0.0477095
266,93.616,0.0709873
242,31.3819,0.0527947
265,35.3823,0.0521069
289,58.6824,0.0811809
313,44.8908,0.046975
338,52.0416,0.0464298
