Q	U	V
{$V$}	{[mm$^3$]}	0.00555487
{$d_v$}	{[mm]}	0.219731
{$S_c$}	{[mm$^2$]}	0.249046
{$S_o$}	{[mm$^2$]}	0.141449
{$S_l/S_o$}	[]	0.760677
{$\Psi$}	[]	0.609051
{$\eta$}	[]	0.659031
{med($\theta_e$)}	{[$^\circ$]}	63.9842
{$\Upsilon$}	[]	13
{$\Xi$}	[]	12
