Q	U	V
{$V$}	{[mm$^3$]}	0.0116382
{$d_v$}	{[mm]}	0.281166
{$S_c$}	{[mm$^2$]}	0.567505
{$S_o$}	{[mm$^2$]}	0.336025
{$S_l/S_o$}	[]	0.688877
{$\Psi$}	[]	0.437628
{$\eta$}	[]	0.486063
{med($\theta_e$)}	{[$^\circ$]}	77.90425
{$\Upsilon$}	[]	10
{$\Xi$}	[]	9
