facetNormals:0,facetNormals:1,facetNormals:2,FacetCenters:0,FacetCenters:1,FacetCenters:2,FacetIds,relFacetSize,absFacetSize,cellPairingIds,interplanarAngles,angleWeights
0.0690934,0.315346,-0.916132,6.80791,5.80075,8.06468,1,0.0418785,0.0113034,8,47.4509,0.0392554
-0.159073,-0.431792,-0.859851,6.78969,5.71579,8.06256,2,0.0369415,0.00997085,13,39.1043,0.026397
0.573686,-0.0803838,-0.791226,6.84877,5.77035,8.12601,3,0.0192725,0.00520181,19,56.5695,0.030415
-0.625992,-0.271929,-0.720543,6.76668,5.68132,8.13244,4,0.0238787,0.00644506,26,41.4025,0.0459903
-0.506378,0.542934,-0.621139,6.75217,5.84781,8.14082,5,0.0509975,0.0137647,34,67.4984,0.0425317
0.20478,-0.722725,-0.63155,6.85778,5.67919,8.07941,6,0.0432056,0.0116616,43,48.4235,0.0407243
0.715711,0.448566,-0.47266,6.87495,5.81594,8.10279,7,0.039632,0.010697,53,93.668,0.0469953
0.476667,-0.809066,-0.177715,6.876,5.64341,8.1376,8,0.0535365,0.01445,64,89.7969,0.0493123
-0.729097,-0.597703,-0.264406,6.7562,5.67491,8.17527,9,0.0599548,0.0161823,76,90.1756,0.0595594
-0.929617,-0.162139,-0.122829,6.73464,5.74404,8.14422,10,0.103079,0.0278218,89,84.3675,0.0337149
0.967799,-0.148734,-0.080443,6.83517,5.70955,8.15205,11,0.0282148,0.00761541,103,84.9001,0.0447032
0.158804,0.88461,0.229057,6.79997,5.82115,8.12636,12,0.0479365,0.0129385,118,72.6577,0.0265006
0.745166,0.650021,-0.0327424,6.91069,5.77022,8.08365,13,0.019383,0.00523165,134,114.332,0.03782
-0.0182201,-0.950919,0.0885876,6.82273,5.64261,8.21113,14,0.0344786,0.00930607,151,125.885,0.0160107
-0.324676,-0.889642,0.283699,6.7537,5.7014,8.21834,15,0.0098973,0.00267137,169,96.8736,0.0382352
0.933868,0.14744,0.245117,6.78889,5.72734,8.17261,16,0.0351751,0.00949408,188,96.307,0.0252681
0.714386,0.574749,0.366737,6.85812,5.75511,8.15226,17,0.0180922,0.00488323,208,125.309,0.0315454
-0.830074,-0.104355,0.498171,6.72827,5.73975,8.22985,18,0.0253023,0.00682932,229,123.705,0.0279851
0.776361,-0.229307,0.558143,6.87592,5.68863,8.19502,19,0.0210137,0.00567177,251,168.508,0.0302491
0.00416069,-0.475832,0.835937,6.80815,5.65023,8.26319,20,0.0236748,0.00639004,18,49.2874,0.0253302
,,,,,,,,,25,30.1967,0.0290073
,,,,,,,,,33,66.25,0.0428462
,,,,,,,,,42,30.7496,0.0398288
,,,,,,,,,52,83.9872,0.0382395
,,,,,,,,,63,62.7795,0.0437171
,,,,,,,,,75,50.9638,0.0457153
,,,,,,,,,88,69.5993,0.0543905
,,,,,,,,,102,91.2295,0.0319937
,,,,,,,,,117,131.91,0.0417269
,,,,,,,,,133,112.617,0.0254255
,,,,,,,,,150,68.7702,0.0356676
,,,,,,,,,168,78.5224,0.0156119
,,,,,,,,,187,116.364,0.0360367
,,,,,,,,,207,134.678,0.0242888
,,,,,,,,,228,105.343,0.0300337
,,,,,,,,,250,121.736,0.0267889
,,,,,,,,,273,123.224,0.0288564
,,,,,,,,,32,76.1576,0.0213297
,,,,,,,,,41,80.4604,0.0279735
,,,,,,,,,51,45.4382,0.0266551
,,,,,,,,,62,37.944,0.0259337
,,,,,,,,,74,59.2551,0.0283421
,,,,,,,,,87,99.6542,0.0291687
,,,,,,,,,101,116.961,0.0324734
,,,,,,,,,116,49.0979,0.0229017
,,,,,,,,,132,100.212,0.027492
,,,,,,,,,149,65.5773,0.0193276
,,,,,,,,,167,90.2512,0.0247246
,,,,,,,,,186,110.482,0.0130783
,,,,,,,,,206,69.8486,0.0249014
,,,,,,,,,227,85.6494,0.0186637
,,,,,,,,,249,154.523,0.0218796
,,,,,,,,,272,88.6805,0.0201054
,,,,,,,,,296,131.158,0.021248
,,,,,,,,,50,50.0483,0.0325271
,,,,,,,,,61,57.4951,0.0307581
,,,,,,,,,73,103.818,0.0298016
,,,,,,,,,86,86.9982,0.0330266
,,,,,,,,,100,33.5955,0.0341544
,,,,,,,,,115,40.8383,0.0387749
,,,,,,,,,131,121.359,0.0258663
,,,,,,,,,148,123.273,0.031878
,,,,,,,,,166,129.127,0.0213973
,,,,,,,,,185,77.44,0.028216
,,,,,,,,,205,75.7965,0.0139942
,,,,,,,,,226,145.756,0.0284465
,,,,,,,,,248,152.299,0.0205865
,,,,,,,,,271,78.7189,0.0245699
,,,,,,,,,295,147.803,0.0223548
,,,,,,,,,320,119.877,0.0237763
,,,,,,,,,72,96.2734,0.0467793
,,,,,,,,,85,79.2532,0.0446021
,,,,,,,,,99,128.055,0.0522362
,,,,,,,,,114,77.2662,0.0551146
,,,,,,,,,130,60.1131,0.0682358
,,,,,,,,,147,123.208,0.0363298
,,,,,,,,,165,73.3265,0.0494197
,,,,,,,,,184,90.2441,0.0280898
,,,,,,,,,204,127.438,0.0411418
,,,,,,,,,225,121.136,0.0165774
,,,,,,,,,247,125.208,0.0416337
,,,,,,,,,270,106.876,0.0267089
,,,,,,,,,294,86.701,0.0338233
,,,,,,,,,319,155.241,0.0297633
,,,,,,,,,345,146.865,0.0323375
,,,,,,,,,98,82.6889,0.0413417
,,,,,,,,,113,32.0947,0.0478195
,,,,,,,,,129,62.0994,0.0502205
,,,,,,,,,146,89.7308,0.0608893
,,,,,,,,,164,68.3011,0.0341369
,,,,,,,,,183,145.649,0.0454483
,,,,,,,,,203,107.781,0.0267606
,,,,,,,,,224,47.9745,0.0383519
,,,,,,,,,246,65.8262,0.0161053
,,,,,,,,,269,94.1955,0.038779
,,,,,,,,,293,121.108,0.0255044
,,,,,,,,,318,115.354,0.0319146
,,,,,,,,,344,91.65,0.0282753
,,,,,,,,,371,101.19,0.0305885
,,,,,,,,,128,86.1423,0.0455467
,,,,,,,,,145,134.558,0.0477197
,,,,,,,,,163,137.585,0.0572516
,,,,,,,,,182,45.7152,0.0329627
,,,,,,,,,202,63.3833,0.0433905
,,,,,,,,,223,28.6514,0.0260336
,,,,,,,,,245,121.382,0.0368761
,,,,,,,,,268,143.131,0.0158391
,,,,,,,,,292,49.1244,0.0372708
,,,,,,,,,317,51.4427,0.0248433
,,,,,,,,,343,158.416,0.030886
,,,,,,,,,370,78.5471,0.0274649
,,,,,,,,,398,130.575,0.0296423
,,,,,,,,,162,78.7206,0.0565642
,,,,,,,,,181,108.602,0.0704717
,,,,,,,,,201,50.6023,0.0369541
,,,,,,,,,222,140.171,0.050582
,,,,,,,,,244,100.043,0.0284615
,,,,,,,,,267,35.3138,0.0419442
,,,,,,,,,291,56.9995,0.0167061
,,,,,,,,,316,72.3967,0.0424556
,,,,,,,,,342,101.593,0.0270448
,,,,,,,,,369,115.442,0.0343637
,,,,,,,,,397,60.9436,0.030181
,,,,,,,,,426,74.9693,0.0328311
,,,,,,,,,200,29.9718,0.0758134
,,,,,,,,,221,128.242,0.0383718
,,,,,,,,,243,140.932,0.0532763
,,,,,,,,,266,162.352,0.0292951
,,,,,,,,,290,53.3557,0.0437802
,,,,,,,,,315,44.2445,0.0169899
,,,,,,,,,341,150.679,0.0443376
,,,,,,,,,368,173.846,0.0277964
,,,,,,,,,396,55.8023,0.0355864
,,,,,,,,,425,126.787,0.03112
,,,,,,,,,455,86.3264,0.0339454
,,,,,,,,,242,157.812,0.0443029
,,,,,,,,,265,111.202,0.0654402
,,,,,,,,,289,147.504,0.0326302
,,,,,,,,,314,79.8468,0.0516731
,,,,,,,,,340,64.0804,0.0180605
,,,,,,,,,367,172.824,0.0524514
,,,,,,,,,395,148.628,0.0307816
,,,,,,,,,424,38.2779,0.0406311
,,,,,,,,,454,143.595,0.0349105
,,,,,,,,,485,91.8403,0.0385057
,,,,,,,,,288,89.7678,0.0355219
,,,,,,,,,313,49.8214,0.0229795
,,,,,,,,,339,82.8582,0.0310338
,,,,,,,,,366,102.168,0.0146541
,,,,,,,,,394,26.0408,0.0313128
,,,,,,,,,423,53.5511,0.0220471
,,,,,,,,,453,149.933,0.0266793
,,,,,,,,,484,39.9499,0.0240875
,,,,,,,,,516,89.542,0.0257462
,,,,,,,,,338,41.633,0.0276043
,,,,,,,,,365,158.412,0.0401088
,,,,,,,,,393,147.528,0.0164071
,,,,,,,,,422,68.3044,0.0405761
,,,,,,,,,452,39.5835,0.0262697
,,,,,,,,,483,96.9978,0.0331219
,,,,,,,,,515,86.9648,0.0292188
,,,,,,,,,548,104.86,0.0316958
,,,,,,,,,392,132.182,0.0248154
,,,,,,,,,421,148.002,0.0131037
,,,,,,,,,451,35.8048,0.0249935
,,,,,,,,,482,23.8015,0.0187154
,,,,,,,,,514,136.837,0.0219506
,,,,,,,,,547,64.9968,0.0201654
,,,,,,,,,581,110.519,0.021315
,,,,,,,,,450,21.7637,0.0153797
,,,,,,,,,481,98.3514,0.0348234
,,,,,,,,,513,123.97,0.0237315
,,,,,,,,,546,80.1888,0.0291862
,,,,,,,,,580,74.3512,0.0261125
,,,,,,,,,615,55.0417,0.0280731
,,,,,,,,,512,112.2,0.015448
,,,,,,,,,545,130.901,0.0127951
,,,,,,,,,579,58.4504,0.0142288
,,,,,,,,,614,83.486,0.0134566
,,,,,,,,,650,46.1215,0.013959
,,,,,,,,,578,29.2187,0.0238944
,,,,,,,,,613,134.66,0.0294329
,,,,,,,,,649,30.4362,0.0263098
,,,,,,,,,686,81.5142,0.0283013
,,,,,,,,,648,119.28,0.0210982
,,,,,,,,,685,49.7398,0.0194438
,,,,,,,,,723,87.8245,0.0205104
,,,,,,,,,722,110.958,0.0229594
,,,,,,,,,761,60.3984,0.0244615
,,,,,,,,,800,52.2595,0.022265
