facetNormals:0,facetNormals:1,facetNormals:2,FacetCenters:0,FacetCenters:1,FacetCenters:2,FacetIds,relFacetSize,absFacetSize,cellPairingIds,interplanarAngles,angleWeights
-0.595555,-0.265719,-0.735485,6.03424,6.81046,9.10899,1,0.0422614,0.00416055,8,81.5125,0.0317978
0.22791,0.665223,-0.608289,6.06498,6.85493,9.16137,2,0.0254873,0.00250918,13,67.2491,0.0419034
0.392477,-0.676296,-0.57518,6.13356,6.78224,9.07733,3,0.0415514,0.00409066,19,30.7131,0.0315946
-0.378795,-0.71106,-0.571095,6.09152,6.77642,9.07865,4,0.0252272,0.00248357,26,107.03,0.0204021
0.853933,0.273387,-0.405123,6.16613,6.80443,9.11994,5,0.0134469,0.00132382,34,30.3174,0.0428998
-0.836846,-0.396431,-0.303345,5.98803,6.84196,9.15927,6,0.0435578,0.00428818,43,60.8291,0.0448543
-0.0818395,-0.936696,-0.225146,6.10252,6.76154,9.1236,7,0.0477862,0.00470446,53,94.9165,0.017337
0.592289,-0.790485,-0.0804966,6.15011,6.76887,9.1466,8,0.0109054,0.00107362,64,101.02,0.0144911
-0.0259428,0.982694,-0.0820173,6.05778,6.87431,9.16265,9,0.00874481,0.00086091,76,136.351,0.0601178
0.92031,-0.0833023,0.198999,6.16931,6.81928,9.17277,10,0.104105,0.0102489,89,105.296,0.0275506
0.387989,-0.842218,0.338112,6.13893,6.77721,9.18597,11,0.0204368,0.00201196,103,70.5026,0.0163855
-0.908491,-0.145181,0.349144,5.98476,6.84083,9.1653,12,0.0101629,0.00100052,118,85.2632,0.0636659
-0.316881,-0.808851,0.441281,6.06393,6.79175,9.17784,13,0.129004,0.0127002,134,89.7037,0.0418317
-0.620285,-0.420311,0.647282,6.02468,6.84395,9.21831,14,0.0414107,0.0040768,151,98.4477,0.0252444
-0.658912,0.419084,0.57222,5.99065,6.90449,9.22998,15,0.0179975,0.00177182,169,176.777,0.0255303
0.641403,0.23993,0.71609,6.09371,6.81282,9.12904,16,0.0182896,0.00180058,188,152.61,0.0536993
0.222366,0.532477,0.758832,6.07697,6.88443,9.23463,17,0.0736261,0.00724835,208,108.397,0.055612
-0.261689,-0.501771,0.809957,6.02487,6.85628,9.23039,18,0.0812931,0.00800315,229,126.839,0.0454614
0.148691,-0.486202,0.846566,6.10101,6.83707,9.24256,19,0.0491857,0.00484224,18,90.6706,0.0315947
,,,,,,,,,25,103.346,0.0253566
,,,,,,,,,33,47.0841,0.0176053
,,,,,,,,,42,107.333,0.0321578
,,,,,,,,,52,124.164,0.0332437
,,,,,,,,,63,111.78,0.015275
,,,,,,,,,75,40.4749,0.0130218
,,,,,,,,,88,87.8296,0.0409492
,,,,,,,,,102,137.584,0.0226843
,,,,,,,,,117,124.332,0.0145315
,,,,,,,,,133,165.918,0.042565
,,,,,,,,,150,152.246,0.0315539
,,,,,,,,,168,104.112,0.0210974
,,,,,,,,,187,98.0997,0.0212967
,,,,,,,,,207,93.6672,0.0378663
,,,,,,,,,228,164.699,0.0388075
,,,,,,,,,250,151.188,0.033576
,,,,,,,,,32,46.4305,0.0313941
,,,,,,,,,41,66.34,0.0203183
,,,,,,,,,51,83.0691,0.042531
,,,,,,,,,62,38.8539,0.0444513
,,,,,,,,,74,32.2748,0.0172765
,,,,,,,,,87,130.952,0.0144488
,,,,,,,,,101,70.7124,0.059396
,,,,,,,,,116,56.6012,0.0273981
,,,,,,,,,132,118.733,0.0163314
,,,,,,,,,149,79.7169,0.062857
,,,,,,,,,167,110.176,0.0414809
,,,,,,,,,186,157.976,0.0251162
,,,,,,,,,206,109.586,0.0253993
,,,,,,,,,227,140.041,0.0531227
,,,,,,,,,249,103.828,0.0549938
,,,,,,,,,272,95.9733,0.0450474
,,,,,,,,,50,107.149,0.0175429
,,,,,,,,,61,36.6415,0.03195
,,,,,,,,,73,30.1502,0.0330217
,,,,,,,,,86,66.9178,0.015228
,,,,,,,,,100,131.233,0.0129876
,,,,,,,,,115,115.578,0.0406129
,,,,,,,,,131,74.6022,0.0225807
,,,,,,,,,148,75.2163,0.0144889
,,,,,,,,,166,62.5768,0.0422017
,,,,,,,,,185,80.3347,0.0313538
,,,,,,,,,205,113.106,0.0210077
,,,,,,,,,226,147.204,0.0212054
,,,,,,,,,248,162.17,0.0375785
,,,,,,,,,271,90.3902,0.0385053
,,,,,,,,,295,101.479,0.0333496
,,,,,,,,,72,136.906,0.0205497
,,,,,,,,,85,104.287,0.0209878
,,,,,,,,,99,70.7001,0.0120435
,,,,,,,,,114,73.2492,0.0105977
,,,,,,,,,130,42.7918,0.0238173
,,,,,,,,,147,92.1192,0.0162208
,,,,,,,,,165,171.248,0.0115765
,,,,,,,,,184,134.379,0.024355
,,,,,,,,,204,158.564,0.0203014
,,,,,,,,,225,135.545,0.0153929
,,,,,,,,,247,70.6383,0.0154987
,,,,,,,,,270,88.2871,0.0227405
,,,,,,,,,294,135.113,0.0230766
,,,,,,,,,319,111.045,0.0211198
,,,,,,,,,98,57.3611,0.0455741
,,,,,,,,,113,99.4086,0.0174435
,,,,,,,,,129,110.905,0.0145654
,,,,,,,,,146,149.978,0.061418
,,,,,,,,,164,95.5712,0.0278205
,,,,,,,,,183,42.0594,0.0164806
,,,,,,,,,203,61.5726,0.065126
,,,,,,,,,224,59.5222,0.0424571
,,,,,,,,,246,77.0321,0.0254708
,,,,,,,,,269,151.576,0.0257619
,,,,,,,,,293,132.483,0.0547343
,,,,,,,,,318,79.696,0.0567228
,,,,,,,,,344,101.296,0.046201
,,,,,,,,,128,42.1757,0.0177582
,,,,,,,,,145,160.655,0.0147841
,,,,,,,,,163,92.6398,0.0655045
,,,,,,,,,182,44.4673,0.0286296
,,,,,,,,,202,82.0413,0.0167611
,,,,,,,,,223,43.4218,0.0697393
,,,,,,,,,245,71.817,0.0443706
,,,,,,,,,268,119.962,0.0261473
,,,,,,,,,292,117.238,0.0264542
,,,,,,,,,317,138.266,0.0579564
,,,,,,,,,343,71.1239,0.0601908
,,,,,,,,,370,74.6555,0.0484759
,,,,,,,,,162,143.471,0.00970633
,,,,,,,,,181,50.5751,0.0197427
,,,,,,,,,201,27.4103,0.0142218
,,,,,,,,,222,117.575,0.0105211
,,,,,,,,,244,64.4695,0.0201107
,,,,,,,,,267,95.1008,0.0172643
,,,,,,,,,291,143.136,0.0135813
,,,,,,,,,316,82.2397,0.0136637
,,,,,,,,,342,111.763,0.018997
,,,,,,,,,369,79.619,0.019231
,,,,,,,,,397,65.6019,0.0178526
,,,,,,,,,200,97.5216,0.0161343
,,,,,,,,,221,152.732,0.0122485
,,,,,,,,,243,98.7541,0.00940068
,,,,,,,,,266,148.879,0.0163793
,,,,,,,,,290,117.436,0.0144402
,,,,,,,,,315,66.422,0.0117705
,,,,,,,,,341,80.5542,0.0118323
,,,,,,,,,368,61.0458,0.0156329
,,,,,,,,,396,124.547,0.015791
,,,,,,,,,425,124.452,0.0148495
,,,,,,,,,242,57.992,0.0341664
,,,,,,,,,265,144.21,0.018518
,,,,,,,,,289,98.5188,0.115224
,,,,,,,,,314,115.778,0.0592521
,,,,,,,,,340,125.196,0.0306894
,,,,,,,,,367,40.4421,0.0311131
,,,,,,,,,395,69.7906,0.086252
,,,,,,,,,424,92.3229,0.0912955
,,,,,,,,,454,68.2558,0.0668073
,,,,,,,,,288,96.6313,0.0135751
,,,,,,,,,313,42.6372,0.0352839
,,,,,,,,,339,70.1289,0.0273674
,,,,,,,,,366,115.751,0.0191397
,,,,,,,,,394,72.8177,0.0193037
,,,,,,,,,423,96.4448,0.0319931
,,,,,,,,,453,52.4082,0.0326624
,,,,,,,,,484,39.3774,0.0288757
,,,,,,,,,338,54.309,0.0188415
,,,,,,,,,365,29.1984,0.0163205
,,,,,,,,,393,39.2661,0.0129904
,,,,,,,,,422,112.144,0.0130657
,,,,,,,,,452,90.8784,0.0178605
,,,,,,,,,483,52.3899,0.0180671
,,,,,,,,,515,76.2436,0.0168452
,,,,,,,,,392,31.5495,0.0626958
,,,,,,,,,421,82.5486,0.0315881
,,,,,,,,,451,94.8318,0.0320371
,,,,,,,,,482,100.314,0.0937478
,,,,,,,,,514,28.4839,0.0997364
,,,,,,,,,547,41.5825,0.071218
,,,,,,,,,450,51.0224,0.0250904
,,,,,,,,,481,92.0553,0.0253729
,,,,,,,,,513,82.1181,0.0530075
,,,,,,,,,546,23.4558,0.0548704
,,,,,,,,,580,47.5386,0.0449646
,,,,,,,,,512,84.7553,0.0181424
,,,,,,,,,545,56.391,0.0289246
,,,,,,,,,579,63.58,0.0294705
,,,,,,,,,614,78.9834,0.0263524
,,,,,,,,,578,30.5115,0.0293006
,,,,,,,,,613,72.6614,0.029861
,,,,,,,,,649,53.2866,0.0266642
,,,,,,,,,648,72.1169,0.0772699
,,,,,,,,,685,63.7364,0.058974
,,,,,,,,,722,24.0924,0.061289
