facetNormals:0,facetNormals:1,facetNormals:2,FacetCenters:0,FacetCenters:1,FacetCenters:2,FacetIds,relFacetSize,absFacetSize,cellPairingIds,interplanarAngles,angleWeights
-0.559104,0.103425,-0.732828,4.18331,5.00205,6.76158,1,0.0668919,0.0196536,8,81.0627,0.0605862
0.653802,-0.134028,-0.709218,4.21536,5.00346,6.65371,2,0.0553669,0.0162675,13,36.2506,0.0440518
-0.415591,0.660689,-0.585796,4.16946,5.10154,6.7506,3,0.032839,0.00964851,19,78.1589,0.0943084
0.511626,0.560155,-0.55549,4.18975,5.15913,6.69522,4,0.159807,0.0469534,26,112.762,0.0556246
0.93599,-0.0455917,-0.246077,4.23183,5.05415,6.69919,5,0.0476059,0.0139872,34,62.8682,0.0192392
-0.0497951,0.905153,-0.408092,4.11193,5.21251,6.72925,6,0.0112353,0.00330107,43,53.9905,0.0331954
-0.736059,0.647816,-0.0790149,4.09673,5.13722,6.73303,7,0.0220751,0.00648594,53,93.0059,0.0685747
0.072541,0.934116,0.139357,4.16157,5.20659,6.78569,8,0.0703445,0.0206681,64,84.6651,0.0400545
-0.258262,-0.889371,-0.0375554,4.161,4.91779,6.74339,9,0.0285858,0.00839885,76,87.8495,0.0420873
-0.47477,0.736873,0.42005,4.09496,5.20268,6.7963,10,0.0307023,0.00902072,89,81.2628,0.0443039
-0.821705,0.171684,0.4665,4.06517,5.13427,6.79359,11,0.0331199,0.00973104,103,172.295,0.0961219
0.628832,-0.190402,0.673556,4.20251,5.059,6.78722,12,0.170723,0.0501606,118,133.536,0.0617597
-0.158069,-0.157966,0.944327,4.12171,5.11717,6.84036,13,0.0573589,0.0168527,18,86.6708,0.0412262
,,,,,,,,,25,44.4759,0.0822407
,,,,,,,,,33,32.8594,0.0511939
,,,,,,,,,42,81.9515,0.01868
,,,,,,,,,52,122.308,0.0315651
,,,,,,,,,63,101.037,0.0619635
,,,,,,,,,75,91.4611,0.0377047
,,,,,,,,,88,138.327,0.0395006
,,,,,,,,,102,162.321,0.0414468
,,,,,,,,,117,92.5674,0.0836164
,,,,,,,,,133,142.715,0.0563453
,,,,,,,,,32,58.2496,0.0544824
,,,,,,,,,41,106.906,0.0388671
,,,,,,,,,51,27.8544,0.0167425
,,,,,,,,,62,35.6401,0.0264021
,,,,,,,,,74,56.8588,0.0447755
,,,,,,,,,87,120.44,0.0305652
,,,,,,,,,101,62.4948,0.0317348
,,,,,,,,,116,78.8243,0.0329789
,,,,,,,,,132,148.352,0.0550828
,,,,,,,,,149,128.68,0.0417661
,,,,,,,,,50,49.6333,0.0733586
,,,,,,,,,61,40.7408,0.0209946
,,,,,,,,,73,88.13,0.0387917
,,,,,,,,,86,57.1635,0.0976883
,,,,,,,,,100,134.372,0.0484967
,,,,,,,,,115,93.9824,0.0515088
,,,,,,,,,131,130.244,0.0548685
,,,,,,,,,148,100.359,0.165085
,,,,,,,,,166,139.509,0.084418
,,,,,,,,,72,89.2536,0.01818
,,,,,,,,,85,137.176,0.0301633
,,,,,,,,,99,90.5608,0.0567834
,,,,,,,,,114,102.342,0.0357218
,,,,,,,,,130,128.118,0.0373297
,,,,,,,,,147,163.409,0.0390632
,,,,,,,,,165,61.7489,0.0744512
,,,,,,,,,184,113.382,0.0520293
,,,,,,,,,98,47.9296,0.0148915
,,,,,,,,,113,33.5248,0.0193759
,,,,,,,,,129,147.465,0.0161307
,,,,,,,,,146,57.5003,0.0164506
,,,,,,,,,164,89.6434,0.0167788
,,,,,,,,,183,120.768,0.0210832
,,,,,,,,,203,122.651,0.0187901
,,,,,,,,,128,54.5282,0.0336046
,,,,,,,,,145,114.844,0.0249121
,,,,,,,,,163,33.9027,0.0256836
,,,,,,,,,182,44.0343,0.0264925
,,,,,,,,,202,133.695,0.0390951
,,,,,,,,,223,93.6397,0.0318806
,,,,,,,,,162,166.793,0.0406519
,,,,,,,,,181,39.3079,0.0427473
,,,,,,,,,201,79.5001,0.0450359
,,,,,,,,,222,92.4678,0.0996354
,,,,,,,,,244,91.7098,0.0631914
,,,,,,,,,200,127.504,0.0296063
,,,,,,,,,221,87.2953,0.0306863
,,,,,,,,,243,91.2063,0.0489718
,,,,,,,,,266,80.668,0.0381559
,,,,,,,,,242,40.2396,0.0318654
,,,,,,,,,265,99.8159,0.0520451
,,,,,,,,,289,67.8716,0.0399961
,,,,,,,,,288,105.086,0.0554774
,,,,,,,,,313,54.3404,0.0419926
,,,,,,,,,338,51.6344,0.0858681
