Q	U	V
{$V$}	{[mm$^3$]}	0.00749872
{$d_v$}	{[mm]}	0.242845
{$S_c$}	{[mm$^2$]}	0.325897
{$S_o$}	{[mm$^2$]}	0.203347
{$S_l/S_o$}	[]	0.602664
{$\Psi$}	[]	0.568497
{$\eta$}	[]	0.585578
{med($\theta_e$)}	{[$^\circ$]}	59.9747
{$\Upsilon$}	[]	15
{$\Xi$}	[]	9
