Q	U	V
{$V$}	{[mm$^3$]}	0.00164936
{$d_v$}	{[mm]}	0.146590
{$S_c$}	{[mm$^2$]}	0.12524
{$S_o$}	{[mm$^2$]}	0.0689992
{$S_l/S_o$}	[]	0.815094
{$\Psi$}	[]	0.539036
{$\eta$}	[]	0.618962
{med($\theta_e$)}	{[$^\circ$]}	67.5853
{$\Upsilon$}	[]	10
{$\Xi$}	[]	5
