facetNormals:0,facetNormals:1,facetNormals:2,FacetCenters:0,FacetCenters:1,FacetCenters:2,FacetIds,relFacetSize,absFacetSize,cellPairingIds,interplanarAngles,angleWeights
0.0734496,0.125832,-0.919457,7.48311,5.10452,5.38198,1,0.212155,0.0204206,8,60.2345,0.151586
0.163164,0.881265,-0.349983,7.4872,5.17485,5.46575,2,0.11792,0.0113502,13,77.1284,0.143001
0.943343,0.19661,-0.116663,7.55738,5.13459,5.44964,3,0.107847,0.0103806,19,105.262,0.0481162
-0.510563,-0.736589,0.0987194,7.43974,5.08768,5.45784,4,0.0271352,0.00261185,26,91.4294,0.227055
-0.650163,0.698645,0.0678406,7.42458,5.15646,5.48324,5,0.244207,0.0235057,34,123.314,0.0257902
0.0200334,-0.878954,0.424127,7.48339,5.10723,5.51058,6,0.0137296,0.00132152,43,114.178,0.102746
0.656324,0.503293,0.528267,7.51997,5.17562,5.54354,7,0.0677873,0.00652475,53,120.872,0.0858502
-0.0628276,0.756543,0.601801,7.46978,5.16936,5.5588,8,0.0538131,0.00517968,18,66.7929,0.112659
,,,,,,,,,25,152.141,0.0441182
,,,,,,,,,33,58.1437,0.159043
,,,,,,,,,42,168.324,0.0245956
,,,,,,,,,52,67.2114,0.0860869
,,,,,,,,,63,61.4236,0.0739012
,,,,,,,,,32,136.799,0.0433605
,,,,,,,,,41,121.402,0.149619
,,,,,,,,,51,102.396,0.0243583
,,,,,,,,,62,46.4383,0.0832485
,,,,,,,,,74,88.8259,0.0717997
,,,,,,,,,50,101.77,0.0488432
,,,,,,,,,61,39.5071,0.0182336
,,,,,,,,,73,137.621,0.0387563
,,,,,,,,,86,122.225,0.0360781
,,,,,,,,,72,129.84,0.0259976
,,,,,,,,,85,92.3961,0.106118
,,,,,,,,,99,48.8239,0.0881922
,,,,,,,,,98,102.367,0.0228344
,,,,,,,,,113,115.761,0.0218775
,,,,,,,,,128,46.2497,0.0599972
