facetNormals:0,facetNormals:1,facetNormals:2,FacetCenters:0,FacetCenters:1,FacetCenters:2,FacetIds,relFacetSize,absFacetSize,cellPairingIds,interplanarAngles,angleWeights
0.260718,0.0860011,-0.907441,3.4199,4.58571,7.22082,1,0.0564991,0.00527007,8,51.5816,0.0490579
-0.010315,-0.681875,-0.70383,3.41227,4.54789,7.24505,2,0.0433486,0.00404343,13,67.624,0.0516758
0.289671,-0.853983,-0.388185,3.42071,4.53519,7.27336,3,0.0476112,0.00444103,19,60.2506,0.0482515
0.681803,-0.606383,-0.372509,3.47516,4.54784,7.2784,4,0.0421051,0.00392744,26,46.9382,0.0561499
0.849291,-0.102292,-0.457792,3.48644,4.58911,7.24763,5,0.055805,0.00520533,34,79.8792,0.0390762
-0.173098,-0.908731,-0.315282,3.41974,4.53022,7.26812,6,0.0298662,0.00278583,43,61.9778,0.0351776
0.688451,0.663872,-0.221105,3.46907,4.62324,7.27428,7,0.0255396,0.00238225,53,67.4167,0.042711
-0.12733,0.920208,-0.347286,3.42786,4.65628,7.26254,8,0.0343325,0.00320243,64,74.0499,0.0640365
0.0636757,0.962265,-0.171736,3.4157,4.64331,7.24244,9,0.0738946,0.00689266,76,116.915,0.0251063
-0.915756,-0.243766,0.169027,3.40644,4.50854,7.2916,10,0.016139,0.0015054,89,85.4026,0.0654192
0.88259,0.25328,0.198906,3.48262,4.58012,7.31785,11,0.0776841,0.00724614,103,120.849,0.0157581
0.174329,-0.829843,0.498358,3.37775,4.49319,7.36013,12,0.00915591,0.000854035,118,115.155,0.0624005
0.649414,-0.382635,0.569999,3.4589,4.51643,7.34464,13,0.0696785,0.0064994,134,105.899,0.0125791
0.234144,0.860252,0.432402,3.42302,4.54743,7.24845,14,0.00707742,0.00066016,151,142.565,0.0150093
-0.586973,-0.513986,0.598278,3.42734,4.49245,7.3139,15,0.00865418,0.000807236,169,124.804,0.0433683
0.402858,0.492829,0.748264,3.42944,4.59451,7.34255,16,0.0351899,0.00328241,188,152.717,0.074346
-0.119149,0.343978,0.898726,3.42469,4.58221,7.3508,17,0.108674,0.0101368,18,27.6168,0.04538
,,,,,,,,,25,46.1907,0.0427178
,,,,,,,,,33,66.2335,0.0487944
,,,,,,,,,42,28.298,0.0353661
,,,,,,,,,52,108.432,0.0321421
,,,,,,,,,63,113.125,0.0383173
,,,,,,,,,75,123.937,0.0546425
,,,,,,,,,88,86.5543,0.023521
,,,,,,,,,102,110.457,0.0556461
,,,,,,,,,117,77.2159,0.0151185
,,,,,,,,,133,99.1311,0.0534468
,,,,,,,,,150,156.918,0.0121682
,,,,,,,,,168,93.8416,0.0144279
,,,,,,,,,187,154.21,0.0388455
,,,,,,,,,207,155.669,0.0619758
,,,,,,,,,32,27.2844,0.0446892
,,,,,,,,,41,57.5515,0.0513835
,,,,,,,,,51,27.8612,0.0367066
,,,,,,,,,62,106.995,0.0332456
,,,,,,,,,74,134.951,0.039896
,,,,,,,,,87,139.995,0.0579102
,,,,,,,,,101,97.4605,0.0241065
,,,,,,,,,116,92.3517,0.0590387
,,,,,,,,,132,54.1371,0.0153583
,,,,,,,,,149,71.5505,0.0565689
,,,,,,,,,167,149.092,0.012323
,,,,,,,,,186,87.8232,0.0146462
,,,,,,,,,206,128.064,0.0404688
,,,,,,,,,227,135.34,0.0662135
,,,,,,,,,50,31.9209,0.0479966
,,,,,,,,,61,55.1455,0.0349451
,,,,,,,,,73,81.1289,0.031794
,,,,,,,,,86,121.826,0.0378236
,,,,,,,,,100,119.55,0.0536439
,,,,,,,,,115,124.659,0.023334
,,,,,,,,,131,66.1719,0.0546109
,,,,,,,,,148,63.2425,0.0150411
,,,,,,,,,166,60.2281,0.0524911
,,,,,,,,,185,122.387,0.0121179
,,,,,,,,,205,108.745,0.0143574
,,,,,,,,,226,108.232,0.0383382
,,,,,,,,,248,130.813,0.0606944
,,,,,,,,,72,84.5367,0.0389089
,,,,,,,,,85,49.5412,0.0350419
,,,,,,,,,99,92.5783,0.0425112
,,,,,,,,,114,87.9337,0.0635883
,,,,,,,,,130,152.737,0.0250371
,,,,,,,,,147,46.052,0.0649515
,,,,,,,,,165,89.7119,0.0157309
,,,,,,,,,184,68.9221,0.0619748
,,,,,,,,,204,95.1975,0.0125617
,,,,,,,,,225,138.991,0.0149846
,,,,,,,,,247,93.0563,0.0431622
,,,,,,,,,270,125.612,0.0737425
,,,,,,,,,98,132.874,0.027534
,,,,,,,,,113,136.638,0.031944
,,,,,,,,,129,150.27,0.0425392
,,,,,,,,,146,69.6769,0.0209546
,,,,,,,,,164,119.035,0.043145
,,,,,,,,,183,53.8678,0.0140152
,,,,,,,,,203,86.5493,0.041811
,,,,,,,,,224,171.84,0.0114432
,,,,,,,,,246,66.7015,0.0134198
,,,,,,,,,269,141.703,0.0323102
,,,,,,,,,293,127.379,0.0468554
,,,,,,,,,128,51.9511,0.0292903
,,,,,,,,,145,41.4568,0.0379595
,,,,,,,,,163,151.405,0.0197791
,,,,,,,,,182,37.4875,0.0384411
,,,,,,,,,202,124.085,0.0134794
,,,,,,,,,223,85.8557,0.0373786
,,,,,,,,,245,49.1119,0.0110834
,,,,,,,,,268,155.412,0.0129277
,,,,,,,,,292,62.9144,0.029598
,,,,,,,,,317,93.1548,0.0413592
,,,,,,,,,162,15.3064,0.0468826
,,,,,,,,,181,100.039,0.0219566
,,,,,,,,,201,86.8247,0.0476195
,,,,,,,,,222,169.426,0.0144565
,,,,,,,,,244,132.464,0.0459997
,,,,,,,,,267,51.5093,0.0117356
,,,,,,,,,291,128.425,0.0138238
,,,,,,,,,316,81.5989,0.0347559
,,,,,,,,,342,88.8329,0.0521801
,,,,,,,,,200,109.962,0.026492
,,,,,,,,,221,73.215,0.075742
,,,,,,,,,243,154.978,0.016293
,,,,,,,,,266,117.312,0.0717246
,,,,,,,,,290,37.6538,0.0129176
,,,,,,,,,315,131.227,0.0154938
,,,,,,,,,341,67.2981,0.0476757
,,,,,,,,,368,79.7467,0.0879714
,,,,,,,,,242,157.637,0.0267257
,,,,,,,,,265,82.2984,0.0116835
,,,,,,,,,289,116.443,0.0262077
,,,,,,,,,314,111.594,0.0098398
,,,,,,,,,340,36.1773,0.0112668
,,,,,,,,,367,112.546,0.022129
,,,,,,,,,395,79.0581,0.0281042
,,,,,,,,,288,87.345,0.0163811
,,,,,,,,,313,48.3859,0.0734638
,,,,,,,,,339,56.7412,0.0129729
,,,,,,,,,366,124.956,0.0155734
,,,,,,,,,394,47.0203,0.048438
,,,,,,,,,423,79.8382,0.0906022
,,,,,,,,,338,39.7324,0.0161851
,,,,,,,,,365,118.002,0.0079836
,,,,,,,,,393,49.9406,0.00889798
,,,,,,,,,422,87.9738,0.014531
,,,,,,,,,452,81.4575,0.0168889
,,,,,,,,,392,85.752,0.0128497
,,,,,,,,,421,80.3031,0.0153961
,,,,,,,,,451,57.4452,0.0467629
,,,,,,,,,482,70.6724,0.0849131
,,,,,,,,,450,109.232,0.00778678
,,,,,,,,,481,30.1372,0.0117847
,,,,,,,,,513,46.8894,0.0132894
,,,,,,,,,512,92.4984,0.0138919
,,,,,,,,,545,63.134,0.0160317
,,,,,,,,,578,33.5356,0.0531644
