Q	U	V
{$V$}	{[mm$^3$]}	0.0112202
{$d_v$}	{[mm]}	0.277758
{$S_c$}	{[mm$^2$]}	0.341893
{$S_o$}	{[mm$^2$]}	0.255169
{$S_l/S_o$}	[]	0.339869
{$\Psi$}	[]	0.708915
{$\eta$}	[]	0.724206
{med($\theta_e$)}	{[$^\circ$]}	58.45455
{$\Upsilon$}	[]	14
{$\Xi$}	[]	14
