Q	U	V
{$V$}	{[mm$^3$]}	0.00756522
{$d_v$}	{[mm]}	0.243561
{$S_c$}	{[mm$^2$]}	0.324997
{$S_o$}	{[mm$^2$]}	0.201644
{$S_l/S_o$}	[]	0.611737
{$\Psi$}	[]	0.573437
{$\eta$}	[]	0.602849
{med($\theta_e$)}	{[$^\circ$]}	60.87465
{$\Upsilon$}	[]	13
{$\Xi$}	[]	4
