"cellPairingIds","interplanarAngles","angleWeights"
8,66.8316,0.0469515
13,54.0586,0.0796954
19,51.0627,0.0400736
26,59.895,0.067112
34,59.2068,0.0649317
18,56.7656,0.0494013
33,98.2203,0.0442574
52,101.648,0.0160713
63,39.3925,0.0230973
75,88.2961,0.0466272
51,51.7842,0.0697125
87,43.766,0.0787655
50,44.6736,0.0380944
61,51.4221,0.0373819
115,50.9661,0.0472225
85,40.9127,0.0179132
130,84.0494,0.0899057
129,50.995,0.064313
146,51.7098,0.0860355
128,92.8774,0.0130677
163,94.4142,0.0197042
182,69.5807,0.0168939
202,42.5461,0.0165358
162,90.3704,0.0279731
201,48.5903,0.0248353
267,74.5626,0.0285618
200,78.0324,0.100257
266,49.0946,0.0458226
290,47.8466,0.0759681
265,79.8442,0.0634006
289,50.5838,0.0558739
340,67.5617,0.0475971
288,44.0071,0.0412963
339,59.8399,0.0565608
366,45.461,0.0339533
393,30.5635,0.0325374
392,31.1139,0.0474238
421,49.0925,0.0304335
450,52.1352,0.0413245
