Q	U	V
{$V$}	{[mm$^3$]}	0.00397557
{$d_v$}	{[mm]}	0.196547
{$S_c$}	{[mm$^2$]}	0.220318
{$S_o$}	{[mm$^2$]}	0.126619
{$S_l/S_o$}	[]	0.740007
{$\Psi$}	[]	0.55085
{$\eta$}	[]	0.590764
{med($\theta_e$)}	{[$^\circ$]}	49.80385
{$\Upsilon$}	[]	14
{$\Xi$}	[]	8
