facetNormals:0,facetNormals:1,facetNormals:2,FacetCenters:0,FacetCenters:1,FacetCenters:2,FacetIds,relFacetSize,absFacetSize,cellPairingIds,interplanarAngles,angleWeights
-0.365413,-0.0908441,-0.91362,5.81113,3.77373,5.44379,1,0.00751484,0.00166465,8,61.9838,0.0135346
0.613254,0.0354327,-0.735754,5.91763,3.78916,5.48525,2,0.0680321,0.0150701,13,68.8439,0.011232
0.673927,-0.38103,-0.618461,5.93102,3.75986,5.51125,3,0.022226,0.00492338,19,30.6363,0.0131265
-0.685665,-0.280839,-0.564968,5.75854,3.78533,5.46499,4,0.05183,0.0114811,26,50.8851,0.013498
-0.433228,0.658186,-0.546511,5.81328,3.84216,5.45469,5,0.0662231,0.0146694,34,73.919,0.011769
0.473387,0.65933,-0.548367,5.94134,3.852,5.54839,6,0.0271241,0.00600837,43,104.261,0.0127806
0.835614,0.497809,-0.122503,5.95046,3.82313,5.54908,7,0.0427045,0.00945968,53,73.3292,0.0130913
-0.948262,-0.0241076,0.0861316,5.76047,3.78869,5.55335,8,0.0507531,0.0112426,64,106.175,0.0106343
0.494463,0.857446,0.0152329,5.87835,3.87602,5.50371,9,0.0181816,0.00402748,76,95.9994,0.0141564
-0.20741,0.901062,0.0984774,5.81444,3.85776,5.5464,10,0.121821,0.0269852,89,119.509,0.0128807
0.94713,0.0793217,0.123934,5.9385,3.80586,5.55108,11,0.045044,0.00997789,103,103.557,0.0114651
0.294682,-0.879186,0.210649,5.94188,3.72909,5.60248,12,0.0241709,0.00535421,118,103.345,0.013283
-0.461258,-0.682575,0.491895,5.82773,3.7407,5.60379,13,0.0571486,0.0126593,134,151.567,0.0128277
0.726401,-0.0409354,0.627127,5.89911,3.77846,5.602,14,0.0437776,0.00969738,151,119.366,0.0137019
-0.584551,-0.0185063,0.73301,5.83621,3.78538,5.62245,15,0.0775481,0.017178,169,140.845,0.0107132
-0.161404,0.484775,0.843419,5.8515,3.78813,5.63713,16,0.018651,0.00413147,188,169.74,0.0123604
0.200788,0.14807,0.93822,5.84795,3.79528,5.63039,17,0.034798,0.00770826,18,25.8338,0.0335057
,,,,,,,,,25,90.947,0.058836
,,,,,,,,,33,79.9913,0.0671154
,,,,,,,,,42,40.1976,0.0387848
,,,,,,,,,52,48.6954,0.0524719
,,,,,,,,,63,135.02,0.0581359
,,,,,,,,,75,70.1353,0.0286945
,,,,,,,,,88,100.847,0.0873069
,,,,,,,,,102,57.5853,0.0542013
,,,,,,,,,117,90.3409,0.0356691
,,,,,,,,,133,136.67,0.0621172
,,,,,,,,,150,91.0825,0.0532741
,,,,,,,,,168,178.415,0.0724791
,,,,,,,,,187,137.997,0.029276
,,,,,,,,,207,127.149,0.0460445
,,,,,,,,,32,90.3518,0.0311109
,,,,,,,,,41,102.444,0.0332818
,,,,,,,,,51,65.2118,0.024432
,,,,,,,,,62,62.4548,0.0292359
,,,,,,,,,74,136.372,0.030914
,,,,,,,,,87,90.1695,0.0200014
,,,,,,,,,101,126.188,0.0375932
,,,,,,,,,116,55.9762,0.0297651
,,,,,,,,,132,64.6564,0.0231577
,,,,,,,,,149,111.924,0.0320048
,,,,,,,,,167,82.9216,0.0294833
,,,,,,,,,186,154.724,0.0345497
,,,,,,,,,206,146.532,0.0202822
,,,,,,,,,227,121.411,0.0271261
,,,,,,,,,50,61.8919,0.0581491
,,,,,,,,,61,102.654,0.0356116
,,,,,,,,,73,134.791,0.0468268
,,,,,,,,,86,46.7314,0.0512859
,,,,,,,,,100,129.64,0.0269199
,,,,,,,,,115,101.078,0.0727204
,,,,,,,,,131,146.15,0.0481993
,,,,,,,,,148,94.8009,0.0329675
,,,,,,,,,166,75.0885,0.0543595
,,,,,,,,,185,159.973,0.0474647
,,,,,,,,,205,90.5327,0.0621329
,,,,,,,,,226,123.115,0.027431
,,,,,,,,,248,141.641,0.0416397
,,,,,,,,,72,55.757,0.0384851
,,,,,,,,,85,88.0134,0.0519249
,,,,,,,,,99,67.6123,0.0574652
,,,,,,,,,114,68.8947,0.0285302
,,,,,,,,,130,45.1277,0.0858029
,,,,,,,,,147,117.601,0.0536178
,,,,,,,,,165,154.273,0.0354154
,,,,,,,,,184,124.282,0.0613521
,,,,,,,,,204,137.988,0.0527104
,,,,,,,,,225,100.219,0.0714395
,,,,,,,,,247,94.3632,0.0291049
,,,,,,,,,270,122.651,0.0456228
,,,,,,,,,98,34.5461,0.0331761
,,,,,,,,,113,123.284,0.0353539
,,,,,,,,,129,35.3336,0.0217703
,,,,,,,,,146,60.9765,0.0443691
,,,,,,,,,164,62.5574,0.0338592
,,,,,,,,,183,126.626,0.0255625
,,,,,,,,,203,176.516,0.0367878
,,,,,,,,,224,91.6454,0.033495
,,,,,,,,,246,138.776,0.0401906
,,,,,,,,,269,103.121,0.0221034
,,,,,,,,,293,109.78,0.0304855
,,,,,,,,,128,150.78,0.0463823
,,,,,,,,,145,30.2686,0.0255045
,,,,,,,,,163,73.2195,0.0632402
,,,,,,,,,182,29.7578,0.0438431
,,,,,,,,,202,103.476,0.0308695
,,,,,,,,,223,146.622,0.0488819
,,,,,,,,,245,57.2226,0.0432344
,,,,,,,,,268,129.72,0.0550783
,,,,,,,,,292,89.8143,0.0259629
,,,,,,,,,317,82.3585,0.038348
,,,,,,,,,162,121.186,0.0267723
,,,,,,,,,181,78.0463,0.0716539
,,,,,,,,,201,166.952,0.0477284
,,,,,,,,,222,105.373,0.0327465
,,,,,,,,,244,57.1138,0.0537614
,,,,,,,,,267,133.851,0.047008
,,,,,,,,,291,46.2274,0.0613526
,,,,,,,,,316,76.8292,0.0272778
,,,,,,,,,342,97.0293,0.0412878
,,,,,,,,,200,43.1496,0.0316408
,,,,,,,,,221,55.4413,0.0259063
,,,,,,,,,243,129.991,0.0207527
,,,,,,,,,266,148.041,0.0275866
,,,,,,,,,290,69.459,0.0256926
,,,,,,,,,315,108.448,0.0294568
,,,,,,,,,341,69.0704,0.0184133
,,,,,,,,,368,75.5054,0.023884
,,,,,,,,,242,97.2688,0.0657694
,,,,,,,,,265,160.328,0.0403382
,,,,,,,,,289,121.86,0.0777999
,,,,,,,,,314,98.0964,0.0644092
,,,,,,,,,340,78.3047,0.0947689
,,,,,,,,,367,52.881,0.0323493
,,,,,,,,,395,78.2282,0.054133
,,,,,,,,,288,75.0274,0.0314601
,,,,,,,,,313,117.88,0.0503794
,,,,,,,,,339,34.0881,0.0444018
,,,,,,,,,366,121.1,0.056987
,,,,,,,,,394,90.5994,0.0263793
,,,,,,,,,423,70.0041,0.0392636
,,,,,,,,,338,51.5127,0.033973
,,,,,,,,,365,65.2661,0.0311455
,,,,,,,,,393,90.1014,0.0368546
,,,,,,,,,422,108.408,0.0210552
,,,,,,,,,452,82.1162,0.0285269
,,,,,,,,,392,89.9152,0.0495774
,,,,,,,,,421,44.4021,0.0658037
,,,,,,,,,451,80.361,0.0281236
,,,,,,,,,482,73.2907,0.0432568
,,,,,,,,,450,87.7202,0.0559629
,,,,,,,,,481,65.5632,0.0261578
,,,,,,,,,513,38.6589,0.0387747
,,,,,,,,,512,40.4564,0.03007
,,,,,,,,,545,51.4282,0.0480394
,,,,,,,,,578,29.8072,0.0242855
