facetNormals:0,facetNormals:1,facetNormals:2,FacetCenters:0,FacetCenters:1,FacetCenters:2,FacetIds,relFacetSize,absFacetSize,cellPairingIds,interplanarAngles,angleWeights
-0.0964596,-0.151121,-0.950351,4.4607,6.58185,6.82564,1,0.0730747,0.018761,8,43.0504,0.0269862
0.383289,0.364675,-0.826897,4.49614,6.62266,6.82627,2,0.0165488,0.00424871,13,39.0502,0.0631518
-0.677805,-0.0851722,-0.678668,4.43853,6.58644,6.96445,3,0.0556016,0.014275,19,36.9659,0.0911662
-0.332773,-0.630947,-0.651254,4.38835,6.55341,6.87752,4,0.121163,0.0311071,26,73.6029,0.0421537
0.437524,0.741651,-0.440152,4.48403,6.65304,6.81242,5,0.0296201,0.0076046,34,97.9515,0.0211918
0.366639,0.914755,-0.0438044,4.48406,6.65449,6.89016,6,0.0123929,0.00318173,43,82.7893,0.041839
0.482751,-0.862818,-0.0381782,4.42042,6.50485,6.95379,7,0.0293103,0.00752506,53,108.222,0.0447796
0.885016,0.398928,0.159807,4.53712,6.59156,6.87114,8,0.0322803,0.00828757,64,98.9487,0.0856933
-0.860639,-0.276905,0.281263,4.30999,6.54604,7.02432,9,0.103579,0.0265927,76,115.063,0.0282864
0.60047,0.752043,0.247872,4.5041,6.63913,6.90288,10,0.0175375,0.00450254,89,108.411,0.0846297
0.451772,-0.762665,0.386179,4.46245,6.50868,6.95118,11,0.100525,0.0258086,103,145.524,0.0900391
0.618826,0.182416,0.717865,4.4507,6.57255,6.99649,12,0.117261,0.0301054,18,73.3825,0.0255062
,,,,,,,,,25,79.0025,0.0291203
,,,,,,,,,33,32.3348,0.0212341
,,,,,,,,,42,58.1968,0.0141725
,,,,,,,,,52,95.7935,0.021154
,,,,,,,,,63,68.59,0.0218804
,,,,,,,,,75,135.543,0.0285381
,,,,,,,,,88,72.1246,0.0170288
,,,,,,,,,102,116.553,0.0284192
,,,,,,,,,117,107.816,0.0290044
,,,,,,,,,32,39.1516,0.0762241
,,,,,,,,,41,93.7563,0.0386504
,,,,,,,,,51,108.2,0.0202683
,,,,,,,,,62,103.834,0.0383857
,,,,,,,,,74,141.585,0.0408466
,,,,,,,,,87,62.8502,0.0723601
,,,,,,,,,101,131.916,0.0266646
,,,,,,,,,116,122.725,0.0716003
,,,,,,,,,132,172.847,0.0754345
,,,,,,,,,50,110.485,0.047603
,,,,,,,,,61,134.736,0.0224859
,,,,,,,,,73,64.6874,0.0472021
,,,,,,,,,86,133.181,0.0509788
,,,,,,,,,100,72.3076,0.111683
,,,,,,,,,115,150.538,0.0306401
,,,,,,,,,131,85.1253,0.109884
,,,,,,,,,148,147.761,0.11918
,,,,,,,,,72,25.9045,0.0174746
,,,,,,,,,85,115.497,0.0294644
,,,,,,,,,99,49.9076,0.0308931
,,,,,,,,,114,140.42,0.0460667
,,,,,,,,,130,42.2502,0.0220309
,,,,,,,,,147,125.122,0.0457576
,,,,,,,,,165,84.4623,0.0472938
,,,,,,,,,98,128.726,0.0174202
,,,,,,,,,113,45.3215,0.0179099
,,,,,,,,,129,128.479,0.0221372
,,,,,,,,,146,23.7595,0.0145231
,,,,,,,,,164,125.135,0.0220655
,,,,,,,,,183,67.6335,0.0224167
,,,,,,,,,128,85.4667,0.0307237
,,,,,,,,,145,101.533,0.0456912
,,,,,,,,,163,112.008,0.0219447
,,,,,,,,,182,25.7888,0.045387
,,,,,,,,,202,83.1475,0.0468981
,,,,,,,,,162,152.623,0.049221
,,,,,,,,,181,27.012,0.0227275
,,,,,,,,,201,80.4825,0.0488682
,,,,,,,,,222,39.2669,0.0506245
,,,,,,,,,200,134.143,0.0299962
,,,,,,,,,221,94.323,0.102029
,,,,,,,,,243,114.653,0.109996
,,,,,,,,,242,102.414,0.0298648
,,,,,,,,,265,44.2786,0.0305117
,,,,,,,,,288,63.4128,0.10825
