facetNormals:0,facetNormals:1,facetNormals:2,FacetCenters:0,FacetCenters:1,FacetCenters:2,FacetIds,relFacetSize,absFacetSize,cellPairingIds,interplanarAngles,angleWeights
-0.00053067,-0.330365,-0.896749,5.84898,6.46889,5.82199,1,0.0907545,0.0169116,8,53.7696,0.084095
-0.0048161,0.535313,-0.807379,5.86146,6.63872,5.84063,2,0.078346,0.0145994,13,55.2804,0.0908593
-0.750618,0.0165792,-0.582434,5.78537,6.55443,5.85422,3,0.0909642,0.0169507,19,73.2978,0.0727577
-0.737102,0.440504,-0.460244,5.78545,6.6165,5.86526,4,0.0607174,0.0113144,26,62.5981,0.0866553
0.543035,-0.763758,-0.187713,5.90077,6.41639,5.8897,5,0.0829103,0.0154499,34,91.7059,0.048109
0.633101,0.721692,-0.234892,5.90295,6.67741,5.92478,6,0.0327294,0.00609896,43,79.2932,0.117188
0.917749,0.108538,-0.229035,5.93962,6.56183,5.89214,7,0.165346,0.0308114,53,103.652,0.0322299
0.186294,0.949937,-0.10515,5.86822,6.70299,5.92284,8,0.0195942,0.00365128,64,122.36,0.0583332
0.628584,0.675601,0.305132,5.91643,6.65712,5.96813,9,0.0429792,0.00800895,76,102.001,0.0486785
-0.883084,-0.258663,0.311055,5.77195,6.45782,5.90502,10,0.0332588,0.00619761,89,106.325,0.0525453
0.876672,-0.198979,0.36323,5.93882,6.53825,5.97393,11,0.0369772,0.00689052,103,101.125,0.0397208
-0.445567,-0.732384,0.471239,5.82328,6.39447,5.93435,12,0.0254241,0.00473765,118,120.657,0.0354328
0.466513,-0.477059,0.701621,5.89884,6.45264,5.95383,13,0.0220138,0.00410215,18,58.3709,0.0841849
,,,,,,,,,25,49.6596,0.0684143
,,,,,,,,,33,106.303,0.0805636
,,,,,,,,,42,53.2451,0.0461708
,,,,,,,,,52,75.0075,0.106316
,,,,,,,,,63,51.087,0.0313483
,,,,,,,,,75,83.1516,0.0555078
,,,,,,,,,88,114.175,0.0466951
,,,,,,,,,102,115.476,0.0502417
,,,,,,,,,117,144.382,0.0383902
,,,,,,,,,133,151.474,0.0343701
,,,,,,,,,32,26.4802,0.072825
,,,,,,,,,41,110.022,0.0867507
,,,,,,,,,51,110.34,0.0481384
,,,,,,,,,62,127.734,0.117362
,,,,,,,,,74,93.8945,0.0322431
,,,,,,,,,87,133.723,0.0583764
,,,,,,,,,101,58.8532,0.0487086
,,,,,,,,,116,161.342,0.0525804
,,,,,,,,,132,87.0498,0.0397408
,,,,,,,,,149,146.445,0.0354488
,,,,,,,,,50,134.299,0.0700992
,,,,,,,,,61,92.4192,0.0425321
,,,,,,,,,73,124.339,0.0888192
,,,,,,,,,86,69.6741,0.0296273
,,,,,,,,,100,108.864,0.0503312
,,,,,,,,,115,65.4082,0.0429766
,,,,,,,,,131,162.524,0.0459628
,,,,,,,,,148,102.795,0.0358407
,,,,,,,,,166,158.376,0.0323123
,,,,,,,,,72,99.9557,0.0469321
,,,,,,,,,85,59.7466,0.110441
,,,,,,,,,99,130.518,0.0316974
,,,,,,,,,114,104.458,0.0566119
,,,,,,,,,130,111.509,0.0474739
,,,,,,,,,147,52.832,0.0511445
,,,,,,,,,165,75.8256,0.038915
,,,,,,,,,184,58.3204,0.0347903
,,,,,,,,,98,40.7237,0.0546427
,,,,,,,,,113,30.6183,0.0245131
,,,,,,,,,129,32.0882,0.0371605
,,,,,,,,,146,148.531,0.032992
,,,,,,,,,164,70.105,0.0347239
,,,,,,,,,183,162.349,0.0286179
,,,,,,,,,203,102.906,0.0263228
,,,,,,,,,128,71.2398,0.0350364
,,,,,,,,,145,51.1622,0.0682245
,,,,,,,,,163,169.65,0.0553785
,,,,,,,,,182,40.7084,0.0604383
,,,,,,,,,202,129.811,0.0440716
,,,,,,,,,223,76.4705,0.0388545
,,,,,,,,,162,39.8291,0.026917
,,,,,,,,,181,117.925,0.0246601
,,,,,,,,,201,93.8804,0.025615
,,,,,,,,,222,150.404,0.0221317
,,,,,,,,,244,117.823,0.0207336
,,,,,,,,,200,132.264,0.0374994
,,,,,,,,,221,55.9634,0.039753
,,,,,,,,,243,131.586,0.031949
,,,,,,,,,266,78.6609,0.029115
,,,,,,,,,242,130.346,0.0350196
,,,,,,,,,265,39.8509,0.0288185
,,,,,,,,,289,94.2885,0.0264924
,,,,,,,,,288,94.4576,0.0301312
,,,,,,,,,313,36.0768,0.0275977
,,,,,,,,,338,60.1001,0.0235963
