"cellPairingIds","interplanarAngles","angleWeights"
8,36.8591,0.0852751
13,62.4808,0.0270995
19,63.9358,0.034926
26,77.5298,0.154578
34,77.4254,0.0408318
18,55.0971,0.0227433
33,47.5913,0.0738714
63,78.3267,0.0287445
51,88.742,0.0176265
74,47.1345,0.0166768
50,122.633,0.032849
61,31.0643,0.020634
73,32.6431,0.0256338
115,68.4656,0.0227668
99,80.8381,0.0338619
130,98.9101,0.045954
147,66.845,0.153317
98,48.4665,0.0286782
113,118.916,0.0210291
129,68.1087,0.0199058
145,39.0777,0.0245196
163,36.2781,0.0329711
162,121.603,0.0187031
201,91.2089,0.0360041
200,25.7291,0.0218835
221,59.994,0.0328322
242,50.475,0.0499904
