Q	U	V
{$V$}	{[mm$^3$]}	0.00244851
{$d_v$}	{[mm]}	0.167225
{$S_c$}	{[mm$^2$]}	0.134024
{$S_o$}	{[mm$^2$]}	0.0824178
{$S_l/S_o$}	[]	0.626154
{$\Psi$}	[]	0.655495
{$\eta$}	[]	0.721968
{med($\theta_e$)}	{[$^\circ$]}	65.09605
{$\Upsilon$}	[]	13
{$\Xi$}	[]	10
