"cellPairingIds","interplanarAngles","angleWeights"
8,57.5691,0.0837278
13,71.8433,0.0610882
19,37.4372,0.119358
26,75.8382,0.0929955
34,47.2518,0.0187665
53,80.0151,0.111428
18,49.6179,0.0530996
25,54.1656,0.092243
75,87.836,0.062751
102,98.2378,0.0252019
117,87.5233,0.0223925
41,57.0364,0.0566821
116,95.0349,0.0226728
61,46.5811,0.019163
100,87.3586,0.0808361
115,66.4437,0.0773495
85,39.2838,0.0533389
99,72.265,0.0975902
147,114.779,0.0259813
113,42.3741,0.0189465
146,72.6787,0.0172901
128,40.6282,0.0589301
182,108.689,0.0221182
223,44.8369,0.0396659
181,85.4926,0.0739394
244,39.9693,0.0598462
200,34.6865,0.0554834
221,44.5452,0.0242664
243,23.5611,0.0216508
242,76.3474,0.0239424
289,78.5814,0.0459433
288,22.5178,0.0142998
313,83.8228,0.022246
