facetNormals:0,facetNormals:1,facetNormals:2,FacetCenters:0,FacetCenters:1,FacetCenters:2,FacetIds,relFacetSize,absFacetSize,cellPairingIds,interplanarAngles,angleWeights
-0.53884,-0.129925,-0.822693,4.19138,5.89814,9.31881,1,0.0228629,0.00318758,8,22.5879,0.0311326
-0.506849,0.253291,-0.793846,4.14664,5.95912,9.34835,2,0.0487749,0.00680029,13,67.7511,0.0188982
0.528762,-0.325659,-0.733763,4.29425,5.82879,9.30029,3,0.0161053,0.00224543,19,31.9809,0.0173702
-0.414634,-0.627734,-0.638522,4.15907,5.90742,9.34111,4,0.0140054,0.00195266,26,80.2959,0.0397016
0.422446,0.651929,-0.576233,4.22819,5.9492,9.34882,5,0.150676,0.0210075,34,47.7822,0.0293881
-0.77632,-0.56068,-0.194764,4.12635,5.92142,9.40191,6,0.0411258,0.00573384,43,96.2233,0.0253213
0.0135961,0.981581,-0.0355221,4.16536,6.04329,9.43192,7,0.0283721,0.00395569,53,103.823,0.0176636
0.384526,0.909625,-0.109263,4.20959,6.02083,9.43315,8,0.0143909,0.0020064,64,60.7515,0.0170101
-0.984648,-0.0657292,0.0723421,4.0837,5.95638,9.43851,9,0.0135431,0.0018882,76,131.376,0.0404302
0.897458,0.337592,0.130105,4.27097,5.91733,9.41785,10,0.174554,0.0243367,89,83.8529,0.0202542
-0.607338,-0.670745,0.377142,4.12006,5.91867,9.46796,11,0.0181798,0.00253466,103,102.476,0.0331564
-0.550234,0.614077,0.516912,4.11859,5.99741,9.47292,12,0.0603093,0.00840844,118,168.48,0.0258755
0.599754,0.282281,0.711661,4.24402,5.92903,9.50013,13,0.0298026,0.00415513,134,114.343,0.0183398
-0.210518,-0.625562,0.723382,4.1697,5.93087,9.49735,14,0.0153108,0.00213466,151,144.834,0.0197898
0.45053,-0.45001,0.733307,4.21482,5.92664,9.50867,15,0.017445,0.00243222,169,123.611,0.0367416
-0.381855,0.149751,0.866101,4.16513,5.9483,9.51133,16,0.0934995,0.0130359,18,75.6728,0.0242149
,,,,,,,,,25,54.56,0.021762
,,,,,,,,,33,64.3431,0.0736944
,,,,,,,,,42,64.7826,0.044625
,,,,,,,,,52,73.6355,0.0358756
,,,,,,,,,63,82.7532,0.0222245
,,,,,,,,,75,63.8721,0.0211998
,,,,,,,,,88,120.054,0.076245
,,,,,,,,,102,99.7221,0.0264871
,,,,,,,,,117,88.5463,0.0539323
,,,,,,,,,133,147.214,0.0369984
,,,,,,,,,150,130.953,0.0233058
,,,,,,,,,168,167.415,0.0256986
,,,,,,,,,187,119.207,0.0641075
,,,,,,,,,32,61.4241,0.0149821
,,,,,,,,,41,62.1823,0.0291001
,,,,,,,,,51,95.1907,0.0231463
,,,,,,,,,62,107.656,0.0205471
,,,,,,,,,74,90.7638,0.0151999
,,,,,,,,,87,125.498,0.0147135
,,,,,,,,,101,73.1815,0.0294897
,,,,,,,,,116,113.744,0.0170798
,,,,,,,,,132,158.471,0.0254218
,,,,,,,,,149,108.522,0.0209105
,,,,,,,,,167,117.756,0.015698
,,,,,,,,,186,99.4511,0.0167484
,,,,,,,,,206,164.152,0.0274776
,,,,,,,,,50,103.109,0.0256287
,,,,,,,,,61,34.129,0.020895
,,,,,,,,,73,128.178,0.0187535
,,,,,,,,,86,132.366,0.0141955
,,,,,,,,,100,65.6007,0.0137704
,,,,,,,,,115,134.321,0.0259303
,,,,,,,,,131,63.4706,0.0158219
,,,,,,,,,148,120.501,0.0227319
,,,,,,,,,166,156.533,0.0190558
,,,,,,,,,185,88.9279,0.0146291
,,,,,,,,,205,112.877,0.0155371
,,,,,,,,,226,121.118,0.0243617
,,,,,,,,,72,127.948,0.0646153
,,,,,,,,,85,45.4842,0.0477525
,,,,,,,,,99,31.6127,0.0262725
,,,,,,,,,114,121.531,0.0248524
,,,,,,,,,130,55.9348,0.161738
,,,,,,,,,147,163.94,0.032445
,,,,,,,,,165,97.9368,0.0861402
,,,,,,,,,184,88.3364,0.0497625
,,,,,,,,,204,164.702,0.027797
,,,,,,,,,225,124.024,0.0312697
,,,,,,,,,247,127.383,0.115393
,,,,,,,,,98,125.247,0.0335787
,,,,,,,,,113,144.173,0.021321
,,,,,,,,,129,35.5046,0.0203761
,,,,,,,,,146,164.528,0.0665679
,,,,,,,,,164,36.0925,0.0252138
,,,,,,,,,183,91.0736,0.0489036
,,,,,,,,,203,143.347,0.0345604
,,,,,,,,,224,67.0408,0.0223142
,,,,,,,,,246,104.664,0.0244982
,,,,,,,,,269,87.3196,0.0571251
,,,,,,,,,128,22.4607,0.0190959
,,,,,,,,,145,94.7492,0.0183344
,,,,,,,,,163,69.1087,0.0488105
,,,,,,,,,182,134.926,0.0221602
,,,,,,,,,202,52.8787,0.0385899
,,,,,,,,,223,74.2104,0.0290698
,,,,,,,,,245,131.915,0.0198888
,,,,,,,,,268,118.94,0.0216055
,,,,,,,,,292,83.2262,0.043534
,,,,,,,,,162,116.999,0.0139541
,,,,,,,,,181,48.4286,0.0265896
,,,,,,,,,201,155.296,0.016065
,,,,,,,,,222,72.5148,0.023237
,,,,,,,,,244,64.9181,0.0194095
,,,,,,,,,267,138.527,0.0148366
,,,,,,,,,291,109.129,0.0157715
,,,,,,,,,316,96.3462,0.0249427
,,,,,,,,,200,159.436,0.025136
,,,,,,,,,221,46.3628,0.0155226
,,,,,,,,,243,55.9746,0.0221191
,,,,,,,,,266,125.412,0.0186233
,,,,,,,,,290,71.9185,0.0143728
,,,,,,,,,315,112.064,0.0152484
,,,,,,,,,341,63.1144,0.0236592
,,,,,,,,,242,139.605,0.03293
,,,,,,,,,265,103.464,0.0896456
,,,,,,,,,289,39.5016,0.0509126
,,,,,,,,,314,108.84,0.0281523
,,,,,,,,,340,68.2776,0.0317199
,,,,,,,,,367,101.159,0.121772
,,,,,,,,,288,82.941,0.0279379
,,,,,,,,,313,107.406,0.0225835
,,,,,,,,,339,31.2978,0.0166224
,,,,,,,,,366,71.3296,0.0178048
,,,,,,,,,394,60.8141,0.0304408
,,,,,,,,,338,77.1057,0.039892
,,,,,,,,,365,83.637,0.0244217
,,,,,,,,,393,98.8362,0.0270621
,,,,,,,,,422,36.4906,0.0733234
,,,,,,,,,392,77.1405,0.0202291
,,,,,,,,,421,45.2434,0.0220078
,,,,,,,,,451,62.5506,0.0451984
,,,,,,,,,450,41.0584,0.0163084
,,,,,,,,,481,49.1966,0.0263128
,,,,,,,,,512,64.8399,0.0294039
