"cellPairingIds","interplanarAngles","angleWeights"
8,91.6189,0.0133481
13,82.4285,0.0130017
19,80.286,0.0201272
26,86.5175,0.02022
34,48.1967,0.0188255
53,68.4319,0.017394
33,38.223,0.028933
42,118.027,0.02616
52,75.3457,0.0253617
88,116.76,0.029621
133,85.2916,0.0265895
32,36.2631,0.0271835
62,52.7121,0.0241395
74,79.9914,0.0224246
87,77.049,0.0220895
132,68.5822,0.0133782
50,34.9479,0.107185
73,42.5491,0.0704392
85,49.5687,0.0715898
113,40.0808,0.0480762
146,51.2121,0.0835948
182,41.2116,0.0452378
202,64.1034,0.0191724
223,71.8945,0.0587724
162,35.1619,0.0386873
181,58.6425,0.0612223
200,57.6703,0.0587875
243,38.8096,0.0178562
265,79.8718,0.0215106
289,68.8482,0.0881439
288,30.3428,0.0180413
313,41.087,0.0492982
338,55.256,0.0198658
