facetNormals:0,facetNormals:1,facetNormals:2,FacetCenters:0,FacetCenters:1,FacetCenters:2,FacetIds,relFacetSize,absFacetSize,cellPairingIds,interplanarAngles,angleWeights
0.0752364,-0.0790975,-0.938138,4.83474,5.67031,5.46646,1,0.0937638,0.00846379,8,52.586,0.106914
-0.365781,0.583382,-0.663351,4.78983,5.76399,5.54005,2,0.124355,0.0112252,13,57.5701,0.0592716
-0.54213,-0.602753,-0.509638,4.79819,5.69918,5.50355,3,0.0433316,0.00391142,19,45.2369,0.0381322
0.250062,-0.721256,-0.61336,4.81966,5.61784,5.43727,4,0.0239326,0.00216032,26,79.4621,0.0185353
-0.803523,0.510512,-0.290756,4.78065,5.7306,5.50921,5,0.0102841,0.000928317,34,73.916,0.0353978
0.0491979,-0.964966,-0.189314,4.81748,5.70942,5.47423,6,0.0218171,0.00196937,43,68.9462,0.0360918
0.629161,-0.711207,-0.244177,4.82441,5.65426,5.43918,7,0.0223468,0.00201718,53,97.1199,0.0911864
-0.906891,-0.00670592,0.0411179,4.77203,5.73499,5.54633,8,0.0887469,0.00801093,64,87.8534,0.0188105
0.939985,0.287009,0.0141204,4.80591,5.73096,5.50136,9,0.0104539,0.000943641,76,88.9877,0.0896806
0.290708,0.906101,-0.0700534,4.84752,5.79252,5.55454,10,0.0859382,0.00775739,89,115.164,0.0285694
0.716353,-0.376739,0.495449,4.78826,5.73485,5.55344,11,0.0168521,0.00152119,103,138.374,0.0925967
-0.296902,0.652884,0.649101,4.79132,5.76927,5.56876,12,0.0914583,0.00825568,118,131.974,0.0469038
-0.227837,-0.630117,0.67545,4.83701,5.73241,5.5173,13,0.0312741,0.00282302,134,143.991,0.0628313
0.228942,0.555751,0.761686,4.81444,5.78578,5.57963,14,0.0472452,0.00426469,151,145.922,0.0231859
0.484393,0.0486342,0.855629,4.82896,5.76741,5.58761,15,0.0132285,0.0011941,169,165.983,0.0232292
0.0725357,-0.105513,0.982636,4.86022,5.77536,5.57868,16,0.0132567,0.00119664,18,78.3593,0.0642687
,,,,,,,,,25,96.4613,0.04014
,,,,,,,,,33,34.4707,0.0189972
,,,,,,,,,42,118.928,0.0371215
,,,,,,,,,52,121.018,0.0378855
,,,,,,,,,63,69.7428,0.103576
,,,,,,,,,75,101.4,0.0192864
,,,,,,,,,88,59.0829,0.101638
,,,,,,,,,102,153.283,0.0296818
,,,,,,,,,117,86.3487,0.105399
,,,,,,,,,133,143.614,0.0499789
,,,,,,,,,150,106.584,0.0684752
,,,,,,,,,168,139.563,0.0239133
,,,,,,,,,187,141.348,0.0239592
,,,,,,,,,32,49.2772,0.0308347
,,,,,,,,,41,73.1631,0.016623
,,,,,,,,,51,46.2941,0.0290219
,,,,,,,,,62,76.9473,0.0294868
,,,,,,,,,74,56.9003,0.0582312
,,,,,,,,,87,137.127,0.0168441
,,,,,,,,,101,136.984,0.0576134
,,,,,,,,,116,117.087,0.0242666
,,,,,,,,,132,127.46,0.0588031
,,,,,,,,,149,79.9435,0.0363285
,,,,,,,,,167,155.773,0.0452038
,,,,,,,,,186,140.557,0.0202692
,,,,,,,,,206,120.144,0.0203022
,,,,,,,,,50,113.636,0.0143863
,,,,,,,,,61,31.2356,0.0228259
,,,,,,,,,73,31.3367,0.0231125
,,,,,,,,,86,106.142,0.0376988
,,,,,,,,,100,88.8459,0.0145515
,,,,,,,,,115,125.145,0.0374389
,,,,,,,,,131,80.9004,0.0197777
,,,,,,,,,148,174.731,0.0379377
,,,,,,,,,166,91.0327,0.0271152
,,,,,,,,,185,148.574,0.0317711
,,,,,,,,,205,117.074,0.0170389
,,,,,,,,,226,121.6,0.0170623
,,,,,,,,,72,119.132,0.0139789
,,,,,,,,,85,144.815,0.0140858
,,,,,,,,,99,37.8731,0.0184323
,,,,,,,,,114,128.786,0.0103683
,,,,,,,,,130,74.7792,0.0183699
,,,,,,,,,147,164.899,0.0127732
,,,,,,,,,165,66.5523,0.0184892
,,,,,,,,,184,110.716,0.0154783
,,,,,,,,,204,97.2394,0.0168914
,,,,,,,,,225,128.737,0.011572
,,,,,,,,,247,113.788,0.0115827
,,,,,,,,,98,37.7321,0.0220788
,,,,,,,,,113,92.9454,0.035024
,,,,,,,,,129,103.955,0.0141349
,,,,,,,,,146,154.337,0.0347996
,,,,,,,,,164,70.9487,0.0190158
,,,,,,,,,183,143.691,0.0352301
,,,,,,,,,203,59.9588,0.0257033
,,,,,,,,,224,134.468,0.0298499
,,,,,,,,,246,101.008,0.0164704
,,,,,,,,,269,94.741,0.0164922
,,,,,,,,,128,130.312,0.0357034
,,,,,,,,,145,66.529,0.0142443
,,,,,,,,,163,118.363,0.0354702
,,,,,,,,,182,50.0324,0.0192143
,,,,,,,,,202,148.612,0.0359176
,,,,,,,,,223,81.3764,0.0260673
,,,,,,,,,245,117.36,0.030342
,,,,,,,,,268,86.3617,0.0166191
,,,,,,,,,292,97.0507,0.0166413
,,,,,,,,,162,163.099,0.0187045
,,,,,,,,,181,108.342,0.08732
,,,,,,,,,201,136.677,0.0283255
,,,,,,,,,222,70.6092,0.0900822
,,,,,,,,,244,73.9625,0.0462499
,,,,,,,,,267,101.793,0.0616634
,,,,,,,,,291,116.906,0.023025
,,,,,,,,,316,91.5714,0.0230676
,,,,,,,,,200,55.4176,0.0186403
,,,,,,,,,221,52.1593,0.0129034
,,,,,,,,,243,94.9797,0.0187631
,,,,,,,,,266,114.343,0.0156698
,,,,,,,,,290,66.1608,0.0171197
,,,,,,,,,315,60.1673,0.0116787
,,,,,,,,,341,86.953,0.0116896
,,,,,,,,,242,100.681,0.0281785
,,,,,,,,,265,60.1222,0.0886124
,,,,,,,,,289,138.939,0.0458593
,,,,,,,,,314,56.0703,0.0609711
,,,,,,,,,340,82.356,0.0229278
,,,,,,,,,367,98.7205,0.0229701
,,,,,,,,,288,98.5865,0.0284601
,,,,,,,,,313,63.076,0.0219022
,,,,,,,,,339,68.8646,0.0248429
,,,,,,,,,366,36.3319,0.0148221
,,,,,,,,,394,52.031,0.0148397
,,,,,,,,,338,84.0948,0.0466099
,,,,,,,,,365,32.7622,0.0623051
,,,,,,,,,393,62.2547,0.0231139
,,,,,,,,,422,55.1757,0.0231568
,,,,,,,,,392,83.0232,0.0376353
,,,,,,,,,421,62.1925,0.0185926
,,,,,,,,,451,40.8011,0.0186204
,,,,,,,,,450,34.238,0.0206696
,,,,,,,,,481,42.7163,0.020704
,,,,,,,,,512,26.794,0.0132426
