facetNormals:0,facetNormals:1,facetNormals:2,FacetCenters:0,FacetCenters:1,FacetCenters:2,FacetIds,relFacetSize,absFacetSize,cellPairingIds,interplanarAngles,angleWeights
0.109607,-0.486117,-0.845011,4.78184,4.72882,5.43647,1,0.0102917,0.000591243,8,60.6546,0.0186459
0.0445813,0.471694,-0.789364,4.75579,4.7847,5.43971,2,0.0990445,0.00568995,13,55.4452,0.0161885
0.754937,0.116185,-0.614391,4.78089,4.77347,5.44499,3,0.0379088,0.0021778,19,27.0987,0.0138249
0.544581,-0.361179,-0.748392,4.78088,4.76871,5.4423,4,0.0210523,0.00120942,26,41.4135,0.0150289
0.656408,-0.587276,-0.430589,4.80763,4.7599,5.48467,5,0.0278463,0.00159973,34,74.9773,0.0089286
-0.905976,-0.107848,-0.349472,4.73906,4.79051,5.46066,6,0.00788434,0.000452943,43,89.6242,0.0129086
-0.409172,0.757745,-0.496558,4.75084,4.79827,5.45864,7,0.0173102,0.000994444,53,100.078,0.0153834
-0.729819,0.607837,-0.245076,4.73732,4.802,5.47512,8,0.030446,0.00174908,64,96.4492,0.0190659
0.435003,0.816571,-0.287013,4.78646,4.80341,5.49563,9,0.129304,0.00742831,76,74.1005,0.0102811
-0.83344,-0.472977,-0.14422,4.75142,4.77235,5.47799,10,0.0102705,0.000590022,89,74.2702,0.016682
0.874918,-0.437595,0.056821,4.81411,4.76362,5.52067,11,0.0440055,0.00252805,103,75.2506,0.0132508
-0.442562,-0.849022,0.144814,4.77659,4.75206,5.50695,12,0.018598,0.00106843,118,121.537,0.0135949
-0.508174,0.850803,0.0470766,4.76964,4.79394,5.48623,13,0.0200206,0.00115015,134,124.384,0.0162443
0.455051,0.855632,0.218061,4.7868,4.81096,5.5396,14,0.0385288,0.00221342,151,113.122,0.0181574
0.790925,0.519061,0.250097,4.80561,4.79042,5.55011,15,0.0770294,0.00442522,169,134.75,0.0151135
0.0215613,0.952015,0.262436,4.82284,4.75211,5.51916,16,0.0284365,0.00163363,188,100.409,0.0138073
0.926197,0.0190223,0.314383,4.80175,4.77019,5.5464,17,0.0209706,0.00120473,208,147.108,0.015377
-0.464606,0.722309,0.486333,4.76213,4.80547,5.52468,18,0.0303965,0.00174623,229,153.85,0.0183497
0.0916822,0.784481,0.584615,4.79562,4.78969,5.55226,19,0.0845467,0.00485708,251,124.628,0.00704387
-0.494627,-0.338456,0.778903,4.77058,4.76727,5.51594,20,0.0053542,0.000307591,274,168.595,0.0131994
0.00718936,0.346998,0.915226,4.78815,4.75791,5.60576,21,0.0183969,0.00105687,298,135.915,0.00687311
0.31897,-0.108148,0.922677,4.77705,4.76707,5.58786,22,0.00515934,0.000296396,18,50.5493,0.0548312
,,,,,,,,,25,60.9128,0.0347239
,,,,,,,,,33,84.1407,0.0434708
,,,,,,,,,42,78.157,0.014606
,,,,,,,,,52,36.9736,0.0294699
,,,,,,,,,63,60.2851,0.046575
,,,,,,,,,75,44.9543,0.112169
,,,,,,,,,88,99.4455,0.018611
,,,,,,,,,102,103.608,0.0609367
,,,,,,,,,117,126.84,0.0313157
,,,,,,,,,133,68.0447,0.0333083
,,,,,,,,,150,74.0209,0.0554769
,,,,,,,,,168,84.7341,0.0866606
,,,,,,,,,187,74.5102,0.0441866
,,,,,,,,,207,102.693,0.0346127
,,,,,,,,,228,94.0325,0.046517
,,,,,,,,,250,95.5409,0.0912231
,,,,,,,,,273,151.683,0.0101592
,,,,,,,,,297,128.295,0.0310301
,,,,,,,,,322,147.791,0.00980777
,,,,,,,,,32,31.6614,0.027071
,,,,,,,,,41,43.9527,0.0321076
,,,,,,,,,51,120.201,0.0130537
,,,,,,,,,62,85.0418,0.0237675
,,,,,,,,,74,110.058,0.03377
,,,,,,,,,87,50.843,0.058629
,,,,,,,,,101,128.823,0.0161622
,,,,,,,,,116,53.2475,0.0407302
,,,,,,,,,132,123.342,0.0249537
,,,,,,,,,149,108.818,0.0262028
,,,,,,,,,167,71.4999,0.0382163
,,,,,,,,,186,58.3206,0.0508115
,,,,,,,,,206,92.0331,0.0324964
,,,,,,,,,227,57.993,0.0270034
,,,,,,,,,249,125.777,0.0337395
,,,,,,,,,272,101.912,0.0523466
,,,,,,,,,296,157.691,0.00938313
,,,,,,,,,321,122.573,0.0247721
,,,,,,,,,347,110.592,0.00908255
,,,,,,,,,50,23.7112,0.0239773
,,,,,,,,,61,101.461,0.0114722
,,,,,,,,,73,97.2646,0.0189987
,,,,,,,,,86,116.416,0.0248924
,,,,,,,,,100,80.6258,0.0362093
,,,,,,,,,115,100.479,0.0138057
,,,,,,,,,131,52.5502,0.0284798
,,,,,,,,,148,92.5462,0.0197492
,,,,,,,,,166,128.92,0.0205235
,,,,,,,,,185,103.144,0.0272274
,,,,,,,,,205,86.6933,0.0330673
,,,,,,,,,226,122.584,0.0241935
,,,,,,,,,248,74.3474,0.0210114
,,,,,,,,,271,153.54,0.0248758
,,,,,,,,,295,133.411,0.0337106
,,,,,,,,,320,138.388,0.00853716
,,,,,,,,,346,146.013,0.0196352
,,,,,,,,,373,119.312,0.00828761
,,,,,,,,,72,113.43,0.0122892
,,,,,,,,,85,120.851,0.0213491
,,,,,,,,,99,139.431,0.0290882
,,,,,,,,,114,94.2528,0.0458241
,,,,,,,,,130,102.597,0.0150062
,,,,,,,,,147,32.8764,0.0341088
,,,,,,,,,165,81.1685,0.0223014
,,,,,,,,,184,151.339,0.0232937
,,,,,,,,,204,107.799,0.0323279
,,,,,,,,,225,83.6174,0.0409053
,,,,,,,,,247,132.798,0.0281383
,,,,,,,,,270,61.2429,0.0239243
,,,,,,,,,294,165.927,0.0290656
,,,,,,,,,319,132.613,0.0418943
,,,,,,,,,345,118.604,0.00898147
,,,,,,,,,372,128.178,0.0221562
,,,,,,,,,400,97.4229,0.00870569
,,,,,,,,,98,61.5613,0.0108341
,,,,,,,,,113,44.6919,0.0125251
,,,,,,,,,129,113.796,0.0148624
,,,,,,,,,146,25.2302,0.00892059
,,,,,,,,,164,143.072,0.0133727
,,,,,,,,,183,62.1541,0.011074
,,,,,,,,,203,68.6952,0.0113133
,,,,,,,,,224,126.755,0.01309
,,,,,,,,,246,154.09,0.0143045
,,,,,,,,,269,102.807,0.0123457
,,,,,,,,,293,174.277,0.01146
,,,,,,,,,318,79.661,0.012521
,,,,,,,,,344,112.796,0.0144236
,,,,,,,,,371,77.2194,0.00637749
,,,,,,,,,399,112.358,0.0110381
,,,,,,,,,428,128.681,0.00623719
,,,,,,,,,128,25.3894,0.0220715
,,,,,,,,,145,52.7196,0.0305329
,,,,,,,,,163,86.7725,0.0128919
,,,,,,,,,182,137.467,0.0248466
,,,,,,,,,202,123.706,0.017931
,,,,,,,,,223,32.774,0.018567
,,,,,,,,,245,68.9995,0.023888
,,,,,,,,,268,93.2116,0.028268
,,,,,,,,,292,53.6312,0.0215203
,,,,,,,,,317,122.371,0.0189654
,,,,,,,,,343,59.6365,0.0220585
,,,,,,,,,370,74.1597,0.0287368
,,,,,,,,,398,116.823,0.00817866
,,,,,,,,,427,101.529,0.017837
,,,,,,,,,457,133.38,0.00794935
,,,,,,,,,162,74.7953,0.0492869
,,,,,,,,,181,67.9987,0.0153596
,,,,,,,,,201,162.85,0.035991
,,,,,,,,,222,103.924,0.0230909
,,,,,,,,,244,25.7574,0.0241565
,,,,,,,,,267,82.0634,0.0340138
,,,,,,,,,291,109.666,0.0436423
,,,,,,,,,316,59.0276,0.0294069
,,,,,,,,,342,140.593,0.0248352
,,,,,,,,,369,47.1066,0.0304212
,,,,,,,,,397,73.94,0.0447699
,,,,,,,,,426,92.118,0.00910687
,,,,,,,,,456,91.1117,0.0229352
,,,,,,,,,487,122.994,0.00882346
,,,,,,,,,200,138.896,0.0190294
,,,,,,,,,221,89.5801,0.0656638
,,,,,,,,,243,171.352,0.0325188
,,,,,,,,,266,61.3926,0.0346727
,,,,,,,,,290,29.9156,0.0593678
,,,,,,,,,315,42.7457,0.0965448
,,,,,,,,,341,41.9672,0.0466202
,,,,,,,,,368,69.7374,0.0360884
,,,,,,,,,396,74.9581,0.0492219
,,,,,,,,,425,57.4127,0.102242
,,,,,,,,,455,138.687,0.0102826
,,,,,,,,,486,88.562,0.0322109
,,,,,,,,,518,103.021,0.00992275
,,,,,,,,,242,123.956,0.016654
,,,,,,,,,265,36.9906,0.0132331
,,,,,,,,,289,89.1458,0.0135763
,,,,,,,,,314,147.892,0.0162178
,,,,,,,,,340,172.777,0.0181244
,,,,,,,,,367,121.919,0.0150906
,,,,,,,,,395,150.639,0.0137881
,,,,,,,,,424,91.471,0.0153533
,,,,,,,,,454,123.947,0.0183159
,,,,,,,,,485,61.1204,0.00703888
,,,,,,,,,517,108.572,0.0131819
,,,,,,,,,550,111.429,0.00686837
,,,,,,,,,288,90.4498,0.026146
,,,,,,,,,313,146.881,0.0275205
,,,,,,,,,339,87.8744,0.0410854
,,,,,,,,,366,60.0253,0.0560122
,,,,,,,,,394,113.298,0.034548
,,,,,,,,,423,31.2094,0.028405
,,,,,,,,,453,135.935,0.0359563
,,,,,,,,,484,103.81,0.0578834
,,,,,,,,,516,104.455,0.00954682
,,,,,,,,,549,95.5972,0.0259466
,,,,,,,,,583,66.8218,0.00923583
,,,,,,,,,338,120.71,0.0192831
,,,,,,,,,365,158.713,0.0250866
,,,,,,,,,393,142.776,0.029962
,,,,,,,,,422,144.617,0.0224883
,,,,,,,,,452,113.684,0.0197132
,,,,,,,,,483,110.661,0.0230766
,,,,,,,,,515,130.817,0.0304892
,,,,,,,,,548,49.4216,0.00831468
,,,,,,,,,582,100.041,0.0184969
,,,,,,,,,617,84.9167,0.00807779
,,,,,,,,,392,59.0399,0.0263494
,,,,,,,,,421,86.9613,0.031781
,,,,,,,,,451,34.1118,0.0234977
,,,,,,,,,482,116.937,0.0204846
,,,,,,,,,514,26.8627,0.0241408
,,,,,,,,,547,48.3134,0.0323748
,,,,,,,,,581,89.9962,0.00844887
,,,,,,,,,616,69.8419,0.0191744
,,,,,,,,,652,102.485,0.00820439
,,,,,,,,,450,27.9588,0.0513655
,,,,,,,,,481,26.0358,0.0327221
,,,,,,,,,513,58.6003,0.027159
,,,,,,,,,546,58.4722,0.0339829
,,,,,,,,,580,30.5704,0.0529347
,,,,,,,,,615,110.684,0.00940186
,,,,,,,,,651,59.0705,0.024903
,,,,,,,,,688,74.9218,0.00910009
,,,,,,,,,512,53.3591,0.0415385
,,,,,,,,,545,30.9422,0.0329664
,,,,,,,,,579,82.319,0.0435914
,,,,,,,,,614,49.3872,0.0806132
,,,,,,,,,650,112.762,0.0100124
,,,,,,,,,687,64.3445,0.0297005
,,,,,,,,,725,63.6303,0.00967093
,,,,,,,,,578,82.8314,0.0241395
,,,,,,,,,613,34.3095,0.0293838
,,,,,,,,,649,21.635,0.0425587
,,,,,,,,,686,97.6046,0.00901163
,,,,,,,,,724,53.8244,0.0223406
,,,,,,,,,763,81.3413,0.00873403
,,,,,,,,,648,105.848,0.0248187
,,,,,,,,,685,72.8396,0.0336058
,,,,,,,,,723,103.208,0.00853042
,,,,,,,,,762,71.6797,0.0195996
,,,,,,,,,802,52.6135,0.00828126
,,,,,,,,,722,33.5403,0.0447164
,,,,,,,,,761,67.9506,0.00910465
,,,,,,,,,801,44.2155,0.0229212
,,,,,,,,,842,76.7365,0.00882138
,,,,,,,,,800,81.3949,0.0100706
,,,,,,,,,841,32.8616,0.0302184
,,,,,,,,,883,59.9161,0.00972521
,,,,,,,,,882,52.0293,0.00829441
,,,,,,,,,925,51.7594,0.00525496
,,,,,,,,,968,32.6811,0.00805865
