facetNormals:0,facetNormals:1,facetNormals:2,FacetCenters:0,FacetCenters:1,FacetCenters:2,FacetIds,relFacetSize,absFacetSize,cellPairingIds,interplanarAngles,angleWeights
0.119565,0.547347,-0.805764,5.49969,7.85167,8.39791,1,0.0150055,0.00304907,8,78.4373,0.0265198
-0.332143,-0.571998,-0.667199,5.45131,7.76029,8.43588,2,0.113987,0.0231618,13,75.2766,0.0223019
-0.85489,-0.0623171,-0.472104,5.38928,7.81625,8.48699,3,0.0434105,0.00882089,19,83.1579,0.0194392
0.608406,-0.612511,-0.468305,5.53115,7.75079,8.45173,4,0.0275918,0.00560657,26,30.4057,0.0268047
-0.0346609,0.844562,-0.425531,5.46873,7.90064,8.49811,5,0.125449,0.0254909,34,51.8773,0.0236543
0.82087,0.273526,-0.413427,5.552,7.83416,8.48471,6,0.0558383,0.0113462,43,58.7939,0.0199178
-0.751387,0.516114,-0.385469,5.39118,7.87879,8.48798,7,0.0296116,0.006017,53,102.748,0.0160189
-0.846783,-0.4876,-0.18938,5.37448,7.78717,8.505,8,0.0171792,0.00349077,64,88.7717,0.0189117
0.922424,-0.32839,-0.111927,5.55696,7.79538,8.45732,9,0.0255676,0.00519526,76,125.402,0.0238028
-0.296903,-0.902071,0.0133117,5.42782,7.70813,8.54925,10,0.0575331,0.0116906,89,84.4686,0.011369
1.0017,0.0102123,0.0378863,5.55517,7.83163,8.49974,11,0.00915124,0.00185951,103,76.5663,0.020094
-0.691708,0.677612,0.0826664,5.40105,7.88088,8.57292,12,0.0304044,0.00617809,118,70.1444,0.0210472
0.733394,0.621591,0.129755,5.54386,7.86755,8.51038,13,0.0352333,0.00715931,134,63.3165,0.0178172
0.193058,0.958111,0.1395,5.46151,7.91034,8.54798,14,0.0219256,0.00445521,151,111.182,0.0254082
-0.899371,-0.00416775,0.278001,5.37324,7.81151,8.57163,15,0.0828327,0.0168314,169,128.584,0.0147649
0.244713,-0.950286,0.144182,5.50153,7.82988,8.56718,16,0.0145318,0.00295283,188,122.554,0.0260034
0.603424,-0.699681,0.239857,5.52586,7.74201,8.55183,17,0.097364,0.0197841,208,150.056,0.0109677
0.366501,-0.403589,0.815508,5.49223,7.76045,8.60642,18,0.00864218,0.00175607,229,146.918,0.017077
-0.104885,-0.0148622,0.960356,5.42915,7.76943,8.60275,19,0.019812,0.00402574,18,46.3513,0.0628756
,,,,,,,,,25,60.0457,0.044429
,,,,,,,,,33,102.185,0.119444
,,,,,,,,,42,99.7948,0.0749574
,,,,,,,,,52,76.8502,0.0470108
,,,,,,,,,63,42.7637,0.0298584
,,,,,,,,,75,92.7152,0.0417667
,,,,,,,,,88,47.2484,0.0764694
,,,,,,,,,102,112.725,0.0169423
,,,,,,,,,117,103.491,0.0480043
,,,,,,,,,133,138.796,0.0538283
,,,,,,,,,150,139.493,0.036777
,,,,,,,,,168,82.488,0.0959441
,,,,,,,,,187,66.8667,0.0257774
,,,,,,,,,207,87.4589,0.105022
,,,,,,,,,228,118.163,0.0160663
,,,,,,,,,250,131.158,0.0337567
,,,,,,,,,32,105.749,0.033739
,,,,,,,,,41,78.9247,0.064501
,,,,,,,,,51,123.917,0.0488463
,,,,,,,,,62,35.122,0.0352073
,,,,,,,,,74,29.9766,0.0246167
,,,,,,,,,87,137.874,0.0321813
,,,,,,,,,101,70.9243,0.0494839
,,,,,,,,,116,153.103,0.0151159
,,,,,,,,,132,57.5638,0.0357616
,,,,,,,,,149,139.977,0.0388968
,,,,,,,,,167,107.506,0.0291355
,,,,,,,,,186,46.1759,0.0569664
,,,,,,,,,206,102.983,0.0217745
,,,,,,,,,227,128.814,0.0600481
,,,,,,,,,249,134.529,0.0144147
,,,,,,,,,272,112.564,0.027207
,,,,,,,,,50,111.398,0.0452345
,,,,,,,,,61,56.086,0.0369334
,,,,,,,,,73,127.575,0.0285661
,,,,,,,,,86,97.5143,0.0211747
,,,,,,,,,100,32.6733,0.0265411
,,,,,,,,,115,66.9217,0.0372968
,,,,,,,,,131,53.5152,0.0137441
,,,,,,,,,148,156.391,0.0289299
,,,,,,,,,166,89.7171,0.0309478
,,,,,,,,,185,123.467,0.0244345
,,,,,,,,,205,136.876,0.0413949
,,,,,,,,,226,47.0748,0.0190373
,,,,,,,,,248,43.2067,0.0429984
,,,,,,,,,271,84.7428,0.0131619
,,,,,,,,,295,122.113,0.0230635
,,,,,,,,,72,65.3503,0.0772791
,,,,,,,,,85,48.0619,0.0479135
,,,,,,,,,99,108.692,0.0302201
,,,,,,,,,114,106.296,0.0424778
,,,,,,,,,130,147.403,0.0788872
,,,,,,,,,147,92.5505,0.0170581
,,,,,,,,,165,52.4044,0.048946
,,,,,,,,,184,61.0526,0.0550152
,,,,,,,,,204,37.3079,0.0373272
,,,,,,,,,225,95.84,0.0997811
,,,,,,,,,247,158.353,0.0260465
,,,,,,,,,270,142.212,0.109637
,,,,,,,,,294,138.998,0.0161704
,,,,,,,,,319,117.174,0.0342197
,,,,,,,,,98,109.465,0.0387002
,,,,,,,,,113,141.811,0.0262748
,,,,,,,,,129,40.9626,0.0350749
,,,,,,,,,146,122.994,0.056673
,,,,,,,,,164,32.6509,0.0157253
,,,,,,,,,183,116.556,0.039371
,,,,,,,,,203,39.4431,0.0432048
,,,,,,,,,224,67.4626,0.0314873
,,,,,,,,,246,161.158,0.0667081
,,,,,,,,,269,97.1669,0.0230618
,,,,,,,,,293,77.0724,0.0709733
,,,,,,,,,318,98.9718,0.0149678
,,,,,,,,,344,121.725,0.0292469
,,,,,,,,,128,62.32,0.0217438
,,,,,,,,,145,147.153,0.0274414
,,,,,,,,,163,105.273,0.0390993
,,,,,,,,,182,140.176,0.0139816
,,,,,,,,,202,29.4444,0.0300028
,,,,,,,,,223,106.972,0.0321788
,,,,,,,,,245,72.3872,0.0251955
,,,,,,,,,268,52.5551,0.0436271
,,,,,,,,,292,138.036,0.019496
,,,,,,,,,317,163.742,0.045412
,,,,,,,,,343,145.284,0.0133795
,,,,,,,,,370,108.224,0.0237403
,,,,,,,,,162,127.695,0.0205504
,,,,,,,,,181,43.2327,0.0264582
,,,,,,,,,201,149.575,0.0119414
,,,,,,,,,222,75.6541,0.021954
,,,,,,,,,244,169.276,0.0230968
,,,,,,,,,267,131.965,0.0192644
,,,,,,,,,291,40.6422,0.0284567
,,,,,,,,,316,76.5966,0.015745
,,,,,,,,,342,103.093,0.0292054
,,,,,,,,,369,105.931,0.0114995
,,,,,,,,,397,95.1194,0.0184019
,,,,,,,,,200,88.7223,0.0354024
,,,,,,,,,221,21.9393,0.0134783
,,,,,,,,,243,155.257,0.027777
,,,,,,,,,266,61.386,0.0296321
,,,,,,,,,290,98.9977,0.0236069
,,,,,,,,,315,157.864,0.0390743
,,,,,,,,,341,57.745,0.0185311
,,,,,,,,,368,36.1593,0.0404999
,,,,,,,,,396,66.8974,0.0129179
,,,,,,,,,425,102.085,0.0223248
,,,,,,,,,242,108.754,0.0157908
,,,,,,,,,265,116.011,0.0397842
,,,,,,,,,289,147.462,0.0437029
,,,,,,,,,314,168.776,0.031751
,,,,,,,,,340,72.1212,0.0679029
,,,,,,,,,367,33.3936,0.023203
,,,,,,,,,395,59.8623,0.0723274
,,,,,,,,,424,73.404,0.0150271
,,,,,,,,,454,86.418,0.0294743
,,,,,,,,,288,134.499,0.0140682
,,,,,,,,,313,39.914,0.0145289
,,,,,,,,,339,77.8411,0.0129129
,,,,,,,,,366,160.655,0.0164816
,,,,,,,,,394,75.9792,0.0112303
,,,,,,,,,423,50.6774,0.01673
,,,,,,,,,453,66.3868,0.00888943
,,,,,,,,,484,94.0751,0.0125196
,,,,,,,,,338,94.5855,0.0326412
,,,,,,,,,365,56.6676,0.0254781
,,,,,,,,,393,45.4091,0.0444815
,,,,,,,,,422,146.232,0.0196648
,,,,,,,,,452,159.99,0.0463385
,,,,,,,,,483,118.821,0.0134588
,,,,,,,,,515,81.3099,0.023991
,,,,,,,,,392,37.9487,0.0270303
,,,,,,,,,421,133.284,0.0494379
,,,,,,,,,451,114.076,0.0205768
,,,,,,,,,482,87.6014,0.0517425
,,,,,,,,,514,82.5286,0.0138799
,,,,,,,,,547,87.6489,0.0253625
,,,,,,,,,450,98.5917,0.0346732
,,,,,,,,,481,149.432,0.017479
,,,,,,,,,513,123.519,0.0357912
,,,,,,,,,546,102.049,0.0123977
,,,,,,,,,580,84.0137,0.0208153
,,,,,,,,,512,100.868,0.0247259
,,,,,,,,,545,121.769,0.0895125
,,,,,,,,,579,96.2934,0.0156514
,,,,,,,,,614,66.5894,0.031976
,,,,,,,,,578,26.5201,0.0252892
,,,,,,,,,613,52.6103,0.0108386
,,,,,,,,,649,82.3889,0.016766
,,,,,,,,,648,41.6996,0.0158753
,,,,,,,,,685,78.9066,0.0329244
,,,,,,,,,722,37.6174,0.0120347
