Q	U	V
{$V$}	{[mm$^3$]}	0.00193791
{$d_v$}	{[mm]}	0.154684
{$S_c$}	{[mm$^2$]}	0.176492
{$S_o$}	{[mm$^2$]}	0.0932275
{$S_l/S_o$}	[]	0.893132
{$\Psi$}	[]	0.425907
{$\eta$}	[]	0.473760
{med($\theta_e$)}	{[$^\circ$]}	64.2104
{$\Upsilon$}	[]	15
{$\Xi$}	[]	7
