"cellPairingIds","interplanarAngles","angleWeights"
8,31.5468,0.0566727
13,102.076,0.0178154
19,44.5778,0.0594615
34,100.154,0.00845183
64,75.684,0.0720047
18,106.776,0.019501
33,44.7928,0.0663336
75,65.6077,0.110665
41,135.672,0.0186702
51,54.4089,0.00658104
74,40.7299,0.0150812
101,116.856,0.0188873
61,67.1985,0.00887798
100,82.2736,0.121821
148,61.4828,0.0779464
114,33.3591,0.0883538
130,53.5431,0.0597318
147,40.4708,0.0289395
113,60.2239,0.00778246
183,56.4696,0.00874667
203,79.9461,0.00767513
224,83.0237,0.00496866
181,85.7719,0.0339122
244,50.3526,0.022398
221,35.197,0.0350682
243,82.1198,0.101013
290,72.7438,0.0103272
242,23.2853,0.0294645
289,55.6993,0.0319644
313,67.0968,0.0203674
339,58.9444,0.00832856
365,41.8762,0.00985682
392,28.3371,0.00851685
