Q	U	V
{$V$}	{[mm$^3$]}	0.00181442
{$d_v$}	{[mm]}	0.151326
{$S_c$}	{[mm$^2$]}	0.104891
{$S_o$}	{[mm$^2$]}	0.0677356
{$S_l/S_o$}	[]	0.548536
{$\Psi$}	[]	0.685864
{$\eta$}	[]	0.708618
{med($\theta_e$)}	{[$^\circ$]}	54.0321
{$\Upsilon$}	[]	19
{$\Xi$}	[]	6
