"cellPairingIds","interplanarAngles","angleWeights"
8,35.592,0.0185109
13,27.6431,0.0174084
19,47.3388,0.0176753
53,91.7223,0.0187287
103,117.068,0.0177105
134,120.791,0.0161952
18,29.8309,0.0579222
25,57.5582,0.0609862
33,44.8693,0.0472657
42,53.4926,0.0690221
41,47.343,0.0406862
74,70.754,0.0601095
61,66.7758,0.0586781
73,68.1248,0.0266861
100,55.4025,0.0640289
148,99.0575,0.0530823
72,61.6809,0.0458674
99,64.8658,0.0487122
130,39.6093,0.0430071
98,57.2913,0.0281186
146,58.093,0.0603023
164,48.8826,0.0792887
145,33.5991,0.0292916
182,55.0644,0.0302639
202,79.5943,0.0267665
292,77.2476,0.0273348
181,72.9578,0.0653172
244,78.4111,0.047876
267,50.698,0.047757
291,47.5326,0.0218964
243,57.3377,0.0644936
242,38.5457,0.0711128
289,35.2383,0.042354
313,29.3719,0.0509176
394,58.0779,0.0733574
365,44.0817,0.0416509
422,59.2667,0.0557123
421,50.8913,0.0185287
451,37.3411,0.0431401
450,27.627,0.0185109
481,47.7543,0.0430435
512,30.6287,0.0208496
