Q	U	V
{$V$}	{[mm$^3$]}	0.00513571
{$d_v$}	{[mm]}	0.214059
{$S_c$}	{[mm$^2$]}	0.241175
{$S_o$}	{[mm$^2$]}	0.138625
{$S_l/S_o$}	[]	0.739766
{$\Psi$}	[]	0.596878
{$\eta$}	[]	0.621545
{med($\theta_e$)}	{[$^\circ$]}	42.3693
{$\Upsilon$}	[]	14
{$\Xi$}	[]	8
