Q	U	V
{$V$}	{[mm$^3$]}	0.00826344
{$d_v$}	{[mm]}	0.250835
{$S_c$}	{[mm$^2$]}	0.346627
{$S_o$}	{[mm$^2$]}	0.213399
{$S_l/S_o$}	[]	0.624314
{$\Psi$}	[]	0.570246
{$\eta$}	[]	0.619265
{med($\theta_e$)}	{[$^\circ$]}	58.5208
{$\Upsilon$}	[]	14
{$\Xi$}	[]	9
