facetNormals:0,facetNormals:1,facetNormals:2,FacetCenters:0,FacetCenters:1,FacetCenters:2,FacetIds,relFacetSize,absFacetSize,cellPairingIds,interplanarAngles,angleWeights
-0.525338,-0.288919,-0.70655,3.8737,5.12952,9.68875,1,0.0236567,0.00275134,8,89.0222,0.0334229
0.572689,-0.776558,-0.130053,4.00369,5.07207,9.67479,2,0.0569223,0.00662022,13,63.8,0.0215904
0.00513639,-0.968745,-0.178025,3.94881,5.0532,9.69142,3,0.0198561,0.00230932,19,113.498,0.0236631
0.909474,-0.367475,-0.0129699,3.93721,5.15248,9.71545,4,0.0236694,0.00275282,26,146.272,0.0398855
0.805935,0.458265,0.265186,4.00789,5.17291,9.69352,5,0.127029,0.0147738,34,120.807,0.0276509
0.0320507,0.94742,0.246695,3.93547,5.21322,9.68563,6,0.0332679,0.00386914,43,91.8565,0.0331998
0.146663,-0.922893,0.31017,3.86792,5.03234,9.72204,7,0.0556486,0.00647208,53,90.5158,0.0347839
-0.79564,0.329775,0.468303,3.82451,5.13146,9.74015,8,0.0656745,0.00763812,64,108.698,0.0334886
0.136627,-0.747097,0.614734,3.92106,5.0613,9.73565,9,0.0573048,0.0066647,76,114.294,0.0259137
-0.459106,0.618933,0.622936,3.8566,5.16421,9.74238,10,0.0286467,0.00333169,89,147.257,0.0215839
0.176751,0.707167,0.676208,3.93938,5.1459,9.72099,11,0.0198451,0.00230804,103,128.774,0.0400972
0.157809,-0.419452,0.826119,3.89524,5.08476,9.75207,12,0.13145,0.015288,118,153.579,0.03845
0.135892,0.389327,0.860711,3.92217,5.16057,9.74864,13,0.102625,0.0119355,134,137.944,0.0300432
-0.0590842,0.0534007,0.964711,3.88374,5.12017,9.75461,14,0.0411532,0.00478622,18,35.7411,0.029442
,,,,,,,,,25,32.235,0.0334357
,,,,,,,,,33,85.6511,0.0786162
,,,,,,,,,42,141.799,0.0419931
,,,,,,,,,52,37.5193,0.0562783
,,,,,,,,,63,144.046,0.060986
,,,,,,,,,75,52.5504,0.0571129
,,,,,,,,,88,148.725,0.0381128
,,,,,,,,,102,123.612,0.0294299
,,,,,,,,,117,70.2864,0.0794431
,,,,,,,,,133,111.228,0.0732278
,,,,,,,,,150,102.3,0.04777
,,,,,,,,,32,67.9358,0.0215957
,,,,,,,,,41,120.847,0.0343439
,,,,,,,,,51,175.287,0.024869
,,,,,,,,,62,30.0357,0.0292688
,,,,,,,,,74,114.923,0.030493
,,,,,,,,,87,50.2809,0.0294929
,,,,,,,,,101,136.916,0.0234548
,,,,,,,,,116,145.236,0.0198506
,,,,,,,,,132,73.6832,0.0345008
,,,,,,,,,149,124.296,0.0332743
,,,,,,,,,167,103.574,0.0267875
,,,,,,,,,50,53.6164,0.0399036
,,,,,,,,,61,109.591,0.0276596
,,,,,,,,,73,60.9844,0.0332124
,,,,,,,,,86,152.219,0.0347976
,,,,,,,,,100,65.9373,0.0335013
,,,,,,,,,115,132.208,0.0259213
,,,,,,,,,131,96.3505,0.0215892
,,,,,,,,,148,71.8668,0.0401155
,,,,,,,,,166,91.8755,0.0384669
,,,,,,,,,185,95.1883,0.0300535
,,,,,,,,,72,56.2025,0.0527269
,,,,,,,,,85,103.552,0.077393
,,,,,,,,,99,112.773,0.0865844
,,,,,,,,,114,94.2141,0.0789802
,,,,,,,,,130,85.2684,0.0467505
,,,,,,,,,147,47.6536,0.0343274
,,,,,,,,,165,80.2141,0.129201
,,,,,,,,,184,55.8835,0.11353
,,,,,,,,,204,75.5653,0.0621664
,,,,,,,,,98,145.324,0.0416416
,,,,,,,,,113,65.2221,0.0441641
,,,,,,,,,129,125.206,0.0420968
,,,,,,,,,146,41.6434,0.0307848
,,,,,,,,,164,30.1151,0.0248604
,,,,,,,,,183,101.818,0.0530976
,,,,,,,,,203,51.2191,0.0502471
,,,,,,,,,224,72.4009,0.0367928
,,,,,,,,,128,106.601,0.0602473
,,,,,,,,,145,20.6574,0.0564646
,,,,,,,,,163,117.157,0.037823
,,,,,,,,,182,115.21,0.0292568
,,,,,,,,,202,43.9261,0.0781942
,,,,,,,,,223,94.4194,0.0721653
,,,,,,,,,245,75.3359,0.0473156
,,,,,,,,,162,94.0226,0.0612048
,,,,,,,,,181,27.5728,0.0398926
,,,,,,,,,201,65.1749,0.03048
,,,,,,,,,222,82.329,0.0875884
,,,,,,,,,244,63.0983,0.0800934
,,,,,,,,,267,57.0327,0.0505995
,,,,,,,,,200,98.4448,0.0381981
,,,,,,,,,221,95.2258,0.0294808
,,,,,,,,,243,23.4031,0.0798148
,,,,,,,,,266,74.0148,0.0735435
,,,,,,,,,290,54.8096,0.0479042
,,,,,,,,,242,37.8679,0.0234471
,,,,,,,,,265,78.6957,0.0470417
,,,,,,,,,289,40.9072,0.0447905
,,,,,,,,,314,46.4288,0.0337795
,,,,,,,,,288,71.927,0.0344841
,,,,,,,,,313,21.7527,0.0332588
,,,,,,,,,339,45.0749,0.0267775
,,,,,,,,,338,50.6127,0.115262
,,,,,,,,,365,32.7391,0.0626823
,,,,,,,,,392,24.1332,0.058748
