facetNormals:0,facetNormals:1,facetNormals:2,FacetCenters:0,FacetCenters:1,FacetCenters:2,FacetIds,relFacetSize,absFacetSize,cellPairingIds,interplanarAngles,angleWeights
0.357346,0.100205,-0.875742,5.12796,5.00537,9.60948,1,0.0656751,0.00652449,8,54.6101,0.0492971
-0.514868,-0.0448618,-0.830491,5.05141,4.97286,9.60158,2,0.0394573,0.00391988,13,48.5669,0.0651411
-0.124246,-0.516793,-0.80035,5.08452,4.93559,9.61969,3,0.0646157,0.00641924,19,54.2149,0.07269
-0.282722,0.66647,-0.662221,5.06889,5.04925,9.63038,4,0.0813825,0.00808494,26,40.6633,0.0523289
0.839447,-0.114213,-0.467843,5.1367,4.97295,9.63929,5,0.0434909,0.0043206,34,94.2558,0.0399154
-0.235127,-0.900499,-0.123314,5.07452,4.92268,9.67273,6,0.0286702,0.00284824,43,72.9522,0.0354841
-0.191151,0.92622,-0.286681,5.06596,5.08355,9.68106,7,0.0243092,0.00241499,53,88.2027,0.0253371
-0.847767,0.375867,-0.336528,5.02072,5.03635,9.66846,8,0.0156964,0.00155935,64,110.33,0.0924249
-0.946165,-0.1688,-0.0423827,5.02275,4.98367,9.68258,9,0.15594,0.0154918,76,91.0731,0.0757286
0.143036,0.931983,0.184548,5.10601,5.07142,9.73336,10,0.0894163,0.00888305,89,137.553,0.0763772
-0.681631,0.403147,0.533046,5.04251,5.04142,9.75188,11,0.0912462,0.00906484,103,170.664,0.019719
-0.448423,-0.226242,0.840278,5.05956,4.99057,9.76228,12,0.0116011,0.00115251,118,153.122,0.0337956
0.0613307,0.0289684,0.979899,5.09464,5.00325,9.77033,13,0.0227517,0.00226026,18,36.8695,0.0489956
,,,,,,,,,25,46.0871,0.0531469
,,,,,,,,,33,92.3333,0.041376
,,,,,,,,,42,73.3015,0.0332097
,,,,,,,,,52,72.2344,0.0300839
,,,,,,,,,63,43.575,0.0224586
,,,,,,,,,75,55.7278,0.062979
,,,,,,,,,88,106.614,0.0547532
,,,,,,,,,102,96.7545,0.0550915
,,,,,,,,,117,118.493,0.0179304
,,,,,,,,,133,151.789,0.0288614
,,,,,,,,,32,76.4594,0.0720363
,,,,,,,,,41,69.267,0.0519893
,,,,,,,,,51,48.8718,0.0397175
,,,,,,,,,62,103.737,0.0353277
,,,,,,,,,74,79.0263,0.0252573
,,,,,,,,,87,75.0329,0.0913707
,,,,,,,,,101,134.51,0.0750194
,,,,,,,,,116,126.868,0.0756559
,,,,,,,,,132,122.106,0.0196706
,,,,,,,,,149,148.758,0.0336537
,,,,,,,,,50,90.2193,0.0566878
,,,,,,,,,61,119.388,0.0424024
,,,,,,,,,73,27.3541,0.0374361
,,,,,,,,,86,42.5516,0.0263169
,,,,,,,,,100,78.8167,0.10695
,,,,,,,,,115,60.8977,0.0852104
,,,,,,,,,131,83.3538,0.0860325
,,,,,,,,,148,127.181,0.0203074
,,,,,,,,,166,132.167,0.0355616
,,,,,,,,,72,92.3236,0.0345586
,,,,,,,,,85,97.9408,0.0311866
,,,,,,,,,99,128.715,0.0230674
,,,,,,,,,114,144.202,0.0680132
,,,,,,,,,130,94.4851,0.0585189
,,,,,,,,,147,159.906,0.0589055
,,,,,,,,,165,141.72,0.0183164
,,,,,,,,,184,115.568,0.0298748
,,,,,,,,,98,144.335,0.0263102
,,,,,,,,,113,96.0513,0.0202863
,,,,,,,,,129,65.1401,0.0484353
,,,,,,,,,146,173.187,0.0434187
,,,,,,,,,164,107.433,0.0436311
,,,,,,,,,183,77.0764,0.0165183
,,,,,,,,,203,100.076,0.0253703
,,,,,,,,,128,51.5179,0.0190756
,,,,,,,,,145,87.7898,0.0420614
,,,,,,,,,163,34.4488,0.038226
,,,,,,,,,182,68.1646,0.0383906
,,,,,,,,,202,112.148,0.0157066
,,,,,,,,,223,105.893,0.0235046
,,,,,,,,,162,37.5009,0.0285218
,,,,,,,,,181,79.8561,0.0267049
,,,,,,,,,201,54.2657,0.0267851
,,,,,,,,,222,89.2676,0.0133416
,,,,,,,,,244,112.503,0.0185767
,,,,,,,,,200,108.97,0.11366
,,,,,,,,,221,52.8749,0.115127
,,,,,,,,,243,63.0479,0.0215957
,,,,,,,,,266,96.3461,0.0397097
,,,,,,,,,242,65.757,0.0903219
,,,,,,,,,265,97.3253,0.0205376
,,,,,,,,,289,76.7309,0.0362737
,,,,,,,,,288,44.865,0.0205851
,,,,,,,,,313,58.3366,0.0364218
,,,,,,,,,338,34.8267,0.0153667
