Q	U	V
{$V$}	{[mm$^3$]}	0.00834656
{$d_v$}	{[mm]}	0.251673
{$S_c$}	{[mm$^2$]}	0.279194
{$S_o$}	{[mm$^2$]}	0.196813
{$S_l/S_o$}	[]	0.418575
{$\Psi$}	[]	0.712716
{$\eta$}	[]	0.718311
{med($\theta_e$)}	{[$^\circ$]}	61.78365
{$\Upsilon$}	[]	12
{$\Xi$}	[]	11
