facetNormals:0,facetNormals:1,facetNormals:2,FacetCenters:0,FacetCenters:1,FacetCenters:2,FacetIds,relFacetSize,absFacetSize,cellPairingIds,interplanarAngles,angleWeights
-0.365681,-0.382766,-0.818721,3.83493,4.35047,5.98286,1,0.0471682,0.00353926,8,45.8934,0.0468311
0.396912,-0.36335,-0.820986,3.88496,4.34954,5.98131,2,0.0464988,0.00348903,13,68.2784,0.0572528
0.616625,0.0835034,-0.740856,3.8893,4.3613,5.9925,3,0.0728221,0.0054642,19,34.5459,0.0481972
-0.0720456,-0.800155,-0.547119,3.83698,4.30278,6.01253,4,0.0492721,0.00369713,26,80.7032,0.0366755
-0.00270888,0.806838,-0.565552,3.85139,4.33024,6.1302,5,0.0300016,0.00225117,34,75.8216,0.0702984
0.372518,-0.874489,-0.0349867,3.87861,4.31274,6.05703,6,0.137942,0.0103504,43,69.3419,0.0269573
-0.987489,-0.0788378,0.0609563,3.80749,4.32258,6.04587,7,0.0188713,0.00141601,53,59.0144,0.0485045
-0.738046,-0.580922,0.0252127,3.80776,4.32025,6.04352,8,0.0499187,0.00374565,64,134.377,0.0648349
0.862909,0.313486,0.263519,3.92197,4.3703,6.05756,9,0.10366,0.00777815,76,91.6338,0.0522839
-0.116557,-0.844587,0.480141,3.83768,4.32299,6.09197,10,0.0586443,0.00440037,89,104.738,0.0131475
-0.578281,-0.345619,0.718187,3.81415,4.3216,6.05303,11,0.00763827,0.000573137,103,114.541,0.0505158
-0.0310416,-0.58718,0.766002,3.85103,4.33333,6.10084,12,0.0543749,0.00408002,18,29.9816,0.0567568
,,,,,,,,,25,41.7969,0.0478453
,,,,,,,,,33,79.8726,0.0364714
,,,,,,,,,42,58.0329,0.0695522
,,,,,,,,,52,115.104,0.0268469
,,,,,,,,,63,96.3844,0.0481481
,,,,,,,,,75,89.2515,0.0641996
,,,,,,,,,88,97.9936,0.05187
,,,,,,,,,102,135.85,0.0131212
,,,,,,,,,117,116.831,0.0501293
,,,,,,,,,32,71.7761,0.0587759
,,,,,,,,,41,59.4399,0.0424956
,,,,,,,,,51,78.5552,0.0953219
,,,,,,,,,62,133.472,0.0299748
,,,,,,,,,74,125.067,0.0592335
,,,,,,,,,87,66.8682,0.0855469
,,,,,,,,,101,121.746,0.0649687
,,,,,,,,,116,164.377,0.0138263
,,,,,,,,,132,132.873,0.0622608
,,,,,,,,,50,110.537,0.0372946
,,,,,,,,,61,41.5379,0.0726087
,,,,,,,,,73,83.9978,0.0272903
,,,,,,,,,86,56.4897,0.0495933
,,,,,,,,,100,119.501,0.066795
,,,,,,,,,115,63.6931,0.0535512
,,,,,,,,,131,94.4776,0.0132262
,,,,,,,,,148,86.7644,0.0516979
,,,,,,,,,72,137.123,0.0492841
,,,,,,,,,85,95.5988,0.023169
,,,,,,,,,99,121.3,0.0374783
,,,,,,,,,114,83.8049,0.0465349
,,,,,,,,,130,171.161,0.0396955
,,,,,,,,,147,134.783,0.0121765
,,,,,,,,,165,162.389,0.0386679
,,,,,,,,,98,108.596,0.0332005
,,,,,,,,,113,74.9413,0.0733084
,,,,,,,,,129,87.5972,0.118369
,,,,,,,,,146,43.2087,0.0822998
,,,,,,,,,164,86.2234,0.014475
,,,,,,,,,183,58.8505,0.0780023
,,,,,,,,,128,33.665,0.0273886
,,,,,,,,,145,155.228,0.0319298
,,,,,,,,,163,77.4544,0.0285541
,,,,,,,,,182,48.9311,0.0108749
,,,,,,,,,202,82.5881,0.0280185
,,,,,,,,,162,154.844,0.0673867
,,,,,,,,,181,50.1783,0.0539308
,,,,,,,,,201,45.7435,0.0132492
,,,,,,,,,222,65.0084,0.0520516
,,,,,,,,,200,104.805,0.0749096
,,,,,,,,,221,116.393,0.0142281
,,,,,,,,,243,90.5592,0.0713325
,,,,,,,,,242,43.0474,0.0135161
,,,,,,,,,265,23.3768,0.0564289
,,,,,,,,,288,35.8221,0.0133949
