Q	U	V
{$V$}	{[mm$^3$]}	0.0154178
{$d_v$}	{[mm]}	0.308798
{$S_c$}	{[mm$^2$]}	0.571182
{$S_o$}	{[mm$^2$]}	0.373824
{$S_l/S_o$}	[]	0.527944
{$\Psi$}	[]	0.524475
{$\eta$}	[]	0.577683
{med($\theta_e$)}	{[$^\circ$]}	72.7036
{$\Upsilon$}	[]	10
{$\Xi$}	[]	23
