facetNormals:0,facetNormals:1,facetNormals:2,FacetCenters:0,FacetCenters:1,FacetCenters:2,FacetIds,relFacetSize,absFacetSize,cellPairingIds,interplanarAngles,angleWeights
-0.712584,0.199822,-0.564119,6.21502,7.78649,7.24007,1,0.0550825,0.0171928,8,66.2419,0.063852
-0.220033,-0.705495,-0.607896,6.2466,7.68539,7.24438,2,0.0759426,0.0237038,13,37.8376,0.0314402
-0.555742,0.738637,-0.304034,6.23068,7.80277,7.26314,3,0.0219982,0.00686624,19,110.147,0.0805182
0.829382,0.339305,-0.375446,6.3588,7.77435,7.28416,4,0.1496,0.0466942,26,121.213,0.0587561
0.622163,-0.687469,-0.215645,6.35475,7.65896,7.33292,5,0.0629548,0.01965,34,78.6351,0.0702421
-0.481581,-0.833938,-0.000107733,6.22565,7.66001,7.41738,6,0.0969145,0.0302497,43,111.904,0.0569144
0.633966,0.750747,0.0713822,6.33049,7.79217,7.39631,7,0.0588723,0.0183757,53,147.762,0.0754234
0.400411,-0.613572,0.585247,6.3075,7.68109,7.49274,8,0.119583,0.0373253,64,114.539,0.0206113
-0.257105,-0.434875,0.845486,6.16693,7.73795,7.55073,9,0.0126776,0.00395703,18,103.287,0.0341145
,,,,,,,,,25,102.021,0.100744
,,,,,,,,,33,58.2606,0.0688415
,,,,,,,,,42,41.1042,0.0851563
,,,,,,,,,52,139.096,0.0663267
,,,,,,,,,63,90.7024,0.0928927
,,,,,,,,,75,99.1944,0.021728
,,,,,,,,,32,95.8372,0.0383562
,,,,,,,,,41,148.285,0.0326037
,,,,,,,,,51,111.821,0.0358573
,,,,,,,,,62,79.1472,0.0320286
,,,,,,,,,74,159.319,0.0371604
,,,,,,,,,87,117.019,0.0160852
,,,,,,,,,50,66.8431,0.0886174
,,,,,,,,,61,136.826,0.117627
,,,,,,,,,73,38.0538,0.0844936
,,,,,,,,,86,96.0373,0.132918
,,,,,,,,,100,135.134,0.0233743
,,,,,,,,,72,72.6282,0.0763278
,,,,,,,,,85,98.4045,0.0608451
,,,,,,,,,99,52.3938,0.0824852
,,,,,,,,,114,92.6484,0.0211051
,,,,,,,,,98,169.021,0.0732485
,,,,,,,,,113,69.3277,0.107062
,,,,,,,,,129,59.1492,0.0224221
,,,,,,,,,128,100.289,0.0789008
,,,,,,,,,145,116.247,0.0208626
,,,,,,,,,162,44.5039,0.0229248
