Q	U	V
{$V$}	{[mm$^3$]}	0.0159533
{$d_v$}	{[mm]}	0.312333
{$S_c$}	{[mm$^2$]}	0.486528
{$S_o$}	{[mm$^2$]}	0.35782
{$S_l/S_o$}	[]	0.359700
{$\Psi$}	[]	0.629907
{$\eta$}	[]	0.669963
{med($\theta_e$)}	{[$^\circ$]}	68.8944
{$\Upsilon$}	[]	12
{$\Xi$}	[]	12
