facetNormals:0,facetNormals:1,facetNormals:2,FacetCenters:0,FacetCenters:1,FacetCenters:2,FacetIds,relFacetSize,absFacetSize,cellPairingIds,interplanarAngles,angleWeights
0.694813,-0.393941,-0.586065,6.59591,6.88331,9.01252,1,0.0307841,0.00870221,8,32.4311,0.0435942
0.749261,0.147687,-0.574038,6.62731,6.93139,9.02516,2,0.074664,0.0211064,13,20.5802,0.0278245
0.526025,-0.686261,-0.480499,6.56752,6.85711,9.00748,3,0.0253841,0.0071757,19,55.8462,0.0410396
-0.0531376,-0.879969,-0.384064,6.51838,6.82631,9.06362,4,0.061542,0.017397,26,111.084,0.0307637
-0.823693,0.130352,-0.479259,6.4698,6.8874,8.99071,5,0.0307433,0.00869066,34,106.345,0.0290435
-0.41694,0.724089,-0.514296,6.52643,6.94997,8.98478,6,0.0274891,0.00777076,43,130.478,0.0231521
-0.671341,0.699431,-0.183359,6.51375,6.91946,8.9759,7,0.0185526,0.00524454,53,47.615,0.0483988
0.503116,-0.813466,0.0517662,6.55859,6.85531,9.08466,8,0.113134,0.0319814,64,105.86,0.0387441
-0.756839,-0.605,-0.0425565,6.45526,6.83605,9.12552,9,0.0522564,0.0147721,76,120.551,0.0291532
-0.105659,0.964863,0.0618511,6.58059,6.9614,9.04758,10,0.0276864,0.00782652,89,99.5894,0.0339217
-0.40545,-0.815931,0.341792,6.46399,6.8414,9.11032,11,0.0377715,0.0106774,103,104.289,0.031754
0.396217,0.837788,0.314967,6.6072,6.98249,9.09587,12,0.0327871,0.00926841,118,62.5872,0.0215638
0.804315,-0.374789,0.436039,6.60348,6.88083,9.13622,13,0.0165937,0.0046908,134,152.292,0.0410407
-0.779038,-0.0586875,0.521952,6.5756,6.88736,9.06004,14,0.0615467,0.0173983,151,90.2983,0.0343103
0.688609,0.318574,0.610818,6.61584,6.93094,9.15715,15,0.0387488,0.0109537,169,90.9953,0.0376111
0.489394,-0.262971,0.785211,6.54405,6.87286,9.1996,16,0.048329,0.0136619,188,126.709,0.0450527
0.145487,0.605365,0.752132,6.55535,6.92158,9.18667,17,0.0839761,0.0237388,18,53.0111,0.0378873
,,,,,,,,,25,86.8368,0.0674709
,,,,,,,,,33,110.566,0.0435533
,,,,,,,,,42,84.5045,0.0401838
,,,,,,,,,52,108.203,0.0297202
,,,,,,,,,63,75.6305,0.0899589
,,,,,,,,,75,133.006,0.0614822
,,,,,,,,,88,88.2839,0.0403941
,,,,,,,,,102,131.869,0.0501652
,,,,,,,,,117,75.1415,0.0455652
,,,,,,,,,133,71.6744,0.0271529
,,,,,,,,,150,173.576,0.0674738
,,,,,,,,,168,76.8084,0.0510196
,,,,,,,,,187,97.6854,0.0586771
,,,,,,,,,207,104.486,0.0790467
,,,,,,,,,32,36.9201,0.0359429
,,,,,,,,,41,107.901,0.0278078
,,,,,,,,,51,118.904,0.0263947
,,,,,,,,,62,139.759,0.0214372
,,,,,,,,,74,32.626,0.0414647
,,,,,,,,,87,87.7587,0.0341698
,,,,,,,,,101,140.976,0.0264853
,,,,,,,,,116,79.0753,0.0303629
,,,,,,,,,132,122.333,0.0286145
,,,,,,,,,149,61.2262,0.0200685
,,,,,,,,,167,131.868,0.0359437
,,,,,,,,,186,98.9498,0.0306739
,,,,,,,,,206,86.348,0.0332855
,,,,,,,,,227,136.474,0.0389841
,,,,,,,,,50,82.9744,0.0410033
,,,,,,,,,61,116.264,0.0380032
,,,,,,,,,73,122.471,0.0285104
,,,,,,,,,86,43.4033,0.079719
,,,,,,,,,100,50.8398,0.0565203
,,,,,,,,,115,158.006,0.0381913
,,,,,,,,,131,49.4558,0.046812
,,,,,,,,,148,159.091,0.0427817
,,,,,,,,,166,82.7734,0.0261394
,,,,,,,,,185,96.8286,0.0615443
,,,,,,,,,205,126.074,0.0475553
,,,,,,,,,226,95.968,0.054141
,,,,,,,,,248,152.04,0.0710297
,,,,,,,,,72,43.5217,0.0290253
,,,,,,,,,85,39.5253,0.0231406
,,,,,,,,,99,126.286,0.0483483
,,,,,,,,,114,52.7285,0.0387118
,,,,,,,,,130,78.7091,0.0291349
,,,,,,,,,147,86.0914,0.0338969
,,,,,,,,,165,113.016,0.0317323
,,,,,,,,,184,165.417,0.0215538
,,,,,,,,,204,64.8628,0.0410044
,,,,,,,,,225,150.874,0.0342849
,,,,,,,,,247,151.583,0.0375806
,,,,,,,,,270,115.303,0.045009
,,,,,,,,,98,24.5349,0.0221536
,,,,,,,,,113,151.434,0.0442311
,,,,,,,,,129,96.0705,0.0360267
,,,,,,,,,146,41.8439,0.0275874
,,,,,,,,,164,128.745,0.0318203
,,,,,,,,,183,73.0832,0.0299053
,,,,,,,,,203,148.941,0.020695
,,,,,,,,,224,89.1374,0.0380041
,,,,,,,,,246,112.815,0.0321619
,,,,,,,,,269,147.766,0.035045
,,,,,,,,,293,90.5467,0.0414197
,,,,,,,,,128,165.796,0.0318776
,,,,,,,,,145,84.4383,0.0273833
,,,,,,,,,163,40.0629,0.0222174
,,,,,,,,,182,112.096,0.0248831
,,,,,,,,,202,74.2453,0.0236965
,,,,,,,,,223,154.715,0.0175186
,,,,,,,,,245,65.377,0.0285109
,,,,,,,,,268,111.451,0.0250915
,,,,,,,,,292,133.764,0.0268124
,,,,,,,,,317,78.757,0.030391
,,,,,,,,,162,83.2517,0.0714912
,,,,,,,,,181,153.651,0.0444861
,,,,,,,,,201,59.1894,0.0566347
,,,,,,,,,222,119.794,0.0508403
,,,,,,,,,244,39.3718,0.0289424
,,,,,,,,,267,110.636,0.079723
,,,,,,,,,291,82.6773,0.0577262
,,,,,,,,,316,57.076,0.0677265
,,,,,,,,,342,113.994,0.0963986
,,,,,,,,,200,122.47,0.0361956
,,,,,,,,,221,33.6167,0.0438487
,,,,,,,,,243,149.76,0.0402931
,,,,,,,,,266,114.69,0.0251889
,,,,,,,,,290,48.5767,0.0565223
,,,,,,,,,315,141.556,0.0445001
,,,,,,,,,341,105.207,0.050216
,,,,,,,,,368,122.468,0.0644235
,,,,,,,,,242,139.836,0.031952
,,,,,,,,,265,34.3507,0.0300216
,,,,,,,,,289,115.874,0.0207506
,,,,,,,,,314,86.3628,0.0381922
,,,,,,,,,340,73.2894,0.0322966
,,,,,,,,,367,105.937,0.0352048
,,,,,,,,,395,49.6187,0.0416432
,,,,,,,,,288,140.651,0.0351032
,,,,,,,,,313,82.311,0.0230578
,,,,,,,,,339,53.6327,0.0468134
,,,,,,,,,366,110.397,0.0382539
,,,,,,,,,394,72.304,0.042403
,,,,,,,,,423,108.142,0.0521062
,,,,,,,,,338,81.5608,0.0220353
,,,,,,,,,365,102.142,0.0427829
,,,,,,,,,393,39.8347,0.0355195
,,,,,,,,,422,76.43,0.0390691
,,,,,,,,,452,32.9795,0.0471609
,,,,,,,,,392,113.944,0.0261398
,,,,,,,,,421,43.3062,0.0232366
,,,,,,,,,451,28.6505,0.024705
,,,,,,,,,482,76.943,0.0277116
,,,,,,,,,450,104.965,0.0475567
,,,,,,,,,481,87.2081,0.0541428
,,,,,,,,,513,74.5939,0.0710329
,,,,,,,,,512,38.5387,0.0430119
,,,,,,,,,545,37.704,0.0530287
,,,,,,,,,578,57.6465,0.0613503
