facetNormals:0,facetNormals:1,facetNormals:2,FacetCenters:0,FacetCenters:1,FacetCenters:2,FacetIds,relFacetSize,absFacetSize,cellPairingIds,interplanarAngles,angleWeights
-0.11026,-0.304118,-0.894739,4.54823,4.61846,6.09784,1,0.0310038,0.00786265,8,56.8565,0.0354775
-0.515348,0.482496,-0.663899,4.52495,4.6382,6.12056,2,0.0414598,0.0105143,13,78.8275,0.0522834
0.863,0.163804,-0.357419,4.59872,4.65297,6.14428,3,0.166694,0.042274,19,84.206,0.0211124
-0.578145,0.74818,-0.2892,4.49198,4.70271,6.13118,4,0.0160059,0.00405914,26,113.572,0.0224114
0.243041,0.951072,0.0651244,4.5324,4.68017,6.18557,5,0.0175482,0.00445025,34,121.639,0.0484212
0.784894,-0.126428,0.458031,4.58402,4.59758,6.24031,6,0.110495,0.0280219,43,114.196,0.0384137
-0.680644,0.618681,0.294521,4.51937,4.71607,6.19926,7,0.0504777,0.0128013,53,147.158,0.0482707
-0.114839,0.695723,0.611588,4.53024,4.69204,6.24674,8,0.108945,0.0276287,64,163.12,0.0490445
0.045146,0.0366017,0.920245,4.49364,4.5783,6.33452,9,0.117299,0.0297473,18,98.0324,0.0664038
,,,,,,,,,25,27.3708,0.0230956
,,,,,,,,,33,72.266,0.0246591
,,,,,,,,,42,149.941,0.0602956
,,,,,,,,,52,61.0011,0.0455265
,,,,,,,,,63,90.7073,0.0600624
,,,,,,,,,75,133.629,0.0612651
,,,,,,,,,32,106.928,0.0292073
,,,,,,,,,41,68.4787,0.0317536
,,,,,,,,,51,55.4916,0.132898
,,,,,,,,,62,130.211,0.0774902
,,,,,,,,,74,103.307,0.13177
,,,,,,,,,87,108.949,0.137701
,,,,,,,,,50,55.41,0.0167416
,,,,,,,,,61,138.631,0.0279614
,,,,,,,,,73,36.1384,0.024305
,,,,,,,,,86,63.622,0.0279112
,,,,,,,,,100,106.888,0.0281682
,,,,,,,,,72,83.6171,0.0302864
,,,,,,,,,85,62.2663,0.0260428
,,,,,,,,,99,42.8157,0.0302275
,,,,,,,,,114,83.3078,0.0305291
,,,,,,,,,98,122.61,0.069298
,,,,,,,,,113,83.1577,0.109715
,,,,,,,,,129,57.6812,0.113796
,,,,,,,,,128,40.1842,0.0689901
,,,,,,,,,145,72.8266,0.0705817
,,,,,,,,,162,47.3532,0.112968
