Q	U	V
{$V$}	{[mm$^3$]}	0.0177001
{$d_v$}	{[mm]}	0.323340
{$S_c$}	{[mm$^2$]}	0.810084
{$S_o$}	{[mm$^2$]}	0.453395
{$S_l/S_o$}	[]	0.786707
{$\Psi$}	[]	0.405451
{$\eta$}	[]	0.442506
{med($\theta_e$)}	{[$^\circ$]}	70.8117
{$\Upsilon$}	[]	11
{$\Xi$}	[]	19
