Q	U	V
{$V$}	{[mm$^3$]}	0.00370246
{$d_v$}	{[mm]}	0.191939
{$S_c$}	{[mm$^2$]}	0.177261
{$S_o$}	{[mm$^2$]}	0.112853
{$S_l/S_o$}	[]	0.570725
{$\Psi$}	[]	0.652927
{$\eta$}	[]	0.699178
{med($\theta_e$)}	{[$^\circ$]}	58.2325
{$\Upsilon$}	[]	12
{$\Xi$}	[]	4
