Q	U	V
{$V$}	{[mm$^3$]}	0.00348634
{$d_v$}	{[mm]}	0.188130
{$S_c$}	{[mm$^2$]}	0.273296
{$S_o$}	{[mm$^2$]}	0.148333
{$S_l/S_o$}	[]	0.842449
{$\Psi$}	[]	0.406847
{$\eta$}	[]	0.419713
{med($\theta_e$)}	{[$^\circ$]}	
{$\Upsilon$}	[]	13
{$\Xi$}	[]	7
