"cellPairingIds","interplanarAngles","angleWeights"
8,30.408,0.0528559
19,30.8805,0.0519248
26,38.0698,0.0441267
43,56.7226,0.0509631
76,95.774,0.00606434
103,68.8149,0.0770023
33,33.6165,0.044602
75,74.5553,0.0131063
88,87.7535,0.00607323
73,49.7056,0.0507106
86,48.5826,0.0585412
115,70.5662,0.00606074
114,96.0462,0.0124935
165,43.9751,0.060651
128,43.6238,0.0573216
202,72.5652,0.0743618
223,37.7906,0.0275119
181,60.4758,0.00614545
201,27.2087,0.0693665
244,68.5327,0.0296647
200,51.9809,0.00449887
243,126.468,0.0142114
290,34.3202,0.00859437
242,50.9797,0.00616028
314,59.9987,0.00488488
340,124.626,0.00632007
313,76.7893,0.0300132
366,85.9358,0.100802
338,57.3527,0.0336559
365,129.44,0.0189389
393,70.3409,0.158371
421,48.5217,0.0342297
450,91.103,0.0191193
