"cellPairingIds","interplanarAngles","angleWeights"
13,64.3267,0.0271789
26,103.768,0.0276056
34,110.645,0.0316304
43,86.4636,0.00970562
76,99.7802,0.0215442
89,80.0363,0.0118031
134,109.843,0.0360285
51,93.9849,0.0456096
62,28.4151,0.0107132
132,106.99,0.0493507
72,38.5805,0.0468241
114,27.229,0.0439878
130,68.9727,0.0276568
165,61.959,0.0507757
183,45.7467,0.0662907
202,94.1658,0.0115603
245,54.9311,0.0118616
292,58.0561,0.0111212
200,50.8411,0.030372
243,52.8502,0.0607455
315,37.9409,0.0593306
242,49.9016,0.0118125
289,25.3304,0.0211312
314,92.3038,0.0361159
340,46.8944,0.0330266
339,57.5352,0.0151525
393,48.391,0.072382
422,57.9446,0.0593885
452,53.2605,0.0613637
392,74.6658,0.034888
421,26.8282,0.0319969
482,39.2448,0.0296439
481,32.5651,0.0683017
513,50.3783,0.0709274
545,30.3338,0.0599203
578,36.6648,0.0507318
