"cellPairingIds","interplanarAngles","angleWeights"
8,92.3198,0.0622069
19,113.375,0.0537937
26,52.7615,0.0432264
43,58.8685,0.0740693
25,117.884,0.0761951
52,70.1126,0.124447
75,88.2085,0.0871005
50,91.1128,0.0495471
86,54.229,0.0937879
100,121.032,0.0714532
85,79.2728,0.0662508
99,47.14,0.06576
128,118.45,0.179415
145,62.9297,0.112278
162,91.5997,0.110875
