Q	U	V
{$V$}	{[mm$^3$]}	0.0115634
{$d_v$}	{[mm]}	0.280562
{$S_c$}	{[mm$^2$]}	0.516671
{$S_o$}	{[mm$^2$]}	0.305451
{$S_l/S_o$}	[]	0.691502
{$\Psi$}	[]	0.478623
{$\eta$}	[]	0.515431
{med($\theta_e$)}	{[$^\circ$]}	71.8449
{$\Upsilon$}	[]	11
{$\Xi$}	[]	11
