facetNormals:0,facetNormals:1,facetNormals:2,FacetCenters:0,FacetCenters:1,FacetCenters:2,FacetIds,relFacetSize,absFacetSize,cellPairingIds,interplanarAngles,angleWeights
-0.0753079,0.257816,-0.887019,3.46784,3.96086,9.22153,1,0.0995759,0.0164318,8,46.8572,0.0644347
0.0823574,-0.486123,-0.850968,3.44799,3.90662,9.22219,2,0.0476268,0.00785929,13,48.9685,0.0868132
0.561155,-0.177366,-0.756743,3.49231,3.92421,9.23608,3,0.0769505,0.0126982,19,44.8437,0.106784
-0.66477,-0.103952,-0.685218,3.38593,3.9262,9.23598,4,0.115117,0.0189965,26,63.4635,0.0417407
-0.313187,-0.686244,-0.632351,3.40226,3.91381,9.25926,5,0.0264046,0.00435724,34,78.273,0.0261454
-0.605882,-0.696009,-0.361308,3.43735,3.94944,9.28118,6,0.0150483,0.00248324,43,75.4866,0.0116275
0.928302,0.0257202,-0.329338,3.38765,4.00862,9.3068,7,0.00617424,0.00101886,53,58.5418,0.0297344
0.670936,0.582338,-0.424621,3.47949,3.99532,9.22423,8,0.0174765,0.00288395,64,95.4612,0.0826118
-0.0728908,-0.9249,-0.168865,3.42999,3.85143,9.28131,9,0.0705865,0.0116481,76,88.0699,0.0388436
-0.848866,-0.495846,-0.106849,3.42996,3.93817,9.3295,10,0.0241278,0.00398153,89,111.516,0.0453856
-0.6551,-0.691632,0.230156,3.41025,3.85981,9.30603,11,0.0293908,0.00485002,103,99.7564,0.102373
0.479763,0.741171,0.342358,3.46074,3.98989,9.28544,12,0.105333,0.0173818,118,95.8245,0.046285
-0.171039,0.888402,0.37665,3.43565,3.98225,9.31848,13,0.0301496,0.00497524,134,119.949,0.0817275
-0.406989,0.535167,0.694189,3.38718,3.96216,9.32742,14,0.0693051,0.0114366,151,158.893,0.054681
-0.249575,-0.366925,0.844032,3.39429,3.8979,9.35117,15,0.0376887,0.00621932,18,34.5646,0.0588374
,,,,,,,,,25,52.1996,0.0673778
,,,,,,,,,33,29.0941,0.0339738
,,,,,,,,,42,52.3076,0.0228704
,,,,,,,,,52,69.1945,0.0109314
,,,,,,,,,63,82.0758,0.0255702
,,,,,,,,,75,50.7088,0.056877
,,,,,,,,,88,74.368,0.0320295
,,,,,,,,,102,84.8565,0.0363499
,,,,,,,,,117,131.092,0.0655946
,,,,,,,,,133,142.68,0.0369245
,,,,,,,,,150,158.516,0.0564564
,,,,,,,,,168,126.697,0.0420789
,,,,,,,,,32,79.7429,0.0922418
,,,,,,,,,41,63.2653,0.0393177
,,,,,,,,,51,86.568,0.0251737
,,,,,,,,,62,35.8555,0.0114313
,,,,,,,,,74,50.9617,0.028484
,,,,,,,,,87,73.8846,0.0736312
,,,,,,,,,101,108.93,0.0367368
,,,,,,,,,116,116.493,0.0425355
,,,,,,,,,132,97.6798,0.088932
,,,,,,,,,149,124.979,0.0433245
,,,,,,,,,167,156.348,0.0729279
,,,,,,,,,186,141.326,0.0505964
,,,,,,,,,50,41.0535,0.0429562
,,,,,,,,,61,40.5898,0.0266171
,,,,,,,,,73,114.614,0.0117199
,,,,,,,,,86,103.179,0.0303461
,,,,,,,,,100,73.2951,0.0875128
,,,,,,,,,115,43.4814,0.0398941
,,,,,,,,,131,68.1896,0.0468263
,,,,,,,,,148,133.899,0.110008
,,,,,,,,,166,104.569,0.0477843
,,,,,,,,,185,106.317,0.0865211
,,,,,,,,,205,114.125,0.056786
,,,,,,,,,72,23.3061,0.0191709
,,,,,,,,,85,95.9255,0.0100082
,,,,,,,,,99,110.614,0.0210323
,,,,,,,,,114,34.5714,0.0384325
,,,,,,,,,130,46.201,0.0252149
,,,,,,,,,147,56.3704,0.0278178
,,,,,,,,,165,159.907,0.0422244
,,,,,,,,,184,145.426,0.0281531
,,,,,,,,,204,135.524,0.03824
,,,,,,,,,225,102.538,0.0310533
,,,,,,,,,98,118.195,0.00875596
,,,,,,,,,113,132.433,0.0161718
,,,,,,,,,129,36.7367,0.0248078
,,,,,,,,,146,23.5948,0.0185359
,,,,,,,,,164,35.0446,0.0199051
,,,,,,,,,183,172.428,0.0263343
,,,,,,,,,203,132.076,0.0200762
,,,,,,,,,224,113.163,0.0247275
,,,,,,,,,246,83.8255,0.0215086
,,,,,,,,,128,36.7245,0.0091248
,,,,,,,,,145,92.2105,0.0113552
,,,,,,,,,163,141.787,0.0098324
,,,,,,,,,182,136.608,0.0102047
,,,,,,,,,202,67.8577,0.0116647
,,,,,,,,,223,105.618,0.0102495
,,,,,,,,,245,128.492,0.0113384
,,,,,,,,,268,123.536,0.0106103
,,,,,,,,,162,123.745,0.0280165
,,,,,,,,,181,146.602,0.0202705
,,,,,,,,,201,166.931,0.0219193
,,,,,,,,,222,49.2926,0.029979
,,,,,,,,,244,75.4354,0.022127
,,,,,,,,,267,105.618,0.027914
,,,,,,,,,291,141.961,0.0238798
,,,,,,,,,200,54.725,0.0359629
,,,,,,,,,221,45.4302,0.0415013
,,,,,,,,,243,150.641,0.0845282
,,,,,,,,,266,160.816,0.0422521
,,,,,,,,,290,129.733,0.0699399
,,,,,,,,,315,76.1649,0.0491398
,,,,,,,,,242,25.5383,0.0265005
,,,,,,,,,265,150.048,0.0392621
,,,,,,,,,289,110.26,0.0268047
,,,,,,,,,314,89.6435,0.0357943
,,,,,,,,,340,71.2176,0.0294208
,,,,,,,,,288,143.718,0.045958
,,,,,,,,,313,115.648,0.0297654
,,,,,,,,,339,86.595,0.041277
,,,,,,,,,366,49.1286,0.0330265
,,,,,,,,,338,40.5293,0.0468805
,,,,,,,,,365,61.3299,0.0836027
,,,,,,,,,393,96.5325,0.0555141
,,,,,,,,,392,31.6142,0.0420196
,,,,,,,,,421,87.8773,0.0335002
,,,,,,,,,450,57.7958,0.0488256
