facetNormals:0,facetNormals:1,facetNormals:2,FacetCenters:0,FacetCenters:1,FacetCenters:2,FacetIds,relFacetSize,absFacetSize,cellPairingIds,interplanarAngles,angleWeights
-0.195957,0.470726,-0.836477,3.87255,6.85198,8.58981,1,0.0127496,0.00456205,8,66.714,0.0179548
0.368289,-0.446923,-0.792045,4.05124,6.69822,8.58177,2,0.0303429,0.0108573,13,71.398,0.0228028
-0.0633145,-0.637654,-0.697985,3.97784,6.66699,8.59791,3,0.107823,0.038581,19,58.6926,0.0197911
0.657635,0.0786787,-0.693269,4.08674,6.76754,8.56255,4,0.0442058,0.0158177,26,111.238,0.016415
-0.104793,-0.962615,-0.104005,3.97475,6.63244,8.65019,5,0.0230383,0.00824356,34,128.938,0.017391
-0.316997,-0.876553,0.302214,3.90692,6.63463,8.68573,6,0.0273462,0.009785,43,98.7037,0.0223336
-0.836754,-0.391951,0.141105,3.81955,6.74349,8.63959,7,0.0899515,0.0321864,53,87.4709,0.0233121
0.149956,0.859301,0.398873,3.99252,6.8391,8.65314,8,0.1359,0.0486276,64,151.264,0.0189659
0.568137,-0.572101,0.543445,4.08364,6.65455,8.69431,9,0.0370116,0.0132435,76,101.722,0.0167807
-0.273031,0.667864,0.674873,3.86293,6.83898,8.68169,10,0.0245396,0.00878076,89,144.605,0.0210784
0.576251,-0.0203535,0.778247,4.07081,6.73027,8.72485,11,0.0607905,0.021752,103,125.388,0.0230751
-0.482396,0.0805004,0.786376,3.92588,6.73309,8.66785,12,0.121368,0.0434277,18,28.8244,0.0473584
,,,,,,,,,25,36.5097,0.0359854
,,,,,,,,,33,60.261,0.0261908
,,,,,,,,,42,87.8757,0.0287667
,,,,,,,,,52,105.478,0.0453785
,,,,,,,,,63,133.242,0.0496093
,,,,,,,,,75,87.9281,0.0333471
,,,,,,,,,88,164.383,0.0271344
,,,,,,,,,102,114.565,0.0404804
,,,,,,,,,117,157.015,0.0485483
,,,,,,,,,32,64.432,0.0627039
,,,,,,,,,41,41.3183,0.0379647
,,,,,,,,,51,66.6448,0.0436275
,,,,,,,,,62,76.6553,0.0980796
,,,,,,,,,74,156.881,0.120244
,,,,,,,,,87,93.1413,0.055107
,,,,,,,,,101,159.997,0.0399801
,,,,,,,,,116,128.134,0.0777471
,,,,,,,,,132,130.483,0.114195
,,,,,,,,,50,94.4562,0.0302904
,,,,,,,,,61,121.218,0.0337897
,,,,,,,,,73,139.251,0.0592794
,,,,,,,,,86,96.8886,0.0667116
,,,,,,,,,100,92.9599,0.0402901
,,,,,,,,,115,128.903,0.0315597
,,,,,,,,,131,100.057,0.0511883
,,,,,,,,,148,164.614,0.064807
,,,,,,,,,72,27.6148,0.0250081
,,,,,,,,,85,60.3511,0.0366817
,,,,,,,,,99,161.221,0.0393977
,,,,,,,,,114,62.676,0.0283992
,,,,,,,,,130,135.35,0.0237653
,,,,,,,,,147,97.4151,0.0334136
,,,,,,,,,165,96.9243,0.0387256
,,,,,,,,,98,44.6617,0.0419416
,,,,,,,,,113,136.364,0.0455305
,,,,,,,,,129,59.3566,0.0314531
,,,,,,,,,146,107.736,0.025867
,,,,,,,,,164,85.748,0.0377229
,,,,,,,,,183,69.3501,0.0446352
,,,,,,,,,128,116.927,0.108252
,,,,,,,,,145,101.068,0.0524444
,,,,,,,,,163,86.1554,0.0385598
,,,,,,,,,182,113.734,0.0725504
,,,,,,,,,202,56.0781,0.103324
,,,,,,,,,162,101.733,0.0581786
,,,,,,,,,181,32.167,0.0415724
,,,,,,,,,201,65.9002,0.0840043
,,,,,,,,,222,69.5389,0.128223
,,,,,,,,,200,100.221,0.029512
,,,,,,,,,221,35.994,0.0460104
,,,,,,,,,243,83.1604,0.0567248
,,,,,,,,,242,68.2693,0.0349648
,,,,,,,,,265,38.4825,0.0408248
,,,,,,,,,288,68.2499,0.0810065
