"cellPairingIds","interplanarAngles","angleWeights"
8,71.2454,0.0454059
13,48.0819,0.0422573
19,53.3658,0.0402906
26,22.8115,0.0256597
43,106.044,0.0242582
25,35.4479,0.0677662
42,34.169,0.0374761
52,98.5805,0.0320923
88,58.9196,0.0848072
41,49.2583,0.0327336
62,80.8803,0.0304867
116,40.4046,0.0292325
132,56.6384,0.061108
50,55.6026,0.031541
86,44.6254,0.0690209
100,34.7679,0.0206433
115,78.3267,0.0685515
99,32.2667,0.0349157
147,40.7945,0.0201956
98,79.6534,0.0217944
146,32.6711,0.037715
203,59.4407,0.0260488
202,62.8815,0.0294785
223,69.9969,0.0233286
317,75.0782,0.0235196
162,29.9135,0.0220373
201,50.9195,0.0309605
267,49.4201,0.0780857
200,77.1434,0.0219893
290,54.5746,0.0213858
315,61.113,0.0145799
289,37.4719,0.0425582
340,46.6612,0.028791
288,63.2494,0.0283042
339,48.8959,0.0296897
365,80.8274,0.0631408
422,67.6605,0.0663661
452,56.6691,0.038342
421,51.088,0.0214556
451,71.4548,0.041648
482,37.6364,0.0285519
450,55.247,0.0277652
481,31.112,0.0745202
512,41.6726,0.0283715
578,44.4698,0.0422607
