facetNormals:0,facetNormals:1,facetNormals:2,FacetCenters:0,FacetCenters:1,FacetCenters:2,FacetIds,relFacetSize,absFacetSize,cellPairingIds,interplanarAngles,angleWeights
0.229689,0.46899,-0.823057,6.44812,6.8942,6.44377,1,0.0292901,0.00660302,8,73.6403,0.0420247
-0.159004,-0.624672,-0.723573,6.43573,6.73165,6.50476,2,0.0743502,0.0167611,13,54.8316,0.0449304
0.537219,-0.359136,-0.709192,6.46928,6.80775,6.50132,3,0.0964129,0.0217349,19,88.3272,0.0193208
0.527797,-0.76948,-0.325333,6.50715,6.72528,6.54825,4,0.0144146,0.00324956,26,53.981,0.0492622
0.891429,0.2763,-0.270497,6.51451,6.85175,6.52252,5,0.15485,0.0349086,34,56.9999,0.0339539
-0.303644,0.896443,-0.197583,6.41832,6.87654,6.51102,6,0.040384,0.00910397,43,98.2684,0.0395022
-0.91036,-0.0960569,-0.150779,6.40463,6.84642,6.48296,7,0.0606471,0.013672,53,125.775,0.0420244
0.0450091,-0.939565,0.135121,6.4703,6.68177,6.59057,8,0.0743485,0.0167608,64,93.2117,0.0355495
0.925718,-0.0396009,0.300403,6.528,6.76265,6.61439,9,0.0452114,0.0101922,76,92.5534,0.0343558
-0.202224,0.819444,0.461244,6.45358,6.92259,6.56149,10,0.0415402,0.00936461,89,79.1455,0.0183694
0.52571,0.751207,0.355444,6.50365,6.86389,6.6252,11,0.0133805,0.00301643,103,125.708,0.0294981
-0.794611,0.161059,0.545488,6.42465,6.87866,6.54852,12,0.0297091,0.00669748,118,146.188,0.0267046
-0.723787,-0.390427,0.547916,6.40339,6.86555,6.5043,13,0.0245385,0.00553184,134,102.613,0.0245215
0.438186,0.547719,0.688575,6.49578,6.86136,6.62427,14,0.0210882,0.00475403,18,45.4651,0.0839563
,,,,,,,,,25,48.6892,0.0241476
,,,,,,,,,33,97.2367,0.100463
,,,,,,,,,42,113.176,0.0523394
,,,,,,,,,52,69.5676,0.0668032
,,,,,,,,,63,58.4393,0.0743494
,,,,,,,,,75,111.101,0.05623
,,,,,,,,,88,150.781,0.0533007
,,,,,,,,,102,148.216,0.0226795
,,,,,,,,,117,112.932,0.0424542
,,,,,,,,,133,92.2434,0.0368989
,,,,,,,,,150,162.83,0.0328571
,,,,,,,,,32,33.5002,0.0250796
,,,,,,,,,41,52.1921,0.118836
,,,,,,,,,51,111.829,0.0569244
,,,,,,,,,62,112.988,0.0744577
,,,,,,,,,74,73.0518,0.0839552
,,,,,,,,,87,71.3734,0.0615567
,,,,,,,,,101,142.287,0.0580634
,,,,,,,,,116,104.701,0.0234996
,,,,,,,,,132,158.376,0.0454218
,,,,,,,,,149,132.227,0.0391203
,,,,,,,,,167,118.475,0.034607
,,,,,,,,,50,68.886,0.0263741
,,,,,,,,,61,145.327,0.0212458
,,,,,,,,,73,112.953,0.023293
,,,,,,,,,86,41.5506,0.0241475
,,,,,,,,,100,64.0408,0.0218598
,,,,,,,,,115,158.999,0.0214025
,,,,,,,,,131,115.36,0.0138783
,,,,,,,,,148,138.282,0.0194111
,,,,,,,,,166,105.432,0.018161
,,,,,,,,,185,115.242,0.0171242
,,,,,,,,,72,88.1423,0.0640612
,,,,,,,,,85,152.18,0.0871584
,,,,,,,,,99,106.098,0.100462
,,,,,,,,,114,39.2421,0.0699883
,,,,,,,,,130,94.8256,0.0655073
,,,,,,,,,147,52.6238,0.0246325
,,,,,,,,,165,148.708,0.0498535
,,,,,,,,,184,159.826,0.0423638
,,,,,,,,,204,68.1352,0.0371211
,,,,,,,,,98,75.7959,0.0484835
,,,,,,,,,113,163.866,0.052339
,,,,,,,,,129,113.527,0.0426616
,,,,,,,,,146,40.7181,0.0409539
,,,,,,,,,164,62.1922,0.0201009
,,,,,,,,,183,72.8959,0.0342337
,,,,,,,,,203,104.454,0.0305276
,,,,,,,,,224,76.4977,0.0277077
,,,,,,,,,128,88.1213,0.0668025
,,,,,,,,,145,168.094,0.0518038
,,,,,,,,,163,87.6983,0.0493073
,,,,,,,,,182,131.484,0.0219239
,,,,,,,,,202,46.3596,0.0398815
,,,,,,,,,223,47.971,0.0349399
,,,,,,,,,245,127.517,0.0312947
,,,,,,,,,162,82.5846,0.0562295
,,,,,,,,,181,141.638,0.0533003
,,,,,,,,,201,132.732,0.0226794
,,,,,,,,,222,97.0132,0.042454
,,,,,,,,,244,64.2287,0.0368987
,,,,,,,,,267,115.481,0.0328569
,,,,,,,,,200,94.9656,0.0432981
,,,,,,,,,221,53.9499,0.0206496
,,,,,,,,,243,127.398,0.0358564
,,,,,,,,,266,120.6,0.0318114
,,,,,,,,,290,51.897,0.0287612
,,,,,,,,,242,44.6223,0.0202411
,,,,,,,,,265,54.6145,0.0346424
,,,,,,,,,289,85.2228,0.0308521
,,,,,,,,,314,44.1966,0.0279748
,,,,,,,,,288,96.1445,0.018451
,,,,,,,,,313,119.535,0.0173178
,,,,,,,,,339,23.4782,0.0163726
,,,,,,,,,338,32.8615,0.0268774
,,,,,,,,,365,83.0853,0.0246672
,,,,,,,,,392,99.1057,0.0226829
