"cellPairingIds","interplanarAngles","angleWeights"
13,44.7945,0.0228678
19,66.4099,0.0222685
26,62.0226,0.0185177
34,68.8096,0.0227934
43,86.0943,0.020425
89,125.524,0.0139627
32,50.2086,0.0810115
62,44.4873,0.0609866
61,63.1575,0.0800854
73,75.0926,0.0569022
86,34.1231,0.0669606
100,58.6854,0.090754
72,40.3446,0.046334
147,124.605,0.0202718
165,76.8256,0.0433264
204,91.1679,0.0340789
225,108.049,0.0317402
113,41.4388,0.0719428
183,57.3188,0.0772161
145,47.5926,0.0663486
163,44.5486,0.0530171
182,66.5411,0.02258
162,69.7457,0.0804372
222,54.4587,0.0649429
244,53.4153,0.0503245
200,44.9107,0.0812569
266,42.152,0.0626736
242,36.9892,0.0240838
289,66.1969,0.0506441
340,55.1561,0.0421979
366,42.2861,0.0203571
338,44.3222,0.0528492
365,25.9324,0.0482814
392,44.7113,0.0397065
421,65.6478,0.0365672
450,37.9095,0.0343205
