Q	U	V
{$V$}	{[mm$^3$]}	0.00994724
{$d_v$}	{[mm]}	0.266830
{$S_c$}	{[mm$^2$]}	0.511765
{$S_o$}	{[mm$^2$]}	0.293812
{$S_l/S_o$}	[]	0.741811
{$\Psi$}	[]	0.437068
{$\eta$}	[]	0.469759
{med($\theta_e$)}	{[$^\circ$]}	91.45805
{$\Upsilon$}	[]	13
{$\Xi$}	[]	13
