facetNormals:0,facetNormals:1,facetNormals:2,FacetCenters:0,FacetCenters:1,FacetCenters:2,FacetIds,relFacetSize,absFacetSize,cellPairingIds,interplanarAngles,angleWeights
-0.213516,0.198048,-0.886495,4.38572,4.21944,8.04962,1,0.132108,0.00988583,8,62.3285,0.161543
0.718018,0.323725,-0.578236,4.47978,4.222,8.07267,2,0.207857,0.0155543,13,63.7507,0.119656
-0.372382,-0.725798,-0.523752,4.37775,4.16023,8.05935,3,0.10935,0.00818283,19,83.526,0.105643
0.829099,-0.32743,-0.388234,4.51237,4.15871,8.11549,4,0.0880115,0.00658604,26,87.4408,0.147784
0.0148294,-0.931599,-0.257123,4.43983,4.12892,8.10207,5,0.167682,0.0125479,34,106.961,0.0644896
0.987456,-0.0406219,0.0570666,4.52471,4.18927,8.15718,6,0.0426564,0.00319204,43,89.8616,0.0140454
-0.737134,0.511899,0.289506,4.43846,4.24757,8.09712,7,0.00741699,0.000555025,53,99.276,0.0249964
0.307145,0.874261,0.28587,4.4189,4.14247,8.11254,8,0.0138041,0.00103298,64,137.409,0.00982076
0.491524,-0.706152,0.491814,4.49279,4.12665,8.19277,9,0.00509994,0.000381637,18,102.158,0.143308
,,,,,,,,,25,41.2916,0.123662
,,,,,,,,,33,98.6635,0.18562
,,,,,,,,,42,46.7407,0.070786
,,,,,,,,,52,125.189,0.0143229
,,,,,,,,,63,69.0846,0.0258889
,,,,,,,,,75,99.5145,0.00995562
,,,,,,,,,32,81.9345,0.0975272
,,,,,,,,,41,30.7441,0.132375
,,,,,,,,,51,112.556,0.0613721
,,,,,,,,,62,105.785,0.0138917
,,,,,,,,,74,162.924,0.0245137
,,,,,,,,,87,85.7079,0.00974537
,,,,,,,,,50,63.6475,0.115435
,,,,,,,,,61,32.7123,0.0574625
,,,,,,,,,73,166.405,0.013681
,,,,,,,,,86,98.6983,0.0238651
,,,,,,,,,100,62.307,0.00964121
,,,,,,,,,72,87.7351,0.0680114
,,,,,,,,,85,128.089,0.0142056
,,,,,,,,,99,160.477,0.0255083
,,,,,,,,,114,55.7797,0.00989882
,,,,,,,,,98,141.658,0.0126367
,,,,,,,,,113,72.7864,0.0208583
,,,,,,,,,129,56.4558,0.00911063
,,,,,,,,,128,70.5905,0.00964936
,,,,,,,,,145,128.474,0.00604401
,,,,,,,,,162,109.816,0.00744816
