Q	U	V
{$V$}	{[mm$^3$]}	0.0105053
{$d_v$}	{[mm]}	0.271729
{$S_c$}	{[mm$^2$]}	0.345195
{$S_o$}	{[mm$^2$]}	0.242742
{$S_l/S_o$}	[]	0.422065
{$\Psi$}	[]	0.671983
{$\eta$}	[]	0.680818
{med($\theta_e$)}	{[$^\circ$]}	64.57795
{$\Upsilon$}	[]	14
{$\Xi$}	[]	16
