"cellPairingIds","interplanarAngles","angleWeights"
8,43.246,0.0548871
13,61.6674,0.0498118
19,43.5988,0.0647175
26,68.3931,0.0337171
34,56.623,0.046204
43,41.7441,0.0214168
76,61.2108,0.0912366
33,31.7746,0.027312
42,29.4841,0.0349668
32,39.7623,0.0412142
41,75.7557,0.0259941
74,30.2119,0.0341124
186,65.4885,0.057771
73,41.9839,0.019654
86,35.3704,0.0405004
166,40.7155,0.0328434
72,52.799,0.0249764
114,28.3331,0.024831
204,50.7155,0.0232066
225,79.4103,0.0371848
146,52.8717,0.0468607
164,37.8653,0.0371816
224,48.1863,0.0285096
163,39.1032,0.0215569
202,24.3285,0.018518
223,34.2352,0.0162106
244,53.2705,0.0281699
291,69.0551,0.0563782
290,40.4911,0.0283204
315,60.6645,0.0523239
341,59.7239,0.0265532
368,55.7585,0.027209
242,31.6519,0.0616812
265,38.4721,0.0547356
367,101.896,0.0373927
339,57.6052,0.0333907
394,72.9499,0.0309613
338,24.8507,0.0297897
422,124.633,0.0291073
452,138.416,0.0298972
421,116.307,0.0425646
482,138.618,0.0243105
481,39.5693,0.024704
545,51.9425,0.0427844
578,24.2909,0.0238541
