"cellPairingIds","interplanarAngles","angleWeights"
8,110.888,0.0986938
13,38.4817,0.110054
18,115.573,0.137157
25,28.9611,0.0714638
33,66.5925,0.159916
42,81.7811,0.0900631
32,104.081,0.0772369
51,111.031,0.0994291
61,59.603,0.0596673
