Q	U	V
{$V$}	{[mm$^3$]}	0.00762103
{$d_v$}	{[mm]}	0.244158
{$S_c$}	{[mm$^2$]}	0.304016
{$S_o$}	{[mm$^2$]}	0.210711
{$S_l/S_o$}	[]	0.442810
{$\Psi$}	[]	0.616023
{$\eta$}	[]	0.647890
{med($\theta_e$)}	{[$^\circ$]}	57.92725
{$\Upsilon$}	[]	12
{$\Xi$}	[]	11
