"cellPairingIds","interplanarAngles","angleWeights"
8,55.9095,0.146751
13,51.918,0.0595513
19,48.7386,0.0643277
26,47.2455,0.0382766
43,63.3242,0.0565485
18,57.8621,0.057731
25,85.9474,0.0622089
42,45.8476,0.0371411
75,57.9647,0.0486552
133,84.1023,0.0176315
41,49.751,0.0272977
116,83.971,0.053742
149,89.5888,0.0149937
61,78.6318,0.0280462
73,40.2179,0.0371133
148,66.7708,0.0155193
185,44.0309,0.0629332
85,47.2007,0.0266491
147,41.2446,0.03579
129,36.593,0.0249169
146,30.7038,0.0272496
183,47.9946,0.0132828
182,39.9297,0.0512844
245,44.5363,0.055468
200,28.1226,0.0329747
266,45.3727,0.0143009
265,35.4097,0.0152722
289,65.7479,0.0150398
340,31.5419,0.0192989
313,119.023,0.0172407
339,71.2855,0.118421
365,48.4419,0.0180116
393,22.5119,0.0110615
392,131.676,0.0176892
421,77.3794,0.010939
450,58.88,0.0238903
