"cellPairingIds","interplanarAngles","angleWeights"
8,56.9662,0.0807435
13,48.8834,0.0641441
26,74.3697,0.0520599
53,94.0692,0.0434582
64,121.996,0.139707
18,92.2797,0.0472089
75,79.3606,0.0784292
88,120.331,0.0729295
41,30.8214,0.0357064
101,123.107,0.0591126
99,103.016,0.0282272
130,101.294,0.048696
162,62.7691,0.0427788
181,97.3039,0.0410887
200,65.497,0.117858
