Q	U	V
{$V$}	{[mm$^3$]}	0.0152159
{$d_v$}	{[mm]}	0.307444
{$S_c$}	{[mm$^2$]}	0.430934
{$S_o$}	{[mm$^2$]}	0.326244
{$S_l/S_o$}	[]	0.320895
{$\Psi$}	[]	0.689083
{$\eta$}	[]	0.706702
{med($\theta_e$)}	{[$^\circ$]}	60.6052
{$\Upsilon$}	[]	14
{$\Xi$}	[]	13
