Q	U	V
{$V$}	{[mm$^3$]}	0.00343291
{$d_v$}	{[mm]}	0.187164
{$S_c$}	{[mm$^2$]}	0.20924
{$S_o$}	{[mm$^2$]}	0.11785
{$S_l/S_o$}	[]	0.775477
{$\Psi$}	[]	0.525954
{$\eta$}	[]	0.577915
{med($\theta_e$)}	{[$^\circ$]}	47.2299
{$\Upsilon$}	[]	9
{$\Xi$}	[]	9
