Q	U	V
{$V$}	{[mm$^3$]}	0.014266
{$d_v$}	{[mm]}	0.300909
{$S_c$}	{[mm$^2$]}	0.404608
{$S_o$}	{[mm$^2$]}	0.276564
{$S_l/S_o$}	[]	0.462981
{$\Psi$}	[]	0.703047
{$\eta$}	[]	0.730386
{med($\theta_e$)}	{[$^\circ$]}	64.16015
{$\Upsilon$}	[]	14
{$\Xi$}	[]	11
