Q	U	V
{$V$}	{[mm$^3$]}	0.000895335
{$d_v$}	{[mm]}	0.119581
{$S_c$}	{[mm$^2$]}	0.0661984
{$S_o$}	{[mm$^2$]}	0.0382521
{$S_l/S_o$}	[]	0.730582
{$\Psi$}	[]	0.678621
{$\eta$}	[]	0.740758
{med($\theta_e$)}	{[$^\circ$]}	54.6858
{$\Upsilon$}	[]	16
{$\Xi$}	[]	7
