Q	U	V
{$V$}	{[mm$^3$]}	0.00308617
{$d_v$}	{[mm]}	0.180637
{$S_c$}	{[mm$^2$]}	0.211116
{$S_o$}	{[mm$^2$]}	0.119393
{$S_l/S_o$}	[]	0.768244
{$\Psi$}	[]	0.48556
{$\eta$}	[]	0.519852
{med($\theta_e$)}	{[$^\circ$]}	53.98585
{$\Upsilon$}	[]	14
{$\Xi$}	[]	10
