"cellPairingIds","interplanarAngles","angleWeights"
8,33.855,0.0522323
13,50.3987,0.0519214
19,45.9012,0.105497
18,66.728,0.0336695
25,60.2114,0.0502019
33,80.1953,0.0285652
42,54.6099,0.0519977
52,46.0855,0.0436218
75,92.1175,0.0260973
32,92.061,0.0499147
74,54.2855,0.0456604
87,76.6662,0.0260195
132,104.209,0.0398161
50,31.3145,0.0394613
148,118.944,0.0652124
72,71.0592,0.0405625
130,62.6777,0.036318
165,103.484,0.0328704
98,43.192,0.0795542
146,100.646,0.0850442
164,78.1774,0.0585495
145,50.408,0.031589
182,69.2945,0.0481411
162,41.0987,0.0327671
222,66.5694,0.0581357
221,34.7593,0.0276502
243,88.5436,0.0296445
242,82.0683,0.0500982
265,45.1103,0.0570522
288,69.8541,0.043766
