facetNormals:0,facetNormals:1,facetNormals:2,FacetCenters:0,FacetCenters:1,FacetCenters:2,FacetIds,relFacetSize,absFacetSize,cellPairingIds,interplanarAngles,angleWeights
-0.238117,-0.409386,-0.853643,7.31283,3.6815,6.45819,1,0.0326218,0.00690946,8,40.1576,0.0285383
0.424142,-0.301696,-0.829618,7.35588,3.7882,6.58611,2,0.0253634,0.00537209,13,60.2088,0.0333505
0.524897,0.209753,-0.806671,7.37042,3.77355,6.44992,3,0.0341126,0.00722522,19,54.2132,0.0472227
-0.807471,0.178696,-0.510337,7.27774,3.75991,6.45836,4,0.085484,0.018106,26,86.6529,0.0496194
0.687987,0.476697,-0.485114,7.38592,3.81911,6.4881,5,0.103601,0.0219431,34,58.1744,0.0433042
0.49189,-0.726282,-0.360917,7.34603,3.73672,6.54502,6,0.0643895,0.013638,43,78.7394,0.0489257
-0.89275,-0.183715,0.131485,7.26481,3.69268,6.55691,7,0.0978098,0.0207166,53,122.805,0.0366932
0.577774,0.792847,0.0678767,7.41716,3.83901,6.57312,8,0.041926,0.00888013,64,96.21,0.0250908
0.692173,-0.650824,0.240275,7.35931,3.69374,6.57624,9,0.0203848,0.0043176,76,92.7961,0.0386422
-0.0911599,-0.814241,0.468572,7.31939,3.66254,6.60134,10,0.0473877,0.010037,89,104.981,0.0453484
-0.779314,0.527727,0.252362,7.28484,3.79963,6.55256,11,0.0743572,0.0157492,103,144.895,0.0326457
0.360325,0.809462,0.434581,7.40831,3.82133,6.63573,12,0.0326698,0.00691963,118,130.46,0.0391627
-0.528314,0.572581,0.604582,7.33413,3.82766,6.60294,13,0.0489847,0.0103752,134,118.072,0.022442
0.317179,-0.586522,0.721519,7.34021,3.67288,6.60368,14,0.0171044,0.00362281,151,140.868,0.0388148
-0.397628,0.246774,0.86497,7.33524,3.75424,6.65763,15,0.0479103,0.0101477,169,141.829,0.0232627
0.109533,-0.208521,0.945425,7.3756,3.71899,6.66156,16,0.0180766,0.00382871,18,30.8062,0.0290945
,,,,,,,,,25,88.3749,0.0391198
,,,,,,,,,33,54.4817,0.0407503
,,,,,,,,,42,38.4848,0.0363918
,,,,,,,,,52,118.642,0.0402813
,,,,,,,,,63,93.0028,0.0316063
,,,,,,,,,75,72.3762,0.0226032
,,,,,,,,,88,101.339,0.0330418
,,,,,,,,,102,137.102,0.0378247
,,,,,,,,,117,117.877,0.0285566
,,,,,,,,,133,158.466,0.0334216
,,,,,,,,,150,107.361,0.0204308
,,,,,,,,,168,175.891,0.0331679
,,,,,,,,,187,135.02,0.0211088
,,,,,,,,,32,88.4845,0.0487653
,,,,,,,,,41,26.5478,0.0513253
,,,,,,,,,51,64.8551,0.0445979
,,,,,,,,,62,132.533,0.0505834
,,,,,,,,,74,64.6432,0.0376178
,,,,,,,,,87,88.0418,0.0255197
,,,,,,,,,101,129.922,0.039669
,,,,,,,,,116,121.531,0.0467691
,,,,,,,,,132,89.5074,0.0333756
,,,,,,,,,149,131.6,0.0402178
,,,,,,,,,167,123.817,0.0227845
,,,,,,,,,186,151.922,0.0398509
,,,,,,,,,206,141.291,0.0236309
,,,,,,,,,50,103.707,0.0936744
,,,,,,,,,61,111.831,0.0734522
,,,,,,,,,73,46.0643,0.0912325
,,,,,,,,,86,112.098,0.0562593
,,,,,,,,,100,146.902,0.0329195
,,,,,,,,,115,109.821,0.0609744
,,,,,,,,,131,51.0891,0.0795333
,,,,,,,,,148,112.57,0.047273
,,,,,,,,,166,76.7054,0.0622807
,,,,,,,,,185,139.792,0.0285053
,,,,,,,,,205,94.5764,0.0614054
,,,,,,,,,226,129.966,0.0298426
,,,,,,,,,72,79.4962,0.0794188
,,,,,,,,,85,149.241,0.100622
,,,,,,,,,99,38.6937,0.0596943
,,,,,,,,,114,87.0133,0.0340665
,,,,,,,,,130,137.963,0.0650301
,,,,,,,,,147,115.58,0.0865761
,,,,,,,,,165,63.7043,0.0496749
,,,,,,,,,184,113.723,0.0665181
,,,,,,,,,204,115.649,0.0293613
,,,,,,,,,225,127.224,0.0655205
,,,,,,,,,247,120.803,0.0307822
,,,,,,,,,98,113.848,0.0776566
,,,,,,,,,113,109.811,0.0507845
,,,,,,,,,129,38.6034,0.0309661
,,,,,,,,,146,65.0667,0.0545955
,,,,,,,,,164,158.121,0.0690153
,,,,,,,,,183,127.319,0.0433465
,,,,,,,,,203,162.878,0.0556405
,,,,,,,,,224,69.8122,0.0270289
,,,,,,,,,246,137.431,0.0549408
,,,,,,,,,269,98.4558,0.0282284
,,,,,,,,,128,136.102,0.0586932
,,,,,,,,,145,121.146,0.0337381
,,,,,,,,,163,70.3292,0.0638438
,,,,,,,,,182,45.2303,0.0844861
,,,,,,,,,202,117.047,0.0489797
,,,,,,,,,223,60.5893,0.0652774
,,,,,,,,,245,95.1073,0.029117
,,,,,,,,,268,62.129,0.0643164
,,,,,,,,,292,85.8564,0.0305138
,,,,,,,,,162,95.9426,0.0274319
,,,,,,,,,181,135.89,0.0444898
,,,,,,,,,201,90.8809,0.053619
,,,,,,,,,222,25.0118,0.0367236
,,,,,,,,,244,78.7157,0.0451813
,,,,,,,,,267,103.943,0.0242966
,,,,,,,,,291,88.5409,0.0447188
,,,,,,,,,316,92.2651,0.0252615
,,,,,,,,,200,51.2143,0.0285068
,,,,,,,,,221,149.433,0.0319975
,,,,,,,,,243,100.304,0.0251049
,,,,,,,,,266,127.855,0.0287891
,,,,,,,,,290,36.4325,0.0186011
,,,,,,,,,315,103.684,0.0286006
,,,,,,,,,341,62.6493,0.0191614
,,,,,,,,,242,105.153,0.0578852
,,,,,,,,,265,121.617,0.0386758
,,,,,,,,,289,98.3251,0.0481729
,,,,,,,,,314,31.9582,0.0251361
,,,,,,,,,340,74.9763,0.0476475
,,,,,,,,,367,49.0431,0.0261702
,,,,,,,,,288,74.5585,0.0453948
,,,,,,,,,313,25.6186,0.0590612
,,,,,,,,,339,113.037,0.0278114
,,,,,,,,,366,46.6039,0.0582735
,,,,,,,,,394,87.3929,0.029083
,,,,,,,,,338,56.591,0.0391973
,,,,,,,,,365,92.7739,0.0224533
,,,,,,,,,393,63.5447,0.0388488
,,,,,,,,,422,72.9741,0.0232749
,,,,,,,,,392,93.9764,0.0253553
,,,,,,,,,421,25.6419,0.0484415
,,,,,,,,,451,65.77,0.026408
,,,,,,,,,450,68.5557,0.025209
,,,,,,,,,481,28.7543,0.0175771
,,,,,,,,,512,41.0374,0.0262493
