Q	U	V
{$V$}	{[mm$^3$]}	0.00284393
{$d_v$}	{[mm]}	0.175782
{$S_c$}	{[mm$^2$]}	0.146726
{$S_o$}	{[mm$^2$]}	0.09396
{$S_l/S_o$}	[]	0.561579
{$\Psi$}	[]	0.661591
{$\eta$}	[]	0.737163
{med($\theta_e$)}	{[$^\circ$]}	53.8607
{$\Upsilon$}	[]	12
{$\Xi$}	[]	9
