facetNormals:0,facetNormals:1,facetNormals:2,FacetCenters:0,FacetCenters:1,FacetCenters:2,FacetIds,relFacetSize,absFacetSize,cellPairingIds,interplanarAngles,angleWeights
0.543962,0.257568,-0.737076,6.16917,3.47018,8.22306,1,0.0368767,0.00541519,8,50.8925,0.0302685
0.875121,0.443056,0.00187551,6.2933,3.5018,8.18873,2,0.0256687,0.00376934,13,87.132,0.0558709
-0.142515,0.938599,0.160616,6.31409,3.58987,8.20673,3,0.115215,0.0169188,19,65.354,0.0352632
0.514532,0.805888,0.141012,6.26827,3.57704,8.1939,4,0.033785,0.00496118,26,98.2873,0.0518808
0.444863,-0.833973,0.217359,6.33914,3.45712,8.18322,5,0.0874698,0.0128446,34,138.487,0.0324483
-0.710336,-0.647358,0.198195,6.27339,3.47901,8.18082,6,0.0289695,0.00425404,43,94.7088,0.0555419
0.720778,-0.410843,0.490512,6.33077,3.48876,8.21844,7,0.112467,0.0165153,53,122.054,0.0362444
-0.601215,0.632948,0.450609,6.21623,3.57428,8.19916,8,0.0356334,0.0052326,64,92.0171,0.0404301
0.628631,0.345736,0.628075,6.25824,3.51202,8.2152,9,0.0447412,0.00657004,76,160.292,0.0477924
-0.782691,-0.310922,0.511022,6.18626,3.44094,8.199,10,0.0678874,0.00996897,89,153.694,0.0404356
-0.318639,-0.633099,0.681824,6.28051,3.47158,8.2245,11,0.0447546,0.00657202,103,135.489,0.0416017
-0.225162,0.382153,0.850335,6.25132,3.54919,8.2391,12,0.0477155,0.00700681,118,169.892,0.0470869
-0.539482,-0.10172,0.810008,6.19848,3.51138,8.23094,13,0.0651158,0.00956196,18,72.0264,0.0419839
,,,,,,,,,25,31.5824,0.0291729
,,,,,,,,,33,88.7821,0.0396901
,,,,,,,,,42,160.634,0.0272194
,,,,,,,,,52,61.5989,0.0417978
,,,,,,,,,63,104.72,0.0298412
,,,,,,,,,75,41.1292,0.0326218
,,,,,,,,,88,148.259,0.0372522
,,,,,,,,,102,125.345,0.0326254
,,,,,,,,,117,91.5919,0.0333804
,,,,,,,,,133,122.497,0.0368221
,,,,,,,,,32,40.6786,0.0522488
,,,,,,,,,41,150.311,0.0994432
,,,,,,,,,51,120.149,0.0462979
,,,,,,,,,62,116.189,0.113824
,,,,,,,,,74,37.3306,0.0544321
,,,,,,,,,87,68.5458,0.0644533
,,,,,,,,,101,95.9431,0.0854346
,,,,,,,,,116,117.64,0.0644672
,,,,,,,,,132,55.1744,0.0674832
,,,,,,,,,149,83.2028,0.083206
,,,,,,,,,50,116.111,0.0487431
,,,,,,,,,61,154.957,0.0311925
,,,,,,,,,73,83.2839,0.051961
,,,,,,,,,86,73.8386,0.0346846
,,,,,,,,,100,41.4587,0.0384988
,,,,,,,,,115,127.624,0.045117
,,,,,,,,,131,127.453,0.0385038
,,,,,,,,,148,70.3284,0.0395597
,,,,,,,,,166,105.035,0.0444878
,,,,,,,,,72,73.7102,0.0435241
,,,,,,,,,85,34.5509,0.0984057
,,,,,,,,,99,137.047,0.0506379
,,,,,,,,,114,82.0543,0.0592009
,,,,,,,,,130,88.6694,0.0764445
,,,,,,,,,147,55.9239,0.0592126
,,,,,,,,,165,104.573,0.0617473
,,,,,,,,,184,88.7382,0.0746553
,,,,,,,,,98,99.053,0.0460717
,,,,,,,,,113,83.6497,0.0319577
,,,,,,,,,129,125.69,0.035168
,,,,,,,,,146,27.3601,0.0406097
,,,,,,,,,164,36.9436,0.0351722
,,,,,,,,,183,85.0576,0.0360512
,,,,,,,,,203,50.5903,0.0400992
,,,,,,,,,128,119.925,0.0541198
,,,,,,,,,145,47.646,0.0640158
,,,,,,,,,163,101.282,0.0846677
,,,,,,,,,182,67.3598,0.0640296
,,,,,,,,,202,83.9263,0.0670038
,,,,,,,,,223,86.945,0.0824784
,,,,,,,,,162,82.3989,0.0396712
,,,,,,,,,181,58.6125,0.0467357
,,,,,,,,,201,84.1732,0.0396765
,,,,,,,,,222,36.189,0.0407987
,,,,,,,,,244,49.45,0.0460608
,,,,,,,,,200,107.251,0.0539359
,,,,,,,,,221,89.4474,0.0447479
,,,,,,,,,243,54.9902,0.0461805
,,,,,,,,,266,81.7153,0.0530391
,,,,,,,,,242,34.8912,0.0539457
,,,,,,,,,265,58.6203,0.0560415
,,,,,,,,,289,25.8063,0.0664727
,,,,,,,,,288,64.2631,0.0461877
,,,,,,,,,313,34.9721,0.0530485
,,,,,,,,,338,34.719,0.0550739
