"cellPairingIds","interplanarAngles","angleWeights"
18,111.187,0.0630647
33,100.342,0.0815258
52,83.3494,0.0407855
63,72.9481,0.0720836
41,65.6524,0.108281
62,126.84,0.0465384
87,70.9983,0.0254133
99,118.675,0.137907
114,60.2938,0.0279651
147,64.1342,0.110444
128,48.1821,0.0512723
145,112.998,0.0208284
162,106.912,0.0267626
201,79.6549,0.0937987
221,29.7907,0.0255306
