"cellPairingIds","interplanarAngles","angleWeights"
8,47.8719,0.0534926
13,40.751,0.0441579
19,75.9504,0.0286628
26,56.7481,0.0532502
18,46.5931,0.0819343
25,52.9,0.0409043
42,85.2329,0.0920448
63,91.8892,0.142665
41,69.9818,0.081367
74,82.0763,0.0912305
50,120.263,0.0407625
61,83.0518,0.036957
73,68.5021,0.0407716
85,143.915,0.118796
99,120.297,0.140954
114,96.9083,0.0213303
98,46.4109,0.0913753
113,35.9933,0.103943
128,76.6479,0.141063
145,58.8396,0.0213328
162,66.0844,0.0219524
