Q	U	V
{$V$}	{[mm$^3$]}	0.00408125
{$d_v$}	{[mm]}	0.198274
{$S_c$}	{[mm$^2$]}	0.18021
{$S_o$}	{[mm$^2$]}	0.135306
{$S_l/S_o$}	[]	0.331870
{$\Psi$}	[]	0.685332
{$\eta$}	[]	0.695189
{med($\theta_e$)}	{[$^\circ$]}	64.864
{$\Upsilon$}	[]	12
{$\Xi$}	[]	8
