Q	U	V
{$V$}	{[mm$^3$]}	0.00427125
{$d_v$}	{[mm]}	0.201304
{$S_c$}	{[mm$^2$]}	0.184391
{$S_o$}	{[mm$^2$]}	0.119166
{$S_l/S_o$}	[]	0.547346
{$\Psi$}	[]	0.690422
{$\eta$}	[]	0.740768
{med($\theta_e$)}	{[$^\circ$]}	58.97265
{$\Upsilon$}	[]	12
{$\Xi$}	[]	9
