"cellPairingIds","interplanarAngles","angleWeights"
8,31.8595,0.025909
13,40.4141,0.133102
19,66.1955,0.137986
34,73.6762,0.101799
18,65.0379,0.0246508
25,46.6149,0.0248135
63,69.2151,0.0144394
75,90.7026,0.0228427
51,88.494,0.0847941
74,89.2396,0.0261977
101,73.5883,0.103582
61,71.7433,0.0867504
73,43.1076,0.0462879
100,75.2712,0.0804617
98,38.4619,0.0413563
146,101.413,0.0835814
145,94.0763,0.0398708
163,130.544,0.04537
162,45.7602,0.0241649
181,97.4551,0.0260808
200,109.727,0.0777283
