Q	U	V
{$V$}	{[mm$^3$]}	0.00695962
{$d_v$}	{[mm]}	0.236880
{$S_c$}	{[mm$^2$]}	0.307099
{$S_o$}	{[mm$^2$]}	0.186028
{$S_l/S_o$}	[]	0.650821
{$\Psi$}	[]	0.574023
{$\eta$}	[]	0.590751
{med($\theta_e$)}	{[$^\circ$]}	61.2856
{$\Upsilon$}	[]	11
{$\Xi$}	[]	6
