facetNormals:0,facetNormals:1,facetNormals:2,FacetCenters:0,FacetCenters:1,FacetCenters:2,FacetIds,relFacetSize,absFacetSize,cellPairingIds,interplanarAngles,angleWeights
0.361826,0.346786,-0.81913,6.69384,5.01396,6.29135,1,0.0162951,0.00146878,8,72.0423,0.00894075
-0.744,0.400205,-0.517249,6.63529,5.04323,6.29338,2,0.00616041,0.000555277,13,84.9621,0.0186859
-0.742475,-0.296382,-0.553546,6.70917,5.04214,6.32954,3,0.0218988,0.00197388,19,39.0384,0.0148755
0.830008,0.0339678,-0.503503,6.73884,5.02905,6.31751,4,0.0136833,0.00123337,26,89.5256,0.018356
0.270239,-0.893505,-0.268332,6.68744,4.94285,6.30548,5,0.0210136,0.00189409,34,79.575,0.0216134
0.872973,-0.419362,0.00262392,6.73482,5.0059,6.3257,6,0.032085,0.00289203,43,119.826,0.0223971
-0.218988,-0.952039,0.0713434,6.65902,4.95688,6.2983,7,0.035805,0.00322733,53,123.436,0.0233432
-0.605519,-0.784568,0.0411111,6.62862,4.95845,6.27756,8,0.041135,0.00370776,64,109.389,0.0156435
0.407891,-0.879377,0.192509,6.68867,4.95103,6.29932,9,0.015042,0.00135583,76,130.32,0.0284827
-0.860236,-0.279588,0.205241,6.64057,5.00771,6.32077,10,0.112995,0.010185,89,86.5973,0.0285531
0.821972,0.20325,0.384424,6.72955,5.06214,6.34089,11,0.115249,0.0103882,103,136.54,0.0212779
-0.883773,-0.006283,0.451447,6.60814,5.04407,6.34113,12,0.0306502,0.00276269,118,121.968,0.0182042
-0.686962,0.48998,0.518793,6.64174,5.08068,6.35903,13,0.0206199,0.0018586,134,107.77,0.026297
-0.0911858,0.744323,0.623837,6.67586,5.12918,6.34264,14,0.0680908,0.00613746,151,159.195,0.0244225
-0.624623,-0.118711,0.758279,6.60748,5.05,6.33695,15,0.0487243,0.00439183,169,138.635,0.0272054
-0.328689,0.33474,0.853246,6.62776,5.10392,6.34492,16,0.0823262,0.00742058,188,160.782,0.0287379
-0.0570843,-0.314833,0.925044,6.67136,5.00782,6.36995,17,0.121559,0.0109569,18,41.6166,0.00961578
,,,,,,,,,25,110.915,0.00849587
,,,,,,,,,33,115.873,0.00952766
,,,,,,,,,42,148.58,0.0103362
,,,,,,,,,52,105.236,0.0105122
,,,,,,,,,63,83.2638,0.010716
,,,,,,,,,75,140.46,0.00874098
,,,,,,,,,88,62.6605,0.0116838
,,,,,,,,,102,142.322,0.0116957
,,,,,,,,,117,64.6111,0.0102589
,,,,,,,,,133,63.4321,0.0094866
,,,,,,,,,150,87.4468,0.0112986
,,,,,,,,,168,88.5391,0.0109379
,,,,,,,,,187,93.735,0.011463
,,,,,,,,,207,125.424,0.0117265
,,,,,,,,,32,111.594,0.0168426
,,,,,,,,,41,76.9843,0.0214471
,,,,,,,,,51,123.906,0.0260309
,,,,,,,,,62,64.8176,0.0271762
,,,,,,,,,74,46.8733,0.0285817
,,,,,,,,,87,98.9062,0.017834
,,,,,,,,,101,47.6171,0.0366874
,,,,,,,,,116,167.658,0.0368043
,,,,,,,,,132,64.9795,0.0255457
,,,,,,,,,149,85.3755,0.0212401
,,,,,,,,,167,121.686,0.0331395
,,,,,,,,,186,85.2782,0.0302168
,,,,,,,,,206,110.235,0.0345952
,,,,,,,,,227,113.293,0.0371119
,,,,,,,,,50,69.588,0.0165742
,,,,,,,,,61,41.0923,0.0191849
,,,,,,,,,73,105.235,0.0197999
,,,,,,,,,86,124.803,0.0205356
,,,,,,,,,100,77.2573,0.0143305
,,,,,,,,,115,156.594,0.0244106
,,,,,,,,,131,56.726,0.0244623
,,,,,,,,,148,175.507,0.0189201
,,,,,,,,,166,147.863,0.0164503
,,,,,,,,,185,112.624,0.0227874
,,,,,,,,,205,160.175,0.0213663
,,,,,,,,,226,136.939,0.0234663
,,,,,,,,,248,123.432,0.0245978
,,,,,,,,,72,49.5803,0.0253951
,,,,,,,,,85,35.7271,0.026484
,,,,,,,,,99,56.8842,0.027817
,,,,,,,,,114,28.4112,0.0175333
,,,,,,,,,130,92.4003,0.035437
,,,,,,,,,147,93.9762,0.0355461
,,,,,,,,,165,111.569,0.0249332
,,,,,,,,,184,142.44,0.0208149
,,,,,,,,,204,154.776,0.0321159
,,,,,,,,,225,106.079,0.0293635
,,,,,,,,,247,130.712,0.0334812
,,,,,,,,,270,88.9356,0.0358329
,,,,,,,,,98,77.3178,0.0338431
,,,,,,,,,113,101.985,0.0360507
,,,,,,,,,129,40.7264,0.0204818
,,,,,,,,,146,134.819,0.0499786
,,,,,,,,,164,45.3128,0.0501958
,,,,,,,,,183,143.009,0.0313512
,,,,,,,,,203,146.921,0.0251054
,,,,,,,,,224,114.39,0.0436172
,,,,,,,,,246,120.994,0.0386916
,,,,,,,,,269,116.792,0.0461745
,,,,,,,,,293,84.8785,0.0507696
,,,,,,,,,128,24.7303,0.0382854
,,,,,,,,,145,38.1168,0.0211843
,,,,,,,,,163,58.9054,0.0543789
,,,,,,,,,182,112.331,0.054636
,,,,,,,,,202,76.209,0.0330277
,,,,,,,,,223,106.714,0.0261691
,,,,,,,,,245,132.39,0.0469315
,,,,,,,,,268,71.7277,0.0412774
,,,,,,,,,292,101.236,0.0499054
,,,,,,,,,317,66.7651,0.0553166
,,,,,,,,,162,62.6183,0.0220287
,,,,,,,,,181,35.5345,0.0603134
,,,,,,,,,201,134.055,0.0606299
,,,,,,,,,222,55.4249,0.0351269
,,,,,,,,,244,86.9151,0.0274699
,,,,,,,,,267,121.331,0.0512867
,,,,,,,,,291,59.2047,0.0446092
,,,,,,,,,316,91.6922,0.0548592
,,,,,,,,,342,70.7809,0.0614692
,,,,,,,,,200,94.0981,0.0265497
,,,,,,,,,221,75.4716,0.0266109
,,,,,,,,,243,105.86,0.0201803
,,,,,,,,,266,128.635,0.0173947
,,,,,,,,,290,126.368,0.0246406
,,,,,,,,,315,90.2584,0.0229874
,,,,,,,,,341,105.933,0.0254365
,,,,,,,,,368,63.499,0.0267713
,,,,,,,,,242,142.581,0.114111
,,,,,,,,,265,21.7999,0.0482204
,,,,,,,,,289,52.4101,0.0348755
,,,,,,,,,314,90.1029,0.0849754
,,,,,,,,,340,37.7076,0.0680884
,,,,,,,,,367,66.2122,0.0952528
,,,,,,,,,395,68.8896,0.117121
,,,,,,,,,288,126.905,0.0484225
,,,,,,,,,313,106.762,0.0349811
,,,,,,,,,339,69.6022,0.0856051
,,,,,,,,,366,105.509,0.068492
,,,,,,,,,394,82.0092,0.0960447
,,,,,,,,,423,74.405,0.11832
,,,,,,,,,338,31.4904,0.0246539
,,,,,,,,,365,68.3252,0.0422721
,,,,,,,,,393,24.2944,0.0376294
,,,,,,,,,422,45.8095,0.0446697
,,,,,,,,,452,61.0612,0.0489564
,,,,,,,,,392,38.9905,0.031654
,,,,,,,,,421,38.7609,0.0289769
,,,,,,,,,451,30.3311,0.0329795
,,,,,,,,,482,67.8941,0.0352589
,,,,,,,,,450,62.7721,0.0568022
,,,,,,,,,481,31.3185,0.0745349
,,,,,,,,,513,68.6281,0.0872878
,,,,,,,,,512,32.509,0.0612174
,,,,,,,,,545,36.9102,0.069565
,,,,,,,,,578,42.5021,0.0981679
