facetNormals:0,facetNormals:1,facetNormals:2,FacetCenters:0,FacetCenters:1,FacetCenters:2,FacetIds,relFacetSize,absFacetSize,cellPairingIds,interplanarAngles,angleWeights
0.0286387,-0.83828,-0.506076,3.96291,4.0255,9.12169,1,0.0294726,0.00845467,8,28.6301,0.0291502
0.491327,-0.71395,-0.444368,3.995,4.02199,9.18318,2,0.0288348,0.00827172,13,70.0232,0.0363198
0.82533,-0.0530603,-0.506882,3.96581,4.07395,9.22777,3,0.0473116,0.0135721,19,106.695,0.0471093
0.207815,0.712255,-0.627622,3.94021,4.16032,9.12398,4,0.117307,0.0336514,26,39.1786,0.0410004
-0.577835,-0.644804,-0.388812,3.89612,4.05595,9.12672,5,0.0673392,0.0193173,34,119.355,0.0493766
0.748215,0.591995,-0.0323827,4.0303,4.13957,9.24126,6,0.152088,0.0436287,43,47.6996,0.0152602
0.400758,-0.879983,0.195199,4.02666,4.00869,9.28507,7,0.0102955,0.00295341,53,119.025,0.0478705
-0.848478,0.309951,0.347587,3.86346,4.1333,9.24671,8,0.127396,0.0365456,64,98.5976,0.0444469
0.723139,-0.111067,0.477752,4.01719,4.05863,9.31498,9,0.0903531,0.0259192,76,82.5573,0.0263647
-0.568573,-0.512881,0.576974,3.98022,4.07614,9.25126,10,0.0238498,0.00684167,89,156.276,0.0357281
-0.31017,0.619568,0.693806,3.9387,4.16668,9.33045,11,0.0453547,0.0130107,103,121.409,0.0282636
-0.332194,0.0292903,0.917042,3.95916,4.08818,9.35253,12,0.0271498,0.00778835,18,44.9488,0.0358315
,,,,,,,,,25,97.7426,0.046291
,,,,,,,,,33,67.8034,0.0403792
,,,,,,,,,42,92.5056,0.0484784
,,,,,,,,,52,39.7727,0.0151733
,,,,,,,,,63,147.227,0.0470258
,,,,,,,,,75,74.8583,0.0437178
,,,,,,,,,88,100.463,0.0261064
,,,,,,,,,102,161.014,0.0352555
,,,,,,,,,117,128.5,0.027967
,,,,,,,,,32,61.3577,0.0674284
,,,,,,,,,41,105.472,0.0555761
,,,,,,,,,51,49.4076,0.0721719
,,,,,,,,,62,73.0784,0.0169109
,,,,,,,,,74,162,0.0689988
,,,,,,,,,87,64.8244,0.0621038
,,,,,,,,,101,142.166,0.031713
,,,,,,,,,116,132.335,0.0463125
,,,,,,,,,132,141.48,0.0345011
,,,,,,,,,50,111.318,0.0855622
,,,,,,,,,61,49.9082,0.132452
,,,,,,,,,73,134.006,0.0189296
,,,,,,,,,86,100.643,0.122144
,,,,,,,,,100,105.623,0.102081
,,,,,,,,,115,155.168,0.0396402
,,,,,,,,,131,93.5267,0.0654171
,,,,,,,,,148,131.128,0.0440944
,,,,,,,,,72,152.197,0.0933474
,,,,,,,,,85,73.8803,0.0178603
,,,,,,,,,99,80.2687,0.0881068
,,,,,,,,,114,129.901,0.0771668
,,,,,,,,,130,61.4493,0.0352241
,,,,,,,,,147,121.773,0.0542025
,,,,,,,,,165,101.427,0.0386976
,,,,,,,,,98,103.975,0.0192854
,,,,,,,,,113,120.044,0.138651
,,,,,,,,,129,56.5461,0.11336
,,,,,,,,,146,144.78,0.0412334
,,,,,,,,,164,83.1132,0.0698724
,,,,,,,,,183,106.265,0.0460747
,,,,,,,,,128,124.803,0.0190513
,,,,,,,,,145,56.0961,0.0184846
,,,,,,,,,163,69.1843,0.0143823
,,,,,,,,,182,123.516,0.0167815
,,,,,,,,,202,88.8034,0.0149295
,,,,,,,,,162,124.739,0.105724
,,,,,,,,,181,55.6202,0.0401778
,,,,,,,,,201,42.7976,0.0668942
,,,,,,,,,222,49.7935,0.0447606
,,,,,,,,,200,95.3796,0.0377381
,,,,,,,,,221,87.434,0.0603935
,,,,,,,,,243,76.804,0.0417534
,,,,,,,,,242,74.0144,0.0312609
,,,,,,,,,265,41.2893,0.025393
,,,,,,,,,288,37.6614,0.0339668
