facetNormals:0,facetNormals:1,facetNormals:2,FacetCenters:0,FacetCenters:1,FacetCenters:2,FacetIds,relFacetSize,absFacetSize,cellPairingIds,interplanarAngles,angleWeights
0.150741,0.232584,-0.928908,3.75198,4.01983,9.04799,1,0.178084,0.0215441,8,54.7663,0.0391733
0.208848,-0.621901,-0.698935,3.69862,4.03205,9.14246,2,0.0220071,0.00266237,13,39.9648,0.144885
-0.477715,0.0815868,-0.816587,3.65936,4.0151,9.06172,3,0.12212,0.0147737,19,65.8295,0.0266433
0.759673,-0.442721,-0.400394,3.67528,4.0269,9.10888,4,0.0143988,0.00174193,26,53.6202,0.0355458
-0.20551,0.858791,-0.424879,3.70389,4.10013,9.08049,5,0.0197433,0.0023885,34,107.553,0.0348897
-0.931941,0.103109,0.174762,3.65299,3.9958,9.11012,6,0.0193393,0.00233962,43,112.335,0.0159268
-0.739515,-0.650354,0.11014,3.64442,3.9772,9.10011,7,0.00833617,0.00100849,53,83.1177,0.106569
0.804867,0.470469,0.130687,3.76592,4.04744,9.08557,8,0.0760345,0.00919847,64,126.212,0.0287467
-0.320322,-0.861107,0.335395,3.65348,4.00305,9.10564,9,0.0156353,0.00189152,76,131.502,0.0397318
-0.762763,-0.386486,0.446515,3.64741,3.99395,9.09131,10,0.0223603,0.00270509,89,123.323,0.160746
-0.288534,0.641172,0.670829,3.69331,4.06162,9.14191,11,0.146485,0.0177214,103,111.92,0.0419007
0.47084,0.610193,0.612786,3.78014,4.05985,9.13794,12,0.0237436,0.00287244,118,131.39,0.0468961
0.527507,-0.539243,0.62771,3.7127,4.01763,9.06549,13,0.0270036,0.00326683,134,142.292,0.0742115
0.447798,-0.0576054,0.860599,3.65439,3.99157,9.0417,14,0.0468721,0.00567047,151,170.539,0.0450861
-0.26442,-0.120552,0.922621,3.69127,3.99499,9.04858,15,0.0258103,0.00312246,18,62.5051,0.0372936
,,,,,,,,,25,39.5765,0.0174079
,,,,,,,,,33,107.345,0.0208138
,,,,,,,,,42,114.621,0.0205872
,,,,,,,,,52,79.5048,0.012092
,,,,,,,,,63,103.838,0.0341345
,,,,,,,,,75,75.534,0.0182819
,,,,,,,,,88,104.468,0.0221823
,,,,,,,,,102,174.913,0.0382654
,,,,,,,,,117,138.732,0.0228424
,,,,,,,,,133,89.5861,0.0242507
,,,,,,,,,150,120.453,0.0299516
,,,,,,,,,168,132.388,0.0237575
,,,,,,,,,32,94.5057,0.0257602
,,,,,,,,,41,56.3815,0.0339912
,,,,,,,,,51,69.9228,0.0333908
,,,,,,,,,62,77.0871,0.015607
,,,,,,,,,74,120.435,0.093718
,,,,,,,,,87,101.875,0.0277214
,,,,,,,,,101,91.9874,0.0377994
,,,,,,,,,116,112.803,0.133197
,,,,,,,,,132,136.262,0.0397573
,,,,,,,,,149,150.191,0.0442274
,,,,,,,,,167,176.781,0.067743
,,,,,,,,,186,133.901,0.042614
,,,,,,,,,50,112.756,0.0166527
,,,,,,,,,61,153.351,0.0165073
,,,,,,,,,73,109.397,0.0105591
,,,,,,,,,86,67.3114,0.0242124
,,,,,,,,,100,89.7817,0.0149916
,,,,,,,,,115,129.048,0.0175173
,,,,,,,,,131,145.274,0.0262202
,,,,,,,,,148,99.5492,0.0179265
,,,,,,,,,166,65.8347,0.0187824
,,,,,,,,,185,88.712,0.0220301
,,,,,,,,,205,123.581,0.0184852
,,,,,,,,,72,77.2785,0.0195392
,,,,,,,,,85,117.83,0.0117227
,,,,,,,,,99,78.5519,0.031347
,,,,,,,,,114,148.384,0.0174508
,,,,,,,,,130,112.705,0.0209705
,,,,,,,,,147,70.0508,0.0347967
,,,,,,,,,165,80.039,0.0215595
,,,,,,,,,184,150.647,0.0228097
,,,,,,,,,204,122.176,0.0277837
,,,,,,,,,225,117.739,0.0223728
,,,,,,,,,98,47.2654,0.0116504
,,,,,,,,,113,139.107,0.0308356
,,,,,,,,,129,73.2819,0.0172912
,,,,,,,,,146,35.5003,0.0207404
,,,,,,,,,164,60.7955,0.0341677
,,,,,,,,,183,106.631,0.0213164
,,,,,,,,,203,117.867,0.0225377
,,,,,,,,,224,107.12,0.0273812
,,,,,,,,,246,64.6343,0.0221111
,,,,,,,,,128,161.915,0.015025
,,,,,,,,,145,30.645,0.0108745
,,,,,,,,,163,25.247,0.0121447
,,,,,,,,,182,97.7421,0.0157746
,,,,,,,,,202,133.979,0.0123399
,,,,,,,,,223,88.2478,0.0127396
,,,,,,,,,245,101.919,0.0141549
,,,,,,,,,268,66.9332,0.0126021
,,,,,,,,,162,132.253,0.0259371
,,,,,,,,,181,144.292,0.0345578
,,,,,,,,,201,80.1126,0.100107
,,,,,,,,,222,36.3968,0.036187
,,,,,,,,,244,74.1121,0.0398533
,,,,,,,,,267,60.8396,0.0579936
,,,,,,,,,291,99.4151,0.0385385
,,,,,,,,,200,39.6072,0.0184027
,,,,,,,,,221,104.296,0.0282548
,,,,,,,,,243,119.262,0.0188547
,,,,,,,,,266,58.1917,0.019804
,,,,,,,,,290,78.1736,0.0234487
,,,,,,,,,315,58.2423,0.0194738
,,,,,,,,,242,73.1447,0.0387982
,,,,,,,,,265,109.775,0.0230312
,,,,,,,,,289,84.7678,0.0244636
,,,,,,,,,314,86.0261,0.030277
,,,,,,,,,340,44.9622,0.0239617
,,,,,,,,,288,45.8529,0.0408637
,,,,,,,,,313,94.623,0.045601
,,,,,,,,,339,64.1909,0.0710195
,,,,,,,,,366,48.9017,0.0438876
,,,,,,,,,338,71.6643,0.0252689
,,,,,,,,,365,42.7177,0.0315203
,,,,,,,,,393,67.3163,0.0247339
,,,,,,,,,392,32.149,0.0342661
,,,,,,,,,421,57.8844,0.0263935
,,,,,,,,,450,43.4429,0.0332895
