"cellPairingIds","interplanarAngles","angleWeights"
8,40.9875,0.0477937
26,61.6013,0.0413713
34,66.7566,0.0397534
18,37.1622,0.0471236
25,39.3932,0.0493628
33,82.7541,0.106655
42,97.6043,0.0965281
52,56.8205,0.138337
75,101.584,0.178799
32,40.4751,0.0282877
41,55.9343,0.0408682
50,95.4023,0.0425418
73,40.2617,0.0468186
115,80.1153,0.0105545
72,95.5813,0.0734872
99,113.155,0.0445048
130,167.562,0.011924
113,26.6777,0.0426382
129,43.3729,0.101785
145,75.2151,0.149394
163,44.5921,0.0122374
162,29.5969,0.053515
181,76.1111,0.0106713
200,52.5864,0.0124873
