Q	U	V
{$V$}	{[mm$^3$]}	0.00432943
{$d_v$}	{[mm]}	0.202214
{$S_c$}	{[mm$^2$]}	0.186307
{$S_o$}	{[mm$^2$]}	0.124808
{$S_l/S_o$}	[]	0.492749
{$\Psi$}	[]	0.689512
{$\eta$}	[]	0.724863
{med($\theta_e$)}	{[$^\circ$]}	64.2577
{$\Upsilon$}	[]	11
{$\Xi$}	[]	9
