"cellPairingIds","interplanarAngles","angleWeights"
8,34.8773,0.0151036
13,88.6844,0.0241996
19,101.442,0.023836
26,76.1852,0.023901
43,85.3319,0.0221988
18,85.8681,0.0323144
33,49.0031,0.0317843
32,48.7722,0.149478
41,117.434,0.152071
51,86.9678,0.0923236
74,72.9109,0.0344794
73,150.926,0.0960213
86,89.056,0.033746
100,60.275,0.0420325
148,88.9586,0.0270827
72,42.0862,0.088124
85,42.8683,0.0970848
147,52.691,0.0151036
113,46.7241,0.029608
164,52.8013,0.0141915
163,33.6347,0.0698697
182,43.8288,0.0144056
202,65.5779,0.0249887
162,63.2985,0.0216901
201,58.7054,0.0112821
200,66.8906,0.0361153
221,74.5828,0.0120781
243,37.6423,0.0187284
242,34.9495,0.0142407
265,33.4068,0.0244966
