Q	U	V
{$V$}	{[mm$^3$]}	0.00107108
{$d_v$}	{[mm]}	0.126943
{$S_c$}	{[mm$^2$]}	0.094312
{$S_o$}	{[mm$^2$]}	0.0443401
{$S_l/S_o$}	[]	1.127014
{$\Psi$}	[]	0.536783
{$\eta$}	[]	0.622938
{med($\theta_e$)}	{[$^\circ$]}	78.7292
{$\Upsilon$}	[]	20
{$\Xi$}	[]	2
