facetNormals:0,facetNormals:1,facetNormals:2,FacetCenters:0,FacetCenters:1,FacetCenters:2,FacetIds,relFacetSize,absFacetSize,cellPairingIds,interplanarAngles,angleWeights
-0.231814,-0.555972,-0.784738,3.85373,7.15788,6.89707,1,0.0129838,0.00528758,8,35.1335,0.0197443
0.343504,-0.420358,-0.802674,3.94494,7.14594,6.86005,2,0.0411933,0.0167758,13,76.7169,0.0219087
0.620245,0.296237,-0.67141,4.00241,7.17698,6.94114,3,0.0700829,0.028541,19,36.3903,0.0238421
-0.681214,-0.250243,-0.538615,3.82648,7.19431,6.91273,4,0.145643,0.0593124,26,44.4572,0.0128874
0.407447,-0.780126,-0.462131,3.99264,7.05604,6.97809,5,0.0127924,0.00520966,34,99.8238,0.0211659
0.946361,0.095582,-0.14047,4.0011,7.19378,6.94284,6,0.057233,0.0233079,43,71.7242,0.0134238
-0.956568,0.136455,-0.204552,3.83133,7.23509,6.88536,7,0.0138948,0.00565859,53,63.5494,0.016408
0.63554,-0.70264,-0.238534,4.0113,7.07782,6.98709,8,0.0222855,0.00907568,64,106.502,0.0149394
-0.684327,0.690378,0.0618171,3.78457,7.29318,7.00973,9,0.0175887,0.00716292,76,59.8984,0.0190567
-0.233767,-0.929689,0.117119,3.91947,7.26863,6.91241,10,0.0358028,0.0145805,89,119.568,0.0235107
0.114466,0.921423,-0.105321,3.91209,7.29729,6.94775,11,0.124246,0.0505988,103,86.2088,0.0201667
0.665087,-0.635608,0.175777,3.97028,7.17723,6.93194,12,0.0451386,0.0183825,118,144.967,0.0128469
-0.122003,0.884057,0.434105,3.82994,7.3098,7.05659,13,0.0127129,0.00517728,134,87.4514,0.0186875
-0.653732,-0.514859,0.503365,3.78908,7.20569,7.04429,14,0.0333288,0.013573,151,110.982,0.017131
-0.770888,0.131992,0.571455,3.80857,7.24684,7.0539,15,0.0251712,0.0102509,169,144.109,0.0191505
0.736486,0.342754,0.530433,3.95811,7.25269,7.02873,16,0.0364745,0.0148541,188,153.142,0.0232544
0.100686,0.140595,0.887054,3.93023,7.20142,7.09576,17,0.111285,0.0453204,18,47.6314,0.051888
,,,,,,,,,25,69.7213,0.0642222
,,,,,,,,,33,29.4456,0.0195223
,,,,,,,,,42,64.7351,0.0479063
,,,,,,,,,52,103.398,0.0207802
,,,,,,,,,63,41.856,0.0289235
,,,,,,,,,75,127.524,0.0246517
,,,,,,,,,88,76.6241,0.0383094
,,,,,,,,,102,106.916,0.061873
,,,,,,,,,117,67.0048,0.0430758
,,,,,,,,,133,142.406,0.0194296
,,,,,,,,,150,115.936,0.0368461
,,,,,,,,,168,146.091,0.0312482
,,,,,,,,,187,109.697,0.0386906
,,,,,,,,,207,147.249,0.0601292
,,,,,,,,,32,98.9448,0.0946301
,,,,,,,,,41,69.6671,0.0216357
,,,,,,,,,51,39.8177,0.0630095
,,,,,,,,,62,115.968,0.0231916
,,,,,,,,,74,68.3593,0.0338175
,,,,,,,,,87,106.221,0.0281201
,,,,,,,,,101,122.533,0.0473938
,,,,,,,,,116,62.4947,0.0896164
,,,,,,,,,132,83.2224,0.0549107
,,,,,,,,,149,96.3365,0.0215218
,,,,,,,,,167,163.494,0.0451744
,,,,,,,,,186,152.124,0.0370393
,,,,,,,,,206,77.4727,0.0479786
,,,,,,,,,227,124.47,0.086004
,,,,,,,,,50,79.3149,0.0235191
,,,,,,,,,61,133.028,0.0821742
,,,,,,,,,73,35.393,0.0253693
,,,,,,,,,86,98.3766,0.0386561
,,,,,,,,,100,72.8133,0.0313869
,,,,,,,,,115,67.8689,0.0574764
,,,,,,,,,131,107.349,0.134097
,,,,,,,,,148,117.335,0.0689177
,,,,,,,,,166,114.5,0.0233846
,,,,,,,,,185,69.8308,0.0542444
,,,,,,,,,205,77.8456,0.042924
,,,,,,,,,226,174.782,0.0583387
,,,,,,,,,248,135.399,0.126167
,,,,,,,,,72,66.8381,0.020911
,,,,,,,,,85,114.149,0.0133208
,,,,,,,,,99,19.1723,0.0162544
,,,,,,,,,114,150.892,0.014812
,,,,,,,,,130,53.1387,0.0188498
,,,,,,,,,147,132.162,0.0231966
,,,,,,,,,165,42.576,0.0199352
,,,,,,,,,184,162.332,0.0127526
,,,,,,,,,204,95.7779,0.0184885
,,,,,,,,,225,135.024,0.0169637
,,,,,,,,,247,102.725,0.0189416
,,,,,,,,,270,122.189,0.0229471
,,,,,,,,,98,155.406,0.0223609
,,,,,,,,,113,52.8111,0.0320798
,,,,,,,,,129,129.074,0.0269081
,,,,,,,,,146,110.589,0.0440498
,,,,,,,,,164,76.4051,0.078367
,,,,,,,,,183,52.8398,0.0504714
,,,,,,,,,203,95.529,0.0208046
,,,,,,,,,224,142.172,0.0421261
,,,,,,,,,246,148.867,0.0349648
,,,,,,,,,269,45.3785,0.0445545
,,,,,,,,,293,91.0472,0.0755905
,,,,,,,,,128,132.752,0.0171172
,,,,,,,,,145,40.0728,0.015525
,,,,,,,,,163,85.623,0.02002
,,,,,,,,,182,87.6539,0.0249944
,,,,,,,,,202,145.122,0.0212487
,,,,,,,,,223,81.2835,0.0132776
,,,,,,,,,245,61.9207,0.0196129
,,,,,,,,,268,48.1306,0.0179055
,,,,,,,,,292,143.096,0.0201236
,,,,,,,,,317,106.839,0.024705
,,,,,,,,,162,169.194,0.0196605
,,,,,,,,,181,59.6514,0.0274714
,,,,,,,,,201,127.01,0.0377924
,,,,,,,,,222,25.2889,0.0298391
,,,,,,,,,244,145.836,0.0161901
,,,,,,,,,267,100.539,0.0267107
,,,,,,,,,291,139.442,0.0236406
,,,,,,,,,316,83.901,0.0276669
,,,,,,,,,342,106.204,0.0371346
,,,,,,,,,200,120.302,0.023589
,,,,,,,,,221,52.7223,0.0308151
,,,,,,,,,243,165.462,0.0253137
,,,,,,,,,266,41.796,0.0147585
,,,,,,,,,290,82.5372,0.0230259
,,,,,,,,,315,46.1189,0.0207077
,,,,,,,,,341,104.373,0.0237329
,,,,,,,,,368,84.5899,0.0303764
,,,,,,,,,242,172.998,0.0555875
,,,,,,,,,265,59.7245,0.0399323
,,,,,,,,,289,140.782,0.0187633
,,,,,,,,,314,42.6839,0.0345215
,,,,,,,,,340,82.3565,0.0295602
,,,,,,,,,367,117.229,0.0361355
,,,,,,,,,395,93.3075,0.054176
,,,,,,,,,288,127.109,0.0662197
,,,,,,,,,313,35.5089,0.0230658
,,,,,,,,,339,131.505,0.0525588
,,,,,,,,,366,91.6971,0.0418617
,,,,,,,,,394,67.6833,0.0563937
,,,,,,,,,423,86.7657,0.117409
,,,,,,,,,338,127.57,0.0198385
,,,,,,,,,365,91.199,0.038345
,,,,,,,,,393,123.154,0.0323196
,,,,,,,,,422,66.3023,0.0403466
,,,,,,,,,452,80.924,0.0642263
,,,,,,,,,392,99.3554,0.0184053
,,,,,,,,,421,61.4916,0.0168936
,,,,,,,,,451,62.5776,0.0188543
,,,,,,,,,482,56.3425,0.0228191
,,,,,,,,,450,39.8093,0.0286812
,,,,,,,,,481,114.477,0.0348308
,,,,,,,,,513,69.4655,0.0512952
,,,,,,,,,512,103.501,0.0297866
,,,,,,,,,545,59.23,0.0410561
,,,,,,,,,578,47.4551,0.0549415
