facetNormals:0,facetNormals:1,facetNormals:2,FacetCenters:0,FacetCenters:1,FacetCenters:2,FacetIds,relFacetSize,absFacetSize,cellPairingIds,interplanarAngles,angleWeights
-0.462104,-0.0435338,-0.875058,7.28307,4.66355,6.65569,1,0.00562706,0.000662654,8,38.6536,0.0100721
-0.419284,-0.626787,-0.598398,7.24203,4.61782,6.69225,2,0.0479464,0.00564626,13,35.0386,0.00836587
-0.65926,0.41705,-0.565709,7.25604,4.6789,6.71031,3,0.0162989,0.00191939,19,84.5277,0.0105813
0.717422,-0.478209,-0.460589,7.32579,4.67809,6.67053,4,0.0884966,0.0104215,26,93.2964,0.0100232
0.793202,0.408771,-0.376181,7.36309,4.78316,6.69052,5,0.0458186,0.00539569,34,96.9202,0.00938254
0.920844,-0.0356785,-0.350059,7.35909,4.76555,6.67682,6,0.0282092,0.00332198,43,114.455,0.0108363
0.779662,-0.568561,0.0699307,7.33,4.66446,6.73696,7,0.145945,0.0171867,53,69.6723,0.00869333
-0.943523,0.276686,0.0960062,7.33932,4.66557,6.68756,8,0.0191026,0.00224956,64,86.3691,0.0104533
-0.847516,-0.275536,0.391488,7.21024,4.66327,6.76451,9,0.0734519,0.00864984,76,116.806,0.010021
0.324439,0.868355,0.279764,7.33777,4.78191,6.71895,10,0.0457279,0.00538501,89,97.146,0.00879564
-0.743214,0.40205,0.511571,7.35987,4.69762,6.68251,11,0.0201318,0.00237076,103,152.751,0.00674866
0.763776,-0.19449,0.608167,7.33994,4.70482,6.76025,12,0.00842868,0.000992578,118,114.39,0.0098056
-0.384686,-0.576341,0.688387,7.23397,4.63345,6.78525,13,0.0380916,0.00448575,134,137.792,0.0104778
0.279166,-0.619688,0.703695,7.28437,4.6598,6.80114,14,0.0759463,0.00894359,151,175.305,0.00940472
0.525103,0.0297091,0.825162,7.33357,4.74429,6.78862,15,0.028615,0.00336976,169,154.617,0.0102439
0.351557,0.453093,0.790953,7.3043,4.76402,6.79854,16,0.0570611,0.00671963,188,130.131,0.010067
-0.257107,0.437893,0.813887,7.28533,4.72833,6.78116,17,0.0477177,0.00561933,18,67.5979,0.0243278
,,,,,,,,,25,73.037,0.0621958
,,,,,,,,,33,112.962,0.0468584
,,,,,,,,,42,99.355,0.0355202
,,,,,,,,,52,90.7616,0.0721799
,,,,,,,,,63,80.0256,0.0273203
,,,,,,,,,75,71.7283,0.0580198
,,,,,,,,,88,155.427,0.0468109
,,,,,,,,,102,105.024,0.028357
,,,,,,,,,117,125.923,0.014337
,,,,,,,,,133,83.2446,0.0424546
,,,,,,,,,150,99.1475,0.0587823
,,,,,,,,,168,141.048,0.0358402
,,,,,,,,,187,164.137,0.0521082
,,,,,,,,,207,135.06,0.0478318
,,,,,,,,,32,115.927,0.0275278
,,,,,,,,,41,98.6061,0.0240445
,,,,,,,,,51,116.505,0.0206605
,,,,,,,,,62,148.005,0.029323
,,,,,,,,,74,44.1474,0.0175897
,,,,,,,,,87,76.2872,0.026678
,,,,,,,,,101,90.6145,0.024032
,,,,,,,,,116,67.24,0.0180137
,,,,,,,,,132,165.484,0.0111113
,,,,,,,,,149,113.558,0.0228294
,,,,,,,,,167,153.077,0.026838
,,,,,,,,,186,148.108,0.0207683
,,,,,,,,,206,121.382,0.0253553
,,,,,,,,,227,96.7279,0.0242982
,,,,,,,,,50,54.7116,0.0603773
,,,,,,,,,61,29.4704,0.0427814
,,,,,,,,,73,32.3402,0.110182
,,,,,,,,,86,152.097,0.0314225
,,,,,,,,,100,133.635,0.0802754
,,,,,,,,,115,109.205,0.0602985
,,,,,,,,,131,174.479,0.0328016
,,,,,,,,,148,68.2346,0.0153914
,,,,,,,,,166,109.419,0.053259
,,,,,,,,,185,79.6078,0.0817426
,,,,,,,,,205,91.0512,0.0432465
,,,,,,,,,226,110.136,0.0693844
,,,,,,,,,248,145.062,0.0620031
,,,,,,,,,72,27.4013,0.0349195
,,,,,,,,,85,67.4222,0.0697421
,,,,,,,,,99,134.572,0.0269636
,,,,,,,,,114,171.458,0.0564341
,,,,,,,,,130,57.2641,0.0457732
,,,,,,,,,147,130.216,0.0279728
,,,,,,,,,165,72.0225,0.0142381
,,,,,,,,,184,147.72,0.0415994
,,,,,,,,,204,108.244,0.0571553
,,,,,,,,,225,82.8316,0.0352287
,,,,,,,,,247,79.8624,0.0508256
,,,,,,,,,270,110.881,0.0467489
,,,,,,,,,98,41.5497,0.0472799
,,,,,,,,,113,159.518,0.0227795
,,,,,,,,,129,161.07,0.0407633
,,,,,,,,,146,79.7504,0.0348931
,,,,,,,,,164,154.354,0.0234957
,,,,,,,,,183,59.5484,0.0129793
,,,,,,,,,203,126.642,0.0324139
,,,,,,,,,224,88.0484,0.0411382
,,,,,,,,,246,78.4206,0.0284107
,,,,,,,,,269,88.1743,0.0377541
,,,,,,,,,293,124.622,0.0354572
,,,,,,,,,128,158.003,0.0337833
,,,,,,,,,145,120.414,0.0977218
,,,,,,,,,163,103.658,0.0696369
,,,,,,,,,182,143.911,0.0353828
,,,,,,,,,202,38.9912,0.015937
,,,,,,,,,223,85.3932,0.0604149
,,,,,,,,,245,49.1424,0.0999046
,,,,,,,,,268,61.6042,0.0478485
,,,,,,,,,292,85.6438,0.0820446
,,,,,,,,,317,115.019,0.0719204
,,,,,,,,,162,37.687,0.0303199
,,,,,,,,,181,92.3362,0.0269479
,,,,,,,,,201,28.005,0.0196037
,,,,,,,,,222,136.726,0.0116965
,,,,,,,,,244,73.7771,0.0254448
,,,,,,,,,267,112.335,0.0305269
,,,,,,,,,291,114.964,0.0229107
,,,,,,,,,316,97.7646,0.028623
,,,,,,,,,342,62.2085,0.0272831
,,,,,,,,,200,115.429,0.0563653
,,,,,,,,,221,41.5657,0.031602
,,,,,,,,,243,111.531,0.0151221
,,,,,,,,,266,37.4949,0.050167
,,,,,,,,,290,77.2827,0.0746783
,,,,,,,,,315,97.8554,0.0411853
,,,,,,,,,341,96.8331,0.0642273
,,,,,,,,,368,63.5528,0.057852
,,,,,,,,,242,74.7788,0.0279559
,,,,,,,,,265,75.0265,0.0142338
,,,,,,,,,289,117.226,0.0415619
,,,,,,,,,314,105.344,0.0570847
,,,,,,,,,340,63.2127,0.0352019
,,,,,,,,,367,39.611,0.0507697
,,,,,,,,,395,55.6193,0.0467016
,,,,,,,,,288,109.901,0.0118825
,,,,,,,,,313,65.0918,0.0263417
,,,,,,,,,339,95.7391,0.0318269
,,,,,,,,,366,87.4022,0.0236352
,,,,,,,,,394,70.2874,0.0297629
,,,,,,,,,423,34.2246,0.0283168
,,,,,,,,,338,75.8969,0.0138031
,,,,,,,,,365,38.548,0.0151734
,,,,,,,,,393,22.936,0.0130217
,,,,,,,,,422,47.1521,0.0146878
,,,,,,,,,452,77.0854,0.0143267
,,,,,,,,,392,39.7983,0.0507361
,,,,,,,,,421,68.589,0.0326802
,,,,,,,,,451,81.0712,0.0456855
,,,,,,,,,482,64.2686,0.0423647
,,,,,,,,,450,42.2307,0.0415681
,,,,,,,,,481,66.968,0.065163
,,,,,,,,,513,75.8397,0.0586102
,,,,,,,,,512,27.1412,0.0381158
,,,,,,,,,545,54.1632,0.0357761
,,,,,,,,,578,36.667,0.0519728
