Q	U	V
{$V$}	{[mm$^3$]}	0.00179779
{$d_v$}	{[mm]}	0.150862
{$S_c$}	{[mm$^2$]}	0.131547
{$S_o$}	{[mm$^2$]}	0.0792144
{$S_l/S_o$}	[]	0.660645
{$\Psi$}	[]	0.543537
{$\eta$}	[]	0.608477
{med($\theta_e$)}	{[$^\circ$]}	58.3966
{$\Upsilon$}	[]	19
{$\Xi$}	[]	9
