facetNormals:0,facetNormals:1,facetNormals:2,FacetCenters:0,FacetCenters:1,FacetCenters:2,FacetIds,relFacetSize,absFacetSize,cellPairingIds,interplanarAngles,angleWeights
-0.396938,0.0443753,-0.896156,3.04025,7.90877,9.16898,1,0.0335123,0.00773257,8,43.6467,0.0503375
-0.0976869,-0.603064,-0.757642,3.05776,7.7999,9.21175,2,0.101092,0.0233257,13,33.8688,0.03695
-0.297064,0.583033,-0.732271,3.04413,7.94146,9.17474,3,0.0411737,0.00950034,19,71.3805,0.0508165
0.491469,-0.588532,-0.583677,3.1214,7.8128,9.21593,4,0.105069,0.0242435,26,31.0137,0.022159
-0.80329,-0.0705334,-0.579374,2.96554,7.90987,9.20669,5,0.0165516,0.0038191,34,51.0665,0.0440345
-0.744281,-0.489753,-0.354248,2.97483,7.80429,9.25524,6,0.0641882,0.0148107,43,100.646,0.0341623
0.81011,0.424073,-0.150403,3.14495,7.91119,9.20441,7,0.0348379,0.00803844,53,74.4378,0.0382262
-0.0969757,0.940793,-0.194046,3.08992,7.95822,9.24042,8,0.0444833,0.010264,64,53.1684,0.0367104
-0.925393,0.190668,-0.216903,2.9813,7.87755,9.24962,9,0.0405833,0.00936412,76,84.928,0.0385645
-0.526298,0.810917,0.178124,3.02678,7.91479,9.28412,10,0.0454103,0.0104779,89,103.03,0.0444245
-0.7508,-0.111351,0.559842,2.99739,7.80683,9.34193,11,0.0658744,0.0151997,103,144.46,0.0295464
0.678342,0.386353,0.59089,3.10208,7.94418,9.26431,12,0.0264198,0.00609606,118,116.271,0.0473714
-0.194575,0.732217,0.586831,3.04788,7.91041,9.29117,13,0.0807768,0.0186383,134,130.15,0.019703
0.33087,0.723103,0.586986,3.07181,7.97367,9.26637,14,0.0139533,0.00321955,151,153.137,0.0283697
0.000397659,0.169017,0.965942,3.00023,7.88984,9.3424,15,0.0245954,0.00567509,18,75.939,0.0585148
,,,,,,,,,25,36.9887,0.103042
,,,,,,,,,33,54.589,0.0284459
,,,,,,,,,42,46.9975,0.07852
,,,,,,,,,52,104.179,0.0518183
,,,,,,,,,63,115.928,0.0617811
,,,,,,,,,75,81.4821,0.0579162
,,,,,,,,,88,126.761,0.0626695
,,,,,,,,,102,108.001,0.0797689
,,,,,,,,,117,141.616,0.0418915
,,,,,,,,,133,158.395,0.0897996
,,,,,,,,,150,161.664,0.0245219
,,,,,,,,,168,150.884,0.0395647
,,,,,,,,,32,93.7396,0.059163
,,,,,,,,,41,50.3838,0.0236115
,,,,,,,,,51,78.0499,0.0501674
,,,,,,,,,62,82.6304,0.0377418
,,,,,,,,,74,40.6442,0.0427646
,,,,,,,,,87,55.0839,0.0408764
,,,,,,,,,101,58.8954,0.0431884
,,,,,,,,,116,105.778,0.0506743
,,,,,,,,,132,115.172,0.0321866
,,,,,,,,,149,86.6503,0.0545448
,,,,,,,,,167,96.3011,0.0208431
,,,,,,,,,186,129.22,0.0307951
,,,,,,,,,50,90.905,0.0285982
,,,,,,,,,61,81.9609,0.0796916
,,,,,,,,,73,74.6523,0.052326
,,,,,,,,,86,121.642,0.0625042
,,,,,,,,,100,118.129,0.0585511
,,,,,,,,,115,152.454,0.0634136
,,,,,,,,,131,133.903,0.0809784
,,,,,,,,,148,104.667,0.0422227
,,,,,,,,,166,160.238,0.0913353
,,,,,,,,,185,129.48,0.024635
,,,,,,,,,205,134.563,0.03986
,,,,,,,,,72,28.3739,0.0263171
,,,,,,,,,85,130.169,0.0224413
,,,,,,,,,99,82.5701,0.0241262
,,,,,,,,,114,27.2702,0.0235135
,,,,,,,,,130,74.4067,0.0242605
,,,,,,,,,147,72.179,0.0264559
,,,,,,,,,165,160.17,0.0203526
,,,,,,,,,184,104.319,0.0274738
,,,,,,,,,204,132.014,0.0151418
,,,,,,,,,225,125.968,0.0197873
,,,,,,,,,98,148.474,0.0451635
,,,,,,,,,113,110.213,0.0525493
,,,,,,,,,129,43.6793,0.0497267
,,,,,,,,,146,94.17,0.0531906
,,,,,,,,,164,62.6811,0.0650203
,,,,,,,,,183,164.234,0.0374325
,,,,,,,,,203,117.317,0.0715333
,,,,,,,,,224,148.537,0.0229234
,,,,,,,,,246,116.891,0.0355636
,,,,,,,,,128,66.9996,0.0390742
,,,,,,,,,145,135.088,0.0374918
,,,,,,,,,163,96.8889,0.0394277
,,,,,,,,,182,147.81,0.0455739
,,,,,,,,,202,46.5025,0.0300505
,,,,,,,,,223,85.8268,0.0486806
,,,,,,,,,245,57.9231,0.0199259
,,,,,,,,,268,94.6256,0.0288341
,,,,,,,,,162,70.5789,0.0424439
,,,,,,,,,181,34.7949,0.044942
,,,,,,,,,201,98.8813,0.0531057
,,,,,,,,,222,78.8351,0.0331506
,,,,,,,,,244,50.0701,0.0573721
,,,,,,,,,267,55.9505,0.0212431
,,,,,,,,,291,91.7229,0.0316764
,,,,,,,,,200,50.7434,0.0428614
,,,,,,,,,221,52.8518,0.0502247
,,,,,,,,,243,135.956,0.0320046
,,,,,,,,,266,78.0484,0.0540242
,,,,,,,,,290,107.971,0.0207666
,,,,,,,,,315,100.771,0.0306285
,,,,,,,,,242,64.1273,0.0537608
,,,,,,,,,265,86.3338,0.0334047
,,,,,,,,,289,31.7916,0.0581375
,,,,,,,,,314,57.8655,0.0213472
,,,,,,,,,340,71.3094,0.0319084
,,,,,,,,,288,103.88,0.037714
,,,,,,,,,313,64.2204,0.0725684
,,,,,,,,,339,90.0194,0.0230287
,,,,,,,,,366,55.6647,0.0358176
,,,,,,,,,338,57.9669,0.0398167
,,,,,,,,,365,28.4709,0.0182618
,,,,,,,,,393,48.4871,0.025475
,,,,,,,,,392,31.2745,0.0237961
,,,,,,,,,421,42.7095,0.0377089
,,,,,,,,,450,44.6651,0.0178053
