Q	U	V
{$V$}	{[mm$^3$]}	0.0146899
{$d_v$}	{[mm]}	0.303860
{$S_c$}	{[mm$^2$]}	0.638721
{$S_o$}	{[mm$^2$]}	0.378296
{$S_l/S_o$}	[]	0.688416
{$\Psi$}	[]	0.454136
{$\eta$}	[]	0.473227
{med($\theta_e$)}	{[$^\circ$]}	62.4602
{$\Upsilon$}	[]	10
{$\Xi$}	[]	11
