Q	U	V
{$V$}	{[mm$^3$]}	0.0140772
{$d_v$}	{[mm]}	0.299575
{$S_c$}	{[mm$^2$]}	0.511302
{$S_o$}	{[mm$^2$]}	0.337108
{$S_l/S_o$}	[]	0.516731
{$\Psi$}	[]	0.551422
{$\eta$}	[]	0.585292
{med($\theta_e$)}	{[$^\circ$]}	55.5465
{$\Upsilon$}	[]	18
{$\Xi$}	[]	20
