facetNormals:0,facetNormals:1,facetNormals:2,FacetCenters:0,FacetCenters:1,FacetCenters:2,FacetIds,relFacetSize,absFacetSize,cellPairingIds,interplanarAngles,angleWeights
-0.575435,-0.166672,-0.763405,4.88115,7.40625,6.96254,1,0.0253297,0.00409549,8,70.0703,0.0293494
0.181151,0.652582,-0.701529,4.94249,7.44312,6.96676,2,0.0348854,0.00564052,13,49.9981,0.0382856
-0.470168,0.629988,-0.5827,4.85355,7.47827,7.02991,3,0.0783718,0.0126717,19,87.3714,0.034679
0.168325,0.897024,-0.380367,4.91414,7.50999,7.05637,4,0.0549675,0.00888753,26,110.888,0.0358552
0.86696,-0.357416,-0.145367,4.99498,7.41061,7.09215,5,0.0613471,0.00991904,34,40.1271,0.0291804
-0.938598,0.0930023,-0.265063,4.80473,7.46656,7.09395,6,0.0344118,0.00556394,43,45.4903,0.0389327
-0.824774,-0.495941,-0.136184,4.82264,7.40848,7.10458,7,0.0840947,0.013597,53,91.9078,0.0325413
-0.246239,0.934237,0.0225364,4.85834,7.50214,7.11398,8,0.0454935,0.00735572,64,123.402,0.0438283
0.660649,0.678488,0.0166799,4.96787,7.47579,7.10544,9,0.162513,0.0262763,76,74.9042,0.0243931
-0.887514,-0.202837,0.385919,4.8142,7.43326,7.19671,10,0.0235232,0.0038034,89,117.129,0.0353285
-0.343612,0.583902,0.693497,4.86047,7.47878,7.19537,11,0.0583694,0.00943758,103,152.912,0.0410607
0.311105,-0.176842,0.895643,4.92983,7.41059,7.2084,12,0.108353,0.0175193,18,39.6427,0.0482801
,,,,,,,,,25,23.7183,0.0426823
,,,,,,,,,33,88.4031,0.0444781
,,,,,,,,,42,85.4002,0.034647
,,,,,,,,,52,113.473,0.0493138
,,,,,,,,,63,54.3484,0.0394895
,,,,,,,,,75,53.3927,0.0574405
,,,,,,,,,88,125.79,0.0280992
,,,,,,,,,102,100.218,0.0436705
,,,,,,,,,117,136.96,0.0527783
,,,,,,,,,32,42.9988,0.0646156
,,,,,,,,,41,126.175,0.0688222
,,,,,,,,,51,46.9571,0.0478246
,,,,,,,,,62,80.639,0.0811324
,,,,,,,,,74,43.0352,0.0575691
,,,,,,,,,87,83.3638,0.105747
,,,,,,,,,101,86.1706,0.0361854
,,,,,,,,,116,82.4099,0.0669076
,,,,,,,,,132,145.693,0.0909554
,,,,,,,,,50,97.3101,0.0579823
,,,,,,,,,61,88.4468,0.0423259
,,,,,,,,,73,123.604,0.0664807
,,,,,,,,,86,34.4452,0.0497838
,,,,,,,,,100,40.3722,0.0821492
,,,,,,,,,115,119.277,0.0329468
,,,,,,,,,131,77.8262,0.0566174
,,,,,,,,,148,117.947,0.072935
,,,,,,,,,72,150.407,0.0440912
,,,,,,,,,85,124.166,0.070942
,,,,,,,,,99,126.903,0.0522441
,,,,,,,,,114,68.6081,0.0890708
,,,,,,,,,130,143.373,0.0340067
,,,,,,,,,147,131.316,0.0598212
,,,,,,,,,165,77.203,0.0783399
,,,,,,,,,98,36.641,0.0488386
,,,,,,,,,113,70.758,0.0391842
,,,,,,,,,129,127.229,0.0567969
,,,,,,,,,146,42.7092,0.0279443
,,,,,,,,,164,78.2767,0.0432975
,,,,,,,,,183,125.286,0.0522344
,,,,,,,,,128,106.279,0.0590449
,,,,,,,,,145,163.709,0.110836
,,,,,,,,,163,35.7478,0.0367629
,,,,,,,,,182,96.1297,0.0689094
,,,,,,,,,202,108.075,0.0946949
,,,,,,,,,162,58.9898,0.0710871
,,,,,,,,,181,87.7366,0.0310114
,,,,,,,,,201,46.4329,0.0511333
,,,,,,,,,222,103.756,0.0640815
,,,,,,,,,200,140.008,0.0410976
,,,,,,,,,221,78.649,0.0858899
,,,,,,,,,243,83.6847,0.130018
,,,,,,,,,242,61.7228,0.0335326
,,,,,,,,,265,83.6545,0.0386545
,,,,,,,,,288,63.928,0.0758686
