facetNormals:0,facetNormals:1,facetNormals:2,FacetCenters:0,FacetCenters:1,FacetCenters:2,FacetIds,relFacetSize,absFacetSize,cellPairingIds,interplanarAngles,angleWeights
-0.235731,0.336368,-0.870336,5.09257,5.19578,8.43919,1,0.0967979,0.0235801,8,47.9331,0.0282184
0.536588,0.161402,-0.816799,5.2023,5.17052,8.4381,2,0.0165167,0.00402349,13,80.5887,0.0768659
0.692742,-0.417316,-0.523067,5.21928,5.12358,8.46993,3,0.0637408,0.0155274,19,57.922,0.0900066
-0.559812,-0.496752,-0.605813,5.0462,5.10484,8.46999,4,0.0841058,0.0204883,26,60.6275,0.0911692
0.518105,0.731579,-0.387213,5.20269,5.25256,8.51582,5,0.086159,0.0209885,34,47.4913,0.0377422
-0.167807,0.915148,-0.341342,5.09573,5.28594,8.50738,6,0.023441,0.00571026,43,98.1363,0.0152606
0.963832,-0.162649,-0.168684,5.28489,5.16831,8.53756,7,0.00828325,0.00201781,53,54.0359,0.085172
-0.806001,0.512116,-0.220169,5.02768,5.20451,8.53678,8,0.0760392,0.0185233,64,64.8076,0.0725393
-0.39783,0.893755,-0.00730786,5.07003,5.27013,8.57608,9,0.0580031,0.0141297,76,126.069,0.0454333
0.643944,-0.701104,0.1861,5.18961,5.09479,8.54676,10,0.0296826,0.00723073,89,132.924,0.0304968
-0.258084,-0.809376,0.499067,5.15673,5.15124,8.63119,11,0.0180996,0.00440909,103,143.778,0.0751016
0.215274,-0.803297,0.494232,5.18989,5.11678,8.58295,12,0.0613505,0.0149451,118,126.745,0.0558542
0.85114,0.107063,0.452422,5.25731,5.18903,8.59439,13,0.0392515,0.00956174,134,101.701,0.0219223
-0.697632,0.409395,0.568958,5.02976,5.20999,8.62719,14,0.0123608,0.00301112,151,113.341,0.104825
0.17758,0.697709,0.645051,5.1586,5.24593,8.62802,15,0.114305,0.0278449,169,155.867,0.0316577
0.217947,0.0609965,0.952011,5.12147,5.1955,8.64388,16,0.0189232,0.00460974,18,39.9267,0.0262352
,,,,,,,,,25,83.1194,0.0276111
,,,,,,,,,33,42.5679,0.0277195
,,,,,,,,,42,69.9549,0.0193789
,,,,,,,,,52,50.2154,0.0110332
,,,,,,,,,63,100.086,0.0271385
,,,,,,,,,75,93.7422,0.0257118
,,,,,,,,,88,85.2018,0.0212236
,,,,,,,,,102,133.903,0.0172719
,,,,,,,,,117,115.851,0.0260266
,,,,,,,,,133,83.7578,0.02325
,,,,,,,,,150,142.102,0.0141397
,,,,,,,,,168,109.459,0.0288628
,,,,,,,,,187,132.178,0.0176383
,,,,,,,,,32,81.5438,0.0725207
,,,,,,,,,41,74.1958,0.0732735
,,,,,,,,,51,109.563,0.0342766
,,,,,,,,,62,30.4243,0.0146612
,,,,,,,,,74,134.104,0.069349
,,,,,,,,,87,133.177,0.0607367
,,,,,,,,,101,46.6477,0.0405036
,,,,,,,,,116,96.1744,0.0281934
,,,,,,,,,132,75.9728,0.0625228
,,,,,,,,,149,70.7284,0.0485847
,,,,,,,,,167,177.706,0.0207063
,,,,,,,,,186,122.888,0.0818428
,,,,,,,,,206,113.277,0.0291828
,,,,,,,,,50,116.454,0.08512
,,,,,,,,,61,99.2792,0.0366635
,,,,,,,,,73,111.922,0.0150812
,,,,,,,,,86,69.5174,0.0798694
,,,,,,,,,100,103.308,0.0686571
,,,,,,,,,115,97.6885,0.0438793
,,,,,,,,,131,75.0843,0.0297886
,,,,,,,,,148,91.2847,0.0709482
,,,,,,,,,166,149.393,0.0535239
,,,,,,,,,185,99.5208,0.021554
,,,,,,,,,205,154.028,0.0969071
,,,,,,,,,226,140.692,0.0308953
,,,,,,,,,72,42.3929,0.036855
,,,,,,,,,85,62.6041,0.0151135
,,,,,,,,,99,87.4658,0.0807834
,,,,,,,,,114,61.8602,0.0693315
,,,,,,,,,130,105.388,0.0441538
,,,,,,,,,147,162.796,0.0299149
,,,,,,,,,165,134.958,0.0716686
,,,,,,,,,184,68.6935,0.0539328
,,,,,,,,,204,106.994,0.02162
,,,,,,,,,225,68.0621,0.0982561
,,,,,,,,,247,102.762,0.0310311
,,,,,,,,,98,104.914,0.012241
,,,,,,,,,113,45.6374,0.0358349
,,,,,,,,,129,23.7913,0.0333885
,,,,,,,,,146,147.774,0.0261951
,,,,,,,,,164,152.707,0.0204269
,,,,,,,,,183,168.638,0.0339212
,,,,,,,,,203,101.966,0.0293526
,,,,,,,,,224,72.3285,0.0161863
,,,,,,,,,246,66.0739,0.0389038
,,,,,,,,,269,108.375,0.0209412
,,,,,,,,,128,147.851,0.0149391
,,,,,,,,,145,122.933,0.0144963
,,,,,,,,,163,43.0311,0.0129521
,,,,,,,,,182,101.886,0.0113652
,,,,,,,,,202,74.6031,0.0145958
,,,,,,,,,223,40.9453,0.0136797
,,,,,,,,,245,148.341,0.00991935
,,,,,,,,,268,93.057,0.0154471
,,,,,,,,,292,87.6645,0.0115227
,,,,,,,,,162,35.5579,0.0658077
,,,,,,,,,181,165.204,0.0426977
,,,,,,,,,201,109.126,0.0292393
,,,,,,,,,222,137.03,0.0679097
,,,,,,,,,244,140.257,0.0517762
,,,,,,,,,267,48.1435,0.0212649
,,,,,,,,,291,85.6314,0.0913257
,,,,,,,,,316,111.665,0.0303048
,,,,,,,,,200,158.705,0.0392694
,,,,,,,,,221,130.371,0.0275899
,,,,,,,,,243,148.526,0.0596299
,,,,,,,,,266,105.041,0.0468196
,,,,,,,,,290,48.643,0.0203788
,,,,,,,,,315,54.5708,0.0769557
,,,,,,,,,341,92.3436,0.0285366
,,,,,,,,,242,58.8651,0.0224871
,,,,,,,,,265,32.2278,0.0400084
,,,,,,,,,289,53.677,0.0338029
,,,,,,,,,314,131.084,0.0174535
,,,,,,,,,340,105.767,0.0471272
,,,,,,,,,367,73.1739,0.0231121
,,,,,,,,,288,28.0427,0.0279526
,,,,,,,,,313,94.8344,0.024775
,,,,,,,,,339,82.1761,0.0146896
,,,,,,,,,366,107.64,0.0312508
,,,,,,,,,394,67.4652,0.0185022
,,,,,,,,,338,70.0045,0.0478738
,,,,,,,,,365,101.935,0.0205761
,,,,,,,,,393,102.565,0.0798457
,,,,,,,,,422,60.3415,0.0289248
,,,,,,,,,392,107.759,0.018801
,,,,,,,,,421,56.4825,0.0584364
,,,,,,,,,451,48.9899,0.0255357
,,,,,,,,,450,56.419,0.0223092
,,,,,,,,,481,64.6335,0.0149538
,,,,,,,,,512,42.683,0.0324709
