facetNormals:0,facetNormals:1,facetNormals:2,FacetCenters:0,FacetCenters:1,FacetCenters:2,FacetIds,relFacetSize,absFacetSize,cellPairingIds,interplanarAngles,angleWeights
0.44892,-0.0924009,-0.864589,6.16226,3.46475,7.66214,1,0.0849574,0.0140443,8,50.8629,0.0654909
-0.057472,0.579038,-0.796253,6.11774,3.58514,7.72104,2,0.0532823,0.00880811,13,38.3517,0.0514806
0.342917,0.535011,-0.755122,6.16109,3.57783,7.72839,3,0.036929,0.00610474,19,74.7641,0.0777808
-0.586479,0.431953,-0.638851,6.06851,3.48028,7.67666,4,0.0717222,0.0118564,26,38.5982,0.0759993
0.878874,0.0331169,-0.402933,6.21066,3.4684,7.72721,5,0.0687502,0.0113651,34,66.7453,0.0579855
-0.264666,-0.805383,-0.488596,6.09575,3.38578,7.71719,6,0.0440126,0.00727574,43,79.4999,0.0491484
0.00832856,0.940851,-0.299915,6.13597,3.56038,7.7071,7,0.0345752,0.00571564,53,56.6276,0.109368
0.505957,-0.776021,-0.252094,6.15759,3.36723,7.74152,8,0.153462,0.0253689,64,117.302,0.0561332
-0.971007,-0.0334433,0.00379307,6.05595,3.45025,7.74412,9,0.041913,0.00692865,76,76.2866,0.0269669
0.867405,-0.410423,0.229508,6.2112,3.4803,7.78023,10,0.0160271,0.00264945,89,104.471,0.072157
-0.718803,-0.599977,-0.0439893,6.10878,3.47646,7.7927,11,0.0627087,0.0103664,103,93.1392,0.0301734
0.410364,0.870689,0.180721,6.1645,3.60415,7.78003,12,0.0183443,0.0030325,118,91.6029,0.0783814
0.801669,0.359789,0.408476,6.19376,3.56801,7.80574,13,0.0727502,0.0120264,134,148.525,0.0369322
-0.790693,-0.180866,0.560494,6.07375,3.42338,7.75106,14,0.0235946,0.00390043,151,105.248,0.0267352
0.700875,-0.162117,0.67485,6.20929,3.4526,7.79087,15,0.0158637,0.00262243,18,23.6829,0.0436234
,,,,,,,,,25,33.9598,0.0611422
,,,,,,,,,33,72.3356,0.0600359
,,,,,,,,,42,93.6892,0.0482059
,,,,,,,,,52,36.477,0.0419371
,,,,,,,,,63,107.055,0.0791007
,,,,,,,,,75,88.0012,0.0469187
,,,,,,,,,88,118.899,0.024642
,,,,,,,,,102,107.052,0.0576125
,,,,,,,,,117,69.5996,0.0272922
,,,,,,,,,133,99.8203,0.0615127
,,,,,,,,,150,121.33,0.0327061
,,,,,,,,,168,133.654,0.0244483
,,,,,,,,,32,57.5969,0.0487547
,,,,,,,,,41,49.2396,0.0480487
,,,,,,,,,51,99.098,0.0401608
,,,,,,,,,62,41.2562,0.0357133
,,,,,,,,,74,93.1046,0.0595322
,,,,,,,,,87,111.648,0.0392634
,,,,,,,,,101,95.6245,0.022353
,,,,,,,,,116,125.277,0.0464838
,,,,,,,,,132,60.8996,0.0245122
,,,,,,,,,149,80.4328,0.04899
,,,,,,,,,167,144.396,0.0287929
,,,,,,,,,186,111.45,0.0221936
,,,,,,,,,50,105.072,0.0702048
,,,,,,,,,61,82.7599,0.0545503
,,,,,,,,,73,51.6898,0.0466579
,,,,,,,,,86,120.413,0.0977568
,,,,,,,,,100,54.052,0.0529078
,,,,,,,,,115,150.575,0.0261996
,,,,,,,,,131,77.8908,0.0669133
,,,,,,,,,148,88.7939,0.029216
,,,,,,,,,166,127.823,0.0722325
,,,,,,,,,185,88.3487,0.035508
,,,,,,,,,205,162.658,0.0259808
,,,,,,,,,72,93.7803,0.053668
,,,,,,,,,85,80.3999,0.046011
,,,,,,,,,99,55.9122,0.0949593
,,,,,,,,,114,155.609,0.0520774
,,,,,,,,,130,46.5634,0.0259944
,,,,,,,,,147,134.351,0.0655906
,,,,,,,,,165,70.4736,0.028961
,,,,,,,,,184,53.9327,0.0706937
,,,,,,,,,204,166.323,0.0351321
,,,,,,,,,225,69.2101,0.025779
,,,,,,,,,98,129.407,0.0387273
,,,,,,,,,113,49.1659,0.0684065
,,,,,,,,,129,72.74,0.0429372
,,,,,,,,,146,90.6624,0.0234976
,,,,,,,,,164,40.7363,0.051723
,,,,,,,,,183,159.594,0.0258954
,,,,,,,,,203,137.722,0.054845
,,,,,,,,,224,85.1788,0.0307204
,,,,,,,,,246,113.488,0.0233215
,,,,,,,,,128,133.306,0.0564355
,,,,,,,,,145,92.4305,0.0378921
,,,,,,,,,163,117.357,0.0219018
,,,,,,,,,182,127.017,0.044574
,,,,,,,,,202,37.3919,0.0239706
,,,,,,,,,223,76.5439,0.0468734
,,,,,,,,,245,110.744,0.0280485
,,,,,,,,,268,111.001,0.0217487
,,,,,,,,,162,119.992,0.0658432
,,,,,,,,,181,42.4013,0.0290231
,,,,,,,,,201,82.7864,0.0890353
,,,,,,,,,222,123.109,0.0327712
,,,,,,,,,244,88.5567,0.0987074
,,,,,,,,,267,115.064,0.0409007
,,,,,,,,,291,70.8731,0.0287549
,,,,,,,,,200,149.697,0.0231875
,,,,,,,,,221,37.9775,0.0502441
,,,,,,,,,243,116.656,0.0255193
,,,,,,,,,266,146.924,0.053185
,,,,,,,,,290,35.9013,0.0301925
,,,,,,,,,315,134.572,0.023016
,,,,,,,,,242,114.761,0.0255294
,,,,,,,,,265,87.6229,0.0171076
,,,,,,,,,289,47.8621,0.0262674
,,,,,,,,,314,119.768,0.0190882
,,,,,,,,,340,31.5501,0.015945
,,,,,,,,,288,154.033,0.028385
,,,,,,,,,313,153.111,0.0673573
,,,,,,,,,339,45.1099,0.0342881
,,,,,,,,,366,118.152,0.0253216
,,,,,,,,,338,41.0155,0.0293003
,,,,,,,,,365,113.217,0.0206408
,,,,,,,,,393,73.8674,0.017014
,,,,,,,,,392,119.469,0.0356327
,,,,,,,,,421,35.3895,0.0260475
,,,,,,,,,450,98.6705,0.0189718
