facetNormals:0,facetNormals:1,facetNormals:2,FacetCenters:0,FacetCenters:1,FacetCenters:2,FacetIds,relFacetSize,absFacetSize,cellPairingIds,interplanarAngles,angleWeights
0.090041,-0.277607,-0.902187,4.63529,5.55563,9.46301,1,0.0716514,0.0149099,8,45.3927,0.0428577
-0.398516,0.285264,-0.854786,4.6194,5.63108,9.45802,2,0.0305721,0.00636172,13,53.4771,0.0412808
-0.0333849,0.57467,-0.793196,4.68864,5.68718,9.49041,3,0.0289921,0.00603294,19,52.292,0.0297019
0.621259,0.347544,-0.676024,4.73178,5.62998,9.51249,4,0.0187339,0.00389832,26,76.4163,0.0292472
-0.397235,0.746686,-0.51367,4.67026,5.69568,9.51267,5,0.0183735,0.00382333,34,69.5448,0.0450527
-0.876979,-0.209097,-0.382972,4.56187,5.55099,9.54445,6,0.0328558,0.00683694,43,59.3202,0.0300257
0.879876,-0.138171,-0.391388,4.7388,5.61646,9.5071,7,0.0189922,0.00395208,53,88.4991,0.0266514
0.366762,0.875414,-0.259856,4.75479,5.63947,9.50412,8,0.0163702,0.00340647,64,85.2031,0.0522516
-0.906915,0.265485,-0.258304,4.56978,5.59856,9.52196,9,0.0411186,0.00855635,76,88.2543,0.0605029
-0.874599,-0.445592,0.0183892,4.59608,5.47417,9.56386,10,0.0523566,0.0108948,89,104.762,0.0443971
-0.369807,0.906882,-0.0532803,4.64633,5.65828,9.5652,11,0.0321631,0.0066928,103,122.355,0.0761536
-0.653599,0.628243,0.274189,4.59409,5.62817,9.58541,12,0.0812595,0.0169092,118,101.141,0.0604875
0.936934,0.111878,0.257725,4.75102,5.62605,9.6087,13,0.0523336,0.0108901,134,119.34,0.0342058
0.515138,0.765892,0.318602,4.72439,5.70247,9.59052,14,0.0224653,0.00467479,151,105.562,0.0621563
-0.508553,-0.69862,0.437287,4.63209,5.46131,9.60915,15,0.0548833,0.0114206,169,116.847,0.042537
0.710151,-0.265597,0.616402,4.7208,5.53031,9.65081,16,0.0302468,0.00629403,188,135.987,0.0449156
-0.749753,0.164251,0.62081,4.61836,5.57024,9.63829,17,0.0327102,0.00680664,208,132.187,0.0362784
0.135986,-0.462421,0.838512,4.66108,5.50147,9.66856,18,0.0242879,0.00505405,229,175.475,0.0710943
-0.155722,0.309516,0.88509,4.66671,5.6363,9.63923,19,0.0705458,0.0146798,251,142.356,0.0498881
-0.463837,-0.219488,0.841474,4.59697,5.53553,9.63152,20,0.0382655,0.00796263,18,27.6679,0.0297611
,,,,,,,,,25,63.6448,0.0232318
,,,,,,,,,33,33.7825,0.0229527
,,,,,,,,,42,50.2463,0.0316728
,,,,,,,,,52,93.3196,0.0234294
,,,,,,,,,63,70.3733,0.0213229
,,,,,,,,,75,47.0289,0.0350696
,,,,,,,,,88,77.7217,0.038603
,,,,,,,,,102,62.1404,0.0313474
,,,,,,,,,117,77.2908,0.0444288
,,,,,,,,,133,125.653,0.0385968
,,,,,,,,,150,105.626,0.0258991
,,,,,,,,,168,112.841,0.0392695
,,,,,,,,,187,156.91,0.0304086
,,,,,,,,,207,100.965,0.031605
,,,,,,,,,228,161.335,0.0270701
,,,,,,,,,250,130.338,0.0426578
,,,,,,,,,273,127.937,0.0339888
,,,,,,,,,32,41.9827,0.0227605
,,,,,,,,,41,28.8063,0.0224925
,,,,,,,,,51,77.1877,0.0308032
,,,,,,,,,62,77.7889,0.0229502
,,,,,,,,,74,43.7272,0.0209252
,,,,,,,,,87,66.1816,0.0340066
,,,,,,,,,101,104.534,0.037319
,,,,,,,,,116,53.2046,0.0304954
,,,,,,,,,132,79.738,0.0427365
,,,,,,,,,149,100.3,0.0373132
,,,,,,,,,167,79.754,0.0253148
,,,,,,,,,186,140.402,0.0379415
,,,,,,,,,206,134.002,0.0296061
,,,,,,,,,227,112.677,0.0307391
,,,,,,,,,249,170.682,0.0264323
,,,,,,,,,272,123.857,0.0410953
,,,,,,,,,296,143.662,0.0329894
,,,,,,,,,50,68.2501,0.0185519
,,,,,,,,,61,111.896,0.023862
,,,,,,,,,73,36.9555,0.0188622
,,,,,,,,,86,42.8931,0.0174725
,,,,,,,,,100,107.959,0.0257403
,,,,,,,,,115,137.506,0.0275942
,,,,,,,,,131,82.7537,0.0236768
,,,,,,,,,148,113.655,0.0304481
,,,,,,,,,166,62.2757,0.027591
,,,,,,,,,185,67.2414,0.0204306
,,,,,,,,,205,153.977,0.027933
,,,,,,,,,226,94.0542,0.0231373
,,,,,,,,,248,148.736,0.0238235
,,,,,,,,,271,132.633,0.0211524
,,,,,,,,,295,129.023,0.0296057
,,,,,,,,,320,164.705,0.0251533
,,,,,,,,,72,66.3416,0.0235676
,,,,,,,,,85,105.153,0.0186778
,,,,,,,,,99,48.7974,0.0173141
,,,,,,,,,114,44.5208,0.0253981
,,,,,,,,,130,89.6899,0.0272013
,,,,,,,,,147,28.689,0.023387
,,,,,,,,,165,51.1514,0.0299704
,,,,,,,,,184,115.784,0.0271982
,,,,,,,,,204,77.8362,0.0202144
,,,,,,,,,225,124.605,0.0275305
,,,,,,,,,247,145.518,0.0228604
,,,,,,,,,270,84.0311,0.0235301
,,,,,,,,,294,150.142,0.0209207
,,,,,,,,,319,99.898,0.0291539
,,,,,,,,,345,114.981,0.0248264
,,,,,,,,,98,128.471,0.0240705
,,,,,,,,,113,114.856,0.0218526
,,,,,,,,,129,29.0639,0.0365257
,,,,,,,,,146,27.4813,0.0403748
,,,,,,,,,164,80.7103,0.0325058
,,,,,,,,,183,68.7121,0.0467921
,,,,,,,,,203,170.066,0.040368
,,,,,,,,,224,140.115,0.0266848
,,,,,,,,,246,63.4108,0.0411045
,,,,,,,,,269,147.065,0.0314974
,,,,,,,,,293,66.5102,0.0327828
,,,,,,,,,318,111.271,0.0279295
,,,,,,,,,344,106.673,0.0448318
,,,,,,,,,371,82.2367,0.0353549
,,,,,,,,,128,71.5203,0.017584
,,,,,,,,,145,140.326,0.0259831
,,,,,,,,,163,138.486,0.0278734
,,,,,,,,,182,116.773,0.0238821
,,,,,,,,,202,146.595,0.0307885
,,,,,,,,,223,41.9212,0.0278702
,,,,,,,,,245,76.4396,0.0205833
,,,,,,,,,268,123.65,0.0282193
,,,,,,,,,292,63.7607,0.0233333
,,,,,,,,,317,164.479,0.0240313
,,,,,,,,,343,98.8426,0.0213161
,,,,,,,,,370,124.684,0.0299274
,,,,,,,,,398,137.518,0.0253851
,,,,,,,,,162,91.9671,0.0234175
,,,,,,,,,181,137.794,0.0249419
,,,,,,,,,201,45.8659,0.0216972
,,,,,,,,,222,75.1414,0.0272507
,,,,,,,,,244,67.0973,0.0249393
,,,,,,,,,267,36.0778,0.0189395
,,,,,,,,,291,163.071,0.0252185
,,,,,,,,,316,97.9038,0.0212432
,,,,,,,,,342,107.524,0.0218202
,,,,,,,,,369,127.003,0.0195581
,,,,,,,,,397,90.9896,0.026574
,,,,,,,,,426,126.795,0.0229306
,,,,,,,,,200,45.8301,0.0460621
,,,,,,,,,221,52.1253,0.0360937
,,,,,,,,,243,42.0741,0.0546058
,,,,,,,,,266,157.703,0.0460532
,,,,,,,,,290,111.215,0.0290559
,,,,,,,,,315,80.1202,0.0470142
,,,,,,,,,341,155.895,0.0348546
,,,,,,,,,368,54.3816,0.0364356
,,,,,,,,,396,119.231,0.0305378
,,,,,,,,,425,90.3215,0.0519547
,,,,,,,,,455,81.3608,0.0396408
,,,,,,,,,242,94.8639,0.0398475
,,,,,,,,,265,71.3897,0.063682
,,,,,,,,,289,154.198,0.0523451
,,,,,,,,,314,145.073,0.0314402
,,,,,,,,,340,36.517,0.0535901
,,,,,,,,,367,120.815,0.0383427
,,,,,,,,,395,52.2028,0.0402647
,,,,,,,,,424,83.8006,0.0331826
,,,,,,,,,454,89.1064,0.0601052
,,,,,,,,,485,57.5661,0.0442155
,,,,,,,,,288,30.9342,0.0460853
,,,,,,,,,313,105.647,0.0398409
,,,,,,,,,339,59.43,0.0264534
,,,,,,,,,366,119.573,0.0405581
,,,,,,,,,394,124.028,0.0311755
,,,,,,,,,423,66.0441,0.0324343
,,,,,,,,,453,122.832,0.0276762
,,,,,,,,,484,71.8037,0.0441826
,,,,,,,,,516,94.2924,0.0349499
,,,,,,,,,338,120.588,0.063665
,,,,,,,,,365,75.4827,0.0351993
,,,,,,,,,393,89.1638,0.0655163
,,,,,,,,,422,119.947,0.0440843
,,,,,,,,,452,35.2607,0.0466442
,,,,,,,,,483,99.3917,0.0373978
,,,,,,,,,515,53.2281,0.0755246
,,,,,,,,,548,64.8994,0.0520298
,,,,,,,,,392,47.0774,0.031436
,,,,,,,,,421,117.809,0.0535781
,,,,,,,,,451,33.7718,0.0383365
,,,,,,,,,482,122.872,0.0402579
,,,,,,,,,514,72.0359,0.033178
,,,,,,,,,547,82.7807,0.06009
,,,,,,,,,581,104.555,0.0442073
,,,,,,,,,450,134.068,0.0318809
,,,,,,,,,481,67.9114,0.0257817
,,,,,,,,,513,93.7257,0.0266366
,,,,,,,,,546,91.0291,0.0233411
,,,,,,,,,580,61.7826,0.0340784
,,,,,,,,,615,98.3014,0.02831
,,,,,,,,,512,84.3026,0.0390001
,,,,,,,,,545,55.7537,0.0409903
,,,,,,,,,579,48.507,0.0336739
,,,,,,,,,614,74.2414,0.0617366
,,,,,,,,,650,37.5073,0.045092
,,,,,,,,,578,101.566,0.0314303
,,,,,,,,,613,38.827,0.0269418
,,,,,,,,,649,67.6765,0.0423401
,,,,,,,,,686,75.103,0.0337869
,,,,,,,,,648,68.9686,0.0278768
,,,,,,,,,685,40.1627,0.044696
,,,,,,,,,723,30.986,0.0352704
,,,,,,,,,722,51.0539,0.036135
,,,,,,,,,761,38.6936,0.029715
,,,,,,,,,800,36.9071,0.0496174
