"cellPairingIds","interplanarAngles","angleWeights"
8,47.993,0.0303957
13,62.3208,0.0405382
19,37.6234,0.0867148
26,81.5688,0.0732989
34,56.927,0.0178031
64,96.0197,0.101248
76,110.193,0.0598021
89,102.806,0.0294877
18,33.1391,0.0219544
52,64.2751,0.0227419
102,71.6674,0.0182504
41,27.3895,0.038034
62,49.5802,0.0279795
74,64.5084,0.0357924
61,50.1731,0.0179587
131,75.7739,0.0299169
166,73.1675,0.0980472
99,42.9564,0.0591241
130,43.2983,0.0545078
129,71.3538,0.0185089
203,46.2983,0.0182359
128,34.0128,0.0379338
182,68.0744,0.0222297
181,34.2864,0.0500185
201,95.0809,0.0268938
267,62.9708,0.047839
200,46.0143,0.0685874
266,82.0028,0.117044
290,72.8089,0.0645545
314,68.594,0.044771
313,89.1072,0.0306941
339,87.659,0.0252994
392,71.0362,0.0613505
