"cellPairingIds","interplanarAngles","angleWeights"
8,58.3723,0.0440937
19,69.7266,0.0435611
89,104.817,0.0223455
18,38.9688,0.0421444
25,109.243,0.0655997
33,97.4777,0.0394984
42,81.9959,0.0487447
52,67.7256,0.0666035
102,101.504,0.0269983
62,59.0637,0.0420602
116,63.1333,0.0218338
50,41.6248,0.0390705
131,137.481,0.0267977
205,93.1854,0.0272264
72,37.2456,0.0323983
225,82.9113,0.0213663
98,56.3578,0.048632
246,78.4715,0.0238094
182,83.3466,0.0269637
245,77.7002,0.0375728
268,78.9648,0.0273977
339,22.5025,0.0205591
366,75.0179,0.0170868
450,52.6869,0.0208105
