facetNormals:0,facetNormals:1,facetNormals:2,FacetCenters:0,FacetCenters:1,FacetCenters:2,FacetIds,relFacetSize,absFacetSize,cellPairingIds,interplanarAngles,angleWeights
0.349118,0.0399542,-0.88522,4.89797,4.40488,6.88969,1,0.107655,0.008618,8,57.4312,0.0781843
-0.219751,0.711033,-0.612995,4.86616,4.42551,6.88378,2,0.0613812,0.00491371,13,63.9503,0.0842967
-0.63857,0.111222,-0.696297,4.88745,4.38919,6.89984,3,0.0692677,0.00554504,19,47.9486,0.0180889
0.507928,-0.653374,-0.542128,4.84299,4.36579,6.92627,4,0.00987401,0.000790438,26,61.6173,0.0313023
0.658504,-0.662832,-0.267229,4.90764,4.3964,6.93386,5,0.0183136,0.00146605,34,102.268,0.0162078
-0.975004,0.126038,-0.15143,4.89018,4.34186,6.95933,6,0.0087636,0.000701547,43,89.2695,0.0402618
0.286792,0.895857,0.140496,4.88725,4.41148,6.89533,7,0.0247611,0.00198218,53,95.1808,0.104201
0.855778,-0.190208,0.42351,4.93146,4.38448,6.94564,8,0.100962,0.00808223,64,145.983,0.0451313
-0.791703,-0.161453,0.554294,4.82888,4.36213,6.94546,9,0.0285501,0.0022855,76,137.824,0.157034
-0.485563,0.573609,0.60233,4.86537,4.40342,6.94375,10,0.290095,0.0232228,18,45.2057,0.0650864
,,,,,,,,,25,104.812,0.0170115
,,,,,,,,,33,118.856,0.0282104
,,,,,,,,,42,65.5668,0.0153374
,,,,,,,,,52,57.8598,0.0352874
,,,,,,,,,63,128.387,0.0763465
,,,,,,,,,75,107.278,0.0389728
,,,,,,,,,88,80.9959,0.101323
,,,,,,,,,32,91.1893,0.0172842
,,,,,,,,,41,109.471,0.0289684
,,,,,,,,,51,38.353,0.0155587
,,,,,,,,,62,101.561,0.0364813
,,,,,,,,,74,158.632,0.0821643
,,,,,,,,,87,83.7395,0.0404343
,,,,,,,,,101,92.8489,0.111832
,,,,,,,,,50,18.3735,0.0128304
,,,,,,,,,61,120.231,0.00928573
,,,,,,,,,73,123.244,0.0141181
,,,,,,,,,86,70.0055,0.0179887
,,,,,,,,,100,128.024,0.0146733
,,,,,,,,,115,174.187,0.019098
,,,,,,,,,72,135.134,0.0118545
,,,,,,,,,85,118.604,0.0210548
,,,,,,,,,99,52.4647,0.0310035
,,,,,,,,,114,126.205,0.0223139
,,,,,,,,,130,156.9,0.0344523
,,,,,,,,,98,101.461,0.0129455
,,,,,,,,,113,162.278,0.0161273
,,,,,,,,,129,46.7659,0.0134107
,,,,,,,,,146,61.6781,0.0170132
,,,,,,,,,128,81.646,0.0397689
,,,,,,,,,145,108.378,0.026521
,,,,,,,,,163,59.9104,0.0456277
,,,,,,,,,162,115.591,0.0445128
,,,,,,,,,181,106.706,0.149792
,,,,,,,,,200,48.4711,0.0519841
