facetNormals:0,facetNormals:1,facetNormals:2,FacetCenters:0,FacetCenters:1,FacetCenters:2,FacetIds,relFacetSize,absFacetSize,cellPairingIds,interplanarAngles,angleWeights
0.421938,-0.0975686,-0.863304,5.10656,5.20086,9.3639,1,0.0316761,0.0131012,8,60.7884,0.0259446
-0.250646,0.597512,-0.718157,5.0199,5.27921,9.29412,2,0.0219695,0.00908659,13,75.2146,0.0346303
-0.712522,-0.122065,-0.60327,4.97105,5.23914,9.3176,3,0.0381922,0.0157963,19,62.4462,0.051103
-0.0191457,-0.840687,-0.395197,5.04892,5.14762,9.37883,4,0.132151,0.0546576,26,52.1381,0.0510487
0.878793,0.235227,-0.243791,5.11334,5.28938,9.38796,5,0.131428,0.0543586,34,112.908,0.045161
-0.827875,-0.506664,0.076641,4.97222,5.21849,9.42484,6,0.0786381,0.0325247,43,100.279,0.0395404
0.229365,-0.851567,0.401819,5.0914,5.13092,9.52013,7,0.0525993,0.0217551,53,121.776,0.0262436
-0.35241,-0.766833,0.489081,5.05194,5.19175,9.49071,8,0.0224017,0.00926535,64,117.837,0.047636
0.482934,0.399341,0.670249,5.11144,5.26676,9.50828,9,0.0960105,0.03971,76,151.781,0.0344453
-0.7286,-0.163365,0.617615,5.0237,5.28146,9.49741,10,0.037745,0.0156113,89,113.036,0.0364841
0.498174,-0.423015,0.715551,5.13113,5.22074,9.53613,11,0.0430129,0.0177902,103,152.803,0.0434724
-0.542229,0.461696,0.626948,4.99427,5.27309,9.52471,12,0.0692682,0.0286493,18,53.7207,0.0278936
,,,,,,,,,25,103.756,0.0376756
,,,,,,,,,33,83.9911,0.0376461
,,,,,,,,,42,99.1819,0.0343441
,,,,,,,,,52,155.777,0.0309937
,,,,,,,,,63,139.845,0.0221835
,,,,,,,,,75,114.197,0.035757
,,,,,,,,,88,112.49,0.0277735
,,,,,,,,,102,162.003,0.0290839
,,,,,,,,,117,92.4025,0.0333588
,,,,,,,,,32,66.0829,0.0592584
,,,,,,,,,41,124.934,0.0591854
,,,,,,,,,51,48.6626,0.0514141
,,,,,,,,,62,109.32,0.0442526
,,,,,,,,,74,86.9007,0.0282395
,,,,,,,,,87,157.329,0.0546464
,,,,,,,,,101,79.4855,0.0379673
,,,,,,,,,116,143.661,0.0404594
,,,,,,,,,132,93.0945,0.0492368
,,,,,,,,,50,97.7649,0.131788
,,,,,,,,,61,62.9425,0.0986019
,,,,,,,,,73,52.1348,0.0752481
,,,,,,,,,86,59.6355,0.0383094
,,,,,,,,,100,135.67,0.111218
,,,,,,,,,115,95.9155,0.0587188
,,,,,,,,,131,85.9686,0.0649015
,,,,,,,,,148,135.199,0.0908936
,,,,,,,,,72,160.688,0.0984
,,,,,,,,,85,96.0818,0.0751304
,,,,,,,,,99,131.548,0.0382789
,,,,,,,,,114,65.7504,0.110962
,,,,,,,,,130,155.32,0.0586471
,,,,,,,,,147,79.6587,0.064814
,,,,,,,,,165,125.644,0.090722
,,,,,,,,,98,73.2227,0.0630356
,,,,,,,,,113,40.9061,0.03487
,,,,,,,,,129,128.062,0.0864603
,,,,,,,,,146,38.9918,0.0510073
,,,,,,,,,164,98.7331,0.0556092
,,,,,,,,,183,73.4578,0.0736564
,,,,,,,,,128,35.5928,0.0314213
,,,,,,,,,145,87.4205,0.0679644
,,,,,,,,,163,76.4411,0.043951
,,,,,,,,,182,35.7714,0.0473256
,,,,,,,,,202,106.79,0.0597938
,,,,,,,,,162,99.558,0.0363273
,,,,,,,,,181,43.6331,0.0281164
,,,,,,,,,201,58.152,0.0294602
,,,,,,,,,222,81.0693,0.0338547
,,,,,,,,,200,90.2028,0.0541872
,,,,,,,,,221,51.6881,0.05941
,,,,,,,,,243,66.8172,0.0804759
,,,,,,,,,242,80.9277,0.0402072
,,,,,,,,,265,39.7526,0.0488637
,,,,,,,,,288,91.0479,0.0530709
