"cellPairingIds","interplanarAngles","angleWeights"
13,67.594,0.0418202
26,89.7144,0.0644955
34,84.6796,0.0659575
89,110.689,0.0515093
103,126.777,0.0613101
41,73.0863,0.0377186
132,116.282,0.0366063
149,104.134,0.030321
72,58.1907,0.0563015
184,100.906,0.0406943
204,103.736,0.067414
164,70.3148,0.0461457
224,77.3882,0.069013
288,51.4583,0.0438217
339,36.7746,0.0533541
338,43.3149,0.0394026
365,47.2986,0.0639416
392,41.5126,0.046944
