Q	U	V
{$V$}	{[mm$^3$]}	0.00171705
{$d_v$}	{[mm]}	0.148569
{$S_c$}	{[mm$^2$]}	0.0927074
{$S_o$}	{[mm$^2$]}	0.0660287
{$S_l/S_o$}	[]	0.404047
{$\Psi$}	[]	0.747983
{$\eta$}	[]	0.775383
{med($\theta_e$)}	{[$^\circ$]}	53.6926
{$\Upsilon$}	[]	15
{$\Xi$}	[]	8
