"cellPairingIds","interplanarAngles","angleWeights"
8,48.8032,0.0326302
13,27.7291,0.0412122
43,63.9678,0.0371252
64,89.1823,0.0083409
76,75.6369,0.0496377
25,65.6659,0.0469811
42,24.4929,0.0380734
52,99.5612,0.0464204
88,39.6635,0.0677859
87,81.5479,0.00924936
101,72.3274,0.119467
50,36.4018,0.0319781
61,48.0173,0.0448482
73,69.4663,0.0569004
131,85.1547,0.0266985
148,57.0211,0.061753
85,36.715,0.0317173
147,62.4431,0.0194517
146,46.9611,0.0634333
183,50.7158,0.0472289
145,47.2272,0.00902634
182,68.6495,0.0265165
200,148.811,0.00961567
221,52.4039,0.007653
266,142.12,0.00946341
265,65.5594,0.103512
289,32.4193,0.168777
288,91.2972,0.0275244
313,120.519,0.0306789
338,53.2588,0.0882311
