facetNormals:0,facetNormals:1,facetNormals:2,FacetCenters:0,FacetCenters:1,FacetCenters:2,FacetIds,relFacetSize,absFacetSize,cellPairingIds,interplanarAngles,angleWeights
-0.0396226,0.17011,-0.975544,3.53938,5.93256,8.8047,1,0.0149195,0.00292821,8,25.719,0.0211081
-0.390244,-0.0860495,-0.902688,3.48559,5.87283,8.81744,2,0.0360696,0.00707929,13,44.8209,0.0136832
0.2304,0.75844,-0.58851,3.56845,5.98309,8.84734,3,0.012636,0.00248004,19,64.8361,0.0141094
0.249541,-0.764622,-0.569075,3.50664,5.79655,8.85096,4,0.0133827,0.00262658,26,59.9341,0.0245549
-0.771815,-0.30249,-0.519251,3.42886,5.8343,8.8899,5,0.0693295,0.0136071,34,44.735,0.0232176
-0.616402,0.462124,-0.598335,3.45683,5.93198,8.91985,6,0.0523143,0.0102676,43,75.2175,0.0201863
-0.957977,0.110527,-0.19694,3.40315,5.88555,8.96371,7,0.0312003,0.00612361,53,109.515,0.0253831
0.28965,-0.906626,0.157542,3.48072,5.78812,8.96157,8,0.0849876,0.0166803,64,91.8516,0.0184884
-0.978797,-0.161637,0.0441647,3.40111,5.83485,8.98747,9,0.0243015,0.00476959,76,112.687,0.0131971
-0.382396,-0.87464,0.249628,3.45455,5.81603,9.00784,10,0.0118312,0.00232207,89,84.5418,0.0275517
-0.342617,0.88742,0.0764397,3.48506,5.94982,8.95583,11,0.17971,0.0352713,103,107.562,0.018349
0.789359,-0.558793,0.171587,3.53569,5.84134,8.99851,12,0.0238255,0.00467617,118,112.269,0.0210839
-0.867942,0.108599,0.429315,3.41007,5.86918,9.03152,13,0.0359286,0.0070516,134,122.616,0.0213482
0.833047,0.0549623,0.512024,3.5583,5.92502,8.98892,14,0.0375117,0.00736233,151,143.927,0.0221026
0.500115,-0.465343,0.704074,3.47955,5.8569,9.06241,15,0.0426246,0.00836581,169,159.331,0.018197
0.0266865,-0.497399,0.842409,3.46864,5.84967,9.06095,16,0.0233197,0.00457689,188,147.874,0.0227305
0.445051,0.166415,0.844947,3.49808,5.91461,9.06331,17,0.0477075,0.00936342,18,67.3025,0.0187156
,,,,,,,,,25,60.2862,0.0195222
,,,,,,,,,33,34.4856,0.0474518
,,,,,,,,,42,39.7008,0.0426991
,,,,,,,,,52,56.0865,0.0334588
,,,,,,,,,63,100.725,0.050645
,,,,,,,,,75,68.7055,0.0290386
,,,,,,,,,88,90.0497,0.0178179
,,,,,,,,,102,90.7091,0.0600805
,,,,,,,,,117,115.33,0.0286961
,,,,,,,,,133,93.4672,0.035999
,,,,,,,,,150,145.005,0.0367766
,,,,,,,,,168,144.731,0.0390741
,,,,,,,,,187,138.901,0.028326
,,,,,,,,,207,173.454,0.0410802
,,,,,,,,,32,101.115,0.0129986
,,,,,,,,,41,96.0429,0.021376
,,,,,,,,,51,54.3996,0.0203554
,,,,,,,,,62,91.2377,0.0179873
,,,,,,,,,74,138.526,0.0220009
,,,,,,,,,87,112.432,0.0166267
,,,,,,,,,101,157.259,0.0122204
,,,,,,,,,116,54.3493,0.0236118
,,,,,,,,,132,110.71,0.0165138
,,,,,,,,,149,112.638,0.0186965
,,,,,,,,,167,94.0158,0.0189041
,,,,,,,,,186,132.32,0.0194933
,,,,,,,,,206,153.794,0.0163906
,,,,,,,,,227,106.294,0.01998
,,,,,,,,,50,69.7115,0.0224348
,,,,,,,,,61,99.9866,0.0213132
,,,,,,,,,73,102.597,0.0187311
,,,,,,,,,86,44.6805,0.0231241
,,,,,,,,,100,98.5694,0.0172602
,,,,,,,,,115,63.6633,0.0125592
,,,,,,,,,131,149.186,0.0249103
,,,,,,,,,148,57.0344,0.0171387
,,,,,,,,,166,124.512,0.0195014
,,,,,,,,,185,97.4746,0.0197274
,,,,,,,,,205,85.2559,0.0203699
,,,,,,,,,226,95.4996,0.017006
,,,,,,,,,248,121.358,0.020902
,,,,,,,,,72,47.3351,0.0596319
,,,,,,,,,85,32.915,0.0430341
,,,,,,,,,99,91.8895,0.0763642
,,,,,,,,,114,36.4427,0.0359883
,,,,,,,,,130,63.5368,0.020213
,,,,,,,,,147,92.6826,0.100058
,,,,,,,,,165,123.429,0.0354637
,,,,,,,,,184,64.2472,0.0473296
,,,,,,,,,204,165.025,0.0486829
,,,,,,,,,225,129.535,0.052792
,,,,,,,,,247,108.74,0.0349003
,,,,,,,,,270,151.407,0.0565212
,,,,,,,,,98,37.722,0.0390883
,,,,,,,,,113,137.317,0.0647634
,,,,,,,,,129,58.7712,0.0331868
,,,,,,,,,146,109.283,0.019298
,,,,,,,,,164,51.8101,0.0810381
,,,,,,,,,183,152.19,0.0327402
,,,,,,,,,203,69.7925,0.0426001
,,,,,,,,,224,146.264,0.0436933
,,,,,,,,,246,170.788,0.046975
,,,,,,,,,269,141.814,0.0322594
,,,,,,,,,293,138.025,0.0499048
,,,,,,,,,128,115.496,0.045644
,,,,,,,,,145,21.2218,0.0273222
,,,,,,,,,163,76.8766,0.0171566
,,,,,,,,,182,64.0344,0.0531697
,,,,,,,,,202,151.768,0.0270187
,,,,,,,,,223,37.6885,0.0333979
,,,,,,,,,245,157.852,0.0340662
,,,,,,,,,268,133.874,0.0360285
,,,,,,,,,292,104.824,0.0266904
,,,,,,,,,317,127.013,0.0377273
,,,,,,,,,162,97.7994,0.0377957
,,,,,,,,,181,40.71,0.0207708
,,,,,,,,,201,165.604,0.115401
,,,,,,,,,222,36.4423,0.0372175
,,,,,,,,,244,107.472,0.0505058
,,,,,,,,,267,73.2605,0.0520498
,,,,,,,,,291,44.2705,0.0567745
,,,,,,,,,316,51.2154,0.0365974
,,,,,,,,,342,83.1742,0.0611107
,,,,,,,,,200,57.4836,0.0159144
,,,,,,,,,221,78.1079,0.0428135
,,,,,,,,,243,133.768,0.0240612
,,,,,,,,,266,28.4252,0.0289928
,,,,,,,,,290,145.516,0.029495
,,,,,,,,,315,113.164,0.0309548
,,,,,,,,,341,84.5986,0.0238005
,,,,,,,,,368,116.213,0.0322005
,,,,,,,,,242,131.674,0.0222008
,,,,,,,,,265,76.288,0.015811
,,,,,,,,,289,69.0291,0.0178006
,,,,,,,,,314,104.308,0.0179887
,,,,,,,,,340,66.1409,0.0185214
,,,,,,,,,367,48.8722,0.015698
,,,,,,,,,395,96.2915,0.0189603
,,,,,,,,,288,143.469,0.0420731
,,,,,,,,,313,62.6952,0.0598847
,,,,,,,,,339,102.199,0.0620678
,,,,,,,,,366,124.516,0.0689058
,,,,,,,,,394,114.422,0.0412824
,,,,,,,,,423,86.2946,0.0753989
,,,,,,,,,338,134.611,0.0286513
,,,,,,,,,365,42.0143,0.0291417
,,,,,,,,,393,36.3967,0.0305659
,,,,,,,,,422,62.5208,0.0235699
,,,,,,,,,452,64.9405,0.0317799
,,,,,,,,,392,121.404,0.0367031
,,,,,,,,,421,100.997,0.0389912
,,,,,,,,,451,72.643,0.0282824
,,,,,,,,,482,90.331,0.0409886
,,,,,,,,,450,38.5343,0.0399051
,,,,,,,,,481,63.596,0.0287602
,,,,,,,,,513,31.146,0.0419997
,,,,,,,,,512,29.2175,0.0301464
,,,,,,,,,545,38.9044,0.045023
,,,,,,,,,578,47.5028,0.0313267
