Q	U	V
{$V$}	{[mm$^3$]}	0.00588142
{$d_v$}	{[mm]}	0.223955
{$S_c$}	{[mm$^2$]}	0.243691
{$S_o$}	{[mm$^2$]}	0.156865
{$S_l/S_o$}	[]	0.553508
{$\Psi$}	[]	0.646596
{$\eta$}	[]	0.654025
{med($\theta_e$)}	{[$^\circ$]}	66.0009
{$\Upsilon$}	[]	11
{$\Xi$}	[]	11
