Q	U	V
{$V$}	{[mm$^3$]}	0.0121464
{$d_v$}	{[mm]}	0.285200
{$S_c$}	{[mm$^2$]}	0.416432
{$S_o$}	{[mm$^2$]}	0.289174
{$S_l/S_o$}	[]	0.440074
{$\Psi$}	[]	0.613628
{$\eta$}	[]	0.654200
{med($\theta_e$)}	{[$^\circ$]}	71.3386
{$\Upsilon$}	[]	9
{$\Xi$}	[]	10
