"cellPairingIds","interplanarAngles","angleWeights"
8,46.1977,0.0450712
13,59.3298,0.0268691
19,79.1892,0.0647013
26,45.4754,0.031981
34,55.1333,0.0602911
33,45.8167,0.0313441
42,32.2786,0.0580665
52,34.9342,0.0363932
32,90.2799,0.0321322
41,41.8175,0.0213064
116,85.6303,0.0240127
132,93.5583,0.0332787
61,96.6526,0.0953274
86,78.1383,0.0806025
115,74.688,0.0445591
131,83.2682,0.0502945
85,54.3469,0.027353
165,84.7103,0.0414932
98,55.5415,0.0457106
113,55.8462,0.0738709
129,58.6148,0.0815224
145,54.8759,0.0443998
202,59.433,0.0508284
162,41.8553,0.0705071
181,51.8633,0.0392325
200,65.1746,0.0412908
243,66.9106,0.0993657
290,46.1516,0.0278579
242,56.3516,0.0303349
289,29.8557,0.0160384
314,30.868,0.0211853
288,66.0129,0.0531612
313,34.8054,0.0167248
366,33.6658,0.0185507
365,54.7383,0.0302591
393,35.638,0.0236346
392,26.9143,0.0135083
421,25.9298,0.012006
450,40.0058,0.0146749
