facetNormals:0,facetNormals:1,facetNormals:2,FacetCenters:0,FacetCenters:1,FacetCenters:2,FacetIds,relFacetSize,absFacetSize,cellPairingIds,interplanarAngles,angleWeights
-0.100355,0.0245624,-0.993753,5.30505,5.41547,8.70584,1,0.0125661,0.00437872,8,26.1908,0.0211506
0.27747,0.228193,-0.879359,5.33044,5.44477,8.71523,2,0.0667504,0.0232594,13,54.8859,0.0187537
-0.0454392,-0.781483,-0.577178,5.22659,5.37582,8.73698,3,0.0369457,0.0128738,19,36.7372,0.0207759
-0.529534,-0.31934,-0.717717,5.25762,5.37816,8.71342,4,0.0599285,0.0208823,26,69.9498,0.0164111
0.120545,0.913587,-0.326586,5.29942,5.53109,8.74373,5,0.0236463,0.00823963,34,75.4612,0.0228412
0.817582,0.272978,-0.306726,5.30785,5.49255,8.7405,6,0.125282,0.0436548,43,105.115,0.0229438
-0.260433,-0.888835,0.256271,5.2463,5.302,8.86824,7,0.131741,0.0459056,53,108.523,0.01366
0.758186,0.59167,0.255922,5.38773,5.46393,8.8242,8,0.0149626,0.00521375,64,114.116,0.0210323
0.89452,-0.159722,0.298628,5.38623,5.36635,8.84286,9,0.0644618,0.0224619,76,150.412,0.0232203
0.293842,0.409545,0.827782,5.26731,5.44897,8.90563,10,0.152607,0.0531766,18,69.9585,0.0475648
,,,,,,,,,25,62.8014,0.0631558
,,,,,,,,,33,55.2685,0.0349216
,,,,,,,,,42,49.9794,0.0870959
,,,,,,,,,52,123.244,0.088606
,,,,,,,,,63,82.6865,0.0244455
,,,,,,,,,75,93.2081,0.0655862
,,,,,,,,,88,126.913,0.0928766
,,,,,,,,,32,41.707,0.0457108
,,,,,,,,,41,123.943,0.0288364
,,,,,,,,,51,94.7344,0.0570633
,,,,,,,,,62,53.3033,0.0577077
,,,,,,,,,74,131.752,0.0212992
,,,,,,,,,87,95.4398,0.0469706
,,,,,,,,,101,149.382,0.0594893
,,,,,,,,,50,97.5179,0.0339118
,,,,,,,,,61,110.248,0.0810749
,,,,,,,,,73,74.8577,0.0823818
,,,,,,,,,86,145.191,0.0239463
,,,,,,,,,100,134.667,0.0621126
,,,,,,,,,115,163.532,0.0860611
,,,,,,,,,72,59.9345,0.0397836
,,,,,,,,,85,170.672,0.0400957
,,,,,,,,,99,55.6954,0.0183279
,,,,,,,,,114,98.3389,0.0346003
,,,,,,,,,130,81.5501,0.0409478
,,,,,,,,,98,127.412,0.12843
,,,,,,,,,113,39.4676,0.0267324
,,,,,,,,,129,47.059,0.0851242
,,,,,,,,,146,83.6458,0.137601
,,,,,,,,,128,133.453,0.026873
,,,,,,,,,145,90.9018,0.0865662
,,,,,,,,,163,104.196,0.141409
,,,,,,,,,162,46.092,0.0242876
,,,,,,,,,181,45.424,0.0272531
,,,,,,,,,200,61.3375,0.0906379
