"cellPairingIds","interplanarAngles","angleWeights"
8,43.2196,0.023273
19,46.9165,0.0235414
34,44.1736,0.020177
53,71.3613,0.0213538
18,90.018,0.0686771
25,86.8007,0.109022
33,120.874,0.0443193
42,59.9411,0.0615176
117,103.723,0.0932166
150,136.773,0.0458232
32,91.6868,0.0710687
41,36.1868,0.036414
50,110.136,0.0453031
73,51.9575,0.0711586
86,57.6695,0.0767217
115,69.3732,0.048041
114,37.7604,0.0414067
130,71.7703,0.0292341
147,63.8476,0.0336931
204,82.5114,0.0287985
113,50.8698,0.0497088
183,50.3595,0.0577341
128,29.9701,0.0543337
163,30.1997,0.038188
223,41.4288,0.0375278
222,43.1947,0.068543
244,37.1549,0.03902
200,37.6679,0.0436821
221,30.4218,0.0544492
242,39.0179,0.0351844
289,49.4155,0.0299318
313,41.5289,0.0346232
339,26.6073,0.0345553
338,30.0273,0.0437992
365,43.856,0.0436905
392,33.1199,0.0294753
