facetNormals:0,facetNormals:1,facetNormals:2,FacetCenters:0,FacetCenters:1,FacetCenters:2,FacetIds,relFacetSize,absFacetSize,cellPairingIds,interplanarAngles,angleWeights
-0.351992,0.411017,-0.812747,3.35229,4.58472,6.99209,1,0.023386,0.00180937,8,53.0921,0.0415124
0.511304,0.345494,-0.744212,3.43472,4.59214,7.01391,2,0.184578,0.0142807,13,25.893,0.0308885
-0.70999,0.353764,-0.568126,3.33783,4.61379,7.02666,3,0.0454786,0.00351866,19,30.1005,0.0272319
-0.0823988,0.789535,-0.598064,3.36987,4.64674,7.0268,4,0.0325916,0.0025216,26,50.0244,0.0350962
0.220349,0.853662,-0.416234,3.42348,4.65533,7.0601,5,0.070296,0.00543877,34,96.613,0.0321108
0.885852,-0.204045,-0.351973,3.47006,4.57553,7.07155,6,0.0512195,0.00396283,43,98.2186,0.0335222
0.938339,0.216705,-0.129908,3.46227,4.6121,7.09282,7,0.0591672,0.00457774,53,139.908,0.0206333
0.661354,-0.67534,0.277431,3.46399,4.55604,7.11277,8,0.0184604,0.00142827,64,88.2423,0.035643
0.238282,0.881367,0.307027,3.43626,4.64183,7.11633,9,0.0748988,0.00579489,76,117.341,0.0192466
-0.417695,-0.794657,0.301595,3.36913,4.57382,7.08318,10,0.0163522,0.00126516,89,81.1488,0.0272948
-0.260165,0.856545,0.366996,3.39578,4.66284,7.1176,11,0.0327724,0.00253559,103,144.199,0.02308
0.821586,-0.176994,0.515203,3.48245,4.57573,7.12396,12,0.0227818,0.00176262,118,87.5045,0.0298582
-0.696988,0.478958,0.492872,3.34567,4.62219,7.10123,13,0.0412836,0.0031941,134,101.504,0.0325521
-0.771615,0.0820863,0.612566,3.35963,4.63307,7.11248,14,0.053535,0.00414198,151,174.148,0.0262321
0.32742,-0.497325,0.769609,3.44807,4.56727,7.14963,15,0.0298669,0.00231079,169,156.169,0.0280354
0.357809,-0.0196388,0.914718,3.45758,4.61157,7.1535,16,0.0349924,0.00270735,188,130.022,0.0330025
-0.352032,0.0104002,0.915679,3.41218,4.61535,7.1575,17,0.0560511,0.00433666,18,78.8749,0.0729763
,,,,,,,,,25,45.3117,0.0554008
,,,,,,,,,33,40.4404,0.101816
,,,,,,,,,42,46.862,0.0801874
,,,,,,,,,52,46.1089,0.0896096
,,,,,,,,,63,96.1264,0.0335639
,,,,,,,,,75,77.7337,0.106558
,,,,,,,,,88,141.102,0.0300428
,,,,,,,,,102,96.7671,0.0556619
,,,,,,,,,117,91.4725,0.0405578
,,,,,,,,,133,126.11,0.0674753
,,,,,,,,,150,149.327,0.0829975
,,,,,,,,,168,127.845,0.0514144
,,,,,,,,,187,122.091,0.0588315
,,,,,,,,,207,154.751,0.0859896
,,,,,,,,,32,45.6755,0.0379714
,,,,,,,,,41,66.3223,0.0552273
,,,,,,,,,51,121.797,0.0481786
,,,,,,,,,62,122.953,0.0514276
,,,,,,,,,74,154.298,0.0262611
,,,,,,,,,87,91.9397,0.0565935
,,,,,,,,,101,99.7135,0.0240551
,,,,,,,,,116,72.7946,0.0380939
,,,,,,,,,132,167.39,0.0303568
,,,,,,,,,149,66.2739,0.0432797
,,,,,,,,,167,76.275,0.049179
,,,,,,,,,186,152.96,0.0360554
,,,,,,,,,206,144.531,0.0395522
,,,,,,,,,227,106.171,0.0502144
,,,,,,,,,50,20.9793,0.0445352
,,,,,,,,,61,91.3953,0.0398354
,,,,,,,,,73,79.7736,0.0420309
,,,,,,,,,86,140.328,0.0235702
,,,,,,,,,100,59.0328,0.0454193
,,,,,,,,,115,145.247,0.0217778
,,,,,,,,,131,60.1768,0.0326818
,,,,,,,,,148,121.75,0.0268178
,,,,,,,,,166,81.6775,0.0364262
,,,,,,,,,185,104.015,0.0405169
,,,,,,,,,205,155.482,0.0311698
,,,,,,,,,226,127.326,0.0337493
,,,,,,,,,248,121.564,0.041217
,,,,,,,,,72,79.8482,0.0592604
,,,,,,,,,85,61.9289,0.0642533
,,,,,,,,,99,124.664,0.0292417
,,,,,,,,,114,43.864,0.0725244
,,,,,,,,,130,166.008,0.0265324
,,,,,,,,,147,56.464,0.0447037
,,,,,,,,,165,101.068,0.0344115
,,,,,,,,,184,86.9884,0.052018
,,,,,,,,,204,111.606,0.0607812
,,,,,,,,,225,135.164,0.0419222
,,,,,,,,,247,109.433,0.0467255
,,,,,,,,,270,118.053,0.0623706
,,,,,,,,,98,28.4683,0.0549072
,,,,,,,,,113,49.3152,0.0271393
,,,,,,,,,129,94.6928,0.0608362
,,,,,,,,,146,109.886,0.02479
,,,,,,,,,164,124.517,0.0399702
,,,,,,,,,183,52.6807,0.0315366
,,,,,,,,,203,158.64,0.0457179
,,,,,,,,,224,161.875,0.0523517
,,,,,,,,,246,82.693,0.0377318
,,,,,,,,,269,90.0588,0.0415788
,,,,,,,,,293,131.705,0.0535265
,,,,,,,,,128,62.759,0.0281408
,,,,,,,,,145,66.403,0.06611
,,,,,,,,,163,130.963,0.0256229
,,,,,,,,,182,96.4847,0.042181
,,,,,,,,,202,45.9834,0.032897
,,,,,,,,,223,130.223,0.0486335
,,,,,,,,,245,144.882,0.0562104
,,,,,,,,,268,83.961,0.0396958
,,,,,,,,,292,77.1288,0.0439764
,,,,,,,,,317,117.962,0.057567
,,,,,,,,,162,111.804,0.0296203
,,,,,,,,,181,68.3571,0.0173424
,,,,,,,,,201,132.893,0.0236174
,,,,,,,,,222,33.9215,0.0203947
,,,,,,,,,244,132.197,0.0255126
,,,,,,,,,267,113.98,0.0274539
,,,,,,,,,291,36.9629,0.0228175
,,,,,,,,,316,58.6381,0.0241699
,,,,,,,,,342,89.1583,0.0277736
,,,,,,,,,200,140.837,0.0268437
,,,,,,,,,221,30.1797,0.0455947
,,,,,,,,,243,77.9673,0.034937
,,,,,,,,,266,64.4009,0.0532282
,,,,,,,,,290,85.3886,0.0624401
,,,,,,,,,315,97.6033,0.0427047
,,,,,,,,,341,68.3716,0.0476997
,,,,,,,,,368,77.3831,0.0641186
,,,,,,,,,242,120.229,0.021818
,,,,,,,,,265,92.8943,0.0190388
,,,,,,,,,289,86.3405,0.0234256
,,,,,,,,,314,61.8431,0.0250522
,,,,,,,,,340,57.8376,0.0211336
,,,,,,,,,367,81.2194,0.0222887
,,,,,,,,,395,63.4747,0.0253181
,,,,,,,,,288,100.651,0.0268788
,,,,,,,,,313,35.3451,0.0365389
,,,,,,,,,339,58.7731,0.0406564
,,,,,,,,,366,104.061,0.0312523
,,,,,,,,,394,76.2578,0.0338461
,,,,,,,,,423,62.6182,0.0413614
,,,,,,,,,338,114.718,0.0293611
,,,,,,,,,365,109.973,0.0319622
,,,,,,,,,393,38.2267,0.0258477
,,,,,,,,,422,37.4612,0.0275968
,,,,,,,,,452,79.2317,0.0323963
,,,,,,,,,392,24.7167,0.0466178
,,,,,,,,,421,95.2461,0.0346593
,,,,,,,,,451,78.48,0.0378786
,,,,,,,,,482,43.0584,0.0475471
,,,,,,,,,450,79.3386,0.0383427
,,,,,,,,,481,73.0824,0.0423218
,,,,,,,,,513,30.7664,0.0547642
,,,,,,,,,512,29.6345,0.0322271
,,,,,,,,,545,52.2625,0.0389691
,,,,,,,,,578,42.4271,0.0430863
