Q	U	V
{$V$}	{[mm$^3$]}	0.0103011
{$d_v$}	{[mm]}	0.269957
{$S_c$}	{[mm$^2$]}	0.404496
{$S_o$}	{[mm$^2$]}	0.254918
{$S_l/S_o$}	[]	0.586769
{$\Psi$}	[]	0.566012
{$\eta$}	[]	0.576503
{med($\theta_e$)}	{[$^\circ$]}	
{$\Upsilon$}	[]	15
{$\Xi$}	[]	10
