"cellPairingIds","interplanarAngles","angleWeights"
8,38.7163,0.0320796
13,23.7791,0.0400664
19,89.2048,0.0396389
26,121.012,0.019547
34,50.9557,0.0289978
64,77.4727,0.0247036
118,153.971,0.0179888
18,36.6445,0.0522407
25,57.4889,0.0515163
63,45.0054,0.0641884
51,34.1292,0.0445333
62,46.2232,0.0894655
74,67.8647,0.106777
50,33.7866,0.0253822
86,49.873,0.103794
115,77.6749,0.040304
130,80.4426,0.0197074
184,84.9632,0.0143349
204,60.4576,0.0278329
98,27.1817,0.0482992
129,29.6962,0.0263321
128,64.4429,0.131329
145,37.7592,0.0374548
163,53.2899,0.0438761
182,45.8066,0.0470019
181,37.0908,0.0476661
221,24.7675,0.0259417
266,77.7575,0.0169258
242,69.0346,0.0288679
289,77.1113,0.0181245
314,52.1381,0.0468549
313,54.9681,0.0186365
392,34.7343,0.024777
