Q	U	V
{$V$}	{[mm$^3$]}	0.00696556
{$d_v$}	{[mm]}	0.236948
{$S_c$}	{[mm$^2$]}	0.282961
{$S_o$}	{[mm$^2$]}	0.179685
{$S_l/S_o$}	[]	0.574761
{$\Psi$}	[]	0.623345
{$\eta$}	[]	0.636565
{med($\theta_e$)}	{[$^\circ$]}	65.5064
{$\Upsilon$}	[]	13
{$\Xi$}	[]	8
