facetNormals:0,facetNormals:1,facetNormals:2,FacetCenters:0,FacetCenters:1,FacetCenters:2,FacetIds,relFacetSize,absFacetSize,cellPairingIds,interplanarAngles,angleWeights
0.321056,0.338927,-0.852497,5.67455,6.08895,8.99193,1,0.0405381,0.0126244,8,42.0742,0.0463097
-0.352741,0.492778,-0.758698,5.65065,6.07608,8.96492,2,0.0539977,0.016816,13,39.0267,0.0359965
-0.0240398,0.813056,-0.560974,5.6742,6.13669,9.01173,3,0.0323701,0.0100807,19,30.9022,0.0410628
0.748058,0.143543,-0.625295,5.76428,6.06241,9.04805,4,0.0416013,0.0129555,26,60.4625,0.068221
0.931816,0.172311,-0.11726,5.808,6.06059,9.14486,5,0.215132,0.0669966,34,68.6618,0.0594855
0.149901,0.935221,0.0350599,5.73908,6.14704,9.13957,6,0.111688,0.034782,43,135.167,0.0538614
-0.799802,-0.403729,0.302974,5.7188,6.07107,9.15237,7,0.0802298,0.0249852,53,143.825,0.0337009
-0.399867,-0.774692,0.440274,5.68011,6.05002,9.06302,8,0.0288371,0.00898048,64,128.814,0.0444423
-0.833042,0.192715,0.455082,5.71512,6.09178,9.18615,9,0.0491787,0.0153153,76,111.059,0.0402586
0.684966,0.0190731,0.653461,5.81844,6.0154,9.2755,10,0.0399829,0.0124515,18,29.5393,0.040476
,,,,,,,,,25,72.9064,0.0469958
,,,,,,,,,33,99.612,0.0863274
,,,,,,,,,42,65.519,0.0727993
,,,,,,,,,52,99.1913,0.0645505
,,,,,,,,,63,127.303,0.0375962
,,,,,,,,,75,87.3464,0.0514757
,,,,,,,,,88,142.354,0.0459454
,,,,,,,,,32,62.5087,0.0364097
,,,,,,,,,41,78.7862,0.056273
,,,,,,,,,51,38.0868,0.050193
,,,,,,,,,62,120.834,0.0461287
,,,,,,,,,74,153.982,0.0305016
,,,,,,,,,87,94.7092,0.0390421
,,,,,,,,,101,113.131,0.035776
,,,,,,,,,50,32.3309,0.0697204
,,,,,,,,,61,76.0955,0.0606223
,,,,,,,,,73,155.143,0.0547917
,,,,,,,,,86,135.426,0.0340627
,,,,,,,,,100,157.215,0.0450738
,,,,,,,,,115,83.4448,0.0407761
,,,,,,,,,72,70.8609,0.147039
,,,,,,,,,85,160.33,0.116874
,,,,,,,,,99,126.73,0.0508572
,,,,,,,,,114,149.44,0.0800567
,,,,,,,,,130,51.3293,0.0674332
,,,,,,,,,98,122.896,0.0933807
,,,,,,,,,113,146.175,0.045839
,,,,,,,,,129,85.5449,0.0682885
,,,,,,,,,146,80.8038,0.0588856
,,,,,,,,,128,33.979,0.0424253
,,,,,,,,,145,37.5441,0.060979
,,,,,,,,,163,113.533,0.0533691
,,,,,,,,,162,66.04,0.036356
,,,,,,,,,181,90.0601,0.0335075
,,,,,,,,,200,107.092,0.0441066
