facetNormals:0,facetNormals:1,facetNormals:2,FacetCenters:0,FacetCenters:1,FacetCenters:2,FacetIds,relFacetSize,absFacetSize,cellPairingIds,interplanarAngles,angleWeights
0.100183,-0.198221,-0.902306,3.41246,3.54827,6.64918,1,0.0701324,0.00892283,8,44.8462,0.0504913
-0.237627,-0.750971,-0.57233,3.39107,3.48287,6.6774,2,0.0394446,0.00501848,13,64.8019,0.0443529
0.416524,0.702077,-0.53623,3.44236,3.62313,6.66211,3,0.0324316,0.00412622,19,65.8879,0.0920868
0.910944,-0.00451381,-0.301576,3.45968,3.5686,6.70106,4,0.13405,0.017055,26,60.441,0.0525678
0.69822,-0.619806,-0.281774,3.43395,3.52844,6.68157,5,0.0420391,0.00534857,34,74.6082,0.0173434
0.781983,0.540388,-0.304737,3.45731,3.62615,6.67433,6,0.00989521,0.00125895,43,107.86,0.0920792
0.152425,0.908607,0.110386,3.41929,3.65585,6.76196,7,0.134018,0.0170509,53,106.042,0.0153906
0.90871,0.239621,0.331892,3.46303,3.60871,6.78385,8,0.00864373,0.00109973,64,97.8066,0.0483346
0.910706,-0.239771,0.291698,3.47203,3.55613,6.77069,9,0.0368739,0.0046914,76,111.237,0.0796145
-0.115146,-0.807053,0.526548,3.38152,3.4945,6.78218,10,0.0920616,0.0117128,89,114.205,0.0797529
0.560405,-0.518167,0.58111,3.43599,3.54363,6.80495,11,0.0924326,0.0117601,103,140.285,0.0334658
-0.69035,0.242503,0.64036,3.32264,3.59318,6.79912,12,0.0219762,0.002796,118,148.722,0.0478669
0.252295,-0.179366,0.930788,3.3993,3.55183,6.82769,13,0.0363322,0.00462249,134,170.51,0.0736426
-0.0395843,0.344455,0.892525,3.33099,3.58169,6.83429,14,0.0775228,0.0098631,18,109.62,0.035596
,,,,,,,,,25,92.4829,0.0609536
,,,,,,,,,33,60.9677,0.0407006
,,,,,,,,,42,115.423,0.0158214
,,,,,,,,,52,149.916,0.0609502
,,,,,,,,,63,127.136,0.0141801
,,,,,,,,,75,102.227,0.038116
,,,,,,,,,88,69.4248,0.0552268
,,,,,,,,,102,94.7058,0.0552934
,,,,,,,,,117,113.967,0.0282264
,,,,,,,,,133,118.654,0.0378245
,,,,,,,,,150,144.618,0.0522856
,,,,,,,,,32,54.9696,0.0522275
,,,,,,,,,41,89.5928,0.0366156
,,,,,,,,,51,27.02,0.0151638
,,,,,,,,,62,44.8769,0.0522251
,,,,,,,,,74,67.7391,0.0136496
,,,,,,,,,87,86.7508,0.0345104
,,,,,,,,,101,161.129,0.0479658
,,,,,,,,,116,118.146,0.048016
,,,,,,,,,132,119.017,0.0261993
,,,,,,,,,149,122.869,0.0342713
,,,,,,,,,167,105.712,0.0457315
,,,,,,,,,50,39.3338,0.0640056
,,,,,,,,,61,33.1651,0.01843
,,,,,,,,,73,83.4569,0.134034
,,,,,,,,,86,40.5568,0.0162403
,,,,,,,,,100,38.2713,0.057838
,,,,,,,,,115,106.215,0.109157
,,,,,,,,,131,68.4854,0.109418
,,,,,,,,,148,151.903,0.0377618
,,,,,,,,,166,93.0491,0.0571695
,,,,,,,,,185,109.505,0.0982352
,,,,,,,,,72,72.2405,0.0160197
,,,,,,,,,85,122.623,0.0640019
,,,,,,,,,99,66.1864,0.0143392
,,,,,,,,,114,43.0763,0.0392874
,,,,,,,,,130,73.3328,0.0577206
,,,,,,,,,147,54.0894,0.0577933
,,,,,,,,,165,148.993,0.0288637
,,,,,,,,,184,88.499,0.0389779
,,,,,,,,,204,121.84,0.0545155
,,,,,,,,,98,51.502,0.0184297
,,,,,,,,,113,42.0322,0.00922723
,,,,,,,,,129,59.8891,0.0156032
,,,,,,,,,146,135.136,0.0178697
,,,,,,,,,164,91.1292,0.0178767
,,,,,,,,,183,128.48,0.013646
,,,,,,,,,203,100.789,0.0155542
,,,,,,,,,224,97.0193,0.0175503
,,,,,,,,,128,64.8609,0.01624
,,,,,,,,,145,92.9352,0.0578349
,,,,,,,,,163,140.287,0.109147
,,,,,,,,,182,111.155,0.109407
,,,,,,,,,202,78.1158,0.0377605
,,,,,,,,,223,91.3706,0.0571666
,,,,,,,,,245,62.8472,0.0982264
,,,,,,,,,162,28.0801,0.0140046
,,,,,,,,,181,97.3216,0.0158036
,,,,,,,,,201,52.8075,0.0158091
,,,,,,,,,222,111.596,0.0124074
,,,,,,,,,244,59.5668,0.0139651
,,,,,,,,,267,68.9487,0.0155533
,,,,,,,,,200,75.3344,0.0526568
,,,,,,,,,221,31.7621,0.0527174
,,,,,,,,,243,121.443,0.0275394
,,,,,,,,,266,55.7491,0.036601
,,,,,,,,,290,81.3664,0.0499764
,,,,,,,,,242,44.8833,0.0922467
,,,,,,,,,265,76.4583,0.0354824
,,,,,,,,,289,50.4775,0.0521022
,,,,,,,,,314,77.7906,0.084169
,,,,,,,,,288,98.6579,0.0355099
,,,,,,,,,313,34.5289,0.0521615
,,,,,,,,,339,69.7454,0.0843237
,,,,,,,,,338,66.6277,0.0273869
,,,,,,,,,365,42.8656,0.0342447
,,,,,,,,,392,36.0904,0.0494765
