Q	U	V
{$V$}	{[mm$^3$]}	0.00411213
{$d_v$}	{[mm]}	0.198772
{$S_c$}	{[mm$^2$]}	0.182755
{$S_o$}	{[mm$^2$]}	0.111286
{$S_l/S_o$}	[]	0.642210
{$\Psi$}	[]	0.679192
{$\eta$}	[]	0.706093
{med($\theta_e$)}	{[$^\circ$]}	60.2416
{$\Upsilon$}	[]	8
{$\Xi$}	[]	6
