facetNormals:0,facetNormals:1,facetNormals:2,FacetCenters:0,FacetCenters:1,FacetCenters:2,FacetIds,relFacetSize,absFacetSize,cellPairingIds,interplanarAngles,angleWeights
0.0860404,-0.638599,-0.714089,5.34683,4.26682,6.06501,1,0.0617434,0.024204,8,69.7082,0.0616632
0.896573,-0.0442347,-0.293591,5.41929,4.29836,6.10871,2,0.0615833,0.0241412,13,89.0958,0.0522709
0.434911,0.651937,-0.550978,5.35688,4.36793,6.0602,3,0.0453183,0.0177652,19,96.0371,0.0527635
-0.7245,0.488299,-0.388518,5.25396,4.36436,6.07789,4,0.0460639,0.0180575,26,47.8713,0.0680076
0.11985,-0.926294,-0.00109831,5.34066,4.22704,6.16988,5,0.0756864,0.0296698,34,91.7201,0.0920186
-0.868377,-0.0646491,-0.0116053,5.23677,4.31837,6.15004,6,0.180549,0.0707768,43,123.951,0.0707816
0.609509,0.705217,0.153378,5.38111,4.329,6.14437,7,0.0829197,0.0325054,53,135.029,0.0786813
-0.481598,0.0437076,0.766543,5.29663,4.29745,6.21738,8,0.108425,0.0425038,64,105.145,0.0718667
0.642762,-0.238604,0.614938,5.38816,4.27552,6.23578,9,0.0859606,0.0336974,76,129.841,0.044745
0.170862,-0.102704,0.950523,5.34401,4.33066,6.27937,10,0.0350856,0.0137539,18,54.6985,0.0522134
,,,,,,,,,25,128.09,0.0527049
,,,,,,,,,33,80.292,0.0679103
,,,,,,,,,42,159.881,0.0918406
,,,,,,,,,52,58.192,0.0706763
,,,,,,,,,63,140.318,0.0785511
,,,,,,,,,75,62.1539,0.0717581
,,,,,,,,,88,97.6012,0.0447029
,,,,,,,,,32,76.2765,0.0456881
,,,,,,,,,41,128.022,0.0566916
,,,,,,,,,51,119.706,0.0724511
,,,,,,,,,62,44.9618,0.0586063
,,,,,,,,,74,134.015,0.06392
,,,,,,,,,87,104.092,0.0593483
,,,,,,,,,101,123.71,0.0395508
,,,,,,,,,50,127.1,0.0572715
,,,,,,,,,61,43.6933,0.0734009
,,,,,,,,,73,99.9983,0.0592262
,,,,,,,,,86,85.2048,0.0646582
,,,,,,,,,100,158.813,0.0599841
,,,,,,,,,115,125.801,0.0398322
,,,,,,,,,72,93.1135,0.10666
,,,,,,,,,85,131.13,0.0791381
,,,,,,,,,99,96.7193,0.089145
,,,,,,,,,114,69.7755,0.080497
,,,,,,,,,130,82.7443,0.0479454
,,,,,,,,,98,134.505,0.113646
,,,,,,,,,113,59.0021,0.135487
,,,,,,,,,129,133.281,0.116469
,,,,,,,,,146,100.406,0.0587538
,,,,,,,,,128,99.7604,0.0939726
,,,,,,,,,145,68.5737,0.0844128
,,,,,,,,,163,78.8444,0.0493078
,,,,,,,,,162,79.5504,0.0958949
,,,,,,,,,181,43.1829,0.0530158
,,,,,,,,,200,36.5198,0.0498319
