"cellPairingIds","interplanarAngles","angleWeights"
8,60.2805,0.0519652
13,47.1354,0.069559
19,62.2377,0.0350383
26,50.5776,0.0287464
43,80.4256,0.0742553
53,71.6674,0.0461229
64,76.7828,0.0356206
76,92.439,0.0344031
89,77.353,0.0393128
52,47.0144,0.0788158
88,59.4157,0.0353508
32,38.2745,0.0436803
51,50.6981,0.0560247
74,53.519,0.0623651
61,20.6553,0.0312371
73,40.7738,0.0454869
114,29.5532,0.0233439
130,48.871,0.0228148
98,41.0557,0.0590318
113,95.2316,0.0397548
183,63.5429,0.046774
224,106.375,0.0544223
246,110.656,0.0327609
163,98.2321,0.0444222
202,43.1424,0.0881014
201,38.0091,0.0369067
244,25.1656,0.034675
267,42.3448,0.0603859
200,45.4064,0.0269412
221,39.5044,0.0298617
315,89.3118,0.0284885
265,86.2763,0.0371049
340,82.6285,0.0277044
313,20.6131,0.0306795
366,87.3034,0.0308021
393,72.408,0.0401048
392,29.8986,0.0453312
421,79.7573,0.0292319
450,55.9336,0.0455994
