Q	U	V
{$V$}	{[mm$^3$]}	0.00225259
{$d_v$}	{[mm]}	0.162640
{$S_c$}	{[mm$^2$]}	0.114724
{$S_o$}	{[mm$^2$]}	0.0753718
{$S_l/S_o$}	[]	0.522108
{$\Psi$}	[]	0.724355
{$\eta$}	[]	0.738383
{med($\theta_e$)}	{[$^\circ$]}	58.3993
{$\Upsilon$}	[]	16
{$\Xi$}	[]	4
