"cellPairingIds","interplanarAngles","angleWeights"
8,72.3461,0.0420297
13,45.3198,0.0666742
19,56.0265,0.0662304
26,91.2703,0.050005
34,78.4558,0.100764
18,89.8399,0.037312
33,74.6957,0.0314458
52,57.2406,0.0321245
63,44.1126,0.0350328
51,48.4426,0.0773247
62,85.9302,0.0447739
50,57.9497,0.0432772
61,81.8922,0.0767284
100,57.1709,0.0755028
99,87.3301,0.040404
114,97.6296,0.0551155
130,104.216,0.0483632
165,111.565,0.0242659
98,107.571,0.0579365
129,40.9775,0.123918
146,112.031,0.0943128
183,67.9161,0.032117
128,28.7882,0.0415315
163,28.8307,0.0499876
181,30.7288,0.0574025
243,62.9007,0.0319002
265,62.0801,0.0295152
