facetNormals:0,facetNormals:1,facetNormals:2,FacetCenters:0,FacetCenters:1,FacetCenters:2,FacetIds,relFacetSize,absFacetSize,cellPairingIds,interplanarAngles,angleWeights
0.272013,0.129691,-0.90011,3.1986,7.81956,7.57128,1,0.0416746,0.0104745,8,62.5213,0.0555906
-0.301467,-0.637616,-0.649522,3.18525,7.78101,7.60468,2,0.0834596,0.0209768,13,71.3815,0.0177787
-0.692192,-0.390227,-0.600801,3.22222,7.76258,7.72194,3,0.0112996,0.00284005,19,78.9211,0.0398247
0.375771,-0.835721,-0.196775,3.1875,7.74896,7.67526,4,0.0381321,0.00958418,26,62.6277,0.028153
0.157854,0.918202,-0.293625,3.13447,7.82593,7.63593,5,0.0212562,0.00534257,34,112.979,0.0601498
-0.755553,-0.554652,0.0789914,3.14222,7.75778,7.74543,6,0.108052,0.0271578,43,97.8333,0.0498405
-0.849894,0.446864,-0.0542251,3.13151,7.85532,7.69188,7,0.0619866,0.0155798,53,108.601,0.0605386
-0.354138,0.803691,0.323628,3.15103,7.84768,7.69632,8,0.110604,0.0277992,64,119.78,0.0472961
-0.179148,-0.888579,0.321606,3.17642,7.72375,7.7606,9,0.0546707,0.013741,76,98.4214,0.049414
0.722933,0.466895,0.434644,3.18139,7.77476,7.73422,10,0.0606836,0.0152523,89,127.646,0.0540681
0.237099,0.538444,0.776958,3.20412,7.82822,7.68325,11,0.0769531,0.0193415,18,27.4352,0.0199043
,,,,,,,,,25,52.4709,0.0523472
,,,,,,,,,33,118.182,0.0338829
,,,,,,,,,42,53.9982,0.0941766
,,,,,,,,,52,89.5956,0.071138
,,,,,,,,,63,133.336,0.0951332
,,,,,,,,,75,63.4857,0.0660651
,,,,,,,,,88,149.678,0.0702722
,,,,,,,,,102,169.725,0.0800744
,,,,,,,,,32,78.6188,0.0174332
,,,,,,,,,41,107.41,0.0147554
,,,,,,,,,51,42.3973,0.0204596
,,,,,,,,,62,62.2229,0.0191147
,,,,,,,,,74,106.379,0.0205043
,,,,,,,,,87,73.1627,0.0187283
,,,,,,,,,101,169.299,0.0190516
,,,,,,,,,116,150.029,0.0197056
,,,,,,,,,50,135.258,0.0272965
,,,,,,,,,61,79.2733,0.0563707
,,,,,,,,,73,139.184,0.0472176
,,,,,,,,,86,171.881,0.056712
,,,,,,,,,100,47.24,0.0449277
,,,,,,,,,115,103.052,0.0468346
,,,,,,,,,131,124.229,0.050995
,,,,,,,,,72,135.18,0.0355241
,,,,,,,,,85,71.8871,0.0316568
,,,,,,,,,99,50.0561,0.0356593
,,,,,,,,,114,177.431,0.0306108
,,,,,,,,,130,63.8415,0.0314842
,,,,,,,,,147,71.3975,0.0333112
,,,,,,,,,98,64.4611,0.0787794
,,,,,,,,,113,99.9839,0.109313
,,,,,,,,,129,43.7413,0.0726053
,,,,,,,,,146,148.213,0.077719
,,,,,,,,,164,117.017,0.0898886
,,,,,,,,,128,44.4527,0.0794476
,,,,,,,,,145,106.47,0.0580992
,,,,,,,,,163,117.583,0.0613282
,,,,,,,,,182,90.1851,0.0686638
,,,,,,,,,162,127.386,0.0731726
,,,,,,,,,181,73.2624,0.0783693
,,,,,,,,,201,48.8524,0.0907597
,,,,,,,,,200,115.869,0.0575204
,,,,,,,,,221,106.808,0.0639258
,,,,,,,,,242,35.9649,0.0678568
