facetNormals:0,facetNormals:1,facetNormals:2,FacetCenters:0,FacetCenters:1,FacetCenters:2,FacetIds,relFacetSize,absFacetSize,cellPairingIds,interplanarAngles,angleWeights
0.205087,-0.384899,-0.882564,4.06688,6.36583,7.60562,1,0.0284054,0.00385307,8,50.6855,0.0363322
0.679238,0.255426,-0.635046,4.14107,6.42531,7.6368,2,0.0503956,0.00683596,13,50.0739,0.0376095
-0.267473,-0.848209,-0.386438,4.05025,6.32421,7.65116,3,0.0556375,0.007547,19,29.2116,0.0461879
0.481292,-0.623785,-0.553596,4.11552,6.35241,7.64514,4,0.123505,0.016753,26,90.8667,0.03869
0.928135,0.205912,0.142094,4.15872,6.42335,7.72376,5,0.0606491,0.00822681,34,88.0321,0.0300013
-0.765453,-0.607064,0.0494087,4.0377,6.32503,7.71725,6,0.0317871,0.0043118,43,98.1486,0.0430907
0.693822,0.672233,0.0208298,4.14298,6.44781,7.71262,7,0.0892128,0.0121014,53,78.7251,0.02786
-0.0211211,-0.963412,0.200588,4.02659,6.34172,7.76272,8,0.0273352,0.0037079,64,86.2835,0.0206605
0.793279,-0.488415,0.325984,4.17168,6.3526,7.75512,9,0.0162341,0.0022021,76,87.8214,0.0179996
0.379034,-0.824538,0.405524,4.12621,6.3117,7.75985,10,0.0131737,0.00178696,89,101.027,0.0340625
-0.321696,-0.786598,0.476129,4.03671,6.34346,7.7696,11,0.0425333,0.00576948,103,111.651,0.0294542
0.514288,-0.435555,0.713325,4.13613,6.33186,7.77151,12,0.0305834,0.00414852,118,159.098,0.0445519
0.0807926,0.551398,0.762115,4.0383,6.45512,7.79652,13,0.103233,0.0140032,134,124.435,0.0350158
0.0538197,-0.487134,0.836419,4.08078,6.35232,7.80495,14,0.045636,0.00619034,151,157.916,0.0410209
0.113002,0.196816,0.954414,4.06197,6.43622,7.80678,15,0.0737951,0.01001,18,99.4125,0.0528869
,,,,,,,,,25,56.0075,0.0715824
,,,,,,,,,33,50.2457,0.055049
,,,,,,,,,42,138.489,0.0389846
,,,,,,,,,52,47.4808,0.0644077
,,,,,,,,,63,114.116,0.0354447
,,,,,,,,,75,77.4345,0.0245575
,,,,,,,,,88,102.697,0.0208873
,,,,,,,,,102,140.209,0.0461319
,,,,,,,,,117,103.127,0.0380659
,,,,,,,,,133,108.459,0.0677281
,,,,,,,,,150,131.467,0.0478978
,,,,,,,,,168,120.425,0.0598909
,,,,,,,,,32,48.8616,0.0767156
,,,,,,,,,41,120.837,0.0580353
,,,,,,,,,51,42.3927,0.040459
,,,,,,,,,62,144.603,0.0685338
,,,,,,,,,74,38.6614,0.0366593
,,,,,,,,,87,85.4379,0.0251344
,,,,,,,,,101,62.7525,0.0213032
,,,,,,,,,116,52.9419,0.0482108
,,,,,,,,,132,92.6364,0.0394703
,,,,,,,,,149,148.885,0.0723057
,,,,,,,,,167,85.389,0.0501429
,,,,,,,,,186,126.51,0.0634426
,,,,,,,,,50,74.9982,0.0813501
,,,,,,,,,61,91.0391,0.0505611
,,,,,,,,,73,95.9796,0.103595
,,,,,,,,,86,59.5908,0.044763
,,,,,,,,,100,57.8307,0.0286963
,,,,,,,,,115,60.4341,0.0238079
,,,,,,,,,131,85.5821,0.0632756
,,,,,,,,,148,82.4401,0.0490265
,,,,,,,,,166,143.096,0.112463
,,,,,,,,,185,98.2079,0.0666459
,,,,,,,,,205,129.176,0.0923879
,,,,,,,,,72,151.764,0.0417123
,,,,,,,,,85,32.2756,0.0722088
,,,,,,,,,99,101.552,0.0376852
,,,,,,,,,114,44.0385,0.0256125
,,,,,,,,,130,75.4749,0.0216457
,,,,,,,,,147,114.808,0.0500009
,,,,,,,,,165,58.7763,0.0406622
,,,,,,,,,184,70.9101,0.0764085
,,,,,,,,,204,85.7848,0.0520822
,,,,,,,,,225,72.6622,0.0665794
,,,,,,,,,98,172.981,0.0468731
,,,,,,,,,113,50.6167,0.0293935
,,,,,,,,,129,107.767,0.021492
,,,,,,,,,146,76.2896,0.0186275
,,,,,,,,,164,38.3511,0.0363833
,,,,,,,,,183,95.62,0.0311737
,,,,,,,,,203,112.869,0.0486073
,,,,,,,,,224,71.8214,0.037473
,,,,,,,,,246,99.5263,0.0444343
,,,,,,,,,128,133.783,0.0418479
,,,,,,,,,145,76.1154,0.0274696
,,,,,,,,,163,107.127,0.0229573
,,,,,,,,,182,142.031,0.0576035
,,,,,,,,,202,85.2279,0.0455512
,,,,,,,,,223,60.9783,0.0957122
,,,,,,,,,245,106.925,0.0603834
,,,,,,,,,268,75.9216,0.0807748
,,,,,,,,,162,57.6951,0.0203704
,,,,,,,,,181,27.5143,0.0177791
,,,,,,,,,201,26.2273,0.0332813
,,,,,,,,,222,55.1588,0.0288682
,,,,,,,,,244,114.14,0.0432248
,,,,,,,,,267,48.2049,0.0341907
,,,,,,,,,291,90.0331,0.0398931
,,,,,,,,,200,31.5965,0.0145447
,,,,,,,,,221,72.8063,0.0234991
,,,,,,,,,243,28.244,0.0212098
,,,,,,,,,266,87.3417,0.0280562
,,,,,,,,,290,54.6717,0.0239489
,,,,,,,,,315,71.6615,0.0266136
,,,,,,,,,242,41.9846,0.0201167
,,,,,,,,,265,30.1651,0.0184151
,,,,,,,,,289,97.037,0.0233656
,,,,,,,,,314,37.813,0.0204454
,,,,,,,,,340,74.0728,0.0223564
,,,,,,,,,288,57.2748,0.0355819
,,,,,,,,,313,96.045,0.060245
,,,,,,,,,339,35.9881,0.0440301
,,,,,,,,,366,74.0096,0.0539636
,,,,,,,,,338,68.1371,0.0471873
,,,,,,,,,365,28.445,0.0366233
,,,,,,,,,393,47.2742,0.0432447
,,,,,,,,,392,65.9371,0.0632924
,,,,,,,,,421,24.1691,0.0860665
,,,,,,,,,450,41.8432,0.0563959
