facetNormals:0,facetNormals:1,facetNormals:2,FacetCenters:0,FacetCenters:1,FacetCenters:2,FacetIds,relFacetSize,absFacetSize,cellPairingIds,interplanarAngles,angleWeights
0.235471,-0.302124,-0.919232,3.89292,4.08033,9.7349,1,0.00810755,0.000844518,8,24.8382,0.0119476
0.222671,0.123014,-0.955515,3.8445,4.09048,9.73334,2,0.0226986,0.00236439,13,29.933,0.0146732
-0.256852,-0.409871,-0.845989,3.84446,4.07168,9.73854,3,0.0771548,0.00803678,19,24.6966,0.0118238
0.600636,-0.158387,-0.760782,3.92357,4.08134,9.74475,4,0.0218298,0.00227388,26,59.7814,0.0148982
-0.479129,0.35207,-0.768045,3.80264,4.1551,9.76372,5,0.0917244,0.00955441,34,74.9472,0.0151005
-0.844547,-0.0530733,-0.471438,3.7501,4.09539,9.80862,6,0.10984,0.0114414,43,107.537,0.0130067
-0.767464,0.597448,-0.0745269,3.76538,4.16263,9.83092,7,0.0328681,0.00342369,53,70.2522,0.0150565
-0.143607,-0.957196,-0.0776183,3.86146,4.03597,9.80152,8,0.105362,0.010975,64,122.697,0.0138387
-0.332013,0.885149,0.188127,3.78707,4.19023,9.84195,9,0.047213,0.00491791,76,94.9384,0.0151685
0.158582,-0.858327,0.412775,3.81058,4.04682,9.85222,10,0.117509,0.0122402,89,149.059,0.0141575
-0.647591,0.403321,0.608055,3.79434,4.16532,9.87037,11,0.0557861,0.00581092,103,169.443,0.01443
-0.136907,0.441266,0.853795,3.78125,4.1322,9.88388,12,0.0655373,0.00682665,18,43.3463,0.0350775
,,,,,,,,,25,29.9822,0.0222557
,,,,,,,,,33,45.7223,0.0363916
,,,,,,,,,42,74.5054,0.0376225
,,,,,,,,,52,91.5558,0.0268528
,,,,,,,,,63,94.5137,0.0373506
,,,,,,,,,75,98.7386,0.0306578
,,,,,,,,,88,119.126,0.0380477
,,,,,,,,,102,134.454,0.0322679
,,,,,,,,,117,145.598,0.0337188
,,,,,,,,,32,54.6136,0.034031
,,,,,,,,,41,48.3926,0.0838111
,,,,,,,,,51,47.5194,0.0906409
,,,,,,,,,62,89.078,0.0460983
,,,,,,,,,74,58.4676,0.0890789
,,,,,,,,,87,117.702,0.0585796
,,,,,,,,,101,92.3226,0.093149
,,,,,,,,,116,122.683,0.0647531
,,,,,,,,,132,156.565,0.0708731
,,,,,,,,,50,75.3811,0.0352664
,,,,,,,,,61,98.474,0.0364212
,,,,,,,,,73,121.382,0.0262351
,,,,,,,,,86,82.5049,0.0361663
,,,,,,,,,100,120.658,0.0298554
,,,,,,,,,115,95.0111,0.0368195
,,,,,,,,,131,162.823,0.0313801
,,,,,,,,,148,147.224,0.0327507
,,,,,,,,,72,37.339,0.0999682
,,,,,,,,,85,47.8915,0.0483947
,,,,,,,,,99,102.777,0.0980715
,,,,,,,,,114,69.6081,0.0623386
,,,,,,,,,130,137.842,0.103028
,,,,,,,,,147,90.8911,0.0693774
,,,,,,,,,165,117.46,0.0764505
,,,,,,,,,98,46.4025,0.0505961
,,,,,,,,,113,77.182,0.107555
,,,,,,,,,129,81.0827,0.0660398
,,,,,,,,,146,107.611,0.113545
,,,,,,,,,164,75.3597,0.0739925
,,,,,,,,,183,109.268,0.0820929
,,,,,,,,,128,118.77,0.0501056
,,,,,,,,,145,35.0617,0.0387558
,,,,,,,,,163,134.94,0.0513682
,,,,,,,,,182,43.2934,0.0413648
,,,,,,,,,202,71.2061,0.0437799
,,,,,,,,,162,150.445,0.0652068
,,,,,,,,,181,35.1298,0.111105
,,,,,,,,,201,111.05,0.0729484
,,,,,,,,,222,119.836,0.0808096
,,,,,,,,,200,142.136,0.0673613
,,,,,,,,,221,43.1202,0.0511427
,,,,,,,,,243,50.3844,0.0548861
,,,,,,,,,242,102.127,0.0756555
,,,,,,,,,265,92.9376,0.084145
,,,,,,,,,288,33.9335,0.0602698
