facetNormals:0,facetNormals:1,facetNormals:2,FacetCenters:0,FacetCenters:1,FacetCenters:2,FacetIds,relFacetSize,absFacetSize,cellPairingIds,interplanarAngles,angleWeights
-0.12543,-0.403572,-0.852025,7.04067,5.44485,6.55082,1,0.10069,0.0354727,8,31.9696,0.0677346
0.401434,-0.346052,-0.818841,7.11617,5.42666,6.5603,2,0.0510322,0.0179786,13,51.3484,0.0151038
-0.0585526,0.437135,-0.892525,6.96431,5.54658,6.51086,3,0.00816426,0.00287625,19,78.54,0.0637567
0.213534,0.71853,-0.582286,7.03533,5.58678,6.5575,4,0.0466467,0.0164336,26,39.0442,0.0723709
-0.291555,-0.837485,-0.405903,7.07576,5.36532,6.60477,5,0.0564847,0.0198995,34,93.3363,0.0150176
0.736198,0.573066,-0.315834,7.05786,5.58541,6.55973,6,0.00811387,0.0028585,43,118.688,0.0318291
-0.635192,0.69972,0.292115,6.95724,5.57641,6.61939,7,0.0189021,0.00665919,53,109.477,0.0812749
-0.800853,0.394808,0.279071,6.96547,5.55433,6.61904,8,0.0681369,0.0240045,64,138.635,0.0668261
0.234085,0.854386,0.362854,7.07384,5.57743,6.67159,9,0.0500078,0.0176177,76,114.089,0.0718917
0.647131,-0.430215,0.539527,7.19974,5.38914,6.6872,10,0.0559031,0.0196946,89,98.0474,0.0731635
-0.44821,-0.677301,0.539128,7.06187,5.38895,6.68589,11,0.0574564,0.0202418,103,113.233,0.0670416
-0.695827,-0.248254,0.654691,6.97765,5.45169,6.6756,12,0.0502495,0.0177028,118,137.299,0.0608207
-0.0083212,-0.279054,0.929759,7.09904,5.42515,6.69493,13,0.0435692,0.0153493,18,55.0659,0.0140765
,,,,,,,,,25,70.183,0.048741
,,,,,,,,,33,57.9257,0.0536202
,,,,,,,,,42,68.2605,0.0140016
,,,,,,,,,52,139.745,0.0275864
,,,,,,,,,63,138.807,0.058357
,,,,,,,,,75,122.29,0.0505148
,,,,,,,,,88,92.0576,0.0533567
,,,,,,,,,102,114.017,0.0540541
,,,,,,,,,117,139.258,0.0506378
,,,,,,,,,133,134.876,0.0470063
,,,,,,,,,32,29.6411,0.0138963
,,,,,,,,,41,89.2178,0.0142665
,,,,,,,,,51,60.0672,0.00813898
,,,,,,,,,62,85.2033,0.0114032
,,,,,,,,,74,91.8214,0.0145814
,,,,,,,,,87,87.84,0.0140369
,,,,,,,,,101,138.695,0.0142477
,,,,,,,,,116,140.701,0.014297
,,,,,,,,,132,131.572,0.0140463
,,,,,,,,,149,169.853,0.0137516
,,,,,,,,,50,117.516,0.0510965
,,,,,,,,,61,36.361,0.0138233
,,,,,,,,,73,77.8854,0.0269028
,,,,,,,,,86,93.2169,0.0553801
,,,,,,,,,100,60.1255,0.0482688
,,,,,,,,,115,122.699,0.0508572
,,,,,,,,,131,165.62,0.0514903
,,,,,,,,,148,139.097,0.0483811
,,,,,,,,,166,143.812,0.0450555
,,,,,,,,,72,126.129,0.0141895
,,,,,,,,,85,122.575,0.0283254
,,,,,,,,,99,103.335,0.0617661
,,,,,,,,,114,175.756,0.0530493
,,,,,,,,,130,92.9431,0.0561924
,,,,,,,,,147,59.741,0.0569664
,,,,,,,,,165,81.335,0.053185
,,,,,,,,,184,98.5809,0.0491934
,,,,,,,,,98,99.3868,0.011354
,,,,,,,,,113,119.34,0.0145009
,,,,,,,,,129,54.5147,0.0139623
,,,,,,,,,146,86.3404,0.0141709
,,,,,,,,,164,157.705,0.0142197
,,,,,,,,,183,152.358,0.0139717
,,,,,,,,,203,118.735,0.0136801
,,,,,,,,,128,20.5449,0.0295944
,,,,,,,,,145,54.108,0.0274345
,,,,,,,,,163,126.338,0.0282517
,,,,,,,,,182,91.886,0.028446
,,,,,,,,,202,61.9255,0.0274707
,,,,,,,,,223,85.1238,0.0263657
,,,,,,,,,162,73.7157,0.0576814
,,,,,,,,,181,127.402,0.0614167
,,,,,,,,,201,74.6109,0.0623425
,,,,,,,,,222,45.9592,0.0578418
,,,,,,,,,244,80.1112,0.0531514
,,,,,,,,,200,91.2854,0.0527914
,,,,,,,,,221,121.527,0.0534739
,,,,,,,,,243,98.3623,0.0501283
,,,,,,,,,266,84.0088,0.046567
,,,,,,,,,242,71.5269,0.0566691
,,,,,,,,,265,89.4027,0.0529257
,,,,,,,,,289,47.8494,0.0489715
,,,,,,,,,288,30.045,0.0536118
,,,,,,,,,313,42.832,0.0495583
,,,,,,,,,338,44.476,0.0466715
