facetNormals:0,facetNormals:1,facetNormals:2,FacetCenters:0,FacetCenters:1,FacetCenters:2,FacetIds,relFacetSize,absFacetSize,cellPairingIds,interplanarAngles,angleWeights
0.0424978,-0.259635,-0.943044,5.74081,4.71564,6.03271,1,0.0223903,0.00373204,8,35.7724,0.031951
0.309476,0.276056,-0.886275,5.74834,4.76603,6.02454,2,0.0557607,0.00929424,13,54.9183,0.0334872
-0.62257,0.21781,-0.63386,5.83564,4.70787,6.23404,3,0.0663912,0.0110662,19,37.5414,0.0318735
0.414014,-0.649119,-0.612518,5.7638,4.67606,6.06457,4,0.0552919,0.0092161,26,50.4068,0.0290373
-0.492439,-0.696444,-0.477119,5.7056,4.67927,6.06936,5,0.0412972,0.00688346,34,66.8222,0.0290886
0.906327,0.0254075,-0.365626,5.83324,4.71337,6.10165,6,0.0415051,0.00691811,43,86.9749,0.0362484
0.78034,0.552526,-0.170163,5.81031,4.77472,6.1182,7,0.0951233,0.0158552,53,75.5697,0.0349234
0.742225,-0.609677,-0.0475065,5.82206,4.67119,6.1636,8,0.0793271,0.0132223,64,89.3103,0.0357233
0.3307,0.875814,-0.238295,5.75532,4.81877,6.11521,9,0.0883101,0.0147196,76,125.083,0.030147
0.416414,0.789891,0.380475,5.76779,4.80605,6.19367,10,0.0461267,0.00768844,89,108.721,0.0362165
-0.202171,-0.762881,0.514935,5.76328,4.66253,6.19501,11,0.0946858,0.0157823,103,125.366,0.0296215
0.677089,-0.197151,0.668815,5.8436,4.715,6.23648,12,0.0437515,0.00729254,118,159.858,0.026371
-0.272584,0.465661,0.800241,5.76229,4.76287,6.23726,13,0.0320732,0.00534599,18,61.3453,0.0606134
,,,,,,,,,25,59.2793,0.0555253
,,,,,,,,,33,85.3094,0.0474513
,,,,,,,,,42,50.2616,0.0475882
,,,,,,,,,52,55.0169,0.0703075
,,,,,,,,,63,83.6855,0.0654883
,,,,,,,,,75,54.022,0.0683585
,,,,,,,,,88,89.4137,0.0504882
,,,,,,,,,102,142.296,0.0701877
,,,,,,,,,117,117.398,0.0490314
,,,,,,,,,133,134.764,0.0407229
,,,,,,,,,32,90.6931,0.0603353
,,,,,,,,,41,59.2353,0.0509205
,,,,,,,,,51,111.445,0.0510782
,,,,,,,,,62,106.856,0.0782017
,,,,,,,,,74,129.939,0.072285
,,,,,,,,,87,81.152,0.0757979
,,,,,,,,,101,111.705,0.0544341
,,,,,,,,,116,115.175,0.0780534
,,,,,,,,,132,177.763,0.0527446
,,,,,,,,,149,105.511,0.0432517
,,,,,,,,,50,55.8015,0.0472807
,,,,,,,,,61,52.7124,0.0474167
,,,,,,,,,73,85.8802,0.0699337
,,,,,,,,,86,39.3029,0.0651638
,,,,,,,,,100,107.49,0.0680051
,,,,,,,,,115,126.902,0.0502951
,,,,,,,,,131,84.0508,0.0698151
,,,,,,,,,148,90.0817,0.0488493
,,,,,,,,,166,162.435,0.0405972
,,,,,,,,,72,107.641,0.0414009
,,,,,,,,,85,136.447,0.0575915
,,,,,,,,,99,85.0089,0.0543172
,,,,,,,,,114,134.276,0.0562771
,,,,,,,,,130,170.914,0.0435785
,,,,,,,,,147,65.2776,0.057511
,,,,,,,,,165,122.848,0.0424889
,,,,,,,,,184,127.321,0.0361054
,,,,,,,,,98,34.3894,0.0577933
,,,,,,,,,113,44.1518,0.0544967
,,,,,,,,,129,64.3303,0.0564698
,,,,,,,,,146,74.2001,0.043694
,,,,,,,,,164,115.106,0.0577123
,,,,,,,,,183,67.4673,0.0425987
,,,,,,,,,203,124.013,0.0361846
,,,,,,,,,128,74.448,0.0865101
,,,,,,,,,145,33.479,0.0915902
,,,,,,,,,163,42.3507,0.062127
,,,,,,,,,182,136.778,0.094904
,,,,,,,,,202,71.108,0.0599358
,,,,,,,,,223,95.6075,0.0479716
,,,,,,,,,162,107.36,0.0835779
,,,,,,,,,181,101.781,0.0583338
,,,,,,,,,201,71.2976,0.0863287
,,,,,,,,,222,50.7823,0.0563978
,,,,,,,,,244,124.388,0.045678
,,,,,,,,,200,38.0024,0.0606002
,,,,,,,,,221,160.424,0.0913868
,,,,,,,,,243,96.6132,0.0585136
,,,,,,,,,266,82.1715,0.0470561
,,,,,,,,,242,122.457,0.0620334
,,,,,,,,,265,66.1999,0.0449077
,,,,,,,,,289,53.3813,0.0378371
,,,,,,,,,288,66.9969,0.0598487
,,,,,,,,,313,82.9305,0.0479157
,,,,,,,,,338,73.9821,0.037013
