"cellPairingIds","interplanarAngles","angleWeights"
8,73.4306,0.063408
13,21.7342,0.0452522
26,47.3289,0.0349909
34,70.6647,0.0355321
33,111.702,0.0523579
42,32.0226,0.0535791
52,57.8224,0.0826885
63,100.295,0.0470133
32,56.7099,0.0187117
41,37.6606,0.0393286
51,85.215,0.0400136
87,79.4039,0.0278749
116,69.3252,0.0429823
61,28.5452,0.0168102
131,104.724,0.0173125
99,105.461,0.029344
114,50.9622,0.02361
98,73.5594,0.0408726
146,101.267,0.0517481
164,121.736,0.0341174
128,50.3598,0.0369374
163,38.9675,0.0784069
162,73.5401,0.0224586
181,38.0178,0.0455976
200,92.9044,0.0331044
221,45.1242,0.0248796
266,50.0529,0.0311534
242,99.9518,0.0568236
289,42.9344,0.10522
313,67.9765,0.0513081
