"cellPairingIds","interplanarAngles","angleWeights"
8,59.831,0.0857775
19,47.4465,0.0463794
26,77.0112,0.0891668
34,43.9631,0.0796425
76,102.071,0.0134952
18,37.7021,0.0360818
25,81.8038,0.0528803
33,70.2208,0.116764
63,53.894,0.0638804
75,62.4851,0.106439
41,41.0589,0.036668
87,59.5732,0.035584
86,83.4189,0.0391275
115,72.904,0.0122921
72,74.1729,0.105682
85,34.6596,0.097269
114,95.2425,0.111708
147,122.481,0.0648716
98,65.3875,0.0860441
146,70.3092,0.0138221
163,92.8919,0.0136675
182,97.8944,0.0569
162,29.7624,0.0623366
181,119.896,0.0128046
201,84.7067,0.0444345
221,73.7154,0.0615541
242,56.5534,0.0127713
