Q	U	V
{$V$}	{[mm$^3$]}	0.00501934
{$d_v$}	{[mm]}	0.212430
{$S_c$}	{[mm$^2$]}	0.321869
{$S_o$}	{[mm$^2$]}	0.153852
{$S_l/S_o$}	[]	1.092069
{$\Psi$}	[]	0.440456
{$\eta$}	[]	0.493390
{med($\theta_e$)}	{[$^\circ$]}	76.6046
{$\Upsilon$}	[]	11
{$\Xi$}	[]	7
