facetNormals:0,facetNormals:1,facetNormals:2,FacetCenters:0,FacetCenters:1,FacetCenters:2,FacetIds,relFacetSize,absFacetSize,cellPairingIds,interplanarAngles,angleWeights
0.333183,0.192743,-0.883274,3.24648,4.07426,5.60717,1,0.0159577,0.00148179,8,41.8174,0.0265849
0.200252,-0.48017,-0.815942,3.23221,4.02468,5.62589,2,0.0795864,0.00739021,13,90.4527,0.0123292
-0.926884,0.0882467,-0.321885,3.18333,4.07034,5.68374,3,0.0100451,0.000932762,19,84.0502,0.0284409
-0.45895,-0.719203,-0.438528,3.20563,3.99587,5.6846,4,0.130623,0.0121294,26,74.6814,0.0246724
-0.618647,0.653703,-0.37129,3.18283,4.09399,5.65033,5,0.0543582,0.00504758,34,100.346,0.00705539
-0.916062,-0.332172,-0.222248,3.20804,4.06099,5.74496,6,0.00452887,0.00042054,43,65.7089,0.0256842
0.160288,0.916584,-0.163468,3.20521,4.1068,5.66409,7,0.0657754,0.00610775,53,106.145,0.00506586
-0.866707,0.49109,0.0834438,3.21768,4.07487,5.71957,8,0.00301083,0.000279579,64,71.9884,0.0291443
0.936123,0.108611,0.0583431,3.26033,4.02797,5.6944,9,0.167828,0.0155841,76,86.9,0.021095
-0.105591,0.969059,0.113738,3.18699,4.10464,5.71565,10,0.0311104,0.00288884,89,133.114,0.016092
-0.840502,-0.302142,0.325811,3.18834,4.068,5.72213,11,0.0162286,0.00150695,103,85.8449,0.0216931
0.914275,-0.329739,0.194581,3.25958,4.00331,5.71179,12,0.0338645,0.00314458,118,80.2197,0.0259964
0.622531,0.728917,0.211973,3.23348,4.0891,5.69762,13,0.0700862,0.00650804,134,111.961,0.023488
0.608378,-0.570877,0.502155,3.22947,3.97537,5.77254,14,0.0444755,0.00412989,151,106.781,0.0240335
0.591812,0.456266,0.630785,3.22213,4.06546,5.78195,15,0.0486587,0.00451833,18,87.9167,0.0178386
,,,,,,,,,25,48.8162,0.0989092
,,,,,,,,,33,98.2273,0.0645965
,,,,,,,,,42,80.6339,0.00857006
,,,,,,,,,52,107.482,0.0720248
,,,,,,,,,63,119.575,0.00580216
,,,,,,,,,75,84.4918,0.107971
,,,,,,,,,88,127.585,0.0447342
,,,,,,,,,102,108.313,0.0269598
,,,,,,,,,117,79.0226,0.0475122
,,,,,,,,,133,114.788,0.0745348
,,,,,,,,,150,90.8381,0.0570626
,,,,,,,,,168,130.554,0.0603933
,,,,,,,,,32,57.8355,0.0186555
,,,,,,,,,41,38.5018,0.0169566
,,,,,,,,,51,25.1437,0.00624303
,,,,,,,,,62,90.9275,0.0174285
,,,,,,,,,74,33.6475,0.004633
,,,,,,,,,87,160.508,0.0189556
,,,,,,,,,101,81.268,0.0151866
,,,,,,,,,116,46.2639,0.0124092
,,,,,,,,,132,164.108,0.0154942
,,,,,,,,,149,126.917,0.0175717
,,,,,,,,,167,143.983,0.0163887
,,,,,,,,,186,137.591,0.0166524
,,,,,,,,,50,91.4354,0.0767692
,,,,,,,,,61,37.8746,0.00875422
,,,,,,,,,73,136.842,0.0874934
,,,,,,,,,86,89.5226,0.00588599
,,,,,,,,,100,126.074,0.146907
,,,,,,,,,115,137.886,0.0502523
,,,,,,,,,131,59.697,0.0288704
,,,,,,,,,148,106.358,0.053785
,,,,,,,,,166,163.488,0.0912252
,,,,,,,,,185,95.4581,0.0663572
,,,,,,,,,205,159.103,0.0709045
,,,,,,,,,72,63.6372,0.00836113
,,,,,,,,,85,52.4401,0.0595243
,,,,,,,,,99,31.9055,0.00570563
,,,,,,,,,114,125.191,0.0821188
,,,,,,,,,130,46.5954,0.0395726
,,,,,,,,,147,77.4271,0.024995
,,,,,,,,,165,152.168,0.041731
,,,,,,,,,184,89.2408,0.0612283
,,,,,,,,,204,170.857,0.0489228
,,,,,,,,,225,108.497,0.0513508
,,,,,,,,,98,116.071,0.00847426
,,,,,,,,,113,52.2054,0.00361703
,,,,,,,,,129,163.881,0.00881974
,,,,,,,,,146,104.793,0.00790673
,,,,,,,,,164,32.8899,0.00708152
,,,,,,,,,183,141.125,0.00798929
,,,,,,,,,203,151.162,0.00850797
,,,,,,,,,224,119.504,0.00822064
,,,,,,,,,246,148.56,0.00828648
,,,,,,,,,128,71.6347,0.00575809
,,,,,,,,,145,74.3882,0.0945102
,,,,,,,,,163,23.1208,0.0422415
,,,,,,,,,182,121.172,0.0260339
,,,,,,,,,202,101.55,0.04471
,,,,,,,,,223,37.7606,0.0678624
,,,,,,,,,245,123.506,0.0530679
,,,,,,,,,268,63.6577,0.0559369
,,,,,,,,,162,142.932,0.00591554
,,,,,,,,,181,53.9824,0.00549031
,,,,,,,,,201,50.2851,0.00507932
,,,,,,,,,222,161.218,0.00553
,,,,,,,,,244,99.6139,0.00577363
,,,,,,,,,267,141.874,0.00563986
,,,,,,,,,291,103.984,0.00567077
,,,,,,,,,200,89.1937,0.0524906
,,,,,,,,,221,153.109,0.0295954
,,,,,,,,,243,27.3328,0.0563572
,,,,,,,,,266,43.3283,0.0988796
,,,,,,,,,290,54.2776,0.0703167
,,,,,,,,,315,46.0902,0.0754438
,,,,,,,,,242,100.31,0.0213304
,,,,,,,,,265,113.889,0.0324291
,,,,,,,,,289,46.3749,0.0430926
,,,,,,,,,314,125.898,0.0366114
,,,,,,,,,340,61.9434,0.0379544
,,,,,,,,,288,129.975,0.0219421
,,,,,,,,,313,136.266,0.0263547
,,,,,,,,,339,100.912,0.0237801
,,,,,,,,,366,117.532,0.0243395
,,,,,,,,,338,67.6484,0.0456646
,,,,,,,,,365,29.2432,0.0384514
,,,,,,,,,393,58.02,0.0399355
,,,,,,,,,392,85.8575,0.0544182
,,,,,,,,,421,29.6053,0.0574391
,,,,,,,,,450,64.0742,0.0464731
