facetNormals:0,facetNormals:1,facetNormals:2,FacetCenters:0,FacetCenters:1,FacetCenters:2,FacetIds,relFacetSize,absFacetSize,cellPairingIds,interplanarAngles,angleWeights
-0.190512,-0.0166833,-0.915306,3.98423,5.31997,7.86238,1,0.0512521,0.0142122,8,46.7469,0.0414153
-0.798155,0.21673,-0.522717,3.93357,5.35275,7.8963,2,0.0347464,0.00963518,13,73.908,0.0306742
0.732035,-0.50271,-0.421557,4.08042,5.26263,7.8913,3,0.0218867,0.00606918,19,64.5731,0.0605613
-0.868618,-0.370495,-0.239814,3.91495,5.40132,7.89828,4,0.0740029,0.020521,26,76.4535,0.0463685
-0.297337,-0.915912,-0.154808,3.99273,5.39274,7.92575,5,0.0423345,0.0117394,34,103.766,0.0494407
0.881288,-0.380229,0.0572447,4.10451,5.2778,7.95069,6,0.0477529,0.0132419,43,124.532,0.0477816
0.777736,0.412612,0.387704,4.1042,5.41247,7.97368,7,0.0447513,0.0124095,53,106.597,0.0616167
0.349082,0.872777,0.191349,3.99279,5.51665,7.93395,8,0.0772357,0.0214175,64,110.293,0.0562639
-0.440843,-0.742718,0.450424,3.98404,5.28211,7.97386,9,0.0623621,0.017293,76,108.036,0.0479897
-0.844392,-0.149084,0.491005,3.91073,5.39036,7.98237,10,0.0451177,0.0125112,89,116.779,0.0329363
-0.658779,-0.419222,0.597243,3.93828,5.35695,7.99582,11,0.0242649,0.00672865,103,128.848,0.0479727
-0.0661,0.737844,0.618864,3.94578,5.48538,7.98028,12,0.0450877,0.0125028,118,143.638,0.0457093
0.594729,-0.34038,0.671978,4.1136,5.31575,7.95702,13,0.0412483,0.0114382,134,137.424,0.0221553
-0.0670023,-0.620698,0.772377,4.04785,5.2828,7.99025,14,0.0141322,0.00391887,151,171.913,0.0723591
0.108841,0.120973,0.949219,4.02069,5.38244,7.99803,15,0.123024,0.0341145,18,119.45,0.0268565
,,,,,,,,,25,39.2354,0.0472892
,,,,,,,,,33,82.7918,0.038167
,,,,,,,,,42,150.125,0.0402244
,,,,,,,,,52,141.245,0.0391193
,,,,,,,,,63,101.648,0.0479302
,,,,,,,,,75,92.6794,0.0446276
,,,,,,,,,88,66.5321,0.0392586
,,,,,,,,,102,82.6672,0.0285748
,,,,,,,,,117,96.7386,0.0392473
,,,,,,,,,133,163.365,0.0377192
,,,,,,,,,150,119.928,0.0200924
,,,,,,,,,168,126.224,0.0541881
,,,,,,,,,32,111.339,0.0337821
,,,,,,,,,41,71.2591,0.0288553
,,,,,,,,,51,30.7675,0.030016
,,,,,,,,,62,77.8851,0.0293963
,,,,,,,,,74,106.25,0.034108
,,,,,,,,,87,98.3601,0.0324016
,,,,,,,,,101,140.564,0.029475
,,,,,,,,,116,122.785,0.0230145
,,,,,,,,,132,135.794,0.0294686
,,,,,,,,,149,69.9662,0.0285986
,,,,,,,,,167,93.6775,0.0171747
,,,,,,,,,186,113.751,0.037162
,,,,,,,,,50,48.0906,0.0538585
,,,,,,,,,61,132.954,0.0580482
,,,,,,,,,73,169.439,0.0557744
,,,,,,,,,86,136.013,0.0755847
,,,,,,,,,100,54.5774,0.0676856
,,,,,,,,,115,45.8182,0.0560582
,,,,,,,,,131,52.4066,0.0365465
,,,,,,,,,148,112.794,0.056035
,,,,,,,,,166,126.152,0.0529711
,,,,,,,,,185,83.8931,0.0237323
,,,,,,,,,205,113.024,0.092415
,,,,,,,,,72,85.2686,0.0448808
,,,,,,,,,85,135.497,0.0435094
,,,,,,,,,99,175.56,0.0546915
,,,,,,,,,114,38.6848,0.0504328
,,,,,,,,,130,71.135,0.0436818
,,,,,,,,,147,59.4478,0.0308484
,,,,,,,,,165,143.006,0.0436678
,,,,,,,,,184,88.1086,0.0417844
,,,,,,,,,204,61.0505,0.0211906
,,,,,,,,,225,107.99,0.0629923
,,,,,,,,,98,53.46,0.0462034
,,,,,,,,,113,90.8237,0.0590171
,,,,,,,,,129,94.9197,0.0540884
,,,,,,,,,146,133.949,0.0463979
,,,,,,,,,164,114.167,0.0321787
,,,,,,,,,183,109.079,0.0463821
,,,,,,,,,203,41.4185,0.0442629
,,,,,,,,,224,76.6079,0.0218099
,,,,,,,,,246,83.5352,0.0688003
,,,,,,,,,128,40.1084,0.0566683
,,,,,,,,,145,120.435,0.052109
,,,,,,,,,163,123.734,0.0449337
,,,,,,,,,182,118.674,0.0314675
,,,,,,,,,202,57.9354,0.0449188
,,,,,,,,,223,50.8728,0.0429284
,,,,,,,,,245,90.5256,0.0214809
,,,,,,,,,268,57.148,0.0656292
,,,,,,,,,162,140.011,0.0690066
,,,,,,,,,181,110.434,0.0569612
,,,,,,,,,201,120.708,0.0369281
,,,,,,,,,222,37.0205,0.0569373
,,,,,,,,,244,87.565,0.0537767
,,,,,,,,,267,115.979,0.0238927
,,,,,,,,,291,69.3893,0.0948951
,,,,,,,,,200,42.9812,0.0523565
,,,,,,,,,221,24.5848,0.0349362
,,,,,,,,,243,104.796,0.0523363
,,,,,,,,,266,71.7159,0.0496539
,,,,,,,,,290,29.9242,0.0230426
,,,,,,,,,315,72.0111,0.0827681
,,,,,,,,,242,20.1313,0.0315576
,,,,,,,,,265,74.8244,0.0451027
,,,,,,,,,289,97.3608,0.0430963
,,,,,,,,,314,57.4238,0.0215228
,,,,,,,,,340,68.0221,0.0660224
,,,,,,,,,288,83.7179,0.0315503
,,,,,,,,,313,80.7148,0.0305552
,,,,,,,,,339,38.3523,0.0178616
,,,,,,,,,366,61.9988,0.0405347
,,,,,,,,,338,82.2204,0.0430826
,,,,,,,,,365,88.5387,0.0215194
,,,,,,,,,393,43.9308,0.0659902
,,,,,,,,,392,43.5832,0.0210518
,,,,,,,,,421,44.3095,0.0617819
,,,,,,,,,450,47.125,0.0253521
