facetNormals:0,facetNormals:1,facetNormals:2,FacetCenters:0,FacetCenters:1,FacetCenters:2,FacetIds,relFacetSize,absFacetSize,cellPairingIds,interplanarAngles,angleWeights
0.22932,0.126209,-0.922626,3.12594,5.00069,7.40629,1,0.0853001,0.0125817,8,36.3001,0.0879068
0.300094,-0.463361,-0.809906,3.07945,4.99079,7.39371,2,0.0906779,0.013375,13,56.8935,0.0403182
-0.410087,-0.511974,-0.728559,3.05834,4.95826,7.44762,3,0.0263977,0.00389366,19,45.225,0.0339615
0.408735,0.727718,-0.518071,3.0841,5.00876,7.45734,4,0.0212013,0.00312719,26,50.8414,0.0252659
-0.0372394,0.812129,-0.538097,3.13092,5.02576,7.43644,5,0.0148292,0.0021873,34,63.3506,0.0848554
-0.00601269,-0.795797,-0.565535,3.11751,4.93415,7.46019,6,0.0844154,0.0124513,43,52.7836,0.0317932
0.818522,0.400958,-0.35716,3.13664,5.04652,7.44459,7,0.0195377,0.0028818,53,97.6354,0.0498856
-0.678515,-0.678381,-0.127758,3.00962,4.95009,7.44163,8,0.0352504,0.00519944,64,92.6124,0.0200352
-0.639965,0.692341,-0.0196786,3.03373,5.03102,7.46219,9,0.0113506,0.00167421,76,83.984,0.0677024
0.864115,-0.411309,0.054087,3.1462,5.02359,7.47662,10,0.0561238,0.00827826,89,106.965,0.0926286
0.673235,0.447032,0.519945,3.16962,5.00163,7.50289,11,0.101335,0.0149469,103,117.792,0.032185
0.31404,0.676449,0.65009,3.11218,5.02351,7.53565,12,0.0198344,0.00292557,118,145.035,0.100433
-0.419251,-0.591035,0.636587,3.06088,4.94919,7.52673,13,0.122093,0.0180087,134,151.983,0.053214
0.231445,-0.147054,0.906364,3.10238,4.97078,7.55173,14,0.0386686,0.00570361,18,42.8711,0.0408913
,,,,,,,,,25,77.7042,0.0343673
,,,,,,,,,33,87.1013,0.0254898
,,,,,,,,,42,30.4467,0.0874346
,,,,,,,,,52,68.6635,0.0321485
,,,,,,,,,63,76.9522,0.050766
,,,,,,,,,75,122.521,0.0201757
,,,,,,,,,88,64.3903,0.0693342
,,,,,,,,,102,116.905,0.0957106
,,,,,,,,,117,140.264,0.0325492
,,,,,,,,,133,112.877,0.104066
,,,,,,,,,150,129.99,0.054217
,,,,,,,,,32,99.7289,0.0235159
,,,,,,,,,41,90.5085,0.0189903
,,,,,,,,,51,30.8239,0.0402186
,,,,,,,,,62,107.009,0.0224554
,,,,,,,,,74,40.7708,0.0301885
,,,,,,,,,87,94.8202,0.0158751
,,,,,,,,,101,101.241,0.0359068
,,,,,,,,,116,159.737,0.0418845
,,,,,,,,,132,168.005,0.0226502
,,,,,,,,,149,89.3497,0.0434098
,,,,,,,,,167,137.093,0.0313761
,,,,,,,,,50,26.8408,0.0174518
,,,,,,,,,61,107.512,0.0338908
,,,,,,,,,73,32.465,0.0203355
,,,,,,,,,86,137.837,0.0264777
,,,,,,,,,100,74.1863,0.0147855
,,,,,,,,,115,88.4266,0.0307765
,,,,,,,,,131,69.4661,0.0350661
,,,,,,,,,148,73.0201,0.0204951
,,,,,,,,,166,169.37,0.0361289
,,,,,,,,,185,121.206,0.0273869
,,,,,,,,,72,111.042,0.0252268
,,,,,,,,,85,59.2946,0.0168609
,,,,,,,,,99,118.96,0.0208762
,,,,,,,,,114,49.5323,0.0128588
,,,,,,,,,130,115.026,0.0234597
,,,,,,,,,147,86.4386,0.0258722
,,,,,,,,,165,78.7692,0.0169704
,,,,,,,,,184,149.105,0.0264462
,,,,,,,,,204,131.835,0.0214373
,,,,,,,,,98,97.3349,0.0317312
,,,,,,,,,113,49.3037,0.0497332
,,,,,,,,,129,125.604,0.0200106
,,,,,,,,,146,71.8486,0.067422
,,,,,,,,,164,134.181,0.0921045
,,,,,,,,,183,160.035,0.0321215
,,,,,,,,,203,83.117,0.0998169
,,,,,,,,,224,115.427,0.0530406
,,,,,,,,,128,145.591,0.0251409
,,,,,,,,,145,105.017,0.0143591
,,,,,,,,,163,56.1217,0.0289851
,,,,,,,,,182,54.6252,0.0327592
,,,,,,,,,202,72.1987,0.0196849
,,,,,,,,,223,148.783,0.033685
,,,,,,,,,245,102.032,0.0259592
,,,,,,,,,162,92.0676,0.0171719
,,,,,,,,,181,109.795,0.043303
,,,,,,,,,201,152.693,0.0523057
,,,,,,,,,222,142.039,0.0253853
,,,,,,,,,244,49.6813,0.0547062
,,,,,,,,,267,100.884,0.0368805
,,,,,,,,,200,158.125,0.0188824
,,,,,,,,,221,98.3489,0.0204145
,,,,,,,,,243,74.1658,0.0144385
,,,,,,,,,266,99.7106,0.0207702
,,,,,,,,,290,107.449,0.0175497
,,,,,,,,,242,62.4519,0.0722386
,,,,,,,,,265,88.2901,0.0293104
,,,,,,,,,289,95.2596,0.0768987
,,,,,,,,,314,70.0632,0.0457891
,,,,,,,,,288,26.3652,0.0331754
,,,,,,,,,313,103.443,0.110749
,,,,,,,,,339,51.9111,0.0559769
,,,,,,,,,338,97.0805,0.0341251
,,,,,,,,,365,53.1061,0.0262198
,,,,,,,,,392,51.6375,0.058735
