facetNormals:0,facetNormals:1,facetNormals:2,FacetCenters:0,FacetCenters:1,FacetCenters:2,FacetIds,relFacetSize,absFacetSize,cellPairingIds,interplanarAngles,angleWeights
0.295675,-0.424672,-0.8303,7.10795,6.007,9.80664,1,0.0410624,0.00278293,8,52.5572,0.0206277
-0.551098,-0.219032,-0.794385,7.04233,6.0471,9.79647,2,0.0137734,0.000933463,13,53.0485,0.0476952
0.62443,0.36687,-0.658725,7.12547,6.0757,9.82538,3,0.0568835,0.00385517,19,60.4384,0.0614082
0.13254,0.547998,-0.803882,7.08298,6.08662,9.81617,4,0.121717,0.00824916,26,33.4786,0.0524233
0.714067,-0.0766445,-0.675524,7.13406,6.02386,9.81817,5,0.0724754,0.00491188,34,32.9085,0.0243397
-0.0691232,-0.784548,-0.606992,7.08392,5.98216,9.84726,6,0.0172959,0.0011722,43,101.449,0.0563213
0.032891,0.919217,-0.236309,7.08242,6.13893,9.87245,7,0.0896266,0.00607428,53,61.7361,0.0610169
-0.544185,-0.70883,-0.37116,7.05179,6.00825,9.83134,8,0.1187,0.00804466,64,82.6866,0.0364253
-0.886822,-0.230251,-0.344879,7.01082,6.04141,9.84029,9,0.0327293,0.00221817,76,50.7962,0.0247803
0.23118,-0.92966,-0.166346,7.12584,5.98182,9.8635,10,0.0177443,0.00120258,89,73.7074,0.0604728
0.91157,0.303522,-0.152185,7.15809,6.07386,9.87101,11,0.114685,0.00777256,103,58.3229,0.0429546
0.690642,-0.680605,-0.00594515,7.15512,5.98576,9.87687,12,0.0450296,0.0030518,118,102.857,0.0313259
-0.974003,0.132664,-0.153831,7.01533,6.07067,9.84492,13,0.0253218,0.00171614,134,115.334,0.0482816
-0.798124,0.546814,-0.0746531,7.03175,6.10567,9.84306,14,0.0585807,0.0039702,151,136.247,0.00609344
-0.57485,-0.24456,0.753355,7.03826,6.06043,9.88298,15,0.0032909,0.000223034,18,84.1568,0.0221769
,,,,,,,,,25,62.7606,0.0247464
,,,,,,,,,33,80.5847,0.0231477
,,,,,,,,,42,45.4009,0.0153349
,,,,,,,,,52,91.9323,0.0238774
,,,,,,,,,63,38.5691,0.0246827
,,,,,,,,,75,33.0867,0.0193878
,,,,,,,,,88,77.5156,0.0155087
,,,,,,,,,102,117.68,0.0245931
,,,,,,,,,117,103.648,0.0210945
,,,,,,,,,133,50.3093,0.0178419
,,,,,,,,,150,66.7721,0.0223029
,,,,,,,,,168,103.597,0.00531247
,,,,,,,,,32,32.2073,0.0775327
,,,,,,,,,41,26.6424,0.0637398
,,,,,,,,,51,85.9442,0.0265263
,,,,,,,,,62,56.479,0.0695962
,,,,,,,,,74,112.032,0.07691
,,,,,,,,,87,115.397,0.0415511
,,,,,,,,,101,95.252,0.0270504
,,,,,,,,,116,34.9243,0.0760475
,,,,,,,,,132,78.7326,0.0502672
,,,,,,,,,149,118.06,0.0350438
,,,,,,,,,167,105.17,0.0577196
,,,,,,,,,186,170.483,0.00622184
,,,,,,,,,50,52.0249,0.0908531
,,,,,,,,,61,87.1316,0.0302879
,,,,,,,,,73,41.5302,0.103236
,,,,,,,,,86,99.8292,0.12019
,,,,,,,,,100,88.0013,0.051587
,,,,,,,,,115,111.19,0.0309732
,,,,,,,,,131,64.6134,0.118096
,,,,,,,,,148,106.892,0.065739
,,,,,,,,,166,86.0518,0.0419222
,,,,,,,,,185,74.5459,0.0790944
,,,,,,,,,205,148.1,0.00640853
,,,,,,,,,72,64.5812,0.0279271
,,,,,,,,,85,83.089,0.0801437
,,,,,,,,,99,95.0228,0.0899993
,,,,,,,,,114,113.354,0.0450943
,,,,,,,,,130,68.6697,0.0285087
,,,,,,,,,147,40.3923,0.0888205
,,,,,,,,,165,54.928,0.0555472
,,,,,,,,,184,127.837,0.0375309
,,,,,,,,,204,125.93,0.0647915
,,,,,,,,,225,158.969,0.00629592
,,,,,,,,,98,127.895,0.0289962
,,,,,,,,,113,31.6563,0.0301924
,,,,,,,,,129,62.3811,0.0226319
,,,,,,,,,146,32.6156,0.0175172
,,,,,,,,,164,102.464,0.0300586
,,,,,,,,,183,59.4672,0.0249923
,,,,,,,,,203,86.7192,0.0205531
,,,,,,,,,224,109.906,0.0267067
,,,,,,,,,246,103.409,0.00552966
,,,,,,,,,128,129.277,0.102135
,,,,,,,,,145,99.8672,0.0479489
,,,,,,,,,163,151.005,0.0296237
,,,,,,,,,182,68.0745,0.100619
,,,,,,,,,202,130.783,0.0599431
,,,,,,,,,223,82.3208,0.0394874
,,,,,,,,,245,57.5811,0.070852
,,,,,,,,,268,116.985,0.00634869
,,,,,,,,,162,35.2293,0.0513106
,,,,,,,,,181,50.7794,0.0308733
,,,,,,,,,201,134.073,0.116658
,,,,,,,,,222,83.3411,0.0652908
,,,,,,,,,244,59.1917,0.0417395
,,,,,,,,,267,85.453,0.0784465
,,,,,,,,,291,77.4014,0.00640424
,,,,,,,,,200,85.9994,0.0230123
,,,,,,,,,221,150.13,0.0509253
,,,,,,,,,243,118.552,0.0379066
,,,,,,,,,266,24.5105,0.0285529
,,,,,,,,,290,50.2347,0.0419955
,,,,,,,,,315,71.3568,0.00598047
,,,,,,,,,242,92.7949,0.0307334
,,,,,,,,,265,32.7002,0.025457
,,,,,,,,,289,109.499,0.0208664
,,,,,,,,,314,136.154,0.027238
,,,,,,,,,340,91.8581,0.00555209
,,,,,,,,,288,63.2946,0.0646681
,,,,,,,,,313,148.383,0.0414841
,,,,,,,,,339,125.656,0.0775494
,,,,,,,,,366,138.489,0.0063982
,,,,,,,,,338,142.175,0.0324153
,,,,,,,,,365,168.783,0.050919
,,,,,,,,,393,104.34,0.00613354
,,,,,,,,,392,26.8466,0.0353593
,,,,,,,,,421,64.9967,0.00582479
,,,,,,,,,450,73.5557,0.00623172
