Q	U	V
{$V$}	{[mm$^3$]}	0.00590873
{$d_v$}	{[mm]}	0.224301
{$S_c$}	{[mm$^2$]}	0.222898
{$S_o$}	{[mm$^2$]}	0.152006
{$S_l/S_o$}	[]	0.466376
{$\Psi$}	[]	0.7091
{$\eta$}	[]	0.721433
{med($\theta_e$)}	{[$^\circ$]}	66.19035
{$\Upsilon$}	[]	12
{$\Xi$}	[]	8
