facetNormals:0,facetNormals:1,facetNormals:2,FacetCenters:0,FacetCenters:1,FacetCenters:2,FacetIds,relFacetSize,absFacetSize,cellPairingIds,interplanarAngles,angleWeights
-0.446779,-0.103689,-0.853308,6.50698,5.42181,6.60714,1,0.084352,0.0100563,8,56.4545,0.0889712
0.0482732,0.634563,-0.692363,6.53849,5.47877,6.6144,2,0.0941256,0.0112215,13,31.8507,0.0510137
-0.405062,0.428716,-0.793327,6.52971,5.45992,6.60108,3,0.0365629,0.00435899,19,47.1146,0.0342494
0.0409048,-0.693163,-0.697707,6.55934,5.38507,6.61924,4,0.0214869,0.00256164,26,94.5864,0.0235166
0.796893,0.423663,-0.379831,6.60307,5.46895,6.65396,5,0.0136628,0.00162887,34,69.6511,0.0390239
-0.699547,0.652714,-0.0925215,6.47754,5.4913,6.6526,6,0.0253836,0.0030262,43,93.8862,0.0956949
0.818645,-0.440738,-0.299905,6.61603,5.39556,6.64732,7,0.110562,0.0131811,53,48.4736,0.0847339
-0.938413,-0.0227014,-0.23405,6.44625,5.43491,6.67076,8,0.0851193,0.0101478,64,84.3149,0.104165
0.325877,-0.890671,-0.170773,6.57177,5.35659,6.67734,9,0.136144,0.0162309,76,69.6807,0.100342
-0.566737,-0.787925,0.00982467,6.49893,5.35932,6.69407,10,0.123811,0.0147606,89,131.325,0.0403445
0.515798,0.735595,0.368537,6.60017,5.4762,6.64248,11,0.0265125,0.00316079,103,108.552,0.0189871
-0.13946,-0.818115,0.527672,6.52059,5.50112,6.63034,12,0.0106975,0.00127534,118,108.624,0.0068126
-0.58955,-0.359587,0.712004,6.53458,5.51248,6.64499,13,0.00354964,0.000423184,18,30.4082,0.0526673
,,,,,,,,,25,87.2021,0.034987
,,,,,,,,,33,51.7335,0.023862
,,,,,,,,,42,60.5472,0.0399842
,,,,,,,,,52,92.0282,0.101684
,,,,,,,,,63,83.541,0.0893962
,,,,,,,,,75,118.414,0.111301
,,,,,,,,,88,125.816,0.106946
,,,,,,,,,102,74.9892,0.0413718
,,,,,,,,,117,164.5,0.0192116
,,,,,,,,,133,143.479,0.00684129
,,,,,,,,,32,75.7353,0.0270672
,,,,,,,,,41,80.4755,0.0198923
,,,,,,,,,51,47.9381,0.0299645
,,,,,,,,,62,107.017,0.0549529
,,,,,,,,,74,54.4482,0.0511531
,,,,,,,,,87,113.402,0.0576447
,,,,,,,,,101,96.9454,0.0564542
,,,,,,,,,116,101.169,0.030737
,,,,,,,,,132,137.159,0.0165522
,,,,,,,,,149,119.324,0.00647106
,,,,,,,,,50,89.7658,0.0167041
,,,,,,,,,61,116.116,0.0232732
,,,,,,,,,73,55.2421,0.0359811
,,,,,,,,,86,81.5066,0.0343122
,,,,,,,,,100,37.7674,0.0371159
,,,,,,,,,115,57.3028,0.0366187
,,,,,,,,,131,141.293,0.0237366
,,,,,,,,,148,78.4867,0.0142837
,,,,,,,,,166,106.153,0.00609276
,,,,,,,,,72,105.138,0.0177641
,,,,,,,,,85,52.7088,0.0243203
,,,,,,,,,99,134.889,0.0235462
,,,,,,,,,114,93.2071,0.0248335
,,,,,,,,,130,146.134,0.0246099
,,,,,,,,,147,52.2064,0.0180328
,,,,,,,,,165,133.115,0.0119997
,,,,,,,,,184,156.785,0.00563524
,,,,,,,,,98,152.456,0.041288
,,,,,,,,,113,44.4968,0.0391054
,,,,,,,,,129,148.943,0.0427892
,,,,,,,,,146,97.3117,0.0421297
,,,,,,,,,164,84.7622,0.0259358
,,,,,,,,,183,120.885,0.0150517
,,,,,,,,,203,83.2638,0.00622832
,,,,,,,,,128,136.719,0.0961867
,,,,,,,,,145,40.996,0.122027
,,,,,,,,,163,97.2481,0.116812
,,,,,,,,,182,90.7535,0.0427692
,,,,,,,,,202,84.7354,0.0195076
,,,,,,,,,223,123.703,0.00687845
,,,,,,,,,162,105.276,0.104748
,,,,,,,,,181,54.3398,0.100882
,,,,,,,,,201,128.67,0.0404316
,,,,,,,,,222,88.4376,0.0190064
,,,,,,,,,244,65.7076,0.00681509
,,,,,,,,,200,56.5618,0.129685
,,,,,,,,,221,125.999,0.0443821
,,,,,,,,,243,51.2573,0.0198364
,,,,,,,,,266,89.6067,0.00691889
,,,,,,,,,242,157.106,0.043673
,,,,,,,,,265,40.2246,0.0196935
,,,,,,,,,289,49.5632,0.00690142
,,,,,,,,,288,120.122,0.0152442
,,,,,,,,,313,108.536,0.00626103
,,,,,,,,,338,39.5548,0.00533052
