facetNormals:0,facetNormals:1,facetNormals:2,FacetCenters:0,FacetCenters:1,FacetCenters:2,FacetIds,relFacetSize,absFacetSize,cellPairingIds,interplanarAngles,angleWeights
-0.0889591,0.19168,-0.901639,6.43775,4.30308,5.63604,1,0.0534065,0.00855201,8,26.2928,0.0291197
-0.395617,-0.112866,-0.876852,6.41398,4.26303,5.66284,2,0.0200169,0.00320532,13,47.514,0.022407
0.0327701,0.843173,-0.506813,6.47355,4.34717,5.73885,3,0.0141777,0.00227028,19,100.566,0.0388148
-0.0838354,-0.896775,-0.0127272,6.47132,4.21788,5.7975,4,0.0304856,0.00488167,26,62.853,0.0710938
0.788214,0.253002,-0.47013,6.51845,4.30244,5.69827,5,0.106298,0.0170215,34,80.9891,0.052564
0.58497,0.775052,-0.0493548,6.52244,4.32674,5.77855,6,0.0517477,0.00828639,43,72.3468,0.0688642
-0.747419,0.594243,-0.098931,6.38836,4.31541,5.72933,7,0.0969147,0.015519,53,96.0147,0.027107
0.884124,0.43683,0.112455,6.55519,4.2815,5.78587,8,0.0181629,0.00290844,64,110.788,0.0537999
0.939503,0.013082,0.266063,6.55571,4.25464,5.82485,9,0.0541991,0.00867893,76,94.5998,0.0440926
0.301738,0.903543,0.243296,6.52559,4.289,5.74837,10,0.0375448,0.00601207,89,101.442,0.0421231
-0.662967,0.616611,0.39801,6.3889,4.30681,5.7573,11,0.0347759,0.00556868,103,117.818,0.0270922
0.339897,0.716365,0.593466,6.50917,4.30161,5.80417,12,0.0181496,0.0029063,118,121.594,0.0644046
-0.66263,0.303412,0.658357,6.41822,4.28444,5.84586,13,0.0811073,0.0129877,134,153.612,0.0574717
0.481683,-0.0243639,0.83261,6.51781,4.26473,5.89231,14,0.0622068,0.00996121,18,69.3465,0.0165987
,,,,,,,,,25,80.3972,0.0241662
,,,,,,,,,33,85.531,0.0336897
,,,,,,,,,42,107.019,0.0288674
,,,,,,,,,52,70.173,0.0331806
,,,,,,,,,63,121.178,0.0190449
,,,,,,,,,75,129.88,0.0292362
,,,,,,,,,88,117.16,0.0261122
,,,,,,,,,102,99.3912,0.0254087
,,,,,,,,,117,140.08,0.0190376
,,,,,,,,,133,111.548,0.0321094
,,,,,,,,,150,170.029,0.0302878
,,,,,,,,,32,148.063,0.0193544
,,,,,,,,,41,59.3706,0.0250185
,,,,,,,,,51,43.1964,0.0222574
,,,,,,,,,62,56.1238,0.0247367
,,,,,,,,,74,69.6152,0.0159248
,,,,,,,,,87,95.5537,0.022476
,,,,,,,,,101,47.9303,0.0205829
,,,,,,,,,116,72.2696,0.0201432
,,,,,,,,,132,71.1868,0.0159196
,,,,,,,,,149,95.9106,0.0241363
,,,,,,,,,167,116.78,0.0230924
,,,,,,,,,50,109.552,0.0473822
,,,,,,,,,61,148.091,0.0383679
,,,,,,,,,73,122.844,0.0463814
,,,,,,,,,86,121.511,0.0227636
,,,,,,,,,100,96.1267,0.0390222
,,,,,,,,,115,161.26,0.0336489
,,,,,,,,,131,124.332,0.0324897
,,,,,,,,,148,139.508,0.0227531
,,,,,,,,,166,104.729,0.0443147
,,,,,,,,,185,91.926,0.0409184
,,,,,,,,,72,42.6886,0.0696086
,,,,,,,,,85,115.419,0.10139
,,,,,,,,,99,37.0107,0.0310247
,,,,,,,,,114,48.2743,0.0717926
,,,,,,,,,130,67.9059,0.0554902
,,,,,,,,,147,126.018,0.0524066
,,,,,,,,,165,79.6037,0.0310053
,,,,,,,,,184,143.857,0.0920094
,,,,,,,,,204,91.1215,0.0784838
,,,,,,,,,98,88.2665,0.0674699
,,,,,,,,,113,28.2356,0.0268883
,,,,,,,,,129,54.8529,0.0529451
,,,,,,,,,146,25.2212,0.0435167
,,,,,,,,,164,85.7987,0.0415973
,,,,,,,,,183,41.1804,0.0268737
,,,,,,,,,203,101.168,0.0631834
,,,,,,,,,224,76.286,0.0564973
,,,,,,,,,128,115.644,0.0305924
,,,,,,,,,145,140.25,0.0695197
,,,,,,,,,163,72.2759,0.0541226
,,,,,,,,,182,29.9602,0.051185
,,,,,,,,,202,83.178,0.0305736
,,,,,,,,,223,49.6499,0.0883092
,,,,,,,,,245,119.644,0.0757755
,,,,,,,,,162,26.6518,0.027208
,,,,,,,,,181,45.0992,0.0244822
,,,,,,,,,201,106.088,0.0238627
,,,,,,,,,222,46.2173,0.0181563
,,,,,,,,,244,112.897,0.0296795
,,,,,,,,,267,57.8043,0.0281165
,,,,,,,,,200,67.976,0.0443604
,,,,,,,,,221,121.797,0.0423674
,,,,,,,,,243,59.7933,0.0271931
,,,,,,,,,266,117.537,0.0649776
,,,,,,,,,290,44.1899,0.0579275
,,,,,,,,,242,62.1716,0.0361074
,,,,,,,,,265,23.3174,0.0244701
,,,,,,,,,289,75.9522,0.0513292
,,,,,,,,,314,69.8491,0.0468272
,,,,,,,,,288,62.481,0.0238512
,,,,,,,,,313,23.8454,0.0486797
,,,,,,,,,339,90.1792,0.044612
,,,,,,,,,338,66.8224,0.0296617
,,,,,,,,,365,47.7792,0.0281005
,,,,,,,,,392,76.4392,0.0704107
