Q	U	V
{$V$}	{[mm$^3$]}	0.00513214
{$d_v$}	{[mm]}	0.214010
{$S_c$}	{[mm$^2$]}	0.224122
{$S_o$}	{[mm$^2$]}	0.146054
{$S_l/S_o$}	[]	0.534515
{$\Psi$}	[]	0.641995
{$\eta$}	[]	0.680669
{med($\theta_e$)}	{[$^\circ$]}	67.3041
{$\Upsilon$}	[]	10
{$\Xi$}	[]	9
