facetNormals:0,facetNormals:1,facetNormals:2,FacetCenters:0,FacetCenters:1,FacetCenters:2,FacetIds,relFacetSize,absFacetSize,cellPairingIds,interplanarAngles,angleWeights
-0.135081,0.173432,-0.942767,6.4432,4.94478,9.16254,1,0.0185689,0.00407571,8,35.7583,0.0246922
0.036413,-0.388551,-0.875105,6.42364,4.89926,9.19048,2,0.0368408,0.00808621,13,53.6054,0.0203444
-0.609971,-0.462068,-0.584137,6.46204,4.89397,9.17598,3,0.0224953,0.0049375,19,84.9455,0.020865
0.43758,-0.827223,-0.303885,6.46648,4.85971,9.26041,4,0.023809,0.00522586,26,78.7383,0.0308161
0.857263,-0.240598,-0.359654,6.38743,4.93045,9.31342,5,0.0905152,0.0198673,34,77.478,0.0121003
0.833178,0.450825,-0.254847,6.59493,4.93344,9.21974,6,0.00897407,0.00196973,43,86.8146,0.0309276
0.0635359,-0.933169,-0.235807,6.5308,4.86218,9.20846,7,0.0924749,0.0202974,53,96.6338,0.0260908
0.749741,-0.626062,-0.106048,6.43336,4.87664,9.30184,8,0.043856,0.00962599,64,82.611,0.0175429
0.347347,0.916428,-0.0106099,6.45575,4.99898,9.34544,9,0.0166243,0.00364888,76,87.0283,0.015458
-0.816097,-0.555384,-0.0378256,6.41454,4.8693,9.22015,10,0.0132399,0.00290604,89,99.0724,0.0272756
-0.325971,-0.924883,0.0354472,6.41219,4.85987,9.26541,11,0.0513552,0.011272,103,65.306,0.0247574
-0.362833,0.83702,-0.194146,6.38744,4.99279,9.25518,12,0.0371324,0.00815022,118,93.3063,0.0246205
-0.965365,0.00718512,0.198003,6.33818,4.94561,9.26743,13,0.0365234,0.00801656,134,124.887,0.0218273
0.439756,-0.80004,0.367883,6.51645,4.86854,9.30022,14,0.0264724,0.00581046,151,131.253,0.0278472
0.777836,-0.324068,0.488349,6.54903,4.91802,9.31264,15,0.0556568,0.0122162,169,111.899,0.0299397
-0.818497,0.162392,0.524645,6.39057,4.94837,9.3347,16,0.077235,0.0169524,188,172.335,0.0315801
0.187858,-0.269624,0.867774,6.54366,4.92395,9.30869,17,0.105511,0.0231587,208,132.195,0.0168167
0.0889308,0.594397,0.770598,6.48399,4.99199,9.33234,18,0.0153666,0.00337283,18,43.5545,0.0279339
,,,,,,,,,25,50.2158,0.0289248
,,,,,,,,,33,61.4722,0.0523674
,,,,,,,,,42,85.2286,0.0144325
,,,,,,,,,52,51.8248,0.0526904
,,,,,,,,,63,67.2958,0.0400435
,,,,,,,,,75,110.843,0.0229103
,,,,,,,,,88,76.6114,0.0194793
,,,,,,,,,102,70.3309,0.0429036
,,,,,,,,,117,100.87,0.036986
,,,,,,,,,133,102.925,0.0366814
,,,,,,,,,150,89.7003,0.0308076
,,,,,,,,,168,107.018,0.044335
,,,,,,,,,187,125.767,0.0498861
,,,,,,,,,207,136.768,0.0546127
,,,,,,,,,228,164.44,0.0216872
,,,,,,,,,32,71.9922,0.0231335
,,,,,,,,,41,102.599,0.036035
,,,,,,,,,51,126.947,0.0128299
,,,,,,,,,62,55.1848,0.0361876
,,,,,,,,,74,96.4401,0.0297373
,,,,,,,,,87,131.818,0.0191192
,,,,,,,,,101,35.2636,0.016669
,,,,,,,,,116,50.138,0.0312862
,,,,,,,,,132,93.3222,0.0280173
,,,,,,,,,149,60.3133,0.0278422
,,,,,,,,,167,96.8771,0.0243223
,,,,,,,,,186,130.585,0.0320405
,,,,,,,,,206,82.8713,0.0348424
,,,,,,,,,227,123.797,0.0370841
,,,,,,,,,249,145.899,0.0182598
,,,,,,,,,50,43.6695,0.0377011
,,,,,,,,,61,85.8952,0.013035
,,,,,,,,,73,23.345,0.0378683
,,,,,,,,,86,24.711,0.0308629
,,,,,,,,,100,128.694,0.0195783
,,,,,,,,,115,83.2757,0.0170169
,,,,,,,,,131,50.6897,0.0325345
,,,,,,,,,148,149.677,0.0290143
,,,,,,,,,166,120.254,0.0288265
,,,,,,,,,185,39.9478,0.0250702
,,,,,,,,,205,61.31,0.033351
,,,,,,,,,226,132.237,0.0363978
,,,,,,,,,248,87.3924,0.0388511
,,,,,,,,,271,135.596,0.0186781
,,,,,,,,,72,42.2386,0.0163292
,,,,,,,,,85,66.8745,0.0914845
,,,,,,,,,99,28.1994,0.0590846
,,,,,,,,,114,85.0572,0.0280896
,,,,,,,,,130,125.612,0.0231008
,,,,,,,,,147,94.2399,0.0655306
,,,,,,,,,165,119.615,0.0526613
,,,,,,,,,184,162.095,0.052046
,,,,,,,,,204,62.4501,0.0409643
,,,,,,,,,225,52.5152,0.0689296
,,,,,,,,,247,169.093,0.0833494
,,,,,,,,,270,95.5504,0.0974396
,,,,,,,,,294,111.499,0.0262729
,,,,,,,,,98,108.974,0.0163605
,,,,,,,,,113,67.4612,0.0148994
,,,,,,,,,129,42.8192,0.011656
,,,,,,,,,146,161.812,0.0106974
,,,,,,,,,164,136.44,0.0152783
,,,,,,,,,183,82.1783,0.0144547
,,,,,,,,,203,151.74,0.014408
,,,,,,,,,224,95.2313,0.0134042
,,,,,,,,,246,66.7256,0.015456
,,,,,,,,,269,140.158,0.0160798
,,,,,,,,,293,101.802,0.0165413
,,,,,,,,,318,81.2598,0.0113309
,,,,,,,,,128,46.124,0.0594961
,,,,,,,,,145,151.471,0.0281822
,,,,,,,,,163,60.0774,0.0231635
,,,,,,,,,182,28.2244,0.0660371
,,,,,,,,,202,147.449,0.0529879
,,,,,,,,,223,96.9321,0.052365
,,,,,,,,,245,43.5809,0.0411617
,,,,,,,,,268,75.4082,0.0694903
,,,,,,,,,292,110.133,0.0841707
,,,,,,,,,317,86.2261,0.0985638
,,,,,,,,,343,140.822,0.0263539
,,,,,,,,,162,108.917,0.0241095
,,,,,,,,,181,105.547,0.0203395
,,,,,,,,,201,69.9283,0.0473103
,,,,,,,,,222,147.803,0.0402151
,,,,,,,,,244,140.7,0.0398553
,,,,,,,,,267,35.0614,0.0330158
,,,,,,,,,291,39.8827,0.0490567
,,,,,,,,,316,142.759,0.055945
,,,,,,,,,342,76.1899,0.0619587
,,,,,,,,,369,113.781,0.0227588
,,,,,,,,,200,144.889,0.0147403
,,,,,,,,,221,178.024,0.0251177
,,,,,,,,,243,45.2919,0.0229664
,,,,,,,,,266,110.03,0.0228486
,,,,,,,,,290,127.281,0.0204231
,,,,,,,,,315,91.9204,0.0256016
,,,,,,,,,341,98.3954,0.0273596
,,,,,,,,,368,102.126,0.028723
,,,,,,,,,396,53.6706,0.0159707
,,,,,,,,,242,36.5894,0.0210523
,,,,,,,,,265,100.09,0.0195198
,,,,,,,,,289,37.1124,0.0194347
,,,,,,,,,314,85.7811,0.0176516
,,,,,,,,,340,119.466,0.0213912
,,,,,,,,,367,55.0408,0.0226048
,,,,,,,,,395,92.2752,0.0235275
,,,,,,,,,424,116.572,0.0142242
,,,,,,,,,288,136.396,0.0431007
,,,,,,,,,313,70.9865,0.0426877
,,,,,,,,,339,50.8619,0.0349361
,,,,,,,,,366,86.1912,0.0534195
,,,,,,,,,394,81.9643,0.0616908
,,,,,,,,,423,76.0899,0.0690849
,,,,,,,,,453,125.101,0.0236551
,,,,,,,,,338,69.77,0.0368254
,,,,,,,,,365,168.825,0.0309091
,,,,,,,,,393,135.534,0.0445455
,,,,,,,,,422,68.8945,0.0501527
,,,,,,,,,452,122.288,0.0549324
,,,,,,,,,483,69.7391,0.0217375
,,,,,,,,,392,111.623,0.0306961
,,,,,,,,,421,133.16,0.0441044
,,,,,,,,,451,22.8422,0.0495943
,,,,,,,,,482,90.7185,0.0542632
,,,,,,,,,514,85.7722,0.0216319
,,,,,,,,,450,35.4419,0.0358793
,,,,,,,,,481,107.817,0.0394301
,,,,,,,,,513,47.4545,0.0423255
,,,,,,,,,546,99.1491,0.0194455
,,,,,,,,,512,116.816,0.064694
,,,,,,,,,545,43.3393,0.0728732
,,,,,,,,,579,74.5927,0.0240838
,,,,,,,,,578,73.6332,0.0891855
,,,,,,,,,613,63.6183,0.0256332
,,,,,,,,,648,54.6117,0.0268262
