"cellPairingIds","interplanarAngles","angleWeights"
8,42.2209,0.0203754
19,44.6231,0.0195522
26,66.1624,0.0163927
53,79.4637,0.0187681
64,86.5964,0.0141531
89,122.94,0.010153
25,41.5372,0.0833175
42,46.8926,0.109836
102,111.705,0.0168491
61,74.9018,0.0895201
73,36.9541,0.0341357
86,50.8953,0.0617078
114,46.1813,0.023022
147,73.0592,0.0140303
98,79.4929,0.037883
164,81.5169,0.0170885
183,43.6532,0.0448722
203,57.5302,0.111202
128,33.1686,0.031815
202,74.7616,0.0247465
245,85.6842,0.0395357
162,76.1941,0.0279986
267,72.3514,0.0819391
221,92.853,0.0123568
290,69.0348,0.033809
313,45.9943,0.0168809
339,82.7044,0.0174169
338,29.6389,0.0434683
365,75.4312,0.0472097
392,69.6025,0.126755
