"cellPairingIds","interplanarAngles","angleWeights"
8,37.1632,0.0372597
19,45.869,0.0848479
34,59.612,0.0180139
43,76.305,0.105203
18,44.6076,0.0209356
25,57.6217,0.0361027
52,67.1317,0.0393416
63,44.1336,0.0319949
102,63.2492,0.041683
62,30.7767,0.0328597
87,35.9773,0.0343634
116,59.8491,0.0344773
61,47.1712,0.017739
86,36.2841,0.0617202
115,65.1565,0.00634669
98,121.039,0.0184868
146,35.3627,0.00496797
224,74.4478,0.0127459
145,52.4764,0.14807
245,116.544,0.0308172
181,92.5856,0.0062066
201,51.5138,0.0800385
222,43.843,0.0295225
244,56.7508,0.0353886
221,39.3275,0.187767
290,122.415,0.032136
265,56.9313,0.00570669
289,87.5465,0.0058956
314,47.854,0.00556649
313,40.0159,0.0476342
339,127.994,0.0322355
338,41.253,0.0236006
392,94.5174,0.0213742
