"cellPairingIds","interplanarAngles","angleWeights"
51,97.073,0.0260729
62,107.574,0.0224003
74,98.5025,0.02355
87,71.7169,0.0301577
132,121.697,0.0335474
167,102.654,0.0268611
186,138.585,0.0284803
206,139.531,0.0279724
98,41.3015,0.0274716
129,38.181,0.0401317
203,82.8129,0.0482619
246,62.0183,0.037215
128,76.5762,0.0246851
223,68.5735,0.0370252
222,34.6423,0.0389462
244,76.5524,0.0402752
315,70.7852,0.0461341
338,55.438,0.0821363
365,50.8902,0.0489186
422,79.0927,0.052734
421,46.1699,0.057214
451,46.1935,0.0552004
481,61.6085,0.0379032
512,29.3098,0.0412092
