facetNormals:0,facetNormals:1,facetNormals:2,FacetCenters:0,FacetCenters:1,FacetCenters:2,FacetIds,relFacetSize,absFacetSize,cellPairingIds,interplanarAngles,angleWeights
0.0138308,-0.726098,-0.66959,6.0259,7.64548,9.10712,1,0.0126588,0.0027988,8,56.3425,0.0229759
-0.757659,-0.437768,-0.296281,5.97166,7.6776,9.10718,2,0.1242,0.0274599,13,47.5887,0.0156058
0.726019,-0.509459,-0.401048,6.09959,7.66084,9.12118,3,0.0203411,0.00449731,19,109.161,0.0224261
-0.173458,0.82262,-0.436868,6.02044,7.81626,9.15608,4,0.0981762,0.0217062,26,114.954,0.0149396
-0.660364,0.720862,-0.177,5.98877,7.79862,9.1124,5,0.0182227,0.00402894,34,109.688,0.0225127
-0.891385,0.232091,0.198176,5.95374,7.76089,9.20447,6,0.1016,0.0224632,43,38.0058,0.0181865
0.299199,-0.91455,-0.130925,6.06949,7.63872,9.12141,7,0.0322836,0.00713772,53,143.28,0.0208627
-0.231689,0.935406,0.130879,6.04504,7.8336,9.19022,8,0.059282,0.0131069,64,61.6727,0.0180924
0.56327,-0.793074,0.179238,6.11593,7.6728,9.16653,9,0.0316984,0.00700835,76,78.1981,0.0195564
0.777169,-0.52468,0.288952,6.13842,7.71072,9.23734,10,0.0429694,0.00950031,89,70.2459,0.0182206
0.22694,-0.853667,0.438651,6.06275,7.64224,9.21482,11,0.0324993,0.00718542,103,113.377,0.0212026
0.857381,0.1873,0.372718,6.16087,7.78257,9.21875,12,0.0652232,0.0144205,118,101.473,0.0226016
-0.12559,-0.492642,0.81299,6.02425,7.70442,9.27568,13,0.105337,0.0232895,134,159.862,0.0207056
0.270253,0.553176,0.754465,6.08183,7.81492,9.29815,14,0.0568309,0.012565,18,103.389,0.0349571
,,,,,,,,,25,96.5115,0.109665
,,,,,,,,,33,75.0227,0.0317823
,,,,,,,,,42,53.7206,0.111769
,,,,,,,,,52,76.3012,0.0512465
,,,,,,,,,63,107.671,0.0802566
,,,,,,,,,75,98.3493,0.0505065
,,,,,,,,,88,119.383,0.063849
,,,,,,,,,102,85.4801,0.051518
,,,,,,,,,117,162.926,0.0855304
,,,,,,,,,133,85.4713,0.113994
,,,,,,,,,150,138.182,0.07798
,,,,,,,,,32,113.641,0.0337
,,,,,,,,,41,143.333,0.0192237
,,,,,,,,,51,157.108,0.033896
,,,,,,,,,62,38.8996,0.0249573
,,,,,,,,,74,137.438,0.0302893
,,,,,,,,,87,39.6703,0.0247805
,,,,,,,,,101,41.4702,0.0276114
,,,,,,,,,116,63.8062,0.0250215
,,,,,,,,,132,65.9943,0.0310109
,,,,,,,,,149,100.26,0.0340978
,,,,,,,,,167,114.176,0.0299592
,,,,,,,,,50,33.5066,0.0307397
,,,,,,,,,61,73.1359,0.0998588
,,,,,,,,,73,144.284,0.0485894
,,,,,,,,,86,35.2459,0.0739254
,,,,,,,,,100,152.126,0.0479236
,,,,,,,,,115,138.166,0.0597762
,,,,,,,,,131,177.143,0.0488333
,,,,,,,,,148,100.039,0.0783769
,,,,,,,,,166,144.396,0.101631
,,,,,,,,,185,85.1144,0.0719895
,,,,,,,,,72,39.6366,0.0309028
,,,,,,,,,85,149.778,0.0232959
,,,,,,,,,99,33.6683,0.0278764
,,,,,,,,,114,173.005,0.0231417
,,,,,,,,,130,165.22,0.0255921
,,,,,,,,,147,149.342,0.0233518
,,,,,,,,,165,121.655,0.0284865
,,,,,,,,,184,115.898,0.0310704
,,,,,,,,,204,84.855,0.0275966
,,,,,,,,,98,123.493,0.0489979
,,,,,,,,,113,60.6179,0.0748754
,,,,,,,,,129,134.279,0.0483211
,,,,,,,,,146,144.998,0.0603958
,,,,,,,,,164,109.717,0.0492461
,,,,,,,,,183,136.065,0.0794455
,,,,,,,,,203,79.8809,0.103435
,,,,,,,,,224,87.6885,0.0728901
,,,,,,,,,128,175.834,0.0418025
,,,,,,,,,145,25.0264,0.0319883
,,,,,,,,,163,44.935,0.0368678
,,,,,,,,,182,34.3004,0.0323911
,,,,,,,,,202,87.7449,0.0431896
,,,,,,,,,223,70.7806,0.0494208
,,,,,,,,,245,123.637,0.0411764
,,,,,,,,,162,151.943,0.0413088
,,,,,,,,,181,131.559,0.0498245
,,,,,,,,,201,145.844,0.041983
,,,,,,,,,222,88.4343,0.0621109
,,,,,,,,,244,110.418,0.0758673
,,,,,,,,,267,54.2296,0.0580306
,,,,,,,,,200,21.0689,0.0364833
,,,,,,,,,221,25.0888,0.0320939
,,,,,,,,,243,64.8236,0.0426628
,,,,,,,,,266,60.5939,0.0487322
,,,,,,,,,290,99.0348,0.0406973
,,,,,,,,,242,39.0966,0.0370081
,,,,,,,,,265,43.7549,0.0518077
,,,,,,,,,289,65.1229,0.0610395
,,,,,,,,,314,81.7082,0.0489376
,,,,,,,,,288,77.8339,0.0433822
,,,,,,,,,313,37.6569,0.0496732
,,,,,,,,,339,94.7753,0.0413514
,,,,,,,,,338,83.5272,0.0805631
,,,,,,,,,365,48.393,0.0607386
,,,,,,,,,392,70.8103,0.0738297
