"cellPairingIds","interplanarAngles","angleWeights"
8,58.0453,0.0614335
13,63.9769,0.0459926
34,84.0453,0.0297621
89,63.372,0.029201
18,46.3358,0.0405674
25,29.3589,0.0489921
63,67.4773,0.0435868
102,108.055,0.0269156
32,29.7338,0.0386453
51,59.2466,0.0238252
50,47.9088,0.0682566
61,85.8524,0.0265016
86,82.693,0.0413758
72,68.5282,0.0325238
85,48.6813,0.0663351
99,98.6424,0.0582009
204,103.231,0.0645917
98,31.5006,0.0262069
164,106.813,0.018357
183,41.2179,0.0200192
203,74.8801,0.0330856
202,32.0047,0.0291712
223,69.2844,0.0687147
245,93.0738,0.0436813
201,86.1782,0.0244437
244,114.217,0.0600247
267,70.8102,0.04
313,65.204,0.0323937
338,38.1072,0.0379549
392,45.9764,0.0668458
