Q	U	V
{$V$}	{[mm$^3$]}	0.00398032
{$d_v$}	{[mm]}	0.196625
{$S_c$}	{[mm$^2$]}	0.19705
{$S_o$}	{[mm$^2$]}	0.120846
{$S_l/S_o$}	[]	0.630588
{$\Psi$}	[]	0.616386
{$\eta$}	[]	0.671023
{med($\theta_e$)}	{[$^\circ$]}	52.6334
{$\Upsilon$}	[]	17
{$\Xi$}	[]	11
