facetNormals:0,facetNormals:1,facetNormals:2,FacetCenters:0,FacetCenters:1,FacetCenters:2,FacetIds,relFacetSize,absFacetSize,cellPairingIds,interplanarAngles,angleWeights
-0.22302,-0.0321151,-0.963276,3.47594,3.74221,9.297,1,0.0226589,0.00446218,8,41.8235,0.0339078
0.40213,-0.298152,-0.815468,3.5357,3.69592,9.32617,2,0.0673374,0.0132607,13,28.1744,0.0227247
-0.148064,0.429919,-0.863732,3.44946,3.79361,9.32714,3,0.022791,0.0044882,19,31.6446,0.0271868
-0.630368,-0.254718,-0.6966,3.41072,3.75866,9.33228,4,0.0339762,0.00669089,26,63.5628,0.0166042
-0.304053,0.846826,-0.409922,3.40034,3.8365,9.38403,5,0.0131029,0.00258034,34,64.8897,0.0174371
-0.687891,0.642096,-0.291471,3.4002,3.86169,9.38783,6,0.0141713,0.00279074,43,70.8886,0.0382706
-0.725537,-0.608498,-0.133271,3.45448,3.69816,9.40423,7,0.123053,0.0242326,53,77.2401,0.0306931
-0.429295,-0.878969,-0.0942147,3.44373,3.67328,9.43356,8,0.047555,0.00936494,64,78.9613,0.0324281
-0.973977,-0.150886,0.0365873,3.36748,3.76944,9.44882,9,0.057006,0.0112261,76,91.3432,0.0254246
0.436417,-0.868661,-0.0486474,3.54592,3.6461,9.40263,10,0.0289594,0.00570294,89,99.264,0.0234912
0.84108,-0.471893,-0.0195183,3.5571,3.66973,9.41438,11,0.0243871,0.00480251,103,102.075,0.0247601
-0.707005,0.590487,0.356185,3.39489,3.85304,9.45595,12,0.0272908,0.00537435,118,130.293,0.0310308
0.481502,-0.626606,0.548159,3.55591,3.68369,9.48115,13,0.0492144,0.00969174,134,109.523,0.0262517
-0.308374,0.848429,0.379159,3.4189,3.86484,9.45803,14,0.0311986,0.0061439,151,119.701,0.0194552
-0.702731,0.220163,0.657799,3.37749,3.79157,9.51818,15,0.0170452,0.00335669,169,136.522,0.032403
-0.0692551,-0.595953,0.753964,3.4881,3.68937,9.51815,16,0.0568511,0.0111956,188,153.904,0.0386104
0.235544,0.445506,0.812131,3.50152,3.80367,9.50867,17,0.130434,0.0256861,208,151.204,0.0273655
-0.261936,-0.0182059,0.937243,3.45121,3.75091,9.53594,18,0.0345402,0.00680195,18,56.4181,0.0340556
,,,,,,,,,25,65.2116,0.0451641
,,,,,,,,,33,92.4519,0.0219372
,,,,,,,,,42,104.147,0.0234149
,,,,,,,,,52,90.1038,0.0870429
,,,,,,,,,63,79.8159,0.0557431
,,,,,,,,,75,113.513,0.0617425
,,,,,,,,,88,59.3957,0.0405009
,,,,,,,,,102,57.5805,0.0358064
,,,,,,,,,117,142.608,0.0388403
,,,,,,,,,133,94.1474,0.0568669
,,,,,,,,,150,137.086,0.0426409
,,,,,,,,,168,159.439,0.0272042
,,,,,,,,,187,120.288,0.0616515
,,,,,,,,,207,139.979,0.0888205
,,,,,,,,,228,158.11,0.0456596
,,,,,,,,,32,51.9587,0.0272817
,,,,,,,,,41,37.7457,0.0166395
,,,,,,,,,51,49.0942,0.0174761
,,,,,,,,,62,92.3988,0.0384589
,,,,,,,,,74,104.054,0.0308141
,,,,,,,,,87,87.1575,0.0325632
,,,,,,,,,101,114.636,0.0255076
,,,,,,,,,116,109.258,0.023562
,,,,,,,,,132,86.9737,0.0248388
,,,,,,,,,149,150.14,0.0311545
,,,,,,,,,167,85.0225,0.0263402
,,,,,,,,,186,112.54,0.0195037
,,,,,,,,,206,162.538,0.0325379
,,,,,,,,,227,125.73,0.038802
,,,,,,,,,249,145.033,0.0274617
,,,,,,,,,50,74.2332,0.0189123
,,,,,,,,,61,60.4365,0.0200005
,,,,,,,,,73,40.747,0.0532496
,,,,,,,,,86,54.1577,0.0396348
,,,,,,,,,100,49.2312,0.0425764
,,,,,,,,,115,91.2066,0.0312679
,,,,,,,,,131,114.971,0.0283939
,,,,,,,,,148,87.189,0.0302688
,,,,,,,,,166,124.168,0.0401997
,,,,,,,,,185,107.453,0.0325282
,,,,,,,,,205,94.2556,0.0227015
,,,,,,,,,226,110.584,0.0425331
,,,,,,,,,248,152.83,0.0539097
,,,,,,,,,271,120.66,0.0342559
,,,,,,,,,72,26.4071,0.0136162
,,,,,,,,,85,104.708,0.023684
,,,,,,,,,99,126.296,0.0205451
,,,,,,,,,114,80.9513,0.0213082
,,,,,,,,,130,151.826,0.0180424
,,,,,,,,,147,132.745,0.0170468
,,,,,,,,,165,54.3598,0.0177052
,,,,,,,,,184,161.492,0.0206958
,,,,,,,,,204,47.2771,0.018455
,,,,,,,,,225,82.3207,0.0148163
,,,,,,,,,247,146.309,0.0212973
,,,,,,,,,270,91.6531,0.0238136
,,,,,,,,,294,109.42,0.0189987
,,,,,,,,,98,81.0088,0.0254157
,,,,,,,,,113,104.452,0.0218357
,,,,,,,,,129,54.6274,0.0226997
,,,,,,,,,146,151.643,0.0190302
,,,,,,,,,164,157.182,0.0179259
,,,,,,,,,183,38.4751,0.0186555
,,,,,,,,,203,160.546,0.022006
,,,,,,,,,224,47.9215,0.0194898
,,,,,,,,,246,63.5648,0.015476
,,,,,,,,,269,125.766,0.0226874
,,,,,,,,,293,96.8736,0.0255651
,,,,,,,,,318,96.268,0.0200971
,,,,,,,,,128,23.9436,0.0685991
,,,,,,,,,145,32.7073,0.0779162
,,,,,,,,,163,76.4277,0.0468849
,,,,,,,,,182,110.331,0.0407067
,,,,,,,,,202,83.5448,0.0446738
,,,,,,,,,223,92.5622,0.0703091
,,,,,,,,,245,111.494,0.0497768
,,,,,,,,,268,72.227,0.0299428
,,,,,,,,,292,70.1809,0.0777713
,,,,,,,,,317,127.014,0.126636
,,,,,,,,,343,85.3031,0.0539398
,,,,,,,,,162,55.6207,0.0518534
,,,,,,,,,181,52.6164,0.0359975
,,,,,,,,,201,86.6407,0.0322406
,,,,,,,,,222,104.869,0.0346797
,,,,,,,,,244,71.9775,0.0483705
,,,,,,,,,267,132.421,0.0376782
,,,,,,,,,291,87.2718,0.0250954
,,,,,,,,,316,59.3643,0.0517892
,,,,,,,,,342,127.302,0.0696985
,,,,,,,,,369,87.5944,0.040016
,,,,,,,,,200,107.945,0.0384076
,,,,,,,,,221,141.903,0.0341604
,,,,,,,,,243,51.0346,0.036911
,,,,,,,,,266,111.937,0.0528245
,,,,,,,,,290,78.8824,0.0403269
,,,,,,,,,315,46.0992,0.0262435
,,,,,,,,,341,78.777,0.0569284
,,,,,,,,,368,106.449,0.0793376
,,,,,,,,,396,72.2814,0.0430165
,,,,,,,,,242,34.0499,0.0264773
,,,,,,,,,265,150.76,0.0281004
,,,,,,,,,289,38.9725,0.0364629
,,,,,,,,,314,159.05,0.0300373
,,,,,,,,,340,123.462,0.0214596
,,,,,,,,,367,61.2724,0.0383723
,,,,,,,,,395,110.363,0.0473958
,,,,,,,,,424,98.7484,0.0315046
,,,,,,,,,288,157.514,0.0257574
,,,,,,,,,313,41.9494,0.0326134
,,,,,,,,,339,134.939,0.0273755
,,,,,,,,,366,137.996,0.0200657
,,,,,,,,,394,77.0518,0.0341325
,,,,,,,,,423,91.7386,0.0410913
,,,,,,,,,453,104.181,0.028589
,,,,,,,,,338,122.846,0.0351114
,,,,,,,,,365,27.9694,0.0291142
,,,,,,,,,393,27.9894,0.0209842
,,,,,,,,,422,92.0709,0.0368785
,,,,,,,,,452,65.8761,0.0451375
,,,,,,,,,483,58.0793,0.0304905
,,,,,,,,,392,120.101,0.0381884
,,,,,,,,,421,97.0006,0.0253207
,,,,,,,,,451,35.6123,0.0527578
,,,,,,,,,482,72.3024,0.0714644
,,,,,,,,,514,64.768,0.0405918
,,,,,,,,,450,47.521,0.0220458
,,,,,,,,,481,102.139,0.040288
,,,,,,,,,513,49.0557,0.0503531
,,,,,,,,,546,63.8045,0.0327845
,,,,,,,,,512,64.2449,0.026227
,,,,,,,,,545,60.3569,0.0301504
,,,,,,,,,579,34.0208,0.022826
,,,,,,,,,578,68.9687,0.0791874
,,,,,,,,,613,38.3355,0.0429723
,,,,,,,,,648,41.9983,0.0546172
