facetNormals:0,facetNormals:1,facetNormals:2,FacetCenters:0,FacetCenters:1,FacetCenters:2,FacetIds,relFacetSize,absFacetSize,cellPairingIds,interplanarAngles,angleWeights
0.0907514,0.450103,-0.835878,6.93857,5.54871,6.0718,1,0.0942287,0.0164505,8,49.1586,0.052479
-0.609036,0.0771784,-0.744649,6.87594,5.50264,6.12578,2,0.0363662,0.00634883,13,80.9632,0.0138876
0.295624,-0.763228,-0.556229,6.95163,5.44985,6.0814,3,0.0074962,0.00130869,19,54.4744,0.080352
0.80333,0.163882,-0.442056,7.00217,5.54328,6.10581,4,0.0700377,0.0122272,26,40.7794,0.0344834
0.211852,0.890731,-0.341657,6.95671,5.60723,6.12846,5,0.0211031,0.00368419,34,80.9942,0.115736
-0.919383,0.241094,-0.141619,6.8608,5.54322,6.16043,6,0.149965,0.0261809,43,119.911,0.119284
-0.00356815,-0.91574,0.0277506,6.91658,5.45425,6.15504,7,0.162491,0.0283678,53,93.9332,0.11107
0.162781,0.779659,0.511587,6.93645,5.58226,6.22715,8,0.13524,0.0236103,64,150.223,0.0422882
-0.472476,-0.609022,0.570301,6.8666,5.48008,6.24537,9,0.0272613,0.00475929,76,160.878,0.0409666
-0.249486,-0.185284,0.922845,6.88613,5.50008,6.28532,10,0.0261727,0.00456924,89,142.642,0.0294949
0.275285,0.0406224,0.946153,6.91553,5.52067,6.27501,11,0.0174838,0.00305232,18,79.4266,0.0124302
,,,,,,,,,25,99.4396,0.0478743
,,,,,,,,,33,78.1212,0.0267078
,,,,,,,,,42,42.4776,0.0585373
,,,,,,,,,52,95.788,0.0594315
,,,,,,,,,63,117.364,0.0573193
,,,,,,,,,75,101.464,0.0311623
,,,,,,,,,88,125.787,0.0304387
,,,,,,,,,102,155.937,0.0236144
,,,,,,,,,32,67.1265,0.0135429
,,,,,,,,,41,116.213,0.0110627
,,,,,,,,,51,113.358,0.0142787
,,,,,,,,,62,41.1749,0.0143313
,,,,,,,,,74,152.576,0.014205
,,,,,,,,,87,89.5212,0.011759
,,,,,,,,,101,117.547,0.0116544
,,,,,,,,,116,119.184,0.0104934
,,,,,,,,,50,59.1193,0.0324336
,,,,,,,,,61,135.32,0.0954825
,,,,,,,,,73,101.163,0.0978848
,,,,,,,,,86,87.8949,0.0922839
,,,,,,,,,100,144.985,0.0392464
,,,,,,,,,115,134.766,0.0381056
,,,,,,,,,131,101.965,0.0279822
,,,,,,,,,72,85.8255,0.0369996
,,,,,,,,,85,157.291,0.0373549
,,,,,,,,,99,53.1985,0.0365093
,,,,,,,,,114,153.341,0.0237901
,,,,,,,,,130,124.077,0.0233661
,,,,,,,,,147,103.73,0.0191237
,,,,,,,,,98,104.567,0.155977
,,,,,,,,,113,92.1507,0.142222
,,,,,,,,,129,77.0309,0.0461358
,,,,,,,,,146,86.6911,0.0445673
,,,,,,,,,164,113.46,0.0313165
,,,,,,,,,128,143.856,0.147619
,,,,,,,,,145,49.0955,0.0466895
,,,,,,,,,163,77.2974,0.0450837
,,,,,,,,,182,90.7562,0.0315706
,,,,,,,,,162,106.644,0.0453759
,,,,,,,,,181,71.8562,0.0438577
,,,,,,,,,201,53.1013,0.0309645
,,,,,,,,,200,35.8277,0.0267059
,,,,,,,,,221,65.9893,0.0213043
,,,,,,,,,242,33.9166,0.0209636
