Q	U	V
{$V$}	{[mm$^3$]}	0.0117498
{$d_v$}	{[mm]}	0.282062
{$S_c$}	{[mm$^2$]}	0.47859
{$S_o$}	{[mm$^2$]}	0.295923
{$S_l/S_o$}	[]	0.617279
{$\Psi$}	[]	0.522245
{$\eta$}	[]	0.565432
{med($\theta_e$)}	{[$^\circ$]}	64.3464
{$\Upsilon$}	[]	12
{$\Xi$}	[]	15
