"cellPairingIds","interplanarAngles","angleWeights"
8,75.7616,0.0301596
13,64.648,0.0133082
19,86.4232,0.021862
26,28.2389,0.0304638
53,81.7316,0.0236573
18,29.1575,0.0167136
25,112.298,0.0328609
42,44.9592,0.0639565
88,115.702,0.0757123
41,65.69,0.0168066
51,60.9432,0.0173549
87,37.5635,0.0113332
132,60.0543,0.0176971
86,36.9273,0.0252879
115,40.5441,0.038771
99,85.0488,0.0375531
114,39.2796,0.0217769
147,48.5053,0.0665738
184,83.6124,0.0410807
146,89.2544,0.090936
183,80.8107,0.081233
224,47.3277,0.0212929
269,83.5615,0.0678686
181,58.2475,0.0448005
244,39.8646,0.0295974
221,52.6443,0.0228537
243,37.458,0.0232959
289,73.2919,0.0499138
314,79.0633,0.0224537
288,43.9462,0.0831485
313,52.2257,0.0450884
338,88.5058,0.0468427
422,45.8762,0.0734207
392,92.8579,0.0178566
451,61.8838,0.0420661
481,39.378,0.0207152
