Q	U	V
{$V$}	{[mm$^3$]}	0.0116037
{$d_v$}	{[mm]}	0.280888
{$S_c$}	{[mm$^2$]}	0.455146
{$S_o$}	{[mm$^2$]}	0.302922
{$S_l/S_o$}	[]	0.502519
{$\Psi$}	[]	0.544583
{$\eta$}	[]	0.564296
{med($\theta_e$)}	{[$^\circ$]}	61.4647
{$\Upsilon$}	[]	11
{$\Xi$}	[]	12
