facetNormals:0,facetNormals:1,facetNormals:2,FacetCenters:0,FacetCenters:1,FacetCenters:2,FacetIds,relFacetSize,absFacetSize,cellPairingIds,interplanarAngles,angleWeights
-0.346914,0.411938,-0.8222,6.03006,7.41312,7.99874,1,0.0501598,0.0037297,8,32.586,0.0611826
-0.76505,0.16001,-0.573486,5.98247,7.42901,8.04251,2,0.0784146,0.00583062,13,91.1657,0.0760478
0.460052,-0.69659,-0.519209,6.07787,7.34069,8.03765,3,0.15716,0.0116858,19,73.97,0.0705783
-0.750388,-0.566056,-0.291891,6.00047,7.35452,8.05541,4,0.119033,0.00885086,26,56.796,0.0211817
-0.403489,0.897468,-0.0244714,5.99828,7.49555,8.08094,5,0.0134256,0.000998276,34,65.6348,0.0539007
-0.884966,0.400717,0.0928787,5.99348,7.48443,8.10348,6,0.0582445,0.00433085,43,111.328,0.0366819
-0.540167,-0.773243,0.266686,6.01911,7.34721,8.10497,7,0.0289131,0.00214987,53,92.6709,0.0372513
-0.883377,0.0156354,0.43543,5.98257,7.44383,8.12076,8,0.0296269,0.00220295,64,155.504,0.0234564
0.680871,-0.395603,0.57555,6.10009,7.36128,8.116,9,0.0153073,0.0011382,76,130.21,0.0156904
0.352717,0.408151,0.80091,6.05135,7.43981,8.13938,10,0.00929974,0.000691494,89,158.741,0.0717491
-0.00479702,-0.37634,0.889401,6.0452,7.35981,8.13736,11,0.125966,0.00936638,103,126.127,0.06528
-0.281975,0.202887,0.90162,6.00685,7.44439,8.13809,12,0.0934495,0.00694856,18,100.011,0.104626
,,,,,,,,,25,46.9848,0.0945459
,,,,,,,,,33,60.7445,0.0229259
,,,,,,,,,42,43.3545,0.0668411
,,,,,,,,,52,81.7357,0.0422483
,,,,,,,,,63,63.3286,0.0430054
,,,,,,,,,75,165.222,0.0256144
,,,,,,,,,88,135.166,0.0166275
,,,,,,,,,102,127.243,0.0966586
,,,,,,,,,117,106.682,0.0852744
,,,,,,,,,32,78.032,0.135465
,,,,,,,,,41,145.564,0.0247379
,,,,,,,,,51,139.959,0.0849908
,,,,,,,,,62,80.9448,0.0488408
,,,,,,,,,74,131.637,0.0498554
,,,,,,,,,87,72.3972,0.0278974
,,,,,,,,,101,124.514,0.0175604
,,,,,,,,,116,102.274,0.139845
,,,,,,,,,132,141.094,0.117206
,,,,,,,,,50,101.799,0.0241296
,,,,,,,,,61,64.7229,0.0782166
,,,,,,,,,73,37.5189,0.0465252
,,,,,,,,,86,57.0756,0.047445
,,,,,,,,,100,118.291,0.0271263
,,,,,,,,,115,140.135,0.0172516
,,,,,,,,,131,92.5915,0.122401
,,,,,,,,,148,100.079,0.104701
,,,,,,,,,72,41.9476,0.0218213
,,,,,,,,,85,120.009,0.0183366
,,,,,,,,,99,68.2153,0.0184778
,,,,,,,,,114,132.116,0.0143048
,,,,,,,,,130,77.5825,0.0109881
,,,,,,,,,147,112.096,0.024265
,,,,,,,,,165,73.2687,0.0234781
,,,,,,,,,98,78.3633,0.0386433
,,,,,,,,,113,30.4726,0.0392757
,,,,,,,,,129,138.023,0.0242432
,,,,,,,,,146,94.5162,0.0160386
,,,,,,,,,164,93.8909,0.079657
,,,,,,,,,183,63.9171,0.0717618
,,,,,,,,,128,52.9883,0.0292656
,,,,,,,,,145,84.5018,0.0200171
,,,,,,,,,163,108.003,0.014073
,,,,,,,,,182,55.8957,0.0470311
,,,,,,,,,202,75.5783,0.0441624
,,,,,,,,,162,111.817,0.0201854
,,,,,,,,,181,87.3763,0.014156
,,,,,,,,,201,66.0848,0.0479711
,,,,,,,,,222,47.3461,0.0449903
,,,,,,,,,200,55.0424,0.0115702
,,,,,,,,,221,45.7321,0.0272974
,,,,,,,,,243,74.8263,0.0263057
,,,,,,,,,242,53.3225,0.0173207
,,,,,,,,,265,40.8775,0.0169161
,,,,,,,,,288,38.8325,0.107298
