facetNormals:0,facetNormals:1,facetNormals:2,FacetCenters:0,FacetCenters:1,FacetCenters:2,FacetIds,relFacetSize,absFacetSize,cellPairingIds,interplanarAngles,angleWeights
0.197952,-0.493743,-0.792718,3.14058,3.39651,9.74479,1,0.0890139,0.0169348,8,43.9466,0.0500089
-0.512743,-0.453937,-0.685384,3.07559,3.40983,9.76835,2,0.0347721,0.00661535,13,81.2731,0.045076
-0.0197889,0.712551,-0.62156,3.13903,3.46181,9.79852,3,0.0301793,0.00574157,19,43.4891,0.0779161
0.264408,-0.907332,-0.215826,3.14748,3.35162,9.79783,4,0.0692788,0.0131802,26,67.5672,0.0258753
0.948863,-0.0508588,-0.175439,3.22641,3.47339,9.82628,5,0.0151378,0.00287996,34,95.4495,0.103742
0.789537,-0.2649,0.471608,3.19511,3.42233,9.89543,6,0.12431,0.0236498,43,112.685,0.116525
-0.801769,-0.3092,0.440972,3.04657,3.43356,9.89958,7,0.16865,0.0320855,53,157.66,0.017447
-0.420747,0.684821,0.5588,3.09239,3.54588,9.92588,8,0.00967128,0.00183995,64,89.5668,0.0714763
0.358671,-0.735355,0.53866,3.14394,3.37353,9.90294,9,0.0597119,0.0113601,76,128.403,0.0165314
0.0767136,-0.292912,0.941346,3.11496,3.44836,9.98145,10,0.00911183,0.00173351,89,153.882,0.0773473
0.163716,0.28307,0.900172,3.1218,3.50716,9.96426,11,0.0683845,0.0130101,18,82.9352,0.0323133
,,,,,,,,,25,63.1491,0.0463037
,,,,,,,,,33,111.505,0.021093
,,,,,,,,,42,130.957,0.0543432
,,,,,,,,,52,74.5545,0.0576566
,,,,,,,,,63,120.273,0.0151334
,,,,,,,,,75,103.359,0.0439505
,,,,,,,,,88,125.148,0.0144398
,,,,,,,,,102,153.359,0.0461022
,,,,,,,,,32,124.372,0.0420435
,,,,,,,,,41,86.6106,0.0201623
,,,,,,,,,51,123.343,0.0485676
,,,,,,,,,62,121.592,0.051197
,,,,,,,,,74,80.7406,0.0146483
,,,,,,,,,87,159.171,0.0400943
,,,,,,,,,101,148.259,0.0139975
,,,,,,,,,116,113.491,0.0418773
,,,,,,,,,50,69.052,0.0248466
,,,,,,,,,61,68.0148,0.0889725
,,,,,,,,,73,91.6292,0.0982131
,,,,,,,,,86,154.04,0.0169731
,,,,,,,,,100,47.1509,0.0641406
,,,,,,,,,115,85.0397,0.0161054
,,,,,,,,,131,116.057,0.0688287
,,,,,,,,,72,42.6766,0.0269891
,,,,,,,,,85,151.785,0.027782
,,,,,,,,,99,124.231,0.0118023
,,,,,,,,,114,72.589,0.0241526
,,,,,,,,,130,94.65,0.0113761
,,,,,,,,,147,91.0512,0.0247884
,,,,,,,,,98,111.791,0.143125
,,,,,,,,,113,105.481,0.0179463
,,,,,,,,,129,38.6644,0.0806728
,,,,,,,,,146,52.0417,0.0169791
,,,,,,,,,164,58.5087,0.0882316
,,,,,,,,,128,66.8302,0.0182935
,,,,,,,,,145,79.197,0.088197
,,,,,,,,,163,62.2862,0.0172895
,,,,,,,,,182,78.8953,0.0973111
,,,,,,,,,162,111.632,0.0166464
,,,,,,,,,181,72.3712,0.00938322
,,,,,,,,,201,47.946,0.016946
,,,,,,,,,200,39.2622,0.015811
,,,,,,,,,221,69.0494,0.0637546
,,,,,,,,,242,34.8685,0.016081
