"cellPairingIds","interplanarAngles","angleWeights"
8,53.695,0.0130163
13,68.6819,0.0129537
19,62.0864,0.0124973
89,75.479,0.0131167
103,108.923,0.0117827
151,114.168,0.0127282
18,71.7595,0.0890798
25,63.0657,0.0711983
42,69.9898,0.0282001
63,83.2346,0.0897202
75,69.7647,0.059574
41,34.0362,0.0234685
62,39.4015,0.0177023
74,66.0333,0.086828
132,68.1274,0.0518953
61,52.6641,0.0258722
205,61.6354,0.0633549
85,35.0673,0.0114282
99,33.1439,0.0235127
130,25.0572,0.017621
129,51.0809,0.0241592
203,34.6558,0.0244271
246,58.1354,0.0268819
163,34.2713,0.0141583
202,32.0953,0.0155855
162,32.5893,0.0585584
181,27.9893,0.0389754
267,48.2795,0.0905732
266,36.49,0.0449174
290,42.5558,0.0599489
265,53.6333,0.0299314
314,57.7166,0.0395865
288,68.1647,0.0546147
366,63.0928,0.083297
394,73.2263,0.0382032
365,84.6037,0.0532103
422,75.9591,0.0287293
392,25.9003,0.061626
421,60.583,0.0553382
450,68.6635,0.0800738
481,45.1853,0.0375107
512,32.8372,0.0350842
