"cellPairingIds","interplanarAngles","angleWeights"
8,29.6503,0.019576
13,126.886,0.0238741
34,50.0346,0.0240236
18,122.504,0.0626473
42,58.2931,0.063687
52,76.0572,0.0549411
51,173.565,0.153722
62,84.7282,0.111052
74,58.5128,0.00833347
101,127.752,0.118244
98,101.481,0.114362
113,127.009,0.00835161
146,54.4954,0.122004
128,49.5268,0.00818083
181,79.5679,0.00821765
