facetNormals:0,facetNormals:1,facetNormals:2,FacetCenters:0,FacetCenters:1,FacetCenters:2,FacetIds,relFacetSize,absFacetSize,cellPairingIds,interplanarAngles,angleWeights
-0.105972,-0.0581094,-0.983682,5.51482,7.61162,7.35386,1,0.00699159,0.00120107,8,47.8883,0.0125415
-0.186752,0.667946,-0.67162,5.57048,7.75295,7.31505,2,0.0608239,0.0104488,13,52.1552,0.0116908
-0.755237,-0.368939,-0.502029,5.4845,7.61451,7.29034,3,0.0356554,0.00612516,19,68.5478,0.0124113
0.692189,0.501329,-0.462213,5.55926,7.67403,7.3492,4,0.0552032,0.00948324,26,79.3132,0.0101714
-0.882552,-0.413208,-0.0629615,5.48398,7.63611,7.33681,5,0.0186564,0.00320495,34,76.792,0.0130445
-0.839088,0.418951,-0.153113,5.49049,7.71491,7.32287,6,0.0971562,0.0166903,43,97.2193,0.0110939
0.924697,-0.303105,0.0416084,5.6378,7.67113,7.37985,7,0.0268456,0.00461175,53,118.507,0.0132897
-0.72883,-0.283976,0.557043,5.49729,7.62404,7.38043,8,0.133987,0.0230174,64,133.554,0.0134545
0.0609139,0.738108,0.620656,5.6064,7.77069,7.38759,9,0.177936,0.0305672,76,150.417,0.0129348
-0.037989,-0.406258,0.87019,5.57597,7.62274,7.42267,10,0.0862576,0.014818,18,75.8055,0.0449568
,,,,,,,,,25,56.6271,0.0578774
,,,,,,,,,33,94.1907,0.0285544
,,,,,,,,,42,53.9917,0.0748122
,,,,,,,,,52,115.383,0.0372502
,,,,,,,,,63,117.472,0.083667
,,,,,,,,,75,86.0173,0.0906581
,,,,,,,,,88,156.155,0.0713417
,,,,,,,,,32,120.003,0.0433265
,,,,,,,,,41,27.1667,0.0244957
,,,,,,,,,51,53.3002,0.0521663
,,,,,,,,,62,129.568,0.0306296
,,,,,,,,,74,66.4554,0.0563227
,,,,,,,,,87,131.746,0.0594067
,,,,,,,,,101,105.932,0.0504548
,,,,,,,,,50,146.252,0.0278879
,,,,,,,,,61,108.96,0.0704037
,,,,,,,,,73,60.301,0.036124
,,,,,,,,,86,165.746,0.0781914
,,,,,,,,,100,82.3293,0.0842641
,,,,,,,,,115,132.606,0.0673218
,,,,,,,,,72,51.5483,0.0313021
,,,,,,,,,85,136.811,0.0220141
,,,,,,,,,99,39.3153,0.0327524
,,,,,,,,,114,114.936,0.0337719
,,,,,,,,,130,81.0131,0.0306777
,,,,,,,,,98,169.228,0.0420674
,,,,,,,,,113,63.4916,0.112637
,,,,,,,,,129,79.7696,0.125686
,,,,,,,,,146,107.298,0.0913831
,,,,,,,,,128,127.139,0.0447293
,,,,,,,,,145,98.6514,0.0466526
,,,,,,,,,163,82.3746,0.0409473
,,,,,,,,,162,84.3266,0.152865
,,,,,,,,,181,47.1395,0.104951
,,,,,,,,,200,75.1568,0.11619
