Q	U	V
{$V$}	{[mm$^3$]}	0.00332841
{$d_v$}	{[mm]}	0.185245
{$S_c$}	{[mm$^2$]}	0.160554
{$S_o$}	{[mm$^2$]}	0.101395
{$S_l/S_o$}	[]	0.583451
{$\Psi$}	[]	0.671461
{$\eta$}	[]	0.709855
{med($\theta_e$)}	{[$^\circ$]}	67.0932
{$\Upsilon$}	[]	11
{$\Xi$}	[]	4
