Q	U	V
{$V$}	{[mm$^3$]}	0.0161861
{$d_v$}	{[mm]}	0.313845
{$S_c$}	{[mm$^2$]}	0.768687
{$S_o$}	{[mm$^2$]}	0.454603
{$S_l/S_o$}	[]	0.690897
{$\Psi$}	[]	0.402559
{$\eta$}	[]	0.425714
{med($\theta_e$)}	{[$^\circ$]}	66.9874
{$\Upsilon$}	[]	14
{$\Xi$}	[]	17
