facetNormals:0,facetNormals:1,facetNormals:2,FacetCenters:0,FacetCenters:1,FacetCenters:2,FacetIds,relFacetSize,absFacetSize,cellPairingIds,interplanarAngles,angleWeights
-0.169332,0.22434,-0.923134,5.32012,4.14217,9.00767,1,0.0229905,0.0035449,8,34.991,0.0221033
0.229275,0.612792,-0.737308,5.36664,4.17198,9.01085,2,0.021282,0.00328147,13,60.5809,0.0398403
-0.0312692,-0.710455,-0.667829,5.32517,4.08431,9.0389,3,0.149159,0.0229988,19,57.9267,0.0345193
0.703091,0.0237808,-0.657787,5.43371,4.13956,9.05141,4,0.0692403,0.0106761,26,57.736,0.023882
0.321213,0.839658,-0.405105,5.39693,4.19562,9.05786,5,0.0248455,0.00383091,34,87.848,0.0349064
0.586145,-0.710026,-0.318308,5.43003,4.07171,9.10321,6,0.0724644,0.0111733,43,76.6229,0.0103976
0.55749,0.807751,-0.145932,5.42974,4.18031,9.11597,7,0.0067179,0.00103583,53,98.1228,0.0185358
0.0379653,-0.99041,-0.100513,5.36706,4.03791,9.11943,8,0.0155273,0.00239414,64,62.0337,0.0337989
-0.465155,0.824561,-0.187381,5.28501,4.18317,9.05227,9,0.0637863,0.00983518,76,113.466,0.0290215
-0.290746,-0.881628,0.238005,5.30916,4.04582,9.12181,10,0.0393419,0.0060661,89,94.6746,0.03607
-0.908726,-0.00255571,0.246275,5.27532,4.1047,9.14331,11,0.0836707,0.0129011,103,100.614,0.0391942
-0.182474,0.856154,0.429257,5.3336,4.1612,9.10423,12,0.13277,0.0204718,118,111.516,0.0261669
0.515329,0.694772,0.447754,5.43803,4.15873,9.10968,13,0.0303617,0.00468146,134,125.411,0.0321588
-0.669234,-0.321279,0.637284,5.2841,4.0862,9.16418,14,0.0534895,0.00824752,18,87.0277,0.0372493
,,,,,,,,,25,45.8938,0.0325572
,,,,,,,,,33,24.1596,0.0229261
,,,,,,,,,42,93.9421,0.0329013
,,,,,,,,,52,41.6906,0.0102122
,,,,,,,,,63,122.255,0.0179548
,,,,,,,,,75,55.6494,0.0319156
,,,,,,,,,88,145.914,0.0276219
,,,,,,,,,102,114.95,0.033933
,,,,,,,,,117,80.0349,0.0366839
,,,,,,,,,133,77.1359,0.0250237
,,,,,,,,,150,148.259,0.0304492
,,,,,,,,,32,64.7759,0.0945775
,,,,,,,,,41,110.446,0.0425958
,,,,,,,,,51,42.678,0.0975414
,,,,,,,,,62,120.675,0.0128567
,,,,,,,,,74,37.6411,0.0281266
,,,,,,,,,87,118.285,0.0893592
,,,,,,,,,101,59.3587,0.0622617
,,,,,,,,,116,98.4039,0.107205
,,,,,,,,,132,159.213,0.140488
,,,,,,,,,149,148.331,0.0504535
,,,,,,,,,167,100.651,0.0787417
,,,,,,,,,50,57.3557,0.0365689
,,,,,,,,,61,49.8791,0.0708157
,,,,,,,,,73,57.9468,0.0122475
,,,,,,,,,86,85.8607,0.0253661
,,,,,,,,,100,101.429,0.0664015
,,,,,,,,,115,114.444,0.0501748
,,,,,,,,,131,152.045,0.0757746
,,,,,,,,,148,114.56,0.0910156
,,,,,,,,,166,84.8432,0.0422131
,,,,,,,,,185,162.238,0.0603542
,,,,,,,,,72,106.882,0.0370037
,,,,,,,,,85,20.5047,0.0105761
,,,,,,,,,99,142.438,0.019111
,,,,,,,,,114,49.4357,0.0357615
,,,,,,,,,130,169.804,0.0304567
,,,,,,,,,147,115.099,0.0383139
,,,,,,,,,165,59.6082,0.041858
,,,,,,,,,184,53.7809,0.027328
,,,,,,,,,204,140.358,0.0339305
,,,,,,,,,98,101.959,0.0122959
,,,,,,,,,113,38.6944,0.0255745
,,,,,,,,,129,148.134,0.067849
,,,,,,,,,146,65.9955,0.0509969
,,,,,,,,,164,131.623,0.0776654
,,,,,,,,,183,153.701,0.0937572
,,,,,,,,,203,110.594,0.0427935
,,,,,,,,,224,112.647,0.0615477
,,,,,,,,,128,140.63,0.00937827
,,,,,,,,,145,63.0453,0.0121556
,,,,,,,,,163,162.914,0.0114762
,,,,,,,,,182,125.659,0.0124372
,,,,,,,,,202,56.9787,0.0127887
,,,,,,,,,223,35.8742,0.0110016
,,,,,,,,,245,138.369,0.0119366
,,,,,,,,,162,148.015,0.024975
,,,,,,,,,181,28.6036,0.0222665
,,,,,,,,,201,93.4671,0.0261936
,,,,,,,,,222,157.603,0.027803
,,,,,,,,,244,137.336,0.0205467
,,,,,,,,,267,76.4274,0.0240679
,,,,,,,,,200,133.471,0.048667
,,,,,,,,,221,65.6634,0.0723878
,,,,,,,,,243,40.9746,0.0861729
,,,,,,,,,266,74.6226,0.0411408
,,,,,,,,,290,94.436,0.0581859
,,,,,,,,,242,68.8829,0.0535191
,,,,,,,,,265,129.919,0.060698
,,,,,,,,,289,134.63,0.0342733
,,,,,,,,,314,47.8269,0.0453376
,,,,,,,,,288,72.9369,0.102651
,,,,,,,,,313,113.1,0.0445555
,,,,,,,,,339,33.7492,0.0652595
,,,,,,,,,338,43.1357,0.0494217
,,,,,,,,,365,82.7359,0.0762571
,,,,,,,,,392,107.259,0.038736
