"cellPairingIds","interplanarAngles","angleWeights"
8,23.2301,0.0305505
13,25.5874,0.0293539
19,24.3578,0.0246306
18,37.6075,0.0446155
25,42.1038,0.0345464
33,44.5783,0.0257004
42,40.7707,0.00954502
63,50.7991,0.0562897
32,45.3337,0.0330241
41,58.686,0.0248483
62,44.0114,0.0674477
73,54.1236,0.0468184
86,44.0361,0.0390131
131,58.5292,0.0456198
72,28.5885,0.0081568
85,100.563,0.0319259
184,141.829,0.030294
225,154.768,0.021347
113,59.5253,0.00985683
129,57.6201,0.00904306
246,137.62,0.00887297
163,61.0982,0.0170696
182,94.9993,0.154662
223,66.0571,0.13172
162,34.1207,0.0424078
201,36.943,0.0931188
221,43.8007,0.050331
243,26.1559,0.0458555
290,71.6215,0.0335944
315,85.0498,0.028711
242,46.0199,0.0169076
289,55.996,0.0165917
314,36.1891,0.0144837
288,23.3159,0.111532
339,42.3763,0.0590833
365,46.1189,0.0530098
392,59.5083,0.0553974
421,46.537,0.043263
450,24.7205,0.0313611
