Q	U	V
{$V$}	{[mm$^3$]}	0.00288075
{$d_v$}	{[mm]}	0.176537
{$S_c$}	{[mm$^2$]}	0.123875
{$S_o$}	{[mm$^2$]}	0.0869292
{$S_l/S_o$}	[]	0.425010
{$\Psi$}	[]	0.790383
{$\eta$}	[]	0.816759
{med($\theta_e$)}	{[$^\circ$]}	56.10845
{$\Upsilon$}	[]	17
{$\Xi$}	[]	8
