Q	U	V
{$V$}	{[mm$^3$]}	0.00112095
{$d_v$}	{[mm]}	0.128883
{$S_c$}	{[mm$^2$]}	0.0892375
{$S_o$}	{[mm$^2$]}	0.0473355
{$S_l/S_o$}	[]	0.885213
{$\Psi$}	[]	0.584782
{$\eta$}	[]	0.679825
{med($\theta_e$)}	{[$^\circ$]}	56.49825
{$\Upsilon$}	[]	18
{$\Xi$}	[]	4
