facetNormals:0,facetNormals:1,facetNormals:2,FacetCenters:0,FacetCenters:1,FacetCenters:2,FacetIds,relFacetSize,absFacetSize,cellPairingIds,interplanarAngles,angleWeights
0.642249,-0.316811,-0.641172,7.41458,5.41365,6.95341,1,0.0780787,0.00643508,8,96.4923,0.0134354
-0.0336183,0.918331,-0.322358,7.26145,5.44407,7.03702,2,0.00735006,0.000605776,13,38.4052,0.0179808
0.736468,0.319068,-0.590716,7.42984,5.46229,6.95795,3,0.0101603,0.000837388,19,58.222,0.105315
-0.0808076,-0.875567,-0.416441,7.33945,5.38706,6.97114,4,0.161734,0.0133298,26,87.4946,0.0793438
-0.53539,-0.799306,-0.205817,7.26712,5.38981,7.01656,5,0.0806506,0.00664705,34,65.5087,0.0555709
0.19658,-0.966419,0.0603663,7.32758,5.37379,7.04304,6,0.043136,0.00355517,43,52.1416,0.0230632
0.995475,-0.00405161,0.0802738,7.45274,5.41009,7.01108,7,0.0135299,0.0011151,53,80.2412,0.0810919
0.813341,0.412672,0.3615,7.4284,5.44838,7.03568,8,0.0843469,0.00695169,64,90.6682,0.0951055
0.159634,-0.762632,0.553437,7.36906,5.38568,7.06884,9,0.121629,0.0100244,76,137.119,0.0674686
-0.83319,-0.291522,0.354391,7.23111,5.42103,7.0661,10,0.0593971,0.00489538,89,168.834,0.0237672
-0.574088,0.203366,0.780143,7.24952,5.44246,7.09546,11,0.014017,0.00115525,103,116.314,0.0596052
0.352123,0.546137,0.734701,7.38206,5.4523,7.0819,12,0.0482008,0.00397261,118,132.475,0.0900408
-0.0421559,-0.0561603,0.963637,7.29754,5.43231,7.10357,13,0.106331,0.00876361,18,61.7957,0.00852967
,,,,,,,,,25,134.756,0.0140611
,,,,,,,,,33,132.696,0.0134723
,,,,,,,,,42,161.702,0.01256
,,,,,,,,,52,93.7177,0.00952545
,,,,,,,,,63,75.7552,0.0135218
,,,,,,,,,75,161.793,0.0138624
,,,,,,,,,88,112.464,0.0130814
,,,,,,,,,102,92.7015,0.00964341
,,,,,,,,,117,74.6495,0.0127551
,,,,,,,,,133,112.547,0.0137497
,,,,,,,,,32,95.497,0.0191195
,,,,,,,,,41,122.567,0.018047
,,,,,,,,,51,101.674,0.0164467
,,,,,,,,,62,46.5541,0.0116054
,,,,,,,,,74,58.0674,0.0181359
,,,,,,,,,87,118.379,0.018754
,,,,,,,,,101,165.081,0.0173523
,,,,,,,,,116,146.11,0.011781
,,,,,,,,,132,90.0245,0.0167829
,,,,,,,,,149,129.944,0.0185482
,,,,,,,,,50,30.0139,0.10763
,,,,,,,,,61,33.1171,0.0681072
,,,,,,,,,73,96.5195,0.0249708
,,,,,,,,,86,127.238,0.110872
,,,,,,,,,100,62.8458,0.138844
,,,,,,,,,115,79.1003,0.0868854
,,,,,,,,,131,118.303,0.0257981
,,,,,,,,,148,148.378,0.0742679
,,,,,,,,,166,111.775,0.128308
,,,,,,,,,72,47.6537,0.0562087
,,,,,,,,,85,123.776,0.0231723
,,,,,,,,,99,150.457,0.0824574
,,,,,,,,,114,64.1337,0.0969892
,,,,,,,,,130,49.6287,0.0684112
,,,,,,,,,147,90.9272,0.0238831
,,,,,,,,,165,143.557,0.0603397
,,,,,,,,,184,97.9137,0.0917275
,,,,,,,,,98,78.0423,0.0205988
,,,,,,,,,113,102.942,0.0570804
,,,,,,,,,129,31.8849,0.0636858
,,,,,,,,,146,81.4741,0.0499771
,,,,,,,,,164,105.559,0.0211585
,,,,,,,,,183,115.304,0.045528
,,,,,,,,,203,83.7362,0.0613741
,,,,,,,,,128,31.3227,0.0233191
,,,,,,,,,145,77.5098,0.0243509
,,,,,,,,,163,147.342,0.0220394
,,,,,,,,,182,121.04,0.0137691
,,,,,,,,,202,65.4312,0.0211289
,,,,,,,,,223,87.8847,0.0240052
,,,,,,,,,162,89.0719,0.0996141
,,,,,,,,,181,135.874,0.0697067
,,,,,,,,,201,95.9696,0.0240391
,,,,,,,,,222,36.1142,0.0613453
,,,,,,,,,244,72.1288,0.0940718
,,,,,,,,,200,71.6994,0.0798163
,,,,,,,,,221,78.7198,0.025137
,,,,,,,,,243,87.1677,0.0690412
,,,,,,,,,266,51.9283,0.113467
,,,,,,,,,242,42.3719,0.0226814
,,,,,,,,,265,101.89,0.0532164
,,,,,,,,,289,64.6834,0.0762184
,,,,,,,,,288,60.2241,0.0217182
,,,,,,,,,313,36.9156,0.0247688
,,,,,,,,,338,45.6495,0.0663326
