"cellPairingIds","interplanarAngles","angleWeights"
8,56.3198,0.0671009
13,58.409,0.0486437
34,101.628,0.0828613
43,104.778,0.0940119
76,138.379,0.0487339
89,141.956,0.0613333
18,42.5744,0.0470118
25,42.2378,0.0748489
52,85.5453,0.0881013
32,60.1002,0.0525902
41,34.9687,0.0569021
51,70.9522,0.0542397
50,47.6739,0.103487
73,76.5654,0.109959
86,59.9733,0.0237658
100,57.8067,0.0734793
72,58.1084,0.110074
99,27.5595,0.0246085
113,45.5114,0.024097
164,65.4141,0.0705048
145,95.1371,0.0862098
163,49.5221,0.0589371
162,29.0136,0.0224303
201,79.4147,0.0218651
200,76.431,0.0465501
221,64.6751,0.0579139
242,41.3812,0.0441801
