facetNormals:0,facetNormals:1,facetNormals:2,FacetCenters:0,FacetCenters:1,FacetCenters:2,FacetIds,relFacetSize,absFacetSize,cellPairingIds,interplanarAngles,angleWeights
0.269947,0.0428055,-0.909843,3.72152,5.04017,5.76608,1,0.0723678,0.0127127,8,36.5948,0.0394361
0.113446,-0.534429,-0.811782,3.70963,4.96613,5.77704,2,0.0271027,0.00476107,13,68.7869,0.0357424
-0.529683,-0.602183,-0.553683,3.67766,4.97504,5.81506,3,0.0237317,0.0041689,19,53.7356,0.0667051
0.521289,-0.663604,-0.474492,3.7232,4.94815,5.79269,4,0.0618642,0.0108676,26,41.5375,0.0676053
0.818793,-0.00310909,-0.511953,3.74426,5.0246,5.78381,5,0.063431,0.0111428,34,72.6037,0.0365338
-0.799363,-0.00750711,-0.538399,3.72714,5.04989,5.81019,6,0.0244346,0.00429238,43,73.167,0.0319621
0.808448,-0.566834,-0.0864943,3.71109,4.93086,5.79872,7,0.0205103,0.00360301,53,90.6101,0.0350909
0.268389,-0.949463,0.0459422,3.72726,4.93371,5.8596,8,0.0231607,0.0040686,64,107.849,0.0445578
-0.931863,0.066666,0.0257737,3.71441,5.02027,5.84138,9,0.0321883,0.00565445,76,93.0233,0.0637232
-0.0979466,-0.984132,-0.0208853,3.66827,4.9033,5.8393,10,0.0569234,0.00999962,89,103.857,0.0412571
-0.645669,-0.732915,0.0182569,3.63512,4.93904,5.85276,11,0.0288532,0.00506859,103,87.1928,0.0816166
0.862797,0.371013,0.224069,3.74883,5.04672,5.85085,12,0.093576,0.0164383,118,100.994,0.073072
0.724738,-0.492946,0.382241,3.72145,4.94718,5.87585,13,0.07379,0.0129625,134,107.513,0.0693985
0.486513,0.695096,0.483962,3.72504,5.08271,5.88129,14,0.0666633,0.0117106,151,129.791,0.0664309
-0.240983,-0.771401,0.542738,3.64916,4.91904,5.9094,15,0.0613943,0.010785,169,142.428,0.0185951
-0.709139,0.290758,0.618155,3.68981,5.00746,5.89902,16,0.0106681,0.00187405,188,140.529,0.030826
0.29932,0.275707,0.892136,3.71356,5.027,5.9402,17,0.019584,0.00344029,208,172.434,0.0572265
-0.358336,-0.111038,0.852542,3.68605,4.9815,5.92496,18,0.0473249,0.00831346,18,41.7717,0.0253054
,,,,,,,,,25,32.498,0.0376924
,,,,,,,,,33,57.3244,0.0379781
,,,,,,,,,42,68.1896,0.0256996
,,,,,,,,,52,61.3592,0.0233501
,,,,,,,,,63,58.8071,0.0249771
,,,,,,,,,75,100.22,0.0294274
,,,,,,,,,88,56.6742,0.0367214
,,,,,,,,,102,71.4809,0.0279506
,,,,,,,,,117,107.385,0.0420316
,,,,,,,,,133,87.8338,0.0396443
,,,,,,,,,150,137.9,0.0385375
,,,,,,,,,168,93.35,0.0376047
,,,,,,,,,187,139.96,0.01531
,,,,,,,,,207,150.806,0.022738
,,,,,,,,,228,137.633,0.0344666
,,,,,,,,,32,65.8362,0.0343041
,,,,,,,,,41,99.0708,0.0345406
,,,,,,,,,51,39.3786,0.024078
,,,,,,,,,62,92.3136,0.0220037
,,,,,,,,,74,65.1747,0.0234427
,,,,,,,,,87,61.1722,0.0273206
,,,,,,,,,101,47.1139,0.0334979
,,,,,,,,,116,35.6915,0.0260431
,,,,,,,,,132,148.755,0.0378614
,,,,,,,,,149,108.694,0.0359133
,,,,,,,,,167,172.719,0.0350027
,,,,,,,,,186,72.0957,0.0342314
,,,,,,,,,206,98.4937,0.0147194
,,,,,,,,,227,148.931,0.0214593
,,,,,,,,,249,103.725,0.0316114
,,,,,,,,,50,44.0612,0.0626378
,,,,,,,,,61,99.6401,0.0350324
,,,,,,,,,73,29.075,0.030807
,,,,,,,,,86,38.5183,0.0337035
,,,,,,,,,100,126.819,0.0423445
,,,,,,,,,115,50.2851,0.0592911
,,,,,,,,,131,81.4187,0.0393526
,,,,,,,,,148,84.0288,0.0744853
,,,,,,,,,166,55.5594,0.0673029
,,,,,,,,,185,117.544,0.0641742
,,,,,,,,,205,82.1477,0.0616284
,,,,,,,,,226,153.883,0.0181981
,,,,,,,,,248,118.313,0.0297502
,,,,,,,,,271,125.033,0.0536266
,,,,,,,,,72,114.02,0.0352791
,,,,,,,,,85,42.2932,0.0309976
,,,,,,,,,99,77.9463,0.0339318
,,,,,,,,,114,149.346,0.0427055
,,,,,,,,,130,93.9886,0.0600013
,,,,,,,,,147,124.603,0.0396642
,,,,,,,,,165,50.6983,0.0756096
,,,,,,,,,184,64.3815,0.0682195
,,,,,,,,,204,80.9464,0.065007
,,,,,,,,,225,120.192,0.062396
,,,,,,,,,247,160.809,0.0182645
,,,,,,,,,270,102.969,0.029928
,,,,,,,,,294,144.2,0.0542069
,,,,,,,,,98,128.558,0.0223012
,,,,,,,,,113,104.114,0.0237806
,,,,,,,,,129,35.8066,0.0277806
,,,,,,,,,146,84.165,0.0341921
,,,,,,,,,164,57.0736,0.0264607
,,,,,,,,,183,150.898,0.0387506
,,,,,,,,,203,147.984,0.0367124
,,,,,,,,,224,134.062,0.0357614
,,,,,,,,,246,95.7367,0.0349567
,,,,,,,,,269,75.8582,0.0148519
,,,,,,,,,293,139.783,0.0217421
,,,,,,,,,318,101.029,0.0322289
,,,,,,,,,128,39.8867,0.0217551
,,,,,,,,,145,148.924,0.0250554
,,,,,,,,,163,60.6569,0.0301553
,,,,,,,,,182,96.4116,0.0239768
,,,,,,,,,202,60.7339,0.033646
,,,,,,,,,223,28.5796,0.0320987
,,,,,,,,,245,92.5187,0.0313693
,,,,,,,,,268,78.3106,0.0307484
,,,,,,,,,292,144.204,0.0140358
,,,,,,,,,317,89.4965,0.0200365
,,,,,,,,,343,108.996,0.0286179
,,,,,,,,,162,109.768,0.0269383
,,,,,,,,,181,21.8093,0.0329251
,,,,,,,,,201,57.1503,0.0256955
,,,,,,,,,222,96.6476,0.0371312
,,,,,,,,,244,43.939,0.0352557
,,,,,,,,,267,121.713,0.0343777
,,,,,,,,,291,43.9153,0.0336334
,,,,,,,,,316,116.766,0.0146078
,,,,,,,,,342,98.3381,0.0212228
,,,,,,,,,369,86.9831,0.0311008
,,,,,,,,,200,88.4426,0.0411229
,,,,,,,,,221,52.7003,0.0304297
,,,,,,,,,243,148.999,0.0478999
,,,,,,,,,266,141.394,0.0448238
,,,,,,,,,290,115.607,0.0434141
,,,,,,,,,315,78.1313,0.0422339
,,,,,,,,,341,40.8467,0.0160251
,,,,,,,,,368,105.023,0.0243519
,,,,,,,,,396,66.4013,0.0383158
,,,,,,,,,242,35.7655,0.0382954
,,,,,,,,,265,118.402,0.0707865
,,,,,,,,,289,64.5715,0.0642685
,,,,,,,,,314,140.152,0.0614096
,,,,,,,,,340,36.7676,0.0590744
,,,,,,,,,367,103.634,0.0179687
,,,,,,,,,395,109.218,0.029142
,,,,,,,,,424,82.1045,0.0516823
,,,,,,,,,288,150.989,0.0441066
,,,,,,,,,313,96.1252,0.0414851
,,,,,,,,,339,148.629,0.0402747
,,,,,,,,,366,39.7802,0.039257
,,,,,,,,,394,74.5624,0.0155769
,,,,,,,,,423,113.309,0.0233317
,,,,,,,,,453,68.8502,0.0358496
,,,,,,,,,338,55.1139,0.0825134
,,,,,,,,,365,33.539,0.0778596
,,,,,,,,,393,113.347,0.0741436
,,,,,,,,,422,112.607,0.0191528
,,,,,,,,,452,53.7049,0.0323895
,,,,,,,,,483,100.205,0.0628594
,,,,,,,,,392,77.953,0.0700458
,,,,,,,,,421,63.6572,0.0670238
,,,,,,,,,451,116.559,0.0186412
,,,,,,,,,482,63.2498,0.0309531
,,,,,,,,,514,82.1976,0.057666
,,,,,,,,,450,114.265,0.0639204
,,,,,,,,,481,80.6495,0.0183929
,,,,,,,,,513,36.5901,0.0302743
,,,,,,,,,546,79.8019,0.0553537
,,,,,,,,,512,72.8848,0.0181776
,,,,,,,,,545,77.9438,0.0296956
,,,,,,,,,579,45.5736,0.0534492
,,,,,,,,,578,64.2553,0.0138122
,,,,,,,,,613,35.2651,0.0174114
,,,,,,,,,648,47.0152,0.0277037
