Q	U	V
{$V$}	{[mm$^3$]}	0.00242477
{$d_v$}	{[mm]}	0.166683
{$S_c$}	{[mm$^2$]}	0.209152
{$S_o$}	{[mm$^2$]}	0.0966128
{$S_l/S_o$}	[]	1.164848
{$\Psi$}	[]	0.41732
{$\eta$}	[]	0.470277
{med($\theta_e$)}	{[$^\circ$]}	90.33635
{$\Upsilon$}	[]	12
{$\Xi$}	[]	10
