"cellPairingIds","interplanarAngles","angleWeights"
18,79.6854,0.0150261
25,98.2999,0.0124396
33,61.9369,0.0133764
52,65.8698,0.0121064
75,74.8668,0.00999867
228,109.098,0.0152884
32,38.1884,0.0350727
41,59.7473,0.0437014
132,59.2355,0.0749794
61,49.3874,0.0316324
73,102.519,0.0224404
86,22.1164,0.037987
148,70.976,0.0367992
248,76.5757,0.0202389
114,29.1586,0.0177478
165,67.5702,0.0464147
98,59.5719,0.0295631
113,41.8983,0.0641508
164,56.274,0.0373935
182,106.421,0.025194
343,79.249,0.0338031
370,98.7159,0.0275263
201,34.4515,0.0466108
342,60.3269,0.0299535
243,69.9741,0.0213678
266,34.9288,0.0132597
341,64.6657,0.0225934
396,75.9441,0.0212787
423,32.8122,0.022452
484,35.4103,0.0341933
422,32.9584,0.105702
452,36.7147,0.0292101
451,46.5582,0.0262621
514,44.4332,0.0245025
578,30.4182,0.0315497
613,67.4469,0.103558
648,80.1382,0.029044
685,33.5038,0.0242858
722,59.4517,0.0522557
