facetNormals:0,facetNormals:1,facetNormals:2,FacetCenters:0,FacetCenters:1,FacetCenters:2,FacetIds,relFacetSize,absFacetSize,cellPairingIds,interplanarAngles,angleWeights
0.00602539,0.0309862,-0.991492,5.35639,6.21847,7.35237,1,0.0243972,0.00529448,8,24.215,0.032063
-0.310845,-0.220546,-0.903843,5.31354,6.23337,7.34669,2,0.0467533,0.010146,13,35.9833,0.0370963
0.453351,0.32288,-0.730969,5.39385,6.2584,7.35656,3,0.0773666,0.0167895,19,59.5797,0.027136
-0.811105,-0.23154,-0.512056,5.27921,6.20695,7.42894,4,0.0305675,0.00663352,26,63.3324,0.0200095
0.868891,-0.189433,-0.447727,5.43413,6.2144,7.41449,5,0.0169595,0.00368041,34,65.4815,0.0234403
-0.344875,0.810918,-0.37426,5.28522,6.3214,7.37458,6,0.0225557,0.00489485,43,78.5636,0.0311187
0.217166,-0.872442,-0.209061,5.38562,6.13171,7.41287,7,0.0429522,0.00932115,53,84.3956,0.0435699
-0.702094,-0.635975,-0.117412,5.26916,6.21439,7.46136,8,0.203461,0.0441534,64,86.5449,0.0284637
0.957959,-0.205663,-0.0597933,5.43875,6.22823,7.4297,9,0.0341571,0.00741249,76,93.2028,0.014564
-0.576762,0.798741,0.0766959,5.20974,6.34379,7.47387,10,0.0103803,0.00225265,89,109.107,0.0350791
0.714673,0.53624,0.333436,5.42033,6.28105,7.48252,11,0.0623995,0.0135414,103,114.446,0.0357746
0.804409,-0.3952,0.398692,5.41333,6.1688,7.50324,12,0.0670363,0.0145477,118,121.056,0.0219471
0.833922,0.107655,0.518225,5.37704,6.27808,7.54284,13,0.0199442,0.00432812,134,113.916,0.029578
-0.23405,0.845514,0.419416,5.24592,6.34325,7.55038,14,0.0375523,0.00814931,151,148.309,0.0191199
0.185725,0.452791,0.851057,5.31735,6.30864,7.60159,15,0.0157197,0.00341136,169,154.168,0.0409038
-0.00857284,-0.420847,0.804255,5.31865,6.22337,7.56331,16,0.126472,0.027446,18,60.1509,0.0582847
,,,,,,,,,25,37.6846,0.0369663
,,,,,,,,,33,79.5964,0.0248902
,,,,,,,,,42,73.506,0.0304305
,,,,,,,,,52,69.7176,0.0447722
,,,,,,,,,63,60.2503,0.0760346
,,,,,,,,,75,101.889,0.0394747
,,,,,,,,,88,93.9158,0.0169887
,,,,,,,,,102,133.319,0.053455
,,,,,,,,,117,122.942,0.0550871
,,,,,,,,,133,140.851,0.0279608
,,,,,,,,,150,121.108,0.0416507
,,,,,,,,,168,164.243,0.0235285
,,,,,,,,,187,135.165,0.0682693
,,,,,,,,,32,94.3129,0.0438213
,,,,,,,,,41,43.8186,0.0278205
,,,,,,,,,51,64.473,0.0349283
,,,,,,,,,62,92.0559,0.0552377
,,,,,,,,,74,119.948,0.112105
,,,,,,,,,87,62.8457,0.0473911
,,,,,,,,,101,93.7665,0.0183047
,,,,,,,,,116,73.1889,0.0690817
,,,,,,,,,132,93.4577,0.0718319
,,,,,,,,,149,87.852,0.0317131
,,,,,,,,,167,98.9954,0.0505625
,,,,,,,,,186,115.739,0.0261301
,,,,,,,,,206,150.75,0.0960045
,,,,,,,,,50,116.062,0.0218154
,,,,,,,,,61,72.53,0.0259574
,,,,,,,,,73,81.6092,0.0357168
,,,,,,,,,86,34.4375,0.05315
,,,,,,,,,100,136.171,0.0322628
,,,,,,,,,115,75.5332,0.0154978
,,,,,,,,,131,158.335,0.0410339
,,,,,,,,,148,142.227,0.0419888
,,,,,,,,,166,172.676,0.0241387
,,,,,,,,,185,103.297,0.0337018
,,,,,,,,,205,135.526,0.0207622
,,,,,,,,,226,110.073,0.0492352
,,,,,,,,,72,107.441,0.0193613
,,,,,,,,,85,60.8567,0.0243174
,,,,,,,,,99,117.374,0.0313092
,,,,,,,,,114,23.2318,0.0226653
,,,,,,,,,130,134.269,0.0128783
,,,,,,,,,147,67.0593,0.0266703
,,,,,,,,,165,52.4444,0.0270704
,,,,,,,,,184,61.3058,0.0183311
,,,,,,,,,204,124.711,0.0233662
,,,,,,,,,225,108.209,0.0163161
,,,,,,,,,247,108.569,0.0299084
,,,,,,,,,98,142.824,0.0295786
,,,,,,,,,113,104.554,0.0406094
,,,,,,,,,129,120.344,0.0271698
,,,,,,,,,146,30.1709,0.0142176
,,,,,,,,,164,86.0068,0.0331342
,,,,,,,,,183,142.706,0.0337541
,,,,,,,,,203,114.64,0.0211697
,,,,,,,,,224,49.1129,0.0281832
,,,,,,,,,246,90.9383,0.0185272
,,,,,,,,,269,137.361,0.0382837
,,,,,,,,,128,61.0181,0.0709305
,,,,,,,,,145,63.8051,0.0380531
,,,,,,,,,163,156.76,0.0167199
,,,,,,,,,182,115.743,0.0508809
,,,,,,,,,202,61.2052,0.0523574
,,,,,,,,,223,91.3302,0.0272399
,,,,,,,,,245,167.46,0.0400712
,,,,,,,,,268,125.998,0.023016
,,,,,,,,,292,76.3902,0.0641261
,,,,,,,,,162,124.8,0.0584941
,,,,,,,,,181,96.8216,0.0197528
,,,,,,,,,201,165.654,0.0955077
,,,,,,,,,222,112.627,0.100846
,,,,,,,,,244,139.301,0.0363274
,,,,,,,,,267,117.086,0.0634026
,,,,,,,,,291,123.577,0.0291845
,,,,,,,,,316,78.062,0.155984
,,,,,,,,,200,138.045,0.0159219
,,,,,,,,,221,53.6847,0.0441479
,,,,,,,,,243,30.6894,0.0452552
,,,,,,,,,266,39.7215,0.0251837
,,,,,,,,,290,116.317,0.0357743
,,,,,,,,,315,87.9837,0.0215306
,,,,,,,,,341,88.0544,0.0537874
,,,,,,,,,242,87.4643,0.0177996
,,,,,,,,,265,140.599,0.017977
,,,,,,,,,289,111.343,0.0136541
,,,,,,,,,314,28.7459,0.0162647
,,,,,,,,,340,70.752,0.0125038
,,,,,,,,,367,107.485,0.0191859
,,,,,,,,,288,57.9872,0.0646349
,,,,,,,,,313,28.6651,0.0302271
,,,,,,,,,339,62.6552,0.0468875
,,,,,,,,,366,45.2352,0.0251129
,,,,,,,,,394,87.5924,0.0835679
,,,,,,,,,338,30.4913,0.0307421
,,,,,,,,,365,111.863,0.0481385
,,,,,,,,,393,71.2365,0.0254674
,,,,,,,,,422,57.3746,0.0876264
,,,,,,,,,392,83.2316,0.026052
,,,,,,,,,421,48.3311,0.0175817
,,,,,,,,,451,66.0244,0.0344549
,,,,,,,,,450,43.1643,0.0221621
,,,,,,,,,481,91.0716,0.05791
,,,,,,,,,512,56.4656,0.0279637
