Q	U	V
{$V$}	{[mm$^3$]}	0.00848074
{$d_v$}	{[mm]}	0.253014
{$S_c$}	{[mm$^2$]}	0.307393
{$S_o$}	{[mm$^2$]}	0.182934
{$S_l/S_o$}	[]	0.680349
{$\Psi$}	[]	0.654253
{$\eta$}	[]	0.698018
{med($\theta_e$)}	{[$^\circ$]}	61.8864
{$\Upsilon$}	[]	15
{$\Xi$}	[]	4
