Q	U	V
{$V$}	{[mm$^3$]}	0.00261713
{$d_v$}	{[mm]}	0.170979
{$S_c$}	{[mm$^2$]}	0.194462
{$S_o$}	{[mm$^2$]}	0.109453
{$S_l/S_o$}	[]	0.776671
{$\Psi$}	[]	0.47228
{$\eta$}	[]	0.494217
{med($\theta_e$)}	{[$^\circ$]}	64.8779
{$\Upsilon$}	[]	18
{$\Xi$}	[]	12
