facetNormals:0,facetNormals:1,facetNormals:2,FacetCenters:0,FacetCenters:1,FacetCenters:2,FacetIds,relFacetSize,absFacetSize,cellPairingIds,interplanarAngles,angleWeights
0.403325,-0.343399,-0.817099,5.98591,3.52639,5.82864,1,0.0417631,0.00713054,8,37.9057,0.0517702
0.314885,0.279136,-0.874092,5.95663,3.58473,5.80402,2,0.068084,0.0116245,13,33.2304,0.0458986
0.802163,-0.072172,-0.540803,6.02045,3.5194,5.86181,3,0.0509431,0.0086979,19,52.9303,0.0147213
0.173689,-0.939361,-0.224415,5.99367,3.41388,5.92514,4,0.00893555,0.00152563,26,99.2116,0.0224969
-0.942108,-0.119731,-0.228369,5.85766,3.59068,5.96771,5,0.0153949,0.00262848,34,120.433,0.0647251
-0.49274,0.800581,-0.0121587,5.88103,3.63949,5.88593,6,0.143774,0.0245476,43,114.372,0.038793
0.157115,0.959299,0.158783,5.93308,3.65427,5.94536,7,0.0362173,0.00618365,53,94.8476,0.0589771
0.696778,0.608874,0.183041,5.99791,3.58141,5.93674,8,0.100332,0.0171304,64,78.9701,0.0486982
0.892325,-0.23839,0.317926,6.02947,3.46595,5.96883,9,0.058395,0.00997023,76,97.9188,0.0585579
0.824736,0.247831,0.463513,6.00386,3.56058,5.93242,10,0.0979467,0.0167232,89,150.641,0.0169508
-0.619278,-0.0983933,0.75538,5.89979,3.53427,6.03493,11,0.0106333,0.00181551,103,118,0.053465
-0.0266105,-0.563656,0.747963,5.94764,3.48848,6.01622,12,0.0742774,0.0126819,118,130.986,0.0343581
0.320716,0.000766709,0.918216,5.96593,3.54314,6.02655,13,0.0291835,0.00498273,18,41.473,0.0582793
,,,,,,,,,25,90.6837,0.0157978
,,,,,,,,,33,97.9137,0.0251116
,,,,,,,,,42,85.0345,0.0924082
,,,,,,,,,52,79.236,0.0472826
,,,,,,,,,63,75.4834,0.0811206
,,,,,,,,,75,93.8399,0.0628684
,,,,,,,,,88,94.6114,0.0803298
,,,,,,,,,102,157.953,0.0183939
,,,,,,,,,117,154.37,0.071046
,,,,,,,,,133,138.02,0.040855
,,,,,,,,,32,69.8146,0.0152042
,,,,,,,,,41,131.154,0.0236445
,,,,,,,,,51,119.308,0.07523
,,,,,,,,,62,91.7435,0.0423362
,,,,,,,,,74,62.9605,0.0675751
,,,,,,,,,87,53.6959,0.0544151
,,,,,,,,,101,65.5285,0.0670255
,,,,,,,,,116,160.573,0.0175942
,,,,,,,,,132,115.071,0.0604361
,,,,,,,,,149,104.695,0.0371087
,,,,,,,,,50,89.9949,0.0113078
,,,,,,,,,61,154.82,0.0168254
,,,,,,,,,73,160.214,0.0143345
,,,,,,,,,86,122.11,0.0164097
,,,,,,,,,100,71.2838,0.0154994
,,,,,,,,,115,101.637,0.016377
,,,,,,,,,131,101.051,0.00971079
,,,,,,,,,148,67.1518,0.0159521
,,,,,,,,,166,99.1078,0.0136819
,,,,,,,,,72,66.1615,0.0278118
,,,,,,,,,85,108.115,0.0216058
,,,,,,,,,99,146.823,0.0266939
,,,,,,,,,114,158.016,0.0243661
,,,,,,,,,130,162.796,0.0266077
,,,,,,,,,147,63.844,0.0125786
,,,,,,,,,165,94.9053,0.0255038
,,,,,,,,,184,122.607,0.0201567
,,,,,,,,,98,41.9545,0.0578595
,,,,,,,,,113,80.7925,0.118187
,,,,,,,,,129,133.695,0.0830561
,,,,,,,,,146,103.434,0.116516
,,,,,,,,,164,76.3898,0.0198021
,,,,,,,,,183,120.512,0.0979508
,,,,,,,,,203,100.624,0.0485186
,,,,,,,,,128,38.9406,0.0532226
,,,,,,,,,145,92.264,0.0447068
,,,,,,,,,163,62.7593,0.052881
,,,,,,,,,182,94.255,0.0164399
,,,,,,,,,202,117.5,0.0486924
,,,,,,,,,223,78.1378,0.0323222
,,,,,,,,,162,54.5191,0.0738234
,,,,,,,,,181,28.5393,0.0991249
,,,,,,,,,201,112.418,0.0192288
,,,,,,,,,222,104.738,0.0853607
,,,,,,,,,244,64.7043,0.0452153
,,,,,,,,,200,30.3699,0.0731679
,,,,,,,,,221,107.539,0.0179907
,,,,,,,,,243,67.6229,0.0653856
,,,,,,,,,266,52.5329,0.0389176
,,,,,,,,,242,101.109,0.019184
,,,,,,,,,265,78.3488,0.0844855
,,,,,,,,,289,43.4717,0.0449685
,,,,,,,,,288,46.1753,0.0186035
,,,,,,,,,313,58.7803,0.0155873
,,,,,,,,,338,41.9429,0.0419033
