facetNormals:0,facetNormals:1,facetNormals:2,FacetCenters:0,FacetCenters:1,FacetCenters:2,FacetIds,relFacetSize,absFacetSize,cellPairingIds,interplanarAngles,angleWeights
-0.487338,0.558018,-0.625097,6.76657,5.46101,7.04053,1,0.0219606,0.00581102,8,121.354,0.0365423
0.122838,-0.925432,-0.157925,6.83297,5.35463,7.04209,2,0.108756,0.0287781,13,35.6309,0.0267954
-0.757849,0.61338,-0.0964586,6.75988,5.53185,7.15956,3,0.0343602,0.00909211,19,63.1697,0.0391982
-0.902803,-0.159727,-0.0830673,6.74584,5.42449,7.09271,4,0.182263,0.048229,26,143.459,0.0323964
0.766548,-0.57421,0.0880937,6.92495,5.42559,7.18288,5,0.0617316,0.0163349,34,138.845,0.025948
0.874532,-0.0470373,0.40074,6.96199,5.49567,7.20872,6,0.0317047,0.00838944,43,108.708,0.0259263
-0.586692,-0.742858,0.286122,6.76966,5.36222,7.12226,7,0.0316401,0.00837234,53,69.6878,0.0344855
-0.0308172,0.908233,0.316744,6.86152,5.54866,7.20966,8,0.0802618,0.0212382,64,135.157,0.0256552
-0.160277,-0.875981,0.430562,6.8088,5.35685,7.17439,9,0.0308446,0.00816183,76,73.4607,0.0159598
-0.7884,0.343422,0.485319,6.74055,5.49256,7.23286,10,0.0125347,0.00331681,89,97.2069,0.0302624
0.405596,0.724905,0.521733,6.90579,5.56724,7.17714,11,0.0486558,0.0128749,103,93.7799,0.0274456
-0.215572,0.559598,0.767155,6.80147,5.51833,7.25639,12,0.0365826,0.00968019,118,118.249,0.0223005
0.28273,0.397447,0.860086,6.88966,5.53844,7.20644,13,0.0226511,0.00599376,134,163.078,0.0312587
0.352983,-0.390916,0.813102,6.86904,5.43131,7.2786,14,0.0542125,0.0143453,151,133.539,0.0111962
-0.132049,-0.232164,0.955641,6.79962,5.44872,7.31882,15,0.00751342,0.00198814,18,134.096,0.0522216
,,,,,,,,,25,86.7091,0.136226
,,,,,,,,,33,47.8052,0.0787585
,,,,,,,,,42,84.4831,0.0490967
,,,,,,,,,52,52.4824,0.0490192
,,,,,,,,,63,168.957,0.0923611
,,,,,,,,,75,39.4692,0.048059
,,,,,,,,,88,121.702,0.0224785
,,,,,,,,,102,139.235,0.0672327
,,,,,,,,,117,136.208,0.0547491
,,,,,,,,,133,120.058,0.0374934
,,,,,,,,,150,72.4416,0.0723567
,,,,,,,,,168,87.089,0.0140558
,,,,,,,,,32,48.788,0.0578201
,,,,,,,,,41,177.824,0.0441476
,,,,,,,,,51,140.707,0.0329791
,,,,,,,,,62,92.285,0.0329441
,,,,,,,,,74,54.3231,0.0481201
,,,,,,,,,87,118.162,0.0325076
,,,,,,,,,101,38.0983,0.0183685
,,,,,,,,,116,84.8099,0.0402771
,,,,,,,,,132,63.0327,0.0354366
,,,,,,,,,149,93.1625,0.0273033
,,,,,,,,,167,128.104,0.0420615
,,,,,,,,,186,97.9532,0.0123306
,,,,,,,,,50,133.336,0.0922265
,,,,,,,,,61,156.861,0.0540138
,,,,,,,,,73,46.6813,0.0539199
,,,,,,,,,86,99.3253,0.111447
,,,,,,,,,100,74.1402,0.0527604
,,,,,,,,,115,47.2879,0.0234562
,,,,,,,,,131,125.571,0.0768076
,,,,,,,,,148,87.3457,0.0609348
,,,,,,,,,166,115.382,0.0402946
,,,,,,,,,185,111.287,0.0835683
,,,,,,,,,205,85.1699,0.0144319
,,,,,,,,,72,37.7263,0.0418934
,,,,,,,,,85,89.8775,0.0418369
,,,,,,,,,99,123.973,0.0697876
,,,,,,,,,114,63.932,0.0411355
,,,,,,,,,130,143.03,0.0208381
,,,,,,,,,147,93.6084,0.0544193
,,,,,,,,,165,116.576,0.0459405
,,,,,,,,,184,86.1245,0.0331416
,,,,,,,,,204,52.5434,0.0577282
,,,,,,,,,225,83.002,0.0133964
,,,,,,,,,98,112.435,0.0316724
,,,,,,,,,113,86.4582,0.0454543
,,,,,,,,,129,85.5703,0.0312687
,,,,,,,,,146,122.511,0.0179662
,,,,,,,,,164,55.8981,0.0383925
,,,,,,,,,183,84.3345,0.0339695
,,,,,,,,,203,52.9907,0.0264239
,,,,,,,,,224,45.5919,0.0400104
,,,,,,,,,246,73.0633,0.012148
,,,,,,,,,128,126.492,0.0453878
,,,,,,,,,145,27.4601,0.0312373
,,,,,,,,,163,69.2288,0.0179558
,,,,,,,,,182,130.283,0.038345
,,,,,,,,,202,94.1525,0.0339323
,,,,,,,,,223,102.704,0.0264015
,,,,,,,,,245,70.7438,0.0399589
,,,,,,,,,268,57.7664,0.0121432
,,,,,,,,,162,133.418,0.0445634
,,,,,,,,,181,58.9656,0.021683
,,,,,,,,,201,30.7677,0.0605845
,,,,,,,,,222,36.0253,0.0502581
,,,,,,,,,244,48.9672,0.0353312
,,,,,,,,,267,96.6752,0.0647141
,,,,,,,,,291,84.2361,0.0137406
,,,,,,,,,200,87.9764,0.0178254
,,,,,,,,,221,119.336,0.037755
,,,,,,,,,243,97.4772,0.0334694
,,,,,,,,,266,91.3564,0.0261204
,,,,,,,,,290,48.4217,0.0393186
,,,,,,,,,315,49.6099,0.0120834
,,,,,,,,,242,79.1467,0.0199339
,,,,,,,,,265,40.1947,0.0186717
,,,,,,,,,289,70.1827,0.0161386
,,,,,,,,,314,91.0738,0.0203615
,,,,,,,,,340,60.1171,0.00939523
,,,,,,,,,288,41.218,0.0417642
,,,,,,,,,313,28.6036,0.0309117
,,,,,,,,,339,72.6104,0.0512841
,,,,,,,,,366,73.482,0.0130168
,,,,,,,,,338,31.4576,0.0279786
,,,,,,,,,365,69.5931,0.043686
,,,,,,,,,393,49.1733,0.0124665
,,,,,,,,,392,47.7735,0.031952
,,,,,,,,,421,45.1175,0.0112839
,,,,,,,,,450,31.3235,0.0131977
