Q	U	V
{$V$}	{[mm$^3$]}	0.00629822
{$d_v$}	{[mm]}	0.229125
{$S_c$}	{[mm$^2$]}	0.293494
{$S_o$}	{[mm$^2$]}	0.164259
{$S_l/S_o$}	[]	0.786776
{$\Psi$}	[]	0.561949
{$\eta$}	[]	0.613747
{med($\theta_e$)}	{[$^\circ$]}	62.31085
{$\Upsilon$}	[]	14
{$\Xi$}	[]	9
