Q	U	V
{$V$}	{[mm$^3$]}	0.00603104
{$d_v$}	{[mm]}	0.225838
{$S_c$}	{[mm$^2$]}	0.267947
{$S_o$}	{[mm$^2$]}	0.177748
{$S_l/S_o$}	[]	0.507454
{$\Psi$}	[]	0.597994
{$\eta$}	[]	0.625258
{med($\theta_e$)}	{[$^\circ$]}	51.97745
{$\Upsilon$}	[]	15
{$\Xi$}	[]	13
