"cellPairingIds","interplanarAngles","angleWeights"
8,25.8698,0.0282555
13,43.832,0.0347469
19,31.328,0.0776648
26,47.743,0.0656587
34,57.2289,0.0831212
43,60.8961,0.0654698
33,23.9452,0.0272653
42,35.9,0.0298713
32,54.2698,0.0360875
41,52.5293,0.0332614
74,45.3963,0.037146
87,74.1351,0.0310363
116,71.9567,0.0314325
73,43.6894,0.0703972
86,57.2837,0.0907681
72,36.6955,0.0750979
114,47.9691,0.0535587
204,81.6146,0.053358
98,79.3342,0.0748509
146,48.902,0.0441633
203,61.7381,0.0755748
224,79.1401,0.064343
128,91.0928,0.0745409
163,43.222,0.0386297
202,45.553,0.0390512
201,54.947,0.0661339
222,128.048,0.0446043
291,95.1695,0.0542118
221,68.0781,0.0489706
290,40.8,0.0478541
315,57.2631,0.0421128
265,30.9495,0.0286609
289,57.7256,0.0388216
366,40.9147,0.0428457
338,57.1067,0.0392474
393,112.811,0.0326391
392,41.5397,0.0535983
421,73.1786,0.0464982
450,38.4443,0.0419886
