Q	U	V
{$V$}	{[mm$^3$]}	0.00806632
{$d_v$}	{[mm]}	0.248824
{$S_c$}	{[mm$^2$]}	0.347404
{$S_o$}	{[mm$^2$]}	0.215434
{$S_l/S_o$}	[]	0.612577
{$\Psi$}	[]	0.559886
{$\eta$}	[]	0.608372
{med($\theta_e$)}	{[$^\circ$]}	67.7747
{$\Upsilon$}	[]	12
{$\Xi$}	[]	9
