"cellPairingIds","interplanarAngles","angleWeights"
18,39.6963,0.0167266
25,110.481,0.0211153
33,93.1191,0.02014
75,83.8076,0.0103528
88,55.6704,0.0174041
41,60.0948,0.0380637
74,85.8394,0.0468794
101,85.4995,0.0293453
132,106.316,0.0250959
50,55.4715,0.0722235
86,57.543,0.11229
100,93.4536,0.0164512
99,31.4539,0.0892945
162,144.533,0.0172002
222,46.6943,0.0403645
267,65.1844,0.139428
200,53.9606,0.0141075
290,95.5744,0.0169341
265,118.503,0.0266525
314,110.809,0.0502063
365,32.1903,0.0389289
