Q	U	V
{$V$}	{[mm$^3$]}	0.00368465
{$d_v$}	{[mm]}	0.191631
{$S_c$}	{[mm$^2$]}	0.222026
{$S_o$}	{[mm$^2$]}	0.121842
{$S_l/S_o$}	[]	0.822245
{$\Psi$}	[]	0.51961
{$\eta$}	[]	0.541324
{med($\theta_e$)}	{[$^\circ$]}	54.5211
{$\Upsilon$}	[]	17
{$\Xi$}	[]	11
