Q	U	V
{$V$}	{[mm$^3$]}	0.00118032
{$d_v$}	{[mm]}	0.131119
{$S_c$}	{[mm$^2$]}	0.098997
{$S_o$}	{[mm$^2$]}	0.0484987
{$S_l/S_o$}	[]	1.041230
{$\Psi$}	[]	0.545584
{$\eta$}	[]	0.636175
{med($\theta_e$)}	{[$^\circ$]}	63.90925
{$\Upsilon$}	[]	16
{$\Xi$}	[]	3
