"cellPairingIds","interplanarAngles","angleWeights"
8,22.3951,0.0240384
13,27.9236,0.0209676
19,18.7898,0.020449
34,47.5274,0.021464
18,42.8351,0.0532509
25,35.7743,0.0500287
33,42.0533,0.0228221
63,77.6985,0.0476825
88,97.3879,0.0424242
133,121.256,0.0531698
150,144.342,0.0557845
41,49.1762,0.0200362
51,39.7207,0.0420723
87,54.4662,0.0608151
61,40.897,0.0400351
73,43.6077,0.0535004
115,81.0075,0.0323901
99,36.7072,0.0191928
114,68.9343,0.0241072
98,34.6556,0.0610544
129,62.4794,0.0651882
164,75.7627,0.0493657
183,73.7856,0.0443218
163,60.7019,0.0448947
202,77.9555,0.0614417
162,64.9421,0.0536586
244,51.242,0.0369094
221,29.1645,0.0773295
266,89.6105,0.0607093
265,97.6846,0.0351398
314,67.0386,0.0347087
288,33.3273,0.0496186
313,76.4547,0.0467537
366,66.3153,0.0418379
365,73.7988,0.0438357
393,57.6172,0.0381576
392,45.5882,0.0415845
421,37.5347,0.0364404
450,23.7081,0.0376499
