"cellPairingIds","interplanarAngles","angleWeights"
8,47.5656,0.109563
13,63.3312,0.0685396
19,92.4178,0.0443144
26,53.4558,0.0645531
34,87.7871,0.116686
33,35.4812,0.0723496
42,74.94,0.144914
63,72.2305,0.126252
32,90.0422,0.0379368
41,82.6389,0.0518545
62,63.3566,0.0332552
61,52.749,0.0491654
73,136.504,0.0262837
100,120.083,0.0372766
85,69.281,0.0322878
99,52.6577,0.0700052
113,117.029,0.135805
129,98.5428,0.0779397
128,48.9489,0.0398877
145,65.3881,0.0327469
162,39.3754,0.0721998
