Q	U	V
{$V$}	{[mm$^3$]}	0.00736929
{$d_v$}	{[mm]}	0.241440
{$S_c$}	{[mm$^2$]}	0.31479
{$S_o$}	{[mm$^2$]}	0.196085
{$S_l/S_o$}	[]	0.605375
{$\Psi$}	[]	0.581764
{$\eta$}	[]	0.608085
{med($\theta_e$)}	{[$^\circ$]}	69.7088
{$\Upsilon$}	[]	12
{$\Xi$}	[]	13
