"cellPairingIds","interplanarAngles","angleWeights"
13,45.8616,0.0668198
19,70.0831,0.0400817
26,54.6268,0.0322235
34,73.6985,0.0711431
64,99.1885,0.063131
32,108.838,0.0413679
62,131.15,0.0940974
87,57.7793,0.0663818
50,59.6061,0.0248503
73,39.4674,0.0485185
86,25.6673,0.0356659
72,91.608,0.0340738
99,55.2613,0.0293065
130,56.7627,0.035427
184,102.761,0.0211083
129,31.6679,0.0706469
203,99.8969,0.0328971
128,37.8215,0.0690038
145,144.838,0.0869434
163,52.337,0.116322
182,103.903,0.0221012
223,81.484,0.036043
181,27.5732,0.0624059
221,46.9379,0.0201274
266,84.5412,0.0310735
289,60.5068,0.0341567
313,44.0005,0.0151684
