facetNormals:0,facetNormals:1,facetNormals:2,FacetCenters:0,FacetCenters:1,FacetCenters:2,FacetIds,relFacetSize,absFacetSize,cellPairingIds,interplanarAngles,angleWeights
-0.18776,-0.138454,-0.897818,3.57341,7.05912,5.78935,1,0.100594,0.0116484,8,50.4752,0.0419518
0.439242,-0.592378,-0.644512,3.62773,7.03955,5.77092,2,0.0265022,0.00306885,13,66.6749,0.0427434
0.74243,0.143933,-0.56321,3.61374,7.0448,5.79922,3,0.0271371,0.00314238,19,65.348,0.0416264
-0.450968,0.746994,-0.442517,3.54776,7.13192,5.80413,4,0.026243,0.00303884,26,45.9552,0.037828
-0.545198,-0.655192,-0.491809,3.57081,7.03229,5.80692,5,0.0232938,0.00269734,34,45.1691,0.120084
-0.727299,0.242135,-0.589745,3.55026,7.13037,5.72832,6,0.148941,0.0172468,43,50.7222,0.0312599
-0.200354,-0.843621,-0.474554,3.57429,7.042,5.77682,7,0.0185053,0.00214284,53,58.8226,0.0373849
0.157556,-0.873518,-0.424515,3.60477,7.03721,5.77542,8,0.0229586,0.00265852,64,100.808,0.0291781
0.963553,0.127249,-0.0327124,3.60919,7.10174,5.77086,9,0.0170638,0.00197593,76,96.9173,0.0655984
-0.045463,-0.914042,0.269168,3.60202,7.04567,5.7949,10,0.0486676,0.00563552,89,105.244,0.0898849
0.441066,-0.801009,0.292068,3.5991,7.05905,5.80098,11,0.0812368,0.00940691,103,93.6832,0.0216144
-0.439249,-0.835026,0.286069,3.56119,7.03901,5.82429,12,0.012108,0.00140206,118,94.182,0.0805875
-0.919669,-0.0824091,0.277688,3.54053,7.11772,5.79501,13,0.0672189,0.0077837,134,121.472,0.0903121
0.0287389,0.890151,0.378781,3.56363,7.17113,5.80174,14,0.0819375,0.00948806,151,123.258,0.021575
-0.458215,-0.479323,0.727511,3.54755,7.09073,5.82704,15,0.0120833,0.0013992,169,156.813,0.0466782
0.52742,0.0071991,0.793654,3.59815,7.09856,5.81281,16,0.03039,0.00351905,188,162.829,0.0170997
-0.0950234,0.154462,0.976212,3.55967,7.08944,5.85911,17,0.00934407,0.00108201,18,49.1677,0.0268159
,,,,,,,,,25,111.77,0.026372
,,,,,,,,,33,61.1113,0.0247946
,,,,,,,,,42,95.0146,0.0449976
,,,,,,,,,52,42.1628,0.0217933
,,,,,,,,,63,26.7833,0.0246035
,,,,,,,,,75,67.2098,0.0207606
,,,,,,,,,88,68.1312,0.0343169
,,,,,,,,,102,59.2999,0.0399661
,,,,,,,,,117,83.0203,0.016622
,,,,,,,,,133,124.443,0.0380159
,,,,,,,,,150,143.181,0.0400503
,,,,,,,,,168,113.616,0.0165987
,,,,,,,,,187,107.723,0.0283132
,,,,,,,,,207,141.629,0.0138167
,,,,,,,,,32,88.6375,0.0266826
,,,,,,,,,41,103.847,0.025069
,,,,,,,,,51,100.933,0.0459096
,,,,,,,,,62,90.1783,0.022005
,,,,,,,,,74,75.6247,0.0248736
,,,,,,,,,87,34.8944,0.0209527
,,,,,,,,,101,110.629,0.0348448
,,,,,,,,,116,86.9809,0.0406838
,,,,,,,,,132,130.797,0.0167448
,,,,,,,,,149,159.4,0.0386648
,,,,,,,,,167,94.0136,0.0407712
,,,,,,,,,186,151.918,0.0167212
,,,,,,,,,206,93.4699,0.0286716
,,,,,,,,,227,129.706,0.0139015
,,,,,,,,,50,91.5429,0.0246806
,,,,,,,,,61,35.5528,0.0446235
,,,,,,,,,73,109.942,0.0217051
,,,,,,,,,86,123.815,0.0244912
,,,,,,,,,100,109.974,0.0206806
,,,,,,,,,115,146.85,0.0340989
,,,,,,,,,131,170.583,0.0396707
,,,,,,,,,148,124.927,0.0165706
,,,,,,,,,166,75.8695,0.0377486
,,,,,,,,,185,59.2339,0.0397537
,,,,,,,,,205,119.439,0.0165475
,,,,,,,,,226,128.759,0.0281647
,,,,,,,,,248,106.368,0.0137812
,,,,,,,,,72,56.3111,0.0402869
,,,,,,,,,85,23.0038,0.0206253
,,,,,,,,,99,44.1093,0.023125
,,,,,,,,,114,128.262,0.019698
,,,,,,,,,130,58.4434,0.0315073
,,,,,,,,,147,81.4339,0.0362059
,,,,,,,,,165,48.2627,0.0159337
,,,,,,,,,184,63.8064,0.0345981
,,,,,,,,,204,145.53,0.0362751
,,,,,,,,,225,77.7175,0.0159123
,,,,,,,,,247,136.71,0.0263729
,,,,,,,,,270,122.814,0.0133378
,,,,,,,,,98,76.6145,0.0329203
,,,,,,,,,113,94.5654,0.0397847
,,,,,,,,,129,133.775,0.0306197
,,,,,,,,,146,112.093,0.0733632
,,,,,,,,,164,137.729,0.105132
,,,,,,,,,183,93.0919,0.0223954
,,,,,,,,,203,58.6508,0.092632
,,,,,,,,,224,91.7601,0.105717
,,,,,,,,,246,102.857,0.0223531
,,,,,,,,,269,157.243,0.05048
,,,,,,,,,293,119.249,0.0175849
,,,,,,,,,128,21.187,0.0204928
,,,,,,,,,145,107.239,0.0177553
,,,,,,,,,163,46.2132,0.0268146
,,,,,,,,,182,61.7726,0.0301439
,,,,,,,,,202,47.6349,0.0146382
,,,,,,,,,223,82.6454,0.0290211
,,,,,,,,,245,168.21,0.0301918
,,,,,,,,,268,81.0764,0.0146202
,,,,,,,,,292,121.23,0.0230033
,,,,,,,,,317,125.831,0.0124179
,,,,,,,,,162,86.7319,0.0195771
,,,,,,,,,181,43.8377,0.0311992
,,,,,,,,,201,46.9112,0.0357998
,,,,,,,,,222,56.2621,0.0158546
,,,,,,,,,244,101.602,0.034227
,,,,,,,,,267,168.716,0.0358674
,,,,,,,,,291,87.7713,0.0158334
,,,,,,,,,316,106.106,0.0261567
,,,,,,,,,342,125.285,0.0132823
,,,,,,,,,200,100.492,0.0252682
,,,,,,,,,221,70.3762,0.0282035
,,,,,,,,,243,124.196,0.014165
,,,,,,,,,266,165.002,0.0272182
,,,,,,,,,290,82.1484,0.0282454
,,,,,,,,,315,123.353,0.014148
,,,,,,,,,341,58.5765,0.0218558
,,,,,,,,,368,96.1736,0.0120756
,,,,,,,,,242,30.2874,0.0608694
,,,,,,,,,265,23.8461,0.0193916
,,,,,,,,,289,77.9589,0.0564584
,,,,,,,,,314,140.558,0.061065
,,,,,,,,,340,45.7897,0.0193599
,,,,,,,,,367,78.3821,0.037416
,,,,,,,,,395,82.3615,0.015678
,,,,,,,,,288,53.821,0.0210749
,,,,,,,,,313,106.219,0.073566
,,,,,,,,,339,129.402,0.0815856
,,,,,,,,,366,65.3354,0.0210375
,,,,,,,,,394,59.9073,0.0442329
,,,,,,,,,423,82.7985,0.0167603
,,,,,,,,,338,54.4866,0.0205198
,,,,,,,,,365,132.738,0.0210983
,,,,,,,,,393,33.4636,0.0120956
,,,,,,,,,422,90.6489,0.0173167
,,,,,,,,,452,78.6878,0.010548
,,,,,,,,,392,89.6687,0.073852
,,,,,,,,,421,45.6968,0.0204843
,,,,,,,,,451,106.779,0.0418565
,,,,,,,,,482,68.8299,0.0164074
,,,,,,,,,450,99.9291,0.0210608
,,,,,,,,,481,69.5532,0.0443361
,,,,,,,,,513,58.3296,0.0167751
,,,,,,,,,512,69.2549,0.0172914
,,,,,,,,,545,45.9386,0.0105386
,,,,,,,,,578,39.9112,0.0142933
