"cellPairingIds","interplanarAngles","angleWeights"
13,52.9661,0.0481715
19,41.3919,0.0226129
64,94.2833,0.0292449
89,111.302,0.0263789
18,48.2067,0.0413294
25,68.6447,0.0209823
42,54.4429,0.0700431
88,88.3963,0.0532878
133,107.062,0.0418519
32,92.4423,0.0199156
87,52.7049,0.0248861
101,78.6397,0.0469075
61,61.702,0.0248183
131,98.8138,0.0148452
148,100.631,0.0165691
166,134.167,0.0200362
203,78.6091,0.0605056
200,56.6277,0.0287742
221,85.1938,0.0174419
315,60.6689,0.0323422
289,41.9339,0.0475816
340,40.0977,0.0829547
288,58.5724,0.0185049
313,87.5283,0.0229378
366,65.652,0.0288729
338,45.4682,0.0273315
421,37.8363,0.0581987
