Q	U	V
{$V$}	{[mm$^3$]}	0.00378914
{$d_v$}	{[mm]}	0.193426
{$S_c$}	{[mm$^2$]}	0.21844
{$S_o$}	{[mm$^2$]}	0.127993
{$S_l/S_o$}	[]	0.706656
{$\Psi$}	[]	0.538079
{$\eta$}	[]	0.617149
{med($\theta_e$)}	{[$^\circ$]}	
{$\Upsilon$}	[]	16
{$\Xi$}	[]	12
