"cellPairingIds","interplanarAngles","angleWeights"
8,69.3254,0.0164873
13,75.1895,0.0191551
19,71.2277,0.0152692
43,102.492,0.0186068
64,90.0278,0.0156961
103,128.401,0.0194418
18,51.2099,0.0637473
42,31.7993,0.0488081
52,90.8874,0.0580544
63,66.6662,0.0262748
32,55.0096,0.0487193
51,49.8124,0.0830478
116,89.294,0.0926098
132,136.247,0.154566
148,94.4483,0.0506183
113,65.0115,0.0290583
164,72.6591,0.0641047
128,28.7073,0.0321024
145,42.0717,0.0493037
163,46.1529,0.0660538
182,92.2594,0.0810617
201,83.9307,0.0301475
200,22.3616,0.0398323
243,54.1047,0.0556356
242,83.5766,0.0582781
265,34.2275,0.0779373
288,61.2248,0.0997214
