"cellPairingIds","interplanarAngles","angleWeights"
8,66.1068,0.063462
13,27.014,0.0566111
19,91.0691,0.0545785
26,60.4946,0.0463676
43,73.4031,0.0310835
53,80.4288,0.0723989
25,58.1907,0.0649765
33,64.6941,0.0536632
42,51.572,0.0436848
75,78.2702,0.103819
32,87.874,0.0578131
62,53.457,0.0321066
73,120.532,0.0314425
100,76.0655,0.0819879
115,126.293,0.0546133
72,31.2622,0.0348425
99,39.5716,0.0599173
113,58.6414,0.0477414
129,67.8137,0.0507666
128,72.2484,0.0366378
163,34.2273,0.0310948
162,101.526,0.130089
181,71.5017,0.0724601
200,108.183,0.0796652
