"cellPairingIds","interplanarAngles","angleWeights"
8,56.6657,0.0278368
13,49.3225,0.0311088
19,90.3001,0.0302387
26,63.7225,0.0259767
34,45.6834,0.0384095
43,81.1463,0.0297055
53,74.9811,0.0159941
76,67.7718,0.0306691
118,122.611,0.0222605
25,37.2336,0.0456837
33,51.4988,0.0366093
62,37.7782,0.053462
74,31.0174,0.0210243
50,78.111,0.0408796
166,51.8549,0.0323743
205,54.5429,0.0128278
72,55.2783,0.057382
165,60.1751,0.0394716
225,86.5798,0.011993
247,119.7,0.0225656
146,65.7458,0.0866768
183,46.4028,0.077677
224,65.4567,0.0954468
128,42.4438,0.0203738
223,46.7027,0.0317639
181,30.645,0.0208225
244,78.6192,0.0165723
316,101.9,0.0146323
314,42.77,0.058658
367,112.567,0.0260246
365,55.8458,0.0543932
422,95.5088,0.0251497
421,54.5322,0.0111348
451,50.7422,0.0197076
481,87.0201,0.0267629
512,39.6479,0.010224
