"cellPairingIds","interplanarAngles","angleWeights"
50,69.503,0.0309086
86,62.9039,0.0128595
100,110.75,0.0133202
115,83.8115,0.0364604
166,48.1794,0.0446373
114,91.8927,0.0142086
130,37.4049,0.0439881
162,57.3009,0.00863629
244,90.3271,0.0158429
369,88.4169,0.0104267
200,119.917,0.015278
290,41.5792,0.0137802
396,107.714,0.0107276
289,85.8313,0.07823
314,133.803,0.0401267
340,41.1087,0.0527708
424,126.301,0.0219438
514,63.2195,0.0246629
450,103.357,0.0383673
546,71.538,0.0189807
579,94.8445,0.0214069
