"cellPairingIds","interplanarAngles","angleWeights"
8,35.0343,0.0242041
19,65.5686,0.0293494
26,58.7134,0.0576901
43,80.8272,0.0457708
118,106.317,0.0373916
33,50.5019,0.032043
63,57.1841,0.0296305
75,51.0123,0.0296485
133,124.636,0.0246196
150,84.3364,0.0243125
50,56.3952,0.0417276
61,34.4682,0.0281633
73,58.6533,0.0351136
115,48.855,0.00963751
72,46.0607,0.0532795
99,45.6073,0.102378
147,74.9176,0.050345
146,46.7652,0.0101456
164,31.5177,0.0318419
163,54.4811,0.0109246
223,50.2199,0.0472797
162,37.5881,0.0813797
201,86.7711,0.0446351
244,151.77,0.0521439
267,93.8459,0.0507855
290,57.4361,0.0508386
242,28.2594,0.0100342
289,83.0081,0.0103699
313,106.666,0.0341612
392,60.3186,0.037651
