facetNormals:0,facetNormals:1,facetNormals:2,FacetCenters:0,FacetCenters:1,FacetCenters:2,FacetIds,relFacetSize,absFacetSize,cellPairingIds,interplanarAngles,angleWeights
0.617457,-0.028704,-0.727021,3.72547,3.62955,7.22667,1,0.0681633,0.018728,8,60.1166,0.0694036
-0.0789047,-0.680604,-0.664205,3.63856,3.54242,7.26394,2,0.0706899,0.0194222,13,38.2294,0.0589087
0.617488,-0.601868,-0.459018,3.71525,3.54556,7.26532,3,0.0518666,0.0142505,19,110.6,0.0282082
-0.677428,0.67167,-0.155481,3.64422,3.70238,7.25768,4,0.0177839,0.00488617,26,53.1715,0.0911771
0.904995,0.165299,0.0376573,3.73955,3.62986,7.28813,5,0.137652,0.0378203,34,120.642,0.0683169
-0.729248,-0.616675,0.0445962,3.66701,3.54385,7.3408,6,0.0684712,0.0188126,43,130.076,0.0194093
-0.96929,-0.160932,0.0135259,3.54382,3.5414,7.35152,7,0.0113157,0.00310902,53,99.6178,0.0728092
-0.150818,-0.944392,0.120585,3.66835,3.46524,7.35632,8,0.0781346,0.0214677,64,107.381,0.0489758
0.200977,0.810916,0.525716,3.68622,3.60191,7.37677,9,0.0382177,0.0105004,76,150.471,0.0468
-0.557619,-0.459094,0.668712,3.60205,3.51507,7.38508,10,0.0356324,0.00979008,89,94.5631,0.0245032
0.622691,-0.403801,0.647651,3.71897,3.56034,7.39037,11,0.0149362,0.00410377,103,128.071,0.0632627
-0.135387,0.727131,0.657056,3.65248,3.65662,7.32877,12,0.0590195,0.0162157,118,126.002,0.0343299
-0.00631764,-0.602823,0.777552,3.59889,3.52501,7.40184,13,0.0229423,0.00630345,134,145.079,0.0284061
-0.0948809,-0.021258,0.977854,3.592,3.5964,7.37168,14,0.0179415,0.00492947,18,44.4191,0.0598327
,,,,,,,,,25,109.009,0.0284184
,,,,,,,,,33,103.756,0.09341
,,,,,,,,,42,60.6175,0.0695628
,,,,,,,,,52,79.1179,0.0195086
,,,,,,,,,63,51.3448,0.074226
,,,,,,,,,75,166.772,0.0496128
,,,,,,,,,88,95.3575,0.0473814
,,,,,,,,,102,102.565,0.0246617
,,,,,,,,,117,167.202,0.0643297
,,,,,,,,,133,96.4624,0.0346417
,,,,,,,,,150,132.006,0.0286192
,,,,,,,,,32,142.713,0.0264863
,,,,,,,,,41,60.562,0.075344
,,,,,,,,,51,96.1229,0.0590233
,,,,,,,,,62,121.944,0.0185782
,,,,,,,,,74,63.5154,0.0623468
,,,,,,,,,87,128.882,0.0440082
,,,,,,,,,101,112.952,0.0422435
,,,,,,,,,116,69.9265,0.0231934
,,,,,,,,,132,148.367,0.0552123
,,,,,,,,,149,89.8803,0.0318127
,,,,,,,,,167,121.017,0.0266606
,,,,,,,,,50,124.8,0.0314984
,,,,,,,,,61,85.4768,0.0282345
,,,,,,,,,73,54.8781,0.0138309
,,,,,,,,,86,126.249,0.0289733
,,,,,,,,,100,69.9701,0.0242729
,,,,,,,,,115,92.0833,0.0237262
,,,,,,,,,131,146.482,0.0162362
,,,,,,,,,148,60.0119,0.027332
,,,,,,,,,166,123.257,0.0200364
,,,,,,,,,185,96.1674,0.0178623
,,,,,,,,,72,149.723,0.0914521
,,,,,,,,,85,176.734,0.0209123
,,,,,,,,,99,108.939,0.0996854
,,,,,,,,,114,68.3218,0.0598255
,,,,,,,,,130,127.79,0.0566106
,,,,,,,,,147,54.9249,0.0269484
,,,,,,,,,165,88.5901,0.0826165
,,,,,,,,,184,94.8178,0.0393296
,,,,,,,,,204,93.3301,0.0317453
,,,,,,,,,98,30.8339,0.0194217
,,,,,,,,,113,40.79,0.0729844
,,,,,,,,,129,131.326,0.049055
,,,,,,,,,146,40.1262,0.0468724
,,,,,,,,,164,100.784,0.024523
,,,,,,,,,183,109.798,0.063395
,,,,,,,,,203,64.0902,0.0343688
,,,,,,,,,224,82.2983,0.0284327
,,,,,,,,,128,71.5481,0.0197685
,,,,,,,,,145,109.15,0.0174613
,,,,,,,,,163,49.8691,0.0171766
,,,,,,,,,182,123.187,0.0128763
,,,,,,,,,202,88.6386,0.0189904
,,,,,,,,,223,83.249,0.0151561
,,,,,,,,,245,83.5417,0.0138783
,,,,,,,,,162,140.363,0.051329
,,,,,,,,,181,50.9073,0.0489443
,,,,,,,,,201,67.3577,0.0250785
,,,,,,,,,222,127.994,0.067245
,,,,,,,,,244,45.5612,0.0354697
,,,,,,,,,267,80.7475,0.0291821
,,,,,,,,,200,97.8559,0.0368798
,,,,,,,,,221,81.8297,0.0214783
,,,,,,,,,243,21.62,0.0463936
,,,,,,,,,266,94.8042,0.0286724
,,,,,,,,,290,60.4919,0.0244192
,,,,,,,,,242,73.7538,0.0210492
,,,,,,,,,265,79.285,0.0444366
,,,,,,,,,289,34.2793,0.0279127
,,,,,,,,,314,42.1987,0.023866
,,,,,,,,,288,87.1989,0.0238394
,,,,,,,,,313,39.9386,0.0180932
,,,,,,,,,339,52.9789,0.0163015
,,,,,,,,,338,85.6742,0.0330408
,,,,,,,,,365,48.8374,0.0275178
,,,,,,,,,392,36.8425,0.020136
