Q	U	V
{$V$}	{[mm$^3$]}	0.00606073
{$d_v$}	{[mm]}	0.226208
{$S_c$}	{[mm$^2$]}	0.260388
{$S_o$}	{[mm$^2$]}	0.173264
{$S_l/S_o$}	[]	0.502840
{$\Psi$}	[]	0.617371
{$\eta$}	[]	0.650702
{med($\theta_e$)}	{[$^\circ$]}	66.81015
{$\Upsilon$}	[]	13
{$\Xi$}	[]	11
