"cellPairingIds","interplanarAngles","angleWeights"
8,32.2047,0.051306
13,29.7918,0.0243774
19,53.9942,0.0453607
26,56.0205,0.0232023
34,41.1301,0.0358443
53,66.3975,0.0204913
64,71.5467,0.0550329
25,49.3666,0.0349007
33,24.7675,0.0201182
52,38.4836,0.0226962
41,44.2132,0.0140376
51,37.4172,0.0178456
149,98.8426,0.0258226
73,29.2878,0.0214523
100,85.7562,0.0365861
131,83.1243,0.0195299
85,39.1534,0.0147779
130,41.342,0.0256311
184,115.697,0.0245078
113,32.8871,0.01567
183,70.4739,0.0294086
203,81.7456,0.0390585
163,47.9691,0.0299679
182,78.5461,0.0150125
162,33.3033,0.0184882
222,43.5571,0.0182128
221,114.487,0.0211287
243,56.3013,0.0411927
290,63.0741,0.0610828
242,65.5114,0.0263452
289,105.815,0.153756
313,101.756,0.0251598
339,76.4015,0.0248497
338,36.2839,0.059905
365,32.9172,0.0581762
392,52.19,0.11379
