facetNormals:0,facetNormals:1,facetNormals:2,FacetCenters:0,FacetCenters:1,FacetCenters:2,FacetIds,relFacetSize,absFacetSize,cellPairingIds,interplanarAngles,angleWeights
-0.766238,-0.106677,-0.560447,4.86881,3.87592,7.59353,1,0.010084,0.00147789,8,96.389,0.0172438
0.63352,-0.350907,-0.618683,4.97104,3.8221,7.61893,2,0.0594665,0.00871534,13,100.969,0.018125
0.479398,0.681914,-0.474193,4.96535,3.92067,7.60734,3,0.0894684,0.0131124,19,107.898,0.0157445
0.456105,-0.842336,0.0389399,4.96597,3.76783,7.63787,4,0.0358928,0.00526039,26,84.0748,0.0156137
-0.292306,0.939398,0.0475169,4.92689,3.91413,7.6529,5,0.034572,0.00506683,34,159.344,0.015714
0.935649,0.115776,0.257564,5.02713,3.87972,7.64161,6,0.0355774,0.00521417,43,150.84,0.0133664
0.557868,0.54591,0.587856,4.98436,3.89382,7.68309,7,0.019817,0.00290436,53,85.5579,0.0188837
-0.548857,0.608439,0.507347,4.87403,3.89734,7.65456,8,0.148277,0.0217313,64,102.101,0.0182859
-0.278099,-0.465631,0.820207,4.89928,3.7843,7.67743,9,0.0979757,0.0143592,76,98.5917,0.0171162
-0.459369,0.0689345,0.864927,4.9128,3.84183,7.66724,10,0.056558,0.00828906,89,144.147,0.0185803
0.406089,-0.283502,0.807545,4.98037,3.83066,7.69726,11,0.118014,0.017296,18,66.9399,0.0714456
,,,,,,,,,25,52.139,0.0447658
,,,,,,,,,33,125.456,0.0437242
,,,,,,,,,42,65.0437,0.0445197
,,,,,,,,,52,102.525,0.0297275
,,,,,,,,,63,162.419,0.0848885
,,,,,,,,,75,123.742,0.0740116
,,,,,,,,,88,155.41,0.0579758
,,,,,,,,,102,99.1101,0.0790835
,,,,,,,,,32,114.018,0.0512322
,,,,,,,,,41,59.6049,0.0498725
,,,,,,,,,51,64.3741,0.0509102
,,,,,,,,,62,67.345,0.0324471
,,,,,,,,,74,95.5132,0.111599
,,,,,,,,,87,152.942,0.093529
,,,,,,,,,101,128.286,0.0693046
,,,,,,,,,116,114.836,0.101778
,,,,,,,,,50,167.745,0.03522
,,,,,,,,,61,68.7715,0.0357344
,,,,,,,,,73,101.234,0.0255355
,,,,,,,,,86,143.538,0.0577953
,,,,,,,,,100,71.6155,0.0525384
,,,,,,,,,115,104.39,0.0439157
,,,,,,,,,131,59.8995,0.0550444
,,,,,,,,,72,99.1149,0.0350675
,,,,,,,,,85,66.8946,0.0251931
,,,,,,,,,99,37.2023,0.0560707
,,,,,,,,,114,109.114,0.0511094
,,,,,,,,,130,75.6217,0.0429129
,,,,,,,,,147,111.809,0.0534779
,,,,,,,,,98,39.5298,0.0254552
,,,,,,,,,113,109.371,0.0573857
,,,,,,,,,129,96.144,0.0521998
,,,,,,,,,146,101.973,0.0436789
,,,,,,,,,164,53.1594,0.0546727
,,,,,,,,,128,69.8629,0.0349615
,,,,,,,,,145,85.653,0.0329662
,,,,,,,,,163,72.416,0.0293502
,,,,,,,,,182,53.8157,0.0339356
,,,,,,,,,162,72.4692,0.117989
,,,,,,,,,181,39.2345,0.081883
,,,,,,,,,201,89.1008,0.131426
,,,,,,,,,200,33.4941,0.0717165
,,,,,,,,,221,42.9847,0.107065
,,,,,,,,,242,58.0342,0.0764686
