"cellPairingIds","interplanarAngles","angleWeights"
8,78.9595,0.0637021
13,44.5773,0.0552895
26,62.0361,0.0735601
76,99.7212,0.0321362
18,109.821,0.0580417
25,87.604,0.0647905
33,71.6659,0.0785133
42,41.0284,0.0837051
32,67.3132,0.0561076
101,89.5785,0.0306293
116,77.054,0.074269
61,110.068,0.0797408
86,97.0432,0.0576915
131,56.3686,0.0856903
72,65.6472,0.101595
85,29.4771,0.0328677
130,79.0641,0.0355161
98,49.5699,0.0337438
113,36.9976,0.0722234
129,43.6638,0.0490502
145,39.6291,0.0244085
163,71.7664,0.0208558
202,35.018,0.0137942
162,32.6045,0.0397137
201,91.7143,0.0770699
200,71.8394,0.0258395
221,101.268,0.0512385
243,30.7003,0.0158111
242,69.8583,0.0377422
265,44.093,0.0142398
