"cellPairingIds","interplanarAngles","angleWeights"
8,42.7387,0.0352033
13,63.1882,0.0564596
19,68.3116,0.0671446
34,60.237,0.0483842
43,81.237,0.0453618
53,102.652,0.0231578
103,136.752,0.0693615
25,58.8817,0.0451867
42,76.3638,0.0358358
102,102.386,0.0267371
133,113.605,0.0333061
32,60.9509,0.0874449
116,102.883,0.0374439
132,81.9876,0.091243
131,67.0667,0.0418619
98,30.0123,0.0464175
203,85.1755,0.0448712
128,41.7175,0.0226975
223,76.6928,0.0422599
222,39.5638,0.0274499
244,82.3464,0.0223213
288,75.7666,0.042713
313,73.0296,0.0314641
338,69.1444,0.0623623
