"cellPairingIds","interplanarAngles","angleWeights"
8,38.0884,0.0417718
13,83.6144,0.0219497
19,76.5575,0.0263991
34,62.817,0.0455297
18,86.1453,0.0310698
42,84.2062,0.116406
52,112.643,0.0662062
88,113.101,0.0794259
102,110.605,0.0582148
32,78.3677,0.0216796
41,49.9986,0.0315975
62,48.2228,0.0272306
50,38.363,0.0417197
61,66.7005,0.0443828
100,58.405,0.0438483
85,64.479,0.0686497
99,50.4449,0.0832228
114,71.764,0.120081
129,61.8148,0.14515
164,62.4415,0.0657814
128,43.4775,0.0585092
163,62.479,0.0583835
162,58.193,0.0921462
181,61.294,0.0685996
222,64.0746,0.0238158
221,50.9438,0.064614
243,37.8206,0.0261092
242,51.6685,0.0520791
265,46.3856,0.0237949
288,20.8418,0.0214531
