facetNormals:0,facetNormals:1,facetNormals:2,FacetCenters:0,FacetCenters:1,FacetCenters:2,FacetIds,relFacetSize,absFacetSize,cellPairingIds,interplanarAngles,angleWeights
-0.423387,-0.46247,-0.677807,4.11938,4.87656,7.89747,1,0.0658803,0.0314581,8,47.2296,0.0443794
0.322978,-0.604926,-0.686799,4.18208,4.88235,7.88128,2,0.0334595,0.015977,13,81.7853,0.0341303
0.794328,-0.400029,-0.414191,4.22356,4.8917,7.9227,3,0.0230309,0.0109974,19,103.7,0.0731105
0.556063,0.650758,-0.475452,4.21798,4.98654,7.96881,4,0.0821234,0.0392142,26,60.9301,0.0380756
-0.849378,0.301615,-0.30506,4.09429,4.95924,7.89915,5,0.0267752,0.0127853,34,115.866,0.0496647
-0.00997516,0.958757,-0.0763004,4.13848,5.0442,7.85947,6,0.0398549,0.0190309,43,135.008,0.0458346
0.798884,0.556365,0.0611069,4.22695,4.9813,7.94014,7,0.0351419,0.0167804,53,98.7754,0.082616
0.636004,-0.647965,0.24001,4.22193,4.86049,8.03854,8,0.11075,0.0528836,64,130.831,0.0182206
0.948556,0.0129569,0.279499,4.23701,4.89544,8.05531,9,0.0105723,0.00504833,76,97.1267,0.0395343
-0.749059,0.569711,0.243465,4.08209,4.96634,7.9833,10,0.0282407,0.013485,89,64.9204,0.081994
-0.657315,-0.599819,0.281007,4.13253,4.90022,7.98387,11,0.108542,0.0518295,103,159.428,0.0596339
0.419747,0.731913,0.470495,4.16181,5.01707,7.91913,12,0.0544694,0.0260094,118,87.5822,0.0603483
-0.181696,-0.763803,0.578594,4.16334,4.88453,8.03523,13,0.0556735,0.0265843,134,121.138,0.0717349
-0.488769,0.322824,0.762176,4.1046,4.95083,8.03901,14,0.0787316,0.0375947,18,34.6817,0.0272826
,,,,,,,,,25,83.2027,0.0475469
,,,,,,,,,33,105.53,0.0297464
,,,,,,,,,42,124.653,0.0363782
,,,,,,,,,52,97.313,0.03428
,,,,,,,,,63,61.669,0.0513924
,,,,,,,,,75,83.6256,0.0160677
,,,,,,,,,88,143.031,0.0306294
,,,,,,,,,102,92.6863,0.051151
,,,,,,,,,117,132.243,0.0414544
,,,,,,,,,133,89.6378,0.0417983
,,,,,,,,,150,159.988,0.0469613
,,,,,,,,,32,66.8087,0.0359734
,,,,,,,,,41,135.774,0.0247623
,,,,,,,,,51,112.417,0.0291924
,,,,,,,,,62,66.1665,0.0278257
,,,,,,,,,74,43.8015,0.0381321
,,,,,,,,,87,49.3147,0.0144921
,,,,,,,,,101,165.602,0.0253711
,,,,,,,,,116,115.807,0.0379991
,,,,,,,,,132,99.3662,0.0323736
,,,,,,,,,149,94.7017,0.032583
,,,,,,,,,167,152.049,0.0356371
,,,,,,,,,50,98.0817,0.0403838
,,,,,,,,,61,45.964,0.0536656
,,,,,,,,,73,35.5348,0.0492212
,,,,,,,,,86,101.423,0.0943123
,,,,,,,,,100,65.4068,0.018733
,,,,,,,,,115,99.7712,0.0420286
,,,,,,,,,131,166.765,0.0935026
,,,,,,,,,148,59.083,0.0654971
,,,,,,,,,166,156.116,0.0663599
,,,,,,,,,185,116.78,0.0803917
,,,,,,,,,72,69.4735,0.0320312
,,,,,,,,,85,124.774,0.0303932
,,,,,,,,,99,154.841,0.0431245
,,,,,,,,,114,160.492,0.015159
,,,,,,,,,130,37.5053,0.0274884
,,,,,,,,,147,70.8242,0.0429544
,,,,,,,,,165,107.688,0.0359022
,,,,,,,,,184,105.791,0.0361599
,,,,,,,,,204,72.1745,0.0399605
,,,,,,,,,98,56.2838,0.0373503
,,,,,,,,,113,135.647,0.058616
,,,,,,,,,129,91.1063,0.0167116
,,,,,,,,,146,55.0878,0.0330574
,,,,,,,,,164,131.094,0.0583022
,,,,,,,,,183,44.5967,0.04603
,,,,,,,,,203,145.668,0.0464545
,,,,,,,,,224,73.9108,0.0529207
,,,,,,,,,128,79.7979,0.0533541
,,,,,,,,,145,35.8346,0.0162545
,,,,,,,,,163,106.327,0.0313156
,,,,,,,,,182,157.615,0.053094
,,,,,,,,,202,35.0655,0.0427213
,,,,,,,,,223,124.202,0.0430868
,,,,,,,,,245,100.091,0.0485939
,,,,,,,,,162,44.5412,0.0193021
,,,,,,,,,181,149.566,0.0450053
,,,,,,,,,201,87.5115,0.109635
,,,,,,,,,222,95.9706,0.073024
,,,,,,,,,244,55.5421,0.0740982
,,,,,,,,,267,111.927,0.0920356
,,,,,,,,,200,131.348,0.015385
,,,,,,,,,221,126.793,0.0192679
,,,,,,,,,243,55.6451,0.0177077
,,,,,,,,,266,91.2196,0.0177701
,,,,,,,,,290,105.023,0.0186414
,,,,,,,,,242,76.0254,0.0448201
,,,,,,,,,265,76.6324,0.0371963
,,,,,,,,,289,99.6045,0.037473
,,,,,,,,,314,38.0733,0.0415703
,,,,,,,,,288,130.27,0.0725376
,,,,,,,,,313,35.5833,0.0735975
,,,,,,,,,339,67.6008,0.0912644
,,,,,,,,,338,112.666,0.0550649
,,,,,,,,,365,65.186,0.0643909
,,,,,,,,,392,72.416,0.0652247
