Q	U	V
{$V$}	{[mm$^3$]}	0.00728498
{$d_v$}	{[mm]}	0.240516
{$S_c$}	{[mm$^2$]}	0.333352
{$S_o$}	{[mm$^2$]}	0.205514
{$S_l/S_o$}	[]	0.622040
{$\Psi$}	[]	0.545172
{$\eta$}	[]	0.584475
{med($\theta_e$)}	{[$^\circ$]}	55.28595
{$\Upsilon$}	[]	13
{$\Xi$}	[]	13
