facetNormals:0,facetNormals:1,facetNormals:2,FacetCenters:0,FacetCenters:1,FacetCenters:2,FacetIds,relFacetSize,absFacetSize,cellPairingIds,interplanarAngles,angleWeights
0.70599,0.36347,-0.342311,4.26039,3.50362,9.46355,1,0.0238773,0.00305355,8,97.6711,0.039015
-0.592965,0.141645,-0.747333,4.18282,3.43218,9.38053,2,0.106593,0.0136316,13,93.1173,0.0355552
0.0796677,-0.771239,-0.525907,4.24769,3.36398,9.3976,3,0.0695906,0.00889961,19,114.861,0.0236733
-0.57425,-0.469724,-0.641499,4.24956,3.38119,9.35623,4,0.0234729,0.00300183,26,132.922,0.024179
-0.920016,-0.0917724,-0.314743,4.19624,3.47282,9.45165,5,0.0244884,0.0031317,34,88.8375,0.0182882
-0.534368,0.75485,-0.351284,4.21488,3.5189,9.43702,6,0.0148194,0.00189518,43,89.2829,0.0278161
-0.403637,0.894487,0.0861649,4.20322,3.50573,9.44438,7,0.0333113,0.00426002,53,153.753,0.0361066
-0.707792,-0.655002,0.0307352,4.19919,3.39367,9.46353,8,0.0740154,0.00946547,64,156.493,0.0313768
-0.955661,-0.109171,0.179841,4.19798,3.44107,9.4852,9,0.0457446,0.00585005,76,60.1466,0.0168248
0.30209,0.854394,0.321246,4.28202,3.54773,9.50935,10,0.0129884,0.00166103,89,127.224,0.0331564
-0.0933768,-0.915751,0.328619,4.23622,3.33842,9.4864,11,0.054232,0.00693546,103,143.609,0.0341654
-0.822339,0.189912,0.482487,4.20041,3.45124,9.50515,12,0.0600313,0.00767711,118,154.086,0.0146076
-0.507448,-0.466863,0.715615,4.19068,3.40877,9.47861,13,0.0105225,0.00134567,134,117.82,0.0377036
-0.470627,0.489621,0.693963,4.22089,3.4899,9.50717,14,0.0895694,0.0114546,151,113.745,0.041621
0.0684186,-0.164107,0.900769,4.2849,3.42566,9.5412,15,0.162028,0.020721,18,74.8238,0.084206
,,,,,,,,,25,37.2062,0.0384735
,,,,,,,,,33,35.4074,0.039827
,,,,,,,,,42,44.0046,0.0260212
,,,,,,,,,52,71.4888,0.0507597
,,,,,,,,,63,70.9356,0.0873659
,,,,,,,,,75,63.7911,0.0640163
,,,,,,,,,88,108.757,0.0231554
,,,,,,,,,102,109.84,0.0718886
,,,,,,,,,117,80.5502,0.0768064
,,,,,,,,,133,108.243,0.0191542
,,,,,,,,,150,100.472,0.0973423
,,,,,,,,,168,146.333,0.12859
,,,,,,,,,32,44.6326,0.0351049
,,,,,,,,,41,79.7383,0.0362284
,,,,,,,,,51,118.341,0.0244353
,,,,,,,,,62,146.244,0.0450556
,,,,,,,,,74,61.4073,0.0717349
,,,,,,,,,87,95.4152,0.0552025
,,,,,,,,,101,153.17,0.0218911
,,,,,,,,,116,54.9407,0.0609588
,,,,,,,,,132,120.753,0.0644585
,,,,,,,,,149,93.4921,0.0182809
,,,,,,,,,167,149.038,0.0783261
,,,,,,,,,186,113.406,0.0973638
,,,,,,,,,50,36.1658,0.0239699
,,,,,,,,,61,79.4511,0.0181684
,,,,,,,,,73,104.606,0.0275398
,,,,,,,,,86,42.7938,0.0356423
,,,,,,,,,100,59.6662,0.0310256
,,,,,,,,,115,145.903,0.0167233
,,,,,,,,,131,73.4562,0.0327645
,,,,,,,,,148,85.5785,0.0337494
,,,,,,,,,166,86.9633,0.014531
,,,,,,,,,185,115.162,0.0371976
,,,,,,,,,205,126.85,0.0410053
,,,,,,,,,72,56.5279,0.0184647
,,,,,,,,,85,74.1895,0.0282265
,,,,,,,,,99,41.8809,0.036801
,,,,,,,,,114,29.4008,0.0318999
,,,,,,,,,130,119.152,0.016974
,,,,,,,,,147,86.0043,0.0337411
,,,,,,,,,165,51.7923,0.0347865
,,,,,,,,,184,72.957,0.01472
,,,,,,,,,204,79.696,0.0384614
,,,,,,,,,225,111.688,0.0425465
,,,,,,,,,98,27.986,0.0205131
,,,,,,,,,113,97.6459,0.0246945
,,,,,,,,,129,67.8443,0.0223865
,,,,,,,,,146,67.0657,0.0138436
,,,,,,,,,164,141.504,0.0232779
,,,,,,,,,183,64.5501,0.0237708
,,,,,,,,,203,109.775,0.0123067
,,,,,,,,,224,66.8729,0.0254312
,,,,,,,,,246,121.667,0.0271552
,,,,,,,,,128,108.243,0.0459448
,,,,,,,,,145,71.6435,0.0385503
,,,,,,,,,163,44.9796,0.0186896
,,,,,,,,,182,141.46,0.0412719
,,,,,,,,,202,55.4324,0.0428469
,,,,,,,,,223,98.8798,0.0159931
,,,,,,,,,245,44.0303,0.0485621
,,,,,,,,,268,96.1433,0.0552614
,,,,,,,,,162,37.0593,0.0565432
,,,,,,,,,181,145.396,0.0220989
,,,,,,,,,201,44.2061,0.0625978
,,,,,,,,,222,59.7539,0.0662939
,,,,,,,,,244,44.2379,0.0184256
,,,,,,,,,267,87.9366,0.081053
,,,,,,,,,291,84.3803,0.101613
,,,,,,,,,200,110.156,0.0202322
,,,,,,,,,221,74.9524,0.049628
,,,,,,,,,243,26.4243,0.0519231
,,,,,,,,,266,46.8864,0.0171094
,,,,,,,,,290,56.7391,0.0605601
,,,,,,,,,315,82.6765,0.0713464
,,,,,,,,,242,138.612,0.0209576
,,,,,,,,,265,85.7767,0.0213562
,,,,,,,,,289,109.713,0.0116262
,,,,,,,,,314,57.6833,0.022687
,,,,,,,,,340,78.9086,0.024049
,,,,,,,,,288,86.2933,0.0569845
,,,,,,,,,313,43.025,0.0176253
,,,,,,,,,339,100.711,0.0675588
,,,,,,,,,366,60.6465,0.0812642
,,,,,,,,,338,45.7691,0.0179064
,,,,,,,,,365,30.3212,0.0718842
,,,,,,,,,393,67.1104,0.087605
,,,,,,,,,392,58.3139,0.0188326
,,,,,,,,,421,41.202,0.0197617
,,,,,,,,,450,54.9054,0.115365
