facetNormals:0,facetNormals:1,facetNormals:2,FacetCenters:0,FacetCenters:1,FacetCenters:2,FacetIds,relFacetSize,absFacetSize,cellPairingIds,interplanarAngles,angleWeights
0.125574,-0.309291,-0.883234,6.35352,3.53413,9.59631,1,0.0939477,0.0157612,8,45.7106,0.027384
-0.585986,-0.418564,-0.672017,6.30866,3.49056,9.62634,2,0.0160279,0.00268894,13,64.8181,0.0900292
0.303789,0.670947,-0.633726,6.34719,3.59236,9.61972,3,0.0864245,0.0144991,19,70.6849,0.0817313
0.870193,0.276822,-0.314753,6.3873,3.54909,9.70438,4,0.0723263,0.0121339,26,81.4518,0.103514
-0.843047,-0.429171,-0.121123,6.28092,3.51408,9.67139,5,0.115249,0.0193348,34,95.2899,0.0534535
-0.27427,0.899701,-0.257927,6.30399,3.62275,9.67228,6,0.0373532,0.00626658,43,94.7447,0.0408657
-0.762021,0.581141,-0.224803,6.27319,3.6017,9.63487,7,0.026112,0.00438069,53,92.6046,0.0489019
0.483372,0.841641,-0.178065,6.35832,3.5993,9.70044,8,0.0330535,0.00554524,64,125.737,0.104888
-0.807266,0.291254,0.365705,6.28532,3.58081,9.72882,9,0.118712,0.0199157,76,116.537,0.0864457
0.466856,0.81801,0.244707,6.40547,3.62056,9.71515,10,0.0800532,0.0134302,89,157.343,0.0894076
0.225436,0.435503,0.834084,6.38198,3.57258,9.78784,11,0.0852861,0.0143081,18,91.9746,0.027041
,,,,,,,,,25,115.813,0.0262408
,,,,,,,,,33,36.5096,0.0281421
,,,,,,,,,42,92.5376,0.022431
,,,,,,,,,52,68.5626,0.0198634
,,,,,,,,,63,122.057,0.0215878
,,,,,,,,,75,83.4146,0.0282427
,,,,,,,,,88,144.507,0.0267084
,,,,,,,,,102,156.639,0.0269846
,,,,,,,,,32,46.2009,0.0787494
,,,,,,,,,41,120.284,0.0987768
,,,,,,,,,51,43.8155,0.0521618
,,,,,,,,,62,71.6637,0.0401064
,,,,,,,,,74,30.7026,0.0478185
,,,,,,,,,87,108.099,0.100027
,,,,,,,,,101,55.497,0.0831169
,,,,,,,,,116,100.288,0.0858515
,,,,,,,,,50,152.124,0.0888767
,,,,,,,,,61,84.4217,0.0492639
,,,,,,,,,73,116.989,0.0383709
,,,,,,,,,86,41.8776,0.0453718
,,,,,,,,,100,144.874,0.0898876
,,,,,,,,,115,53.7586,0.0759939
,,,,,,,,,131,86.6753,0.0782734
,,,,,,,,,72,97.6399,0.0564202
,,,,,,,,,85,63.4078,0.0425772
,,,,,,,,,99,142.552,0.0513731
,,,,,,,,,114,54.9246,0.116955
,,,,,,,,,130,146.541,0.0944798
,,,,,,,,,147,121.197,0.098029
,,,,,,,,,98,34.6423,0.0307371
,,,,,,,,,113,45.8309,0.0350721
,,,,,,,,,129,64.6789,0.0568259
,,,,,,,,,146,54.9686,0.0509384
,,,,,,,,,164,83.0089,0.0519525
,,,,,,,,,128,80.4709,0.0291755
,,,,,,,,,145,40.1194,0.0428079
,,,,,,,,,163,86.1322,0.0393792
,,,,,,,,,182,96.4022,0.0399825
,,,,,,,,,162,103.2,0.0517093
,,,,,,,,,181,24.9607,0.0467884
,,,,,,,,,201,69.9721,0.0476426
,,,,,,,,,200,93.1028,0.095623
,,,,,,,,,221,73.928,0.0992604
,,,,,,,,,242,45.0161,0.0825868
