"cellPairingIds","interplanarAngles","angleWeights"
32,101.6,0.0158511
62,99.6454,0.0129259
87,78.6848,0.0136252
101,39.4992,0.0271572
149,69.9914,0.0267912
167,82.8407,0.0148628
73,96.6831,0.0132991
131,27.689,0.0181025
185,105.727,0.0153583
145,45.7987,0.011696
182,89.7551,0.0143849
221,133.933,0.0152562
266,50.2713,0.0219969
341,101.528,0.0203441
289,39.83,0.112484
314,50.5454,0.0257422
339,106.848,0.0168249
394,98.7503,0.0301453
392,63.0002,0.0254131
451,62.0409,0.0764145
481,34.2736,0.0232326
