"cellPairingIds","interplanarAngles","angleWeights"
8,47.9256,0.0474706
34,84.6787,0.107304
43,74.3897,0.0281618
64,77.1443,0.0892565
76,88.4507,0.0704245
18,49.2642,0.0310244
42,69.823,0.0408511
75,88.1336,0.0379313
133,96.0718,0.0214174
87,57.4032,0.0447013
149,52.7045,0.0234201
98,41.4628,0.025692
146,108.134,0.0567761
164,77.7057,0.0468889
203,111.726,0.0286167
224,145.314,0.0333919
163,67.872,0.0228296
200,84.6395,0.0512889
243,31.9672,0.0630003
266,73.6012,0.0271525
290,54.4722,0.0314152
242,31.4074,0.0381573
314,41.1193,0.0287128
339,68.813,0.025946
338,61.7911,0.0276239
365,31.4498,0.032048
392,85.2481,0.019172
