facetNormals:0,facetNormals:1,facetNormals:2,FacetCenters:0,FacetCenters:1,FacetCenters:2,FacetIds,relFacetSize,absFacetSize,cellPairingIds,interplanarAngles,angleWeights
0.13869,-0.29541,-0.895071,4.58821,3.74967,6.62178,1,0.0696378,0.0107846,8,41.599,0.0649261
0.517044,0.25475,-0.768765,4.59137,3.78407,6.62239,2,0.0608116,0.00941773,13,76.4293,0.0474702
-0.0950776,0.802653,-0.519626,4.55992,3.82303,6.63592,3,0.0360079,0.00557644,19,64.9905,0.0615344
-0.79001,-0.351667,-0.443712,4.48659,3.7183,6.65922,4,0.0551204,0.00853634,26,77.329,0.0353667
-0.64976,0.521822,-0.49978,4.5074,3.80308,6.65111,5,0.0237021,0.00367068,34,52.3537,0.0817483
0.517506,-0.75398,-0.29583,4.62811,3.69895,6.69145,6,0.0989577,0.0153253,43,78.4269,0.0696474
0.860917,0.371665,-0.193732,4.58869,3.80316,6.624,7,0.0696569,0.0107876,53,111.605,0.0374626
-0.14071,0.968382,0.0424635,4.51646,3.8294,6.66699,8,0.0256236,0.00396826,64,99.4242,0.0555426
-0.958451,0.149972,-0.0288543,4.46978,3.7705,6.73165,9,0.0461928,0.00715376,76,91.871,0.0613991
0.963391,-0.0171723,0.189068,4.62085,3.76089,6.70175,10,0.0549035,0.00850276,89,86.2886,0.0574089
0.203694,-0.918139,0.267224,4.54559,3.68544,6.67449,11,0.0488334,0.0075627,103,93.2395,0.0916801
-0.297185,-0.868341,0.298591,4.53689,3.68997,6.75898,12,0.134139,0.0207737,118,126.449,0.0428579
-0.853824,0.283986,0.395525,4.47101,3.77247,6.7315,13,0.0309541,0.00479378,134,165.926,0.0295005
0.0496628,0.417364,0.836245,4.52174,3.80902,6.68207,14,0.0187142,0.00289822,151,125.986,0.0256541
0.57073,-0.209261,0.772073,4.60787,3.73303,6.77879,15,0.0157232,0.00243501,18,53.0659,0.0452326
,,,,,,,,,25,99.6749,0.0578263
,,,,,,,,,33,78.8101,0.0341096
,,,,,,,,,42,70.8522,0.0753309
,,,,,,,,,52,41.5297,0.0649344
,,,,,,,,,63,81.3651,0.036055
,,,,,,,,,75,117.817,0.0525036
,,,,,,,,,88,68.3297,0.0577068
,,,,,,,,,102,110.827,0.0541682
,,,,,,,,,117,130.675,0.0836848
,,,,,,,,,133,135.463,0.0410256
,,,,,,,,,150,124.617,0.0286207
,,,,,,,,,168,111.873,0.0249861
,,,,,,,,,32,88.5636,0.0435599
,,,,,,,,,41,37.5459,0.0285869
,,,,,,,,,51,122.827,0.0528025
,,,,,,,,,62,69.8375,0.0474746
,,,,,,,,,74,35.2504,0.0299409
,,,,,,,,,87,75.944,0.0404694
,,,,,,,,,101,102.463,0.043492
,,,,,,,,,116,162.339,0.0414512
,,,,,,,,,132,152.671,0.0567751
,,,,,,,,,149,83.7027,0.0332903
,,,,,,,,,167,96.6573,0.0246284
,,,,,,,,,186,131.318,0.0218886
,,,,,,,,,50,54.2677,0.0331496
,,,,,,,,,61,90.7619,0.0708029
,,,,,,,,,73,141.159,0.0615419
,,,,,,,,,86,105.114,0.0349842
,,,,,,,,,100,40.5045,0.0502632
,,,,,,,,,115,151.529,0.0550117
,,,,,,,,,131,87.383,0.0517868
,,,,,,,,,148,64.2416,0.0781338
,,,,,,,,,166,65.3024,0.0396448
,,,,,,,,,185,127.762,0.0279418
,,,,,,,,,205,138.914,0.0244671
,,,,,,,,,72,128.534,0.0382441
,,,,,,,,,85,106.78,0.0353692
,,,,,,,,,99,52.794,0.0246254
,,,,,,,,,114,40.659,0.0313289
,,,,,,,,,130,139.86,0.0331103
,,,,,,,,,147,141.645,0.0319141
,,,,,,,,,165,115.872,0.0402858
,,,,,,,,,184,58.0596,0.026847
,,,,,,,,,204,104.806,0.0209149
,,,,,,,,,225,155.069,0.0189053
,,,,,,,,,98,76.0021,0.0817614
,,,,,,,,,113,150.027,0.0407068
,,,,,,,,,129,130.074,0.0629848
,,,,,,,,,146,61.1369,0.0706238
,,,,,,,,,164,40.1176,0.0653956
,,,,,,,,,183,63.5917,0.113893
,,,,,,,,,203,144.907,0.0471574
,,,,,,,,,224,126.602,0.0314759
,,,,,,,,,246,76.2349,0.027135
,,,,,,,,,128,75.7696,0.0374654
,,,,,,,,,145,145.277,0.0555487
,,,,,,,,,163,33.2381,0.0614065
,,,,,,,,,182,103.444,0.0574154
,,,,,,,,,202,133.525,0.0916966
,,,,,,,,,223,138.617,0.0428615
,,,,,,,,,245,87.7062,0.0295023
,,,,,,,,,268,73.7053,0.0256554
,,,,,,,,,162,72.9411,0.0329626
,,,,,,,,,181,98.6206,0.0349404
,,,,,,,,,201,161.18,0.033611
,,,,,,,,,222,146.291,0.0430279
,,,,,,,,,244,64.6662,0.0280378
,,,,,,,,,267,61.8359,0.0216305
,,,,,,,,,291,105.065,0.0194881
,,,,,,,,,200,167.778,0.0501729
,,,,,,,,,221,111.038,0.0474764
,,,,,,,,,243,81.0334,0.0687206
,,,,,,,,,266,27.0596,0.0370684
,,,,,,,,,290,90.5763,0.0266369
,,,,,,,,,315,129.038,0.0234608
,,,,,,,,,242,74.1296,0.0516909
,,,,,,,,,265,103.109,0.0779158
,,,,,,,,,289,141.247,0.0395886
,,,,,,,,,314,77.508,0.0279138
,,,,,,,,,340,43.5435,0.0244457
,,,,,,,,,288,30.0817,0.0716005
,,,,,,,,,313,110.018,0.0378905
,,,,,,,,,339,99.4105,0.0270588
,,,,,,,,,366,57.6062,0.0237874
,,,,,,,,,338,82.4132,0.0503007
,,,,,,,,,365,98.1129,0.0328459
,,,,,,,,,393,75.1771,0.0281471
,,,,,,,,,392,63.7498,0.023326
,,,,,,,,,421,104.471,0.0208537
,,,,,,,,,450,50.3669,0.0170888
