Q	U	V
{$V$}	{[mm$^3$]}	0.00385326
{$d_v$}	{[mm]}	0.194511
{$S_c$}	{[mm$^2$]}	0.182817
{$S_o$}	{[mm$^2$]}	0.125302
{$S_l/S_o$}	[]	0.459011
{$\Psi$}	[]	0.650159
{$\eta$}	[]	0.674587
{med($\theta_e$)}	{[$^\circ$]}	62.5494
{$\Upsilon$}	[]	14
{$\Xi$}	[]	8
