"cellPairingIds","interplanarAngles","angleWeights"
8,56.4688,0.070465
13,66.3525,0.0575816
19,74.6958,0.082457
34,88.4311,0.0791909
53,88.3719,0.0957464
18,63.6912,0.048767
33,48.8841,0.0780766
42,52.3732,0.0634246
32,82.7527,0.0542247
41,43.3391,0.0625658
62,36.359,0.0355735
87,78.5489,0.0446077
86,83.6018,0.0868102
100,27.9226,0.0582122
72,81.0159,0.0889346
85,53.734,0.0489882
130,91.8237,0.118821
147,91.4507,0.0455711
113,69.9505,0.0831977
146,34.7451,0.0879132
145,55.9901,0.0372473
182,45.0416,0.0293501
162,99.0541,0.0645359
181,64.1007,0.108797
201,111.97,0.0440159
221,32.2648,0.0352383
242,112.152,0.0453015
