Q	U	V
{$V$}	{[mm$^3$]}	0.00469754
{$d_v$}	{[mm]}	0.207790
{$S_c$}	{[mm$^2$]}	0.244093
{$S_o$}	{[mm$^2$]}	0.156242
{$S_l/S_o$}	[]	0.562275
{$\Psi$}	[]	0.555703
{$\eta$}	[]	0.601935
{med($\theta_e$)}	{[$^\circ$]}	62.28735
{$\Upsilon$}	[]	16
{$\Xi$}	[]	10
