Q	U	V
{$V$}	{[mm$^3$]}	0.0032251
{$d_v$}	{[mm]}	0.183308
{$S_c$}	{[mm$^2$]}	0.151041
{$S_o$}	{[mm$^2$]}	0.0972027
{$S_l/S_o$}	[]	0.553877
{$\Psi$}	[]	0.698905
{$\eta$}	[]	0.729630
{med($\theta_e$)}	{[$^\circ$]}	50.6143
{$\Upsilon$}	[]	14
{$\Xi$}	[]	6
