Q	U	V
{$V$}	{[mm$^3$]}	0.00508702
{$d_v$}	{[mm]}	0.213381
{$S_c$}	{[mm$^2$]}	0.221549
{$S_o$}	{[mm$^2$]}	0.142868
{$S_l/S_o$}	[]	0.550725
{$\Psi$}	[]	0.645639
{$\eta$}	[]	0.693828
{med($\theta_e$)}	{[$^\circ$]}	69.9818
{$\Upsilon$}	[]	9
{$\Xi$}	[]	7
