facetNormals:0,facetNormals:1,facetNormals:2,FacetCenters:0,FacetCenters:1,FacetCenters:2,FacetIds,relFacetSize,absFacetSize,cellPairingIds,interplanarAngles,angleWeights
-0.0789132,-0.575643,-0.796082,5.66989,6.69226,5.52553,1,0.0128418,0.00195468,8,31.2199,0.0165188
-0.418596,-0.178493,-0.853261,5.62645,6.74812,5.50678,2,0.0231462,0.00352312,13,48.0479,0.023453
-0.72531,-0.557006,-0.329969,5.61446,6.71334,5.54853,3,0.135015,0.0205508,19,115.995,0.00998443
0.286609,0.930845,-0.165441,5.68743,6.74246,5.55138,4,0.00816717,0.00124314,26,47.3198,0.0239428
0.38073,-0.852232,-0.227879,5.71883,6.66617,5.62019,5,0.176621,0.0268837,34,59.7254,0.0174316
-0.39128,-0.899949,0.0752493,5.65031,6.67332,5.59282,6,0.0271269,0.00412903,43,91.4492,0.0159681
0.893476,-0.352099,0.196727,5.76611,6.71041,5.64685,7,0.0211064,0.00321264,53,90.215,0.0159061
-0.739764,-0.493278,0.434615,5.60938,6.71454,5.62811,8,0.0208911,0.00317987,64,122.397,0.020696
0.848992,0.158525,0.445941,5.74845,6.73103,5.70424,9,0.0532859,0.00811072,76,152.935,0.0190348
-0.269849,0.730771,0.548961,5.69753,6.7481,5.69281,10,0.0367643,0.00559595,89,103.593,0.0240844
-0.885082,0.0949124,0.29165,5.62278,6.73547,5.6495,11,0.193387,0.0294357,103,98.8197,0.0160132
-0.277525,-0.637711,0.672242,5.68875,6.67512,5.70811,12,0.0212647,0.00323673,118,150.14,0.0145523
0.532599,0.356809,0.742077,5.75256,6.73169,5.70219,13,0.0167884,0.00255539,134,131.416,0.0166385
-0.469021,-0.0166114,0.863099,5.69975,6.69772,5.71296,14,0.0236223,0.00359558,151,133.654,0.0145981
0.381108,-0.129467,0.89272,5.72961,6.69543,5.75303,15,0.0169109,0.00257403,169,135.415,0.0165935
-0.0435672,-0.139681,0.97216,5.70228,6.69491,5.75312,16,0.0234417,0.0035681,18,43.2679,0.0395177
,,,,,,,,,25,98.7274,0.012074
,,,,,,,,,33,78.3776,0.0409287
,,,,,,,,,42,74.133,0.024979
,,,,,,,,,52,120.352,0.0220793
,,,,,,,,,63,88.3912,0.0219609
,,,,,,,,,75,144.391,0.0322735
,,,,,,,,,88,121.819,0.0284075
,,,,,,,,,102,83.3629,0.041344
,,,,,,,,,117,111.552,0.0221656
,,,,,,,,,133,165.921,0.0194612
,,,,,,,,,150,124.43,0.0233818
,,,,,,,,,168,161.521,0.0195432
,,,,,,,,,187,145.804,0.023293
,,,,,,,,,32,134.38,0.0154026
,,,,,,,,,41,72.9596,0.15304
,,,,,,,,,51,37.3906,0.045177
,,,,,,,,,62,122.84,0.036506
,,,,,,,,,74,46.0399,0.0361835
,,,,,,,,,87,154.26,0.0764138
,,,,,,,,,101,115.061,0.0577919
,,,,,,,,,116,57.2355,0.159013
,,,,,,,,,132,69.1517,0.0367425
,,,,,,,,,149,150.514,0.0298634
,,,,,,,,,167,86.1194,0.0402095
,,,,,,,,,186,121.601,0.030057
,,,,,,,,,206,102.777,0.0399476
,,,,,,,,,50,132.927,0.0156124
,,,,,,,,,61,171.769,0.0125545
,,,,,,,,,73,96.1778,0.0117772
,,,,,,,,,86,139.466,0.0117434
,,,,,,,,,100,70.7168,0.0141635
,,,,,,,,,115,57.0506,0.0133653
,,,,,,,,,131,103.344,0.0156725
,,,,,,,,,148,145.168,0.0118017
,,,,,,,,,166,68.0577,0.0109886
,,,,,,,,,185,107.551,0.0121378
,,,,,,,,,205,99.4583,0.0110147
,,,,,,,,,226,108.2,0.0121138
,,,,,,,,,72,50.5521,0.0470305
,,,,,,,,,85,50.7912,0.0377068
,,,,,,,,,99,87.6074,0.0373629
,,,,,,,,,114,84.6846,0.0818714
,,,,,,,,,130,158.275,0.0608603
,,,,,,,,,147,122.556,0.184624
,,,,,,,,,165,72.1663,0.0379592
,,,,,,,,,184,106.678,0.0306622
,,,,,,,,,204,112.491,0.0416712
,,,,,,,,,225,86.8316,0.0308664
,,,,,,,,,247,97.2423,0.04139
,,,,,,,,,98,91.0645,0.0237409
,,,,,,,,,113,38.1412,0.0236041
,,,,,,,,,129,117.471,0.0359515
,,,,,,,,,146,122.994,0.0312187
,,,,,,,,,164,72.1337,0.0475797
,,,,,,,,,183,39.6416,0.0238407
,,,,,,,,,203,119.391,0.0207407
,,,,,,,,,224,74.1914,0.0252536
,,,,,,,,,246,87.9444,0.0208339
,,,,,,,,,269,77.1065,0.02515
,,,,,,,,,128,114.465,0.0209982
,,,,,,,,,145,33.9437,0.0302363
,,,,,,,,,163,114.702,0.0268171
,,,,,,,,,182,146.627,0.038059
,,,,,,,,,202,83.4098,0.0211853
,,,,,,,,,223,58.9231,0.0187014
,,,,,,,,,245,104.64,0.0222936
,,,,,,,,,268,54.1868,0.0187771
,,,,,,,,,292,77.9311,0.0222129
,,,,,,,,,162,122.188,0.0300147
,,,,,,,,,181,85.2721,0.0266427
,,,,,,,,,201,37.5799,0.0377087
,,,,,,,,,222,31.9756,0.0210762
,,,,,,,,,244,104.774,0.0186164
,,,,,,,,,267,41.3163,0.0221729
,,,,,,,,,291,79.9021,0.0186915
,,,,,,,,,316,57.4389,0.0220931
,,,,,,,,,200,81.8356,0.0435095
,,,,,,,,,221,131.754,0.0835503
,,,,,,,,,243,92.2511,0.0303984
,,,,,,,,,266,28.2486,0.0255325
,,,,,,,,,290,90.9563,0.0327334
,,,,,,,,,315,42.5567,0.0256739
,,,,,,,,,341,66.9335,0.0325597
,,,,,,,,,242,58.3588,0.0617831
,,,,,,,,,265,91.3735,0.0269445
,,,,,,,,,289,55.8665,0.0230507
,,,,,,,,,314,51.077,0.0287632
,,,,,,,,,340,71.7267,0.0231659
,,,,,,,,,367,61.7565,0.028629
,,,,,,,,,288,65.122,0.0383161
,,,,,,,,,313,103.928,0.0308947
,,,,,,,,,339,43.7052,0.0421018
,,,,,,,,,366,95.5828,0.031102
,,,,,,,,,394,70.4054,0.0418148
,,,,,,,,,338,82.5185,0.0187633
,,,,,,,,,365,40.6513,0.0223816
,,,,,,,,,393,52.4774,0.0188395
,,,,,,,,,422,37.4731,0.0223002
,,,,,,,,,392,66.4615,0.0196275
,,,,,,,,,421,31.4477,0.0168494
,,,,,,,,,451,47.737,0.0195649
,,,,,,,,,450,51.879,0.0197109
,,,,,,,,,481,26.8368,0.0235317
,,,,,,,,,512,25.4434,0.0196478
