Q	U	V
{$V$}	{[mm$^3$]}	0.0110967
{$d_v$}	{[mm]}	0.276736
{$S_c$}	{[mm$^2$]}	0.508279
{$S_o$}	{[mm$^2$]}	0.30242
{$S_l/S_o$}	[]	0.680706
{$\Psi$}	[]	0.473345
{$\eta$}	[]	0.501105
{med($\theta_e$)}	{[$^\circ$]}	67.3498
{$\Upsilon$}	[]	17
{$\Xi$}	[]	7
