"cellPairingIds","interplanarAngles","angleWeights"
8,47.4047,0.036456
13,74.8364,0.040106
43,54.4469,0.0653016
53,63.8254,0.0430059
18,112.085,0.035266
25,34.4127,0.030278
52,34.121,0.0533743
75,55.3774,0.0406346
32,114.609,0.0327538
51,72.9996,0.024636
74,90.3077,0.0413594
101,47.3427,0.0549739
116,82.6205,0.03211
50,34.9587,0.0377374
61,64.0946,0.0220934
100,51.7548,0.0373351
72,33.9293,0.027353
114,67.2243,0.055306
165,61.504,0.0505346
164,41.5269,0.0217986
183,75.2205,0.0259391
128,65.4025,0.0686911
145,45.0558,0.0800461
223,82.9007,0.133782
268,77.157,0.0711612
181,86.1784,0.0605724
244,60.5707,0.0648765
243,52.7006,0.0498158
315,46.5368,0.0501843
242,58.8936,0.0426006
289,82.2234,0.106089
314,57.8798,0.057237
288,51.4297,0.0343598
339,37.413,0.0328691
365,38.5173,0.0432879
393,34.9737,0.0462241
392,52.6491,0.0610652
421,28.1828,0.0670755
450,49.918,0.0435659
