facetNormals:0,facetNormals:1,facetNormals:2,FacetCenters:0,FacetCenters:1,FacetCenters:2,FacetIds,relFacetSize,absFacetSize,cellPairingIds,interplanarAngles,angleWeights
0.0781136,-0.258529,-0.937171,3.61606,3.52613,6.01864,1,0.0278158,0.0066566,8,40.6153,0.0317203
0.00132219,0.406886,-0.873081,3.56602,3.59818,6.01472,2,0.0369001,0.00883057,13,31.7922,0.0248656
0.470257,0.0956898,-0.852727,3.62406,3.57038,6.00891,3,0.0224813,0.00538,19,61.3265,0.0418596
-0.754339,0.0353656,-0.534663,3.45828,3.56419,6.06752,4,0.0845461,0.0202328,26,36.814,0.0407883
-0.0327931,-0.759985,-0.600595,3.56435,3.49885,6.04701,5,0.076436,0.0182919,34,85.1307,0.0202291
-0.0924954,0.910731,-0.345374,3.6029,3.59926,6.05401,6,0.0158941,0.00380362,43,57.6373,0.0271427
-0.1508,-0.934098,-0.309446,3.49332,3.47157,6.10958,7,0.0265015,0.00634209,53,70.537,0.0325966
0.745098,-0.607472,-0.105681,3.66502,3.49198,6.11316,8,0.0393621,0.00941975,64,75.2997,0.0356115
0.74379,0.488272,-0.322643,3.64005,3.61877,6.06243,9,0.0494783,0.0118407,76,76.1561,0.0445188
-0.0743769,-0.943326,0.018351,3.54542,3.46719,6.16451,10,0.111433,0.0266672,89,110.341,0.0336554
0.705276,0.621031,0.238173,3.63684,3.60684,6.1312,11,0.0425986,0.0101943,103,119.415,0.0390322
-0.822388,-0.130135,0.451454,3.42769,3.54044,6.19386,12,0.065407,0.0156526,118,118.277,0.0329964
0.728256,-0.220246,0.598797,3.66207,3.52769,6.15822,13,0.0405485,0.00970368,134,140.075,0.0361991
0.561194,0.279143,0.749613,3.62892,3.55291,6.18616,14,0.0518157,0.0124,151,146.219,0.0284434
0.31057,0.608622,0.710894,3.57012,3.58623,6.2184,15,0.0291,0.00696392,169,150.733,0.03922
-0.141334,-0.22374,0.9124,3.52488,3.51314,6.23731,16,0.0664736,0.0159078,18,33.7083,0.0279401
,,,,,,,,,25,57.3993,0.0513768
,,,,,,,,,33,76.6793,0.0497722
,,,,,,,,,42,44.5183,0.0222181
,,,,,,,,,52,96.5931,0.0308481
,,,,,,,,,63,99.5101,0.0380913
,,,,,,,,,75,58.1294,0.0422734
,,,,,,,,,88,116.022,0.0554413
,,,,,,,,,102,87.1963,0.0395451
,,,,,,,,,117,119.424,0.0471819
,,,,,,,,,133,130.968,0.0386383
,,,,,,,,,150,125.022,0.043104
,,,,,,,,,168,113.099,0.0325391
,,,,,,,,,187,165.98,0.0474566
,,,,,,,,,32,83.3674,0.0355181
,,,,,,,,,41,63.4431,0.0347437
,,,,,,,,,51,69.3154,0.0186223
,,,,,,,,,62,83.8963,0.0243264
,,,,,,,,,74,66.1679,0.0286178
,,,,,,,,,87,43.5115,0.0309156
,,,,,,,,,101,98.7509,0.0374143
,,,,,,,,,116,78.5695,0.0294306
,,,,,,,,,132,147.792,0.0334614
,,,,,,,,,149,101.521,0.0289254
,,,,,,,,,167,111.383,0.0313575
,,,,,,,,,186,114.618,0.025366
,,,,,,,,,206,158.671,0.0335993
,,,,,,,,,50,69.1645,0.0802867
,,,,,,,,,61,71.541,0.0267579
,,,,,,,,,73,74.4994,0.0403539
,,,,,,,,,86,126.082,0.0537157
,,,,,,,,,100,115.087,0.0624244
,,,,,,,,,115,89.1538,0.0961453
,,,,,,,,,131,135.282,0.0566527
,,,,,,,,,148,64.7102,0.0737551
,,,,,,,,,166,168.315,0.05481
,,,,,,,,,185,154.237,0.0642528
,,,,,,,,,205,130.526,0.0432974
,,,,,,,,,226,116.275,0.0744285
,,,,,,,,,72,120.528,0.026316
,,,,,,,,,85,21.0121,0.0393573
,,,,,,,,,99,57.7126,0.0519642
,,,,,,,,,114,102.702,0.0600714
,,,,,,,,,130,39.4482,0.0906749
,,,,,,,,,147,132.779,0.0547079
,,,,,,,,,165,99.1055,0.0704927
,,,,,,,,,184,103.316,0.0529876
,,,,,,,,,204,135.958,0.0617627
,,,,,,,,,225,160.292,0.0421522
,,,,,,,,,247,113.919,0.0711075
,,,,,,,,,98,138.536,0.0198708
,,,,,,,,,113,128.238,0.0226445
,,,,,,,,,129,58.2463,0.0240595
,,,,,,,,,146,158.002,0.0278201
,,,,,,,,,164,63.8452,0.0231504
,,,,,,,,,183,102.361,0.0255737
,,,,,,,,,203,120.077,0.0228367
,,,,,,,,,224,93.393,0.0243263
,,,,,,,,,246,73.1253,0.020559
,,,,,,,,,269,122.969,0.0256542
,,,,,,,,,128,59.5604,0.0316762
,,,,,,,,,145,119.812,0.0345158
,,,,,,,,,163,19.761,0.0428195
,,,,,,,,,182,141.967,0.0326751
,,,,,,,,,202,83.5528,0.0377198
,,,,,,,,,223,95.321,0.0320536
,,,,,,,,,245,126.407,0.0350675
,,,,,,,,,268,148.32,0.02774
,,,,,,,,,292,93.1537,0.0378951
,,,,,,,,,162,71.418,0.0438442
,,,,,,,,,181,55.7096,0.0581748
,,,,,,,,,201,82.4575,0.0409164
,,,,,,,,,222,129.399,0.0491472
,,,,,,,,,244,49.0968,0.0399465
,,,,,,,,,267,79.6765,0.0447384
,,,,,,,,,291,102.934,0.0334619
,,,,,,,,,316,94.1078,0.0494453
,,,,,,,,,200,125.633,0.0685287
,,,,,,,,,221,35.0671,0.0457814
,,,,,,,,,243,156.313,0.0563384
,,,,,,,,,266,74.7561,0.0445705
,,,,,,,,,290,70.2927,0.05062
,,,,,,,,,315,71.3253,0.0366467
,,,,,,,,,341,124.46,0.0567305
,,,,,,,,,242,133.702,0.0616353
,,,,,,,,,265,77.6181,0.0824305
,,,,,,,,,289,79.6527,0.0594604
,,,,,,,,,314,108.361,0.0707385
,,,,,,,,,340,128.755,0.0461486
,,,,,,,,,367,74.6297,0.0832725
,,,,,,,,,288,127.056,0.0515945
,,,,,,,,,313,56.3975,0.0415483
,,,,,,,,,339,37.8788,0.0467572
,,,,,,,,,366,36.7087,0.0345786
,,,,,,,,,394,91.3265,0.051923
,,,,,,,,,338,109.09,0.0500617
,,,,,,,,,365,99.9197,0.0578234
,,,,,,,,,393,90.8391,0.0402794
,,,,,,,,,422,51.7335,0.065936
,,,,,,,,,392,32.7047,0.0454949
,,,,,,,,,421,57.1533,0.0338833
,,,,,,,,,451,57.6118,0.050371
,,,,,,,,,450,24.449,0.0372693
,,,,,,,,,481,54.2628,0.0582365
,,,,,,,,,512,59.9867,0.0404794
