Q	U	V
{$V$}	{[mm$^3$]}	0.00146412
{$d_v$}	{[mm]}	0.140883
{$S_c$}	{[mm$^2$]}	0.104205
{$S_o$}	{[mm$^2$]}	0.0611907
{$S_l/S_o$}	[]	0.702955
{$\Psi$}	[]	0.598384
{$\eta$}	[]	0.654565
{med($\theta_e$)}	{[$^\circ$]}	59.5038
{$\Upsilon$}	[]	14
{$\Xi$}	[]	8
