Q	U	V
{$V$}	{[mm$^3$]}	0.00350415
{$d_v$}	{[mm]}	0.188449
{$S_c$}	{[mm$^2$]}	0.201321
{$S_o$}	{[mm$^2$]}	0.113352
{$S_l/S_o$}	[]	0.776069
{$\Psi$}	[]	0.554179
{$\eta$}	[]	0.581112
{med($\theta_e$)}	{[$^\circ$]}	
{$\Upsilon$}	[]	15
{$\Xi$}	[]	5
