Q	U	V
{$V$}	{[mm$^3$]}	0.0133849
{$d_v$}	{[mm]}	0.294582
{$S_c$}	{[mm$^2$]}	0.445804
{$S_o$}	{[mm$^2$]}	0.325767
{$S_l/S_o$}	[]	0.368475
{$\Psi$}	[]	0.611529
{$\eta$}	[]	0.694009
{med($\theta_e$)}	{[$^\circ$]}	59.567
{$\Upsilon$}	[]	13
{$\Xi$}	[]	10
