facetNormals:0,facetNormals:1,facetNormals:2,FacetCenters:0,FacetCenters:1,FacetCenters:2,FacetIds,relFacetSize,absFacetSize,cellPairingIds,interplanarAngles,angleWeights
0.695299,-0.0536848,-0.679441,5.12709,6.74905,9.76189,1,0.0248557,0.00502539,8,100.972,0.0272952
-0.761217,0.261195,-0.535915,5.0515,6.7591,9.75128,2,0.0302655,0.00611915,13,114.883,0.0246753
-0.863719,-0.305266,-0.281851,5.04873,6.74043,9.70285,3,0.0244975,0.00495296,19,49.5982,0.041961
0.755663,0.552182,-0.150803,5.1074,6.76507,9.78929,4,0.134568,0.0272072,26,78.7621,0.0373638
0.237143,0.9404,-0.104022,5.06294,6.7861,9.8017,5,0.075213,0.0152067,34,40.488,0.0290215
0.977353,0.0206016,-0.0695636,5.12664,6.73605,9.7744,6,0.0348649,0.00704906,43,127.485,0.0206652
-0.759037,-0.60782,0.126402,5.06544,6.75534,9.90156,7,0.0176839,0.00357536,53,108.114,0.0399869
-0.388402,0.885032,-0.0364917,5.04373,6.7513,9.81895,8,0.102206,0.0206642,64,87.7062,0.0357841
0.0261184,-0.965888,0.0475616,5.08111,6.67496,9.80634,9,0.0638627,0.0129119,76,62.517,0.0416138
0.707201,-0.601089,0.149505,5.10863,6.69656,9.81633,10,0.127733,0.0258253,89,138.405,0.0321011
-0.24343,0.566418,0.730663,5.03547,6.78156,9.90287,11,0.0453084,0.00916056,103,156.192,0.0166188
-0.575269,-0.328634,0.721233,5.05725,6.73623,9.91007,12,0.0124823,0.0025237,118,112.169,0.0289163
0.36669,0.151851,0.890358,5.09952,6.77895,9.93269,13,0.0345626,0.00698795,18,38.1479,0.0270777
,,,,,,,,,25,112.46,0.0494167
,,,,,,,,,33,82.6374,0.0431625
,,,,,,,,,42,137.74,0.0324028
,,,,,,,,,52,68.2528,0.022324
,,,,,,,,,63,54.2496,0.0467016
,,,,,,,,,75,108.555,0.0410682
,,,,,,,,,88,148.551,0.0489359
,,,,,,,,,102,93.6176,0.0362898
,,,,,,,,,117,92.0851,0.017675
,,,,,,,,,133,139.492,0.0322717
,,,,,,,,,32,148.99,0.0414493
,,,,,,,,,41,119.657,0.0369576
,,,,,,,,,51,152.191,0.0287759
,,,,,,,,,62,31.0115,0.0205404
,,,,,,,,,74,85.3231,0.039522
,,,,,,,,,87,73.787,0.0354113
,,,,,,,,,101,121.401,0.0411105
,,,,,,,,,116,100.602,0.0318008
,,,,,,,,,132,65.1872,0.016538
,,,,,,,,,149,131.086,0.0286724
,,,,,,,,,50,39.4352,0.0964935
,,,,,,,,,61,35.0676,0.0553811
,,,,,,,,,73,176.947,0.0312598
,,,,,,,,,86,77.3559,0.116175
,,,,,,,,,100,124.601,0.0866183
,,,,,,,,,115,78.3509,0.131061
,,,,,,,,,131,88.8222,0.0677916
,,,,,,,,,148,141.338,0.0228455
,,,,,,,,,166,75.8009,0.0549992
,,,,,,,,,72,74.3183,0.0476443
,,,,,,,,,85,143.087,0.0286351
,,,,,,,,,99,37.9448,0.086656
,,,,,,,,,114,164.003,0.0690747
,,,,,,,,,130,116.776,0.0946771
,,,,,,,,,147,64.6716,0.0565506
,,,,,,,,,165,123.016,0.0214112
,,,,,,,,,184,81.7071,0.0473613
,,,,,,,,,98,142.572,0.0234657
,,,,,,,,,113,112.245,0.0519935
,,,,,,,,,129,89.8598,0.0451052
,,,,,,,,,146,43.4923,0.054778
,,,,,,,,,164,107.201,0.0394064
,,,,,,,,,183,130.175,0.0183831
,,,,,,,,,203,71.7251,0.0347131
,,,,,,,,,128,105.142,0.0301509
,,,,,,,,,145,52.8205,0.027698
,,,,,,,,,163,99.5246,0.0310667
,,,,,,,,,182,94.1077,0.0254389
,,,,,,,,,202,40.7454,0.0146346
,,,,,,,,,223,105.664,0.0233968
,,,,,,,,,162,157.866,0.0786077
,,,,,,,,,181,153.273,0.113552
,,,,,,,,,201,52.0069,0.0627842
,,,,,,,,,222,95.6792,0.0222476
,,,,,,,,,244,92.4632,0.0516567
,,,,,,,,,200,48.2018,0.0851519
,,,,,,,,,221,124.114,0.0530088
,,,,,,,,,243,69.1829,0.020883
,,,,,,,,,266,95.7662,0.0448515
,,,,,,,,,242,116.669,0.0668901
,,,,,,,,,265,96.3272,0.0227422
,,,,,,,,,289,70.8146,0.0544043
,,,,,,,,,288,59.0955,0.0195725
,,,,,,,,,313,46.0063,0.0392127
,,,,,,,,,338,66.4587,0.0183408
