facetNormals:0,facetNormals:1,facetNormals:2,FacetCenters:0,FacetCenters:1,FacetCenters:2,FacetIds,relFacetSize,absFacetSize,cellPairingIds,interplanarAngles,angleWeights
0.469222,-0.0556595,-0.810028,5.63875,7.26415,6.96269,1,0.044851,0.00486268,8,61.8681,0.0339433
-0.436588,0.342828,-0.814494,5.56276,7.32766,6.9594,2,0.0273031,0.00296017,13,67.6173,0.0468721
-0.530724,-0.422591,-0.711918,5.56247,7.26462,6.96114,3,0.049084,0.00532162,19,67.7884,0.0561505
-0.135823,-0.863245,-0.449414,5.5808,7.20693,7.01069,4,0.075061,0.008138,26,67.8281,0.0339058
0.352178,-0.908434,-0.165337,5.64299,7.21498,7.02056,5,0.0272547,0.00295492,34,49.0271,0.0458351
0.773474,-0.506559,-0.242804,5.67604,7.27237,7.00584,6,0.0468634,0.00508086,43,112.917,0.0622085
-0.928239,-0.159735,-0.099738,5.52145,7.27703,7.03573,7,0.101483,0.0110026,53,129.522,0.0629045
-0.88976,0.28333,0.163549,5.52576,7.33199,7.06664,8,0.105283,0.0114147,64,90.8876,0.0172667
0.830314,0.202041,0.484708,5.62716,7.28724,7.11452,9,0.0106913,0.00115913,76,129.194,0.0410771
-0.408515,-0.723905,0.537166,5.55016,7.21883,7.1015,10,0.0378889,0.00410786,89,89.848,0.0450011
0.742417,-0.443642,0.457535,5.64515,7.2371,7.07447,11,0.0451521,0.00489533,103,163.544,0.0192753
-0.513557,0.323336,0.760879,5.54091,7.30975,7.11467,12,0.0122754,0.00133089,118,111.141,0.0611977
0.54569,-0.318236,0.746191,5.64919,7.27678,7.08822,13,0.0962935,0.01044,134,136.984,0.0464527
-0.0404718,-0.501221,0.838904,5.61194,7.30743,7.11454,14,0.0481731,0.00522286,151,135.48,0.0492276
0.209444,0.262262,0.883227,5.59168,7.29874,7.12117,15,0.0545506,0.00591429,18,46.5441,0.0350883
,,,,,,,,,25,82.3224,0.0400414
,,,,,,,,,33,109.836,0.0272789
,,,,,,,,,42,109.44,0.0345039
,,,,,,,,,52,62.4546,0.0430295
,,,,,,,,,63,67.8448,0.0433614
,,,,,,,,,75,135.277,0.0153657
,,,,,,,,,88,121.338,0.0317366
,,,,,,,,,102,151.667,0.0340291
,,,,,,,,,117,107.262,0.0169363
,,,,,,,,,133,172.36,0.0425435
,,,,,,,,,150,150.305,0.0348527
,,,,,,,,,168,140.722,0.0363918
,,,,,,,,,32,38.4466,0.0593547
,,,,,,,,,41,71.1063,0.0350483
,,,,,,,,,51,91.4372,0.047948
,,,,,,,,,62,47.3426,0.0661657
,,,,,,,,,74,75.3329,0.0669537
,,,,,,,,,87,154.377,0.0175581
,,,,,,,,,101,81.7113,0.042766
,,,,,,,,,116,123.585,0.0470361
,,,,,,,,,132,115.084,0.0196393
,,,,,,,,,149,135.551,0.0650234
,,,,,,,,,167,112.233,0.0486243
,,,,,,,,,186,156.295,0.0516731
,,,,,,,,,50,33.4052,0.0399893
,,,,,,,,,61,61.9761,0.0577015
,,,,,,,,,73,70.6234,0.0862947
,,,,,,,,,86,102.224,0.0876398
,,,,,,,,,100,121.542,0.0187167
,,,,,,,,,115,63.1672,0.0503582
,,,,,,,,,131,85.4357,0.0563859
,,,,,,,,,148,125.202,0.0211002
,,,,,,,,,166,98.0629,0.0843618
,,,,,,,,,185,86.3516,0.0586838
,,,,,,,,,205,134.588,0.0631829
,,,,,,,,,72,35.1193,0.0344652
,,,,,,,,,85,100.172,0.0429694
,,,,,,,,,99,129.649,0.0433003
,,,,,,,,,114,88.3038,0.015358
,,,,,,,,,130,64.248,0.0317039
,,,,,,,,,147,52.4847,0.0339915
,,,,,,,,,165,128.626,0.016927
,,,,,,,,,184,68.2578,0.0424847
,,,,,,,,,204,71.7702,0.0348133
,,,,,,,,,225,109.424,0.0363488
,,,,,,,,,98,132.599,0.0641179
,,,,,,,,,113,164.074,0.0648576
,,,,,,,,,129,63.2854,0.0174106
,,,,,,,,,146,94.8325,0.041901
,,,,,,,,,164,42.6552,0.0459918
,,,,,,,,,183,143.28,0.0194549
,,,,,,,,,203,64.517,0.0630446
,,,,,,,,,224,88.8414,0.0475092
,,,,,,,,,246,101.839,0.0504156
,,,,,,,,,128,31.6511,0.103348
,,,,,,,,,145,156.194,0.0193446
,,,,,,,,,163,61.9179,0.0551772
,,,,,,,,,182,135.758,0.0624976
,,,,,,,,,202,67.7418,0.0219016
,,,,,,,,,223,124.923,0.0988201
,,,,,,,,,245,87.8992,0.0653331
,,,,,,,,,268,111.253,0.0709585
,,,,,,,,,162,130.29,0.0194114
,,,,,,,,,181,74.7849,0.0557241
,,,,,,,,,201,140.086,0.0632001
,,,,,,,,,222,43.1621,0.0219873
,,,,,,,,,244,119.306,0.100588
,,,,,,,,,267,88.0716,0.0661012
,,,,,,,,,291,87.9268,0.0718655
,,,,,,,,,200,103.385,0.0166768
,,,,,,,,,221,38.8537,0.0172888
,,,,,,,,,243,89.5376,0.0114287
,,,,,,,,,266,38.6166,0.0192457
,,,,,,,,,290,73.5719,0.0174989
,,,,,,,,,315,45.12,0.0178786
,,,,,,,,,242,74.2013,0.0412029
,,,,,,,,,265,66.476,0.0185432
,,,,,,,,,289,65.0419,0.0543806
,,,,,,,,,314,30.9676,0.0424165
,,,,,,,,,340,77.7112,0.0447182
,,,,,,,,,288,100.687,0.019303
,,,,,,,,,313,21.8748,0.0614774
,,,,,,,,,339,52.9836,0.0466137
,,,,,,,,,366,61.3496,0.0494084
,,,,,,,,,338,78.8122,0.021775
,,,,,,,,,365,58.5244,0.0195653
,,,,,,,,,393,45.0857,0.0200411
,,,,,,,,,392,37.0279,0.0642191
,,,,,,,,,421,41.6837,0.0696463
,,,,,,,,,450,49.4313,0.0511639
