"cellPairingIds","interplanarAngles","angleWeights"
8,70.6113,0.0778838
19,107.305,0.0907238
34,73.3291,0.0553326
64,127.113,0.052349
18,34.5263,0.0455203
25,105.332,0.175844
33,58.3981,0.0527538
42,63.3878,0.0785119
32,80.4359,0.0496253
41,33.5909,0.029922
50,89.0729,0.058347
73,59.5183,0.0403739
100,76.4962,0.0836836
72,81.8113,0.0413413
85,44.6422,0.0262898
130,72.8607,0.0346305
129,112.914,0.052632
146,87.7609,0.0441361
145,65.0601,0.0304427
163,51.6601,0.0273928
200,37.2648,0.0422169
