"cellPairingIds","interplanarAngles","angleWeights"
8,43.6234,0.0559906
13,51.2053,0.0328481
19,44.1311,0.0503348
26,58.0422,0.0536976
34,60.6723,0.0464135
43,57.8545,0.0374789
64,76.7367,0.0248239
76,79.1229,0.0629832
18,21.3679,0.0338918
33,26.6098,0.056544
63,38.8261,0.0271413
32,28.5728,0.0317334
74,30.8442,0.0202318
149,62.272,0.0325636
61,61.4978,0.0442187
166,64.2363,0.0496697
99,46.7357,0.0265909
114,38.8085,0.024932
165,55.2151,0.0506744
98,48.8471,0.0339794
203,96.9085,0.0458474
224,91.3744,0.0507958
269,93.8272,0.0428503
293,95.0357,0.04676
163,61.1329,0.0420851
245,52.9908,0.0402854
201,43.4233,0.0281823
222,71.5175,0.0257118
244,48.0131,0.0262828
200,29.7279,0.0267641
243,35.8505,0.0241576
290,72.2146,0.0260247
314,44.6908,0.0713347
288,52.8069,0.0567853
313,46.0498,0.0596473
366,31.3181,0.0370257
423,90.5037,0.0612013
365,78.4905,0.0554023
422,82.5227,0.0460825
452,88.2215,0.0506356
421,45.9699,0.0338149
482,96.962,0.052899
514,67.0263,0.0388518
481,25.2479,0.0533892
545,62.3923,0.0343088
579,34.7554,0.0277917
578,24.436,0.0489488
648,30.5282,0.0395052
