Q	U	V
{$V$}	{[mm$^3$]}	0.0116548
{$d_v$}	{[mm]}	0.281299
{$S_c$}	{[mm$^2$]}	0.402534
{$S_o$}	{[mm$^2$]}	0.242597
{$S_l/S_o$}	[]	0.659270
{$\Psi$}	[]	0.617568
{$\eta$}	[]	0.640346
{med($\theta_e$)}	{[$^\circ$]}	54.4289
{$\Upsilon$}	[]	16
{$\Xi$}	[]	10
