facetNormals:0,facetNormals:1,facetNormals:2,FacetCenters:0,FacetCenters:1,FacetCenters:2,FacetIds,relFacetSize,absFacetSize,cellPairingIds,interplanarAngles,angleWeights
0.0315167,-0.34213,-0.918968,4.23199,6.18519,7.17115,1,0.0139541,0.00194806,8,40.5723,0.02538
0.63844,-0.156756,-0.69631,4.30067,6.21639,7.19864,2,0.140083,0.0195562,13,76.9652,0.0140053
-0.294806,0.780858,-0.540225,4.23274,6.29443,7.24332,3,0.0140569,0.0019624,19,73.3051,0.0251218
-0.704984,0.458138,-0.493787,4.1848,6.22513,7.2213,4,0.125809,0.0175635,26,50.4356,0.0211228
-0.546003,-0.691579,-0.42711,4.1759,6.13448,7.22658,5,0.0434391,0.00606431,34,74.7264,0.0246495
0.653874,-0.670237,0.00860232,4.29129,6.17053,7.25263,6,0.105553,0.0147357,43,99.5765,0.0145185
-0.533282,0.825509,-0.149075,4.24605,6.29047,7.21583,7,0.0151304,0.00211228,53,100.03,0.0242217
0.0517919,0.943087,-0.170859,4.29779,6.31708,7.27237,8,0.0916845,0.0127996,64,85.8002,0.0200219
-0.601799,-0.743489,0.180061,4.15969,6.13298,7.28154,9,0.0354268,0.00494575,76,77.4742,0.0180242
-0.220851,-0.953658,0.119144,4.20338,6.1326,7.28561,10,0.0254465,0.00355245,89,134.671,0.0188413
0.647468,0.379032,0.604014,4.30602,6.29302,7.33416,11,0.0289971,0.00404814,103,117.068,0.0246641
0.48164,-0.509881,0.681433,4.29648,6.19956,7.31675,12,0.10609,0.0148106,18,86.0525,0.0255499
,,,,,,,,,25,100.995,0.132562
,,,,,,,,,33,86.5015,0.0663144
,,,,,,,,,42,54.8281,0.120391
,,,,,,,,,52,112.617,0.027311
,,,,,,,,,63,89.738,0.11083
,,,,,,,,,75,114.941,0.0565517
,,,,,,,,,88,94.5231,0.0430692
,,,,,,,,,102,94.1425,0.0480482
,,,,,,,,,117,95.3345,0.120739
,,,,,,,,,32,30.842,0.0252882
,,,,,,,,,41,98.7634,0.0212404
,,,,,,,,,51,140.732,0.0248097
,,,,,,,,,62,26.7711,0.0145739
,,,,,,,,,74,31.5256,0.0243764
,,,,,,,,,87,121.139,0.0201274
,,,,,,,,,101,139.356,0.0181097
,,,,,,,,,116,103.356,0.0189348
,,,,,,,,,132,159.094,0.0248245
,,,,,,,,,50,73.01,0.0645801
,,,,,,,,,61,147.762,0.114794
,,,,,,,,,73,31.3447,0.0270122
,,,,,,,,,86,59.1498,0.10607
,,,,,,,,,100,90.3183,0.0552856
,,,,,,,,,115,110.711,0.0423309
,,,,,,,,,131,128.222,0.0471312
,,,,,,,,,148,162.55,0.115111
,,,,,,,,,72,83.5608,0.0615487
,,,,,,,,,85,102.825,0.0224435
,,,,,,,,,99,130.27,0.0589489
,,,,,,,,,114,36.5279,0.039026
,,,,,,,,,130,40.9569,0.032093
,,,,,,,,,147,157.865,0.0347784
,,,,,,,,,165,102.141,0.0616395
,,,,,,,,,98,166.03,0.026467
,,,,,,,,,113,131.853,0.0981313
,,,,,,,,,129,83.2984,0.0530488
,,,,,,,,,146,57.5258,0.041007
,,,,,,,,,164,78.8432,0.0454958
,,,,,,,,,183,43.6543,0.105821
,,,,,,,,,128,35.5381,0.0259744
,,,,,,,,,145,109.293,0.0212046
,,,,,,,,,163,134.516,0.0189771
,,,,,,,,,182,97.3469,0.019885
,,,,,,,,,202,143.297,0.0264838
,,,,,,,,,162,144.769,0.0511062
,,,,,,,,,181,169.671,0.0398365
,,,,,,,,,201,71.8626,0.0440595
,,,,,,,,,222,127.573,0.0983625
,,,,,,,,,200,25.9019,0.0296185
,,,,,,,,,221,126.885,0.0318911
,,,,,,,,,243,77.1343,0.0531163
,,,,,,,,,242,117.087,0.027106
,,,,,,,,,265,61.4372,0.0410474
,,,,,,,,,288,55.7446,0.0455455
