facetNormals:0,facetNormals:1,facetNormals:2,FacetCenters:0,FacetCenters:1,FacetCenters:2,FacetIds,relFacetSize,absFacetSize,cellPairingIds,interplanarAngles,angleWeights
-0.16427,0.365551,-0.896015,5.8473,3.6502,7.14233,1,0.0196743,0.00511496,8,42.3231,0.0300742
0.520369,0.30107,-0.752997,5.92961,3.65142,7.19147,2,0.0637973,0.0165861,13,67.9303,0.0246233
0.58166,-0.396141,-0.667489,5.87371,3.5996,7.16079,3,0.0328986,0.00855302,19,36.8028,0.0199365
-0.549822,0.650152,-0.50012,5.82032,3.73287,7.24269,4,0.0202058,0.00525313,26,60.165,0.0336294
0.320465,0.84525,-0.221094,5.90463,3.7292,7.25323,5,0.115684,0.0300757,34,80.5124,0.0285617
0.916896,0.124057,-0.292721,5.99913,3.62273,7.25891,6,0.0520934,0.0135433,43,75.7884,0.0284152
-0.873887,-0.348998,-0.243584,5.8322,3.56173,7.24268,7,0.0511318,0.0132933,53,61.4417,0.0306017
-0.8213,0.502537,-0.155147,5.8022,3.67422,7.21576,8,0.0688319,0.017895,64,88.1179,0.0300542
-0.952707,0.056589,0.162916,5.84362,3.64293,7.28325,9,0.0636176,0.0165394,76,113.799,0.0300816
0.591895,0.541202,0.539591,5.96872,3.66645,7.34676,10,0.0638645,0.0166036,89,121.693,0.0233099
-0.73271,-0.188226,0.620735,5.79317,3.59673,7.32611,11,0.0285935,0.00743377,103,148.595,0.0302312
-0.117783,-0.711899,0.621696,5.88416,3.53258,7.3453,12,0.0652349,0.0169599,118,156.029,0.0176479
-0.245639,-0.368693,0.887761,5.92322,3.54688,7.37765,13,0.016,0.0041597,134,174.283,0.0153536
0.2565,-0.330183,0.898328,5.95333,3.57522,7.37771,14,0.0125889,0.00327288,151,135.882,0.0177704
0.256945,0.370258,0.884992,5.91354,3.68226,7.37031,15,0.0162024,0.00421232,169,141.693,0.0323758
-0.207788,0.154236,0.934839,5.87189,3.65748,7.37383,16,0.0913505,0.0237494,18,42.7739,0.0434112
,,,,,,,,,25,72.4936,0.0306912
,,,,,,,,,33,49.0471,0.0822407
,,,,,,,,,42,38.1947,0.0573544
,,,,,,,,,52,113.696,0.0567666
,,,,,,,,,63,99.757,0.0662191
,,,,,,,,,75,130.14,0.0637073
,,,,,,,,,88,86.0209,0.0638309
,,,,,,,,,102,163.777,0.0394885
,,,,,,,,,117,144.137,0.0645081
,,,,,,,,,133,161.634,0.0255837
,,,,,,,,,150,132.285,0.0210283
,,,,,,,,,168,116.115,0.0258419
,,,,,,,,,187,145.001,0.0751273
,,,,,,,,,32,104.73,0.0250353
,,,,,,,,,41,90.0545,0.0512287
,,,,,,,,,51,43.7838,0.0403285
,,,,,,,,,62,102.712,0.040037
,,,,,,,,,74,127.3,0.0445191
,,,,,,,,,87,136.866,0.0433695
,,,,,,,,,101,104.218,0.0434268
,,,,,,,,,116,143.802,0.0305953
,,,,,,,,,132,102.596,0.0437391
,,,,,,,,,149,127.767,0.0215293
,,,,,,,,,167,109.425,0.0182097
,,,,,,,,,186,127.615,0.0217119
,,,,,,,,,206,148.94,0.0483755
,,,,,,,,,50,58.2245,0.0344027
,,,,,,,,,61,106.806,0.0291176
,,,,,,,,,73,66.9767,0.0289653
,,,,,,,,,86,27.2877,0.0312408
,,,,,,,,,100,59.9241,0.0306703
,,,,,,,,,115,104.775,0.0306989
,,,,,,,,,131,91.7765,0.0236788
,,,,,,,,,148,138.923,0.0308547
,,,,,,,,,166,124.054,0.0178586
,,,,,,,,,185,145.355,0.0155128
,,,,,,,,,205,110.481,0.017984
,,,,,,,,,226,105.316,0.033092
,,,,,,,,,72,59.1275,0.0718378
,,,,,,,,,85,125.182,0.0709181
,,,,,,,,,99,77.5365,0.0863097
,,,,,,,,,114,109.011,0.0820913
,,,,,,,,,130,54.0722,0.0822965
,,,,,,,,,147,125.679,0.0458535
,,,,,,,,,165,151.227,0.0834257
,,,,,,,,,184,129.446,0.0281119
,,,,,,,,,204,115.399,0.0227068
,,,,,,,,,225,77.5255,0.0284239
,,,,,,,,,247,99.1091,0.102087
,,,,,,,,,98,145.059,0.0516081
,,,,,,,,,113,132.984,0.0593042
,,,,,,,,,129,166.653,0.0572817
,,,,,,,,,146,61.2019,0.0573815
,,,,,,,,,164,157.422,0.0369213
,,,,,,,,,183,114.159,0.0579282
,,,,,,,,,203,123.457,0.0244809
,,,,,,,,,224,94.0992,0.0202775
,,,,,,,,,246,88.6642,0.0247172
,,,,,,,,,269,118.214,0.0663501
,,,,,,,,,128,52.2681,0.058676
,,,,,,,,,145,34.7632,0.0566954
,,,,,,,,,163,153.051,0.0567932
,,,,,,,,,182,54.3194,0.0366768
,,,,,,,,,202,77.5276,0.0573287
,,,,,,,,,223,82.4275,0.0243732
,,,,,,,,,245,109.894,0.0202036
,,,,,,,,,268,126.141,0.0246074
,,,,,,,,,292,96.0857,0.0655648
,,,,,,,,,162,33.6944,0.0661221
,,,,,,,,,181,108.419,0.0662553
,,,,,,,,,201,64.4992,0.0404031
,,,,,,,,,222,112.634,0.0669852
,,,,,,,,,244,97.1998,0.0259645
,,,,,,,,,267,122.271,0.0212849
,,,,,,,,,291,99.6442,0.0262304
,,,,,,,,,316,83.7415,0.0785084
,,,,,,,,,200,118.416,0.0637408
,,,,,,,,,221,33.667,0.039454
,,,,,,,,,243,79.1737,0.0644161
,,,,,,,,,266,68.1325,0.0255693
,,,,,,,,,290,96.9872,0.0210186
,,,,,,,,,315,94.7522,0.0258271
,,,,,,,,,341,67.5267,0.0750025
,,,,,,,,,242,102.244,0.0395014
,,,,,,,,,265,97.4599,0.0645425
,,,,,,,,,289,81.9625,0.0255891
,,,,,,,,,314,61.4436,0.021032
,,,,,,,,,340,30.1655,0.0258474
,,,,,,,,,367,60.2751,0.0751739
,,,,,,,,,288,49.4281,0.0397597
,,,,,,,,,313,34.4693,0.0205185
,,,,,,,,,339,63.5537,0.0174813
,,,,,,,,,366,72.5529,0.0206842
,,,,,,,,,394,42.1707,0.0435542
,,,,,,,,,338,26.8228,0.0256973
,,,,,,,,,365,36.0187,0.021105
,,,,,,,,,393,74.2762,0.0259577
,,,,,,,,,422,57.5398,0.0761149
,,,,,,,,,392,29.4307,0.0140909
,,,,,,,,,421,53.5057,0.0161006
,,,,,,,,,451,31.0975,0.0272306
,,,,,,,,,450,41.355,0.0141689
,,,,,,,,,481,40.0649,0.0221283
,,,,,,,,,512,30.3823,0.0275232
