"cellPairingIds","interplanarAngles","angleWeights"
41,116.803,0.015621
51,102.718,0.0160672
116,163.825,0.0154071
149,123.481,0.0105132
72,70.4782,0.0983734
147,65.4591,0.0779311
164,93.1407,0.0904639
203,100.207,0.024232
313,55.2449,0.0227613
