"cellPairingIds","interplanarAngles","angleWeights"
8,56.4876,0.156088
19,64.2515,0.0324227
26,55.4567,0.0383727
43,72.942,0.043538
76,117.395,0.0556157
18,62.318,0.0456203
25,81.4314,0.033363
33,58.5477,0.0396969
75,66.706,0.0591916
102,80.3329,0.0684959
133,122.709,0.0983723
32,30.1345,0.0215722
149,92.4233,0.0376673
115,99.6804,0.024069
166,101.67,0.0289005
85,55.119,0.0239505
147,52.9633,0.0291946
165,94.1261,0.0222975
163,61.6124,0.0296973
202,56.8362,0.0239484
221,25.2385,0.0385262
266,77.031,0.0464632
265,35.3706,0.0271973
289,64.2906,0.0459995
288,63.6784,0.0291915
313,85.0671,0.0520087
338,60.6886,0.0335316
