"cellPairingIds","interplanarAngles","angleWeights"
8,49.8848,0.0396805
13,43.8685,0.0486534
19,70.7132,0.0534148
18,82.5072,0.0413319
25,111.129,0.0447181
33,76.4657,0.0569389
42,87.4372,0.0394754
102,101.147,0.0395352
150,119.765,0.0268081
32,75.1012,0.056451
51,35.2985,0.0483456
62,48.4839,0.0748924
50,72.5764,0.0902302
73,61.4187,0.0868028
185,106.845,0.0324441
204,72.5084,0.038428
98,54.4968,0.0690117
129,45.014,0.0369656
164,55.6465,0.0459054
145,53.3219,0.0507093
245,107.853,0.0377925
221,29.8035,0.037018
290,80.8682,0.0256265
339,71.1154,0.0296262
