"cellPairingIds","interplanarAngles","angleWeights"
8,38.8733,0.0343103
13,47.2667,0.0539259
19,51.7579,0.0291505
26,72.4941,0.058562
18,58.2939,0.0419414
25,38.5379,0.0252503
52,41.3677,0.0409558
75,46.9757,0.0240172
88,50.3786,0.026354
41,114.106,0.0849405
62,54.6325,0.0723861
149,60.1422,0.0649774
50,60.772,0.0363192
86,34.576,0.0334868
100,40.3078,0.0213695
72,25.2506,0.089902
99,58.835,0.0791534
184,148.279,0.0718292
204,54.3058,0.0620911
113,43.8044,0.0743383
224,41.0721,0.0590888
246,38.7374,0.0286573
163,38.5683,0.0358205
223,71.1687,0.0626419
162,37.1922,0.0313521
181,56.9935,0.0354561
201,23.0677,0.0630008
291,45.7129,0.0274683
200,20.9434,0.0221547
242,38.3636,0.0343475
265,28.3548,0.0254574
289,97.5659,0.0339073
424,63.9411,0.0186335
288,21.6384,0.0371054
366,47.4088,0.0267982
393,54.3975,0.0210602
483,50.0935,0.0194164
392,112.453,0.0507038
482,42.2597,0.05218
514,66.9188,0.023973
450,37.7042,0.0250769
513,76.0336,0.0468431
545,84.4191,0.0254328
579,65.0926,0.0161633
648,37.8641,0.0230739
