facetNormals:0,facetNormals:1,facetNormals:2,FacetCenters:0,FacetCenters:1,FacetCenters:2,FacetIds,relFacetSize,absFacetSize,cellPairingIds,interplanarAngles,angleWeights
0.482687,-0.210719,-0.831504,4.16844,6.95418,7.28876,1,0.0193792,0.00182241,8,24.9361,0.0324017
0.35799,-0.585599,-0.683476,4.16442,6.96715,7.27346,2,0.0987803,0.00928924,13,79.7619,0.0265232
-0.456828,0.599463,-0.62281,4.15311,7.05975,7.26006,3,0.0420099,0.00395059,19,66.994,0.0202338
0.169928,-0.963401,-0.112791,4.11985,6.859,7.35348,4,0.0211672,0.00199055,26,50.0471,0.0349711
0.832542,-0.461113,-0.130003,4.20753,6.98128,7.33316,5,0.178944,0.0168278,34,83.5925,0.0313314
0.609165,0.726602,0.0440946,4.21383,7.07119,7.33924,6,0.0817532,0.00768802,43,96.4924,0.0301852
0.00374841,0.977602,-0.113834,4.16523,7.08316,7.33786,7,0.0682324,0.00641653,53,119.174,0.0263709
-0.236582,0.932982,0.192642,4.13884,7.0808,7.39339,8,0.0412552,0.00387961,64,89.2125,0.0303008
0.671676,-0.498891,0.500475,4.18552,6.96501,7.41135,9,0.069429,0.00652906,76,77.4546,0.0250026
0.92501,-0.151068,0.320556,4.1798,6.93409,7.39067,10,0.0352238,0.00331243,89,140.68,0.00613683
-0.830757,-0.250288,0.496692,4.11114,7.00526,7.44456,11,0.00364565,0.000342835,103,134.192,0.0284939
-0.0647521,-0.41856,0.858005,4.12895,6.93016,7.42518,12,0.0537964,0.00505898,118,124.688,0.0320236
0.418484,0.165202,0.847395,4.18006,7.03183,7.43173,13,0.0921471,0.00866546,18,95.3869,0.0589495
,,,,,,,,,25,42.6033,0.0348636
,,,,,,,,,33,45.0846,0.127293
,,,,,,,,,42,104.974,0.0894638
,,,,,,,,,52,121.164,0.0807126
,,,,,,,,,63,143.339,0.0582024
,,,,,,,,,75,78.3595,0.0815439
,,,,,,,,,88,77.9371,0.0519301
,,,,,,,,,102,120.419,0.00703179
,,,,,,,,,117,113.159,0.0696571
,,,,,,,,,133,124.48,0.0953485
,,,,,,,,,32,127.409,0.0281504
,,,,,,,,,41,127.813,0.0680452
,,,,,,,,,51,81.9586,0.0555003
,,,,,,,,,62,47.0861,0.0520025
,,,,,,,,,74,55.2251,0.0416291
,,,,,,,,,87,164.288,0.0523463
,,,,,,,,,101,137.388,0.0383188
,,,,,,,,,116,94.6869,0.00670909
,,,,,,,,,132,143.88,0.0471782
,,,,,,,,,149,131.364,0.0577099
,,,,,,,,,50,50.6016,0.0378563
,,,,,,,,,61,130.051,0.0336276
,,,,,,,,,73,163.303,0.0323108
,,,,,,,,,86,173.684,0.0279789
,,,,,,,,,100,55.8955,0.0324432
,,,,,,,,,115,74.1408,0.0264435
,,,,,,,,,131,87.4422,0.00622002
,,,,,,,,,148,71.7256,0.0303805
,,,,,,,,,166,101.207,0.0344262
,,,,,,,,,72,79.4857,0.112232
,,,,,,,,,85,117.25,0.098794
,,,,,,,,,99,133.768,0.0670517
,,,,,,,,,114,39.3488,0.100042
,,,,,,,,,130,32.9876,0.0588613
,,,,,,,,,147,131.858,0.00714573
,,,,,,,,,165,88.2822,0.0827234
,,,,,,,,,184,79.8715,0.12165
,,,,,,,,,98,40.7629,0.0743834
,,,,,,,,,113,54.4075,0.0548376
,,,,,,,,,129,85.7405,0.0750888
,,,,,,,,,146,60.1595,0.0492347
,,,,,,,,,164,134.575,0.00698004
,,,,,,,,,183,109.672,0.0648918
,,,,,,,,,203,63.0787,0.0866396
,,,,,,,,,128,23.0052,0.0514202
,,,,,,,,,145,124.404,0.0688255
,,,,,,,,,163,100.682,0.0464623
,,,,,,,,,182,108.017,0.00692149
,,,,,,,,,202,122.579,0.0601605
,,,,,,,,,223,85.9551,0.0784067
,,,,,,,,,162,123.482,0.0517564
,,,,,,,,,181,107.849,0.0380017
,,,,,,,,,201,86.5701,0.0066993
,,,,,,,,,222,102.914,0.0466984
,,,,,,,,,244,76.5928,0.0569937
,,,,,,,,,200,27.4388,0.0467365
,,,,,,,,,221,100.914,0.00692755
,,,,,,,,,243,50.3922,0.0606211
,,,,,,,,,266,48.2573,0.0791909
,,,,,,,,,242,125.241,0.00660744
,,,,,,,,,265,72.9205,0.0425727
,,,,,,,,,289,48.1735,0.0509657
,,,,,,,,,288,52.3208,0.00682855
,,,,,,,,,313,88.0949,0.00701382
,,,,,,,,,338,46.5948,0.0679329
