"cellPairingIds","interplanarAngles","angleWeights"
8,54.9768,0.0428461
13,50.9939,0.0488977
19,42.5964,0.027509
26,52.6225,0.0477396
103,142.451,0.0392929
18,31.4031,0.0839689
63,77.8116,0.0830837
117,152.539,0.059143
32,63.3963,0.0401258
62,50.884,0.0544348
74,91.7728,0.109319
50,39.354,0.0393426
73,53.7972,0.0291787
100,52.2254,0.0363877
131,64.0936,0.0378635
114,37.6553,0.0828023
165,92.7077,0.0688903
128,98.5099,0.0540614
182,51.0265,0.0503535
223,95.9932,0.0379005
222,79.7658,0.0706885
244,51.716,0.0582689
221,39.916,0.0765122
243,68.089,0.0603142
288,70.701,0.06448
313,68.1041,0.0539842
338,36.4598,0.0453845
