facetNormals:0,facetNormals:1,facetNormals:2,FacetCenters:0,FacetCenters:1,FacetCenters:2,FacetIds,relFacetSize,absFacetSize,cellPairingIds,interplanarAngles,angleWeights
-0.346538,0.0654361,-0.92213,4.61995,5.76793,6.69885,1,0.0257436,0.00317441,8,48.291,0.0361423
0.399189,-0.236968,-0.868063,4.697,5.76882,6.67121,2,0.0606343,0.00747675,13,47.0769,0.0337867
-0.0131486,-0.624941,-0.752888,4.66028,5.71402,6.70949,3,0.0491391,0.00605928,19,40.4397,0.0350672
-0.45246,-0.55254,-0.663493,4.64405,5.70918,6.71841,4,0.0549789,0.00677938,26,77.3028,0.007589
0.740866,0.43147,-0.478897,4.69541,5.78615,6.72331,5,0.00445048,0.000548783,34,77.5617,0.0380468
0.702758,-0.443289,-0.52181,4.7422,5.7155,6.72416,6,0.0728743,0.00898605,43,34.1387,0.044371
-0.753091,0.129869,-0.533834,4.61245,5.79757,6.71532,7,0.160516,0.019793,53,81.7752,0.0389397
-0.533399,-0.766807,0.00297016,4.61819,5.69465,6.77022,8,0.0798925,0.00985145,64,72.5154,0.0287564
-0.829583,0.516189,0.0339047,4.59476,5.80678,6.78107,9,0.0325678,0.0040159,76,138.741,0.0407577
0.275548,-0.685394,0.628331,4.71651,5.703,6.82387,10,0.0977914,0.0120585,89,111.539,0.014379
-0.626247,0.409558,0.655405,4.71844,5.73214,6.7221,11,0.00997539,0.00123005,103,110.982,0.0318383
-0.728278,-0.0312848,0.644473,4.60355,5.75532,6.81119,12,0.041714,0.0051437,118,131.414,0.0363504
-0.380596,-0.398362,0.806491,4.62162,5.73931,6.83806,13,0.0618221,0.00762321,134,160.663,0.023918
0.120402,-0.308461,0.933355,4.67173,5.71304,6.82188,14,0.0223342,0.002754,18,34.2336,0.0542848
,,,,,,,,,25,56.7406,0.0576683
,,,,,,,,,33,50.9358,0.00829231
,,,,,,,,,42,29.7502,0.0661933
,,,,,,,,,52,81.7295,0.0880196
,,,,,,,,,63,92.1063,0.0689438
,,,,,,,,,75,120.118,0.0423752
,,,,,,,,,88,106.618,0.0748555
,,,,,,,,,102,159.297,0.0171322
,,,,,,,,,117,151.627,0.0494253
,,,,,,,,,133,141.996,0.0612224
,,,,,,,,,150,134.975,0.0326441
,,,,,,,,,32,26.8858,0.0518952
,,,,,,,,,41,85.1546,0.00816176
,,,,,,,,,51,46.5198,0.0586981
,,,,,,,,,62,68.7472,0.0752437
,,,,,,,,,74,58.0286,0.0608509
,,,,,,,,,87,110.639,0.039173
,,,,,,,,,101,92.9208,0.0654103
,,,,,,,,,116,139.59,0.0165842
,,,,,,,,,132,118.622,0.0451231
,,,,,,,,,149,111.69,0.0547558
,,,,,,,,,167,121.859,0.0307103
,,,,,,,,,50,105.503,0.00823439
,,,,,,,,,61,73.4037,0.0626742
,,,,,,,,,73,46.7025,0.0819044
,,,,,,,,,86,43.2644,0.0651347
,,,,,,,,,100,85.9299,0.0409049
,,,,,,,,,115,99.9201,0.0703863
,,,,,,,,,131,112.931,0.0168868
,,,,,,,,,148,94.8869,0.0474366
,,,,,,,,,166,98.6251,0.0582
,,,,,,,,,185,121.423,0.0317646
,,,,,,,,,72,53.0437,0.00838866
,,,,,,,,,85,105.605,0.00866083
,,,,,,,,,99,142.47,0.00843129
,,,,,,,,,114,115.156,0.00783085
,,,,,,,,,130,114.338,0.00851351
,,,,,,,,,147,127.979,0.00615495
,,,,,,,,,165,154.397,0.00804286
,,,,,,,,,184,151.145,0.00830322
,,,,,,,,,204,120.313,0.00742199
,,,,,,,,,98,109.696,0.10024
,,,,,,,,,113,92.2814,0.0762222
,,,,,,,,,129,149.856,0.0450173
,,,,,,,,,146,79.7325,0.083514
,,,,,,,,,164,170.884,0.0175486
,,,,,,,,,183,150.91,0.0530574
,,,,,,,,,203,122.274,0.0668948
,,,,,,,,,224,105.868,0.03419
,,,,,,,,,128,69.8099,0.106685
,,,,,,,,,145,42.336,0.0541491
,,,,,,,,,163,134.349,0.121538
,,,,,,,,,182,79.1259,0.0187835
,,,,,,,,,202,77.2384,0.0662193
,,,,,,,,,223,102.408,0.0892643
,,,,,,,,,245,132.946,0.0392123
,,,,,,,,,162,87.0636,0.0462728
,,,,,,,,,181,65.1661,0.0879404
,,,,,,,,,201,88.6474,0.0177362
,,,,,,,,,222,62.8759,0.0548102
,,,,,,,,,244,55.9469,0.0697052
,,,,,,,,,267,79.0904,0.0349093
,,,,,,,,,200,126.284,0.0488627
,,,,,,,,,221,39.2445,0.0152728
,,,,,,,,,243,50.1243,0.0365778
,,,,,,,,,266,81.7239,0.0426616
,,,,,,,,,290,103.587,0.0264972
,,,,,,,,,242,92.4631,0.0181041
,,,,,,,,,265,76.1606,0.0584819
,,,,,,,,,289,44.5596,0.0757539
,,,,,,,,,314,30.0845,0.0363635
,,,,,,,,,288,26.5678,0.0161005
,,,,,,,,,313,51.5783,0.0171789
,,,,,,,,,339,65.4063,0.0137911
,,,,,,,,,338,31.6026,0.0498154
,,,,,,,,,365,57.0943,0.0290921
,,,,,,,,,392,30.9234,0.0328138
