Q	U	V
{$V$}	{[mm$^3$]}	0.00130857
{$d_v$}	{[mm]}	0.135706
{$S_c$}	{[mm$^2$]}	0.129773
{$S_o$}	{[mm$^2$]}	0.0447777
{$S_l/S_o$}	[]	1.898161
{$\Psi$}	[]	0.445825
{$\eta$}	[]	0.490664
{med($\theta_e$)}	{[$^\circ$]}	65.06905
{$\Upsilon$}	[]	17
{$\Xi$}	[]	7
