facetNormals:0,facetNormals:1,facetNormals:2,FacetCenters:0,FacetCenters:1,FacetCenters:2,FacetIds,relFacetSize,absFacetSize,cellPairingIds,interplanarAngles,angleWeights
0.727016,0.0359466,-0.640625,7.32438,4.88576,7.43828,1,0.0603621,0.00311826,8,41.8643,0.0927141
0.642238,-0.601934,-0.390328,7.33537,4.83145,7.45008,2,0.1998,0.0103215,13,35.994,0.035248
0.794326,0.498442,-0.263472,7.3547,4.89315,7.44218,3,0.0248917,0.00128589,19,74.3557,0.061429
0.187189,-0.924977,-0.236592,7.28368,4.78335,7.48492,4,0.0625343,0.00323048,26,111.365,0.0503471
-0.174497,-0.91009,0.285616,7.25764,4.77891,7.50453,5,0.0431825,0.00223078,34,62.1248,0.0715772
0.677094,0.694033,0.116252,7.33623,4.92486,7.46311,6,0.0879109,0.00454142,43,74.1436,0.0375019
0.792177,-0.357015,0.470352,7.33117,4.82601,7.50637,7,0.0272006,0.00140516,53,161.359,0.0324891
-0.649491,0.266441,0.650911,7.25359,4.87052,7.53912,8,0.022226,0.00114818,64,143.759,0.0539577
-0.276531,-0.375203,0.869573,7.25984,4.80424,7.52898,9,0.048782,0.00252004,76,107.525,0.0968255
0.376424,0.142914,0.87364,7.30852,4.85447,7.51767,10,0.244557,0.0126336,18,70.5082,0.0442683
,,,,,,,,,25,34.7923,0.0952553
,,,,,,,,,33,69.6785,0.0710163
,,,,,,,,,42,91.7236,0.122099
,,,,,,,,,52,55.4116,0.0478825
,,,,,,,,,63,154.436,0.0400021
,,,,,,,,,75,107.848,0.0784179
,,,,,,,,,88,101.539,0.219925
,,,,,,,,,32,105.297,0.0356092
,,,,,,,,,41,134.965,0.0315798
,,,,,,,,,51,26.2491,0.0387979
,,,,,,,,,62,70.1139,0.025995
,,,,,,,,,74,126.493,0.0234834
,,,,,,,,,87,131.419,0.0329633
,,,,,,,,,101,81.4037,0.0451844
,,,,,,,,,50,38.1836,0.0510872
,,,,,,,,,61,124.835,0.0730824
,,,,,,,,,73,67.5412,0.037911
,,,,,,,,,86,124.087,0.0327957
,,,,,,,,,100,84.6466,0.0548087
,,,,,,,,,115,106.667,0.0996004
,,,,,,,,,72,139.176,0.0579161
,,,,,,,,,85,70.4235,0.033377
,,,,,,,,,99,86.4946,0.0293471
,,,,,,,,,114,48.1668,0.0458117
,,,,,,,,,130,86.695,0.0734037
,,,,,,,,,98,69.1592,0.0415463
,,,,,,,,,113,101.049,0.0354814
,,,,,,,,,129,111.081,0.062746
,,,,,,,,,146,60.9866,0.129331
,,,,,,,,,128,108.713,0.024463
,,,,,,,,,145,70.5937,0.0349264
,,,,,,,,,163,46.1803,0.0489561
,,,,,,,,,162,46.877,0.0305382
,,,,,,,,,181,66.8363,0.0407486
,,,,,,,,,200,50.6337,0.0813391
