facetNormals:0,facetNormals:1,facetNormals:2,FacetCenters:0,FacetCenters:1,FacetCenters:2,FacetIds,relFacetSize,absFacetSize,cellPairingIds,interplanarAngles,angleWeights
0.0534151,-0.624071,-0.73427,2.96422,4.40441,7.6391,1,0.052786,0.00912333,8,48.2342,0.0892356
0.603728,-0.0792501,-0.702949,3.06046,4.44394,7.69718,2,0.288338,0.0498352,13,68.1031,0.0376496
-0.814317,-0.00534446,-0.531329,2.86983,4.49498,7.62272,3,0.0292594,0.00505709,19,58.1694,0.04216
-0.791414,-0.464157,-0.341807,2.88555,4.42326,7.64567,4,0.0350952,0.00606572,26,57.2165,0.0415571
0.714196,-0.662175,-0.080786,3.13384,4.39364,7.81829,5,0.0342676,0.00592269,34,94.9379,0.0155853
0.978191,0.0939135,0.103132,3.14106,4.44413,7.84697,6,0.00914229,0.00158012,43,130.932,0.0695527
0.326171,0.893892,0.0868114,3.08553,4.50246,7.7666,7,0.101929,0.017617,53,60.5298,0.0647314
-0.288149,-0.905427,0.128553,3.00291,4.37306,7.72725,8,0.0836646,0.0144603,64,98.0016,0.0266097
-0.448274,-0.59108,0.650254,3.08817,4.38807,7.83991,9,0.0177885,0.00307449,76,134.319,0.0430413
-0.158933,-0.0855101,0.940908,3.0765,4.42954,7.83378,10,0.0363338,0.00627981,18,97.4791,0.0531276
,,,,,,,,,25,102.736,0.0625741
,,,,,,,,,33,53.5136,0.0612553
,,,,,,,,,42,56.2428,0.0177227
,,,,,,,,,52,85.8017,0.150615
,,,,,,,,,63,102.472,0.129696
,,,,,,,,,75,137.916,0.0335096
,,,,,,,,,88,147.395,0.0645355
,,,,,,,,,32,29.5038,0.0319127
,,,,,,,,,41,124.273,0.0315661
,,,,,,,,,51,152.455,0.0139316
,,,,,,,,,62,109.918,0.0454672
,,,,,,,,,74,79.42,0.0433562
,,,,,,,,,87,88.6441,0.0221255
,,,,,,,,,101,113.406,0.0324151
,,,,,,,,,50,103.925,0.0346765
,,,,,,,,,61,151.851,0.0145058
,,,,,,,,,73,138.691,0.052213
,,,,,,,,,86,49.9258,0.0494481
,,,,,,,,,100,65.0867,0.0236099
,,,,,,,,,115,99.5817,0.0357038
,,,,,,,,,72,49.4242,0.0144338
,,,,,,,,,85,113.074,0.0512915
,,,,,,,,,99,65.85,0.0486209
,,,,,,,,,114,88.8879,0.0234197
,,,,,,,,,130,98.1602,0.0352705
,,,,,,,,,98,64.129,0.0167796
,,,,,,,,,113,111.917,0.0164834
,,,,,,,,,129,115.977,0.0120774
,,,,,,,,,146,94.0258,0.0146087
,,,,,,,,,128,166.863,0.0918981
,,,,,,,,,145,130.979,0.0302907
,,,,,,,,,163,92.9176,0.0535715
,,,,,,,,,162,37.745,0.029339
,,,,,,,,,181,74.585,0.0506649
,,,,,,,,,200,39.084,0.0238838
