"cellPairingIds","interplanarAngles","angleWeights"
8,65.9956,0.041043
13,59.5248,0.0608365
19,117.106,0.0441354
43,51.9799,0.0448573
53,62.743,0.0597542
18,25.8712,0.044436
25,92.8408,0.0348137
33,71.4144,0.052483
41,85.8234,0.0898747
62,61.5525,0.0489416
87,63.7231,0.0484941
101,124.067,0.0646969
50,54.6206,0.057648
61,39.4087,0.0487104
86,125.738,0.0474049
115,77.5252,0.0461324
130,59.5003,0.0832905
113,94.968,0.0684594
146,55.5853,0.0658369
128,48.4366,0.0482387
145,38.6034,0.0377694
163,112.533,0.0469217
181,101.235,0.0634743
200,80.0903,0.0465102
