"cellPairingIds","interplanarAngles","angleWeights"
8,36.4466,0.0822757
13,42.8363,0.0506502
19,115.283,0.07434
26,69.3375,0.0865197
34,71.0007,0.0817662
64,134.657,0.0803535
33,62.9458,0.112842
63,76.3077,0.0366655
75,115.092,0.102576
41,37.7284,0.0607868
51,95.2668,0.0584014
62,70.0077,0.0365704
61,48.3482,0.092325
73,80.1327,0.0474992
100,39.8245,0.0905278
115,70.6484,0.028734
85,94.9874,0.0521939
99,96.2627,0.0374849
130,107.503,0.0303874
98,58.7264,0.0504255
163,116.903,0.02283
162,49.6736,0.0362787
181,44.4391,0.0194856
200,36.3533,0.0295899
