facetNormals:0,facetNormals:1,facetNormals:2,FacetCenters:0,FacetCenters:1,FacetCenters:2,FacetIds,relFacetSize,absFacetSize,cellPairingIds,interplanarAngles,angleWeights
0.627145,0.0828849,-0.722362,4.46307,7.18441,6.32263,1,0.0980917,0.0202935,8,59.5958,0.0687702
0.0767615,-0.688557,-0.652706,4.45467,7.16732,6.39479,2,0.0529442,0.0109533,13,42.3131,0.0479224
0.588243,-0.590615,-0.525839,4.45616,7.15327,6.3364,3,0.0317062,0.00655949,19,48.7352,0.114775
0.661953,0.671187,-0.19165,4.46464,7.25172,6.37509,4,0.138296,0.0286111,26,43.4762,0.0532098
0.967224,-0.0524306,-0.106226,4.49268,7.18191,6.37114,5,0.0365063,0.00755254,34,115.652,0.0540247
-0.793017,-0.527588,-0.190123,4.35098,7.25374,6.27561,6,0.0372779,0.00771218,43,146.612,0.0888471
-0.839719,0.25609,0.348798,4.39404,7.22688,6.44385,7,0.081195,0.0167979,53,121.885,0.0806628
-0.31271,0.738082,0.463249,4.38546,7.24005,6.41373,8,0.068493,0.0141701,64,111.833,0.0787691
-0.0318132,-0.870806,0.333762,4.45328,7.12372,6.46092,9,0.0658063,0.0136142,76,96.8764,0.0566723
0.627331,0.15346,0.715668,4.46876,7.20692,6.44597,10,0.0398469,0.00824366,89,111.747,0.088902
0.379619,-0.460581,0.748037,4.45527,7.12426,6.47647,11,0.0812867,0.0168169,18,32.0612,0.039661
,,,,,,,,,25,108.217,0.0765735
,,,,,,,,,33,78.8301,0.0432149
,,,,,,,,,42,62.5277,0.0437509
,,,,,,,,,52,121.398,0.0640947
,,,,,,,,,63,161.27,0.0597232
,,,,,,,,,75,64.7191,0.0586787
,,,,,,,,,88,124.873,0.0454712
,,,,,,,,,102,98.9665,0.0641232
,,,,,,,,,32,84.3251,0.0515857
,,,,,,,,,41,46.9349,0.0339374
,,,,,,,,,51,93.2884,0.0342671
,,,,,,,,,62,152.874,0.0456042
,,,,,,,,,74,161.137,0.0433467
,,,,,,,,,87,69.6316,0.0427939
,,,,,,,,,101,95.9168,0.0353135
,,,,,,,,,116,83.7924,0.0456187
,,,,,,,,,50,48.1495,0.0577644
,,,,,,,,,61,154.399,0.0587261
,,,,,,,,,73,119.742,0.102318
,,,,,,,,,86,77.0486,0.0916133
,,,,,,,,,100,138.231,0.0891783
,,,,,,,,,115,65.7343,0.061868
,,,,,,,,,131,102.625,0.102391
,,,,,,,,,72,139.451,0.0368881
,,,,,,,,,85,159.58,0.050367
,,,,,,,,,99,115.639,0.0476275
,,,,,,,,,114,91.2961,0.0469609
,,,,,,,,,130,56.1898,0.0381035
,,,,,,,,,147,70.4622,0.0503846
,,,,,,,,,98,59.586,0.0510966
,,,,,,,,,113,104.786,0.0482794
,,,,,,,,,129,62.3067,0.0475945
,,,,,,,,,146,139.741,0.0385196
,,,,,,,,,164,102.442,0.0511147
,,,,,,,,,128,45.4834,0.0743051
,,,,,,,,,145,95.199,0.0726952
,,,,,,,,,163,105.141,0.0534587
,,,,,,,,,182,101.214,0.0812409
,,,,,,,,,162,123.607,0.0671228
,,,,,,,,,181,73.8247,0.0503828
,,,,,,,,,201,97.2708,0.0743435
,,,,,,,,,200,84.5604,0.0496375
,,,,,,,,,221,44.3394,0.0727319
,,,,,,,,,242,40.3731,0.0534785
