"cellPairingIds","interplanarAngles","angleWeights"
8,46.7456,0.0188745
13,50.2279,0.0175799
19,90.5237,0.0146319
26,40.1703,0.0206224
53,87.5654,0.0220033
89,80.0589,0.0208552
18,28.5666,0.0274818
25,63.6692,0.0208992
32,90.3806,0.0193236
51,46.4948,0.039751
101,55.7731,0.0401411
116,64.9133,0.0318918
61,51.8782,0.0273094
73,48.6742,0.0294593
86,86.705,0.0248047
100,73.016,0.021624
99,49.3166,0.0488708
147,89.8228,0.0435463
129,45.166,0.0508874
146,64.2576,0.102256
128,48.9036,0.090506
145,95.5912,0.0588968
245,56.1333,0.0844609
201,116.779,0.0501987
222,28.5538,0.0328399
244,49.872,0.0492568
267,66.6164,0.0549157
200,44.0416,0.0515284
290,84.5314,0.0414257
242,48.1121,0.0625828
314,99.7627,0.0700883
288,91.522,0.0303466
313,81.1913,0.0438525
339,102.777,0.048282
338,24.3743,0.0299998
392,40.0922,0.04741
