facetNormals:0,facetNormals:1,facetNormals:2,FacetCenters:0,FacetCenters:1,FacetCenters:2,FacetIds,relFacetSize,absFacetSize,cellPairingIds,interplanarAngles,angleWeights
-0.449462,0.032155,-0.846066,6.25999,4.85511,8.50708,1,0.108294,0.0226772,8,59.6689,0.052534
-0.363763,0.850243,-0.337747,6.27118,4.94448,8.55231,2,0.0346783,0.0072618,13,83.3465,0.123595
-0.0328913,-0.943406,-0.143729,6.31404,4.76288,8.57711,3,0.143931,0.0301397,19,54.2863,0.0475621
-0.841997,-0.459319,-0.221132,6.18876,4.8153,8.57942,4,0.0304728,0.00638115,26,120.336,0.0893904
0.473748,-0.806365,0.275617,6.38453,4.77656,8.6413,5,0.0761056,0.0159369,34,83.1502,0.0707116
-0.861292,-0.355553,0.311286,6.18887,4.82655,8.66637,6,0.0524941,0.0109925,43,103.084,0.0727349
0.0587362,0.952408,0.258565,6.3148,4.95036,8.64541,7,0.0547555,0.0114661,53,98.5624,0.0936877
-0.38965,0.801499,0.402405,6.2404,4.92341,8.67856,8,0.0825533,0.017287,64,123.156,0.0515651
0.377119,0.794839,0.43917,6.3616,4.92567,8.69034,9,0.0338389,0.00708601,76,145.925,0.0458233
0.81098,-0.281282,0.482644,6.40962,4.83335,8.69022,10,0.0290598,0.00608526,89,103.3,0.0534709
-0.422014,-0.76419,0.451296,6.24555,4.77419,8.68862,11,0.0354996,0.00743377,103,160.375,0.0618819
0.682666,0.108692,0.665407,6.40048,4.86303,8.70205,12,0.0433172,0.00907082,118,121.375,0.0353514
-0.448551,-0.334241,0.802722,6.25481,4.84389,8.73927,13,0.0211234,0.00442335,134,167.182,0.059309
0.25858,-0.0738286,0.940759,6.32313,4.84791,8.75809,14,0.040837,0.00855146,18,142.081,0.0558905
,,,,,,,,,25,90.5652,0.0324398
,,,,,,,,,33,172.194,0.0476462
,,,,,,,,,42,95.5853,0.0417657
,,,,,,,,,52,43.9219,0.0424633
,,,,,,,,,63,44.4453,0.0488402
,,,,,,,,,75,66.2238,0.0342534
,,,,,,,,,88,135.979,0.0316214
,,,,,,,,,102,132.1,0.0350841
,,,,,,,,,117,113.763,0.0385193
,,,,,,,,,133,114.022,0.0262546
,,,,,,,,,150,119.515,0.0375065
,,,,,,,,,32,58.3765,0.0502969
,,,,,,,,,41,40.7265,0.0995648
,,,,,,,,,51,70.1182,0.0769303
,,,,,,,,,62,173.326,0.0793311
,,,,,,,,,74,149.099,0.104925
,,,,,,,,,87,151.533,0.0547951
,,,,,,,,,101,79.6263,0.0483564
,,,,,,,,,116,44.4417,0.0569522
,,,,,,,,,132,103.935,0.0665927
,,,,,,,,,149,76.7137,0.0368402
,,,,,,,,,167,94.5472,0.0636226
,,,,,,,,,50,95.349,0.0435201
,,,,,,,,,61,32.041,0.038561
,,,,,,,,,73,123.996,0.0391549
,,,,,,,,,86,97.7052,0.0445142
,,,,,,,,,100,143.672,0.0320678
,,,,,,,,,115,132.945,0.0297496
,,,,,,,,,131,51.1667,0.0327947
,,,,,,,,,148,144.815,0.0357771
,,,,,,,,,166,68.4526,0.0249511
,,,,,,,,,185,114.008,0.0349018
,,,,,,,,,72,92.126,0.0621323
,,,,,,,,,85,133.943,0.0636889
,,,,,,,,,99,139.042,0.0791985
,,,,,,,,,114,110.85,0.0468478
,,,,,,,,,130,39.2015,0.0420597
,,,,,,,,,147,55.6475,0.0484156
,,,,,,,,,165,63.3804,0.0552103
,,,,,,,,,184,73.0404,0.0330686
,,,,,,,,,204,62.4441,0.053153
,,,,,,,,,98,108.534,0.053601
,,,,,,,,,113,79.4498,0.0641784
,,,,,,,,,129,119.162,0.0411509
,,,,,,,,,146,117.602,0.0374101
,,,,,,,,,164,36.5409,0.0423557
,,,,,,,,,183,116.425,0.0474662
,,,,,,,,,203,38.2305,0.0301248
,,,,,,,,,224,84.2453,0.0459376
,,,,,,,,,128,29.121,0.0658406
,,,,,,,,,145,23.3169,0.041828
,,,,,,,,,163,95.6274,0.0379688
,,,,,,,,,182,130.885,0.0430734
,,,,,,,,,202,70.5624,0.0483693
,,,,,,,,,223,98.1499,0.030486
,,,,,,,,,245,78.7858,0.046783
,,,,,,,,,162,46.0883,0.0480017
,,,,,,,,,181,111.137,0.0429875
,,,,,,,,,201,106.098,0.049649
,,,,,,,,,222,84.5641,0.05682
,,,,,,,,,244,76.0955,0.0336394
,,,,,,,,,267,76.79,0.0546434
,,,,,,,,,200,72.3107,0.0312678
,,,,,,,,,221,126.028,0.0346493
,,,,,,,,,243,47.6088,0.0379958
,,,,,,,,,266,94.9071,0.0260103
,,,,,,,,,290,61.9789,0.03701
,,,,,,,,,242,84.6327,0.0319585
,,,,,,,,,265,26.6871,0.0347842
,,,,,,,,,289,82.9845,0.0244641
,,,,,,,,,314,44.7299,0.0339562
,,,,,,,,,288,94.3099,0.0390207
,,,,,,,,,313,32.9345,0.0264865
,,,,,,,,,339,67.2488,0.0379817
,,,,,,,,,338,78.2235,0.0283985
,,,,,,,,,365,32.1905,0.0420406
,,,,,,,,,392,46.0952,0.0278442
