Q	U	V
{$V$}	{[mm$^3$]}	0.00113995
{$d_v$}	{[mm]}	0.129607
{$S_c$}	{[mm$^2$]}	0.0843214
{$S_o$}	{[mm$^2$]}	0.048848
{$S_l/S_o$}	[]	0.726200
{$\Psi$}	[]	0.62585
{$\eta$}	[]	0.671580
{med($\theta_e$)}	{[$^\circ$]}	59.1817
{$\Upsilon$}	[]	17
{$\Xi$}	[]	6
