"cellPairingIds","interplanarAngles","angleWeights"
8,69.7217,0.0398972
13,95.108,0.0394993
26,81.8471,0.058381
34,58.7293,0.0633163
18,26.5876,0.0322286
25,78.5984,0.0417107
42,122.513,0.0465004
32,93.1105,0.041276
41,151.453,0.0433035
62,56.3141,0.0464074
74,88.4812,0.0340758
61,64.463,0.0680088
73,100.029,0.0689912
100,48.1711,0.081575
115,36.1493,0.0525585
72,49.4585,0.073694
99,89.3056,0.0472628
114,71.0472,0.0898933
129,38.4151,0.102154
128,36.456,0.0509846
163,85.4114,0.0611713
182,42.9032,0.0641857
162,95.5726,0.0575446
201,37.7659,0.0427756
200,26.828,0.0708637
221,65.7394,0.074941
242,50.4443,0.0497226
