facetNormals:0,facetNormals:1,facetNormals:2,FacetCenters:0,FacetCenters:1,FacetCenters:2,FacetIds,relFacetSize,absFacetSize,cellPairingIds,interplanarAngles,angleWeights
0.232131,-0.438347,-0.836939,6.86152,6.15644,7.7581,1,0.0897403,0.00422754,8,60.3166,0.0918443
0.301061,0.530042,-0.750824,6.84682,6.20655,7.75499,2,0.0940493,0.00443054,13,71.397,0.0625762
-0.39888,0.506422,-0.739728,6.77932,6.22843,7.77122,3,0.0480358,0.0022629,19,41.9036,0.100407
-0.416357,-0.599801,-0.643144,6.78826,6.14151,7.77172,4,0.113953,0.00536815,26,36.1927,0.0600542
0.68485,-0.542825,-0.446272,6.89908,6.14836,7.78849,5,0.0451264,0.00212584,34,79.8148,0.113624
-0.844236,0.0840692,-0.478395,6.75239,6.19069,7.79436,6,0.154831,0.00729389,43,44.6035,0.0137197
-0.0955619,-0.924207,-0.37023,6.83412,6.11439,7.79205,7,0.0074276,0.000349904,53,67.4845,0.0210705
-0.557625,-0.80554,-0.17583,6.7596,6.13315,7.80885,8,0.0119366,0.000562316,64,115.539,0.00726743
0.311754,0.890824,0.0952993,6.89276,6.19682,7.77915,9,0.00378706,0.000178403,76,80.0896,0.025574
-0.523586,-0.838826,0.0953686,6.76307,6.14218,7.83357,10,0.0149117,0.000702472,89,122.066,0.0502424
-0.785782,-0.262226,0.524453,6.75085,6.19307,7.86534,11,0.0348873,0.00164349,103,90.0431,0.0997109
0.203989,-0.811847,0.482627,6.83609,6.12511,7.81375,12,0.112174,0.00528437,118,108.782,0.0759003
-0.275379,-0.685612,0.651359,6.76911,6.14701,7.84133,13,0.0657589,0.00309781,18,42.1315,0.063592
,,,,,,,,,25,87.587,0.103049
,,,,,,,,,33,74.5044,0.0609892
,,,,,,,,,42,80.8628,0.117018
,,,,,,,,,52,104.406,0.0137679
,,,,,,,,,63,118.737,0.0211845
,,,,,,,,,75,57.3847,0.00728093
,,,,,,,,,88,134.538,0.025742
,,,,,,,,,102,144.229,0.0508952
,,,,,,,,,117,141.494,0.102315
,,,,,,,,,133,169.09,0.0774
,,,,,,,,,32,69.2612,0.0675827
,,,,,,,,,41,103.084,0.0465357
,,,,,,,,,51,39.8968,0.0733234
,,,,,,,,,62,99.1495,0.0128658
,,,,,,,,,74,93.2548,0.0191216
,,,,,,,,,87,74.0173,0.00702062
,,,,,,,,,101,107.093,0.0227585
,,,,,,,,,116,102.445,0.0404191
,,,,,,,,,132,153.641,0.0672664
,,,,,,,,,149,138.086,0.0555172
,,,,,,,,,50,69.9415,0.0646505
,,,,,,,,,61,50.033,0.131283
,,,,,,,,,73,31.2215,0.0139462
,,,,,,,,,86,31.2004,0.0216095
,,,,,,,,,100,141.807,0.00733049
,,,,,,,,,115,46.9536,0.0263724
,,,,,,,,,131,81.1268,0.0534198
,,,,,,,,,148,84.4079,0.113056
,,,,,,,,,166,83.5917,0.0833936
,,,,,,,,,72,115.425,0.0698845
,,,,,,,,,85,52.2043,0.0127557
,,,,,,,,,99,82.1234,0.0188793
,,,,,,,,,114,109.623,0.0069877
,,,,,,,,,130,86.8127,0.0224162
,,,,,,,,,147,130.896,0.0393517
,,,,,,,,,165,67.3574,0.064361
,,,,,,,,,184,96.3627,0.0535231
,,,,,,,,,98,79.3464,0.0141752
,,,,,,,,,113,59.8346,0.0221644
,,,,,,,,,129,104.664,0.00739328
,,,,,,,,,146,70.3175,0.0272035
,,,,,,,,,164,65.8664,0.0569437
,,,,,,,,,183,120.056,0.130095
,,,,,,,,,203,98.1957,0.0923117
,,,,,,,,,128,29.9191,0.00915713
,,,,,,,,,145,159.447,0.00501643
,,,,,,,,,163,37.338,0.009916
,,,,,,,,,182,82.7783,0.0122476
,,,,,,,,,202,55.1576,0.0139327
,,,,,,,,,223,64.8415,0.0133476
,,,,,,,,,162,164.125,0.00574988
,,,,,,,,,181,15.9159,0.0132593
,,,,,,,,,201,55.1835,0.0177873
,,,,,,,,,222,61.7406,0.0215771
,,,,,,,,,244,52.9053,0.0202055
,,,,,,,,,200,163.045,0.00604013
,,,,,,,,,221,117.44,0.00683244
,,,,,,,,,243,132.026,0.00732676
,,,,,,,,,266,132.775,0.00716167
,,,,,,,,,242,45.6047,0.0208932
,,,,,,,,,265,49.7487,0.0263241
,,,,,,,,,289,37.0035,0.0243107
,,,,,,,,,288,71.1736,0.053222
,,,,,,,,,313,40.1837,0.0455884
,,,,,,,,,338,31.1152,0.0829126
