Q	U	V
{$V$}	{[mm$^3$]}	0.00242239
{$d_v$}	{[mm]}	0.166628
{$S_c$}	{[mm$^2$]}	0.127858
{$S_o$}	{[mm$^2$]}	0.0741436
{$S_l/S_o$}	[]	0.724464
{$\Psi$}	[]	0.682211
{$\eta$}	[]	0.721530
{med($\theta_e$)}	{[$^\circ$]}	57.3448
{$\Upsilon$}	[]	12
{$\Xi$}	[]	6
