Q	U	V
{$V$}	{[mm$^3$]}	0.00590755
{$d_v$}	{[mm]}	0.224286
{$S_c$}	{[mm$^2$]}	0.275981
{$S_o$}	{[mm$^2$]}	0.155258
{$S_l/S_o$}	[]	0.777564
{$\Psi$}	[]	0.572633
{$\eta$}	[]	0.587740
{med($\theta_e$)}	{[$^\circ$]}	85.4913
{$\Upsilon$}	[]	12
{$\Xi$}	[]	7
