facetNormals:0,facetNormals:1,facetNormals:2,FacetCenters:0,FacetCenters:1,FacetCenters:2,FacetIds,relFacetSize,absFacetSize,cellPairingIds,interplanarAngles,angleWeights
-0.224023,-0.453743,-0.836723,3.64489,3.88454,8.4084,1,0.0237061,0.00143877,8,58.0225,0.0375385
-0.377051,0.472012,-0.752025,3.61898,3.98566,8.42618,2,0.0901281,0.00547006,13,43.6879,0.0330981
0.446411,-0.630693,-0.608828,3.72337,3.83529,8.47279,3,0.0548153,0.00332685,19,57.6298,0.0427068
0.625253,-0.0660193,-0.738398,3.70863,3.89995,8.43914,4,0.215159,0.0130585,26,75.6028,0.0388564
0.451521,0.522416,-0.68728,3.67592,3.98462,8.43363,5,0.107662,0.00653421,34,40.1985,0.0387283
-0.610429,-0.691791,-0.338711,3.64078,3.85908,8.45062,6,0.105725,0.00641664,43,61.2043,0.041249
-0.91693,-0.29472,-0.142779,3.60134,3.91821,8.47067,7,0.158661,0.00962945,53,52.5283,0.0239789
0.0785236,-0.95487,-0.198918,3.69649,3.824,8.48265,8,0.024258,0.00147227,64,62.5338,0.0319732
-0.351444,-0.920669,0.0611577,3.66132,3.83187,8.50649,9,0.0490939,0.00297961,76,130.764,0.0143494
-0.56916,0.392684,0.678886,3.61559,3.95151,8.49314,10,0.0102885,0.000624432,89,162.533,0.0118471
0.351508,0.606736,0.621077,3.69835,3.93282,8.4843,11,0.00789677,0.000479271,103,164.317,0.00635301
0.0868643,0.255374,0.957244,3.62741,3.95185,8.49672,12,0.003668,0.000222618,18,90.4927,0.0681701
,,,,,,,,,25,72.0455,0.12704
,,,,,,,,,33,50.861,0.0981178
,,,,,,,,,42,80.3851,0.0973054
,,,,,,,,,52,70.4693,0.114955
,,,,,,,,,63,110.51,0.0382272
,,,,,,,,,75,111.434,0.0635638
,,,,,,,,,88,96.7942,0.0184688
,,,,,,,,,102,110.282,0.0145212
,,,,,,,,,117,131.214,0.00704912
,,,,,,,,,32,36.1544,0.0873714
,,,,,,,,,41,72.3544,0.0726443
,,,,,,,,,51,67.4978,0.072198
,,,,,,,,,62,98.1946,0.0814803
,,,,,,,,,74,38.0148,0.0336323
,,,,,,,,,87,66.5494,0.0517971
,,,,,,,,,101,163.724,0.0173252
,,,,,,,,,116,130.945,0.0138048
,,,,,,,,,132,136.111,0.0068759
,,,,,,,,,50,36.9255,0.143513
,,,,,,,,,61,95.1705,0.141781
,,,,,,,,,73,118.353,0.182641
,,,,,,,,,86,74.1606,0.0436003
,,,,,,,,,100,102.308,0.0799461
,,,,,,,,,115,159.996,0.019638
,,,,,,,,,131,107.878,0.0152344
,,,,,,,,,148,133.949,0.00721304
,,,,,,,,,72,114.972,0.106684
,,,,,,,,,85,119.691,0.128278
,,,,,,,,,99,110.04,0.0395947
,,,,,,,,,114,135.127,0.0674366
,,,,,,,,,130,123.308,0.0187822
,,,,,,,,,147,86.9329,0.0147143
,,,,,,,,,165,120.055,0.00709431
,,,,,,,,,98,31.9492,0.126893
,,,,,,,,,113,45.0014,0.0394617
,,,,,,,,,129,31.1216,0.0670518
,,,,,,,,,146,99.3159,0.0187522
,,,,,,,,,164,156.565,0.0146959
,,,,,,,,,183,124.521,0.00709003
,,,,,,,,,128,75.5453,0.042082
,,,,,,,,,145,52.5283,0.0749853
,,,,,,,,,163,70.8688,0.019324
,,,,,,,,,182,130.292,0.0150448
,,,,,,,,,202,107.525,0.00717024
,,,,,,,,,162,29.6855,0.0324714
,,,,,,,,,181,125.802,0.0144489
,,,,,,,,,201,137.455,0.0119149
,,,,,,,,,222,116.055,0.00637244
,,,,,,,,,200,97.2041,0.0170119
,,,,,,,,,221,134.145,0.0136052
,,,,,,,,,243,102.175,0.00682601
,,,,,,,,,242,59.5632,0.00893537
,,,,,,,,,265,43.3584,0.00540799
,,,,,,,,,288,33.1451,0.00500924
