"cellPairingIds","interplanarAngles","angleWeights"
61,88.9471,0.0542048
86,39.013,0.0793931
100,155.884,0.029377
115,165.338,0.0297617
113,63.4016,0.0988969
129,109.838,0.0316895
146,102.825,0.0321376
181,140.533,0.0395832
200,24.2987,0.0214096
