facetNormals:0,facetNormals:1,facetNormals:2,FacetCenters:0,FacetCenters:1,FacetCenters:2,FacetIds,relFacetSize,absFacetSize,cellPairingIds,interplanarAngles,angleWeights
-0.0685564,0.492807,-0.819602,6.30576,6.7948,9.7302,1,0.034298,0.00491728,8,89.2128,0.0284549
0.643427,-0.581823,-0.419141,6.32862,6.70564,9.82022,2,0.0243129,0.00348572,13,50.113,0.0491553
-0.67923,0.640428,-0.291879,6.25685,6.80985,9.76186,3,0.0867214,0.0124332,19,77.7397,0.0514551
-0.945019,-0.0185138,-0.170689,6.23655,6.73485,9.76488,4,0.102959,0.0147611,26,49.1433,0.0473651
-0.0658945,0.940558,-0.160938,6.32654,6.84674,9.78752,5,0.076517,0.0109702,34,98.5016,0.0185483
0.938766,-0.211492,-0.0391262,6.27239,6.74638,9.74285,6,0.0127113,0.0018224,43,114.555,0.0487692
-0.452889,-0.815112,0.0010975,6.28004,6.68249,9.82949,7,0.0843649,0.0120953,53,71.9336,0.040395
0.66506,0.692727,0.0124739,6.37107,6.81292,9.83567,8,0.0491282,0.00704347,64,121.463,0.0231996
-0.803221,-0.328417,0.473234,6.26413,6.70462,9.84097,9,0.0175278,0.00251294,76,117.087,0.0379755
0.770599,0.182592,0.562882,6.29085,6.71868,9.77666,10,0.0425364,0.00609841,89,146.067,0.024539
-0.478098,-0.538924,0.672553,6.329,6.65452,9.89933,11,0.0191033,0.00273883,103,157.058,0.02504
0.332445,-0.660779,0.602982,6.31786,6.70725,9.86154,12,0.0197177,0.00282691,118,114.3,0.0547884
-0.589656,0.280446,0.66745,6.27367,6.76626,9.86352,13,0.136093,0.0195116,134,164.821,0.020909
0.132722,-0.272503,0.938024,6.31477,6.71042,9.88925,14,0.0150384,0.00215604,151,130.69,0.051324
0.0947395,0.3038,0.910041,6.33704,6.77779,9.88629,15,0.101917,0.0146117,18,136.834,0.0379783
,,,,,,,,,25,124.621,0.0393367
,,,,,,,,,33,124.517,0.0369007
,,,,,,,,,42,36.748,0.0166944
,,,,,,,,,52,78.2863,0.0377474
,,,,,,,,,63,88.7834,0.0325281
,,,,,,,,,75,123.391,0.0203702
,,,,,,,,,88,80.5518,0.0309407
,,,,,,,,,102,106.895,0.0213956
,,,,,,,,,117,67.9191,0.0217755
,,,,,,,,,133,156.082,0.0412555
,,,,,,,,,150,99.0396,0.0185827
,,,,,,,,,168,122.367,0.0392601
,,,,,,,,,32,43.6426,0.094145
,,,,,,,,,41,42.1065,0.0813002
,,,,,,,,,51,143.955,0.0221725
,,,,,,,,,62,103.617,0.0855269
,,,,,,,,,74,90.7154,0.0627233
,,,,,,,,,87,78.2354,0.0291615
,,,,,,,,,101,126.913,0.0570769
,,,,,,,,,116,102.991,0.0313097
,,,,,,,,,132,152.107,0.03213
,,,,,,,,,149,65.046,0.105937
,,,,,,,,,167,123.949,0.025632
,,,,,,,,,186,98.2561,0.0937071
,,,,,,,,,50,85.4845,0.08779
,,,,,,,,,61,161.368,0.0226288
,,,,,,,,,73,60.3632,0.0927389
,,,,,,,,,86,134.231,0.0665169
,,,,,,,,,100,43.8741,0.0299558
,,,,,,,,,115,152.49,0.0602012
,,,,,,,,,131,68.4966,0.0322271
,,,,,,,,,148,116.211,0.0330969
,,,,,,,,,166,60.7567,0.11723
,,,,,,,,,185,107.232,0.0262436
,,,,,,,,,205,105.695,0.102435
,,,,,,,,,72,106.037,0.0218009
,,,,,,,,,85,145.721,0.0802495
,,,,,,,,,99,48.7467,0.0598374
,,,,,,,,,114,110.567,0.028522
,,,,,,,,,130,88.1272,0.0546773
,,,,,,,,,147,128.251,0.0305736
,,,,,,,,,165,144.211,0.0313554
,,,,,,,,,184,77.3745,0.0979581
,,,,,,,,,204,116.181,0.0251366
,,,,,,,,,225,81.7049,0.0874091
,,,,,,,,,98,106.35,0.0220937
,,,,,,,,,113,58.9301,0.0201968
,,,,,,,,,129,137.612,0.0147359
,,,,,,,,,146,44.904,0.0195734
,,,,,,,,,164,112.364,0.0152652
,,,,,,,,,183,62.2289,0.0154576
,,,,,,,,,203,135.281,0.0232509
,,,,,,,,,224,81.1828,0.0137773
,,,,,,,,,246,90.6738,0.0226034
,,,,,,,,,128,165.203,0.062096
,,,,,,,,,145,46.7102,0.0290252
,,,,,,,,,163,123.285,0.056557
,,,,,,,,,182,44.4061,0.0311526
,,,,,,,,,202,64.0996,0.0319646
,,,,,,,,,223,87.4204,0.10416
,,,,,,,,,245,79.7834,0.0255266
,,,,,,,,,268,108.788,0.092314
,,,,,,,,,162,142.768,0.0258374
,,,,,,,,,181,46.1862,0.0455953
,,,,,,,,,201,136.177,0.0275096
,,,,,,,,,222,104.477,0.0281409
,,,,,,,,,244,102.204,0.0721949
,,,,,,,,,267,95.3822,0.0230279
,,,,,,,,,291,72.0848,0.066298
,,,,,,,,,200,115.441,0.0248257
,,,,,,,,,221,25.4962,0.0182817
,,,,,,,,,243,75.5527,0.0185583
,,,,,,,,,266,40.9191,0.0310558
,,,,,,,,,290,64.0221,0.0161879
,,,,,,,,,315,74.4914,0.0299113
,,,,,,,,,242,95.2883,0.0263657
,,,,,,,,,265,59.1884,0.026945
,,,,,,,,,289,91.7361,0.0648148
,,,,,,,,,314,52.6916,0.0222208
,,,,,,,,,340,46.8409,0.0600219
,,,,,,,,,288,50.1485,0.0194056
,,,,,,,,,313,50.9567,0.0335038
,,,,,,,,,339,42.6768,0.0168289
,,,,,,,,,366,64.9019,0.0321757
,,,,,,,,,338,88.6419,0.0344449
,,,,,,,,,365,32.9087,0.0170631
,,,,,,,,,393,65.64,0.0330426
,,,,,,,,,392,59.1931,0.027084
,,,,,,,,,421,44.9802,0.116551
,,,,,,,,,450,34.4782,0.0262095
