"cellPairingIds","interplanarAngles","angleWeights"
8,49.6308,0.0367619
19,57.8419,0.0427484
26,61.7161,0.0489285
34,97.7804,0.0854661
53,69.2129,0.0514114
89,101.124,0.0752547
18,35.9507,0.0280057
25,29.0397,0.0289575
42,122.904,0.0437805
32,42.5499,0.0313503
51,127.662,0.0494916
62,57.587,0.0298077
87,96.6508,0.0321735
132,87.5092,0.0298025
149,117.54,0.0305085
167,118.032,0.0507509
50,42.558,0.0360111
73,36.7587,0.0308883
85,35.9222,0.0339905
99,56.4512,0.0419683
147,94.6647,0.0566099
204,82.3667,0.0642026
129,45.4858,0.0548976
164,58.46,0.112015
203,57.8865,0.0502211
245,76.5704,0.0495511
201,41.6138,0.0599602
266,37.2183,0.0324802
313,57.881,0.0465125
339,52.5564,0.118681
338,30.3339,0.0300655
365,57.4166,0.0495368
392,48.3146,0.0515184
