Q	U	V
{$V$}	{[mm$^3$]}	0.00350178
{$d_v$}	{[mm]}	0.188407
{$S_c$}	{[mm$^2$]}	0.165529
{$S_o$}	{[mm$^2$]}	0.099797
{$S_l/S_o$}	[]	0.658657
{$\Psi$}	[]	0.673704
{$\eta$}	[]	0.693226
{med($\theta_e$)}	{[$^\circ$]}	54.9463
{$\Upsilon$}	[]	16
{$\Xi$}	[]	11
