facetNormals:0,facetNormals:1,facetNormals:2,FacetCenters:0,FacetCenters:1,FacetCenters:2,FacetIds,relFacetSize,absFacetSize,cellPairingIds,interplanarAngles,angleWeights
-0.0910715,-0.160202,-0.942983,4.94706,7.41866,8.86795,1,0.144581,0.00742258,8,40.772,0.0527623
0.341345,0.345366,-0.840988,4.98892,7.46072,8.86542,2,0.0322692,0.00165665,13,36.759,0.0444323
0.485624,-0.324924,-0.801142,5.00277,7.41882,8.88318,3,0.0262496,0.00134762,19,45.3534,0.0364874
-0.677963,-0.426706,-0.563181,4.90453,7.401,8.89013,4,0.0208782,0.00107185,26,67.8907,0.00507812
0.890326,-0.175779,-0.443481,4.97757,7.35141,8.961,5,0.00258445,0.000132682,34,60.854,0.037772
-0.897278,-0.186256,-0.372622,4.87965,7.38864,8.90639,6,0.0217237,0.00111526,43,65.4504,0.124425
-0.79978,0.39342,-0.403846,4.89807,7.44485,8.90071,7,0.109201,0.00560623,53,58.4107,0.160004
0.422445,-0.768814,-0.432119,4.96465,7.36844,8.91305,8,0.17911,0.0091952,64,75.7105,0.0872263
-0.239017,-0.944849,-0.0619978,4.92125,7.3411,8.95009,9,0.0624518,0.00320618,76,85.315,0.0598878
-0.981091,0.136261,-0.0108345,4.88005,7.40599,8.94218,10,0.0377654,0.00193882,89,90.8707,0.0425791
-0.758872,-0.600908,0.190653,4.89035,7.35815,8.96664,11,0.0249658,0.0012817,103,98.0994,0.046709
0.218739,-0.923876,0.277842,4.96597,7.34298,8.98957,12,0.0278538,0.00142997,118,107.305,0.106206
-0.867023,-0.0796821,0.38593,4.88877,7.3846,8.97431,13,0.083929,0.00430879,134,102.66,0.0535632
-0.299735,-0.851184,0.39339,4.92125,7.35108,9.00195,14,0.0328704,0.00168752,151,137.248,0.0363798
0.47067,0.619261,0.571497,4.94406,7.40982,8.96159,15,0.0208077,0.00106824,169,137.556,0.0134015
-0.303525,0.669927,0.657044,4.9031,7.41397,8.97655,16,0.00702641,0.000360725,188,167.539,0.00873894
-0.119385,0.200968,0.97242,4.90671,7.39926,8.98676,17,0.00450564,0.000231312,18,40.949,0.0289498
,,,,,,,,,25,84.2763,0.025353
,,,,,,,,,33,51.0852,0.00478562
,,,,,,,,,42,93.4157,0.0259666
,,,,,,,,,52,77.6958,0.0498173
,,,,,,,,,63,75.2309,0.0546859
,,,,,,,,,75,112.033,0.0425517
,,,,,,,,,88,106.843,0.0348016
,,,,,,,,,102,130.87,0.0281515
,,,,,,,,,117,119.845,0.0298993
,,,,,,,,,133,134.482,0.0466155
,,,,,,,,,150,139.516,0.032567
,,,,,,,,,168,96.4988,0.025301
,,,,,,,,,187,116.331,0.01154
,,,,,,,,,207,144.342,0.00790722
,,,,,,,,,32,74.4317,0.0232578
,,,,,,,,,41,32.4945,0.0047056
,,,,,,,,,51,94.4844,0.0237731
,,,,,,,,,62,101.454,0.0423252
,,,,,,,,,74,34.288,0.0457886
,,,,,,,,,87,75.6135,0.036963
,,,,,,,,,101,121.419,0.0309717
,,,,,,,,,116,109.467,0.0255916
,,,,,,,,,132,79.1988,0.0270279
,,,,,,,,,149,138.231,0.0399915
,,,,,,,,,167,100.874,0.0291893
,,,,,,,,,186,116.731,0.023214
,,,,,,,,,206,155.726,0.0110855
,,,,,,,,,227,155.488,0.00769113
,,,,,,,,,50,106.375,0.00459953
,,,,,,,,,61,22.0828,0.0212925
,,,,,,,,,73,51.0946,0.0350544
,,,,,,,,,86,72.6838,0.0373971
,,,,,,,,,100,51.1296,0.0312944
,,,,,,,,,115,50.797,0.0268904
,,,,,,,,,131,46.6208,0.0227398
,,,,,,,,,148,84.7016,0.0238667
,,,,,,,,,166,64.2976,0.0334383
,,,,,,,,,185,69.0379,0.0255365
,,,,,,,,,205,163.28,0.0208429
,,,,,,,,,226,117.781,0.0105143
,,,,,,,,,248,124.341,0.00741177
,,,,,,,,,72,126.966,0.00461934
,,,,,,,,,85,127.531,0.00504939
,,,,,,,,,99,44.6334,0.00509537
,,,,,,,,,114,91.1166,0.00496349
,,,,,,,,,130,153.144,0.00483782
,,,,,,,,,147,131.061,0.00468401
,,,,,,,,,165,76.4605,0.00473002
,,,,,,,,,184,164.974,0.00501449
,,,,,,,,,204,107.059,0.00479212
,,,,,,,,,225,86.663,0.00459782
,,,,,,,,,247,133,0.00377893
,,,,,,,,,270,124.547,0.00328475
,,,,,,,,,98,34.8065,0.0362384
,,,,,,,,,113,94.4368,0.0387477
,,,,,,,,,129,64.6554,0.0322346
,,,,,,,,,146,28.7701,0.0275816
,,,,,,,,,164,42.3058,0.0232321
,,,,,,,,,183,97.4992,0.0244097
,,,,,,,,,203,46.4614,0.034514
,,,,,,,,,224,73.2357,0.0261591
,,,,,,,,,246,141.824,0.0212558
,,,,,,,,,269,95.7213,0.0106184
,,,,,,,,,293,107.205,0.00746333
,,,,,,,,,128,119.131,0.13568
,,,,,,,,,145,99.3664,0.0794605
,,,,,,,,,163,29.6192,0.056122
,,,,,,,,,182,72.299,0.0406403
,,,,,,,,,202,132.232,0.0443861
,,,,,,,,,223,57.0983,0.0949117
,,,,,,,,,245,105.29,0.0505307
,,,,,,,,,268,112.642,0.034955
,,,,,,,,,292,75.5403,0.0132033
,,,,,,,,,317,102.881,0.0086542
,,,,,,,,,162,46.9234,0.0926118
,,,,,,,,,181,122.085,0.0623783
,,,,,,,,,201,86.4927,0.0438231
,,,,,,,,,222,45.1167,0.0482102
,,,,,,,,,244,120.436,0.114299
,,,,,,,,,267,68.1816,0.0555468
,,,,,,,,,291,123.738,0.037284
,,,,,,,,,316,164.03,0.0135223
,,,,,,,,,342,129.732,0.00879015
,,,,,,,,,200,83.684,0.0470681
,,,,,,,,,221,40.0675,0.0356715
,,,,,,,,,243,33.7332,0.0385252
,,,,,,,,,266,73.857,0.0716148
,,,,,,,,,290,27.6625,0.0430711
,,,,,,,,,315,141.048,0.0312152
,,,,,,,,,341,128.622,0.0126316
,,,,,,,,,368,103.116,0.0084049
,,,,,,,,,242,47.4726,0.0300598
,,,,,,,,,265,110.521,0.032061
,,,,,,,,,289,27.6587,0.0520914
,,,,,,,,,314,79.7321,0.0351483
,,,,,,,,,340,113.653,0.0268318
,,,,,,,,,367,66.9848,0.0118484
,,,,,,,,,395,82.2278,0.00805077
,,,,,,,,,288,63.0614,0.0263308
,,,,,,,,,313,33.9492,0.038484
,,,,,,,,,339,33.0634,0.0283779
,,,,,,,,,366,130.651,0.0226979
,,,,,,,,,394,92.7664,0.0109664
,,,,,,,,,423,80.9485,0.00763362
,,,,,,,,,338,90.5357,0.0418265
,,,,,,,,,365,31.5235,0.0301549
,,,,,,,,,393,108.97,0.0238206
,,,,,,,,,422,121.02,0.011222
,,,,,,,,,452,86.6163,0.00775657
,,,,,,,,,392,59.2387,0.0472396
,,,,,,,,,421,104.932,0.0333478
,,,,,,,,,451,60.4409,0.0129672
,,,,,,,,,482,60.9309,0.00855216
,,,,,,,,,450,117.814,0.0254837
,,,,,,,,,481,103.144,0.0115779
,,,,,,,,,513,75.4549,0.00792498
,,,,,,,,,512,47.1399,0.0105053
,,,,,,,,,545,49.7284,0.00740732
,,,,,,,,,578,34.8144,0.00549052
