"cellPairingIds","interplanarAngles","angleWeights"
8,53.6619,0.0101932
13,44.151,0.0131023
19,22.4991,0.0111378
18,51.7408,0.0338308
25,71.476,0.0232446
33,32.1385,0.0304539
42,72.5869,0.0307107
63,112.088,0.0339654
32,64.6948,0.0470847
41,72.5466,0.0904637
101,101.962,0.141399
86,60.4508,0.0473456
115,99.7747,0.0486995
72,63.1306,0.0711377
85,36.705,0.0523766
114,77.0505,0.0525281
130,151.413,0.0966191
98,30.5582,0.053141
113,65.0328,0.0937871
129,44.418,0.053297
145,44.7782,0.0420203
162,80.3083,0.0639279
181,82.3993,0.143779
200,100.305,0.066421
