facetNormals:0,facetNormals:1,facetNormals:2,FacetCenters:0,FacetCenters:1,FacetCenters:2,FacetIds,relFacetSize,absFacetSize,cellPairingIds,interplanarAngles,angleWeights
-0.297891,0.0974301,-0.927075,5.90783,3.88649,6.3453,1,0.0515354,0.00665388,8,32.1792,0.0177312
-0.424537,-0.41845,-0.796204,5.85207,3.84366,6.36282,2,0.0107076,0.00138249,13,55.939,0.022488
0.5901,-0.12393,-0.790376,5.91341,3.77069,6.37829,3,0.0143818,0.00185688,19,41.9887,0.0327518
-0.014996,0.687216,-0.683553,5.87603,3.89609,6.3703,4,0.0240032,0.00309912,26,62.443,0.0256503
0.505913,-0.489625,-0.698267,5.93746,3.78548,6.38341,5,0.0170742,0.0022045,34,54.7009,0.0435495
-0.751376,0.49243,-0.280965,5.87067,3.90686,6.38508,6,0.0377066,0.0048684,43,94.2799,0.0421705
0.67527,-0.671371,-0.210708,5.94159,3.77583,6.40602,7,0.0356857,0.00460749,53,127.634,0.0584412
0.836237,0.327057,0.399001,5.92933,3.79793,6.47213,8,0.0674841,0.00871306,64,104.301,0.0650404
0.0557604,0.915105,0.332547,5.83725,3.875,6.46052,9,0.0881368,0.0113796,76,106.556,0.0623417
-0.343355,0.777689,0.486708,5.89159,3.89791,6.4456,10,0.0788824,0.0101847,89,135.637,0.0789413
0.848304,-0.15633,0.442682,5.93544,3.80975,6.46016,11,0.168601,0.0217686,103,129.653,0.045429
0.312396,0.682181,0.632256,5.88883,3.84986,6.48186,12,0.0406164,0.0052441,118,154.316,0.0199888
0.3343,0.335801,0.871791,5.88678,3.74042,6.53316,13,0.012399,0.00160087,134,162.595,0.0634971
0.00652874,-0.125963,0.931853,5.87038,3.7118,6.53821,14,0.0826898,0.0106763,18,64.1809,0.0122757
,,,,,,,,,25,74.1679,0.014809
,,,,,,,,,33,56.3805,0.0131614
,,,,,,,,,42,68.9261,0.0166789
,,,,,,,,,52,80.3846,0.0164726
,,,,,,,,,63,145.931,0.0184826
,,,,,,,,,75,133.799,0.0190954
,,,,,,,,,88,125.601,0.0188557
,,,,,,,,,102,132.154,0.0201364
,,,,,,,,,117,160.777,0.0169474
,,,,,,,,,133,171.699,0.0114914
,,,,,,,,,150,137.721,0.0189601
,,,,,,,,,32,62.4154,0.0179867
,,,,,,,,,41,22.441,0.0156128
,,,,,,,,,51,107.562,0.0208219
,,,,,,,,,62,48.0411,0.0205013
,,,,,,,,,74,81.9037,0.0237106
,,,,,,,,,87,110.741,0.0247285
,,,,,,,,,101,134.592,0.0243281
,,,,,,,,,116,79.8368,0.0265029
,,,,,,,,,132,114.205,0.0212421
,,,,,,,,,149,122.734,0.013317
,,,,,,,,,167,140.089,0.0245021
,,,,,,,,,50,82.0326,0.0199543
,,,,,,,,,61,53.5804,0.0293334
,,,,,,,,,73,110.266,0.0287012
,,,,,,,,,86,93.6429,0.0354111
,,,,,,,,,100,64.9211,0.0377307
,,,,,,,,,115,77.4156,0.0368065
,,,,,,,,,131,116.73,0.0420236
,,,,,,,,,148,88.0756,0.0301742
,,,,,,,,,166,112.633,0.0163515
,,,,,,,,,185,142.545,0.0372062
,,,,,,,,,72,117.09,0.023505
,,,,,,,,,85,32.2933,0.0230973
,,,,,,,,,99,90.9222,0.0272531
,,,,,,,,,114,132.398,0.0286067
,,,,,,,,,130,157.031,0.0280722
,,,,,,,,,147,78.2001,0.0310083
,,,,,,,,,165,129.393,0.0240418
,,,,,,,,,184,127.873,0.0143658
,,,,,,,,,204,128.913,0.0283041
,,,,,,,,,98,148.034,0.0366683
,,,,,,,,,113,128.788,0.0483806
,,,,,,,,,129,69.9118,0.052817
,,,,,,,,,146,56.8508,0.0510234
,,,,,,,,,164,156.791,0.06163
,,,,,,,,,183,94.7478,0.0391074
,,,,,,,,,203,110.742,0.0186615
,,,,,,,,,224,111.803,0.0517947
,,,,,,,,,128,74.1926,0.0466846
,,,,,,,,,145,132.846,0.0508022
,,,,,,,,,163,153.71,0.0491406
,,,,,,,,,182,51.8176,0.058904
,,,,,,,,,202,113.415,0.0379918
,,,,,,,,,223,100.925,0.0184036
,,,,,,,,,245,96.7236,0.0498557
,,,,,,,,,162,60.0361,0.07644
,,,,,,,,,181,80.3455,0.0727394
,,,,,,,,,201,28.792,0.096388
,,,,,,,,,222,40.1764,0.0507114
,,,,,,,,,244,40.8727,0.020949
,,,,,,,,,267,68.6707,0.0743171
,,,,,,,,,200,26.579,0.0832532
,,,,,,,,,221,86.8805,0.11576
,,,,,,,,,243,27.0866,0.0556072
,,,,,,,,,266,50.4752,0.0217397
,,,,,,,,,290,77.7247,0.0853265
,,,,,,,,,242,101.995,0.107479
,,,,,,,,,265,40.4883,0.0536226
,,,,,,,,,289,54.0467,0.0214296
,,,,,,,,,314,67.4441,0.0807413
,,,,,,,,,288,62.5687,0.0654627
,,,,,,,,,313,50.1056,0.0230993
,,,,,,,,,339,61.3059,0.11096
,,,,,,,,,338,24.6695,0.0189983
,,,,,,,,,365,56.7948,0.0544752
,,,,,,,,,392,34.1393,0.0215645
