"cellPairingIds","interplanarAngles","angleWeights"
8,46.1912,0.0608526
19,47.8153,0.0259238
26,67.368,0.107206
34,61.1054,0.117867
64,68.176,0.0172229
25,45.9624,0.021638
33,49.6918,0.0589336
52,29.1154,0.0490645
88,80.4505,0.00744795
73,36.3814,0.0235168
86,37.4758,0.0262796
100,39.1598,0.0113838
72,79.0215,0.110874
130,40.6855,0.00786411
204,73.2422,0.00950064
129,96.0345,0.017315
183,71.4506,0.132088
224,73.8885,0.00957741
318,91.2844,0.0210668
128,39.705,0.0818417
163,90.7998,0.00765855
223,57.8669,0.0172619
162,44.4209,0.0173793
244,50.4779,0.0187054
291,45.0075,0.0568756
369,118.26,0.021162
243,48.6957,0.0174982
315,42.0244,0.0148426
396,117.314,0.0103044
289,75.3071,0.00582022
314,45.1959,0.00449331
395,47.3796,0.00647801
483,76.2166,0.0213387
482,40.8699,0.0122359
514,83.8193,0.0107565
513,57.5646,0.00754918
546,39.3678,0.00695871
579,81.8186,0.0175167
648,52.5253,0.0132415
