"cellPairingIds","interplanarAngles","angleWeights"
8,96.8378,0.0163375
13,112.873,0.0146966
43,82.8724,0.0066229
53,134.272,0.0155511
76,115.515,0.0137714
89,86.4967,0.0159752
134,88.9116,0.0145774
18,73.401,0.0771165
42,54.3524,0.0397417
52,55.6926,0.0104258
32,23.1265,0.054794
41,34.0545,0.0419583
51,62.7185,0.0312534
74,56.0278,0.0622565
50,27.6472,0.0448794
61,39.6981,0.0328458
72,51.292,0.027756
99,26.7124,0.0497653
98,80.1792,0.00869983
113,69.385,0.0353886
129,45.0299,0.0292454
183,64.3141,0.0279791
203,58.2994,0.0170262
246,75.4788,0.0375105
145,46.661,0.00952866
182,37.613,0.0102771
223,59.8651,0.00772283
181,33.4316,0.0484638
222,33.1662,0.0504872
266,23.3846,0.0205192
265,30.9634,0.0355654
314,67.7781,0.0401139
340,47.7524,0.0525335
313,43.0912,0.0243358
339,30.4667,0.0670623
366,54.2845,0.11089
393,32.8737,0.0549195
421,29.3764,0.0242715
450,37.955,0.0665766
