"cellPairingIds","interplanarAngles","angleWeights"
18,43.004,0.0611215
42,47.9616,0.0257355
63,54.6332,0.0473233
75,87.5024,0.0113394
51,31.9342,0.022588
87,120.572,0.0106835
149,65.8274,0.0503674
113,81.3921,0.0203909
203,66.2318,0.0236127
269,69.0058,0.0108207
293,77.1843,0.0212534
162,63.9822,0.0101654
316,76.8961,0.0133887
266,152.223,0.0109073
341,124.35,0.00705483
368,144.164,0.0103753
482,39.99,0.0441807
578,42.123,0.0137552
