Q	U	V
{$V$}	{[mm$^3$]}	0.00751891
{$d_v$}	{[mm]}	0.243063
{$S_c$}	{[mm$^2$]}	0.33991
{$S_o$}	{[mm$^2$]}	0.214598
{$S_l/S_o$}	[]	0.583938
{$\Psi$}	[]	0.546039
{$\eta$}	[]	0.553523
{med($\theta_e$)}	{[$^\circ$]}	62.7936
{$\Upsilon$}	[]	10
{$\Xi$}	[]	5
