"cellPairingIds","interplanarAngles","angleWeights"
8,35.2319,0.0478889
19,64.0907,0.0124232
26,38.9304,0.01086
34,56.1787,0.0330097
43,53.0221,0.0464106
25,86.0725,0.0147295
42,49.1368,0.0565263
63,54.5761,0.0594422
88,80.3408,0.0668029
73,64.927,0.0145865
115,126.782,0.013408
131,50.6994,0.0101959
185,100.508,0.0145412
205,111.371,0.0148459
72,28.3298,0.0112498
85,45.745,0.0124777
114,55.7196,0.010954
113,57.4769,0.0381162
129,36.7618,0.0338941
145,86.034,0.048178
182,43.6478,0.025555
245,77.2536,0.101809
162,61.0701,0.0349212
181,32.0404,0.0425277
200,79.1816,0.0373382
266,49.3811,0.0454224
290,80.5939,0.0476871
289,70.9497,0.0591934
340,69.8915,0.0692675
339,53.4852,0.0254162
392,46.9942,0.0902398
421,42.199,0.103411
450,45.7306,0.115948
