"cellPairingIds","interplanarAngles","angleWeights"
8,21.1128,0.0178045
13,33.8041,0.0246654
26,53.8387,0.0179203
34,70.0732,0.0233403
53,69.8229,0.0191683
134,120.629,0.0211402
18,25.0408,0.0245006
63,61.5761,0.0190686
75,57.401,0.0214414
88,56.7617,0.0301395
51,54.8784,0.0363717
87,45.2327,0.0322417
186,85.9038,0.00792041
72,32.3801,0.0233897
204,86.1486,0.0211807
183,60.0305,0.0055184
224,100.06,0.0291932
246,90.9313,0.0077786
181,38.4641,0.0342666
244,36.473,0.0180526
267,109.911,0.0229464
200,48.7789,0.0427726
315,41.4299,0.00757119
242,27.4127,0.110565
289,28.4987,0.0276775
340,62.126,0.00843029
313,36.0574,0.0283646
366,34.7936,0.00849296
365,42.178,0.00538587
393,106.375,0.00357176
392,113.747,0.0197913
421,63.9679,0.00690462
514,43.3096,0.021054
450,121.487,0.00751785
546,85.4403,0.0280243
579,51.9807,0.00769311
