"cellPairingIds","interplanarAngles","angleWeights"
63,100.657,0.0157991
117,127.368,0.00881765
150,118.53,0.0272839
168,142.168,0.0137994
222,40.9052,0.00877625
267,90.0389,0.0268914
365,99.3792,0.0114546
393,82.9103,0.0081224
450,69.3788,0.0215708
