Q	U	V
{$V$}	{[mm$^3$]}	0.0121915
{$d_v$}	{[mm]}	0.285553
{$S_c$}	{[mm$^2$]}	0.410461
{$S_o$}	{[mm$^2$]}	0.279986
{$S_l/S_o$}	[]	0.466005
{$\Psi$}	[]	0.624094
{$\eta$}	[]	0.646035
{med($\theta_e$)}	{[$^\circ$]}	58.7948
{$\Upsilon$}	[]	19
{$\Xi$}	[]	14
