facetNormals:0,facetNormals:1,facetNormals:2,FacetCenters:0,FacetCenters:1,FacetCenters:2,FacetIds,relFacetSize,absFacetSize,cellPairingIds,interplanarAngles,angleWeights
-0.0135253,-0.686766,-0.641908,7.41846,7.54277,5.68526,1,0.0489026,0.0128927,8,68.6162,0.0701464
0.631355,0.167866,-0.706927,7.46828,7.62811,5.65342,2,0.124024,0.0326977,13,82.8774,0.0513608
-0.797648,0.301231,-0.483475,7.31654,7.6518,5.66522,3,0.0540793,0.0142575,19,28.1268,0.054444
-0.0659957,-0.883736,-0.238505,7.39291,7.52694,5.70505,4,0.0614018,0.016188,26,47.9137,0.0236194
-0.247047,-0.955522,0.0570473,7.3875,7.53955,5.68503,5,0.0155697,0.0041048,34,64.2241,0.0193436
-0.752463,-0.627238,0.0617853,7.38794,7.58692,5.66604,6,0.0120563,0.00317852,43,141.114,0.0169575
-0.564353,0.717101,0.365251,7.35774,7.69143,5.76595,7,0.0102571,0.0027042,53,152.221,0.0674744
0.100179,0.929812,0.26138,7.39439,7.6948,5.7685,8,0.10879,0.0286813,64,81.2368,0.049163
0.381364,-0.702578,0.529663,7.45557,7.53957,5.80205,9,0.0494262,0.0130307,76,132.583,0.0649348
0.589802,0.200196,0.707679,7.45778,7.61808,5.81646,10,0.096606,0.0254693,89,117.751,0.0674764
-0.41421,-0.175974,0.85734,7.46886,7.651,5.64316,11,0.1088,0.0286841,18,96.7718,0.0753173
,,,,,,,,,25,91.3888,0.0821385
,,,,,,,,,33,112.015,0.0276662
,,,,,,,,,42,131.338,0.0219763
,,,,,,,,,52,121.485,0.0189473
,,,,,,,,,63,87.8812,0.115908
,,,,,,,,,75,105.817,0.0706835
,,,,,,,,,88,95.9646,0.108611
,,,,,,,,,102,164.27,0.115914
,,,,,,,,,32,96.271,0.0575084
,,,,,,,,,41,97.016,0.0241783
,,,,,,,,,51,66.6458,0.0197169
,,,,,,,,,62,59.4585,0.0172437
,,,,,,,,,74,85.5523,0.0722454
,,,,,,,,,87,145.209,0.0516482
,,,,,,,,,101,144.502,0.0693417
,,,,,,,,,116,98.3068,0.0722478
,,,,,,,,,50,20.9774,0.0248405
,,,,,,,,,61,49.1467,0.0201551
,,,,,,,,,73,139.272,0.0175779
,,,,,,,,,86,178.106,0.0784984
,,,,,,,,,100,57.7667,0.054767
,,,,,,,,,115,116.396,0.0750822
,,,,,,,,,131,91.3947,0.0785012
,,,,,,,,,72,35.6239,0.0135896
,,,,,,,,,85,122.699,0.012367
,,,,,,,,,99,159.353,0.0272407
,,,,,,,,,114,50.1609,0.02368
,,,,,,,,,130,108.559,0.0268173
,,,,,,,,,147,70.5092,0.0272411
,,,,,,,,,98,90.1527,0.0110842
,,,,,,,,,113,132.38,0.021707
,,,,,,,,,129,78.5752,0.0193843
,,,,,,,,,146,124.615,0.0214372
,,,,,,,,,164,60.0128,0.0217072
,,,,,,,,,128,42.3213,0.0187468
,,,,,,,,,145,123.89,0.0169887
,,,,,,,,,163,85.7182,0.0185452
,,,,,,,,,182,63.7656,0.0187469
,,,,,,,,,162,120.787,0.0679712
,,,,,,,,,181,61.9691,0.102336
,,,,,,,,,201,88.8437,0.108795
,,,,,,,,,200,59.4802,0.0653947
,,,,,,,,,221,63.1229,0.0679733
,,,,,,,,,242,68.996,0.102341
