facetNormals:0,facetNormals:1,facetNormals:2,FacetCenters:0,FacetCenters:1,FacetCenters:2,FacetIds,relFacetSize,absFacetSize,cellPairingIds,interplanarAngles,angleWeights
0.366491,0.463443,-0.757176,5.35838,7.03565,7.73211,1,0.016524,0.00104024,8,91.2118,0.0305179
-0.882925,0.199832,-0.27963,5.34484,7.05164,7.72528,2,0.199311,0.0125473,13,130.396,0.0290965
-0.538261,-0.783171,0.0420513,5.36628,6.96599,7.72436,3,0.121672,0.00765964,19,73.9101,0.0243799
-0.1953,0.952418,0.142961,5.38968,7.13095,7.75935,4,0.0464755,0.00292579,26,97.8748,0.0299929
0.818822,-0.174185,0.455326,5.42567,7.04117,7.77627,5,0.162221,0.0102124,34,94.1075,0.019732
-0.0116733,0.802571,0.5753,5.38172,7.10415,7.79032,6,0.0244856,0.00154145,43,166.293,0.0233193
-0.551635,-0.48692,0.623257,5.34447,7.00816,7.79333,7,0.0396072,0.00249341,53,136.968,0.0227723
-0.734254,0.13378,0.635133,5.33433,7.07026,7.78916,8,0.0366193,0.00230531,64,100.166,0.0160101
0.308494,0.584659,0.727184,5.39593,7.10477,7.79211,9,0.0155272,0.000977487,76,145.47,0.0189103
0.204035,-0.458861,0.84557,5.39268,7.00986,7.81073,10,0.0221021,0.0013914,89,145.407,0.0272782
-0.292912,0.0818641,0.932351,5.37434,7.06019,7.81025,11,0.0781214,0.00491801,18,70.0856,0.151102
,,,,,,,,,25,69.7154,0.075375
,,,,,,,,,33,168.603,0.178864
,,,,,,,,,42,89.3989,0.0436132
,,,,,,,,,52,76.3588,0.0660824
,,,,,,,,,63,57.6076,0.0618711
,,,,,,,,,75,112.671,0.0288099
,,,,,,,,,88,123.059,0.0397916
,,,,,,,,,102,89.1203,0.112247
,,,,,,,,,32,132.771,0.0672596
,,,,,,,,,41,108.336,0.139051
,,,,,,,,,51,129.544,0.0407671
,,,,,,,,,62,39.8236,0.0597607
,,,,,,,,,74,70.11,0.0562955
,,,,,,,,,87,129.4,0.0275398
,,,,,,,,,101,72.2563,0.0374087
,,,,,,,,,116,81.8186,0.09515
,,,,,,,,,50,106.165,0.0722514
,,,,,,,,,61,28.9828,0.0320734
,,,,,,,,,73,106.36,0.0427673
,,,,,,,,,86,67.9454,0.0409629
,,,,,,,,,100,51.5481,0.0232775
,,,,,,,,,115,111.614,0.0299575
,,,,,,,,,131,73.8252,0.0582796
,,,,,,,,,72,83.1285,0.0425489
,,,,,,,,,85,95.1879,0.0636692
,,,,,,,,,99,111.043,0.0597507
,,,,,,,,,114,59.0338,0.0283416
,,,,,,,,,130,47.5952,0.0389037
,,,,,,,,,147,79.4932,0.105457
,,,,,,,,,98,91.5519,0.0302625
,,,,,,,,,113,60.1753,0.0293477
,,,,,,,,,129,24.3769,0.0190035
,,,,,,,,,146,83.1517,0.0232329
,,,,,,,,,164,51.3024,0.0372849
,,,,,,,,,128,38.8705,0.0380547
,,,,,,,,,145,90.0989,0.0223087
,,,,,,,,,163,47.7286,0.0283718
,,,,,,,,,182,41.9964,0.0525644
,,,,,,,,,162,70.9997,0.0218076
,,,,,,,,,181,70.2394,0.0275662
,,,,,,,,,201,31.6458,0.0498646
,,,,,,,,,200,64.9281,0.0182402
,,,,,,,,,221,48.748,0.0259054
,,,,,,,,,242,44.2341,0.0344559
