Q	U	V
{$V$}	{[mm$^3$]}	0.00306124
{$d_v$}	{[mm]}	0.180149
{$S_c$}	{[mm$^2$]}	0.17401
{$S_o$}	{[mm$^2$]}	0.108564
{$S_l/S_o$}	[]	0.602833
{$\Psi$}	[]	0.585924
{$\eta$}	[]	0.625453
{med($\theta_e$)}	{[$^\circ$]}	48.56765
{$\Upsilon$}	[]	15
{$\Xi$}	[]	6
