Q	U	V
{$V$}	{[mm$^3$]}	0.00206141
{$d_v$}	{[mm]}	0.157902
{$S_c$}	{[mm$^2$]}	0.186236
{$S_o$}	{[mm$^2$]}	0.0903813
{$S_l/S_o$}	[]	1.060559
{$\Psi$}	[]	0.420594
{$\eta$}	[]	0.460977
{med($\theta_e$)}	{[$^\circ$]}	51.8769
{$\Upsilon$}	[]	17
{$\Xi$}	[]	7
