Q	U	V
{$V$}	{[mm$^3$]}	0.0137494
{$d_v$}	{[mm]}	0.297232
{$S_c$}	{[mm$^2$]}	0.481814
{$S_o$}	{[mm$^2$]}	0.33977
{$S_l/S_o$}	[]	0.418059
{$\Psi$}	[]	0.57605
{$\eta$}	[]	0.597185
{med($\theta_e$)}	{[$^\circ$]}	68.764
{$\Upsilon$}	[]	9
{$\Xi$}	[]	15
