"cellPairingIds","interplanarAngles","angleWeights"
8,44.3245,0.0723668
26,57.03,0.107715
43,89.8132,0.0625074
25,44.577,0.0494748
33,60.3416,0.0804465
52,133.641,0.0522329
75,64.8963,0.0829225
61,47.3914,0.0302201
73,156.092,0.044659
100,38.046,0.0653323
148,68.3041,0.0316479
85,104.953,0.0684452
99,32.0817,0.0318927
114,78.767,0.132896
98,114.426,0.0312273
183,44.2232,0.0242548
128,125.798,0.0262678
202,111.154,0.0327543
223,111.999,0.0470001
162,50.4206,0.0322748
244,57.6949,0.026301
243,54.8623,0.0426534
266,48.8538,0.0704673
338,43.1572,0.0328059
