Q	U	V
{$V$}	{[mm$^3$]}	0.00408719
{$d_v$}	{[mm]}	0.198370
{$S_c$}	{[mm$^2$]}	0.191285
{$S_o$}	{[mm$^2$]}	0.118853
{$S_l/S_o$}	[]	0.609425
{$\Psi$}	[]	0.646279
{$\eta$}	[]	0.667444
{med($\theta_e$)}	{[$^\circ$]}	54.2273
{$\Upsilon$}	[]	18
{$\Xi$}	[]	7
