Q	U	V
{$V$}	{[mm$^3$]}	0.0136936
{$d_v$}	{[mm]}	0.296829
{$S_c$}	{[mm$^2$]}	0.547717
{$S_o$}	{[mm$^2$]}	0.379198
{$S_l/S_o$}	[]	0.444409
{$\Psi$}	[]	0.505366
{$\eta$}	[]	0.551354
{med($\theta_e$)}	{[$^\circ$]}	69.4399
{$\Upsilon$}	[]	11
{$\Xi$}	[]	7
