facetNormals:0,facetNormals:1,facetNormals:2,FacetCenters:0,FacetCenters:1,FacetCenters:2,FacetIds,relFacetSize,absFacetSize,cellPairingIds,interplanarAngles,angleWeights
-0.339143,-0.236677,-0.871103,5.72659,5.75688,8.48713,1,0.0522924,0.00807335,8,68.0235,0.046399
0.512731,0.383162,-0.695193,5.79552,5.7675,8.49503,2,0.0416993,0.0064379,13,66.6908,0.051987
0.669423,-0.389904,-0.578083,5.82662,5.7219,8.49999,3,0.0516851,0.00797959,19,33.239,0.0211946
-0.597236,-0.593765,-0.524983,5.7106,5.79514,8.4582,4,0.0132907,0.00205193,26,45.1005,0.0608896
-0.0831786,-0.829363,-0.502962,5.76157,5.68958,8.5059,5,0.0728698,0.0112503,34,94.0865,0.0459119
0.489312,-0.814983,0.106383,5.84967,5.75531,8.50367,6,0.0409191,0.00631744,43,65.7804,0.0784179
-0.922688,-0.154352,-0.0238085,5.68182,5.77996,8.5497,7,0.156711,0.0241944,53,118.756,0.019886
0.881152,-0.347028,0.276652,5.83604,5.71431,8.55343,8,0.0122775,0.0018955,64,109.618,0.0473446
-0.729617,0.260167,0.571053,5.69138,5.82509,8.62699,9,0.0432521,0.00667764,76,98.0727,0.0450428
-0.582857,-0.579327,0.536923,5.71614,5.76733,8.59784,10,0.0395585,0.00610738,89,109.704,0.0592765
-0.10228,-0.748066,0.603915,5.75675,5.70071,8.59605,11,0.0684137,0.0105623,103,152.583,0.0734933
0.725169,0.153331,0.635236,5.78887,5.79125,8.61675,12,0.123607,0.0190835,18,49.2943,0.0461583
,,,,,,,,,25,100.367,0.0201569
,,,,,,,,,33,90.671,0.0530443
,,,,,,,,,42,98.6113,0.0413055
,,,,,,,,,52,125.671,0.065871
,,,,,,,,,63,82.202,0.0189697
,,,,,,,,,75,137.585,0.0424615
,,,,,,,,,88,164.543,0.0406007
,,,,,,,,,102,146.164,0.051816
,,,,,,,,,117,90.686,0.062361
,,,,,,,,,32,81.8982,0.0211442
,,,,,,,,,41,53.5976,0.0604759
,,,,,,,,,51,50.8433,0.0456763
,,,,,,,,,62,126.948,0.077733
,,,,,,,,,74,53.6506,0.0198417
,,,,,,,,,87,171.489,0.0470941
,,,,,,,,,101,120.017,0.044816
,,,,,,,,,116,97.7427,0.0588844
,,,,,,,,,132,86.449,0.0728914
,,,,,,,,,50,33.4419,0.0224811
,,,,,,,,,61,81.7735,0.0200644
,,,,,,,,,73,45.1289,0.0245033
,,,,,,,,,86,118.384,0.012764
,,,,,,,,,100,91.111,0.0203333
,,,,,,,,,115,65.097,0.0198966
,,,,,,,,,131,78.6873,0.0222575
,,,,,,,,,148,152.288,0.0240008
,,,,,,,,,72,51.3403,0.0524087
,,,,,,,,,85,76.2372,0.0994813
,,,,,,,,,99,85.499,0.0210143
,,,,,,,,,114,118.171,0.0542839
,,,,,,,,,130,74.2811,0.0512793
,,,,,,,,,147,69.7887,0.0705715
,,,,,,,,,165,122.242,0.0916874
,,,,,,,,,98,111.511,0.0648937
,,,,,,,,,113,38.0242,0.0188878
,,,,,,,,,129,123.517,0.0420533
,,,,,,,,,146,74.9344,0.0402273
,,,,,,,,,164,47.5781,0.0512093
,,,,,,,,,183,71.4241,0.0614843
,,,,,,,,,128,146.069,0.0227709
,,,,,,,,,145,46.5408,0.0677934
,,,,,,,,,163,48.0214,0.0631708
,,,,,,,,,182,77.524,0.0952466
,,,,,,,,,202,140.798,0.138204
,,,,,,,,,162,127.288,0.0191259
,,,,,,,,,181,99.7492,0.018739
,,,,,,,,,201,69.3402,0.0208188
,,,,,,,,,222,37.7496,0.0223363
,,,,,,,,,200,52.0353,0.0413229
,,,,,,,,,221,76.0142,0.0529981
,,,,,,,,,243,97.7358,0.0640812
,,,,,,,,,242,30.5619,0.0501304
,,,,,,,,,265,100.245,0.0599356
,,,,,,,,,288,78.0913,0.0880782
