facetNormals:0,facetNormals:1,facetNormals:2,FacetCenters:0,FacetCenters:1,FacetCenters:2,FacetIds,relFacetSize,absFacetSize,cellPairingIds,interplanarAngles,angleWeights
0.380026,-0.123676,-0.893624,7.02604,7.69,8.87286,1,0.0185423,0.00353683,8,25.9771,0.0213225
0.0469188,-0.411155,-0.88722,6.98816,7.65711,8.87027,2,0.0250834,0.0047845,13,55.2665,0.0307606
-0.0251716,0.611238,-0.654429,7.03631,7.70252,8.88362,3,0.0901912,0.0172034,19,30.9676,0.0119996
0.792827,0.00834563,-0.595273,7.06878,7.71268,8.90931,4,0.0088698,0.00169185,26,50.0393,0.0303751
0.548989,-0.73377,-0.356908,7.01383,7.62981,8.92788,5,0.0839427,0.0160115,34,77.8954,0.0329087
-0.64413,-0.600675,-0.414385,6.8641,7.62086,8.97611,6,0.146121,0.0278717,43,69.5486,0.0223084
0.277407,-0.942261,-0.130914,7.00018,7.61262,8.9801,7,0.0279941,0.00533969,53,125.23,0.0237023
-0.657755,0.63041,0.226243,7.03096,7.66855,8.9471,8,0.0328413,0.00626427,64,81.7152,0.0315975
0.617437,-0.718448,0.208884,7.01173,7.6219,9.01087,9,0.106774,0.0203664,76,96.8964,0.0225263
0.637231,0.676083,0.306088,7.08026,7.73755,8.98461,10,0.0286907,0.00547256,89,112.357,0.0231717
0.691059,0.0704313,0.692981,7.03181,7.68726,9.04468,11,0.0308817,0.00589049,103,155.989,0.0274785
-0.595212,-0.16813,0.71978,6.83439,7.65855,9.08193,12,0.0530402,0.0101171,118,139.421,0.030177
0.267272,-0.0039397,0.87704,6.97942,7.64742,9.05464,13,0.0810036,0.0154509,18,68.0286,0.0392507
,,,,,,,,,25,54.626,0.0131054
,,,,,,,,,33,48.01,0.0386251
,,,,,,,,,42,52.1727,0.0428169
,,,,,,,,,52,57.8256,0.026459
,,,,,,,,,63,122.278,0.0284429
,,,,,,,,,75,81.5814,0.0406236
,,,,,,,,,88,122.863,0.0267661
,,,,,,,,,102,129.528,0.0276822
,,,,,,,,,117,130.017,0.0340596
,,,,,,,,,133,148.334,0.0383053
,,,,,,,,,32,65.0466,0.0161512
,,,,,,,,,41,105.049,0.0869548
,,,,,,,,,51,95.248,0.111538
,,,,,,,,,62,124.066,0.0427265
,,,,,,,,,74,72.4325,0.0481499
,,,,,,,,,87,132.884,0.0977844
,,,,,,,,,101,77.0153,0.0435331
,,,,,,,,,116,119.127,0.0460096
,,,,,,,,,132,131.096,0.0667976
,,,,,,,,,149,135.228,0.0853508
,,,,,,,,,50,48.8527,0.0160443
,,,,,,,,,61,106.187,0.0167244
,,,,,,,,,73,72.8319,0.0134713
,,,,,,,,,86,134.374,0.0139673
,,,,,,,,,100,68.0712,0.016379
,,,,,,,,,115,70.1917,0.0135504
,,,,,,,,,131,81.9658,0.0137813
,,,,,,,,,148,163.416,0.0151981
,,,,,,,,,166,109.953,0.0159888
,,,,,,,,,72,75.7869,0.10663
,,,,,,,,,85,23.9809,0.0419862
,,,,,,,,,99,168.419,0.0472118
,,,,,,,,,114,33.9279,0.0939917
,,,,,,,,,130,105.402,0.0427648
,,,,,,,,,147,85.2223,0.0451524
,,,,,,,,,165,119.55,0.0650058
,,,,,,,,,184,100.441,0.082447
,,,,,,,,,98,62.7553,0.0469865
,,,,,,,,,113,93.0579,0.0536293
,,,,,,,,,129,93.2004,0.123387
,,,,,,,,,146,172.24,0.0479638
,,,,,,,,,164,144.199,0.0509876
,,,,,,,,,183,78.3761,0.0778294
,,,,,,,,,203,126.69,0.104228
,,,,,,,,,128,150.06,0.0302246
,,,,,,,,,145,31.3534,0.0443583
,,,,,,,,,163,121.077,0.0283381
,,,,,,,,,182,87.9596,0.0293671
,,,,,,,,,202,96.1607,0.0366466
,,,,,,,,,223,92.3316,0.0416087
,,,,,,,,,162,153.054,0.0502323
,,,,,,,,,181,85.2326,0.030626
,,,,,,,,,201,105.966,0.0318314
,,,,,,,,,222,59.7832,0.0405654
,,,,,,,,,244,88.6591,0.0467349
,,,,,,,,,200,91.7117,0.0452283
,,,,,,,,,221,56.825,0.0479074
,,,,,,,,,243,96.0083,0.0708737
,,,,,,,,,266,66.7529,0.0921204
,,,,,,,,,242,43.1618,0.0297459
,,,,,,,,,265,107.079,0.0372383
,,,,,,,,,289,60.9056,0.0423732
,,,,,,,,,288,85.3415,0.0390357
,,,,,,,,,313,28.2875,0.044716
,,,,,,,,,338,57.0822,0.0641051
