"cellPairingIds","interplanarAngles","angleWeights"
8,29.5126,0.0318983
13,29.9807,0.0209511
26,26.3625,0.0424717
43,58.7863,0.0481012
118,105.622,0.0239615
18,31.2543,0.0212681
42,37.3727,0.0161641
52,55.6538,0.0498054
63,38.7802,0.0375665
51,24.6933,0.0127802
101,89.4502,0.0277775
149,117.418,0.0174208
85,33.1329,0.0814758
184,104.348,0.0301044
113,54.9472,0.0172871
146,65.7674,0.0196668
183,84.8948,0.0182185
128,53.3323,0.062269
182,51.1169,0.0978354
223,107.814,0.0328276
245,72.8994,0.0664953
268,74.3645,0.080391
222,62.6747,0.0509079
267,49.1811,0.0463392
265,34.345,0.0790903
289,121.631,0.0333289
367,59.5428,0.0521931
339,47.3138,0.0635248
366,34.0612,0.0760894
394,62.3107,0.04921
365,28.7144,0.0536981
422,43.4277,0.0431001
421,60.1489,0.029955
451,84.6017,0.0246536
481,53.0071,0.0397797
512,55.0684,0.0443675
