Q	U	V
{$V$}	{[mm$^3$]}	0.0116845
{$d_v$}	{[mm]}	0.281538
{$S_c$}	{[mm$^2$]}	0.33273
{$S_o$}	{[mm$^2$]}	0.227877
{$S_l/S_o$}	[]	0.460130
{$\Psi$}	[]	0.748397
{$\eta$}	[]	0.774313
{med($\theta_e$)}	{[$^\circ$]}	63.177
{$\Upsilon$}	[]	13
{$\Xi$}	[]	6
