"cellPairingIds","interplanarAngles","angleWeights"
8,72.4423,0.0155501
13,48.3584,0.0292656
64,48.7717,0.0392698
76,57.17,0.0490601
18,115.922,0.0122725
33,117.955,0.0110511
88,54.2862,0.0147718
102,104.457,0.0142345
117,71.2616,0.0147117
168,64.6356,0.0153723
41,92.94,0.01657
87,41.7869,0.0234522
149,52.7979,0.024828
206,72.0547,0.0297956
147,49.4119,0.0203587
204,35.9068,0.0214309
247,61.4699,0.0234922
200,69.9662,0.0346581
266,37.1076,0.0316735
396,76.3499,0.0263129
455,63.0021,0.0373519
340,31.9217,0.0473328
424,47.9987,0.0303744
288,46.6504,0.0375888
339,29.4528,0.0378427
423,42.7208,0.0482555
484,52.6563,0.0381308
393,44.4311,0.0467212
515,44.8352,0.0417598
451,32.4928,0.0444559
547,69.7639,0.0378948
581,54.1592,0.0409675
481,41.8668,0.0503185
513,27.6111,0.0547479
579,23.4284,0.0330274
614,52.4328,0.0475616
578,31.3059,0.0705654
649,61.8356,0.0508292
685,36.5792,0.055353
722,32.8226,0.0304685
761,25.2196,0.0324237
800,26.5523,0.0463196
