facetNormals:0,facetNormals:1,facetNormals:2,FacetCenters:0,FacetCenters:1,FacetCenters:2,FacetIds,relFacetSize,absFacetSize,cellPairingIds,interplanarAngles,angleWeights
0.0272247,-0.691369,-0.648428,6.23549,4.14532,8.57968,1,0.0559542,0.0144935,8,68.5637,0.0652294
-0.658824,0.128037,-0.671643,6.18103,4.22859,8.59221,2,0.0781907,0.0202533,13,70.3584,0.0827365
0.724075,0.154111,-0.603377,6.30086,4.28864,8.62618,3,0.158696,0.041106,19,113.852,0.0598476
-0.581953,0.727716,-0.232429,6.20461,4.39156,8.71261,4,0.0643234,0.0166613,26,74.3294,0.0660542
-0.91626,-0.117391,-0.296525,6.15931,4.18862,8.62793,5,0.0806035,0.0208783,34,42.0804,0.054194
0.393047,-0.869347,-0.0975196,6.26891,4.11128,8.65343,6,0.0525412,0.0136094,43,106.207,0.0651143
0.859102,0.429988,-0.0300788,6.31194,4.33408,8.71214,7,0.0778607,0.0201678,53,105.307,0.0545207
-0.936928,0.139962,0.183996,6.17627,4.30529,8.64162,8,0.0531589,0.0137694,64,81.5962,0.0483264
0.624427,-0.593885,0.451505,6.30221,4.16603,8.70156,9,0.0425287,0.011016,76,124.212,0.0625497
0.559999,0.0435341,0.742839,6.2952,4.23366,8.73515,10,0.0709077,0.0183668,89,151.425,0.044237
-0.0353626,0.296735,0.899912,6.2457,4.32046,8.75776,11,0.0365774,0.00947442,18,93.2907,0.104763
,,,,,,,,,25,46.064,0.0705824
,,,,,,,,,33,31.2194,0.0793788
,,,,,,,,,42,109.553,0.0628497
,,,,,,,,,52,122.529,0.0780253
,,,,,,,,,63,56.0582,0.0632896
,,,,,,,,,75,148.866,0.0550922
,,,,,,,,,88,167.201,0.0743713
,,,,,,,,,102,127.103,0.0498398
,,,,,,,,,32,100.617,0.0915424
,,,,,,,,,41,122.851,0.106907
,,,,,,,,,51,76.7801,0.0789451
,,,,,,,,,62,39.681,0.104467
,,,,,,,,,74,146.423,0.0796403
,,,,,,,,,87,84.554,0.0670806
,,,,,,,,,101,92.3211,0.098019
,,,,,,,,,116,125.265,0.0594518
,,,,,,,,,50,56.3175,0.0715491
,,,,,,,,,61,155.593,0.0578384
,,,,,,,,,73,101.249,0.0704476
,,,,,,,,,86,49.3003,0.0582107
,,,,,,,,,100,164.547,0.0512033
,,,,,,,,,115,121.468,0.0674553
,,,,,,,,,131,88.2788,0.0466355
,,,,,,,,,72,104.258,0.0636151
,,,,,,,,,85,152.711,0.0792084
,,,,,,,,,99,32.7431,0.0640657
,,,,,,,,,114,132.389,0.0556794
,,,,,,,,,130,144.82,0.0754454
,,,,,,,,,147,107.02,0.0503199
,,,,,,,,,98,92.0646,0.0627429
,,,,,,,,,113,123.282,0.0528482
,,,,,,,,,129,39.7166,0.0470077
,,,,,,,,,146,82.9372,0.0603582
,,,,,,,,,164,113.294,0.0431295
,,,,,,,,,128,143.985,0.0631812
,,,,,,,,,145,73.3771,0.0550101
,,,,,,,,,163,57.7638,0.0742217
,,,,,,,,,182,85.586,0.0497726
,,,,,,,,,162,128.551,0.0472533
,,,,,,,,,181,115.147,0.0607637
,,,,,,,,,201,74.7791,0.0433362
,,,,,,,,,200,43.3145,0.0531684
,,,,,,,,,221,76.9688,0.0393292
,,,,,,,,,242,41.4788,0.0482601
