"cellPairingIds","interplanarAngles","angleWeights"
8,53.3234,0.0522762
19,51.3705,0.120142
26,59.6158,0.092186
34,38.7043,0.0289947
53,84.9341,0.00780109
33,31.3277,0.0410849
63,47.3924,0.00705818
88,82.4607,0.0156975
50,51.0828,0.0738871
61,59.6164,0.0268994
73,29.451,0.02276
100,68.3123,0.0264543
166,82.2901,0.097645
114,55.1937,0.0247984
130,80.9442,0.0180431
98,57.4342,0.0142649
113,111.394,0.00636783
164,64.7728,0.029416
183,104.856,0.00991918
182,81.4526,0.0245362
223,67.1044,0.0231654
181,64.4916,0.00578829
222,69.911,0.00514104
267,76.0418,0.00352788
200,51.8763,0.0125487
266,40.6152,0.0270035
289,62.9664,0.0191828
314,43.7557,0.00486663
288,56.2322,0.0139921
313,89.2565,0.141629
339,77.9582,0.00623395
365,39.2642,0.0044008
392,68.526,0.00614162
