facetNormals:0,facetNormals:1,facetNormals:2,FacetCenters:0,FacetCenters:1,FacetCenters:2,FacetIds,relFacetSize,absFacetSize,cellPairingIds,interplanarAngles,angleWeights
-0.292836,-0.478227,-0.787765,3.21282,3.89355,5.41281,1,0.0139563,0.00152497,8,80.3367,0.0248955
0.0413936,0.699012,-0.634424,3.25207,3.98927,5.48915,2,0.115155,0.0125827,13,26.9512,0.00815057
-0.18496,-0.827972,-0.513906,3.23049,3.81867,5.52109,3,0.00575607,0.000628948,19,57.9072,0.00623311
0.377601,-0.868072,-0.25229,3.34431,3.88212,5.53571,4,0.0040126,0.000438444,26,57.2434,0.0236859
-0.879715,0.0353048,-0.315583,3.17377,3.91297,5.46298,5,0.078208,0.00854555,34,88.0228,0.0197173
-0.534726,0.760987,-0.304645,3.21346,3.94781,5.44968,6,0.0335773,0.00366889,43,93.9157,0.0158951
0.90082,0.00240058,-0.257778,3.33538,3.95074,5.50256,7,0.0184595,0.00201701,53,115.249,0.0203166
-0.509666,0.808104,0.211188,3.24828,4.00481,5.52458,8,0.037328,0.00407871,64,70.2402,0.010739
-0.394396,-0.857903,0.260895,3.20124,3.83699,5.47974,9,0.00872709,0.000953583,76,81.8224,0.0236398
-0.84469,-0.356192,0.358374,3.18831,3.89377,5.5221,10,0.0772143,0.00843697,89,146.563,0.0225088
0.478898,0.766608,0.34916,3.36244,3.99607,5.54549,11,0.0581316,0.00635187,103,141.748,0.0215909
0.772801,0.15422,0.5399,3.35478,3.96227,5.57279,12,0.0476652,0.00520823,118,115.023,0.0251669
-0.565283,-0.101279,0.770597,3.24211,3.91645,5.57262,13,0.127919,0.0139773,134,141.818,0.0234567
-0.340057,0.523256,0.750574,3.24953,3.98027,5.56817,14,0.0734682,0.00802764,151,128.479,0.0246704
0.229574,-0.355259,0.867377,3.31471,3.89219,5.58452,15,0.106192,0.0116033,18,106.13,0.0109641
,,,,,,,,,25,117.756,0.00775497
,,,,,,,,,33,77.6857,0.0931518
,,,,,,,,,42,40.511,0.0519941
,,,,,,,,,52,76.7776,0.0318185
,,,,,,,,,63,63.6892,0.0563801
,,,,,,,,,75,147.601,0.0162246
,,,,,,,,,88,123.351,0.0924433
,,,,,,,,,102,68.5935,0.0772611
,,,,,,,,,117,102.98,0.0674227
,,,,,,,,,133,129.948,0.121202
,,,,,,,,,150,97.7575,0.0897052
,,,,,,,,,168,149.929,0.110492
,,,,,,,,,32,36.7558,0.00472875
,,,,,,,,,41,71.4153,0.0107229
,,,,,,,,,51,112.7,0.00982745
,,,,,,,,,62,92.228,0.00877569
,,,,,,,,,74,134.757,0.00997411
,,,,,,,,,87,48.0771,0.00693685
,,,,,,,,,101,74.1296,0.0107135
,,,,,,,,,116,159.926,0.0104749
,,,,,,,,,132,125.342,0.0102717
,,,,,,,,,149,102.579,0.0110164
,,,,,,,,,167,141.343,0.0106757
,,,,,,,,,186,101.698,0.0109202
,,,,,,,,,50,108.004,0.00763354
,,,,,,,,,61,145.024,0.00716853
,,,,,,,,,73,63.9513,0.00659223
,,,,,,,,,86,171.169,0.00724626
,,,,,,,,,100,56.4797,0.00549751
,,,,,,,,,115,95.9626,0.00762875
,,,,,,,,,131,127.108,0.00750702
,,,,,,,,,148,88.6698,0.00740207
,,,,,,,,,166,109.866,0.00778112
,,,,,,,,,185,143.831,0.00760959
,,,,,,,,,205,79.2559,0.007733
,,,,,,,,,72,49.5869,0.0469832
,,,,,,,,,85,144.23,0.029869
,,,,,,,,,99,63.3661,0.0505357
,,,,,,,,,114,75.1809,0.015702
,,,,,,,,,130,47.88,0.077708
,,,,,,,,,147,123.82,0.0666917
,,,,,,,,,165,161.008,0.059231
,,,,,,,,,184,73.8163,0.0970693
,,,,,,,,,204,84.925,0.0757641
,,,,,,,,,225,122.748,0.0900767
,,,,,,,,,98,115.954,0.0238224
,,,,,,,,,113,30.7303,0.0353535
,,,,,,,,,129,122.949,0.0138535
,,,,,,,,,146,85.7468,0.0468023
,,,,,,,,,164,76.5284,0.0425674
,,,,,,,,,183,119.499,0.0393998
,,,,,,,,,203,90.5823,0.0531923
,,,,,,,,,224,68.4197,0.04609
,,,,,,,,,246,134.108,0.0510219
,,,,,,,,,128,123.921,0.0247029
,,,,,,,,,145,117.554,0.0118513
,,,,,,,,,163,157.844,0.0297958
,,,,,,,,,182,67.7874,0.028021
,,,,,,,,,202,51.486,0.0266126
,,,,,,,,,223,141.846,0.0322632
,,,,,,,,,245,123.032,0.0295055
,,,,,,,,,268,91.1178,0.0314517
,,,,,,,,,162,117.135,0.0141467
,,,,,,,,,181,76.8957,0.0503264
,,,,,,,,,201,61.7229,0.0454629
,,,,,,,,,222,99.5595,0.0418679
,,,,,,,,,244,66.8956,0.0577918
,,,,,,,,,267,37.7997,0.0495038
,,,,,,,,,291,103.53,0.0552388
,,,,,,,,,200,40.5881,0.0156818
,,,,,,,,,221,142.737,0.0151759
,,,,,,,,,243,108.456,0.014753
,,,,,,,,,266,57.1355,0.0163395
,,,,,,,,,290,97.1469,0.015601
,,,,,,,,,315,62.2246,0.0161287
,,,,,,,,,242,125.397,0.0663277
,,,,,,,,,265,123.155,0.0589437
,,,,,,,,,289,33.3993,0.0963001
,,,,,,,,,314,67.3592,0.0752947
,,,,,,,,,340,75.148,0.089414
,,,,,,,,,288,43.0118,0.0523807
,,,,,,,,,313,94.8845,0.0799368
,,,,,,,,,339,58.0623,0.0649063
,,,,,,,,,366,81.3615,0.0751337
,,,,,,,,,338,92.274,0.0694514
,,,,,,,,,365,76.1545,0.0578185
,,,,,,,,,393,50.131,0.0657969
,,,,,,,,,392,40.0949,0.0933325
,,,,,,,,,421,51.7156,0.116048
,,,,,,,,,450,65.7374,0.08685
