"cellPairingIds","interplanarAngles","angleWeights"
13,52.5058,0.0790733
19,100.297,0.0200653
26,73.1828,0.037838
43,40.7463,0.0550716
25,30.2772,0.0156236
33,74.5781,0.0246324
88,80.548,0.0359925
150,100.529,0.0352477
32,58.9718,0.0211864
62,89.0526,0.0644285
87,50.321,0.070276
149,83.5793,0.0594342
50,103.607,0.0163982
100,38.3019,0.0194476
115,60.4063,0.0207604
72,31.9001,0.0265777
85,66.1163,0.0341261
147,62.9953,0.0392058
204,108.914,0.0394523
98,35.8103,0.0340654
164,50.7933,0.0391256
182,65.1907,0.0580175
202,41.1396,0.0570741
223,89.218,0.0447687
200,39.0551,0.0657975
266,69.3365,0.047516
289,58.7389,0.0561991
314,49.118,0.0797853
288,40.8358,0.0728625
339,61.5267,0.0753003
338,63.3869,0.0531199
365,79.9706,0.0737187
392,66.4429,0.054404
