"cellPairingIds","interplanarAngles","angleWeights"
8,32.7237,0.0696678
13,47.7534,0.0406131
19,56.8183,0.105085
26,67.2545,0.0445251
43,102.752,0.00897276
89,118.025,0.0431542
25,63.4036,0.0699129
75,75.0796,0.0690819
102,101.431,0.0357653
41,58.5996,0.0266557
51,47.3573,0.0348123
62,75.7514,0.00790485
74,42.2462,0.0401948
50,28.6508,0.044625
100,103.925,0.103757
148,103.009,0.0639398
166,74.7633,0.0485172
72,21.7103,0.0376476
130,43.8282,0.0393026
184,71.1993,0.0298024
113,37.3464,0.0718101
146,40.9652,0.0600469
128,68.5945,0.00895217
182,47.1899,0.0079965
245,82.9409,0.00816508
181,57.0303,0.0780819
267,72.9156,0.0479684
221,57.3707,0.0429287
243,43.1512,0.063244
289,36.5146,0.0422907
314,48.1196,0.0424177
288,69.4227,0.034134
339,81.8647,0.0292423
338,41.8526,0.0373341
365,49.9262,0.0374331
392,38.968,0.0315598
