facetNormals:0,facetNormals:1,facetNormals:2,FacetCenters:0,FacetCenters:1,FacetCenters:2,FacetIds,relFacetSize,absFacetSize,cellPairingIds,interplanarAngles,angleWeights
-0.220594,0.187563,-0.933135,6.05136,3.90185,7.5269,1,0.0919908,0.0308066,8,45.555,0.0992824
0.487165,-0.0492589,-0.834322,6.14063,3.77587,7.57457,2,0.107829,0.0361108,13,55.943,0.0636157
0.352463,-0.508456,-0.760263,6.10548,3.7209,7.55716,3,0.0486189,0.0162819,19,57.2879,0.084542
-0.583824,-0.53948,-0.502569,6.0371,3.72561,7.59231,4,0.0782091,0.0261913,26,77.7251,0.0463452
-0.978608,-0.0086237,0.0117458,5.99159,3.82209,7.60156,5,0.0309753,0.0103733,34,88.1073,0.0852914
-0.742799,0.58879,0.259957,6.00816,3.94575,7.62428,6,0.0795016,0.0266241,43,110.305,0.0673663
0.731725,0.584532,0.302047,6.15753,3.86256,7.65177,7,0.0531413,0.0177964,53,122.696,0.107414
0.889174,0.022832,0.331214,6.16233,3.81308,7.65665,8,0.129049,0.043217,64,128.944,0.0403141
0.53026,0.54414,0.636201,6.11536,3.92459,7.67617,9,0.0258132,0.00864454,76,144.014,0.0670748
-0.139627,-0.61567,0.721455,6.13287,3.64279,7.71389,10,0.0527793,0.0176752,89,149.722,0.0902772
-0.119863,0.175587,0.898435,6.10883,3.78959,7.67545,11,0.0886262,0.0296798,18,28.7844,0.0670196
,,,,,,,,,25,79.7776,0.0906612
,,,,,,,,,33,120.893,0.0481259
,,,,,,,,,42,129.732,0.0915236
,,,,,,,,,52,85.4406,0.0711955
,,,,,,,,,63,80.2363,0.117489
,,,,,,,,,75,108.191,0.0416548
,,,,,,,,,88,133.605,0.0708699
,,,,,,,,,102,156.111,0.0972893
,,,,,,,,,32,60.7366,0.0599622
,,,,,,,,,41,111.364,0.0378416
,,,,,,,,,51,141.968,0.0603382
,,,,,,,,,62,106.19,0.0507796
,,,,,,,,,74,86.9203,0.0706287
,,,,,,,,,87,126.184,0.0337223
,,,,,,,,,101,107.635,0.0506138
,,,,,,,,,116,154.175,0.0627914
,,,,,,,,,50,51.7307,0.0443754
,,,,,,,,,61,90.9065,0.07885
,,,,,,,,,73,165.102,0.0632831
,,,,,,,,,86,141.43,0.0973937
,,,,,,,,,100,171.987,0.0388153
,,,,,,,,,115,86.7522,0.0630258
,,,,,,,,,131,123.266,0.0830924
,,,,,,,,,72,41.0995,0.044581
,,,,,,,,,85,138.164,0.0391378
,,,,,,,,,99,158.867,0.0499591
,,,,,,,,,114,122.152,0.0281597
,,,,,,,,,130,80.7744,0.0390392
,,,,,,,,,147,81.9628,0.0459062
,,,,,,,,,98,97.1773,0.0637021
,,,,,,,,,113,126.963,0.0983896
,,,,,,,,,129,84.5862,0.0389725
,,,,,,,,,146,94.336,0.0634413
,,,,,,,,,164,62.0023,0.0838163
,,,,,,,,,128,35.1127,0.0752821
,,,,,,,,,145,22.9089,0.0347478
,,,,,,,,,163,104.998,0.0529597
,,,,,,,,,182,71.6313,0.0664427
,,,,,,,,,162,42.3933,0.0430211
,,,,,,,,,181,83.6431,0.0749182
,,,,,,,,,201,77.142,0.105084
,,,,,,,,,200,86.9866,0.0346701
,,,,,,,,,221,48.7224,0.0399815
,,,,,,,,,242,51.0158,0.0661591
