facetNormals:0,facetNormals:1,facetNormals:2,FacetCenters:0,FacetCenters:1,FacetCenters:2,FacetIds,relFacetSize,absFacetSize,cellPairingIds,interplanarAngles,angleWeights
-0.286934,0.415812,-0.832076,5.51918,6.72423,5.35202,1,0.104611,0.0258873,8,44.5736,0.0839552
-0.80206,-0.0153499,-0.534364,5.45704,6.70795,5.42297,2,0.0701115,0.0173499,13,83.4067,0.0587212
0.786335,-0.23101,-0.51675,5.61155,6.58668,5.33828,3,0.0408163,0.0101005,19,54.3329,0.0513995
-0.922282,0.247764,-0.227856,5.4312,6.68863,5.47539,4,0.0340696,0.00843094,26,106.657,0.0994288
0.959983,-0.0765878,-0.0460114,5.63675,6.62392,5.40413,5,0.0947358,0.0234435,34,75.6515,0.0280218
-0.997473,-0.0325763,0.0381357,5.53756,6.63716,5.47089,6,0.0161776,0.00400335,43,82.3122,0.06794
-0.840695,0.358075,0.317453,5.42305,6.70645,5.52859,7,0.0503055,0.0124487,53,85.1766,0.0780691
0.595302,0.763546,0.0807105,5.56038,6.76196,5.41568,8,0.06227,0.0154095,64,109.769,0.0818987
0.849761,0.395481,0.2932,5.58897,6.7148,5.45462,9,0.0672893,0.0166516,76,144.625,0.0182236
0.659717,-0.606407,0.409112,5.52083,6.61551,5.54547,10,0.0099812,0.00246997,89,101.297,0.104197
0.0409707,0.753815,0.580863,5.46217,6.74614,5.54295,11,0.103786,0.0256832,103,121.644,0.0460215
-0.35216,0.290532,0.869265,5.48182,6.71525,5.54867,12,0.0294996,0.00730004,118,157.918,0.0344175
0.225779,-0.0641194,0.931881,5.50714,6.662,5.56465,13,0.020597,0.00509697,18,112.077,0.0515956
,,,,,,,,,25,24.9986,0.0458561
,,,,,,,,,33,143.207,0.0805845
,,,,,,,,,42,35.8641,0.0262892
,,,,,,,,,52,57.6333,0.0585797
,,,,,,,,,63,124.641,0.0659585
,,,,,,,,,75,153.116,0.0686714
,,,,,,,,,88,141.053,0.0174747
,,,,,,,,,102,112.735,0.0836884
,,,,,,,,,117,101.366,0.0415268
,,,,,,,,,133,137.057,0.0318401
,,,,,,,,,32,134.33,0.037139
,,,,,,,,,41,31.5157,0.0570521
,,,,,,,,,51,145.402,0.0231713
,,,,,,,,,62,165.609,0.0450668
,,,,,,,,,74,74.5973,0.0493107
,,,,,,,,,87,63.4484,0.0508114
,,,,,,,,,101,62.0424,0.01604
,,,,,,,,,116,118.622,0.0585906
,,,,,,,,,132,146.495,0.0342473
,,,,,,,,,149,108.096,0.0273782
,,,,,,,,,50,160.79,0.0501161
,,,,,,,,,61,22.911,0.0219381
,,,,,,,,,73,33.5246,0.0406255
,,,,,,,,,86,113.362,0.0440424
,,,,,,,,,100,141.306,0.0452357
,,,,,,,,,115,151.749,0.0154392
,,,,,,,,,131,88.9812,0.0512994
,,,,,,,,,148,78.1042,0.0316204
,,,,,,,,,166,117.555,0.0256731
,,,,,,,,,72,173.551,0.027636
,,,,,,,,,85,155.56,0.0657155
,,,,,,,,,99,57.0638,0.0751462
,,,,,,,,,114,35.3816,0.0786879
,,,,,,,,,130,45.8988,0.0180597
,,,,,,,,,147,92.8166,0.0990548
,,,,,,,,,165,115.017,0.0449899
,,,,,,,,,184,78.8746,0.0338372
,,,,,,,,,98,29.723,0.0244821
,,,,,,,,,113,129.377,0.0256829
,,,,,,,,,129,149.988,0.0260841
,,,,,,,,,146,129.268,0.0123455
,,,,,,,,,164,92.6071,0.027992
,,,,,,,,,183,67.5196,0.0208959
,,,,,,,,,203,101.271,0.0181218
,,,,,,,,,128,102.377,0.055652
,,,,,,,,,145,120.328,0.057571
,,,,,,,,,163,132.347,0.0166574
,,,,,,,,,182,62.8915,0.0677651
,,,,,,,,,202,44.6206,0.0371904
,,,,,,,,,223,84.874,0.0292272
,,,,,,,,,162,29.3697,0.0646824
,,,,,,,,,181,92.2318,0.0172047
,,,,,,,,,201,45.6558,0.0778383
,,,,,,,,,222,85.0475,0.0400338
,,,,,,,,,244,80.0912,0.030955
,,,,,,,,,200,62.8973,0.0173838
,,,,,,,,,221,57.4547,0.0816447
,,,,,,,,,243,85.8062,0.0410173
,,,,,,,,,266,62.2293,0.0315398
,,,,,,,,,242,101.836,0.018211
,,,,,,,,,265,93.1342,0.0149157
,,,,,,,,,289,53.0465,0.0134464
,,,,,,,,,288,40.6572,0.0459412
,,,,,,,,,313,56.726,0.0343725
,,,,,,,,,338,41.018,0.0242573
