facetNormals:0,facetNormals:1,facetNormals:2,FacetCenters:0,FacetCenters:1,FacetCenters:2,FacetIds,relFacetSize,absFacetSize,cellPairingIds,interplanarAngles,angleWeights
0.281495,-0.0680575,-0.937863,6.44689,6.5595,6.97909,1,0.0287398,0.00508692,8,47.8508,0.041808
-0.460218,-0.27865,-0.788083,6.38219,6.52519,6.97377,2,0.0766705,0.0135706,13,54.5102,0.0258369
-0.559889,0.223836,-0.786411,6.36268,6.56086,6.98301,3,0.0234666,0.00415355,19,39.2751,0.0358544
0.780213,0.168258,-0.575018,6.50291,6.62313,7.02602,4,0.0476503,0.00843404,26,45.2422,0.0382839
0.738774,-0.424049,-0.461375,6.51233,6.57107,7.04345,5,0.0573187,0.0101453,34,72.4209,0.0380667
-0.580929,0.597305,-0.529818,6.36743,6.63961,7.01471,6,0.0563557,0.00997488,43,61.834,0.0422556
-0.0281654,0.800397,-0.545155,6.4426,6.66469,7.03161,7,0.0797699,0.0141192,53,52.3123,0.0341229
0.667939,0.55064,-0.469611,6.48241,6.60705,6.99545,8,0.0419873,0.0074317,64,71.0808,0.0374368
0.973706,0.0570074,-0.0431918,6.52908,6.597,7.09627,9,0.0536814,0.00950154,76,98.2944,0.0425875
-0.162198,0.946234,0.0276597,6.42352,6.70835,7.12133,10,0.0821876,0.0145471,89,113.776,0.0373536
-0.954193,0.166122,0.112987,6.33688,6.64165,7.11776,11,0.0533406,0.00944121,103,95.1283,0.0267266
0.887015,0.285014,0.338277,6.53266,6.65136,7.13298,12,0.0249769,0.00442088,118,137.594,0.0343363
0.115051,0.629336,0.751654,6.4408,6.65334,7.19454,13,0.0426395,0.00754714,134,137.614,0.0444417
0.389656,0.257927,0.843987,6.44676,6.59093,7.13973,14,0.0979632,0.0173394,18,30.4637,0.0359346
,,,,,,,,,25,87.1172,0.0587733
,,,,,,,,,33,81.1782,0.0655971
,,,,,,,,,42,56.6147,0.0649619
,,,,,,,,,52,76.2611,0.0781895
,,,,,,,,,63,95.5411,0.0542601
,,,,,,,,,75,117.485,0.0631488
,,,,,,,,,88,103.299,0.0793333
,,,,,,,,,102,70.9431,0.0629123
,,,,,,,,,117,142.887,0.0376791
,,,,,,,,,133,150.614,0.0548017
,,,,,,,,,150,174.517,0.0860188
,,,,,,,,,32,86.8816,0.0314465
,,,,,,,,,41,98.7307,0.0333
,,,,,,,,,51,26.5091,0.0331355
,,,,,,,,,62,49.4903,0.0362648
,,,,,,,,,74,83.0206,0.0301066
,,,,,,,,,87,121.009,0.0326572
,,,,,,,,,101,72.8366,0.036509
,,,,,,,,,116,60.0398,0.0325939
,,,,,,,,,132,135.357,0.0241982
,,,,,,,,,149,121.746,0.0302727
,,,,,,,,,167,149.551,0.0378632
,,,,,,,,,50,36.063,0.0520392
,,,,,,,,,61,92.838,0.0516387
,,,,,,,,,73,63.4378,0.0596618
,,,,,,,,,86,24.1753,0.0446399
,,,,,,,,,100,34.2238,0.0504864
,,,,,,,,,115,88.9837,0.0603255
,,,,,,,,,131,144.558,0.0503351
,,,,,,,,,148,55.9814,0.0327744
,,,,,,,,,166,104.101,0.0450059
,,,,,,,,,185,98.3549,0.0641146
,,,,,,,,,72,117.253,0.0568331
,,,,,,,,,85,96.6504,0.0667059
,,,,,,,,,99,60.0277,0.0484695
,,,,,,,,,114,40.8811,0.0554405
,,,,,,,,,130,125.013,0.0675365
,,,,,,,,,147,151.164,0.0552581
,,,,,,,,,165,66.7933,0.0347927
,,,,,,,,,184,123.565,0.0489013
,,,,,,,,,204,103.042,0.0723216
,,,,,,,,,98,35.0354,0.0660491
,,,,,,,,,113,78.7515,0.0481219
,,,,,,,,,129,121.85,0.054986
,,,,,,,,,146,47.165,0.0668634
,,,,,,,,,164,51.9316,0.0548067
,,,,,,,,,183,122.39,0.0346132
,,,,,,,,,203,95.2495,0.0485474
,,,,,,,,,224,123.047,0.0715503
,,,,,,,,,128,44.7224,0.0550165
,,,,,,,,,145,87.4703,0.0641756
,,,,,,,,,163,36.6168,0.0809607
,,,,,,,,,182,84.0309,0.0639314
,,,,,,,,,202,88.8825,0.0380423
,,,,,,,,,223,84.5569,0.0555733
,,,,,,,,,245,106.448,0.0879354
,,,,,,,,,162,43.101,0.0471197
,,,,,,,,,181,65.0021,0.0555803
,,,,,,,,,201,128.585,0.0469879
,,,,,,,,,222,52.7725,0.0313216
,,,,,,,,,244,85.8469,0.0423109
,,,,,,,,,267,89.6414,0.058781
,,,,,,,,,200,96.4407,0.0649441
,,,,,,,,,221,166.19,0.0535105
,,,,,,,,,243,26.596,0.0340916
,,,,,,,,,266,83.1202,0.0475276
,,,,,,,,,290,67.6829,0.0693569
,,,,,,,,,242,70.34,0.0646941
,,,,,,,,,265,81.8368,0.0383111
,,,,,,,,,289,50.9198,0.0561487
,,,,,,,,,314,77.268,0.0893847
,,,,,,,,,288,141.921,0.0340226
,,,,,,,,,313,85.2506,0.0473935
,,,,,,,,,339,104.378,0.0690718
,,,,,,,,,338,56.8019,0.0315013
,,,,,,,,,365,42.5311,0.039805
,,,,,,,,,392,27.901,0.0594171
