"cellPairingIds","interplanarAngles","angleWeights"
8,45.1094,0.039253
13,56.8215,0.0370764
19,52.7187,0.0577617
26,52.9773,0.0878354
53,77.919,0.0592377
25,38.4622,0.0274014
63,53.2951,0.0277291
102,49.2798,0.0353715
41,62.6519,0.0311891
62,42.767,0.0268325
74,89.819,0.026625
87,31.1238,0.0143221
50,63.7555,0.0446355
61,34.4435,0.0351172
115,40.5667,0.0551169
131,68.7128,0.0497313
148,69.986,0.037798
72,35.0217,0.0443488
85,45.3783,0.0461217
165,54.0054,0.0487119
183,43.0266,0.0375922
145,34.8378,0.0168233
202,70.4778,0.0388583
268,80.2256,0.055154
162,101.493,0.0167415
201,43.64,0.0508215
244,28.0165,0.032782
266,120.048,0.0159317
290,117.026,0.0137576
315,99.4522,0.0197297
242,49.4166,0.100806
265,65.0437,0.0614688
314,67.657,0.0326082
340,71.657,0.115407
313,23.6492,0.0440282
339,55.8084,0.0306448
393,33.5305,0.0588994
392,53.5583,0.0230098
450,63.2145,0.0318707
