"cellPairingIds","interplanarAngles","angleWeights"
8,90.2354,0.0503559
13,53.0365,0.0319285
19,42.7986,0.0470263
26,78.3526,0.0560575
34,53.5196,0.0447011
43,63.9594,0.0857479
33,83.5141,0.0405367
52,101.547,0.0540767
63,90.965,0.0483745
117,83.4152,0.0432912
32,20.1833,0.0252805
41,25.6198,0.0276776
50,42.6333,0.0383508
61,77.6685,0.0326722
100,59.1133,0.0421204
115,54.4168,0.0396001
99,38.7624,0.0536129
114,31.2243,0.0492233
98,29.0067,0.047609
146,74.4251,0.0379383
163,102.157,0.0638984
202,121.671,0.0671012
162,19.2745,0.0612796
201,30.7416,0.0570363
222,59.5088,0.0585389
200,49.4044,0.0513005
221,45.5096,0.0520941
242,75.4274,0.0482928
265,98.2313,0.0493657
288,30.3128,0.0501001
