Q	U	V
{$V$}	{[mm$^3$]}	0.00840356
{$d_v$}	{[mm]}	0.252244
{$S_c$}	{[mm$^2$]}	0.320493
{$S_o$}	{[mm$^2$]}	0.213456
{$S_l/S_o$}	[]	0.501448
{$\Psi$}	[]	0.623698
{$\eta$}	[]	0.659203
{med($\theta_e$)}	{[$^\circ$]}	62.3597
{$\Upsilon$}	[]	15
{$\Xi$}	[]	10
