"cellPairingIds","interplanarAngles","angleWeights"
8,42.0599,0.0619602
13,42.849,0.0557894
19,46.3965,0.0576478
26,108.564,0.0422703
25,73.5283,0.0617107
33,88.9489,0.0444144
52,57.5996,0.0820316
88,101.141,0.0251311
32,66.1096,0.055587
41,93.0411,0.0411516
51,37.5932,0.0486857
61,60.2861,0.0500951
86,37.1021,0.049509
115,112.77,0.0243911
72,112.023,0.0380624
85,73.0994,0.05074
130,88.0855,0.0211375
147,72.3792,0.0272762
165,48.3489,0.0402878
184,83.8871,0.0331575
113,41.8874,0.0439591
164,61.9854,0.0303938
203,89.26,0.0378808
163,46.567,0.0270385
181,107.842,0.0228389
244,83.7426,0.0375447
265,54.4824,0.0237544
289,59.9377,0.0210814
313,38.849,0.0271828
338,39.1279,0.0400844
