facetNormals:0,facetNormals:1,facetNormals:2,FacetCenters:0,FacetCenters:1,FacetCenters:2,FacetIds,relFacetSize,absFacetSize,cellPairingIds,interplanarAngles,angleWeights
0.161072,-0.303198,-0.864924,5.66157,5.02523,5.55136,1,0.0720388,0.0207274,8,34.7445,0.0540076
-0.325205,-0.0159905,-0.906462,5.65642,5.08247,5.54336,2,0.0431958,0.0124285,13,35.5961,0.0509935
0.702074,-0.22553,-0.650415,5.7205,5.02194,5.57379,3,0.0394644,0.0113549,19,49.6781,0.0417036
0.616117,-0.661319,-0.321261,5.70345,4.95387,5.60654,4,0.0293461,0.00844362,26,51.3064,0.0507973
-0.349745,-0.769287,-0.434619,5.60896,4.98814,5.61607,5,0.0392299,0.0112875,34,62.1346,0.0301056
0.92548,0.028566,-0.332376,5.70827,5.09201,5.60339,6,0.0190289,0.00547511,43,95.4088,0.0135305
-0.723889,0.623992,-0.253276,5.65878,5.16746,5.61553,7,0.0074664,0.00214827,53,78.2436,0.0460125
-0.518688,-0.819673,-0.0219519,5.66902,5.05254,5.65153,8,0.0338009,0.00972537,64,92.8359,0.0833764
0.678886,0.641742,-0.0487393,5.68261,5.13534,5.62456,9,0.0989493,0.0284702,76,112.211,0.0587721
-0.905751,-0.0152128,0.21535,5.66082,5.10956,5.66762,10,0.0496319,0.0142803,89,88.7355,0.0340875
0.978435,0.0958084,0.125095,5.67174,5.07594,5.66655,11,0.0223259,0.00642371,103,89.5586,0.0356847
0.712342,-0.587485,0.330471,5.69599,4.99554,5.67253,12,0.0237164,0.0068238,118,95.5999,0.0542935
0.16803,-0.856887,0.43405,5.61164,4.96954,5.67642,13,0.0435626,0.0125341,134,144.052,0.0297095
0.136757,0.751202,0.617381,5.59341,5.14424,5.69907,14,0.0187135,0.00538436,151,124.073,0.0779772
0.655489,0.0223236,0.686583,5.67174,5.06978,5.70059,15,0.0849827,0.0244517,169,166.876,0.034202
-0.0177123,0.474118,0.855661,5.60022,5.12364,5.7159,16,0.0224242,0.00645202,188,136.365,0.0969974
-0.189267,-0.376537,0.802729,5.59295,5.01124,5.71205,17,0.148418,0.0427037,18,67.3397,0.0412459
,,,,,,,,,25,83.6977,0.0349489
,,,,,,,,,33,55.379,0.0411175
,,,,,,,,,42,90.0085,0.0264194
,,,,,,,,,52,61.4569,0.0127321
,,,,,,,,,63,77.5364,0.0379252
,,,,,,,,,75,101.969,0.0601385
,,,,,,,,,88,83.6242,0.0461907
,,,,,,,,,102,116.984,0.0294371
,,,,,,,,,117,123.534,0.0306207
,,,,,,,,,133,117.549,0.0433785
,,,,,,,,,150,130.652,0.0261139
,,,,,,,,,168,156.065,0.0572779
,,,,,,,,,187,145.589,0.0295225
,,,,,,,,,207,139.104,0.0669163
,,,,,,,,,32,33.041,0.0336613
,,,,,,,,,41,76.9719,0.0393468
,,,,,,,,,51,27.3091,0.025677
,,,,,,,,,62,119.874,0.0125571
,,,,,,,,,74,99.9607,0.0364137
,,,,,,,,,87,66.7156,0.0564247
,,,,,,,,,101,147.544,0.043968
,,,,,,,,,116,53.1824,0.0285183
,,,,,,,,,132,64.3333,0.0296278
,,,,,,,,,149,88.2721,0.0414124
,,,,,,,,,167,119.468,0.0253883
,,,,,,,,,186,89.472,0.0538991
,,,,,,,,,206,134.634,0.0285984
,,,,,,,,,227,129.753,0.06235
,,,,,,,,,50,61.6476,0.0335757
,,,,,,,,,61,45.7836,0.0230873
,,,,,,,,,73,145.042,0.0119041
,,,,,,,,,86,75.7215,0.0314164
,,,,,,,,,100,89.3911,0.045267
,,,,,,,,,115,133.708,0.0368837
,,,,,,,,,131,58.3183,0.0253591
,,,,,,,,,148,39.9442,0.0262326
,,,,,,,,,166,55.4297,0.0350683
,,,,,,,,,185,130.432,0.0228537
,,,,,,,,,205,79.3373,0.043627
,,,,,,,,,226,129.688,0.0254224
,,,,,,,,,248,98.2961,0.0490031
,,,,,,,,,72,102.429,0.0256271
,,,,,,,,,85,97.1397,0.0125452
,,,,,,,,,99,26.9994,0.0363136
,,,,,,,,,114,142.999,0.0561846
,,,,,,,,,130,74.6054,0.0438221
,,,,,,,,,147,119.958,0.0284568
,,,,,,,,,165,86.3593,0.0295614
,,,,,,,,,184,63.6166,0.0412829
,,,,,,,,,204,163.366,0.0253396
,,,,,,,,,225,127.145,0.05368
,,,,,,,,,247,141.778,0.0285366
,,,,,,,,,270,89.5358,0.062057
,,,,,,,,,98,125.726,0.0107247
,,,,,,,,,113,121.319,0.0243497
,,,,,,,,,129,43.9254,0.0319195
,,,,,,,,,146,173.579,0.0275104
,,,,,,,,,164,27.2594,0.020546
,,,,,,,,,183,56.4905,0.0211156
,,,,,,,,,203,90.7906,0.0264876
,,,,,,,,,224,93.3934,0.0188699
,,,,,,,,,246,66.0573,0.0310952
,,,,,,,,,269,107.364,0.0205875
,,,,,,,,,293,120.503,0.0337329
,,,,,,,,,128,97.8149,0.012231
,,,,,,,,,145,94.8783,0.0138851
,,,,,,,,,163,50.0101,0.0129801
,,,,,,,,,182,133.961,0.0111904
,,,,,,,,,202,175.006,0.0113573
,,,,,,,,,223,142.634,0.0127479
,,,,,,,,,245,77.3032,0.010674
,,,,,,,,,268,132.52,0.0137268
,,,,,,,,,292,84.5456,0.0112027
,,,,,,,,,317,109.638,0.0142176
,,,,,,,,,162,165.091,0.050389
,,,,,,,,,181,58.0894,0.0402144
,,,,,,,,,201,127.757,0.0268903
,,,,,,,,,222,83.6762,0.0278745
,,,,,,,,,244,50.1952,0.0380659
,,,,,,,,,267,137.306,0.0240899
,,,,,,,,,291,113.908,0.0483651
,,,,,,,,,316,114.803,0.0269616
,,,,,,,,,342,63.7409,0.0550619
,,,,,,,,,200,136.82,0.0661058
,,,,,,,,,221,39.0831,0.0364317
,,,,,,,,,243,84.3401,0.038262
,,,,,,,,,266,120.064,0.0604931
,,,,,,,,,290,53.6199,0.0314745
,,,,,,,,,315,61.3502,0.0914357
,,,,,,,,,341,74.1137,0.0365625
,,,,,,,,,368,118.852,0.118737
,,,,,,,,,242,158.87,0.0307979
,,,,,,,,,265,128.232,0.0320959
,,,,,,,,,289,92.8841,0.0463996
,,,,,,,,,314,90.1468,0.0271792
,,,,,,,,,340,120.31,0.0626656
,,,,,,,,,367,77.7628,0.0308914
,,,,,,,,,395,65.504,0.074388
,,,,,,,,,288,45.4332,0.0230001
,,,,,,,,,313,81.8736,0.0295218
,,,,,,,,,339,73.0925,0.0203607
,,,,,,,,,366,39.1847,0.0353618
,,,,,,,,,394,81.9888,0.0223749
,,,,,,,,,423,97.7293,0.0388132
,,,,,,,,,338,36.721,0.0307123
,,,,,,,,,365,98.352,0.02092
,,,,,,,,,393,43.0281,0.0370837
,,,,,,,,,422,90.5006,0.0230522
,,,,,,,,,452,66.7019,0.0408975
,,,,,,,,,392,111.617,0.0261805
,,,,,,,,,421,65.1553,0.0575995
,,,,,,,,,451,92.2732,0.0296077
,,,,,,,,,482,43.69,0.0673556
,,,,,,,,,450,55.3348,0.0306728
,,,,,,,,,481,23.3529,0.0204015
,,,,,,,,,513,77.8842,0.0332364
,,,,,,,,,512,50.8552,0.0354851
,,,,,,,,,545,60.8992,0.10808
,,,,,,,,,578,54.7705,0.0389618
