"cellPairingIds","interplanarAngles","angleWeights"
8,33.4724,0.0442183
19,89.2993,0.0311264
26,38.038,0.0605032
53,94.8131,0.0240192
18,44.3467,0.0423222
25,96.5833,0.0297855
33,40.7862,0.0556348
102,58.2959,0.0642158
133,68.3213,0.0466421
150,71.0249,0.0214275
32,55.5738,0.0301747
87,56.6885,0.0218707
116,52.2456,0.0660527
186,86.4422,0.0221005
86,93.2154,0.0190144
100,54.6613,0.0179635
115,43.0787,0.0300704
205,87.6401,0.0181183
248,100.44,0.0268614
99,94.3375,0.0270323
165,46.3858,0.0867895
204,54.5514,0.0246415
222,85.3659,0.0273019
316,76.0455,0.0235534
342,68.6606,0.0213975
315,36.3932,0.0147545
340,45.7775,0.0220445
395,70.6687,0.0364991
313,46.8669,0.0772139
366,47.0535,0.0268875
365,25.9482,0.0248653
422,40.3339,0.0588714
392,19.1155,0.0227028
421,61.5532,0.0232237
450,77.2653,0.0146438
481,46.0911,0.0217174
512,74.3875,0.0221937
545,59.5438,0.0202693
579,40.8466,0.0246678
578,45.1605,0.0369097
613,37.2553,0.0546563
648,27.5875,0.0442991
