facetNormals:0,facetNormals:1,facetNormals:2,FacetCenters:0,FacetCenters:1,FacetCenters:2,FacetIds,relFacetSize,absFacetSize,cellPairingIds,interplanarAngles,angleWeights
0.440624,0.00777002,-0.881705,7.01974,3.42938,9.66294,1,0.0157128,0.00179566,8,45.828,0.0199799
-0.0824704,-0.541147,-0.803122,7.00834,3.45606,9.71707,2,0.0274289,0.00313458,13,59.4515,0.026975
-0.466736,0.277588,-0.762904,7.00263,3.50627,9.72898,3,0.0952362,0.0108836,19,38.8201,0.0209851
0.616606,-0.519046,-0.542835,7.05103,3.41179,9.71118,4,0.0315825,0.00360925,26,69.5335,0.0220026
-0.0537685,-0.857762,-0.405987,7.0113,3.4245,9.74739,5,0.0366893,0.00419286,34,33.6622,0.0263832
0.790473,0.222225,-0.495286,7.02412,3.42198,9.68692,6,0.0822147,0.00939551,43,63.9138,0.027847
0.142867,0.859347,-0.39029,6.94789,3.51537,9.69626,7,0.12227,0.013973,53,102.446,0.0055799
-0.38251,-0.924552,0.0419809,7.02024,3.42598,9.78653,8,0.00339228,0.00038767,64,100.941,0.0110526
-0.347751,0.934565,0.0462567,6.91742,3.5384,9.72163,9,0.00852438,0.000974168,76,113.105,0.0121679
-0.736338,0.660096,0.0728469,6.94279,3.52553,9.76522,10,0.00992808,0.00113458,89,73.0452,0.0283467
0.945572,0.113411,0.158776,7.03475,3.4086,9.70685,11,0.144668,0.0165327,103,69.3727,0.0216268
0.78337,0.590988,0.0101959,7.00308,3.46337,9.74292,12,0.0346795,0.00396318,118,129.025,0.0246939
-0.766977,-0.369404,0.23515,6.99736,3.45029,9.78021,13,0.0576395,0.00658706,134,102.063,0.0273223
0.286749,0.822434,0.371802,6.96609,3.49751,9.7377,14,0.104627,0.0119568,151,140.095,0.0121559
-0.623967,0.543533,0.540679,6.94974,3.51605,9.78671,15,0.00991213,0.00113276,18,56.6031,0.0425911
,,,,,,,,,25,45.1581,0.0293595
,,,,,,,,,33,30.6624,0.0313903
,,,,,,,,,42,76.8314,0.0411343
,,,,,,,,,52,100.142,0.0448063
,,,,,,,,,63,59.2161,0.00603783
,,,,,,,,,75,122.005,0.0130066
,,,,,,,,,88,111.613,0.0145791
,,,,,,,,,102,106.522,0.0461145
,,,,,,,,,117,114.307,0.0306309
,,,,,,,,,133,85.0344,0.0371698
,,,,,,,,,150,146.473,0.0434634
,,,,,,,,,168,134.795,0.0145619
,,,,,,,,,32,91.1172,0.0474346
,,,,,,,,,41,83.7618,0.0529715
,,,,,,,,,51,85.4907,0.0882477
,,,,,,,,,62,58.3078,0.107073
,,,,,,,,,74,96.7448,0.00655121
,,,,,,,,,87,65.5814,0.0156481
,,,,,,,,,101,59.4958,0.0179816
,,,,,,,,,116,125.965,0.11486
,,,,,,,,,132,103.168,0.0508444
,,,,,,,,,149,84.7249,0.0718148
,,,,,,,,,167,102.318,0.0997108
,,,,,,,,,186,88.1663,0.0179555
,,,,,,,,,50,46.786,0.0339449
,,,,,,,,,61,46.5428,0.0456346
,,,,,,,,,73,99.0611,0.0501986
,,,,,,,,,86,76.8591,0.00612651
,,,,,,,,,100,138.332,0.0134252
,,,,,,,,,115,150.206,0.0151072
,,,,,,,,,131,62.1708,0.0518464
,,,,,,,,,148,79.6855,0.0330586
,,,,,,,,,166,118.449,0.0408061
,,,,,,,,,185,119.41,0.0485191
,,,,,,,,,205,178.863,0.0150887
,,,,,,,,,72,92.0144,0.0507367
,,,,,,,,,85,130.258,0.0564421
,,,,,,,,,99,33.192,0.00621035
,,,,,,,,,114,147.666,0.0138345
,,,,,,,,,130,126.165,0.0156274
,,,,,,,,,147,103.394,0.0585338
,,,,,,,,,165,126.374,0.0356561
,,,,,,,,,184,71.7687,0.0448379
,,,,,,,,,204,165.584,0.0543275
,,,,,,,,,225,133.958,0.0156076
,,,,,,,,,98,57.0999,0.0983192
,,,,,,,,,113,123.399,0.00651571
,,,,,,,,,129,95.4018,0.0154471
,,,,,,,,,146,119.723,0.0177167
,,,,,,,,,164,41.4438,0.104846
,,,,,,,,,183,37.6059,0.0487819
,,,,,,,,,203,161.864,0.0677679
,,,,,,,,,224,75.6363,0.0920765
,,,,,,,,,246,132.488,0.0176913
,,,,,,,,,128,154.882,0.00660141
,,,,,,,,,145,39.4903,0.0159376
,,,,,,,,,163,62.7345,0.018365
,,,,,,,,,182,79.3339,0.132529
,,,,,,,,,202,48.9005,0.0540334
,,,,,,,,,223,127.979,0.0783459
,,,,,,,,,245,48.1947,0.112762
,,,,,,,,,268,79.8109,0.0183377
,,,,,,,,,162,136.83,0.00485322
,,,,,,,,,181,109.14,0.00505674
,,,,,,,,,201,118.401,0.00662911
,,,,,,,,,222,149.368,0.00618004
,,,,,,,,,244,43.1956,0.00640746
,,,,,,,,,267,154.285,0.00657149
,,,,,,,,,291,104.1,0.00505467
,,,,,,,,,200,27.7071,0.00917284
,,,,,,,,,221,102.92,0.0161001
,,,,,,,,,243,73.3692,0.0136849
,,,,,,,,,266,94.4,0.0148522
,,,,,,,,,290,43.4684,0.0157644
,,,,,,,,,315,40.5324,0.00916603
,,,,,,,,,242,129.568,0.018581
,,,,,,,,,265,101.018,0.0154369
,,,,,,,,,289,67.2938,0.0169386
,,,,,,,,,314,67.5353,0.0181353
,,,,,,,,,340,28.957,0.0099201
,,,,,,,,,288,31.3244,0.0559474
,,,,,,,,,313,148.854,0.0824349
,,,,,,,,,339,62.4117,0.121432
,,,,,,,,,366,117.624,0.0185531
,,,,,,,,,338,160.45,0.0433044
,,,,,,,,,365,39.7559,0.0520924
,,,,,,,,,393,99.6174,0.0154176
,,,,,,,,,392,121.443,0.0743301
,,,,,,,,,421,62.3656,0.0169154
,,,,,,,,,450,59.9248,0.0181087
