facetNormals:0,facetNormals:1,facetNormals:2,FacetCenters:0,FacetCenters:1,FacetCenters:2,FacetIds,relFacetSize,absFacetSize,cellPairingIds,interplanarAngles,angleWeights
-0.0783,0.258057,-0.931965,3.97793,7.50519,9.07911,1,0.0697352,0.00525385,8,37.0146,0.0326636
0.512942,0.357359,-0.766024,4.01382,7.50956,9.09636,2,0.0213263,0.00160673,13,44.6147,0.0544724
-0.568505,-0.26042,-0.745285,3.93471,7.48315,9.07603,3,0.044691,0.00336702,19,32.7507,0.0313401
0.26779,0.632039,-0.715788,4.00244,7.53071,9.0986,4,0.0202118,0.00152276,26,32.3686,0.049583
-0.163706,0.721261,-0.655496,3.94623,7.55766,9.09553,5,0.0384668,0.00289809,34,60.6868,0.0541126
0.571306,-0.407975,-0.647829,3.99627,7.47983,9.08181,6,0.0442086,0.00333068,43,58.6249,0.0711881
0.598365,0.665953,-0.396593,4.00992,7.55499,9.11793,7,0.0727029,0.00547744,53,82.3569,0.0474851
-0.589607,-0.744017,-0.294081,3.91751,7.46869,9.11717,8,0.035999,0.00271217,64,77.1127,0.0685901
-0.832297,-0.45237,-0.285018,3.92038,7.46705,9.12014,9,0.0674819,0.00508409,76,85.2326,0.0337279
-0.996392,0.00247467,-0.00180972,3.88843,7.51253,9.14246,10,0.0222429,0.00167578,89,87.952,0.042954
0.802819,0.574341,0.0548027,4.04453,7.52184,9.14367,11,0.0310352,0.00233819,103,91.9495,0.0799987
-0.785083,0.482136,0.233117,3.90788,7.54246,9.15737,12,0.0938047,0.00706725,118,114.353,0.0321259
0.900371,0.0471985,0.353073,4.02217,7.54302,9.17121,13,0.0208703,0.00157237,134,101.615,0.0494547
-0.357368,0.790882,0.454343,3.9524,7.57525,9.17041,14,0.0383126,0.00288647,151,123.095,0.0453765
0.585283,0.458173,0.632456,4.0161,7.52807,9.18177,15,0.0336296,0.00253365,169,111.309,0.0328816
0.250611,0.772219,0.5675,3.97549,7.5689,9.18055,16,0.0215126,0.00162076,188,156.855,0.0417066
-0.125554,-0.550252,0.779065,3.94184,7.48328,9.19946,17,0.0297494,0.00224132,208,149.55,0.0378451
-0.313516,0.071276,0.924475,3.93922,7.51417,9.20455,18,0.0259692,0.00195652,229,162.647,0.0659439
0.173146,0.0169054,0.940817,3.96921,7.5193,9.20257,19,0.0625435,0.00471203,18,78.8367,0.0288741
,,,,,,,,,25,21.6274,0.0207541
,,,,,,,,,33,46.2345,0.0274398
,,,,,,,,,42,47.0533,0.0287727
,,,,,,,,,52,28.7634,0.0329788
,,,,,,,,,63,110.433,0.0267849
,,,,,,,,,75,112.243,0.0324101
,,,,,,,,,88,121.096,0.021775
,,,,,,,,,102,53.9633,0.0252807
,,,,,,,,,117,115.801,0.0347519
,,,,,,,,,133,77.4369,0.0210958
,,,,,,,,,150,104.879,0.0274005
,,,,,,,,,168,91.2189,0.0261008
,,,,,,,,,187,91.7676,0.0214191
,,,,,,,,,207,154.401,0.0248433
,,,,,,,,,228,150.646,0.0234199
,,,,,,,,,250,131.419,0.031807
,,,,,,,,,32,77.0248,0.027835
,,,,,,,,,41,65.8233,0.041346
,,,,,,,,,51,73.4791,0.0444485
,,,,,,,,,62,103.231,0.0553549
,,,,,,,,,74,39.3061,0.0398769
,,,,,,,,,87,33.4067,0.0537712
,,,,,,,,,101,54.191,0.0297027
,,,,,,,,,116,132.261,0.0366318
,,,,,,,,,132,80.8498,0.0605394
,,,,,,,,,149,146.696,0.0284532
,,,,,,,,,167,110.992,0.0412567
,,,,,,,,,186,166.546,0.0383792
,,,,,,,,,206,142.695,0.0290443
,,,,,,,,,227,113.017,0.0357207
,,,,,,,,,249,123.771,0.0328499
,,,,,,,,,272,149.744,0.0521312
,,,,,,,,,50,25.9591,0.0264997
,,,,,,,,,61,67.7419,0.0277408
,,,,,,,,,73,27.0306,0.0316302
,,,,,,,,,86,115.071,0.0258884
,,,,,,,,,100,108.099,0.0311067
,,,,,,,,,115,105.493,0.0211788
,,,,,,,,,131,56.667,0.0244805
,,,,,,,,,148,94.4039,0.0332577
,,,,,,,,,166,88.9131,0.0205358
,,,,,,,,,185,85.3384,0.026463
,,,,,,,,,205,90.3781,0.0252488
,,,,,,,,,226,81.2775,0.0208419
,,,,,,,,,248,169.82,0.0240702
,,,,,,,,,271,136.202,0.0227316
,,,,,,,,,295,130.511,0.0305507
,,,,,,,,,72,87.762,0.0411384
,,,,,,,,,85,48.4123,0.0503132
,,,,,,,,,99,104.586,0.0371921
,,,,,,,,,114,90.1873,0.0490014
,,,,,,,,,130,80.2899,0.0281871
,,,,,,,,,147,75.3625,0.0343537
,,,,,,,,,165,69.8548,0.05456
,,,,,,,,,184,111.119,0.0270594
,,,,,,,,,204,70.0002,0.0383896
,,,,,,,,,225,100.751,0.0358859
,,,,,,,,,247,81.544,0.0275935
,,,,,,,,,270,158.899,0.0335511
,,,,,,,,,294,121.35,0.0310061
,,,,,,,,,319,132.013,0.0476357
,,,,,,,,,98,69.5324,0.0549834
,,,,,,,,,113,80.4682,0.0396837
,,,,,,,,,129,96.4587,0.0534205
,,,,,,,,,146,126.719,0.0295954
,,,,,,,,,164,78.4657,0.0364687
,,,,,,,,,183,151.293,0.0600953
,,,,,,,,,203,73.2608,0.0283547
,,,,,,,,,224,151.345,0.04105
,,,,,,,,,246,106.339,0.0382002
,,,,,,,,,269,124.762,0.0289417
,,,,,,,,,293,112.518,0.0355656
,,,,,,,,,318,149.679,0.0327187
,,,,,,,,,344,124.484,0.0518015
,,,,,,,,,128,138.75,0.0481543
,,,,,,,,,145,135.108,0.0699952
,,,,,,,,,163,127.492,0.0340642
,,,,,,,,,182,29.6712,0.0435009
,,,,,,,,,202,105.018,0.0819166
,,,,,,,,,223,63.0193,0.0324309
,,,,,,,,,245,82.0503,0.050181
,,,,,,,,,268,64.958,0.0459872
,,,,,,,,,292,63.0789,0.0332011
,,,,,,,,,317,142.821,0.0422219
,,,,,,,,,343,121.921,0.0382689
,,,,,,,,,370,106.002,0.0672416
,,,,,,,,,162,22.0654,0.0469513
,,,,,,,,,181,53.7046,0.0274965
,,,,,,,,,201,158.922,0.0333333
,,,,,,,,,222,87.8388,0.0520305
,,,,,,,,,244,134.112,0.0264223
,,,,,,,,,267,121.683,0.0371198
,,,,,,,,,291,154.028,0.034774
,,,,,,,,,316,154.59,0.0269314
,,,,,,,,,342,74.5736,0.0325772
,,,,,,,,,369,98.2779,0.0301725
,,,,,,,,,397,114.303,0.0456961
,,,,,,,,,200,32.7822,0.0334577
,,,,,,,,,221,164.765,0.0425168
,,,,,,,,,243,66.8978,0.0784953
,,,,,,,,,266,155.464,0.0318807
,,,,,,,,,290,101.297,0.048876
,,,,,,,,,315,154.953,0.0448888
,,,,,,,,,341,137.259,0.0326248
,,,,,,,,,368,82.0656,0.0412942
,,,,,,,,,396,92.0595,0.0375052
,,,,,,,,,425,116.337,0.0649189
,,,,,,,,,242,144.165,0.0259136
,,,,,,,,,265,34.217,0.0359592
,,,,,,,,,289,158.499,0.0215347
,,,,,,,,,314,68.5328,0.0281455
,,,,,,,,,340,126.849,0.026776
,,,,,,,,,367,104.602,0.0218717
,,,,,,,,,395,82.668,0.0254543
,,,,,,,,,424,71.4112,0.0239621
,,,,,,,,,454,100.528,0.0328154
,,,,,,,,,288,111.254,0.0466397
,,,,,,,,,313,36.5213,0.0249574
,,,,,,,,,339,78.5513,0.0342921
,,,,,,,,,366,37.2835,0.0322804
,,,,,,,,,394,46.3613,0.0254111
,,,,,,,,,423,113.165,0.0303787
,,,,,,,,,453,99.5232,0.0282771
,,,,,,,,,484,77.7762,0.0414849
,,,,,,,,,338,130.843,0.034144
,,,,,,,,,365,34.4392,0.0544047
,,,,,,,,,393,95.6404,0.0495096
,,,,,,,,,422,70.911,0.0349988
,,,,,,,,,452,89.067,0.0451726
,,,,,,,,,483,57.7754,0.0406772
,,,,,,,,,515,84.2221,0.0750488
,,,,,,,,,392,97.5129,0.0270211
,,,,,,,,,421,35.2307,0.0257564
,,,,,,,,,451,61.1728,0.0211866
,,,,,,,,,482,81.6016,0.0245311
,,,,,,,,,514,87.1277,0.0231422
,,,,,,,,,547,58.1496,0.031297
,,,,,,,,,450,62.561,0.0358187
,,,,,,,,,481,36.6,0.0275537
,,,,,,,,,513,92.2107,0.0334923
,,,,,,,,,546,52.142,0.0309558
,,,,,,,,,580,66.1518,0.0475173
,,,,,,,,,512,27.2537,0.0262398
,,,,,,,,,545,79.7463,0.0315707
,,,,,,,,,579,62.9881,0.0293071
,,,,,,,,,614,41.0566,0.0437401
,,,,,,,,,578,90.8575,0.0249693
,,,,,,,,,613,58.8785,0.0235318
,,,,,,,,,649,51.4699,0.0320137
,,,,,,,,,648,40.0898,0.0277311
,,,,,,,,,685,40.3063,0.0403201
,,,,,,,,,722,29.2982,0.0367
