"cellPairingIds","interplanarAngles","angleWeights"
8,143.907,0.0601986
19,99.511,0.0654221
26,80.348,0.0880503
64,44.0216,0.0523954
25,86.8779,0.0599522
33,88.2944,0.0784206
42,37.6589,0.0416755
61,120.32,0.0441139
86,59.9795,0.0799767
100,104.056,0.0522087
131,78.153,0.0193684
148,92.4439,0.0881767
72,57.6804,0.0533607
114,81.8888,0.0656784
130,43.6533,0.108138
113,62.0044,0.0504576
146,49.776,0.0488029
164,70.3441,0.0169648
201,44.2593,0.0205
200,79.238,0.0589069
243,63.3396,0.0660451
242,64.8114,0.0202214
265,55.3672,0.109136
288,34.0751,0.0210006
