Q	U	V
{$V$}	{[mm$^3$]}	0.0186346
{$d_v$}	{[mm]}	0.328933
{$S_c$}	{[mm$^2$]}	0.484599
{$S_o$}	{[mm$^2$]}	0.361623
{$S_l/S_o$}	[]	0.340067
{$\Psi$}	[]	0.701426
{$\eta$}	[]	0.722560
{med($\theta_e$)}	{[$^\circ$]}	57.2062
{$\Upsilon$}	[]	16
{$\Xi$}	[]	18
