"cellPairingIds","interplanarAngles","angleWeights"
8,27.9941,0.053281
13,42.888,0.0419831
19,59.0455,0.0387236
43,66.4204,0.0390108
134,115.222,0.0638715
18,51.0839,0.0434964
33,49.7024,0.0196818
42,70.9933,0.052828
52,52.7824,0.0403141
75,65.3858,0.0599113
51,34.42,0.0417014
149,75.9925,0.0284736
167,92.961,0.0503058
73,50.7863,0.0313865
86,63.1796,0.045108
185,102.919,0.0456968
226,84.4821,0.0368517
271,97.9921,0.0382545
72,40.7781,0.0193058
114,50.4355,0.0201775
129,89.6766,0.0565579
183,45.2571,0.0491009
203,57.0266,0.0321966
246,59.9039,0.0485906
128,39.9656,0.0454981
145,49.6937,0.0424504
162,55.426,0.0721238
316,46.6598,0.0579579
342,53.1386,0.0370971
243,77.9497,0.0551626
368,56.2006,0.0350456
393,28.5098,0.0475571
452,66.5757,0.0320313
392,35.1907,0.0370953
421,23.9666,0.0315255
450,51.6317,0.0606851
546,51.0227,0.0626052
545,69.4995,0.0318133
579,63.0465,0.0482256
578,40.7421,0.0313253
613,26.9336,0.047113
648,52.0956,0.0323332
