Q	U	V
{$V$}	{[mm$^3$]}	0.0132757
{$d_v$}	{[mm]}	0.293778
{$S_c$}	{[mm$^2$]}	0.394617
{$S_o$}	{[mm$^2$]}	0.282771
{$S_l/S_o$}	[]	0.395536
{$\Psi$}	[]	0.687089
{$\eta$}	[]	0.696437
{med($\theta_e$)}	{[$^\circ$]}	67.34825
{$\Upsilon$}	[]	12
{$\Xi$}	[]	8
