facetNormals:0,facetNormals:1,facetNormals:2,FacetCenters:0,FacetCenters:1,FacetCenters:2,FacetIds,relFacetSize,absFacetSize,cellPairingIds,interplanarAngles,angleWeights
0.187935,0.439804,-0.853835,4.79972,6.05041,6.59109,1,0.020486,0.00324399,8,42.4103,0.0300211
-0.484746,0.236988,-0.804184,4.76988,6.03545,6.58379,2,0.0561606,0.00889311,13,79.725,0.0284805
-0.344364,-0.65418,-0.608526,4.78429,5.98522,6.58305,3,0.0467079,0.00739627,19,30.894,0.0312368
0.533517,0.627137,-0.514478,4.79233,6.04896,6.64988,4,0.065732,0.0104088,26,32.7727,0.0291015
-0.0714884,0.801716,-0.533336,4.80009,6.08806,6.62521,5,0.0502232,0.00795292,34,76.1675,0.0293993
-0.867604,0.312524,-0.295343,4.75348,6.0622,6.62456,6,0.0520426,0.00824102,43,68.9707,0.0267253
0.96019,0.172561,-0.103272,4.84328,6.06413,6.65347,7,0.0384297,0.00608539,53,68.3669,0.0265138
0.10787,0.955544,0.107086,4.7671,6.02696,6.59543,8,0.0375676,0.00594888,64,88.0051,0.029266
-0.587278,0.711494,0.19956,4.76736,5.99845,6.63845,9,0.0512165,0.0081102,76,110.357,0.0184321
0.638446,-0.745847,0.15251,4.8402,6.0154,6.70105,10,0.0167525,0.00265278,89,88.3268,0.0340841
0.903342,-0.33385,-0.0053636,4.86013,6.04502,6.64965,11,0.101372,0.0160524,103,122.938,0.0274727
0.286791,-0.897724,0.201311,4.81124,5.98986,6.67873,12,0.0416914,0.00660189,118,135.647,0.0328391
-0.504978,-0.75686,0.278972,4.7759,6.00681,6.69591,13,0.0827186,0.0130986,134,123.009,0.0230692
0.679901,-0.49973,0.506878,4.82405,6.01462,6.71522,14,0.0263978,0.00418012,151,121.597,0.0296221
0.465197,0.215368,0.767712,4.78378,5.99897,6.60578,15,0.0534664,0.00846648,169,149.897,0.0155517
-0.359691,0.0325463,0.890151,4.7593,6.00468,6.64739,16,0.012533,0.00198462,18,57.2777,0.051
,,,,,,,,,25,71.1529,0.0605705
,,,,,,,,,33,45.6589,0.0530262
,,,,,,,,,42,38.6709,0.0540232
,,,,,,,,,52,111.067,0.0456333
,,,,,,,,,63,84.6082,0.0450199
,,,,,,,,,75,71.3171,0.0535747
,,,,,,,,,88,129.258,0.0258069
,,,,,,,,,102,123.347,0.0722785
,,,,,,,,,117,123.394,0.0478562
,,,,,,,,,133,99.9298,0.0669002
,,,,,,,,,150,153.842,0.0359143
,,,,,,,,,168,152.343,0.0547804
,,,,,,,,,187,125.013,0.0204928
,,,,,,,,,32,107.588,0.0546106
,,,,,,,,,41,100.93,0.0484018
,,,,,,,,,51,72.8082,0.0492312
,,,,,,,,,62,113.909,0.0421663
,,,,,,,,,74,141.735,0.0416421
,,,,,,,,,87,115.188,0.0488584
,,,,,,,,,101,79.3846,0.0246602
,,,,,,,,,116,95.5644,0.0639503
,,,,,,,,,132,66.6309,0.0440573
,,,,,,,,,149,56.7776,0.0597036
,,,,,,,,,167,103.228,0.0337316
,,,,,,,,,186,150.36,0.0498592
,,,,,,,,,206,118.515,0.0197631
,,,,,,,,,50,37.969,0.0569405
,,,,,,,,,61,97.0225,0.0580917
,,,,,,,,,73,44.9887,0.0485027
,,,,,,,,,86,50.1683,0.0478103
,,,,,,,,,100,88.1108,0.0575734
,,,,,,,,,115,102.306,0.0267002
,,,,,,,,,131,72.8744,0.0797513
,,,,,,,,,148,123.291,0.0510216
,,,,,,,,,166,163.871,0.0732535
,,,,,,,,,185,102.782,0.0376681
,,,,,,,,,205,90.749,0.0589682
,,,,,,,,,226,132.446,0.0210521
,,,,,,,,,72,59.815,0.0511167
,,,,,,,,,85,82.4303,0.043542
,,,,,,,,,99,41.3563,0.0429832
,,,,,,,,,114,56.2783,0.050715
,,,,,,,,,130,139.083,0.0251245
,,,,,,,,,147,110.744,0.0671687
,,,,,,,,,165,155.63,0.0455613
,,,,,,,,,184,141.534,0.0624994
,,,,,,,,,204,139.21,0.0346062
,,,,,,,,,225,107.636,0.0517941
,,,,,,,,,247,117.128,0.0200601
,,,,,,,,,98,142.007,0.044212
,,,,,,,,,113,79.3334,0.043636
,,,,,,,,,129,42.5853,0.0516262
,,,,,,,,,146,149.866,0.0253461
,,,,,,,,,164,161.916,0.0687765
,,,,,,,,,183,129.126,0.0462955
,,,,,,,,,203,82.5683,0.0638892
,,,,,,,,,224,160.017,0.0350281
,,,,,,,,,246,129.041,0.0527449
,,,,,,,,,269,86.3423,0.0202012
,,,,,,,,,128,74.2653,0.0379937
,,,,,,,,,145,119.91,0.0439111
,,,,,,,,,163,61.2666,0.0233334
,,,,,,,,,182,30.9441,0.0557317
,,,,,,,,,202,83.9481,0.0399941
,,,,,,,,,223,133.639,0.0524786
,,,,,,,,,245,57.8226,0.0312972
,,,,,,,,,268,63.4664,0.0447178
,,,,,,,,,292,117.263,0.0189017
,,,,,,,,,162,45.6966,0.0433429
,,,,,,,,,181,130.748,0.0231719
,,,,,,,,,201,103.792,0.0548195
,,,,,,,,,222,149.734,0.0395222
,,,,,,,,,244,144.306,0.0516691
,,,,,,,,,267,111.554,0.0310074
,,,,,,,,,291,67.7512,0.0441287
,,,,,,,,,316,84.5906,0.0187956
,,,,,,,,,200,158.94,0.0252469
,,,,,,,,,221,147.787,0.0680512
,,,,,,,,,243,147.478,0.0459657
,,,,,,,,,266,101.968,0.0632628
,,,,,,,,,290,134.714,0.034839
,,,,,,,,,315,87.8139,0.0523173
,,,,,,,,,341,62.9727,0.0201381
,,,,,,,,,242,30.4468,0.0287533
,,,,,,,,,265,22.6908,0.023901
,,,,,,,,,289,72.4798,0.0278622
,,,,,,,,,314,25.3116,0.0204971
,,,,,,,,,340,73.9581,0.0255115
,,,,,,,,,367,97.1116,0.0143388
,,,,,,,,,288,53.0654,0.0590834
,,,,,,,,,313,102.924,0.0911002
,,,,,,,,,339,34.815,0.0418877
,,,,,,,,,366,67.2213,0.0700084
,,,,,,,,,394,111.599,0.022308
,,,,,,,,,338,49.895,0.0554401
,,,,,,,,,365,38.181,0.032327
,,,,,,,,,393,83.8942,0.0468504
,,,,,,,,,422,87.1008,0.0192725
,,,,,,,,,392,79.1524,0.0400231
,,,,,,,,,421,102.073,0.0649509
,,,,,,,,,451,63.6807,0.0217679
,,,,,,,,,450,48.8616,0.0353448
,,,,,,,,,481,78.385,0.0169965
,,,,,,,,,512,53.8544,0.0203061
