facetNormals:0,facetNormals:1,facetNormals:2,FacetCenters:0,FacetCenters:1,FacetCenters:2,FacetIds,relFacetSize,absFacetSize,cellPairingIds,interplanarAngles,angleWeights
-0.562012,0.422236,-0.672155,4.63091,4.53864,6.21609,1,0.0496652,0.00897985,8,92.4002,0.0146048
0.294095,-0.705844,-0.62929,4.67766,4.4542,6.22149,2,0.0085612,0.00154793,13,36.0147,0.0381326
-0.842789,-0.0732477,-0.479364,4.59518,4.58623,6.30624,3,0.0309466,0.00559537,19,93.7162,0.0588225
0.824014,0.132288,-0.513964,4.7222,4.53036,6.25763,4,0.07212,0.0130398,26,33.353,0.0405809
-0.219488,0.826254,-0.486068,4.63684,4.61733,6.28171,5,0.034306,0.00620279,34,67.9604,0.0650195
0.455386,0.715962,-0.453371,4.70383,4.59335,6.28286,6,0.0941159,0.0170169,43,35.2839,0.0170167
-0.885361,0.428619,-0.169439,4.59135,4.57469,6.30548,7,0.0102673,0.0018564,53,115.492,0.0252381
0.964037,0.227776,-0.0454506,4.74228,4.48896,6.33191,8,0.0169175,0.00305882,64,126.835,0.0671601
0.818232,-0.489846,-0.153893,4.73706,4.48479,6.31436,9,0.103683,0.0187467,76,93.2464,0.0311925
0.471195,0.839495,0.214188,4.70479,4.49969,6.26864,10,0.022736,0.00411084,89,160.103,0.0434272
0.611105,-0.63591,0.416803,4.71745,4.45964,6.39018,11,0.0385814,0.00697581,103,147.167,0.0274762
0.178102,-0.801562,0.547372,4.70518,4.47789,6.4028,12,0.0189914,0.00343379,118,116.502,0.0222868
-0.445845,-0.610263,0.621047,4.6502,4.48091,6.41992,13,0.0143669,0.00259764,134,153.262,0.0485375
0.709546,-0.00981786,0.608761,4.71843,4.48938,6.38316,14,0.0474599,0.00858111,151,102.894,0.0676101
-0.0024469,0.644073,0.718101,4.67312,4.60002,6.40539,15,0.105859,0.0191401,169,114.575,0.0711369
-0.302737,0.103618,0.883932,4.62169,4.5204,6.41518,16,0.125314,0.0226576,18,83.7099,0.013412
,,,,,,,,,25,60.8768,0.0153055
,,,,,,,,,33,110.551,0.0137028
,,,,,,,,,42,95.1868,0.0156947
,,,,,,,,,52,117.491,0.00933693
,,,,,,,,,63,81.1344,0.011369
,,,,,,,,,75,44.4213,0.0158164
,,,,,,,,,88,127.072,0.0124386
,,,,,,,,,102,67.7178,0.0140129
,,,,,,,,,117,73.7358,0.0118021
,,,,,,,,,133,95.4014,0.010729
,,,,,,,,,150,100.421,0.0145057
,,,,,,,,,168,161.75,0.0158413
,,,,,,,,,187,140.507,0.0160274
,,,,,,,,,32,118.708,0.0433092
,,,,,,,,,41,68.0482,0.0325398
,,,,,,,,,51,103.534,0.0465777
,,,,,,,,,62,34.8986,0.0154189
,,,,,,,,,74,146.862,0.0218761
,,,,,,,,,87,128.13,0.0476661
,,,,,,,,,101,125.825,0.0262134
,,,,,,,,,116,134.792,0.0343448
,,,,,,,,,132,111.635,0.023538
,,,,,,,,,149,82.5853,0.0196236
,,,,,,,,,167,167.96,0.0374643
,,,,,,,,,186,114.526,0.0478924
,,,,,,,,,206,101.112,0.0496355
,,,,,,,,,50,79.3422,0.0464952
,,,,,,,,,61,41.796,0.0816627
,,,,,,,,,73,126.78,0.0179755
,,,,,,,,,86,29.2651,0.0274062
,,,,,,,,,100,43.3462,0.0850682
,,,,,,,,,115,66.2544,0.0345728
,,,,,,,,,131,77.6057,0.0502702
,,,,,,,,,148,104.404,0.0300656
,,,,,,,,,166,143.159,0.0239606
,,,,,,,,,185,72.8317,0.0572472
,,,,,,,,,205,107.601,0.0857915
,,,,,,,,,226,138.498,0.0915509
,,,,,,,,,72,41.1885,0.0502833
,,,,,,,,,85,50.0098,0.0158045
,,,,,,,,,99,90.0765,0.0226604
,,,,,,,,,114,122.436,0.0515541
,,,,,,,,,130,59.9208,0.0273476
,,,,,,,,,147,153.99,0.0363183
,,,,,,,,,165,175.468,0.0244484
,,,,,,,,,184,137.411,0.0202524
,,,,,,,,,204,120.001,0.0398249
,,,,,,,,,225,78.837,0.0518189
,,,,,,,,,247,107.473,0.0538657
,,,,,,,,,98,91.1628,0.0185147
,,,,,,,,,113,49.2521,0.0286798
,,,,,,,,,129,84.339,0.0986682
,,,,,,,,,146,40.7739,0.0366244
,,,,,,,,,164,112.953,0.0547279
,,,,,,,,,183,141.302,0.0316053
,,,,,,,,,203,168.298,0.0249284
,,,,,,,,,224,87.4452,0.0631002
,,,,,,,,,246,81.6696,0.0996426
,,,,,,,,,269,120.899,0.107497
,,,,,,,,,128,139.105,0.0127789
,,,,,,,,,145,160.397,0.0186843
,,,,,,,,,163,95.4588,0.0141463
,,,,,,,,,182,155.251,0.0162185
,,,,,,,,,202,127.088,0.0133287
,,,,,,,,,223,88.3606,0.0119759
,,,,,,,,,245,142.017,0.0168823
,,,,,,,,,268,80.6423,0.0187189
,,,,,,,,,292,80.0165,0.0189795
,,,,,,,,,162,44.4142,0.0290888
,,,,,,,,,181,49.4544,0.0193999
,,,,,,,,,201,63.9143,0.0235212
,,,,,,,,,222,92.0942,0.0178946
,,,,,,,,,244,127.988,0.0155382
,,,,,,,,,267,45.1267,0.0249436
,,,,,,,,,291,83.2936,0.0291729
,,,,,,,,,316,109.321,0.0298106
,,,,,,,,,200,93.5288,0.037294
,,,,,,,,,221,37.5196,0.0562366
,,,,,,,,,243,61.5497,0.0321027
,,,,,,,,,266,99.8373,0.0252368
,,,,,,,,,290,57.0148,0.0651144
,,,,,,,,,315,117.344,0.10476
,,,,,,,,,341,118.586,0.113477
,,,,,,,,,242,99.3694,0.0286113
,,,,,,,,,265,118.994,0.0206957
,,,,,,,,,289,127.655,0.0176076
,,,,,,,,,314,60.3266,0.0307439
,,,,,,,,,340,43.2132,0.0374324
,,,,,,,,,367,81.7106,0.0384888
,,,,,,,,,288,28.409,0.0254535
,,,,,,,,,313,66.894,0.0209372
,,,,,,,,,339,40.493,0.0425625
,,,,,,,,,366,96.8212,0.0565518
,,,,,,,,,394,82.6364,0.0589984
,,,,,,,,,338,39.0472,0.0163586
,,,,,,,,,365,59.5589,0.0271275
,,,,,,,,,393,97.4624,0.0322051
,,,,,,,,,422,68.0434,0.0329841
,,,,,,,,,392,85.7541,0.0220568
,,,,,,,,,421,86.7186,0.0253001
,,,,,,,,,451,47.5472,0.0257784
,,,,,,,,,450,61.5903,0.0655373
,,,,,,,,,481,68.4891,0.0688458
,,,,,,,,,512,39.2498,0.114768
