Q	U	V
{$V$}	{[mm$^3$]}	0.00422137
{$d_v$}	{[mm]}	0.200517
{$S_c$}	{[mm$^2$]}	0.232471
{$S_o$}	{[mm$^2$]}	0.135815
{$S_l/S_o$}	[]	0.711674
{$\Psi$}	[]	0.543356
{$\eta$}	[]	0.576554
{med($\theta_e$)}	{[$^\circ$]}	74.3976
{$\Upsilon$}	[]	17
{$\Xi$}	[]	10
