Q	U	V
{$V$}	{[mm$^3$]}	0.0129194
{$d_v$}	{[mm]}	0.291126
{$S_c$}	{[mm$^2$]}	0.549129
{$S_o$}	{[mm$^2$]}	0.327449
{$S_l/S_o$}	[]	0.676991
{$\Psi$}	[]	0.484884
{$\eta$}	[]	0.531970
{med($\theta_e$)}	{[$^\circ$]}	55.2114
{$\Upsilon$}	[]	15
{$\Xi$}	[]	8
