facetNormals:0,facetNormals:1,facetNormals:2,FacetCenters:0,FacetCenters:1,FacetCenters:2,FacetIds,relFacetSize,absFacetSize,cellPairingIds,interplanarAngles,angleWeights
0.243435,0.342782,-0.863616,3.80928,4.80262,5.54976,1,0.040424,0.0131738,8,50.9121,0.0214717
-0.530446,0.033874,-0.823273,3.64323,4.78781,5.45419,2,0.0146181,0.00476391,13,66.5485,0.0478656
0.0211571,-0.66481,-0.678456,3.83796,4.69096,5.52477,3,0.0586654,0.0191185,19,40.3243,0.0294949
0.722101,-0.0660645,-0.646327,3.86383,4.75208,5.48581,4,0.0232178,0.00756645,26,96.5853,0.0236204
-0.464853,-0.80536,-0.325046,3.7746,4.69895,5.54428,5,0.0166848,0.00543743,34,47.1539,0.045278
0.631257,0.652925,-0.28219,3.84792,4.79484,5.55609,6,0.0514568,0.0167693,43,84.0183,0.0487814
0.846557,-0.431751,-0.0429986,3.773,4.79414,5.61549,7,0.0614951,0.0200407,53,69.9463,0.0145724
-0.0832648,0.990917,-0.00942162,3.65773,4.83134,5.60343,8,0.00888826,0.0028966,64,78.9152,0.0331775
0.887752,0.368271,0.187037,3.88295,4.78711,5.59053,9,0.0281342,0.00916866,76,109.788,0.0561604
-0.901867,0.00331253,0.0882959,3.64019,4.79776,5.58669,10,0.0919582,0.0299683,89,124.657,0.014426
-0.156313,-0.958605,0.203027,3.78556,4.68139,5.58518,11,0.0087796,0.00286119,103,97.0679,0.026558
-0.653346,0.698589,0.227672,3.63433,4.83903,5.62537,12,0.0197749,0.00644445,118,100.105,0.0216347
-0.26464,0.838324,0.450948,3.66899,4.84621,5.6062,13,0.0147696,0.00481329,134,144.642,0.0471576
0.150431,-0.711477,0.636771,3.81744,4.70834,5.63878,14,0.056583,0.0184399,151,158.177,0.0561571
-0.474849,-0.513651,0.643985,3.71602,4.73919,5.64852,15,0.0919405,0.0299625,169,143.257,0.0354286
-0.518674,0.196713,0.798139,3.74133,4.80454,5.63023,16,0.031532,0.010276,188,110.097,0.0593278
0.242819,0.62106,0.678531,3.80966,4.83222,5.63541,17,0.111443,0.0363181,208,130.614,0.052301
0.534314,-0.169473,0.777028,3.81356,4.78939,5.65365,18,0.074061,0.0241358,18,55.6901,0.0234044
,,,,,,,,,25,81.1265,0.0179406
,,,,,,,,,33,59.7086,0.0155833
,,,,,,,,,42,94.9498,0.0227682
,,,,,,,,,52,117.35,0.0236212
,,,,,,,,,63,84.9672,0.0110548
,,,,,,,,,75,129.662,0.0192396
,,,,,,,,,88,62.8071,0.0252262
,,,,,,,,,102,96.8933,0.0109704
,,,,,,,,,117,79.0638,0.0168099
,,,,,,,,,133,102.071,0.0146935
,,,,,,,,,150,131.54,0.0232338
,,,,,,,,,168,108.503,0.0252255
,,,,,,,,,187,113.205,0.0199756
,,,,,,,,,207,135.626,0.025846
,,,,,,,,,228,171.617,0.0244169
,,,,,,,,,32,57.3654,0.0332689
,,,,,,,,,41,37.1378,0.0259806
,,,,,,,,,51,104.698,0.0548252
,,,,,,,,,62,68.3047,0.0600469
,,,,,,,,,74,133.814,0.0154376
,,,,,,,,,87,112.296,0.0380302
,,,,,,,,,101,95.4109,0.0716324
,,,,,,,,,116,58.2397,0.0152734
,,,,,,,,,132,132.633,0.0295792
,,,,,,,,,149,157.756,0.0235982
,,,,,,,,,167,87.2439,0.0576054
,,,,,,,,,186,96.7053,0.071627
,,,,,,,,,206,137.719,0.0410175
,,,,,,,,,227,163.821,0.0768667
,,,,,,,,,249,116.291,0.0654703
,,,,,,,,,50,94.3382,0.0194165
,,,,,,,,,61,49.8952,0.0319978
,,,,,,,,,73,43.738,0.0337087
,,,,,,,,,86,97.1063,0.0128553
,,,,,,,,,100,58.5786,0.0254406
,,,,,,,,,115,143.604,0.0370748
,,,,,,,,,131,100.81,0.0127412
,,,,,,,,,148,134.137,0.0213585
,,,,,,,,,166,124.092,0.0180543
,,,,,,,,,185,105.818,0.0329253
,,,,,,,,,205,141.738,0.0370734
,,,,,,,,,226,163.105,0.0267436
,,,,,,,,,248,109.222,0.0384292
,,,,,,,,,271,96.4897,0.0353527
,,,,,,,,,72,140.953,0.0251989
,,,,,,,,,85,91.9468,0.0262481
,,,,,,,,,99,140.536,0.0115981
,,,,,,,,,114,142.977,0.0209471
,,,,,,,,,130,64.2457,0.0282449
,,,,,,,,,147,37.187,0.0115052
,,,,,,,,,165,110.104,0.0180989
,,,,,,,,,184,135.882,0.0156689
,,,,,,,,,204,71.8826,0.0257706
,,,,,,,,,225,63.0086,0.0282441
,,,,,,,,,247,100.638,0.0218225
,,,,,,,,,270,152.812,0.0290242
,,,,,,,,,294,112.716,0.0272342
,,,,,,,,,98,72.9916,0.0560299
,,,,,,,,,113,50.8503,0.0151582
,,,,,,,,,129,36.5473,0.0363784
,,,,,,,,,146,133.394,0.0659886
,,,,,,,,,164,145.95,0.0149999
,,,,,,,,,183,91.2593,0.0285702
,,,,,,,,,203,74.3764,0.0229515
,,,,,,,,,224,126.693,0.0538983
,,,,,,,,,246,154.604,0.0659841
,,,,,,,,,269,117.317,0.0391026
,,,,,,,,,293,66.0475,0.0704052
,,,,,,,,,318,89.5368,0.0607236
,,,,,,,,,128,121.758,0.0155316
,,,,,,,,,145,51.1325,0.038606
,,,,,,,,,163,153.093,0.0737029
,,,,,,,,,182,73.1999,0.0153655
,,,,,,,,,202,157.562,0.0299264
,,,,,,,,,223,130.098,0.0238186
,,,,,,,,,245,63.7175,0.0589369
,,,,,,,,,268,103.289,0.0736973
,,,,,,,,,292,127.147,0.0416882
,,,,,,,,,317,95.8193,0.079256
,,,,,,,,,343,57.3227,0.0671956
,,,,,,,,,162,72.7192,0.0135088
,,,,,,,,,181,85.0636,0.0162098
,,,,,,,,,201,162.063,0.00883359
,,,,,,,,,222,40.4097,0.0122641
,,,,,,,,,244,30.2793,0.0110979
,,,,,,,,,267,138.827,0.0153632
,,,,,,,,,291,120.192,0.0162095
,,,,,,,,,316,76.1982,0.0138675
,,,,,,,,,342,51.511,0.0164635
,,,,,,,,,369,103.334,0.0158717
,,,,,,,,,200,151.928,0.0430863
,,,,,,,,,221,117.847,0.0133829
,,,,,,,,,243,106.918,0.0232253
,,,,,,,,,266,80.5917,0.0193704
,,,,,,,,,290,90.5673,0.0375819
,,,,,,,,,315,121.777,0.0430844
,,,,,,,,,341,104.527,0.0297363
,,,,,,,,,368,52.1795,0.0449265
,,,,,,,,,396,53.5577,0.0407778
,,,,,,,,,242,80.0268,0.0160289
,,,,,,,,,265,46.6472,0.0325501
,,,,,,,,,289,71.6907,0.0254515
,,,,,,,,,314,95.3586,0.0700583
,,,,,,,,,340,55.8711,0.0919494
,,,,,,,,,367,52.2778,0.0469613
,,,,,,,,,395,100.494,0.100767
,,,,,,,,,424,118.466,0.0820449
,,,,,,,,,288,122.3,0.0121603
,,,,,,,,,313,133.167,0.0110128
,,,,,,,,,339,34.7771,0.0152006
,,,,,,,,,366,42.34,0.0160286
,,,,,,,,,394,86.7576,0.0137349
,,,,,,,,,423,121.665,0.0162769
,,,,,,,,,453,75.5835,0.0156982
,,,,,,,,,338,27.5589,0.0169097
,,,,,,,,,365,118.285,0.0293073
,,,,,,,,,393,83.981,0.032549
,,,,,,,,,422,46.4861,0.0243064
,,,,,,,,,452,62.6528,0.0335895
,,,,,,,,,483,107.966,0.0312151
,,,,,,,,,392,111.442,0.0234248
,,,,,,,,,421,90.8868,0.0254508
,,,,,,,,,451,46.4143,0.0201166
,,,,,,,,,482,35.7992,0.0260825
,,,,,,,,,514,85.9459,0.0246279
,,,,,,,,,450,39.9942,0.0700532
,,,,,,,,,481,72.0048,0.0404965
,,,,,,,,,513,88.3345,0.0750571
,,,,,,,,,546,41.301,0.0641529
,,,,,,,,,512,44.4931,0.0469589
,,,,,,,,,545,89.8319,0.100757
,,,,,,,,,579,68.5102,0.0820379
,,,,,,,,,578,54.4381,0.0491557
,,,,,,,,,613,70.5757,0.044232
,,,,,,,,,648,52.7504,0.0889853
