"cellPairingIds","interplanarAngles","angleWeights"
8,60.7818,0.0806013
13,46.8385,0.0522567
26,43.4504,0.024164
34,84.5505,0.072818
43,47.3739,0.0560407
53,70.9184,0.0371815
18,74.8069,0.0758881
25,60.7235,0.0619655
42,56.2847,0.128636
75,68.9396,0.0701968
117,60.214,0.0886572
133,71.421,0.0477083
32,41.3889,0.04373
41,38.1304,0.0237223
74,82.5082,0.0361459
86,121.826,0.0326516
166,62.4582,0.0326254
205,92.1137,0.0267051
99,44.6053,0.0200348
98,83.6195,0.0756929
129,24.8686,0.0642187
146,42.9014,0.0371169
128,31.7548,0.0379169
163,48.6455,0.0322028
182,29.104,0.045332
201,30.2617,0.0321436
267,62.6264,0.0242839
291,131.66,0.023672
200,55.0337,0.0299279
243,41.5176,0.0524183
290,59.6912,0.0289946
315,57.0813,0.0281265
341,35.531,0.0349434
242,36.5594,0.0279407
314,33.8515,0.0218058
339,37.5619,0.0271255
338,27.1487,0.0387711
393,35.9319,0.0306867
421,31.8827,0.0236582
450,82.6718,0.0208337
481,51.1487,0.0243526
512,33.8456,0.0237373
