Q	U	V
{$V$}	{[mm$^3$]}	0.00202816
{$d_v$}	{[mm]}	0.157049
{$S_c$}	{[mm$^2$]}	0.150813
{$S_o$}	{[mm$^2$]}	0.0814969
{$S_l/S_o$}	[]	0.850537
{$\Psi$}	[]	0.513784
{$\eta$}	[]	0.568292
{med($\theta_e$)}	{[$^\circ$]}	
{$\Upsilon$}	[]	20
{$\Xi$}	[]	9
