Q	U	V
{$V$}	{[mm$^3$]}	0.0108699
{$d_v$}	{[mm]}	0.274837
{$S_c$}	{[mm$^2$]}	0.453806
{$S_o$}	{[mm$^2$]}	0.291051
{$S_l/S_o$}	[]	0.559198
{$\Psi$}	[]	0.522915
{$\eta$}	[]	0.604523
{med($\theta_e$)}	{[$^\circ$]}	62.56375
{$\Upsilon$}	[]	14
{$\Xi$}	[]	16
